Objeto do Contrato,KEEP?,Tipo de Procedimento,Tipo(s) de Contrato,CPVs,Entidade(s) Adjudicante(s),NIF_Adjudicante,Entidade(s) Adjudicatária(s),NIF_Adjudicatária,Preço Contratualx,Data de Publicação.x,Data de Celebração do Contrato,Prazo de Execução,Local de Execução.x,Fundamentação.x,Data de Fecho do Contrato.x,Preço Total Efetivo.x,Causas das Alterações ao Prazo.x,Causas das Alterações ao Preço.x,Estado.x,N.º registo do Acordo Quadro.x,Descrição do Acordo Quadro.x,Procedimento Centralizado.x
prestação de serviços médicos,S,Ao abrigo de acordo-quadro (art.º 259.º),Aquisição de serviços,"79625000-1, Serviços de fornecimento de pessoal médico","Hospital do Espírito Santo de Évora, E. P. E. ",508085888,GS24 Healthcare ,"507824652, HELPED- (506069010",867266.4,2015-08-06,2015-01-08,365,"Portugal, Évora, Évora","Artigo 20.º, n.º 1, alínea b) do Código dos Contratos Públicos",,,"","","",1490434,ACORDO QUADRO PARA PRESTAÇÃO DE SERVIÇOS MÉDICOS ÀS INSTITUIÇÕES E SERVIÇOS DO SERVIÇO NACIONAL DE SAÚDE,FALSE
prestação de serviços médicos,S,Ao abrigo de acordo-quadro (art.º 259.º),Aquisição de serviços,"79625000-1, Serviços de fornecimento de pessoal médico","Hospital do Espírito Santo de Évora, E. P. E. ",508085888,HELPED- ,"506069010, GS24 Healthcare (507824652",867266.4,2015-08-06,2015-01-08,365,"Portugal, Évora, Évora","Artigo 20.º, n.º 1, alínea b) do Código dos Contratos Públicos",,,"","","",1490434,ACORDO QUADRO PARA PRESTAÇÃO DE SERVIÇOS MÉDICOS ÀS INSTITUIÇÕES E SERVIÇOS DO SERVIÇO NACIONAL DE SAÚDE,FALSE
prestação de serviços médicos na urgência,S,Concurso público,Aquisição de serviços,"85121200-5, Serviços de medicina especializada","Hospital do Espírito Santo de Évora, E.P.E. ",508085888,HELPED-PRESTAÇÃO DE SERVIÇOS DE SAÚDE LDA ,"506069010, SUCESSO 24 HORAS LDA (507328310, URGEV-PRESTAÇÃO SERVIÇOS MEDICOS LDA (507102533",532188.82,2012-10-11,2012-09-24,365,"Portugal, Évora, Évora","Artigo 20.º, n.º 1, alínea b) do Código dos Contratos Públicos",,,"","","",Não aplicável.,Não aplicável.,
prestação de serviços médicos na urgência,S,Concurso público,Aquisição de serviços,"85121200-5, Serviços de medicina especializada","Hospital do Espírito Santo de Évora, E.P.E. ",508085888,HELPED-PRESTAÇÃO DE SERVIÇOS DE SAÚDE LDA ,"506069010, SUCESSO 24 HORAS LDA (507328310, URGEV-PRESTAÇÃO SERVIÇOS MEDICOS LDA (507102533",532188.82,2012-10-11,2012-09-24,365,"Portugal, Évora, Évora","Artigo 20.º, n.º 1, alínea b) do Código dos Contratos Públicos",,,"","","",Não aplicável.,Não aplicável.,
prestação de serviços médicos na urgência,S,Concurso público,Aquisição de serviços,"85121200-5, Serviços de medicina especializada","Hospital do Espírito Santo de Évora, E.P.E. ",508085888,HELPED-PRESTAÇÃO DE SERVIÇOS DE SAÚDE LDA ,"506069010, SUCESSO 24 HORAS LDA (507328310, URGEV-PRESTAÇÃO SERVIÇOS MEDICOS LDA (507102533",532188.82,2012-10-11,2012-09-24,365,"Portugal, Évora, Évora","Artigo 20.º, n.º 1, alínea b) do Código dos Contratos Públicos",,,"","","",Não aplicável.,Não aplicável.,
prestação de serviços médicos,S,Ao abrigo de acordo-quadro (art.º 259.º),Aquisição de serviços,"85120000-6, Serviços de prática médica e serviços conexos","Hospital do Espírito Santo de Évora, E. P. E. ",508085888,MEDIPEOPLE- LDA ,"508543436, KELLY SERVICES - HEALTHCARE UNIPESSOAL LDA (510723691",436957.62,2016-06-09,2016-04-07,270,"Portugal, Évora, Évora","Artigo 20.º, n.º 1, alínea b) do Código dos Contratos Públicos",,,"","","",1490434,ACORDO QUADRO PARA PRESTAÇÃO DE SERVIÇOS MÉDICOS ÀS INSTITUIÇÕES E SERVIÇOS DO SERVIÇO NACIONAL DE SAÚDE,FALSE
prestação de serviços médicos,S,Ao abrigo de acordo-quadro (art.º 259.º),Aquisição de serviços,"85120000-6, Serviços de prática médica e serviços conexos","Hospital do Espírito Santo de Évora, E. P. E. ",508085888,MEDIPEOPLE- LDA ,"508543436, KELLY SERVICES - HEALTHCARE UNIPESSOAL LDA (510723691",436957.62,2016-06-09,2016-04-07,270,"Portugal, Évora, Évora","Artigo 20.º, n.º 1, alínea b) do Código dos Contratos Públicos",,,"","","",1490434,ACORDO QUADRO PARA PRESTAÇÃO DE SERVIÇOS MÉDICOS ÀS INSTITUIÇÕES E SERVIÇOS DO SERVIÇO NACIONAL DE SAÚDE,FALSE
prestação de serviços médicos,S,Ao abrigo de acordo-quadro (art.º 259.º),Aquisição de serviços,"85120000-6, Serviços de prática médica e serviços conexos","Hospital do Espírito Santo de Évora, E. P. E. ",508085888,KELLY SERVICES - HEALTHCARE UNIPESSOAL LDA ,"510723691, MEDIPEOPLE- LDA (508543436",436957.62,2016-06-09,2016-04-07,270,"Portugal, Évora, Évora","Artigo 20.º, n.º 1, alínea b) do Código dos Contratos Públicos",,,"","","",1490434,ACORDO QUADRO PARA PRESTAÇÃO DE SERVIÇOS MÉDICOS ÀS INSTITUIÇÕES E SERVIÇOS DO SERVIÇO NACIONAL DE SAÚDE,FALSE
190025/19 - ps mcdt's radiologia,S,Concurso público,Aquisição de serviços,"85100000-0, Serviços de saúde","Hospital do Espírito Santo de Évora, E. P. E. ",508085888,"CRX Centro Radiodiagnóstico de Évora, Lda. ","501706097, CDI - CLINICA DIAGNOSTICO POR IMAGEM (502830654",393726.15,2019-01-30,2019-01-24,365,"Portugal, Évora, Évora","Artigo 20.º, n.º 1, alínea a) do Código dos Contratos Públicos",,,"","","",Não aplicável.,Não aplicável.,FALSE
190025/19 - ps mcdt's radiologia,S,Concurso público,Aquisição de serviços,"85100000-0, Serviços de saúde","Hospital do Espírito Santo de Évora, E. P. E. ",508085888,CDI - CLINICA DIAGNOSTICO POR IMAGEM ,"502830654, CRX Centro Radiodiagnóstico de Évora, Lda. (501706097",393726.15,2019-01-30,2019-01-24,365,"Portugal, Évora, Évora","Artigo 20.º, n.º 1, alínea a) do Código dos Contratos Públicos",,,"","","",Não aplicável.,Não aplicável.,FALSE
190025/19 - ps mcdt's radiologia,S,Concurso público,Aquisição de serviços,"85100000-0, Serviços de saúde","Hospital do Espírito Santo de Évora, E. P. E. ",508085888,CDI - CLINICA DIAGNOSTICO POR IMAGEM ,"502830654, CRX Centro Radiodiagnóstico de Évora, Lda. (501706097",393726.15,2019-01-30,2019-01-24,365,"Portugal, Évora, Évora","Artigo 20.º, n.º 1, alínea a) do Código dos Contratos Públicos",,,"","","",Não aplicável.,Não aplicável.,FALSE
mcdt's de radiologia,S,Concurso público,Aquisição de serviços,"85150000-5, Serviços de imagiologia médica","Hospital do Espírito Santo de Évora, E. P. E. ",508085888,"CRX Centro Radiodiagnóstico de Évora, Lda. ","501706097, CDI - CLINICA DIAGNOSTICO POR IMAGEM (502830654",359688.35,2017-03-01,2017-01-18,310,"Portugal, Évora, Évora","Artigo 20.º, n.º 1, alínea b) do Código dos Contratos Públicos",,,"","","",Não aplicável.,Não aplicável.,FALSE
mcdt's de radiologia,S,Concurso público,Aquisição de serviços,"85150000-5, Serviços de imagiologia médica","Hospital do Espírito Santo de Évora, E. P. E. ",508085888,"CRX Centro Radiodiagnóstico de Évora, Lda. ","501706097, CDI - CLINICA DIAGNOSTICO POR IMAGEM (502830654",359688.35,2017-03-01,2017-01-18,310,"Portugal, Évora, Évora","Artigo 20.º, n.º 1, alínea b) do Código dos Contratos Públicos",,,"","","",Não aplicável.,Não aplicável.,FALSE
mcdt's de radiologia,S,Concurso público,Aquisição de serviços,"85150000-5, Serviços de imagiologia médica","Hospital do Espírito Santo de Évora, E. P. E. ",508085888,"CRX Centro Radiodiagnóstico de Évora, Lda. ","501706097, CDI - CLINICA DIAGNOSTICO POR IMAGEM (502830654",359688.35,2017-03-01,2017-01-18,310,"Portugal, Évora, Évora","Artigo 20.º, n.º 1, alínea b) do Código dos Contratos Públicos",,,"","","",Não aplicável.,Não aplicável.,FALSE
mcdt's de radiologia,S,Concurso público,Aquisição de serviços,"85150000-5, Serviços de imagiologia médica","Hospital do Espírito Santo de Évora, E. P. E. ",508085888,"CRX Centro Radiodiagnóstico de Évora, Lda. ","501706097, CDI - CLINICA DIAGNOSTICO POR IMAGEM (502830654",359688.35,2017-03-01,2017-01-18,310,"Portugal, Évora, Évora","Artigo 20.º, n.º 1, alínea b) do Código dos Contratos Públicos",,,"","","",Não aplicável.,Não aplicável.,FALSE
prestação de serviços de imagiologia médica,S,Ajuste Direto Regime Geral,Aquisição de serviços,"85150000-5, Serviços de imagiologia médica","Hospital do Espírito Santo de Évora, E. P. E. ",508085888,CLINICA DO CORAÇÃO DO ALENTEJO SA ,"502376457, CRX - CENTRO RADIODIAGNOSTICO EVORA (501706097, CDI - CLINICA DIAGNOSTICO POR IMAGEM (502830654",187603.9,2016-02-04,2015-09-17,100,"Portugal, Évora, Évora","Artigo 24.º, n.º 1, alínea c) do Código dos Contratos Públicos",,,"","","",Não aplicável.,Não aplicável.,FALSE
prestação de serviços de imagiologia médica,S,Ajuste Direto Regime Geral,Aquisição de serviços,"85150000-5, Serviços de imagiologia médica","Hospital do Espírito Santo de Évora, E. P. E. ",508085888,CRX - CENTRO RADIODIAGNOSTICO EVORA ,"501706097, CLINICA DO CORAÇÃO DO ALENTEJO SA (502376457, CDI - CLINICA DIAGNOSTICO POR IMAGEM (502830654",187603.9,2016-02-04,2015-09-17,100,"Portugal, Évora, Évora","Artigo 24.º, n.º 1, alínea c) do Código dos Contratos Públicos",,,"","","",Não aplicável.,Não aplicável.,FALSE
prestação de serviços de imagiologia médica,S,Ajuste Direto Regime Geral,Aquisição de serviços,"85150000-5, Serviços de imagiologia médica","Hospital do Espírito Santo de Évora, E. P. E. ",508085888,CLINICA DO CORAÇÃO DO ALENTEJO SA ,"502376457, CRX - CENTRO RADIODIAGNOSTICO EVORA (501706097, CDI - CLINICA DIAGNOSTICO POR IMAGEM (502830654",187603.9,2016-02-04,2015-09-17,100,"Portugal, Évora, Évora","Artigo 24.º, n.º 1, alínea c) do Código dos Contratos Públicos",,,"","","",Não aplicável.,Não aplicável.,FALSE
aquisição de mcdt na área da radiologia,S,Ajuste Direto Regime Geral,Aquisição de serviços,"85150000-5, Serviços de imagiologia médica",Hospital do Espírito Santo de Évora E.P.E. ,508085888,Clínica Coração do Alentejo ,"502376457, Clínica Diagnóstico por Imagem (502830654",185752.1,2015-06-08,2015-03-12,300,"Portugal, Évora, Évora<BR/>Portugal","Artigo 20.º, n.º 1, alínea a) do Código dos Contratos Públicos",,,"","","",Não aplicável.,Não aplicável.,FALSE
aquisição de mcdt na área da radiologia,S,Ajuste Direto Regime Geral,Aquisição de serviços,"85150000-5, Serviços de imagiologia médica",Hospital do Espírito Santo de Évora E.P.E. ,508085888,Clínica Diagnóstico por Imagem ,"502830654, Clínica Coração do Alentejo (502376457",185752.1,2015-06-08,2015-03-12,300,"Portugal<BR/>Portugal, Évora, Évora","Artigo 20.º, n.º 1, alínea a) do Código dos Contratos Públicos",,,"","","",Não aplicável.,Não aplicável.,FALSE
aquisição de mcdt na área da radiologia,S,Ajuste Direto Regime Geral,Aquisição de serviços,"85150000-5, Serviços de imagiologia médica",Hospital do Espírito Santo de Évora E.P.E. ,508085888,Clínica Diagnóstico por Imagem ,"502830654, Clínica Coração do Alentejo (502376457",185752.1,2015-06-08,2015-03-12,300,"Portugal<BR/>Portugal, Évora, Évora","Artigo 20.º, n.º 1, alínea a) do Código dos Contratos Públicos",,,"","","",Não aplicável.,Não aplicável.,FALSE
prestação de serviços de radiologia no exterior,S,Concurso público,Aquisição de serviços,"85150000-5, Serviços de imagiologia médica","Hospital do Espírito Santo de Évora, E. P. E. ",508085888,CDI - CLINICA DIAGNOSTICO POR IMAGEM ,"502830654, CRX - CENTRO RADIODIAGNOSTICO EVORA (501706097",183274.65,2016-06-21,2015-03-12,300,"Portugal, Évora, Évora","Artigo 20.º, n.º 1, alínea b) do Código dos Contratos Públicos",,,"","","",Não aplicável.,Não aplicável.,FALSE
prestação de serviços de radiologia no exterior,S,Concurso público,Aquisição de serviços,"85150000-5, Serviços de imagiologia médica","Hospital do Espírito Santo de Évora, E. P. E. ",508085888,CDI - CLINICA DIAGNOSTICO POR IMAGEM ,"502830654, CRX - CENTRO RADIODIAGNOSTICO EVORA (501706097",183274.65,2016-06-21,2015-03-12,300,"Portugal, Évora, Évora","Artigo 20.º, n.º 1, alínea b) do Código dos Contratos Públicos",,,"","","",Não aplicável.,Não aplicável.,FALSE
prestação de serviços de realização de exames imagiológicos,S,Concurso público,Aquisição de serviços,"85100000-0, Serviços de saúde","Centro Hospitalar do Algarve, E. P. E. ",510745997,"CRMA - CLINICA DE RESSONÂNCIA MAGNÉTICA DO ALGARVE,  ","503051497, FERNANDO SANCHO, UNIPESSOAL LDA (500602522",174880.1,2015-06-09,2015-04-06,275,"Portugal, Faro, Faro<BR/>Portugal, Faro, Portimão<BR/>Portugal, Faro, Lagos","Artigo 20.º, n.º 1, alínea b) do Código dos Contratos Públicos",,,"","","",Não aplicável.,Não aplicável.,FALSE
"prestação de serviços médicos para os agrupamentos dos centros de saúde (aces) da ars algarve, i.p..",S,Concurso público,Aquisição de serviços,"85121100-4, Serviços de médicos de clínica geral","Administração Regional de Saúde do Algarve, I.P. ",503148709,"Helped, Prestação de Serviços de Saúde, Lda. ","506069010, Organfutur - Prestação de Serviços Mèdicos, Lda. (509062601, Medipeople - Soluções de Recursos Humanos para a a Saúde, Lda. (508543436",162572.4,2012-10-31,2011-10-31,164,"Portugal, Faro","Artigo 20.º, n.º 1, alínea b) do Código dos Contratos Públicos",2012-05-28,162137.31,A adjudicação do presente contrato permitia a realização de um determinado número de horas. Por ter ocorrido um decréscimo no consumo de horas semanal inicialmente previsto o período de execução do contrato aumentou.,"Não foi consumida a totalidade das horas adjudicadas, dado não permitirem a realização de turnos completos.","",Não aplicável.,Não aplicável.,
"prestação de serviços médicos para os agrupamentos dos centros de saúde (aces) da ars algarve, i.p..",S,Concurso público,Aquisição de serviços,"85121100-4, Serviços de médicos de clínica geral","Administração Regional de Saúde do Algarve, I.P. ",503148709,"Organfutur - Prestação de Serviços Mèdicos, Lda. ","509062601, Medipeople - Soluções de Recursos Humanos para a a Saúde, Lda. (508543436, Helped, Prestação de Serviços de Saúde, Lda. (506069010",162572.4,2012-10-31,2011-10-31,164,"Portugal, Faro","Artigo 20.º, n.º 1, alínea b) do Código dos Contratos Públicos",2012-05-28,162137.31,A adjudicação do presente contrato permitia a realização de um determinado número de horas. Por ter ocorrido um decréscimo no consumo de horas semanal inicialmente previsto o período de execução do contrato aumentou.,"Não foi consumida a totalidade das horas adjudicadas, dado não permitirem a realização de turnos completos.","",Não aplicável.,Não aplicável.,
"prestação de serviços médicos para os agrupamentos dos centros de saúde (aces) da ars algarve, i.p..",S,Concurso público,Aquisição de serviços,"85121100-4, Serviços de médicos de clínica geral","Administração Regional de Saúde do Algarve, I.P. ",503148709,"Organfutur - Prestação de Serviços Mèdicos, Lda. ","509062601, Medipeople - Soluções de Recursos Humanos para a a Saúde, Lda. (508543436, Helped, Prestação de Serviços de Saúde, Lda. (506069010",162572.4,2012-10-31,2011-10-31,164,"Portugal, Faro","Artigo 20.º, n.º 1, alínea b) do Código dos Contratos Públicos",2012-05-28,162137.31,A adjudicação do presente contrato permitia a realização de um determinado número de horas. Por ter ocorrido um decréscimo no consumo de horas semanal inicialmente previsto o período de execução do contrato aumentou.,"Não foi consumida a totalidade das horas adjudicadas, dado não permitirem a realização de turnos completos.","",Não aplicável.,Não aplicável.,
"prestação de serviços médicos para os agrupamentos dos centros de saúde (aces) da ars algarve, i.p..",S,Concurso público,Aquisição de serviços,"85121100-4, Serviços de médicos de clínica geral","Administração Regional de Saúde do Algarve, I.P. ",503148709,"Helped, Prestação de Serviços de Saúde, Lda. ","506069010, Medipeople - Soluções de Recursos Humanos para a a Saúde, Lda. (508543436, Organfutur - Prestação de Serviços Mèdicos, Lda. (509062601",162572.4,2012-10-31,2011-10-31,164,"Portugal, Faro","Artigo 20.º, n.º 1, alínea b) do Código dos Contratos Públicos",2012-05-28,162137.31,A adjudicação do presente contrato permitia a realização de um determinado número de horas. Por ter ocorrido um decréscimo no consumo de horas semanal inicialmente previsto o período de execução do contrato aumentou.,"Não foi consumida a totalidade das horas adjudicadas, dado não permitirem a realização de turnos completos.","",Não aplicável.,Não aplicável.,
mcdt' medicina nuclear,S,Concurso público,Aquisição de serviços,"85150000-5, Serviços de imagiologia médica","Hospital do Espírito Santo de Évora, E. P. E. ",508085888,Fundação A.S.C.C.M. Champalimaud ,"507131827, Quadrantes, Clínica Médica e Diagnóstico (504148850",159614,2017-02-15,2017-01-04,365,"Portugal, Évora, Évora","Artigo 20.º, n.º 1, alínea b) do Código dos Contratos Públicos",,,"","","",Não aplicável.,Não aplicável.,FALSE
mcdt' medicina nuclear,S,Concurso público,Aquisição de serviços,"85150000-5, Serviços de imagiologia médica","Hospital do Espírito Santo de Évora, E. P. E. ",508085888,Fundação A.S.C.C.M. Champalimaud ,"507131827, Quadrantes, Clínica Médica e Diagnóstico (504148850",159614,2017-02-15,2017-01-04,365,"Portugal, Évora, Évora","Artigo 20.º, n.º 1, alínea b) do Código dos Contratos Públicos",,,"","","",Não aplicável.,Não aplicável.,FALSE
"prestação de serviços médicos na urgência nas especialidades de ginecologia-obstetricia, cirurgia, ortopedia e anestesia. em cpa",S,Ao abrigo de acordo-quadro (art.º 259.º),Aquisição de serviços,"85121200-5, Serviços de medicina especializada","Hospital do Espírito Santo de Évora, E. P. E. ",508085888,HELPED-PRESTAÇÃO DE SERVIÇOS DE SAÚDE LDA ,"506069010, MEDICSEARCH SA (508080517",146168.62,2013-11-22,2013-09-25,90,"Portugal, Évora, Évora",Artigo 259.º do Código dos Contratos Públicos,,,"","","",454020,"CONCURSO PÚBLICO PARA A CELEBRAÇÃO DE CONTRATOS PÚBLICOS DE APROVISIONAMENTO PARA A ÁREA DA SAÚDE, COM VISTA À PRESTAÇÃO DE SERVIÇOS MÉDICOS ÀS INSTITUIÇÕES E SERVIÇOS DO SERVIÇO NACIONAL DE SAÚDE",
"prestação de serviços médicos na urgência nas especialidades de ginecologia-obstetricia, cirurgia, ortopedia e anestesia. em cpa",S,Ao abrigo de acordo-quadro (art.º 259.º),Aquisição de serviços,"85121200-5, Serviços de medicina especializada","Hospital do Espírito Santo de Évora, E. P. E. ",508085888,MEDICSEARCH SA ,"508080517, HELPED-PRESTAÇÃO DE SERVIÇOS DE SAÚDE LDA (506069010",146168.62,2013-11-22,2013-09-25,90,"Portugal, Évora, Évora",Artigo 259.º do Código dos Contratos Públicos,,,"","","",454020,"CONCURSO PÚBLICO PARA A CELEBRAÇÃO DE CONTRATOS PÚBLICOS DE APROVISIONAMENTO PARA A ÁREA DA SAÚDE, COM VISTA À PRESTAÇÃO DE SERVIÇOS MÉDICOS ÀS INSTITUIÇÕES E SERVIÇOS DO SERVIÇO NACIONAL DE SAÚDE",
"prestação de serviços médicos na urgência nas especialidades de ginecologia-obstetricia, cirurgia, ortopedia e anestesia. em cpa",S,Ao abrigo de acordo-quadro (art.º 259.º),Aquisição de serviços,"85121200-5, Serviços de medicina especializada","Hospital do Espírito Santo de Évora, E. P. E. ",508085888,MEDICSEARCH SA ,"508080517, HELPED-PRESTAÇÃO DE SERVIÇOS DE SAÚDE LDA (506069010",146168.62,2013-11-22,2013-09-25,90,"Portugal, Évora, Évora",Artigo 259.º do Código dos Contratos Públicos,,,"","","",454020,"CONCURSO PÚBLICO PARA A CELEBRAÇÃO DE CONTRATOS PÚBLICOS DE APROVISIONAMENTO PARA A ÁREA DA SAÚDE, COM VISTA À PRESTAÇÃO DE SERVIÇOS MÉDICOS ÀS INSTITUIÇÕES E SERVIÇOS DO SERVIÇO NACIONAL DE SAÚDE",
"prestação de serviços médicos para os serviços de urgência básica dos agrupamentos de centros de saúde da ars algrave, i.p..",S,Concurso público,Aquisição de serviços,"85121100-4, Serviços de médicos de clínica geral","Administração Regional de Saúde do Algarve, I.P. ",503148709,"Medicisforma - Medicina no Trabalho, Higiene e Segurança, Lda. ","503755397, Randstad Clinical - Cuidados de Saude, Lda. (505121247",121981.2,2012-10-31,2012-03-05,161,"Portugal, Faro","Artigo 20.º, n.º 1, alínea b) do Código dos Contratos Públicos",,,"","","",Não aplicável.,Não aplicável.,
"prestação de serviços médicos para os serviços de urgência básica dos agrupamentos de centros de saúde da ars algrave, i.p..",S,Concurso público,Aquisição de serviços,"85121100-4, Serviços de médicos de clínica geral","Administração Regional de Saúde do Algarve, I.P. ",503148709,"Medicisforma - Medicina no Trabalho, Higiene e Segurança, Lda. ","503755397, Randstad Clinical - Cuidados de Saude, Lda. (505121247",121981.2,2012-10-31,2012-03-05,161,"Portugal, Faro","Artigo 20.º, n.º 1, alínea b) do Código dos Contratos Públicos",,,"","","",Não aplicável.,Não aplicável.,
prestação de serviços médicos de anestesiologia,S,Ajuste Direto Regime Geral,Aquisição de serviços,"85121200-5, Serviços de medicina especializada","Serviço Partilhados do Ministério da Saúde, E. P. E. ",509540716,"Multistesia, unipessoal, Lda ","509754198, Fridana Serviços Médicos, Lda (506974928",82875,2011-07-21,2011-07-01,60,"Portugal, Lisboa, Lisboa","Artigo 20.º, n.º 1, alínea a) do Código dos Contratos Públicos",,,"","","",Não aplicável.,Não aplicável.,
prestação de serviços médicos de anestesiologia,S,Ajuste Direto Regime Geral,Aquisição de serviços,"85121200-5, Serviços de medicina especializada","Serviço Partilhados do Ministério da Saúde, E. P. E. ",509540716,"Multistesia, unipessoal, Lda ","509754198, Fridana Serviços Médicos, Lda (506974928",82875,2011-07-21,2011-07-01,60,"Portugal, Lisboa, Lisboa","Artigo 20.º, n.º 1, alínea a) do Código dos Contratos Públicos",,,"","","",Não aplicável.,Não aplicável.,
"aquisição de meios complementares de diagnóstico nas àreas da radiologia , medicina nuclear e anatomia patologica.",S,Ajuste Direto Regime Geral,Aquisição de serviços,"85100000-0, Serviços de saúde",Hospital de José Luciano de Castro ,501613021,"Bioacústica, Instituto de audiologia, SA ","503325872, Análise Revista- Gestão na àrea da Saúde LDA (509094848, Sanfil, Casa de Saúde Santa Filomena (500621527, GS24 Healthcare Solutions, Lda (507824652, Cedap, Centro Diagnóstico Anatomo-Patológico, Lda (504494562",66502.25,2012-10-17,2012-02-09,365,"Portugal, Aveiro, Anadia","Artigo 20.º, n.º 1, alínea a) do Código dos Contratos Públicos",2013-03-06,66502.25,"","","",Não aplicável.,Não aplicável.,
"aquisição de meios complementares de diagnóstico nas àreas da radiologia , medicina nuclear e anatomia patologica.",S,Ajuste Direto Regime Geral,Aquisição de serviços,"85100000-0, Serviços de saúde",Hospital de José Luciano de Castro ,501613021,"Sanfil, Casa de Saúde Santa Filomena ","500621527, Análise Revista- Gestão na àrea da Saúde LDA (509094848, Cedap, Centro Diagnóstico Anatomo-Patológico, Lda (504494562, Bioacústica, Instituto de audiologia, SA (503325872, GS24 Healthcare Solutions, Lda (507824652",66502.25,2012-10-17,2012-02-09,365,"Portugal, Aveiro, Anadia","Artigo 20.º, n.º 1, alínea a) do Código dos Contratos Públicos",2013-03-06,66502.25,"","","",Não aplicável.,Não aplicável.,
"aquisição de serviços, mcdt, gastro",S,Concurso público,Aquisição de serviços,"85121251-7, Serviços de gastroenterologia","Hospital do Espírito Santo de Évora, E. P. E. ",508085888,CDI ,"502830654, Quadrantes (504148850",55932.6,2014-05-19,2014-04-28,240,"Portugal, Lisboa, Lisboa<BR/>Portugal, Évora, Évora","Artigo 20.º, n.º 1, alínea b) do Código dos Contratos Públicos",,,"","","",Não aplicável.,Não aplicável.,FALSE
"aquisição de serviços, mcdt, gastro",S,Concurso público,Aquisição de serviços,"85121251-7, Serviços de gastroenterologia","Hospital do Espírito Santo de Évora, E. P. E. ",508085888,Quadrantes ,"504148850, CDI (502830654",55932.6,2014-05-19,2014-04-28,240,"Portugal, Évora, Évora<BR/>Portugal, Lisboa, Lisboa","Artigo 20.º, n.º 1, alínea b) do Código dos Contratos Públicos",,,"","","",Não aplicável.,Não aplicável.,FALSE
"aquisição de meios complementares de diagnóstico no exterior de imagiologia: t´s, ecografias/mamografia, estudo doppler e radiologia de intervenção",S,Ajuste Direto Regime Geral,Aquisição de serviços,"85150000-5, Serviços de imagiologia médica","Hospital do Espírito Santo de Évora, E. P. E. ",508085888,CLINICA DO CORAÇÃO DO ALENTEJO SA ,"502376457, CDI - CLINICA DIAGNOSTICO POR IMAGEM (502830654",46788.31,2013-11-21,2013-08-29,120,"Portugal, Évora, Évora","Artigo 20.º, n.º 1, alínea a) do Código dos Contratos Públicos",,,"","","",Não aplicável.,Não aplicável.,
"aquisição de meios complementares de diagnóstico no exterior de imagiologia: t´s, ecografias/mamografia, estudo doppler e radiologia de intervenção",S,Ajuste Direto Regime Geral,Aquisição de serviços,"85150000-5, Serviços de imagiologia médica","Hospital do Espírito Santo de Évora, E. P. E. ",508085888,CLINICA DO CORAÇÃO DO ALENTEJO SA ,"502376457, CDI - CLINICA DIAGNOSTICO POR IMAGEM (502830654",46788.31,2013-11-21,2013-08-29,120,"Portugal, Évora, Évora","Artigo 20.º, n.º 1, alínea a) do Código dos Contratos Públicos",,,"","","",Não aplicável.,Não aplicável.,
prestação de serviços médicos,S,Ajuste Direto Regime Geral,Aquisição de serviços,"85121300-6, Serviços de cirurgia especializada","Hospital do Espírito Santo de Évora, E. P. E. ",508085888,CARDIORITMO - SERVIÇOS MEDICOS LDA ,"513366881, ARTUR DUARTE SIMÕES LOPES (223100552, HAMAD MAHMOUD HAMAD (259822833",43680,2015-08-10,2015-04-16,365,"Portugal, Évora, Évora","Artigo 20.º, n.º 1, alínea a) do Código dos Contratos Públicos",,,"","","",Não aplicável.,Não aplicável.,FALSE
prestação de serviços médicos,S,Ajuste Direto Regime Geral,Aquisição de serviços,"85121300-6, Serviços de cirurgia especializada","Hospital do Espírito Santo de Évora, E. P. E. ",508085888,CARDIORITMO - SERVIÇOS MEDICOS LDA ,"513366881, HAMAD MAHMOUD HAMAD (259822833, ARTUR DUARTE SIMÕES LOPES (223100552",43680,2015-08-10,2015-04-16,365,"Portugal, Évora, Évora","Artigo 20.º, n.º 1, alínea a) do Código dos Contratos Públicos",,,"","","",Não aplicável.,Não aplicável.,FALSE
prestação de serviços médicos de cardiologia,S,Ajuste Direto Regime Geral,Aquisição de serviços,"85120000-6, Serviços de prática médica e serviços conexos","Hospital do Espírito Santo de Évora, E. P. E. ",508085888,CARLOS COTRIM II CUIDADOS SAUDE LDA ,"513749217, CARDIORITMO - SERVIÇOS MEDICOS LDA (513366881",43680,2016-06-14,2015-12-16,360,"Portugal, Évora, Évora","Artigo 20.º, n.º 1, alínea a) do Código dos Contratos Públicos",,,"","","",Não aplicável.,Não aplicável.,FALSE
prestação de serviços médicos,S,Ajuste Direto Regime Geral,Aquisição de serviços,"85121300-6, Serviços de cirurgia especializada","Hospital do Espírito Santo de Évora, E. P. E. ",508085888,ARTUR DUARTE SIMÕES LOPES ,"223100552, CARDIORITMO - SERVIÇOS MEDICOS LDA (513366881, HAMAD MAHMOUD HAMAD (259822833",43680,2015-08-10,2015-04-16,365,"Portugal, Évora, Évora","Artigo 20.º, n.º 1, alínea a) do Código dos Contratos Públicos",,,"","","",Não aplicável.,Não aplicável.,FALSE
prestação de serviços médicos de cardiologia,S,Ajuste Direto Regime Geral,Aquisição de serviços,"85120000-6, Serviços de prática médica e serviços conexos","Hospital do Espírito Santo de Évora, E. P. E. ",508085888,CARLOS COTRIM II CUIDADOS SAUDE LDA ,"513749217, CARDIORITMO - SERVIÇOS MEDICOS LDA (513366881",43680,2016-06-14,2015-12-16,360,"Portugal, Évora, Évora","Artigo 20.º, n.º 1, alínea a) do Código dos Contratos Públicos",,,"","","",Não aplicável.,Não aplicável.,FALSE
mcdt gastroenterologia,S,Concurso público,Aquisição de serviços,"85121251-7, Serviços de gastroenterologia","Hospital do Espírito Santo de Évora, E. P. E. ",508085888,CDI - CLINICA DIAGNOSTICO POR IMAGEM ,"502830654, DR JOAQUIM CHAVES LAB ANAL CLINICAS SA (500753636",33035,2015-08-07,2015-01-08,365,"Portugal, Évora, Évora","Artigo 20.º, n.º 1, alínea b) do Código dos Contratos Públicos",,,"","","",Não aplicável.,Não aplicável.,FALSE
mcdt gastroenterologia,S,Concurso público,Aquisição de serviços,"85121251-7, Serviços de gastroenterologia","Hospital do Espírito Santo de Évora, E. P. E. ",508085888,CDI - CLINICA DIAGNOSTICO POR IMAGEM ,"502830654, DR JOAQUIM CHAVES LAB ANAL CLINICAS SA (500753636",33035,2015-08-07,2015-01-08,365,"Portugal, Évora, Évora","Artigo 20.º, n.º 1, alínea b) do Código dos Contratos Públicos",,,"","","",Não aplicável.,Não aplicável.,FALSE
mcdt gastroenterologia,S,Concurso público,Aquisição de serviços,"85121251-7, Serviços de gastroenterologia","Hospital do Espírito Santo de Évora, E. P. E. ",508085888,DR JOAQUIM CHAVES LAB ANAL CLINICAS SA ,"500753636, CDI - CLINICA DIAGNOSTICO POR IMAGEM (502830654",33035,2015-08-07,2015-01-08,365,"Portugal, Évora, Évora","Artigo 20.º, n.º 1, alínea b) do Código dos Contratos Públicos",,,"","","",Não aplicável.,Não aplicável.,FALSE
08/401077 – prestação de serviços na área da anestesiologia,S,Ajuste Direto Regime Geral,"","",Maternidade Dr. Alfredo da Costa ,501216324,"Fridana, Serviços Médicos Lda. ","506974928, Morpheus – Anestela AA, Lda (507403762",47625,2009-02-10,,90,"",Não Preenchido,,,"","","",Não aplicável.,Não aplicável.,
serviços médicos na area de cirugia geral,S,Ajuste Direto Regime Geral,Aquisição de serviços,"85121300-6, Serviços de cirurgia especializada",HOSPITAL DR FRANCISCO ZAGALO ,501510150,"Gomesurg,Serviços Clinicos-Unipessoal, Lda. ","508771366, Odete Figueiredo,Unipessoal, Lda. (510365612",18720,2012-10-23,2012-08-21,122,"Portugal, Aveiro, Ovar","Artigo 20.º, n.º 1, alínea a) do Código dos Contratos Públicos",2012-12-31,23055,"",Serviços acima do previsto,"",Não aplicável.,Não aplicável.,
serviços médicos na area de cirugia geral,S,Ajuste Direto Regime Geral,Aquisição de serviços,"85121300-6, Serviços de cirurgia especializada",HOSPITAL DR FRANCISCO ZAGALO ,501510150,"Gomesurg,Serviços Clinicos-Unipessoal, Lda. ","508771366, Odete Figueiredo,Unipessoal, Lda. (510365612",18720,2012-10-23,2012-08-21,122,"Portugal, Aveiro, Ovar","Artigo 20.º, n.º 1, alínea a) do Código dos Contratos Públicos",2012-12-31,23055,"",Serviços acima do previsto,"",Não aplicável.,Não aplicável.,
aquisição de mcdt`s no exterior: tratamentos de medicina física e reabilitação.,S,Ajuste Direto Regime Geral,Aquisição de serviços,"85111400-4, Serviços hospitalares de reabilitação","Hospital do Espírito Santo de Évora, E. P. E. ",508085888,FISIRED - FISIOTERAPIA E MEDICINA UNIPES LDA ,"509133436, HOSPITAL  S JOAO DEUS (500927731, FISIEVE - CENTRO MED FIS REAB DE ÉVORA LDA (500991057",17251.48,2013-11-21,2013-09-12,60,"Portugal, Évora, Évora","Artigo 20.º, n.º 1, alínea a) do Código dos Contratos Públicos",,,"","","",Não aplicável.,Não aplicável.,
aquisição de mcdt`s no exterior: tratamentos de medicina física e reabilitação.,S,Ajuste Direto Regime Geral,Aquisição de serviços,"85111400-4, Serviços hospitalares de reabilitação","Hospital do Espírito Santo de Évora, E. P. E. ",508085888,FISIRED - FISIOTERAPIA E MEDICINA UNIPES LDA ,"509133436, HOSPITAL  S JOAO DEUS (500927731, FISIEVE - CENTRO MED FIS REAB DE ÉVORA LDA (500991057",17251.48,2013-11-21,2013-09-12,60,"Portugal, Évora, Évora","Artigo 20.º, n.º 1, alínea a) do Código dos Contratos Públicos",,,"","","",Não aplicável.,Não aplicável.,
aquisição de mcdt`s no exterior: tratamentos de medicina física e reabilitação.,S,Ajuste Direto Regime Geral,Aquisição de serviços,"85111400-4, Serviços hospitalares de reabilitação","Hospital do Espírito Santo de Évora, E. P. E. ",508085888,HOSPITAL  S JOAO DEUS ,"500927731, FISIRED - FISIOTERAPIA E MEDICINA UNIPES LDA (509133436, FISIEVE - CENTRO MED FIS REAB DE ÉVORA LDA (500991057",17251.48,2013-11-21,2013-09-12,60,"Portugal, Évora, Évora","Artigo 20.º, n.º 1, alínea a) do Código dos Contratos Públicos",,,"","","",Não aplicável.,Não aplicável.,
aquisição de mcdt`s no exterior: tratamentos de medicina física e reabilitação.,S,Ajuste Direto Regime Geral,Aquisição de serviços,"85111400-4, Serviços hospitalares de reabilitação","Hospital do Espírito Santo de Évora, E. P. E. ",508085888,FISIRED - FISIOTERAPIA E MEDICINA UNIPES LDA ,"509133436, HOSPITAL  S JOAO DEUS (500927731, FISIEVE - CENTRO MED FIS REAB DE ÉVORA LDA (500991057",17251.48,2013-11-21,2013-09-12,60,"Portugal, Évora, Évora","Artigo 20.º, n.º 1, alínea a) do Código dos Contratos Públicos",,,"","","",Não aplicável.,Não aplicável.,
aquisição de mcdt`s no exterior: tratamentos de medicina física e reabilitação.,S,Ajuste Direto Regime Geral,Aquisição de serviços,"85111400-4, Serviços hospitalares de reabilitação","Hospital do Espírito Santo de Évora, E. P. E. ",508085888,FISIRED - FISIOTERAPIA E MEDICINA UNIPES LDA ,"509133436, HOSPITAL  S JOAO DEUS (500927731, FISIEVE - CENTRO MED FIS REAB DE ÉVORA LDA (500991057",17251.48,2013-11-21,2013-09-12,60,"Portugal, Évora, Évora","Artigo 20.º, n.º 1, alínea a) do Código dos Contratos Públicos",,,"","","",Não aplicável.,Não aplicável.,
exames de gastro,S,Ajuste Direto Regime Geral,Aquisição de serviços,"85121251-7, Serviços de gastroenterologia","Hospital do Espírito Santo de Évora, EPE ",508085888,QUADRANTES - CLINICA MEDICA  ,"504148850, CENTRO HOSPITALAR LISBOA CENTRAL EPE               (508080142",16648,2013-08-07,2013-07-08,180,"Portugal, Évora, Évora","Artigo 20.º, n.º 1, alínea a) do Código dos Contratos Públicos",,,"","","",Não aplicável.,Não aplicável.,
exames de gastro,S,Ajuste Direto Regime Geral,Aquisição de serviços,"85121251-7, Serviços de gastroenterologia","Hospital do Espírito Santo de Évora, EPE ",508085888,QUADRANTES - CLINICA MEDICA  ,"504148850, CENTRO HOSPITALAR LISBOA CENTRAL EPE               (508080142",16648,2013-08-07,2013-07-08,180,"Portugal, Évora, Évora","Artigo 20.º, n.º 1, alínea a) do Código dos Contratos Públicos",,,"","","",Não aplicável.,Não aplicável.,
exames efectuados a utentes de imagiologia,S,Ajuste Direto Regime Geral,Aquisição de serviços,"85150000-5, Serviços de imagiologia médica",HOSPITAL DR FRANCISCO ZAGALO ,501510150,"CMN-Centro Medico da Praça, Lda ","501583157, Dr. Pinto Leite-Instituto de Radiologia (501396772, Dr.Campos Costa, Lda. (502082429",15180,2013-01-25,2012-04-12,30,"Portugal, Aveiro, Ovar","Artigo 20.º, n.º 1, alínea a) do Código dos Contratos Públicos",2012-04-12,12213.57,"",exames efectuados abaixo do previsto.,"",Não aplicável.,Não aplicável.,
serviços de exames de m.c.d.t. efectuados a doentes,S,Ajuste Direto Regime Geral,Aquisição de serviços,"85150000-5, Serviços de imagiologia médica",HOSPITAL DR FRANCISCO ZAGALO ,501510150,"Hospital Cuf Porto, S.A. ","508963150, Dr.Campos Costa-Consultorio Tomograf.Comput.S.A. (502082429, Instituto Cuf Diagnostico e Tratamento, S.A. (506123243",15180,2012-04-27,2012-04-16,30,"Portugal, Aveiro, Ovar","Artigo 20.º, n.º 1, alínea a) do Código dos Contratos Públicos",2012-05-31,7330,"",Serviços efectuados abaixo do previsto,"",Não aplicável.,Não aplicável.,
exames mcdt efectuados por utentes em abril de 2012,S,Ajuste Direto Regime Geral,Aquisição de serviços,"85150000-5, Serviços de imagiologia médica",HOSPITAL DR FRANCISCO ZAGALO ,501510150,"Instituto Cuf Diagnóstico e Tratamento, S.A. ","506123243, Dr. Pinto Leite-Instituto de Radiologia (501396772, Dr.Campos Costa-Consultorio de Tomogr.Comput. S.A. (502082429, Hospital Cuf Porto, S.A. (508963150",15180,2012-04-17,2012-04-12,30,"Portugal, Aveiro, Ovar","Artigo 20.º, n.º 1, alínea a) do Código dos Contratos Públicos",2012-04-30,9852.84,"",Exames efectuados abaixo do previsto,"",Não aplicável.,Não aplicável.,
serviços de exames de m.c.d.t. efectuados a doentes,S,Ajuste Direto Regime Geral,Aquisição de serviços,"85150000-5, Serviços de imagiologia médica",HOSPITAL DR FRANCISCO ZAGALO ,501510150,"Hospital Cuf Porto, S.A. ","508963150, Dr.Campos Costa-Consultorio Tomograf.Comput.S.A. (502082429, Instituto Cuf Diagnostico e Tratamento, S.A. (506123243",15180,2012-04-27,2012-04-16,30,"Portugal, Aveiro, Ovar","Artigo 20.º, n.º 1, alínea a) do Código dos Contratos Públicos",2012-05-31,7330,"",Serviços efectuados abaixo do previsto,"",Não aplicável.,Não aplicável.,
exames mcdt efectuados por utentes em abril de 2012,S,Ajuste Direto Regime Geral,Aquisição de serviços,"85150000-5, Serviços de imagiologia médica",HOSPITAL DR FRANCISCO ZAGALO ,501510150,"Instituto Cuf Diagnóstico e Tratamento, S.A. ","506123243, Dr. Pinto Leite-Instituto de Radiologia (501396772, Hospital Cuf Porto, S.A. (508963150, Dr.Campos Costa-Consultorio de Tomogr.Comput. S.A. (502082429",15180,2012-04-17,2012-04-12,30,"Portugal, Aveiro, Ovar","Artigo 20.º, n.º 1, alínea a) do Código dos Contratos Públicos",2012-04-30,9852.84,"",Exames efectuados abaixo do previsto,"",Não aplicável.,Não aplicável.,
serviços efectuados a utentes de exames/ mcdt de imagiologia,S,Ajuste Direto Regime Geral,Aquisição de serviços,"85150000-5, Serviços de imagiologia médica",HOSPITAL DR FRANCISCO ZAGALO ,501510150,Dr.Campos Costa-Consultorio Tomografia Comput.S.A. ,"502082429, Dr.Pinto Leite-Instituto de Radiologia (501396772",15000,2012-05-16,2012-05-14,30,"Portugal, Aveiro, Ovar","Artigo 20.º, n.º 1, alínea a) do Código dos Contratos Públicos",2012-06-30,7834.15,"",serviços efectuados abaixo do previsto,"",Não aplicável.,Não aplicável.,
aquisição de exames de imagiologia,S,Ajuste Direto Regime Geral,Aquisição de serviços,"85150000-5, Serviços de imagiologia médica",HOSPITAL DR FRANCISCO ZAGALO ,501510150,Dr.Pinto Leite-Instituto de Radiologia ,"501396772, Dr.Campos Costa-Consultorio Tomogr.Comput.S.A. (502082429",12000,2012-07-10,2012-06-20,30,"Portugal, Aveiro, Ovar","Artigo 47.º do DL 69-A/2009, de 24.03",2012-07-31,7856.35,"",serviços efectuados abaixo do previsto,"",Não aplicável.,Não aplicável.,
"aquisição de exames mcdt-rmn/ecografia para utentes do chuc, e.p.e",S,Concurso público,Aquisição de serviços,"85100000-0, Serviços de saúde","Centro Hospitalar e Universitário de Coimbra, E.P. ",510103448,SANFIL ,"500621527, DIATON (500972974",9217,2018-11-28,2018-11-28,61,Portugal,"Artigo 20.º, n.º 1, alínea a) do Código dos Contratos Públicos",,,"","","",Não aplicável.,Não aplicável.,FALSE
aquisição de exames de imagiologia a doentes,S,Ajuste Direto Regime Geral,Aquisição de serviços,"85150000-5, Serviços de imagiologia médica",HOSPITAL DR FRANCISCO ZAGALO ,501510150,Dr. Pinto Leite - Instituto de Radiologia ,"501396772, Dr.Campos Costa-Consultorio Tomogr.Comput.S.A. (502082429",8000,2012-08-23,2012-08-21,30,"Portugal, Aveiro, Ovar","Artigo 20.º, n.º 1, alínea a) do Código dos Contratos Públicos",2012-09-30,8989.78,"",Serviços efectuados acima do previsto,"",Não aplicável.,Não aplicável.,
serviços médicos na area de cirurgia geral,S,Ajuste Direto Regime Geral,Aquisição de serviços,"85121300-6, Serviços de cirurgia especializada",HOSPITAL DR FRANCISCO ZAGALO ,501510150,"Gomesurg Serviços Clinicos Unipessoal, Lda. ","508771366, Odete Figueiredo, Unipessoal, Lda. (510365612",5595,2013-02-18,2013-01-16,30,"Portugal, Aveiro, Ovar","Artigo 20.º, n.º 1, alínea a) do Código dos Contratos Públicos",2013-01-31,5595,"","","",Não aplicável.,Não aplicável.,
serviços médicos na area de cirurgia geral,S,Ajuste Direto Regime Geral,Aquisição de serviços,"85121300-6, Serviços de cirurgia especializada",HOSPITAL DR FRANCISCO ZAGALO ,501510150,"Gomesurg Serviços Clinicos Unipessoal, Lda. ","508771366, Odete Figueiredo, Unipessoal, Lda. (510365612",5595,2013-02-18,2013-01-16,30,"Portugal, Aveiro, Ovar","Artigo 20.º, n.º 1, alínea a) do Código dos Contratos Públicos",2013-01-31,5595,"","","",Não aplicável.,Não aplicável.,
serviços medicos de cirurgia geral,S,Ajuste Direto Regime Geral,Aquisição de serviços,"85000000-9, Serviços de saúde e acção social",HOSPITAL DR FRANCISCO ZAGALO ,501510150,"Gomesurg-Serviços Clinicos Unipessoal, Lda. ","508771366, Odete Figueiredo Unipessoal Lda. (510365612",5535,2013-06-26,2013-03-26,30,"Portugal, Aveiro, Ovar","Artigo 20.º, n.º 1, alínea a) do Código dos Contratos Públicos",2013-03-31,5535,"","","",Não aplicável.,Não aplicável.,
serviços medicos de cirurgia geral,S,Ajuste Direto Regime Geral,Aquisição de serviços,"85000000-9, Serviços de saúde e acção social",HOSPITAL DR FRANCISCO ZAGALO ,501510150,"Gomesurg-Serviços Clinicos Unipessoal, Lda. ","508771366, Odete Figueiredo Unipessoal Lda. (510365612",5535,2013-06-26,2013-03-26,30,"Portugal, Aveiro, Ovar","Artigo 20.º, n.º 1, alínea a) do Código dos Contratos Públicos",2013-03-31,5535,"","","",Não aplicável.,Não aplicável.,
"prestação de serviços médicos psiquiatria, na modalidade de consultas externas",S,Ajuste Direto Regime Geral,Aquisição de serviços,"85147000-1, Serviços de medicina do trabalho<BR/>85121240-7, Serviços de otorrinolaringologia ou audiologia<BR/>85121270-6, Serviços de psiquiatria ou psicologia",Centro Hospitalar do Oeste Norte -CHON ,510412009,"MULTIPESSOAL-MEDICAL, SA ","509236359, GRAÇA BARBEIRO, LDA. (503337110, FERNANDO HENRIQUES PEREIRA, LDA (505228564",2700,2013-02-15,2012-11-26,31,"Portugal, Leiria, Caldas da Rainha","Artigo 20.º, n.º 1, alínea a) do Código dos Contratos Públicos",,,"","","",Não aplicável.,Não aplicável.,
