Objeto do Contrato,Tipo de Procedimento,Tipo(s) de Contrato,CPVs,Entidade(s) Adjudicante(s),Entidade(s) Adjudicatária(s),Preço Contratual,Data de Publicação,Data de Celebração do Contrato,Prazo de Execução,Local de Execução,Fundamentação,Data de Fecho do Contrato,Preço Total Efetivo,Causas das Alterações ao Prazo,Causas das Alterações ao Preço,Estado,N.º registo do Acordo Quadro,Descrição do Acordo Quadro,Procedimento Centralizado
Prestação de Serviços Médicos de Ginecologia/Obstetricia,Ajuste Direto Regime Geral,Aquisição de serviços,"85121210-8, Serviços de ginecologia ou obstetrícia","Centro Hospitalar Universitário do Algarve, E. P. E. (510745997)","Centro Médico Santa Clara, Lda (501202684)","11.700,00 €",13-03-2018,09-01-2018,90 dias,"Portugal, Faro, Portimão<BR/>Portugal, Faro, Faro","Artigo 24.º, n.º 1, alínea e) do Código dos Contratos Públicos",31-12-2018,"26.400,00 €",,De acordo com as necessidades efectivas no ano 2018,,Não aplicável.,Não aplicável.,FALSE
Serviços Médicos de Ginecologia/Obstetrícia,Ajuste Direto Regime Geral,Aquisição de serviços,"85121210-8, Serviços de ginecologia ou obstetrícia","Centro Hospitalar do Algarve, E. P. E. (510745997)",CENTRO MEDICO SANTA CLARA LDA (501202684),"23.400,00 €",17-02-2017,06-02-2017,180 dias,"Portugal, Faro, Faro","Artigo 24.º, n.º 1, alínea e) do Código dos Contratos Públicos",31-12-2017,"24.600,00 €",,"O valor inicial do Contrato teve por base as necessidades estimadas para o período de 1 de julho de 2017 a 31 dezembro de 2017, o valor final reflete as necessidades efectivas.",,Não aplicável.,Não aplicável.,FALSE
Prestação de Serviços Médicos - Ginecologia,Ajuste Direto Regime Geral,Aquisição de serviços,"85120000-6, Serviços de prática médica e serviços conexos","Hospital do Espírito Santo de Évora, E. P. E. (508085888)",CENTRO MEDICO SANTA CLARA LDA (501202684),"10.560,00 €",14-06-2016,12-05-2016,50 dias,"Portugal, Évora, Évora","Artigo 20.º, n.º 1, alínea a) do Código dos Contratos Públicos","","",,"",,Não aplicável.,Não aplicável.,FALSE
Serviços Médicos de Ginecologia/Obstetrícia,Ajuste Direto Regime Geral,Aquisição de serviços,"85121210-8, Serviços de ginecologia ou obstetrícia","Centro Hospitalar do Algarve, E. P. E. (510745997)","Centro Médico Santa Clara, Lda (501202684)","10.400,00 €",05-02-2016,27-01-2016,91 dias,"Portugal, Faro, Faro","Artigo 24.º, n.º 1, alínea c) do Código dos Contratos Públicos",31-12-2016,"21.120,00 €",,"O valor inicial do Contrato teve por base as necessidades estimadas para o período de 1 Janeiro de 2016 a 31 Dezembro de 2016, o valor final reflecte as necessidades efectivas.",,Não aplicável.,Não aplicável.,FALSE
Serviços Médicos de Ginecologia/Obstétricia,Ajuste Direto Regime Geral,Aquisição de serviços,"85121210-8, Serviços de ginecologia ou obstetrícia","Centro Hospitalar do Algarve, E. P. E. (510745997)","Centro Médico Santa Clara, Lda (501202684)","41.280,00 €",18-03-2015,02-03-2015,306 dias,"Portugal, Faro, Faro<BR/>Portugal, Faro, Albufeira","Artigo 24.º, n.º 1, alínea c) do Código dos Contratos Públicos",31-12-2015,"21.120,00 €",,"O valor inicial do Contrato teve por base as necessidades estimadas para o período de 1 Março de 2015 a 31 Dezembro de 2015, o valor final reflecte as necessidades efectivas.",,Não aplicável.,Não aplicável.,FALSE
Serviços Médicos Ginecologia/Obstetrícia-Processo nº 78/0547/15,Ajuste Direto Regime Geral,Aquisição de serviços,"85121210-8, Serviços de ginecologia ou obstetrícia","Centro Hospitalar do Algarve, E.P.E. (510745997)","Centro Médico Santa Clara, Lda (501202684)","8.640,00 €",16-02-2015,22-01-2015,59 dias,"Portugal, Faro, Faro<BR/>Portugal, Faro, Portimão","Artigo 24.º, n.º 1, alínea c) do Código dos Contratos Públicos",28-02-2015,"3.540,00 €",,"O valor inicial do Contrato teve por base as necessidades estimadas para o período de 1 Janeiro de 2015 a 28 Fevereiro de 2015, o valor final reflecte as necessidades efectivas.",,Não aplicável.,Não aplicável.,FALSE
Serviços Médicos Ginecologia/Obstetrícia,Ajuste Direto Regime Geral,Aquisição de serviços,"85121210-8, Serviços de ginecologia ou obstetrícia","Centro Hospitalar do Algarve, E. P. E. (510745997)","Centro Médico Santa Clara, Lda (501202684)","24.960,00 €",21-03-2014,14-02-2014,365 dias,"Portugal, Faro, Faro<BR/>Portugal, Faro, Portimão","Artigo 20.º, n.º 1, alínea a) do Código dos Contratos Públicos",31-12-2014,"24.480,00 €",,"O valor inicial do Contrato teve por base as necessidades estimadas para o período de 1 Janeiro de 2014 a 31 Dezembro de 2014, o valor final reflecte as necessidades efectivas.",,Não aplicável.,Não aplicável.,FALSE
AD 1710/2013 - Prestação de Serviços Médicos Ginecologia/Obstetrícia (Jan a Dez/2013),Ajuste Direto Regime Geral,Aquisição de serviços,"85121210-8, Serviços de ginecologia ou obstetrícia","Hospital de Faro, E. P. E. (508718872)","Centro Médico Santa Clara, Lda. (501202684)","86.400,00 €",05-11-2013,23-05-2013,365 dias,"Portugal, Faro, Faro","Artigo 24.º, n.º 1, alínea e) do Código dos Contratos Públicos","","",,"",,Não aplicável.,Não aplicável.,
