Objeto do Contrato,Tipo de Procedimento,Tipo(s) de Contrato,CPVs,Entidade(s) Adjudicante(s),Entidade(s) Adjudicatária(s),Preço Contratual,Data de Publicação,Data de Celebração do Contrato,Prazo de Execução,Local de Execução,Fundamentação,Data de Fecho do Contrato,Preço Total Efetivo,Causas das Alterações ao Prazo,Causas das Alterações ao Preço,Estado,N.º registo do Acordo Quadro,Descrição do Acordo Quadro,Procedimento Centralizado
4S0027/2017 SERV MED NÃO ESPECIALISTAS P URG. PEDIÁTRICA,Ajuste Direto Regime Geral,Aquisição de serviços,"85100000-0, Serviços de saúde","Centro Hospitalar Barreiro Montijo, E. P. E. (509186998)","LVIVMEDICS, LDA. (513098534)","24.960,00 €",27-10-2017,13-02-2017,365 dias,"Portugal, Setúbal, Barreiro","Artigo 20.º, n.º 1, alínea a) do Código dos Contratos Públicos",28-02-2017,"4.500,00 €",Cessão de posição contratual,Cessão de posição contratual,,Não aplicável.,Não aplicável.,FALSE
4S0026/2016 SERV MÉD NÃO ESPECIALISTAS P URGENCIA PEDIÁTRICA P ANO 2016,Ajuste Direto Regime Geral,Aquisição de serviços,"85140000-2, Serviços de saúde diversos","Centro Hospitalar Barreiro Montijo, E. P. E. (509186998)","LVIVMEDICS, LDA. (513098534)","24.960,00 €",14-02-2017,27-01-2016,365 dias,"Portugal, Setúbal, Barreiro","Artigo 20.º, n.º 1, alínea a) do Código dos Contratos Públicos",31-12-2016,"25.890,00 €","",Consumo efetivo superior ao inicialmente estimado,,Não aplicável.,Não aplicável.,FALSE
