Objeto do Contrato,Tipo de Procedimento,Tipo(s) de Contrato,CPVs,Entidade(s) Adjudicante(s),Entidade(s) Adjudicatária(s),Preço Contratual,Data de Publicação,Data de Celebração do Contrato,Prazo de Execução,Local de Execução,Fundamentação,Data de Fecho do Contrato,Preço Total Efetivo,Causas das Alterações ao Prazo,Causas das Alterações ao Preço,Estado,N.º registo do Acordo Quadro,Descrição do Acordo Quadro,Procedimento Centralizado
Serviços Médicos Dionoctimed,Ajuste Direto Regime Geral,Aquisição de serviços,"85121100-4, Serviços de médicos de clínica geral","Centro Hospitalar do Algarve, E. P. E. (510745997)",Dionoctimed - Serviços Medicos Lda  (507150910),"24.000,00 €",07-01-2014,26-07-2013,180 dias,"Portugal, Faro, Portimão","Artigo 20.º, n.º 1, alínea a) do Código dos Contratos Públicos",30-12-2013,"13.680,00 €",,Valor ajustado às necessidades,,Não aplicável.,Não aplicável.,FALSE
Serviços Médicos,Ajuste Direto Regime Geral,Aquisição de serviços,"85121100-4, Serviços de médicos de clínica geral","Centro Hospitalar do Barlavento Algarvio, E.P.E. (507062540)",Dionoctimed - Serviços Médicos Lda  (507150910),"30.000,00 €",01-04-2013,09-01-2013,180 dias,"Portugal, Faro, Portimão","Artigo 20.º, n.º 1, alínea a) do Código dos Contratos Públicos",30-06-2013,"21.300,00 €",,"o valor do contrato teve por base necessidades estimadas para 1º semestre 2013, o valor final reflete as necessidades efetivas",,Não aplicável.,Não aplicável.,
Serviços Médicos - Clinica Geral,Ajuste Direto Regime Geral,Aquisição de serviços,"85121100-4, Serviços de médicos de clínica geral","Centro Hospitalar do Barlavento Algarvio, E.P.E. (507062540)",Dionoctimed - Serviços Médicos Lda (507150910),"20.000,00 €",21-11-2012,31-10-2012,120 dias,"Portugal, Faro, Portimão","Artigo 20.º, n.º 1, alínea a) do Código dos Contratos Públicos","","",,"",,Não aplicável.,Não aplicável.,
