Objeto do Contrato,Tipo de Procedimento,Tipo(s) de Contrato,CPVs,Entidade(s) Adjudicante(s),Entidade(s) Adjudicatária(s),Preço Contratual,Data de Publicação,Data de Celebração do Contrato,Prazo de Execução,Local de Execução,Fundamentação,Data de Fecho do Contrato,Preço Total Efetivo,Causas das Alterações ao Prazo,Causas das Alterações ao Preço,Estado,N.º registo do Acordo Quadro,Descrição do Acordo Quadro,Procedimento Centralizado
68/2808/2018 - Prestação Serviços Médicos Cirurgia Geral,Ajuste Direto Regime Geral,Aquisição de serviços,"85121300-6, Serviços de cirurgia especializada","Centro Hospitalar Universitário do Algarve, E. P. E. (510745997)",Nuno Simões Unipessoal Lda (514971266),"44.000,00 €",08-10-2018,29-08-2018,152 dias,"Portugal, Faro, Faro","Artigo 24.º, n.º 1, alínea e), subalínea ii) do Código dos Contratos Públicos",31-12-2018,"13.800,00 €",,De acordo com as necessidades efectivas no ano 2018,,Não aplicável.,Não aplicável.,FALSE
Prestação de Serviços Médicos de Cirurgia,Ajuste Direto Regime Geral,Aquisição de serviços,"85121300-6, Serviços de cirurgia especializada","Centro Hospitalar Universitário do Algarve, E. P. E. (510745997)","Nuno Simões Abreu, Unip., Lda (514971266)","44.000,00 €",02-10-2018,29-08-2018,153 dias,"Portugal, Faro, Faro","Artigo 24.º, n.º 1, alínea e), subalínea ii) do Código dos Contratos Públicos","","",,"",,Não aplicável.,Não aplicável.,FALSE
