Objeto do Contrato,Tipo de Procedimento,Tipo(s) de Contrato,CPVs,Entidade(s) Adjudicante(s),Entidade(s) Adjudicatária(s),Preço Contratual,Data de Publicação,Data de Celebração do Contrato,Prazo de Execução,Local de Execução,Fundamentação,Data de Fecho do Contrato,Preço Total Efetivo,Causas das Alterações ao Prazo,Causas das Alterações ao Preço,Estado,N.º registo do Acordo Quadro,Descrição do Acordo Quadro,Procedimento Centralizado
Prestação de Serviços Médicos de Ginecologia/Obstetricia,Ajuste Direto Regime Geral,Aquisição de serviços,"85121210-8, Serviços de ginecologia ou obstetrícia","Centro Hospitalar Universitário do Algarve, E. P. E. (510745997)",Clínica Médica dos Luíses Lda. (506617920),"20.800,00 €",12-03-2018,09-01-2018,365 dias,"Portugal, Faro, Faro<BR/>Portugal, Faro, Portimão","Artigo 24.º, n.º 1, alínea e) do Código dos Contratos Públicos",31-12-2018,"109.400,00 €",,De acordo com as necessidades efectivas no ano 2018,,Não aplicável.,Não aplicável.,FALSE
Serviços Médicos Ginecologia/Obstétricia,Ajuste Direto Regime Geral,Aquisição de serviços,"85121210-8, Serviços de ginecologia ou obstetrícia","Centro Hospitalar do Algarve, E. P. E. (510745997)",Clínica Médica dos Luíses  (506617920),"41.280,00 €",30-03-2015,12-03-2015,306 dias,"Portugal, Faro, Portimão<BR/>Portugal, Faro, Faro","Artigo 24.º, n.º 1, alínea c) do Código dos Contratos Públicos",31-12-2015,"36.420,00 €",,"O valor inicial do Contrato teve por base as necessidades estimadas para o período de 1 Março de 2015 a 31 Dezembro de 2015, o valor final reflecte as necessidades efectivas.",,Não aplicável.,Não aplicável.,FALSE
Serviços Médicos Ginecologia/Obstetrícia,Ajuste Direto Regime Geral,Aquisição de serviços,"85121210-8, Serviços de ginecologia ou obstetrícia","Centro Hospitalar do Algarve, E. P. E. (510745997)","Clínica Médica dos Luíses, Lda (506617920)","8.640,00 €",30-03-2015,12-03-2015,59 dias,"Portugal, Faro, Portimão<BR/>Portugal, Faro, Faro","Artigo 24.º, n.º 1, alínea c) do Código dos Contratos Públicos",12-03-2015,"2.980,00 €",,"O valor inicial do Contrato teve por base as necessidades estimadas para o período de 1 Janeiro de 2015 a 28 Fevereiro de 2015, o valor final reflecte as necessidades efectivas.",,Não aplicável.,Não aplicável.,FALSE
Serviços Médicos Ginecologia/Obstetrícia,Ajuste Direto Regime Geral,Aquisição de serviços,"85121210-8, Serviços de ginecologia ou obstetrícia","Centro Hospitalar do Algarve, E. P. E. (510745997)","Clínica Médica dos Luíses, Lda (506617920)","32.640,00 €",27-03-2014,27-02-2014,365 dias,"Portugal, Faro, Faro<BR/>Portugal, Faro, Portimão","Artigo 20.º, n.º 1, alínea a) do Código dos Contratos Públicos",31-12-2014,"33.600,00 €",,"O valor inicial do Contrato teve por base as necessidades estimadas para o período de 1 Janeiro de 2014 a 31 Dezembro de 2014, o valor final reflecte as necessidades efectivas.",,Não aplicável.,Não aplicável.,FALSE
AD 1855/2013 - Prestação de Serviços Médicos Ginecologia/Obstetrícia (Jan a Dez/2013),Ajuste Direto Regime Geral,Aquisição de serviços,"85121210-8, Serviços de ginecologia ou obstetrícia","Hospital de Faro, E. P. E. (508718872)","Clínica Médica dos Luíses, Lda (506617920)","86.400,00 €",05-11-2013,30-06-2013,365 dias,"Portugal, Faro, Faro","Artigo 24.º, n.º 1, alínea e) do Código dos Contratos Públicos","","",,"",,Não aplicável.,Não aplicável.,
