Objeto do Contrato,Tipo de Procedimento,Tipo(s) de Contrato,CPVs,Entidade(s) Adjudicante(s),Entidade(s) Adjudicatária(s),Preço Contratual,Data de Publicação,Data de Celebração do Contrato,Prazo de Execução,Local de Execução,Fundamentação,Data de Fecho do Contrato,Preço Total Efetivo,Causas das Alterações ao Prazo,Causas das Alterações ao Preço,Estado,N.º registo do Acordo Quadro,Descrição do Acordo Quadro,Procedimento Centralizado
Prestação cuidados aos doentes de evolução prolongada da udep - julho a dezembro 2016,Ajuste Direto Regime Geral,Aquisição de serviços,"85000000-9, Serviços de saúde e acção social","Centro Hospitalar de Setúbal, E. P. E. (507606787)",Associação saúde mental Dr. fernando ilharco (501262040),"41.216,00 €",10-08-2016,27-07-2016,184 dias,"Portugal, Setúbal, Setúbal","Artigo 20.º, n.º 1, alínea a) do Código dos Contratos Públicos",,,,,,Não aplicável.,Não aplicável.,FALSE
Prestação Cuidados aos doentes de evolução prolongada do departamento psiquiatria no CHS,Ajuste Direto Regime Geral,Aquisição de serviços,"98000000-3, Outros serviços comunitários, sociais e pessoais","Centro Hospitalar de Setúbal, E. P. E. (507606787)",Associação saúde Mental Fernando Ilharco (501262040),"40.768,00 €",04-03-2016,26-02-2016,182 dias,"Portugal, Setúbal, Setúbal","Artigo 20.º, n.º 1, alínea a) do Código dos Contratos Públicos",,,,,,Não aplicável.,Não aplicável.,FALSE
Prestação de Cuidados aos Doentes de Evolução Prolongada de Psiquiatria e saúde Mental do CHS de julho a dezembro 2015,Ajuste Direto Regime Geral,Aquisição de serviços,"85000000-9, Serviços de saúde e acção social","Centro Hospitalar de Setúbal, E. P. E. (507606787)",Associação de Saude Mental Dr. Fernando Ilharco (501262040),"41.216,00 €",20-07-2015,16-07-2015,183 dias,"Portugal, Setúbal, Setúbal","Artigo 20.º, n.º 1, alínea a) do Código dos Contratos Públicos",,,,,,Não aplicável.,Não aplicável.,FALSE
Prestação Cuidados Doentes Evolução Prolongada da UDEP - janeiro a junho 2015,Ajuste Direto Regime Geral,Aquisição de serviços,"98000000-3, Outros serviços comunitários, sociais e pessoais","Centro Hospitalar de Setúbal, E. P. E. (507606787)",associação saúde mental Dr. Fernando Ilharco (501262040),"40.544,00 €",26-02-2015,26-01-2015,181 dias,"Portugal, Setúbal, Setúbal","Artigo 20.º, n.º 1, alínea a) do Código dos Contratos Públicos",,,,,,Não aplicável.,Não aplicável.,FALSE
Prestação Cuidaos Doentes de Evolução Prolongada do Departamento de Psiquiatria - julho a dezembro 2014,Ajuste Direto Regime Geral,Aquisição de serviços,"85000000-9, Serviços de saúde e acção social","Centro Hospitalar de Setúbal, E. P. E. (507606787)",Associação Saúde Mental Dr. Fernando Ilharco (501262040),"41.216,00 €",27-06-2014,06-06-2014,184 dias,"Portugal, Setúbal, Setúbal","Artigo 20.º, n.º 1, alínea a) do Código dos Contratos Públicos",,,,,,Não aplicável.,Não aplicável.,FALSE
Prestação Cuidados aos Doentes de Evolução Prolongada no Departamento de Saúde Mental - Janeiro a junho 2014,Ajuste Direto Regime Geral,Aquisição de serviços,"85000000-9, Serviços de saúde e acção social","Centro Hospitalar de Setúbal, E. P. E. (507606787)",Associação de Saúde Mental Dr. Fernando Ilharco (501262040),"40.544,00 €",03-03-2014,20-01-2014,183 dias,"Portugal, Setúbal, Setúbal","Artigo 20.º, n.º 1, alínea a) do Código dos Contratos Públicos",,,,,,Não aplicável.,Não aplicável.,FALSE
