Objeto do Contrato,Tipo de Procedimento,Tipo(s) de Contrato,CPVs,Entidade(s) Adjudicante(s),Entidade(s) Adjudicatária(s),Preço Contratual,Data de Publicação,Data de Celebração do Contrato,Prazo de Execução,Local de Execução,Fundamentação,Data de Fecho do Contrato,Preço Total Efetivo,Causas das Alterações ao Prazo,Causas das Alterações ao Preço,Estado,N.º registo do Acordo Quadro,Descrição do Acordo Quadro,Procedimento Centralizado
"Serviços médicos Urgência Geral, Cuidados Intensivos e Intermédios e Sala de Reanimação ",Ajuste Direto Regime Geral,Aquisição de serviços,"85121100-4, Serviços de médicos de clínica geral","Centro Hospitalar do Algarve, E. P. E. (510745997)","Espartmed - Serviços Médicos Unipessoal, Lda (509474349)","23.400,00 €",07-09-2017,24-07-2017,180 dias,"Portugal, Faro, Faro","Artigo 24.º, n.º 1, alínea e) do Código dos Contratos Públicos",31-12-2017,"7.500,00 €",,"O valor inicial do Contrato teve por base as necessidades estimadas para o período de 1 de julho de 2017 a 31 dezembro de 2017, o valor final reflete as necessidades efectivas.",,Não aplicável.,Não aplicável.,FALSE
Serviços Médicos de Urgência Geral e Básica,Ajuste Direto Regime Geral,Aquisição de serviços,"85121100-4, Serviços de médicos de clínica geral","Centro Hospitalar do Algarve, E. P. E. (510745997)","Espartmed - Serviços Médicos Unipessoal, Lda (509474349)","23.400,00 €",24-02-2017,13-02-2017,180 dias,"Portugal, Faro, Faro","Artigo 24.º, n.º 1, alínea e) do Código dos Contratos Públicos",30-06-2017,"14.040,00 €",,"O valor inicial do Contrato teve por base as necessidades estimadas para o período de 1 Janeiro de 2017 a 30 Junho de 2017, o valor final reflecte as necessidades efectivas.",,Não aplicável.,Não aplicável.,FALSE
Serviços médicos de Urgência Geral e Básica,Ajuste Direto Regime Geral,Aquisição de serviços,"85121100-4, Serviços de médicos de clínica geral","Centro Hospitalar do Algarve, E. P. E. (510745997)","Espartmed - Serviços Médicos Unipessoal, Lda (509474349)","11.700,00 €",04-03-2016,23-02-2016,91 dias,"Portugal, Faro, Faro","Artigo 24.º, n.º 1, alínea c) do Código dos Contratos Públicos",31-12-2016,"34.680,00 €",,"O valor inicial do Contrato teve por base as necessidades estimadas para o período de 1 Janeiro de 2016 a 31 Dezembro de 2016, o valor final reflecte as necessidades efectivas.",,Não aplicável.,Não aplicável.,FALSE
"Serviços médicos urgência geral, cuidados intensivos e intermédios e sala de reanimação",Ajuste Direto Regime Geral,Aquisição de serviços,"85121200-5, Serviços de medicina especializada","Centro Hospitalar do Algarve, E. P. E. (510745997)","Espartmed - Serviços de Saúde Unipessoal, Lda (509474349)","23.400,00 €",21-07-2015,01-07-2015,184 dias,"Portugal, Faro, Albufeira<BR/>Portugal, Faro, Portimão<BR/>Portugal, Faro, Vila Real Sto Antonio<BR/>Portugal, Faro, Loulé<BR/>Portugal, Faro, Faro","Artigo 24.º, n.º 1, alínea c) do Código dos Contratos Públicos",31-12-2015,"14.400,00 €",,"O valor inicial do Contrato teve por base as necessidades estimadas para o período de 1 Julho de 2015 a 31 Dezembro de 2015, o valor final reflecte as necessidades efectivas.",,Não aplicável.,Não aplicável.,FALSE
"Serviços Médicos de Urgência Geral, Cuidados Intensivos e Interm e Sala de Reanimação",Ajuste Direto Regime Geral,Aquisição de serviços,"85121100-4, Serviços de médicos de clínica geral","Centro Hospitalar do Algarve, E. P. E. (510745997)","Espartmed - Serviços Médicos Unipessoal, Lda (509474349)","11.700,00 €",22-05-2015,05-05-2015,91 dias,"Portugal, Faro, Loulé<BR/>Portugal, Faro, Albufeira<BR/>Portugal, Faro, Vila Real Sto Antonio<BR/>Portugal, Faro, Faro","Artigo 24.º, n.º 1, alínea c) do Código dos Contratos Públicos",31-12-2015,"7.200,00 €",,"O valor inicial do Contrato teve por base as necessidades estimadas para o período de 1 Abril de 2015 a 30 Junho de 2015, o valor final reflecte as necessidades efectivas.",,Não aplicável.,Não aplicável.,FALSE
"Serviços Médicos de Urgência Geral, Cuidados Intensivos e Interm e Sala de Reanimação",Ajuste Direto Regime Geral,Aquisição de serviços,"85121100-4, Serviços de médicos de clínica geral","Centro Hospitalar do Algarve, E. P. E. (510745997)","Espartmed  - Serviços Médicos Unipessoal, Lda (509474349)","11.700,00 €",22-05-2015,05-05-2015,90 dias,"Portugal, Faro, Faro<BR/>Portugal, Faro, Albufeira<BR/>Portugal, Faro, Vila Real Sto Antonio<BR/>Portugal, Faro, Loulé","Artigo 24.º, n.º 1, alínea c) do Código dos Contratos Públicos",05-05-2015,"8.640,00 €",,"O valor inicial do Contrato teve por base as necessidades estimadas para o período de 1 Janeiro de 2015 a 31 Março de 2015, o valor final reflecte as necessidades efectivas.",,Não aplicável.,Não aplicável.,FALSE
