Objeto do Contrato,Tipo de Procedimento,Tipo(s) de Contrato,CPVs,Entidade(s) Adjudicante(s),Entidade(s) Adjudicatária(s),Preço Contratual,Data de Publicação,Data de Celebração do Contrato,Prazo de Execução,Local de Execução,Fundamentação,Data de Fecho do Contrato,Preço Total Efetivo,Causas das Alterações ao Prazo,Causas das Alterações ao Preço,Estado,N.º registo do Acordo Quadro,Descrição do Acordo Quadro,Procedimento Centralizado
"Prestação de serviços de Medicina Física e Reabilitação, no Exterior",Ajuste Direto Regime Geral,Aquisição de serviços,"85120000-6, Serviços de prática médica e serviços conexos","Hospital do Espírito Santo de Évora, E. P. E. (508085888)",FISIONOVA-CLINICA FISIOT REABILITAÇÃO LDA (506221067),"25.011,36 €",30-04-2018,07-03-2018,365 dias,"Portugal, Évora, Évora","Artigo 24.º, n.º 1, alínea a) do Código dos Contratos Públicos","","",,,,Não aplicável.,Não aplicável.,FALSE
Prestação de serviços em medicina física e reabilitação,Ajuste Direto Regime Geral,Aquisição de serviços,"85120000-6, Serviços de prática médica e serviços conexos","Hospital do Espírito Santo de Évora, E. P. E. (508085888)",FISIONOVA-CLINICA FISIOT REABILITAÇÃO LDA (506221067),"34.499,48 €",20-11-2017,16-01-2017,365 dias,"Portugal, Évora, Évora","Artigo 20.º, n.º 1, alínea a) do Código dos Contratos Públicos","","",,,,Não aplicável.,Não aplicável.,FALSE
Prestação de Serviços de Medicina Física,Ajuste Direto Regime Geral,Aquisição de serviços,"85111400-4, Serviços hospitalares de reabilitação","Hospital do Espírito Santo de Évora, E. P. E. (508085888)","CLINICA RECUPERAÇÃO M H VILA VIÇOSA LDA (502960639), SANTA CASA DA MISERICORDIA DE MORA (500848599), FISIONOVA-CLINICA FISIOT REABILITAÇÃO LDA (506221067), HOSPITAL  S JOAO DEUS (500927731), CRUZ VERMELHA PORTUGUESA ESTREMOZ (500745749), CALENDARIO DO TEMPO LDA (508498376)","119.247,00 €",14-06-2016,16-03-2016,365 dias,"Portugal, Évora, Évora","Artigo 24.º, n.º 1, alínea a) do Código dos Contratos Públicos","","",,,,Não aplicável.,Não aplicável.,FALSE
Aquisição de MCDT´s de Fisioterapia,Ajuste Direto Regime Geral,Aquisição de serviços,"85142100-7, Serviços de fisioterapia","Hospital do Espírito Santo de Évora, E. P. E. (508085888)",FISIONOVA-CLINICA FISIOT REABILITAÇÃO LDA (506221067),"9.950,90 €",02-09-2015,22-05-2014,180 dias,"Portugal, Évora, Évora","Artigo 20.º, n.º 1, alínea a) do Código dos Contratos Públicos","","",,,,Não aplicável.,Não aplicável.,FALSE
MCDT´s,Ajuste Direto Regime Geral,Aquisição de serviços,"85140000-2, Serviços de saúde diversos","Hospital do Espírito Santo de Évora, E. P. E. (508085888)",Fisionova (506221067),"9.661,25 €",18-09-2014,01-06-2014,8 dias,"Portugal, Évora, Évora","Artigo 20.º, n.º 1, alínea a) do Código dos Contratos Públicos","","",,,,Não aplicável.,Não aplicável.,FALSE
Prestação de serviços de fisioterapia no Centro de Saúde de Reguengos de Monsaraz,Ajuste Direto Regime Geral,Aquisição de serviços,"85000000-9, Serviços de saúde e acção social",Município de Reguengos de Monsaraz (507040589),"Fisionova - Clinica de Fisioterapia e Reabilitação, Lda. (506221067)","26.000,81 €",27-05-2010,25-05-2010,699 dias,"Portugal, Évora, Reguengos de Monsaraz","Artigo 20.º, n.º 1, alínea a) do Código dos Contratos Públicos",30-04-2012,"26.000,81 €",,,,Não aplicável.,Não aplicável.,
"Prestação de serviços na área da reabilitação e fisioterapia, no âmbito do Programa Regional de Medicina Física e de Reabilitação, conforme protocolo com a Administração Regional de Saúde do Alentejo, a implementar no centro de Saúde de Reguengos de Monsaraz.",Ajuste Direto Regime Geral,"","",Município de Reguengos de Monsaraz (507040589),"Fisionova – Clínica de Fisioterapia e Reabilitação, Lda. (506221067)","11.895,72 €",07-01-2009,"",365 dias,"",O da proposta economicamente mais vantajosa para a entidade adjudicante – alínea a) do n.º1 artigo 74.º,"","",,,,Não aplicável.,Não aplicável.,
