Objeto do Contrato,Tipo de Procedimento,Tipo(s) de Contrato,CPVs,Entidade(s) Adjudicante(s),Entidade(s) Adjudicatária(s),Preço Contratual,Data de Publicação,Data de Celebração do Contrato,Prazo de Execução,Local de Execução,Fundamentação,Data de Fecho do Contrato,Preço Total Efetivo,Causas das Alterações ao Prazo,Causas das Alterações ao Preço,Estado,N.º registo do Acordo Quadro,Descrição do Acordo Quadro,Procedimento Centralizado
"Prestação de Serviços Médicos na Triagem do Serviço de Urgência do HSLE, na ULSNA, EPE (ano 2017)",Ajuste Direto Regime Geral,Aquisição de serviços,"85100000-0, Serviços de saúde","Unidade Local de Saúde do Norte Alentejano, E. P. E. (508094461)","Badsaude, Lda (510982158)","423.800,00 €",10-02-2017,03-01-2017,365 dias,"Portugal, Portalegre, Elvas","Artigo 27.º, n.º 1, alínea a) do Código dos Contratos Públicos",03-01-2017,"423.800,00 €",,,,Não aplicável.,Não aplicável.,FALSE
Prestação de Serviços Médicos na Triagem do SU do HSLE (Período de Maio a Junho de 2016),Ajuste Direto Regime Geral,Aquisição de serviços,"85000000-9, Serviços de saúde e acção social","Unidade Local de Saúde do Norte Alentejano, E. P. E. (508094461)","Badsaúde - Prestação de Serviços Médicos, Lda. (510982158)","70.650,00 €",11-04-2016,05-04-2016,61 dias,"Portugal, Portalegre, Elvas","Artigo 27.º, n.º 1, alínea a) do Código dos Contratos Públicos",11-04-2016,"70.650,00 €",,,,Não aplicável.,Não aplicável.,FALSE
"Prestação de Serviços Médicos, na Triagem Pediátrica dos Serviços de Urgência do HDJMG de Portalegre (Outubro a Dezembro/2015)",Ajuste Direto Regime Geral,Aquisição de serviços,"85100000-0, Serviços de saúde","Unidade Local de Saúde do Norte Alentejano, E. P. E. (508094461)","Badsaude - Pretação de Serviços Médicos, Lda (510982158)","36.800,00 €",16-10-2015,12-10-2015,92 dias,"Portugal, Portalegre, Portalegre","Artigo 24.º, n.º 1, alínea c) do Código dos Contratos Públicos",12-10-2015,"36.800,00 €",,,,Não aplicável.,Não aplicável.,FALSE
"Prestação de Serviços Médicos na Triagem dos Serviços de Urgência da ULSNA, EPE",Concurso público,Aquisição de serviços,"85100000-0, Serviços de saúde","Unidade Local de Saúde do Norte Alentejano, E. P. E. (508094461)","Badsáude - Prestação de Serviços Médicos, Lda. (510982158)","860.600,00 €",10-08-2015,04-05-2015,365 dias,"Portugal, Portalegre, Portalegre","Artigo 20.º, n.º 1, alínea b) do Código dos Contratos Públicos",10-08-2015,"860.600,00 €",,,,Não aplicável.,Não aplicável.,FALSE
