Objeto do Contrato,Tipo de Procedimento,Tipo(s) de Contrato,CPVs,Entidade(s) Adjudicante(s),Entidade(s) Adjudicatária(s),Preço Contratual,Data de Publicação,Data de Celebração do Contrato,Prazo de Execução,Local de Execução,Fundamentação,Data de Fecho do Contrato,Preço Total Efetivo,Causas das Alterações ao Prazo,Causas das Alterações ao Preço,Estado,N.º registo do Acordo Quadro,Descrição do Acordo Quadro,Procedimento Centralizado
Prestação de Serviços Médicos de Urgencia Geral,Ajuste Direto Regime Geral,Aquisição de serviços,"85121000-3, Serviços de prática médica","Centro Hospitalar Universitário do Algarve, E. P. E. (510745997)","Jornada Habil, Lda (514342366)","23.400,00 €",15-03-2018,09-01-2018,90 dias,"Portugal, Faro, Portimão","Artigo 24.º, n.º 1, alínea e) do Código dos Contratos Públicos",31-12-2018,"47.350,00 €",,De acordo com as necessidades efectivas de 2018,,Não aplicável.,Não aplicável.,FALSE
"Serviços Médicos Urgência geral, pediatrica e Vmer",Ajuste Direto Regime Geral,Aquisição de serviços,"85121100-4, Serviços de médicos de clínica geral","Centro Hospitalar do Algarve, E. P. E. (510745997)","Jornada Habil, Lda (514342366)","31.200,00 €",04-09-2017,23-08-2017,180 dias,"Portugal, Faro, Albufeira<BR/>Portugal, Faro, Faro","Artigo 24.º, n.º 1, alínea e) do Código dos Contratos Públicos",31-12-2017,"29.400,00 €",,"O valor inicial do Contrato teve por base as necessidades estimadas para o período de 1 de julho de 2017 a 31 dezembro de 2017, o valor final reflete as necessidades efectivas.",,Não aplicável.,Não aplicável.,FALSE
