Objeto do Contrato,Tipo de Procedimento,Tipo(s) de Contrato,CPVs,Entidade(s) Adjudicante(s),Entidade(s) Adjudicatária(s),Preço Contratual,Data de Publicação,Data de Celebração do Contrato,Prazo de Execução,Local de Execução,Fundamentação,Data de Fecho do Contrato,Preço Total Efetivo,Causas das Alterações ao Prazo,Causas das Alterações ao Preço,Estado,N.º registo do Acordo Quadro,Descrição do Acordo Quadro,Procedimento Centralizado
"Prestação de serviços médicos de otorrino, e compreende consultas externas, interveção em bloco operatório e apoio ao serviço de urgência e internamento",Ajuste Direto Regime Geral,Aquisição de serviços,"85121240-7, Serviços de otorrinolaringologia ou audiologia","CENTRO HOSPITALAR DO OESTE (510412009), Centro Hospitalar do Oeste Norte -CHON (508877547)",CLINICA DE ORL E AUDIOLOGIA DR. JOSÉ LUIS REIS (504385313),"4.800,00 €",15-02-2013,02-08-2012,122 dias,"Portugal, Leiria, Caldas da Rainha","Artigo 20.º, n.º 1, alínea a) do Código dos Contratos Públicos",06-09-2012,"4.800,00 €",,,,Não aplicável.,Não aplicável.,
AQUISIÇÃO PRESTAÇAO SERVIÇOS MEDICOS - ESPECIALIDADE OTORRINO,Ajuste Direto Regime Geral,Aquisição de serviços,"85100000-0, Serviços de saúde",Centro Hospitalar do Oeste Norte -CHON (508877547),CLINICA DE ORL E AUDIOLOGIA DR. JOSE LUIS REIS (504385313),"7.200,00 €",12-10-2012,14-12-2011,122 dias,"Portugal, Leiria, Caldas da Rainha","Artigo 20.º, n.º 1, alínea a) do Código dos Contratos Públicos",15-12-2011,"7.200,00 €",,,,Não aplicável.,Não aplicável.,
