Objeto do Contrato,Tipo de Procedimento,Tipo(s) de Contrato,CPVs,Entidade(s) Adjudicante(s),Entidade(s) Adjudicatária(s),Preço Contratual,Data de Publicação,Data de Celebração do Contrato,Prazo de Execução,Local de Execução,Fundamentação,Data de Fecho do Contrato,Preço Total Efetivo,Causas das Alterações ao Prazo,Causas das Alterações ao Preço,Estado,N.º registo do Acordo Quadro,Descrição do Acordo Quadro,Procedimento Centralizado
Prestação de Serviços Médicos de Anestesiologia - Ajuste Directo n.º 8401126,Ajuste Direto Regime Geral,Aquisição de serviços,"85141000-9, Serviços prestados pelo pessoal médico","Hospital Garcia de Orta, E. P. E. (506361470)","SAAG - SAÚDE, LDA. (509713920)","20.020,00 €",05-07-2017,07-04-2016,365 dias,"Portugal, Setúbal, Almada","Artigo 20.º, n.º 1, alínea a) do Código dos Contratos Públicos",,,,,,Não aplicável.,Não aplicável.,FALSE
PRESTAÇÃO DE SERVIÇOS MÉDICOS DE ANESTESIOLOGIA - Ajuste Directo nº 8401126,Ajuste Direto Regime Geral,Aquisição de serviços,"85141000-9, Serviços prestados pelo pessoal médico","Hospital Garcia de Orta, E. P. E. (506361470)","SAGG - SAÚDE, UNIPESSOAL, LDA. (509713920)","20.020,00 €",17-11-2016,23-03-2016,365 dias,"Portugal, Setúbal, Almada","Artigo 20.º, n.º 1, alínea a) do Código dos Contratos Públicos",,,,,,Não aplicável.,Não aplicável.,FALSE
