Objeto do Contrato,Tipo de Procedimento,Tipo(s) de Contrato,CPVs,Entidade(s) Adjudicante(s),Entidade(s) Adjudicatária(s),Preço Contratual,Data de Publicação,Data de Celebração do Contrato,Prazo de Execução,Local de Execução,Fundamentação,Data de Fecho do Contrato,Preço Total Efetivo,Causas das Alterações ao Prazo,Causas das Alterações ao Preço,Estado,N.º registo do Acordo Quadro,Descrição do Acordo Quadro,Procedimento Centralizado
49002317-Exames MCDT anos anteriores,Ajuste Direto Regime Geral,Aquisição de serviços,"85000000-9, Serviços de saúde e acção social",Hospital Dr. Francisco Zagalo (501510150),"HOSPITAL CUF PORTO, S.A. (508963150)","120,00 €",16-10-2017,08-02-2017,30 dias,"Portugal, Aveiro, Ovar","Artigo 20.º, n.º 1, alínea a) do Código dos Contratos Públicos",28-02-2017,"120,00 €","","",,Não aplicável.,Não aplicável.,FALSE
Aquisição Exames/MCDT,Ajuste Direto Regime Geral,Aquisição de serviços,"85150000-5, Serviços de imagiologia médica",Hospital Dr. Francisco Zagalo (501510150),"HOSPITAL CUF PORTO, SA (508963150)","833,98 €",07-04-2016,23-03-2016,8 dias,"Portugal, Aveiro, Ovar","Artigo 20.º, n.º 1, alínea a) do Código dos Contratos Públicos",31-03-2016,"833,98 €","","",,Não aplicável.,Não aplicável.,FALSE
Aquisição Exames/MCDT,Ajuste Direto Regime Geral,Aquisição de serviços,"85150000-5, Serviços de imagiologia médica",Hospital Dr. Francisco Zagalo (501510150),"HOSPITAL CUF PORTO, SA (508963150)","36,50 €",01-04-2016,23-03-2016,8 dias,"Portugal, Aveiro, Ovar","Artigo 20.º, n.º 1, alínea a) do Código dos Contratos Públicos",31-03-2016,"36,50 €","","",,Não aplicável.,Não aplicável.,FALSE
Aquisição Exames/MCDT,Ajuste Direto Regime Geral,Aquisição de serviços,"85150000-5, Serviços de imagiologia médica",Hospital Dr. Francisco Zagalo (501510150),"HOSPITAL CUF PORTO, SA. (508963150)","172,50 €",01-04-2016,22-03-2016,9 dias,"Portugal, Aveiro, Ovar","Artigo 20.º, n.º 1, alínea a) do Código dos Contratos Públicos",31-03-2016,"172,50 €","","",,Não aplicável.,Não aplicável.,FALSE
MCDT/EXAMES,Ajuste Direto Regime Geral,Aquisição de serviços,"85150000-5, Serviços de imagiologia médica",Hospital Dr. Francisco Zagalo (501510150),HOSPITAL  CUF (508963150),"151,50 €",11-12-2015,03-12-2015,30 dias,"Portugal, Aveiro, Ovar","Artigo 20.º, n.º 1, alínea a) do Código dos Contratos Públicos",10-12-2015,"151,50 €","","",,Não aplicável.,Não aplicável.,FALSE
AD49048914-EXAMES DE OTORRINOLARINGOLOGIA,Ajuste Direto Regime Geral,Aquisição de serviços,"85000000-9, Serviços de saúde e acção social",Hospital Dr. Francisco Zagalo (501510150),"HOSPITAL CUF PORTO, S.A. (508963150)","574,00 €",05-10-2015,01-10-2014,30 dias,"Portugal, Aveiro, Ovar","Artigo 20.º, n.º 1, alínea a) do Código dos Contratos Públicos",01-10-2014,"574,00 €","","",,Não aplicável.,Não aplicável.,FALSE
EXAMES DE PNEUMOLOGIA,Ajuste Direto Regime Geral,Aquisição de serviços,"85000000-9, Serviços de saúde e acção social",Hospital Dr. Francisco Zagalo (501510150),"HOSPITAL CUF PORTO, S.A. (508963150)","912,00 €",01-10-2015,11-06-2014,180 dias,"Portugal, Aveiro, Ovar","Artigo 20.º, n.º 1, alínea a) do Código dos Contratos Públicos",31-12-2014,"912,00 €","","",,Não aplicável.,Não aplicável.,FALSE
Exames MCDT- Gastrenterologia,Ajuste Direto Regime Geral,Aquisição de serviços,"85100000-0, Serviços de saúde",Hospital Dr. Francisco Zagalo (501510150),"Hospital Cuf Porto, SA (508963150)","7.179,60 €",27-05-2015,11-03-2015,365 dias,"Portugal, Aveiro, Ovar","Artigo 20.º, n.º 1, alínea a) do Código dos Contratos Públicos",31-12-2015,"32.937,28 €","",Preço contratual - Valor alterado uma vez que no RFC só foi considerado 25% do valor total adjudicado.,,Não aplicável.,Não aplicável.,FALSE
Exames MCDT - Neurofisiologia,Ajuste Direto Regime Geral,Aquisição de serviços,"85100000-0, Serviços de saúde",Hospital Dr. Francisco Zagalo (501510150),Hospital Cuf Porto SA (508963150),"7.769,00 €",27-05-2015,11-03-2015,365 dias,"Portugal, Aveiro, Ovar","Artigo 20.º, n.º 1, alínea a) do Código dos Contratos Públicos","","","","",,Não aplicável.,Não aplicável.,FALSE
Exames MCDT-Urologia,Ajuste Direto Regime Geral,Aquisição de serviços,"85100000-0, Serviços de saúde",Hospital Dr. Francisco Zagalo (501510150),"Hospital Cuf Porto, S.A. (508963150)","6.032,00 €",25-05-2015,25-03-2015,365 dias,"Portugal, Aveiro, Ovar","Artigo 20.º, n.º 1, alínea a) do Código dos Contratos Públicos",31-12-2015,"2.819,76 €","",Serviço abaixo do previsto,,Não aplicável.,Não aplicável.,FALSE
Exames MCDT de Cardiologia,Ajuste Direto Regime Geral,Aquisição de serviços,"85100000-0, Serviços de saúde",Hospital Dr. Francisco Zagalo (501510150),Hospital Cuf Porto S.A. (508963150),"3.000,00 €",22-05-2015,29-04-2015,365 dias,"Portugal, Aveiro, Ovar","Artigo 20.º, n.º 1, alínea a) do Código dos Contratos Públicos",31-12-2015,"4.719,60 €","",Serviço acima do previsto,,Não aplicável.,Não aplicável.,FALSE
Exames MCDT de otorrrinolaringologia,Ajuste Direto Regime Geral,Aquisição de serviços,"85100000-0, Serviços de saúde",Hospital Dr. Francisco Zagalo (501510150),Hospital Cuf Porto S.A. (508963150),"5.900,00 €",22-05-2015,29-04-2015,365 dias,"Portugal, Aveiro, Ovar","Artigo 20.º, n.º 1, alínea a) do Código dos Contratos Públicos",31-12-2015,"2.286,20 €","",Serviço abaixo do previsto,,Não aplicável.,Não aplicável.,FALSE
Exames - MCDT - Pneumologia,Ajuste Direto Regime Geral,Aquisição de serviços,"85100000-0, Serviços de saúde",Hospital Dr. Francisco Zagalo (501510150),Hospital Cuf Porto S.A. (508963150),"4.900,00 €",22-05-2015,29-04-2015,365 dias,"Portugal, Aveiro, Ovar","Artigo 20.º, n.º 1, alínea a) do Código dos Contratos Públicos",31-12-2015,"3.519,77 €","",Serviço abaixo do previsto,,Não aplicável.,Não aplicável.,FALSE
Exames MCDT efectuados no ano 2013,Ajuste Direto Regime Geral,Aquisição de serviços,"85145000-7, Serviços prestados por laboratórios médicos",Hospital Dr. Francisco Zagalo (501510150),Hospital Cuf Porto S.A. (508963150),"6.148,40 €",14-11-2014,12-11-2014,30 dias,"Portugal, Aveiro, Ovar","Artigo 20.º, n.º 1, alínea a) do Código dos Contratos Públicos",12-11-2014,"6.148,40 €","","",,Não aplicável.,Não aplicável.,FALSE
Serviços de exames de gastrenterologia,Ajuste Direto Regime Geral,Aquisição de serviços,"85145000-7, Serviços prestados por laboratórios médicos",Hospital Dr. Francisco Zagalo (501510150),"Hospital Cuf Porto, S.A. (508963150)","9.247,80 €",29-10-2014,29-10-2014,120 dias,"Portugal, Aveiro, Ovar","Artigo 20.º, n.º 1, alínea a) do Código dos Contratos Públicos",31-10-2014,"8.008,52 €","",serviços efectuados abaixo do previsto,,Não aplicável.,Não aplicável.,FALSE
"Aquisição de serviços no âmbito do Projeto de I&D n.º PTDC/SAU-SAP/119192/2010 """"ICAR - Impacto e Controlo da Asma e Rinite"""" - zona do Grande Porto",Ajuste Direto Regime Geral,Aquisição de serviços,"85121200-5, Serviços de medicina especializada",Universidade do Porto (501413197),"Hospital da CUF Porto, SA (508963150)","13.832,00 €",24-09-2014,22-02-2013,159 dias,"Portugal, Porto, Porto","Artigo 20.º, n.º 1, alínea a) do Código dos Contratos Públicos","","","","",,Não aplicável.,Não aplicável.,FALSE
"Serviços de exames MCDT -Gastrenterologia, a utentes",Ajuste Direto Regime Geral,Aquisição de serviços,"85145000-7, Serviços prestados por laboratórios médicos",Hospital Dr. Francisco Zagalo (501510150),"Hospital Cuf Porto, S.A. (508963150)","8.167,10 €",19-08-2014,11-06-2014,90 dias,"Portugal, Aveiro, Ovar","Artigo 20.º, n.º 1, alínea a) do Código dos Contratos Públicos",31-12-2014,"8.734,26 €","",serviços efectuados acima do previsto,,Não aplicável.,Não aplicável.,FALSE
Serviços exames medicos de Neurofisiologia - Electromiografias,Ajuste Direto Regime Geral,Aquisição de serviços,"85111000-0, Serviços hospitalares",Hospital Dr. Francisco Zagalo (501510150),"Hospital Cuf Porto, S.A. (508963150)","8.027,00 €",26-06-2014,11-06-2014,210 dias,"Portugal, Aveiro, Ovar","Artigo 20.º, n.º 1, alínea a) do Código dos Contratos Públicos",30-11-2014,"5.345,50 €","",serviços efectuados abaixo do previsto,,Não aplicável.,Não aplicável.,FALSE
Exames de MCDT - Gastrenterologia a utentes,Ajuste Direto Regime Geral,Aquisição de serviços,"85100000-0, Serviços de saúde",Hospital Dr. Francisco Zagalo (501510150),"Hospital Cuf Porto, S.A.  (508963150)","5.341,30 €",20-01-2014,31-12-2013,30 dias,"Portugal, Aveiro, Ovar","Artigo 20.º, n.º 1, alínea a) do Código dos Contratos Públicos",31-12-2013,"5.341,30 €","","",,Não aplicável.,Não aplicável.,FALSE
Exames de Gastrenterologia efectuados a utentes em Maio/2013,Ajuste Direto Regime Geral,Aquisição de serviços,"85000000-9, Serviços de saúde e acção social",HOSPITAL DR FRANCISCO ZAGALO (501510150),"Hospital Cuf Porto, S.A. (508963150)","9.000,00 €",20-05-2013,08-05-2013,31 dias,"Portugal, Aveiro, Ovar","Artigo 20.º, n.º 1, alínea a) do Código dos Contratos Públicos",27-08-2013,"",cessação do contrato,cessação do contrato,,Não aplicável.,Não aplicável.,
Exames de MCDT de Gastrenterologia a utentes,Ajuste Direto Regime Geral,Aquisição de serviços,"85000000-9, Serviços de saúde e acção social",HOSPITAL DR FRANCISCO ZAGALO (501510150),"Hospital Cuf Porto, S.A. (508963150)","9.000,00 €",07-05-2013,26-03-2013,30 dias,"Portugal, Aveiro, Ovar","Artigo 20.º, n.º 1, alínea a) do Código dos Contratos Públicos",27-08-2013,"","",cessação do contrato,,Não aplicável.,Não aplicável.,
Serviços de exames de MCDT Gastrenterologia,Ajuste Direto Regime Geral,Aquisição de serviços,"85000000-9, Serviços de saúde e acção social",HOSPITAL DR FRANCISCO ZAGALO (501510150),"Hospital Cuf Porto, S.A. (508963150)","9.000,00 €",29-04-2013,26-03-2013,30 dias,"Portugal, Aveiro, Ovar","Artigo 20.º, n.º 1, alínea a) do Código dos Contratos Públicos",30-11-2013,"6.690,42 €",serviços efectuados para 90 dias,serviços abaixo do previsto,,Não aplicável.,Não aplicável.,
exames,Ajuste Direto Regime Geral,Aquisição de serviços,"85121251-7, Serviços de gastroenterologia",HOSPITAL DR FRANCISCO ZAGALO (501510150),"Hospital Cuf Porto, S. A. (508963150)","9.000,00 €",08-02-2013,01-02-2013,30 dias,"Portugal, Aveiro, Ovar","Artigo 35.º, nº 1 do DL nº 29-A/2011, de 01.03",28-02-2013,"2.689,24 €","",Exames efectuados abaixo do valor previsto,,Não aplicável.,Não aplicável.,
Aquisição de serv iços de exames MCDT de Gastrenterologia a utentes,Ajuste Direto Regime Geral,Aquisição de serviços,"85121251-7, Serviços de gastroenterologia",HOSPITAL DR FRANCISCO ZAGALO (501510150),"Hospital Cuf Porto, SA (508963150)","9.000,00 €",04-02-2013,15-01-2013,30 dias,"Portugal, Aveiro, Ovar","Artigo 20.º, n.º 1, alínea a) do Código dos Contratos Públicos",30-06-2013,"7.376,29 €","",serviços efectuados abaixo do previsto,,Não aplicável.,Não aplicável.,
Exames efectuados a vários utentes na area da Gastrenterologia,Ajuste Direto Regime Geral,Aquisição de serviços,"85121251-7, Serviços de gastroenterologia",HOSPITAL DR FRANCISCO ZAGALO (501510150),"Hospital Cuf Porto, SA (508963150)","5.947,30 €",16-01-2013,27-12-2012,244 dias,"Portugal, Aveiro, Ovar","Artigo 20.º, n.º 1, alínea a) do Código dos Contratos Públicos",27-12-2012,"5.947,30 €","","",,Não aplicável.,Não aplicável.,
Exames de gastrenterologia efectuados a utentes,Ajuste Direto Regime Geral,Aquisição de serviços,"85121251-7, Serviços de gastroenterologia",HOSPITAL DR FRANCISCO ZAGALO (501510150),"Hospital Cuf Porto, S.A. (508963150)","13.684,23 €",23-10-2012,19-10-2012,183 dias,"Portugal, Aveiro, Ovar","Artigo 20.º, n.º 1, alínea a) do Código dos Contratos Públicos",19-10-2012,"13.684,23 €","","",,Não aplicável.,Não aplicável.,
Serviços de exames de M.C.D.T. efectuados a doentes,Ajuste Direto Regime Geral,Aquisição de serviços,"85150000-5, Serviços de imagiologia médica",HOSPITAL DR FRANCISCO ZAGALO (501510150),"Hospital Cuf Porto, S.A. (508963150), Dr.Campos Costa-Consultorio Tomograf.Comput.S.A. (502082429), Instituto Cuf Diagnostico e Tratamento, S.A. (506123243)","15.180,00 €",27-04-2012,16-04-2012,30 dias,"Portugal, Aveiro, Ovar","Artigo 20.º, n.º 1, alínea a) do Código dos Contratos Públicos",31-05-2012,"7.330,00 €","",Serviços efectuados abaixo do previsto,,Não aplicável.,Não aplicável.,
Exames MCDT efectuados por utentes em Abril de 2012,Ajuste Direto Regime Geral,Aquisição de serviços,"85150000-5, Serviços de imagiologia médica",HOSPITAL DR FRANCISCO ZAGALO (501510150),"Instituto Cuf Diagnóstico e Tratamento, S.A. (506123243), Dr. Pinto Leite-Instituto de Radiologia (501396772), Hospital Cuf Porto, S.A. (508963150), Dr.Campos Costa-Consultorio de Tomogr.Comput. S.A. (502082429)","15.180,00 €",17-04-2012,12-04-2012,30 dias,"Portugal, Aveiro, Ovar","Artigo 20.º, n.º 1, alínea a) do Código dos Contratos Públicos",30-04-2012,"9.852,84 €","",Exames efectuados abaixo do previsto,,Não aplicável.,Não aplicável.,
