Objeto do Contrato,Tipo de Procedimento,Tipo(s) de Contrato,CPVs,Entidade(s) Adjudicante(s),Entidade(s) Adjudicatária(s),Preço Contratual,Data de Publicação,Data de Celebração do Contrato,Prazo de Execução,Local de Execução,Fundamentação,Data de Fecho do Contrato,Preço Total Efetivo,Causas das Alterações ao Prazo,Causas das Alterações ao Preço,Estado,N.º registo do Acordo Quadro,Descrição do Acordo Quadro,Procedimento Centralizado
20190002 - Aquisição de serviços de Medicina do Trabalho,Consulta Prévia,Aquisição de serviços,"85147000-1, Serviços de medicina do trabalho","Instituto Nacional de Saúde Doutor Ricardo Jorge, I. P. (501427511)","Silva Graça - Clínica Médica e do Trabalho, Lda (504942891)","24.125,00 €",06-02-2019,28-01-2019,337 dias,"Portugal, Setúbal, Palmela<BR/>Portugal, Lisboa, Lisboa","Artigo 20.º, n.º 1, alínea c) do Código dos Contratos Públicos","","",,,,Não aplicável.,Não aplicável.,FALSE
20180004 - Serviços de medicina no trabalho,Ajuste Direto Regime Geral,Aquisição de serviços,"85147000-1, Serviços de medicina do trabalho","Instituto Nacional de Saúde Doutor Ricardo Jorge, I. P. (501427511)","Silva Graça - Clínica Médica e do Trabalho, Lda (504942891)","23.652,00 €",20-02-2018,14-02-2018,365 dias,"Portugal, Lisboa, Lisboa","Artigo 20.º, n.º 1, alínea a) do Código dos Contratos Públicos","","",,,,Não aplicável.,Não aplicável.,FALSE
20170003 - Serviços de Medicina no Trabalho,Ajuste Direto Regime Geral,Aquisição de serviços,"85100000-0, Serviços de saúde","Instituto Nacional de Saúde Doutor Ricardo Jorge, I. P. (501427511)","Silva Graça - Clínica Médica e do Trabalho, Lda (504942891)","23.652,00 €",27-09-2017,26-05-2017,95 dias,"Portugal, Lisboa, Lisboa","Artigo 20.º, n.º 1, alínea a) do Código dos Contratos Públicos",11-12-2017,"23.652,00 €",,,,Não aplicável.,Não aplicável.,FALSE
20160043 - Aquiisção de serviços de medicina no trabalho no INSA de Lisboa e CSPGF do Porto,Ajuste Direto Regime Geral,Aquisição de serviços,"85100000-0, Serviços de saúde","Instituto Nacional de Saúde Doutor Ricardo Jorge, I. P. (501427511)","Silva Graça - Clínica Médica e do Trabalho, Lda (504942891)","18.501,98 €",05-12-2016,04-07-2016,240 dias,"Portugal, Lisboa, Lisboa","Artigo 20.º, n.º 1, alínea a) do Código dos Contratos Públicos","","",,,,Não aplicável.,Não aplicável.,FALSE
20160223 Aquisição de serviços médicos necessários à preparação sanitária de funcionários a deslocar em serviço a África,Ajuste Direto Regime Geral,Aquisição de serviços,"85100000-0, Serviços de saúde","Instituto Nacional de Saúde Doutor Ricardo Jorge, I. P. (501427511)","Silva Graça - Clínica Médica e do Trabalho, Lda (504942891)","4.900,00 €",06-10-2016,11-03-2016,20 dias,"Portugal, Lisboa, Lisboa","Artigo 20.º, n.º 1, alínea a) do Código dos Contratos Públicos","","",,,,Não aplicável.,Não aplicável.,FALSE
20150674 - Aquisição de serviços de medicina,Ajuste Direto Regime Geral,Aquisição de serviços,"85121000-3, Serviços de prática médica","Instituto Nacional de Saúde Doutor Ricardo Jorge, I. P. (501427511)","Silva Graça - Clínica Médica e do Trabalho, Lda (504942891)","4.700,00 €",18-01-2016,13-10-2015,90 dias,"Portugal, Lisboa, Lisboa","Artigo 20.º, n.º 1, alínea a) do Código dos Contratos Públicos","","",,,,Não aplicável.,Não aplicável.,FALSE
"20150756 - Aquisição de serviços de medicina para o INSA, IP",Ajuste Direto Regime Geral,Aquisição de serviços,"85121000-3, Serviços de prática médica","Instituto Nacional de Saúde Doutor Ricardo Jorge, I. P. (501427511)","SILVA GRAÇA - Clínica Médica e do Trabalho, Lda (504942891)","4.410,00 €",15-01-2016,28-12-2015,2 dias,"Portugal, Lisboa, Lisboa","Artigo 20.º, n.º 1, alínea a) do Código dos Contratos Públicos","","",,,,Não aplicável.,Não aplicável.,FALSE
Aquisição de medicina curativa para o INSA,Ajuste Direto Regime Geral,Aquisição de serviços,"85100000-0, Serviços de saúde","Instituto Nacional de Saúde Doutor Ricardo Jorge, I. P. (501427511)","Silva Graça - Clínica Médica e do Trabalho, Lda (504942891)","4.800,00 €",22-09-2015,28-07-2015,90 dias,"Portugal, Lisboa, Lisboa","Artigo 20.º, n.º 1, alínea a) do Código dos Contratos Públicos","","",,,,Não aplicável.,Não aplicável.,FALSE
Aquisição de serviços médicos necessários à preparação sanitária dos funcionários a deslocar em serviço  a África para o INSA,Ajuste Direto Regime Geral,Aquisição de serviços,"85100000-0, Serviços de saúde","Instituto Nacional de Saúde Doutor Ricardo Jorge, I. P. (501427511)","Silva Graça - Clínica Médica e do Trabalho, Lda (504942891)","4.826,50 €",17-09-2015,12-03-2015,92 dias,"Portugal, Lisboa, Lisboa","Artigo 20.º, n.º 1, alínea a) do Código dos Contratos Públicos","","",,,,Não aplicável.,Não aplicável.,FALSE
Aquisição de serviços de consultoria no âmbito da sinistralidade laboral no INSA,Ajuste Direto Regime Geral,Aquisição de serviços,"73000000-2, Serviços de investigação e desenvolvimento e serviços de consultoria conexos","Instituto Nacional de Saúde Dr. Ricardo Jorge, I. P. (501427511)","Silva Graça -Clinica médica e do trabalho, Lda (504942891)","4.092,00 €",29-12-2014,04-12-2014,365 dias,"Portugal, Lisboa, Lisboa","Artigo 20.º, n.º 1, alínea a) do Código dos Contratos Públicos","","",,,,Não aplicável.,Não aplicável.,FALSE
Aquisição de serviços de medicina no trabalho,Ajuste Direto Regime Geral,Aquisição de serviços,"85100000-0, Serviços de saúde","Instituto Nacional de Saúde Dr. Ricardo Jorge, I.P. (501427511)","Silva Graça - Clínica Médica e do Trabalho, Lda (504942891)","25.740,00 €",23-05-2013,24-04-2013,365 dias,"Portugal, Lisboa, Lisboa<BR/>Portugal, Setúbal, Setúbal","Artigo 20.º, n.º 1, alínea a) do Código dos Contratos Públicos","","",,,,Não aplicável.,Não aplicável.,
"Prestação de serviços médicoa no âmbito de medicina do trabal, obrigatórioa de acordo com a Lei 102/2009 de 10 de Setembro.",Ajuste Direto Regime Geral,Aquisição de serviços,"85141000-9, Serviços prestados pelo pessoal médico","Instituto Nacional de Saúde Dr. Ricardo Jorge, I.P. (501427511)","Silva Graça Clinica Médica do Trabalho, Lda. (504942891)","25.740,00 €",24-07-2012,24-05-2012,365 dias,Portugal,"Artigo 20.º, n.º 1, alínea a) do Código dos Contratos Públicos","","",,,,Não aplicável.,Não aplicável.,
Prestação de serviços de Saúde no âmbito de medicina no Trabalho para os 341 trabalhadores do Insa- Lisboa,Ajuste Direto Regime Geral,Aquisição de serviços,"85147000-1, Serviços de medicina do trabalho","Instituto Nacional de Saúde Dr. Ricardo Jorge, I.P. (501427511)","Silva Graça - Clinica Médica e do Trabalho, Ldª (504942891)","28.600,00 €",29-12-2011,27-05-2011,365 dias,"Portugal, Lisboa, Lisboa","Artigo 20.º, n.º 1, alínea a) do Código dos Contratos Públicos","","",,,,Não aplicável.,Não aplicável.,
Fornecimento de serviços de cuidados médicos na área da saúde do trabalho.,Ajuste Direto Regime Geral,Aquisição de serviços,"85147000-1, Serviços de medicina do trabalho","Instituto Nacional de Saúde Dr. Ricardo Jorge, I.P. (501427511)","Silva Graça Clínica Médica e do Trabalho, Lda (504942891)","27.000,00 €",13-04-2010,01-02-2010,365 dias,"Portugal, Setúbal, Setúbal","Artigo 20.º, n.º 1, alínea a) do Código dos Contratos Públicos","","",,,,Não aplicável.,Não aplicável.,
Prestação de serviços cuidados médicos.,Ajuste Direto Regime Geral,Aquisição de serviços,"85141000-9, Serviços prestados pelo pessoal médico","Instituto Nacional de Saúde Dr. Ricardo Jorge, I.P. (501427511)","Silva Graça - Clínica Médica e do Trabalho, Lda (504942891)","28.800,00 €",27-10-2009,31-03-2009,276 dias,"Portugal, Lisboa, Lisboa","Artigo 20.º, n.º 1, alínea a) do Código dos Contratos Públicos","","",,,,Não aplicável.,Não aplicável.,
