Objeto do Contrato,Tipo de Procedimento,Tipo(s) de Contrato,CPVs,Entidade(s) Adjudicante(s),Entidade(s) Adjudicatária(s),Preço Contratual,Data de Publicação,Data de Celebração do Contrato,Prazo de Execução,Local de Execução,Fundamentação,Data de Fecho do Contrato,Preço Total Efetivo,Causas das Alterações ao Prazo,Causas das Alterações ao Preço,Estado,N.º registo do Acordo Quadro,Descrição do Acordo Quadro,Procedimento Centralizado
"Prestação de Serviços Médicos na Especialidade de Medicina no Trabalho, na ULSNA, EPE (Ano 2013)",Ajuste Direto Regime Geral,Aquisição de serviços,"85100000-0, Serviços de saúde","Unidade Local de Saúde do Norte Alentejano, E.P.E. (508094461)","Cemego, Lda. (507724852)","13.250,00 €",11-03-2013,11-03-2013,365 dias,"Portugal, Portalegre, Portalegre","Artigo 20.º, n.º 1, alínea a) do Código dos Contratos Públicos",31-12-2013,"13.250,00 €",,,,Não aplicável.,Não aplicável.,
"Prestação de Serviços Médicos na Unidade de Convalescença, do Hospital Dr. José Maria Grande de Portalegre",Ajuste Direto Regime Geral,Aquisição de serviços,"85100000-0, Serviços de saúde","Unidade Local de Saúde do Norte Alentejano, E.P.E. (508094461)","Cemego, Lda. (507724852)","51.000,00 €",01-02-2013,01-02-2013,365 dias,"Portugal, Portalegre, Portalegre","Artigo 24.º, n.º 1, alínea e) do Código dos Contratos Públicos",31-12-2013,"51.000,00 €",,,,Não aplicável.,Não aplicável.,
"Prestação de Serviços Médicos na VMER, na ULSNA, EPE (Ano 2013)",Ajuste Direto Regime Geral,Aquisição de serviços,"85100000-0, Serviços de saúde","Unidade Local de Saúde do Norte Alentejano, E.P.E. (508094461)","Cemego, Lda. (507724852)","33.120,00 €",01-02-2013,01-02-2013,365 dias,"Portugal, Portalegre, Portalegre","Artigo 20.º, n.º 1, alínea a) do Código dos Contratos Públicos",31-12-2013,"33.120,00 €",,,,Não aplicável.,Não aplicável.,
