Objeto do Contrato,Tipo de Procedimento,Tipo(s) de Contrato,CPVs,Entidade(s) Adjudicante(s),Entidade(s) Adjudicatária(s),Preço Contratual,Data de Publicação,Data de Celebração do Contrato,Prazo de Execução,Local de Execução,Fundamentação,Data de Fecho do Contrato,Preço Total Efetivo,Causas das Alterações ao Prazo,Causas das Alterações ao Preço,Estado,N.º registo do Acordo Quadro,Descrição do Acordo Quadro,Procedimento Centralizado
"Prestação Serviços Médicos Radiologia, Atos 37028517.",Ajuste Direto Regime Geral,Aquisição de serviços,"85100000-0, Serviços de saúde","Centro Hospitalar do Médio Tejo, E. P. E. (506361608)","Braz Patricio Alves Centro Diagnostico e Terapeutica Medico Cirurgica, Lda (502633271)","11.041,38 €",13-11-2017,25-10-2017,180 dias,"Portugal, Santarém, Torres Novas","Artigo 20.º, n.º 1, alínea a) do Código dos Contratos Públicos","","",,"",,Não aplicável.,Não aplicável.,FALSE
O objecto do contrato consiste na prestação sucessiva de exames complementares de diagnóstico na área da mamografia a utentes da Unidade de Saúde da Ilha do Pico,Ajuste Direto Regime Geral,Aquisição de serviços,"85100000-0, Serviços de saúde",Unidade de Saúde da Ilha do Pico (512084726),"Braz Patrício Alves CDTMC, Lda. (502633271)","45.000,00 €",31-07-2009,30-06-2009,365 dias,"Portugal, Região Autónoma dos Açores, São Roque do Pico","Artigo 20.º, n.º 1, alínea a) do Código dos Contratos Públicos",30-06-2010,"41.050,00 €",,"Preço variável em função do n.º de mamografias realizadas a.	Mamografia -  custo unitário de 25,00€ (vinte e cinco euros); b.	Ecografia mamária – custo unitário de 25,00€ (vinte e cinco euros); c.	O custo do exame ecográfico mamário complementar (efectuado em situação de dúvida no exame mamográfico) está incluído no custo das mamografias. ",,Não aplicável.,Não aplicável.,
