Objeto do Contrato,Tipo de Procedimento,Tipo(s) de Contrato,CPVs,Entidade(s) Adjudicante(s),Entidade(s) Adjudicatária(s),Preço Contratual,Data de Publicação,Data de Celebração do Contrato,Prazo de Execução,Local de Execução,Fundamentação,Data de Fecho do Contrato,Preço Total Efetivo,Causas das Alterações ao Prazo,Causas das Alterações ao Preço,Estado,N.º registo do Acordo Quadro,Descrição do Acordo Quadro,Procedimento Centralizado
Prestação de Serviços Médicos de Urgencia Geral,Ajuste Direto Regime Geral,Aquisição de serviços,"85121000-3, Serviços de prática médica","Centro Hospitalar Universitário do Algarve, E. P. E. (510745997)","Juramento Ético, Serviços Médicos, Lda (509630561)","23.400,00 €",15-03-2018,09-01-2018,90 dias,"Portugal, Faro, Portimão","Artigo 24.º, n.º 1, alínea e) do Código dos Contratos Públicos",31-12-2018,"57.625,00 €",,De acordo com as necessidades efectivas no ano 2018,,Não aplicável.,Não aplicável.,FALSE
"Serviços médicos urgência geral e básica, pediatria e vmer",Ajuste Direto Regime Geral,Aquisição de serviços,"85121100-4, Serviços de médicos de clínica geral","Centro Hospitalar do Algarve, E.P.E. (510745997)","Juramento Ético, Serviços Médicos Unipessoal, Lda (509630561)","46.800,00 €",04-09-2017,02-08-2017,180 dias,"Portugal, Faro, Faro<BR/>Portugal, Faro, Albufeira<BR/>Portugal, Faro, Portimão","Artigo 24.º, n.º 1, alínea e) do Código dos Contratos Públicos",31-12-2017,"33.850,00 €",,"O valor inicial do Contrato teve por base as necessidades estimadas para o período de 1 julho de 2017 a 31 dezembro de 2017, o valor final reflecte as necessidades efectivas.",,Não aplicável.,Não aplicável.,FALSE
"Serviços Médicos Urgência Geral, Básica e Pediatrica e Vmer",Ajuste Direto Regime Geral,Aquisição de serviços,"85121100-4, Serviços de médicos de clínica geral","Centro Hospitalar do Algarve, E. P. E. (510745997)","Juramento Ético, Serviços Médicos Unipessoal, Lda (509630561)","46.800,00 €",23-02-2017,13-02-2017,180 dias,"Portugal, Faro, Albufeira<BR/>Portugal, Faro, Portimão","Artigo 24.º, n.º 1, alínea e) do Código dos Contratos Públicos",30-06-2017,"43.500,00 €",,"O valor inicial do Contrato teve por base as necessidades estimadas para o período de 1 Janeiro de 2017 a 30 Junho de 2017, o valor final reflecte as necessidades efectivas.",,Não aplicável.,Não aplicável.,FALSE
"Serviços Médicos de Urgência Geral, Pediátrica e Básica, Vmer",Ajuste Direto Regime Geral,Aquisição de serviços,"85121100-4, Serviços de médicos de clínica geral","Centro Hospitalar do Algarve, E. P. E. (510745997)","Juramento Ético, Serviços Médicos Unipessoal, Lda (509630561)","25.350,00 €",26-02-2016,11-02-2016,91 dias,"Portugal, Faro, Faro<BR/>Portugal, Faro, Albufeira<BR/>Portugal, Faro, Portimão","Artigo 24.º, n.º 1, alínea c) do Código dos Contratos Públicos",31-12-2016,"75.500,00 €",,"O valor inicial do Contrato teve por base as necessidades estimadas para o período de 1 Janeiro de 2016 a 31 Dezembro de 2016, o valor final reflecte as necessidades efectivas.",,Não aplicável.,Não aplicável.,FALSE
"Serviços médicos de urgência geral , Pediátrica e Básic, Vmer",Ajuste Direto Regime Geral,Aquisição de serviços,"85121100-4, Serviços de médicos de clínica geral","Centro Hospitalar do Algarve, E. P. E. (510745997)","Juramento Ético, Serviços Médicos Unip, Lda (509630561)","39.000,00 €",31-07-2015,21-07-2015,180 dias,"Portugal, Faro, Albufeira<BR/>Portugal, Faro, Faro<BR/>Portugal, Faro, Lagos<BR/>Portugal, Faro, Portimão","Artigo 24.º, n.º 1, alínea c) do Código dos Contratos Públicos",31-12-2015,"25.025,00 €",,"O valor inicial do Contrato teve por base as necessidades estimadas para o período de 1 Julho de 2015 a 31 Dezembro de 2015, o valor final reflecte as necessidades efectivas.",,Não aplicável.,Não aplicável.,FALSE
"Serviços Médicos de Urgência Geral, Pediátrica e Básica, Cuidados  Interm e Sala de Reanimação, Decisão Clínica e Vmer",Ajuste Direto Regime Geral,Aquisição de serviços,"85121100-4, Serviços de médicos de clínica geral","Centro Hospitalar do Algarve, E. P. E. (510745997)","Juramento Ético, Serviços Médicos Unipessoal, Lda (509630561)","9.750,00 €",22-05-2015,12-05-2015,91 dias,"Portugal, Faro, Albufeira<BR/>Portugal, Faro, Faro<BR/>Portugal, Faro, Portimão<BR/>Portugal, Faro, Lagos","Artigo 24.º, n.º 1, alínea c) do Código dos Contratos Públicos",30-06-2015,"7.500,00 €",,"O valor inicial do Contrato teve por base as necessidades estimadas para o período de 1 Abril de 2015 a 30 Junho de 2015, o valor final reflecte as necessidades efectivas.",,Não aplicável.,Não aplicável.,FALSE
"Serv Med Urg Geral e Bas, Cuid Inter, Sal Rean, Vmer",Ajuste Direto Regime Geral,Aquisição de serviços,"85121100-4, Serviços de médicos de clínica geral","Centro Hospitalar do Algarve, E. P. E. (510745997)","Juramento Ético, Serviços Médicos Unipessoal, Lda (509630561)","6.750,00 €",18-03-2015,10-03-2015,59 dias,"Portugal, Faro, Lagos<BR/>Portugal, Faro, Portimão<BR/>Portugal, Faro, Albufeira<BR/>Portugal, Faro, Faro","Artigo 24.º, n.º 1, alínea c) do Código dos Contratos Públicos",31-03-2015,"2.400,00 €",,"O valor inicial do Contrato teve por base as necessidades estimadas para o período de 1 Janeiro de 2015 a 31 Março de 2015, o valor final reflecte as necessidades efectivas.",,Não aplicável.,Não aplicável.,FALSE
