Objeto do Contrato,Tipo de Procedimento,Tipo(s) de Contrato,CPVs,Entidade(s) Adjudicante(s),Entidade(s) Adjudicatária(s),Preço Contratual,Data de Publicação,Data de Celebração do Contrato,Prazo de Execução,Local de Execução,Fundamentação,Data de Fecho do Contrato,Preço Total Efetivo,Causas das Alterações ao Prazo,Causas das Alterações ao Preço,Estado,N.º registo do Acordo Quadro,Descrição do Acordo Quadro,Procedimento Centralizado
"Aquisição do serviço de aluguer, montagem, desmontagem e transporte de módulos contentores wc's, cozinhas e secretariado para a Feira de Santa Iria ",Ajuste Direto Regime Geral,Aquisição de serviços,"79952000-2, Serviços de eventos",AMBIFARO GESTÃO DE EQUIPAMENTOS MUNICIPAIS E.M. (504497782),"Fernando Neves, Lda (505528991)","5.510,00 €",07-11-2018,15-10-2018,15 dias,"Portugal, Faro, Faro","Artigo 20.º, n.º 1, alínea d) do Código dos Contratos Públicos",29-10-2018,"5.510,00 €",,,,Não aplicável.,Não aplicável.,FALSE
"A presente aquisição de serviços contempla o transporte, aluguer montagem e respectiva desmontagem dos referidos stands no Jardim Manuel Bivar em Faro",Ajuste Direto Regime Geral,Locação de bens móveis,"39154100-7, Stands de exposição",Município de Faro (506579425),"Fernando H. R. Neves-Máquinas de Equipamentos para construção, Unipessoal, Lda (505528991)","14.500,00 €",10-09-2018,05-09-2018,90 dias,"Portugal, Faro, Faro","Artigo 20.º, n.º 1, alínea d) do Código dos Contratos Públicos","","",,,,Não aplicável.,Não aplicável.,FALSE
AJUSTE DIRETO PARA A CONTRATAÇÃO DE LOCAÇÃO DE DIVERSOS EQUIPAMENTOS PARA APOIO A EVENTOS.,Ajuste Direto Regime Geral,Aquisição de bens móveis,"44210000-5, Estruturas e partes de estruturas",Município de Loulé (502098139),"FERNANDO H. R. NEVES – Máquinas e Equipamentos para Construção, Unipessoal, Lda. (505528991)","18.830,00 €",10-08-2018,04-05-2018,240 dias,"Portugal, Faro, Loulé","Artigo 20.º, n.º 1, alínea d) do Código dos Contratos Públicos","","",,,,Não aplicável.,Não aplicável.,FALSE
Aquisição de módulo pré-fabricado para o cemitério Municipal 16 de Junho,Ajuste Direto Regime Geral,Aquisição de bens móveis,"44211100-3, Módulos pré-fabricados portáteis",Município de Olhão (506321894),"FERNANDO H. R. NEVES – Máquinas e Equipamentos para Construção, Unipessoal, Lda. (505528991)","9.200,00 €",09-08-2018,09-08-2018,60 dias,"Portugal<BR/>Portugal, Faro, Olhão","Artigo 20.º, n.º 1, alínea d) do Código dos Contratos Públicos",26-12-2018,"9.200,00 €",,,,Não aplicável.,Não aplicável.,FALSE
5/18 - Aluguer de estruturas para a Semana da Criança e do Ambiente,Ajuste Direto Regime Geral,Aquisição de serviços,"92000000-1, Serviços recreativos, culturais e desportivos","Ambiolhão - Empresa Municipal de Ambiente de Olhão, E. M. (509680780)","FERNANDO H. R. NEVES – Máquinas e Equipamentos para Construção, Unipessoal, Lda. (505528991)","11.632,00 €",06-06-2018,05-06-2018,15 dias,"Portugal, Faro, Olhão","Artigo 20.º, n.º 1, alínea d) do Código dos Contratos Públicos",20-06-2018,"11.632,00 €",,,,Não aplicável.,Não aplicável.,FALSE
CONTRATAÇÃO DA AQUISIÇÃO DE DOIS CONTENTORES METÁLICOS.,Ajuste Direto Regime Geral,Aquisição de bens móveis,"44610000-9, Tanques, reservatórios, contentores e vasos de pressão",Município de Loulé (502098139),"FERNANDO H. R. NEVES – MÁQUINAS E EQUIPAMENTOS PARA CONSTRUÇÃO, LDA. (505528991)","6.000,00 €",14-04-2018,16-11-2017,30 dias,"Portugal, Faro, Loulé","Artigo 20.º, n.º 1, alínea a) do Código dos Contratos Públicos","","",,,,Não aplicável.,Não aplicável.,FALSE
Ajusto Direto -  Aquisição de Módulos Sanitários,Ajuste Direto Regime Geral,Aquisição de bens móveis,"44000000-0, Estruturas e materiais de construção; produtos auxiliares de construção (excepto aparelhos eléctricos)",União das Freguesias de Alcoutim e Pereiro (510834043),"Fernando H. R. Neves, Máq. Eq. Const. Unip. Lda (505528991)","13.300,00 €",29-01-2018,25-01-2018,72 dias,"Portugal, Faro, Alcoutim","Artigo 20.º, n.º 1, alínea a) do Código dos Contratos Públicos","","",,,,Não aplicável.,Não aplicável.,FALSE
CONTRATAÇÃO DA LOCAÇÃO DE DIVERSOS EQUIPAMENTOS PARA APOIO A EVENTOS,Ajuste Direto Regime Geral,Locação de bens móveis,"39150000-8, Mobiliário e equipamento diverso",Município de Loulé (502098139),"Fernando H R Neves - Máquinas e equipamentos para construção, Unipessoal Lda. (505528991)","24.650,00 €",18-07-2017,13-07-2017,171 dias,"Portugal, Faro, Loulé","Artigo 20.º, n.º 1, alínea a) do Código dos Contratos Públicos","","",,,,Não aplicável.,Não aplicável.,FALSE
Aluguer de tenda,Ajuste Direto Regime Geral,Aquisição de serviços,"92000000-1, Serviços recreativos, culturais e desportivos",Município de Sines (502563010),"Fernando H.R. Neves, Unipessoal Lda (505528991)","6.000,00 €",06-07-2016,05-07-2016,4 dias,"Portugal, Setúbal, Sines","Artigo 20.º, n.º 1, alínea a) do Código dos Contratos Públicos",19-07-2016,"6.000,00 €",,,,Não aplicável.,Não aplicável.,FALSE
Aluguer do modulo pré-fabricado Base do Heli de Emergência Médica,Ajuste Direto Regime Geral,Aquisição de serviços,"70000000-1, Serviços imobiliários","Instituto Nacional de Emergência Médica, I. P. (501356126)","Fernando H.R. Neves Unip, Lda (505528991)","4.500,00 €",29-05-2015,02-04-2015,365 dias,"Portugal, Lisboa, Lisboa","Artigo 20.º, n.º 1, alínea a) do Código dos Contratos Públicos","","",,,,Não aplicável.,Não aplicável.,FALSE
Aluguer de duas tendas,Ajuste Direto Regime Geral,Aquisição de serviços,"92000000-1, Serviços recreativos, culturais e desportivos",Município de Sines (502563010),Fernando H. R. Neves Unipessoal Lda (505528991),"6.000,00 €",29-05-2015,27-05-2015,6 dias,"Portugal, Setúbal, Sines","Artigo 20.º, n.º 1, alínea a) do Código dos Contratos Públicos","","",,,,Não aplicável.,Não aplicável.,FALSE
"Aluguer de modulo para a base do Helicoptero de Emergencia Medica, para o Ano 2014",Ajuste Direto Regime Geral,Aquisição de serviços,"50000000-5, Serviços de reparação e manutenção","Instituto Nacional de Emergência Médica, I. P. (501356126)","FERNANDO H. R. NEVES UNIP, LDA (505528991)","4.500,00 €",25-06-2014,13-03-2014,365 dias,"Portugal, Lisboa, Lisboa","Artigo 20.º, n.º 1, alínea a) do Código dos Contratos Públicos","","",,,,Não aplicável.,Não aplicável.,FALSE
"Aluguer do modolo para a base do Helicoptero de Emergencia Medica, para o 2º semestre de 2013.",Ajuste Direto Regime Geral,Aquisição de serviços,"50000000-5, Serviços de reparação e manutenção","Instituto Nacional de Emergência Médica, I. P. (501356126)","FERNANDO H. R. NEVES UNIP, LDA (505528991)","1.800,00 €",21-10-2013,14-10-2013,160 dias,"Portugal, Lisboa, Lisboa","Artigo 20.º, n.º 1, alínea a) do Código dos Contratos Públicos","","",,,,Não aplicável.,Não aplicável.,
"Aluguer do modulo para a base do Helicoptero  de Emergencia Medica, para o 1º semestre de 2013",Ajuste Direto Regime Geral,Aquisição de serviços,"50000000-5, Serviços de reparação e manutenção","Instituto Nacional de Emergência Médica, IP (501356126)","FERNANDO H. R. NEVES UNIP, LDA (505528991)","2.700,00 €",03-06-2013,28-03-2013,30 dias,"Portugal, Lisboa, Lisboa","Artigo 20.º, n.º 1, alínea a) do Código dos Contratos Públicos","","",,,,Não aplicável.,Não aplicável.,
"ALUGUER DO MÓDULO PARA A BASE DO HELICÓPTERO DE EMERGÊNCIA MÉDICA, PARA O ANO 2012.",Ajuste Direto Regime Geral,Aquisição de serviços,"60440000-4, Serviços aéreos e afins","Instituto Nacional de Emergência Médica, IP (501356126)","FERNANDO H. R. NEVES UNIP, LDA (505528991)","2.700,00 €",07-03-2012,27-02-2012,30 dias,"Portugal, Lisboa, Lisboa","Artigo 20.º, n.º 1, alínea a) do Código dos Contratos Públicos","","",,,,Não aplicável.,Não aplicável.,
ALUGUER DO MÓDULO PRÉ-FABRICADO,Ajuste Direto Regime Geral,Aquisição de serviços,"60440000-4, Serviços aéreos e afins","Instituto Nacional de Emergência Médica, IP (501356126)","FERNANDO H. R. NEVES UNIP, LDA (505528991)","1.800,00 €",06-06-2011,10-05-2011,30 dias,"Portugal, Lisboa, Lisboa","Artigo 20.º, n.º 1, alínea a) do Código dos Contratos Públicos","","",,,,Não aplicável.,Não aplicável.,
