Objeto do Contrato,Tipo de Procedimento,Tipo(s) de Contrato,CPVs,Entidade(s) Adjudicante(s),Entidade(s) Adjudicatária(s),Preço Contratual,Data de Publicação,Data de Celebração do Contrato,Prazo de Execução,Local de Execução,Fundamentação,Data de Fecho do Contrato,Preço Total Efetivo,Causas das Alterações ao Prazo,Causas das Alterações ao Preço,Estado,N.º registo do Acordo Quadro,Descrição do Acordo Quadro,Procedimento Centralizado
Ajuste direto - Prestação de Serviços de Teleradiologia para a Unidade Local de Saúde do Norte Alentejano EPE.,Ajuste Direto Regime Geral,Aquisição de serviços,"85100000-0, Serviços de saúde","Unidade Local de Saúde do Norte Alentejano, E. P. E. (508094461)",SMIC (501574140),"27.000,00 €",15-10-2018,07-06-2018,203 dias,"Portugal, Portalegre, Portalegre","Artigo 24.º, n.º 1, alínea c) do Código dos Contratos Públicos","","","","",,Não aplicável.,Não aplicável.,FALSE
Prestação Serviços Teleradiologia P/ ULSNA,Ajuste Direto Regime Geral,Aquisição de serviços,"85000000-9, Serviços de saúde e acção social","Unidade Local de Saúde do Norte Alentejano, E. P. E. (508094461)",SMIC (501574140),"27.000,00 €",12-09-2018,01-01-2018,279 dias,"Portugal, Portalegre, Portalegre","Artigo 21.º, n.º 1, alínea c) do Código dos Contratos Públicos","","","","",,Não aplicável.,Não aplicável.,FALSE
14/00645.62/2018 – Aquisição de Serviços Médicos – Radiologia de Intervenção,Ajuste Direto Regime Geral,Aquisição de serviços,"85000000-9, Serviços de saúde e acção social","Centro Hospitalar de Entre o Douro e Vouga, E.P.E. (508878462)",SMIC (501574140),"68.596,94 €",03-09-2018,03-01-2018,180 dias,"Portugal, Aveiro, Santa Maria da Feira","Artigo 20.º, n.º 1, alínea a) do Código dos Contratos Públicos","","","","",,Não aplicável.,Não aplicável.,FALSE
"PRESTAÇÃO DE SERVIÇOS DE TELERADIOLOGIA PARA A ULSNA, EPE,",Ajuste Direto Regime Geral,Aquisição de serviços,"85000000-9, Serviços de saúde e acção social","Unidade Local de Saúde do Norte Alentejano, E. P. E. (508094461)",smic (501574140),"14.640,00 €",12-12-2017,20-11-2017,365 dias,"Portugal, Portalegre","Artigo 20.º, n.º 1, alínea a) do Código dos Contratos Públicos","","","","",,Não aplicável.,Não aplicável.,FALSE
"Aquisição de Prestação de Serviços Médicos - Radiologia de Intervenção para o CHEDV, EPE",Concurso público,Aquisição de serviços,"85150000-5, Serviços de imagiologia médica","Centro Hospitalar de Entre o Douro e Vouga, E.P.E. (508878462)",SMIC (501574140),"117.595,21 €",19-05-2017,01-04-2017,275 dias,"Portugal, Aveiro, Santa Maria da Feira","Artigo 20.º, n.º 1, alínea b) do Código dos Contratos Públicos","","","","",,Não aplicável.,Não aplicável.,FALSE
Aquisição de Serviços de Imagiologia Cerebral (Ajuste Direto CIPsi-90/2014),Ajuste Direto Regime Geral,Aquisição de serviços,"85150000-5, Serviços de imagiologia médica",Universidade do Minho (502011378),"SMIC, S.A. (501574140)","9.996,80 €",08-08-2014,06-08-2014,5 dias,"Portugal, Porto, Porto","Artigo 20.º, n.º 1, alínea a) do Código dos Contratos Públicos","","","","",,Não aplicável.,Não aplicável.,FALSE
SERVIÇOS DE LEITURA DE EXAMES - TAC - TELERRADIOLOGIA,Ajuste Direto Regime Geral,Aquisição de serviços,"85000000-9, Serviços de saúde e acção social","Centro Hospitalar Porto, E.P.E. (508331471)",SMIC (501574140),"12.600,00 €",14-01-2014,05-06-2013,365 dias,"Portugal, Porto, Porto","Artigo 20.º, n.º 1, alínea a) do Código dos Contratos Públicos",05-06-2014,"12.600,00 €",Não aplicavel,Não aplicavel,,Não aplicável.,Não aplicável.,FALSE
Serviços de Imagiologia,Ajuste Direto Regime Geral,"","",Hospital de Joaquim Urbano (501639365),"SMIC- Serviço Médico de Imagem Computorizada, SA (501574140)","31.812,92 €",27-04-2009,"",275 dias,"",Não Preenchido,"","","","",,Não aplicável.,Não aplicável.,
Ressonâncias Magnéticas,Ajuste Direto Regime Geral,"","",Hospital Visconde de Salreu (501496335),SMIC (501574140),"24.000,00 €",02-04-2009,"",365 dias,"",Não Preenchido,"","","","",,Não aplicável.,Não aplicável.,
