Objeto do Contrato,Tipo de Procedimento,Tipo(s) de Contrato,CPVs,Entidade(s) Adjudicante(s),Entidade(s) Adjudicatária(s),Preço Contratual,Data de Publicação,Data de Celebração do Contrato,Prazo de Execução,Local de Execução,Fundamentação,Data de Fecho do Contrato,Preço Total Efetivo,Causas das Alterações ao Prazo,Causas das Alterações ao Preço,Estado,N.º registo do Acordo Quadro,Descrição do Acordo Quadro,Procedimento Centralizado
Prestação de serviços médicos para a consulta programada para a UCSP de Alandroal,Concurso público,Aquisição de serviços,"85121000-3, Serviços de prática médica","Administração Regional de Saúde do Alentejo, IP (503148768)","Nobre Acordar - Serviços Médicos, Lda. (507894910)","33.981,50 €",03-05-2012,02-05-2012,274 dias,"Portugal, Évora, Alandroal",Artigo 28.º do Código dos Contratos Públicos,31-05-2013,"55.713,00 €","Prorrogação do contrato da prestação de serviços até novo contrato, resultante da conclusão do novo procedimento concursal","Prorrogação do contrato da prestação de serviços até novo contrato, resultante da conclusão do novo procedimento concursal",,Não aplicável.,Não aplicável.,
Aquisição de serviços médicos para a consulta programada na UCSP de Alandroal,Ajuste Direto Regime Geral,Aquisição de serviços,"85121100-4, Serviços de médicos de clínica geral","Administração Regional de Saúde do Alentejo, IP (503148768)","Nobre Acordar - Serviços Médicos, Lda. (507894910)","8.650,00 €",21-02-2012,16-11-2011,60 dias,"Portugal, Évora, Alandroal","Artigo 20.º, n.º 1, alínea a) do Código dos Contratos Públicos",30-04-2012,"16.863,50 €",Prorrogação do contrato até celebração de outro contrato resultante de novo procedimento concursal.,Prorrogação do contrato até celebração de outro contrato resultante de novo procedimento concursal.,,Não aplicável.,Não aplicável.,
Contratação de serviços médicos para a consulta programada nas Unidades de Saúde Integradas do ACES AC1,Ajuste Direto Regime Geral,Aquisição de serviços,"85121100-4, Serviços de médicos de clínica geral","Administração Regional de Saúde do Alentejo, IP (503148768)","Nobre Acordar - Serviços Médicos, Lda. (507894910)","57.200,00 €",17-05-2011,25-10-2010,365 dias,"Portugal, Évora, Alandroal","Artigo 20.º, n.º 1, alínea a) do Código dos Contratos Públicos",25-10-2010,"46.771,25 €","",Número de horas prestadas inferior ao n.º de horas previstas no procedimento concursal.,,Não aplicável.,Não aplicável.,
