Objeto do Contrato,Tipo de Procedimento,Tipo(s) de Contrato,CPVs,Entidade(s) Adjudicante(s),Entidade(s) Adjudicatária(s),Preço Contratual,Data de Publicação,Data de Celebração do Contrato,Prazo de Execução,Local de Execução,Fundamentação,Data de Fecho do Contrato,Preço Total Efetivo,Causas das Alterações ao Prazo,Causas das Alterações ao Preço,Estado,N.º registo do Acordo Quadro,Descrição do Acordo Quadro,Procedimento Centralizado
Serviços Médicos - Anestesiologia - 37013217,Ajuste Direto Regime Geral,Aquisição de serviços,"85100000-0, Serviços de saúde","Centro Hospitalar do Médio Tejo, E. P. E. (506361608)","Frases & Equações, Lda (510067956)","25.500,00 €",20-11-2018,10-01-2018,365 dias,"Portugal, Santarém, Abrantes","Artigo 20.º, n.º 1, alínea a) do Código dos Contratos Públicos",,,,,,Não aplicável.,Não aplicável.,FALSE
Serviços Médicos - Consulta da Dor - 37009117,Ajuste Direto Regime Geral,Aquisição de serviços,"85100000-0, Serviços de saúde","Centro Hospitalar do Médio Tejo, E. P. E. (506361608)","Frases & Equações, Lda (510067956)","12.000,00 €",19-11-2018,31-01-2017,365 dias,"Portugal, Santarém, Tomar","Artigo 20.º, n.º 1, alínea a) do Código dos Contratos Públicos",,,,,,Não aplicável.,Não aplicável.,FALSE
Serviços Médicos - Consulta Dor,Ajuste Direto Regime Geral,Aquisição de serviços,"85100000-0, Serviços de saúde","Centro Hospitalar do Médio Tejo, E. P. E. (506361608)","Frases & Equações, Lda (510067956)","12.000,00 €",19-11-2018,06-06-2018,365 dias,"Portugal, Santarém, Tomar","Artigo 27.º, n.º 1, alínea b) do Código dos Contratos Públicos",,,,,,Não aplicável.,Não aplicável.,FALSE
