Objeto do Contrato,Tipo de Procedimento,Tipo(s) de Contrato,CPVs,Entidade(s) Adjudicante(s),Entidade(s) Adjudicatária(s),Preço Contratual,Data de Publicação,Data de Celebração do Contrato,Prazo de Execução,Local de Execução,Fundamentação,Data de Fecho do Contrato,Preço Total Efetivo,Causas das Alterações ao Prazo,Causas das Alterações ao Preço,Estado,N.º registo do Acordo Quadro,Descrição do Acordo Quadro,Procedimento Centralizado
Aquisição de Serviços médicos na Área de Neuropediatria - HDE - Dezembro 2016 Janeiro 2017,Ajuste Direto Regime Geral,Aquisição de serviços,"85121200-5, Serviços de medicina especializada","Centro Hospitalar de Lisboa Central, E. P. E. (508080142)",Sofia Isabel Garção Nunes (205590683),"660,00 €",15-01-2018,17-02-2017,62 dias,"Portugal, Lisboa, Lisboa","Artigo 20.º, n.º 1, alínea a) do Código dos Contratos Públicos",,,,,,Não aplicável.,Não aplicável.,FALSE
Aquisição de serviços de Cuidados Médicos na Área de Neuropediatria para o CHLC-EPE-HDE FEV A DEZ.,Ajuste Direto Regime Geral,Aquisição de serviços,"85121200-5, Serviços de medicina especializada","Centro Hospitalar de Lisboa Central, E. P. E. (508080142)",Sofia Isabel Garção Nunes (205590683),"7.260,00 €",10-01-2018,27-02-2017,334 dias,"Portugal, Lisboa, Lisboa","Artigo 20.º, n.º 1, alínea a) do Código dos Contratos Públicos",,,,,,Não aplicável.,Não aplicável.,FALSE
