Objeto do Contrato,Tipo de Procedimento,Tipo(s) de Contrato,CPVs,Entidade(s) Adjudicante(s),Entidade(s) Adjudicatária(s),Preço Contratual,Data de Publicação,Data de Celebração do Contrato,Prazo de Execução,Local de Execução,Fundamentação,Data de Fecho do Contrato,Preço Total Efetivo,Causas das Alterações ao Prazo,Causas das Alterações ao Preço,Estado,N.º registo do Acordo Quadro,Descrição do Acordo Quadro,Procedimento Centralizado
"Serviços Médicos Anestesiologia-Reg 154,5 horas de 2015",Ajuste Direto Regime Geral,Aquisição de serviços,"85121200-5, Serviços de medicina especializada","Centro Hospitalar do Algarve, E. P. E. (510745997)","Alexandra Puga - Serviços Médicos Unipessoal, Lda (509975380)","6.180,00 €",10-02-2016,01-02-2016,0 dias,"Portugal, Faro, Faro","Artigo 24.º, n.º 1, alínea c) do Código dos Contratos Públicos","",,,"",,Não aplicável.,Não aplicável.,FALSE
Serviços Médicos Anestesiologia,Ajuste Direto Regime Geral,Aquisição de serviços,"85121200-5, Serviços de medicina especializada","Centro Hospitalar do Algarve, E. P. E. (510745997)","Alexandra Puga - Serviços Médicos Unipessoal, Lda (509975380)","44.160,00 €",15-12-2015,23-11-2015,153 dias,"Portugal, Faro, Portimão<BR/>Portugal, Faro, Faro","Artigo 24.º, n.º 1, alínea c) do Código dos Contratos Públicos",31-12-2015,,,Processo transitou para 2016,,Não aplicável.,Não aplicável.,FALSE
MEDICA ANESTESISTA PARA OS MESES DE NOVEMBRO E DEZEMBRO,Ajuste Direto Regime Geral,Aquisição de serviços,"85111200-2, Serviços hospitalares de medicina",Ministério da Defesa Nacional Marinha (600012662),"ALEXANDRA PUGA SERVIÇOS MEDICOS UNIPESSOAL, LDA (509975380)","4.032,00 €",26-11-2012,26-11-2012,60 dias,"Portugal, Lisboa, Lisboa","Artigo 20.º, n.º 1, alínea a) do Código dos Contratos Públicos","",,,"",,Não aplicável.,Não aplicável.,
MEDICA ANESTESISTA DRA ALEXANDRA PUGA SET E OUT,Ajuste Direto Regime Geral,Aquisição de serviços,"85111200-2, Serviços hospitalares de medicina",Ministério da Defesa Nacional Marinha (600012662),"ALEXANDRA PUGA SERVIÇOS MEDICOS UNIPESSOAL, LDA (509975380)","4.032,00 €",13-11-2012,21-08-2012,60 dias,"Portugal, Lisboa, Lisboa","Artigo 20.º, n.º 1, alínea a) do Código dos Contratos Públicos","",,,"",,Não aplicável.,Não aplicável.,
SERVIÇO DE ANESTESIA DR. ALEXANDRA PUGA JUL/AGO,Ajuste Direto Regime Geral,Aquisição de serviços,"85111200-2, Serviços hospitalares de medicina",Ministério da Defesa Nacional Marinha (600012662),"ALEXANDRA PUGA SERVIÇOS MEDICOS UNIPESSOAL, LDA (509975380)","4.032,00 €",25-06-2012,20-06-2012,60 dias,"Portugal, Lisboa, Lisboa","Artigo 20.º, n.º 1, alínea a) do Código dos Contratos Públicos","",,,"",,Não aplicável.,Não aplicável.,
MEDICO ANESTESISTA DR ALEXANDRA PUGA MAI/JUN,Ajuste Direto Regime Geral,Aquisição de serviços,"85141000-9, Serviços prestados pelo pessoal médico",Ministério da Defesa Nacional Marinha (600012662),"ALEXANDRA PUGA SERVIÇOS MEDICOS UNIPESSOAL, LDA (509975380)","4.032,00 €",26-04-2012,19-04-2012,60 dias,"Portugal, Lisboa, Lisboa","Artigo 24.º, n.º 1, alínea c) do Código dos Contratos Públicos","",,,"",,Não aplicável.,Não aplicável.,
SERVIÇO DE ANESTESIA DR. ALEXANDRA PUGA,Ajuste Direto Regime Geral,Aquisição de serviços,"85111200-2, Serviços hospitalares de medicina",Ministério da Defesa Nacional Marinha (600012662),"ALEXANDRA PUGA SERVIÇOS MEDICOS UNIPESSOAL, LDA (509975380)","6.048,00 €",12-04-2012,27-02-2012,90 dias,"Portugal, Lisboa, Lisboa","Artigo 20.º, n.º 1, alínea a) do Código dos Contratos Públicos","",,,"",,Não aplicável.,Não aplicável.,
AQUISIÇÃO DE SERVIÇOS DE ANESTESIOLOGIA,Ajuste Direto Regime Geral,Aquisição de serviços,"85111200-2, Serviços hospitalares de medicina",Ministério da Defesa Nacional Marinha (600012662),ALEXANDRA PUGA SERVIÇOS MÉDICOS (509975380),"8.064,00 €",22-11-2011,14-11-2011,45 dias,"Portugal, Lisboa, Lisboa","Artigo 20.º, n.º 1, alínea a) do Código dos Contratos Públicos","",,,"",,Não aplicável.,Não aplicável.,
