Objeto do Contrato,Tipo de Procedimento,Tipo(s) de Contrato,CPVs,Entidade(s) Adjudicante(s),Entidade(s) Adjudicatária(s),Preço Contratual,Data de Publicação,Data de Celebração do Contrato,Prazo de Execução,Local de Execução,Fundamentação,Data de Fecho do Contrato,Preço Total Efetivo,Causas das Alterações ao Prazo,Causas das Alterações ao Preço,Estado,N.º registo do Acordo Quadro,Descrição do Acordo Quadro,Procedimento Centralizado
"Aquisição de Serviços Médicos na Área da Ortopedia, (horas- jan a dez 2017) 37005617",Ajuste Direto Regime Geral,Aquisição de serviços,"85100000-0, Serviços de saúde","Centro Hospitalar do Médio Tejo, E. P. E. (506361608)","Hugo Esteves Cardoso & Costa, Lda (513848096)","43.200,00 €",02-01-2018,13-01-2017,365 dias,"Portugal, Santarém, Torres Novas","Artigo 20.º, n.º 1, alínea a) do Código dos Contratos Públicos","","",,"",,Não aplicável.,Não aplicável.,FALSE
Prestação de serviços médicos  em ortopedia,Ajuste Direto Regime Geral,Aquisição de serviços,"85121300-6, Serviços de cirurgia especializada","Hospital do Espírito Santo de Évora, E. P. E. (508085888)","Hugo Esteves Cardoso & Costa, Lda (513848096)","3.780,00 €",04-05-2017,29-03-2017,60 dias,"Portugal, Évora, Évora","Artigo 24.º, n.º 1, alínea c) do Código dos Contratos Públicos","","",,"",,Não aplicável.,Não aplicável.,FALSE
Prestação de serviços médicos de ortopedia,Ajuste Direto Regime Geral,Aquisição de serviços,"85120000-6, Serviços de prática médica e serviços conexos","Hospital do Espírito Santo de Évora, E. P. E. (508085888)","Hugo Esteves Cardoso & Costa, Lda (513848096)","5.460,00 €",21-03-2017,08-02-2017,90 dias,"Portugal, Évora, Évora","Artigo 20.º, n.º 1, alínea a) do Código dos Contratos Públicos","","",,"",,Não aplicável.,Não aplicável.,FALSE
4S0089/2016 SERV MÉDICOS ORTOPEDIA,Ajuste Direto Regime Geral,Aquisição de serviços,"85141000-9, Serviços prestados pelo pessoal médico","Centro Hospitalar Barreiro Montijo, E. P. E. (509186998)","Hugo Esteves Cardoso & Costa, Lda (513848096)","1.260,00 €",14-11-2016,06-10-2016,92 dias,"Portugal, Setúbal, Barreiro","Artigo 20.º, n.º 1, alínea a) do Código dos Contratos Públicos",31-12-2016,"840,00 €",,Consumo efetivo inferior ao inicialmente estimado,,Não aplicável.,Não aplicável.,FALSE
Prestação de Serviços Médicos - Ortopedia,Ajuste Direto Regime Geral,Aquisição de serviços,"85121283-0, Serviços de ortopedia","Centro Hospitalar do Médio Tejo, E. P. E. (506361608)","Hugo Esteves Cardoso & Costa, Lda (513848096)","52.800,00 €",26-04-2016,15-04-2016,306 dias,"Portugal, Santarém, Abrantes","Artigo 20.º, n.º 1, alínea a) do Código dos Contratos Públicos","","",,"",,Não aplicável.,Não aplicável.,FALSE
