Objeto do Contrato,Tipo de Procedimento,Tipo(s) de Contrato,CPVs,Entidade(s) Adjudicante(s),Entidade(s) Adjudicatária(s),Preço Contratual,Data de Publicação,Data de Celebração do Contrato,Prazo de Execução,Local de Execução,Fundamentação,Data de Fecho do Contrato,Preço Total Efetivo,Causas das Alterações ao Prazo,Causas das Alterações ao Preço,Estado,N.º registo do Acordo Quadro,Descrição do Acordo Quadro,Procedimento Centralizado
Serviços Médicos Urgência Geral e Básica,Ajuste Direto Regime Geral,Aquisição de serviços,"85121100-4, Serviços de médicos de clínica geral","Centro Hospitalar do Algarve, E. P. E. (510745997)","Dádiva de Confiança Consultório Médico, Lda (509619932)","23.400,00 €",30-08-2016,26-08-2016,180 dias,"Portugal, Faro, Lagos","Artigo 24.º, n.º 1, alínea c) do Código dos Contratos Públicos",31-12-2016,"14.637,50 €",,"O valor inicial do Contrato teve por base as necessidades estimadas para o período de 1 Julho de 2016 a 31 Dezembro de 2016, o valor final reflecte as necessidades efectivas.",,Não aplicável.,Não aplicável.,FALSE
Serviços Médicos Urgência Geral e Básica,Ajuste Direto Regime Geral,Aquisição de serviços,"85121100-4, Serviços de médicos de clínica geral","Centro Hospitalar do Algarve, E. P. E. (510745997)","Dádiva de Confiança Consultório Médico, Lda  (509619932)","11.700,00 €",05-02-2016,01-02-2016,91 dias,"Portugal, Faro, Portimão<BR/>Portugal, Faro, Faro<BR/>Portugal, Faro, Lagos","Artigo 24.º, n.º 1, alínea c) do Código dos Contratos Públicos",30-06-2016,"16.275,00 €",,"O valor inicial do Contrato teve por base as necessidades estimadas para o período de 1 Janeiro de 2016 a 30 Junho de 2016, o valor final reflecte as necessidades efectivas.",,Não aplicável.,Não aplicável.,FALSE
Serviços Médicos de Urgência Geral e Básica,Ajuste Direto Regime Geral,Aquisição de serviços,"85121100-4, Serviços de médicos de clínica geral","Centro Hospitalar do Algarve, E. P. E. (510745997)","Dádiva de Confiança, Consultório Médico, Lda (509619932)","35.100,00 €",08-05-2015,23-04-2015,275 dias,"Portugal, Faro, Lagos<BR/>Portugal, Faro, Portimão<BR/>Portugal, Faro, Faro","Artigo 24.º, n.º 1, alínea c) do Código dos Contratos Públicos",31-12-2015,"27.475,00 €",,"O valor inicial do Contrato teve por base as necessidades estimadas para o período de 1 Abril de 2015 a 31 Dezembro de 2015, o valor final reflecte as necessidades efectivas.",,Não aplicável.,Não aplicável.,FALSE
Serviços Médicos de Urgência Geral e Básica,Ajuste Direto Regime Geral,Aquisição de serviços,"85121100-4, Serviços de médicos de clínica geral","Centro Hospitalar do Algarve, E. P. E. (510745997)","Dádiva de Confiança - Consultório Médico, Lda (509619932)","8.100,00 €",02-03-2015,23-02-2015,59 dias,"Portugal, Faro, Faro<BR/>Portugal, Faro, Portimão<BR/>Portugal, Faro, Lagos","Artigo 24.º, n.º 1, alínea c) do Código dos Contratos Públicos",31-03-2015,"8.200,00 €",,"O valor inicial do Contrato teve por base as necessidades estimadas para o período de 1 Janeiro de 2015 a 31 Março de 2015, o valor final reflecte as necessidades efectivas.",,Não aplicável.,Não aplicável.,FALSE
Serviços médicos Urgência Geral,Ajuste Direto Regime Geral,Aquisição de serviços,"85121100-4, Serviços de médicos de clínica geral","Centro Hospitalar do Algarve, E. P. E. (510745997)","Dádiva de Cofiança Consultório Médico, Lda (509619932)","61.200,00 €",03-04-2014,27-02-2014,365 dias,"Portugal, Faro, Faro<BR/>Portugal, Faro, Lagos<BR/>Portugal, Faro, Portimão","Artigo 20.º, n.º 1, alínea a) do Código dos Contratos Públicos",31-12-2014,"38.600,00 €",,"O valor inicial do Contrato teve por base as necessidades estimadas para o período de 1 Janeiro de 2014 a 31 Dezembro de 2014, o valor final reflecte as necessidades efectivas.",,Não aplicável.,Não aplicável.,FALSE
Dádiva de Confiança - Serviços Médicos,Ajuste Direto Regime Geral,Aquisição de serviços,"85121100-4, Serviços de médicos de clínica geral","Centro Hospitalar do Algarve, E. P. E. (510745997)","Dádiva de Cofiança Consultório Médico, Lda (509619932)","24.000,00 €",06-02-2014,26-07-2013,180 dias,"Portugal, Faro, Portimão","Artigo 20.º, n.º 1, alínea a) do Código dos Contratos Públicos",31-12-2013,"20.400,00 €",,Valor ajustado face às necessidades reais,,Não aplicável.,Não aplicável.,FALSE
AD 1977/2013 - Prestação de Serviços Médicos Urgência Geral (Jan a Jun/2013),Ajuste Direto Regime Geral,Aquisição de serviços,"85121200-5, Serviços de medicina especializada","Hospital de Faro, E. P. E. (508718872)","Dádiva de Confiança, Consultório Médico, Lda. (509619932)","28.800,00 €",12-11-2013,30-06-2013,181 dias,"Portugal, Faro, Faro","Artigo 20.º, n.º 1, alínea a) do Código dos Contratos Públicos","","",,"",,Não aplicável.,Não aplicável.,
Serviços Médicos,Ajuste Direto Regime Geral,Aquisição de serviços,"85121100-4, Serviços de médicos de clínica geral","Centro Hospitalar do Barlavento Algarvio, E.P.E. (507062540)",Dadiva Confiança - Lda  (509619932),"24.000,00 €",01-04-2013,09-01-2013,180 dias,"Portugal, Faro, Portimão","Artigo 20.º, n.º 1, alínea a) do Código dos Contratos Públicos",30-06-2013,"19.500,00 €",,"o valor do contrato teve por base necessidades estimadas para 1º semestre 2013, o valor final reflete as necessidades efetivas",,Não aplicável.,Não aplicável.,
