Objeto do Contrato,Tipo de Procedimento,Tipo(s) de Contrato,CPVs,Entidade(s) Adjudicante(s),Entidade(s) Adjudicatária(s),Preço Contratual,Data de Publicação,Data de Celebração do Contrato,Prazo de Execução,Local de Execução,Fundamentação,Data de Fecho do Contrato,Preço Total Efetivo,Causas das Alterações ao Prazo,Causas das Alterações ao Preço,Estado,N.º registo do Acordo Quadro,Descrição do Acordo Quadro,Procedimento Centralizado
Aquisição de serviços médicos com especialidade em MGF para o ACES Vale Sousa Sul /USF Nova Era - Sobreira (Procedimento n.º 26/2017) - Dr.ª Ana Leonor Mouro dos Santos Rolo (35h semanais),Ajuste Direto Regime Geral,Aquisição de serviços,"85121000-3, Serviços de prática médica","Administração Regional de Saúde do Norte, I. P. (503135593)",Ana Leonor Mouro de Santos Rolo (214652564),"33.075,00 €",16-06-2017,17-04-2017,244 dias,"Portugal, Porto","Artigo 20.º, n.º 1, alínea a) do Código dos Contratos Públicos","","","","",,Não aplicável.,Não aplicável.,FALSE
Aquisição de serviços médicos com especialidade para o ACES Gerês/Cabreira da ARS Norte,Ajuste Direto Regime Geral,Aquisição de serviços,"85121200-5, Serviços de medicina especializada","Administração Regional de Saúde do Norte, I. P. (503135593)",Ana Leonor Mouro de Santos Rolo (214652564),"47.736,00 €",24-05-2017,03-01-2017,365 dias,"Portugal, Distrito não determinado, Concelho não determinado<BR/>Portugal, Braga, Braga","Artigo 20.º, n.º 1, alínea a) do Código dos Contratos Públicos",31-01-2017,"2.376,00 €",Resolução do contrato pela profissional. Só prestou serviço durante o mês de janeiro,Resolução do contrato pela profissional. Só prestou serviço durante o mês de janeiro,,Não aplicável.,Não aplicável.,FALSE
