Objeto do Contrato,Tipo de Procedimento,Tipo(s) de Contrato,CPVs,Entidade(s) Adjudicante(s),Entidade(s) Adjudicatária(s),Preço Contratual,Data de Publicação,Data de Celebração do Contrato,Prazo de Execução,Local de Execução,Fundamentação,Data de Fecho do Contrato,Preço Total Efetivo,Causas das Alterações ao Prazo,Causas das Alterações ao Preço,Estado,N.º registo do Acordo Quadro,Descrição do Acordo Quadro,Procedimento Centralizado
4S0081/2016 SERV MÉDICOS DE MEDICINA INTERNA - UCI - DRA ZÉLIA NEVES - RECIBO VERDE,Ajuste Direto Regime Geral,Aquisição de serviços,"85141000-9, Serviços prestados pelo pessoal médico","Centro Hospitalar Barreiro Montijo, E. P. E. (509186998)",Zélia Catarina Rodrigues Neves (243339810),"4.320,00 €",08-11-2016,29-07-2016,184 dias,"Portugal, Setúbal, Barreiro","Artigo 20.º, n.º 1, alínea a) do Código dos Contratos Públicos",31-12-2016,"2.970,00 €",,Consumo efetivo inferior ao inicialmente estimado,,Não aplicável.,Não aplicável.,FALSE
Contrato de Prestação de Serviços Médicos,Ajuste Direto Regime Geral,Aquisição de serviços,"85141000-9, Serviços prestados pelo pessoal médico","Hospital Professor Doutor Fernando Fonseca, E. P. E. (503035416)",Zélia Catarina Rodrigues Neves (243339810),"12.960,00 €",02-06-2016,25-05-2016,121 dias,"Portugal, Lisboa, Amadora","Artigo 20.º, n.º 1, alínea a) do Código dos Contratos Públicos","","",,"",,Não aplicável.,Não aplicável.,FALSE
