Objeto do Contrato,Tipo de Procedimento,Tipo(s) de Contrato,CPVs,Entidade(s) Adjudicante(s),Entidade(s) Adjudicatária(s),Preço Contratual,Data de Publicação,Data de Celebração do Contrato,Prazo de Execução,Local de Execução,Fundamentação,Data de Fecho do Contrato,Preço Total Efetivo,Causas das Alterações ao Prazo,Causas das Alterações ao Preço,Estado,N.º registo do Acordo Quadro,Descrição do Acordo Quadro,Procedimento Centralizado
"Prestação de Serviços Médicos para a Triagem dos Serviços de Urgência, na ULSNA-E.P.E. (Periodo máximo 01 a 31 de janeiro de 2019)",Ajuste Direto Regime Geral,Aquisição de serviços,"85100000-0, Serviços de saúde","Unidade Local de Saúde do Norte Alentejano, E. P. E. (508094461)","Betwin Universe, Unipessoal, Lda (510272380)","6.235,20 €",22-11-2018,15-11-2018,31 dias,"Portugal, Portalegre","Artigo 24.º, n.º 1, alínea c) do Código dos Contratos Públicos",15-11-2018,"6.235,20 €",,,,Não aplicável.,Não aplicável.,FALSE
"Prestação de Serviços Médicos na Triagem do Serviço de Urgência do HDJMG, na ULSNA, EPE (Período máximo de Janeiro a Dezembro de 2018)",Ajuste Direto Regime Geral,Aquisição de serviços,"85100000-0, Serviços de saúde","Unidade Local de Saúde do Norte Alentejano, E. P. E. (508094461)","Betwin Universe, Unipessoal, Lda (510272380)","54.912,00 €",02-02-2018,01-02-2018,365 dias,"Portugal, Portalegre, Portalegre","Artigo 24.º, n.º 1, alínea c) do Código dos Contratos Públicos","","",,,,Não aplicável.,Não aplicável.,FALSE
