Objeto do Contrato,Tipo de Procedimento,Tipo(s) de Contrato,CPVs,Entidade(s) Adjudicante(s),Entidade(s) Adjudicatária(s),Preço Contratual,Data de Publicação,Data de Celebração do Contrato,Prazo de Execução,Local de Execução,Fundamentação,Data de Fecho do Contrato,Preço Total Efetivo,Causas das Alterações ao Prazo,Causas das Alterações ao Preço,Estado,N.º registo do Acordo Quadro,Descrição do Acordo Quadro,Procedimento Centralizado
4S0027/2018 SERV MED MEDICINA INTERNA P ANO 2018,Ajuste Direto Regime Geral,Aquisição de serviços,"85100000-0, Serviços de saúde","Centro Hospitalar Barreiro Montijo, E. P. E. (509186998)","Sandra Nascimento - Serviços Médicos, Lda. (510396658)","36.454,00 €",05-06-2018,02-02-2018,365 dias,"Portugal, Setúbal, Barreiro","Artigo 24.º, n.º 1, alínea a) do Código dos Contratos Públicos",31-12-2018,"68.453,64 €",,Nº horas realizadas superiores as estimadas inicialmente (necessidade de reforço de processo),,Não aplicável.,Não aplicável.,FALSE
4S0055/2017 SERV MED MEDICINA GERAL E FAMILIAR P/ ANO 2017 - DRA. SANDRA NASCIMENTO DA SILVA,Ajuste Direto Regime Geral,Aquisição de serviços,"85100000-0, Serviços de saúde","Centro Hospitalar Barreiro Montijo, E. P. E. (509186998)","Sandra Nascimento - Serviços Médicos, Lda. (510396658)","17.160,00 €",26-03-2018,17-02-2017,334 dias,"Portugal, Setúbal, Barreiro","Artigo 20.º, n.º 1, alínea a) do Código dos Contratos Públicos",31-12-2017,"26.623,38 €",,Consumo efetivo superior ao estimado,,Não aplicável.,Não aplicável.,FALSE
