Objeto do Contrato,Tipo de Procedimento,Tipo(s) de Contrato,CPVs,Entidade(s) Adjudicante(s),Entidade(s) Adjudicatária(s),Preço Contratual,Data de Publicação,Data de Celebração do Contrato,Prazo de Execução,Local de Execução,Fundamentação,Data de Fecho do Contrato,Preço Total Efetivo,Causas das Alterações ao Prazo,Causas das Alterações ao Preço,Estado,N.º registo do Acordo Quadro,Descrição do Acordo Quadro,Procedimento Centralizado
"Assistência técnica, manutenção preventiva e limpeza dos equipamentos do sistema AVAC do Edifício Sede e da área de escritórios do Parque de Carnaxide.",Ajuste Direto Regime Geral,Empreitadas de obras públicas,"45259300-0, Reparação e manutenção de instalações de aquecimento","Parques Tejo, EM, SA (504719670)","Lisarco - Instalações Técnicas Especiais, Lda. (502977051)","1.280,00 €",28-03-2019,24-09-2018,365 dias,"Portugal, Lisboa, Oeiras<BR/>Portugal, Lisboa, Oeiras","Artigo 19.º, alínea d) do Código dos Contratos Públicos","","","","",,Não aplicável.,Não aplicável.,FALSE
Aquisição de serviços de manutenção e assistência técnica aos sistemas de climatização,Ajuste Direto Regime Geral,Aquisição de serviços,"50700000-2, Serviços de reparação e manutenção de equipamento em edifícios",União das Freguesias de Alverca do Ribatejo e Sobralinho (510834302),"Lisarco - Instalações Técnicas Especiais, Lda (502977051)","1.560,00 €",28-11-2018,01-07-2018,1095 dias,"Portugal, Lisboa, Vila Franca de Xira","Artigo 20.º, n.º 1, alínea d) do Código dos Contratos Públicos","","","","",,Não aplicável.,Não aplicável.,FALSE
"Aquisição de assistência técnica e manutenção para os Sistemas AVAC do Polo de Leitura de Caneças (I-51) e da Loja do Turismo (I-54), via DOMHT/DIEM",Consulta Prévia,Aquisição de serviços,"50710000-5, Serviços de reparação e manutenção de equipamento eléctrico e mecânico em edifícios",Município de Odivelas (504293125),"Lisarco - Instalações Técnicas Especiais, Lda (502977051)","2.649,00 €",12-10-2018,01-10-2018,1095 dias,"Portugal, Lisboa, Odivelas","Artigo 20.º, n.º 1, alínea c) do Código dos Contratos Públicos","","","","",,Não aplicável.,Não aplicável.,FALSE
"Serviços de Manutenção Preventiva do Sistema de Ventilação instalado no Parque de Estacionamento da Sr.ª das Graças, em Algés",Ajuste Direto Regime Geral,Aquisição de serviços,"50500000-0, Serviços de reparação e manutenção de bombas, válvulas, torneiras, contentores de metal e equipamento","Parques Tejo - Parqueamentos de Oeiras, E. M., S. A. (504719670)","Lisarco - Instalações Técnicas Especiais, Lda (502977051)","700,00 €",25-09-2018,18-06-2018,365 dias,"Portugal, Lisboa, Oeiras","Artigo 20.º, n.º 1, alínea d) do Código dos Contratos Públicos","","","","",,Não aplicável.,Não aplicável.,FALSE
"Fornecimento e substituição de duas unidades exteriores VRV e reconversão do refrigerante para R410a, relativo ao Sistema AVAC dos Paços do Concelho (I-05), via DOMHT/DIEM",Ajuste Direto Regime Geral,Aquisição de serviços,"50710000-5, Serviços de reparação e manutenção de equipamento eléctrico e mecânico em edifícios",Município de Odivelas (504293125),LISARCO (502977051),"18.990,00 €",19-09-2018,18-09-2018,30 dias,"Portugal, Lisboa, Odivelas","Artigo 20.º, n.º 1, alínea d) do Código dos Contratos Públicos","","","","",,Não aplicável.,Não aplicável.,FALSE
Empreitada de fornecimento e montagem de equipamento para o Edifício das Cavalariças da Casa Sommer,Consulta Prévia,Empreitadas de obras públicas,"45331200-8, Instalação de ventilação e de ar condicionado",Município de Cascais (505187531),LISARCO (502977051),"134.927,51 €",13-09-2018,04-09-2018,20 dias,"Portugal, Lisboa, Cascais","Artigo 19.º, alínea c) do Código dos Contratos Públicos","","","","",,Não aplicável.,Não aplicável.,FALSE
Aquisição de Prestação de Serviço de Assistência Técnica e Manutenção do AVAC existente no JI Francisco Vieira Caldas,Consulta Prévia,Aquisição de serviços,"50710000-5, Serviços de reparação e manutenção de equipamento eléctrico e mecânico em edifícios",Município de Odivelas (504293125),LISARCO (502977051),"600,00 €",25-07-2018,19-07-2018,360 dias,"Portugal, Lisboa, Odivelas","Artigo 20.º, n.º 1, alínea c) do Código dos Contratos Públicos","","","","",,Não aplicável.,Não aplicável.,FALSE
"Consulta Prévia nº 2018/013, para uma empreitada para o fornecimento e instalação de um condensador para substituição do existente numa das máquinas de climatização na sala técnica de servidores.",Consulta Prévia,Empreitadas de obras públicas,"45331230-7, Instalação de equipamento de arrefecimento","Instituto Nacional de Estatística, I. P. (502237490)","Lisarco, Lda. (502977051)","4.960,00 €",27-06-2018,11-04-2018,30 dias,"Portugal, Lisboa, Lisboa","Artigo 19.º, alínea c) do Código dos Contratos Públicos","","","","",,Não aplicável.,Não aplicável.,FALSE
"Consulta prévia nº 2018/004, aquisição de serviço de manutenção preventiva e corretiva de equipamentos de climatização, bem como a eventual aquisição de materiais (peças e acessórios de substituição).",Consulta Prévia,Aquisição de serviços,"50711000-2, Serviços de reparação e manutenção de equipamento eléctrico em edifícios","Instituto Nacional de Estatística, I. P. (502237490)","LISARCO – Instalações Técnicas Especiais, Lda (502977051)","6.050,00 €",27-06-2018,01-03-2018,306 dias,"Portugal, Faro, Faro<BR/>Portugal, Lisboa, Lisboa<BR/>Portugal, Évora, Évora","Artigo 20.º, n.º 1, alínea c) do Código dos Contratos Públicos","","","","",,Não aplicável.,Não aplicável.,FALSE
consulta prévia  14-CP-2018,Consulta Prévia,Aquisição de serviços,"50700000-2, Serviços de reparação e manutenção de equipamento em edifícios","APL - Administração do Porto de Lisboa, S. A. (501202021)",Lisarco (502977051),"16.800,00 €",12-06-2018,07-06-2018,360 dias,"Portugal, Lisboa, Lisboa","Artigo 20.º, n.º 1, alínea c) do Código dos Contratos Públicos","","","","",,Não aplicável.,Não aplicável.,FALSE
AJD-DGIP-12352 - Empreitada para fornecimento e montagem de aparelhos de climatização na ESSA,Ajuste Direto Regime Geral,Empreitadas de obras públicas,"45200000-9, Obras de construção total ou parcial e de engenharia civil",Santa Casa da Misericórdia de Lisboa (500745471),"Lisarco – Instalações Técnicas Especiais, Lda (502977051)","132.883,84 €",09-05-2018,23-04-2018,45 dias,"Portugal, Lisboa","Artigo 19.º, alínea a) do Código dos Contratos Públicos","","","","",,Não aplicável.,Não aplicável.,FALSE
Aquisição de serviços de manutenção e assistência às instalações de ar-condicionado das instalações informáticas de Évora,Ajuste Direto Regime Geral,Aquisição de serviços,"50800000-3, Serviços de reparação e manutenção diversos","Instituto de Gestão Financeira e Equipamentos da Justiça, I. P. (510361242)",Lisarco - Inst. Tecnicas Especiais (502977051),"2.099,04 €",09-04-2018,09-04-2018,1095 dias,"Portugal, Évora, Évora","Artigo 20.º, n.º 1, alínea d) do Código dos Contratos Públicos","","","","",,Não aplicável.,Não aplicável.,FALSE
"Aq. e Montagem de 2 Ares Condicionados, Sala Estar e Contenção Ambiental, Pav. 24A",Ajuste Direto Regime Geral,Aquisição de bens móveis,"31000000-6, Maquinaria, aparelhagem, equipamento e consumíveis eléctricos; iluminação",Centro Hospitalar Psiquiátrico de Lisboa (508338476),Lisarco - Inst. Tecnicas Especiais (502977051),"2.200,00 €",26-03-2018,30-10-2017,2 dias,"Portugal, Lisboa, Lisboa","Artigo 20.º, n.º 1, alínea a) do Código dos Contratos Públicos",27-11-2017,"2.200,00 €","","",,Não aplicável.,Não aplicável.,FALSE
Reparação/Aquisição de equipamentos de ar condicionado,Ajuste Direto Regime Geral,Aquisição de bens móveis,"39717200-3, Aparelhos de ar condicionado",Autoridade para as Condições do Trabalho (600083349),"LISARCO - INSTALAÇÕES TÉCNICAS ESPECIAIS, LDA (502977051)","8.778,65 €",22-03-2018,22-03-2018,20 dias,"Portugal, Lisboa, Lisboa","Artigo 32.º, n.º 3 do Código dos Contratos Públicos",20-04-2018,"8.778,65 €","","",,Não aplicável.,Não aplicável.,FALSE
Renovação do contrato de manutenção dos aparelhos ar condicionado,Ajuste Direto Regime Geral,Aquisição de serviços,"50000000-5, Serviços de reparação e manutenção",Secretaria-Geral do Ministério da Justiça (600017613),"Lisarco- Instalações Técnicas Especiais, Lda (502977051)","8.739,84 €",15-01-2018,12-12-2017,365 dias,Portugal,"Artigo 20.º, n.º 1, alínea a) do Código dos Contratos Públicos","","","","",,Não aplicável.,Não aplicável.,FALSE
"Aquisição, fornecimento e montagem de 30 aparelhos de ar condicionado portáteis",Ajuste Direto Regime Geral,Aquisição de bens móveis,"39715200-9, Equipamento para aquecimento",Câmara Municipal de Loures (501294996),Lisarco (502977051),"12.900,00 €",13-12-2017,07-12-2017,9 dias,"Portugal, Lisboa, Loures","Artigo 20.º, n.º 1, alínea a) do Código dos Contratos Públicos","","","","",,Não aplicável.,Não aplicável.,FALSE
"Assistência técnica e manutenção aos equipamentos de Climatização da ACT, incluindo sala de servidores",Ajuste Direto Regime Geral,Aquisição de serviços,"50000000-5, Serviços de reparação e manutenção",Autoridade para as Condições do Trabalho (600083349),Lisarco (502977051),"29.200,00 €",03-10-2017,31-03-2017,640 dias,"Portugal, Castelo Branco, Castelo Branco<BR/>Portugal, Setúbal, Setúbal<BR/>Portugal, Lisboa, Sintra<BR/>Portugal, Vila Real, Vila Real<BR/>Portugal, Coimbra, Figueira da Foz<BR/>Portugal, Guarda, Guarda<BR/>Portugal, Beja, Beja<BR/>Portugal, Braganca, Bragança<BR/>Portugal, Lisboa, Lisboa<BR/>Portugal, Braga, Vila Nova de Famalicão<BR/>Portugal, Viana do Castelo, Viana do Castelo<BR/>Portugal, Santarém, Torres Novas<BR/>Portugal, Faro, Faro<BR/>Portugal, Castelo Branco, Covilhã<BR/>Portugal, Aveiro, Aveiro<BR/>Portugal, Porto, Penafiel<BR/>Portugal, Setúbal, Almada<BR/>Portugal, Viseu, Viseu<BR/>Portugal, Santarém, Santarém<BR/>Portugal, Braga, Guimarães<BR/>Portugal, Santarém, Tomar<BR/>Portugal, Viseu, Lamego<BR/>Portugal, Braga, Braga<BR/>Portugal, Coimbra, Coimbra<BR/>Portugal, Évora, Évora<BR/>Portugal, Portalegre, Portalegre<BR/>Portugal, Leiria, Leiria<BR/>Portugal, Faro, Portimão<BR/>Portugal, Porto, Porto<BR/>Portugal, Aveiro, São João da Madeira<BR/>Portugal, Leiria, Caldas da Rainha","Artigo 20.º, n.º 1, alínea a) do Código dos Contratos Públicos","","","","",,Não aplicável.,Não aplicável.,FALSE
"Assistência técnica, manutenção preventiva e limpeza dos equipamentos do sistema AVAC existentes no Edifício Sede e na área de escritórios do Parque de Carnaxide.",Ajuste Direto Regime Geral,Empreitadas de obras públicas,"45259000-7, Reparação e manutenção de instalações","Parques Tejo, EM, SA (504719670)","Lisarco, Instalações Técnicas Especiais, Lda. (502977051)","1.120,00 €",26-09-2017,26-06-2017,365 dias,"Portugal, Lisboa, Oeiras","Artigo 19.º, alínea a) do Código dos Contratos Públicos","","840,00 €","",A manutenção e limpeza dos equipamentos não foi realizada com a periodicidade definida no caderno de encargos. Só foram faturados os serviços efetivamente executados.,,Não aplicável.,Não aplicável.,FALSE
"Aquisição de assistência técnica e manutenção dos Sistemas AVAC das instalações I-05, I-06, I-11, I-16, I-17, I-22 e I-42, via DOMHT/DIEM",Ajuste Direto Regime Geral,Aquisição de serviços,"50710000-5, Serviços de reparação e manutenção de equipamento eléctrico e mecânico em edifícios",Município de Odivelas (504293125),"Lisarco-Instalações Técnicas Especiais , Lda (502977051)","25.365,24 €",25-09-2017,22-09-2017,1095 dias,"Portugal, Lisboa, Odivelas","Artigo 20.º, n.º 1, alínea a) do Código dos Contratos Públicos","","","","",,Não aplicável.,Não aplicável.,FALSE
"Aquisição de Prestação de Serviço de Assistência Técnica e Manutenção de Sistemas AVAC nas Instalações I04, I07, I08 e I18 do Município de Odivelas",Ajuste Direto Regime Geral,Aquisição de serviços,"50710000-5, Serviços de reparação e manutenção de equipamento eléctrico e mecânico em edifícios",Município de Odivelas (504293125),"Lisarco-Instalações Técnicas Especiais , Lda (502977051)","4.065,24 €",07-08-2017,01-08-2017,1095 dias,"Portugal, Lisboa, Odivelas","Artigo 20.º, n.º 1, alínea a) do Código dos Contratos Públicos","","","","",,Não aplicável.,Não aplicável.,FALSE
Aquisição do Sistema de climatização VRV para a Unidade Local do Barreiro.,Ajuste Direto Regime Geral,Locação de bens móveis,"39717200-3, Aparelhos de ar condicionado",Autoridade para as Condições do Trabalho (600083349),"Lisarco-Instalações Técnicas Especiais , Lda (502977051)","12.205,00 €",03-08-2017,31-07-2017,30 dias,"Portugal, Setúbal, Barreiro","Artigo 20.º, n.º 1, alínea a) do Código dos Contratos Públicos",08-09-2017,"12.205,00 €","","",,Não aplicável.,Não aplicável.,FALSE
"Aquisição de Reparação do Sistema AVAC da I-02, via DOMHT/DIEM ",Ajuste Direto Regime Geral,Aquisição de serviços,"50710000-5, Serviços de reparação e manutenção de equipamento eléctrico e mecânico em edifícios",Município de Odivelas (504293125),"LISARCO – Instalações Técnicas Especiais, Lda (502977051)","8.475,30 €",27-07-2017,26-07-2017,20 dias,"Portugal, Lisboa, Odivelas","Artigo 20.º, n.º 1, alínea a) do Código dos Contratos Públicos","","","","",,Não aplicável.,Não aplicável.,FALSE
"Aquisição de Prestação de Serviço de Assistência Técnica e Manutenção de Sistema AVAC da I-53, via DOMHT/DIEM ",Ajuste Direto Regime Geral,Aquisição de serviços,"50710000-5, Serviços de reparação e manutenção de equipamento eléctrico e mecânico em edifícios",Município de Odivelas (504293125),"LISARCO – Instalações Técnicas Especiais, Lda (502977051)","1.920,00 €",27-07-2017,27-07-2017,1095 dias,"Portugal, Lisboa, Odivelas","Artigo 20.º, n.º 1, alínea a) do Código dos Contratos Públicos","","","","",,Não aplicável.,Não aplicável.,FALSE
"Aquisição de assistência pós-venda (manutenção) dos equipamentos que compõem a solução de climatização, instalada na sala de servidores do INE",Ajuste Direto Regime Geral,Aquisição de serviços,"50711000-2, Serviços de reparação e manutenção de equipamento eléctrico em edifícios","Instituto Nacional de Estatística, I. P. (502237490)","LISARCO – Instalações Técnicas Especiais, Lda (502977051)","9.600,00 €",19-07-2017,04-07-2017,1096 dias,"Portugal, Lisboa, Lisboa","Artigo 20.º, n.º 1, alínea a) do Código dos Contratos Públicos","","","","",,Não aplicável.,Não aplicável.,FALSE
"Fornecimento e montagem de sistema de climatização para a sala de trabalho do Setor de Estudos e Projetos do DOMHT, via DOMHT/DIEM",Ajuste Direto Regime Geral,Aquisição de bens móveis,"39717000-1, Ventoinhas e aparelhos de ar condicionado",Município de Odivelas (504293125),Lisarco (502977051),"6.498,80 €",30-12-2016,23-12-2016,20 dias,"Portugal, Lisboa, Odivelas","Artigo 20.º, n.º 1, alínea a) do Código dos Contratos Públicos","","","","",,Não aplicável.,Não aplicável.,FALSE
"Aquisição e instalação de aparelhos de ar condicionado, incluindo a desmontagem dos aparelhos usados, nas instalações do INE",Ajuste Direto Regime Geral,Aquisição de bens móveis,"42512200-0, Aparelhos de ar condicionado para instalação em paredes","Instituto Nacional de Estatística, I. P. (502237490)","LISARCO – Instalações Técnicas Especiais, Lda (502977051)","7.425,00 €",16-12-2016,05-12-2016,10 dias,"Portugal, Lisboa, Lisboa","Artigo 20.º, n.º 1, alínea a) do Código dos Contratos Públicos","","","","",,Não aplicável.,Não aplicável.,FALSE
"Aquisição de serviços de manutenção e assistência técnica aos equipamentos de AVAC instalados no depósito do MARL (Lugar do Quintanilho, São Julião do Tojal, Piso 1, Lojas 7, 8, 9, 10, 11 e 12)",Ajuste Direto Regime Geral,Aquisição de serviços,"50000000-5, Serviços de reparação e manutenção",Secretaria-Geral do Ministério da Economia (600081125),LISARCO (502977051),"1.320,00 €",23-11-2016,21-11-2016,729 dias,"Portugal, Lisboa, Loures","Artigo 20.º, n.º 1, alínea a) do Código dos Contratos Públicos","","","","",,Não aplicável.,Não aplicável.,FALSE
"Processo de Aquisição n.º 20165510587 Aquisição de serviços de assistência técnica, conservação , reparação e manutenção do sistema de bombagem  e do sistema de AVAC - Aquecimento, Ventilação e Ar Condicionado do Serviço de Emprego de Vila Franca de Xira",Ajuste Direto Regime Geral,Aquisição de serviços,"50000000-5, Serviços de reparação e manutenção","Instituto do Emprego e da Formação Profissional, I. P. (501442600)",Lisarco (502977051),"660,00 €",10-11-2016,28-07-2016,150 dias,"Portugal, Lisboa, Vila Franca de Xira","Artigo 20.º, n.º 1, alínea a) do Código dos Contratos Públicos","","","","",,Não aplicável.,Não aplicável.,FALSE
"Processo n.º 20165510627 - Aquisição de Serviços de assistência técnica, conservação, manutenção das instalações e equipamentos do Serviço de Formação Profissional de Alverca",Ajuste Direto Regime Geral,Aquisição de serviços,"50800000-3, Serviços de reparação e manutenção diversos","Instituto do Emprego e da Formação Profissional, I. P. (501442600)",Lisarco (502977051),"6.600,00 €",10-11-2016,10-08-2016,129 dias,"Portugal, Lisboa, Vila Franca de Xira","Artigo 20.º, n.º 1, alínea a) do Código dos Contratos Públicos","","","","",,Não aplicável.,Não aplicável.,FALSE
Aquisição e instalação de Sistema de climatização Close Control para o Arquivo Técnico dos Barbadinhos,Ajuste Direto Regime Geral,Aquisição de bens móveis,"39717200-3, Aparelhos de ar condicionado","EPAL - Empresa Portuguesa das Águas Livres, S. A. (500906840)","Lisarco Instalações Técnicas Especiais, Lda. (502977051)","18.899,31 €",12-09-2016,20-07-2016,20 dias,"Portugal, Lisboa, Lisboa","Artigo 20.º, n.º 1, alínea a) do Código dos Contratos Públicos","","","","",,Não aplicável.,Não aplicável.,FALSE
"FORNECIMENTO E MONTAGEM DE EQUIPAMENTO DE AR CONDICIONADO NA ZONA DE AMPLIAÇÃO DA BIBLIOTECA MUNICIPAL D. DINIS (POLO DE CANEÇAS), VIA DOMHT/DIEM.",Ajuste Direto Regime Geral,Aquisição de bens móveis<br/>Outros Tipos (Concessão de exploração de bens do domínio público),"42512000-8, Instalações de ar condicionado",Município de Odivelas (504293125),"LISARCO - INSTALAÇÕES TÉCNICAS ESPECIAIS, LDA. (502977051)","11.219,68 €",05-08-2016,05-08-2016,20 dias,"Portugal, Lisboa, Odivelas","Artigo 20.º, n.º 1, alínea a) do Código dos Contratos Públicos","","","","",,Não aplicável.,Não aplicável.,FALSE
"Assistência técnica e manutenção do sistema AVAC das instalações I-02, I-41, I-44, I-46 e I-59, via DOMHT/DIEM",Ajuste Direto Regime Geral,Aquisição de serviços,"50710000-5, Serviços de reparação e manutenção de equipamento eléctrico e mecânico em edifícios",Município de Odivelas (504293125),"LISARCO, LDA. (502977051)","5.375,52 €",30-06-2016,30-06-2016,1094 dias,"Portugal, Lisboa, Odivelas","Artigo 20.º, n.º 1, alínea a) do Código dos Contratos Públicos","","","","",,Não aplicável.,Não aplicável.,FALSE
"Assistência técnica, manutenção preventiva e limpeza dos equipamentos do sistema AVAC existentes no Edifício Sede e na área de escritórios do Parque  de Carnaxide",Ajuste Direto Regime Geral,Empreitadas de obras públicas,"50700000-2, Serviços de reparação e manutenção de equipamento em edifícios","Parques Tejo - Parqueamentos de Oeiras, E. E. M. (504719670)","Lisarco - Instalações Técnicas Especiais, Lda. (502977051)","1.120,00 €",18-05-2016,17-05-2016,365 dias,"Portugal, Lisboa, Oeiras","Artigo 19.º, alínea a) do Código dos Contratos Públicos","","840,00 €","",A manutenção e limpeza dos equipamentos não foi realizada com a periodicidade definida no caderno de encargos. Só foram faturados os serviços efetivamente executados.,,Não aplicável.,Não aplicável.,FALSE
FS/1726/2015 - “Fornecimento e montagem de Equipamentos de Climatização e Ventilação para o Edifício Sede da EPAL”,Ajuste Direto Regime Geral,Aquisição de bens móveis,"39720000-5, Aparelhos não eléctricos de uso doméstico","EPAL - Empresa Portuguesa das Águas Livres, S. A. (500906840)","Lisarco Instalações Técnicas Especiais, Lda (502977051)","34.692,40 €",18-05-2016,18-05-2016,20 dias,"Portugal, Lisboa, Lisboa","Artigo 20.º, n.º 1, alínea a) do Código dos Contratos Públicos","","","","",,Não aplicável.,Não aplicável.,FALSE
"Aquisição de serviço para beneficiação da instalação hidráulica de ligação às UTA´s e chiller do sistema AVAC da BMDD (I-04), via DOMHT/DIEM",Ajuste Direto Regime Geral,Aquisição de serviços,"50710000-5, Serviços de reparação e manutenção de equipamento eléctrico e mecânico em edifícios",Município de Odivelas (504293125),"LISARCO - INSTALAÇÕES TÉCNICAS ESPECIAIS, LDA (502977051)","7.315,70 €",17-05-2016,16-05-2016,20 dias,"Portugal, Lisboa, Odivelas","Artigo 20.º, n.º 1, alínea a) do Código dos Contratos Públicos","","","","",,Não aplicável.,Não aplicável.,FALSE
"Ano 2016_Fornecimento e montagem de uma unidade tipo “Close Control” na sala de dados principal da Direção de Sistemas e Tecnologias de Informação (DISTI), sito na rua D. Pedro V n.º 2 - 1250-094 Lisboa",Ajuste Direto Regime Geral,Aquisição de serviços,"50720000-8, Serviços de reparação e manutenção de aquecimento central",Santa Casa da Misericórdia de Lisboa (500745471),"LISARCO - INSTALAÇÕES TÉCNICAS ESPECIAIS, LDA (502977051)","9.696,00 €",23-03-2016,23-03-2016,45 dias,"Portugal, Lisboa, Lisboa","Artigo 20.º, n.º 1, alínea a) do Código dos Contratos Públicos","","","","",,Não aplicável.,Não aplicável.,FALSE
"FORNECIMENTO E MONTAGEM DE SISTEMA DE CLIMATIZAÇÃO PARA O SERVIÇO URGÊNCIA DE PEDIATRIA DO CHLC, EPE (HDE)",Ajuste Direto Regime Geral,Aquisição de serviços,"98390000-3, Outros serviços","Centro Hospitalar de Lisboa Central, E. P. E. (508080142)",LISARCO (502977051),"4.175,00 €",04-03-2016,03-02-2016,8 dias,"Portugal, Lisboa, Lisboa","Artigo 20.º, n.º 1, alínea a) do Código dos Contratos Públicos","","","","",,Não aplicável.,Não aplicável.,FALSE
15EP00002001 - EMPREITADA DE INSTALAÇÃO DE UNIDADES INTERIORES DE CLIMATIZAÇÃO DE GABINETES DE MAGISTRADOS – PALÁCIO DE JUSTIÇA DE LOURES,Ajuste Direto Regime Geral,Empreitadas de obras públicas,"45200000-9, Obras de construção total ou parcial e de engenharia civil","Instituto de Gestão Financeira e Equipamentos da Justiça, I. P. (510361242)","LISARCO – INSTALAÇÕES TÉCNICAS ESPECIAIS, LDA (502977051)","11.235,00 €",08-02-2016,08-02-2016,10 dias,"Portugal, Lisboa, Loures","Artigo 19.º, alínea a) do Código dos Contratos Públicos","","","","",,Não aplicável.,Não aplicável.,FALSE
"Aquisição de serviços de manutenção dos equipamentos de AVAC, instalados nos edifícios da Secretaria-Geral do Ministério da Economia e nas instalações dos Gabinetes Ministeriais.",Ajuste Direto Regime Geral,Aquisição de serviços,"50000000-5, Serviços de reparação e manutenção",Secretaria-Geral do Ministério da Economia (600081125),"Lisarco - Instalações Técnicas Especiais, Lda (502977051)","17.600,00 €",05-02-2016,04-02-2016,1061 dias,"Portugal, Lisboa, Lisboa","Artigo 20.º, n.º 1, alínea a) do Código dos Contratos Públicos","","","","",,Não aplicável.,Não aplicável.,FALSE
"Aquisição de serviços de manutenção e assistência técnica aos equipamentos de aquecimento, ventilação e ar condicionado (AVAC), instalados na DGAE",Ajuste Direto Regime Geral,Aquisição de serviços,"50000000-5, Serviços de reparação e manutenção",DGAE - Direção-Geral das Atividades Económicas (600082580),"Lisarco-Instalações Técnicas Especiais, Lda. (502977051)","5.394,60 €",05-02-2016,04-02-2016,1031 dias,"Portugal, Lisboa, Lisboa","Artigo 20.º, n.º 1, alínea a) do Código dos Contratos Públicos","","","","",,Não aplicável.,Não aplicável.,FALSE
"Aquisição de serviços de manutenção e assistência técnica aos equipamentos de aquecimento, ventilação e ar-condicionado (AVAC), instalados no Gabinete de Estratégia e Estudos (GEE)",Ajuste Direto Regime Geral,Aquisição de serviços,"50000000-5, Serviços de reparação e manutenção",GEE - Gabinete de Estratégia e Estudos (600075079),"Lisarco-Instalações Técnicas Especiais, Lda. (502977051)","4.620,00 €",28-01-2016,13-01-2016,1083 dias,"Portugal, Lisboa, Lisboa","Artigo 20.º, n.º 1, alínea a) do Código dos Contratos Públicos","","","","",,Não aplicável.,Não aplicável.,FALSE
"Aquisição e instalação de aparelhos de ar condicionado, incluindo a desmontagem dos aparelhos usados, nas instalações do INE",Ajuste Direto Regime Geral,Aquisição de bens móveis,"42512200-0, Aparelhos de ar condicionado para instalação em paredes","Instituto Nacional de Estatística, I. P. (502237490)","LISARCO-Instalações Técnicas Especiais, Lda. (502977051)","8.680,00 €",14-12-2015,02-12-2015,1095 dias,"Portugal, Lisboa, Lisboa","Artigo 20.º, n.º 1, alínea a) do Código dos Contratos Públicos","","","","",,Não aplicável.,Não aplicável.,FALSE
"Aquisição de serviços de manutenção e assistência técnica aos equipamentos de aquecimento, ventilação e ar condicionado (AVAC) instalados no Gabinete de Prevenção e Investigação de Acidentes com Aeronaves",Ajuste Direto Regime Geral,Aquisição de serviços,"50000000-5, Serviços de reparação e manutenção",Gabinete de Prevenção e Investigação de Acidentes com Aeronaves (600068811),"Lisarco, Instalações Técnicas Especiais, Lda (502977051)","750,00 €",07-12-2015,27-11-2015,1095 dias,"Portugal, Lisboa, Lisboa","Artigo 20.º, n.º 1, alínea a) do Código dos Contratos Públicos","","","","",,Não aplicável.,Não aplicável.,FALSE
"Aquisição de serviço para substituição do sistema multisplit do piso 1 da instalação I-06, via DOMHT/DIEM",Ajuste Direto Regime Geral,Aquisição de serviços,"50710000-5, Serviços de reparação e manutenção de equipamento eléctrico e mecânico em edifícios",Município de Odivelas (504293125),"LISARCO - INSTALAÇÕES TÉCNICAS ESPECIAIS, LDA. (502977051)","5.500,00 €",22-10-2015,14-10-2015,20 dias,"Portugal, Lisboa, Odivelas","Artigo 20.º, n.º 1, alínea a) do Código dos Contratos Públicos","","","","",,Não aplicável.,Não aplicável.,FALSE
15EP00001777 - EMPREITADA DE ADAPT. INSTALAÇÕES SISTEMA CLIMATIZAÇÃO PALÁCIO JUSTIÇA LOURES,Ajuste Direto Regime Geral,Empreitadas de obras públicas,"45200000-9, Obras de construção total ou parcial e de engenharia civil",INSTITUTO DE GESTÃO FINANCEIRA E EQUIPAMENTOS DA J (510361242),"LISARCO – INSTALAÇÕES TÉCNICAS ESPECIAIS, LDA (502977051)","97.415,00 €",21-10-2015,09-10-2015,60 dias,"Portugal, Lisboa, Loures","Artigo 19.º, alínea a) do Código dos Contratos Públicos","","","","",,Não aplicável.,Não aplicável.,FALSE
"Aquisição de serviços de Manutenção Preventiva e Curativa para os equipamentos de ar condicionado, unidades de tratamento de ar, ventiladores e extratores da EPAL, S.A.",Ajuste Direto Regime Geral,Aquisição de serviços,"50710000-5, Serviços de reparação e manutenção de equipamento eléctrico e mecânico em edifícios","EPAL - Empresa Portuguesa das Águas Livres, S. A. (500906840)",LISARCO - Instalações Técnicas e Especiais (502977051),"39.372,00 €",29-09-2015,08-09-2015,365 dias,"Portugal, Lisboa, Lisboa","Artigo 20.º, n.º 1, alínea a) do Código dos Contratos Públicos","","","","",,Não aplicável.,Não aplicável.,FALSE
Fornecimento e Montagem de 2 Compressores para a Bpmba de Calor Klimatechnik,Ajuste Direto Regime Geral,Aquisição de bens móveis,"42533000-1, Peças para bombas de calor","Valorsul - Valorização e Tratamento de Resíduos Sólidos das Regiões de Lisboa e do Oeste, S. A. (509479600)","Lisarco - Instalações Técnicas Especiais, Lda, (502977051)","7.500,32 €",07-09-2015,19-08-2015,16 dias,"Portugal, Lisboa, Loures","Artigo 20.º, n.º 1, alínea a) do Código dos Contratos Públicos","","","","",,Não aplicável.,Não aplicável.,FALSE
"Aquisição de serviço para substituição de VRV do Sistema AVAC da instalação I-17 (Rua Laura Alves, n.º5 - Odivelas), via DOMHT/DIEM",Ajuste Direto Regime Geral,Aquisição de serviços,"50710000-5, Serviços de reparação e manutenção de equipamento eléctrico e mecânico em edifícios",Município de Odivelas (504293125),"LISARCO - INSTALAÇÕES TÉCNICAS ESPECIAIS, LDA (502977051)","9.177,60 €",01-09-2015,28-08-2015,20 dias,"Portugal, Lisboa, Odivelas","Artigo 20.º, n.º 1, alínea a) do Código dos Contratos Públicos","","","","",,Não aplicável.,Não aplicável.,FALSE
"Manutenção dos Sistemas de Aquecimento, Ventilação e Ar Condicionado (AVAC) na CTRSU ",Ajuste Direto Regime Geral,Aquisição de serviços,"50000000-5, Serviços de reparação e manutenção","Valorsul - Valorização e Tratamento de Resíduos Sólidos das Regiões de Lisboa e do Oeste, S. A. (509479600)","Lisarco - Instalações Técnicas Especiais, Lda, (502977051)","5.045,04 €",29-07-2015,01-07-2015,365 dias,"Portugal, Lisboa, Loures","Artigo 20.º, n.º 1, alínea a) do Código dos Contratos Públicos","","","","",,Não aplicável.,Não aplicável.,FALSE
"FORNECIMENTO E MONTAGEM DE UNI DE A/C PARA SALA DE VENTILAÇÃO, VARIADOR DOS TUNEIS E LABORATORIO CVO ECOPARQUE DO SEIXAL",Ajuste Direto Regime Geral,Aquisição de serviços<br/>Aquisição de bens móveis,"42500000-1, Equipamento de refrigeração e ventilação","AMARSUL - Valorização e Tratamento de Resíduos Sólidos, S. A. (503876321)","LISARCO - INSTALAÇÕES TECNICAS ESPECIAIS, LDA (502977051)","8.926,00 €",17-07-2015,16-06-2015,10 dias,"Portugal, Setúbal, Seixal","Artigo 20.º, n.º 1, alínea a) do Código dos Contratos Públicos",17-07-2015,"8.926,00 €","","",,Não aplicável.,Não aplicável.,FALSE
"Assistência técnica, manutenção preventiva e limpeza aos equipamentos do sistema de AVAC  existentes no edifício sede e na área de escritórios do Parque de Carnaxide",Ajuste Direto Regime Geral,Empreitadas de obras públicas,"50700000-2, Serviços de reparação e manutenção de equipamento em edifícios","Parques Tejo - Parqueamentos de Oeiras, E. E. M. (504719670)","Lisarco - Instalações Técnicas Especiais, Lda. (502977051)","1.120,00 €",10-07-2015,02-06-2015,365 dias,"Portugal, Lisboa, Oeiras","Artigo 19.º, alínea a) do Código dos Contratos Públicos","","1.120,00 €",Obra executada dentro do prazo previsto.,"",,Não aplicável.,Não aplicável.,FALSE
"Aquisição de assistência técnica e manutenção para o sistema AVAC do Pólo de Leitura da BMDD de Caneças (I-51), via DOMHT/DIEM",Ajuste Direto Regime Geral,Aquisição de serviços,"50710000-5, Serviços de reparação e manutenção de equipamento eléctrico e mecânico em edifícios",Município de Odivelas (504293125),"LISARCO - INSTALAÇÕES TÉCNICAS ESPECIAIS, LDA. (502977051)","300,00 €",23-06-2015,23-06-2015,1095 dias,"Portugal, Lisboa, Odivelas","Artigo 20.º, n.º 1, alínea a) do Código dos Contratos Públicos","","","","",,Não aplicável.,Não aplicável.,FALSE
"Aquisição de serviços de manutenção e assistência às instalações de ar condicionado das Instalações informáticas de Évora, sitas na Av. da Universidade, n.º 6 ",Ajuste Direto Regime Geral,Aquisição de serviços,"71356200-0, Serviços de assistência técnica","Instituto de Gestão Financeira e Equipamentos da Justiça, I. P. (510361242)","LISARCO – Instalações Técnicas Especiais, Lda.  (502977051)","2.100,00 €",13-03-2015,12-03-2015,1095 dias,"Portugal, Évora, Évora","Artigo 20.º, n.º 1, alínea a) do Código dos Contratos Públicos","","","","",,Não aplicável.,Não aplicável.,FALSE
Fornecimento e Montagem de Sistema de Climatização para a Sala de Caracterização e Gabinete Técnico da CTRSU,Ajuste Direto Regime Geral,Aquisição de bens móveis,"42512300-1, Sistemas de aquecimento, ventilação e ar condicionado","Valorsul - Valorização e Tratamento de Resíduos Sólidos das Regiões de Lisboa e do Oeste, S. A. (509479600)","Lisarco - Instalações Técnicas Especiais, Lda. (502977051)","6.840,40 €",13-02-2015,02-02-2015,6 dias,"Portugal, Lisboa, Loures","Artigo 20.º, n.º 1, alínea a) do Código dos Contratos Públicos",07-04-2015,"6.840,40 €","","",,Não aplicável.,Não aplicável.,FALSE
"Fornecimento e instalação de aparelhos de ar condicionado, incluindo transferências e abate de aparelhos existentes. ",Ajuste Direto Regime Geral,Aquisição de bens móveis,"42512200-0, Aparelhos de ar condicionado para instalação em paredes","Instituto Nacional de Estatística, I. P. (502237490)","Lisarco - Instalações Técnicas Especiais, Lda. (502977051)","4.910,00 €",23-01-2015,19-01-2015,1095 dias,"Portugal, Faro, Faro","Artigo 20.º, n.º 1, alínea a) do Código dos Contratos Públicos","","","","",,Não aplicável.,Não aplicável.,FALSE
Substituição de Equipamentos de Climatização com R22 no CTE e CTO,Ajuste Direto Regime Geral,Aquisição de serviços,"51100000-3, Serviços de instalação de equipamento eléctrico e mecânico","Valorsul - Valorização e Tratamento de Resíduos Sólidos das Regiões de Lisboa e do Oeste, S. A. (509479600)","Lisarco - Instalações Técnicas Especiais, Lda. (502977051)","37.810,00 €",10-12-2014,01-12-2014,38 dias,"Portugal, Lisboa, Lisboa","Artigo 20.º, n.º 1, alínea a) do Código dos Contratos Públicos",25-05-2015,"37.810,00 €","","",,Não aplicável.,Não aplicável.,FALSE
Prestação de Serviço de Assistência Técnica e Manutenção do Sistema AVAC da instalação I-54 via DOMHT/DIEM,Ajuste Direto Regime Geral,Aquisição de serviços,"71356200-0, Serviços de assistência técnica",Município de Odivelas (504293125),"LISARCO - INSTALAÇÕES TÉCICAS ESPECIAIS, LDA (502977051)","1.122,00 €",03-12-2014,03-12-2014,1095 dias,"Portugal, Lisboa, Odivelas","Artigo 20.º, n.º 1, alínea a) do Código dos Contratos Públicos","","","","",,Não aplicável.,Não aplicável.,FALSE
"Aquisição e instalação de aparelhos de ar condicionado, incluindo a desmontagem dos aparelhos usados, nas instalações do INE. ",Ajuste Direto Regime Geral,Aquisição de bens móveis,"42512200-0, Aparelhos de ar condicionado para instalação em paredes","Instituto Nacional de Estatística, I. P. (502237490)","Lisarco - Instalações Técnicas Especiais, Lda. (502977051)","4.900,00 €",17-11-2014,11-11-2014,10 dias,"Portugal, Lisboa, Lisboa","Artigo 20.º, n.º 1, alínea a) do Código dos Contratos Públicos","","","","",,Não aplicável.,Não aplicável.,FALSE
"Prestação de serviços de manutenção e assistência técnica de instalações mecânicas especiais (AVAC, Solar, Gás, Frio) existentes em Escolas Básicas, Jardins de Infância e Mercados Municipais",Ajuste Direto Regime Geral,Aquisição de serviços,"50800000-3, Serviços de reparação e manutenção diversos",Câmara Municipal de Loures (501294996),"Lisarco - Instalações Técnicas Especiais, Lda. (502977051)","40.100,00 €",04-11-2014,28-10-2014,120 dias,"Portugal, Lisboa, Loures","Artigo 20.º, n.º 1, alínea a) do Código dos Contratos Públicos",09-09-2015,"40.100,00 €","","",,Não aplicável.,Não aplicável.,FALSE
"ASSISTÊNCIA TÉCNICA E MANUTENÇÃO PARA O SISTEMA AVAC DA ESCOLA EB/JI EÇA DE QUEIRÓS, NA RAMADA (I-53), VIA DOMHT/DIEM",Ajuste Direto Regime Geral,Aquisição de serviços,"50710000-5, Serviços de reparação e manutenção de equipamento eléctrico e mecânico em edifícios",Município de Odivelas (504293125),"LISARCO - INSTALAÇOES TÉCNICAS ESPECIAIS, LDA (502977051)","1.920,00 €",08-10-2014,31-07-2014,1095 dias,"Portugal, Lisboa, Odivelas","Artigo 20.º, n.º 1, alínea a) do Código dos Contratos Públicos","","","","",,Não aplicável.,Não aplicável.,FALSE
"Prestação de Serviço de Assistência Técnica e Manutenção dos Sistemas AVAC das instalações I-05, I-06, I-11, I-15, I-16, I-17, I-22, I-42, via DOMHT/DIEM",Ajuste Direto Regime Geral,Aquisição de serviços,"71356200-0, Serviços de assistência técnica",Município de Odivelas (504293125),"LISARCO - INSTALAÇÕES TÉCNICAS ESPECIAIS, LDA (502977051)","26.825,58 €",05-09-2014,21-08-2014,1095 dias,"Portugal, Lisboa, Odivelas","Artigo 20.º, n.º 1, alínea a) do Código dos Contratos Públicos","","","","",,Não aplicável.,Não aplicável.,FALSE
Refeitório Municipal - Renovação da instalação mecânica de AVAC.,Ajuste Direto Regime Geral,Empreitadas de obras públicas,"45000000-7, Construção",Município de Loures (501294996),"LISARCO - Instalações Técnicas Especiais, Lda. (502977051)","18.904,40 €",28-08-2014,07-08-2014,30 dias,"Portugal, Lisboa, Loures","Artigo 19.º, alínea a) do Código dos Contratos Públicos","","18.904,40 €",Nada a assinalar.,Nada a assinalar.,,Não aplicável.,Não aplicável.,FALSE
"Aquisição de fornecimento e montagem de equipamento de climatização do tipo split para o guichet da Entrada e para a Sala de Reagentes da Área de Gestão de Compras do Centro Hospitalar de Lisboa Central, EPE",Ajuste Direto Regime Geral,Aquisição de bens móveis,"42512000-8, Instalações de ar condicionado","Centro Hospitalar de Lisboa Central, E. P. E. (508080142)","Lisarco, Lda (502977051)","1.801,00 €",30-07-2014,07-07-2014,5 dias,"Portugal, Lisboa, Lisboa","Artigo 20.º, n.º 1, alínea a) do Código dos Contratos Públicos","","","","",,Não aplicável.,Não aplicável.,FALSE
"Aquisição de Fornecimento e montagem de equipamento de climatização /ventilação para os quartos de isolamento da UCI do Centro Hospitalar de Lisboa Central, EPE - Hospital Curry Cabral",Ajuste Direto Regime Geral,Aquisição de bens móveis,"42512000-8, Instalações de ar condicionado","Centro Hospitalar de Lisboa Central, E. P. E. (508080142)","Lisarco, Lda (502977051)","10.593,50 €",30-07-2014,14-07-2014,20 dias,"Portugal, Lisboa, Lisboa","Artigo 20.º, n.º 1, alínea a) do Código dos Contratos Públicos","","","","",,Não aplicável.,Não aplicável.,FALSE
Aquisição e montagem de um sistema de avac para as instalações das Artes Gráficas do Município.,Ajuste Direto Regime Geral,Aquisição de bens móveis,"42500000-1, Equipamento de refrigeração e ventilação",Município de Loures (501294996),"Lisarco- Instalações Técnicas Especiais, Lda (502977051)","10.722,40 €",10-07-2014,07-07-2014,19 dias,"Portugal, Lisboa, Loures","Artigo 20.º, n.º 1, alínea a) do Código dos Contratos Públicos","","","","",,Não aplicável.,Não aplicável.,FALSE
"Assistência Técnica, Manutenção Preventiva e Limpeza dos Equipamentos do Sistema de AVAC existentes no Edifício Sede e na área dos Escritórios do Parque de Carnaxide",Ajuste Direto Regime Geral,Empreitadas de obras públicas,"50700000-2, Serviços de reparação e manutenção de equipamento em edifícios","Parques Tejo - Parqueamentos de Oeiras, E. E. M. (504719670)","Lisarco - Instalações Técnicas Especiais, Lda. (502977051)","1.120,00 €",20-06-2014,24-04-2014,365 dias,"Portugal, Lisboa, Oeiras","Artigo 19.º, alínea a) do Código dos Contratos Públicos","","1.120,00 €","","",,Não aplicável.,Não aplicável.,FALSE
"Prestação de Serviços de Manutenção dos Sistemas de Aquecimento, Ventilação e Ar Condicionado da CTRSU ",Ajuste Direto Regime Geral,Aquisição de serviços,"50000000-5, Serviços de reparação e manutenção","Valorsul - Valorização e Tratamento de Resíduos Sólidos das Regiões de Lisboa e do Oeste, S. A. (509479600)","Lisarco - Instalações Técnicas Especiais, Lda. (502977051)","5.076,00 €",08-04-2014,02-05-2012,365 dias,"Portugal, Lisboa, Loures","Artigo 20.º, n.º 1, alínea a) do Código dos Contratos Públicos",06-05-2015,"5.076,00 €","","",,Não aplicável.,Não aplicável.,FALSE
Aquisição de sitema de renovação de ar para arquivo documental.,Ajuste Direto Regime Geral,Aquisição de bens móveis,"31000000-6, Maquinaria, aparelhagem, equipamento e consumíveis eléctricos; iluminação",Secretaria-Geral do Ministério da Justiça (600017613),Lisarco - Instalações Técnicas Especiais Lda. (502977051),"10.520,00 €",24-02-2014,29-01-2014,20 dias,"Portugal, Lisboa, Lisboa","Artigo 20.º, n.º 1, alínea a) do Código dos Contratos Públicos","","","","",,Não aplicável.,Não aplicável.,FALSE
"Aquisição de fornecimento e montagem de sistema de climatização para vários do Centro Hospitalar de Lisboa Central, EPE ",Ajuste Direto Regime Geral,Aquisição de bens móveis,"39717000-1, Ventoinhas e aparelhos de ar condicionado","Centro Hospitalar de Lisboa Central, E. P. E. (508080142)","Lisarco - Instalações Técnicas Especiais, Lda. (502977051)","6.810,00 €",14-02-2014,13-01-2014,8 dias,"Portugal, Lisboa, Lisboa","Artigo 20.º, n.º 1, alínea a) do Código dos Contratos Públicos","","","","",,Não aplicável.,Não aplicável.,FALSE
"Aquisição de fornecimento e montagem de equipamento de climatização para vários serviços do Centro Hospitalar de Lisboa Central, EPE",Ajuste Direto Regime Geral,Aquisição de bens móveis,"39717200-3, Aparelhos de ar condicionado","Centro Hospitalar de Lisboa Central, E. P. E. (508080142)","Lisarco - Instalações Técnicas Especiais, Lda (502977051)","14.500,00 €",14-02-2014,13-01-2014,20 dias,"Portugal, Lisboa, Lisboa","Artigo 20.º, n.º 1, alínea a) do Código dos Contratos Públicos","","","","",,Não aplicável.,Não aplicável.,FALSE
Empreitada para Condicionamento Acústico de Ventilador de Extração para a Conservatória do Registo Civil de Lisboa,Ajuste Direto Regime Geral,Empreitadas de obras públicas,"45000000-7, Construção","Instituto dos Registos e do Notariado, I. P. (508184258)",Lisarco Instalações Técnicas Especiais Lda (502977051),"7.929,63 €",11-12-2013,21-11-2013,15 dias,"Portugal, Lisboa, Lisboa","Artigo 19.º, alínea a) do Código dos Contratos Públicos","","","","",,Não aplicável.,Não aplicável.,
Fornecimento e Montagem de Sistema de Climatização para Sala dos Quadros Elétricos das Pontes Rolantes do Edifício,Ajuste Direto Regime Geral,Aquisição de bens móveis,"42512300-1, Sistemas de aquecimento, ventilação e ar condicionado","Valorsul - Valorização e Tratamento de Resíduos Sólidos das Regiões de Lisboa e do Oeste, S.A. (509479600)","Lisarco - Instalações Técnicas Especiais, Lda. (502977051)","7.015,49 €",24-09-2013,17-09-2013,13 dias,"Portugal, Lisboa, Loures","Artigo 20.º, n.º 1, alínea a) do Código dos Contratos Públicos",17-10-2013,"7.015,49 €","","",,Não aplicável.,Não aplicável.,
Eça Eb/JI Eça de Queiroz - Conclusão da Instalação de AVAC - Ramada,Ajuste Direto Regime Geral,Empreitadas de obras públicas,"45331200-8, Instalação de ventilação e de ar condicionado",Município de Odivelas (504293125),"Lisarco - Instalações Técnicas Especiais, Lda. (502977051)","12.890,00 €",20-08-2013,09-05-2013,45 dias,"Portugal, Lisboa, Odivelas","Artigo 19.º, alínea a) do Código dos Contratos Públicos","","17.805,04 €",Trabalhos a Mais,Trabalhos a Mais,,Não aplicável.,Não aplicável.,
"Prestação de Serviços de Manutenção dos Sistemas de Aquecimento, Ventilação e Ar Condicionado da CTRSU  ",Ajuste Direto Regime Geral,Aquisição de serviços,"50000000-5, Serviços de reparação e manutenção","Valorsul - Valorização e Tratamento de Resíduos Sólidos das Regiões de Lisboa e do Oeste, S.A. (509479600)","Lisarco - Instalações Técnicas Especiais, Lda. (502977051)","5.040,00 €",13-06-2013,02-05-2012,365 dias,"Portugal, Lisboa, Loures","Artigo 20.º, n.º 1, alínea a) do Código dos Contratos Públicos","","","","",,Não aplicável.,Não aplicável.,
PRESTAÇÃO SERVIÇOS DE ASSISTÊNCIA TÉCNICA A SISTEMAS AVAC (LOTE 2),Ajuste Direto Regime Geral,Aquisição de serviços,"50000000-5, Serviços de reparação e manutenção",Município de Loures (501294996),"Lisarco - Instalações Técnicas Especiais, Lda (502977051)","24.900,00 €",22-04-2013,15-04-2013,365 dias,"Portugal, Lisboa, Loures","Artigo 20.º, n.º 1, alínea a) do Código dos Contratos Públicos",30-05-2014,"19.261,22 €","","O contrato ficou saldado com os valores faturados, até ao final do prazo contratado",,Não aplicável.,Não aplicável.,
O Objeto deste contrato é a reparação dos sistemas de AVAC do Tribunal Judicial de Santiago do Cacém.,Ajuste Direto Regime Geral,Empreitadas de obras públicas,"45200000-9, Obras de construção total ou parcial e de engenharia civil","Instituto de Gestão Financeira e de Infra-Estruturas da Justiça, I.P. (505587815)","LISARCO – INSTALAÇÕES TÉCNICAS ESPECIAIS, LDA. (502977051)","4.525,00 €",10-01-2013,04-01-2013,15 dias,"Portugal, Setúbal, Santiago do Cacém","Artigo 19.º, alínea a) do Código dos Contratos Públicos","","","","",,Não aplicável.,Não aplicável.,
"Aquisição e instalação de aparelhos de ar condicionado, incluindo a desmontagem dos aparelhos usados, nas instalações do INE.",Ajuste Direto Regime Geral,Aquisição de bens móveis,"42512200-0, Aparelhos de ar condicionado para instalação em paredes","Instituto Nacional de Estatística, IP (502237490)","Lisarco - Instalações Técnicas Especiais, Lda. (502977051)","8.670,00 €",18-12-2012,12-12-2012,10 dias,"Portugal, Lisboa, Lisboa","Artigo 20.º, n.º 1, alínea a) do Código dos Contratos Públicos",11-12-2015,"8.670,00 €","","",,Não aplicável.,Não aplicável.,
Fornecimento de bens e prestação de serviços de AVAC existente no edificio da Av. Fontes Pereira de Melo n.º 7 a 13 - Lisboa,Ajuste Direto Regime Geral,Aquisição de bens móveis,"42514310-8, Filtros de ar","Instituto dos Registos e do Notariado, I.P. (508184258)","Lisarco Instalações tecnicas Especiais, Lda. (502977051)","47.615,70 €",24-08-2012,19-06-2012,15 dias,"Portugal, Lisboa, Lisboa","Artigo 32.º, n.º 2, alínea a) do Código dos Contratos Públicos","","","","",,Não aplicável.,Não aplicável.,
EMPREITADA DE REMODELAÇÃO E SUBSTITUIÇÃO DE GRELHAS DE CLIMATIZAÇÃO DO PALÁCIO DA JUSTIÇA DE SETÚBAL,Ajuste Direto Regime Geral,Empreitadas de obras públicas,"45453000-7, Obras de revisão e recuperação","Instituto de Gestão Financeira e de Infra-Estruturas da Justiça, I.P. (505587815)","LISARCO – INSTALAÇÕES TÉCNICAS ESPECIAIS, LDA. (502977051)","2.142,27 €",19-06-2012,06-06-2012,5 dias,"Portugal, Setúbal, Setúbal","Artigo 19.º, alínea a) do Código dos Contratos Públicos","","","","",,Não aplicável.,Não aplicável.,
"Prestação de Serviços de Manutenção dos Sistemas de Aquecimento, Ventilação e Ar Condicionado da CTRSU",Ajuste Direto Regime Geral,Aquisição de serviços,"50700000-2, Serviços de reparação e manutenção de equipamento em edifícios","Valorsul - Valorização e Tratamento de Resíduos Sólidos das Regiões de Lisboa e do Oeste, S.A. (509479600)","Lisarco - Instalações Técnicas Especiais, Lda. (502977051)","5.600,00 €",14-06-2012,02-05-2012,365 dias,"Portugal, Lisboa, Loures","Artigo 20.º, n.º 1, alínea a) do Código dos Contratos Públicos",02-05-2013,"5.600,00 €","","",,Não aplicável.,Não aplicável.,
"Manutenção e Limpeza do Sistema de AVAC (No Edifício Sede da Parques Tejo, E.E.M. e Parque de Carnaxide (escritórios)",Ajuste Direto Regime Geral,Aquisição de serviços,"50800000-3, Serviços de reparação e manutenção diversos","Parques Tejo Parqueamentos de Oeiras, E.M. (504719670)","Lisarco - Instalações Técnicas Especiais, Lda. (502977051)","280,00 €",08-06-2012,17-04-2012,2 dias,"Portugal, Lisboa, Oeiras","Artigo 20.º, n.º 1, alínea a) do Código dos Contratos Públicos",16-05-2012,"280,00 €","","",,Não aplicável.,Não aplicável.,
"Aquisição de contrato de manutenção dos sistemas de Avac, relativas às instalações I-04; I-07; I-08; I-09; I-14; I-18; I-23 via DOM/DIEM/SOAD",Ajuste Direto Regime Geral,Aquisição de serviços,"71356200-0, Serviços de assistência técnica",Município de Odivelas (504293125),"Lisarco, Lda (502977051)","5.737,56 €",04-04-2012,08-06-2011,1092 dias,"Portugal, Lisboa, Odivelas","Artigo 20.º, n.º 1, alínea a) do Código dos Contratos Públicos","","","","",,Não aplicável.,Não aplicável.,
"AQUISIÇÃO DE SERVIÇO DE ASSISTÊNCIA TÉCNICA PARA O POLO DE LEITURA DE CANEÇAS (I-51), VIA DOM/DIEM/SOAD",Ajuste Direto Regime Geral,Aquisição de serviços,"71356200-0, Serviços de assistência técnica",Município de Odivelas (504293125),LISARCO - INSTALAÇÕES TÉCNICAS ESPECIAIS (502977051),"300,00 €",24-02-2012,23-02-2012,1080 dias,"Portugal, Lisboa, Odivelas","Artigo 20.º, n.º 1, alínea a) do Código dos Contratos Públicos","","","","",,Não aplicável.,Não aplicável.,
"Aquisição de serviços para a reparação de equipamento do sistema VRVplus. Climatização dos Pisos 15º, 16º e outros.",Ajuste Direto Regime Geral,Aquisição de serviços,"98390000-3, Outros serviços",Secretaria-Geral do Ministério da Solidariedade e da Segurança Social (600081966),"Lisarco - Instalações Técnicas Especiais, Lda (502977051)","245,54 €",18-01-2012,18-04-2011,30 dias,"Portugal, Lisboa, Lisboa","Artigo 20.º, n.º 1, alínea a) do Código dos Contratos Públicos","","","","",,Não aplicável.,Não aplicável.,
Prestação de serviços de manutenção e assistência técnica dos equipamentos de ar condicionado do edifício sede do Ministério da Justiça,Ajuste Direto Regime Geral,Aquisição de serviços,"50324200-4, Serviços de manutenção preventiva",Secretaria-Geral do Ministério da Justiça (600017613),"Lisarco - Instalações Técnicas Especiais, Lda. (502977051)","10.260,00 €",22-12-2011,01-12-2011,366 dias,"Portugal, Lisboa, Lisboa","Artigo 20.º, n.º 1, alínea a) do Código dos Contratos Públicos","","","","",,Não aplicável.,Não aplicável.,
"Aquisição de Contrato de Manutenção e Assistência Técnica e Manutenção dos Sistemas AVAC, relativas às instalações I-02; I-05 I-06; I-11; I-12; I-15; I-16, I-17 e I-22 via DOM/DIEM/SOAD",Ajuste Direto Regime Geral,Aquisição de serviços,"71356200-0, Serviços de assistência técnica",Município de Odivelas (504293125),LISARCO (502977051),"28.899,12 €",22-11-2011,03-10-2011,1095 dias,"Portugal, Lisboa, Odivelas","Artigo 20.º, n.º 1, alínea a) do Código dos Contratos Públicos","","","","",,Não aplicável.,Não aplicável.,
Empreitada de obras de climatização no Palácio da Justiça de Setúbal,Ajuste Direto Regime Geral,Empreitadas de obras públicas,"45331000-6, Instalação de aquecimento, ventilação e ar condicionado","Instituto de Gestão Financeira e de Infra-Estruturas da Justiça, I.P. (505587815)","Lisarco Instalações Técnicas Especiais, Lda (502977051)","17.890,00 €",21-10-2011,19-10-2011,30 dias,"Portugal, Setúbal, Setúbal","Artigo 19.º, alínea a) do Código dos Contratos Públicos","","","","",,Não aplicável.,Não aplicável.,
"Aquisição de prestação de serviço de manutenção e assistência técnica simples, ao equipamento AVAC existente na instalação I-42",Ajuste Direto Regime Geral,Aquisição de serviços,"71356200-0, Serviços de assistência técnica",Município de Odivelas (504293125),"Lisarco, Lda (502977051)","225,00 €",26-09-2011,01-09-2011,1095 dias,"Portugal, Lisboa, Odivelas","Artigo 20.º, n.º 1, alínea a) do Código dos Contratos Públicos","","","","",,Não aplicável.,Não aplicável.,
Execução de Nova Central de Climatização de Alimentação ao Sistema AVAC da Biblioteca Municipal de Odivelas,Ajuste Direto Regime Geral,Empreitadas de obras públicas,"45331000-6, Instalação de aquecimento, ventilação e ar condicionado",Município de Odivelas (504293125),"Lisarco, Lda (502977051)","33.427,00 €",18-08-2011,10-08-2011,45 dias,"Portugal, Lisboa, Odivelas","Artigo 19.º, alínea a) do Código dos Contratos Públicos",06-06-2012,"33.427,00 €","","",,Não aplicável.,Não aplicável.,
MANUTENÇÃO E LIMPEZA DO SISTEMA DE AVAC,Ajuste Direto Regime Geral,Empreitadas de obras públicas<br/>Aquisição de serviços,"50730000-1, Serviços de reparação e manutenção de grupos de refrigeração","Parques Tejo Parqueamentos de Oeiras, E.M. (504719670)",LISARCO - INSTALAÇÕES TÉCNICAS ESPECIAIS LDA (502977051),"160,00 €",28-03-2011,21-10-2010,3 dias,"Portugal, Lisboa, Oeiras","Artigo 19.º, alínea a) do Código dos Contratos Públicos","","160,00 €",Obra concluída antes do prazo estabelecido para a execução da mesma,"",,Não aplicável.,Não aplicável.,
"Aquisição e instalação de aparelhos de ar condicionado, incluindo a desmontagem dos aparelhos usados, nas instalações do INE.",Ajuste Direto Regime Geral,Aquisição de bens móveis,"39717200-3, Aparelhos de ar condicionado","Instituto Nacional de Estatística, IP (502237490)","Lisarco - Instalações Técnicas Especiais, Lda. (502977051)","19.950,00 €",22-03-2011,18-03-2011,7 dias,"Portugal, Évora, Évora<BR/>Portugal, Coimbra, Coimbra<BR/>Portugal, Porto, Porto<BR/>Portugal, Faro, Faro<BR/>Portugal, Lisboa, Lisboa","Artigo 20.º, n.º 1, alínea a) do Código dos Contratos Públicos",26-03-2011,"19.950,00 €","","",,Não aplicável.,Não aplicável.,
Aquisição de serviços para reparação de unidade de climatização da ala da Presidência da Sede da ANPC,Ajuste Direto Regime Geral,Aquisição de serviços,"50000000-5, Serviços de reparação e manutenção",Autoridade Nacional de Protecção Civil (600082490),"Lisarco - Instalações Técnicas Especiais, Lda (502977051)","1.296,30 €",28-10-2010,26-10-2010,1 dias,"Portugal, Lisboa, Oeiras","Artigo 27.º, n.º 1, alínea f) do Código dos Contratos Públicos",27-10-2010,"1.296,30 €","","",,Não aplicável.,Não aplicável.,
"Reparação da unidade chiller, do sistema de climatização da DREAlgarve",Ajuste Direto Regime Geral,Aquisição de serviços,"50730000-1, Serviços de reparação e manutenção de grupos de refrigeração",Direcção Regional do Algarve do Ministério da Economia (600055035),"Lisarco - Instalações Técnicas Especiais, Lda (502977051)","2.199,88 €",30-08-2010,13-08-2010,30 dias,"Portugal, Faro, Faro","Artigo 20.º, n.º 1, alínea a) do Código dos Contratos Públicos","","","","",,Não aplicável.,Não aplicável.,
Reparações no Sistema de Climatização da DREAlgarve,Ajuste Direto Regime Geral,Aquisição de serviços,"50730000-1, Serviços de reparação e manutenção de grupos de refrigeração",Direcção Regional do Algarve do Ministério da Economia (600055035),"Lisarco - Instalações Técnicas Especiais, Lda (502977051)","2.201,93 €",06-07-2010,14-06-2010,15 dias,"Portugal, Faro, Faro","Artigo 20.º, n.º 1, alínea a) do Código dos Contratos Públicos","","","","",,Não aplicável.,Não aplicável.,
"Aquisição de serviços para reparação de tubagens de aparelhos de ar condicionado, instalados nos contentores das instalações da Sede da ANPC.",Ajuste Direto Regime Geral,Aquisição de serviços,"50000000-5, Serviços de reparação e manutenção",Autoridade Nacional de Protecção Civil (600082490),Lisarco (502977051),"389,40 €",06-04-2010,31-03-2010,2 dias,"Portugal, Lisboa, Oeiras","Artigo 27.º, n.º 1, alínea f) do Código dos Contratos Públicos",02-04-2010,"389,40 €","","",,Não aplicável.,Não aplicável.,
"Remoção dos aparelhos de ar condicionado do edíficio sito na Av. 5 de Outubro, 202, Lisboa.",Ajuste Direto Regime Geral,Aquisição de serviços,"45331000-6, Instalação de aquecimento, ventilação e ar condicionado","Instituto dos Registos e do Notariado, I.P. (508184258)","Lisarco - Instalações técnicas Especiais, Lda (502977051)","35.680,00 €",21-12-2009,15-12-2009,10 dias,"Portugal, Lisboa, Lisboa","Artigo 20.º, n.º 1, alínea a) do Código dos Contratos Públicos","","","","",,Não aplicável.,Não aplicável.,
Aquisição de serviços de reparação de unidade de ar condicionado instalada na Sala do Núcleo de Informática da Sede da ANPC,Ajuste Direto Regime Geral,Aquisição de serviços,"50000000-5, Serviços de reparação e manutenção",Autoridade Nacional de Protecção Civil (600082490),"Lisarco - Instalações Técnicas Especiais, Lda (502977051)","331,42 €",09-12-2009,04-12-2009,2 dias,"Portugal, Lisboa, Oeiras","Artigo 27.º, n.º 1, alínea f) do Código dos Contratos Públicos",07-12-2009,"331,42 €","","",,Não aplicável.,Não aplicável.,
Aquisição de serviços de reparação de 5 unidades de ar condicionado da Ala Poente da Sede da ANPC.,Ajuste Direto Regime Geral,Aquisição de serviços,"50000000-5, Serviços de reparação e manutenção",Autoridade Nacional de Protecção Civil (600082490),"Lisarco - Instalações Técnicas Especiais, Lda (502977051)","2.905,50 €",09-12-2009,04-12-2009,2 dias,"Portugal, Lisboa, Oeiras","Artigo 27.º, n.º 1, alínea f) do Código dos Contratos Públicos",07-12-2009,"2.905,50 €","","",,Não aplicável.,Não aplicável.,
"Prestação de serviços para adaptação e beneficiação do sistema de ar aquecimento, ventilação e ar condicionado instalado na zona de atendimento do DCC Lisboa para implementação de um Balcão Único de Atendimento dos Registos",Ajuste Direto Regime Geral,Aquisição de serviços,"71356100-9, Serviços de controlo técnico","Instituto dos Registos e do Notariado, I.P. (508184258)","LISARCO - Instalações Técnicas Especiais, Lda (502977051)","28.832,50 €",27-11-2009,22-09-2009,20 dias,"Portugal, Lisboa, Lisboa","Artigo 20.º, n.º 1, alínea a) do Código dos Contratos Públicos","","","","",,Não aplicável.,Não aplicável.,
Aquisição e Montagem de Sistema AVAC para o Serviço de Saúde Ocupacional,Ajuste Direto Regime Geral,Aquisição de serviços,"45331200-8, Instalação de ventilação e de ar condicionado",Município de Odivelas (504293125),"Lisarco - Instalações Técnicas Especiais, Lda (502977051)","5.440,00 €",13-11-2009,25-08-2009,15 dias,"Portugal, Lisboa, Odivelas","Artigo 20.º, n.º 1, alínea a) do Código dos Contratos Públicos","","","","",,Não aplicável.,Não aplicável.,
Aquisição de serviços para reparação de aparelho de ar condicionado instalado na Secção de Aprovisionamento.,Ajuste Direto Regime Geral,Aquisição de serviços,"50000000-5, Serviços de reparação e manutenção",Autoridade Nacional de Protecção Civil (600082490),Lisarco (502977051),"83,42 €",05-11-2009,21-09-2009,15 dias,"Portugal, Lisboa, Oeiras","Artigo 27.º, n.º 1, alínea f) do Código dos Contratos Públicos",06-10-2009,"83,42 €","","",,Não aplicável.,Não aplicável.,
Reparação de 20 unidades AVAC do sistema de climatização da DREAlgarve,Ajuste Direto Regime Geral,Aquisição de serviços,"50730000-1, Serviços de reparação e manutenção de grupos de refrigeração",Direcção Regional do Algarve do Ministério da Economia (600055035),"Lisarco - Instalações Técnicas Especiais, Lda (502977051)","3.370,80 €",28-10-2009,09-07-2009,15 dias,"Portugal, Faro, Faro","Artigo 20.º, n.º 1, alínea a) do Código dos Contratos Públicos","","","","",,Não aplicável.,Não aplicável.,
Sistema de Climatização para as novas instalações da Universidade Sénior de Loures,Ajuste Direto Regime Geral,Aquisição de bens móveis,"45315000-8, Instalação de equipamento para aquecimento e de outro equipamento eléctrico em edifícios",Município de Loures (501294996),"Lisarco, Lda. (502977051)","21.960,00 €",17-09-2009,26-08-2009,10 dias,"Portugal, Lisboa, Loures","Artigo 20.º, n.º 1, alínea a) do Código dos Contratos Públicos","","","","",,Não aplicável.,Não aplicável.,
"Prestação de serviços para sistema de controlo e gestão do equipamento AVAC, existente no edificio da Av. Fontes Pereira de Melo, 13, em Lisboa",Ajuste Direto Regime Geral,Aquisição de serviços,"71000000-8, Serviços de arquitectura, construção, engenharia e inspecção","Instituto dos Registos e do Notariado, I.P. (508184258)","Lisarco - Instalações Técnicas Especiais, Lda (502977051)","97.315,02 €",11-09-2009,13-07-2009,20 dias,"Portugal, Lisboa, Lisboa","Artigo 24.º, n.º 1, alínea d) do Código dos Contratos Públicos","","","","",,Não aplicável.,Não aplicável.,
"Aquisição de e instalação de aparelhos de ar condicionado, incluindo a desmontagem dos aparelhos usados, nas instalações do INE em Lisboa.",Ajuste Direto Regime Geral,Aquisição de bens móveis,"39717200-3, Aparelhos de ar condicionado","Instituto Nacional de Estatística, IP (502237490)","Lisarco - Instalações Técnicas Especiais, Lda. (502977051)","15.500,00 €",08-07-2009,03-07-2009,7 dias,"Portugal, Lisboa, Lisboa","Artigo 20.º, n.º 1, alínea a) do Código dos Contratos Públicos",10-07-2009,"15.500,00 €","","",,Não aplicável.,Não aplicável.,
Prestação de Serviço de Assistência Técnica e Manutenção de sistema de ar condicionado tipo split,Ajuste Direto Regime Geral,"","",Câmara Municipal de Odivelas (504293125),Lisarco – Instalações Técnicas Especiais (502977051),"225,00 €",07-04-2009,"",365 dias,"",Não Preenchido,"","","","",,Não aplicável.,Não aplicável.,
Prestação de serviços de manutenção e assistência técnica de equipamentos de ar condicionado das instalações da Creche,Ajuste Direto Regime Geral,Aquisição de serviços,"45331220-4, Instalação de ar condicionado",Secretaria-Geral do Ministério da Justiça (600017613),"LISARCO – Instalações Técnicas Especiais, Lda (502977051)","2.760,00 €",02-02-2009,19-01-2009,366 dias,"Portugal, Lisboa, Lisboa","Artigo 20.º, n.º 1, alínea a) do Código dos Contratos Públicos",31-08-2010,"2.760,00 €","","",,Não aplicável.,Não aplicável.,
Prestação de serviços de manutenção e conservação dos equipamentos de ar condicionado,Ajuste Direto Regime Geral,Aquisição de serviços,"50324200-4, Serviços de manutenção preventiva",Secretaria-Geral do Ministério da Justiça (600017613),"LISARCO – Instalações Técnicas Especiais, Lda (502977051)","34.200,00 €",19-01-2009,01-12-2008,1095 dias,"Portugal, Lisboa, Lisboa","Artigo 20.º, n.º 1, alínea a) do Código dos Contratos Públicos",30-11-2011,"34.200,00 €","","",,Não aplicável.,Não aplicável.,
Ajuste Directo 1/2008 - Aquisição de Serviços de Revisão e Reparação do Sistema de Climatização do Edifício da Dre - Algarve,Ajuste Direto Regime Geral,"","",Direcção Regional da Economia do Algarve (600055035),"Lisarco – Instalações Técnicas Especiais, Lda (502977051)","11.809,50 €",30-10-2008,"",60 dias,"",O mais baixo preço,"","","","",,Não aplicável.,Não aplicável.,
EMPREITADA DE INSTALAÇÕES ELÉCTRICAS  E AR CONDICIONADO – AMPLIAÇÃO DA REITORIA – ÁREA DA RECEPÇÃO,Ajuste Direto Regime Geral,"","",ISCTE – Instituto Superior de Ciências do Trabalho e da Empresa (501510184),"Lisarco – Instalações Técnicas Especiais, Lda. (502977051)","18.281,10 €",15-10-2008,"",6 dias,"",Não Preenchido,28-10-2008,"18.281,10 €","","",,Não aplicável.,Não aplicável.,
Aquisição de Reparação de Unidade de Climatização instalada no Refeitório Municipal,Ajuste Direto Regime Geral,Aquisição de serviços,"71356200-0, Serviços de assistência técnica",Câmara Municipal de Odivelas (504293125),"Lisarco, Lda (502977051)","572,22 €",23-09-2008,09-09-2008,7 dias,"Portugal, Lisboa, Odivelas","Artigo 20.º, n.º 1, alínea a) do Código dos Contratos Públicos",14-09-2008,"572,22 €","","",,Não aplicável.,Não aplicável.,
