Objeto do Contrato,Tipo de Procedimento,Tipo(s) de Contrato,CPVs,Entidade(s) Adjudicante(s),Entidade(s) Adjudicatária(s),Preço Contratual,Data de Publicação,Data de Celebração do Contrato,Prazo de Execução,Local de Execução,Fundamentação,Data de Fecho do Contrato,Preço Total Efetivo,Causas das Alterações ao Prazo,Causas das Alterações ao Preço,Estado,N.º registo do Acordo Quadro,Descrição do Acordo Quadro,Procedimento Centralizado
Aquisição de serviços médicos ACES Feria/Arouca - Processo 18000138,Ajuste Direto Regime Geral,Aquisição de serviços,"85121000-3, Serviços de prática médica","Administração Regional de Saúde do Norte, I. P. (503135593)",Isabel Maria Moreira de Vasconcelos (107125676),"13.520,00 €",05-03-2018,21-12-2017,365 dias,"Portugal, Aveiro, Arouca","Artigo 20.º, n.º 1, alínea a) do Código dos Contratos Públicos","","",,"",,Não aplicável.,Não aplicável.,FALSE
Aquisição de serviços médicos (10 horas semanais) para o ACES Feira/Arouca - Sanguedo de novembro a dezembro de 2017 - Dra. Isabel Vasconcelos,Ajuste Direto Regime Geral,Aquisição de serviços,"85121000-3, Serviços de prática médica","Administração Regional de Saúde do Norte, I. P. (503135593)",Isabel Maria Moreira de Vasconcelos (107125676),"1.980,00 €",04-01-2018,13-12-2017,61 dias,"Portugal, Aveiro, Arouca","Artigo 24.º, n.º 1, alínea c) do Código dos Contratos Públicos",29-12-2017,"1.760,00 €",,Numero de horas realizadas inferior ao numero de horas previstas,,Não aplicável.,Não aplicável.,FALSE
Aquisição de serviços médicos com especialidade em MGF para UCSP Alvarenga adstrito ao ACES Feira Arouca,Ajuste Direto Regime Geral,Aquisição de serviços,"85121200-5, Serviços de medicina especializada","Administração Regional de Saúde do Norte, I. P. (503135593)",Isabel Maria Moreira de Vasconcelos (107125676),"19.656,00 €",27-03-2017,27-01-2017,365 dias,"Portugal, Aveiro, Arouca","Artigo 20.º, n.º 1, alínea a) do Código dos Contratos Públicos",19-12-2017,"20.280,00 €",,"",,Não aplicável.,Não aplicável.,FALSE
