Objeto do Contrato,Tipo de Procedimento,Tipo(s) de Contrato,CPVs,Entidade(s) Adjudicante(s),Entidade(s) Adjudicatária(s),Preço Contratual,Data de Publicação,Data de Celebração do Contrato,Prazo de Execução,Local de Execução,Fundamentação,Data de Fecho do Contrato,Preço Total Efetivo,Causas das Alterações ao Prazo,Causas das Alterações ao Preço,Estado,N.º registo do Acordo Quadro,Descrição do Acordo Quadro,Procedimento Centralizado
S10011/2018 Serviços para realização de Ecografias e Mamografias aos doentes do CHBM EPE,Concurso público,Aquisição de serviços,"85150000-5, Serviços de imagiologia médica","Centro Hospitalar Barreiro Montijo, E. P. E. (509186998)","DIMASUL - Diagnostico pela Imagem do Sul, Lda. (502654643)","18.420,00 €",06-11-2018,14-02-2018,306 dias,"Portugal, Setúbal, Barreiro","Artigo 20.º, n.º 1, alínea b) do Código dos Contratos Públicos",31-12-2018,"21.744,00 €",,Consumo efetivo superior à estimativa inicial,,Não aplicável.,Não aplicável.,FALSE
S10008/2018 Serviços de Realização de Tomografia Computorizada aos Doentes do CHBM EPE,Concurso público,Aquisição de serviços,"85150000-5, Serviços de imagiologia médica","Centro Hospitalar Barreiro Montijo, E. P. E. (509186998)","DIMASUL - Diagnostico pela Imagem do Sul, Lda. (502654643)","199.255,00 €",05-11-2018,27-02-2018,306 dias,"Portugal, Setúbal, Barreiro","Artigo 20.º, n.º 1, alínea b) do Código dos Contratos Públicos",31-12-2018,"127.103,40 €",,Consumo efetivo inferior ao estimado,,Não aplicável.,Não aplicável.,FALSE
"4C020518 - Execução de TAC's aos utentes do CHS, EPE, para o Ano de 2018",Ajuste Direto Regime Geral,Aquisição de serviços,"85000000-9, Serviços de saúde e acção social","Centro Hospitalar de Setúbal, E. P. E. (507606787)","DIMASUL - Diagnostico pela Imagem do Sul, Lda. (502654643)","40.968,00 €",24-01-2018,10-01-2018,356 dias,"Portugal, Setúbal, Setúbal","Artigo 20.º, n.º 1, alínea a) do Código dos Contratos Públicos","","",,"",,Não aplicável.,Não aplicável.,FALSE
2C001117 - TAC's para o Ano de 2017 - Agosto a Dezembro,Concurso público,Aquisição de serviços,"85150000-5, Serviços de imagiologia médica","Centro Hospitalar de Setúbal, E. P. E. (507606787)","DIMASUL - Diagnostico pela Imagem do Sul, Lda. (502654643)","24.346,00 €",31-10-2017,21-08-2017,133 dias,"Portugal, Setúbal, Setúbal","Artigo 20.º, n.º 1, alínea b) do Código dos Contratos Públicos","","",,"",,Não aplicável.,Não aplicável.,FALSE
4S0073/2016 SERVIÇOS DE REALIZAÇÃO DE ECOGRAFIAS,Ajuste Direto Regime Geral,Aquisição de serviços,"85150000-5, Serviços de imagiologia médica","CHBM - Centro Hospital Barreiro Montijo, EPE (509186998)","DIMASUL - Diagnostico pela Imagem do Sul, Lda. (502654643)","29.886,60 €",06-03-2017,06-09-2016,153 dias,"Portugal, Setúbal, Barreiro","Artigo 20.º, n.º 1, alínea a) do Código dos Contratos Públicos",31-12-2016,"22.664,45 €",,Consumo efetivo inferior ao inicialmente estimado,,Não aplicável.,Não aplicável.,FALSE
4S0013/2015 - MCDT - ECOS OBSTETRICAS E GINECOLOGICAS,Ajuste Direto Regime Geral,Aquisição de serviços,"79625000-1, Serviços de fornecimento de pessoal médico","CHBM - Centro Hospital Barreiro Montijo, EPE (509186998)","DIMASUL - Diagnostico pela Imagem do Sul, Lda. (502654643)","26.391,60 €",12-04-2016,03-09-2015,220 dias,"Portugal, Setúbal, Barreiro","Artigo 20.º, n.º 1, alínea a) do Código dos Contratos Públicos",31-12-2015,"11.509,13 €",,Procedimento adjudicado por período inferior ao inicialmente pevisto,,Não aplicável.,Não aplicável.,FALSE
4S0030/2014 - Serviços Médicos de MCDT - Ecografias Obstétricas e Ginecológicas,Ajuste Direto Regime Geral,Aquisição de serviços,"85140000-2, Serviços de saúde diversos","CHBM - Centro Hospital Barreiro Montijo, EPE (509186998)","DIMASUL, Diagnóstico pela Imagem Sul, Lda. (502654643)","13.076,50 €",26-03-2015,30-05-2014,214 dias,"Portugal, Setúbal, Barreiro","Artigo 20.º, n.º 1, alínea a) do Código dos Contratos Públicos",31-12-2014,"12.633,73 €",,Consumos inferiores aos inicialmente estimados,,Não aplicável.,Não aplicável.,FALSE
"Serviços médicos a prestar no Serviço de Urgência Geral do CHLO, EPE - Especialidade de Radiologia",Ao abrigo de acordo-quadro (art.º 259.º),Aquisição de serviços,"85000000-9, Serviços de saúde e acção social","Centro Hospitalar de Lisboa Ocidental, E. P. E. (507618319)","Dimasul, Lda (502654643)","7.628,25 €",04-12-2014,17-11-2014,44 dias,"Portugal, Lisboa, Lisboa",Artigo 259.º do Código dos Contratos Públicos,"","",,"",,454020,"CONCURSO PÚBLICO PARA A CELEBRAÇÃO DE CONTRATOS PÚBLICOS DE APROVISIONAMENTO PARA A ÁREA DA SAÚDE, COM VISTA À PRESTAÇÃO DE SERVIÇOS MÉDICOS ÀS INSTITUIÇÕES E SERVIÇOS DO SERVIÇO NACIONAL DE SAÚDE",FALSE
"Aquisição de horas médicas a prestar no Serviço de Urgência de Radiologia no HSFX, até ao final de 2014",Ao abrigo de acordo-quadro (art.º 259.º),Aquisição de serviços,"85000000-9, Serviços de saúde e acção social","Centro Hospitalar de Lisboa Ocidental, E. P. E. (507618319)","Dimasul, Lda (502654643)","4.548,00 €",02-12-2014,22-09-2014,100 dias,"Portugal, Lisboa, Lisboa",Artigo 259.º do Código dos Contratos Públicos,"","",,"",,454020,"CONCURSO PÚBLICO PARA A CELEBRAÇÃO DE CONTRATOS PÚBLICOS DE APROVISIONAMENTO PARA A ÁREA DA SAÚDE, COM VISTA À PRESTAÇÃO DE SERVIÇOS MÉDICOS ÀS INSTITUIÇÕES E SERVIÇOS DO SERVIÇO NACIONAL DE SAÚDE",FALSE
