Objeto do Contrato,Tipo de Procedimento,Tipo(s) de Contrato,CPVs,Entidade(s) Adjudicante(s),Entidade(s) Adjudicatária(s),Preço Contratual,Data de Publicação,Data de Celebração do Contrato,Prazo de Execução,Local de Execução,Fundamentação,Data de Fecho do Contrato,Preço Total Efetivo,Causas das Alterações ao Prazo,Causas das Alterações ao Preço,Estado,N.º registo do Acordo Quadro,Descrição do Acordo Quadro,Procedimento Centralizado
Serviços Médicos Ginecologia/Obstetrícia ano 2018,Ajuste Direto Regime Geral,Aquisição de serviços,"85000000-9, Serviços de saúde e acção social","Centro Hospitalar de Setúbal, E. P. E. (507606787)",Cristina Maria Augusto da Silva (207639256),"45.760,00 €",02-03-2018,30-01-2018,365 dias,"Portugal, Setúbal, Setúbal","Artigo 20.º, n.º 1, alínea a) do Código dos Contratos Públicos",,,,,,Não aplicável.,Não aplicável.,FALSE
Serviços Médicos ginecologia /obstetrícia,Ajuste Direto Regime Geral,Aquisição de serviços,"85000000-9, Serviços de saúde e acção social","Centro Hospitalar de Setúbal, E. P. E. (507606787)",Cristina Maria Augusto da Silva (207639256),"33.720,00 €",12-10-2017,01-09-2017,306 dias,"Portugal, Setúbal, Setúbal","Artigo 20.º, n.º 1, alínea a) do Código dos Contratos Públicos",,,,,,Não aplicável.,Não aplicável.,FALSE
