Objeto do Contrato,Tipo de Procedimento,Tipo(s) de Contrato,CPVs,Entidade(s) Adjudicante(s),Entidade(s) Adjudicatária(s),Preço Contratual,Data de Publicação,Data de Celebração do Contrato,Prazo de Execução,Local de Execução,Fundamentação,Data de Fecho do Contrato,Preço Total Efetivo,Causas das Alterações ao Prazo,Causas das Alterações ao Preço,Estado,N.º registo do Acordo Quadro,Descrição do Acordo Quadro,Procedimento Centralizado
Prestação de Serviços Médicos no Serviço de Anestesiologia - C.P. N.º 0801338,Consulta Prévia,Aquisição de serviços,"85121200-5, Serviços de medicina especializada","Hospital Garcia de Orta, E. P. E. (506361470)","Dragon Memory - Unipessoal, Lda. (514105640)","70.400,00 €",25-10-2018,12-06-2018,365 dias,"Portugal, Setúbal, Almada","Artigo 20.º, n.º 1, alínea c) do Código dos Contratos Públicos",,,,,,Não aplicável.,Não aplicável.,FALSE
Prestação de Serviços Médicos de Anestesiologia - Ajuste Directo n.º 8409256,Ajuste Direto Regime Geral,Aquisição de serviços,"85141000-9, Serviços prestados pelo pessoal médico","Hospital Garcia de Orta, E. P. E. (506361470)","Dragon Memory - Unipessoal, Lda. (514105640)","75.000,00 €",05-07-2017,28-10-2016,365 dias,"Portugal, Setúbal, Almada","Artigo 20.º, n.º 1, alínea a) do Código dos Contratos Públicos",,,,,,Não aplicável.,Não aplicável.,FALSE
PRESTAÇÃO DE SERVIÇOS MÉDICOS DE ANESTESIOLOGIA - Aj. Directo nº 8409256,Ajuste Direto Regime Geral,Aquisição de serviços,"85141000-9, Serviços prestados pelo pessoal médico","Hospital Garcia de Orta, E. P. E. (506361470)","DRAGON MEMORY- UNIPESSOAL, LDA (514105640)","75.000,00 €",17-11-2016,28-10-2016,365 dias,"Portugal, Setúbal, Almada","Artigo 20.º, n.º 1, alínea a) do Código dos Contratos Públicos",,,,,,Não aplicável.,Não aplicável.,FALSE
