Objeto do Contrato,Tipo de Procedimento,Tipo(s) de Contrato,CPVs,Entidade(s) Adjudicante(s),Entidade(s) Adjudicatária(s),Preço Contratual,Data de Publicação,Data de Celebração do Contrato,Prazo de Execução,Local de Execução,Fundamentação,Data de Fecho do Contrato,Preço Total Efetivo,Causas das Alterações ao Prazo,Causas das Alterações ao Preço,Estado,N.º registo do Acordo Quadro,Descrição do Acordo Quadro,Procedimento Centralizado
"Prestação de Serviços Médicos na Especialidade de Ginecologia/Obstetricia, na ULSNA, EPE (Periodo máximo maio a dezembro de 2018) ",Ajuste Direto Regime Geral,Aquisição de serviços,"85100000-0, Serviços de saúde","Unidade Local de Saúde do Norte Alentejano, E. P. E. (508094461)","Dr. Cienfuegos Campini, SLU (B06599369)","59.776,40 €",10-05-2018,27-04-2018,245 dias,"Portugal, Portalegre","Artigo 24.º, n.º 1, alínea c) do Código dos Contratos Públicos","","",,,,Não aplicável.,Não aplicável.,FALSE
"Prestação de Serviços Médicos na Especialidade de Ginecologia/Obstetrícia, na ULSNA EPE (período máximo janeiro a abril de 2018)",Ajuste Direto Regime Geral,Aquisição de serviços,"85100000-0, Serviços de saúde","Unidade Local de Saúde do Norte Alentejano, E. P. E. (508094461)","Dr. Cienfuegos Campini, SLU (B06599369)","29.888,20 €",22-03-2018,12-03-2018,120 dias,"Portugal, Portalegre, Portalegre","Artigo 24.º, n.º 1, alínea c) do Código dos Contratos Públicos","","",,,,Não aplicável.,Não aplicável.,FALSE
"Prestação de Serviços Médicos na Especialidade de Ginecologia/Obstetrícia, na ULSNA, EPE(Maio a Dezembro 2017)",Ajuste Direto Regime Geral,Aquisição de serviços,"85100000-0, Serviços de saúde","Unidade Local de Saúde do Norte Alentejano, E. P. E. (508094461)","Dr. Cienfuegos Campini, SLU (B06599369)","66.221,29 €",27-07-2017,03-07-2017,245 dias,"Portugal, Portalegre, Portalegre","Artigo 24.º, n.º 1, alínea c) do Código dos Contratos Públicos",03-07-2017,"66.221,29 €",,,,Não aplicável.,Não aplicável.,FALSE
"Prestação de Serviços Médicos na Especialidade de Ginecologia/Obstetrícia, na ULSNA, EPE( Jan a Abril de 2017)",Ajuste Direto Regime Geral,Aquisição de serviços,"85100000-0, Serviços de saúde","Unidade Local de Saúde do Norte Alentejano, E. P. E. (508094461)","Dr. Cienfuegos Campini, SLU (B06599369)","32.905,81 €",22-03-2017,08-03-2017,120 dias,"Portugal, Portalegre, Portalegre","Artigo 24.º, n.º 1, alínea c) do Código dos Contratos Públicos",08-03-2017,"32.905,81 €",,,,Não aplicável.,Não aplicável.,FALSE
"Prestação de Serviços Médicos, na Especialidade de Gin/Obst, na ULSNA, EPE (Março a Dezembro de 2016)",Ajuste Direto Regime Geral,Aquisição de serviços,"85100000-0, Serviços de saúde","Unidade Local de Saúde do Norte Alentejano, E. P. E. (508094461)","Dr. Cienfuegos Campini, SLU (B06599369)","68.730,90 €",12-05-2016,29-03-2016,306 dias,"Portugal, Portalegre, Portalegre","Artigo 24.º, n.º 1, alínea b) do Código dos Contratos Públicos",29-03-2016,"68.730,90 €",,,,Não aplicável.,Não aplicável.,FALSE
"Prestação de Serviços Médicos, na Especialidade de Ginecologia/Obstetrícia, na ULSNA, EPE (Janeiro e Fevereiro de 2016)",Ajuste Direto Regime Geral,Aquisição de serviços,"85100000-0, Serviços de saúde","Unidade Local de Saúde do Norte Alentejano, E. P. E. (508094461)","Dr. Cienfuegos Campini, SLU (B06599369)","15.933,58 €",01-02-2016,14-12-2015,60 dias,"Portugal, Portalegre, Portalegre","Artigo 24.º, n.º 1, alínea c) do Código dos Contratos Públicos",14-12-2015,"15.933,58 €",,,,Não aplicável.,Não aplicável.,FALSE
"Prestação de Serviços Médicos, na Especialidade de Obstetrícia e Ginecologia em Urgência, na ULSNA, EPE (Outubro a Dezembro de 2015)",Ajuste Direto Regime Geral,Aquisição de serviços,"85100000-0, Serviços de saúde","Unidade Local de Saúde do Norte Alentejano, E. P. E. (508094461)","Dr. Cienfuegos Campini, SLU (B06599369)","17.640,00 €",23-11-2015,21-10-2015,91 dias,"Portugal, Portalegre, Portalegre","Artigo 24.º, n.º 1, alínea c) do Código dos Contratos Públicos",21-10-2015,"17.640,00 €",,,,Não aplicável.,Não aplicável.,FALSE
"Prestação de Serviços Médicos, na Especialidade de Ginecologia/Obstetrícia, na ULSNA, EPE (Agosto a Dezembro/2015)",Ajuste Direto Regime Geral,Aquisição de serviços,"85100000-0, Serviços de saúde","Unidade Local de Saúde do Norte Alentejano, E. P. E. (508094461)","Dr. Cienfuegos Campini, SLU (B06599369)","15.995,15 €",09-10-2015,14-08-2015,153 dias,"Portugal, Portalegre, Portalegre","Artigo 24.º, n.º 1, alínea b) do Código dos Contratos Públicos",14-08-2015,"15.995,15 €",,,,Não aplicável.,Não aplicável.,FALSE
"Prestação de Serviços Médicos, na Especialidade de Ginecologia/Obstetrícia, na ULSNA, EPE (Janeiro a Julho de 2015)",Ajuste Direto Regime Geral,Aquisição de serviços,"85100000-0, Serviços de saúde","Unidade Local de Saúde do Norte Alentejano, E. P. E. (508094461)","Dr. Cienfuegos Campini, SLU (B06599369)","24.717,14 €",31-03-2015,25-03-2015,212 dias,"Portugal, Portalegre, Portalegre","Artigo 24.º, n.º 1, alínea c) do Código dos Contratos Públicos",25-03-2015,"24.717,14 €",,,,Não aplicável.,Não aplicável.,FALSE
"Prestação de Serviços Médicos, na Especialidade de Ginecologia/Obstetrícia, na ULSNA, EPE (Março a Dezembro de 2014)",Ajuste Direto Regime Geral,Aquisição de serviços,"85100000-0, Serviços de saúde","Unidade Local de Saúde do Norte Alentejano, E. P. E. (508094461)","Dr. Cienfuegos Campini, SLU (B06599369)","40.600,50 €",16-03-2015,18-05-2014,306 dias,"Portugal, Portalegre, Portalegre","Artigo 24.º, n.º 1, alínea c) do Código dos Contratos Públicos",31-12-2014,"40.600,50 €",,,,Não aplicável.,Não aplicável.,FALSE
"Prestação de Serviços Médicos, na Especialidade de Ginecologia/Obstetrícia, na ULSNA, EPE (Janeiro e Fevereiro de 2014)",Ajuste Direto Regime Geral,Aquisição de serviços,"85100000-0, Serviços de saúde","Unidade Local de Saúde do Norte Alentejano, E. P. E. (508094461)","Dr. Cienfuegos Campini, SLU (B06599369)","16.184,20 €",04-02-2014,22-01-2014,59 dias,"Portugal, Portalegre, Portalegre","Artigo 24.º, n.º 1, alínea c) do Código dos Contratos Públicos",28-02-2014,"16.184,20 €",,,,Não aplicável.,Não aplicável.,FALSE
"Prestação de Serviços Médicos, na Especialidade e Obstetricia e Ginecologia, na ULSNA, EPE (de 1 de Julho a 31 de Dezembro de 2013)",Ajuste Direto Regime Geral,Aquisição de serviços,"85100000-0, Serviços de saúde","Unidade Local de Saúde do Norte Alentejano, E.P.E. (508094461)","Dr. Cienfugos Campini, SLU (B06599369)","48.455,40 €",17-10-2013,09-07-2013,184 dias,"Portugal, Portalegre, Portalegre","Artigo 24.º, n.º 1, alínea c) do Código dos Contratos Públicos",31-12-2013,"48.455,40 €",,,,Não aplicável.,Não aplicável.,
"Prestação de Serviços Médicos, na Especialidade de Ginecologia e Obstetrícia, na ULSNA, EPE (de Abril a Junho de 2013)",Ajuste Direto Regime Geral,Aquisição de serviços,"85100000-0, Serviços de saúde","Unidade Local de Saúde do Norte Alentejano, E.P.E. (508094461)","Dr. Cienfuegos Campini, SLU (B06599369)","24.227,70 €",15-05-2013,13-05-2013,91 dias,"Portugal, Portalegre, Portalegre","Artigo 24.º, n.º 1, alínea c) do Código dos Contratos Públicos",30-06-2013,"24.227,70 €",,,,Não aplicável.,Não aplicável.,
"Prestação de Serviços Médicos na Especialidade de Obstetricia e Ginecologia, na ULSNA, EPE (Janeiro a Março de 2013)",Ajuste Direto Regime Geral,Aquisição de serviços,"85100000-0, Serviços de saúde","Unidade Local de Saúde do Norte Alentejano, E.P.E. (508094461)","Dr Cienfuegos Campini, SLU (B06599369)","24.096,24 €",30-01-2013,30-01-2013,90 dias,"Portugal, Portalegre, Portalegre","Artigo 24.º, n.º 1, alínea c) do Código dos Contratos Públicos",31-03-2013,"24.096,24 €",,,,Não aplicável.,Não aplicável.,
"Prestação de Serviços Médicos na Especialidade de Obstetricia e Ginecologia, na ULSNA, EPE",Ajuste Direto Regime Geral,Aquisição de serviços,"85100000-0, Serviços de saúde","Unidade Local de Saúde do Norte Alentejano, E.P.E. (508094461)","Dr. Cienfuegos Campini, SLU (B06599369)","6.042,08 €",27-11-2012,13-11-2012,31 dias,"Portugal, Portalegre, Elvas<BR/>Portugal, Portalegre, Portalegre","Artigo 20.º, n.º 1, alínea a) do Código dos Contratos Públicos",31-12-2012,"6.042,08 €",,,,Não aplicável.,Não aplicável.,
