Objeto do Contrato,Tipo de Procedimento,Tipo(s) de Contrato,CPVs,Entidade(s) Adjudicante(s),Entidade(s) Adjudicatária(s),Preço Contratual,Data de Publicação,Data de Celebração do Contrato,Prazo de Execução,Local de Execução,Fundamentação,Data de Fecho do Contrato,Preço Total Efetivo,Causas das Alterações ao Prazo,Causas das Alterações ao Preço,Estado,N.º registo do Acordo Quadro,Descrição do Acordo Quadro,Procedimento Centralizado
4S0029/2018 SERV MED ANESTESIA P ANO 2018,Ajuste Direto Regime Geral,Aquisição de serviços,"85100000-0, Serviços de saúde","Centro Hospitalar Barreiro Montijo, E. P. E. (509186998)",Cidália Oliveira Lda (508275482),"31.010,76 €",06-06-2018,21-03-2018,365 dias,"Portugal, Setúbal, Barreiro","Artigo 24.º, n.º 1, alínea a) do Código dos Contratos Públicos",31-12-2018,"25.006,55 €",,Consumo efetivo inferior ao estimado,,Não aplicável.,Não aplicável.,FALSE
Serviços Médicos Anestesia,Ajuste Direto Regime Geral,Aquisição de serviços,"85000000-9, Serviços de saúde e acção social","Centro Hospitalar de Setúbal, E. P. E. (507606787)",Cidália Oliveira Lda (508275482),"22.560,00 €",25-11-2017,18-07-2017,365 dias,"Portugal, Setúbal, Setúbal","Artigo 20.º, n.º 1, alínea a) do Código dos Contratos Públicos","","",,"",,Não aplicável.,Não aplicável.,FALSE
