Objeto do Contrato,Tipo de Procedimento,Tipo(s) de Contrato,CPVs,Entidade(s) Adjudicante(s),Entidade(s) Adjudicatária(s),Preço Contratual,Data de Publicação,Data de Celebração do Contrato,Prazo de Execução,Local de Execução,Fundamentação,Data de Fecho do Contrato,Preço Total Efetivo,Causas das Alterações ao Prazo,Causas das Alterações ao Preço,Estado,N.º registo do Acordo Quadro,Descrição do Acordo Quadro,Procedimento Centralizado
"Prestação de Serviços Médicos na Especialidade de Gin/Obst, na ULSNA, EPE (Março a Dezembro de 2016)",Ajuste Direto Regime Geral,Aquisição de serviços,"85100000-0, Serviços de saúde","Unidade Local de Saúde do Norte Alentejano, E. P. E. (508094461)",Maria Isabel Miravent Campião (132677300),"24.360,00 €",12-05-2016,29-03-2016,306 dias,"Portugal, Portalegre, Portalegre","Artigo 24.º, n.º 1, alínea b) do Código dos Contratos Públicos",29-03-2016,"24.360,00 €",,,,Não aplicável.,Não aplicável.,FALSE
"Prestação de Serviços Médicos, na Especialidade de Ginecologia/Obstetrícia, na ULSNA, EPE (Janeiro e Fevereiro de 2016)",Ajuste Direto Regime Geral,Aquisição de serviços,"85100000-0, Serviços de saúde","Unidade Local de Saúde do Norte Alentejano, E. P. E. (508094461)",Maria Isabel Miravent Campião (132677300),"6.720,00 €",01-02-2016,04-12-2015,60 dias,"Portugal, Portalegre, Portalegre","Artigo 24.º, n.º 1, alínea c) do Código dos Contratos Públicos",04-12-2015,"6.720,00 €",,,,Não aplicável.,Não aplicável.,FALSE
"Prestação de Serviços Médicos, na Especialidade de Obstetrícia e Ginecologia em Urgência, na ULSNA, EPE (Outubro a Dezembro de 2015)",Ajuste Direto Regime Geral,Aquisição de serviços,"85100000-0, Serviços de saúde","Unidade Local de Saúde do Norte Alentejano, E. P. E. (508094461)",Maria Isabel Miravent Campião (132677300),"10.080,00 €",23-11-2015,21-10-2015,92 dias,"Portugal, Portalegre, Portalegre","Artigo 24.º, n.º 1, alínea c) do Código dos Contratos Públicos",21-10-2015,"10.080,00 €",,,,Não aplicável.,Não aplicável.,FALSE
