Objeto do Contrato,Tipo de Procedimento,Tipo(s) de Contrato,CPVs,Entidade(s) Adjudicante(s),Entidade(s) Adjudicatária(s),Preço Contratual,Data de Publicação,Data de Celebração do Contrato,Prazo de Execução,Local de Execução,Fundamentação,Data de Fecho do Contrato,Preço Total Efetivo,Causas das Alterações ao Prazo,Causas das Alterações ao Preço,Estado,N.º registo do Acordo Quadro,Descrição do Acordo Quadro,Procedimento Centralizado
Aquisição de serviços de tradução ICD10/CM/PCS,Ajuste Direto Regime Geral,Aquisição de serviços,"79530000-8, Serviços de tradução","Administração Central do Sistema de Saúde, I. P. (508188423)",Miguel José  Cabral de Pinto (217263089),"7.750,00 €",09-08-2018,09-08-2018,30 dias,"Portugal, Lisboa, Lisboa","Artigo 20.º, n.º 1, alínea d) do Código dos Contratos Públicos",31-12-2018,"7.750,00 €",,"",,Não aplicável.,Não aplicável.,FALSE
Aquisição  de serviços de tradução para português da designação completa dos códigos de diagnóstico do sistema de codificação clínica em ICD-10-CM (versão original Inglesa de 2017),Ajuste Direto Regime Geral,Aquisição de serviços,"79530000-8, Serviços de tradução","Administração Central do Sistema de Saúde, I. P. (508188423)",Miguel José  Cabral de Pinto (217263089),"7.750,00 €",10-04-2017,06-04-2017,60 dias,"Portugal, Lisboa, Lisboa","Artigo 20.º, n.º 1, alínea a) do Código dos Contratos Públicos",31-12-2017,"",,Contrato não executado,,Não aplicável.,Não aplicável.,FALSE
