Objeto do Contrato,Tipo de Procedimento,Tipo(s) de Contrato,CPVs,Entidade(s) Adjudicante(s),Entidade(s) Adjudicatária(s),Preço Contratual,Data de Publicação,Data de Celebração do Contrato,Prazo de Execução,Local de Execução,Fundamentação,Data de Fecho do Contrato,Preço Total Efetivo,Causas das Alterações ao Prazo,Causas das Alterações ao Preço,Estado,N.º registo do Acordo Quadro,Descrição do Acordo Quadro,Procedimento Centralizado
"Aquisição de Serviços de Cuidados Médicos na Área de Neurologia para o Centro Hospitalar de Lisboa Central, EPE, para o ano de 2017",Ajuste Direto Regime Geral,Aquisição de serviços,"85121200-5, Serviços de medicina especializada","Centro Hospitalar de Lisboa Central, E. P. E. (508080142)",Carlos Miguel Cheganças Capela (224352830),"8.640,00 €",03-11-2017,30-01-2017,365 dias,"Portugal, Lisboa, Lisboa","Artigo 20.º, n.º 1, alínea a) do Código dos Contratos Públicos",,,,,,Não aplicável.,Não aplicável.,FALSE
"Aquisição de Serviços de Cuidados Médicos na Área de Neurologia para o Centro Hospitalar de Lisboa Central, EPE, para o ano de 2017",Ajuste Direto Regime Geral,Aquisição de serviços,"85121200-5, Serviços de medicina especializada","Centro Hospitalar de Lisboa Central, E. P. E. (508080142)",Carlos Miguel Cheganças Capela (224352830),"18.783,54 €",03-11-2017,30-01-2017,365 dias,"Portugal, Lisboa, Lisboa","Artigo 20.º, n.º 1, alínea a) do Código dos Contratos Públicos",,,,,,Não aplicável.,Não aplicável.,FALSE
