Objeto do Contrato,Tipo de Procedimento,Tipo(s) de Contrato,CPVs,Entidade(s) Adjudicante(s),Entidade(s) Adjudicatária(s),Preço Contratual,Data de Publicação,Data de Celebração do Contrato,Prazo de Execução,Local de Execução,Fundamentação,Data de Fecho do Contrato,Preço Total Efetivo,Causas das Alterações ao Prazo,Causas das Alterações ao Preço,Estado,N.º registo do Acordo Quadro,Descrição do Acordo Quadro,Procedimento Centralizado
Prestação de Serviços Médicos de Pediatria,Ajuste Direto Regime Geral,Aquisição de serviços,"85121291-9, Serviços de pediatria","Centro Hospitalar Universitário do Algarve, E. P. E. (510745997)","DORIN & NATALIA - SERVICOS MEDICOS, LDA (509801226)","35.750,00 €",13-03-2018,09-01-2018,90 dias,"Portugal, Faro, Portimão","Artigo 24.º, n.º 1, alínea e) do Código dos Contratos Públicos",31-12-2018,"125.100,00 €",,De acordo com as necessidades efectivas no ano 2018,,Não aplicável.,Não aplicável.,FALSE
Serviços Médicos de Urgência de Pediatria,Ajuste Direto Regime Geral,Aquisição de serviços,"85121291-9, Serviços de pediatria","Centro Hospitalar do Algarve, E. P. E. (510745997)","Dorin & Natalia - Serviços Médicos, Lda (509801226)","71.500,00 €",07-09-2017,24-07-2017,180 dias,"Portugal, Faro, Faro<BR/>Portugal, Faro, Portimão<BR/>Portugal, Faro, Lagos","Artigo 24.º, n.º 1, alínea e) do Código dos Contratos Públicos",31-12-2017,"64.850,00 €",,"O valor inicial do Contrato teve por base as necessidades estimadas para o período de 1 de julho de 2017 a 31 dezembro de 2017, o valor final reflete as necessidades efectivas.",,Não aplicável.,Não aplicável.,FALSE
"Serviços Médicos de Urgência Geral,Básica e Pediatrica",Ajuste Direto Regime Geral,Aquisição de serviços,"85121100-4, Serviços de médicos de clínica geral","Centro Hospitalar do Algarve, E. P. E. (510745997)","Dorin & Natalia - Serviços Médicos, Lda (509801226)","71.500,00 €",23-02-2017,14-02-2017,180 dias,"Portugal, Faro, Portimão<BR/>Portugal, Faro, Lagos","Artigo 24.º, n.º 1, alínea e) do Código dos Contratos Públicos",30-06-2017,"65.450,00 €",,"O valor inicial do Contrato teve por base as necessidades estimadas para o período de 1 Janeiro de 2017 a 30 Junho de 2017, o valor final reflecte as necessidades efectivas.",,Não aplicável.,Não aplicável.,FALSE
"Serviços Médicos Urgência Geral, Básica e Pediatrica",Ajuste Direto Regime Geral,Aquisição de serviços,"85121100-4, Serviços de médicos de clínica geral","Centro Hospitalar do Algarve, E. P. E. (510745997)","Dorin & Natalia - Serviços Médicos, Lda (509801226)","71.500,00 €",29-08-2016,03-08-2016,180 dias,"Portugal, Faro, Portimão<BR/>Portugal, Faro, Lagos","Artigo 24.º, n.º 1, alínea c) do Código dos Contratos Públicos",31-12-2016,"58.825,00 €",,"O valor inicial do Contrato teve por base as necessidades estimadas para o período de 1 Julho de 2016 a 31 Dezembro de 2016, o valor final reflecte as necessidades efectivas.",,Não aplicável.,Não aplicável.,FALSE
Serviços Médicos Urgência Geral e Pediátrica,Ajuste Direto Regime Geral,Aquisição de serviços,"85121100-4, Serviços de médicos de clínica geral","Centro Hospitalar do Algarve, E. P. E. (510745997)","Dorin & Natalia - Serviços Médicos, Lda (509801226)","143.000,00 €",28-01-2016,20-01-2016,365 dias,"Portugal, Faro, Faro<BR/>Portugal, Faro, Portimão<BR/>Portugal, Faro, Lagos","Artigo 24.º, n.º 1, alínea c) do Código dos Contratos Públicos",30-06-2016,"59.700,00 €",,"O valor inicial do Contrato teve por base as necessidades estimadas para o período de 1 Janeiro de 2016 a 30 Junho de 2016, o valor final reflecte as necessidades efectivas.",,Não aplicável.,Não aplicável.,FALSE
Serviços Médicos de Urgência Geral e Pediátrica,Ajuste Direto Regime Geral,Aquisição de serviços,"85121100-4, Serviços de médicos de clínica geral","Centro Hospitalar do Algarve, E. P. E. (510745997)","Dorin & Natalia - Serviços Médicos, Lda (509801226)","59.125,00 €",02-03-2015,24-02-2015,275 dias,"Portugal, Faro, Portimão<BR/>Portugal, Faro, Lagos<BR/>Portugal, Faro, Faro","Artigo 24.º, n.º 1, alínea c) do Código dos Contratos Públicos",31-12-2015,"47.400,00 €",,"O valor inicial do Contrato teve por base as necessidades estimadas para o período de 1 Março de 2015 a 31 Dezembro de 2015, o valor final reflecte as necessidades efectivas.",,Não aplicável.,Não aplicável.,FALSE
Serviços Médicos Urgência Geral e Pediátrica - Processo nº 78/0762/2015,Ajuste Direto Regime Geral,Aquisição de serviços,"85121100-4, Serviços de médicos de clínica geral","Centro Hospitalar do Algarve, E.P.E. (510745997)","Dorin & Natália - Serviços Médicos, Lda (509801226)","12.375,00 €",16-02-2015,30-01-2015,59 dias,"Portugal, Faro, Faro<BR/>Portugal, Faro, Portimão<BR/>Portugal, Faro, Lagos","Artigo 24.º, n.º 1, alínea c) do Código dos Contratos Públicos",28-02-2015,"8.100,00 €",,"O valor inicial do Contrato teve por base as necessidades estimadas para o período de 1 Janeiro de 2015 a 28 Fevereiro de 2015, o valor final reflecte as necessidades efectivas.",,Não aplicável.,Não aplicável.,FALSE
Serviços Médicos Urgência Geral e Pediatrica,Ajuste Direto Regime Geral,Aquisição de serviços,"85121291-9, Serviços de pediatria","Centro Hospitalar do Algarve, E. P. E. (510745997)","Dorin & Natália - Serviços Médicos, Lda (509801226)","22.000,00 €",12-08-2014,01-08-2014,60 dias,"Portugal, Faro, Lagos<BR/>Portugal, Faro, Portimão<BR/>Portugal, Faro, Faro","Artigo 20.º, n.º 1, alínea a) do Código dos Contratos Públicos",31-08-2014,"19.450,00 €",,"o valor do contrato teve por base as necessidades estimadas  para os meses de Julho e Agosto de 2014, o valor final reflecte as necessidades efectivas.",,Não aplicável.,Não aplicável.,FALSE
Serviços médicos Urgência Geral e Pediatrica,Ajuste Direto Regime Geral,Aquisição de serviços,"85121100-4, Serviços de médicos de clínica geral","Centro Hospitalar do Algarve, E. P. E. (510745997)","DORIN & NATALIA - SERVICOS MEDICOS, LDA (509801226)","60.000,00 €",24-03-2014,27-02-2014,180 dias,"Portugal, Faro, Lagos<BR/>Portugal, Faro, Faro<BR/>Portugal, Faro, Portimão","Artigo 20.º, n.º 1, alínea a) do Código dos Contratos Públicos",30-06-2014,"52.225,00 €",,"O valor do contrato teve por base as necessidades estimadas para o 1º semestre de 2014, o valor final reflecte as necessidades efectivas",,Não aplicável.,Não aplicável.,FALSE
Dorin & Natália - Serviços Médicos,Ajuste Direto Regime Geral,Aquisição de serviços,"85121100-4, Serviços de médicos de clínica geral","Centro Hospitalar do Algarve, E. P. E. (510745997)","DORIN & NATALIA - SERVICOS MEDICOS, LDA (509801226)","58.000,00 €",06-02-2014,26-07-2013,180 dias,"Portugal, Faro, Portimão","Artigo 20.º, n.º 1, alínea a) do Código dos Contratos Públicos",31-12-2013,"46.200,00 €",,Valor ajustado às necessidades reais,,Não aplicável.,Não aplicável.,FALSE
Serviços Médicos,Ajuste Direto Regime Geral,Aquisição de serviços,"85121100-4, Serviços de médicos de clínica geral","Centro Hospitalar do Barlavento Algarvio, E.P.E. (507062540)",Dorin &  Natalia - Serviços Médicos Lda  (509801226),"54.000,00 €",01-04-2013,09-01-2013,180 dias,"Portugal, Faro, Portimão","Artigo 20.º, n.º 1, alínea a) do Código dos Contratos Públicos",30-06-2013,"56.700,00 €",,"o valor do contrato teve por base necessidades estimadas para 1º semestre 2013, o valor final reflete as necessidades efetivas",,Não aplicável.,Não aplicável.,
