Objeto do Contrato,Tipo de Procedimento,Tipo(s) de Contrato,CPVs,Entidade(s) Adjudicante(s),Entidade(s) Adjudicatária(s),Preço Contratual,Data de Publicação,Data de Celebração do Contrato,Prazo de Execução,Local de Execução,Fundamentação,Data de Fecho do Contrato,Preço Total Efetivo,Causas das Alterações ao Prazo,Causas das Alterações ao Preço,Estado,N.º registo do Acordo Quadro,Descrição do Acordo Quadro,Procedimento Centralizado
Prestação de serviços médicos de Cirurgia Vascular,Ajuste Direto Regime Geral,Aquisição de serviços,"79625000-1, Serviços de fornecimento de pessoal médico","Hospital do Espírito Santo de Évora, E. P. E. (508085888)",Vasconcelos & Maia Ldª (510739458),"27.340,56 €",20-12-2018,18-04-2018,365 dias,"Portugal, Évora, Évora","Artigo 20.º, n.º 1, alínea a) do Código dos Contratos Públicos",,,,,,Não aplicável.,Não aplicável.,FALSE
Prestação de serviços médicos em Angiologia e Cirurgia  Vascular,Ajuste Direto Regime Geral,Aquisição de serviços,"85121000-3, Serviços de prática médica","Hospital do Espírito Santo de Évora, E. P. E. (508085888)",Vasconcelos & Maia Ldª (510739458),"6.835,14 €",09-04-2018,28-09-2017,90 dias,"Portugal, Évora, Évora","Artigo 20.º, n.º 1, alínea a) do Código dos Contratos Públicos",,,,,,Não aplicável.,Não aplicável.,FALSE
