Objeto do Contrato,Tipo de Procedimento,Tipo(s) de Contrato,CPVs,Entidade(s) Adjudicante(s),Entidade(s) Adjudicatária(s),Preço Contratual,Data de Publicação,Data de Celebração do Contrato,Prazo de Execução,Local de Execução,Fundamentação,Data de Fecho do Contrato,Preço Total Efetivo,Causas das Alterações ao Prazo,Causas das Alterações ao Preço,Estado,N.º registo do Acordo Quadro,Descrição do Acordo Quadro,Procedimento Centralizado
Aquisição de serviços na área da Radiologia - ACES Entre Douro e Vouga I/Feira Arouca - Processo 18000139,Ajuste Direto Regime Geral,Aquisição de serviços,"85150000-5, Serviços de imagiologia médica","Administração Regional de Saúde do Norte,IP (ARSN) (503135593)",Hélder Renato Ferreira de Bessa (231009577),"12.604,80 €",02-03-2018,21-12-2017,365 dias,"Portugal, Aveiro, Arouca","Artigo 20.º, n.º 1, alínea a) do Código dos Contratos Públicos","","",,"",,Não aplicável.,Não aplicável.,FALSE
Aquisição de serviços de radiologia para o SUB Arouca adstrito ao ACES Feira Arouca - APROV PRT 17000120 - Procedimento n.º 18/2017/SUB Arouca/ACES Feira Arouca/ARSN - Radiologista Hélder Renato Ferreira Bessa,Ajuste Direto Regime Geral,Aquisição de serviços,"85140000-2, Serviços de saúde diversos","Administração Regional de Saúde do Norte, I. P. (503135593)",Hélder Renato Ferreira de Bessa (231009577),"10.665,60 €",03-04-2017,03-03-2017,295 dias,"Portugal, Aveiro, Arouca","Artigo 20.º, n.º 1, alínea a) do Código dos Contratos Públicos",31-12-2017,"10.641,36 €",,Numero de horas realizadas inferiores ao numero de horas contratadas.,,Não aplicável.,Não aplicável.,FALSE
