Objeto do Contrato,Tipo de Procedimento,Tipo(s) de Contrato,CPVs,Entidade(s) Adjudicante(s),Entidade(s) Adjudicatária(s),Preço Contratual,Data de Publicação,Data de Celebração do Contrato,Prazo de Execução,Local de Execução,Fundamentação,Data de Fecho do Contrato,Preço Total Efetivo,Causas das Alterações ao Prazo,Causas das Alterações ao Preço,Estado,N.º registo do Acordo Quadro,Descrição do Acordo Quadro,Procedimento Centralizado
PRESTAÇÃO DE SERVIÇOS DE AUDITORIA EXTERNA DE CODIFICAÇÃO CLINICA ANO 2016,Ajuste Direto Regime Geral,Aquisição de serviços,"85100000-0, Serviços de saúde","Unidade Local de Saúde do Norte Alentejano, E. P. E. (508094461)","Codimensagem, Lda. (507600908)","10.947,50 €",12-06-2017,08-05-2017,365 dias,"Portugal, Portalegre, Portalegre","Artigo 20.º, n.º 1, alínea a) do Código dos Contratos Públicos",08-05-2017,"10.947,50 €",,,,Não aplicável.,Não aplicável.,FALSE
"Prestação de Serviços de Formação, Auditoria Clínica, Codificação Clínica e Consultoria ao Hospital de Santo Espírito da Ilha Terceira, EPER",Ajuste Direto Regime Geral,Aquisição de serviços,"79000000-4, Serviços a empresas: direito, comercialização, consultoria, recrutamento, impressão e segurança","Hospital de Santo Espírito da Ilha Terceira, E. P. E. R. (512105030)","Codimensagem - Codificação e Auditoria Clínica, Unipessoal, Lda. (507600908)","24.960,00 €",16-08-2016,12-08-2016,365 dias,"Portugal, Região Autónoma dos Açores, Angra do Heroismo","Artigo 20.º, alínea a) do Decreto Legislativo Regional n.º 27/2015/A, de 29.12","","",,,,Não aplicável.,Não aplicável.,FALSE
Aquisição serviços consultoria,Ajuste Direto Regime Geral,Aquisição de serviços,"72246000-1, Serviços de consultoria em matéria de sistemas","Administração Central do Sistema de Saúde, I.P. (508188423)","Codimensagem - Codificação e Auditoria Clinica Unipessoal, Lda (507600908)","25.000,00 €",05-03-2013,31-01-2013,365 dias,"Portugal, Lisboa, Lisboa","Artigo 20.º, n.º 1, alínea a) do Código dos Contratos Públicos",30-01-2014,"25.000,00 €",,,,Não aplicável.,Não aplicável.,
Aquisição de Serviços de Consultoria Especializada em Formação em CID-9-MC e apoio à exploração da base de dados dos GDH.,Ajuste Direto Regime Geral,Aquisição de serviços,"72221000-0, Serviços de consultoria em matéria de análise de gestão","Administração Central do Sistema de Saúde, I.P. (508188423)","Codimensagem - Codificação e Auditoria Clinica Unipessoal, Lda (507600908)","26.982,00 €",24-10-2011,16-09-2011,365 dias,"Portugal, Lisboa, Lisboa","Artigo 20.º, n.º 1, alínea a) do Código dos Contratos Públicos",16-09-2012,"26.982,00 €",,,,Não aplicável.,Não aplicável.,
Aquisição de ser4viços - Formação em CID-9MC e apoio à exploração da Base de Dados de GDH,Ajuste Direto Regime Geral,Aquisição de serviços,"79632000-3, Serviços de formação de pessoal","Administração Central do Sistema de Saúde, I.P. (508188423)","Codimensagem - Codificação e Auditoria Clinica Unipessoal, Lda (507600908)","28.550,00 €",15-04-2011,01-03-2010,365 dias,"Portugal, Lisboa, Lisboa","Artigo 20.º, n.º 1, alínea a) do Código dos Contratos Públicos",01-03-2011,"28.550,00 €",,,,Não aplicável.,Não aplicável.,
Serviços de auditorias externas da codificação por GDH’S,Ajuste Direto Regime Geral,"","",Hospital de Joaquim Urbano (501639365),"Codimensagem – Codificação e Auditoria Clínica Unipessoal, Lda (507600908)","5.145,00 €",20-03-2009,"",214 dias,"",Não Preenchido,"","",,,,Não aplicável.,Não aplicável.,
