Objeto do Contrato,Tipo de Procedimento,Tipo(s) de Contrato,CPVs,Entidade(s) Adjudicante(s),Entidade(s) Adjudicatária(s),Preço Contratual,Data de Publicação,Data de Celebração do Contrato,Prazo de Execução,Local de Execução,Fundamentação,Data de Fecho do Contrato,Preço Total Efetivo,Causas das Alterações ao Prazo,Causas das Alterações ao Preço,Estado,N.º registo do Acordo Quadro,Descrição do Acordo Quadro,Procedimento Centralizado
"Prestação de Serviços Médicos na UCI do HDJMG, na ULSNA, EPE (Período máximo janeiro a dezembro de 2018)",Ajuste Direto Regime Geral,Aquisição de serviços,"85100000-0, Serviços de saúde","Unidade Local de Saúde do Norte Alentejano, E. P. E. (508094461)","Begin Future, Lda (508738300)","20.160,00 €",29-05-2018,18-05-2018,360 dias,"Portugal, Portalegre","Artigo 24.º, n.º 1, alínea c) do Código dos Contratos Públicos","","",,,,Não aplicável.,Não aplicável.,FALSE
"Prestação Serviços Médicos, na UCI, na ULSNA, EPE (Abril a Dezembro de 2017)",Ajuste Direto Regime Geral,Aquisição de serviços,"85100000-0, Serviços de saúde","Unidade Local de Saúde do Norte Alentejano, E. P. E. (508094461)","Begin Future, Lda (508738300)","15.120,00 €",20-07-2017,29-05-2017,275 dias,"Portugal, Portalegre, Portalegre","Artigo 24.º, n.º 1, alínea c) do Código dos Contratos Públicos",29-05-2017,"15.120,00 €",,,,Não aplicável.,Não aplicável.,FALSE
"Prestação de Serviços Médicos na UCI, na ULSNA, EPE (Janeiro a Março de 2017)",Ajuste Direto Regime Geral,Aquisição de serviços,"85100000-0, Serviços de saúde","Unidade Local de Saúde do Norte Alentejano, E. P. E. (508094461)","Begin Future, Lda (508738300)","5.040,00 €",17-02-2017,03-01-2017,90 dias,"Portugal, Portalegre, Portalegre","Artigo 24.º, n.º 1, alínea c) do Código dos Contratos Públicos",03-01-2017,"5.040,00 €",,,,Não aplicável.,Não aplicável.,FALSE
Prestação de Serviços Médicos na Área da Medicina Interna 37009716- horas,Ajuste Direto Regime Geral,Aquisição de serviços,"85100000-0, Serviços de saúde","Centro Hospitalar do Médio Tejo, E. P. E. (506361608)","BEGIN FUTURE UNIPESSOAL, LDA (508738300)","36.960,00 €",07-11-2016,28-07-2016,90 dias,"Portugal, Santarém, Torres Novas","Artigo 24.º, n.º 1, alínea c) do Código dos Contratos Públicos","","",,,,Não aplicável.,Não aplicável.,FALSE
Prestação Serviços Médicos na Área da Medicina Interna 37014716 (abril a dez),Ajuste Direto Regime Geral,Aquisição de serviços,"85100000-0, Serviços de saúde","Centro Hospitalar do Médio Tejo, E. P. E. (506361608)","BEGIN FUTURE - UNIPESSOAL, LDA (508738300)","98.000,00 €",04-11-2016,28-07-2016,270 dias,"Portugal, Santarém, Torres Novas","Artigo 24.º, n.º 1, alínea c) do Código dos Contratos Públicos","","",,,,Não aplicável.,Não aplicável.,FALSE
"Prestação de serviços médicos, na UCI, da ULSNA, EPE (Março a Junho de 2016)",Ajuste Direto Regime Geral,Aquisição de serviços,"85100000-0, Serviços de saúde","Unidade Local de Saúde do Norte Alentejano, E. P. E. (508094461)","Begin Future, Lda (508738300)","14.400,00 €",11-05-2016,12-04-2016,306 dias,"Portugal, Portalegre, Portalegre","Artigo 24.º, n.º 1, alínea b) do Código dos Contratos Públicos",12-04-2016,"14.400,00 €",,,,Não aplicável.,Não aplicável.,FALSE
"Prestação de Serviços Médicos na UCI do HDJMG, na ULSNA, EPE (Ano de 2015)",Ajuste Direto Regime Geral,Aquisição de serviços,"85100000-0, Serviços de saúde","Unidade Local de Saúde do Norte Alentejano, E. P. E. (508094461)","Begin Future, Lda (508738300)","18.876,00 €",20-02-2015,10-02-2015,365 dias,"Portugal, Portalegre, Portalegre","Artigo 24.º, n.º 1, alínea c) do Código dos Contratos Públicos",10-02-2015,"18.876,00 €",,,,Não aplicável.,Não aplicável.,FALSE
Prestação de Serviços Médicos na UCI do HDJMG,Ajuste Direto Regime Geral,Aquisição de serviços,"85100000-0, Serviços de saúde","Unidade Local de Saúde do Norte Alentejano, E. P. E. (508094461)","Begin Future, Lda. (508738300)","15.048,00 €",27-06-2014,05-05-2014,334 dias,"Portugal, Portalegre, Portalegre","Artigo 24.º, n.º 1, alínea c) do Código dos Contratos Públicos",05-05-2014,"15.048,00 €",,,,Não aplicável.,Não aplicável.,FALSE
