Objeto do Contrato,Tipo de Procedimento,Tipo(s) de Contrato,CPVs,Entidade(s) Adjudicante(s),Entidade(s) Adjudicatária(s),Preço Contratual,Data de Publicação,Data de Celebração do Contrato,Prazo de Execução,Local de Execução,Fundamentação,Data de Fecho do Contrato,Preço Total Efetivo,Causas das Alterações ao Prazo,Causas das Alterações ao Preço,Estado,N.º registo do Acordo Quadro,Descrição do Acordo Quadro,Procedimento Centralizado
Serviços Médicos - Triagem Geral - 37013818,Consulta Prévia,Aquisição de serviços,"85100000-0, Serviços de saúde","Centro Hospitalar do Médio Tejo, E. P. E. (506361608)","Zamudio Ariza e Gonzalez, Lda  (513071229)","17.600,00 €",28-06-2018,23-05-2018,365 dias,"Portugal, Santarém, Abrantes","Artigo 20.º, n.º 1, alínea c) do Código dos Contratos Públicos","","",,,,Não aplicável.,Não aplicável.,FALSE
37013917-Prestaçao Serviços Médicos na Área Triagem Geral (jan a dez),Ajuste Direto Regime Geral,Aquisição de serviços,"85100000-0, Serviços de saúde","Centro Hospitalar do Médio Tejo, E. P. E. (506361608)","Zamudio Ariza e Gonzalez, Lda  (513071229)","31.000,00 €",05-09-2017,29-12-2016,360 dias,"Portugal, Santarém, Torres Novas","Artigo 20.º, n.º 1, alínea a) do Código dos Contratos Públicos","","",,,,Não aplicável.,Não aplicável.,FALSE
"Prestação de Serviços Médicos na Triagem Pediátrica do HDJMG, na ULSNA, EPE (Ano 2017)",Ajuste Direto Regime Geral,Aquisição de serviços,"85100000-0, Serviços de saúde","Unidade Local de Saúde do Norte Alentejano, E. P. E. (508094461)","Zamudio, Ariza e Gonalez, Lda (513071229)","146.000,00 €",17-02-2017,14-12-2016,365 dias,"Portugal, Portalegre, Portalegre","Artigo 27.º, n.º 1, alínea a) do Código dos Contratos Públicos",14-12-2016,"146.000,00 €",,,,Não aplicável.,Não aplicável.,FALSE
Prestação de Serviços Médicos na Triagem do SU do HDJMG,Concurso público,Aquisição de serviços,"85100000-0, Serviços de saúde","Unidade Local de Saúde do Norte Alentejano, E. P. E. (508094461)","Zamudio, Ariza e Gonzalez, Lda. (513071229)","122.000,00 €",29-02-2016,26-02-2016,306 dias,"Portugal, Portalegre, Portalegre","Artigo 20.º, n.º 1, alínea b) do Código dos Contratos Públicos",29-02-2016,"122.000,00 €",,,,Não aplicável.,Não aplicável.,FALSE
"Prestação de Serviços Médicos na triagem Pediátrica do HDJMG, na ULSNA, EPE (Janeiro e Fevereiro de 2016)",Ajuste Direto Regime Geral,Aquisição de serviços,"85100000-0, Serviços de saúde","Unidade Local de Saúde do Norte Alentejano, E. P. E. (508094461)","Zamudio, Ariza e Gonzalez Lda (513071229)","24.000,00 €",11-02-2016,20-01-2016,60 dias,"Portugal, Portalegre, Portalegre","Artigo 24.º, n.º 1, alínea c) do Código dos Contratos Públicos",20-01-2016,"24.000,00 €",,,,Não aplicável.,Não aplicável.,FALSE
