Objeto do Contrato,Tipo de Procedimento,Tipo(s) de Contrato,CPVs,Entidade(s) Adjudicante(s),Entidade(s) Adjudicatária(s),Preço Contratual,Data de Publicação,Data de Celebração do Contrato,Prazo de Execução,Local de Execução,Fundamentação,Data de Fecho do Contrato,Preço Total Efetivo,Causas das Alterações ao Prazo,Causas das Alterações ao Preço,Estado,N.º registo do Acordo Quadro,Descrição do Acordo Quadro,Procedimento Centralizado
Aquisição de serviços de médica codificadora/auditora para avaliação de processos clínicos no âmbito do SIGIC.,Ajuste Direto Regime Geral,Aquisição de serviços,"98390000-3, Outros serviços",Adm.Reg.de Saúde de Lisboa e Vale do Tejo (ARSLVT) (503148776),Maria Filomena Dias de Almeida (109557255),"10.800,00 €",18-02-2019,31-01-2019,365 dias,"Portugal, Lisboa, Lisboa","Artigo 20.º, n.º 1, alínea d) do Código dos Contratos Públicos","","",,"",,Não aplicável.,Não aplicável.,FALSE
Aquisição de Serviços de auditoria da codificação clínica.,Consulta Prévia,Aquisição de serviços,"71319000-7, Serviços de consultoria de peritos","Administração Central do Sistema de Saúde, I. P. (508188423)",Maria Filomena Dias Almeida S. Viegas (109557255),"963,00 €",24-10-2018,17-10-2018,76 dias,"Portugal, Lisboa, Lisboa","Artigo 20.º, n.º 1, alínea c) do Código dos Contratos Públicos",31-12-2018,"642,00 €",,Valor faturado,,Não aplicável.,Não aplicável.,FALSE
Aquisição de serviços de médica codificadora para avaliação de processos clínicos no âmbito do SIGIC,Ajuste Direto Regime Geral,Aquisição de serviços,"75122000-7, Serviços administrativos na área da saúde","Administração Regional de Saúde de Lisboa e Vale do Tejo, I. P. (503148776)",MARIA FILOMENA DIAS DE ALMEIDA (109557255),"10.000,00 €",19-04-2018,09-04-2018,365 dias,"Portugal, Lisboa, Lisboa","Artigo 20.º, n.º 1, alínea a) do Código dos Contratos Públicos","","",,"",,Não aplicável.,Não aplicável.,FALSE
Contratação de médica codificadora para avaliação de processos clínicos no âmbito do SIGIC.,Ajuste Direto Regime Geral,Aquisição de serviços,"98390000-3, Outros serviços","Administração Regional de Saúde de Lisboa e Vale do Tejo, I. P. (503148776)",MARIA FILOMENA DIAS DE ALMEIDA (109557255),"10.000,00 €",24-05-2017,17-05-2017,365 dias,"Portugal, Lisboa","Artigo 20.º, n.º 1, alínea a) do Código dos Contratos Públicos","","",,"",,Não aplicável.,Não aplicável.,FALSE
