Objeto do Contrato,Tipo de Procedimento,Tipo(s) de Contrato,CPVs,Entidade(s) Adjudicante(s),Entidade(s) Adjudicatária(s),Preço Contratual,Data de Publicação,Data de Celebração do Contrato,Prazo de Execução,Local de Execução,Fundamentação,Data de Fecho do Contrato,Preço Total Efetivo,Causas das Alterações ao Prazo,Causas das Alterações ao Preço,Estado,N.º registo do Acordo Quadro,Descrição do Acordo Quadro,Procedimento Centralizado
Serviços medicos de anestesiologia,Ajuste Direto Regime Geral,Aquisição de serviços,"79620000-6, Serviços de fornecimento de pessoal, inclusive temporário",Hospital Dr. Francisco Zagalo (501510150),Joana Catarina Monteiro da Costa (226911691),"2.100,00 €",19-09-2014,04-09-2014,30 dias,"Portugal, Aveiro, Ovar","Artigo 20.º, n.º 1, alínea a) do Código dos Contratos Públicos",30-09-2014,"945,00 €",,serviços efectuados abaixo do previsto,,Não aplicável.,Não aplicável.,FALSE
serviços medicos de anestesiologia,Ajuste Direto Regime Geral,Aquisição de serviços,"85141000-9, Serviços prestados pelo pessoal médico",Hospital Dr. Francisco Zagalo (501510150),Joana Catarina Monteiro da Costa (226911691),"9.000,00 €",09-07-2014,02-07-2014,120 dias,"Portugal, Aveiro, Ovar","Artigo 20.º, n.º 1, alínea a) do Código dos Contratos Públicos",31-07-2014,"8.400,00 €",,serviços efectuados abaixo do previsto,,Não aplicável.,Não aplicável.,FALSE
Serviços medicos de anestesiologia,Ajuste Direto Regime Geral,Aquisição de serviços,"85100000-0, Serviços de saúde",Hospital Dr. Francisco Zagalo (501510150),Joana Catarina Monteiro da Costa (226911691),"3.240,00 €",04-07-2014,21-04-2014,60 dias,"Portugal, Aveiro, Ovar","Artigo 20.º, n.º 1, alínea a) do Código dos Contratos Públicos",30-04-2014,"3.240,00 €",,"",,Não aplicável.,Não aplicável.,FALSE
