Objeto do Contrato,Tipo de Procedimento,Tipo(s) de Contrato,CPVs,Entidade(s) Adjudicante(s),Entidade(s) Adjudicatária(s),Preço Contratual,Data de Publicação,Data de Celebração do Contrato,Prazo de Execução,Local de Execução,Fundamentação,Data de Fecho do Contrato,Preço Total Efetivo,Causas das Alterações ao Prazo,Causas das Alterações ao Preço,Estado,N.º registo do Acordo Quadro,Descrição do Acordo Quadro,Procedimento Centralizado
Prestação de Serviços de Médicos de Urgencia Geral,Ajuste Direto Regime Geral,Aquisição de serviços,"85121000-3, Serviços de prática médica","Centro Hospitalar Universitário do Algarve, E. P. E. (510745997)","José Becerra, Unipessoal Lda (513958851)","14.040,00 €",15-03-2018,09-01-2018,90 dias,"Portugal, Faro, Lagos<BR/>Portugal, Faro, Portimão","Artigo 24.º, n.º 1, alínea e) do Código dos Contratos Públicos",31-12-2018,"47.910,00 €",,"Solicita-se redução de cabimento no valor de  € 526,32 referente a carga horaria contratualizada não prestada na totalidade.  De acordo com as necessidades efectivas no ano 2018 ",,Não aplicável.,Não aplicável.,FALSE
"Serviços médicos de Urgência Geral e Básica, Cuidados Intensivos e Intermédios e Sala de Reanimação, Decisão Clinica, Departamento de Emergência",Ajuste Direto Regime Geral,Aquisição de serviços,"85121100-4, Serviços de médicos de clínica geral","Centro Hospitalar do Algarve, E. P. E. (510745997)","José Becerra Unipessoal, Lda (513958851)","18.720,00 €",07-09-2017,24-07-2017,180 dias,"Portugal, Faro, Portimão","Artigo 24.º, n.º 1, alínea e) do Código dos Contratos Públicos",31-12-2017,"18.840,00 €",,"O valor inicial do Contrato teve por base as necessidades estimadas para o período de 1 julho de 2017 a 31 dezembro de 2017, o valor final reflecte as necessidades efectivas.",,Não aplicável.,Não aplicável.,FALSE
Serviços Médicos Urgência Geral e Básica,Ajuste Direto Regime Geral,Aquisição de serviços,"85121100-4, Serviços de médicos de clínica geral","Centro Hospitalar do Algarve, E. P. E. (510745997)","José Becerra Unipessoal, Lda (513958851)","37.440,00 €",21-02-2017,30-01-2017,180 dias,"Portugal, Faro, Lagos<BR/>Portugal, Faro, Portimão<BR/>Portugal, Faro, Faro","Artigo 24.º, n.º 1, alínea e) do Código dos Contratos Públicos",30-06-2017,"31.545,00 €",,"O valor inicial do Contrato teve por base as necessidades estimadas para o período de 1 Janeiro de 2017 a 30 Junho de 2017, o valor final reflecte as necessidades efectivas.",,Não aplicável.,Não aplicável.,FALSE
Serviços médicos urgência geral e básica,Ajuste Direto Regime Geral,Aquisição de serviços,"85121100-4, Serviços de médicos de clínica geral","Centro Hospitalar do Algarve, E. P. E. (510745997)","José Becerra Unipessoal, Lda (513958851)","46.800,00 €",29-07-2016,25-07-2016,180 dias,"Portugal, Faro, Faro<BR/>Portugal, Faro, Loulé<BR/>Portugal, Faro, Albufeira<BR/>Portugal, Faro, Lagos<BR/>Portugal, Faro, Portimão","Artigo 24.º, n.º 1, alínea c) do Código dos Contratos Públicos",31-12-2016,"39.675,00 €",,"O valor inicial do Contrato teve por base as necessidades estimadas para o período de 1 Julho de 2016 a 31 Dezembro de 2016, o valor final reflecte as necessidades efectivas.",,Não aplicável.,Não aplicável.,FALSE
