Objeto do Contrato,Tipo de Procedimento,Tipo(s) de Contrato,CPVs,Entidade(s) Adjudicante(s),Entidade(s) Adjudicatária(s),Preço Contratual,Data de Publicação,Data de Celebração do Contrato,Prazo de Execução,Local de Execução,Fundamentação,Data de Fecho do Contrato,Preço Total Efetivo,Causas das Alterações ao Prazo,Causas das Alterações ao Preço,Estado,N.º registo do Acordo Quadro,Descrição do Acordo Quadro,Procedimento Centralizado
Têxteis Hospitalares,Consulta Prévia,Aquisição de bens móveis,"18100000-0, Vestuário profissional, vestuário de trabalho especial e acessórios","Instituto Português de Oncologia do Porto Francisco Gentil, E. P. E. (506362299)","MEILEX, LDA (501759441)","7.742,15 €",19-03-2019,08-02-2019,30 dias,"Portugal, Porto, Porto","Artigo 20.º, n.º 1, alínea c) do Código dos Contratos Públicos","","","","",,Não aplicável.,Não aplicável.,FALSE
40050/2018 - ROUPA HOSPITALAR (40104/2017) TRANSITOU P/ANO 2018,Ajuste Direto Regime Geral,Aquisição de bens móveis,"39518000-6, Roupa para uso hospitalar","Centro Hospitalar Barreiro Montijo, E. P. E. (509186998)","MEILEX, LDA (501759441)","8.889,00 €",11-03-2019,01-01-2018,365 dias,"Portugal, Setúbal, Barreiro","Artigo 20.º, n.º 1, alínea a) do Código dos Contratos Públicos",31-12-2018,"8.889,00 €","","",,Não aplicável.,Não aplicável.,FALSE
Aquisição urgente de Roupa Hospitalar,Ajuste Direto Regime Geral,Aquisição de bens móveis,"39518000-6, Roupa para uso hospitalar",SUCH | Serviço de Utilização Comum dos Hospitais (500900469),"MEILEX, LDA (501759441)","93.610,80 €",27-02-2019,08-01-2019,30 dias,Portugal,"Artigo 24.º, n.º 1, alínea c) do Código dos Contratos Públicos","","","","",,Não aplicável.,Não aplicável.,FALSE
Aquisição de Campos Operatórios e outro material de consumo clínico,Concurso público,Aquisição de bens móveis,"33140000-3, Material médico de consumo","Centro Hospitalar Universitário do Algarve, E. P. E. (510745997)","MEILEX, LDA (501759441)","30.078,00 €",08-02-2019,08-02-2019,326 dias,"Portugal, Faro, Faro<BR/>Portugal, Faro, Lagos<BR/>Portugal, Faro, Portimão","Artigo 20.º, n.º 1, alínea b) do Código dos Contratos Públicos","","","","",,Não aplicável.,Não aplicável.,FALSE
Aquisição de material de consumo clínico diverso,Ajuste Direto Regime Geral,Aquisição de bens móveis,"33140000-3, Material médico de consumo",Hospital Dr. Francisco Zagalo - Ovar (501510150),"Meilex, Lda (501759441)","576,00 €",04-02-2019,24-01-2019,336 dias,"Portugal, Aveiro, Ovar","Artigo 20.º, n.º 1, alínea d) do Código dos Contratos Públicos","","","","",,Não aplicável.,Não aplicável.,FALSE
Material de Higiene e Proteção para o ano de 2019,Concurso público,Aquisição de bens móveis,"33100000-1, Equipamento médico","Centro Hospitalar do Tâmega e Sousa, E.P.E. (508318262)","Meilex, Lda (501759441)","9.492,28 €",31-01-2019,14-01-2019,365 dias,"Portugal<BR/>Portugal, Porto, Amarante<BR/>Portugal, Porto, Penafiel","Artigo 20.º, n.º 1, alínea b) do Código dos Contratos Públicos","","","","",,Não aplicável.,Não aplicável.,FALSE
Consumo clínico diverso,Ajuste Direto Regime Geral,Aquisição de bens móveis,"33140000-3, Material médico de consumo",Hospital Dr. Francisco Zagalo - Ovar (501510150),"Meilex, Lda (501759441)","1.116,00 €",25-01-2019,31-01-2018,360 dias,"Portugal, Aveiro, Ovar","Artigo 20.º, n.º 1, alínea d) do Código dos Contratos Públicos",28-12-2018,"1.332,00 €","",Aquisição superior à quantidade prevista,,Não aplicável.,Não aplicável.,FALSE
"CP n.º 194A000003 - Aquisição de roupa hospitalar de cama pelo CHULN, durante o ano de 2019.",Concurso público,Aquisição de bens móveis,"39512000-4, Roupa de cama","Centro Hospitalar Universitário de Lisboa Norte, E. P. E. (508481287)","Meilex, Lda (501759441)","133.585,00 €",22-01-2019,09-01-2019,365 dias,"Portugal, Lisboa, Lisboa","Artigo 20.º, n.º 1, alínea b) do Código dos Contratos Públicos","","","","",,Não aplicável.,Não aplicável.,FALSE
"CP n.º 194A000001 - Aquisição de roupa hospitalar de doentes pelo CHULN, E.P.E., durante o ano de 2019",Concurso público,Aquisição de bens móveis,"39518000-6, Roupa para uso hospitalar","Centro Hospitalar Universitário de Lisboa Norte, E. P. E. (508481287)","Meilex, Lda (501759441)","2.900,00 €",14-01-2019,14-01-2019,365 dias,"Portugal, Lisboa, Lisboa","Artigo 20.º, n.º 1, alínea b) do Código dos Contratos Públicos","","","","",,Não aplicável.,Não aplicável.,FALSE
Aquisição de Colchões e Capas,Consulta Prévia,Aquisição de bens móveis,"39143112-4, Colchões","Hospital Distrital de Santarém, EPE (506361462)","Meilex, Lda (501759441)","4.118,40 €",11-01-2019,21-12-2018,360 dias,"Portugal, Santarém, Santarém<BR/>Portugal","Artigo 20.º, n.º 1, alínea c) do Código dos Contratos Públicos","","","","",,Não aplicável.,Não aplicável.,FALSE
Aquisição de almofadas durante o ano de 2019,Consulta Prévia,Aquisição de bens móveis,"39516110-6, Almofadas","Centro Hospitalar Universitário de Lisboa Norte, E. P. E. (508481287)","MEILEX, LDA (501759441)","1.425,10 €",07-01-2019,07-01-2019,358 dias,"Portugal, Lisboa, Lisboa","Artigo 20.º, n.º 1, alínea c) do Código dos Contratos Públicos","","","","",,Não aplicável.,Não aplicável.,FALSE
"A0978/2018- Aquisição de colchão individual, espuma c/ duas capas.",Concurso público,Aquisição de bens móveis,"39143112-4, Colchões",Estado-Maior do Exército (600021610),MEILEX LDA (501759441),"10.995,00 €",14-12-2018,30-11-2018,45 dias,"Portugal, Lisboa, Lisboa<BR/>Portugal","Artigo 1.1 da Portaria n.º 766/84, de 27.09","","","","",,Não aplicável.,Não aplicável.,FALSE
Aquisição de Artigos Hoteleiros II,Ajuste Direto Regime Geral,Aquisição de bens móveis,"33700000-7, Produtos para cuidados pessoais","Centro Hospitalar Cova da Beira, EPE (506361659)",MEILEX LDA (501759441),"162,45 €",05-12-2018,26-10-2018,60 dias,"Portugal, Castelo Branco, Covilhã","Artigo 20.º, n.º 1, alínea a) do Código dos Contratos Públicos","","","","",,Não aplicável.,Não aplicável.,FALSE
Aquisição de almofadas durante o ano 2018,Ajuste Direto Regime Geral,Aquisição de bens móveis,"39516110-6, Almofadas","Centro Hospitalar Lisboa Norte, E. P. E. (508481287)",MEILEX LDA (501759441),"3.480,80 €",04-12-2018,21-03-2018,285 dias,"Portugal, Lisboa, Lisboa","Artigo 20.º, n.º 1, alínea d) do Código dos Contratos Públicos","","","","",,Não aplicável.,Não aplicável.,FALSE
Material diverso de Higiene e Proteção para o ano de 2018,Consulta Prévia,Aquisição de bens móveis,"33100000-1, Equipamento médico","Centro Hospitalar do Tâmega e Sousa, E. P. E. (508318262)",MEILEX LDA (501759441),"6.120,00 €",28-11-2018,09-05-2018,164 dias,"Portugal, Porto, Amarante<BR/>Portugal, Porto, Penafiel","Artigo 20.º, n.º 1, alínea c) do Código dos Contratos Públicos","","","","",,Não aplicável.,Não aplicável.,FALSE
CP:CPI/2018/02,Concurso público,Aquisição de bens móveis,"19200000-8, Tecidos têxteis e artigos afins",Direção-Geral de Reinserção e Serviços Prisionais (600085171),MEILEX LDA (501759441),"3.920,40 €",23-11-2018,17-09-2018,60 dias,Portugal,"Artigo 20.º, n.º 1, alínea a) do Código dos Contratos Públicos","","","","",,Não aplicável.,Não aplicável.,FALSE
Material de Consumo Hoteleiro,Ajuste Direto Regime Geral,Aquisição de bens móveis,"33000000-0, Equipamento médico, medicamentos e produtos para cuidados pessoais","Instituto Português de Oncologia de Coimbra Francisco Gentil, E. P. E. (506361438)",MEILEX LDA (501759441),"300,30 €",26-10-2018,12-01-2018,365 dias,"Portugal, Coimbra, Coimbra","Artigo 20.º, n.º 1, alínea a) do Código dos Contratos Públicos",30-11-2018,"172,32 €","",fornecimento ajustado ás necessidades reais.,,Não aplicável.,Não aplicável.,FALSE
AD1726-2018-FARDAMENTOS HOSPITALARES,Ajuste Direto Regime Geral,Aquisição de bens móveis,"18100000-0, Vestuário profissional, vestuário de trabalho especial e acessórios","Instituto Português de Oncologia de Lisboa Francisco Gentil, E. P. E. (506361616)",MEILEX LDA (501759441),"39.231,72 €",24-10-2018,26-07-2018,30 dias,"Portugal, Lisboa, Lisboa","Artigo 20.º, n.º 1, alínea a) do Código dos Contratos Públicos","","","","",,Não aplicável.,Não aplicável.,FALSE
Aquisição Material de Consumo Hoteleiro para a DGRSP para o Ano de 2018,Consulta Prévia,Aquisição de bens móveis,"19200000-8, Tecidos têxteis e artigos afins",Direção-Geral de Reinserção e Serviços Prisionais (600085171),"MEILEX, LDA (501759441)","3.920,40 €",23-10-2018,17-09-2018,30 dias,Portugal,"Artigo 32.º, n.º 2 do Código dos Contratos Públicos","","","","",,Não aplicável.,Não aplicável.,FALSE
"Toalhetes de  espuma para lavar doentes 0,310 x 0,02 x 0,005 ",Consulta Prévia,Aquisição de bens móveis,"33700000-7, Produtos para cuidados pessoais","Centro Hospitalar Vila Nova de Gaia - Espinho, E. P. E. (508142156)","MEILEX, LDA (501759441)","16.381,20 €",04-10-2018,21-09-2018,66 dias,"Portugal, Porto, Vila Nova de Gaia","Artigo 20.º, n.º 1, alínea c) do Código dos Contratos Públicos","","","","",,Não aplicável.,Não aplicável.,FALSE
AQUISIÇÃO DE DIVERSAS TIPOLOGIAS DE ROUPA HOSPITALAR LOTE 2 – ROUPA DE DOENTE,Concurso público,Aquisição de bens móveis,"18100000-0, Vestuário profissional, vestuário de trabalho especial e acessórios",SUCH | Serviço de Utilização Comum dos Hospitais (500900469),"MEILEX, LDA (501759441)","229.817,50 €",06-09-2018,16-05-2018,365 dias,Portugal,"Artigo 20.º, n.º 1, alínea b) do Código dos Contratos Públicos","","","","",,Não aplicável.,Não aplicável.,FALSE
184G000012 - Aquisição de Material  de Limpeza para o ano de 2018,Ajuste Direto Regime Geral,Aquisição de bens móveis,"39224000-8, Vassouras, escovas e outros artigos de vários tipos","Centro Hospitalar Lisboa Norte, E. P. E. (508481287)","MEILEX, LDA (501759441)","1.047,36 €",03-07-2018,03-07-2018,181 dias,"Portugal, Lisboa, Lisboa","Artigo 20.º, n.º 1, alínea a) do Código dos Contratos Públicos","","","","",,Não aplicável.,Não aplicável.,FALSE
Aquisição de material de uso de doentes,Ajuste Direto Regime Geral,Aquisição de bens móveis,"33700000-7, Produtos para cuidados pessoais","Centro Hospitalar de Entre o Douro e Vouga, E.P.E. (508878462)","MEILEX, LDA (501759441)","13.073,06 €",26-06-2018,03-01-2018,180 dias,"Portugal, Aveiro, Santa Maria da Feira","Artigo 20.º, n.º 1, alínea a) do Código dos Contratos Públicos","","","","",,Não aplicável.,Não aplicável.,FALSE
Aquisição de Artigos Hoteleiros,Consulta Prévia,Aquisição de bens móveis,"33700000-7, Produtos para cuidados pessoais","Centro Hospitalar Cova da Beira, E. P. E. (506361659)","MEILEX, LDA (501759441)","14.784,00 €",13-06-2018,18-05-2018,240 dias,"Portugal, Castelo Branco, Covilhã","Artigo 20.º, n.º 1, alínea c) do Código dos Contratos Públicos","","","","",,Não aplicável.,Não aplicável.,FALSE
1BAD20180143 - AQUISIÇÃO DE PANOS DE LIMPEZA,Ajuste Direto Regime Geral,Aquisição de bens móveis,"33190000-8, Dispositivos e produtos médicos variados","Serviço de Saúde da Região Autónoma da Madeira, E. P. E. (511228848)","MEILEX,LDA (501759441)","10.092,00 €",29-05-2018,15-02-2018,319 dias,"Portugal, Região Autónoma da Madeira, Funchal","Artigo 20.º, n.º 1, alínea a) do Código dos Contratos Públicos e artigo 4.º, nº 1 do DLR nº 34/2008/M, de 14.08","","","","",,Não aplicável.,Não aplicável.,FALSE
14/00139.04/2018 Aquisição de Material dfe Uso de Doentes,Ajuste Direto Regime Geral,Aquisição de bens móveis,"33700000-7, Produtos para cuidados pessoais","Centro Hospitalar de Entre o Douro e Vouga, E.P.E. (508878462)","MEILEX, LDA (501759441)","13.073,06 €",22-05-2018,03-01-2018,181 dias,"Portugal, Aveiro, Oliveira de Azemeis","Artigo 20.º, n.º 1, alínea a) do Código dos Contratos Públicos","","","","",,Não aplicável.,Não aplicável.,FALSE
"AQUISIÇÃO DE ESPONJAS PARA HIGIENE, PARA O CHTMAD, E.P.E.",Ajuste Direto Regime Geral,Aquisição de bens móveis,"39224320-7, Esponjas","Centro Hospitalar de Trás-os-Montes e Alto Douro, EPE (508100496)","MEILEX, LDA (501759441)","12.629,00 €",22-05-2018,14-02-2017,365 dias,"Portugal, Vila Real, Vila Real","Artigo 20.º, n.º 1, alínea a) do Código dos Contratos Públicos",12-12-2017,"12.629,00 €",Não aplicável,Não aplicável,,Não aplicável.,Não aplicável.,FALSE
Aquisição de Têxteis Hospitalares,Ajuste Direto Regime Geral,Aquisição de bens móveis,"18100000-0, Vestuário profissional, vestuário de trabalho especial e acessórios","Unidade Local de Saúde de Matosinhos, EPE. (506361390)","MEILEX, LDA (501759441)","27.101,20 €",19-05-2018,15-02-2017,319 dias,"Portugal, Porto, Matosinhos","Artigo 20.º, n.º 1, alínea a) do Código dos Contratos Públicos","","","","",,Não aplicável.,Não aplicável.,FALSE
Fornecimento de têxteis hospitalares,Ajuste Direto Regime Geral,Aquisição de bens móveis,"18100000-0, Vestuário profissional, vestuário de trabalho especial e acessórios","Unidade Local de Saúde de Matosinhos, EPE (ULSM) (506361390)","MEILEX, LDA (501759441)","39.908,60 €",17-05-2018,04-04-2018,61 dias,"Portugal, Porto, Matosinhos","Artigo 20.º, n.º 1, alínea a) do Código dos Contratos Públicos","","","","",,Não aplicável.,Não aplicável.,FALSE
"ICP20180006 - ROUPAS CONFECCIONADAS, CAMISAS, PIJAMAS, ROUPAS DE CAMA E ATOALHADOS",Concurso público,Aquisição de bens móveis,"39518000-6, Roupa para uso hospitalar","Serviço de Saúde da Região Autónoma da Madeira, E. P. E. (511228848)","MEILEX, LDA (501759441)","312.888,23 €",09-05-2018,08-05-2018,365 dias,"Portugal, Região Autónoma da Madeira, Funchal","Artigo 20.º, n.º 1, alínea b) do Código dos Contratos Públicos","","","","",,Não aplicável.,Não aplicável.,FALSE
Toalhas de mãos de papel,Concurso público,Aquisição de bens móveis,"33763000-6, Toalhas de mão de papel","Centro Hospitalar e Universitário de Coimbra, E.P. (510103448)","MEILEX, LDA (501759441)","125.901,50 €",02-05-2018,06-04-2018,300 dias,"Portugal, Coimbra, Coimbra","Artigo 20.º, n.º 1, alínea b) do Código dos Contratos Públicos","","","","",,Não aplicável.,Não aplicável.,FALSE
COLCHAS,Ajuste Direto Regime Geral,Aquisição de bens móveis,"39518000-6, Roupa para uso hospitalar","Centro Hospitalar Tondela-Viseu, E. P. E. (509822940)","MEILEX, LDA (501759441)","13.340,00 €",02-05-2018,18-04-2018,25 dias,"Portugal, Viseu, Viseu",Artigo 258.º do Código dos Contratos Públicos,"","","","",,Não aplicável.,Não aplicável.,FALSE
Batas de proteção e fardas verde-claro,Concurso público,Aquisição de bens móveis,"39518000-6, Roupa para uso hospitalar","Centro Hospitalar e Universitário de Coimbra, E. P. E. (510103448)","MEILEX, LDA (501759441)","64.392,50 €",05-04-2018,01-03-2018,270 dias,"Portugal, Coimbra, Coimbra","Artigo 20.º, n.º 1, alínea b) do Código dos Contratos Públicos",31-12-2018,"64.392,50 €","","",,Não aplicável.,Não aplicável.,FALSE
Roupa para doentes,Concurso público,Aquisição de bens móveis,"18318100-2, Camisas de dormir<BR/>18300000-2, Peças de vestuário<BR/>18318300-4, Pijamas","Centro Hospitalar e Universitário de Coimbra, E. P. E. (510103448)","MEILEX, LDA (501759441), RIBEIRO & CARLOS, LDA - MUNDIFATO (502383542)","32.820,00 €",04-04-2018,01-03-2018,270 dias,"Portugal, Coimbra, Coimbra","Artigo 20.º, n.º 1, alínea b) do Código dos Contratos Públicos",31-12-2018,"32.442,51 €","",Não foi fornecida a quantidade total.,,Não aplicável.,Não aplicável.,FALSE
AQUISIÇÃO DE 122 COLCHÕES EM ESPUMA P/ CAMAS E MACAS P/ O Centro Hospitalar do Oeste,Ajuste Direto Regime Geral,Aquisição de bens móveis,"33192000-2, Mobiliário para fins médicos",Centro Hospitalar do Oeste  (510412009),"MEILEX, LDA (501759441)","7.997,90 €",03-04-2018,25-01-2017,1 dias,"Portugal, Leiria, Caldas da Rainha","Artigo 20.º, n.º 1, alínea a) do Código dos Contratos Públicos",25-01-2017,"7.997,90 €","","",,Não aplicável.,Não aplicável.,FALSE
Aquisição de toalhetes descartaveis em TNT durante o ano de 2018,Consulta Prévia,Aquisição de bens móveis,"33141118-0, Toalhetes","Centro Hospitalar Lisboa Norte, E. P. E. (508481287)","MEILEX, LDA (501759441)","40.250,00 €",02-04-2018,21-03-2018,285 dias,"Portugal, Lisboa, Lisboa","Artigo 20.º, n.º 1, alínea c) do Código dos Contratos Públicos","","","","",,Não aplicável.,Não aplicável.,FALSE
CP n.º 184A000005 - Aquisição de toalhetes p/ lavagem de doentes p/ o ano de 2018,Concurso público,Aquisição de bens móveis,"33141118-0, Toalhetes","Centro Hospitalar Lisboa Norte, E. P. E. (508481287)","MEILEX, LDA (501759441)","15.390,00 €",13-03-2018,27-02-2018,307 dias,"Portugal, Lisboa, Lisboa","Artigo 20.º, n.º 1, alínea b) do Código dos Contratos Públicos","","","","",,Não aplicável.,Não aplicável.,FALSE
Roupa de Cama,Concurso público,Aquisição de bens móveis,"39516110-6, Almofadas<BR/>39512100-5, Lençóis<BR/>39512000-4, Roupa de cama<BR/>39512500-9, Fronhas para almofadas","Centro Hospitalar e Universitário de Coimbra, E.P. (510103448)","TEXTEIS EVARISTO SAMPAIO, S.A. (501268073), RIBEIRO & CARLOS, LDA (502383542), MEILEX, LDA (501759441)","93.929,50 €",06-03-2018,29-01-2018,300 dias,"Portugal, Coimbra, Coimbra","Artigo 20.º, n.º 1, alínea b) do Código dos Contratos Públicos","","","","",,Não aplicável.,Não aplicável.,FALSE
Fardas de Bloco,Concurso público,Aquisição de bens móveis,"39518000-6, Roupa para uso hospitalar","Centro Hospitalar e Universitário de Coimbra, E. P. E. (510103448)","MEILEX, LDA (501759441)","63.580,00 €",06-03-2018,14-02-2018,300 dias,"Portugal, Coimbra, Coimbra","Artigo 20.º, n.º 1, alínea b) do Código dos Contratos Públicos","","","","",,Não aplicável.,Não aplicável.,FALSE
Aquisição Papel Limpa Mãos,Ajuste Direto Regime Geral,Aquisição de bens móveis,"33760000-5, Papel higiénico, lenços, toalhas de mão e guardanapos","Hospital Distrital de Santarém, E. P. E. (506361462)","Meilex, Lda (501759441)","5.901,48 €",01-03-2018,18-01-2018,90 dias,"Portugal, Santarém, Santarém","Artigo 20.º, n.º 1, alínea d) do Código dos Contratos Públicos","","","","",,Não aplicável.,Não aplicável.,FALSE
"Aquisição de material de consumo hoteleiro e artigos de limpeza para a ULSNA, EPE - Ano 2018",Ajuste Direto Regime Geral,Aquisição de bens móveis,"33700000-7, Produtos para cuidados pessoais","Unidade Local de Saúde do N. Alentejano,EPE(ULSNA) (508094461)","MEILEX, LDA (501759441)","5.811,00 €",20-02-2018,24-01-2018,365 dias,"Portugal, Portalegre","Artigo 20.º, n.º 1, alínea a) do Código dos Contratos Públicos",20-02-2018,"5.811,00 €","","",,Não aplicável.,Não aplicável.,FALSE
Aquisição de Colchões e Coberturas,Ajuste Direto Regime Geral,Aquisição de bens móveis,"39143112-4, Colchões","Hospital Distrital de Santarém, EPE (506361462)","MEILEX, LDA (501759441)","2.931,20 €",14-02-2018,08-02-2018,360 dias,"Portugal, Santarém, Santarém","Artigo 20.º, n.º 1, alínea a) do Código dos Contratos Públicos","","","","",,Não aplicável.,Não aplicável.,FALSE
Aquisição de Diversas Tipologias de Roupa Hospitalar,Ajuste Direto Regime Geral,Aquisição de bens móveis,"18100000-0, Vestuário profissional, vestuário de trabalho especial e acessórios",Serviço de Utilização Comum dos Hospitais (500900469),"MEILEX, LDA (501759441)","164.898,20 €",07-02-2018,07-02-2018,60 dias,Portugal,"Artigo 24.º, n.º 1, alínea c) do Código dos Contratos Públicos","","","","",,Não aplicável.,Não aplicável.,FALSE
Campos Operatórios e outro material de consumo clínico,Concurso público,Aquisição de bens móveis,"33140000-3, Material médico de consumo","Centro Hospitalar Universitário do Algarve, E.P.E. (510745997)","AVIQUIMICA- IMPORTAÇÃO E MANUFACTURAS, LDA (500039720), Anastácio Saldanha, Unipessoal, Lda (505804441), BASTOS VIEGAS,S.A. (500042772), 	 Oasipor, S.A (502260750), MEILEX, LDA. (501759441), Hasse (500132976), SMITH & NEPHEW - PROD. FARMACEUTICOS, LDA. (503552461), PAUL HARTMANN, LDA. (502271728), ANGOSAUDE - EQUIPAMENTOS SAUDE, SA (507016882), Lineamédica (505148676), J.M.V. - SOC. COM. REPRESENTAÇOES, LDA. (501887148), Docworld, Lda (508592909), QUILABAN-QUIM LAB ANALITICA, S.A. (500399670), Medline International Portugal, Unip., Lda (510533515)","175.408,56 €",29-01-2018,16-01-2018,348 dias,"Portugal, Faro, Faro<BR/>Portugal, Faro, Portimão<BR/>Portugal, Faro, Lagos","Artigo 20.º, n.º 1, alínea b) do Código dos Contratos Públicos","","","","",,Não aplicável.,Não aplicável.,FALSE
02/00025.04/2017 - Aquisição de Roupa e Fardamento Hospitalar,Concurso público,Aquisição de bens móveis,"39518000-6, Roupa para uso hospitalar","Centro Hospitalar de Entre o Douro e Vouga, E.P.E. (508878462)","MEILEX, LDA. (501759441)","2.580,00 €",27-01-2018,31-10-2017,90 dias,"Portugal, Aveiro, Santa Maria da Feira","Artigo 20.º, n.º 1, alínea b) do Código dos Contratos Públicos","","","","",,Não aplicável.,Não aplicável.,FALSE
"AD802137 - Aquisição de Colchões Anti-Escara p/ o CHLO, EPE",Ajuste Direto Regime Geral,Aquisição de bens móveis,"39143112-4, Colchões","Centro Hospitalar de Lisboa Ocidental, EPE (CHLO) (507618319)","Meilex, Lda (501759441)","12.527,04 €",18-01-2018,17-01-2018,15 dias,"Portugal, Lisboa, Lisboa","Artigo 20.º, n.º 1, alínea a) do Código dos Contratos Públicos","","","","",,Não aplicável.,Não aplicável.,FALSE
AJ/37/2017 Aquisição de Material de Consumo Hoteleiro para o ano de 2017,Ajuste Direto Regime Geral,Aquisição de bens móveis,"33000000-0, Equipamento médico, medicamentos e produtos para cuidados pessoais","Hospital de Magalhães Lemos, E. P. E. (502828790)","MEILEX, LDA. (501759441)","210,00 €",17-01-2018,06-07-2017,30 dias,"Portugal, Porto, Porto","Artigo 20.º, n.º 1, alínea a) do Código dos Contratos Públicos","","","","",,Não aplicável.,Não aplicável.,FALSE
Aquisição de roupa e fardamento hospitalar,Ajuste Direto Regime Geral,Aquisição de bens móveis,"39518000-6, Roupa para uso hospitalar","Centro Hospitalar Póvoa de Varzim - Vila do Conde, E. P. E. (508741823)","MEILEX, LDA (501759441)","3.273,70 €",16-01-2018,09-01-2018,365 dias,"Portugal, Porto, Póvoa de Varzim","Artigo 20.º, n.º 1, alínea a) do Código dos Contratos Públicos","","","","",,Não aplicável.,Não aplicável.,FALSE
Turcos e Multiusos,Concurso público,Aquisição de bens móveis,"39500000-7, Artigos têxteis","Centro Hospitalar e Universitário de Coimbra, E. P. E. (510103448)","MEILEX, LDA (501759441)","73.190,00 €",16-01-2018,21-12-2017,365 dias,"Portugal, Coimbra, Coimbra","Artigo 20.º, n.º 1, alínea b) do Código dos Contratos Públicos","","","","",,Não aplicável.,Não aplicável.,FALSE
AJ/37/2017 Aquisição de Material de Consumo Hoteleiro para o ano de 2017,Ajuste Direto Regime Geral,Aquisição de bens móveis,"33700000-7, Produtos para cuidados pessoais","Hospital de Magalhães Lemos, E. P. E. (502828790)","MEILEX, LDA. (501759441)","126,00 €",15-01-2018,06-07-2017,30 dias,"Portugal, Porto, Porto","Artigo 20.º, n.º 1, alínea a) do Código dos Contratos Públicos","","","","",,Não aplicável.,Não aplicável.,FALSE
184G000002 - Aquisição de roupa Hospitalar para doentes durante o ano 2018,Ajuste Direto Regime Geral,Aquisição de bens móveis,"39518000-6, Roupa para uso hospitalar","CENTRO HOSPITALAR LISBOA NORTE, EPE (508481287)","MEILEX, LDA (501759441)","7.160,00 €",15-01-2018,02-01-2018,364 dias,"Portugal, Lisboa, Lisboa","Artigo 20.º, n.º 1, alínea a) do Código dos Contratos Públicos","","","","",,Não aplicável.,Não aplicável.,FALSE
CP n.º 184A000001 - Aquisição de roupa hospitalar de cama para o ano de 2018,Concurso público,Aquisição de bens móveis,"39512000-4, Roupa de cama","CENTRO HOSPITALAR LISBOA NORTE, EPE (508481287)","MEILEX, LDA (501759441)","8.620,00 €",11-01-2018,11-01-2018,364 dias,"Portugal, Lisboa, Lisboa","Artigo 20.º, n.º 1, alínea b) do Código dos Contratos Públicos","","","","",,Não aplicável.,Não aplicável.,FALSE
"Aquisição de roupa para doentes (camisa e calça de pijama) do Hospital Divino Espírito Santo de Ponta Delgada, EPER",Ajuste Direto Regime Geral,Aquisição de bens móveis,"18318000-1, Roupa de dormir","Hospital do Divino Espírito Santo de Ponta Delgada, E. P. E. R. (512103097)","MEILEX, LDA. (501759441)","21.225,00 €",27-12-2017,08-11-2017,365 dias,"Portugal, Região Autónoma dos Açores, Ponta Delgada","Artigo 20.º, alínea a) do Decreto Legislativo Regional n.º 27/2015/A, de 29.12","","","","",,Não aplicável.,Não aplicável.,FALSE
Aquisição de Capas para Colchões para diversas Unidades Orgânicas,Ajuste Direto Regime Geral,Aquisição de bens móveis,"39510000-0, Artigos têxteis para o lar",Direção-Geral de Reinserção e Serviços Prisionais (600085171),"MEILEX, LDA. (501759441)","14.588,00 €",22-12-2017,13-12-2017,5 dias,"Portugal, Lisboa, Sintra","Artigo 20.º, n.º 1, alínea a) do Código dos Contratos Públicos","","","","",,Não aplicável.,Não aplicável.,FALSE
Aquisição de colchões e Almofadas Para diversas Unidades Orgânicas da DGRSP,Ajuste Direto Regime Geral,Aquisição de bens móveis,"39143112-4, Colchões",Direção-Geral de Reinserção e Serviços Prisionais (600085171),"MEILEX, LDA. (501759441)","50.421,42 €",22-12-2017,22-12-2017,7 dias,"Portugal, Lisboa, Lisboa","Artigo 20.º, n.º 1, alínea a) do Código dos Contratos Públicos","","","","",,Não aplicável.,Não aplicável.,FALSE
AJ/37/2017 Aquisição de Material de Consumo Hoteleiro para o ano de 2017,Ajuste Direto Regime Geral,Aquisição de bens móveis,"39000000-2, Mobiliário (incl. de escritório), acessórios, aparelhos domésticos (excl. iluminação) e produtos de limpeza","Hospital de Magalhães Lemos, E. P. E. (502828790)","MEILEX, LDA. (501759441)","214,00 €",06-12-2017,06-07-2017,30 dias,"Portugal, Porto, Porto","Artigo 20.º, n.º 1, alínea a) do Código dos Contratos Públicos","","","","",,Não aplicável.,Não aplicável.,FALSE
Aquisição Colchões e Almofadas Anti Escara,Ajuste Direto Regime Geral,Aquisição de bens móveis,"39143112-4, Colchões","Hospital Distrital de Santarém, EPE (506361462)","Meilex, Lda (501759441)","4.620,00 €",23-11-2017,09-11-2017,5 dias,"Portugal, Santarém, Santarém","Artigo 20.º, n.º 1, alínea a) do Código dos Contratos Públicos","","","","",,Não aplicável.,Não aplicável.,FALSE
ROUPA HOSPITALAR,Ajuste Direto Regime Geral,Aquisição de bens móveis,"39518000-6, Roupa para uso hospitalar","Centro Hospitalar de Leiria, E. P. E. (509822932)","MEILEX,LDA (501759441)","12.733,50 €",21-11-2017,16-11-2017,60 dias,"Portugal, Leiria, Leiria","Artigo 20.º, n.º 1, alínea a) do Código dos Contratos Públicos",29-12-2017,"12.733,50 €","","",,Não aplicável.,Não aplicável.,FALSE
AJ/37/2017 Aquisição de Material de Consumo Hoteleiro para o ano de 2017,Ajuste Direto Regime Geral,Aquisição de bens móveis,"39000000-2, Mobiliário (incl. de escritório), acessórios, aparelhos domésticos (excl. iluminação) e produtos de limpeza","Hospital de Magalhães Lemos, E. P. E. (502828790)","MEILEX, LDA. (501759441)","44,00 €",13-11-2017,06-07-2017,30 dias,"Portugal, Porto, Porto","Artigo 20.º, n.º 1, alínea a) do Código dos Contratos Públicos","","","","",,Não aplicável.,Não aplicável.,FALSE
AJ/37/2017 Aquisição de Material de Consumo Hoteleiro para o ano de 2017,Ajuste Direto Regime Geral,Aquisição de bens móveis,"33000000-0, Equipamento médico, medicamentos e produtos para cuidados pessoais","Hospital de Magalhães Lemos, E. P. E. (502828790)","MEILEX, LDA. (501759441)","84,00 €",13-11-2017,06-07-2017,30 dias,"Portugal, Porto, Porto","Artigo 20.º, n.º 1, alínea a) do Código dos Contratos Públicos","","","","",,Não aplicável.,Não aplicável.,FALSE
AJ/37/2017 Aquisição de Material de Consumo Hoteleiro para o ano de 2017,Ajuste Direto Regime Geral,Aquisição de bens móveis,"33000000-0, Equipamento médico, medicamentos e produtos para cuidados pessoais","Hospital de Magalhães Lemos, E. P. E. (502828790)","MEILEX, LDA. (501759441)","126,00 €",17-10-2017,06-07-2017,30 dias,"Portugal, Porto, Porto","Artigo 20.º, n.º 1, alínea a) do Código dos Contratos Públicos","","","","",,Não aplicável.,Não aplicável.,FALSE
1 BAD20170160-ROUPAS CONFECCIONADAS,Ajuste Direto Regime Geral,Aquisição de bens móveis,"39518000-6, Roupa para uso hospitalar","SESARAM - Serviço de Saúde da RAM, E.P.E. (511228848)","MEILEX, LDA. (501759441)","18.219,50 €",02-10-2017,18-08-2017,136 dias,"Portugal, Região Autónoma da Madeira, Funchal","Artigo 21.º, n.º 1, alínea a) do Código dos Contratos Públicos e artigo 4.º, nº 1 do DLR nº 34/2008/M, de 14.08","","","","",,Não aplicável.,Não aplicável.,FALSE
AJ/37/2017 Aquisição de Material de Consumo Hoteleiro para o ano de 2017,Ajuste Direto Regime Geral,Aquisição de bens móveis,"39000000-2, Mobiliário (incl. de escritório), acessórios, aparelhos domésticos (excl. iluminação) e produtos de limpeza","Hospital de Magalhães Lemos, E. P. E. (502828790)","MEILEX, LDA. (501759441)","84,00 €",29-09-2017,06-07-2017,30 dias,"Portugal, Porto, Porto","Artigo 20.º, n.º 1, alínea a) do Código dos Contratos Públicos","","","","",,Não aplicável.,Não aplicável.,FALSE
AQUISIÇÃO DE  PAPEL HIGIÉNICO E GUARDANAPOS,Ajuste Direto Regime Geral,Aquisição de bens móveis,"33760000-5, Papel higiénico, lenços, toalhas de mão e guardanapos","Instituto Português de Oncologia de Coimbra Francisco Gentil, E. P. E. (506361438)","MEILEX, LDA. (501759441)","2.618,00 €",12-09-2017,06-01-2017,365 dias,"Portugal, Coimbra, Coimbra","Artigo 20.º, n.º 1, alínea a) do Código dos Contratos Públicos",22-12-2017,"2.842,06 €","",fornecimento acima do valor previsto,,Não aplicável.,Não aplicável.,FALSE
AJ/37/2017 Aquisição de Material de Consumo Hoteleiro para o ano de 2017,Ajuste Direto Regime Geral,Aquisição de bens móveis,"39000000-2, Mobiliário (incl. de escritório), acessórios, aparelhos domésticos (excl. iluminação) e produtos de limpeza","Hospital de Magalhães Lemos, E. P. E. (502828790)","MEILEX, LDA. (501759441)","128,00 €",11-09-2017,06-07-2017,30 dias,"Portugal, Porto, Porto","Artigo 20.º, n.º 1, alínea a) do Código dos Contratos Públicos","","","","",,Não aplicável.,Não aplicável.,FALSE
Aquisição de Diversas Tipologias de Roupa Hospitalar,Concurso público,Aquisição de bens móveis,"18100000-0, Vestuário profissional, vestuário de trabalho especial e acessórios",Serviço de Utilização Comum dos Hospitais (500900469),MEILEX LDA. (501759441),"1.018.874,00 €",01-09-2017,31-08-2017,121 dias,Portugal,"Artigo 20.º, n.º 1, alínea b) do Código dos Contratos Públicos","","","","",,Não aplicável.,Não aplicável.,FALSE
Aquisição de Sacos HSJ,Ajuste Direto Regime Geral,Aquisição de bens móveis,"19640000-4, Sacos de polietileno para recolha de lixo e resíduos",SUCH | Serviço de Utilização Comum dos Hospitais (500900469),MEILEX LDA. (501759441),"17.827,50 €",29-08-2017,02-08-2017,30 dias,"Portugal, Porto, Porto","Artigo 20.º, n.º 1, alínea a) do Código dos Contratos Públicos","","","","",,Não aplicável.,Não aplicável.,FALSE
"Aquisição de roupa e fardamento hospitalar para o CHPVVC, EPE para o ano de 2017",Ajuste Direto Regime Geral,Aquisição de bens móveis,"39518000-6, Roupa para uso hospitalar","Centro Hospitalar Póvoa de Varzim/Vila do Conde, EPE (508741823)",MEILEX LDA. (501759441),"2.194,54 €",18-08-2017,25-07-2017,160 dias,"Portugal, Porto, Porto","Artigo 20.º, n.º 1, alínea a) do Código dos Contratos Públicos","","","","",,Não aplicável.,Não aplicável.,FALSE
AJ/37/2017 Aquisição de Material de Consumo Hoteleiro para o ano de 2017,Ajuste Direto Regime Geral,Aquisição de bens móveis,"33700000-7, Produtos para cuidados pessoais","Hospital de Magalhães Lemos, E. P. E. (502828790)","MEILEX, LDA. (501759441)","252,00 €",16-08-2017,06-07-2017,15 dias,"Portugal, Porto, Porto","Artigo 20.º, n.º 1, alínea a) do Código dos Contratos Públicos","","","","",,Não aplicável.,Não aplicável.,FALSE
AJ/37/2017 Aquisição de Material de Consumo Hoteleiro para o ano de 2017,Ajuste Direto Regime Geral,Aquisição de bens móveis,"39830000-9, Produtos de limpeza","Hospital de Magalhães Lemos, E. P. E. (502828790)","MEILEX, LDA. (501759441)","44,00 €",08-08-2017,06-07-2017,30 dias,"Portugal, Porto, Porto","Artigo 20.º, n.º 1, alínea a) do Código dos Contratos Públicos","","","","",,Não aplicável.,Não aplicável.,FALSE
AJ/37/2014 Aquisição de Material de Consumo Hoteleiro para o ano de 2017,Ajuste Direto Regime Geral,Aquisição de bens móveis,"33700000-7, Produtos para cuidados pessoais","Hospital de Magalhães Lemos, E. P. E. (502828790)","MEILEX, LDA. (501759441)","126,00 €",04-08-2017,06-07-2017,30 dias,"Portugal, Porto, Porto","Artigo 20.º, n.º 1, alínea a) do Código dos Contratos Públicos","","","","",,Não aplicável.,Não aplicável.,FALSE
174G000217 - Aquisição de almofadas durante o ano 2017,Ajuste Direto Regime Geral,Aquisição de bens móveis,"39516110-6, Almofadas","Centro Hospitalar Lisboa Norte, E. P. E. (508481287)","Meilex, Lda (501759441)","5.071,80 €",19-07-2017,19-07-2017,165 dias,"Portugal, Lisboa, Lisboa","Artigo 20.º, n.º 1, alínea a) do Código dos Contratos Públicos","","","","",,Não aplicável.,Não aplicável.,FALSE
Aquisição Colchões e Coberturas Bipartidas e Tripartidas,Ajuste Direto Regime Geral,Aquisição de bens móveis,"39143112-4, Colchões","Hospital Distrital de Santarém, EPE (506361462)","Meilex, Lda (501759441)","3.140,50 €",12-07-2017,11-07-2017,168 dias,"Portugal, Santarém, Santarém","Artigo 20.º, n.º 1, alínea a) do Código dos Contratos Públicos","","","","",,Não aplicável.,Não aplicável.,FALSE
Aquisição de material consumo clinico diverso - 29,Ajuste Direto Regime Geral,Aquisição de bens móveis,"33140000-3, Material médico de consumo",Hospital Dr. Francisco Zagalo (501510150),Meilex lda (501759441),"396,00 €",26-06-2017,13-01-2017,180 dias,"Portugal, Aveiro, Ovar","Artigo 20.º, n.º 1, alínea a) do Código dos Contratos Públicos",20-12-2017,"396,00 €","","",,Não aplicável.,Não aplicável.,FALSE
AD 42002017 Aquisição material consumo diverso,Ajuste Direto Regime Geral,Aquisição de bens móveis,"33141000-0, Material médico não químico descartável e produtos hematológicos",Hospital Dr. Francisco Zagalo (501510150),"MEILEX, LDA (501759441)","396,00 €",26-04-2017,24-03-2017,280 dias,"Portugal, Aveiro, Ovar","Artigo 20.º, n.º 1, alínea a) do Código dos Contratos Públicos",27-12-2017,"684,00 €","",Previsão inferior às necessidades,,Não aplicável.,Não aplicável.,FALSE
AQUISIÇÃO DE MATERIAL DE CONSUMO HOTELEIRO,Ajuste Direto Regime Geral,Aquisição de bens móveis,"39830000-9, Produtos de limpeza","Hospital Santa Maria Maior, EPE (506361381)","MEILEX, LDA (501759441)","4.068,78 €",04-04-2017,23-01-2017,360 dias,"Portugal, Braga, Barcelos","Artigo 20.º, n.º 1, alínea a) do Código dos Contratos Públicos","","","","",,Não aplicável.,Não aplicável.,FALSE
Aquisição de material de limpeza para o ano de 2017,Ajuste Direto Regime Geral,Aquisição de bens móveis,"39224000-8, Vassouras, escovas e outros artigos de vários tipos","CENTRO HOSPITALAR LISBOA NORTE, EPE (508481287)","MEILEX, LDA (501759441)","946,40 €",13-03-2017,13-03-2017,293 dias,"Portugal, Lisboa, Lisboa","Artigo 20.º, n.º 1, alínea a) do Código dos Contratos Públicos","","","","",,Não aplicável.,Não aplicável.,FALSE
Roupa de cama,Concurso público,Aquisição de bens móveis,"39512300-7, Resguardos para colchões<BR/>39512000-4, Roupa de cama<BR/>39516110-6, Almofadas","Centro Hospitalar e Universitário de Coimbra, E. P. E. (510103448)","RIBEIRO & CARLOS, LDA - MUNDIFATO (502383542), MEILEX, LDA (501759441)","93.615,00 €",06-03-2017,23-01-2017,365 dias,"Portugal, Coimbra, Coimbra","Artigo 20.º, n.º 1, alínea b) do Código dos Contratos Públicos",29-12-2017,"93.615,00 €","","",,Não aplicável.,Não aplicável.,FALSE
Turcos e multiusos,Concurso público,Aquisição de bens móveis,"39514500-3, Toalhas de rosto<BR/>39514100-9, Toalhas<BR/>18318200-3, Roupões<BR/>39525800-6, Panos de limpeza<BR/>18411000-3, Vestuário para bebé","Centro Hospitalar e Universitário de Coimbra, E. P. E. (510103448)","MEILEX, LDA (501759441)","68.090,00 €",06-03-2017,23-01-2017,365 dias,"Portugal, Coimbra, Coimbra","Artigo 20.º, n.º 1, alínea b) do Código dos Contratos Públicos",29-12-2017,"67.936,41 €","","As necessidades efectivas do Hospital restringiram-se aos 67.936,41€  + IVA indicados.",,Não aplicável.,Não aplicável.,FALSE
"Aquisição de Material de Consumo Hoteleiro e Limpeza, para a ULSNA, EPE - Ano 2017",Ajuste Direto Regime Geral,Aquisição de bens móveis,"33700000-7, Produtos para cuidados pessoais","Unidade Local de Saúde do N. Alentejano,EPE(ULSNA) (508094461)",MEILEX LDA. (501759441),"7.009,20 €",17-02-2017,11-01-2017,365 dias,"Portugal, Portalegre","Artigo 20.º, n.º 1, alínea a) do Código dos Contratos Públicos",17-02-2017,"7.009,20 €","","",,Não aplicável.,Não aplicável.,FALSE
Aquisição de toalhetes de lavagem de doentes para 2017,Ajuste Direto Regime Geral,Aquisição de bens móveis,"33141118-0, Toalhetes","Centro Hospitalar Lisboa Norte, E. P. E. (508481287)","MEILEX, LDA (501759441)","39.401,70 €",17-02-2017,09-02-2017,325 dias,"Portugal, Lisboa, Lisboa","Artigo 20.º, n.º 1, alínea a) do Código dos Contratos Públicos","","","","",,Não aplicável.,Não aplicável.,FALSE
"Fornecimento de colchões, almofadas e capas",Ajuste Direto Regime Geral,Aquisição de bens móveis,"39100000-3, Mobiliário","Centro Hospitalar do Tâmega e Sousa, E.P.E. (508318262)","MEILEX, LDA (501759441)","8.092,00 €",01-02-2017,25-01-2017,340 dias,"Portugal, Porto, Penafiel<BR/>Portugal, Porto, Amarante","Artigo 20.º, n.º 1, alínea a) do Código dos Contratos Públicos","","","","",,Não aplicável.,Não aplicável.,FALSE
ARTIGOS E UTENSILIOS PARA LIMPEZA 2017,Ajuste Direto Regime Geral,Aquisição de bens móveis,"39525800-6, Panos de limpeza","SESARAM - Serviço de Saúde da RAM, E.P.E. (511228848)","Meilex, Lda (501759441)","43.592,00 €",27-01-2017,13-01-2017,352 dias,"Portugal, Região Autónoma da Madeira, Funchal","Artigo 20.º, n.º 1, alínea a) do Código dos Contratos Públicos","","","","",,Não aplicável.,Não aplicável.,FALSE
Aquisição Papel Limpa Mãos,Concurso público,Aquisição de bens móveis,"33760000-5, Papel higiénico, lenços, toalhas de mão e guardanapos","Hospital Distrital de Santarém, E. P. E. (506361462)","Meilex, Lda (501759441)","20.370,00 €",26-01-2017,20-01-2017,340 dias,"Portugal, Santarém, Santarém","Artigo 20.º, n.º 1, alínea b) do Código dos Contratos Públicos","","","","",,Não aplicável.,Não aplicável.,FALSE
Aquisição de Produtos Hoteleiros,Concurso público,Aquisição de bens móveis,"39830000-9, Produtos de limpeza","Centro Hospitalar de Entre o Douro e Vouga, E.P.E. (508878462)",MEILEX (501759441),"1.900,80 €",24-01-2017,03-08-2016,1095 dias,"Portugal, Aveiro, Santa Maria da Feira","Artigo 20.º, n.º 1, alínea b) do Código dos Contratos Públicos","","","","",,Não aplicável.,Não aplicável.,FALSE
Aquisição de sacos de plástico para o ano de 2017,Ajuste Direto Regime Geral,Aquisição de bens móveis,"18930000-7, Sacas e sacos","CENTRO HOSPITALAR LISBOA NORTE, EPE (508481287)","MEILEX, LDA (501759441)","2.317,75 €",19-01-2017,19-01-2017,347 dias,"Portugal, Lisboa, Lisboa","Artigo 20.º, n.º 1, alínea a) do Código dos Contratos Públicos","","","","",,Não aplicável.,Não aplicável.,FALSE
CAPA IMPERMEAVEL C/FECHO P/COLCHAO - PARA 2017,Ajuste Direto Regime Geral,Aquisição de bens móveis,"39518000-6, Roupa para uso hospitalar","SESARAM - Serviço de Saúde da RAM, E.P.E. (511228848)",MEILEX (501759441),"7.374,90 €",18-01-2017,03-01-2017,362 dias,"Portugal, Região Autónoma da Madeira, Funchal","Artigo 21.º, n.º 1, alínea a) do Código dos Contratos Públicos e artigo 4.º, nº 1 do DLR nº 34/2008/M, de 14.08","","","","",,Não aplicável.,Não aplicável.,FALSE
Toalhetes de Espuma p/ Lavar Doentes,Ajuste Direto Regime Geral,Aquisição de bens móveis,"33190000-8, Dispositivos e produtos médicos variados","Centro Hospitalar Vila Nova de Gaia - Espinho, E. P. E. (508142156)",MEILEX (501759441),"16.306,40 €",12-01-2017,06-01-2017,365 dias,"Portugal, Porto, Vila Nova de Gaia","Artigo 20.º, n.º 1, alínea a) do Código dos Contratos Públicos","","","","",,Não aplicável.,Não aplicável.,FALSE
Aquisição de roupa hospitalar de cama durante o ano de 2017,Concurso público,Aquisição de bens móveis,"39512000-4, Roupa de cama","Centro Hospitalar Lisboa Norte, E. P. E. (508481287)","MEILEX, LDA. (501759441)","450,00 €",12-01-2017,12-01-2017,353 dias,"Portugal, Lisboa, Lisboa","Artigo 20.º, n.º 1, alínea b) do Código dos Contratos Públicos","","","","",,Não aplicável.,Não aplicável.,FALSE
Aquisição de roupa hospitalar de doentes durante o ano de 2017,Concurso público,Aquisição de bens móveis,"39518000-6, Roupa para uso hospitalar","Centro Hospitalar Lisboa Norte, E. P. E. (508481287)","MEILEX, LDA. (501759441)","31.770,00 €",11-01-2017,02-01-2017,364 dias,"Portugal, Lisboa, Lisboa","Artigo 20.º, n.º 1, alínea b) do Código dos Contratos Públicos","","","","",,Não aplicável.,Não aplicável.,FALSE
Aquisição de artigos de higiene e cuidados pessoais durante o ano de 2017,Ajuste Direto Regime Geral,Aquisição de bens móveis,"33700000-7, Produtos para cuidados pessoais","CENTRO HOSPITALAR LISBOA NORTE, EPE (508481287)","Meilex, Lda. (501759441)","5.889,00 €",06-01-2017,06-01-2017,359 dias,"Portugal, Lisboa, Lisboa","Artigo 20.º, n.º 1, alínea a) do Código dos Contratos Públicos","","","","",,Não aplicável.,Não aplicável.,FALSE
Aquisição material consumo clinico diverso,Ajuste Direto Regime Geral,Aquisição de bens móveis,"33140000-3, Material médico de consumo",Hospital Dr. Francisco Zagalo (501510150),"MEILEX, LDA (501759441)","1.108,80 €",30-12-2016,06-01-2016,360 dias,"Portugal, Aveiro, Ovar","Artigo 20.º, n.º 1, alínea a) do Código dos Contratos Públicos",30-12-2016,"1.108,80 €","","",,Não aplicável.,Não aplicável.,FALSE
"AD 1875-2016 Aquisição de cortinas hospitalares para o CHTMAD, EPE",Ajuste Direto Regime Geral,Aquisição de bens móveis,"39515100-6, Cortinados","Centro Hospitalar de Trás-os-Montes e Alto Douro, E. P. E. (508100496)","MEILEX, LDA (501759441)","6.788,27 €",30-12-2016,11-07-2016,365 dias,"Portugal, Vila Real, Vila Real","Artigo 20.º, n.º 1, alínea a) do Código dos Contratos Públicos",29-09-2016,"6.788,27 €","","",,Não aplicável.,Não aplicável.,FALSE
Aquisição de roupa hospitalar,Ajuste Direto Regime Geral,Aquisição de bens móveis,"39518000-6, Roupa para uso hospitalar","Hospital de Santa Maria Maior, E. P. E. (506361381)","Meilex, Lda. (501759441)","1.497,00 €",15-12-2016,13-05-2016,90 dias,"Portugal, Braga, Barcelos","Artigo 20.º, n.º 1, alínea a) do Código dos Contratos Públicos","","","","",,Não aplicável.,Não aplicável.,FALSE
Artigos de Retrosaria,Ajuste Direto Regime Geral,Aquisição de bens móveis,"18400000-3, Vestuário e acessórios especiais","Centro Hospitalar e Universitário de Coimbra, E.P. (510103448)","MEILEX, LDA (501759441)","1.019,58 €",23-11-2016,02-11-2016,30 dias,"Portugal, Coimbra, Coimbra","Artigo 20.º, n.º 1, alínea a) do Código dos Contratos Públicos",05-06-2017,"540,50 €","","As necessidades efectivas do Hospital restringiram-se aos 540,50€  + IVA indicados.",,Não aplicável.,Não aplicável.,FALSE
Papel Limpa Mãos,Ajuste Direto Regime Geral,Aquisição de bens móveis,"33760000-5, Papel higiénico, lenços, toalhas de mão e guardanapos","Hospital Distrital de Santarém, E. P. E. (506361462)","Meilex, Lda (501759441)","9.270,00 €",18-11-2016,18-11-2016,41 dias,"Portugal, Santarém, Santarém","Artigo 26.º, n.º 1, alínea a) do Código dos Contratos Públicos","","","","",,Não aplicável.,Não aplicável.,FALSE
ESPONJA PARA HIGIENE DE DOENTES,Ajuste Direto Regime Geral,Aquisição de bens móveis,"33700000-7, Produtos para cuidados pessoais","Centro Hospitalar Tondela-Viseu, E. P. E. (509822940)","MEILEX, LDA (501759441)","14.220,00 €",21-10-2016,28-01-2016,1 dias,"Portugal, Viseu, Viseu","Artigo 20.º, n.º 1, alínea a) do Código dos Contratos Públicos","","","","",,Não aplicável.,Não aplicável.,FALSE
FARDAMENTO AMARELO PARA  MÉDICOS,Ajuste Direto Regime Geral,Aquisição de bens móveis,"39518000-6, Roupa para uso hospitalar","Serviço de Saúde da Região Autónoma da Madeira, E. P. E. (511228848)","MEILEX, LDA (501759441)","22.620,00 €",20-10-2016,19-10-2016,365 dias,"Portugal, Região Autónoma da Madeira, Funchal","Artigo 20.º, n.º 1, alínea a) do Código dos Contratos Públicos","","","","",,Não aplicável.,Não aplicável.,FALSE
Fornecimento de roupa e fardamento hospitalar,Ajuste Direto Regime Geral,Aquisição de bens móveis,"39518000-6, Roupa para uso hospitalar","Centro Hospitalar Póvoa de Varzim/Vila do Conde, EPE (508741823)","MEILEX, LDA (501759441)","9.661,00 €",06-10-2016,22-06-2016,192 dias,"Portugal, Porto, Póvoa de Varzim","Artigo 20.º, n.º 1, alínea a) do Código dos Contratos Públicos","","","","",,Não aplicável.,Não aplicável.,FALSE
"Aquisição de cortinas hospitalares para o CHTMAD,EPE.",Ajuste Direto Regime Geral,Aquisição de bens móveis,"39515000-5, Cortinados, drapés, sanefas e estores de matérias têxteis","Centro Hospitalar de Trás-os-Montes e Alto Douro, E. P. E. (508100496)","Meilex, Lda. (501759441)","6.798,27 €",13-09-2016,11-07-2016,365 dias,"Portugal, Vila Real, Vila Real","Artigo 20.º, n.º 1, alínea a) do Código dos Contratos Públicos",29-12-2017,"6.798,27 €","","",,Não aplicável.,Não aplicável.,FALSE
Fornecimento de Colchões Anti Escaras e Capas,Ajuste Direto Regime Geral,Aquisição de bens móveis,"39143112-4, Colchões","Centro Hospitalar do Baixo Vouga, E.P.E. (510123210)","Meilex, Lda. (501759441)","39.007,00 €",13-09-2016,07-06-2016,207 dias,"Portugal, Aveiro, Aveiro","Artigo 20.º, n.º 1, alínea a) do Código dos Contratos Públicos","","","","",,Não aplicável.,Não aplicável.,FALSE
"Aquisição de Roupa de Cama Hospitalar para o Hospital de Magalhães Lemos, E.P.E",Concurso público,Aquisição de bens móveis,"19000000-6, Materiais têxteis, de couro, de plástico e de borracha","Hospital de Magalhães Lemos, E. P. E. (502828790)","MEILEX, LDA. (501759441)","32.126,50 €",29-07-2016,21-03-2016,30 dias,"Portugal, Porto, Porto","Artigo 20.º, n.º 1, alínea b) do Código dos Contratos Públicos","","","","",,Não aplicável.,Não aplicável.,FALSE
AQUISIÇÃO DE CAPAS IMPERMEAVEIS P/COLCHÕES,Ajuste Direto Regime Geral,Aquisição de bens móveis,"39518000-6, Roupa para uso hospitalar","Serviço de Saúde da Região Autónoma da Madeira, E. P. E. (511228848)","MEILEX,LDA (501759441)","13.275,60 €",24-06-2016,19-04-2016,256 dias,"Portugal, Região Autónoma da Madeira, Funchal","Artigo 20.º, n.º 4 do Código dos Contratos Públicos e artigo 4.º, nº 1 do DLR nº 34/2008/M, de 14.08","","","","",,Não aplicável.,Não aplicável.,FALSE
Aquisição de Almofadas e Capas,Ajuste Direto Regime Geral,Aquisição de bens móveis,"39512000-4, Roupa de cama","Centro Hospitalar do Tâmega e Sousa, E.P.E. (508318262)","MEILEX, LDA (501759441)","5.476,50 €",27-05-2016,13-05-2016,233 dias,"Portugal, Porto, Penafiel<BR/>Portugal, Porto, Amarante","Artigo 20.º, n.º 1, alínea a) do Código dos Contratos Públicos","","","","",,Não aplicável.,Não aplicável.,FALSE
MATERIAL HIGIENE E LIMPEZA,Concurso público,Locação de bens móveis,"33772000-2, Artigos de papel descartáveis","Centro Hospitalar de Leiria, E. P. E. (509822932)",MEILEX (501759441),"20.047,60 €",16-05-2016,14-04-2015,365 dias,"Portugal, Leiria, Leiria","Artigo 20.º, n.º 1, alínea b) do Código dos Contratos Públicos",31-12-2015,"6.412,00 €","",Previsões sob-estimadas,,Não aplicável.,Não aplicável.,FALSE
Aquisição de material de limpeza e outros para Bloco Operatório e  Unidade de Técnicas durante o ano 2016,Ajuste Direto Regime Geral,Aquisição de bens móveis,"39224000-8, Vassouras, escovas e outros artigos de vários tipos","CENTRO HOSPITALAR LISBOA NORTE, EPE (508481287)",MEILEX LDA (501759441),"1.880,38 €",11-05-2016,11-05-2016,235 dias,"Portugal, Lisboa, Lisboa","Artigo 20.º, n.º 1, alínea a) do Código dos Contratos Públicos","","","","",,Não aplicável.,Não aplicável.,FALSE
Aquisição de chambre e pijama para criança,Ajuste Direto Regime Geral,Aquisição de bens móveis,"39518000-6, Roupa para uso hospitalar","CENTRO HOSPITALAR LISBOA NORTE, EPE (508481287)","Meilex, Lda. (501759441)","2.950,00 €",15-04-2016,15-04-2016,260 dias,"Portugal, Lisboa, Lisboa","Artigo 20.º, n.º 1, alínea a) do Código dos Contratos Públicos","","","","",,Não aplicável.,Não aplicável.,FALSE
AQUISIÇÃO PAPEL HIGIÉNICO E GUARDANAPOS,Ajuste Direto Regime Geral,Aquisição de bens móveis,"33760000-5, Papel higiénico, lenços, toalhas de mão e guardanapos",Instituto Português de Oncologia de Coimbra - Francisco Gentil E.P.E. (506361438),"MEILEX,LDA (501759441)","13.401,92 €",11-04-2016,24-06-2014,191 dias,"Portugal, Coimbra, Coimbra","Artigo 20.º, n.º 1, alínea a) do Código dos Contratos Públicos",22-12-2014,"14.350,24 €","",Diminuição das necessidades,,Não aplicável.,Não aplicável.,FALSE
Aquisição Material Hoteleiro - 74/00001165/2016,Ajuste Direto Regime Geral,Aquisição de bens móveis,"39300000-5, Equipamento diverso","Centro Hospitalar do Algarve, E. P. E. (510745997)","MEILEX, LDA (501759441)","89,44 €",16-03-2016,27-01-2016,30 dias,"Portugal, Faro, Lagos<BR/>Portugal, Faro, Faro<BR/>Portugal, Faro, Portimão","Artigo 20.º, n.º 1, alínea a) do Código dos Contratos Públicos","","","","",,Não aplicável.,Não aplicável.,FALSE
Esponjas,Ajuste Direto Regime Geral,Aquisição de bens móveis,"33700000-7, Produtos para cuidados pessoais",Centro Hospitalar do Oeste (510412009),Meilex (501759441),"90,00 €",14-03-2016,21-01-2016,1 dias,"Portugal, Leiria, Caldas da Rainha","Artigo 20.º, n.º 1, alínea a) do Código dos Contratos Públicos",22-01-2016,"90,00 €","","",,Não aplicável.,Não aplicável.,FALSE
Fornecimento de Material de Consumo Hoteleiro e Artigos de Higiene e Limpeza,Ajuste Direto Regime Geral,Aquisição de bens móveis,"33700000-7, Produtos para cuidados pessoais","Unidade Local de Saúde do N. Alentejano,EPE(ULSNA) (508094461)",MEILEX LDA. (501759441),"287,20 €",03-03-2016,04-01-2016,365 dias,"Portugal, Portalegre","Artigo 20.º, n.º 1, alínea a) do Código dos Contratos Públicos",03-03-2016,"287,20 €","","",,Não aplicável.,Não aplicável.,FALSE
MATERIAL CONSUMO CLINICO,Ajuste Direto Regime Geral,Aquisição de bens móveis,"33000000-0, Equipamento médico, medicamentos e produtos para cuidados pessoais",Hospital Dr. Francisco Zagalo (501510150),"MEILEX, LDA (501759441)","648,00 €",22-02-2016,20-05-2015,180 dias,"Portugal, Aveiro, Ovar","Artigo 20.º, n.º 1, alínea a) do Código dos Contratos Públicos",31-12-2015,"648,00 €","","",,Não aplicável.,Não aplicável.,FALSE
Aquisição de toalhetes para lavagem de doentes,Ajuste Direto Regime Geral,Aquisição de bens móveis,"33141118-0, Toalhetes","Centro Hospitalar Lisboa Norte, E. P. E. (508481287)","Meilex, Lda. (501759441)","12.369,50 €",15-02-2016,29-01-2016,337 dias,"Portugal, Lisboa, Lisboa","Artigo 20.º, n.º 1, alínea a) do Código dos Contratos Públicos","","","","",,Não aplicável.,Não aplicável.,FALSE
MATERIAL DE CONSUMO HOTELEIRO,Ajuste Direto Regime Geral,Aquisição de bens móveis,"39000000-2, Mobiliário (incl. de escritório), acessórios, aparelhos domésticos (excl. iluminação) e produtos de limpeza","Instituto Português de Oncologia de Coimbra Francisco Gentil, E. P. E. (506361438)","MEILEX, LDA (501759441)","2.361,30 €",08-02-2016,29-12-2014,1095 dias,"Portugal, Coimbra, Coimbra","Artigo 20.º, n.º 1, alínea a) do Código dos Contratos Públicos",22-12-2017,"2.677,53 €","",fornecimento acima do valor previsto,,Não aplicável.,Não aplicável.,FALSE
Aquisição de artigos de higiene e cuidados pessoais,Ajuste Direto Regime Geral,Aquisição de bens móveis,"33700000-7, Produtos para cuidados pessoais","CENTRO HOSPITALAR LISBOA NORTE, EPE (508481287)","Meilex, Lda. (501759441)","2.656,80 €",29-01-2016,29-01-2016,337 dias,"Portugal, Lisboa, Lisboa","Artigo 20.º, n.º 1, alínea a) do Código dos Contratos Públicos","","","","",,Não aplicável.,Não aplicável.,FALSE
COLCHAS,Ajuste Direto Regime Geral,Aquisição de bens móveis,"39000000-2, Mobiliário (incl. de escritório), acessórios, aparelhos domésticos (excl. iluminação) e produtos de limpeza","Hospital Garcia de Orta, E. P. E. (506361470)","MEILEX, LDA. (501759441)","638,40 €",25-01-2016,16-12-2015,365 dias,"Portugal, Setúbal, Almada","Artigo 20.º, n.º 1, alínea a) do Código dos Contratos Públicos","","","","",,Não aplicável.,Não aplicável.,FALSE
Aquisição roupa de cama,Concurso público,Aquisição de bens móveis,"39512000-4, Roupa de cama","Centro Hospitalar Lisboa Norte, E. P. E. (508481287)","Meilex, Lda. (501759441)","130.595,50 €",13-01-2016,06-01-2016,360 dias,"Portugal, Lisboa, Lisboa","Artigo 20.º, n.º 1, alínea b) do Código dos Contratos Públicos","","","","",,Não aplicável.,Não aplicável.,FALSE
Aquisição de diversas almofadas,Ajuste Direto Regime Geral,Aquisição de bens móveis,"39516110-6, Almofadas","CENTRO HOSPITALAR LISBOA NORTE, EPE (508481287)","Meilex, Lda. (501759441)","3.549,52 €",04-01-2016,04-01-2016,362 dias,"Portugal, Lisboa, Lisboa","Artigo 20.º, n.º 1, alínea a) do Código dos Contratos Públicos","","","","",,Não aplicável.,Não aplicável.,FALSE
" Lençóis, Resguardos e Campos Cirúrgicos.",Ajuste Direto Regime Geral,Aquisição de bens móveis,"39512000-4, Roupa de cama<BR/>39518100-7, Roupa para blocos operatórios","Centro Hospitalar e Universitário de Coimbra, E. P. E. (510103448)","MEILEX, LDA (501759441)","31.387,00 €",29-12-2015,23-12-2015,8 dias,"Portugal, Coimbra, Coimbra","Artigo 24.º, n.º 1, alínea c) do Código dos Contratos Públicos","","","","",,Não aplicável.,Não aplicável.,FALSE
Aquisição e transporte de colchões para CM,Ajuste Direto Regime Geral,Aquisição de bens móveis,"39143112-4, Colchões",Estado Maior do Exército (600021610),MEILEX (501759441),"12.050,00 €",18-12-2015,28-08-2015,15 dias,"Portugal, Lisboa, Lisboa","Artigo 20.º, n.º 1, alínea a) do Código dos Contratos Públicos","","","","",,Não aplicável.,Não aplicável.,FALSE
Produtos de higiene,Ajuste Direto Regime Geral,Aquisição de bens móveis,"33700000-7, Produtos para cuidados pessoais",Centro Hospitalar do Oeste (510412009),"Meilex,Lda (501759441)","297,00 €",15-12-2015,21-04-2015,1 dias,"Portugal, Leiria, Caldas da Rainha","Artigo 20.º, n.º 1, alínea a) do Código dos Contratos Públicos",22-04-2015,"297,00 €","","",,Não aplicável.,Não aplicável.,FALSE
Aquisição escovas e esponjas higiene,Ajuste Direto Regime Geral,Aquisição de bens móveis,"33700000-7, Produtos para cuidados pessoais",Centro Hospitalar do Oeste (510412009),Meilex (501759441),"242,40 €",14-12-2015,16-02-2015,1 dias,"Portugal, Leiria, Caldas da Rainha","Artigo 20.º, n.º 1, alínea a) do Código dos Contratos Públicos",17-02-2015,"242,40 €","","",,Não aplicável.,Não aplicável.,FALSE
A0180/2015 - Aquisição de Toalhas Rosto e Banho,Ajuste Direto Regime Geral,Aquisição de bens móveis,"39514100-9, Toalhas",Estado-Maior do Exército (600021610),MEILEX (501759441),"66.690,00 €",14-12-2015,07-04-2015,30 dias,"Portugal, Setúbal, Alcochete","Artigo 20.º, n.º 1, alínea a) do Código dos Contratos Públicos","","","","",,Não aplicável.,Não aplicável.,FALSE
Aquisição Material Hoteleiro - 74/00003599/2015,Ajuste Direto Regime Geral,Aquisição de bens móveis,"33764000-3, Guardanapos de papel","Centro Hospitalar do Algarve, E. P. E. (510745997)","MEILEX, LDA (501759441)","46,00 €",03-12-2015,30-11-2015,30 dias,"Portugal, Faro, Portimão<BR/>Portugal, Faro, Faro<BR/>Portugal, Faro, Lagos","Artigo 20.º, n.º 1, alínea a) do Código dos Contratos Públicos","","","","",,Não aplicável.,Não aplicável.,FALSE
Aquisição de Toalhetes de Espuma,Ajuste Direto Regime Geral,Aquisição de bens móveis,"33700000-7, Produtos para cuidados pessoais","Centro Hospitalar Vila Nova de Gaia - Espinho, E. P. E. (508142156)",MEILEX (501759441),"935,00 €",27-11-2015,19-12-2014,10 dias,"Portugal, Porto, Vila Nova de Gaia","Artigo 24.º, n.º 1, alínea c) do Código dos Contratos Públicos","","","","",,Não aplicável.,Não aplicável.,FALSE
consumo hoteleiro,Ajuste Direto Regime Geral,Aquisição de bens móveis,"39300000-5, Equipamento diverso",Hospital Dr. Francisco Zagalo (501510150),"MEILEX,LDA. (501759441)","214,56 €",16-11-2015,06-02-2014,30 dias,"Portugal, Aveiro, Ovar","Artigo 20.º, n.º 1, alínea a) do Código dos Contratos Públicos",28-02-2014,"214,56 €","","",,Não aplicável.,Não aplicável.,FALSE
Aquisição de material de consumo clinico,Ajuste Direto Regime Geral,Aquisição de bens móveis,"33140000-3, Material médico de consumo",Hospital Dr. Francisco Zagalo (501510150),"MEILEX,LDA (501759441)","108,00 €",16-11-2015,12-12-2014,19 dias,"Portugal, Aveiro, Ovar","Artigo 20.º, n.º 1, alínea a) do Código dos Contratos Públicos",31-12-2014,"108,00 €","","",,Não aplicável.,Não aplicável.,FALSE
MATERIAL CONSUMO CLINICO,Ajuste Direto Regime Geral,Aquisição de bens móveis,"33140000-3, Material médico de consumo",Hospital Dr. Francisco Zagalo (501510150),"MEILEX, LDA (501759441)","180,00 €",13-11-2015,29-09-2014,122 dias,"Portugal, Aveiro, Ovar","Artigo 20.º, n.º 1, alínea a) do Código dos Contratos Públicos",31-12-2014,"180,00 €","","",,Não aplicável.,Não aplicável.,FALSE
Aquisição de diverso material de limpeza,Ajuste Direto Regime Geral,Aquisição de bens móveis,"39830000-9, Produtos de limpeza","Centro Hospitalar Lisboa Norte, E. P. E. (508481287)","Meilex, Lda. (501759441)","21,00 €",11-11-2015,11-11-2015,50 dias,"Portugal, Lisboa, Lisboa","Artigo 20.º, n.º 1, alínea a) do Código dos Contratos Públicos","","","","",,Não aplicável.,Não aplicável.,FALSE
Aquisição de material de consumo clínico,Ajuste Direto Regime Geral,Aquisição de bens móveis,"33140000-3, Material médico de consumo",Hospital Dr. Francisco Zagalo (501510150),MEILEX LDA (501759441),"160,00 €",09-11-2015,18-04-2014,260 dias,"Portugal, Aveiro, Ovar","Artigo 20.º, n.º 1, alínea a) do Código dos Contratos Públicos",31-12-2014,"160,00 €","","",,Não aplicável.,Não aplicável.,FALSE
"FORNECIMENTO E MONTAGEM DE CORTINAS PARA A URGÊNCIA DO CHLC, EPE (HSJ)",Ajuste Direto Regime Geral,Aquisição de serviços,"98300000-6, Serviços diversos","Centro Hospitalar de Lisboa Central, E. P. E. (508080142)",MEILEX (501759441),"28.200,00 €",04-11-2015,29-07-2015,40 dias,"Portugal, Lisboa, Lisboa","Artigo 20.º, n.º 1, alínea a) do Código dos Contratos Públicos","","","","",,Não aplicável.,Não aplicável.,FALSE
Aquisição de material de consumo hoteleiro,Ajuste Direto Regime Geral,Aquisição de bens móveis,"39830000-9, Produtos de limpeza","Hospital de Santa Maria Maior, E. P. E. (506361381)","Meilex, Lda (501759441)","1.269,30 €",30-10-2015,07-05-2015,365 dias,"Portugal, Braga, Barcelos","Artigo 20.º, n.º 1, alínea a) do Código dos Contratos Públicos","","","","",,Não aplicável.,Não aplicável.,FALSE
AQUISIÇÃO DE ROUPA HOSPITALAR,Ajuste Direto Regime Geral,Aquisição de bens móveis,"39500000-7, Artigos têxteis","Hospital de Santa Maria Maior, E. P. E. (506361381)","MEILEX,LDA (501759441)","1.358,00 €",28-10-2015,18-05-2015,136 dias,"Portugal, Braga, Barcelos","Artigo 20.º, n.º 1, alínea a) do Código dos Contratos Públicos",30-09-2015,"1.358,00 €","","",,Não aplicável.,Não aplicável.,FALSE
AQUISIÇÃO DE ROUPA HOSPITALAR,Ajuste Direto Regime Geral,Aquisição de bens móveis,"39500000-7, Artigos têxteis","Hospital de Santa Maria Maior, E. P. E. (506361381)","MEILEX,LDA (501759441)","3.520,00 €",28-10-2015,18-05-2015,136 dias,"Portugal, Braga, Barcelos","Artigo 20.º, n.º 1, alínea a) do Código dos Contratos Públicos",30-09-2015,"3.520,00 €","","",,Não aplicável.,Não aplicável.,FALSE
Aquisição de produtos de higiene,Ajuste Direto Regime Geral,Aquisição de bens móveis,"33700000-7, Produtos para cuidados pessoais",Centro Hospitalar do Oeste (510412009),Meilex (501759441),"484,80 €",21-10-2015,20-02-2014,1 dias,"Portugal, Leiria, Caldas da Rainha","Artigo 20.º, n.º 1, alínea a) do Código dos Contratos Públicos",21-02-2014,"484,80 €","","",,Não aplicável.,Não aplicável.,FALSE
Aquisição Material Hoteleiro - 74/00002770/2015,Ajuste Direto Regime Geral,Aquisição de bens móveis,"39143110-0, Camas, artigos para camas e tecidos especiais para decoração de interiores","Centro Hospitalar do Algarve, E. P. E. (510745997)","MEILEX, LDA (501759441)","30,86 €",02-09-2015,30-07-2015,7 dias,"Portugal, Faro, Portimão<BR/>Portugal, Faro, Faro<BR/>Portugal, Faro, Lagos","Artigo 20.º, n.º 1, alínea a) do Código dos Contratos Públicos","","","","",,Não aplicável.,Não aplicável.,FALSE
"Aquisição de Artigos de Higiene, Limpeza, Detergentes e Desinfetantes",Concurso público,Aquisição de bens móveis,"39830000-9, Produtos de limpeza","Centro Hospitalar Vila Nova de Gaia - Espinho, E. P. E. (508142156)",MEILEX (501759441),"15.584,60 €",06-08-2015,07-07-2015,150 dias,"Portugal, Porto, Vila Nova de Gaia","Artigo 20.º, n.º 1, alínea b) do Código dos Contratos Públicos","","","","",,Não aplicável.,Não aplicável.,FALSE
AQUISIÇÃO MATERIAL CONSUMO CLINICO,Ajuste Direto Regime Geral,Aquisição de bens móveis,"33140000-3, Material médico de consumo",Hospital Dr. Francisco Zagalo (501510150),MEILEX (501759441),"216,00 €",03-06-2015,25-03-2015,40 dias,"Portugal, Aveiro, Ovar","Artigo 20.º, n.º 1, alínea a) do Código dos Contratos Públicos",29-04-2015,"216,00 €","","",,Não aplicável.,Não aplicável.,FALSE
Roupa hospitalar,Concurso público,Aquisição de bens móveis,"39518000-6, Roupa para uso hospitalar",Centro Hospitalar de Lisboa Central E.P.E. (508080142),Meilex (501759441),"280,00 €",12-05-2015,30-04-2014,240 dias,"Portugal, Lisboa, Lisboa","Artigo 20.º, n.º 1, alínea b) do Código dos Contratos Públicos","","","","",,Não aplicável.,Não aplicável.,FALSE
Aquisição de Material Hoteleiro e Detergentes,Concurso público,Aquisição de bens móveis,"39830000-9, Produtos de limpeza","Centro Hospitalar do Algarve, E. P. E. (510745997)","FRANKLAB PORTUGAL, LDA (506058654), PRODYALCA - COMÉRCIO DE PRODUTOS QUIMICOS, LDA. (506565165), AVIQUIMICA IMPORT E MANUFATURA (500039720), ASC- Arménio Salgado Costa- Comércio de Produtos de Higiene, Lda  (505495414), MARIFISCO - COMERCIO E SERVIÇOS UNIPESSOAL, LDA. (502292105), SERVISAN-PROD HIGIENE S.A (500246530), MEILEX, LDA (501759441), JBSHIGI, Lda. (513110461), FITISAN - PRODUTOS DE HIGIENE EMBALAGEM, LDA (506320073), LUSOQUIMICA-PRO.QUIMICOS M.LDA (504133802), A.MENDES DA SILVA LDA (502064080)","73.356,80 €",05-05-2015,24-04-2015,241 dias,"Portugal, Faro, Portimão<BR/>Portugal, Faro, Lagos<BR/>Portugal, Faro, Faro","Artigo 20.º, n.º 1, alínea b) do Código dos Contratos Públicos","","","","",,Não aplicável.,Não aplicável.,FALSE
"Colchões espuma, almofadas e capas sanitárias",Ajuste Direto Regime Geral,Aquisição de bens móveis,"19000000-6, Materiais têxteis, de couro, de plástico e de borracha","Centro Hospitalar de Lisboa Central, E. P. E. (508080142)",Meilex (501759441),"3.104,90 €",29-04-2015,17-03-2014,360 dias,"Portugal, Lisboa, Lisboa","Artigo 20.º, n.º 1, alínea a) do Código dos Contratos Públicos","","","","",,Não aplicável.,Não aplicável.,FALSE
Esponja higiene corporal 250 x 170 x 5mm,Ajuste Direto Regime Geral,Aquisição de bens móveis,"33000000-0, Equipamento médico, medicamentos e produtos para cuidados pessoais",CHO - Centro Hospitalar do Oeste (510412009),"MEILEX, LDA. (501759441)","4.443,99 €",24-04-2015,21-03-2014,275 dias,"Portugal, Leiria, Caldas da Rainha","Artigo 20.º, n.º 1, alínea a) do Código dos Contratos Públicos",31-12-2014,"4.443,99 €","","",,Não aplicável.,Não aplicável.,FALSE
"Aquisição de Material de Consumo Hoteleiro, para o ano 2015.",Ajuste Direto Regime Geral,Aquisição de bens móveis,"39000000-2, Mobiliário (incl. de escritório), acessórios, aparelhos domésticos (excl. iluminação) e produtos de limpeza","Unidade Local de Saúde do Norte Alentejano, E. P. E. (508094461)",MEILEX LDA. (501759441),"4.699,40 €",21-04-2015,28-01-2015,365 dias,"Portugal, Portalegre","Artigo 20.º, n.º 1, alínea a) do Código dos Contratos Públicos",21-04-2015,"4.699,40 €","","",,Não aplicável.,Não aplicável.,FALSE
Aquisição de Almofadas,Ajuste Direto Regime Geral,Aquisição de bens móveis,"39516110-6, Almofadas",Centro Hospitalar do Oeste (510412009),"Meilex, Lda (501759441)","6.975,00 €",15-04-2015,20-10-2014,20 dias,"Portugal, Leiria, Caldas da Rainha","Artigo 20.º, n.º 1, alínea a) do Código dos Contratos Públicos",20-10-2014,"6.975,00 €","","",,Não aplicável.,Não aplicável.,FALSE
"ICP20140012 - Roupas de cama, atoalhados e roupa confecionada P/2015",Concurso público,Aquisição de bens móveis,"39500000-7, Artigos têxteis","Serviço de Saúde da Região Autónoma da Madeira, E. P. E. (511228848)","MEILEX,LDA (501759441)","33.217,00 €",14-04-2015,04-03-2015,304 dias,"Portugal, Região Autónoma da Madeira, Funchal","Artigo 20.º, n.º 1, alínea b) do Código dos Contratos Públicos","","","","",,Não aplicável.,Não aplicável.,FALSE
MATERIAL CONSUMO CLINICO - 29,Ajuste Direto Regime Geral,Aquisição de bens móveis,"33140000-3, Material médico de consumo",Hospital Dr. Francisco Zagalo (501510150),MEILEX (501759441),"108,00 €",10-04-2015,13-02-2015,11 dias,"Portugal, Aveiro, Ovar","Artigo 20.º, n.º 1, alínea a) do Código dos Contratos Públicos",24-02-2015,"108,00 €","","",,Não aplicável.,Não aplicável.,FALSE
74/1363/2015 - AQUISIÇÃO DE MATERIAL DE LIMPEZA,Ajuste Direto Regime Geral,Aquisição de bens móveis,"39222100-5, Material descartável para fornecimento de refeições (catering)","Centro Hospitalar do Algarve, E. P. E. (510745997)","MEILEX, LDA (501759441)","88,38 €",16-03-2015,13-03-2015,60 dias,"Portugal, Faro, Portimão<BR/>Portugal, Faro, Lagos<BR/>Portugal, Faro, Faro","Artigo 20.º, n.º 1, alínea a) do Código dos Contratos Públicos","","","","",,Não aplicável.,Não aplicável.,FALSE
1BAD20140381 - ROUPAS DE CAMA E ATOALHADOS - MEILEX,Ajuste Direto Regime Geral,Aquisição de bens móveis,"18000000-9, Vestuário, calçado, malas e artigos de viagem, acessórios","Serviço de Saúde da Região Autónoma da Madeira, E. P. E. (511228848)","MEILEX,LDA (501759441)","2.520,00 €",16-03-2015,13-03-2015,295 dias,"Portugal, Região Autónoma da Madeira, Funchal","Artigo 20.º, n.º 1, alínea a) do Código dos Contratos Públicos e artigo 4.º, nº 1 do DLR nº 34/2008/M, de 14.08","","","","",,Não aplicável.,Não aplicável.,FALSE
"Toalhas para B.O., resguardos e roupões.",Ajuste Direto Regime Geral,Aquisição de bens móveis,"39518200-8, Lençóis para blocos operatórios<BR/>18318000-1, Roupa de dormir","Centro Hospitalar e Universitário de Coimbra, E. P. E. (510103448)","MEILEX, LDA (501759441)","22.843,50 €",10-03-2015,16-02-2015,180 dias,"Portugal, Coimbra, Coimbra","Artigo 20.º, n.º 1, alínea a) do Código dos Contratos Públicos","","","","",,Não aplicável.,Não aplicável.,FALSE
Aquisição de material consumo clinico - 29,Ajuste Direto Regime Geral,Aquisição de bens móveis,"33140000-3, Material médico de consumo",Hospital Dr. Francisco Zagalo (501510150),Meilex (501759441),"108,00 €",23-02-2015,08-01-2015,22 dias,"Portugal, Aveiro, Ovar","Artigo 20.º, n.º 1, alínea a) do Código dos Contratos Públicos",30-01-2015,"108,00 €","","",,Não aplicável.,Não aplicável.,FALSE
Material de Higiene e Protecção,Ajuste Direto Regime Geral,Aquisição de bens móveis,"33140000-3, Material médico de consumo","Centro Hospitalar do Tâmega e Sousa, E. P. E. (508318262)","MEILEX, LDA (501759441)","6.251,40 €",09-02-2015,01-02-2015,212 dias,"Portugal, Porto, Penafiel<BR/>Portugal, Porto, Amarante","Artigo 20.º, n.º 1, alínea a) do Código dos Contratos Públicos","","","","",,Não aplicável.,Não aplicável.,FALSE
74/748/2015 - Aquisição de material diverso - hoteleiro,Ajuste Direto Regime Geral,Aquisição de bens móveis,"44423000-1, Artigos diversos","Centro Hospitalar do Algarve, E. P. E. (510745997)","MEILEX, LDA (501759441)","44,15 €",06-02-2015,20-01-2015,18 dias,"Portugal, Faro, Portimão<BR/>Portugal, Faro, Faro<BR/>Portugal, Faro, Lagos","Artigo 20.º, n.º 1, alínea a) do Código dos Contratos Públicos","","","","",,Não aplicável.,Não aplicável.,FALSE
Contrato Meilex,Concurso público,Aquisição de bens móveis,"33700000-7, Produtos para cuidados pessoais","Centro Hospitalar de Entre o Douro e Vouga, E.P.E. (508878462)","Meilex, Lda (501759441)","39.949,14 €",02-02-2015,02-12-2014,1095 dias,"Portugal, Aveiro, Santa Maria da Feira","Artigo 20.º, n.º 1, alínea b) do Código dos Contratos Públicos","","","","",,Não aplicável.,Não aplicável.,FALSE
Aquisição de material de consumo hoteleiro e artigos de limpeza,Ajuste Direto Regime Geral,Aquisição de bens móveis,"39000000-2, Mobiliário (incl. de escritório), acessórios, aparelhos domésticos (excl. iluminação) e produtos de limpeza","Unidade Local de Saúde do Norte Alentejano, E. P. E. (508094461)",Meilex (501759441),"4.511,45 €",22-09-2014,29-01-2014,365 dias,"Portugal, Portalegre","Artigo 20.º, n.º 1, alínea a) do Código dos Contratos Públicos","","","","",,Não aplicável.,Não aplicável.,FALSE
040401602014 - Artigos de Rouparia,Ajuste Direto Regime Geral,Aquisição de bens móveis,"19000000-6, Materiais têxteis, de couro, de plástico e de borracha","Centro Hospitalar e Universitário de Coimbra, E. P. E. (510103448)","MEILEX, LDA (501759441)","51.340,00 €",02-09-2014,01-07-2014,120 dias,"Portugal, Coimbra, Coimbra","Artigo 20.º, n.º 1, alínea a) do Código dos Contratos Públicos","","","","",,Não aplicável.,Não aplicável.,FALSE
Diverso material de consumo hoteleiro,Ajuste Direto Regime Geral,Aquisição de bens móveis,"19520000-7, Produtos de plástico","Centro Hospitalar do Algarve, E. P. E. (510745997)","MEILEX, LDA (501759441)","2.454,45 €",14-05-2014,18-03-2014,289 dias,"Portugal, Faro, Faro","Artigo 20.º, n.º 1, alínea a) do Código dos Contratos Públicos","","","","",,Não aplicável.,Não aplicável.,FALSE
Roupa de Cama e Atoalhados para 2013,Ajuste Direto Regime Geral,Aquisição de bens móveis,"39518000-6, Roupa para uso hospitalar","Serviço de Saúde da Região Autónoma da Madeira, E.P.E. (511228848)","MEILEX,LDA (501759441)","7.970,00 €",18-10-2013,19-06-2013,195 dias,"Portugal, Região Autónoma da Madeira, Funchal","Artigo 20.º, n.º 1, alínea a) do Código dos Contratos Públicos",31-12-2013,"7.970,00 €","","",,Não aplicável.,Não aplicável.,
Roupa Hospitalar,Ajuste Direto Regime Geral,Aquisição de bens móveis,"33000000-0, Equipamento médico, medicamentos e produtos para cuidados pessoais","Centro Hospitalar Barreiro Montijo, E. P. E. (509186998)","MEILEX,LDA. (501759441)","2.007,50 €",17-07-2013,04-07-2013,360 dias,"Portugal, Setúbal, Barreiro","Artigo 20.º, n.º 1, alínea a) do Código dos Contratos Públicos",31-12-2013,"585,00 €","",quantidades fornecidas,,Não aplicável.,Não aplicável.,
Aquisição de diversas almofadas,Ajuste Direto Regime Geral,Aquisição de bens móveis,"39516110-6, Almofadas","Centro Hospitalar Lisboa Norte, EPE (508481287)","Meilex, Lda. (501759441)","4.213,60 €",30-01-2013,30-01-2013,5 dias,"Portugal, Lisboa, Lisboa","Artigo 20.º, n.º 1, alínea a) do Código dos Contratos Públicos","","","","",,Não aplicável.,Não aplicável.,
"Aquisição de material de consumo hoteleiro, durante o ano de 2013.",Ajuste Direto Regime Geral,Aquisição de bens móveis,"39830000-9, Produtos de limpeza",HOSPITAL DR FRANCISCO ZAGALO (501510150),"Meilex, Lda. (501759441), J.P.Relva (200442783), A.J.Oliveira (502293748)","6.268,99 €",30-01-2013,22-01-2013,365 dias,"Portugal, Aveiro, Ovar","Artigo 20.º, n.º 1, alínea a) do Código dos Contratos Públicos",03-07-2013,"6.178,16 €","",fornecimentos abaixo do previsto,,Não aplicável.,Não aplicável.,
"Fornecimento Contínuo de Toalhas de Mão, Papel Higienico e Produtos e Limpeza para os anos de 2010 e 2011",Ajuste Direto Regime Geral,Aquisição de bens móveis,"33763000-6, Toalhas de mão de papel",Município de Aveiro (505931192),"Meilex, Lda. (501759441)","1.964,01 €",16-05-2012,09-04-2011,730 dias,"Portugal, Aveiro, Aveiro","Artigo 20.º, n.º 1, alínea a) do Código dos Contratos Públicos",30-12-2011,"1.099,02 €","","Concurso lançado com valor estimado em função dos anos anteriores, e que não foi totalmente necessário",,Não aplicável.,Não aplicável.,
Aquisição de material de limpeza e higiene.,Ajuste Direto Regime Geral,Aquisição de serviços<br/>Aquisição de bens móveis<br/>Locação de bens móveis<br/>Concessão de serviços públicos,"33760000-5, Papel higiénico, lenços, toalhas de mão e guardanapos",HOSPITAL DR FRANCISCO ZAGALO (501510150),"J P RELVA (200442783), MEILEX (501759441), A J OLIVEIRA (502293748)","10.162,60 €",13-04-2012,23-03-2011,280 dias,"Portugal, Aveiro, Ovar","Artigo 21.º, n.º 1, alínea a) do Código dos Contratos Públicos",31-12-2011,"6.961,44 €","",Previsão de consumos superior às aquisições.,,Não aplicável.,Não aplicável.,
"Aquisição de sacos plásticos para lixo, roupa suja e outros.",Ajuste Direto Regime Geral,Aquisição de serviços<br/>Aquisição de bens móveis<br/>Concessão de serviços públicos<br/>Locação de bens móveis,"33140000-3, Material médico de consumo",HOSPITAL DR FRANCISCO ZAGALO (501510150),"A J OLIVEIRA LDA (502293748), MEILEX LDA (501759441)","5.772,36 €",12-04-2012,23-03-2011,279 dias,"Portugal, Aveiro, Ovar","Artigo 20.º, n.º 1, alínea a) do Código dos Contratos Públicos",31-12-2011,"4.669,58 €","",Previsão de consumos superior às aquisições.,,Não aplicável.,Não aplicável.,
Aquisição de material de consumo hoteleiro - consumíveis estomatologia,Ajuste Direto Regime Geral,Aquisição de bens móveis,"33131300-0, Material odontológico descartável","Administração Regional de Saúde de Lisboa e Vale do Tejo, I.P. (503148776)",Meilex Lda. (501759441),"11.445,10 €",17-06-2011,18-05-2011,20 dias,"Portugal, Lisboa, Lisboa","Artigo 20.º, n.º 1, alínea a) do Código dos Contratos Públicos","","","","",,Não aplicável.,Não aplicável.,
Aquisição de detergentes diversos,Ajuste Direto Regime Geral,Aquisição de bens móveis,"39224300-1, Vassouras, escovas e outros artigos para limpeza doméstica",Centro Hospitalar Psiquiátrico de Coimbra (CHPC) (508412110),"Meilex, Ld.ª (501759441), José Manuel Lopes Penetra (159961130), Higimarto, Ld.ª (504512218)","4.412,80 €",11-03-2011,17-06-2010,197 dias,"Portugal, Coimbra, Coimbra","Artigo 20.º, n.º 1, alínea a) do Código dos Contratos Públicos","","","","",,Não aplicável.,Não aplicável.,
Aquisição de esponjas para higiene dos doentes durante o ano de 2011,Ajuste Direto Regime Geral,Locação de bens móveis<br/>Aquisição de serviços<br/>Aquisição de bens móveis<br/>Concessão de serviços públicos,"39200000-4, Fornecimentos",HOSPITAL DR FRANCISCO ZAGALO (501510150),Meilex (501759441),"576,00 €",02-03-2011,14-02-2011,300 dias,"Portugal, Aveiro, Ovar","Artigo 20.º, n.º 1, alínea a) do Código dos Contratos Públicos",31-12-2011,"576,00 €","","",,Não aplicável.,Não aplicável.,
Diverso Material Hoteleiro,Ajuste Direto Regime Geral,Aquisição de bens móveis,"44423000-1, Artigos diversos",Centro de Medicina de Reabilitação da Região Centro - Rovisco Pais (503767336),"Meilex, Ldª. (501759441)","7.445,25 €",15-10-2010,01-03-2010,365 dias,"Portugal, Coimbra, Cantanhede","Artigo 24.º, n.º 1, alínea a) do Código dos Contratos Públicos","","","","",,Não aplicável.,Não aplicável.,
Aquisição de Material de Higiene e Limpeza,Ajuste Direto Regime Geral,Aquisição de bens móveis,"33770000-8, Artigos de papel para uso sanitário",Hospital Distrital de Águeda (501804196),"Meilex, Lda. (501759441)","1.407,50 €",19-01-2010,11-01-2010,365 dias,"Portugal, Aveiro, Águeda","Artigo 20.º, n.º 1, alínea a) do Código dos Contratos Públicos","","","","",,Não aplicável.,Não aplicável.,
Artigos de Retrosaria,Ajuste Direto Regime Geral,"","","Hospitais da Universidade de Coimbra, E.P.E. (508717191)","Meilex, L.da (501759441), Barbosa & Neto, L.da (502461500), Coelhos Têxteis, L.da (502841249), Rasteiro Têxtil, L.da. (506736059), Dias & Vicentes (500901694)","5.040,68 €",01-06-2009,"",210 dias,"",O do mais baixo preço.,"","","","",,Não aplicável.,Não aplicável.,
Panos Turcos Cinzentos,Ajuste Direto Regime Geral,"","","Hospitais da Universidade de Coimbra, E.P.E. (508717191)","Meilex, L.da (501759441)","432,60 €",22-05-2009,"",180 dias,"",O do mais baixo preço,"","","","",,Não aplicável.,Não aplicável.,
Capas para Colchão,Ajuste Direto Regime Geral,"","","Hospitais da Universidade de Coimbra, E.P.E. (508717191)","Meilex, L.da (501759441)","4.010,00 €",22-05-2009,"",180 dias,"",O do mais baixo preço,"","","","",,Não aplicável.,Não aplicável.,
