Objeto do Contrato,Tipo de Procedimento,Tipo(s) de Contrato,CPVs,Entidade(s) Adjudicante(s),Entidade(s) Adjudicatária(s),Preço Contratual,Data de Publicação,Data de Celebração do Contrato,Prazo de Execução,Local de Execução,Fundamentação,Data de Fecho do Contrato,Preço Total Efetivo,Causas das Alterações ao Prazo,Causas das Alterações ao Preço,Estado,N.º registo do Acordo Quadro,Descrição do Acordo Quadro,Procedimento Centralizado
Regularização de serviços de telerradiologia de Março a Maio de 2018,Ajuste Direto Regime Geral,Aquisição de serviços,"85000000-9, Serviços de saúde e acção social","Centro Hospitalar de Setúbal, E. P. E. (507606787)","I.T.M-INSTITUTO DE TELEMEDICINA, LDA (506705641)","69.104,00 €",06-07-2018,05-07-2018,90 dias,"Portugal, Setúbal, Setúbal","Artigo 24.º, n.º 1, alínea e), subalínea ii) do Código dos Contratos Públicos","","","","",,Não aplicável.,Não aplicável.,FALSE
"Serviços de Telerradiologia, de Março a Dezembro de 2018",Concurso público,Aquisição de serviços,"85150000-5, Serviços de imagiologia médica",CENTRO HOSPITALAR DE SETÚBAL E.P.E. (507606787),"INSTITUTO DE TELEMEDICINA , LDA (506705641)","200.500,00 €",14-06-2018,11-06-2018,304 dias,"Portugal<BR/>Portugal, Setúbal, Setúbal","Artigo 20.º, n.º 1, alínea a) do Código dos Contratos Públicos","","","","",,Não aplicável.,Não aplicável.,FALSE
Aquisição de Prestação de Serviços Médicos por Telerradiologia – Relatórios TAC,Ajuste Direto Regime Geral,Aquisição de serviços,"85000000-9, Serviços de saúde e acção social","Centro Hospitalar de Entre o Douro e Vouga, E.P.E. (508878462)","I.T.M. - Instituto de Telemedicina, Lda (506705641)","75.000,00 €",05-06-2018,03-01-2018,31 dias,"Portugal, Aveiro, Santa Maria da Feira","Artigo 24.º, n.º 1, alínea c) do Código dos Contratos Públicos","","","","",,Não aplicável.,Não aplicável.,FALSE
"S10010/2018 Serviços de Telerradiologia ao CHBM, EPE",Concurso público,Aquisição de serviços,"85150000-5, Serviços de imagiologia médica","Centro Hospitalar Barreiro Montijo, E. P. E. (509186998)","I.T.M. - Instituto de Telemedicina, Lda (506705641)","160.175,00 €",04-06-2018,01-02-2018,365 dias,"Portugal, Setúbal, Barreiro","Artigo 20.º, n.º 1, alínea b) do Código dos Contratos Públicos",31-12-2018,"171.942,00 €","",Consumo efetivo superior à estimativa inicial,,Não aplicável.,Não aplicável.,FALSE
"Serviços de Telerradiologia, de Janeiro a Fevereiro de 2018",Ajuste Direto Regime Geral,Aquisição de serviços,"85150000-5, Serviços de imagiologia médica","Centro Hospitalar de Setúbal, E. P. E. (507606787)","I.T.M. - Instituto de Telemedicina, Lda (506705641)","40.100,00 €",12-03-2018,22-02-2018,59 dias,"Portugal, Setúbal, Setúbal","Artigo 24.º, n.º 1, alínea c) do Código dos Contratos Públicos","","","","",,Não aplicável.,Não aplicável.,FALSE
Prestação serviços de telemedicina,Ao abrigo de acordo-quadro (art.º 259.º),Aquisição de serviços,"64224000-2, Serviços de teleconferência","Centro Hospitalar do Tâmega e Sousa, E.P.E. (508318262)","I.T.M. - Instituto de Telemedicina, Lda (506705641)","769.260,00 €",19-01-2018,18-07-2017,1096 dias,"Portugal, Porto, Penafiel",Artigo 259.º do Código dos Contratos Públicos,"","","","",,1487860,CELEBRAÇÃO DE ACORDO QUADRO PARA PRESTAÇÃO DE SERVIÇOS DE TELEMEDICINA,FALSE
"Aquisição de serviços de Telerradiologia para o Hospital Distrital da Figueira da Foz, E.P.E.",Ao abrigo de acordo-quadro (art.º 259.º),Aquisição de serviços,"64224000-2, Serviços de teleconferência","Hospital Distrital Figueira da Foz, E.P.E. (506361527)","I.T.M. - Instituto de Telemedicina, Lda (506705641)","119.100,00 €",25-10-2017,19-10-2017,365 dias,"Portugal, Coimbra, Figueira da Foz",Artigo 259.º do Código dos Contratos Públicos,"","","","",,1487860,CELEBRAÇÃO DE ACORDO QUADRO PARA PRESTAÇÃO DE SERVIÇOS DE TELEMEDICINA,FALSE
"4CPS0002/2017 Fornecimento de Serviços de Telerradiologia ao CHBM, EPE",Ajuste Direto Regime Geral,Aquisição de serviços,"85150000-5, Serviços de imagiologia médica","CHBM - Centro Hospital Barreiro Montijo, EPE (509186998)","I.T.M. - Instituto de Telemedicina, Lda (506705641)","165.900,00 €",31-05-2017,04-01-2017,365 dias,"Portugal, Setúbal, Barreiro","Artigo 27.º, n.º 1, alínea a) do Código dos Contratos Públicos",31-12-2017,"162.989,00 €","",CONSUMO EFETIVO INFERIOR AO ESTIMADO,,Não aplicável.,Não aplicável.,FALSE
"Serviços de Telerradiologia, de Janeiro a Dezembro de 2017",Concurso público,Aquisição de serviços,"85150000-5, Serviços de imagiologia médica","Centro Hospitalar de Setúbal, E. P. E. (507606787)","I.T.M. - Instituto de Telemedicina, Lda (506705641)","240.600,00 €",03-03-2017,15-02-2017,320 dias,"Portugal, Setúbal, Setúbal","Artigo 20.º, n.º 1, alínea b) do Código dos Contratos Públicos","","","","",,Não aplicável.,Não aplicável.,FALSE
PRESTAÇÃO SERVIÇOS TELERRADIOLOGIA 1º SEMESTRE 2017,Ajuste Direto Regime Geral,Aquisição de serviços,"85000000-9, Serviços de saúde e acção social","Hospital Distrital de Santarém, E. P. E. (506361462)",ITM-Instituto de Tele-medicina Lda (506705641),"82.774,51 €",26-01-2017,20-12-2016,180 dias,"Portugal, Santarém, Santarém","Artigo 27.º, n.º 1, alínea a) e n.º 2 do Código dos Contratos Públicos","","","","",,Não aplicável.,Não aplicável.,FALSE
"S10008/2016 Serviços de Telerradiologia ao CHBM, EPE",Concurso público,Aquisição de serviços,"85150000-5, Serviços de imagiologia médica","Centro Hospitalar Barreiro Montijo, E. P. E. (509186998)",ITM- INSTITUTO DE TELEMEDICINA LDA (506705641),"88.852,00 €",07-11-2016,30-06-2016,184 dias,"Portugal, Setúbal, Barreiro","Artigo 20.º, n.º 1, alínea b) do Código dos Contratos Públicos",31-12-2016,"83.644,00 €","","Consumo efetivo, abaixo ao inicialmente estimado",,Não aplicável.,Não aplicável.,FALSE
4S0031/2016 SERVIÇOS DE TELERRADIOLOGIA P MESES JANEIRO E FEVEREIRO 2016,Ajuste Direto Regime Geral,Aquisição de serviços,"85150000-5, Serviços de imagiologia médica","Centro Hospitalar Barreiro Montijo, E. P. E. (509186998)",ITM- INSTITUTO DE TELEMEDICINA LDA (506705641),"15.236,50 €",04-11-2016,15-02-2016,60 dias,"Portugal, Setúbal, Barreiro","Artigo 20.º, n.º 1, alínea a) do Código dos Contratos Públicos",30-06-2016,"53.333,00 €","",Reforço da despesa face à necessidade de prolongar o periodo contratual,,Não aplicável.,Não aplicável.,FALSE
PRESTAÇÃO SERVIÇOS TELERRADIOLOGIA,Concurso público,Aquisição de serviços,"85150000-5, Serviços de imagiologia médica","Hospital Distrital de Santarém, EPE (506361462)",ITM- INSTITUTO DE TELEMEDICINA LDA (506705641),"97.970,00 €",02-08-2016,12-07-2016,172 dias,"Portugal, Santarém, Santarém","Artigo 20.º, n.º 1, alínea b) do Código dos Contratos Públicos","","","","",,Não aplicável.,Não aplicável.,FALSE
"Serviços de Telerradiologia, para Abril a Junho de 2016",Ajuste Direto Regime Geral,Aquisição de serviços,"85000000-9, Serviços de saúde e acção social","Centro Hospitalar de Setúbal, E. P. E. (507606787)","ITM - Instituto de Telemedicina, Lda (506705641)","60.150,00 €",01-04-2016,15-03-2016,91 dias,"Portugal, Setúbal, Setúbal","Artigo 20.º, n.º 1, alínea a) do Código dos Contratos Públicos","","","","",,Não aplicável.,Não aplicável.,FALSE
"S10002/2015 Fornecimento de Serviços de Telerradiologia às Instituições: CHBM EPE, CHS EPE e HGO EPE",Concurso público,Aquisição de serviços,"85150000-5, Serviços de imagiologia médica","Centro Hospitalar Barreiro Montijo, E. P. E. (509186998)","ITM - Instituto de Telemedicina, Lda. (506705641)","30.129,75 €",20-05-2015,04-05-2015,365 dias,"Portugal, Setúbal, Barreiro","Artigo 20.º, n.º 1, alínea b) do Código dos Contratos Públicos",31-12-2015,"67.378,02 €","","Houve necessidade de reforçar, uma vez que o nº de exames foi superior ao inicialmente estimado",,Não aplicável.,Não aplicável.,FALSE
4S0030/2015 Serviços de Telerradiologia para Março,Ajuste Direto Regime Geral,Aquisição de serviços,"85150000-5, Serviços de imagiologia médica","Centro Hospitalar Barreiro Montijo, E. P. E. (509186998)","ITM - Instituto de Telemedicina, Lda. (506705641)","7.938,50 €",15-05-2015,07-04-2015,30 dias,"Portugal, Setúbal, Barreiro","Artigo 20.º, n.º 1, alínea a) do Código dos Contratos Públicos",06-05-2015,"7.938,50 €","","",,Não aplicável.,Não aplicável.,FALSE
4S0024/2015 Serviços de Telerradiologia para Fevereiro,Ajuste Direto Regime Geral,Aquisição de serviços,"85150000-5, Serviços de imagiologia médica","Centro Hospitalar Barreiro Montijo, E. P. E. (509186998)","ITM - Instituto de Telemedicina, Lda. (506705641)","8.424,50 €",15-05-2015,06-03-2015,30 dias,"Portugal, Setúbal, Barreiro","Artigo 20.º, n.º 1, alínea a) do Código dos Contratos Públicos",25-05-2015,"6.246,50 €","",Nº de exames realizados inferior ao inicialmente estimado,,Não aplicável.,Não aplicável.,FALSE
4S0018/2015 Serviços de Telerradiologia para Janeiro,Ajuste Direto Regime Geral,Aquisição de serviços,"85150000-5, Serviços de imagiologia médica","Centro Hospitalar Barreiro Montijo, E. P. E. (509186998)","ITM - Instituto de Telemedicina, Lda (506705641)","7.387,42 €",15-05-2015,11-02-2015,30 dias,"Portugal, Setúbal, Barreiro","Artigo 20.º, n.º 1, alínea a) do Código dos Contratos Públicos",23-02-2015,"10.941,00 €","",Aumento do nr exames inicialemnte estimados,,Não aplicável.,Não aplicável.,FALSE
4S0014/2014 Fornecimento de Serviços - MCDT - Telemedicina/Telerradiologia,Ajuste Direto Regime Geral,Aquisição de serviços,"85150000-5, Serviços de imagiologia médica","Centro Hospitalar Barreiro Montijo, E. P. E. (509186998)","ITM - Instituto de Telemedicina, Lda (506705641)","45.435,00 €",26-03-2015,21-01-2014,89 dias,"Portugal, Setúbal, Barreiro","Artigo 27.º, n.º 1, alínea a) do Código dos Contratos Públicos",31-03-2014,"45.492,14 €","",Consumos superiores aos inicialmente estimados,,Não aplicável.,Não aplicável.,FALSE
4S0034/2014 Fornecimento de Serviços - MCDT - Telemedicina/Telerradiologia,Ajuste Direto Regime Geral,Aquisição de serviços,"85150000-5, Serviços de imagiologia médica","Centro Hospitalar Barreiro Montijo, E. P. E. (509186998)","ITM - Instituto de Telemedicina, Lda. (506705641)","45.435,00 €",26-03-2015,30-04-2014,122 dias,"Portugal, Setúbal, Barreiro","Artigo 27.º, n.º 1, alínea a) do Código dos Contratos Públicos",31-08-2014,"77.768,88 €",Houve necessidade de reforçar por mais 2 meses,Houve necessidade de reforçar por mais 2 meses e consequentemente houve aumento de valores,,Não aplicável.,Não aplicável.,FALSE
"S10007/2015 Fornecimento de Serviços de Telerradiologia aos Doentes dos CHBM EPE, CHS EPE e HGO EPE",Concurso público,Aquisição de serviços,"85150000-5, Serviços de imagiologia médica","Centro Hospitalar Barreiro Montijo, E. P. E. (509186998), Centro Hospitalar de Setúbal, E. P. E. (507606787), Hospital Garcia de Orta, EPE (506361470)","ITM - Instituto de Telemedicina, Lda (506705641)","74.732,63 €",26-03-2015,11-09-2014,122 dias,"Portugal, Setúbal, Barreiro","Artigo 20.º, n.º 1, alínea b) do Código dos Contratos Públicos",31-12-2014,"34.984,50 €","","O procedimento foi realizado para 3 entidades (valor do preço base), sendo apenas uma parte adjudicada ao CHBM.",,Não aplicável.,Não aplicável.,TRUE
Prestação de Serviços de Telemedicina,Ajuste Direto Regime Geral,Aquisição de serviços,"85000000-9, Serviços de saúde e acção social","Centro Hospitalar do Algarve, E. P. E. (510745997)",ITM - Instituto de Telemedicina (506705641),"54.106,71 €",05-03-2015,01-01-2014,322 dias,"Portugal, Faro, Faro","Artigo 20.º, n.º 1, alínea a) do Código dos Contratos Públicos","","","","",,Não aplicável.,Não aplicável.,FALSE
Prestação de Serviços de Telemedicina,Ajuste Direto Regime Geral,Aquisição de serviços,"85000000-9, Serviços de saúde e acção social","Centro Hospitalar do Algarve, E. P. E. (510745997)",ITM - Instituto de Telemedicina (506705641),"49.765,68 €",06-01-2015,01-01-2014,322 dias,"Portugal, Faro, Faro","Artigo 20.º, n.º 1, alínea a) do Código dos Contratos Públicos","","","","",,Não aplicável.,Não aplicável.,FALSE
Contrato ITM,Concurso público,Aquisição de serviços,"85150000-5, Serviços de imagiologia médica","Centro Hospitalar de Entre o Douro e Vouga, E.P.E. (508878462)","ITM - Instituto de Telemedicina, Lda (506705641)","151.718,50 €",12-06-2014,07-03-2014,365 dias,"Portugal, Aveiro, Santa Maria da Feira",Artigo 259.º do Código dos Contratos Públicos,"","","","",,Não aplicável.,Não aplicável.,FALSE
Prestação de Serviços de Telemedicina,Ajuste Direto Regime Geral,Aquisição de serviços,"85000000-9, Serviços de saúde e acção social","Hospital de Faro, E.P.E. (508718872)",ITM - Instituto de Telemedicina (506705641),"16.741,67 €",14-10-2013,01-10-2013,210 dias,"Portugal, Faro, Faro","Artigo 20.º, n.º 1, alínea a) do Código dos Contratos Públicos","","","","",,Não aplicável.,Não aplicável.,
Serviços médicos por teleradiologia - relatórios TAC,Concurso público,Aquisição de serviços,"85150000-5, Serviços de imagiologia médica","Centro Hospitalar de Entre o Douro e Vouga, E.P.E. (508878462)","ITM - Instituto de Telemedicina, Lda (506705641)","146.775,00 €",19-07-2013,15-03-2013,365 dias,"Portugal, Aveiro, Santa Maria da Feira","Artigo 20.º, n.º 1, alínea b) do Código dos Contratos Públicos","","","","",,Não aplicável.,Não aplicável.,
4S0019/2013 PRESTAÇÃO DE SERVIÇOS DE TELERRADIOLOGIA,Ajuste Direto Regime Geral,Aquisição de serviços,"85000000-9, Serviços de saúde e acção social","Centro Hospitalar Barreiro Montijo, E. P. E. (509186998)",ITM - INSTITUTO DE TELEMEDICINA (506705641),"165.446,00 €",19-06-2013,07-03-2013,360 dias,"Portugal, Setúbal, Barreiro","Artigo 27.º, n.º 1, alínea a) do Código dos Contratos Públicos",31-12-2013,"176.903,14 €","",Necessidade de reforçar as quantidades estimadas,,Não aplicável.,Não aplicável.,
