Objeto do Contrato,Tipo de Procedimento,Tipo(s) de Contrato,CPVs,Entidade(s) Adjudicante(s),Entidade(s) Adjudicatária(s),Preço Contratual,Data de Publicação,Data de Celebração do Contrato,Prazo de Execução,Local de Execução,Fundamentação,Data de Fecho do Contrato,Preço Total Efetivo,Causas das Alterações ao Prazo,Causas das Alterações ao Preço,Estado,N.º registo do Acordo Quadro,Descrição do Acordo Quadro,Procedimento Centralizado
Serviços Médicos no Serviço UCI,Ajuste Direto Regime Geral,Aquisição de serviços,"85000000-9, Serviços de saúde e acção social","Centro Hospitalar de Setúbal, E. P. E. (507606787)","GERMANO & EMÍLIO - SERVIÇOS DE SAÚDE, LDA (508029570)","49.920,00 €",29-05-2018,30-04-2018,365 dias,"Portugal, Setúbal, Setúbal","Artigo 20.º, n.º 1, alínea a) do Código dos Contratos Públicos",,,,,,Não aplicável.,Não aplicável.,FALSE
Serviços Médicos UCI - agosto a dezembro 2017,Ajuste Direto Regime Geral,Aquisição de serviços,"85000000-9, Serviços de saúde e acção social","Centro Hospitalar de Setúbal, E. P. E. (507606787)","GERMANO & EMÍLIO - SERVIÇOS DE SAÚDE, LDA (508029570)","21.120,00 €",07-11-2017,12-10-2017,152 dias,"Portugal, Setúbal, Setúbal","Artigo 20.º, n.º 1, alínea a) do Código dos Contratos Públicos",,,,,,Não aplicável.,Não aplicável.,FALSE
Prestação de Serviços Médicos na Área da Cuidados Intensivos 37004716 (horas-jan a março),Ajuste Direto Regime Geral,Aquisição de serviços,"85100000-0, Serviços de saúde","Centro Hospitalar do Médio Tejo, E. P. E. (506361608)","GERMANO & EMÍLIO - SERVIÇOS DE SAÚDE, LDA (508029570)","15.000,00 €",11-10-2016,13-06-2016,90 dias,"Portugal, Santarém, Torres Novas","Artigo 24.º, n.º 1, alínea c) do Código dos Contratos Públicos",,,,,,Não aplicável.,Não aplicável.,FALSE
Prestação de Serviços Médicos na Área dos Cuidados Intensivos- (horas abr a dez)- 37013916,Ajuste Direto Regime Geral,Aquisição de serviços,"85100000-0, Serviços de saúde","Centro Hospitalar do Médio Tejo, E. P. E. (506361608)","Germano & Emílio - Serviços de Saúde, Lda (508029570)","53.550,00 €",03-10-2016,28-07-2016,270 dias,"Portugal, Santarém, Torres Novas","Artigo 20.º, n.º 1, alínea a) do Código dos Contratos Públicos",,,,,,Não aplicável.,Não aplicável.,FALSE
