ID postos BU,ID ENSE,Marca,Concelho,Distrito,Endereço,GPL GNC/GNL,Capacidade
1217350985,0,GALP,S. Jorge,Açores,Lugar de S. Pedro,sim,112
1217085467,0,GALP,S. Miguel,Açores,Circular Ponta Delgada - Laranjeiras,sim,100
1214885489,0,GALP,Terceira,Açores,Circular externa - Silveira - S. Pedro,sim,100
1155691903,3171,GALP,Aveiro,Aveiro,"Posto Galp - Quinta do Simão Sul, Estrada da Taboeira",sim,190
1189359499,3187,GALP,Oliveira de Azeméis,Aveiro,"Posto Galp - E.N.1-Km 259,000 (Norte/Sul)",não,84
1259675882,1473,GALP,Ovar,Aveiro,Posto Galp - Rua de Gondosende 1565,sim,95
1156105919,3200,GALP,Santa Maria da Feira,Aveiro,"Posto Galp - E.N. 1-14, Km 3,00 (Rua de Meladas, 915 A)",sim,110
1156300789,3217,GALP,Beja,Beja,Posto Galp - Av. Fialho de Almeida,sim,94
1156233895,3223,GALP,Moura,Beja,Posto Galp - Largo José Maria dos Santos(E.M. 256 Vale da Azinheira),sim,92
1253980012,3232,GALP,Barcelos,Braga,"Posto Galp - Avenida Sidónio Pais, 393 (EN 205)",sim,89
1190504286,3238,GALP,Braga,Braga,Posto Galp - Avenida João Paulo II,sim,116
1156812470,3278,GALP,Bragança,Bragança,Posto Galp - Alto das Cantarias,sim,100
1217005986,3300,GALP,Fundão,Castelo Branco,Posto Galp - Rua Cidade da Covilhã,sim,94
1259290360,3302,GALP,Sertã,Castelo Branco,"Posto Galp - E.N.2 ao Km.344,370 - Lugar de Sto. Amaro",sim,90
1157136939,3314,GALP,Coimbra,Coimbra,Posto Galp - Av. Vale das Flores (Sul) Av. Mendes Silva,sim,104
1177287471,3332,GALP,Montemor-o-Velho,Coimbra,"Posto Galp - Largo do Alhastro-EN 335, Km 52,500",não,85
1157467482,3352,GALP,Évora,Évora,Posto Galp - Variante à Zona Indust. (Évora/Beja),sim,136
1262701350,3365,GALP,Vendas Novas,Évora,"Posto Galp - E.N.4 ao Km.56,561 - Rua da Boavista",sim,84
1157837492,3371,GALP,Albufeira,Faro,Posto Galp - E.M. 256 Vale da Azinheira,não,170
1157776027,3376,GALP,Faro,Faro,Posto Galp - E.N.125 ao Km.107.685 (lado norte),não,120
1200158067,3387,GALP,Loulé,Faro,Posto Galp - Av. Eng. João Meireles - sentido Albufeira/Vilamoura,sim,104
1157551700,3392,GALP,Portimão,Faro,Posto Galp - Rua das Papoilas,sim,180
1199745448,3411,GALP,Celorico da Beira,Guarda,"Posto Galp - IP5, km 141",sim,374
1198022876,3420,GALP,Guarda,Guarda,Posto Galp - Av. Cidade Bejar,sim,158
1196959331,3443,GALP,Bombarral,Leiria,Posto Galp - E.N.361 - Rotunda de Acesso à IC1,sim,136
1200203631,3458,GALP,Leiria,Leiria,Posto Galp - Alto do Vieiro - Azoia,não,88
1196987246,3468,GALP,Peniche,Leiria,Posto Galp - Av. do Porto de Pesca,não,136
1188589059,3480,GALP,Amadora,Lisboa,Posto Galp - E.N.117 Km 1.668,sim,121
1199688363,3499,GALP,Cascais,Lisboa,Posto Galp - Estrada da Torre,sim,152
1188666720,3527,GALP,Lisboa,Lisboa,Posto Galp - Clc.Carriche,sim,98
1199657220,3521,GALP,Lisboa,Lisboa,Posto Galp - Av. de Berlim,sim,160
1258312387,3536,GALP,Loures,Lisboa,Posto Galp - Av. dos Bombeiros Voluntários de Camarate - Bairro São Francisco,não,152
1176465651,3554,GALP,Mafra,Lisboa,"Posto Galp - Av. 9 Julho, N.o 120 - E.N.8 ao Km.20,360",sim,112
1199896349,3568,GALP,Oeiras,Lisboa,Posto Galp - AVENIDA 25 DE ABRIL DE 1974,sim,100
1159301271,3587,GALP,Sintra,Lisboa,"Posto Galp - Av. 29 de Agosto, no-18 - Terrujem",não,100
1262171539,3602,GALP,Vila Franca de Xira,Lisboa,Posto Galp - E.N. 1 - Km 24.700,não,152
1263338194,4716,GALP,Funchal,Madeira,Avenida do Infante,sim,120
1263352537,4719,GALP,Santa Cruz,Madeira,Estrada do Garajau no 165,sim,100
1256110779,3605,GALP,Campo Maior,Portalegre,Posto Galp - Av. Humberto Delgado,sim,82
1199712965,3669,GALP,Matosinhos,Porto,"Posto Galp - Estrada Ext. da Circunvalação EN 12 km 0,7",sim,113
1190821680,3674,GALP,Paços de Ferreira,Porto,Posto Galp - Centro Comercial Ferrara Plaza - Rua de S. Domingos,não,190
1176690957,3680,GALP,Paredes,Porto,"Posto Galp - EN 15 - Km 26,5 - Av. da República, 146",sim,113
1199695335,3700,GALP,Porto,Porto,"Posto Galp - Av. da Boavista, 4663-4685",sim,112
1199831913,3729,GALP,Vila Nova de Gaia,Porto,Posto Galp - VIA 8 - Santa Marinha (lado shopping),sim,120
1201000939,3763,GALP,Ourém,Santarem,Posto Galp - Avenida dos Pastorinhos no 855 - Cova da Iria,sim,110
1199443158,3743,GALP,Abrantes,Santarém,"Posto Galp - E.N.244-3 ao Km.24,200 - Av. António Farinha Pereira",sim,100
1177148366,3765,GALP,Ourém,Santarém,Posto Galp - Av. D.Nuno Álvares Pereira,sim,132
1196018510,3775,GALP,Santarém,Santarém,"Posto Galp - Rua do ""O"" - Bica de São Domingos - Casal Cirne (Lado Nascente; Sentido Santarém-Lisboa)",sim,140
1198361778,3773,GALP,Santarém,Santarém,"Posto Galp - Av  do Brasil, s/n",sim,34
1161498133,3800,GALP,Almada,Setúbal,"Posto Galp - E.N.10-1 ao Km.4,300 - Laranjeiro",sim,192
1195760183,3805,GALP,BARREIRO,Setúbal,Posto Galp - Av.das Nacionalizações,sim,126
1161644822,3809,GALP,Grândola,Setúbal,"Posto Galp - E.N.120 ao Km.122,100 - Rua D.Nuno Álvares Pereira",sim,102
1161599053,3836,GALP,Setúbal,Setúbal,"Posto Galp - Av. Infante D. Henrique, Praça de Portugal",não,112
1197236120,3858,GALP,Viana do Castelo,Viana do Castelo,Posto Galp - Av. 25 de Abril,sim,140
1196137927,3862,GALP,Chaves,Vila Real,Posto Galp - E.N.2,sim,130
1175277495,3889,GALP,Mangualde,Viseu,"Posto Galp - Av. dos Capitães (EN 16 Km 109,800)",sim,125
