freguesia,acronym,validVotesPercentage,votes,dicofre
Abade de Neiva,PPD/PSD.CDS-PP,42.62,283,030201
Abade de Neiva,PS,31.63,210,030201
Abade de Neiva,MPT,10.24,68,030201
Abade de Neiva,PCP-PEV,4.07,27,030201
Abade de Neiva,L,3.01,20,030201
Abade de Neiva,B.E.,2.11,14,030201
Abade de Neiva,MAS,1.66,11,030201
Abade de Neiva,PAN,1.05,7,030201
Abade de Neiva,PCTP/MRPP,0.9,6,030201
Abade de Neiva,PND,0.9,6,030201
Abade de Neiva,PPM,0.6,4,030201
Abade de Neiva,PPV,0.6,4,030201
Abade de Neiva,PNR,0.3,2,030201
Abade de Neiva,PTP,0.3,2,030201
Abade de Neiva,PDA,0,0,030201
Abade de Neiva,POUS,0,0,030201
