freguesia,acronym,validVotesPercentage,votes,dicofre
Abiul,PPD/PSD.CDS-PP,66.21,341,101501
Abiul,PS,15.34,79,101501
Abiul,MPT,5.24,27,101501
Abiul,PCP-PEV,3.5,18,101501
Abiul,B.E.,2.72,14,101501
Abiul,L,1.36,7,101501
Abiul,PND,1.36,7,101501
Abiul,PTP,1.17,6,101501
Abiul,MAS,0.78,4,101501
Abiul,POUS,0.58,3,101501
Abiul,PPM,0.58,3,101501
Abiul,PCTP/MRPP,0.39,2,101501
Abiul,PAN,0.19,1,101501
Abiul,PDA,0.19,1,101501
Abiul,PNR,0.19,1,101501
Abiul,PPV,0.19,1,101501
