freguesia,acronym,validVotesPercentage,votes,dicofre
Adães,PS,40.84,107,030203
Adães,PPD/PSD.CDS-PP,35.11,92,030203
Adães,MPT,9.16,24,030203
Adães,PCP-PEV,4.2,11,030203
Adães,B.E.,3.05,8,030203
Adães,PCTP/MRPP,1.53,4,030203
Adães,L,1.15,3,030203
Adães,PAN,1.15,3,030203
Adães,PNR,1.15,3,030203
Adães,PND,0.76,2,030203
Adães,PPM,0.76,2,030203
Adães,PTP,0.76,2,030203
Adães,PPV,0.38,1,030203
Adães,MAS,0,0,030203
Adães,PDA,0,0,030203
Adães,POUS,0,0,030203
