freguesia,acronym,validVotesPercentage,votes,dicofre
Alcongosta,PS,42.86,69,050403
Alcongosta,PPD/PSD.CDS-PP,29.19,47,050403
Alcongosta,MPT,13.04,21,050403
Alcongosta,PCP-PEV,6.21,10,050403
Alcongosta,B.E.,3.73,6,050403
Alcongosta,L,1.24,2,050403
Alcongosta,PAN,1.24,2,050403
Alcongosta,PND,0.62,1,050403
Alcongosta,POUS,0.62,1,050403
Alcongosta,PPM,0.62,1,050403
Alcongosta,PTP,0.62,1,050403
Alcongosta,MAS,0,0,050403
Alcongosta,PCTP/MRPP,0,0,050403
Alcongosta,PDA,0,0,050403
Alcongosta,PNR,0,0,050403
Alcongosta,PPV,0,0,050403
