freguesia,acronym,validVotesPercentage,votes,dicofre
Almalaguês,PS,36.19,312,060301
Almalaguês,PPD/PSD.CDS-PP,20.42,176,060301
Almalaguês,PCP-PEV,16.47,142,060301
Almalaguês,B.E.,9.74,84,060301
Almalaguês,MPT,9.63,83,060301
Almalaguês,PCTP/MRPP,3.02,26,060301
Almalaguês,L,1.28,11,060301
Almalaguês,PAN,1.16,10,060301
Almalaguês,PPM,0.58,5,060301
Almalaguês,PTP,0.46,4,060301
Almalaguês,MAS,0.35,3,060301
Almalaguês,PNR,0.35,3,060301
Almalaguês,PDA,0.12,1,060301
Almalaguês,PND,0.12,1,060301
Almalaguês,PPV,0.12,1,060301
Almalaguês,POUS,0,0,060301
