freguesia,acronym,validVotesPercentage,votes,dicofre
Alpedrinha,PS,46.15,120,050406
Alpedrinha,PPD/PSD.CDS-PP,37.31,97,050406
Alpedrinha,MPT,3.85,10,050406
Alpedrinha,PCP-PEV,3.85,10,050406
Alpedrinha,B.E.,2.31,6,050406
Alpedrinha,PTP,1.92,5,050406
Alpedrinha,PPM,1.54,4,050406
Alpedrinha,PAN,0.77,2,050406
Alpedrinha,PCTP/MRPP,0.77,2,050406
Alpedrinha,PPV,0.77,2,050406
Alpedrinha,L,0.38,1,050406
Alpedrinha,PNR,0.38,1,050406
Alpedrinha,MAS,0,0,050406
Alpedrinha,PDA,0,0,050406
Alpedrinha,PND,0,0,050406
Alpedrinha,POUS,0,0,050406
