freguesia,acronym,validVotesPercentage,votes,dicofre
Alvalade,PCP-PEV,57.07,359,150902
Alvalade,PS,20.83,131,150902
Alvalade,PPD/PSD.CDS-PP,12.08,76,150902
Alvalade,B.E.,2.86,18,150902
Alvalade,MPT,2.86,18,150902
Alvalade,PCTP/MRPP,1.43,9,150902
Alvalade,PNR,0.79,5,150902
Alvalade,PND,0.64,4,150902
Alvalade,PAN,0.48,3,150902
Alvalade,L,0.32,2,150902
Alvalade,MAS,0.32,2,150902
Alvalade,PPM,0.16,1,150902
Alvalade,PTP,0.16,1,150902
Alvalade,PDA,0,0,150902
Alvalade,POUS,0,0,150902
Alvalade,PPV,0,0,150902
