freguesia,acronym,validVotesPercentage,votes,dicofre
Alvendre,PS,51.43,36,090705
Alvendre,PPD/PSD.CDS-PP,25.71,18,090705
Alvendre,PAN,8.57,6,090705
Alvendre,PCP-PEV,5.71,4,090705
Alvendre,MPT,4.29,3,090705
Alvendre,PCTP/MRPP,2.86,2,090705
Alvendre,PPM,1.43,1,090705
Alvendre,B.E.,0,0,090705
Alvendre,L,0,0,090705
Alvendre,MAS,0,0,090705
Alvendre,PDA,0,0,090705
Alvendre,PND,0,0,090705
Alvendre,PNR,0,0,090705
Alvendre,POUS,0,0,090705
Alvendre,PPV,0,0,090705
Alvendre,PTP,0,0,090705
