freguesia,acronym,validVotesPercentage,votes,dicofre
Amendoeira,PPD/PSD.CDS-PP,49.7,84,040502
Amendoeira,PS,23.67,40,040502
Amendoeira,MPT,5.33,9,040502
Amendoeira,B.E.,4.73,8,040502
Amendoeira,PCP-PEV,4.14,7,040502
Amendoeira,PCTP/MRPP,2.37,4,040502
Amendoeira,PPV,2.37,4,040502
Amendoeira,PTP,2.37,4,040502
Amendoeira,PAN,1.78,3,040502
Amendoeira,L,1.18,2,040502
Amendoeira,PNR,1.18,2,040502
Amendoeira,MAS,0.59,1,040502
Amendoeira,PND,0.59,1,040502
Amendoeira,PDA,0,0,040502
Amendoeira,POUS,0,0,040502
Amendoeira,PPM,0,0,040502
