freguesia,acronym,validVotesPercentage,votes,dicofre
Anelhe,PPD/PSD.CDS-PP,59.2,74,170302
Anelhe,PS,24.8,31,170302
Anelhe,PCP-PEV,5.6,7,170302
Anelhe,MPT,2.4,3,170302
Anelhe,PND,2.4,3,170302
Anelhe,PCTP/MRPP,1.6,2,170302
Anelhe,B.E.,0.8,1,170302
Anelhe,PAN,0.8,1,170302
Anelhe,PDA,0.8,1,170302
Anelhe,PPM,0.8,1,170302
Anelhe,PTP,0.8,1,170302
Anelhe,L,0,0,170302
Anelhe,MAS,0,0,170302
Anelhe,PNR,0,0,170302
Anelhe,POUS,0,0,170302
Anelhe,PPV,0,0,170302
