freguesia,acronym,validVotesPercentage,votes,dicofre
Santa Luzia,PS,45.33,262,430103
Santa Luzia,PPD/PSD.CDS-PP,27.85,161,430103
Santa Luzia,MPT,6.4,37,430103
Santa Luzia,B.E.,5.19,30,430103
Santa Luzia,PCP-PEV,5.02,29,430103
Santa Luzia,PAN,2.6,15,430103
Santa Luzia,L,1.56,9,430103
Santa Luzia,PCTP/MRPP,1.56,9,430103
Santa Luzia,PDA,1.21,7,430103
Santa Luzia,PND,0.87,5,430103
Santa Luzia,PPM,0.87,5,430103
Santa Luzia,MAS,0.69,4,430103
Santa Luzia,PNR,0.35,2,430103
Santa Luzia,PPV,0.35,2,430103
Santa Luzia,PTP,0.17,1,430103
Santa Luzia,POUS,0,0,430103
