freguesia,acronym,validVotesPercentage,votes,dicofre
Arazede,PS,38.2,468,061002
Arazede,PPD/PSD.CDS-PP,37.22,456,061002
Arazede,PCP-PEV,8.24,101,061002
Arazede,MPT,7.02,86,061002
Arazede,B.E.,2.94,36,061002
Arazede,L,1.63,20,061002
Arazede,PCTP/MRPP,1.47,18,061002
Arazede,PAN,1.22,15,061002
Arazede,PND,0.49,6,061002
Arazede,PTP,0.41,5,061002
Arazede,PNR,0.33,4,061002
Arazede,PPM,0.24,3,061002
Arazede,MAS,0.16,2,061002
Arazede,PDA,0.16,2,061002
Arazede,PPV,0.16,2,061002
Arazede,POUS,0.08,1,061002
