freguesia,acronym,validVotesPercentage,votes,dicofre
Arco da Calheta,PPD/PSD.CDS-PP,61.32,677,310101
Arco da Calheta,PS,13.22,146,310101
Arco da Calheta,PTP,6.34,70,310101
Arco da Calheta,MPT,5.8,64,310101
Arco da Calheta,PND,2.45,27,310101
Arco da Calheta,PAN,1.99,22,310101
Arco da Calheta,PCP-PEV,1.99,22,310101
Arco da Calheta,B.E.,1.9,21,310101
Arco da Calheta,L,1.45,16,310101
Arco da Calheta,PCTP/MRPP,1.18,13,310101
Arco da Calheta,PPM,0.72,8,310101
Arco da Calheta,MAS,0.63,7,310101
Arco da Calheta,POUS,0.45,5,310101
Arco da Calheta,PDA,0.18,2,310101
Arco da Calheta,PNR,0.18,2,310101
Arco da Calheta,PPV,0.18,2,310101
