freguesia,acronym,validVotesPercentage,votes,dicofre
Ardãos e Bobadela,PPD/PSD.CDS-PP,57.79,167,170218
Ardãos e Bobadela,PS,27.34,79,170218
Ardãos e Bobadela,PCP-PEV,3.46,10,170218
Ardãos e Bobadela,PND,2.77,8,170218
Ardãos e Bobadela,MPT,2.42,7,170218
Ardãos e Bobadela,B.E.,1.04,3,170218
Ardãos e Bobadela,PPM,1.04,3,170218
Ardãos e Bobadela,PTP,1.04,3,170218
Ardãos e Bobadela,L,0.69,2,170218
Ardãos e Bobadela,PCTP/MRPP,0.69,2,170218
Ardãos e Bobadela,MAS,0.35,1,170218
Ardãos e Bobadela,PDA,0.35,1,170218
Ardãos e Bobadela,PNR,0.35,1,170218
Ardãos e Bobadela,POUS,0.35,1,170218
Ardãos e Bobadela,PPV,0.35,1,170218
Ardãos e Bobadela,PAN,0,0,170218
