freguesia,acronym,validVotesPercentage,votes,dicofre
Arega,PPD/PSD.CDS-PP,47.7,145,100802
Arega,PS,33.88,103,100802
Arega,B.E.,3.95,12,100802
Arega,PCP-PEV,2.63,8,100802
Arega,MPT,1.97,6,100802
Arega,PND,1.64,5,100802
Arega,L,1.32,4,100802
Arega,PCTP/MRPP,1.32,4,100802
Arega,PDA,1.32,4,100802
Arega,PTP,1.32,4,100802
Arega,MAS,0.99,3,100802
Arega,PNR,0.66,2,100802
Arega,PAN,0.33,1,100802
Arega,POUS,0.33,1,100802
Arega,PPM,0.33,1,100802
Arega,PPV,0.33,1,100802
