freguesia,acronym,validVotesPercentage,votes,dicofre
Areosa,PS,32.05,441,160905
Areosa,PPD/PSD.CDS-PP,18.24,251,160905
Areosa,PCP-PEV,16.64,229,160905
Areosa,MPT,15.84,218,160905
Areosa,B.E.,7.27,100,160905
Areosa,PCTP/MRPP,2.83,39,160905
Areosa,L,1.89,26,160905
Areosa,PAN,1.89,26,160905
Areosa,PND,0.73,10,160905
Areosa,PPM,0.65,9,160905
Areosa,MAS,0.51,7,160905
Areosa,PTP,0.51,7,160905
Areosa,PNR,0.44,6,160905
Areosa,PPV,0.29,4,160905
Areosa,POUS,0.22,3,160905
Areosa,PDA,0,0,160905
