freguesia,acronym,validVotesPercentage,votes,dicofre
Argozelo,PS,54.51,127,041103
Argozelo,PPD/PSD.CDS-PP,39.48,92,041103
Argozelo,PND,2.15,5,041103
Argozelo,MPT,1.72,4,041103
Argozelo,L,0.43,1,041103
Argozelo,MAS,0.43,1,041103
Argozelo,PCP-PEV,0.43,1,041103
Argozelo,PCTP/MRPP,0.43,1,041103
Argozelo,PPM,0.43,1,041103
Argozelo,B.E.,0,0,041103
Argozelo,PAN,0,0,041103
Argozelo,PDA,0,0,041103
Argozelo,PNR,0,0,041103
Argozelo,POUS,0,0,041103
Argozelo,PPV,0,0,041103
Argozelo,PTP,0,0,041103
