freguesia,acronym,validVotesPercentage,votes,dicofre
Arraiolos,PCP-PEV,50.98,677,070201
Arraiolos,PS,25.15,334,070201
Arraiolos,PPD/PSD.CDS-PP,9.94,132,070201
Arraiolos,MPT,4.29,57,070201
Arraiolos,B.E.,3.61,48,070201
Arraiolos,PCTP/MRPP,2.26,30,070201
Arraiolos,L,1.2,16,070201
Arraiolos,PAN,0.9,12,070201
Arraiolos,PNR,0.6,8,070201
Arraiolos,PPM,0.3,4,070201
Arraiolos,PPV,0.3,4,070201
Arraiolos,POUS,0.15,2,070201
Arraiolos,PTP,0.15,2,070201
Arraiolos,MAS,0.08,1,070201
Arraiolos,PND,0.08,1,070201
Arraiolos,PDA,0,0,070201
