freguesia,acronym,validVotesPercentage,votes,dicofre
Arrifana,PPD/PSD.CDS-PP,45.75,140,061701
Arrifana,PS,35.29,108,061701
Arrifana,PCP-PEV,6.54,20,061701
Arrifana,MPT,4.25,13,061701
Arrifana,B.E.,1.63,5,061701
Arrifana,PCTP/MRPP,1.63,5,061701
Arrifana,PND,1.31,4,061701
Arrifana,L,0.98,3,061701
Arrifana,MAS,0.65,2,061701
Arrifana,PAN,0.65,2,061701
Arrifana,PNR,0.33,1,061701
Arrifana,POUS,0.33,1,061701
Arrifana,PPV,0.33,1,061701
Arrifana,PTP,0.33,1,061701
Arrifana,PDA,0,0,061701
Arrifana,PPM,0,0,061701
