freguesia,acronym,validVotesPercentage,votes,dicofre
Arões (Santa Cristina),PS,52.78,228,030726
Arões (Santa Cristina),PPD/PSD.CDS-PP,21.99,95,030726
Arões (Santa Cristina),MPT,7.41,32,030726
Arões (Santa Cristina),PCP-PEV,5.09,22,030726
Arões (Santa Cristina),B.E.,3.47,15,030726
Arões (Santa Cristina),PCTP/MRPP,2.55,11,030726
Arões (Santa Cristina),L,1.39,6,030726
Arões (Santa Cristina),PND,0.93,4,030726
Arões (Santa Cristina),PNR,0.93,4,030726
Arões (Santa Cristina),PPM,0.93,4,030726
Arões (Santa Cristina),MAS,0.69,3,030726
Arões (Santa Cristina),PAN,0.69,3,030726
Arões (Santa Cristina),PTP,0.69,3,030726
Arões (Santa Cristina),POUS,0.23,1,030726
Arões (Santa Cristina),PPV,0.23,1,030726
Arões (Santa Cristina),PDA,0,0,030726
