freguesia,acronym,validVotesPercentage,votes,dicofre
"Assunção, Ajuda, Salvador e Santo Ildefonso",PS,43.44,934,120712
"Assunção, Ajuda, Salvador e Santo Ildefonso",PPD/PSD.CDS-PP,28.98,623,120712
"Assunção, Ajuda, Salvador e Santo Ildefonso",PCP-PEV,9.44,203,120712
"Assunção, Ajuda, Salvador e Santo Ildefonso",MPT,5.72,123,120712
"Assunção, Ajuda, Salvador e Santo Ildefonso",B.E.,4.79,103,120712
"Assunção, Ajuda, Salvador e Santo Ildefonso",PCTP/MRPP,1.67,36,120712
"Assunção, Ajuda, Salvador e Santo Ildefonso",L,1.49,32,120712
"Assunção, Ajuda, Salvador e Santo Ildefonso",PAN,0.98,21,120712
"Assunção, Ajuda, Salvador e Santo Ildefonso",PNR,0.74,16,120712
"Assunção, Ajuda, Salvador e Santo Ildefonso",PND,0.7,15,120712
"Assunção, Ajuda, Salvador e Santo Ildefonso",PPM,0.56,12,120712
"Assunção, Ajuda, Salvador e Santo Ildefonso",MAS,0.51,11,120712
"Assunção, Ajuda, Salvador e Santo Ildefonso",PPV,0.51,11,120712
"Assunção, Ajuda, Salvador e Santo Ildefonso",PTP,0.33,7,120712
"Assunção, Ajuda, Salvador e Santo Ildefonso",PDA,0.09,2,120712
"Assunção, Ajuda, Salvador e Santo Ildefonso",POUS,0.05,1,120712
