freguesia,acronym,validVotesPercentage,votes,dicofre
Atouguia da Baleia,PPD/PSD.CDS-PP,41.67,935,101402
Atouguia da Baleia,PS,27.32,613,101402
Atouguia da Baleia,PCP-PEV,10.61,238,101402
Atouguia da Baleia,MPT,6.6,148,101402
Atouguia da Baleia,B.E.,3.79,85,101402
Atouguia da Baleia,PAN,2.67,60,101402
Atouguia da Baleia,L,1.92,43,101402
Atouguia da Baleia,PCTP/MRPP,1.78,40,101402
Atouguia da Baleia,PNR,0.94,21,101402
Atouguia da Baleia,PND,0.85,19,101402
Atouguia da Baleia,PTP,0.49,11,101402
Atouguia da Baleia,PPM,0.45,10,101402
Atouguia da Baleia,PPV,0.36,8,101402
Atouguia da Baleia,MAS,0.31,7,101402
Atouguia da Baleia,PDA,0.18,4,101402
Atouguia da Baleia,POUS,0.09,2,101402
