freguesia,acronym,validVotesPercentage,votes,dicofre
Atouguia,PPD/PSD.CDS-PP,61.16,422,142102
Atouguia,PS,17.1,118,142102
Atouguia,MPT,8.41,58,142102
Atouguia,PCP-PEV,5.65,39,142102
Atouguia,B.E.,1.59,11,142102
Atouguia,PCTP/MRPP,1.59,11,142102
Atouguia,L,1.01,7,142102
Atouguia,PND,0.87,6,142102
Atouguia,PPV,0.72,5,142102
Atouguia,PPM,0.58,4,142102
Atouguia,PTP,0.43,3,142102
Atouguia,MAS,0.29,2,142102
Atouguia,PNR,0.29,2,142102
Atouguia,PDA,0.14,1,142102
Atouguia,POUS,0.14,1,142102
Atouguia,PAN,0,0,142102
