freguesia,acronym,validVotesPercentage,votes,dicofre
Avelãs da Ribeira,PS,45.21,33,090708
Avelãs da Ribeira,PPD/PSD.CDS-PP,19.18,14,090708
Avelãs da Ribeira,MPT,13.7,10,090708
Avelãs da Ribeira,PCP-PEV,8.22,6,090708
Avelãs da Ribeira,PAN,6.85,5,090708
Avelãs da Ribeira,B.E.,2.74,2,090708
Avelãs da Ribeira,L,1.37,1,090708
Avelãs da Ribeira,MAS,1.37,1,090708
Avelãs da Ribeira,PCTP/MRPP,1.37,1,090708
Avelãs da Ribeira,PDA,0,0,090708
Avelãs da Ribeira,PND,0,0,090708
Avelãs da Ribeira,PNR,0,0,090708
Avelãs da Ribeira,POUS,0,0,090708
Avelãs da Ribeira,PPM,0,0,090708
Avelãs da Ribeira,PPV,0,0,090708
Avelãs da Ribeira,PTP,0,0,090708
