freguesia,acronym,validVotesPercentage,votes,dicofre
Bairro,PS,38.94,486,031204
Bairro,PPD/PSD.CDS-PP,38.78,484,031204
Bairro,PCP-PEV,7.05,88,031204
Bairro,MPT,6.01,75,031204
Bairro,B.E.,3.45,43,031204
Bairro,PAN,1.12,14,031204
Bairro,PCTP/MRPP,1.12,14,031204
Bairro,L,1.04,13,031204
Bairro,PPM,0.64,8,031204
Bairro,PTP,0.56,7,031204
Bairro,PND,0.4,5,031204
Bairro,PNR,0.32,4,031204
Bairro,MAS,0.16,2,031204
Bairro,PDA,0.16,2,031204
Bairro,POUS,0.16,2,031204
Bairro,PPV,0.08,1,031204
