freguesia,acronym,validVotesPercentage,votes,dicofre
Banho e Carvalhosa,PS,51.02,175,130704
Banho e Carvalhosa,PPD/PSD.CDS-PP,23.91,82,130704
Banho e Carvalhosa,PCP-PEV,6.41,22,130704
Banho e Carvalhosa,MPT,5.83,20,130704
Banho e Carvalhosa,B.E.,4.37,15,130704
Banho e Carvalhosa,PCTP/MRPP,2.33,8,130704
Banho e Carvalhosa,L,1.17,4,130704
Banho e Carvalhosa,PAN,1.17,4,130704
Banho e Carvalhosa,PTP,1.17,4,130704
Banho e Carvalhosa,PNR,0.87,3,130704
Banho e Carvalhosa,MAS,0.58,2,130704
Banho e Carvalhosa,PPV,0.58,2,130704
Banho e Carvalhosa,PND,0.29,1,130704
Banho e Carvalhosa,PPM,0.29,1,130704
Banho e Carvalhosa,PDA,0,0,130704
Banho e Carvalhosa,POUS,0,0,130704
