freguesia,acronym,validVotesPercentage,votes,dicofre
Barqueiros,PPD/PSD.CDS-PP,43.08,221,030215
Barqueiros,PS,38.79,199,030215
Barqueiros,MPT,7.02,36,030215
Barqueiros,PCP-PEV,5.07,26,030215
Barqueiros,B.E.,1.36,7,030215
Barqueiros,PCTP/MRPP,1.36,7,030215
Barqueiros,PND,1.17,6,030215
Barqueiros,L,0.78,4,030215
Barqueiros,PTP,0.78,4,030215
Barqueiros,PPV,0.39,2,030215
Barqueiros,PAN,0.19,1,030215
Barqueiros,MAS,0,0,030215
Barqueiros,PDA,0,0,030215
Barqueiros,PNR,0,0,030215
Barqueiros,POUS,0,0,030215
Barqueiros,PPM,0,0,030215
