freguesia,acronym,validVotesPercentage,votes,dicofre
Barrancos,PS,37.02,144,020401
Barrancos,PCP-PEV,35.48,138,020401
Barrancos,PPD/PSD.CDS-PP,14.65,57,020401
Barrancos,MPT,5.4,21,020401
Barrancos,PCTP/MRPP,2.57,10,020401
Barrancos,B.E.,1.54,6,020401
Barrancos,PAN,1.03,4,020401
Barrancos,L,0.77,3,020401
Barrancos,PNR,0.77,3,020401
Barrancos,PND,0.26,1,020401
Barrancos,PPM,0.26,1,020401
Barrancos,PTP,0.26,1,020401
Barrancos,MAS,0,0,020401
Barrancos,PDA,0,0,020401
Barrancos,POUS,0,0,020401
Barrancos,PPV,0,0,020401
