freguesia,acronym,validVotesPercentage,votes,dicofre
Barrô,PPD/PSD.CDS-PP,44.62,83,181302
Barrô,PS,40.32,75,181302
Barrô,MPT,3.23,6,181302
Barrô,PCP-PEV,3.23,6,181302
Barrô,PCTP/MRPP,3.23,6,181302
Barrô,B.E.,1.61,3,181302
Barrô,PND,1.61,3,181302
Barrô,L,0.54,1,181302
Barrô,PDA,0.54,1,181302
Barrô,POUS,0.54,1,181302
Barrô,PPM,0.54,1,181302
Barrô,MAS,0,0,181302
Barrô,PAN,0,0,181302
Barrô,PNR,0,0,181302
Barrô,PPV,0,0,181302
Barrô,PTP,0,0,181302
