freguesia,acronym,validVotesPercentage,votes,dicofre
Belém,PPD/PSD.CDS-PP,42.14,2696,110658
Belém,PS,25.12,1607,110658
Belém,PCP-PEV,10.49,671,110658
Belém,L,5.97,382,110658
Belém,MPT,5.22,334,110658
Belém,B.E.,4.39,281,110658
Belém,PAN,2.13,136,110658
Belém,PPV,1,64,110658
Belém,PCTP/MRPP,0.92,59,110658
Belém,PNR,0.73,47,110658
Belém,PPM,0.67,43,110658
Belém,MAS,0.48,31,110658
Belém,PND,0.36,23,110658
Belém,PTP,0.25,16,110658
Belém,PDA,0.11,7,110658
Belém,POUS,0.02,1,110658
