freguesia,acronym,validVotesPercentage,votes,dicofre
Benespera,PS,49.53,53,090709
Benespera,PPD/PSD.CDS-PP,36.45,39,090709
Benespera,PCP-PEV,5.61,6,090709
Benespera,B.E.,1.87,2,090709
Benespera,PCTP/MRPP,1.87,2,090709
Benespera,PND,1.87,2,090709
Benespera,MAS,0.93,1,090709
Benespera,POUS,0.93,1,090709
Benespera,PTP,0.93,1,090709
Benespera,L,0,0,090709
Benespera,MPT,0,0,090709
Benespera,PAN,0,0,090709
Benespera,PDA,0,0,090709
Benespera,PNR,0,0,090709
Benespera,PPM,0,0,090709
Benespera,PPV,0,0,090709
