freguesia,acronym,validVotesPercentage,votes,dicofre
Benlhevai,PS,42.86,33,041002
Benlhevai,PPD/PSD.CDS-PP,32.47,25,041002
Benlhevai,PCP-PEV,9.09,7,041002
Benlhevai,PND,5.19,4,041002
Benlhevai,B.E.,3.9,3,041002
Benlhevai,PPM,3.9,3,041002
Benlhevai,MPT,2.6,2,041002
Benlhevai,L,0,0,041002
Benlhevai,MAS,0,0,041002
Benlhevai,PAN,0,0,041002
Benlhevai,PCTP/MRPP,0,0,041002
Benlhevai,PDA,0,0,041002
Benlhevai,PNR,0,0,041002
Benlhevai,POUS,0,0,041002
Benlhevai,PPV,0,0,041002
Benlhevai,PTP,0,0,041002
