freguesia,acronym,validVotesPercentage,votes,dicofre
Bico,PPD/PSD.CDS-PP,39.61,82,030104
Bico,PS,23.67,49,030104
Bico,MPT,14.49,30,030104
Bico,PCP-PEV,12.56,26,030104
Bico,L,2.9,6,030104
Bico,B.E.,2.42,5,030104
Bico,PAN,1.45,3,030104
Bico,PNR,1.45,3,030104
Bico,PCTP/MRPP,0.48,1,030104
Bico,PPM,0.48,1,030104
Bico,PPV,0.48,1,030104
Bico,MAS,0,0,030104
Bico,PDA,0,0,030104
Bico,PND,0,0,030104
Bico,POUS,0,0,030104
Bico,PTP,0,0,030104
