freguesia,acronym,validVotesPercentage,votes,dicofre
Boavista dos Pinheiros,PS,43.52,215,021116
Boavista dos Pinheiros,PCP-PEV,29.55,146,021116
Boavista dos Pinheiros,PCTP/MRPP,5.87,29,021116
Boavista dos Pinheiros,B.E.,5.67,28,021116
Boavista dos Pinheiros,PPD/PSD.CDS-PP,5.26,26,021116
Boavista dos Pinheiros,MPT,3.64,18,021116
Boavista dos Pinheiros,L,2.43,12,021116
Boavista dos Pinheiros,PAN,1.01,5,021116
Boavista dos Pinheiros,PND,0.81,4,021116
Boavista dos Pinheiros,PTP,0.81,4,021116
Boavista dos Pinheiros,PPM,0.61,3,021116
Boavista dos Pinheiros,MAS,0.4,2,021116
Boavista dos Pinheiros,PNR,0.2,1,021116
Boavista dos Pinheiros,POUS,0.2,1,021116
Boavista dos Pinheiros,PDA,0,0,021116
Boavista dos Pinheiros,PPV,0,0,021116
