freguesia,acronym,validVotesPercentage,votes,dicofre
Bobadela,PS,38.38,71,061104
Bobadela,PPD/PSD.CDS-PP,33.51,62,061104
Bobadela,PCP-PEV,8.65,16,061104
Bobadela,B.E.,5.95,11,061104
Bobadela,MPT,5.95,11,061104
Bobadela,PCTP/MRPP,2.7,5,061104
Bobadela,L,1.62,3,061104
Bobadela,MAS,0.54,1,061104
Bobadela,PAN,0.54,1,061104
Bobadela,PND,0.54,1,061104
Bobadela,PNR,0.54,1,061104
Bobadela,POUS,0.54,1,061104
Bobadela,PTP,0.54,1,061104
Bobadela,PDA,0,0,061104
Bobadela,PPM,0,0,061104
Bobadela,PPV,0,0,061104
