freguesia,acronym,validVotesPercentage,votes,dicofre
Bordeira,PS,43.21,35,080302
Bordeira,PCP-PEV,20.99,17,080302
Bordeira,PPD/PSD.CDS-PP,12.35,10,080302
Bordeira,MPT,8.64,7,080302
Bordeira,L,6.17,5,080302
Bordeira,B.E.,3.7,3,080302
Bordeira,MAS,1.23,1,080302
Bordeira,PAN,1.23,1,080302
Bordeira,PCTP/MRPP,1.23,1,080302
Bordeira,PNR,1.23,1,080302
Bordeira,PDA,0,0,080302
Bordeira,PND,0,0,080302
Bordeira,POUS,0,0,080302
Bordeira,PPM,0,0,080302
Bordeira,PPV,0,0,080302
Bordeira,PTP,0,0,080302
