freguesia,acronym,validVotesPercentage,votes,dicofre
Cabeção,PCP-PEV,58.72,229,070702
Cabeção,PS,23.85,93,070702
Cabeção,PPD/PSD.CDS-PP,6.92,27,070702
Cabeção,MPT,2.82,11,070702
Cabeção,PCTP/MRPP,2.56,10,070702
Cabeção,B.E.,1.79,7,070702
Cabeção,L,1.28,5,070702
Cabeção,PAN,1.28,5,070702
Cabeção,MAS,0.26,1,070702
Cabeção,PNR,0.26,1,070702
Cabeção,PPV,0.26,1,070702
Cabeção,PDA,0,0,070702
Cabeção,PND,0,0,070702
Cabeção,POUS,0,0,070702
Cabeção,PPM,0,0,070702
Cabeção,PTP,0,0,070702
