freguesia,acronym,validVotesPercentage,votes,dicofre
Cachopo,PS,51.78,102,081401
Cachopo,PPD/PSD.CDS-PP,35.03,69,081401
Cachopo,PCP-PEV,3.55,7,081401
Cachopo,B.E.,1.52,3,081401
Cachopo,MAS,1.52,3,081401
Cachopo,PCTP/MRPP,1.02,2,081401
Cachopo,PNR,1.02,2,081401
Cachopo,POUS,1.02,2,081401
Cachopo,L,0.51,1,081401
Cachopo,MPT,0.51,1,081401
Cachopo,PAN,0.51,1,081401
Cachopo,PND,0.51,1,081401
Cachopo,PPM,0.51,1,081401
Cachopo,PPV,0.51,1,081401
Cachopo,PTP,0.51,1,081401
Cachopo,PDA,0,0,081401
