freguesia,acronym,validVotesPercentage,votes,dicofre
Calheiros,PPD/PSD.CDS-PP,56.58,159,160713
Calheiros,PS,21.71,61,160713
Calheiros,MPT,7.12,20,160713
Calheiros,PCP-PEV,5.34,15,160713
Calheiros,B.E.,1.78,5,160713
Calheiros,L,1.78,5,160713
Calheiros,PPM,1.42,4,160713
Calheiros,PND,1.07,3,160713
Calheiros,PDA,0.71,2,160713
Calheiros,PNR,0.71,2,160713
Calheiros,PTP,0.71,2,160713
Calheiros,MAS,0.36,1,160713
Calheiros,PAN,0.36,1,160713
Calheiros,PCTP/MRPP,0.36,1,160713
Calheiros,POUS,0,0,160713
Calheiros,PPV,0,0,160713
