freguesia,acronym,validVotesPercentage,votes,dicofre
Campo de Ourique,PPD/PSD.CDS-PP,32.57,2906,110659
Campo de Ourique,PS,29.4,2623,110659
Campo de Ourique,PCP-PEV,13.34,1190,110659
Campo de Ourique,L,6.8,607,110659
Campo de Ourique,B.E.,6.15,549,110659
Campo de Ourique,MPT,5.24,468,110659
Campo de Ourique,PAN,2.71,242,110659
Campo de Ourique,PCTP/MRPP,1.19,106,110659
Campo de Ourique,PPV,0.52,46,110659
Campo de Ourique,PNR,0.5,45,110659
Campo de Ourique,PPM,0.46,41,110659
Campo de Ourique,PND,0.33,29,110659
Campo de Ourique,MAS,0.3,27,110659
Campo de Ourique,PTP,0.28,25,110659
Campo de Ourique,PDA,0.15,13,110659
Campo de Ourique,POUS,0.07,6,110659
