freguesia,acronym,validVotesPercentage,votes,dicofre
Campanário,PPD/PSD.CDS-PP,47.89,691,310701
Campanário,PS,18.92,273,310701
Campanário,MPT,9.08,131,310701
Campanário,PTP,6.31,91,310701
Campanário,PAN,3.81,55,310701
Campanário,PCP-PEV,3.05,44,310701
Campanário,B.E.,2.49,36,310701
Campanário,PCTP/MRPP,1.66,24,310701
Campanário,PND,1.59,23,310701
Campanário,L,1.52,22,310701
Campanário,PPM,1.11,16,310701
Campanário,PNR,0.83,12,310701
Campanário,PPV,0.76,11,310701
Campanário,POUS,0.42,6,310701
Campanário,MAS,0.35,5,310701
Campanário,PDA,0.21,3,310701
