freguesia,acronym,validVotesPercentage,votes,dicofre
Carapinheira,PS,42.26,221,061003
Carapinheira,PPD/PSD.CDS-PP,22.94,120,061003
Carapinheira,PCP-PEV,13.77,72,061003
Carapinheira,MPT,7.84,41,061003
Carapinheira,B.E.,4.97,26,061003
Carapinheira,PCTP/MRPP,2.87,15,061003
Carapinheira,L,1.34,7,061003
Carapinheira,PPM,1.34,7,061003
Carapinheira,MAS,0.57,3,061003
Carapinheira,PAN,0.57,3,061003
Carapinheira,PND,0.57,3,061003
Carapinheira,PTP,0.38,2,061003
Carapinheira,PNR,0.19,1,061003
Carapinheira,POUS,0.19,1,061003
Carapinheira,PPV,0.19,1,061003
Carapinheira,PDA,0,0,061003
