freguesia,acronym,validVotesPercentage,votes,dicofre
Caranguejeira,PPD/PSD.CDS-PP,69.32,1055,100907
Caranguejeira,PS,11.96,182,100907
Caranguejeira,MPT,5.98,91,100907
Caranguejeira,PCP-PEV,2.5,38,100907
Caranguejeira,B.E.,2.23,34,100907
Caranguejeira,L,2.23,34,100907
Caranguejeira,PAN,1.91,29,100907
Caranguejeira,PND,1.12,17,100907
Caranguejeira,PCTP/MRPP,0.85,13,100907
Caranguejeira,PPM,0.46,7,100907
Caranguejeira,MAS,0.33,5,100907
Caranguejeira,PPV,0.33,5,100907
Caranguejeira,PTP,0.33,5,100907
Caranguejeira,PNR,0.26,4,100907
Caranguejeira,PDA,0.13,2,100907
Caranguejeira,POUS,0.07,1,100907
