freguesia,acronym,validVotesPercentage,votes,dicofre
Carvalhos,PPD/PSD.CDS-PP,57.97,120,030221
Carvalhos,PS,25.6,53,030221
Carvalhos,MPT,5.8,12,030221
Carvalhos,PCTP/MRPP,2.9,6,030221
Carvalhos,B.E.,1.45,3,030221
Carvalhos,PCP-PEV,1.45,3,030221
Carvalhos,PND,1.45,3,030221
Carvalhos,PAN,0.97,2,030221
Carvalhos,PPM,0.97,2,030221
Carvalhos,PDA,0.48,1,030221
Carvalhos,PNR,0.48,1,030221
Carvalhos,PTP,0.48,1,030221
Carvalhos,L,0,0,030221
Carvalhos,MAS,0,0,030221
Carvalhos,POUS,0,0,030221
Carvalhos,PPV,0,0,030221
