freguesia,acronym,validVotesPercentage,votes,dicofre
Castelo Branco,PS,40.6,3779,050205
Castelo Branco,PPD/PSD.CDS-PP,27.73,2581,050205
Castelo Branco,PCP-PEV,9.15,852,050205
Castelo Branco,MPT,8.58,799,050205
Castelo Branco,B.E.,4.62,430,050205
Castelo Branco,L,2.79,260,050205
Castelo Branco,PCTP/MRPP,1.54,143,050205
Castelo Branco,PAN,1.36,127,050205
Castelo Branco,PTP,0.72,67,050205
Castelo Branco,PPM,0.7,65,050205
Castelo Branco,PPV,0.59,55,050205
Castelo Branco,PND,0.58,54,050205
Castelo Branco,PNR,0.41,38,050205
Castelo Branco,MAS,0.31,29,050205
Castelo Branco,PDA,0.23,21,050205
Castelo Branco,POUS,0.1,9,050205
