freguesia,acronym,validVotesPercentage,votes,dicofre
Castelo Bom,PS,60.38,32,090207
Castelo Bom,PPD/PSD.CDS-PP,24.53,13,090207
Castelo Bom,PCTP/MRPP,5.66,3,090207
Castelo Bom,PCP-PEV,3.77,2,090207
Castelo Bom,B.E.,1.89,1,090207
Castelo Bom,MPT,1.89,1,090207
Castelo Bom,POUS,1.89,1,090207
Castelo Bom,L,0,0,090207
Castelo Bom,MAS,0,0,090207
Castelo Bom,PAN,0,0,090207
Castelo Bom,PDA,0,0,090207
Castelo Bom,PND,0,0,090207
Castelo Bom,PNR,0,0,090207
Castelo Bom,PPM,0,0,090207
Castelo Bom,PPV,0,0,090207
Castelo Bom,PTP,0,0,090207
