freguesia,acronym,validVotesPercentage,votes,dicofre
Castelo do Neiva,PPD/PSD.CDS-PP,40.49,266,160910
Castelo do Neiva,PS,30.44,200,160910
Castelo do Neiva,MPT,10.2,67,160910
Castelo do Neiva,PCP-PEV,4.57,30,160910
Castelo do Neiva,B.E.,3.5,23,160910
Castelo do Neiva,PCTP/MRPP,2.74,18,160910
Castelo do Neiva,L,1.52,10,160910
Castelo do Neiva,PND,1.37,9,160910
Castelo do Neiva,PAN,1.22,8,160910
Castelo do Neiva,PPM,1.22,8,160910
Castelo do Neiva,MAS,0.91,6,160910
Castelo do Neiva,PTP,0.76,5,160910
Castelo do Neiva,PDA,0.46,3,160910
Castelo do Neiva,PNR,0.3,2,160910
Castelo do Neiva,POUS,0.15,1,160910
Castelo do Neiva,PPV,0.15,1,160910
