freguesia,acronym,validVotesPercentage,votes,dicofre
Castelões,PPD/PSD.CDS-PP,56.27,229,182105
Castelões,PS,22.85,93,182105
Castelões,MPT,6.88,28,182105
Castelões,PCP-PEV,5.65,23,182105
Castelões,B.E.,2.95,12,182105
Castelões,PND,1.47,6,182105
Castelões,L,0.98,4,182105
Castelões,PCTP/MRPP,0.98,4,182105
Castelões,PNR,0.49,2,182105
Castelões,PPM,0.49,2,182105
Castelões,MAS,0.25,1,182105
Castelões,PAN,0.25,1,182105
Castelões,PPV,0.25,1,182105
Castelões,PTP,0.25,1,182105
Castelões,PDA,0,0,182105
Castelões,POUS,0,0,182105
