freguesia,acronym,validVotesPercentage,votes,dicofre
Castelo Novo,PS,36.36,36,050413
Castelo Novo,PPD/PSD.CDS-PP,29.29,29,050413
Castelo Novo,PCP-PEV,10.1,10,050413
Castelo Novo,MPT,9.09,9,050413
Castelo Novo,PCTP/MRPP,5.05,5,050413
Castelo Novo,B.E.,3.03,3,050413
Castelo Novo,L,3.03,3,050413
Castelo Novo,PPM,2.02,2,050413
Castelo Novo,PAN,1.01,1,050413
Castelo Novo,PTP,1.01,1,050413
Castelo Novo,MAS,0,0,050413
Castelo Novo,PDA,0,0,050413
Castelo Novo,PND,0,0,050413
Castelo Novo,PNR,0,0,050413
Castelo Novo,POUS,0,0,050413
Castelo Novo,PPV,0,0,050413
