freguesia,acronym,validVotesPercentage,votes,dicofre
Castelo Rodrigo,PS,54.17,39,090403
Castelo Rodrigo,PPD/PSD.CDS-PP,31.94,23,090403
Castelo Rodrigo,MPT,4.17,3,090403
Castelo Rodrigo,L,2.78,2,090403
Castelo Rodrigo,PPM,2.78,2,090403
Castelo Rodrigo,B.E.,1.39,1,090403
Castelo Rodrigo,PCP-PEV,1.39,1,090403
Castelo Rodrigo,PDA,1.39,1,090403
Castelo Rodrigo,MAS,0,0,090403
Castelo Rodrigo,PAN,0,0,090403
Castelo Rodrigo,PCTP/MRPP,0,0,090403
Castelo Rodrigo,PND,0,0,090403
Castelo Rodrigo,PNR,0,0,090403
Castelo Rodrigo,POUS,0,0,090403
Castelo Rodrigo,PPV,0,0,090403
Castelo Rodrigo,PTP,0,0,090403
