freguesia,acronym,validVotesPercentage,votes,dicofre
Castanheiro do Sul,PPD/PSD.CDS-PP,52.94,81,181501
Castanheiro do Sul,PS,38.56,59,181501
Castanheiro do Sul,PND,2.61,4,181501
Castanheiro do Sul,MAS,1.31,2,181501
Castanheiro do Sul,MPT,1.31,2,181501
Castanheiro do Sul,PCP-PEV,1.31,2,181501
Castanheiro do Sul,PCTP/MRPP,1.31,2,181501
Castanheiro do Sul,PTP,0.65,1,181501
Castanheiro do Sul,B.E.,0,0,181501
Castanheiro do Sul,L,0,0,181501
Castanheiro do Sul,PAN,0,0,181501
Castanheiro do Sul,PDA,0,0,181501
Castanheiro do Sul,PNR,0,0,181501
Castanheiro do Sul,POUS,0,0,181501
Castanheiro do Sul,PPM,0,0,181501
Castanheiro do Sul,PPV,0,0,181501
