freguesia,acronym,validVotesPercentage,votes,dicofre
Cendufe,PPD/PSD.CDS-PP,57.76,67,160108
Cendufe,PS,30.17,35,160108
Cendufe,PCP-PEV,6.03,7,160108
Cendufe,MAS,1.72,2,160108
Cendufe,MPT,1.72,2,160108
Cendufe,B.E.,0.86,1,160108
Cendufe,PPV,0.86,1,160108
Cendufe,PTP,0.86,1,160108
Cendufe,L,0,0,160108
Cendufe,PAN,0,0,160108
Cendufe,PCTP/MRPP,0,0,160108
Cendufe,PDA,0,0,160108
Cendufe,PND,0,0,160108
Cendufe,PNR,0,0,160108
Cendufe,POUS,0,0,160108
Cendufe,PPM,0,0,160108
