freguesia,acronym,validVotesPercentage,votes,dicofre
Cete,PS,42.63,428,131008
Cete,PPD/PSD.CDS-PP,19.62,197,131008
Cete,PCP-PEV,15.14,152,131008
Cete,MPT,9.06,91,131008
Cete,B.E.,3.88,39,131008
Cete,PCTP/MRPP,2.69,27,131008
Cete,L,2.09,21,131008
Cete,PAN,1,10,131008
Cete,PPM,0.9,9,131008
Cete,PND,0.6,6,131008
Cete,PPV,0.6,6,131008
Cete,MAS,0.5,5,131008
Cete,PTP,0.5,5,131008
Cete,PDA,0.4,4,131008
Cete,PNR,0.4,4,131008
Cete,POUS,0,0,131008
