freguesia,acronym,validVotesPercentage,votes,dicofre
Chã,PS,53.37,103,170604
Chã,PPD/PSD.CDS-PP,33.16,64,170604
Chã,MPT,3.11,6,170604
Chã,PND,2.59,5,170604
Chã,L,2.07,4,170604
Chã,PCTP/MRPP,2.07,4,170604
Chã,B.E.,1.04,2,170604
Chã,PCP-PEV,1.04,2,170604
Chã,POUS,1.04,2,170604
Chã,PPM,0.52,1,170604
Chã,MAS,0,0,170604
Chã,PAN,0,0,170604
Chã,PDA,0,0,170604
Chã,PNR,0,0,170604
Chã,PPV,0,0,170604
Chã,PTP,0,0,170604
