freguesia,acronym,validVotesPercentage,votes,dicofre
Codesseiro,PPD/PSD.CDS-PP,36.47,31,090714
Codesseiro,PS,24.71,21,090714
Codesseiro,B.E.,12.94,11,090714
Codesseiro,MPT,9.41,8,090714
Codesseiro,L,5.88,5,090714
Codesseiro,PAN,4.71,4,090714
Codesseiro,PCP-PEV,3.53,3,090714
Codesseiro,PND,1.18,1,090714
Codesseiro,PPM,1.18,1,090714
Codesseiro,MAS,0,0,090714
Codesseiro,PCTP/MRPP,0,0,090714
Codesseiro,PDA,0,0,090714
Codesseiro,PNR,0,0,090714
Codesseiro,POUS,0,0,090714
Codesseiro,PPV,0,0,090714
Codesseiro,PTP,0,0,090714
