freguesia,acronym,validVotesPercentage,votes,dicofre
Comenda,PS,46.35,178,120903
Comenda,PCP-PEV,28.91,111,120903
Comenda,PPD/PSD.CDS-PP,14.32,55,120903
Comenda,MPT,3.91,15,120903
Comenda,PCTP/MRPP,3.13,12,120903
Comenda,B.E.,1.04,4,120903
Comenda,MAS,0.52,2,120903
Comenda,PAN,0.52,2,120903
Comenda,PND,0.52,2,120903
Comenda,PPM,0.52,2,120903
Comenda,L,0.26,1,120903
Comenda,PDA,0,0,120903
Comenda,PNR,0,0,120903
Comenda,POUS,0,0,120903
Comenda,PPV,0,0,120903
Comenda,PTP,0,0,120903
