freguesia,acronym,validVotesPercentage,votes,dicofre
Couto,PPD/PSD.CDS-PP,51.98,92,160109
Couto,PS,29.38,52,160109
Couto,MPT,8.47,15,160109
Couto,PCP-PEV,3.95,7,160109
Couto,B.E.,1.69,3,160109
Couto,PCTP/MRPP,1.13,2,160109
Couto,PTP,1.13,2,160109
Couto,PAN,0.56,1,160109
Couto,PND,0.56,1,160109
Couto,PNR,0.56,1,160109
Couto,PPM,0.56,1,160109
Couto,L,0,0,160109
Couto,MAS,0,0,160109
Couto,PDA,0,0,160109
Couto,POUS,0,0,160109
Couto,PPV,0,0,160109
