freguesia,acronym,validVotesPercentage,votes,dicofre
Covas do Barroso,PPD/PSD.CDS-PP,57.81,74,170208
Covas do Barroso,PCP-PEV,17.19,22,170208
Covas do Barroso,PS,16.41,21,170208
Covas do Barroso,B.E.,1.56,2,170208
Covas do Barroso,MPT,1.56,2,170208
Covas do Barroso,PAN,0.78,1,170208
Covas do Barroso,PCTP/MRPP,0.78,1,170208
Covas do Barroso,PDA,0.78,1,170208
Covas do Barroso,PND,0.78,1,170208
Covas do Barroso,POUS,0.78,1,170208
Covas do Barroso,PPM,0.78,1,170208
Covas do Barroso,PTP,0.78,1,170208
Covas do Barroso,L,0,0,170208
Covas do Barroso,MAS,0,0,170208
Covas do Barroso,PNR,0,0,170208
Covas do Barroso,PPV,0,0,170208
