freguesia,acronym,validVotesPercentage,votes,dicofre
Covas,PPD/PSD.CDS-PP,32.6,59,161004
Covas,PS,32.6,59,161004
Covas,MPT,11.05,20,161004
Covas,PCP-PEV,7.18,13,161004
Covas,B.E.,4.97,9,161004
Covas,PND,3.31,6,161004
Covas,L,1.66,3,161004
Covas,PAN,1.66,3,161004
Covas,PCTP/MRPP,1.66,3,161004
Covas,MAS,1.1,2,161004
Covas,PNR,1.1,2,161004
Covas,PPM,0.55,1,161004
Covas,PTP,0.55,1,161004
Covas,PDA,0,0,161004
Covas,POUS,0,0,161004
Covas,PPV,0,0,161004
