freguesia,acronym,validVotesPercentage,votes,dicofre
Covoada,PS,43.35,75,420305
Covoada,PPD/PSD.CDS-PP,34.1,59,420305
Covoada,MPT,4.05,7,420305
Covoada,PCP-PEV,4.05,7,420305
Covoada,L,2.31,4,420305
Covoada,PDA,2.31,4,420305
Covoada,PCTP/MRPP,1.73,3,420305
Covoada,PND,1.73,3,420305
Covoada,PPM,1.73,3,420305
Covoada,B.E.,1.16,2,420305
Covoada,PNR,1.16,2,420305
Covoada,PTP,1.16,2,420305
Covoada,MAS,0.58,1,420305
Covoada,PAN,0.58,1,420305
Covoada,POUS,0,0,420305
Covoada,PPV,0,0,420305
