freguesia,acronym,validVotesPercentage,votes,dicofre
Cunha,PPD/PSD.CDS-PP,70.97,88,181804
Cunha,PS,17.74,22,181804
Cunha,PND,3.23,4,181804
Cunha,B.E.,1.61,2,181804
Cunha,MPT,1.61,2,181804
Cunha,PCP-PEV,1.61,2,181804
Cunha,PPV,1.61,2,181804
Cunha,L,0.81,1,181804
Cunha,PNR,0.81,1,181804
Cunha,MAS,0,0,181804
Cunha,PAN,0,0,181804
Cunha,PCTP/MRPP,0,0,181804
Cunha,PDA,0,0,181804
Cunha,POUS,0,0,181804
Cunha,PPM,0,0,181804
Cunha,PTP,0,0,181804
