freguesia,acronym,validVotesPercentage,votes,dicofre
Câmara de Lobos,PPD/PSD.CDS-PP,39.25,1594,310201
Câmara de Lobos,PS,17.7,719,310201
Câmara de Lobos,MPT,15.19,617,310201
Câmara de Lobos,PTP,6.18,251,310201
Câmara de Lobos,PCP-PEV,5.02,204,310201
Câmara de Lobos,B.E.,3.84,156,310201
Câmara de Lobos,PAN,3.74,152,310201
Câmara de Lobos,PND,1.97,80,310201
Câmara de Lobos,PCTP/MRPP,1.85,75,310201
Câmara de Lobos,L,1.7,69,310201
Câmara de Lobos,PPM,0.98,40,310201
Câmara de Lobos,MAS,0.64,26,310201
Câmara de Lobos,PPV,0.64,26,310201
Câmara de Lobos,PDA,0.47,19,310201
Câmara de Lobos,PNR,0.47,19,310201
Câmara de Lobos,POUS,0.34,14,310201
