freguesia,acronym,validVotesPercentage,votes,dicofre
Donai,PPD/PSD.CDS-PP,46.81,44,040212
Donai,PS,26.6,25,040212
Donai,MPT,9.57,9,040212
Donai,B.E.,6.38,6,040212
Donai,PCP-PEV,3.19,3,040212
Donai,L,2.13,2,040212
Donai,PPV,2.13,2,040212
Donai,PCTP/MRPP,1.06,1,040212
Donai,PND,1.06,1,040212
Donai,PPM,1.06,1,040212
Donai,MAS,0,0,040212
Donai,PAN,0,0,040212
Donai,PDA,0,0,040212
Donai,PNR,0,0,040212
Donai,POUS,0,0,040212
Donai,PTP,0,0,040212
