freguesia,acronym,validVotesPercentage,votes,dicofre
Duas Igrejas,PPD/PSD.CDS-PP,59.69,573,131010
Duas Igrejas,PS,21.88,210,131010
Duas Igrejas,MPT,6.98,67,131010
Duas Igrejas,PCP-PEV,3.13,30,131010
Duas Igrejas,B.E.,1.88,18,131010
Duas Igrejas,PCTP/MRPP,1.56,15,131010
Duas Igrejas,PND,1.15,11,131010
Duas Igrejas,PTP,0.73,7,131010
Duas Igrejas,L,0.63,6,131010
Duas Igrejas,PNR,0.52,5,131010
Duas Igrejas,PPM,0.52,5,131010
Duas Igrejas,PPV,0.52,5,131010
Duas Igrejas,PAN,0.42,4,131010
Duas Igrejas,MAS,0.21,2,131010
Duas Igrejas,POUS,0.21,2,131010
Duas Igrejas,PDA,0,0,131010
