freguesia,acronym,validVotesPercentage,votes,dicofre
Ereira,PS,62.9,139,061014
Ereira,PPD/PSD.CDS-PP,13.12,29,061014
Ereira,MPT,8.14,18,061014
Ereira,PCP-PEV,5.43,12,061014
Ereira,B.E.,4.07,9,061014
Ereira,PCTP/MRPP,2.26,5,061014
Ereira,MAS,0.9,2,061014
Ereira,PAN,0.9,2,061014
Ereira,L,0.45,1,061014
Ereira,PDA,0.45,1,061014
Ereira,PND,0.45,1,061014
Ereira,PPM,0.45,1,061014
Ereira,PPV,0.45,1,061014
Ereira,PNR,0,0,061014
Ereira,POUS,0,0,061014
Ereira,PTP,0,0,061014
