freguesia,acronym,validVotesPercentage,votes,dicofre
Ermesinde,PS,38.57,4825,131503
Ermesinde,PPD/PSD.CDS-PP,23.55,2946,131503
Ermesinde,PCP-PEV,11.21,1402,131503
Ermesinde,MPT,10.49,1313,131503
Ermesinde,B.E.,6.08,761,131503
Ermesinde,L,2.37,296,131503
Ermesinde,PAN,2.16,270,131503
Ermesinde,PCTP/MRPP,1.97,246,131503
Ermesinde,PPM,0.72,90,131503
Ermesinde,PND,0.7,88,131503
Ermesinde,PTP,0.62,77,131503
Ermesinde,PNR,0.54,68,131503
Ermesinde,MAS,0.45,56,131503
Ermesinde,PPV,0.34,43,131503
Ermesinde,PDA,0.12,15,131503
Ermesinde,POUS,0.12,15,131503
