freguesia,acronym,validVotesPercentage,votes,dicofre
Ervedosa do Douro,PS,39.27,108,181502
Ervedosa do Douro,PPD/PSD.CDS-PP,31.27,86,181502
Ervedosa do Douro,MPT,14.18,39,181502
Ervedosa do Douro,PCP-PEV,4.73,13,181502
Ervedosa do Douro,B.E.,2.18,6,181502
Ervedosa do Douro,PAN,2.18,6,181502
Ervedosa do Douro,L,1.82,5,181502
Ervedosa do Douro,PCTP/MRPP,1.82,5,181502
Ervedosa do Douro,MAS,0.36,1,181502
Ervedosa do Douro,PDA,0.36,1,181502
Ervedosa do Douro,PND,0.36,1,181502
Ervedosa do Douro,PNR,0.36,1,181502
Ervedosa do Douro,POUS,0.36,1,181502
Ervedosa do Douro,PPM,0.36,1,181502
Ervedosa do Douro,PTP,0.36,1,181502
Ervedosa do Douro,PPV,0,0,181502
