freguesia,acronym,validVotesPercentage,votes,dicofre
Espinho,PPD/PSD.CDS-PP,51.58,114,180804
Espinho,PS,35.29,78,180804
Espinho,B.E.,4.07,9,180804
Espinho,MPT,2.71,6,180804
Espinho,PCP-PEV,1.81,4,180804
Espinho,PNR,1.36,3,180804
Espinho,L,0.9,2,180804
Espinho,PPM,0.9,2,180804
Espinho,PPV,0.9,2,180804
Espinho,MAS,0.45,1,180804
Espinho,PAN,0,0,180804
Espinho,PCTP/MRPP,0,0,180804
Espinho,PDA,0,0,180804
Espinho,PND,0,0,180804
Espinho,POUS,0,0,180804
Espinho,PTP,0,0,180804
