freguesia,acronym,validVotesPercentage,votes,dicofre
Espite,PPD/PSD.CDS-PP,57.86,162,142105
Espite,PS,21.43,60,142105
Espite,MPT,6.43,18,142105
Espite,L,2.86,8,142105
Espite,PAN,2.5,7,142105
Espite,PCP-PEV,2.14,6,142105
Espite,PCTP/MRPP,1.79,5,142105
Espite,B.E.,1.43,4,142105
Espite,PND,1.43,4,142105
Espite,MAS,1.07,3,142105
Espite,PNR,0.36,1,142105
Espite,PPM,0.36,1,142105
Espite,PPV,0.36,1,142105
Espite,PDA,0,0,142105
Espite,POUS,0,0,142105
Espite,PTP,0,0,142105
