freguesia,acronym,validVotesPercentage,votes,dicofre
Esporões,PPD/PSD.CDS-PP,40.41,234,030313
Esporões,PS,32.3,187,030313
Esporões,PCP-PEV,7.77,45,030313
Esporões,B.E.,5.87,34,030313
Esporões,MPT,4.66,27,030313
Esporões,PCTP/MRPP,1.73,10,030313
Esporões,PND,1.55,9,030313
Esporões,L,1.38,8,030313
Esporões,PPV,1.21,7,030313
Esporões,PAN,1.04,6,030313
Esporões,POUS,0.52,3,030313
Esporões,PPM,0.52,3,030313
Esporões,PNR,0.35,2,030313
Esporões,PTP,0.35,2,030313
Esporões,MAS,0.17,1,030313
Esporões,PDA,0.17,1,030313
