freguesia,acronym,validVotesPercentage,votes,dicofre
Estrela,PPD/PSD.CDS-PP,41.77,3075,110660
Estrela,PS,25.97,1912,110660
Estrela,PCP-PEV,11.11,818,110660
Estrela,L,6.09,448,110660
Estrela,MPT,4.31,317,110660
Estrela,B.E.,4.2,309,110660
Estrela,PAN,2.34,172,110660
Estrela,PCTP/MRPP,0.92,68,110660
Estrela,PPV,0.92,68,110660
Estrela,PPM,0.86,63,110660
Estrela,PNR,0.49,36,110660
Estrela,PND,0.37,27,110660
Estrela,MAS,0.29,21,110660
Estrela,PTP,0.22,16,110660
Estrela,PDA,0.12,9,110660
Estrela,POUS,0.04,3,110660
