freguesia,acronym,validVotesPercentage,votes,dicofre
Fajã Grande,PS,43.84,32,480101
Fajã Grande,PPD/PSD.CDS-PP,20.55,15,480101
Fajã Grande,B.E.,13.7,10,480101
Fajã Grande,PDA,12.33,9,480101
Fajã Grande,MPT,5.48,4,480101
Fajã Grande,PAN,2.74,2,480101
Fajã Grande,PTP,1.37,1,480101
Fajã Grande,L,0,0,480101
Fajã Grande,MAS,0,0,480101
Fajã Grande,PCP-PEV,0,0,480101
Fajã Grande,PCTP/MRPP,0,0,480101
Fajã Grande,PND,0,0,480101
Fajã Grande,PNR,0,0,480101
Fajã Grande,POUS,0,0,480101
Fajã Grande,PPM,0,0,480101
Fajã Grande,PPV,0,0,480101
