freguesia,acronym,validVotesPercentage,votes,dicofre
Fazenda,PS,69.01,49,480103
Fazenda,PPD/PSD.CDS-PP,22.54,16,480103
Fazenda,B.E.,2.82,2,480103
Fazenda,PDA,2.82,2,480103
Fazenda,PCP-PEV,1.41,1,480103
Fazenda,PPM,1.41,1,480103
Fazenda,L,0,0,480103
Fazenda,MAS,0,0,480103
Fazenda,MPT,0,0,480103
Fazenda,PAN,0,0,480103
Fazenda,PCTP/MRPP,0,0,480103
Fazenda,PND,0,0,480103
Fazenda,PNR,0,0,480103
Fazenda,POUS,0,0,480103
Fazenda,PPV,0,0,480103
Fazenda,PTP,0,0,480103
