freguesia,acronym,validVotesPercentage,votes,dicofre
Fermedo,PPD/PSD.CDS-PP,56.95,209,010411
Fermedo,PS,24.8,91,010411
Fermedo,PCP-PEV,4.9,18,010411
Fermedo,MPT,4.36,16,010411
Fermedo,B.E.,3.27,12,010411
Fermedo,PPM,1.09,4,010411
Fermedo,PTP,1.09,4,010411
Fermedo,L,0.82,3,010411
Fermedo,PCTP/MRPP,0.82,3,010411
Fermedo,PPV,0.82,3,010411
Fermedo,PAN,0.54,2,010411
Fermedo,MAS,0.27,1,010411
Fermedo,PND,0.27,1,010411
Fermedo,PDA,0,0,010411
Fermedo,PNR,0,0,010411
Fermedo,POUS,0,0,010411
