freguesia,acronym,validVotesPercentage,votes,dicofre
Fervença,PPD/PSD.CDS-PP,60,201,030510
Fervença,PS,13.73,46,030510
Fervença,MPT,9.85,33,030510
Fervença,PCP-PEV,6.27,21,030510
Fervença,PCTP/MRPP,2.09,7,030510
Fervença,PND,1.49,5,030510
Fervença,PTP,1.49,5,030510
Fervença,B.E.,1.19,4,030510
Fervença,L,0.9,3,030510
Fervença,PPV,0.9,3,030510
Fervença,PAN,0.6,2,030510
Fervença,PNR,0.6,2,030510
Fervença,PPM,0.6,2,030510
Fervença,POUS,0.3,1,030510
Fervença,MAS,0,0,030510
Fervença,PDA,0,0,030510
