freguesia,acronym,validVotesPercentage,votes,dicofre
Feteiras,PS,59.17,71,420309
Feteiras,PPD/PSD.CDS-PP,27.5,33,420309
Feteiras,MPT,3.33,4,420309
Feteiras,B.E.,2.5,3,420309
Feteiras,PCP-PEV,1.67,2,420309
Feteiras,PTP,1.67,2,420309
Feteiras,L,0.83,1,420309
Feteiras,PAN,0.83,1,420309
Feteiras,PCTP/MRPP,0.83,1,420309
Feteiras,PDA,0.83,1,420309
Feteiras,POUS,0.83,1,420309
Feteiras,MAS,0,0,420309
Feteiras,PND,0,0,420309
Feteiras,PNR,0,0,420309
Feteiras,PPM,0,0,420309
Feteiras,PPV,0,0,420309
