freguesia,acronym,validVotesPercentage,votes,dicofre
Figueira de Lorvão,PS,51.19,388,061302
Figueira de Lorvão,PPD/PSD.CDS-PP,32.98,250,061302
Figueira de Lorvão,PCP-PEV,5.8,44,061302
Figueira de Lorvão,MPT,3.83,29,061302
Figueira de Lorvão,B.E.,1.98,15,061302
Figueira de Lorvão,PCTP/MRPP,0.92,7,061302
Figueira de Lorvão,L,0.66,5,061302
Figueira de Lorvão,PND,0.66,5,061302
Figueira de Lorvão,PTP,0.66,5,061302
Figueira de Lorvão,PPV,0.4,3,061302
Figueira de Lorvão,PAN,0.26,2,061302
Figueira de Lorvão,POUS,0.26,2,061302
Figueira de Lorvão,PPM,0.26,2,061302
Figueira de Lorvão,PNR,0.13,1,061302
Figueira de Lorvão,MAS,0,0,061302
Figueira de Lorvão,PDA,0,0,061302
