freguesia,acronym,validVotesPercentage,votes,dicofre
Folhadela,PS,34.03,243,171409
Folhadela,PPD/PSD.CDS-PP,32.63,233,171409
Folhadela,MPT,10.22,73,171409
Folhadela,PCP-PEV,9.24,66,171409
Folhadela,B.E.,4.06,29,171409
Folhadela,PPV,1.82,13,171409
Folhadela,L,1.54,11,171409
Folhadela,PCTP/MRPP,1.54,11,171409
Folhadela,PND,1.54,11,171409
Folhadela,MAS,0.84,6,171409
Folhadela,PAN,0.7,5,171409
Folhadela,POUS,0.7,5,171409
Folhadela,PTP,0.7,5,171409
Folhadela,PNR,0.42,3,171409
Folhadela,PDA,0,0,171409
Folhadela,PPM,0,0,171409
