freguesia,acronym,validVotesPercentage,votes,dicofre
Folques,PS,64.04,73,060109
Folques,PPD/PSD.CDS-PP,17.54,20,060109
Folques,MPT,5.26,6,060109
Folques,B.E.,4.39,5,060109
Folques,PCP-PEV,3.51,4,060109
Folques,PAN,1.75,2,060109
Folques,PTP,1.75,2,060109
Folques,L,0.88,1,060109
Folques,PND,0.88,1,060109
Folques,MAS,0,0,060109
Folques,PCTP/MRPP,0,0,060109
Folques,PDA,0,0,060109
Folques,PNR,0,0,060109
Folques,POUS,0,0,060109
Folques,PPM,0,0,060109
Folques,PPV,0,0,060109
