freguesia,acronym,validVotesPercentage,votes,dicofre
Fontão,PPD/PSD.CDS-PP,62.39,214,160721
Fontão,PS,18.37,63,160721
Fontão,MPT,7.87,27,160721
Fontão,PCP-PEV,4.66,16,160721
Fontão,B.E.,0.87,3,160721
Fontão,PCTP/MRPP,0.87,3,160721
Fontão,PNR,0.87,3,160721
Fontão,PPV,0.87,3,160721
Fontão,PTP,0.87,3,160721
Fontão,L,0.58,2,160721
Fontão,PPM,0.58,2,160721
Fontão,MAS,0.29,1,160721
Fontão,PAN,0.29,1,160721
Fontão,PDA,0.29,1,160721
Fontão,PND,0.29,1,160721
Fontão,POUS,0,0,160721
