freguesia,acronym,validVotesPercentage,votes,dicofre
Fonte Longa,PPD/PSD.CDS-PP,57.3,51,040306
Fonte Longa,PS,26.97,24,040306
Fonte Longa,MPT,4.49,4,040306
Fonte Longa,PPM,3.37,3,040306
Fonte Longa,B.E.,2.25,2,040306
Fonte Longa,PCP-PEV,2.25,2,040306
Fonte Longa,PCTP/MRPP,2.25,2,040306
Fonte Longa,PAN,1.12,1,040306
Fonte Longa,L,0,0,040306
Fonte Longa,MAS,0,0,040306
Fonte Longa,PDA,0,0,040306
Fonte Longa,PND,0,0,040306
Fonte Longa,PNR,0,0,040306
Fonte Longa,POUS,0,0,040306
Fonte Longa,PPV,0,0,040306
Fonte Longa,PTP,0,0,040306
