freguesia,acronym,validVotesPercentage,votes,dicofre
Forno Telheiro,PPD/PSD.CDS-PP,40.24,68,090306
Forno Telheiro,PS,31.36,53,090306
Forno Telheiro,MPT,10.06,17,090306
Forno Telheiro,PCP-PEV,5.33,9,090306
Forno Telheiro,B.E.,2.96,5,090306
Forno Telheiro,PAN,2.96,5,090306
Forno Telheiro,L,1.78,3,090306
Forno Telheiro,MAS,1.78,3,090306
Forno Telheiro,POUS,1.18,2,090306
Forno Telheiro,PCTP/MRPP,0.59,1,090306
Forno Telheiro,PDA,0.59,1,090306
Forno Telheiro,PND,0.59,1,090306
Forno Telheiro,PTP,0.59,1,090306
Forno Telheiro,PNR,0,0,090306
Forno Telheiro,PPM,0,0,090306
Forno Telheiro,PPV,0,0,090306
