freguesia,acronym,validVotesPercentage,votes,dicofre
Fornos,PS,53.14,203,010602
Fornos,PPD/PSD.CDS-PP,31.41,120,010602
Fornos,MPT,3.93,15,010602
Fornos,PCP-PEV,3.14,12,010602
Fornos,B.E.,2.88,11,010602
Fornos,PAN,1.31,5,010602
Fornos,PND,1.05,4,010602
Fornos,L,0.79,3,010602
Fornos,PCTP/MRPP,0.79,3,010602
Fornos,MAS,0.52,2,010602
Fornos,PTP,0.52,2,010602
Fornos,PNR,0.26,1,010602
Fornos,PPM,0.26,1,010602
Fornos,PDA,0,0,010602
Fornos,POUS,0,0,010602
Fornos,PPV,0,0,010602
