freguesia,acronym,validVotesPercentage,votes,dicofre
Freixiosa,PPD/PSD.CDS-PP,50,39,180608
Freixiosa,PS,33.33,26,180608
Freixiosa,PCTP/MRPP,5.13,4,180608
Freixiosa,MPT,3.85,3,180608
Freixiosa,PCP-PEV,2.56,2,180608
Freixiosa,MAS,1.28,1,180608
Freixiosa,PND,1.28,1,180608
Freixiosa,POUS,1.28,1,180608
Freixiosa,PTP,1.28,1,180608
Freixiosa,B.E.,0,0,180608
Freixiosa,L,0,0,180608
Freixiosa,PAN,0,0,180608
Freixiosa,PDA,0,0,180608
Freixiosa,PNR,0,0,180608
Freixiosa,PPM,0,0,180608
Freixiosa,PPV,0,0,180608
