freguesia,acronym,validVotesPercentage,votes,dicofre
Freineda,PPD/PSD.CDS-PP,47.89,34,090209
Freineda,PS,35.21,25,090209
Freineda,PCP-PEV,4.23,3,090209
Freineda,MAS,2.82,2,090209
Freineda,B.E.,1.41,1,090209
Freineda,MPT,1.41,1,090209
Freineda,PND,1.41,1,090209
Freineda,PNR,1.41,1,090209
Freineda,POUS,1.41,1,090209
Freineda,PPM,1.41,1,090209
Freineda,PTP,1.41,1,090209
Freineda,L,0,0,090209
Freineda,PAN,0,0,090209
Freineda,PCTP/MRPP,0,0,090209
Freineda,PDA,0,0,090209
Freineda,PPV,0,0,090209
