freguesia,acronym,validVotesPercentage,votes,dicofre
Freixiel,PS,44.49,105,041005
Freixiel,PPD/PSD.CDS-PP,36.02,85,041005
Freixiel,MPT,4.66,11,041005
Freixiel,B.E.,2.97,7,041005
Freixiel,PAN,2.54,6,041005
Freixiel,PTP,2.54,6,041005
Freixiel,PCP-PEV,1.69,4,041005
Freixiel,PND,1.69,4,041005
Freixiel,PCTP/MRPP,1.27,3,041005
Freixiel,L,0.85,2,041005
Freixiel,POUS,0.42,1,041005
Freixiel,PPM,0.42,1,041005
Freixiel,PPV,0.42,1,041005
Freixiel,MAS,0,0,041005
Freixiel,PDA,0,0,041005
Freixiel,PNR,0,0,041005
