freguesia,acronym,validVotesPercentage,votes,dicofre
Gafanha da Boa Hora,PPD/PSD.CDS-PP,59.07,267,011804
Gafanha da Boa Hora,PS,18.58,84,011804
Gafanha da Boa Hora,MPT,8.19,37,011804
Gafanha da Boa Hora,PCP-PEV,3.32,15,011804
Gafanha da Boa Hora,B.E.,2.88,13,011804
Gafanha da Boa Hora,L,2.21,10,011804
Gafanha da Boa Hora,PAN,1.55,7,011804
Gafanha da Boa Hora,PCTP/MRPP,1.55,7,011804
Gafanha da Boa Hora,PND,0.88,4,011804
Gafanha da Boa Hora,MAS,0.66,3,011804
Gafanha da Boa Hora,PTP,0.66,3,011804
Gafanha da Boa Hora,POUS,0.22,1,011804
Gafanha da Boa Hora,PPM,0.22,1,011804
Gafanha da Boa Hora,PDA,0,0,011804
Gafanha da Boa Hora,PNR,0,0,011804
Gafanha da Boa Hora,PPV,0,0,011804
