freguesia,acronym,validVotesPercentage,votes,dicofre
Garfe,PPD/PSD.CDS-PP,43.5,301,030913
Garfe,PS,35.84,248,030913
Garfe,MPT,5.78,40,030913
Garfe,PCP-PEV,4.34,30,030913
Garfe,B.E.,2.31,16,030913
Garfe,PCTP/MRPP,2.31,16,030913
Garfe,PND,1.73,12,030913
Garfe,L,1.45,10,030913
Garfe,PAN,1.16,8,030913
Garfe,PPM,0.58,4,030913
Garfe,PTP,0.43,3,030913
Garfe,PNR,0.29,2,030913
Garfe,PPV,0.29,2,030913
Garfe,MAS,0,0,030913
Garfe,PDA,0,0,030913
Garfe,POUS,0,0,030913
