freguesia,acronym,validVotesPercentage,votes,dicofre
Gimonde,PPD/PSD.CDS-PP,49.55,55,040216
Gimonde,PS,36.94,41,040216
Gimonde,MPT,2.7,3,040216
Gimonde,PCP-PEV,2.7,3,040216
Gimonde,B.E.,1.8,2,040216
Gimonde,L,1.8,2,040216
Gimonde,PDA,1.8,2,040216
Gimonde,PAN,0.9,1,040216
Gimonde,PCTP/MRPP,0.9,1,040216
Gimonde,PND,0.9,1,040216
Gimonde,MAS,0,0,040216
Gimonde,PNR,0,0,040216
Gimonde,POUS,0,0,040216
Gimonde,PPM,0,0,040216
Gimonde,PPV,0,0,040216
Gimonde,PTP,0,0,040216
