freguesia,acronym,validVotesPercentage,votes,dicofre
Gondesende,PPD/PSD.CDS-PP,48.39,30,040217
Gondesende,PS,29.03,18,040217
Gondesende,MPT,6.45,4,040217
Gondesende,B.E.,4.84,3,040217
Gondesende,PCP-PEV,4.84,3,040217
Gondesende,L,1.61,1,040217
Gondesende,PAN,1.61,1,040217
Gondesende,PCTP/MRPP,1.61,1,040217
Gondesende,PPM,1.61,1,040217
Gondesende,MAS,0,0,040217
Gondesende,PDA,0,0,040217
Gondesende,PND,0,0,040217
Gondesende,PNR,0,0,040217
Gondesende,POUS,0,0,040217
Gondesende,PPV,0,0,040217
Gondesende,PTP,0,0,040217
