freguesia,acronym,validVotesPercentage,votes,dicofre
Gralhas,PS,50.96,53,170612
Gralhas,PPD/PSD.CDS-PP,31.73,33,170612
Gralhas,MPT,3.85,4,170612
Gralhas,B.E.,2.88,3,170612
Gralhas,PCP-PEV,2.88,3,170612
Gralhas,PCTP/MRPP,2.88,3,170612
Gralhas,PTP,1.92,2,170612
Gralhas,PND,0.96,1,170612
Gralhas,POUS,0.96,1,170612
Gralhas,PPM,0.96,1,170612
Gralhas,L,0,0,170612
Gralhas,MAS,0,0,170612
Gralhas,PAN,0,0,170612
Gralhas,PDA,0,0,170612
Gralhas,PNR,0,0,170612
Gralhas,PPV,0,0,170612
