freguesia,acronym,validVotesPercentage,votes,dicofre
Gualtar,PS,34.84,624,030319
Gualtar,PPD/PSD.CDS-PP,33,591,030319
Gualtar,PCP-PEV,9.72,174,030319
Gualtar,MPT,8.93,160,030319
Gualtar,B.E.,4.52,81,030319
Gualtar,L,3.18,57,030319
Gualtar,PCTP/MRPP,1.34,24,030319
Gualtar,PAN,1.06,19,030319
Gualtar,PPM,0.67,12,030319
Gualtar,MAS,0.61,11,030319
Gualtar,PND,0.61,11,030319
Gualtar,PTP,0.56,10,030319
Gualtar,PPV,0.39,7,030319
Gualtar,PNR,0.28,5,030319
Gualtar,PDA,0.22,4,030319
Gualtar,POUS,0.06,1,030319
