freguesia,acronym,validVotesPercentage,votes,dicofre
Horta da Vilariça,PPD/PSD.CDS-PP,61.05,58,040909
Horta da Vilariça,PS,15.79,15,040909
Horta da Vilariça,MPT,11.58,11,040909
Horta da Vilariça,PCP-PEV,6.32,6,040909
Horta da Vilariça,B.E.,2.11,2,040909
Horta da Vilariça,PCTP/MRPP,1.05,1,040909
Horta da Vilariça,PDA,1.05,1,040909
Horta da Vilariça,PND,1.05,1,040909
Horta da Vilariça,L,0,0,040909
Horta da Vilariça,MAS,0,0,040909
Horta da Vilariça,PAN,0,0,040909
Horta da Vilariça,PNR,0,0,040909
Horta da Vilariça,POUS,0,0,040909
Horta da Vilariça,PPM,0,0,040909
Horta da Vilariça,PPV,0,0,040909
Horta da Vilariça,PTP,0,0,040909
