freguesia,acronym,validVotesPercentage,votes,dicofre
Ilha,PPD/PSD.CDS-PP,74.44,99,310906
Ilha,PS,12.03,16,310906
Ilha,MPT,5.26,7,310906
Ilha,B.E.,2.26,3,310906
Ilha,PCP-PEV,1.5,2,310906
Ilha,L,0.75,1,310906
Ilha,PAN,0.75,1,310906
Ilha,PND,0.75,1,310906
Ilha,PNR,0.75,1,310906
Ilha,POUS,0.75,1,310906
Ilha,PTP,0.75,1,310906
Ilha,MAS,0,0,310906
Ilha,PCTP/MRPP,0,0,310906
Ilha,PDA,0,0,310906
Ilha,PPM,0,0,310906
Ilha,PPV,0,0,310906
