freguesia,acronym,validVotesPercentage,votes,dicofre
Infias,PS,44.96,254,031404
Infias,PPD/PSD.CDS-PP,27.79,157,031404
Infias,MPT,10.62,60,031404
Infias,PCP-PEV,6.19,35,031404
Infias,B.E.,2.83,16,031404
Infias,PCTP/MRPP,2.65,15,031404
Infias,L,1.24,7,031404
Infias,PPV,1.06,6,031404
Infias,PAN,0.53,3,031404
Infias,PNR,0.53,3,031404
Infias,PTP,0.53,3,031404
Infias,MAS,0.35,2,031404
Infias,PND,0.35,2,031404
Infias,PDA,0.18,1,031404
Infias,PPM,0.18,1,031404
Infias,POUS,0,0,031404
