freguesia,acronym,validVotesPercentage,votes,dicofre
Labruja,PPD/PSD.CDS-PP,59.7,80,160729
Labruja,PS,15.67,21,160729
Labruja,MPT,5.97,8,160729
Labruja,PCP-PEV,5.22,7,160729
Labruja,L,2.24,3,160729
Labruja,PPV,2.24,3,160729
Labruja,B.E.,1.49,2,160729
Labruja,PAN,1.49,2,160729
Labruja,PND,1.49,2,160729
Labruja,PNR,1.49,2,160729
Labruja,PTP,1.49,2,160729
Labruja,MAS,0.75,1,160729
Labruja,PCTP/MRPP,0.75,1,160729
Labruja,PDA,0,0,160729
Labruja,POUS,0,0,160729
Labruja,PPM,0,0,160729
