freguesia,acronym,validVotesPercentage,votes,dicofre
Lajeosa do Mondego,PS,49.56,113,090307
Lajeosa do Mondego,PPD/PSD.CDS-PP,24.56,56,090307
Lajeosa do Mondego,MPT,6.58,15,090307
Lajeosa do Mondego,PCP-PEV,6.14,14,090307
Lajeosa do Mondego,B.E.,4.39,10,090307
Lajeosa do Mondego,PTP,2.63,6,090307
Lajeosa do Mondego,PCTP/MRPP,2.19,5,090307
Lajeosa do Mondego,L,1.75,4,090307
Lajeosa do Mondego,PND,0.88,2,090307
Lajeosa do Mondego,PPM,0.88,2,090307
Lajeosa do Mondego,PPV,0.44,1,090307
Lajeosa do Mondego,MAS,0,0,090307
Lajeosa do Mondego,PAN,0,0,090307
Lajeosa do Mondego,PDA,0,0,090307
Lajeosa do Mondego,PNR,0,0,090307
Lajeosa do Mondego,POUS,0,0,090307
