freguesia,acronym,validVotesPercentage,votes,dicofre
Lanheses,PPD/PSD.CDS-PP,43.83,238,160915
Lanheses,PS,27.26,148,160915
Lanheses,MPT,9.76,53,160915
Lanheses,PCP-PEV,7,38,160915
Lanheses,B.E.,3.68,20,160915
Lanheses,PND,2.03,11,160915
Lanheses,PAN,1.84,10,160915
Lanheses,L,1.47,8,160915
Lanheses,PCTP/MRPP,1.29,7,160915
Lanheses,MAS,0.55,3,160915
Lanheses,PDA,0.55,3,160915
Lanheses,PNR,0.18,1,160915
Lanheses,POUS,0.18,1,160915
Lanheses,PPM,0.18,1,160915
Lanheses,PTP,0.18,1,160915
Lanheses,PPV,0,0,160915
