freguesia,acronym,validVotesPercentage,votes,dicofre
Lanhoso,PPD/PSD.CDS-PP,58.09,140,030915
Lanhoso,PS,25.31,61,030915
Lanhoso,PCP-PEV,4.98,12,030915
Lanhoso,MPT,2.9,7,030915
Lanhoso,B.E.,2.07,5,030915
Lanhoso,PCTP/MRPP,1.66,4,030915
Lanhoso,PTP,1.66,4,030915
Lanhoso,PND,1.24,3,030915
Lanhoso,MAS,0.83,2,030915
Lanhoso,PNR,0.41,1,030915
Lanhoso,PPM,0.41,1,030915
Lanhoso,PPV,0.41,1,030915
Lanhoso,L,0,0,030915
Lanhoso,PAN,0,0,030915
Lanhoso,PDA,0,0,030915
Lanhoso,POUS,0,0,030915
