freguesia,acronym,validVotesPercentage,votes,dicofre
Larinho,PS,43.83,71,040910
Larinho,PPD/PSD.CDS-PP,38.27,62,040910
Larinho,PCP-PEV,4.94,8,040910
Larinho,MPT,3.09,5,040910
Larinho,PND,2.47,4,040910
Larinho,PPM,2.47,4,040910
Larinho,B.E.,1.23,2,040910
Larinho,PCTP/MRPP,1.23,2,040910
Larinho,PAN,0.62,1,040910
Larinho,PNR,0.62,1,040910
Larinho,PPV,0.62,1,040910
Larinho,PTP,0.62,1,040910
Larinho,L,0,0,040910
Larinho,MAS,0,0,040910
Larinho,PDA,0,0,040910
Larinho,POUS,0,0,040910
