freguesia,acronym,validVotesPercentage,votes,dicofre
Laundos,PPD/PSD.CDS-PP,59.84,304,131308
Laundos,PS,17.13,87,131308
Laundos,MPT,8.27,42,131308
Laundos,PCP-PEV,3.74,19,131308
Laundos,B.E.,3.15,16,131308
Laundos,L,1.97,10,131308
Laundos,PAN,1.57,8,131308
Laundos,PCTP/MRPP,1.18,6,131308
Laundos,MAS,0.59,3,131308
Laundos,PND,0.59,3,131308
Laundos,PNR,0.59,3,131308
Laundos,PPV,0.59,3,131308
Laundos,PPM,0.39,2,131308
Laundos,PDA,0.2,1,131308
Laundos,PTP,0.2,1,131308
Laundos,POUS,0,0,131308
