freguesia,acronym,validVotesPercentage,votes,dicofre
Lavos,PS,37.79,373,060522
Lavos,PPD/PSD.CDS-PP,24.21,239,060522
Lavos,PCP-PEV,12.66,125,060522
Lavos,MPT,8.61,85,060522
Lavos,B.E.,5.37,53,060522
Lavos,PCTP/MRPP,4.36,43,060522
Lavos,L,2.03,20,060522
Lavos,PAN,1.82,18,060522
Lavos,PND,1.01,10,060522
Lavos,PTP,0.71,7,060522
Lavos,PPM,0.61,6,060522
Lavos,PNR,0.41,4,060522
Lavos,PPV,0.3,3,060522
Lavos,POUS,0.1,1,060522
Lavos,MAS,0,0,060522
Lavos,PDA,0,0,060522
