freguesia,acronym,validVotesPercentage,votes,dicofre
Lazarim,PPD/PSD.CDS-PP,49.43,87,180511
Lazarim,PS,31.82,56,180511
Lazarim,B.E.,5.11,9,180511
Lazarim,PCP-PEV,3.98,7,180511
Lazarim,PCTP/MRPP,2.84,5,180511
Lazarim,MPT,1.7,3,180511
Lazarim,PTP,1.7,3,180511
Lazarim,PND,1.14,2,180511
Lazarim,MAS,0.57,1,180511
Lazarim,PAN,0.57,1,180511
Lazarim,PPM,0.57,1,180511
Lazarim,PPV,0.57,1,180511
Lazarim,L,0,0,180511
Lazarim,PDA,0,0,180511
Lazarim,PNR,0,0,180511
Lazarim,POUS,0,0,180511
