freguesia,acronym,validVotesPercentage,votes,dicofre
Lindoso,PPD/PSD.CDS-PP,44.38,71,160612
Lindoso,PS,40.63,65,160612
Lindoso,MPT,6.25,10,160612
Lindoso,PCP-PEV,3.13,5,160612
Lindoso,PND,1.88,3,160612
Lindoso,B.E.,1.25,2,160612
Lindoso,L,0.63,1,160612
Lindoso,PAN,0.63,1,160612
Lindoso,PDA,0.63,1,160612
Lindoso,PPM,0.63,1,160612
Lindoso,MAS,0,0,160612
Lindoso,PCTP/MRPP,0,0,160612
Lindoso,PNR,0,0,160612
Lindoso,POUS,0,0,160612
Lindoso,PPV,0,0,160612
Lindoso,PTP,0,0,160612
