freguesia,acronym,validVotesPercentage,votes,dicofre
Linhares,PS,46.67,49,090308
Linhares,PPD/PSD.CDS-PP,45.71,48,090308
Linhares,PAN,1.9,2,090308
Linhares,PND,1.9,2,090308
Linhares,B.E.,0.95,1,090308
Linhares,MPT,0.95,1,090308
Linhares,PCP-PEV,0.95,1,090308
Linhares,PTP,0.95,1,090308
Linhares,L,0,0,090308
Linhares,MAS,0,0,090308
Linhares,PCTP/MRPP,0,0,090308
Linhares,PDA,0,0,090308
Linhares,PNR,0,0,090308
Linhares,POUS,0,0,090308
Linhares,PPM,0,0,090308
Linhares,PPV,0,0,090308
