freguesia,acronym,validVotesPercentage,votes,dicofre
Lomba,PPD/PSD.CDS-PP,42.86,18,480106
Lomba,PS,42.86,18,480106
Lomba,MPT,7.14,3,480106
Lomba,L,2.38,1,480106
Lomba,PAN,2.38,1,480106
Lomba,PCP-PEV,2.38,1,480106
Lomba,B.E.,0,0,480106
Lomba,MAS,0,0,480106
Lomba,PCTP/MRPP,0,0,480106
Lomba,PDA,0,0,480106
Lomba,PND,0,0,480106
Lomba,PNR,0,0,480106
Lomba,POUS,0,0,480106
Lomba,PPM,0,0,480106
Lomba,PPV,0,0,480106
Lomba,PTP,0,0,480106
