freguesia,acronym,validVotesPercentage,votes,dicofre
Longos Vales,PPD/PSD.CDS-PP,48.71,113,160411
Longos Vales,PS,34.91,81,160411
Longos Vales,MPT,6.9,16,160411
Longos Vales,PND,2.59,6,160411
Longos Vales,B.E.,1.72,4,160411
Longos Vales,PAN,1.72,4,160411
Longos Vales,PCP-PEV,1.29,3,160411
Longos Vales,PPM,0.86,2,160411
Longos Vales,L,0.43,1,160411
Longos Vales,PNR,0.43,1,160411
Longos Vales,POUS,0.43,1,160411
Longos Vales,MAS,0,0,160411
Longos Vales,PCTP/MRPP,0,0,160411
Longos Vales,PDA,0,0,160411
Longos Vales,PPV,0,0,160411
Longos Vales,PTP,0,0,160411
