freguesia,acronym,validVotesPercentage,votes,dicofre
Longroiva,PPD/PSD.CDS-PP,45,54,090907
Longroiva,PS,35,42,090907
Longroiva,MPT,7.5,9,090907
Longroiva,PCP-PEV,5,6,090907
Longroiva,B.E.,2.5,3,090907
Longroiva,PPM,1.67,2,090907
Longroiva,PTP,1.67,2,090907
Longroiva,L,0.83,1,090907
Longroiva,PAN,0.83,1,090907
Longroiva,MAS,0,0,090907
Longroiva,PCTP/MRPP,0,0,090907
Longroiva,PDA,0,0,090907
Longroiva,PND,0,0,090907
Longroiva,PNR,0,0,090907
Longroiva,POUS,0,0,090907
Longroiva,PPV,0,0,090907
