freguesia,acronym,validVotesPercentage,votes,dicofre
Loriga,PS,54.99,204,091207
Loriga,PPD/PSD.CDS-PP,15.63,58,091207
Loriga,PCP-PEV,10.78,40,091207
Loriga,MPT,7.55,28,091207
Loriga,B.E.,2.7,10,091207
Loriga,PAN,2.43,9,091207
Loriga,L,1.89,7,091207
Loriga,PCTP/MRPP,1.35,5,091207
Loriga,PPM,1.08,4,091207
Loriga,PND,0.54,2,091207
Loriga,PPV,0.54,2,091207
Loriga,MAS,0.27,1,091207
Loriga,PNR,0.27,1,091207
Loriga,PDA,0,0,091207
Loriga,POUS,0,0,091207
Loriga,PTP,0,0,091207
