freguesia,acronym,validVotesPercentage,votes,dicofre
Loulé (São Clemente),PS,34.45,1246,080808
Loulé (São Clemente),PPD/PSD.CDS-PP,24.41,883,080808
Loulé (São Clemente),PCP-PEV,12.83,464,080808
Loulé (São Clemente),MPT,8.43,305,080808
Loulé (São Clemente),B.E.,6.66,241,080808
Loulé (São Clemente),PAN,3.32,120,080808
Loulé (São Clemente),L,2.63,95,080808
Loulé (São Clemente),PCTP/MRPP,2.6,94,080808
Loulé (São Clemente),PND,1.19,43,080808
Loulé (São Clemente),PNR,0.86,31,080808
Loulé (São Clemente),PTP,0.8,29,080808
Loulé (São Clemente),PPM,0.5,18,080808
Loulé (São Clemente),MAS,0.44,16,080808
Loulé (São Clemente),PPV,0.41,15,080808
Loulé (São Clemente),PDA,0.3,11,080808
Loulé (São Clemente),POUS,0.17,6,080808
