freguesia,acronym,validVotesPercentage,votes,dicofre
Lousa,PPD/PSD.CDS-PP,55.77,58,040911
Lousa,PS,31.73,33,040911
Lousa,PCP-PEV,3.85,4,040911
Lousa,PND,2.88,3,040911
Lousa,B.E.,1.92,2,040911
Lousa,PPV,1.92,2,040911
Lousa,L,0.96,1,040911
Lousa,MPT,0.96,1,040911
Lousa,MAS,0,0,040911
Lousa,PAN,0,0,040911
Lousa,PCTP/MRPP,0,0,040911
Lousa,PDA,0,0,040911
Lousa,PNR,0,0,040911
Lousa,POUS,0,0,040911
Lousa,PPM,0,0,040911
Lousa,PTP,0,0,040911
