freguesia,acronym,validVotesPercentage,votes,dicofre
Lufrei,PS,54.17,331,130121
Lufrei,PPD/PSD.CDS-PP,17.84,109,130121
Lufrei,MPT,17.51,107,130121
Lufrei,B.E.,1.96,12,130121
Lufrei,L,1.47,9,130121
Lufrei,PCP-PEV,1.15,7,130121
Lufrei,PTP,1.15,7,130121
Lufrei,PCTP/MRPP,0.82,5,130121
Lufrei,PAN,0.65,4,130121
Lufrei,PNR,0.65,4,130121
Lufrei,PPM,0.65,4,130121
Lufrei,MAS,0.49,3,130121
Lufrei,PDA,0.49,3,130121
Lufrei,PND,0.49,3,130121
Lufrei,POUS,0.33,2,130121
Lufrei,PPV,0.16,1,130121
