freguesia,acronym,validVotesPercentage,votes,dicofre
Lusinde,PPD/PSD.CDS-PP,44.33,43,181106
Lusinde,PS,36.08,35,181106
Lusinde,B.E.,6.19,6,181106
Lusinde,PCP-PEV,6.19,6,181106
Lusinde,MPT,3.09,3,181106
Lusinde,L,2.06,2,181106
Lusinde,PCTP/MRPP,1.03,1,181106
Lusinde,PDA,1.03,1,181106
Lusinde,MAS,0,0,181106
Lusinde,PAN,0,0,181106
Lusinde,PND,0,0,181106
Lusinde,PNR,0,0,181106
Lusinde,POUS,0,0,181106
Lusinde,PPM,0,0,181106
Lusinde,PPV,0,0,181106
Lusinde,PTP,0,0,181106
