freguesia,acronym,validVotesPercentage,votes,dicofre
Machico,PS,47.01,1351,310403
Machico,PPD/PSD.CDS-PP,22.58,649,310403
Machico,MPT,8.98,258,310403
Machico,PTP,5.88,169,310403
Machico,PCP-PEV,3.24,93,310403
Machico,B.E.,3.2,92,310403
Machico,PAN,2.51,72,310403
Machico,L,1.7,49,310403
Machico,PCTP/MRPP,1.32,38,310403
Machico,PND,1.11,32,310403
Machico,PPM,0.9,26,310403
Machico,PPV,0.52,15,310403
Machico,MAS,0.38,11,310403
Machico,PNR,0.35,10,310403
Machico,POUS,0.17,5,310403
Machico,PDA,0.14,4,310403
