freguesia,acronym,validVotesPercentage,votes,dicofre
Mafra,PPD/PSD.CDS-PP,28.11,1222,110909
Mafra,PS,27.24,1184,110909
Mafra,PCP-PEV,14.63,636,110909
Mafra,MPT,10.86,472,110909
Mafra,B.E.,6.79,295,110909
Mafra,PAN,3.47,151,110909
Mafra,L,3.27,142,110909
Mafra,PCTP/MRPP,1.59,69,110909
Mafra,PNR,0.94,41,110909
Mafra,PPM,0.67,29,110909
Mafra,PND,0.62,27,110909
Mafra,PTP,0.62,27,110909
Mafra,MAS,0.58,25,110909
Mafra,PPV,0.44,19,110909
Mafra,POUS,0.14,6,110909
Mafra,PDA,0.05,2,110909
