freguesia,acronym,validVotesPercentage,votes,dicofre
Mairos,PPD/PSD.CDS-PP,41.96,47,170316
Mairos,PS,37.5,42,170316
Mairos,MPT,8.04,9,170316
Mairos,PAN,3.57,4,170316
Mairos,PCP-PEV,2.68,3,170316
Mairos,B.E.,1.79,2,170316
Mairos,MAS,1.79,2,170316
Mairos,PCTP/MRPP,0.89,1,170316
Mairos,PPM,0.89,1,170316
Mairos,PTP,0.89,1,170316
Mairos,L,0,0,170316
Mairos,PDA,0,0,170316
Mairos,PND,0,0,170316
Mairos,PNR,0,0,170316
Mairos,POUS,0,0,170316
Mairos,PPV,0,0,170316
