freguesia,acronym,validVotesPercentage,votes,dicofre
Manigoto,PPD/PSD.CDS-PP,60,42,091014
Manigoto,PS,24.29,17,091014
Manigoto,MPT,5.71,4,091014
Manigoto,PAN,2.86,2,091014
Manigoto,PND,2.86,2,091014
Manigoto,L,1.43,1,091014
Manigoto,PNR,1.43,1,091014
Manigoto,PTP,1.43,1,091014
Manigoto,B.E.,0,0,091014
Manigoto,MAS,0,0,091014
Manigoto,PCP-PEV,0,0,091014
Manigoto,PCTP/MRPP,0,0,091014
Manigoto,PDA,0,0,091014
Manigoto,POUS,0,0,091014
Manigoto,PPM,0,0,091014
Manigoto,PPV,0,0,091014
