freguesia,acronym,validVotesPercentage,votes,dicofre
Mansores,PPD/PSD.CDS-PP,69.61,213,010413
Mansores,PS,16.67,51,010413
Mansores,MPT,4.9,15,010413
Mansores,PCP-PEV,2.29,7,010413
Mansores,PND,1.96,6,010413
Mansores,B.E.,1.31,4,010413
Mansores,L,1.31,4,010413
Mansores,PAN,0.65,2,010413
Mansores,PPM,0.65,2,010413
Mansores,PPV,0.65,2,010413
Mansores,MAS,0,0,010413
Mansores,PCTP/MRPP,0,0,010413
Mansores,PDA,0,0,010413
Mansores,PNR,0,0,010413
Mansores,POUS,0,0,010413
Mansores,PTP,0,0,010413
