freguesia,acronym,validVotesPercentage,votes,dicofre
Mesquitela,PPD/PSD.CDS-PP,42.16,43,090310
Mesquitela,PS,36.27,37,090310
Mesquitela,MPT,8.82,9,090310
Mesquitela,PCP-PEV,5.88,6,090310
Mesquitela,PCTP/MRPP,1.96,2,090310
Mesquitela,B.E.,0.98,1,090310
Mesquitela,L,0.98,1,090310
Mesquitela,PND,0.98,1,090310
Mesquitela,PPV,0.98,1,090310
Mesquitela,PTP,0.98,1,090310
Mesquitela,MAS,0,0,090310
Mesquitela,PAN,0,0,090310
Mesquitela,PDA,0,0,090310
Mesquitela,PNR,0,0,090310
Mesquitela,POUS,0,0,090310
Mesquitela,PPM,0,0,090310
