freguesia,acronym,validVotesPercentage,votes,dicofre
Midões,PS,50.32,234,061608
Midões,PPD/PSD.CDS-PP,30.75,143,061608
Midões,MPT,5.16,24,061608
Midões,PCP-PEV,3.87,18,061608
Midões,B.E.,1.94,9,061608
Midões,L,1.72,8,061608
Midões,PAN,1.51,7,061608
Midões,PCTP/MRPP,1.29,6,061608
Midões,PPM,0.86,4,061608
Midões,MAS,0.65,3,061608
Midões,PND,0.65,3,061608
Midões,POUS,0.43,2,061608
Midões,PTP,0.43,2,061608
Midões,PDA,0.22,1,061608
Midões,PPV,0.22,1,061608
Midões,PNR,0,0,061608
