freguesia,acronym,validVotesPercentage,votes,dicofre
Miranda,PPD/PSD.CDS-PP,47.58,59,160121
Miranda,PS,35.48,44,160121
Miranda,MPT,4.84,6,160121
Miranda,PND,3.23,4,160121
Miranda,PCP-PEV,2.42,3,160121
Miranda,L,1.61,2,160121
Miranda,PAN,1.61,2,160121
Miranda,PCTP/MRPP,1.61,2,160121
Miranda,B.E.,0.81,1,160121
Miranda,MAS,0.81,1,160121
Miranda,PDA,0,0,160121
Miranda,PNR,0,0,160121
Miranda,POUS,0,0,160121
Miranda,PPM,0,0,160121
Miranda,PPV,0,0,160121
Miranda,PTP,0,0,160121
