freguesia,acronym,validVotesPercentage,votes,dicofre
Miranda do Douro,PS,44.36,248,040608
Miranda do Douro,PPD/PSD.CDS-PP,38.46,215,040608
Miranda do Douro,MPT,7.51,42,040608
Miranda do Douro,PCP-PEV,3.04,17,040608
Miranda do Douro,B.E.,1.79,10,040608
Miranda do Douro,L,1.61,9,040608
Miranda do Douro,PND,1.43,8,040608
Miranda do Douro,PAN,0.36,2,040608
Miranda do Douro,PCTP/MRPP,0.36,2,040608
Miranda do Douro,PPV,0.36,2,040608
Miranda do Douro,PTP,0.36,2,040608
Miranda do Douro,MAS,0.18,1,040608
Miranda do Douro,POUS,0.18,1,040608
Miranda do Douro,PDA,0,0,040608
Miranda do Douro,PNR,0,0,040608
Miranda do Douro,PPM,0,0,040608
