freguesia,acronym,validVotesPercentage,votes,dicofre
Moimenta da Beira,PS,44.4,301,180710
Moimenta da Beira,PPD/PSD.CDS-PP,34.07,231,180710
Moimenta da Beira,MPT,6.93,47,180710
Moimenta da Beira,PCP-PEV,6.34,43,180710
Moimenta da Beira,B.E.,2.95,20,180710
Moimenta da Beira,L,1.47,10,180710
Moimenta da Beira,PPM,0.74,5,180710
Moimenta da Beira,PAN,0.59,4,180710
Moimenta da Beira,PCTP/MRPP,0.59,4,180710
Moimenta da Beira,PND,0.44,3,180710
Moimenta da Beira,PNR,0.44,3,180710
Moimenta da Beira,PPV,0.29,2,180710
Moimenta da Beira,PTP,0.29,2,180710
Moimenta da Beira,MAS,0.15,1,180710
Moimenta da Beira,PDA,0.15,1,180710
Moimenta da Beira,POUS,0.15,1,180710
