freguesia,acronym,validVotesPercentage,votes,dicofre
Moita dos Ferreiros,PPD/PSD.CDS-PP,62.53,282,110803
Moita dos Ferreiros,PS,18.85,85,110803
Moita dos Ferreiros,MPT,3.33,15,110803
Moita dos Ferreiros,PCP-PEV,3.33,15,110803
Moita dos Ferreiros,B.E.,2.44,11,110803
Moita dos Ferreiros,PAN,2,9,110803
Moita dos Ferreiros,L,1.55,7,110803
Moita dos Ferreiros,PCTP/MRPP,1.55,7,110803
Moita dos Ferreiros,PND,1.33,6,110803
Moita dos Ferreiros,PPM,0.89,4,110803
Moita dos Ferreiros,PPV,0.89,4,110803
Moita dos Ferreiros,MAS,0.44,2,110803
Moita dos Ferreiros,PTP,0.44,2,110803
Moita dos Ferreiros,PNR,0.22,1,110803
Moita dos Ferreiros,POUS,0.22,1,110803
Moita dos Ferreiros,PDA,0,0,110803
