freguesia,acronym,validVotesPercentage,votes,dicofre
Montes da Senhora,PPD/PSD.CDS-PP,48.84,126,050802
Montes da Senhora,PS,35.27,91,050802
Montes da Senhora,MPT,5.43,14,050802
Montes da Senhora,B.E.,1.55,4,050802
Montes da Senhora,PCTP/MRPP,1.55,4,050802
Montes da Senhora,PPM,1.55,4,050802
Montes da Senhora,L,1.16,3,050802
Montes da Senhora,PCP-PEV,1.16,3,050802
Montes da Senhora,MAS,0.78,2,050802
Montes da Senhora,PND,0.78,2,050802
Montes da Senhora,PNR,0.78,2,050802
Montes da Senhora,PAN,0.39,1,050802
Montes da Senhora,POUS,0.39,1,050802
Montes da Senhora,PTP,0.39,1,050802
Montes da Senhora,PDA,0,0,050802
Montes da Senhora,PPV,0,0,050802
