freguesia,acronym,validVotesPercentage,votes,dicofre
Monte,PPD/PSD.CDS-PP,26.09,516,310302
Monte,PS,24.77,490,310302
Monte,MPT,11.22,222,310302
Monte,PCP-PEV,8.8,174,310302
Monte,PTP,6.57,130,310302
Monte,PAN,4.9,97,310302
Monte,PND,3.84,76,310302
Monte,B.E.,3.49,69,310302
Monte,PCTP/MRPP,2.53,50,310302
Monte,L,2.43,48,310302
Monte,PPM,1.57,31,310302
Monte,PNR,1.06,21,310302
Monte,PDA,1.01,20,310302
Monte,PPV,0.76,15,310302
Monte,MAS,0.56,11,310302
Monte,POUS,0.4,8,310302
