freguesia,acronym,validVotesPercentage,votes,dicofre
Monte Gordo,PS,32.55,208,081603
Monte Gordo,PCP-PEV,31.92,204,081603
Monte Gordo,PPD/PSD.CDS-PP,18.47,118,081603
Monte Gordo,B.E.,5.01,32,081603
Monte Gordo,MPT,3.6,23,081603
Monte Gordo,PCTP/MRPP,3.29,21,081603
Monte Gordo,PNR,0.94,6,081603
Monte Gordo,PPV,0.78,5,081603
Monte Gordo,PTP,0.78,5,081603
Monte Gordo,L,0.63,4,081603
Monte Gordo,MAS,0.63,4,081603
Monte Gordo,PPM,0.63,4,081603
Monte Gordo,PAN,0.47,3,081603
Monte Gordo,PND,0.31,2,081603
Monte Gordo,PDA,0,0,081603
Monte Gordo,POUS,0,0,081603
