freguesia,acronym,validVotesPercentage,votes,dicofre
Monte da Pedra,PS,55.88,76,120605
Monte da Pedra,PCP-PEV,25,34,120605
Monte da Pedra,PPD/PSD.CDS-PP,11.03,15,120605
Monte da Pedra,MPT,1.47,2,120605
Monte da Pedra,PAN,1.47,2,120605
Monte da Pedra,PCTP/MRPP,1.47,2,120605
Monte da Pedra,B.E.,0.74,1,120605
Monte da Pedra,L,0.74,1,120605
Monte da Pedra,PND,0.74,1,120605
Monte da Pedra,PNR,0.74,1,120605
Monte da Pedra,PTP,0.74,1,120605
Monte da Pedra,MAS,0,0,120605
Monte da Pedra,PDA,0,0,120605
Monte da Pedra,POUS,0,0,120605
Monte da Pedra,PPM,0,0,120605
Monte da Pedra,PPV,0,0,120605
