freguesia,acronym,validVotesPercentage,votes,dicofre
Monte do Trigo,PCP-PEV,53.81,205,070903
Monte do Trigo,PS,35.96,137,070903
Monte do Trigo,PPD/PSD.CDS-PP,4.72,18,070903
Monte do Trigo,PCTP/MRPP,2.36,9,070903
Monte do Trigo,B.E.,1.31,5,070903
Monte do Trigo,MPT,1.31,5,070903
Monte do Trigo,L,0.26,1,070903
Monte do Trigo,PAN,0.26,1,070903
Monte do Trigo,MAS,0,0,070903
Monte do Trigo,PDA,0,0,070903
Monte do Trigo,PND,0,0,070903
Monte do Trigo,PNR,0,0,070903
Monte do Trigo,POUS,0,0,070903
Monte do Trigo,PPM,0,0,070903
Monte do Trigo,PPV,0,0,070903
Monte do Trigo,PTP,0,0,070903
