freguesia,acronym,validVotesPercentage,votes,dicofre
Montaria,PPD/PSD.CDS-PP,35.29,72,160920
Montaria,PS,27.45,56,160920
Montaria,MPT,14.71,30,160920
Montaria,B.E.,4.9,10,160920
Montaria,PND,3.92,8,160920
Montaria,PCP-PEV,2.45,5,160920
Montaria,PNR,2.45,5,160920
Montaria,PAN,1.96,4,160920
Montaria,PTP,1.96,4,160920
Montaria,PDA,1.47,3,160920
Montaria,MAS,0.98,2,160920
Montaria,PCTP/MRPP,0.98,2,160920
Montaria,L,0.49,1,160920
Montaria,POUS,0.49,1,160920
Montaria,PPM,0.49,1,160920
Montaria,PPV,0,0,160920
