freguesia,acronym,validVotesPercentage,votes,dicofre
Moreiras,PPD/PSD.CDS-PP,64.13,59,170317
Moreiras,PS,19.57,18,170317
Moreiras,MPT,4.35,4,170317
Moreiras,PCP-PEV,3.26,3,170317
Moreiras,PND,3.26,3,170317
Moreiras,B.E.,1.09,1,170317
Moreiras,MAS,1.09,1,170317
Moreiras,PPM,1.09,1,170317
Moreiras,PPV,1.09,1,170317
Moreiras,PTP,1.09,1,170317
Moreiras,L,0,0,170317
Moreiras,PAN,0,0,170317
Moreiras,PCTP/MRPP,0,0,170317
Moreiras,PDA,0,0,170317
Moreiras,PNR,0,0,170317
Moreiras,POUS,0,0,170317
