freguesia,acronym,validVotesPercentage,votes,dicofre
Mouronho,PPD/PSD.CDS-PP,53.67,117,061609
Mouronho,PS,24.31,53,061609
Mouronho,MPT,5.96,13,061609
Mouronho,PCP-PEV,3.67,8,061609
Mouronho,B.E.,2.75,6,061609
Mouronho,PTP,1.83,4,061609
Mouronho,PAN,1.38,3,061609
Mouronho,PCTP/MRPP,1.38,3,061609
Mouronho,PNR,1.38,3,061609
Mouronho,MAS,0.92,2,061609
Mouronho,PND,0.92,2,061609
Mouronho,POUS,0.92,2,061609
Mouronho,L,0.46,1,061609
Mouronho,PPM,0.46,1,061609
Mouronho,PDA,0,0,061609
Mouronho,PPV,0,0,061609
