freguesia,acronym,validVotesPercentage,votes,dicofre
Mourão,PS,53.78,256,070803
Mourão,PPD/PSD.CDS-PP,18.7,89,070803
Mourão,PCP-PEV,17.02,81,070803
Mourão,MPT,3.78,18,070803
Mourão,B.E.,2.31,11,070803
Mourão,PCTP/MRPP,1.89,9,070803
Mourão,PAN,0.84,4,070803
Mourão,PPM,0.84,4,070803
Mourão,PNR,0.42,2,070803
Mourão,L,0.21,1,070803
Mourão,MAS,0.21,1,070803
Mourão,PDA,0,0,070803
Mourão,PND,0,0,070803
Mourão,POUS,0,0,070803
Mourão,PPV,0,0,070803
Mourão,PTP,0,0,070803
