freguesia,acronym,validVotesPercentage,votes,dicofre
Nagozelo do Douro,PS,36.76,50,181504
Nagozelo do Douro,PPD/PSD.CDS-PP,30.88,42,181504
Nagozelo do Douro,MPT,11.76,16,181504
Nagozelo do Douro,PCP-PEV,7.35,10,181504
Nagozelo do Douro,B.E.,4.41,6,181504
Nagozelo do Douro,PAN,3.68,5,181504
Nagozelo do Douro,L,2.21,3,181504
Nagozelo do Douro,PPM,1.47,2,181504
Nagozelo do Douro,PCTP/MRPP,0.74,1,181504
Nagozelo do Douro,PNR,0.74,1,181504
Nagozelo do Douro,MAS,0,0,181504
Nagozelo do Douro,PDA,0,0,181504
Nagozelo do Douro,PND,0,0,181504
Nagozelo do Douro,POUS,0,0,181504
Nagozelo do Douro,PPV,0,0,181504
Nagozelo do Douro,PTP,0,0,181504
