freguesia,acronym,validVotesPercentage,votes,dicofre
Nave,PPD/PSD.CDS-PP,48.53,33,091120
Nave,PS,14.71,10,091120
Nave,PCP-PEV,11.76,8,091120
Nave,MPT,8.82,6,091120
Nave,B.E.,2.94,2,091120
Nave,L,2.94,2,091120
Nave,PTP,2.94,2,091120
Nave,PAN,1.47,1,091120
Nave,PCTP/MRPP,1.47,1,091120
Nave,PDA,1.47,1,091120
Nave,PND,1.47,1,091120
Nave,PPV,1.47,1,091120
Nave,MAS,0,0,091120
Nave,PNR,0,0,091120
Nave,POUS,0,0,091120
Nave,PPM,0,0,091120
