freguesia,acronym,validVotesPercentage,votes,dicofre
Nossa Senhora da Conceição e de São Bartolomeu,PS,33.26,440,071406
Nossa Senhora da Conceição e de São Bartolomeu,PCP-PEV,25.4,336,071406
Nossa Senhora da Conceição e de São Bartolomeu,PPD/PSD.CDS-PP,24.57,325,071406
Nossa Senhora da Conceição e de São Bartolomeu,MPT,4.91,65,071406
Nossa Senhora da Conceição e de São Bartolomeu,B.E.,4.69,62,071406
Nossa Senhora da Conceição e de São Bartolomeu,PCTP/MRPP,2.95,39,071406
Nossa Senhora da Conceição e de São Bartolomeu,L,1.21,16,071406
Nossa Senhora da Conceição e de São Bartolomeu,PAN,0.83,11,071406
Nossa Senhora da Conceição e de São Bartolomeu,PPM,0.53,7,071406
Nossa Senhora da Conceição e de São Bartolomeu,PNR,0.45,6,071406
Nossa Senhora da Conceição e de São Bartolomeu,PND,0.38,5,071406
Nossa Senhora da Conceição e de São Bartolomeu,PPV,0.38,5,071406
Nossa Senhora da Conceição e de São Bartolomeu,PTP,0.3,4,071406
Nossa Senhora da Conceição e de São Bartolomeu,MAS,0.15,2,071406
Nossa Senhora da Conceição e de São Bartolomeu,PDA,0,0,071406
Nossa Senhora da Conceição e de São Bartolomeu,POUS,0,0,071406
