freguesia,acronym,validVotesPercentage,votes,dicofre
Nossa Senhora dos Remédios,PS,48.37,119,420404
Nossa Senhora dos Remédios,PPD/PSD.CDS-PP,40.65,100,420404
Nossa Senhora dos Remédios,MPT,2.44,6,420404
Nossa Senhora dos Remédios,PCP-PEV,2.03,5,420404
Nossa Senhora dos Remédios,B.E.,1.22,3,420404
Nossa Senhora dos Remédios,PAN,1.22,3,420404
Nossa Senhora dos Remédios,L,0.81,2,420404
Nossa Senhora dos Remédios,PCTP/MRPP,0.81,2,420404
Nossa Senhora dos Remédios,PPV,0.81,2,420404
Nossa Senhora dos Remédios,PDA,0.41,1,420404
Nossa Senhora dos Remédios,PND,0.41,1,420404
Nossa Senhora dos Remédios,PNR,0.41,1,420404
Nossa Senhora dos Remédios,PTP,0.41,1,420404
Nossa Senhora dos Remédios,MAS,0,0,420404
Nossa Senhora dos Remédios,POUS,0,0,420404
Nossa Senhora dos Remédios,PPM,0,0,420404
