freguesia,acronym,validVotesPercentage,votes,dicofre
Nossa Senhora da Piedade,PPD/PSD.CDS-PP,40.28,731,142115
Nossa Senhora da Piedade,PS,28.65,520,142115
Nossa Senhora da Piedade,MPT,8.87,161,142115
Nossa Senhora da Piedade,PCP-PEV,7.55,137,142115
Nossa Senhora da Piedade,B.E.,4.68,85,142115
Nossa Senhora da Piedade,L,3.47,63,142115
Nossa Senhora da Piedade,PCTP/MRPP,1.6,29,142115
Nossa Senhora da Piedade,PAN,1.54,28,142115
Nossa Senhora da Piedade,PND,1.1,20,142115
Nossa Senhora da Piedade,PNR,0.55,10,142115
Nossa Senhora da Piedade,PTP,0.5,9,142115
Nossa Senhora da Piedade,PDA,0.33,6,142115
Nossa Senhora da Piedade,PPV,0.33,6,142115
Nossa Senhora da Piedade,PPM,0.28,5,142115
Nossa Senhora da Piedade,MAS,0.22,4,142115
Nossa Senhora da Piedade,POUS,0.06,1,142115
