freguesia,acronym,validVotesPercentage,votes,dicofre
Nossa Senhora da Graça do Divor,PCP-PEV,60.66,111,070502
Nossa Senhora da Graça do Divor,PS,21.31,39,070502
Nossa Senhora da Graça do Divor,PPD/PSD.CDS-PP,4.37,8,070502
Nossa Senhora da Graça do Divor,B.E.,3.28,6,070502
Nossa Senhora da Graça do Divor,MPT,3.28,6,070502
Nossa Senhora da Graça do Divor,PCTP/MRPP,3.28,6,070502
Nossa Senhora da Graça do Divor,L,2.73,5,070502
Nossa Senhora da Graça do Divor,PAN,0.55,1,070502
Nossa Senhora da Graça do Divor,PPM,0.55,1,070502
Nossa Senhora da Graça do Divor,MAS,0,0,070502
Nossa Senhora da Graça do Divor,PDA,0,0,070502
Nossa Senhora da Graça do Divor,PND,0,0,070502
Nossa Senhora da Graça do Divor,PNR,0,0,070502
Nossa Senhora da Graça do Divor,POUS,0,0,070502
Nossa Senhora da Graça do Divor,PPV,0,0,070502
Nossa Senhora da Graça do Divor,PTP,0,0,070502
