freguesia,acronym,validVotesPercentage,votes,dicofre
Odeceixe,PS,36.1,100,080303
Odeceixe,PCP-PEV,26.71,74,080303
Odeceixe,PPD/PSD.CDS-PP,11.91,33,080303
Odeceixe,MPT,9.39,26,080303
Odeceixe,B.E.,5.42,15,080303
Odeceixe,PCTP/MRPP,3.25,9,080303
Odeceixe,PAN,2.89,8,080303
Odeceixe,L,2.17,6,080303
Odeceixe,PTP,1.08,3,080303
Odeceixe,PND,0.36,1,080303
Odeceixe,PNR,0.36,1,080303
Odeceixe,PPM,0.36,1,080303
Odeceixe,MAS,0,0,080303
Odeceixe,PDA,0,0,080303
Odeceixe,POUS,0,0,080303
Odeceixe,PPV,0,0,080303
