freguesia,acronym,validVotesPercentage,votes,dicofre
Odiáxere,PS,43.41,257,080704
Odiáxere,PPD/PSD.CDS-PP,16.89,100,080704
Odiáxere,PCP-PEV,14.36,85,080704
Odiáxere,MPT,8.45,50,080704
Odiáxere,B.E.,6.42,38,080704
Odiáxere,PCTP/MRPP,4.39,26,080704
Odiáxere,PAN,1.52,9,080704
Odiáxere,L,1.18,7,080704
Odiáxere,PPM,1.01,6,080704
Odiáxere,PND,0.51,3,080704
Odiáxere,PTP,0.51,3,080704
Odiáxere,MAS,0.34,2,080704
Odiáxere,PNR,0.34,2,080704
Odiáxere,POUS,0.34,2,080704
Odiáxere,PDA,0.17,1,080704
Odiáxere,PPV,0.17,1,080704
