freguesia,acronym,validVotesPercentage,votes,dicofre
Olho Marinho,PS,32.1,104,101203
Olho Marinho,PPD/PSD.CDS-PP,24.07,78,101203
Olho Marinho,PCP-PEV,21.3,69,101203
Olho Marinho,MPT,4.94,16,101203
Olho Marinho,B.E.,4.32,14,101203
Olho Marinho,L,3.7,12,101203
Olho Marinho,PCTP/MRPP,3.09,10,101203
Olho Marinho,PAN,2.16,7,101203
Olho Marinho,PND,1.85,6,101203
Olho Marinho,PPM,0.93,3,101203
Olho Marinho,PTP,0.62,2,101203
Olho Marinho,MAS,0.31,1,101203
Olho Marinho,PDA,0.31,1,101203
Olho Marinho,PNR,0.31,1,101203
Olho Marinho,POUS,0,0,101203
Olho Marinho,PPV,0,0,101203
