freguesia,acronym,validVotesPercentage,votes,dicofre
Oliveira,PPD/PSD.CDS-PP,54.37,56,160123
Oliveira,PS,25.24,26,160123
Oliveira,MPT,5.83,6,160123
Oliveira,PND,3.88,4,160123
Oliveira,PNR,2.91,3,160123
Oliveira,PCTP/MRPP,1.94,2,160123
Oliveira,B.E.,0.97,1,160123
Oliveira,L,0.97,1,160123
Oliveira,MAS,0.97,1,160123
Oliveira,PAN,0.97,1,160123
Oliveira,PCP-PEV,0.97,1,160123
Oliveira,PDA,0.97,1,160123
Oliveira,POUS,0,0,160123
Oliveira,PPM,0,0,160123
Oliveira,PPV,0,0,160123
Oliveira,PTP,0,0,160123
