freguesia,acronym,validVotesPercentage,votes,dicofre
Ossela,PPD/PSD.CDS-PP,48.21,296,011310
Ossela,PS,29.48,181,011310
Ossela,MPT,7.65,47,011310
Ossela,PCP-PEV,4.07,25,011310
Ossela,B.E.,2.12,13,011310
Ossela,PAN,1.79,11,011310
Ossela,PTP,1.63,10,011310
Ossela,L,1.47,9,011310
Ossela,PND,1.14,7,011310
Ossela,PCTP/MRPP,0.65,4,011310
Ossela,PPM,0.65,4,011310
Ossela,MAS,0.33,2,011310
Ossela,PNR,0.33,2,011310
Ossela,PDA,0.16,1,011310
Ossela,POUS,0.16,1,011310
Ossela,PPV,0.16,1,011310
