freguesia,acronym,validVotesPercentage,votes,dicofre
Paderne,PS,50.23,107,160311
Paderne,PPD/PSD.CDS-PP,32.39,69,160311
Paderne,MPT,7.04,15,160311
Paderne,B.E.,2.35,5,160311
Paderne,PCP-PEV,2.35,5,160311
Paderne,PND,1.41,3,160311
Paderne,MAS,0.94,2,160311
Paderne,PAN,0.94,2,160311
Paderne,PCTP/MRPP,0.94,2,160311
Paderne,L,0.47,1,160311
Paderne,PPM,0.47,1,160311
Paderne,PTP,0.47,1,160311
Paderne,PDA,0,0,160311
Paderne,PNR,0,0,160311
Paderne,POUS,0,0,160311
Paderne,PPV,0,0,160311
