freguesia,acronym,validVotesPercentage,votes,dicofre
Paderne,PS,35.99,253,080103
Paderne,PPD/PSD.CDS-PP,23.61,166,080103
Paderne,PCP-PEV,10.1,71,080103
Paderne,MPT,8.53,60,080103
Paderne,B.E.,7.11,50,080103
Paderne,PCTP/MRPP,3.7,26,080103
Paderne,PAN,2.56,18,080103
Paderne,L,1.85,13,080103
Paderne,PPM,1.42,10,080103
Paderne,PND,1.28,9,080103
Paderne,MAS,1,7,080103
Paderne,PNR,0.85,6,080103
Paderne,PTP,0.85,6,080103
Paderne,PPV,0.57,4,080103
Paderne,POUS,0.43,3,080103
Paderne,PDA,0.14,1,080103
