freguesia,acronym,validVotesPercentage,votes,dicofre
Pala,PPD/PSD.CDS-PP,52.34,123,180807
Pala,PS,23.4,55,180807
Pala,MPT,11.49,27,180807
Pala,PCP-PEV,3.83,9,180807
Pala,B.E.,2.55,6,180807
Pala,L,2.55,6,180807
Pala,PND,1.7,4,180807
Pala,PCTP/MRPP,0.85,2,180807
Pala,MAS,0.43,1,180807
Pala,POUS,0.43,1,180807
Pala,PTP,0.43,1,180807
Pala,PAN,0,0,180807
Pala,PDA,0,0,180807
Pala,PNR,0,0,180807
Pala,PPM,0,0,180807
Pala,PPV,0,0,180807
