freguesia,acronym,validVotesPercentage,votes,dicofre
Palhaça,PPD/PSD.CDS-PP,72.55,571,011405
Palhaça,PS,11.31,89,011405
Palhaça,MPT,5.84,46,011405
Palhaça,B.E.,1.91,15,011405
Palhaça,L,1.52,12,011405
Palhaça,PCP-PEV,1.4,11,011405
Palhaça,PAN,1.14,9,011405
Palhaça,PCTP/MRPP,1.14,9,011405
Palhaça,PTP,0.76,6,011405
Palhaça,MAS,0.51,4,011405
Palhaça,PND,0.51,4,011405
Palhaça,PPM,0.51,4,011405
Palhaça,PNR,0.38,3,011405
Palhaça,PDA,0.25,2,011405
Palhaça,POUS,0.13,1,011405
Palhaça,PPV,0.13,1,011405
