freguesia,acronym,validVotesPercentage,votes,dicofre
Palhais,PPD/PSD.CDS-PP,53.97,34,091313
Palhais,PS,30.16,19,091313
Palhais,MAS,3.17,2,091313
Palhais,MPT,3.17,2,091313
Palhais,PCTP/MRPP,3.17,2,091313
Palhais,L,1.59,1,091313
Palhais,PCP-PEV,1.59,1,091313
Palhais,PPM,1.59,1,091313
Palhais,PTP,1.59,1,091313
Palhais,B.E.,0,0,091313
Palhais,PAN,0,0,091313
Palhais,PDA,0,0,091313
Palhais,PND,0,0,091313
Palhais,PNR,0,0,091313
Palhais,POUS,0,0,091313
Palhais,PPV,0,0,091313
