freguesia,acronym,validVotesPercentage,votes,dicofre
Paramos,PS,40.31,472,010704
Paramos,PPD/PSD.CDS-PP,24.25,284,010704
Paramos,PCP-PEV,12.3,144,010704
Paramos,MPT,10.33,121,010704
Paramos,B.E.,5.47,64,010704
Paramos,PCTP/MRPP,2.13,25,010704
Paramos,L,1.54,18,010704
Paramos,PPM,0.85,10,010704
Paramos,PND,0.68,8,010704
Paramos,PAN,0.6,7,010704
Paramos,PTP,0.51,6,010704
Paramos,MAS,0.26,3,010704
Paramos,PPV,0.26,3,010704
Paramos,PDA,0.17,2,010704
Paramos,PNR,0.17,2,010704
Paramos,POUS,0.17,2,010704
