freguesia,acronym,validVotesPercentage,votes,dicofre
Paranhos,PPD/PSD.CDS-PP,53.85,189,091208
Paranhos,PS,28.21,99,091208
Paranhos,MPT,8.26,29,091208
Paranhos,PCP-PEV,2.28,8,091208
Paranhos,L,1.14,4,091208
Paranhos,PNR,1.14,4,091208
Paranhos,PAN,0.85,3,091208
Paranhos,PCTP/MRPP,0.85,3,091208
Paranhos,PND,0.85,3,091208
Paranhos,POUS,0.85,3,091208
Paranhos,B.E.,0.57,2,091208
Paranhos,PDA,0.28,1,091208
Paranhos,PPM,0.28,1,091208
Paranhos,PPV,0.28,1,091208
Paranhos,PTP,0.28,1,091208
Paranhos,MAS,0,0,091208
