freguesia,acronym,validVotesPercentage,votes,dicofre
Parâmio,PS,48.98,24,040229
Parâmio,PPD/PSD.CDS-PP,34.69,17,040229
Parâmio,MPT,6.12,3,040229
Parâmio,PCP-PEV,6.12,3,040229
Parâmio,PND,4.08,2,040229
Parâmio,B.E.,0,0,040229
Parâmio,L,0,0,040229
Parâmio,MAS,0,0,040229
Parâmio,PAN,0,0,040229
Parâmio,PCTP/MRPP,0,0,040229
Parâmio,PDA,0,0,040229
Parâmio,PNR,0,0,040229
Parâmio,POUS,0,0,040229
Parâmio,PPM,0,0,040229
Parâmio,PPV,0,0,040229
Parâmio,PTP,0,0,040229
