freguesia,acronym,validVotesPercentage,votes,dicofre
Passô,PPD/PSD.CDS-PP,37.98,49,180713
Passô,PS,34.88,45,180713
Passô,PCP-PEV,9.3,12,180713
Passô,PCTP/MRPP,5.43,7,180713
Passô,B.E.,4.65,6,180713
Passô,MAS,1.55,2,180713
Passô,PPM,1.55,2,180713
Passô,MPT,0.78,1,180713
Passô,PAN,0.78,1,180713
Passô,PND,0.78,1,180713
Passô,PNR,0.78,1,180713
Passô,POUS,0.78,1,180713
Passô,PPV,0.78,1,180713
Passô,L,0,0,180713
Passô,PDA,0,0,180713
Passô,PTP,0,0,180713
