freguesia,acronym,validVotesPercentage,votes,dicofre
Pedrógão Pequeno,PS,36.99,91,050911
Pedrógão Pequeno,PPD/PSD.CDS-PP,36.18,89,050911
Pedrógão Pequeno,MPT,8.54,21,050911
Pedrógão Pequeno,B.E.,4.07,10,050911
Pedrógão Pequeno,PCP-PEV,3.25,8,050911
Pedrógão Pequeno,PND,2.85,7,050911
Pedrógão Pequeno,PAN,2.44,6,050911
Pedrógão Pequeno,L,1.63,4,050911
Pedrógão Pequeno,PCTP/MRPP,1.22,3,050911
Pedrógão Pequeno,PDA,1.22,3,050911
Pedrógão Pequeno,MAS,0.41,1,050911
Pedrógão Pequeno,POUS,0.41,1,050911
Pedrógão Pequeno,PPM,0.41,1,050911
Pedrógão Pequeno,PTP,0.41,1,050911
Pedrógão Pequeno,PNR,0,0,050911
Pedrógão Pequeno,PPV,0,0,050911
