freguesia,acronym,validVotesPercentage,votes,dicofre
Pedrógão Grande,PPD/PSD.CDS-PP,46.15,288,101302
Pedrógão Grande,PS,26.12,163,101302
Pedrógão Grande,MPT,14.42,90,101302
Pedrógão Grande,B.E.,3.85,24,101302
Pedrógão Grande,PCP-PEV,3.04,19,101302
Pedrógão Grande,PAN,1.28,8,101302
Pedrógão Grande,PPM,1.12,7,101302
Pedrógão Grande,PND,0.96,6,101302
Pedrógão Grande,L,0.64,4,101302
Pedrógão Grande,PCTP/MRPP,0.64,4,101302
Pedrógão Grande,MAS,0.48,3,101302
Pedrógão Grande,PNR,0.48,3,101302
Pedrógão Grande,PTP,0.32,2,101302
Pedrógão Grande,PDA,0.16,1,101302
Pedrógão Grande,POUS,0.16,1,101302
Pedrógão Grande,PPV,0.16,1,101302
