freguesia,acronym,validVotesPercentage,votes,dicofre
Penhalonga e Paços de Gaiolo,PPD/PSD.CDS-PP,35.28,193,130738
Penhalonga e Paços de Gaiolo,PS,34.19,187,130738
Penhalonga e Paços de Gaiolo,MPT,12.07,66,130738
Penhalonga e Paços de Gaiolo,PCP-PEV,7.5,41,130738
Penhalonga e Paços de Gaiolo,PCTP/MRPP,2.56,14,130738
Penhalonga e Paços de Gaiolo,B.E.,2.01,11,130738
Penhalonga e Paços de Gaiolo,PND,1.28,7,130738
Penhalonga e Paços de Gaiolo,PTP,1.28,7,130738
Penhalonga e Paços de Gaiolo,PAN,0.91,5,130738
Penhalonga e Paços de Gaiolo,MAS,0.73,4,130738
Penhalonga e Paços de Gaiolo,PDA,0.55,3,130738
Penhalonga e Paços de Gaiolo,POUS,0.55,3,130738
Penhalonga e Paços de Gaiolo,L,0.37,2,130738
Penhalonga e Paços de Gaiolo,PNR,0.37,2,130738
Penhalonga e Paços de Gaiolo,PPM,0.37,2,130738
Penhalonga e Paços de Gaiolo,PPV,0,0,130738
