freguesia,acronym,validVotesPercentage,votes,dicofre
Pessegueiro,PPD/PSD.CDS-PP,47.69,31,061207
Pessegueiro,PS,40,26,061207
Pessegueiro,L,4.62,3,061207
Pessegueiro,MAS,1.54,1,061207
Pessegueiro,MPT,1.54,1,061207
Pessegueiro,PCP-PEV,1.54,1,061207
Pessegueiro,PND,1.54,1,061207
Pessegueiro,PTP,1.54,1,061207
Pessegueiro,B.E.,0,0,061207
Pessegueiro,PAN,0,0,061207
Pessegueiro,PCTP/MRPP,0,0,061207
Pessegueiro,PDA,0,0,061207
Pessegueiro,PNR,0,0,061207
Pessegueiro,POUS,0,0,061207
Pessegueiro,PPM,0,0,061207
Pessegueiro,PPV,0,0,061207
