freguesia,acronym,validVotesPercentage,votes,dicofre
Pinheiro de Ázere,PS,45,126,181403
Pinheiro de Ázere,PPD/PSD.CDS-PP,36.43,102,181403
Pinheiro de Ázere,MPT,7.5,21,181403
Pinheiro de Ázere,PCP-PEV,4.29,12,181403
Pinheiro de Ázere,B.E.,2.5,7,181403
Pinheiro de Ázere,PCTP/MRPP,1.07,3,181403
Pinheiro de Ázere,L,0.71,2,181403
Pinheiro de Ázere,PND,0.71,2,181403
Pinheiro de Ázere,PNR,0.71,2,181403
Pinheiro de Ázere,PAN,0.36,1,181403
Pinheiro de Ázere,PDA,0.36,1,181403
Pinheiro de Ázere,PPV,0.36,1,181403
Pinheiro de Ázere,MAS,0,0,181403
Pinheiro de Ázere,POUS,0,0,181403
Pinheiro de Ázere,PPM,0,0,181403
Pinheiro de Ázere,PTP,0,0,181403
