freguesia,acronym,validVotesPercentage,votes,dicofre
Polvoreira,PS,50.91,616,030837
Polvoreira,PPD/PSD.CDS-PP,19.83,240,030837
Polvoreira,PCP-PEV,9.26,112,030837
Polvoreira,MPT,7.93,96,030837
Polvoreira,B.E.,3.64,44,030837
Polvoreira,PCTP/MRPP,2.23,27,030837
Polvoreira,L,1.49,18,030837
Polvoreira,PTP,0.99,12,030837
Polvoreira,PNR,0.83,10,030837
Polvoreira,PND,0.74,9,030837
Polvoreira,PPV,0.58,7,030837
Polvoreira,POUS,0.5,6,030837
Polvoreira,PPM,0.5,6,030837
Polvoreira,MAS,0.33,4,030837
Polvoreira,PAN,0.25,3,030837
Polvoreira,PDA,0,0,030837
