freguesia,acronym,validVotesPercentage,votes,dicofre
Pombal,PPD/PSD.CDS-PP,47.71,52,040314
Pombal,PS,33.94,37,040314
Pombal,MPT,6.42,7,040314
Pombal,PAN,2.75,3,040314
Pombal,PCP-PEV,2.75,3,040314
Pombal,PCTP/MRPP,2.75,3,040314
Pombal,B.E.,0.92,1,040314
Pombal,L,0.92,1,040314
Pombal,PND,0.92,1,040314
Pombal,PTP,0.92,1,040314
Pombal,MAS,0,0,040314
Pombal,PDA,0,0,040314
Pombal,PNR,0,0,040314
Pombal,POUS,0,0,040314
Pombal,PPM,0,0,040314
Pombal,PPV,0,0,040314
