freguesia,acronym,validVotesPercentage,votes,dicofre
Pombeiro de Ribavizela,PS,37.23,245,130315
Pombeiro de Ribavizela,PPD/PSD.CDS-PP,30.7,202,130315
Pombeiro de Ribavizela,MPT,8.97,59,130315
Pombeiro de Ribavizela,PCP-PEV,8.36,55,130315
Pombeiro de Ribavizela,PCTP/MRPP,3.8,25,130315
Pombeiro de Ribavizela,B.E.,3.5,23,130315
Pombeiro de Ribavizela,L,2.58,17,130315
Pombeiro de Ribavizela,PND,1.06,7,130315
Pombeiro de Ribavizela,PTP,1.06,7,130315
Pombeiro de Ribavizela,MAS,0.76,5,130315
Pombeiro de Ribavizela,PAN,0.61,4,130315
Pombeiro de Ribavizela,PNR,0.61,4,130315
Pombeiro de Ribavizela,PPM,0.46,3,130315
Pombeiro de Ribavizela,PPV,0.3,2,130315
Pombeiro de Ribavizela,PDA,0,0,130315
Pombeiro de Ribavizela,POUS,0,0,130315
