freguesia,acronym,validVotesPercentage,votes,dicofre
Ponta do Sol,PPD/PSD.CDS-PP,45.6,585,310503
Ponta do Sol,PS,19.17,246,310503
Ponta do Sol,MPT,9.12,117,310503
Ponta do Sol,PTP,8.42,108,310503
Ponta do Sol,B.E.,3.27,42,310503
Ponta do Sol,L,2.57,33,310503
Ponta do Sol,PCP-PEV,2.34,30,310503
Ponta do Sol,PCTP/MRPP,2.18,28,310503
Ponta do Sol,PAN,2.03,26,310503
Ponta do Sol,PND,1.87,24,310503
Ponta do Sol,PPM,0.94,12,310503
Ponta do Sol,PNR,0.78,10,310503
Ponta do Sol,PDA,0.7,9,310503
Ponta do Sol,MAS,0.55,7,310503
Ponta do Sol,PPV,0.31,4,310503
Ponta do Sol,POUS,0.16,2,310503
