freguesia,acronym,validVotesPercentage,votes,dicofre
Pontével,PS,43.12,520,140604
Pontével,PCP-PEV,19.65,237,140604
Pontével,PPD/PSD.CDS-PP,13.1,158,140604
Pontével,MPT,6.3,76,140604
Pontével,B.E.,6.14,74,140604
Pontével,PCTP/MRPP,3.15,38,140604
Pontével,PAN,2.65,32,140604
Pontével,L,2.07,25,140604
Pontével,PPM,1.16,14,140604
Pontével,PNR,1.08,13,140604
Pontével,PND,0.58,7,140604
Pontével,MAS,0.5,6,140604
Pontével,PTP,0.33,4,140604
Pontével,PDA,0.08,1,140604
Pontével,PPV,0.08,1,140604
Pontével,POUS,0,0,140604
