freguesia,acronym,validVotesPercentage,votes,dicofre
Pousada de Saramagos,PS,41.78,348,031232
Pousada de Saramagos,PPD/PSD.CDS-PP,31.33,261,031232
Pousada de Saramagos,PCP-PEV,9.6,80,031232
Pousada de Saramagos,MPT,6.96,58,031232
Pousada de Saramagos,B.E.,3.12,26,031232
Pousada de Saramagos,PCTP/MRPP,2.28,19,031232
Pousada de Saramagos,PAN,1.92,16,031232
Pousada de Saramagos,L,0.84,7,031232
Pousada de Saramagos,PPM,0.6,5,031232
Pousada de Saramagos,PNR,0.36,3,031232
Pousada de Saramagos,PPV,0.36,3,031232
Pousada de Saramagos,PTP,0.36,3,031232
Pousada de Saramagos,MAS,0.12,1,031232
Pousada de Saramagos,PDA,0.12,1,031232
Pousada de Saramagos,PND,0.12,1,031232
Pousada de Saramagos,POUS,0.12,1,031232
