freguesia,acronym,validVotesPercentage,votes,dicofre
Prozelo,PS,42.04,103,160128
Prozelo,PPD/PSD.CDS-PP,39.18,96,160128
Prozelo,PCP-PEV,6.53,16,160128
Prozelo,MPT,5.71,14,160128
Prozelo,MAS,1.63,4,160128
Prozelo,PCTP/MRPP,1.22,3,160128
Prozelo,B.E.,0.82,2,160128
Prozelo,L,0.82,2,160128
Prozelo,PAN,0.41,1,160128
Prozelo,PNR,0.41,1,160128
Prozelo,POUS,0.41,1,160128
Prozelo,PPM,0.41,1,160128
Prozelo,PTP,0.41,1,160128
Prozelo,PDA,0,0,160128
Prozelo,PND,0,0,160128
Prozelo,PPV,0,0,160128
