freguesia,acronym,validVotesPercentage,votes,dicofre
Póvoa de Penela,PS,48.19,40,181208
Póvoa de Penela,PPD/PSD.CDS-PP,31.33,26,181208
Póvoa de Penela,MPT,4.82,4,181208
Póvoa de Penela,PCP-PEV,3.61,3,181208
Póvoa de Penela,B.E.,2.41,2,181208
Póvoa de Penela,L,2.41,2,181208
Póvoa de Penela,PAN,1.2,1,181208
Póvoa de Penela,PCTP/MRPP,1.2,1,181208
Póvoa de Penela,PND,1.2,1,181208
Póvoa de Penela,PNR,1.2,1,181208
Póvoa de Penela,POUS,1.2,1,181208
Póvoa de Penela,PTP,1.2,1,181208
Póvoa de Penela,MAS,0,0,181208
Póvoa de Penela,PDA,0,0,181208
Póvoa de Penela,PPM,0,0,181208
Póvoa de Penela,PPV,0,0,181208
