freguesia,acronym,validVotesPercentage,votes,dicofre
Queiriga,PPD/PSD.CDS-PP,60.29,126,182204
Queiriga,PS,29.67,62,182204
Queiriga,PCP-PEV,2.87,6,182204
Queiriga,MPT,1.91,4,182204
Queiriga,PAN,1.44,3,182204
Queiriga,PND,1.44,3,182204
Queiriga,L,0.96,2,182204
Queiriga,PTP,0.96,2,182204
Queiriga,PCTP/MRPP,0.48,1,182204
Queiriga,B.E.,0,0,182204
Queiriga,MAS,0,0,182204
Queiriga,PDA,0,0,182204
Queiriga,PNR,0,0,182204
Queiriga,POUS,0,0,182204
Queiriga,PPM,0,0,182204
Queiriga,PPV,0,0,182204
