freguesia,acronym,validVotesPercentage,votes,dicofre
Quiaios,PS,44.17,303,060524
Quiaios,PPD/PSD.CDS-PP,23.03,158,060524
Quiaios,PCP-PEV,9.33,64,060524
Quiaios,MPT,8.02,55,060524
Quiaios,B.E.,6.41,44,060524
Quiaios,PAN,2.77,19,060524
Quiaios,L,2.04,14,060524
Quiaios,PCTP/MRPP,1.9,13,060524
Quiaios,PND,0.58,4,060524
Quiaios,PNR,0.58,4,060524
Quiaios,PPM,0.44,3,060524
Quiaios,PTP,0.44,3,060524
Quiaios,PDA,0.15,1,060524
Quiaios,PPV,0.15,1,060524
Quiaios,MAS,0,0,060524
Quiaios,POUS,0,0,060524
