freguesia,acronym,validVotesPercentage,votes,dicofre
Quintela,PPD/PSD.CDS-PP,64,80,181814
Quintela,PS,22.4,28,181814
Quintela,MPT,6.4,8,181814
Quintela,PPV,1.6,2,181814
Quintela,PTP,1.6,2,181814
Quintela,L,0.8,1,181814
Quintela,PAN,0.8,1,181814
Quintela,PCP-PEV,0.8,1,181814
Quintela,PNR,0.8,1,181814
Quintela,PPM,0.8,1,181814
Quintela,B.E.,0,0,181814
Quintela,MAS,0,0,181814
Quintela,PCTP/MRPP,0,0,181814
Quintela,PDA,0,0,181814
Quintela,PND,0,0,181814
Quintela,POUS,0,0,181814
