freguesia,acronym,validVotesPercentage,votes,dicofre
Rabaçal,PPD/PSD.CDS-PP,68.12,47,090914
Rabaçal,PS,23.19,16,090914
Rabaçal,MPT,2.9,2,090914
Rabaçal,B.E.,1.45,1,090914
Rabaçal,PAN,1.45,1,090914
Rabaçal,PCP-PEV,1.45,1,090914
Rabaçal,PPM,1.45,1,090914
Rabaçal,L,0,0,090914
Rabaçal,MAS,0,0,090914
Rabaçal,PCTP/MRPP,0,0,090914
Rabaçal,PDA,0,0,090914
Rabaçal,PND,0,0,090914
Rabaçal,PNR,0,0,090914
Rabaçal,POUS,0,0,090914
Rabaçal,PPV,0,0,090914
Rabaçal,PTP,0,0,090914
