freguesia,acronym,validVotesPercentage,votes,dicofre
Rabo de Peixe,PPD/PSD.CDS-PP,41.51,303,420508
Rabo de Peixe,PS,27.81,203,420508
Rabo de Peixe,B.E.,17.26,126,420508
Rabo de Peixe,MPT,3.7,27,420508
Rabo de Peixe,PCP-PEV,2.33,17,420508
Rabo de Peixe,PDA,1.78,13,420508
Rabo de Peixe,PAN,1.1,8,420508
Rabo de Peixe,L,0.96,7,420508
Rabo de Peixe,PCTP/MRPP,0.96,7,420508
Rabo de Peixe,PPM,0.68,5,420508
Rabo de Peixe,PTP,0.68,5,420508
Rabo de Peixe,PND,0.55,4,420508
Rabo de Peixe,PNR,0.27,2,420508
Rabo de Peixe,MAS,0.14,1,420508
Rabo de Peixe,POUS,0.14,1,420508
Rabo de Peixe,PPV,0.14,1,420508
