freguesia,acronym,validVotesPercentage,votes,dicofre
Real,PPD/PSD.CDS-PP,38.2,34,181110
Real,PS,21.35,19,181110
Real,PCP-PEV,19.1,17,181110
Real,PCTP/MRPP,6.74,6,181110
Real,B.E.,4.49,4,181110
Real,MPT,3.37,3,181110
Real,PND,2.25,2,181110
Real,PTP,2.25,2,181110
Real,PAN,1.12,1,181110
Real,PDA,1.12,1,181110
Real,L,0,0,181110
Real,MAS,0,0,181110
Real,PNR,0,0,181110
Real,POUS,0,0,181110
Real,PPM,0,0,181110
Real,PPV,0,0,181110
