freguesia,acronym,validVotesPercentage,votes,dicofre
Reboleiro,PPD/PSD.CDS-PP,57.39,66,091315
Reboleiro,PS,28.7,33,091315
Reboleiro,MPT,6.09,7,091315
Reboleiro,PND,2.61,3,091315
Reboleiro,PAN,1.74,2,091315
Reboleiro,L,0.87,1,091315
Reboleiro,PCTP/MRPP,0.87,1,091315
Reboleiro,PNR,0.87,1,091315
Reboleiro,PTP,0.87,1,091315
Reboleiro,B.E.,0,0,091315
Reboleiro,MAS,0,0,091315
Reboleiro,PCP-PEV,0,0,091315
Reboleiro,PDA,0,0,091315
Reboleiro,POUS,0,0,091315
Reboleiro,PPM,0,0,091315
Reboleiro,PPV,0,0,091315
