freguesia,acronym,validVotesPercentage,votes,dicofre
Reguenga,PPD/PSD.CDS-PP,48.19,266,131418
Reguenga,PS,34.06,188,131418
Reguenga,MPT,5.07,28,131418
Reguenga,PCP-PEV,3.8,21,131418
Reguenga,B.E.,2.36,13,131418
Reguenga,L,1.81,10,131418
Reguenga,PAN,1.09,6,131418
Reguenga,PND,1.09,6,131418
Reguenga,PCTP/MRPP,0.72,4,131418
Reguenga,PTP,0.72,4,131418
Reguenga,PNR,0.54,3,131418
Reguenga,PPM,0.54,3,131418
Reguenga,MAS,0,0,131418
Reguenga,PDA,0,0,131418
Reguenga,POUS,0,0,131418
Reguenga,PPV,0,0,131418
