freguesia,acronym,validVotesPercentage,votes,dicofre
Regueira de Pontes,PPD/PSD.CDS-PP,45.66,258,100921
Regueira de Pontes,PS,25.13,142,100921
Regueira de Pontes,MPT,6.9,39,100921
Regueira de Pontes,PCP-PEV,5.66,32,100921
Regueira de Pontes,B.E.,4.78,27,100921
Regueira de Pontes,L,3.19,18,100921
Regueira de Pontes,PAN,3.01,17,100921
Regueira de Pontes,PND,1.42,8,100921
Regueira de Pontes,PCTP/MRPP,0.88,5,100921
Regueira de Pontes,PNR,0.88,5,100921
Regueira de Pontes,PPM,0.88,5,100921
Regueira de Pontes,PTP,0.53,3,100921
Regueira de Pontes,MAS,0.35,2,100921
Regueira de Pontes,PDA,0.35,2,100921
Regueira de Pontes,POUS,0.18,1,100921
Regueira de Pontes,PPV,0.18,1,100921
