freguesia,acronym,validVotesPercentage,votes,dicofre
União das freguesias de Repeses e São Salvador,PPD/PSD.CDS-PP,38.81,668,182339
União das freguesias de Repeses e São Salvador,PS,31.78,547,182339
União das freguesias de Repeses e São Salvador,MPT,8.48,146,182339
União das freguesias de Repeses e São Salvador,PCP-PEV,7.67,132,182339
União das freguesias de Repeses e São Salvador,B.E.,3.95,68,182339
União das freguesias de Repeses e São Salvador,L,2.73,47,182339
União das freguesias de Repeses e São Salvador,PAN,1.86,32,182339
União das freguesias de Repeses e São Salvador,PCTP/MRPP,1.51,26,182339
União das freguesias de Repeses e São Salvador,PTP,0.7,12,182339
União das freguesias de Repeses e São Salvador,PND,0.52,9,182339
União das freguesias de Repeses e São Salvador,PNR,0.52,9,182339
União das freguesias de Repeses e São Salvador,MAS,0.46,8,182339
União das freguesias de Repeses e São Salvador,PPV,0.41,7,182339
União das freguesias de Repeses e São Salvador,PPM,0.29,5,182339
União das freguesias de Repeses e São Salvador,PDA,0.23,4,182339
União das freguesias de Repeses e São Salvador,POUS,0.06,1,182339
