freguesia,acronym,validVotesPercentage,votes,dicofre
Resende,PS,52.8,452,181311
Resende,PPD/PSD.CDS-PP,28.27,242,181311
Resende,MPT,8.41,72,181311
Resende,PCP-PEV,3.97,34,181311
Resende,B.E.,1.87,16,181311
Resende,L,1.17,10,181311
Resende,PAN,0.93,8,181311
Resende,PCTP/MRPP,0.7,6,181311
Resende,PND,0.58,5,181311
Resende,PPM,0.47,4,181311
Resende,MAS,0.35,3,181311
Resende,PTP,0.23,2,181311
Resende,PNR,0.12,1,181311
Resende,POUS,0.12,1,181311
Resende,PDA,0,0,181311
Resende,PPV,0,0,181311
