freguesia,acronym,validVotesPercentage,votes,dicofre
Revinhade,PS,50.57,134,130319
Revinhade,PPD/PSD.CDS-PP,29.43,78,130319
Revinhade,MPT,5.66,15,130319
Revinhade,PCP-PEV,3.4,9,130319
Revinhade,B.E.,2.64,7,130319
Revinhade,PND,2.26,6,130319
Revinhade,PPM,2.26,6,130319
Revinhade,PCTP/MRPP,1.51,4,130319
Revinhade,PTP,0.75,2,130319
Revinhade,L,0.38,1,130319
Revinhade,MAS,0.38,1,130319
Revinhade,PAN,0.38,1,130319
Revinhade,PNR,0.38,1,130319
Revinhade,PDA,0,0,130319
Revinhade,POUS,0,0,130319
Revinhade,PPV,0,0,130319
