freguesia,acronym,validVotesPercentage,votes,dicofre
Ribeirinha,PS,50.64,316,430112
Ribeirinha,PPD/PSD.CDS-PP,41.83,261,430112
Ribeirinha,MPT,2.72,17,430112
Ribeirinha,B.E.,1.12,7,430112
Ribeirinha,PAN,0.64,4,430112
Ribeirinha,PCP-PEV,0.64,4,430112
Ribeirinha,PPM,0.64,4,430112
Ribeirinha,PCTP/MRPP,0.48,3,430112
Ribeirinha,PTP,0.48,3,430112
Ribeirinha,L,0.32,2,430112
Ribeirinha,MAS,0.16,1,430112
Ribeirinha,PNR,0.16,1,430112
Ribeirinha,PPV,0.16,1,430112
Ribeirinha,PDA,0,0,430112
Ribeirinha,PND,0,0,430112
Ribeirinha,POUS,0,0,430112
