freguesia,acronym,validVotesPercentage,votes,dicofre
Ribeira de Fráguas,PPD/PSD.CDS-PP,49.46,276,010206
Ribeira de Fráguas,PS,27.42,153,010206
Ribeira de Fráguas,MPT,7.35,41,010206
Ribeira de Fráguas,PCP-PEV,5.02,28,010206
Ribeira de Fráguas,B.E.,3.23,18,010206
Ribeira de Fráguas,PAN,1.25,7,010206
Ribeira de Fráguas,MAS,1.08,6,010206
Ribeira de Fráguas,PCTP/MRPP,1.08,6,010206
Ribeira de Fráguas,PND,1.08,6,010206
Ribeira de Fráguas,L,0.9,5,010206
Ribeira de Fráguas,PNR,0.9,5,010206
Ribeira de Fráguas,PPV,0.54,3,010206
Ribeira de Fráguas,PDA,0.36,2,010206
Ribeira de Fráguas,PPM,0.36,2,010206
Ribeira de Fráguas,POUS,0,0,010206
Ribeira de Fráguas,PTP,0,0,010206
