freguesia,acronym,validVotesPercentage,votes,dicofre
Rio Mau,PS,49.26,268,131138
Rio Mau,PCP-PEV,19.49,106,131138
Rio Mau,PPD/PSD.CDS-PP,13.6,74,131138
Rio Mau,MPT,5.7,31,131138
Rio Mau,B.E.,3.13,17,131138
Rio Mau,PCTP/MRPP,2.57,14,131138
Rio Mau,PAN,1.84,10,131138
Rio Mau,L,1.1,6,131138
Rio Mau,MAS,0.55,3,131138
Rio Mau,PPM,0.55,3,131138
Rio Mau,PPV,0.55,3,131138
Rio Mau,PND,0.37,2,131138
Rio Mau,PNR,0.37,2,131138
Rio Mau,POUS,0.37,2,131138
Rio Mau,PTP,0.37,2,131138
Rio Mau,PDA,0.18,1,131138
