freguesia,acronym,validVotesPercentage,votes,dicofre
Rio Torto,PPD/PSD.CDS-PP,63.7,86,171217
Rio Torto,PS,27.41,37,171217
Rio Torto,B.E.,1.48,2,171217
Rio Torto,MPT,1.48,2,171217
Rio Torto,PTP,1.48,2,171217
Rio Torto,PCP-PEV,0.74,1,171217
Rio Torto,PCTP/MRPP,0.74,1,171217
Rio Torto,PND,0.74,1,171217
Rio Torto,POUS,0.74,1,171217
Rio Torto,PPM,0.74,1,171217
Rio Torto,PPV,0.74,1,171217
Rio Torto,L,0,0,171217
Rio Torto,MAS,0,0,171217
Rio Torto,PAN,0,0,171217
Rio Torto,PDA,0,0,171217
Rio Torto,PNR,0,0,171217
