freguesia,acronym,validVotesPercentage,votes,dicofre
Sabariz,PPD/PSD.CDS-PP,65.64,128,031340
Sabariz,PS,11.79,23,031340
Sabariz,MPT,8.21,16,031340
Sabariz,PCP-PEV,4.62,9,031340
Sabariz,B.E.,2.05,4,031340
Sabariz,PAN,2.05,4,031340
Sabariz,L,1.54,3,031340
Sabariz,PCTP/MRPP,1.54,3,031340
Sabariz,PPV,1.03,2,031340
Sabariz,PND,0.51,1,031340
Sabariz,PNR,0.51,1,031340
Sabariz,PTP,0.51,1,031340
Sabariz,MAS,0,0,031340
Sabariz,PDA,0,0,031340
Sabariz,POUS,0,0,031340
Sabariz,PPM,0,0,031340
