freguesia,acronym,validVotesPercentage,votes,dicofre
Samouco,PCP-PEV,39.04,381,150202
Samouco,PS,28.59,279,150202
Samouco,PPD/PSD.CDS-PP,10.45,102,150202
Samouco,MPT,6.56,64,150202
Samouco,B.E.,4.71,46,150202
Samouco,L,3.18,31,150202
Samouco,PCTP/MRPP,2.97,29,150202
Samouco,PAN,2.36,23,150202
Samouco,MAS,0.51,5,150202
Samouco,PND,0.51,5,150202
Samouco,PPM,0.51,5,150202
Samouco,POUS,0.2,2,150202
Samouco,PTP,0.2,2,150202
Samouco,PNR,0.1,1,150202
Samouco,PPV,0.1,1,150202
Samouco,PDA,0,0,150202
