freguesia,acronym,validVotesPercentage,votes,dicofre
Santa Leocádia,PPD/PSD.CDS-PP,62.67,47,170329
Santa Leocádia,PS,29.33,22,170329
Santa Leocádia,MPT,2.67,2,170329
Santa Leocádia,PCP-PEV,2.67,2,170329
Santa Leocádia,B.E.,1.33,1,170329
Santa Leocádia,PAN,1.33,1,170329
Santa Leocádia,L,0,0,170329
Santa Leocádia,MAS,0,0,170329
Santa Leocádia,PCTP/MRPP,0,0,170329
Santa Leocádia,PDA,0,0,170329
Santa Leocádia,PND,0,0,170329
Santa Leocádia,PNR,0,0,170329
Santa Leocádia,POUS,0,0,170329
Santa Leocádia,PPM,0,0,170329
Santa Leocádia,PPV,0,0,170329
Santa Leocádia,PTP,0,0,170329
