freguesia,acronym,validVotesPercentage,votes,dicofre
Santo António das Areias,PS,53.7,174,121003
Santo António das Areias,PPD/PSD.CDS-PP,25.62,83,121003
Santo António das Areias,PCP-PEV,6.79,22,121003
Santo António das Areias,B.E.,4.01,13,121003
Santo António das Areias,PCTP/MRPP,3.7,12,121003
Santo António das Areias,MPT,2.78,9,121003
Santo António das Areias,L,1.23,4,121003
Santo António das Areias,PDA,0.62,2,121003
Santo António das Areias,MAS,0.31,1,121003
Santo António das Areias,PAN,0.31,1,121003
Santo António das Areias,POUS,0.31,1,121003
Santo António das Areias,PPV,0.31,1,121003
Santo António das Areias,PTP,0.31,1,121003
Santo António das Areias,PND,0,0,121003
Santo António das Areias,PNR,0,0,121003
Santo António das Areias,PPM,0,0,121003
