freguesia,acronym,validVotesPercentage,votes,dicofre
Santo António,PPD/PSD.CDS-PP,26.96,2191,310305
Santo António,PS,26.06,2118,310305
Santo António,MPT,10.07,818,310305
Santo António,PCP-PEV,8.07,656,310305
Santo António,PTP,7.9,642,310305
Santo António,B.E.,4.61,375,310305
Santo António,PAN,4.45,362,310305
Santo António,PND,2.82,229,310305
Santo António,PCTP/MRPP,2.42,197,310305
Santo António,L,2.34,190,310305
Santo António,PPM,1.43,116,310305
Santo António,PNR,0.78,63,310305
Santo António,PPV,0.65,53,310305
Santo António,MAS,0.59,48,310305
Santo António,PDA,0.58,47,310305
Santo António,POUS,0.27,22,310305
