freguesia,acronym,validVotesPercentage,votes,dicofre
Santa Clara,PS,35.99,2088,110664
Santa Clara,PPD/PSD.CDS-PP,21.03,1220,110664
Santa Clara,PCP-PEV,17.27,1002,110664
Santa Clara,B.E.,6.33,367,110664
Santa Clara,MPT,6.22,361,110664
Santa Clara,L,3.88,225,110664
Santa Clara,PCTP/MRPP,2.43,141,110664
Santa Clara,PAN,2.41,140,110664
Santa Clara,PPM,0.98,57,110664
Santa Clara,PNR,0.91,53,110664
Santa Clara,PND,0.55,32,110664
Santa Clara,PPV,0.55,32,110664
Santa Clara,MAS,0.53,31,110664
Santa Clara,PTP,0.48,28,110664
Santa Clara,POUS,0.24,14,110664
Santa Clara,PDA,0.19,11,110664
