freguesia,acronym,validVotesPercentage,votes,dicofre
Santiago Maior,PS,43,43,120503
Santiago Maior,PPD/PSD.CDS-PP,32,32,120503
Santiago Maior,B.E.,6,6,120503
Santiago Maior,MPT,5,5,120503
Santiago Maior,PCTP/MRPP,5,5,120503
Santiago Maior,L,4,4,120503
Santiago Maior,PCP-PEV,2,2,120503
Santiago Maior,MAS,1,1,120503
Santiago Maior,PAN,1,1,120503
Santiago Maior,PND,1,1,120503
Santiago Maior,PDA,0,0,120503
Santiago Maior,PNR,0,0,120503
Santiago Maior,POUS,0,0,120503
Santiago Maior,PPM,0,0,120503
Santiago Maior,PPV,0,0,120503
Santiago Maior,PTP,0,0,120503
