freguesia,acronym,validVotesPercentage,votes,dicofre
Santa Luzia,PS,41.74,134,081408
Santa Luzia,PCP-PEV,18.69,60,081408
Santa Luzia,PPD/PSD.CDS-PP,15.89,51,081408
Santa Luzia,MPT,8.1,26,081408
Santa Luzia,B.E.,6.85,22,081408
Santa Luzia,PCTP/MRPP,2.49,8,081408
Santa Luzia,PAN,1.87,6,081408
Santa Luzia,L,1.56,5,081408
Santa Luzia,PNR,1.25,4,081408
Santa Luzia,PND,0.62,2,081408
Santa Luzia,PPV,0.62,2,081408
Santa Luzia,MAS,0.31,1,081408
Santa Luzia,PDA,0,0,081408
Santa Luzia,POUS,0,0,081408
Santa Luzia,PPM,0,0,081408
Santa Luzia,PTP,0,0,081408
