freguesia,acronym,validVotesPercentage,votes,dicofre
Sapataria,PS,33.52,244,111202
Sapataria,PCP-PEV,25.14,183,111202
Sapataria,PPD/PSD.CDS-PP,16.21,118,111202
Sapataria,MPT,6.46,47,111202
Sapataria,B.E.,5.77,42,111202
Sapataria,PCTP/MRPP,3.71,27,111202
Sapataria,L,2.34,17,111202
Sapataria,PAN,2.06,15,111202
Sapataria,PTP,1.37,10,111202
Sapataria,PNR,0.96,7,111202
Sapataria,PND,0.82,6,111202
Sapataria,PPV,0.55,4,111202
Sapataria,MAS,0.41,3,111202
Sapataria,PPM,0.41,3,111202
Sapataria,PDA,0.14,1,111202
Sapataria,POUS,0.14,1,111202
