freguesia,acronym,validVotesPercentage,votes,dicofre
Sardoal,PS,35.61,333,141703
Sardoal,PPD/PSD.CDS-PP,24.71,231,141703
Sardoal,PCP-PEV,10.27,96,141703
Sardoal,MPT,9.84,92,141703
Sardoal,B.E.,7.27,68,141703
Sardoal,L,3.42,32,141703
Sardoal,PAN,2.99,28,141703
Sardoal,PCTP/MRPP,1.6,15,141703
Sardoal,PND,1.28,12,141703
Sardoal,PPV,0.75,7,141703
Sardoal,MAS,0.64,6,141703
Sardoal,PPM,0.53,5,141703
Sardoal,POUS,0.32,3,141703
Sardoal,PTP,0.32,3,141703
Sardoal,PDA,0.21,2,141703
Sardoal,PNR,0.21,2,141703
