freguesia,acronym,validVotesPercentage,votes,dicofre
Sarzedas,PS,47.61,259,050223
Sarzedas,PPD/PSD.CDS-PP,38.97,212,050223
Sarzedas,PCP-PEV,2.94,16,050223
Sarzedas,PCTP/MRPP,1.65,9,050223
Sarzedas,PND,1.65,9,050223
Sarzedas,B.E.,1.47,8,050223
Sarzedas,L,1.47,8,050223
Sarzedas,MPT,1.47,8,050223
Sarzedas,PAN,1.29,7,050223
Sarzedas,PNR,0.55,3,050223
Sarzedas,MAS,0.18,1,050223
Sarzedas,PDA,0.18,1,050223
Sarzedas,POUS,0.18,1,050223
Sarzedas,PPM,0.18,1,050223
Sarzedas,PTP,0.18,1,050223
Sarzedas,PPV,0,0,050223
