freguesia,acronym,validVotesPercentage,votes,dicofre
Seixo de Manhoses,PPD/PSD.CDS-PP,43.05,65,041013
Seixo de Manhoses,PS,30.46,46,041013
Seixo de Manhoses,PCP-PEV,11.26,17,041013
Seixo de Manhoses,MPT,5.96,9,041013
Seixo de Manhoses,B.E.,3.97,6,041013
Seixo de Manhoses,MAS,1.32,2,041013
Seixo de Manhoses,PNR,1.32,2,041013
Seixo de Manhoses,PAN,0.66,1,041013
Seixo de Manhoses,PCTP/MRPP,0.66,1,041013
Seixo de Manhoses,PPM,0.66,1,041013
Seixo de Manhoses,PTP,0.66,1,041013
Seixo de Manhoses,L,0,0,041013
Seixo de Manhoses,PDA,0,0,041013
Seixo de Manhoses,PND,0,0,041013
Seixo de Manhoses,POUS,0,0,041013
Seixo de Manhoses,PPV,0,0,041013
