freguesia,acronym,validVotesPercentage,votes,dicofre
Seixo de Ansiães,PPD/PSD.CDS-PP,44.72,55,040316
Seixo de Ansiães,PS,32.52,40,040316
Seixo de Ansiães,PCP-PEV,6.5,8,040316
Seixo de Ansiães,PCTP/MRPP,3.25,4,040316
Seixo de Ansiães,B.E.,2.44,3,040316
Seixo de Ansiães,L,2.44,3,040316
Seixo de Ansiães,PPM,1.63,2,040316
Seixo de Ansiães,PTP,1.63,2,040316
Seixo de Ansiães,MAS,0.81,1,040316
Seixo de Ansiães,MPT,0.81,1,040316
Seixo de Ansiães,PAN,0.81,1,040316
Seixo de Ansiães,PND,0.81,1,040316
Seixo de Ansiães,PNR,0.81,1,040316
Seixo de Ansiães,PPV,0.81,1,040316
Seixo de Ansiães,PDA,0,0,040316
Seixo de Ansiães,POUS,0,0,040316
