freguesia,acronym,validVotesPercentage,votes,dicofre
Sequeira,PPD/PSD.CDS-PP,37.28,252,030354
Sequeira,PS,32.69,221,030354
Sequeira,PCP-PEV,9.47,64,030354
Sequeira,MPT,7.25,49,030354
Sequeira,B.E.,4.29,29,030354
Sequeira,L,2.07,14,030354
Sequeira,PCTP/MRPP,1.78,12,030354
Sequeira,PAN,1.48,10,030354
Sequeira,PTP,0.89,6,030354
Sequeira,PND,0.74,5,030354
Sequeira,PPM,0.74,5,030354
Sequeira,MAS,0.59,4,030354
Sequeira,PDA,0.3,2,030354
Sequeira,PNR,0.3,2,030354
Sequeira,POUS,0.15,1,030354
Sequeira,PPV,0,0,030354
