freguesia,acronym,validVotesPercentage,votes,dicofre
Silves,PCP-PEV,30.82,822,081307
Silves,PS,29.43,785,081307
Silves,PPD/PSD.CDS-PP,14.92,398,081307
Silves,MPT,7.84,209,081307
Silves,B.E.,6.82,182,081307
Silves,PCTP/MRPP,3.34,89,081307
Silves,PAN,1.8,48,081307
Silves,L,1.39,37,081307
Silves,PPM,0.71,19,081307
Silves,PND,0.67,18,081307
Silves,PTP,0.6,16,081307
Silves,PNR,0.52,14,081307
Silves,PPV,0.49,13,081307
Silves,MAS,0.37,10,081307
Silves,POUS,0.19,5,081307
Silves,PDA,0.07,2,081307
