freguesia,acronym,validVotesPercentage,votes,dicofre
Sines,PS,33.69,1120,151301
Sines,PCP-PEV,30.2,1004,151301
Sines,PPD/PSD.CDS-PP,12.24,407,151301
Sines,MPT,7.46,248,151301
Sines,B.E.,6.92,230,151301
Sines,PCTP/MRPP,2.53,84,151301
Sines,L,2.44,81,151301
Sines,PAN,1.81,60,151301
Sines,PND,0.57,19,151301
Sines,PNR,0.45,15,151301
Sines,PPM,0.45,15,151301
Sines,PTP,0.45,15,151301
Sines,PPV,0.27,9,151301
Sines,MAS,0.24,8,151301
Sines,POUS,0.18,6,151301
Sines,PDA,0.09,3,151301
