freguesia,acronym,validVotesPercentage,votes,dicofre
Soalheira,PPD/PSD.CDS-PP,41.35,98,050425
Soalheira,PS,37.55,89,050425
Soalheira,PCP-PEV,5.91,14,050425
Soalheira,MPT,3.8,9,050425
Soalheira,B.E.,2.53,6,050425
Soalheira,PND,2.11,5,050425
Soalheira,L,1.69,4,050425
Soalheira,PTP,1.69,4,050425
Soalheira,PCTP/MRPP,1.27,3,050425
Soalheira,PDA,0.84,2,050425
Soalheira,MAS,0.42,1,050425
Soalheira,POUS,0.42,1,050425
Soalheira,PPM,0.42,1,050425
Soalheira,PAN,0,0,050425
Soalheira,PNR,0,0,050425
Soalheira,PPV,0,0,050425
