freguesia,acronym,validVotesPercentage,votes,dicofre
Sobradelo da Goma,PPD/PSD.CDS-PP,53.69,131,030925
Sobradelo da Goma,PS,34.43,84,030925
Sobradelo da Goma,MPT,4.1,10,030925
Sobradelo da Goma,PCP-PEV,2.87,7,030925
Sobradelo da Goma,B.E.,0.82,2,030925
Sobradelo da Goma,PCTP/MRPP,0.82,2,030925
Sobradelo da Goma,PNR,0.82,2,030925
Sobradelo da Goma,L,0.41,1,030925
Sobradelo da Goma,MAS,0.41,1,030925
Sobradelo da Goma,PAN,0.41,1,030925
Sobradelo da Goma,PND,0.41,1,030925
Sobradelo da Goma,POUS,0.41,1,030925
Sobradelo da Goma,PTP,0.41,1,030925
Sobradelo da Goma,PDA,0,0,030925
Sobradelo da Goma,PPM,0,0,030925
Sobradelo da Goma,PPV,0,0,030925
