freguesia,acronym,validVotesPercentage,votes,dicofre
Sosa,PPD/PSD.CDS-PP,60.96,395,011807
Sosa,PS,20.06,130,011807
Sosa,MPT,6.17,40,011807
Sosa,PCP-PEV,4.17,27,011807
Sosa,B.E.,3.55,23,011807
Sosa,PCTP/MRPP,1.23,8,011807
Sosa,L,0.77,5,011807
Sosa,PAN,0.77,5,011807
Sosa,PTP,0.62,4,011807
Sosa,PNR,0.46,3,011807
Sosa,PND,0.31,2,011807
Sosa,PPM,0.31,2,011807
Sosa,MAS,0.15,1,011807
Sosa,PDA,0.15,1,011807
Sosa,POUS,0.15,1,011807
Sosa,PPV,0.15,1,011807
