freguesia,acronym,validVotesPercentage,votes,dicofre
Sousel,PPD/PSD.CDS-PP,29.28,171,121504
Sousel,PS,26.37,154,121504
Sousel,PCP-PEV,25.68,150,121504
Sousel,MPT,6.85,40,121504
Sousel,PCTP/MRPP,3.42,20,121504
Sousel,B.E.,2.4,14,121504
Sousel,L,1.2,7,121504
Sousel,PPV,1.03,6,121504
Sousel,PNR,0.86,5,121504
Sousel,PTP,0.86,5,121504
Sousel,PDA,0.51,3,121504
Sousel,PND,0.51,3,121504
Sousel,PAN,0.34,2,121504
Sousel,PPM,0.34,2,121504
Sousel,MAS,0.17,1,121504
Sousel,POUS,0.17,1,121504
