freguesia,acronym,validVotesPercentage,votes,dicofre
Soutelo de Aguiar,PS,51.42,109,171310
Soutelo de Aguiar,PPD/PSD.CDS-PP,32.55,69,171310
Soutelo de Aguiar,PCP-PEV,5.19,11,171310
Soutelo de Aguiar,MPT,2.36,5,171310
Soutelo de Aguiar,PCTP/MRPP,1.89,4,171310
Soutelo de Aguiar,B.E.,0.94,2,171310
Soutelo de Aguiar,PND,0.94,2,171310
Soutelo de Aguiar,PPM,0.94,2,171310
Soutelo de Aguiar,PTP,0.94,2,171310
Soutelo de Aguiar,L,0.47,1,171310
Soutelo de Aguiar,MAS,0.47,1,171310
Soutelo de Aguiar,PAN,0.47,1,171310
Soutelo de Aguiar,PDA,0.47,1,171310
Soutelo de Aguiar,POUS,0.47,1,171310
Soutelo de Aguiar,PPV,0.47,1,171310
Soutelo de Aguiar,PNR,0,0,171310
