freguesia,acronym,validVotesPercentage,votes,dicofre
Souto,PPD/PSD.CDS-PP,65.08,82,181209
Souto,PS,14.29,18,181209
Souto,B.E.,3.97,5,181209
Souto,MPT,3.17,4,181209
Souto,PCP-PEV,2.38,3,181209
Souto,PND,2.38,3,181209
Souto,PNR,2.38,3,181209
Souto,PAN,1.59,2,181209
Souto,L,0.79,1,181209
Souto,PCTP/MRPP,0.79,1,181209
Souto,PDA,0.79,1,181209
Souto,PPM,0.79,1,181209
Souto,PPV,0.79,1,181209
Souto,PTP,0.79,1,181209
Souto,MAS,0,0,181209
Souto,POUS,0,0,181209
