freguesia,acronym,validVotesPercentage,votes,dicofre
São João de Fontoura,PS,50.85,90,181313
São João de Fontoura,PPD/PSD.CDS-PP,30.51,54,181313
São João de Fontoura,PCP-PEV,5.08,9,181313
São João de Fontoura,PND,3.95,7,181313
São João de Fontoura,B.E.,2.82,5,181313
São João de Fontoura,PCTP/MRPP,1.69,3,181313
São João de Fontoura,MPT,1.13,2,181313
São João de Fontoura,PPM,1.13,2,181313
São João de Fontoura,L,0.56,1,181313
São João de Fontoura,MAS,0.56,1,181313
São João de Fontoura,PDA,0.56,1,181313
São João de Fontoura,PNR,0.56,1,181313
São João de Fontoura,PTP,0.56,1,181313
São João de Fontoura,PAN,0,0,181313
São João de Fontoura,POUS,0,0,181313
São João de Fontoura,PPV,0,0,181313
