freguesia,acronym,validVotesPercentage,votes,dicofre
São Francisco da Serra,PCP-PEV,34.51,88,150910
São Francisco da Serra,PS,27.45,70,150910
São Francisco da Serra,PPD/PSD.CDS-PP,24.71,63,150910
São Francisco da Serra,MPT,5.49,14,150910
São Francisco da Serra,PCTP/MRPP,2.75,7,150910
São Francisco da Serra,B.E.,2.35,6,150910
São Francisco da Serra,L,1.18,3,150910
São Francisco da Serra,PND,0.78,2,150910
São Francisco da Serra,PNR,0.39,1,150910
São Francisco da Serra,POUS,0.39,1,150910
São Francisco da Serra,MAS,0,0,150910
São Francisco da Serra,PAN,0,0,150910
São Francisco da Serra,PDA,0,0,150910
São Francisco da Serra,PPM,0,0,150910
São Francisco da Serra,PPV,0,0,150910
São Francisco da Serra,PTP,0,0,150910
