freguesia,acronym,validVotesPercentage,votes,dicofre
São Torcato,PS,43.98,486,030865
São Torcato,PPD/PSD.CDS-PP,29.05,321,030865
São Torcato,PCP-PEV,9.41,104,030865
São Torcato,MPT,6.24,69,030865
São Torcato,B.E.,2.99,33,030865
São Torcato,PAN,1.54,17,030865
São Torcato,PCTP/MRPP,1.54,17,030865
São Torcato,PND,1.18,13,030865
São Torcato,L,1.09,12,030865
São Torcato,PPV,0.9,10,030865
São Torcato,PPM,0.72,8,030865
São Torcato,PTP,0.54,6,030865
São Torcato,PNR,0.36,4,030865
São Torcato,MAS,0.27,3,030865
São Torcato,PDA,0.18,2,030865
São Torcato,POUS,0,0,030865
