freguesia,acronym,validVotesPercentage,votes,dicofre
São Vicente,PPD/PSD.CDS-PP,63.16,84,170334
São Vicente,PS,27.82,37,170334
São Vicente,B.E.,1.5,2,170334
São Vicente,MPT,1.5,2,170334
São Vicente,PCP-PEV,1.5,2,170334
São Vicente,L,0.75,1,170334
São Vicente,MAS,0.75,1,170334
São Vicente,PCTP/MRPP,0.75,1,170334
São Vicente,PND,0.75,1,170334
São Vicente,PPM,0.75,1,170334
São Vicente,PTP,0.75,1,170334
São Vicente,PAN,0,0,170334
São Vicente,PDA,0,0,170334
São Vicente,PNR,0,0,170334
São Vicente,POUS,0,0,170334
São Vicente,PPV,0,0,170334
