freguesia,acronym,validVotesPercentage,votes,dicofre
São João de Tarouca,PPD/PSD.CDS-PP,49.43,86,182006
São João de Tarouca,PS,32.18,56,182006
São João de Tarouca,PCP-PEV,5.17,9,182006
São João de Tarouca,MPT,4.6,8,182006
São João de Tarouca,PND,2.87,5,182006
São João de Tarouca,B.E.,2.3,4,182006
São João de Tarouca,PAN,1.72,3,182006
São João de Tarouca,L,0.57,1,182006
São João de Tarouca,MAS,0.57,1,182006
São João de Tarouca,PNR,0.57,1,182006
São João de Tarouca,PCTP/MRPP,0,0,182006
São João de Tarouca,PDA,0,0,182006
São João de Tarouca,POUS,0,0,182006
São João de Tarouca,PPM,0,0,182006
São João de Tarouca,PPV,0,0,182006
São João de Tarouca,PTP,0,0,182006
