freguesia,acronym,validVotesPercentage,votes,dicofre
São Bartolomeu de Messines,PS,32.19,640,081305
São Bartolomeu de Messines,PCP-PEV,26.51,527,081305
São Bartolomeu de Messines,PPD/PSD.CDS-PP,17.05,339,081305
São Bartolomeu de Messines,MPT,6.24,124,081305
São Bartolomeu de Messines,PCTP/MRPP,5.43,108,081305
São Bartolomeu de Messines,B.E.,5.13,102,081305
São Bartolomeu de Messines,PAN,1.86,37,081305
São Bartolomeu de Messines,L,1.51,30,081305
São Bartolomeu de Messines,PND,0.86,17,081305
São Bartolomeu de Messines,MAS,0.75,15,081305
São Bartolomeu de Messines,PPM,0.75,15,081305
São Bartolomeu de Messines,PNR,0.7,14,081305
São Bartolomeu de Messines,PTP,0.45,9,081305
São Bartolomeu de Messines,PPV,0.4,8,081305
São Bartolomeu de Messines,POUS,0.1,2,081305
São Bartolomeu de Messines,PDA,0.05,1,081305
