freguesia,acronym,validVotesPercentage,votes,dicofre
União das freguesias de São Cipriano e Vil de Souto,PPD/PSD.CDS-PP,53.63,355,182340
União das freguesias de São Cipriano e Vil de Souto,PS,22.66,150,182340
União das freguesias de São Cipriano e Vil de Souto,PCP-PEV,5.14,34,182340
União das freguesias de São Cipriano e Vil de Souto,MPT,4.68,31,182340
União das freguesias de São Cipriano e Vil de Souto,B.E.,4.53,30,182340
União das freguesias de São Cipriano e Vil de Souto,PCTP/MRPP,2.27,15,182340
União das freguesias de São Cipriano e Vil de Souto,PND,1.81,12,182340
União das freguesias de São Cipriano e Vil de Souto,PAN,1.66,11,182340
União das freguesias de São Cipriano e Vil de Souto,L,1.21,8,182340
União das freguesias de São Cipriano e Vil de Souto,PPM,1.21,8,182340
União das freguesias de São Cipriano e Vil de Souto,PNR,0.45,3,182340
União das freguesias de São Cipriano e Vil de Souto,PPV,0.3,2,182340
União das freguesias de São Cipriano e Vil de Souto,MAS,0.15,1,182340
União das freguesias de São Cipriano e Vil de Souto,PDA,0.15,1,182340
União das freguesias de São Cipriano e Vil de Souto,PTP,0.15,1,182340
União das freguesias de São Cipriano e Vil de Souto,POUS,0,0,182340
