freguesia,acronym,validVotesPercentage,votes,dicofre
São Roque,PS,38.9,622,011318
São Roque,PPD/PSD.CDS-PP,34.15,546,011318
São Roque,MPT,11.38,182,011318
São Roque,B.E.,3.88,62,011318
São Roque,PCP-PEV,3.63,58,011318
São Roque,L,1.44,23,011318
São Roque,PAN,1.38,22,011318
São Roque,PCTP/MRPP,1.38,22,011318
São Roque,PND,1,16,011318
São Roque,PTP,0.81,13,011318
São Roque,PPM,0.69,11,011318
São Roque,PNR,0.44,7,011318
São Roque,MAS,0.31,5,011318
São Roque,PDA,0.31,5,011318
São Roque,PPV,0.25,4,011318
São Roque,POUS,0.06,1,011318
