freguesia,acronym,validVotesPercentage,votes,dicofre
São Pedro de Tomar,PS,36.05,283,141813
São Pedro de Tomar,PPD/PSD.CDS-PP,30.19,237,141813
São Pedro de Tomar,PCP-PEV,9.04,71,141813
São Pedro de Tomar,MPT,7.39,58,141813
São Pedro de Tomar,B.E.,5.86,46,141813
São Pedro de Tomar,PAN,2.42,19,141813
São Pedro de Tomar,PCTP/MRPP,1.91,15,141813
São Pedro de Tomar,L,1.78,14,141813
São Pedro de Tomar,PND,1.4,11,141813
São Pedro de Tomar,PTP,1.02,8,141813
São Pedro de Tomar,PPM,0.89,7,141813
São Pedro de Tomar,MAS,0.76,6,141813
São Pedro de Tomar,PPV,0.64,5,141813
São Pedro de Tomar,PNR,0.38,3,141813
São Pedro de Tomar,POUS,0.25,2,141813
São Pedro de Tomar,PDA,0,0,141813
