freguesia,acronym,validVotesPercentage,votes,dicofre
São Jorge da Beira,PS,54.09,119,050318
São Jorge da Beira,PPD/PSD.CDS-PP,25,55,050318
São Jorge da Beira,PCP-PEV,8.64,19,050318
São Jorge da Beira,MPT,5.91,13,050318
São Jorge da Beira,B.E.,2.73,6,050318
São Jorge da Beira,PAN,1.36,3,050318
São Jorge da Beira,PCTP/MRPP,0.91,2,050318
São Jorge da Beira,L,0.45,1,050318
São Jorge da Beira,MAS,0.45,1,050318
São Jorge da Beira,PND,0.45,1,050318
São Jorge da Beira,PDA,0,0,050318
São Jorge da Beira,PNR,0,0,050318
São Jorge da Beira,POUS,0,0,050318
São Jorge da Beira,PPM,0,0,050318
São Jorge da Beira,PPV,0,0,050318
São Jorge da Beira,PTP,0,0,050318
