freguesia,acronym,validVotesPercentage,votes,dicofre
São Gens,PS,49.52,258,030728
São Gens,PPD/PSD.CDS-PP,27.26,142,030728
São Gens,MPT,9.98,52,030728
São Gens,B.E.,3.26,17,030728
São Gens,PCP-PEV,2.5,13,030728
São Gens,PND,1.34,7,030728
São Gens,L,1.15,6,030728
São Gens,PAN,0.96,5,030728
São Gens,PCTP/MRPP,0.96,5,030728
São Gens,PPM,0.96,5,030728
São Gens,PNR,0.77,4,030728
São Gens,PTP,0.77,4,030728
São Gens,MAS,0.38,2,030728
São Gens,POUS,0.19,1,030728
São Gens,PDA,0,0,030728
São Gens,PPV,0,0,030728
