freguesia,acronym,validVotesPercentage,votes,dicofre
São Paio de Oleiros,PS,37.87,556,010918
São Paio de Oleiros,PPD/PSD.CDS-PP,24.59,361,010918
São Paio de Oleiros,PCP-PEV,15.33,225,010918
São Paio de Oleiros,MPT,9.47,139,010918
São Paio de Oleiros,B.E.,4.43,65,010918
São Paio de Oleiros,PCTP/MRPP,3.07,45,010918
São Paio de Oleiros,L,1.5,22,010918
São Paio de Oleiros,PPM,0.82,12,010918
São Paio de Oleiros,PTP,0.75,11,010918
São Paio de Oleiros,PAN,0.61,9,010918
São Paio de Oleiros,MAS,0.54,8,010918
São Paio de Oleiros,POUS,0.27,4,010918
São Paio de Oleiros,PPV,0.27,4,010918
São Paio de Oleiros,PND,0.2,3,010918
São Paio de Oleiros,PDA,0.14,2,010918
São Paio de Oleiros,PNR,0.14,2,010918
