freguesia,acronym,validVotesPercentage,votes,dicofre
São Pedro de Castelões,PPD/PSD.CDS-PP,43.66,984,011902
São Pedro de Castelões,PS,25.95,585,011902
São Pedro de Castelões,MPT,10.12,228,011902
São Pedro de Castelões,PCP-PEV,5.41,122,011902
São Pedro de Castelões,B.E.,4.92,111,011902
São Pedro de Castelões,L,1.95,44,011902
São Pedro de Castelões,PCTP/MRPP,1.64,37,011902
São Pedro de Castelões,PAN,1.38,31,011902
São Pedro de Castelões,PND,1.24,28,011902
São Pedro de Castelões,PTP,1.06,24,011902
São Pedro de Castelões,MAS,0.67,15,011902
São Pedro de Castelões,PPM,0.67,15,011902
São Pedro de Castelões,PNR,0.58,13,011902
São Pedro de Castelões,PPV,0.44,10,011902
São Pedro de Castelões,PDA,0.27,6,011902
São Pedro de Castelões,POUS,0.04,1,011902
