freguesia,acronym,validVotesPercentage,votes,dicofre
São Miguel do Mato,PPD/PSD.CDS-PP,63.54,122,010417
São Miguel do Mato,PS,19.79,38,010417
São Miguel do Mato,MPT,5.73,11,010417
São Miguel do Mato,PCP-PEV,3.13,6,010417
São Miguel do Mato,PCTP/MRPP,1.56,3,010417
São Miguel do Mato,PPM,1.56,3,010417
São Miguel do Mato,B.E.,1.04,2,010417
São Miguel do Mato,PAN,1.04,2,010417
São Miguel do Mato,PND,1.04,2,010417
São Miguel do Mato,MAS,0.52,1,010417
São Miguel do Mato,PDA,0.52,1,010417
São Miguel do Mato,PTP,0.52,1,010417
São Miguel do Mato,L,0,0,010417
São Miguel do Mato,PNR,0,0,010417
São Miguel do Mato,POUS,0,0,010417
São Miguel do Mato,PPV,0,0,010417
