freguesia,acronym,validVotesPercentage,votes,dicofre
São José da Lamarosa,PS,51.02,226,140903
São José da Lamarosa,PPD/PSD.CDS-PP,17.61,78,140903
São José da Lamarosa,PCP-PEV,12.87,57,140903
São José da Lamarosa,MPT,4.06,18,140903
São José da Lamarosa,B.E.,3.61,16,140903
São José da Lamarosa,PCTP/MRPP,3.16,14,140903
São José da Lamarosa,PNR,2.48,11,140903
São José da Lamarosa,L,1.81,8,140903
São José da Lamarosa,PAN,1.58,7,140903
São José da Lamarosa,PTP,0.68,3,140903
São José da Lamarosa,MAS,0.45,2,140903
São José da Lamarosa,PND,0.45,2,140903
São José da Lamarosa,PPV,0.23,1,140903
São José da Lamarosa,PDA,0,0,140903
São José da Lamarosa,POUS,0,0,140903
São José da Lamarosa,PPM,0,0,140903
