freguesia,acronym,validVotesPercentage,votes,dicofre
São Bento,PS,52.04,217,430115
São Bento,PPD/PSD.CDS-PP,29.74,124,430115
São Bento,MPT,4.32,18,430115
São Bento,B.E.,4.08,17,430115
São Bento,PCP-PEV,3.84,16,430115
São Bento,PAN,1.68,7,430115
São Bento,PCTP/MRPP,1.2,5,430115
São Bento,PND,0.96,4,430115
São Bento,L,0.48,2,430115
São Bento,MAS,0.48,2,430115
São Bento,PNR,0.48,2,430115
São Bento,PPM,0.48,2,430115
São Bento,PTP,0.24,1,430115
São Bento,PDA,0,0,430115
São Bento,POUS,0,0,430115
São Bento,PPV,0,0,430115
