freguesia,acronym,validVotesPercentage,votes,dicofre
Talhadas,PPD/PSD.CDS-PP,48.86,193,011708
Talhadas,PS,31.65,125,011708
Talhadas,MPT,8.35,33,011708
Talhadas,PCP-PEV,4.05,16,011708
Talhadas,B.E.,2.28,9,011708
Talhadas,PCTP/MRPP,1.01,4,011708
Talhadas,PTP,1.01,4,011708
Talhadas,L,0.76,3,011708
Talhadas,PND,0.76,3,011708
Talhadas,PNR,0.51,2,011708
Talhadas,MAS,0.25,1,011708
Talhadas,PAN,0.25,1,011708
Talhadas,PPM,0.25,1,011708
Talhadas,PDA,0,0,011708
Talhadas,POUS,0,0,011708
Talhadas,PPV,0,0,011708
