freguesia,acronym,validVotesPercentage,votes,dicofre
Talhas,PPD/PSD.CDS-PP,47.24,60,040530
Talhas,PS,40.94,52,040530
Talhas,MPT,5.51,7,040530
Talhas,PPM,1.57,2,040530
Talhas,PAN,0.79,1,040530
Talhas,PCP-PEV,0.79,1,040530
Talhas,PCTP/MRPP,0.79,1,040530
Talhas,PND,0.79,1,040530
Talhas,PNR,0.79,1,040530
Talhas,PPV,0.79,1,040530
Talhas,B.E.,0,0,040530
Talhas,L,0,0,040530
Talhas,MAS,0,0,040530
Talhas,PDA,0,0,040530
Talhas,POUS,0,0,040530
Talhas,PTP,0,0,040530
