freguesia,acronym,validVotesPercentage,votes,dicofre
Teixeira,PS,43.4,46,091221
Teixeira,PPD/PSD.CDS-PP,32.08,34,091221
Teixeira,PCP-PEV,6.6,7,091221
Teixeira,MPT,4.72,5,091221
Teixeira,PND,4.72,5,091221
Teixeira,PAN,2.83,3,091221
Teixeira,PCTP/MRPP,2.83,3,091221
Teixeira,B.E.,1.89,2,091221
Teixeira,PTP,0.94,1,091221
Teixeira,L,0,0,091221
Teixeira,MAS,0,0,091221
Teixeira,PDA,0,0,091221
Teixeira,PNR,0,0,091221
Teixeira,POUS,0,0,091221
Teixeira,PPM,0,0,091221
Teixeira,PPV,0,0,091221
