freguesia,acronym,validVotesPercentage,votes,dicofre
Telhado,PS,52.24,105,050427
Telhado,PPD/PSD.CDS-PP,18.41,37,050427
Telhado,MPT,11.44,23,050427
Telhado,B.E.,5.47,11,050427
Telhado,PCP-PEV,3.98,8,050427
Telhado,PCTP/MRPP,1.99,4,050427
Telhado,PND,1.99,4,050427
Telhado,PAN,1.49,3,050427
Telhado,L,1,2,050427
Telhado,MAS,0.5,1,050427
Telhado,PNR,0.5,1,050427
Telhado,PPM,0.5,1,050427
Telhado,PTP,0.5,1,050427
Telhado,PDA,0,0,050427
Telhado,POUS,0,0,050427
Telhado,PPV,0,0,050427
