freguesia,acronym,validVotesPercentage,votes,dicofre
Torre do Pinhão,PPD/PSD.CDS-PP,42.24,49,171014
Torre do Pinhão,PS,31.9,37,171014
Torre do Pinhão,MPT,10.34,12,171014
Torre do Pinhão,PCP-PEV,6.9,8,171014
Torre do Pinhão,PND,2.59,3,171014
Torre do Pinhão,PCTP/MRPP,1.72,2,171014
Torre do Pinhão,PTP,1.72,2,171014
Torre do Pinhão,B.E.,0.86,1,171014
Torre do Pinhão,MAS,0.86,1,171014
Torre do Pinhão,PPM,0.86,1,171014
Torre do Pinhão,L,0,0,171014
Torre do Pinhão,PAN,0,0,171014
Torre do Pinhão,PDA,0,0,171014
Torre do Pinhão,PNR,0,0,171014
Torre do Pinhão,POUS,0,0,171014
Torre do Pinhão,PPV,0,0,171014
