freguesia,acronym,validVotesPercentage,votes,dicofre
Troviscal,PPD/PSD.CDS-PP,60.16,151,050913
Troviscal,PS,29.08,73,050913
Troviscal,B.E.,3.19,8,050913
Troviscal,MPT,2.79,7,050913
Troviscal,PTP,1.59,4,050913
Troviscal,MAS,1.2,3,050913
Troviscal,PCTP/MRPP,0.8,2,050913
Troviscal,PND,0.8,2,050913
Troviscal,PPM,0.4,1,050913
Troviscal,L,0,0,050913
Troviscal,PAN,0,0,050913
Troviscal,PCP-PEV,0,0,050913
Troviscal,PDA,0,0,050913
Troviscal,PNR,0,0,050913
Troviscal,POUS,0,0,050913
Troviscal,PPV,0,0,050913
