freguesia,acronym,validVotesPercentage,votes,dicofre
União das freguesias de Sezelhe e Covelães,PS,51.92,81,170640
União das freguesias de Sezelhe e Covelães,PPD/PSD.CDS-PP,36.54,57,170640
União das freguesias de Sezelhe e Covelães,MPT,7.05,11,170640
União das freguesias de Sezelhe e Covelães,MAS,1.28,2,170640
União das freguesias de Sezelhe e Covelães,PCP-PEV,1.28,2,170640
União das freguesias de Sezelhe e Covelães,PPM,1.28,2,170640
União das freguesias de Sezelhe e Covelães,POUS,0.64,1,170640
União das freguesias de Sezelhe e Covelães,B.E.,0,0,170640
União das freguesias de Sezelhe e Covelães,L,0,0,170640
União das freguesias de Sezelhe e Covelães,PAN,0,0,170640
União das freguesias de Sezelhe e Covelães,PCTP/MRPP,0,0,170640
União das freguesias de Sezelhe e Covelães,PDA,0,0,170640
União das freguesias de Sezelhe e Covelães,PND,0,0,170640
União das freguesias de Sezelhe e Covelães,PNR,0,0,170640
União das freguesias de Sezelhe e Covelães,PPV,0,0,170640
União das freguesias de Sezelhe e Covelães,PTP,0,0,170640
