freguesia,acronym,validVotesPercentage,votes,dicofre
União das freguesias de Antuzede e Vil de Matos,PS,44.64,354,060332
União das freguesias de Antuzede e Vil de Matos,PPD/PSD.CDS-PP,19.8,157,060332
União das freguesias de Antuzede e Vil de Matos,PCP-PEV,12.36,98,060332
União das freguesias de Antuzede e Vil de Matos,MPT,7.69,61,060332
União das freguesias de Antuzede e Vil de Matos,B.E.,6.56,52,060332
União das freguesias de Antuzede e Vil de Matos,PCTP/MRPP,2.4,19,060332
União das freguesias de Antuzede e Vil de Matos,L,2.02,16,060332
União das freguesias de Antuzede e Vil de Matos,PAN,1.64,13,060332
União das freguesias de Antuzede e Vil de Matos,MAS,0.76,6,060332
União das freguesias de Antuzede e Vil de Matos,PPM,0.5,4,060332
União das freguesias de Antuzede e Vil de Matos,PND,0.38,3,060332
União das freguesias de Antuzede e Vil de Matos,PPV,0.38,3,060332
União das freguesias de Antuzede e Vil de Matos,PTP,0.38,3,060332
União das freguesias de Antuzede e Vil de Matos,PNR,0.25,2,060332
União das freguesias de Antuzede e Vil de Matos,POUS,0.25,2,060332
União das freguesias de Antuzede e Vil de Matos,PDA,0,0,060332
