freguesia,acronym,validVotesPercentage,votes,dicofre
"União das freguesias de Aboim, Felgueiras, Gontim e Pedraído",PS,45.69,143,030737
"União das freguesias de Aboim, Felgueiras, Gontim e Pedraído",PPD/PSD.CDS-PP,36.1,113,030737
"União das freguesias de Aboim, Felgueiras, Gontim e Pedraído",PCP-PEV,5.43,17,030737
"União das freguesias de Aboim, Felgueiras, Gontim e Pedraído",MPT,3.19,10,030737
"União das freguesias de Aboim, Felgueiras, Gontim e Pedraído",PND,1.6,5,030737
"União das freguesias de Aboim, Felgueiras, Gontim e Pedraído",PAN,1.28,4,030737
"União das freguesias de Aboim, Felgueiras, Gontim e Pedraído",PTP,1.28,4,030737
"União das freguesias de Aboim, Felgueiras, Gontim e Pedraído",MAS,0.96,3,030737
"União das freguesias de Aboim, Felgueiras, Gontim e Pedraído",PCTP/MRPP,0.96,3,030737
"União das freguesias de Aboim, Felgueiras, Gontim e Pedraído",PNR,0.96,3,030737
"União das freguesias de Aboim, Felgueiras, Gontim e Pedraído",PPM,0.96,3,030737
"União das freguesias de Aboim, Felgueiras, Gontim e Pedraído",B.E.,0.32,1,030737
"União das freguesias de Aboim, Felgueiras, Gontim e Pedraído",L,0.32,1,030737
"União das freguesias de Aboim, Felgueiras, Gontim e Pedraído",PDA,0.32,1,030737
"União das freguesias de Aboim, Felgueiras, Gontim e Pedraído",POUS,0.32,1,030737
"União das freguesias de Aboim, Felgueiras, Gontim e Pedraído",PPV,0.32,1,030737
