freguesia,acronym,validVotesPercentage,votes,dicofre
"União das freguesias de Torres Novas (Santa Maria, Salvador e Santiago)",PS,31.7,724,141920
"União das freguesias de Torres Novas (Santa Maria, Salvador e Santiago)",PPD/PSD.CDS-PP,27.19,621,141920
"União das freguesias de Torres Novas (Santa Maria, Salvador e Santiago)",PCP-PEV,14.97,342,141920
"União das freguesias de Torres Novas (Santa Maria, Salvador e Santiago)",B.E.,9.02,206,141920
"União das freguesias de Torres Novas (Santa Maria, Salvador e Santiago)",MPT,7.79,178,141920
"União das freguesias de Torres Novas (Santa Maria, Salvador e Santiago)",L,2.63,60,141920
"União das freguesias de Torres Novas (Santa Maria, Salvador e Santiago)",PAN,1.8,41,141920
"União das freguesias de Torres Novas (Santa Maria, Salvador e Santiago)",PCTP/MRPP,1.62,37,141920
"União das freguesias de Torres Novas (Santa Maria, Salvador e Santiago)",PND,0.74,17,141920
"União das freguesias de Torres Novas (Santa Maria, Salvador e Santiago)",PPV,0.7,16,141920
"União das freguesias de Torres Novas (Santa Maria, Salvador e Santiago)",PTP,0.44,10,141920
"União das freguesias de Torres Novas (Santa Maria, Salvador e Santiago)",PNR,0.39,9,141920
"União das freguesias de Torres Novas (Santa Maria, Salvador e Santiago)",PPM,0.39,9,141920
"União das freguesias de Torres Novas (Santa Maria, Salvador e Santiago)",MAS,0.31,7,141920
"União das freguesias de Torres Novas (Santa Maria, Salvador e Santiago)",POUS,0.18,4,141920
"União das freguesias de Torres Novas (Santa Maria, Salvador e Santiago)",PDA,0.13,3,141920
