freguesia,acronym,validVotesPercentage,votes,dicofre
União das freguesias de Freixo de Cima e de Baixo,PS,38.97,417,130145
União das freguesias de Freixo de Cima e de Baixo,PPD/PSD.CDS-PP,36.07,386,130145
União das freguesias de Freixo de Cima e de Baixo,MPT,16.26,174,130145
União das freguesias de Freixo de Cima e de Baixo,PCP-PEV,2.06,22,130145
União das freguesias de Freixo de Cima e de Baixo,B.E.,1.78,19,130145
União das freguesias de Freixo de Cima e de Baixo,PND,1.03,11,130145
União das freguesias de Freixo de Cima e de Baixo,L,0.93,10,130145
União das freguesias de Freixo de Cima e de Baixo,PCTP/MRPP,0.75,8,130145
União das freguesias de Freixo de Cima e de Baixo,PAN,0.37,4,130145
União das freguesias de Freixo de Cima e de Baixo,PPM,0.37,4,130145
União das freguesias de Freixo de Cima e de Baixo,PTP,0.37,4,130145
União das freguesias de Freixo de Cima e de Baixo,MAS,0.28,3,130145
União das freguesias de Freixo de Cima e de Baixo,PNR,0.28,3,130145
União das freguesias de Freixo de Cima e de Baixo,PPV,0.28,3,130145
União das freguesias de Freixo de Cima e de Baixo,PDA,0.19,2,130145
União das freguesias de Freixo de Cima e de Baixo,POUS,0,0,130145
