freguesia,acronym,validVotesPercentage,votes,dicofre
União das freguesias de Montalegre e Padroso,PS,46.45,340,170638
União das freguesias de Montalegre e Padroso,PPD/PSD.CDS-PP,40.44,296,170638
União das freguesias de Montalegre e Padroso,MPT,4.92,36,170638
União das freguesias de Montalegre e Padroso,PCP-PEV,3.28,24,170638
União das freguesias de Montalegre e Padroso,L,0.96,7,170638
União das freguesias de Montalegre e Padroso,PPV,0.82,6,170638
União das freguesias de Montalegre e Padroso,B.E.,0.68,5,170638
União das freguesias de Montalegre e Padroso,PAN,0.68,5,170638
União das freguesias de Montalegre e Padroso,PND,0.41,3,170638
União das freguesias de Montalegre e Padroso,PPM,0.41,3,170638
União das freguesias de Montalegre e Padroso,PDA,0.27,2,170638
União das freguesias de Montalegre e Padroso,PTP,0.27,2,170638
União das freguesias de Montalegre e Padroso,PCTP/MRPP,0.14,1,170638
União das freguesias de Montalegre e Padroso,PNR,0.14,1,170638
União das freguesias de Montalegre e Padroso,POUS,0.14,1,170638
União das freguesias de Montalegre e Padroso,MAS,0,0,170638
