freguesia,acronym,validVotesPercentage,votes,dicofre
"União das freguesias de Sé, Santa Maria e Meixedo",PS,37.73,1694,040257
"União das freguesias de Sé, Santa Maria e Meixedo",PPD/PSD.CDS-PP,34.41,1545,040257
"União das freguesias de Sé, Santa Maria e Meixedo",MPT,8.6,386,040257
"União das freguesias de Sé, Santa Maria e Meixedo",PCP-PEV,7.55,339,040257
"União das freguesias de Sé, Santa Maria e Meixedo",B.E.,4.19,188,040257
"União das freguesias de Sé, Santa Maria e Meixedo",L,1.83,82,040257
"União das freguesias de Sé, Santa Maria e Meixedo",PAN,1.36,61,040257
"União das freguesias de Sé, Santa Maria e Meixedo",PCTP/MRPP,1.2,54,040257
"União das freguesias de Sé, Santa Maria e Meixedo",PND,0.69,31,040257
"União das freguesias de Sé, Santa Maria e Meixedo",PPM,0.67,30,040257
"União das freguesias de Sé, Santa Maria e Meixedo",PTP,0.53,24,040257
"União das freguesias de Sé, Santa Maria e Meixedo",PNR,0.42,19,040257
"União das freguesias de Sé, Santa Maria e Meixedo",MAS,0.31,14,040257
"União das freguesias de Sé, Santa Maria e Meixedo",PPV,0.27,12,040257
"União das freguesias de Sé, Santa Maria e Meixedo",PDA,0.16,7,040257
"União das freguesias de Sé, Santa Maria e Meixedo",POUS,0.09,4,040257
