freguesia,acronym,validVotesPercentage,votes,dicofre
União das freguesias de Picão e Ermida,PPD/PSD.CDS-PP,61.46,126,180326
União das freguesias de Picão e Ermida,PS,19.02,39,180326
União das freguesias de Picão e Ermida,PCP-PEV,4.39,9,180326
União das freguesias de Picão e Ermida,MPT,3.9,8,180326
União das freguesias de Picão e Ermida,PCTP/MRPP,3.41,7,180326
União das freguesias de Picão e Ermida,B.E.,1.95,4,180326
União das freguesias de Picão e Ermida,PND,1.95,4,180326
União das freguesias de Picão e Ermida,PTP,1.46,3,180326
União das freguesias de Picão e Ermida,PDA,0.98,2,180326
União das freguesias de Picão e Ermida,L,0.49,1,180326
União das freguesias de Picão e Ermida,PAN,0.49,1,180326
União das freguesias de Picão e Ermida,PPM,0.49,1,180326
União das freguesias de Picão e Ermida,MAS,0,0,180326
União das freguesias de Picão e Ermida,PNR,0,0,180326
União das freguesias de Picão e Ermida,POUS,0,0,180326
União das freguesias de Picão e Ermida,PPV,0,0,180326
