freguesia,acronym,validVotesPercentage,votes,dicofre
União das freguesias de Santar e Moreira,PS,42.86,183,180911
União das freguesias de Santar e Moreira,PPD/PSD.CDS-PP,35.13,150,180911
União das freguesias de Santar e Moreira,MPT,7.49,32,180911
União das freguesias de Santar e Moreira,PCP-PEV,5.85,25,180911
União das freguesias de Santar e Moreira,PCTP/MRPP,2.58,11,180911
União das freguesias de Santar e Moreira,B.E.,1.64,7,180911
União das freguesias de Santar e Moreira,PAN,1.64,7,180911
União das freguesias de Santar e Moreira,PND,0.7,3,180911
União das freguesias de Santar e Moreira,PNR,0.47,2,180911
União das freguesias de Santar e Moreira,PPM,0.47,2,180911
União das freguesias de Santar e Moreira,PTP,0.47,2,180911
União das freguesias de Santar e Moreira,MAS,0.23,1,180911
União das freguesias de Santar e Moreira,PDA,0.23,1,180911
União das freguesias de Santar e Moreira,POUS,0.23,1,180911
União das freguesias de Santar e Moreira,L,0,0,180911
União das freguesias de Santar e Moreira,PPV,0,0,180911
