freguesia,acronym,validVotesPercentage,votes,dicofre
União das freguesias de Vila Seca e Bem da Fé,B.E.,31.83,127,060413
União das freguesias de Vila Seca e Bem da Fé,PS,30.58,122,060413
União das freguesias de Vila Seca e Bem da Fé,PPD/PSD.CDS-PP,16.04,64,060413
União das freguesias de Vila Seca e Bem da Fé,PCP-PEV,10.03,40,060413
União das freguesias de Vila Seca e Bem da Fé,MPT,5.01,20,060413
União das freguesias de Vila Seca e Bem da Fé,PCTP/MRPP,1.5,6,060413
União das freguesias de Vila Seca e Bem da Fé,L,1.25,5,060413
União das freguesias de Vila Seca e Bem da Fé,PPM,1,4,060413
União das freguesias de Vila Seca e Bem da Fé,PTP,1,4,060413
União das freguesias de Vila Seca e Bem da Fé,PAN,0.5,2,060413
União das freguesias de Vila Seca e Bem da Fé,PDA,0.5,2,060413
União das freguesias de Vila Seca e Bem da Fé,PPV,0.5,2,060413
União das freguesias de Vila Seca e Bem da Fé,MAS,0.25,1,060413
União das freguesias de Vila Seca e Bem da Fé,PND,0,0,060413
União das freguesias de Vila Seca e Bem da Fé,PNR,0,0,060413
União das freguesias de Vila Seca e Bem da Fé,POUS,0,0,060413
