freguesia,acronym,validVotesPercentage,votes,dicofre
União das freguesias de Vila Flor e Nabo,PS,47.73,295,041023
União das freguesias de Vila Flor e Nabo,PPD/PSD.CDS-PP,32.04,198,041023
União das freguesias de Vila Flor e Nabo,PCP-PEV,5.99,37,041023
União das freguesias de Vila Flor e Nabo,MPT,4.37,27,041023
União das freguesias de Vila Flor e Nabo,B.E.,3.56,22,041023
União das freguesias de Vila Flor e Nabo,L,1.29,8,041023
União das freguesias de Vila Flor e Nabo,PND,0.97,6,041023
União das freguesias de Vila Flor e Nabo,PTP,0.97,6,041023
União das freguesias de Vila Flor e Nabo,PCTP/MRPP,0.81,5,041023
União das freguesias de Vila Flor e Nabo,MAS,0.65,4,041023
União das freguesias de Vila Flor e Nabo,PAN,0.49,3,041023
União das freguesias de Vila Flor e Nabo,PNR,0.32,2,041023
União das freguesias de Vila Flor e Nabo,PPM,0.32,2,041023
União das freguesias de Vila Flor e Nabo,PPV,0.32,2,041023
União das freguesias de Vila Flor e Nabo,PDA,0.16,1,041023
União das freguesias de Vila Flor e Nabo,POUS,0,0,041023
