freguesia,acronym,validVotesPercentage,votes,dicofre
União das freguesias de Crespos e Pousada,PPD/PSD.CDS-PP,39.78,181,030368
União das freguesias de Crespos e Pousada,PS,37.58,171,030368
União das freguesias de Crespos e Pousada,PCP-PEV,7.47,34,030368
União das freguesias de Crespos e Pousada,MPT,5.49,25,030368
União das freguesias de Crespos e Pousada,B.E.,3.52,16,030368
União das freguesias de Crespos e Pousada,PCTP/MRPP,1.54,7,030368
União das freguesias de Crespos e Pousada,L,1.1,5,030368
União das freguesias de Crespos e Pousada,PTP,0.88,4,030368
União das freguesias de Crespos e Pousada,PAN,0.66,3,030368
União das freguesias de Crespos e Pousada,PND,0.66,3,030368
União das freguesias de Crespos e Pousada,MAS,0.44,2,030368
União das freguesias de Crespos e Pousada,PPM,0.44,2,030368
União das freguesias de Crespos e Pousada,PDA,0.22,1,030368
União das freguesias de Crespos e Pousada,PPV,0.22,1,030368
União das freguesias de Crespos e Pousada,PNR,0,0,030368
União das freguesias de Crespos e Pousada,POUS,0,0,030368
