freguesia,acronym,validVotesPercentage,votes,dicofre
"União das freguesias de Ponte da Barca, Vila Nova de Muía e Paço Vedro de Magalhães",PS,50.58,613,160628
"União das freguesias de Ponte da Barca, Vila Nova de Muía e Paço Vedro de Magalhães",PPD/PSD.CDS-PP,28.55,346,160628
"União das freguesias de Ponte da Barca, Vila Nova de Muía e Paço Vedro de Magalhães",MPT,7.26,88,160628
"União das freguesias de Ponte da Barca, Vila Nova de Muía e Paço Vedro de Magalhães",PCP-PEV,5.78,70,160628
"União das freguesias de Ponte da Barca, Vila Nova de Muía e Paço Vedro de Magalhães",B.E.,2.72,33,160628
"União das freguesias de Ponte da Barca, Vila Nova de Muía e Paço Vedro de Magalhães",L,1.24,15,160628
"União das freguesias de Ponte da Barca, Vila Nova de Muía e Paço Vedro de Magalhães",PAN,1.07,13,160628
"União das freguesias de Ponte da Barca, Vila Nova de Muía e Paço Vedro de Magalhães",PCTP/MRPP,0.99,12,160628
"União das freguesias de Ponte da Barca, Vila Nova de Muía e Paço Vedro de Magalhães",PND,0.83,10,160628
"União das freguesias de Ponte da Barca, Vila Nova de Muía e Paço Vedro de Magalhães",PNR,0.25,3,160628
"União das freguesias de Ponte da Barca, Vila Nova de Muía e Paço Vedro de Magalhães",MAS,0.17,2,160628
"União das freguesias de Ponte da Barca, Vila Nova de Muía e Paço Vedro de Magalhães",PPM,0.17,2,160628
"União das freguesias de Ponte da Barca, Vila Nova de Muía e Paço Vedro de Magalhães",PPV,0.17,2,160628
"União das freguesias de Ponte da Barca, Vila Nova de Muía e Paço Vedro de Magalhães",PDA,0.08,1,160628
"União das freguesias de Ponte da Barca, Vila Nova de Muía e Paço Vedro de Magalhães",POUS,0.08,1,160628
"União das freguesias de Ponte da Barca, Vila Nova de Muía e Paço Vedro de Magalhães",PTP,0.08,1,160628
