freguesia,acronym,validVotesPercentage,votes,dicofre
União das freguesias de Degracias e Pombalinho,PPD/PSD.CDS-PP,44.1,157,061513
União das freguesias de Degracias e Pombalinho,PS,39.61,141,061513
União das freguesias de Degracias e Pombalinho,MPT,6.46,23,061513
União das freguesias de Degracias e Pombalinho,B.E.,1.97,7,061513
União das freguesias de Degracias e Pombalinho,PCP-PEV,1.97,7,061513
União das freguesias de Degracias e Pombalinho,PND,1.69,6,061513
União das freguesias de Degracias e Pombalinho,PCTP/MRPP,1.4,5,061513
União das freguesias de Degracias e Pombalinho,L,1.12,4,061513
União das freguesias de Degracias e Pombalinho,PTP,0.84,3,061513
União das freguesias de Degracias e Pombalinho,PNR,0.56,2,061513
União das freguesias de Degracias e Pombalinho,PPM,0.28,1,061513
União das freguesias de Degracias e Pombalinho,MAS,0,0,061513
União das freguesias de Degracias e Pombalinho,PAN,0,0,061513
União das freguesias de Degracias e Pombalinho,PDA,0,0,061513
União das freguesias de Degracias e Pombalinho,POUS,0,0,061513
União das freguesias de Degracias e Pombalinho,PPV,0,0,061513
