freguesia,acronym,validVotesPercentage,votes,dicofre
União das freguesias de Pensalvos e Parada de Monteiros,PS,44.38,75,171320
União das freguesias de Pensalvos e Parada de Monteiros,PPD/PSD.CDS-PP,30.77,52,171320
União das freguesias de Pensalvos e Parada de Monteiros,PCP-PEV,13.02,22,171320
União das freguesias de Pensalvos e Parada de Monteiros,MPT,4.73,8,171320
União das freguesias de Pensalvos e Parada de Monteiros,PCTP/MRPP,2.96,5,171320
União das freguesias de Pensalvos e Parada de Monteiros,L,1.78,3,171320
União das freguesias de Pensalvos e Parada de Monteiros,B.E.,1.18,2,171320
União das freguesias de Pensalvos e Parada de Monteiros,MAS,0.59,1,171320
União das freguesias de Pensalvos e Parada de Monteiros,POUS,0.59,1,171320
União das freguesias de Pensalvos e Parada de Monteiros,PAN,0,0,171320
União das freguesias de Pensalvos e Parada de Monteiros,PDA,0,0,171320
União das freguesias de Pensalvos e Parada de Monteiros,PND,0,0,171320
União das freguesias de Pensalvos e Parada de Monteiros,PNR,0,0,171320
União das freguesias de Pensalvos e Parada de Monteiros,PPM,0,0,171320
União das freguesias de Pensalvos e Parada de Monteiros,PPV,0,0,171320
União das freguesias de Pensalvos e Parada de Monteiros,PTP,0,0,171320
