freguesia,acronym,validVotesPercentage,votes,dicofre
União das freguesias de Almodôvar e Graça dos Padrões,PS,47.94,501,020209
União das freguesias de Almodôvar e Graça dos Padrões,PCP-PEV,17.51,183,020209
União das freguesias de Almodôvar e Graça dos Padrões,PPD/PSD.CDS-PP,15.6,163,020209
União das freguesias de Almodôvar e Graça dos Padrões,B.E.,5.26,55,020209
União das freguesias de Almodôvar e Graça dos Padrões,MPT,4.88,51,020209
União das freguesias de Almodôvar e Graça dos Padrões,PCTP/MRPP,2.58,27,020209
União das freguesias de Almodôvar e Graça dos Padrões,PAN,2.49,26,020209
União das freguesias de Almodôvar e Graça dos Padrões,L,0.96,10,020209
União das freguesias de Almodôvar e Graça dos Padrões,PPM,0.86,9,020209
União das freguesias de Almodôvar e Graça dos Padrões,PND,0.48,5,020209
União das freguesias de Almodôvar e Graça dos Padrões,MAS,0.38,4,020209
União das freguesias de Almodôvar e Graça dos Padrões,PNR,0.38,4,020209
União das freguesias de Almodôvar e Graça dos Padrões,PTP,0.38,4,020209
União das freguesias de Almodôvar e Graça dos Padrões,PPV,0.19,2,020209
União das freguesias de Almodôvar e Graça dos Padrões,PDA,0.1,1,020209
União das freguesias de Almodôvar e Graça dos Padrões,POUS,0,0,020209
