freguesia,acronym,validVotesPercentage,votes,dicofre
União das freguesias de Barreiro de Besteiros e Tourigo,PPD/PSD.CDS-PP,74.68,354,182127
União das freguesias de Barreiro de Besteiros e Tourigo,PS,13.5,64,182127
União das freguesias de Barreiro de Besteiros e Tourigo,MPT,5.06,24,182127
União das freguesias de Barreiro de Besteiros e Tourigo,PCP-PEV,2.32,11,182127
União das freguesias de Barreiro de Besteiros e Tourigo,L,1.05,5,182127
União das freguesias de Barreiro de Besteiros e Tourigo,PPM,0.84,4,182127
União das freguesias de Barreiro de Besteiros e Tourigo,PCTP/MRPP,0.63,3,182127
União das freguesias de Barreiro de Besteiros e Tourigo,POUS,0.42,2,182127
União das freguesias de Barreiro de Besteiros e Tourigo,B.E.,0.21,1,182127
União das freguesias de Barreiro de Besteiros e Tourigo,MAS,0.21,1,182127
União das freguesias de Barreiro de Besteiros e Tourigo,PAN,0.21,1,182127
União das freguesias de Barreiro de Besteiros e Tourigo,PND,0.21,1,182127
União das freguesias de Barreiro de Besteiros e Tourigo,PNR,0.21,1,182127
União das freguesias de Barreiro de Besteiros e Tourigo,PPV,0.21,1,182127
União das freguesias de Barreiro de Besteiros e Tourigo,PTP,0.21,1,182127
União das freguesias de Barreiro de Besteiros e Tourigo,PDA,0,0,182127
