freguesia,acronym,validVotesPercentage,votes,dicofre
"União das freguesias de Coimbra (Sé Nova, Santa Cruz, Almedina e São Bartolomeu)",PPD/PSD.CDS-PP,31.95,1550,060334
"União das freguesias de Coimbra (Sé Nova, Santa Cruz, Almedina e São Bartolomeu)",PS,27.74,1346,060334
"União das freguesias de Coimbra (Sé Nova, Santa Cruz, Almedina e São Bartolomeu)",PCP-PEV,14.41,699,060334
"União das freguesias de Coimbra (Sé Nova, Santa Cruz, Almedina e São Bartolomeu)",MPT,9.48,460,060334
"União das freguesias de Coimbra (Sé Nova, Santa Cruz, Almedina e São Bartolomeu)",B.E.,7.61,369,060334
"União das freguesias de Coimbra (Sé Nova, Santa Cruz, Almedina e São Bartolomeu)",L,3.48,169,060334
"União das freguesias de Coimbra (Sé Nova, Santa Cruz, Almedina e São Bartolomeu)",PAN,1.48,72,060334
"União das freguesias de Coimbra (Sé Nova, Santa Cruz, Almedina e São Bartolomeu)",PCTP/MRPP,1.22,59,060334
"União das freguesias de Coimbra (Sé Nova, Santa Cruz, Almedina e São Bartolomeu)",PPM,0.66,32,060334
"União das freguesias de Coimbra (Sé Nova, Santa Cruz, Almedina e São Bartolomeu)",PPV,0.49,24,060334
"União das freguesias de Coimbra (Sé Nova, Santa Cruz, Almedina e São Bartolomeu)",MAS,0.35,17,060334
"União das freguesias de Coimbra (Sé Nova, Santa Cruz, Almedina e São Bartolomeu)",PNR,0.35,17,060334
"União das freguesias de Coimbra (Sé Nova, Santa Cruz, Almedina e São Bartolomeu)",PND,0.33,16,060334
"União das freguesias de Coimbra (Sé Nova, Santa Cruz, Almedina e São Bartolomeu)",PTP,0.33,16,060334
"União das freguesias de Coimbra (Sé Nova, Santa Cruz, Almedina e São Bartolomeu)",PDA,0.08,4,060334
"União das freguesias de Coimbra (Sé Nova, Santa Cruz, Almedina e São Bartolomeu)",POUS,0.04,2,060334
