freguesia,acronym,validVotesPercentage,votes,dicofre
União das freguesias de Belinho e Mar,PPD/PSD.CDS-PP,44.47,394,030617
União das freguesias de Belinho e Mar,PS,20.88,185,030617
União das freguesias de Belinho e Mar,MPT,11.06,98,030617
União das freguesias de Belinho e Mar,PCP-PEV,8.92,79,030617
União das freguesias de Belinho e Mar,B.E.,3.39,30,030617
União das freguesias de Belinho e Mar,PCTP/MRPP,2.37,21,030617
União das freguesias de Belinho e Mar,L,1.92,17,030617
União das freguesias de Belinho e Mar,PND,1.58,14,030617
União das freguesias de Belinho e Mar,PAN,1.47,13,030617
União das freguesias de Belinho e Mar,MAS,0.9,8,030617
União das freguesias de Belinho e Mar,PTP,0.9,8,030617
União das freguesias de Belinho e Mar,POUS,0.68,6,030617
União das freguesias de Belinho e Mar,PNR,0.56,5,030617
União das freguesias de Belinho e Mar,PPV,0.56,5,030617
União das freguesias de Belinho e Mar,PPM,0.34,3,030617
União das freguesias de Belinho e Mar,PDA,0,0,030617
