freguesia,acronym,validVotesPercentage,votes,dicofre
União das freguesias de Ovadas e Panchorra,PS,47.73,84,181319
União das freguesias de Ovadas e Panchorra,PPD/PSD.CDS-PP,43.75,77,181319
União das freguesias de Ovadas e Panchorra,PCP-PEV,3.41,6,181319
União das freguesias de Ovadas e Panchorra,MPT,1.7,3,181319
União das freguesias de Ovadas e Panchorra,PTP,1.14,2,181319
União das freguesias de Ovadas e Panchorra,B.E.,0.57,1,181319
União das freguesias de Ovadas e Panchorra,PCTP/MRPP,0.57,1,181319
União das freguesias de Ovadas e Panchorra,PND,0.57,1,181319
União das freguesias de Ovadas e Panchorra,PPV,0.57,1,181319
União das freguesias de Ovadas e Panchorra,L,0,0,181319
União das freguesias de Ovadas e Panchorra,MAS,0,0,181319
União das freguesias de Ovadas e Panchorra,PAN,0,0,181319
União das freguesias de Ovadas e Panchorra,PDA,0,0,181319
União das freguesias de Ovadas e Panchorra,PNR,0,0,181319
União das freguesias de Ovadas e Panchorra,POUS,0,0,181319
União das freguesias de Ovadas e Panchorra,PPM,0,0,181319
