freguesia,acronym,validVotesPercentage,votes,dicofre
União das freguesias de Apúlia e Fão,PPD/PSD.CDS-PP,50.07,1023,030616
União das freguesias de Apúlia e Fão,PS,25.6,523,030616
União das freguesias de Apúlia e Fão,MPT,8.22,168,030616
União das freguesias de Apúlia e Fão,PCP-PEV,5.58,114,030616
União das freguesias de Apúlia e Fão,B.E.,2.64,54,030616
União das freguesias de Apúlia e Fão,L,1.96,40,030616
União das freguesias de Apúlia e Fão,PAN,1.42,29,030616
União das freguesias de Apúlia e Fão,PCTP/MRPP,1.03,21,030616
União das freguesias de Apúlia e Fão,PND,0.69,14,030616
União das freguesias de Apúlia e Fão,PTP,0.69,14,030616
União das freguesias de Apúlia e Fão,PPV,0.54,11,030616
União das freguesias de Apúlia e Fão,MAS,0.49,10,030616
União das freguesias de Apúlia e Fão,PNR,0.44,9,030616
União das freguesias de Apúlia e Fão,PPM,0.44,9,030616
União das freguesias de Apúlia e Fão,PDA,0.1,2,030616
União das freguesias de Apúlia e Fão,POUS,0.1,2,030616
