freguesia,acronym,validVotesPercentage,votes,dicofre
União das freguesias de Este (São Pedro e São Mamede),PS,35.72,444,030370
União das freguesias de Este (São Pedro e São Mamede),PPD/PSD.CDS-PP,35.4,440,030370
União das freguesias de Este (São Pedro e São Mamede),PCP-PEV,9.17,114,030370
União das freguesias de Este (São Pedro e São Mamede),MPT,7.24,90,030370
União das freguesias de Este (São Pedro e São Mamede),B.E.,4.42,55,030370
União das freguesias de Este (São Pedro e São Mamede),PCTP/MRPP,1.77,22,030370
União das freguesias de Este (São Pedro e São Mamede),L,1.29,16,030370
União das freguesias de Este (São Pedro e São Mamede),PPM,1.21,15,030370
União das freguesias de Este (São Pedro e São Mamede),PTP,1.13,14,030370
União das freguesias de Este (São Pedro e São Mamede),PND,1.05,13,030370
União das freguesias de Este (São Pedro e São Mamede),PAN,0.72,9,030370
União das freguesias de Este (São Pedro e São Mamede),MAS,0.4,5,030370
União das freguesias de Este (São Pedro e São Mamede),PNR,0.24,3,030370
União das freguesias de Este (São Pedro e São Mamede),PPV,0.16,2,030370
União das freguesias de Este (São Pedro e São Mamede),PDA,0.08,1,030370
União das freguesias de Este (São Pedro e São Mamede),POUS,0,0,030370
