freguesia,acronym,validVotesPercentage,votes,dicofre
União das freguesias de Casais e Alviobeira,PPD/PSD.CDS-PP,36.6,299,141818
União das freguesias de Casais e Alviobeira,PS,36.47,298,141818
União das freguesias de Casais e Alviobeira,MPT,9.18,75,141818
União das freguesias de Casais e Alviobeira,PCP-PEV,7.22,59,141818
União das freguesias de Casais e Alviobeira,B.E.,3.55,29,141818
União das freguesias de Casais e Alviobeira,PCTP/MRPP,1.96,16,141818
União das freguesias de Casais e Alviobeira,L,1.59,13,141818
União das freguesias de Casais e Alviobeira,PND,0.86,7,141818
União das freguesias de Casais e Alviobeira,PPM,0.73,6,141818
União das freguesias de Casais e Alviobeira,PAN,0.61,5,141818
União das freguesias de Casais e Alviobeira,MAS,0.49,4,141818
União das freguesias de Casais e Alviobeira,PTP,0.49,4,141818
União das freguesias de Casais e Alviobeira,POUS,0.24,2,141818
União das freguesias de Casais e Alviobeira,PDA,0,0,141818
União das freguesias de Casais e Alviobeira,PNR,0,0,141818
União das freguesias de Casais e Alviobeira,PPV,0,0,141818
