freguesia,acronym,validVotesPercentage,votes,dicofre
União das freguesias de Viade de Baixo e Fervidelas,PS,59.51,169,170642
União das freguesias de Viade de Baixo e Fervidelas,PPD/PSD.CDS-PP,28.87,82,170642
União das freguesias de Viade de Baixo e Fervidelas,MPT,4.23,12,170642
União das freguesias de Viade de Baixo e Fervidelas,PCP-PEV,2.11,6,170642
União das freguesias de Viade de Baixo e Fervidelas,PCTP/MRPP,1.41,4,170642
União das freguesias de Viade de Baixo e Fervidelas,PND,1.06,3,170642
União das freguesias de Viade de Baixo e Fervidelas,L,0.7,2,170642
União das freguesias de Viade de Baixo e Fervidelas,PAN,0.7,2,170642
União das freguesias de Viade de Baixo e Fervidelas,PPV,0.7,2,170642
União das freguesias de Viade de Baixo e Fervidelas,PPM,0.35,1,170642
União das freguesias de Viade de Baixo e Fervidelas,PTP,0.35,1,170642
União das freguesias de Viade de Baixo e Fervidelas,B.E.,0,0,170642
União das freguesias de Viade de Baixo e Fervidelas,MAS,0,0,170642
União das freguesias de Viade de Baixo e Fervidelas,PDA,0,0,170642
União das freguesias de Viade de Baixo e Fervidelas,PNR,0,0,170642
União das freguesias de Viade de Baixo e Fervidelas,POUS,0,0,170642
