freguesia,acronym,validVotesPercentage,votes,dicofre
União das freguesias de Barreiros e Cepões,PPD/PSD.CDS-PP,53.95,246,182335
União das freguesias de Barreiros e Cepões,PS,28.51,130,182335
União das freguesias de Barreiros e Cepões,PCP-PEV,4.39,20,182335
União das freguesias de Barreiros e Cepões,MPT,3.95,18,182335
União das freguesias de Barreiros e Cepões,L,1.32,6,182335
União das freguesias de Barreiros e Cepões,PAN,1.1,5,182335
União das freguesias de Barreiros e Cepões,PCTP/MRPP,1.1,5,182335
União das freguesias de Barreiros e Cepões,PND,1.1,5,182335
União das freguesias de Barreiros e Cepões,PPM,1.1,5,182335
União das freguesias de Barreiros e Cepões,B.E.,0.88,4,182335
União das freguesias de Barreiros e Cepões,PTP,0.88,4,182335
União das freguesias de Barreiros e Cepões,PPV,0.66,3,182335
União das freguesias de Barreiros e Cepões,MAS,0.44,2,182335
União das freguesias de Barreiros e Cepões,PDA,0.44,2,182335
União das freguesias de Barreiros e Cepões,POUS,0.22,1,182335
União das freguesias de Barreiros e Cepões,PNR,0,0,182335
