freguesia,acronym,validVotesPercentage,votes,dicofre
União das freguesias de Nossa Senhora da Tourega e Nossa Senhora de Guadalupe,PCP-PEV,50.67,188,070525
União das freguesias de Nossa Senhora da Tourega e Nossa Senhora de Guadalupe,PS,29.92,111,070525
União das freguesias de Nossa Senhora da Tourega e Nossa Senhora de Guadalupe,PPD/PSD.CDS-PP,7.82,29,070525
União das freguesias de Nossa Senhora da Tourega e Nossa Senhora de Guadalupe,MPT,4.04,15,070525
União das freguesias de Nossa Senhora da Tourega e Nossa Senhora de Guadalupe,B.E.,2.16,8,070525
União das freguesias de Nossa Senhora da Tourega e Nossa Senhora de Guadalupe,L,1.35,5,070525
União das freguesias de Nossa Senhora da Tourega e Nossa Senhora de Guadalupe,PPV,1.08,4,070525
União das freguesias de Nossa Senhora da Tourega e Nossa Senhora de Guadalupe,PAN,0.54,2,070525
União das freguesias de Nossa Senhora da Tourega e Nossa Senhora de Guadalupe,PCTP/MRPP,0.54,2,070525
União das freguesias de Nossa Senhora da Tourega e Nossa Senhora de Guadalupe,PTP,0.54,2,070525
União das freguesias de Nossa Senhora da Tourega e Nossa Senhora de Guadalupe,MAS,0.27,1,070525
União das freguesias de Nossa Senhora da Tourega e Nossa Senhora de Guadalupe,PDA,0.27,1,070525
União das freguesias de Nossa Senhora da Tourega e Nossa Senhora de Guadalupe,PND,0.27,1,070525
União das freguesias de Nossa Senhora da Tourega e Nossa Senhora de Guadalupe,PNR,0.27,1,070525
União das freguesias de Nossa Senhora da Tourega e Nossa Senhora de Guadalupe,PPM,0.27,1,070525
União das freguesias de Nossa Senhora da Tourega e Nossa Senhora de Guadalupe,POUS,0,0,070525
