freguesia,acronym,validVotesPercentage,votes,dicofre
"União das freguesias de Espadanedo, Edroso, Murçós e Soutelo Mourisco",PPD/PSD.CDS-PP,60.56,109,040542
"União das freguesias de Espadanedo, Edroso, Murçós e Soutelo Mourisco",PS,28.89,52,040542
"União das freguesias de Espadanedo, Edroso, Murçós e Soutelo Mourisco",MPT,3.33,6,040542
"União das freguesias de Espadanedo, Edroso, Murçós e Soutelo Mourisco",PCP-PEV,2.22,4,040542
"União das freguesias de Espadanedo, Edroso, Murçós e Soutelo Mourisco",PDA,1.11,2,040542
"União das freguesias de Espadanedo, Edroso, Murçós e Soutelo Mourisco",L,0.56,1,040542
"União das freguesias de Espadanedo, Edroso, Murçós e Soutelo Mourisco",MAS,0.56,1,040542
"União das freguesias de Espadanedo, Edroso, Murçós e Soutelo Mourisco",PCTP/MRPP,0.56,1,040542
"União das freguesias de Espadanedo, Edroso, Murçós e Soutelo Mourisco",PND,0.56,1,040542
"União das freguesias de Espadanedo, Edroso, Murçós e Soutelo Mourisco",PPM,0.56,1,040542
"União das freguesias de Espadanedo, Edroso, Murçós e Soutelo Mourisco",PPV,0.56,1,040542
"União das freguesias de Espadanedo, Edroso, Murçós e Soutelo Mourisco",PTP,0.56,1,040542
"União das freguesias de Espadanedo, Edroso, Murçós e Soutelo Mourisco",B.E.,0,0,040542
"União das freguesias de Espadanedo, Edroso, Murçós e Soutelo Mourisco",PAN,0,0,040542
"União das freguesias de Espadanedo, Edroso, Murçós e Soutelo Mourisco",PNR,0,0,040542
"União das freguesias de Espadanedo, Edroso, Murçós e Soutelo Mourisco",POUS,0,0,040542
