freguesia,acronym,validVotesPercentage,votes,dicofre
União das freguesias de Cambra e Carvalhal de Vermilhas,PPD/PSD.CDS-PP,59.63,257,182413
União das freguesias de Cambra e Carvalhal de Vermilhas,PS,19.72,85,182413
União das freguesias de Cambra e Carvalhal de Vermilhas,MPT,6.5,28,182413
União das freguesias de Cambra e Carvalhal de Vermilhas,PCP-PEV,6.03,26,182413
União das freguesias de Cambra e Carvalhal de Vermilhas,PCTP/MRPP,1.86,8,182413
União das freguesias de Cambra e Carvalhal de Vermilhas,PND,1.62,7,182413
União das freguesias de Cambra e Carvalhal de Vermilhas,B.E.,1.16,5,182413
União das freguesias de Cambra e Carvalhal de Vermilhas,PAN,1.16,5,182413
União das freguesias de Cambra e Carvalhal de Vermilhas,PNR,1.16,5,182413
União das freguesias de Cambra e Carvalhal de Vermilhas,L,0.46,2,182413
União das freguesias de Cambra e Carvalhal de Vermilhas,MAS,0.23,1,182413
União das freguesias de Cambra e Carvalhal de Vermilhas,PPM,0.23,1,182413
União das freguesias de Cambra e Carvalhal de Vermilhas,PTP,0.23,1,182413
União das freguesias de Cambra e Carvalhal de Vermilhas,PDA,0,0,182413
União das freguesias de Cambra e Carvalhal de Vermilhas,POUS,0,0,182413
União das freguesias de Cambra e Carvalhal de Vermilhas,PPV,0,0,182413
