freguesia,acronym,validVotesPercentage,votes,dicofre
União das freguesias de Sernancelhe e Sarzeda,PPD/PSD.CDS-PP,56.09,364,181821
União das freguesias de Sernancelhe e Sarzeda,PS,28.97,188,181821
União das freguesias de Sernancelhe e Sarzeda,MPT,6.01,39,181821
União das freguesias de Sernancelhe e Sarzeda,PCP-PEV,2.16,14,181821
União das freguesias de Sernancelhe e Sarzeda,B.E.,2,13,181821
União das freguesias de Sernancelhe e Sarzeda,L,0.92,6,181821
União das freguesias de Sernancelhe e Sarzeda,PND,0.92,6,181821
União das freguesias de Sernancelhe e Sarzeda,PAN,0.77,5,181821
União das freguesias de Sernancelhe e Sarzeda,PTP,0.62,4,181821
União das freguesias de Sernancelhe e Sarzeda,POUS,0.46,3,181821
União das freguesias de Sernancelhe e Sarzeda,PPV,0.46,3,181821
União das freguesias de Sernancelhe e Sarzeda,PCTP/MRPP,0.31,2,181821
União das freguesias de Sernancelhe e Sarzeda,MAS,0.15,1,181821
União das freguesias de Sernancelhe e Sarzeda,PPM,0.15,1,181821
União das freguesias de Sernancelhe e Sarzeda,PDA,0,0,181821
União das freguesias de Sernancelhe e Sarzeda,PNR,0,0,181821
