freguesia,acronym,validVotesPercentage,votes,dicofre
"União das freguesias de Valbom (São Pedro), Passô e Valbom (São Martinho)",PPD/PSD.CDS-PP,60.57,169,031368
"União das freguesias de Valbom (São Pedro), Passô e Valbom (São Martinho)",PS,21.51,60,031368
"União das freguesias de Valbom (São Pedro), Passô e Valbom (São Martinho)",MPT,6.81,19,031368
"União das freguesias de Valbom (São Pedro), Passô e Valbom (São Martinho)",PCP-PEV,2.87,8,031368
"União das freguesias de Valbom (São Pedro), Passô e Valbom (São Martinho)",PND,2.87,8,031368
"União das freguesias de Valbom (São Pedro), Passô e Valbom (São Martinho)",MAS,1.43,4,031368
"União das freguesias de Valbom (São Pedro), Passô e Valbom (São Martinho)",L,0.72,2,031368
"União das freguesias de Valbom (São Pedro), Passô e Valbom (São Martinho)",PCTP/MRPP,0.72,2,031368
"União das freguesias de Valbom (São Pedro), Passô e Valbom (São Martinho)",PNR,0.72,2,031368
"União das freguesias de Valbom (São Pedro), Passô e Valbom (São Martinho)",PPM,0.72,2,031368
"União das freguesias de Valbom (São Pedro), Passô e Valbom (São Martinho)",PAN,0.36,1,031368
"União das freguesias de Valbom (São Pedro), Passô e Valbom (São Martinho)",PDA,0.36,1,031368
"União das freguesias de Valbom (São Pedro), Passô e Valbom (São Martinho)",PTP,0.36,1,031368
"União das freguesias de Valbom (São Pedro), Passô e Valbom (São Martinho)",B.E.,0,0,031368
"União das freguesias de Valbom (São Pedro), Passô e Valbom (São Martinho)",POUS,0,0,031368
"União das freguesias de Valbom (São Pedro), Passô e Valbom (São Martinho)",PPV,0,0,031368
