freguesia,acronym,validVotesPercentage,votes,dicofre
União das freguesias de São Julião e Silva,PPD/PSD.CDS-PP,54.94,89,160819
União das freguesias de São Julião e Silva,PS,24.69,40,160819
União das freguesias de São Julião e Silva,MPT,5.56,9,160819
União das freguesias de São Julião e Silva,PCP-PEV,3.7,6,160819
União das freguesias de São Julião e Silva,L,3.09,5,160819
União das freguesias de São Julião e Silva,PAN,2.47,4,160819
União das freguesias de São Julião e Silva,PCTP/MRPP,1.23,2,160819
União das freguesias de São Julião e Silva,PPM,1.23,2,160819
União das freguesias de São Julião e Silva,PTP,1.23,2,160819
União das freguesias de São Julião e Silva,B.E.,0.62,1,160819
União das freguesias de São Julião e Silva,PND,0.62,1,160819
União das freguesias de São Julião e Silva,PNR,0.62,1,160819
União das freguesias de São Julião e Silva,MAS,0,0,160819
União das freguesias de São Julião e Silva,PDA,0,0,160819
União das freguesias de São Julião e Silva,POUS,0,0,160819
União das freguesias de São Julião e Silva,PPV,0,0,160819
