freguesia,acronym,validVotesPercentage,votes,dicofre
"União das freguesias de Viatodos, Grimancelos, Minhotães e Monte de Fralães",PPD/PSD.CDS-PP,48.51,651,0302FG
"União das freguesias de Viatodos, Grimancelos, Minhotães e Monte de Fralães",PS,31.22,419,0302FG
"União das freguesias de Viatodos, Grimancelos, Minhotães e Monte de Fralães",MPT,6.86,92,0302FG
"União das freguesias de Viatodos, Grimancelos, Minhotães e Monte de Fralães",PCP-PEV,3.5,47,0302FG
"União das freguesias de Viatodos, Grimancelos, Minhotães e Monte de Fralães",B.E.,2.68,36,0302FG
"União das freguesias de Viatodos, Grimancelos, Minhotães e Monte de Fralães",L,1.42,19,0302FG
"União das freguesias de Viatodos, Grimancelos, Minhotães e Monte de Fralães",PND,1.04,14,0302FG
"União das freguesias de Viatodos, Grimancelos, Minhotães e Monte de Fralães",PPV,0.97,13,0302FG
"União das freguesias de Viatodos, Grimancelos, Minhotães e Monte de Fralães",PCTP/MRPP,0.89,12,0302FG
"União das freguesias de Viatodos, Grimancelos, Minhotães e Monte de Fralães",PPM,0.82,11,0302FG
"União das freguesias de Viatodos, Grimancelos, Minhotães e Monte de Fralães",PTP,0.67,9,0302FG
"União das freguesias de Viatodos, Grimancelos, Minhotães e Monte de Fralães",PAN,0.45,6,0302FG
"União das freguesias de Viatodos, Grimancelos, Minhotães e Monte de Fralães",PNR,0.45,6,0302FG
"União das freguesias de Viatodos, Grimancelos, Minhotães e Monte de Fralães",MAS,0.37,5,0302FG
"União das freguesias de Viatodos, Grimancelos, Minhotães e Monte de Fralães",PDA,0.07,1,0302FG
"União das freguesias de Viatodos, Grimancelos, Minhotães e Monte de Fralães",POUS,0.07,1,0302FG
