freguesia,acronym,validVotesPercentage,votes,dicofre
União das freguesias de Águeda e Borralha,PS,36.49,1301,010121
União das freguesias de Águeda e Borralha,PPD/PSD.CDS-PP,35.04,1249,010121
União das freguesias de Águeda e Borralha,MPT,9.12,325,010121
União das freguesias de Águeda e Borralha,PCP-PEV,8.02,286,010121
União das freguesias de Águeda e Borralha,B.E.,3.87,138,010121
União das freguesias de Águeda e Borralha,L,2.05,73,010121
União das freguesias de Águeda e Borralha,PCTP/MRPP,1.4,50,010121
União das freguesias de Águeda e Borralha,PAN,1.23,44,010121
União das freguesias de Águeda e Borralha,PPM,0.59,21,010121
União das freguesias de Águeda e Borralha,PNR,0.56,20,010121
União das freguesias de Águeda e Borralha,PND,0.5,18,010121
União das freguesias de Águeda e Borralha,PPV,0.5,18,010121
União das freguesias de Águeda e Borralha,PTP,0.36,13,010121
União das freguesias de Águeda e Borralha,MAS,0.22,8,010121
União das freguesias de Águeda e Borralha,POUS,0.03,1,010121
União das freguesias de Águeda e Borralha,PDA,0,0,010121
