freguesia,acronym,validVotesPercentage,votes,dicofre
União das freguesias de Curopos e Vale de Janeiro,PS,47.06,56,041236
União das freguesias de Curopos e Vale de Janeiro,PPD/PSD.CDS-PP,35.29,42,041236
União das freguesias de Curopos e Vale de Janeiro,PCP-PEV,4.2,5,041236
União das freguesias de Curopos e Vale de Janeiro,B.E.,3.36,4,041236
União das freguesias de Curopos e Vale de Janeiro,MPT,3.36,4,041236
União das freguesias de Curopos e Vale de Janeiro,PAN,1.68,2,041236
União das freguesias de Curopos e Vale de Janeiro,PCTP/MRPP,0.84,1,041236
União das freguesias de Curopos e Vale de Janeiro,PDA,0.84,1,041236
União das freguesias de Curopos e Vale de Janeiro,PND,0.84,1,041236
União das freguesias de Curopos e Vale de Janeiro,POUS,0.84,1,041236
União das freguesias de Curopos e Vale de Janeiro,PPM,0.84,1,041236
União das freguesias de Curopos e Vale de Janeiro,PPV,0.84,1,041236
União das freguesias de Curopos e Vale de Janeiro,L,0,0,041236
União das freguesias de Curopos e Vale de Janeiro,MAS,0,0,041236
União das freguesias de Curopos e Vale de Janeiro,PNR,0,0,041236
União das freguesias de Curopos e Vale de Janeiro,PTP,0,0,041236
