freguesia,acronym,validVotesPercentage,votes,dicofre
União das freguesias de Vila Chã (São João Baptista e Santiago),PPD/PSD.CDS-PP,47.24,77,160630
União das freguesias de Vila Chã (São João Baptista e Santiago),PS,39.26,64,160630
União das freguesias de Vila Chã (São João Baptista e Santiago),MPT,6.13,10,160630
União das freguesias de Vila Chã (São João Baptista e Santiago),PAN,2.45,4,160630
União das freguesias de Vila Chã (São João Baptista e Santiago),PCP-PEV,2.45,4,160630
União das freguesias de Vila Chã (São João Baptista e Santiago),B.E.,0.61,1,160630
União das freguesias de Vila Chã (São João Baptista e Santiago),PCTP/MRPP,0.61,1,160630
União das freguesias de Vila Chã (São João Baptista e Santiago),PND,0.61,1,160630
União das freguesias de Vila Chã (São João Baptista e Santiago),PTP,0.61,1,160630
União das freguesias de Vila Chã (São João Baptista e Santiago),L,0,0,160630
União das freguesias de Vila Chã (São João Baptista e Santiago),MAS,0,0,160630
União das freguesias de Vila Chã (São João Baptista e Santiago),PDA,0,0,160630
União das freguesias de Vila Chã (São João Baptista e Santiago),PNR,0,0,160630
União das freguesias de Vila Chã (São João Baptista e Santiago),POUS,0,0,160630
União das freguesias de Vila Chã (São João Baptista e Santiago),PPM,0,0,160630
União das freguesias de Vila Chã (São João Baptista e Santiago),PPV,0,0,160630
