freguesia,acronym,validVotesPercentage,votes,dicofre
União das freguesias de Venda do Pinheiro e Santo Estêvão das Galés,PS,28.99,761,110922
União das freguesias de Venda do Pinheiro e Santo Estêvão das Galés,PPD/PSD.CDS-PP,28.3,743,110922
União das freguesias de Venda do Pinheiro e Santo Estêvão das Galés,PCP-PEV,14.67,385,110922
União das freguesias de Venda do Pinheiro e Santo Estêvão das Galés,MPT,9.94,261,110922
União das freguesias de Venda do Pinheiro e Santo Estêvão das Galés,B.E.,5.79,152,110922
União das freguesias de Venda do Pinheiro e Santo Estêvão das Galés,L,3.43,90,110922
União das freguesias de Venda do Pinheiro e Santo Estêvão das Galés,PAN,3.09,81,110922
União das freguesias de Venda do Pinheiro e Santo Estêvão das Galés,PCTP/MRPP,1.94,51,110922
União das freguesias de Venda do Pinheiro e Santo Estêvão das Galés,PPM,0.95,25,110922
União das freguesias de Venda do Pinheiro e Santo Estêvão das Galés,PNR,0.8,21,110922
União das freguesias de Venda do Pinheiro e Santo Estêvão das Galés,PTP,0.57,15,110922
União das freguesias de Venda do Pinheiro e Santo Estêvão das Galés,PND,0.53,14,110922
União das freguesias de Venda do Pinheiro e Santo Estêvão das Galés,MAS,0.5,13,110922
União das freguesias de Venda do Pinheiro e Santo Estêvão das Galés,PPV,0.3,8,110922
União das freguesias de Venda do Pinheiro e Santo Estêvão das Galés,PDA,0.15,4,110922
União das freguesias de Venda do Pinheiro e Santo Estêvão das Galés,POUS,0.04,1,110922
