freguesia,acronym,validVotesPercentage,votes,dicofre
União das freguesias de Castrelos e Carrazedo,PPD/PSD.CDS-PP,48.53,33,040251
União das freguesias de Castrelos e Carrazedo,PS,36.76,25,040251
União das freguesias de Castrelos e Carrazedo,L,2.94,2,040251
União das freguesias de Castrelos e Carrazedo,PAN,2.94,2,040251
União das freguesias de Castrelos e Carrazedo,PCP-PEV,2.94,2,040251
União das freguesias de Castrelos e Carrazedo,PND,2.94,2,040251
União das freguesias de Castrelos e Carrazedo,MPT,1.47,1,040251
União das freguesias de Castrelos e Carrazedo,PCTP/MRPP,1.47,1,040251
União das freguesias de Castrelos e Carrazedo,B.E.,0,0,040251
União das freguesias de Castrelos e Carrazedo,MAS,0,0,040251
União das freguesias de Castrelos e Carrazedo,PDA,0,0,040251
União das freguesias de Castrelos e Carrazedo,PNR,0,0,040251
União das freguesias de Castrelos e Carrazedo,POUS,0,0,040251
União das freguesias de Castrelos e Carrazedo,PPM,0,0,040251
União das freguesias de Castrelos e Carrazedo,PPV,0,0,040251
União das freguesias de Castrelos e Carrazedo,PTP,0,0,040251
