freguesia,acronym,validVotesPercentage,votes,dicofre
"União das freguesias de Pêra Velha, Aldeia de Nacomba e Ariz",PPD/PSD.CDS-PP,55.31,99,180722
"União das freguesias de Pêra Velha, Aldeia de Nacomba e Ariz",PS,22.91,41,180722
"União das freguesias de Pêra Velha, Aldeia de Nacomba e Ariz",MPT,10.06,18,180722
"União das freguesias de Pêra Velha, Aldeia de Nacomba e Ariz",PCP-PEV,3.35,6,180722
"União das freguesias de Pêra Velha, Aldeia de Nacomba e Ariz",L,2.79,5,180722
"União das freguesias de Pêra Velha, Aldeia de Nacomba e Ariz",B.E.,2.23,4,180722
"União das freguesias de Pêra Velha, Aldeia de Nacomba e Ariz",PNR,1.12,2,180722
"União das freguesias de Pêra Velha, Aldeia de Nacomba e Ariz",MAS,0.56,1,180722
"União das freguesias de Pêra Velha, Aldeia de Nacomba e Ariz",PAN,0.56,1,180722
"União das freguesias de Pêra Velha, Aldeia de Nacomba e Ariz",PCTP/MRPP,0.56,1,180722
"União das freguesias de Pêra Velha, Aldeia de Nacomba e Ariz",PPM,0.56,1,180722
"União das freguesias de Pêra Velha, Aldeia de Nacomba e Ariz",PDA,0,0,180722
"União das freguesias de Pêra Velha, Aldeia de Nacomba e Ariz",PND,0,0,180722
"União das freguesias de Pêra Velha, Aldeia de Nacomba e Ariz",POUS,0,0,180722
"União das freguesias de Pêra Velha, Aldeia de Nacomba e Ariz",PPV,0,0,180722
"União das freguesias de Pêra Velha, Aldeia de Nacomba e Ariz",PTP,0,0,180722
