freguesia,acronym,validVotesPercentage,votes,dicofre
União das freguesias de Sepins e Bolho,PPD/PSD.CDS-PP,43.26,228,060223
União das freguesias de Sepins e Bolho,PS,35.29,186,060223
União das freguesias de Sepins e Bolho,MPT,6.07,32,060223
União das freguesias de Sepins e Bolho,PCP-PEV,3.8,20,060223
União das freguesias de Sepins e Bolho,B.E.,3.04,16,060223
União das freguesias de Sepins e Bolho,PND,1.9,10,060223
União das freguesias de Sepins e Bolho,PCTP/MRPP,1.52,8,060223
União das freguesias de Sepins e Bolho,PAN,1.33,7,060223
União das freguesias de Sepins e Bolho,L,1.14,6,060223
União das freguesias de Sepins e Bolho,PNR,0.76,4,060223
União das freguesias de Sepins e Bolho,PTP,0.76,4,060223
União das freguesias de Sepins e Bolho,PPV,0.57,3,060223
União das freguesias de Sepins e Bolho,PPM,0.38,2,060223
União das freguesias de Sepins e Bolho,MAS,0.19,1,060223
União das freguesias de Sepins e Bolho,PDA,0,0,060223
União das freguesias de Sepins e Bolho,POUS,0,0,060223
