freguesia,acronym,validVotesPercentage,votes,dicofre
"União das freguesias de A Ver-o-Mar, Amorim e Terroso",PPD/PSD.CDS-PP,46.48,1532,131313
"União das freguesias de A Ver-o-Mar, Amorim e Terroso",PS,29.07,958,131313
"União das freguesias de A Ver-o-Mar, Amorim e Terroso",MPT,8.04,265,131313
"União das freguesias de A Ver-o-Mar, Amorim e Terroso",PCP-PEV,4.88,161,131313
"União das freguesias de A Ver-o-Mar, Amorim e Terroso",B.E.,3.37,111,131313
"União das freguesias de A Ver-o-Mar, Amorim e Terroso",L,1.94,64,131313
"União das freguesias de A Ver-o-Mar, Amorim e Terroso",PAN,1.3,43,131313
"União das freguesias de A Ver-o-Mar, Amorim e Terroso",PCTP/MRPP,1.21,40,131313
"União das freguesias de A Ver-o-Mar, Amorim e Terroso",PND,0.73,24,131313
"União das freguesias de A Ver-o-Mar, Amorim e Terroso",PTP,0.61,20,131313
"União das freguesias de A Ver-o-Mar, Amorim e Terroso",MAS,0.55,18,131313
"União das freguesias de A Ver-o-Mar, Amorim e Terroso",PPM,0.52,17,131313
"União das freguesias de A Ver-o-Mar, Amorim e Terroso",PNR,0.46,15,131313
"União das freguesias de A Ver-o-Mar, Amorim e Terroso",PPV,0.36,12,131313
"União das freguesias de A Ver-o-Mar, Amorim e Terroso",PDA,0.3,10,131313
"União das freguesias de A Ver-o-Mar, Amorim e Terroso",POUS,0.18,6,131313
