freguesia,acronym,validVotesPercentage,votes,dicofre
União das freguesias de Remondes e Soutelo,PPD/PSD.CDS-PP,56.29,85,040831
União das freguesias de Remondes e Soutelo,PS,19.21,29,040831
União das freguesias de Remondes e Soutelo,MPT,7.28,11,040831
União das freguesias de Remondes e Soutelo,PCP-PEV,5.3,8,040831
União das freguesias de Remondes e Soutelo,B.E.,2.65,4,040831
União das freguesias de Remondes e Soutelo,L,1.99,3,040831
União das freguesias de Remondes e Soutelo,PTP,1.99,3,040831
União das freguesias de Remondes e Soutelo,MAS,1.32,2,040831
União das freguesias de Remondes e Soutelo,POUS,1.32,2,040831
União das freguesias de Remondes e Soutelo,PPM,1.32,2,040831
União das freguesias de Remondes e Soutelo,PND,0.66,1,040831
União das freguesias de Remondes e Soutelo,PPV,0.66,1,040831
União das freguesias de Remondes e Soutelo,PAN,0,0,040831
União das freguesias de Remondes e Soutelo,PCTP/MRPP,0,0,040831
União das freguesias de Remondes e Soutelo,PDA,0,0,040831
União das freguesias de Remondes e Soutelo,PNR,0,0,040831
