freguesia,acronym,validVotesPercentage,votes,dicofre
União das freguesias de Anreade e São Romão de Aregos,PS,54.51,284,181316
União das freguesias de Anreade e São Romão de Aregos,PPD/PSD.CDS-PP,32.82,171,181316
União das freguesias de Anreade e São Romão de Aregos,MPT,6.91,36,181316
União das freguesias de Anreade e São Romão de Aregos,B.E.,1.73,9,181316
União das freguesias de Anreade e São Romão de Aregos,PCP-PEV,1.34,7,181316
União das freguesias de Anreade e São Romão de Aregos,L,0.58,3,181316
União das freguesias de Anreade e São Romão de Aregos,PND,0.58,3,181316
União das freguesias de Anreade e São Romão de Aregos,PAN,0.38,2,181316
União das freguesias de Anreade e São Romão de Aregos,PCTP/MRPP,0.38,2,181316
União das freguesias de Anreade e São Romão de Aregos,MAS,0.19,1,181316
União das freguesias de Anreade e São Romão de Aregos,POUS,0.19,1,181316
União das freguesias de Anreade e São Romão de Aregos,PPM,0.19,1,181316
União das freguesias de Anreade e São Romão de Aregos,PTP,0.19,1,181316
União das freguesias de Anreade e São Romão de Aregos,PDA,0,0,181316
União das freguesias de Anreade e São Romão de Aregos,PNR,0,0,181316
União das freguesias de Anreade e São Romão de Aregos,PPV,0,0,181316
