freguesia,acronym,validVotesPercentage,votes,dicofre
União das freguesias de Santa Catarina da Serra e Chainça,PPD/PSD.CDS-PP,70.89,1288,100938
União das freguesias de Santa Catarina da Serra e Chainça,PS,11.89,216,100938
União das freguesias de Santa Catarina da Serra e Chainça,MPT,5.5,100,100938
União das freguesias de Santa Catarina da Serra e Chainça,B.E.,2.04,37,100938
União das freguesias de Santa Catarina da Serra e Chainça,PCP-PEV,1.6,29,100938
União das freguesias de Santa Catarina da Serra e Chainça,L,1.49,27,100938
União das freguesias de Santa Catarina da Serra e Chainça,PAN,1.43,26,100938
União das freguesias de Santa Catarina da Serra e Chainça,PND,1.16,21,100938
União das freguesias de Santa Catarina da Serra e Chainça,PTP,1.05,19,100938
União das freguesias de Santa Catarina da Serra e Chainça,PCTP/MRPP,0.83,15,100938
União das freguesias de Santa Catarina da Serra e Chainça,MAS,0.72,13,100938
União das freguesias de Santa Catarina da Serra e Chainça,PPV,0.5,9,100938
União das freguesias de Santa Catarina da Serra e Chainça,PNR,0.39,7,100938
União das freguesias de Santa Catarina da Serra e Chainça,PPM,0.39,7,100938
União das freguesias de Santa Catarina da Serra e Chainça,PDA,0.17,3,100938
União das freguesias de Santa Catarina da Serra e Chainça,POUS,0,0,100938
