freguesia,acronym,validVotesPercentage,votes,dicofre
"União das freguesias de São Pedro do Sul, Várzea e Baiões",PS,38.88,645,181623
"União das freguesias de São Pedro do Sul, Várzea e Baiões",PPD/PSD.CDS-PP,30.44,505,181623
"União das freguesias de São Pedro do Sul, Várzea e Baiões",MPT,9.64,160,181623
"União das freguesias de São Pedro do Sul, Várzea e Baiões",PCP-PEV,7.72,128,181623
"União das freguesias de São Pedro do Sul, Várzea e Baiões",B.E.,4.82,80,181623
"União das freguesias de São Pedro do Sul, Várzea e Baiões",L,2.59,43,181623
"União das freguesias de São Pedro do Sul, Várzea e Baiões",PCTP/MRPP,1.57,26,181623
"União das freguesias de São Pedro do Sul, Várzea e Baiões",PND,0.96,16,181623
"União das freguesias de São Pedro do Sul, Várzea e Baiões",PAN,0.9,15,181623
"União das freguesias de São Pedro do Sul, Várzea e Baiões",PPM,0.6,10,181623
"União das freguesias de São Pedro do Sul, Várzea e Baiões",PTP,0.54,9,181623
"União das freguesias de São Pedro do Sul, Várzea e Baiões",PNR,0.48,8,181623
"União das freguesias de São Pedro do Sul, Várzea e Baiões",MAS,0.42,7,181623
"União das freguesias de São Pedro do Sul, Várzea e Baiões",PPV,0.3,5,181623
"União das freguesias de São Pedro do Sul, Várzea e Baiões",PDA,0.06,1,181623
"União das freguesias de São Pedro do Sul, Várzea e Baiões",POUS,0.06,1,181623
