freguesia,acronym,validVotesPercentage,votes,dicofre
União das freguesias de Silva e Águas Vivas,PPD/PSD.CDS-PP,54.6,95,040621
União das freguesias de Silva e Águas Vivas,PS,28.74,50,040621
União das freguesias de Silva e Águas Vivas,MPT,4.02,7,040621
União das freguesias de Silva e Águas Vivas,PCP-PEV,2.87,5,040621
União das freguesias de Silva e Águas Vivas,B.E.,1.72,3,040621
União das freguesias de Silva e Águas Vivas,PTP,1.72,3,040621
União das freguesias de Silva e Águas Vivas,L,1.15,2,040621
União das freguesias de Silva e Águas Vivas,MAS,1.15,2,040621
União das freguesias de Silva e Águas Vivas,PDA,1.15,2,040621
União das freguesias de Silva e Águas Vivas,PPM,1.15,2,040621
União das freguesias de Silva e Águas Vivas,PAN,0.57,1,040621
União das freguesias de Silva e Águas Vivas,PNR,0.57,1,040621
União das freguesias de Silva e Águas Vivas,POUS,0.57,1,040621
União das freguesias de Silva e Águas Vivas,PCTP/MRPP,0,0,040621
União das freguesias de Silva e Águas Vivas,PND,0,0,040621
União das freguesias de Silva e Águas Vivas,PPV,0,0,040621
