freguesia,acronym,validVotesPercentage,votes,dicofre
União das freguesias de Foz do Sousa e Covelo,PS,40.85,993,130414
União das freguesias de Foz do Sousa e Covelo,PPD/PSD.CDS-PP,29.95,728,130414
União das freguesias de Foz do Sousa e Covelo,PCP-PEV,9.5,231,130414
União das freguesias de Foz do Sousa e Covelo,MPT,8.23,200,130414
União das freguesias de Foz do Sousa e Covelo,B.E.,3.87,94,130414
União das freguesias de Foz do Sousa e Covelo,PCTP/MRPP,1.56,38,130414
União das freguesias de Foz do Sousa e Covelo,PAN,1.48,36,130414
União das freguesias de Foz do Sousa e Covelo,L,1.44,35,130414
União das freguesias de Foz do Sousa e Covelo,PNR,0.7,17,130414
União das freguesias de Foz do Sousa e Covelo,PTP,0.62,15,130414
União das freguesias de Foz do Sousa e Covelo,PND,0.53,13,130414
União das freguesias de Foz do Sousa e Covelo,PPM,0.53,13,130414
União das freguesias de Foz do Sousa e Covelo,MAS,0.21,5,130414
União das freguesias de Foz do Sousa e Covelo,PDA,0.21,5,130414
União das freguesias de Foz do Sousa e Covelo,POUS,0.21,5,130414
União das freguesias de Foz do Sousa e Covelo,PPV,0.12,3,130414
