freguesia,acronym,validVotesPercentage,votes,dicofre
União das freguesias de Sande São Lourenço e Balazar,PS,42.42,193,030886
União das freguesias de Sande São Lourenço e Balazar,PPD/PSD.CDS-PP,39.12,178,030886
União das freguesias de Sande São Lourenço e Balazar,MPT,5.93,27,030886
União das freguesias de Sande São Lourenço e Balazar,PCP-PEV,4.4,20,030886
União das freguesias de Sande São Lourenço e Balazar,B.E.,1.98,9,030886
União das freguesias de Sande São Lourenço e Balazar,PCTP/MRPP,1.76,8,030886
União das freguesias de Sande São Lourenço e Balazar,PND,1.54,7,030886
União das freguesias de Sande São Lourenço e Balazar,PAN,1.1,5,030886
União das freguesias de Sande São Lourenço e Balazar,PPM,0.88,4,030886
União das freguesias de Sande São Lourenço e Balazar,L,0.44,2,030886
União das freguesias de Sande São Lourenço e Balazar,PTP,0.44,2,030886
União das freguesias de Sande São Lourenço e Balazar,MAS,0,0,030886
União das freguesias de Sande São Lourenço e Balazar,PDA,0,0,030886
União das freguesias de Sande São Lourenço e Balazar,PNR,0,0,030886
União das freguesias de Sande São Lourenço e Balazar,POUS,0,0,030886
União das freguesias de Sande São Lourenço e Balazar,PPV,0,0,030886
