freguesia,acronym,validVotesPercentage,votes,dicofre
União das freguesias de Rio Mau e Arcos,PPD/PSD.CDS-PP,51.36,434,131635
União das freguesias de Rio Mau e Arcos,PS,29.94,253,131635
União das freguesias de Rio Mau e Arcos,MPT,5.56,47,131635
União das freguesias de Rio Mau e Arcos,PCP-PEV,3.91,33,131635
União das freguesias de Rio Mau e Arcos,B.E.,2.72,23,131635
União das freguesias de Rio Mau e Arcos,PCTP/MRPP,1.66,14,131635
União das freguesias de Rio Mau e Arcos,PND,1.07,9,131635
União das freguesias de Rio Mau e Arcos,L,0.95,8,131635
União das freguesias de Rio Mau e Arcos,PAN,0.71,6,131635
União das freguesias de Rio Mau e Arcos,PPM,0.59,5,131635
União das freguesias de Rio Mau e Arcos,PPV,0.47,4,131635
União das freguesias de Rio Mau e Arcos,MAS,0.36,3,131635
União das freguesias de Rio Mau e Arcos,PDA,0.24,2,131635
União das freguesias de Rio Mau e Arcos,PTP,0.24,2,131635
União das freguesias de Rio Mau e Arcos,PNR,0.12,1,131635
União das freguesias de Rio Mau e Arcos,POUS,0.12,1,131635
