freguesia,acronym,validVotesPercentage,votes,dicofre
"União das freguesias de Ardegão, Arnozela e Seidões",PPD/PSD.CDS-PP,40.69,153,030740
"União das freguesias de Ardegão, Arnozela e Seidões",PS,39.1,147,030740
"União das freguesias de Ardegão, Arnozela e Seidões",MPT,10.9,41,030740
"União das freguesias de Ardegão, Arnozela e Seidões",PCP-PEV,2.66,10,030740
"União das freguesias de Ardegão, Arnozela e Seidões",PCTP/MRPP,1.6,6,030740
"União das freguesias de Ardegão, Arnozela e Seidões",PTP,1.06,4,030740
"União das freguesias de Ardegão, Arnozela e Seidões",PND,0.8,3,030740
"União das freguesias de Ardegão, Arnozela e Seidões",PNR,0.8,3,030740
"União das freguesias de Ardegão, Arnozela e Seidões",B.E.,0.53,2,030740
"União das freguesias de Ardegão, Arnozela e Seidões",PAN,0.53,2,030740
"União das freguesias de Ardegão, Arnozela e Seidões",POUS,0.53,2,030740
"União das freguesias de Ardegão, Arnozela e Seidões",MAS,0.27,1,030740
"União das freguesias de Ardegão, Arnozela e Seidões",PDA,0.27,1,030740
"União das freguesias de Ardegão, Arnozela e Seidões",PPM,0.27,1,030740
"União das freguesias de Ardegão, Arnozela e Seidões",L,0,0,030740
"União das freguesias de Ardegão, Arnozela e Seidões",PPV,0,0,030740
