freguesia,acronym,validVotesPercentage,votes,dicofre
União das freguesias de Paredes de Coura e Resende,PS,48.21,243,160526
União das freguesias de Paredes de Coura e Resende,PPD/PSD.CDS-PP,17.06,86,160526
União das freguesias de Paredes de Coura e Resende,PCP-PEV,12.9,65,160526
União das freguesias de Paredes de Coura e Resende,MPT,7.74,39,160526
União das freguesias de Paredes de Coura e Resende,B.E.,3.17,16,160526
União das freguesias de Paredes de Coura e Resende,L,2.58,13,160526
União das freguesias de Paredes de Coura e Resende,PAN,2.58,13,160526
União das freguesias de Paredes de Coura e Resende,PCTP/MRPP,2.58,13,160526
União das freguesias de Paredes de Coura e Resende,PND,0.6,3,160526
União das freguesias de Paredes de Coura e Resende,PNR,0.6,3,160526
União das freguesias de Paredes de Coura e Resende,PTP,0.6,3,160526
União das freguesias de Paredes de Coura e Resende,MAS,0.4,2,160526
União das freguesias de Paredes de Coura e Resende,PPM,0.4,2,160526
União das freguesias de Paredes de Coura e Resende,PDA,0.2,1,160526
União das freguesias de Paredes de Coura e Resende,POUS,0.2,1,160526
União das freguesias de Paredes de Coura e Resende,PPV,0.2,1,160526
