freguesia,acronym,validVotesPercentage,votes,dicofre
União das freguesias de Melo e Nabais,PS,40.14,112,090626
União das freguesias de Melo e Nabais,PPD/PSD.CDS-PP,34.77,97,090626
União das freguesias de Melo e Nabais,MPT,7.89,22,090626
União das freguesias de Melo e Nabais,PCP-PEV,5.38,15,090626
União das freguesias de Melo e Nabais,B.E.,3.23,9,090626
União das freguesias de Melo e Nabais,PTP,1.79,5,090626
União das freguesias de Melo e Nabais,L,1.08,3,090626
União das freguesias de Melo e Nabais,PAN,1.08,3,090626
União das freguesias de Melo e Nabais,PCTP/MRPP,1.08,3,090626
União das freguesias de Melo e Nabais,PND,1.08,3,090626
União das freguesias de Melo e Nabais,PPM,1.08,3,090626
União das freguesias de Melo e Nabais,PNR,0.72,2,090626
União das freguesias de Melo e Nabais,MAS,0.36,1,090626
União das freguesias de Melo e Nabais,PPV,0.36,1,090626
União das freguesias de Melo e Nabais,PDA,0,0,090626
União das freguesias de Melo e Nabais,POUS,0,0,090626
