freguesia,acronym,validVotesPercentage,votes,dicofre
União das freguesias de São Facundo e Vale de Mós,PS,52.25,313,140123
União das freguesias de São Facundo e Vale de Mós,PCP-PEV,18.36,110,140123
União das freguesias de São Facundo e Vale de Mós,PPD/PSD.CDS-PP,10.35,62,140123
União das freguesias de São Facundo e Vale de Mós,B.E.,7.51,45,140123
União das freguesias de São Facundo e Vale de Mós,MPT,4.17,25,140123
União das freguesias de São Facundo e Vale de Mós,PCTP/MRPP,2.17,13,140123
União das freguesias de São Facundo e Vale de Mós,MAS,1,6,140123
União das freguesias de São Facundo e Vale de Mós,PPM,1,6,140123
União das freguesias de São Facundo e Vale de Mós,PNR,0.83,5,140123
União das freguesias de São Facundo e Vale de Mós,L,0.5,3,140123
União das freguesias de São Facundo e Vale de Mós,PAN,0.5,3,140123
União das freguesias de São Facundo e Vale de Mós,POUS,0.5,3,140123
União das freguesias de São Facundo e Vale de Mós,PTP,0.5,3,140123
União das freguesias de São Facundo e Vale de Mós,PDA,0.17,1,140123
União das freguesias de São Facundo e Vale de Mós,PND,0.17,1,140123
União das freguesias de São Facundo e Vale de Mós,PPV,0,0,140123
