freguesia,acronym,validVotesPercentage,votes,dicofre
"União das freguesias de Pedreira, Rande e Sernande",PS,40.87,374,130336
"União das freguesias de Pedreira, Rande e Sernande",PPD/PSD.CDS-PP,25.9,237,130336
"União das freguesias de Pedreira, Rande e Sernande",PCP-PEV,9.95,91,130336
"União das freguesias de Pedreira, Rande e Sernande",MPT,9.18,84,130336
"União das freguesias de Pedreira, Rande e Sernande",B.E.,3.72,34,130336
"União das freguesias de Pedreira, Rande e Sernande",PCTP/MRPP,2.95,27,130336
"União das freguesias de Pedreira, Rande e Sernande",PAN,1.64,15,130336
"União das freguesias de Pedreira, Rande e Sernande",PND,1.31,12,130336
"União das freguesias de Pedreira, Rande e Sernande",PTP,1.2,11,130336
"União das freguesias de Pedreira, Rande e Sernande",L,0.98,9,130336
"União das freguesias de Pedreira, Rande e Sernande",PPM,0.77,7,130336
"União das freguesias de Pedreira, Rande e Sernande",PNR,0.44,4,130336
"União das freguesias de Pedreira, Rande e Sernande",PPV,0.44,4,130336
"União das freguesias de Pedreira, Rande e Sernande",PDA,0.33,3,130336
"União das freguesias de Pedreira, Rande e Sernande",POUS,0.22,2,130336
"União das freguesias de Pedreira, Rande e Sernande",MAS,0.11,1,130336
