freguesia,acronym,validVotesPercentage,votes,dicofre
União das freguesias de Alvora e Loureda,PPD/PSD.CDS-PP,59.78,110,160152
União das freguesias de Alvora e Loureda,PS,20.11,37,160152
União das freguesias de Alvora e Loureda,MPT,4.35,8,160152
União das freguesias de Alvora e Loureda,PCP-PEV,4.35,8,160152
União das freguesias de Alvora e Loureda,PCTP/MRPP,3.26,6,160152
União das freguesias de Alvora e Loureda,PAN,2.72,5,160152
União das freguesias de Alvora e Loureda,B.E.,1.63,3,160152
União das freguesias de Alvora e Loureda,L,1.63,3,160152
União das freguesias de Alvora e Loureda,MAS,0.54,1,160152
União das freguesias de Alvora e Loureda,PPM,0.54,1,160152
União das freguesias de Alvora e Loureda,PPV,0.54,1,160152
União das freguesias de Alvora e Loureda,PTP,0.54,1,160152
União das freguesias de Alvora e Loureda,PDA,0,0,160152
União das freguesias de Alvora e Loureda,PND,0,0,160152
União das freguesias de Alvora e Loureda,PNR,0,0,160152
União das freguesias de Alvora e Loureda,POUS,0,0,160152
