freguesia,acronym,validVotesPercentage,votes,dicofre
"União das freguesias de Torres Novas (São Pedro), Lapas e Ribeira Branca",PS,34.12,920,141921
"União das freguesias de Torres Novas (São Pedro), Lapas e Ribeira Branca",PCP-PEV,20.47,552,141921
"União das freguesias de Torres Novas (São Pedro), Lapas e Ribeira Branca",PPD/PSD.CDS-PP,19.18,517,141921
"União das freguesias de Torres Novas (São Pedro), Lapas e Ribeira Branca",B.E.,8.9,240,141921
"União das freguesias de Torres Novas (São Pedro), Lapas e Ribeira Branca",MPT,8.05,217,141921
"União das freguesias de Torres Novas (São Pedro), Lapas e Ribeira Branca",PCTP/MRPP,2.23,60,141921
"União das freguesias de Torres Novas (São Pedro), Lapas e Ribeira Branca",L,2.15,58,141921
"União das freguesias de Torres Novas (São Pedro), Lapas e Ribeira Branca",PAN,1.67,45,141921
"União das freguesias de Torres Novas (São Pedro), Lapas e Ribeira Branca",PPM,0.74,20,141921
"União das freguesias de Torres Novas (São Pedro), Lapas e Ribeira Branca",PNR,0.56,15,141921
"União das freguesias de Torres Novas (São Pedro), Lapas e Ribeira Branca",PND,0.52,14,141921
"União das freguesias de Torres Novas (São Pedro), Lapas e Ribeira Branca",PTP,0.52,14,141921
"União das freguesias de Torres Novas (São Pedro), Lapas e Ribeira Branca",MAS,0.37,10,141921
"União das freguesias de Torres Novas (São Pedro), Lapas e Ribeira Branca",PPV,0.26,7,141921
"União das freguesias de Torres Novas (São Pedro), Lapas e Ribeira Branca",PDA,0.19,5,141921
"União das freguesias de Torres Novas (São Pedro), Lapas e Ribeira Branca",POUS,0.07,2,141921
