freguesia,acronym,validVotesPercentage,votes,dicofre
"União das freguesias das Eiras, São Julião de Montenegro e Cela",PPD/PSD.CDS-PP,58.31,172,170355
"União das freguesias das Eiras, São Julião de Montenegro e Cela",PS,24.75,73,170355
"União das freguesias das Eiras, São Julião de Montenegro e Cela",MPT,4.07,12,170355
"União das freguesias das Eiras, São Julião de Montenegro e Cela",B.E.,2.37,7,170355
"União das freguesias das Eiras, São Julião de Montenegro e Cela",L,2.37,7,170355
"União das freguesias das Eiras, São Julião de Montenegro e Cela",PCP-PEV,1.69,5,170355
"União das freguesias das Eiras, São Julião de Montenegro e Cela",PPV,1.69,5,170355
"União das freguesias das Eiras, São Julião de Montenegro e Cela",PND,1.36,4,170355
"União das freguesias das Eiras, São Julião de Montenegro e Cela",PTP,1.36,4,170355
"União das freguesias das Eiras, São Julião de Montenegro e Cela",PCTP/MRPP,0.68,2,170355
"União das freguesias das Eiras, São Julião de Montenegro e Cela",MAS,0.34,1,170355
"União das freguesias das Eiras, São Julião de Montenegro e Cela",PAN,0.34,1,170355
"União das freguesias das Eiras, São Julião de Montenegro e Cela",PNR,0.34,1,170355
"União das freguesias das Eiras, São Julião de Montenegro e Cela",PPM,0.34,1,170355
"União das freguesias das Eiras, São Julião de Montenegro e Cela",PDA,0,0,170355
"União das freguesias das Eiras, São Julião de Montenegro e Cela",POUS,0,0,170355
