freguesia,acronym,validVotesPercentage,votes,dicofre
"União das freguesias de Mizarela, Pêro Soares e Vila Soeiro",PS,49.52,52,090763
"União das freguesias de Mizarela, Pêro Soares e Vila Soeiro",PPD/PSD.CDS-PP,20.95,22,090763
"União das freguesias de Mizarela, Pêro Soares e Vila Soeiro",MPT,9.52,10,090763
"União das freguesias de Mizarela, Pêro Soares e Vila Soeiro",PCP-PEV,5.71,6,090763
"União das freguesias de Mizarela, Pêro Soares e Vila Soeiro",B.E.,3.81,4,090763
"União das freguesias de Mizarela, Pêro Soares e Vila Soeiro",PND,3.81,4,090763
"União das freguesias de Mizarela, Pêro Soares e Vila Soeiro",PAN,1.9,2,090763
"União das freguesias de Mizarela, Pêro Soares e Vila Soeiro",PCTP/MRPP,1.9,2,090763
"União das freguesias de Mizarela, Pêro Soares e Vila Soeiro",L,0.95,1,090763
"União das freguesias de Mizarela, Pêro Soares e Vila Soeiro",PPM,0.95,1,090763
"União das freguesias de Mizarela, Pêro Soares e Vila Soeiro",PPV,0.95,1,090763
"União das freguesias de Mizarela, Pêro Soares e Vila Soeiro",MAS,0,0,090763
"União das freguesias de Mizarela, Pêro Soares e Vila Soeiro",PDA,0,0,090763
"União das freguesias de Mizarela, Pêro Soares e Vila Soeiro",PNR,0,0,090763
"União das freguesias de Mizarela, Pêro Soares e Vila Soeiro",POUS,0,0,090763
"União das freguesias de Mizarela, Pêro Soares e Vila Soeiro",PTP,0,0,090763
