freguesia,acronym,validVotesPercentage,votes,dicofre
"União das freguesias de Alhandra, São João dos Montes e Calhandriz",PCP-PEV,35.24,1501,111412
"União das freguesias de Alhandra, São João dos Montes e Calhandriz",PS,31.89,1358,111412
"União das freguesias de Alhandra, São João dos Montes e Calhandriz",PPD/PSD.CDS-PP,12.37,527,111412
"União das freguesias de Alhandra, São João dos Montes e Calhandriz",MPT,6.25,266,111412
"União das freguesias de Alhandra, São João dos Montes e Calhandriz",B.E.,5.64,240,111412
"União das freguesias de Alhandra, São João dos Montes e Calhandriz",L,2.16,92,111412
"União das freguesias de Alhandra, São João dos Montes e Calhandriz",PCTP/MRPP,2.07,88,111412
"União das freguesias de Alhandra, São João dos Montes e Calhandriz",PAN,1.6,68,111412
"União das freguesias de Alhandra, São João dos Montes e Calhandriz",PPM,0.59,25,111412
"União das freguesias de Alhandra, São João dos Montes e Calhandriz",MAS,0.52,22,111412
"União das freguesias de Alhandra, São João dos Montes e Calhandriz",PTP,0.47,20,111412
"União das freguesias de Alhandra, São João dos Montes e Calhandriz",PND,0.38,16,111412
"União das freguesias de Alhandra, São João dos Montes e Calhandriz",PNR,0.38,16,111412
"União das freguesias de Alhandra, São João dos Montes e Calhandriz",PPV,0.38,16,111412
"União das freguesias de Alhandra, São João dos Montes e Calhandriz",PDA,0.05,2,111412
"União das freguesias de Alhandra, São João dos Montes e Calhandriz",POUS,0.05,2,111412
