freguesia,acronym,validVotesPercentage,votes,dicofre
União das freguesias de Lajeosa e Forcalhos,PPD/PSD.CDS-PP,50.53,48,091142
União das freguesias de Lajeosa e Forcalhos,PS,33.68,32,091142
União das freguesias de Lajeosa e Forcalhos,MPT,3.16,3,091142
União das freguesias de Lajeosa e Forcalhos,B.E.,2.11,2,091142
União das freguesias de Lajeosa e Forcalhos,PAN,2.11,2,091142
União das freguesias de Lajeosa e Forcalhos,PCP-PEV,2.11,2,091142
União das freguesias de Lajeosa e Forcalhos,PND,2.11,2,091142
União das freguesias de Lajeosa e Forcalhos,MAS,1.05,1,091142
União das freguesias de Lajeosa e Forcalhos,PCTP/MRPP,1.05,1,091142
União das freguesias de Lajeosa e Forcalhos,PPV,1.05,1,091142
União das freguesias de Lajeosa e Forcalhos,PTP,1.05,1,091142
União das freguesias de Lajeosa e Forcalhos,L,0,0,091142
União das freguesias de Lajeosa e Forcalhos,PDA,0,0,091142
União das freguesias de Lajeosa e Forcalhos,PNR,0,0,091142
União das freguesias de Lajeosa e Forcalhos,POUS,0,0,091142
União das freguesias de Lajeosa e Forcalhos,PPM,0,0,091142
