freguesia,acronym,validVotesPercentage,votes,dicofre
União das freguesias de Gamil e Midões,PS,40.83,207,030299
União das freguesias de Gamil e Midões,PPD/PSD.CDS-PP,35.5,180,030299
União das freguesias de Gamil e Midões,MPT,6.11,31,030299
União das freguesias de Gamil e Midões,PCP-PEV,4.54,23,030299
União das freguesias de Gamil e Midões,B.E.,3.35,17,030299
União das freguesias de Gamil e Midões,L,2.76,14,030299
União das freguesias de Gamil e Midões,PCTP/MRPP,1.58,8,030299
União das freguesias de Gamil e Midões,PTP,1.18,6,030299
União das freguesias de Gamil e Midões,PND,0.99,5,030299
União das freguesias de Gamil e Midões,PAN,0.79,4,030299
União das freguesias de Gamil e Midões,PPM,0.79,4,030299
União das freguesias de Gamil e Midões,MAS,0.59,3,030299
União das freguesias de Gamil e Midões,PPV,0.59,3,030299
União das freguesias de Gamil e Midões,PNR,0.2,1,030299
União das freguesias de Gamil e Midões,POUS,0.2,1,030299
União das freguesias de Gamil e Midões,PDA,0,0,030299
