freguesia,acronym,validVotesPercentage,votes,dicofre
União das freguesias de Cortiçô e Vila Chã,PS,44.34,47,090517
União das freguesias de Cortiçô e Vila Chã,PPD/PSD.CDS-PP,37.74,40,090517
União das freguesias de Cortiçô e Vila Chã,MPT,4.72,5,090517
União das freguesias de Cortiçô e Vila Chã,PAN,2.83,3,090517
União das freguesias de Cortiçô e Vila Chã,PCP-PEV,2.83,3,090517
União das freguesias de Cortiçô e Vila Chã,B.E.,1.89,2,090517
União das freguesias de Cortiçô e Vila Chã,PND,1.89,2,090517
União das freguesias de Cortiçô e Vila Chã,L,0.94,1,090517
União das freguesias de Cortiçô e Vila Chã,MAS,0.94,1,090517
União das freguesias de Cortiçô e Vila Chã,PCTP/MRPP,0.94,1,090517
União das freguesias de Cortiçô e Vila Chã,PPV,0.94,1,090517
União das freguesias de Cortiçô e Vila Chã,PDA,0,0,090517
União das freguesias de Cortiçô e Vila Chã,PNR,0,0,090517
União das freguesias de Cortiçô e Vila Chã,POUS,0,0,090517
União das freguesias de Cortiçô e Vila Chã,PPM,0,0,090517
União das freguesias de Cortiçô e Vila Chã,PTP,0,0,090517
