freguesia,acronym,validVotesPercentage,votes,dicofre
"União das freguesias de Tavares (Chãs, Várzea e Travanca)",PPD/PSD.CDS-PP,50.96,213,180622
"União das freguesias de Tavares (Chãs, Várzea e Travanca)",PS,34.45,144,180622
"União das freguesias de Tavares (Chãs, Várzea e Travanca)",MPT,4.55,19,180622
"União das freguesias de Tavares (Chãs, Várzea e Travanca)",PCP-PEV,2.39,10,180622
"União das freguesias de Tavares (Chãs, Várzea e Travanca)",L,1.67,7,180622
"União das freguesias de Tavares (Chãs, Várzea e Travanca)",B.E.,1.2,5,180622
"União das freguesias de Tavares (Chãs, Várzea e Travanca)",PAN,1.2,5,180622
"União das freguesias de Tavares (Chãs, Várzea e Travanca)",PPM,0.96,4,180622
"União das freguesias de Tavares (Chãs, Várzea e Travanca)",PND,0.72,3,180622
"União das freguesias de Tavares (Chãs, Várzea e Travanca)",PTP,0.72,3,180622
"União das freguesias de Tavares (Chãs, Várzea e Travanca)",MAS,0.48,2,180622
"União das freguesias de Tavares (Chãs, Várzea e Travanca)",PCTP/MRPP,0.24,1,180622
"União das freguesias de Tavares (Chãs, Várzea e Travanca)",PDA,0.24,1,180622
"União das freguesias de Tavares (Chãs, Várzea e Travanca)",PPV,0.24,1,180622
"União das freguesias de Tavares (Chãs, Várzea e Travanca)",PNR,0,0,180622
"União das freguesias de Tavares (Chãs, Várzea e Travanca)",POUS,0,0,180622
