freguesia,acronym,validVotesPercentage,votes,dicofre
"União das freguesias de Querença, Tôr e Benafim",PS,39.72,282,080812
"União das freguesias de Querença, Tôr e Benafim",PPD/PSD.CDS-PP,30.28,215,080812
"União das freguesias de Querença, Tôr e Benafim",PCP-PEV,8.03,57,080812
"União das freguesias de Querença, Tôr e Benafim",MPT,4.93,35,080812
"União das freguesias de Querença, Tôr e Benafim",B.E.,4.65,33,080812
"União das freguesias de Querença, Tôr e Benafim",PAN,2.54,18,080812
"União das freguesias de Querença, Tôr e Benafim",PCTP/MRPP,2.25,16,080812
"União das freguesias de Querença, Tôr e Benafim",L,1.97,14,080812
"União das freguesias de Querença, Tôr e Benafim",PTP,1.41,10,080812
"União das freguesias de Querença, Tôr e Benafim",MAS,0.7,5,080812
"União das freguesias de Querença, Tôr e Benafim",PDA,0.7,5,080812
"União das freguesias de Querença, Tôr e Benafim",PND,0.7,5,080812
"União das freguesias de Querença, Tôr e Benafim",PNR,0.56,4,080812
"União das freguesias de Querença, Tôr e Benafim",PPM,0.56,4,080812
"União das freguesias de Querença, Tôr e Benafim",PPV,0.56,4,080812
"União das freguesias de Querença, Tôr e Benafim",POUS,0.42,3,080812
