freguesia,acronym,validVotesPercentage,votes,dicofre
União das freguesias de Cepães e Fareja,PS,43.22,306,030741
União das freguesias de Cepães e Fareja,PPD/PSD.CDS-PP,28.25,200,030741
União das freguesias de Cepães e Fareja,MPT,9.18,65,030741
União das freguesias de Cepães e Fareja,PCP-PEV,6.36,45,030741
União das freguesias de Cepães e Fareja,B.E.,2.82,20,030741
União das freguesias de Cepães e Fareja,PCTP/MRPP,2.4,17,030741
União das freguesias de Cepães e Fareja,PAN,2.12,15,030741
União das freguesias de Cepães e Fareja,PTP,1.13,8,030741
União das freguesias de Cepães e Fareja,L,0.99,7,030741
União das freguesias de Cepães e Fareja,MAS,0.85,6,030741
União das freguesias de Cepães e Fareja,PND,0.71,5,030741
União das freguesias de Cepães e Fareja,PNR,0.71,5,030741
União das freguesias de Cepães e Fareja,PPM,0.56,4,030741
União das freguesias de Cepães e Fareja,PDA,0.28,2,030741
União das freguesias de Cepães e Fareja,POUS,0.28,2,030741
União das freguesias de Cepães e Fareja,PPV,0.14,1,030741
