freguesia,acronym,validVotesPercentage,votes,dicofre
União das freguesias de Tarouca e Dálvares,PPD/PSD.CDS-PP,43.94,410,182013
União das freguesias de Tarouca e Dálvares,PS,29.8,278,182013
União das freguesias de Tarouca e Dálvares,MPT,8.36,78,182013
União das freguesias de Tarouca e Dálvares,PCP-PEV,6.86,64,182013
União das freguesias de Tarouca e Dálvares,B.E.,3.75,35,182013
União das freguesias de Tarouca e Dálvares,PCTP/MRPP,1.71,16,182013
União das freguesias de Tarouca e Dálvares,PAN,1.29,12,182013
União das freguesias de Tarouca e Dálvares,PTP,0.96,9,182013
União das freguesias de Tarouca e Dálvares,PND,0.86,8,182013
União das freguesias de Tarouca e Dálvares,L,0.75,7,182013
União das freguesias de Tarouca e Dálvares,MAS,0.64,6,182013
União das freguesias de Tarouca e Dálvares,PDA,0.32,3,182013
União das freguesias de Tarouca e Dálvares,PPM,0.32,3,182013
União das freguesias de Tarouca e Dálvares,PPV,0.32,3,182013
União das freguesias de Tarouca e Dálvares,PNR,0.11,1,182013
União das freguesias de Tarouca e Dálvares,POUS,0,0,182013
