freguesia,acronym,validVotesPercentage,votes,dicofre
União das freguesias de Fonte Arcada e Oliveira,PPD/PSD.CDS-PP,50.43,233,030934
União das freguesias de Fonte Arcada e Oliveira,PS,37.23,172,030934
União das freguesias de Fonte Arcada e Oliveira,MPT,5.19,24,030934
União das freguesias de Fonte Arcada e Oliveira,PCP-PEV,1.73,8,030934
União das freguesias de Fonte Arcada e Oliveira,B.E.,1.08,5,030934
União das freguesias de Fonte Arcada e Oliveira,L,0.87,4,030934
União das freguesias de Fonte Arcada e Oliveira,PAN,0.65,3,030934
União das freguesias de Fonte Arcada e Oliveira,PPM,0.65,3,030934
União das freguesias de Fonte Arcada e Oliveira,MAS,0.43,2,030934
União das freguesias de Fonte Arcada e Oliveira,PND,0.43,2,030934
União das freguesias de Fonte Arcada e Oliveira,PNR,0.43,2,030934
União das freguesias de Fonte Arcada e Oliveira,POUS,0.43,2,030934
União das freguesias de Fonte Arcada e Oliveira,PCTP/MRPP,0.22,1,030934
União das freguesias de Fonte Arcada e Oliveira,PTP,0.22,1,030934
União das freguesias de Fonte Arcada e Oliveira,PDA,0,0,030934
União das freguesias de Fonte Arcada e Oliveira,PPV,0,0,030934
