freguesia,acronym,validVotesPercentage,votes,dicofre
União das freguesias de Lordelo do Ouro e Massarelos,PPD/PSD.CDS-PP,33.57,3500,131218
União das freguesias de Lordelo do Ouro e Massarelos,PS,29.66,3092,131218
União das freguesias de Lordelo do Ouro e Massarelos,PCP-PEV,14.07,1467,131218
União das freguesias de Lordelo do Ouro e Massarelos,MPT,7.65,798,131218
União das freguesias de Lordelo do Ouro e Massarelos,B.E.,5.66,590,131218
União das freguesias de Lordelo do Ouro e Massarelos,L,3.63,378,131218
União das freguesias de Lordelo do Ouro e Massarelos,PAN,1.72,179,131218
União das freguesias de Lordelo do Ouro e Massarelos,PCTP/MRPP,1.25,130,131218
União das freguesias de Lordelo do Ouro e Massarelos,PND,0.53,55,131218
União das freguesias de Lordelo do Ouro e Massarelos,PPM,0.53,55,131218
União das freguesias de Lordelo do Ouro e Massarelos,PNR,0.44,46,131218
União das freguesias de Lordelo do Ouro e Massarelos,PPV,0.36,38,131218
União das freguesias de Lordelo do Ouro e Massarelos,MAS,0.33,34,131218
União das freguesias de Lordelo do Ouro e Massarelos,PTP,0.29,30,131218
União das freguesias de Lordelo do Ouro e Massarelos,POUS,0.2,21,131218
União das freguesias de Lordelo do Ouro e Massarelos,PDA,0.12,12,131218
