freguesia,acronym,validVotesPercentage,votes,dicofre
União das freguesias de Semide e Rio Vide,PS,40.65,350,060906
União das freguesias de Semide e Rio Vide,PPD/PSD.CDS-PP,30.08,259,060906
União das freguesias de Semide e Rio Vide,PCP-PEV,7.32,63,060906
União das freguesias de Semide e Rio Vide,MPT,7.08,61,060906
União das freguesias de Semide e Rio Vide,B.E.,5.69,49,060906
União das freguesias de Semide e Rio Vide,PCTP/MRPP,1.86,16,060906
União das freguesias de Semide e Rio Vide,L,1.39,12,060906
União das freguesias de Semide e Rio Vide,PAN,1.28,11,060906
União das freguesias de Semide e Rio Vide,PND,1.05,9,060906
União das freguesias de Semide e Rio Vide,PNR,0.81,7,060906
União das freguesias de Semide e Rio Vide,PTP,0.7,6,060906
União das freguesias de Semide e Rio Vide,PDA,0.58,5,060906
União das freguesias de Semide e Rio Vide,PPM,0.46,4,060906
União das freguesias de Semide e Rio Vide,PPV,0.46,4,060906
União das freguesias de Semide e Rio Vide,MAS,0.35,3,060906
União das freguesias de Semide e Rio Vide,POUS,0.23,2,060906
