freguesia,acronym,validVotesPercentage,votes,dicofre
União das freguesias de São Romão e Santiago,PPD/PSD.CDS-PP,46.03,58,180122
União das freguesias de São Romão e Santiago,PS,29.37,37,180122
União das freguesias de São Romão e Santiago,B.E.,6.35,8,180122
União das freguesias de São Romão e Santiago,PCP-PEV,6.35,8,180122
União das freguesias de São Romão e Santiago,MPT,3.17,4,180122
União das freguesias de São Romão e Santiago,PCTP/MRPP,3.17,4,180122
União das freguesias de São Romão e Santiago,POUS,1.59,2,180122
União das freguesias de São Romão e Santiago,PPV,1.59,2,180122
União das freguesias de São Romão e Santiago,L,0.79,1,180122
União das freguesias de São Romão e Santiago,MAS,0.79,1,180122
União das freguesias de São Romão e Santiago,PND,0.79,1,180122
União das freguesias de São Romão e Santiago,PAN,0,0,180122
União das freguesias de São Romão e Santiago,PDA,0,0,180122
União das freguesias de São Romão e Santiago,PNR,0,0,180122
União das freguesias de São Romão e Santiago,PPM,0,0,180122
União das freguesias de São Romão e Santiago,PTP,0,0,180122
