freguesia,acronym,validVotesPercentage,votes,dicofre
União das freguesias de Moimenta da Serra e Vinhó,PS,41.96,141,090627
União das freguesias de Moimenta da Serra e Vinhó,PPD/PSD.CDS-PP,27.68,93,090627
União das freguesias de Moimenta da Serra e Vinhó,PCP-PEV,10.71,36,090627
União das freguesias de Moimenta da Serra e Vinhó,MPT,5.06,17,090627
União das freguesias de Moimenta da Serra e Vinhó,B.E.,4.46,15,090627
União das freguesias de Moimenta da Serra e Vinhó,PCTP/MRPP,2.38,8,090627
União das freguesias de Moimenta da Serra e Vinhó,L,1.79,6,090627
União das freguesias de Moimenta da Serra e Vinhó,PPM,1.79,6,090627
União das freguesias de Moimenta da Serra e Vinhó,PPV,1.19,4,090627
União das freguesias de Moimenta da Serra e Vinhó,PAN,0.89,3,090627
União das freguesias de Moimenta da Serra e Vinhó,PTP,0.89,3,090627
União das freguesias de Moimenta da Serra e Vinhó,PND,0.6,2,090627
União das freguesias de Moimenta da Serra e Vinhó,PDA,0.3,1,090627
União das freguesias de Moimenta da Serra e Vinhó,POUS,0.3,1,090627
União das freguesias de Moimenta da Serra e Vinhó,MAS,0,0,090627
União das freguesias de Moimenta da Serra e Vinhó,PNR,0,0,090627
