freguesia,acronym,validVotesPercentage,votes,dicofre
"União das freguesias de Seia, São Romão e Lapa dos Dinheiros",PS,43.71,1156,091233
"União das freguesias de Seia, São Romão e Lapa dos Dinheiros",PPD/PSD.CDS-PP,26.43,699,091233
"União das freguesias de Seia, São Romão e Lapa dos Dinheiros",PCP-PEV,11.53,305,091233
"União das freguesias de Seia, São Romão e Lapa dos Dinheiros",MPT,7.41,196,091233
"União das freguesias de Seia, São Romão e Lapa dos Dinheiros",B.E.,3.82,101,091233
"União das freguesias de Seia, São Romão e Lapa dos Dinheiros",L,1.63,43,091233
"União das freguesias de Seia, São Romão e Lapa dos Dinheiros",PCTP/MRPP,1.59,42,091233
"União das freguesias de Seia, São Romão e Lapa dos Dinheiros",PAN,1.13,30,091233
"União das freguesias de Seia, São Romão e Lapa dos Dinheiros",PND,0.68,18,091233
"União das freguesias de Seia, São Romão e Lapa dos Dinheiros",PNR,0.42,11,091233
"União das freguesias de Seia, São Romão e Lapa dos Dinheiros",PPV,0.42,11,091233
"União das freguesias de Seia, São Romão e Lapa dos Dinheiros",PTP,0.42,11,091233
"União das freguesias de Seia, São Romão e Lapa dos Dinheiros",PPM,0.38,10,091233
"União das freguesias de Seia, São Romão e Lapa dos Dinheiros",MAS,0.23,6,091233
"União das freguesias de Seia, São Romão e Lapa dos Dinheiros",PDA,0.11,3,091233
"União das freguesias de Seia, São Romão e Lapa dos Dinheiros",POUS,0.11,3,091233
