freguesia,acronym,validVotesPercentage,votes,dicofre
União das freguesias de Rapa e Cadafaz,PS,52.52,73,090326
União das freguesias de Rapa e Cadafaz,PPD/PSD.CDS-PP,35.25,49,090326
União das freguesias de Rapa e Cadafaz,MPT,3.6,5,090326
União das freguesias de Rapa e Cadafaz,PCP-PEV,3.6,5,090326
União das freguesias de Rapa e Cadafaz,PND,1.44,2,090326
União das freguesias de Rapa e Cadafaz,POUS,1.44,2,090326
União das freguesias de Rapa e Cadafaz,MAS,0.72,1,090326
União das freguesias de Rapa e Cadafaz,PAN,0.72,1,090326
União das freguesias de Rapa e Cadafaz,PCTP/MRPP,0.72,1,090326
União das freguesias de Rapa e Cadafaz,B.E.,0,0,090326
União das freguesias de Rapa e Cadafaz,L,0,0,090326
União das freguesias de Rapa e Cadafaz,PDA,0,0,090326
União das freguesias de Rapa e Cadafaz,PNR,0,0,090326
União das freguesias de Rapa e Cadafaz,PPM,0,0,090326
União das freguesias de Rapa e Cadafaz,PPV,0,0,090326
União das freguesias de Rapa e Cadafaz,PTP,0,0,090326
