freguesia,acronym,validVotesPercentage,votes,dicofre
"União das freguesias de Aldeia do Bispo, Águas e Aldeia de João Pires",PS,50,174,050713
"União das freguesias de Aldeia do Bispo, Águas e Aldeia de João Pires",PPD/PSD.CDS-PP,29.89,104,050713
"União das freguesias de Aldeia do Bispo, Águas e Aldeia de João Pires",PCP-PEV,7.18,25,050713
"União das freguesias de Aldeia do Bispo, Águas e Aldeia de João Pires",MPT,4.31,15,050713
"União das freguesias de Aldeia do Bispo, Águas e Aldeia de João Pires",B.E.,2.87,10,050713
"União das freguesias de Aldeia do Bispo, Águas e Aldeia de João Pires",PCTP/MRPP,2.01,7,050713
"União das freguesias de Aldeia do Bispo, Águas e Aldeia de João Pires",L,0.86,3,050713
"União das freguesias de Aldeia do Bispo, Águas e Aldeia de João Pires",PTP,0.86,3,050713
"União das freguesias de Aldeia do Bispo, Águas e Aldeia de João Pires",PAN,0.57,2,050713
"União das freguesias de Aldeia do Bispo, Águas e Aldeia de João Pires",PPM,0.57,2,050713
"União das freguesias de Aldeia do Bispo, Águas e Aldeia de João Pires",MAS,0.29,1,050713
"União das freguesias de Aldeia do Bispo, Águas e Aldeia de João Pires",PND,0.29,1,050713
"União das freguesias de Aldeia do Bispo, Águas e Aldeia de João Pires",PNR,0.29,1,050713
"União das freguesias de Aldeia do Bispo, Águas e Aldeia de João Pires",PDA,0,0,050713
"União das freguesias de Aldeia do Bispo, Águas e Aldeia de João Pires",POUS,0,0,050713
"União das freguesias de Aldeia do Bispo, Águas e Aldeia de João Pires",PPV,0,0,050713
