freguesia,acronym,validVotesPercentage,votes,dicofre
União das freguesias de Grijó e Sermonde,PS,36.66,1254,131725
União das freguesias de Grijó e Sermonde,PPD/PSD.CDS-PP,31.95,1093,131725
União das freguesias de Grijó e Sermonde,PCP-PEV,9.38,321,131725
União das freguesias de Grijó e Sermonde,MPT,8.01,274,131725
União das freguesias de Grijó e Sermonde,B.E.,5.12,175,131725
União das freguesias de Grijó e Sermonde,PCTP/MRPP,1.99,68,131725
União das freguesias de Grijó e Sermonde,PAN,1.67,57,131725
União das freguesias de Grijó e Sermonde,L,1.61,55,131725
União das freguesias de Grijó e Sermonde,PND,0.79,27,131725
União das freguesias de Grijó e Sermonde,PTP,0.76,26,131725
União das freguesias de Grijó e Sermonde,PPM,0.58,20,131725
União das freguesias de Grijó e Sermonde,MAS,0.47,16,131725
União das freguesias de Grijó e Sermonde,PNR,0.41,14,131725
União das freguesias de Grijó e Sermonde,PPV,0.41,14,131725
União das freguesias de Grijó e Sermonde,PDA,0.12,4,131725
União das freguesias de Grijó e Sermonde,POUS,0.09,3,131725
