freguesia,acronym,validVotesPercentage,votes,dicofre
União das freguesias de Arrimal e Mendiga,PPD/PSD.CDS-PP,51.02,299,101616
União das freguesias de Arrimal e Mendiga,PS,23.55,138,101616
União das freguesias de Arrimal e Mendiga,MPT,6.31,37,101616
União das freguesias de Arrimal e Mendiga,PCP-PEV,5.12,30,101616
União das freguesias de Arrimal e Mendiga,B.E.,4.61,27,101616
União das freguesias de Arrimal e Mendiga,L,2.56,15,101616
União das freguesias de Arrimal e Mendiga,PAN,1.37,8,101616
União das freguesias de Arrimal e Mendiga,PND,1.19,7,101616
União das freguesias de Arrimal e Mendiga,MAS,1.02,6,101616
União das freguesias de Arrimal e Mendiga,PTP,1.02,6,101616
União das freguesias de Arrimal e Mendiga,PCTP/MRPP,0.68,4,101616
União das freguesias de Arrimal e Mendiga,PPM,0.51,3,101616
União das freguesias de Arrimal e Mendiga,PDA,0.34,2,101616
União das freguesias de Arrimal e Mendiga,PPV,0.34,2,101616
União das freguesias de Arrimal e Mendiga,PNR,0.17,1,101616
União das freguesias de Arrimal e Mendiga,POUS,0.17,1,101616
