freguesia,acronym,validVotesPercentage,votes,dicofre
União das freguesias de Nespereira e Casais,PS,45.19,446,130531
União das freguesias de Nespereira e Casais,PPD/PSD.CDS-PP,35.97,355,130531
União das freguesias de Nespereira e Casais,MPT,7.19,71,130531
União das freguesias de Nespereira e Casais,PCP-PEV,3.55,35,130531
União das freguesias de Nespereira e Casais,B.E.,2.74,27,130531
União das freguesias de Nespereira e Casais,L,1.11,11,130531
União das freguesias de Nespereira e Casais,PCTP/MRPP,1.11,11,130531
União das freguesias de Nespereira e Casais,PTP,0.91,9,130531
União das freguesias de Nespereira e Casais,PAN,0.81,8,130531
União das freguesias de Nespereira e Casais,PND,0.61,6,130531
União das freguesias de Nespereira e Casais,PNR,0.3,3,130531
União das freguesias de Nespereira e Casais,PPM,0.2,2,130531
União das freguesias de Nespereira e Casais,MAS,0.1,1,130531
União das freguesias de Nespereira e Casais,POUS,0.1,1,130531
União das freguesias de Nespereira e Casais,PPV,0.1,1,130531
União das freguesias de Nespereira e Casais,PDA,0,0,130531
