freguesia,acronym,validVotesPercentage,votes,dicofre
União das freguesias de Carnaxide e Queijas,PS,30.63,3432,111013
União das freguesias de Carnaxide e Queijas,PPD/PSD.CDS-PP,27.39,3068,111013
União das freguesias de Carnaxide e Queijas,PCP-PEV,16.1,1804,111013
União das freguesias de Carnaxide e Queijas,MPT,7.89,884,111013
União das freguesias de Carnaxide e Queijas,B.E.,5.94,666,111013
União das freguesias de Carnaxide e Queijas,L,4.74,531,111013
União das freguesias de Carnaxide e Queijas,PAN,2.86,320,111013
União das freguesias de Carnaxide e Queijas,PCTP/MRPP,1.64,184,111013
União das freguesias de Carnaxide e Queijas,PNR,0.54,61,111013
União das freguesias de Carnaxide e Queijas,PND,0.54,60,111013
União das freguesias de Carnaxide e Queijas,PPM,0.5,56,111013
União das freguesias de Carnaxide e Queijas,PPV,0.37,42,111013
União das freguesias de Carnaxide e Queijas,MAS,0.36,40,111013
União das freguesias de Carnaxide e Queijas,PTP,0.25,28,111013
União das freguesias de Carnaxide e Queijas,PDA,0.12,13,111013
União das freguesias de Carnaxide e Queijas,POUS,0.12,14,111013
