freguesia,acronym,validVotesPercentage,votes,dicofre
"União das freguesias de Silvares, Pias, Nogueira e Alvarenga",PPD/PSD.CDS-PP,36.8,601,130532
"União das freguesias de Silvares, Pias, Nogueira e Alvarenga",PS,34.11,557,130532
"União das freguesias de Silvares, Pias, Nogueira e Alvarenga",MPT,12.06,197,130532
"União das freguesias de Silvares, Pias, Nogueira e Alvarenga",PCP-PEV,5.45,89,130532
"União das freguesias de Silvares, Pias, Nogueira e Alvarenga",B.E.,4.1,67,130532
"União das freguesias de Silvares, Pias, Nogueira e Alvarenga",PCTP/MRPP,1.53,25,130532
"União das freguesias de Silvares, Pias, Nogueira e Alvarenga",PAN,1.41,23,130532
"União das freguesias de Silvares, Pias, Nogueira e Alvarenga",L,1.22,20,130532
"União das freguesias de Silvares, Pias, Nogueira e Alvarenga",PPM,0.92,15,130532
"União das freguesias de Silvares, Pias, Nogueira e Alvarenga",PTP,0.8,13,130532
"União das freguesias de Silvares, Pias, Nogueira e Alvarenga",PND,0.61,10,130532
"União das freguesias de Silvares, Pias, Nogueira e Alvarenga",PNR,0.49,8,130532
"União das freguesias de Silvares, Pias, Nogueira e Alvarenga",PPV,0.18,3,130532
"União das freguesias de Silvares, Pias, Nogueira e Alvarenga",MAS,0.12,2,130532
"União das freguesias de Silvares, Pias, Nogueira e Alvarenga",PDA,0.12,2,130532
"União das freguesias de Silvares, Pias, Nogueira e Alvarenga",POUS,0.06,1,130532
