freguesia,acronym,validVotesPercentage,votes,dicofre
União das freguesias de Vilares e Carnicães,PS,47.95,70,091335
União das freguesias de Vilares e Carnicães,PPD/PSD.CDS-PP,30.82,45,091335
União das freguesias de Vilares e Carnicães,MPT,7.53,11,091335
União das freguesias de Vilares e Carnicães,B.E.,4.79,7,091335
União das freguesias de Vilares e Carnicães,PCTP/MRPP,2.05,3,091335
União das freguesias de Vilares e Carnicães,MAS,1.37,2,091335
União das freguesias de Vilares e Carnicães,PCP-PEV,1.37,2,091335
União das freguesias de Vilares e Carnicães,POUS,1.37,2,091335
União das freguesias de Vilares e Carnicães,PPV,1.37,2,091335
União das freguesias de Vilares e Carnicães,PAN,0.68,1,091335
União das freguesias de Vilares e Carnicães,PND,0.68,1,091335
União das freguesias de Vilares e Carnicães,L,0,0,091335
União das freguesias de Vilares e Carnicães,PDA,0,0,091335
União das freguesias de Vilares e Carnicães,PNR,0,0,091335
União das freguesias de Vilares e Carnicães,PPM,0,0,091335
União das freguesias de Vilares e Carnicães,PTP,0,0,091335
