freguesia,acronym,validVotesPercentage,votes,dicofre
União das freguesias de Sande Vila Nova e Sande São Clemente,PPD/PSD.CDS-PP,37.8,457,030887
União das freguesias de Sande Vila Nova e Sande São Clemente,PS,36.97,447,030887
União das freguesias de Sande Vila Nova e Sande São Clemente,MPT,7.61,92,030887
União das freguesias de Sande Vila Nova e Sande São Clemente,PCP-PEV,7.53,91,030887
União das freguesias de Sande Vila Nova e Sande São Clemente,B.E.,2.48,30,030887
União das freguesias de Sande Vila Nova e Sande São Clemente,PCTP/MRPP,1.9,23,030887
União das freguesias de Sande Vila Nova e Sande São Clemente,L,1.08,13,030887
União das freguesias de Sande Vila Nova e Sande São Clemente,PND,1.08,13,030887
União das freguesias de Sande Vila Nova e Sande São Clemente,MAS,0.74,9,030887
União das freguesias de Sande Vila Nova e Sande São Clemente,PAN,0.58,7,030887
União das freguesias de Sande Vila Nova e Sande São Clemente,PPV,0.58,7,030887
União das freguesias de Sande Vila Nova e Sande São Clemente,PTP,0.58,7,030887
União das freguesias de Sande Vila Nova e Sande São Clemente,PPM,0.5,6,030887
União das freguesias de Sande Vila Nova e Sande São Clemente,PNR,0.41,5,030887
União das freguesias de Sande Vila Nova e Sande São Clemente,POUS,0.17,2,030887
União das freguesias de Sande Vila Nova e Sande São Clemente,PDA,0,0,030887
