freguesia,acronym,validVotesPercentage,votes,dicofre
União das freguesias de Caldas de Vizela (São Miguel e São João),PS,48.91,1487,031408
União das freguesias de Caldas de Vizela (São Miguel e São João),PPD/PSD.CDS-PP,21.61,657,031408
União das freguesias de Caldas de Vizela (São Miguel e São João),MPT,10.13,308,031408
União das freguesias de Caldas de Vizela (São Miguel e São João),PCP-PEV,7.6,231,031408
União das freguesias de Caldas de Vizela (São Miguel e São João),B.E.,4.67,142,031408
União das freguesias de Caldas de Vizela (São Miguel e São João),PCTP/MRPP,2.04,62,031408
União das freguesias de Caldas de Vizela (São Miguel e São João),L,1.58,48,031408
União das freguesias de Caldas de Vizela (São Miguel e São João),PAN,0.79,24,031408
União das freguesias de Caldas de Vizela (São Miguel e São João),PTP,0.59,18,031408
União das freguesias de Caldas de Vizela (São Miguel e São João),MAS,0.56,17,031408
União das freguesias de Caldas de Vizela (São Miguel e São João),PND,0.56,17,031408
União das freguesias de Caldas de Vizela (São Miguel e São João),PPM,0.43,13,031408
União das freguesias de Caldas de Vizela (São Miguel e São João),PNR,0.3,9,031408
União das freguesias de Caldas de Vizela (São Miguel e São João),POUS,0.2,6,031408
União das freguesias de Caldas de Vizela (São Miguel e São João),PPV,0.03,1,031408
União das freguesias de Caldas de Vizela (São Miguel e São João),PDA,0,0,031408
