freguesia,acronym,validVotesPercentage,votes,dicofre
União das freguesias de Amares e Figueiredo,PS,34.92,228,030125
União das freguesias de Amares e Figueiredo,PPD/PSD.CDS-PP,28.79,188,030125
União das freguesias de Amares e Figueiredo,MPT,13.02,85,030125
União das freguesias de Amares e Figueiredo,PCP-PEV,11.64,76,030125
União das freguesias de Amares e Figueiredo,B.E.,5.05,33,030125
União das freguesias de Amares e Figueiredo,L,1.38,9,030125
União das freguesias de Amares e Figueiredo,PCTP/MRPP,1.23,8,030125
União das freguesias de Amares e Figueiredo,PAN,1.07,7,030125
União das freguesias de Amares e Figueiredo,MAS,0.61,4,030125
União das freguesias de Amares e Figueiredo,PND,0.61,4,030125
União das freguesias de Amares e Figueiredo,PPM,0.61,4,030125
União das freguesias de Amares e Figueiredo,PDA,0.31,2,030125
União das freguesias de Amares e Figueiredo,PPV,0.31,2,030125
União das freguesias de Amares e Figueiredo,PTP,0.31,2,030125
União das freguesias de Amares e Figueiredo,PNR,0.15,1,030125
União das freguesias de Amares e Figueiredo,POUS,0,0,030125
