freguesia,acronym,validVotesPercentage,votes,dicofre
União das freguesias de São Bartolomeu do Outeiro e Oriola,PS,52.76,153,070910
União das freguesias de São Bartolomeu do Outeiro e Oriola,PCP-PEV,30,87,070910
União das freguesias de São Bartolomeu do Outeiro e Oriola,MPT,4.48,13,070910
União das freguesias de São Bartolomeu do Outeiro e Oriola,PPD/PSD.CDS-PP,4.14,12,070910
União das freguesias de São Bartolomeu do Outeiro e Oriola,PCTP/MRPP,3.79,11,070910
União das freguesias de São Bartolomeu do Outeiro e Oriola,B.E.,2.76,8,070910
União das freguesias de São Bartolomeu do Outeiro e Oriola,MAS,1.03,3,070910
União das freguesias de São Bartolomeu do Outeiro e Oriola,PPM,0.69,2,070910
União das freguesias de São Bartolomeu do Outeiro e Oriola,PAN,0.34,1,070910
União das freguesias de São Bartolomeu do Outeiro e Oriola,L,0,0,070910
União das freguesias de São Bartolomeu do Outeiro e Oriola,PDA,0,0,070910
União das freguesias de São Bartolomeu do Outeiro e Oriola,PND,0,0,070910
União das freguesias de São Bartolomeu do Outeiro e Oriola,PNR,0,0,070910
União das freguesias de São Bartolomeu do Outeiro e Oriola,POUS,0,0,070910
União das freguesias de São Bartolomeu do Outeiro e Oriola,PPV,0,0,070910
União das freguesias de São Bartolomeu do Outeiro e Oriola,PTP,0,0,070910
