freguesia,acronym,validVotesPercentage,votes,dicofre
União das freguesias de Covelo de Paivó e Janarde,PPD/PSD.CDS-PP,65.33,49,010424
União das freguesias de Covelo de Paivó e Janarde,PS,22.67,17,010424
União das freguesias de Covelo de Paivó e Janarde,MPT,8,6,010424
União das freguesias de Covelo de Paivó e Janarde,PPV,2.67,2,010424
União das freguesias de Covelo de Paivó e Janarde,PCTP/MRPP,1.33,1,010424
União das freguesias de Covelo de Paivó e Janarde,B.E.,0,0,010424
União das freguesias de Covelo de Paivó e Janarde,L,0,0,010424
União das freguesias de Covelo de Paivó e Janarde,MAS,0,0,010424
União das freguesias de Covelo de Paivó e Janarde,PAN,0,0,010424
União das freguesias de Covelo de Paivó e Janarde,PCP-PEV,0,0,010424
União das freguesias de Covelo de Paivó e Janarde,PDA,0,0,010424
União das freguesias de Covelo de Paivó e Janarde,PND,0,0,010424
União das freguesias de Covelo de Paivó e Janarde,PNR,0,0,010424
União das freguesias de Covelo de Paivó e Janarde,POUS,0,0,010424
União das freguesias de Covelo de Paivó e Janarde,PPM,0,0,010424
União das freguesias de Covelo de Paivó e Janarde,PTP,0,0,010424
