freguesia,acronym,validVotesPercentage,votes,dicofre
União das freguesias de Bico e Cristelo,PS,48.8,81,160522
União das freguesias de Bico e Cristelo,PPD/PSD.CDS-PP,21.08,35,160522
União das freguesias de Bico e Cristelo,L,5.42,9,160522
União das freguesias de Bico e Cristelo,MPT,5.42,9,160522
União das freguesias de Bico e Cristelo,B.E.,4.22,7,160522
União das freguesias de Bico e Cristelo,PCP-PEV,3.61,6,160522
União das freguesias de Bico e Cristelo,PAN,3.01,5,160522
União das freguesias de Bico e Cristelo,PND,3.01,5,160522
União das freguesias de Bico e Cristelo,PPV,1.81,3,160522
União das freguesias de Bico e Cristelo,PCTP/MRPP,1.2,2,160522
União das freguesias de Bico e Cristelo,MAS,0.6,1,160522
União das freguesias de Bico e Cristelo,PNR,0.6,1,160522
União das freguesias de Bico e Cristelo,PPM,0.6,1,160522
União das freguesias de Bico e Cristelo,PTP,0.6,1,160522
União das freguesias de Bico e Cristelo,PDA,0,0,160522
União das freguesias de Bico e Cristelo,POUS,0,0,160522
