freguesia,acronym,validVotesPercentage,votes,dicofre
União das freguesias de Miragaia e Marteleira,PPD/PSD.CDS-PP,43.4,447,110813
União das freguesias de Miragaia e Marteleira,PS,32.04,330,110813
União das freguesias de Miragaia e Marteleira,MPT,6.6,68,110813
União das freguesias de Miragaia e Marteleira,PCP-PEV,6.41,66,110813
União das freguesias de Miragaia e Marteleira,B.E.,4.47,46,110813
União das freguesias de Miragaia e Marteleira,L,1.46,15,110813
União das freguesias de Miragaia e Marteleira,PCTP/MRPP,1.26,13,110813
União das freguesias de Miragaia e Marteleira,PAN,1.17,12,110813
União das freguesias de Miragaia e Marteleira,PND,1.17,12,110813
União das freguesias de Miragaia e Marteleira,PPM,0.58,6,110813
União das freguesias de Miragaia e Marteleira,PPV,0.49,5,110813
União das freguesias de Miragaia e Marteleira,PNR,0.29,3,110813
União das freguesias de Miragaia e Marteleira,MAS,0.19,2,110813
União das freguesias de Miragaia e Marteleira,POUS,0.19,2,110813
União das freguesias de Miragaia e Marteleira,PTP,0.19,2,110813
União das freguesias de Miragaia e Marteleira,PDA,0.1,1,110813
