freguesia,acronym,validVotesPercentage,votes,dicofre
União das freguesias de Antas e Abade de Vermoim,PPD/PSD.CDS-PP,40.98,893,031250
União das freguesias de Antas e Abade de Vermoim,PS,32.17,701,031250
União das freguesias de Antas e Abade de Vermoim,MPT,8.31,181,031250
União das freguesias de Antas e Abade de Vermoim,PCP-PEV,7.71,168,031250
União das freguesias de Antas e Abade de Vermoim,B.E.,3.99,87,031250
União das freguesias de Antas e Abade de Vermoim,L,2.07,45,031250
União das freguesias de Antas e Abade de Vermoim,PCTP/MRPP,1.51,33,031250
União das freguesias de Antas e Abade de Vermoim,PAN,0.87,19,031250
União das freguesias de Antas e Abade de Vermoim,PND,0.55,12,031250
União das freguesias de Antas e Abade de Vermoim,MAS,0.5,11,031250
União das freguesias de Antas e Abade de Vermoim,PTP,0.5,11,031250
União das freguesias de Antas e Abade de Vermoim,PPM,0.41,9,031250
União das freguesias de Antas e Abade de Vermoim,PPV,0.18,4,031250
União das freguesias de Antas e Abade de Vermoim,PNR,0.14,3,031250
União das freguesias de Antas e Abade de Vermoim,POUS,0.09,2,031250
União das freguesias de Antas e Abade de Vermoim,PDA,0,0,031250
