freguesia,acronym,validVotesPercentage,votes,dicofre
União das freguesias de Campanhó e Paradança,PPD/PSD.CDS-PP,70.11,190,170509
União das freguesias de Campanhó e Paradança,PS,21.4,58,170509
União das freguesias de Campanhó e Paradança,MPT,2.21,6,170509
União das freguesias de Campanhó e Paradança,PCP-PEV,1.85,5,170509
União das freguesias de Campanhó e Paradança,L,1.11,3,170509
União das freguesias de Campanhó e Paradança,PCTP/MRPP,1.11,3,170509
União das freguesias de Campanhó e Paradança,PND,1.11,3,170509
União das freguesias de Campanhó e Paradança,PPM,0.74,2,170509
União das freguesias de Campanhó e Paradança,PAN,0.37,1,170509
União das freguesias de Campanhó e Paradança,B.E.,0,0,170509
União das freguesias de Campanhó e Paradança,MAS,0,0,170509
União das freguesias de Campanhó e Paradança,PDA,0,0,170509
União das freguesias de Campanhó e Paradança,PNR,0,0,170509
União das freguesias de Campanhó e Paradança,POUS,0,0,170509
União das freguesias de Campanhó e Paradança,PPV,0,0,170509
União das freguesias de Campanhó e Paradança,PTP,0,0,170509
