freguesia,acronym,validVotesPercentage,votes,dicofre
União das freguesias de Alfundão e Peroguarda,PS,52.2,202,020807
União das freguesias de Alfundão e Peroguarda,PCP-PEV,27.13,105,020807
União das freguesias de Alfundão e Peroguarda,PPD/PSD.CDS-PP,8.53,33,020807
União das freguesias de Alfundão e Peroguarda,B.E.,4.39,17,020807
União das freguesias de Alfundão e Peroguarda,MPT,3.36,13,020807
União das freguesias de Alfundão e Peroguarda,PCTP/MRPP,1.55,6,020807
União das freguesias de Alfundão e Peroguarda,PAN,1.03,4,020807
União das freguesias de Alfundão e Peroguarda,L,0.52,2,020807
União das freguesias de Alfundão e Peroguarda,PND,0.52,2,020807
União das freguesias de Alfundão e Peroguarda,PNR,0.26,1,020807
União das freguesias de Alfundão e Peroguarda,POUS,0.26,1,020807
União das freguesias de Alfundão e Peroguarda,PPM,0.26,1,020807
União das freguesias de Alfundão e Peroguarda,MAS,0,0,020807
União das freguesias de Alfundão e Peroguarda,PDA,0,0,020807
União das freguesias de Alfundão e Peroguarda,PPV,0,0,020807
União das freguesias de Alfundão e Peroguarda,PTP,0,0,020807
