freguesia,acronym,validVotesPercentage,votes,dicofre
União das freguesias de Rochoso e Monte Margarida,PPD/PSD.CDS-PP,56.25,72,090765
União das freguesias de Rochoso e Monte Margarida,PS,21.09,27,090765
União das freguesias de Rochoso e Monte Margarida,B.E.,3.91,5,090765
União das freguesias de Rochoso e Monte Margarida,L,3.91,5,090765
União das freguesias de Rochoso e Monte Margarida,MPT,3.13,4,090765
União das freguesias de Rochoso e Monte Margarida,PAN,2.34,3,090765
União das freguesias de Rochoso e Monte Margarida,PCP-PEV,2.34,3,090765
União das freguesias de Rochoso e Monte Margarida,PCTP/MRPP,2.34,3,090765
União das freguesias de Rochoso e Monte Margarida,PND,1.56,2,090765
União das freguesias de Rochoso e Monte Margarida,PTP,1.56,2,090765
União das freguesias de Rochoso e Monte Margarida,PPM,0.78,1,090765
União das freguesias de Rochoso e Monte Margarida,PPV,0.78,1,090765
União das freguesias de Rochoso e Monte Margarida,MAS,0,0,090765
União das freguesias de Rochoso e Monte Margarida,PDA,0,0,090765
União das freguesias de Rochoso e Monte Margarida,PNR,0,0,090765
União das freguesias de Rochoso e Monte Margarida,POUS,0,0,090765
