freguesia,acronym,validVotesPercentage,votes,dicofre
Vade (São Pedro),PPD/PSD.CDS-PP,56.12,55,160623
Vade (São Pedro),PS,36.73,36,160623
Vade (São Pedro),MPT,3.06,3,160623
Vade (São Pedro),PTP,2.04,2,160623
Vade (São Pedro),B.E.,1.02,1,160623
Vade (São Pedro),PAN,1.02,1,160623
Vade (São Pedro),L,0,0,160623
Vade (São Pedro),MAS,0,0,160623
Vade (São Pedro),PCP-PEV,0,0,160623
Vade (São Pedro),PCTP/MRPP,0,0,160623
Vade (São Pedro),PDA,0,0,160623
Vade (São Pedro),PND,0,0,160623
Vade (São Pedro),PNR,0,0,160623
Vade (São Pedro),POUS,0,0,160623
Vade (São Pedro),PPM,0,0,160623
Vade (São Pedro),PPV,0,0,160623
