freguesia,acronym,validVotesPercentage,votes,dicofre
Vale de Asnes,PPD/PSD.CDS-PP,54.88,45,040731
Vale de Asnes,PS,30.49,25,040731
Vale de Asnes,PCP-PEV,4.88,4,040731
Vale de Asnes,PNR,2.44,2,040731
Vale de Asnes,PTP,2.44,2,040731
Vale de Asnes,B.E.,1.22,1,040731
Vale de Asnes,MPT,1.22,1,040731
Vale de Asnes,PPM,1.22,1,040731
Vale de Asnes,PPV,1.22,1,040731
Vale de Asnes,L,0,0,040731
Vale de Asnes,MAS,0,0,040731
Vale de Asnes,PAN,0,0,040731
Vale de Asnes,PCTP/MRPP,0,0,040731
Vale de Asnes,PDA,0,0,040731
Vale de Asnes,PND,0,0,040731
Vale de Asnes,POUS,0,0,040731
