freguesia,acronym,validVotesPercentage,votes,dicofre
Vale de Gouvinhas,PPD/PSD.CDS-PP,49.07,53,040732
Vale de Gouvinhas,PS,20.37,22,040732
Vale de Gouvinhas,MPT,14.81,16,040732
Vale de Gouvinhas,B.E.,5.56,6,040732
Vale de Gouvinhas,PAN,2.78,3,040732
Vale de Gouvinhas,PPV,2.78,3,040732
Vale de Gouvinhas,MAS,1.85,2,040732
Vale de Gouvinhas,PCTP/MRPP,0.93,1,040732
Vale de Gouvinhas,PDA,0.93,1,040732
Vale de Gouvinhas,PND,0.93,1,040732
Vale de Gouvinhas,L,0,0,040732
Vale de Gouvinhas,PCP-PEV,0,0,040732
Vale de Gouvinhas,PNR,0,0,040732
Vale de Gouvinhas,POUS,0,0,040732
Vale de Gouvinhas,PPM,0,0,040732
Vale de Gouvinhas,PTP,0,0,040732
