freguesia,acronym,validVotesPercentage,votes,dicofre
Vale da Senhora da Póvoa,PS,61.6,77,050712
Vale da Senhora da Póvoa,PPD/PSD.CDS-PP,22.4,28,050712
Vale da Senhora da Póvoa,MPT,4.8,6,050712
Vale da Senhora da Póvoa,B.E.,2.4,3,050712
Vale da Senhora da Póvoa,PCP-PEV,1.6,2,050712
Vale da Senhora da Póvoa,PND,1.6,2,050712
Vale da Senhora da Póvoa,PTP,1.6,2,050712
Vale da Senhora da Póvoa,L,0.8,1,050712
Vale da Senhora da Póvoa,MAS,0.8,1,050712
Vale da Senhora da Póvoa,PAN,0.8,1,050712
Vale da Senhora da Póvoa,PCTP/MRPP,0.8,1,050712
Vale da Senhora da Póvoa,PPV,0.8,1,050712
Vale da Senhora da Póvoa,PDA,0,0,050712
Vale da Senhora da Póvoa,PNR,0,0,050712
Vale da Senhora da Póvoa,POUS,0,0,050712
Vale da Senhora da Póvoa,PPM,0,0,050712
