freguesia,acronym,validVotesPercentage,votes,dicofre
Vale do Côa,PPD/PSD.CDS-PP,74.36,87,091033
Vale do Côa,PS,11.97,14,091033
Vale do Côa,PCP-PEV,4.27,5,091033
Vale do Côa,PND,4.27,5,091033
Vale do Côa,B.E.,0.85,1,091033
Vale do Côa,L,0.85,1,091033
Vale do Côa,MAS,0.85,1,091033
Vale do Côa,MPT,0.85,1,091033
Vale do Côa,PDA,0.85,1,091033
Vale do Côa,PNR,0.85,1,091033
Vale do Côa,PAN,0,0,091033
Vale do Côa,PCTP/MRPP,0,0,091033
Vale do Côa,POUS,0,0,091033
Vale do Côa,PPM,0,0,091033
Vale do Côa,PPV,0,0,091033
Vale do Côa,PTP,0,0,091033
