freguesia,acronym,validVotesPercentage,votes,dicofre
Vale de Bouro,PPD/PSD.CDS-PP,43.54,91,030521
Vale de Bouro,PS,29.67,62,030521
Vale de Bouro,PCP-PEV,7.66,16,030521
Vale de Bouro,MPT,6.7,14,030521
Vale de Bouro,PND,3.35,7,030521
Vale de Bouro,PAN,2.39,5,030521
Vale de Bouro,B.E.,1.91,4,030521
Vale de Bouro,L,1.44,3,030521
Vale de Bouro,PTP,0.96,2,030521
Vale de Bouro,MAS,0.48,1,030521
Vale de Bouro,PCTP/MRPP,0.48,1,030521
Vale de Bouro,PNR,0.48,1,030521
Vale de Bouro,POUS,0.48,1,030521
Vale de Bouro,PPV,0.48,1,030521
Vale de Bouro,PDA,0,0,030521
Vale de Bouro,PPM,0,0,030521
