freguesia,acronym,validVotesPercentage,votes,dicofre
Vale da Pedra,PS,34.72,183,140608
Vale da Pedra,PCP-PEV,26.57,140,140608
Vale da Pedra,PPD/PSD.CDS-PP,14.23,75,140608
Vale da Pedra,MPT,7.02,37,140608
Vale da Pedra,B.E.,5.12,27,140608
Vale da Pedra,PCTP/MRPP,3.8,20,140608
Vale da Pedra,PPM,1.71,9,140608
Vale da Pedra,PAN,1.52,8,140608
Vale da Pedra,L,1.33,7,140608
Vale da Pedra,PTP,1.33,7,140608
Vale da Pedra,PNR,0.95,5,140608
Vale da Pedra,PPV,0.76,4,140608
Vale da Pedra,MAS,0.57,3,140608
Vale da Pedra,PDA,0.19,1,140608
Vale da Pedra,PND,0.19,1,140608
Vale da Pedra,POUS,0,0,140608
