freguesia,acronym,validVotesPercentage,votes,dicofre
Valhascos,PPD/PSD.CDS-PP,34.39,54,141704
Valhascos,PS,26.11,41,141704
Valhascos,PCP-PEV,15.92,25,141704
Valhascos,B.E.,6.37,10,141704
Valhascos,MPT,5.1,8,141704
Valhascos,L,3.18,5,141704
Valhascos,PAN,1.91,3,141704
Valhascos,PCTP/MRPP,1.27,2,141704
Valhascos,PND,1.27,2,141704
Valhascos,PPM,1.27,2,141704
Valhascos,PPV,1.27,2,141704
Valhascos,PTP,1.27,2,141704
Valhascos,POUS,0.64,1,141704
Valhascos,MAS,0,0,141704
Valhascos,PDA,0,0,141704
Valhascos,PNR,0,0,141704
