freguesia,acronym,validVotesPercentage,votes,dicofre
Vascoveiro,PPD/PSD.CDS-PP,55.38,36,091027
Vascoveiro,PS,23.08,15,091027
Vascoveiro,PCP-PEV,6.15,4,091027
Vascoveiro,B.E.,4.62,3,091027
Vascoveiro,MPT,4.62,3,091027
Vascoveiro,L,3.08,2,091027
Vascoveiro,PCTP/MRPP,1.54,1,091027
Vascoveiro,PPM,1.54,1,091027
Vascoveiro,MAS,0,0,091027
Vascoveiro,PAN,0,0,091027
Vascoveiro,PDA,0,0,091027
Vascoveiro,PND,0,0,091027
Vascoveiro,PNR,0,0,091027
Vascoveiro,POUS,0,0,091027
Vascoveiro,PPV,0,0,091027
Vascoveiro,PTP,0,0,091027
