freguesia,acronym,validVotesPercentage,votes,dicofre
Veiros,PS,63.55,190,070413
Veiros,PPD/PSD.CDS-PP,17.73,53,070413
Veiros,PCP-PEV,11.04,33,070413
Veiros,MPT,3.01,9,070413
Veiros,B.E.,1.67,5,070413
Veiros,PCTP/MRPP,1,3,070413
Veiros,PPM,1,3,070413
Veiros,L,0.33,1,070413
Veiros,PNR,0.33,1,070413
Veiros,PPV,0.33,1,070413
Veiros,MAS,0,0,070413
Veiros,PAN,0,0,070413
Veiros,PDA,0,0,070413
Veiros,PND,0,0,070413
Veiros,POUS,0,0,070413
Veiros,PTP,0,0,070413
