freguesia,acronym,validVotesPercentage,votes,dicofre
Vendas Novas,PCP-PEV,35.95,1164,071201
Vendas Novas,PS,31.28,1013,071201
Vendas Novas,PPD/PSD.CDS-PP,17.79,576,071201
Vendas Novas,MPT,4.11,133,071201
Vendas Novas,B.E.,3.4,110,071201
Vendas Novas,PCTP/MRPP,2.1,68,071201
Vendas Novas,L,1.73,56,071201
Vendas Novas,PAN,1.51,49,071201
Vendas Novas,PPM,0.53,17,071201
Vendas Novas,PNR,0.34,11,071201
Vendas Novas,MAS,0.31,10,071201
Vendas Novas,PND,0.31,10,071201
Vendas Novas,PTP,0.28,9,071201
Vendas Novas,PPV,0.19,6,071201
Vendas Novas,PDA,0.09,3,071201
Vendas Novas,POUS,0.09,3,071201
