freguesia,acronym,validVotesPercentage,votes,dicofre
Verdoejo,PS,41.18,84,160816
Verdoejo,PPD/PSD.CDS-PP,24.51,50,160816
Verdoejo,PCP-PEV,13.24,27,160816
Verdoejo,MPT,8.82,18,160816
Verdoejo,B.E.,4.9,10,160816
Verdoejo,PCTP/MRPP,2.45,5,160816
Verdoejo,PND,1.47,3,160816
Verdoejo,PNR,0.98,2,160816
Verdoejo,PAN,0.49,1,160816
Verdoejo,POUS,0.49,1,160816
Verdoejo,PPM,0.49,1,160816
Verdoejo,PPV,0.49,1,160816
Verdoejo,PTP,0.49,1,160816
Verdoejo,L,0,0,160816
Verdoejo,MAS,0,0,160816
Verdoejo,PDA,0,0,160816
