freguesia,acronym,validVotesPercentage,votes,dicofre
Vialonga,PCP-PEV,33.74,1777,111408
Vialonga,PS,30.48,1605,111408
Vialonga,PPD/PSD.CDS-PP,11.68,615,111408
Vialonga,MPT,6.82,359,111408
Vialonga,B.E.,6.48,341,111408
Vialonga,PCTP/MRPP,2.56,135,111408
Vialonga,PAN,2.54,134,111408
Vialonga,L,2.28,120,111408
Vialonga,PTP,0.7,37,111408
Vialonga,PNR,0.57,30,111408
Vialonga,PPM,0.57,30,111408
Vialonga,MAS,0.47,25,111408
Vialonga,PND,0.47,25,111408
Vialonga,PPV,0.4,21,111408
Vialonga,PDA,0.15,8,111408
Vialonga,POUS,0.08,4,111408
