freguesia,acronym,validVotesPercentage,votes,dicofre
Vidais,PPD/PSD.CDS-PP,55.3,193,100615
Vidais,PS,22.92,80,100615
Vidais,PCP-PEV,4.3,15,100615
Vidais,B.E.,4.01,14,100615
Vidais,L,3.72,13,100615
Vidais,MPT,3.44,12,100615
Vidais,PCTP/MRPP,2.87,10,100615
Vidais,PAN,1.43,5,100615
Vidais,PDA,0.57,2,100615
Vidais,PND,0.57,2,100615
Vidais,PNR,0.57,2,100615
Vidais,PPV,0.29,1,100615
Vidais,MAS,0,0,100615
Vidais,POUS,0,0,100615
Vidais,PPM,0,0,100615
Vidais,PTP,0,0,100615
