freguesia,acronym,validVotesPercentage,votes,dicofre
Vila Cortês da Serra,PS,40.19,43,090619
Vila Cortês da Serra,PPD/PSD.CDS-PP,36.45,39,090619
Vila Cortês da Serra,MPT,6.54,7,090619
Vila Cortês da Serra,PCP-PEV,5.61,6,090619
Vila Cortês da Serra,PAN,3.74,4,090619
Vila Cortês da Serra,B.E.,1.87,2,090619
Vila Cortês da Serra,L,1.87,2,090619
Vila Cortês da Serra,PND,1.87,2,090619
Vila Cortês da Serra,PNR,0.93,1,090619
Vila Cortês da Serra,PPM,0.93,1,090619
Vila Cortês da Serra,MAS,0,0,090619
Vila Cortês da Serra,PCTP/MRPP,0,0,090619
Vila Cortês da Serra,PDA,0,0,090619
Vila Cortês da Serra,POUS,0,0,090619
Vila Cortês da Serra,PPV,0,0,090619
Vila Cortês da Serra,PTP,0,0,090619
