freguesia,acronym,validVotesPercentage,votes,dicofre
Vila Franca do Deão,PS,45.71,32,090752
Vila Franca do Deão,PPD/PSD.CDS-PP,31.43,22,090752
Vila Franca do Deão,MPT,7.14,5,090752
Vila Franca do Deão,PAN,5.71,4,090752
Vila Franca do Deão,B.E.,4.29,3,090752
Vila Franca do Deão,PCP-PEV,4.29,3,090752
Vila Franca do Deão,MAS,1.43,1,090752
Vila Franca do Deão,L,0,0,090752
Vila Franca do Deão,PCTP/MRPP,0,0,090752
Vila Franca do Deão,PDA,0,0,090752
Vila Franca do Deão,PND,0,0,090752
Vila Franca do Deão,PNR,0,0,090752
Vila Franca do Deão,POUS,0,0,090752
Vila Franca do Deão,PPM,0,0,090752
Vila Franca do Deão,PPV,0,0,090752
Vila Franca do Deão,PTP,0,0,090752
