freguesia,acronym,validVotesPercentage,votes,dicofre
Vilas Boas,PPD/PSD.CDS-PP,70.69,41,170347
Vilas Boas,PS,12.07,7,170347
Vilas Boas,PCP-PEV,6.9,4,170347
Vilas Boas,B.E.,3.45,2,170347
Vilas Boas,MPT,3.45,2,170347
Vilas Boas,PAN,1.72,1,170347
Vilas Boas,PND,1.72,1,170347
Vilas Boas,L,0,0,170347
Vilas Boas,MAS,0,0,170347
Vilas Boas,PCTP/MRPP,0,0,170347
Vilas Boas,PDA,0,0,170347
Vilas Boas,PNR,0,0,170347
Vilas Boas,POUS,0,0,170347
Vilas Boas,PPM,0,0,170347
Vilas Boas,PPV,0,0,170347
Vilas Boas,PTP,0,0,170347
