freguesia,acronym,validVotesPercentage,votes,dicofre
Vila Nova de Tazem,PPD/PSD.CDS-PP,64.25,345,090621
Vila Nova de Tazem,PS,21.04,113,090621
Vila Nova de Tazem,MPT,6.33,34,090621
Vila Nova de Tazem,B.E.,2.23,12,090621
Vila Nova de Tazem,PCP-PEV,2.23,12,090621
Vila Nova de Tazem,L,1.12,6,090621
Vila Nova de Tazem,PAN,0.93,5,090621
Vila Nova de Tazem,PCTP/MRPP,0.56,3,090621
Vila Nova de Tazem,PND,0.56,3,090621
Vila Nova de Tazem,PPV,0.37,2,090621
Vila Nova de Tazem,MAS,0.19,1,090621
Vila Nova de Tazem,PNR,0.19,1,090621
Vila Nova de Tazem,PDA,0,0,090621
Vila Nova de Tazem,POUS,0,0,090621
Vila Nova de Tazem,PPM,0,0,090621
Vila Nova de Tazem,PTP,0,0,090621
