freguesia,acronym,validVotesPercentage,votes,dicofre
Vila Boa do Bispo,PPD/PSD.CDS-PP,46.82,368,130730
Vila Boa do Bispo,PS,28.5,224,130730
Vila Boa do Bispo,MPT,12.6,99,130730
Vila Boa do Bispo,PCP-PEV,2.29,18,130730
Vila Boa do Bispo,L,1.91,15,130730
Vila Boa do Bispo,PCTP/MRPP,1.65,13,130730
Vila Boa do Bispo,B.E.,1.53,12,130730
Vila Boa do Bispo,PND,1.02,8,130730
Vila Boa do Bispo,PAN,0.76,6,130730
Vila Boa do Bispo,PTP,0.76,6,130730
Vila Boa do Bispo,MAS,0.64,5,130730
Vila Boa do Bispo,PNR,0.64,5,130730
Vila Boa do Bispo,PPM,0.51,4,130730
Vila Boa do Bispo,PPV,0.25,2,130730
Vila Boa do Bispo,POUS,0.13,1,130730
Vila Boa do Bispo,PDA,0,0,130730
