freguesia,acronym,validVotesPercentage,votes,dicofre
Vila de Rei,PPD/PSD.CDS-PP,57.27,575,051003
Vila de Rei,PS,21.22,213,051003
Vila de Rei,MPT,8.17,82,051003
Vila de Rei,PCP-PEV,3.78,38,051003
Vila de Rei,B.E.,1.39,14,051003
Vila de Rei,PAN,1.2,12,051003
Vila de Rei,PCTP/MRPP,1.2,12,051003
Vila de Rei,PTP,1.2,12,051003
Vila de Rei,PND,1.1,11,051003
Vila de Rei,L,0.9,9,051003
Vila de Rei,MAS,0.6,6,051003
Vila de Rei,PPM,0.6,6,051003
Vila de Rei,PNR,0.5,5,051003
Vila de Rei,PDA,0.4,4,051003
Vila de Rei,PPV,0.4,4,051003
Vila de Rei,POUS,0.1,1,051003
