freguesia,acronym,validVotesPercentage,votes,dicofre
Vila Alva,PCP-PEV,40.26,62,020703
Vila Alva,PS,38.96,60,020703
Vila Alva,PPD/PSD.CDS-PP,11.69,18,020703
Vila Alva,L,3.25,5,020703
Vila Alva,MPT,1.95,3,020703
Vila Alva,PCTP/MRPP,1.95,3,020703
Vila Alva,B.E.,1.3,2,020703
Vila Alva,PAN,0.65,1,020703
Vila Alva,MAS,0,0,020703
Vila Alva,PDA,0,0,020703
Vila Alva,PND,0,0,020703
Vila Alva,PNR,0,0,020703
Vila Alva,POUS,0,0,020703
Vila Alva,PPM,0,0,020703
Vila Alva,PPV,0,0,020703
Vila Alva,PTP,0,0,020703
