freguesia,acronym,validVotesPercentage,votes,dicofre
Vila Chã,PPD/PSD.CDS-PP,56.55,177,030615
Vila Chã,MPT,19.81,62,030615
Vila Chã,PS,12.14,38,030615
Vila Chã,PCP-PEV,3.51,11,030615
Vila Chã,B.E.,1.6,5,030615
Vila Chã,L,1.6,5,030615
Vila Chã,PPM,1.28,4,030615
Vila Chã,PCTP/MRPP,0.96,3,030615
Vila Chã,PAN,0.64,2,030615
Vila Chã,PND,0.64,2,030615
Vila Chã,PNR,0.64,2,030615
Vila Chã,MAS,0.32,1,030615
Vila Chã,PDA,0.32,1,030615
Vila Chã,POUS,0,0,030615
Vila Chã,PPV,0,0,030615
Vila Chã,PTP,0,0,030615
