freguesia,acronym,validVotesPercentage,votes,dicofre
Vilarinho de Agrochão,PPD/PSD.CDS-PP,55.26,42,040536
Vilarinho de Agrochão,PS,30.26,23,040536
Vilarinho de Agrochão,MPT,10.53,8,040536
Vilarinho de Agrochão,PND,2.63,2,040536
Vilarinho de Agrochão,PAN,1.32,1,040536
Vilarinho de Agrochão,B.E.,0,0,040536
Vilarinho de Agrochão,L,0,0,040536
Vilarinho de Agrochão,MAS,0,0,040536
Vilarinho de Agrochão,PCP-PEV,0,0,040536
Vilarinho de Agrochão,PCTP/MRPP,0,0,040536
Vilarinho de Agrochão,PDA,0,0,040536
Vilarinho de Agrochão,PNR,0,0,040536
Vilarinho de Agrochão,POUS,0,0,040536
Vilarinho de Agrochão,PPM,0,0,040536
Vilarinho de Agrochão,PPV,0,0,040536
Vilarinho de Agrochão,PTP,0,0,040536
