freguesia,acronym,validVotesPercentage,votes,dicofre
Vila Marim,PPD/PSD.CDS-PP,37.89,194,171429
Vila Marim,PS,35.16,180,171429
Vila Marim,MPT,7.23,37,171429
Vila Marim,PCP-PEV,5.27,27,171429
Vila Marim,B.E.,3.52,18,171429
Vila Marim,L,2.15,11,171429
Vila Marim,PCTP/MRPP,2.15,11,171429
Vila Marim,PPV,1.76,9,171429
Vila Marim,PPM,1.37,7,171429
Vila Marim,PTP,1.37,7,171429
Vila Marim,PAN,0.78,4,171429
Vila Marim,MAS,0.39,2,171429
Vila Marim,PND,0.39,2,171429
Vila Marim,PNR,0.39,2,171429
Vila Marim,POUS,0.2,1,171429
Vila Marim,PDA,0,0,171429
