freguesia,acronym,validVotesPercentage,votes,dicofre
Vila Verde da Raia,PPD/PSD.CDS-PP,53.62,126,170343
Vila Verde da Raia,PS,29.79,70,170343
Vila Verde da Raia,MPT,5.53,13,170343
Vila Verde da Raia,PCP-PEV,3.4,8,170343
Vila Verde da Raia,B.E.,1.7,4,170343
Vila Verde da Raia,PAN,1.7,4,170343
Vila Verde da Raia,PPM,1.28,3,170343
Vila Verde da Raia,PTP,0.85,2,170343
Vila Verde da Raia,L,0.43,1,170343
Vila Verde da Raia,MAS,0.43,1,170343
Vila Verde da Raia,PCTP/MRPP,0.43,1,170343
Vila Verde da Raia,PND,0.43,1,170343
Vila Verde da Raia,PPV,0.43,1,170343
Vila Verde da Raia,PDA,0,0,170343
Vila Verde da Raia,PNR,0,0,170343
Vila Verde da Raia,POUS,0,0,170343
