freguesia,acronym,validVotesPercentage,votes,dicofre
Vilar de Ossos,PS,50.63,40,041232
Vilar de Ossos,PPD/PSD.CDS-PP,26.58,21,041232
Vilar de Ossos,MPT,7.59,6,041232
Vilar de Ossos,PAN,3.8,3,041232
Vilar de Ossos,PCP-PEV,3.8,3,041232
Vilar de Ossos,B.E.,1.27,1,041232
Vilar de Ossos,L,1.27,1,041232
Vilar de Ossos,PCTP/MRPP,1.27,1,041232
Vilar de Ossos,PND,1.27,1,041232
Vilar de Ossos,PNR,1.27,1,041232
Vilar de Ossos,PTP,1.27,1,041232
Vilar de Ossos,MAS,0,0,041232
Vilar de Ossos,PDA,0,0,041232
Vilar de Ossos,POUS,0,0,041232
Vilar de Ossos,PPM,0,0,041232
Vilar de Ossos,PPV,0,0,041232
