freguesia,acronym,validVotesPercentage,votes,dicofre
Vila de Ala,PPD/PSD.CDS-PP,77.1,101,040826
Vila de Ala,PS,13.74,18,040826
Vila de Ala,PCP-PEV,2.29,3,040826
Vila de Ala,B.E.,1.53,2,040826
Vila de Ala,PCTP/MRPP,1.53,2,040826
Vila de Ala,L,0.76,1,040826
Vila de Ala,MAS,0.76,1,040826
Vila de Ala,MPT,0.76,1,040826
Vila de Ala,PND,0.76,1,040826
Vila de Ala,PPV,0.76,1,040826
Vila de Ala,PAN,0,0,040826
Vila de Ala,PDA,0,0,040826
Vila de Ala,PNR,0,0,040826
Vila de Ala,POUS,0,0,040826
Vila de Ala,PPM,0,0,040826
Vila de Ala,PTP,0,0,040826
