freguesia,acronym,validVotesPercentage,votes,dicofre
Vila Cova à Coelheira,PS,56.29,94,091228
Vila Cova à Coelheira,PPD/PSD.CDS-PP,14.37,24,091228
Vila Cova à Coelheira,MPT,9.58,16,091228
Vila Cova à Coelheira,PCP-PEV,9.58,16,091228
Vila Cova à Coelheira,B.E.,3.59,6,091228
Vila Cova à Coelheira,PND,1.8,3,091228
Vila Cova à Coelheira,PCTP/MRPP,1.2,2,091228
Vila Cova à Coelheira,POUS,1.2,2,091228
Vila Cova à Coelheira,L,0.6,1,091228
Vila Cova à Coelheira,PAN,0.6,1,091228
Vila Cova à Coelheira,PPV,0.6,1,091228
Vila Cova à Coelheira,PTP,0.6,1,091228
Vila Cova à Coelheira,MAS,0,0,091228
Vila Cova à Coelheira,PDA,0,0,091228
Vila Cova à Coelheira,PNR,0,0,091228
Vila Cova à Coelheira,PPM,0,0,091228
