freguesia,acronym,validVotesPercentage,votes,dicofre
Vilarinho do Bairro,PPD/PSD.CDS-PP,68.92,572,010313
Vilarinho do Bairro,PS,15.3,127,010313
Vilarinho do Bairro,MPT,5.42,45,010313
Vilarinho do Bairro,PCP-PEV,2.41,20,010313
Vilarinho do Bairro,B.E.,1.81,15,010313
Vilarinho do Bairro,PND,1.08,9,010313
Vilarinho do Bairro,PAN,0.96,8,010313
Vilarinho do Bairro,PTP,0.96,8,010313
Vilarinho do Bairro,PPM,0.84,7,010313
Vilarinho do Bairro,MAS,0.6,5,010313
Vilarinho do Bairro,L,0.48,4,010313
Vilarinho do Bairro,PNR,0.48,4,010313
Vilarinho do Bairro,PCTP/MRPP,0.24,2,010313
Vilarinho do Bairro,PDA,0.24,2,010313
Vilarinho do Bairro,POUS,0.24,2,010313
Vilarinho do Bairro,PPV,0,0,010313
