freguesia,acronym,validVotesPercentage,votes,dicofre
Vila Nova da Rainha,PS,37.76,111,110307
Vila Nova da Rainha,PCP-PEV,23.47,69,110307
Vila Nova da Rainha,PPD/PSD.CDS-PP,15.31,45,110307
Vila Nova da Rainha,MPT,9.86,29,110307
Vila Nova da Rainha,B.E.,5.44,16,110307
Vila Nova da Rainha,PCTP/MRPP,2.38,7,110307
Vila Nova da Rainha,PNR,2.04,6,110307
Vila Nova da Rainha,L,1.36,4,110307
Vila Nova da Rainha,PTP,1.02,3,110307
Vila Nova da Rainha,MAS,0.34,1,110307
Vila Nova da Rainha,PAN,0.34,1,110307
Vila Nova da Rainha,PDA,0.34,1,110307
Vila Nova da Rainha,PPV,0.34,1,110307
Vila Nova da Rainha,PND,0,0,110307
Vila Nova da Rainha,POUS,0,0,110307
Vila Nova da Rainha,PPM,0,0,110307
