freguesia,acronym,validVotesPercentage,votes,dicofre
Vila Nova de Souto d' El-Rei,PPD/PSD.CDS-PP,55.25,121,180524
Vila Nova de Souto d' El-Rei,PS,22.83,50,180524
Vila Nova de Souto d' El-Rei,PCP-PEV,5.48,12,180524
Vila Nova de Souto d' El-Rei,B.E.,4.57,10,180524
Vila Nova de Souto d' El-Rei,MPT,3.2,7,180524
Vila Nova de Souto d' El-Rei,PCTP/MRPP,2.28,5,180524
Vila Nova de Souto d' El-Rei,L,1.83,4,180524
Vila Nova de Souto d' El-Rei,PND,0.91,2,180524
Vila Nova de Souto d' El-Rei,PPM,0.91,2,180524
Vila Nova de Souto d' El-Rei,PTP,0.91,2,180524
Vila Nova de Souto d' El-Rei,PAN,0.46,1,180524
Vila Nova de Souto d' El-Rei,PDA,0.46,1,180524
Vila Nova de Souto d' El-Rei,PNR,0.46,1,180524
Vila Nova de Souto d' El-Rei,PPV,0.46,1,180524
Vila Nova de Souto d' El-Rei,MAS,0,0,180524
Vila Nova de Souto d' El-Rei,POUS,0,0,180524
