freguesia,acronym,validVotesPercentage,votes,dicofre
"União das freguesias de Real, Ataíde e Oliveira",PS,53.1,796,130147
"União das freguesias de Real, Ataíde e Oliveira",PPD/PSD.CDS-PP,28.02,420,130147
"União das freguesias de Real, Ataíde e Oliveira",MPT,8.07,121,130147
"União das freguesias de Real, Ataíde e Oliveira",PCP-PEV,4.54,68,130147
"União das freguesias de Real, Ataíde e Oliveira",B.E.,1.87,28,130147
"União das freguesias de Real, Ataíde e Oliveira",PAN,0.87,13,130147
"União das freguesias de Real, Ataíde e Oliveira",L,0.8,12,130147
"União das freguesias de Real, Ataíde e Oliveira",PTP,0.8,12,130147
"União das freguesias de Real, Ataíde e Oliveira",PND,0.6,9,130147
"União das freguesias de Real, Ataíde e Oliveira",PCTP/MRPP,0.47,7,130147
"União das freguesias de Real, Ataíde e Oliveira",MAS,0.4,6,130147
"União das freguesias de Real, Ataíde e Oliveira",PPM,0.2,3,130147
"União das freguesias de Real, Ataíde e Oliveira",PNR,0.13,2,130147
"União das freguesias de Real, Ataíde e Oliveira",PDA,0.07,1,130147
"União das freguesias de Real, Ataíde e Oliveira",PPV,0.07,1,130147
"União das freguesias de Real, Ataíde e Oliveira",POUS,0,0,130147
