freguesia,acronym,validVotesPercentage,votes,dicofre
Vila Nova da Baronia,PS,44.51,154,020302
Vila Nova da Baronia,PCP-PEV,28.9,100,020302
Vila Nova da Baronia,PPD/PSD.CDS-PP,14.45,50,020302
Vila Nova da Baronia,B.E.,3.18,11,020302
Vila Nova da Baronia,PCTP/MRPP,3.18,11,020302
Vila Nova da Baronia,L,1.73,6,020302
Vila Nova da Baronia,MPT,1.73,6,020302
Vila Nova da Baronia,PAN,0.87,3,020302
Vila Nova da Baronia,PPM,0.58,2,020302
Vila Nova da Baronia,MAS,0.29,1,020302
Vila Nova da Baronia,PND,0.29,1,020302
Vila Nova da Baronia,PNR,0.29,1,020302
Vila Nova da Baronia,PDA,0,0,020302
Vila Nova da Baronia,POUS,0,0,020302
Vila Nova da Baronia,PPV,0,0,020302
Vila Nova da Baronia,PTP,0,0,020302
