freguesia,acronym,validVotesPercentage,votes,dicofre
Vila Verde dos Francos,PS,57.23,186,110114
Vila Verde dos Francos,PPD/PSD.CDS-PP,20.31,66,110114
Vila Verde dos Francos,PCP-PEV,7.38,24,110114
Vila Verde dos Francos,MPT,5.23,17,110114
Vila Verde dos Francos,B.E.,3.69,12,110114
Vila Verde dos Francos,PND,2.15,7,110114
Vila Verde dos Francos,L,1.23,4,110114
Vila Verde dos Francos,MAS,0.62,2,110114
Vila Verde dos Francos,PCTP/MRPP,0.62,2,110114
Vila Verde dos Francos,PPM,0.62,2,110114
Vila Verde dos Francos,PPV,0.62,2,110114
Vila Verde dos Francos,PNR,0.31,1,110114
Vila Verde dos Francos,PAN,0,0,110114
Vila Verde dos Francos,PDA,0,0,110114
Vila Verde dos Francos,POUS,0,0,110114
Vila Verde dos Francos,PTP,0,0,110114
