freguesia,acronym,validVotesPercentage,votes,dicofre
Vila Verde,PPD/PSD.CDS-PP,53.08,69,170117
Vila Verde,PS,35.38,46,170117
Vila Verde,MPT,3.08,4,170117
Vila Verde,B.E.,2.31,3,170117
Vila Verde,PTP,2.31,3,170117
Vila Verde,PND,1.54,2,170117
Vila Verde,PPM,1.54,2,170117
Vila Verde,PAN,0.77,1,170117
Vila Verde,L,0,0,170117
Vila Verde,MAS,0,0,170117
Vila Verde,PCP-PEV,0,0,170117
Vila Verde,PCTP/MRPP,0,0,170117
Vila Verde,PDA,0,0,170117
Vila Verde,PNR,0,0,170117
Vila Verde,POUS,0,0,170117
Vila Verde,PPV,0,0,170117
