freguesia,acronym,validVotesPercentage,votes,dicofre
Vila Nova de Anços,PS,45.57,149,061511
Vila Nova de Anços,PPD/PSD.CDS-PP,18.65,61,061511
Vila Nova de Anços,PCP-PEV,17.74,58,061511
Vila Nova de Anços,MPT,7.95,26,061511
Vila Nova de Anços,B.E.,4.89,16,061511
Vila Nova de Anços,PCTP/MRPP,1.83,6,061511
Vila Nova de Anços,PPM,1.22,4,061511
Vila Nova de Anços,L,0.61,2,061511
Vila Nova de Anços,PAN,0.61,2,061511
Vila Nova de Anços,MAS,0.31,1,061511
Vila Nova de Anços,PND,0.31,1,061511
Vila Nova de Anços,PTP,0.31,1,061511
Vila Nova de Anços,PDA,0,0,061511
Vila Nova de Anços,PNR,0,0,061511
Vila Nova de Anços,POUS,0,0,061511
Vila Nova de Anços,PPV,0,0,061511
