freguesia,acronym,validVotesPercentage,votes,dicofre
Vilela Seca,PPD/PSD.CDS-PP,51.16,44,170348
Vilela Seca,PS,37.21,32,170348
Vilela Seca,PND,4.65,4,170348
Vilela Seca,PTP,3.49,3,170348
Vilela Seca,PCP-PEV,2.33,2,170348
Vilela Seca,B.E.,1.16,1,170348
Vilela Seca,L,0,0,170348
Vilela Seca,MAS,0,0,170348
Vilela Seca,MPT,0,0,170348
Vilela Seca,PAN,0,0,170348
Vilela Seca,PCTP/MRPP,0,0,170348
Vilela Seca,PDA,0,0,170348
Vilela Seca,PNR,0,0,170348
Vilela Seca,POUS,0,0,170348
Vilela Seca,PPM,0,0,170348
Vilela Seca,PPV,0,0,170348
