freguesia,acronym,validVotesPercentage,votes,dicofre
Águas Santas,PS,35.88,2924,130601
Águas Santas,PPD/PSD.CDS-PP,23.56,1920,130601
Águas Santas,PCP-PEV,13.34,1087,130601
Águas Santas,MPT,9.79,798,130601
Águas Santas,B.E.,7.02,572,130601
Águas Santas,PAN,2.83,231,130601
Águas Santas,L,2.53,206,130601
Águas Santas,PCTP/MRPP,1.98,161,130601
Águas Santas,PND,0.6,49,130601
Águas Santas,PTP,0.58,47,130601
Águas Santas,PPM,0.5,41,130601
Águas Santas,PNR,0.48,39,130601
Águas Santas,PPV,0.37,30,130601
Águas Santas,MAS,0.29,24,130601
Águas Santas,PDA,0.15,12,130601
Águas Santas,POUS,0.1,8,130601
