freguesia,acronym,validVotesPercentage,votes,dicofre
Água Retorta,PS,65.09,69,420401
Água Retorta,PPD/PSD.CDS-PP,25.47,27,420401
Água Retorta,MPT,2.83,3,420401
Água Retorta,L,1.89,2,420401
Água Retorta,PND,1.89,2,420401
Água Retorta,PAN,0.94,1,420401
Água Retorta,PDA,0.94,1,420401
Água Retorta,PPV,0.94,1,420401
Água Retorta,B.E.,0,0,420401
Água Retorta,MAS,0,0,420401
Água Retorta,PCP-PEV,0,0,420401
Água Retorta,PCTP/MRPP,0,0,420401
Água Retorta,PNR,0,0,420401
Água Retorta,POUS,0,0,420401
Água Retorta,PPM,0,0,420401
Água Retorta,PTP,0,0,420401
