freguesia,acronym,validVotesPercentage,votes,dicofre
Águas Livres,PS,37.79,4224,111513
Águas Livres,PPD/PSD.CDS-PP,19.53,2183,111513
Águas Livres,PCP-PEV,18.89,2112,111513
Águas Livres,MPT,6.94,776,111513
Águas Livres,B.E.,6.62,740,111513
Águas Livres,L,2.59,289,111513
Águas Livres,PAN,2.08,233,111513
Águas Livres,PCTP/MRPP,1.97,220,111513
Águas Livres,MAS,0.93,104,111513
Águas Livres,PTP,0.57,64,111513
Águas Livres,PPM,0.55,61,111513
Águas Livres,PND,0.47,53,111513
Águas Livres,PNR,0.46,51,111513
Águas Livres,PPV,0.3,33,111513
Águas Livres,PDA,0.2,22,111513
Águas Livres,POUS,0.13,14,111513
