Distrito,Concelhos,Total,Masculino,Feminino
Viana do Castelo,Arcos de Valdevez,21057,9529,11528
Viana do Castelo,Caminha,15885,7261,8625
Viana do Castelo,Melgaço,8197,3577,4621
Viana do Castelo,Monção,17972,8117,9855
Viana do Castelo,Paredes de Coura,8589,4057,4532
Viana do Castelo,Ponte da Barca,11249,5125,6124
Viana do Castelo,Ponte de Lima,41612,19428,22184
Viana do Castelo,Valença,13312,6159,7154
Viana do Castelo,Viana do Castelo,84827,39737,45090
Viana do Castelo,Vila Nova de Cerveira,8868,4210,4658
Braga,Amares,18131,8734,9397
Braga,Barcelos,116769,55747,61023
Braga,Braga,181651,85689,95962
Braga,Esposende,34017,16102,17915
Braga,Terras de Bouro,6446,3074,3373
Braga,Vila Verde,46909,22459,24450
,Cabeceiras de Basto,15759,7588,8171
Braga,Fafe,48424,22635,25789
Braga,Guimarães,153043,73375,79668
,Mondim de Basto,6999,3346,3653
Braga,Póvoa de Lanhoso,21455,10158,11297
Braga,Vieira do Minho,11958,5699,6260
Braga,Vila Nova de Famalicão,131824,63043,68781
Braga,Vizela,23800,11521,12280
Aveiro,Arouca,20950,9931,11020
Aveiro,Espinho,29509,13773,15736
Porto,Gondomar,165629,78492,87137
Porto,Maia,137248,64874,72375
Porto,Matosinhos,174068,81551,92517
Aveiro,Oliveira de Azeméis,66186,31507,34679
Porto,Paredes,86094,41667,44427
Porto,Porto,214936,96613,118323
Porto,Póvoa de Varzim,62443,29307,33137
Aveiro,Santa Maria da Feira,138569,66127,72443
,Santo Tirso,68373,32256,36117
Aveiro,São João da Madeira,21671,10121,11550
,Trofa,38287,18155,20132
Aveiro,Vale de Cambra,21462,10243,11220
Porto,Valongo,96239,45388,50851
Porto,Vila do Conde,79499,38002,41497
Porto,Vila Nova de Gaia,299879,141196,158683
Vila Real,Boticas,5099,2395,2704
Vila Real,Chaves,39423,18663,20760
Vila Real,Montalegre,9156,4288,4869
Vila Real,Ribeira de Pena,6060,2947,3113
Vila Real,Valpaços,15022,6903,8119
Vila Real,Vila Pouca de Aguiar,12053,5678,6376
Porto,Amarante,53490,25338,28153
Porto,Baião,18971,9062,9909
Aveiro,Castelo de Paiva,15623,7564,8060
Braga,Celorico de Basto,19131,9176,9955
Viseu,Cinfães,18562,8960,9602
Porto,Felgueiras,56651,26988,29663
Porto,Lousada,46815,22474,24341
Porto,Marco de Canaveses,51766,24959,26807
Porto,Paços de Ferreira,56707,28121,28587
Porto,Penafiel,70000,33593,36408
Viseu,Resende,10304,4965,5339
Vila Real,Alijó,10755,5079,5677
Viseu,Armamar,5815,2706,3109
Bragança,Carrazeda de Ansiães,5707,2667,3040
Bragança,Freixo de Espada à Cinta,3335,1545,1791
Viseu,Lamego,25025,11854,13171
Vila Real,Mesão Frio,4007,1834,2173
Viseu,Moimenta da Beira,9737,4646,5092
Vila Real,Murça,5497,2612,2885
Viseu,Penedono,2627,1244,1383
Vila Real,Peso da Régua,15879,7389,8490
Vila Real,Sabrosa,5928,2816,3112
Vila Real,Santa Marta de Penaguião,6677,3118,3560
Viseu,São João da Pesqueira,7180,3505,3675
Viseu,Sernancelhe,5393,2596,2797
Viseu,Tabuaço,6028,2839,3190
Viseu,Tarouca,7752,3712,4040
Bragança,Torre de Moncorvo,7757,3640,4117
Guarda,Vila Nova de Foz Côa,6569,3071,3498
Vila Real,Vila Real,49910,23666,26244
Bragança,Alfândega da Fé,4576,2197,2379
Bragança,Bragança,33627,16118,17509
Bragança,Macedo de Cavaleiros,14597,6806,7791
Bragança,Miranda do Douro,6903,3348,3555
Bragança,Mirandela,21886,10191,11695
Bragança,Mogadouro,8527,4105,4422
,Vila Flor,6100,2875,3225
Bragança,Vimioso,4081,1967,2114
Bragança,Vinhais,7908,3825,4083
Leiria,Alcobaça,53883,25749,28134
Lisboa,Alenquer,43545,21034,22511
Lisboa,Arruda dos Vinhos,15004,7241,7763
Leiria,Bombarral,12558,6050,6508
Lisboa,Cadaval,13672,6576,7096
Leiria,Caldas da Rainha,51573,24346,27227
Lisboa,Lourinhã,25672,12336,13337
Leiria,Nazaré,14224,6683,7542
Leiria,Óbidos,11714,5653,6062
Leiria,Peniche,26585,12671,13914
Lisboa,Sobral de Monte Agraço,10449,5127,5322
Lisboa,Torres Vedras,78369,37525,40844
Aveiro,Águeda,46163,22101,24062
Aveiro,Albergaria-a-Velha,24194,11551,12643
Aveiro,Anadia,27437,13060,14377
Aveiro,Aveiro,77773,36326,41448
Aveiro,Estarreja,26020,12439,13581
Aveiro,Ílhavo,38429,18066,20363
Aveiro,Murtosa,10276,4952,5324
Aveiro,Oliveira do Bairro,23896,11308,12588
Aveiro,Ovar,54219,25843,28376
Aveiro,Sever do Vouga,11474,5517,5957
Aveiro,Vagos,22719,10736,11984
Coimbra,Arganil,11125,5251,5874
Coimbra,Cantanhede,35208,16690,18519
Coimbra,Coimbra,133940,62098,71843
Coimbra,Condeixa-a-Nova,17590,8212,9378
Coimbra,Figueira da Foz,59130,27794,31336
Coimbra,Góis,3858,1774,2084
Coimbra,Lousã,17159,8272,8888
,Mealhada,19946,9386,10560
Coimbra,Mira,11882,5599,6283
Coimbra,Miranda do Corvo,12732,6093,6639
Coimbra,Montemor-o-Velho,25315,12095,13220
,Mortágua,8902,4134,4769
Coimbra,Oliveira do Hospital,19448,9271,10177
Coimbra,Pampilhosa da Serra,4069,1875,2194
Coimbra,Penacova,13906,6496,7410
Coimbra,Penela,5462,2545,2917
Coimbra,Soure,17399,8198,9201
Coimbra,Tábua,11466,5498,5968
Coimbra,Vila Nova de Poiares,6949,3281,3668
Leiria,Alvaiázere,6668,3088,3581
Leiria,Ansião,12188,5723,6466
Leiria,Batalha,15846,7543,8304
,Castanheira de Pêra,2669,1231,1439
Leiria,Figueiró dos Vinhos,5652,2634,3018
Leiria,Leiria,125082,59886,65197
Leiria,Marinha Grande,38466,18196,20270
Leiria,Pedrógão Grande,3454,1630,1825
Leiria,Pombal,52004,24762,27243
Leiria,Porto de Mós,23372,11309,12063
Guarda,Aguiar da Beira,4786,2209,2577
Viseu,Carregal do Sal,9329,4412,4917
Viseu,Castro Daire,14044,6697,7347
Viseu,Mangualde,18723,9025,9698
Viseu,Nelas,13116,6152,6964
Viseu,Oliveira de Frades,9938,4695,5243
Viseu,Penalva do Castelo,7229,3444,3785
Viseu,Santa Comba Dão,10573,4886,5688
Viseu,São Pedro do Sul,15587,7286,8301
Viseu,Sátão,11673,5515,6158
Viseu,Tondela,26745,12626,14119
Viseu,Vila Nova de Paiva,4758,2242,2516
Viseu,Viseu,97207,45514,51694
Viseu,Vouzela,9722,4593,5130
Castelo Branco,Castelo Branco,52448,24846,27602
Castelo Branco,Idanha-a-Nova,8259,3896,4363
Castelo Branco,Oleiros,5083,2374,2709
Castelo Branco,Penamacor,4876,2389,2487
Castelo Branco,Proença-a-Nova,7448,3510,3938
Castelo Branco,Vila Velha de Ródão,3187,1478,1709
Santarém,Abrantes,35608,16990,18618
Santarém,Alcanena,12911,6126,6785
Santarém,Constância,4000,1847,2154
Santarém,Entroncamento,21125,9893,11232
Santarém,Ferreira do Zêzere,8023,3769,4254
,Mação,6388,3026,3362
Santarém,Ourém,44237,20923,23314
Santarém,Sardoal,3759,1800,1959
Castelo Branco,Sertã,14768,6954,7814
Santarém,Tomar,37127,17501,19626
Santarém,Torres Novas,35089,16619,18471
Castelo Branco,Vila de Rei,3329,1495,1834
Santarém,Vila Nova da Barquinha,7392,3546,3846
Guarda,Almeida,5994,2765,3230
Castelo Branco,Belmonte,6434,3068,3366
Guarda,Celorico da Beira,7021,3266,3755
Castelo Branco,Covilhã,47394,22464,24930
Guarda,Figueira de Castelo Rodrigo,5693,2719,2974
Guarda,Fornos de Algodres,4604,2103,2501
Castelo Branco,Fundão,26879,12805,14074
Guarda,Gouveia,12599,5732,6867
Guarda,Guarda,39295,18642,20653
Guarda,Manteigas,3066,1443,1623
Guarda,Mêda,4653,2209,2444
Guarda,Pinhel,8667,4054,4614
Guarda,Sabugal,10876,5101,5775
Guarda,Seia,22577,10650,11928
Guarda,Trancoso,9009,4279,4730
Setúbal,Alcochete,19395,9274,10121
Setúbal,Almada,169070,79018,90052
Lisboa,Amadora,180833,84025,96809
Setúbal,Barreiro,75567,35112,40455
Lisboa,Cascais,212094,98329,113765
Lisboa,Lisboa,506654,232019,274636
Lisboa,Loures,210401,99358,111043
Lisboa,Mafra,83649,40373,43276
Setúbal,Moita,64571,30347,34225
Setúbal,Montijo,56596,27377,29220
Lisboa,Odivelas,158716,74373,84343
Lisboa,Oeiras,175721,81052,94670
Setúbal,Palmela,64222,30669,33554
Setúbal,Seixal,166403,78554,87850
Setúbal,Sesimbra,51421,24984,26437
Setúbal,Setúbal,116044,54744,61300
Lisboa,Sintra,387236,182947,204289
Lisboa,Vila Franca de Xira,141415,67124,74291
Setúbal,Alcácer do Sal,11783,5597,6186
Setúbal,Grândola,14598,7614,6985
Beja,Odemira,24681,12182,12499
Setúbal,Santiago do Cacém,28809,13989,14820
Setúbal,Sines,13647,6631,7016
Beja,Aljustrel,8341,4065,4276
Beja,Almodôvar,6780,3274,3506
Beja,Alvito,2461,1181,1280
Beja,Barrancos,1657,810,847
Beja,Beja,33677,16397,17280
Beja,Castro Verde,6978,3406,3573
Beja,Cuba,4628,2226,2402
Beja,Ferreira do Alentejo,7882,3801,4081
Beja,Mértola,6261,3004,3257
Beja,Moura,13839,6689,7150
Beja,Ourique,4694,2267,2427
Beja,Serpa,14497,7073,7425
Beja,Vidigueira,5521,2624,2897
Santarém,Almeirim,22676,10632,12044
Santarém,Alpiarça,7121,3447,3674
Lisboa,Azambuja,22402,11878,10524
Santarém,Benavente,30144,14481,15663
Santarém,Cartaxo,23798,11324,12474
Santarém,Chamusca,9319,4447,4872
Santarém,Coruche,17805,8391,9414
Santarém,Golegã,5411,2484,2928
Santarém,Rio Maior,20389,9775,10614
Santarém,Salvaterra de Magos,21344,10126,11219
Santarém,Santarém,57611,27206,30405
Portalegre,Alter do Chão,3210,1529,1682
Portalegre,Arronches,2885,1372,1514
Portalegre,Avis,4269,2022,2247
Portalegre,Campo Maior,7965,3842,4123
Portalegre,Castelo de Vide,2982,1406,1576
Portalegre,Crato,3218,1488,1731
Portalegre,Elvas,20852,9894,10959
Portalegre,Fronteira,2999,1357,1642
Portalegre,Gavião,3397,1600,1797
Portalegre,Marvão,3089,1507,1583
Portalegre,Monforte,3007,1376,1632
Portalegre,Nisa,6221,2942,3279
Portalegre,Ponte de Sor,15189,7265,7924
Portalegre,Portalegre,22493,10784,11710
,Sousel,4495,2135,2360
Évora,Alandroal,5114,2461,2653
Évora,Arraiolos,6972,3368,3604
Évora,Borba,6835,3316,3519
Évora,Estremoz,12896,6128,6768
Évora,Évora,52664,24729,27935
Évora,Montemor-o-Novo,15841,7598,8243
,Mora,4236,2020,2216
Évora,Mourão,2470,1231,1239
Évora,Portel,5904,2913,2992
Évora,Redondo,6431,3076,3356
Évora,Reguengos de Monsaraz,10082,4942,5141
Évora,Vendas Novas,11320,5329,5991
Évora,Viana do Alentejo,5171,2499,2672
Évora,Vila Viçosa,7767,3758,4009
Faro,Albufeira,40974,19718,21256
Faro,Alcoutim,2281,1092,1189
Faro,Aljezur,5592,2701,2891
Faro,Castro Marim,6305,3072,3233
Faro,Faro,60947,28945,32002
Faro,Lagoa,22751,10969,11782
Faro,Lagos,30493,14453,16040
Faro,Loulé,68959,32972,35987
Faro,Monchique,5230,2542,2689
Faro,Olhão,44728,21302,23427
Faro,Portimão,55374,26222,29152
Faro,São Brás de Alportel,10438,5077,5361
Faro,Silves,36216,17733,18484
Faro,Tavira,24882,11763,13120
Faro,Vila do Bispo,5158,2500,2658
Faro,Vila Real de Santo António,18916,8835,10082
,Vila do Porto,5636,2679,2957
,Lagoa [R.A.A.],14687,7186,7501
,Nordeste,4891,2415,2477
,Ponta Delgada,67960,32845,35115
,Povoação,5975,2851,3124
,Ribeira Grande,32710,16334,16376
,Vila Franca do Campo,11113,5463,5650
,Angra do Heroísmo,34004,16296,17708
,Vila da Praia da Vitória,21373,10406,10967
,Santa Cruz da Graciosa,4246,2061,2186
,Calheta [R.A.A.],3221,1603,1618
,Velas,5154,2556,2598
,Lajes do Pico,4524,2178,2347
,Madalena,5892,2803,3089
,São Roque do Pico,3271,1613,1658
,Horta,14591,7092,7499
,Lajes das Flores,1475,785,690
,Santa Cruz das Flores,2171,1042,1129
,Corvo,464,263,201
,Calheta [R.A.M.],10883,4929,5954
,Câmara de Lobos,33790,16041,17749
,Funchal,104286,47884,56402
,Machico,20183,9680,10504
,Ponta do Sol,8552,3881,4671
,Porto Moniz,2360,989,1371
,Ribeira Brava,12420,5619,6801
,Santa Cruz,44581,21523,23058
,Santana,6779,3058,3721
,São Vicente,5151,2359,2792
,Porto Santo,5175,2537,2638
