<?xml version="1.0" encoding="utf-8"?>
<!-- Generator: Adobe Illustrator 19.0.0, SVG Export Plug-In . SVG Version: 6.00 Build 0)  -->
<svg version="1.1" id="Layer_1" xmlns="http://www.w3.org/2000/svg" xmlns:xlink="http://www.w3.org/1999/xlink" x="0px" y="0px"
	 viewBox="-387 128.5 579 394.5" style="enable-background:new -387 128.5 579 394.5;" xml:space="preserve">
<style type="text/css">
	.st0{fill:#FFFFFF;}
	.st1{clip-path:url(#SVGID_2_);fill:none;stroke:#D8D8D8;stroke-width:1.07;stroke-linejoin:round;stroke-miterlimit:10;}
	.st2{clip-path:url(#SVGID_4_);fill:none;stroke:#D8D8D8;stroke-width:1.07;stroke-linejoin:round;stroke-miterlimit:10;}
	.st3{clip-path:url(#SVGID_6_);fill:none;stroke:#D8D8D8;stroke-width:1.07;stroke-linejoin:round;stroke-miterlimit:10;}
	.st4{clip-path:url(#SVGID_8_);fill:none;stroke:#D8D8D8;stroke-width:1.07;stroke-linejoin:round;stroke-miterlimit:10;}
	.st5{clip-path:url(#SVGID_10_);fill:#66B266;}
	.st6{clip-path:url(#SVGID_12_);fill:#BFBFBF;}
	.st7{clip-path:url(#SVGID_14_);fill:#FF4C4C;}
	.st8{clip-path:url(#SVGID_16_);fill:#66B266;}
	.st9{clip-path:url(#SVGID_18_);fill:#BFBFBF;}
	.st10{clip-path:url(#SVGID_20_);fill:#FF4C4C;}
	.st11{clip-path:url(#SVGID_22_);fill:#66B266;}
	.st12{clip-path:url(#SVGID_24_);fill:#BFBFBF;}
	.st13{clip-path:url(#SVGID_26_);fill:#FF4C4C;}
	.st14{clip-path:url(#SVGID_28_);fill:#66B266;}
	.st15{clip-path:url(#SVGID_30_);fill:#BFBFBF;}
	.st16{clip-path:url(#SVGID_32_);fill:#FF4C4C;}
	.st17{clip-path:url(#SVGID_34_);}
	.st18{fill:none;}
	.st19{fill:#4D4D4D;}
	.st20{font-family:'ArialMT';}
	.st21{font-size:9.6px;}
	.st22{clip-path:url(#SVGID_36_);}
	.st23{clip-path:url(#SVGID_38_);}
	.st24{clip-path:url(#SVGID_40_);}
	.st25{clip-path:url(#SVGID_42_);fill:none;stroke:#333333;stroke-width:1.07;stroke-linejoin:round;stroke-miterlimit:10;}
	.st26{clip-path:url(#SVGID_44_);fill:none;stroke:#333333;stroke-width:1.07;stroke-linejoin:round;stroke-miterlimit:10;}
	.st27{clip-path:url(#SVGID_46_);fill:none;stroke:#333333;stroke-width:1.07;stroke-linejoin:round;stroke-miterlimit:10;}
	.st28{clip-path:url(#SVGID_48_);fill:none;stroke:#333333;stroke-width:1.07;stroke-linejoin:round;stroke-miterlimit:10;}
	.st29{clip-path:url(#SVGID_50_);fill:none;stroke:#333333;stroke-width:1.07;stroke-linejoin:round;stroke-miterlimit:10;}
	.st30{clip-path:url(#SVGID_52_);fill:none;stroke:#333333;stroke-width:1.07;stroke-linejoin:round;stroke-miterlimit:10;}
	.st31{clip-path:url(#SVGID_54_);fill:none;stroke:#333333;stroke-width:1.07;stroke-linejoin:round;stroke-miterlimit:10;}
	.st32{clip-path:url(#SVGID_56_);fill:none;stroke:#333333;stroke-width:1.07;stroke-linejoin:round;stroke-miterlimit:10;}
	.st33{clip-path:url(#SVGID_58_);fill:none;stroke:#333333;stroke-width:1.07;stroke-linejoin:round;stroke-miterlimit:10;}
	.st34{clip-path:url(#SVGID_60_);}
	.st35{clip-path:url(#SVGID_62_);}
	.st36{clip-path:url(#SVGID_64_);}
	.st37{clip-path:url(#SVGID_66_);}
	.st38{clip-path:url(#SVGID_68_);}
	.st39{clip-path:url(#SVGID_70_);fill:#FFFFFF;}
	.st40{clip-path:url(#SVGID_72_);}
	.st41{font-size:12px;}
	.st42{clip-path:url(#SVGID_74_);fill:none;}
	.st43{clip-path:url(#SVGID_76_);fill:#FF4C4C;}
	.st44{clip-path:url(#SVGID_78_);fill:none;}
	.st45{clip-path:url(#SVGID_80_);fill:#BFBFBF;}
	.st46{clip-path:url(#SVGID_82_);fill:none;}
	.st47{clip-path:url(#SVGID_84_);fill:#66B266;}
	.st48{clip-path:url(#SVGID_86_);}
	.st49{clip-path:url(#SVGID_88_);}
	.st50{clip-path:url(#SVGID_90_);}
	.st51{font-family:'RobotoSlab-Bold';}
	.st52{font-size:20px;}
	.st53{font-family:'OpenSans';}
	.st54{font-size:11px;}
</style>
<rect x="-377" y="198.5" class="st0" width="525" height="324.5"/>
<rect x="-377" y="198.5" class="st0" width="525" height="324.5"/>
<g>
	<defs>
		<rect id="SVGID_1_" x="-345.2" y="204" width="487.8" height="260.5"/>
	</defs>
	<clipPath id="SVGID_2_">
		<use xlink:href="#SVGID_1_"  style="overflow:visible;"/>
	</clipPath>
	<line class="st1" x1="-345.2" y1="425.3" x2="142.5" y2="425.3"/>
</g>
<g>
	<defs>
		<rect id="SVGID_3_" x="-345.2" y="204" width="487.8" height="260.5"/>
	</defs>
	<clipPath id="SVGID_4_">
		<use xlink:href="#SVGID_3_"  style="overflow:visible;"/>
	</clipPath>
	<line class="st2" x1="-345.2" y1="364.6" x2="142.5" y2="364.6"/>
</g>
<g>
	<defs>
		<rect id="SVGID_5_" x="-345.2" y="204" width="487.8" height="260.5"/>
	</defs>
	<clipPath id="SVGID_6_">
		<use xlink:href="#SVGID_5_"  style="overflow:visible;"/>
	</clipPath>
	<line class="st3" x1="-345.2" y1="303.9" x2="142.5" y2="303.9"/>
</g>
<g>
	<defs>
		<rect id="SVGID_7_" x="-345.2" y="204" width="487.8" height="260.5"/>
	</defs>
	<clipPath id="SVGID_8_">
		<use xlink:href="#SVGID_7_"  style="overflow:visible;"/>
	</clipPath>
	<line class="st4" x1="-345.2" y1="243.2" x2="142.5" y2="243.2"/>
</g>
<g>
	<defs>
		<rect id="SVGID_9_" x="-345.2" y="204" width="487.8" height="260.5"/>
	</defs>
	<clipPath id="SVGID_10_">
		<use xlink:href="#SVGID_9_"  style="overflow:visible;"/>
	</clipPath>
	<rect x="-323.1" y="398" class="st5" width="103" height="54.7"/>
</g>
<g>
	<defs>
		<rect id="SVGID_11_" x="-345.2" y="204" width="487.8" height="260.5"/>
	</defs>
	<clipPath id="SVGID_12_">
		<use xlink:href="#SVGID_11_"  style="overflow:visible;"/>
	</clipPath>
	<rect x="-220.1" y="398" class="st6" width="277.7" height="54.7"/>
</g>
<g>
	<defs>
		<rect id="SVGID_13_" x="-345.2" y="204" width="487.8" height="260.5"/>
	</defs>
	<clipPath id="SVGID_14_">
		<use xlink:href="#SVGID_13_"  style="overflow:visible;"/>
	</clipPath>
	<rect x="57.6" y="398" class="st7" width="62.7" height="54.7"/>
</g>
<g>
	<defs>
		<rect id="SVGID_15_" x="-345.2" y="204" width="487.8" height="260.5"/>
	</defs>
	<clipPath id="SVGID_16_">
		<use xlink:href="#SVGID_15_"  style="overflow:visible;"/>
	</clipPath>
	<rect x="-323.1" y="337.3" class="st8" width="125.7" height="54.7"/>
</g>
<g>
	<defs>
		<rect id="SVGID_17_" x="-345.2" y="204" width="487.8" height="260.5"/>
	</defs>
	<clipPath id="SVGID_18_">
		<use xlink:href="#SVGID_17_"  style="overflow:visible;"/>
	</clipPath>
	<rect x="-197.4" y="337.3" class="st9" width="257.7" height="54.7"/>
</g>
<g>
	<defs>
		<rect id="SVGID_19_" x="-345.2" y="204" width="487.8" height="260.5"/>
	</defs>
	<clipPath id="SVGID_20_">
		<use xlink:href="#SVGID_19_"  style="overflow:visible;"/>
	</clipPath>
	<rect x="60.3" y="337.3" class="st10" width="60.1" height="54.7"/>
</g>
<g>
	<defs>
		<rect id="SVGID_21_" x="-345.2" y="204" width="487.8" height="260.5"/>
	</defs>
	<clipPath id="SVGID_22_">
		<use xlink:href="#SVGID_21_"  style="overflow:visible;"/>
	</clipPath>
	<rect x="-323.1" y="276.6" class="st11" width="114.2" height="54.7"/>
</g>
<g>
	<defs>
		<rect id="SVGID_23_" x="-345.2" y="204" width="487.8" height="260.5"/>
	</defs>
	<clipPath id="SVGID_24_">
		<use xlink:href="#SVGID_23_"  style="overflow:visible;"/>
	</clipPath>
	<rect x="-208.8" y="276.6" class="st12" width="272.9" height="54.7"/>
</g>
<g>
	<defs>
		<rect id="SVGID_25_" x="-345.2" y="204" width="487.8" height="260.5"/>
	</defs>
	<clipPath id="SVGID_26_">
		<use xlink:href="#SVGID_25_"  style="overflow:visible;"/>
	</clipPath>
	<rect x="64" y="276.6" class="st13" width="56.3" height="54.7"/>
</g>
<g>
	<defs>
		<rect id="SVGID_27_" x="-345.2" y="204" width="487.8" height="260.5"/>
	</defs>
	<clipPath id="SVGID_28_">
		<use xlink:href="#SVGID_27_"  style="overflow:visible;"/>
	</clipPath>
	<rect x="-323.1" y="215.9" class="st14" width="132.1" height="54.7"/>
</g>
<g>
	<defs>
		<rect id="SVGID_29_" x="-345.2" y="204" width="487.8" height="260.5"/>
	</defs>
	<clipPath id="SVGID_30_">
		<use xlink:href="#SVGID_29_"  style="overflow:visible;"/>
	</clipPath>
	<rect x="-191" y="215.9" class="st15" width="266" height="54.7"/>
</g>
<g>
	<defs>
		<rect id="SVGID_31_" x="-345.2" y="204" width="487.8" height="260.5"/>
	</defs>
	<clipPath id="SVGID_32_">
		<use xlink:href="#SVGID_31_"  style="overflow:visible;"/>
	</clipPath>
	<rect x="75.1" y="215.9" class="st16" width="45.3" height="54.7"/>
</g>
<g>
	<defs>
		<rect id="SVGID_33_" x="-377" y="198.5" width="525" height="324.5"/>
	</defs>
	<clipPath id="SVGID_34_">
		<use xlink:href="#SVGID_33_"  style="overflow:visible;"/>
	</clipPath>
	<g class="st17">
		<rect x="-371.5" y="420.5" class="st18" width="21.4" height="11.4"/>
		<text transform="matrix(1 0 0 1 -371.52 428.7702)" class="st19 st20 st21">2016</text>
	</g>
</g>
<g>
	<defs>
		<rect id="SVGID_35_" x="-377" y="198.5" width="525" height="324.5"/>
	</defs>
	<clipPath id="SVGID_36_">
		<use xlink:href="#SVGID_35_"  style="overflow:visible;"/>
	</clipPath>
	<g class="st22">
		<rect x="-371.5" y="359.8" class="st18" width="21.4" height="11.4"/>
		<text transform="matrix(1 0 0 1 -371.52 368.05)" class="st19 st20 st21">2017</text>
	</g>
</g>
<g>
	<defs>
		<rect id="SVGID_37_" x="-377" y="198.5" width="525" height="324.5"/>
	</defs>
	<clipPath id="SVGID_38_">
		<use xlink:href="#SVGID_37_"  style="overflow:visible;"/>
	</clipPath>
	<g class="st23">
		<rect x="-371.5" y="299.1" class="st18" width="21.4" height="11.4"/>
		<text transform="matrix(1 0 0 1 -371.52 307.3298)" class="st19 st20 st21">2018</text>
	</g>
</g>
<g>
	<defs>
		<rect id="SVGID_39_" x="-377" y="198.5" width="525" height="324.5"/>
	</defs>
	<clipPath id="SVGID_40_">
		<use xlink:href="#SVGID_39_"  style="overflow:visible;"/>
	</clipPath>
	<g class="st24">
		<rect x="-371.5" y="238.4" class="st18" width="21.4" height="11.4"/>
		<text transform="matrix(1 0 0 1 -371.52 246.6101)" class="st19 st20 st21">2019</text>
	</g>
</g>
<g>
	<defs>
		<rect id="SVGID_41_" x="-377" y="198.5" width="525" height="324.5"/>
	</defs>
	<clipPath id="SVGID_42_">
		<use xlink:href="#SVGID_41_"  style="overflow:visible;"/>
	</clipPath>
	<line class="st25" x1="-348" y1="425.3" x2="-345.2" y2="425.3"/>
</g>
<g>
	<defs>
		<rect id="SVGID_43_" x="-377" y="198.5" width="525" height="324.5"/>
	</defs>
	<clipPath id="SVGID_44_">
		<use xlink:href="#SVGID_43_"  style="overflow:visible;"/>
	</clipPath>
	<line class="st26" x1="-348" y1="364.6" x2="-345.2" y2="364.6"/>
</g>
<g>
	<defs>
		<rect id="SVGID_45_" x="-377" y="198.5" width="525" height="324.5"/>
	</defs>
	<clipPath id="SVGID_46_">
		<use xlink:href="#SVGID_45_"  style="overflow:visible;"/>
	</clipPath>
	<line class="st27" x1="-348" y1="303.9" x2="-345.2" y2="303.9"/>
</g>
<g>
	<defs>
		<rect id="SVGID_47_" x="-377" y="198.5" width="525" height="324.5"/>
	</defs>
	<clipPath id="SVGID_48_">
		<use xlink:href="#SVGID_47_"  style="overflow:visible;"/>
	</clipPath>
	<line class="st28" x1="-348" y1="243.2" x2="-345.2" y2="243.2"/>
</g>
<g>
	<defs>
		<rect id="SVGID_49_" x="-377" y="198.5" width="525" height="324.5"/>
	</defs>
	<clipPath id="SVGID_50_">
		<use xlink:href="#SVGID_49_"  style="overflow:visible;"/>
	</clipPath>
	<line class="st29" x1="-323.1" y1="467.2" x2="-323.1" y2="464.5"/>
</g>
<g>
	<defs>
		<rect id="SVGID_51_" x="-377" y="198.5" width="525" height="324.5"/>
	</defs>
	<clipPath id="SVGID_52_">
		<use xlink:href="#SVGID_51_"  style="overflow:visible;"/>
	</clipPath>
	<line class="st30" x1="-212.2" y1="467.2" x2="-212.2" y2="464.5"/>
</g>
<g>
	<defs>
		<rect id="SVGID_53_" x="-377" y="198.5" width="525" height="324.5"/>
	</defs>
	<clipPath id="SVGID_54_">
		<use xlink:href="#SVGID_53_"  style="overflow:visible;"/>
	</clipPath>
	<line class="st31" x1="-101.4" y1="467.2" x2="-101.4" y2="464.5"/>
</g>
<g>
	<defs>
		<rect id="SVGID_55_" x="-377" y="198.5" width="525" height="324.5"/>
	</defs>
	<clipPath id="SVGID_56_">
		<use xlink:href="#SVGID_55_"  style="overflow:visible;"/>
	</clipPath>
	<line class="st32" x1="9.5" y1="467.2" x2="9.5" y2="464.5"/>
</g>
<g>
	<defs>
		<rect id="SVGID_57_" x="-377" y="198.5" width="525" height="324.5"/>
	</defs>
	<clipPath id="SVGID_58_">
		<use xlink:href="#SVGID_57_"  style="overflow:visible;"/>
	</clipPath>
	<line class="st33" x1="120.4" y1="467.2" x2="120.4" y2="464.5"/>
</g>
<g>
	<defs>
		<rect id="SVGID_59_" x="-377" y="198.5" width="525" height="324.5"/>
	</defs>
	<clipPath id="SVGID_60_">
		<use xlink:href="#SVGID_59_"  style="overflow:visible;"/>
	</clipPath>
	<g class="st34">
		<rect x="-330" y="468.1" class="st18" width="13.9" height="11.4"/>
		<text transform="matrix(1 0 0 1 -330 476.3098)" class="st19 st20 st21">0%</text>
	</g>
</g>
<g>
	<defs>
		<rect id="SVGID_61_" x="-377" y="198.5" width="525" height="324.5"/>
	</defs>
	<clipPath id="SVGID_62_">
		<use xlink:href="#SVGID_61_"  style="overflow:visible;"/>
	</clipPath>
	<g class="st35">
		<text transform="matrix(1 0 0 1 -221.82 476.31)" class="st19 st20 st21">25%</text>
	</g>
</g>
<g>
	<defs>
		<rect id="SVGID_63_" x="-377" y="198.5" width="525" height="324.5"/>
	</defs>
	<clipPath id="SVGID_64_">
		<use xlink:href="#SVGID_63_"  style="overflow:visible;"/>
	</clipPath>
	<g class="st36">
		<text transform="matrix(1 0 0 1 -110.96 476.31)" class="st19 st20 st21">50%</text>
	</g>
</g>
<g>
	<defs>
		<rect id="SVGID_65_" x="-377" y="198.5" width="525" height="324.5"/>
	</defs>
	<clipPath id="SVGID_66_">
		<use xlink:href="#SVGID_65_"  style="overflow:visible;"/>
	</clipPath>
	<g class="st37">
		<text transform="matrix(1 0 0 1 -0.11 476.31)" class="st19 st20 st21">75%</text>
	</g>
</g>
<g>
	<defs>
		<rect id="SVGID_67_" x="-377" y="198.5" width="525" height="324.5"/>
	</defs>
	<clipPath id="SVGID_68_">
		<use xlink:href="#SVGID_67_"  style="overflow:visible;"/>
	</clipPath>
	<g class="st38">
		<text transform="matrix(1 0 0 1 108.07 476.31)" class="st19 st20 st21">100%</text>
	</g>
</g>
<g>
	<defs>
		<rect id="SVGID_69_" x="-377" y="198.5" width="525" height="324.5"/>
	</defs>
	<clipPath id="SVGID_70_">
		<use xlink:href="#SVGID_69_"  style="overflow:visible;"/>
	</clipPath>
	<rect x="-231.2" y="489.3" class="st39" width="259.7" height="28.2"/>
</g>
<g>
	<defs>
		<rect id="SVGID_71_" x="-377" y="198.5" width="525" height="324.5"/>
	</defs>
	<clipPath id="SVGID_72_">
		<use xlink:href="#SVGID_71_"  style="overflow:visible;"/>
	</clipPath>
	<g class="st40">
		<text transform="matrix(1 0 0 1 -225.72 507.7)" class="st20 st41">Sentimento</text>
	</g>
</g>
<g>
	<defs>
		<rect id="SVGID_73_" x="-377" y="198.5" width="525" height="324.5"/>
	</defs>
	<clipPath id="SVGID_74_">
		<use xlink:href="#SVGID_73_"  style="overflow:visible;"/>
	</clipPath>
	<rect x="-159" y="494.8" class="st42" width="17.3" height="17.3"/>
</g>
<g>
	<defs>
		<rect id="SVGID_75_" x="-377" y="198.5" width="525" height="324.5"/>
	</defs>
	<clipPath id="SVGID_76_">
		<use xlink:href="#SVGID_75_"  style="overflow:visible;"/>
	</clipPath>
	<rect x="-158.3" y="495.5" class="st43" width="15.9" height="15.9"/>
</g>
<g>
	<defs>
		<rect id="SVGID_77_" x="-377" y="198.5" width="525" height="324.5"/>
	</defs>
	<clipPath id="SVGID_78_">
		<use xlink:href="#SVGID_77_"  style="overflow:visible;"/>
	</clipPath>
	<rect x="-91.9" y="494.8" class="st44" width="17.3" height="17.3"/>
</g>
<g>
	<defs>
		<rect id="SVGID_79_" x="-377" y="198.5" width="525" height="324.5"/>
	</defs>
	<clipPath id="SVGID_80_">
		<use xlink:href="#SVGID_79_"  style="overflow:visible;"/>
	</clipPath>
	<rect x="-91.2" y="495.5" class="st45" width="15.9" height="15.9"/>
</g>
<g>
	<defs>
		<rect id="SVGID_81_" x="-377" y="198.5" width="525" height="324.5"/>
	</defs>
	<clipPath id="SVGID_82_">
		<use xlink:href="#SVGID_81_"  style="overflow:visible;"/>
	</clipPath>
	<rect x="-33.9" y="494.8" class="st46" width="17.3" height="17.3"/>
</g>
<g>
	<defs>
		<rect id="SVGID_83_" x="-377" y="198.5" width="525" height="324.5"/>
	</defs>
	<clipPath id="SVGID_84_">
		<use xlink:href="#SVGID_83_"  style="overflow:visible;"/>
	</clipPath>
	<rect x="-33.2" y="495.5" class="st47" width="15.9" height="15.9"/>
</g>
<g>
	<defs>
		<rect id="SVGID_85_" x="-377" y="198.5" width="525" height="324.5"/>
	</defs>
	<clipPath id="SVGID_86_">
		<use xlink:href="#SVGID_85_"  style="overflow:visible;"/>
	</clipPath>
	<g class="st48">
		<rect x="-135.8" y="498.6" class="st18" width="37.9" height="11.4"/>
		<text transform="matrix(1 0 0 1 -135.7798 506.8401)" class="st20 st21">Negativo</text>
	</g>
</g>
<g>
	<defs>
		<rect id="SVGID_87_" x="-377" y="198.5" width="525" height="324.5"/>
	</defs>
	<clipPath id="SVGID_88_">
		<use xlink:href="#SVGID_87_"  style="overflow:visible;"/>
	</clipPath>
	<g class="st49">
		<text transform="matrix(1 0 0 1 -68.66 506.84)" class="st20 st21">Neutro</text>
	</g>
</g>
<g>
	<defs>
		<rect id="SVGID_89_" x="-377" y="198.5" width="525" height="324.5"/>
	</defs>
	<clipPath id="SVGID_90_">
		<use xlink:href="#SVGID_89_"  style="overflow:visible;"/>
	</clipPath>
	<g class="st50">
		<text transform="matrix(1 0 0 1 -10.61 506.84)" class="st20 st21">Positivo</text>
	</g>
</g>
<rect x="-359.7" y="153.8" class="st18" width="598.7" height="43"/>
<text transform="matrix(1 0 0 1 -359.6802 169.0727)" class="st51 st52">Palavras positivas Vs. Palavras negativas nos discursos</text>
<rect x="-360.2" y="181.8" class="st18" width="531.2" height="27"/>
<text transform="matrix(1 0 0 1 -360.1802 190.1982)"><tspan x="0" y="0" class="st53 st54">Percentagem de palavras que provocam, de acordo com o algorítmo, sentimentos positivos, negativos </tspan><tspan x="0" y="13.2" class="st53 st54">ou neutros nos quatro discursos de António Costa no estado da Nação.</tspan></text>
</svg>
