word,n
um,9
anos,8
continuar,7
crescimento,7
podemos,7
presidente,7
deputados,6
governo,6
senhor,6
senhoras,6
senhores,6
ano,5
cidadãos,5
convergência,5
debate,5
emprego,5
investimento,5
país,5
públicas,5
assembleia,4
coesão,4
confiança,4
défice,4
estrutural,4
floresta,4
melhor,4
políticas,4
valorização,4
2016,3
abandono,3
capacidade,3
competitividade,3
conhecimento,3
economia,3
económico,3
exige,3
gerações,3
habitação,3
inovação,3
interior,3
legislatura,3
política,3
portugal,3
portugueses,3
previsto,3
programa,3
públicos,3
resultados,3
social,3
territorial,3
últimos,3
10,2
2020,2
3,2
abrindo,2
administração,2
afinal,2
alternativa,2
aprovar,2
assenta,2
atingiu,2
autarquias,2
avaliação,2
carga,2
carreiras,2
carris,2
claro,2
colaboração,2
conjunto,2
contexto,2
continuaremos,2
década,2
desafio,2
dever,2
difícil,2
direitos,2
dois,2
económica,2
educação,2
eixos,2
enfrentar,2
escolar,2
essencial,2
estratégica,2
europeia,2
externa,2
finalmente,2
fiscal,2
funções,2
futuro,2
garanta,2
homólogo,2
igualdade,2
indicadores,2
indústria,2
início,2
interna,2
intervenção,2
iremos,2
linhas,2
matriz,2
missão,2
modelo,2
nacional,2
níveis,2
oportunidade,2
passado,2
passageiros,2
pedrógão,2
prazo,2
precisámos,2
prioridade,2
prioridades,2
prioritária,2
problema,2
procedimento,2
processo,2
promovendo,2
pública,2
público,2
qualificação,2
reforma,2
sabemos,2
saída,2
sermos,2
stcp,2
sucesso,2
territórios,2
trimestre,2
união,2
unidade,2
viagens,2
vida,2
visão,2
1,1
100.000,1
15,1
"15,4",1
17,1
173,1
175.000,1
18,1
19,1
1º,1
2,1
2017,1
2018,1
24,1
4,1
470.000,1
65,1
7,1
"9,5",1
abalados,1
aberto,1
abril,1
abriu,1
acaso,1
aceleração,1
acessível,1
acesso,1
aconteceu,1
acorreram,1
adalberto,1
adiar,1
adjudicaram,1
adotámos,1
adversidade,1
afetados,1
agentes,1
ágil,1
agilizem,1
ajustamento,1
alargar,1
alcançámos,1
aliás,1
alívio,1
alterações,1
alto,1
altura,1
alunos,1
amanhã,1
ambicionamos,1
ameaçadas,1
amigos,1
andar,1
antevisão,1
antigas,1
apelo,1
apoios,1
apreciação,1
apresentar,1
apresentarei,1
aprofundaremos,1
apurar,1
aquisição,1
áreas,1
arranque,1
arrendamento,1
assegurando,1
associativas,1
ativa,1
atuais,1
atual,1
aumentar,1
aumento,1
autocarros,1
autónomas,1
autonomia,1
autonomização,1
auxílio,1
avançados,1
baixa,1
balanço,1
bases,1
beneficiando,1
bens,1
brio,1
c’s,1
cabalmente,1
cabos,1
cadastro,1
campos,1
catástrofe,1
catástrofes,1
centralismo,1
centro,1
centros,1
certo,1
chamas,1
cidades,1
científicos,1
cinco,1
cívica,1
classes,1
clima,1
climáticas,1
coesos,1
colocaremos,1
combata,1
combate,1
combateram,1
começarmos,1
comissão,1
comoção,1
competência,1
competências,1
competitivos,1
comprometeram,1
comprova,1
comunicações,1
concelhos,1
concentração,1
concertação,1
concluir,1
conclusão,1
concretização,1
condenando,1
confiar,1
conhecer,1
consensualizar,1
consolidar,1
constituída,1
construir,1
consumidores,1
continuada,1
continuará,1
contrário,1
contratação,1
contribua,1
contributos,1
coragem,1
cortar,1
criação,1
criados,1
crianças,1
criarmos,1
crime,1
criou,1
cumpriram,1
cumpriu,1
currículos,1
custos,1
dará,1
décadas,1
decisiva,1
decorrem,1
defesa,1
défices,1
deixar,1
demarcação,1
democracia,1
descentralização,1
descongelamento,1
desemprego,1
desigualdades,1
deslocalizar,1
destruído,1
destruir,1
devida,1
dignificação,1
diminuição,1
diminuir,1
direito,1
diretamente,1
dirigida,1
discussão,1
dizermos,1
domínios,1
dor,1
económicos,1
educativos,1
efeito,1
eficaz,1
emergência,1
empenhados,1
empobrecer,1
empreendedor,1
empresas,1
encontra,1
endividamento,1
energia,1
equilíbrio,1
esclarecer,1
escolas,1
esforço,1
especial,1
especializados,1
espera,1
esperar,1
esquecer,1
estando,1
estarmos,1
estimule,1
estradas,1
estratégia,1
estrategicamente,1
estruturas,1
estudos,1
eucalipto,1
euro,1
evidenciando,1
evitar,1
excessivo,1
excessivos,1
executar,1
exercício,1
exigido,1
expansão,1
expectativas,1
experiência,1
exportação,1
extraordinária,1
factos,1
faleceram,1
familiares,1
fase,1
fernandes,1
fibra,1
finanças,1
flexível,1
florestal,1
florestas,1
fogo,1
formação,1
fortalecermos,1
forte,1
freguesias,1
fruto,1
função,1
funcionamento,1
fundamentais,1
fundio,1
garantir,1
gera,1
gerais,1
gerou,1
gestão,1
globais,1
global,1
góis,1
governativo,1
gratidão,1
habitações,1
hectares,1
horizontais,1
humana,1
ibérico,1
imediatamente,1
imediatas,1
impacto,1
impõe,1
importante,1
importantes,1
impressionante,1
incêndios,1
incentivo,1
independente,1
informação,1
iniciámos,1
inquérito,1
inquéritos,1
inserção,1
instrumentos,1
inteligente,1
intensamente,1
interioridade,1
internacional,1
internamente,1
investigam,1
investir,1
junho,1
justiça,1
justificar,1
laborais,1
lamentar,1
lançarmos,1
lançou,1
letivo,1
libertarmos,1
longo,1
maio,1
manutenção,1
mar,1
marca,1
marcam,1
marcha,1
março,1
martirizados,1
máximos,1
mecanismos,1
média,1
médias,1
médio,1
medo,1
melhorada,1
melhorou,1
memória,1
mercado,1
mercados,1
meta,1
metas,1
micro,1
milhões,1
mini,1
ministério,1
ministro,1
mobilização,1
mobilizarem,1
modernizarmos,1
moderno,1
monocultura,1
mostram,1
mostrando,1
mudança,1
municípios,1
nação,1
natureza,1
necessária,1
necessário,1
necessidade,1
necessidades,1
nenhum,1
º,1
ocorrido,1
oferta,1
oportunidades,1
orçamentais,1
organismos,1
outubro,1
papel,1
parlamentares,1
participação,1
passámos,1
pedagógica,1
pensar,1
pensões,1
percorreu,1
perdemos,1
perder,1
permitam,1
permitiram,1
permitirão,1
persistência,1
persistindo,1
pib,1
piloto,1
plantio,1
podermos,1
população,1
populações,1
populares,1
pôr,1
pós,1
pòs,1
possa,1
postos,1
precisamente,1
preciso,1
prejuízo,1
prepararmos,1
previsibilidade,1
primado,1
privadas,1
procurando,1
produtiva,1
produz,1
produziram,1
progresso,1
projetarmos,1
projeto,1
promoção,1
promoveremos,1
promovermos,1
propriedades,1
proprietários,1
prosseguir,1
qualidade,1
qualificações,1
qualificadas,1
reabertura,1
reafirmar,1
receamos,1
reclamar,1
reconstrução,1
reconstruir,1
recuou,1
recuperação,1
recuperaram,1
redes,1
redução,1
reduzir,1
reforçando,1
reforçar,1
reforçarmos,1
reforce,1
regiões,1
registando,1
relativo,1
rendimento,1
rendimentos,1
reordenamento,1
reordenar,1
replicar,1
república,1
responda,1
respondendo,1
responsabilidades,1
respostas,1
restabelecer,1
restabelecidos,1
retomando,1
revitalização,1
revitalizar,1
revolta,1
revoltas,1
satisfação,1
saúde,1
secretaria,1
século,1
seguir,1
segurança,1
serviços,1
sete,1
setor,1
simplex,1
simplificar,1
simultaneamente,1
sns,1
sociais,1
sociedade,1
socorro,1
solicitou,1
solidariedade,1
soluções,1
subitamente,1
sucedida,1
suficiente,1
surgem,1
sustentada,1
sustentadas,1
sustentado,1
sustentáveis,1
tarefas,1
tarifários,1
taxa,1
técnica,1
técnicos,1
tensão,1
termos,1
terras,1
terreno,1
territoriais,1
território,1
terror,1
tido,1
total,1
trabalhadores,1
trabalhamos,1
trabalhos,1
transparência,1
transportes,1
travar,1
três,1
turma,1
últimas,1
unirem,1
utentes,1
valorizarmos,1
vencer,1
verdadeira,1
volume,1
zona,1
