freguesia,acronym,validVotesPercentage,votes,dicofre
Aboim das Choças,PPD/PSD,48.74,58,160101
Aboim das Choças,PS,36.97,44,160101
Aboim das Choças,CDS-PP,5.88,7,160101
Aboim das Choças,PAN,2.52,3,160101
Aboim das Choças,B.E.,1.68,2,160101
Aboim das Choças,PCP-PEV,1.68,2,160101
Aboim das Choças,NC,0.84,1,160101
Aboim das Choças,PDR,0.84,1,160101
Aboim das Choças,PNR,0.84,1,160101
Aboim das Choças,A,0,0,160101
Aboim das Choças,IL,0,0,160101
Aboim das Choças,L,0,0,160101
Aboim das Choças,MAS,0,0,160101
Aboim das Choças,PCTP/MRPP,0,0,160101
Aboim das Choças,PPM.PPV/CDC,0,0,160101
Aboim das Choças,PTP,0,0,160101
Aboim das Choças,PURP,0,0,160101
