freguesia,acronym,validVotesPercentage,votes,dicofre
Aboim da Nóbrega e Gondomar,PPD/PSD,54.75,167,031359
Aboim da Nóbrega e Gondomar,PS,23.61,72,031359
Aboim da Nóbrega e Gondomar,CDS-PP,7.21,22,031359
Aboim da Nóbrega e Gondomar,B.E.,4.26,13,031359
Aboim da Nóbrega e Gondomar,PAN,3.93,12,031359
Aboim da Nóbrega e Gondomar,PPM.PPV/CDC,1.97,6,031359
Aboim da Nóbrega e Gondomar,PCP-PEV,1.31,4,031359
Aboim da Nóbrega e Gondomar,A,0.66,2,031359
Aboim da Nóbrega e Gondomar,MAS,0.66,2,031359
Aboim da Nóbrega e Gondomar,PDR,0.66,2,031359
Aboim da Nóbrega e Gondomar,IL,0.33,1,031359
Aboim da Nóbrega e Gondomar,L,0.33,1,031359
Aboim da Nóbrega e Gondomar,PNR,0.33,1,031359
Aboim da Nóbrega e Gondomar,NC,0,0,031359
Aboim da Nóbrega e Gondomar,PCTP/MRPP,0,0,031359
Aboim da Nóbrega e Gondomar,PTP,0,0,031359
Aboim da Nóbrega e Gondomar,PURP,0,0,031359
