freguesia,acronym,validVotesPercentage,votes,dicofre
Achadinha,PS,63.92,62,420202
Achadinha,PPD/PSD,24.74,24,420202
Achadinha,NC,3.09,3,420202
Achadinha,B.E.,2.06,2,420202
Achadinha,CDS-PP,2.06,2,420202
Achadinha,PCTP/MRPP,2.06,2,420202
Achadinha,L,1.03,1,420202
Achadinha,PAN,1.03,1,420202
Achadinha,A,0,0,420202
Achadinha,IL,0,0,420202
Achadinha,MAS,0,0,420202
Achadinha,PCP-PEV,0,0,420202
Achadinha,PDR,0,0,420202
Achadinha,PNR,0,0,420202
Achadinha,PPM.PPV/CDC,0,0,420202
Achadinha,PTP,0,0,420202
Achadinha,PURP,0,0,420202
