freguesia,acronym,validVotesPercentage,votes,dicofre
Achadas da Cruz,PS,58,58,310601
Achadas da Cruz,PPD/PSD,33,33,310601
Achadas da Cruz,B.E.,5,5,310601
Achadas da Cruz,PCTP/MRPP,2,2,310601
Achadas da Cruz,A,1,1,310601
Achadas da Cruz,PDR,1,1,310601
Achadas da Cruz,CDS-PP,0,0,310601
Achadas da Cruz,IL,0,0,310601
Achadas da Cruz,L,0,0,310601
Achadas da Cruz,MAS,0,0,310601
Achadas da Cruz,NC,0,0,310601
Achadas da Cruz,PAN,0,0,310601
Achadas da Cruz,PCP-PEV,0,0,310601
Achadas da Cruz,PNR,0,0,310601
Achadas da Cruz,PPM.PPV/CDC,0,0,310601
Achadas da Cruz,PTP,0,0,310601
Achadas da Cruz,PURP,0,0,310601
