freguesia,acronym,validVotesPercentage,votes,dicofre
Adão,PPD/PSD,46.15,48,090766
Adão,PS,29.81,31,090766
Adão,CDS-PP,6.73,7,090766
Adão,B.E.,3.85,4,090766
Adão,PPM.PPV/CDC,3.85,4,090766
Adão,PAN,2.88,3,090766
Adão,PCP-PEV,2.88,3,090766
Adão,L,1.92,2,090766
Adão,IL,0.96,1,090766
Adão,PURP,0.96,1,090766
Adão,A,0,0,090766
Adão,MAS,0,0,090766
Adão,NC,0,0,090766
Adão,PCTP/MRPP,0,0,090766
Adão,PDR,0,0,090766
Adão,PNR,0,0,090766
Adão,PTP,0,0,090766
