freguesia,acronym,validVotesPercentage,votes,dicofre
Agrochão,PPD/PSD,41.86,36,041201
Agrochão,PS,40.7,35,041201
Agrochão,PCP-PEV,4.65,4,041201
Agrochão,CDS-PP,3.49,3,041201
Agrochão,PAN,3.49,3,041201
Agrochão,B.E.,2.33,2,041201
Agrochão,L,1.16,1,041201
Agrochão,PTP,1.16,1,041201
Agrochão,PURP,1.16,1,041201
Agrochão,A,0,0,041201
Agrochão,IL,0,0,041201
Agrochão,MAS,0,0,041201
Agrochão,NC,0,0,041201
Agrochão,PCTP/MRPP,0,0,041201
Agrochão,PDR,0,0,041201
Agrochão,PNR,0,0,041201
Agrochão,PPM.PPV/CDC,0,0,041201
