freguesia,acronym,validVotesPercentage,votes,dicofre
Agualva,PS,48.16,118,430201
Agualva,PPD/PSD,40,98,430201
Agualva,CDS-PP,4.49,11,430201
Agualva,A,2.04,5,430201
Agualva,B.E.,1.63,4,430201
Agualva,L,0.82,2,430201
Agualva,MAS,0.82,2,430201
Agualva,PCP-PEV,0.82,2,430201
Agualva,IL,0.41,1,430201
Agualva,PDR,0.41,1,430201
Agualva,PPM.PPV/CDC,0.41,1,430201
Agualva,NC,0,0,430201
Agualva,PAN,0,0,430201
Agualva,PCTP/MRPP,0,0,430201
Agualva,PNR,0,0,430201
Agualva,PTP,0,0,430201
Agualva,PURP,0,0,430201
