freguesia,acronym,validVotesPercentage,votes,dicofre
Airó,PPD/PSD,39.38,139,030205
Airó,PS,38.53,136,030205
Airó,B.E.,6.8,24,030205
Airó,CDS-PP,5.38,19,030205
Airó,PAN,2.55,9,030205
Airó,PCP-PEV,1.42,5,030205
Airó,PCTP/MRPP,1.42,5,030205
Airó,A,1.13,4,030205
Airó,L,1.13,4,030205
Airó,NC,0.85,3,030205
Airó,MAS,0.57,2,030205
Airó,IL,0.28,1,030205
Airó,PPM.PPV/CDC,0.28,1,030205
Airó,PTP,0.28,1,030205
Airó,PDR,0,0,030205
Airó,PNR,0,0,030205
Airó,PURP,0,0,030205
