freguesia,acronym,validVotesPercentage,votes,dicofre
Ajuda,PS,41.96,2178,110601
Ajuda,PPD/PSD,12.14,630,110601
Ajuda,PCP-PEV,11.89,617,110601
Ajuda,B.E.,10.21,530,110601
Ajuda,PAN,6.47,336,110601
Ajuda,CDS-PP,6.05,314,110601
Ajuda,A,2.75,143,110601
Ajuda,L,2.7,140,110601
Ajuda,PPM.PPV/CDC,1.77,92,110601
Ajuda,IL,1,52,110601
Ajuda,PCTP/MRPP,0.81,42,110601
Ajuda,NC,0.64,33,110601
Ajuda,PNR,0.54,28,110601
Ajuda,PURP,0.5,26,110601
Ajuda,MAS,0.25,13,110601
Ajuda,PDR,0.25,13,110601
Ajuda,PTP,0.08,4,110601
