freguesia,acronym,validVotesPercentage,votes,dicofre
Alburitel,PS,37.53,143,142101
Alburitel,PPD/PSD,33.86,129,142101
Alburitel,B.E.,12.07,46,142101
Alburitel,CDS-PP,5.77,22,142101
Alburitel,PCP-PEV,2.62,10,142101
Alburitel,PAN,2.36,9,142101
Alburitel,A,1.31,5,142101
Alburitel,L,1.05,4,142101
Alburitel,NC,0.79,3,142101
Alburitel,PCTP/MRPP,0.79,3,142101
Alburitel,PTP,0.79,3,142101
Alburitel,PPM.PPV/CDC,0.52,2,142101
Alburitel,MAS,0.26,1,142101
Alburitel,PNR,0.26,1,142101
Alburitel,IL,0,0,142101
Alburitel,PDR,0,0,142101
Alburitel,PURP,0,0,142101
