freguesia,acronym,validVotesPercentage,votes,dicofre
Alcanede,PPD/PSD,41.32,483,141604
Alcanede,PS,30.88,361,141604
Alcanede,CDS-PP,8.81,103,141604
Alcanede,B.E.,6.5,76,141604
Alcanede,PCP-PEV,3.17,37,141604
Alcanede,PAN,2.22,26,141604
Alcanede,PPM.PPV/CDC,1.2,14,141604
Alcanede,A,1.03,12,141604
Alcanede,NC,0.94,11,141604
Alcanede,IL,0.68,8,141604
Alcanede,PURP,0.68,8,141604
Alcanede,L,0.6,7,141604
Alcanede,PCTP/MRPP,0.6,7,141604
Alcanede,PNR,0.43,5,141604
Alcanede,PTP,0.43,5,141604
Alcanede,MAS,0.26,3,141604
Alcanede,PDR,0.26,3,141604
