freguesia,acronym,validVotesPercentage,votes,dicofre
Alcaria Ruiva,PS,46.6,96,020901
Alcaria Ruiva,PCP-PEV,30.58,63,020901
Alcaria Ruiva,CDS-PP,6.31,13,020901
Alcaria Ruiva,PPD/PSD,5.34,11,020901
Alcaria Ruiva,PCTP/MRPP,4.37,9,020901
Alcaria Ruiva,B.E.,2.91,6,020901
Alcaria Ruiva,PAN,1.94,4,020901
Alcaria Ruiva,PDR,0.97,2,020901
Alcaria Ruiva,L,0.49,1,020901
Alcaria Ruiva,PTP,0.49,1,020901
Alcaria Ruiva,A,0,0,020901
Alcaria Ruiva,IL,0,0,020901
Alcaria Ruiva,MAS,0,0,020901
Alcaria Ruiva,NC,0,0,020901
Alcaria Ruiva,PNR,0,0,020901
Alcaria Ruiva,PPM.PPV/CDC,0,0,020901
Alcaria Ruiva,PURP,0,0,020901
