freguesia,acronym,validVotesPercentage,votes,dicofre
Alcochete,PS,36.82,1364,150201
Alcochete,PCP-PEV,13.98,518,150201
Alcochete,B.E.,12.28,455,150201
Alcochete,PPD/PSD,12.23,453,150201
Alcochete,CDS-PP,6.96,258,150201
Alcochete,PAN,6.23,231,150201
Alcochete,L,2.73,101,150201
Alcochete,PPM.PPV/CDC,1.94,72,150201
Alcochete,A,1.84,68,150201
Alcochete,IL,1.24,46,150201
Alcochete,PCTP/MRPP,1.19,44,150201
Alcochete,NC,1.08,40,150201
Alcochete,PNR,0.65,24,150201
Alcochete,PURP,0.43,16,150201
Alcochete,MAS,0.13,5,150201
Alcochete,PDR,0.13,5,150201
Alcochete,PTP,0.13,5,150201
