freguesia,acronym,validVotesPercentage,votes,dicofre
Alferce,PS,38.33,46,080901
Alferce,PPD/PSD,25.83,31,080901
Alferce,B.E.,17.5,21,080901
Alferce,PCP-PEV,4.17,5,080901
Alferce,PCTP/MRPP,3.33,4,080901
Alferce,CDS-PP,2.5,3,080901
Alferce,PAN,2.5,3,080901
Alferce,NC,1.67,2,080901
Alferce,A,0.83,1,080901
Alferce,L,0.83,1,080901
Alferce,PDR,0.83,1,080901
Alferce,PNR,0.83,1,080901
Alferce,PURP,0.83,1,080901
Alferce,IL,0,0,080901
Alferce,MAS,0,0,080901
Alferce,PPM.PPV/CDC,0,0,080901
Alferce,PTP,0,0,080901
