freguesia,acronym,validVotesPercentage,votes,dicofre
Alfeizerão,PPD/PSD,34.66,305,100102
Alfeizerão,PS,34.2,301,100102
Alfeizerão,CDS-PP,8.18,72,100102
Alfeizerão,B.E.,7.84,69,100102
Alfeizerão,PAN,4.89,43,100102
Alfeizerão,A,2.39,21,100102
Alfeizerão,PCP-PEV,1.82,16,100102
Alfeizerão,PPM.PPV/CDC,1.7,15,100102
Alfeizerão,L,1.25,11,100102
Alfeizerão,IL,0.8,7,100102
Alfeizerão,PNR,0.57,5,100102
Alfeizerão,NC,0.45,4,100102
Alfeizerão,PURP,0.45,4,100102
Alfeizerão,MAS,0.23,2,100102
Alfeizerão,PCTP/MRPP,0.23,2,100102
Alfeizerão,PDR,0.23,2,100102
Alfeizerão,PTP,0.11,1,100102
