freguesia,acronym,validVotesPercentage,votes,dicofre
Almoster,PS,39.46,191,141606
Almoster,PCP-PEV,15.29,74,141606
Almoster,PPD/PSD,13.43,65,141606
Almoster,B.E.,12.6,61,141606
Almoster,CDS-PP,6.82,33,141606
Almoster,PPM.PPV/CDC,3.1,15,141606
Almoster,PAN,2.27,11,141606
Almoster,PCTP/MRPP,1.86,9,141606
Almoster,L,1.65,8,141606
Almoster,A,1.45,7,141606
Almoster,NC,0.83,4,141606
Almoster,PDR,0.41,2,141606
Almoster,IL,0.21,1,141606
Almoster,MAS,0.21,1,141606
Almoster,PNR,0.21,1,141606
Almoster,PURP,0.21,1,141606
Almoster,PTP,0,0,141606
