freguesia,acronym,validVotesPercentage,votes,dicofre
Altura,PS,41.1,180,080404
Altura,PPD/PSD,17.35,76,080404
Altura,B.E.,14.84,65,080404
Altura,PCP-PEV,7.53,33,080404
Altura,PAN,5.02,22,080404
Altura,CDS-PP,4.11,18,080404
Altura,A,3.2,14,080404
Altura,PPM.PPV/CDC,1.6,7,080404
Altura,L,1.37,6,080404
Altura,PCTP/MRPP,1.37,6,080404
Altura,NC,0.68,3,080404
Altura,PDR,0.68,3,080404
Altura,IL,0.46,2,080404
Altura,MAS,0.23,1,080404
Altura,PTP,0.23,1,080404
Altura,PURP,0.23,1,080404
Altura,PNR,0,0,080404
