freguesia,acronym,validVotesPercentage,votes,dicofre
Angra (Sé),PS,32.44,109,430105
Angra (Sé),PPD/PSD,29.76,100,430105
Angra (Sé),CDS-PP,13.69,46,430105
Angra (Sé),B.E.,8.63,29,430105
Angra (Sé),A,4.76,16,430105
Angra (Sé),PAN,2.68,9,430105
Angra (Sé),IL,1.79,6,430105
Angra (Sé),NC,1.79,6,430105
Angra (Sé),PCP-PEV,1.79,6,430105
Angra (Sé),L,1.49,5,430105
Angra (Sé),PPM.PPV/CDC,0.6,2,430105
Angra (Sé),MAS,0.3,1,430105
Angra (Sé),PCTP/MRPP,0.3,1,430105
Angra (Sé),PDR,0,0,430105
Angra (Sé),PNR,0,0,430105
Angra (Sé),PTP,0,0,430105
Angra (Sé),PURP,0,0,430105
