freguesia,acronym,validVotesPercentage,votes,dicofre
Arca e Ponte de Lima,PS,30.27,386,160752
Arca e Ponte de Lima,PPD/PSD,24.08,307,160752
Arca e Ponte de Lima,B.E.,11.37,145,160752
Arca e Ponte de Lima,PCP-PEV,9.49,121,160752
Arca e Ponte de Lima,CDS-PP,8.71,111,160752
Arca e Ponte de Lima,PAN,4.08,52,160752
Arca e Ponte de Lima,NC,3.53,45,160752
Arca e Ponte de Lima,A,1.73,22,160752
Arca e Ponte de Lima,PPM.PPV/CDC,1.41,18,160752
Arca e Ponte de Lima,IL,1.25,16,160752
Arca e Ponte de Lima,L,1.1,14,160752
Arca e Ponte de Lima,PCTP/MRPP,0.94,12,160752
Arca e Ponte de Lima,PDR,0.94,12,160752
Arca e Ponte de Lima,PNR,0.47,6,160752
Arca e Ponte de Lima,PURP,0.39,5,160752
Arca e Ponte de Lima,MAS,0.16,2,160752
Arca e Ponte de Lima,PTP,0.08,1,160752
