freguesia,acronym,validVotesPercentage,votes,dicofre
Arcozelo,PS,29.61,1444,131701
Arcozelo,PPD/PSD,27.09,1321,131701
Arcozelo,B.E.,11.4,556,131701
Arcozelo,CDS-PP,8.68,423,131701
Arcozelo,PAN,6.87,335,131701
Arcozelo,PCP-PEV,5.02,245,131701
Arcozelo,A,2.09,102,131701
Arcozelo,IL,2.09,102,131701
Arcozelo,NC,1.97,96,131701
Arcozelo,L,1.93,94,131701
Arcozelo,PPM.PPV/CDC,0.86,42,131701
Arcozelo,PCTP/MRPP,0.82,40,131701
Arcozelo,PDR,0.55,27,131701
Arcozelo,PNR,0.45,22,131701
Arcozelo,PURP,0.29,14,131701
Arcozelo,PTP,0.14,7,131701
Arcozelo,MAS,0.12,6,131701
