freguesia,acronym,validVotesPercentage,votes,dicofre
"Ardegão, Freixo e Mato",PS,31.15,176,160753
"Ardegão, Freixo e Mato",PPD/PSD,27.61,156,160753
"Ardegão, Freixo e Mato",CDS-PP,18.94,107,160753
"Ardegão, Freixo e Mato",B.E.,5.84,33,160753
"Ardegão, Freixo e Mato",PCP-PEV,3.72,21,160753
"Ardegão, Freixo e Mato",PAN,3.54,20,160753
"Ardegão, Freixo e Mato",NC,1.77,10,160753
"Ardegão, Freixo e Mato",A,1.59,9,160753
"Ardegão, Freixo e Mato",PPM.PPV/CDC,1.24,7,160753
"Ardegão, Freixo e Mato",PNR,1.06,6,160753
"Ardegão, Freixo e Mato",PDR,0.88,5,160753
"Ardegão, Freixo e Mato",L,0.71,4,160753
"Ardegão, Freixo e Mato",PCTP/MRPP,0.71,4,160753
"Ardegão, Freixo e Mato",IL,0.53,3,160753
"Ardegão, Freixo e Mato",PURP,0.35,2,160753
"Ardegão, Freixo e Mato",MAS,0.18,1,160753
"Ardegão, Freixo e Mato",PTP,0.18,1,160753
