freguesia,acronym,validVotesPercentage,votes,dicofre
Arranhó,PS,40.76,302,110201
Arranhó,PPD/PSD,29.82,221,110201
Arranhó,B.E.,8.37,62,110201
Arranhó,CDS-PP,6.61,49,110201
Arranhó,PCP-PEV,4.86,36,110201
Arranhó,PAN,3.24,24,110201
Arranhó,A,2.02,15,110201
Arranhó,PPM.PPV/CDC,1.35,10,110201
Arranhó,L,0.81,6,110201
Arranhó,NC,0.54,4,110201
Arranhó,PNR,0.4,3,110201
Arranhó,IL,0.27,2,110201
Arranhó,PCTP/MRPP,0.27,2,110201
Arranhó,PTP,0.27,2,110201
Arranhó,PURP,0.27,2,110201
Arranhó,PDR,0.13,1,110201
Arranhó,MAS,0,0,110201
