freguesia,acronym,validVotesPercentage,votes,dicofre
Arrouquelas,PS,41.59,94,141402
Arrouquelas,PPD/PSD,18.58,42,141402
Arrouquelas,B.E.,10.62,24,141402
Arrouquelas,L,10.62,24,141402
Arrouquelas,PCP-PEV,7.52,17,141402
Arrouquelas,PAN,3.54,8,141402
Arrouquelas,PPM.PPV/CDC,2.21,5,141402
Arrouquelas,A,1.77,4,141402
Arrouquelas,CDS-PP,1.33,3,141402
Arrouquelas,PCTP/MRPP,1.33,3,141402
Arrouquelas,NC,0.44,1,141402
Arrouquelas,PNR,0.44,1,141402
Arrouquelas,IL,0,0,141402
Arrouquelas,MAS,0,0,141402
Arrouquelas,PDR,0,0,141402
Arrouquelas,PTP,0,0,141402
Arrouquelas,PURP,0,0,141402
