freguesia,acronym,validVotesPercentage,votes,dicofre
Atiães,PPD/PSD,68.02,151,031304
Atiães,PS,17.12,38,031304
Atiães,B.E.,4.95,11,031304
Atiães,CDS-PP,3.15,7,031304
Atiães,L,1.35,3,031304
Atiães,PDR,1.35,3,031304
Atiães,A,0.9,2,031304
Atiães,PNR,0.9,2,031304
Atiães,PTP,0.9,2,031304
Atiães,PAN,0.45,1,031304
Atiães,PCP-PEV,0.45,1,031304
Atiães,PCTP/MRPP,0.45,1,031304
Atiães,IL,0,0,031304
Atiães,MAS,0,0,031304
Atiães,NC,0,0,031304
Atiães,PPM.PPV/CDC,0,0,031304
Atiães,PURP,0,0,031304
