freguesia,acronym,validVotesPercentage,votes,dicofre
Avelãs de Caminho,PS,34.35,101,010304
Avelãs de Caminho,PPD/PSD,33.33,98,010304
Avelãs de Caminho,B.E.,10.2,30,010304
Avelãs de Caminho,CDS-PP,8.84,26,010304
Avelãs de Caminho,A,2.72,8,010304
Avelãs de Caminho,PAN,2.38,7,010304
Avelãs de Caminho,PCP-PEV,2.04,6,010304
Avelãs de Caminho,NC,1.7,5,010304
Avelãs de Caminho,L,1.36,4,010304
Avelãs de Caminho,IL,0.68,2,010304
Avelãs de Caminho,PDR,0.68,2,010304
Avelãs de Caminho,MAS,0.34,1,010304
Avelãs de Caminho,PCTP/MRPP,0.34,1,010304
Avelãs de Caminho,PNR,0.34,1,010304
Avelãs de Caminho,PPM.PPV/CDC,0.34,1,010304
Avelãs de Caminho,PTP,0.34,1,010304
Avelãs de Caminho,PURP,0,0,010304
