freguesia,acronym,validVotesPercentage,votes,dicofre
Avelar,PPD/PSD,33.72,204,100303
Avelar,PS,33.72,204,100303
Avelar,B.E.,10.58,64,100303
Avelar,PAN,4.63,28,100303
Avelar,CDS-PP,4.13,25,100303
Avelar,PCP-PEV,2.98,18,100303
Avelar,PPM.PPV/CDC,2.81,17,100303
Avelar,A,1.98,12,100303
Avelar,L,1.32,8,100303
Avelar,PCTP/MRPP,0.99,6,100303
Avelar,IL,0.66,4,100303
Avelar,PDR,0.66,4,100303
Avelar,NC,0.5,3,100303
Avelar,PNR,0.5,3,100303
Avelar,PURP,0.5,3,100303
Avelar,MAS,0.33,2,100303
Avelar,PTP,0,0,100303
