freguesia,acronym,validVotesPercentage,votes,dicofre
Avis,PCP-PEV,40.76,236,120303
Avis,PS,29.71,172,120303
Avis,PPD/PSD,8.29,48,120303
Avis,B.E.,7.25,42,120303
Avis,PCTP/MRPP,3.97,23,120303
Avis,PAN,2.59,15,120303
Avis,PPM.PPV/CDC,2.42,14,120303
Avis,L,1.73,10,120303
Avis,CDS-PP,1.04,6,120303
Avis,A,0.86,5,120303
Avis,IL,0.52,3,120303
Avis,PNR,0.35,2,120303
Avis,PURP,0.35,2,120303
Avis,MAS,0.17,1,120303
Avis,NC,0,0,120303
Avis,PDR,0,0,120303
Avis,PTP,0,0,120303
