freguesia,acronym,validVotesPercentage,votes,dicofre
Azurém,PS,36.92,1059,030804
Azurém,PPD/PSD,20.57,590,030804
Azurém,B.E.,12.62,362,030804
Azurém,CDS-PP,7.53,216,030804
Azurém,PCP-PEV,7.01,201,030804
Azurém,PAN,4.88,140,030804
Azurém,L,2.16,62,030804
Azurém,A,2.02,58,030804
Azurém,IL,1.29,37,030804
Azurém,PPM.PPV/CDC,1.05,30,030804
Azurém,NC,1.01,29,030804
Azurém,PCTP/MRPP,0.98,28,030804
Azurém,PNR,0.56,16,030804
Azurém,PDR,0.42,12,030804
Azurém,PTP,0.42,12,030804
Azurém,PURP,0.31,9,030804
Azurém,MAS,0.24,7,030804
