freguesia,acronym,validVotesPercentage,votes,dicofre
Bairro,PS,37.03,421,031204
Bairro,PPD/PSD,33.07,376,031204
Bairro,CDS-PP,8.36,95,031204
Bairro,B.E.,7.65,87,031204
Bairro,PCP-PEV,4.75,54,031204
Bairro,PAN,3.34,38,031204
Bairro,PCTP/MRPP,1.06,12,031204
Bairro,PPM.PPV/CDC,1.06,12,031204
Bairro,NC,0.79,9,031204
Bairro,PNR,0.7,8,031204
Bairro,IL,0.62,7,031204
Bairro,A,0.53,6,031204
Bairro,L,0.53,6,031204
Bairro,PDR,0.26,3,031204
Bairro,MAS,0.09,1,031204
Bairro,PTP,0.09,1,031204
Bairro,PURP,0.09,1,031204
