freguesia,acronym,validVotesPercentage,votes,dicofre
Barrosa,PS,36,45,140504
Barrosa,PCP-PEV,25.6,32,140504
Barrosa,B.E.,12,15,140504
Barrosa,PCTP/MRPP,8,10,140504
Barrosa,PAN,4.8,6,140504
Barrosa,PPD/PSD,4,5,140504
Barrosa,A,2.4,3,140504
Barrosa,CDS-PP,2.4,3,140504
Barrosa,PPM.PPV/CDC,2.4,3,140504
Barrosa,IL,1.6,2,140504
Barrosa,L,0.8,1,140504
Barrosa,MAS,0,0,140504
Barrosa,NC,0,0,140504
Barrosa,PDR,0,0,140504
Barrosa,PNR,0,0,140504
Barrosa,PTP,0,0,140504
Barrosa,PURP,0,0,140504
