freguesia,acronym,validVotesPercentage,votes,dicofre
Belver,PS,67.92,180,120902
Belver,PCP-PEV,10.19,27,120902
Belver,PPD/PSD,9.43,25,120902
Belver,B.E.,6.04,16,120902
Belver,PCTP/MRPP,2.26,6,120902
Belver,CDS-PP,1.13,3,120902
Belver,PAN,1.13,3,120902
Belver,PPM.PPV/CDC,0.75,2,120902
Belver,A,0.38,1,120902
Belver,NC,0.38,1,120902
Belver,PURP,0.38,1,120902
Belver,IL,0,0,120902
Belver,L,0,0,120902
Belver,MAS,0,0,120902
Belver,PDR,0,0,120902
Belver,PNR,0,0,120902
Belver,PTP,0,0,120902
