freguesia,acronym,validVotesPercentage,votes,dicofre
Benfica,PS,36.14,5361,110608
Benfica,PPD/PSD,17.94,2662,110608
Benfica,B.E.,11.45,1698,110608
Benfica,PCP-PEV,7.87,1167,110608
Benfica,CDS-PP,7.11,1055,110608
Benfica,PAN,6.48,962,110608
Benfica,L,3.57,529,110608
Benfica,A,3.29,488,110608
Benfica,PPM.PPV/CDC,1.62,241,110608
Benfica,IL,1.37,203,110608
Benfica,NC,1.02,151,110608
Benfica,PCTP/MRPP,0.58,86,110608
Benfica,PNR,0.51,76,110608
Benfica,PURP,0.42,62,110608
Benfica,PDR,0.34,51,110608
Benfica,MAS,0.2,30,110608
Benfica,PTP,0.09,13,110608
