freguesia,acronym,validVotesPercentage,votes,dicofre
Boa Ventura,PPD/PSD,62.42,279,311001
Boa Ventura,PS,18.57,83,311001
Boa Ventura,CDS-PP,6.94,31,311001
Boa Ventura,B.E.,2.24,10,311001
Boa Ventura,PAN,1.79,8,311001
Boa Ventura,PCTP/MRPP,1.79,8,311001
Boa Ventura,PDR,1.79,8,311001
Boa Ventura,L,0.89,4,311001
Boa Ventura,NC,0.67,3,311001
Boa Ventura,PTP,0.67,3,311001
Boa Ventura,MAS,0.45,2,311001
Boa Ventura,PCP-PEV,0.45,2,311001
Boa Ventura,PNR,0.45,2,311001
Boa Ventura,PURP,0.45,2,311001
Boa Ventura,A,0.22,1,311001
Boa Ventura,PPM.PPV/CDC,0.22,1,311001
Boa Ventura,IL,0,0,311001
