freguesia,acronym,validVotesPercentage,votes,dicofre
Bordeira,PS,41.43,29,080302
Bordeira,PCP-PEV,15.71,11,080302
Bordeira,PPD/PSD,14.29,10,080302
Bordeira,B.E.,12.86,9,080302
Bordeira,PAN,5.71,4,080302
Bordeira,CDS-PP,4.29,3,080302
Bordeira,PPM.PPV/CDC,2.86,2,080302
Bordeira,L,1.43,1,080302
Bordeira,PURP,1.43,1,080302
Bordeira,A,0,0,080302
Bordeira,IL,0,0,080302
Bordeira,MAS,0,0,080302
Bordeira,NC,0,0,080302
Bordeira,PCTP/MRPP,0,0,080302
Bordeira,PDR,0,0,080302
Bordeira,PNR,0,0,080302
Bordeira,PTP,0,0,080302
