freguesia,acronym,validVotesPercentage,votes,dicofre
Britelo,PS,53.24,74,160604
Britelo,PPD/PSD,25.9,36,160604
Britelo,PAN,3.6,5,160604
Britelo,B.E.,2.88,4,160604
Britelo,CDS-PP,2.88,4,160604
Britelo,PCP-PEV,2.16,3,160604
Britelo,PNR,2.16,3,160604
Britelo,A,1.44,2,160604
Britelo,NC,1.44,2,160604
Britelo,PPM.PPV/CDC,1.44,2,160604
Britelo,IL,0.72,1,160604
Britelo,L,0.72,1,160604
Britelo,PDR,0.72,1,160604
Britelo,PURP,0.72,1,160604
Britelo,MAS,0,0,160604
Britelo,PCTP/MRPP,0,0,160604
Britelo,PTP,0,0,160604
