freguesia,acronym,validVotesPercentage,votes,dicofre
Budens,PS,43.51,134,081502
Budens,PPD/PSD,13.96,43,081502
Budens,B.E.,13.31,41,081502
Budens,PCP-PEV,8.77,27,081502
Budens,PAN,6.82,21,081502
Budens,CDS-PP,3.57,11,081502
Budens,PCTP/MRPP,1.95,6,081502
Budens,NC,1.62,5,081502
Budens,L,1.3,4,081502
Budens,PURP,1.3,4,081502
Budens,A,0.97,3,081502
Budens,PPM.PPV/CDC,0.97,3,081502
Budens,MAS,0.65,2,081502
Budens,PDR,0.65,2,081502
Budens,IL,0.32,1,081502
Budens,PNR,0.32,1,081502
Budens,PTP,0,0,081502
