freguesia,acronym,validVotesPercentage,votes,dicofre
Cabeçudo,PS,40.49,83,050901
Cabeçudo,PPD/PSD,32.2,66,050901
Cabeçudo,B.E.,8.29,17,050901
Cabeçudo,CDS-PP,6.34,13,050901
Cabeçudo,A,3.41,7,050901
Cabeçudo,PAN,2.44,5,050901
Cabeçudo,PCP-PEV,2.44,5,050901
Cabeçudo,L,1.95,4,050901
Cabeçudo,PDR,0.98,2,050901
Cabeçudo,IL,0.49,1,050901
Cabeçudo,PCTP/MRPP,0.49,1,050901
Cabeçudo,PTP,0.49,1,050901
Cabeçudo,MAS,0,0,050901
Cabeçudo,NC,0,0,050901
Cabeçudo,PNR,0,0,050901
Cabeçudo,PPM.PPV/CDC,0,0,050901
Cabeçudo,PURP,0,0,050901
