freguesia,acronym,validVotesPercentage,votes,dicofre
Calheta,PS,49.1,109,450101
Calheta,PPD/PSD,14.86,33,450101
Calheta,CDS-PP,13.51,30,450101
Calheta,B.E.,5.86,13,450101
Calheta,A,3.6,8,450101
Calheta,PAN,3.6,8,450101
Calheta,PCP-PEV,3.6,8,450101
Calheta,PPM.PPV/CDC,2.7,6,450101
Calheta,NC,1.35,3,450101
Calheta,IL,0.45,1,450101
Calheta,L,0.45,1,450101
Calheta,PCTP/MRPP,0.45,1,450101
Calheta,PURP,0.45,1,450101
Calheta,MAS,0,0,450101
Calheta,PDR,0,0,450101
Calheta,PNR,0,0,450101
Calheta,PTP,0,0,450101
