freguesia,acronym,validVotesPercentage,votes,dicofre
Calheta de Nesquim,PS,47.06,24,460101
Calheta de Nesquim,PPD/PSD,31.37,16,460101
Calheta de Nesquim,B.E.,7.84,4,460101
Calheta de Nesquim,PPM.PPV/CDC,3.92,2,460101
Calheta de Nesquim,CDS-PP,1.96,1,460101
Calheta de Nesquim,PAN,1.96,1,460101
Calheta de Nesquim,PCTP/MRPP,1.96,1,460101
Calheta de Nesquim,PTP,1.96,1,460101
Calheta de Nesquim,PURP,1.96,1,460101
Calheta de Nesquim,A,0,0,460101
Calheta de Nesquim,IL,0,0,460101
Calheta de Nesquim,L,0,0,460101
Calheta de Nesquim,MAS,0,0,460101
Calheta de Nesquim,NC,0,0,460101
Calheta de Nesquim,PCP-PEV,0,0,460101
Calheta de Nesquim,PDR,0,0,460101
Calheta de Nesquim,PNR,0,0,460101
