freguesia,acronym,validVotesPercentage,votes,dicofre
Campo,PPD/PSD,37.32,477,182306
Campo,PS,27.7,354,182306
Campo,B.E.,9,115,182306
Campo,CDS-PP,6.96,89,182306
Campo,PAN,6.49,83,182306
Campo,PCP-PEV,3.21,41,182306
Campo,A,2.97,38,182306
Campo,PPM.PPV/CDC,1.56,20,182306
Campo,NC,1.33,17,182306
Campo,L,1.25,16,182306
Campo,IL,0.55,7,182306
Campo,PCTP/MRPP,0.47,6,182306
Campo,PNR,0.39,5,182306
Campo,PDR,0.31,4,182306
Campo,PURP,0.31,4,182306
Campo,PTP,0.16,2,182306
Campo,MAS,0,0,182306
