freguesia,acronym,validVotesPercentage,votes,dicofre
Canelas,PS,40.38,1547,131703
Canelas,PPD/PSD,20.86,799,131703
Canelas,B.E.,14.17,543,131703
Canelas,PAN,6.06,232,131703
Canelas,PCP-PEV,4.96,190,131703
Canelas,CDS-PP,3.99,153,131703
Canelas,L,1.57,60,131703
Canelas,PPM.PPV/CDC,1.44,55,131703
Canelas,NC,1.41,54,131703
Canelas,A,1.31,50,131703
Canelas,IL,1.04,40,131703
Canelas,PCTP/MRPP,0.91,35,131703
Canelas,PDR,0.57,22,131703
Canelas,PNR,0.42,16,131703
Canelas,PTP,0.37,14,131703
Canelas,PURP,0.31,12,131703
Canelas,MAS,0.23,9,131703
