freguesia,acronym,validVotesPercentage,votes,dicofre
Caniçal,PS,47.45,502,310402
Caniçal,PPD/PSD,30.34,321,310402
Caniçal,CDS-PP,7.56,80,310402
Caniçal,B.E.,4.63,49,310402
Caniçal,PAN,2.08,22,310402
Caniçal,PCP-PEV,1.51,16,310402
Caniçal,PURP,1.51,16,310402
Caniçal,PTP,1.04,11,310402
Caniçal,PPM.PPV/CDC,0.85,9,310402
Caniçal,A,0.76,8,310402
Caniçal,L,0.66,7,310402
Caniçal,IL,0.47,5,310402
Caniçal,PCTP/MRPP,0.47,5,310402
Caniçal,PDR,0.38,4,310402
Caniçal,MAS,0.19,2,310402
Caniçal,PNR,0.09,1,310402
Caniçal,NC,0,0,310402
