freguesia,acronym,validVotesPercentage,votes,dicofre
Caria,PPD/PSD,40.59,41,180707
Caria,PS,34.65,35,180707
Caria,CDS-PP,6.93,7,180707
Caria,B.E.,5.94,6,180707
Caria,A,3.96,4,180707
Caria,PCTP/MRPP,2.97,3,180707
Caria,L,1.98,2,180707
Caria,PAN,0.99,1,180707
Caria,PCP-PEV,0.99,1,180707
Caria,PPM.PPV/CDC,0.99,1,180707
Caria,IL,0,0,180707
Caria,MAS,0,0,180707
Caria,NC,0,0,180707
Caria,PDR,0,0,180707
Caria,PNR,0,0,180707
Caria,PTP,0,0,180707
Caria,PURP,0,0,180707
