freguesia,acronym,validVotesPercentage,votes,dicofre
Carnide,PPD/PSD,58.31,235,101504
Carnide,PS,11.91,48,101504
Carnide,CDS-PP,10.92,44,101504
Carnide,B.E.,4.96,20,101504
Carnide,PAN,4.96,20,101504
Carnide,PPM.PPV/CDC,2.23,9,101504
Carnide,L,1.24,5,101504
Carnide,A,0.99,4,101504
Carnide,IL,0.99,4,101504
Carnide,PDR,0.99,4,101504
Carnide,NC,0.74,3,101504
Carnide,PCP-PEV,0.5,2,101504
Carnide,PCTP/MRPP,0.5,2,101504
Carnide,PNR,0.25,1,101504
Carnide,PTP,0.25,1,101504
Carnide,PURP,0.25,1,101504
Carnide,MAS,0,0,101504
