freguesia,acronym,validVotesPercentage,votes,dicofre
Carrazeda de Ansiães,PS,40.82,198,040304
Carrazeda de Ansiães,PPD/PSD,32.37,157,040304
Carrazeda de Ansiães,B.E.,8.25,40,040304
Carrazeda de Ansiães,CDS-PP,5.98,29,040304
Carrazeda de Ansiães,PPM.PPV/CDC,2.89,14,040304
Carrazeda de Ansiães,PCP-PEV,2.27,11,040304
Carrazeda de Ansiães,PAN,1.65,8,040304
Carrazeda de Ansiães,L,1.03,5,040304
Carrazeda de Ansiães,PCTP/MRPP,1.03,5,040304
Carrazeda de Ansiães,PNR,1.03,5,040304
Carrazeda de Ansiães,IL,0.82,4,040304
Carrazeda de Ansiães,NC,0.82,4,040304
Carrazeda de Ansiães,A,0.62,3,040304
Carrazeda de Ansiães,PDR,0.21,1,040304
Carrazeda de Ansiães,PURP,0.21,1,040304
Carrazeda de Ansiães,MAS,0,0,040304
Carrazeda de Ansiães,PTP,0,0,040304
