freguesia,acronym,validVotesPercentage,votes,dicofre
Carvalhal,PS,43.18,95,140119
Carvalhal,PPD/PSD,27.73,61,140119
Carvalhal,B.E.,10.91,24,140119
Carvalhal,PCP-PEV,4.55,10,140119
Carvalhal,PPM.PPV/CDC,3.64,8,140119
Carvalhal,CDS-PP,3.18,7,140119
Carvalhal,L,1.82,4,140119
Carvalhal,PAN,1.82,4,140119
Carvalhal,IL,0.91,2,140119
Carvalhal,NC,0.91,2,140119
Carvalhal,PCTP/MRPP,0.91,2,140119
Carvalhal,PTP,0.45,1,140119
Carvalhal,A,0,0,140119
Carvalhal,MAS,0,0,140119
Carvalhal,PDR,0,0,140119
Carvalhal,PNR,0,0,140119
Carvalhal,PURP,0,0,140119
