freguesia,acronym,validVotesPercentage,votes,dicofre
Castelo Rodrigo,PS,46.15,36,090403
Castelo Rodrigo,PPD/PSD,37.18,29,090403
Castelo Rodrigo,B.E.,6.41,5,090403
Castelo Rodrigo,PAN,5.13,4,090403
Castelo Rodrigo,CDS-PP,1.28,1,090403
Castelo Rodrigo,PCP-PEV,1.28,1,090403
Castelo Rodrigo,PCTP/MRPP,1.28,1,090403
Castelo Rodrigo,PURP,1.28,1,090403
Castelo Rodrigo,A,0,0,090403
Castelo Rodrigo,IL,0,0,090403
Castelo Rodrigo,L,0,0,090403
Castelo Rodrigo,MAS,0,0,090403
Castelo Rodrigo,NC,0,0,090403
Castelo Rodrigo,PDR,0,0,090403
Castelo Rodrigo,PNR,0,0,090403
Castelo Rodrigo,PPM.PPV/CDC,0,0,090403
Castelo Rodrigo,PTP,0,0,090403
