freguesia,acronym,validVotesPercentage,votes,dicofre
Castro Marim,PS,38.78,273,080402
Castro Marim,PPD/PSD,19.03,134,080402
Castro Marim,B.E.,12.93,91,080402
Castro Marim,PCP-PEV,8.52,60,080402
Castro Marim,PAN,4.4,31,080402
Castro Marim,CDS-PP,3.69,26,080402
Castro Marim,L,2.41,17,080402
Castro Marim,A,2.13,15,080402
Castro Marim,PPM.PPV/CDC,2.13,15,080402
Castro Marim,PCTP/MRPP,1.7,12,080402
Castro Marim,NC,1.28,9,080402
Castro Marim,PDR,0.99,7,080402
Castro Marim,IL,0.57,4,080402
Castro Marim,PNR,0.57,4,080402
Castro Marim,PURP,0.57,4,080402
Castro Marim,MAS,0.14,1,080402
Castro Marim,PTP,0.14,1,080402
