freguesia,acronym,validVotesPercentage,votes,dicofre
Colos,PS,46.49,126,021118
Colos,PCP-PEV,18.82,51,021118
Colos,B.E.,13.28,36,021118
Colos,PPD/PSD,10.33,28,021118
Colos,PCTP/MRPP,3.32,9,021118
Colos,PAN,2.58,7,021118
Colos,CDS-PP,1.85,5,021118
Colos,L,0.74,2,021118
Colos,PNR,0.74,2,021118
Colos,A,0.37,1,021118
Colos,MAS,0.37,1,021118
Colos,NC,0.37,1,021118
Colos,PDR,0.37,1,021118
Colos,PURP,0.37,1,021118
Colos,IL,0,0,021118
Colos,PPM.PPV/CDC,0,0,021118
Colos,PTP,0,0,021118
