freguesia,acronym,validVotesPercentage,votes,dicofre
Comenda,PS,52.76,153,120903
Comenda,PCP-PEV,17.93,52,120903
Comenda,PPD/PSD,10,29,120903
Comenda,B.E.,5.52,16,120903
Comenda,PAN,3.45,10,120903
Comenda,PCTP/MRPP,2.41,7,120903
Comenda,A,2.07,6,120903
Comenda,CDS-PP,1.38,4,120903
Comenda,PPM.PPV/CDC,1.38,4,120903
Comenda,NC,1.03,3,120903
Comenda,IL,0.34,1,120903
Comenda,L,0.34,1,120903
Comenda,PDR,0.34,1,120903
Comenda,PNR,0.34,1,120903
Comenda,PTP,0.34,1,120903
Comenda,PURP,0.34,1,120903
Comenda,MAS,0,0,120903
