freguesia,acronym,validVotesPercentage,votes,dicofre
Cortiçada,PS,43.36,62,090103
Cortiçada,PPD/PSD,42.66,61,090103
Cortiçada,CDS-PP,7.69,11,090103
Cortiçada,B.E.,1.4,2,090103
Cortiçada,PAN,1.4,2,090103
Cortiçada,PCP-PEV,1.4,2,090103
Cortiçada,A,0.7,1,090103
Cortiçada,NC,0.7,1,090103
Cortiçada,PTP,0.7,1,090103
Cortiçada,IL,0,0,090103
Cortiçada,L,0,0,090103
Cortiçada,MAS,0,0,090103
Cortiçada,PCTP/MRPP,0,0,090103
Cortiçada,PDR,0,0,090103
Cortiçada,PNR,0,0,090103
Cortiçada,PPM.PPV/CDC,0,0,090103
Cortiçada,PURP,0,0,090103
