freguesia,acronym,validVotesPercentage,votes,dicofre
Costa da Caparica,PS,35.02,1398,150303
Costa da Caparica,PPD/PSD,16.36,653,150303
Costa da Caparica,B.E.,11.52,460,150303
Costa da Caparica,PCP-PEV,10.1,403,150303
Costa da Caparica,PAN,9.49,379,150303
Costa da Caparica,CDS-PP,6.01,240,150303
Costa da Caparica,L,2.45,98,150303
Costa da Caparica,A,2.28,91,150303
Costa da Caparica,PPM.PPV/CDC,1.88,75,150303
Costa da Caparica,PNR,1.2,48,150303
Costa da Caparica,IL,1.05,42,150303
Costa da Caparica,NC,1.05,42,150303
Costa da Caparica,PCTP/MRPP,0.83,33,150303
Costa da Caparica,PURP,0.3,12,150303
Costa da Caparica,PDR,0.23,9,150303
Costa da Caparica,PTP,0.13,5,150303
Costa da Caparica,MAS,0.1,4,150303
