freguesia,acronym,validVotesPercentage,votes,dicofre
Couto,PPD/PSD,47.16,108,160109
Couto,PS,33.62,77,160109
Couto,B.E.,5.24,12,160109
Couto,CDS-PP,3.06,7,160109
Couto,NC,2.18,5,160109
Couto,PCP-PEV,2.18,5,160109
Couto,L,1.75,4,160109
Couto,PCTP/MRPP,1.31,3,160109
Couto,PDR,1.31,3,160109
Couto,MAS,0.87,2,160109
Couto,PAN,0.87,2,160109
Couto,A,0.44,1,160109
Couto,IL,0,0,160109
Couto,PNR,0,0,160109
Couto,PPM.PPV/CDC,0,0,160109
Couto,PTP,0,0,160109
Couto,PURP,0,0,160109
