freguesia,acronym,validVotesPercentage,votes,dicofre
Covelo do Gerês,PS,61.04,47,170607
Covelo do Gerês,PPD/PSD,29.87,23,170607
Covelo do Gerês,A,2.6,2,170607
Covelo do Gerês,B.E.,2.6,2,170607
Covelo do Gerês,MAS,1.3,1,170607
Covelo do Gerês,PAN,1.3,1,170607
Covelo do Gerês,PCP-PEV,1.3,1,170607
Covelo do Gerês,CDS-PP,0,0,170607
Covelo do Gerês,IL,0,0,170607
Covelo do Gerês,L,0,0,170607
Covelo do Gerês,NC,0,0,170607
Covelo do Gerês,PCTP/MRPP,0,0,170607
Covelo do Gerês,PDR,0,0,170607
Covelo do Gerês,PNR,0,0,170607
Covelo do Gerês,PPM.PPV/CDC,0,0,170607
Covelo do Gerês,PTP,0,0,170607
Covelo do Gerês,PURP,0,0,170607
