freguesia,acronym,validVotesPercentage,votes,dicofre
Cárquere,PS,45.07,96,181303
Cárquere,PPD/PSD,38.97,83,181303
Cárquere,CDS-PP,5.16,11,181303
Cárquere,PPM.PPV/CDC,2.35,5,181303
Cárquere,B.E.,1.88,4,181303
Cárquere,PCTP/MRPP,1.88,4,181303
Cárquere,PAN,1.41,3,181303
Cárquere,PCP-PEV,1.41,3,181303
Cárquere,A,0.47,1,181303
Cárquere,NC,0.47,1,181303
Cárquere,PDR,0.47,1,181303
Cárquere,PNR,0.47,1,181303
Cárquere,IL,0,0,181303
Cárquere,L,0,0,181303
Cárquere,MAS,0,0,181303
Cárquere,PTP,0,0,181303
Cárquere,PURP,0,0,181303
