freguesia,acronym,validVotesPercentage,votes,dicofre
Darque,PS,34.98,645,160911
Darque,PPD/PSD,16.49,304,160911
Darque,PCP-PEV,14.21,262,160911
Darque,B.E.,11.88,219,160911
Darque,PAN,5.69,105,160911
Darque,CDS-PP,4.34,80,160911
Darque,PPM.PPV/CDC,2.28,42,160911
Darque,A,2.11,39,160911
Darque,L,1.9,35,160911
Darque,PCTP/MRPP,1.63,30,160911
Darque,NC,1.25,23,160911
Darque,PDR,0.87,16,160911
Darque,PURP,0.81,15,160911
Darque,IL,0.6,11,160911
Darque,PNR,0.43,8,160911
Darque,PTP,0.38,7,160911
Darque,MAS,0.16,3,160911
