freguesia,acronym,validVotesPercentage,votes,dicofre
Dornelas,PPD/PSD,46.91,76,090105
Dornelas,PS,25.93,42,090105
Dornelas,CDS-PP,10.49,17,090105
Dornelas,B.E.,4.94,8,090105
Dornelas,PAN,2.47,4,090105
Dornelas,PNR,1.85,3,090105
Dornelas,PTP,1.85,3,090105
Dornelas,A,1.23,2,090105
Dornelas,PCTP/MRPP,1.23,2,090105
Dornelas,PDR,1.23,2,090105
Dornelas,IL,0.62,1,090105
Dornelas,PCP-PEV,0.62,1,090105
Dornelas,PURP,0.62,1,090105
Dornelas,L,0,0,090105
Dornelas,MAS,0,0,090105
Dornelas,NC,0,0,090105
Dornelas,PPM.PPV/CDC,0,0,090105
