freguesia,acronym,validVotesPercentage,votes,dicofre
Ega,PS,40.05,320,060406
Ega,PPD/PSD,22.28,178,060406
Ega,B.E.,19.65,157,060406
Ega,PCP-PEV,4.26,34,060406
Ega,CDS-PP,3.25,26,060406
Ega,PAN,2.63,21,060406
Ega,A,1.63,13,060406
Ega,L,1.63,13,060406
Ega,NC,1.38,11,060406
Ega,PDR,1.25,10,060406
Ega,PPM.PPV/CDC,0.63,5,060406
Ega,IL,0.38,3,060406
Ega,MAS,0.25,2,060406
Ega,PNR,0.25,2,060406
Ega,PURP,0.25,2,060406
Ega,PCTP/MRPP,0.13,1,060406
Ega,PTP,0.13,1,060406
