freguesia,acronym,validVotesPercentage,votes,dicofre
Espinho,PS,40.2,158,030312
Espinho,PPD/PSD,32.06,126,030312
Espinho,CDS-PP,6.11,24,030312
Espinho,PCP-PEV,6.11,24,030312
Espinho,B.E.,5.85,23,030312
Espinho,PAN,3.05,12,030312
Espinho,PCTP/MRPP,1.78,7,030312
Espinho,A,1.27,5,030312
Espinho,PPM.PPV/CDC,1.02,4,030312
Espinho,L,0.76,3,030312
Espinho,NC,0.51,2,030312
Espinho,PDR,0.51,2,030312
Espinho,PTP,0.51,2,030312
Espinho,IL,0.25,1,030312
Espinho,MAS,0,0,030312
Espinho,PNR,0,0,030312
Espinho,PURP,0,0,030312
