freguesia,acronym,validVotesPercentage,votes,dicofre
Estrela,PS,22.44,1780,110660
Estrela,PPD/PSD,20.25,1606,110660
Estrela,CDS-PP,19.23,1525,110660
Estrela,B.E.,8.56,679,110660
Estrela,A,6.03,478,110660
Estrela,PAN,5.74,455,110660
Estrela,L,5.3,420,110660
Estrela,PCP-PEV,5.3,420,110660
Estrela,IL,3.28,260,110660
Estrela,PPM.PPV/CDC,1.73,137,110660
Estrela,NC,0.83,66,110660
Estrela,PNR,0.39,31,110660
Estrela,PCTP/MRPP,0.34,27,110660
Estrela,PURP,0.24,19,110660
Estrela,PDR,0.19,15,110660
Estrela,MAS,0.09,7,110660
Estrela,PTP,0.08,6,110660
