freguesia,acronym,validVotesPercentage,votes,dicofre
Faia,PS,58.19,103,030408
Faia,PPD/PSD,24.29,43,030408
Faia,CDS-PP,6.21,11,030408
Faia,A,3.39,6,030408
Faia,PPM.PPV/CDC,1.69,3,030408
Faia,B.E.,1.13,2,030408
Faia,PAN,1.13,2,030408
Faia,PURP,1.13,2,030408
Faia,IL,0.56,1,030408
Faia,L,0.56,1,030408
Faia,NC,0.56,1,030408
Faia,PCTP/MRPP,0.56,1,030408
Faia,PTP,0.56,1,030408
Faia,MAS,0,0,030408
Faia,PCP-PEV,0,0,030408
Faia,PDR,0,0,030408
Faia,PNR,0,0,030408
