freguesia,acronym,validVotesPercentage,votes,dicofre
Fazenda,PS,56.79,46,480103
Fazenda,PPD/PSD,16.05,13,480103
Fazenda,A,9.88,8,480103
Fazenda,PAN,7.41,6,480103
Fazenda,PCTP/MRPP,2.47,2,480103
Fazenda,PURP,2.47,2,480103
Fazenda,B.E.,1.23,1,480103
Fazenda,CDS-PP,1.23,1,480103
Fazenda,L,1.23,1,480103
Fazenda,PPM.PPV/CDC,1.23,1,480103
Fazenda,IL,0,0,480103
Fazenda,MAS,0,0,480103
Fazenda,NC,0,0,480103
Fazenda,PCP-PEV,0,0,480103
Fazenda,PDR,0,0,480103
Fazenda,PNR,0,0,480103
Fazenda,PTP,0,0,480103
