freguesia,acronym,validVotesPercentage,votes,dicofre
Ferral,PS,56.03,65,170609
Ferral,PPD/PSD,30.17,35,170609
Ferral,B.E.,4.31,5,170609
Ferral,CDS-PP,2.59,3,170609
Ferral,PCP-PEV,2.59,3,170609
Ferral,PAN,1.72,2,170609
Ferral,L,0.86,1,170609
Ferral,PPM.PPV/CDC,0.86,1,170609
Ferral,PTP,0.86,1,170609
Ferral,A,0,0,170609
Ferral,IL,0,0,170609
Ferral,MAS,0,0,170609
Ferral,NC,0,0,170609
Ferral,PCTP/MRPP,0,0,170609
Ferral,PDR,0,0,170609
Ferral,PNR,0,0,170609
Ferral,PURP,0,0,170609
