freguesia,acronym,validVotesPercentage,votes,dicofre
Ferreira-a-Nova,PS,48.5,292,060521
Ferreira-a-Nova,PPD/PSD,24.09,145,060521
Ferreira-a-Nova,B.E.,8.47,51,060521
Ferreira-a-Nova,A,4.32,26,060521
Ferreira-a-Nova,PCP-PEV,2.99,18,060521
Ferreira-a-Nova,CDS-PP,2.49,15,060521
Ferreira-a-Nova,PAN,1.99,12,060521
Ferreira-a-Nova,L,1.33,8,060521
Ferreira-a-Nova,NC,1.33,8,060521
Ferreira-a-Nova,PPM.PPV/CDC,1.33,8,060521
Ferreira-a-Nova,IL,0.66,4,060521
Ferreira-a-Nova,PNR,0.66,4,060521
Ferreira-a-Nova,PCTP/MRPP,0.5,3,060521
Ferreira-a-Nova,PURP,0.5,3,060521
Ferreira-a-Nova,MAS,0.33,2,060521
Ferreira-a-Nova,PTP,0.33,2,060521
Ferreira-a-Nova,PDR,0.17,1,060521
