freguesia,acronym,validVotesPercentage,votes,dicofre
Ferro,PS,43.86,150,050311
Ferro,PPD/PSD,14.04,48,050311
Ferro,B.E.,11.4,39,050311
Ferro,PAN,8.19,28,050311
Ferro,CDS-PP,6.73,23,050311
Ferro,PCP-PEV,5.85,20,050311
Ferro,A,1.75,6,050311
Ferro,NC,1.75,6,050311
Ferro,IL,1.46,5,050311
Ferro,PCTP/MRPP,1.17,4,050311
Ferro,PPM.PPV/CDC,1.17,4,050311
Ferro,L,0.88,3,050311
Ferro,MAS,0.58,2,050311
Ferro,PDR,0.58,2,050311
Ferro,PNR,0.29,1,050311
Ferro,PURP,0.29,1,050311
Ferro,PTP,0,0,050311
