freguesia,acronym,validVotesPercentage,votes,dicofre
Ferrel,PS,46.8,278,101406
Ferrel,PPD/PSD,18.69,111,101406
Ferrel,B.E.,10.1,60,101406
Ferrel,PAN,5.89,35,101406
Ferrel,PCP-PEV,4.55,27,101406
Ferrel,CDS-PP,4.38,26,101406
Ferrel,L,2.69,16,101406
Ferrel,PPM.PPV/CDC,1.85,11,101406
Ferrel,PCTP/MRPP,1.35,8,101406
Ferrel,A,1.01,6,101406
Ferrel,NC,0.67,4,101406
Ferrel,PDR,0.67,4,101406
Ferrel,PURP,0.67,4,101406
Ferrel,PNR,0.51,3,101406
Ferrel,MAS,0.17,1,101406
Ferrel,IL,0,0,101406
Ferrel,PTP,0,0,101406
