freguesia,acronym,validVotesPercentage,votes,dicofre
Ferreira,PPD/PSD,54.72,58,040514
Ferreira,PS,35.85,38,040514
Ferreira,CDS-PP,6.6,7,040514
Ferreira,PAN,1.89,2,040514
Ferreira,NC,0.94,1,040514
Ferreira,A,0,0,040514
Ferreira,B.E.,0,0,040514
Ferreira,IL,0,0,040514
Ferreira,L,0,0,040514
Ferreira,MAS,0,0,040514
Ferreira,PCP-PEV,0,0,040514
Ferreira,PCTP/MRPP,0,0,040514
Ferreira,PDR,0,0,040514
Ferreira,PNR,0,0,040514
Ferreira,PPM.PPV/CDC,0,0,040514
Ferreira,PTP,0,0,040514
Ferreira,PURP,0,0,040514
