freguesia,acronym,validVotesPercentage,votes,dicofre
Figueira dos Cavaleiros,PS,51.16,221,020803
Figueira dos Cavaleiros,PCP-PEV,27.78,120,020803
Figueira dos Cavaleiros,B.E.,6.25,27,020803
Figueira dos Cavaleiros,PAN,3.94,17,020803
Figueira dos Cavaleiros,PPD/PSD,3.24,14,020803
Figueira dos Cavaleiros,PCTP/MRPP,3.01,13,020803
Figueira dos Cavaleiros,CDS-PP,2.08,9,020803
Figueira dos Cavaleiros,PPM.PPV/CDC,0.93,4,020803
Figueira dos Cavaleiros,A,0.69,3,020803
Figueira dos Cavaleiros,L,0.23,1,020803
Figueira dos Cavaleiros,MAS,0.23,1,020803
Figueira dos Cavaleiros,NC,0.23,1,020803
Figueira dos Cavaleiros,PURP,0.23,1,020803
Figueira dos Cavaleiros,IL,0,0,020803
Figueira dos Cavaleiros,PDR,0,0,020803
Figueira dos Cavaleiros,PNR,0,0,020803
Figueira dos Cavaleiros,PTP,0,0,020803
