freguesia,acronym,validVotesPercentage,votes,dicofre
Folgosa,PS,29.17,21,180106
Folgosa,PPD/PSD,27.78,20,180106
Folgosa,B.E.,16.67,12,180106
Folgosa,CDS-PP,8.33,6,180106
Folgosa,PCP-PEV,5.56,4,180106
Folgosa,A,4.17,3,180106
Folgosa,PPM.PPV/CDC,4.17,3,180106
Folgosa,PAN,2.78,2,180106
Folgosa,PURP,1.39,1,180106
Folgosa,IL,0,0,180106
Folgosa,L,0,0,180106
Folgosa,MAS,0,0,180106
Folgosa,NC,0,0,180106
Folgosa,PCTP/MRPP,0,0,180106
Folgosa,PDR,0,0,180106
Folgosa,PNR,0,0,180106
Folgosa,PTP,0,0,180106
