freguesia,acronym,validVotesPercentage,votes,dicofre
Fornelos,PS,50.9,199,030712
Fornelos,PPD/PSD,18.41,72,030712
Fornelos,B.E.,9.21,36,030712
Fornelos,PCP-PEV,8.18,32,030712
Fornelos,PAN,5.37,21,030712
Fornelos,CDS-PP,3.32,13,030712
Fornelos,PPM.PPV/CDC,1.53,6,030712
Fornelos,L,0.77,3,030712
Fornelos,A,0.51,2,030712
Fornelos,PCTP/MRPP,0.51,2,030712
Fornelos,IL,0.26,1,030712
Fornelos,MAS,0.26,1,030712
Fornelos,NC,0.26,1,030712
Fornelos,PTP,0.26,1,030712
Fornelos,PURP,0.26,1,030712
Fornelos,PDR,0,0,030712
Fornelos,PNR,0,0,030712
