freguesia,acronym,validVotesPercentage,votes,dicofre
Forninhos,PPD/PSD,55.95,47,090107
Forninhos,PS,30.95,26,090107
Forninhos,CDS-PP,5.95,5,090107
Forninhos,PPM.PPV/CDC,2.38,2,090107
Forninhos,A,1.19,1,090107
Forninhos,B.E.,1.19,1,090107
Forninhos,MAS,1.19,1,090107
Forninhos,PNR,1.19,1,090107
Forninhos,IL,0,0,090107
Forninhos,L,0,0,090107
Forninhos,NC,0,0,090107
Forninhos,PAN,0,0,090107
Forninhos,PCP-PEV,0,0,090107
Forninhos,PCTP/MRPP,0,0,090107
Forninhos,PDR,0,0,090107
Forninhos,PTP,0,0,090107
Forninhos,PURP,0,0,090107
