freguesia,acronym,validVotesPercentage,votes,dicofre
Fornos,PS,34.54,314,010908
Fornos,PPD/PSD,32.89,299,010908
Fornos,B.E.,11.33,103,010908
Fornos,CDS-PP,5.72,52,010908
Fornos,PAN,5.5,50,010908
Fornos,PCP-PEV,3.19,29,010908
Fornos,A,1.21,11,010908
Fornos,L,1.21,11,010908
Fornos,NC,0.99,9,010908
Fornos,PCTP/MRPP,0.66,6,010908
Fornos,PNR,0.55,5,010908
Fornos,PPM.PPV/CDC,0.55,5,010908
Fornos,IL,0.44,4,010908
Fornos,MAS,0.44,4,010908
Fornos,PTP,0.44,4,010908
Fornos,PDR,0.22,2,010908
Fornos,PURP,0.11,1,010908
