freguesia,acronym,validVotesPercentage,votes,dicofre
Fornelo do Monte,PS,63.1,53,182407
Fornelo do Monte,PPD/PSD,25,21,182407
Fornelo do Monte,B.E.,3.57,3,182407
Fornelo do Monte,CDS-PP,3.57,3,182407
Fornelo do Monte,A,1.19,1,182407
Fornelo do Monte,PAN,1.19,1,182407
Fornelo do Monte,PCP-PEV,1.19,1,182407
Fornelo do Monte,PNR,1.19,1,182407
Fornelo do Monte,IL,0,0,182407
Fornelo do Monte,L,0,0,182407
Fornelo do Monte,MAS,0,0,182407
Fornelo do Monte,NC,0,0,182407
Fornelo do Monte,PCTP/MRPP,0,0,182407
Fornelo do Monte,PDR,0,0,182407
Fornelo do Monte,PPM.PPV/CDC,0,0,182407
Fornelo do Monte,PTP,0,0,182407
Fornelo do Monte,PURP,0,0,182407
