freguesia,acronym,validVotesPercentage,votes,dicofre
Friastelas,CDS-PP,29.11,46,160724
Friastelas,PPD/PSD,27.22,43,160724
Friastelas,PS,26.58,42,160724
Friastelas,B.E.,6.33,10,160724
Friastelas,MAS,4.43,7,160724
Friastelas,PAN,1.9,3,160724
Friastelas,PPM.PPV/CDC,1.9,3,160724
Friastelas,IL,1.27,2,160724
Friastelas,PCTP/MRPP,0.63,1,160724
Friastelas,PNR,0.63,1,160724
Friastelas,A,0,0,160724
Friastelas,L,0,0,160724
Friastelas,NC,0,0,160724
Friastelas,PCP-PEV,0,0,160724
Friastelas,PDR,0,0,160724
Friastelas,PTP,0,0,160724
Friastelas,PURP,0,0,160724
