freguesia,acronym,validVotesPercentage,votes,dicofre
Fráguas,PS,41.96,107,141405
Fráguas,PPD/PSD,35.29,90,141405
Fráguas,CDS-PP,6.67,17,141405
Fráguas,B.E.,6.27,16,141405
Fráguas,PAN,2.35,6,141405
Fráguas,PCP-PEV,1.96,5,141405
Fráguas,A,1.18,3,141405
Fráguas,PCTP/MRPP,1.18,3,141405
Fráguas,PDR,1.18,3,141405
Fráguas,PPM.PPV/CDC,0.78,2,141405
Fráguas,PTP,0.78,2,141405
Fráguas,IL,0.39,1,141405
Fráguas,L,0,0,141405
Fráguas,MAS,0,0,141405
Fráguas,NC,0,0,141405
Fráguas,PNR,0,0,141405
Fráguas,PURP,0,0,141405
