freguesia,acronym,validVotesPercentage,votes,dicofre
Fundada,PPD/PSD,53.23,165,051001
Fundada,PS,22.9,71,051001
Fundada,CDS-PP,4.84,15,051001
Fundada,B.E.,4.19,13,051001
Fundada,PCP-PEV,3.87,12,051001
Fundada,PAN,3.23,10,051001
Fundada,PPM.PPV/CDC,2.26,7,051001
Fundada,L,1.61,5,051001
Fundada,PTP,0.97,3,051001
Fundada,IL,0.65,2,051001
Fundada,PURP,0.65,2,051001
Fundada,A,0.32,1,051001
Fundada,NC,0.32,1,051001
Fundada,PCTP/MRPP,0.32,1,051001
Fundada,PDR,0.32,1,051001
Fundada,PNR,0.32,1,051001
Fundada,MAS,0,0,051001
