freguesia,acronym,validVotesPercentage,votes,dicofre
Fóios,PS,69,69,091114
Fóios,PPD/PSD,15,15,091114
Fóios,B.E.,6,6,091114
Fóios,PAN,3,3,091114
Fóios,PPM.PPV/CDC,3,3,091114
Fóios,CDS-PP,2,2,091114
Fóios,PURP,2,2,091114
Fóios,A,0,0,091114
Fóios,IL,0,0,091114
Fóios,L,0,0,091114
Fóios,MAS,0,0,091114
Fóios,NC,0,0,091114
Fóios,PCP-PEV,0,0,091114
Fóios,PCTP/MRPP,0,0,091114
Fóios,PDR,0,0,091114
Fóios,PNR,0,0,091114
Fóios,PTP,0,0,091114
