freguesia,acronym,validVotesPercentage,votes,dicofre
Gafanha da Boa Hora,PPD/PSD,45.05,241,011804
Gafanha da Boa Hora,PS,19.25,103,011804
Gafanha da Boa Hora,CDS-PP,9.53,51,011804
Gafanha da Boa Hora,B.E.,9.16,49,011804
Gafanha da Boa Hora,PAN,5.05,27,011804
Gafanha da Boa Hora,PCP-PEV,2.43,13,011804
Gafanha da Boa Hora,A,2.24,12,011804
Gafanha da Boa Hora,L,1.12,6,011804
Gafanha da Boa Hora,PNR,1.12,6,011804
Gafanha da Boa Hora,NC,0.93,5,011804
Gafanha da Boa Hora,PPM.PPV/CDC,0.93,5,011804
Gafanha da Boa Hora,IL,0.75,4,011804
Gafanha da Boa Hora,PURP,0.75,4,011804
Gafanha da Boa Hora,MAS,0.56,3,011804
Gafanha da Boa Hora,PCTP/MRPP,0.37,2,011804
Gafanha da Boa Hora,PDR,0.37,2,011804
Gafanha da Boa Hora,PTP,0.37,2,011804
