freguesia,acronym,validVotesPercentage,votes,dicofre
Gemieira,PPD/PSD,33.63,38,160727
Gemieira,PS,20.35,23,160727
Gemieira,CDS-PP,17.7,20,160727
Gemieira,B.E.,12.39,14,160727
Gemieira,PAN,5.31,6,160727
Gemieira,PCP-PEV,4.42,5,160727
Gemieira,A,0.88,1,160727
Gemieira,IL,0.88,1,160727
Gemieira,L,0.88,1,160727
Gemieira,NC,0.88,1,160727
Gemieira,PCTP/MRPP,0.88,1,160727
Gemieira,PDR,0.88,1,160727
Gemieira,PTP,0.88,1,160727
Gemieira,MAS,0,0,160727
Gemieira,PNR,0,0,160727
Gemieira,PPM.PPV/CDC,0,0,160727
Gemieira,PURP,0,0,160727
