freguesia,acronym,validVotesPercentage,votes,dicofre
Ginetes,PS,59.9,121,420310
Ginetes,PPD/PSD,20.3,41,420310
Ginetes,B.E.,3.96,8,420310
Ginetes,PAN,3.47,7,420310
Ginetes,IL,2.48,5,420310
Ginetes,A,1.98,4,420310
Ginetes,CDS-PP,1.98,4,420310
Ginetes,L,1.49,3,420310
Ginetes,MAS,0.99,2,420310
Ginetes,PCTP/MRPP,0.99,2,420310
Ginetes,PPM.PPV/CDC,0.99,2,420310
Ginetes,NC,0.5,1,420310
Ginetes,PNR,0.5,1,420310
Ginetes,PTP,0.5,1,420310
Ginetes,PCP-PEV,0,0,420310
Ginetes,PDR,0,0,420310
Ginetes,PURP,0,0,420310
