freguesia,acronym,validVotesPercentage,votes,dicofre
Gondar,PS,46.62,441,030821
Gondar,PPD/PSD,15.54,147,030821
Gondar,PCP-PEV,13.53,128,030821
Gondar,B.E.,10.15,96,030821
Gondar,PAN,3.59,34,030821
Gondar,CDS-PP,2.85,27,030821
Gondar,PCTP/MRPP,1.8,17,030821
Gondar,A,1.16,11,030821
Gondar,L,1.06,10,030821
Gondar,PPM.PPV/CDC,0.95,9,030821
Gondar,PDR,0.74,7,030821
Gondar,PURP,0.53,5,030821
Gondar,IL,0.42,4,030821
Gondar,PNR,0.42,4,030821
Gondar,NC,0.32,3,030821
Gondar,MAS,0.21,2,030821
Gondar,PTP,0.11,1,030821
