freguesia,acronym,validVotesPercentage,votes,dicofre
Gonça,PS,55.25,200,030820
Gonça,PPD/PSD,25.97,94,030820
Gonça,B.E.,7.18,26,030820
Gonça,CDS-PP,3.87,14,030820
Gonça,PAN,1.93,7,030820
Gonça,PDR,1.38,5,030820
Gonça,PPM.PPV/CDC,1.38,5,030820
Gonça,PCP-PEV,1.1,4,030820
Gonça,L,0.55,2,030820
Gonça,MAS,0.55,2,030820
Gonça,PCTP/MRPP,0.55,2,030820
Gonça,NC,0.28,1,030820
Gonça,A,0,0,030820
Gonça,IL,0,0,030820
Gonça,PNR,0,0,030820
Gonça,PTP,0,0,030820
Gonça,PURP,0,0,030820
