freguesia,acronym,validVotesPercentage,votes,dicofre
Gouvinhas,PPD/PSD,66.07,37,171004
Gouvinhas,PS,30.36,17,171004
Gouvinhas,A,1.79,1,171004
Gouvinhas,CDS-PP,1.79,1,171004
Gouvinhas,B.E.,0,0,171004
Gouvinhas,IL,0,0,171004
Gouvinhas,L,0,0,171004
Gouvinhas,MAS,0,0,171004
Gouvinhas,NC,0,0,171004
Gouvinhas,PAN,0,0,171004
Gouvinhas,PCP-PEV,0,0,171004
Gouvinhas,PCTP/MRPP,0,0,171004
Gouvinhas,PDR,0,0,171004
Gouvinhas,PNR,0,0,171004
Gouvinhas,PPM.PPV/CDC,0,0,171004
Gouvinhas,PTP,0,0,171004
Gouvinhas,PURP,0,0,171004
