freguesia,acronym,validVotesPercentage,votes,dicofre
Guilheiro,PS,55.56,30,091310
Guilheiro,PPD/PSD,37.04,20,091310
Guilheiro,CDS-PP,3.7,2,091310
Guilheiro,IL,1.85,1,091310
Guilheiro,PNR,1.85,1,091310
Guilheiro,A,0,0,091310
Guilheiro,B.E.,0,0,091310
Guilheiro,L,0,0,091310
Guilheiro,MAS,0,0,091310
Guilheiro,NC,0,0,091310
Guilheiro,PAN,0,0,091310
Guilheiro,PCP-PEV,0,0,091310
Guilheiro,PCTP/MRPP,0,0,091310
Guilheiro,PDR,0,0,091310
Guilheiro,PPM.PPV/CDC,0,0,091310
Guilheiro,PTP,0,0,091310
Guilheiro,PURP,0,0,091310
