freguesia,acronym,validVotesPercentage,votes,dicofre
Horta (Matriz),PS,34.13,185,470108
Horta (Matriz),PPD/PSD,24.17,131,470108
Horta (Matriz),B.E.,12.36,67,470108
Horta (Matriz),PCP-PEV,7.93,43,470108
Horta (Matriz),PAN,6.46,35,470108
Horta (Matriz),CDS-PP,5.54,30,470108
Horta (Matriz),L,3.32,18,470108
Horta (Matriz),A,2.03,11,470108
Horta (Matriz),NC,1.66,9,470108
Horta (Matriz),PPM.PPV/CDC,0.55,3,470108
Horta (Matriz),PURP,0.55,3,470108
Horta (Matriz),IL,0.37,2,470108
Horta (Matriz),PCTP/MRPP,0.37,2,470108
Horta (Matriz),MAS,0.18,1,470108
Horta (Matriz),PDR,0.18,1,470108
Horta (Matriz),PNR,0.18,1,470108
Horta (Matriz),PTP,0,0,470108
