freguesia,acronym,validVotesPercentage,votes,dicofre
Igreja Nova do Sobral,PS,41.33,81,141107
Igreja Nova do Sobral,PPD/PSD,32.14,63,141107
Igreja Nova do Sobral,B.E.,5.61,11,141107
Igreja Nova do Sobral,CDS-PP,4.59,9,141107
Igreja Nova do Sobral,A,3.06,6,141107
Igreja Nova do Sobral,PNR,3.06,6,141107
Igreja Nova do Sobral,PAN,2.04,4,141107
Igreja Nova do Sobral,PDR,1.53,3,141107
Igreja Nova do Sobral,PURP,1.53,3,141107
Igreja Nova do Sobral,MAS,1.02,2,141107
Igreja Nova do Sobral,PCP-PEV,1.02,2,141107
Igreja Nova do Sobral,PPM.PPV/CDC,1.02,2,141107
Igreja Nova do Sobral,L,0.51,1,141107
Igreja Nova do Sobral,NC,0.51,1,141107
Igreja Nova do Sobral,PCTP/MRPP,0.51,1,141107
Igreja Nova do Sobral,PTP,0.51,1,141107
Igreja Nova do Sobral,IL,0,0,141107
