freguesia,acronym,validVotesPercentage,votes,dicofre
Infias,PS,40,36,090507
Infias,PPD/PSD,35.56,32,090507
Infias,B.E.,13.33,12,090507
Infias,CDS-PP,4.44,4,090507
Infias,PCP-PEV,2.22,2,090507
Infias,A,1.11,1,090507
Infias,PAN,1.11,1,090507
Infias,PNR,1.11,1,090507
Infias,PPM.PPV/CDC,1.11,1,090507
Infias,IL,0,0,090507
Infias,L,0,0,090507
Infias,MAS,0,0,090507
Infias,NC,0,0,090507
Infias,PCTP/MRPP,0,0,090507
Infias,PDR,0,0,090507
Infias,PTP,0,0,090507
Infias,PURP,0,0,090507
