freguesia,acronym,validVotesPercentage,votes,dicofre
Irivo,PS,42.07,297,131115
Irivo,PPD/PSD,31.16,220,131115
Irivo,B.E.,9.35,66,131115
Irivo,CDS-PP,4.82,34,131115
Irivo,PCP-PEV,3.26,23,131115
Irivo,PAN,2.69,19,131115
Irivo,L,1.27,9,131115
Irivo,PCTP/MRPP,1.13,8,131115
Irivo,A,0.99,7,131115
Irivo,NC,0.99,7,131115
Irivo,IL,0.71,5,131115
Irivo,PPM.PPV/CDC,0.71,5,131115
Irivo,PDR,0.28,2,131115
Irivo,PURP,0.28,2,131115
Irivo,MAS,0.14,1,131115
Irivo,PTP,0.14,1,131115
Irivo,PNR,0,0,131115
