freguesia,acronym,validVotesPercentage,votes,dicofre
Lagoa,PPD/PSD,46.08,47,040516
Lagoa,PS,28.43,29,040516
Lagoa,CDS-PP,14.71,15,040516
Lagoa,MAS,2.94,3,040516
Lagoa,A,1.96,2,040516
Lagoa,B.E.,1.96,2,040516
Lagoa,PURP,1.96,2,040516
Lagoa,IL,0.98,1,040516
Lagoa,L,0.98,1,040516
Lagoa,NC,0,0,040516
Lagoa,PAN,0,0,040516
Lagoa,PCP-PEV,0,0,040516
Lagoa,PCTP/MRPP,0,0,040516
Lagoa,PDR,0,0,040516
Lagoa,PNR,0,0,040516
Lagoa,PPM.PPV/CDC,0,0,040516
Lagoa,PTP,0,0,040516
