freguesia,acronym,validVotesPercentage,votes,dicofre
Lama de Arcos,PS,46.36,51,170314
Lama de Arcos,PPD/PSD,40.91,45,170314
Lama de Arcos,A,2.73,3,170314
Lama de Arcos,B.E.,2.73,3,170314
Lama de Arcos,PDR,1.82,2,170314
Lama de Arcos,CDS-PP,0.91,1,170314
Lama de Arcos,PAN,0.91,1,170314
Lama de Arcos,PCP-PEV,0.91,1,170314
Lama de Arcos,PPM.PPV/CDC,0.91,1,170314
Lama de Arcos,PTP,0.91,1,170314
Lama de Arcos,PURP,0.91,1,170314
Lama de Arcos,IL,0,0,170314
Lama de Arcos,L,0,0,170314
Lama de Arcos,MAS,0,0,170314
Lama de Arcos,NC,0,0,170314
Lama de Arcos,PCTP/MRPP,0,0,170314
Lama de Arcos,PNR,0,0,170314
