freguesia,acronym,validVotesPercentage,votes,dicofre
Linhares,PS,40.91,45,040308
Linhares,PPD/PSD,34.55,38,040308
Linhares,B.E.,9.09,10,040308
Linhares,CDS-PP,8.18,9,040308
Linhares,PCTP/MRPP,2.73,3,040308
Linhares,PAN,1.82,2,040308
Linhares,PNR,1.82,2,040308
Linhares,PCP-PEV,0.91,1,040308
Linhares,A,0,0,040308
Linhares,IL,0,0,040308
Linhares,L,0,0,040308
Linhares,MAS,0,0,040308
Linhares,NC,0,0,040308
Linhares,PDR,0,0,040308
Linhares,PPM.PPV/CDC,0,0,040308
Linhares,PTP,0,0,040308
Linhares,PURP,0,0,040308
