freguesia,acronym,validVotesPercentage,votes,dicofre
Loivo,PS,48.86,107,161007
Loivo,PPD/PSD,20.55,45,161007
Loivo,B.E.,7.31,16,161007
Loivo,PCP-PEV,4.11,9,161007
Loivo,IL,3.65,8,161007
Loivo,PAN,3.65,8,161007
Loivo,L,2.28,5,161007
Loivo,A,1.83,4,161007
Loivo,CDS-PP,1.83,4,161007
Loivo,NC,1.83,4,161007
Loivo,PCTP/MRPP,1.37,3,161007
Loivo,PDR,1.37,3,161007
Loivo,PNR,0.91,2,161007
Loivo,PPM.PPV/CDC,0.46,1,161007
Loivo,MAS,0,0,161007
Loivo,PTP,0,0,161007
Loivo,PURP,0,0,161007
