freguesia,acronym,validVotesPercentage,votes,dicofre
Lorvão,PS,44.82,433,061304
Lorvão,PPD/PSD,22.15,214,061304
Lorvão,B.E.,10.04,97,061304
Lorvão,PCP-PEV,9.21,89,061304
Lorvão,CDS-PP,4.24,41,061304
Lorvão,PAN,4.24,41,061304
Lorvão,NC,1.04,10,061304
Lorvão,PCTP/MRPP,0.93,9,061304
Lorvão,PPM.PPV/CDC,0.83,8,061304
Lorvão,A,0.62,6,061304
Lorvão,L,0.52,5,061304
Lorvão,PDR,0.41,4,061304
Lorvão,MAS,0.21,2,061304
Lorvão,PNR,0.21,2,061304
Lorvão,PTP,0.21,2,061304
Lorvão,PURP,0.21,2,061304
Lorvão,IL,0.1,1,061304
