freguesia,acronym,validVotesPercentage,votes,dicofre
Louredo,PPD/PSD,49.04,51,031109
Louredo,PS,29.81,31,031109
Louredo,CDS-PP,6.73,7,031109
Louredo,B.E.,3.85,4,031109
Louredo,PCP-PEV,3.85,4,031109
Louredo,PPM.PPV/CDC,1.92,2,031109
Louredo,A,0.96,1,031109
Louredo,IL,0.96,1,031109
Louredo,L,0.96,1,031109
Louredo,PAN,0.96,1,031109
Louredo,PCTP/MRPP,0.96,1,031109
Louredo,MAS,0,0,031109
Louredo,NC,0,0,031109
Louredo,PDR,0,0,031109
Louredo,PNR,0,0,031109
Louredo,PTP,0,0,031109
Louredo,PURP,0,0,031109
