freguesia,acronym,validVotesPercentage,votes,dicofre
Lousado,PS,44.46,550,031224
Lousado,PPD/PSD,23.69,293,031224
Lousado,B.E.,7.92,98,031224
Lousado,CDS-PP,7.76,96,031224
Lousado,PAN,4.53,56,031224
Lousado,PCP-PEV,4.28,53,031224
Lousado,IL,1.13,14,031224
Lousado,L,1.13,14,031224
Lousado,NC,1.13,14,031224
Lousado,A,0.89,11,031224
Lousado,PCTP/MRPP,0.81,10,031224
Lousado,PPM.PPV/CDC,0.57,7,031224
Lousado,PDR,0.49,6,031224
Lousado,PTP,0.4,5,031224
Lousado,PNR,0.32,4,031224
Lousado,PURP,0.32,4,031224
Lousado,MAS,0.16,2,031224
