freguesia,acronym,validVotesPercentage,votes,dicofre
Madeirã,PPD/PSD,64.71,33,050606
Madeirã,PS,23.53,12,050606
Madeirã,CDS-PP,3.92,2,050606
Madeirã,MAS,3.92,2,050606
Madeirã,PAN,1.96,1,050606
Madeirã,PNR,1.96,1,050606
Madeirã,A,0,0,050606
Madeirã,B.E.,0,0,050606
Madeirã,IL,0,0,050606
Madeirã,L,0,0,050606
Madeirã,NC,0,0,050606
Madeirã,PCP-PEV,0,0,050606
Madeirã,PCTP/MRPP,0,0,050606
Madeirã,PDR,0,0,050606
Madeirã,PPM.PPV/CDC,0,0,050606
Madeirã,PTP,0,0,050606
Madeirã,PURP,0,0,050606
