freguesia,acronym,validVotesPercentage,votes,dicofre
Maia,PS,60.78,172,420505
Maia,PPD/PSD,15.55,44,420505
Maia,B.E.,6.01,17,420505
Maia,CDS-PP,5.3,15,420505
Maia,PAN,2.83,8,420505
Maia,PPM.PPV/CDC,2.83,8,420505
Maia,PCP-PEV,2.47,7,420505
Maia,NC,1.41,4,420505
Maia,L,0.71,2,420505
Maia,PCTP/MRPP,0.71,2,420505
Maia,A,0.35,1,420505
Maia,IL,0.35,1,420505
Maia,PTP,0.35,1,420505
Maia,PURP,0.35,1,420505
Maia,MAS,0,0,420505
Maia,PDR,0,0,420505
Maia,PNR,0,0,420505
