freguesia,acronym,validVotesPercentage,votes,dicofre
Mairos,PPD/PSD,47.5,57,170316
Mairos,PS,41.67,50,170316
Mairos,PAN,3.33,4,170316
Mairos,CDS-PP,2.5,3,170316
Mairos,A,0.83,1,170316
Mairos,B.E.,0.83,1,170316
Mairos,NC,0.83,1,170316
Mairos,PCP-PEV,0.83,1,170316
Mairos,PCTP/MRPP,0.83,1,170316
Mairos,PNR,0.83,1,170316
Mairos,IL,0,0,170316
Mairos,L,0,0,170316
Mairos,MAS,0,0,170316
Mairos,PDR,0,0,170316
Mairos,PPM.PPV/CDC,0,0,170316
Mairos,PTP,0,0,170316
Mairos,PURP,0,0,170316
