freguesia,acronym,validVotesPercentage,votes,dicofre
Malhadas,PPD/PSD,38.2,34,040607
Malhadas,PS,35.96,32,040607
Malhadas,CDS-PP,7.87,7,040607
Malhadas,PPM.PPV/CDC,6.74,6,040607
Malhadas,B.E.,3.37,3,040607
Malhadas,PCTP/MRPP,2.25,2,040607
Malhadas,A,1.12,1,040607
Malhadas,L,1.12,1,040607
Malhadas,NC,1.12,1,040607
Malhadas,PCP-PEV,1.12,1,040607
Malhadas,PDR,1.12,1,040607
Malhadas,IL,0,0,040607
Malhadas,MAS,0,0,040607
Malhadas,PAN,0,0,040607
Malhadas,PNR,0,0,040607
Malhadas,PTP,0,0,040607
Malhadas,PURP,0,0,040607
