freguesia,acronym,validVotesPercentage,votes,dicofre
Manadas (Santa Bárbara),PS,40,32,450201
Manadas (Santa Bárbara),CDS-PP,23.75,19,450201
Manadas (Santa Bárbara),PPD/PSD,23.75,19,450201
Manadas (Santa Bárbara),B.E.,6.25,5,450201
Manadas (Santa Bárbara),PAN,2.5,2,450201
Manadas (Santa Bárbara),NC,1.25,1,450201
Manadas (Santa Bárbara),PDR,1.25,1,450201
Manadas (Santa Bárbara),PPM.PPV/CDC,1.25,1,450201
Manadas (Santa Bárbara),A,0,0,450201
Manadas (Santa Bárbara),IL,0,0,450201
Manadas (Santa Bárbara),L,0,0,450201
Manadas (Santa Bárbara),MAS,0,0,450201
Manadas (Santa Bárbara),PCP-PEV,0,0,450201
Manadas (Santa Bárbara),PCTP/MRPP,0,0,450201
Manadas (Santa Bárbara),PNR,0,0,450201
Manadas (Santa Bárbara),PTP,0,0,450201
Manadas (Santa Bárbara),PURP,0,0,450201
