freguesia,acronym,validVotesPercentage,votes,dicofre
Mancelos,PS,48.98,385,130123
Mancelos,PPD/PSD,33.46,263,130123
Mancelos,B.E.,3.31,26,130123
Mancelos,CDS-PP,3.18,25,130123
Mancelos,PAN,2.8,22,130123
Mancelos,PCP-PEV,1.15,9,130123
Mancelos,PDR,1.15,9,130123
Mancelos,L,1.02,8,130123
Mancelos,PCTP/MRPP,1.02,8,130123
Mancelos,A,0.76,6,130123
Mancelos,PPM.PPV/CDC,0.76,6,130123
Mancelos,PTP,0.64,5,130123
Mancelos,IL,0.51,4,130123
Mancelos,NC,0.51,4,130123
Mancelos,PNR,0.38,3,130123
Mancelos,MAS,0.25,2,130123
Mancelos,PURP,0.13,1,130123
