freguesia,acronym,validVotesPercentage,votes,dicofre
Manteigas (São Pedro),PS,48.29,155,090803
Manteigas (São Pedro),PPD/PSD,20.56,66,090803
Manteigas (São Pedro),B.E.,14.02,45,090803
Manteigas (São Pedro),CDS-PP,4.98,16,090803
Manteigas (São Pedro),PCP-PEV,4.67,15,090803
Manteigas (São Pedro),PAN,1.56,5,090803
Manteigas (São Pedro),PCTP/MRPP,1.25,4,090803
Manteigas (São Pedro),A,0.93,3,090803
Manteigas (São Pedro),PPM.PPV/CDC,0.93,3,090803
Manteigas (São Pedro),L,0.62,2,090803
Manteigas (São Pedro),PURP,0.62,2,090803
Manteigas (São Pedro),MAS,0.31,1,090803
Manteigas (São Pedro),NC,0.31,1,090803
Manteigas (São Pedro),PDR,0.31,1,090803
Manteigas (São Pedro),PNR,0.31,1,090803
Manteigas (São Pedro),PTP,0.31,1,090803
Manteigas (São Pedro),IL,0,0,090803
