freguesia,acronym,validVotesPercentage,votes,dicofre
Meimão,PS,63.16,60,050707
Meimão,PPD/PSD,27.37,26,050707
Meimão,CDS-PP,4.21,4,050707
Meimão,B.E.,3.16,3,050707
Meimão,PAN,1.05,1,050707
Meimão,PPM.PPV/CDC,1.05,1,050707
Meimão,A,0,0,050707
Meimão,IL,0,0,050707
Meimão,L,0,0,050707
Meimão,MAS,0,0,050707
Meimão,NC,0,0,050707
Meimão,PCP-PEV,0,0,050707
Meimão,PCTP/MRPP,0,0,050707
Meimão,PDR,0,0,050707
Meimão,PNR,0,0,050707
Meimão,PTP,0,0,050707
Meimão,PURP,0,0,050707
