freguesia,acronym,validVotesPercentage,votes,dicofre
Milagres,PPD/PSD,36.7,276,100915
Milagres,PS,33.64,253,100915
Milagres,CDS-PP,8.38,63,100915
Milagres,B.E.,7.45,56,100915
Milagres,PAN,3.86,29,100915
Milagres,A,1.73,13,100915
Milagres,PCP-PEV,1.46,11,100915
Milagres,PPM.PPV/CDC,1.33,10,100915
Milagres,IL,1.06,8,100915
Milagres,L,1.06,8,100915
Milagres,NC,1.06,8,100915
Milagres,PNR,0.8,6,100915
Milagres,PCTP/MRPP,0.53,4,100915
Milagres,PDR,0.53,4,100915
Milagres,PURP,0.4,3,100915
Milagres,MAS,0,0,100915
Milagres,PTP,0,0,100915
