freguesia,acronym,validVotesPercentage,votes,dicofre
Mina de Água,PS,40.36,4882,111516
Mina de Água,PPD/PSD,13.99,1692,111516
Mina de Água,B.E.,12.13,1467,111516
Mina de Água,PCP-PEV,10.1,1222,111516
Mina de Água,PAN,7.11,860,111516
Mina de Água,CDS-PP,4.03,487,111516
Mina de Água,PPM.PPV/CDC,3.02,365,111516
Mina de Água,A,2.27,275,111516
Mina de Água,L,1.99,241,111516
Mina de Água,NC,1.21,146,111516
Mina de Água,PCTP/MRPP,0.93,112,111516
Mina de Água,PNR,0.72,87,111516
Mina de Água,IL,0.6,73,111516
Mina de Água,PURP,0.6,72,111516
Mina de Água,PDR,0.47,57,111516
Mina de Água,PTP,0.3,36,111516
Mina de Água,MAS,0.17,21,111516
