freguesia,acronym,validVotesPercentage,votes,dicofre
Moita,PPD/PSD,38.45,213,010307
Moita,PS,29.24,162,010307
Moita,CDS-PP,8.66,48,010307
Moita,B.E.,8.48,47,010307
Moita,PAN,3.97,22,010307
Moita,PCP-PEV,3.25,18,010307
Moita,A,2.35,13,010307
Moita,PDR,0.9,5,010307
Moita,PPM.PPV/CDC,0.9,5,010307
Moita,L,0.72,4,010307
Moita,PCTP/MRPP,0.72,4,010307
Moita,PNR,0.72,4,010307
Moita,NC,0.54,3,010307
Moita,IL,0.36,2,010307
Moita,PTP,0.36,2,010307
Moita,MAS,0.18,1,010307
Moita,PURP,0.18,1,010307
