freguesia,acronym,validVotesPercentage,votes,dicofre
Monsul,PPD/PSD,45.93,96,030917
Monsul,PS,34.93,73,030917
Monsul,CDS-PP,6.7,14,030917
Monsul,B.E.,3.83,8,030917
Monsul,PAN,2.87,6,030917
Monsul,PCP-PEV,1.44,3,030917
Monsul,PTP,1.44,3,030917
Monsul,L,0.96,2,030917
Monsul,PPM.PPV/CDC,0.96,2,030917
Monsul,NC,0.48,1,030917
Monsul,PDR,0.48,1,030917
Monsul,A,0,0,030917
Monsul,IL,0,0,030917
Monsul,MAS,0,0,030917
Monsul,PCTP/MRPP,0,0,030917
Monsul,PNR,0,0,030917
Monsul,PURP,0,0,030917
