freguesia,acronym,validVotesPercentage,votes,dicofre
Moreira do Castelo,PPD/PSD,41.75,81,030515
Moreira do Castelo,PS,38.14,74,030515
Moreira do Castelo,CDS-PP,11.86,23,030515
Moreira do Castelo,B.E.,4.12,8,030515
Moreira do Castelo,A,1.03,2,030515
Moreira do Castelo,PDR,1.03,2,030515
Moreira do Castelo,L,0.52,1,030515
Moreira do Castelo,MAS,0.52,1,030515
Moreira do Castelo,PCP-PEV,0.52,1,030515
Moreira do Castelo,PURP,0.52,1,030515
Moreira do Castelo,IL,0,0,030515
Moreira do Castelo,NC,0,0,030515
Moreira do Castelo,PAN,0,0,030515
Moreira do Castelo,PCTP/MRPP,0,0,030515
Moreira do Castelo,PNR,0,0,030515
Moreira do Castelo,PPM.PPV/CDC,0,0,030515
Moreira do Castelo,PTP,0,0,030515
