freguesia,acronym,validVotesPercentage,votes,dicofre
Mozelos,PS,39.8,971,010916
Mozelos,PPD/PSD,27.05,660,010916
Mozelos,B.E.,11.19,273,010916
Mozelos,PAN,6.11,149,010916
Mozelos,CDS-PP,4.34,106,010916
Mozelos,PCP-PEV,2.95,72,010916
Mozelos,L,1.93,47,010916
Mozelos,IL,1.11,27,010916
Mozelos,NC,1.07,26,010916
Mozelos,A,0.98,24,010916
Mozelos,PPM.PPV/CDC,0.66,16,010916
Mozelos,PDR,0.61,15,010916
Mozelos,PCTP/MRPP,0.53,13,010916
Mozelos,PNR,0.49,12,010916
Mozelos,MAS,0.41,10,010916
Mozelos,PURP,0.41,10,010916
Mozelos,PTP,0.37,9,010916
