freguesia,acronym,validVotesPercentage,votes,dicofre
Mundão,PS,31.95,216,182318
Mundão,PPD/PSD,30.77,208,182318
Mundão,B.E.,12.43,84,182318
Mundão,PAN,5.77,39,182318
Mundão,CDS-PP,4.44,30,182318
Mundão,PCP-PEV,3.85,26,182318
Mundão,A,2.81,19,182318
Mundão,NC,2.22,15,182318
Mundão,L,2.07,14,182318
Mundão,PPM.PPV/CDC,1.18,8,182318
Mundão,IL,0.59,4,182318
Mundão,PNR,0.44,3,182318
Mundão,PTP,0.44,3,182318
Mundão,PURP,0.44,3,182318
Mundão,PCTP/MRPP,0.3,2,182318
Mundão,PDR,0.3,2,182318
Mundão,MAS,0,0,182318
