freguesia,acronym,validVotesPercentage,votes,dicofre
Muxagata,PS,40,30,090511
Muxagata,PPD/PSD,34.67,26,090511
Muxagata,B.E.,10.67,8,090511
Muxagata,CDS-PP,8,6,090511
Muxagata,PAN,2.67,2,090511
Muxagata,L,1.33,1,090511
Muxagata,PCP-PEV,1.33,1,090511
Muxagata,PCTP/MRPP,1.33,1,090511
Muxagata,A,0,0,090511
Muxagata,IL,0,0,090511
Muxagata,MAS,0,0,090511
Muxagata,NC,0,0,090511
Muxagata,PDR,0,0,090511
Muxagata,PNR,0,0,090511
Muxagata,PPM.PPV/CDC,0,0,090511
Muxagata,PTP,0,0,090511
Muxagata,PURP,0,0,090511
