freguesia,acronym,validVotesPercentage,votes,dicofre
Mões,PS,40.88,139,180312
Mões,PPD/PSD,33.82,115,180312
Mões,CDS-PP,7.94,27,180312
Mões,PCP-PEV,4.41,15,180312
Mões,B.E.,4.12,14,180312
Mões,PAN,2.06,7,180312
Mões,NC,1.76,6,180312
Mões,A,1.47,5,180312
Mões,PPM.PPV/CDC,1.18,4,180312
Mões,L,0.88,3,180312
Mões,IL,0.29,1,180312
Mões,MAS,0.29,1,180312
Mões,PCTP/MRPP,0.29,1,180312
Mões,PTP,0.29,1,180312
Mões,PURP,0.29,1,180312
Mões,PDR,0,0,180312
Mões,PNR,0,0,180312
