freguesia,acronym,validVotesPercentage,votes,dicofre
Nespereira,PS,55.02,504,030832
Nespereira,PPD/PSD,17.25,158,030832
Nespereira,B.E.,8.84,81,030832
Nespereira,PAN,4.59,42,030832
Nespereira,PCP-PEV,4.37,40,030832
Nespereira,CDS-PP,3.93,36,030832
Nespereira,A,1.2,11,030832
Nespereira,L,1.2,11,030832
Nespereira,PPM.PPV/CDC,0.76,7,030832
Nespereira,NC,0.55,5,030832
Nespereira,PCTP/MRPP,0.55,5,030832
Nespereira,PDR,0.55,5,030832
Nespereira,PNR,0.44,4,030832
Nespereira,PURP,0.33,3,030832
Nespereira,PTP,0.22,2,030832
Nespereira,IL,0.11,1,030832
Nespereira,MAS,0.11,1,030832
