freguesia,acronym,validVotesPercentage,votes,dicofre
Nogueira da Montanha,PPD/PSD,61.15,96,170318
Nogueira da Montanha,PS,28.03,44,170318
Nogueira da Montanha,CDS-PP,3.18,5,170318
Nogueira da Montanha,A,1.91,3,170318
Nogueira da Montanha,B.E.,1.27,2,170318
Nogueira da Montanha,PPM.PPV/CDC,1.27,2,170318
Nogueira da Montanha,PTP,1.27,2,170318
Nogueira da Montanha,NC,0.64,1,170318
Nogueira da Montanha,PAN,0.64,1,170318
Nogueira da Montanha,PCTP/MRPP,0.64,1,170318
Nogueira da Montanha,IL,0,0,170318
Nogueira da Montanha,L,0,0,170318
Nogueira da Montanha,MAS,0,0,170318
Nogueira da Montanha,PCP-PEV,0,0,170318
Nogueira da Montanha,PDR,0,0,170318
Nogueira da Montanha,PNR,0,0,170318
Nogueira da Montanha,PURP,0,0,170318
