freguesia,acronym,validVotesPercentage,votes,dicofre
Nogueira do Cravo,PS,36.55,212,061111
Nogueira do Cravo,PPD/PSD,34.48,200,061111
Nogueira do Cravo,CDS-PP,8.1,47,061111
Nogueira do Cravo,B.E.,7.93,46,061111
Nogueira do Cravo,PAN,2.93,17,061111
Nogueira do Cravo,PCP-PEV,2.24,13,061111
Nogueira do Cravo,A,1.55,9,061111
Nogueira do Cravo,PCTP/MRPP,1.55,9,061111
Nogueira do Cravo,PDR,1.21,7,061111
Nogueira do Cravo,PNR,0.86,5,061111
Nogueira do Cravo,PPM.PPV/CDC,0.86,5,061111
Nogueira do Cravo,L,0.69,4,061111
Nogueira do Cravo,NC,0.34,2,061111
Nogueira do Cravo,PTP,0.34,2,061111
Nogueira do Cravo,IL,0.17,1,061111
Nogueira do Cravo,PURP,0.17,1,061111
Nogueira do Cravo,MAS,0,0,061111
