freguesia,acronym,validVotesPercentage,votes,dicofre
Oiã,PPD/PSD,38.54,671,011403
Oiã,PS,21.42,373,011403
Oiã,CDS-PP,15.45,269,011403
Oiã,B.E.,7.64,133,011403
Oiã,PAN,4.19,73,011403
Oiã,PPM.PPV/CDC,2.41,42,011403
Oiã,A,2.3,40,011403
Oiã,PCP-PEV,1.9,33,011403
Oiã,NC,1.49,26,011403
Oiã,IL,1.21,21,011403
Oiã,L,0.92,16,011403
Oiã,PDR,0.63,11,011403
Oiã,PNR,0.57,10,011403
Oiã,PURP,0.46,8,011403
Oiã,MAS,0.29,5,011403
Oiã,PCTP/MRPP,0.29,5,011403
Oiã,PTP,0.29,5,011403
