freguesia,acronym,validVotesPercentage,votes,dicofre
Olalhas,PPD/PSD,50.6,170,141808
Olalhas,PS,25,84,141808
Olalhas,CDS-PP,7.44,25,141808
Olalhas,B.E.,4.46,15,141808
Olalhas,PAN,4.46,15,141808
Olalhas,PCP-PEV,2.98,10,141808
Olalhas,A,1.19,4,141808
Olalhas,L,1.19,4,141808
Olalhas,IL,0.89,3,141808
Olalhas,MAS,0.3,1,141808
Olalhas,NC,0.3,1,141808
Olalhas,PDR,0.3,1,141808
Olalhas,PPM.PPV/CDC,0.3,1,141808
Olalhas,PTP,0.3,1,141808
Olalhas,PURP,0.3,1,141808
Olalhas,PCTP/MRPP,0,0,141808
Olalhas,PNR,0,0,141808
