freguesia,acronym,validVotesPercentage,votes,dicofre
Oleiros-Amieira,PPD/PSD,50.89,399,050614
Oleiros-Amieira,PS,25.77,202,050614
Oleiros-Amieira,B.E.,5.48,43,050614
Oleiros-Amieira,CDS-PP,4.59,36,050614
Oleiros-Amieira,NC,2.68,21,050614
Oleiros-Amieira,PPM.PPV/CDC,1.91,15,050614
Oleiros-Amieira,PAN,1.66,13,050614
Oleiros-Amieira,A,1.28,10,050614
Oleiros-Amieira,PCP-PEV,1.15,9,050614
Oleiros-Amieira,PDR,1.02,8,050614
Oleiros-Amieira,PCTP/MRPP,0.77,6,050614
Oleiros-Amieira,PNR,0.77,6,050614
Oleiros-Amieira,PTP,0.64,5,050614
Oleiros-Amieira,IL,0.51,4,050614
Oleiros-Amieira,L,0.51,4,050614
Oleiros-Amieira,MAS,0.26,2,050614
Oleiros-Amieira,PURP,0.13,1,050614
