freguesia,acronym,validVotesPercentage,votes,dicofre
Outeiro,PS,44.56,172,160925
Outeiro,PPD/PSD,26.94,104,160925
Outeiro,B.E.,10.36,40,160925
Outeiro,CDS-PP,5.18,20,160925
Outeiro,PAN,4.66,18,160925
Outeiro,L,1.81,7,160925
Outeiro,PCP-PEV,1.81,7,160925
Outeiro,PPM.PPV/CDC,1.3,5,160925
Outeiro,NC,0.78,3,160925
Outeiro,PCTP/MRPP,0.78,3,160925
Outeiro,PNR,0.78,3,160925
Outeiro,IL,0.52,2,160925
Outeiro,PTP,0.26,1,160925
Outeiro,PURP,0.26,1,160925
Outeiro,A,0,0,160925
Outeiro,MAS,0,0,160925
Outeiro,PDR,0,0,160925
