freguesia,acronym,validVotesPercentage,votes,dicofre
Padrela e Tazem,PPD/PSD,56.7,55,171215
Padrela e Tazem,PS,24.74,24,171215
Padrela e Tazem,CDS-PP,12.37,12,171215
Padrela e Tazem,B.E.,2.06,2,171215
Padrela e Tazem,PCP-PEV,2.06,2,171215
Padrela e Tazem,PDR,1.03,1,171215
Padrela e Tazem,PPM.PPV/CDC,1.03,1,171215
Padrela e Tazem,A,0,0,171215
Padrela e Tazem,IL,0,0,171215
Padrela e Tazem,L,0,0,171215
Padrela e Tazem,MAS,0,0,171215
Padrela e Tazem,NC,0,0,171215
Padrela e Tazem,PAN,0,0,171215
Padrela e Tazem,PCTP/MRPP,0,0,171215
Padrela e Tazem,PNR,0,0,171215
Padrela e Tazem,PTP,0,0,171215
Padrela e Tazem,PURP,0,0,171215
