freguesia,acronym,validVotesPercentage,votes,dicofre
Paião,PS,41.88,343,060523
Paião,PPD/PSD,25.15,206,060523
Paião,B.E.,10.87,89,060523
Paião,A,4.4,36,060523
Paião,PAN,3.66,30,060523
Paião,CDS-PP,2.93,24,060523
Paião,IL,2.56,21,060523
Paião,PCP-PEV,2.32,19,060523
Paião,PPM.PPV/CDC,1.83,15,060523
Paião,NC,1.22,10,060523
Paião,L,0.85,7,060523
Paião,PCTP/MRPP,0.61,5,060523
Paião,PNR,0.49,4,060523
Paião,PURP,0.49,4,060523
Paião,MAS,0.37,3,060523
Paião,PDR,0.24,2,060523
Paião,PTP,0.12,1,060523
