freguesia,acronym,validVotesPercentage,votes,dicofre
Parada de Bouro,PPD/PSD,39.1,52,031111
Parada de Bouro,PS,33.83,45,031111
Parada de Bouro,CDS-PP,7.52,10,031111
Parada de Bouro,PPM.PPV/CDC,6.77,9,031111
Parada de Bouro,B.E.,4.51,6,031111
Parada de Bouro,NC,2.26,3,031111
Parada de Bouro,PAN,2.26,3,031111
Parada de Bouro,L,1.5,2,031111
Parada de Bouro,A,0.75,1,031111
Parada de Bouro,PCP-PEV,0.75,1,031111
Parada de Bouro,PNR,0.75,1,031111
Parada de Bouro,IL,0,0,031111
Parada de Bouro,MAS,0,0,031111
Parada de Bouro,PCTP/MRPP,0,0,031111
Parada de Bouro,PDR,0,0,031111
Parada de Bouro,PTP,0,0,031111
Parada de Bouro,PURP,0,0,031111
