freguesia,acronym,validVotesPercentage,votes,dicofre
Parambos,PPD/PSD,46.53,47,040311
Parambos,PS,39.6,40,040311
Parambos,CDS-PP,3.96,4,040311
Parambos,A,1.98,2,040311
Parambos,B.E.,1.98,2,040311
Parambos,PAN,1.98,2,040311
Parambos,MAS,0.99,1,040311
Parambos,NC,0.99,1,040311
Parambos,PCP-PEV,0.99,1,040311
Parambos,PNR,0.99,1,040311
Parambos,IL,0,0,040311
Parambos,L,0,0,040311
Parambos,PCTP/MRPP,0,0,040311
Parambos,PDR,0,0,040311
Parambos,PPM.PPV/CDC,0,0,040311
Parambos,PTP,0,0,040311
Parambos,PURP,0,0,040311
