freguesia,acronym,validVotesPercentage,votes,dicofre
Parada de Pinhão,PPD/PSD,48.41,61,171005
Parada de Pinhão,PS,30.95,39,171005
Parada de Pinhão,CDS-PP,11.9,15,171005
Parada de Pinhão,B.E.,3.17,4,171005
Parada de Pinhão,PURP,1.59,2,171005
Parada de Pinhão,L,0.79,1,171005
Parada de Pinhão,MAS,0.79,1,171005
Parada de Pinhão,PAN,0.79,1,171005
Parada de Pinhão,PCP-PEV,0.79,1,171005
Parada de Pinhão,PTP,0.79,1,171005
Parada de Pinhão,A,0,0,171005
Parada de Pinhão,IL,0,0,171005
Parada de Pinhão,NC,0,0,171005
Parada de Pinhão,PCTP/MRPP,0,0,171005
Parada de Pinhão,PDR,0,0,171005
Parada de Pinhão,PNR,0,0,171005
Parada de Pinhão,PPM.PPV/CDC,0,0,171005
