freguesia,acronym,validVotesPercentage,votes,dicofre
Paradela,PPD/PSD,49.33,37,170322
Paradela,PS,36,27,170322
Paradela,CDS-PP,6.67,5,170322
Paradela,B.E.,2.67,2,170322
Paradela,PPM.PPV/CDC,2.67,2,170322
Paradela,A,1.33,1,170322
Paradela,PTP,1.33,1,170322
Paradela,IL,0,0,170322
Paradela,L,0,0,170322
Paradela,MAS,0,0,170322
Paradela,NC,0,0,170322
Paradela,PAN,0,0,170322
Paradela,PCP-PEV,0,0,170322
Paradela,PCTP/MRPP,0,0,170322
Paradela,PDR,0,0,170322
Paradela,PNR,0,0,170322
Paradela,PURP,0,0,170322
