freguesia,acronym,validVotesPercentage,votes,dicofre
Pardais,PS,47.46,56,071404
Pardais,PCP-PEV,15.25,18,071404
Pardais,B.E.,11.02,13,071404
Pardais,PPD/PSD,6.78,8,071404
Pardais,PAN,5.93,7,071404
Pardais,A,3.39,4,071404
Pardais,PCTP/MRPP,2.54,3,071404
Pardais,PDR,2.54,3,071404
Pardais,PPM.PPV/CDC,2.54,3,071404
Pardais,L,1.69,2,071404
Pardais,IL,0.85,1,071404
Pardais,CDS-PP,0,0,071404
Pardais,MAS,0,0,071404
Pardais,NC,0,0,071404
Pardais,PNR,0,0,071404
Pardais,PTP,0,0,071404
Pardais,PURP,0,0,071404
