freguesia,acronym,validVotesPercentage,votes,dicofre
Pardilhó,PPD/PSD,32.07,280,010805
Pardilhó,PS,31.62,276,010805
Pardilhó,B.E.,10.08,88,010805
Pardilhó,PCP-PEV,7.33,64,010805
Pardilhó,CDS-PP,6.53,57,010805
Pardilhó,PAN,4.12,36,010805
Pardilhó,PCTP/MRPP,1.49,13,010805
Pardilhó,A,1.26,11,010805
Pardilhó,L,1.15,10,010805
Pardilhó,PPM.PPV/CDC,1.15,10,010805
Pardilhó,NC,0.92,8,010805
Pardilhó,PDR,0.69,6,010805
Pardilhó,PNR,0.46,4,010805
Pardilhó,PTP,0.46,4,010805
Pardilhó,PURP,0.46,4,010805
Pardilhó,IL,0.23,2,010805
Pardilhó,MAS,0,0,010805
