freguesia,acronym,validVotesPercentage,votes,dicofre
Paredes de Viadores e Manhuncelos,PS,48.08,175,130737
Paredes de Viadores e Manhuncelos,PPD/PSD,18.41,67,130737
Paredes de Viadores e Manhuncelos,B.E.,12.36,45,130737
Paredes de Viadores e Manhuncelos,CDS-PP,7.97,29,130737
Paredes de Viadores e Manhuncelos,PAN,3.85,14,130737
Paredes de Viadores e Manhuncelos,PCP-PEV,2.75,10,130737
Paredes de Viadores e Manhuncelos,A,1.92,7,130737
Paredes de Viadores e Manhuncelos,PNR,1.1,4,130737
Paredes de Viadores e Manhuncelos,IL,0.82,3,130737
Paredes de Viadores e Manhuncelos,PPM.PPV/CDC,0.82,3,130737
Paredes de Viadores e Manhuncelos,MAS,0.55,2,130737
Paredes de Viadores e Manhuncelos,PCTP/MRPP,0.55,2,130737
Paredes de Viadores e Manhuncelos,PDR,0.55,2,130737
Paredes de Viadores e Manhuncelos,L,0.27,1,130737
Paredes de Viadores e Manhuncelos,NC,0,0,130737
Paredes de Viadores e Manhuncelos,PTP,0,0,130737
Paredes de Viadores e Manhuncelos,PURP,0,0,130737
