freguesia,acronym,validVotesPercentage,votes,dicofre
Paredes,PS,37.19,2217,131025
Paredes,PPD/PSD,29.87,1781,131025
Paredes,B.E.,8.45,504,131025
Paredes,CDS-PP,7.82,466,131025
Paredes,PAN,5.3,316,131025
Paredes,PCP-PEV,2.5,149,131025
Paredes,L,1.74,104,131025
Paredes,PPM.PPV/CDC,1.33,79,131025
Paredes,NC,1.26,75,131025
Paredes,A,0.96,57,131025
Paredes,PDR,0.77,46,131025
Paredes,IL,0.74,44,131025
Paredes,PCTP/MRPP,0.6,36,131025
Paredes,PNR,0.6,36,131025
Paredes,PTP,0.34,20,131025
Paredes,PURP,0.34,20,131025
Paredes,MAS,0.2,12,131025
