freguesia,acronym,validVotesPercentage,votes,dicofre
Paul,PS,36.6,142,050314
Paul,PPD/PSD,21.39,83,050314
Paul,PCP-PEV,12.37,48,050314
Paul,B.E.,8.25,32,050314
Paul,CDS-PP,6.19,24,050314
Paul,PAN,5.15,20,050314
Paul,PPM.PPV/CDC,3.35,13,050314
Paul,L,2.32,9,050314
Paul,A,1.55,6,050314
Paul,NC,0.77,3,050314
Paul,PCTP/MRPP,0.77,3,050314
Paul,PNR,0.52,2,050314
Paul,PURP,0.52,2,050314
Paul,PTP,0.26,1,050314
Paul,IL,0,0,050314
Paul,MAS,0,0,050314
Paul,PDR,0,0,050314
