freguesia,acronym,validVotesPercentage,votes,dicofre
Pechão,PS,34.91,266,081004
Pechão,B.E.,16.93,129,081004
Pechão,PPD/PSD,15.62,119,081004
Pechão,PCP-PEV,9.71,74,081004
Pechão,PAN,7.74,59,081004
Pechão,CDS-PP,3.81,29,081004
Pechão,PPM.PPV/CDC,2.49,19,081004
Pechão,A,2.23,17,081004
Pechão,NC,1.97,15,081004
Pechão,L,1.18,9,081004
Pechão,PCTP/MRPP,1.18,9,081004
Pechão,IL,0.79,6,081004
Pechão,PDR,0.39,3,081004
Pechão,PURP,0.39,3,081004
Pechão,MAS,0.26,2,081004
Pechão,PNR,0.26,2,081004
Pechão,PTP,0.13,1,081004
