freguesia,acronym,validVotesPercentage,votes,dicofre
Pedraça,PS,42.86,96,030413
Pedraça,PPD/PSD,33.48,75,030413
Pedraça,CDS-PP,7.14,16,030413
Pedraça,B.E.,5.8,13,030413
Pedraça,A,3.57,8,030413
Pedraça,PAN,3.13,7,030413
Pedraça,PCP-PEV,0.89,2,030413
Pedraça,PDR,0.89,2,030413
Pedraça,IL,0.45,1,030413
Pedraça,L,0.45,1,030413
Pedraça,PCTP/MRPP,0.45,1,030413
Pedraça,PNR,0.45,1,030413
Pedraça,PPM.PPV/CDC,0.45,1,030413
Pedraça,MAS,0,0,030413
Pedraça,NC,0,0,030413
Pedraça,PTP,0,0,030413
Pedraça,PURP,0,0,030413
