freguesia,acronym,validVotesPercentage,votes,dicofre
Pega,PPD/PSD,40,22,090729
Pega,PS,27.27,15,090729
Pega,CDS-PP,9.09,5,090729
Pega,A,5.45,3,090729
Pega,B.E.,5.45,3,090729
Pega,PAN,3.64,2,090729
Pega,NC,1.82,1,090729
Pega,PCP-PEV,1.82,1,090729
Pega,PCTP/MRPP,1.82,1,090729
Pega,PNR,1.82,1,090729
Pega,PPM.PPV/CDC,1.82,1,090729
Pega,IL,0,0,090729
Pega,L,0,0,090729
Pega,MAS,0,0,090729
Pega,PDR,0,0,090729
Pega,PTP,0,0,090729
Pega,PURP,0,0,090729
