freguesia,acronym,validVotesPercentage,votes,dicofre
Penajóia,PS,40.85,58,180516
Penajóia,PPD/PSD,23.94,34,180516
Penajóia,CDS-PP,15.49,22,180516
Penajóia,PCP-PEV,4.93,7,180516
Penajóia,B.E.,3.52,5,180516
Penajóia,A,2.82,4,180516
Penajóia,PAN,2.82,4,180516
Penajóia,MAS,1.41,2,180516
Penajóia,PDR,1.41,2,180516
Penajóia,L,0.7,1,180516
Penajóia,PCTP/MRPP,0.7,1,180516
Penajóia,PNR,0.7,1,180516
Penajóia,PPM.PPV/CDC,0.7,1,180516
Penajóia,IL,0,0,180516
Penajóia,NC,0,0,180516
Penajóia,PTP,0,0,180516
Penajóia,PURP,0,0,180516
