freguesia,acronym,validVotesPercentage,votes,dicofre
Peredo,PPD/PSD,38.16,29,040524
Peredo,PS,38.16,29,040524
Peredo,CDS-PP,13.16,10,040524
Peredo,B.E.,2.63,2,040524
Peredo,PAN,2.63,2,040524
Peredo,IL,1.32,1,040524
Peredo,NC,1.32,1,040524
Peredo,PCP-PEV,1.32,1,040524
Peredo,PDR,1.32,1,040524
Peredo,A,0,0,040524
Peredo,L,0,0,040524
Peredo,MAS,0,0,040524
Peredo,PCTP/MRPP,0,0,040524
Peredo,PNR,0,0,040524
Peredo,PPM.PPV/CDC,0,0,040524
Peredo,PTP,0,0,040524
Peredo,PURP,0,0,040524
