freguesia,acronym,validVotesPercentage,votes,dicofre
Piedade,PS,49.63,67,460103
Piedade,PPD/PSD,34.81,47,460103
Piedade,B.E.,5.19,7,460103
Piedade,L,2.22,3,460103
Piedade,PPM.PPV/CDC,2.22,3,460103
Piedade,PAN,1.48,2,460103
Piedade,PCP-PEV,1.48,2,460103
Piedade,A,0.74,1,460103
Piedade,CDS-PP,0.74,1,460103
Piedade,PCTP/MRPP,0.74,1,460103
Piedade,PDR,0.74,1,460103
Piedade,IL,0,0,460103
Piedade,MAS,0,0,460103
Piedade,NC,0,0,460103
Piedade,PNR,0,0,460103
Piedade,PTP,0,0,460103
Piedade,PURP,0,0,460103
