freguesia,acronym,validVotesPercentage,votes,dicofre
Pinhanços,PPD/PSD,34.86,61,091209
Pinhanços,PS,34.29,60,091209
Pinhanços,B.E.,10.86,19,091209
Pinhanços,CDS-PP,6.86,12,091209
Pinhanços,PPM.PPV/CDC,5.14,9,091209
Pinhanços,PCP-PEV,1.71,3,091209
Pinhanços,A,1.14,2,091209
Pinhanços,PDR,1.14,2,091209
Pinhanços,PTP,1.14,2,091209
Pinhanços,L,0.57,1,091209
Pinhanços,MAS,0.57,1,091209
Pinhanços,PAN,0.57,1,091209
Pinhanços,PCTP/MRPP,0.57,1,091209
Pinhanços,PURP,0.57,1,091209
Pinhanços,IL,0,0,091209
Pinhanços,NC,0,0,091209
Pinhanços,PNR,0,0,091209
