freguesia,acronym,validVotesPercentage,votes,dicofre
Poiares,PS,53.15,59,040406
Poiares,PPD/PSD,24.32,27,040406
Poiares,B.E.,8.11,9,040406
Poiares,CDS-PP,5.41,6,040406
Poiares,PAN,2.7,3,040406
Poiares,IL,0.9,1,040406
Poiares,L,0.9,1,040406
Poiares,PCP-PEV,0.9,1,040406
Poiares,PDR,0.9,1,040406
Poiares,PPM.PPV/CDC,0.9,1,040406
Poiares,PTP,0.9,1,040406
Poiares,PURP,0.9,1,040406
Poiares,A,0,0,040406
Poiares,MAS,0,0,040406
Poiares,NC,0,0,040406
Poiares,PCTP/MRPP,0,0,040406
Poiares,PNR,0,0,040406
