freguesia,acronym,validVotesPercentage,votes,dicofre
Polvoreira,PS,57.8,689,030837
Polvoreira,PPD/PSD,15.02,179,030837
Polvoreira,B.E.,9.23,110,030837
Polvoreira,CDS-PP,4.03,48,030837
Polvoreira,PCP-PEV,3.94,47,030837
Polvoreira,PAN,3.02,36,030837
Polvoreira,A,1.34,16,030837
Polvoreira,L,0.92,11,030837
Polvoreira,PCTP/MRPP,0.84,10,030837
Polvoreira,NC,0.76,9,030837
Polvoreira,PPM.PPV/CDC,0.76,9,030837
Polvoreira,PDR,0.67,8,030837
Polvoreira,IL,0.5,6,030837
Polvoreira,PURP,0.5,6,030837
Polvoreira,PNR,0.34,4,030837
Polvoreira,PTP,0.25,3,030837
Polvoreira,MAS,0.08,1,030837
