freguesia,acronym,validVotesPercentage,votes,dicofre
Ponta Delgada (São Pedro),PS,37.76,506,420314
Ponta Delgada (São Pedro),PPD/PSD,17.76,238,420314
Ponta Delgada (São Pedro),B.E.,12.84,172,420314
Ponta Delgada (São Pedro),PAN,7.09,95,420314
Ponta Delgada (São Pedro),CDS-PP,5,67,420314
Ponta Delgada (São Pedro),L,4.7,63,420314
Ponta Delgada (São Pedro),A,4.1,55,420314
Ponta Delgada (São Pedro),PCP-PEV,3.43,46,420314
Ponta Delgada (São Pedro),NC,1.79,24,420314
Ponta Delgada (São Pedro),PPM.PPV/CDC,1.57,21,420314
Ponta Delgada (São Pedro),IL,1.42,19,420314
Ponta Delgada (São Pedro),PNR,0.97,13,420314
Ponta Delgada (São Pedro),PDR,0.6,8,420314
Ponta Delgada (São Pedro),PCTP/MRPP,0.37,5,420314
Ponta Delgada (São Pedro),PURP,0.37,5,420314
Ponta Delgada (São Pedro),MAS,0.22,3,420314
Ponta Delgada (São Pedro),PTP,0,0,420314
