freguesia,acronym,validVotesPercentage,votes,dicofre
Portela do Fojo-Machio,PPD/PSD,37.76,54,061212
Portela do Fojo-Machio,PS,37.06,53,061212
Portela do Fojo-Machio,PCP-PEV,5.59,8,061212
Portela do Fojo-Machio,B.E.,4.9,7,061212
Portela do Fojo-Machio,CDS-PP,4.2,6,061212
Portela do Fojo-Machio,PAN,3.5,5,061212
Portela do Fojo-Machio,PPM.PPV/CDC,2.1,3,061212
Portela do Fojo-Machio,PCTP/MRPP,1.4,2,061212
Portela do Fojo-Machio,A,0.7,1,061212
Portela do Fojo-Machio,IL,0.7,1,061212
Portela do Fojo-Machio,PDR,0.7,1,061212
Portela do Fojo-Machio,PNR,0.7,1,061212
Portela do Fojo-Machio,PTP,0.7,1,061212
Portela do Fojo-Machio,L,0,0,061212
Portela do Fojo-Machio,MAS,0,0,061212
Portela do Fojo-Machio,NC,0,0,061212
Portela do Fojo-Machio,PURP,0,0,061212
