freguesia,acronym,validVotesPercentage,votes,dicofre
Povoação,PS,65.49,241,420405
Povoação,PPD/PSD,17.39,64,420405
Povoação,CDS-PP,2.72,10,420405
Povoação,B.E.,2.45,9,420405
Povoação,PCP-PEV,2.45,9,420405
Povoação,A,2.17,8,420405
Povoação,PTP,2.17,8,420405
Povoação,PAN,1.09,4,420405
Povoação,PDR,1.09,4,420405
Povoação,PCTP/MRPP,0.82,3,420405
Povoação,L,0.54,2,420405
Povoação,MAS,0.54,2,420405
Povoação,IL,0.27,1,420405
Povoação,NC,0.27,1,420405
Povoação,PPM.PPV/CDC,0.27,1,420405
Povoação,PURP,0.27,1,420405
Povoação,PNR,0,0,420405
