freguesia,acronym,validVotesPercentage,votes,dicofre
Prazeres,PPD/PSD,73.48,241,310108
Prazeres,CDS-PP,9.15,30,310108
Prazeres,PS,9.15,30,310108
Prazeres,B.E.,2.13,7,310108
Prazeres,IL,1.22,4,310108
Prazeres,PCTP/MRPP,0.91,3,310108
Prazeres,A,0.61,2,310108
Prazeres,L,0.61,2,310108
Prazeres,PDR,0.61,2,310108
Prazeres,PPM.PPV/CDC,0.61,2,310108
Prazeres,PTP,0.61,2,310108
Prazeres,MAS,0.3,1,310108
Prazeres,PAN,0.3,1,310108
Prazeres,PCP-PEV,0.3,1,310108
Prazeres,NC,0,0,310108
Prazeres,PNR,0,0,310108
Prazeres,PURP,0,0,310108
