freguesia,acronym,validVotesPercentage,votes,dicofre
Pêra do Moço,PPD/PSD,44.48,133,090730
Pêra do Moço,PS,29.43,88,090730
Pêra do Moço,B.E.,6.69,20,090730
Pêra do Moço,CDS-PP,6.02,18,090730
Pêra do Moço,PPM.PPV/CDC,3.01,9,090730
Pêra do Moço,L,2.68,8,090730
Pêra do Moço,PAN,2.34,7,090730
Pêra do Moço,PCP-PEV,2.34,7,090730
Pêra do Moço,A,0.67,2,090730
Pêra do Moço,IL,0.67,2,090730
Pêra do Moço,PCTP/MRPP,0.67,2,090730
Pêra do Moço,PNR,0.67,2,090730
Pêra do Moço,PDR,0.33,1,090730
Pêra do Moço,MAS,0,0,090730
Pêra do Moço,NC,0,0,090730
Pêra do Moço,PTP,0,0,090730
Pêra do Moço,PURP,0,0,090730
