freguesia,acronym,validVotesPercentage,votes,dicofre
Póvoa de São Miguel,PS,55.17,64,021002
Póvoa de São Miguel,PPD/PSD,13.79,16,021002
Póvoa de São Miguel,PCP-PEV,12.07,14,021002
Póvoa de São Miguel,B.E.,4.31,5,021002
Póvoa de São Miguel,CDS-PP,4.31,5,021002
Póvoa de São Miguel,PCTP/MRPP,2.59,3,021002
Póvoa de São Miguel,PNR,1.72,2,021002
Póvoa de São Miguel,A,0.86,1,021002
Póvoa de São Miguel,L,0.86,1,021002
Póvoa de São Miguel,MAS,0.86,1,021002
Póvoa de São Miguel,PDR,0.86,1,021002
Póvoa de São Miguel,PPM.PPV/CDC,0.86,1,021002
Póvoa de São Miguel,PTP,0.86,1,021002
Póvoa de São Miguel,PURP,0.86,1,021002
Póvoa de São Miguel,IL,0,0,021002
Póvoa de São Miguel,NC,0,0,021002
Póvoa de São Miguel,PAN,0,0,021002
