freguesia,acronym,validVotesPercentage,votes,dicofre
Queirã,PS,39.9,156,182409
Queirã,PPD/PSD,36.06,141,182409
Queirã,B.E.,5.37,21,182409
Queirã,CDS-PP,5.12,20,182409
Queirã,PCP-PEV,3.07,12,182409
Queirã,PPM.PPV/CDC,2.81,11,182409
Queirã,A,2.3,9,182409
Queirã,PAN,1.53,6,182409
Queirã,IL,0.77,3,182409
Queirã,PDR,0.77,3,182409
Queirã,PNR,0.77,3,182409
Queirã,NC,0.51,2,182409
Queirã,L,0.26,1,182409
Queirã,MAS,0.26,1,182409
Queirã,PCTP/MRPP,0.26,1,182409
Queirã,PURP,0.26,1,182409
Queirã,PTP,0,0,182409
