freguesia,acronym,validVotesPercentage,votes,dicofre
Quiaios,PS,46.14,317,060524
Quiaios,PPD/PSD,17.76,122,060524
Quiaios,B.E.,13.1,90,060524
Quiaios,PAN,7.71,53,060524
Quiaios,PCP-PEV,5.24,36,060524
Quiaios,A,3.2,22,060524
Quiaios,PPM.PPV/CDC,1.46,10,060524
Quiaios,CDS-PP,1.31,9,060524
Quiaios,L,1.02,7,060524
Quiaios,NC,0.87,6,060524
Quiaios,PNR,0.58,4,060524
Quiaios,PCTP/MRPP,0.44,3,060524
Quiaios,PDR,0.44,3,060524
Quiaios,PURP,0.44,3,060524
Quiaios,IL,0.29,2,060524
Quiaios,MAS,0,0,060524
Quiaios,PTP,0,0,060524
