freguesia,acronym,validVotesPercentage,votes,dicofre
Rabo de Peixe,PPD/PSD,34.72,233,420508
Rabo de Peixe,PS,30.7,206,420508
Rabo de Peixe,B.E.,15.8,106,420508
Rabo de Peixe,CDS-PP,5.07,34,420508
Rabo de Peixe,A,3.43,23,420508
Rabo de Peixe,L,1.64,11,420508
Rabo de Peixe,PAN,1.64,11,420508
Rabo de Peixe,PCP-PEV,1.49,10,420508
Rabo de Peixe,PCTP/MRPP,1.19,8,420508
Rabo de Peixe,PPM.PPV/CDC,1.19,8,420508
Rabo de Peixe,NC,0.75,5,420508
Rabo de Peixe,PDR,0.75,5,420508
Rabo de Peixe,PURP,0.75,5,420508
Rabo de Peixe,MAS,0.3,2,420508
Rabo de Peixe,PTP,0.3,2,420508
Rabo de Peixe,IL,0.15,1,420508
Rabo de Peixe,PNR,0.15,1,420508
