freguesia,acronym,validVotesPercentage,votes,dicofre
Ratoeira,PPD/PSD,51.35,38,090314
Ratoeira,PS,33.78,25,090314
Ratoeira,CDS-PP,6.76,5,090314
Ratoeira,PPM.PPV/CDC,4.05,3,090314
Ratoeira,L,1.35,1,090314
Ratoeira,PCTP/MRPP,1.35,1,090314
Ratoeira,PURP,1.35,1,090314
Ratoeira,A,0,0,090314
Ratoeira,B.E.,0,0,090314
Ratoeira,IL,0,0,090314
Ratoeira,MAS,0,0,090314
Ratoeira,NC,0,0,090314
Ratoeira,PAN,0,0,090314
Ratoeira,PCP-PEV,0,0,090314
Ratoeira,PDR,0,0,090314
Ratoeira,PNR,0,0,090314
Ratoeira,PTP,0,0,090314
