freguesia,acronym,validVotesPercentage,votes,dicofre
Redondelo,PS,59.57,84,170324
Redondelo,PPD/PSD,26.95,38,170324
Redondelo,CDS-PP,3.55,5,170324
Redondelo,B.E.,2.84,4,170324
Redondelo,PPM.PPV/CDC,2.84,4,170324
Redondelo,L,1.42,2,170324
Redondelo,NC,1.42,2,170324
Redondelo,PCP-PEV,0.71,1,170324
Redondelo,PCTP/MRPP,0.71,1,170324
Redondelo,A,0,0,170324
Redondelo,IL,0,0,170324
Redondelo,MAS,0,0,170324
Redondelo,PAN,0,0,170324
Redondelo,PDR,0,0,170324
Redondelo,PNR,0,0,170324
Redondelo,PTP,0,0,170324
Redondelo,PURP,0,0,170324
