freguesia,acronym,validVotesPercentage,votes,dicofre
Rendo,PPD/PSD,38.82,33,091127
Rendo,PS,28.24,24,091127
Rendo,B.E.,7.06,6,091127
Rendo,A,5.88,5,091127
Rendo,CDS-PP,3.53,3,091127
Rendo,PDR,3.53,3,091127
Rendo,NC,2.35,2,091127
Rendo,PAN,2.35,2,091127
Rendo,PCP-PEV,2.35,2,091127
Rendo,PNR,2.35,2,091127
Rendo,MAS,1.18,1,091127
Rendo,PPM.PPV/CDC,1.18,1,091127
Rendo,PTP,1.18,1,091127
Rendo,IL,0,0,091127
Rendo,L,0,0,091127
Rendo,PCTP/MRPP,0,0,091127
Rendo,PURP,0,0,091127
