freguesia,acronym,validVotesPercentage,votes,dicofre
Ribeira Brava,PPD/PSD,46.22,1101,310702
Ribeira Brava,PS,19.4,462,310702
Ribeira Brava,CDS-PP,8.48,202,310702
Ribeira Brava,B.E.,5.21,124,310702
Ribeira Brava,PURP,3.61,86,310702
Ribeira Brava,PAN,3.32,79,310702
Ribeira Brava,PCP-PEV,2.23,53,310702
Ribeira Brava,A,1.64,39,310702
Ribeira Brava,PPM.PPV/CDC,1.6,38,310702
Ribeira Brava,PTP,1.55,37,310702
Ribeira Brava,PCTP/MRPP,1.47,35,310702
Ribeira Brava,L,1.3,31,310702
Ribeira Brava,PDR,1.18,28,310702
Ribeira Brava,NC,1.09,26,310702
Ribeira Brava,PNR,0.88,21,310702
Ribeira Brava,IL,0.59,14,310702
Ribeira Brava,MAS,0.25,6,310702
