freguesia,acronym,validVotesPercentage,votes,dicofre
Ribeira Quente,PS,58.33,77,420406
Ribeira Quente,PPD/PSD,22.73,30,420406
Ribeira Quente,B.E.,9.09,12,420406
Ribeira Quente,CDS-PP,3.03,4,420406
Ribeira Quente,L,2.27,3,420406
Ribeira Quente,PAN,1.52,2,420406
Ribeira Quente,PCP-PEV,1.52,2,420406
Ribeira Quente,A,0.76,1,420406
Ribeira Quente,PCTP/MRPP,0.76,1,420406
Ribeira Quente,IL,0,0,420406
Ribeira Quente,MAS,0,0,420406
Ribeira Quente,NC,0,0,420406
Ribeira Quente,PDR,0,0,420406
Ribeira Quente,PNR,0,0,420406
Ribeira Quente,PPM.PPV/CDC,0,0,420406
Ribeira Quente,PTP,0,0,420406
Ribeira Quente,PURP,0,0,420406
