freguesia,acronym,validVotesPercentage,votes,dicofre
Rio Tinto,PS,38.28,6032,130408
Rio Tinto,PPD/PSD,19.4,3057,130408
Rio Tinto,B.E.,14.18,2234,130408
Rio Tinto,PCP-PEV,7.69,1212,130408
Rio Tinto,PAN,7.33,1155,130408
Rio Tinto,CDS-PP,4.02,634,130408
Rio Tinto,L,1.48,233,130408
Rio Tinto,NC,1.47,232,130408
Rio Tinto,PPM.PPV/CDC,1.14,180,130408
Rio Tinto,A,1.12,176,130408
Rio Tinto,IL,0.96,151,130408
Rio Tinto,PCTP/MRPP,0.95,150,130408
Rio Tinto,PDR,0.64,101,130408
Rio Tinto,PNR,0.52,82,130408
Rio Tinto,PURP,0.46,73,130408
Rio Tinto,MAS,0.19,30,130408
Rio Tinto,PTP,0.15,24,130408
