freguesia,acronym,validVotesPercentage,votes,dicofre
Riodades,PS,43.88,61,181507
Riodades,PPD/PSD,35.97,50,181507
Riodades,CDS-PP,7.91,11,181507
Riodades,B.E.,4.32,6,181507
Riodades,PURP,2.16,3,181507
Riodades,PCP-PEV,1.44,2,181507
Riodades,PNR,1.44,2,181507
Riodades,A,0.72,1,181507
Riodades,L,0.72,1,181507
Riodades,NC,0.72,1,181507
Riodades,PAN,0.72,1,181507
Riodades,IL,0,0,181507
Riodades,MAS,0,0,181507
Riodades,PCTP/MRPP,0,0,181507
Riodades,PDR,0,0,181507
Riodades,PPM.PPV/CDC,0,0,181507
Riodades,PTP,0,0,181507
