freguesia,acronym,validVotesPercentage,votes,dicofre
Rosto do Cão (Livramento),PS,36.53,236,420317
Rosto do Cão (Livramento),PPD/PSD,22.6,146,420317
Rosto do Cão (Livramento),B.E.,11.15,72,420317
Rosto do Cão (Livramento),CDS-PP,6.5,42,420317
Rosto do Cão (Livramento),PAN,6.35,41,420317
Rosto do Cão (Livramento),A,5.42,35,420317
Rosto do Cão (Livramento),L,2.79,18,420317
Rosto do Cão (Livramento),PCP-PEV,2.63,17,420317
Rosto do Cão (Livramento),PPM.PPV/CDC,2.17,14,420317
Rosto do Cão (Livramento),NC,1.08,7,420317
Rosto do Cão (Livramento),PCTP/MRPP,0.93,6,420317
Rosto do Cão (Livramento),IL,0.46,3,420317
Rosto do Cão (Livramento),PDR,0.46,3,420317
Rosto do Cão (Livramento),PTP,0.46,3,420317
Rosto do Cão (Livramento),MAS,0.15,1,420317
Rosto do Cão (Livramento),PNR,0.15,1,420317
Rosto do Cão (Livramento),PURP,0.15,1,420317
