freguesia,acronym,validVotesPercentage,votes,dicofre
Rosário,PS,46.98,70,020203
Rosário,B.E.,15.44,23,020203
Rosário,PCP-PEV,12.08,18,020203
Rosário,PPD/PSD,12.08,18,020203
Rosário,IL,2.68,4,020203
Rosário,PCTP/MRPP,2.68,4,020203
Rosário,CDS-PP,2.01,3,020203
Rosário,PAN,2.01,3,020203
Rosário,PPM.PPV/CDC,1.34,2,020203
Rosário,L,0.67,1,020203
Rosário,NC,0.67,1,020203
Rosário,PNR,0.67,1,020203
Rosário,PTP,0.67,1,020203
Rosário,A,0,0,020203
Rosário,MAS,0,0,020203
Rosário,PDR,0,0,020203
Rosário,PURP,0,0,020203
