freguesia,acronym,validVotesPercentage,votes,dicofre
Salamonde,PS,41.24,40,031115
Salamonde,PPD/PSD,35.05,34,031115
Salamonde,B.E.,8.25,8,031115
Salamonde,PCP-PEV,4.12,4,031115
Salamonde,CDS-PP,3.09,3,031115
Salamonde,PAN,3.09,3,031115
Salamonde,PCTP/MRPP,2.06,2,031115
Salamonde,IL,1.03,1,031115
Salamonde,L,1.03,1,031115
Salamonde,PPM.PPV/CDC,1.03,1,031115
Salamonde,A,0,0,031115
Salamonde,MAS,0,0,031115
Salamonde,NC,0,0,031115
Salamonde,PDR,0,0,031115
Salamonde,PNR,0,0,031115
Salamonde,PTP,0,0,031115
Salamonde,PURP,0,0,031115
