freguesia,acronym,validVotesPercentage,votes,dicofre
Sanfins,PPD/PSD,57.35,39,170327
Sanfins,PS,22.06,15,170327
Sanfins,PAN,7.35,5,170327
Sanfins,CDS-PP,5.88,4,170327
Sanfins,B.E.,4.41,3,170327
Sanfins,PCTP/MRPP,2.94,2,170327
Sanfins,A,0,0,170327
Sanfins,IL,0,0,170327
Sanfins,L,0,0,170327
Sanfins,MAS,0,0,170327
Sanfins,NC,0,0,170327
Sanfins,PCP-PEV,0,0,170327
Sanfins,PDR,0,0,170327
Sanfins,PNR,0,0,170327
Sanfins,PPM.PPV/CDC,0,0,170327
Sanfins,PTP,0,0,170327
Sanfins,PURP,0,0,170327
