freguesia,acronym,validVotesPercentage,votes,dicofre
Santo António da Serra,PPD/PSD,48.27,209,310405
Santo António da Serra,PS,24.71,107,310405
Santo António da Serra,CDS-PP,6,26,310405
Santo António da Serra,B.E.,5.77,25,310405
Santo António da Serra,PAN,3.23,14,310405
Santo António da Serra,PPM.PPV/CDC,1.85,8,310405
Santo António da Serra,PTP,1.85,8,310405
Santo António da Serra,PURP,1.85,8,310405
Santo António da Serra,PCP-PEV,1.62,7,310405
Santo António da Serra,A,1.39,6,310405
Santo António da Serra,L,1.39,6,310405
Santo António da Serra,NC,0.69,3,310405
Santo António da Serra,PDR,0.69,3,310405
Santo António da Serra,IL,0.46,2,310405
Santo António da Serra,MAS,0.23,1,310405
Santo António da Serra,PCTP/MRPP,0,0,310405
Santo António da Serra,PNR,0,0,310405
