freguesia,acronym,validVotesPercentage,votes,dicofre
Santana,PS,65.65,86,121207
Santana,PCP-PEV,13.74,18,121207
Santana,B.E.,6.11,8,121207
Santana,PCTP/MRPP,4.58,6,121207
Santana,PPD/PSD,4.58,6,121207
Santana,PPM.PPV/CDC,1.53,2,121207
Santana,CDS-PP,0.76,1,121207
Santana,L,0.76,1,121207
Santana,PAN,0.76,1,121207
Santana,PTP,0.76,1,121207
Santana,PURP,0.76,1,121207
Santana,A,0,0,121207
Santana,IL,0,0,121207
Santana,MAS,0,0,121207
Santana,NC,0,0,121207
Santana,PDR,0,0,121207
Santana,PNR,0,0,121207
