freguesia,acronym,validVotesPercentage,votes,dicofre
Santo Amaro,PS,42.6,95,121503
Santo Amaro,PPD/PSD,23.77,53,121503
Santo Amaro,PCP-PEV,15.25,34,121503
Santo Amaro,B.E.,8.07,18,121503
Santo Amaro,PPM.PPV/CDC,3.59,8,121503
Santo Amaro,PCTP/MRPP,1.79,4,121503
Santo Amaro,CDS-PP,1.35,3,121503
Santo Amaro,PAN,1.35,3,121503
Santo Amaro,L,0.9,2,121503
Santo Amaro,A,0.45,1,121503
Santo Amaro,MAS,0.45,1,121503
Santo Amaro,PDR,0.45,1,121503
Santo Amaro,IL,0,0,121503
Santo Amaro,NC,0,0,121503
Santo Amaro,PNR,0,0,121503
Santo Amaro,PTP,0,0,121503
Santo Amaro,PURP,0,0,121503
