freguesia,acronym,validVotesPercentage,votes,dicofre
Santa Cruz,PS,56.49,87,020205
Santa Cruz,PCP-PEV,11.69,18,020205
Santa Cruz,PPD/PSD,8.44,13,020205
Santa Cruz,B.E.,6.49,10,020205
Santa Cruz,PAN,6.49,10,020205
Santa Cruz,CDS-PP,3.9,6,020205
Santa Cruz,PPM.PPV/CDC,3.25,5,020205
Santa Cruz,PCTP/MRPP,1.3,2,020205
Santa Cruz,MAS,0.65,1,020205
Santa Cruz,PDR,0.65,1,020205
Santa Cruz,PTP,0.65,1,020205
Santa Cruz,A,0,0,020205
Santa Cruz,IL,0,0,020205
Santa Cruz,L,0,0,020205
Santa Cruz,NC,0,0,020205
Santa Cruz,PNR,0,0,020205
Santa Cruz,PURP,0,0,020205
