freguesia,acronym,validVotesPercentage,votes,dicofre
Santo Quintino,PS,36.4,360,111201
Santo Quintino,PCP-PEV,22.95,227,111201
Santo Quintino,PPD/PSD,11.93,118,111201
Santo Quintino,B.E.,6.67,66,111201
Santo Quintino,CDS-PP,5.97,59,111201
Santo Quintino,PAN,5.46,54,111201
Santo Quintino,PCTP/MRPP,2.63,26,111201
Santo Quintino,A,1.92,19,111201
Santo Quintino,L,1.92,19,111201
Santo Quintino,PPM.PPV/CDC,1.82,18,111201
Santo Quintino,IL,0.71,7,111201
Santo Quintino,NC,0.61,6,111201
Santo Quintino,PURP,0.4,4,111201
Santo Quintino,MAS,0.3,3,111201
Santo Quintino,PDR,0.2,2,111201
Santo Quintino,PNR,0.1,1,111201
Santo Quintino,PTP,0,0,111201
