freguesia,acronym,validVotesPercentage,votes,dicofre
Santa Cruz da Graciosa,PS,58.44,180,440104
Santa Cruz da Graciosa,PPD/PSD,18.51,57,440104
Santa Cruz da Graciosa,CDS-PP,5.19,16,440104
Santa Cruz da Graciosa,B.E.,4.87,15,440104
Santa Cruz da Graciosa,PAN,2.92,9,440104
Santa Cruz da Graciosa,PCP-PEV,2.92,9,440104
Santa Cruz da Graciosa,PPM.PPV/CDC,2.27,7,440104
Santa Cruz da Graciosa,L,1.62,5,440104
Santa Cruz da Graciosa,IL,0.97,3,440104
Santa Cruz da Graciosa,NC,0.97,3,440104
Santa Cruz da Graciosa,A,0.65,2,440104
Santa Cruz da Graciosa,PCTP/MRPP,0.32,1,440104
Santa Cruz da Graciosa,PURP,0.32,1,440104
Santa Cruz da Graciosa,MAS,0,0,440104
Santa Cruz da Graciosa,PDR,0,0,440104
Santa Cruz da Graciosa,PNR,0,0,440104
Santa Cruz da Graciosa,PTP,0,0,440104
