freguesia,acronym,validVotesPercentage,votes,dicofre
Santa Comba de Vilariça,PS,50,70,041012
Santa Comba de Vilariça,PPD/PSD,20,28,041012
Santa Comba de Vilariça,B.E.,16.43,23,041012
Santa Comba de Vilariça,CDS-PP,3.57,5,041012
Santa Comba de Vilariça,PCP-PEV,2.86,4,041012
Santa Comba de Vilariça,PDR,2.86,4,041012
Santa Comba de Vilariça,PCTP/MRPP,1.43,2,041012
Santa Comba de Vilariça,IL,0.71,1,041012
Santa Comba de Vilariça,MAS,0.71,1,041012
Santa Comba de Vilariça,PAN,0.71,1,041012
Santa Comba de Vilariça,PURP,0.71,1,041012
Santa Comba de Vilariça,A,0,0,041012
Santa Comba de Vilariça,L,0,0,041012
Santa Comba de Vilariça,NC,0,0,041012
Santa Comba de Vilariça,PNR,0,0,041012
Santa Comba de Vilariça,PPM.PPV/CDC,0,0,041012
Santa Comba de Vilariça,PTP,0,0,041012
