freguesia,acronym,validVotesPercentage,votes,dicofre
Santa Clara,PS,39.69,2392,110664
Santa Clara,PPD/PSD,14.63,882,110664
Santa Clara,B.E.,10.19,614,110664
Santa Clara,PCP-PEV,8.45,509,110664
Santa Clara,PAN,6.64,400,110664
Santa Clara,CDS-PP,6.37,384,110664
Santa Clara,L,2.87,173,110664
Santa Clara,PPM.PPV/CDC,2.69,162,110664
Santa Clara,A,2.64,159,110664
Santa Clara,NC,1.39,84,110664
Santa Clara,IL,1.26,76,110664
Santa Clara,PCTP/MRPP,1.03,62,110664
Santa Clara,PNR,0.8,48,110664
Santa Clara,PURP,0.46,28,110664
Santa Clara,MAS,0.37,22,110664
Santa Clara,PDR,0.27,16,110664
Santa Clara,PTP,0.27,16,110664
