freguesia,acronym,validVotesPercentage,votes,dicofre
Santo Aleixo,PS,57.48,73,121103
Santo Aleixo,PCP-PEV,18.9,24,121103
Santo Aleixo,PPD/PSD,6.3,8,121103
Santo Aleixo,B.E.,3.94,5,121103
Santo Aleixo,PPM.PPV/CDC,3.15,4,121103
Santo Aleixo,CDS-PP,2.36,3,121103
Santo Aleixo,PCTP/MRPP,2.36,3,121103
Santo Aleixo,IL,1.57,2,121103
Santo Aleixo,PDR,1.57,2,121103
Santo Aleixo,A,0.79,1,121103
Santo Aleixo,L,0.79,1,121103
Santo Aleixo,PTP,0.79,1,121103
Santo Aleixo,MAS,0,0,121103
Santo Aleixo,NC,0,0,121103
Santo Aleixo,PAN,0,0,121103
Santo Aleixo,PNR,0,0,121103
Santo Aleixo,PURP,0,0,121103
