freguesia,acronym,validVotesPercentage,votes,dicofre
Santo André,PS,33.08,920,150907
Santo André,B.E.,17.66,491,150907
Santo André,PPD/PSD,13.95,388,150907
Santo André,PCP-PEV,13.23,368,150907
Santo André,PAN,6.36,177,150907
Santo André,CDS-PP,4.35,121,150907
Santo André,L,2.41,67,150907
Santo André,A,2.19,61,150907
Santo André,NC,1.44,40,150907
Santo André,PPM.PPV/CDC,1.26,35,150907
Santo André,PCTP/MRPP,0.97,27,150907
Santo André,PNR,0.83,23,150907
Santo André,IL,0.72,20,150907
Santo André,PDR,0.58,16,150907
Santo André,PURP,0.5,14,150907
Santo André,MAS,0.29,8,150907
Santo André,PTP,0.18,5,150907
