freguesia,acronym,validVotesPercentage,votes,dicofre
Santana,PS,43.69,45,420207
Santana,PPD/PSD,39.81,41,420207
Santana,PAN,5.83,6,420207
Santana,B.E.,4.85,5,420207
Santana,PCP-PEV,2.91,3,420207
Santana,A,0.97,1,420207
Santana,CDS-PP,0.97,1,420207
Santana,PTP,0.97,1,420207
Santana,IL,0,0,420207
Santana,L,0,0,420207
Santana,MAS,0,0,420207
Santana,NC,0,0,420207
Santana,PCTP/MRPP,0,0,420207
Santana,PDR,0,0,420207
Santana,PNR,0,0,420207
Santana,PPM.PPV/CDC,0,0,420207
Santana,PURP,0,0,420207
