freguesia,acronym,validVotesPercentage,votes,dicofre
Sapiãos,PPD/PSD,66.67,130,170215
Sapiãos,PS,23.08,45,170215
Sapiãos,B.E.,3.59,7,170215
Sapiãos,A,1.54,3,170215
Sapiãos,PCP-PEV,1.54,3,170215
Sapiãos,CDS-PP,1.03,2,170215
Sapiãos,NC,1.03,2,170215
Sapiãos,MAS,0.51,1,170215
Sapiãos,PAN,0.51,1,170215
Sapiãos,PCTP/MRPP,0.51,1,170215
Sapiãos,IL,0,0,170215
Sapiãos,L,0,0,170215
Sapiãos,PDR,0,0,170215
Sapiãos,PNR,0,0,170215
Sapiãos,PPM.PPV/CDC,0,0,170215
Sapiãos,PTP,0,0,170215
Sapiãos,PURP,0,0,170215
