freguesia,acronym,validVotesPercentage,votes,dicofre
Sardoal,PS,39.84,341,141703
Sardoal,PPD/PSD,22.78,195,141703
Sardoal,B.E.,12.27,105,141703
Sardoal,PAN,6.31,54,141703
Sardoal,PCP-PEV,5.49,47,141703
Sardoal,CDS-PP,3.39,29,141703
Sardoal,A,1.87,16,141703
Sardoal,PPM.PPV/CDC,1.75,15,141703
Sardoal,PCTP/MRPP,1.64,14,141703
Sardoal,L,1.4,12,141703
Sardoal,NC,1.05,9,141703
Sardoal,IL,0.82,7,141703
Sardoal,PNR,0.47,4,141703
Sardoal,PURP,0.35,3,141703
Sardoal,MAS,0.23,2,141703
Sardoal,PDR,0.23,2,141703
Sardoal,PTP,0.12,1,141703
