freguesia,acronym,validVotesPercentage,votes,dicofre
Sarzedo,PPD/PSD,48.53,99,060115
Sarzedo,PS,26.96,55,060115
Sarzedo,B.E.,8.82,18,060115
Sarzedo,CDS-PP,4.41,9,060115
Sarzedo,A,2.94,6,060115
Sarzedo,PAN,2.45,5,060115
Sarzedo,NC,1.47,3,060115
Sarzedo,PPM.PPV/CDC,1.47,3,060115
Sarzedo,IL,0.98,2,060115
Sarzedo,L,0.98,2,060115
Sarzedo,PCP-PEV,0.49,1,060115
Sarzedo,PNR,0.49,1,060115
Sarzedo,MAS,0,0,060115
Sarzedo,PCTP/MRPP,0,0,060115
Sarzedo,PDR,0,0,060115
Sarzedo,PTP,0,0,060115
Sarzedo,PURP,0,0,060115
