freguesia,acronym,validVotesPercentage,votes,dicofre
Seixas,PS,42.75,177,160215
Seixas,PPD/PSD,22.46,93,160215
Seixas,B.E.,11.35,47,160215
Seixas,CDS-PP,4.59,19,160215
Seixas,PCP-PEV,4.11,17,160215
Seixas,PAN,3.14,13,160215
Seixas,PPM.PPV/CDC,2.9,12,160215
Seixas,A,1.93,8,160215
Seixas,NC,1.93,8,160215
Seixas,IL,1.45,6,160215
Seixas,PTP,0.97,4,160215
Seixas,L,0.48,2,160215
Seixas,PDR,0.48,2,160215
Seixas,PNR,0.48,2,160215
Seixas,PURP,0.48,2,160215
Seixas,MAS,0.24,1,160215
Seixas,PCTP/MRPP,0.24,1,160215
