freguesia,acronym,validVotesPercentage,votes,dicofre
Serdedelo,PPD/PSD,51.06,72,160746
Serdedelo,PS,21.99,31,160746
Serdedelo,CDS-PP,17.73,25,160746
Serdedelo,B.E.,2.13,3,160746
Serdedelo,PAN,2.13,3,160746
Serdedelo,L,1.42,2,160746
Serdedelo,PCP-PEV,0.71,1,160746
Serdedelo,PDR,0.71,1,160746
Serdedelo,PNR,0.71,1,160746
Serdedelo,PTP,0.71,1,160746
Serdedelo,PURP,0.71,1,160746
Serdedelo,A,0,0,160746
Serdedelo,IL,0,0,160746
Serdedelo,MAS,0,0,160746
Serdedelo,NC,0,0,160746
Serdedelo,PCTP/MRPP,0,0,160746
Serdedelo,PPM.PPV/CDC,0,0,160746
