freguesia,acronym,validVotesPercentage,votes,dicofre
Seroa,PPD/PSD,41.95,279,130916
Seroa,PS,30.38,202,130916
Seroa,CDS-PP,7.07,47,130916
Seroa,B.E.,6.62,44,130916
Seroa,PAN,4.81,32,130916
Seroa,PCP-PEV,1.95,13,130916
Seroa,NC,1.8,12,130916
Seroa,L,1.2,8,130916
Seroa,PCTP/MRPP,1.05,7,130916
Seroa,PDR,0.6,4,130916
Seroa,IL,0.45,3,130916
Seroa,MAS,0.45,3,130916
Seroa,PNR,0.45,3,130916
Seroa,PURP,0.45,3,130916
Seroa,A,0.3,2,130916
Seroa,PPM.PPV/CDC,0.3,2,130916
Seroa,PTP,0.15,1,130916
