freguesia,acronym,validVotesPercentage,votes,dicofre
Serro Ventoso,PPD/PSD,43.02,111,101613
Serro Ventoso,PS,28.29,73,101613
Serro Ventoso,CDS-PP,8.14,21,101613
Serro Ventoso,B.E.,7.36,19,101613
Serro Ventoso,PAN,2.71,7,101613
Serro Ventoso,L,1.55,4,101613
Serro Ventoso,NC,1.55,4,101613
Serro Ventoso,A,1.16,3,101613
Serro Ventoso,PCP-PEV,1.16,3,101613
Serro Ventoso,PDR,1.16,3,101613
Serro Ventoso,PTP,1.16,3,101613
Serro Ventoso,IL,0.78,2,101613
Serro Ventoso,PCTP/MRPP,0.78,2,101613
Serro Ventoso,PNR,0.39,1,101613
Serro Ventoso,PPM.PPV/CDC,0.39,1,101613
Serro Ventoso,PURP,0.39,1,101613
Serro Ventoso,MAS,0,0,101613
