freguesia,acronym,validVotesPercentage,votes,dicofre
Serra de Santo António,PPD/PSD,48.11,102,140209
Serra de Santo António,PS,26.42,56,140209
Serra de Santo António,CDS-PP,10.85,23,140209
Serra de Santo António,B.E.,4.72,10,140209
Serra de Santo António,PAN,3.3,7,140209
Serra de Santo António,L,1.89,4,140209
Serra de Santo António,PCP-PEV,1.89,4,140209
Serra de Santo António,PDR,1.42,3,140209
Serra de Santo António,PPM.PPV/CDC,0.94,2,140209
Serra de Santo António,NC,0.47,1,140209
Serra de Santo António,A,0,0,140209
Serra de Santo António,IL,0,0,140209
Serra de Santo António,MAS,0,0,140209
Serra de Santo António,PCTP/MRPP,0,0,140209
Serra de Santo António,PNR,0,0,140209
Serra de Santo António,PTP,0,0,140209
Serra de Santo António,PURP,0,0,140209
