freguesia,acronym,validVotesPercentage,votes,dicofre
Soalhães,PS,63.62,474,130722
Soalhães,PPD/PSD,17.85,133,130722
Soalhães,B.E.,6.98,52,130722
Soalhães,CDS-PP,3.36,25,130722
Soalhães,PAN,2.15,16,130722
Soalhães,PCP-PEV,1.48,11,130722
Soalhães,PCTP/MRPP,1.07,8,130722
Soalhães,A,0.94,7,130722
Soalhães,L,0.67,5,130722
Soalhães,PDR,0.54,4,130722
Soalhães,NC,0.4,3,130722
Soalhães,PURP,0.4,3,130722
Soalhães,PPM.PPV/CDC,0.27,2,130722
Soalhães,MAS,0.13,1,130722
Soalhães,PTP,0.13,1,130722
Soalhães,IL,0,0,130722
Soalhães,PNR,0,0,130722
