freguesia,acronym,validVotesPercentage,votes,dicofre
São Roque,PS,43.2,664,011318
São Roque,PPD/PSD,30.25,465,011318
São Roque,B.E.,10.54,162,011318
São Roque,CDS-PP,5.4,83,011318
São Roque,PAN,3.38,52,011318
São Roque,PCP-PEV,1.63,25,011318
São Roque,L,1.11,17,011318
São Roque,NC,0.98,15,011318
São Roque,PPM.PPV/CDC,0.85,13,011318
São Roque,A,0.78,12,011318
São Roque,PDR,0.65,10,011318
São Roque,PCTP/MRPP,0.33,5,011318
São Roque,PTP,0.33,5,011318
São Roque,IL,0.26,4,011318
São Roque,PNR,0.13,2,011318
São Roque,PURP,0.13,2,011318
São Roque,MAS,0.07,1,011318
