freguesia,acronym,validVotesPercentage,votes,dicofre
São Pedro de France,PPD/PSD,43.17,177,182329
São Pedro de France,PS,35.61,146,182329
São Pedro de France,CDS-PP,9.51,39,182329
São Pedro de France,B.E.,1.95,8,182329
São Pedro de France,PAN,1.95,8,182329
São Pedro de France,L,1.71,7,182329
São Pedro de France,PCP-PEV,1.46,6,182329
São Pedro de France,PPM.PPV/CDC,1.22,5,182329
São Pedro de France,A,0.73,3,182329
São Pedro de France,NC,0.73,3,182329
São Pedro de France,IL,0.49,2,182329
São Pedro de France,PNR,0.49,2,182329
São Pedro de France,PTP,0.49,2,182329
São Pedro de France,PCTP/MRPP,0.24,1,182329
São Pedro de France,PDR,0.24,1,182329
São Pedro de France,MAS,0,0,182329
São Pedro de France,PURP,0,0,182329
