freguesia,acronym,validVotesPercentage,votes,dicofre
São Cosmado,PS,31.52,52,180114
São Cosmado,PPD/PSD,29.09,48,180114
São Cosmado,CDS-PP,26.06,43,180114
São Cosmado,B.E.,3.64,6,180114
São Cosmado,PAN,1.82,3,180114
São Cosmado,PCTP/MRPP,1.82,3,180114
São Cosmado,A,1.21,2,180114
São Cosmado,PCP-PEV,1.21,2,180114
São Cosmado,PPM.PPV/CDC,1.21,2,180114
São Cosmado,PTP,1.21,2,180114
São Cosmado,NC,0.61,1,180114
São Cosmado,PDR,0.61,1,180114
São Cosmado,IL,0,0,180114
São Cosmado,L,0,0,180114
São Cosmado,MAS,0,0,180114
São Cosmado,PNR,0,0,180114
São Cosmado,PURP,0,0,180114
