freguesia,acronym,validVotesPercentage,votes,dicofre
São Brás e São Lourenço,PS,52.33,180,120707
São Brás e São Lourenço,PPD/PSD,16.57,57,120707
São Brás e São Lourenço,B.E.,9.3,32,120707
São Brás e São Lourenço,CDS-PP,6.1,21,120707
São Brás e São Lourenço,PCP-PEV,4.36,15,120707
São Brás e São Lourenço,PPM.PPV/CDC,3.2,11,120707
São Brás e São Lourenço,PAN,2.62,9,120707
São Brás e São Lourenço,PNR,1.45,5,120707
São Brás e São Lourenço,L,0.87,3,120707
São Brás e São Lourenço,PURP,0.87,3,120707
São Brás e São Lourenço,A,0.58,2,120707
São Brás e São Lourenço,PCTP/MRPP,0.58,2,120707
São Brás e São Lourenço,IL,0.29,1,120707
São Brás e São Lourenço,MAS,0.29,1,120707
São Brás e São Lourenço,NC,0.29,1,120707
São Brás e São Lourenço,PTP,0.29,1,120707
São Brás e São Lourenço,PDR,0,0,120707
