freguesia,acronym,validVotesPercentage,votes,dicofre
São Salvador,PS,45.76,27,040728
São Salvador,PPD/PSD,35.59,21,040728
São Salvador,PAN,5.08,3,040728
São Salvador,CDS-PP,3.39,2,040728
São Salvador,PCP-PEV,3.39,2,040728
São Salvador,A,1.69,1,040728
São Salvador,PPM.PPV/CDC,1.69,1,040728
São Salvador,PTP,1.69,1,040728
São Salvador,PURP,1.69,1,040728
São Salvador,B.E.,0,0,040728
São Salvador,IL,0,0,040728
São Salvador,L,0,0,040728
São Salvador,MAS,0,0,040728
São Salvador,NC,0,0,040728
São Salvador,PCTP/MRPP,0,0,040728
São Salvador,PDR,0,0,040728
São Salvador,PNR,0,0,040728
