freguesia,acronym,validVotesPercentage,votes,dicofre
São Jorge da Beira,PS,60.11,107,050318
São Jorge da Beira,PPD/PSD,20.79,37,050318
São Jorge da Beira,B.E.,7.87,14,050318
São Jorge da Beira,PCP-PEV,3.93,7,050318
São Jorge da Beira,PAN,2.81,5,050318
São Jorge da Beira,A,1.69,3,050318
São Jorge da Beira,PCTP/MRPP,1.12,2,050318
São Jorge da Beira,CDS-PP,0.56,1,050318
São Jorge da Beira,PNR,0.56,1,050318
São Jorge da Beira,PPM.PPV/CDC,0.56,1,050318
São Jorge da Beira,IL,0,0,050318
São Jorge da Beira,L,0,0,050318
São Jorge da Beira,MAS,0,0,050318
São Jorge da Beira,NC,0,0,050318
São Jorge da Beira,PDR,0,0,050318
São Jorge da Beira,PTP,0,0,050318
São Jorge da Beira,PURP,0,0,050318
