freguesia,acronym,validVotesPercentage,votes,dicofre
São Vicente de Lafões,PPD/PSD,36.24,79,181009
São Vicente de Lafões,PS,32.57,71,181009
São Vicente de Lafões,CDS-PP,8.72,19,181009
São Vicente de Lafões,NC,7.8,17,181009
São Vicente de Lafões,B.E.,5.5,12,181009
São Vicente de Lafões,PAN,4.13,9,181009
São Vicente de Lafões,A,1.38,3,181009
São Vicente de Lafões,L,1.38,3,181009
São Vicente de Lafões,PCP-PEV,0.92,2,181009
São Vicente de Lafões,PCTP/MRPP,0.92,2,181009
São Vicente de Lafões,PPM.PPV/CDC,0.46,1,181009
São Vicente de Lafões,IL,0,0,181009
São Vicente de Lafões,MAS,0,0,181009
São Vicente de Lafões,PDR,0,0,181009
São Vicente de Lafões,PNR,0,0,181009
São Vicente de Lafões,PTP,0,0,181009
São Vicente de Lafões,PURP,0,0,181009
