freguesia,acronym,validVotesPercentage,votes,dicofre
Tabuaças,PPD/PSD,47.17,100,031118
Tabuaças,PS,29.25,62,031118
Tabuaças,B.E.,5.66,12,031118
Tabuaças,CDS-PP,4.72,10,031118
Tabuaças,PAN,3.3,7,031118
Tabuaças,L,2.36,5,031118
Tabuaças,PCP-PEV,2.36,5,031118
Tabuaças,A,0.94,2,031118
Tabuaças,PPM.PPV/CDC,0.94,2,031118
Tabuaças,PURP,0.94,2,031118
Tabuaças,IL,0.47,1,031118
Tabuaças,MAS,0.47,1,031118
Tabuaças,NC,0.47,1,031118
Tabuaças,PCTP/MRPP,0.47,1,031118
Tabuaças,PNR,0.47,1,031118
Tabuaças,PDR,0,0,031118
Tabuaças,PTP,0,0,031118
