freguesia,acronym,validVotesPercentage,votes,dicofre
Telões,PS,35.38,363,130135
Telões,PPD/PSD,33.63,345,130135
Telões,B.E.,9.84,101,130135
Telões,CDS-PP,5.75,59,130135
Telões,PDR,5.07,52,130135
Telões,PCP-PEV,3.61,37,130135
Telões,PAN,1.95,20,130135
Telões,L,1.07,11,130135
Telões,PPM.PPV/CDC,0.88,9,130135
Telões,PCTP/MRPP,0.68,7,130135
Telões,NC,0.49,5,130135
Telões,PNR,0.49,5,130135
Telões,IL,0.39,4,130135
Telões,PURP,0.29,3,130135
Telões,MAS,0.19,2,130135
Telões,PTP,0.19,2,130135
Telões,A,0.1,1,130135
