freguesia,acronym,validVotesPercentage,votes,dicofre
Torreira,PPD/PSD,38.64,216,011204
Torreira,PS,22.18,124,011204
Torreira,CDS-PP,13.42,75,011204
Torreira,B.E.,8.94,50,011204
Torreira,PCP-PEV,3.94,22,011204
Torreira,PAN,3.4,19,011204
Torreira,A,1.79,10,011204
Torreira,PPM.PPV/CDC,1.79,10,011204
Torreira,L,1.25,7,011204
Torreira,NC,1.25,7,011204
Torreira,IL,0.89,5,011204
Torreira,PCTP/MRPP,0.89,5,011204
Torreira,PURP,0.54,3,011204
Torreira,MAS,0.36,2,011204
Torreira,PDR,0.36,2,011204
Torreira,PNR,0.18,1,011204
Torreira,PTP,0.18,1,011204
