freguesia,acronym,validVotesPercentage,votes,dicofre
Torrão,PS,54,331,150104
Torrão,PCP-PEV,25.61,157,150104
Torrão,PPD/PSD,4.89,30,150104
Torrão,B.E.,4.24,26,150104
Torrão,PPM.PPV/CDC,2.61,16,150104
Torrão,CDS-PP,2.28,14,150104
Torrão,PCTP/MRPP,2.28,14,150104
Torrão,PAN,1.31,8,150104
Torrão,A,0.82,5,150104
Torrão,L,0.49,3,150104
Torrão,NC,0.33,2,150104
Torrão,PNR,0.33,2,150104
Torrão,IL,0.16,1,150104
Torrão,MAS,0.16,1,150104
Torrão,PDR,0.16,1,150104
Torrão,PTP,0.16,1,150104
Torrão,PURP,0.16,1,150104
