freguesia,acronym,validVotesPercentage,votes,dicofre
Três Povos,PS,54.19,123,050432
Três Povos,PPD/PSD,23.35,53,050432
Três Povos,CDS-PP,5.29,12,050432
Três Povos,B.E.,3.52,8,050432
Três Povos,PAN,3.08,7,050432
Três Povos,PCP-PEV,2.2,5,050432
Três Povos,PPM.PPV/CDC,2.2,5,050432
Três Povos,PCTP/MRPP,1.32,3,050432
Três Povos,PTP,1.32,3,050432
Três Povos,IL,0.88,2,050432
Três Povos,NC,0.88,2,050432
Três Povos,A,0.44,1,050432
Três Povos,L,0.44,1,050432
Três Povos,MAS,0.44,1,050432
Três Povos,PURP,0.44,1,050432
Três Povos,PDR,0,0,050432
Três Povos,PNR,0,0,050432
