freguesia,acronym,validVotesPercentage,votes,dicofre
Tábua,PPD/PSD,54.13,203,310704
Tábua,PS,18.4,69,310704
Tábua,CDS-PP,6.93,26,310704
Tábua,PCP-PEV,3.47,13,310704
Tábua,PAN,3.2,12,310704
Tábua,B.E.,2.93,11,310704
Tábua,PURP,1.87,7,310704
Tábua,L,1.6,6,310704
Tábua,A,1.33,5,310704
Tábua,PTP,1.33,5,310704
Tábua,PPM.PPV/CDC,1.07,4,310704
Tábua,IL,0.8,3,310704
Tábua,MAS,0.8,3,310704
Tábua,NC,0.53,2,310704
Tábua,PCTP/MRPP,0.53,2,310704
Tábua,PDR,0.53,2,310704
Tábua,PNR,0.53,2,310704
