freguesia,acronym,validVotesPercentage,votes,dicofre
União das freguesias de Santa Cruz da Trapa e São Cristóvão de Lafões,PS,45.87,172,181621
União das freguesias de Santa Cruz da Trapa e São Cristóvão de Lafões,PPD/PSD,32,120,181621
União das freguesias de Santa Cruz da Trapa e São Cristóvão de Lafões,B.E.,9.6,36,181621
União das freguesias de Santa Cruz da Trapa e São Cristóvão de Lafões,PAN,3.47,13,181621
União das freguesias de Santa Cruz da Trapa e São Cristóvão de Lafões,CDS-PP,2.4,9,181621
União das freguesias de Santa Cruz da Trapa e São Cristóvão de Lafões,A,1.33,5,181621
União das freguesias de Santa Cruz da Trapa e São Cristóvão de Lafões,L,1.07,4,181621
União das freguesias de Santa Cruz da Trapa e São Cristóvão de Lafões,PCP-PEV,1.07,4,181621
União das freguesias de Santa Cruz da Trapa e São Cristóvão de Lafões,PURP,0.8,3,181621
União das freguesias de Santa Cruz da Trapa e São Cristóvão de Lafões,PCTP/MRPP,0.53,2,181621
União das freguesias de Santa Cruz da Trapa e São Cristóvão de Lafões,PPM.PPV/CDC,0.53,2,181621
União das freguesias de Santa Cruz da Trapa e São Cristóvão de Lafões,IL,0.27,1,181621
União das freguesias de Santa Cruz da Trapa e São Cristóvão de Lafões,MAS,0.27,1,181621
União das freguesias de Santa Cruz da Trapa e São Cristóvão de Lafões,NC,0.27,1,181621
União das freguesias de Santa Cruz da Trapa e São Cristóvão de Lafões,PNR,0.27,1,181621
União das freguesias de Santa Cruz da Trapa e São Cristóvão de Lafões,PTP,0.27,1,181621
União das freguesias de Santa Cruz da Trapa e São Cristóvão de Lafões,PDR,0,0,181621
