freguesia,acronym,validVotesPercentage,votes,dicofre
"União das freguesias de Leitões, Oleiros e Figueiredo",PS,32.14,198,030883
"União das freguesias de Leitões, Oleiros e Figueiredo",PPD/PSD,29.38,181,030883
"União das freguesias de Leitões, Oleiros e Figueiredo",CDS-PP,20.94,129,030883
"União das freguesias de Leitões, Oleiros e Figueiredo",B.E.,5.84,36,030883
"União das freguesias de Leitões, Oleiros e Figueiredo",PAN,3.41,21,030883
"União das freguesias de Leitões, Oleiros e Figueiredo",PCP-PEV,2.44,15,030883
"União das freguesias de Leitões, Oleiros e Figueiredo",PCTP/MRPP,1.3,8,030883
"União das freguesias de Leitões, Oleiros e Figueiredo",PPM.PPV/CDC,1.3,8,030883
"União das freguesias de Leitões, Oleiros e Figueiredo",L,0.97,6,030883
"União das freguesias de Leitões, Oleiros e Figueiredo",MAS,0.65,4,030883
"União das freguesias de Leitões, Oleiros e Figueiredo",A,0.49,3,030883
"União das freguesias de Leitões, Oleiros e Figueiredo",PNR,0.49,3,030883
"União das freguesias de Leitões, Oleiros e Figueiredo",PTP,0.32,2,030883
"União das freguesias de Leitões, Oleiros e Figueiredo",IL,0.16,1,030883
"União das freguesias de Leitões, Oleiros e Figueiredo",PDR,0.16,1,030883
"União das freguesias de Leitões, Oleiros e Figueiredo",NC,0,0,030883
"União das freguesias de Leitões, Oleiros e Figueiredo",PURP,0,0,030883
