freguesia,acronym,validVotesPercentage,votes,dicofre
"União das freguesias de Algodres, Vale de Afonsinho e Vilar de Amargo",PPD/PSD,45.56,77,090418
"União das freguesias de Algodres, Vale de Afonsinho e Vilar de Amargo",PS,28.99,49,090418
"União das freguesias de Algodres, Vale de Afonsinho e Vilar de Amargo",CDS-PP,8.28,14,090418
"União das freguesias de Algodres, Vale de Afonsinho e Vilar de Amargo",B.E.,4.73,8,090418
"União das freguesias de Algodres, Vale de Afonsinho e Vilar de Amargo",PCP-PEV,2.37,4,090418
"União das freguesias de Algodres, Vale de Afonsinho e Vilar de Amargo",PCTP/MRPP,1.78,3,090418
"União das freguesias de Algodres, Vale de Afonsinho e Vilar de Amargo",PDR,1.78,3,090418
"União das freguesias de Algodres, Vale de Afonsinho e Vilar de Amargo",PAN,1.18,2,090418
"União das freguesias de Algodres, Vale de Afonsinho e Vilar de Amargo",PTP,1.18,2,090418
"União das freguesias de Algodres, Vale de Afonsinho e Vilar de Amargo",A,0.59,1,090418
"União das freguesias de Algodres, Vale de Afonsinho e Vilar de Amargo",L,0.59,1,090418
"União das freguesias de Algodres, Vale de Afonsinho e Vilar de Amargo",MAS,0.59,1,090418
"União das freguesias de Algodres, Vale de Afonsinho e Vilar de Amargo",NC,0.59,1,090418
"União das freguesias de Algodres, Vale de Afonsinho e Vilar de Amargo",PNR,0.59,1,090418
"União das freguesias de Algodres, Vale de Afonsinho e Vilar de Amargo",PPM.PPV/CDC,0.59,1,090418
"União das freguesias de Algodres, Vale de Afonsinho e Vilar de Amargo",PURP,0.59,1,090418
"União das freguesias de Algodres, Vale de Afonsinho e Vilar de Amargo",IL,0,0,090418
