freguesia,acronym,validVotesPercentage,votes,dicofre
União das freguesias de Viade de Baixo e Fervidelas,PS,51.27,121,170642
União das freguesias de Viade de Baixo e Fervidelas,PPD/PSD,34.75,82,170642
União das freguesias de Viade de Baixo e Fervidelas,B.E.,5.93,14,170642
União das freguesias de Viade de Baixo e Fervidelas,CDS-PP,2.12,5,170642
União das freguesias de Viade de Baixo e Fervidelas,NC,1.27,3,170642
União das freguesias de Viade de Baixo e Fervidelas,PAN,1.27,3,170642
União das freguesias de Viade de Baixo e Fervidelas,A,0.85,2,170642
União das freguesias de Viade de Baixo e Fervidelas,L,0.42,1,170642
União das freguesias de Viade de Baixo e Fervidelas,PCP-PEV,0.42,1,170642
União das freguesias de Viade de Baixo e Fervidelas,PCTP/MRPP,0.42,1,170642
União das freguesias de Viade de Baixo e Fervidelas,PNR,0.42,1,170642
União das freguesias de Viade de Baixo e Fervidelas,PPM.PPV/CDC,0.42,1,170642
União das freguesias de Viade de Baixo e Fervidelas,PTP,0.42,1,170642
União das freguesias de Viade de Baixo e Fervidelas,IL,0,0,170642
União das freguesias de Viade de Baixo e Fervidelas,MAS,0,0,170642
União das freguesias de Viade de Baixo e Fervidelas,PDR,0,0,170642
União das freguesias de Viade de Baixo e Fervidelas,PURP,0,0,170642
