freguesia,acronym,validVotesPercentage,votes,dicofre
União das freguesias de Monte Real e Carvide,PS,35.64,571,100935
União das freguesias de Monte Real e Carvide,PPD/PSD,25.47,408,100935
União das freguesias de Monte Real e Carvide,B.E.,12.23,196,100935
União das freguesias de Monte Real e Carvide,CDS-PP,6.99,112,100935
União das freguesias de Monte Real e Carvide,PAN,4.81,77,100935
União das freguesias de Monte Real e Carvide,PCP-PEV,3.68,59,100935
União das freguesias de Monte Real e Carvide,A,2.37,38,100935
União das freguesias de Monte Real e Carvide,L,1.87,30,100935
União das freguesias de Monte Real e Carvide,PPM.PPV/CDC,1.56,25,100935
União das freguesias de Monte Real e Carvide,NC,1.31,21,100935
União das freguesias de Monte Real e Carvide,PDR,0.94,15,100935
União das freguesias de Monte Real e Carvide,IL,0.87,14,100935
União das freguesias de Monte Real e Carvide,PURP,0.75,12,100935
União das freguesias de Monte Real e Carvide,PCTP/MRPP,0.62,10,100935
União das freguesias de Monte Real e Carvide,PNR,0.62,10,100935
União das freguesias de Monte Real e Carvide,MAS,0.12,2,100935
União das freguesias de Monte Real e Carvide,PTP,0.12,2,100935
