freguesia,acronym,validVotesPercentage,votes,dicofre
"União das freguesias de Cepões, Meijinhos e Melcões",PPD/PSD,41.88,160,180527
"União das freguesias de Cepões, Meijinhos e Melcões",PS,31.41,120,180527
"União das freguesias de Cepões, Meijinhos e Melcões",B.E.,6.28,24,180527
"União das freguesias de Cepões, Meijinhos e Melcões",CDS-PP,6.28,24,180527
"União das freguesias de Cepões, Meijinhos e Melcões",PAN,2.88,11,180527
"União das freguesias de Cepões, Meijinhos e Melcões",PCP-PEV,2.88,11,180527
"União das freguesias de Cepões, Meijinhos e Melcões",PDR,2.09,8,180527
"União das freguesias de Cepões, Meijinhos e Melcões",A,1.05,4,180527
"União das freguesias de Cepões, Meijinhos e Melcões",PPM.PPV/CDC,1.05,4,180527
"União das freguesias de Cepões, Meijinhos e Melcões",NC,0.79,3,180527
"União das freguesias de Cepões, Meijinhos e Melcões",PTP,0.79,3,180527
"União das freguesias de Cepões, Meijinhos e Melcões",IL,0.52,2,180527
"União das freguesias de Cepões, Meijinhos e Melcões",L,0.52,2,180527
"União das freguesias de Cepões, Meijinhos e Melcões",MAS,0.52,2,180527
"União das freguesias de Cepões, Meijinhos e Melcões",PURP,0.52,2,180527
"União das freguesias de Cepões, Meijinhos e Melcões",PCTP/MRPP,0.26,1,180527
"União das freguesias de Cepões, Meijinhos e Melcões",PNR,0.26,1,180527
