freguesia,acronym,validVotesPercentage,votes,dicofre
"União das freguesias de Mortágua, Vale de Remígio, Cortegaça e Almaça",PS,43.11,444,180811
"União das freguesias de Mortágua, Vale de Remígio, Cortegaça e Almaça",PPD/PSD,26.99,278,180811
"União das freguesias de Mortágua, Vale de Remígio, Cortegaça e Almaça",B.E.,12.52,129,180811
"União das freguesias de Mortágua, Vale de Remígio, Cortegaça e Almaça",CDS-PP,3.88,40,180811
"União das freguesias de Mortágua, Vale de Remígio, Cortegaça e Almaça",PCP-PEV,3.3,34,180811
"União das freguesias de Mortágua, Vale de Remígio, Cortegaça e Almaça",PAN,2.82,29,180811
"União das freguesias de Mortágua, Vale de Remígio, Cortegaça e Almaça",PPM.PPV/CDC,1.84,19,180811
"União das freguesias de Mortágua, Vale de Remígio, Cortegaça e Almaça",A,1.55,16,180811
"União das freguesias de Mortágua, Vale de Remígio, Cortegaça e Almaça",IL,0.78,8,180811
"União das freguesias de Mortágua, Vale de Remígio, Cortegaça e Almaça",NC,0.68,7,180811
"União das freguesias de Mortágua, Vale de Remígio, Cortegaça e Almaça",L,0.58,6,180811
"União das freguesias de Mortágua, Vale de Remígio, Cortegaça e Almaça",PCTP/MRPP,0.58,6,180811
"União das freguesias de Mortágua, Vale de Remígio, Cortegaça e Almaça",PDR,0.58,6,180811
"União das freguesias de Mortágua, Vale de Remígio, Cortegaça e Almaça",PTP,0.29,3,180811
"União das freguesias de Mortágua, Vale de Remígio, Cortegaça e Almaça",PNR,0.19,2,180811
"União das freguesias de Mortágua, Vale de Remígio, Cortegaça e Almaça",PURP,0.19,2,180811
"União das freguesias de Mortágua, Vale de Remígio, Cortegaça e Almaça",MAS,0.1,1,180811
