freguesia,acronym,validVotesPercentage,votes,dicofre
União das freguesias do Colmeal e Vilar Torpim,PPD/PSD,38.57,27,090422
União das freguesias do Colmeal e Vilar Torpim,PS,38.57,27,090422
União das freguesias do Colmeal e Vilar Torpim,B.E.,5.71,4,090422
União das freguesias do Colmeal e Vilar Torpim,PAN,5.71,4,090422
União das freguesias do Colmeal e Vilar Torpim,PPM.PPV/CDC,4.29,3,090422
União das freguesias do Colmeal e Vilar Torpim,PCP-PEV,2.86,2,090422
União das freguesias do Colmeal e Vilar Torpim,NC,1.43,1,090422
União das freguesias do Colmeal e Vilar Torpim,PTP,1.43,1,090422
União das freguesias do Colmeal e Vilar Torpim,PURP,1.43,1,090422
União das freguesias do Colmeal e Vilar Torpim,A,0,0,090422
União das freguesias do Colmeal e Vilar Torpim,CDS-PP,0,0,090422
União das freguesias do Colmeal e Vilar Torpim,IL,0,0,090422
União das freguesias do Colmeal e Vilar Torpim,L,0,0,090422
União das freguesias do Colmeal e Vilar Torpim,MAS,0,0,090422
União das freguesias do Colmeal e Vilar Torpim,PCTP/MRPP,0,0,090422
União das freguesias do Colmeal e Vilar Torpim,PDR,0,0,090422
União das freguesias do Colmeal e Vilar Torpim,PNR,0,0,090422
