freguesia,acronym,validVotesPercentage,votes,dicofre
União das freguesias de Almofala e Escarigo,PPD/PSD,41.76,38,090419
União das freguesias de Almofala e Escarigo,PS,30.77,28,090419
União das freguesias de Almofala e Escarigo,B.E.,7.69,7,090419
União das freguesias de Almofala e Escarigo,CDS-PP,5.49,5,090419
União das freguesias de Almofala e Escarigo,PAN,3.3,3,090419
União das freguesias de Almofala e Escarigo,PCTP/MRPP,3.3,3,090419
União das freguesias de Almofala e Escarigo,A,2.2,2,090419
União das freguesias de Almofala e Escarigo,NC,2.2,2,090419
União das freguesias de Almofala e Escarigo,IL,1.1,1,090419
União das freguesias de Almofala e Escarigo,PCP-PEV,1.1,1,090419
União das freguesias de Almofala e Escarigo,PURP,1.1,1,090419
União das freguesias de Almofala e Escarigo,L,0,0,090419
União das freguesias de Almofala e Escarigo,MAS,0,0,090419
União das freguesias de Almofala e Escarigo,PDR,0,0,090419
União das freguesias de Almofala e Escarigo,PNR,0,0,090419
União das freguesias de Almofala e Escarigo,PPM.PPV/CDC,0,0,090419
União das freguesias de Almofala e Escarigo,PTP,0,0,090419
