freguesia,acronym,validVotesPercentage,votes,dicofre
"União das freguesias de Cambeses do Rio, Donões e Mourilhe",PS,53.08,69,170636
"União das freguesias de Cambeses do Rio, Donões e Mourilhe",PPD/PSD,28.46,37,170636
"União das freguesias de Cambeses do Rio, Donões e Mourilhe",B.E.,5.38,7,170636
"União das freguesias de Cambeses do Rio, Donões e Mourilhe",PAN,3.08,4,170636
"União das freguesias de Cambeses do Rio, Donões e Mourilhe",CDS-PP,2.31,3,170636
"União das freguesias de Cambeses do Rio, Donões e Mourilhe",A,1.54,2,170636
"União das freguesias de Cambeses do Rio, Donões e Mourilhe",NC,0.77,1,170636
"União das freguesias de Cambeses do Rio, Donões e Mourilhe",PCP-PEV,0.77,1,170636
"União das freguesias de Cambeses do Rio, Donões e Mourilhe",PCTP/MRPP,0.77,1,170636
"União das freguesias de Cambeses do Rio, Donões e Mourilhe",PDR,0.77,1,170636
"União das freguesias de Cambeses do Rio, Donões e Mourilhe",PNR,0.77,1,170636
"União das freguesias de Cambeses do Rio, Donões e Mourilhe",PPM.PPV/CDC,0.77,1,170636
"União das freguesias de Cambeses do Rio, Donões e Mourilhe",PTP,0.77,1,170636
"União das freguesias de Cambeses do Rio, Donões e Mourilhe",PURP,0.77,1,170636
"União das freguesias de Cambeses do Rio, Donões e Mourilhe",IL,0,0,170636
"União das freguesias de Cambeses do Rio, Donões e Mourilhe",L,0,0,170636
"União das freguesias de Cambeses do Rio, Donões e Mourilhe",MAS,0,0,170636
