freguesia,acronym,validVotesPercentage,votes,dicofre
União das freguesias de Azueira e Sobral da Abelheira,PS,44.55,584,110918
União das freguesias de Azueira e Sobral da Abelheira,PPD/PSD,23.57,309,110918
União das freguesias de Azueira e Sobral da Abelheira,B.E.,7.09,93,110918
União das freguesias de Azueira e Sobral da Abelheira,PAN,6.03,79,110918
União das freguesias de Azueira e Sobral da Abelheira,CDS-PP,5.42,71,110918
União das freguesias de Azueira e Sobral da Abelheira,PCP-PEV,4.58,60,110918
União das freguesias de Azueira e Sobral da Abelheira,A,1.68,22,110918
União das freguesias de Azueira e Sobral da Abelheira,L,1.6,21,110918
União das freguesias de Azueira e Sobral da Abelheira,PPM.PPV/CDC,1.3,17,110918
União das freguesias de Azueira e Sobral da Abelheira,IL,0.84,11,110918
União das freguesias de Azueira e Sobral da Abelheira,NC,0.53,7,110918
União das freguesias de Azueira e Sobral da Abelheira,PCTP/MRPP,0.53,7,110918
União das freguesias de Azueira e Sobral da Abelheira,PNR,0.53,7,110918
União das freguesias de Azueira e Sobral da Abelheira,PTP,0.53,7,110918
União das freguesias de Azueira e Sobral da Abelheira,PURP,0.53,7,110918
União das freguesias de Azueira e Sobral da Abelheira,MAS,0.38,5,110918
União das freguesias de Azueira e Sobral da Abelheira,PDR,0.31,4,110918
