freguesia,acronym,validVotesPercentage,votes,dicofre
União das freguesias de Barco e Coutada,PS,54.64,159,050332
União das freguesias de Barco e Coutada,PPD/PSD,19.59,57,050332
União das freguesias de Barco e Coutada,B.E.,10.31,30,050332
União das freguesias de Barco e Coutada,CDS-PP,3.44,10,050332
União das freguesias de Barco e Coutada,PAN,2.06,6,050332
União das freguesias de Barco e Coutada,PCP-PEV,2.06,6,050332
União das freguesias de Barco e Coutada,NC,1.37,4,050332
União das freguesias de Barco e Coutada,PPM.PPV/CDC,1.37,4,050332
União das freguesias de Barco e Coutada,A,1.03,3,050332
União das freguesias de Barco e Coutada,IL,1.03,3,050332
União das freguesias de Barco e Coutada,MAS,0.69,2,050332
União das freguesias de Barco e Coutada,PCTP/MRPP,0.69,2,050332
União das freguesias de Barco e Coutada,PURP,0.69,2,050332
União das freguesias de Barco e Coutada,L,0.34,1,050332
União das freguesias de Barco e Coutada,PDR,0.34,1,050332
União das freguesias de Barco e Coutada,PNR,0.34,1,050332
União das freguesias de Barco e Coutada,PTP,0,0,050332
