freguesia,acronym,validVotesPercentage,votes,dicofre
União das freguesias de Parada e Faílde,PS,40.29,83,040253
União das freguesias de Parada e Faílde,PPD/PSD,39.81,82,040253
União das freguesias de Parada e Faílde,B.E.,5.83,12,040253
União das freguesias de Parada e Faílde,CDS-PP,4.85,10,040253
União das freguesias de Parada e Faílde,NC,1.94,4,040253
União das freguesias de Parada e Faílde,PCP-PEV,1.46,3,040253
União das freguesias de Parada e Faílde,PURP,1.46,3,040253
União das freguesias de Parada e Faílde,A,0.97,2,040253
União das freguesias de Parada e Faílde,PAN,0.97,2,040253
União das freguesias de Parada e Faílde,PCTP/MRPP,0.97,2,040253
União das freguesias de Parada e Faílde,L,0.49,1,040253
União das freguesias de Parada e Faílde,MAS,0.49,1,040253
União das freguesias de Parada e Faílde,PPM.PPV/CDC,0.49,1,040253
União das freguesias de Parada e Faílde,IL,0,0,040253
União das freguesias de Parada e Faílde,PDR,0,0,040253
União das freguesias de Parada e Faílde,PNR,0,0,040253
União das freguesias de Parada e Faílde,PTP,0,0,040253
