freguesia,acronym,validVotesPercentage,votes,dicofre
União das freguesias do São Miguel de Souto e Mosteirô,PS,48.15,883,010936
União das freguesias do São Miguel de Souto e Mosteirô,PPD/PSD,22.85,419,010936
União das freguesias do São Miguel de Souto e Mosteirô,B.E.,10.25,188,010936
União das freguesias do São Miguel de Souto e Mosteirô,CDS-PP,6.82,125,010936
União das freguesias do São Miguel de Souto e Mosteirô,PAN,3.87,71,010936
União das freguesias do São Miguel de Souto e Mosteirô,PCP-PEV,1.31,24,010936
União das freguesias do São Miguel de Souto e Mosteirô,PPM.PPV/CDC,1.15,21,010936
União das freguesias do São Miguel de Souto e Mosteirô,A,1.09,20,010936
União das freguesias do São Miguel de Souto e Mosteirô,L,1.04,19,010936
União das freguesias do São Miguel de Souto e Mosteirô,NC,0.82,15,010936
União das freguesias do São Miguel de Souto e Mosteirô,IL,0.76,14,010936
União das freguesias do São Miguel de Souto e Mosteirô,PCTP/MRPP,0.38,7,010936
União das freguesias do São Miguel de Souto e Mosteirô,PDR,0.38,7,010936
União das freguesias do São Miguel de Souto e Mosteirô,PURP,0.38,7,010936
União das freguesias do São Miguel de Souto e Mosteirô,PNR,0.33,6,010936
União das freguesias do São Miguel de Souto e Mosteirô,MAS,0.27,5,010936
União das freguesias do São Miguel de Souto e Mosteirô,PTP,0.16,3,010936
