freguesia,acronym,validVotesPercentage,votes,dicofre
"União das freguesias de Sago, Lordelo e Parada",PPD/PSD,54.61,83,160439
"União das freguesias de Sago, Lordelo e Parada",PS,15.79,24,160439
"União das freguesias de Sago, Lordelo e Parada",CDS-PP,11.84,18,160439
"União das freguesias de Sago, Lordelo e Parada",B.E.,5.92,9,160439
"União das freguesias de Sago, Lordelo e Parada",PDR,3.95,6,160439
"União das freguesias de Sago, Lordelo e Parada",IL,1.97,3,160439
"União das freguesias de Sago, Lordelo e Parada",A,1.32,2,160439
"União das freguesias de Sago, Lordelo e Parada",L,1.32,2,160439
"União das freguesias de Sago, Lordelo e Parada",PAN,0.66,1,160439
"União das freguesias de Sago, Lordelo e Parada",PCP-PEV,0.66,1,160439
"União das freguesias de Sago, Lordelo e Parada",PPM.PPV/CDC,0.66,1,160439
"União das freguesias de Sago, Lordelo e Parada",PTP,0.66,1,160439
"União das freguesias de Sago, Lordelo e Parada",PURP,0.66,1,160439
"União das freguesias de Sago, Lordelo e Parada",MAS,0,0,160439
"União das freguesias de Sago, Lordelo e Parada",NC,0,0,160439
"União das freguesias de Sago, Lordelo e Parada",PCTP/MRPP,0,0,160439
"União das freguesias de Sago, Lordelo e Parada",PNR,0,0,160439
