freguesia,acronym,validVotesPercentage,votes,dicofre
"União das freguesias de Areias, Sequeiró, Lama e Palmeira",PS,47.49,1042,131433
"União das freguesias de Areias, Sequeiró, Lama e Palmeira",PPD/PSD,25.84,567,131433
"União das freguesias de Areias, Sequeiró, Lama e Palmeira",CDS-PP,7.84,172,131433
"União das freguesias de Areias, Sequeiró, Lama e Palmeira",B.E.,6.88,151,131433
"União das freguesias de Areias, Sequeiró, Lama e Palmeira",PAN,3.69,81,131433
"União das freguesias de Areias, Sequeiró, Lama e Palmeira",PCP-PEV,2.55,56,131433
"União das freguesias de Areias, Sequeiró, Lama e Palmeira",A,1,22,131433
"União das freguesias de Areias, Sequeiró, Lama e Palmeira",L,1,22,131433
"União das freguesias de Areias, Sequeiró, Lama e Palmeira",NC,0.64,14,131433
"União das freguesias de Areias, Sequeiró, Lama e Palmeira",PPM.PPV/CDC,0.64,14,131433
"União das freguesias de Areias, Sequeiró, Lama e Palmeira",IL,0.5,11,131433
"União das freguesias de Areias, Sequeiró, Lama e Palmeira",PCTP/MRPP,0.5,11,131433
"União das freguesias de Areias, Sequeiró, Lama e Palmeira",PDR,0.5,11,131433
"União das freguesias de Areias, Sequeiró, Lama e Palmeira",PNR,0.41,9,131433
"União das freguesias de Areias, Sequeiró, Lama e Palmeira",PTP,0.32,7,131433
"União das freguesias de Areias, Sequeiró, Lama e Palmeira",PURP,0.18,4,131433
"União das freguesias de Areias, Sequeiró, Lama e Palmeira",MAS,0,0,131433
