freguesia,acronym,validVotesPercentage,votes,dicofre
União das freguesias do Cadaval e Pêro Moniz,PS,37.33,321,110411
União das freguesias do Cadaval e Pêro Moniz,PPD/PSD,27.56,237,110411
União das freguesias do Cadaval e Pêro Moniz,B.E.,8.95,77,110411
União das freguesias do Cadaval e Pêro Moniz,CDS-PP,5.81,50,110411
União das freguesias do Cadaval e Pêro Moniz,PCP-PEV,5.12,44,110411
União das freguesias do Cadaval e Pêro Moniz,PAN,4.07,35,110411
União das freguesias do Cadaval e Pêro Moniz,PPM.PPV/CDC,3.02,26,110411
União das freguesias do Cadaval e Pêro Moniz,A,2.21,19,110411
União das freguesias do Cadaval e Pêro Moniz,PCTP/MRPP,1.4,12,110411
União das freguesias do Cadaval e Pêro Moniz,L,1.28,11,110411
União das freguesias do Cadaval e Pêro Moniz,NC,1.16,10,110411
União das freguesias do Cadaval e Pêro Moniz,PNR,0.58,5,110411
União das freguesias do Cadaval e Pêro Moniz,MAS,0.47,4,110411
União das freguesias do Cadaval e Pêro Moniz,PDR,0.47,4,110411
União das freguesias do Cadaval e Pêro Moniz,PURP,0.35,3,110411
União das freguesias do Cadaval e Pêro Moniz,IL,0.23,2,110411
União das freguesias do Cadaval e Pêro Moniz,PTP,0,0,110411
