freguesia,acronym,validVotesPercentage,votes,dicofre
"União das freguesias de Santa Maria da Feira, Travanca, Sanfins e Espargo",PS,33.52,1848,010935
"União das freguesias de Santa Maria da Feira, Travanca, Sanfins e Espargo",PPD/PSD,29.86,1646,010935
"União das freguesias de Santa Maria da Feira, Travanca, Sanfins e Espargo",B.E.,10.77,594,010935
"União das freguesias de Santa Maria da Feira, Travanca, Sanfins e Espargo",CDS-PP,6.29,347,010935
"União das freguesias de Santa Maria da Feira, Travanca, Sanfins e Espargo",PAN,5.91,326,010935
"União das freguesias de Santa Maria da Feira, Travanca, Sanfins e Espargo",PCP-PEV,3.41,188,010935
"União das freguesias de Santa Maria da Feira, Travanca, Sanfins e Espargo",L,1.8,99,010935
"União das freguesias de Santa Maria da Feira, Travanca, Sanfins e Espargo",A,1.74,96,010935
"União das freguesias de Santa Maria da Feira, Travanca, Sanfins e Espargo",NC,1.69,93,010935
"União das freguesias de Santa Maria da Feira, Travanca, Sanfins e Espargo",IL,1.47,81,010935
"União das freguesias de Santa Maria da Feira, Travanca, Sanfins e Espargo",PPM.PPV/CDC,1.05,58,010935
"União das freguesias de Santa Maria da Feira, Travanca, Sanfins e Espargo",PDR,0.8,44,010935
"União das freguesias de Santa Maria da Feira, Travanca, Sanfins e Espargo",PCTP/MRPP,0.54,30,010935
"União das freguesias de Santa Maria da Feira, Travanca, Sanfins e Espargo",PNR,0.42,23,010935
"União das freguesias de Santa Maria da Feira, Travanca, Sanfins e Espargo",PURP,0.29,16,010935
"União das freguesias de Santa Maria da Feira, Travanca, Sanfins e Espargo",MAS,0.22,12,010935
"União das freguesias de Santa Maria da Feira, Travanca, Sanfins e Espargo",PTP,0.22,12,010935
