freguesia,acronym,validVotesPercentage,votes,dicofre
"União das freguesias de Messegães, Valadares e Sá",PS,50,81,160437
"União das freguesias de Messegães, Valadares e Sá",PPD/PSD,27.78,45,160437
"União das freguesias de Messegães, Valadares e Sá",B.E.,9.26,15,160437
"União das freguesias de Messegães, Valadares e Sá",CDS-PP,3.09,5,160437
"União das freguesias de Messegães, Valadares e Sá",L,2.47,4,160437
"União das freguesias de Messegães, Valadares e Sá",PCP-PEV,1.85,3,160437
"União das freguesias de Messegães, Valadares e Sá",IL,1.23,2,160437
"União das freguesias de Messegães, Valadares e Sá",PCTP/MRPP,1.23,2,160437
"União das freguesias de Messegães, Valadares e Sá",PDR,1.23,2,160437
"União das freguesias de Messegães, Valadares e Sá",PAN,0.62,1,160437
"União das freguesias de Messegães, Valadares e Sá",PPM.PPV/CDC,0.62,1,160437
"União das freguesias de Messegães, Valadares e Sá",PTP,0.62,1,160437
"União das freguesias de Messegães, Valadares e Sá",A,0,0,160437
"União das freguesias de Messegães, Valadares e Sá",MAS,0,0,160437
"União das freguesias de Messegães, Valadares e Sá",NC,0,0,160437
"União das freguesias de Messegães, Valadares e Sá",PNR,0,0,160437
"União das freguesias de Messegães, Valadares e Sá",PURP,0,0,160437
