freguesia,acronym,validVotesPercentage,votes,dicofre
União das freguesias de Celorico (São Pedro e Santa Maria) e Vila Boa do Mondego,PPD/PSD,38.97,219,090324
União das freguesias de Celorico (São Pedro e Santa Maria) e Vila Boa do Mondego,PS,32.74,184,090324
União das freguesias de Celorico (São Pedro e Santa Maria) e Vila Boa do Mondego,B.E.,9.96,56,090324
União das freguesias de Celorico (São Pedro e Santa Maria) e Vila Boa do Mondego,CDS-PP,6.41,36,090324
União das freguesias de Celorico (São Pedro e Santa Maria) e Vila Boa do Mondego,PCP-PEV,3.74,21,090324
União das freguesias de Celorico (São Pedro e Santa Maria) e Vila Boa do Mondego,A,1.96,11,090324
União das freguesias de Celorico (São Pedro e Santa Maria) e Vila Boa do Mondego,PPM.PPV/CDC,1.6,9,090324
União das freguesias de Celorico (São Pedro e Santa Maria) e Vila Boa do Mondego,PAN,1.42,8,090324
União das freguesias de Celorico (São Pedro e Santa Maria) e Vila Boa do Mondego,L,0.89,5,090324
União das freguesias de Celorico (São Pedro e Santa Maria) e Vila Boa do Mondego,PCTP/MRPP,0.89,5,090324
União das freguesias de Celorico (São Pedro e Santa Maria) e Vila Boa do Mondego,IL,0.53,3,090324
União das freguesias de Celorico (São Pedro e Santa Maria) e Vila Boa do Mondego,NC,0.53,3,090324
União das freguesias de Celorico (São Pedro e Santa Maria) e Vila Boa do Mondego,PTP,0.18,1,090324
União das freguesias de Celorico (São Pedro e Santa Maria) e Vila Boa do Mondego,PURP,0.18,1,090324
União das freguesias de Celorico (São Pedro e Santa Maria) e Vila Boa do Mondego,MAS,0,0,090324
União das freguesias de Celorico (São Pedro e Santa Maria) e Vila Boa do Mondego,PDR,0,0,090324
União das freguesias de Celorico (São Pedro e Santa Maria) e Vila Boa do Mondego,PNR,0,0,090324
