freguesia,acronym,validVotesPercentage,votes,dicofre
União das freguesias de Romeira e Várzea,PS,43.43,327,141632
União das freguesias de Romeira e Várzea,PPD/PSD,22.18,167,141632
União das freguesias de Romeira e Várzea,B.E.,10.49,79,141632
União das freguesias de Romeira e Várzea,CDS-PP,4.78,36,141632
União das freguesias de Romeira e Várzea,PCP-PEV,3.85,29,141632
União das freguesias de Romeira e Várzea,PAN,3.72,28,141632
União das freguesias de Romeira e Várzea,L,2.92,22,141632
União das freguesias de Romeira e Várzea,PPM.PPV/CDC,2.52,19,141632
União das freguesias de Romeira e Várzea,A,2.26,17,141632
União das freguesias de Romeira e Várzea,IL,0.66,5,141632
União das freguesias de Romeira e Várzea,NC,0.66,5,141632
União das freguesias de Romeira e Várzea,PCTP/MRPP,0.66,5,141632
União das freguesias de Romeira e Várzea,MAS,0.53,4,141632
União das freguesias de Romeira e Várzea,PNR,0.53,4,141632
União das freguesias de Romeira e Várzea,PDR,0.27,2,141632
União das freguesias de Romeira e Várzea,PTP,0.27,2,141632
União das freguesias de Romeira e Várzea,PURP,0.27,2,141632
