freguesia,acronym,validVotesPercentage,votes,dicofre
União das freguesias de Gavião e Atalaia,PS,57.49,334,120906
União das freguesias de Gavião e Atalaia,PPD/PSD,11.7,68,120906
União das freguesias de Gavião e Atalaia,B.E.,6.88,40,120906
União das freguesias de Gavião e Atalaia,PCP-PEV,5.85,34,120906
União das freguesias de Gavião e Atalaia,CDS-PP,4.3,25,120906
União das freguesias de Gavião e Atalaia,PPM.PPV/CDC,3.61,21,120906
União das freguesias de Gavião e Atalaia,PAN,3.44,20,120906
União das freguesias de Gavião e Atalaia,PCTP/MRPP,1.89,11,120906
União das freguesias de Gavião e Atalaia,L,1.38,8,120906
União das freguesias de Gavião e Atalaia,A,0.86,5,120906
União das freguesias de Gavião e Atalaia,IL,0.52,3,120906
União das freguesias de Gavião e Atalaia,MAS,0.52,3,120906
União das freguesias de Gavião e Atalaia,PNR,0.52,3,120906
União das freguesias de Gavião e Atalaia,NC,0.34,2,120906
União das freguesias de Gavião e Atalaia,PTP,0.34,2,120906
União das freguesias de Gavião e Atalaia,PURP,0.34,2,120906
União das freguesias de Gavião e Atalaia,PDR,0,0,120906
