freguesia,acronym,validVotesPercentage,votes,dicofre
União das freguesias de Olaia e Paço,PS,40.97,311,141919
União das freguesias de Olaia e Paço,B.E.,14.49,110,141919
União das freguesias de Olaia e Paço,PPD/PSD,13.7,104,141919
União das freguesias de Olaia e Paço,PCP-PEV,11.07,84,141919
União das freguesias de Olaia e Paço,PAN,5.8,44,141919
União das freguesias de Olaia e Paço,CDS-PP,5.4,41,141919
União das freguesias de Olaia e Paço,PPM.PPV/CDC,2.11,16,141919
União das freguesias de Olaia e Paço,PCTP/MRPP,1.84,14,141919
União das freguesias de Olaia e Paço,A,1.32,10,141919
União das freguesias de Olaia e Paço,NC,0.66,5,141919
União das freguesias de Olaia e Paço,PTP,0.66,5,141919
União das freguesias de Olaia e Paço,L,0.53,4,141919
União das freguesias de Olaia e Paço,PDR,0.53,4,141919
União das freguesias de Olaia e Paço,PNR,0.4,3,141919
União das freguesias de Olaia e Paço,IL,0.26,2,141919
União das freguesias de Olaia e Paço,PURP,0.26,2,141919
União das freguesias de Olaia e Paço,MAS,0,0,141919
