freguesia,acronym,validVotesPercentage,votes,dicofre
"União das freguesias de Oliveira, São Paio e São Sebastião",PS,30.9,912,030884
"União das freguesias de Oliveira, São Paio e São Sebastião",PPD/PSD,26.87,793,030884
"União das freguesias de Oliveira, São Paio e São Sebastião",CDS-PP,10.5,310,030884
"União das freguesias de Oliveira, São Paio e São Sebastião",B.E.,10.47,309,030884
"União das freguesias de Oliveira, São Paio e São Sebastião",PCP-PEV,7.29,215,030884
"União das freguesias de Oliveira, São Paio e São Sebastião",PAN,4.2,124,030884
"União das freguesias de Oliveira, São Paio e São Sebastião",L,2.54,75,030884
"União das freguesias de Oliveira, São Paio e São Sebastião",A,2.1,62,030884
"União das freguesias de Oliveira, São Paio e São Sebastião",IL,1.49,44,030884
"União das freguesias de Oliveira, São Paio e São Sebastião",NC,0.91,27,030884
"União das freguesias de Oliveira, São Paio e São Sebastião",PCTP/MRPP,0.75,22,030884
"União das freguesias de Oliveira, São Paio e São Sebastião",PPM.PPV/CDC,0.75,22,030884
"União das freguesias de Oliveira, São Paio e São Sebastião",PDR,0.51,15,030884
"União das freguesias de Oliveira, São Paio e São Sebastião",PNR,0.24,7,030884
"União das freguesias de Oliveira, São Paio e São Sebastião",PURP,0.2,6,030884
"União das freguesias de Oliveira, São Paio e São Sebastião",MAS,0.14,4,030884
"União das freguesias de Oliveira, São Paio e São Sebastião",PTP,0.14,4,030884
