freguesia,acronym,validVotesPercentage,votes,dicofre
União das freguesias de Pensalvos e Parada de Monteiros,PS,45.76,54,171320
União das freguesias de Pensalvos e Parada de Monteiros,PPD/PSD,33.9,40,171320
União das freguesias de Pensalvos e Parada de Monteiros,CDS-PP,5.93,7,171320
União das freguesias de Pensalvos e Parada de Monteiros,B.E.,4.24,5,171320
União das freguesias de Pensalvos e Parada de Monteiros,PCP-PEV,4.24,5,171320
União das freguesias de Pensalvos e Parada de Monteiros,PAN,1.69,2,171320
União das freguesias de Pensalvos e Parada de Monteiros,MAS,0.85,1,171320
União das freguesias de Pensalvos e Parada de Monteiros,PCTP/MRPP,0.85,1,171320
União das freguesias de Pensalvos e Parada de Monteiros,PDR,0.85,1,171320
União das freguesias de Pensalvos e Parada de Monteiros,PPM.PPV/CDC,0.85,1,171320
União das freguesias de Pensalvos e Parada de Monteiros,PTP,0.85,1,171320
União das freguesias de Pensalvos e Parada de Monteiros,A,0,0,171320
União das freguesias de Pensalvos e Parada de Monteiros,IL,0,0,171320
União das freguesias de Pensalvos e Parada de Monteiros,L,0,0,171320
União das freguesias de Pensalvos e Parada de Monteiros,NC,0,0,171320
União das freguesias de Pensalvos e Parada de Monteiros,PNR,0,0,171320
União das freguesias de Pensalvos e Parada de Monteiros,PURP,0,0,171320
