freguesia,acronym,validVotesPercentage,votes,dicofre
União das freguesias de Santa Vitória e Mombeja,PS,41.38,120,020523
União das freguesias de Santa Vitória e Mombeja,PCP-PEV,32.76,95,020523
União das freguesias de Santa Vitória e Mombeja,B.E.,9.66,28,020523
União das freguesias de Santa Vitória e Mombeja,PCTP/MRPP,6.55,19,020523
União das freguesias de Santa Vitória e Mombeja,PPD/PSD,2.76,8,020523
União das freguesias de Santa Vitória e Mombeja,PPM.PPV/CDC,2.41,7,020523
União das freguesias de Santa Vitória e Mombeja,PAN,1.72,5,020523
União das freguesias de Santa Vitória e Mombeja,CDS-PP,1.38,4,020523
União das freguesias de Santa Vitória e Mombeja,A,0.69,2,020523
União das freguesias de Santa Vitória e Mombeja,L,0.34,1,020523
União das freguesias de Santa Vitória e Mombeja,PURP,0.34,1,020523
União das freguesias de Santa Vitória e Mombeja,IL,0,0,020523
União das freguesias de Santa Vitória e Mombeja,MAS,0,0,020523
União das freguesias de Santa Vitória e Mombeja,NC,0,0,020523
União das freguesias de Santa Vitória e Mombeja,PDR,0,0,020523
União das freguesias de Santa Vitória e Mombeja,PNR,0,0,020523
União das freguesias de Santa Vitória e Mombeja,PTP,0,0,020523
