freguesia,acronym,validVotesPercentage,votes,dicofre
União das freguesias de São Martinho do Bispo e Ribeira de Frades,PS,39.4,1761,060338
União das freguesias de São Martinho do Bispo e Ribeira de Frades,B.E.,17.87,799,060338
União das freguesias de São Martinho do Bispo e Ribeira de Frades,PPD/PSD,17.11,765,060338
União das freguesias de São Martinho do Bispo e Ribeira de Frades,PCP-PEV,7.02,314,060338
União das freguesias de São Martinho do Bispo e Ribeira de Frades,PAN,4.88,218,060338
União das freguesias de São Martinho do Bispo e Ribeira de Frades,CDS-PP,3.87,173,060338
União das freguesias de São Martinho do Bispo e Ribeira de Frades,A,2.19,98,060338
União das freguesias de São Martinho do Bispo e Ribeira de Frades,L,2.08,93,060338
União das freguesias de São Martinho do Bispo e Ribeira de Frades,NC,1.48,66,060338
União das freguesias de São Martinho do Bispo e Ribeira de Frades,IL,0.83,37,060338
União das freguesias de São Martinho do Bispo e Ribeira de Frades,PDR,0.83,37,060338
União das freguesias de São Martinho do Bispo e Ribeira de Frades,PPM.PPV/CDC,0.56,25,060338
União das freguesias de São Martinho do Bispo e Ribeira de Frades,PCTP/MRPP,0.54,24,060338
União das freguesias de São Martinho do Bispo e Ribeira de Frades,PURP,0.47,21,060338
União das freguesias de São Martinho do Bispo e Ribeira de Frades,MAS,0.43,19,060338
União das freguesias de São Martinho do Bispo e Ribeira de Frades,PNR,0.36,16,060338
União das freguesias de São Martinho do Bispo e Ribeira de Frades,PTP,0.09,4,060338
