freguesia,acronym,validVotesPercentage,votes,dicofre
União das freguesias de Sepins e Bolho,PPD/PSD,40.32,179,060223
União das freguesias de Sepins e Bolho,PS,34.23,152,060223
União das freguesias de Sepins e Bolho,B.E.,8.78,39,060223
União das freguesias de Sepins e Bolho,CDS-PP,4.5,20,060223
União das freguesias de Sepins e Bolho,PAN,3.83,17,060223
União das freguesias de Sepins e Bolho,A,2.48,11,060223
União das freguesias de Sepins e Bolho,PCP-PEV,1.13,5,060223
União das freguesias de Sepins e Bolho,PPM.PPV/CDC,1.13,5,060223
União das freguesias de Sepins e Bolho,L,0.68,3,060223
União das freguesias de Sepins e Bolho,IL,0.45,2,060223
União das freguesias de Sepins e Bolho,MAS,0.45,2,060223
União das freguesias de Sepins e Bolho,PCTP/MRPP,0.45,2,060223
União das freguesias de Sepins e Bolho,PDR,0.45,2,060223
União das freguesias de Sepins e Bolho,PTP,0.45,2,060223
União das freguesias de Sepins e Bolho,NC,0.23,1,060223
União das freguesias de Sepins e Bolho,PNR,0.23,1,060223
União das freguesias de Sepins e Bolho,PURP,0.23,1,060223
