freguesia,acronym,validVotesPercentage,votes,dicofre
União das freguesias de Ermelo e Pardelhas,PPD/PSD,38.1,56,170510
União das freguesias de Ermelo e Pardelhas,PS,35.37,52,170510
União das freguesias de Ermelo e Pardelhas,CDS-PP,19.05,28,170510
União das freguesias de Ermelo e Pardelhas,B.E.,2.04,3,170510
União das freguesias de Ermelo e Pardelhas,PCP-PEV,1.36,2,170510
União das freguesias de Ermelo e Pardelhas,PCTP/MRPP,1.36,2,170510
União das freguesias de Ermelo e Pardelhas,MAS,0.68,1,170510
União das freguesias de Ermelo e Pardelhas,NC,0.68,1,170510
União das freguesias de Ermelo e Pardelhas,PNR,0.68,1,170510
União das freguesias de Ermelo e Pardelhas,PPM.PPV/CDC,0.68,1,170510
União das freguesias de Ermelo e Pardelhas,A,0,0,170510
União das freguesias de Ermelo e Pardelhas,IL,0,0,170510
União das freguesias de Ermelo e Pardelhas,L,0,0,170510
União das freguesias de Ermelo e Pardelhas,PAN,0,0,170510
União das freguesias de Ermelo e Pardelhas,PDR,0,0,170510
União das freguesias de Ermelo e Pardelhas,PTP,0,0,170510
União das freguesias de Ermelo e Pardelhas,PURP,0,0,170510
