freguesia,acronym,validVotesPercentage,votes,dicofre
União das freguesias de Vilarinho dos Galegos e Ventozelo,PS,50,66,040832
União das freguesias de Vilarinho dos Galegos e Ventozelo,PPD/PSD,25.76,34,040832
União das freguesias de Vilarinho dos Galegos e Ventozelo,CDS-PP,12.88,17,040832
União das freguesias de Vilarinho dos Galegos e Ventozelo,PAN,2.27,3,040832
União das freguesias de Vilarinho dos Galegos e Ventozelo,A,1.52,2,040832
União das freguesias de Vilarinho dos Galegos e Ventozelo,B.E.,1.52,2,040832
União das freguesias de Vilarinho dos Galegos e Ventozelo,IL,1.52,2,040832
União das freguesias de Vilarinho dos Galegos e Ventozelo,L,1.52,2,040832
União das freguesias de Vilarinho dos Galegos e Ventozelo,PNR,1.52,2,040832
União das freguesias de Vilarinho dos Galegos e Ventozelo,PCP-PEV,0.76,1,040832
União das freguesias de Vilarinho dos Galegos e Ventozelo,PTP,0.76,1,040832
União das freguesias de Vilarinho dos Galegos e Ventozelo,MAS,0,0,040832
União das freguesias de Vilarinho dos Galegos e Ventozelo,NC,0,0,040832
União das freguesias de Vilarinho dos Galegos e Ventozelo,PCTP/MRPP,0,0,040832
União das freguesias de Vilarinho dos Galegos e Ventozelo,PDR,0,0,040832
União das freguesias de Vilarinho dos Galegos e Ventozelo,PPM.PPV/CDC,0,0,040832
União das freguesias de Vilarinho dos Galegos e Ventozelo,PURP,0,0,040832
