freguesia,acronym,validVotesPercentage,votes,dicofre
"União das freguesias de Vilela, São Cosme e São Damião e Sá",PPD/PSD,54.34,119,160164
"União das freguesias de Vilela, São Cosme e São Damião e Sá",PS,30.14,66,160164
"União das freguesias de Vilela, São Cosme e São Damião e Sá",CDS-PP,5.94,13,160164
"União das freguesias de Vilela, São Cosme e São Damião e Sá",PAN,4.11,9,160164
"União das freguesias de Vilela, São Cosme e São Damião e Sá",B.E.,2.28,5,160164
"União das freguesias de Vilela, São Cosme e São Damião e Sá",PDR,1.37,3,160164
"União das freguesias de Vilela, São Cosme e São Damião e Sá",IL,0.46,1,160164
"União das freguesias de Vilela, São Cosme e São Damião e Sá",L,0.46,1,160164
"União das freguesias de Vilela, São Cosme e São Damião e Sá",PCP-PEV,0.46,1,160164
"União das freguesias de Vilela, São Cosme e São Damião e Sá",PPM.PPV/CDC,0.46,1,160164
"União das freguesias de Vilela, São Cosme e São Damião e Sá",A,0,0,160164
"União das freguesias de Vilela, São Cosme e São Damião e Sá",MAS,0,0,160164
"União das freguesias de Vilela, São Cosme e São Damião e Sá",NC,0,0,160164
"União das freguesias de Vilela, São Cosme e São Damião e Sá",PCTP/MRPP,0,0,160164
"União das freguesias de Vilela, São Cosme e São Damião e Sá",PNR,0,0,160164
"União das freguesias de Vilela, São Cosme e São Damião e Sá",PTP,0,0,160164
"União das freguesias de Vilela, São Cosme e São Damião e Sá",PURP,0,0,160164
