freguesia,acronym,validVotesPercentage,votes,dicofre
União das freguesias de Alcoutim e Pereiro,PS,60.85,171,080206
União das freguesias de Alcoutim e Pereiro,PPD/PSD,14.95,42,080206
União das freguesias de Alcoutim e Pereiro,PCP-PEV,9.25,26,080206
União das freguesias de Alcoutim e Pereiro,B.E.,7.12,20,080206
União das freguesias de Alcoutim e Pereiro,CDS-PP,3.56,10,080206
União das freguesias de Alcoutim e Pereiro,NC,0.71,2,080206
União das freguesias de Alcoutim e Pereiro,PAN,0.71,2,080206
União das freguesias de Alcoutim e Pereiro,PDR,0.71,2,080206
União das freguesias de Alcoutim e Pereiro,PPM.PPV/CDC,0.71,2,080206
União das freguesias de Alcoutim e Pereiro,PURP,0.71,2,080206
União das freguesias de Alcoutim e Pereiro,A,0.36,1,080206
União das freguesias de Alcoutim e Pereiro,PNR,0.36,1,080206
União das freguesias de Alcoutim e Pereiro,IL,0,0,080206
União das freguesias de Alcoutim e Pereiro,L,0,0,080206
União das freguesias de Alcoutim e Pereiro,MAS,0,0,080206
União das freguesias de Alcoutim e Pereiro,PCTP/MRPP,0,0,080206
União das freguesias de Alcoutim e Pereiro,PTP,0,0,080206
