freguesia,acronym,validVotesPercentage,votes,dicofre
União das freguesias de Monfortinho e Salvaterra do Extremo,PS,50.82,93,050519
União das freguesias de Monfortinho e Salvaterra do Extremo,PPD/PSD,25.68,47,050519
União das freguesias de Monfortinho e Salvaterra do Extremo,B.E.,5.46,10,050519
União das freguesias de Monfortinho e Salvaterra do Extremo,PCP-PEV,4.37,8,050519
União das freguesias de Monfortinho e Salvaterra do Extremo,PCTP/MRPP,3.28,6,050519
União das freguesias de Monfortinho e Salvaterra do Extremo,CDS-PP,2.73,5,050519
União das freguesias de Monfortinho e Salvaterra do Extremo,PDR,2.19,4,050519
União das freguesias de Monfortinho e Salvaterra do Extremo,PAN,1.64,3,050519
União das freguesias de Monfortinho e Salvaterra do Extremo,L,1.09,2,050519
União das freguesias de Monfortinho e Salvaterra do Extremo,PPM.PPV/CDC,1.09,2,050519
União das freguesias de Monfortinho e Salvaterra do Extremo,IL,0.55,1,050519
União das freguesias de Monfortinho e Salvaterra do Extremo,PNR,0.55,1,050519
União das freguesias de Monfortinho e Salvaterra do Extremo,PTP,0.55,1,050519
União das freguesias de Monfortinho e Salvaterra do Extremo,A,0,0,050519
União das freguesias de Monfortinho e Salvaterra do Extremo,MAS,0,0,050519
União das freguesias de Monfortinho e Salvaterra do Extremo,NC,0,0,050519
União das freguesias de Monfortinho e Salvaterra do Extremo,PURP,0,0,050519
