freguesia,acronym,validVotesPercentage,votes,dicofre
União das freguesias de Parada do Bispo e Valdigem,PS,49.04,128,180528
União das freguesias de Parada do Bispo e Valdigem,PPD/PSD,22.61,59,180528
União das freguesias de Parada do Bispo e Valdigem,CDS-PP,8.05,21,180528
União das freguesias de Parada do Bispo e Valdigem,PAN,3.83,10,180528
União das freguesias de Parada do Bispo e Valdigem,PPM.PPV/CDC,3.83,10,180528
União das freguesias de Parada do Bispo e Valdigem,B.E.,3.45,9,180528
União das freguesias de Parada do Bispo e Valdigem,PCP-PEV,3.07,8,180528
União das freguesias de Parada do Bispo e Valdigem,A,1.92,5,180528
União das freguesias de Parada do Bispo e Valdigem,PURP,1.15,3,180528
União das freguesias de Parada do Bispo e Valdigem,IL,0.77,2,180528
União das freguesias de Parada do Bispo e Valdigem,L,0.77,2,180528
União das freguesias de Parada do Bispo e Valdigem,NC,0.38,1,180528
União das freguesias de Parada do Bispo e Valdigem,PCTP/MRPP,0.38,1,180528
União das freguesias de Parada do Bispo e Valdigem,PDR,0.38,1,180528
União das freguesias de Parada do Bispo e Valdigem,PNR,0.38,1,180528
União das freguesias de Parada do Bispo e Valdigem,MAS,0,0,180528
União das freguesias de Parada do Bispo e Valdigem,PTP,0,0,180528
