freguesia,acronym,validVotesPercentage,votes,dicofre
União das freguesias de Cabreiros e Passos (São Julião),PS,39.27,313,030366
União das freguesias de Cabreiros e Passos (São Julião),PPD/PSD,29.49,235,030366
União das freguesias de Cabreiros e Passos (São Julião),CDS-PP,11.54,92,030366
União das freguesias de Cabreiros e Passos (São Julião),B.E.,6.02,48,030366
União das freguesias de Cabreiros e Passos (São Julião),PCP-PEV,4.64,37,030366
União das freguesias de Cabreiros e Passos (São Julião),PAN,3.64,29,030366
União das freguesias de Cabreiros e Passos (São Julião),NC,1,8,030366
União das freguesias de Cabreiros e Passos (São Julião),PPM.PPV/CDC,1,8,030366
União das freguesias de Cabreiros e Passos (São Julião),PCTP/MRPP,0.63,5,030366
União das freguesias de Cabreiros e Passos (São Julião),PDR,0.63,5,030366
União das freguesias de Cabreiros e Passos (São Julião),A,0.5,4,030366
União das freguesias de Cabreiros e Passos (São Julião),L,0.5,4,030366
União das freguesias de Cabreiros e Passos (São Julião),MAS,0.5,4,030366
União das freguesias de Cabreiros e Passos (São Julião),PURP,0.25,2,030366
União das freguesias de Cabreiros e Passos (São Julião),IL,0.13,1,030366
União das freguesias de Cabreiros e Passos (São Julião),PNR,0.13,1,030366
União das freguesias de Cabreiros e Passos (São Julião),PTP,0.13,1,030366
