freguesia,acronym,validVotesPercentage,votes,dicofre
"União das freguesias de Oeiras e São Julião da Barra, Paço de Arcos e Caxias",PS,29.04,6363,111014
"União das freguesias de Oeiras e São Julião da Barra, Paço de Arcos e Caxias",PPD/PSD,20.1,4405,111014
"União das freguesias de Oeiras e São Julião da Barra, Paço de Arcos e Caxias",B.E.,11.8,2586,111014
"União das freguesias de Oeiras e São Julião da Barra, Paço de Arcos e Caxias",CDS-PP,10.59,2320,111014
"União das freguesias de Oeiras e São Julião da Barra, Paço de Arcos e Caxias",PAN,7.83,1715,111014
"União das freguesias de Oeiras e São Julião da Barra, Paço de Arcos e Caxias",PCP-PEV,5.89,1290,111014
"União das freguesias de Oeiras e São Julião da Barra, Paço de Arcos e Caxias",L,3.89,853,111014
"União das freguesias de Oeiras e São Julião da Barra, Paço de Arcos e Caxias",A,3.81,835,111014
"União das freguesias de Oeiras e São Julião da Barra, Paço de Arcos e Caxias",IL,2.12,465,111014
"União das freguesias de Oeiras e São Julião da Barra, Paço de Arcos e Caxias",PPM.PPV/CDC,1.48,324,111014
"União das freguesias de Oeiras e São Julião da Barra, Paço de Arcos e Caxias",NC,1.39,304,111014
"União das freguesias de Oeiras e São Julião da Barra, Paço de Arcos e Caxias",PNR,0.51,111,111014
"União das freguesias de Oeiras e São Julião da Barra, Paço de Arcos e Caxias",PCTP/MRPP,0.45,99,111014
"União das freguesias de Oeiras e São Julião da Barra, Paço de Arcos e Caxias",PDR,0.42,93,111014
"União das freguesias de Oeiras e São Julião da Barra, Paço de Arcos e Caxias",PURP,0.42,93,111014
"União das freguesias de Oeiras e São Julião da Barra, Paço de Arcos e Caxias",MAS,0.14,31,111014
"União das freguesias de Oeiras e São Julião da Barra, Paço de Arcos e Caxias",PTP,0.1,23,111014
