freguesia,acronym,validVotesPercentage,votes,dicofre
União das freguesias de Figueiró dos Vinhos e Bairradas,PS,41.39,430,100806
União das freguesias de Figueiró dos Vinhos e Bairradas,PPD/PSD,34.17,355,100806
União das freguesias de Figueiró dos Vinhos e Bairradas,B.E.,7.41,77,100806
União das freguesias de Figueiró dos Vinhos e Bairradas,PAN,4.23,44,100806
União das freguesias de Figueiró dos Vinhos e Bairradas,CDS-PP,4.14,43,100806
União das freguesias de Figueiró dos Vinhos e Bairradas,PCP-PEV,2.02,21,100806
União das freguesias de Figueiró dos Vinhos e Bairradas,A,1.92,20,100806
União das freguesias de Figueiró dos Vinhos e Bairradas,PPM.PPV/CDC,1.15,12,100806
União das freguesias de Figueiró dos Vinhos e Bairradas,IL,1.06,11,100806
União das freguesias de Figueiró dos Vinhos e Bairradas,L,0.67,7,100806
União das freguesias de Figueiró dos Vinhos e Bairradas,PDR,0.48,5,100806
União das freguesias de Figueiró dos Vinhos e Bairradas,PCTP/MRPP,0.38,4,100806
União das freguesias de Figueiró dos Vinhos e Bairradas,MAS,0.29,3,100806
União das freguesias de Figueiró dos Vinhos e Bairradas,PURP,0.29,3,100806
União das freguesias de Figueiró dos Vinhos e Bairradas,NC,0.19,2,100806
União das freguesias de Figueiró dos Vinhos e Bairradas,PNR,0.1,1,100806
União das freguesias de Figueiró dos Vinhos e Bairradas,PTP,0.1,1,100806
