freguesia,acronym,validVotesPercentage,votes,dicofre
União das freguesias de Arrimal e Mendiga,PPD/PSD,44.48,258,101616
União das freguesias de Arrimal e Mendiga,PS,24.31,141,101616
União das freguesias de Arrimal e Mendiga,CDS-PP,11.55,67,101616
União das freguesias de Arrimal e Mendiga,B.E.,6.38,37,101616
União das freguesias de Arrimal e Mendiga,PAN,2.76,16,101616
União das freguesias de Arrimal e Mendiga,A,1.9,11,101616
União das freguesias de Arrimal e Mendiga,L,1.9,11,101616
União das freguesias de Arrimal e Mendiga,PNR,1.21,7,101616
União das freguesias de Arrimal e Mendiga,PCP-PEV,1.03,6,101616
União das freguesias de Arrimal e Mendiga,IL,0.86,5,101616
União das freguesias de Arrimal e Mendiga,PPM.PPV/CDC,0.86,5,101616
União das freguesias de Arrimal e Mendiga,MAS,0.69,4,101616
União das freguesias de Arrimal e Mendiga,NC,0.52,3,101616
União das freguesias de Arrimal e Mendiga,PCTP/MRPP,0.52,3,101616
União das freguesias de Arrimal e Mendiga,PTP,0.52,3,101616
União das freguesias de Arrimal e Mendiga,PDR,0.34,2,101616
União das freguesias de Arrimal e Mendiga,PURP,0.17,1,101616
