freguesia,acronym,validVotesPercentage,votes,dicofre
União de freguesias de Freitas e Vila Cova,PS,45.8,109,030742
União de freguesias de Freitas e Vila Cova,PPD/PSD,23.11,55,030742
União de freguesias de Freitas e Vila Cova,B.E.,10.5,25,030742
União de freguesias de Freitas e Vila Cova,PCP-PEV,6.3,15,030742
União de freguesias de Freitas e Vila Cova,CDS-PP,5.88,14,030742
União de freguesias de Freitas e Vila Cova,PAN,2.94,7,030742
União de freguesias de Freitas e Vila Cova,A,1.26,3,030742
União de freguesias de Freitas e Vila Cova,PPM.PPV/CDC,1.26,3,030742
União de freguesias de Freitas e Vila Cova,L,0.84,2,030742
União de freguesias de Freitas e Vila Cova,PTP,0.84,2,030742
União de freguesias de Freitas e Vila Cova,PURP,0.84,2,030742
União de freguesias de Freitas e Vila Cova,PCTP/MRPP,0.42,1,030742
União de freguesias de Freitas e Vila Cova,IL,0,0,030742
União de freguesias de Freitas e Vila Cova,MAS,0,0,030742
União de freguesias de Freitas e Vila Cova,NC,0,0,030742
União de freguesias de Freitas e Vila Cova,PDR,0,0,030742
União de freguesias de Freitas e Vila Cova,PNR,0,0,030742
