freguesia,acronym,validVotesPercentage,votes,dicofre
"União das freguesias de Enxara do Bispo, Gradil e Vila Franca do Rosário",PS,36.72,361,110919
"União das freguesias de Enxara do Bispo, Gradil e Vila Franca do Rosário",PPD/PSD,24.01,236,110919
"União das freguesias de Enxara do Bispo, Gradil e Vila Franca do Rosário",B.E.,9.77,96,110919
"União das freguesias de Enxara do Bispo, Gradil e Vila Franca do Rosário",PAN,6.31,62,110919
"União das freguesias de Enxara do Bispo, Gradil e Vila Franca do Rosário",CDS-PP,6.21,61,110919
"União das freguesias de Enxara do Bispo, Gradil e Vila Franca do Rosário",PCP-PEV,5.09,50,110919
"União das freguesias de Enxara do Bispo, Gradil e Vila Franca do Rosário",A,2.44,24,110919
"União das freguesias de Enxara do Bispo, Gradil e Vila Franca do Rosário",L,1.83,18,110919
"União das freguesias de Enxara do Bispo, Gradil e Vila Franca do Rosário",PCTP/MRPP,1.73,17,110919
"União das freguesias de Enxara do Bispo, Gradil e Vila Franca do Rosário",PPM.PPV/CDC,1.53,15,110919
"União das freguesias de Enxara do Bispo, Gradil e Vila Franca do Rosário",NC,1.02,10,110919
"União das freguesias de Enxara do Bispo, Gradil e Vila Franca do Rosário",PNR,1.02,10,110919
"União das freguesias de Enxara do Bispo, Gradil e Vila Franca do Rosário",IL,0.81,8,110919
"União das freguesias de Enxara do Bispo, Gradil e Vila Franca do Rosário",PDR,0.71,7,110919
"União das freguesias de Enxara do Bispo, Gradil e Vila Franca do Rosário",MAS,0.51,5,110919
"União das freguesias de Enxara do Bispo, Gradil e Vila Franca do Rosário",PTP,0.2,2,110919
"União das freguesias de Enxara do Bispo, Gradil e Vila Franca do Rosário",PURP,0.1,1,110919
