freguesia,acronym,validVotesPercentage,votes,dicofre
União de freguesias de Antime e Silvares (São Clemente),PS,52.81,385,030739
União de freguesias de Antime e Silvares (São Clemente),PPD/PSD,15.36,112,030739
União de freguesias de Antime e Silvares (São Clemente),PCP-PEV,10.01,73,030739
União de freguesias de Antime e Silvares (São Clemente),B.E.,7.96,58,030739
União de freguesias de Antime e Silvares (São Clemente),CDS-PP,4.53,33,030739
União de freguesias de Antime e Silvares (São Clemente),PAN,4.12,30,030739
União de freguesias de Antime e Silvares (São Clemente),L,1.37,10,030739
União de freguesias de Antime e Silvares (São Clemente),PCTP/MRPP,0.82,6,030739
União de freguesias de Antime e Silvares (São Clemente),A,0.69,5,030739
União de freguesias de Antime e Silvares (São Clemente),PURP,0.69,5,030739
União de freguesias de Antime e Silvares (São Clemente),NC,0.55,4,030739
União de freguesias de Antime e Silvares (São Clemente),PPM.PPV/CDC,0.55,4,030739
União de freguesias de Antime e Silvares (São Clemente),IL,0.14,1,030739
União de freguesias de Antime e Silvares (São Clemente),MAS,0.14,1,030739
União de freguesias de Antime e Silvares (São Clemente),PDR,0.14,1,030739
União de freguesias de Antime e Silvares (São Clemente),PTP,0.14,1,030739
União de freguesias de Antime e Silvares (São Clemente),PNR,0,0,030739
