freguesia,acronym,validVotesPercentage,votes,dicofre
União das freguesias de Caldas de Vizela (São Miguel e São João),PS,47.36,1491,031408
União das freguesias de Caldas de Vizela (São Miguel e São João),PPD/PSD,18.01,567,031408
União das freguesias de Caldas de Vizela (São Miguel e São João),B.E.,12.29,387,031408
União das freguesias de Caldas de Vizela (São Miguel e São João),CDS-PP,6,189,031408
União das freguesias de Caldas de Vizela (São Miguel e São João),PAN,4.92,155,031408
União das freguesias de Caldas de Vizela (São Miguel e São João),PCP-PEV,4.19,132,031408
União das freguesias de Caldas de Vizela (São Miguel e São João),A,1.24,39,031408
União das freguesias de Caldas de Vizela (São Miguel e São João),L,1.14,36,031408
União das freguesias de Caldas de Vizela (São Miguel e São João),NC,1.08,34,031408
União das freguesias de Caldas de Vizela (São Miguel e São João),PCTP/MRPP,0.79,25,031408
União das freguesias de Caldas de Vizela (São Miguel e São João),IL,0.73,23,031408
União das freguesias de Caldas de Vizela (São Miguel e São João),PPM.PPV/CDC,0.67,21,031408
União das freguesias de Caldas de Vizela (São Miguel e São João),PDR,0.44,14,031408
União das freguesias de Caldas de Vizela (São Miguel e São João),PNR,0.44,14,031408
União das freguesias de Caldas de Vizela (São Miguel e São João),PURP,0.35,11,031408
União das freguesias de Caldas de Vizela (São Miguel e São João),PTP,0.22,7,031408
União das freguesias de Caldas de Vizela (São Miguel e São João),MAS,0.1,3,031408
