freguesia,acronym,validVotesPercentage,votes,dicofre
União das freguesias de Parada de Ester e Ester,PS,50.49,104,180325
União das freguesias de Parada de Ester e Ester,PPD/PSD,35.92,74,180325
União das freguesias de Parada de Ester e Ester,B.E.,4.37,9,180325
União das freguesias de Parada de Ester e Ester,PCP-PEV,3.88,8,180325
União das freguesias de Parada de Ester e Ester,CDS-PP,2.91,6,180325
União das freguesias de Parada de Ester e Ester,PAN,0.97,2,180325
União das freguesias de Parada de Ester e Ester,A,0.49,1,180325
União das freguesias de Parada de Ester e Ester,PCTP/MRPP,0.49,1,180325
União das freguesias de Parada de Ester e Ester,PPM.PPV/CDC,0.49,1,180325
União das freguesias de Parada de Ester e Ester,IL,0,0,180325
União das freguesias de Parada de Ester e Ester,L,0,0,180325
União das freguesias de Parada de Ester e Ester,MAS,0,0,180325
União das freguesias de Parada de Ester e Ester,NC,0,0,180325
União das freguesias de Parada de Ester e Ester,PDR,0,0,180325
União das freguesias de Parada de Ester e Ester,PNR,0,0,180325
União das freguesias de Parada de Ester e Ester,PTP,0,0,180325
União das freguesias de Parada de Ester e Ester,PURP,0,0,180325
