freguesia,acronym,validVotesPercentage,votes,dicofre
União das freguesias de Trancoso (São Pedro e Santa Maria) e Souto Maior,PS,38.81,392,091332
União das freguesias de Trancoso (São Pedro e Santa Maria) e Souto Maior,PPD/PSD,30.59,309,091332
União das freguesias de Trancoso (São Pedro e Santa Maria) e Souto Maior,CDS-PP,8.02,81,091332
União das freguesias de Trancoso (São Pedro e Santa Maria) e Souto Maior,B.E.,7.03,71,091332
União das freguesias de Trancoso (São Pedro e Santa Maria) e Souto Maior,PCP-PEV,3.37,34,091332
União das freguesias de Trancoso (São Pedro e Santa Maria) e Souto Maior,PAN,2.87,29,091332
União das freguesias de Trancoso (São Pedro e Santa Maria) e Souto Maior,A,2.48,25,091332
União das freguesias de Trancoso (São Pedro e Santa Maria) e Souto Maior,PPM.PPV/CDC,1.88,19,091332
União das freguesias de Trancoso (São Pedro e Santa Maria) e Souto Maior,L,0.79,8,091332
União das freguesias de Trancoso (São Pedro e Santa Maria) e Souto Maior,NC,0.69,7,091332
União das freguesias de Trancoso (São Pedro e Santa Maria) e Souto Maior,PDR,0.69,7,091332
União das freguesias de Trancoso (São Pedro e Santa Maria) e Souto Maior,PTP,0.69,7,091332
União das freguesias de Trancoso (São Pedro e Santa Maria) e Souto Maior,PURP,0.59,6,091332
União das freguesias de Trancoso (São Pedro e Santa Maria) e Souto Maior,PCTP/MRPP,0.5,5,091332
União das freguesias de Trancoso (São Pedro e Santa Maria) e Souto Maior,PNR,0.5,5,091332
União das freguesias de Trancoso (São Pedro e Santa Maria) e Souto Maior,IL,0.3,3,091332
União das freguesias de Trancoso (São Pedro e Santa Maria) e Souto Maior,MAS,0.2,2,091332
