freguesia,acronym,validVotesPercentage,votes,dicofre
União das freguesias de Remondes e Soutelo,PPD/PSD,40.3,54,040831
União das freguesias de Remondes e Soutelo,PS,35.82,48,040831
União das freguesias de Remondes e Soutelo,CDS-PP,8.21,11,040831
União das freguesias de Remondes e Soutelo,B.E.,4.48,6,040831
União das freguesias de Remondes e Soutelo,A,3.73,5,040831
União das freguesias de Remondes e Soutelo,PCTP/MRPP,2.24,3,040831
União das freguesias de Remondes e Soutelo,L,1.49,2,040831
União das freguesias de Remondes e Soutelo,PAN,0.75,1,040831
União das freguesias de Remondes e Soutelo,PCP-PEV,0.75,1,040831
União das freguesias de Remondes e Soutelo,PDR,0.75,1,040831
União das freguesias de Remondes e Soutelo,PPM.PPV/CDC,0.75,1,040831
União das freguesias de Remondes e Soutelo,PTP,0.75,1,040831
União das freguesias de Remondes e Soutelo,IL,0,0,040831
União das freguesias de Remondes e Soutelo,MAS,0,0,040831
União das freguesias de Remondes e Soutelo,NC,0,0,040831
União das freguesias de Remondes e Soutelo,PNR,0,0,040831
União das freguesias de Remondes e Soutelo,PURP,0,0,040831
