freguesia,acronym,validVotesPercentage,votes,dicofre
União das freguesias de Pedroso e Seixezelo,PS,41.25,2573,131728
União das freguesias de Pedroso e Seixezelo,PPD/PSD,22.96,1432,131728
União das freguesias de Pedroso e Seixezelo,B.E.,11.03,688,131728
União das freguesias de Pedroso e Seixezelo,PAN,5.93,370,131728
União das freguesias de Pedroso e Seixezelo,CDS-PP,5.02,313,131728
União das freguesias de Pedroso e Seixezelo,PCP-PEV,4.31,269,131728
União das freguesias de Pedroso e Seixezelo,A,1.86,116,131728
União das freguesias de Pedroso e Seixezelo,L,1.65,103,131728
União das freguesias de Pedroso e Seixezelo,NC,1.38,86,131728
União das freguesias de Pedroso e Seixezelo,PPM.PPV/CDC,0.98,61,131728
União das freguesias de Pedroso e Seixezelo,IL,0.93,58,131728
União das freguesias de Pedroso e Seixezelo,PCTP/MRPP,0.75,47,131728
União das freguesias de Pedroso e Seixezelo,PNR,0.59,37,131728
União das freguesias de Pedroso e Seixezelo,PDR,0.55,34,131728
União das freguesias de Pedroso e Seixezelo,PTP,0.3,19,131728
União das freguesias de Pedroso e Seixezelo,PURP,0.3,19,131728
União das freguesias de Pedroso e Seixezelo,MAS,0.19,12,131728
