freguesia,acronym,validVotesPercentage,votes,dicofre
União das freguesias de Castelãos e Vilar do Monte,PPD/PSD,39.69,52,040541
União das freguesias de Castelãos e Vilar do Monte,PS,26.72,35,040541
União das freguesias de Castelãos e Vilar do Monte,CDS-PP,16.79,22,040541
União das freguesias de Castelãos e Vilar do Monte,PCP-PEV,3.82,5,040541
União das freguesias de Castelãos e Vilar do Monte,PPM.PPV/CDC,3.05,4,040541
União das freguesias de Castelãos e Vilar do Monte,B.E.,2.29,3,040541
União das freguesias de Castelãos e Vilar do Monte,PAN,2.29,3,040541
União das freguesias de Castelãos e Vilar do Monte,A,1.53,2,040541
União das freguesias de Castelãos e Vilar do Monte,IL,1.53,2,040541
União das freguesias de Castelãos e Vilar do Monte,NC,0.76,1,040541
União das freguesias de Castelãos e Vilar do Monte,PCTP/MRPP,0.76,1,040541
União das freguesias de Castelãos e Vilar do Monte,PNR,0.76,1,040541
União das freguesias de Castelãos e Vilar do Monte,L,0,0,040541
União das freguesias de Castelãos e Vilar do Monte,MAS,0,0,040541
União das freguesias de Castelãos e Vilar do Monte,PDR,0,0,040541
União das freguesias de Castelãos e Vilar do Monte,PTP,0,0,040541
União das freguesias de Castelãos e Vilar do Monte,PURP,0,0,040541
