freguesia,acronym,validVotesPercentage,votes,dicofre
União das freguesias de Canelas e Espiunca,PPD/PSD,39.81,86,010423
União das freguesias de Canelas e Espiunca,PS,27.31,59,010423
União das freguesias de Canelas e Espiunca,CDS-PP,15.28,33,010423
União das freguesias de Canelas e Espiunca,B.E.,5.09,11,010423
União das freguesias de Canelas e Espiunca,A,2.31,5,010423
União das freguesias de Canelas e Espiunca,PCP-PEV,2.31,5,010423
União das freguesias de Canelas e Espiunca,PAN,1.85,4,010423
União das freguesias de Canelas e Espiunca,PCTP/MRPP,1.85,4,010423
União das freguesias de Canelas e Espiunca,L,0.93,2,010423
União das freguesias de Canelas e Espiunca,PDR,0.93,2,010423
União das freguesias de Canelas e Espiunca,IL,0.46,1,010423
União das freguesias de Canelas e Espiunca,MAS,0.46,1,010423
União das freguesias de Canelas e Espiunca,PPM.PPV/CDC,0.46,1,010423
União das freguesias de Canelas e Espiunca,PTP,0.46,1,010423
União das freguesias de Canelas e Espiunca,PURP,0.46,1,010423
União das freguesias de Canelas e Espiunca,NC,0,0,010423
União das freguesias de Canelas e Espiunca,PNR,0,0,010423
