freguesia,acronym,validVotesPercentage,votes,dicofre
União das freguesias de Eiras e Mei,PPD/PSD,43.75,56,160155
União das freguesias de Eiras e Mei,PS,37.5,48,160155
União das freguesias de Eiras e Mei,PCP-PEV,7.03,9,160155
União das freguesias de Eiras e Mei,CDS-PP,6.25,8,160155
União das freguesias de Eiras e Mei,A,2.34,3,160155
União das freguesias de Eiras e Mei,PAN,1.56,2,160155
União das freguesias de Eiras e Mei,B.E.,0.78,1,160155
União das freguesias de Eiras e Mei,PCTP/MRPP,0.78,1,160155
União das freguesias de Eiras e Mei,IL,0,0,160155
União das freguesias de Eiras e Mei,L,0,0,160155
União das freguesias de Eiras e Mei,MAS,0,0,160155
União das freguesias de Eiras e Mei,NC,0,0,160155
União das freguesias de Eiras e Mei,PDR,0,0,160155
União das freguesias de Eiras e Mei,PNR,0,0,160155
União das freguesias de Eiras e Mei,PPM.PPV/CDC,0,0,160155
União das freguesias de Eiras e Mei,PTP,0,0,160155
União das freguesias de Eiras e Mei,PURP,0,0,160155
