freguesia,acronym,validVotesPercentage,votes,dicofre
"União das freguesias de Mogadouro, Valverde, Vale de Porco e Vilar de Rei",PPD/PSD,38.14,349,040830
"União das freguesias de Mogadouro, Valverde, Vale de Porco e Vilar de Rei",PS,35.85,328,040830
"União das freguesias de Mogadouro, Valverde, Vale de Porco e Vilar de Rei",CDS-PP,8.09,74,040830
"União das freguesias de Mogadouro, Valverde, Vale de Porco e Vilar de Rei",B.E.,7.1,65,040830
"União das freguesias de Mogadouro, Valverde, Vale de Porco e Vilar de Rei",PAN,2.4,22,040830
"União das freguesias de Mogadouro, Valverde, Vale de Porco e Vilar de Rei",A,1.53,14,040830
"União das freguesias de Mogadouro, Valverde, Vale de Porco e Vilar de Rei",PCP-PEV,1.2,11,040830
"União das freguesias de Mogadouro, Valverde, Vale de Porco e Vilar de Rei",PCTP/MRPP,1.2,11,040830
"União das freguesias de Mogadouro, Valverde, Vale de Porco e Vilar de Rei",L,0.77,7,040830
"União das freguesias de Mogadouro, Valverde, Vale de Porco e Vilar de Rei",PDR,0.77,7,040830
"União das freguesias de Mogadouro, Valverde, Vale de Porco e Vilar de Rei",PNR,0.66,6,040830
"União das freguesias de Mogadouro, Valverde, Vale de Porco e Vilar de Rei",PPM.PPV/CDC,0.55,5,040830
"União das freguesias de Mogadouro, Valverde, Vale de Porco e Vilar de Rei",MAS,0.44,4,040830
"União das freguesias de Mogadouro, Valverde, Vale de Porco e Vilar de Rei",NC,0.44,4,040830
"União das freguesias de Mogadouro, Valverde, Vale de Porco e Vilar de Rei",PURP,0.44,4,040830
"União das freguesias de Mogadouro, Valverde, Vale de Porco e Vilar de Rei",IL,0.33,3,040830
"União das freguesias de Mogadouro, Valverde, Vale de Porco e Vilar de Rei",PTP,0.11,1,040830
