freguesia,acronym,validVotesPercentage,votes,dicofre
União das freguesias de Vagos e Santo António,PPD/PSD,39.23,703,011814
União das freguesias de Vagos e Santo António,PS,23.49,421,011814
União das freguesias de Vagos e Santo António,CDS-PP,11.44,205,011814
União das freguesias de Vagos e Santo António,B.E.,9.82,176,011814
União das freguesias de Vagos e Santo António,PAN,5.69,102,011814
União das freguesias de Vagos e Santo António,A,2.01,36,011814
União das freguesias de Vagos e Santo António,PCP-PEV,1.84,33,011814
União das freguesias de Vagos e Santo António,NC,1.56,28,011814
União das freguesias de Vagos e Santo António,L,1.28,23,011814
União das freguesias de Vagos e Santo António,PPM.PPV/CDC,1.23,22,011814
União das freguesias de Vagos e Santo António,PNR,0.56,10,011814
União das freguesias de Vagos e Santo António,IL,0.5,9,011814
União das freguesias de Vagos e Santo António,PDR,0.5,9,011814
União das freguesias de Vagos e Santo António,PURP,0.39,7,011814
União das freguesias de Vagos e Santo António,PCTP/MRPP,0.22,4,011814
União das freguesias de Vagos e Santo António,PTP,0.17,3,011814
União das freguesias de Vagos e Santo António,MAS,0.06,1,011814
