freguesia,acronym,validVotesPercentage,votes,dicofre
União das freguesias de Safara e Santo Aleixo da Restauração,PS,51.03,173,021010
União das freguesias de Safara e Santo Aleixo da Restauração,PCP-PEV,25.66,87,021010
União das freguesias de Safara e Santo Aleixo da Restauração,PPD/PSD,7.67,26,021010
União das freguesias de Safara e Santo Aleixo da Restauração,PCTP/MRPP,6.49,22,021010
União das freguesias de Safara e Santo Aleixo da Restauração,CDS-PP,3.54,12,021010
União das freguesias de Safara e Santo Aleixo da Restauração,B.E.,2.95,10,021010
União das freguesias de Safara e Santo Aleixo da Restauração,PPM.PPV/CDC,1.77,6,021010
União das freguesias de Safara e Santo Aleixo da Restauração,A,0.29,1,021010
União das freguesias de Safara e Santo Aleixo da Restauração,NC,0.29,1,021010
União das freguesias de Safara e Santo Aleixo da Restauração,PNR,0.29,1,021010
União das freguesias de Safara e Santo Aleixo da Restauração,IL,0,0,021010
União das freguesias de Safara e Santo Aleixo da Restauração,L,0,0,021010
União das freguesias de Safara e Santo Aleixo da Restauração,MAS,0,0,021010
União das freguesias de Safara e Santo Aleixo da Restauração,PAN,0,0,021010
União das freguesias de Safara e Santo Aleixo da Restauração,PDR,0,0,021010
União das freguesias de Safara e Santo Aleixo da Restauração,PTP,0,0,021010
União das freguesias de Safara e Santo Aleixo da Restauração,PURP,0,0,021010
