freguesia,acronym,validVotesPercentage,votes,dicofre
União das freguesias de Póvoa de Rio de Moinhos e Cafede,PS,46.13,131,050231
União das freguesias de Póvoa de Rio de Moinhos e Cafede,PPD/PSD,18.31,52,050231
União das freguesias de Póvoa de Rio de Moinhos e Cafede,B.E.,11.27,32,050231
União das freguesias de Póvoa de Rio de Moinhos e Cafede,CDS-PP,6.34,18,050231
União das freguesias de Póvoa de Rio de Moinhos e Cafede,PAN,5.28,15,050231
União das freguesias de Póvoa de Rio de Moinhos e Cafede,PCP-PEV,3.17,9,050231
União das freguesias de Póvoa de Rio de Moinhos e Cafede,A,2.46,7,050231
União das freguesias de Póvoa de Rio de Moinhos e Cafede,PPM.PPV/CDC,2.46,7,050231
União das freguesias de Póvoa de Rio de Moinhos e Cafede,L,1.06,3,050231
União das freguesias de Póvoa de Rio de Moinhos e Cafede,PDR,1.06,3,050231
União das freguesias de Póvoa de Rio de Moinhos e Cafede,PCTP/MRPP,0.7,2,050231
União das freguesias de Póvoa de Rio de Moinhos e Cafede,PURP,0.7,2,050231
União das freguesias de Póvoa de Rio de Moinhos e Cafede,IL,0.35,1,050231
União das freguesias de Póvoa de Rio de Moinhos e Cafede,NC,0.35,1,050231
União das freguesias de Póvoa de Rio de Moinhos e Cafede,PTP,0.35,1,050231
União das freguesias de Póvoa de Rio de Moinhos e Cafede,MAS,0,0,050231
União das freguesias de Póvoa de Rio de Moinhos e Cafede,PNR,0,0,050231
