freguesia,acronym,validVotesPercentage,votes,dicofre
União das freguesias de Benavila e Valongo,PCP-PEV,39.95,147,120310
União das freguesias de Benavila e Valongo,PS,36.14,133,120310
União das freguesias de Benavila e Valongo,PPD/PSD,7.88,29,120310
União das freguesias de Benavila e Valongo,B.E.,5.43,20,120310
União das freguesias de Benavila e Valongo,CDS-PP,4.35,16,120310
União das freguesias de Benavila e Valongo,PPM.PPV/CDC,2.45,9,120310
União das freguesias de Benavila e Valongo,PCTP/MRPP,1.09,4,120310
União das freguesias de Benavila e Valongo,L,0.82,3,120310
União das freguesias de Benavila e Valongo,PAN,0.82,3,120310
União das freguesias de Benavila e Valongo,A,0.27,1,120310
União das freguesias de Benavila e Valongo,NC,0.27,1,120310
União das freguesias de Benavila e Valongo,PDR,0.27,1,120310
União das freguesias de Benavila e Valongo,PURP,0.27,1,120310
União das freguesias de Benavila e Valongo,IL,0,0,120310
União das freguesias de Benavila e Valongo,MAS,0,0,120310
União das freguesias de Benavila e Valongo,PNR,0,0,120310
União das freguesias de Benavila e Valongo,PTP,0,0,120310
