freguesia,acronym,validVotesPercentage,votes,dicofre
União das freguesias de Silva Escura e Dornelas,PPD/PSD,35.94,239,011711
União das freguesias de Silva Escura e Dornelas,PS,27.67,184,011711
União das freguesias de Silva Escura e Dornelas,CDS-PP,15.19,101,011711
União das freguesias de Silva Escura e Dornelas,B.E.,5.41,36,011711
União das freguesias de Silva Escura e Dornelas,PAN,4.36,29,011711
União das freguesias de Silva Escura e Dornelas,PCP-PEV,2.41,16,011711
União das freguesias de Silva Escura e Dornelas,A,1.8,12,011711
União das freguesias de Silva Escura e Dornelas,PPM.PPV/CDC,1.5,10,011711
União das freguesias de Silva Escura e Dornelas,NC,1.05,7,011711
União das freguesias de Silva Escura e Dornelas,PCTP/MRPP,1.05,7,011711
União das freguesias de Silva Escura e Dornelas,PDR,0.75,5,011711
União das freguesias de Silva Escura e Dornelas,L,0.6,4,011711
União das freguesias de Silva Escura e Dornelas,PURP,0.6,4,011711
União das freguesias de Silva Escura e Dornelas,IL,0.45,3,011711
União das freguesias de Silva Escura e Dornelas,MAS,0.45,3,011711
União das freguesias de Silva Escura e Dornelas,PTP,0.45,3,011711
União das freguesias de Silva Escura e Dornelas,PNR,0.3,2,011711
