freguesia,acronym,validVotesPercentage,votes,dicofre
União das freguesias de Reriz e Gafanhão,PS,46.97,93,180327
União das freguesias de Reriz e Gafanhão,PPD/PSD,26.77,53,180327
União das freguesias de Reriz e Gafanhão,CDS-PP,8.59,17,180327
União das freguesias de Reriz e Gafanhão,PCP-PEV,5.05,10,180327
União das freguesias de Reriz e Gafanhão,B.E.,3.54,7,180327
União das freguesias de Reriz e Gafanhão,PAN,3.54,7,180327
União das freguesias de Reriz e Gafanhão,PNR,1.52,3,180327
União das freguesias de Reriz e Gafanhão,PPM.PPV/CDC,1.52,3,180327
União das freguesias de Reriz e Gafanhão,MAS,0.51,1,180327
União das freguesias de Reriz e Gafanhão,PCTP/MRPP,0.51,1,180327
União das freguesias de Reriz e Gafanhão,PDR,0.51,1,180327
União das freguesias de Reriz e Gafanhão,PTP,0.51,1,180327
União das freguesias de Reriz e Gafanhão,PURP,0.51,1,180327
União das freguesias de Reriz e Gafanhão,A,0,0,180327
União das freguesias de Reriz e Gafanhão,IL,0,0,180327
União das freguesias de Reriz e Gafanhão,L,0,0,180327
União das freguesias de Reriz e Gafanhão,NC,0,0,180327
