freguesia,acronym,validVotesPercentage,votes,dicofre
União das freguesias de Vale do Seixo e Vila Garcia,PS,49.48,48,091333
União das freguesias de Vale do Seixo e Vila Garcia,PPD/PSD,32.99,32,091333
União das freguesias de Vale do Seixo e Vila Garcia,CDS-PP,5.15,5,091333
União das freguesias de Vale do Seixo e Vila Garcia,B.E.,3.09,3,091333
União das freguesias de Vale do Seixo e Vila Garcia,PDR,3.09,3,091333
União das freguesias de Vale do Seixo e Vila Garcia,A,2.06,2,091333
União das freguesias de Vale do Seixo e Vila Garcia,PAN,1.03,1,091333
União das freguesias de Vale do Seixo e Vila Garcia,PCP-PEV,1.03,1,091333
União das freguesias de Vale do Seixo e Vila Garcia,PCTP/MRPP,1.03,1,091333
União das freguesias de Vale do Seixo e Vila Garcia,PPM.PPV/CDC,1.03,1,091333
União das freguesias de Vale do Seixo e Vila Garcia,IL,0,0,091333
União das freguesias de Vale do Seixo e Vila Garcia,L,0,0,091333
União das freguesias de Vale do Seixo e Vila Garcia,MAS,0,0,091333
União das freguesias de Vale do Seixo e Vila Garcia,NC,0,0,091333
União das freguesias de Vale do Seixo e Vila Garcia,PNR,0,0,091333
União das freguesias de Vale do Seixo e Vila Garcia,PTP,0,0,091333
União das freguesias de Vale do Seixo e Vila Garcia,PURP,0,0,091333
