freguesia,acronym,validVotesPercentage,votes,dicofre
"União das freguesias de Santo Tirso, Couto (Santa Cristina e São Miguel) e Burgães",PS,43.53,2748,131437
"União das freguesias de Santo Tirso, Couto (Santa Cristina e São Miguel) e Burgães",PPD/PSD,24.11,1522,131437
"União das freguesias de Santo Tirso, Couto (Santa Cristina e São Miguel) e Burgães",B.E.,9.41,594,131437
"União das freguesias de Santo Tirso, Couto (Santa Cristina e São Miguel) e Burgães",CDS-PP,7.38,466,131437
"União das freguesias de Santo Tirso, Couto (Santa Cristina e São Miguel) e Burgães",PAN,4.96,313,131437
"União das freguesias de Santo Tirso, Couto (Santa Cristina e São Miguel) e Burgães",PCP-PEV,3.22,203,131437
"União das freguesias de Santo Tirso, Couto (Santa Cristina e São Miguel) e Burgães",L,1.39,88,131437
"União das freguesias de Santo Tirso, Couto (Santa Cristina e São Miguel) e Burgães",A,1.22,77,131437
"União das freguesias de Santo Tirso, Couto (Santa Cristina e São Miguel) e Burgães",NC,1.16,73,131437
"União das freguesias de Santo Tirso, Couto (Santa Cristina e São Miguel) e Burgães",IL,0.82,52,131437
"União das freguesias de Santo Tirso, Couto (Santa Cristina e São Miguel) e Burgães",PPM.PPV/CDC,0.74,47,131437
"União das freguesias de Santo Tirso, Couto (Santa Cristina e São Miguel) e Burgães",PDR,0.63,40,131437
"União das freguesias de Santo Tirso, Couto (Santa Cristina e São Miguel) e Burgães",PCTP/MRPP,0.46,29,131437
"União das freguesias de Santo Tirso, Couto (Santa Cristina e São Miguel) e Burgães",PURP,0.3,19,131437
"União das freguesias de Santo Tirso, Couto (Santa Cristina e São Miguel) e Burgães",PNR,0.25,16,131437
"União das freguesias de Santo Tirso, Couto (Santa Cristina e São Miguel) e Burgães",MAS,0.21,13,131437
"União das freguesias de Santo Tirso, Couto (Santa Cristina e São Miguel) e Burgães",PTP,0.21,13,131437
