freguesia,acronym,validVotesPercentage,votes,dicofre
União das freguesias de Talhinhas e Bagueixe,PS,44.14,49,040544
União das freguesias de Talhinhas e Bagueixe,PPD/PSD,22.52,25,040544
União das freguesias de Talhinhas e Bagueixe,CDS-PP,8.11,9,040544
União das freguesias de Talhinhas e Bagueixe,B.E.,7.21,8,040544
União das freguesias de Talhinhas e Bagueixe,PCP-PEV,4.5,5,040544
União das freguesias de Talhinhas e Bagueixe,PAN,3.6,4,040544
União das freguesias de Talhinhas e Bagueixe,MAS,2.7,3,040544
União das freguesias de Talhinhas e Bagueixe,PPM.PPV/CDC,2.7,3,040544
União das freguesias de Talhinhas e Bagueixe,PURP,1.8,2,040544
União das freguesias de Talhinhas e Bagueixe,L,0.9,1,040544
União das freguesias de Talhinhas e Bagueixe,NC,0.9,1,040544
União das freguesias de Talhinhas e Bagueixe,PCTP/MRPP,0.9,1,040544
União das freguesias de Talhinhas e Bagueixe,A,0,0,040544
União das freguesias de Talhinhas e Bagueixe,IL,0,0,040544
União das freguesias de Talhinhas e Bagueixe,PDR,0,0,040544
União das freguesias de Talhinhas e Bagueixe,PNR,0,0,040544
União das freguesias de Talhinhas e Bagueixe,PTP,0,0,040544
