freguesia,acronym,validVotesPercentage,votes,dicofre
União das freguesias de Vila Cova e Feitos,PPD/PSD,40.41,297,0302FH
União das freguesias de Vila Cova e Feitos,PS,31.97,235,0302FH
União das freguesias de Vila Cova e Feitos,CDS-PP,8.71,64,0302FH
União das freguesias de Vila Cova e Feitos,B.E.,4.49,33,0302FH
União das freguesias de Vila Cova e Feitos,PAN,3.27,24,0302FH
União das freguesias de Vila Cova e Feitos,PCP-PEV,1.77,13,0302FH
União das freguesias de Vila Cova e Feitos,A,1.36,10,0302FH
União das freguesias de Vila Cova e Feitos,L,1.36,10,0302FH
União das freguesias de Vila Cova e Feitos,NC,1.36,10,0302FH
União das freguesias de Vila Cova e Feitos,PPM.PPV/CDC,1.36,10,0302FH
União das freguesias de Vila Cova e Feitos,MAS,1.22,9,0302FH
União das freguesias de Vila Cova e Feitos,PDR,0.95,7,0302FH
União das freguesias de Vila Cova e Feitos,PURP,0.68,5,0302FH
União das freguesias de Vila Cova e Feitos,IL,0.41,3,0302FH
União das freguesias de Vila Cova e Feitos,PCTP/MRPP,0.27,2,0302FH
União das freguesias de Vila Cova e Feitos,PTP,0.27,2,0302FH
União das freguesias de Vila Cova e Feitos,PNR,0.14,1,0302FH
