freguesia,acronym,validVotesPercentage,votes,dicofre
União das freguesias de Além da Ribeira e Pedreira,PS,47.44,185,141817
União das freguesias de Além da Ribeira e Pedreira,PPD/PSD,20.51,80,141817
União das freguesias de Além da Ribeira e Pedreira,B.E.,9.49,37,141817
União das freguesias de Além da Ribeira e Pedreira,PCP-PEV,6.41,25,141817
União das freguesias de Além da Ribeira e Pedreira,CDS-PP,5.64,22,141817
União das freguesias de Além da Ribeira e Pedreira,PAN,4.1,16,141817
União das freguesias de Além da Ribeira e Pedreira,A,1.54,6,141817
União das freguesias de Além da Ribeira e Pedreira,PCTP/MRPP,1.28,5,141817
União das freguesias de Além da Ribeira e Pedreira,L,1.03,4,141817
União das freguesias de Além da Ribeira e Pedreira,PPM.PPV/CDC,0.77,3,141817
União das freguesias de Além da Ribeira e Pedreira,NC,0.51,2,141817
União das freguesias de Além da Ribeira e Pedreira,PNR,0.51,2,141817
União das freguesias de Além da Ribeira e Pedreira,PURP,0.51,2,141817
União das freguesias de Além da Ribeira e Pedreira,PTP,0.26,1,141817
União das freguesias de Além da Ribeira e Pedreira,IL,0,0,141817
União das freguesias de Além da Ribeira e Pedreira,MAS,0,0,141817
União das freguesias de Além da Ribeira e Pedreira,PDR,0,0,141817
