freguesia,acronym,validVotesPercentage,votes,dicofre
União das freguesias de Caparrosa e Silvares,PS,43.3,139,182128
União das freguesias de Caparrosa e Silvares,PPD/PSD,39.88,128,182128
União das freguesias de Caparrosa e Silvares,CDS-PP,5.92,19,182128
União das freguesias de Caparrosa e Silvares,B.E.,3.12,10,182128
União das freguesias de Caparrosa e Silvares,PCP-PEV,2.49,8,182128
União das freguesias de Caparrosa e Silvares,PAN,1.25,4,182128
União das freguesias de Caparrosa e Silvares,MAS,0.93,3,182128
União das freguesias de Caparrosa e Silvares,PPM.PPV/CDC,0.93,3,182128
União das freguesias de Caparrosa e Silvares,A,0.62,2,182128
União das freguesias de Caparrosa e Silvares,L,0.62,2,182128
União das freguesias de Caparrosa e Silvares,NC,0.31,1,182128
União das freguesias de Caparrosa e Silvares,PCTP/MRPP,0.31,1,182128
União das freguesias de Caparrosa e Silvares,PTP,0.31,1,182128
União das freguesias de Caparrosa e Silvares,IL,0,0,182128
União das freguesias de Caparrosa e Silvares,PDR,0,0,182128
União das freguesias de Caparrosa e Silvares,PNR,0,0,182128
União das freguesias de Caparrosa e Silvares,PURP,0,0,182128
