freguesia,acronym,validVotesPercentage,votes,dicofre
União das freguesias de Areias de Vilar e Encourados,PPD/PSD,39.27,238,030292
União das freguesias de Areias de Vilar e Encourados,PS,30.69,186,030292
União das freguesias de Areias de Vilar e Encourados,CDS-PP,11.22,68,030292
União das freguesias de Areias de Vilar e Encourados,B.E.,5.12,31,030292
União das freguesias de Areias de Vilar e Encourados,PAN,3.96,24,030292
União das freguesias de Areias de Vilar e Encourados,PCP-PEV,2.48,15,030292
União das freguesias de Areias de Vilar e Encourados,PPM.PPV/CDC,1.32,8,030292
União das freguesias de Areias de Vilar e Encourados,MAS,0.99,6,030292
União das freguesias de Areias de Vilar e Encourados,PCTP/MRPP,0.99,6,030292
União das freguesias de Areias de Vilar e Encourados,L,0.83,5,030292
União das freguesias de Areias de Vilar e Encourados,NC,0.83,5,030292
União das freguesias de Areias de Vilar e Encourados,PDR,0.66,4,030292
União das freguesias de Areias de Vilar e Encourados,A,0.5,3,030292
União das freguesias de Areias de Vilar e Encourados,PNR,0.5,3,030292
União das freguesias de Areias de Vilar e Encourados,PTP,0.5,3,030292
União das freguesias de Areias de Vilar e Encourados,PURP,0.17,1,030292
União das freguesias de Areias de Vilar e Encourados,IL,0,0,030292
