freguesia,acronym,validVotesPercentage,votes,dicofre
União das freguesias de Tornada e Salir do Porto,PS,38.04,450,100619
União das freguesias de Tornada e Salir do Porto,PPD/PSD,19.95,236,100619
União das freguesias de Tornada e Salir do Porto,B.E.,14.29,169,100619
União das freguesias de Tornada e Salir do Porto,PAN,6.17,73,100619
União das freguesias de Tornada e Salir do Porto,CDS-PP,5.75,68,100619
União das freguesias de Tornada e Salir do Porto,PCP-PEV,4.73,56,100619
União das freguesias de Tornada e Salir do Porto,L,2.54,30,100619
União das freguesias de Tornada e Salir do Porto,A,2.37,28,100619
União das freguesias de Tornada e Salir do Porto,NC,2.11,25,100619
União das freguesias de Tornada e Salir do Porto,PCTP/MRPP,1.1,13,100619
União das freguesias de Tornada e Salir do Porto,PPM.PPV/CDC,1.1,13,100619
União das freguesias de Tornada e Salir do Porto,PNR,0.42,5,100619
União das freguesias de Tornada e Salir do Porto,IL,0.34,4,100619
União das freguesias de Tornada e Salir do Porto,PDR,0.34,4,100619
União das freguesias de Tornada e Salir do Porto,PURP,0.34,4,100619
União das freguesias de Tornada e Salir do Porto,PTP,0.25,3,100619
União das freguesias de Tornada e Salir do Porto,MAS,0.17,2,100619
