freguesia,acronym,validVotesPercentage,votes,dicofre
União das freguesias de Serra e Junceira,PPD/PSD,38.61,222,141820
União das freguesias de Serra e Junceira,PS,28.7,165,141820
União das freguesias de Serra e Junceira,CDS-PP,7.65,44,141820
União das freguesias de Serra e Junceira,B.E.,6.61,38,141820
União das freguesias de Serra e Junceira,A,4.52,26,141820
União das freguesias de Serra e Junceira,PAN,4,23,141820
União das freguesias de Serra e Junceira,PCP-PEV,2.26,13,141820
União das freguesias de Serra e Junceira,L,1.74,10,141820
União das freguesias de Serra e Junceira,PCTP/MRPP,1.22,7,141820
União das freguesias de Serra e Junceira,PPM.PPV/CDC,1.04,6,141820
União das freguesias de Serra e Junceira,PDR,0.87,5,141820
União das freguesias de Serra e Junceira,NC,0.7,4,141820
União das freguesias de Serra e Junceira,PTP,0.7,4,141820
União das freguesias de Serra e Junceira,PNR,0.52,3,141820
União das freguesias de Serra e Junceira,PURP,0.52,3,141820
União das freguesias de Serra e Junceira,IL,0.17,1,141820
União das freguesias de Serra e Junceira,MAS,0.17,1,141820
