freguesia,acronym,validVotesPercentage,votes,dicofre
União das freguesias de Bacelo e Senhora da Saúde,PS,35.44,1070,070522
União das freguesias de Bacelo e Senhora da Saúde,PCP-PEV,15.77,476,070522
União das freguesias de Bacelo e Senhora da Saúde,PPD/PSD,15.47,467,070522
União das freguesias de Bacelo e Senhora da Saúde,B.E.,12.49,377,070522
União das freguesias de Bacelo e Senhora da Saúde,CDS-PP,6.29,190,070522
União das freguesias de Bacelo e Senhora da Saúde,PAN,4.5,136,070522
União das freguesias de Bacelo e Senhora da Saúde,L,2.09,63,070522
União das freguesias de Bacelo e Senhora da Saúde,A,2.02,61,070522
União das freguesias de Bacelo e Senhora da Saúde,PPM.PPV/CDC,1.59,48,070522
União das freguesias de Bacelo e Senhora da Saúde,NC,1.03,31,070522
União das freguesias de Bacelo e Senhora da Saúde,PCTP/MRPP,0.93,28,070522
União das freguesias de Bacelo e Senhora da Saúde,PNR,0.66,20,070522
União das freguesias de Bacelo e Senhora da Saúde,IL,0.63,19,070522
União das freguesias de Bacelo e Senhora da Saúde,PURP,0.53,16,070522
União das freguesias de Bacelo e Senhora da Saúde,PDR,0.36,11,070522
União das freguesias de Bacelo e Senhora da Saúde,MAS,0.1,3,070522
União das freguesias de Bacelo e Senhora da Saúde,PTP,0.1,3,070522
