freguesia,acronym,validVotesPercentage,votes,dicofre
União das freguesias de Penso e Freixinho,PPD/PSD,53.24,74,181820
União das freguesias de Penso e Freixinho,PS,28.78,40,181820
União das freguesias de Penso e Freixinho,B.E.,4.32,6,181820
União das freguesias de Penso e Freixinho,CDS-PP,3.6,5,181820
União das freguesias de Penso e Freixinho,PAN,2.88,4,181820
União das freguesias de Penso e Freixinho,L,2.16,3,181820
União das freguesias de Penso e Freixinho,PCP-PEV,1.44,2,181820
União das freguesias de Penso e Freixinho,A,0.72,1,181820
União das freguesias de Penso e Freixinho,IL,0.72,1,181820
União das freguesias de Penso e Freixinho,MAS,0.72,1,181820
União das freguesias de Penso e Freixinho,PPM.PPV/CDC,0.72,1,181820
União das freguesias de Penso e Freixinho,PURP,0.72,1,181820
União das freguesias de Penso e Freixinho,NC,0,0,181820
União das freguesias de Penso e Freixinho,PCTP/MRPP,0,0,181820
União das freguesias de Penso e Freixinho,PDR,0,0,181820
União das freguesias de Penso e Freixinho,PNR,0,0,181820
União das freguesias de Penso e Freixinho,PTP,0,0,181820
