freguesia,acronym,validVotesPercentage,votes,dicofre
União das freguesias da Sé e São Lourenço,PS,39.09,1549,121411
União das freguesias da Sé e São Lourenço,PPD/PSD,19.63,778,121411
União das freguesias da Sé e São Lourenço,B.E.,11.28,447,121411
União das freguesias da Sé e São Lourenço,CDS-PP,8.2,325,121411
União das freguesias da Sé e São Lourenço,PCP-PEV,7.85,311,121411
União das freguesias da Sé e São Lourenço,PAN,3.48,138,121411
União das freguesias da Sé e São Lourenço,A,2.32,92,121411
União das freguesias da Sé e São Lourenço,PPM.PPV/CDC,2.32,92,121411
União das freguesias da Sé e São Lourenço,L,1.46,58,121411
União das freguesias da Sé e São Lourenço,IL,0.96,38,121411
União das freguesias da Sé e São Lourenço,PCTP/MRPP,0.86,34,121411
União das freguesias da Sé e São Lourenço,PNR,0.83,33,121411
União das freguesias da Sé e São Lourenço,NC,0.81,32,121411
União das freguesias da Sé e São Lourenço,PURP,0.48,19,121411
União das freguesias da Sé e São Lourenço,PDR,0.25,10,121411
União das freguesias da Sé e São Lourenço,PTP,0.13,5,121411
União das freguesias da Sé e São Lourenço,MAS,0.05,2,121411
