freguesia,acronym,validVotesPercentage,votes,dicofre
União das freguesias do Ameixial (Santa Vitória e São Bento),PS,42.86,90,070417
União das freguesias do Ameixial (Santa Vitória e São Bento),PPD/PSD,14.76,31,070417
União das freguesias do Ameixial (Santa Vitória e São Bento),PCP-PEV,11.9,25,070417
União das freguesias do Ameixial (Santa Vitória e São Bento),CDS-PP,9.05,19,070417
União das freguesias do Ameixial (Santa Vitória e São Bento),PPM.PPV/CDC,8.57,18,070417
União das freguesias do Ameixial (Santa Vitória e São Bento),B.E.,7.62,16,070417
União das freguesias do Ameixial (Santa Vitória e São Bento),L,2.38,5,070417
União das freguesias do Ameixial (Santa Vitória e São Bento),PAN,1.43,3,070417
União das freguesias do Ameixial (Santa Vitória e São Bento),NC,0.95,2,070417
União das freguesias do Ameixial (Santa Vitória e São Bento),PURP,0.48,1,070417
União das freguesias do Ameixial (Santa Vitória e São Bento),A,0,0,070417
União das freguesias do Ameixial (Santa Vitória e São Bento),IL,0,0,070417
União das freguesias do Ameixial (Santa Vitória e São Bento),MAS,0,0,070417
União das freguesias do Ameixial (Santa Vitória e São Bento),PCTP/MRPP,0,0,070417
União das freguesias do Ameixial (Santa Vitória e São Bento),PDR,0,0,070417
União das freguesias do Ameixial (Santa Vitória e São Bento),PNR,0,0,070417
União das freguesias do Ameixial (Santa Vitória e São Bento),PTP,0,0,070417
