freguesia,acronym,validVotesPercentage,votes,dicofre
União das freguesias de Santa Cruz/Trindade e Sanjurge,PS,38.23,307,170358
União das freguesias de Santa Cruz/Trindade e Sanjurge,PPD/PSD,34.87,280,170358
União das freguesias de Santa Cruz/Trindade e Sanjurge,B.E.,7.47,60,170358
União das freguesias de Santa Cruz/Trindade e Sanjurge,PAN,4.73,38,170358
União das freguesias de Santa Cruz/Trindade e Sanjurge,CDS-PP,3.74,30,170358
União das freguesias de Santa Cruz/Trindade e Sanjurge,PCP-PEV,3.49,28,170358
União das freguesias de Santa Cruz/Trindade e Sanjurge,A,1.62,13,170358
União das freguesias de Santa Cruz/Trindade e Sanjurge,NC,1.25,10,170358
União das freguesias de Santa Cruz/Trindade e Sanjurge,PDR,1.25,10,170358
União das freguesias de Santa Cruz/Trindade e Sanjurge,PPM.PPV/CDC,1.25,10,170358
União das freguesias de Santa Cruz/Trindade e Sanjurge,L,0.75,6,170358
União das freguesias de Santa Cruz/Trindade e Sanjurge,IL,0.5,4,170358
União das freguesias de Santa Cruz/Trindade e Sanjurge,PCTP/MRPP,0.37,3,170358
União das freguesias de Santa Cruz/Trindade e Sanjurge,PNR,0.37,3,170358
União das freguesias de Santa Cruz/Trindade e Sanjurge,PURP,0.12,1,170358
União das freguesias de Santa Cruz/Trindade e Sanjurge,MAS,0,0,170358
União das freguesias de Santa Cruz/Trindade e Sanjurge,PTP,0,0,170358
