freguesia,acronym,validVotesPercentage,votes,dicofre
União das freguesias de Cebolais de Cima e Retaxo,PS,55.11,361,050226
União das freguesias de Cebolais de Cima e Retaxo,PPD/PSD,11.91,78,050226
União das freguesias de Cebolais de Cima e Retaxo,B.E.,9.31,61,050226
União das freguesias de Cebolais de Cima e Retaxo,PCP-PEV,7.94,52,050226
União das freguesias de Cebolais de Cima e Retaxo,CDS-PP,4.58,30,050226
União das freguesias de Cebolais de Cima e Retaxo,PPM.PPV/CDC,3.05,20,050226
União das freguesias de Cebolais de Cima e Retaxo,PAN,2.29,15,050226
União das freguesias de Cebolais de Cima e Retaxo,L,1.22,8,050226
União das freguesias de Cebolais de Cima e Retaxo,A,1.07,7,050226
União das freguesias de Cebolais de Cima e Retaxo,PCTP/MRPP,0.61,4,050226
União das freguesias de Cebolais de Cima e Retaxo,PNR,0.61,4,050226
União das freguesias de Cebolais de Cima e Retaxo,MAS,0.46,3,050226
União das freguesias de Cebolais de Cima e Retaxo,NC,0.46,3,050226
União das freguesias de Cebolais de Cima e Retaxo,PDR,0.46,3,050226
União das freguesias de Cebolais de Cima e Retaxo,PURP,0.46,3,050226
União das freguesias de Cebolais de Cima e Retaxo,PTP,0.31,2,050226
União das freguesias de Cebolais de Cima e Retaxo,IL,0.15,1,050226
