freguesia,acronym,validVotesPercentage,votes,dicofre
União das freguesias de Cibões e Brufe,PPD/PSD,64.29,63,031020
União das freguesias de Cibões e Brufe,PS,16.33,16,031020
União das freguesias de Cibões e Brufe,CDS-PP,6.12,6,031020
União das freguesias de Cibões e Brufe,A,4.08,4,031020
União das freguesias de Cibões e Brufe,B.E.,4.08,4,031020
União das freguesias de Cibões e Brufe,PAN,2.04,2,031020
União das freguesias de Cibões e Brufe,L,1.02,1,031020
União das freguesias de Cibões e Brufe,PCP-PEV,1.02,1,031020
União das freguesias de Cibões e Brufe,PDR,1.02,1,031020
União das freguesias de Cibões e Brufe,IL,0,0,031020
União das freguesias de Cibões e Brufe,MAS,0,0,031020
União das freguesias de Cibões e Brufe,NC,0,0,031020
União das freguesias de Cibões e Brufe,PCTP/MRPP,0,0,031020
União das freguesias de Cibões e Brufe,PNR,0,0,031020
União das freguesias de Cibões e Brufe,PPM.PPV/CDC,0,0,031020
União das freguesias de Cibões e Brufe,PTP,0,0,031020
União das freguesias de Cibões e Brufe,PURP,0,0,031020
