freguesia,acronym,validVotesPercentage,votes,dicofre
União das freguesias de Abrigada e Cabanas de Torres,PS,43.63,575,110117
União das freguesias de Abrigada e Cabanas de Torres,PCP-PEV,17.45,230,110117
União das freguesias de Abrigada e Cabanas de Torres,PPD/PSD,12.14,160,110117
União das freguesias de Abrigada e Cabanas de Torres,B.E.,9.79,129,110117
União das freguesias de Abrigada e Cabanas de Torres,CDS-PP,4.7,62,110117
União das freguesias de Abrigada e Cabanas de Torres,PAN,2.5,33,110117
União das freguesias de Abrigada e Cabanas de Torres,PCTP/MRPP,2.05,27,110117
União das freguesias de Abrigada e Cabanas de Torres,A,1.9,25,110117
União das freguesias de Abrigada e Cabanas de Torres,PPM.PPV/CDC,1.75,23,110117
União das freguesias de Abrigada e Cabanas de Torres,PNR,0.99,13,110117
União das freguesias de Abrigada e Cabanas de Torres,L,0.91,12,110117
União das freguesias de Abrigada e Cabanas de Torres,IL,0.53,7,110117
União das freguesias de Abrigada e Cabanas de Torres,NC,0.46,6,110117
União das freguesias de Abrigada e Cabanas de Torres,PURP,0.46,6,110117
União das freguesias de Abrigada e Cabanas de Torres,PDR,0.38,5,110117
União das freguesias de Abrigada e Cabanas de Torres,PTP,0.23,3,110117
União das freguesias de Abrigada e Cabanas de Torres,MAS,0.15,2,110117
