freguesia,acronym,validVotesPercentage,votes,dicofre
"União das freguesias de Valbom (São Pedro), Passô e Valbom (São Martinho)",PPD/PSD,55.94,113,031368
"União das freguesias de Valbom (São Pedro), Passô e Valbom (São Martinho)",PS,26.24,53,031368
"União das freguesias de Valbom (São Pedro), Passô e Valbom (São Martinho)",CDS-PP,6.93,14,031368
"União das freguesias de Valbom (São Pedro), Passô e Valbom (São Martinho)",B.E.,2.48,5,031368
"União das freguesias de Valbom (São Pedro), Passô e Valbom (São Martinho)",PAN,1.98,4,031368
"União das freguesias de Valbom (São Pedro), Passô e Valbom (São Martinho)",PCP-PEV,1.98,4,031368
"União das freguesias de Valbom (São Pedro), Passô e Valbom (São Martinho)",A,1.49,3,031368
"União das freguesias de Valbom (São Pedro), Passô e Valbom (São Martinho)",IL,0.99,2,031368
"União das freguesias de Valbom (São Pedro), Passô e Valbom (São Martinho)",PNR,0.99,2,031368
"União das freguesias de Valbom (São Pedro), Passô e Valbom (São Martinho)",PPM.PPV/CDC,0.99,2,031368
"União das freguesias de Valbom (São Pedro), Passô e Valbom (São Martinho)",L,0,0,031368
"União das freguesias de Valbom (São Pedro), Passô e Valbom (São Martinho)",MAS,0,0,031368
"União das freguesias de Valbom (São Pedro), Passô e Valbom (São Martinho)",NC,0,0,031368
"União das freguesias de Valbom (São Pedro), Passô e Valbom (São Martinho)",PCTP/MRPP,0,0,031368
"União das freguesias de Valbom (São Pedro), Passô e Valbom (São Martinho)",PDR,0,0,031368
"União das freguesias de Valbom (São Pedro), Passô e Valbom (São Martinho)",PTP,0,0,031368
"União das freguesias de Valbom (São Pedro), Passô e Valbom (São Martinho)",PURP,0,0,031368
