freguesia,acronym,validVotesPercentage,votes,dicofre
Urqueira,PPD/PSD,47.62,200,142114
Urqueira,PS,24.76,104,142114
Urqueira,CDS-PP,9.05,38,142114
Urqueira,B.E.,7.14,30,142114
Urqueira,PAN,3.1,13,142114
Urqueira,PPM.PPV/CDC,1.43,6,142114
Urqueira,PCP-PEV,1.19,5,142114
Urqueira,L,0.95,4,142114
Urqueira,MAS,0.95,4,142114
Urqueira,A,0.71,3,142114
Urqueira,NC,0.71,3,142114
Urqueira,PCTP/MRPP,0.71,3,142114
Urqueira,PTP,0.48,2,142114
Urqueira,PURP,0.48,2,142114
Urqueira,IL,0.24,1,142114
Urqueira,PDR,0.24,1,142114
Urqueira,PNR,0.24,1,142114
