freguesia,acronym,validVotesPercentage,votes,dicofre
Vade (São Pedro),PPD/PSD,62.5,60,160623
Vade (São Pedro),PS,21.88,21,160623
Vade (São Pedro),PAN,5.21,5,160623
Vade (São Pedro),B.E.,4.17,4,160623
Vade (São Pedro),L,2.08,2,160623
Vade (São Pedro),A,1.04,1,160623
Vade (São Pedro),MAS,1.04,1,160623
Vade (São Pedro),PPM.PPV/CDC,1.04,1,160623
Vade (São Pedro),PTP,1.04,1,160623
Vade (São Pedro),CDS-PP,0,0,160623
Vade (São Pedro),IL,0,0,160623
Vade (São Pedro),NC,0,0,160623
Vade (São Pedro),PCP-PEV,0,0,160623
Vade (São Pedro),PCTP/MRPP,0,0,160623
Vade (São Pedro),PDR,0,0,160623
Vade (São Pedro),PNR,0,0,160623
Vade (São Pedro),PURP,0,0,160623
