freguesia,acronym,validVotesPercentage,votes,dicofre
Vale de Anta,PPD/PSD,33.09,138,170341
Vale de Anta,PS,31.18,130,170341
Vale de Anta,B.E.,14.63,61,170341
Vale de Anta,CDS-PP,3.84,16,170341
Vale de Anta,PCP-PEV,3.84,16,170341
Vale de Anta,PAN,3.6,15,170341
Vale de Anta,PPM.PPV/CDC,2.88,12,170341
Vale de Anta,A,1.2,5,170341
Vale de Anta,PCTP/MRPP,1.2,5,170341
Vale de Anta,PDR,1.2,5,170341
Vale de Anta,IL,0.96,4,170341
Vale de Anta,L,0.96,4,170341
Vale de Anta,PNR,0.72,3,170341
Vale de Anta,NC,0.24,1,170341
Vale de Anta,PTP,0.24,1,170341
Vale de Anta,PURP,0.24,1,170341
Vale de Anta,MAS,0,0,170341
