freguesia,acronym,validVotesPercentage,votes,dicofre
Vale das Fontes,PPD/PSD,48.6,52,041227
Vale das Fontes,PS,36.45,39,041227
Vale das Fontes,PAN,3.74,4,041227
Vale das Fontes,CDS-PP,2.8,3,041227
Vale das Fontes,B.E.,1.87,2,041227
Vale das Fontes,PCP-PEV,1.87,2,041227
Vale das Fontes,PCTP/MRPP,1.87,2,041227
Vale das Fontes,A,0.93,1,041227
Vale das Fontes,PNR,0.93,1,041227
Vale das Fontes,PTP,0.93,1,041227
Vale das Fontes,IL,0,0,041227
Vale das Fontes,L,0,0,041227
Vale das Fontes,MAS,0,0,041227
Vale das Fontes,NC,0,0,041227
Vale das Fontes,PDR,0,0,041227
Vale das Fontes,PPM.PPV/CDC,0,0,041227
Vale das Fontes,PURP,0,0,041227
