freguesia,acronym,validVotesPercentage,votes,dicofre
Vale do Paraíso,PS,47.46,159,110306
Vale do Paraíso,B.E.,16.12,54,110306
Vale do Paraíso,PCP-PEV,14.63,49,110306
Vale do Paraíso,PPD/PSD,6.87,23,110306
Vale do Paraíso,L,2.99,10,110306
Vale do Paraíso,PAN,2.99,10,110306
Vale do Paraíso,CDS-PP,2.09,7,110306
Vale do Paraíso,PCTP/MRPP,1.79,6,110306
Vale do Paraíso,PPM.PPV/CDC,1.79,6,110306
Vale do Paraíso,A,1.49,5,110306
Vale do Paraíso,MAS,0.6,2,110306
Vale do Paraíso,IL,0.3,1,110306
Vale do Paraíso,PDR,0.3,1,110306
Vale do Paraíso,PTP,0.3,1,110306
Vale do Paraíso,PURP,0.3,1,110306
Vale do Paraíso,NC,0,0,110306
Vale do Paraíso,PNR,0,0,110306
