freguesia,acronym,validVotesPercentage,votes,dicofre
Vale da Mula,PS,40.68,24,090227
Vale da Mula,PPD/PSD,35.59,21,090227
Vale da Mula,B.E.,10.17,6,090227
Vale da Mula,PCP-PEV,10.17,6,090227
Vale da Mula,PDR,1.69,1,090227
Vale da Mula,PPM.PPV/CDC,1.69,1,090227
Vale da Mula,A,0,0,090227
Vale da Mula,CDS-PP,0,0,090227
Vale da Mula,IL,0,0,090227
Vale da Mula,L,0,0,090227
Vale da Mula,MAS,0,0,090227
Vale da Mula,NC,0,0,090227
Vale da Mula,PAN,0,0,090227
Vale da Mula,PCTP/MRPP,0,0,090227
Vale da Mula,PNR,0,0,090227
Vale da Mula,PTP,0,0,090227
Vale da Mula,PURP,0,0,090227
