freguesia,acronym,validVotesPercentage,votes,dicofre
Vale de Asnes,PPD/PSD,46.03,29,040731
Vale de Asnes,PS,23.81,15,040731
Vale de Asnes,CDS-PP,12.7,8,040731
Vale de Asnes,B.E.,9.52,6,040731
Vale de Asnes,PNR,3.17,2,040731
Vale de Asnes,A,1.59,1,040731
Vale de Asnes,PAN,1.59,1,040731
Vale de Asnes,PCTP/MRPP,1.59,1,040731
Vale de Asnes,IL,0,0,040731
Vale de Asnes,L,0,0,040731
Vale de Asnes,MAS,0,0,040731
Vale de Asnes,NC,0,0,040731
Vale de Asnes,PCP-PEV,0,0,040731
Vale de Asnes,PDR,0,0,040731
Vale de Asnes,PPM.PPV/CDC,0,0,040731
Vale de Asnes,PTP,0,0,040731
Vale de Asnes,PURP,0,0,040731
