freguesia,acronym,validVotesPercentage,votes,dicofre
Vale da Madre,PPD/PSD,55.1,27,040822
Vale da Madre,PS,22.45,11,040822
Vale da Madre,CDS-PP,12.24,6,040822
Vale da Madre,B.E.,4.08,2,040822
Vale da Madre,A,2.04,1,040822
Vale da Madre,PAN,2.04,1,040822
Vale da Madre,PCP-PEV,2.04,1,040822
Vale da Madre,IL,0,0,040822
Vale da Madre,L,0,0,040822
Vale da Madre,MAS,0,0,040822
Vale da Madre,NC,0,0,040822
Vale da Madre,PCTP/MRPP,0,0,040822
Vale da Madre,PDR,0,0,040822
Vale da Madre,PNR,0,0,040822
Vale da Madre,PPM.PPV/CDC,0,0,040822
Vale da Madre,PTP,0,0,040822
Vale da Madre,PURP,0,0,040822
