freguesia,acronym,validVotesPercentage,votes,dicofre
Vale de Gouvinhas,PS,42.86,33,040732
Vale de Gouvinhas,PPD/PSD,23.38,18,040732
Vale de Gouvinhas,CDS-PP,10.39,8,040732
Vale de Gouvinhas,B.E.,9.09,7,040732
Vale de Gouvinhas,PCP-PEV,3.9,3,040732
Vale de Gouvinhas,PNR,3.9,3,040732
Vale de Gouvinhas,PAN,2.6,2,040732
Vale de Gouvinhas,NC,1.3,1,040732
Vale de Gouvinhas,PPM.PPV/CDC,1.3,1,040732
Vale de Gouvinhas,PURP,1.3,1,040732
Vale de Gouvinhas,A,0,0,040732
Vale de Gouvinhas,IL,0,0,040732
Vale de Gouvinhas,L,0,0,040732
Vale de Gouvinhas,MAS,0,0,040732
Vale de Gouvinhas,PCTP/MRPP,0,0,040732
Vale de Gouvinhas,PDR,0,0,040732
Vale de Gouvinhas,PTP,0,0,040732
