freguesia,acronym,validVotesPercentage,votes,dicofre
Valoura,PPD/PSD,57.14,80,171313
Valoura,PS,34.29,48,171313
Valoura,CDS-PP,2.14,3,171313
Valoura,PNR,1.43,2,171313
Valoura,PTP,1.43,2,171313
Valoura,B.E.,0.71,1,171313
Valoura,MAS,0.71,1,171313
Valoura,PCTP/MRPP,0.71,1,171313
Valoura,PPM.PPV/CDC,0.71,1,171313
Valoura,PURP,0.71,1,171313
Valoura,A,0,0,171313
Valoura,IL,0,0,171313
Valoura,L,0,0,171313
Valoura,NC,0,0,171313
Valoura,PAN,0,0,171313
Valoura,PCP-PEV,0,0,171313
Valoura,PDR,0,0,171313
