freguesia,acronym,validVotesPercentage,votes,dicofre
Vera Cruz,PS,52.99,62,070908
Vera Cruz,PCP-PEV,30.77,36,070908
Vera Cruz,PPD/PSD,4.27,5,070908
Vera Cruz,B.E.,3.42,4,070908
Vera Cruz,PPM.PPV/CDC,3.42,4,070908
Vera Cruz,PAN,1.71,2,070908
Vera Cruz,A,0.85,1,070908
Vera Cruz,IL,0.85,1,070908
Vera Cruz,PCTP/MRPP,0.85,1,070908
Vera Cruz,PNR,0.85,1,070908
Vera Cruz,CDS-PP,0,0,070908
Vera Cruz,L,0,0,070908
Vera Cruz,MAS,0,0,070908
Vera Cruz,NC,0,0,070908
Vera Cruz,PDR,0,0,070908
Vera Cruz,PTP,0,0,070908
Vera Cruz,PURP,0,0,070908
