freguesia,acronym,validVotesPercentage,votes,dicofre
Verdoejo,PS,49.76,103,160816
Verdoejo,PPD/PSD,20.29,42,160816
Verdoejo,B.E.,10.14,21,160816
Verdoejo,PCP-PEV,6.76,14,160816
Verdoejo,CDS-PP,4.35,9,160816
Verdoejo,PCTP/MRPP,1.93,4,160816
Verdoejo,PAN,1.45,3,160816
Verdoejo,PTP,1.45,3,160816
Verdoejo,PDR,0.97,2,160816
Verdoejo,PNR,0.97,2,160816
Verdoejo,PPM.PPV/CDC,0.97,2,160816
Verdoejo,A,0.48,1,160816
Verdoejo,L,0.48,1,160816
Verdoejo,IL,0,0,160816
Verdoejo,MAS,0,0,160816
Verdoejo,NC,0,0,160816
Verdoejo,PURP,0,0,160816
