freguesia,acronym,validVotesPercentage,votes,dicofre
Vilarinho de São Romão,PPD/PSD,39.39,26,171015
Vilarinho de São Romão,PS,30.3,20,171015
Vilarinho de São Romão,B.E.,10.61,7,171015
Vilarinho de São Romão,PAN,9.09,6,171015
Vilarinho de São Romão,CDS-PP,4.55,3,171015
Vilarinho de São Romão,PPM.PPV/CDC,4.55,3,171015
Vilarinho de São Romão,L,1.52,1,171015
Vilarinho de São Romão,A,0,0,171015
Vilarinho de São Romão,IL,0,0,171015
Vilarinho de São Romão,MAS,0,0,171015
Vilarinho de São Romão,NC,0,0,171015
Vilarinho de São Romão,PCP-PEV,0,0,171015
Vilarinho de São Romão,PCTP/MRPP,0,0,171015
Vilarinho de São Romão,PDR,0,0,171015
Vilarinho de São Romão,PNR,0,0,171015
Vilarinho de São Romão,PTP,0,0,171015
Vilarinho de São Romão,PURP,0,0,171015
