freguesia,acronym,validVotesPercentage,votes,dicofre
Vila Boa de Quires e Maureles,PS,35.65,328,130741
Vila Boa de Quires e Maureles,PPD/PSD,35.33,325,130741
Vila Boa de Quires e Maureles,CDS-PP,9.02,83,130741
Vila Boa de Quires e Maureles,B.E.,6.41,59,130741
Vila Boa de Quires e Maureles,PAN,2.61,24,130741
Vila Boa de Quires e Maureles,MAS,2.28,21,130741
Vila Boa de Quires e Maureles,PCP-PEV,1.85,17,130741
Vila Boa de Quires e Maureles,PCTP/MRPP,1.52,14,130741
Vila Boa de Quires e Maureles,A,0.98,9,130741
Vila Boa de Quires e Maureles,PDR,0.87,8,130741
Vila Boa de Quires e Maureles,PPM.PPV/CDC,0.87,8,130741
Vila Boa de Quires e Maureles,L,0.65,6,130741
Vila Boa de Quires e Maureles,PTP,0.54,5,130741
Vila Boa de Quires e Maureles,IL,0.43,4,130741
Vila Boa de Quires e Maureles,NC,0.43,4,130741
Vila Boa de Quires e Maureles,PNR,0.33,3,130741
Vila Boa de Quires e Maureles,PURP,0.22,2,130741
