freguesia,acronym,validVotesPercentage,votes,dicofre
Vila Marim,PS,50.5,101,170407
Vila Marim,PPD/PSD,21.5,43,170407
Vila Marim,CDS-PP,9,18,170407
Vila Marim,B.E.,8,16,170407
Vila Marim,PAN,3,6,170407
Vila Marim,PCP-PEV,2.5,5,170407
Vila Marim,A,1.5,3,170407
Vila Marim,NC,1,2,170407
Vila Marim,L,0.5,1,170407
Vila Marim,PCTP/MRPP,0.5,1,170407
Vila Marim,PDR,0.5,1,170407
Vila Marim,PNR,0.5,1,170407
Vila Marim,PPM.PPV/CDC,0.5,1,170407
Vila Marim,PTP,0.5,1,170407
Vila Marim,IL,0,0,170407
Vila Marim,MAS,0,0,170407
Vila Marim,PURP,0,0,170407
