freguesia,acronym,validVotesPercentage,votes,dicofre
Vila Nova de Monsarros,PS,43.61,140,010312
Vila Nova de Monsarros,PPD/PSD,32.09,103,010312
Vila Nova de Monsarros,B.E.,9.66,31,010312
Vila Nova de Monsarros,CDS-PP,3.12,10,010312
Vila Nova de Monsarros,PAN,3.12,10,010312
Vila Nova de Monsarros,A,1.87,6,010312
Vila Nova de Monsarros,L,1.56,5,010312
Vila Nova de Monsarros,PCP-PEV,1.56,5,010312
Vila Nova de Monsarros,IL,1.25,4,010312
Vila Nova de Monsarros,MAS,0.62,2,010312
Vila Nova de Monsarros,NC,0.62,2,010312
Vila Nova de Monsarros,PCTP/MRPP,0.31,1,010312
Vila Nova de Monsarros,PPM.PPV/CDC,0.31,1,010312
Vila Nova de Monsarros,PURP,0.31,1,010312
Vila Nova de Monsarros,PDR,0,0,010312
Vila Nova de Monsarros,PNR,0,0,010312
Vila Nova de Monsarros,PTP,0,0,010312
