freguesia,acronym,validVotesPercentage,votes,dicofre
Vila Verde dos Francos,PS,55.7,176,110114
Vila Verde dos Francos,PPD/PSD,17.72,56,110114
Vila Verde dos Francos,B.E.,8.23,26,110114
Vila Verde dos Francos,PCP-PEV,5.06,16,110114
Vila Verde dos Francos,PAN,3.48,11,110114
Vila Verde dos Francos,PPM.PPV/CDC,2.53,8,110114
Vila Verde dos Francos,CDS-PP,1.9,6,110114
Vila Verde dos Francos,A,1.58,5,110114
Vila Verde dos Francos,PDR,0.95,3,110114
Vila Verde dos Francos,L,0.63,2,110114
Vila Verde dos Francos,PCTP/MRPP,0.63,2,110114
Vila Verde dos Francos,PTP,0.63,2,110114
Vila Verde dos Francos,NC,0.32,1,110114
Vila Verde dos Francos,PNR,0.32,1,110114
Vila Verde dos Francos,PURP,0.32,1,110114
Vila Verde dos Francos,IL,0,0,110114
Vila Verde dos Francos,MAS,0,0,110114
