freguesia,acronym,validVotesPercentage,votes,dicofre
Vila de Punhe,PS,49.7,334,160938
Vila de Punhe,PPD/PSD,19.64,132,160938
Vila de Punhe,B.E.,10.12,68,160938
Vila de Punhe,CDS-PP,5.36,36,160938
Vila de Punhe,PAN,4.76,32,160938
Vila de Punhe,PCP-PEV,3.72,25,160938
Vila de Punhe,L,1.93,13,160938
Vila de Punhe,NC,1.19,8,160938
Vila de Punhe,MAS,0.74,5,160938
Vila de Punhe,PCTP/MRPP,0.74,5,160938
Vila de Punhe,PDR,0.74,5,160938
Vila de Punhe,PPM.PPV/CDC,0.6,4,160938
Vila de Punhe,A,0.3,2,160938
Vila de Punhe,IL,0.15,1,160938
Vila de Punhe,PTP,0.15,1,160938
Vila de Punhe,PURP,0.15,1,160938
Vila de Punhe,PNR,0,0,160938
