freguesia,acronym,validVotesPercentage,votes,dicofre
Vila Nova de Souto d'El-Rei,PPD/PSD,40.38,86,180524
Vila Nova de Souto d'El-Rei,PS,25.35,54,180524
Vila Nova de Souto d'El-Rei,B.E.,8.92,19,180524
Vila Nova de Souto d'El-Rei,CDS-PP,8.92,19,180524
Vila Nova de Souto d'El-Rei,PAN,6.1,13,180524
Vila Nova de Souto d'El-Rei,PCP-PEV,3.76,8,180524
Vila Nova de Souto d'El-Rei,PPM.PPV/CDC,1.88,4,180524
Vila Nova de Souto d'El-Rei,NC,1.41,3,180524
Vila Nova de Souto d'El-Rei,PCTP/MRPP,1.41,3,180524
Vila Nova de Souto d'El-Rei,PNR,1.41,3,180524
Vila Nova de Souto d'El-Rei,PTP,0.47,1,180524
Vila Nova de Souto d'El-Rei,A,0,0,180524
Vila Nova de Souto d'El-Rei,IL,0,0,180524
Vila Nova de Souto d'El-Rei,L,0,0,180524
Vila Nova de Souto d'El-Rei,MAS,0,0,180524
Vila Nova de Souto d'El-Rei,PDR,0,0,180524
Vila Nova de Souto d'El-Rei,PURP,0,0,180524
