freguesia,acronym,validVotesPercentage,votes,dicofre
Vilarelhos,PS,50.46,55,040119
Vilarelhos,PPD/PSD,32.11,35,040119
Vilarelhos,CDS-PP,10.09,11,040119
Vilarelhos,PCP-PEV,4.59,5,040119
Vilarelhos,PAN,1.83,2,040119
Vilarelhos,PDR,0.92,1,040119
Vilarelhos,A,0,0,040119
Vilarelhos,B.E.,0,0,040119
Vilarelhos,IL,0,0,040119
Vilarelhos,L,0,0,040119
Vilarelhos,MAS,0,0,040119
Vilarelhos,NC,0,0,040119
Vilarelhos,PCTP/MRPP,0,0,040119
Vilarelhos,PNR,0,0,040119
Vilarelhos,PPM.PPV/CDC,0,0,040119
Vilarelhos,PTP,0,0,040119
Vilarelhos,PURP,0,0,040119
