freguesia,acronym,validVotesPercentage,votes,dicofre
Vila Nova da Rainha,PS,41.26,118,110307
Vila Nova da Rainha,PPD/PSD,13.29,38,110307
Vila Nova da Rainha,B.E.,12.94,37,110307
Vila Nova da Rainha,PCP-PEV,10.14,29,110307
Vila Nova da Rainha,PAN,5.94,17,110307
Vila Nova da Rainha,CDS-PP,3.85,11,110307
Vila Nova da Rainha,A,3.5,10,110307
Vila Nova da Rainha,PPM.PPV/CDC,3.5,10,110307
Vila Nova da Rainha,L,1.4,4,110307
Vila Nova da Rainha,IL,1.05,3,110307
Vila Nova da Rainha,PCTP/MRPP,0.7,2,110307
Vila Nova da Rainha,PDR,0.7,2,110307
Vila Nova da Rainha,PNR,0.7,2,110307
Vila Nova da Rainha,NC,0.35,1,110307
Vila Nova da Rainha,PTP,0.35,1,110307
Vila Nova da Rainha,PURP,0.35,1,110307
Vila Nova da Rainha,MAS,0,0,110307
