freguesia,acronym,validVotesPercentage,votes,dicofre
Vimeiro,PPD/PSD,33.56,147,110808
Vimeiro,PS,33.33,146,110808
Vimeiro,B.E.,6.39,28,110808
Vimeiro,PAN,6.16,27,110808
Vimeiro,CDS-PP,5.94,26,110808
Vimeiro,PPM.PPV/CDC,5.25,23,110808
Vimeiro,PCP-PEV,3.42,15,110808
Vimeiro,PNR,1.37,6,110808
Vimeiro,NC,1.14,5,110808
Vimeiro,A,0.91,4,110808
Vimeiro,L,0.91,4,110808
Vimeiro,IL,0.46,2,110808
Vimeiro,PDR,0.46,2,110808
Vimeiro,MAS,0.23,1,110808
Vimeiro,PCTP/MRPP,0.23,1,110808
Vimeiro,PTP,0.23,1,110808
Vimeiro,PURP,0,0,110808
