freguesia,acronym,validVotesPercentage,votes,dicofre
Vimieiro,PS,43.7,59,070206
Vimieiro,PCP-PEV,20,27,070206
Vimieiro,PPD/PSD,14.81,20,070206
Vimieiro,B.E.,5.93,8,070206
Vimieiro,CDS-PP,5.93,8,070206
Vimieiro,PCTP/MRPP,3.7,5,070206
Vimieiro,NC,1.48,2,070206
Vimieiro,PAN,1.48,2,070206
Vimieiro,A,0.74,1,070206
Vimieiro,PDR,0.74,1,070206
Vimieiro,PPM.PPV/CDC,0.74,1,070206
Vimieiro,PURP,0.74,1,070206
Vimieiro,IL,0,0,070206
Vimieiro,L,0,0,070206
Vimieiro,MAS,0,0,070206
Vimieiro,PNR,0,0,070206
Vimieiro,PTP,0,0,070206
