freguesia,acronym,validVotesPercentage,votes,dicofre
Vreia de Jales,PS,44.16,121,171316
Vreia de Jales,PPD/PSD,36.5,100,171316
Vreia de Jales,CDS-PP,5.47,15,171316
Vreia de Jales,B.E.,4.38,12,171316
Vreia de Jales,PCTP/MRPP,2.55,7,171316
Vreia de Jales,PCP-PEV,1.46,4,171316
Vreia de Jales,PAN,1.09,3,171316
Vreia de Jales,PPM.PPV/CDC,1.09,3,171316
Vreia de Jales,A,0.73,2,171316
Vreia de Jales,PTP,0.73,2,171316
Vreia de Jales,L,0.36,1,171316
Vreia de Jales,MAS,0.36,1,171316
Vreia de Jales,NC,0.36,1,171316
Vreia de Jales,PDR,0.36,1,171316
Vreia de Jales,PURP,0.36,1,171316
Vreia de Jales,IL,0,0,171316
Vreia de Jales,PNR,0,0,171316
