freguesia,acronym,validVotesPercentage,votes,dicofre
Zoio,PPD/PSD,46,23,040249
Zoio,PS,34,17,040249
Zoio,CDS-PP,6,3,040249
Zoio,B.E.,4,2,040249
Zoio,PCTP/MRPP,4,2,040249
Zoio,A,2,1,040249
Zoio,PNR,2,1,040249
Zoio,PURP,2,1,040249
Zoio,IL,0,0,040249
Zoio,L,0,0,040249
Zoio,MAS,0,0,040249
Zoio,NC,0,0,040249
Zoio,PAN,0,0,040249
Zoio,PCP-PEV,0,0,040249
Zoio,PDR,0,0,040249
Zoio,PPM.PPV/CDC,0,0,040249
Zoio,PTP,0,0,040249
