freguesia,acronym,validVotesPercentage,votes,dicofre
Águas Livres,PS,42.81,4838,111513
Águas Livres,PPD/PSD,13.96,1578,111513
Águas Livres,B.E.,11.87,1342,111513
Águas Livres,PCP-PEV,10.1,1141,111513
Águas Livres,PAN,6.57,743,111513
Águas Livres,CDS-PP,3.88,438,111513
Águas Livres,PPM.PPV/CDC,2.27,256,111513
Águas Livres,A,2.14,242,111513
Águas Livres,L,1.76,199,111513
Águas Livres,NC,1.23,139,111513
Águas Livres,PCTP/MRPP,0.81,92,111513
Águas Livres,IL,0.61,69,111513
Águas Livres,PNR,0.6,68,111513
Águas Livres,PURP,0.44,50,111513
Águas Livres,PDR,0.33,37,111513
Águas Livres,MAS,0.32,36,111513
Águas Livres,PTP,0.3,34,111513
