Distritos,Concelho,População,Santo
Santarém,Abrantes, 36 062,
Aveiro,Águeda, 46 467,
Guarda,Aguiar da Beira, 4 883,
Évora,Alandroal, 5 218,
Aveiro,Albergaria-a-Velha, 24 304,
Faro,Albufeira, 40 729,
Setúbal ,Alcácer do Sal, 11 927,São João
Santarém,Alcanena, 13 012,
Leiria,Alcobaça, 54 376,
Setúbal ,Alcochete, 19 153,São João
Faro,Alcoutim, 2 361,
Lisboa,Alenquer, 43 390,
Bragança,Alfândega da Fé, 4 607,São Pedro
Vila Real,Alijó, 10 870,
Faro,Aljezur, 5 597,
Beja,Aljustrel, 8 445,Santo António
Setúbal ,Almada, 169 241,São João
Guarda,Almeida, 6 133,
Santarém,Almeirim, 22 847,
Beja,Almodôvar, 6 851,São João
Santarém,Alpiarça, 7 182,
Portalegre,Alter do Chão, 3 246,
Leiria,Alvaiázere, 6 750,Santo António
Beja,Alvito, 2 464,
Lisboa,Amadora, 179 056,
Porto,Amarante, 53 781,
Braga ,Amares, 18 165,Santo António
Aveiro,Anadia, 27 691,
Açores,Angra do Heroísmo, 34 264,São João
Leiria,Ansião, 12 360,
Viana do Castelo,Arcos de Valdevez, 21 234,
Coimbra,Arganil, 11 249,
Viseu,Armamar, 5 857,São João
Aveiro,Arouca, 21 125,
Évora,Arraiolos, 7 028,
Portalegre,Arronches, 2 931,São João
Lisboa,Arruda dos Vinhos, 14 814,
Aveiro,Aveiro, 77 436,
Portalegre,Avis, 4 313,
Lisboa,Azambuja, 22 308,
Porto,Baião, 19 153,
Braga,Barcelos, 117 345,
Beja,Barrancos, 1 678,
Setúbal ,Barreiro, 75 847,
Leiria,Batalha, 15 844,
Beja,Beja, 33 913,
Castelo Branco,Belmonte, 6 483,
Santarém,Benavente, 30 019,
Leiria,Bombarral, 12 593,São Pedro
Évora,Borba, 6 915,
Vila Real,Boticas, 5 178,
Braga,Braga, 181 282,São João
Bragança,Bragança, 33 717,
Braga,Cabeceiras de Basto, 15 889,
Lisboa,Cadaval, 13 750,
Leiria,Caldas da Rainha, 51 581,
Açores,Calheta [R.A.A.], 3 257,
Madeira,Calheta [R.A.M.], 10 924,São João
Madeira,Câmara de Lobos, 33 947,
Viana do Castelo,Caminha, 15 934,
Portalegre,Campo Maior, 8 069,
Coimbra,Cantanhede, 35 477,
Bragança,Carrazeda de Ansiães, 5 763,
Viseu,Carregal do Sal, 9 420,
Santarém,Cartaxo, 23 897,
Lisboa,Cascais, 211 302,Santo António
Leiria,Castanheira de Pêra, 2 712,
Castelo Branco,Castelo Branco, 52 915,
Aveiro,Castelo de Paiva, 15 738,São João
Portalegre,Castelo de Vide, 3 035,
Viseu,Castro Daire, 14 252,São Pedro
Faro,Castro Marim, 6 369,São João
Beja,Castro Verde, 7 046,São Pedro
Guarda,Celorico da Beira, 7 116,
Braga,Celorico de Basto, 19 264,
Santarém,Chamusca, 9 448,
Vila Real,Chaves, 39 591,
Viseu,Cinfães, 18 775,São João
Coimbra,Coimbra, 134 252,
Coimbra,Condeixa-a-Nova, 17 528,
Santarém,Constância, 3 994,
Santarém,Coruche, 18 126,
Açores,Corvo, 461,
Castelo Branco,Covilhã, 47 922,
Portalegre,Crato, 3 276,
Beja,Cuba, 4 678,
Portalegre,Elvas, 21 134,
Santarém,Entroncamento, 20 916,
Aveiro,Espinho, 29 547,
Braga,Esposende, 33 962,
Aveiro,Estarreja, 26 158,Santo António
Évora,Estremoz, 13 066,
Évora,Évora, 53 084,São Pedro
Braga,Fafe, 48 742,
Faro,Faro, 60 997,
Porto,Felgueiras, 56 838,São Pedro
Beja,Ferreira do Alentejo, 7 928,
Santarém,Ferreira do Zêzere, 8 091,Santo António
Coimbra,Figueira da Foz, 59 675,São João
Guarda,Figueira de Castelo Rodrigo, 5 789,
Leiria,Figueiró dos Vinhos, 5 727,São João
Guarda,Fornos de Algodres, 4 683,
Bragança,Freixo de Espada à Cinta, 3 384,
Portalegre,Fronteira, 3 036,
Madeira,Funchal, 104 628,
Castelo Branco,Fundão, 27 197,
Portalegre,Gavião, 3 490,
Coimbra,Góis, 3 913,
Santarém,Golegã, 5 478,
Porto,Gondomar, 165 685,
Guarda,Gouveia, 12 817,
Setúbal ,Grândola, 14 644,
Guarda,Guarda, 39 672,
Braga,Guimarães, 153 645,
Açores,Horta, 14 700,São João
Castelo Branco,Idanha-a-Nova, 8 450,
Aveiro,Ílhavo, 38 430,
Faro,Lagoa, 22 776,
Açores,Lagoa [R.A.A.], 14 711,
Faro,Lagos, 30 629,
Açores,Lajes das Flores, 1 490,
Açores,Lajes do Pico, 4 571,
Viseu,Lamego, 25 155,
Leiria,Leiria, 125 415,
Lisboa,Lisboa, 505 526,Santo António
Faro,Loulé, 69 194,
Lisboa,Loures, 208 505,
Lisboa,Lourinhã, 25 647,São João
Coimbra,Lousã, 17 196,São João
Porto,Lousada, 46 870,
Santarém,Mação, 6 519,
Bragança,Macedo de Cavaleiros, 14 683,São Pedro
Madeira,Machico, 20 363,
Açores,Madalena, 5 929,
Lisboa,Mafra, 82 935,
Porto,Maia, 136 390,
Viseu,Mangualde, 18 938,
Guarda,Manteigas, 3 117,
Porto,Marco de Canaveses, 51 991,
Leiria,Marinha Grande, 38 544,
Portalegre,Marvão, 3 149,
Porto,Matosinhos, 173 546,
Aveiro,Mealhada, 20 047,
Guarda,Mêda, 4 715,
Santarém,Médio Tejo, 235 456,
Viana do Castelo,Melgaço, 8 325,
Beja,Mértola, 6 372,São João
Vila Real,Mesão Frio, 4 038,
Coimbra,Mira, 11 975,
Coimbra,Miranda do Corvo, 12 811,
Bragança,Miranda do Douro, 6 979,
Bragança,Mirandela, 22 052,
Bragança,Mogadouro, 8 624,
Viseu,Moimenta da Beira, 9 762,São João
Setúbal ,Moita, 64 692,
Viana do Castelo,Monção, 18 117,
Faro,Monchique, 5 332,
Vila Real,Mondim de Basto, 7 046,
Portalegre,Monforte, 3 045,
Vila Real,Montalegre, 9 280,
Évora,Montemor-o-Novo, 16 036,
Coimbra,Montemor-o-Velho, 25 485,
Setúbal ,Montijo, 56 024,São Pedro
Évora,Mora, 4 333,
Viseu,Mortágua, 9 012,
Beja,Moura, 14 004,São João
Évora,Mourão, 2 498,
Vila Real,Murça, 5 536,
Aveiro,Murtosa, 10 324,
Leiria,Nazaré, 14 309,
Viseu,Nelas, 13 278,São João
Portalegre,Nisa, 6 369,
Açores,Nordeste, 4 930,
Leiria,Óbidos, 11 683,
Beja,Odemira, 24 829,
Lisboa,Odivelas, 156 956,
Lisboa,Oeiras, 174 737,
Castelo Branco,Oleiros, 5 159,
Faro,Olhão, 44 996,
Aveiro,Oliveira de Azeméis, 66 377,
Viseu,Oliveira de Frades, 9 977,
Aveiro,Oliveira do Bairro, 23 797,
Coimbra,Oliveira do Hospital, 19 666,
Santarém,Ourém, 44 579,
Beja,Ourique, 4 780,
Aveiro,Ovar, 54 400,
Porto,Paços de Ferreira, 56 772,
Setúbal ,Palmela, 64 188,
Coimbra,Pampilhosa da Serra, 4 099,
Porto,Paredes, 86 189,
Viana do Castelo,Paredes de Coura, 8 665,
Leiria,Pedrógão Grande, 3 498,
Coimbra,Penacova, 14 100,
Porto,Penafiel, 70 206,
Viseu,Penalva do Castelo, 7 335,
Castelo Branco,Penamacor, 4 963,
Viseu,Penedono, 2 663,São Pedro
Coimbra,Penela, 5 521,
Leiria,Peniche, 26 766,
Vila Real,Peso da Régua, 15 982,
Guarda,Pinhel, 8 785,
Leiria,Pombal, 52 648,
Açores,Ponta Delgada, 68 204,
Madeira,Ponta do Sol, 8 558,
Viana do Castelo,Ponte da Barca, 11 340,
Viana do Castelo,Ponte de Lima, 41 892,
Portalegre,Ponte de Sor, 15 387,
Portalegre,Portalegre, 22 775,
Évora,Portel, 5 977,
Faro,Portimão, 55 392,
Porto,Porto, 214 353,São João
Leiria,Porto de Mós, 23 545,São Pedro
Madeira,Porto Moniz, 2 380,
Madeira,Porto Santo, 5 168,
Braga,Póvoa de Lanhoso, 21 493,
Porto,Póvoa de Varzim, 62 360,São Pedro
Açores,Povoação, 6 038,
Castelo Branco,Proença-a-Nova, 7 564,Santo António
Évora,Redondo, 6 521,
Aveiro,Região de Aveiro, 363 424,
Évora,Reguengos de Monsaraz, 10 191,Santo António
Viseu,Resende, 10 426,
Madeira,Ribeira Brava, 12 437,São Pedro
Vila Real,Ribeira de Pena, 6 116,
Açores,Ribeira Grande, 32 746,São Pedro
Santarém,Rio Maior, 20 510,
Vila Real,Sabrosa, 5 947,
Guarda,Sabugal, 11 123,
Santarém,Salvaterra de Magos, 21 494,
Viseu,Santa Comba Dão, 10 698,
Lisboa,Santa Cruz, 44 222,
Açores,Santa Cruz da Graciosa, 4 284,
Açores,Santa Cruz das Flores, 2 188,São João
Aveiro,Santa Maria da Feira, 138 740,
Vila Real,Santa Marta de Penaguião, 6 734,
Madeira,Santana, 6 842,
Santarém,Santarém, 58 039,
Setúbal ,Santiago do Cacém, 28 970,
Porto,Santo Tirso, 68 754,
Faro,São Brás de Alportel, 10 498,
Aveiro,São João da Madeira, 21 521,
Viseu,São João da Pesqueira, 7 237,São João
Viseu,São Pedro do Sul, 15 780,São Pedro
Açores,São Roque do Pico, 3 287,
Lisboa,São Vicente, 5 156,
Santarém,Sardoal, 3 785,
Viseu,Sátão, 11 789,
Guarda,Seia, 22 885,
Setúbal ,Seixal, 165 547,São Pedro
Viseu,Sernancelhe, 5 419,
Beja,Serpa, 14 715,
Castelo Branco,Sertã, 14 919,
Setúbal ,Sesimbra, 51 127,
Setúbal ,Setúbal, 116 655,
Aveiro,Sever do Vouga, 11 623,
Faro,Silves, 36 367,
Setúbal ,Sines, 13 664,
Lisboa,Sintra, 384 992,São Pedro
Lisboa,Sobral de Monte Agraço, 10 352,
Coimbra,Soure, 17 660,
Portalegre,Sousel, 4 571,
Coimbra,Tábua, 11 576,
Viseu,Tabuaço, 6 060,São João
Viseu,Tarouca, 7 748,
Faro,Tavira, 25 139,São João
Braga,Terras de Bouro, 6 524,
Santarém,Tomar, 37 573,
Viseu,Tondela, 27 129,
Bragança,Torre de Moncorvo, 7 825,
Santarém,Torres Novas, 35 314,
Lisboa,Torres Vedras, 78 609,
Guarda,Trancoso, 9 141,
Porto,Trofa, 38 234,
Aveiro,Vagos, 22 797,
Aveiro,Vale de Cambra, 21 601,Santo António
Viana do Castelo,Valença, 13 389,
Porto,Valongo, 95 660,São João
Vila Real,Valpaços, 15 224,
Açores,Velas, 5 192,
Évora,Vendas Novas, 11 422,
Évora,Viana do Alentejo, 5 232,
Viana do Castelo,Viana do Castelo, 85 231,
Beja,Vidigueira, 5 575,
Braga,Vieira do Minho, 12 076,
Açores,Vila da Praia da Vitória, 21 473,
Castelo Branco,Vila de Rei, 3 346,
Faro,Vila do Bispo, 5 177,
Porto,Vila do Conde, 79 373,São João
Açores,Vila do Porto, 5 651,São João
Bragança,Vila Flor, 6 148,
Lisboa,Vila Franca de Xira, 141 036,
Açores,Vila Franca do Campo, 11 202,São João
Santarém,Vila Nova da Barquinha, 7 348,Santo António
Viana do Castelo,Vila Nova de Cerveira, 8 870,
Braga,Vila Nova de Famalicão, 132 123,Santo António
Guarda,Vila Nova de Foz Côa, 6 635,
Porto,Vila Nova de Gaia, 299 911,São João
Viseu,Vila Nova de Paiva, 4 813,
Coimbra,Vila Nova de Poiares, 6 990,
Vila Real,Vila Pouca de Aguiar, 12 161,
Vila Real,Vila Real, 50 012,Santo António
Faro,Vila Real de Santo António, 18 994,
Castelo Branco,Vila Velha de Ródão, 3 223,
Braga,Vila Verde, 47 032,Santo António
Évora,Vila Viçosa, 7 854,
Bragança,Vimioso, 4 133,
Bragança,Vinhais, 8 037,
Viseu,Viseu, 97 636,
Braga,Vizela, 23 750,
Viseu,Vouzela, 9 855,