{
  "data" : [
    [
      "1",
      "Colégio Nossa Senhora do Rosário",
      "PRI",
      "Porto",
      "Porto",
      "14,98"
    ],
    [
      "2",
      "Colégio St. Peter's School",
      "PRI",
      "Setúbal",
      "Palmela",
      "14,65"
    ],
    [
      "3",
      "Colégio D. Diogo de Sousa",
      "PRI",
      "Braga",
      "Braga",
      "14,34"
    ],
    [
      "4",
      "Salesianos do Estoril - Escola",
      "PRI",
      "Lisboa",
      "Cascais",
      "14,30"
    ],
    [
      "5",
      "Colégio Luso-Francês",
      "PRI",
      "Porto",
      "Porto",
      "14,11"
    ],
    [
      "6",
      "Colégio São João de Brito",
      "PRI",
      "Lisboa",
      "Lisboa",
      "13,94"
    ],
    [
      "7",
      "Colégio Oficinas de São José",
      "PRI",
      "Lisboa",
      "Lisboa",
      "13,91"
    ],
    [
      "8",
      "Colégio Terras de Santa Maria",
      "PRI",
      "Aveiro",
      "Santa Maria da Feira",
      "13,88"
    ],
    [
      "9",
      "Colégio Casa Mãe",
      "PRI",
      "Porto",
      "Paredes",
      "13,81"
    ],
    [
      "10",
      "Colégio Maristas de Carcavelos",
      "PRI",
      "Lisboa",
      "Cascais",
      "13,79"
    ],
    [
      "11",
      "Colégio da Rainha Santa Isabel",
      "PRI",
      "Coimbra",
      "Coimbra",
      "13,78"
    ],
    [
      "12",
      "Grande Colégio Universal",
      "PRI",
      "Porto",
      "Porto",
      "13,75"
    ],
    [
      "13",
      "Colégio Manuel Bernardes",
      "PRI",
      "Lisboa",
      "Lisboa",
      "13,68"
    ],
    [
      "14",
      "Colégio Paulo VI",
      "PRI",
      "Porto",
      "Gondomar",
      "13,49"
    ],
    [
      "15",
      "Colégio Bartolomeu Dias",
      "PRI",
      "Lisboa",
      "Loures",
      "13,46"
    ],
    [
      "16",
      "Colégio Valsassina",
      "PRI",
      "Lisboa",
      "Lisboa",
      "13,40"
    ],
    [
      "17",
      "Colégio Santo André",
      "PRI",
      "Lisboa",
      "Mafra",
      "13,39"
    ],
    [
      "18",
      "Colégio do Sagrado Coração de Maria",
      "PRI",
      "Lisboa",
      "Lisboa",
      "13,38"
    ],
    [
      "19",
      "Colégio de Santa Doroteia",
      "PRI",
      "Lisboa",
      "Lisboa",
      "13,37"
    ],
    [
      "20",
      "Externato Ribadouro",
      "PRI",
      "Porto",
      "Porto",
      "13,14"
    ],
    [
      "21",
      "Colégio da Associação Cultural e Recreativa de Fornelos",
      "PRI",
      "Braga",
      "Fafe",
      "13,10"
    ],
    [
      "22",
      "Colégio Moderno",
      "PRI",
      "Lisboa",
      "Lisboa",
      "13,06"
    ],
    [
      "23",
      "Colégio São Tomás",
      "PRI",
      "Lisboa",
      "Lisboa",
      "12,99"
    ],
    [
      "24",
      "Colégio de Nossa Senhora da Assunção",
      "PRI",
      "Aveiro",
      "Anadia",
      "12,94"
    ],
    [
      "25",
      "Colégio Novo da Maia",
      "PRI",
      "Porto",
      "Maia",
      "12,84"
    ],
    [
      "26",
      "Colégio Nossa Senhora da Bonança",
      "PRI",
      "Porto",
      "Vila Nova de Gaia",
      "12,72"
    ],
    [
      "27",
      "Externato Marista de Lisboa",
      "PRI",
      "Lisboa",
      "Lisboa",
      "12,69"
    ],
    [
      "28",
      "Colégio Internato dos Carvalhos",
      "PRI",
      "Porto",
      "Vila Nova de Gaia",
      "12,59"
    ],
    [
      "29",
      "Colégio Campo de Flores",
      "PRI",
      "Setúbal",
      "Almada",
      "12,56"
    ],
    [
      "30",
      "Escola Secundária Infanta D. Maria",
      "PUB",
      "Coimbra",
      "Coimbra",
      "12,48"
    ],
    [
      "31",
      "Colégio Guadalupe",
      "PRI",
      "Setúbal",
      "Seixal",
      "12,42"
    ],
    [
      "32",
      "Colégio Pedro Arrupe",
      "PRI",
      "Lisboa",
      "Lisboa",
      "12,38"
    ],
    [
      "33",
      "Colégio São Miguel",
      "PRI",
      "Santarém",
      "Ourém",
      "12,27"
    ],
    [
      "34",
      "Colégio Rainha D. Leonor",
      "PRI",
      "Leiria",
      "Caldas da Rainha",
      "12,26"
    ],
    [
      "35",
      "Colégio do Minho",
      "PRI",
      "Viana do Castelo",
      "Viana do Castelo",
      "12,24"
    ],
    [
      "36",
      "Colégio São Gonçalo",
      "PRI",
      "Porto",
      "Amarante",
      "12,15"
    ],
    [
      "37",
      "Escola Secundária José Falcão",
      "PUB",
      "Coimbra",
      "Coimbra",
      "12,13"
    ],
    [
      "38",
      "Escola Secundária de Porto de Mós",
      "PUB",
      "Leiria",
      "Porto de Mós",
      "12,12"
    ],
    [
      "39",
      "Escola Secundária Frei Rosa Viterbo",
      "PUB",
      "Viseu",
      "Sátão",
      "12,12"
    ],
    [
      "40",
      "Escola Secundária Alves Martins",
      "PUB",
      "Viseu",
      "Viseu",
      "12,07"
    ],
    [
      "41",
      "Externato João Alberto Faria",
      "PRI",
      "Lisboa",
      "Arruda dos Vinhos",
      "12,05"
    ],
    [
      "42",
      "Escola INED - Nevogilde",
      "PRI",
      "Porto",
      "Porto",
      "12,05"
    ],
    [
      "43",
      "Colégio Cebes",
      "PRI",
      "Porto",
      "Porto",
      "12,02"
    ],
    [
      "44",
      "Instituto de Ciências Educativas",
      "PRI",
      "Lisboa",
      "Odivelas",
      "11,98"
    ],
    [
      "45",
      "Escola Básica e Secundária Clara de Resende",
      "PUB",
      "Porto",
      "Porto",
      "11,96"
    ],
    [
      "46",
      "Escola Secundária Nuno Álvares",
      "PUB",
      "Castelo Branco",
      "Castelo Branco",
      "11,96"
    ],
    [
      "47",
      "Escola Básica e Secundária D. Filipa de Lencastre",
      "PUB",
      "Lisboa",
      "Lisboa",
      "11,91"
    ],
    [
      "48",
      "Colégio da Trofa",
      "PRI",
      "Porto",
      "Trofa",
      "11,90"
    ],
    [
      "49",
      "Escola Secundária de Raúl Proença",
      "PUB",
      "Leiria",
      "Caldas da Rainha",
      "11,86"
    ],
    [
      "50",
      "Colégio Dr. Luís Pereira da Costa",
      "PRI",
      "Leiria",
      "Leiria",
      "11,86"
    ],
    [
      "51",
      "Escola Secundária do Restelo",
      "PUB",
      "Lisboa",
      "Lisboa",
      "11,85"
    ],
    [
      "52",
      "Escola Secundária Garcia de Orta",
      "PUB",
      "Porto",
      "Porto",
      "11,84"
    ],
    [
      "53",
      "Escola Básica e Secundária da Batalha",
      "PUB",
      "Leiria",
      "Batalha",
      "11,81"
    ],
    [
      "54",
      "Escola Secundária com 3º Ciclo Pedro Nunes",
      "PUB",
      "Lisboa",
      "Lisboa",
      "11,79"
    ],
    [
      "55",
      "Escola Secundária da Trofa",
      "PUB",
      "Porto",
      "Trofa",
      "11,79"
    ],
    [
      "56",
      "Externato Infante D. Henrique",
      "PRI",
      "Braga",
      "Braga",
      "11,78"
    ],
    [
      "57",
      "Colégio Miramar",
      "PRI",
      "Lisboa",
      "Mafra",
      "11,77"
    ],
    [
      "58",
      "Escola Secundária Dr. Joaquim Gomes Ferreira Alves",
      "PUB",
      "Porto",
      "Vila Nova de Gaia",
      "11,76"
    ],
    [
      "59",
      "Escola Secundária Arco-Irís",
      "PUB",
      "Lisboa",
      "Loures",
      "11,75"
    ],
    [
      "60",
      "Cooperativa de Ensino DIDALVI - Alvito",
      "PRI",
      "Braga",
      "Barcelos",
      "11,73"
    ],
    [
      "61",
      "Escola Secundária de José Gomes Ferreira",
      "PUB",
      "Lisboa",
      "Lisboa",
      "11,73"
    ],
    [
      "62",
      "Escola Secundária de Vila Nova de Paiva",
      "PUB",
      "Viseu",
      "Vila Nova de Paiva",
      "11,73"
    ],
    [
      "63",
      "Escola Secundária Dr. Joaquim de Carvalho",
      "PUB",
      "Coimbra",
      "Figueira da Foz",
      "11,71"
    ],
    [
      "64",
      "Escola Secundária de Santa Maria Maior",
      "PUB",
      "Viana do Castelo",
      "Viana do Castelo",
      "11,70"
    ],
    [
      "65",
      "Colégio Vizela",
      "PRI",
      "Braga",
      "Guimarães",
      "11,66"
    ],
    [
      "66",
      "Escola Secundária Eça de Queirós, Póvoa de Varzim",
      "PUB",
      "Porto",
      "Póvoa de Varzim",
      "11,66"
    ],
    [
      "67",
      "Colégio do Amor de Deus",
      "PRI",
      "Lisboa",
      "Cascais",
      "11,64"
    ],
    [
      "68",
      "Escola Básica e Secundária Fernão do Pó",
      "PUB",
      "Leiria",
      "Bombarral",
      "11,61"
    ],
    [
      "69",
      "Escola Secundária Dr.ª Maria Cândida",
      "PUB",
      "Coimbra",
      "Mira",
      "11,61"
    ],
    [
      "70",
      "Escola Secundária Henrique Medina",
      "PUB",
      "Braga",
      "Esposende",
      "11,61"
    ],
    [
      "71",
      "Escola Secundária Aurélia de Sousa",
      "PUB",
      "Porto",
      "Porto",
      "11,55"
    ],
    [
      "72",
      "Escola Secundária da Quinta do Marquês",
      "PUB",
      "Lisboa",
      "Oeiras",
      "11,53"
    ],
    [
      "73",
      "Externato Camões",
      "PRI",
      "Porto",
      "Gondomar",
      "11,52"
    ],
    [
      "74",
      "Escola Básica e Secundária Dr. Manuel Gomes de Almeida",
      "PUB",
      "Aveiro",
      "Espinho",
      "11,51"
    ],
    [
      "75",
      "Escola Secundária Dr. Mário Sacramento",
      "PUB",
      "Aveiro",
      "Aveiro",
      "11,49"
    ],
    [
      "76",
      "Escola Secundária João Silva Correia",
      "PUB",
      "Aveiro",
      "São João da Madeira",
      "11,49"
    ],
    [
      "77",
      "Escola Secundária de Carregal do Sal",
      "PUB",
      "Viseu",
      "Carregal do Sal",
      "11,48"
    ],
    [
      "78",
      "Escola Secundária de Monserrate",
      "PUB",
      "Viana do Castelo",
      "Viana do Castelo",
      "11,47"
    ],
    [
      "79",
      "Escola Secundária Sebastião e Silva",
      "PUB",
      "Lisboa",
      "Oeiras",
      "11,46"
    ],
    [
      "80",
      "Escola Básica e Secundária de Arcozelo",
      "PUB",
      "Viana do Castelo",
      "Ponte de Lima",
      "11,45"
    ],
    [
      "81",
      "Escola Secundária de Ponte de Lima",
      "PUB",
      "Viana do Castelo",
      "Ponte de Lima",
      "11,41"
    ],
    [
      "82",
      "Escola Básica e Secundária Ferreira de Castro",
      "PUB",
      "Aveiro",
      "Oliveira de Azeméis",
      "11,40"
    ],
    [
      "83",
      "Instituto Nun'Álvares - Santo Tirso",
      "PRI",
      "Porto",
      "Santo Tirso",
      "11,37"
    ],
    [
      "84",
      "Escola Salesiana de Manique",
      "PRI",
      "Lisboa",
      "Cascais",
      "11,36"
    ],
    [
      "85",
      "Externato Delfim Ferreira - Delfinopolis",
      "PRI",
      "Braga",
      "Vila Nova de Famalicão",
      "11,35"
    ],
    [
      "86",
      "Escola Secundária Adolfo Portela",
      "PUB",
      "Aveiro",
      "Águeda",
      "11,34"
    ],
    [
      "87",
      "Escola Secundária da Lixa, Felgueiras",
      "PUB",
      "Porto",
      "Felgueiras",
      "11,34"
    ],
    [
      "88",
      "Escola Secundária do Cartaxo",
      "PUB",
      "Santarém",
      "Cartaxo",
      "11,34"
    ],
    [
      "89",
      "Colégio de Amorim",
      "PRI",
      "Porto",
      "Póvoa de Varzim",
      "11,33"
    ],
    [
      "90",
      "Escola Secundária Tomaz Pelayo",
      "PUB",
      "Porto",
      "Santo Tirso",
      "11,32"
    ],
    [
      "91",
      "Instituto D. João V",
      "PRI",
      "Leiria",
      "Pombal",
      "11,31"
    ],
    [
      "92",
      "Colégio de Albergaria",
      "PRI",
      "Aveiro",
      "Albergaria-a-Velha",
      "11,30"
    ],
    [
      "93",
      "Escola Secundária Carlos Amarante",
      "PUB",
      "Braga",
      "Braga",
      "11,30"
    ],
    [
      "94",
      "Escola Secundária João Gonçalves Zarco",
      "PUB",
      "Porto",
      "Matosinhos",
      "11,25"
    ],
    [
      "95",
      "Escola Básica e Secundária de Penalva do Castelo",
      "PUB",
      "Viseu",
      "Penalva do Castelo",
      "11,24"
    ],
    [
      "96",
      "Escola Secundária de Loulé",
      "PUB",
      "Faro",
      "Loulé",
      "11,23"
    ],
    [
      "97",
      "Escola Básica e Secundária Pedro da Fonseca",
      "PUB",
      "Castelo Branco",
      "Proença-a-Nova",
      "11,23"
    ],
    [
      "98",
      "Escola Secundária Vergílio Ferreira",
      "PUB",
      "Lisboa",
      "Lisboa",
      "11,18"
    ],
    [
      "99",
      "Escola Básica e Secundária Oliveira Júnior",
      "PUB",
      "Aveiro",
      "São João da Madeira",
      "11,17"
    ],
    [
      "100",
      "Cooperativa de Ensino Ancorensis",
      "PRI",
      "Viana do Castelo",
      "Caminha",
      "11,16"
    ],
    [
      "101",
      "Escola Secundária Morgado de Mateus, Vila Real",
      "PUB",
      "Vila Real",
      "Vila Real",
      "11,15"
    ],
    [
      "102",
      "Escola Secundária de Pinhel",
      "PUB",
      "Guarda",
      "Pinhel",
      "11,15"
    ],
    [
      "103",
      "Escola Básica e Secundária Josefa de Óbidos, Lisboa",
      "PUB",
      "Lisboa",
      "Lisboa",
      "11,15"
    ],
    [
      "104",
      "Escola Secundária de Tondela",
      "PUB",
      "Viseu",
      "Tondela",
      "11,14"
    ],
    [
      "105",
      "Escola Secundária de Severim de Faria",
      "PUB",
      "Évora",
      "Évora",
      "11,13"
    ],
    [
      "106",
      "Escola Secundária Dra. Felismina Alcântara, Mangualde",
      "PUB",
      "Viseu",
      "Mangualde",
      "11,13"
    ],
    [
      "107",
      "Escola Secundária Antero de Quental",
      "PUB",
      "R. A. Açores",
      "Ponta Delgada",
      "11,12"
    ],
    [
      "108",
      "Escola Secundária de Vagos",
      "PUB",
      "Aveiro",
      "Vagos",
      "11,11"
    ],
    [
      "109",
      "Escola Secundária José Estevão",
      "PUB",
      "Aveiro",
      "Aveiro",
      "11,11"
    ],
    [
      "110",
      "Escola Secundária de Barcelos",
      "PUB",
      "Braga",
      "Barcelos",
      "11,10"
    ],
    [
      "111",
      "Escola Secundária do Entroncamento",
      "PUB",
      "Santarém",
      "Entroncamento",
      "11,09"
    ],
    [
      "112",
      "Escola Secundária Professor José Augusto Lucas",
      "PUB",
      "Lisboa",
      "Oeiras",
      "11,09"
    ],
    [
      "113",
      "Escola Secundária D. Maria II",
      "PUB",
      "Braga",
      "Braga",
      "11,08"
    ],
    [
      "114",
      "Escola Secundária Domingos Sequeira",
      "PUB",
      "Leiria",
      "Leiria",
      "11,07"
    ],
    [
      "115",
      "Escola Secundária Artur Gonçalves",
      "PUB",
      "Santarém",
      "Torres Novas",
      "11,03"
    ],
    [
      "116",
      "Escola Secundária Rainha D. Amélia",
      "PUB",
      "Lisboa",
      "Lisboa",
      "11,03"
    ],
    [
      "117",
      "Escola Básica e Secundária de Vila Nova de Cerveira",
      "PUB",
      "Viana do Castelo",
      "Vila Nova de Cerveira",
      "11,01"
    ],
    [
      "118",
      "Escola Secundária de Almeida Garrett",
      "PUB",
      "Porto",
      "Vila Nova de Gaia",
      "10,99"
    ],
    [
      "119",
      "Escola Básica e Secundária Dr. Vieira de Carvalho",
      "PUB",
      "Porto",
      "Maia",
      "10,99"
    ],
    [
      "120",
      "Escola Secundária Bocage",
      "PUB",
      "Setúbal",
      "Setúbal",
      "10,99"
    ],
    [
      "121",
      "Escola Secundária de Nelas",
      "PUB",
      "Viseu",
      "Nelas",
      "10,98"
    ],
    [
      "122",
      "Escola Secundária de Amares",
      "PUB",
      "Braga",
      "Amares",
      "10,98"
    ],
    [
      "123",
      "Escola Secundária Afonso de Albuquerque",
      "PUB",
      "Guarda",
      "Guarda",
      "10,96"
    ],
    [
      "124",
      "Cooperativa de Ensino Didáxis",
      "PRI",
      "Braga",
      "Vila Nova de Famalicão",
      "10,94"
    ],
    [
      "125",
      "Escola Secundária da Sertã",
      "PUB",
      "Castelo Branco",
      "Sertã",
      "10,94"
    ],
    [
      "126",
      "Escola Secundária de José Belchior Viegas",
      "PUB",
      "Faro",
      "São Brás de Alportel",
      "10,94"
    ],
    [
      "127",
      "Escola Básica e Secundária Fernão de Magalhães, Chaves",
      "PUB",
      "Vila Real",
      "Chaves",
      "10,94"
    ],
    [
      "128",
      "Escola Secundária Dr. Ginestal Machado",
      "PUB",
      "Santarém",
      "Santarém",
      "10,94"
    ],
    [
      "129",
      "Escola Secundária de Miraflores",
      "PUB",
      "Lisboa",
      "Oeiras",
      "10,93"
    ],
    [
      "130",
      "Escola Secundária da Lousã",
      "PUB",
      "Coimbra",
      "Lousã",
      "10,93"
    ],
    [
      "131",
      "Escola Secundária Latino Coelho",
      "PUB",
      "Viseu",
      "Lamego",
      "10,93"
    ],
    [
      "132",
      "Escola Secundária Diogo de Gouveia",
      "PUB",
      "Beja",
      "Beja",
      "10,92"
    ],
    [
      "133",
      "Escola Secundária Padre Benjamim Salgado, Joane",
      "PUB",
      "Braga",
      "Vila Nova de Famalicão",
      "10,92"
    ],
    [
      "134",
      "Escola Secundária da Maia",
      "PUB",
      "Porto",
      "Maia",
      "10,92"
    ],
    [
      "135",
      "Escola Secundária de Silves",
      "PUB",
      "Faro",
      "Silves",
      "10,91"
    ],
    [
      "136",
      "Escola Secundária Stuart Carvalhais",
      "PUB",
      "Lisboa",
      "Sintra",
      "10,91"
    ],
    [
      "137",
      "Escola Secundária Manuel da Fonseca",
      "PUB",
      "Setúbal",
      "Santiago do Cacém",
      "10,91"
    ],
    [
      "138",
      "Escola Secundária Emídio Navarro, Viseu",
      "PUB",
      "Viseu",
      "Viseu",
      "10,90"
    ],
    [
      "139",
      "Escola Secundária de Barcelinhos",
      "PUB",
      "Braga",
      "Barcelos",
      "10,90"
    ],
    [
      "140",
      "Escola Secundária de Vila Verde",
      "PUB",
      "Braga",
      "Vila Verde",
      "10,89"
    ],
    [
      "141",
      "Escola Secundária do Fundão",
      "PUB",
      "Castelo Branco",
      "Fundão",
      "10,88"
    ],
    [
      "142",
      "Escola Secundária Santa Maria do Olival",
      "PUB",
      "Santarém",
      "Tomar",
      "10,86"
    ],
    [
      "143",
      "Escola Secundária Sá da Bandeira",
      "PUB",
      "Santarém",
      "Santarém",
      "10,86"
    ],
    [
      "144",
      "Escola Secundária de S. João do Estoril",
      "PUB",
      "Lisboa",
      "Cascais",
      "10,86"
    ],
    [
      "145",
      "Escola Secundária da Ramada",
      "PUB",
      "Lisboa",
      "Odivelas",
      "10,86"
    ],
    [
      "146",
      "Escola Secundária Camões",
      "PUB",
      "Lisboa",
      "Lisboa",
      "10,85"
    ],
    [
      "147",
      "Instituto Educativo do Juncal",
      "PRI",
      "Leiria",
      "Porto de Mós",
      "10,85"
    ],
    [
      "148",
      "Escola Secundária Alberto Sampaio",
      "PUB",
      "Braga",
      "Braga",
      "10,85"
    ],
    [
      "149",
      "Escola Básica e Secundária de Macedo de Cavaleiros",
      "PUB",
      "Bragança",
      "Macedo de Cavaleiros",
      "10,85"
    ],
    [
      "150",
      "Escola Secundária Dr. Augusto César S. Ferreira",
      "PUB",
      "Santarém",
      "Rio Maior",
      "10,84"
    ],
    [
      "151",
      "Escola Básica e Secundária de Búzio, Vale de Cambra",
      "PUB",
      "Aveiro",
      "Vale de Cambra",
      "10,83"
    ],
    [
      "152",
      "Escola Secundária Dr. António Carvalho Figueiredo",
      "PUB",
      "Lisboa",
      "Loures",
      "10,83"
    ],
    [
      "153",
      "Escola Secundária de Arganil",
      "PUB",
      "Coimbra",
      "Arganil",
      "10,82"
    ],
    [
      "154",
      "Colégio Militar",
      "PUB",
      "Lisboa",
      "Lisboa",
      "10,81"
    ],
    [
      "155",
      "Escola Secundária Lima de Faria, Cantanhede",
      "PUB",
      "Coimbra",
      "Cantanhede",
      "10,81"
    ],
    [
      "156",
      "Escola Secundária Francisco Rodrigues Lobo",
      "PUB",
      "Leiria",
      "Leiria",
      "10,80"
    ],
    [
      "157",
      "Escola Básica e Secundária Quinta das Flores",
      "PUB",
      "Coimbra",
      "Coimbra",
      "10,80"
    ],
    [
      "158",
      "Escola Secundária Rainha D. Leonor",
      "PUB",
      "Lisboa",
      "Lisboa",
      "10,80"
    ],
    [
      "159",
      "Escola Secundária de Gafanha da Nazaré",
      "PUB",
      "Aveiro",
      "Ílhavo",
      "10,79"
    ],
    [
      "160",
      "Escola Secundária Maria Lamas",
      "PUB",
      "Santarém",
      "Torres Novas",
      "10,79"
    ],
    [
      "161",
      "Escola Secundária de S. Pedro",
      "PUB",
      "Vila Real",
      "Vila Real",
      "10,79"
    ],
    [
      "162",
      "Escola Secundária Dr. António Granjo",
      "PUB",
      "Vila Real",
      "Chaves",
      "10,79"
    ],
    [
      "163",
      "Instituto Pedro Hispano",
      "PRI",
      "Coimbra",
      "Soure",
      "10,78"
    ],
    [
      "164",
      "Escola Básica e Secundária Joaquim Inácio da Cruz Sobral",
      "PUB",
      "Lisboa",
      "Sobral de Monte Agraço",
      "10,78"
    ],
    [
      "165",
      "Escola Secundária de São Pedro do Sul",
      "PUB",
      "Viseu",
      "São Pedro do Sul",
      "10,77"
    ],
    [
      "166",
      "Centro de Estudos de Fátima - CEF",
      "PRI",
      "Santarém",
      "Ourém",
      "10,77"
    ],
    [
      "167",
      "Escola Secundária de Arouca",
      "PUB",
      "Aveiro",
      "Arouca",
      "10,75"
    ],
    [
      "168",
      "Escola Secundária Augusto Gomes",
      "PUB",
      "Porto",
      "Matosinhos",
      "10,74"
    ],
    [
      "169",
      "Escola Secundária de Paços de Ferreira",
      "PUB",
      "Porto",
      "Paços de Ferreira",
      "10,74"
    ],
    [
      "170",
      "Escola Secundária Marquesa de Alorna, Almeirim",
      "PUB",
      "Santarém",
      "Almeirim",
      "10,74"
    ],
    [
      "171",
      "Escola Secundária Viriato",
      "PUB",
      "Viseu",
      "Viseu",
      "10,73"
    ],
    [
      "172",
      "Escola Secundária de Campo Maior",
      "PUB",
      "Portalegre",
      "Campo Maior",
      "10,73"
    ],
    [
      "173",
      "Escola Secundária Poeta Al Berto",
      "PUB",
      "Setúbal",
      "Sines",
      "10,73"
    ],
    [
      "174",
      "Escola Secundária Dr. Solano de Abreu",
      "PUB",
      "Santarém",
      "Abrantes",
      "10,71"
    ],
    [
      "175",
      "Escola Secundária de Felgueiras",
      "PUB",
      "Porto",
      "Felgueiras",
      "10,71"
    ],
    [
      "176",
      "Escola Secundária de Albergaria-a-Velha",
      "PUB",
      "Aveiro",
      "Albergaria-a-Velha",
      "10,71"
    ],
    [
      "177",
      "Escola Secundária Rocha Peixoto",
      "PUB",
      "Porto",
      "Póvoa de Varzim",
      "10,71"
    ],
    [
      "178",
      "Escola Secundária de Figueiró dos Vinhos",
      "PUB",
      "Leiria",
      "Figueiró dos Vinhos",
      "10,71"
    ],
    [
      "179",
      "Externato de Penafirme",
      "PRI",
      "Lisboa",
      "Torres Vedras",
      "10,70"
    ],
    [
      "180",
      "Escola Secundária de Alcochete",
      "PUB",
      "Setúbal",
      "Alcochete",
      "10,70"
    ],
    [
      "181",
      "Escola Básica e Secundária Ibn Mucana",
      "PUB",
      "Lisboa",
      "Cascais",
      "10,69"
    ],
    [
      "182",
      "Escola Secundária de Penafiel",
      "PUB",
      "Porto",
      "Penafiel",
      "10,68"
    ],
    [
      "183",
      "Escola Secundária Rafael Bordalo Pinheiro",
      "PUB",
      "Leiria",
      "Caldas da Rainha",
      "10,68"
    ],
    [
      "184",
      "Escola Secundária Gago Coutinho",
      "PUB",
      "Lisboa",
      "Vila Franca de Xira",
      "10,67"
    ],
    [
      "185",
      "Escola Básica e Secundária de Ponte da Barca",
      "PUB",
      "Viana do Castelo",
      "Ponte da Barca",
      "10,67"
    ],
    [
      "186",
      "Escola Secundária Filipa de Vilhena",
      "PUB",
      "Porto",
      "Porto",
      "10,66"
    ],
    [
      "187",
      "Escola Secundária D. Sancho I",
      "PUB",
      "Braga",
      "Vila Nova de Famalicão",
      "10,66"
    ],
    [
      "188",
      "Escola Secundária Quinta das Palmeiras",
      "PUB",
      "Castelo Branco",
      "Covilhã",
      "10,65"
    ],
    [
      "189",
      "Escola Secundária Miguel Torga, Bragança",
      "PUB",
      "Bragança",
      "Bragança",
      "10,65"
    ],
    [
      "190",
      "Escola Básica e Secundária de Valdevez",
      "PUB",
      "Viana do Castelo",
      "Arcos de Valdevez",
      "10,65"
    ],
    [
      "191",
      "Escola Básica e Secundária Sidónio Pais, Caminha",
      "PUB",
      "Viana do Castelo",
      "Caminha",
      "10,64"
    ],
    [
      "192",
      "Escola Secundária de Alpendurada",
      "PUB",
      "Porto",
      "Marco de Canaveses",
      "10,63"
    ],
    [
      "193",
      "Instituto de Promoção Social de Bustos",
      "PRI",
      "Aveiro",
      "Oliveira do Bairro",
      "10,62"
    ],
    [
      "194",
      "Escola Secundária de Amarante",
      "PUB",
      "Porto",
      "Amarante",
      "10,62"
    ],
    [
      "195",
      "Escola Básica e Secundária de Anadia",
      "PUB",
      "Aveiro",
      "Anadia",
      "10,62"
    ],
    [
      "196",
      "Escola Secundária D. Inês de Castro, Alcobaça",
      "PUB",
      "Leiria",
      "Alcobaça",
      "10,62"
    ],
    [
      "197",
      "Escola Secundária Martins Sarmento",
      "PUB",
      "Braga",
      "Guimarães",
      "10,60"
    ],
    [
      "198",
      "Externato D. Afonso Henriques",
      "PRI",
      "Viseu",
      "Resende",
      "10,59"
    ],
    [
      "199",
      "Escola Secundária de Santa Comba Dão",
      "PUB",
      "Viseu",
      "Santa Comba Dão",
      "10,59"
    ],
    [
      "200",
      "Escola Secundária de Caldas de Vizela",
      "PUB",
      "Braga",
      "Vizela",
      "10,58"
    ],
    [
      "201",
      "Escola Básica e Secundária Vieira de Araújo",
      "PUB",
      "Braga",
      "Vieira do Minho",
      "10,57"
    ],
    [
      "202",
      "Escola Secundária de Miguel Torga, Massamá",
      "PUB",
      "Lisboa",
      "Sintra",
      "10,56"
    ],
    [
      "203",
      "Escola Básica e Secundária Vale do Tamel , Lijó, Barcelos",
      "PUB",
      "Braga",
      "Barcelos",
      "10,56"
    ],
    [
      "204",
      "Escola Secundária de Caldas das Taipas",
      "PUB",
      "Braga",
      "Guimarães",
      "10,56"
    ],
    [
      "205",
      "Escola Secundária D. Manuel I, Beja",
      "PUB",
      "Beja",
      "Beja",
      "10,56"
    ],
    [
      "206",
      "Escola Secundária de Pombal",
      "PUB",
      "Leiria",
      "Pombal",
      "10,55"
    ],
    [
      "207",
      "Escola Cooperativa Vale S. Cosme (Didaxis)",
      "PRI",
      "Braga",
      "Vila Nova de Famalicão",
      "10,55"
    ],
    [
      "208",
      "Escola Secundária de Alcanena",
      "PUB",
      "Santarém",
      "Alcanena",
      "10,55"
    ],
    [
      "209",
      "Escola Secundária Camilo Castelo Branco, Carnaxide",
      "PUB",
      "Lisboa",
      "Oeiras",
      "10,54"
    ],
    [
      "210",
      "Escola Secundária Daniel Sampaio",
      "PUB",
      "Setúbal",
      "Almada",
      "10,54"
    ],
    [
      "211",
      "Escola Secundária de Romeu Correia, Feijó",
      "PUB",
      "Setúbal",
      "Almada",
      "10,53"
    ],
    [
      "212",
      "Escola Secundária de Paredes",
      "PUB",
      "Porto",
      "Paredes",
      "10,52"
    ],
    [
      "213",
      "Escola Básica e Secundária Amélia Rey Colaço",
      "PUB",
      "Lisboa",
      "Oeiras",
      "10,52"
    ],
    [
      "214",
      "Escola Secundária de Oliveira do Bairro",
      "PUB",
      "Aveiro",
      "Oliveira do Bairro",
      "10,51"
    ],
    [
      "215",
      "Escola Secundária Santo André-Barreiro",
      "PUB",
      "Setúbal",
      "Barreiro",
      "10,50"
    ],
    [
      "216",
      "Escola Básica e Secundária Dr. Pascoal José de Mello, Ansião",
      "PUB",
      "Leiria",
      "Ansião",
      "10,49"
    ],
    [
      "217",
      "Escola Básica e Secundária Arga e Lima, Lanheses",
      "PUB",
      "Viana do Castelo",
      "Viana do Castelo",
      "10,48"
    ],
    [
      "218",
      "Escola Secundária Marques de Castilho",
      "PUB",
      "Aveiro",
      "Águeda",
      "10,48"
    ],
    [
      "219",
      "Escola Básica e Secundária de Moimenta da Beira",
      "PUB",
      "Viseu",
      "Moimenta da Beira",
      "10,48"
    ],
    [
      "220",
      "Escola Básica e Secundária de Ínfias, Vizela",
      "PUB",
      "Braga",
      "Vizela",
      "10,46"
    ],
    [
      "221",
      "Escola Secundária Cacilhas - Tejo",
      "PUB",
      "Setúbal",
      "Almada",
      "10,46"
    ],
    [
      "222",
      "Escola Secundária Abade de Baçal",
      "PUB",
      "Bragança",
      "Bragança",
      "10,46"
    ],
    [
      "223",
      "Escola Básica e Secundária de Felgueiras, Pombeiro",
      "PUB",
      "Porto",
      "Felgueiras",
      "10,46"
    ],
    [
      "224",
      "Colégio João de Barros",
      "PRI",
      "Leiria",
      "Pombal",
      "10,46"
    ],
    [
      "225",
      "Escola Secundária de Padrão da Légua",
      "PUB",
      "Porto",
      "Matosinhos",
      "10,45"
    ],
    [
      "226",
      "Escola Secundária Madeira Torres",
      "PUB",
      "Lisboa",
      "Torres Vedras",
      "10,45"
    ],
    [
      "227",
      "Escola Secundária de José Afonso, Loures",
      "PUB",
      "Lisboa",
      "Loures",
      "10,45"
    ],
    [
      "228",
      "Escola Secundária Dr. Francisco Fernandes Lopes",
      "PUB",
      "Faro",
      "Olhão",
      "10,45"
    ],
    [
      "229",
      "Escola Secundária de Estarreja",
      "PUB",
      "Aveiro",
      "Estarreja",
      "10,44"
    ],
    [
      "230",
      "Escola Secundária de Coruche",
      "PUB",
      "Santarém",
      "Coruche",
      "10,44"
    ],
    [
      "231",
      "Escola Secundária Jaime Moniz",
      "PUB",
      "R. A. Madeira",
      "Funchal",
      "10,43"
    ],
    [
      "232",
      "Escola Básica e Secundária de Salvaterra de Magos",
      "PUB",
      "Santarém",
      "Salvaterra de Magos",
      "10,43"
    ],
    [
      "233",
      "Externato Carvalho Araújo",
      "PRI",
      "Braga",
      "Braga",
      "10,42"
    ],
    [
      "234",
      "Escola Básica e Secundária da Guia",
      "PUB",
      "Leiria",
      "Pombal",
      "10,42"
    ],
    [
      "235",
      "Escola Secundária Alcaides de Faria, Barcelos",
      "PUB",
      "Braga",
      "Barcelos",
      "10,42"
    ],
    [
      "236",
      "Escola Básica e Secundária Dr. Manuel Laranjeira",
      "PUB",
      "Aveiro",
      "Espinho",
      "10,42"
    ],
    [
      "237",
      "Escola Secundária Camilo Castelo Branco, Vila Nova de Famalicão",
      "PUB",
      "Braga",
      "Vila Nova de Famalicão",
      "10,41"
    ],
    [
      "238",
      "Escola Secundária Prof. Dr. Flávio F. Pinto Resende",
      "PUB",
      "Viseu",
      "Cinfães",
      "10,41"
    ],
    [
      "239",
      "Escola Básica e Secundária de Carcavelos",
      "PUB",
      "Lisboa",
      "Cascais",
      "10,40"
    ],
    [
      "240",
      "Escola Secundária Fernando Namora, Condeixa-a-Nova",
      "PUB",
      "Coimbra",
      "Condeixa-a-Nova",
      "10,40"
    ],
    [
      "241",
      "Escola Básica e Secundária de Michel Giacometti",
      "PUB",
      "Setúbal",
      "Sesimbra",
      "10,40"
    ],
    [
      "242",
      "Instituto Inácio Loyola/Colégio da Imaculada Conceição",
      "PRI",
      "Coimbra",
      "Coimbra",
      "10,39"
    ],
    [
      "243",
      "Escola Secundária de Sampaio",
      "PUB",
      "Setúbal",
      "Sesimbra",
      "10,39"
    ],
    [
      "244",
      "Escola Secundária Frei Heitor Pinto",
      "PUB",
      "Castelo Branco",
      "Covilhã",
      "10,39"
    ],
    [
      "245",
      "Escola Básica e Secundária de Ourém",
      "PUB",
      "Santarém",
      "Ourém",
      "10,39"
    ],
    [
      "246",
      "Escola Básica e Secundária Sacadura Cabral, Celorico da Beira",
      "PUB",
      "Guarda",
      "Celorico da Beira",
      "10,37"
    ],
    [
      "247",
      "Escola Secundária Dr. José Macedo Fragateiro",
      "PUB",
      "Aveiro",
      "Ovar",
      "10,36"
    ],
    [
      "248",
      "Escola Básica e Secundária de Vilela, Paredes",
      "PUB",
      "Porto",
      "Paredes",
      "10,36"
    ],
    [
      "249",
      "Escola Secundária Júlio Dinis",
      "PUB",
      "Aveiro",
      "Ovar",
      "10,36"
    ],
    [
      "250",
      "Escola Secundária de Palmela",
      "PUB",
      "Setúbal",
      "Palmela",
      "10,35"
    ],
    [
      "251",
      "Escola Secundária José Régio",
      "PUB",
      "Porto",
      "Vila do Conde",
      "10,35"
    ],
    [
      "252",
      "Escola Secundária Gabriel Pereira",
      "PUB",
      "Évora",
      "Évora",
      "10,34"
    ],
    [
      "253",
      "Escola Secundária de Freamunde, Paços de Ferreira",
      "PUB",
      "Porto",
      "Paços de Ferreira",
      "10,33"
    ],
    [
      "254",
      "Escola Básica e Secundária de Sever do Vouga",
      "PUB",
      "Aveiro",
      "Sever do Vouga",
      "10,33"
    ],
    [
      "255",
      "Escola Secundária Camilo Castelo Branco, Vila Real",
      "PUB",
      "Vila Real",
      "Vila Real",
      "10,33"
    ],
    [
      "256",
      "Escola Secundária de Tábua",
      "PUB",
      "Coimbra",
      "Tábua",
      "10,33"
    ],
    [
      "257",
      "Escola Secundária da Amadora",
      "PUB",
      "Lisboa",
      "Amadora",
      "10,33"
    ],
    [
      "258",
      "Escola Secundária José Afonso",
      "PUB",
      "Setúbal",
      "Seixal",
      "10,32"
    ],
    [
      "259",
      "Escola Básica e Secundária José Falcão - Miranda do Corvo",
      "PUB",
      "Coimbra",
      "Miranda do Corvo",
      "10,32"
    ],
    [
      "260",
      "Escola Secundária Francisco de Holanda",
      "PUB",
      "Braga",
      "Guimarães",
      "10,32"
    ],
    [
      "261",
      "Escola Secundária Tomás Cabreira, Faro",
      "PUB",
      "Faro",
      "Faro",
      "10,31"
    ],
    [
      "262",
      "Escola Secundária Cristina Torres",
      "PUB",
      "Coimbra",
      "Figueira da Foz",
      "10,31"
    ],
    [
      "263",
      "Escola Secundária Amato Lusitano",
      "PUB",
      "Castelo Branco",
      "Castelo Branco",
      "10,31"
    ],
    [
      "264",
      "Escola Secundária Soares Basto, Oliveira de Azeméis",
      "PUB",
      "Aveiro",
      "Oliveira de Azeméis",
      "10,30"
    ],
    [
      "265",
      "Escola Secundária Jorge Peixinho",
      "PUB",
      "Setúbal",
      "Montijo",
      "10,29"
    ],
    [
      "266",
      "Escola Secundária de Montemor-o-Novo",
      "PUB",
      "Évora",
      "Montemor-o-Novo",
      "10,29"
    ],
    [
      "267",
      "Escola Básica e Secundária da Calheta (RAM)",
      "PUB",
      "R. A. Madeira",
      "Calheta (R.A.M.)",
      "10,29"
    ],
    [
      "268",
      "Escola Básica e Secundária de Oliveira de Frades",
      "PUB",
      "Viseu",
      "Oliveira de Frades",
      "10,29"
    ],
    [
      "269",
      "Escola Básica e Secundária D. Dinis, Santo Tirso",
      "PUB",
      "Porto",
      "Santo Tirso",
      "10,28"
    ],
    [
      "270",
      "Escola Secundária José Saramago, Mafra",
      "PUB",
      "Lisboa",
      "Mafra",
      "10,27"
    ],
    [
      "271",
      "Escola Secundária António Damásio",
      "PUB",
      "Lisboa",
      "Lisboa",
      "10,26"
    ],
    [
      "272",
      "Escola Secundária Santa Maria de Sintra",
      "PUB",
      "Lisboa",
      "Sintra",
      "10,26"
    ],
    [
      "273",
      "Escola Básica e Secundária de Águas Santas",
      "PUB",
      "Porto",
      "Maia",
      "10,24"
    ],
    [
      "274",
      "Escola Básica e Secundária Martinho Árias, Soure",
      "PUB",
      "Coimbra",
      "Soure",
      "10,23"
    ],
    [
      "275",
      "Escola Básica e Secundária de Alvide",
      "PUB",
      "Lisboa",
      "Cascais",
      "10,23"
    ],
    [
      "276",
      "Escola Básica e Secundária Coelho e Castro",
      "PUB",
      "Aveiro",
      "Santa Maria da Feira",
      "10,23"
    ],
    [
      "277",
      "Escola Secundária do Pinhal Novo",
      "PUB",
      "Setúbal",
      "Palmela",
      "10,23"
    ],
    [
      "278",
      "Escola Secundária de Esmoriz",
      "PUB",
      "Aveiro",
      "Ovar",
      "10,22"
    ],
    [
      "279",
      "Escola Básica e Secundária à Beira Douro",
      "PUB",
      "Porto",
      "Gondomar",
      "10,21"
    ],
    [
      "280",
      "Escola Secundária Damião de Goes, Alenquer",
      "PUB",
      "Lisboa",
      "Alenquer",
      "10,20"
    ],
    [
      "281",
      "Escola Secundária de Gaia Nascente, Vila Nova de Gaia",
      "PUB",
      "Porto",
      "Vila Nova de Gaia",
      "10,20"
    ],
    [
      "282",
      "Escola Secundária Dr. João Manuel da Costa Delgado, Lourinhã",
      "PUB",
      "Lisboa",
      "Lourinhã",
      "10,20"
    ],
    [
      "283",
      "Escola Secundária de Serpa",
      "PUB",
      "Beja",
      "Serpa",
      "10,19"
    ],
    [
      "284",
      "Escola Secundária Poeta António Aleixo",
      "PUB",
      "Faro",
      "Portimão",
      "10,19"
    ],
    [
      "285",
      "Escola Básica e Secundária de Chamusca",
      "PUB",
      "Santarém",
      "Chamusca",
      "10,19"
    ],
    [
      "286",
      "Escola Secundária António Sérgio",
      "PUB",
      "Porto",
      "Vila Nova de Gaia",
      "10,18"
    ],
    [
      "287",
      "Escola Secundária Dr. João de Araújo Correia",
      "PUB",
      "Vila Real",
      "Peso da Régua",
      "10,18"
    ],
    [
      "288",
      "Escola Secundária D. Pedro V",
      "PUB",
      "Lisboa",
      "Lisboa",
      "10,18"
    ],
    [
      "289",
      "Escola Básica e Secundária de Machico",
      "PUB",
      "R. A. Madeira",
      "Machico",
      "10,18"
    ],
    [
      "290",
      "Escola Secundária Jerónimo Emiliano Andrade",
      "PUB",
      "R. A. Açores",
      "Angra do Heroísmo",
      "10,17"
    ],
    [
      "291",
      "Escola Secundária de Vouzela",
      "PUB",
      "Viseu",
      "Vouzela",
      "10,17"
    ],
    [
      "292",
      "Escola Secundária Francisco Franco",
      "PUB",
      "R. A. Madeira",
      "Funchal",
      "10,17"
    ],
    [
      "293",
      "Colégio Liceal de Santa Maria de Lamas",
      "PRI",
      "Aveiro",
      "Santa Maria da Feira",
      "10,16"
    ],
    [
      "294",
      "Escola Secundária de Pinheiro e Rosa",
      "PUB",
      "Faro",
      "Faro",
      "10,16"
    ],
    [
      "295",
      "Escola Secundária de Marco de Canaveses",
      "PUB",
      "Porto",
      "Marco de Canaveses",
      "10,16"
    ],
    [
      "296",
      "Escola Secundária de Montemor-o-Velho",
      "PUB",
      "Coimbra",
      "Montemor-o-Velho",
      "10,13"
    ],
    [
      "297",
      "Escola Secundária Campos de Melo",
      "PUB",
      "Castelo Branco",
      "Covilhã",
      "10,12"
    ],
    [
      "298",
      "Escola Secundária Maria Amália Vaz de Carvalho",
      "PUB",
      "Lisboa",
      "Lisboa",
      "10,12"
    ],
    [
      "299",
      "Escola Básica e Secundária de Vila Pouca de Aguiar - Sul",
      "PUB",
      "Vila Real",
      "Vila Pouca de Aguiar",
      "10,11"
    ],
    [
      "300",
      "Escola Secundária de Maximinos",
      "PUB",
      "Braga",
      "Braga",
      "10,10"
    ],
    [
      "301",
      "Escola Secundária da Senhora da Hora",
      "PUB",
      "Porto",
      "Matosinhos",
      "10,09"
    ],
    [
      "302",
      "Escola Secundária de Cascais",
      "PUB",
      "Lisboa",
      "Cascais",
      "10,09"
    ],
    [
      "303",
      "Escola Básica e Secundária de Rio Tinto, Gondomar",
      "PUB",
      "Porto",
      "Gondomar",
      "10,09"
    ],
    [
      "304",
      "Escola Básica e Secundária de S. Sebastião de Mértola",
      "PUB",
      "Beja",
      "Mértola",
      "10,08"
    ],
    [
      "305",
      "Escola Secundária Braancamp Freire, Pontinha",
      "PUB",
      "Lisboa",
      "Odivelas",
      "10,08"
    ],
    [
      "306",
      "Escola Secundária do Castêlo da Maia, Maia",
      "PUB",
      "Porto",
      "Maia",
      "10,07"
    ],
    [
      "307",
      "Escola Secundária Emídio Navarro, Almada",
      "PUB",
      "Setúbal",
      "Almada",
      "10,07"
    ],
    [
      "308",
      "Escola Secundária Avelar Brotero",
      "PUB",
      "Coimbra",
      "Coimbra",
      "10,07"
    ],
    [
      "309",
      "Escola Secundária da Mealhada",
      "PUB",
      "Aveiro",
      "Mealhada",
      "10,06"
    ],
    [
      "310",
      "Escola Secundária Fernão Mendes Pinto",
      "PUB",
      "Setúbal",
      "Almada",
      "10,06"
    ],
    [
      "311",
      "Escola Básica e Secundária da Cidadela",
      "PUB",
      "Lisboa",
      "Cascais",
      "10,06"
    ],
    [
      "312",
      "Escola Básica e Secundária Dr. Daniel de Matos, Vila Nova de Poiares",
      "PUB",
      "Coimbra",
      "Vila Nova de Poiares",
      "10,06"
    ],
    [
      "313",
      "Escola Básica e Secundária de Penacova",
      "PUB",
      "Coimbra",
      "Penacova",
      "10,06"
    ],
    [
      "314",
      "Escola Básica e Secundária Prof. Reynaldo dos Santos",
      "PUB",
      "Lisboa",
      "Vila Franca de Xira",
      "10,05"
    ],
    [
      "315",
      "Escola Secundária D. Sancho II, Elvas",
      "PUB",
      "Portalegre",
      "Elvas",
      "10,04"
    ],
    [
      "316",
      "Escola Básica e Secundária de Santa Maria da Feira",
      "PUB",
      "Aveiro",
      "Santa Maria da Feira",
      "10,04"
    ],
    [
      "317",
      "Escola Secundária Manuel de Arriaga, Horta",
      "PUB",
      "R. A. Açores",
      "Horta",
      "10,03"
    ],
    [
      "318",
      "Escola Secundária de Castro Daire",
      "PUB",
      "Viseu",
      "Castro Daire",
      "10,02"
    ],
    [
      "319",
      "Escola Secundária de Monção",
      "PUB",
      "Viana do Castelo",
      "Monção",
      "10,02"
    ],
    [
      "320",
      "Escola Secundária de Gouveia",
      "PUB",
      "Guarda",
      "Gouveia",
      "10,02"
    ],
    [
      "321",
      "Escola Secundária Dr. Jaime Magalhães Lima",
      "PUB",
      "Aveiro",
      "Aveiro",
      "10,01"
    ],
    [
      "322",
      "Externato Cooperativo da Benedita-Inst.NªSrªda Encarnação",
      "PRI",
      "Leiria",
      "Alcobaça",
      "10,01"
    ],
    [
      "323",
      "Escola Secundária Dr. Jorge Augusto Correia",
      "PUB",
      "Faro",
      "Tavira",
      "9,98"
    ],
    [
      "324",
      "Escola Básica e Secundária Gama Barros",
      "PUB",
      "Lisboa",
      "Sintra",
      "9,98"
    ],
    [
      "325",
      "Escola Básica e Secundária de Celorico de Basto",
      "PUB",
      "Braga",
      "Celorico de Basto",
      "9,98"
    ],
    [
      "326",
      "Escola Básica e Secundária de Albufeira",
      "PUB",
      "Faro",
      "Albufeira",
      "9,97"
    ],
    [
      "327",
      "Escola Secundária da Lagoa",
      "PUB",
      "R. A. Açores",
      "Lagoa (R.A.A)",
      "9,97"
    ],
    [
      "328",
      "Escola Complementar do Til - APEL",
      "PRI",
      "R. A. Madeira",
      "Funchal",
      "9,97"
    ],
    [
      "329",
      "Escola Secundária da Boa Nova, Leça da Palmeira",
      "PUB",
      "Porto",
      "Matosinhos",
      "9,97"
    ],
    [
      "330",
      "Escola Básica e Secundária Alfredo da Silva",
      "PUB",
      "Setúbal",
      "Barreiro",
      "9,97"
    ],
    [
      "331",
      "Escola Secundária de Valongo",
      "PUB",
      "Porto",
      "Valongo",
      "9,97"
    ],
    [
      "332",
      "Escola Secundária João de Deus",
      "PUB",
      "Faro",
      "Faro",
      "9,96"
    ],
    [
      "333",
      "Escola Secundária D. Afonso Sanches",
      "PUB",
      "Porto",
      "Vila do Conde",
      "9,96"
    ],
    [
      "334",
      "Escola Secundária de Seia",
      "PUB",
      "Guarda",
      "Seia",
      "9,95"
    ],
    [
      "335",
      "Escola Secundária de Lousada",
      "PUB",
      "Porto",
      "Lousada",
      "9,95"
    ],
    [
      "336",
      "Escola Básica e Secundária de Miranda do Douro",
      "PUB",
      "Bragança",
      "Miranda do Douro",
      "9,95"
    ],
    [
      "337",
      "Escola Secundária Eng. Acácio Calazans Duarte",
      "PUB",
      "Leiria",
      "Marinha Grande",
      "9,95"
    ],
    [
      "338",
      "Escola Secundária Gonçalo Anes Bandarra",
      "PUB",
      "Guarda",
      "Trancoso",
      "9,94"
    ],
    [
      "339",
      "Escola Secundária de Albufeira",
      "PUB",
      "Faro",
      "Albufeira",
      "9,94"
    ],
    [
      "340",
      "Escola Secundária Emídio Garcia",
      "PUB",
      "Bragança",
      "Bragança",
      "9,93"
    ],
    [
      "341",
      "Escola Básica e Secundária Dr. Ramiro Salgado, Torre de Moncorvo",
      "PUB",
      "Bragança",
      "Torre de Moncorvo",
      "9,93"
    ],
    [
      "342",
      "Escola Secundária Júlio Dantas",
      "PUB",
      "Faro",
      "Lagos",
      "9,93"
    ],
    [
      "343",
      "Escola Básica e Secundária de Ermesinde",
      "PUB",
      "Porto",
      "Valongo",
      "9,92"
    ],
    [
      "344",
      "Escola Secundária de Peniche",
      "PUB",
      "Leiria",
      "Peniche",
      "9,92"
    ],
    [
      "345",
      "Escola Básica e Secundária Abel Botelho",
      "PUB",
      "Viseu",
      "Tabuaço",
      "9,92"
    ],
    [
      "346",
      "Escola Secundária Alves Redol",
      "PUB",
      "Lisboa",
      "Vila Franca de Xira",
      "9,91"
    ],
    [
      "347",
      "Escola Secundária Fernando Lopes Graça, Parede",
      "PUB",
      "Lisboa",
      "Cascais",
      "9,91"
    ],
    [
      "348",
      "Escola Secundária de Gondomar",
      "PUB",
      "Porto",
      "Gondomar",
      "9,91"
    ],
    [
      "349",
      "Escola Secundária José Loureiro Botas, Vieira de Leiria",
      "PUB",
      "Leiria",
      "Marinha Grande",
      "9,91"
    ],
    [
      "350",
      "Escola Secundária Poeta Joaquim Serra",
      "PUB",
      "Setúbal",
      "Montijo",
      "9,91"
    ],
    [
      "351",
      "Escola Secundária da Sé, Guarda",
      "PUB",
      "Guarda",
      "Guarda",
      "9,90"
    ],
    [
      "352",
      "Colégio Diocesano de Nossa Senhora da Apresentação",
      "PRI",
      "Aveiro",
      "Vagos",
      "9,90"
    ],
    [
      "353",
      "Escola Básica e Secundária do Cadaval",
      "PUB",
      "Lisboa",
      "Cadaval",
      "9,90"
    ],
    [
      "354",
      "Escola Secundária Leal da Câmara",
      "PUB",
      "Lisboa",
      "Sintra",
      "9,89"
    ],
    [
      "355",
      "Escola Secundária Manuel Teixeira Gomes, Portimão",
      "PUB",
      "Faro",
      "Portimão",
      "9,83"
    ],
    [
      "356",
      "Escola Secundária Mouzinho da Silveira",
      "PUB",
      "Portalegre",
      "Portalegre",
      "9,83"
    ],
    [
      "357",
      "Escola Secundária de Oliveira do Hospital",
      "PUB",
      "Coimbra",
      "Oliveira do Hospital",
      "9,82"
    ],
    [
      "358",
      "Escola Secundária de Mem Martins",
      "PUB",
      "Lisboa",
      "Sintra",
      "9,81"
    ],
    [
      "359",
      "Escola Secundária de Alfena",
      "PUB",
      "Porto",
      "Valongo",
      "9,81"
    ],
    [
      "360",
      "Escola Secundária António Inácio da Cruz",
      "PUB",
      "Setúbal",
      "Grândola",
      "9,81"
    ],
    [
      "361",
      "Escola Secundária da Azambuja",
      "PUB",
      "Lisboa",
      "Azambuja",
      "9,79"
    ],
    [
      "362",
      "Escola Secundária de Castro Verde",
      "PUB",
      "Beja",
      "Castro Verde",
      "9,79"
    ],
    [
      "363",
      "Escola Secundária Domingos Rebelo",
      "PUB",
      "R. A. Açores",
      "Ponta Delgada",
      "9,79"
    ],
    [
      "364",
      "Centro de Estudos Educativos de Ançã",
      "PRI",
      "Coimbra",
      "Cantanhede",
      "9,79"
    ],
    [
      "365",
      "Escola Básica e Secundária Dr. Ângelo Augusto Silva",
      "PUB",
      "R. A. Madeira",
      "Funchal",
      "9,78"
    ],
    [
      "366",
      "Escola Secundária Dr. João Lopes de Morais, Mortágua",
      "PUB",
      "Viseu",
      "Mortágua",
      "9,78"
    ],
    [
      "367",
      "Colégio de Nossa Senhora da Graça",
      "PRI",
      "Beja",
      "Odemira",
      "9,78"
    ],
    [
      "368",
      "Escola Básica e Secundária de Carrazeda de Ansiães",
      "PUB",
      "Bragança",
      "Carrazeda de Ansiães",
      "9,76"
    ],
    [
      "369",
      "Escola Básica e Secundária Frei Gonçalo de Azevedo",
      "PUB",
      "Lisboa",
      "Cascais",
      "9,76"
    ],
    [
      "370",
      "Escola Básica e Secundária de Lordelo",
      "PUB",
      "Porto",
      "Paredes",
      "9,76"
    ],
    [
      "371",
      "Escola Básica e Secundária de Idães",
      "PUB",
      "Porto",
      "Felgueiras",
      "9,75"
    ],
    [
      "372",
      "Escola Básica e Secundária Rodrigues de Freitas",
      "PUB",
      "Porto",
      "Porto",
      "9,75"
    ],
    [
      "373",
      "Escola Secundária Pinhal do Rei",
      "PUB",
      "Leiria",
      "Marinha Grande",
      "9,75"
    ],
    [
      "374",
      "Escola Básica e Secundária de São João da Pesqueira",
      "PUB",
      "Viseu",
      "São João da Pesqueira",
      "9,75"
    ],
    [
      "375",
      "Escola Secundária Padre António Vieira",
      "PUB",
      "Lisboa",
      "Lisboa",
      "9,73"
    ],
    [
      "376",
      "Escola Secundária Jácome Ratton",
      "PUB",
      "Santarém",
      "Tomar",
      "9,72"
    ],
    [
      "377",
      "Escola Secundária D. Duarte",
      "PUB",
      "Coimbra",
      "Coimbra",
      "9,71"
    ],
    [
      "378",
      "Escola Secundária Sá de Miranda",
      "PUB",
      "Braga",
      "Braga",
      "9,71"
    ],
    [
      "379",
      "Escola Secundária de Fafe",
      "PUB",
      "Braga",
      "Fafe",
      "9,70"
    ],
    [
      "380",
      "Escola Básica e Secundária Dr. José Leite de Vasconcelos",
      "PUB",
      "Viseu",
      "Tarouca",
      "9,70"
    ],
    [
      "381",
      "Escola Secundária Dr. João Carlos Celestino Gomes",
      "PUB",
      "Aveiro",
      "Ílhavo",
      "9,69"
    ],
    [
      "382",
      "Escola Secundária Homem Cristo",
      "PUB",
      "Aveiro",
      "Aveiro",
      "9,69"
    ],
    [
      "383",
      "Escola Secundária da Drª Laura Ayres, Quarteira",
      "PUB",
      "Faro",
      "Loulé",
      "9,68"
    ],
    [
      "384",
      "Escola Secundária André de Gouveia",
      "PUB",
      "Évora",
      "Évora",
      "9,66"
    ],
    [
      "385",
      "Escola Secundária Ferreira Dias",
      "PUB",
      "Lisboa",
      "Sintra",
      "9,65"
    ],
    [
      "386",
      "Escola Secundária Luís de Freitas Branco",
      "PUB",
      "Lisboa",
      "Oeiras",
      "9,65"
    ],
    [
      "387",
      "Escola Secundária do Monte da Caparica",
      "PUB",
      "Setúbal",
      "Almada",
      "9,64"
    ],
    [
      "388",
      "Escola Secundária Abel Salazar",
      "PUB",
      "Porto",
      "Matosinhos",
      "9,64"
    ],
    [
      "389",
      "Escola Secundária da Póvoa do Lanhoso",
      "PUB",
      "Braga",
      "Póvoa de Lanhoso",
      "9,64"
    ],
    [
      "390",
      "Escola Secundária Henriques Nogueira",
      "PUB",
      "Lisboa",
      "Torres Vedras",
      "9,63"
    ],
    [
      "391",
      "Escola Secundária Gil Eanes, Lagos",
      "PUB",
      "Faro",
      "Lagos",
      "9,63"
    ],
    [
      "392",
      "Escola Básica e Secundária Dr. Isidoro de Sousa",
      "PUB",
      "Évora",
      "Viana do Alentejo",
      "9,62"
    ],
    [
      "393",
      "Escola Básica e Secundária Anselmo de Andrade",
      "PUB",
      "Setúbal",
      "Almada",
      "9,60"
    ],
    [
      "394",
      "Escola Secundária António Gedeão",
      "PUB",
      "Setúbal",
      "Almada",
      "9,60"
    ],
    [
      "395",
      "Escola Secundária João de Barros",
      "PUB",
      "Setúbal",
      "Seixal",
      "9,59"
    ],
    [
      "396",
      "Escola Secundária de Vila Real de Santo António",
      "PUB",
      "Faro",
      "Vila Real de Santo António",
      "9,59"
    ],
    [
      "397",
      "Escola Secundária Diogo de Macedo",
      "PUB",
      "Porto",
      "Vila Nova de Gaia",
      "9,59"
    ],
    [
      "398",
      "Escola Básica e Secundária do Vale de Ovil, Baião",
      "PUB",
      "Porto",
      "Baião",
      "9,59"
    ],
    [
      "399",
      "Colégio D. Dinis (Antº. Carneiro)",
      "PRI",
      "Porto",
      "Porto",
      "9,59"
    ],
    [
      "400",
      "Escola Básica e Secundária D. Lucinda Andrade",
      "PUB",
      "R. A. Madeira",
      "São Vicente",
      "9,58"
    ],
    [
      "401",
      "Escola Básica e Secundária de Campo",
      "PUB",
      "Porto",
      "Valongo",
      "9,58"
    ],
    [
      "402",
      "Escola Secundária Arquitecto Oliveira Ferreira",
      "PUB",
      "Porto",
      "Vila Nova de Gaia",
      "9,55"
    ],
    [
      "403",
      "Escola Secundária Dr. Manuel Fernandes",
      "PUB",
      "Santarém",
      "Abrantes",
      "9,55"
    ],
    [
      "404",
      "Escola Básica e Secundária de Castelo de Paiva",
      "PUB",
      "Aveiro",
      "Castelo de Paiva",
      "9,55"
    ],
    [
      "405",
      "Escola Básica e Secundária Prof. Ruy Luís Gomes",
      "PUB",
      "Setúbal",
      "Almada",
      "9,55"
    ],
    [
      "406",
      "Escola Secundária Dr. Manuel Candeias Gonçalves, Odemira",
      "PUB",
      "Beja",
      "Odemira",
      "9,54"
    ],
    [
      "407",
      "Escola Básica e Secundária Tomás de Borba",
      "PUB",
      "R. A. Açores",
      "Angra do Heroísmo",
      "9,53"
    ],
    [
      "408",
      "Escola Secundária de Ponte de Sor",
      "PUB",
      "Portalegre",
      "Ponte de Sor",
      "9,53"
    ],
    [
      "409",
      "Escola Secundária de Valpaços",
      "PUB",
      "Vila Real",
      "Valpaços",
      "9,52"
    ],
    [
      "410",
      "Escola Secundária Afonso Lopes Vieira",
      "PUB",
      "Leiria",
      "Leiria",
      "9,52"
    ],
    [
      "411",
      "Escola Secundária de Aljustrel",
      "PUB",
      "Beja",
      "Aljustrel",
      "9,52"
    ],
    [
      "412",
      "Escola Básica e Secundária de Mondim de Basto",
      "PUB",
      "Vila Real",
      "Mondim de Basto",
      "9,52"
    ],
    [
      "413",
      "Escola Básica e Secundária da Sé, Lamego",
      "PUB",
      "Viseu",
      "Lamego",
      "9,52"
    ],
    [
      "414",
      "Escola Secundária da Moita",
      "PUB",
      "Setúbal",
      "Moita",
      "9,52"
    ],
    [
      "415",
      "Escola Secundária Rainha Santa Isabel, Estremoz",
      "PUB",
      "Évora",
      "Estremoz",
      "9,52"
    ],
    [
      "416",
      "Escola Secundária Jaime Cortesão",
      "PUB",
      "Coimbra",
      "Coimbra",
      "9,50"
    ],
    [
      "417",
      "Escola Básica e Secundária Dr. Luís Maurílio da Silva Dantas",
      "PUB",
      "R. A. Madeira",
      "Câmara de Lobos",
      "9,49"
    ],
    [
      "418",
      "Escola Secundária de Benavente",
      "PUB",
      "Santarém",
      "Benavente",
      "9,46"
    ],
    [
      "419",
      "Escola Secundária do Forte da Casa",
      "PUB",
      "Lisboa",
      "Vila Franca de Xira",
      "9,45"
    ],
    [
      "420",
      "Escola Secundária Sebastião da Gama",
      "PUB",
      "Setúbal",
      "Setúbal",
      "9,45"
    ],
    [
      "421",
      "Escola Secundária de Mirandela",
      "PUB",
      "Bragança",
      "Mirandela",
      "9,44"
    ],
    [
      "422",
      "Escola Básica e Secundária de Muralhas do Minho, Valença",
      "PUB",
      "Viana do Castelo",
      "Valença",
      "9,43"
    ],
    [
      "423",
      "Escola Básica e Secundária de Lousada Norte, Lustosa",
      "PUB",
      "Porto",
      "Lousada",
      "9,42"
    ],
    [
      "424",
      "Escola Básica e Secundária de Canelas",
      "PUB",
      "Porto",
      "Vila Nova de Gaia",
      "9,39"
    ],
    [
      "425",
      "Escola Secundária de Alcácer do Sal",
      "PUB",
      "Setúbal",
      "Alcácer do Sal",
      "9,37"
    ],
    [
      "426",
      "Escola Secundária de S. Lourenço",
      "PUB",
      "Portalegre",
      "Portalegre",
      "9,36"
    ],
    [
      "427",
      "Escola Secundária Daniel Faria, Baltar",
      "PUB",
      "Porto",
      "Paredes",
      "9,36"
    ],
    [
      "428",
      "Escola Básica e Secundária D. Martinho Vaz de Castelo Branco",
      "PUB",
      "Lisboa",
      "Vila Franca de Xira",
      "9,36"
    ],
    [
      "429",
      "Escola Secundária de Caneças",
      "PUB",
      "Lisboa",
      "Odivelas",
      "9,36"
    ],
    [
      "430",
      "Colégio D. Duarte",
      "PRI",
      "Porto",
      "Porto",
      "9,35"
    ],
    [
      "431",
      "Escola Básica e Secundária de Lousada Oeste, Nevogilde",
      "PUB",
      "Porto",
      "Lousada",
      "9,35"
    ],
    [
      "432",
      "Escola Básica e Secundária de José Relvas, Alpiarça",
      "PUB",
      "Santarém",
      "Alpiarça",
      "9,35"
    ],
    [
      "433",
      "Colégio Júlio Dinis",
      "PRI",
      "Porto",
      "Porto",
      "9,34"
    ],
    [
      "434",
      "Escola Secundária Fernando Namora, Amadora",
      "PUB",
      "Lisboa",
      "Amadora",
      "9,33"
    ],
    [
      "435",
      "Escola Secundária D. Afonso Henriques",
      "PUB",
      "Porto",
      "Santo Tirso",
      "9,33"
    ],
    [
      "436",
      "Externato de São Miguel de Refojos",
      "PRI",
      "Braga",
      "Cabeceiras de Basto",
      "9,32"
    ],
    [
      "437",
      "Escola Básica e Secundária de Nordeste",
      "PUB",
      "R. A. Açores",
      "Nordeste",
      "9,32"
    ],
    [
      "438",
      "Escola Básica e Secundária Gomes Teixeira, Armamar",
      "PUB",
      "Viseu",
      "Armamar",
      "9,31"
    ],
    [
      "439",
      "Escola Secundária Padre António Macedo",
      "PUB",
      "Setúbal",
      "Santiago do Cacém",
      "9,31"
    ],
    [
      "440",
      "Escola Secundária Alfredo dos Reis Silveira",
      "PUB",
      "Setúbal",
      "Seixal",
      "9,27"
    ],
    [
      "441",
      "Escola Secundária Pedro Alexandrino",
      "PUB",
      "Lisboa",
      "Odivelas",
      "9,27"
    ],
    [
      "442",
      "Escola Básica e Secundária Santos Simões",
      "PUB",
      "Braga",
      "Guimarães",
      "9,26"
    ],
    [
      "443",
      "Escola Básica e Secundária de Santa Cruz",
      "PUB",
      "R. A. Madeira",
      "Santa Cruz",
      "9,26"
    ],
    [
      "444",
      "Escola Secundária da Amora",
      "PUB",
      "Setúbal",
      "Seixal",
      "9,26"
    ],
    [
      "445",
      "Escola Básica e Secundária Lima de Freitas",
      "PUB",
      "Setúbal",
      "Setúbal",
      "9,24"
    ],
    [
      "446",
      "Escola Básica e Secundária Cunha Rivara, Arraiolos",
      "PUB",
      "Évora",
      "Arraiolos",
      "9,24"
    ],
    [
      "447",
      "Escola Secundária D. Dinis, Coimbra",
      "PUB",
      "Coimbra",
      "Coimbra",
      "9,24"
    ],
    [
      "448",
      "Escola Básica e Secundária de Vila Flor",
      "PUB",
      "Bragança",
      "Vila Flor",
      "9,23"
    ],
    [
      "449",
      "Escola Secundária Dr. Bernardino Machado",
      "PUB",
      "Coimbra",
      "Figueira da Foz",
      "9,22"
    ],
    [
      "450",
      "Externato D. Fuas Roupinho",
      "PRI",
      "Leiria",
      "Nazaré",
      "9,22"
    ],
    [
      "451",
      "Escola Secundária de Sacavém",
      "PUB",
      "Lisboa",
      "Loures",
      "9,19"
    ],
    [
      "452",
      "Escola Básica e Secundária da Madalena",
      "PUB",
      "R. A. Açores",
      "Madalena",
      "9,17"
    ],
    [
      "453",
      "Instituto Educativo de Souselas",
      "PRI",
      "Coimbra",
      "Coimbra",
      "9,17"
    ],
    [
      "454",
      "Escola Secundária de Sabugal",
      "PUB",
      "Guarda",
      "Sabugal",
      "9,17"
    ],
    [
      "455",
      "Escola Básica e Secundária Fontes Pereira de Melo",
      "PUB",
      "Porto",
      "Porto",
      "9,16"
    ],
    [
      "456",
      "Escola Secundária D. Dinis, Lisboa",
      "PUB",
      "Lisboa",
      "Lisboa",
      "9,14"
    ],
    [
      "457",
      "Escola Secundária Padre Alberto Neto",
      "PUB",
      "Lisboa",
      "Sintra",
      "9,14"
    ],
    [
      "458",
      "Escola Básica e Secundária de Paredes de Coura",
      "PUB",
      "Viana do Castelo",
      "Paredes de Coura",
      "9,12"
    ],
    [
      "459",
      "Escola Básica e Secundária de Ribeira de Pena",
      "PUB",
      "Vila Real",
      "Ribeira de Pena",
      "9,11"
    ],
    [
      "460",
      "Escola Básica e Secundária Carolina Michaelis",
      "PUB",
      "Porto",
      "Porto",
      "9,07"
    ],
    [
      "461",
      "Escola Secundária de Inês de Castro",
      "PUB",
      "Porto",
      "Vila Nova de Gaia",
      "9,07"
    ],
    [
      "462",
      "Escola Secundária José Cardoso Pires",
      "PUB",
      "Lisboa",
      "Loures",
      "9,06"
    ],
    [
      "463",
      "Escola Básica e Secundária Padre Manuel Álvares",
      "PUB",
      "R. A. Madeira",
      "Ribeira Brava",
      "9,02"
    ],
    [
      "464",
      "Escola Básica e Secundária da Povoação",
      "PUB",
      "R. A. Açores",
      "Povoação",
      "9,01"
    ],
    [
      "465",
      "Escola Secundária Eça de Queirós, Lisboa",
      "PUB",
      "Lisboa",
      "Lisboa",
      "9,00"
    ],
    [
      "466",
      "Escola Secundária Augusto Cabrita, Alto do Seixalinho",
      "PUB",
      "Setúbal",
      "Barreiro",
      "9,00"
    ],
    [
      "467",
      "Escola Básica e Secundária de Fajões, Oliveira de Azeméis",
      "PUB",
      "Aveiro",
      "Oliveira de Azeméis",
      "9,00"
    ],
    [
      "468",
      "Escola Secundária de S. João da Talha",
      "PUB",
      "Lisboa",
      "Loures",
      "8,98"
    ],
    [
      "469",
      "Escola Secundária Públia Hortênsia de Castro, Vila Viçosa",
      "PUB",
      "Évora",
      "Vila Viçosa",
      "8,98"
    ],
    [
      "470",
      "Escola Secundária de Odivelas",
      "PUB",
      "Lisboa",
      "Odivelas",
      "8,94"
    ],
    [
      "471",
      "Escola Secundária de Vendas Novas",
      "PUB",
      "Évora",
      "Vendas Novas",
      "8,91"
    ],
    [
      "472",
      "Externato de Vila Meã",
      "PRI",
      "Porto",
      "Amarante",
      "8,91"
    ],
    [
      "473",
      "Escola Secundária de Casquilhos",
      "PUB",
      "Setúbal",
      "Barreiro",
      "8,87"
    ],
    [
      "474",
      "Escola Secundária de Carvalhos",
      "PUB",
      "Porto",
      "Vila Nova de Gaia",
      "8,84"
    ],
    [
      "475",
      "Escola Secundária do Lumiar",
      "PUB",
      "Lisboa",
      "Lisboa",
      "8,80"
    ],
    [
      "476",
      "Escola Secundária da Ribeira Grande",
      "PUB",
      "R. A. Açores",
      "Ribeira Grande",
      "8,79"
    ],
    [
      "477",
      "Escola Básica e Secundária de Melgaço",
      "PUB",
      "Viana do Castelo",
      "Melgaço",
      "8,79"
    ],
    [
      "478",
      "Escola Básica e Secundária Gil Vicente",
      "PUB",
      "Lisboa",
      "Lisboa",
      "8,77"
    ],
    [
      "479",
      "Escola Secundária D. Manuel Martins",
      "PUB",
      "Setúbal",
      "Setúbal",
      "8,77"
    ],
    [
      "480",
      "Escola Básica e Secundária D. Sancho II, Alijó",
      "PUB",
      "Vila Real",
      "Alijó",
      "8,74"
    ],
    [
      "481",
      "Escola Secundária D. João II",
      "PUB",
      "Setúbal",
      "Setúbal",
      "8,67"
    ],
    [
      "482",
      "Escola Secundária das Laranjeiras",
      "PUB",
      "R. A. Açores",
      "Ponta Delgada",
      "8,65"
    ],
    [
      "483",
      "Escola Básica e Secundária Passos Manuel",
      "PUB",
      "Lisboa",
      "Lisboa",
      "8,61"
    ],
    [
      "484",
      "Escola Básica e Secundária Gonçalves Zarco",
      "PUB",
      "R. A. Madeira",
      "Funchal",
      "8,60"
    ],
    [
      "485",
      "Escola Básica e Secundária da Ponta do Sol",
      "PUB",
      "R. A. Madeira",
      "Ponta do Sol",
      "8,56"
    ],
    [
      "486",
      "Escola Secundária Conde de Monsaraz",
      "PUB",
      "Évora",
      "Reguengos de Monsaraz",
      "8,56"
    ],
    [
      "487",
      "Escola Básica e Secundária Mães de Água, Falagueira",
      "PUB",
      "Lisboa",
      "Amadora",
      "8,55"
    ],
    [
      "488",
      "Escola Básica e Secundária de Santa Maria",
      "PUB",
      "R. A. Açores",
      "Vila do Porto",
      "8,55"
    ],
    [
      "489",
      "Escola Secundária de Moura",
      "PUB",
      "Beja",
      "Moura",
      "8,52"
    ],
    [
      "490",
      "Escola Secundária Joaquim Araújo",
      "PUB",
      "Porto",
      "Penafiel",
      "8,52"
    ],
    [
      "491",
      "Escola Secundária Matias Aires, Mira-Sintra",
      "PUB",
      "Lisboa",
      "Sintra",
      "8,49"
    ],
    [
      "492",
      "Escola Secundária de Valbom",
      "PUB",
      "Porto",
      "Gondomar",
      "8,47"
    ],
    [
      "493",
      "Escola Secundária António Nobre",
      "PUB",
      "Porto",
      "Porto",
      "8,45"
    ],
    [
      "494",
      "Escola Secundária Manuel Cargaleiro",
      "PUB",
      "Setúbal",
      "Seixal",
      "8,43"
    ],
    [
      "495",
      "Escola Básica e Secundária Tenente Coronel Adão Carrapatoso",
      "PUB",
      "Guarda",
      "Vila Nova de Foz Côa",
      "8,43"
    ],
    [
      "496",
      "Escola Básica e Secundária Vila Franca do Campo",
      "PUB",
      "R. A. Açores",
      "Vila Franca do Campo",
      "8,43"
    ],
    [
      "497",
      "Escola Secundária D. Luísa de Gusmão",
      "PUB",
      "Lisboa",
      "Lisboa",
      "8,40"
    ],
    [
      "498",
      "Escola Secundária de S. Pedro da Cova",
      "PUB",
      "Porto",
      "Gondomar",
      "8,38"
    ],
    [
      "499",
      "Escola Básica e Secundária de Murça",
      "PUB",
      "Vila Real",
      "Murça",
      "8,36"
    ],
    [
      "500",
      "Escola Secundária Dr. Júlio Martins",
      "PUB",
      "Vila Real",
      "Chaves",
      "8,36"
    ],
    [
      "501",
      "Escola Secundária Vitorino Nemésio, Praia da Vitória",
      "PUB",
      "R. A. Açores",
      "Praia da Vitória",
      "8,35"
    ],
    [
      "502",
      "Escola Básica e Secundária Bispo D. Manuel Ferreira Cabral",
      "PUB",
      "R. A. Madeira",
      "Santana",
      "8,33"
    ],
    [
      "503",
      "Escola Secundária Padre Antº Martins Oliveira, Lagoa",
      "PUB",
      "Faro",
      "Lagoa",
      "8,26"
    ],
    [
      "504",
      "Escola Secundária Alexandre Herculano",
      "PUB",
      "Porto",
      "Porto",
      "8,20"
    ],
    [
      "505",
      "Escola Básica e Secundária de Pinheiro",
      "PUB",
      "Porto",
      "Penafiel",
      "8,04"
    ],
    [
      "506",
      "Escola Básica e Secundária D. João V, Damaia",
      "PUB",
      "Lisboa",
      "Amadora",
      "8,01"
    ],
    [
      "507",
      "Escola Secundária Seomara da Costa Primo",
      "PUB",
      "Lisboa",
      "Amadora",
      "7,94"
    ],
    [
      "508",
      "Escola Básica e Secundária do Cerco",
      "PUB",
      "Porto",
      "Porto",
      "7,80"
    ],
    [
      "509",
      "Escola Básica e Secundária Prof. Mendes Remédios, Nisa",
      "PUB",
      "Portalegre",
      "Nisa",
      "7,61"
    ],
    [
      "510",
      "Escola Básica e Secundária de Mogadouro",
      "PUB",
      "Bragança",
      "Mogadouro",
      "7,27"
    ]
  ]
}