freguesia,acronym,validVotesPercentage,votes,dicofre
Aboim da Nóbrega e Gondomar,PPD/PSD,50.43,234,031359
Aboim da Nóbrega e Gondomar,PS,31.03,144,031359
Aboim da Nóbrega e Gondomar,CDS-PP,6.68,31,031359
Aboim da Nóbrega e Gondomar,B.E.,4.53,21,031359
Aboim da Nóbrega e Gondomar,PAN,1.51,7,031359
Aboim da Nóbrega e Gondomar,NC,1.08,5,031359
Aboim da Nóbrega e Gondomar,PCP-PEV,1.08,5,031359
Aboim da Nóbrega e Gondomar,CH,0.86,4,031359
Aboim da Nóbrega e Gondomar,L,0.86,4,031359
Aboim da Nóbrega e Gondomar,R.I.R.,0.65,3,031359
Aboim da Nóbrega e Gondomar,A,0.43,2,031359
Aboim da Nóbrega e Gondomar,IL,0.43,2,031359
Aboim da Nóbrega e Gondomar,MAS,0.22,1,031359
Aboim da Nóbrega e Gondomar,PPM,0.22,1,031359
Aboim da Nóbrega e Gondomar,JPP,0,0,031359
Aboim da Nóbrega e Gondomar,MPT,0,0,031359
Aboim da Nóbrega e Gondomar,PCTP/MRPP,0,0,031359
Aboim da Nóbrega e Gondomar,PDR,0,0,031359
Aboim da Nóbrega e Gondomar,PNR,0,0,031359
Aboim da Nóbrega e Gondomar,PTP,0,0,031359
Aboim da Nóbrega e Gondomar,PURP,0,0,031359
