freguesia,acronym,validVotesPercentage,votes,dicofre
Alcochete,PS,38.24,2276,150201
Alcochete,PPD/PSD,19.35,1152,150201
Alcochete,PCP-PEV,13.1,780,150201
Alcochete,B.E.,10.97,653,150201
Alcochete,CDS-PP,5.65,336,150201
Alcochete,PAN,3.9,232,150201
Alcochete,CH,1.97,117,150201
Alcochete,IL,1.71,102,150201
Alcochete,L,1.38,82,150201
Alcochete,PCTP/MRPP,1.13,67,150201
Alcochete,A,0.89,53,150201
Alcochete,PNR,0.37,22,150201
Alcochete,R.I.R.,0.37,22,150201
Alcochete,MPT,0.22,13,150201
Alcochete,PURP,0.2,12,150201
Alcochete,NC,0.18,11,150201
Alcochete,PPM,0.15,9,150201
Alcochete,PTP,0.12,7,150201
Alcochete,PDR,0.07,4,150201
Alcochete,MAS,0.03,2,150201
