freguesia,acronym,validVotesPercentage,votes,dicofre
Aldeia Nova,PPD/PSD,52.82,75,091301
Aldeia Nova,PS,33.1,47,091301
Aldeia Nova,CDS-PP,7.75,11,091301
Aldeia Nova,B.E.,2.11,3,091301
Aldeia Nova,L,1.41,2,091301
Aldeia Nova,CH,0.7,1,091301
Aldeia Nova,PAN,0.7,1,091301
Aldeia Nova,PCP-PEV,0.7,1,091301
Aldeia Nova,R.I.R.,0.7,1,091301
Aldeia Nova,A,0,0,091301
Aldeia Nova,IL,0,0,091301
Aldeia Nova,MPT,0,0,091301
Aldeia Nova,NC,0,0,091301
Aldeia Nova,PCTP/MRPP,0,0,091301
Aldeia Nova,PDR,0,0,091301
Aldeia Nova,PNR,0,0,091301
Aldeia Nova,PPM,0,0,091301
Aldeia Nova,PTP,0,0,091301
Aldeia Nova,PURP,0,0,091301
