freguesia,acronym,validVotesPercentage,votes,dicofre
Aldeia da Mata,PS,46.67,91,120601
Aldeia da Mata,PPD/PSD,31.28,61,120601
Aldeia da Mata,PCP-PEV,8.21,16,120601
Aldeia da Mata,CDS-PP,5.64,11,120601
Aldeia da Mata,B.E.,3.59,7,120601
Aldeia da Mata,PCTP/MRPP,3.08,6,120601
Aldeia da Mata,PAN,0.51,1,120601
Aldeia da Mata,PDR,0.51,1,120601
Aldeia da Mata,R.I.R.,0.51,1,120601
Aldeia da Mata,A,0,0,120601
Aldeia da Mata,CH,0,0,120601
Aldeia da Mata,IL,0,0,120601
Aldeia da Mata,L,0,0,120601
Aldeia da Mata,MPT,0,0,120601
Aldeia da Mata,PNR,0,0,120601
Aldeia da Mata,PTP,0,0,120601
Aldeia da Mata,PURP,0,0,120601
