freguesia,acronym,validVotesPercentage,votes,dicofre
Aldeia do Bispo,PPD/PSD,49.61,64,091102
Aldeia do Bispo,PS,38.76,50,091102
Aldeia do Bispo,CDS-PP,3.88,5,091102
Aldeia do Bispo,B.E.,3.1,4,091102
Aldeia do Bispo,IL,1.55,2,091102
Aldeia do Bispo,PCP-PEV,1.55,2,091102
Aldeia do Bispo,L,0.78,1,091102
Aldeia do Bispo,PAN,0.78,1,091102
Aldeia do Bispo,A,0,0,091102
Aldeia do Bispo,CH,0,0,091102
Aldeia do Bispo,MPT,0,0,091102
Aldeia do Bispo,NC,0,0,091102
Aldeia do Bispo,PCTP/MRPP,0,0,091102
Aldeia do Bispo,PDR,0,0,091102
Aldeia do Bispo,PNR,0,0,091102
Aldeia do Bispo,PPM,0,0,091102
Aldeia do Bispo,PTP,0,0,091102
Aldeia do Bispo,PURP,0,0,091102
Aldeia do Bispo,R.I.R.,0,0,091102
