freguesia,acronym,validVotesPercentage,votes,dicofre
Alfragide,PS,36.08,3040,111512
Alfragide,PPD/PSD,26.5,2233,111512
Alfragide,B.E.,9.91,835,111512
Alfragide,PCP-PEV,6.66,561,111512
Alfragide,CDS-PP,4.69,395,111512
Alfragide,PAN,4.24,357,111512
Alfragide,IL,2.87,242,111512
Alfragide,L,2.6,219,111512
Alfragide,CH,2.12,179,111512
Alfragide,A,1.53,129,111512
Alfragide,PCTP/MRPP,0.8,67,111512
Alfragide,PURP,0.34,29,111512
Alfragide,NC,0.31,26,111512
Alfragide,R.I.R.,0.31,26,111512
Alfragide,PNR,0.3,25,111512
Alfragide,MPT,0.26,22,111512
Alfragide,MAS,0.15,13,111512
Alfragide,PPM,0.15,13,111512
Alfragide,PDR,0.14,12,111512
Alfragide,PTP,0.04,3,111512
