freguesia,acronym,validVotesPercentage,votes,dicofre
Alguber,PS,47,196,110401
Alguber,PPD/PSD,29.26,122,110401
Alguber,B.E.,8.15,34,110401
Alguber,PCP-PEV,4.8,20,110401
Alguber,PAN,2.4,10,110401
Alguber,CDS-PP,2.16,9,110401
Alguber,IL,1.2,5,110401
Alguber,A,0.96,4,110401
Alguber,PDR,0.96,4,110401
Alguber,R.I.R.,0.96,4,110401
Alguber,CH,0.48,2,110401
Alguber,L,0.48,2,110401
Alguber,PCTP/MRPP,0.48,2,110401
Alguber,PNR,0.48,2,110401
Alguber,PURP,0.24,1,110401
Alguber,MAS,0,0,110401
Alguber,MPT,0,0,110401
Alguber,NC,0,0,110401
Alguber,PPM,0,0,110401
Alguber,PTP,0,0,110401
