freguesia,acronym,validVotesPercentage,votes,dicofre
Alvadia,PPD/PSD,43.41,56,170901
Alvadia,PS,31.01,40,170901
Alvadia,CDS-PP,13.18,17,170901
Alvadia,A,2.33,3,170901
Alvadia,PCTP/MRPP,2.33,3,170901
Alvadia,B.E.,1.55,2,170901
Alvadia,L,1.55,2,170901
Alvadia,PCP-PEV,1.55,2,170901
Alvadia,PPM,1.55,2,170901
Alvadia,R.I.R.,1.55,2,170901
Alvadia,CH,0,0,170901
Alvadia,IL,0,0,170901
Alvadia,NC,0,0,170901
Alvadia,PAN,0,0,170901
Alvadia,PDR,0,0,170901
Alvadia,PNR,0,0,170901
