freguesia,acronym,validVotesPercentage,votes,dicofre
Alvarães,PPD/PSD,37.67,443,160902
Alvarães,PS,36.99,435,160902
Alvarães,B.E.,6.8,80,160902
Alvarães,CDS-PP,6.72,79,160902
Alvarães,PAN,2.55,30,160902
Alvarães,PCP-PEV,2.47,29,160902
Alvarães,R.I.R.,1.19,14,160902
Alvarães,A,0.68,8,160902
Alvarães,JPP,0.68,8,160902
Alvarães,PCTP/MRPP,0.68,8,160902
Alvarães,IL,0.6,7,160902
Alvarães,L,0.6,7,160902
Alvarães,CH,0.43,5,160902
Alvarães,PDR,0.43,5,160902
Alvarães,PURP,0.43,5,160902
Alvarães,NC,0.34,4,160902
Alvarães,PPM,0.34,4,160902
Alvarães,PNR,0.17,2,160902
Alvarães,PTP,0.17,2,160902
Alvarães,MPT,0.09,1,160902
