freguesia,acronym,validVotesPercentage,votes,dicofre
Alvarenga,PPD/PSD,48.87,259,010402
Alvarenga,PS,32.45,172,010402
Alvarenga,CDS-PP,8.49,45,010402
Alvarenga,B.E.,4.53,24,010402
Alvarenga,R.I.R.,1.51,8,010402
Alvarenga,PAN,0.94,5,010402
Alvarenga,PCP-PEV,0.75,4,010402
Alvarenga,PCTP/MRPP,0.57,3,010402
Alvarenga,CH,0.38,2,010402
Alvarenga,PTP,0.38,2,010402
Alvarenga,A,0.19,1,010402
Alvarenga,IL,0.19,1,010402
Alvarenga,JPP,0.19,1,010402
Alvarenga,L,0.19,1,010402
Alvarenga,PDR,0.19,1,010402
Alvarenga,PNR,0.19,1,010402
Alvarenga,MPT,0,0,010402
Alvarenga,NC,0,0,010402
Alvarenga,PPM,0,0,010402
Alvarenga,PURP,0,0,010402
