freguesia,acronym,validVotesPercentage,votes,dicofre
Alvares,PPD/PSD,44.89,145,060601
Alvares,PS,38.39,124,060601
Alvares,B.E.,4.64,15,060601
Alvares,CDS-PP,2.79,9,060601
Alvares,A,1.86,6,060601
Alvares,PAN,1.86,6,060601
Alvares,R.I.R.,1.86,6,060601
Alvares,CH,0.93,3,060601
Alvares,PCP-PEV,0.93,3,060601
Alvares,L,0.62,2,060601
Alvares,PNR,0.62,2,060601
Alvares,MAS,0.31,1,060601
Alvares,PCTP/MRPP,0.31,1,060601
Alvares,IL,0,0,060601
Alvares,JPP,0,0,060601
Alvares,MPT,0,0,060601
Alvares,NC,0,0,060601
Alvares,PDR,0,0,060601
Alvares,PPM,0,0,060601
Alvares,PURP,0,0,060601
