freguesia,acronym,validVotesPercentage,votes,dicofre
Alvorninha,PPD/PSD,46.07,581,100602
Alvorninha,PS,29.02,366,100602
Alvorninha,B.E.,7.93,100,100602
Alvorninha,CDS-PP,5.71,72,100602
Alvorninha,PAN,2.38,30,100602
Alvorninha,PCP-PEV,1.9,24,100602
Alvorninha,A,1.27,16,100602
Alvorninha,R.I.R.,1.19,15,100602
Alvorninha,CH,0.95,12,100602
Alvorninha,PCTP/MRPP,0.79,10,100602
Alvorninha,IL,0.56,7,100602
Alvorninha,PDR,0.48,6,100602
Alvorninha,L,0.4,5,100602
Alvorninha,MPT,0.32,4,100602
Alvorninha,PURP,0.32,4,100602
Alvorninha,PTP,0.24,3,100602
Alvorninha,NC,0.16,2,100602
Alvorninha,PNR,0.16,2,100602
Alvorninha,MAS,0.08,1,100602
Alvorninha,PPM,0.08,1,100602
Alvorninha,JPP,0,0,100602
