freguesia,acronym,validVotesPercentage,votes,dicofre
Alvoco da Serra,PS,46.67,112,091201
Alvoco da Serra,PPD/PSD,20,48,091201
Alvoco da Serra,PCP-PEV,17.08,41,091201
Alvoco da Serra,B.E.,6.25,15,091201
Alvoco da Serra,CDS-PP,5,12,091201
Alvoco da Serra,PCTP/MRPP,2.08,5,091201
Alvoco da Serra,CH,1.25,3,091201
Alvoco da Serra,L,0.42,1,091201
Alvoco da Serra,PDR,0.42,1,091201
Alvoco da Serra,PURP,0.42,1,091201
Alvoco da Serra,R.I.R.,0.42,1,091201
Alvoco da Serra,A,0,0,091201
Alvoco da Serra,IL,0,0,091201
Alvoco da Serra,MPT,0,0,091201
Alvoco da Serra,NC,0,0,091201
Alvoco da Serra,PAN,0,0,091201
Alvoco da Serra,PNR,0,0,091201
Alvoco da Serra,PPM,0,0,091201
Alvoco da Serra,PTP,0,0,091201
