freguesia,acronym,validVotesPercentage,votes,dicofre
Ansião,PS,39.08,707,100309
Ansião,PPD/PSD,38.53,697,100309
Ansião,B.E.,6.25,113,100309
Ansião,CDS-PP,3.87,70,100309
Ansião,PCP-PEV,2.87,52,100309
Ansião,PAN,2.21,40,100309
Ansião,CH,1.49,27,100309
Ansião,L,1,18,100309
Ansião,R.I.R.,0.94,17,100309
Ansião,IL,0.77,14,100309
Ansião,A,0.66,12,100309
Ansião,PCTP/MRPP,0.44,8,100309
Ansião,MPT,0.33,6,100309
Ansião,PDR,0.33,6,100309
Ansião,PNR,0.33,6,100309
Ansião,PURP,0.33,6,100309
Ansião,MAS,0.22,4,100309
Ansião,NC,0.11,2,100309
Ansião,PPM,0.11,2,100309
Ansião,PTP,0.11,2,100309
Ansião,JPP,0,0,100309
