freguesia,acronym,validVotesPercentage,votes,dicofre
Arco da Calheta,PPD/PSD,59.73,1004,310101
Arco da Calheta,PS,20.35,342,310101
Arco da Calheta,CDS-PP,7.91,133,310101
Arco da Calheta,B.E.,3.87,65,310101
Arco da Calheta,JPP,1.67,28,310101
Arco da Calheta,PAN,1.49,25,310101
Arco da Calheta,PTP,0.89,15,310101
Arco da Calheta,R.I.R.,0.83,14,310101
Arco da Calheta,CH,0.54,9,310101
Arco da Calheta,PCP-PEV,0.54,9,310101
Arco da Calheta,PURP,0.54,9,310101
Arco da Calheta,PDR,0.3,5,310101
Arco da Calheta,L,0.24,4,310101
Arco da Calheta,PPM,0.24,4,310101
Arco da Calheta,A,0.18,3,310101
Arco da Calheta,IL,0.18,3,310101
Arco da Calheta,PCTP/MRPP,0.18,3,310101
Arco da Calheta,PNR,0.18,3,310101
Arco da Calheta,MPT,0.12,2,310101
Arco da Calheta,NC,0.06,1,310101
