freguesia,acronym,validVotesPercentage,votes,dicofre
Argozelo,PS,49.27,169,041103
Argozelo,PPD/PSD,42.86,147,041103
Argozelo,B.E.,2.62,9,041103
Argozelo,A,1.46,5,041103
Argozelo,PAN,1.46,5,041103
Argozelo,CH,0.58,2,041103
Argozelo,PCP-PEV,0.58,2,041103
Argozelo,CDS-PP,0.29,1,041103
Argozelo,IL,0.29,1,041103
Argozelo,L,0.29,1,041103
Argozelo,NC,0.29,1,041103
Argozelo,PCTP/MRPP,0,0,041103
Argozelo,PDR,0,0,041103
Argozelo,PNR,0,0,041103
Argozelo,PPM,0,0,041103
Argozelo,PTP,0,0,041103
Argozelo,PURP,0,0,041103
Argozelo,R.I.R.,0,0,041103
