freguesia,acronym,validVotesPercentage,votes,dicofre
Arnóia,PS,42.11,331,030502
Arnóia,PPD/PSD,34.99,275,030502
Arnóia,B.E.,7.76,61,030502
Arnóia,CDS-PP,3.56,28,030502
Arnóia,PAN,3.56,28,030502
Arnóia,PCP-PEV,2.04,16,030502
Arnóia,R.I.R.,1.4,11,030502
Arnóia,CH,0.89,7,030502
Arnóia,A,0.64,5,030502
Arnóia,L,0.51,4,030502
Arnóia,PDR,0.51,4,030502
Arnóia,PPM,0.51,4,030502
Arnóia,PCTP/MRPP,0.38,3,030502
Arnóia,IL,0.25,2,030502
Arnóia,MAS,0.25,2,030502
Arnóia,MPT,0.25,2,030502
Arnóia,JPP,0.13,1,030502
Arnóia,PTP,0.13,1,030502
Arnóia,PURP,0.13,1,030502
Arnóia,NC,0,0,030502
Arnóia,PNR,0,0,030502
