freguesia,acronym,validVotesPercentage,votes,dicofre
Arrifana,PPD/PSD,39.86,110,090706
Arrifana,PS,34.06,94,090706
Arrifana,B.E.,9.06,25,090706
Arrifana,CDS-PP,7.97,22,090706
Arrifana,CH,1.81,5,090706
Arrifana,IL,1.45,4,090706
Arrifana,L,1.45,4,090706
Arrifana,PCP-PEV,1.09,3,090706
Arrifana,PDR,1.09,3,090706
Arrifana,A,0.72,2,090706
Arrifana,PCTP/MRPP,0.72,2,090706
Arrifana,NC,0.36,1,090706
Arrifana,PAN,0.36,1,090706
Arrifana,MPT,0,0,090706
Arrifana,PNR,0,0,090706
Arrifana,PPM,0,0,090706
Arrifana,PTP,0,0,090706
Arrifana,PURP,0,0,090706
Arrifana,R.I.R.,0,0,090706
