freguesia,acronym,validVotesPercentage,votes,dicofre
Astromil,PPD/PSD,42.05,230,131002
Astromil,PS,35.47,194,131002
Astromil,B.E.,6.58,36,131002
Astromil,CDS-PP,4.02,22,131002
Astromil,PCP-PEV,3.11,17,131002
Astromil,PAN,2.01,11,131002
Astromil,IL,1.83,10,131002
Astromil,R.I.R.,1.1,6,131002
Astromil,A,0.91,5,131002
Astromil,CH,0.73,4,131002
Astromil,L,0.73,4,131002
Astromil,MPT,0.37,2,131002
Astromil,JPP,0.18,1,131002
Astromil,MAS,0.18,1,131002
Astromil,NC,0.18,1,131002
Astromil,PCTP/MRPP,0.18,1,131002
Astromil,PDR,0.18,1,131002
Astromil,PNR,0.18,1,131002
Astromil,PPM,0,0,131002
Astromil,PTP,0,0,131002
Astromil,PURP,0,0,131002
