freguesia,acronym,validVotesPercentage,votes,dicofre
Atouguia da Baleia,PS,36.35,1401,101402
Atouguia da Baleia,PPD/PSD,32.8,1264,101402
Atouguia da Baleia,B.E.,9.83,379,101402
Atouguia da Baleia,PCP-PEV,4.67,180,101402
Atouguia da Baleia,CDS-PP,4.31,166,101402
Atouguia da Baleia,PAN,3.22,124,101402
Atouguia da Baleia,CH,2.13,82,101402
Atouguia da Baleia,R.I.R.,1.17,45,101402
Atouguia da Baleia,IL,1.04,40,101402
Atouguia da Baleia,L,0.91,35,101402
Atouguia da Baleia,PCTP/MRPP,0.73,28,101402
Atouguia da Baleia,A,0.52,20,101402
Atouguia da Baleia,MPT,0.39,15,101402
Atouguia da Baleia,PPM,0.39,15,101402
Atouguia da Baleia,NC,0.34,13,101402
Atouguia da Baleia,PNR,0.31,12,101402
Atouguia da Baleia,PURP,0.31,12,101402
Atouguia da Baleia,PDR,0.21,8,101402
Atouguia da Baleia,MAS,0.16,6,101402
Atouguia da Baleia,JPP,0.13,5,101402
Atouguia da Baleia,PTP,0.1,4,101402
