freguesia,acronym,validVotesPercentage,votes,dicofre
Azinhaga,PS,46.15,342,141201
Azinhaga,PCP-PEV,22.54,167,141201
Azinhaga,PPD/PSD,10.39,77,141201
Azinhaga,B.E.,9.18,68,141201
Azinhaga,CDS-PP,5.13,38,141201
Azinhaga,CH,1.21,9,141201
Azinhaga,PCTP/MRPP,1.08,8,141201
Azinhaga,PAN,0.94,7,141201
Azinhaga,IL,0.67,5,141201
Azinhaga,PDR,0.67,5,141201
Azinhaga,L,0.4,3,141201
Azinhaga,NC,0.4,3,141201
Azinhaga,R.I.R.,0.4,3,141201
Azinhaga,A,0.27,2,141201
Azinhaga,PTP,0.27,2,141201
Azinhaga,PNR,0.13,1,141201
Azinhaga,PPM,0.13,1,141201
Azinhaga,MPT,0,0,141201
Azinhaga,PURP,0,0,141201
