freguesia,acronym,validVotesPercentage,votes,dicofre
Barrosa,PS,48.82,124,140504
Barrosa,PCP-PEV,15.75,40,140504
Barrosa,B.E.,12.99,33,140504
Barrosa,PPD/PSD,7.48,19,140504
Barrosa,PAN,3.94,10,140504
Barrosa,CH,3.54,9,140504
Barrosa,PCTP/MRPP,1.57,4,140504
Barrosa,R.I.R.,1.57,4,140504
Barrosa,IL,1.18,3,140504
Barrosa,CDS-PP,0.79,2,140504
Barrosa,L,0.79,2,140504
Barrosa,A,0.39,1,140504
Barrosa,MPT,0.39,1,140504
Barrosa,PDR,0.39,1,140504
Barrosa,PTP,0.39,1,140504
Barrosa,NC,0,0,140504
Barrosa,PNR,0,0,140504
Barrosa,PPM,0,0,140504
Barrosa,PURP,0,0,140504
