freguesia,acronym,validVotesPercentage,votes,dicofre
Batalha,PPD/PSD,37.38,1502,100401
Batalha,PS,28.15,1131,100401
Batalha,B.E.,10.85,436,100401
Batalha,CDS-PP,8.29,333,100401
Batalha,PAN,2.99,120,100401
Batalha,PCP-PEV,2.71,109,100401
Batalha,IL,1.72,69,100401
Batalha,CH,1.47,59,100401
Batalha,R.I.R.,1.12,45,100401
Batalha,A,1.1,44,100401
Batalha,L,0.97,39,100401
Batalha,PCTP/MRPP,0.72,29,100401
Batalha,PNR,0.52,21,100401
Batalha,NC,0.35,14,100401
Batalha,PDR,0.32,13,100401
Batalha,MPT,0.3,12,100401
Batalha,PTP,0.3,12,100401
Batalha,PURP,0.27,11,100401
Batalha,PPM,0.25,10,100401
Batalha,JPP,0.17,7,100401
Batalha,MAS,0.05,2,100401
