freguesia,acronym,validVotesPercentage,votes,dicofre
Beato,PS,43.12,2463,110607
Beato,PPD/PSD,17.93,1024,110607
Beato,B.E.,10.66,609,110607
Beato,PCP-PEV,10,571,110607
Beato,PAN,4.94,282,110607
Beato,CDS-PP,3.22,184,110607
Beato,IL,2.07,118,110607
Beato,CH,1.91,109,110607
Beato,L,1.84,105,110607
Beato,A,1.19,68,110607
Beato,PCTP/MRPP,1.07,61,110607
Beato,PNR,0.35,20,110607
Beato,R.I.R.,0.32,18,110607
Beato,PPM,0.3,17,110607
Beato,NC,0.23,13,110607
Beato,MPT,0.21,12,110607
Beato,PURP,0.21,12,110607
Beato,PTP,0.18,10,110607
Beato,MAS,0.16,9,110607
Beato,PDR,0.12,7,110607
