freguesia,acronym,validVotesPercentage,votes,dicofre
Bemposta,PS,55.53,427,140104
Bemposta,PPD/PSD,14.04,108,140104
Bemposta,B.E.,11.7,90,140104
Bemposta,PCP-PEV,7.41,57,140104
Bemposta,CDS-PP,3.12,24,140104
Bemposta,PAN,2.34,18,140104
Bemposta,CH,1.69,13,140104
Bemposta,L,0.91,7,140104
Bemposta,PNR,0.78,6,140104
Bemposta,R.I.R.,0.65,5,140104
Bemposta,PCTP/MRPP,0.39,3,140104
Bemposta,PURP,0.39,3,140104
Bemposta,PDR,0.26,2,140104
Bemposta,PPM,0.26,2,140104
Bemposta,PTP,0.26,2,140104
Bemposta,A,0.13,1,140104
Bemposta,NC,0.13,1,140104
Bemposta,IL,0,0,140104
Bemposta,MPT,0,0,140104
