freguesia,acronym,validVotesPercentage,votes,dicofre
Bilhó,PPD/PSD,39.53,100,170502
Bilhó,PS,27.27,69,170502
Bilhó,CDS-PP,21.74,55,170502
Bilhó,B.E.,6.32,16,170502
Bilhó,PAN,1.19,3,170502
Bilhó,A,0.79,2,170502
Bilhó,CH,0.79,2,170502
Bilhó,R.I.R.,0.79,2,170502
Bilhó,IL,0.4,1,170502
Bilhó,L,0.4,1,170502
Bilhó,PCTP/MRPP,0.4,1,170502
Bilhó,PPM,0.4,1,170502
Bilhó,NC,0,0,170502
Bilhó,PCP-PEV,0,0,170502
Bilhó,PDR,0,0,170502
Bilhó,PNR,0,0,170502
