freguesia,acronym,validVotesPercentage,votes,dicofre
Bogas de Cima,PPD/PSD,39.26,64,050410
Bogas de Cima,PS,34.97,57,050410
Bogas de Cima,CDS-PP,12.88,21,050410
Bogas de Cima,B.E.,4.29,7,050410
Bogas de Cima,PCP-PEV,2.45,4,050410
Bogas de Cima,A,1.23,2,050410
Bogas de Cima,PAN,1.23,2,050410
Bogas de Cima,PNR,1.23,2,050410
Bogas de Cima,CH,0.61,1,050410
Bogas de Cima,L,0.61,1,050410
Bogas de Cima,MPT,0.61,1,050410
Bogas de Cima,PCTP/MRPP,0.61,1,050410
Bogas de Cima,IL,0,0,050410
Bogas de Cima,PDR,0,0,050410
Bogas de Cima,PPM,0,0,050410
Bogas de Cima,PTP,0,0,050410
Bogas de Cima,PURP,0,0,050410
Bogas de Cima,R.I.R.,0,0,050410
