freguesia,acronym,validVotesPercentage,votes,dicofre
Boticas e Granja,PPD/PSD,58.49,479,170219
Boticas e Granja,PS,28.82,236,170219
Boticas e Granja,B.E.,4.76,39,170219
Boticas e Granja,CDS-PP,2.08,17,170219
Boticas e Granja,PCP-PEV,2.08,17,170219
Boticas e Granja,R.I.R.,1.22,10,170219
Boticas e Granja,CH,0.49,4,170219
Boticas e Granja,NC,0.37,3,170219
Boticas e Granja,PCTP/MRPP,0.37,3,170219
Boticas e Granja,A,0.24,2,170219
Boticas e Granja,IL,0.24,2,170219
Boticas e Granja,L,0.24,2,170219
Boticas e Granja,PAN,0.24,2,170219
Boticas e Granja,PPM,0.24,2,170219
Boticas e Granja,PNR,0.12,1,170219
Boticas e Granja,PDR,0,0,170219
