freguesia,acronym,validVotesPercentage,votes,dicofre
Bragado,PPD/PSD,46.43,130,171304
Bragado,PS,40,112,171304
Bragado,CDS-PP,6.07,17,171304
Bragado,B.E.,1.79,5,171304
Bragado,A,1.43,4,171304
Bragado,PAN,1.07,3,171304
Bragado,CH,0.71,2,171304
Bragado,NC,0.71,2,171304
Bragado,PPM,0.71,2,171304
Bragado,L,0.36,1,171304
Bragado,PDR,0.36,1,171304
Bragado,PNR,0.36,1,171304
Bragado,IL,0,0,171304
Bragado,PCP-PEV,0,0,171304
Bragado,PCTP/MRPP,0,0,171304
Bragado,R.I.R.,0,0,171304
