freguesia,acronym,validVotesPercentage,votes,dicofre
Branca,PPD/PSD,36.29,941,010204
Branca,PS,32.39,840,010204
Branca,CDS-PP,13.61,353,010204
Branca,B.E.,7.94,206,010204
Branca,PCP-PEV,2.35,61,010204
Branca,PAN,2.2,57,010204
Branca,CH,0.89,23,010204
Branca,IL,0.73,19,010204
Branca,L,0.66,17,010204
Branca,R.I.R.,0.66,17,010204
Branca,PCTP/MRPP,0.62,16,010204
Branca,A,0.46,12,010204
Branca,JPP,0.27,7,010204
Branca,PDR,0.19,5,010204
Branca,PURP,0.19,5,010204
Branca,MPT,0.12,3,010204
Branca,PNR,0.12,3,010204
Branca,PPM,0.12,3,010204
Branca,PTP,0.12,3,010204
Branca,NC,0.08,2,010204
