freguesia,acronym,validVotesPercentage,votes,dicofre
Britiande,PS,40.13,181,180504
Britiande,PPD/PSD,38.14,172,180504
Britiande,B.E.,8.2,37,180504
Britiande,CDS-PP,5.1,23,180504
Britiande,PCP-PEV,2.22,10,180504
Britiande,PAN,2,9,180504
Britiande,CH,1.11,5,180504
Britiande,L,0.67,3,180504
Britiande,PCTP/MRPP,0.67,3,180504
Britiande,R.I.R.,0.67,3,180504
Britiande,PDR,0.44,2,180504
Britiande,PURP,0.44,2,180504
Britiande,PPM,0.22,1,180504
Britiande,A,0,0,180504
Britiande,IL,0,0,180504
Britiande,JPP,0,0,180504
Britiande,MPT,0,0,180504
Britiande,NC,0,0,180504
Britiande,PNR,0,0,180504
Britiande,PTP,0,0,180504
