freguesia,acronym,validVotesPercentage,votes,dicofre
Brunhoso,PPD/PSD,58.68,71,040804
Brunhoso,PS,25.62,31,040804
Brunhoso,B.E.,4.96,6,040804
Brunhoso,R.I.R.,3.31,4,040804
Brunhoso,CDS-PP,2.48,3,040804
Brunhoso,PCP-PEV,2.48,3,040804
Brunhoso,CH,0.83,1,040804
Brunhoso,PAN,0.83,1,040804
Brunhoso,PCTP/MRPP,0.83,1,040804
Brunhoso,A,0,0,040804
Brunhoso,IL,0,0,040804
Brunhoso,L,0,0,040804
Brunhoso,NC,0,0,040804
Brunhoso,PDR,0,0,040804
Brunhoso,PNR,0,0,040804
Brunhoso,PPM,0,0,040804
Brunhoso,PTP,0,0,040804
Brunhoso,PURP,0,0,040804
