freguesia,acronym,validVotesPercentage,votes,dicofre
Calhetas,PS,42.74,100,420501
Calhetas,PPD/PSD,28.63,67,420501
Calhetas,B.E.,9.4,22,420501
Calhetas,CDS-PP,5.56,13,420501
Calhetas,PAN,4.27,10,420501
Calhetas,CH,2.14,5,420501
Calhetas,L,2.14,5,420501
Calhetas,IL,1.71,4,420501
Calhetas,A,1.28,3,420501
Calhetas,MPT,1.28,3,420501
Calhetas,PCP-PEV,0.43,1,420501
Calhetas,PCTP/MRPP,0.43,1,420501
Calhetas,MAS,0,0,420501
Calhetas,PDR,0,0,420501
Calhetas,PNR,0,0,420501
Calhetas,PPM,0,0,420501
Calhetas,PTP,0,0,420501
