freguesia,acronym,validVotesPercentage,votes,dicofre
Cambres,PS,52.46,331,180505
Cambres,PPD/PSD,25.04,158,180505
Cambres,B.E.,7.61,48,180505
Cambres,CDS-PP,5.23,33,180505
Cambres,PCP-PEV,4.28,27,180505
Cambres,PAN,1.27,8,180505
Cambres,PCTP/MRPP,0.79,5,180505
Cambres,PPM,0.63,4,180505
Cambres,CH,0.48,3,180505
Cambres,IL,0.48,3,180505
Cambres,PDR,0.48,3,180505
Cambres,R.I.R.,0.48,3,180505
Cambres,PURP,0.32,2,180505
Cambres,A,0.16,1,180505
Cambres,L,0.16,1,180505
Cambres,PNR,0.16,1,180505
Cambres,JPP,0,0,180505
Cambres,MPT,0,0,180505
Cambres,NC,0,0,180505
Cambres,PTP,0,0,180505
