freguesia,acronym,validVotesPercentage,votes,dicofre
Canelas,PPD/PSD,45.05,364,131105
Canelas,PS,30.45,246,131105
Canelas,R.I.R.,7.05,57,131105
Canelas,B.E.,5.2,42,131105
Canelas,CDS-PP,3.22,26,131105
Canelas,PCP-PEV,2.48,20,131105
Canelas,PAN,2.23,18,131105
Canelas,CH,0.99,8,131105
Canelas,IL,0.74,6,131105
Canelas,JPP,0.5,4,131105
Canelas,MPT,0.37,3,131105
Canelas,PCTP/MRPP,0.37,3,131105
Canelas,PNR,0.37,3,131105
Canelas,PURP,0.37,3,131105
Canelas,L,0.25,2,131105
Canelas,A,0.12,1,131105
Canelas,NC,0.12,1,131105
Canelas,PTP,0.12,1,131105
Canelas,MAS,0,0,131105
Canelas,PDR,0,0,131105
Canelas,PPM,0,0,131105
