freguesia,acronym,validVotesPercentage,votes,dicofre
Canedo,PPD/PSD,53.55,83,170902
Canedo,PS,39.35,61,170902
Canedo,CDS-PP,3.87,6,170902
Canedo,B.E.,2.58,4,170902
Canedo,R.I.R.,0.65,1,170902
Canedo,A,0,0,170902
Canedo,CH,0,0,170902
Canedo,IL,0,0,170902
Canedo,L,0,0,170902
Canedo,NC,0,0,170902
Canedo,PAN,0,0,170902
Canedo,PCP-PEV,0,0,170902
Canedo,PCTP/MRPP,0,0,170902
Canedo,PDR,0,0,170902
Canedo,PNR,0,0,170902
Canedo,PPM,0,0,170902
