freguesia,acronym,validVotesPercentage,votes,dicofre
Capeludos,PPD/PSD,54.59,119,171305
Capeludos,PS,35.78,78,171305
Capeludos,B.E.,3.21,7,171305
Capeludos,CDS-PP,2.75,6,171305
Capeludos,A,0.46,1,171305
Capeludos,IL,0.46,1,171305
Capeludos,NC,0.46,1,171305
Capeludos,PAN,0.46,1,171305
Capeludos,PCP-PEV,0.46,1,171305
Capeludos,PCTP/MRPP,0.46,1,171305
Capeludos,PNR,0.46,1,171305
Capeludos,PPM,0.46,1,171305
Capeludos,CH,0,0,171305
Capeludos,L,0,0,171305
Capeludos,PDR,0,0,171305
Capeludos,R.I.R.,0,0,171305
