freguesia,acronym,validVotesPercentage,votes,dicofre
Carnide,PS,35.77,3558,110611
Carnide,PPD/PSD,26.1,2596,110611
Carnide,PCP-PEV,8.91,886,110611
Carnide,B.E.,8.78,873,110611
Carnide,CDS-PP,5.38,535,110611
Carnide,PAN,3.96,394,110611
Carnide,IL,3.61,359,110611
Carnide,L,2.63,262,110611
Carnide,CH,1.41,140,110611
Carnide,A,1.28,127,110611
Carnide,PCTP/MRPP,0.65,65,110611
Carnide,PNR,0.35,35,110611
Carnide,NC,0.21,21,110611
Carnide,R.I.R.,0.19,19,110611
Carnide,PPM,0.16,16,110611
Carnide,PURP,0.16,16,110611
Carnide,MPT,0.14,14,110611
Carnide,MAS,0.11,11,110611
Carnide,PTP,0.1,10,110611
Carnide,PDR,0.09,9,110611
