freguesia,acronym,validVotesPercentage,votes,dicofre
Carvalhal,PPD/PSD,44.7,346,030220
Carvalhal,PS,37.47,290,030220
Carvalhal,B.E.,7.11,55,030220
Carvalhal,CDS-PP,4.13,32,030220
Carvalhal,PCP-PEV,1.81,14,030220
Carvalhal,PAN,1.03,8,030220
Carvalhal,IL,0.78,6,030220
Carvalhal,R.I.R.,0.65,5,030220
Carvalhal,CH,0.52,4,030220
Carvalhal,PCTP/MRPP,0.52,4,030220
Carvalhal,A,0.26,2,030220
Carvalhal,MAS,0.26,2,030220
Carvalhal,JPP,0.13,1,030220
Carvalhal,L,0.13,1,030220
Carvalhal,MPT,0.13,1,030220
Carvalhal,NC,0.13,1,030220
Carvalhal,PTP,0.13,1,030220
Carvalhal,PURP,0.13,1,030220
Carvalhal,PDR,0,0,030220
Carvalhal,PNR,0,0,030220
Carvalhal,PPM,0,0,030220
