freguesia,acronym,validVotesPercentage,votes,dicofre
Carvalhal,PS,49.77,107,050902
Carvalhal,PPD/PSD,35.81,77,050902
Carvalhal,CDS-PP,5.58,12,050902
Carvalhal,B.E.,3.72,8,050902
Carvalhal,PAN,1.86,4,050902
Carvalhal,PCP-PEV,1.4,3,050902
Carvalhal,PCTP/MRPP,0.93,2,050902
Carvalhal,CH,0.47,1,050902
Carvalhal,R.I.R.,0.47,1,050902
Carvalhal,A,0,0,050902
Carvalhal,IL,0,0,050902
Carvalhal,L,0,0,050902
Carvalhal,MPT,0,0,050902
Carvalhal,PDR,0,0,050902
Carvalhal,PNR,0,0,050902
Carvalhal,PPM,0,0,050902
Carvalhal,PTP,0,0,050902
Carvalhal,PURP,0,0,050902
