freguesia,acronym,validVotesPercentage,votes,dicofre
Casas do Soeiro,PS,43.37,121,090322
Casas do Soeiro,PPD/PSD,38.71,108,090322
Casas do Soeiro,B.E.,8.96,25,090322
Casas do Soeiro,CDS-PP,3.58,10,090322
Casas do Soeiro,PCP-PEV,1.79,5,090322
Casas do Soeiro,PAN,0.72,2,090322
Casas do Soeiro,R.I.R.,0.72,2,090322
Casas do Soeiro,A,0.36,1,090322
Casas do Soeiro,CH,0.36,1,090322
Casas do Soeiro,L,0.36,1,090322
Casas do Soeiro,MPT,0.36,1,090322
Casas do Soeiro,PCTP/MRPP,0.36,1,090322
Casas do Soeiro,PNR,0.36,1,090322
Casas do Soeiro,IL,0,0,090322
Casas do Soeiro,NC,0,0,090322
Casas do Soeiro,PDR,0,0,090322
Casas do Soeiro,PPM,0,0,090322
Casas do Soeiro,PTP,0,0,090322
Casas do Soeiro,PURP,0,0,090322
