freguesia,acronym,validVotesPercentage,votes,dicofre
Castelo Novo,PS,41.56,64,050413
Castelo Novo,PPD/PSD,29.87,46,050413
Castelo Novo,B.E.,11.04,17,050413
Castelo Novo,A,2.6,4,050413
Castelo Novo,CDS-PP,2.6,4,050413
Castelo Novo,L,2.6,4,050413
Castelo Novo,PCP-PEV,2.6,4,050413
Castelo Novo,PAN,1.95,3,050413
Castelo Novo,PDR,1.95,3,050413
Castelo Novo,IL,0.65,1,050413
Castelo Novo,PCTP/MRPP,0.65,1,050413
Castelo Novo,PTP,0.65,1,050413
Castelo Novo,PURP,0.65,1,050413
Castelo Novo,R.I.R.,0.65,1,050413
Castelo Novo,CH,0,0,050413
Castelo Novo,MPT,0,0,050413
Castelo Novo,PNR,0,0,050413
Castelo Novo,PPM,0,0,050413
