freguesia,acronym,validVotesPercentage,votes,dicofre
Cedães,PPD/PSD,41.14,72,040712
Cedães,PS,37.71,66,040712
Cedães,B.E.,4.57,8,040712
Cedães,PCP-PEV,4.57,8,040712
Cedães,CDS-PP,4,7,040712
Cedães,CH,2.29,4,040712
Cedães,PAN,1.71,3,040712
Cedães,IL,1.14,2,040712
Cedães,PURP,1.14,2,040712
Cedães,R.I.R.,1.14,2,040712
Cedães,PCTP/MRPP,0.57,1,040712
Cedães,A,0,0,040712
Cedães,L,0,0,040712
Cedães,NC,0,0,040712
Cedães,PDR,0,0,040712
Cedães,PNR,0,0,040712
Cedães,PPM,0,0,040712
Cedães,PTP,0,0,040712
