freguesia,acronym,validVotesPercentage,votes,dicofre
Constância,PS,36.27,177,140801
Constância,PPD/PSD,16.6,81,140801
Constância,B.E.,11.89,58,140801
Constância,PCP-PEV,11.89,58,140801
Constância,CDS-PP,7.17,35,140801
Constância,CH,4.71,23,140801
Constância,PAN,2.66,13,140801
Constância,A,1.64,8,140801
Constância,L,1.43,7,140801
Constância,PCTP/MRPP,1.23,6,140801
Constância,NC,1.02,5,140801
Constância,PNR,0.82,4,140801
Constância,R.I.R.,0.82,4,140801
Constância,IL,0.61,3,140801
Constância,PDR,0.61,3,140801
Constância,MPT,0.41,2,140801
Constância,PPM,0.2,1,140801
Constância,PTP,0,0,140801
Constância,PURP,0,0,140801
