freguesia,acronym,validVotesPercentage,votes,dicofre
Coriscada,PPD/PSD,42.45,45,090905
Coriscada,PS,38.68,41,090905
Coriscada,CDS-PP,7.55,8,090905
Coriscada,B.E.,3.77,4,090905
Coriscada,CH,1.89,2,090905
Coriscada,PCTP/MRPP,1.89,2,090905
Coriscada,A,0.94,1,090905
Coriscada,MPT,0.94,1,090905
Coriscada,PAN,0.94,1,090905
Coriscada,R.I.R.,0.94,1,090905
Coriscada,IL,0,0,090905
Coriscada,L,0,0,090905
Coriscada,NC,0,0,090905
Coriscada,PCP-PEV,0,0,090905
Coriscada,PDR,0,0,090905
Coriscada,PNR,0,0,090905
Coriscada,PPM,0,0,090905
Coriscada,PTP,0,0,090905
Coriscada,PURP,0,0,090905
