freguesia,acronym,validVotesPercentage,votes,dicofre
Creixomil,PPD/PSD,36.02,1937,030813
Creixomil,PS,34.81,1872,030813
Creixomil,B.E.,10.38,558,030813
Creixomil,PCP-PEV,7.05,379,030813
Creixomil,CDS-PP,3.81,205,030813
Creixomil,PAN,2.9,156,030813
Creixomil,IL,1.08,58,030813
Creixomil,L,0.74,40,030813
Creixomil,A,0.71,38,030813
Creixomil,PCTP/MRPP,0.65,35,030813
Creixomil,CH,0.52,28,030813
Creixomil,R.I.R.,0.37,20,030813
Creixomil,MPT,0.2,11,030813
Creixomil,PNR,0.2,11,030813
Creixomil,NC,0.13,7,030813
Creixomil,JPP,0.09,5,030813
Creixomil,PPM,0.09,5,030813
Creixomil,PTP,0.09,5,030813
Creixomil,PDR,0.07,4,030813
Creixomil,PURP,0.07,4,030813
Creixomil,MAS,0,0,030813
