freguesia,acronym,validVotesPercentage,votes,dicofre
Cruz,PPD/PSD,42.61,421,031212
Cruz,PS,35.02,346,031212
Cruz,B.E.,7.49,74,031212
Cruz,CDS-PP,5.36,53,031212
Cruz,PCP-PEV,2.94,29,031212
Cruz,PAN,1.92,19,031212
Cruz,IL,1.01,10,031212
Cruz,R.I.R.,0.71,7,031212
Cruz,PCTP/MRPP,0.61,6,031212
Cruz,A,0.51,5,031212
Cruz,CH,0.51,5,031212
Cruz,L,0.4,4,031212
Cruz,MPT,0.2,2,031212
Cruz,NC,0.2,2,031212
Cruz,PDR,0.2,2,031212
Cruz,PNR,0.2,2,031212
Cruz,MAS,0.1,1,031212
Cruz,JPP,0,0,031212
Cruz,PPM,0,0,031212
Cruz,PTP,0,0,031212
Cruz,PURP,0,0,031212
