freguesia,acronym,validVotesPercentage,votes,dicofre
Cunha Baixa,PPD/PSD,39.15,175,180605
Cunha Baixa,PS,37.81,169,180605
Cunha Baixa,B.E.,8.5,38,180605
Cunha Baixa,CDS-PP,6.04,27,180605
Cunha Baixa,PAN,1.79,8,180605
Cunha Baixa,PCP-PEV,1.34,6,180605
Cunha Baixa,R.I.R.,1.34,6,180605
Cunha Baixa,A,1.12,5,180605
Cunha Baixa,CH,0.89,4,180605
Cunha Baixa,PCTP/MRPP,0.67,3,180605
Cunha Baixa,PDR,0.45,2,180605
Cunha Baixa,PPM,0.45,2,180605
Cunha Baixa,L,0.22,1,180605
Cunha Baixa,PURP,0.22,1,180605
Cunha Baixa,IL,0,0,180605
Cunha Baixa,JPP,0,0,180605
Cunha Baixa,MPT,0,0,180605
Cunha Baixa,NC,0,0,180605
Cunha Baixa,PNR,0,0,180605
Cunha Baixa,PTP,0,0,180605
