freguesia,acronym,validVotesPercentage,votes,dicofre
Curalha,PPD/PSD,38.05,78,170310
Curalha,PS,34.15,70,170310
Curalha,PCP-PEV,11.71,24,170310
Curalha,CDS-PP,7.32,15,170310
Curalha,B.E.,2.93,6,170310
Curalha,PCTP/MRPP,1.95,4,170310
Curalha,A,1.46,3,170310
Curalha,CH,0.98,2,170310
Curalha,PAN,0.98,2,170310
Curalha,R.I.R.,0.49,1,170310
Curalha,IL,0,0,170310
Curalha,L,0,0,170310
Curalha,NC,0,0,170310
Curalha,PDR,0,0,170310
Curalha,PNR,0,0,170310
Curalha,PPM,0,0,170310
