freguesia,acronym,validVotesPercentage,votes,dicofre
Curral das Freiras,PPD/PSD,59.57,529,310202
Curral das Freiras,PS,17,151,310202
Curral das Freiras,CDS-PP,5.86,52,310202
Curral das Freiras,PCP-PEV,4.62,41,310202
Curral das Freiras,PAN,2.03,18,310202
Curral das Freiras,A,1.91,17,310202
Curral das Freiras,B.E.,1.13,10,310202
Curral das Freiras,PCTP/MRPP,1.13,10,310202
Curral das Freiras,PTP,1.13,10,310202
Curral das Freiras,R.I.R.,1.01,9,310202
Curral das Freiras,L,0.9,8,310202
Curral das Freiras,PURP,0.9,8,310202
Curral das Freiras,CH,0.68,6,310202
Curral das Freiras,JPP,0.68,6,310202
Curral das Freiras,MPT,0.34,3,310202
Curral das Freiras,NC,0.34,3,310202
Curral das Freiras,PDR,0.34,3,310202
Curral das Freiras,PPM,0.34,3,310202
Curral das Freiras,PNR,0.11,1,310202
Curral das Freiras,IL,0,0,310202
