freguesia,acronym,validVotesPercentage,votes,dicofre
Ervedal,PCP-PEV,41.09,113,120305
Ervedal,PS,30.91,85,120305
Ervedal,PPD/PSD,16.73,46,120305
Ervedal,B.E.,4,11,120305
Ervedal,PCTP/MRPP,3.27,9,120305
Ervedal,CDS-PP,1.82,5,120305
Ervedal,CH,1.45,4,120305
Ervedal,A,0.36,1,120305
Ervedal,R.I.R.,0.36,1,120305
Ervedal,IL,0,0,120305
Ervedal,L,0,0,120305
Ervedal,MPT,0,0,120305
Ervedal,PAN,0,0,120305
Ervedal,PDR,0,0,120305
Ervedal,PNR,0,0,120305
Ervedal,PTP,0,0,120305
Ervedal,PURP,0,0,120305
