freguesia,acronym,validVotesPercentage,votes,dicofre
Esperança,PS,51.22,147,120202
Esperança,PPD/PSD,26.83,77,120202
Esperança,B.E.,9.41,27,120202
Esperança,PCP-PEV,4.53,13,120202
Esperança,CDS-PP,2.09,6,120202
Esperança,CH,1.39,4,120202
Esperança,PAN,1.05,3,120202
Esperança,PCTP/MRPP,1.05,3,120202
Esperança,R.I.R.,0.7,2,120202
Esperança,A,0.35,1,120202
Esperança,IL,0.35,1,120202
Esperança,MPT,0.35,1,120202
Esperança,PTP,0.35,1,120202
Esperança,PURP,0.35,1,120202
Esperança,L,0,0,120202
Esperança,PDR,0,0,120202
Esperança,PNR,0,0,120202
