freguesia,acronym,validVotesPercentage,votes,dicofre
Faial,PPD/PSD,48.04,367,310902
Faial,PS,27.75,212,310902
Faial,CDS-PP,9.82,75,310902
Faial,B.E.,4.45,34,310902
Faial,JPP,1.96,15,310902
Faial,PTP,1.05,8,310902
Faial,R.I.R.,1.05,8,310902
Faial,CH,0.79,6,310902
Faial,PCTP/MRPP,0.79,6,310902
Faial,L,0.65,5,310902
Faial,PCP-PEV,0.65,5,310902
Faial,PNR,0.65,5,310902
Faial,PAN,0.52,4,310902
Faial,A,0.39,3,310902
Faial,IL,0.39,3,310902
Faial,PURP,0.39,3,310902
Faial,MPT,0.26,2,310902
Faial,PPM,0.26,2,310902
Faial,PDR,0.13,1,310902
Faial,NC,0,0,310902
