freguesia,acronym,validVotesPercentage,votes,dicofre
Fajões,PPD/PSD,38.16,546,011303
Fajões,PS,35.22,504,011303
Fajões,B.E.,9.22,132,011303
Fajões,CDS-PP,6.08,87,011303
Fajões,PAN,2.73,39,011303
Fajões,PCP-PEV,2.45,35,011303
Fajões,R.I.R.,1.61,23,011303
Fajões,L,0.77,11,011303
Fajões,IL,0.63,9,011303
Fajões,PCTP/MRPP,0.63,9,011303
Fajões,A,0.49,7,011303
Fajões,PTP,0.49,7,011303
Fajões,CH,0.35,5,011303
Fajões,PURP,0.35,5,011303
Fajões,MPT,0.28,4,011303
Fajões,PNR,0.21,3,011303
Fajões,JPP,0.14,2,011303
Fajões,PDR,0.14,2,011303
Fajões,NC,0.07,1,011303
Fajões,PPM,0,0,011303
