freguesia,acronym,validVotesPercentage,votes,dicofre
Ferreira,PS,38.86,771,130905
Ferreira,PPD/PSD,37.9,752,130905
Ferreira,B.E.,6.25,124,130905
Ferreira,CDS-PP,5.59,111,130905
Ferreira,R.I.R.,2.87,57,130905
Ferreira,PCP-PEV,2.27,45,130905
Ferreira,PAN,2.12,42,130905
Ferreira,L,1.16,23,130905
Ferreira,CH,0.6,12,130905
Ferreira,IL,0.55,11,130905
Ferreira,PCTP/MRPP,0.5,10,130905
Ferreira,PURP,0.25,5,130905
Ferreira,A,0.2,4,130905
Ferreira,PNR,0.2,4,130905
Ferreira,PTP,0.2,4,130905
Ferreira,PDR,0.15,3,130905
Ferreira,JPP,0.1,2,130905
Ferreira,MAS,0.1,2,130905
Ferreira,NC,0.1,2,130905
Ferreira,MPT,0,0,130905
Ferreira,PPM,0,0,130905
