freguesia,acronym,validVotesPercentage,votes,dicofre
Feteira,PS,45,252,470104
Feteira,PPD/PSD,28.75,161,470104
Feteira,B.E.,8.75,49,470104
Feteira,CDS-PP,5,28,470104
Feteira,PCP-PEV,3.04,17,470104
Feteira,PAN,2.86,16,470104
Feteira,IL,1.96,11,470104
Feteira,PPM,1.79,10,470104
Feteira,CH,0.71,4,470104
Feteira,PTP,0.71,4,470104
Feteira,MPT,0.54,3,470104
Feteira,PCTP/MRPP,0.36,2,470104
Feteira,PNR,0.36,2,470104
Feteira,PDR,0.18,1,470104
Feteira,A,0,0,470104
Feteira,L,0,0,470104
Feteira,MAS,0,0,470104
