freguesia,acronym,validVotesPercentage,votes,dicofre
Folgosa,PS,41.4,77,180106
Folgosa,PPD/PSD,29.03,54,180106
Folgosa,B.E.,10.22,19,180106
Folgosa,PCP-PEV,6.99,13,180106
Folgosa,CDS-PP,4.84,9,180106
Folgosa,PAN,2.69,5,180106
Folgosa,CH,1.08,2,180106
Folgosa,IL,1.08,2,180106
Folgosa,PURP,1.08,2,180106
Folgosa,A,0.54,1,180106
Folgosa,PCTP/MRPP,0.54,1,180106
Folgosa,R.I.R.,0.54,1,180106
Folgosa,JPP,0,0,180106
Folgosa,L,0,0,180106
Folgosa,MPT,0,0,180106
Folgosa,NC,0,0,180106
Folgosa,PDR,0,0,180106
Folgosa,PNR,0,0,180106
Folgosa,PPM,0,0,180106
Folgosa,PTP,0,0,180106
