freguesia,acronym,validVotesPercentage,votes,dicofre
Fornos de Maceira Dão,PS,46.01,311,180607
Fornos de Maceira Dão,PPD/PSD,29.29,198,180607
Fornos de Maceira Dão,B.E.,9.76,66,180607
Fornos de Maceira Dão,CDS-PP,5.92,40,180607
Fornos de Maceira Dão,PCP-PEV,2.22,15,180607
Fornos de Maceira Dão,A,1.48,10,180607
Fornos de Maceira Dão,PAN,1.18,8,180607
Fornos de Maceira Dão,PCTP/MRPP,0.89,6,180607
Fornos de Maceira Dão,R.I.R.,0.89,6,180607
Fornos de Maceira Dão,L,0.59,4,180607
Fornos de Maceira Dão,IL,0.44,3,180607
Fornos de Maceira Dão,MPT,0.3,2,180607
Fornos de Maceira Dão,PDR,0.3,2,180607
Fornos de Maceira Dão,PURP,0.3,2,180607
Fornos de Maceira Dão,CH,0.15,1,180607
Fornos de Maceira Dão,JPP,0.15,1,180607
Fornos de Maceira Dão,PNR,0.15,1,180607
Fornos de Maceira Dão,NC,0,0,180607
Fornos de Maceira Dão,PPM,0,0,180607
Fornos de Maceira Dão,PTP,0,0,180607
