freguesia,acronym,validVotesPercentage,votes,dicofre
Foros de Arrão,PCP-PEV,38.54,158,121304
Foros de Arrão,PS,38.05,156,121304
Foros de Arrão,B.E.,7.56,31,121304
Foros de Arrão,PPD/PSD,6.1,25,121304
Foros de Arrão,CDS-PP,2.93,12,121304
Foros de Arrão,PCTP/MRPP,2.44,10,121304
Foros de Arrão,CH,1.71,7,121304
Foros de Arrão,PAN,0.98,4,121304
Foros de Arrão,PNR,0.73,3,121304
Foros de Arrão,IL,0.24,1,121304
Foros de Arrão,MPT,0.24,1,121304
Foros de Arrão,PURP,0.24,1,121304
Foros de Arrão,R.I.R.,0.24,1,121304
Foros de Arrão,A,0,0,121304
Foros de Arrão,L,0,0,121304
Foros de Arrão,PDR,0,0,121304
Foros de Arrão,PTP,0,0,121304
