freguesia,acronym,validVotesPercentage,votes,dicofre
Foz do Arelho,PS,35.52,217,100606
Foz do Arelho,PPD/PSD,30.11,184,100606
Foz do Arelho,B.E.,9.49,58,100606
Foz do Arelho,CDS-PP,7.53,46,100606
Foz do Arelho,PCP-PEV,4.75,29,100606
Foz do Arelho,PAN,4.58,28,100606
Foz do Arelho,CH,2.62,16,100606
Foz do Arelho,IL,1.15,7,100606
Foz do Arelho,L,0.98,6,100606
Foz do Arelho,PCTP/MRPP,0.82,5,100606
Foz do Arelho,A,0.65,4,100606
Foz do Arelho,R.I.R.,0.65,4,100606
Foz do Arelho,NC,0.33,2,100606
Foz do Arelho,PNR,0.33,2,100606
Foz do Arelho,PURP,0.33,2,100606
Foz do Arelho,MPT,0.16,1,100606
Foz do Arelho,JPP,0,0,100606
Foz do Arelho,MAS,0,0,100606
Foz do Arelho,PDR,0,0,100606
Foz do Arelho,PPM,0,0,100606
Foz do Arelho,PTP,0,0,100606
