freguesia,acronym,validVotesPercentage,votes,dicofre
Freamunde,PS,41.64,1509,130908
Freamunde,PPD/PSD,27.84,1009,130908
Freamunde,PCP-PEV,10.15,368,130908
Freamunde,B.E.,8.53,309,130908
Freamunde,PAN,3.04,110,130908
Freamunde,CDS-PP,2.73,99,130908
Freamunde,R.I.R.,1.63,59,130908
Freamunde,IL,0.91,33,130908
Freamunde,PCTP/MRPP,0.86,31,130908
Freamunde,L,0.75,27,130908
Freamunde,CH,0.63,23,130908
Freamunde,A,0.28,10,130908
Freamunde,PURP,0.25,9,130908
Freamunde,PDR,0.17,6,130908
Freamunde,PPM,0.17,6,130908
Freamunde,PTP,0.14,5,130908
Freamunde,MPT,0.11,4,130908
Freamunde,PNR,0.08,3,130908
Freamunde,JPP,0.06,2,130908
Freamunde,MAS,0.03,1,130908
Freamunde,NC,0.03,1,130908
