freguesia,acronym,validVotesPercentage,votes,dicofre
Gandra,PPD/PSD,42.81,241,160726
Gandra,PS,26.82,151,160726
Gandra,CDS-PP,15.28,86,160726
Gandra,B.E.,6.75,38,160726
Gandra,PAN,2.31,13,160726
Gandra,R.I.R.,1.95,11,160726
Gandra,CH,1.42,8,160726
Gandra,A,0.53,3,160726
Gandra,NC,0.53,3,160726
Gandra,PTP,0.53,3,160726
Gandra,PCP-PEV,0.36,2,160726
Gandra,L,0.18,1,160726
Gandra,MPT,0.18,1,160726
Gandra,PCTP/MRPP,0.18,1,160726
Gandra,PPM,0.18,1,160726
Gandra,IL,0,0,160726
Gandra,JPP,0,0,160726
Gandra,PDR,0,0,160726
Gandra,PNR,0,0,160726
Gandra,PURP,0,0,160726
