freguesia,acronym,validVotesPercentage,votes,dicofre
Gavião,PS,39.76,810,031216
Gavião,PPD/PSD,36.72,748,031216
Gavião,B.E.,8.79,179,031216
Gavião,CDS-PP,4.52,92,031216
Gavião,PCP-PEV,2.41,49,031216
Gavião,PAN,1.82,37,031216
Gavião,IL,1.03,21,031216
Gavião,CH,0.83,17,031216
Gavião,L,0.79,16,031216
Gavião,R.I.R.,0.64,13,031216
Gavião,A,0.49,10,031216
Gavião,PCTP/MRPP,0.49,10,031216
Gavião,PNR,0.44,9,031216
Gavião,PURP,0.44,9,031216
Gavião,NC,0.34,7,031216
Gavião,PTP,0.2,4,031216
Gavião,PDR,0.15,3,031216
Gavião,MAS,0.1,2,031216
Gavião,PPM,0.05,1,031216
Gavião,JPP,0,0,031216
Gavião,MPT,0,0,031216
