freguesia,acronym,validVotesPercentage,votes,dicofre
Gondesende,PPD/PSD,38.96,30,040217
Gondesende,PS,33.77,26,040217
Gondesende,B.E.,10.39,8,040217
Gondesende,CDS-PP,6.49,5,040217
Gondesende,PAN,2.6,2,040217
Gondesende,PCP-PEV,2.6,2,040217
Gondesende,PURP,2.6,2,040217
Gondesende,IL,1.3,1,040217
Gondesende,NC,1.3,1,040217
Gondesende,A,0,0,040217
Gondesende,CH,0,0,040217
Gondesende,L,0,0,040217
Gondesende,PCTP/MRPP,0,0,040217
Gondesende,PDR,0,0,040217
Gondesende,PNR,0,0,040217
Gondesende,PPM,0,0,040217
Gondesende,PTP,0,0,040217
Gondesende,R.I.R.,0,0,040217
