freguesia,acronym,validVotesPercentage,votes,dicofre
Gouvinhas,PPD/PSD,49.49,49,171004
Gouvinhas,PS,29.29,29,171004
Gouvinhas,CDS-PP,7.07,7,171004
Gouvinhas,B.E.,6.06,6,171004
Gouvinhas,PCP-PEV,3.03,3,171004
Gouvinhas,R.I.R.,2.02,2,171004
Gouvinhas,PAN,1.01,1,171004
Gouvinhas,PCTP/MRPP,1.01,1,171004
Gouvinhas,PPM,1.01,1,171004
Gouvinhas,A,0,0,171004
Gouvinhas,CH,0,0,171004
Gouvinhas,IL,0,0,171004
Gouvinhas,L,0,0,171004
Gouvinhas,NC,0,0,171004
Gouvinhas,PDR,0,0,171004
Gouvinhas,PNR,0,0,171004
