freguesia,acronym,validVotesPercentage,votes,dicofre
Infias,PS,45.61,457,031404
Infias,PPD/PSD,24.65,247,031404
Infias,B.E.,12.57,126,031404
Infias,PCP-PEV,4.49,45,031404
Infias,CDS-PP,3.79,38,031404
Infias,PAN,2.79,28,031404
Infias,R.I.R.,1.7,17,031404
Infias,PCTP/MRPP,0.7,7,031404
Infias,CH,0.6,6,031404
Infias,L,0.5,5,031404
Infias,JPP,0.4,4,031404
Infias,PDR,0.4,4,031404
Infias,PTP,0.4,4,031404
Infias,IL,0.3,3,031404
Infias,MAS,0.3,3,031404
Infias,NC,0.3,3,031404
Infias,A,0.1,1,031404
Infias,MPT,0.1,1,031404
Infias,PNR,0.1,1,031404
Infias,PPM,0.1,1,031404
Infias,PURP,0.1,1,031404
