freguesia,acronym,validVotesPercentage,votes,dicofre
Jugueiros,PS,39.73,232,130307
Jugueiros,PPD/PSD,35.62,208,130307
Jugueiros,B.E.,7.53,44,130307
Jugueiros,CDS-PP,5.82,34,130307
Jugueiros,PCP-PEV,4.45,26,130307
Jugueiros,PAN,1.71,10,130307
Jugueiros,R.I.R.,1.37,8,130307
Jugueiros,A,0.68,4,130307
Jugueiros,JPP,0.68,4,130307
Jugueiros,IL,0.51,3,130307
Jugueiros,L,0.51,3,130307
Jugueiros,PDR,0.34,2,130307
Jugueiros,PNR,0.34,2,130307
Jugueiros,PTP,0.34,2,130307
Jugueiros,CH,0.17,1,130307
Jugueiros,PCTP/MRPP,0.17,1,130307
Jugueiros,MAS,0,0,130307
Jugueiros,MPT,0,0,130307
Jugueiros,NC,0,0,130307
Jugueiros,PPM,0,0,130307
Jugueiros,PURP,0,0,130307
