freguesia,acronym,validVotesPercentage,votes,dicofre
Juncal,PPD/PSD,35.64,525,101606
Juncal,PS,35.51,523,101606
Juncal,B.E.,9.23,136,101606
Juncal,CDS-PP,6.38,94,101606
Juncal,PCP-PEV,3.19,47,101606
Juncal,PAN,2.51,37,101606
Juncal,R.I.R.,1.22,18,101606
Juncal,L,1.09,16,101606
Juncal,A,1.02,15,101606
Juncal,IL,0.95,14,101606
Juncal,PCTP/MRPP,0.88,13,101606
Juncal,CH,0.48,7,101606
Juncal,PDR,0.34,5,101606
Juncal,PTP,0.27,4,101606
Juncal,MAS,0.2,3,101606
Juncal,MPT,0.2,3,101606
Juncal,NC,0.2,3,101606
Juncal,PPM,0.2,3,101606
Juncal,PURP,0.2,3,101606
Juncal,JPP,0.14,2,101606
Juncal,PNR,0.14,2,101606
