freguesia,acronym,validVotesPercentage,votes,dicofre
Junqueira,PPD/PSD,38.5,206,011905
Junqueira,CDS-PP,28.79,154,011905
Junqueira,PS,21.31,114,011905
Junqueira,B.E.,5.98,32,011905
Junqueira,PCP-PEV,1.12,6,011905
Junqueira,PAN,0.93,5,011905
Junqueira,A,0.56,3,011905
Junqueira,R.I.R.,0.56,3,011905
Junqueira,PCTP/MRPP,0.37,2,011905
Junqueira,PNR,0.37,2,011905
Junqueira,CH,0.19,1,011905
Junqueira,IL,0.19,1,011905
Junqueira,L,0.19,1,011905
Junqueira,MPT,0.19,1,011905
Junqueira,NC,0.19,1,011905
Junqueira,PDR,0.19,1,011905
Junqueira,PPM,0.19,1,011905
Junqueira,PTP,0.19,1,011905
Junqueira,JPP,0,0,011905
Junqueira,PURP,0,0,011905
