freguesia,acronym,validVotesPercentage,votes,dicofre
Labruge,PS,40.82,620,131613
Labruge,PPD/PSD,34.1,518,131613
Labruge,B.E.,9.41,143,131613
Labruge,PAN,3.88,59,131613
Labruge,PCP-PEV,3.23,49,131613
Labruge,CDS-PP,2.96,45,131613
Labruge,IL,1.38,21,131613
Labruge,R.I.R.,0.92,14,131613
Labruge,CH,0.86,13,131613
Labruge,L,0.79,12,131613
Labruge,MPT,0.59,9,131613
Labruge,A,0.33,5,131613
Labruge,NC,0.2,3,131613
Labruge,PCTP/MRPP,0.13,2,131613
Labruge,PNR,0.13,2,131613
Labruge,PURP,0.13,2,131613
Labruge,MAS,0.07,1,131613
Labruge,PTP,0.07,1,131613
Labruge,JPP,0,0,131613
Labruge,PDR,0,0,131613
Labruge,PPM,0,0,131613
