freguesia,acronym,validVotesPercentage,votes,dicofre
Ladoeiro,PS,53.4,275,050505
Ladoeiro,PPD/PSD,25.83,133,050505
Ladoeiro,B.E.,7.38,38,050505
Ladoeiro,CDS-PP,2.91,15,050505
Ladoeiro,CH,2.52,13,050505
Ladoeiro,PCP-PEV,1.94,10,050505
Ladoeiro,R.I.R.,1.36,7,050505
Ladoeiro,PAN,1.17,6,050505
Ladoeiro,L,0.78,4,050505
Ladoeiro,PCTP/MRPP,0.78,4,050505
Ladoeiro,PURP,0.58,3,050505
Ladoeiro,PDR,0.39,2,050505
Ladoeiro,A,0.19,1,050505
Ladoeiro,MPT,0.19,1,050505
Ladoeiro,PNR,0.19,1,050505
Ladoeiro,PPM,0.19,1,050505
Ladoeiro,PTP,0.19,1,050505
Ladoeiro,IL,0,0,050505
