freguesia,acronym,validVotesPercentage,votes,dicofre
Lagoa (Nossa Senhora do Rosário),PS,46.29,743,420103
Lagoa (Nossa Senhora do Rosário),PPD/PSD,25.42,408,420103
Lagoa (Nossa Senhora do Rosário),B.E.,12.15,195,420103
Lagoa (Nossa Senhora do Rosário),CDS-PP,4.3,69,420103
Lagoa (Nossa Senhora do Rosário),PAN,3.43,55,420103
Lagoa (Nossa Senhora do Rosário),PCP-PEV,2.12,34,420103
Lagoa (Nossa Senhora do Rosário),A,1.25,20,420103
Lagoa (Nossa Senhora do Rosário),L,1,16,420103
Lagoa (Nossa Senhora do Rosário),IL,0.87,14,420103
Lagoa (Nossa Senhora do Rosário),MPT,0.75,12,420103
Lagoa (Nossa Senhora do Rosário),PCTP/MRPP,0.56,9,420103
Lagoa (Nossa Senhora do Rosário),CH,0.5,8,420103
Lagoa (Nossa Senhora do Rosário),PNR,0.44,7,420103
Lagoa (Nossa Senhora do Rosário),MAS,0.37,6,420103
Lagoa (Nossa Senhora do Rosário),PPM,0.31,5,420103
Lagoa (Nossa Senhora do Rosário),PTP,0.19,3,420103
Lagoa (Nossa Senhora do Rosário),PDR,0.06,1,420103
