freguesia,acronym,validVotesPercentage,votes,dicofre
Lajes do Pico,PS,40,260,460102
Lajes do Pico,PPD/PSD,37.23,242,460102
Lajes do Pico,B.E.,8.46,55,460102
Lajes do Pico,PAN,3.85,25,460102
Lajes do Pico,PCP-PEV,3.08,20,460102
Lajes do Pico,CDS-PP,2.92,19,460102
Lajes do Pico,A,1.08,7,460102
Lajes do Pico,L,0.92,6,460102
Lajes do Pico,CH,0.77,5,460102
Lajes do Pico,PNR,0.46,3,460102
Lajes do Pico,IL,0.31,2,460102
Lajes do Pico,PCTP/MRPP,0.31,2,460102
Lajes do Pico,MAS,0.15,1,460102
Lajes do Pico,PDR,0.15,1,460102
Lajes do Pico,PPM,0.15,1,460102
Lajes do Pico,PTP,0.15,1,460102
Lajes do Pico,MPT,0,0,460102
