freguesia,acronym,validVotesPercentage,votes,dicofre
Lajes,PS,43.8,385,430206
Lajes,PPD/PSD,34.36,302,430206
Lajes,B.E.,7.85,69,430206
Lajes,CDS-PP,4.78,42,430206
Lajes,PAN,2.5,22,430206
Lajes,PCP-PEV,1.59,14,430206
Lajes,CH,1.37,12,430206
Lajes,IL,0.91,8,430206
Lajes,PNR,0.91,8,430206
Lajes,A,0.68,6,430206
Lajes,PCTP/MRPP,0.46,4,430206
Lajes,L,0.34,3,430206
Lajes,MAS,0.11,1,430206
Lajes,MPT,0.11,1,430206
Lajes,PPM,0.11,1,430206
Lajes,PTP,0.11,1,430206
Lajes,PDR,0,0,430206
