freguesia,acronym,validVotesPercentage,votes,dicofre
Lamalonga,PPD/PSD,48.87,65,040517
Lamalonga,PS,39.1,52,040517
Lamalonga,CDS-PP,4.51,6,040517
Lamalonga,B.E.,2.26,3,040517
Lamalonga,CH,2.26,3,040517
Lamalonga,PAN,0.75,1,040517
Lamalonga,PCTP/MRPP,0.75,1,040517
Lamalonga,PPM,0.75,1,040517
Lamalonga,R.I.R.,0.75,1,040517
Lamalonga,A,0,0,040517
Lamalonga,IL,0,0,040517
Lamalonga,L,0,0,040517
Lamalonga,NC,0,0,040517
Lamalonga,PCP-PEV,0,0,040517
Lamalonga,PDR,0,0,040517
Lamalonga,PNR,0,0,040517
Lamalonga,PTP,0,0,040517
Lamalonga,PURP,0,0,040517
