freguesia,acronym,validVotesPercentage,votes,dicofre
Lamas de Orelhão,PPD/PSD,54.89,129,040718
Lamas de Orelhão,PS,25.96,61,040718
Lamas de Orelhão,CDS-PP,11.06,26,040718
Lamas de Orelhão,B.E.,2.13,5,040718
Lamas de Orelhão,CH,1.7,4,040718
Lamas de Orelhão,PAN,1.28,3,040718
Lamas de Orelhão,PURP,1.28,3,040718
Lamas de Orelhão,R.I.R.,0.85,2,040718
Lamas de Orelhão,NC,0.43,1,040718
Lamas de Orelhão,PCTP/MRPP,0.43,1,040718
Lamas de Orelhão,A,0,0,040718
Lamas de Orelhão,IL,0,0,040718
Lamas de Orelhão,L,0,0,040718
Lamas de Orelhão,PCP-PEV,0,0,040718
Lamas de Orelhão,PDR,0,0,040718
Lamas de Orelhão,PNR,0,0,040718
Lamas de Orelhão,PPM,0,0,040718
Lamas de Orelhão,PTP,0,0,040718
