freguesia,acronym,validVotesPercentage,votes,dicofre
Lamas,PS,55.64,227,060901
Lamas,PPD/PSD,22.79,93,060901
Lamas,B.E.,9.56,39,060901
Lamas,CDS-PP,2.45,10,060901
Lamas,PAN,2.21,9,060901
Lamas,PCP-PEV,2.21,9,060901
Lamas,A,1.47,6,060901
Lamas,PCTP/MRPP,0.98,4,060901
Lamas,CH,0.49,2,060901
Lamas,IL,0.49,2,060901
Lamas,NC,0.49,2,060901
Lamas,R.I.R.,0.49,2,060901
Lamas,L,0.25,1,060901
Lamas,MPT,0.25,1,060901
Lamas,PNR,0.25,1,060901
Lamas,JPP,0,0,060901
Lamas,MAS,0,0,060901
Lamas,PDR,0,0,060901
Lamas,PPM,0,0,060901
Lamas,PURP,0,0,060901
