freguesia,acronym,validVotesPercentage,votes,dicofre
Lamego (Almacave e Sé),PS,38,2230,180525
Lamego (Almacave e Sé),PPD/PSD,33.88,1988,180525
Lamego (Almacave e Sé),B.E.,9.88,580,180525
Lamego (Almacave e Sé),CDS-PP,5.98,351,180525
Lamego (Almacave e Sé),PCP-PEV,4.19,246,180525
Lamego (Almacave e Sé),PAN,2.2,129,180525
Lamego (Almacave e Sé),CH,1.96,115,180525
Lamego (Almacave e Sé),IL,0.72,42,180525
Lamego (Almacave e Sé),R.I.R.,0.65,38,180525
Lamego (Almacave e Sé),PCTP/MRPP,0.6,35,180525
Lamego (Almacave e Sé),L,0.58,34,180525
Lamego (Almacave e Sé),A,0.49,29,180525
Lamego (Almacave e Sé),PPM,0.19,11,180525
Lamego (Almacave e Sé),PURP,0.17,10,180525
Lamego (Almacave e Sé),PDR,0.14,8,180525
Lamego (Almacave e Sé),PNR,0.14,8,180525
Lamego (Almacave e Sé),MPT,0.1,6,180525
Lamego (Almacave e Sé),NC,0.09,5,180525
Lamego (Almacave e Sé),PTP,0.05,3,180525
Lamego (Almacave e Sé),JPP,0,0,180525
