freguesia,acronym,validVotesPercentage,votes,dicofre
Ligares,PS,42.55,60,040404
Ligares,PPD/PSD,41.13,58,040404
Ligares,PCP-PEV,4.96,7,040404
Ligares,B.E.,3.55,5,040404
Ligares,CDS-PP,2.84,4,040404
Ligares,PCTP/MRPP,2.13,3,040404
Ligares,IL,0.71,1,040404
Ligares,PDR,0.71,1,040404
Ligares,PPM,0.71,1,040404
Ligares,R.I.R.,0.71,1,040404
Ligares,A,0,0,040404
Ligares,CH,0,0,040404
Ligares,L,0,0,040404
Ligares,NC,0,0,040404
Ligares,PAN,0,0,040404
Ligares,PNR,0,0,040404
Ligares,PTP,0,0,040404
Ligares,PURP,0,0,040404
