freguesia,acronym,validVotesPercentage,votes,dicofre
Lomba da Fazenda,PPD/PSD,49.6,188,420203
Lomba da Fazenda,PS,33.77,128,420203
Lomba da Fazenda,B.E.,5.8,22,420203
Lomba da Fazenda,CDS-PP,2.11,8,420203
Lomba da Fazenda,PCP-PEV,2.11,8,420203
Lomba da Fazenda,PAN,1.32,5,420203
Lomba da Fazenda,L,1.06,4,420203
Lomba da Fazenda,MAS,1.06,4,420203
Lomba da Fazenda,PCTP/MRPP,1.06,4,420203
Lomba da Fazenda,A,0.79,3,420203
Lomba da Fazenda,MPT,0.53,2,420203
Lomba da Fazenda,PTP,0.53,2,420203
Lomba da Fazenda,PDR,0.26,1,420203
Lomba da Fazenda,CH,0,0,420203
Lomba da Fazenda,IL,0,0,420203
Lomba da Fazenda,PNR,0,0,420203
Lomba da Fazenda,PPM,0,0,420203
