freguesia,acronym,validVotesPercentage,votes,dicofre
Longroiva,PPD/PSD,40.17,47,090907
Longroiva,PS,34.19,40,090907
Longroiva,CDS-PP,17.09,20,090907
Longroiva,B.E.,4.27,5,090907
Longroiva,R.I.R.,1.71,2,090907
Longroiva,IL,0.85,1,090907
Longroiva,PAN,0.85,1,090907
Longroiva,PCP-PEV,0.85,1,090907
Longroiva,A,0,0,090907
Longroiva,CH,0,0,090907
Longroiva,L,0,0,090907
Longroiva,MPT,0,0,090907
Longroiva,NC,0,0,090907
Longroiva,PCTP/MRPP,0,0,090907
Longroiva,PDR,0,0,090907
Longroiva,PNR,0,0,090907
Longroiva,PPM,0,0,090907
Longroiva,PTP,0,0,090907
Longroiva,PURP,0,0,090907
