freguesia,acronym,validVotesPercentage,votes,dicofre
Longomel,PS,61.54,328,121305
Longomel,PCP-PEV,14.26,76,121305
Longomel,B.E.,9.57,51,121305
Longomel,PPD/PSD,6.38,34,121305
Longomel,PCTP/MRPP,2.63,14,121305
Longomel,CH,1.88,10,121305
Longomel,PAN,1.13,6,121305
Longomel,CDS-PP,0.75,4,121305
Longomel,L,0.56,3,121305
Longomel,IL,0.38,2,121305
Longomel,PTP,0.38,2,121305
Longomel,R.I.R.,0.38,2,121305
Longomel,PURP,0.19,1,121305
Longomel,A,0,0,121305
Longomel,MPT,0,0,121305
Longomel,PDR,0,0,121305
Longomel,PNR,0,0,121305
