freguesia,acronym,validVotesPercentage,votes,dicofre
Marco,PS,44.76,2364,130736
Marco,PPD/PSD,30.59,1616,130736
Marco,B.E.,9.31,492,130736
Marco,CDS-PP,4.26,225,130736
Marco,PCP-PEV,2.97,157,130736
Marco,PAN,2.88,152,130736
Marco,R.I.R.,1.42,75,130736
Marco,L,0.61,32,130736
Marco,CH,0.55,29,130736
Marco,A,0.42,22,130736
Marco,PCTP/MRPP,0.42,22,130736
Marco,IL,0.4,21,130736
Marco,PURP,0.27,14,130736
Marco,NC,0.25,13,130736
Marco,PNR,0.21,11,130736
Marco,MPT,0.15,8,130736
Marco,PDR,0.15,8,130736
Marco,PTP,0.13,7,130736
Marco,JPP,0.11,6,130736
Marco,PPM,0.11,6,130736
Marco,MAS,0.04,2,130736
