freguesia,acronym,validVotesPercentage,votes,dicofre
Marmeleiro,PPD/PSD,45.79,98,090724
Marmeleiro,PS,25.23,54,090724
Marmeleiro,CDS-PP,15.89,34,090724
Marmeleiro,B.E.,4.67,10,090724
Marmeleiro,CH,2.34,5,090724
Marmeleiro,A,0.93,2,090724
Marmeleiro,PNR,0.93,2,090724
Marmeleiro,PTP,0.93,2,090724
Marmeleiro,IL,0.47,1,090724
Marmeleiro,NC,0.47,1,090724
Marmeleiro,PAN,0.47,1,090724
Marmeleiro,PCP-PEV,0.47,1,090724
Marmeleiro,PCTP/MRPP,0.47,1,090724
Marmeleiro,PPM,0.47,1,090724
Marmeleiro,PURP,0.47,1,090724
Marmeleiro,L,0,0,090724
Marmeleiro,MPT,0,0,090724
Marmeleiro,PDR,0,0,090724
Marmeleiro,R.I.R.,0,0,090724
