freguesia,acronym,validVotesPercentage,votes,dicofre
Meixomil,PPD/PSD,46.74,854,130910
Meixomil,PS,33.28,608,130910
Meixomil,B.E.,5.25,96,130910
Meixomil,CDS-PP,5.04,92,130910
Meixomil,PAN,3.17,58,130910
Meixomil,PCP-PEV,1.81,33,130910
Meixomil,R.I.R.,1.31,24,130910
Meixomil,L,0.99,18,130910
Meixomil,IL,0.66,12,130910
Meixomil,CH,0.6,11,130910
Meixomil,A,0.27,5,130910
Meixomil,PTP,0.22,4,130910
Meixomil,PCTP/MRPP,0.16,3,130910
Meixomil,PDR,0.16,3,130910
Meixomil,PNR,0.11,2,130910
Meixomil,PURP,0.11,2,130910
Meixomil,JPP,0.05,1,130910
Meixomil,MPT,0.05,1,130910
Meixomil,MAS,0,0,130910
Meixomil,NC,0,0,130910
Meixomil,PPM,0,0,130910
