freguesia,acronym,validVotesPercentage,votes,dicofre
Mesão Frio,PS,38.54,960,030830
Mesão Frio,PPD/PSD,32.56,811,030830
Mesão Frio,B.E.,12.24,305,030830
Mesão Frio,PCP-PEV,4.01,100,030830
Mesão Frio,CDS-PP,3.21,80,030830
Mesão Frio,PAN,2.61,65,030830
Mesão Frio,IL,1.69,42,030830
Mesão Frio,R.I.R.,1.08,27,030830
Mesão Frio,A,1,25,030830
Mesão Frio,L,0.8,20,030830
Mesão Frio,PCTP/MRPP,0.64,16,030830
Mesão Frio,CH,0.56,14,030830
Mesão Frio,MPT,0.24,6,030830
Mesão Frio,PNR,0.24,6,030830
Mesão Frio,PURP,0.16,4,030830
Mesão Frio,PDR,0.12,3,030830
Mesão Frio,PPM,0.08,2,030830
Mesão Frio,PTP,0.08,2,030830
Mesão Frio,JPP,0.04,1,030830
Mesão Frio,MAS,0.04,1,030830
Mesão Frio,NC,0.04,1,030830
