freguesia,acronym,validVotesPercentage,votes,dicofre
Meãs do Campo,PS,46.18,357,061006
Meãs do Campo,PPD/PSD,29.5,228,061006
Meãs do Campo,B.E.,9.83,76,061006
Meãs do Campo,CDS-PP,3.75,29,061006
Meãs do Campo,PCP-PEV,3.23,25,061006
Meãs do Campo,PAN,1.42,11,061006
Meãs do Campo,CH,1.29,10,061006
Meãs do Campo,R.I.R.,1.03,8,061006
Meãs do Campo,PDR,0.91,7,061006
Meãs do Campo,A,0.65,5,061006
Meãs do Campo,L,0.65,5,061006
Meãs do Campo,PCTP/MRPP,0.52,4,061006
Meãs do Campo,IL,0.39,3,061006
Meãs do Campo,PNR,0.39,3,061006
Meãs do Campo,MAS,0.13,1,061006
Meãs do Campo,MPT,0.13,1,061006
Meãs do Campo,JPP,0,0,061006
Meãs do Campo,NC,0,0,061006
Meãs do Campo,PPM,0,0,061006
Meãs do Campo,PURP,0,0,061006
