freguesia,acronym,validVotesPercentage,votes,dicofre
Milagres,PPD/PSD,44.64,621,100915
Milagres,PS,29.48,410,100915
Milagres,B.E.,8.41,117,100915
Milagres,CDS-PP,6.83,95,100915
Milagres,PAN,1.87,26,100915
Milagres,PCP-PEV,1.22,17,100915
Milagres,L,1.15,16,100915
Milagres,A,1.08,15,100915
Milagres,IL,1.08,15,100915
Milagres,CH,0.86,12,100915
Milagres,R.I.R.,0.86,12,100915
Milagres,PCTP/MRPP,0.79,11,100915
Milagres,MPT,0.43,6,100915
Milagres,PPM,0.36,5,100915
Milagres,PNR,0.29,4,100915
Milagres,PDR,0.22,3,100915
Milagres,MAS,0.14,2,100915
Milagres,PURP,0.14,2,100915
Milagres,JPP,0.07,1,100915
Milagres,PTP,0.07,1,100915
Milagres,NC,0,0,100915
