freguesia,acronym,validVotesPercentage,votes,dicofre
Mindelo,PPD/PSD,38.52,782,131616
Mindelo,PS,30.1,611,131616
Mindelo,B.E.,10.34,210,131616
Mindelo,CDS-PP,4.88,99,131616
Mindelo,PAN,3.79,77,131616
Mindelo,PCP-PEV,3.35,68,131616
Mindelo,IL,2.32,47,131616
Mindelo,L,1.43,29,131616
Mindelo,CH,1.28,26,131616
Mindelo,R.I.R.,1.28,26,131616
Mindelo,A,0.49,10,131616
Mindelo,PDR,0.39,8,131616
Mindelo,PCTP/MRPP,0.34,7,131616
Mindelo,PURP,0.3,6,131616
Mindelo,PNR,0.25,5,131616
Mindelo,PPM,0.25,5,131616
Mindelo,NC,0.2,4,131616
Mindelo,MAS,0.15,3,131616
Mindelo,MPT,0.15,3,131616
Mindelo,JPP,0.1,2,131616
Mindelo,PTP,0.1,2,131616
