freguesia,acronym,validVotesPercentage,votes,dicofre
Moimenta,PPD/PSD,41.88,165,031010
Moimenta,PS,40.61,160,031010
Moimenta,B.E.,6.35,25,031010
Moimenta,CDS-PP,2.54,10,031010
Moimenta,PCP-PEV,2.28,9,031010
Moimenta,A,1.78,7,031010
Moimenta,PAN,1.52,6,031010
Moimenta,CH,1.02,4,031010
Moimenta,PCTP/MRPP,0.76,3,031010
Moimenta,L,0.51,2,031010
Moimenta,MPT,0.51,2,031010
Moimenta,NC,0.25,1,031010
Moimenta,IL,0,0,031010
Moimenta,JPP,0,0,031010
Moimenta,MAS,0,0,031010
Moimenta,PDR,0,0,031010
Moimenta,PNR,0,0,031010
Moimenta,PPM,0,0,031010
Moimenta,PTP,0,0,031010
Moimenta,PURP,0,0,031010
Moimenta,R.I.R.,0,0,031010
