freguesia,acronym,validVotesPercentage,votes,dicofre
Monforte da Beira,PS,65.91,87,050216
Monforte da Beira,PPD/PSD,18.18,24,050216
Monforte da Beira,B.E.,6.06,8,050216
Monforte da Beira,PCP-PEV,2.27,3,050216
Monforte da Beira,CDS-PP,1.52,2,050216
Monforte da Beira,IL,1.52,2,050216
Monforte da Beira,PPM,1.52,2,050216
Monforte da Beira,A,0.76,1,050216
Monforte da Beira,PAN,0.76,1,050216
Monforte da Beira,PURP,0.76,1,050216
Monforte da Beira,R.I.R.,0.76,1,050216
Monforte da Beira,CH,0,0,050216
Monforte da Beira,L,0,0,050216
Monforte da Beira,MPT,0,0,050216
Monforte da Beira,PCTP/MRPP,0,0,050216
Monforte da Beira,PDR,0,0,050216
Monforte da Beira,PNR,0,0,050216
Monforte da Beira,PTP,0,0,050216
