freguesia,acronym,validVotesPercentage,votes,dicofre
Moreira,PPD/PSD,52.07,151,160418
Moreira,PS,26.55,77,160418
Moreira,CDS-PP,8.97,26,160418
Moreira,B.E.,7.24,21,160418
Moreira,IL,1.38,4,160418
Moreira,CH,1.03,3,160418
Moreira,PNR,0.69,2,160418
Moreira,R.I.R.,0.69,2,160418
Moreira,MPT,0.34,1,160418
Moreira,NC,0.34,1,160418
Moreira,PAN,0.34,1,160418
Moreira,PCTP/MRPP,0.34,1,160418
Moreira,A,0,0,160418
Moreira,JPP,0,0,160418
Moreira,L,0,0,160418
Moreira,PCP-PEV,0,0,160418
Moreira,PDR,0,0,160418
Moreira,PPM,0,0,160418
Moreira,PTP,0,0,160418
Moreira,PURP,0,0,160418
