freguesia,acronym,validVotesPercentage,votes,dicofre
Mosteiros,PPD/PSD,43.73,150,420311
Mosteiros,PS,36.73,126,420311
Mosteiros,CDS-PP,5.83,20,420311
Mosteiros,B.E.,5.25,18,420311
Mosteiros,PCP-PEV,2.33,8,420311
Mosteiros,PAN,1.46,5,420311
Mosteiros,PCTP/MRPP,0.87,3,420311
Mosteiros,CH,0.58,2,420311
Mosteiros,IL,0.58,2,420311
Mosteiros,L,0.58,2,420311
Mosteiros,PPM,0.58,2,420311
Mosteiros,PTP,0.58,2,420311
Mosteiros,A,0.29,1,420311
Mosteiros,MAS,0.29,1,420311
Mosteiros,PNR,0.29,1,420311
Mosteiros,MPT,0,0,420311
Mosteiros,PDR,0,0,420311
