freguesia,acronym,validVotesPercentage,votes,dicofre
Moçarria,PS,47.23,256,141613
Moçarria,PPD/PSD,17.71,96,141613
Moçarria,B.E.,13.1,71,141613
Moçarria,PCP-PEV,6.83,37,141613
Moçarria,CH,3.87,21,141613
Moçarria,CDS-PP,2.77,15,141613
Moçarria,PAN,2.58,14,141613
Moçarria,L,1.48,8,141613
Moçarria,PCTP/MRPP,0.92,5,141613
Moçarria,NC,0.74,4,141613
Moçarria,R.I.R.,0.74,4,141613
Moçarria,IL,0.55,3,141613
Moçarria,PPM,0.55,3,141613
Moçarria,A,0.37,2,141613
Moçarria,PNR,0.37,2,141613
Moçarria,PURP,0.18,1,141613
Moçarria,MPT,0,0,141613
Moçarria,PDR,0,0,141613
Moçarria,PTP,0,0,141613
