freguesia,acronym,validVotesPercentage,votes,dicofre
Mujães,PS,34.07,248,160922
Mujães,PPD/PSD,33.24,242,160922
Mujães,B.E.,12.09,88,160922
Mujães,CDS-PP,9.89,72,160922
Mujães,PAN,3.02,22,160922
Mujães,PCP-PEV,2.06,15,160922
Mujães,R.I.R.,1.1,8,160922
Mujães,CH,0.82,6,160922
Mujães,PCTP/MRPP,0.69,5,160922
Mujães,PURP,0.55,4,160922
Mujães,A,0.41,3,160922
Mujães,JPP,0.41,3,160922
Mujães,PDR,0.41,3,160922
Mujães,IL,0.27,2,160922
Mujães,L,0.27,2,160922
Mujães,NC,0.27,2,160922
Mujães,PTP,0.27,2,160922
Mujães,PPM,0.14,1,160922
Mujães,MPT,0,0,160922
Mujães,PNR,0,0,160922
