freguesia,acronym,validVotesPercentage,votes,dicofre
Mós,PS,50,43,040913
Mós,PPD/PSD,27.91,24,040913
Mós,B.E.,8.14,7,040913
Mós,CDS-PP,3.49,3,040913
Mós,PCTP/MRPP,3.49,3,040913
Mós,PAN,2.33,2,040913
Mós,NC,1.16,1,040913
Mós,PCP-PEV,1.16,1,040913
Mós,PDR,1.16,1,040913
Mós,PPM,1.16,1,040913
Mós,A,0,0,040913
Mós,CH,0,0,040913
Mós,IL,0,0,040913
Mós,L,0,0,040913
Mós,PNR,0,0,040913
Mós,PTP,0,0,040913
Mós,PURP,0,0,040913
Mós,R.I.R.,0,0,040913
