freguesia,acronym,validVotesPercentage,votes,dicofre
Nevogilde,PPD/PSD,44.16,503,130515
Nevogilde,PS,39.77,453,130515
Nevogilde,B.E.,5.18,59,130515
Nevogilde,CDS-PP,3.51,40,130515
Nevogilde,PCP-PEV,2.28,26,130515
Nevogilde,PAN,1.84,21,130515
Nevogilde,R.I.R.,1.49,17,130515
Nevogilde,CH,0.35,4,130515
Nevogilde,IL,0.35,4,130515
Nevogilde,L,0.35,4,130515
Nevogilde,A,0.18,2,130515
Nevogilde,PCTP/MRPP,0.18,2,130515
Nevogilde,PDR,0.18,2,130515
Nevogilde,PNR,0.18,2,130515
Nevogilde,JPP,0,0,130515
Nevogilde,MAS,0,0,130515
Nevogilde,MPT,0,0,130515
Nevogilde,NC,0,0,130515
Nevogilde,PPM,0,0,130515
Nevogilde,PTP,0,0,130515
Nevogilde,PURP,0,0,130515
