freguesia,acronym,validVotesPercentage,votes,dicofre
Nossa Senhora da Graça dos Degolados,PS,59.85,158,120402
Nossa Senhora da Graça dos Degolados,PCP-PEV,18.56,49,120402
Nossa Senhora da Graça dos Degolados,B.E.,7.95,21,120402
Nossa Senhora da Graça dos Degolados,PPD/PSD,6.82,18,120402
Nossa Senhora da Graça dos Degolados,CH,1.52,4,120402
Nossa Senhora da Graça dos Degolados,PDR,1.52,4,120402
Nossa Senhora da Graça dos Degolados,PAN,1.14,3,120402
Nossa Senhora da Graça dos Degolados,PNR,1.14,3,120402
Nossa Senhora da Graça dos Degolados,A,0.38,1,120402
Nossa Senhora da Graça dos Degolados,PCTP/MRPP,0.38,1,120402
Nossa Senhora da Graça dos Degolados,PTP,0.38,1,120402
Nossa Senhora da Graça dos Degolados,R.I.R.,0.38,1,120402
Nossa Senhora da Graça dos Degolados,CDS-PP,0,0,120402
Nossa Senhora da Graça dos Degolados,IL,0,0,120402
Nossa Senhora da Graça dos Degolados,L,0,0,120402
Nossa Senhora da Graça dos Degolados,MPT,0,0,120402
Nossa Senhora da Graça dos Degolados,PURP,0,0,120402
