freguesia,acronym,validVotesPercentage,votes,dicofre
Oiã,PPD/PSD,44.63,1450,011403
Oiã,PS,22.62,735,011403
Oiã,CDS-PP,12.13,394,011403
Oiã,B.E.,8.25,268,011403
Oiã,PAN,3.23,105,011403
Oiã,PCP-PEV,2,65,011403
Oiã,CH,1.88,61,011403
Oiã,IL,1.35,44,011403
Oiã,A,0.98,32,011403
Oiã,R.I.R.,0.68,22,011403
Oiã,L,0.62,20,011403
Oiã,PDR,0.4,13,011403
Oiã,PCTP/MRPP,0.31,10,011403
Oiã,MPT,0.25,8,011403
Oiã,PURP,0.18,6,011403
Oiã,PTP,0.15,5,011403
Oiã,NC,0.12,4,011403
Oiã,PPM,0.09,3,011403
Oiã,JPP,0.06,2,011403
Oiã,PNR,0.06,2,011403
