freguesia,acronym,validVotesPercentage,votes,dicofre
Olalhas,PPD/PSD,47.12,278,141808
Olalhas,PS,29.49,174,141808
Olalhas,CDS-PP,6.44,38,141808
Olalhas,B.E.,5.59,33,141808
Olalhas,PAN,3.73,22,141808
Olalhas,PCP-PEV,1.69,10,141808
Olalhas,R.I.R.,1.36,8,141808
Olalhas,CH,1.02,6,141808
Olalhas,NC,1.02,6,141808
Olalhas,A,0.68,4,141808
Olalhas,L,0.51,3,141808
Olalhas,PCTP/MRPP,0.34,2,141808
Olalhas,PTP,0.34,2,141808
Olalhas,PURP,0.34,2,141808
Olalhas,IL,0.17,1,141808
Olalhas,MPT,0.17,1,141808
Olalhas,PDR,0,0,141808
Olalhas,PNR,0,0,141808
Olalhas,PPM,0,0,141808
