freguesia,acronym,validVotesPercentage,votes,dicofre
Olhalvo,PS,47.02,465,110108
Olhalvo,PPD/PSD,23.46,232,110108
Olhalvo,PCP-PEV,10.52,104,110108
Olhalvo,B.E.,8.19,81,110108
Olhalvo,CDS-PP,2.53,25,110108
Olhalvo,CH,1.52,15,110108
Olhalvo,L,1.31,13,110108
Olhalvo,PAN,1.31,13,110108
Olhalvo,PCTP/MRPP,1.21,12,110108
Olhalvo,R.I.R.,0.81,8,110108
Olhalvo,A,0.4,4,110108
Olhalvo,PDR,0.4,4,110108
Olhalvo,PNR,0.3,3,110108
Olhalvo,IL,0.2,2,110108
Olhalvo,MAS,0.2,2,110108
Olhalvo,NC,0.2,2,110108
Olhalvo,PTP,0.2,2,110108
Olhalvo,MPT,0.1,1,110108
Olhalvo,PPM,0.1,1,110108
Olhalvo,PURP,0,0,110108
