freguesia,acronym,validVotesPercentage,votes,dicofre
Oliveira do Bairro,PPD/PSD,42.96,1110,011404
Oliveira do Bairro,PS,25.46,658,011404
Oliveira do Bairro,CDS-PP,11.42,295,011404
Oliveira do Bairro,B.E.,8.82,228,011404
Oliveira do Bairro,PAN,2.71,70,011404
Oliveira do Bairro,PCP-PEV,2.13,55,011404
Oliveira do Bairro,IL,1.24,32,011404
Oliveira do Bairro,CH,1.2,31,011404
Oliveira do Bairro,R.I.R.,0.85,22,011404
Oliveira do Bairro,L,0.58,15,011404
Oliveira do Bairro,A,0.43,11,011404
Oliveira do Bairro,PCTP/MRPP,0.43,11,011404
Oliveira do Bairro,PNR,0.43,11,011404
Oliveira do Bairro,PDR,0.35,9,011404
Oliveira do Bairro,MPT,0.31,8,011404
Oliveira do Bairro,PURP,0.27,7,011404
Oliveira do Bairro,PTP,0.19,5,011404
Oliveira do Bairro,JPP,0.08,2,011404
Oliveira do Bairro,NC,0.08,2,011404
Oliveira do Bairro,PPM,0.08,2,011404
