freguesia,acronym,validVotesPercentage,votes,dicofre
Ossela,PS,40.27,395,011310
Ossela,PPD/PSD,34.96,343,011310
Ossela,B.E.,9.07,89,011310
Ossela,CDS-PP,7.24,71,011310
Ossela,PAN,3.26,32,011310
Ossela,R.I.R.,1.02,10,011310
Ossela,L,0.92,9,011310
Ossela,PCP-PEV,0.71,7,011310
Ossela,A,0.51,5,011310
Ossela,CH,0.41,4,011310
Ossela,PCTP/MRPP,0.41,4,011310
Ossela,IL,0.2,2,011310
Ossela,JPP,0.2,2,011310
Ossela,PDR,0.2,2,011310
Ossela,PPM,0.2,2,011310
Ossela,PTP,0.2,2,011310
Ossela,MPT,0.1,1,011310
Ossela,PURP,0.1,1,011310
Ossela,NC,0,0,011310
Ossela,PNR,0,0,011310
