freguesia,acronym,validVotesPercentage,votes,dicofre
Paderne,PS,48.75,195,160311
Paderne,PPD/PSD,33.5,134,160311
Paderne,B.E.,8.5,34,160311
Paderne,CDS-PP,2.75,11,160311
Paderne,PAN,2.25,9,160311
Paderne,PCP-PEV,1,4,160311
Paderne,PCTP/MRPP,1,4,160311
Paderne,CH,0.75,3,160311
Paderne,IL,0.5,2,160311
Paderne,R.I.R.,0.5,2,160311
Paderne,PNR,0.25,1,160311
Paderne,PURP,0.25,1,160311
Paderne,A,0,0,160311
Paderne,JPP,0,0,160311
Paderne,L,0,0,160311
Paderne,MPT,0,0,160311
Paderne,NC,0,0,160311
Paderne,PDR,0,0,160311
Paderne,PPM,0,0,160311
Paderne,PTP,0,0,160311
