freguesia,acronym,validVotesPercentage,votes,dicofre
Padim da Graça,PS,42,373,030330
Padim da Graça,PPD/PSD,33.33,296,030330
Padim da Graça,B.E.,8.67,77,030330
Padim da Graça,PCP-PEV,7.09,63,030330
Padim da Graça,CDS-PP,3.27,29,030330
Padim da Graça,PAN,2.48,22,030330
Padim da Graça,PCTP/MRPP,0.68,6,030330
Padim da Graça,A,0.45,4,030330
Padim da Graça,IL,0.45,4,030330
Padim da Graça,R.I.R.,0.45,4,030330
Padim da Graça,NC,0.34,3,030330
Padim da Graça,CH,0.23,2,030330
Padim da Graça,L,0.23,2,030330
Padim da Graça,PTP,0.23,2,030330
Padim da Graça,MPT,0.11,1,030330
Padim da Graça,JPP,0,0,030330
Padim da Graça,MAS,0,0,030330
Padim da Graça,PDR,0,0,030330
Padim da Graça,PNR,0,0,030330
Padim da Graça,PPM,0,0,030330
Padim da Graça,PURP,0,0,030330
