freguesia,acronym,validVotesPercentage,votes,dicofre
Padrela e Tazem,PPD/PSD,55,77,171215
Padrela e Tazem,PS,30,42,171215
Padrela e Tazem,CDS-PP,6.43,9,171215
Padrela e Tazem,PCP-PEV,2.14,3,171215
Padrela e Tazem,R.I.R.,1.43,2,171215
Padrela e Tazem,B.E.,0.71,1,171215
Padrela e Tazem,CH,0.71,1,171215
Padrela e Tazem,IL,0.71,1,171215
Padrela e Tazem,L,0.71,1,171215
Padrela e Tazem,PCTP/MRPP,0.71,1,171215
Padrela e Tazem,PDR,0.71,1,171215
Padrela e Tazem,PPM,0.71,1,171215
Padrela e Tazem,A,0,0,171215
Padrela e Tazem,NC,0,0,171215
Padrela e Tazem,PAN,0,0,171215
Padrela e Tazem,PNR,0,0,171215
