freguesia,acronym,validVotesPercentage,votes,dicofre
Paião,PS,41.55,580,060523
Paião,PPD/PSD,31.02,433,060523
Paião,B.E.,10.89,152,060523
Paião,CDS-PP,3.87,54,060523
Paião,PCP-PEV,3.01,42,060523
Paião,PAN,2.58,36,060523
Paião,A,2.15,30,060523
Paião,R.I.R.,0.93,13,060523
Paião,IL,0.64,9,060523
Paião,L,0.57,8,060523
Paião,CH,0.5,7,060523
Paião,PCTP/MRPP,0.5,7,060523
Paião,MPT,0.43,6,060523
Paião,NC,0.43,6,060523
Paião,PNR,0.43,6,060523
Paião,PDR,0.14,2,060523
Paião,PURP,0.14,2,060523
Paião,JPP,0.07,1,060523
Paião,MAS,0.07,1,060523
Paião,PPM,0.07,1,060523
