freguesia,acronym,validVotesPercentage,votes,dicofre
Palhais,PS,46.43,39,091313
Palhais,PPD/PSD,34.52,29,091313
Palhais,B.E.,5.95,5,091313
Palhais,CDS-PP,5.95,5,091313
Palhais,PCP-PEV,3.57,3,091313
Palhais,CH,2.38,2,091313
Palhais,IL,1.19,1,091313
Palhais,A,0,0,091313
Palhais,L,0,0,091313
Palhais,MPT,0,0,091313
Palhais,NC,0,0,091313
Palhais,PAN,0,0,091313
Palhais,PCTP/MRPP,0,0,091313
Palhais,PDR,0,0,091313
Palhais,PNR,0,0,091313
Palhais,PPM,0,0,091313
Palhais,PTP,0,0,091313
Palhais,PURP,0,0,091313
Palhais,R.I.R.,0,0,091313
