freguesia,acronym,validVotesPercentage,votes,dicofre
Pampilhosa,PS,46.17,820,011106
Pampilhosa,PPD/PSD,19.31,343,011106
Pampilhosa,B.E.,13.85,246,011106
Pampilhosa,PCP-PEV,7.94,141,011106
Pampilhosa,PAN,3.1,55,011106
Pampilhosa,CDS-PP,2.53,45,011106
Pampilhosa,IL,1.3,23,011106
Pampilhosa,CH,1.24,22,011106
Pampilhosa,PCTP/MRPP,0.9,16,011106
Pampilhosa,L,0.79,14,011106
Pampilhosa,R.I.R.,0.62,11,011106
Pampilhosa,A,0.51,9,011106
Pampilhosa,MPT,0.39,7,011106
Pampilhosa,PNR,0.34,6,011106
Pampilhosa,PDR,0.28,5,011106
Pampilhosa,PPM,0.23,4,011106
Pampilhosa,PURP,0.23,4,011106
Pampilhosa,NC,0.11,2,011106
Pampilhosa,PTP,0.11,2,011106
Pampilhosa,JPP,0.06,1,011106
