freguesia,acronym,validVotesPercentage,votes,dicofre
Parada de Gatim,PS,45.67,153,031331
Parada de Gatim,PPD/PSD,40.3,135,031331
Parada de Gatim,B.E.,4.18,14,031331
Parada de Gatim,CDS-PP,2.69,9,031331
Parada de Gatim,PCP-PEV,1.79,6,031331
Parada de Gatim,PAN,1.49,5,031331
Parada de Gatim,CH,0.9,3,031331
Parada de Gatim,PCTP/MRPP,0.9,3,031331
Parada de Gatim,NC,0.6,2,031331
Parada de Gatim,PURP,0.6,2,031331
Parada de Gatim,R.I.R.,0.6,2,031331
Parada de Gatim,PNR,0.3,1,031331
Parada de Gatim,A,0,0,031331
Parada de Gatim,IL,0,0,031331
Parada de Gatim,JPP,0,0,031331
Parada de Gatim,L,0,0,031331
Parada de Gatim,MAS,0,0,031331
Parada de Gatim,MPT,0,0,031331
Parada de Gatim,PDR,0,0,031331
Parada de Gatim,PPM,0,0,031331
Parada de Gatim,PTP,0,0,031331
