freguesia,acronym,validVotesPercentage,votes,dicofre
Paramos,PS,43.42,716,010704
Paramos,PPD/PSD,25.96,428,010704
Paramos,B.E.,12.31,203,010704
Paramos,PCP-PEV,5.58,92,010704
Paramos,IL,3.88,64,010704
Paramos,PAN,2.37,39,010704
Paramos,CDS-PP,2.3,38,010704
Paramos,PCTP/MRPP,1.21,20,010704
Paramos,A,0.49,8,010704
Paramos,L,0.49,8,010704
Paramos,R.I.R.,0.49,8,010704
Paramos,CH,0.42,7,010704
Paramos,MPT,0.36,6,010704
Paramos,NC,0.24,4,010704
Paramos,PTP,0.18,3,010704
Paramos,PPM,0.12,2,010704
Paramos,JPP,0.06,1,010704
Paramos,PNR,0.06,1,010704
Paramos,PURP,0.06,1,010704
Paramos,PDR,0,0,010704
