freguesia,acronym,validVotesPercentage,votes,dicofre
Paranhos,PPD/PSD,34.15,8396,131210
Paranhos,PS,32.43,7973,131210
Paranhos,B.E.,12.2,3000,131210
Paranhos,PCP-PEV,6.61,1624,131210
Paranhos,PAN,4.27,1051,131210
Paranhos,CDS-PP,3.2,786,131210
Paranhos,IL,2.25,554,131210
Paranhos,L,1.62,398,131210
Paranhos,A,0.63,154,131210
Paranhos,R.I.R.,0.58,142,131210
Paranhos,PCTP/MRPP,0.48,117,131210
Paranhos,CH,0.46,114,131210
Paranhos,NC,0.23,56,131210
Paranhos,PURP,0.22,53,131210
Paranhos,PNR,0.15,37,131210
Paranhos,MPT,0.12,30,131210
Paranhos,PDR,0.12,30,131210
Paranhos,PTP,0.09,23,131210
Paranhos,JPP,0.09,21,131210
Paranhos,PPM,0.08,19,131210
Paranhos,MAS,0.04,9,131210
