freguesia,acronym,validVotesPercentage,votes,dicofre
Pardilhó,PS,36.34,532,010805
Pardilhó,PPD/PSD,31.08,455,010805
Pardilhó,B.E.,10.79,158,010805
Pardilhó,PCP-PEV,7.24,106,010805
Pardilhó,CDS-PP,5.4,79,010805
Pardilhó,PAN,3.21,47,010805
Pardilhó,CH,1.3,19,010805
Pardilhó,IL,0.68,10,010805
Pardilhó,PCTP/MRPP,0.61,9,010805
Pardilhó,A,0.55,8,010805
Pardilhó,R.I.R.,0.55,8,010805
Pardilhó,L,0.41,6,010805
Pardilhó,PNR,0.41,6,010805
Pardilhó,PDR,0.34,5,010805
Pardilhó,PURP,0.34,5,010805
Pardilhó,NC,0.27,4,010805
Pardilhó,PTP,0.27,4,010805
Pardilhó,PPM,0.14,2,010805
Pardilhó,MPT,0.07,1,010805
Pardilhó,JPP,0,0,010805
