freguesia,acronym,validVotesPercentage,votes,dicofre
Passos,PPD/PSD,49.53,106,040724
Passos,PS,31.31,67,040724
Passos,CDS-PP,7.48,16,040724
Passos,B.E.,5.61,12,040724
Passos,PAN,1.4,3,040724
Passos,PURP,1.4,3,040724
Passos,PCTP/MRPP,0.93,2,040724
Passos,IL,0.47,1,040724
Passos,L,0.47,1,040724
Passos,PCP-PEV,0.47,1,040724
Passos,PNR,0.47,1,040724
Passos,PTP,0.47,1,040724
Passos,A,0,0,040724
Passos,CH,0,0,040724
Passos,NC,0,0,040724
Passos,PDR,0,0,040724
Passos,PPM,0,0,040724
Passos,R.I.R.,0,0,040724
