freguesia,acronym,validVotesPercentage,votes,dicofre
Paul,PS,41.62,278,050314
Paul,PPD/PSD,20.66,138,050314
Paul,B.E.,11.38,76,050314
Paul,PCP-PEV,10.78,72,050314
Paul,CDS-PP,4.04,27,050314
Paul,PAN,4.04,27,050314
Paul,CH,2.84,19,050314
Paul,R.I.R.,1.95,13,050314
Paul,PCTP/MRPP,0.75,5,050314
Paul,IL,0.6,4,050314
Paul,L,0.6,4,050314
Paul,A,0.3,2,050314
Paul,PNR,0.15,1,050314
Paul,PPM,0.15,1,050314
Paul,PURP,0.15,1,050314
Paul,MPT,0,0,050314
Paul,PDR,0,0,050314
Paul,PTP,0,0,050314
