freguesia,acronym,validVotesPercentage,votes,dicofre
Paul do Mar,PPD/PSD,52.01,142,310106
Paul do Mar,CDS-PP,21.61,59,310106
Paul do Mar,PS,13.19,36,310106
Paul do Mar,B.E.,3.66,10,310106
Paul do Mar,PCP-PEV,1.83,5,310106
Paul do Mar,PTP,1.83,5,310106
Paul do Mar,R.I.R.,1.47,4,310106
Paul do Mar,PAN,1.1,3,310106
Paul do Mar,L,0.73,2,310106
Paul do Mar,PCTP/MRPP,0.73,2,310106
Paul do Mar,A,0.37,1,310106
Paul do Mar,CH,0.37,1,310106
Paul do Mar,IL,0.37,1,310106
Paul do Mar,JPP,0.37,1,310106
Paul do Mar,PURP,0.37,1,310106
Paul do Mar,MPT,0,0,310106
Paul do Mar,NC,0,0,310106
Paul do Mar,PDR,0,0,310106
Paul do Mar,PNR,0,0,310106
Paul do Mar,PPM,0,0,310106
