freguesia,acronym,validVotesPercentage,votes,dicofre
Paços de Ferreira,PPD/PSD,46.3,2092,130918
Paços de Ferreira,PS,30.99,1400,130918
Paços de Ferreira,B.E.,7.41,335,130918
Paços de Ferreira,CDS-PP,4.96,224,130918
Paços de Ferreira,PAN,2.48,112,130918
Paços de Ferreira,PCP-PEV,1.97,89,130918
Paços de Ferreira,IL,1.33,60,130918
Paços de Ferreira,L,1.06,48,130918
Paços de Ferreira,R.I.R.,1.04,47,130918
Paços de Ferreira,CH,0.71,32,130918
Paços de Ferreira,PCTP/MRPP,0.51,23,130918
Paços de Ferreira,A,0.27,12,130918
Paços de Ferreira,NC,0.2,9,130918
Paços de Ferreira,PURP,0.18,8,130918
Paços de Ferreira,PNR,0.15,7,130918
Paços de Ferreira,MPT,0.13,6,130918
Paços de Ferreira,JPP,0.11,5,130918
Paços de Ferreira,PTP,0.09,4,130918
Paços de Ferreira,PDR,0.07,3,130918
Paços de Ferreira,PPM,0.04,2,130918
Paços de Ferreira,MAS,0,0,130918
