freguesia,acronym,validVotesPercentage,votes,dicofre
Pereira,PS,43.54,654,061008
Pereira,PPD/PSD,20.71,311,061008
Pereira,B.E.,16.25,244,061008
Pereira,PCP-PEV,6.86,103,061008
Pereira,PAN,3.13,47,061008
Pereira,CDS-PP,2.13,32,061008
Pereira,CH,1.8,27,061008
Pereira,L,1.26,19,061008
Pereira,A,0.87,13,061008
Pereira,PCTP/MRPP,0.8,12,061008
Pereira,IL,0.73,11,061008
Pereira,PDR,0.4,6,061008
Pereira,PNR,0.33,5,061008
Pereira,MAS,0.27,4,061008
Pereira,R.I.R.,0.27,4,061008
Pereira,MPT,0.2,3,061008
Pereira,NC,0.2,3,061008
Pereira,PURP,0.13,2,061008
Pereira,JPP,0.07,1,061008
Pereira,PPM,0.07,1,061008
