freguesia,acronym,validVotesPercentage,votes,dicofre
Pinheiro de Ázere,PS,49.32,217,181403
Pinheiro de Ázere,PPD/PSD,31.36,138,181403
Pinheiro de Ázere,B.E.,8.86,39,181403
Pinheiro de Ázere,CDS-PP,3.18,14,181403
Pinheiro de Ázere,PCP-PEV,2.05,9,181403
Pinheiro de Ázere,PAN,1.36,6,181403
Pinheiro de Ázere,IL,0.91,4,181403
Pinheiro de Ázere,A,0.68,3,181403
Pinheiro de Ázere,CH,0.68,3,181403
Pinheiro de Ázere,R.I.R.,0.45,2,181403
Pinheiro de Ázere,JPP,0.23,1,181403
Pinheiro de Ázere,L,0.23,1,181403
Pinheiro de Ázere,NC,0.23,1,181403
Pinheiro de Ázere,PCTP/MRPP,0.23,1,181403
Pinheiro de Ázere,PDR,0.23,1,181403
Pinheiro de Ázere,MPT,0,0,181403
Pinheiro de Ázere,PNR,0,0,181403
Pinheiro de Ázere,PPM,0,0,181403
Pinheiro de Ázere,PTP,0,0,181403
Pinheiro de Ázere,PURP,0,0,181403
