freguesia,acronym,validVotesPercentage,votes,dicofre
Poiares,PPD/PSD,56.45,245,160734
Poiares,PS,20.28,88,160734
Poiares,CDS-PP,13.13,57,160734
Poiares,B.E.,4.38,19,160734
Poiares,IL,1.15,5,160734
Poiares,PCP-PEV,1.15,5,160734
Poiares,L,0.92,4,160734
Poiares,PAN,0.92,4,160734
Poiares,A,0.23,1,160734
Poiares,CH,0.23,1,160734
Poiares,JPP,0.23,1,160734
Poiares,MPT,0.23,1,160734
Poiares,PNR,0.23,1,160734
Poiares,PPM,0.23,1,160734
Poiares,R.I.R.,0.23,1,160734
Poiares,NC,0,0,160734
Poiares,PCTP/MRPP,0,0,160734
Poiares,PDR,0,0,160734
Poiares,PTP,0,0,160734
Poiares,PURP,0,0,160734
