freguesia,acronym,validVotesPercentage,votes,dicofre
Ponte do Rol,PS,42.28,485,111310
Ponte do Rol,PPD/PSD,28.6,328,111310
Ponte do Rol,B.E.,7.67,88,111310
Ponte do Rol,PCP-PEV,4.71,54,111310
Ponte do Rol,CDS-PP,4.27,49,111310
Ponte do Rol,PAN,2.88,33,111310
Ponte do Rol,CH,2.44,28,111310
Ponte do Rol,A,1.74,20,111310
Ponte do Rol,IL,1.31,15,111310
Ponte do Rol,L,0.87,10,111310
Ponte do Rol,PDR,0.61,7,111310
Ponte do Rol,MPT,0.52,6,111310
Ponte do Rol,PCTP/MRPP,0.52,6,111310
Ponte do Rol,PTP,0.44,5,111310
Ponte do Rol,R.I.R.,0.44,5,111310
Ponte do Rol,PNR,0.17,2,111310
Ponte do Rol,PPM,0.17,2,111310
Ponte do Rol,PURP,0.17,2,111310
Ponte do Rol,MAS,0.09,1,111310
Ponte do Rol,NC,0.09,1,111310
