freguesia,acronym,validVotesPercentage,votes,dicofre
Porches,PS,36.71,239,080604
Porches,PPD/PSD,25.19,164,080604
Porches,B.E.,11.83,77,080604
Porches,PAN,6.3,41,080604
Porches,CDS-PP,5.07,33,080604
Porches,PCP-PEV,4.15,27,080604
Porches,CH,2.76,18,080604
Porches,L,2.3,15,080604
Porches,PNR,1.38,9,080604
Porches,IL,0.77,5,080604
Porches,PCTP/MRPP,0.77,5,080604
Porches,PDR,0.77,5,080604
Porches,PTP,0.46,3,080604
Porches,R.I.R.,0.46,3,080604
Porches,A,0.31,2,080604
Porches,NC,0.31,2,080604
Porches,PURP,0.31,2,080604
Porches,PPM,0.15,1,080604
Porches,MPT,0,0,080604
