freguesia,acronym,validVotesPercentage,votes,dicofre
Póvoa de Lanhoso (Nossa Senhora do Amparo),PPD/PSD,41.73,1123,030919
Póvoa de Lanhoso (Nossa Senhora do Amparo),PS,38.35,1032,030919
Póvoa de Lanhoso (Nossa Senhora do Amparo),B.E.,7.02,189,030919
Póvoa de Lanhoso (Nossa Senhora do Amparo),CDS-PP,3.79,102,030919
Póvoa de Lanhoso (Nossa Senhora do Amparo),PCP-PEV,3.12,84,030919
Póvoa de Lanhoso (Nossa Senhora do Amparo),PAN,2.42,65,030919
Póvoa de Lanhoso (Nossa Senhora do Amparo),CH,0.67,18,030919
Póvoa de Lanhoso (Nossa Senhora do Amparo),IL,0.45,12,030919
Póvoa de Lanhoso (Nossa Senhora do Amparo),L,0.41,11,030919
Póvoa de Lanhoso (Nossa Senhora do Amparo),R.I.R.,0.41,11,030919
Póvoa de Lanhoso (Nossa Senhora do Amparo),A,0.37,10,030919
Póvoa de Lanhoso (Nossa Senhora do Amparo),NC,0.3,8,030919
Póvoa de Lanhoso (Nossa Senhora do Amparo),MPT,0.26,7,030919
Póvoa de Lanhoso (Nossa Senhora do Amparo),PCTP/MRPP,0.11,3,030919
Póvoa de Lanhoso (Nossa Senhora do Amparo),PDR,0.11,3,030919
Póvoa de Lanhoso (Nossa Senhora do Amparo),PNR,0.11,3,030919
Póvoa de Lanhoso (Nossa Senhora do Amparo),PTP,0.11,3,030919
Póvoa de Lanhoso (Nossa Senhora do Amparo),MAS,0.07,2,030919
Póvoa de Lanhoso (Nossa Senhora do Amparo),PPM,0.07,2,030919
Póvoa de Lanhoso (Nossa Senhora do Amparo),PURP,0.07,2,030919
Póvoa de Lanhoso (Nossa Senhora do Amparo),JPP,0.04,1,030919
