freguesia,acronym,validVotesPercentage,votes,dicofre
Quadrazais,PS,45.03,86,091123
Quadrazais,PPD/PSD,32.46,62,091123
Quadrazais,CDS-PP,7.85,15,091123
Quadrazais,B.E.,6.81,13,091123
Quadrazais,PCP-PEV,2.62,5,091123
Quadrazais,CH,2.09,4,091123
Quadrazais,MPT,0.52,1,091123
Quadrazais,PAN,0.52,1,091123
Quadrazais,PDR,0.52,1,091123
Quadrazais,PTP,0.52,1,091123
Quadrazais,PURP,0.52,1,091123
Quadrazais,R.I.R.,0.52,1,091123
Quadrazais,A,0,0,091123
Quadrazais,IL,0,0,091123
Quadrazais,L,0,0,091123
Quadrazais,NC,0,0,091123
Quadrazais,PCTP/MRPP,0,0,091123
Quadrazais,PNR,0,0,091123
Quadrazais,PPM,0,0,091123
