freguesia,acronym,validVotesPercentage,votes,dicofre
Ramela,PS,40.71,46,090734
Ramela,PPD/PSD,36.28,41,090734
Ramela,B.E.,10.62,12,090734
Ramela,CDS-PP,2.65,3,090734
Ramela,L,2.65,3,090734
Ramela,A,1.77,2,090734
Ramela,PAN,1.77,2,090734
Ramela,PCTP/MRPP,1.77,2,090734
Ramela,CH,0.88,1,090734
Ramela,IL,0.88,1,090734
Ramela,MPT,0,0,090734
Ramela,NC,0,0,090734
Ramela,PCP-PEV,0,0,090734
Ramela,PDR,0,0,090734
Ramela,PNR,0,0,090734
Ramela,PPM,0,0,090734
Ramela,PTP,0,0,090734
Ramela,PURP,0,0,090734
Ramela,R.I.R.,0,0,090734
