freguesia,acronym,validVotesPercentage,votes,dicofre
Ranhados,PPD/PSD,35.67,884,182321
Ranhados,PS,32.85,814,182321
Ranhados,B.E.,12.63,313,182321
Ranhados,CDS-PP,5,124,182321
Ranhados,PAN,3.83,95,182321
Ranhados,PCP-PEV,3.11,77,182321
Ranhados,A,1.45,36,182321
Ranhados,CH,1.37,34,182321
Ranhados,R.I.R.,0.81,20,182321
Ranhados,IL,0.77,19,182321
Ranhados,L,0.65,16,182321
Ranhados,PCTP/MRPP,0.52,13,182321
Ranhados,PNR,0.28,7,182321
Ranhados,NC,0.24,6,182321
Ranhados,PDR,0.2,5,182321
Ranhados,MPT,0.16,4,182321
Ranhados,PURP,0.16,4,182321
Ranhados,PTP,0.12,3,182321
Ranhados,JPP,0.08,2,182321
Ranhados,PPM,0.08,2,182321
