freguesia,acronym,validVotesPercentage,votes,dicofre
Ratoeira,PPD/PSD,53.13,68,090314
Ratoeira,PS,32.81,42,090314
Ratoeira,CDS-PP,4.69,6,090314
Ratoeira,B.E.,3.13,4,090314
Ratoeira,CH,2.34,3,090314
Ratoeira,PAN,1.56,2,090314
Ratoeira,PCP-PEV,0.78,1,090314
Ratoeira,PDR,0.78,1,090314
Ratoeira,R.I.R.,0.78,1,090314
Ratoeira,A,0,0,090314
Ratoeira,IL,0,0,090314
Ratoeira,L,0,0,090314
Ratoeira,MPT,0,0,090314
Ratoeira,NC,0,0,090314
Ratoeira,PCTP/MRPP,0,0,090314
Ratoeira,PNR,0,0,090314
Ratoeira,PPM,0,0,090314
Ratoeira,PTP,0,0,090314
Ratoeira,PURP,0,0,090314
