freguesia,acronym,validVotesPercentage,votes,dicofre
Rebordelo,PS,58.44,180,041219
Rebordelo,PPD/PSD,31.82,98,041219
Rebordelo,B.E.,4.55,14,041219
Rebordelo,CDS-PP,1.95,6,041219
Rebordelo,PCP-PEV,1.3,4,041219
Rebordelo,PAN,0.65,2,041219
Rebordelo,CH,0.32,1,041219
Rebordelo,PCTP/MRPP,0.32,1,041219
Rebordelo,PDR,0.32,1,041219
Rebordelo,R.I.R.,0.32,1,041219
Rebordelo,A,0,0,041219
Rebordelo,IL,0,0,041219
Rebordelo,L,0,0,041219
Rebordelo,NC,0,0,041219
Rebordelo,PNR,0,0,041219
Rebordelo,PPM,0,0,041219
Rebordelo,PTP,0,0,041219
Rebordelo,PURP,0,0,041219
