freguesia,acronym,validVotesPercentage,votes,dicofre
Rebordões (Souto),PPD/PSD,46.96,263,160747
Rebordões (Souto),CDS-PP,19.29,108,160747
Rebordões (Souto),PS,18.93,106,160747
Rebordões (Souto),B.E.,5.36,30,160747
Rebordões (Souto),PAN,1.96,11,160747
Rebordões (Souto),PCP-PEV,1.96,11,160747
Rebordões (Souto),R.I.R.,1.96,11,160747
Rebordões (Souto),CH,0.71,4,160747
Rebordões (Souto),PCTP/MRPP,0.71,4,160747
Rebordões (Souto),IL,0.54,3,160747
Rebordões (Souto),L,0.54,3,160747
Rebordões (Souto),MPT,0.36,2,160747
Rebordões (Souto),PDR,0.36,2,160747
Rebordões (Souto),A,0.18,1,160747
Rebordões (Souto),JPP,0.18,1,160747
Rebordões (Souto),NC,0,0,160747
Rebordões (Souto),PNR,0,0,160747
Rebordões (Souto),PPM,0,0,160747
Rebordões (Souto),PTP,0,0,160747
Rebordões (Souto),PURP,0,0,160747
