freguesia,acronym,validVotesPercentage,votes,dicofre
Recezinhos (São Martinho),PS,42.6,383,131133
Recezinhos (São Martinho),PPD/PSD,33.82,304,131133
Recezinhos (São Martinho),CDS-PP,5.9,53,131133
Recezinhos (São Martinho),R.I.R.,5.78,52,131133
Recezinhos (São Martinho),B.E.,5.01,45,131133
Recezinhos (São Martinho),PCP-PEV,1.78,16,131133
Recezinhos (São Martinho),PAN,1.56,14,131133
Recezinhos (São Martinho),IL,0.78,7,131133
Recezinhos (São Martinho),PTP,0.67,6,131133
Recezinhos (São Martinho),CH,0.44,4,131133
Recezinhos (São Martinho),L,0.33,3,131133
Recezinhos (São Martinho),PCTP/MRPP,0.33,3,131133
Recezinhos (São Martinho),PNR,0.33,3,131133
Recezinhos (São Martinho),MAS,0.22,2,131133
Recezinhos (São Martinho),MPT,0.22,2,131133
Recezinhos (São Martinho),PDR,0.11,1,131133
Recezinhos (São Martinho),PURP,0.11,1,131133
Recezinhos (São Martinho),A,0,0,131133
Recezinhos (São Martinho),JPP,0,0,131133
Recezinhos (São Martinho),NC,0,0,131133
Recezinhos (São Martinho),PPM,0,0,131133
