freguesia,acronym,validVotesPercentage,votes,dicofre
Ribeira Grande (Conceição),PS,41.76,360,420509
Ribeira Grande (Conceição),PPD/PSD,28.42,245,420509
Ribeira Grande (Conceição),B.E.,13.57,117,420509
Ribeira Grande (Conceição),PAN,4.06,35,420509
Ribeira Grande (Conceição),PCP-PEV,2.55,22,420509
Ribeira Grande (Conceição),CDS-PP,2.44,21,420509
Ribeira Grande (Conceição),L,1.51,13,420509
Ribeira Grande (Conceição),CH,1.39,12,420509
Ribeira Grande (Conceição),IL,0.93,8,420509
Ribeira Grande (Conceição),A,0.81,7,420509
Ribeira Grande (Conceição),PPM,0.81,7,420509
Ribeira Grande (Conceição),PCTP/MRPP,0.58,5,420509
Ribeira Grande (Conceição),MPT,0.46,4,420509
Ribeira Grande (Conceição),PTP,0.46,4,420509
Ribeira Grande (Conceição),PNR,0.23,2,420509
Ribeira Grande (Conceição),MAS,0,0,420509
Ribeira Grande (Conceição),PDR,0,0,420509
