freguesia,acronym,validVotesPercentage,votes,dicofre
Ronfe,PS,44.97,1163,030840
Ronfe,PPD/PSD,31.71,820,030840
Ronfe,B.E.,10.87,281,030840
Ronfe,PCP-PEV,3.87,100,030840
Ronfe,CDS-PP,2.44,63,030840
Ronfe,PAN,2.01,52,030840
Ronfe,L,0.85,22,030840
Ronfe,R.I.R.,0.66,17,030840
Ronfe,PCTP/MRPP,0.5,13,030840
Ronfe,IL,0.46,12,030840
Ronfe,PTP,0.31,8,030840
Ronfe,CH,0.27,7,030840
Ronfe,A,0.23,6,030840
Ronfe,PNR,0.19,5,030840
Ronfe,PURP,0.19,5,030840
Ronfe,MPT,0.15,4,030840
Ronfe,NC,0.12,3,030840
Ronfe,JPP,0.08,2,030840
Ronfe,PDR,0.08,2,030840
Ronfe,PPM,0.04,1,030840
Ronfe,MAS,0,0,030840
