freguesia,acronym,validVotesPercentage,votes,dicofre
Salga,PS,50.77,99,420206
Salga,PPD/PSD,31.28,61,420206
Salga,B.E.,8.72,17,420206
Salga,CH,2.56,5,420206
Salga,CDS-PP,2.05,4,420206
Salga,PAN,1.54,3,420206
Salga,PCP-PEV,1.03,2,420206
Salga,L,0.51,1,420206
Salga,MPT,0.51,1,420206
Salga,PCTP/MRPP,0.51,1,420206
Salga,PNR,0.51,1,420206
Salga,A,0,0,420206
Salga,IL,0,0,420206
Salga,MAS,0,0,420206
Salga,PDR,0,0,420206
Salga,PPM,0,0,420206
Salga,PTP,0,0,420206
