freguesia,acronym,validVotesPercentage,votes,dicofre
Salsas,PPD/PSD,52.59,71,040239
Salsas,PS,33.33,45,040239
Salsas,B.E.,2.96,4,040239
Salsas,CDS-PP,2.96,4,040239
Salsas,R.I.R.,2.22,3,040239
Salsas,NC,1.48,2,040239
Salsas,PCP-PEV,1.48,2,040239
Salsas,PDR,1.48,2,040239
Salsas,CH,0.74,1,040239
Salsas,L,0.74,1,040239
Salsas,A,0,0,040239
Salsas,IL,0,0,040239
Salsas,PAN,0,0,040239
Salsas,PCTP/MRPP,0,0,040239
Salsas,PNR,0,0,040239
Salsas,PPM,0,0,040239
Salsas,PTP,0,0,040239
Salsas,PURP,0,0,040239
