freguesia,acronym,validVotesPercentage,votes,dicofre
Salvador,PS,42.54,57,050711
Salvador,PPD/PSD,17.91,24,050711
Salvador,B.E.,10.45,14,050711
Salvador,PCP-PEV,8.21,11,050711
Salvador,CDS-PP,5.97,8,050711
Salvador,L,3.73,5,050711
Salvador,PAN,2.99,4,050711
Salvador,R.I.R.,2.99,4,050711
Salvador,PCTP/MRPP,2.24,3,050711
Salvador,A,1.49,2,050711
Salvador,CH,0.75,1,050711
Salvador,PTP,0.75,1,050711
Salvador,IL,0,0,050711
Salvador,MPT,0,0,050711
Salvador,PDR,0,0,050711
Salvador,PNR,0,0,050711
Salvador,PPM,0,0,050711
Salvador,PURP,0,0,050711
