freguesia,acronym,validVotesPercentage,votes,dicofre
Sambade,PPD/PSD,46.35,127,040111
Sambade,PS,41.24,113,040111
Sambade,CDS-PP,5.11,14,040111
Sambade,B.E.,3.65,10,040111
Sambade,IL,0.73,2,040111
Sambade,L,0.73,2,040111
Sambade,PCP-PEV,0.73,2,040111
Sambade,PURP,0.73,2,040111
Sambade,PAN,0.36,1,040111
Sambade,PCTP/MRPP,0.36,1,040111
Sambade,A,0,0,040111
Sambade,CH,0,0,040111
Sambade,NC,0,0,040111
Sambade,PDR,0,0,040111
Sambade,PNR,0,0,040111
Sambade,PPM,0,0,040111
Sambade,PTP,0,0,040111
Sambade,R.I.R.,0,0,040111
