freguesia,acronym,validVotesPercentage,votes,dicofre
Santo André de Vagos,PPD/PSD,60.61,554,011810
Santo André de Vagos,CDS-PP,13.46,123,011810
Santo André de Vagos,PS,13.46,123,011810
Santo André de Vagos,B.E.,4.27,39,011810
Santo André de Vagos,PAN,2.3,21,011810
Santo André de Vagos,CH,0.88,8,011810
Santo André de Vagos,IL,0.88,8,011810
Santo André de Vagos,PCP-PEV,0.77,7,011810
Santo André de Vagos,R.I.R.,0.66,6,011810
Santo André de Vagos,A,0.44,4,011810
Santo André de Vagos,PDR,0.44,4,011810
Santo André de Vagos,JPP,0.33,3,011810
Santo André de Vagos,L,0.33,3,011810
Santo André de Vagos,MPT,0.33,3,011810
Santo André de Vagos,PCTP/MRPP,0.22,2,011810
Santo André de Vagos,PNR,0.22,2,011810
Santo André de Vagos,PPM,0.22,2,011810
Santo André de Vagos,NC,0.11,1,011810
Santo André de Vagos,PTP,0.11,1,011810
Santo André de Vagos,PURP,0,0,011810
