freguesia,acronym,validVotesPercentage,votes,dicofre
Santo António,PPD/PSD,28.7,1759,110666
Santo António,PS,26.84,1645,110666
Santo António,B.E.,9.41,577,110666
Santo António,CDS-PP,8.89,545,110666
Santo António,IL,6.44,395,110666
Santo António,L,5.89,361,110666
Santo António,PCP-PEV,5.86,359,110666
Santo António,PAN,4.19,257,110666
Santo António,A,1.34,82,110666
Santo António,CH,0.83,51,110666
Santo António,PCTP/MRPP,0.41,25,110666
Santo António,PNR,0.23,14,110666
Santo António,PPM,0.2,12,110666
Santo António,R.I.R.,0.18,11,110666
Santo António,MPT,0.16,10,110666
Santo António,PURP,0.15,9,110666
Santo António,NC,0.11,7,110666
Santo António,MAS,0.08,5,110666
Santo António,PDR,0.07,4,110666
Santo António,PTP,0.02,1,110666
