freguesia,acronym,validVotesPercentage,votes,dicofre
Santo António de Monforte,PS,41.05,94,170330
Santo António de Monforte,PPD/PSD,37.99,87,170330
Santo António de Monforte,CDS-PP,7.86,18,170330
Santo António de Monforte,B.E.,5.68,13,170330
Santo António de Monforte,PCP-PEV,2.18,5,170330
Santo António de Monforte,PAN,1.75,4,170330
Santo António de Monforte,R.I.R.,1.31,3,170330
Santo António de Monforte,L,0.87,2,170330
Santo António de Monforte,A,0.44,1,170330
Santo António de Monforte,IL,0.44,1,170330
Santo António de Monforte,NC,0.44,1,170330
Santo António de Monforte,CH,0,0,170330
Santo António de Monforte,PCTP/MRPP,0,0,170330
Santo António de Monforte,PDR,0,0,170330
Santo António de Monforte,PNR,0,0,170330
Santo António de Monforte,PPM,0,0,170330
