freguesia,acronym,validVotesPercentage,votes,dicofre
Santo António da Serra,PPD/PSD,43.56,291,310405
Santo António da Serra,PS,31.74,212,310405
Santo António da Serra,JPP,9.13,61,310405
Santo António da Serra,B.E.,4.19,28,310405
Santo António da Serra,CDS-PP,4.19,28,310405
Santo António da Serra,PCP-PEV,1.95,13,310405
Santo António da Serra,R.I.R.,1.2,8,310405
Santo António da Serra,PAN,0.9,6,310405
Santo António da Serra,PCTP/MRPP,0.75,5,310405
Santo António da Serra,PTP,0.6,4,310405
Santo António da Serra,CH,0.3,2,310405
Santo António da Serra,L,0.3,2,310405
Santo António da Serra,MPT,0.3,2,310405
Santo António da Serra,PPM,0.3,2,310405
Santo António da Serra,PURP,0.3,2,310405
Santo António da Serra,IL,0.15,1,310405
Santo António da Serra,PDR,0.15,1,310405
Santo António da Serra,A,0,0,310405
Santo António da Serra,NC,0,0,310405
Santo António da Serra,PNR,0,0,310405
