freguesia,acronym,validVotesPercentage,votes,dicofre
Santo António de Nordestinho,PPD/PSD,43.13,69,420209
Santo António de Nordestinho,PS,35,56,420209
Santo António de Nordestinho,B.E.,7.5,12,420209
Santo António de Nordestinho,CDS-PP,3.75,6,420209
Santo António de Nordestinho,A,3.13,5,420209
Santo António de Nordestinho,PAN,3.13,5,420209
Santo António de Nordestinho,L,2.5,4,420209
Santo António de Nordestinho,PCP-PEV,1.25,2,420209
Santo António de Nordestinho,CH,0.63,1,420209
Santo António de Nordestinho,IL,0,0,420209
Santo António de Nordestinho,MAS,0,0,420209
Santo António de Nordestinho,MPT,0,0,420209
Santo António de Nordestinho,PCTP/MRPP,0,0,420209
Santo António de Nordestinho,PDR,0,0,420209
Santo António de Nordestinho,PNR,0,0,420209
Santo António de Nordestinho,PPM,0,0,420209
Santo António de Nordestinho,PTP,0,0,420209
