freguesia,acronym,validVotesPercentage,votes,dicofre
Santana,PS,45.79,87,420207
Santana,PPD/PSD,35.26,67,420207
Santana,B.E.,5.26,10,420207
Santana,PAN,4.74,9,420207
Santana,CDS-PP,3.68,7,420207
Santana,PCP-PEV,1.58,3,420207
Santana,A,1.05,2,420207
Santana,CH,1.05,2,420207
Santana,IL,0.53,1,420207
Santana,PCTP/MRPP,0.53,1,420207
Santana,PNR,0.53,1,420207
Santana,L,0,0,420207
Santana,MAS,0,0,420207
Santana,MPT,0,0,420207
Santana,PDR,0,0,420207
Santana,PPM,0,0,420207
Santana,PTP,0,0,420207
