freguesia,acronym,validVotesPercentage,votes,dicofre
Sarnadas de Ródão,PS,48.93,137,051103
Sarnadas de Ródão,PPD/PSD,27.86,78,051103
Sarnadas de Ródão,B.E.,10.36,29,051103
Sarnadas de Ródão,PCP-PEV,3.93,11,051103
Sarnadas de Ródão,CDS-PP,2.5,7,051103
Sarnadas de Ródão,PAN,1.43,4,051103
Sarnadas de Ródão,PURP,1.43,4,051103
Sarnadas de Ródão,CH,1.07,3,051103
Sarnadas de Ródão,PCTP/MRPP,0.71,2,051103
Sarnadas de Ródão,PNR,0.71,2,051103
Sarnadas de Ródão,A,0.36,1,051103
Sarnadas de Ródão,PPM,0.36,1,051103
Sarnadas de Ródão,R.I.R.,0.36,1,051103
Sarnadas de Ródão,IL,0,0,051103
Sarnadas de Ródão,L,0,0,051103
Sarnadas de Ródão,MPT,0,0,051103
Sarnadas de Ródão,PDR,0,0,051103
Sarnadas de Ródão,PTP,0,0,051103
