freguesia,acronym,validVotesPercentage,votes,dicofre
Sarzedo,PPD/PSD,47.17,150,060115
Sarzedo,PS,28.3,90,060115
Sarzedo,B.E.,9.75,31,060115
Sarzedo,CDS-PP,4.72,15,060115
Sarzedo,IL,2.52,8,060115
Sarzedo,PAN,1.57,5,060115
Sarzedo,PCP-PEV,1.57,5,060115
Sarzedo,MPT,0.63,2,060115
Sarzedo,PCTP/MRPP,0.63,2,060115
Sarzedo,PNR,0.63,2,060115
Sarzedo,PURP,0.63,2,060115
Sarzedo,R.I.R.,0.63,2,060115
Sarzedo,A,0.31,1,060115
Sarzedo,CH,0.31,1,060115
Sarzedo,NC,0.31,1,060115
Sarzedo,PDR,0.31,1,060115
Sarzedo,JPP,0,0,060115
Sarzedo,L,0,0,060115
Sarzedo,MAS,0,0,060115
Sarzedo,PPM,0,0,060115
