freguesia,acronym,validVotesPercentage,votes,dicofre
Sebolido,PS,58.22,262,131134
Sebolido,PPD/PSD,16.89,76,131134
Sebolido,B.E.,8.22,37,131134
Sebolido,PCP-PEV,7.78,35,131134
Sebolido,R.I.R.,3.11,14,131134
Sebolido,CDS-PP,2,9,131134
Sebolido,PAN,1.11,5,131134
Sebolido,A,0.44,2,131134
Sebolido,CH,0.44,2,131134
Sebolido,L,0.44,2,131134
Sebolido,PCTP/MRPP,0.44,2,131134
Sebolido,IL,0.22,1,131134
Sebolido,MPT,0.22,1,131134
Sebolido,NC,0.22,1,131134
Sebolido,PDR,0.22,1,131134
Sebolido,JPP,0,0,131134
Sebolido,MAS,0,0,131134
Sebolido,PNR,0,0,131134
Sebolido,PPM,0,0,131134
Sebolido,PTP,0,0,131134
Sebolido,PURP,0,0,131134
