freguesia,acronym,validVotesPercentage,votes,dicofre
Selho (São Cristóvão),PS,47.2,582,030850
Selho (São Cristóvão),PPD/PSD,21.74,268,030850
Selho (São Cristóvão),B.E.,12.41,153,030850
Selho (São Cristóvão),PCP-PEV,9.25,114,030850
Selho (São Cristóvão),PAN,2.6,32,030850
Selho (São Cristóvão),CDS-PP,2.03,25,030850
Selho (São Cristóvão),R.I.R.,1.05,13,030850
Selho (São Cristóvão),IL,0.81,10,030850
Selho (São Cristóvão),PCTP/MRPP,0.81,10,030850
Selho (São Cristóvão),L,0.49,6,030850
Selho (São Cristóvão),NC,0.32,4,030850
Selho (São Cristóvão),PNR,0.32,4,030850
Selho (São Cristóvão),MPT,0.24,3,030850
Selho (São Cristóvão),CH,0.16,2,030850
Selho (São Cristóvão),MAS,0.16,2,030850
Selho (São Cristóvão),PURP,0.16,2,030850
Selho (São Cristóvão),A,0.08,1,030850
Selho (São Cristóvão),PPM,0.08,1,030850
Selho (São Cristóvão),PTP,0.08,1,030850
Selho (São Cristóvão),JPP,0,0,030850
Selho (São Cristóvão),PDR,0,0,030850
