freguesia,acronym,validVotesPercentage,votes,dicofre
Serapicos,PPD/PSD,75.94,101,171224
Serapicos,PS,10.53,14,171224
Serapicos,CDS-PP,7.52,10,171224
Serapicos,B.E.,2.26,3,171224
Serapicos,R.I.R.,2.26,3,171224
Serapicos,PCTP/MRPP,1.5,2,171224
Serapicos,A,0,0,171224
Serapicos,CH,0,0,171224
Serapicos,IL,0,0,171224
Serapicos,L,0,0,171224
Serapicos,NC,0,0,171224
Serapicos,PAN,0,0,171224
Serapicos,PCP-PEV,0,0,171224
Serapicos,PDR,0,0,171224
Serapicos,PNR,0,0,171224
Serapicos,PPM,0,0,171224
