freguesia,acronym,validVotesPercentage,votes,dicofre
Serreta,PS,48.81,82,430117
Serreta,PPD/PSD,32.14,54,430117
Serreta,CDS-PP,8.93,15,430117
Serreta,B.E.,4.76,8,430117
Serreta,PAN,1.79,3,430117
Serreta,PCP-PEV,1.19,2,430117
Serreta,CH,0.6,1,430117
Serreta,IL,0.6,1,430117
Serreta,MPT,0.6,1,430117
Serreta,PTP,0.6,1,430117
Serreta,A,0,0,430117
Serreta,L,0,0,430117
Serreta,MAS,0,0,430117
Serreta,PCTP/MRPP,0,0,430117
Serreta,PDR,0,0,430117
Serreta,PNR,0,0,430117
Serreta,PPM,0,0,430117
