freguesia,acronym,validVotesPercentage,votes,dicofre
Silvares (São Martinho),PS,48.66,362,030729
Silvares (São Martinho),PPD/PSD,32.39,241,030729
Silvares (São Martinho),B.E.,6.85,51,030729
Silvares (São Martinho),CDS-PP,3.63,27,030729
Silvares (São Martinho),PCP-PEV,2.42,18,030729
Silvares (São Martinho),PAN,2.02,15,030729
Silvares (São Martinho),R.I.R.,1.48,11,030729
Silvares (São Martinho),CH,0.4,3,030729
Silvares (São Martinho),IL,0.4,3,030729
Silvares (São Martinho),PURP,0.4,3,030729
Silvares (São Martinho),A,0.27,2,030729
Silvares (São Martinho),L,0.27,2,030729
Silvares (São Martinho),NC,0.27,2,030729
Silvares (São Martinho),PCTP/MRPP,0.27,2,030729
Silvares (São Martinho),MPT,0.13,1,030729
Silvares (São Martinho),PPM,0.13,1,030729
Silvares (São Martinho),JPP,0,0,030729
Silvares (São Martinho),MAS,0,0,030729
Silvares (São Martinho),PDR,0,0,030729
Silvares (São Martinho),PNR,0,0,030729
Silvares (São Martinho),PTP,0,0,030729
