freguesia,acronym,validVotesPercentage,votes,dicofre
Sobral da Adiça,PS,54.19,194,021008
Sobral da Adiça,PCP-PEV,25.7,92,021008
Sobral da Adiça,B.E.,6.15,22,021008
Sobral da Adiça,CH,4.19,15,021008
Sobral da Adiça,PPD/PSD,3.63,13,021008
Sobral da Adiça,CDS-PP,2.23,8,021008
Sobral da Adiça,PCTP/MRPP,2.23,8,021008
Sobral da Adiça,IL,0.56,2,021008
Sobral da Adiça,PAN,0.56,2,021008
Sobral da Adiça,A,0.28,1,021008
Sobral da Adiça,NC,0.28,1,021008
Sobral da Adiça,L,0,0,021008
Sobral da Adiça,MPT,0,0,021008
Sobral da Adiça,PDR,0,0,021008
Sobral da Adiça,PNR,0,0,021008
Sobral da Adiça,PPM,0,0,021008
Sobral da Adiça,PTP,0,0,021008
