freguesia,acronym,validVotesPercentage,votes,dicofre
Sobreira,PS,54.95,1165,131020
Sobreira,PPD/PSD,20.94,444,131020
Sobreira,B.E.,7.69,163,131020
Sobreira,PCP-PEV,3.58,76,131020
Sobreira,PAN,3.54,75,131020
Sobreira,R.I.R.,2.88,61,131020
Sobreira,CDS-PP,2.26,48,131020
Sobreira,PCTP/MRPP,0.75,16,131020
Sobreira,CH,0.71,15,131020
Sobreira,IL,0.61,13,131020
Sobreira,L,0.61,13,131020
Sobreira,PURP,0.42,9,131020
Sobreira,A,0.33,7,131020
Sobreira,MPT,0.19,4,131020
Sobreira,NC,0.14,3,131020
Sobreira,PPM,0.14,3,131020
Sobreira,PTP,0.14,3,131020
Sobreira,PNR,0.09,2,131020
Sobreira,JPP,0,0,131020
Sobreira,MAS,0,0,131020
Sobreira,PDR,0,0,131020
