freguesia,acronym,validVotesPercentage,votes,dicofre
Souto da Casa,PS,46.21,183,050426
Souto da Casa,PPD/PSD,29.29,116,050426
Souto da Casa,B.E.,12.12,48,050426
Souto da Casa,PCP-PEV,2.78,11,050426
Souto da Casa,CDS-PP,2.27,9,050426
Souto da Casa,PAN,2.02,8,050426
Souto da Casa,IL,1.52,6,050426
Souto da Casa,L,0.76,3,050426
Souto da Casa,PCTP/MRPP,0.76,3,050426
Souto da Casa,PNR,0.76,3,050426
Souto da Casa,R.I.R.,0.76,3,050426
Souto da Casa,A,0.25,1,050426
Souto da Casa,CH,0.25,1,050426
Souto da Casa,PPM,0.25,1,050426
Souto da Casa,MPT,0,0,050426
Souto da Casa,PDR,0,0,050426
Souto da Casa,PTP,0,0,050426
Souto da Casa,PURP,0,0,050426
