freguesia,acronym,validVotesPercentage,votes,dicofre
Soutelo do Douro,PPD/PSD,49.15,115,181509
Soutelo do Douro,PS,31.62,74,181509
Soutelo do Douro,CDS-PP,7.26,17,181509
Soutelo do Douro,B.E.,4.7,11,181509
Soutelo do Douro,R.I.R.,3.42,8,181509
Soutelo do Douro,A,0.85,2,181509
Soutelo do Douro,IL,0.85,2,181509
Soutelo do Douro,PCTP/MRPP,0.85,2,181509
Soutelo do Douro,MPT,0.43,1,181509
Soutelo do Douro,PCP-PEV,0.43,1,181509
Soutelo do Douro,PPM,0.43,1,181509
Soutelo do Douro,CH,0,0,181509
Soutelo do Douro,JPP,0,0,181509
Soutelo do Douro,L,0,0,181509
Soutelo do Douro,NC,0,0,181509
Soutelo do Douro,PAN,0,0,181509
Soutelo do Douro,PDR,0,0,181509
Soutelo do Douro,PNR,0,0,181509
Soutelo do Douro,PTP,0,0,181509
Soutelo do Douro,PURP,0,0,181509
