freguesia,acronym,validVotesPercentage,votes,dicofre
São Pedro de Castelões,PPD/PSD,31.41,1155,011902
São Pedro de Castelões,PS,29.64,1090,011902
São Pedro de Castelões,CDS-PP,17.02,626,011902
São Pedro de Castelões,B.E.,10.47,385,011902
São Pedro de Castelões,PAN,2.99,110,011902
São Pedro de Castelões,PCP-PEV,2.01,74,011902
São Pedro de Castelões,L,1.03,38,011902
São Pedro de Castelões,R.I.R.,1.03,38,011902
São Pedro de Castelões,IL,0.98,36,011902
São Pedro de Castelões,A,0.82,30,011902
São Pedro de Castelões,CH,0.65,24,011902
São Pedro de Castelões,PDR,0.57,21,011902
São Pedro de Castelões,PCTP/MRPP,0.52,19,011902
São Pedro de Castelões,MPT,0.27,10,011902
São Pedro de Castelões,PTP,0.16,6,011902
São Pedro de Castelões,NC,0.14,5,011902
São Pedro de Castelões,PURP,0.11,4,011902
São Pedro de Castelões,PNR,0.08,3,011902
São Pedro de Castelões,PPM,0.05,2,011902
São Pedro de Castelões,JPP,0.03,1,011902
