freguesia,acronym,validVotesPercentage,votes,dicofre
São Barnabé,PS,56.41,110,020206
São Barnabé,PPD/PSD,25.64,50,020206
São Barnabé,B.E.,9.74,19,020206
São Barnabé,PCP-PEV,2.56,5,020206
São Barnabé,PCTP/MRPP,2.05,4,020206
São Barnabé,CDS-PP,1.03,2,020206
São Barnabé,A,0.51,1,020206
São Barnabé,CH,0.51,1,020206
São Barnabé,MPT,0.51,1,020206
São Barnabé,PAN,0.51,1,020206
São Barnabé,PNR,0.51,1,020206
São Barnabé,IL,0,0,020206
São Barnabé,L,0,0,020206
São Barnabé,NC,0,0,020206
São Barnabé,PDR,0,0,020206
São Barnabé,PPM,0,0,020206
São Barnabé,PTP,0,0,020206
