freguesia,acronym,validVotesPercentage,votes,dicofre
São Tiago dos Velhos,PS,48.42,321,110204
São Tiago dos Velhos,PPD/PSD,20.66,137,110204
São Tiago dos Velhos,B.E.,9.35,62,110204
São Tiago dos Velhos,PCP-PEV,7.09,47,110204
São Tiago dos Velhos,PAN,4.07,27,110204
São Tiago dos Velhos,CDS-PP,2.41,16,110204
São Tiago dos Velhos,IL,1.66,11,110204
São Tiago dos Velhos,CH,1.36,9,110204
São Tiago dos Velhos,L,0.9,6,110204
São Tiago dos Velhos,PCTP/MRPP,0.75,5,110204
São Tiago dos Velhos,A,0.6,4,110204
São Tiago dos Velhos,MPT,0.6,4,110204
São Tiago dos Velhos,R.I.R.,0.6,4,110204
São Tiago dos Velhos,PNR,0.45,3,110204
São Tiago dos Velhos,NC,0.3,2,110204
São Tiago dos Velhos,PPM,0.3,2,110204
São Tiago dos Velhos,MAS,0.15,1,110204
São Tiago dos Velhos,PDR,0.15,1,110204
São Tiago dos Velhos,PTP,0.15,1,110204
São Tiago dos Velhos,PURP,0,0,110204
