freguesia,acronym,validVotesPercentage,votes,dicofre
São Bernardo,PPD/PSD,34.56,873,010510
São Bernardo,PS,28.66,724,010510
São Bernardo,B.E.,12.83,324,010510
São Bernardo,CDS-PP,8.08,204,010510
São Bernardo,PAN,3.96,100,010510
São Bernardo,PCP-PEV,3.01,76,010510
São Bernardo,A,1.7,43,010510
São Bernardo,IL,1.58,40,010510
São Bernardo,CH,1.19,30,010510
São Bernardo,L,1.07,27,010510
São Bernardo,R.I.R.,0.87,22,010510
São Bernardo,MPT,0.59,15,010510
São Bernardo,PCTP/MRPP,0.44,11,010510
São Bernardo,NC,0.4,10,010510
São Bernardo,PDR,0.28,7,010510
São Bernardo,JPP,0.24,6,010510
São Bernardo,PURP,0.2,5,010510
São Bernardo,PNR,0.16,4,010510
São Bernardo,PPM,0.12,3,010510
São Bernardo,PTP,0.08,2,010510
