freguesia,acronym,validVotesPercentage,votes,dicofre
São Vicente,PS,37.49,2353,110667
São Vicente,PPD/PSD,19.09,1198,110667
São Vicente,B.E.,12.95,813,110667
São Vicente,PCP-PEV,10.2,640,110667
São Vicente,L,5.5,345,110667
São Vicente,PAN,5.18,325,110667
São Vicente,CDS-PP,3.06,192,110667
São Vicente,IL,1.98,124,110667
São Vicente,A,1.07,67,110667
São Vicente,CH,1.07,67,110667
São Vicente,PCTP/MRPP,0.7,44,110667
São Vicente,PNR,0.38,24,110667
São Vicente,PPM,0.33,21,110667
São Vicente,R.I.R.,0.32,20,110667
São Vicente,NC,0.19,12,110667
São Vicente,MPT,0.16,10,110667
São Vicente,PURP,0.16,10,110667
São Vicente,MAS,0.1,6,110667
São Vicente,PTP,0.06,4,110667
São Vicente,PDR,0.03,2,110667
