freguesia,acronym,validVotesPercentage,votes,dicofre
São Lourenço do Bairro,PPD/PSD,42.97,449,010310
São Lourenço do Bairro,PS,31,324,010310
São Lourenço do Bairro,B.E.,9.09,95,010310
São Lourenço do Bairro,CDS-PP,4.59,48,010310
São Lourenço do Bairro,PCP-PEV,2.3,24,010310
São Lourenço do Bairro,PAN,2.01,21,010310
São Lourenço do Bairro,IL,1.24,13,010310
São Lourenço do Bairro,A,1.15,12,010310
São Lourenço do Bairro,CH,0.86,9,010310
São Lourenço do Bairro,L,0.86,9,010310
São Lourenço do Bairro,R.I.R.,0.86,9,010310
São Lourenço do Bairro,PCTP/MRPP,0.67,7,010310
São Lourenço do Bairro,PURP,0.67,7,010310
São Lourenço do Bairro,PDR,0.48,5,010310
São Lourenço do Bairro,PNR,0.48,5,010310
São Lourenço do Bairro,MPT,0.29,3,010310
São Lourenço do Bairro,PPM,0.19,2,010310
São Lourenço do Bairro,JPP,0.1,1,010310
São Lourenço do Bairro,NC,0.1,1,010310
São Lourenço do Bairro,PTP,0.1,1,010310
