freguesia,acronym,validVotesPercentage,votes,dicofre
São Pedro de Rio Seco,PPD/PSD,39.76,33,090224
São Pedro de Rio Seco,PS,26.51,22,090224
São Pedro de Rio Seco,B.E.,9.64,8,090224
São Pedro de Rio Seco,PCP-PEV,9.64,8,090224
São Pedro de Rio Seco,CDS-PP,8.43,7,090224
São Pedro de Rio Seco,PTP,2.41,2,090224
São Pedro de Rio Seco,L,1.2,1,090224
São Pedro de Rio Seco,NC,1.2,1,090224
São Pedro de Rio Seco,PAN,1.2,1,090224
São Pedro de Rio Seco,A,0,0,090224
São Pedro de Rio Seco,CH,0,0,090224
São Pedro de Rio Seco,IL,0,0,090224
São Pedro de Rio Seco,MPT,0,0,090224
São Pedro de Rio Seco,PCTP/MRPP,0,0,090224
São Pedro de Rio Seco,PDR,0,0,090224
São Pedro de Rio Seco,PNR,0,0,090224
São Pedro de Rio Seco,PPM,0,0,090224
São Pedro de Rio Seco,PURP,0,0,090224
São Pedro de Rio Seco,R.I.R.,0,0,090224
