freguesia,acronym,validVotesPercentage,votes,dicofre
São Martinho do Peso,PS,48.72,76,040817
São Martinho do Peso,PPD/PSD,41.67,65,040817
São Martinho do Peso,CDS-PP,3.85,6,040817
São Martinho do Peso,B.E.,3.21,5,040817
São Martinho do Peso,PAN,1.28,2,040817
São Martinho do Peso,PURP,0.64,1,040817
São Martinho do Peso,R.I.R.,0.64,1,040817
São Martinho do Peso,A,0,0,040817
São Martinho do Peso,CH,0,0,040817
São Martinho do Peso,IL,0,0,040817
São Martinho do Peso,L,0,0,040817
São Martinho do Peso,NC,0,0,040817
São Martinho do Peso,PCP-PEV,0,0,040817
São Martinho do Peso,PCTP/MRPP,0,0,040817
São Martinho do Peso,PDR,0,0,040817
São Martinho do Peso,PNR,0,0,040817
São Martinho do Peso,PPM,0,0,040817
São Martinho do Peso,PTP,0,0,040817
