freguesia,acronym,validVotesPercentage,votes,dicofre
Tabuaço,PPD/PSD,40.45,288,181914
Tabuaço,PS,39.75,283,181914
Tabuaço,B.E.,6.88,49,181914
Tabuaço,CDS-PP,5.2,37,181914
Tabuaço,PAN,2.11,15,181914
Tabuaço,PCP-PEV,1.26,9,181914
Tabuaço,R.I.R.,1.12,8,181914
Tabuaço,PCTP/MRPP,0.98,7,181914
Tabuaço,A,0.56,4,181914
Tabuaço,CH,0.56,4,181914
Tabuaço,IL,0.28,2,181914
Tabuaço,L,0.28,2,181914
Tabuaço,NC,0.28,2,181914
Tabuaço,PDR,0.14,1,181914
Tabuaço,PNR,0.14,1,181914
Tabuaço,JPP,0,0,181914
Tabuaço,MPT,0,0,181914
Tabuaço,PPM,0,0,181914
Tabuaço,PTP,0,0,181914
Tabuaço,PURP,0,0,181914
