freguesia,acronym,validVotesPercentage,votes,dicofre
Talhas,PS,47.77,75,040530
Talhas,PPD/PSD,40.13,63,040530
Talhas,CDS-PP,3.82,6,040530
Talhas,B.E.,2.55,4,040530
Talhas,PAN,1.91,3,040530
Talhas,PCP-PEV,1.27,2,040530
Talhas,IL,0.64,1,040530
Talhas,L,0.64,1,040530
Talhas,PNR,0.64,1,040530
Talhas,PTP,0.64,1,040530
Talhas,A,0,0,040530
Talhas,CH,0,0,040530
Talhas,NC,0,0,040530
Talhas,PCTP/MRPP,0,0,040530
Talhas,PDR,0,0,040530
Talhas,PPM,0,0,040530
Talhas,PURP,0,0,040530
Talhas,R.I.R.,0,0,040530
