freguesia,acronym,validVotesPercentage,votes,dicofre
Telhado,PS,45.28,144,050427
Telhado,PPD/PSD,25.47,81,050427
Telhado,B.E.,9.43,30,050427
Telhado,PCP-PEV,7.55,24,050427
Telhado,CDS-PP,3.77,12,050427
Telhado,CH,2.2,7,050427
Telhado,PAN,1.89,6,050427
Telhado,L,1.26,4,050427
Telhado,A,0.63,2,050427
Telhado,PCTP/MRPP,0.63,2,050427
Telhado,PNR,0.63,2,050427
Telhado,R.I.R.,0.63,2,050427
Telhado,MPT,0.31,1,050427
Telhado,PPM,0.31,1,050427
Telhado,IL,0,0,050427
Telhado,PDR,0,0,050427
Telhado,PTP,0,0,050427
Telhado,PURP,0,0,050427
