freguesia,acronym,validVotesPercentage,votes,dicofre
Tourém,PS,52.5,42,170632
Tourém,PPD/PSD,35,28,170632
Tourém,B.E.,7.5,6,170632
Tourém,CDS-PP,3.75,3,170632
Tourém,PDR,1.25,1,170632
Tourém,A,0,0,170632
Tourém,CH,0,0,170632
Tourém,IL,0,0,170632
Tourém,L,0,0,170632
Tourém,NC,0,0,170632
Tourém,PAN,0,0,170632
Tourém,PCP-PEV,0,0,170632
Tourém,PCTP/MRPP,0,0,170632
Tourém,PNR,0,0,170632
Tourém,PPM,0,0,170632
Tourém,R.I.R.,0,0,170632
