freguesia,acronym,validVotesPercentage,votes,dicofre
"União das freguesias de São Miguel, Santa Eufémia e Rabaçal",PS,41.45,584,061407
"União das freguesias de São Miguel, Santa Eufémia e Rabaçal",PPD/PSD,33.71,475,061407
"União das freguesias de São Miguel, Santa Eufémia e Rabaçal",B.E.,9.51,134,061407
"União das freguesias de São Miguel, Santa Eufémia e Rabaçal",CDS-PP,3.83,54,061407
"União das freguesias de São Miguel, Santa Eufémia e Rabaçal",PCP-PEV,3.26,46,061407
"União das freguesias de São Miguel, Santa Eufémia e Rabaçal",PAN,2.13,30,061407
"União das freguesias de São Miguel, Santa Eufémia e Rabaçal",CH,1.14,16,061407
"União das freguesias de São Miguel, Santa Eufémia e Rabaçal",A,0.99,14,061407
"União das freguesias de São Miguel, Santa Eufémia e Rabaçal",IL,0.85,12,061407
"União das freguesias de São Miguel, Santa Eufémia e Rabaçal",L,0.78,11,061407
"União das freguesias de São Miguel, Santa Eufémia e Rabaçal",R.I.R.,0.71,10,061407
"União das freguesias de São Miguel, Santa Eufémia e Rabaçal",PCTP/MRPP,0.57,8,061407
"União das freguesias de São Miguel, Santa Eufémia e Rabaçal",PPM,0.28,4,061407
"União das freguesias de São Miguel, Santa Eufémia e Rabaçal",PURP,0.28,4,061407
"União das freguesias de São Miguel, Santa Eufémia e Rabaçal",MPT,0.21,3,061407
"União das freguesias de São Miguel, Santa Eufémia e Rabaçal",PDR,0.14,2,061407
"União das freguesias de São Miguel, Santa Eufémia e Rabaçal",NC,0.07,1,061407
"União das freguesias de São Miguel, Santa Eufémia e Rabaçal",PNR,0.07,1,061407
"União das freguesias de São Miguel, Santa Eufémia e Rabaçal",JPP,0,0,061407
"União das freguesias de São Miguel, Santa Eufémia e Rabaçal",MAS,0,0,061407
