freguesia,acronym,validVotesPercentage,votes,dicofre
União das freguesias de Casais e Alviobeira,PS,43.27,566,141818
União das freguesias de Casais e Alviobeira,PPD/PSD,30.12,394,141818
União das freguesias de Casais e Alviobeira,B.E.,8.94,117,141818
União das freguesias de Casais e Alviobeira,CDS-PP,5.43,71,141818
União das freguesias de Casais e Alviobeira,PCP-PEV,3.44,45,141818
União das freguesias de Casais e Alviobeira,PAN,2.06,27,141818
União das freguesias de Casais e Alviobeira,CH,1.38,18,141818
União das freguesias de Casais e Alviobeira,A,0.99,13,141818
União das freguesias de Casais e Alviobeira,PCTP/MRPP,0.84,11,141818
União das freguesias de Casais e Alviobeira,L,0.61,8,141818
União das freguesias de Casais e Alviobeira,R.I.R.,0.61,8,141818
União das freguesias de Casais e Alviobeira,PPM,0.54,7,141818
União das freguesias de Casais e Alviobeira,NC,0.46,6,141818
União das freguesias de Casais e Alviobeira,PTP,0.38,5,141818
União das freguesias de Casais e Alviobeira,IL,0.31,4,141818
União das freguesias de Casais e Alviobeira,MPT,0.23,3,141818
União das freguesias de Casais e Alviobeira,PDR,0.23,3,141818
União das freguesias de Casais e Alviobeira,PNR,0.15,2,141818
União das freguesias de Casais e Alviobeira,PURP,0,0,141818
