freguesia,acronym,validVotesPercentage,votes,dicofre
União das freguesias de Atães e Rendufe,PS,48.93,596,030878
União das freguesias de Atães e Rendufe,PPD/PSD,26.93,328,030878
União das freguesias de Atães e Rendufe,B.E.,9.52,116,030878
União das freguesias de Atães e Rendufe,CDS-PP,3.61,44,030878
União das freguesias de Atães e Rendufe,PCP-PEV,3.37,41,030878
União das freguesias de Atães e Rendufe,PAN,1.31,16,030878
União das freguesias de Atães e Rendufe,R.I.R.,1.31,16,030878
União das freguesias de Atães e Rendufe,PCTP/MRPP,1.07,13,030878
União das freguesias de Atães e Rendufe,L,0.74,9,030878
União das freguesias de Atães e Rendufe,IL,0.66,8,030878
União das freguesias de Atães e Rendufe,MPT,0.41,5,030878
União das freguesias de Atães e Rendufe,PDR,0.41,5,030878
União das freguesias de Atães e Rendufe,PTP,0.41,5,030878
União das freguesias de Atães e Rendufe,CH,0.33,4,030878
União das freguesias de Atães e Rendufe,PNR,0.33,4,030878
União das freguesias de Atães e Rendufe,A,0.25,3,030878
União das freguesias de Atães e Rendufe,JPP,0.16,2,030878
União das freguesias de Atães e Rendufe,NC,0.08,1,030878
União das freguesias de Atães e Rendufe,PPM,0.08,1,030878
União das freguesias de Atães e Rendufe,PURP,0.08,1,030878
União das freguesias de Atães e Rendufe,MAS,0,0,030878
