freguesia,acronym,validVotesPercentage,votes,dicofre
União das freguesias de Braga (São José de São Lázaro e São João do Souto),PS,33.85,2404,030365
União das freguesias de Braga (São José de São Lázaro e São João do Souto),PPD/PSD,31.99,2272,030365
União das freguesias de Braga (São José de São Lázaro e São João do Souto),B.E.,13.53,961,030365
União das freguesias de Braga (São José de São Lázaro e São João do Souto),PCP-PEV,6.96,494,030365
União das freguesias de Braga (São José de São Lázaro e São João do Souto),CDS-PP,4.62,328,030365
União das freguesias de Braga (São José de São Lázaro e São João do Souto),PAN,3.01,214,030365
União das freguesias de Braga (São José de São Lázaro e São João do Souto),L,1.42,101,030365
União das freguesias de Braga (São José de São Lázaro e São João do Souto),IL,1.03,73,030365
União das freguesias de Braga (São José de São Lázaro e São João do Souto),CH,0.94,67,030365
União das freguesias de Braga (São José de São Lázaro e São João do Souto),PCTP/MRPP,0.63,45,030365
União das freguesias de Braga (São José de São Lázaro e São João do Souto),A,0.55,39,030365
União das freguesias de Braga (São José de São Lázaro e São João do Souto),R.I.R.,0.45,32,030365
União das freguesias de Braga (São José de São Lázaro e São João do Souto),MPT,0.24,17,030365
União das freguesias de Braga (São José de São Lázaro e São João do Souto),NC,0.21,15,030365
União das freguesias de Braga (São José de São Lázaro e São João do Souto),PURP,0.17,12,030365
União das freguesias de Braga (São José de São Lázaro e São João do Souto),PNR,0.1,7,030365
União das freguesias de Braga (São José de São Lázaro e São João do Souto),JPP,0.08,6,030365
União das freguesias de Braga (São José de São Lázaro e São João do Souto),PPM,0.08,6,030365
União das freguesias de Braga (São José de São Lázaro e São João do Souto),MAS,0.04,3,030365
União das freguesias de Braga (São José de São Lázaro e São João do Souto),PDR,0.04,3,030365
União das freguesias de Braga (São José de São Lázaro e São João do Souto),PTP,0.04,3,030365
