freguesia,acronym,validVotesPercentage,votes,dicofre
União das freguesias de Mafamude e Vilar do Paraíso,PS,34.68,8885,131727
União das freguesias de Mafamude e Vilar do Paraíso,PPD/PSD,30.36,7780,131727
União das freguesias de Mafamude e Vilar do Paraíso,B.E.,14.19,3636,131727
União das freguesias de Mafamude e Vilar do Paraíso,PCP-PEV,6.07,1555,131727
União das freguesias de Mafamude e Vilar do Paraíso,PAN,4.55,1167,131727
União das freguesias de Mafamude e Vilar do Paraíso,CDS-PP,2.76,707,131727
União das freguesias de Mafamude e Vilar do Paraíso,IL,2.08,532,131727
União das freguesias de Mafamude e Vilar do Paraíso,L,1.34,343,131727
União das freguesias de Mafamude e Vilar do Paraíso,CH,0.81,208,131727
União das freguesias de Mafamude e Vilar do Paraíso,R.I.R.,0.67,171,131727
União das freguesias de Mafamude e Vilar do Paraíso,A,0.65,167,131727
União das freguesias de Mafamude e Vilar do Paraíso,PCTP/MRPP,0.5,127,131727
União das freguesias de Mafamude e Vilar do Paraíso,PURP,0.27,69,131727
União das freguesias de Mafamude e Vilar do Paraíso,MPT,0.23,59,131727
União das freguesias de Mafamude e Vilar do Paraíso,NC,0.2,50,131727
União das freguesias de Mafamude e Vilar do Paraíso,PNR,0.2,51,131727
União das freguesias de Mafamude e Vilar do Paraíso,PDR,0.12,31,131727
União das freguesias de Mafamude e Vilar do Paraíso,JPP,0.09,23,131727
União das freguesias de Mafamude e Vilar do Paraíso,PPM,0.1,25,131727
União das freguesias de Mafamude e Vilar do Paraíso,PTP,0.09,24,131727
União das freguesias de Mafamude e Vilar do Paraíso,MAS,0.05,13,131727
