freguesia,acronym,validVotesPercentage,votes,dicofre
União das freguesias de Arnoso (Santa Maria e Santa Eulália) e Sezures,PS,39.75,754,031251
União das freguesias de Arnoso (Santa Maria e Santa Eulália) e Sezures,PPD/PSD,37.53,712,031251
União das freguesias de Arnoso (Santa Maria e Santa Eulália) e Sezures,B.E.,8.22,156,031251
União das freguesias de Arnoso (Santa Maria e Santa Eulália) e Sezures,CDS-PP,4.06,77,031251
União das freguesias de Arnoso (Santa Maria e Santa Eulália) e Sezures,PCP-PEV,3.27,62,031251
União das freguesias de Arnoso (Santa Maria e Santa Eulália) e Sezures,PAN,2.95,56,031251
União das freguesias de Arnoso (Santa Maria e Santa Eulália) e Sezures,R.I.R.,1.05,20,031251
União das freguesias de Arnoso (Santa Maria e Santa Eulália) e Sezures,CH,0.58,11,031251
União das freguesias de Arnoso (Santa Maria e Santa Eulália) e Sezures,PCTP/MRPP,0.58,11,031251
União das freguesias de Arnoso (Santa Maria e Santa Eulália) e Sezures,L,0.53,10,031251
União das freguesias de Arnoso (Santa Maria e Santa Eulália) e Sezures,IL,0.32,6,031251
União das freguesias de Arnoso (Santa Maria e Santa Eulália) e Sezures,MPT,0.26,5,031251
União das freguesias de Arnoso (Santa Maria e Santa Eulália) e Sezures,A,0.21,4,031251
União das freguesias de Arnoso (Santa Maria e Santa Eulália) e Sezures,JPP,0.21,4,031251
União das freguesias de Arnoso (Santa Maria e Santa Eulália) e Sezures,NC,0.16,3,031251
União das freguesias de Arnoso (Santa Maria e Santa Eulália) e Sezures,PTP,0.16,3,031251
União das freguesias de Arnoso (Santa Maria e Santa Eulália) e Sezures,PNR,0.11,2,031251
União das freguesias de Arnoso (Santa Maria e Santa Eulália) e Sezures,PDR,0.05,1,031251
União das freguesias de Arnoso (Santa Maria e Santa Eulália) e Sezures,MAS,0,0,031251
União das freguesias de Arnoso (Santa Maria e Santa Eulália) e Sezures,PPM,0,0,031251
União das freguesias de Arnoso (Santa Maria e Santa Eulália) e Sezures,PURP,0,0,031251
