freguesia,acronym,validVotesPercentage,votes,dicofre
União das freguesias de Vila Seca e Santo Adrião,PS,46.91,91,180123
União das freguesias de Vila Seca e Santo Adrião,PPD/PSD,22.16,43,180123
União das freguesias de Vila Seca e Santo Adrião,PCP-PEV,8.25,16,180123
União das freguesias de Vila Seca e Santo Adrião,CDS-PP,6.7,13,180123
União das freguesias de Vila Seca e Santo Adrião,B.E.,4.64,9,180123
União das freguesias de Vila Seca e Santo Adrião,PCTP/MRPP,4.12,8,180123
União das freguesias de Vila Seca e Santo Adrião,CH,1.55,3,180123
União das freguesias de Vila Seca e Santo Adrião,PAN,1.55,3,180123
União das freguesias de Vila Seca e Santo Adrião,PTP,1.03,2,180123
União das freguesias de Vila Seca e Santo Adrião,R.I.R.,1.03,2,180123
União das freguesias de Vila Seca e Santo Adrião,A,0.52,1,180123
União das freguesias de Vila Seca e Santo Adrião,JPP,0.52,1,180123
União das freguesias de Vila Seca e Santo Adrião,PPM,0.52,1,180123
União das freguesias de Vila Seca e Santo Adrião,PURP,0.52,1,180123
União das freguesias de Vila Seca e Santo Adrião,IL,0,0,180123
União das freguesias de Vila Seca e Santo Adrião,L,0,0,180123
União das freguesias de Vila Seca e Santo Adrião,MPT,0,0,180123
União das freguesias de Vila Seca e Santo Adrião,NC,0,0,180123
União das freguesias de Vila Seca e Santo Adrião,PDR,0,0,180123
União das freguesias de Vila Seca e Santo Adrião,PNR,0,0,180123
