freguesia,acronym,validVotesPercentage,votes,dicofre
União das freguesias de Ervedal e Vila Franca da Beira,PS,41.6,245,061122
União das freguesias de Ervedal e Vila Franca da Beira,PPD/PSD,25.64,151,061122
União das freguesias de Ervedal e Vila Franca da Beira,B.E.,9.85,58,061122
União das freguesias de Ervedal e Vila Franca da Beira,CDS-PP,7.47,44,061122
União das freguesias de Ervedal e Vila Franca da Beira,PCP-PEV,5.6,33,061122
União das freguesias de Ervedal e Vila Franca da Beira,PAN,2.38,14,061122
União das freguesias de Ervedal e Vila Franca da Beira,CH,1.36,8,061122
União das freguesias de Ervedal e Vila Franca da Beira,A,1.02,6,061122
União das freguesias de Ervedal e Vila Franca da Beira,PCTP/MRPP,1.02,6,061122
União das freguesias de Ervedal e Vila Franca da Beira,NC,0.85,5,061122
União das freguesias de Ervedal e Vila Franca da Beira,R.I.R.,0.85,5,061122
União das freguesias de Ervedal e Vila Franca da Beira,L,0.68,4,061122
União das freguesias de Ervedal e Vila Franca da Beira,PURP,0.68,4,061122
União das freguesias de Ervedal e Vila Franca da Beira,PNR,0.51,3,061122
União das freguesias de Ervedal e Vila Franca da Beira,JPP,0.17,1,061122
União das freguesias de Ervedal e Vila Franca da Beira,MPT,0.17,1,061122
União das freguesias de Ervedal e Vila Franca da Beira,PPM,0.17,1,061122
União das freguesias de Ervedal e Vila Franca da Beira,IL,0,0,061122
União das freguesias de Ervedal e Vila Franca da Beira,MAS,0,0,061122
União das freguesias de Ervedal e Vila Franca da Beira,PDR,0,0,061122
