freguesia,acronym,validVotesPercentage,votes,dicofre
União das freguesias de Gondemaria e Olival,PPD/PSD,52.29,752,142120
União das freguesias de Gondemaria e Olival,PS,21.35,307,142120
União das freguesias de Gondemaria e Olival,CDS-PP,9.6,138,142120
União das freguesias de Gondemaria e Olival,B.E.,6.88,99,142120
União das freguesias de Gondemaria e Olival,PAN,2.29,33,142120
União das freguesias de Gondemaria e Olival,CH,1.25,18,142120
União das freguesias de Gondemaria e Olival,PCP-PEV,1.25,18,142120
União das freguesias de Gondemaria e Olival,R.I.R.,0.9,13,142120
União das freguesias de Gondemaria e Olival,IL,0.7,10,142120
União das freguesias de Gondemaria e Olival,L,0.56,8,142120
União das freguesias de Gondemaria e Olival,A,0.49,7,142120
União das freguesias de Gondemaria e Olival,NC,0.49,7,142120
União das freguesias de Gondemaria e Olival,PPM,0.35,5,142120
União das freguesias de Gondemaria e Olival,PURP,0.35,5,142120
União das freguesias de Gondemaria e Olival,PCTP/MRPP,0.28,4,142120
União das freguesias de Gondemaria e Olival,PDR,0.28,4,142120
União das freguesias de Gondemaria e Olival,PNR,0.28,4,142120
União das freguesias de Gondemaria e Olival,PTP,0.28,4,142120
União das freguesias de Gondemaria e Olival,MPT,0.14,2,142120
