freguesia,acronym,validVotesPercentage,votes,dicofre
"União das freguesias de Vale Flor, Carvalhal e Pai Penela",PPD/PSD,37.69,49,090919
"União das freguesias de Vale Flor, Carvalhal e Pai Penela",PS,26.92,35,090919
"União das freguesias de Vale Flor, Carvalhal e Pai Penela",CDS-PP,15.38,20,090919
"União das freguesias de Vale Flor, Carvalhal e Pai Penela",B.E.,7.69,10,090919
"União das freguesias de Vale Flor, Carvalhal e Pai Penela",PAN,2.31,3,090919
"União das freguesias de Vale Flor, Carvalhal e Pai Penela",CH,1.54,2,090919
"União das freguesias de Vale Flor, Carvalhal e Pai Penela",IL,1.54,2,090919
"União das freguesias de Vale Flor, Carvalhal e Pai Penela",PCP-PEV,1.54,2,090919
"União das freguesias de Vale Flor, Carvalhal e Pai Penela",PTP,1.54,2,090919
"União das freguesias de Vale Flor, Carvalhal e Pai Penela",R.I.R.,1.54,2,090919
"União das freguesias de Vale Flor, Carvalhal e Pai Penela",A,0.77,1,090919
"União das freguesias de Vale Flor, Carvalhal e Pai Penela",L,0.77,1,090919
"União das freguesias de Vale Flor, Carvalhal e Pai Penela",PCTP/MRPP,0.77,1,090919
"União das freguesias de Vale Flor, Carvalhal e Pai Penela",MPT,0,0,090919
"União das freguesias de Vale Flor, Carvalhal e Pai Penela",NC,0,0,090919
"União das freguesias de Vale Flor, Carvalhal e Pai Penela",PDR,0,0,090919
"União das freguesias de Vale Flor, Carvalhal e Pai Penela",PNR,0,0,090919
"União das freguesias de Vale Flor, Carvalhal e Pai Penela",PPM,0,0,090919
"União das freguesias de Vale Flor, Carvalhal e Pai Penela",PURP,0,0,090919
