freguesia,acronym,validVotesPercentage,votes,dicofre
"União das freguesias de Custóias, Leça do Balio e Guifões",PS,42.91,9276,130811
"União das freguesias de Custóias, Leça do Balio e Guifões",PPD/PSD,25.28,5464,130811
"União das freguesias de Custóias, Leça do Balio e Guifões",B.E.,12.78,2762,130811
"União das freguesias de Custóias, Leça do Balio e Guifões",PCP-PEV,5.98,1293,130811
"União das freguesias de Custóias, Leça do Balio e Guifões",PAN,4.49,970,130811
"União das freguesias de Custóias, Leça do Balio e Guifões",CDS-PP,2.17,469,130811
"União das freguesias de Custóias, Leça do Balio e Guifões",IL,1.48,319,130811
"União das freguesias de Custóias, Leça do Balio e Guifões",L,0.91,197,130811
"União das freguesias de Custóias, Leça do Balio e Guifões",CH,0.77,167,130811
"União das freguesias de Custóias, Leça do Balio e Guifões",PCTP/MRPP,0.67,144,130811
"União das freguesias de Custóias, Leça do Balio e Guifões",R.I.R.,0.64,138,130811
"União das freguesias de Custóias, Leça do Balio e Guifões",A,0.47,101,130811
"União das freguesias de Custóias, Leça do Balio e Guifões",PURP,0.25,53,130811
"União das freguesias de Custóias, Leça do Balio e Guifões",NC,0.23,50,130811
"União das freguesias de Custóias, Leça do Balio e Guifões",PNR,0.22,48,130811
"União das freguesias de Custóias, Leça do Balio e Guifões",MPT,0.19,40,130811
"União das freguesias de Custóias, Leça do Balio e Guifões",PDR,0.19,41,130811
"União das freguesias de Custóias, Leça do Balio e Guifões",PTP,0.15,32,130811
"União das freguesias de Custóias, Leça do Balio e Guifões",PPM,0.11,23,130811
"União das freguesias de Custóias, Leça do Balio e Guifões",JPP,0.09,20,130811
"União das freguesias de Custóias, Leça do Balio e Guifões",MAS,0.05,11,130811
