freguesia,acronym,validVotesPercentage,votes,dicofre
União das freguesias de Carva e Vilares,PS,49.18,120,170710
União das freguesias de Carva e Vilares,PPD/PSD,38.11,93,170710
União das freguesias de Carva e Vilares,B.E.,5.33,13,170710
União das freguesias de Carva e Vilares,CDS-PP,2.87,7,170710
União das freguesias de Carva e Vilares,PCP-PEV,1.23,3,170710
União das freguesias de Carva e Vilares,CH,0.82,2,170710
União das freguesias de Carva e Vilares,PAN,0.82,2,170710
União das freguesias de Carva e Vilares,PCTP/MRPP,0.41,1,170710
União das freguesias de Carva e Vilares,PDR,0.41,1,170710
União das freguesias de Carva e Vilares,PNR,0.41,1,170710
União das freguesias de Carva e Vilares,PPM,0.41,1,170710
União das freguesias de Carva e Vilares,A,0,0,170710
União das freguesias de Carva e Vilares,IL,0,0,170710
União das freguesias de Carva e Vilares,L,0,0,170710
União das freguesias de Carva e Vilares,NC,0,0,170710
União das freguesias de Carva e Vilares,R.I.R.,0,0,170710
