freguesia,acronym,validVotesPercentage,votes,dicofre
União das freguesias de Beduído e Veiros,PPD/PSD,35.13,1483,010808
União das freguesias de Beduído e Veiros,PS,34.92,1474,010808
União das freguesias de Beduído e Veiros,B.E.,11.42,482,010808
União das freguesias de Beduído e Veiros,PCP-PEV,5.28,223,010808
União das freguesias de Beduído e Veiros,CDS-PP,3.89,164,010808
União das freguesias de Beduído e Veiros,PAN,2.89,122,010808
União das freguesias de Beduído e Veiros,IL,1.18,50,010808
União das freguesias de Beduído e Veiros,A,1.04,44,010808
União das freguesias de Beduído e Veiros,L,0.78,33,010808
União das freguesias de Beduído e Veiros,CH,0.76,32,010808
União das freguesias de Beduído e Veiros,PCTP/MRPP,0.66,28,010808
União das freguesias de Beduído e Veiros,R.I.R.,0.57,24,010808
União das freguesias de Beduído e Veiros,PNR,0.38,16,010808
União das freguesias de Beduído e Veiros,NC,0.28,12,010808
União das freguesias de Beduído e Veiros,MPT,0.19,8,010808
União das freguesias de Beduído e Veiros,PDR,0.19,8,010808
União das freguesias de Beduído e Veiros,PTP,0.19,8,010808
União das freguesias de Beduído e Veiros,PURP,0.19,8,010808
União das freguesias de Beduído e Veiros,PPM,0.05,2,010808
União das freguesias de Beduído e Veiros,JPP,0,0,010808
