freguesia,acronym,validVotesPercentage,votes,dicofre
União das freguesias de Urros e Peredo dos Castelhanos,PS,51.72,90,040921
União das freguesias de Urros e Peredo dos Castelhanos,PPD/PSD,37.93,66,040921
União das freguesias de Urros e Peredo dos Castelhanos,B.E.,3.45,6,040921
União das freguesias de Urros e Peredo dos Castelhanos,CDS-PP,2.87,5,040921
União das freguesias de Urros e Peredo dos Castelhanos,PCTP/MRPP,1.72,3,040921
União das freguesias de Urros e Peredo dos Castelhanos,PCP-PEV,1.15,2,040921
União das freguesias de Urros e Peredo dos Castelhanos,IL,0.57,1,040921
União das freguesias de Urros e Peredo dos Castelhanos,PAN,0.57,1,040921
União das freguesias de Urros e Peredo dos Castelhanos,A,0,0,040921
União das freguesias de Urros e Peredo dos Castelhanos,CH,0,0,040921
União das freguesias de Urros e Peredo dos Castelhanos,L,0,0,040921
União das freguesias de Urros e Peredo dos Castelhanos,NC,0,0,040921
União das freguesias de Urros e Peredo dos Castelhanos,PDR,0,0,040921
União das freguesias de Urros e Peredo dos Castelhanos,PNR,0,0,040921
União das freguesias de Urros e Peredo dos Castelhanos,PPM,0,0,040921
União das freguesias de Urros e Peredo dos Castelhanos,PTP,0,0,040921
União das freguesias de Urros e Peredo dos Castelhanos,PURP,0,0,040921
União das freguesias de Urros e Peredo dos Castelhanos,R.I.R.,0,0,040921
