freguesia,acronym,validVotesPercentage,votes,dicofre
União das freguesias de Canedo de Basto e Corgo,PS,44.81,289,030525
União das freguesias de Canedo de Basto e Corgo,PPD/PSD,34.26,221,030525
União das freguesias de Canedo de Basto e Corgo,PAN,7.44,48,030525
União das freguesias de Canedo de Basto e Corgo,B.E.,5.58,36,030525
União das freguesias de Canedo de Basto e Corgo,CDS-PP,2.33,15,030525
União das freguesias de Canedo de Basto e Corgo,R.I.R.,1.24,8,030525
União das freguesias de Canedo de Basto e Corgo,PCP-PEV,0.93,6,030525
União das freguesias de Canedo de Basto e Corgo,IL,0.62,4,030525
União das freguesias de Canedo de Basto e Corgo,L,0.62,4,030525
União das freguesias de Canedo de Basto e Corgo,PCTP/MRPP,0.47,3,030525
União das freguesias de Canedo de Basto e Corgo,NC,0.31,2,030525
União das freguesias de Canedo de Basto e Corgo,PNR,0.31,2,030525
União das freguesias de Canedo de Basto e Corgo,PPM,0.31,2,030525
União das freguesias de Canedo de Basto e Corgo,A,0.16,1,030525
União das freguesias de Canedo de Basto e Corgo,CH,0.16,1,030525
União das freguesias de Canedo de Basto e Corgo,MPT,0.16,1,030525
União das freguesias de Canedo de Basto e Corgo,PDR,0.16,1,030525
União das freguesias de Canedo de Basto e Corgo,PTP,0.16,1,030525
União das freguesias de Canedo de Basto e Corgo,JPP,0,0,030525
União das freguesias de Canedo de Basto e Corgo,MAS,0,0,030525
União das freguesias de Canedo de Basto e Corgo,PURP,0,0,030525
