freguesia,acronym,validVotesPercentage,votes,dicofre
União das freguesias de Retorta e Tougues,PS,37.59,421,131634
União das freguesias de Retorta e Tougues,PPD/PSD,35.54,398,131634
União das freguesias de Retorta e Tougues,B.E.,9.29,104,131634
União das freguesias de Retorta e Tougues,CDS-PP,4.55,51,131634
União das freguesias de Retorta e Tougues,PCP-PEV,4.02,45,131634
União das freguesias de Retorta e Tougues,PAN,3.13,35,131634
União das freguesias de Retorta e Tougues,L,1.07,12,131634
União das freguesias de Retorta e Tougues,R.I.R.,1.07,12,131634
União das freguesias de Retorta e Tougues,PCTP/MRPP,0.98,11,131634
União das freguesias de Retorta e Tougues,CH,0.54,6,131634
União das freguesias de Retorta e Tougues,IL,0.54,6,131634
União das freguesias de Retorta e Tougues,A,0.36,4,131634
União das freguesias de Retorta e Tougues,PURP,0.36,4,131634
União das freguesias de Retorta e Tougues,NC,0.27,3,131634
União das freguesias de Retorta e Tougues,PDR,0.18,2,131634
União das freguesias de Retorta e Tougues,PNR,0.18,2,131634
União das freguesias de Retorta e Tougues,PTP,0.18,2,131634
União das freguesias de Retorta e Tougues,JPP,0.09,1,131634
União das freguesias de Retorta e Tougues,MAS,0.09,1,131634
União das freguesias de Retorta e Tougues,MPT,0,0,131634
União das freguesias de Retorta e Tougues,PPM,0,0,131634
