freguesia,acronym,validVotesPercentage,votes,dicofre
"União das freguesias de Ponte de Sor, Tramaga e Vale de Açor",PS,47.04,2147,121308
"União das freguesias de Ponte de Sor, Tramaga e Vale de Açor",PPD/PSD,17.99,821,121308
"União das freguesias de Ponte de Sor, Tramaga e Vale de Açor",PCP-PEV,11.33,517,121308
"União das freguesias de Ponte de Sor, Tramaga e Vale de Açor",B.E.,10.69,488,121308
"União das freguesias de Ponte de Sor, Tramaga e Vale de Açor",CH,3.35,153,121308
"União das freguesias de Ponte de Sor, Tramaga e Vale de Açor",CDS-PP,3.18,145,121308
"União das freguesias de Ponte de Sor, Tramaga e Vale de Açor",PAN,1.91,87,121308
"União das freguesias de Ponte de Sor, Tramaga e Vale de Açor",PCTP/MRPP,1.51,69,121308
"União das freguesias de Ponte de Sor, Tramaga e Vale de Açor",IL,0.66,30,121308
"União das freguesias de Ponte de Sor, Tramaga e Vale de Açor",L,0.48,22,121308
"União das freguesias de Ponte de Sor, Tramaga e Vale de Açor",R.I.R.,0.37,17,121308
"União das freguesias de Ponte de Sor, Tramaga e Vale de Açor",A,0.33,15,121308
"União das freguesias de Ponte de Sor, Tramaga e Vale de Açor",PNR,0.33,15,121308
"União das freguesias de Ponte de Sor, Tramaga e Vale de Açor",PURP,0.24,11,121308
"União das freguesias de Ponte de Sor, Tramaga e Vale de Açor",MPT,0.22,10,121308
"União das freguesias de Ponte de Sor, Tramaga e Vale de Açor",PTP,0.22,10,121308
"União das freguesias de Ponte de Sor, Tramaga e Vale de Açor",PDR,0.15,7,121308
