freguesia,acronym,validVotesPercentage,votes,dicofre
União das freguesias de Tourais e Lajes,PPD/PSD,51.04,392,091235
União das freguesias de Tourais e Lajes,PS,32.16,247,091235
União das freguesias de Tourais e Lajes,B.E.,3.91,30,091235
União das freguesias de Tourais e Lajes,CDS-PP,3.13,24,091235
União das freguesias de Tourais e Lajes,PCP-PEV,2.08,16,091235
União das freguesias de Tourais e Lajes,CH,1.95,15,091235
União das freguesias de Tourais e Lajes,IL,1.82,14,091235
União das freguesias de Tourais e Lajes,PAN,1.17,9,091235
União das freguesias de Tourais e Lajes,L,0.78,6,091235
União das freguesias de Tourais e Lajes,MPT,0.52,4,091235
União das freguesias de Tourais e Lajes,PNR,0.39,3,091235
União das freguesias de Tourais e Lajes,R.I.R.,0.39,3,091235
União das freguesias de Tourais e Lajes,A,0.26,2,091235
União das freguesias de Tourais e Lajes,PDR,0.26,2,091235
União das freguesias de Tourais e Lajes,PCTP/MRPP,0.13,1,091235
União das freguesias de Tourais e Lajes,NC,0,0,091235
União das freguesias de Tourais e Lajes,PPM,0,0,091235
União das freguesias de Tourais e Lajes,PTP,0,0,091235
União das freguesias de Tourais e Lajes,PURP,0,0,091235
