freguesia,acronym,validVotesPercentage,votes,dicofre
União das freguesias de Moimenta da Serra e Vinhó,PS,47.55,252,090627
União das freguesias de Moimenta da Serra e Vinhó,PPD/PSD,25.47,135,090627
União das freguesias de Moimenta da Serra e Vinhó,B.E.,11.89,63,090627
União das freguesias de Moimenta da Serra e Vinhó,PCP-PEV,3.77,20,090627
União das freguesias de Moimenta da Serra e Vinhó,CDS-PP,2.45,13,090627
União das freguesias de Moimenta da Serra e Vinhó,PAN,2.26,12,090627
União das freguesias de Moimenta da Serra e Vinhó,CH,1.7,9,090627
União das freguesias de Moimenta da Serra e Vinhó,A,0.94,5,090627
União das freguesias de Moimenta da Serra e Vinhó,PCTP/MRPP,0.94,5,090627
União das freguesias de Moimenta da Serra e Vinhó,L,0.75,4,090627
União das freguesias de Moimenta da Serra e Vinhó,R.I.R.,0.57,3,090627
União das freguesias de Moimenta da Serra e Vinhó,IL,0.38,2,090627
União das freguesias de Moimenta da Serra e Vinhó,MPT,0.38,2,090627
União das freguesias de Moimenta da Serra e Vinhó,PPM,0.38,2,090627
União das freguesias de Moimenta da Serra e Vinhó,NC,0.19,1,090627
União das freguesias de Moimenta da Serra e Vinhó,PDR,0.19,1,090627
União das freguesias de Moimenta da Serra e Vinhó,PURP,0.19,1,090627
União das freguesias de Moimenta da Serra e Vinhó,PNR,0,0,090627
União das freguesias de Moimenta da Serra e Vinhó,PTP,0,0,090627
