freguesia,acronym,validVotesPercentage,votes,dicofre
União das freguesias de Cascais e Estoril,PPD/PSD,36.45,10516,110508
União das freguesias de Cascais e Estoril,PS,26.57,7665,110508
União das freguesias de Cascais e Estoril,CDS-PP,10.07,2906,110508
União das freguesias de Cascais e Estoril,B.E.,6.91,1995,110508
União das freguesias de Cascais e Estoril,IL,4.38,1265,110508
União das freguesias de Cascais e Estoril,PAN,4.27,1232,110508
União das freguesias de Cascais e Estoril,PCP-PEV,4.19,1208,110508
União das freguesias de Cascais e Estoril,L,1.83,528,110508
União das freguesias de Cascais e Estoril,A,1.77,510,110508
União das freguesias de Cascais e Estoril,CH,1.52,438,110508
União das freguesias de Cascais e Estoril,PCTP/MRPP,0.48,138,110508
União das freguesias de Cascais e Estoril,PNR,0.38,109,110508
União das freguesias de Cascais e Estoril,NC,0.25,73,110508
União das freguesias de Cascais e Estoril,MPT,0.24,68,110508
União das freguesias de Cascais e Estoril,R.I.R.,0.21,62,110508
União das freguesias de Cascais e Estoril,PPM,0.15,43,110508
União das freguesias de Cascais e Estoril,PURP,0.15,42,110508
União das freguesias de Cascais e Estoril,PDR,0.09,26,110508
União das freguesias de Cascais e Estoril,PTP,0.06,18,110508
União das freguesias de Cascais e Estoril,MAS,0.04,11,110508
