freguesia,acronym,validVotesPercentage,votes,dicofre
"União das freguesias da Póvoa de Varzim, Beiriz e Argivai",PPD/PSD,38.79,6338,131315
"União das freguesias da Póvoa de Varzim, Beiriz e Argivai",PS,31.55,5155,131315
"União das freguesias da Póvoa de Varzim, Beiriz e Argivai",B.E.,10.37,1694,131315
"União das freguesias da Póvoa de Varzim, Beiriz e Argivai",CDS-PP,5.31,867,131315
"União das freguesias da Póvoa de Varzim, Beiriz e Argivai",PCP-PEV,4.33,707,131315
"União das freguesias da Póvoa de Varzim, Beiriz e Argivai",PAN,3.3,539,131315
"União das freguesias da Póvoa de Varzim, Beiriz e Argivai",IL,1.58,258,131315
"União das freguesias da Póvoa de Varzim, Beiriz e Argivai",L,1.03,168,131315
"União das freguesias da Póvoa de Varzim, Beiriz e Argivai",CH,0.82,134,131315
"União das freguesias da Póvoa de Varzim, Beiriz e Argivai",A,0.55,90,131315
"União das freguesias da Póvoa de Varzim, Beiriz e Argivai",R.I.R.,0.46,75,131315
"União das freguesias da Póvoa de Varzim, Beiriz e Argivai",PCTP/MRPP,0.38,62,131315
"União das freguesias da Póvoa de Varzim, Beiriz e Argivai",MPT,0.28,45,131315
"União das freguesias da Póvoa de Varzim, Beiriz e Argivai",PNR,0.27,44,131315
"União das freguesias da Póvoa de Varzim, Beiriz e Argivai",NC,0.21,34,131315
"União das freguesias da Póvoa de Varzim, Beiriz e Argivai",PURP,0.2,33,131315
"União das freguesias da Póvoa de Varzim, Beiriz e Argivai",PDR,0.19,31,131315
"União das freguesias da Póvoa de Varzim, Beiriz e Argivai",PTP,0.17,28,131315
"União das freguesias da Póvoa de Varzim, Beiriz e Argivai",JPP,0.08,13,131315
"União das freguesias da Póvoa de Varzim, Beiriz e Argivai",PPM,0.09,14,131315
"União das freguesias da Póvoa de Varzim, Beiriz e Argivai",MAS,0.06,10,131315
