freguesia,acronym,validVotesPercentage,votes,dicofre
União das freguesias de Massamá e Monte Abraão,PS,40.22,8694,111125
União das freguesias de Massamá e Monte Abraão,PPD/PSD,20.37,4402,111125
União das freguesias de Massamá e Monte Abraão,B.E.,12.42,2685,111125
União das freguesias de Massamá e Monte Abraão,PCP-PEV,8.31,1797,111125
União das freguesias de Massamá e Monte Abraão,PAN,5.05,1092,111125
União das freguesias de Massamá e Monte Abraão,CDS-PP,3.34,721,111125
União das freguesias de Massamá e Monte Abraão,CH,2.33,504,111125
União das freguesias de Massamá e Monte Abraão,L,1.93,418,111125
União das freguesias de Massamá e Monte Abraão,IL,1.78,385,111125
União das freguesias de Massamá e Monte Abraão,A,1.29,278,111125
União das freguesias de Massamá e Monte Abraão,PCTP/MRPP,0.76,164,111125
União das freguesias de Massamá e Monte Abraão,PNR,0.54,116,111125
União das freguesias de Massamá e Monte Abraão,R.I.R.,0.44,95,111125
União das freguesias de Massamá e Monte Abraão,MPT,0.25,55,111125
União das freguesias de Massamá e Monte Abraão,NC,0.24,51,111125
União das freguesias de Massamá e Monte Abraão,PURP,0.21,46,111125
União das freguesias de Massamá e Monte Abraão,PPM,0.16,34,111125
União das freguesias de Massamá e Monte Abraão,MAS,0.15,32,111125
União das freguesias de Massamá e Monte Abraão,PDR,0.13,28,111125
União das freguesias de Massamá e Monte Abraão,PTP,0.08,18,111125
