freguesia,acronym,validVotesPercentage,votes,dicofre
União das freguesias de Malpartida e Vale de Coelha,PS,43.22,51,090235
União das freguesias de Malpartida e Vale de Coelha,PPD/PSD,33.05,39,090235
União das freguesias de Malpartida e Vale de Coelha,B.E.,9.32,11,090235
União das freguesias de Malpartida e Vale de Coelha,PCP-PEV,7.63,9,090235
União das freguesias de Malpartida e Vale de Coelha,CDS-PP,4.24,5,090235
União das freguesias de Malpartida e Vale de Coelha,A,0.85,1,090235
União das freguesias de Malpartida e Vale de Coelha,IL,0.85,1,090235
União das freguesias de Malpartida e Vale de Coelha,PAN,0.85,1,090235
União das freguesias de Malpartida e Vale de Coelha,CH,0,0,090235
União das freguesias de Malpartida e Vale de Coelha,L,0,0,090235
União das freguesias de Malpartida e Vale de Coelha,MPT,0,0,090235
União das freguesias de Malpartida e Vale de Coelha,NC,0,0,090235
União das freguesias de Malpartida e Vale de Coelha,PCTP/MRPP,0,0,090235
União das freguesias de Malpartida e Vale de Coelha,PDR,0,0,090235
União das freguesias de Malpartida e Vale de Coelha,PNR,0,0,090235
União das freguesias de Malpartida e Vale de Coelha,PPM,0,0,090235
União das freguesias de Malpartida e Vale de Coelha,PTP,0,0,090235
União das freguesias de Malpartida e Vale de Coelha,PURP,0,0,090235
União das freguesias de Malpartida e Vale de Coelha,R.I.R.,0,0,090235
