freguesia,acronym,validVotesPercentage,votes,dicofre
"União das freguesias de Areias, Sequeiró, Lama e Palmeira",PS,46.08,1629,131433
"União das freguesias de Areias, Sequeiró, Lama e Palmeira",PPD/PSD,32.73,1157,131433
"União das freguesias de Areias, Sequeiró, Lama e Palmeira",B.E.,8.26,292,131433
"União das freguesias de Areias, Sequeiró, Lama e Palmeira",CDS-PP,3.62,128,131433
"União das freguesias de Areias, Sequeiró, Lama e Palmeira",PCP-PEV,2.4,85,131433
"União das freguesias de Areias, Sequeiró, Lama e Palmeira",PAN,2.07,73,131433
"União das freguesias de Areias, Sequeiró, Lama e Palmeira",R.I.R.,0.79,28,131433
"União das freguesias de Areias, Sequeiró, Lama e Palmeira",CH,0.71,25,131433
"União das freguesias de Areias, Sequeiró, Lama e Palmeira",IL,0.71,25,131433
"União das freguesias de Areias, Sequeiró, Lama e Palmeira",L,0.45,16,131433
"União das freguesias de Areias, Sequeiró, Lama e Palmeira",PTP,0.4,14,131433
"União das freguesias de Areias, Sequeiró, Lama e Palmeira",A,0.37,13,131433
"União das freguesias de Areias, Sequeiró, Lama e Palmeira",PCTP/MRPP,0.34,12,131433
"União das freguesias de Areias, Sequeiró, Lama e Palmeira",PURP,0.23,8,131433
"União das freguesias de Areias, Sequeiró, Lama e Palmeira",PDR,0.2,7,131433
"União das freguesias de Areias, Sequeiró, Lama e Palmeira",PNR,0.17,6,131433
"União das freguesias de Areias, Sequeiró, Lama e Palmeira",NC,0.14,5,131433
"União das freguesias de Areias, Sequeiró, Lama e Palmeira",MPT,0.11,4,131433
"União das freguesias de Areias, Sequeiró, Lama e Palmeira",JPP,0.08,3,131433
"União das freguesias de Areias, Sequeiró, Lama e Palmeira",PPM,0.08,3,131433
"União das freguesias de Areias, Sequeiró, Lama e Palmeira",MAS,0.06,2,131433
