freguesia,acronym,validVotesPercentage,votes,dicofre
União de freguesias de Moreira do Rei e Várzea Cova,PS,47.55,476,030744
União de freguesias de Moreira do Rei e Várzea Cova,PPD/PSD,30.67,307,030744
União de freguesias de Moreira do Rei e Várzea Cova,B.E.,9.19,92,030744
União de freguesias de Moreira do Rei e Várzea Cova,CDS-PP,3.8,38,030744
União de freguesias de Moreira do Rei e Várzea Cova,PCP-PEV,3.1,31,030744
União de freguesias de Moreira do Rei e Várzea Cova,PAN,2.1,21,030744
União de freguesias de Moreira do Rei e Várzea Cova,R.I.R.,1.3,13,030744
União de freguesias de Moreira do Rei e Várzea Cova,CH,0.6,6,030744
União de freguesias de Moreira do Rei e Várzea Cova,A,0.4,4,030744
União de freguesias de Moreira do Rei e Várzea Cova,PCTP/MRPP,0.3,3,030744
União de freguesias de Moreira do Rei e Várzea Cova,IL,0.2,2,030744
União de freguesias de Moreira do Rei e Várzea Cova,MAS,0.2,2,030744
União de freguesias de Moreira do Rei e Várzea Cova,PTP,0.2,2,030744
União de freguesias de Moreira do Rei e Várzea Cova,L,0.1,1,030744
União de freguesias de Moreira do Rei e Várzea Cova,MPT,0.1,1,030744
União de freguesias de Moreira do Rei e Várzea Cova,NC,0.1,1,030744
União de freguesias de Moreira do Rei e Várzea Cova,PNR,0.1,1,030744
União de freguesias de Moreira do Rei e Várzea Cova,JPP,0,0,030744
União de freguesias de Moreira do Rei e Várzea Cova,PDR,0,0,030744
União de freguesias de Moreira do Rei e Várzea Cova,PPM,0,0,030744
União de freguesias de Moreira do Rei e Várzea Cova,PURP,0,0,030744
