freguesia,acronym,validVotesPercentage,votes,dicofre
União das freguesias de Santar e Moreira,PS,47.28,330,180911
União das freguesias de Santar e Moreira,PPD/PSD,29.8,208,180911
União das freguesias de Santar e Moreira,B.E.,7.31,51,180911
União das freguesias de Santar e Moreira,CDS-PP,6.45,45,180911
União das freguesias de Santar e Moreira,PAN,3.15,22,180911
União das freguesias de Santar e Moreira,CH,1.43,10,180911
União das freguesias de Santar e Moreira,PCP-PEV,1.29,9,180911
União das freguesias de Santar e Moreira,JPP,0.57,4,180911
União das freguesias de Santar e Moreira,A,0.43,3,180911
União das freguesias de Santar e Moreira,PCTP/MRPP,0.43,3,180911
União das freguesias de Santar e Moreira,IL,0.29,2,180911
União das freguesias de Santar e Moreira,L,0.29,2,180911
União das freguesias de Santar e Moreira,PDR,0.29,2,180911
União das freguesias de Santar e Moreira,PPM,0.29,2,180911
União das freguesias de Santar e Moreira,R.I.R.,0.29,2,180911
União das freguesias de Santar e Moreira,PNR,0.14,1,180911
União das freguesias de Santar e Moreira,PTP,0.14,1,180911
União das freguesias de Santar e Moreira,PURP,0.14,1,180911
União das freguesias de Santar e Moreira,MPT,0,0,180911
União das freguesias de Santar e Moreira,NC,0,0,180911
