freguesia,acronym,validVotesPercentage,votes,dicofre
União das freguesias de Adoufe e Vilarinho de Samardã,PS,38.26,513,171431
União das freguesias de Adoufe e Vilarinho de Samardã,PPD/PSD,37.21,499,171431
União das freguesias de Adoufe e Vilarinho de Samardã,B.E.,7.31,98,171431
União das freguesias de Adoufe e Vilarinho de Samardã,CDS-PP,5.52,74,171431
União das freguesias de Adoufe e Vilarinho de Samardã,PCP-PEV,2.68,36,171431
União das freguesias de Adoufe e Vilarinho de Samardã,PAN,2.54,34,171431
União das freguesias de Adoufe e Vilarinho de Samardã,A,1.27,17,171431
União das freguesias de Adoufe e Vilarinho de Samardã,L,1.27,17,171431
União das freguesias de Adoufe e Vilarinho de Samardã,CH,1.19,16,171431
União das freguesias de Adoufe e Vilarinho de Samardã,R.I.R.,1.04,14,171431
União das freguesias de Adoufe e Vilarinho de Samardã,IL,0.6,8,171431
União das freguesias de Adoufe e Vilarinho de Samardã,PCTP/MRPP,0.52,7,171431
União das freguesias de Adoufe e Vilarinho de Samardã,NC,0.22,3,171431
União das freguesias de Adoufe e Vilarinho de Samardã,PPM,0.22,3,171431
União das freguesias de Adoufe e Vilarinho de Samardã,PDR,0.15,2,171431
União das freguesias de Adoufe e Vilarinho de Samardã,PNR,0,0,171431
