freguesia,acronym,validVotesPercentage,votes,dicofre
União das freguesias de Ermelo e Pardelhas,PS,38.06,94,170510
União das freguesias de Ermelo e Pardelhas,PPD/PSD,36.84,91,170510
União das freguesias de Ermelo e Pardelhas,CDS-PP,15.38,38,170510
União das freguesias de Ermelo e Pardelhas,B.E.,4.45,11,170510
União das freguesias de Ermelo e Pardelhas,PDR,1.21,3,170510
União das freguesias de Ermelo e Pardelhas,PAN,0.81,2,170510
União das freguesias de Ermelo e Pardelhas,PCP-PEV,0.81,2,170510
União das freguesias de Ermelo e Pardelhas,A,0.4,1,170510
União das freguesias de Ermelo e Pardelhas,IL,0.4,1,170510
União das freguesias de Ermelo e Pardelhas,L,0.4,1,170510
União das freguesias de Ermelo e Pardelhas,NC,0.4,1,170510
União das freguesias de Ermelo e Pardelhas,PPM,0.4,1,170510
União das freguesias de Ermelo e Pardelhas,R.I.R.,0.4,1,170510
União das freguesias de Ermelo e Pardelhas,CH,0,0,170510
União das freguesias de Ermelo e Pardelhas,PCTP/MRPP,0,0,170510
União das freguesias de Ermelo e Pardelhas,PNR,0,0,170510
