freguesia,acronym,validVotesPercentage,votes,dicofre
União das freguesias de Arentim e Cunha,PS,45.32,407,030363
União das freguesias de Arentim e Cunha,PPD/PSD,28.17,253,030363
União das freguesias de Arentim e Cunha,B.E.,7.24,65,030363
União das freguesias de Arentim e Cunha,CDS-PP,6.01,54,030363
União das freguesias de Arentim e Cunha,PCP-PEV,4.01,36,030363
União das freguesias de Arentim e Cunha,PAN,2.34,21,030363
União das freguesias de Arentim e Cunha,R.I.R.,1.45,13,030363
União das freguesias de Arentim e Cunha,L,1.11,10,030363
União das freguesias de Arentim e Cunha,CH,1,9,030363
União das freguesias de Arentim e Cunha,IL,0.67,6,030363
União das freguesias de Arentim e Cunha,PCTP/MRPP,0.56,5,030363
União das freguesias de Arentim e Cunha,A,0.45,4,030363
União das freguesias de Arentim e Cunha,NC,0.33,3,030363
União das freguesias de Arentim e Cunha,PTP,0.33,3,030363
União das freguesias de Arentim e Cunha,MPT,0.22,2,030363
União das freguesias de Arentim e Cunha,PNR,0.22,2,030363
União das freguesias de Arentim e Cunha,PURP,0.22,2,030363
União das freguesias de Arentim e Cunha,JPP,0.11,1,030363
União das freguesias de Arentim e Cunha,MAS,0.11,1,030363
União das freguesias de Arentim e Cunha,PDR,0.11,1,030363
União das freguesias de Arentim e Cunha,PPM,0,0,030363
