freguesia,acronym,validVotesPercentage,votes,dicofre
União de freguesias da cidade de Santarém,PS,35.87,4839,141633
União de freguesias da cidade de Santarém,PPD/PSD,27.95,3771,141633
União de freguesias da cidade de Santarém,B.E.,11.25,1518,141633
União de freguesias da cidade de Santarém,PCP-PEV,6.53,881,141633
União de freguesias da cidade de Santarém,CDS-PP,5.46,737,141633
União de freguesias da cidade de Santarém,CH,3.66,494,141633
União de freguesias da cidade de Santarém,PAN,3.11,419,141633
União de freguesias da cidade de Santarém,A,1.26,170,141633
União de freguesias da cidade de Santarém,IL,1.21,163,141633
União de freguesias da cidade de Santarém,L,1.05,142,141633
União de freguesias da cidade de Santarém,PNR,0.56,76,141633
União de freguesias da cidade de Santarém,PCTP/MRPP,0.44,59,141633
União de freguesias da cidade de Santarém,R.I.R.,0.41,55,141633
União de freguesias da cidade de Santarém,NC,0.36,49,141633
União de freguesias da cidade de Santarém,PDR,0.26,35,141633
União de freguesias da cidade de Santarém,PURP,0.21,28,141633
União de freguesias da cidade de Santarém,PPM,0.17,23,141633
União de freguesias da cidade de Santarém,MPT,0.16,21,141633
União de freguesias da cidade de Santarém,PTP,0.08,11,141633
