freguesia,acronym,validVotesPercentage,votes,dicofre
"União das freguesias de Eucisia, Gouveia e Valverde",PS,45.41,89,040122
"União das freguesias de Eucisia, Gouveia e Valverde",PPD/PSD,38.78,76,040122
"União das freguesias de Eucisia, Gouveia e Valverde",B.E.,4.59,9,040122
"União das freguesias de Eucisia, Gouveia e Valverde",R.I.R.,2.55,5,040122
"União das freguesias de Eucisia, Gouveia e Valverde",CDS-PP,2.04,4,040122
"União das freguesias de Eucisia, Gouveia e Valverde",PCP-PEV,2.04,4,040122
"União das freguesias de Eucisia, Gouveia e Valverde",PCTP/MRPP,1.53,3,040122
"União das freguesias de Eucisia, Gouveia e Valverde",NC,1.02,2,040122
"União das freguesias de Eucisia, Gouveia e Valverde",A,0.51,1,040122
"União das freguesias de Eucisia, Gouveia e Valverde",IL,0.51,1,040122
"União das freguesias de Eucisia, Gouveia e Valverde",PAN,0.51,1,040122
"União das freguesias de Eucisia, Gouveia e Valverde",PURP,0.51,1,040122
"União das freguesias de Eucisia, Gouveia e Valverde",CH,0,0,040122
"União das freguesias de Eucisia, Gouveia e Valverde",L,0,0,040122
"União das freguesias de Eucisia, Gouveia e Valverde",PDR,0,0,040122
"União das freguesias de Eucisia, Gouveia e Valverde",PNR,0,0,040122
"União das freguesias de Eucisia, Gouveia e Valverde",PPM,0,0,040122
"União das freguesias de Eucisia, Gouveia e Valverde",PTP,0,0,040122
