freguesia,acronym,validVotesPercentage,votes,dicofre
União das freguesias de Moimenta e Montouto,PS,59.79,58,041237
União das freguesias de Moimenta e Montouto,PPD/PSD,31.96,31,041237
União das freguesias de Moimenta e Montouto,CDS-PP,3.09,3,041237
União das freguesias de Moimenta e Montouto,B.E.,2.06,2,041237
União das freguesias de Moimenta e Montouto,PCTP/MRPP,2.06,2,041237
União das freguesias de Moimenta e Montouto,PCP-PEV,1.03,1,041237
União das freguesias de Moimenta e Montouto,A,0,0,041237
União das freguesias de Moimenta e Montouto,CH,0,0,041237
União das freguesias de Moimenta e Montouto,IL,0,0,041237
União das freguesias de Moimenta e Montouto,L,0,0,041237
União das freguesias de Moimenta e Montouto,NC,0,0,041237
União das freguesias de Moimenta e Montouto,PAN,0,0,041237
União das freguesias de Moimenta e Montouto,PDR,0,0,041237
União das freguesias de Moimenta e Montouto,PNR,0,0,041237
União das freguesias de Moimenta e Montouto,PPM,0,0,041237
União das freguesias de Moimenta e Montouto,PTP,0,0,041237
União das freguesias de Moimenta e Montouto,PURP,0,0,041237
União das freguesias de Moimenta e Montouto,R.I.R.,0,0,041237
