freguesia,acronym,validVotesPercentage,votes,dicofre
"União das freguesias de Izeda, Calvelhe e Paradinha Nova",PS,44.78,176,040252
"União das freguesias de Izeda, Calvelhe e Paradinha Nova",PPD/PSD,37.4,147,040252
"União das freguesias de Izeda, Calvelhe e Paradinha Nova",B.E.,6.87,27,040252
"União das freguesias de Izeda, Calvelhe e Paradinha Nova",CDS-PP,4.07,16,040252
"União das freguesias de Izeda, Calvelhe e Paradinha Nova",CH,2.04,8,040252
"União das freguesias de Izeda, Calvelhe e Paradinha Nova",PCP-PEV,1.53,6,040252
"União das freguesias de Izeda, Calvelhe e Paradinha Nova",PDR,1.02,4,040252
"União das freguesias de Izeda, Calvelhe e Paradinha Nova",PTP,0.76,3,040252
"União das freguesias de Izeda, Calvelhe e Paradinha Nova",PAN,0.51,2,040252
"União das freguesias de Izeda, Calvelhe e Paradinha Nova",L,0.25,1,040252
"União das freguesias de Izeda, Calvelhe e Paradinha Nova",NC,0.25,1,040252
"União das freguesias de Izeda, Calvelhe e Paradinha Nova",PPM,0.25,1,040252
"União das freguesias de Izeda, Calvelhe e Paradinha Nova",PURP,0.25,1,040252
"União das freguesias de Izeda, Calvelhe e Paradinha Nova",A,0,0,040252
"União das freguesias de Izeda, Calvelhe e Paradinha Nova",IL,0,0,040252
"União das freguesias de Izeda, Calvelhe e Paradinha Nova",PCTP/MRPP,0,0,040252
"União das freguesias de Izeda, Calvelhe e Paradinha Nova",PNR,0,0,040252
"União das freguesias de Izeda, Calvelhe e Paradinha Nova",R.I.R.,0,0,040252
