freguesia,acronym,validVotesPercentage,votes,dicofre
União das freguesias de Venda Nova e Pondras,PS,49.76,105,170641
União das freguesias de Venda Nova e Pondras,PPD/PSD,39.34,83,170641
União das freguesias de Venda Nova e Pondras,B.E.,2.84,6,170641
União das freguesias de Venda Nova e Pondras,CDS-PP,2.37,5,170641
União das freguesias de Venda Nova e Pondras,R.I.R.,1.9,4,170641
União das freguesias de Venda Nova e Pondras,A,0.95,2,170641
União das freguesias de Venda Nova e Pondras,CH,0.95,2,170641
União das freguesias de Venda Nova e Pondras,PCTP/MRPP,0.95,2,170641
União das freguesias de Venda Nova e Pondras,PAN,0.47,1,170641
União das freguesias de Venda Nova e Pondras,PPM,0.47,1,170641
União das freguesias de Venda Nova e Pondras,IL,0,0,170641
União das freguesias de Venda Nova e Pondras,L,0,0,170641
União das freguesias de Venda Nova e Pondras,NC,0,0,170641
União das freguesias de Venda Nova e Pondras,PCP-PEV,0,0,170641
União das freguesias de Venda Nova e Pondras,PDR,0,0,170641
União das freguesias de Venda Nova e Pondras,PNR,0,0,170641
