freguesia,acronym,validVotesPercentage,votes,dicofre
União das freguesias de Apúlia e Fão,PPD/PSD,44.09,1641,030616
União das freguesias de Apúlia e Fão,PS,28.32,1054,030616
União das freguesias de Apúlia e Fão,CDS-PP,8.7,324,030616
União das freguesias de Apúlia e Fão,B.E.,7.28,271,030616
União das freguesias de Apúlia e Fão,PAN,2.96,110,030616
União das freguesias de Apúlia e Fão,PCP-PEV,2.77,103,030616
União das freguesias de Apúlia e Fão,IL,0.91,34,030616
União das freguesias de Apúlia e Fão,L,0.83,31,030616
União das freguesias de Apúlia e Fão,R.I.R.,0.83,31,030616
União das freguesias de Apúlia e Fão,CH,0.81,30,030616
União das freguesias de Apúlia e Fão,PCTP/MRPP,0.67,25,030616
União das freguesias de Apúlia e Fão,A,0.46,17,030616
União das freguesias de Apúlia e Fão,NC,0.4,15,030616
União das freguesias de Apúlia e Fão,MPT,0.3,11,030616
União das freguesias de Apúlia e Fão,PNR,0.3,11,030616
União das freguesias de Apúlia e Fão,JPP,0.19,7,030616
União das freguesias de Apúlia e Fão,PTP,0.08,3,030616
União das freguesias de Apúlia e Fão,PDR,0.05,2,030616
União das freguesias de Apúlia e Fão,PPM,0.03,1,030616
União das freguesias de Apúlia e Fão,PURP,0.03,1,030616
União das freguesias de Apúlia e Fão,MAS,0,0,030616
