freguesia,acronym,validVotesPercentage,votes,dicofre
União das freguesias de Tornada e Salir do Porto,PS,38.3,709,100619
União das freguesias de Tornada e Salir do Porto,PPD/PSD,26.47,490,100619
União das freguesias de Tornada e Salir do Porto,B.E.,14.91,276,100619
União das freguesias de Tornada e Salir do Porto,PCP-PEV,4.92,91,100619
União das freguesias de Tornada e Salir do Porto,CDS-PP,3.78,70,100619
União das freguesias de Tornada e Salir do Porto,PAN,3.35,62,100619
União das freguesias de Tornada e Salir do Porto,L,1.46,27,100619
União das freguesias de Tornada e Salir do Porto,CH,1.4,26,100619
União das freguesias de Tornada e Salir do Porto,A,1.19,22,100619
União das freguesias de Tornada e Salir do Porto,IL,1.03,19,100619
União das freguesias de Tornada e Salir do Porto,R.I.R.,0.97,18,100619
União das freguesias de Tornada e Salir do Porto,PCTP/MRPP,0.54,10,100619
União das freguesias de Tornada e Salir do Porto,NC,0.38,7,100619
União das freguesias de Tornada e Salir do Porto,PPM,0.27,5,100619
União das freguesias de Tornada e Salir do Porto,PDR,0.22,4,100619
União das freguesias de Tornada e Salir do Porto,PNR,0.22,4,100619
União das freguesias de Tornada e Salir do Porto,PURP,0.22,4,100619
União das freguesias de Tornada e Salir do Porto,MPT,0.16,3,100619
União das freguesias de Tornada e Salir do Porto,JPP,0.11,2,100619
União das freguesias de Tornada e Salir do Porto,PTP,0.11,2,100619
União das freguesias de Tornada e Salir do Porto,MAS,0,0,100619
