freguesia,acronym,validVotesPercentage,votes,dicofre
União das freguesias de Parada do Bispo e Valdigem,PS,53.29,235,180528
União das freguesias de Parada do Bispo e Valdigem,PPD/PSD,27.66,122,180528
União das freguesias de Parada do Bispo e Valdigem,CDS-PP,6.12,27,180528
União das freguesias de Parada do Bispo e Valdigem,B.E.,4.08,18,180528
União das freguesias de Parada do Bispo e Valdigem,PCP-PEV,2.72,12,180528
União das freguesias de Parada do Bispo e Valdigem,CH,2.04,9,180528
União das freguesias de Parada do Bispo e Valdigem,PAN,1.13,5,180528
União das freguesias de Parada do Bispo e Valdigem,IL,0.91,4,180528
União das freguesias de Parada do Bispo e Valdigem,A,0.45,2,180528
União das freguesias de Parada do Bispo e Valdigem,L,0.45,2,180528
União das freguesias de Parada do Bispo e Valdigem,PCTP/MRPP,0.45,2,180528
União das freguesias de Parada do Bispo e Valdigem,PPM,0.23,1,180528
União das freguesias de Parada do Bispo e Valdigem,PTP,0.23,1,180528
União das freguesias de Parada do Bispo e Valdigem,R.I.R.,0.23,1,180528
União das freguesias de Parada do Bispo e Valdigem,JPP,0,0,180528
União das freguesias de Parada do Bispo e Valdigem,MPT,0,0,180528
União das freguesias de Parada do Bispo e Valdigem,NC,0,0,180528
União das freguesias de Parada do Bispo e Valdigem,PDR,0,0,180528
União das freguesias de Parada do Bispo e Valdigem,PNR,0,0,180528
União das freguesias de Parada do Bispo e Valdigem,PURP,0,0,180528
