freguesia,acronym,validVotesPercentage,votes,dicofre
União das freguesias de Assares e Lodões,PS,48.65,54,041020
União das freguesias de Assares e Lodões,PPD/PSD,26.13,29,041020
União das freguesias de Assares e Lodões,B.E.,7.21,8,041020
União das freguesias de Assares e Lodões,PCP-PEV,4.5,5,041020
União das freguesias de Assares e Lodões,PCTP/MRPP,4.5,5,041020
União das freguesias de Assares e Lodões,R.I.R.,4.5,5,041020
União das freguesias de Assares e Lodões,CDS-PP,1.8,2,041020
União das freguesias de Assares e Lodões,CH,0.9,1,041020
União das freguesias de Assares e Lodões,L,0.9,1,041020
União das freguesias de Assares e Lodões,PAN,0.9,1,041020
União das freguesias de Assares e Lodões,A,0,0,041020
União das freguesias de Assares e Lodões,IL,0,0,041020
União das freguesias de Assares e Lodões,NC,0,0,041020
União das freguesias de Assares e Lodões,PDR,0,0,041020
União das freguesias de Assares e Lodões,PNR,0,0,041020
União das freguesias de Assares e Lodões,PPM,0,0,041020
União das freguesias de Assares e Lodões,PTP,0,0,041020
União das freguesias de Assares e Lodões,PURP,0,0,041020
