freguesia,acronym,validVotesPercentage,votes,dicofre
União das freguesias de Carregado e Cadafais,PS,39.67,1963,110120
União das freguesias de Carregado e Cadafais,PPD/PSD,16.86,834,110120
União das freguesias de Carregado e Cadafais,B.E.,12.89,638,110120
União das freguesias de Carregado e Cadafais,PCP-PEV,11.12,550,110120
União das freguesias de Carregado e Cadafais,PAN,4.2,208,110120
União das freguesias de Carregado e Cadafais,CDS-PP,3.84,190,110120
União das freguesias de Carregado e Cadafais,CH,2.53,125,110120
União das freguesias de Carregado e Cadafais,PCTP/MRPP,1.5,74,110120
União das freguesias de Carregado e Cadafais,IL,1.21,60,110120
União das freguesias de Carregado e Cadafais,L,1.17,58,110120
União das freguesias de Carregado e Cadafais,PDR,1.13,56,110120
União das freguesias de Carregado e Cadafais,A,1.07,53,110120
União das freguesias de Carregado e Cadafais,R.I.R.,0.63,31,110120
União das freguesias de Carregado e Cadafais,PNR,0.59,29,110120
União das freguesias de Carregado e Cadafais,MPT,0.38,19,110120
União das freguesias de Carregado e Cadafais,NC,0.38,19,110120
União das freguesias de Carregado e Cadafais,PPM,0.28,14,110120
União das freguesias de Carregado e Cadafais,MAS,0.2,10,110120
União das freguesias de Carregado e Cadafais,PTP,0.18,9,110120
União das freguesias de Carregado e Cadafais,PURP,0.16,8,110120
