freguesia,acronym,validVotesPercentage,votes,dicofre
União das freguesias de Alcácer do Sal (Santa Maria do Castelo e Santiago) e Santa Susana,PS,44.48,1604,150107
União das freguesias de Alcácer do Sal (Santa Maria do Castelo e Santiago) e Santa Susana,PCP-PEV,24.21,873,150107
União das freguesias de Alcácer do Sal (Santa Maria do Castelo e Santiago) e Santa Susana,PPD/PSD,11.06,399,150107
União das freguesias de Alcácer do Sal (Santa Maria do Castelo e Santiago) e Santa Susana,B.E.,10.21,368,150107
União das freguesias de Alcácer do Sal (Santa Maria do Castelo e Santiago) e Santa Susana,CDS-PP,2.88,104,150107
União das freguesias de Alcácer do Sal (Santa Maria do Castelo e Santiago) e Santa Susana,PAN,1.58,57,150107
União das freguesias de Alcácer do Sal (Santa Maria do Castelo e Santiago) e Santa Susana,PCTP/MRPP,1.41,51,150107
União das freguesias de Alcácer do Sal (Santa Maria do Castelo e Santiago) e Santa Susana,CH,0.92,33,150107
União das freguesias de Alcácer do Sal (Santa Maria do Castelo e Santiago) e Santa Susana,L,0.58,21,150107
União das freguesias de Alcácer do Sal (Santa Maria do Castelo e Santiago) e Santa Susana,IL,0.5,18,150107
União das freguesias de Alcácer do Sal (Santa Maria do Castelo e Santiago) e Santa Susana,R.I.R.,0.47,17,150107
União das freguesias de Alcácer do Sal (Santa Maria do Castelo e Santiago) e Santa Susana,A,0.31,11,150107
União das freguesias de Alcácer do Sal (Santa Maria do Castelo e Santiago) e Santa Susana,PDR,0.31,11,150107
União das freguesias de Alcácer do Sal (Santa Maria do Castelo e Santiago) e Santa Susana,PNR,0.22,8,150107
União das freguesias de Alcácer do Sal (Santa Maria do Castelo e Santiago) e Santa Susana,PURP,0.19,7,150107
União das freguesias de Alcácer do Sal (Santa Maria do Castelo e Santiago) e Santa Susana,MAS,0.17,6,150107
União das freguesias de Alcácer do Sal (Santa Maria do Castelo e Santiago) e Santa Susana,PPM,0.17,6,150107
União das freguesias de Alcácer do Sal (Santa Maria do Castelo e Santiago) e Santa Susana,MPT,0.14,5,150107
União das freguesias de Alcácer do Sal (Santa Maria do Castelo e Santiago) e Santa Susana,NC,0.14,5,150107
União das freguesias de Alcácer do Sal (Santa Maria do Castelo e Santiago) e Santa Susana,PTP,0.06,2,150107
