freguesia,acronym,validVotesPercentage,votes,dicofre
União das freguesias de Barreiro e Lavradio,PS,41.23,4483,150410
União das freguesias de Barreiro e Lavradio,PCP-PEV,22.27,2421,150410
União das freguesias de Barreiro e Lavradio,B.E.,13.02,1415,150410
União das freguesias de Barreiro e Lavradio,PPD/PSD,10.89,1184,150410
União das freguesias de Barreiro e Lavradio,PAN,3.84,417,150410
União das freguesias de Barreiro e Lavradio,CH,1.81,197,150410
União das freguesias de Barreiro e Lavradio,CDS-PP,1.69,184,150410
União das freguesias de Barreiro e Lavradio,L,1.17,127,150410
União das freguesias de Barreiro e Lavradio,IL,0.89,97,150410
União das freguesias de Barreiro e Lavradio,PCTP/MRPP,0.87,95,150410
União das freguesias de Barreiro e Lavradio,PNR,0.53,58,150410
União das freguesias de Barreiro e Lavradio,A,0.51,55,150410
União das freguesias de Barreiro e Lavradio,R.I.R.,0.33,36,150410
União das freguesias de Barreiro e Lavradio,PURP,0.22,24,150410
União das freguesias de Barreiro e Lavradio,NC,0.2,22,150410
União das freguesias de Barreiro e Lavradio,MPT,0.16,17,150410
União das freguesias de Barreiro e Lavradio,PPM,0.14,15,150410
União das freguesias de Barreiro e Lavradio,PDR,0.09,10,150410
União das freguesias de Barreiro e Lavradio,MAS,0.07,8,150410
União das freguesias de Barreiro e Lavradio,PTP,0.06,7,150410
