freguesia,acronym,validVotesPercentage,votes,dicofre
"União das freguesias de Mangualde, Mesquitela e Cunha Alta",PS,46.1,2040,180619
"União das freguesias de Mangualde, Mesquitela e Cunha Alta",PPD/PSD,30.4,1345,180619
"União das freguesias de Mangualde, Mesquitela e Cunha Alta",B.E.,8,354,180619
"União das freguesias de Mangualde, Mesquitela e Cunha Alta",CDS-PP,3.55,157,180619
"União das freguesias de Mangualde, Mesquitela e Cunha Alta",PCP-PEV,3.34,148,180619
"União das freguesias de Mangualde, Mesquitela e Cunha Alta",PAN,2.6,115,180619
"União das freguesias de Mangualde, Mesquitela e Cunha Alta",CH,1.38,61,180619
"União das freguesias de Mangualde, Mesquitela e Cunha Alta",A,1.11,49,180619
"União das freguesias de Mangualde, Mesquitela e Cunha Alta",L,0.72,32,180619
"União das freguesias de Mangualde, Mesquitela e Cunha Alta",IL,0.63,28,180619
"União das freguesias de Mangualde, Mesquitela e Cunha Alta",PCTP/MRPP,0.56,25,180619
"União das freguesias de Mangualde, Mesquitela e Cunha Alta",R.I.R.,0.47,21,180619
"União das freguesias de Mangualde, Mesquitela e Cunha Alta",MPT,0.23,10,180619
"União das freguesias de Mangualde, Mesquitela e Cunha Alta",PDR,0.23,10,180619
"União das freguesias de Mangualde, Mesquitela e Cunha Alta",PNR,0.18,8,180619
"União das freguesias de Mangualde, Mesquitela e Cunha Alta",PURP,0.18,8,180619
"União das freguesias de Mangualde, Mesquitela e Cunha Alta",PPM,0.16,7,180619
"União das freguesias de Mangualde, Mesquitela e Cunha Alta",NC,0.09,4,180619
"União das freguesias de Mangualde, Mesquitela e Cunha Alta",JPP,0.05,2,180619
"União das freguesias de Mangualde, Mesquitela e Cunha Alta",PTP,0.02,1,180619
