freguesia,acronym,validVotesPercentage,votes,dicofre
"União das freguesias de Azinhal, Peva e Valverde",PPD/PSD,55.91,71,090231
"União das freguesias de Azinhal, Peva e Valverde",PS,29.92,38,090231
"União das freguesias de Azinhal, Peva e Valverde",CDS-PP,5.51,7,090231
"União das freguesias de Azinhal, Peva e Valverde",B.E.,3.94,5,090231
"União das freguesias de Azinhal, Peva e Valverde",A,0.79,1,090231
"União das freguesias de Azinhal, Peva e Valverde",CH,0.79,1,090231
"União das freguesias de Azinhal, Peva e Valverde",MPT,0.79,1,090231
"União das freguesias de Azinhal, Peva e Valverde",NC,0.79,1,090231
"União das freguesias de Azinhal, Peva e Valverde",PCP-PEV,0.79,1,090231
"União das freguesias de Azinhal, Peva e Valverde",PCTP/MRPP,0.79,1,090231
"União das freguesias de Azinhal, Peva e Valverde",IL,0,0,090231
"União das freguesias de Azinhal, Peva e Valverde",L,0,0,090231
"União das freguesias de Azinhal, Peva e Valverde",PAN,0,0,090231
"União das freguesias de Azinhal, Peva e Valverde",PDR,0,0,090231
"União das freguesias de Azinhal, Peva e Valverde",PNR,0,0,090231
"União das freguesias de Azinhal, Peva e Valverde",PPM,0,0,090231
"União das freguesias de Azinhal, Peva e Valverde",PTP,0,0,090231
"União das freguesias de Azinhal, Peva e Valverde",PURP,0,0,090231
"União das freguesias de Azinhal, Peva e Valverde",R.I.R.,0,0,090231
