freguesia,acronym,validVotesPercentage,votes,dicofre
União das freguesias de São Julião de Palácios e Deilão,PPD/PSD,63.69,114,040256
União das freguesias de São Julião de Palácios e Deilão,PS,24.02,43,040256
União das freguesias de São Julião de Palácios e Deilão,CDS-PP,4.47,8,040256
União das freguesias de São Julião de Palácios e Deilão,B.E.,2.79,5,040256
União das freguesias de São Julião de Palácios e Deilão,CH,1.12,2,040256
União das freguesias de São Julião de Palácios e Deilão,L,1.12,2,040256
União das freguesias de São Julião de Palácios e Deilão,PCP-PEV,1.12,2,040256
União das freguesias de São Julião de Palácios e Deilão,A,0.56,1,040256
União das freguesias de São Julião de Palácios e Deilão,PDR,0.56,1,040256
União das freguesias de São Julião de Palácios e Deilão,PURP,0.56,1,040256
União das freguesias de São Julião de Palácios e Deilão,IL,0,0,040256
União das freguesias de São Julião de Palácios e Deilão,NC,0,0,040256
União das freguesias de São Julião de Palácios e Deilão,PAN,0,0,040256
União das freguesias de São Julião de Palácios e Deilão,PCTP/MRPP,0,0,040256
União das freguesias de São Julião de Palácios e Deilão,PNR,0,0,040256
União das freguesias de São Julião de Palácios e Deilão,PPM,0,0,040256
União das freguesias de São Julião de Palácios e Deilão,PTP,0,0,040256
União das freguesias de São Julião de Palácios e Deilão,R.I.R.,0,0,040256
