freguesia,acronym,validVotesPercentage,votes,dicofre
União das freguesias do Cadaval e Pêro Moniz,PS,39.26,576,110411
União das freguesias do Cadaval e Pêro Moniz,PPD/PSD,32.45,476,110411
União das freguesias do Cadaval e Pêro Moniz,B.E.,8.93,131,110411
União das freguesias do Cadaval e Pêro Moniz,PCP-PEV,4.91,72,110411
União das freguesias do Cadaval e Pêro Moniz,CDS-PP,3.48,51,110411
União das freguesias do Cadaval e Pêro Moniz,CH,2.25,33,110411
União das freguesias do Cadaval e Pêro Moniz,PAN,2.25,33,110411
União das freguesias do Cadaval e Pêro Moniz,L,1.43,21,110411
União das freguesias do Cadaval e Pêro Moniz,PCTP/MRPP,1.02,15,110411
União das freguesias do Cadaval e Pêro Moniz,PDR,0.75,11,110411
União das freguesias do Cadaval e Pêro Moniz,IL,0.68,10,110411
União das freguesias do Cadaval e Pêro Moniz,R.I.R.,0.68,10,110411
União das freguesias do Cadaval e Pêro Moniz,A,0.61,9,110411
União das freguesias do Cadaval e Pêro Moniz,MPT,0.27,4,110411
União das freguesias do Cadaval e Pêro Moniz,PPM,0.27,4,110411
União das freguesias do Cadaval e Pêro Moniz,PURP,0.27,4,110411
União das freguesias do Cadaval e Pêro Moniz,MAS,0.2,3,110411
União das freguesias do Cadaval e Pêro Moniz,PNR,0.14,2,110411
União das freguesias do Cadaval e Pêro Moniz,NC,0.07,1,110411
União das freguesias do Cadaval e Pêro Moniz,PTP,0.07,1,110411
