freguesia,acronym,validVotesPercentage,votes,dicofre
União das freguesias de Beja (Salvador e Santa Maria da Feira),PS,34.04,1442,020520
União das freguesias de Beja (Salvador e Santa Maria da Feira),PCP-PEV,21.13,895,020520
União das freguesias de Beja (Salvador e Santa Maria da Feira),PPD/PSD,18.84,798,020520
União das freguesias de Beja (Salvador e Santa Maria da Feira),B.E.,12.44,527,020520
União das freguesias de Beja (Salvador e Santa Maria da Feira),CH,3.28,139,020520
União das freguesias de Beja (Salvador e Santa Maria da Feira),CDS-PP,2.93,124,020520
União das freguesias de Beja (Salvador e Santa Maria da Feira),PAN,2.62,111,020520
União das freguesias de Beja (Salvador e Santa Maria da Feira),L,1.35,57,020520
União das freguesias de Beja (Salvador e Santa Maria da Feira),IL,0.94,40,020520
União das freguesias de Beja (Salvador e Santa Maria da Feira),PCTP/MRPP,0.78,33,020520
União das freguesias de Beja (Salvador e Santa Maria da Feira),A,0.54,23,020520
União das freguesias de Beja (Salvador e Santa Maria da Feira),NC,0.33,14,020520
União das freguesias de Beja (Salvador e Santa Maria da Feira),PNR,0.28,12,020520
União das freguesias de Beja (Salvador e Santa Maria da Feira),MPT,0.17,7,020520
União das freguesias de Beja (Salvador e Santa Maria da Feira),PPM,0.17,7,020520
União das freguesias de Beja (Salvador e Santa Maria da Feira),PTP,0.09,4,020520
União das freguesias de Beja (Salvador e Santa Maria da Feira),PDR,0.07,3,020520
