freguesia,acronym,validVotesPercentage,votes,dicofre
União das freguesias de São Sebastião da Giesteira e Nossa Senhora da Boa Fé,PS,40.13,187,070527
União das freguesias de São Sebastião da Giesteira e Nossa Senhora da Boa Fé,PCP-PEV,24.46,114,070527
União das freguesias de São Sebastião da Giesteira e Nossa Senhora da Boa Fé,PPD/PSD,13.52,63,070527
União das freguesias de São Sebastião da Giesteira e Nossa Senhora da Boa Fé,B.E.,11.16,52,070527
União das freguesias de São Sebastião da Giesteira e Nossa Senhora da Boa Fé,CDS-PP,3.43,16,070527
União das freguesias de São Sebastião da Giesteira e Nossa Senhora da Boa Fé,PAN,2.15,10,070527
União das freguesias de São Sebastião da Giesteira e Nossa Senhora da Boa Fé,CH,1.29,6,070527
União das freguesias de São Sebastião da Giesteira e Nossa Senhora da Boa Fé,A,1.07,5,070527
União das freguesias de São Sebastião da Giesteira e Nossa Senhora da Boa Fé,PCTP/MRPP,1.07,5,070527
União das freguesias de São Sebastião da Giesteira e Nossa Senhora da Boa Fé,IL,0.43,2,070527
União das freguesias de São Sebastião da Giesteira e Nossa Senhora da Boa Fé,PPM,0.43,2,070527
União das freguesias de São Sebastião da Giesteira e Nossa Senhora da Boa Fé,L,0.21,1,070527
União das freguesias de São Sebastião da Giesteira e Nossa Senhora da Boa Fé,MPT,0.21,1,070527
União das freguesias de São Sebastião da Giesteira e Nossa Senhora da Boa Fé,PNR,0.21,1,070527
União das freguesias de São Sebastião da Giesteira e Nossa Senhora da Boa Fé,PTP,0.21,1,070527
União das freguesias de São Sebastião da Giesteira e Nossa Senhora da Boa Fé,NC,0,0,070527
União das freguesias de São Sebastião da Giesteira e Nossa Senhora da Boa Fé,PDR,0,0,070527
União das freguesias de São Sebastião da Giesteira e Nossa Senhora da Boa Fé,PURP,0,0,070527
União das freguesias de São Sebastião da Giesteira e Nossa Senhora da Boa Fé,R.I.R.,0,0,070527
