freguesia,acronym,validVotesPercentage,votes,dicofre
União das freguesias de Mouraz e Vila Nova da Rainha,PPD/PSD,37.67,252,182129
União das freguesias de Mouraz e Vila Nova da Rainha,PS,33.63,225,182129
União das freguesias de Mouraz e Vila Nova da Rainha,B.E.,10.76,72,182129
União das freguesias de Mouraz e Vila Nova da Rainha,CDS-PP,6.13,41,182129
União das freguesias de Mouraz e Vila Nova da Rainha,PCP-PEV,2.84,19,182129
União das freguesias de Mouraz e Vila Nova da Rainha,PAN,2.54,17,182129
União das freguesias de Mouraz e Vila Nova da Rainha,PCTP/MRPP,1.35,9,182129
União das freguesias de Mouraz e Vila Nova da Rainha,A,1.2,8,182129
União das freguesias de Mouraz e Vila Nova da Rainha,IL,0.75,5,182129
União das freguesias de Mouraz e Vila Nova da Rainha,PURP,0.75,5,182129
União das freguesias de Mouraz e Vila Nova da Rainha,R.I.R.,0.75,5,182129
União das freguesias de Mouraz e Vila Nova da Rainha,CH,0.6,4,182129
União das freguesias de Mouraz e Vila Nova da Rainha,MPT,0.3,2,182129
União das freguesias de Mouraz e Vila Nova da Rainha,PDR,0.3,2,182129
União das freguesias de Mouraz e Vila Nova da Rainha,L,0.15,1,182129
União das freguesias de Mouraz e Vila Nova da Rainha,PPM,0.15,1,182129
União das freguesias de Mouraz e Vila Nova da Rainha,PTP,0.15,1,182129
União das freguesias de Mouraz e Vila Nova da Rainha,JPP,0,0,182129
União das freguesias de Mouraz e Vila Nova da Rainha,NC,0,0,182129
União das freguesias de Mouraz e Vila Nova da Rainha,PNR,0,0,182129
