freguesia,acronym,validVotesPercentage,votes,dicofre
"União das freguesias de Almada, Cova da Piedade, Pragal e Cacilhas",PS,38.92,9672,150312
"União das freguesias de Almada, Cova da Piedade, Pragal e Cacilhas",PCP-PEV,17,4224,150312
"União das freguesias de Almada, Cova da Piedade, Pragal e Cacilhas",PPD/PSD,15.65,3890,150312
"União das freguesias de Almada, Cova da Piedade, Pragal e Cacilhas",B.E.,13.23,3287,150312
"União das freguesias de Almada, Cova da Piedade, Pragal e Cacilhas",PAN,4.87,1209,150312
"União das freguesias de Almada, Cova da Piedade, Pragal e Cacilhas",CDS-PP,2.84,706,150312
"União das freguesias de Almada, Cova da Piedade, Pragal e Cacilhas",L,1.84,457,150312
"União das freguesias de Almada, Cova da Piedade, Pragal e Cacilhas",IL,1.31,326,150312
"União das freguesias de Almada, Cova da Piedade, Pragal e Cacilhas",CH,1.23,305,150312
"União das freguesias de Almada, Cova da Piedade, Pragal e Cacilhas",A,0.76,190,150312
"União das freguesias de Almada, Cova da Piedade, Pragal e Cacilhas",PCTP/MRPP,0.64,158,150312
"União das freguesias de Almada, Cova da Piedade, Pragal e Cacilhas",R.I.R.,0.37,92,150312
"União das freguesias de Almada, Cova da Piedade, Pragal e Cacilhas",PNR,0.29,72,150312
"União das freguesias de Almada, Cova da Piedade, Pragal e Cacilhas",PURP,0.25,63,150312
"União das freguesias de Almada, Cova da Piedade, Pragal e Cacilhas",MPT,0.22,55,150312
"União das freguesias de Almada, Cova da Piedade, Pragal e Cacilhas",NC,0.16,41,150312
"União das freguesias de Almada, Cova da Piedade, Pragal e Cacilhas",PPM,0.17,42,150312
"União das freguesias de Almada, Cova da Piedade, Pragal e Cacilhas",PDR,0.1,26,150312
"União das freguesias de Almada, Cova da Piedade, Pragal e Cacilhas",MAS,0.07,17,150312
"União das freguesias de Almada, Cova da Piedade, Pragal e Cacilhas",PTP,0.07,18,150312
