freguesia,acronym,validVotesPercentage,votes,dicofre
União das freguesias de Colmeias e Memória,PPD/PSD,54.04,969,100932
União das freguesias de Colmeias e Memória,PS,25.54,458,100932
União das freguesias de Colmeias e Memória,CDS-PP,6.08,109,100932
União das freguesias de Colmeias e Memória,B.E.,5.19,93,100932
União das freguesias de Colmeias e Memória,PAN,2.62,47,100932
União das freguesias de Colmeias e Memória,IL,1.06,19,100932
União das freguesias de Colmeias e Memória,PCP-PEV,0.89,16,100932
União das freguesias de Colmeias e Memória,L,0.78,14,100932
União das freguesias de Colmeias e Memória,A,0.67,12,100932
União das freguesias de Colmeias e Memória,CH,0.56,10,100932
União das freguesias de Colmeias e Memória,R.I.R.,0.45,8,100932
União das freguesias de Colmeias e Memória,MPT,0.39,7,100932
União das freguesias de Colmeias e Memória,PCTP/MRPP,0.39,7,100932
União das freguesias de Colmeias e Memória,PPM,0.39,7,100932
União das freguesias de Colmeias e Memória,PDR,0.33,6,100932
União das freguesias de Colmeias e Memória,NC,0.22,4,100932
União das freguesias de Colmeias e Memória,PNR,0.22,4,100932
União das freguesias de Colmeias e Memória,MAS,0.06,1,100932
União das freguesias de Colmeias e Memória,PTP,0.06,1,100932
União das freguesias de Colmeias e Memória,PURP,0.06,1,100932
União das freguesias de Colmeias e Memória,JPP,0,0,100932
