freguesia,acronym,validVotesPercentage,votes,dicofre
União das freguesias de Lamelas e Guimarei,PS,44.52,382,131436
União das freguesias de Lamelas e Guimarei,PPD/PSD,30.54,262,131436
União das freguesias de Lamelas e Guimarei,B.E.,10.84,93,131436
União das freguesias de Lamelas e Guimarei,CDS-PP,3.26,28,131436
União das freguesias de Lamelas e Guimarei,PAN,3.26,28,131436
União das freguesias de Lamelas e Guimarei,R.I.R.,2.1,18,131436
União das freguesias de Lamelas e Guimarei,PCP-PEV,1.75,15,131436
União das freguesias de Lamelas e Guimarei,L,0.82,7,131436
União das freguesias de Lamelas e Guimarei,IL,0.7,6,131436
União das freguesias de Lamelas e Guimarei,A,0.35,3,131436
União das freguesias de Lamelas e Guimarei,CH,0.35,3,131436
União das freguesias de Lamelas e Guimarei,MPT,0.35,3,131436
União das freguesias de Lamelas e Guimarei,PCTP/MRPP,0.35,3,131436
União das freguesias de Lamelas e Guimarei,PNR,0.23,2,131436
União das freguesias de Lamelas e Guimarei,PURP,0.23,2,131436
União das freguesias de Lamelas e Guimarei,NC,0.12,1,131436
União das freguesias de Lamelas e Guimarei,PDR,0.12,1,131436
União das freguesias de Lamelas e Guimarei,PPM,0.12,1,131436
União das freguesias de Lamelas e Guimarei,JPP,0,0,131436
União das freguesias de Lamelas e Guimarei,MAS,0,0,131436
União das freguesias de Lamelas e Guimarei,PTP,0,0,131436
