freguesia,acronym,validVotesPercentage,votes,dicofre
União das freguesias de Santo Antão e São Julião do Tojal,PS,42,1645,110729
União das freguesias de Santo Antão e São Julião do Tojal,PCP-PEV,18.02,706,110729
União das freguesias de Santo Antão e São Julião do Tojal,PPD/PSD,15.42,604,110729
União das freguesias de Santo Antão e São Julião do Tojal,B.E.,8.07,316,110729
União das freguesias de Santo Antão e São Julião do Tojal,PAN,3.91,153,110729
União das freguesias de Santo Antão e São Julião do Tojal,CH,3.09,121,110729
União das freguesias de Santo Antão e São Julião do Tojal,CDS-PP,2.35,92,110729
União das freguesias de Santo Antão e São Julião do Tojal,PCTP/MRPP,1.48,58,110729
União das freguesias de Santo Antão e São Julião do Tojal,IL,1.43,56,110729
União das freguesias de Santo Antão e São Julião do Tojal,L,1.1,43,110729
União das freguesias de Santo Antão e São Julião do Tojal,R.I.R.,0.69,27,110729
União das freguesias de Santo Antão e São Julião do Tojal,PNR,0.64,25,110729
União das freguesias de Santo Antão e São Julião do Tojal,A,0.61,24,110729
União das freguesias de Santo Antão e São Julião do Tojal,PPM,0.33,13,110729
União das freguesias de Santo Antão e São Julião do Tojal,PURP,0.23,9,110729
União das freguesias de Santo Antão e São Julião do Tojal,MPT,0.2,8,110729
União das freguesias de Santo Antão e São Julião do Tojal,NC,0.13,5,110729
União das freguesias de Santo Antão e São Julião do Tojal,PDR,0.13,5,110729
União das freguesias de Santo Antão e São Julião do Tojal,MAS,0.1,4,110729
União das freguesias de Santo Antão e São Julião do Tojal,PTP,0.08,3,110729
