freguesia,acronym,validVotesPercentage,votes,dicofre
"União das freguesias de Tamengos, Aguim e Óis do Bairro",PPD/PSD,39.88,593,010318
"União das freguesias de Tamengos, Aguim e Óis do Bairro",PS,37.26,554,010318
"União das freguesias de Tamengos, Aguim e Óis do Bairro",B.E.,7.8,116,010318
"União das freguesias de Tamengos, Aguim e Óis do Bairro",CDS-PP,4.17,62,010318
"União das freguesias de Tamengos, Aguim e Óis do Bairro",PAN,2.69,40,010318
"União das freguesias de Tamengos, Aguim e Óis do Bairro",PCP-PEV,2.22,33,010318
"União das freguesias de Tamengos, Aguim e Óis do Bairro",IL,1.48,22,010318
"União das freguesias de Tamengos, Aguim e Óis do Bairro",R.I.R.,0.94,14,010318
"União das freguesias de Tamengos, Aguim e Óis do Bairro",CH,0.74,11,010318
"União das freguesias de Tamengos, Aguim e Óis do Bairro",L,0.67,10,010318
"União das freguesias de Tamengos, Aguim e Óis do Bairro",A,0.61,9,010318
"União das freguesias de Tamengos, Aguim e Óis do Bairro",PCTP/MRPP,0.4,6,010318
"União das freguesias de Tamengos, Aguim e Óis do Bairro",NC,0.27,4,010318
"União das freguesias de Tamengos, Aguim e Óis do Bairro",PDR,0.27,4,010318
"União das freguesias de Tamengos, Aguim e Óis do Bairro",PPM,0.2,3,010318
"União das freguesias de Tamengos, Aguim e Óis do Bairro",MPT,0.13,2,010318
"União das freguesias de Tamengos, Aguim e Óis do Bairro",PTP,0.13,2,010318
"União das freguesias de Tamengos, Aguim e Óis do Bairro",PNR,0.07,1,010318
"União das freguesias de Tamengos, Aguim e Óis do Bairro",PURP,0.07,1,010318
"União das freguesias de Tamengos, Aguim e Óis do Bairro",JPP,0,0,010318
