freguesia,acronym,validVotesPercentage,votes,dicofre
"União das freguesias de Subportela, Deocriste e Portela Susã",PPD/PSD,39.82,493,160946
"União das freguesias de Subportela, Deocriste e Portela Susã",PS,35.3,437,160946
"União das freguesias de Subportela, Deocriste e Portela Susã",B.E.,8.16,101,160946
"União das freguesias de Subportela, Deocriste e Portela Susã",CDS-PP,5.17,64,160946
"União das freguesias de Subportela, Deocriste e Portela Susã",PAN,2.58,32,160946
"União das freguesias de Subportela, Deocriste e Portela Susã",PCP-PEV,2.42,30,160946
"União das freguesias de Subportela, Deocriste e Portela Susã",CH,0.89,11,160946
"União das freguesias de Subportela, Deocriste e Portela Susã",JPP,0.81,10,160946
"União das freguesias de Subportela, Deocriste e Portela Susã",R.I.R.,0.73,9,160946
"União das freguesias de Subportela, Deocriste e Portela Susã",IL,0.65,8,160946
"União das freguesias de Subportela, Deocriste e Portela Susã",A,0.57,7,160946
"União das freguesias de Subportela, Deocriste e Portela Susã",L,0.57,7,160946
"União das freguesias de Subportela, Deocriste e Portela Susã",PCTP/MRPP,0.57,7,160946
"União das freguesias de Subportela, Deocriste e Portela Susã",MPT,0.4,5,160946
"União das freguesias de Subportela, Deocriste e Portela Susã",PPM,0.4,5,160946
"União das freguesias de Subportela, Deocriste e Portela Susã",PDR,0.32,4,160946
"União das freguesias de Subportela, Deocriste e Portela Susã",NC,0.24,3,160946
"União das freguesias de Subportela, Deocriste e Portela Susã",PNR,0.16,2,160946
"União das freguesias de Subportela, Deocriste e Portela Susã",PURP,0.16,2,160946
"União das freguesias de Subportela, Deocriste e Portela Susã",PTP,0.08,1,160946
