freguesia,acronym,validVotesPercentage,votes,dicofre
União das freguesias de Monsanto e Idanha-a-Velha,PS,55.11,178,050520
União das freguesias de Monsanto e Idanha-a-Velha,PPD/PSD,19.2,62,050520
União das freguesias de Monsanto e Idanha-a-Velha,B.E.,8.05,26,050520
União das freguesias de Monsanto e Idanha-a-Velha,CDS-PP,3.72,12,050520
União das freguesias de Monsanto e Idanha-a-Velha,PCP-PEV,3.72,12,050520
União das freguesias de Monsanto e Idanha-a-Velha,R.I.R.,3.1,10,050520
União das freguesias de Monsanto e Idanha-a-Velha,CH,1.86,6,050520
União das freguesias de Monsanto e Idanha-a-Velha,PAN,1.86,6,050520
União das freguesias de Monsanto e Idanha-a-Velha,PCTP/MRPP,1.24,4,050520
União das freguesias de Monsanto e Idanha-a-Velha,A,0.62,2,050520
União das freguesias de Monsanto e Idanha-a-Velha,PURP,0.62,2,050520
União das freguesias de Monsanto e Idanha-a-Velha,L,0.31,1,050520
União das freguesias de Monsanto e Idanha-a-Velha,MPT,0.31,1,050520
União das freguesias de Monsanto e Idanha-a-Velha,PNR,0.31,1,050520
União das freguesias de Monsanto e Idanha-a-Velha,IL,0,0,050520
União das freguesias de Monsanto e Idanha-a-Velha,PDR,0,0,050520
União das freguesias de Monsanto e Idanha-a-Velha,PPM,0,0,050520
União das freguesias de Monsanto e Idanha-a-Velha,PTP,0,0,050520
