freguesia,acronym,validVotesPercentage,votes,dicofre
União das freguesias do Bombarral e Vale Covo,PS,38.09,1155,100506
União das freguesias do Bombarral e Vale Covo,PPD/PSD,25.13,762,100506
União das freguesias do Bombarral e Vale Covo,B.E.,11.44,347,100506
União das freguesias do Bombarral e Vale Covo,PCP-PEV,8.01,243,100506
União das freguesias do Bombarral e Vale Covo,CDS-PP,5.97,181,100506
União das freguesias do Bombarral e Vale Covo,PAN,3.4,103,100506
União das freguesias do Bombarral e Vale Covo,CH,1.72,52,100506
União das freguesias do Bombarral e Vale Covo,L,1.29,39,100506
União das freguesias do Bombarral e Vale Covo,A,0.96,29,100506
União das freguesias do Bombarral e Vale Covo,PCTP/MRPP,0.86,26,100506
União das freguesias do Bombarral e Vale Covo,R.I.R.,0.79,24,100506
União das freguesias do Bombarral e Vale Covo,IL,0.66,20,100506
União das freguesias do Bombarral e Vale Covo,PNR,0.33,10,100506
União das freguesias do Bombarral e Vale Covo,PPM,0.3,9,100506
União das freguesias do Bombarral e Vale Covo,PDR,0.26,8,100506
União das freguesias do Bombarral e Vale Covo,MPT,0.2,6,100506
União das freguesias do Bombarral e Vale Covo,NC,0.2,6,100506
União das freguesias do Bombarral e Vale Covo,PURP,0.2,6,100506
União das freguesias do Bombarral e Vale Covo,MAS,0.1,3,100506
União das freguesias do Bombarral e Vale Covo,PTP,0.07,2,100506
União das freguesias do Bombarral e Vale Covo,JPP,0.03,1,100506
