freguesia,acronym,validVotesPercentage,votes,dicofre
União das freguesias de Santa Cruz/Trindade e Sanjurge,PPD/PSD,39.49,588,170358
União das freguesias de Santa Cruz/Trindade e Sanjurge,PS,37.07,552,170358
União das freguesias de Santa Cruz/Trindade e Sanjurge,B.E.,8.19,122,170358
União das freguesias de Santa Cruz/Trindade e Sanjurge,CDS-PP,3.29,49,170358
União das freguesias de Santa Cruz/Trindade e Sanjurge,PCP-PEV,3.16,47,170358
União das freguesias de Santa Cruz/Trindade e Sanjurge,PAN,2.62,39,170358
União das freguesias de Santa Cruz/Trindade e Sanjurge,CH,1.81,27,170358
União das freguesias de Santa Cruz/Trindade e Sanjurge,A,0.81,12,170358
União das freguesias de Santa Cruz/Trindade e Sanjurge,R.I.R.,0.81,12,170358
União das freguesias de Santa Cruz/Trindade e Sanjurge,L,0.74,11,170358
União das freguesias de Santa Cruz/Trindade e Sanjurge,PCTP/MRPP,0.67,10,170358
União das freguesias de Santa Cruz/Trindade e Sanjurge,IL,0.54,8,170358
União das freguesias de Santa Cruz/Trindade e Sanjurge,PDR,0.34,5,170358
União das freguesias de Santa Cruz/Trindade e Sanjurge,NC,0.27,4,170358
União das freguesias de Santa Cruz/Trindade e Sanjurge,PNR,0.2,3,170358
União das freguesias de Santa Cruz/Trindade e Sanjurge,PPM,0,0,170358
