freguesia,acronym,validVotesPercentage,votes,dicofre
"União das freguesias de Leiria, Pousos, Barreira e Cortes",PPD/PSD,34.7,5662,100933
"União das freguesias de Leiria, Pousos, Barreira e Cortes",PS,31.89,5203,100933
"União das freguesias de Leiria, Pousos, Barreira e Cortes",B.E.,11.62,1896,100933
"União das freguesias de Leiria, Pousos, Barreira e Cortes",CDS-PP,5.93,967,100933
"União das freguesias de Leiria, Pousos, Barreira e Cortes",PCP-PEV,3.78,617,100933
"União das freguesias de Leiria, Pousos, Barreira e Cortes",PAN,3.75,611,100933
"União das freguesias de Leiria, Pousos, Barreira e Cortes",IL,1.53,250,100933
"União das freguesias de Leiria, Pousos, Barreira e Cortes",CH,1.48,242,100933
"União das freguesias de Leiria, Pousos, Barreira e Cortes",A,1.46,238,100933
"União das freguesias de Leiria, Pousos, Barreira e Cortes",L,1.2,195,100933
"União das freguesias de Leiria, Pousos, Barreira e Cortes",PCTP/MRPP,0.51,83,100933
"União das freguesias de Leiria, Pousos, Barreira e Cortes",R.I.R.,0.44,72,100933
"União das freguesias de Leiria, Pousos, Barreira e Cortes",MPT,0.35,57,100933
"União das freguesias de Leiria, Pousos, Barreira e Cortes",NC,0.28,46,100933
"União das freguesias de Leiria, Pousos, Barreira e Cortes",PNR,0.23,38,100933
"União das freguesias de Leiria, Pousos, Barreira e Cortes",PURP,0.2,32,100933
"União das freguesias de Leiria, Pousos, Barreira e Cortes",PPM,0.18,30,100933
"União das freguesias de Leiria, Pousos, Barreira e Cortes",PTP,0.17,28,100933
"União das freguesias de Leiria, Pousos, Barreira e Cortes",PDR,0.15,25,100933
"União das freguesias de Leiria, Pousos, Barreira e Cortes",JPP,0.08,13,100933
"União das freguesias de Leiria, Pousos, Barreira e Cortes",MAS,0.06,10,100933
