freguesia,acronym,validVotesPercentage,votes,dicofre
"União das freguesias de Santa Iria de Azoia, São João da Talha e Bobadela",PS,42.65,9605,110728
"União das freguesias de Santa Iria de Azoia, São João da Talha e Bobadela",PPD/PSD,16.05,3615,110728
"União das freguesias de Santa Iria de Azoia, São João da Talha e Bobadela",PCP-PEV,15.04,3387,110728
"União das freguesias de Santa Iria de Azoia, São João da Talha e Bobadela",B.E.,10.31,2323,110728
"União das freguesias de Santa Iria de Azoia, São João da Talha e Bobadela",PAN,4.33,976,110728
"União das freguesias de Santa Iria de Azoia, São João da Talha e Bobadela",CH,2.66,599,110728
"União das freguesias de Santa Iria de Azoia, São João da Talha e Bobadela",CDS-PP,2.26,508,110728
"União das freguesias de Santa Iria de Azoia, São João da Talha e Bobadela",IL,1.35,303,110728
"União das freguesias de Santa Iria de Azoia, São João da Talha e Bobadela",PCTP/MRPP,1.21,273,110728
"União das freguesias de Santa Iria de Azoia, São João da Talha e Bobadela",L,1.12,252,110728
"União das freguesias de Santa Iria de Azoia, São João da Talha e Bobadela",A,0.77,174,110728
"União das freguesias de Santa Iria de Azoia, São João da Talha e Bobadela",PNR,0.48,107,110728
"União das freguesias de Santa Iria de Azoia, São João da Talha e Bobadela",R.I.R.,0.46,104,110728
"União das freguesias de Santa Iria de Azoia, São João da Talha e Bobadela",PDR,0.29,66,110728
"União das freguesias de Santa Iria de Azoia, São João da Talha e Bobadela",MPT,0.28,63,110728
"União das freguesias de Santa Iria de Azoia, São João da Talha e Bobadela",NC,0.23,52,110728
"União das freguesias de Santa Iria de Azoia, São João da Talha e Bobadela",PURP,0.18,40,110728
"União das freguesias de Santa Iria de Azoia, São João da Talha e Bobadela",PPM,0.16,37,110728
"União das freguesias de Santa Iria de Azoia, São João da Talha e Bobadela",MAS,0.09,20,110728
"União das freguesias de Santa Iria de Azoia, São João da Talha e Bobadela",PTP,0.08,19,110728
