freguesia,acronym,validVotesPercentage,votes,dicofre
União das freguesias de Carvalhais e Candal,PS,43.2,292,181620
União das freguesias de Carvalhais e Candal,PPD/PSD,32.84,222,181620
União das freguesias de Carvalhais e Candal,B.E.,10.21,69,181620
União das freguesias de Carvalhais e Candal,CDS-PP,4.59,31,181620
União das freguesias de Carvalhais e Candal,PAN,1.78,12,181620
União das freguesias de Carvalhais e Candal,PCP-PEV,1.33,9,181620
União das freguesias de Carvalhais e Candal,R.I.R.,1.33,9,181620
União das freguesias de Carvalhais e Candal,CH,1.18,8,181620
União das freguesias de Carvalhais e Candal,PCTP/MRPP,0.89,6,181620
União das freguesias de Carvalhais e Candal,A,0.44,3,181620
União das freguesias de Carvalhais e Candal,IL,0.44,3,181620
União das freguesias de Carvalhais e Candal,PDR,0.44,3,181620
União das freguesias de Carvalhais e Candal,L,0.3,2,181620
União das freguesias de Carvalhais e Candal,MPT,0.3,2,181620
União das freguesias de Carvalhais e Candal,NC,0.3,2,181620
União das freguesias de Carvalhais e Candal,PPM,0.3,2,181620
União das freguesias de Carvalhais e Candal,PNR,0.15,1,181620
União das freguesias de Carvalhais e Candal,JPP,0,0,181620
União das freguesias de Carvalhais e Candal,PTP,0,0,181620
União das freguesias de Carvalhais e Candal,PURP,0,0,181620
