freguesia,acronym,validVotesPercentage,votes,dicofre
União das freguesias de São João das Lampas e Terrugem,PS,38.96,2981,111127
União das freguesias de São João das Lampas e Terrugem,PPD/PSD,25.64,1962,111127
União das freguesias de São João das Lampas e Terrugem,B.E.,9.34,715,111127
União das freguesias de São João das Lampas e Terrugem,PCP-PEV,5.85,448,111127
União das freguesias de São João das Lampas e Terrugem,PAN,5.5,421,111127
União das freguesias de São João das Lampas e Terrugem,CDS-PP,4.21,322,111127
União das freguesias de São João das Lampas e Terrugem,CH,2.14,164,111127
União das freguesias de São João das Lampas e Terrugem,L,1.58,121,111127
União das freguesias de São João das Lampas e Terrugem,IL,1.54,118,111127
União das freguesias de São João das Lampas e Terrugem,PCTP/MRPP,1.05,80,111127
União das freguesias de São João das Lampas e Terrugem,A,0.98,75,111127
União das freguesias de São João das Lampas e Terrugem,R.I.R.,0.77,59,111127
União das freguesias de São João das Lampas e Terrugem,PNR,0.65,50,111127
União das freguesias de São João das Lampas e Terrugem,MPT,0.44,34,111127
União das freguesias de São João das Lampas e Terrugem,NC,0.31,24,111127
União das freguesias de São João das Lampas e Terrugem,PDR,0.26,20,111127
União das freguesias de São João das Lampas e Terrugem,PURP,0.26,20,111127
União das freguesias de São João das Lampas e Terrugem,PPM,0.21,16,111127
União das freguesias de São João das Lampas e Terrugem,MAS,0.2,15,111127
União das freguesias de São João das Lampas e Terrugem,PTP,0.09,7,111127
