freguesia,acronym,validVotesPercentage,votes,dicofre
União das freguesias de Vale Formoso e Aldeia do Souto,PS,54.27,159,050338
União das freguesias de Vale Formoso e Aldeia do Souto,PPD/PSD,12.29,36,050338
União das freguesias de Vale Formoso e Aldeia do Souto,B.E.,10.58,31,050338
União das freguesias de Vale Formoso e Aldeia do Souto,CDS-PP,7.51,22,050338
União das freguesias de Vale Formoso e Aldeia do Souto,PCP-PEV,3.75,11,050338
União das freguesias de Vale Formoso e Aldeia do Souto,PAN,3.07,9,050338
União das freguesias de Vale Formoso e Aldeia do Souto,PCTP/MRPP,2.39,7,050338
União das freguesias de Vale Formoso e Aldeia do Souto,PURP,2.05,6,050338
União das freguesias de Vale Formoso e Aldeia do Souto,CH,1.02,3,050338
União das freguesias de Vale Formoso e Aldeia do Souto,PNR,1.02,3,050338
União das freguesias de Vale Formoso e Aldeia do Souto,R.I.R.,1.02,3,050338
União das freguesias de Vale Formoso e Aldeia do Souto,L,0.68,2,050338
União das freguesias de Vale Formoso e Aldeia do Souto,PDR,0.34,1,050338
União das freguesias de Vale Formoso e Aldeia do Souto,A,0,0,050338
União das freguesias de Vale Formoso e Aldeia do Souto,IL,0,0,050338
União das freguesias de Vale Formoso e Aldeia do Souto,MPT,0,0,050338
União das freguesias de Vale Formoso e Aldeia do Souto,PPM,0,0,050338
União das freguesias de Vale Formoso e Aldeia do Souto,PTP,0,0,050338
