freguesia,acronym,validVotesPercentage,votes,dicofre
"União das freguesias de Chorente, Góios, Courel, Pedra Furada e Gueral",PPD/PSD,55.65,783,030296
"União das freguesias de Chorente, Góios, Courel, Pedra Furada e Gueral",PS,24.73,348,030296
"União das freguesias de Chorente, Góios, Courel, Pedra Furada e Gueral",CDS-PP,8.17,115,030296
"União das freguesias de Chorente, Góios, Courel, Pedra Furada e Gueral",B.E.,5.33,75,030296
"União das freguesias de Chorente, Góios, Courel, Pedra Furada e Gueral",PAN,1.28,18,030296
"União das freguesias de Chorente, Góios, Courel, Pedra Furada e Gueral",PCP-PEV,1.07,15,030296
"União das freguesias de Chorente, Góios, Courel, Pedra Furada e Gueral",R.I.R.,0.85,12,030296
"União das freguesias de Chorente, Góios, Courel, Pedra Furada e Gueral",CH,0.57,8,030296
"União das freguesias de Chorente, Góios, Courel, Pedra Furada e Gueral",IL,0.5,7,030296
"União das freguesias de Chorente, Góios, Courel, Pedra Furada e Gueral",A,0.36,5,030296
"União das freguesias de Chorente, Góios, Courel, Pedra Furada e Gueral",L,0.36,5,030296
"União das freguesias de Chorente, Góios, Courel, Pedra Furada e Gueral",MPT,0.36,5,030296
"União das freguesias de Chorente, Góios, Courel, Pedra Furada e Gueral",PDR,0.21,3,030296
"União das freguesias de Chorente, Góios, Courel, Pedra Furada e Gueral",NC,0.14,2,030296
"União das freguesias de Chorente, Góios, Courel, Pedra Furada e Gueral",PCTP/MRPP,0.14,2,030296
"União das freguesias de Chorente, Góios, Courel, Pedra Furada e Gueral",JPP,0.07,1,030296
"União das freguesias de Chorente, Góios, Courel, Pedra Furada e Gueral",MAS,0.07,1,030296
"União das freguesias de Chorente, Góios, Courel, Pedra Furada e Gueral",PTP,0.07,1,030296
"União das freguesias de Chorente, Góios, Courel, Pedra Furada e Gueral",PURP,0.07,1,030296
"União das freguesias de Chorente, Góios, Courel, Pedra Furada e Gueral",PNR,0,0,030296
"União das freguesias de Chorente, Góios, Courel, Pedra Furada e Gueral",PPM,0,0,030296
