freguesia,acronym,validVotesPercentage,votes,dicofre
União das freguesias de Moncarapacho e Fuseta,PS,39.14,1362,081006
União das freguesias de Moncarapacho e Fuseta,PPD/PSD,23.53,819,081006
União das freguesias de Moncarapacho e Fuseta,B.E.,12.82,446,081006
União das freguesias de Moncarapacho e Fuseta,PCP-PEV,7.1,247,081006
União das freguesias de Moncarapacho e Fuseta,CDS-PP,4.74,165,081006
União das freguesias de Moncarapacho e Fuseta,PAN,4.48,156,081006
União das freguesias de Moncarapacho e Fuseta,CH,1.47,51,081006
União das freguesias de Moncarapacho e Fuseta,PCTP/MRPP,1.35,47,081006
União das freguesias de Moncarapacho e Fuseta,R.I.R.,0.78,27,081006
União das freguesias de Moncarapacho e Fuseta,L,0.63,22,081006
União das freguesias de Moncarapacho e Fuseta,MPT,0.55,19,081006
União das freguesias de Moncarapacho e Fuseta,PURP,0.52,18,081006
União das freguesias de Moncarapacho e Fuseta,A,0.49,17,081006
União das freguesias de Moncarapacho e Fuseta,PTP,0.46,16,081006
União das freguesias de Moncarapacho e Fuseta,PNR,0.43,15,081006
União das freguesias de Moncarapacho e Fuseta,IL,0.4,14,081006
União das freguesias de Moncarapacho e Fuseta,PPM,0.4,14,081006
União das freguesias de Moncarapacho e Fuseta,PDR,0.37,13,081006
União das freguesias de Moncarapacho e Fuseta,NC,0.34,12,081006
