freguesia,acronym,validVotesPercentage,votes,dicofre
União das freguesias de Vilar de Besteiros e Mosteiro de Fráguas,PPD/PSD,42.14,311,182133
União das freguesias de Vilar de Besteiros e Mosteiro de Fráguas,PS,29.4,217,182133
União das freguesias de Vilar de Besteiros e Mosteiro de Fráguas,CDS-PP,8.67,64,182133
União das freguesias de Vilar de Besteiros e Mosteiro de Fráguas,B.E.,7.99,59,182133
União das freguesias de Vilar de Besteiros e Mosteiro de Fráguas,PAN,2.98,22,182133
União das freguesias de Vilar de Besteiros e Mosteiro de Fráguas,PCP-PEV,2.98,22,182133
União das freguesias de Vilar de Besteiros e Mosteiro de Fráguas,CH,1.49,11,182133
União das freguesias de Vilar de Besteiros e Mosteiro de Fráguas,PPM,0.68,5,182133
União das freguesias de Vilar de Besteiros e Mosteiro de Fráguas,A,0.54,4,182133
União das freguesias de Vilar de Besteiros e Mosteiro de Fráguas,PCTP/MRPP,0.54,4,182133
União das freguesias de Vilar de Besteiros e Mosteiro de Fráguas,PDR,0.54,4,182133
União das freguesias de Vilar de Besteiros e Mosteiro de Fráguas,L,0.41,3,182133
União das freguesias de Vilar de Besteiros e Mosteiro de Fráguas,IL,0.27,2,182133
União das freguesias de Vilar de Besteiros e Mosteiro de Fráguas,MPT,0.27,2,182133
União das freguesias de Vilar de Besteiros e Mosteiro de Fráguas,NC,0.27,2,182133
União das freguesias de Vilar de Besteiros e Mosteiro de Fráguas,PNR,0.27,2,182133
União das freguesias de Vilar de Besteiros e Mosteiro de Fráguas,PURP,0.27,2,182133
União das freguesias de Vilar de Besteiros e Mosteiro de Fráguas,R.I.R.,0.27,2,182133
União das freguesias de Vilar de Besteiros e Mosteiro de Fráguas,JPP,0,0,182133
União das freguesias de Vilar de Besteiros e Mosteiro de Fráguas,PTP,0,0,182133
