freguesia,acronym,validVotesPercentage,votes,dicofre
União das freguesias de Troporiz e Lapela,PS,49.62,132,160440
União das freguesias de Troporiz e Lapela,PPD/PSD,24.44,65,160440
União das freguesias de Troporiz e Lapela,B.E.,9.02,24,160440
União das freguesias de Troporiz e Lapela,CDS-PP,5.26,14,160440
União das freguesias de Troporiz e Lapela,PCP-PEV,2.63,7,160440
União das freguesias de Troporiz e Lapela,R.I.R.,2.26,6,160440
União das freguesias de Troporiz e Lapela,PAN,1.5,4,160440
União das freguesias de Troporiz e Lapela,L,1.13,3,160440
União das freguesias de Troporiz e Lapela,PNR,1.13,3,160440
União das freguesias de Troporiz e Lapela,PCTP/MRPP,0.75,2,160440
União das freguesias de Troporiz e Lapela,A,0.38,1,160440
União das freguesias de Troporiz e Lapela,CH,0.38,1,160440
União das freguesias de Troporiz e Lapela,JPP,0.38,1,160440
União das freguesias de Troporiz e Lapela,PDR,0.38,1,160440
União das freguesias de Troporiz e Lapela,PTP,0.38,1,160440
União das freguesias de Troporiz e Lapela,PURP,0.38,1,160440
União das freguesias de Troporiz e Lapela,IL,0,0,160440
União das freguesias de Troporiz e Lapela,MPT,0,0,160440
União das freguesias de Troporiz e Lapela,NC,0,0,160440
União das freguesias de Troporiz e Lapela,PPM,0,0,160440
