freguesia,acronym,validVotesPercentage,votes,dicofre
União das freguesias de Souselas e Botão,PS,47.89,999,060339
União das freguesias de Souselas e Botão,PPD/PSD,22.72,474,060339
União das freguesias de Souselas e Botão,B.E.,10.93,228,060339
União das freguesias de Souselas e Botão,PCP-PEV,7.09,148,060339
União das freguesias de Souselas e Botão,CDS-PP,2.16,45,060339
União das freguesias de Souselas e Botão,PAN,2.16,45,060339
União das freguesias de Souselas e Botão,L,1.49,31,060339
União das freguesias de Souselas e Botão,CH,1.39,29,060339
União das freguesias de Souselas e Botão,PCTP/MRPP,0.77,16,060339
União das freguesias de Souselas e Botão,R.I.R.,0.77,16,060339
União das freguesias de Souselas e Botão,A,0.48,10,060339
União das freguesias de Souselas e Botão,IL,0.48,10,060339
União das freguesias de Souselas e Botão,PNR,0.48,10,060339
União das freguesias de Souselas e Botão,MPT,0.24,5,060339
União das freguesias de Souselas e Botão,NC,0.19,4,060339
União das freguesias de Souselas e Botão,PURP,0.19,4,060339
União das freguesias de Souselas e Botão,JPP,0.14,3,060339
União das freguesias de Souselas e Botão,MAS,0.14,3,060339
União das freguesias de Souselas e Botão,PDR,0.14,3,060339
União das freguesias de Souselas e Botão,PPM,0.14,3,060339
