freguesia,acronym,validVotesPercentage,votes,dicofre
União das freguesias de Caldas de Vizela (São Miguel e São João),PS,47.49,2713,031408
União das freguesias de Caldas de Vizela (São Miguel e São João),PPD/PSD,25.92,1481,031408
União das freguesias de Caldas de Vizela (São Miguel e São João),B.E.,12.22,698,031408
União das freguesias de Caldas de Vizela (São Miguel e São João),PCP-PEV,3.66,209,031408
União das freguesias de Caldas de Vizela (São Miguel e São João),PAN,2.94,168,031408
União das freguesias de Caldas de Vizela (São Miguel e São João),CDS-PP,2.26,129,031408
União das freguesias de Caldas de Vizela (São Miguel e São João),R.I.R.,1.05,60,031408
União das freguesias de Caldas de Vizela (São Miguel e São João),IL,1,57,031408
União das freguesias de Caldas de Vizela (São Miguel e São João),L,0.67,38,031408
União das freguesias de Caldas de Vizela (São Miguel e São João),PCTP/MRPP,0.63,36,031408
União das freguesias de Caldas de Vizela (São Miguel e São João),A,0.6,34,031408
União das freguesias de Caldas de Vizela (São Miguel e São João),CH,0.42,24,031408
União das freguesias de Caldas de Vizela (São Miguel e São João),NC,0.3,17,031408
União das freguesias de Caldas de Vizela (São Miguel e São João),MPT,0.21,12,031408
União das freguesias de Caldas de Vizela (São Miguel e São João),PNR,0.16,9,031408
União das freguesias de Caldas de Vizela (São Miguel e São João),JPP,0.11,6,031408
União das freguesias de Caldas de Vizela (São Miguel e São João),PDR,0.09,5,031408
União das freguesias de Caldas de Vizela (São Miguel e São João),PTP,0.09,5,031408
União das freguesias de Caldas de Vizela (São Miguel e São João),MAS,0.07,4,031408
União das freguesias de Caldas de Vizela (São Miguel e São João),PPM,0.07,4,031408
União das freguesias de Caldas de Vizela (São Miguel e São João),PURP,0.07,4,031408
