freguesia,acronym,validVotesPercentage,votes,dicofre
"União das freguesias de Silvares, Pias, Nogueira e Alvarenga",PS,38.74,1263,130532
"União das freguesias de Silvares, Pias, Nogueira e Alvarenga",PPD/PSD,37.7,1229,130532
"União das freguesias de Silvares, Pias, Nogueira e Alvarenga",B.E.,8.04,262,130532
"União das freguesias de Silvares, Pias, Nogueira e Alvarenga",CDS-PP,3.16,103,130532
"União das freguesias de Silvares, Pias, Nogueira e Alvarenga",PAN,2.52,82,130532
"União das freguesias de Silvares, Pias, Nogueira e Alvarenga",PCP-PEV,2.52,82,130532
"União das freguesias de Silvares, Pias, Nogueira e Alvarenga",R.I.R.,2.15,70,130532
"União das freguesias de Silvares, Pias, Nogueira e Alvarenga",L,1.5,49,130532
"União das freguesias de Silvares, Pias, Nogueira e Alvarenga",IL,0.8,26,130532
"União das freguesias de Silvares, Pias, Nogueira e Alvarenga",CH,0.64,21,130532
"União das freguesias de Silvares, Pias, Nogueira e Alvarenga",PCTP/MRPP,0.49,16,130532
"União das freguesias de Silvares, Pias, Nogueira e Alvarenga",A,0.46,15,130532
"União das freguesias de Silvares, Pias, Nogueira e Alvarenga",PTP,0.34,11,130532
"União das freguesias de Silvares, Pias, Nogueira e Alvarenga",JPP,0.21,7,130532
"União das freguesias de Silvares, Pias, Nogueira e Alvarenga",PURP,0.18,6,130532
"União das freguesias de Silvares, Pias, Nogueira e Alvarenga",MPT,0.15,5,130532
"União das freguesias de Silvares, Pias, Nogueira e Alvarenga",PDR,0.15,5,130532
"União das freguesias de Silvares, Pias, Nogueira e Alvarenga",PNR,0.09,3,130532
"União das freguesias de Silvares, Pias, Nogueira e Alvarenga",NC,0.06,2,130532
"União das freguesias de Silvares, Pias, Nogueira e Alvarenga",PPM,0.06,2,130532
"União das freguesias de Silvares, Pias, Nogueira e Alvarenga",MAS,0.03,1,130532
