freguesia,acronym,validVotesPercentage,votes,dicofre
União das freguesias de Candoso e Carvalho de Egas,PPD/PSD,41.45,63,041021
União das freguesias de Candoso e Carvalho de Egas,PS,34.21,52,041021
União das freguesias de Candoso e Carvalho de Egas,B.E.,12.5,19,041021
União das freguesias de Candoso e Carvalho de Egas,CDS-PP,3.95,6,041021
União das freguesias de Candoso e Carvalho de Egas,IL,1.97,3,041021
União das freguesias de Candoso e Carvalho de Egas,PCP-PEV,1.97,3,041021
União das freguesias de Candoso e Carvalho de Egas,PAN,1.32,2,041021
União das freguesias de Candoso e Carvalho de Egas,PCTP/MRPP,0.66,1,041021
União das freguesias de Candoso e Carvalho de Egas,PDR,0.66,1,041021
União das freguesias de Candoso e Carvalho de Egas,PURP,0.66,1,041021
União das freguesias de Candoso e Carvalho de Egas,R.I.R.,0.66,1,041021
União das freguesias de Candoso e Carvalho de Egas,A,0,0,041021
União das freguesias de Candoso e Carvalho de Egas,CH,0,0,041021
União das freguesias de Candoso e Carvalho de Egas,L,0,0,041021
União das freguesias de Candoso e Carvalho de Egas,NC,0,0,041021
União das freguesias de Candoso e Carvalho de Egas,PNR,0,0,041021
União das freguesias de Candoso e Carvalho de Egas,PPM,0,0,041021
União das freguesias de Candoso e Carvalho de Egas,PTP,0,0,041021
