freguesia,acronym,validVotesPercentage,votes,dicofre
União das freguesias de Painho e Figueiros,PS,45.86,360,110413
União das freguesias de Painho e Figueiros,PPD/PSD,30.45,239,110413
União das freguesias de Painho e Figueiros,B.E.,5.86,46,110413
União das freguesias de Painho e Figueiros,PCP-PEV,5.22,41,110413
União das freguesias de Painho e Figueiros,PAN,3.57,28,110413
União das freguesias de Painho e Figueiros,CDS-PP,2.42,19,110413
União das freguesias de Painho e Figueiros,IL,1.02,8,110413
União das freguesias de Painho e Figueiros,PCTP/MRPP,1.02,8,110413
União das freguesias de Painho e Figueiros,CH,0.89,7,110413
União das freguesias de Painho e Figueiros,A,0.76,6,110413
União das freguesias de Painho e Figueiros,L,0.76,6,110413
União das freguesias de Painho e Figueiros,PDR,0.76,6,110413
União das freguesias de Painho e Figueiros,R.I.R.,0.38,3,110413
União das freguesias de Painho e Figueiros,PNR,0.25,2,110413
União das freguesias de Painho e Figueiros,PTP,0.25,2,110413
União das freguesias de Painho e Figueiros,MPT,0.13,1,110413
União das freguesias de Painho e Figueiros,NC,0.13,1,110413
União das freguesias de Painho e Figueiros,PPM,0.13,1,110413
União das freguesias de Painho e Figueiros,PURP,0.13,1,110413
União das freguesias de Painho e Figueiros,MAS,0,0,110413
