freguesia,acronym,validVotesPercentage,votes,dicofre
"União das freguesias de Pico de Regalados, Gondiães e Mós",PPD/PSD,37.85,327,031366
"União das freguesias de Pico de Regalados, Gondiães e Mós",PS,36.81,318,031366
"União das freguesias de Pico de Regalados, Gondiães e Mós",B.E.,7.52,65,031366
"União das freguesias de Pico de Regalados, Gondiães e Mós",CDS-PP,6.25,54,031366
"União das freguesias de Pico de Regalados, Gondiães e Mós",PCP-PEV,2.66,23,031366
"União das freguesias de Pico de Regalados, Gondiães e Mós",PAN,1.85,16,031366
"União das freguesias de Pico de Regalados, Gondiães e Mós",CH,1.16,10,031366
"União das freguesias de Pico de Regalados, Gondiães e Mós",A,0.93,8,031366
"União das freguesias de Pico de Regalados, Gondiães e Mós",PCTP/MRPP,0.93,8,031366
"União das freguesias de Pico de Regalados, Gondiães e Mós",R.I.R.,0.81,7,031366
"União das freguesias de Pico de Regalados, Gondiães e Mós",L,0.58,5,031366
"União das freguesias de Pico de Regalados, Gondiães e Mós",MPT,0.58,5,031366
"União das freguesias de Pico de Regalados, Gondiães e Mós",NC,0.58,5,031366
"União das freguesias de Pico de Regalados, Gondiães e Mós",IL,0.35,3,031366
"União das freguesias de Pico de Regalados, Gondiães e Mós",PNR,0.35,3,031366
"União das freguesias de Pico de Regalados, Gondiães e Mós",PDR,0.23,2,031366
"União das freguesias de Pico de Regalados, Gondiães e Mós",PPM,0.23,2,031366
"União das freguesias de Pico de Regalados, Gondiães e Mós",MAS,0.12,1,031366
"União das freguesias de Pico de Regalados, Gondiães e Mós",PTP,0.12,1,031366
"União das freguesias de Pico de Regalados, Gondiães e Mós",PURP,0.12,1,031366
"União das freguesias de Pico de Regalados, Gondiães e Mós",JPP,0,0,031366
