freguesia,acronym,validVotesPercentage,votes,dicofre
"União das freguesias de Amoreira da Gândara, Paredes do Bairro e Ancas",PPD/PSD,46.68,604,010316
"União das freguesias de Amoreira da Gândara, Paredes do Bairro e Ancas",PS,25.97,336,010316
"União das freguesias de Amoreira da Gândara, Paredes do Bairro e Ancas",CDS-PP,9.04,117,010316
"União das freguesias de Amoreira da Gândara, Paredes do Bairro e Ancas",B.E.,7.88,102,010316
"União das freguesias de Amoreira da Gândara, Paredes do Bairro e Ancas",PAN,3.09,40,010316
"União das freguesias de Amoreira da Gândara, Paredes do Bairro e Ancas",CH,1.55,20,010316
"União das freguesias de Amoreira da Gândara, Paredes do Bairro e Ancas",PCP-PEV,1.39,18,010316
"União das freguesias de Amoreira da Gândara, Paredes do Bairro e Ancas",PCTP/MRPP,0.85,11,010316
"União das freguesias de Amoreira da Gândara, Paredes do Bairro e Ancas",IL,0.7,9,010316
"União das freguesias de Amoreira da Gândara, Paredes do Bairro e Ancas",A,0.62,8,010316
"União das freguesias de Amoreira da Gândara, Paredes do Bairro e Ancas",R.I.R.,0.62,8,010316
"União das freguesias de Amoreira da Gândara, Paredes do Bairro e Ancas",L,0.54,7,010316
"União das freguesias de Amoreira da Gândara, Paredes do Bairro e Ancas",PDR,0.23,3,010316
"União das freguesias de Amoreira da Gândara, Paredes do Bairro e Ancas",PURP,0.23,3,010316
"União das freguesias de Amoreira da Gândara, Paredes do Bairro e Ancas",NC,0.15,2,010316
"União das freguesias de Amoreira da Gândara, Paredes do Bairro e Ancas",PNR,0.15,2,010316
"União das freguesias de Amoreira da Gândara, Paredes do Bairro e Ancas",JPP,0.08,1,010316
"União das freguesias de Amoreira da Gândara, Paredes do Bairro e Ancas",MPT,0.08,1,010316
"União das freguesias de Amoreira da Gândara, Paredes do Bairro e Ancas",PPM,0.08,1,010316
"União das freguesias de Amoreira da Gândara, Paredes do Bairro e Ancas",PTP,0.08,1,010316
