freguesia,acronym,validVotesPercentage,votes,dicofre
"União das freguesias de Valença, Cristelo Covo e Arão",PPD/PSD,40.6,749,160820
"União das freguesias de Valença, Cristelo Covo e Arão",PS,35.34,652,160820
"União das freguesias de Valença, Cristelo Covo e Arão",B.E.,8.89,164,160820
"União das freguesias de Valença, Cristelo Covo e Arão",CDS-PP,3.69,68,160820
"União das freguesias de Valença, Cristelo Covo e Arão",PAN,2.93,54,160820
"União das freguesias de Valença, Cristelo Covo e Arão",PCP-PEV,2.71,50,160820
"União das freguesias de Valença, Cristelo Covo e Arão",IL,0.81,15,160820
"União das freguesias de Valença, Cristelo Covo e Arão",PCTP/MRPP,0.81,15,160820
"União das freguesias de Valença, Cristelo Covo e Arão",R.I.R.,0.76,14,160820
"União das freguesias de Valença, Cristelo Covo e Arão",CH,0.7,13,160820
"União das freguesias de Valença, Cristelo Covo e Arão",A,0.6,11,160820
"União das freguesias de Valença, Cristelo Covo e Arão",L,0.43,8,160820
"União das freguesias de Valença, Cristelo Covo e Arão",PDR,0.38,7,160820
"União das freguesias de Valença, Cristelo Covo e Arão",JPP,0.27,5,160820
"União das freguesias de Valença, Cristelo Covo e Arão",MPT,0.22,4,160820
"União das freguesias de Valença, Cristelo Covo e Arão",PNR,0.22,4,160820
"União das freguesias de Valença, Cristelo Covo e Arão",PPM,0.22,4,160820
"União das freguesias de Valença, Cristelo Covo e Arão",PURP,0.22,4,160820
"União das freguesias de Valença, Cristelo Covo e Arão",PTP,0.16,3,160820
"União das freguesias de Valença, Cristelo Covo e Arão",NC,0.05,1,160820
