freguesia,acronym,validVotesPercentage,votes,dicofre
União das freguesias de Soutelo e Seara Velha,PPD/PSD,51.19,150,170359
União das freguesias de Soutelo e Seara Velha,PS,32.42,95,170359
União das freguesias de Soutelo e Seara Velha,B.E.,4.78,14,170359
União das freguesias de Soutelo e Seara Velha,CDS-PP,3.07,9,170359
União das freguesias de Soutelo e Seara Velha,PCP-PEV,2.73,8,170359
União das freguesias de Soutelo e Seara Velha,PAN,1.37,4,170359
União das freguesias de Soutelo e Seara Velha,L,1.02,3,170359
União das freguesias de Soutelo e Seara Velha,CH,0.68,2,170359
União das freguesias de Soutelo e Seara Velha,NC,0.68,2,170359
União das freguesias de Soutelo e Seara Velha,PCTP/MRPP,0.68,2,170359
União das freguesias de Soutelo e Seara Velha,R.I.R.,0.68,2,170359
União das freguesias de Soutelo e Seara Velha,IL,0.34,1,170359
União das freguesias de Soutelo e Seara Velha,PPM,0.34,1,170359
União das freguesias de Soutelo e Seara Velha,A,0,0,170359
União das freguesias de Soutelo e Seara Velha,PDR,0,0,170359
União das freguesias de Soutelo e Seara Velha,PNR,0,0,170359
