freguesia,acronym,validVotesPercentage,votes,dicofre
União das freguesias de A dos Cunhados e Maceira,PS,34.02,1579,111321
União das freguesias de A dos Cunhados e Maceira,PPD/PSD,31.46,1460,111321
União das freguesias de A dos Cunhados e Maceira,B.E.,9.98,463,111321
União das freguesias de A dos Cunhados e Maceira,CDS-PP,4.76,221,111321
União das freguesias de A dos Cunhados e Maceira,PCP-PEV,4.72,219,111321
União das freguesias de A dos Cunhados e Maceira,PAN,3.92,182,111321
União das freguesias de A dos Cunhados e Maceira,CH,2.61,121,111321
União das freguesias de A dos Cunhados e Maceira,A,1.55,72,111321
União das freguesias de A dos Cunhados e Maceira,IL,1.12,52,111321
União das freguesias de A dos Cunhados e Maceira,L,1.1,51,111321
União das freguesias de A dos Cunhados e Maceira,PCTP/MRPP,1.06,49,111321
União das freguesias de A dos Cunhados e Maceira,R.I.R.,0.84,39,111321
União das freguesias de A dos Cunhados e Maceira,PNR,0.73,34,111321
União das freguesias de A dos Cunhados e Maceira,PDR,0.41,19,111321
União das freguesias de A dos Cunhados e Maceira,MPT,0.34,16,111321
União das freguesias de A dos Cunhados e Maceira,MAS,0.3,14,111321
União das freguesias de A dos Cunhados e Maceira,NC,0.3,14,111321
União das freguesias de A dos Cunhados e Maceira,PTP,0.28,13,111321
União das freguesias de A dos Cunhados e Maceira,PPM,0.26,12,111321
União das freguesias de A dos Cunhados e Maceira,PURP,0.24,11,111321
