freguesia,acronym,validVotesPercentage,votes,dicofre
Valadares,PPD/PSD,41.07,154,181617
Valadares,PS,38.67,145,181617
Valadares,CDS-PP,5.87,22,181617
Valadares,B.E.,4.8,18,181617
Valadares,PAN,2.67,10,181617
Valadares,A,1.87,7,181617
Valadares,PCTP/MRPP,1.33,5,181617
Valadares,PPM,1.07,4,181617
Valadares,CH,0.8,3,181617
Valadares,PCP-PEV,0.8,3,181617
Valadares,IL,0.27,1,181617
Valadares,MPT,0.27,1,181617
Valadares,NC,0.27,1,181617
Valadares,PDR,0.27,1,181617
Valadares,JPP,0,0,181617
Valadares,L,0,0,181617
Valadares,PNR,0,0,181617
Valadares,PTP,0,0,181617
Valadares,PURP,0,0,181617
Valadares,R.I.R.,0,0,181617
