freguesia,acronym,validVotesPercentage,votes,dicofre
Vale da Mula,PS,39.13,36,090227
Vale da Mula,PPD/PSD,30.43,28,090227
Vale da Mula,B.E.,7.61,7,090227
Vale da Mula,CDS-PP,7.61,7,090227
Vale da Mula,PCP-PEV,7.61,7,090227
Vale da Mula,PAN,2.17,2,090227
Vale da Mula,R.I.R.,2.17,2,090227
Vale da Mula,A,1.09,1,090227
Vale da Mula,CH,1.09,1,090227
Vale da Mula,PCTP/MRPP,1.09,1,090227
Vale da Mula,IL,0,0,090227
Vale da Mula,L,0,0,090227
Vale da Mula,MPT,0,0,090227
Vale da Mula,NC,0,0,090227
Vale da Mula,PDR,0,0,090227
Vale da Mula,PNR,0,0,090227
Vale da Mula,PPM,0,0,090227
Vale da Mula,PTP,0,0,090227
Vale da Mula,PURP,0,0,090227
