freguesia,acronym,validVotesPercentage,votes,dicofre
Vale do Côa,PPD/PSD,77.88,81,091033
Vale do Côa,PS,12.5,13,091033
Vale do Côa,B.E.,2.88,3,091033
Vale do Côa,CDS-PP,1.92,2,091033
Vale do Côa,IL,0.96,1,091033
Vale do Côa,L,0.96,1,091033
Vale do Côa,PCP-PEV,0.96,1,091033
Vale do Côa,PTP,0.96,1,091033
Vale do Côa,PURP,0.96,1,091033
Vale do Côa,A,0,0,091033
Vale do Côa,CH,0,0,091033
Vale do Côa,MPT,0,0,091033
Vale do Côa,NC,0,0,091033
Vale do Côa,PAN,0,0,091033
Vale do Côa,PCTP/MRPP,0,0,091033
Vale do Côa,PDR,0,0,091033
Vale do Côa,PNR,0,0,091033
Vale do Côa,PPM,0,0,091033
Vale do Côa,R.I.R.,0,0,091033
