freguesia,acronym,validVotesPercentage,votes,dicofre
Vale de Santiago,PS,40.37,195,021122
Vale de Santiago,PCP-PEV,25.88,125,021122
Vale de Santiago,PPD/PSD,13.25,64,021122
Vale de Santiago,B.E.,8.49,41,021122
Vale de Santiago,CDS-PP,3.31,16,021122
Vale de Santiago,PAN,1.66,8,021122
Vale de Santiago,PDR,1.66,8,021122
Vale de Santiago,PCTP/MRPP,1.45,7,021122
Vale de Santiago,CH,1.04,5,021122
Vale de Santiago,NC,0.83,4,021122
Vale de Santiago,L,0.62,3,021122
Vale de Santiago,MPT,0.62,3,021122
Vale de Santiago,IL,0.41,2,021122
Vale de Santiago,PNR,0.21,1,021122
Vale de Santiago,PTP,0.21,1,021122
Vale de Santiago,A,0,0,021122
Vale de Santiago,PPM,0,0,021122
