freguesia,acronym,validVotesPercentage,votes,dicofre
Valpaços e Sanfins,PPD/PSD,47.12,965,171236
Valpaços e Sanfins,PS,33.64,689,171236
Valpaços e Sanfins,B.E.,6.1,125,171236
Valpaços e Sanfins,CDS-PP,4.49,92,171236
Valpaços e Sanfins,PCP-PEV,2.44,50,171236
Valpaços e Sanfins,PAN,2.29,47,171236
Valpaços e Sanfins,CH,0.88,18,171236
Valpaços e Sanfins,A,0.59,12,171236
Valpaços e Sanfins,PCTP/MRPP,0.59,12,171236
Valpaços e Sanfins,L,0.54,11,171236
Valpaços e Sanfins,PNR,0.29,6,171236
Valpaços e Sanfins,R.I.R.,0.29,6,171236
Valpaços e Sanfins,IL,0.2,4,171236
Valpaços e Sanfins,PDR,0.2,4,171236
Valpaços e Sanfins,PPM,0.2,4,171236
Valpaços e Sanfins,NC,0.15,3,171236
