freguesia,acronym,validVotesPercentage,votes,dicofre
Vermelha,PS,44.28,263,110409
Vermelha,PPD/PSD,33.84,201,110409
Vermelha,B.E.,6.57,39,110409
Vermelha,CDS-PP,4.21,25,110409
Vermelha,PAN,3.2,19,110409
Vermelha,PCP-PEV,2.19,13,110409
Vermelha,CH,1.35,8,110409
Vermelha,IL,0.67,4,110409
Vermelha,L,0.67,4,110409
Vermelha,A,0.51,3,110409
Vermelha,PCTP/MRPP,0.51,3,110409
Vermelha,PNR,0.51,3,110409
Vermelha,MAS,0.34,2,110409
Vermelha,PDR,0.34,2,110409
Vermelha,MPT,0.17,1,110409
Vermelha,PPM,0.17,1,110409
Vermelha,PTP,0.17,1,110409
Vermelha,PURP,0.17,1,110409
Vermelha,R.I.R.,0.17,1,110409
Vermelha,NC,0,0,110409
