freguesia,acronym,validVotesPercentage,votes,dicofre
Videmonte,PPD/PSD,38.5,87,090749
Videmonte,PS,36.28,82,090749
Videmonte,B.E.,7.96,18,090749
Videmonte,CDS-PP,6.64,15,090749
Videmonte,PCP-PEV,3.98,9,090749
Videmonte,PAN,2.21,5,090749
Videmonte,R.I.R.,1.33,3,090749
Videmonte,CH,0.88,2,090749
Videmonte,IL,0.44,1,090749
Videmonte,L,0.44,1,090749
Videmonte,MPT,0.44,1,090749
Videmonte,PCTP/MRPP,0.44,1,090749
Videmonte,PPM,0.44,1,090749
Videmonte,A,0,0,090749
Videmonte,NC,0,0,090749
Videmonte,PDR,0,0,090749
Videmonte,PNR,0,0,090749
Videmonte,PTP,0,0,090749
Videmonte,PURP,0,0,090749
