freguesia,acronym,validVotesPercentage,votes,dicofre
Vila Nova de Cacela,PS,44.34,595,081601
Vila Nova de Cacela,PPD/PSD,20.27,272,081601
Vila Nova de Cacela,B.E.,12.07,162,081601
Vila Nova de Cacela,PCP-PEV,8.2,110,081601
Vila Nova de Cacela,CDS-PP,3.95,53,081601
Vila Nova de Cacela,PAN,2.98,40,081601
Vila Nova de Cacela,CH,2.24,30,081601
Vila Nova de Cacela,PCTP/MRPP,0.97,13,081601
Vila Nova de Cacela,A,0.82,11,081601
Vila Nova de Cacela,NC,0.67,9,081601
Vila Nova de Cacela,PPM,0.67,9,081601
Vila Nova de Cacela,R.I.R.,0.6,8,081601
Vila Nova de Cacela,L,0.52,7,081601
Vila Nova de Cacela,IL,0.45,6,081601
Vila Nova de Cacela,PTP,0.37,5,081601
Vila Nova de Cacela,MPT,0.3,4,081601
Vila Nova de Cacela,PNR,0.3,4,081601
Vila Nova de Cacela,PURP,0.22,3,081601
Vila Nova de Cacela,PDR,0.07,1,081601
