freguesia,acronym,validVotesPercentage,votes,dicofre
Vila Cortês do Mondego,PS,50.39,64,090750
Vila Cortês do Mondego,PPD/PSD,22.05,28,090750
Vila Cortês do Mondego,B.E.,11.81,15,090750
Vila Cortês do Mondego,PCP-PEV,7.87,10,090750
Vila Cortês do Mondego,CDS-PP,3.15,4,090750
Vila Cortês do Mondego,A,0.79,1,090750
Vila Cortês do Mondego,CH,0.79,1,090750
Vila Cortês do Mondego,IL,0.79,1,090750
Vila Cortês do Mondego,PAN,0.79,1,090750
Vila Cortês do Mondego,PCTP/MRPP,0.79,1,090750
Vila Cortês do Mondego,PTP,0.79,1,090750
Vila Cortês do Mondego,L,0,0,090750
Vila Cortês do Mondego,MPT,0,0,090750
Vila Cortês do Mondego,NC,0,0,090750
Vila Cortês do Mondego,PDR,0,0,090750
Vila Cortês do Mondego,PNR,0,0,090750
Vila Cortês do Mondego,PPM,0,0,090750
Vila Cortês do Mondego,PURP,0,0,090750
Vila Cortês do Mondego,R.I.R.,0,0,090750
