freguesia,acronym,validVotesPercentage,votes,dicofre
Vilar Formoso,PS,44.14,392,090229
Vilar Formoso,PPD/PSD,34.68,308,090229
Vilar Formoso,CDS-PP,6.53,58,090229
Vilar Formoso,B.E.,6.08,54,090229
Vilar Formoso,PCP-PEV,1.91,17,090229
Vilar Formoso,CH,1.8,16,090229
Vilar Formoso,PAN,1.58,14,090229
Vilar Formoso,L,0.56,5,090229
Vilar Formoso,PNR,0.56,5,090229
Vilar Formoso,A,0.45,4,090229
Vilar Formoso,PURP,0.45,4,090229
Vilar Formoso,R.I.R.,0.45,4,090229
Vilar Formoso,PCTP/MRPP,0.34,3,090229
Vilar Formoso,IL,0.23,2,090229
Vilar Formoso,NC,0.11,1,090229
Vilar Formoso,PDR,0.11,1,090229
Vilar Formoso,MPT,0,0,090229
Vilar Formoso,PPM,0,0,090229
Vilar Formoso,PTP,0,0,090229
