freguesia,acronym,validVotesPercentage,votes,dicofre
Vilar de Nantes,PS,39.43,345,170344
Vilar de Nantes,PPD/PSD,35.77,313,170344
Vilar de Nantes,B.E.,8,70,170344
Vilar de Nantes,CDS-PP,6.17,54,170344
Vilar de Nantes,PAN,3.2,28,170344
Vilar de Nantes,PCP-PEV,2.63,23,170344
Vilar de Nantes,L,0.91,8,170344
Vilar de Nantes,CH,0.8,7,170344
Vilar de Nantes,IL,0.69,6,170344
Vilar de Nantes,R.I.R.,0.69,6,170344
Vilar de Nantes,A,0.57,5,170344
Vilar de Nantes,PCTP/MRPP,0.57,5,170344
Vilar de Nantes,PNR,0.34,3,170344
Vilar de Nantes,PDR,0.23,2,170344
Vilar de Nantes,NC,0,0,170344
Vilar de Nantes,PPM,0,0,170344
