freguesia,acronym,validVotesPercentage,votes,dicofre
Vila Chã,PPD/PSD,52.05,317,030615
Vila Chã,PS,22.99,140,030615
Vila Chã,B.E.,5.58,34,030615
Vila Chã,CDS-PP,5.25,32,030615
Vila Chã,PAN,2.79,17,030615
Vila Chã,R.I.R.,2.63,16,030615
Vila Chã,PCP-PEV,1.81,11,030615
Vila Chã,IL,1.64,10,030615
Vila Chã,MPT,0.99,6,030615
Vila Chã,A,0.82,5,030615
Vila Chã,CH,0.49,3,030615
Vila Chã,L,0.49,3,030615
Vila Chã,PCTP/MRPP,0.49,3,030615
Vila Chã,PDR,0.49,3,030615
Vila Chã,PURP,0.49,3,030615
Vila Chã,JPP,0.33,2,030615
Vila Chã,NC,0.33,2,030615
Vila Chã,PTP,0.33,2,030615
Vila Chã,MAS,0,0,030615
Vila Chã,PNR,0,0,030615
Vila Chã,PPM,0,0,030615
