freguesia,acronym,validVotesPercentage,votes,dicofre
Vila Velha de Ródão,PS,52.3,443,051104
Vila Velha de Ródão,PPD/PSD,22.43,190,051104
Vila Velha de Ródão,B.E.,10.98,93,051104
Vila Velha de Ródão,PCP-PEV,6.49,55,051104
Vila Velha de Ródão,CDS-PP,1.89,16,051104
Vila Velha de Ródão,PAN,1.65,14,051104
Vila Velha de Ródão,PCTP/MRPP,1.06,9,051104
Vila Velha de Ródão,CH,0.71,6,051104
Vila Velha de Ródão,L,0.59,5,051104
Vila Velha de Ródão,PURP,0.47,4,051104
Vila Velha de Ródão,R.I.R.,0.47,4,051104
Vila Velha de Ródão,A,0.35,3,051104
Vila Velha de Ródão,IL,0.35,3,051104
Vila Velha de Ródão,MPT,0.12,1,051104
Vila Velha de Ródão,PTP,0.12,1,051104
Vila Velha de Ródão,PDR,0,0,051104
Vila Velha de Ródão,PNR,0,0,051104
Vila Velha de Ródão,PPM,0,0,051104
