freguesia,acronym,validVotesPercentage,votes,dicofre
Vila Caiz,PS,56.82,771,130138
Vila Caiz,PPD/PSD,24.98,339,130138
Vila Caiz,B.E.,7.07,96,130138
Vila Caiz,PCP-PEV,3.24,44,130138
Vila Caiz,CDS-PP,1.92,26,130138
Vila Caiz,PAN,1.84,25,130138
Vila Caiz,R.I.R.,1.18,16,130138
Vila Caiz,IL,0.74,10,130138
Vila Caiz,L,0.59,8,130138
Vila Caiz,A,0.29,4,130138
Vila Caiz,PCTP/MRPP,0.22,3,130138
Vila Caiz,PNR,0.22,3,130138
Vila Caiz,PTP,0.22,3,130138
Vila Caiz,CH,0.15,2,130138
Vila Caiz,JPP,0.15,2,130138
Vila Caiz,MPT,0.15,2,130138
Vila Caiz,PDR,0.15,2,130138
Vila Caiz,PPM,0.07,1,130138
Vila Caiz,MAS,0,0,130138
Vila Caiz,NC,0,0,130138
Vila Caiz,PURP,0,0,130138
