freguesia,acronym,validVotesPercentage,votes,dicofre
Vila de Punhe,PS,45.29,534,160938
Vila de Punhe,PPD/PSD,28.5,336,160938
Vila de Punhe,B.E.,8.99,106,160938
Vila de Punhe,CDS-PP,5.17,61,160938
Vila de Punhe,PCP-PEV,3.39,40,160938
Vila de Punhe,PAN,2.8,33,160938
Vila de Punhe,L,0.93,11,160938
Vila de Punhe,CH,0.76,9,160938
Vila de Punhe,IL,0.76,9,160938
Vila de Punhe,PCTP/MRPP,0.68,8,160938
Vila de Punhe,R.I.R.,0.51,6,160938
Vila de Punhe,A,0.42,5,160938
Vila de Punhe,NC,0.42,5,160938
Vila de Punhe,MPT,0.34,4,160938
Vila de Punhe,PURP,0.34,4,160938
Vila de Punhe,JPP,0.25,3,160938
Vila de Punhe,PDR,0.17,2,160938
Vila de Punhe,PNR,0.17,2,160938
Vila de Punhe,PTP,0.08,1,160938
Vila de Punhe,PPM,0,0,160938
