freguesia,acronym,validVotesPercentage,votes,dicofre
Vimeiro,PPD/PSD,63.05,616,100116
Vimeiro,PS,18.42,180,100116
Vimeiro,CDS-PP,7.78,76,100116
Vimeiro,B.E.,2.56,25,100116
Vimeiro,PCP-PEV,1.74,17,100116
Vimeiro,PAN,1.43,14,100116
Vimeiro,CH,1.13,11,100116
Vimeiro,L,0.92,9,100116
Vimeiro,A,0.82,8,100116
Vimeiro,R.I.R.,0.72,7,100116
Vimeiro,IL,0.41,4,100116
Vimeiro,PPM,0.31,3,100116
Vimeiro,PDR,0.2,2,100116
Vimeiro,PNR,0.2,2,100116
Vimeiro,NC,0.1,1,100116
Vimeiro,PCTP/MRPP,0.1,1,100116
Vimeiro,PTP,0.1,1,100116
Vimeiro,JPP,0,0,100116
Vimeiro,MAS,0,0,100116
Vimeiro,MPT,0,0,100116
Vimeiro,PURP,0,0,100116
