freguesia,acronym,validVotesPercentage,votes,dicofre
Vinhós,PS,44.08,149,030736
Vinhós,PPD/PSD,30.47,103,030736
Vinhós,B.E.,7.4,25,030736
Vinhós,PCP-PEV,7.4,25,030736
Vinhós,CDS-PP,3.85,13,030736
Vinhós,PAN,2.07,7,030736
Vinhós,PCTP/MRPP,1.48,5,030736
Vinhós,R.I.R.,1.48,5,030736
Vinhós,CH,0.59,2,030736
Vinhós,IL,0.59,2,030736
Vinhós,MAS,0.3,1,030736
Vinhós,NC,0.3,1,030736
Vinhós,A,0,0,030736
Vinhós,JPP,0,0,030736
Vinhós,L,0,0,030736
Vinhós,MPT,0,0,030736
Vinhós,PDR,0,0,030736
Vinhós,PNR,0,0,030736
Vinhós,PPM,0,0,030736
Vinhós,PTP,0,0,030736
Vinhós,PURP,0,0,030736
