freguesia,acronym,validVotesPercentage,votes,dicofre
Água Longa,PPD/PSD,41.48,492,131402
Água Longa,PS,36.68,435,131402
Água Longa,B.E.,5.99,71,131402
Água Longa,PAN,3.96,47,131402
Água Longa,CDS-PP,3.2,38,131402
Água Longa,PCP-PEV,2.45,29,131402
Água Longa,IL,1.6,19,131402
Água Longa,R.I.R.,1.26,15,131402
Água Longa,PCTP/MRPP,0.84,10,131402
Água Longa,L,0.59,7,131402
Água Longa,CH,0.34,4,131402
Água Longa,PDR,0.34,4,131402
Água Longa,PNR,0.25,3,131402
Água Longa,PURP,0.25,3,131402
Água Longa,A,0.17,2,131402
Água Longa,JPP,0.17,2,131402
Água Longa,NC,0.17,2,131402
Água Longa,MAS,0.08,1,131402
Água Longa,MPT,0.08,1,131402
Água Longa,PTP,0.08,1,131402
Água Longa,PPM,0,0,131402
