Objeto do Contrato,Tipo de Procedimento,Tipo(s) de Contrato,CPVs,Entidade(s) Adjudicante(s),Entidade(s) Adjudicatária(s),Preço Contratual,Data de Publicação,Data de Celebração do Contrato,Prazo de Execução,Local de Execução,Fundamentação,Data de Fecho do Contrato,Preço Total Efetivo,Causas das Alterações ao Prazo,Causas das Alterações ao Preço,Estado,N.º registo do Acordo Quadro,Descrição do Acordo Quadro,Procedimento Centralizado
AD3459-2016 NIVOLUMAB 10 MG,Ajuste Direto Regime Geral,Aquisição de bens móveis,"33600000-6, Produtos farmacêuticos","Instituto Português de Oncologia de Lisboa Francisco Gentil, E. P. E. (506361616)","BRISTOL-MYERS SQUIBB FARMACEUTICA PORETUGUESA, S.A. (500048193)","26.400,00 €",21-12-2016,15-12-2016,20 dias,"Portugal, Lisboa, Lisboa","Artigo 24.º, n.º 1, alínea e) do Código dos Contratos Públicos",,,,,,Não aplicável.,Não aplicável.,FALSE
AD3457-2016 LENALIDOMIDA 25 MG CP,Ajuste Direto Regime Geral,Aquisição de bens móveis,"33600000-6, Produtos farmacêuticos","Instituto Português de Oncologia de Lisboa Francisco Gentil, E. P. E. (506361616)","CELGENE SOCIEDADE UNIPESSOAL, LDA (507791690)","54.171,39 €",21-12-2016,15-12-2016,20 dias,"Portugal, Lisboa, Lisboa","Artigo 24.º, n.º 1, alínea c) do Código dos Contratos Públicos",,,,,,Não aplicável.,Não aplicável.,FALSE
AD3421-2016-TRASTUZUMAB EMTANSINA 100 MG INJ,Ajuste Direto Regime Geral,Aquisição de bens móveis,"33600000-6, Produtos farmacêuticos","Instituto Português de Oncologia de Lisboa Francisco Gentil, E. P. E. (506361616)",ROCHE FARMACÊUTICA QUÍMICA LDA (500233810),"16.885,00 €",21-12-2016,15-12-2016,30 dias,"Portugal, Lisboa, Lisboa","Artigo 24.º, n.º 1, alínea e) do Código dos Contratos Públicos",,,,,,Não aplicável.,Não aplicável.,FALSE
AD3225-2016 BENDAMUSTINA,Ao abrigo de acordo-quadro (art.º 259.º),Aquisição de bens móveis,"33600000-6, Produtos farmacêuticos","Instituto Português de Oncologia de Lisboa Francisco Gentil, E. P. E. (506361616)",MEDAC SUCURSAL EM PORTUGAL (980369959),"10.400,00 €",21-12-2016,19-12-2016,30 dias,"Portugal, Lisboa, Lisboa",Artigo 259.º do Código dos Contratos Públicos,,,,,,1771819,CP 2015/6 - Acordo quadro para o fornecimento de Medicamentos do Foro Oncológico,FALSE
AD800-2016ASSISTENCIA TÉCNICA DE MANUTENÇÃO-SERVIDORES FUJITSU BX900,Ajuste Direto Regime Geral,Aquisição de serviços,"50000000-5, Serviços de reparação e manutenção","Instituto Português de Oncologia de Lisboa Francisco Gentil, E. P. E. (506361616)","FUJITSU TECHNOLOGY SOLUTIONS, LDA (500646791)","11.183,55 €",20-12-2016,05-09-2016,3210 dias,"Portugal, Lisboa, Lisboa","Artigo 20.º, n.º 1, alínea a) do Código dos Contratos Públicos",,,,,,Não aplicável.,Não aplicável.,FALSE
AD3055-2016SIMPREVENIR 150 MG,Ajuste Direto Regime Geral,Aquisição de bens móveis,"33600000-6, Produtos farmacêuticos","Instituto Português de Oncologia de Lisboa Francisco Gentil, E. P. E. (506361616)",JANSSEN-CILAG FARMACEUTICA LDA (500189412),"23.909,13 €",19-12-2016,02-11-2016,53 dias,"Portugal, Lisboa, Lisboa","Artigo 24.º, n.º 1, alínea e) do Código dos Contratos Públicos",,,,,,Não aplicável.,Não aplicável.,FALSE
AD829-2015 PEDIDO DE AUTORIZAÇÃO PARA 1 RENOVAÇÃO DO AD/8292015PARA 2016,Ajuste Direto Regime Geral,Aquisição de bens móveis,"33600000-6, Produtos farmacêuticos","Instituto Português de Oncologia de Lisboa Francisco Gentil, E. P. E. (506361616)","AMGEN BIOFARMACEUTICA, LDA (502942959)","23.323,20 €",19-12-2016,11-12-2015,365 dias,"Portugal, Lisboa, Lisboa","Artigo 20.º, n.º 1, alínea a) do Código dos Contratos Públicos",,,,,,Não aplicável.,Não aplicável.,FALSE
AD3456-2016 IMATINIB MESILATO 100 MG CP,Ao abrigo de acordo-quadro (art.º 259.º),Aquisição de bens móveis,"33600000-6, Produtos farmacêuticos","Instituto Português de Oncologia de Lisboa Francisco Gentil, E. P. E. (506361616)","NOVARTIS FARMA-Produtos Farmaceuticos, S.A, (500063524)","10.757,52 €",19-12-2016,15-12-2016,30 dias,"Portugal, Lisboa, Lisboa",Artigo 259.º do Código dos Contratos Públicos,,,,,,1771819,CP 2015/6 - Acordo quadro para o fornecimento de Medicamentos do Foro Oncológico,FALSE
AD3219-2016 SUNITINIB 50 MG CP,Ao abrigo de acordo-quadro (art.º 259.º),Aquisição de bens móveis,"33600000-6, Produtos farmacêuticos","Instituto Português de Oncologia de Lisboa Francisco Gentil, E. P. E. (506361616)","PFIZER BIOFARMACEUTICA, LDA (513300376)","30.083,20 €",15-12-2016,15-12-2016,30 dias,"Portugal, Lisboa, Lisboa",Artigo 259.º do Código dos Contratos Públicos,,,,,,1771819,CP 2015/6 - Acordo quadro para o fornecimento de Medicamentos do Foro Oncológico,FALSE
AD827-2015-PEDIDO DE AUTORIZAÇÃO DA 2 RENOVAÇÃO DO AD57/2014 PARA 2016,Ajuste Direto Regime Geral,Aquisição de bens móveis,"33600000-6, Produtos farmacêuticos","Instituto Português de Oncologia de Lisboa Francisco Gentil, E. P. E. (506361616)","JOSÉ MANUEL GOMES DOS SANTOS, LDA (501399224)","11.642,83 €",15-12-2016,20-04-2016,365 dias,"Portugal, Lisboa, Lisboa","Artigo 20.º, n.º 1, alínea a) do Código dos Contratos Públicos",,,,,,Não aplicável.,Não aplicável.,FALSE
"AD2974-2016P.S, HEMOGRAMAS E RETICULÓCITOS P. CLÍNICA",Ajuste Direto Regime Geral,Aquisição de bens móveis<br/>Aquisição de serviços,"33696500-0, Reagentes de laboratório","Instituto Português de Oncologia de Lisboa Francisco Gentil, E. P. E. (506361616)","ABBOTT LABORATÓRIOS, LDA (500006148)","18.653,04 €",15-12-2016,14-12-2016,30 dias,"Portugal, Lisboa, Lisboa","Artigo 26.º, n.º 1, alínea a) do Código dos Contratos Públicos",,,,,,Não aplicável.,Não aplicável.,FALSE
AD1759-SOFTWARE DE GESTÃO DE MEIOS COMPLEMENTARES DE DIAGNOSTICO E TERAPEUTICA,Ajuste Direto Regime Geral,Aquisição de bens móveis,"48180000-3, Pacote de software para medicina","Instituto Português de Oncologia de Lisboa FG, E.P.E. (506361616)","CERNER PORTUGAL, UNIPESSOAL, LDA (513269843)","74.900,00 €",14-12-2016,18-07-2016,30 dias,"Portugal, Lisboa, Lisboa","Artigo 20.º, n.º 1, alínea a) do Código dos Contratos Públicos",,,,,,Não aplicável.,Não aplicável.,FALSE
AD236-2016 GESTÃO DE ATENDIMENTO,Ajuste Direto Regime Geral,Aquisição de serviços,"72500000-0, Serviços relacionados com a informática","Instituto Português de Oncologia de Lisboa Francisco Gentil, E. P. E. (506361616)","Proside-Concepção e implementação de soluções informáticas, lda (506951405)","29.150,00 €",14-12-2016,23-02-2016,90 dias,"Portugal, Lisboa, Lisboa","Artigo 20.º, n.º 1, alínea a) do Código dos Contratos Públicos",,,,,,Não aplicável.,Não aplicável.,FALSE
AD913-2016 TIOTEPA 100 MG,Ajuste Direto Regime Geral,Aquisição de bens móveis,"33600000-6, Produtos farmacêuticos","Instituto Português de Oncologia de Lisboa Francisco Gentil, E. P. E. (506361616)",ADIENNE SLR ITALY (IT03157920160),"14.650,00 €",14-12-2016,01-04-2016,30 dias,"Portugal, Lisboa, Lisboa","Artigo 24.º, n.º 1, alínea c) do Código dos Contratos Públicos",,,,,,Não aplicável.,Não aplicável.,FALSE
AD3478-2016IMPRESSORAS ZEBRA,Ajuste Direto Regime Geral,Aquisição de bens móveis,"30100000-0, Máquinas, equipamento e material de escritório, excepto computadores, impressoras e mobiliário","Instituto Português de Oncologia de Lisboa Francisco Gentil, E. P. E. (506361616)","ITEN SOLUTIONS-Sistemas de Informação, S.A. (510728189)","16.362,60 €",13-12-2016,13-12-2016,5 dias,"Portugal, Lisboa, Lisboa","Artigo 24.º, n.º 1, alínea c) do Código dos Contratos Públicos",,,,,,Não aplicável.,Não aplicável.,FALSE
AD3233-2016-BRENTUXIMAB VENOTIN 50 MG INJ,Ajuste Direto Regime Geral,Aquisição de bens móveis,"33600000-6, Produtos farmacêuticos","Instituto Português de Oncologia de Lisboa Francisco Gentil, E. P. E. (506361616)","TAKEDA-FARMACEUTICOS PORTUGAL, LDA (800657403)","56.926,80 €",12-12-2016,12-12-2016,30 dias,"Portugal, Lisboa, Lisboa","Artigo 24.º, n.º 1, alínea c) do Código dos Contratos Públicos",,,,,,Não aplicável.,Não aplicável.,FALSE
AD3060-2016 IMUNOGLOBULINA INESPECIFICA 5 G INJ E 10 G INJ,Ajuste Direto Regime Geral,Aquisição de bens móveis,"33600000-6, Produtos farmacêuticos","Instituto Português de Oncologia de Lisboa Francisco Gentil, E. P. E. (506361616)","CSL BEHRING UNIPESSOAL, LDA (503047201)","43.848,00 €",12-12-2016,31-10-2016,1 dias,"Portugal, Lisboa, Lisboa","Artigo 24.º, n.º 1, alínea c) do Código dos Contratos Públicos",,,,,,Não aplicável.,Não aplicável.,FALSE
AD959-2016-BRENTUXIMAB VEDOTIN 50 MG INJ,Ajuste Direto Regime Geral,Aquisição de bens móveis,"33600000-6, Produtos farmacêuticos","Instituto Português de Oncologia de Lisboa Francisco Gentil, E. P. E. (506361616)",IDIS LIMITED (504030298787),"66.780,00 €",12-12-2016,15-03-2016,30 dias,"Portugal, Lisboa, Lisboa","Artigo 24.º, n.º 1, alínea c) do Código dos Contratos Públicos",,,,,,Não aplicável.,Não aplicável.,FALSE
