Objeto do Contrato,Tipo de Procedimento,Tipo(s) de Contrato,CPVs,Entidade(s) Adjudicante(s),Entidade(s) Adjudicatária(s),Preço Contratual,Data de Publicação,Data de Celebração do Contrato,Prazo de Execução,Local de Execução,Fundamentação,Data de Fecho do Contrato,Preço Total Efetivo,Causas das Alterações ao Prazo,Causas das Alterações ao Preço,Estado,N.º registo do Acordo Quadro,Descrição do Acordo Quadro,Procedimento Centralizado
61 249 2018 Medicamentos Vedolizumab 300 mg,Ajuste Direto Regime Geral,Aquisição de bens móveis,"33690000-3, Medicamentos vários","Centro Hospitalar Universitário do Algarve, E. P. E. (510745997)","Takeda - Farmacêuticos Portugal, Lda. (502801204)","12.280,96 €",11-05-2018,05-01-2018,360 dias,"Portugal, Faro, Faro","Artigo 24.º, n.º 1, alínea e) do Código dos Contratos Públicos",,,,,,Não aplicável.,Não aplicável.,FALSE
61 248 2018 Medicamentos Azacitidina 100 mg e Paclitaxel em nanoparticulas 100 mg,Ajuste Direto Regime Geral,Aquisição de bens móveis,"33690000-3, Medicamentos vários","Centro Hospitalar Universitário do Algarve, E. P. E. (510745997)","CELGENE - SOCIEDADE UNIPESSOAL, LDA (507791690)","120.125,00 €",11-05-2018,05-01-2018,360 dias,"Portugal, Faro, Faro","Artigo 24.º, n.º 1, alínea e) do Código dos Contratos Públicos",,,,,,Não aplicável.,Não aplicável.,FALSE
61 233 2018 Medicamentos Daratumumab 20 mg,Ajuste Direto Regime Geral,Aquisição de bens móveis,"33690000-3, Medicamentos vários","Centro Hospitalar Universitário do Algarve, E. P. E. (510745997)","Janssen-Cilag Farmacêutica, Lda. (500189412)","46.148,64 €",11-05-2018,05-01-2018,360 dias,"Portugal, Faro, Faro","Artigo 24.º, n.º 1, alínea e) do Código dos Contratos Públicos",,,,,,Não aplicável.,Não aplicável.,FALSE
61 232 2018 Medicamentos Icatibant 30 mg,Ajuste Direto Regime Geral,Aquisição de bens móveis,"33690000-3, Medicamentos vários","Centro Hospitalar Universitário do Algarve, E. P. E. (510745997)","Shire Pharmaceuticals Portugal, Lda. (509264662)","5.616,76 €",11-05-2018,05-01-2018,360 dias,"Portugal, Faro, Faro","Artigo 24.º, n.º 1, alínea e) do Código dos Contratos Públicos",,,,,,Não aplicável.,Não aplicável.,FALSE
61 231 2018 Medicamentos Nivolumab 100 mg,Ajuste Direto Regime Geral,Aquisição de bens móveis,"33690000-3, Medicamentos vários","Centro Hospitalar Universitário do Algarve, E. P. E. (510745997)","BRISTOL-MYERS SQUIBB FARMACÊUTICA PORTUGUESA, S.A. (500048193)","202.269,60 €",11-05-2018,05-01-2018,360 dias,"Portugal, Faro, Faro","Artigo 24.º, n.º 1, alínea e) do Código dos Contratos Públicos",,,,,,Não aplicável.,Não aplicável.,FALSE
61/230/2018 Medicamentos Osimertinib 80 mg,Ajuste Direto Regime Geral,Aquisição de bens móveis,"33690000-3, Medicamentos vários","Centro Hospitalar Universitário do Algarve, E. P. E. (510745997)","Astra - Zeneca - Produtos Farmacêuticos, Lda. (502942240)","33.217,98 €",11-05-2018,05-01-2018,360 dias,"Portugal, Faro, Faro","Artigo 24.º, n.º 1, alínea e) do Código dos Contratos Públicos",,,,,,Não aplicável.,Não aplicável.,FALSE
61/229/2018 Medicamentos Palbociclib 125 mg Cáps,Ajuste Direto Regime Geral,Aquisição de bens móveis,"33690000-3, Medicamentos vários","Centro Hospitalar Universitário do Algarve, E. P. E. (510745997)","Pfizer Biofarmacêutica, Sociedade Unipessoal Lda. (513300376)","210.000,04 €",11-05-2018,24-01-2018,341 dias,"Portugal, Faro, Faro","Artigo 24.º, n.º 1, alínea e) do Código dos Contratos Públicos",,,,,,Não aplicável.,Não aplicável.,FALSE
Perneiras Hidraulicas ( 87/1949/18),Consulta Prévia,Aquisição de bens móveis,"33162000-3, Aparelhos e instrumentos para blocos operatórios","Centro Hospitalar Universitário do Algarve, E. P. E. (510745997)","MEDICINALIA-CORMEDICA, LDA (500684324)","5.550,00 €",11-05-2018,20-04-2018,15 dias,"Portugal, Faro, Portimão","Artigo 20.º, n.º 1, alínea c) do Código dos Contratos Públicos",,,,,,Não aplicável.,Não aplicável.,FALSE
"61/195/2018 Med. Vismodegib 150 mg Cáps, Trastuzumab emtansina de 100 mg e 160 mg",Ajuste Direto Regime Geral,Aquisição de bens móveis,"33690000-3, Medicamentos vários","Centro Hospitalar Universitário do Algarve, E. P. E. (510745997)","Roche Farmacêutica Química, Lda. (500233810)","160.826,76 €",11-05-2018,05-01-2018,360 dias,"Portugal, Faro, Faro","Artigo 24.º, n.º 1, alínea e) do Código dos Contratos Públicos",,,,,,Não aplicável.,Não aplicável.,FALSE
61/196/2018 Medicamentos Pembrolizumab 50 mg Pó conc sol inj Fr IV,Ajuste Direto Regime Geral,Aquisição de bens móveis,"33690000-3, Medicamentos vários","Centro Hospitalar Universitário do Algarve, E. P. E. (510745997)","Merck Sharp & Dohme, Lda. (500191360)","52.500,00 €",11-05-2018,05-01-2018,360 dias,"Portugal, Faro, Faro","Artigo 24.º, n.º 1, alínea e) do Código dos Contratos Públicos",,,,,,Não aplicável.,Não aplicável.,FALSE
"61/194/2018 A.A. 3,5 g/l+Gluc 191,5 g/l+Líp 28,1 g e AA 9 g N + Gluc 110++ Líp 40g  ",Ajuste Direto Regime Geral,Aquisição de bens móveis,"33690000-3, Medicamentos vários","Centro Hospitalar Universitário do Algarve, E. P. E. (510745997)","Baxter Médico Farmacêutica, Lda. (503347345)","34.405,80 €",11-05-2018,05-01-2018,360 dias,"Portugal, Faro, Faro<BR/>Portugal","Artigo 24.º, n.º 1, alínea e) do Código dos Contratos Públicos",,,,,,Não aplicável.,Não aplicável.,FALSE
61/193/2018 Medicamentos Metronidazol 250 mg,Ajuste Direto Regime Geral,Aquisição de bens móveis,"33690000-3, Medicamentos vários","Centro Hospitalar Universitário do Algarve, E. P. E. (510745997)","Laboratórios Vitória, S.A. (500162220)","165,36 €",11-05-2018,05-01-2018,360 dias,"Portugal, Faro, Faro","Artigo 24.º, n.º 1, alínea e) do Código dos Contratos Públicos",,,,,,Não aplicável.,Não aplicável.,FALSE
61/192/2018 Medicamento Ceftolozano 1 g + Tazobactam 0.5 g Pó conc sol inj Fr IV,Ajuste Direto Regime Geral,Aquisição de bens móveis,"33690000-3, Medicamentos vários","Centro Hospitalar Universitário do Algarve, E. P. E. (510745997)","Merck Sharp & Dohme, Lda. (500191360)","7.336,00 €",11-05-2018,05-01-2018,360 dias,"Portugal, Faro, Faro","Artigo 24.º, n.º 1, alínea e) do Código dos Contratos Públicos",,,,,,Não aplicável.,Não aplicável.,FALSE
Proc. 77/1684/2018- Reparação Ecografo GE,Ajuste Direto Regime Geral,Aquisição de serviços,"50421000-2, Serviços de reparação e manutenção de equipamento médico","Centro Hospitalar Universitário do Algarve, E. P. E. (510745997)",GENERAL ELECTRIC PORTUGUESA SA (500357129),"6.821,24 €",11-05-2018,20-03-2018,30 dias,"Portugal, Faro, Faro","Artigo 20.º, n.º 1, alínea d) do Código dos Contratos Públicos",,,,,,Não aplicável.,Não aplicável.,FALSE
"61/190/2018 Medicamentos Benzilpenicilina benzatínica, potássica, sódica e Ampicilina",Ajuste Direto Regime Geral,Aquisição de bens móveis,"33690000-3, Medicamentos vários","Centro Hospitalar Universitário do Algarve, E. P. E. (510745997)",LABORATORIOS ATRAL S.A (500162085),"8.279,92 €",11-05-2018,05-01-2018,360 dias,"Portugal, Faro, Faro","Artigo 24.º, n.º 1, alínea e) do Código dos Contratos Públicos",,,,,,Não aplicável.,Não aplicável.,FALSE
"61/189/2018 Medicamentos Albendazol 400mg, Fenilefrina 2.5mg e 5mg",Ajuste Direto Regime Geral,Aquisição de bens móveis,"33690000-3, Medicamentos vários","Centro Hospitalar Universitário do Algarve, E. P. E. (510745997)",Omega Pharma (506112233),"4.002,40 €",11-05-2018,08-01-2018,357 dias,"Portugal, Faro, Faro","Artigo 24.º, n.º 1, alínea e) do Código dos Contratos Públicos",,,,,,Não aplicável.,Não aplicável.,FALSE
61/188/2018 Medicamentos Adefovir 10 mg comp,Ajuste Direto Regime Geral,Aquisição de bens móveis,"33690000-3, Medicamentos vários","Centro Hospitalar Universitário do Algarve, E. P. E. (510745997)","Gilead Sciences, Lda. (503604704)","3.006,00 €",11-05-2018,05-01-2018,360 dias,"Portugal, Faro, Faro","Artigo 24.º, n.º 1, alínea e) do Código dos Contratos Públicos",,,,,,Não aplicável.,Não aplicável.,FALSE
61/185/2018 Medicamento Ramucirumab 10 mg/ml Sol inj Fr 10 ml IV,Ajuste Direto Regime Geral,Aquisição de bens móveis,"33690000-3, Medicamentos vários","Centro Hospitalar Universitário do Algarve, E. P. E. (510745997)",LILLY PORTUGAL-PROD.FARMAC.LDA (500165602),"23.000,00 €",11-05-2018,05-01-2018,360 dias,"Portugal, Faro, Faro","Artigo 24.º, n.º 1, alínea e) do Código dos Contratos Públicos",,,,,,Não aplicável.,Não aplicável.,FALSE
61/186/2018 Medicamento Acetilcisteína 5000 mg/25ml Sol inj Fr 25 ml IV,Ajuste Direto Regime Geral,Aquisição de bens móveis,"33690000-3, Medicamentos vários","Centro Hospitalar Universitário do Algarve, E. P. E. (510745997)",Zambon Produtos Farmacêuticos Lda. (502155930),"1.438,72 €",11-05-2018,05-01-2018,360 dias,"Portugal, Faro, Faro","Artigo 24.º, n.º 1, alínea e) do Código dos Contratos Públicos",,,,,,Não aplicável.,Não aplicável.,FALSE
61/184/2018 Medicamentos Polistireno sulfonato de cálcio 759 - 949 mg/g Pó susp oral Fr,Ajuste Direto Regime Geral,Aquisição de bens móveis,"33690000-3, Medicamentos vários","Centro Hospitalar Universitário do Algarve, E. P. E. (510745997)","FRESENIUS MEDICAL CARE, S.A.. (503070220)","7.522,50 €",11-05-2018,05-01-2018,334 dias,"Portugal, Faro, Faro","Artigo 24.º, n.º 1, alínea e) do Código dos Contratos Públicos",,,,,,Não aplicável.,Não aplicável.,FALSE
61/183/2018 Medicamentos Cloreto de potássio 149 mg,Ajuste Direto Regime Geral,Aquisição de bens móveis,"33690000-3, Medicamentos vários","Centro Hospitalar Universitário do Algarve, E. P. E. (510745997)","B. Braun Medical, Lda. (501506543)","225,00 €",11-05-2018,08-01-2018,357 dias,"Portugal, Faro, Faro","Artigo 24.º, n.º 1, alínea e) do Código dos Contratos Públicos",,,,,,Não aplicável.,Não aplicável.,FALSE
"61/182/2018 Citrato sódio 38 mg, Bicarbonato sódio 1000 mg, Carbonato cálcio 500 e 1000",Ajuste Direto Regime Geral,Aquisição de bens móveis,"33690000-3, Medicamentos vários","Centro Hospitalar Universitário do Algarve, E. P. E. (510745997)","LABESFAL, Laboratório Almiro S.A. (501169580)","3.746,10 €",11-05-2018,05-01-2018,334 dias,"Portugal, Faro, Faro","Artigo 24.º, n.º 1, alínea e) do Código dos Contratos Públicos",,,,,,Não aplicável.,Não aplicável.,FALSE
62/2008/2018 - Aquisição Cardioversor Desf. 1 Câmara (CDI-VR)Gerador sem electrodo,Ajuste Direto Regime Geral,Aquisição de bens móveis,"33123210-3, Aparelhos para monitorização cardíaca","Centro Hospitalar Universitário do Algarve, E. P. E. (510745997)","BIOTRONIK PORTUGAL, UNIPESSOAL LDA. (510726941)","7.000,00 €",10-05-2018,19-04-2018,5 dias,"Portugal, Faro, Faro<BR/>Portugal, Faro, Portimão<BR/>Portugal, Faro, Lagos","Artigo 24.º, n.º 1, alínea e), subalínea iii) do Código dos Contratos Públicos",,,,,,Não aplicável.,Não aplicável.,FALSE
AQUISIÇÃO DE BALÃO PARA ECOENDOSCÓPIO DESCARTÁVEL LINEAR,Ajuste Direto Regime Geral,Aquisição de bens móveis,"33140000-3, Material médico de consumo","Centro Hospitalar Universitário do Algarve, E. P. E. (510745997)",OLYMPUS IBERIA (980474710),"1.151,90 €",10-05-2018,02-05-2018,250 dias,"Portugal, Faro, Portimão<BR/>Portugal, Faro, Lagos<BR/>Portugal, Faro, Faro","Artigo 22.º, n.º 1, alínea a) do Código dos Contratos Públicos",,,,,,Não aplicável.,Não aplicável.,FALSE
AQUISIÇÃO DE AGULHA PRÉ-NATAL P/ BIÓPSIA DAS VILOSIDADES CORIÓNICAS 18G (BI,Ajuste Direto Regime Geral,Aquisição de bens móveis,"33140000-3, Material médico de consumo","Centro Hospitalar Universitário do Algarve, E. P. E. (510745997)","CATETER PRODUTOS MEDICOS E HOSPITALARES, LDA (502914319)","1.440,00 €",10-05-2018,04-05-2018,262 dias,"Portugal, Faro, Faro<BR/>Portugal, Faro, Lagos<BR/>Portugal, Faro, Portimão","Artigo 24.º, n.º 1, alínea b) do Código dos Contratos Públicos",,,,,,Não aplicável.,Não aplicável.,FALSE
"AQUISIÇÃO DE FIO SUT. POLIDIAXAN, ABS. LONGA, 1 MONOF., AG. CILIND. 48MM,  ",Consulta Prévia,Aquisição de bens móveis,"33140000-3, Material médico de consumo","Centro Hospitalar Universitário do Algarve, E. P. E. (510745997)","B. BRAUN MEDICAL, LDA. (501506543)","277,20 €",10-05-2018,02-05-2018,244 dias,"Portugal, Faro, Portimão<BR/>Portugal, Faro, Faro<BR/>Portugal, Faro, Lagos","Artigo 20.º, n.º 1, alínea c) do Código dos Contratos Públicos",,,,,,Não aplicável.,Não aplicável.,FALSE
"AQUISIÇÃO DE LÂMINA PDS  0,15MMX40MMX50MM",Ajuste Direto Regime Geral,Aquisição de bens móveis,"33140000-3, Material médico de consumo","Centro Hospitalar Universitário do Algarve, E. P. E. (510745997)","JOHNSON & JOHNSON, LDA (500153370)","1.658,76 €",09-05-2018,23-04-2018,252 dias,"Portugal, Faro, Portimão<BR/>Portugal, Faro, Lagos<BR/>Portugal, Faro, Faro","Artigo 20.º, n.º 1, alínea d) do Código dos Contratos Públicos",,,,,,Não aplicável.,Não aplicável.,FALSE
AQUISIÇÃO DE FIO SUT. POLIPROP. NÃO ABS. 10/0 MONOF. AZUL C/ 2 AG. ESPAT. 8,Ajuste Direto Regime Geral,Aquisição de bens móveis,"33140000-3, Material médico de consumo","Centro Hospitalar Universitário do Algarve, E. P. E. (510745997)",ALCON PORTUGAL - PRODUTOS  EQUIP OFTALMOLOGICOS LDA (501251685),"200,00 €",09-05-2018,18-04-2018,257 dias,"Portugal, Faro, Lagos<BR/>Portugal, Faro, Portimão<BR/>Portugal, Faro, Faro","Artigo 20.º, n.º 1, alínea d) do Código dos Contratos Públicos",,,,,,Não aplicável.,Não aplicável.,FALSE
"AQUISIÇÃO DE CANULA INTRAV. RADIOPACA C/ VALV INJECÇÃO 24 G 07/19MM, 22ML M",Ajuste Direto Regime Geral,Aquisição de bens móveis,"33140000-3, Material médico de consumo","Centro Hospitalar Universitário do Algarve, E. P. E. (510745997)","B. BRAUN MEDICAL, LDA. (501506543)","150,00 €",09-05-2018,27-04-2018,262 dias,"Portugal, Faro, Faro<BR/>Portugal, Faro, Portimão<BR/>Portugal, Faro, Lagos","Artigo 20.º, n.º 1, alínea d) do Código dos Contratos Públicos",,,,,,Não aplicável.,Não aplicável.,FALSE
Proc. 67/1363/2018- Fornetº Equip.Ar Cond. e Forntº de acessorios p/ reparação de Ar Cond.-Faro,Ajuste Direto Regime Geral,Aquisição de bens móveis,"42512000-8, Instalações de ar condicionado","Centro Hospitalar Universitário do Algarve, E. P. E. (510745997)","Veolia, S.A. (502876581)","12.652,13 €",09-05-2018,04-04-2018,85 dias,"Portugal, Faro, Faro","Artigo 24.º, n.º 1, alínea e), subalínea ii) do Código dos Contratos Públicos",,,,,,Não aplicável.,Não aplicável.,FALSE
- AQUISIÇÃO DE COLETE DE IMOBILIZAÇAO S,Ajuste Direto Regime Geral,Aquisição de bens móveis,"33140000-3, Material médico de consumo","Centro Hospitalar Universitário do Algarve, E. P. E. (510745997)",Factor Plus (502810645),"130,00 €",09-05-2018,05-04-2018,270 dias,"Portugal, Faro, Lagos<BR/>Portugal, Faro, Portimão<BR/>Portugal, Faro, Faro","Artigo 20.º, n.º 1, alínea d) do Código dos Contratos Públicos",,,,,,Não aplicável.,Não aplicável.,FALSE
AQUISIÇÃO DE KIT DE NEFROSTOMIA/DRENAGEM 16FR,Ajuste Direto Regime Geral,Aquisição de bens móveis,"33140000-3, Material médico de consumo","Centro Hospitalar Universitário do Algarve, E. P. E. (510745997)","CATETER PRODUTOS MEDICOS E HOSPITALARES, LDA (502914319)","3.600,00 €",09-05-2018,13-04-2018,270 dias,"Portugal, Faro, Portimão<BR/>Portugal, Faro, Lagos<BR/>Portugal, Faro, Faro","Artigo 20.º, n.º 1, alínea d) do Código dos Contratos Públicos",,,,,,Não aplicável.,Não aplicável.,FALSE
67/0941/2018- Fornecitºe Montagem de Sist.Distribuição Gases Medicinais-Unid.Portimão,Ajuste Direto Regime Geral,Aquisição de serviços,"50531000-6, Serviços de reparação e manutenção de máquinas não eléctricas","Centro Hospitalar Universitário do Algarve, E. P. E. (510745997)","AIR LIQUIDE MEDICINAL,S A (501576436)","20.021,24 €",09-05-2018,27-02-2018,60 dias,"Portugal, Faro, Portimão","Artigo 24.º, n.º 1, alínea e), subalínea i) do Código dos Contratos Públicos",,,,,,Não aplicável.,Não aplicável.,FALSE
Aquisição de Set Maxilo Facial,Ajuste Direto Regime Geral,Aquisição de bens móveis,"33140000-3, Material médico de consumo","Centro Hospitalar Universitário do Algarve, E. P. E. (510745997)",Osteoplac (B-20595989),"15.000,00 €",09-05-2018,21-02-2018,313 dias,"Portugal, Faro, Portimão<BR/>Portugal, Faro, Faro<BR/>Portugal, Faro, Lagos","Artigo 20.º, n.º 1, alínea d) do Código dos Contratos Públicos",,,,,,Não aplicável.,Não aplicável.,FALSE
Proc. 88/0802/2018- Substituição de Pavimento Vinilico-Unid.Faro,Consulta Prévia,Aquisição de serviços,"50800000-3, Serviços de reparação e manutenção diversos","Centro Hospitalar Universitário do Algarve, E. P. E. (510745997)","Imoart - Arte e Decorações,  Lda. (501336877)","9.138,50 €",09-05-2018,17-04-2018,30 dias,"Portugal, Faro, Faro","Artigo 20.º, n.º 1, alínea c) do Código dos Contratos Públicos",,,,,,Não aplicável.,Não aplicável.,FALSE
AQUISIÇÃO DE MATERIAL DE OFTALMOLOGIA,Ajuste Direto Regime Geral,Aquisição de bens móveis,"33140000-3, Material médico de consumo","Centro Hospitalar Universitário do Algarve, E. P. E. (510745997)",Bausch & Lomb (980218764),"11.907,00 €",09-05-2018,29-01-2018,336 dias,"Portugal, Faro, Faro<BR/>Portugal, Faro, Lagos<BR/>Portugal, Faro, Portimão","Artigo 20.º, n.º 1, alínea d) do Código dos Contratos Públicos",,,,,,Não aplicável.,Não aplicável.,FALSE
Aquisição de material de consumo clinico,Ajuste Direto Regime Geral,Aquisição de bens móveis,"33140000-3, Material médico de consumo","Centro Hospitalar Universitário do Algarve, E. P. E. (510745997)","MEDTRONIC PORTUGAL, LDA. (504223933)","8.001,53 €",09-05-2018,26-02-2018,316 dias,"Portugal, Faro, Lagos<BR/>Portugal, Faro, Faro<BR/>Portugal, Faro, Portimão","Artigo 20.º, n.º 1, alínea d) do Código dos Contratos Públicos",,,,,,Não aplicável.,Não aplicável.,FALSE
Prestação de Serviços Médicos de Ortopedia- Junho 2017,Ajuste Direto Regime Geral,Aquisição de serviços,"85121283-0, Serviços de ortopedia","Centro Hospitalar Universitário do Algarve, E. P. E. (510745997)",Kelly Healthcare Resourses (510723691),"28.566,00 €",07-05-2018,29-03-2018,30 dias,"Portugal, Faro, Faro","Artigo 24.º, n.º 1, alínea e), subalínea ii) do Código dos Contratos Públicos",,,,,,Não aplicável.,Não aplicável.,FALSE
Aq. de Serviços Médicos de Ortopedia- julho 2017,Ajuste Direto Regime Geral,Aquisição de serviços,"85121283-0, Serviços de ortopedia","Centro Hospitalar Universitário do Algarve, E. P. E. (510745997)",Kelly Healthcare Resourses (510723691),"22.085,28 €",07-05-2018,13-04-2018,30 dias,"Portugal, Faro, Faro","Artigo 24.º, n.º 1, alínea e), subalínea ii) do Código dos Contratos Públicos",,,,,,Não aplicável.,Não aplicável.,FALSE
62/2151/2018 AQUISIÇÃO DE PAPEL CELOFANE MAQ. EMPACOTAR COMPRIMIDOS KRZ MULTIBLIST,Ajuste Direto Regime Geral,Aquisição de bens móveis,"33140000-3, Material médico de consumo","Centro Hospitalar Universitário do Algarve, E. P. E. (510745997)",AVIQUIMICA IMPORT E MANUFATURA (500039720),"8.800,00 €",04-05-2018,27-04-2018,245 dias,"Portugal, Faro, Faro","Artigo 24.º, n.º 1, alínea e), subalínea iii) do Código dos Contratos Públicos",,,,,,Não aplicável.,Não aplicável.,FALSE
Prestação de Serviços Médicos de Pediatria,Ajuste Direto Regime Geral,Aquisição de serviços,"85121291-9, Serviços de pediatria","Centro Hospitalar Universitário do Algarve, E. P. E. (510745997)",Kelly Healthcare Resourses (510723691),"60.720,00 €",03-05-2018,01-02-2018,334 dias,"Portugal, Faro, Portimão","Artigo 24.º, n.º 1, alínea b) do Código dos Contratos Públicos",,,,,,Não aplicável.,Não aplicável.,FALSE
Cat Equip Cardiologia ( 68/1189/18),Ajuste Direto Regime Geral,Aquisição de serviços,"50420000-5, Serviços de reparação e manutenção de equipamento médico e cirúrgico","Centro Hospitalar Universitário do Algarve, E. P. E. (510745997)","SIEMENS HEALTHCARE, LDA (507925173)","14.386,30 €",02-05-2018,09-04-2018,180 dias,"Portugal, Faro, Faro","Artigo 24.º, n.º 1, alínea e), subalínea iii) do Código dos Contratos Públicos",,,,,,Não aplicável.,Não aplicável.,FALSE
