Objeto do Contrato,Tipo de Procedimento,Tipo(s) de Contrato,CPVs,Entidade(s) Adjudicante(s),Entidade(s) Adjudicatária(s),Preço Contratual,Data de Publicação,Data de Celebração do Contrato,Prazo de Execução,Local de Execução,Fundamentação,Data de Fecho do Contrato,Preço Total Efetivo,Causas das Alterações ao Prazo,Causas das Alterações ao Preço,Estado,N.º registo do Acordo Quadro,Descrição do Acordo Quadro,Procedimento Centralizado
2329618 Aquisição para Consumíveis para Versapoint,Ajuste Direto Regime Geral,Aquisição de bens móveis,"33100000-1, Equipamento médico","Centro Hospitalar Vila Nova de Gaia - Espinho, E. P. E. (508142156)",Johnson & Johnson (500153370),"29.993,60 €",10-08-2018,02-08-2018,120 dias,"Portugal, Porto, Vila Nova de Gaia","Artigo 24.º, n.º 1, alínea e), subalínea ii) do Código dos Contratos Públicos",,,,,,Não aplicável.,Não aplicável.,FALSE
1361618-Multivitaminas lipossolúveis  CPA 2018/4,Ao abrigo de acordo-quadro (art.º 259.º),Aquisição de bens móveis,"33600000-6, Produtos farmacêuticos","Centro Hospitalar Vila Nova de Gaia - Espinho, E. P. E. (508142156)",fresenius kabi (504293753),"2.332,40 €",10-08-2018,26-07-2018,150 dias,"Portugal, Porto, Vila Nova de Gaia",Artigo 259.º do Código dos Contratos Públicos,,,,,,3359042,Medicamentos para Nutrição Parentérica,FALSE
1345918 - Ribavirina 200 mg comp.,Ao abrigo de acordo-quadro (art.º 259.º),Aquisição de bens móveis,"33600000-6, Produtos farmacêuticos","Centro Hospitalar Vila Nova de Gaia - Espinho, E. P. E. (508142156)",Generis (508107997),"3.348,00 €",10-08-2018,19-07-2018,150 dias,"Portugal, Porto, Vila Nova de Gaia",Artigo 259.º do Código dos Contratos Públicos,,,,,,3023927,CP 2017/67 - Medicamentos para a Hepatite C crónica,FALSE
1385818 - Alcool isopropíl.450 mg/g+Álc.propíl.300 mg/g+E.mecetrónio 2 mg/g Solcut Fr 100ml e 500ml,Ao abrigo de acordo-quadro (art.º 259.º),Aquisição de bens móveis,"33600000-6, Produtos farmacêuticos","Centro Hospitalar Vila Nova de Gaia - Espinho, E. P. E. (508142156)",paul hartmann (502271728),"5.310,00 €",10-08-2018,09-08-2018,150 dias,"Portugal, Porto, Vila Nova de Gaia",Artigo 259.º do Código dos Contratos Públicos,,,,,,1406003,CP 2015/8,FALSE
1383118 - Ibuprofeno 20 mg/ml susp. Oral fr 200 ml,Ao abrigo de acordo-quadro (art.º 259.º),Aquisição de bens móveis,"33600000-6, Produtos farmacêuticos","Centro Hospitalar Vila Nova de Gaia - Espinho, E. P. E. (508142156)",medinfar (500384045),"324,00 €",10-08-2018,09-08-2018,150 dias,"Portugal, Porto, Vila Nova de Gaia",Artigo 259.º do Código dos Contratos Públicos,,,,,,2850371,"CP 2017/51 - Acordo Quadro para fornecimento de Medicamentos usados nas afeções cutâneas, às Instituições e Serviços do Serviço Nacional de Saúde",FALSE
Aquisição de Òxido Nitrico  450 pm mol/mol Gás Inal Cilind. Gás 20I,Ajuste Direto Regime Geral,Aquisição de bens móveis,"33600000-6, Produtos farmacêuticos","Centro Hospitalar Vila Nova de Gaia - Espinho, E. P. E. (508142156)","Air Liquide Medicinal, S.A. (501576436)","16.200,00 €",10-08-2018,09-08-2018,150 dias,"Portugal, Porto, Vila Nova de Gaia","Artigo 24.º, n.º 1, alínea e), subalínea ii) do Código dos Contratos Públicos",,,,,,Não aplicável.,Não aplicável.,FALSE
"Aquisição de etiquetas, fitas e pulseiras",Consulta Prévia,Aquisição de bens móveis,"30199000-0, Artigos de papelaria e outros artigos de papel","Centro Hospitalar Vila Nova de Gaia - Espinho, E. P. E. (508142156)",MARCOS DE AZEVEDO DIAS (108701476),"26.376,12 €",10-08-2018,31-07-2018,150 dias,"Portugal, Porto, Vila Nova de Gaia","Artigo 20.º, n.º 1, alínea c) do Código dos Contratos Públicos",,,,,,Não aplicável.,Não aplicável.,FALSE
Amoxicilina 250 mg/5 ml pó susp fr 100 ml,Ao abrigo de acordo-quadro (art.º 259.º),Aquisição de bens móveis,"33600000-6, Produtos farmacêuticos",Centro Hospitalar Vila Nova de Gaia (CHNVG) (508142156),glaxo (500139962),"58,80 €",10-08-2018,09-08-2018,150 dias,"Portugal, Porto, Vila Nova de Gaia",Artigo 259.º do Código dos Contratos Públicos,,,,,,2775691,CP 2017/5 - Acordo Quadro para fornecimento de Medicamentos anti-infeciosos: exceto antivíricos e antifúngicos,FALSE
1379018 - Lidocaína 20 mg/g gel bisn 30 g,Ao abrigo de acordo-quadro (art.º 259.º),Aquisição de bens móveis,"33600000-6, Produtos farmacêuticos","Centro Hospitalar Vila Nova de Gaia - Espinho, E. P. E. (508142156)",Sidefarma (500717419),"3.300,00 €",10-08-2018,08-08-2018,150 dias,"Portugal, Porto, Vila Nova de Gaia",Artigo 259.º do Código dos Contratos Públicos,,,,,,2850371,"CP 2017/51 - Acordo Quadro para fornecimento de Medicamentos usados nas afeções cutâneas, às Instituições e Serviços do Serviço Nacional de Saúde",FALSE
"1347118a - Flumazenilo 0,1 mg /ml Sol Inj Fr 5 ml IV ",Ao abrigo de acordo-quadro (art.º 259.º),Aquisição de bens móveis,"33600000-6, Produtos farmacêuticos","Centro Hospitalar Vila Nova de Gaia - Espinho, E. P. E. (508142156)",accord (508622263),"402,00 €",10-08-2018,24-07-2018,150 dias,"Portugal, Porto, Vila Nova de Gaia",Artigo 259.º do Código dos Contratos Públicos,,,,,,2775699,"CP 2017/50 - Medicação antialérgica, vitaminas e sais minerais, medicamentos usados no tratamento de intoxicações e grupo 20.9",FALSE
1349918 - Fluorouracilo 50 mg/ml sol Inj fr 100 ml,Ao abrigo de acordo-quadro (art.º 259.º),Aquisição de bens móveis,"33600000-6, Produtos farmacêuticos","Centro Hospitalar Vila Nova de Gaia - Espinho, E. P. E. (508142156)",accord (508622263),"6.242,40 €",10-08-2018,24-07-2018,150 dias,"Portugal, Porto, Vila Nova de Gaia",Artigo 259.º do Código dos Contratos Públicos,,,,,,2969238,"CP 2017/6 - Acordo Quadro para fornecimento de Medicamentos do Foro Oncológico e Imunomoduladores, às Instituições e Serviços do Serviço Nacional de Saúde",FALSE
1365718 - Desferrasirox comp (2 dosagens),Ao abrigo de acordo-quadro (art.º 259.º),Aquisição de bens móveis,"33600000-6, Produtos farmacêuticos",Centro Hospitalar Vila Nova de Gaia (CHNVG) (508142156),novartis (500063524),"16.001,37 €",10-08-2018,02-08-2018,150 dias,"Portugal, Porto, Vila Nova de Gaia",Artigo 259.º do Código dos Contratos Públicos,,,,,,2556987,"CP 2017/65 - Acordo Quadro para fornecimento de Medicamentos de Várias áreas Terapêuticas, às Instituições e Serviços do Serviço Nacional de Saúde",FALSE
1381518 - Tizanidina 2 mg Comp,Ao abrigo de acordo-quadro (art.º 259.º),Aquisição de bens móveis,"33600000-6, Produtos farmacêuticos","Centro Hospitalar Vila Nova de Gaia - Espinho, E. P. E. (508142156)",Teva (507045491),"37,00 €",10-08-2018,08-08-2018,150 dias,"Portugal, Porto, Vila Nova de Gaia",Artigo 259.º do Código dos Contratos Públicos,,,,,,2211341,Medicamentos anestésicos e relaxantes musculares,FALSE
1377518 - Hidroxicarbamida 500 mg Cáps,Ao abrigo de acordo-quadro (art.º 259.º),Aquisição de bens móveis,"33600000-6, Produtos farmacêuticos","Centro Hospitalar Vila Nova de Gaia - Espinho, E. P. E. (508142156)",HIKMA  (502266791),"11.615,85 €",10-08-2018,03-08-2018,150 dias,"Portugal, Porto, Vila Nova de Gaia",Artigo 259.º do Código dos Contratos Públicos,,,,,,2969238,"CP 2017/6 - Acordo Quadro para fornecimento de Medicamentos do Foro Oncológico e Imunomoduladores, às Instituições e Serviços do Serviço Nacional de Saúde",FALSE
1373918 - Medicamentos do aparelho cardiovascular,Ao abrigo de acordo-quadro (art.º 259.º),Aquisição de bens móveis,"33600000-6, Produtos farmacêuticos","Centro Hospitalar Vila Nova de Gaia - Espinho, E. P. E. (508142156)",generis (508107997),"236,00 €",10-08-2018,01-08-2018,150 dias,"Portugal, Porto, Vila Nova de Gaia",Artigo 259.º do Código dos Contratos Públicos,,,,,,2335591,CP 2016/01 - Acordo Quadro para fornecimento de Medicamentos do Aparelho Cardiovascular   às Instituições e Serviços do Serviço Nacional de Saúde,FALSE
1344218 - Iodopovidona 100 mg/g Pom Bisn 100g,Ao abrigo de acordo-quadro (art.º 259.º),Aquisição de bens móveis,"33600000-6, Produtos farmacêuticos","Centro Hospitalar Vila Nova de Gaia - Espinho, E. P. E. (508142156)",Mylan (502248793),"1.125,00 €",10-08-2018,27-07-2018,150 dias,"Portugal, Porto, Vila Nova de Gaia",Artigo 259.º do Código dos Contratos Públicos,,,,,,1406003,CP 2015/8,FALSE
1377818 - Oxido de zinco 150 mg/g Pom Bisn 50 g,Ao abrigo de acordo-quadro (art.º 259.º),Aquisição de bens móveis,"33600000-6, Produtos farmacêuticos","Centro Hospitalar Vila Nova de Gaia - Espinho, E. P. E. (508142156)",medinfar (500384045),"4.370,00 €",10-08-2018,03-08-2018,150 dias,"Portugal, Porto, Vila Nova de Gaia",Artigo 259.º do Código dos Contratos Públicos,,,,,,2850371,"CP 2017/51 - Acordo Quadro para fornecimento de Medicamentos usados nas afeções cutâneas, às Instituições e Serviços do Serviço Nacional de Saúde",FALSE
Aquisição de reagentes Para rastreio Pré-Natal,Ajuste Direto Regime Geral,Aquisição de bens móveis,"33696000-5, Reagentes e meios de contraste","Centro Hospitalar Vila Nova de Gaia - Espinho, E. P. E. (508142156)","Roche Sistemas de Diagnóstico, Lda. (504282921)","14.000,00 €",09-08-2018,06-08-2018,150 dias,"Portugal, Porto, Vila Nova de Gaia","Artigo 24.º, n.º 1, alínea e), subalínea ii) do Código dos Contratos Públicos",,,,,,Não aplicável.,Não aplicável.,FALSE
"1373818 - Dornase alfa 2,5 mg/2,5 ml Sol inal neb Fr 2,5 ml ",Ao abrigo de acordo-quadro (art.º 259.º),Aquisição de bens móveis,"33600000-6, Produtos farmacêuticos","Centro Hospitalar Vila Nova de Gaia - Espinho, E. P. E. (508142156)",Roche (500233810),"1.593,00 €",09-08-2018,02-08-2018,150 dias,"Portugal, Porto, Vila Nova de Gaia",Artigo 259.º do Código dos Contratos Públicos,,,,,,2124520,CP 2016/55 - Medicamentos Diversos,FALSE
1377418 - Diversos artigos de material de penso de efeito terapêutico,Ao abrigo de acordo-quadro (art.º 259.º),Aquisição de bens móveis,"33600000-6, Produtos farmacêuticos","Centro Hospitalar Vila Nova de Gaia - Espinho, E. P. E. (508142156)",CLINIFAR (503281115),"2.360,00 €",09-08-2018,03-08-2018,150 dias,"Portugal, Porto, Vila Nova de Gaia",Artigo 259.º do Código dos Contratos Públicos,,,,,,1315192,Acordo Quadro para fornecimento de material de penso de efeito terapêutico às Instituições e Serviços do Serviço Nacional de Saúde,FALSE
1377418 - Diversos artigos de material de penso de efeito terapêutico,Ao abrigo de acordo-quadro (art.º 259.º),Aquisição de bens móveis,"33600000-6, Produtos farmacêuticos","Centro Hospitalar Vila Nova de Gaia - Espinho, E. P. E. (508142156)",KVTech Portugal (508671531),"3.425,40 €",09-08-2018,03-08-2018,150 dias,"Portugal, Porto, Vila Nova de Gaia",Artigo 259.º do Código dos Contratos Públicos,,,,,,1315192,Acordo Quadro para fornecimento de material de penso de efeito terapêutico às Instituições e Serviços do Serviço Nacional de Saúde,FALSE
1377418 - Diversos artigos de material de penso de efeito terapêutico,Ao abrigo de acordo-quadro (art.º 259.º),Aquisição de bens móveis,"33600000-6, Produtos farmacêuticos","Centro Hospitalar Vila Nova de Gaia - Espinho, E. P. E. (508142156)","Smith & Nephew, Lda (503552461)","1.990,80 €",09-08-2018,03-08-2018,150 dias,"Portugal, Porto, Vila Nova de Gaia",Artigo 259.º do Código dos Contratos Públicos,,,,,,1315192,Acordo Quadro para fornecimento de material de penso de efeito terapêutico às Instituições e Serviços do Serviço Nacional de Saúde,FALSE
1377418 - Diversos artigos de material de penso de efeito terapêutico,Ao abrigo de acordo-quadro (art.º 259.º),Aquisição de bens móveis,"33600000-6, Produtos farmacêuticos","Centro Hospitalar Vila Nova de Gaia - Espinho, E. P. E. (508142156)","Smith & Nephew, Lda (503552461)","1.990,80 €",09-08-2018,03-08-2018,150 dias,"Portugal, Porto, Vila Nova de Gaia",Artigo 259.º do Código dos Contratos Públicos,,,,,,1315192,Acordo Quadro para fornecimento de material de penso de efeito terapêutico às Instituições e Serviços do Serviço Nacional de Saúde,FALSE
1381618 - Aquisição de Tiamina 100 mg comp,Ao abrigo de acordo-quadro (art.º 259.º),Aquisição de bens móveis,"33600000-6, Produtos farmacêuticos","Centro Hospitalar Vila Nova de Gaia - Espinho, E. P. E. (508142156)",labesfal (501169580),"1.003,50 €",09-08-2018,08-08-2018,150 dias,"Portugal, Porto, Vila Nova de Gaia",Artigo 259.º do Código dos Contratos Públicos,,,,,,2775699,"CP 2017/50 - Medicação antialérgica, vitaminas e sais minerais, medicamentos usados no tratamento de intoxicações e grupo 20.9",FALSE
CP 2005618 - Aquisição de Luvas para Uso Médico,Concurso público,Aquisição de bens móveis,"33141420-0, Luvas para cirurgia",Centro Hospitalar Vila Nova de Gaia (CHNVG) (508142156),H.R.-PRODUTOS QUIMICOS LDA (501895558),"34.512,42 €",09-08-2018,18-07-2018,160 dias,"Portugal, Porto, Vila Nova de Gaia","Artigo 20.º, n.º 1, alínea b) do Código dos Contratos Públicos",,,,,,Não aplicável.,Não aplicável.,FALSE
CP 2005618 - Aquisição de Luvas para Uso Médico,Concurso público,Aquisição de bens móveis,"33141420-0, Luvas para cirurgia",Centro Hospitalar Vila Nova de Gaia (CHNVG) (508142156),"EZEQUIEL PANÃO JORGE, LDA (501412727)","14.846,10 €",09-08-2018,18-07-2018,160 dias,"Portugal, Porto, Vila Nova de Gaia","Artigo 20.º, n.º 1, alínea b) do Código dos Contratos Públicos",,,,,,Não aplicável.,Não aplicável.,FALSE
1370118 - Hidrocoloide c/ rebordo 10 cm x 10 cm apósito,Ao abrigo de acordo-quadro (art.º 259.º),Aquisição de bens móveis,"33600000-6, Produtos farmacêuticos","Centro Hospitalar Vila Nova de Gaia - Espinho, E. P. E. (508142156)",quilaban (500399670),"469,35 €",09-08-2018,31-07-2018,150 dias,"Portugal, Porto, Vila Nova de Gaia",Artigo 259.º do Código dos Contratos Públicos,,,,,,1315192,Acordo Quadro para fornecimento de material de penso de efeito terapêutico às Instituições e Serviços do Serviço Nacional de Saúde,FALSE
1360618- Aciclovir 30 mg/g Pom oft Bisn 4.5 g,Ao abrigo de acordo-quadro (art.º 259.º),Aquisição de bens móveis,"33600000-6, Produtos farmacêuticos","Centro Hospitalar Vila Nova de Gaia - Espinho, E. P. E. (508142156)",glaxos (500139962),"184,40 €",09-08-2018,26-07-2018,150 dias,"Portugal, Porto, Vila Nova de Gaia",Artigo 259.º do Código dos Contratos Públicos,,,,,,2124520,CP 2016/55 - Medicamentos Diversos,FALSE
1360818- Diversos medicamentos do foro oncologico e imunomodulares,Ao abrigo de acordo-quadro (art.º 259.º),Aquisição de bens móveis,"33600000-6, Produtos farmacêuticos",Centro Hospitalar Vila Nova de Gaia (CHNVG) (508142156),pharmakern (507002571),"55.275,00 €",09-08-2018,24-07-2018,150 dias,"Portugal, Porto, Vila Nova de Gaia",Artigo 259.º do Código dos Contratos Públicos,,,,,,2969238,"CP 2017/6 - Acordo Quadro para fornecimento de Medicamentos do Foro Oncológico e Imunomoduladores, às Instituições e Serviços do Serviço Nacional de Saúde",FALSE
1360818- Diversos medicamentos do foro oncologico e imunomodulares,Ao abrigo de acordo-quadro (art.º 259.º),Aquisição de bens móveis,"33600000-6, Produtos farmacêuticos",Centro Hospitalar Vila Nova de Gaia (CHNVG) (508142156),bayer (500043256),"31.200,00 €",09-08-2018,24-07-2018,150 dias,"Portugal, Porto, Vila Nova de Gaia",Artigo 259.º do Código dos Contratos Públicos,,,,,,2969238,"CP 2017/6 - Acordo Quadro para fornecimento de Medicamentos do Foro Oncológico e Imunomoduladores, às Instituições e Serviços do Serviço Nacional de Saúde",FALSE
Aquisição de Belimumab 400 mg Pó Conc. Sol. Inj. Fr. IV,Ao abrigo de acordo-quadro (art.º 259.º),Aquisição de bens móveis,"33600000-6, Produtos farmacêuticos","Centro Hospitalar Vila Nova de Gaia - Espinho, E. P. E. (508142156)","Glaxosmithkline, Lda. (500139962)","5.664,62 €",09-08-2018,01-08-2018,150 dias,"Portugal, Porto, Vila Nova de Gaia",Artigo 259.º do Código dos Contratos Públicos,,,,,,2969238,"CP 2017/6 - Acordo Quadro para fornecimento de Medicamentos do Foro Oncológico e Imunomoduladores, às Instituições e Serviços do Serviço Nacional de Saúde",FALSE
Aquisição de Betametasona 1 mg/g Cr Bisn 30 g,Ao abrigo de acordo-quadro (art.º 259.º),Aquisição de bens móveis,"33600000-6, Produtos farmacêuticos","Centro Hospitalar Vila Nova de Gaia - Espinho, E. P. E. (508142156)","Merck Sharp & Dohme, Lda. (500191360)","222,00 €",09-08-2018,26-07-2018,150 dias,"Portugal, Porto, Vila Nova de Gaia",Artigo 259.º do Código dos Contratos Públicos,,,,,,2850371,"CP 2017/51 - Acordo Quadro para fornecimento de Medicamentos usados nas afeções cutâneas, às Instituições e Serviços do Serviço Nacional de Saúde",FALSE
2387218	Aquisição de Escovilhão Reutilizavel de limpeza de endoscópios,Ajuste Direto Regime Geral,Aquisição de bens móveis,"33100000-1, Equipamento médico","Centro Hospitalar Vila Nova de Gaia - Espinho, E. P. E. (508142156)","Olympus Ibéria, S.A.U. - Suc. em Portugal (980474710)","2.598,75 €",08-08-2018,08-08-2018,30 dias,"Portugal, Porto, Vila Nova de Gaia","Artigo 24.º, n.º 1, alínea c) do Código dos Contratos Públicos",,,,,,Não aplicável.,Não aplicável.,FALSE
Aquisição de impressos,Consulta Prévia,Aquisição de bens móveis,"22000000-0, Material impresso e afins","Centro Hospitalar Vila Nova de Gaia - Espinho, E. P. E. (508142156)",Mota & Ferreira (500841608),"44.574,14 €",08-08-2018,27-07-2018,120 dias,"Portugal, Porto, Vila Nova de Gaia","Artigo 20.º, n.º 1, alínea c) do Código dos Contratos Públicos",,,,,,Não aplicável.,Não aplicável.,FALSE
Aquisição de Trabectedina Várias Dosagens,Ao abrigo de acordo-quadro (art.º 259.º),Aquisição de bens móveis,"33600000-6, Produtos farmacêuticos","Centro Hospitalar Vila Nova de Gaia - Espinho, E. P. E. (508142156)","Logifarma, Logistica Farmacêutica, S.A. (503934640)","20.892,20 €",08-08-2018,21-06-2018,180 dias,"Portugal, Porto, Vila Nova de Gaia",Artigo 259.º do Código dos Contratos Públicos,,,,,,2969238,"CP 2017/6 - Acordo Quadro para fornecimento de Medicamentos do Foro Oncológico e Imunomoduladores, às Instituições e Serviços do Serviço Nacional de Saúde",FALSE
Aquisição de Tretabenazina 25 mg Comp.,Ao abrigo de acordo-quadro (art.º 259.º),Aquisição de bens móveis,"33600000-6, Produtos farmacêuticos","Centro Hospitalar Vila Nova de Gaia - Espinho, E. P. E. (508142156)","Pharmis Biofarmacêutica, Lda. (502595442)","2.131,58 €",08-08-2018,23-07-2018,150 dias,"Portugal, Porto, Vila Nova de Gaia",Artigo 259.º do Código dos Contratos Públicos,,,,,,2356543,CP 2016/19 - Medicamentos Antipsicóticos,FALSE
CP 2005618 - Aquisição de Luvas para Uso Médico,Concurso público,Aquisição de bens móveis,"33141420-0, Luvas para cirurgia",Centro Hospitalar Vila Nova de Gaia (CHNVG) (508142156),"Raclac, Lda (507992822)","168.804,40 €",08-08-2018,18-07-2018,160 dias,"Portugal, Porto, Vila Nova de Gaia","Artigo 20.º, n.º 1, alínea b) do Código dos Contratos Públicos",,,,,,Não aplicável.,Não aplicável.,FALSE
2379418	Aquisição de Luva Plástica Esterilizada,Ajuste Direto Regime Geral,Aquisição de bens móveis,"33100000-1, Equipamento médico","Centro Hospitalar Vila Nova de Gaia - Espinho, E. P. E. (508142156)","ALBINO DIAS ANDRADE,LDA (500013810)","1.025,00 €",08-08-2018,08-08-2018,30 dias,"Portugal, Porto, Vila Nova de Gaia","Artigo 21.º, n.º 1, alínea c) do Código dos Contratos Públicos",,,,,,Não aplicável.,Não aplicável.,FALSE
2384918 Aquisição de Laminas de canto fosco,Ajuste Direto Regime Geral,Aquisição de bens móveis,"33100000-1, Equipamento médico","Centro Hospitalar Vila Nova de Gaia - Espinho, E. P. E. (508142156)","Normax - Fábrica de Vidros Científicos, Lda (500203130)","870,00 €",08-08-2018,07-08-2018,30 dias,"Portugal, Porto, Vila Nova de Gaia","Artigo 21.º, n.º 1, alínea c) do Código dos Contratos Públicos",,,,,,Não aplicável.,Não aplicável.,FALSE
2005618 - Aquisição de Luvas para Uso Médico,Concurso público,Aquisição de bens móveis,"33141420-0, Luvas para cirurgia",Centro Hospitalar Vila Nova de Gaia (CHNVG) (508142156),"MEDTRONIC PORTUGAL, LDA (504223933)","13.881,88 €",08-08-2018,18-07-2018,160 dias,"Portugal, Porto, Vila Nova de Gaia","Artigo 20.º, n.º 1, alínea b) do Código dos Contratos Públicos",,,,,,Não aplicável.,Não aplicável.,FALSE
1361418- CLOROHEXIDINA 4% ESPONJAS IMPREGNADAS (UNIT),Ajuste Direto Regime Geral,Aquisição de bens móveis,"33600000-6, Produtos farmacêuticos",Centro Hospitalar Vila Nova de Gaia (CHNVG) (508142156),Factor Plus (502810645),"514,80 €",07-08-2018,26-07-2018,150 dias,"Portugal, Porto, Vila Nova de Gaia","Artigo 24.º, n.º 1, alínea c) do Código dos Contratos Públicos",,,,,,Não aplicável.,Não aplicável.,FALSE
"Aquisição de Reagentes Exclusivos """"Biomerieux""""- Equip. Luminómetro Leader 50 I""""",Ajuste Direto Regime Geral,Aquisição de bens móveis,"33696200-7, Reagentes para análises ao sangue",Centro Hospitalar Vila Nova de Gaia (CHNVG) (508142156),Biomerieux Portugal Lda. (501524177),"1.124,80 €",07-08-2018,26-07-2018,180 dias,"Portugal, Porto, Vila Nova de Gaia","Artigo 24.º, n.º 1, alínea e), subalínea ii) do Código dos Contratos Públicos",,,,,,Não aplicável.,Não aplicável.,FALSE
9378518 - Reagentes para Histologia/Citopatologia,Ajuste Direto Regime Geral,Aquisição de bens móveis,"33696200-7, Reagentes para análises ao sangue","Centro Hospitalar Vila Nova de Gaia - Espinho, E. P. E. (508142156)","VWR Internacional -Material de Laboratório,Lda. (503842770)","664,50 €",07-08-2018,03-08-2018,150 dias,"Portugal, Porto, Vila Nova de Gaia","Artigo 21.º, n.º 1, alínea c) do Código dos Contratos Públicos",,,,,,Não aplicável.,Não aplicável.,FALSE
Aquisição de Docetaxel Sol. Inj. Fr. IV (CPA 2017/06),Ao abrigo de acordo-quadro (art.º 259.º),Aquisição de bens móveis,"33600000-6, Produtos farmacêuticos","Centro Hospitalar Vila Nova de Gaia - Espinho, E. P. E. (508142156)","Accord Healthcare, Unip. Lda (508622263)","5.273,00 €",07-08-2018,27-07-2018,180 dias,"Portugal, Porto, Vila Nova de Gaia",Artigo 259.º do Código dos Contratos Públicos,,,,,,2969238,"CP 2017/6 - Acordo Quadro para fornecimento de Medicamentos do Foro Oncológico e Imunomoduladores, às Instituições e Serviços do Serviço Nacional de Saúde",FALSE
9361318- HORMONA ANTI-MULLERIANA (96 TESTES),Ajuste Direto Regime Geral,Aquisição de bens móveis,"33696000-5, Reagentes e meios de contraste",Centro Hospitalar Vila Nova de Gaia (CHNVG) (508142156),"MEDITECNO - Médicos e Sist. de Diagnosticos, Lda (505025990)","3.249,60 €",06-08-2018,01-08-2018,150 dias,"Portugal, Porto, Vila Nova de Gaia","Artigo 24.º, n.º 1, alínea e), subalínea ii) do Código dos Contratos Públicos",,,,,,Não aplicável.,Não aplicável.,FALSE
"Aquisição de Entecavir 0,5 mg Comp. CPA 2017-06",Ao abrigo de acordo-quadro (art.º 259.º),Aquisição de bens móveis,"33600000-6, Produtos farmacêuticos","Centro Hospitalar Vila Nova de Gaia - Espinho, E. P. E. (508142156)","Teva Pharma, Lda. (507045491)","26.768,70 €",06-08-2018,27-07-2018,180 dias,"Portugal, Porto, Vila Nova de Gaia",Artigo 259.º do Código dos Contratos Públicos,,,,,,2556987,"CP 2017/65 - Acordo Quadro para fornecimento de Medicamentos de Várias áreas Terapêuticas, às Instituições e Serviços do Serviço Nacional de Saúde",FALSE
"Aquisição de tracolimus 0,5 MG C´ps, CPA 2017/06",Ao abrigo de acordo-quadro (art.º 259.º),Aquisição de bens móveis,"33600000-6, Produtos farmacêuticos","Centro Hospitalar Vila Nova de Gaia - Espinho, E. P. E. (508142156)","Astellas Farma, Lda. (502540249)","123,90 €",06-08-2018,26-07-2018,180 dias,"Portugal, Porto, Vila Nova de Gaia",Artigo 259.º do Código dos Contratos Públicos,,,,,,2969238,"CP 2017/6 - Acordo Quadro para fornecimento de Medicamentos do Foro Oncológico e Imunomoduladores, às Instituições e Serviços do Serviço Nacional de Saúde",FALSE
"Aquisição de Hipromelose 0,3% Gel Oftalmico 10 ml",Ajuste Direto Regime Geral,Aquisição de bens móveis,"33600000-6, Produtos farmacêuticos",Centro Hospitalar Vila Nova de Gaia (CHNVG) (508142156),"Alcon Portugal, Lda. (501251685)","1.782,00 €",06-08-2018,26-07-2018,180 dias,"Portugal, Porto, Vila Nova de Gaia","Artigo 24.º, n.º 1, alínea e), subalínea iii) do Código dos Contratos Públicos",,,,,,Não aplicável.,Não aplicável.,FALSE
"Aquisição de Exclusivos da Empresa .- Takeda - farmacêuticos Portugal, Ldaª",Ajuste Direto Regime Geral,Aquisição de bens móveis,"33600000-6, Produtos farmacêuticos","Centro Hospitalar Vila Nova de Gaia - Espinho, E. P. E. (508142156)","Takeda - Farmacêuticos Portugal, Lda. (502801204)","77.130,98 €",06-08-2018,24-05-2018,210 dias,"Portugal, Porto, Vila Nova de Gaia","Artigo 24.º, n.º 1, alínea e), subalínea iii) do Código dos Contratos Públicos",,,,,,Não aplicável.,Não aplicável.,FALSE
2005618 - Aquisição de Luvas para uso médico,Concurso público,Aquisição de bens móveis,"33141420-0, Luvas para cirurgia",Centro Hospitalar Vila Nova de Gaia (CHNVG) (508142156),MEDLINE INTERNACIONAL PORTUGAL UNIPESSOAL LDA (510533515),"969,00 €",02-08-2018,18-07-2018,160 dias,"Portugal, Porto, Vila Nova de Gaia","Artigo 20.º, n.º 1, alínea b) do Código dos Contratos Públicos",,,,,,Não aplicável.,Não aplicável.,FALSE
Etinilestradiol 0.02 mg + Gestodeno 0.075 mg Comp,Ao abrigo de acordo-quadro (art.º 259.º),Aquisição de bens móveis,"33600000-6, Produtos farmacêuticos",Centro Hospitalar Vila Nova de Gaia (CHNVG) (508142156),GENERIS - FARMACEUTICA SA (508107997),"498,96 €",02-08-2018,24-07-2018,180 dias,"Portugal, Porto, Vila Nova de Gaia",Artigo 259.º do Código dos Contratos Públicos,,,,,,1459323,CP 2015/20,FALSE
9364018- E.S.B.L.CEFEPIME/CEFEPIME + AC. CLAVULAMICO (100TEST),Ajuste Direto Regime Geral,Aquisição de bens móveis,"33696000-5, Reagentes e meios de contraste",Centro Hospitalar Vila Nova de Gaia (CHNVG) (508142156),"Biomerieux Portugal, Lda. (501524177)","644,00 €",02-08-2018,27-07-2018,160 dias,"Portugal, Porto, Vila Nova de Gaia","Artigo 24.º, n.º 1, alínea e), subalínea ii) do Código dos Contratos Públicos",,,,,,Não aplicável.,Não aplicável.,FALSE
Aquisição de Medicamentos Centralizada Urgentes- Celgene,Ajuste Direto Regime Geral,Aquisição de bens móveis,"33600000-6, Produtos farmacêuticos","Centro Hospitalar Vila Nova de Gaia - Espinho, E. P. E. (508142156)",Celgene Soc. Unip. Lda. (507791690),"140.958,34 €",02-08-2018,13-06-2018,210 dias,"Portugal, Porto, Vila Nova de Gaia","Artigo 24.º, n.º 1, alínea c) do Código dos Contratos Públicos",,,,,,Não aplicável.,Não aplicável.,FALSE
Aquisição de Bicalutamida 2 dosagens,Ao abrigo de acordo-quadro (art.º 259.º),Aquisição de bens móveis,"33600000-6, Produtos farmacêuticos",Centro Hospitalar Vila Nova de Gaia (CHNVG) (508142156),Tecnimed (501505334),"3.937,50 €",01-08-2018,24-07-2018,180 dias,"Portugal, Porto, Vila Nova de Gaia",Artigo 259.º do Código dos Contratos Públicos,,,,,,2969238,"CP 2017/6 - Acordo Quadro para fornecimento de Medicamentos do Foro Oncológico e Imunomoduladores, às Instituições e Serviços do Serviço Nacional de Saúde",FALSE
CP 2005618 - Aquisição de Luvas para Uso Médico,Concurso público,Aquisição de bens móveis,"33141420-0, Luvas para cirurgia",Centro Hospitalar Vila Nova de Gaia (CHNVG) (508142156),"Barna Import Medica Portugal Unipessoal, Lda. (513468994)","5.428,00 €",01-08-2018,18-07-2018,160 dias,"Portugal, Porto, Vila Nova de Gaia","Artigo 20.º, n.º 1, alínea b) do Código dos Contratos Públicos",,,,,,Não aplicável.,Não aplicável.,FALSE
CP 2005618 - Aquisição de Luvas para Uso Médico,Concurso público,Aquisição de bens móveis,"33141420-0, Luvas para cirurgia",Centro Hospitalar Vila Nova de Gaia (CHNVG) (508142156),"Afonso & Camacho, Lda (511001070)","1.937,28 €",01-08-2018,18-07-2018,160 dias,"Portugal, Porto, Vila Nova de Gaia","Artigo 20.º, n.º 1, alínea b) do Código dos Contratos Públicos",,,,,,Não aplicável.,Não aplicável.,FALSE
"Aquisição de Entricitabina 200 mg+Rilpivirina 25 mg+Taf 25 mg Comp-Excluusivos da Empresa """"Gilead Sciences, Lda.""""",Ajuste Direto Regime Geral,Aquisição de bens móveis,"33600000-6, Produtos farmacêuticos","Centro Hospitalar Vila Nova de Gaia - Espinho, E. P. E. (508142156)","Gilead Sciences, Lda. (503604704)","339.729,78 €",01-08-2018,23-05-2018,210 dias,"Portugal, Porto, Vila Nova de Gaia","Artigo 24.º, n.º 1, alínea e) do Código dos Contratos Públicos",,,,,,Não aplicável.,Não aplicável.,FALSE
CP 2013217 - Aquisição de Fios de Sutura,Concurso público,Aquisição de bens móveis,"33141125-2, Material de sutura cirúrgica","Centro Hospitalar Vila Nova de Gaia - Espinho, E. P. E. (508142156)",Virtugal (510113923),"6.145,44 €",01-08-2018,23-07-2018,160 dias,"Portugal, Porto, Vila Nova de Gaia","Artigo 20.º, n.º 1, alínea b) do Código dos Contratos Públicos",,,,,,Não aplicável.,Não aplicável.,FALSE
1347018- Abacavir 600 mg + Lamivudina 300 mg Comp,Ao abrigo de acordo-quadro (art.º 259.º),Aquisição de bens móveis,"33600000-6, Produtos farmacêuticos","Centro Hospitalar Vila Nova de Gaia - Espinho, E. P. E. (508142156)",mylan (502248793),"236,88 €",01-08-2018,13-07-2018,180 dias,"Portugal, Porto, Vila Nova de Gaia",Artigo 259.º do Código dos Contratos Públicos,,,,,,2556987,"CP 2017/65 - Acordo Quadro para fornecimento de Medicamentos de Várias áreas Terapêuticas, às Instituições e Serviços do Serviço Nacional de Saúde",FALSE
1334618-Progesterona 100 mg Cáps,Ao abrigo de acordo-quadro (art.º 259.º),Aquisição de bens móveis,"33600000-6, Produtos farmacêuticos","Centro Hospitalar Vila Nova de Gaia - Espinho, E. P. E. (508142156)",Jaba (500492867),"122,80 €",01-08-2018,13-07-2018,180 dias,"Portugal, Porto, Vila Nova de Gaia",Artigo 259.º do Código dos Contratos Públicos,,,,,,1415640,CP 2015/7 - ACORDO QUADRO PARA FORNECIMENTO DE HORMONAS E OUTROS MEDICAMENTOS USADOS NO TRATAMENTO DAS DOENÇAS ENDÓCRINAS ÀS INSTITUIÇÕES E SERVIÇOS DO SERVIÇO NACIONAL DE SAÚDE,FALSE
CP 2013217 - aquisição de Fios de Sutura,Concurso público,Aquisição de bens móveis,"33141125-2, Material de sutura cirúrgica","Centro Hospitalar Vila Nova de Gaia - Espinho, E. P. E. (508142156)",MEDTRONIC PORTUGAL LDA (504223933),"22.125,60 €",01-08-2018,23-07-2018,160 dias,"Portugal, Porto, Vila Nova de Gaia","Artigo 20.º, n.º 1, alínea b) do Código dos Contratos Públicos",,,,,,Não aplicável.,Não aplicável.,FALSE
1348618- Desferrasirox 360 mg Comp,Ao abrigo de acordo-quadro (art.º 259.º),Aquisição de bens móveis,"33600000-6, Produtos farmacêuticos","Centro Hospitalar Vila Nova de Gaia - Espinho, E. P. E. (508142156)",Novartis (500063524),"21,30 €",01-08-2018,17-07-2018,180 dias,"Portugal, Porto, Vila Nova de Gaia",Artigo 259.º do Código dos Contratos Públicos,,,,,,2775699,"CP 2017/50 - Medicação antialérgica, vitaminas e sais minerais, medicamentos usados no tratamento de intoxicações e grupo 20.9",FALSE
"Aquisição de Reagentes Para Serologia - Equipamento Euroblotone""""	",Ajuste Direto Regime Geral,Aquisição de bens móveis,"33696200-7, Reagentes para análises ao sangue","Centro Hospitalar Vila Nova de Gaia - Espinho, E. P. E. (508142156)","Euroimmun Portugal, Unipessoal, Ldª (504022180)","41.710,00 €",01-08-2018,20-03-2018,270 dias,"Portugal, Porto, Vila Nova de Gaia","Artigo 24.º, n.º 1, alínea e) do Código dos Contratos Públicos",,,,,,Não aplicável.,Não aplicável.,FALSE
