Objeto do Contrato,Tipo de Procedimento,Tipo(s) de Contrato,CPVs,Entidade(s) Adjudicante(s),Entidade(s) Adjudicatária(s),Preço Contratual,Data de Publicação,Data de Celebração do Contrato,Prazo de Execução,Local de Execução,Fundamentação,Data de Fecho do Contrato,Preço Total Efetivo,Causas das Alterações ao Prazo,Causas das Alterações ao Preço,Estado,N.º registo do Acordo Quadro,Descrição do Acordo Quadro,Procedimento Centralizado
Aquisição De Material De Osteossintese - Geral,Ajuste Direto Regime Geral,Aquisição de bens móveis,"33140000-3, Material médico de consumo","Centro Hospitalar de Entre o Douro e Vouga, E.P.E. (508878462)","STRYKER PORTUGAL - PRODUTOS MEDICOS, UNIPESSOAL,LDA. (504594214)","74.926,00 €",10-08-2018,03-01-2018,180 dias,"Portugal, Aveiro, Santa Maria da Feira","Artigo 20.º, n.º 1, alínea a) do Código dos Contratos Públicos",,,,,,Não aplicável.,Não aplicável.,FALSE
Aquisição de Consumíveis para Técnicas de Substituição Renal em Cuidados Intensivos,Ajuste Direto Regime Geral,Aquisição de bens móveis,"33600000-6, Produtos farmacêuticos","Centro Hospitalar de Entre o Douro e Vouga, E.P.E. (508878462)","Baxter Medico Farmacêutica, Lda (503347345)","19.996,00 €",10-08-2018,10-01-2018,100 dias,"Portugal, Aveiro, Santa Maria da Feira","Artigo 20.º, n.º 1, alínea d) do Código dos Contratos Públicos",,,,,,Não aplicável.,Não aplicável.,FALSE
Aquisição De Material Médico-Cirúrgico,Ajuste Direto Regime Geral,Aquisição de bens móveis,"33140000-3, Material médico de consumo","Centro Hospitalar de Entre o Douro e Vouga, E.P.E. (508878462)","VYGON (PORTUGAL),LDA. (503232785)","174,25 €",10-08-2018,03-01-2018,150 dias,"Portugal, Aveiro, Santa Maria da Feira","Artigo 20.º, n.º 1, alínea a) do Código dos Contratos Públicos",,,,,,Não aplicável.,Não aplicável.,FALSE
Aquisição De Material Médico-Cirúrgico,Ajuste Direto Regime Geral,Aquisição de bens móveis,"33140000-3, Material médico de consumo","Centro Hospitalar de Entre o Douro e Vouga, E.P.E. (508878462)","COLOPLAST PORTUGAL SOC. UNIP., LDA (EX PORGES) (503989037)","285,60 €",10-08-2018,03-01-2018,150 dias,"Portugal, Aveiro, Santa Maria da Feira","Artigo 20.º, n.º 1, alínea a) do Código dos Contratos Públicos",,,,,,Não aplicável.,Não aplicável.,FALSE
Aquisição De Material Médico-Cirúrgico,Ajuste Direto Regime Geral,Aquisição de bens móveis,"33140000-3, Material médico de consumo","Centro Hospitalar de Entre o Douro e Vouga, E.P.E. (508878462)",Linde Saúde; Lda (500125546),"1.659,00 €",10-08-2018,03-01-2018,150 dias,"Portugal, Aveiro, Santa Maria da Feira","Artigo 20.º, n.º 1, alínea a) do Código dos Contratos Públicos",,,,,,Não aplicável.,Não aplicável.,FALSE
Aquisição De Material Médico-Cirúrgico,Ajuste Direto Regime Geral,Aquisição de bens móveis,"33140000-3, Material médico de consumo","Centro Hospitalar de Entre o Douro e Vouga, E.P.E. (508878462)","Bacelar & Irmão, Lda. (500532818)","6.569,02 €",10-08-2018,03-01-2018,150 dias,"Portugal, Aveiro, Santa Maria da Feira","Artigo 20.º, n.º 1, alínea a) do Código dos Contratos Públicos",,,,,,Não aplicável.,Não aplicável.,FALSE
Aquisição De Material Médico-Cirúrgico,Ajuste Direto Regime Geral,Aquisição de bens móveis,"33140000-3, Material médico de consumo","Centro Hospitalar de Entre o Douro e Vouga, E.P.E. (508878462)",Intersurgical - Portugal (503480045),"17.000,42 €",10-08-2018,06-06-2018,150 dias,"Portugal, Aveiro, Santa Maria da Feira","Artigo 20.º, n.º 1, alínea a) do Código dos Contratos Públicos",,,,,,Não aplicável.,Não aplicável.,FALSE
Aq. medicamentos exclusivos,Ajuste Direto Regime Geral,Aquisição de bens móveis,"33600000-6, Produtos farmacêuticos","Centro Hospitalar de Entre o Douro e Vouga, E.P.E. (508878462)","Biojam, S.A. (513642749)","22.764,00 €",10-08-2018,21-03-2018,350 dias,"Portugal, Aveiro, Santa Maria da Feira","Artigo 24.º, n.º 1, alínea e) do Código dos Contratos Públicos",,,,,,Não aplicável.,Não aplicável.,FALSE
"11/00481.11/2018 - O medicamento “Keytruda” é utilizado em adultos para tratar melanomas disseminados ou que não podem ser removidos cirurgicamente. O Keytruda é classificado quanto à dispensa como medicamento sujeito a receita restrita (MSRM restrita, alínea a) do Artigo 118º do D.L. 176/2006 – uso exclusivo hospitalar, sem Avaliação Prévia pelo Infarmed, sendo necessária a autorização do Infarmed doente a doente para a sua utilização no Serviço Nacional de Saúde.",Ajuste Direto Regime Geral,Aquisição de bens móveis,"33600000-6, Produtos farmacêuticos","Centro Hospitalar de Entre o Douro e Vouga, E.P.E. (508878462)","Merck Sharp & Dohme, Lda. (500191360)","142.800,00 €",09-08-2018,24-01-2018,350 dias,"Portugal, Aveiro, Santa Maria da Feira","Artigo 24.º, n.º 1, alínea e), subalínea ii) do Código dos Contratos Públicos",,,,,,Não aplicável.,Não aplicável.,FALSE
Aquisição de “Atezolizumab 60 mg/ml Sol inj Fr 20 ml IV - Tecentriq”,Ajuste Direto Regime Geral,Aquisição de bens móveis,"33600000-6, Produtos farmacêuticos","Centro Hospitalar de Entre o Douro e Vouga, E.P.E. (508878462)","ROCHE FARMACÊUTICA QUIMICA, LDA. (500233810)","49.890,72 €",09-08-2018,24-05-2018,200 dias,"Portugal, Aveiro, Santa Maria da Feira","Artigo 24.º, n.º 1, alínea e), subalínea ii) do Código dos Contratos Públicos",,,,,,Não aplicável.,Não aplicável.,FALSE
Aquisição De Cateteres Diversos E Sistemas De Monitorização,Ajuste Direto Regime Geral,Aquisição de bens móveis,"33140000-3, Material médico de consumo","Centro Hospitalar de Entre o Douro e Vouga, E.P.E. (508878462)","GRIFOLS PORTUGAL - PROD. FARMAC. E HOSP., LDA. (502041285)","825,00 €",08-08-2018,10-01-2018,180 dias,"Portugal, Aveiro, Santa Maria da Feira","Artigo 20.º, n.º 1, alínea a) do Código dos Contratos Públicos",,,,,,Não aplicável.,Não aplicável.,FALSE
Aquisição De Cateteres Diversos E Sistemas De Monitorização,Ajuste Direto Regime Geral,Aquisição de bens móveis,"33140000-3, Material médico de consumo","Centro Hospitalar de Entre o Douro e Vouga, E.P.E. (508878462)","PMH PRODUTOS MEDIC. HOSPITAL, SA (502376899)","1.537,03 €",08-08-2018,10-01-2018,180 dias,"Portugal, Aveiro, Santa Maria da Feira","Artigo 20.º, n.º 1, alínea a) do Código dos Contratos Públicos",,,,,,Não aplicável.,Não aplicável.,FALSE
14/00089.23/2018,Ajuste Direto Regime Geral,Aquisição de bens móveis,"33000000-0, Equipamento médico, medicamentos e produtos para cuidados pessoais","Centro Hospitalar de Entre o Douro e Vouga, E.P.E. (508878462)",b.braun medical (501506543),"11.029,50 €",08-08-2018,03-01-2018,180 dias,"Portugal, Aveiro, Santa Maria da Feira","Artigo 20.º, n.º 1, alínea a) do Código dos Contratos Públicos",,,,,,Não aplicável.,Não aplicável.,FALSE
"AQUISIÇÃO ANTISSÉTICOS, DESINFETANTES E OUTROS",Ajuste Direto Regime Geral,Aquisição de bens móveis,"33600000-6, Produtos farmacêuticos","Centro Hospitalar de Entre o Douro e Vouga, E.P.E. (508878462)","AIR LIQUIDE MEDICINAL, S.A. (501576436)","15,00 €",08-08-2018,07-02-2018,320 dias,"Portugal, Aveiro, Santa Maria da Feira","Artigo 20.º, n.º 1, alínea a) do Código dos Contratos Públicos",,,,,,Não aplicável.,Não aplicável.,FALSE
"AQUISIÇÃO ANTISSÉTICOS, DESINFETANTES E OUTROS",Ajuste Direto Regime Geral,Aquisição de bens móveis,"33600000-6, Produtos farmacêuticos","Centro Hospitalar de Entre o Douro e Vouga, E.P.E. (508878462)","DIMOR LUSITANA, - COMERCIO DE PRODUTOS DE SAUDE E HIGIENE, LDA (500730741)","352,10 €",08-08-2018,07-02-2018,320 dias,"Portugal, Aveiro, Santa Maria da Feira","Artigo 20.º, n.º 1, alínea a) do Código dos Contratos Públicos",,,,,,Não aplicável.,Não aplicável.,FALSE
"AQUISIÇÃO ANTISSÉTICOS, DESINFETANTES E OUTROS",Ajuste Direto Regime Geral,Aquisição de bens móveis,"33600000-6, Produtos farmacêuticos","Centro Hospitalar de Entre o Douro e Vouga, E.P.E. (508878462)",Factor Plus (502810645),"689,31 €",08-08-2018,07-02-2018,320 dias,"Portugal, Aveiro, Santa Maria da Feira","Artigo 20.º, n.º 1, alínea a) do Código dos Contratos Públicos",,,,,,Não aplicável.,Não aplicável.,FALSE
"AQUISIÇÃO ANTISSÉTICOS, DESINFETANTES E OUTROS",Ajuste Direto Regime Geral,Aquisição de bens móveis,"33600000-6, Produtos farmacêuticos","Centro Hospitalar de Entre o Douro e Vouga, E.P.E. (508878462)","LABORATORIOS INIBSA,S.A. (500139571)","873,60 €",08-08-2018,07-02-2018,320 dias,"Portugal, Aveiro, Santa Maria da Feira","Artigo 20.º, n.º 1, alínea a) do Código dos Contratos Públicos",,,,,,Não aplicável.,Não aplicável.,FALSE
"AQUISIÇÃO ANTISSÉTICOS, DESINFETANTES E OUTROS",Ajuste Direto Regime Geral,Aquisição de bens móveis,"33600000-6, Produtos farmacêuticos","Centro Hospitalar de Entre o Douro e Vouga, E.P.E. (508878462)","B. Braun Medical, Lda. (501506543)","7.206,00 €",08-08-2018,07-02-2018,320 dias,"Portugal, Aveiro, Santa Maria da Feira","Artigo 20.º, n.º 1, alínea a) do Código dos Contratos Públicos",,,,,,Não aplicável.,Não aplicável.,FALSE
Aq. de Paclitaxel 5 mg/ml sol po susp inj fr iv,Ajuste Direto Regime Geral,Aquisição de bens móveis,"33600000-6, Produtos farmacêuticos","Centro Hospitalar de Entre o Douro e Vouga, E.P.E. (508878462)","CELGENE - SOCIEDADE UNIPESSOAL, LDA (507791690)","115.500,00 €",08-08-2018,10-01-2018,350 dias,"Portugal, Aveiro, Santa Maria da Feira","Artigo 24.º, n.º 1, alínea e) do Código dos Contratos Públicos",,,,,,Não aplicável.,Não aplicável.,FALSE
Aquisição de medicamentos Pfizer Biofarmacêutica (P259-AC-2017-196),Ao abrigo de acordo-quadro (art.º 259.º),Aquisição de bens móveis,"33600000-6, Produtos farmacêuticos","Centro Hospitalar de Entre o Douro e Vouga, E.P.E. (508878462)","Pfizer Biofarmaceutica, Sociedade Unipessoal, Lda (513300376)","96.136,55 €",08-08-2018,07-02-2018,330 dias,"Portugal, Aveiro, Santa Maria da Feira",Artigo 259.º do Código dos Contratos Públicos,,,,,,1771819,CP 2015/6 - Acordo quadro para o fornecimento de Medicamentos do Foro Oncológico,FALSE
LS_07/00576.62/2018 - Contrato para Aq. de Equipamento e Serviços de Manutenção e Assistência Técnica do Software Labway instalados no Chedv,Ajuste Direto Regime Geral,Aquisição de serviços,"72000000-5, Serviços de TI: consultoria, desenvolvimento de software, Internet e apoio","Centro Hospitalar de Entre o Douro e Vouga, E.P.E. (508878462)","AMBIDATA - Digital Innovation Solutions & Consulting, Lda (504673734)","2.060,00 €",07-08-2018,23-03-2018,365 dias,"Portugal, Aveiro, Santa Maria da Feira","Artigo 24.º, n.º 1, alínea e) do Código dos Contratos Públicos",,,,,,Não aplicável.,Não aplicável.,FALSE
AQ. DE VISCOELÁSTICOS E SOLUÇÃO SALINA BALANCEADA,Ajuste Direto Regime Geral,Aquisição de bens móveis,"33600000-6, Produtos farmacêuticos","Centro Hospitalar de Entre o Douro e Vouga, E.P.E. (508878462)",ABBOTT MEDICAL OPTICS SPAIN (980262364),"69.920,00 €",07-08-2018,29-03-2018,350 dias,"Portugal, Aveiro, Santa Maria da Feira","Artigo 20.º, n.º 1, alínea a) do Código dos Contratos Públicos",,,,,,Não aplicável.,Não aplicável.,FALSE
LS_14/00106.62/2018 - Aq. Próteses Auditivas Retroauricular e Intracanal,Ajuste Direto Regime Geral,Aquisição de bens móveis,"33140000-3, Material médico de consumo","Centro Hospitalar de Entre o Douro e Vouga, E.P.E. (508878462)","Coselgi Portugal, SA (509230598)","9.095,00 €",07-08-2018,03-01-2018,180 dias,"Portugal, Aveiro, Santa Maria da Feira","Artigo 20.º, n.º 1, alínea a) do Código dos Contratos Públicos",,,,,,Não aplicável.,Não aplicável.,FALSE
LS_14/00106.62/2018 - Próteses Auditivas Retroauricular e Intracanal,Ajuste Direto Regime Geral,Aquisição de bens móveis,"33140000-3, Material médico de consumo","Centro Hospitalar de Entre o Douro e Vouga, E.P.E. (508878462)",GAES (503134139),"37.631,26 €",07-08-2018,03-01-2018,180 dias,"Portugal, Aveiro, Santa Maria da Feira","Artigo 20.º, n.º 1, alínea a) do Código dos Contratos Públicos",,,,,,Não aplicável.,Não aplicável.,FALSE
Aquisição de “Upgrade” do Sistema de Tomografia Computorizada marca G.E.,Consulta Prévia,Aquisição de bens móveis,"33000000-0, Equipamento médico, medicamentos e produtos para cuidados pessoais","Centro Hospitalar de Entre o Douro e Vouga, E.P.E. (508878462)","Micromil, Lda (501605770)","72.500,00 €",07-08-2018,30-05-2018,30 dias,"Portugal, Aveiro, Santa Maria da Feira","Artigo 20.º, n.º 1, alínea c) do Código dos Contratos Públicos",,,,,,Não aplicável.,Não aplicável.,FALSE
Aquisição De Hemostático Reabsorvível À Base De Colagénio,Ajuste Direto Regime Geral,Aquisição de bens móveis,"33600000-6, Produtos farmacêuticos","Centro Hospitalar de Entre o Douro e Vouga, E.P.E. (508878462)",BAXTER MEDICO - FARMACEUTICA (503347345),"31.350,00 €",07-08-2018,03-01-2018,180 dias,"Portugal, Aveiro, Santa Maria da Feira","Artigo 20.º, n.º 1, alínea a) do Código dos Contratos Públicos",,,,,,Não aplicável.,Não aplicável.,FALSE
LS_11/00205.62/2018 - CAT e Manutenção ao Equipamento Marca Maquet instalado no CHEDV,Ajuste Direto Regime Geral,Aquisição de serviços,"50000000-5, Serviços de reparação e manutenção","Centro Hospitalar de Entre o Douro e Vouga, E.P.E. (508878462)",GETINGE GROUP PORTUGAL UNIPESSOAL LDA (506819698),"33.924,00 €",07-08-2018,18-01-2018,365 dias,"Portugal, Aveiro, Santa Maria da Feira","Artigo 24.º, n.º 1, alínea e) do Código dos Contratos Públicos",,,,,,Não aplicável.,Não aplicável.,FALSE
Aquisição de equipamento de laparoscopia com tecnologia 4K Ultra HD,Concurso público,Aquisição de bens móveis,"33100000-1, Equipamento médico","Centro Hospitalar de Entre o Douro e Vouga, E.P.E. (508878462)","Olympus Ibéria, S.A.U.  (980474710)","99.379,15 €",07-08-2018,27-06-2018,60 dias,"Portugal, Aveiro, Santa Maria da Feira","Artigo 20.º, n.º 1, alínea b) do Código dos Contratos Públicos",,,,,,Não aplicável.,Não aplicável.,FALSE
Aquisição de Derivados Plasma (P259-AC-2017-130),Ao abrigo de acordo-quadro (art.º 259.º),Aquisição de bens móveis,"33600000-6, Produtos farmacêuticos","Centro Hospitalar de Entre o Douro e Vouga, E.P.E. (508878462)","BAXTER MEDICO FARMACEUTICA,LDA (503347345)","1.560,00 €",01-08-2018,30-10-2017,61 dias,"Portugal, Aveiro, Santa Maria da Feira",Artigo 259.º do Código dos Contratos Públicos,,,,,,1423488,ACORDO QUADRO PARA FORNECIMENTO DE DERIVADOS DO PLASMA HUMANO ÀS INSTITUIÇÕES E SERVIÇOS DO SERVIÇO NACIONAL DE SAÚDE CP 2015/9,FALSE
Aquisição de Anestésicos e Relaxantes Musculares,Ao abrigo de acordo-quadro (art.º 259.º),Aquisição de bens móveis,"33600000-6, Produtos farmacêuticos","Centro Hospitalar de Entre o Douro e Vouga, E.P.E. (508878462)",KORANGI (505322307),"2.903,67 €",01-08-2018,08-11-2017,60 dias,"Portugal, Aveiro, Santa Maria da Feira",Artigo 259.º do Código dos Contratos Públicos,,,,,,2211341,Medicamentos anestésicos e relaxantes musculares,FALSE
Aquisição de Anestésicos e Relaxantes Musculares,Ao abrigo de acordo-quadro (art.º 259.º),Aquisição de bens móveis,"33600000-6, Produtos farmacêuticos","Centro Hospitalar de Entre o Douro e Vouga, E.P.E. (508878462)","MERCK SHARP & DOHME, LDA (500191360)","9.360,00 €",01-08-2018,08-11-2017,60 dias,"Portugal, Aveiro, Santa Maria da Feira",Artigo 259.º do Código dos Contratos Públicos,,,,,,2211341,Medicamentos anestésicos e relaxantes musculares,FALSE
Aquisição de Anestésicos e Relaxantes Musculares,Ao abrigo de acordo-quadro (art.º 259.º),Aquisição de bens móveis,"33600000-6, Produtos farmacêuticos","Centro Hospitalar de Entre o Douro e Vouga, E.P.E. (508878462)","LABESFAL-LABORATORIOS ALMIRO, SA (501169580)","4.249,70 €",01-08-2018,08-11-2017,60 dias,"Portugal, Aveiro, Santa Maria da Feira",Artigo 259.º do Código dos Contratos Públicos,,,,,,2211341,Medicamentos anestésicos e relaxantes musculares,FALSE
Aquisição de Anestésicos e Relaxantes Musculares,Ao abrigo de acordo-quadro (art.º 259.º),Aquisição de bens móveis,"33600000-6, Produtos farmacêuticos","Centro Hospitalar de Entre o Douro e Vouga, E.P.E. (508878462)",Hikma SA (502266791),"6.240,00 €",01-08-2018,08-11-2017,60 dias,"Portugal, Aveiro, Santa Maria da Feira",Artigo 259.º do Código dos Contratos Públicos,,,,,,2211341,Medicamentos anestésicos e relaxantes musculares,FALSE
Aquisição de Anestésicos e Relaxantes Musculares,Ao abrigo de acordo-quadro (art.º 259.º),Aquisição de bens móveis,"33600000-6, Produtos farmacêuticos","Centro Hospitalar de Entre o Douro e Vouga, E.P.E. (508878462)","Grunenthal, S.A. (500101965)","41.133,20 €",01-08-2018,08-11-2017,60 dias,"Portugal, Aveiro, Santa Maria da Feira",Artigo 259.º do Código dos Contratos Públicos,,,,,,2211341,Medicamentos anestésicos e relaxantes musculares,FALSE
Aquisição de Anestésicos e Relaxantes Musculares,Ao abrigo de acordo-quadro (art.º 259.º),Aquisição de bens móveis,"33600000-6, Produtos farmacêuticos","Centro Hospitalar de Entre o Douro e Vouga, E.P.E. (508878462)",Fresenius Kabi Lda (504293753),"1.276,00 €",01-08-2018,08-11-2017,60 dias,"Portugal, Aveiro, Santa Maria da Feira",Artigo 259.º do Código dos Contratos Públicos,,,,,,2211341,Medicamentos anestésicos e relaxantes musculares,FALSE
Aquisição de Anestésicos e Relaxantes Musculares,Ao abrigo de acordo-quadro (art.º 259.º),Aquisição de bens móveis,"33600000-6, Produtos farmacêuticos","Centro Hospitalar de Entre o Douro e Vouga, E.P.E. (508878462)",GENERIS - FARMACEUTICA SA (508107997),"1.454,40 €",01-08-2018,08-11-2017,60 dias,"Portugal, Aveiro, Santa Maria da Feira",Artigo 259.º do Código dos Contratos Públicos,,,,,,2211341,Medicamentos anestésicos e relaxantes musculares,FALSE
Aquisição de Anestésicos e Relaxantes Musculares,Ao abrigo de acordo-quadro (art.º 259.º),Aquisição de bens móveis,"33600000-6, Produtos farmacêuticos","Centro Hospitalar de Entre o Douro e Vouga, E.P.E. (508878462)",Bluemed (509912060),"6.760,00 €",01-08-2018,08-11-2017,60 dias,"Portugal, Aveiro, Santa Maria da Feira",Artigo 259.º do Código dos Contratos Públicos,,,,,,2211341,Medicamentos anestésicos e relaxantes musculares,FALSE
Concurso Publico sem Anuncio no JOUE N.º 01/00002.29/2017 - Aquisição de Material de Esterilização (Lote 21),Ajuste Direto Regime Geral,Aquisição de bens móveis,"33000000-0, Equipamento médico, medicamentos e produtos para cuidados pessoais","Centro Hospitalar de Entre o Douro e Vouga, E.P.E. (508878462)",JOHNSON JOHNSON MEDICAL (500153370),"4.710,33 €",01-08-2018,13-09-2017,120 dias,"Portugal, Aveiro, Santa Maria da Feira","Artigo 20.º, n.º 1, alínea a) do Código dos Contratos Públicos",,,,,,Não aplicável.,Não aplicável.,FALSE
11/03349.26/2017 - Material para Revisão Prótese Total do Joelho,Ajuste Direto Regime Geral,Aquisição de bens móveis,"33000000-0, Equipamento médico, medicamentos e produtos para cuidados pessoais","Centro Hospitalar de Entre o Douro e Vouga, E.P.E. (508878462)",JOHNSON JOHNSON MEDICAL (500153370),"13.090,00 €",01-08-2018,24-11-2017,30 dias,"Portugal, Aveiro, Santa Maria da Feira","Artigo 24.º, n.º 1, alínea e) do Código dos Contratos Públicos",,,,,,Não aplicável.,Não aplicável.,FALSE
