Objeto do Contrato,Tipo de Procedimento,Tipo(s) de Contrato,CPVs,Entidade(s) Adjudicante(s),Entidade(s) Adjudicatária(s),Preço Contratual,Data de Publicação,Data de Celebração do Contrato,Prazo de Execução,Local de Execução,Fundamentação,Data de Fecho do Contrato,Preço Total Efetivo,Causas das Alterações ao Prazo,Causas das Alterações ao Preço,Estado,N.º registo do Acordo Quadro,Descrição do Acordo Quadro,Procedimento Centralizado
Aquisição de serviços de consultoria na área médica e colaboração na definição de estratégia e planeamento,Ajuste Direto Regime Geral,Aquisição de serviços,"71317210-8, Serviços de consultoria em matéria de saúde e segurança","Administração Central do Sistema de Saúde, I. P. (508188423)",Multimedicina (503384887),"33.210,00 €",10-03-2016,01-03-2016,275 dias,"Portugal, Lisboa, Lisboa","Artigo 20.º, n.º 1, alínea a) do Código dos Contratos Públicos",30-12-2016,"33.210,00 €",,"",,Não aplicável.,Não aplicável.,FALSE
"Aquisição de serviços para o programa iniciativas em Saúde Pública, no âmbito dos EEA Grants - Vertente saúde mental.",Ajuste Direto Regime Geral,Aquisição de serviços,"71317210-8, Serviços de consultoria em matéria de saúde e segurança","Administração Central do Sistema de Saúde, I. P. (508188423)",Cátia Alexandra Afonso dos santos Barreiros (222699779),"14.607,90 €",10-03-2016,01-03-2016,365 dias,"Portugal, Lisboa, Lisboa","Artigo 20.º, n.º 1, alínea a) do Código dos Contratos Públicos",02-01-2017,"14.607,90 €",,"",,Não aplicável.,Não aplicável.,FALSE
Aquisição de Combustíveis Rodoviários em postos Públicos para Portugal Continental - Refª 2016-UMC- CR-LOTE 2,Ao abrigo de acordo-quadro (art.º 259.º),Aquisição de bens móveis,"09100000-0, Combustíveis",ACSS/IGIF/SPA (508188423),"Petróleos de Portugal - Petrogal, S.A. (500697370)","13.870,16 €",07-03-2016,11-02-2016,360 dias,"Portugal, Lisboa, Lisboa",Artigo 259.º do Código dos Contratos Públicos,30-12-2016,"11.965,68 €",,Consumos efetivos,,400324,Acordo quadro de fornecimento de combustíveis rodoviários,TRUE
Aquisição de Computadores de Secretária e Portáteis para a ACSS - Referência UMC2015 -031,Ajuste Direto Regime Geral,Aquisição de bens móveis,"30213300-8, Computadores de secretária (desktop computers)","Administração Central do Sistema de Saúde, I. P. (508188423)","EDNI - Empresa Distribuidora de Material Informática, LDA (503258121)","24.850,00 €",03-03-2016,15-02-2016,60 dias,"Portugal, Lisboa, Lisboa","Artigo 20.º, n.º 1, alínea a) do Código dos Contratos Públicos",09-06-2016,"24.850,00 €",,"",,Não aplicável.,Não aplicável.,FALSE
