Objeto do Contrato,Tipo de Procedimento,Tipo(s) de Contrato,CPVs,Entidade(s) Adjudicante(s),Entidade(s) Adjudicatária(s),Preço Contratual,Data de Publicação,Data de Celebração do Contrato,Prazo de Execução,Local de Execução,Fundamentação,Data de Fecho do Contrato,Preço Total Efetivo,Causas das Alterações ao Prazo,Causas das Alterações ao Preço,Estado,N.º registo do Acordo Quadro,Descrição do Acordo Quadro,Procedimento Centralizado
Aquisição de Reagentes para Sistemas Automáticos de Identificação de Microrganismos e de Teste de Suscetibilidade aos Antimicrobianos,Concurso público,Aquisição de bens móveis,"33696500-0, Reagentes de laboratório","Centro Hospitalar de Entre o Douro e Vouga, E.P.E. (508878462)",SIEMENS HEALTHCARE DIAGNOSTICS (507925173),"42.566,00 €",30-04-2014,15-01-2014,365 dias,"Portugal, Aveiro, Santa Maria da Feira","Artigo 20.º, n.º 1, alínea b) do Código dos Contratos Públicos","","","",,,Não aplicável.,Não aplicável.,FALSE
AQUISIÇÃO DE REAGENTES PARA GASOMETRIAS,Concurso público,Aquisição de bens móveis,"33696200-7, Reagentes para análises ao sangue","Centro Hospitalar de Entre o Douro e Vouga, E.P.E. (508878462)","IZASA PORTUGAL, LDA (501086110)","71.709,00 €",30-04-2014,06-02-2014,365 dias,"Portugal, Aveiro, Santa Maria da Feira","Artigo 20.º, n.º 1, alínea b) do Código dos Contratos Públicos","","","",,,Não aplicável.,Não aplicável.,FALSE
AQUISIÇÃO DE PRÓTESE SE JOELHO UNICOMPARTIMENTAL,Concurso público,Aquisição de bens móveis,"33183200-8, Próteses ortopédicas","Centro Hospitalar de Entre o Douro e Vouga, E.P.E. (508878462)","BIOMET PORTUGAL, LDA (500254990)","52.800,00 €",30-04-2014,05-11-2013,365 dias,"Portugal, Aveiro, Santa Maria da Feira","Artigo 20.º, n.º 1, alínea b) do Código dos Contratos Públicos","","","",,,Não aplicável.,Não aplicável.,FALSE
Aquisição de Detergentes para Lavagem e Tratamento de Roupa Hospitalar,Ajuste Direto Regime Geral,Aquisição de bens móveis,"39831200-8, Detergentes","Centro Hospitalar de Entre o Douro e Vouga, E.P.E. (508878462)",CHRISTEYNS PORTUGAL (507818547),"18.221,47 €",30-04-2014,29-01-2014,365 dias,"Portugal, Aveiro, Santa Maria da Feira","Artigo 20.º, n.º 1, alínea a) do Código dos Contratos Públicos","","","",,,Não aplicável.,Não aplicável.,FALSE
AQUISIÇÃO DE PRÓTESES DE ANCA PRIMÁRIAS CIMENTADAS E NÃO CIMENTADAS,Concurso público,Aquisição de bens móveis,"33183200-8, Próteses ortopédicas","Centro Hospitalar de Entre o Douro e Vouga, E.P.E. (508878462)","JOHNSON & JOHNSON, LDA (500153370)","199.566,00 €",29-04-2014,04-04-2014,365 dias,"Portugal, Aveiro, Santa Maria da Feira","Artigo 20.º, n.º 1, alínea b) do Código dos Contratos Públicos","","","",,,Não aplicável.,Não aplicável.,FALSE
Aquisição de Maquinas de Sutura Endoscopica,Ajuste Direto Regime Geral,Aquisição de bens móveis,"33141125-2, Material de sutura cirúrgica","Centro Hospitalar de Entre o Douro e Vouga, E.P.E. (508878462)","JOHNSON & JOHNSON, LDA (500153370)","186.504,00 €",29-04-2014,02-12-2013,365 dias,"Portugal, Aveiro, Santa Maria da Feira","Artigo 20.º, n.º 1, alínea a) do Código dos Contratos Públicos","","","",,,Não aplicável.,Não aplicável.,FALSE
Aquisição de Bombas e Seringas perfusoras,Ajuste Direto Regime Geral,Aquisição de bens móveis,"33000000-0, Equipamento médico, medicamentos e produtos para cuidados pessoais","Centro Hospitalar de Entre o Douro e Vouga, E.P.E. (508878462)","Bacelar & Irmão, Lda. (500532818)","12.384,00 €",29-04-2014,29-04-2014,90 dias,"Portugal, Aveiro, Santa Maria da Feira","Artigo 20.º, n.º 1, alínea a) do Código dos Contratos Públicos",30-05-2014,"12.384,00 €",Entrega antecipada do equipamento.,,,Não aplicável.,Não aplicável.,FALSE
Aquisição de Prótese de Joelho de Charneira,Concurso público,Aquisição de bens móveis,"33183200-8, Próteses ortopédicas","Centro Hospitalar de Entre o Douro e Vouga, E.P.E. (508878462)","JOHNSON & JOHNSON, LDA (500153370)","136.820,00 €",29-04-2014,29-11-2013,365 dias,"Portugal, Aveiro, Santa Maria da Feira","Artigo 20.º, n.º 1, alínea b) do Código dos Contratos Públicos","","","",,,Não aplicável.,Não aplicável.,FALSE
Aquisição de Prótese de Joelho de Revisão Total,Concurso público,Aquisição de bens móveis,"33183200-8, Próteses ortopédicas","Centro Hospitalar de Entre o Douro e Vouga, E.P.E. (508878462)","JOHNSON & JOHNSON, LDA (500153370)","97.635,00 €",29-04-2014,29-11-2013,365 dias,"Portugal, Aveiro, Santa Maria da Feira","Artigo 20.º, n.º 1, alínea b) do Código dos Contratos Públicos","","","",,,Não aplicável.,Não aplicável.,FALSE
Aquisição de Prótese de Joelho Tumoral,Concurso público,Aquisição de bens móveis,"33183200-8, Próteses ortopédicas","Centro Hospitalar de Entre o Douro e Vouga, E.P.E. (508878462)",BIOMET PORTUGAL (500254990),"54.660,00 €",29-04-2014,05-11-2013,365 dias,"Portugal, Aveiro, Santa Maria da Feira","Artigo 20.º, n.º 1, alínea b) do Código dos Contratos Públicos","","","",,,Não aplicável.,Não aplicável.,FALSE
Aquisição de Próteses da Anca de Grandes Diâmetros,Concurso público,Aquisição de bens móveis,"33183200-8, Próteses ortopédicas","Centro Hospitalar de Entre o Douro e Vouga, E.P.E. (508878462)","JOHNSON & JOHNSON, LDA (500153370)","29.200,00 €",29-04-2014,27-12-2013,365 dias,"Portugal, Aveiro, Santa Maria da Feira","Artigo 20.º, n.º 1, alínea b) do Código dos Contratos Públicos","","","",,,Não aplicável.,Não aplicável.,FALSE
Aquisição de Prestação de Serviços de Medicina do Trabalho,Ajuste Direto Regime Geral,Aquisição de serviços,"85000000-9, Serviços de saúde e acção social","Centro Hospitalar de Entre o Douro e Vouga, E.P.E. (508878462)","ATLANTICARE, S.A. (507528212)","24.000,00 €",29-04-2014,03-01-2014,365 dias,"Portugal, Aveiro, Santa Maria da Feira","Artigo 20.º, n.º 1, alínea a) do Código dos Contratos Públicos","","","",,,Não aplicável.,Não aplicável.,FALSE
Aquisição de Sistema de Recuperação de Sangue Pós-Operatório,Ajuste Direto Regime Geral,Aquisição de bens móveis,"33190000-8, Dispositivos e produtos médicos variados","Centro Hospitalar de Entre o Douro e Vouga, E.P.E. (508878462)","STRYKER PORTUGAL, LDA (504594214)","25.000,00 €",29-04-2014,11-09-2013,365 dias,"Portugal, Aveiro, Santa Maria da Feira","Artigo 20.º, n.º 1, alínea a) do Código dos Contratos Públicos","","","",,,Não aplicável.,Não aplicável.,FALSE
Aquisição de Material de Consumo Clinico para Gerador Ultrassonico e Bipolar Avançado,Concurso público,Aquisição de bens móveis,"33169000-2, Material cirúrgico","Centro Hospitalar de Entre o Douro e Vouga, E.P.E. (508878462)","JOHNSON & JOHNSON, LDA (500153370)","291.900,00 €",29-04-2014,15-01-2014,365 dias,"Portugal, Aveiro, Santa Maria da Feira","Artigo 20.º, n.º 1, alínea b) do Código dos Contratos Públicos","","","",,,Não aplicável.,Não aplicável.,FALSE
