Objeto do Contrato,Tipo de Procedimento,Tipo(s) de Contrato,CPVs,Entidade(s) Adjudicante(s),Entidade(s) Adjudicatária(s),Preço Contratual,Data de Publicação,Data de Celebração do Contrato,Prazo de Execução,Local de Execução,Fundamentação,Data de Fecho do Contrato,Preço Total Efetivo,Causas das Alterações ao Prazo,Causas das Alterações ao Preço,Estado,N.º registo do Acordo Quadro,Descrição do Acordo Quadro,Procedimento Centralizado
4SEX0034/2016 - PREST. SERV. CONSULTORIA RELACIONADOS C/ IMPLEMENTAÇÃO DA APLICAÇÃO NAVISION P/ 2016,Ajuste Direto Regime Geral,Aquisição de serviços,"50000000-5, Serviços de reparação e manutenção","Centro Hospitalar Barreiro Montijo, E. P. E. (509186998)","LINK MANAGEMENT SOLUTIONS, S.A. (503729841)","2.880,00 €",27-07-2016,04-02-2016,183 dias,"Portugal, Setúbal, Barreiro","Artigo 24.º, n.º 1, alínea e) do Código dos Contratos Públicos",30-06-2016,"2.880,00 €",,,,Não aplicável.,Não aplicável.,FALSE
Seguro de Acidentes de Trabalho,Ajuste Direto Regime Geral,Aquisição de serviços,"66512100-3, Serviços de seguros de acidentes","Centro Hospitalar Barreiro Montijo, E. P. E. (509186998)","WILLS - Corretores de Seguros, S.A.  (500188629)","46.283,88 €",25-07-2016,20-06-2016,60 dias,"Portugal, Setúbal, Barreiro","Artigo 20.º, n.º 1, alínea a) do Código dos Contratos Públicos",31-08-2016,"46.283,88 €",,,,Não aplicável.,Não aplicável.,FALSE
Seguro de Acidentes de Trabalho,Ajuste Direto Regime Geral,Aquisição de serviços,"66512100-3, Serviços de seguros de acidentes","Centro Hospitalar Barreiro Montijo, E. P. E. (509186998)","WILLS - Corretores de Seguros, S.A. Portugal (500188629)","52.369,38 €",25-07-2016,28-03-2016,90 dias,"Portugal, Setúbal, Barreiro","Artigo 20.º, n.º 1, alínea a) do Código dos Contratos Públicos",30-06-2016,"52.369,38 €",,,,Não aplicável.,Não aplicável.,FALSE
Seguro de Acidentes de Trabalho,Ajuste Direto Regime Geral,Aquisição de serviços,"66512100-3, Serviços de seguros de acidentes","Centro Hospitalar Barreiro Montijo, E. P. E. (509186998)","WILLS - Corretores de Seguros, SA (500188629)","49.931,07 €",25-07-2016,04-01-2016,90 dias,"Portugal, Setúbal, Barreiro","Artigo 20.º, n.º 1, alínea a) do Código dos Contratos Públicos",31-03-2016,"49.931,07 €",,,,Não aplicável.,Não aplicável.,FALSE
FEXC0162/2016 - LEDIPASVIR 90MG + SOFOSBUVIR 400MG COMP;  SOFOSBUVIR 400MG COMP,Ajuste Direto Regime Geral,Aquisição de bens móveis,"33600000-6, Produtos farmacêuticos","Centro Hospitalar Barreiro Montijo, E. P. E. (509186998)","GILEAD SCIENCES, LDA. (503604704)","262.046,04 €",22-07-2016,21-07-2016,5 dias,"Portugal, Setúbal, Barreiro","Artigo 24.º, n.º 1, alínea e) do Código dos Contratos Públicos",21-07-2016,"262.046,04 €",,,,Não aplicável.,Não aplicável.,FALSE
FIEX0055/2016 - FLUCONAZOL 40 MG/ML (200 MG / 5ML ) FRS SUSP ORAL,Ao abrigo de acordo-quadro (art.º 259.º),Aquisição de bens móveis,"33600000-6, Produtos farmacêuticos","Centro Hospitalar Barreiro Montijo, E. P. E. (509186998)","LABORATORIOS PFIZER, S.A. (500162166)","133,11 €",22-07-2016,22-07-2016,5 dias,"Portugal, Setúbal, Barreiro",Artigo 259.º do Código dos Contratos Públicos,22-07-2016,"133,11 €",,,,455180,"CONCURSO PÚBLICO PARA A CELEBRAÇÃO DE CONTRATOS PÚBLICOS DE APROVISIONAMENTO PARA A ÁREA DA SAÚDE, COM VISTA AO FORNECIMENTO DE MEDICAMENTOS ANTI-INFECIOSOS: ANTIVÍRICOS E ANTIFÚNGICOS, ÀS INSTITUIÇÕES E SERVIÇOS DO SERVIÇO NACIONAL DE SAÚDE  ",FALSE
Aquisição de reagentes,Ajuste Direto Regime Geral,Aquisição de bens móveis,"33696500-0, Reagentes de laboratório","Centro Hospitalar Barreiro Montijo, E. P. E. (509186998)","ABBOTT LABORATORIOS, LDA (500006148)","17.269,00 €",21-07-2016,01-04-2016,20 dias,"Portugal, Setúbal, Barreiro","Artigo 20.º, n.º 1, alínea a) do Código dos Contratos Públicos",07-04-2016,"17.269,00 €",,,,Não aplicável.,Não aplicável.,FALSE
Aquisição de Reagentes,Ajuste Direto Regime Geral,Aquisição de bens móveis,"33696500-0, Reagentes de laboratório","Centro Hospitalar Barreiro Montijo, E. P. E. (509186998)","ABBOTT LABORATORIOS, LDA (500006148)","17.512,36 €",21-07-2016,01-04-2016,20 dias,"Portugal, Setúbal, Barreiro","Artigo 20.º, n.º 1, alínea a) do Código dos Contratos Públicos",07-04-2016,"17.512,36 €",,,,Não aplicável.,Não aplicável.,FALSE
"4IEX0003/2016 Cateter com tubo de infusão, cartucho e agulha para infusão bombas de insulina",Ao abrigo de acordo-quadro (art.º 258.º),Aquisição de bens móveis,"33000000-0, Equipamento médico, medicamentos e produtos para cuidados pessoais","Centro Hospitalar Barreiro Montijo, E. P. E. (509186998)","ROCHE SISTEMAS DE DIAGNOSTICO-SOC. UNIPESSOAL, Lda (504282921)","1.395,00 €",21-07-2016,22-06-2016,150 dias,"Portugal, Setúbal, Barreiro","Artigo 20.º, n.º 1, alínea a) do Código dos Contratos Públicos",22-06-2016,"1.395,00 €",,,,1442148,ACORDO QUADRO PARA FORNECIMENTO DE BOMBAS DE PERFUSÃO SUBCUTANEA CONTINUA DE INSULINA E RESPETIVOS CONSUMÍVEIS ÀS INSTITUIÇÕES E SERVIÇOS DO SERVIÇO NACIONAL DE SAÚDE. CP 2015/29,FALSE
"4IEX0004/2016 Agulhas de infusão, cateteres e cartuchos para bombas insulina  ",Ao abrigo de acordo-quadro (art.º 258.º),Aquisição de bens móveis,"33000000-0, Equipamento médico, medicamentos e produtos para cuidados pessoais","Centro Hospitalar Barreiro Montijo, E. P. E. (509186998)","ROCHE SISTEMAS DE DIAGNOSTICO-SOC. UNIPESSOAL, Lda (504282921)","1.240,00 €",21-07-2016,11-07-2016,150 dias,"Portugal, Setúbal, Barreiro","Artigo 20.º, n.º 1, alínea a) do Código dos Contratos Públicos",11-07-2016,"1.240,00 €",,,,1442148,ACORDO QUADRO PARA FORNECIMENTO DE BOMBAS DE PERFUSÃO SUBCUTANEA CONTINUA DE INSULINA E RESPETIVOS CONSUMÍVEIS ÀS INSTITUIÇÕES E SERVIÇOS DO SERVIÇO NACIONAL DE SAÚDE. CP 2015/29,FALSE
Consumíveis para bombas de insulina,Ao abrigo de acordo-quadro (art.º 258.º),Aquisição de bens móveis,"33000000-0, Equipamento médico, medicamentos e produtos para cuidados pessoais","Centro Hospitalar Barreiro Montijo, E. P. E. (509186998)","ROCHE SISTEMAS DE DIAGNOSTICO-SOC. UNIPESSOAL, Lda (504282921)","3.570,00 €",21-07-2016,12-07-2016,150 dias,"Portugal, Setúbal, Barreiro","Artigo 20.º, n.º 1, alínea a) do Código dos Contratos Públicos",12-07-2016,"3.570,00 €",,,,1442148,ACORDO QUADRO PARA FORNECIMENTO DE BOMBAS DE PERFUSÃO SUBCUTANEA CONTINUA DE INSULINA E RESPETIVOS CONSUMÍVEIS ÀS INSTITUIÇÕES E SERVIÇOS DO SERVIÇO NACIONAL DE SAÚDE. CP 2015/29,FALSE
FEXC0160/2016 - SOFOSBUVIR 400 MG COMP REVES,Ajuste Direto Regime Geral,Aquisição de bens móveis,"33600000-6, Produtos farmacêuticos","Centro Hospitalar Barreiro Montijo, E. P. E. (509186998)","GILEAD SCIENCES, LDA. (503604704)","41.164,83 €",21-07-2016,20-07-2016,5 dias,"Portugal, Setúbal, Barreiro","Artigo 24.º, n.º 1, alínea e) do Código dos Contratos Públicos",21-07-2016,"41.164,83 €",,,,Não aplicável.,Não aplicável.,FALSE
