Objeto do Contrato,Tipo de Procedimento,Tipo(s) de Contrato,CPVs,Entidade(s) Adjudicante(s),Entidade(s) Adjudicatária(s),Preço Contratual,Data de Publicação,Data de Celebração do Contrato,Prazo de Execução,Local de Execução,Fundamentação,Data de Fecho do Contrato,Preço Total Efetivo,Causas das Alterações ao Prazo,Causas das Alterações ao Preço,Estado,N.º registo do Acordo Quadro,Descrição do Acordo Quadro,Procedimento Centralizado
1-2.0064/19,Concurso público,Aquisição de bens móveis,"33140000-3, Material médico de consumo","Centro Hospitalar Universitário Lisboa Central, E. P. E. (508080142)",ABBOTT MEDICAL PORT. DIST. PROD.MED. (EX. ST.JUDE) (504180746),"52.200,00 €",05-02-2019,25-01-2019,365 dias,"Portugal, Lisboa, Lisboa","Artigo 21.º, n.º 1, alínea a) do Código dos Contratos Públicos",,,,,,Não aplicável.,Não aplicável.,FALSE
Microcateter para a Angiografia,Concurso público,Aquisição de bens móveis,"33140000-3, Material médico de consumo","Centro Hospitalar de Lisboa Central, E.P.E. (CHLC) (508080142)",MEDICINALIA- CORMEDICA LDA (500684324),"46.360,00 €",05-02-2019,25-01-2019,365 dias,"Portugal, Lisboa, Lisboa<BR/>Portugal","Artigo 20.º, n.º 1, alínea b) do Código dos Contratos Públicos",,,,,,Não aplicável.,Não aplicável.,FALSE
Microcateter para a Angiografia,Concurso público,Aquisição de bens móveis,"33140000-3, Material médico de consumo","Centro Hospitalar de Lisboa Central, E.P.E. (CHLC) (508080142)","CARDINAL HEALTH PORTUGAL 513 UNIPESSOAL, LDA (513620834)","24.320,00 €",05-02-2019,25-01-2019,365 dias,"Portugal<BR/>Portugal, Lisboa, Lisboa","Artigo 20.º, n.º 1, alínea b) do Código dos Contratos Públicos",,,,,,Não aplicável.,Não aplicável.,FALSE
Microcateter para a Angiografia,Concurso público,Aquisição de bens móveis,"33140000-3, Material médico de consumo","Centro Hospitalar de Lisboa Central, E.P.E. (CHLC) (508080142)","BIOMEDICA - SOCIEDADE DE PRODUTOS MÉDICOS,LDA (501745459)","47.878,00 €",05-02-2019,25-01-2019,365 dias,"Portugal, Lisboa, Lisboa<BR/>Portugal","Artigo 20.º, n.º 1, alínea b) do Código dos Contratos Públicos",,,,,,Não aplicável.,Não aplicável.,FALSE
Microcateter para a Angiografia,Concurso público,Aquisição de bens móveis,"33140000-3, Material médico de consumo","Centro Hospitalar de Lisboa Central, E.P.E. (CHLC) (508080142)",BIOSONDA-COMERC MATERIAL HOSPITALAR (501463313),"20.947,50 €",05-02-2019,25-01-2019,365 dias,"Portugal<BR/>Portugal, Lisboa, Lisboa","Artigo 20.º, n.º 1, alínea b) do Código dos Contratos Públicos",,,,,,Não aplicável.,Não aplicável.,FALSE
1-2.0083/19,Concurso público,Aquisição de bens móveis,"33140000-3, Material médico de consumo","Centro Hospitalar Universitário Lisboa Central, E. P. E. (508080142)",Terumo Europe España S.L. (980472024),"1.292,00 €",05-02-2019,22-01-2019,365 dias,"Portugal, Lisboa, Lisboa","Artigo 20.º, n.º 1, alínea b) do Código dos Contratos Públicos",,,,,,Não aplicável.,Não aplicável.,FALSE
1-2.0083/19,Concurso público,Aquisição de bens móveis,"33140000-3, Material médico de consumo","Centro Hospitalar Universitário Lisboa Central, E. P. E. (508080142)","MERIT MEDICAL PORTUGAL, S.A. (513157816)","6.325,00 €",05-02-2019,22-01-2019,365 dias,"Portugal, Lisboa, Lisboa","Artigo 20.º, n.º 1, alínea b) do Código dos Contratos Públicos",,,,,,Não aplicável.,Não aplicável.,FALSE
1-2.0083/19,Concurso público,Aquisição de bens móveis,"33140000-3, Material médico de consumo","Centro Hospitalar Universitário Lisboa Central, E. P. E. (508080142)","MEDTRONIC PORTUGAL, LDA. (504223933)","61.750,00 €",05-02-2019,29-01-2019,365 dias,"Portugal, Lisboa, Lisboa","Artigo 20.º, n.º 1, alínea b) do Código dos Contratos Públicos",,,,,,Não aplicável.,Não aplicável.,FALSE
1-2.0083/19,Concurso público,Aquisição de bens móveis,"33140000-3, Material médico de consumo","Centro Hospitalar Universitário Lisboa Central, E. P. E. (508080142)","CARDINAL HEALTH PORTUGAL 513 UNIPESSOAL, LDA (513620834)","33.915,00 €",05-02-2019,30-01-2019,365 dias,"Portugal, Lisboa, Lisboa","Artigo 20.º, n.º 1, alínea b) do Código dos Contratos Públicos",,,,,,Não aplicável.,Não aplicável.,FALSE
1-2.0083/19,Concurso público,Aquisição de bens móveis,"33140000-3, Material médico de consumo","Centro Hospitalar Universitário Lisboa Central, E. P. E. (508080142)","BOSTON SCIENTIFIC PORTUGAL, LDA (504988964)","8.075,00 €",05-02-2019,22-01-2019,365 dias,"Portugal, Lisboa, Lisboa","Artigo 20.º, n.º 1, alínea b) do Código dos Contratos Públicos",,,,,,Não aplicável.,Não aplicável.,FALSE
Teste olho seco e electrodo corneano,Ajuste Direto Regime Geral,Aquisição de bens móveis,"33000000-0, Equipamento médico, medicamentos e produtos para cuidados pessoais","Centro Hospitalar Universitário Lisboa Central, E. P. E. (508080142)","José Cotta - Equipamentos Médicos e Serviços, Lda (500155739)","2.528,50 €",04-02-2019,31-01-2019,10 dias,"Portugal, Lisboa, Lisboa","Artigo 20.º, n.º 1, alínea d) do Código dos Contratos Públicos",,,,,,Não aplicável.,Não aplicável.,FALSE
"1-2.0011/19 - Imobilizadores, Pensos e Outros",Concurso público,Aquisição de bens móveis,"33140000-3, Material médico de consumo","Centro Hospitalar Universitário Lisboa Central, E. P. E. (508080142)",QUILABAN QUIMICA LAB ANALITICA (500399670),"13.029,70 €",04-02-2019,21-01-2019,365 dias,"Portugal, Lisboa, Lisboa","Artigo 20.º, n.º 1, alínea a) do Código dos Contratos Públicos",,,,,,Não aplicável.,Não aplicável.,FALSE
"1-2.0011/19 - Imobilizadores, Pensos e Outros",Concurso público,Aquisição de bens móveis,"33140000-3, Material médico de consumo","Centro Hospitalar Universitário Lisboa Central, E. P. E. (508080142)","FACTOR PLUS, SA (502810645)","31.380,00 €",04-02-2019,21-01-2019,365 dias,"Portugal, Lisboa, Lisboa","Artigo 20.º, n.º 1, alínea a) do Código dos Contratos Públicos",,,,,,Não aplicável.,Não aplicável.,FALSE
"1-2.0011/19 - Imobilizadores, Pensos e Outros",Concurso público,Aquisição de bens móveis,"33140000-3, Material médico de consumo","Centro Hospitalar Universitário Lisboa Central, E. P. E. (508080142)","CLINIFAR PRODUTOS  CLINICOS E FARMACEUTICOS, SA (503281115)","64.584,00 €",04-02-2019,21-01-2019,365 dias,"Portugal, Lisboa, Lisboa","Artigo 20.º, n.º 1, alínea a) do Código dos Contratos Públicos",,,,,,Não aplicável.,Não aplicável.,FALSE
"1-2.0011/19 - Imobilizadores, Pensos e Outros",Concurso público,Aquisição de bens móveis,"33140000-3, Material médico de consumo","Centro Hospitalar Universitário Lisboa Central, E. P. E. (508080142)","Aviquimica, Lda. (500039720)","2.915,50 €",04-02-2019,21-01-2019,365 dias,"Portugal, Lisboa, Lisboa","Artigo 20.º, n.º 1, alínea a) do Código dos Contratos Públicos",,,,,,Não aplicável.,Não aplicável.,FALSE
"1-2.0011/19 - Imobilizadores, Pensos e Outros",Concurso público,Aquisição de bens móveis,"33140000-3, Material médico de consumo","Centro Hospitalar Universitário Lisboa Central, E. P. E. (508080142)",ANASTACIO SALDANHA UNIPESSOAL LDA. (505804441),"412,60 €",04-02-2019,21-01-2019,365 dias,"Portugal, Lisboa, Lisboa","Artigo 20.º, n.º 1, alínea a) do Código dos Contratos Públicos",,,,,,Não aplicável.,Não aplicável.,FALSE
Diversos Sistemas para 2019,Concurso público,Aquisição de bens móveis,"33140000-3, Material médico de consumo","Centro Hospitalar de Lisboa Central, E.P.E. (CHLC) (508080142)",SMITHS MEDICAL (507445937),"19.920,00 €",02-02-2019,17-01-2019,365 dias,Portugal,"Artigo 20.º, n.º 1, alínea a) do Código dos Contratos Públicos",,,,,,Não aplicável.,Não aplicável.,FALSE
Diversos Sistemas para 2019,Concurso público,Aquisição de bens móveis,"33140000-3, Material médico de consumo","Centro Hospitalar de Lisboa Central, E.P.E. (CHLC) (508080142)","PMH PRODUTOS MEDIC. HOSPITAL, SA (502376899)","1.487,50 €",02-02-2019,17-01-2019,365 dias,Portugal,"Artigo 20.º, n.º 1, alínea a) do Código dos Contratos Públicos",,,,,,Não aplicável.,Não aplicável.,FALSE
Diversos Sistemas para 2019,Concurso público,Aquisição de bens móveis,"33140000-3, Material médico de consumo","Centro Hospitalar de Lisboa Central, E.P.E. (CHLC) (508080142)","Overpharma, Lda. (505792362)","7.424,00 €",02-02-2019,17-01-2019,365 dias,Portugal,"Artigo 20.º, n.º 1, alínea a) do Código dos Contratos Públicos",,,,,,Não aplicável.,Não aplicável.,FALSE
Diversos Sistemas para 2019,Concurso público,Aquisição de bens móveis,"33140000-3, Material médico de consumo","Centro Hospitalar de Lisboa Central, E.P.E. (CHLC) (508080142)",Fresenius Kabi (504293753),"65.893,50 €",02-02-2019,17-01-2019,365 dias,Portugal,"Artigo 20.º, n.º 1, alínea a) do Código dos Contratos Públicos",,,,,,Não aplicável.,Não aplicável.,FALSE
Diversos Sistemas para 2019,Concurso público,Aquisição de bens móveis,"33140000-3, Material médico de consumo","Centro Hospitalar de Lisboa Central, E.P.E. (CHLC) (508080142)",B BRAUN MEDICAL LDA (501506543),"59.598,00 €",02-02-2019,17-01-2019,365 dias,Portugal,"Artigo 20.º, n.º 1, alínea a) do Código dos Contratos Públicos",,,,,,Não aplicável.,Não aplicável.,FALSE
"Aquisição de sistemas fotossensíveis, com colocação de 3 bombas volumétricas",Concurso público,Aquisição de bens móveis,"33140000-3, Material médico de consumo","Centro Hospitalar de Lisboa Central, E.P.E. (CHLC) (508080142)",B BRAUN MEDICAL LDA (501506543),"20.610,00 €",01-02-2019,25-01-2019,91 dias,Portugal,"Artigo 20.º, n.º 1, alínea b) do Código dos Contratos Públicos",,,,,,Não aplicável.,Não aplicável.,FALSE
"Aquisição de Cápsulas de Gastro, com colocação de equipamento p/ 2019",Concurso público,Aquisição de bens móveis,"33140000-3, Material médico de consumo","Centro Hospitalar de Lisboa Central, E.P.E. (CHLC) (508080142)","MEDTRONIC PORTUGAL, LDA. (504223933)","187.272,00 €",01-02-2019,24-01-2019,365 dias,"Portugal<BR/>Portugal, Lisboa, Lisboa","Artigo 20.º, n.º 1, alínea a) do Código dos Contratos Públicos",,,,,,Não aplicável.,Não aplicável.,FALSE
1-2.0024/19 - Cateteres Endovenosos e Centrais,Concurso público,Aquisição de bens móveis,"33140000-3, Material médico de consumo","Centro Hospitalar Universitário Lisboa Central, E. P. E. (508080142)","TELEFLEX MEDICAL, S.A. (980249783)","86.192,70 €",01-02-2019,21-01-2019,365 dias,"Portugal, Lisboa, Lisboa","Artigo 20.º, n.º 1, alínea a) do Código dos Contratos Públicos",,,,,,Não aplicável.,Não aplicável.,FALSE
1-2.0024/19 - Cateteres Endovenosos e Centrais,Concurso público,Aquisição de bens móveis,"33140000-3, Material médico de consumo","Centro Hospitalar Universitário Lisboa Central, E. P. E. (508080142)","OVERPHARMA, LDA (505792362)","41.704,60 €",01-02-2019,21-01-2019,365 dias,"Portugal, Lisboa, Lisboa","Artigo 20.º, n.º 1, alínea a) do Código dos Contratos Públicos",,,,,,Não aplicável.,Não aplicável.,FALSE
1-2.0024/19 - Cateteres Endovenosos e Centrais,Concurso público,Aquisição de bens móveis,"33140000-3, Material médico de consumo","Centro Hospitalar Universitário Lisboa Central, E. P. E. (508080142)","MEDICINALIA CORMEDICA - COMER. PROD. MED. HOSP.,LD (500684324)","14.295,00 €",01-02-2019,21-01-2019,365 dias,"Portugal, Lisboa, Lisboa","Artigo 20.º, n.º 1, alínea a) do Código dos Contratos Públicos",,,,,,Não aplicável.,Não aplicável.,FALSE
1-2.0024/19 - Cateteres Endovenosos e Centrais,Concurso público,Aquisição de bens móveis,"33140000-3, Material médico de consumo","Centro Hospitalar Universitário Lisboa Central, E. P. E. (508080142)","B BRAUN MEDICAL, LDA (501506543)","4.532,90 €",01-02-2019,21-01-2019,365 dias,"Portugal, Lisboa, Lisboa","Artigo 20.º, n.º 1, alínea a) do Código dos Contratos Públicos",,,,,,Não aplicável.,Não aplicável.,FALSE
Agulhas para Microondas para 2019,Concurso público,Aquisição de bens móveis,"33140000-3, Material médico de consumo","Centro Hospitalar de Lisboa Central, E.P.E. (CHLC) (508080142)","MEDTRONIC PORTUGAL, LDA. (504223933)","192.000,00 €",01-02-2019,24-01-2019,365 dias,Portugal,"Artigo 20.º, n.º 1, alínea a) do Código dos Contratos Públicos",,,,,,Não aplicável.,Não aplicável.,FALSE
Agulhas para Microondas para 2019,Concurso público,Aquisição de bens móveis,"33140000-3, Material médico de consumo","Centro Hospitalar de Lisboa Central, E.P.E. (CHLC) (508080142)","MEDICINALIA CORMEDICA - COMER. PROD. MED. HOSP.,LD (500684324)","83.400,00 €",01-02-2019,24-01-2019,365 dias,"Portugal, Lisboa, Lisboa<BR/>Portugal","Artigo 20.º, n.º 1, alínea a) do Código dos Contratos Públicos",,,,,,Não aplicável.,Não aplicável.,FALSE
"Sondas, Seringas para Administração de Medicamentos e Outros para 2019",Concurso público,Aquisição de bens móveis,"33140000-3, Material médico de consumo","Centro Hospitalar Universitário Lisboa Central, E. P. E. (508080142)","VYGON (PORTUGAL), LDA (503232785)","19.708,45 €",01-02-2019,18-01-2019,365 dias,Portugal,"Artigo 20.º, n.º 1, alínea a) do Código dos Contratos Públicos",,,,,,Não aplicável.,Não aplicável.,FALSE
"Sondas, Seringas para Administração de Medicamentos e Outros para 2019",Concurso público,Aquisição de bens móveis,"33140000-3, Material médico de consumo","Centro Hospitalar Universitário Lisboa Central, E. P. E. (508080142)","PMH PRODUTOS MEDIC. HOSPITAL, SA (502376899)","60.141,30 €",01-02-2019,24-01-2019,365 dias,Portugal,"Artigo 20.º, n.º 1, alínea a) do Código dos Contratos Públicos",,,,,,Não aplicável.,Não aplicável.,FALSE
"Sondas, Seringas para Administração de Medicamentos e Outros para 2019",Concurso público,Aquisição de bens móveis,"33140000-3, Material médico de consumo","Centro Hospitalar Universitário Lisboa Central, E. P. E. (508080142)","OVERPHARMA, LDA (505792362)","636,00 €",01-02-2019,24-01-2019,365 dias,Portugal,"Artigo 20.º, n.º 1, alínea a) do Código dos Contratos Públicos",,,,,,Não aplicável.,Não aplicável.,FALSE
"Sondas, Seringas para Administração de Medicamentos e Outros para 2019",Concurso público,Aquisição de bens móveis,"33140000-3, Material médico de consumo","Centro Hospitalar Universitário Lisboa Central, E. P. E. (508080142)",Mundinter - Intercâmbio Mundial de Comércio S.A.  (500199906),"276,62 €",01-02-2019,24-01-2019,365 dias,Portugal,"Artigo 20.º, n.º 1, alínea a) do Código dos Contratos Públicos",,,,,,Não aplicável.,Não aplicável.,FALSE
"Sondas, Seringas para Administração de Medicamentos e Outros para 2019",Concurso público,Aquisição de bens móveis,"33140000-3, Material médico de consumo","Centro Hospitalar Universitário Lisboa Central, E. P. E. (508080142)","H.R. Hospitalar, Ldª (501895558)","343,00 €",01-02-2019,24-01-2019,365 dias,Portugal,"Artigo 20.º, n.º 1, alínea a) do Código dos Contratos Públicos",,,,,,Não aplicável.,Não aplicável.,FALSE
"Sondas, Seringas para Administração de Medicamentos e Outros para 2019",Concurso público,Aquisição de bens móveis,"33140000-3, Material médico de consumo","Centro Hospitalar Universitário Lisboa Central, E. P. E. (508080142)",DIMOR LUSITANA-COM.PROD.SAUDE E HIG (500730741),"1.080,00 €",01-02-2019,18-01-2019,365 dias,Portugal,"Artigo 20.º, n.º 1, alínea a) do Código dos Contratos Públicos",,,,,,Não aplicável.,Não aplicável.,FALSE
Diverso Material de Citostáticos para 2019,Concurso público,Aquisição de bens móveis,"33140000-3, Material médico de consumo","Centro Hospitalar Universitário Lisboa Central, E. P. E. (508080142)","CLINIFAR PRODUTOS  CLINICOS E FARMACEUTICOS, SA (503281115)","895,00 €",01-02-2019,21-01-2019,365 dias,Portugal,"Artigo 20.º, n.º 1, alínea a) do Código dos Contratos Públicos",,,,,,Não aplicável.,Não aplicável.,FALSE
Diverso Material de Citostáticos para 2019,Concurso público,Aquisição de bens móveis,"33140000-3, Material médico de consumo","Centro Hospitalar Universitário Lisboa Central, E. P. E. (508080142)","VYGON (PORTUGAL), LDA (503232785)","3.429,00 €",01-02-2019,21-01-2019,365 dias,Portugal,"Artigo 20.º, n.º 1, alínea a) do Código dos Contratos Públicos",,,,,,Não aplicável.,Não aplicável.,FALSE
Diverso Material de Citostáticos para 2019,Concurso público,Aquisição de bens móveis,"33140000-3, Material médico de consumo","Centro Hospitalar Universitário Lisboa Central, E. P. E. (508080142)","PMH PRODUTOS MEDIC. HOSPITAL, SA (502376899)","1.194,75 €",01-02-2019,21-01-2019,365 dias,Portugal,"Artigo 20.º, n.º 1, alínea a) do Código dos Contratos Públicos",,,,,,Não aplicável.,Não aplicável.,FALSE
Diverso Material de Citostáticos para 2019,Concurso público,Aquisição de bens móveis,"33140000-3, Material médico de consumo","Centro Hospitalar Universitário Lisboa Central, E. P. E. (508080142)","H.R. Hospitalar, Ldª (501895558)","6.500,00 €",01-02-2019,21-01-2019,365 dias,Portugal,"Artigo 20.º, n.º 1, alínea a) do Código dos Contratos Públicos",,,,,,Não aplicável.,Não aplicável.,FALSE
Diverso Material de Citostáticos para 2019,Concurso público,Aquisição de bens móveis,"33140000-3, Material médico de consumo","Centro Hospitalar Universitário Lisboa Central, E. P. E. (508080142)","CLINIFAR PRODUTOS  CLINICOS E FARMACEUTICOS, SA (503281115)","14.799,00 €",01-02-2019,21-01-2019,365 dias,Portugal,"Artigo 20.º, n.º 1, alínea a) do Código dos Contratos Públicos",,,,,,Não aplicável.,Não aplicável.,FALSE
Diverso Material de Citostáticos para 2019,Concurso público,Aquisição de bens móveis,"33140000-3, Material médico de consumo","Centro Hospitalar Universitário Lisboa Central, E. P. E. (508080142)","B BRAUN MEDICAL, LDA (501506543)","33.204,50 €",01-02-2019,21-01-2019,365 dias,Portugal,"Artigo 20.º, n.º 1, alínea a) do Código dos Contratos Públicos",,,,,,Não aplicável.,Não aplicável.,FALSE
Diversas Pulseiras,Concurso público,Aquisição de bens móveis,"33140000-3, Material médico de consumo","Centro Hospitalar de Lisboa Central, E.P.E. (CHLC) (508080142)",EPJMEDICA ARTIGOS MEDICOS E HOSPITALARES (506820513),"1.086,40 €",31-01-2019,22-01-2019,365 dias,Portugal,"Artigo 20.º, n.º 1, alínea a) do Código dos Contratos Públicos",,,,,,Não aplicável.,Não aplicável.,FALSE
Diversas Pulseiras,Concurso público,Aquisição de bens móveis,"33140000-3, Material médico de consumo","Centro Hospitalar de Lisboa Central, E.P.E. (CHLC) (508080142)","Anastácio Saldanha Unipessoal, Lda (505804441)","2.888,90 €",31-01-2019,22-01-2019,365 dias,Portugal,"Artigo 20.º, n.º 1, alínea a) do Código dos Contratos Públicos",,,,,,Não aplicável.,Não aplicável.,FALSE
Diversas Pulseiras,Concurso público,Aquisição de bens móveis,"33140000-3, Material médico de consumo","Centro Hospitalar de Lisboa Central, E.P.E. (CHLC) (508080142)","EZEQUIEL PANAO JORGE, LDA (501412727)","7.177,50 €",31-01-2019,22-01-2019,365 dias,Portugal,"Artigo 20.º, n.º 1, alínea a) do Código dos Contratos Públicos",,,,,,Não aplicável.,Não aplicável.,FALSE
Diversas Pulseiras,Concurso público,Aquisição de bens móveis,"33140000-3, Material médico de consumo","Centro Hospitalar de Lisboa Central, E.P.E. (CHLC) (508080142)","GRIFOLS PORTUGAL- PROD.FARM.HOSP., (502041285)","22.800,00 €",31-01-2019,23-01-2019,365 dias,Portugal,"Artigo 20.º, n.º 1, alínea a) do Código dos Contratos Públicos",,,,,,Não aplicável.,Não aplicável.,FALSE
