Objeto do Contrato,Tipo de Procedimento,Tipo(s) de Contrato,CPVs,Entidade(s) Adjudicante(s),Entidade(s) Adjudicatária(s),Preço Contratual,Data de Publicação,Data de Celebração do Contrato,Prazo de Execução,Local de Execução,Fundamentação,Data de Fecho do Contrato,Preço Total Efetivo,Causas das Alterações ao Prazo,Causas das Alterações ao Preço,Estado,N.º registo do Acordo Quadro,Descrição do Acordo Quadro,Procedimento Centralizado
"Sutura Sintética absorvível, multifilamentar entrançado em ácido poliglicólico, 6/0, cor violeta c/ agulha dupla 1/4c espat. micro-ponto 8mm, 45cm",Ajuste Direto Regime Geral,Aquisição de bens móveis,"33141121-4, Suturas cirúrgicas",Instituto de Oftalmologia Doutor Gama Pinto (IOGP) (600000052),"B. BRAUN MEDICAL, LDA (501506543)","216,00 €",21-03-2018,19-03-2018,285 dias,"Portugal, Lisboa, Lisboa","Artigo 20.º, n.º 1, alínea a) do Código dos Contratos Públicos",03-01-2019,"72,00 €",,Fornecedor não entregou restante material,,Não aplicável.,Não aplicável.,FALSE
Agulhas e Sistemas,Ajuste Direto Regime Geral,Aquisição de bens móveis,"33140000-3, Material médico de consumo",Instituto de Oftalmologia do Dr. Gama Pinto (600000052),ABBOTT MEDICAL OPTICS SPAIN (980262364),"7.358,78 €",15-03-2018,24-01-2018,341 dias,"Portugal, Lisboa, Lisboa","Artigo 24.º, n.º 1, alínea e) do Código dos Contratos Públicos",02-01-2019,"7.358,78 €",,"",,Não aplicável.,Não aplicável.,FALSE
Mangas Mistas,Ao abrigo de acordo-quadro (art.º 259.º),Aquisição de bens móveis,"33198200-6, Saquetas e invólucros de papel para esterilização",Instituto de Oftalmologia do Dr. Gama Pinto (600000052),"EUROCASMEDICA,S.A. (503322105)","285,80 €",15-03-2018,15-03-2018,298 dias,"Portugal, Lisboa, Lisboa",Artigo 259.º do Código dos Contratos Públicos,08-11-2018,"285,80 €",,"",,1974943,CP 2016/43 - Acordo quadro para fornecimento de Material para Empacotamento em Esterilização às Instituições e Serviços do Serviço Nacional de Saúde.,FALSE
Mangas Mistas,Ao abrigo de acordo-quadro (art.º 259.º),Aquisição de bens móveis,"33198200-6, Saquetas e invólucros de papel para esterilização",Instituto de Oftalmologia do Dr. Gama Pinto (600000052),BASTOS VIEGAS (500042772),"1.502,20 €",15-03-2018,15-03-2018,298 dias,"Portugal, Lisboa, Lisboa",Artigo 259.º do Código dos Contratos Públicos,08-11-2018,"1.502,20 €",,"",,1974943,CP 2016/43 - Acordo quadro para fornecimento de Material para Empacotamento em Esterilização às Instituições e Serviços do Serviço Nacional de Saúde.,FALSE
Fato Túnica e Calça XL,Ao abrigo de acordo-quadro (art.º 259.º),Aquisição de bens móveis,"33141000-0, Material médico não químico descartável e produtos hematológicos",Instituto de Oftalmologia do Dr. Gama Pinto (600000052),OASIPOR (502260750),"39,50 €",15-03-2018,08-03-2018,296 dias,"Portugal, Lisboa, Lisboa",Artigo 259.º do Código dos Contratos Públicos,10-09-2018,"39,50 €",,"",,1210117,"CONCURSO PÚBLICO PARA A CELEBRAÇÃO DE CONTRATOS PÚBLICOS DE APROVISIONAMENTO PARA A ÁREA DA SAÚDE, COM VISTA AO FORNECIMENTO DE MATERIAL DE INCONTINENCIA E ALIVIO DE PRESSÃO, ÀS INSTITUIÇÕES E SERVIÇOS DO SERVIÇO NACIONAL DE SAÚDE",FALSE
Fato Túnica e Calça L,Ao abrigo de acordo-quadro (art.º 259.º),Aquisição de bens móveis,"33141000-0, Material médico não químico descartável e produtos hematológicos",Instituto de Oftalmologia do Dr. Gama Pinto (600000052),Quilaban (500399670),"39,00 €",15-03-2018,08-03-2018,298 dias,"Portugal, Lisboa, Lisboa",Artigo 259.º do Código dos Contratos Públicos,08-10-2018,"39,00 €",,"",,1210117,"CONCURSO PÚBLICO PARA A CELEBRAÇÃO DE CONTRATOS PÚBLICOS DE APROVISIONAMENTO PARA A ÁREA DA SAÚDE, COM VISTA AO FORNECIMENTO DE MATERIAL DE INCONTINENCIA E ALIVIO DE PRESSÃO, ÀS INSTITUIÇÕES E SERVIÇOS DO SERVIÇO NACIONAL DE SAÚDE",FALSE
SPMS 00103_2017 AGRAGAÇÃO Papel Economato,Ajuste Direto Regime Geral,Aquisição de bens móveis,"22000000-0, Material impresso e afins",Instituto de Oftalmologia do Dr. Gama Pinto (600000052),"OHM Técnica-Representação de Marcas, Lda. (504059521)","824,23 €",12-03-2018,16-01-2018,349 dias,"Portugal, Lisboa, Lisboa","Artigo 20.º, n.º 1, alínea a) do Código dos Contratos Públicos",08-01-2019,"824,23 €",,"",,Não aplicável.,Não aplicável.,FALSE
