Objeto do Contrato,Tipo de Procedimento,Tipo(s) de Contrato,CPVs,Entidade(s) Adjudicante(s),Entidade(s) Adjudicatária(s),Preço Contratual,Data de Publicação,Data de Celebração do Contrato,Prazo de Execução,Local de Execução,Fundamentação,Data de Fecho do Contrato,Preço Total Efetivo,Causas das Alterações ao Prazo,Causas das Alterações ao Preço,Estado,N.º registo do Acordo Quadro,Descrição do Acordo Quadro,Procedimento Centralizado
Aquisição de kit´s de mesa de cateterismo,Ajuste Direto Regime Geral,Aquisição de bens móveis,"33140000-3, Material médico de consumo","Centro Hospitalar de Lisboa Central, E.P.E. (CHLC) (508080142)",Molnlycke Health Care (511101066),"13.336,00 €",13-03-2014,05-03-2014,301 dias,"Portugal, Lisboa, Lisboa","Artigo 20.º, n.º 1, alínea a) do Código dos Contratos Públicos",,,,,,Não aplicável.,Não aplicável.,FALSE
510027/14AQUISIÇÃO DE ALTEPLASE 10 MG PÓ SOL INJ FR IV,Ao abrigo de acordo-quadro (art.º 259.º),Aquisição de bens móveis,"33000000-0, Equipamento médico, medicamentos e produtos para cuidados pessoais","Centro Hospitalar de Lisboa Central, E. P. E. (508080142)",Unilparma Uniao Internacional Laboratorios Farmaceutico Lda (500293023),"74.152,00 €",13-03-2014,01-01-2014,365 dias,"Portugal, Lisboa, Lisboa",Artigo 259.º do Código dos Contratos Públicos,,,,,,599473,"CONCURSO PÚBLICO PARA A CELEBRAÇÃO DE CONTRATOS PÚBLICOS DE APROVISIONAMENTO PARA A ÁREA DA SAÚDE, COM VISTA AO FORNECIMENTO DE MEDICAMENTOS DE CONSUMO GERAL, GRUPO 4: SANGUE ÀS INSTITUIÇÕES E SERVIÇOS DO SERVIÇO NACIONAL DE SAÚDE",FALSE
"Aquisição de barretes, toucas e bata de urologia",Ajuste Direto Regime Geral,Aquisição de bens móveis,"33140000-3, Material médico de consumo","Centro Hospitalar de Lisboa Central, E.P.E. (CHLC) (508080142)","Pergut Portugal, Lda (501799729)","2.318,40 €",13-03-2014,05-03-2014,301 dias,"Portugal, Lisboa, Lisboa","Artigo 20.º, n.º 1, alínea a) do Código dos Contratos Públicos",,,,,,Não aplicável.,Não aplicável.,FALSE
"Aquisição de barretes, toucas e bata de urologia",Ajuste Direto Regime Geral,Aquisição de bens móveis,"33140000-3, Material médico de consumo","Centro Hospitalar de Lisboa Central, E.P.E. (CHLC) (508080142)",Molnlycke Health Care (511101066),"7.804,50 €",13-03-2014,05-03-2014,301 dias,"Portugal, Lisboa, Lisboa","Artigo 20.º, n.º 1, alínea a) do Código dos Contratos Públicos",,,,,,Não aplicável.,Não aplicável.,FALSE
"Aquisição de barretes, toucas e bata de urologia",Ajuste Direto Regime Geral,Aquisição de bens móveis,"33140000-3, Material médico de consumo","Centro Hospitalar de Lisboa Central, E.P.E. (CHLC) (508080142)","Aviquimica - Importações e Manufacturas, Lda (500039720)","4.560,00 €",13-03-2014,05-03-2014,301 dias,"Portugal, Lisboa, Lisboa","Artigo 20.º, n.º 1, alínea a) do Código dos Contratos Públicos",,,,,,Não aplicável.,Não aplicável.,FALSE
Aquisição de trouxas cirúrgicos,Concurso público,Aquisição de bens móveis,"33140000-3, Material médico de consumo",Centro Hospitalar de Lisboa Central E.P.E. (508080142),Molnlycke Health Care (511101066),"82.526,40 €",13-03-2014,05-03-2014,301 dias,"Portugal, Lisboa, Lisboa","Artigo 20.º, n.º 1, alínea b) do Código dos Contratos Públicos",,,,,,Não aplicável.,Não aplicável.,FALSE
Aquisição de pack´s e kit´s cirúrgicos,Concurso público,Aquisição de bens móveis,"33140000-3, Material médico de consumo","Centro Hospitalar de Lisboa Central, E. P. E. (508080142)",Molnlycke Health Care (511101066),"112.113,07 €",13-03-2014,05-03-2014,301 dias,"Portugal, Lisboa, Lisboa","Artigo 20.º, n.º 2 do Código dos Contratos Públicos",,,,,,Não aplicável.,Não aplicável.,FALSE
"Aquisição de 40 seringas de Ustecinumab 45mg/0,5ml Sol Inj; 28 ampolas de Cladribina 1mg/ml Sol Inj 10ml IV",Ao abrigo de acordo-quadro (art.º 259.º),Aquisição de bens móveis,"33000000-0, Equipamento médico, medicamentos e produtos para cuidados pessoais","Centro Hospitalar de Lisboa Central, E. P. E. (508080142)",Janssen - Cilag Farmacêutica (500189412),"122.036,16 €",13-03-2014,02-01-2014,363 dias,"Portugal, Lisboa, Lisboa",Artigo 259.º do Código dos Contratos Públicos,,,,,,345900,CONCURSO PÚBLICO PARA A CELEBRAÇÃO DE CONTRATOS PÚBLICOS DE APROVISIONAMENTO PARA AQUISIÇÃO MEDICAMENTOS DO FORO ONCOLÓGICO,FALSE
510165/14POSACONAZOL 40 MG/ML SUSP ORAL FR 105 ML,Ao abrigo de acordo-quadro (art.º 259.º),Aquisição de bens móveis,"33000000-0, Equipamento médico, medicamentos e produtos para cuidados pessoais","Centro Hospitalar de Lisboa Central, E. P. E. (508080142)",merck sharp & dohme lda (500191360),"56.876,00 €",13-03-2014,07-01-2014,359 dias,"Portugal, Lisboa, Lisboa",Artigo 259.º do Código dos Contratos Públicos,,,,,,455180,"CONCURSO PÚBLICO PARA A CELEBRAÇÃO DE CONTRATOS PÚBLICOS DE APROVISIONAMENTO PARA A ÁREA DA SAÚDE, COM VISTA AO FORNECIMENTO DE MEDICAMENTOS ANTI-INFECIOSOS: ANTIVÍRICOS E ANTIFÚNGICOS, ÀS INSTITUIÇÕES E SERVIÇOS DO SERVIÇO NACIONAL DE SAÚDE  ",FALSE
aquisição de  Brometo de Ipatrópio; Bromexina 2mg/ml Sol Oral fr 40ml; Bromexina 8mg comp,Ao abrigo de acordo-quadro (art.º 259.º),Aquisição de bens móveis,"33000000-0, Equipamento médico, medicamentos e produtos para cuidados pessoais","Centro Hospitalar de Lisboa Central, E. P. E. (508080142)",Unilfarma (500293023),"34.296,69 €",13-03-2014,02-01-2014,363 dias,"Portugal, Lisboa, Lisboa",Artigo 259.º do Código dos Contratos Públicos,,,,,,602875,"CONCURSO PÚBLICO PARA A CELEBRAÇÃO DE CONTRATOS PÚBLICOS DE APROVISIONAMENTO PARA A ÁREA DA SAÚDE, COM VISTA AO FORNECIMENTO DE MEDICAMENTOS DE CONSUMO GERAL - USADOS NAS AFECÇÕES CUTÂNEAS, ÀS INSTITUIÇÕES E SERVIÇOS DO SERVIÇO NACIONAL DE SAÚDE",FALSE
Aquisição de 40992 frascos de Alcoól 70%,Ao abrigo de acordo-quadro (art.º 259.º),Aquisição de bens móveis,"33000000-0, Equipamento médico, medicamentos e produtos para cuidados pessoais","Centro Hospitalar de Lisboa Central, E. P. E. (508080142)",Proclinica (500222665),"53.289,60 €",13-03-2014,08-01-2014,357 dias,"Portugal, Lisboa, Lisboa",Artigo 259.º do Código dos Contratos Públicos,,,,,,178089,"CONCURSO PÚBLICO PARA A CELEBRAÇÃO DE CONTRATOS PÚBLICOS DE APROVISIONAMENTO PARA AQUISIÇÃO DE ANTISSÉPTICOS, DESINFECTANTES E OUTROS ",FALSE
"Carboxilmetilcelulose c/ prata 10x10cm; Carboxilmetilcelulose 15x15 penso,Carboxilmetilcelulose 2x45cm tiras",Ao abrigo de acordo-quadro (art.º 259.º),Aquisição de bens móveis,"33000000-0, Equipamento médico, medicamentos e produtos para cuidados pessoais","Centro Hospitalar de Lisboa Central, E. P. E. (508080142)",Convatec Kvetch Portugal (508671531),"29.966,00 €",13-03-2014,07-02-2014,38 dias,"Portugal, Lisboa, Lisboa",Artigo 259.º do Código dos Contratos Públicos,,,,,,490160,"CONCURSO PÚBLICO PARA A CELEBRAÇÃO DE CONTRATOS PÚBLICOS DE APROVISIONAMENTO PARA A ÁREA DA SAÚDE, COM VISTA AO FORNECIMENTO DE MATERIAL PENSO DE EFEITO TERAPÊUTICO - ÀS INSTITUIÇÕES E SERVIÇOS DO SERVIÇO NACIONAL DE SAÚDE",FALSE
410064/14 - Aquisição de Anacinra 100 mg / 0.67 ml sol. inj. ser. 0.67 ml SC,Ajuste Direto Regime Geral,Aquisição de bens móveis,"33600000-6, Produtos farmacêuticos","Centro Hospitalar de Lisboa Central, E. P. E. (508080142)","Dilofar - Distribuição Transportes e Logística, Lda. (500563004)","19.975,10 €",13-03-2014,05-02-2014,329 dias,"Portugal, Lisboa, Lisboa","Artigo 24.º, n.º 1, alínea e) do Código dos Contratos Públicos",,,,,,Não aplicável.,Não aplicável.,FALSE
410185/14 - Aquisição de Pancreatina 150 mg cáps. gr. e Pancreatina 300 mg cáps. gr.,Ajuste Direto Regime Geral,Aquisição de bens móveis,"33600000-6, Produtos farmacêuticos","Centro Hospitalar de Lisboa Central, E. P. E. (508080142)","Abbott Laboratórios, Lda. (500006148)","9.601,52 €",13-03-2014,12-02-2014,322 dias,"Portugal, Lisboa, Lisboa","Artigo 24.º, n.º 1, alínea e) do Código dos Contratos Públicos",,,,,,Não aplicável.,Não aplicável.,FALSE
"Aquisição de 210 ampolas de Bortezomib 3,5mg Pó Sol Inj Fr IV",Ao abrigo de acordo-quadro (art.º 259.º),Aquisição de bens móveis,"33000000-0, Equipamento médico, medicamentos e produtos para cuidados pessoais","Centro Hospitalar de Lisboa Central, E. P. E. (508080142)",Janssen CIlag (500189412),"205.291,80 €",13-03-2014,02-01-2014,363 dias,"Portugal, Lisboa, Lisboa",Artigo 259.º do Código dos Contratos Públicos,,,,,,383205,CONCURSO PÚBLICO PARA A CELEBRAÇÃO DE CONTRATOS PÚBLICOS DE APROVISIONAMENTO PARA AQUISIÇÃO MEDICAMENTOS DO FORO ONCOLÓGICO II,FALSE
410237/14 - Aquisição de Cladribina 2 mg/ml sol. inj. fr. 5 ml SC,Ajuste Direto Regime Geral,Aquisição de bens móveis,"33600000-6, Produtos farmacêuticos","Centro Hospitalar de Lisboa Central, E. P. E. (508080142)","Movianto Portugal, S.L.U. (509040411)","8.734,14 €",13-03-2014,17-02-2014,317 dias,"Portugal, Lisboa, Lisboa","Artigo 20.º, n.º 1, alínea a) do Código dos Contratos Públicos",,,,,,Não aplicável.,Não aplicável.,FALSE
Algálias com sensor de temperatura,Ajuste Direto Regime Geral,Aquisição de bens móveis,"33000000-0, Equipamento médico, medicamentos e produtos para cuidados pessoais","Centro Hospitalar de Lisboa Central, E. P. E. (508080142)","J.M.V., Lda. (501887148)","13.440,00 €",13-03-2014,06-03-2014,297 dias,"Portugal, Lisboa, Lisboa","Artigo 20.º, n.º 1, alínea a) do Código dos Contratos Públicos",,,,,,Não aplicável.,Não aplicável.,FALSE
510160/14PETIDINA 100 MG/2 ML SOL INJ FR 2 ML IM IV SC/ACETILSALICILATO DE LISINA 900 MG PÓ SOL INJ FR IM IV,Ao abrigo de acordo-quadro (art.º 259.º),Aquisição de bens móveis,"33000000-0, Equipamento médico, medicamentos e produtos para cuidados pessoais","Centro Hospitalar de Lisboa Central, E. P. E. (508080142)",Labesfal Laboratórios Almiro S.A (501169580),"4.653,66 €",13-03-2014,03-01-2014,365 dias,"Portugal, Lisboa, Lisboa",Artigo 259.º do Código dos Contratos Públicos,,,,,,461370,"CP 2012/44 - MEDICAMENTOS ANALGÉSICOS, ANTIPIRÉTICOS E ANTIDEPRESSIVOS",FALSE
510331/14 - Aquisição de Polielectroliticos,Ao abrigo de acordo-quadro (art.º 259.º),Aquisição de bens móveis,"33600000-6, Produtos farmacêuticos","Centro Hospitalar de Lisboa Central, E. P. E. (508080142)","Labesfal - Laboratórios Almiro, S.A. (501169580), Overpharma Prod. Médicos e Farmacêuticos, Lda. (505792362), B. Braun Medical, Lda. (501506543), Baxter Médico-Farmacêutica, Lda. (503347345)","96.643,60 €",13-03-2014,24-02-2014,311 dias,"Portugal, Lisboa, Lisboa",Artigo 259.º do Código dos Contratos Públicos,,,,,,405999,CONCURSO PÚBLICO PARA A CELEBRAÇÃO DE CONTRATOS PÚBLICOS DE APROVISIONAMENTO PARA AQUISIÇÃO CORRECTIVOS DA VOLÉMIA E OUTRAS SOLUÇÕES ESTÉREIS,FALSE
510020/14SIROLIMUS COMPRIMIDOS DE 1MG E 2MG,Ao abrigo de acordo-quadro (art.º 259.º),Aquisição de bens móveis,"33000000-0, Equipamento médico, medicamentos e produtos para cuidados pessoais","Centro Hospitalar de Lisboa Central, E. P. E. (508080142)",Laboratorios Pfizer (500162166),"374.594,67 €",13-03-2014,01-01-2014,365 dias,"Portugal, Lisboa, Lisboa",Artigo 259.º do Código dos Contratos Públicos,,,,,,383205,CONCURSO PÚBLICO PARA A CELEBRAÇÃO DE CONTRATOS PÚBLICOS DE APROVISIONAMENTO PARA AQUISIÇÃO MEDICAMENTOS DO FORO ONCOLÓGICO II,FALSE
510386/14 - Aquisição de Agalsidase Alfa 1 mg/ml sol. inj. fr. 3.5 ml IV,Ao abrigo de acordo-quadro (art.º 259.º),Aquisição de bens móveis,"33600000-6, Produtos farmacêuticos","Centro Hospitalar de Lisboa Central, E. P. E. (508080142)","Shire Pharmaceuticals Portugal, Lda. (509264662)","161.647,00 €",13-03-2014,24-02-2014,311 dias,"Portugal, Lisboa, Lisboa",Artigo 259.º do Código dos Contratos Públicos,,,,,,602067,"ONCURSO PÚBLICO PARA A CELEBRAÇÃO DE CONTRATOS PÚBLICOS DE APROVISIONAMENTO PARA A ÁREA DA SAÚDE, COM VISTA AO FORNECIMENTO DE MEDICAMENTOS DE CONSUMO GERAL - MEDICAÇÃO ANTIALÉRGICA, MEDICAMENTOS USADOS NO TRATAMENTO DE INTOXICAÇÕES, VITAMINAS E SAIS MINERAIS  E GRUPO 20.9 - OUTROS PRODUTOS, ÀS INSTITUIÇÕES E SERVIÇOS DO SERVIÇO NACIONAL DE SAÚDE",FALSE
"Aquisição dfe Bevacizumab. Tocilizumab,  Peginterferão Alfa 2-a  e Erlotinib",Ao abrigo de acordo-quadro (art.º 259.º),Aquisição de bens móveis,"33000000-0, Equipamento médico, medicamentos e produtos para cuidados pessoais","Centro Hospitalar de Lisboa Central, E. P. E. (508080142)",Roche farmacêtica Quimica (500233810),"415.280,47 €",13-03-2014,02-01-2014,363 dias,"Portugal, Lisboa, Lisboa",Artigo 259.º do Código dos Contratos Públicos,,,,,,383205,CONCURSO PÚBLICO PARA A CELEBRAÇÃO DE CONTRATOS PÚBLICOS DE APROVISIONAMENTO PARA AQUISIÇÃO MEDICAMENTOS DO FORO ONCOLÓGICO II,FALSE
510337/14ÁCIDO VALPRÓICO 400 MG PÓ SOL INJ FR IV,Ao abrigo de acordo-quadro (art.º 259.º),Aquisição de bens móveis,"33000000-0, Equipamento médico, medicamentos e produtos para cuidados pessoais","Centro Hospitalar de Lisboa Central, E. P. E. (508080142)",Generis- Farmaceutico S.A (508107997),"17.671,00 €",13-03-2014,12-02-2014,322 dias,"Portugal, Lisboa, Lisboa",Artigo 259.º do Código dos Contratos Públicos,,,,,,463786,"P 2012/2 - Medicamentos do Sistema Nervoso Cerebrospinal: exceto anestésicos, relaxantes musculares, analgésicos, antipiréticos, antidepressores e anti-psicóticos",FALSE
510113/14AQUISIÇÃO DE PORACTANTE ALFA 240 MG/3 ML SUSP INST ENDOTRAQ FR 3 ML,Ao abrigo de acordo-quadro (art.º 259.º),Aquisição de bens móveis,"33000000-0, Equipamento médico, medicamentos e produtos para cuidados pessoais","Centro Hospitalar de Lisboa Central, E. P. E. (508080142)",Angelini Farmaceutica Lda (500583650),"38.532,00 €",13-03-2014,02-01-2014,365 dias,"Portugal, Lisboa, Lisboa",Artigo 259.º do Código dos Contratos Públicos,,,,,,469931,CP 2012/12 - Medicamentos do Aparelho Respiratório,FALSE
Electrodos,Concurso público,Aquisição de bens móveis,"33140000-3, Material médico de consumo","Centro Hospitalar de Lisboa Central, E. P. E. (508080142)","Iberdata, S.A. (501904921)","1.728,00 €",13-03-2014,24-02-2014,297 dias,"Portugal, Lisboa, Lisboa","Artigo 20.º, n.º 1, alínea b) do Código dos Contratos Públicos",,,,,,Não aplicável.,Não aplicável.,FALSE
"Aquisição de  Oligoelementos  Adulto Sol Inj fr 10ml IV e A.A 15,4g/l n Sol Inj Fr 500ml",Ao abrigo de acordo-quadro (art.º 259.º),Aquisição de bens móveis,"33000000-0, Equipamento médico, medicamentos e produtos para cuidados pessoais","Centro Hospitalar de Lisboa Central, E. P. E. (508080142)",B. Braun Medical (501506543),"11.900,79 €",13-03-2014,02-01-2014,363 dias,"Portugal, Lisboa, Lisboa",Artigo 259.º do Código dos Contratos Públicos,,,,,,457058,"CONCURSO PÚBLICO PARA A CELEBRAÇÃO DE CONTRATOS PÚBLICOS DE APROVISIONAMENTO PARA A ÁREA DA SAÚDE, COM VISTA AO FORNECIMENTO DE MEDICAMENTOS PARA NUTRIÇÃO PARENTÉRICA, ÀS INSTITUIÇÕES E SERVIÇOS DO SERVIÇO NACIONAL DE SAÚDE",FALSE
Electrodos,Concurso público,Aquisição de bens móveis,"33140000-3, Material médico de consumo","Centro Hospitalar de Lisboa Central, E. P. E. (508080142)",H.R. Hospitalar (501895558),"522,00 €",13-03-2014,24-02-2014,297 dias,"Portugal, Lisboa, Lisboa","Artigo 20.º, n.º 1, alínea b) do Código dos Contratos Públicos",,,,,,Não aplicável.,Não aplicável.,FALSE
Eléctrodos,Concurso público,Aquisição de bens móveis,"33140000-3, Material médico de consumo","Centro Hospitalar de Lisboa Central, E. P. E. (508080142)","Ezequiel Panão Jorge, Lda. (501412727)","3.498,48 €",13-03-2014,24-02-2014,297 dias,"Portugal, Lisboa, Lisboa","Artigo 20.º, n.º 1, alínea b) do Código dos Contratos Públicos",,,,,,Não aplicável.,Não aplicável.,FALSE
Eléctrodos,Concurso público,Aquisição de bens móveis,"33140000-3, Material médico de consumo","Centro Hospitalar de Lisboa Central, E. P. E. (508080142)","Elnor, S.A. (500094403)","73.519,50 €",13-03-2014,07-03-2014,297 dias,"Portugal, Lisboa, Lisboa","Artigo 20.º, n.º 1, alínea b) do Código dos Contratos Públicos",,,,,,Não aplicável.,Não aplicável.,FALSE
Aquisição de 144 Canetas deInterferão  Beta 1-A(Rebif 44 Canetas) 21MUI/ml  SOL Inj,Ajuste Direto Regime Geral,Aquisição de bens móveis,"33000000-0, Equipamento médico, medicamentos e produtos para cuidados pessoais","Centro Hospitalar de Lisboa Central, E. P. E. (508080142)",Merck SA (500650870),"9.310,32 €",13-03-2014,05-02-2014,15 dias,"Portugal, Lisboa, Lisboa","Artigo 24.º, n.º 1, alínea e) do Código dos Contratos Públicos",,,,,,Não aplicável.,Não aplicável.,FALSE
510315/14 - Icodextrina 75 mg/ml sol. DP fr. 2000 ml,Ao abrigo de acordo-quadro (art.º 259.º),Aquisição de bens móveis,"33600000-6, Produtos farmacêuticos","Centro Hospitalar de Lisboa Central, E. P. E. (508080142)","Baxter Médico-Farmacêutica, Lda. (503347345)","51.168,00 €",13-03-2014,26-02-2014,309 dias,"Portugal, Lisboa, Lisboa",Artigo 259.º do Código dos Contratos Públicos,,,,,,601978,"CONCURSO PÚBLICO PARA A CELEBRAÇÃO DE CONTRATOS PÚBLICOS DE APROVISIONAMENTO PARA A ÁREA DA SAÚDE, COM VISTA AO FORNECIMENTO DE BENS DE DÁLISE PERITONEAL ÀS INSTITUIÇÕES E SERVIÇOS DO SERVIÇO NACIONAL DE SAÚDE",FALSE
510042/14AQUISIÇÃO DE CITARABINA 100 MG/ML SOL INJ FR 20 ML IV SC,Ao abrigo de acordo-quadro (art.º 259.º),Aquisição de bens móveis,"33000000-0, Equipamento médico, medicamentos e produtos para cuidados pessoais","Centro Hospitalar de Lisboa Central, E. P. E. (508080142)",Hospira Portugal Lda  (502918098),"56.865,00 €",13-03-2014,02-01-2014,365 dias,"Portugal, Lisboa, Lisboa",Artigo 259.º do Código dos Contratos Públicos,,,,,,383205,CONCURSO PÚBLICO PARA A CELEBRAÇÃO DE CONTRATOS PÚBLICOS DE APROVISIONAMENTO PARA AQUISIÇÃO MEDICAMENTOS DO FORO ONCOLÓGICO II,FALSE
Algálias e sacos de urina,Concurso público,Aquisição de bens móveis,"33140000-3, Material médico de consumo","Centro Hospitalar de Lisboa Central, E. P. E. (508080142)","Aviquimica - Importações e Manufacturas, Lda. (500039720)","32.347,00 €",13-03-2014,07-03-2014,297 dias,"Portugal, Lisboa, Lisboa","Artigo 20.º, n.º 1, alínea b) do Código dos Contratos Públicos",,,,,,Não aplicável.,Não aplicável.,FALSE
410118/14UREIA 75MG PÓ SOL ORAL FRS,Ajuste Direto Regime Geral,Aquisição de bens móveis,"33000000-0, Equipamento médico, medicamentos e produtos para cuidados pessoais","Centro Hospitalar de Lisboa Central, E. P. E. (508080142)",Isomed Portugal Laboratórios S.A (503877190),"11.250,00 €",13-03-2014,28-01-2014,348 dias,"Portugal, Lisboa, Lisboa","Artigo 20.º, n.º 1, alínea a) do Código dos Contratos Públicos",,,,,,Não aplicável.,Não aplicável.,FALSE
1-2.0078/14,Concurso público,Locação de bens móveis,"33140000-3, Material médico de consumo","Centro Hospitalar de Lisboa Central, E. P. E. (508080142)",Albino Dias de Andrade (500013810),"31.450,00 €",13-03-2014,19-02-2014,297 dias,"Portugal, Lisboa, Lisboa","Artigo 20.º, n.º 1, alínea b) do Código dos Contratos Públicos",,,,,,Não aplicável.,Não aplicável.,FALSE
410007/14LEVODOPA 20MG/ML+CARDIODOPA 5MG/ML GEL INTESTINAL - FRS 100ML,Ajuste Direto Regime Geral,Aquisição de bens móveis,"33000000-0, Equipamento médico, medicamentos e produtos para cuidados pessoais","Centro Hospitalar de Lisboa Central, E. P. E. (508080142)",Abbvie Lda (510229050),"37.395,90 €",13-03-2014,22-01-2014,365 dias,"Portugal, Lisboa, Lisboa","Artigo 24.º, n.º 1, alínea e) do Código dos Contratos Públicos",,,,,,Não aplicável.,Não aplicável.,FALSE
Adesivos e pensos,Concurso público,Locação de bens móveis,"33140000-3, Material médico de consumo","Centro Hospitalar de Lisboa Central, E. P. E. (508080142)",Dimor (500730741),"3.009,00 €",13-03-2014,29-01-2014,297 dias,"Portugal, Lisboa, Lisboa","Artigo 20.º, n.º 1, alínea b) do Código dos Contratos Públicos",,,,,,Não aplicável.,Não aplicável.,FALSE
Adesivos e pensos,Concurso público,Locação de bens móveis,"33140000-3, Material médico de consumo","Centro Hospitalar de Lisboa Central, E. P. E. (508080142)",Overpharma (505792362),"5.599,00 €",13-03-2014,29-01-2014,293 dias,"Portugal, Lisboa, Lisboa","Artigo 20.º, n.º 1, alínea b) do Código dos Contratos Públicos",,,,,,Não aplicável.,Não aplicável.,FALSE
410094/14MANITOL 200 MG/ML SOL INJ FR 250 ML IV,Ajuste Direto Regime Geral,Aquisição de bens móveis,"33000000-0, Equipamento médico, medicamentos e produtos para cuidados pessoais","Centro Hospitalar de Lisboa Central, E. P. E. (508080142)",Labesfal -Laboratórios Almiro S.A (501169580),"16.594,56 €",13-03-2014,20-01-2014,352 dias,"Portugal, Lisboa, Lisboa","Artigo 24.º, n.º 1, alínea e) do Código dos Contratos Públicos",,,,,,Não aplicável.,Não aplicável.,FALSE
510283/14ALBUMINA HUMANA 200G/L SOL INJ FRS 50ML,Ao abrigo de acordo-quadro (art.º 259.º),Aquisição de bens móveis,"33000000-0, Equipamento médico, medicamentos e produtos para cuidados pessoais","Centro Hospitalar de Lisboa Central, E. P. E. (508080142)","CSL BEHRING Unipessoal  Lda (503047201), Kedrion Portugal (508472830)","93.472,50 €",13-03-2014,14-01-2014,351 dias,"Portugal, Lisboa, Lisboa",Artigo 259.º do Código dos Contratos Públicos,,,,,,535788,"CONCURSO PÚBLICO PARA A CELEBRAÇÃO DE CONTRATOSPÚBLICOS DE APROVISIONAMENTO PARA A ÁREA DA SAÚDE, COM VISTA AO FORNECIMENTO DE DERIVADOS DO PLASMA HUMANOÀS INSTITUIÇÕES E SERVIÇOS DO SERVIÇO NACIONAL DE SAÚDE",FALSE
510074/14AQUISIÇÃO DE ESMOLOL 100 MG/10 ML SOL INJ FR 10 ML IV,Ao abrigo de acordo-quadro (art.º 259.º),Aquisição de bens móveis,"33000000-0, Equipamento médico, medicamentos e produtos para cuidados pessoais","Centro Hospitalar de Lisboa Central, E. P. E. (508080142)",Baxter Medico- Farmaceutico Lda (503347345),"20.400,00 €",13-03-2014,02-01-2014,365 dias,"Portugal, Lisboa, Lisboa",Artigo 259.º do Código dos Contratos Públicos,,,,,,513025,"CONCURSO PÚBLICO PARA A CELEBRAÇÃO DE CONTRATOS PÚBLICOS DE APROVISIONAMENTO PARA A ÁREA DA SAÚDE, COM VISTA AO FORNECIMENTO DE MEDICAMENTOS DE CONSUMO GERAL  (FFOSI)- APARELHO CARDIOVASCULAR., ÀS INSTITUIÇÕES E SERVIÇOS DO SERVIÇO NACIONAL DE SAÚDE",FALSE
510162/14METAMIZOL MAGNÉSICO 575 MG CÁPS,Ao abrigo de acordo-quadro (art.º 259.º),Aquisição de bens móveis,"33000000-0, Equipamento médico, medicamentos e produtos para cuidados pessoais","Centro Hospitalar de Lisboa Central, E. P. E. (508080142)",Unilfarma  Uniao Internacional Laboratorios Farmaceutico  Lda (500293023),"8.977,50 €",12-03-2014,07-01-2014,355 dias,"Portugal, Lisboa, Lisboa",Artigo 259.º do Código dos Contratos Públicos,,,,,,461370,"CP 2012/44 - MEDICAMENTOS ANALGÉSICOS, ANTIPIRÉTICOS E ANTIDEPRESSIVOS",FALSE
510164/14CLONIXINA 100 MG/2 ML SOL INJ FR 2 ML IM IV/CLONIXINA 125 MG COMP,Ao abrigo de acordo-quadro (art.º 259.º),Aquisição de bens móveis,"33000000-0, Equipamento médico, medicamentos e produtos para cuidados pessoais","Centro Hospitalar de Lisboa Central, E. P. E. (508080142)",Jaba Recordati S.A (500492867),"8.362,12 €",12-03-2014,08-01-2014,357 dias,"Portugal, Lisboa, Lisboa",Artigo 259.º do Código dos Contratos Públicos,,,,,,461370,"CP 2012/44 - MEDICAMENTOS ANALGÉSICOS, ANTIPIRÉTICOS E ANTIDEPRESSIVOS",FALSE
510290/14GLUCOSE 500/CLORETO DE CÁLCIO 100/SULFATO DE MAGNÉSIO 2000/SULFATO DE MAGNÉSIO 5000,Ao abrigo de acordo-quadro (art.º 259.º),Aquisição de bens móveis,"33000000-0, Equipamento médico, medicamentos e produtos para cuidados pessoais","Centro Hospitalar de Lisboa Central, E. P. E. (508080142)",Labesfal-Laboratórios Lamiro S.A (501169580),"44.714,71 €",12-03-2014,17-01-2014,349 dias,"Portugal, Lisboa, Lisboa",Artigo 259.º do Código dos Contratos Públicos,,,,,,405999,CONCURSO PÚBLICO PARA A CELEBRAÇÃO DE CONTRATOS PÚBLICOS DE APROVISIONAMENTO PARA AQUISIÇÃO CORRECTIVOS DA VOLÉMIA E OUTRAS SOLUÇÕES ESTÉREIS,FALSE
410287/14MANITOL 100 MG/ML SOL INJ FR 250 ML IV,Ajuste Direto Regime Geral,Aquisição de bens móveis,"33000000-0, Equipamento médico, medicamentos e produtos para cuidados pessoais","Centro Hospitalar de Lisboa Central, E. P. E. (508080142)",B.Braun Medical Lda (501506543),"3.545,80 €",12-03-2014,12-02-2014,323 dias,"Portugal, Lisboa, Lisboa","Artigo 20.º, n.º 1, alínea a) do Código dos Contratos Públicos",,,,,,Não aplicável.,Não aplicável.,FALSE
"410301/14SILICONE (OLEO DE) 1300 CTS, SERINGA 10ML",Ajuste Direto Regime Geral,Aquisição de bens móveis,"33000000-0, Equipamento médico, medicamentos e produtos para cuidados pessoais","Centro Hospitalar de Lisboa Central, E. P. E. (508080142)",Oftaldata- Produtos Oftalmologia Lda (504887459),"4.340,00 €",12-03-2014,12-02-2014,323 dias,"Portugal, Lisboa, Lisboa","Artigo 20.º, n.º 1, alínea a) do Código dos Contratos Públicos",,,,,,Não aplicável.,Não aplicável.,FALSE
410061/14CICLOFOSFAMIDA 500 MG PÓ SOL INJ FR IV,Ajuste Direto Regime Geral,Aquisição de bens móveis,"33000000-0, Equipamento médico, medicamentos e produtos para cuidados pessoais","Centro Hospitalar de Lisboa Central, E. P. E. (508080142)",Baxter- Medico Farmaceutica Lda (503347345),"765,00 €",12-03-2014,15-01-2014,351 dias,"Portugal, Lisboa, Lisboa","Artigo 24.º, n.º 1, alínea e) do Código dos Contratos Públicos",,,,,,Não aplicável.,Não aplicável.,FALSE
Aquisição de agulhas de fistula,Ajuste Direto Regime Geral,Aquisição de bens móveis,"33140000-3, Material médico de consumo","Centro Hospitalar de Lisboa Central, E.P.E. (CHLC) (508080142)","Medinfar - Sorológico - Produtos e Equipamentos, S.A. (501197052)","1.406,00 €",12-03-2014,12-03-2014,294 dias,"Portugal, Lisboa, Lisboa","Artigo 20.º, n.º 1, alínea a) do Código dos Contratos Públicos",,,,,,Não aplicável.,Não aplicável.,FALSE
Material para osteossintese externa,Ajuste Direto Regime Geral,Aquisição de bens móveis,"33000000-0, Equipamento médico, medicamentos e produtos para cuidados pessoais","Centro Hospitalar de Lisboa Central, E. P. E. (508080142)",Stryker (504594214),"16.438,00 €",11-03-2014,20-02-2014,1 dias,"Portugal, Lisboa, Lisboa","Artigo 20.º, n.º 1, alínea a) do Código dos Contratos Públicos",,,,,,Não aplicável.,Não aplicável.,FALSE
Electrodos para cardiotopografo,Ajuste Direto Regime Geral,Aquisição de bens móveis,"33000000-0, Equipamento médico, medicamentos e produtos para cuidados pessoais","Centro Hospitalar de Lisboa Central, E. P. E. (508080142)",Speculum (502996323),"906,00 €",11-03-2014,11-03-2014,295 dias,"Portugal, Lisboa, Lisboa","Artigo 20.º, n.º 1, alínea a) do Código dos Contratos Públicos",,,,,,Não aplicável.,Não aplicável.,FALSE
AQUISIÇÃO DE SILIBININA 350 MG PÓ SOL INJ FR IV,Ajuste Direto Regime Geral,Aquisição de bens móveis,"33000000-0, Equipamento médico, medicamentos e produtos para cuidados pessoais","Centro Hospitalar de Lisboa Central, E. P. E. (508080142)","Overpharma, Produtos Médicos e Farmacêuticos, Lda (505792362)","15.008,00 €",11-03-2014,25-02-2014,309 dias,"Portugal, Lisboa, Lisboa","Artigo 24.º, n.º 1, alínea e) do Código dos Contratos Públicos",,,,,,Não aplicável.,Não aplicável.,FALSE
AQUISIÇÃO DE MATRIZ HEMOSTATICA ESTERIL 5000 U/5 ML,Ajuste Direto Regime Geral,Aquisição de bens móveis,"33000000-0, Equipamento médico, medicamentos e produtos para cuidados pessoais","Centro Hospitalar de Lisboa Central, E. P. E. (508080142)","Baxter Médico - Farmacêutica, LDA (503347345)","61.200,00 €",11-03-2014,25-02-2014,309 dias,"Portugal, Lisboa, Lisboa","Artigo 24.º, n.º 1, alínea e) do Código dos Contratos Públicos",,,,,,Não aplicável.,Não aplicável.,FALSE
"AQUISIÇÃO DE POLIELECT. P/ DPCA PH NEUTRO 10 L, KIT",Ajuste Direto Regime Geral,Aquisição de bens móveis,"33000000-0, Equipamento médico, medicamentos e produtos para cuidados pessoais","Centro Hospitalar de Lisboa Central, E. P. E. (508080142)","Fresenius Medical Care Portugal, S.A (503070220)","36.480,00 €",11-03-2014,25-02-2014,309 dias,"Portugal, Lisboa, Lisboa","Artigo 24.º, n.º 1, alínea e) do Código dos Contratos Públicos",,,,,,Não aplicável.,Não aplicável.,FALSE
"OBRAS DE BENEFICIAÇÃO DO EDIFICIO DAS CONSULTAS EXTERNAS DA ORTOPEDIA DO CHLC, EPE - HOSPITAL CURRY CABRAL",Ajuste Direto Regime Geral,Empreitadas de obras públicas,"45000000-7, Construção","Centro Hospitalar de Lisboa Central, E. P. E. (508080142)",RAMIRO & DELGADO (501301704),"29.293,70 €",11-03-2014,19-02-2014,50 dias,"Portugal, Lisboa, Lisboa","Artigo 19.º, alínea a) do Código dos Contratos Públicos",,,,,,Não aplicável.,Não aplicável.,FALSE
"PRESTAÇÃO DE SERVIÇOS DE TRATAMENTO, CUSTODIA E GESTAO DOCUMENTAL DO CHLC, EPE",Ajuste Direto Regime Geral,Aquisição de serviços,"98300000-6, Serviços diversos","Centro Hospitalar de Lisboa Central, E. P. E. (508080142)",PAPIRO - EMPRESA DE GESTAO DE ARQUIVO (505067064),"22.917,03 €",11-03-2014,21-02-2014,180 dias,"Portugal, Lisboa, Lisboa","Artigo 20.º, n.º 1, alínea a) do Código dos Contratos Públicos",,,,,,Não aplicável.,Não aplicável.,FALSE
AQUISIÇÃO DE INTERFERÃO BETA-1B 8 M.U.I. PÓ SOL INJ FR SC,Ao abrigo de acordo-quadro (art.º 259.º),Aquisição de bens móveis,"33000000-0, Equipamento médico, medicamentos e produtos para cuidados pessoais","Centro Hospitalar de Lisboa Central, E. P. E. (508080142)","Novartis Farma - Produtos Farmacêuticos, SA (500063524)","480.900,00 €",11-03-2014,24-02-2014,310 dias,"Portugal, Lisboa, Lisboa",Artigo 259.º do Código dos Contratos Públicos,,,,,,383205,CONCURSO PÚBLICO PARA A CELEBRAÇÃO DE CONTRATOS PÚBLICOS DE APROVISIONAMENTO PARA AQUISIÇÃO MEDICAMENTOS DO FORO ONCOLÓGICO II,FALSE
510167/14NISTATINA 100000 U.I./ML SUSP ORAL FR 30 ML,Ao abrigo de acordo-quadro (art.º 259.º),Aquisição de bens móveis,"33000000-0, Equipamento médico, medicamentos e produtos para cuidados pessoais","Centro Hospitalar de Lisboa Central, E. P. E. (508080142)",Bristol Myers Squibb Farmaceutica Portuguesa S.A (500048193),"8.580,00 €",10-03-2014,20-01-2014,348 dias,"Portugal, Lisboa, Lisboa",Artigo 259.º do Código dos Contratos Públicos,,,,,,455180,"CONCURSO PÚBLICO PARA A CELEBRAÇÃO DE CONTRATOS PÚBLICOS DE APROVISIONAMENTO PARA A ÁREA DA SAÚDE, COM VISTA AO FORNECIMENTO DE MEDICAMENTOS ANTI-INFECIOSOS: ANTIVÍRICOS E ANTIFÚNGICOS, ÀS INSTITUIÇÕES E SERVIÇOS DO SERVIÇO NACIONAL DE SAÚDE  ",FALSE
510179/14LIDOCAÍNA 25 MG/G + PRILOCAÍNA 25 MG/G PENS IMPREG SAQ/LIDOCAÍNA 25 MG/G + PRILOCAÍNA 25 MG/G CR BIS,Ao abrigo de acordo-quadro (art.º 259.º),Aquisição de bens móveis,"33000000-0, Equipamento médico, medicamentos e produtos para cuidados pessoais","Centro Hospitalar de Lisboa Central, E. P. E. (508080142)",Astrazeneca Produtos Farmaceuticos  Lda (502942240),"16.611,00 €",10-03-2014,08-01-2014,358 dias,"Portugal, Lisboa, Lisboa",Artigo 259.º do Código dos Contratos Públicos,,,,,,602875,"CONCURSO PÚBLICO PARA A CELEBRAÇÃO DE CONTRATOS PÚBLICOS DE APROVISIONAMENTO PARA A ÁREA DA SAÚDE, COM VISTA AO FORNECIMENTO DE MEDICAMENTOS DE CONSUMO GERAL - USADOS NAS AFECÇÕES CUTÂNEAS, ÀS INSTITUIÇÕES E SERVIÇOS DO SERVIÇO NACIONAL DE SAÚDE",FALSE
510159/14ALFENTANILO 1 MG/2 ML SOL INJ FR 2 ML IV/SUFENTANILO 0.05 MG/ML SOL INJ FR 5 ML EPIDURAL IV,Ao abrigo de acordo-quadro (art.º 259.º),Aquisição de bens móveis,"33000000-0, Equipamento médico, medicamentos e produtos para cuidados pessoais","Centro Hospitalar de Lisboa Central, E. P. E. (508080142)",Janssen Cilag Farmaceutica Lda (500189412),"12.449,00 €",10-03-2014,07-01-2014,359 dias,"Portugal, Lisboa, Lisboa",Artigo 259.º do Código dos Contratos Públicos,,,,,,461370,"CP 2012/44 - MEDICAMENTOS ANALGÉSICOS, ANTIPIRÉTICOS E ANTIDEPRESSIVOS",FALSE
510296/14GLICEROFOSFATO DE SÓDIO 216 MG/ML SOL INJ FR 20 ML IV(SEMESTRE),Ao abrigo de acordo-quadro (art.º 259.º),Aquisição de bens móveis,"33000000-0, Equipamento médico, medicamentos e produtos para cuidados pessoais","Centro Hospitalar de Lisboa Central, E. P. E. (508080142)",Fresenius Kabi  Pharma  Portugal (504293753),"8.240,28 €",10-03-2014,17-01-2014,345 dias,"Portugal, Lisboa, Lisboa",Artigo 259.º do Código dos Contratos Públicos,,,,,,405999,CONCURSO PÚBLICO PARA A CELEBRAÇÃO DE CONTRATOS PÚBLICOS DE APROVISIONAMENTO PARA AQUISIÇÃO CORRECTIVOS DA VOLÉMIA E OUTRAS SOLUÇÕES ESTÉREIS,FALSE
510275/14GLUCOSE 300MG/ML SOL INJ FRS 1000ML IV,Ao abrigo de acordo-quadro (art.º 259.º),Aquisição de bens móveis,"33000000-0, Equipamento médico, medicamentos e produtos para cuidados pessoais","Centro Hospitalar de Lisboa Central, E. P. E. (508080142)",B.Braun Medical Lda (501506543),"8.285,28 €",10-03-2014,20-01-2014,348 dias,"Portugal, Lisboa, Lisboa",Artigo 259.º do Código dos Contratos Públicos,,,,,,405999,CONCURSO PÚBLICO PARA A CELEBRAÇÃO DE CONTRATOS PÚBLICOS DE APROVISIONAMENTO PARA AQUISIÇÃO CORRECTIVOS DA VOLÉMIA E OUTRAS SOLUÇÕES ESTÉREIS,FALSE
510369/14CREME GORDO HIDRATANTE - POMADA 40 GR/50 GR (SPMS-C1349),Ao abrigo de acordo-quadro (art.º 259.º),Aquisição de bens móveis,"33000000-0, Equipamento médico, medicamentos e produtos para cuidados pessoais","Centro Hospitalar de Lisboa Central, E. P. E. (508080142)",Laboratorios Medinfar- Produtos Farmaceuticos (500384045),"5.340,00 €",10-03-2014,12-02-2014,323 dias,"Portugal, Lisboa, Lisboa",Artigo 259.º do Código dos Contratos Públicos,,,,,,549298,"Concurso Público para a celebração de Contratos Publicos de Aprovisionamento para a área da saúde com vista ao fornecimento de Antisepticos, Desinfetantes e Outros, às Instituições e Serviços do Serviço Nacional de Saúde.",FALSE
Aquisição de dietas para sonda.,Ajuste Direto Regime Geral,Aquisição de bens móveis,"33692300-0, Alimentos enterais","Centro Hospitalar de Lisboa Central, E. P. E. (508080142)",Fresenius Kabi Pharma (504293753),"15.150,63 €",10-03-2014,20-01-2014,90 dias,"Portugal, Lisboa, Lisboa","Artigo 20.º, n.º 1, alínea a) do Código dos Contratos Públicos",,,,,,Não aplicável.,Não aplicável.,FALSE
"Aquisição de serviços referente a desentupimento de ramal de esgotos no CHLC,EPE",Ajuste Direto Regime Geral,Aquisição de serviços,"50000000-5, Serviços de reparação e manutenção","Centro Hospitalar de Lisboa Central, E. P. E. (508080142)","Desentop Ambiente, Lda.  (503555380)","860,00 €",10-03-2014,11-02-2014,1 dias,"Portugal, Lisboa, Lisboa","Artigo 24.º, n.º 1, alínea c) do Código dos Contratos Públicos",,,,,,Não aplicável.,Não aplicável.,FALSE
Aquisição de  600 ampolas de Azul Tripano(600mcg<>1ml) 300mcg seringa 5ml,Ajuste Direto Regime Geral,Aquisição de bens móveis,"33000000-0, Equipamento médico, medicamentos e produtos para cuidados pessoais","Centro Hospitalar de Lisboa Central, E. P. E. (508080142)",Dase 4 Lda (502840714),"8.400,00 €",10-03-2014,19-02-2014,315 dias,"Portugal, Lisboa, Lisboa","Artigo 20.º, n.º 1, alínea a) do Código dos Contratos Públicos",,,,,,Não aplicável.,Não aplicável.,FALSE
"PRESTAÇÃO DE SERVIÇOS DE ARQUIVO CLÍNICO, SAI E CENTRAL DE ACOLHIMENTO DA MAC.",Concurso público,Aquisição de serviços,"79610000-3, Serviços de colocação de pessoal",Centro Hospitalar de Lisboa Central E.P.E. (508080142),Novabase Business Solutions (504857312),"27.280,00 €",10-03-2014,20-09-2013,92 dias,"Portugal, Lisboa, Lisboa","Artigo 20.º, n.º 1, alínea b) do Código dos Contratos Públicos",,,,,,Não aplicável.,Não aplicável.,FALSE
"Aquisição de serviços de reparação das rampas de oxigénio de emergência  no CHLC,EPE",Ajuste Direto Regime Geral,Aquisição de serviços<br/>Outros Tipos (Prestação do Serviço Universal),"50000000-5, Serviços de reparação e manutenção","Centro Hospitalar de Lisboa Central, E. P. E. (508080142)","Linde Portugal, Lda (500266344)","392,00 €",10-03-2014,20-02-2014,2 dias,"Portugal, Lisboa, Lisboa","Artigo 24.º, n.º 1, alínea e) do Código dos Contratos Públicos",,,,,,Não aplicável.,Não aplicável.,FALSE
"Aquisição de Serviços de reparação do Sistema Video Porteiro do CHLC,EPE",Ajuste Direto Regime Geral,Aquisição de serviços,"50000000-5, Serviços de reparação e manutenção","Centro Hospitalar de Lisboa Central, E. P. E. (508080142)","Dalkia - Energia e serviços, S.A. (502876581)","2.245,25 €",10-03-2014,20-02-2014,15 dias,"Portugal, Lisboa, Lisboa","Artigo 24.º, n.º 1, alínea c) do Código dos Contratos Públicos",,,,,,Não aplicável.,Não aplicável.,FALSE
"Aquisição de serviços de cablagem de rede informática local no CHLC,EPE",Ajuste Direto Regime Geral,Aquisição de serviços,"98300000-6, Serviços diversos","Centro Hospitalar de Lisboa Central, E. P. E. (508080142)",Fonotel Comunicações Lda. (501397469),"809,22 €",10-03-2014,13-02-2014,8 dias,"Portugal, Lisboa, Lisboa","Artigo 20.º, n.º 1, alínea a) do Código dos Contratos Públicos",,,,,,Não aplicável.,Não aplicável.,FALSE
PRESTAÇÃO DE SERVIÇOS DE ASSISTENTES OPERACIONAIS MAC,Ajuste Direto Regime Geral,Aquisição de serviços,"79610000-3, Serviços de colocação de pessoal","Centro Hospitalar de Lisboa Central, E.P.E. (CHLC) (508080142)",RH Portugal (504136992),"20.753,46 €",10-03-2014,10-07-2013,31 dias,"Portugal, Lisboa, Lisboa","Artigo 20.º, n.º 1, alínea a) do Código dos Contratos Públicos",,,,,,Não aplicável.,Não aplicável.,FALSE
Material para osteossintese externa,Ajuste Direto Regime Geral,Aquisição de bens móveis,"33000000-0, Equipamento médico, medicamentos e produtos para cuidados pessoais","Centro Hospitalar de Lisboa Central, E. P. E. (508080142)",MUC (502379308),"4.430,00 €",10-03-2014,31-01-2014,1 dias,"Portugal, Lisboa, Lisboa","Artigo 20.º, n.º 1, alínea a) do Código dos Contratos Públicos",,,,,,Não aplicável.,Não aplicável.,FALSE
Próteses de joelho primárias,Ajuste Direto Regime Geral,Aquisição de bens móveis,"33000000-0, Equipamento médico, medicamentos e produtos para cuidados pessoais","Centro Hospitalar de Lisboa Central, E. P. E. (508080142)",Biomet (500254990),"15.190,00 €",10-03-2014,12-02-2014,1 dias,"Portugal, Lisboa, Lisboa","Artigo 24.º, n.º 1, alínea c) do Código dos Contratos Públicos",,,,,,Não aplicável.,Não aplicável.,FALSE
510033/14 - Aquisição de Abciximab 10 mg / 5 ml sol. inj. fr. 5 ml IV,Ao abrigo de acordo-quadro (art.º 259.º),Aquisição de bens móveis,"33600000-6, Produtos farmacêuticos","Centro Hospitalar de Lisboa Central, E. P. E. (508080142)","Lilly Portugal - Prod. Farmacêuticos, Lda. (500165602)","141.105,60 €",10-03-2014,02-01-2014,365 dias,"Portugal, Lisboa, Lisboa",Artigo 259.º do Código dos Contratos Públicos,,,,,,599473,"CONCURSO PÚBLICO PARA A CELEBRAÇÃO DE CONTRATOS PÚBLICOS DE APROVISIONAMENTO PARA A ÁREA DA SAÚDE, COM VISTA AO FORNECIMENTO DE MEDICAMENTOS DE CONSUMO GERAL, GRUPO 4: SANGUE ÀS INSTITUIÇÕES E SERVIÇOS DO SERVIÇO NACIONAL DE SAÚDE",FALSE
510259/14 - Aquisição de Terlipressina 0.1 mg/ml sol. inj. fr. 8.5 ml IV,Ao abrigo de acordo-quadro (art.º 259.º),Aquisição de bens móveis,"33600000-6, Produtos farmacêuticos","Centro Hospitalar de Lisboa Central, E. P. E. (508080142)","Ferring Portuguesa - Prod. Farmacêuticos, Soc. Unipessoal, Lda. (502034831)","12.000,00 €",10-03-2014,22-01-2014,345 dias,"Portugal, Lisboa, Lisboa",Artigo 259.º do Código dos Contratos Públicos,,,,,,603979,"CONCURSO PÚBLICO PARA A CELEBRAÇÃO DE CONTRATOS PÚBLICOS DE APROVISIONAMENTO PARA A ÁREA DA SAÚDE, COM VISTA AO FORNECIMENTO DE HORMONAS E OUTROS MEDICAMENTOS USADOS NO TRATAMENTO DAS DOENÇAS ENDÓCRINAS, ÀS INSTITUIÇÕES E SERVIÇOS DO SERVIÇO NACIONAL DE SAÚDE",FALSE
Electrodos Versapoint,Concurso público,Aquisição de bens móveis,"33140000-3, Material médico de consumo","Centro Hospitalar de Lisboa Central, E. P. E. (508080142)",JOHNSON MEDICAL (500153370),"173.534,90 €",10-03-2014,03-03-2014,293 dias,"Portugal, Lisboa, Lisboa","Artigo 20.º, n.º 1, alínea b) do Código dos Contratos Públicos",,,,,,Não aplicável.,Não aplicável.,FALSE
"LEUPRORRELINA 11,25MG PÓ SUSP INJ; PALIVIZUMAB 50MG PÓ  SOL INJ",Ao abrigo de acordo-quadro (art.º 259.º),Aquisição de bens móveis,"33000000-0, Equipamento médico, medicamentos e produtos para cuidados pessoais","Centro Hospitalar de Lisboa Central, E. P. E. (508080142)","ABBVIE, Lda (510229050)","116.342,40 €",10-03-2014,07-01-2014,358 dias,"Portugal, Lisboa, Lisboa",Artigo 259.º do Código dos Contratos Públicos,,,,,,345900,CONCURSO PÚBLICO PARA A CELEBRAÇÃO DE CONTRATOS PÚBLICOS DE APROVISIONAMENTO PARA AQUISIÇÃO MEDICAMENTOS DO FORO ONCOLÓGICO,FALSE
510226/14 - Aquisição de Goserrelina 3.6 mg impl. ser.,Ao abrigo de acordo-quadro (art.º 259.º),Aquisição de bens móveis,"33600000-6, Produtos farmacêuticos","Centro Hospitalar de Lisboa Central, E. P. E. (508080142)","AstraZeneca Prod. Farmacêuticos, Lda. (502942240)","25.011,00 €",10-03-2014,07-01-2014,365 dias,"Portugal, Lisboa, Lisboa",Artigo 259.º do Código dos Contratos Públicos,,,,,,345900,CONCURSO PÚBLICO PARA A CELEBRAÇÃO DE CONTRATOS PÚBLICOS DE APROVISIONAMENTO PARA AQUISIÇÃO MEDICAMENTOS DO FORO ONCOLÓGICO,FALSE
510362/14 - Aquisição de Material de penso de efeito terapêutico,Ao abrigo de acordo-quadro (art.º 259.º),Aquisição de bens móveis,"33600000-6, Produtos farmacêuticos","Centro Hospitalar de Lisboa Central, E. P. E. (508080142)","Overpharma (505792362), Smith & Nephew, Lda. (503552461), Clinifar - Prod. Clínicos e Farmacêuticos, S. A. (503281115)","41.339,20 €",10-03-2014,28-02-2014,334 dias,"Portugal, Lisboa, Lisboa",Artigo 259.º do Código dos Contratos Públicos,,,,,,490160,"CONCURSO PÚBLICO PARA A CELEBRAÇÃO DE CONTRATOS PÚBLICOS DE APROVISIONAMENTO PARA A ÁREA DA SAÚDE, COM VISTA AO FORNECIMENTO DE MATERIAL PENSO DE EFEITO TERAPÊUTICO - ÀS INSTITUIÇÕES E SERVIÇOS DO SERVIÇO NACIONAL DE SAÚDE",FALSE
"Tacrolimus 0,5mg, 1mg, 3mg e 5ml  cápsulas LP",Ao abrigo de acordo-quadro (art.º 259.º),Aquisição de bens móveis,"33000000-0, Equipamento médico, medicamentos e produtos para cuidados pessoais","Centro Hospitalar de Lisboa Central, E. P. E. (508080142)","Astellas Farma, Lda (502540249)","1.414.935,54 €",10-03-2014,05-02-2014,329 dias,"Portugal, Lisboa, Lisboa",Artigo 259.º do Código dos Contratos Públicos,,,,,,345900,CONCURSO PÚBLICO PARA A CELEBRAÇÃO DE CONTRATOS PÚBLICOS DE APROVISIONAMENTO PARA AQUISIÇÃO MEDICAMENTOS DO FORO ONCOLÓGICO,FALSE
AQUISIÇÃO DE HALOPERIDOL 5 MG/1 ML SOL INJ FR 1 ML IM IV,Ao abrigo de acordo-quadro (art.º 259.º),Aquisição de bens móveis,"33000000-0, Equipamento médico, medicamentos e produtos para cuidados pessoais","Centro Hospitalar de Lisboa Central, E. P. E. (508080142)","Ratiopharm, Comercio Industria de Produtos Farmacêuticos, Lda (502414910)","10.260,00 €",10-03-2014,02-01-2014,363 dias,"Portugal, Lisboa, Lisboa",Artigo 259.º do Código dos Contratos Públicos,,,,,,389354,CONCURSO PÚBLICO PARA A CELEBRAÇÃO DE CONTRATOS PÚBLICOS DE APROVISIONAMENTO PARA AQUISIÇÃO MEDICAMENTOS ANTI-PSICÓTICOS,FALSE
510144/14 - Aquisição de Lanreotida 120 mg / 488 mg sol. inj. ser. 0.5 ml SC e Lanreotida 60 mg / 244 mg sol. inj. ser. 0.5 ml SC,Ao abrigo de acordo-quadro (art.º 259.º),Aquisição de bens móveis,"33600000-6, Produtos farmacêuticos","Centro Hospitalar de Lisboa Central, E. P. E. (508080142)",Ipsen Portugal - Prod. Farmacêuticos S. A. (502609800),"199.205,88 €",10-03-2014,02-01-2014,365 dias,"Portugal, Lisboa, Lisboa",Artigo 259.º do Código dos Contratos Públicos,,,,,,603979,"CONCURSO PÚBLICO PARA A CELEBRAÇÃO DE CONTRATOS PÚBLICOS DE APROVISIONAMENTO PARA A ÁREA DA SAÚDE, COM VISTA AO FORNECIMENTO DE HORMONAS E OUTROS MEDICAMENTOS USADOS NO TRATAMENTO DAS DOENÇAS ENDÓCRINAS, ÀS INSTITUIÇÕES E SERVIÇOS DO SERVIÇO NACIONAL DE SAÚDE",FALSE
510038/14 - Aquisição de Sorafenib 200 mg comp. e Ácido clodrónico 800 mg comp.,Ao abrigo de acordo-quadro (art.º 259.º),Aquisição de bens móveis,"33600000-6, Produtos farmacêuticos","Centro Hospitalar de Lisboa Central, E. P. E. (508080142)",Bayer Portugal S. A. (500043256),"71.512,26 €",10-03-2014,02-01-2014,365 dias,"Portugal, Lisboa, Lisboa",Artigo 259.º do Código dos Contratos Públicos,,,,,,345900,CONCURSO PÚBLICO PARA A CELEBRAÇÃO DE CONTRATOS PÚBLICOS DE APROVISIONAMENTO PARA AQUISIÇÃO MEDICAMENTOS DO FORO ONCOLÓGICO,FALSE
510026/14 - Aquisição de Heparina sódica 25000 U.I. / 5 ml sol. inj. fr. 5 ml IV SC,Ao abrigo de acordo-quadro (art.º 259.º),Aquisição de bens móveis,"33600000-6, Produtos farmacêuticos","Centro Hospitalar de Lisboa Central, E. P. E. (508080142)","B. Braun Medical, Lda. (501506543)","41.300,00 €",10-03-2014,02-01-2014,365 dias,"Portugal, Lisboa, Lisboa",Artigo 259.º do Código dos Contratos Públicos,,,,,,599473,"CONCURSO PÚBLICO PARA A CELEBRAÇÃO DE CONTRATOS PÚBLICOS DE APROVISIONAMENTO PARA A ÁREA DA SAÚDE, COM VISTA AO FORNECIMENTO DE MEDICAMENTOS DE CONSUMO GERAL, GRUPO 4: SANGUE ÀS INSTITUIÇÕES E SERVIÇOS DO SERVIÇO NACIONAL DE SAÚDE",FALSE
410332/14AZUL TRIPANO SER. (CIR. SEGM. POSTERIOR),Ajuste Direto Regime Geral,Aquisição de bens móveis,"33000000-0, Equipamento médico, medicamentos e produtos para cuidados pessoais","Centro Hospitalar de Lisboa Central, E. P. E. (508080142)",Oftaldata- Produtos Oftalmologia  Lda (504887459),"975,00 €",07-03-2014,25-02-2014,313 dias,"Portugal, Lisboa, Lisboa","Artigo 20.º, n.º 1, alínea a) do Código dos Contratos Públicos",,,,,,Não aplicável.,Não aplicável.,FALSE
Próteses de anca primárias,Ajuste Direto Regime Geral,Aquisição de bens móveis,"33000000-0, Equipamento médico, medicamentos e produtos para cuidados pessoais","Centro Hospitalar de Lisboa Central, E. P. E. (508080142)",Stryker (504594214),"9.429,50 €",07-03-2014,20-02-2014,1 dias,"Portugal, Lisboa, Lisboa","Artigo 20.º, n.º 1, alínea a) do Código dos Contratos Públicos",,,,,,Não aplicável.,Não aplicável.,FALSE
Placas e parafusos para cirurgia maxilo-facial,Ajuste Direto Regime Geral,Aquisição de bens móveis,"33000000-0, Equipamento médico, medicamentos e produtos para cuidados pessoais","Centro Hospitalar de Lisboa Central, E. P. E. (508080142)",Biomet (500254990),"6.349,00 €",07-03-2014,03-03-2014,1 dias,"Portugal, Lisboa, Lisboa","Artigo 20.º, n.º 1, alínea a) do Código dos Contratos Públicos",,,,,,Não aplicável.,Não aplicável.,FALSE
Válvulas hemostáticas,Ajuste Direto Regime Geral,Aquisição de bens móveis,"33000000-0, Equipamento médico, medicamentos e produtos para cuidados pessoais","Centro Hospitalar de Lisboa Central, E. P. E. (508080142)",Medicinália-Cormédica (500684324),"3.300,00 €",07-03-2014,07-03-2014,5 dias,"Portugal, Lisboa, Lisboa","Artigo 20.º, n.º 1, alínea a) do Código dos Contratos Públicos",,,,,,Não aplicável.,Não aplicável.,FALSE
Ponteiras para artroscopia,Ajuste Direto Regime Geral,Aquisição de bens móveis,"33000000-0, Equipamento médico, medicamentos e produtos para cuidados pessoais","Centro Hospitalar de Lisboa Central, E. P. E. (508080142)",Stryker (504594214),"789,00 €",07-03-2014,20-02-2014,1 dias,"Portugal, Lisboa, Lisboa","Artigo 20.º, n.º 1, alínea a) do Código dos Contratos Públicos",,,,,,Não aplicável.,Não aplicável.,FALSE
Estabilizador interespinhoso,Ajuste Direto Regime Geral,Aquisição de bens móveis,"33000000-0, Equipamento médico, medicamentos e produtos para cuidados pessoais","Centro Hospitalar de Lisboa Central, E. P. E. (508080142)",Acuña Y Fombona (980095891),"890,00 €",07-03-2014,12-02-2014,1 dias,"Portugal, Lisboa, Lisboa","Artigo 20.º, n.º 1, alínea a) do Código dos Contratos Públicos",,,,,,Não aplicável.,Não aplicável.,FALSE
Diverso material de osteossintese,Ajuste Direto Regime Geral,Aquisição de bens móveis,"33000000-0, Equipamento médico, medicamentos e produtos para cuidados pessoais","Centro Hospitalar de Lisboa Central, E. P. E. (508080142)",Biomet (500254990),"3.275,60 €",07-03-2014,12-02-2014,1 dias,"Portugal, Lisboa, Lisboa","Artigo 20.º, n.º 1, alínea a) do Código dos Contratos Públicos",,,,,,Não aplicável.,Não aplicável.,FALSE
Material de traumatologia,Ajuste Direto Regime Geral,Aquisição de bens móveis,"33000000-0, Equipamento médico, medicamentos e produtos para cuidados pessoais","Centro Hospitalar de Lisboa Central, E. P. E. (508080142)",Biomet (500254990),"954,13 €",07-03-2014,12-02-2014,1 dias,"Portugal, Lisboa, Lisboa","Artigo 20.º, n.º 1, alínea a) do Código dos Contratos Públicos",,,,,,Não aplicável.,Não aplicável.,FALSE
Prótese do cotovelo,Ajuste Direto Regime Geral,Aquisição de bens móveis,"33000000-0, Equipamento médico, medicamentos e produtos para cuidados pessoais","Centro Hospitalar de Lisboa Central, E. P. E. (508080142)",MBA (504445960),"1.768,60 €",07-03-2014,12-02-2014,1 dias,"Portugal, Lisboa, Lisboa","Artigo 20.º, n.º 1, alínea a) do Código dos Contratos Públicos",,,,,,Não aplicável.,Não aplicável.,FALSE
Material para cirurgia do pé,Ajuste Direto Regime Geral,Aquisição de bens móveis,"33000000-0, Equipamento médico, medicamentos e produtos para cuidados pessoais","Centro Hospitalar de Lisboa Central, E. P. E. (508080142)",Bonecare (505899914),"1.820,80 €",07-03-2014,12-02-2014,1 dias,"Portugal, Lisboa, Lisboa","Artigo 20.º, n.º 1, alínea a) do Código dos Contratos Públicos",,,,,,Não aplicável.,Não aplicável.,FALSE
510182/14ACETONIDO DE FLUOCINOLONA 0.25 MG/G CR BISN 30 G,Ao abrigo de acordo-quadro (art.º 259.º),Aquisição de bens móveis,"33000000-0, Equipamento médico, medicamentos e produtos para cuidados pessoais","Centro Hospitalar de Lisboa Central, E. P. E. (508080142)",Lusomedicamenta-Sociedade Tecnica Farmaceutica S.A (507150473),"2.856,00 €",07-03-2014,08-01-2014,358 dias,"Portugal, Lisboa, Lisboa",Artigo 259.º do Código dos Contratos Públicos,,,,,,602875,"CONCURSO PÚBLICO PARA A CELEBRAÇÃO DE CONTRATOS PÚBLICOS DE APROVISIONAMENTO PARA A ÁREA DA SAÚDE, COM VISTA AO FORNECIMENTO DE MEDICAMENTOS DE CONSUMO GERAL - USADOS NAS AFECÇÕES CUTÂNEAS, ÀS INSTITUIÇÕES E SERVIÇOS DO SERVIÇO NACIONAL DE SAÚDE",FALSE
Cavilhas telescópicas,Ajuste Direto Regime Geral,Aquisição de bens móveis,"33000000-0, Equipamento médico, medicamentos e produtos para cuidados pessoais","Centro Hospitalar de Lisboa Central, E. P. E. (508080142)",Expomédica (501886621),"18.885,00 €",07-03-2014,04-02-2014,1 dias,"Portugal, Lisboa, Lisboa","Artigo 20.º, n.º 1, alínea a) do Código dos Contratos Públicos",,,,,,Não aplicável.,Não aplicável.,FALSE
510088/14 - Aquisição de Medicamentos Sistema Nervoso Cerebrospinal: exceto anestésicos,Ao abrigo de acordo-quadro (art.º 259.º),Aquisição de bens móveis,"33600000-6, Produtos farmacêuticos","Centro Hospitalar de Lisboa Central, E. P. E. (508080142)","Tecnifar, Indústria Técnica farmacêutica, S.A. (500280436)","3.732,96 €",07-03-2014,02-01-2014,365 dias,"Portugal, Lisboa, Lisboa",Artigo 259.º do Código dos Contratos Públicos,,,,,,463786,"P 2012/2 - Medicamentos do Sistema Nervoso Cerebrospinal: exceto anestésicos, relaxantes musculares, analgésicos, antipiréticos, antidepressores e anti-psicóticos",FALSE
Material para osteossintese de coluna - revisão,Ajuste Direto Regime Geral,Aquisição de bens móveis,"33000000-0, Equipamento médico, medicamentos e produtos para cuidados pessoais","Centro Hospitalar de Lisboa Central, E. P. E. (508080142)",Medtronic (504223933),"13.180,00 €",07-03-2014,12-02-2014,1 dias,"Portugal, Lisboa, Lisboa","Artigo 24.º, n.º 1, alínea e) do Código dos Contratos Públicos",,,,,,Não aplicável.,Não aplicável.,FALSE
Revisão de prótese de anca,Ajuste Direto Regime Geral,Aquisição de bens móveis,"33000000-0, Equipamento médico, medicamentos e produtos para cuidados pessoais","Centro Hospitalar de Lisboa Central, E. P. E. (508080142)",Lima Implantes (508634784),"360,00 €",07-03-2014,07-02-2014,1 dias,"Portugal, Lisboa, Lisboa","Artigo 24.º, n.º 1, alínea e) do Código dos Contratos Públicos",,,,,,Não aplicável.,Não aplicável.,FALSE
Consumíveis para hidrocefalias,Ajuste Direto Regime Geral,Aquisição de bens móveis,"33000000-0, Equipamento médico, medicamentos e produtos para cuidados pessoais","Centro Hospitalar de Lisboa Central, E. P. E. (508080142)",Johnson & Johnson (500153370),"3.749,00 €",07-03-2014,12-02-2014,1 dias,"Portugal, Lisboa, Lisboa","Artigo 24.º, n.º 1, alínea c) do Código dos Contratos Públicos",,,,,,Não aplicável.,Não aplicável.,FALSE
Espaçadores cervicais,Ajuste Direto Regime Geral,Aquisição de bens móveis,"33000000-0, Equipamento médico, medicamentos e produtos para cuidados pessoais","Centro Hospitalar de Lisboa Central, E. P. E. (508080142)",Medtronic (504223933),"4.030,00 €",07-03-2014,12-02-2014,1 dias,"Portugal, Lisboa, Lisboa","Artigo 24.º, n.º 1, alínea c) do Código dos Contratos Públicos",,,,,,Não aplicável.,Não aplicável.,FALSE
Consumíveis para hidrocefalias,Ajuste Direto Regime Geral,Aquisição de bens móveis,"33000000-0, Equipamento médico, medicamentos e produtos para cuidados pessoais","Centro Hospitalar de Lisboa Central, E. P. E. (508080142)",Medtronic (504223933),"204,50 €",07-03-2014,31-01-2014,1 dias,"Portugal, Lisboa, Lisboa","Artigo 24.º, n.º 1, alínea c) do Código dos Contratos Públicos",,,,,,Não aplicável.,Não aplicável.,FALSE
510086/14 - Aquisição de Sunitinib 12.5 mg cáps.,Ao abrigo de acordo-quadro (art.º 259.º),Aquisição de bens móveis,"33600000-6, Produtos farmacêuticos","Centro Hospitalar de Lisboa Central, E. P. E. (508080142)","Laboratórios Pfizer, Lda. (500162166)","29.666,49 €",07-03-2014,02-01-2014,365 dias,"Portugal, Lisboa, Lisboa",Artigo 259.º do Código dos Contratos Públicos,,,,,,345900,CONCURSO PÚBLICO PARA A CELEBRAÇÃO DE CONTRATOS PÚBLICOS DE APROVISIONAMENTO PARA AQUISIÇÃO MEDICAMENTOS DO FORO ONCOLÓGICO,FALSE
Cavilhas e parafusos,Ajuste Direto Regime Geral,Aquisição de bens móveis,"33000000-0, Equipamento médico, medicamentos e produtos para cuidados pessoais","Centro Hospitalar de Lisboa Central, E. P. E. (508080142)",Biomet (500254990),"8.280,00 €",07-03-2014,12-02-2014,1 dias,"Portugal, Lisboa, Lisboa","Artigo 20.º, n.º 1, alínea a) do Código dos Contratos Públicos",,,,,,Não aplicável.,Não aplicável.,FALSE
510058/14 - Aquisição de Etravirina 200 mg comp. e Telaprevir 375 mg comp.,Ao abrigo de acordo-quadro (art.º 259.º),Aquisição de bens móveis,"33600000-6, Produtos farmacêuticos","Centro Hospitalar de Lisboa Central, E. P. E. (508080142)","Janssen-Cilag Farmacêutica, Lda. (500189412)","1.021.876,26 €",07-03-2014,02-01-2014,365 dias,"Portugal, Lisboa, Lisboa",Artigo 259.º do Código dos Contratos Públicos,,,,,,461371,CP 2012/40 - MEDICAMENTOS ANTI-RETROVIRAIS,FALSE
Placas e parafusos para cranioplastia e maxilo-facial,Ajuste Direto Regime Geral,Aquisição de bens móveis,"33000000-0, Equipamento médico, medicamentos e produtos para cuidados pessoais","Centro Hospitalar de Lisboa Central, E. P. E. (508080142)",Johnson & Johnson (500153370),"757,79 €",07-03-2014,24-02-2014,1 dias,"Portugal, Lisboa, Lisboa","Artigo 20.º, n.º 1, alínea a) do Código dos Contratos Públicos",,,,,,Não aplicável.,Não aplicável.,FALSE
510104/14 - Aquisição de Doxorrubicina lipossómica peguilada 2 mg/ml sol. inj. fr. 10 ml IV,Ao abrigo de acordo-quadro (art.º 259.º),Aquisição de bens móveis,"33600000-6, Produtos farmacêuticos","Centro Hospitalar de Lisboa Central, E. P. E. (508080142)","Janssen-Cilag Farmacêutica, Lda. (500189412)","44.891,00 €",07-03-2014,02-01-2014,365 dias,"Portugal, Lisboa, Lisboa",Artigo 259.º do Código dos Contratos Públicos,,,,,,345900,CONCURSO PÚBLICO PARA A CELEBRAÇÃO DE CONTRATOS PÚBLICOS DE APROVISIONAMENTO PARA AQUISIÇÃO MEDICAMENTOS DO FORO ONCOLÓGICO,FALSE
510032/14 - Aquisição de Iloprost 0.05 mg / 0.5 ml sol. inj. fr. 0.5 ml IV e Iloprost 10 uG/ml sol. inal. neb. fr. 2 ml,Ao abrigo de acordo-quadro (art.º 259.º),Aquisição de bens móveis,"33600000-6, Produtos farmacêuticos","Centro Hospitalar de Lisboa Central, E. P. E. (508080142)",Bayer Portugal S. A. (500043256),"94.554,87 €",07-03-2014,02-01-2014,365 dias,"Portugal, Lisboa, Lisboa",Artigo 259.º do Código dos Contratos Públicos,,,,,,599473,"CONCURSO PÚBLICO PARA A CELEBRAÇÃO DE CONTRATOS PÚBLICOS DE APROVISIONAMENTO PARA A ÁREA DA SAÚDE, COM VISTA AO FORNECIMENTO DE MEDICAMENTOS DE CONSUMO GERAL, GRUPO 4: SANGUE ÀS INSTITUIÇÕES E SERVIÇOS DO SERVIÇO NACIONAL DE SAÚDE",FALSE
"FENTANILO 0,2MG PASTILHAS",Ao abrigo de acordo-quadro (art.º 259.º),Aquisição de bens móveis,"33000000-0, Equipamento médico, medicamentos e produtos para cuidados pessoais","Centro Hospitalar de Lisboa Central, E. P. E. (508080142)","Ferrer Azevedos, S.A. (504507680)","5.656,81 €",07-03-2014,07-01-2014,358 dias,"Portugal, Lisboa, Lisboa",Artigo 259.º do Código dos Contratos Públicos,,,,,,461370,"CP 2012/44 - MEDICAMENTOS ANALGÉSICOS, ANTIPIRÉTICOS E ANTIDEPRESSIVOS",FALSE
AQUISIÇÃO DE ATOVAQUONA 150 MG/ML SUSP ORAL FR 226 ML,Ao abrigo de acordo-quadro (art.º 259.º),Aquisição de bens móveis,"33000000-0, Equipamento médico, medicamentos e produtos para cuidados pessoais","Centro Hospitalar de Lisboa Central, E. P. E. (508080142)","Glaxosmithkline - Produtos Farmacêuticos, Lda (500139962)","76.915,60 €",07-03-2014,02-01-2014,363 dias,"Portugal, Lisboa, Lisboa",Artigo 259.º do Código dos Contratos Públicos,,,,,,455180,"CONCURSO PÚBLICO PARA A CELEBRAÇÃO DE CONTRATOS PÚBLICOS DE APROVISIONAMENTO PARA A ÁREA DA SAÚDE, COM VISTA AO FORNECIMENTO DE MEDICAMENTOS ANTI-INFECIOSOS: ANTIVÍRICOS E ANTIFÚNGICOS, ÀS INSTITUIÇÕES E SERVIÇOS DO SERVIÇO NACIONAL DE SAÚDE  ",FALSE
510323/14 - Aquisição de Carboximetilcelulose 10 x 10 penso,Ao abrigo de acordo-quadro (art.º 259.º),Aquisição de bens móveis,"33600000-6, Produtos farmacêuticos","Centro Hospitalar de Lisboa Central, E. P. E. (508080142)","KVTECH Portugal - Prod. Médicos Unipessoal, Lda. (508671531)","30.240,00 €",07-03-2014,07-02-2014,327 dias,"Portugal, Lisboa, Lisboa",Artigo 259.º do Código dos Contratos Públicos,,,,,,552526,"CONCURSO PÚBLICO PARA A CELEBRAÇÃO DE CONTRATOS PÚBLICOS DE APROVISIONAMENTO PARA A ÁREA DA SAÚDE, COM VISTA AO FORNECIMENTO DE DISPOSITIVOS MÉDICOS DIVERSOS",FALSE
Pemetrexedo 500mg pó solução injetável,Ao abrigo de acordo-quadro (art.º 259.º),Aquisição de bens móveis,"33000000-0, Equipamento médico, medicamentos e produtos para cuidados pessoais","Centro Hospitalar de Lisboa Central, E. P. E. (508080142)","Lilly Portugal - Produtos Farmacêuticos, Lda (500165602)","167.118,30 €",07-03-2014,02-01-2014,363 dias,"Portugal, Lisboa, Lisboa",Artigo 259.º do Código dos Contratos Públicos,,,,,,383205,CONCURSO PÚBLICO PARA A CELEBRAÇÃO DE CONTRATOS PÚBLICOS DE APROVISIONAMENTO PARA AQUISIÇÃO MEDICAMENTOS DO FORO ONCOLÓGICO II,FALSE
PARECOXIB 40MG PÓ SOL INJ FR IM IV,Ao abrigo de acordo-quadro (art.º 259.º),Aquisição de bens móveis,"33000000-0, Equipamento médico, medicamentos e produtos para cuidados pessoais","Centro Hospitalar de Lisboa Central, E. P. E. (508080142)","Laboratorios Pfizer, Lda (500162166)","120.060,00 €",07-03-2014,08-01-2014,357 dias,"Portugal, Lisboa, Lisboa",Artigo 259.º do Código dos Contratos Públicos,,,,,,600392,"CONCURSO PÚBLICO PARA A CELEBRAÇÃO DE CONTRATOS PÚBLICOS DE APROVISIONAMENTO PARA A ÁREA DA SAÚDE, COM VISTA AO FORNECIMENTO DE MEDICAMENTOS DE CONSUMO GERAL - APARELHO LOCOMOTOR ÀS INSTITUIÇÕES E SERVIÇOS DO SERVIÇO NACIONAL DE SAÚDE",FALSE
AQUISIÇÃO DE ERTAPENEM 1000 MG PÓ CONC SOL INJ FR IV,Ao abrigo de acordo-quadro (art.º 259.º),Aquisição de bens móveis,"33000000-0, Equipamento médico, medicamentos e produtos para cuidados pessoais","Centro Hospitalar de Lisboa Central, E. P. E. (508080142)","Merck Sharp & Dohme, Limitada (500191360)","100.128,00 €",07-03-2014,02-01-2014,363 dias,"Portugal, Lisboa, Lisboa",Artigo 259.º do Código dos Contratos Públicos,,,,,,455180,"CONCURSO PÚBLICO PARA A CELEBRAÇÃO DE CONTRATOS PÚBLICOS DE APROVISIONAMENTO PARA A ÁREA DA SAÚDE, COM VISTA AO FORNECIMENTO DE MEDICAMENTOS ANTI-INFECIOSOS: ANTIVÍRICOS E ANTIFÚNGICOS, ÀS INSTITUIÇÕES E SERVIÇOS DO SERVIÇO NACIONAL DE SAÚDE  ",FALSE
Pazopanib comprimidos 400mg,Ao abrigo de acordo-quadro (art.º 259.º),Aquisição de bens móveis,"33000000-0, Equipamento médico, medicamentos e produtos para cuidados pessoais","Centro Hospitalar de Lisboa Central, E. P. E. (508080142)","Glaxosmithkline - Produtos Farmacêuticos, Lda (500139962)","59.170,95 €",07-03-2014,02-01-2014,363 dias,"Portugal, Lisboa, Lisboa",Artigo 259.º do Código dos Contratos Públicos,,,,,,383205,CONCURSO PÚBLICO PARA A CELEBRAÇÃO DE CONTRATOS PÚBLICOS DE APROVISIONAMENTO PARA AQUISIÇÃO MEDICAMENTOS DO FORO ONCOLÓGICO II,FALSE
"Enoxaparina sódica 20mg, 40mg, 60mg, 80mg",Ao abrigo de acordo-quadro (art.º 259.º),Aquisição de bens móveis,"33000000-0, Equipamento médico, medicamentos e produtos para cuidados pessoais","Centro Hospitalar de Lisboa Central, E. P. E. (508080142)","Sanofi - Produtos Farmacêuticos, Lda (500134960)","206.974,14 €",07-03-2014,02-01-2014,363 dias,"Portugal, Lisboa, Lisboa",Artigo 259.º do Código dos Contratos Públicos,,,,,,599473,"CONCURSO PÚBLICO PARA A CELEBRAÇÃO DE CONTRATOS PÚBLICOS DE APROVISIONAMENTO PARA A ÁREA DA SAÚDE, COM VISTA AO FORNECIMENTO DE MEDICAMENTOS DE CONSUMO GERAL, GRUPO 4: SANGUE ÀS INSTITUIÇÕES E SERVIÇOS DO SERVIÇO NACIONAL DE SAÚDE",FALSE
AQUISIÇÃO DE MITOMICINA 40 MG PÓ SOL INJ FR IV IVESICAL,Ao abrigo de acordo-quadro (art.º 259.º),Aquisição de bens móveis,"33000000-0, Equipamento médico, medicamentos e produtos para cuidados pessoais","Centro Hospitalar de Lisboa Central, E. P. E. (508080142)","Companhia Portuguesa HigienE Pharma - Produtos Farmacêuticos, S.A (500069190)","42.023,00 €",07-03-2014,02-01-2014,363 dias,"Portugal, Lisboa, Lisboa",Artigo 259.º do Código dos Contratos Públicos,,,,,,345900,CONCURSO PÚBLICO PARA A CELEBRAÇÃO DE CONTRATOS PÚBLICOS DE APROVISIONAMENTO PARA AQUISIÇÃO MEDICAMENTOS DO FORO ONCOLÓGICO,FALSE
"Fornecimento de Gás Natural para o CHLC, EPE",Concurso público,Aquisição de serviços,"65210000-8, Distribuição de gás",Centro Hospitalar de Lisboa Central E.P.E. (508080142),GOLD ENERGY (507857542),"2.345.398,77 €",07-03-2014,09-01-2014,365 dias,"Portugal, Lisboa, Lisboa","Artigo 20.º, n.º 1, alínea b) do Código dos Contratos Públicos",,,,,,Não aplicável.,Não aplicável.,FALSE
Fornecimento de Energia Electrica,Concurso público,Aquisição de serviços,"71314100-3, Serviços de electricidade",Centro Hospitalar de Lisboa Central E.P.E. (508080142),EDP COMERCIAL (503504564),"1.725.957,91 €",07-03-2014,03-02-2014,300 dias,"Portugal, Lisboa, Lisboa","Artigo 20.º, n.º 1, alínea b) do Código dos Contratos Públicos",,,,,,Não aplicável.,Não aplicável.,FALSE
510119/14AQUISIÇÃO DE ÁCIDO AMINOCAPRÓICO 2500 MG/10 ML E ÁCIDO AMINOCAPRÓICO 3000 MG,Ao abrigo de acordo-quadro (art.º 259.º),Aquisição de bens móveis,"33000000-0, Equipamento médico, medicamentos e produtos para cuidados pessoais","Centro Hospitalar de Lisboa Central, E. P. E. (508080142)",Bial Portela & Ca Sa (500220913),"3.559,08 €",06-03-2014,02-01-2014,365 dias,"Portugal, Lisboa, Lisboa",Artigo 259.º do Código dos Contratos Públicos,,,,,,599473,"CONCURSO PÚBLICO PARA A CELEBRAÇÃO DE CONTRATOS PÚBLICOS DE APROVISIONAMENTO PARA A ÁREA DA SAÚDE, COM VISTA AO FORNECIMENTO DE MEDICAMENTOS DE CONSUMO GERAL, GRUPO 4: SANGUE ÀS INSTITUIÇÕES E SERVIÇOS DO SERVIÇO NACIONAL DE SAÚDE",FALSE
510185/14FLUCLOXACILINA 250 MG/5 ML PÓ SUSP ORAL FR 100 ML,Ao abrigo de acordo-quadro (art.º 259.º),Aquisição de bens móveis,"33000000-0, Equipamento médico, medicamentos e produtos para cuidados pessoais","Centro Hospitalar de Lisboa Central, E. P. E. (508080142)",Actavis A/S Sucursal (980334934),"629,25 €",06-03-2014,08-01-2014,358 dias,"Portugal, Lisboa, Lisboa",Artigo 259.º do Código dos Contratos Públicos,,,,,,455180,"CONCURSO PÚBLICO PARA A CELEBRAÇÃO DE CONTRATOS PÚBLICOS DE APROVISIONAMENTO PARA A ÁREA DA SAÚDE, COM VISTA AO FORNECIMENTO DE MEDICAMENTOS ANTI-INFECIOSOS: ANTIVÍRICOS E ANTIFÚNGICOS, ÀS INSTITUIÇÕES E SERVIÇOS DO SERVIÇO NACIONAL DE SAÚDE  ",FALSE
510186/14CEFEPIMA 1000 MG PÓ SOL INJ FR IM IV,Ao abrigo de acordo-quadro (art.º 259.º),Aquisição de bens móveis,"33000000-0, Equipamento médico, medicamentos e produtos para cuidados pessoais","Centro Hospitalar de Lisboa Central, E. P. E. (508080142)",Fresenius Kabi Pharma Portugal (504293753),"3.999,50 €",06-03-2014,08-01-2014,359 dias,"Portugal, Lisboa, Lisboa",Artigo 259.º do Código dos Contratos Públicos,,,,,,455180,"CONCURSO PÚBLICO PARA A CELEBRAÇÃO DE CONTRATOS PÚBLICOS DE APROVISIONAMENTO PARA A ÁREA DA SAÚDE, COM VISTA AO FORNECIMENTO DE MEDICAMENTOS ANTI-INFECIOSOS: ANTIVÍRICOS E ANTIFÚNGICOS, ÀS INSTITUIÇÕES E SERVIÇOS DO SERVIÇO NACIONAL DE SAÚDE  ",FALSE
510199/14RIFAMPICINA 300 MG /PIRAZINAMIDA 500 /ETAMBUTOL 400/RIFAMPICINA 20 MG/ML,Ao abrigo de acordo-quadro (art.º 259.º),Aquisição de bens móveis,"33000000-0, Equipamento médico, medicamentos e produtos para cuidados pessoais","Centro Hospitalar de Lisboa Central, E. P. E. (508080142)",Sanofi-Produtos Farmaceuticos Lda (500134960),"4.649,83 €",06-03-2014,03-01-2014,365 dias,"Portugal, Lisboa, Lisboa",Artigo 259.º do Código dos Contratos Públicos,,,,,,455180,"CONCURSO PÚBLICO PARA A CELEBRAÇÃO DE CONTRATOS PÚBLICOS DE APROVISIONAMENTO PARA A ÁREA DA SAÚDE, COM VISTA AO FORNECIMENTO DE MEDICAMENTOS ANTI-INFECIOSOS: ANTIVÍRICOS E ANTIFÚNGICOS, ÀS INSTITUIÇÕES E SERVIÇOS DO SERVIÇO NACIONAL DE SAÚDE  ",FALSE
510190/14CEFUROXIMA 125 MG/5 ML/CEFUROXIMA 250 MG/5 ML /ATOVAQUONA 250 MG + PROGUANILO,Ao abrigo de acordo-quadro (art.º 259.º),Aquisição de bens móveis,"33000000-0, Equipamento médico, medicamentos e produtos para cuidados pessoais","Centro Hospitalar de Lisboa Central, E. P. E. (508080142)",Glaxosmithkline-Produtos Farmaceuticos (500139962),"1.881,63 €",06-03-2014,08-01-2014,358 dias,"Portugal, Lisboa, Lisboa",Artigo 259.º do Código dos Contratos Públicos,,,,,,455180,"CONCURSO PÚBLICO PARA A CELEBRAÇÃO DE CONTRATOS PÚBLICOS DE APROVISIONAMENTO PARA A ÁREA DA SAÚDE, COM VISTA AO FORNECIMENTO DE MEDICAMENTOS ANTI-INFECIOSOS: ANTIVÍRICOS E ANTIFÚNGICOS, ÀS INSTITUIÇÕES E SERVIÇOS DO SERVIÇO NACIONAL DE SAÚDE  ",FALSE
510166/14ACICLOVIR 80 MG/ML SUSP ORAL FR 100 ML,Ao abrigo de acordo-quadro (art.º 259.º),Aquisição de bens móveis,"33000000-0, Equipamento médico, medicamentos e produtos para cuidados pessoais","Centro Hospitalar de Lisboa Central, E. P. E. (508080142)",Glaxosmithkline- Produtos Farmaceuticos Lda (500139962),"266,45 €",06-03-2014,03-01-2014,365 dias,"Portugal, Lisboa, Lisboa",Artigo 259.º do Código dos Contratos Públicos,,,,,,455180,"CONCURSO PÚBLICO PARA A CELEBRAÇÃO DE CONTRATOS PÚBLICOS DE APROVISIONAMENTO PARA A ÁREA DA SAÚDE, COM VISTA AO FORNECIMENTO DE MEDICAMENTOS ANTI-INFECIOSOS: ANTIVÍRICOS E ANTIFÚNGICOS, ÀS INSTITUIÇÕES E SERVIÇOS DO SERVIÇO NACIONAL DE SAÚDE  ",FALSE
510163/14PARACETAMOL 500 MG + CAFEÍNA 50 MG PÓ SOL ORAL SAQ,Ao abrigo de acordo-quadro (art.º 259.º),Aquisição de bens móveis,"33000000-0, Equipamento médico, medicamentos e produtos para cuidados pessoais","Centro Hospitalar de Lisboa Central, E. P. E. (508080142)",DLA Farmaceutica S.A (503894427),"105,60 €",06-03-2014,08-01-2014,357 dias,"Portugal, Lisboa, Lisboa",Artigo 259.º do Código dos Contratos Públicos,,,,,,461370,"CP 2012/44 - MEDICAMENTOS ANALGÉSICOS, ANTIPIRÉTICOS E ANTIDEPRESSIVOS",FALSE
AQUISIÇÃO DE ÁLCOOIS,Ajuste Direto Regime Geral,Aquisição de bens móveis,"33000000-0, Equipamento médico, medicamentos e produtos para cuidados pessoais","Centro Hospitalar de Lisboa Central, E. P. E. (508080142)","PMH - Produtos Médicos-Hospitalares, SA (502376899)","6.726,40 €",06-03-2014,25-02-2014,309 dias,"Portugal, Lisboa, Lisboa","Artigo 20.º, n.º 1, alínea a) do Código dos Contratos Públicos",,,,,,Não aplicável.,Não aplicável.,FALSE
AQUISIÇÃO DE DASATINIB 100MG E 50MG COMP E MEGESTROL 40 MG/ML SUSP ORAL FR 240 ML,Ao abrigo de acordo-quadro (art.º 259.º),Aquisição de bens móveis,"33000000-0, Equipamento médico, medicamentos e produtos para cuidados pessoais","Centro Hospitalar de Lisboa Central, E. P. E. (508080142)","Bristol-Myers Squibb Farmacêutica Portuguesa, S.A. (500048193)","461.499,39 €",06-03-2014,02-01-2014,363 dias,"Portugal, Lisboa, Lisboa",Artigo 259.º do Código dos Contratos Públicos,,,,,,383205,CONCURSO PÚBLICO PARA A CELEBRAÇÃO DE CONTRATOS PÚBLICOS DE APROVISIONAMENTO PARA AQUISIÇÃO MEDICAMENTOS DO FORO ONCOLÓGICO II,FALSE
"AQUISIÇÃO DE ABACAVIR, MARAVIROC, FOSAMPRENAVIR E LAMIVUDINA",Ao abrigo de acordo-quadro (art.º 259.º),Aquisição de bens móveis,"33000000-0, Equipamento médico, medicamentos e produtos para cuidados pessoais","Centro Hospitalar de Lisboa Central, E. P. E. (508080142)",VIIVHIV Healthcare Unipessoal Lda (509117961),"939.261,64 €",06-03-2014,15-01-2014,350 dias,"Portugal, Lisboa, Lisboa",Artigo 259.º do Código dos Contratos Públicos,,,,,,461371,CP 2012/40 - MEDICAMENTOS ANTI-RETROVIRAIS,FALSE
"TACROLIMUS 1MG; 0,5MG; 5MG CAPS",Ao abrigo de acordo-quadro (art.º 259.º),Aquisição de bens móveis,"33000000-0, Equipamento médico, medicamentos e produtos para cuidados pessoais","Centro Hospitalar de Lisboa Central, E. P. E. (508080142)","Astellas Farma, Lda (502540249)","102.471,00 €",06-03-2014,31-01-2014,334 dias,"Portugal, Lisboa, Lisboa",Artigo 259.º do Código dos Contratos Públicos,,,,,,345900,CONCURSO PÚBLICO PARA A CELEBRAÇÃO DE CONTRATOS PÚBLICOS DE APROVISIONAMENTO PARA AQUISIÇÃO MEDICAMENTOS DO FORO ONCOLÓGICO,FALSE
"AQUISIÇÃO DE NIFEDIPINA 30MG, 20MG E 60MG, COMP LP E NIFEDIPINA 10MG E 5MG CÁPS",Ao abrigo de acordo-quadro (art.º 259.º),Aquisição de bens móveis,"33000000-0, Equipamento médico, medicamentos e produtos para cuidados pessoais","Centro Hospitalar de Lisboa Central, E. P. E. (508080142)",Bayer Portugal S.A. (500043256),"30.705,39 €",06-03-2014,02-01-2014,363 dias,"Portugal, Lisboa, Lisboa",Artigo 259.º do Código dos Contratos Públicos,,,,,,513025,"CONCURSO PÚBLICO PARA A CELEBRAÇÃO DE CONTRATOS PÚBLICOS DE APROVISIONAMENTO PARA A ÁREA DA SAÚDE, COM VISTA AO FORNECIMENTO DE MEDICAMENTOS DE CONSUMO GERAL  (FFOSI)- APARELHO CARDIOVASCULAR., ÀS INSTITUIÇÕES E SERVIÇOS DO SERVIÇO NACIONAL DE SAÚDE",FALSE
"AQUISIÇÃO DE CASSIA ANGUSTIFOLIA, SUCRALFATO 1000 MG/5 ML, CITRATO DE SÓDIO 450MG/5ML  E 270MG/3ML",Ao abrigo de acordo-quadro (art.º 259.º),Aquisição de bens móveis,"33000000-0, Equipamento médico, medicamentos e produtos para cuidados pessoais","Centro Hospitalar de Lisboa Central, E. P. E. (508080142)",OVERPHARMA - PROD.MED.FARM.LDA (505792362),"6.579,11 €",06-03-2014,28-02-2014,306 dias,"Portugal, Lisboa, Lisboa",Artigo 259.º do Código dos Contratos Públicos,,,,,,520788,CONCURSO PUBLICO PARA A CELEBRAÇÃO DE CONTRATOS PUBLICOS DE APROVISIONAMENTO PARA A AREA DA SAUDE  COM VISTA AO FORNECIMENTO DE MEDICAMENTOS PARA O APARELHO DIGESTIVO  AS INSITUIÇÕES DO SERVIÇO NACIONAL DE SAÚDE,FALSE
"POLIURENTANO ESP C/ PRATA, CARVÃO SILICONE PENSO 10X10; 15X15CM",Ao abrigo de acordo-quadro (art.º 259.º),Aquisição de bens móveis,"33000000-0, Equipamento médico, medicamentos e produtos para cuidados pessoais","Centro Hospitalar de Lisboa Central, E. P. E. (508080142)","Mölnlycke Health Care - Comercialização de Produtos Hospitalares, Lda (511101066)","46.120,00 €",06-03-2014,07-02-2014,327 dias,"Portugal, Lisboa, Lisboa",Artigo 259.º do Código dos Contratos Públicos,,,,,,490160,"CONCURSO PÚBLICO PARA A CELEBRAÇÃO DE CONTRATOS PÚBLICOS DE APROVISIONAMENTO PARA A ÁREA DA SAÚDE, COM VISTA AO FORNECIMENTO DE MATERIAL PENSO DE EFEITO TERAPÊUTICO - ÀS INSTITUIÇÕES E SERVIÇOS DO SERVIÇO NACIONAL DE SAÚDE",FALSE
Luvas cirurgicas latex,Ajuste Direto Regime Geral,Aquisição de bens móveis,"33140000-3, Material médico de consumo","Centro Hospitalar de Lisboa Central, E. P. E. (508080142)",Covidien (503413410),"60.542,40 €",06-03-2014,28-02-2014,90 dias,"Portugal, Lisboa, Lisboa","Artigo 20.º, n.º 1, alínea a) do Código dos Contratos Públicos",,,,,,Não aplicável.,Não aplicável.,FALSE
"TROCLOSENO SÓDICO 2,5G PASTILHAS",Ao abrigo de acordo-quadro (art.º 259.º),Aquisição de bens móveis,"33000000-0, Equipamento médico, medicamentos e produtos para cuidados pessoais","Centro Hospitalar de Lisboa Central, E. P. E. (508080142)",Johnson & Johnson Limitada (500153370),"19.200,00 €",06-03-2014,08-01-2014,357 dias,"Portugal, Lisboa, Lisboa",Artigo 259.º do Código dos Contratos Públicos,,,,,,178089,"CONCURSO PÚBLICO PARA A CELEBRAÇÃO DE CONTRATOS PÚBLICOS DE APROVISIONAMENTO PARA AQUISIÇÃO DE ANTISSÉPTICOS, DESINFECTANTES E OUTROS ",FALSE
Aquisição de Ácido ioxitalâmico 210 mg/ml sol. inj. fr. 250 ml IV e Ácido ioxitalâmico 660.3 mg/ml sol. inj. fr. 100 ml IV,Ajuste Direto Regime Geral,Aquisição de bens móveis,"33600000-6, Produtos farmacêuticos","Centro Hospitalar de Lisboa Central, E. P. E. (508080142)","A. Martins & Fernandes, S. A. (501172114)","15.980,00 €",06-03-2014,19-02-2014,301 dias,"Portugal, Lisboa, Lisboa","Artigo 24.º, n.º 1, alínea e) do Código dos Contratos Públicos",,,,,,Não aplicável.,Não aplicável.,FALSE
CARBOXIMETILCELULOSE  SÓDICA C/ pRATA 15X15CM,Ao abrigo de acordo-quadro (art.º 259.º),Aquisição de bens móveis,"33000000-0, Equipamento médico, medicamentos e produtos para cuidados pessoais","Centro Hospitalar de Lisboa Central, E. P. E. (508080142)","Kvtech Portugal - Produtos Médicos Unipessoal, Lda (508671531)","12.075,00 €",06-03-2014,28-02-2014,306 dias,"Portugal, Lisboa, Lisboa",Artigo 259.º do Código dos Contratos Públicos,,,,,,490160,"CONCURSO PÚBLICO PARA A CELEBRAÇÃO DE CONTRATOS PÚBLICOS DE APROVISIONAMENTO PARA A ÁREA DA SAÚDE, COM VISTA AO FORNECIMENTO DE MATERIAL PENSO DE EFEITO TERAPÊUTICO - ÀS INSTITUIÇÕES E SERVIÇOS DO SERVIÇO NACIONAL DE SAÚDE",FALSE
5101998/14SULFAMETOXAZOL 200 MG/5 ML + TRIMETOPRIM 40 MG/5 ML XAR FR 100 ML,Ao abrigo de acordo-quadro (art.º 259.º),Aquisição de bens móveis,"33000000-0, Equipamento médico, medicamentos e produtos para cuidados pessoais","Centro Hospitalar de Lisboa Central, E. P. E. (508080142)",Roche Farmaceutica Quimica Lda (500233810),"404,60 €",06-03-2014,03-01-2014,365 dias,"Portugal, Lisboa, Lisboa",Artigo 259.º do Código dos Contratos Públicos,,,,,,455180,"CONCURSO PÚBLICO PARA A CELEBRAÇÃO DE CONTRATOS PÚBLICOS DE APROVISIONAMENTO PARA A ÁREA DA SAÚDE, COM VISTA AO FORNECIMENTO DE MEDICAMENTOS ANTI-INFECIOSOS: ANTIVÍRICOS E ANTIFÚNGICOS, ÀS INSTITUIÇÕES E SERVIÇOS DO SERVIÇO NACIONAL DE SAÚDE  ",FALSE
Kits Cirurgia Percutânea Pé,Ajuste Direto Regime Geral,Aquisição de bens móveis,"33140000-3, Material médico de consumo","Centro Hospitalar de Lisboa Central, E. P. E. (508080142)",M.U.C. (502379308),"22.000,00 €",06-03-2014,26-02-2014,365 dias,"Portugal, Lisboa, Lisboa","Artigo 20.º, n.º 1, alínea a) do Código dos Contratos Públicos",,,,,,Não aplicável.,Não aplicável.,FALSE
AQUISIÇÃO DE FULVESTRANT 250 MG/5 ML SOL INJ SER 5 ML IM,Ao abrigo de acordo-quadro (art.º 259.º),Aquisição de bens móveis,"33000000-0, Equipamento médico, medicamentos e produtos para cuidados pessoais","Centro Hospitalar de Lisboa Central, E. P. E. (508080142)","Astrazeneca Produtos Farmacêuticos, Lda (502942240)","34.513,50 €",06-03-2014,02-01-2014,363 dias,"Portugal, Lisboa, Lisboa",Artigo 259.º do Código dos Contratos Públicos,,,,,,345900,CONCURSO PÚBLICO PARA A CELEBRAÇÃO DE CONTRATOS PÚBLICOS DE APROVISIONAMENTO PARA AQUISIÇÃO MEDICAMENTOS DO FORO ONCOLÓGICO,FALSE
AQUISIÇÃO DE LEVOBUPIVACAÍNA 25 MG/10 ML SOL INJ FR 10 ML EPIDURAL IT,Ao abrigo de acordo-quadro (art.º 259.º),Aquisição de bens móveis,"33000000-0, Equipamento médico, medicamentos e produtos para cuidados pessoais","Centro Hospitalar de Lisboa Central, E. P. E. (508080142)","AbbVie, Lda (510229050)","17.630,00 €",06-03-2014,02-01-2014,363 dias,"Portugal, Lisboa, Lisboa",Artigo 259.º do Código dos Contratos Públicos,,,,,,461372,CP 2012/45 - MEDICAMENTOS ANESTÉSICOS E RELAXANTES MUSCULARES,FALSE
AQUISIÇÃO DE ROMIPLOSTIM 250 µG PÓ SOL INJ FR SC,Ao abrigo de acordo-quadro (art.º 259.º),Aquisição de bens móveis,"33000000-0, Equipamento médico, medicamentos e produtos para cuidados pessoais","Centro Hospitalar de Lisboa Central, E. P. E. (508080142)","Amgen - Biofarmacêutica, Lda (502942959)","140.615,80 €",06-03-2014,02-01-2014,363 dias,"Portugal, Lisboa, Lisboa",Artigo 259.º do Código dos Contratos Públicos,,,,,,599473,"CONCURSO PÚBLICO PARA A CELEBRAÇÃO DE CONTRATOS PÚBLICOS DE APROVISIONAMENTO PARA A ÁREA DA SAÚDE, COM VISTA AO FORNECIMENTO DE MEDICAMENTOS DE CONSUMO GERAL, GRUPO 4: SANGUE ÀS INSTITUIÇÕES E SERVIÇOS DO SERVIÇO NACIONAL DE SAÚDE",FALSE
"GAZE IODOFORMADA HUMIDA 9,5X9,5 - 2014",Ao abrigo de acordo-quadro (art.º 259.º),Aquisição de bens móveis,"33000000-0, Equipamento médico, medicamentos e produtos para cuidados pessoais","Centro Hospitalar de Lisboa Central, E. P. E. (508080142)",Smith & Nephew Lda (503552461),"26.700,00 €",06-03-2014,07-02-2014,327 dias,"Portugal, Lisboa, Lisboa",Artigo 259.º do Código dos Contratos Públicos,,,,,,490160,"CONCURSO PÚBLICO PARA A CELEBRAÇÃO DE CONTRATOS PÚBLICOS DE APROVISIONAMENTO PARA A ÁREA DA SAÚDE, COM VISTA AO FORNECIMENTO DE MATERIAL PENSO DE EFEITO TERAPÊUTICO - ÀS INSTITUIÇÕES E SERVIÇOS DO SERVIÇO NACIONAL DE SAÚDE",FALSE
AQUISIÇÃO DE TRIÓXIDO DE ARSÉNIO 1 MG/ML SOL INJ FR 10 ML IV,Ao abrigo de acordo-quadro (art.º 259.º),Aquisição de bens móveis,"33000000-0, Equipamento médico, medicamentos e produtos para cuidados pessoais","Centro Hospitalar de Lisboa Central, E. P. E. (508080142)","Teva Pharma - Produtos Farmacêuticos, Lda (507045491)","31.040,00 €",06-03-2014,02-01-2014,363 dias,"Portugal, Lisboa, Lisboa",Artigo 259.º do Código dos Contratos Públicos,,,,,,345900,CONCURSO PÚBLICO PARA A CELEBRAÇÃO DE CONTRATOS PÚBLICOS DE APROVISIONAMENTO PARA AQUISIÇÃO MEDICAMENTOS DO FORO ONCOLÓGICO,FALSE
510183/14 ÓXIDO DE ZINCO 500 MG/G / HIDROCORTISONA 10 MG/G POM BISN 30 G/CETOCONAZOL 20 MG/G CR BISN 30 G,Ao abrigo de acordo-quadro (art.º 259.º),Aquisição de bens móveis,"33000000-0, Equipamento médico, medicamentos e produtos para cuidados pessoais","Centro Hospitalar de Lisboa Central, E. P. E. (508080142)",Laboratórios Edol- Produtos Farmaceuticos S.A (507072642),"11.292,00 €",06-03-2014,08-01-2014,358 dias,"Portugal, Lisboa, Lisboa",Artigo 259.º do Código dos Contratos Públicos,,,,,,602875,"CONCURSO PÚBLICO PARA A CELEBRAÇÃO DE CONTRATOS PÚBLICOS DE APROVISIONAMENTO PARA A ÁREA DA SAÚDE, COM VISTA AO FORNECIMENTO DE MEDICAMENTOS DE CONSUMO GERAL - USADOS NAS AFECÇÕES CUTÂNEAS, ÀS INSTITUIÇÕES E SERVIÇOS DO SERVIÇO NACIONAL DE SAÚDE",FALSE
AQUISIÇÃO DE NITROGLICERINA 5 MG/ML SOL INJ FR 5 ML IV,Ao abrigo de acordo-quadro (art.º 259.º),Aquisição de bens móveis,"33000000-0, Equipamento médico, medicamentos e produtos para cuidados pessoais","Centro Hospitalar de Lisboa Central, E. P. E. (508080142)","Hospira Portugal, Lda (502918098)","19.050,00 €",06-03-2014,02-01-2014,363 dias,"Portugal, Lisboa, Lisboa",Artigo 259.º do Código dos Contratos Públicos,,,,,,513025,"CONCURSO PÚBLICO PARA A CELEBRAÇÃO DE CONTRATOS PÚBLICOS DE APROVISIONAMENTO PARA A ÁREA DA SAÚDE, COM VISTA AO FORNECIMENTO DE MEDICAMENTOS DE CONSUMO GERAL  (FFOSI)- APARELHO CARDIOVASCULAR., ÀS INSTITUIÇÕES E SERVIÇOS DO SERVIÇO NACIONAL DE SAÚDE",FALSE
"RANIBIZUMAB 10MG/ML SOL INJ FR 0,23ML INTRAVITREO",Ao abrigo de acordo-quadro (art.º 259.º),Aquisição de bens móveis,"33000000-0, Equipamento médico, medicamentos e produtos para cuidados pessoais","Centro Hospitalar de Lisboa Central, E. P. E. (508080142)","Novartis Farma - Produtos Farmacêuticos, SA (500063524)","31.580,00 €",06-03-2014,08-01-2014,357 dias,"Portugal, Lisboa, Lisboa",Artigo 259.º do Código dos Contratos Públicos,,,,,,602068,"CONCURSO PÚBLICO PARA A CELEBRAÇÃO DE CONTRATOS PÚBLICOS DE APROVISIONAMENTO PARA A ÁREA DA SAÚDE, COM VISTA AO FORNECIMENTO DE MEDICAMENTOS DE CONSUMO GERAL - MEDICAMENTOS USADOS NAS AFEÇÕES OCULARES E  OTORRINOLARINGOLÓGICAS, ÀS INSTITUIÇÕES E SERVIÇOS DO SERVIÇO NACIONAL DE SAÚDE",FALSE
DIVERSO MATERIAL DE SACO,Ajuste Direto Regime Geral,Aquisição de bens móveis,"33000000-0, Equipamento médico, medicamentos e produtos para cuidados pessoais","Centro Hospitalar de Lisboa Central, E. P. E. (508080142)",KVTECH (508671531),"4.119,20 €",06-03-2014,25-02-2014,311 dias,"Portugal, Lisboa, Lisboa","Artigo 20.º, n.º 1, alínea a) do Código dos Contratos Públicos",,,,,,Não aplicável.,Não aplicável.,FALSE
DIVERSO MATERIAL DE SACO,Ajuste Direto Regime Geral,Aquisição de bens móveis,"33000000-0, Equipamento médico, medicamentos e produtos para cuidados pessoais","Centro Hospitalar de Lisboa Central, E. P. E. (508080142)",AVIQUIMICA (500039720),"1.811,00 €",06-03-2014,25-02-2014,311 dias,"Portugal, Lisboa, Lisboa","Artigo 20.º, n.º 1, alínea a) do Código dos Contratos Públicos",,,,,,Não aplicável.,Não aplicável.,FALSE
Aquisição de Cateteres Endovenosos,Concurso público,Locação de bens móveis,"33141200-2, Cateteres","Centro Hospitalar de Lisboa Central, E. P. E. (508080142)",Vygon Portugal (503232785),"96.903,00 €",06-03-2014,11-02-2014,720 dias,"Portugal, Lisboa, Lisboa","Artigo 20.º, n.º 1, alínea b) do Código dos Contratos Públicos",,,,,,Não aplicável.,Não aplicável.,FALSE
Aquisição de Cateteres Endovenosos,Concurso público,Locação de bens móveis,"33141200-2, Cateteres","Centro Hospitalar de Lisboa Central, E. P. E. (508080142)",Medicinália Cormédica (500684324),"31.340,00 €",06-03-2014,21-02-2014,720 dias,"Portugal, Lisboa, Lisboa","Artigo 20.º, n.º 1, alínea b) do Código dos Contratos Públicos",,,,,,Não aplicável.,Não aplicável.,FALSE
FIXADORES. IMOBILIZADORES E SUPORTES,Ajuste Direto Regime Geral,Aquisição de bens móveis,"33000000-0, Equipamento médico, medicamentos e produtos para cuidados pessoais","Centro Hospitalar de Lisboa Central, E. P. E. (508080142)",AVIQUIMICA (500039720),"353,60 €",06-03-2014,28-02-2014,309 dias,"Portugal, Lisboa, Lisboa","Artigo 20.º, n.º 1, alínea a) do Código dos Contratos Públicos",,,,,,Não aplicável.,Não aplicável.,FALSE
FIXADORES. IMOBILIZADORES E SUPORTES,Ajuste Direto Regime Geral,Aquisição de bens móveis,"33000000-0, Equipamento médico, medicamentos e produtos para cuidados pessoais","Centro Hospitalar de Lisboa Central, E. P. E. (508080142)",EXPOMEDICA (501886621),"4.670,00 €",06-03-2014,28-02-2014,309 dias,"Portugal, Lisboa, Lisboa","Artigo 20.º, n.º 1, alínea a) do Código dos Contratos Públicos",,,,,,Não aplicável.,Não aplicável.,FALSE
FIXADORES. IMOBILIZADORES E SUPORTES,Ajuste Direto Regime Geral,Aquisição de bens móveis,"33000000-0, Equipamento médico, medicamentos e produtos para cuidados pessoais","Centro Hospitalar de Lisboa Central, E. P. E. (508080142)",FACTOR PLUS (502810645),"569,60 €",06-03-2014,28-02-2014,309 dias,"Portugal, Lisboa, Lisboa","Artigo 20.º, n.º 1, alínea a) do Código dos Contratos Públicos",,,,,,Não aplicável.,Não aplicável.,FALSE
FIXADORES. IMOBILIZADORES E SUPORTES,Ajuste Direto Regime Geral,Aquisição de bens móveis,"33000000-0, Equipamento médico, medicamentos e produtos para cuidados pessoais","Centro Hospitalar de Lisboa Central, E. P. E. (508080142)",SMITH NEPHEW (503552461),"849,20 €",06-03-2014,28-02-2014,306 dias,"Portugal, Lisboa, Lisboa","Artigo 20.º, n.º 1, alínea a) do Código dos Contratos Públicos",,,,,,Não aplicável.,Não aplicável.,FALSE
"Aquisição de biosensores pneumáticos de plestismografia, durante o ano de 2014 - lote deserto do cp12009014",Ajuste Direto Regime Geral,Aquisição de bens móveis,"33140000-3, Material médico de consumo","Centro Hospitalar de Lisboa Central, E.P.E. (CHLC) (508080142)","Intervenção-Instrumentos Médicos Cirúrgicos, Lda (504203827)","21.912,00 €",06-03-2014,18-02-2014,316 dias,"Portugal, Lisboa, Lisboa","Artigo 24.º, n.º 1, alínea a) do Código dos Contratos Públicos",,,,,,Não aplicável.,Não aplicável.,FALSE
Aquisição de kit´s plasmaferese com colocação de equipamento,Ajuste Direto Regime Geral,Aquisição de bens móveis,"33181500-7, Produtos de consumo para fins renais","Centro Hospitalar de Lisboa Central, E. P. E. (508080142)","Fresenius Medical Care Portugal, S.A. (503070220)","58.199,40 €",06-03-2014,25-02-2014,309 dias,"Portugal, Lisboa, Lisboa","Artigo 20.º, n.º 1, alínea a) do Código dos Contratos Públicos",,,,,,Não aplicável.,Não aplicável.,FALSE
"Aquisição de diversos dispositivos médicos destinados ao serviço de cardiologia do pólo HSM do CHLC, E.P.E.",Concurso público,Aquisição de bens móveis,"33140000-3, Material médico de consumo","Centro Hospitalar de Lisboa Central, E. P. E. (508080142)","St. Jude Medical Portugal, Lda (504180746)","106.800,00 €",06-03-2014,28-02-2014,306 dias,"Portugal, Lisboa, Lisboa","Artigo 20.º, n.º 1, alínea b) do Código dos Contratos Públicos",,,,,,Não aplicável.,Não aplicável.,FALSE
"Aquisição de diversos dispositivos médicos destinados ao serviço de cardiologia do pólo HSM do CHLC, E.P.E.",Concurso público,Aquisição de bens móveis,"33140000-3, Material médico de consumo","Centro Hospitalar de Lisboa Central, E. P. E. (508080142)","Medijope - Material Hospitalar, Lda (503005223)","42.000,00 €",06-03-2014,28-02-2014,306 dias,"Portugal, Lisboa, Lisboa","Artigo 20.º, n.º 1, alínea b) do Código dos Contratos Públicos",,,,,,Não aplicável.,Não aplicável.,FALSE
"Aquisição de serviços de fornecimento de sinalética para o CHLC,EPE",Ajuste Direto Regime Geral,Aquisição de serviços,"98300000-6, Serviços diversos","Centro Hospitalar de Lisboa Central, E. P. E. (508080142)",Extinloures Lda (502478500),"4.427,75 €",05-03-2014,25-02-2014,7 dias,"Portugal, Lisboa, Lisboa","Artigo 20.º, n.º 1, alínea a) do Código dos Contratos Públicos",,,,,,Não aplicável.,Não aplicável.,FALSE
Diverso material,Ajuste Direto Regime Geral,Aquisição de bens móveis,"33140000-3, Material médico de consumo","Centro Hospitalar de Lisboa Central, E. P. E. (508080142)",Normax (500203130),"9.502,60 €",04-03-2014,26-02-2014,90 dias,"Portugal, Lisboa, Lisboa","Artigo 20.º, n.º 1, alínea a) do Código dos Contratos Públicos",,,,,,Não aplicável.,Não aplicável.,FALSE
Aquisição de sensores O2 cerebral neonatal,Ajuste Direto Regime Geral,Aquisição de bens móveis,"33140000-3, Material médico de consumo","Centro Hospitalar de Lisboa Central, E. P. E. (508080142)","Covidien Portugal - Produtos de Saúde, Unipessoal, Lda (503413410)","7.260,00 €",04-03-2014,04-03-2014,319 dias,"Portugal, Lisboa, Lisboa","Artigo 20.º, n.º 1, alínea a) do Código dos Contratos Públicos",,,,,,Não aplicável.,Não aplicável.,FALSE
Aquisição de Ioversol 741mg/ml sol inj ser 125ml IV.,Ajuste Direto Regime Geral,Aquisição de bens móveis,"33000000-0, Equipamento médico, medicamentos e produtos para cuidados pessoais","Centro Hospitalar de Lisboa Central, E. P. E. (508080142)","Advanced Accelerator Applications (Portugal), Unipessoal, Lda. (509917267)","23.884,80 €",04-03-2014,12-02-2014,300 dias,"Portugal, Lisboa, Lisboa","Artigo 24.º, n.º 1, alínea e) do Código dos Contratos Públicos",,,,,,Não aplicável.,Não aplicável.,FALSE
4-2.0165/14,Ajuste Direto Regime Geral,Aquisição de bens móveis,"33100000-1, Equipamento médico","Centro Hospitalar de Lisboa Central, E.P.E. (CHLC) (508080142)",H.R. (501895558),"64,00 €",04-03-2014,24-02-2014,304 dias,"Portugal, Lisboa, Lisboa","Artigo 20.º, n.º 1, alínea a) do Código dos Contratos Públicos",,,,,,Não aplicável.,Não aplicável.,FALSE
"Microesponjas, preservativos e outros",Ajuste Direto Regime Geral,Aquisição de bens móveis,"33100000-1, Equipamento médico","Centro Hospitalar de Lisboa Central, E.P.E. (CHLC) (508080142)",P.M.H. (502376899),"650,00 €",04-03-2014,24-02-2014,304 dias,"Portugal, Lisboa, Lisboa","Artigo 20.º, n.º 1, alínea a) do Código dos Contratos Públicos",,,,,,Não aplicável.,Não aplicável.,FALSE
"Microesponjas, preservativos e outros",Ajuste Direto Regime Geral,Aquisição de bens móveis,"33100000-1, Equipamento médico","Centro Hospitalar de Lisboa Central, E.P.E. (CHLC) (508080142)",Ezequiel Panão Jorge (501412727),"1.358,40 €",04-03-2014,24-02-2014,303 dias,"Portugal, Lisboa, Lisboa","Artigo 20.º, n.º 1, alínea a) do Código dos Contratos Públicos",,,,,,Não aplicável.,Não aplicável.,FALSE
"Microesponjas, preservativos e outros",Ajuste Direto Regime Geral,Aquisição de bens móveis,"33100000-1, Equipamento médico","Centro Hospitalar de Lisboa Central, E.P.E. (CHLC) (508080142)",Anastácio Saldanha (505804441),"6,84 €",04-03-2014,24-02-2014,303 dias,"Portugal, Lisboa, Lisboa","Artigo 20.º, n.º 1, alínea a) do Código dos Contratos Públicos",,,,,,Não aplicável.,Não aplicável.,FALSE
Lâminas para máquina de tricotomia,Concurso público,Aquisição de bens móveis,"33140000-3, Material médico de consumo","Centro Hospitalar de Lisboa Central, E. P. E. (508080142)","3M Portugal, Lda. (500193940)","101.400,00 €",03-03-2014,28-02-2014,304 dias,"Portugal, Lisboa, Lisboa","Artigo 20.º, n.º 1, alínea b) do Código dos Contratos Públicos",,,,,,Não aplicável.,Não aplicável.,FALSE
"Aquisição de 200 Seringas de Hialuronato de Sódio  1% 0,4 + Hialuronato  Sod. 3,14,5mg ",Ajuste Direto Regime Geral,Aquisição de bens móveis,"33000000-0, Equipamento médico, medicamentos e produtos para cuidados pessoais","Centro Hospitalar de Lisboa Central, E. P. E. (508080142)",Alcon Portugal (501251685),"7.900,00 €",03-03-2014,19-02-2014,315 dias,"Portugal, Lisboa, Lisboa","Artigo 20.º, n.º 1, alínea a) do Código dos Contratos Públicos",,,,,,Não aplicável.,Não aplicável.,FALSE
Algálias e sacos de urina,Concurso público,Aquisição de bens móveis,"33140000-3, Material médico de consumo","Centro Hospitalar de Lisboa Central, E. P. E. (508080142)",C.R.Bard (502438274),"2.400,00 €",03-03-2014,10-02-2014,304 dias,"Portugal, Lisboa, Lisboa","Artigo 20.º, n.º 1, alínea b) do Código dos Contratos Públicos",,,,,,Não aplicável.,Não aplicável.,FALSE
Material para Cirurgia Endovascular,Ajuste Direto Regime Geral,Aquisição de bens móveis,"33000000-0, Equipamento médico, medicamentos e produtos para cuidados pessoais","Centro Hospitalar de Lisboa Central, E. P. E. (508080142)","Medtronic (504223933), Boston Scientific (504988964), Medicinalia-Cormedica (500684324), Biosonda (501463313), Teleflex medical (980249783), Johnson Medical (500153370), Terumo Europe Espana (980472024)","25.270,65 €",03-03-2014,26-02-2014,321 dias,"Portugal, Lisboa, Lisboa","Artigo 20.º, n.º 1, alínea a) do Código dos Contratos Públicos",,,,,,Não aplicável.,Não aplicável.,FALSE
Cateter de Remoção e Cateter de Balão,Ajuste Direto Regime Geral,Aquisição de bens móveis,"33000000-0, Equipamento médico, medicamentos e produtos para cuidados pessoais","Centro Hospitalar de Lisboa Central, E. P. E. (508080142)","Medicinalia-Cormedica (500684324), Abbott Laboratorios (500006148), Johnson (500153370), Socime II (504453939), Biosonda (501463313)","44.765,00 €",03-03-2014,03-03-2014,321 dias,"Portugal, Lisboa, Lisboa","Artigo 20.º, n.º 1, alínea a) do Código dos Contratos Públicos",,,,,,Não aplicável.,Não aplicável.,FALSE
510176/14ACICLOVIR 30 MG/G POM OFT BISN 4.5 G / MUPIROCINA 20 MG/G POM NAS BISN 3 G,Ao abrigo de acordo-quadro (art.º 259.º),Aquisição de bens móveis,"33000000-0, Equipamento médico, medicamentos e produtos para cuidados pessoais","Centro Hospitalar de Lisboa Central, E. P. E. (508080142)",Glaxosmithkline- Produtos Farmaceuticos (500139962),"913,60 €",03-03-2014,03-01-2014,365 dias,"Portugal, Lisboa, Lisboa",Artigo 259.º do Código dos Contratos Públicos,,,,,,602068,"CONCURSO PÚBLICO PARA A CELEBRAÇÃO DE CONTRATOS PÚBLICOS DE APROVISIONAMENTO PARA A ÁREA DA SAÚDE, COM VISTA AO FORNECIMENTO DE MEDICAMENTOS DE CONSUMO GERAL - MEDICAMENTOS USADOS NAS AFEÇÕES OCULARES E  OTORRINOLARINGOLÓGICAS, ÀS INSTITUIÇÕES E SERVIÇOS DO SERVIÇO NACIONAL DE SAÚDE",FALSE
Material para PCA,Ajuste Direto Regime Geral,Aquisição de bens móveis,"33000000-0, Equipamento médico, medicamentos e produtos para cuidados pessoais","Centro Hospitalar de Lisboa Central, E. P. E. (508080142)",Smiths Medical (507445937),"31.116,00 €",03-03-2014,21-02-2014,321 dias,"Portugal, Lisboa, Lisboa","Artigo 20.º, n.º 1, alínea a) do Código dos Contratos Públicos",,,,,,Não aplicável.,Não aplicável.,FALSE
510169/14FENTANILO 75 µG/H SIST TRANSD,Ao abrigo de acordo-quadro (art.º 259.º),Aquisição de bens móveis,"33000000-0, Equipamento médico, medicamentos e produtos para cuidados pessoais","Centro Hospitalar de Lisboa Central, E. P. E. (508080142)",Actavis A S Sucursal (980334934),"1.050,00 €",03-03-2014,15-01-2014,351 dias,"Portugal, Lisboa, Lisboa",Artigo 259.º do Código dos Contratos Públicos,,,,,,461370,"CP 2012/44 - MEDICAMENTOS ANALGÉSICOS, ANTIPIRÉTICOS E ANTIDEPRESSIVOS",FALSE
Aquisição de 1600 embalagens de Polistereno Sulfonato de Cálcio 759-949mg/g e aquisição de 140 frascos de Imunoglobulina Antilifócitos (Coelho) 20mg/ml Sol Inj,Ajuste Direto Regime Geral,Aquisição de bens móveis,"33000000-0, Equipamento médico, medicamentos e produtos para cuidados pessoais","Centro Hospitalar de Lisboa Central, E. P. E. (508080142)",Fresenius Medical Care (503070220),"73.288,76 €",03-03-2014,17-02-2014,317 dias,"Portugal, Lisboa, Lisboa","Artigo 24.º, n.º 1, alínea e) do Código dos Contratos Públicos",,,,,,Não aplicável.,Não aplicável.,FALSE
510715/13FLUMAZENILO 0.1 MG/ML SOL INJ FR 5 ML IV,Ao abrigo de acordo-quadro (art.º 259.º),Aquisição de bens móveis,"33000000-0, Equipamento médico, medicamentos e produtos para cuidados pessoais","Centro Hospitalar de Lisboa Central, E. P. E. (508080142)",Fresenius Kabi Pharma Portugal Lda (504293753),"498,00 €",03-03-2014,15-01-2014,82 dias,"Portugal, Lisboa, Lisboa",Artigo 259.º do Código dos Contratos Públicos,,,,,,602067,"ONCURSO PÚBLICO PARA A CELEBRAÇÃO DE CONTRATOS PÚBLICOS DE APROVISIONAMENTO PARA A ÁREA DA SAÚDE, COM VISTA AO FORNECIMENTO DE MEDICAMENTOS DE CONSUMO GERAL - MEDICAÇÃO ANTIALÉRGICA, MEDICAMENTOS USADOS NO TRATAMENTO DE INTOXICAÇÕES, VITAMINAS E SAIS MINERAIS  E GRUPO 20.9 - OUTROS PRODUTOS, ÀS INSTITUIÇÕES E SERVIÇOS DO SERVIÇO NACIONAL DE SAÚDE",FALSE
Seringas para gasimetria,Concurso público,Aquisição de bens móveis,"33140000-3, Material médico de consumo",Centro Hospitalar de Lisboa Central E.P.E. (508080142),"Smiths Medical, Lda. (507445937)","74.020,00 €",03-03-2014,28-02-2014,305 dias,"Portugal, Lisboa, Lisboa","Artigo 20.º, n.º 1, alínea b) do Código dos Contratos Públicos",,,,,,Não aplicável.,Não aplicável.,FALSE
510312/14DEXAMETASONA 0.5 MG COMP,Ao abrigo de acordo-quadro (art.º 259.º),Aquisição de bens móveis,"33000000-0, Equipamento médico, medicamentos e produtos para cuidados pessoais","Centro Hospitalar de Lisboa Central, E. P. E. (508080142)",Laboratorios Medinfar (500384045),"186,12 €",03-03-2014,24-01-2014,342 dias,"Portugal, Lisboa, Lisboa",Artigo 259.º do Código dos Contratos Públicos,,,,,,603979,"CONCURSO PÚBLICO PARA A CELEBRAÇÃO DE CONTRATOS PÚBLICOS DE APROVISIONAMENTO PARA A ÁREA DA SAÚDE, COM VISTA AO FORNECIMENTO DE HORMONAS E OUTROS MEDICAMENTOS USADOS NO TRATAMENTO DAS DOENÇAS ENDÓCRINAS, ÀS INSTITUIÇÕES E SERVIÇOS DO SERVIÇO NACIONAL DE SAÚDE",FALSE
Algálias e sacos de urina,Concurso público,Aquisição de bens móveis,"33140000-3, Material médico de consumo","Centro Hospitalar de Lisboa Central, E. P. E. (508080142)","Covidien, Lda. (503413410)","2.490,00 €",03-03-2014,10-02-2014,305 dias,"Portugal, Lisboa, Lisboa","Artigo 20.º, n.º 1, alínea b) do Código dos Contratos Públicos",,,,,,Não aplicável.,Não aplicável.,FALSE
Algálias e sacos de urina,Concurso público,Aquisição de bens móveis,"33140000-3, Material médico de consumo","Centro Hospitalar de Lisboa Central, E. P. E. (508080142)","Hospitex, Lda. (501909842)","7.084,40 €",03-03-2014,10-02-2014,305 dias,"Portugal, Lisboa, Lisboa","Artigo 20.º, n.º 1, alínea b) do Código dos Contratos Públicos",,,,,,Não aplicável.,Não aplicável.,FALSE
Algálias e sacos de urina,Concurso público,Aquisição de bens móveis,"33140000-3, Material médico de consumo","Centro Hospitalar de Lisboa Central, E. P. E. (508080142)","Overpharma, Lda. (505792362)","952,70 €",03-03-2014,10-02-2014,305 dias,"Portugal, Lisboa, Lisboa","Artigo 20.º, n.º 1, alínea b) do Código dos Contratos Públicos",,,,,,Não aplicável.,Não aplicável.,FALSE
Algálias e sacos de urina,Concurso público,Aquisição de bens móveis,"33140000-3, Material médico de consumo","Centro Hospitalar de Lisboa Central, E. P. E. (508080142)","Teleflex Medical, S.A. (980249783)","512,88 €",03-03-2014,10-02-2014,305 dias,"Portugal, Lisboa, Lisboa","Artigo 20.º, n.º 1, alínea b) do Código dos Contratos Públicos",,,,,,Não aplicável.,Não aplicável.,FALSE
Aquisição de Levetiracetam 100 mg/ml sol. inj. fr. 5 ml IV,Ajuste Direto Regime Geral,Aquisição de bens móveis,"33600000-6, Produtos farmacêuticos","Centro Hospitalar de Lisboa Central, E. P. E. (508080142)","Combino Pharm Portugal Unipessoal, Lda. (508622263)","18.684,00 €",03-03-2014,25-02-2014,306 dias,"Portugal, Lisboa, Lisboa","Artigo 20.º, n.º 1, alínea a) do Código dos Contratos Públicos",,,,,,Não aplicável.,Não aplicável.,FALSE
