Objeto do Contrato,Tipo de Procedimento,Tipo(s) de Contrato,CPVs,Entidade(s) Adjudicante(s),Entidade(s) Adjudicatária(s),Preço Contratual,Data de Publicação,Data de Celebração do Contrato,Prazo de Execução,Local de Execução,Fundamentação,Data de Fecho do Contrato,Preço Total Efetivo,Causas das Alterações ao Prazo,Causas das Alterações ao Preço,Estado,N.º registo do Acordo Quadro,Descrição do Acordo Quadro,Procedimento Centralizado
Aquisição de Reagentes.,Ajuste Direto Regime Geral,Aquisição de bens móveis,"33696500-0, Reagentes de laboratório","Instituto Nacional de Saúde Dr. Ricardo Jorge, I.P. (501427511)","Alfagene - Novas Tecnologias das Ciências da Vida, Lda (503387398)","2.902,00 €",02-03-2012,29-07-2011,4 dias,"Portugal, Lisboa, Lisboa","Artigo 20.º, n.º 1, alínea a) do Código dos Contratos Públicos",,,,,,Não aplicável.,Não aplicável.,
Aquisição de reagentes.,Ajuste Direto Regime Geral,Aquisição de bens móveis,"33696500-0, Reagentes de laboratório","Instituto Nacional de Saúde Dr. Ricardo Jorge, I.P. (501427511)","JCM Representações, Lda (502099330)","1.260,00 €",02-03-2012,29-07-2011,15 dias,"Portugal, Lisboa, Lisboa","Artigo 20.º, n.º 1, alínea a) do Código dos Contratos Públicos",,,,,,Não aplicável.,Não aplicável.,
Aquisição de material de consumo clinico.,Ajuste Direto Regime Geral,Aquisição de bens móveis,"33140000-3, Material médico de consumo","Instituto Nacional de Saúde Dr. Ricardo Jorge, I.P. (501427511)","I.L.C. Instrumentos de Laboratórios e científicos, Lda (500948208)","15.697,10 €",02-03-2012,29-12-2011,7 dias,"Portugal, Lisboa, Lisboa","Artigo 24.º, n.º 1, alínea a) do Código dos Contratos Públicos",,,,,,Não aplicável.,Não aplicável.,
Lampada de Halogénio para sistema icycler,Ajuste Direto Regime Geral,Aquisição de bens móveis,"31512000-8, Lâmpadas halogéneas de incandescência, de tungsténio","Instituto Nacional de Saúde Dr. Ricardo Jorge, I.P. (501427511)",Bio-Rad Laboratories (501301321),"133,00 €",02-03-2012,06-10-2011,20 dias,"Portugal, Lisboa, Lisboa","Artigo 24.º, n.º 1, alínea a) do Código dos Contratos Públicos",,,,,,Não aplicável.,Não aplicável.,
Cabo de transferência da dados. compatível com sonómetro 2260,Ajuste Direto Regime Geral,Aquisição de bens móveis,"31681410-0, Materiais eléctricos","Instituto Nacional de Saúde Dr. Ricardo Jorge, I.P. (501427511)","Brüel & Kjaer Ibérica, Sucursal em Portugal (980273048)","167,00 €",02-03-2012,19-11-2011,15 dias,"Portugal, Lisboa, Lisboa","Artigo 24.º, n.º 1, alínea a) do Código dos Contratos Públicos",,,,,,Não aplicável.,Não aplicável.,
Serviços de um técnico oficial de contas.,Ajuste Direto Regime Geral,Aquisição de serviços,"79212500-8, Serviços de revisão de contas","Instituto Nacional de Saúde Dr. Ricardo Jorge, I.P. (501427511)","Gabinete de Contas e Balanços, Lda (502625171)","11.000,00 €",02-03-2012,31-05-2011,305 dias,"Portugal, Lisboa, Lisboa","Artigo 20.º, n.º 1, alínea a) do Código dos Contratos Públicos",,,,,,Não aplicável.,Não aplicável.,
Reagentes,Ajuste Direto Regime Geral,Aquisição de bens móveis,"33696500-0, Reagentes de laboratório","Instituto Nacional de Saúde Dr. Ricardo Jorge, I.P. (501427511)","VWR International - Material de Laboratório, Lda (503842770)","4.652,43 €",02-03-2012,06-12-2011,1 dias,"Portugal, Lisboa, Lisboa","Artigo 24.º, n.º 1, alínea a) do Código dos Contratos Públicos",,,,,,Não aplicável.,Não aplicável.,
Mistura para PCER hot-start com MgC 12 à parte.,Ajuste Direto Regime Geral,Aquisição de bens móveis,"33696500-0, Reagentes de laboratório","Instituto Nacional de Saúde Dr. Ricardo Jorge, I.P. (501427511)","Alfagene - Nova tecnologias das ciências da vida, Lda (503387398)","1.430,00 €",02-03-2012,14-11-2011,20 dias,"Portugal, Porto, Porto","Artigo 20.º, n.º 1, alínea a) do Código dos Contratos Públicos",,,,,,Não aplicável.,Não aplicável.,
Aquisição de um Vaccum blotter.,Ajuste Direto Regime Geral,Aquisição de bens móveis,"39300000-5, Equipamento diverso","Instituto Nacional de Saúde Dr. Ricardo Jorge, I.P. (501427511)","BIOPORTUGAL, Químico, Farmacêutica, Lda (502380543)","3.800,00 €",02-03-2012,14-09-2011,12 dias,"Portugal, Lisboa, Lisboa","Artigo 20.º, n.º 1, alínea a) do Código dos Contratos Públicos",,,,,,Não aplicável.,Não aplicável.,
"Contratação de serviços de um técnico especializado para o Laboratório de Saúde Ocupacional e Qualidade de Ar, do Centro de Saúde Publica Dr. Gonçalves Ferreira.",Ajuste Direto Regime Geral,Aquisição de serviços,"98300000-6, Serviços diversos","Instituto Nacional de Saúde Dr. Ricardo Jorge, I.P. (501427511)",ISPUP - Instuituto de Saúde Publica do Porto (509093892),"13.200,00 €",02-03-2012,14-06-2011,365 dias,"Portugal, Porto, Porto","Artigo 20.º, n.º 1, alínea a) do Código dos Contratos Públicos",,,,,,Não aplicável.,Não aplicável.,
Aquisição de Material de Laboratório,Ajuste Direto Regime Geral,Aquisição de bens móveis,"31512000-8, Lâmpadas halogéneas de incandescência, de tungsténio","Instituto Nacional de Saúde Dr. Ricardo Jorge, I.P. (501427511)",Zembe Sociedade Técnica e Comercial. SA (500704970),"1.822,36 €",02-03-2012,07-11-2011,20 dias,"Portugal, Lisboa, Lisboa","Artigo 24.º, n.º 1, alínea a) do Código dos Contratos Públicos",,,,,,Não aplicável.,Não aplicável.,
REPARAÇÃO DE CROMATOGRAFO IONICO,Ajuste Direto Regime Geral,Aquisição de serviços,"50000000-5, Serviços de reparação e manutenção","Instituto Nacional de Saúde Dr. Ricardo Jorge, I.P. (501427511)",DIAS DE SOUSA (504080857),"829,50 €",27-02-2012,30-01-2012,15 dias,"Portugal, Lisboa, Lisboa<BR/>Portugal, Lisboa, Lisboa","Artigo 20.º, n.º 1, alínea a) do Código dos Contratos Públicos",,,,,,Não aplicável.,Não aplicável.,
REPARAÇÃO DE UNIDADE DE ALIMENTAÇÃO - UPS,Ajuste Direto Regime Geral,Aquisição de serviços,"50000000-5, Serviços de reparação e manutenção","Instituto Nacional de Saúde Dr. Ricardo Jorge, I.P. (501427511)",CHLORIDE (503322520),"348,29 €",27-02-2012,27-01-2012,5 dias,"Portugal, Lisboa, Lisboa","Artigo 20.º, n.º 1, alínea a) do Código dos Contratos Públicos",,,,,,Não aplicável.,Não aplicável.,
"FORNO DE HIBRIDIZAÇÃO, INJECTOR DE HPLC, TERMOCICLADOR - REPARAÇÃO.",Ajuste Direto Regime Geral,Aquisição de serviços,"50000000-5, Serviços de reparação e manutenção","Instituto Nacional de Saúde Dr. Ricardo Jorge, I.P. (501427511)",VWR (503842770),"4.326,50 €",24-02-2012,20-02-2012,3 dias,"Portugal, Distrito não determinado, Concelho não determinado","Artigo 20.º, n.º 1, alínea a) do Código dos Contratos Públicos",,,,,,Não aplicável.,Não aplicável.,
EQUIPAMENTO DE AGUA DESMINERALIZADA - MATERIAL UTILIZADO NA REPARAÇÃO/ MANUTENÇÃO,Ajuste Direto Regime Geral,Aquisição de serviços<br/>Aquisição de bens móveis,"39300000-5, Equipamento diverso","Instituto Nacional de Saúde Dr. Ricardo Jorge, I.P. (501427511)",ENKROTT (500103461),"612,93 €",23-02-2012,23-02-2012,1 dias,"Portugal, Porto, Porto<BR/>Portugal","Artigo 32.º, n.º 2, alínea a) do Código dos Contratos Públicos",,,,,,Não aplicável.,Não aplicável.,
AR CONDICIONADO - AQUISIÇÃO DE PEÇAS PARA A REPARAÇÃO/ MANUTENÇÃO,Ajuste Direto Regime Geral,Aquisição de serviços<br/>Aquisição de bens móveis,"39717200-3, Aparelhos de ar condicionado","Instituto Nacional de Saúde Dr. Ricardo Jorge, I.P. (501427511)",LIDERNOR (503582611),"1.045,45 €",23-02-2012,30-06-2011,2 dias,"Portugal, Porto, Porto","Artigo 32.º, n.º 2, alínea a) do Código dos Contratos Públicos",,,,,,Não aplicável.,Não aplicável.,
SISTEMAS DE VENTILAÇÃO E AR CONDICIONADO E CALDEIRA DE AQUECIMENTO - PEÇAS UTILIZADAS NA REPARAÇÃO/MANUTENÇÃO DOS RESPETIVOS EQUIPAMENTOS.,Ajuste Direto Regime Geral,Aquisição de bens móveis,"39717200-3, Aparelhos de ar condicionado","Instituto Nacional de Saúde Dr. Ricardo Jorge, I.P. (501427511)",EUROMA21 (508888972),"9.180,30 €",22-02-2012,20-02-2012,2 dias,"Portugal, Porto, Porto","Artigo 32.º, n.º 2, alínea a) do Código dos Contratos Públicos",,,,,,Não aplicável.,Não aplicável.,
