Objeto do Contrato,Tipo de Procedimento,Tipo(s) de Contrato,CPVs,Entidade(s) Adjudicante(s),Entidade(s) Adjudicatária(s),Preço Contratual,Data de Publicação,Data de Celebração do Contrato,Prazo de Execução,Local de Execução,Fundamentação,Data de Fecho do Contrato,Preço Total Efetivo,Causas das Alterações ao Prazo,Causas das Alterações ao Preço,Estado,N.º registo do Acordo Quadro,Descrição do Acordo Quadro,Procedimento Centralizado
"Prestação de Serviços Médicos na Especialidade de Radiologia, na ULSNA, EPE (Janeiro a Junho de 2013)",Ajuste Direto Regime Geral,Aquisição de serviços,"85100000-0, Serviços de saúde","Unidade Local de Saúde do Norte Alentejano, E.P.E. (508094461)","Instituto de Radiologia Médica, S.L. (B06228696)","19.800,00 €",08-02-2013,08-02-2013,181 dias,"Portugal, Portalegre","Artigo 20.º, n.º 1, alínea a) do Código dos Contratos Públicos",30-06-2013,"19.800,00 €",,,,Não aplicável.,Não aplicável.,
"Prestação de Serviços Médicos na Especialidade de Anestesiologia, na ULSNA, EPE (Janeiro a Março de 2013)",Ajuste Direto Regime Geral,Aquisição de serviços,"85100000-0, Serviços de saúde","Unidade Local de Saúde do Norte Alentejano, E.P.E. (508094461)","Isabel Oliveira Eusébio, Unipessoal, Lda. (508498520)","46.560,00 €",08-02-2013,08-02-2013,90 dias,"Portugal, Portalegre, Portalegre","Artigo 24.º, n.º 1, alínea c) do Código dos Contratos Públicos",31-03-2013,"46.560,00 €",,,,Não aplicável.,Não aplicável.,
"Prestação de Serviços Médicos na Especialidade de Anestesiologia, na ULSNA, EPE (Janeiro a Março de 2013)",Ajuste Direto Regime Geral,Aquisição de serviços,"85100000-0, Serviços de saúde","Unidade Local de Saúde do Norte Alentejano, E.P.E. (508094461)","Ciclipolis - Serviços Médicos, Unipessoal, Lda. (508320526)","77.554,00 €",06-02-2013,06-02-2013,90 dias,"Portugal, Portalegre, Portalegre","Artigo 24.º, n.º 1, alínea e) do Código dos Contratos Públicos",31-03-2013,"77.554,00 €",,,,Não aplicável.,Não aplicável.,
"Prestação de Serviços de Limpeza e Higiene na Unidade Local de Saúde do Norte Alentejano, EPE",Concurso público,Aquisição de serviços,"90910000-9, Serviços de limpeza","Unidade Local de Saúde do Norte Alentejano, E.P.E. (508094461)","Acciona Facility Services, SA (503431397)","574.262,74 €",06-02-2013,29-01-2013,365 dias,"Portugal, Portalegre, Portalegre","Artigo 20.º, n.º 1, alínea b) do Código dos Contratos Públicos",31-12-2013,"574.262,74 €",,,,Não aplicável.,Não aplicável.,
"Prestação de serviços combinados de vigilância e segurança humana e de ligação a central de recepção e monitorização de alarmes, na ULSNA, EPE",Ao abrigo de acordo-quadro (art.º 258.º),Aquisição de serviços,"79714000-2, Serviços de vigilância","Unidade Local de Saúde do Norte Alentejano, E.P.E. (508094461)","Prestibel - Empresa de Segurança, SA (501326456)","438.715,00 €",06-02-2013,06-02-2013,304 dias,"Portugal, Portalegre, Portalegre",Artigo 258.º do Código dos Contratos Públicos,"","",,,,Não definido.,Não definido.,
"Fornecimento de gás natural para a ULSNA, EPE (novembro e dezembro de 2012)",Ajuste Direto Regime Geral,Aquisição de serviços,"65210000-8, Distribuição de gás","Unidade Local de Saúde do Norte Alentejano, E.P.E. (508094461)","Galp Gás Natural, SA (503103616)","78.000,00 €",04-02-2013,07-12-2012,61 dias,"Portugal, Portalegre, Portalegre","Artigo 24.º, n.º 1, alínea c) do Código dos Contratos Públicos",31-12-2012,"78.000,00 €",,,,Não aplicável.,Não aplicável.,
"Prestação de Serviços Médicos na Unidade de Convalescença, do Hospital Dr. José Maria Grande de Portalegre",Ajuste Direto Regime Geral,Aquisição de serviços,"85100000-0, Serviços de saúde","Unidade Local de Saúde do Norte Alentejano, E.P.E. (508094461)","Cemego, Lda. (507724852)","51.000,00 €",01-02-2013,01-02-2013,365 dias,"Portugal, Portalegre, Portalegre","Artigo 24.º, n.º 1, alínea e) do Código dos Contratos Públicos",31-12-2013,"51.000,00 €",,,,Não aplicável.,Não aplicável.,
"Prestação de Serviços Médicos na VMER, na ULSNA, EPE (Ano 2013)",Ajuste Direto Regime Geral,Aquisição de serviços,"85100000-0, Serviços de saúde","Unidade Local de Saúde do Norte Alentejano, E.P.E. (508094461)","Cemego, Lda. (507724852)","33.120,00 €",01-02-2013,01-02-2013,365 dias,"Portugal, Portalegre, Portalegre","Artigo 20.º, n.º 1, alínea a) do Código dos Contratos Públicos",31-12-2013,"33.120,00 €",,,,Não aplicável.,Não aplicável.,
"Prestação de Serviços Médicos na Especialidade de Obstetricia e Ginecolgia, na ULSNA, EPE (Janeiro a Março de 2013)",Ajuste Direto Regime Geral,Aquisição de serviços,"85100000-0, Serviços de saúde","Unidade Local de Saúde do Norte Alentejano, E.P.E. (508094461)","Sucesso24Horas, Lda. (507328310)","40.780,80 €",31-01-2013,30-01-2013,90 dias,"Portugal, Portalegre, Portalegre","Artigo 24.º, n.º 1, alínea c) do Código dos Contratos Públicos",31-03-2013,"40.780,80 €",,,,Não aplicável.,Não aplicável.,
