Objeto do Contrato,Tipo de Procedimento,Tipo(s) de Contrato,CPVs,Entidade(s) Adjudicante(s),Entidade(s) Adjudicatária(s),Preço Contratual,Data de Publicação,Data de Celebração do Contrato,Prazo de Execução,Local de Execução,Fundamentação,Data de Fecho do Contrato,Preço Total Efetivo,Causas das Alterações ao Prazo,Causas das Alterações ao Preço,Estado,N.º registo do Acordo Quadro,Descrição do Acordo Quadro,Procedimento Centralizado
software SISCONT,Ajuste Direto Regime Geral,Aquisição de serviços,"50000000-5, Serviços de reparação e manutenção","Centro Hospitalar de Setúbal, E. P. E. (507606787)","SHI-Software Hospitalar Integrado, Lda. (507603907)","5.818,08 €",20-06-2014,03-02-2014,365 dias,"Portugal, Setúbal, Setúbal","Artigo 24.º, n.º 1, alínea e) do Código dos Contratos Públicos",,,,,,Não aplicável.,Não aplicável.,FALSE
EFAVIRENZ 600MG,Ajuste Direto Regime Geral,Aquisição de bens móveis,"33690000-3, Medicamentos vários","Centro Hospitalar de Setúbal, E. P. E. (507606787)",TEVA PHARMA  (507045491),"17.730,00 €",18-06-2014,09-04-2014,365 dias,"Portugal, Setúbal, Setúbal","Artigo 24.º, n.º 1, alínea e) do Código dos Contratos Públicos",,,,,,Não aplicável.,Não aplicável.,FALSE
diversos medicamentos,Ajuste Direto Regime Geral,Aquisição de bens móveis,"33690000-3, Medicamentos vários","Centro Hospitalar de Setúbal, E. P. E. (507606787)",ferring -produtos farmaceuticos (509040411),"20.701,53 €",18-06-2014,17-06-2014,365 dias,"Portugal, Setúbal, Setúbal","Artigo 24.º, n.º 1, alínea e) do Código dos Contratos Públicos",,,,,,Não aplicável.,Não aplicável.,FALSE
LENALIDOMIDA 10MG,Ajuste Direto Regime Geral,Aquisição de bens móveis,"33690000-3, Medicamentos vários","Centro Hospitalar de Setúbal, E. P. E. (507606787)",CELGENE SOCIEDADE UNIPESSOAL (507791690),"56.247,61 €",18-06-2014,11-04-2014,365 dias,"Portugal, Setúbal, Setúbal","Artigo 24.º, n.º 1, alínea e) do Código dos Contratos Públicos",,,,,,Não aplicável.,Não aplicável.,FALSE
TRABECTEDINA,Ajuste Direto Regime Geral,Aquisição de bens móveis,"33690000-3, Medicamentos vários","Centro Hospitalar de Setúbal, E. P. E. (507606787)",MOVIANTO PORTUGAL SA (509040411),"54.216,00 €",17-06-2014,11-04-2014,365 dias,"Portugal, Setúbal, Setúbal","Artigo 24.º, n.º 1, alínea e) do Código dos Contratos Públicos",,,,,,Não aplicável.,Não aplicável.,FALSE
Reagentes de Imunologia - Diversos,Ajuste Direto Regime Geral,Aquisição de bens móveis,"33696000-5, Reagentes e meios de contraste","Centro Hospitalar de Setúbal, E. P. E. (507606787)",Batists Marques (501439110),"35.945,25 €",16-06-2014,05-05-2014,365 dias,"Portugal, Setúbal, Setúbal","Artigo 24.º, n.º 1, alínea e) do Código dos Contratos Públicos",,,,,,Não aplicável.,Não aplicável.,FALSE
"Reagentes de Imunologia - Conjugado IgG, IgM, IgA",Ajuste Direto Regime Geral,Aquisição de bens móveis,"33696000-5, Reagentes e meios de contraste","Centro Hospitalar de Setúbal, E. P. E. (507606787)",Phadia  (506916243),"14.532,28 €",16-06-2014,19-02-2014,365 dias,"Portugal, Setúbal, Setúbal","Artigo 24.º, n.º 1, alínea e) do Código dos Contratos Públicos",,,,,,Não aplicável.,Não aplicável.,FALSE
PRODUTOS DIALISE PERITONEAL EM AMBULATORIO,Ajuste Direto Regime Geral,Aquisição de bens móveis,"33690000-3, Medicamentos vários","Centro Hospitalar de Setúbal, E. P. E. (507606787)",BAXTER MEDICOFARMACEUTICA (503347345),"305.152,80 €",13-06-2014,21-03-2014,365 dias,"Portugal, Setúbal, Setúbal","Artigo 24.º, n.º 1, alínea e) do Código dos Contratos Públicos",,,,,,Não aplicável.,Não aplicável.,FALSE
Reagentes de Imunologia - Imunofixação e Bandas Oligoclonais,Ajuste Direto Regime Geral,Aquisição de bens móveis,"33696000-5, Reagentes e meios de contraste","Centro Hospitalar de Setúbal, E. P. E. (507606787)","Phadia - Sociedade Unipessoal, Lda (506916243)","16.463,85 €",13-06-2014,04-04-2014,365 dias,"Portugal, Setúbal, Setúbal","Artigo 24.º, n.º 1, alínea e) do Código dos Contratos Públicos",,,,,,Não aplicável.,Não aplicável.,FALSE
Reagentes  de Imunologia - Autoimunidade - Tecnologia Imunofluorescência,Ajuste Direto Regime Geral,Aquisição de bens móveis,"33696000-5, Reagentes e meios de contraste","Centro Hospitalar de Setúbal, E. P. E. (507606787)","Phadia - Sociedade Unipessoal, Lda (506916243)","33.621,60 €",13-06-2014,06-03-2014,365 dias,"Portugal, Setúbal, Setúbal","Artigo 24.º, n.º 1, alínea e) do Código dos Contratos Públicos",,,,,,Não aplicável.,Não aplicável.,FALSE
REagentes para Coagulação do Laboratório de Urgência,Ajuste Direto Regime Geral,Aquisição de bens móveis,"33696000-5, Reagentes e meios de contraste","Centro Hospitalar de Setúbal, E. P. E. (507606787)",Izasa Portugal (501086110),"69.435,14 €",13-06-2014,06-03-2014,365 dias,"Portugal, Setúbal, Setúbal","Artigo 24.º, n.º 1, alínea e) do Código dos Contratos Públicos",,,,,,Não aplicável.,Não aplicável.,FALSE
PRODUTOS DIALISE PERITONEAL,Ajuste Direto Regime Geral,Aquisição de bens móveis,"33690000-3, Medicamentos vários","Centro Hospitalar de Setúbal, E. P. E. (507606787)",FRESENIUS MEDICAL CARE  (503070220),"209.114,92 €",13-06-2014,27-03-2014,365 dias,"Portugal, Setúbal, Setúbal","Artigo 24.º, n.º 1, alínea e) do Código dos Contratos Públicos",,,,,,Não aplicável.,Não aplicável.,FALSE
Reagentes de Coagulação,Ajuste Direto Regime Geral,Aquisição de bens móveis,"33696000-5, Reagentes e meios de contraste","Centro Hospitalar de Setúbal, E. P. E. (507606787)",Izasa Portugal (501086110),"21.759,99 €",12-06-2014,06-03-2014,365 dias,"Portugal, Setúbal, Setúbal","Artigo 24.º, n.º 1, alínea e) do Código dos Contratos Públicos",,,,,,Não aplicável.,Não aplicável.,FALSE
Reagentes para Biologia Molecular,Ajuste Direto Regime Geral,Aquisição de bens móveis,"33696000-5, Reagentes e meios de contraste","Centro Hospitalar de Setúbal, E. P. E. (507606787)",Izasa Portugal (501086110),"27.650,00 €",12-06-2014,06-03-2014,365 dias,"Portugal, Setúbal, Setúbal","Artigo 24.º, n.º 1, alínea e) do Código dos Contratos Públicos",,,,,,Não aplicável.,Não aplicável.,FALSE
FINGOLIMOD,Ajuste Direto Regime Geral,Aquisição de bens móveis,"33690000-3, Medicamentos vários","Centro Hospitalar de Setúbal, E. P. E. (507606787)",NOVARTIS FARMA (500063524),"214.295,90 €",11-06-2014,21-04-2014,365 dias,"Portugal, Setúbal, Setúbal","Artigo 24.º, n.º 1, alínea e) do Código dos Contratos Públicos",,,,,,Não aplicável.,Não aplicável.,FALSE
