Objeto do Contrato,Tipo de Procedimento,Tipo(s) de Contrato,CPVs,Entidade(s) Adjudicante(s),Entidade(s) Adjudicatária(s),Preço Contratual,Data de Publicação,Data de Celebração do Contrato,Prazo de Execução,Local de Execução,Fundamentação,Data de Fecho do Contrato,Preço Total Efetivo,Causas das Alterações ao Prazo,Causas das Alterações ao Preço,Estado,N.º registo do Acordo Quadro,Descrição do Acordo Quadro,Procedimento Centralizado
UCCI - Aquisição de televisores LCD,Ajuste Direto Regime Geral,Aquisição de bens móveis,"32323000-3, Monitores de vídeo","Administração Regional de Saúde do Alentejo, IP (503148768)","Electrilar - Henrique J.B. Santana - Comércio de Electrodomésticos, Lda. (502403810)","12.818,00 €",21-02-2011,29-12-2010,0 dias,"Portugal, Évora, Évora","Artigo 20.º, n.º 1, alínea a) do Código dos Contratos Públicos",26-01-2011,"12.818,00 €",,,,Não aplicável.,Não aplicável.,
Aquisição de mobiliário hospitalar (cadeirões e mesas),Ajuste Direto Regime Geral,Aquisição de bens móveis,"33192000-2, Mobiliário para fins médicos","Administração Regional de Saúde do Alentejo, IP (503148768)","Sanocórdia - Mob.Prod.Médico-Hospitalares, Lda. (503809594)","17.494,15 €",21-02-2011,29-12-2010,0 dias,"Portugal, Évora, Évora","Artigo 20.º, n.º 1, alínea a) do Código dos Contratos Públicos",31-12-2010,"17.494,15 €",,,,Não aplicável.,Não aplicável.,
