Objeto do Contrato,Tipo de Procedimento,Tipo(s) de Contrato,CPVs,Entidade(s) Adjudicante(s),Entidade(s) Adjudicatária(s),Preço Contratual,Data de Publicação,Data de Celebração do Contrato,Prazo de Execução,Local de Execução,Fundamentação,Data de Fecho do Contrato,Preço Total Efetivo,Causas das Alterações ao Prazo,Causas das Alterações ao Preço,Estado,N.º registo do Acordo Quadro,Descrição do Acordo Quadro,Procedimento Centralizado
"Contrato de Aquisição de Serviços no âmbito do registo Português da Transplantação para o IPST,IP",Ajuste Direto Regime Geral,Aquisição de serviços,"72000000-5, Serviços de TI: consultoria, desenvolvimento de software, Internet e apoio","Instituto Português do Sangue e da Transplantação, I. P. (502423943)","Whymob-Mobility Solutions, Lda (510856101)","74.880,00 €",29-01-2015,18-09-2014,120 dias,"Portugal, Lisboa, Lisboa","Artigo 20.º, n.º 1, alínea a) do Código dos Contratos Públicos",,,,,,Não aplicável.,Não aplicável.,FALSE
Aquisição de Reagentes para o Lab. Controlo de Qualidade do CST Coimbra,Ajuste Direto Regime Geral,Aquisição de bens móveis,"33696200-7, Reagentes para análises ao sangue","Instituto Português do Sangue e da Transplantação, I. P. (502423943)","Beckman Coulter Portugal Unipessoal, Lda (509035167)","8.784,91 €",26-01-2015,14-01-2015,350 dias,"Portugal, Coimbra, Coimbra","Artigo 20.º, n.º 1, alínea a) do Código dos Contratos Públicos",,,,,,Não aplicável.,Não aplicável.,FALSE
Aquisição de Mentype Chimera para a Área da Transplantação,Ajuste Direto Regime Geral,Aquisição de bens móveis,"33696200-7, Reagentes para análises ao sangue","Instituto Português do Sangue e da Transplantação, I. P. (502423943)",Diagnostica Longwood SL (980475554),"6.400,00 €",22-01-2015,23-12-2014,9 dias,"Portugal, Lisboa, Lisboa","Artigo 20.º, n.º 1, alínea a) do Código dos Contratos Públicos",,,,,,Não aplicável.,Não aplicável.,FALSE
Aquisição de Sistema de DNA Genómico Automatizada de Sangue Total,Ajuste Direto Regime Geral,Aquisição de bens móveis,"33696200-7, Reagentes para análises ao sangue","Instituto Português do Sangue e da Transplantação, I. P. (502423943)",Îzasa Portugal (501086110),"33.000,00 €",22-01-2015,15-12-2014,17 dias,"Portugal, Lisboa, Lisboa","Artigo 20.º, n.º 1, alínea a) do Código dos Contratos Públicos",,,,,,Não aplicável.,Não aplicável.,FALSE
"Aquisição de Reagentes - Pop 7 Polymer para a Área da Transplantação, para o ano 2014",Ajuste Direto Regime Geral,Aquisição de bens móveis,"33696200-7, Reagentes para análises ao sangue","Instituto Português do Sangue e da Transplantação, I. P. (502423943)","Alfagene - Novas Tecnologias das Ciências da Vida, Lda (503387398)","6.652,80 €",22-01-2015,24-11-2014,37 dias,"Portugal, Lisboa, Lisboa","Artigo 20.º, n.º 1, alínea a) do Código dos Contratos Públicos",,,,,,Não aplicável.,Não aplicável.,FALSE
