Objeto do Contrato,Tipo de Procedimento,Tipo(s) de Contrato,CPVs,Entidade(s) Adjudicante(s),Entidade(s) Adjudicatária(s),Preço Contratual,Data de Publicação,Data de Celebração do Contrato,Prazo de Execução,Local de Execução,Fundamentação,Data de Fecho do Contrato,Preço Total Efetivo,Causas das Alterações ao Prazo,Causas das Alterações ao Preço,Estado,N.º registo do Acordo Quadro,Descrição do Acordo Quadro,Procedimento Centralizado
PC972/2015-Aquisição de Camas Eletricas,Ajuste Direto Regime Geral,Aquisição de bens móveis,"33192120-9, Camas de hospital","Unidade Local de Saúde do Nordeste, E. P. E. (509932584)","Medicinalia-Cormedica, Lda. (500684324)","29.000,00 €",13-11-2015,20-10-2015,45 dias,"Portugal, Braganca, Bragança","Artigo 20.º, n.º 1, alínea a) do Código dos Contratos Públicos",31-12-2016,"29.000,00 €",,,,Não aplicável.,Não aplicável.,FALSE
PC1795/2015-Aquisição de Impedanciometro,Ajuste Direto Regime Geral,Aquisição de bens móveis,"33000000-0, Equipamento médico, medicamentos e produtos para cuidados pessoais","Unidade Local de Saúde do Nordeste, E. P. E. (509932584)","GAES, Lda. (503134139)","2.976,92 €",13-11-2015,26-10-2015,30 dias,"Portugal, Braganca, Mirandela","Artigo 20.º, n.º 1, alínea a) do Código dos Contratos Públicos",18-11-2015,"2.976,92 €",,,,Não aplicável.,Não aplicável.,FALSE
PC2260/2015-Obras de Remodelação na Urgência,Ajuste Direto Regime Geral,Empreitadas de obras públicas,"45200000-9, Obras de construção total ou parcial e de engenharia civil","Unidade Local de Saúde do Nordeste, E. P. E. (509932584)","LNEC, Lda. (509979416)","13.761,15 €",13-11-2015,30-10-2015,30 dias,"Portugal, Braganca, Bragança","Artigo 19.º, alínea a) do Código dos Contratos Públicos","","",,,,Não aplicável.,Não aplicável.,FALSE
PC1969/2015-Aquisição de Balança Eletronica,Ajuste Direto Regime Geral,Aquisição de bens móveis,"38311000-8, Balanças electrónicas e acessórios","Unidade Local de Saúde do Nordeste, E. P. E. (509932584)","Bacelar & Irmão, Lda. (500532818)","1.933,38 €",13-11-2015,02-11-2015,48 dias,"Portugal, Braganca, Bragança","Artigo 20.º, n.º 1, alínea a) do Código dos Contratos Públicos",31-12-2015,"1.933,38 €",,,,Não aplicável.,Não aplicável.,FALSE
