Objeto do Contrato,Tipo de Procedimento,Tipo(s) de Contrato,CPVs,Entidade(s) Adjudicante(s),Entidade(s) Adjudicatária(s),Preço Contratual,Data de Publicação,Data de Celebração do Contrato,Prazo de Execução,Local de Execução,Fundamentação,Data de Fecho do Contrato,Preço Total Efetivo,Causas das Alterações ao Prazo,Causas das Alterações ao Preço,Estado,N.º registo do Acordo Quadro,Descrição do Acordo Quadro,Procedimento Centralizado
Contrato Molnlycke,Ao abrigo de acordo-quadro (art.º 259.º),Aquisição de bens móveis,"33000000-0, Equipamento médico, medicamentos e produtos para cuidados pessoais","Centro Hospitalar de Entre o Douro e Vouga, E.P.E. (508878462)",Molnlycke (511101066),"29.925,00 €",21-11-2014,06-11-2014,365 dias,"Portugal, Aveiro, Santa Maria da Feira",Artigo 259.º do Código dos Contratos Públicos,"","",,,,451780,CP 2012/24 - MATERAIL DISPOSABLE DE BLOCO OPERATORIO,FALSE
Contrato Quilaban,Ao abrigo de acordo-quadro (art.º 259.º),Aquisição de bens móveis,"33000000-0, Equipamento médico, medicamentos e produtos para cuidados pessoais","Centro Hospitalar de Entre o Douro e Vouga, E.P.E. (508878462)","Quilaban, S.A. (500399670)","4.544,25 €",21-11-2014,06-11-2014,365 dias,"Portugal, Aveiro, Santa Maria da Feira",Artigo 259.º do Código dos Contratos Públicos,"","",,,,451780,CP 2012/24 - MATERAIL DISPOSABLE DE BLOCO OPERATORIO,FALSE
Contrato Oasipor,Ao abrigo de acordo-quadro (art.º 259.º),Aquisição de bens móveis,"33000000-0, Equipamento médico, medicamentos e produtos para cuidados pessoais","Centro Hospitalar de Entre o Douro e Vouga, E.P.E. (508878462)","Oasipor - Importação e Exportação, S.A. (502260750)","54.109,96 €",21-11-2014,06-11-2014,365 dias,"Portugal, Aveiro, Santa Maria da Feira",Artigo 259.º do Código dos Contratos Públicos,"","",,,,451780,CP 2012/24 - MATERAIL DISPOSABLE DE BLOCO OPERATORIO,FALSE
Contrato Ezequiel Panão Jorge,Ao abrigo de acordo-quadro (art.º 259.º),Aquisição de bens móveis,"33000000-0, Equipamento médico, medicamentos e produtos para cuidados pessoais","Centro Hospitalar de Entre o Douro e Vouga, E.P.E. (508878462)","Ezequiel Panão Jorge, Lda (501412727)","456,00 €",21-11-2014,06-11-2014,365 dias,"Portugal, Aveiro, Santa Maria da Feira",Artigo 259.º do Código dos Contratos Públicos,"","",,,,451780,CP 2012/24 - MATERAIL DISPOSABLE DE BLOCO OPERATORIO,FALSE
Contrato Lineamedica,Ao abrigo de acordo-quadro (art.º 259.º),Aquisição de bens móveis,"33000000-0, Equipamento médico, medicamentos e produtos para cuidados pessoais","Centro Hospitalar de Entre o Douro e Vouga, E.P.E. (508878462)",Lineamedica (505148676),"2.881,58 €",21-11-2014,06-11-2014,365 dias,"Portugal, Aveiro, Santa Maria da Feira",Artigo 259.º do Código dos Contratos Públicos,"","",,,,451780,CP 2012/24 - MATERAIL DISPOSABLE DE BLOCO OPERATORIO,FALSE
Contrato Anastacio Saldanha,Ao abrigo de acordo-quadro (art.º 259.º),Aquisição de bens móveis,"33000000-0, Equipamento médico, medicamentos e produtos para cuidados pessoais","Centro Hospitalar de Entre o Douro e Vouga, E.P.E. (508878462)","Anastacio Saldanha Unipessoal, Lda (505804441)","7.689,40 €",21-11-2014,06-11-2014,365 dias,"Portugal, Aveiro, Santa Maria da Feira",Artigo 259.º do Código dos Contratos Públicos,"","",,,,451780,CP 2012/24 - MATERAIL DISPOSABLE DE BLOCO OPERATORIO,FALSE
Contrato Factor Plus,Ao abrigo de acordo-quadro (art.º 259.º),Aquisição de bens móveis,"33000000-0, Equipamento médico, medicamentos e produtos para cuidados pessoais","Centro Hospitalar de Entre o Douro e Vouga, E.P.E. (508878462)",Factor Plus (502810645),"21.492,50 €",21-11-2014,06-11-2014,365 dias,"Portugal, Aveiro, Santa Maria da Feira",Artigo 259.º do Código dos Contratos Públicos,"","",,,,451780,CP 2012/24 - MATERAIL DISPOSABLE DE BLOCO OPERATORIO,FALSE
Contrato Bastos & Viegas,Ao abrigo de acordo-quadro (art.º 259.º),Aquisição de bens móveis,"33000000-0, Equipamento médico, medicamentos e produtos para cuidados pessoais","Centro Hospitalar de Entre o Douro e Vouga, E.P.E. (508878462)","Bastos & Viegas, S.A. (500042772)","1.064,80 €",21-11-2014,06-11-2014,365 dias,"Portugal, Aveiro, Santa Maria da Feira",Artigo 259.º do Código dos Contratos Públicos,"","",,,,451780,CP 2012/24 - MATERAIL DISPOSABLE DE BLOCO OPERATORIO,FALSE
Aquisição de Equipamento de Gastroenterologia (Colonovideoscópio e Gastrovideoscópio),Ajuste Direto Regime Geral,Aquisição de bens móveis,"33000000-0, Equipamento médico, medicamentos e produtos para cuidados pessoais","Centro Hospitalar de Entre o Douro e Vouga, E.P.E. (508878462)",SIMMÉDICA - Endoscopy & Surgery (980488842),"28.003,37 €",21-11-2014,24-07-2014,30 dias,"Portugal, Aveiro, Santa Maria da Feira","Artigo 20.º, n.º 1, alínea a) do Código dos Contratos Públicos",12-08-2014,"28.003,37 €",,,,Não aplicável.,Não aplicável.,FALSE
Contrato Ezequiel,Ao abrigo de acordo-quadro (art.º 259.º),Aquisição de bens móveis,"33000000-0, Equipamento médico, medicamentos e produtos para cuidados pessoais","Centro Hospitalar de Entre o Douro e Vouga, E.P.E. (508878462)","Ezequiel Panão Joegr, Lda (501412727)","3.009,40 €",19-11-2014,10-09-2014,365 dias,"Portugal, Aveiro, Santa Maria da Feira",Artigo 259.º do Código dos Contratos Públicos,"","",,,,544071,"CONCURSO PÚBLICO PARA A CELEBRAÇÃO DE CONTRATOS PÚBLICOS DE APROVISIONAMENTO PARA A ÁREA DA SAÚDE, COM VISTA AO FORNECIMENTO DE LUVAS PARA USO MÉDICO, ÀS INSTITUIÇÕES E SERVIÇOS DO SERVIÇO NACIONAL DE SAÚDE",FALSE
Contrato Covidien,Ao abrigo de acordo-quadro (art.º 259.º),Aquisição de bens móveis,"33000000-0, Equipamento médico, medicamentos e produtos para cuidados pessoais","Centro Hospitalar de Entre o Douro e Vouga, E.P.E. (508878462)","Covidien Portugal, Lda (503413410)","1.408,00 €",19-11-2014,10-09-2014,365 dias,"Portugal, Aveiro, Santa Maria da Feira",Artigo 259.º do Código dos Contratos Públicos,"","",,,,544071,"CONCURSO PÚBLICO PARA A CELEBRAÇÃO DE CONTRATOS PÚBLICOS DE APROVISIONAMENTO PARA A ÁREA DA SAÚDE, COM VISTA AO FORNECIMENTO DE LUVAS PARA USO MÉDICO, ÀS INSTITUIÇÕES E SERVIÇOS DO SERVIÇO NACIONAL DE SAÚDE",FALSE
Contrato Anastácio,Ao abrigo de acordo-quadro (art.º 259.º),Aquisição de bens móveis,"33000000-0, Equipamento médico, medicamentos e produtos para cuidados pessoais","Centro Hospitalar de Entre o Douro e Vouga, E.P.E. (508878462)","Anastacio Saldanha Unipessoal, Lda (505804441)","5.790,40 €",19-11-2014,10-09-2014,365 dias,"Portugal, Aveiro, Santa Maria da Feira",Artigo 259.º do Código dos Contratos Públicos,"","",,,,544071,"CONCURSO PÚBLICO PARA A CELEBRAÇÃO DE CONTRATOS PÚBLICOS DE APROVISIONAMENTO PARA A ÁREA DA SAÚDE, COM VISTA AO FORNECIMENTO DE LUVAS PARA USO MÉDICO, ÀS INSTITUIÇÕES E SERVIÇOS DO SERVIÇO NACIONAL DE SAÚDE",FALSE
Contrato Medicinália,Ao abrigo de acordo-quadro (art.º 259.º),Aquisição de bens móveis,"33000000-0, Equipamento médico, medicamentos e produtos para cuidados pessoais","Centro Hospitalar de Entre o Douro e Vouga, E.P.E. (508878462)","Medicinália Cormédica, Lda (500684324)","21.973,50 €",19-11-2014,10-09-2014,365 dias,"Portugal, Aveiro, Santa Maria da Feira",Artigo 259.º do Código dos Contratos Públicos,"","",,,,544071,"CONCURSO PÚBLICO PARA A CELEBRAÇÃO DE CONTRATOS PÚBLICOS DE APROVISIONAMENTO PARA A ÁREA DA SAÚDE, COM VISTA AO FORNECIMENTO DE LUVAS PARA USO MÉDICO, ÀS INSTITUIÇÕES E SERVIÇOS DO SERVIÇO NACIONAL DE SAÚDE",FALSE
Contrato HR,Ao abrigo de acordo-quadro (art.º 259.º),Aquisição de bens móveis,"33000000-0, Equipamento médico, medicamentos e produtos para cuidados pessoais","Centro Hospitalar de Entre o Douro e Vouga, E.P.E. (508878462)","H.R.Hospitalar, Lda (501895558)","96.341,61 €",19-11-2014,10-09-2014,365 dias,"Portugal, Aveiro, Santa Maria da Feira",Artigo 259.º do Código dos Contratos Públicos,"","",,,,544071,"CONCURSO PÚBLICO PARA A CELEBRAÇÃO DE CONTRATOS PÚBLICOS DE APROVISIONAMENTO PARA A ÁREA DA SAÚDE, COM VISTA AO FORNECIMENTO DE LUVAS PARA USO MÉDICO, ÀS INSTITUIÇÕES E SERVIÇOS DO SERVIÇO NACIONAL DE SAÚDE",FALSE
