Objeto do Contrato,Tipo de Procedimento,Tipo(s) de Contrato,CPVs,Entidade(s) Adjudicante(s),Entidade(s) Adjudicatária(s),Preço Contratual,Data de Publicação,Data de Celebração do Contrato,Prazo de Execução,Local de Execução,Fundamentação,Data de Fecho do Contrato,Preço Total Efetivo,Causas das Alterações ao Prazo,Causas das Alterações ao Preço,Estado,N.º registo do Acordo Quadro,Descrição do Acordo Quadro,Procedimento Centralizado
Aquisição de Atovaquona+Proguanilo e Salbutamol,Ajuste Direto Regime Geral,Aquisição de bens móveis,"33000000-0, Equipamento médico, medicamentos e produtos para cuidados pessoais","Instituto Nacional de Emergência Médica, I. P. (501356126)","GLAXOSMITHKLINE - Produtos Farmacêuticos, Lda. (500139962)","0,00 €",06-11-2014,05-11-2014,2 dias,"Portugal, Lisboa, Lisboa","Artigo 26.º, n.º 1, alínea e) do Código dos Contratos Públicos",,,,,,1317194,Aquisição de Atovaquona+Proguanilo e Salbutamol,FALSE
Aquisição de agente para diagnóstico in vitro,Ajuste Direto Regime Geral,Aquisição de bens móveis,"33000000-0, Equipamento médico, medicamentos e produtos para cuidados pessoais","Instituto Nacional de Emergência Médica, I. P. (501356126)","Iberlab & Imunoreage - Soluções para Laboratórios, Lda. (503406694)","0,00 €",06-11-2014,31-10-2014,1 dias,"Portugal, Lisboa, Lisboa","Artigo 26.º, n.º 1, alínea c) do Código dos Contratos Públicos",,,,,,1317187,Aquisição de agente para diagnóstico in vitro,FALSE
Aquisição de fentanilo,Ajuste Direto Regime Geral,Aquisição de bens móveis,"33000000-0, Equipamento médico, medicamentos e produtos para cuidados pessoais","Instituto Nacional de Emergência Médica, I. P. (501356126)","LABESFAL - Laboratórios Almiro, S.A. (501169580)","0,00 €",06-11-2014,27-10-2014,1 dias,"Portugal, Lisboa, Lisboa","Artigo 26.º, n.º 1, alínea e) do Código dos Contratos Públicos",,,,,,1317172,Aquisição de fentanilo,FALSE
Aquisição de complexo protrombínico 500 UI,Ajuste Direto Regime Geral,Aquisição de bens móveis,"33000000-0, Equipamento médico, medicamentos e produtos para cuidados pessoais","Instituto Nacional de Emergência Médica, I. P. (501356126)","CSL BEHRING Unipessoal, Lda. (503047201)","0,00 €",06-11-2014,28-10-2014,1 dias,"Portugal, Lisboa, Lisboa","Artigo 26.º, n.º 1, alínea e) do Código dos Contratos Públicos",,,,,,1317159,Aquisição de complexo protrombínico 500 UI,FALSE
