Objeto do Contrato,Tipo de Procedimento,Tipo(s) de Contrato,CPVs,Entidade(s) Adjudicante(s),Entidade(s) Adjudicatária(s),Preço Contratual,Data de Publicação,Data de Celebração do Contrato,Prazo de Execução,Local de Execução,Fundamentação,Data de Fecho do Contrato,Preço Total Efetivo,Causas das Alterações ao Prazo,Causas das Alterações ao Preço,Estado,N.º registo do Acordo Quadro,Descrição do Acordo Quadro,Procedimento Centralizado
Aquisição de reagentes e controlos para o equipamento de Hematologia,Ajuste Direto Regime Geral,Aquisição de bens móveis,"33696000-5, Reagentes e meios de contraste",Hospital Dr. Francisco Zagalo (501510150),"EMILIO DE AZEVEDO CAMPOS, S.A. (500094853)","7.721,00 €",19-01-2015,02-01-2015,365 dias,"Portugal, Aveiro, Ovar","Artigo 20.º, n.º 1, alínea a) do Código dos Contratos Públicos",31-12-2015,"7.613,00 €",,Não utilização do valor previsto,,Não aplicável.,Não aplicável.,FALSE
Aquisição de reagentes para o equipamento de Imunoalergologia Autoimunidade,Ajuste Direto Regime Geral,Aquisição de bens móveis,"33696000-5, Reagentes e meios de contraste",Hospital Dr. Francisco Zagalo - Ovar (501510150),"PHADIA, Lda (506916243)","12.433,55 €",16-01-2015,01-01-2015,365 dias,"Portugal, Aveiro, Ovar","Artigo 20.º, n.º 1, alínea a) do Código dos Contratos Públicos",31-12-2015,"11.787,70 €",,Não utilização do valor previsto,,Não aplicável.,Não aplicável.,FALSE
Aquisição de reagentes para o equipamento de Coagulação,Ajuste Direto Regime Geral,Aquisição de bens móveis,"33696000-5, Reagentes e meios de contraste",Hospital Dr. Francisco Zagalo - Ovar (501510150),IZASA DE PORTUGAL (501086110),"10.392,53 €",16-01-2015,01-01-2015,365 dias,"Portugal, Aveiro, Ovar","Artigo 20.º, n.º 1, alínea a) do Código dos Contratos Públicos",31-12-2015,"10.126,36 €",,Não utilização do valor previsto,,Não aplicável.,Não aplicável.,FALSE
Aquisição de reagentes para o equipamento de Bioquímica Clínica,Ajuste Direto Regime Geral,Aquisição de bens móveis,"33696000-5, Reagentes e meios de contraste",Hospital Dr. Francisco Zagalo - Ovar (501510150),"BECKMAN COULTER PORTUGAL UNIPESSOAL, LDA (509035167)","20.591,16 €",16-01-2015,01-01-2015,365 dias,"Portugal, Aveiro, Ovar","Artigo 20.º, n.º 1, alínea a) do Código dos Contratos Públicos",31-12-2015,"17.071,62 €",,Não utilização do valor previsto,,Não aplicável.,Não aplicável.,FALSE
Aquisição de reagentes para o equipamento de Hemoglobina Glicozilada,Ajuste Direto Regime Geral,Aquisição de bens móveis,"33696000-5, Reagentes e meios de contraste",Hospital Dr. Francisco Zagalo - Ovar (501510150),"A.MENARINI DIAGNOSTICOS, LDA (502610069)","4.810,00 €",15-01-2015,01-01-2015,365 dias,"Portugal, Aveiro, Ovar","Artigo 20.º, n.º 1, alínea a) do Código dos Contratos Públicos",31-12-2015,"4.810,00 €",,"",,Não aplicável.,Não aplicável.,FALSE
