Objeto do Contrato,Tipo de Procedimento,Tipo(s) de Contrato,CPVs,Entidade(s) Adjudicante(s),Entidade(s) Adjudicatária(s),Preço Contratual,Data de Publicação,Data de Celebração do Contrato,Prazo de Execução,Local de Execução,Fundamentação,Data de Fecho do Contrato,Preço Total Efetivo,Causas das Alterações ao Prazo,Causas das Alterações ao Preço,Estado,N.º registo do Acordo Quadro,Descrição do Acordo Quadro,Procedimento Centralizado
Aquisição Toners  75/00000749/2015,Ajuste Direto Regime Geral,Aquisição de bens móveis,"30200000-1, Equipamento e material informático","Centro Hospitalar do Algarve, E. P. E. (510745997)","PRN INFORMATICA, LDA (504100327)","16.335,55 €",10-02-2015,20-01-2015,59 dias,"Portugal, Faro, Lagos<BR/>Portugal, Faro, Portimão<BR/>Portugal, Faro, Faro","Artigo 20.º, n.º 1, alínea a) do Código dos Contratos Públicos","","",,"",,Não aplicável.,Não aplicável.,FALSE
DETERGENTE EDODET PARA MÁQUINA OLYMPUS,Ajuste Direto Regime Geral,Aquisição de bens móveis,"39831200-8, Detergentes","Centro Hospitalar do Algarve, E. P. E. (510745997)","OLYMPUS IBERIA, s.a.u. (980474710)","694,80 €",10-02-2015,22-01-2015,60 dias,"Portugal, Faro, Portimão<BR/>Portugal, Faro, Faro<BR/>Portugal, Faro, Lagos","Artigo 24.º, n.º 1, alínea e) do Código dos Contratos Públicos","","",,"",,Não aplicável.,Não aplicável.,FALSE
DETERGENTE P/MÁQUINA OLYMPUS MOD CETD 28853,Ajuste Direto Regime Geral,Aquisição de bens móveis,"39831200-8, Detergentes","Centro Hospitalar do Algarve, E. P. E. (510745997)","OLYMPUS IBERIA, s.a.u. (980474710)","262,70 €",10-02-2015,22-01-2015,60 dias,"Portugal, Faro, Faro<BR/>Portugal, Faro, Portimão<BR/>Portugal, Faro, Lagos","Artigo 24.º, n.º 1, alínea e) do Código dos Contratos Públicos","","",,"",,Não aplicável.,Não aplicável.,FALSE
DESINFECTANTE P/MAQ. OLYMPUS MOD. DETD 28852,Ajuste Direto Regime Geral,Aquisição de bens móveis,"24455000-8, Desinfectantes","Centro Hospitalar do Algarve, E. P. E. (510745997)","OLYMPUS IBERIA, s.a.u. (980474710)","666,50 €",10-02-2015,22-01-2015,60 dias,"Portugal, Faro, Portimão<BR/>Portugal, Faro, Lagos<BR/>Portugal, Faro, Faro","Artigo 24.º, n.º 1, alínea e) do Código dos Contratos Públicos","","",,"",,Não aplicável.,Não aplicável.,FALSE
DESINFECTANTE ENDODIS PARA MÁQUINA OLYMPUS,Ajuste Direto Regime Geral,Aquisição de bens móveis,"24455000-8, Desinfectantes","Centro Hospitalar do Algarve, E. P. E. (510745997)","OLYMPUS IBERIA, s.a.u. (980474710)","1.452,00 €",10-02-2015,22-01-2015,60 dias,"Portugal, Faro, Portimão<BR/>Portugal, Faro, Faro<BR/>Portugal, Faro, Lagos","Artigo 24.º, n.º 1, alínea e) do Código dos Contratos Públicos","","",,"",,Não aplicável.,Não aplicável.,FALSE
ACTIVADOR ENDOACT PARA MÁQUINA OLYMPUS,Ajuste Direto Regime Geral,Aquisição de bens móveis,"39830000-9, Produtos de limpeza","Centro Hospitalar do Algarve, E. P. E. (510745997)","OLYMPUS IBERIA, s.a.u. (980474710)","1.048,60 €",10-02-2015,22-01-2015,60 dias,"Portugal, Faro, Faro<BR/>Portugal, Faro, Portimão<BR/>Portugal, Faro, Lagos","Artigo 24.º, n.º 1, alínea e) do Código dos Contratos Públicos","","",,"",,Não aplicável.,Não aplicável.,FALSE
NEUTRALIZANTE LIQUIDO NEODISHER Z,Ajuste Direto Regime Geral,Aquisição de bens móveis,"39831200-8, Detergentes","Centro Hospitalar do Algarve, E. P. E. (510745997)",A.MENDES DA SILVA LDA (502064080),"40,95 €",10-02-2015,22-01-2015,60 dias,"Portugal, Faro, Faro<BR/>Portugal, Faro, Portimão<BR/>Portugal, Faro, Lagos","Artigo 24.º, n.º 1, alínea a) do Código dos Contratos Públicos","","",,"",,Não aplicável.,Não aplicável.,FALSE
ESCOVA P/LIMPEZA MUITO INTENSA DE FIBRAS RIGIDAS CURTAS,Ajuste Direto Regime Geral,Aquisição de bens móveis,"39300000-5, Equipamento diverso","Centro Hospitalar do Algarve, E. P. E. (510745997)",A.MENDES DA SILVA LDA (502064080),"400,20 €",10-02-2015,22-01-2015,60 dias,"Portugal, Faro, Portimão<BR/>Portugal, Faro, Faro<BR/>Portugal, Faro, Lagos","Artigo 24.º, n.º 1, alínea a) do Código dos Contratos Públicos","","",,"",,Não aplicável.,Não aplicável.,FALSE
ESCOVA P/LIMPEZA INTENSA DE FIBRAS RIJAS,Ajuste Direto Regime Geral,Aquisição de bens móveis,"39300000-5, Equipamento diverso","Centro Hospitalar do Algarve, E. P. E. (510745997)",A.MENDES DA SILVA LDA (502064080),"564,15 €",10-02-2015,22-01-2015,60 dias,"Portugal, Faro, Faro<BR/>Portugal, Faro, Portimão<BR/>Portugal, Faro, Lagos","Artigo 24.º, n.º 1, alínea a) do Código dos Contratos Públicos","","",,"",,Não aplicável.,Não aplicável.,FALSE
DETERGENTE REMOÇÃO DE OXIDAÇÃO,Ajuste Direto Regime Geral,Aquisição de bens móveis,"39831200-8, Detergentes","Centro Hospitalar do Algarve, E. P. E. (510745997)",A.MENDES DA SILVA LDA (502064080),"48,80 €",10-02-2015,22-01-2015,60 dias,"Portugal, Faro, Faro<BR/>Portugal, Faro, Portimão<BR/>Portugal, Faro, Lagos","Artigo 24.º, n.º 1, alínea a) do Código dos Contratos Públicos","","",,"",,Não aplicável.,Não aplicável.,FALSE
DETERGENTE PÓ P/ LAVAGEM DE INSTRUMENTOS,Ajuste Direto Regime Geral,Aquisição de bens móveis,"39831200-8, Detergentes","Centro Hospitalar do Algarve, E. P. E. (510745997)",A.MENDES DA SILVA LDA (502064080),"55,71 €",10-02-2015,22-01-2015,60 dias,"Portugal, Faro, Lagos<BR/>Portugal, Faro, Faro<BR/>Portugal, Faro, Portimão","Artigo 24.º, n.º 1, alínea a) do Código dos Contratos Públicos","","",,"",,Não aplicável.,Não aplicável.,FALSE
DETERGENTE PARA MÁQUINA DE LAVAGEM,Ajuste Direto Regime Geral,Aquisição de bens móveis,"39831200-8, Detergentes","Centro Hospitalar do Algarve, E. P. E. (510745997)",A.MENDES DA SILVA LDA (502064080),"4.139,50 €",10-02-2015,22-01-2015,60 dias,"Portugal, Faro, Portimão<BR/>Portugal, Faro, Faro<BR/>Portugal, Faro, Lagos","Artigo 24.º, n.º 1, alínea a) do Código dos Contratos Públicos","","",,"",,Não aplicável.,Não aplicável.,FALSE
"DETERGENTE NEUTRALIZADOR PARA MÁQUINA LAVAR, INOX",Ajuste Direto Regime Geral,Aquisição de bens móveis,"39831200-8, Detergentes","Centro Hospitalar do Algarve, E. P. E. (510745997)",A.MENDES DA SILVA LDA (502064080),"1.876,50 €",10-02-2015,22-01-2015,60 dias,"Portugal, Faro, Portimão<BR/>Portugal, Faro, Faro<BR/>Portugal, Faro, Lagos","Artigo 24.º, n.º 1, alínea a) do Código dos Contratos Públicos","","",,"",,Não aplicável.,Não aplicável.,FALSE
"DETERGENTE NEODISHER MA """"PO""""",Ajuste Direto Regime Geral,Aquisição de bens móveis,"39831200-8, Detergentes","Centro Hospitalar do Algarve, E. P. E. (510745997)",A.MENDES DA SILVA LDA (502064080),"48,50 €",10-02-2015,22-01-2015,60 dias,"Portugal, Faro, Lagos<BR/>Portugal, Faro, Portimão<BR/>Portugal, Faro, Faro","Artigo 24.º, n.º 1, alínea a) do Código dos Contratos Públicos","","",,"",,Não aplicável.,Não aplicável.,FALSE
DETERGENTE NEODISHER,Ajuste Direto Regime Geral,Aquisição de bens móveis,"39831200-8, Detergentes","Centro Hospitalar do Algarve, E. P. E. (510745997)",A.MENDES DA SILVA LDA (502064080),"36,10 €",10-02-2015,22-01-2015,60 dias,"Portugal, Faro, Portimão<BR/>Portugal, Faro, Lagos<BR/>Portugal, Faro, Faro","Artigo 24.º, n.º 1, alínea a) do Código dos Contratos Públicos","","",,"",,Não aplicável.,Não aplicável.,FALSE
Desinfectante Septoclean,Ajuste Direto Regime Geral,Aquisição de bens móveis,"24455000-8, Desinfectantes","Centro Hospitalar do Algarve, E. P. E. (510745997)",A.MENDES DA SILVA LDA (502064080),"139,55 €",10-02-2015,22-01-2015,60 dias,"Portugal, Faro, Lagos<BR/>Portugal, Faro, Faro<BR/>Portugal, Faro, Portimão","Artigo 24.º, n.º 1, alínea a) do Código dos Contratos Públicos","","",,"",,Não aplicável.,Não aplicável.,FALSE
Prestação de Serviços de Apoio Domiciliário de Nutrição Entérica - Janeiro 2015,Ajuste Direto Regime Geral,Aquisição de serviços,"85100000-0, Serviços de saúde","Centro Hospitalar do Algarve, E. P. E. (510745997)","FRESENIUS KABI PHARMA PORTUGAL, LDA (504293753)","14.709,50 €",09-02-2015,29-12-2014,31 dias,"Portugal, Faro, Faro<BR/>Portugal, Faro, Lagos<BR/>Portugal, Faro, Portimão","Artigo 24.º, n.º 1, alínea c) do Código dos Contratos Públicos",31-01-2015,"14.709,50 €",,"",,Não aplicável.,Não aplicável.,FALSE
Prestação de Serviços em Regime de Aluguer de Lavagem e Respectivo Tratamento de Roupa - Janeiro 2015,Ajuste Direto Regime Geral,Aquisição de serviços,"98311000-6, Serviços de recolha de roupa por lavandarias","Centro Hospitalar do Algarve, E. P. E. (510745997)",SERVIÇO UTILIZACAO COMUM HOSPITAIS (500900469),"69.492,32 €",09-02-2015,29-12-2014,31 dias,"Portugal, Faro, Faro<BR/>Portugal, Faro, Lagos<BR/>Portugal, Faro, Portimão","Artigo 24.º, n.º 1, alínea c) do Código dos Contratos Públicos",31-01-2015,"69.492,32 €",,"",,Não aplicável.,Não aplicável.,FALSE
"Prestação de Serviços de Alimentação para Utentes e Profissionais do Centro Hospitalar do Algarve, EPE - Janeiro 2015",Ajuste Direto Regime Geral,Aquisição de serviços,"55000000-0, Serviços de hotelaria, restauração e comércio a retalho","Centro Hospitalar do Algarve, E. P. E. (510745997)",SERVIÇO UTILIZACAO COMUM HOSPITAIS (500900469),"205.383,24 €",09-02-2015,30-12-2014,31 dias,"Portugal, Faro, Lagos<BR/>Portugal, Faro, Faro<BR/>Portugal, Faro, Portimão","Artigo 24.º, n.º 1, alínea c) do Código dos Contratos Públicos",31-01-2015,"205.383,24 €",,"",,Não aplicável.,Não aplicável.,FALSE
62017915- Ponta de pipeta p/ aparelho de Microbiologia (ATB),Ajuste Direto Regime Geral,Aquisição de bens móveis,"33140000-3, Material médico de consumo","Centro Hospitalar do Algarve, E. P. E. (510745997)","BIOMERIEUX PORTUGAL,LDA. (500166773)","160,00 €",09-02-2015,23-01-2015,342 dias,"Portugal, Faro, Faro<BR/>Portugal, Faro, Portimão<BR/>Portugal, Faro, Lagos","Artigo 24.º, n.º 1, alínea e) do Código dos Contratos Públicos","","",,"",,Não aplicável.,Não aplicável.,FALSE
Prestação Serviços Radioterapia,Ajuste Direto Regime Geral,Aquisição de serviços,"85100000-0, Serviços de saúde","Centro Hospitalar do Algarve, E. P. E. (510745997)","Quadrantes Faro, Unidade de Radioterapia do Algarve, Lda. (505446120)","332.028,00 €",09-02-2015,29-12-2014,59 dias,"Portugal, Faro, Portimão<BR/>Portugal, Faro, Lagos<BR/>Portugal, Faro, Faro","Artigo 24.º, n.º 1, alínea c) do Código dos Contratos Públicos","","",,"",,Não aplicável.,Não aplicável.,FALSE
Prestação de Serviços de Manutenção das Instalações,Ajuste Direto Regime Geral,Aquisição de serviços,"50800000-3, Serviços de reparação e manutenção diversos","Centro Hospitalar do Algarve, E. P. E. (510745997)","ACCIONA FACILITY SERVICES, S.A. (503431397)","68.992,02 €",09-02-2015,29-12-2014,59 dias,"Portugal, Faro, Portimão<BR/>Portugal, Faro, Lagos<BR/>Portugal, Faro, Faro","Artigo 24.º, n.º 1, alínea c) do Código dos Contratos Públicos","","",,"",,Não aplicável.,Não aplicável.,FALSE
Manutenção Equip Medico ( 68/885/15),Ajuste Direto Regime Geral,Aquisição de serviços,"50420000-5, Serviços de reparação e manutenção de equipamento médico e cirúrgico","Centro Hospitalar do Algarve, E. P. E. (510745997)",Fresenius Medical Care  (503070220),"9.687,60 €",09-02-2015,27-01-2015,335 dias,"Portugal, Faro, Faro","Artigo 24.º, n.º 1, alínea e) do Código dos Contratos Públicos","","",,"",,Não aplicável.,Não aplicável.,FALSE
Manutençã Equip medico 68/704/15,Ajuste Direto Regime Geral,Aquisição de serviços,"50420000-5, Serviços de reparação e manutenção de equipamento médico e cirúrgico","Centro Hospitalar do Algarve, E. P. E. (510745997)",Pulmocor  (501402578),"5.491,80 €",09-02-2015,23-01-2015,335 dias,"Portugal, Faro, Faro<BR/>Portugal, Faro, Portimão","Artigo 24.º, n.º 1, alínea e) do Código dos Contratos Públicos",31-05-2015,"9.153,00 €",,"Por necessidade de dar continuidade ao contrato de assistência técnica existente para o 1º trimestre, para mais  2 meses ( abril e maio ) enquanto decorria o CPI nº 630/15 para aquisição dos mencionados serviços .",,Não aplicável.,Não aplicável.,FALSE
Aquisição de Impressos - INCM   75/00000122/2015,Ajuste Direto Regime Geral,Aquisição de bens móveis,"30192000-1, Material de escritório","Centro Hospitalar do Algarve, E. P. E. (510745997)","IMPR.NACIONAL-CASA DA MOEDA,EP (500792887)","8.577,94 €",09-02-2015,23-01-2015,365 dias,"Portugal, Faro, Lagos<BR/>Portugal, Faro, Portimão<BR/>Portugal, Faro, Faro","Artigo 20.º, n.º 1, alínea a) do Código dos Contratos Públicos","","",,"",,Não aplicável.,Não aplicável.,FALSE
Aquisição de Impressos - ARS   55/00000121/2015,Ajuste Direto Regime Geral,Aquisição de bens móveis,"30192000-1, Material de escritório","Centro Hospitalar do Algarve, E. P. E. (510745997)","A.R.S. Algarve, I.P. (503148709)","564,20 €",09-02-2015,22-01-2015,365 dias,"Portugal, Faro, Faro<BR/>Portugal, Faro, Portimão<BR/>Portugal, Faro, Lagos","Artigo 20.º, n.º 1, alínea a) do Código dos Contratos Públicos","","",,"",,Não aplicável.,Não aplicável.,FALSE
Aquisição de Pilhas  -  55/00000780/2015,Ajuste Direto Regime Geral,Aquisição de bens móveis,"31411000-0, Pilhas alcalinas","Centro Hospitalar do Algarve, E. P. E. (510745997)",PAPELARIA E LIVRARIA SAGRES (501212973),"475,62 €",06-02-2015,22-01-2015,5 dias,"Portugal, Faro, Lagos<BR/>Portugal, Faro, Faro<BR/>Portugal, Faro, Portimão","Artigo 20.º, n.º 1, alínea a) do Código dos Contratos Públicos","","",,"",,Não aplicável.,Não aplicável.,FALSE
Aquisição de Águas e Coca-Cola  -  53/00000800/2015,Ajuste Direto Regime Geral,Aquisição de bens móveis,"15800000-6, Produtos alimentares diversos","Centro Hospitalar do Algarve, E. P. E. (510745997)","RECHEIO """"CASH & CARRY"""" (500145415)","325,20 €",06-02-2015,20-01-2015,7 dias,"Portugal, Faro, Faro<BR/>Portugal, Faro, Lagos<BR/>Portugal, Faro, Portimão","Artigo 20.º, n.º 1, alínea a) do Código dos Contratos Públicos","","",,"",,Não aplicável.,Não aplicável.,FALSE
Aquisição Café (Anual)  -  53/00000798/2015,Ajuste Direto Regime Geral,Aquisição de bens móveis,"15861000-1, Café","Centro Hospitalar do Algarve, E. P. E. (510745997)",MANUEL RUI A NABEIRO (500853975),"545,00 €",06-02-2015,20-01-2015,10 dias,"Portugal, Faro, Portimão<BR/>Portugal, Faro, Faro<BR/>Portugal, Faro, Lagos","Artigo 20.º, n.º 1, alínea a) do Código dos Contratos Públicos","","",,"",,Não aplicável.,Não aplicável.,FALSE
Material Administrativo - Serviço Social - III Jornadas Serv.Social  -  58/00000695/2015,Ajuste Direto Regime Geral,Aquisição de bens móveis,"30192000-1, Material de escritório","Centro Hospitalar do Algarve, E. P. E. (510745997)",PAPELARIA E LIVRARIA SAGRES (501212973),"122,38 €",06-02-2015,23-01-2015,7 dias,"Portugal, Faro, Faro<BR/>Portugal, Faro, Lagos<BR/>Portugal, Faro, Portimão","Artigo 20.º, n.º 1, alínea a) do Código dos Contratos Públicos","","",,"",,Não aplicável.,Não aplicável.,FALSE
Aquisição Produtos Alimentares - 73/00000743/2015,Ajuste Direto Regime Geral,Aquisição de bens móveis,"15800000-6, Produtos alimentares diversos","Centro Hospitalar do Algarve, E. P. E. (510745997)","Recheio - Cash & Carry, S.A. (500145415)","9.468,36 €",06-02-2015,15-01-2015,365 dias,"Portugal, Faro, Portimão<BR/>Portugal, Faro, Faro<BR/>Portugal, Faro, Lagos","Artigo 20.º, n.º 1, alínea a) do Código dos Contratos Públicos","","",,"",,Não aplicável.,Não aplicável.,FALSE
"Consumíveis para realização de hemodiálise e técnicas afins, com colocação de equipamento",Concurso público,Aquisição de bens móveis,"33181520-3, Produtos de consumo para hemodiálise renal","Centro Hospitalar do Algarve, E. P. E. (510745997)","Fresenius Medical Care Portugal, S.A. (503070220)","233.588,50 €",06-02-2015,06-02-2015,327 dias,"Portugal, Faro, Portimão<BR/>Portugal, Faro, Lagos<BR/>Portugal, Faro, Faro","Artigo 20.º, n.º 1, alínea b) do Código dos Contratos Públicos","","",,"",,Não aplicável.,Não aplicável.,FALSE
74/748/2015 - Aquisição de material diverso - hoteleiro,Ajuste Direto Regime Geral,Aquisição de bens móveis,"39831200-8, Detergentes","Centro Hospitalar do Algarve, E. P. E. (510745997)",HIGIGUIMA - REPRESENTACOES SOCIEDADE UNIP. LDA (505786516),"150,00 €",06-02-2015,20-01-2015,18 dias,"Portugal, Faro, Portimão<BR/>Portugal, Faro, Lagos<BR/>Portugal, Faro, Faro","Artigo 20.º, n.º 1, alínea a) do Código dos Contratos Públicos","","",,"",,Não aplicável.,Não aplicável.,FALSE
74/748/2015 - Aquisição de material diverso - hoteleiro,Ajuste Direto Regime Geral,Aquisição de bens móveis,"39831200-8, Detergentes","Centro Hospitalar do Algarve, E. P. E. (510745997)","IGNISSOL, LDA (508613248)","720,00 €",06-02-2015,20-01-2015,18 dias,"Portugal, Faro, Lagos<BR/>Portugal, Faro, Portimão<BR/>Portugal, Faro, Faro","Artigo 20.º, n.º 1, alínea a) do Código dos Contratos Públicos","","",,"",,Não aplicável.,Não aplicável.,FALSE
74/748/2015 - Aquisição de material diverso - hoteleiro,Ajuste Direto Regime Geral,Aquisição de bens móveis,"44423000-1, Artigos diversos","Centro Hospitalar do Algarve, E. P. E. (510745997)","Plásticos Industriais e Domésticos, SA (500219672)","29,00 €",06-02-2015,20-01-2015,18 dias,"Portugal, Faro, Portimão<BR/>Portugal, Faro, Lagos<BR/>Portugal, Faro, Faro","Artigo 20.º, n.º 1, alínea a) do Código dos Contratos Públicos","","",,"",,Não aplicável.,Não aplicável.,FALSE
74/748/2015 - Aquisição de material diverso - hoteleiro,Ajuste Direto Regime Geral,Aquisição de bens móveis,"33760000-5, Papel higiénico, lenços, toalhas de mão e guardanapos","Centro Hospitalar do Algarve, E. P. E. (510745997)","PAPELPACK - EQUIPAMENTOS E PRODUTOS DE HIGIÉNE, LDA (504002961)","72,00 €",06-02-2015,20-01-2015,18 dias,"Portugal, Faro, Faro<BR/>Portugal, Faro, Lagos<BR/>Portugal, Faro, Portimão","Artigo 20.º, n.º 1, alínea a) do Código dos Contratos Públicos","","",,"",,Não aplicável.,Não aplicável.,FALSE
74/748/2015 - Aquisição de material diverso - hoteleiro,Ajuste Direto Regime Geral,Aquisição de bens móveis,"44423000-1, Artigos diversos","Centro Hospitalar do Algarve, E. P. E. (510745997)","MEILEX, LDA (501759441)","44,15 €",06-02-2015,20-01-2015,18 dias,"Portugal, Faro, Lagos<BR/>Portugal, Faro, Faro<BR/>Portugal, Faro, Portimão","Artigo 20.º, n.º 1, alínea a) do Código dos Contratos Públicos","","",,"",,Não aplicável.,Não aplicável.,FALSE
74/748/2015 - Aquisição de material diverso - hoteleiro,Ajuste Direto Regime Geral,Aquisição de bens móveis,"39831200-8, Detergentes","Centro Hospitalar do Algarve, E. P. E. (510745997)",MBM-PRODUTOS E EQUIPAMENTOS (178200204),"72,00 €",06-02-2015,20-01-2015,18 dias,"Portugal, Faro, Portimão<BR/>Portugal, Faro, Lagos<BR/>Portugal, Faro, Faro","Artigo 20.º, n.º 1, alínea a) do Código dos Contratos Públicos","","",,"",,Não aplicável.,Não aplicável.,FALSE
74/748/2015 - Aquisição de material diverso - hoteleiro,Ajuste Direto Regime Geral,Aquisição de bens móveis,"24455000-8, Desinfectantes","Centro Hospitalar do Algarve, E. P. E. (510745997)",MM-ENDOCARE (510093124),"839,40 €",06-02-2015,20-01-2015,18 dias,"Portugal, Faro, Faro<BR/>Portugal, Faro, Portimão<BR/>Portugal, Faro, Lagos","Artigo 20.º, n.º 1, alínea a) do Código dos Contratos Públicos","","",,"",,Não aplicável.,Não aplicável.,FALSE
74/748/2015 - Aquisição de material diverso - hoteleiro,Ajuste Direto Regime Geral,Aquisição de bens móveis,"39290000-1, Acessórios diversos","Centro Hospitalar do Algarve, E. P. E. (510745997)","JBSHIGI, Lda. (513110461)","4.476,27 €",06-02-2015,20-01-2015,18 dias,"Portugal, Faro, Portimão<BR/>Portugal, Faro, Faro<BR/>Portugal, Faro, Lagos","Artigo 20.º, n.º 1, alínea a) do Código dos Contratos Públicos","","",,"",,Não aplicável.,Não aplicável.,FALSE
74/748/2015 - Aquisição de material diverso - hoteleiro,Ajuste Direto Regime Geral,Aquisição de bens móveis,"39830000-9, Produtos de limpeza","Centro Hospitalar do Algarve, E. P. E. (510745997)","FRANKLAB PORTUGAL, LDA (506058654)","1.506,40 €",06-02-2015,20-01-2015,18 dias,"Portugal, Faro, Faro<BR/>Portugal, Faro, Portimão<BR/>Portugal, Faro, Lagos","Artigo 20.º, n.º 1, alínea a) do Código dos Contratos Públicos","","",,"",,Não aplicável.,Não aplicável.,FALSE
74/748/2015 - Aquisição de material diverso - hoteleiro,Ajuste Direto Regime Geral,Aquisição de bens móveis,"39290000-1, Acessórios diversos","Centro Hospitalar do Algarve, E. P. E. (510745997)","FALGI-EQUIP.PROD.LIMPEZA, LDA (504629565)","1.404,08 €",06-02-2015,20-01-2015,18 dias,"Portugal, Faro, Faro<BR/>Portugal, Faro, Lagos<BR/>Portugal, Faro, Portimão","Artigo 20.º, n.º 1, alínea a) do Código dos Contratos Públicos","","",,"",,Não aplicável.,Não aplicável.,FALSE
74/748/2015 - Aquisição de material diverso - hoteleiro,Ajuste Direto Regime Geral,Aquisição de bens móveis,"39290000-1, Acessórios diversos","Centro Hospitalar do Algarve, E. P. E. (510745997)","DOMOTEL-MAQ EPROD DE LIMPEZA,L (501772367)","162,30 €",06-02-2015,20-01-2015,18 dias,"Portugal, Faro, Lagos<BR/>Portugal, Faro, Faro<BR/>Portugal, Faro, Portimão","Artigo 20.º, n.º 1, alínea a) do Código dos Contratos Públicos","","",,"",,Não aplicável.,Não aplicável.,FALSE
74/748/2015 - Aquisição de material diverso - hoteleiro,Ajuste Direto Regime Geral,Aquisição de bens móveis,"24455000-8, Desinfectantes","Centro Hospitalar do Algarve, E. P. E. (510745997)",Cleancheck Lda. (507225252),"99,50 €",06-02-2015,20-01-2015,18 dias,"Portugal, Faro, Portimão<BR/>Portugal, Faro, Faro","Artigo 20.º, n.º 1, alínea a) do Código dos Contratos Públicos","","",,"",,Não aplicável.,Não aplicável.,FALSE
74/748/2015 - Aquisição de material diverso - hoteleiro,Ajuste Direto Regime Geral,Aquisição de bens móveis,"39290000-1, Acessórios diversos","Centro Hospitalar do Algarve, E. P. E. (510745997)",AVIQUIMICA IMPORT E MANUFATURA (500039720),"2.719,87 €",06-02-2015,20-01-2015,18 dias,"Portugal, Faro, Lagos<BR/>Portugal, Faro, Faro<BR/>Portugal, Faro, Portimão","Artigo 20.º, n.º 1, alínea a) do Código dos Contratos Públicos","","",,"",,Não aplicável.,Não aplicável.,FALSE
62051315 - Aquisição Filtro Antibacteriano,Ajuste Direto Regime Geral,Aquisição de bens móveis,"33140000-3, Material médico de consumo","Centro Hospitalar do Algarve, E. P. E. (510745997)",NKM NEW KEY MEDICAL (508930138),"795,00 €",04-02-2015,12-01-2015,353 dias,"Portugal, Faro, Faro<BR/>Portugal, Faro, Portimão<BR/>Portugal, Faro, Lagos","Artigo 24.º, n.º 1, alínea e) do Código dos Contratos Públicos","","",,"",,Não aplicável.,Não aplicável.,FALSE
Prestação Serviços Manutenção e Assist. Técnica Equipamentos AVAC,Ajuste Direto Regime Geral,Aquisição de serviços,"50000000-5, Serviços de reparação e manutenção","Centro Hospitalar do Algarve, E. P. E. (510745997)","TECNOSPIE,SA (500205698)","31.486,20 €",04-02-2015,29-12-2014,59 dias,"Portugal, Faro, Faro<BR/>Portugal, Faro, Portimão<BR/>Portugal, Faro, Lagos","Artigo 24.º, n.º 1, alínea c) do Código dos Contratos Públicos","","",,"",,Não aplicável.,Não aplicável.,FALSE
Prestação de Serviços de Segurança e Vigilância nas Instalações do Centro Hospitalar do Algarve,Ajuste Direto Regime Geral,Aquisição de serviços,"79710000-4, Serviços de segurança","Centro Hospitalar do Algarve, E. P. E. (510745997)","Vigiexpert, Prevenção e Vigilância Privada, Lda (506807266)","101.994,00 €",04-02-2015,14-01-2015,59 dias,"Portugal, Faro, Portimão<BR/>Portugal, Faro, Lagos<BR/>Portugal, Faro, Faro","Artigo 24.º, n.º 1, alínea c) do Código dos Contratos Públicos","","",,"",,Não aplicável.,Não aplicável.,FALSE
Prestação de Serviços de Medicina Nuclear,Ajuste Direto Regime Geral,Aquisição de serviços,"85100000-0, Serviços de saúde","Centro Hospitalar do Algarve, E. P. E. (510745997)","Hospital Particular do Algarve, S. A. (502271043)","49.098,50 €",04-02-2015,16-01-2015,59 dias,"Portugal, Faro, Lagos<BR/>Portugal, Faro, Faro<BR/>Portugal, Faro, Portimão","Artigo 24.º, n.º 1, alínea c) do Código dos Contratos Públicos","","",,"",,Não aplicável.,Não aplicável.,FALSE
Prestação de Serviços de Realização de Análises Clínicas,Ajuste Direto Regime Geral,Aquisição de serviços,"85145000-7, Serviços prestados por laboratórios médicos","Centro Hospitalar do Algarve, E. P. E. (510745997)","Dr. Joaquim Chaves - Laboratório de Análises Clínicas, S.A. (500753636)","13.174,13 €",04-02-2015,08-01-2015,59 dias,"Portugal, Faro, Portimão<BR/>Portugal, Faro, Lagos<BR/>Portugal, Faro, Faro","Artigo 24.º, n.º 1, alínea c) do Código dos Contratos Públicos","","",,"",,Não aplicável.,Não aplicável.,FALSE
Prestação de Serviços de Transporte de Doentes em Ambulância,Ajuste Direto Regime Geral,Aquisição de serviços,"85143000-3, Serviços de ambulâncias","Centro Hospitalar do Algarve, E. P. E. (510745997)",Helped emergency (509388906),"126.000,00 €",04-02-2015,30-12-2014,59 dias,"Portugal, Faro, Lagos<BR/>Portugal, Faro, Portimão<BR/>Portugal, Faro, Faro","Artigo 24.º, n.º 1, alínea c) do Código dos Contratos Públicos","","",,"",,Não aplicável.,Não aplicável.,FALSE
Prestação de Serviços de Recolha e Tratamento de Resíduos,Ajuste Direto Regime Geral,Aquisição de serviços,"90510000-5, Tratamento e eliminação de resíduos","Centro Hospitalar do Algarve, E. P. E. (510745997)",SERVIÇO UTILIZACAO COMUM HOSPITAIS (500900469),"26.252,03 €",04-02-2015,30-12-2014,31 dias,"Portugal, Faro, Faro","Artigo 24.º, n.º 1, alínea c) do Código dos Contratos Públicos",31-01-2015,"26.252,03 €",,"",,Não aplicável.,Não aplicável.,FALSE
Assistência Tecnica aos Equipamentos de Electromedicina para CHALgarve,Ajuste Direto Regime Geral,Aquisição de serviços,"50000000-5, Serviços de reparação e manutenção","Centro Hospitalar do Algarve, E. P. E. (510745997)",SERVIÇO UTILIZACAO COMUM HOSPITAIS (500900469),"7.935,45 €",03-02-2015,20-01-2015,90 dias,"Portugal, Faro, Portimão<BR/>Portugal, Faro, Lagos","Artigo 24.º, n.º 1, alínea c) do Código dos Contratos Públicos","","",,"",,Não aplicável.,Não aplicável.,FALSE
62038315 - Material de Consumo clinico FU,Ajuste Direto Regime Geral,Aquisição de bens móveis,"33140000-3, Material médico de consumo","Centro Hospitalar do Algarve, E. P. E. (510745997)","BAXTER MEDICO-FARMACEUTICA,LDA (503347345)","303,50 €",03-02-2015,31-12-2014,365 dias,"Portugal, Faro, Lagos<BR/>Portugal, Faro, Portimão<BR/>Portugal, Faro, Faro","Artigo 24.º, n.º 1, alínea e) do Código dos Contratos Públicos","","",,"",,Não aplicável.,Não aplicável.,FALSE
62051715 - Aquisição de Agulha Faco,Ajuste Direto Regime Geral,Aquisição de bens móveis,"33140000-3, Material médico de consumo","Centro Hospitalar do Algarve, E. P. E. (510745997)",ALCON PORTUGAL (501251685),"3.264,00 €",02-02-2015,26-01-2015,339 dias,"Portugal, Faro, Faro<BR/>Portugal, Faro, Portimão<BR/>Portugal, Faro, Lagos","Artigo 24.º, n.º 1, alínea e) do Código dos Contratos Públicos","","",,"",,Não aplicável.,Não aplicável.,FALSE
