Objeto do Contrato,Tipo de Procedimento,Tipo(s) de Contrato,CPVs,Entidade(s) Adjudicante(s),Entidade(s) Adjudicatária(s),Preço Contratual,Data de Publicação,Data de Celebração do Contrato,Prazo de Execução,Local de Execução,Fundamentação,Data de Fecho do Contrato,Preço Total Efetivo,Causas das Alterações ao Prazo,Causas das Alterações ao Preço,Estado,N.º registo do Acordo Quadro,Descrição do Acordo Quadro,Procedimento Centralizado
"Fornecimento de<br/>-    160 ampolas de Sugamadex 100 mg/ml - 2 ml<br/>-    100 ampolas de Golimumab 50 mg/0,5 ml<br/>- 52980 comprimidos de Raltegravir 400 mg<br/>-      30 ampolas de Sugamadex 100 mg / ml - 5 ml<br/>-    480 ampolas de Peginterferão alfa 2-b Peguilado 100 mcg<br/>-      20 ampolas de Peginterferão alfa 2-b 50 mcg<br/>-    200 ampolas de Peginterferão alfa 2-b 0,12 mg",Ao abrigo de acordo-quadro (art.º 258.º),Aquisição de bens móveis,"33690000-3, Medicamentos vários",Centro Hospitalar de Setúbal E.P.E. (507606787),"Merck Sharp & Dhome, Lda (500191360)","811.609,90 €",06-02-2013,02-01-2013,365 dias,"Portugal, Setúbal, Setúbal","Artigo 26.º, n.º 1, alínea e) do Código dos Contratos Públicos","","",,"",,Não definido.,Não definido.,
"Fornecimento de<br/>- 39000 ampolas de Enoxaparina Sódica 40 mg/0,4 ml<br/>- 10656 ampolas de Enoxaparina Sódica 60 mg/0,6 ml<br/>-   4500 ampolas de Enoxaparina Sódica 80 mg/0,8 ml<br/>-   1500 comprimidos de Litio 400 mg",Ao abrigo de acordo-quadro (art.º 258.º),Aquisição de bens móveis,"33690000-3, Medicamentos vários",Centro Hospitalar de Setúbal E.P.E. (507606787),"Sanofi-Produtos Farmacêuticos, Lda (500134960)","159.521,22 €",06-02-2013,02-01-2013,365 dias,"Portugal, Setúbal, Setúbal","Artigo 26.º, n.º 1, alínea e) do Código dos Contratos Públicos","","",,"",,Não definido.,Não definido.,
Fornecimento de<br/>- 28000 comprimidos Nifedipina 30 mg LP<br/>- 5200 cápsulas de Nifedipina 5 mg<br/>- 1680 comprimidos de Sorafenib 200 mg<br/>- 2500 Rivaroxabano 10 mg,Ajuste Direto Regime Geral,Aquisição de bens móveis,"33690000-3, Medicamentos vários",Centro Hospitalar de Setúbal E.P.E. (507606787),"Bayer Portugal, S.A. (500043256)","58.262,52 €",06-02-2013,02-01-2013,365 dias,"Portugal, Setúbal, Setúbal","Artigo 24.º, n.º 1, alínea e) do Código dos Contratos Públicos","","",,"",,Não aplicável.,Não aplicável.,
Fornecimento de <br/>- 3 ampolas de Tenecteplase 10000 U.I.<br/>- 3 ampolas de Tenecteplase 8000 U.I.<br/>- 5400 comprimisoa de Tipranavir 250 mg<br/>- 100 ampolas de Alteplase 50 mg<br/>- 700 ampolas de Dipiridamol 10 mg/2ml,Ajuste Direto Regime Geral,Aquisição de bens móveis,"33690000-3, Medicamentos vários",Centro Hospitalar de Setúbal E.P.E. (507606787),"Unilfarma, Lda (500293023)","94.761,95 €",06-02-2013,02-01-2013,365 dias,"Portugal, Setúbal, Setúbal","Artigo 24.º, n.º 1, alínea e) do Código dos Contratos Públicos","","",,"",,Não aplicável.,Não aplicável.,
AD 42003713 -  Custom Pack p/Facoemulsificação p/AP.Infinity - Ano 2013,Ajuste Direto Regime Geral,Aquisição de bens móveis,"33000000-0, Equipamento médico, medicamentos e produtos para cuidados pessoais",Centro Hospitalar de Setúbal E.P.E. (507606787),Alcon Portugal (501251685),"45.900,00 €",04-02-2013,23-01-2013,365 dias,"Portugal, Setúbal, Setúbal","Artigo 24.º, n.º 1, alínea e) do Código dos Contratos Públicos",10-03-2014,"45.900,00 €",,"",,Não aplicável.,Não aplicável.,
AD - 42003613 Material Diverso p/ a central de esterilização p/ o ap.,Ajuste Direto Regime Geral,Aquisição de bens móveis,"33000000-0, Equipamento médico, medicamentos e produtos para cuidados pessoais",Centro Hospitalar de Setúbal E.P.E. (507606787),jhonson & jhonson (500153370),"74.321,20 €",04-02-2013,23-01-2013,365 dias,"Portugal, Setúbal, Setúbal","Artigo 24.º, n.º 1, alínea e) do Código dos Contratos Públicos","","",,"",,Não aplicável.,Não aplicável.,
AD - 42003513 - Custom Pack p/ facoemulsificação  p/ ap. constellatoin,Ajuste Direto Regime Geral,Aquisição de bens móveis,"33000000-0, Equipamento médico, medicamentos e produtos para cuidados pessoais",Centro Hospitalar de Setúbal E.P.E. (507606787),Alcon (501251685),"5.040,00 €",04-02-2013,23-01-2013,365 dias,"Portugal, Setúbal, Setúbal","Artigo 24.º, n.º 1, alínea e) do Código dos Contratos Públicos",24-10-2013,"5.040,00 €",,"",,Não aplicável.,Não aplicável.,
DA - 42003413 Cones p/ Termómetros - Ano 2013,Ajuste Direto Regime Geral,Aquisição de bens móveis,"33000000-0, Equipamento médico, medicamentos e produtos para cuidados pessoais",Centro Hospitalar de Setúbal E.P.E. (507606787),Covidien Portugal (503413410),"27.786,88 €",04-02-2013,23-01-2013,365 dias,"Portugal, Setúbal, Setúbal","Artigo 24.º, n.º 1, alínea e) do Código dos Contratos Públicos",24-01-2014,"27.786,88 €",,"",,Não aplicável.,Não aplicável.,
AD - 42002913 cápsula endoscópicas,Ajuste Direto Regime Geral,Aquisição de bens móveis,"33000000-0, Equipamento médico, medicamentos e produtos para cuidados pessoais",Centro Hospitalar de Setúbal E.P.E. (507606787),endotecnica (503818348),"34.800,00 €",04-02-2013,23-01-2013,365 dias,"Portugal, Setúbal, Setúbal","Artigo 24.º, n.º 1, alínea e) do Código dos Contratos Públicos",19-02-2014,"34.800,00 €",,"",,Não aplicável.,Não aplicável.,
AD 42002713 - Mantas termicas -  Ano 2013,Ajuste Direto Regime Geral,Aquisição de bens móveis,"33000000-0, Equipamento médico, medicamentos e produtos para cuidados pessoais",Centro Hospitalar de Setúbal E.P.E. (507606787),Smiths Medical (507445937),"3.960,00 €",04-02-2013,23-01-2013,365 dias,"Portugal, Setúbal, Setúbal","Artigo 24.º, n.º 1, alínea e) do Código dos Contratos Públicos",16-09-2013,"3.888,01 €",,não foram efectadas mais aquisições,,Não aplicável.,Não aplicável.,
AD - 42002113 - Trouxas e cassetes p/facoemusificação p/ o aparelho - Ano - 2013,Ajuste Direto Regime Geral,Aquisição de bens móveis,"33000000-0, Equipamento médico, medicamentos e produtos para cuidados pessoais",Centro Hospitalar de Setúbal E.P.E. (507606787),Abbott (980262364),"44.820,00 €",04-02-2013,23-01-2013,365 dias,"Portugal, Setúbal, Setúbal","Artigo 24.º, n.º 1, alínea e) do Código dos Contratos Públicos",10-02-2014,"23.454,00 €",,fim do fornecimento,,Não aplicável.,Não aplicável.,
AD 42000913 - cuvetes de hemochron dr - exclusivo - dispromedi,Ajuste Direto Regime Geral,Aquisição de bens móveis,"33000000-0, Equipamento médico, medicamentos e produtos para cuidados pessoais",Centro Hospitalar de Setúbal E.P.E. (507606787),Dispromedi (505684772),"3.780,00 €",04-02-2013,23-01-2013,365 dias,"Portugal, Setúbal, Setúbal","Artigo 24.º, n.º 1, alínea e) do Código dos Contratos Públicos",17-01-2014,"3.420,00 €",,fim do fornecimento,,Não aplicável.,Não aplicável.,
AD 42000813 - Material p/preparação de citostáticos Ano - 2013,Ajuste Direto Regime Geral,Aquisição de bens móveis,"33000000-0, Equipamento médico, medicamentos e produtos para cuidados pessoais",Centro Hospitalar de Setúbal E.P.E. (507606787),"H.R.- Hospitalar (501895558), Codan (504923471)","1.091,50 €",04-02-2013,23-01-2013,365 dias,"Portugal, Setúbal, Setúbal","Artigo 20.º, n.º 1, alínea a) do Código dos Contratos Públicos","","",,"",,Não aplicável.,Não aplicável.,
AD 42009013 - Material Dialise Diverso - Fresenius - Ano 2013,Ajuste Direto Regime Geral,Aquisição de bens móveis,"33000000-0, Equipamento médico, medicamentos e produtos para cuidados pessoais",Centro Hospitalar de Setúbal E.P.E. (507606787),Fresenius Medical Care Portugal (503070220),"111.810,40 €",04-02-2013,04-01-2013,365 dias,"Portugal, Setúbal, Setúbal","Artigo 24.º, n.º 1, alínea e) do Código dos Contratos Públicos",20-02-2014,"111.810,40 €",,"",,Não aplicável.,Não aplicável.,
"AD 42008713 - Multifiltrate Kit 4, 6 e CI-CA - Ano 2013",Ajuste Direto Regime Geral,Aquisição de bens móveis,"33000000-0, Equipamento médico, medicamentos e produtos para cuidados pessoais",Centro Hospitalar de Setúbal E.P.E. (507606787),Fresenius Medical Care Portugal (503070220),"28.164,00 €",04-02-2013,17-01-2013,365 dias,"Portugal, Setúbal, Setúbal","Artigo 24.º, n.º 1, alínea e) do Código dos Contratos Públicos",22-01-2014,"28.164,00 €",,"",,Não aplicável.,Não aplicável.,
AD 42008613 - Twizzle Tip Electrodo - Ano 2013,Ajuste Direto Regime Geral,Aquisição de bens móveis,"33000000-0, Equipamento médico, medicamentos e produtos para cuidados pessoais",Centro Hospitalar de Setúbal E.P.E. (507606787),Johnson & Johnson (500153370),"23.680,00 €",04-02-2013,17-01-2013,365 dias,"Portugal, Setúbal, Setúbal","Artigo 24.º, n.º 1, alínea e) do Código dos Contratos Públicos",09-12-2013,"23.680,00 €",,"",,Não aplicável.,Não aplicável.,
AD 42008013 - Material diverso de oftalmologia - Equipamento Signature - Ano 2013,Ajuste Direto Regime Geral,Aquisição de bens móveis,"33000000-0, Equipamento médico, medicamentos e produtos para cuidados pessoais",Centro Hospitalar de Setúbal E.P.E. (507606787),Abbott Medical Optics (980262364),"3.741,00 €",04-02-2013,17-01-2013,365 dias,"Portugal, Setúbal, Setúbal","Artigo 24.º, n.º 1, alínea e) do Código dos Contratos Públicos","","",,"",,Não aplicável.,Não aplicável.,
AD 42008213 - Conjuntos para Autotransfusão - Ano 2013,Ajuste Direto Regime Geral,Aquisição de bens móveis,"33000000-0, Equipamento médico, medicamentos e produtos para cuidados pessoais",Centro Hospitalar de Setúbal E.P.E. (507606787),DLA Fatmaceutica (503894427),"5.400,00 €",04-02-2013,17-01-2013,365 dias,"Portugal, Setúbal, Setúbal","Artigo 24.º, n.º 1, alínea e) do Código dos Contratos Públicos",04-07-2013,"5.400,00 €",,"",,Não aplicável.,Não aplicável.,
AD 42008313 - Sistemas p/bomba alimentação enterica Kangaroo - Ano 2013,Ajuste Direto Regime Geral,Aquisição de bens móveis,"33000000-0, Equipamento médico, medicamentos e produtos para cuidados pessoais",Centro Hospitalar de Setúbal E.P.E. (507606787),Covidien Portugal (503413410),"10.678,50 €",04-02-2013,17-01-2013,365 dias,"Portugal, Setúbal, Setúbal","Artigo 24.º, n.º 1, alínea e) do Código dos Contratos Públicos",13-01-2014,"10.678,50 €",,"",,Não aplicável.,Não aplicável.,
Material mamografia - equipamento vacora - Ano 2013,Ajuste Direto Regime Geral,Aquisição de bens móveis,"33000000-0, Equipamento médico, medicamentos e produtos para cuidados pessoais",Centro Hospitalar de Setúbal E.P.E. (507606787),C.R. Bard Portugal (502438274),"8.240,00 €",04-02-2013,17-01-2013,365 dias,"Portugal, Setúbal, Setúbal","Artigo 24.º, n.º 1, alínea e) do Código dos Contratos Públicos","","",,"",,Não aplicável.,Não aplicável.,
Material diverso de oftalmologia para o  Equipamento Constellation,Ajuste Direto Regime Geral,Aquisição de bens móveis,"33000000-0, Equipamento médico, medicamentos e produtos para cuidados pessoais",Centro Hospitalar de Setúbal E.P.E. (507606787),Alcon Portugal (501251685),"64.140,00 €",02-02-2013,17-01-2013,365 dias,"Portugal, Setúbal, Setúbal","Artigo 24.º, n.º 1, alínea e) do Código dos Contratos Públicos",28-01-2014,"64.140,00 €",,"",,Não aplicável.,Não aplicável.,
