Objeto do Contrato,Tipo de Procedimento,Tipo(s) de Contrato,CPVs,Entidade(s) Adjudicante(s),Entidade(s) Adjudicatária(s),Preço Contratual,Data de Publicação,Data de Celebração do Contrato,Prazo de Execução,Local de Execução,Fundamentação,Data de Fecho do Contrato,Preço Total Efetivo,Causas das Alterações ao Prazo,Causas das Alterações ao Preço,Estado,N.º registo do Acordo Quadro,Descrição do Acordo Quadro,Procedimento Centralizado
"Aquisição de Água Destilada e Bidestilada para o CRS Lisboa, durante o ano 2011.",Ajuste Direto Regime Geral,Aquisição de bens móveis,"33696200-7, Reagentes para análises ao sangue","Instituto Português do Sangue, I.P. (502423943)","Proclinica, Lda (500222665)","13.792,20 €",09-04-2011,03-03-2011,365 dias,"Portugal, Lisboa, Lisboa","Artigo 20.º, n.º 1, alínea a) do Código dos Contratos Públicos",,,,,,Não aplicável.,Não aplicável.,
"Aquisição de Anticoagulante ACD para Colheita de Aférese para os CRS Lisboa, Coimbra e Porto, durante 2011.",Ajuste Direto Regime Geral,Aquisição de bens móveis,"33696200-7, Reagentes para análises ao sangue","Instituto Português do Sangue, I.P. (502423943)",Fenwal Europe SPRL (980362679),"6.335,00 €",09-04-2011,22-03-2011,365 dias,"Portugal, Lisboa, Lisboa<BR/>Portugal, Porto, Porto<BR/>Portugal, Coimbra, Coimbra","Artigo 20.º, n.º 1, alínea a) do Código dos Contratos Públicos",,,,,,Não aplicável.,Não aplicável.,
"Aquisição de Reagentes para os Laboratórios de Imunohematologia dos CRS Lisboa, Coimbra e Porto, durante o ano 2011",Ajuste Direto Regime Geral,Aquisição de bens móveis,"33696200-7, Reagentes para análises ao sangue","Instituto Português do Sangue, I.P. (502423943)","Linde Sogas, Lda (500266344)","7.920,00 €",09-04-2011,14-02-2011,365 dias,"Portugal, Lisboa, Lisboa","Artigo 26.º, n.º 1, alínea a) do Código dos Contratos Públicos",,,,,,Não aplicável.,Não aplicável.,
"Aquisição de Reagentes para os Laboratórios de Imunohematologia dos CRS Lisboa, Coimbra e Porto, durante o ano 2011",Ajuste Direto Regime Geral,Aquisição de bens móveis,"33696200-7, Reagentes para análises ao sangue","Instituto Português do Sangue, I.P. (502423943)","Johnson & Johnson, Lda (500153370)","7.533,00 €",09-04-2011,09-03-2011,365 dias,"Portugal, Lisboa, Lisboa<BR/>Portugal, Porto, Porto<BR/>Portugal, Coimbra, Coimbra","Artigo 26.º, n.º 1, alínea a) do Código dos Contratos Públicos",,,,,,Não aplicável.,Não aplicável.,
"Aquisição de Reagentes para os Laboratórios de Imunohematologia dos CRS Lisboa, Coimbra e Porto, durante o ano 2011.",Ajuste Direto Regime Geral,Aquisição de bens móveis,"33696200-7, Reagentes para análises ao sangue","Instituto Português do Sangue, I.P. (502423943)","Immucor (Portugal), Lda (503007358)","35.717,97 €",09-04-2011,28-03-2011,365 dias,"Portugal, Lisboa, Lisboa<BR/>Portugal, Coimbra, Coimbra<BR/>Portugal, Porto, Porto","Artigo 26.º, n.º 1, alínea a) do Código dos Contratos Públicos",,,,,,Não aplicável.,Não aplicável.,
"Aquisição de Reagentes para o Laboratório de Imunohematologia do CRS Lisboa, durante o ano 2011.",Ajuste Direto Regime Geral,Aquisição de bens móveis,"33696200-7, Reagentes para análises ao sangue","Instituto Português do Sangue, I.P. (502423943)","Quilaban, Lda (500399670)","1.966,84 €",09-04-2011,09-03-2011,365 dias,"Portugal, Lisboa, Lisboa","Artigo 26.º, n.º 1, alínea a) do Código dos Contratos Públicos",,,,,,Não aplicável.,Não aplicável.,
"Aquisição de Reagentes para os Laboratórios de Imunohematologia dos CRS Lisboa, Coimbra e Porto, durante o ano 2011",Ajuste Direto Regime Geral,Aquisição de bens móveis,"33696200-7, Reagentes para análises ao sangue","Instituto Português do Sangue, I.P. (502423943)","Citomed, Lda (503492043)","8.156,70 €",09-04-2011,09-03-2011,365 dias,"Portugal, Coimbra, Coimbra<BR/>Portugal, Lisboa, Lisboa<BR/>Portugal, Porto, Porto","Artigo 26.º, n.º 1, alínea a) do Código dos Contratos Públicos",,,,,,Não aplicável.,Não aplicável.,
"Aquisição de Reagentes para o Laboratório de Hematologia do CRS Coimbra, durante o ano 2011",Ajuste Direto Regime Geral,Aquisição de bens móveis,"33696200-7, Reagentes para análises ao sangue","Instituto Português do Sangue, I.P. (502423943)","Biomerieux Portugal, Lda (501524177)","15.153,80 €",09-04-2011,25-02-2011,365 dias,"Portugal, Coimbra, Coimbra","Artigo 26.º, n.º 1, alínea a) do Código dos Contratos Públicos",,,,,,Não aplicável.,Não aplicável.,
"Aquisição de Reagentes para o Laboratório de Hematologia do CRS Coimbra, durante o ano 2011.",Ajuste Direto Regime Geral,Aquisição de bens móveis,"33696200-7, Reagentes para análises ao sangue","Instituto Português do Sangue, I.P. (502423943)","Abbott Laboratórios, Lda (500006148)","55.719,94 €",09-04-2011,03-03-2011,365 dias,"Portugal, Coimbra, Coimbra","Artigo 26.º, n.º 1, alínea a) do Código dos Contratos Públicos",,,,,,Não aplicável.,Não aplicável.,
"Aquisição de Reagentes para o Laboratório de Hematologia do CRS Coimbra, durante o ano 2011.",Ajuste Direto Regime Geral,Aquisição de bens móveis,"33696200-7, Reagentes para análises ao sangue","Instituto Português do Sangue, I.P. (502423943)","Horiba ABX, S.A.S. (980158583)","31.532,85 €",09-04-2011,25-02-2011,365 dias,"Portugal, Coimbra, Coimbra","Artigo 26.º, n.º 1, alínea a) do Código dos Contratos Públicos",,,,,,Não aplicável.,Não aplicável.,
"Aquisição de Reagentes para os Laboratórios de Imunologia Leucoplaquetária do CRS Lisboa e Coimbra, durante o ano 2011.",Ajuste Direto Regime Geral,Aquisição de bens móveis,"33696200-7, Reagentes para análises ao sangue","Instituto Português do Sangue, I.P. (502423943)","Citomed, Lda (503492043)","8.912,44 €",09-04-2011,24-03-2011,365 dias,"Portugal, Coimbra, Coimbra<BR/>Portugal, Lisboa, Lisboa","Artigo 26.º, n.º 1, alínea a) do Código dos Contratos Públicos",,,,,,Não aplicável.,Não aplicável.,
Aquisição de Reagentes para Pesquisa de Ácidos Nucleicos Virais HIV/HCV/HBV para o Laboratório de Biologia Molecular do CRS Porto.,Ajuste Direto Regime Geral,Aquisição de bens móveis,"33696200-7, Reagentes para análises ao sangue","Instituto Português do Sangue, I.P. (502423943)","Roche S. Diagnósticos, Lda (504282921)","172.454,40 €",09-04-2011,04-03-2011,60 dias,"Portugal, Porto, Porto","Artigo 26.º, n.º 1, alínea a) do Código dos Contratos Públicos",,,,,,Não aplicável.,Não aplicável.,
Aquisição de Reagentes para Pesquisa de Ácidos Nucleicos Virais HIV/HCV/HBV para o Laboratório de Biologia Molecular do CRS Lisboa.,Ajuste Direto Regime Geral,Aquisição de bens móveis,"33696200-7, Reagentes para análises ao sangue","Instituto Português do Sangue, I.P. (502423943)","Siemens H. Diagnostics, Lda (507925173)","70.000,00 €",09-04-2011,03-03-2011,30 dias,"Portugal, Lisboa, Lisboa","Artigo 26.º, n.º 1, alínea a) do Código dos Contratos Públicos",,,,,,Não aplicável.,Não aplicável.,
"Gestão da frota automóvel do IPS, IP",Ajuste Direto Regime Geral,Aquisição de serviços,"50111100-7, Serviços de gestão de frotas de veículos","Instituto Português do Sangue, I.P. (502423943)",Lease Plan (502167610),"75.000,00 €",09-04-2011,01-02-2011,365 dias,"Portugal, Coimbra, Coimbra<BR/>Portugal, Lisboa, Lisboa<BR/>Portugal, Porto, Porto","Artigo 27.º, n.º 1, alínea f) do Código dos Contratos Públicos",,,,,,Não aplicável.,Não aplicável.,
Aquisição de Reagentes para Pesquisa de Ácidos Nucleicos Virais HIV/HCV/HBV para o Laboratório de Biologia Molecular do CRS Lisboa.,Ajuste Direto Regime Geral,Aquisição de bens móveis,"33696200-7, Reagentes para análises ao sangue","Instituto Português do Sangue, I.P. (502423943)","Roche S. Diagnósticos, Lda (504282921)","301.795,20 €",09-04-2011,29-03-2011,60 dias,"Portugal, Lisboa, Lisboa","Artigo 26.º, n.º 1, alínea a) do Código dos Contratos Públicos",,,,,,Não aplicável.,Não aplicável.,
"Aqusisção de Reagentes para os Laboratórios de Doenças Transmissiveis dos CRS Lisboa e Porto, durante o ano 2011.",Ajuste Direto Regime Geral,Aquisição de bens móveis,"33696200-7, Reagentes para análises ao sangue","Instituto Português do Sangue, I.P. (502423943)","Siemens H. Diagnostics, Lda (507925173)","326.720,00 €",09-04-2011,25-02-2011,365 dias,"Portugal, Porto, Porto<BR/>Portugal, Lisboa, Lisboa","Artigo 26.º, n.º 1, alínea a) do Código dos Contratos Públicos",,,,,,Não aplicável.,Não aplicável.,
"Aqusisção de Reagentes para os Laboratórios de Doenças Transmissiveis dos CRS Lisboa, Coimbra e Porto, durante o ano 2011",Ajuste Direto Regime Geral,Aquisição de bens móveis,"33696200-7, Reagentes para análises ao sangue","Instituto Português do Sangue, I.P. (502423943)","Abbott Laboratórios, Lda (500006148)","143.325,80 €",09-04-2011,02-03-2011,365 dias,"Portugal, Coimbra, Coimbra<BR/>Portugal, Porto, Porto<BR/>Portugal, Lisboa, Lisboa","Artigo 26.º, n.º 1, alínea a) do Código dos Contratos Públicos",,,,,,Não aplicável.,Não aplicável.,
"Aqusisção de Reagentes para os Laboratórios de Doenças Transmissiveis dos CRS Lisboa e Porto, durante o ano 2011.",Ajuste Direto Regime Geral,Aquisição de bens móveis,"33696200-7, Reagentes para análises ao sangue","Instituto Português do Sangue, I.P. (502423943)","Roche S. Diagnósticos, Lda (504282921)","304.193,26 €",09-04-2011,25-02-2011,365 dias,"Portugal, Porto, Porto<BR/>Portugal, Lisboa, Lisboa","Artigo 26.º, n.º 1, alínea a) do Código dos Contratos Públicos",,,,,,Não aplicável.,Não aplicável.,
"Aqusisção de Reagentes para os Laboratórios de Doenças Transmissiveis dos CRS Lisboa, Coimbra e Porto, durante o ano 2011",Ajuste Direto Regime Geral,Aquisição de bens móveis,"33696200-7, Reagentes para análises ao sangue","Instituto Português do Sangue, I.P. (502423943)","Sipaco, Lda (500749299)","25.758,00 €",09-04-2011,14-02-2011,365 dias,"Portugal, Porto, Porto<BR/>Portugal, Lisboa, Lisboa<BR/>Portugal, Coimbra, Coimbra","Artigo 26.º, n.º 1, alínea a) do Código dos Contratos Públicos",,,,,,Não aplicável.,Não aplicável.,
"Aqusisção de Reagentes para os Laboratórios de Doenças Transmissiveis dos CRS Lisboa, Coimbra e Porto, durante o ano 2011",Ajuste Direto Regime Geral,Aquisição de bens móveis,"33696200-7, Reagentes para análises ao sangue","Instituto Português do Sangue, I.P. (502423943)","Quilaban, Lda (500399670)","55.958,80 €",09-04-2011,11-02-2011,365 dias,"Portugal, Porto, Porto<BR/>Portugal, Coimbra, Coimbra<BR/>Portugal, Lisboa, Lisboa","Artigo 26.º, n.º 1, alínea a) do Código dos Contratos Públicos",,,,,,Não aplicável.,Não aplicável.,
"Aqusisção de Reagentes - Rastreio Obrigatório do Sangue para os Laboratórios de Doenças Transmissiveis dos CRS Lisboa, Coimbra e Porto, durante o ano 2011.",Ajuste Direto Regime Geral,Aquisição de bens móveis,"33696200-7, Reagentes para análises ao sangue","Instituto Português do Sangue, I.P. (502423943)","Bio Rad, Lda (501301321)","339.533,76 €",09-04-2011,14-02-2011,365 dias,"Portugal, Lisboa, Lisboa<BR/>Portugal, Porto, Porto<BR/>Portugal, Coimbra, Coimbra","Artigo 26.º, n.º 1, alínea a) do Código dos Contratos Públicos",,,,,,Não aplicável.,Não aplicável.,
"Aqusisção de Reagentes para os Laboratórios de Doenças Transmissiveis dos CRS Lisboa, Coimbra e Porto, durante o ano 2011.",Ajuste Direto Regime Geral,Aquisição de bens móveis,"33696200-7, Reagentes para análises ao sangue","Instituto Português do Sangue, I.P. (502423943)","Bioportugal, Lda (502380543)","69.982,00 €",09-04-2011,07-03-2011,365 dias,"Portugal, Coimbra, Coimbra<BR/>Portugal, Lisboa, Lisboa<BR/>Portugal, Porto, Porto","Artigo 26.º, n.º 1, alínea a) do Código dos Contratos Públicos",,,,,,Não aplicável.,Não aplicável.,
"Aqusisção de Reagentes - Rastreio Obrigatório do Sangue para os Laboratórios de Doenças Transmissiveis dos CRS Lisboa, Coimbra e Porto, durante o ano 2011.",Ajuste Direto Regime Geral,Aquisição de bens móveis,"33696200-7, Reagentes para análises ao sangue","Instituto Português do Sangue, I.P. (502423943)","Roche S. Diagnósticos, Lda (504282921)","31.050,00 €",09-04-2011,11-02-2011,365 dias,"Portugal, Lisboa, Lisboa<BR/>Portugal, Coimbra, Coimbra<BR/>Portugal, Porto, Porto","Artigo 26.º, n.º 1, alínea a) do Código dos Contratos Públicos",,,,,,Não aplicável.,Não aplicável.,
"Aqusisção de Reagentes - Rastreio Obrigatório do Sangue para os Laboratórios de Doenças Transmissiveis dos CRS Lisboa, Coimbra e Porto, durante o ano 2011.",Ajuste Direto Regime Geral,Aquisição de bens móveis,"33696200-7, Reagentes para análises ao sangue","Instituto Português do Sangue, I.P. (502423943)","Bioportugal, Lda (502380543)","240.249,60 €",09-04-2011,23-02-2011,365 dias,"Portugal, Coimbra, Coimbra<BR/>Portugal, Lisboa, Lisboa<BR/>Portugal, Porto, Porto","Artigo 26.º, n.º 1, alínea a) do Código dos Contratos Públicos",,,,,,Não aplicável.,Não aplicável.,
"Aquisição de Reagentes para os diversos Laboratórios dos CRS Lisboa, Coimbra e Porto, durante o ano 2011.",Ajuste Direto Regime Geral,Aquisição de bens móveis,"33696200-7, Reagentes para análises ao sangue","Instituto Português do Sangue, I.P. (502423943)","Biognóstica, Lda (504441256)","106.181,00 €",09-04-2011,14-02-2011,365 dias,"Portugal, Coimbra, Coimbra<BR/>Portugal, Porto, Porto<BR/>Portugal, Lisboa, Lisboa","Artigo 24.º, n.º 1, alínea e) do Código dos Contratos Públicos",,,,,,Não aplicável.,Não aplicável.,
Aquisição de Reagentes para Pesquisa de Ácidos Nucleicos Virais HIV/HCV/HBV para o Laboratório de Biologia Molecular do CRS Coimbra.,Ajuste Direto Regime Geral,Aquisição de bens móveis,"33696200-7, Reagentes para análises ao sangue","Instituto Português do Sangue, I.P. (502423943)","Roche S. Diagnósticos, Lda (504282921)","112.095,36 €",09-04-2011,11-02-2011,30 dias,"Portugal, Coimbra, Coimbra","Artigo 26.º, n.º 1, alínea a) do Código dos Contratos Públicos",,,,,,Não aplicável.,Não aplicável.,
"Aquisição de Reagentes para os Laboratórios de Doenças Transmissiveis dos CRS Lisboa, Coimbra e Porto, durante o ano 2011.",Ajuste Direto Regime Geral,Aquisição de bens móveis,"33696200-7, Reagentes para análises ao sangue","Instituto Português do Sangue, I.P. (502423943)","Johnson & Johnson, Lda (500153370)","53.040,00 €",09-04-2011,11-02-2011,365 dias,"Portugal, Porto, Porto<BR/>Portugal, Lisboa, Lisboa<BR/>Portugal, Coimbra, Coimbra","Artigo 26.º, n.º 1, alínea a) do Código dos Contratos Públicos",,,,,,Não aplicável.,Não aplicável.,
