Objeto do Contrato,Tipo de Procedimento,Tipo(s) de Contrato,CPVs,Entidade(s) Adjudicante(s),Entidade(s) Adjudicatária(s),Preço Contratual,Data de Publicação,Data de Celebração do Contrato,Prazo de Execução,Local de Execução,Fundamentação,Data de Fecho do Contrato,Preço Total Efetivo,Causas das Alterações ao Prazo,Causas das Alterações ao Preço,Estado,N.º registo do Acordo Quadro,Descrição do Acordo Quadro,Procedimento Centralizado
03/03298.62/2017 - Trabalhos Diversos Medicina 1 Piso 2 HOAZ,Ajuste Direto Regime Geral,Empreitadas de obras públicas,"45453100-8, Obras de recuperação","CENTRO HOSPITALAR DE ENTRE O DOURO E VOUGA, E.P.E. (508878462)","J. DA SILVA FARIA, LDA (501600051)","19.512,76 €",11-12-2017,11-12-2017,8 dias,"Portugal, Aveiro, Santa Maria da Feira","Artigo 19.º, alínea a) do Código dos Contratos Públicos","","",,,,Não aplicável.,Não aplicável.,FALSE
Aquisição de Chiller,Ajuste Direto Regime Geral,Aquisição de bens móveis,"42000000-6, Máquinas industriais","Centro Hospitalar de Entre o Douro e Vouga, E.P.E. (508878462)","Alexandre Barbosa Borges, S.A. (500553408)","45.424,35 €",07-12-2017,07-12-2017,45 dias,"Portugal, Aveiro, Santa Maria da Feira","Artigo 20.º, n.º 1, alínea a) do Código dos Contratos Públicos","","",,,,Não aplicável.,Não aplicável.,FALSE
03/00121.42/2016 - Aquisição de 3 (três) Máquinas de Lavar e Desinfetar Aparadeiras e Urinóis para Equipar o SU da Unidade SJM e SMF,Ajuste Direto Regime Geral,Aquisição de bens móveis,"33191000-5, Aparelhos para esterilização, desinfecção e higiene","CENTRO HOSPITALAR DE ENTRE O DOURO E VOUGA, E.P.E. (508878462)",HELDER GONCALVES ASSISTENCIA TECNICA (503855421),"10.350,00 €",06-12-2017,23-05-2017,30 dias,"Portugal, Aveiro, Santa Maria da Feira","Artigo 20.º, n.º 1, alínea a) do Código dos Contratos Públicos","","",,,,Não aplicável.,Não aplicável.,FALSE
Aquisição de 6 Gravadores de monitorização ambulatória de pressão arterial (MAPA),Ajuste Direto Regime Geral,Aquisição de bens móveis,"33100000-1, Equipamento médico","CENTRO HOSPITALAR DE ENTRE O DOURO E VOUGA, E.P.E. (508878462)","Space-Equipamentos Médicos, Lda (507662407)","6.769,62 €",04-12-2017,04-12-2017,30 dias,"Portugal, Aveiro, Santa Maria da Feira","Artigo 20.º, n.º 1, alínea a) do Código dos Contratos Públicos",31-12-2017,"6.769,62 €",,,,Não aplicável.,Não aplicável.,FALSE
Aquisição de Sistema de monitorização eletrocardiográfica ambulatória contínua (HOLTER),Ajuste Direto Regime Geral,Aquisição de bens móveis,"33100000-1, Equipamento médico","CENTRO HOSPITALAR DE ENTRE O DOURO E VOUGA, E.P.E. (508878462)","BTL Portugal Unipessoal, Lda (508192943)","13.500,00 €",04-12-2017,04-12-2017,30 dias,"Portugal, Aveiro, Santa Maria da Feira","Artigo 20.º, n.º 1, alínea a) do Código dos Contratos Públicos","","",,,,Não aplicável.,Não aplicável.,FALSE
03/03256.62/2017 - Aquisição de Prestação de Serviços para Reparação de Colonovideoscópio Pentax® de Alta Definição,Ajuste Direto Regime Geral,Concessão de serviços públicos,"50420000-5, Serviços de reparação e manutenção de equipamento médico e cirúrgico","Centro Hospitalar de Entre o Douro e Vouga, E.P.E. (508878462)","Sistemas Integrales de La Medicina , S.A. (980488842)","8.534,34 €",04-12-2017,04-12-2017,15 dias,"Portugal, Aveiro, Santa Maria da Feira","Artigo 20.º, n.º 1, alínea a) do Código dos Contratos Públicos","","",,,,Não aplicável.,Não aplicável.,FALSE
