Objeto do Contrato,Tipo de Procedimento,Tipo(s) de Contrato,CPVs,Entidade(s) Adjudicante(s),Entidade(s) Adjudicatária(s),Preço Contratual,Data de Publicação,Data de Celebração do Contrato,Prazo de Execução,Local de Execução,Fundamentação,Data de Fecho do Contrato,Preço Total Efetivo,Causas das Alterações ao Prazo,Causas das Alterações ao Preço,Estado,N.º registo do Acordo Quadro,Descrição do Acordo Quadro,Procedimento Centralizado
"Empreitada para Pintura do Serviço Medicina A Piso 3 do CHSJ, EPE",Ajuste Direto Regime Geral,Concessão de obras públicas,"45113000-2, Obras no local","Centro Hospitalar de São João, E. P. E. (509821197)","Praiaco - Sociedade de Construções, Lda. (504970690)","13.109,66 €",30-12-2016,27-09-2016,60 dias,"Portugal, Porto, Porto","Artigo 19.º, alínea a) do Código dos Contratos Públicos",,,,,,Não aplicável.,Não aplicável.,FALSE
"Empreitada para Pavimentação da Rotunda e Acesso às Urgências do CHSJ, EPE",Ajuste Direto Regime Geral,Concessão de obras públicas,"45113000-2, Obras no local","Centro Hospitalar de São João, E. P. E. (509821197)","Construções Ezequiel Pinho Moreira, Lda. (503320455)","17.950,00 €",30-12-2016,19-09-2016,20 dias,"Portugal, Porto, Porto","Artigo 19.º, alínea a) do Código dos Contratos Públicos",,,,,,Não aplicável.,Não aplicável.,FALSE
"Empreitada para Beneficiação dos Pavimentos Piso 3 Medicina do CHSJ, EPE",Ajuste Direto Regime Geral,Concessão de obras públicas,"45113000-2, Obras no local","Centro Hospitalar de São João, E. P. E. (509821197)","Alcatifa das Antas, Lda. (501485970)","14.130,00 €",30-12-2016,15-09-2016,10 dias,"Portugal, Porto, Porto","Artigo 19.º, alínea a) do Código dos Contratos Públicos",,,,,,Não aplicável.,Não aplicável.,FALSE
"Aquisição de 1 Máquina de Desinfetar para o Bloco de Oftalmologia do CHSJ, EPE.",Ajuste Direto Regime Geral,Aquisição de bens móveis,"33191000-5, Aparelhos para esterilização, desinfecção e higiene","Centro Hospitalar São João, EPE (509821197)","Lablad - Tito & Fidalgos, Lda. (502629703)","21.126,50 €",30-12-2016,18-08-2016,30 dias,"Portugal, Porto, Porto","Artigo 20.º, n.º 1, alínea a) do Código dos Contratos Públicos",,,,,,Não aplicável.,Não aplicável.,FALSE
"Contrato de Manutenção e Assistência Técnica Mesas Operatórias """"Trumpf"""" existentes no CHSJ, EPE para o ano 2016",Ajuste Direto Regime Geral,Aquisição de serviços,"50000000-5, Serviços de reparação e manutenção","Centro Hospitalar de São João, E. P. E. (509821197)","Medicnália Cormédica, Lda (500684324)","16.500,00 €",28-12-2016,28-07-2016,365 dias,"Portugal, Porto, Porto","Artigo 24.º, n.º 1, alínea e) do Código dos Contratos Públicos",,,,,,Não aplicável.,Não aplicável.,FALSE
"Contrato de Manutenção e Assistência Técnica ao Software SGCIM, RADIO, SISLAB, SIBAS, ANAPAT e EPER-OR instalado no CHSJ, EPE para o ano 2016",Ajuste Direto Regime Geral,Aquisição de serviços,"50000000-5, Serviços de reparação e manutenção","Centro Hospitalar de São João, E. P. E. (509821197)","Glintt - Healthcare Solutions, S.A. (502479418)","115.957,41 €",28-12-2016,16-08-2016,365 dias,"Portugal, Porto, Porto","Artigo 24.º, n.º 1, alínea e) do Código dos Contratos Públicos",,,,,,Não aplicável.,Não aplicável.,FALSE
"Aquisição de 48 Bombas Volumétricas e 13 Seringas Perfusoras para a UGEM do CHSJ, EPE",Ajuste Direto Regime Geral,Aquisição de bens móveis,"33194110-0, Bombas para perfusão","Centro Hospitalar de São João, E. P. E. (509821197)","B. Braun Medical, Lda. (501506543)","32.180,00 €",23-12-2016,08-08-2016,10 dias,"Portugal, Porto, Porto","Artigo 24.º, n.º 1, alínea e) do Código dos Contratos Públicos",,,,,,Não aplicável.,Não aplicável.,FALSE
"Aquisição de Equipamentos de Switching para o Centro Hospitalar de São João, EPE",Ajuste Direto Regime Geral,Aquisição de bens móveis,"30230000-0, Equipamento informático","Centro Hospitalar de São João, E. P. E. (509821197)",Gonksys SA (510874169),"52.698,86 €",23-12-2016,25-08-2016,15 dias,"Portugal, Porto, Porto","Artigo 20.º, n.º 1, alínea a) do Código dos Contratos Públicos",,,,,,Não aplicável.,Não aplicável.,FALSE
"Aquisição de 1 Laser do tipo """"Holmium"""" para Litíase Urinária para o CHSJ, EPE",Ajuste Direto Regime Geral,Aquisição de bens móveis,"33125000-2, Material para exploração urológica","Centro Hospitalar São João, EPE (509821197)",Artur Magalhães Loureiro de Oliveira (155810073),"27.500,00 €",23-12-2016,26-09-2016,20 dias,"Portugal, Porto, Porto","Artigo 20.º, n.º 1, alínea a) do Código dos Contratos Públicos",,,,,,Não aplicável.,Não aplicável.,FALSE
"Aquisição de 1 Sistema de Radiologia Digital para o Centro de Ambulatório do CHSJ, EPE",Concurso público,Aquisição de bens móveis,"33111000-1, Aparelhos para radiologia","Centro Hospitalar de São João, E. P. E. (509821197)","Med X-Ray - Sistemas Médicos, Lda. (506187071)","149.700,00 €",23-12-2016,15-09-2016,40 dias,"Portugal, Porto, Porto","Artigo 20.º, n.º 1, alínea b) do Código dos Contratos Públicos",,,,,,Não aplicável.,Não aplicável.,FALSE
"Renovação do contrato de licenciamento, do software de antivírus McAfee instalado no parque informático do CHSJ, para o ano 2017",Ajuste Direto Regime Geral,Aquisição de serviços,"50000000-5, Serviços de reparação e manutenção","Centro Hospitalar de São João, E. P. E. (509821197)",Iten Solutions (510728189),"9.966,69 €",23-12-2016,22-12-2016,365 dias,"Portugal, Porto, Porto","Artigo 20.º, n.º 1, alínea a) do Código dos Contratos Públicos",,,,,,Não aplicável.,Não aplicável.,FALSE
