Objeto do Contrato,Tipo de Procedimento,Tipo(s) de Contrato,CPVs,Entidade(s) Adjudicante(s),Entidade(s) Adjudicatária(s),Preço Contratual,Data de Publicação,Data de Celebração do Contrato,Prazo de Execução,Local de Execução,Fundamentação,Data de Fecho do Contrato,Preço Total Efetivo,Causas das Alterações ao Prazo,Causas das Alterações ao Preço,Estado,N.º registo do Acordo Quadro,Descrição do Acordo Quadro,Procedimento Centralizado
Aquisição de Empilhador a gás hidrodinâmico,Ajuste Direto Regime Geral,Aquisição de bens móveis,"42415110-2, Empilhadores",SUCH | Serviço de Utilização Comum dos Hospitais (500900469),"SOMOS AMBIENTE, A.C.E. (508653479)","21.000,00 €",28-12-2017,27-12-2017,0 dias,"Portugal, Lisboa","Artigo 20.º, n.º 1, alínea a) do Código dos Contratos Públicos",,,,,,Não aplicável.,Não aplicável.,FALSE
Prestação de Serviços de Assessoria e Consultoria na área estratégica de desenvolvimento de negócio,Ajuste Direto Regime Geral,Aquisição de serviços,"79000000-4, Serviços a empresas: direito, comercialização, consultoria, recrutamento, impressão e segurança",Serviço de Utilização Comum dos Hospitais (500900469),Fransisco Pedro S. C. Dinis Cabral (200426028),"15.000,00 €",26-12-2017,26-12-2017,182 dias,Portugal,"Artigo 20.º, n.º 1, alínea a) do Código dos Contratos Públicos",,,,,,Não aplicável.,Não aplicável.,FALSE
