Objeto do Contrato,Tipo de Procedimento,Tipo(s) de Contrato,CPVs,Entidade(s) Adjudicante(s),Entidade(s) Adjudicatária(s),Preço Contratual,Data de Publicação,Data de Celebração do Contrato,Prazo de Execução,Local de Execução,Fundamentação,Data de Fecho do Contrato,Preço Total Efetivo,Causas das Alterações ao Prazo,Causas das Alterações ao Preço,Estado,N.º registo do Acordo Quadro,Descrição do Acordo Quadro,Procedimento Centralizado
Contrato de Manutenção aos Equipamentos da Konica Minolta,Ajuste Direto Regime Geral,Aquisição de serviços,"50800000-3, Serviços de reparação e manutenção diversos","Centro Hospitalar do Alto Ave, E. P. E. (508080827)","Konica Minolta Business Solutions Portugal, Unipessoal, LDA. (502120070)","8.400,00 €",10-07-2015,25-03-2015,365 dias,"Portugal, Braga, Guimarães","Artigo 20.º, n.º 1, alínea a) do Código dos Contratos Públicos",31-12-2015,"8.788,08 €","","Foi pago ao abrigo do referido procedimento o valor de € 388,08 referente ao excedente de cópias a cores conforme estava previsto no contrato",,Não aplicável.,Não aplicável.,FALSE
Fornecimento de Equipamento Médico para o Serviço de Pneumologia,Ajuste Direto Regime Geral,Aquisição de bens móveis,"33100000-1, Equipamento médico","Centro Hospitalar do Alto Ave, E. P. E. (508080827)","OLYMPUS IBERIA, S.A.U. Sucursal em Portugal (980474710)","75.314,20 €",10-07-2015,03-07-2015,60 dias,"Portugal, Braga, Guimarães","Artigo 24.º, n.º 1, alínea b) do Código dos Contratos Públicos",11-09-2015,"75.314,20 €","","",,Não aplicável.,Não aplicável.,FALSE
Papel para Fotocópia e Impressão,Ao abrigo de acordo-quadro (art.º 259.º),Aquisição de bens móveis,"30197643-5, Papel para fotocópia","SPMS - Serviços Partilhados do Ministério da Saúde, E. P. E. (509540716), Hospital de José Luciano de Castro (501613021), Centro Hospitalar de Setúbal, E. P. E. (507606787), Centro Hospitalar do Oeste (510412009), Centro Hospitalar de São João, E. P. E. (509821197), Centro Hospitalar Médio Ave, E.P.E.. (508093937), Hospital Santa Maria Maior, E. P. E. (506361381), INFARMED - Autoridade Nacional do Medicamento e Produtos de Saúde, I. P. (600037002), SICAD  - Serviço de Intervenção nos Comportamentos Aditivos e nas Dependências (600084884), Hospital Distrital de Santarém, E. P. E. (506361462), Centro Hospitalar Vila Nova de Gaia - Espinho, E. P. E. (508142156), Hospital Distrital da Figueira da Foz, EPE (506361527), Hospital Arcebispo João Crisóstomo (501626123), Hospital do Espírito Santo de Évora, E. P. E. (508085888), Direção-Geral da Saúde (600037100), Administração Regional de Saúde de Lisboa e Vale do Tejo, I. P. (503148776), Instituto Português do Sangue e da Transplantação, I. P. (502423943), Administração Regional de Saúde do Alentejo, I. P. (503148768), Unidade Local de Saúde de Matosinhos, EPE (506361390), Centro Hospitalar de Leiria, E. P. E. (509822932), Centro Hospitalar do Baixo Vouga, E. P. E (CHBV, E. P. E.) (510123210), Unidade Local de Saúde de Castelo Branco, E. P. E. (509309844), Centro Hospitalar Póvoa de Varzim - Vila do Conde, E. P. E. (508741823), Centro Hospitalar de Lisboa Central, E. P. E. (508080142), Administração Regional de Saúde do Centro, I. P. (503122165), Unidade Local de Saúde do Norte Alentejano, E. P. E. (508094461), Secretaria-Geral do Ministério da Saúde - SNCP (600080684), Unidade Local de Saúde do Nordeste, E. P. E (509932584), Unidade Local de Saúde do Litoral Alentejano, E. P. E. (510445152), Hospital Dr. Francisco Zagalo (501510150), Centro Hospitalar e Universitário de Coimbra, E. P. E. (510103448), Centro Hospitalar Cova da Beira, EPE (506361659), Instituto de Oftalmologia Dr. Gama Pinto (600000052), Unidade Local de Saude do Baixo Alentejo, EPE (508754275), Centro Hospitalar Psiquiátrico de Lisboa (508338476), Instituto Português de Oncologia de Coimbra - Francisco Gentil E.P.E. (506361438), Unidade Local de Saúde da Guarda, E. P. E. (508752000), Hospital Prof. Doutor Fernando Fonseca E.P.E. (503035416), Centro de medicina e Reabilitação da Região Centro Rovisco Pais (503767336), CHBM - Centro Hospital Barreiro Montijo, EPE (509186998), Instituto Português de Oncologia de Lisboa Francisco Gentil, E. P. E. (506361616), Administração Regional de Saúde do Norte, I. P. (503135593), Centro Hospitalar de Trás os Montes e Alto Douro, EPE (508100496), Administração Regional de Saúde do Algarve, I. P. (503148709), Inspeção-Geral das Atividades em Saúde (600018857), Hospital Garcia de Orta, EPE (506361470), SUCH - Serviço de Utilização Comum dos Hospitais (500900469), Unidade Local de Saúde do Alto Minho, E. P. E. (508786193), Centro Hospitalar do Tâmega e Sousa, E. P. E. (508318262), Centro Hospitalar do Algarve, E. P. E. (510745997), Hospital de Magalhães Lemos, E. P. E. (502828790), Instituto Nacional de Emergência Médica, I. P. (501356126), Centro Hospitalar do Alto Ave, EPE (508080827), Centro Hospitalar de Lisboa Ocidental, E. P. E. (507618319), Instituto Português de Oncologia do Porto Francisco Gentil, E. P. E. (506362299), Administração Central do Sistema de Saúde, I. P. (508188423), CENTRO HOSPITALAR LISBOA NORTE, EPE (508481287), Centro Hospitalar de Entre o Douro e Vouga, E.P.E. (508878462), Centro Hospitalar Tondela-Viseu, E. P. E. (509822940), Centro Hospitalar do Médio Tejo, E.P.E. (CHMT) (506361608), Centro Hospitalar do Porto, E.P.E. (CHP) (508331471)","STAPLES PORTUGAL - EQUIP. ESCRITORIO, SA (503789372)","95.332,74 €",08-07-2015,30-01-2015,300 dias,"Portugal, Coimbra, Coimbra",Artigo 259.º do Código dos Contratos Públicos,31-12-2015,"80.000,00 €",NÃO APLICÁVEL,NÃO APLICÁVEL,,162548,"Concurso limitado por prévia qualificação para a celebração de Acordo Quadro para fornecimento de papel, economato e consumíveis de impressão.",TRUE
