Objeto do Contrato,Tipo de Procedimento,Tipo(s) de Contrato,CPVs,Entidade(s) Adjudicante(s),Entidade(s) Adjudicatária(s),Preço Contratual,Data de Publicação,Data de Celebração do Contrato,Prazo de Execução,Local de Execução,Fundamentação,Data de Fecho do Contrato,Preço Total Efetivo,Causas das Alterações ao Prazo,Causas das Alterações ao Preço,Estado,N.º registo do Acordo Quadro,Descrição do Acordo Quadro,Procedimento Centralizado
1R/02329/17- MEIOS P/ REALIZ. DE ANAL. SERV. SANGUE  E MEDICINA TRANSFUSIONAL EQUIP. AUTOM.(AQ_3R/02743/16) (1),Ajuste Direto Regime Geral,Aquisição de bens móveis,"33696100-6, Reagentes para determinação do grupo sanguíneo","Centro Hospitalar Tondela-Viseu, E. P. E. (509822940)","BIO-RAD LABORATORIES, LDA (501301321)","38.433,30 €",29-09-2017,24-08-2017,1 dias,"Portugal, Viseu, Viseu","Artigo 26.º, n.º 1, alínea e) do Código dos Contratos Públicos",,,,,,Não aplicável.,Não aplicável.,FALSE
AQUISIÇÃO DE TENOFOVIR 245MG COMP (GENERICO),Ajuste Direto Regime Geral,Aquisição de bens móveis,"33600000-6, Produtos farmacêuticos","Centro Hospitalar Tondela-Viseu, E. P. E. (509822940)",TEVA PHARMA-PROD.FARMACEUTICOS (507045491),"37.530,00 €",22-09-2017,02-08-2017,1 dias,"Portugal, Viseu, Viseu","Artigo 20.º, n.º 1, alínea a) do Código dos Contratos Públicos",,,,,,Não aplicável.,Não aplicável.,FALSE
1R/02536/17- Meios p/ realização de Análises Clínicas de Citometria de Fluxo	,Ajuste Direto Regime Geral,Aquisição de bens móveis,"33696500-0, Reagentes de laboratório","Centro Hospitalar Tondela-Viseu, E. P. E. (509822940)","BECKMAN COULTER PORTUGAL UNIP., LDA (509035167)","8.250,00 €",22-09-2017,14-09-2017,1 dias,"Portugal, Viseu, Viseu","Artigo 24.º, n.º 1, alínea e) do Código dos Contratos Públicos",,,,,,Não aplicável.,Não aplicável.,FALSE
