Objeto do Contrato,Tipo de Procedimento,Tipo(s) de Contrato,CPVs,Entidade(s) Adjudicante(s),Entidade(s) Adjudicatária(s),Preço Contratual,Data de Publicação,Data de Celebração do Contrato,Prazo de Execução,Local de Execução,Fundamentação,Data de Fecho do Contrato,Preço Total Efetivo,Causas das Alterações ao Prazo,Causas das Alterações ao Preço,Estado,N.º registo do Acordo Quadro,Descrição do Acordo Quadro,Procedimento Centralizado
Sistema de Controlo de Pontualidade e Assiduidade,Ajuste Direto Regime Geral,Aquisição de bens móveis,"48200000-0, Pacote de software para ligações em rede, Internet e intranet","Unidade Local de Saúde do Alto Minho, E. P. E. (508786193)","Recursos, Ideias e Soluções Informáticas, Lda. (503754803)","14.480,00 €",07-04-2017,28-03-2017,365 dias,"Portugal, Viana do Castelo","Artigo 20.º, n.º 1, alínea a) do Código dos Contratos Públicos",,,,,,Não aplicável.,Não aplicável.,FALSE
MCC - Algálias,Ajuste Direto Regime Geral,Aquisição de bens móveis,"33141000-0, Material médico não químico descartável e produtos hematológicos","Unidade Local de Saúde do Alto Minho, EPE (ULSAM) (508786193)",Coloplast (503989037),"10.784,30 €",06-04-2017,16-03-2017,365 dias,"Portugal, Viana do Castelo","Artigo 20.º, n.º 1, alínea a) do Código dos Contratos Públicos",,,,,,Não aplicável.,Não aplicável.,FALSE
MCC - Algodão hidrófilo em maço de 100 gr,Ajuste Direto Regime Geral,Aquisição de bens móveis,"33140000-3, Material médico de consumo","Unidade Local de Saúde do Alto Minho, EPE (ULSAM) (508786193)","DOCWORLD, LDA (508592909)","1.230,00 €",03-04-2017,31-03-2017,365 dias,"Portugal, Viana do Castelo","Artigo 20.º, n.º 1, alínea a) do Código dos Contratos Públicos",,,,,,Não aplicável.,Não aplicável.,FALSE
Manutenção Preventiva e Assistência Técnica aos Fotocopiadores da ULSAM,Ajuste Direto Regime Geral,Aquisição de serviços,"50313200-4, Serviços de manutenção de fotocopiadoras","Unidade Local de Saúde do Alto Minho, EPE (ULSAM) (508786193)","Reprofax - Equipamentos de Escritório, Lda. (503475807)","12.920,00 €",31-03-2017,23-03-2017,365 dias,"Portugal, Viana do Castelo","Artigo 20.º, n.º 1, alínea a) do Código dos Contratos Públicos",,,,,,Não aplicável.,Não aplicável.,FALSE
Atualização do Datacenter de Ponte de Lima,Concurso público,Aquisição de bens móveis,"30200000-1, Equipamento e material informático","Unidade Local de Saúde do Alto Minho, EPE (ULSAM) (508786193)","ATM - Sistemas de Informação e Serviços, S.A. (509784267)","88.812,75 €",31-03-2017,27-01-2017,30 dias,"Portugal, Viana do Castelo, Ponte de Lima","Artigo 20.º, n.º 1, alínea b) do Código dos Contratos Públicos",,,,,,Não aplicável.,Não aplicável.,FALSE
