Objeto do Contrato,Tipo de Procedimento,Tipo(s) de Contrato,CPVs,Entidade(s) Adjudicante(s),Entidade(s) Adjudicatária(s),Preço Contratual,Data de Publicação,Data de Celebração do Contrato,Prazo de Execução,Local de Execução,Fundamentação,Data de Fecho do Contrato,Preço Total Efetivo,Causas das Alterações ao Prazo,Causas das Alterações ao Preço,Estado,N.º registo do Acordo Quadro,Descrição do Acordo Quadro,Procedimento Centralizado
41/438/2018 - Medicamentos do Aparelho Locomotor,Ao abrigo de acordo-quadro (art.º 259.º),Aquisição de bens móveis,"33600000-6, Produtos farmacêuticos","Centro Hospitalar Universitário do Algarve, E. P. E. (510745997)","GENERIS (508107997), BIAL PORTELA & CA SA (500220913), Laboratórios Medinfar, S.A. (500384045)","4.920,84 €",28-12-2018,29-01-2018,316 dias,"Portugal, Faro, Faro",Artigo 259.º do Código dos Contratos Públicos,,,,,,1410779,CP 2015/47 - Acordo quadro para fornecimento de medicamentos do aparelho locomotor às instituições e serviços do serviço nacional de saúde,FALSE
41/441/2018 - Medicamento Aciclovir e Ribaverina,Ao abrigo de acordo-quadro (art.º 259.º),Aquisição de bens móveis,"33600000-6, Produtos farmacêuticos","Centro Hospitalar Universitário do Algarve, E. P. E. (510745997)","SIDEFARMA-SOC IND EXP FARM SA (500717419), glaxo (500139962), AUROBINDO (508527465)","6.638,90 €",28-12-2018,24-01-2018,325 dias,"Portugal, Faro, Faro",Artigo 259.º do Código dos Contratos Públicos,,,,,,1422736,CP 2015/41 - ACORDO QUADRO PARA FORNECIMENTO DE MEDICAMENTOS ANTI-INFECIOSOS: ANTIVÍRICOS E ANTIFÚNGICOS ÀS INSTITUIÇÕES E SERVIÇOS DO SERVIÇO NACIONAL DE SAÚDE,FALSE
31/1900/2018-Oxitocina 5,Ao abrigo de acordo-quadro (art.º 258.º),Aquisição de bens móveis,"33600000-6, Produtos farmacêuticos","Centro Hospitalar Universitário do Algarve, E. P. E. (510745997)",generis (508107997),"1.700,00 €",28-12-2018,30-04-2018,150 dias,"Portugal, Faro, Faro","Artigo 26.º, n.º 1, alínea e) do Código dos Contratos Públicos",,,,,,1415640,CP 2015/7 - ACORDO QUADRO PARA FORNECIMENTO DE HORMONAS E OUTROS MEDICAMENTOS USADOS NO TRATAMENTO DAS DOENÇAS ENDÓCRINAS ÀS INSTITUIÇÕES E SERVIÇOS DO SERVIÇO NACIONAL DE SAÚDE,FALSE
31/1913/2018-Acido acetilsalicilico 1000 mg,Ao abrigo de acordo-quadro (art.º 258.º),Aquisição de bens móveis,"33600000-6, Produtos farmacêuticos","Centro Hospitalar Universitário do Algarve, E. P. E. (510745997)",sanofi (500134960),"105,00 €",28-12-2018,04-05-2018,120 dias,"Portugal, Faro, Faro","Artigo 26.º, n.º 1, alínea e) do Código dos Contratos Públicos",,,,,,1974985,"Medicamentos Analgésicos, Antipiréticos e Antidepressivos",FALSE
31/1914/2018-Atovaquona 150 mg,Ao abrigo de acordo-quadro (art.º 258.º),Aquisição de bens móveis,"33600000-6, Produtos farmacêuticos","Centro Hospitalar Universitário do Algarve, E. P. E. (510745997)",glaxo (500139962),"37.418,40 €",28-12-2018,07-05-2018,120 dias,"Portugal, Faro, Faro","Artigo 26.º, n.º 1, alínea e) do Código dos Contratos Públicos",,,,,,2775691,CP 2017/5 - Acordo Quadro para fornecimento de Medicamentos anti-infeciosos: exceto antivíricos e antifúngicos,FALSE
41/421/2018 - Detergente Enzimático,Ao abrigo de acordo-quadro (art.º 259.º),Aquisição de bens móveis,"33600000-6, Produtos farmacêuticos","Centro Hospitalar Universitário do Algarve, E. P. E. (510745997)","JOHNSON & JOHNSON, LDA (500153370)","1.680,00 €",28-12-2018,19-01-2018,326 dias,"Portugal, Faro, Faro",Artigo 259.º do Código dos Contratos Públicos,,,,,,2147637,CP 2016/89 - Acordo quadro para fornecimento de Material para tratamento do Pé Diabético às Instituições e Serviços do Serviço Nacional de Saúde,FALSE
31/1915/2018-Diazepam 10 mg,Ao abrigo de acordo-quadro (art.º 258.º),Aquisição de bens móveis,"33600000-6, Produtos farmacêuticos","Centro Hospitalar Universitário do Algarve, E. P. E. (510745997)",labesfal (501169580),"4.320,00 €",28-12-2018,02-05-2018,120 dias,"Portugal, Faro, Faro","Artigo 26.º, n.º 1, alínea e) do Código dos Contratos Públicos",,,,,,2528670,"CP 2017/2 - Acordo Quadro para fornecimento de Medicamentos do Sistema Nervoso Cerebrospinal, exceto: anestésicos, relaxantes musculares, analgésicos, antipiréticos, antidepressivos e antipsicóticos  às Instituições e Serviços do Serviço Nacional de Saúde",FALSE
31/1916/2018-Tetrabenazina 25 mg,Ao abrigo de acordo-quadro (art.º 258.º),Aquisição de bens móveis,"33600000-6, Produtos farmacêuticos","Centro Hospitalar Universitário do Algarve, E. P. E. (510745997)",pharmis (502595442),"12.611,87 €",28-12-2018,09-05-2018,120 dias,"Portugal, Faro, Faro","Artigo 26.º, n.º 1, alínea e) do Código dos Contratos Públicos",,,,,,2356543,CP 2016/19 - Medicamentos Antipsicóticos,FALSE
31/1917/2018-Oligoelementos pediátrico,Ao abrigo de acordo-quadro (art.º 258.º),Aquisição de bens móveis,"33600000-6, Produtos farmacêuticos","Centro Hospitalar Universitário do Algarve, E. P. E. (510745997)",fresenius kabi (504293753),"2.381,20 €",28-12-2018,04-05-2018,120 dias,"Portugal, Faro, Faro","Artigo 26.º, n.º 1, alínea e) do Código dos Contratos Públicos",,,,,,1377429,Acordo Quadro para fornecimento de medicamentos para Nutrição Parentérica às Instituições e Serviços do Serviço Nacional de Saúde,FALSE
61/936/2018 Medicamento Trametinib 0.5 mg comp,Ajuste Direto Regime Geral,Aquisição de bens móveis,"33690000-3, Medicamentos vários","Centro Hospitalar Universitário do Algarve, E. P. E. (510745997)",novartis (500063524),"20.911,88 €",28-12-2018,19-02-2018,320 dias,"Portugal, Faro, Faro","Artigo 24.º, n.º 1, alínea e), subalínea iii) do Código dos Contratos Públicos",,,,,,Não aplicável.,Não aplicável.,FALSE
61/923/2018 Medicamento Afatinib 30 mg,Ajuste Direto Regime Geral,Aquisição de bens móveis,"33690000-3, Medicamentos vários","Centro Hospitalar Universitário do Algarve, E. P. E. (510745997)",UNILFARMA  (500293023),"22.610,90 €",28-12-2018,07-02-2018,333 dias,"Portugal, Faro, Faro","Artigo 24.º, n.º 1, alínea e), subalínea iii) do Código dos Contratos Públicos",,,,,,Não aplicável.,Não aplicável.,FALSE
41/433/2018 - Vários Medicamentos do Grupo Cardiovascular,Ao abrigo de acordo-quadro (art.º 259.º),Aquisição de bens móveis,"33600000-6, Produtos farmacêuticos","Centro Hospitalar Universitário do Algarve, E.P.E. (510745997)","DLA Farmacêutica, S.A. (503894427), GENERIS (508107997), Laboratórios Medinfar, S.A. (500384045), Hikma Farmaceutica (Portugal) Lda (502266791), Aurovitas Unipessoal Lda (513053239), AUROBINDO (508527465), Farmoz - Sociedade Técnico Medicinal, SA (501505334), FRESENIUS KABI PHARMA PORTUGAL,LDA (504293753)","25.148,18 €",28-12-2018,22-01-2018,325 dias,"Portugal, Faro, Faro",Artigo 259.º do Código dos Contratos Públicos,,,,,,2335591,CP 2016/01 - Acordo Quadro para fornecimento de Medicamentos do Aparelho Cardiovascular   às Instituições e Serviços do Serviço Nacional de Saúde,FALSE
"61/921/2018 Medicamento Colistimetato de sódio 1662500 U.I. Pó inal, cáps Blist",Ajuste Direto Regime Geral,Aquisição de bens móveis,"33690000-3, Medicamentos vários","Centro Hospitalar Universitário do Algarve, E. P. E. (510745997)","TEVA PHARMA-Prod.Farmacêuticos, Lda (507045491)","6.137,58 €",28-12-2018,02-02-2018,333 dias,"Portugal, Faro, Faro","Artigo 24.º, n.º 1, alínea e), subalínea iii) do Código dos Contratos Públicos",,,,,,Não aplicável.,Não aplicável.,FALSE
61 918 2018 Medicamentos Clorambucilo 2 mg Comp,Ajuste Direto Regime Geral,Aquisição de bens móveis,"33690000-3, Medicamentos vários","Centro Hospitalar Universitário do Algarve, E. P. E. (510745997)",BDR PHARMA (513077332),"860,00 €",28-12-2018,05-02-2018,330 dias,"Portugal, Faro, Faro","Artigo 24.º, n.º 1, alínea e), subalínea iii) do Código dos Contratos Públicos",,,,,,Não aplicável.,Não aplicável.,FALSE
31/1937/2018-Nevirapina 10 mg,Ao abrigo de acordo-quadro (art.º 258.º),Aquisição de bens móveis,"33600000-6, Produtos farmacêuticos","Centro Hospitalar Universitário do Algarve, E. P. E. (510745997)",unilfarma (500293023),"692,58 €",28-12-2018,02-05-2018,120 dias,"Portugal, Faro, Faro","Artigo 26.º, n.º 1, alínea e) do Código dos Contratos Públicos",,,,,,2183729,Medicamentos antirretrovíricos para o tratamento da infeção por VIH,FALSE
Medicamento Vedolizumab 300 mg Pó conc sol inj Fr IV,Ajuste Direto Regime Geral,Aquisição de bens móveis,"33690000-3, Medicamentos vários","Centro Hospitalar Universitário do Algarve, E.P.E. (510745997)","TAKEDA FARMACÊUTICOS PORTUGAL, LDA. (502801204)","81.361,36 €",28-12-2018,08-03-2018,334 dias,"Portugal, Faro, Faro","Artigo 24.º, n.º 1, alínea e), subalínea iii) do Código dos Contratos Públicos",,,,,,Não aplicável.,Não aplicável.,FALSE
31/1943/2018-Darbopoetina alfa 20 e 40,Ao abrigo de acordo-quadro (art.º 258.º),Aquisição de bens móveis,"33600000-6, Produtos farmacêuticos","Centro Hospitalar Universitário do Algarve, E. P. E. (510745997)",amgen (502942959),"14.640,00 €",28-12-2018,09-05-2018,120 dias,"Portugal, Faro, Faro","Artigo 26.º, n.º 1, alínea e) do Código dos Contratos Públicos",,,,,,2749216,CP 2017/11 - Acordo quadro para fornecimento de Medicamentos Estimulantes da eritropoiese às Instituições e Serviços do Serviço Nacional de Saúde,FALSE
Medicamentos Cabazitaxel 60 mg/1.5 ml Conc e solv sol inj Fr 1.5 ml IV,Ajuste Direto Regime Geral,Aquisição de bens móveis,"33690000-3, Medicamentos vários","Centro Hospitalar Universitário do Algarve, E.P.E. (510745997)","SANOFI - PRODUTOS FARMACÊUTICOS, LDA. (500134960)","142.956,00 €",28-12-2018,12-02-2018,334 dias,"Portugal, Faro, Faro","Artigo 24.º, n.º 1, alínea e), subalínea iii) do Código dos Contratos Públicos",,,,,,Não aplicável.,Não aplicável.,FALSE
"Medicamento Zuclopentixol, decanoato 200 mg/1 ml Sol inj Fr 1 ml IM",Ajuste Direto Regime Geral,Aquisição de bens móveis,"33690000-3, Medicamentos vários","Centro Hospitalar Universitário do Algarve, E.P.E. (510745997)",LUNDBECK PORTUGAL - PROD FARMACEUTICOS UNIPESSOAL (503573922),"4.184,60 €",28-12-2018,31-01-2018,334 dias,"Portugal, Faro, Faro","Artigo 24.º, n.º 1, alínea e), subalínea iii) do Código dos Contratos Públicos",,,,,,Não aplicável.,Não aplicável.,FALSE
31/1944/2018-Ustecinumab 90 e 130 mg,Ao abrigo de acordo-quadro (art.º 258.º),Aquisição de bens móveis,"33600000-6, Produtos farmacêuticos","Centro Hospitalar Universitário do Algarve, E. P. E. (510745997)",janssen (500189412),"18.786,60 €",28-12-2018,07-05-2018,120 dias,"Portugal, Faro, Faro","Artigo 26.º, n.º 1, alínea e) do Código dos Contratos Públicos",,,,,,2771250,"Aquisição de Medicamentos desencadeada pela SPMS, no âmbito do Despacho 1571/B de 2016, ao abrigo do Acordo Quadro 2015/6 e Acordo Quadro 2016/40, Acordo Quadro 2016/55 e Acordo Quadro 2015/41, Ref.ª P259-AC-2017-65 ",FALSE
"41/286/2018 - Darunavir, Etravirina, Rilpivirina, Tenofovir e Tipranavir",Ao abrigo de acordo-quadro (art.º 259.º),Aquisição de bens móveis,"33600000-6, Produtos farmacêuticos","Centro Hospitalar Universitário do Algarve, E. P. E. (510745997)","unilfarma (500293023), JANSSEN CILAG FARMACEUTICA, LDA (500189412), GILEAD SCIENCES,LDA (503604704)","100.695,45 €",28-12-2018,05-01-2018,340 dias,"Portugal, Faro, Faro",Artigo 259.º do Código dos Contratos Públicos,,,,,,2183729,Medicamentos antirretrovíricos para o tratamento da infeção por VIH,FALSE
"61/903/2018 Calprotectina fecal, reagentes",Ajuste Direto Regime Geral,Aquisição de bens móveis,"33696500-0, Reagentes de laboratório","Centro Hospitalar Universitário do Algarve, E. P. E. (510745997)","ARIUM - Sistemas de Diagnóstico, LDA. (502501880)","8.800,00 €",28-12-2018,02-02-2018,334 dias,"Portugal, Faro, Faro","Artigo 24.º, n.º 1, alínea e), subalínea ii) do Código dos Contratos Públicos",,,,,,Não aplicável.,Não aplicável.,FALSE
31/1967/2018-Secucinumab 150mg,Ao abrigo de acordo-quadro (art.º 258.º),Aquisição de bens móveis,"33600000-6, Produtos farmacêuticos","Centro Hospitalar Universitário do Algarve, E. P. E. (510745997)",novartis (500063524),"115.268,22 €",28-12-2018,07-05-2018,120 dias,"Portugal, Faro, Faro","Artigo 26.º, n.º 1, alínea e) do Código dos Contratos Públicos",,,,,,2545980,CP 2017/61 - Acordo quadro para fornecimento de Medicamentos Diversos   às Instituições e Serviços do Serviço Nacional de Saúde,FALSE
31/1968/2018-Quetiapina 50 mg,Ao abrigo de acordo-quadro (art.º 258.º),Aquisição de bens móveis,"33600000-6, Produtos farmacêuticos","Centro Hospitalar Universitário do Algarve, E. P. E. (510745997)",generis (508107997),"798,00 €",28-12-2018,04-05-2018,120 dias,"Portugal, Faro, Faro","Artigo 26.º, n.º 1, alínea e) do Código dos Contratos Públicos",,,,,,2356543,CP 2016/19 - Medicamentos Antipsicóticos,FALSE
31/1969/2018-Parecoxib 40 mg,Ao abrigo de acordo-quadro (art.º 258.º),Aquisição de bens móveis,"33600000-6, Produtos farmacêuticos","Centro Hospitalar Universitário do Algarve, E. P. E. (510745997)",pfizer (513300376),"20.677,00 €",28-12-2018,08-05-2018,120 dias,"Portugal, Faro, Faro","Artigo 26.º, n.º 1, alínea e) do Código dos Contratos Públicos",,,,,,1410779,CP 2015/47 - Acordo quadro para fornecimento de medicamentos do aparelho locomotor às instituições e serviços do serviço nacional de saúde,FALSE
Medicamentos Dexmedetomidina 100 µg/ml Sol inj Fr 2 ml IV,Ajuste Direto Regime Geral,Aquisição de bens móveis,"33690000-3, Medicamentos vários","Centro Hospitalar Universitário do Algarve, E.P.E. (510745997)",ORIONFIN UNIPESSOAL LDA. (508907365),"16.200,00 €",28-12-2018,09-02-2018,329 dias,"Portugal, Faro, Faro","Artigo 24.º, n.º 1, alínea e), subalínea iii) do Código dos Contratos Públicos",,,,,,Não aplicável.,Não aplicável.,FALSE
61/839/2018 Reagentes Anticorpo anti ALK (D5F3) e CINtec Plus,Ajuste Direto Regime Geral,Aquisição de bens móveis,"33696500-0, Reagentes de laboratório","Centro Hospitalar Universitário do Algarve, E. P. E. (510745997)","Roche S. Diagnósticos, Lda (504282921)","14.000,00 €",28-12-2018,06-03-2018,334 dias,"Portugal, Faro, Faro","Artigo 24.º, n.º 1, alínea e), subalínea ii) do Código dos Contratos Públicos",,,,,,Não aplicável.,Não aplicável.,FALSE
31/1970/2018-Multivitaminas lipossoluveis,Ao abrigo de acordo-quadro (art.º 258.º),Aquisição de bens móveis,"33600000-6, Produtos farmacêuticos","Centro Hospitalar Universitário do Algarve, E. P. E. (510745997)",fresinius (504293753),"3.829,00 €",28-12-2018,08-05-2018,120 dias,"Portugal, Faro, Faro","Artigo 26.º, n.º 1, alínea e) do Código dos Contratos Públicos",,,,,,1377429,Acordo Quadro para fornecimento de medicamentos para Nutrição Parentérica às Instituições e Serviços do Serviço Nacional de Saúde,FALSE
41/178/2018 - Dialises Peritoneal,Ao abrigo de acordo-quadro (art.º 259.º),Aquisição de bens móveis,"33600000-6, Produtos farmacêuticos","Centro Hospitalar Universitário do Algarve, E.P.E. (510745997)","FRESENIUS MEDICAL CARE PORTUGAL, SA (503070220), BAXTER MÉDICO FARMACEUTICO, LDA (503347345)","297.881,58 €",28-12-2018,05-01-2018,340 dias,"Portugal, Faro, Faro",Artigo 259.º do Código dos Contratos Públicos,,,,,,1481309,CP 2015/35 - Acordo quadro para fornecimento de bens e prestação de serviços de Diálise Peritoneal às Instituições e Serviços do Serviço Nacional de Saúde,FALSE
31/2011/2018-Oxazepam 50 mg,Ao abrigo de acordo-quadro (art.º 258.º),Aquisição de bens móveis,"33600000-6, Produtos farmacêuticos","Centro Hospitalar Universitário do Algarve, E. P. E. (510745997)",mylan (502248793),"221,49 €",28-12-2018,09-05-2018,120 dias,"Portugal, Faro, Faro","Artigo 26.º, n.º 1, alínea e) do Código dos Contratos Públicos",,,,,,2528670,"CP 2017/2 - Acordo Quadro para fornecimento de Medicamentos do Sistema Nervoso Cerebrospinal, exceto: anestésicos, relaxantes musculares, analgésicos, antipiréticos, antidepressivos e antipsicóticos  às Instituições e Serviços do Serviço Nacional de Saúde",FALSE
61/835/2018 Reagentes de Hematologia,Ajuste Direto Regime Geral,Aquisição de bens móveis,"33696500-0, Reagentes de laboratório","Centro Hospitalar Universitário do Algarve, E. P. E. (510745997)",Beckman Coulter Portugal (509035167),"13.482,50 €",28-12-2018,23-01-2018,349 dias,"Portugal, Faro, Faro","Artigo 24.º, n.º 1, alínea e), subalínea ii) do Código dos Contratos Públicos",,,,,,Não aplicável.,Não aplicável.,FALSE
31/2012/2018-Ditiazem 120 mg,Ao abrigo de acordo-quadro (art.º 258.º),Aquisição de bens móveis,"33600000-6, Produtos farmacêuticos","Centro Hospitalar Universitário do Algarve, E. P. E. (510745997)",ratiopharm (502414910),"252,00 €",28-12-2018,09-05-2018,120 dias,"Portugal, Faro, Faro","Artigo 26.º, n.º 1, alínea e) do Código dos Contratos Públicos",,,,,,2335591,CP 2016/01 - Acordo Quadro para fornecimento de Medicamentos do Aparelho Cardiovascular   às Instituições e Serviços do Serviço Nacional de Saúde,FALSE
Aquisição de Material de consumo clinico,Ajuste Direto Regime Geral,Aquisição de bens móveis,"33140000-3, Material médico de consumo","Centro Hospitalar Universitário do Algarve, E. P. E. (510745997)",B BRAUN MEDICAL LDA (501506543),"276,64 €",28-12-2018,21-12-2018,10 dias,"Portugal, Faro, Lagos<BR/>Portugal, Faro, Portimão<BR/>Portugal, Faro, Faro","Artigo 24.º, n.º 1, alínea c) do Código dos Contratos Públicos",,,,,,Não aplicável.,Não aplicável.,FALSE
Corretivos da Volémia,Ao abrigo de acordo-quadro (art.º 259.º),Aquisição de bens móveis,"33600000-6, Produtos farmacêuticos","Centro Hospitalar Universitário do Algarve, E.P.E. (510745997)","BAXTER MÉDICO FARMACEUTICO, LDA (503347345), LABESFAL  (501169580), B.BRAUN MEDICAL (501506543), Overpharma, Lda (505792362), GRIFOLS PORTUGAL- PROD.FARM.HOSP., (502041285)","330.491,23 €",28-12-2018,25-01-2018,340 dias,"Portugal, Faro, Faro",Artigo 259.º do Código dos Contratos Públicos,,,,,,2528675,CP 2017/3 - Acordo Quadro para fornecimento de corretivos da volémia e outras soluções estéreis,FALSE
31/2020/2018-Insulinas,Ao abrigo de acordo-quadro (art.º 258.º),Aquisição de bens móveis,"33600000-6, Produtos farmacêuticos","Centro Hospitalar Universitário do Algarve, E. P. E. (510745997)",novo nordisk (501485210),"7.134,46 €",28-12-2018,09-05-2018,120 dias,"Portugal, Faro, Faro","Artigo 26.º, n.º 1, alínea e) do Código dos Contratos Públicos",,,,,,1415640,CP 2015/7 - ACORDO QUADRO PARA FORNECIMENTO DE HORMONAS E OUTROS MEDICAMENTOS USADOS NO TRATAMENTO DAS DOENÇAS ENDÓCRINAS ÀS INSTITUIÇÕES E SERVIÇOS DO SERVIÇO NACIONAL DE SAÚDE,FALSE
Material Diverso - Medtronic,Ajuste Direto Regime Geral,Aquisição de bens móveis,"33140000-3, Material médico de consumo","Centro Hospitalar Universitário do Algarve, E. P. E. (510745997)",MEDTRONIC PORTUGAL LDA (504223933),"4.674,10 €",28-12-2018,21-12-2018,10 dias,"Portugal, Faro, Faro<BR/>Portugal, Faro, Lagos<BR/>Portugal, Faro, Portimão","Artigo 24.º, n.º 1, alínea c) do Código dos Contratos Públicos",,,,,,Não aplicável.,Não aplicável.,FALSE
Ecografo 77/4056/18,Ajuste Direto Regime Geral,Aquisição de bens móveis,"33112000-8, Equipamento de imagiologia por ecos, ultra-sons e doppler","Centro Hospitalar Universitário do Algarve, E. P. E. (510745997)","General Electric Healthcare Portugal, Lda. (500357129)","19.900,00 €",28-12-2018,07-12-2018,15 dias,"Portugal, Faro, Portimão","Artigo 20.º, n.º 1, alínea d) do Código dos Contratos Públicos",,,,,,Não aplicável.,Não aplicável.,FALSE
61/776/2018Reagentes de Imunoquimica,Ajuste Direto Regime Geral,Aquisição de bens móveis,"33696500-0, Reagentes de laboratório","Centro Hospitalar Universitário do Algarve, E. P. E. (510745997)","Roche S. Diagnósticos, Lda (504282921)","144.361,69 €",28-12-2018,09-02-2018,329 dias,"Portugal, Faro, Faro","Artigo 24.º, n.º 1, alínea e), subalínea ii) do Código dos Contratos Públicos",,,,,,Não aplicável.,Não aplicável.,FALSE
Aquisição Material Diverso -  Johnson,Ajuste Direto Regime Geral,Aquisição de bens móveis,"33140000-3, Material médico de consumo","Centro Hospitalar Universitário do Algarve, E. P. E. (510745997)","JOHNSON & JOHNSON, LDA (500153370)","4.587,72 €",28-12-2018,21-12-2018,10 dias,"Portugal, Faro, Lagos<BR/>Portugal, Faro, Faro<BR/>Portugal, Faro, Portimão","Artigo 24.º, n.º 1, alínea c) do Código dos Contratos Públicos",,,,,,Não aplicável.,Não aplicável.,FALSE
Aquisição de MICROCATETER 130 CM E 150CM C/PONTA 1.8F,Ajuste Direto Regime Geral,Aquisição de bens móveis,"33140000-3, Material médico de consumo","Centro Hospitalar Universitário do Algarve, E. P. E. (510745997)",Terumo (980472024),"1.990,00 €",28-12-2018,19-12-2018,12 dias,"Portugal, Faro, Portimão<BR/>Portugal, Faro, Lagos<BR/>Portugal, Faro, Faro","Artigo 24.º, n.º 1, alínea c) do Código dos Contratos Públicos",,,,,,Não aplicável.,Não aplicável.,FALSE
Aquisição de LIGAÇÃO C/VÁLVULA INTEGRAL ANTI-RETORNO,Ajuste Direto Regime Geral,Aquisição de bens móveis,"33140000-3, Material médico de consumo","Centro Hospitalar Universitário do Algarve, E. P. E. (510745997)",H.R.HOSPITALAR LDA (501895558),"43,50 €",28-12-2018,18-12-2018,13 dias,"Portugal, Faro, Portimão<BR/>Portugal, Faro, Faro<BR/>Portugal, Faro, Lagos","Artigo 24.º, n.º 1, alínea c) do Código dos Contratos Públicos",,,,,,Não aplicável.,Não aplicável.,FALSE
31/3135/2018-Tiocolquicosido 4 mg/2 ml,Ao abrigo de acordo-quadro (art.º 258.º),Aquisição de bens móveis,"33600000-6, Produtos farmacêuticos","Centro Hospitalar Universitário do Algarve, E. P. E. (510745997)",korangi (505322307),"1.681,36 €",26-12-2018,24-09-2018,90 dias,"Portugal, Faro, Faro","Artigo 26.º, n.º 1, alínea e) do Código dos Contratos Públicos",,,,,,2211341,Medicamentos anestésicos e relaxantes musculares,FALSE
31/3054/2018-Solução polielectrolitica,Ao abrigo de acordo-quadro (art.º 258.º),Aquisição de bens móveis,"33600000-6, Produtos farmacêuticos","Centro Hospitalar Universitário do Algarve, E. P. E. (510745997)",angelini (500583650),"453,68 €",26-12-2018,11-09-2018,90 dias,"Portugal, Faro, Faro","Artigo 26.º, n.º 1, alínea e) do Código dos Contratos Públicos",,,,,,2222779,Medicamentos do aparelho digestivo,FALSE
31/3055/2018-Fosaprepitant 150 mg,Ao abrigo de acordo-quadro (art.º 258.º),Aquisição de bens móveis,"33600000-6, Produtos farmacêuticos","Centro Hospitalar Universitário do Algarve, E. P. E. (510745997)",msd (500191360),"6.211,15 €",26-12-2018,06-09-2018,90 dias,"Portugal, Faro, Faro","Artigo 26.º, n.º 1, alínea e) do Código dos Contratos Públicos",,,,,,2528670,"CP 2017/2 - Acordo Quadro para fornecimento de Medicamentos do Sistema Nervoso Cerebrospinal, exceto: anestésicos, relaxantes musculares, analgésicos, antipiréticos, antidepressivos e antipsicóticos  às Instituições e Serviços do Serviço Nacional de Saúde",FALSE
31/3056/2018-Sitagliptina 100 mg,Ao abrigo de acordo-quadro (art.º 258.º),Aquisição de bens móveis,"33600000-6, Produtos farmacêuticos","Centro Hospitalar Universitário do Algarve, E. P. E. (510745997)",msd (500191360),"376,99 €",26-12-2018,11-09-2018,90 dias,"Portugal, Faro, Faro","Artigo 26.º, n.º 1, alínea e) do Código dos Contratos Públicos",,,,,,3379938,Hormonas e outros medicamentos usados no tratamento de doenças endócrinas,FALSE
1/3057/2018-Glicerofosfato de sódio 216 mg,Ao abrigo de acordo-quadro (art.º 258.º),Aquisição de bens móveis,"33600000-6, Produtos farmacêuticos","Centro Hospitalar Universitário do Algarve, E.P.E. (510745997)",fresenius (504293753),"824,04 €",26-12-2018,19-09-2018,90 dias,"Portugal, Faro, Faro","Artigo 26.º, n.º 1, alínea e) do Código dos Contratos Públicos",,,,,,2528675,CP 2017/3 - Acordo Quadro para fornecimento de corretivos da volémia e outras soluções estéreis,FALSE
31/3059/2018-Atazanavir 200 mg,Ao abrigo de acordo-quadro (art.º 258.º),Aquisição de bens móveis,"33600000-6, Produtos farmacêuticos","Centro Hospitalar Universitário do Algarve, E.P.E. (510745997)",bristol (500048193),"10.119,14 €",26-12-2018,20-09-2018,90 dias,"Portugal, Faro, Faro","Artigo 26.º, n.º 1, alínea e) do Código dos Contratos Públicos",,,,,,2183729,Medicamentos antirretrovíricos para o tratamento da infeção por VIH,FALSE
31/3060/2018-Risperidona 50 mg,Ao abrigo de acordo-quadro (art.º 258.º),Aquisição de bens móveis,"33600000-6, Produtos farmacêuticos","Centro Hospitalar Universitário do Algarve, E.P.E. (510745997)",janssen (500189412),"5.658,75 €",26-12-2018,05-09-2018,90 dias,"Portugal, Faro, Faro","Artigo 26.º, n.º 1, alínea e) do Código dos Contratos Públicos",,,,,,2356543,CP 2016/19 - Medicamentos Antipsicóticos,FALSE
31/3061/2018-Salbutamol 5 mg,Ao abrigo de acordo-quadro (art.º 258.º),Aquisição de bens móveis,"33600000-6, Produtos farmacêuticos","Centro Hospitalar Universitário do Algarve, E.P.E. (510745997)",glaxo (500139962),"179,70 €",26-12-2018,05-09-2018,90 dias,"Portugal, Faro, Faro","Artigo 26.º, n.º 1, alínea e) do Código dos Contratos Públicos",,,,,,1638654,CP 2015/12 - Acordo quadro para fornecimento de Medicamentos do Aparelho Respiratório às Instituições e Serviços do Serviço Nacional de Saúde,FALSE
31/3062/2018-Mepolizumab 100 mg,Ao abrigo de acordo-quadro (art.º 258.º),Aquisição de bens móveis,"33600000-6, Produtos farmacêuticos","Centro Hospitalar Universitário do Algarve, E.P.E. (510745997)",glaxo (500139962),"47.137,05 €",26-12-2018,11-10-2018,60 dias,"Portugal, Faro, Faro","Artigo 26.º, n.º 1, alínea e) do Código dos Contratos Públicos",,,,,,2771250,"Aquisição de Medicamentos desencadeada pela SPMS, no âmbito do Despacho 1571/B de 2016, ao abrigo do Acordo Quadro 2015/6 e Acordo Quadro 2016/40, Acordo Quadro 2016/55 e Acordo Quadro 2015/41, Ref.ª P259-AC-2017-65 ",FALSE
31/3171/2018-Cetamina 500 mg,Ao abrigo de acordo-quadro (art.º 258.º),Aquisição de bens móveis,"33600000-6, Produtos farmacêuticos","Centro Hospitalar Universitário do Algarve, E. P. E. (510745997)",hikma (502266791),"31.200,00 €",26-12-2018,17-09-2018,90 dias,"Portugal, Faro, Faro","Artigo 26.º, n.º 1, alínea e) do Código dos Contratos Públicos",,,,,,2211341,Medicamentos anestésicos e relaxantes musculares,FALSE
31/3176/2018-Iopromida,Ao abrigo de acordo-quadro (art.º 258.º),Aquisição de bens móveis,"33600000-6, Produtos farmacêuticos","Centro Hospitalar Universitário do Algarve, E. P. E. (510745997)",bayer (500043256),"15,40 €",26-12-2018,24-09-2018,90 dias,"Portugal, Faro, Faro","Artigo 26.º, n.º 1, alínea e) do Código dos Contratos Públicos",,,,,,1473614,CP 2015/56 - Acordo quadro para fornecimento de medicamentos usados como meios de diagnóstico em Imagiologia às Instituições e Serviços do Serviço Nacional de Saúde,FALSE
31/3187/2018-Metronidazol 1 g,Ao abrigo de acordo-quadro (art.º 258.º),Aquisição de bens móveis,"33600000-6, Produtos farmacêuticos","Centro Hospitalar Universitário do Algarve, E. P. E. (510745997)",generis (508107997),"13.053,00 €",26-12-2018,24-09-2018,90 dias,"Portugal, Faro, Faro","Artigo 26.º, n.º 1, alínea e) do Código dos Contratos Públicos",,,,,,2775691,CP 2017/5 - Acordo Quadro para fornecimento de Medicamentos anti-infeciosos: exceto antivíricos e antifúngicos,FALSE
31/3188/2018-Droperidol 2.5 mg,Ao abrigo de acordo-quadro (art.º 258.º),Aquisição de bens móveis,"33600000-6, Produtos farmacêuticos","Centro Hospitalar Universitário do Algarve, E. P. E. (510745997)",overpharma (505792362),"760,00 €",26-12-2018,24-09-2018,90 dias,"Portugal, Faro, Faro","Artigo 26.º, n.º 1, alínea e) do Código dos Contratos Públicos",,,,,,2356543,CP 2016/19 - Medicamentos Antipsicóticos,FALSE
31/3189/2018-Fibrinogénio humano 1000 mg,Ao abrigo de acordo-quadro (art.º 258.º),Aquisição de bens móveis,"33600000-6, Produtos farmacêuticos","Centro Hospitalar Universitário do Algarve, E. P. E. (510745997)",csl (503047201),"8.000,00 €",26-12-2018,20-09-2018,90 dias,"Portugal, Faro, Faro","Artigo 26.º, n.º 1, alínea e) do Código dos Contratos Públicos",,,,,,2800702,CP 2017/9 - Acordo quadro para fornecimento de Derivados do Plasma Humano às Instituições e Serviços do Serviço Nacional de Saúde,FALSE
62/0650/2018- Aquisição de Material de Consumo Clínico,Ajuste Direto Regime Geral,Aquisição de bens móveis,"33140000-3, Material médico de consumo","Centro Hospitalar Universitário do Algarve, E. P. E. (510745997)","SPECULUM-ARTIGOS MEDICOS,S.A (502996323)","563,75 €",26-12-2018,19-01-2018,346 dias,"Portugal, Faro, Faro","Artigo 24.º, n.º 1, alínea e), subalínea ii) do Código dos Contratos Públicos",,,,,,Não aplicável.,Não aplicável.,FALSE
62-3619-2018- Aquisição de Material de Ortopedia-Placa de Bloqueio,Ajuste Direto Regime Geral,Aquisição de bens móveis,"33140000-3, Material médico de consumo","Centro Hospitalar Universitário do Algarve, E. P. E. (510745997)",JOHNSON & JOHNSON PROD.PROF. (500153370),"786,57 €",26-12-2018,12-12-2018,19 dias,"Portugal, Faro, Faro","Artigo 24.º, n.º 1, alínea e), subalínea ii) do Código dos Contratos Públicos",,,,,,Não aplicável.,Não aplicável.,FALSE
62/4135/2018 - Aquisição de fio ORTHOCORD,Ajuste Direto Regime Geral,Aquisição de bens móveis,"33183200-8, Próteses ortopédicas","Centro Hospitalar Universitário do Algarve, E.P.E. (510745997)","JOHNSON & JOHNSON, LDA (500153370)","448,80 €",21-12-2018,19-12-2018,12 dias,"Portugal, Faro, Faro","Artigo 24.º, n.º 1, alínea e), subalínea ii) do Código dos Contratos Públicos",,,,,,Não aplicável.,Não aplicável.,FALSE
92/4128/2018 - Aquisição de Próteses Bipolares (Haste Cimentada e N/Cimentada),Ajuste Direto Regime Geral,Aquisição de bens móveis,"33140000-3, Material médico de consumo","Centro Hospitalar Universitário do Algarve, E.P.E. (510745997)","ORTOIMPLANTE - SOC. DE ORTOPEDIA, LDA. (502654414)","6.525,00 €",21-12-2018,17-12-2018,13 dias,"Portugal, Faro, Faro","Artigo 24.º, n.º 1, alínea c) do Código dos Contratos Públicos",,,,,,Não aplicável.,Não aplicável.,FALSE
92/4138/2018 - Aquisição de Lentes Contacto Terapeuticas,Ajuste Direto Regime Geral,Aquisição de bens móveis,"33140000-3, Material médico de consumo","Centro Hospitalar Universitário do Algarve, E. P. E. (510745997)",Bausch & Lomb (980218764),"74,40 €",21-12-2018,12-12-2018,20 dias,"Portugal, Faro, Faro","Artigo 24.º, n.º 1, alínea c) do Código dos Contratos Públicos",,,,,,Não aplicável.,Não aplicável.,FALSE
92/4071/2018 - Aquisição Prótese Total do Ombro Cimentada e N/Cimentada,Ajuste Direto Regime Geral,Aquisição de bens móveis,"33140000-3, Material médico de consumo","Centro Hospitalar Universitário do Algarve, E. P. E. (510745997)","JOHNSON & JOHNSON, LDA (500153370)","11.920,00 €",21-12-2018,05-12-2018,25 dias,"Portugal, Faro, Faro","Artigo 24.º, n.º 1, alínea c) do Código dos Contratos Públicos",,,,,,Não aplicável.,Não aplicável.,FALSE
62/3938/2018 - Aquisição de sistema de Pace Bi-Ventricular (CRT-D),Ajuste Direto Regime Geral,Aquisição de bens móveis,"33123210-3, Aparelhos para monitorização cardíaca","Centro Hospitalar Universitário do Algarve, E. P. E. (510745997)","MICROPORT CRM PORTUGAL, LDA. (505514010)","12.650,00 €",21-12-2018,10-12-2018,13 dias,"Portugal, Faro, Faro","Artigo 24.º, n.º 1, alínea e), subalínea ii) do Código dos Contratos Públicos",,,,,,Não aplicável.,Não aplicável.,FALSE
62/3839/2018 - Aquisição de Cardioversores Desfibrilhadores - 1 Câmara (DF1),Ajuste Direto Regime Geral,Aquisição de bens móveis,"33123210-3, Aparelhos para monitorização cardíaca","Centro Hospitalar Universitário do Algarve, E. P. E. (510745997)","Biotronik Portugal, Unipessoal Lda. (510726941)","7.000,00 €",21-12-2018,29-11-2018,28 dias,"Portugal, Faro, Faro","Artigo 24.º, n.º 1, alínea e), subalínea ii) do Código dos Contratos Públicos",,,,,,Não aplicável.,Não aplicável.,FALSE
92/3808/2018 - Aquisição de Cavilha Longa TFN,Ajuste Direto Regime Geral,Aquisição de bens móveis,"33183200-8, Próteses ortopédicas","Centro Hospitalar Universitário do Algarve, E. P. E. (510745997)",JOHNSON & JOHNSON PROD.PROF. (500153370),"1.317,00 €",21-12-2018,16-11-2018,45 dias,"Portugal, Faro, Faro","Artigo 24.º, n.º 1, alínea c) do Código dos Contratos Públicos",,,,,,Não aplicável.,Não aplicável.,FALSE
Candeeiros Observação 77/4077/18,Ajuste Direto Regime Geral,Aquisição de bens móveis,"33167000-8, Luzes para blocos operatórios","Centro Hospitalar Universitário do Algarve, E. P. E. (510745997)","LINEAMEDICA-DISPOSITIVOS MEDICOS-CIRUGICOS, SA (505148676)","5.300,00 €",21-12-2018,19-12-2018,5 dias,"Portugal, Faro, Faro","Artigo 20.º, n.º 1, alínea d) do Código dos Contratos Públicos",,,,,,Não aplicável.,Não aplicável.,FALSE
92/3778/2018 - Aquisição de Pacemakers 2 Câmaras VDD Sistema,Ajuste Direto Regime Geral,Aquisição de bens móveis,"33182000-9, Material de assistência à função cardíaca","Centro Hospitalar Universitário do Algarve, E. P. E. (510745997)",ABBOTT MEDICAL (EX. ST. JUDE) (504180746),"14.000,00 €",21-12-2018,15-11-2018,45 dias,"Portugal, Faro, Faro","Artigo 24.º, n.º 1, alínea c) do Código dos Contratos Públicos",,,,,,Não aplicável.,Não aplicável.,FALSE
62/3732/2018 - Cardioversor Desfibrilhador - 2 Câmaras (CDI- VR),Ajuste Direto Regime Geral,Aquisição de bens móveis,"33123210-3, Aparelhos para monitorização cardíaca","Centro Hospitalar Universitário do Algarve, E. P. E. (510745997)",ABBOTT MEDICAL (EX. ST. JUDE) (504180746),"12.350,00 €",21-12-2018,15-11-2018,45 dias,"Portugal, Faro, Faro","Artigo 24.º, n.º 1, alínea e), subalínea ii) do Código dos Contratos Públicos",,,,,,Não aplicável.,Não aplicável.,FALSE
92/4050/2018- Aquisição de Fixadores Externos,Ajuste Direto Regime Geral,Aquisição de bens móveis,"33140000-3, Material médico de consumo","Centro Hospitalar Universitário do Algarve, E. P. E. (510745997)",JOHNSON & JOHNSON PROD.PROF. (500153370),"12.000,00 €",21-12-2018,12-12-2018,25 dias,"Portugal, Faro, Faro<BR/>Portugal, Faro, Portimão","Artigo 24.º, n.º 1, alínea c) do Código dos Contratos Públicos",,,,,,Não aplicável.,Não aplicável.,FALSE
92/3943/2018- Aquisição de Cabos Cerclage,Ajuste Direto Regime Geral,Aquisição de bens móveis,"33140000-3, Material médico de consumo","Centro Hospitalar Universitário do Algarve, E. P. E. (510745997)",JOHNSON & JOHNSON PROD.PROF. (500153370),"2.400,00 €",21-12-2018,04-12-2018,27 dias,"Portugal, Faro, Faro<BR/>Portugal, Faro, Portimão","Artigo 24.º, n.º 1, alínea c) do Código dos Contratos Públicos",,,,,,Não aplicável.,Não aplicável.,FALSE
92/3699/2018 - Aquisição Próteses Bipolares,Ajuste Direto Regime Geral,Aquisição de bens móveis,"33183200-8, Próteses ortopédicas","Centro Hospitalar Universitário do Algarve, E. P. E. (510745997)","ORTOIMPLANTE - SOC. DE ORTOPEDIA, LDA. (502654414)","11.500,00 €",21-12-2018,23-11-2018,30 dias,"Portugal, Faro, Faro","Artigo 24.º, n.º 1, alínea e), subalínea ii) do Código dos Contratos Públicos",,,,,,Não aplicável.,Não aplicável.,FALSE
