Objeto do Contrato,Tipo de Procedimento,Tipo(s) de Contrato,CPVs,Entidade(s) Adjudicante(s),Entidade(s) Adjudicatária(s),Preço Contratual,Data de Publicação,Data de Celebração do Contrato,Prazo de Execução,Local de Execução,Fundamentação,Data de Fecho do Contrato,Preço Total Efetivo,Causas das Alterações ao Prazo,Causas das Alterações ao Preço,Estado,N.º registo do Acordo Quadro,Descrição do Acordo Quadro,Procedimento Centralizado
procedimento n.º 040002902018 - Reagentes para aparelho gasometria ABL 90 FLEX,Ajuste Direto Regime Geral,Aquisição de bens móveis,"33696500-0, Reagentes de laboratório","Centro Hospitalar e Universitário de Coimbra, E.P. (510103448)","RADIOMETER IBERICA, SL (980201667)","15.848,56 €",13-03-2018,12-02-2016,365 dias,"Portugal, Coimbra, Coimbra","Artigo 26.º, n.º 1, alínea a) do Código dos Contratos Públicos",30-12-2016,"15.848,56 €",,"",,Não aplicável.,Não aplicável.,FALSE
procedimento n.º 040002482016 - Reagentes gasimetria - S. Medicina Intensiva - H. Geral,Ajuste Direto Regime Geral,Aquisição de bens móveis,"33696500-0, Reagentes de laboratório","Centro Hospitalar e Universitário de Coimbra, E.P. (510103448)",Siemens Healthcare (507925173),"48.717,89 €",13-03-2018,24-02-2016,365 dias,"Portugal, Coimbra, Coimbra","Artigo 26.º, n.º 1, alínea a) do Código dos Contratos Públicos",30-12-2016,"48.717,89 €",,"",,Não aplicável.,Não aplicável.,FALSE
040107582016 floseal matrix(gelatina + Trombina),Ajuste Direto Regime Geral,Aquisição de bens móveis,"33698000-9, Produtos para fins clínicos","Centro Hospitalar e Universitário de Coimbra, E. P. E. (510103448)",JOHNSON & JOHNSON (500153370),"48.070,00 €",13-03-2018,20-05-2016,365 dias,"Portugal, Coimbra, Coimbra","Artigo 20.º, n.º 1, alínea a) do Código dos Contratos Públicos",31-12-2016,"48.070,00 €",,"",,Não aplicável.,Não aplicável.,FALSE
Caixas e Pastas de arquivo,Ajuste Direto Regime Geral,Aquisição de bens móveis,"30100000-0, Máquinas, equipamento e material de escritório, excepto computadores, impressoras e mobiliário","Centro Hospitalar e Universitário de Coimbra, E. P. E. (510103448)","ENVELOPRINTER,LDA (508469830)","1.145,00 €",13-03-2018,09-03-2018,300 dias,"Portugal, Coimbra, Coimbra","Artigo 20.º, n.º 1, alínea a) do Código dos Contratos Públicos","","",,"",,Não aplicável.,Não aplicável.,FALSE
040107472016 DECITABINA 50MG PO CONC SOL INJ. FRS IV,Ajuste Direto Regime Geral,Aquisição de bens móveis,"33698000-9, Produtos para fins clínicos","Centro Hospitalar e Universitário de Coimbra, E. P. E. (510103448)",JANSSEN - CILAG (500189412),"23.622,20 €",12-03-2018,07-04-2016,365 dias,"Portugal, Coimbra, Coimbra","Artigo 24.º, n.º 1, alínea e) do Código dos Contratos Públicos",31-12-2016,"23.622,20 €",,"",,Não aplicável.,Não aplicável.,FALSE
040201652018 - OUTRO MATERIAL DE CONSUMO,Ajuste Direto Regime Geral,Aquisição de bens móveis,"33000000-0, Equipamento médico, medicamentos e produtos para cuidados pessoais","Centro Hospitalar e Universitário de Coimbra, E. P. E. (510103448)",AVIQUIMICA (500039720),"55.788,90 €",12-03-2018,18-01-2018,360 dias,"Portugal, Coimbra, Coimbra","Artigo 24.º, n.º 1, alínea e) do Código dos Contratos Públicos","","",,"",,Não aplicável.,Não aplicável.,FALSE
040107192016 PALIVIZUMAB 100MG/ML SOL INJ. FRS. 0.5ML IM,Ajuste Direto Regime Geral,Aquisição de bens móveis,"33698000-9, Produtos para fins clínicos","Centro Hospitalar e Universitário de Coimbra, E. P. E. (510103448)",ABBVIE (510229050),"9.133,74 €",12-03-2018,30-03-2016,365 dias,"Portugal, Coimbra, Coimbra","Artigo 24.º, n.º 1, alínea e) do Código dos Contratos Públicos",31-12-2016,"9.133,74 €",,"",,Não aplicável.,Não aplicável.,FALSE
040106942016 FOSCARNETO SODICO 24 MG/ML SOL INJ.,Ajuste Direto Regime Geral,Aquisição de bens móveis,"33698000-9, Produtos para fins clínicos","Centro Hospitalar e Universitário de Coimbra, E. P. E. (510103448)",DUXPHARMA (510803679),"5.610,00 €",12-03-2018,30-03-2016,365 dias,"Portugal, Coimbra, Coimbra","Artigo 24.º, n.º 1, alínea e) do Código dos Contratos Públicos",31-12-2016,"5.610,00 €",,"",,Não aplicável.,Não aplicável.,FALSE
040201622018 - OUTRO MATERIAL DE CONSUMO,Ajuste Direto Regime Geral,Aquisição de bens móveis,"33000000-0, Equipamento médico, medicamentos e produtos para cuidados pessoais","Centro Hospitalar e Universitário de Coimbra, E. P. E. (510103448)",CLINIFAR (503281115),"22.109,12 €",12-03-2018,05-01-2018,360 dias,"Portugal, Coimbra, Coimbra","Artigo 24.º, n.º 1, alínea e) do Código dos Contratos Públicos","","",,"",,Não aplicável.,Não aplicável.,FALSE
040106922016 CISTEAMINA 5.5MG/ML COL. SOL. FRS. 10ML,Ajuste Direto Regime Geral,Aquisição de bens móveis,"33698000-9, Produtos para fins clínicos","Centro Hospitalar e Universitário de Coimbra, E. P. E. (510103448)",ORPHAN EUROPE PORTUGAL (507966953),"30.180,40 €",12-03-2018,05-05-2016,365 dias,"Portugal, Coimbra, Coimbra","Artigo 24.º, n.º 1, alínea e) do Código dos Contratos Públicos",31-12-2016,"30.180,40 €",,"",,Não aplicável.,Não aplicável.,FALSE
040201632018 - OUTRO MATERIAL DE CONSUMO,Ajuste Direto Regime Geral,Aquisição de bens móveis,"33000000-0, Equipamento médico, medicamentos e produtos para cuidados pessoais","Centro Hospitalar e Universitário de Coimbra, E. P. E. (510103448)",BASTOS VIEGAS (500042772),"37.230,09 €",12-03-2018,07-02-2018,360 dias,"Portugal, Coimbra, Coimbra","Artigo 24.º, n.º 1, alínea e) do Código dos Contratos Públicos","","",,"",,Não aplicável.,Não aplicável.,FALSE
040106912016 NITROPRUSSIATO DE SODIO 50MG PO SOL INJ.,Ajuste Direto Regime Geral,Aquisição de bens móveis,"33698000-9, Produtos para fins clínicos","Centro Hospitalar e Universitário de Coimbra, E. P. E. (510103448)",DUXPHARMA (510803679),"13.380,00 €",12-03-2018,01-04-2016,365 dias,"Portugal, Coimbra, Coimbra","Artigo 24.º, n.º 1, alínea e) do Código dos Contratos Públicos",31-12-2016,"13.380,00 €",,"",,Não aplicável.,Não aplicável.,FALSE
040201602018 - outro material de consumo,Ajuste Direto Regime Geral,Aquisição de bens móveis,"33000000-0, Equipamento médico, medicamentos e produtos para cuidados pessoais","Centro Hospitalar e Universitário de Coimbra, E. P. E. (510103448)",VYGON (503232785),"9.661,20 €",12-03-2018,18-01-2018,360 dias,"Portugal, Coimbra, Coimbra","Artigo 24.º, n.º 1, alínea e) do Código dos Contratos Públicos","","",,"",,Não aplicável.,Não aplicável.,FALSE
040107032016 PONATINIB 15 MG COMP,Ajuste Direto Regime Geral,Aquisição de bens móveis,"33698000-9, Produtos para fins clínicos","Centro Hospitalar e Universitário de Coimbra, E. P. E. (510103448)",KOMTUR PHARMACEUTICA BERLIN (DE142043814),"71.700,00 €",12-03-2018,18-04-2016,365 dias,"Portugal, Coimbra, Coimbra","Artigo 24.º, n.º 1, alínea e) do Código dos Contratos Públicos",31-12-2016,"71.700,00 €",,"",,Não aplicável.,Não aplicável.,FALSE
040107112016 vandetanib 100mg comp,Ajuste Direto Regime Geral,Aquisição de bens móveis,"33698000-9, Produtos para fins clínicos","Centro Hospitalar e Universitário de Coimbra, E. P. E. (510103448)",idis (700513982),"50.400,00 €",12-03-2018,08-04-2016,365 dias,"Portugal, Coimbra, Coimbra","Artigo 24.º, n.º 1, alínea e) do Código dos Contratos Públicos","","",,"",,Não aplicável.,Não aplicável.,FALSE
brentuximab vedotina 50 po conc inj frs,Ajuste Direto Regime Geral,Aquisição de bens móveis,"33698000-9, Produtos para fins clínicos","Centro Hospitalar e Universitário de Coimbra, E. P. E. (510103448)",idis (700513982),"279.972,00 €",12-03-2018,01-04-2016,365 dias,"Portugal, Coimbra, Coimbra","Artigo 24.º, n.º 1, alínea a) do Código dos Contratos Públicos",31-12-2016,"279.972,00 €",,"",,Não aplicável.,Não aplicável.,FALSE
Ajuste Directo nº040001282016-Reagentes p/Prova de Compatib. p/o Serviço de Sangue e Medicina Transfusional,Ajuste Direto Regime Geral,Aquisição de bens móveis,"33696500-0, Reagentes de laboratório","Centro Hospitalar e Universitário de Coimbra, E. P. E. (510103448)",Bio-Rad (501301321),"251.003,33 €",12-03-2018,26-02-2016,365 dias,"Portugal, Coimbra, Coimbra","Artigo 26.º, n.º 1, alínea a) do Código dos Contratos Públicos",31-12-2016,"251.003,33 €",,"",,Não aplicável.,Não aplicável.,FALSE
Ajuste Directo nº040001292016-Reagentes p/o Serviço de Sangue e Medicina Transfusional,Ajuste Direto Regime Geral,Aquisição de bens móveis,"33696500-0, Reagentes de laboratório","Centro Hospitalar e Universitário de Coimbra, E. P. E. (510103448)",Bio-Rad Laboratories (501301321),"54.558,20 €",12-03-2018,10-02-2016,365 dias,"Portugal, Coimbra, Coimbra","Artigo 26.º, n.º 1, alínea a) do Código dos Contratos Públicos",31-12-2016,"54.558,20 €",,"",,Não aplicável.,Não aplicável.,FALSE
040201592018 - OUTRO MATERIAL DE CONSUMO,Ajuste Direto Regime Geral,Aquisição de bens móveis,"33000000-0, Equipamento médico, medicamentos e produtos para cuidados pessoais","Centro Hospitalar e Universitário de Coimbra, E. P. E. (510103448)",MEDICINALIA CORMEDICA (500684324),"12.716,92 €",12-03-2018,18-01-2018,360 dias,"Portugal, Coimbra, Coimbra","Artigo 24.º, n.º 1, alínea e) do Código dos Contratos Públicos","","",,"",,Não aplicável.,Não aplicável.,FALSE
Substituição do sistema de videovigilância nos cinco quartos de isolamento do Serviço de Infecciosas,Ajuste Direto Regime Geral,Aquisição de bens móveis,"32000000-3, Equipamento de rádio, televisão, comunicação, telecomunicações e afins","Centro Hospitalar e Universitário de Coimbra, E. P. E. (510103448)","PAULO TRINDADE, UNIPESSOAL LDA (EX.POLILECTRONICA) (514223669)","2.732,00 €",12-03-2018,11-05-2017,3 dias,"Portugal, Coimbra, Coimbra","Artigo 20.º, n.º 1, alínea a) do Código dos Contratos Públicos","","",,"",,Não aplicável.,Não aplicável.,FALSE
040201512018 - OUTRO MATERIAL DE CONSUMO,Ajuste Direto Regime Geral,Aquisição de bens móveis,"33000000-0, Equipamento médico, medicamentos e produtos para cuidados pessoais","Centro Hospitalar e Universitário de Coimbra, E. P. E. (510103448)",EPJ (506820513),"32.553,28 €",12-03-2018,18-01-2018,360 dias,"Portugal, Coimbra, Coimbra","Artigo 24.º, n.º 1, alínea e) do Código dos Contratos Públicos","","",,"",,Não aplicável.,Não aplicável.,FALSE
040201522018 - OUTRO MATERIAL DE CONSUMO,Ajuste Direto Regime Geral,Aquisição de bens móveis,"33000000-0, Equipamento médico, medicamentos e produtos para cuidados pessoais","Centro Hospitalar e Universitário de Coimbra, E. P. E. (510103448)",EZEQUIEL PANAO JORGE (501412727),"63.515,28 €",12-03-2018,25-01-2018,360 dias,"Portugal, Coimbra, Coimbra","Artigo 24.º, n.º 1, alínea e) do Código dos Contratos Públicos","","",,"",,Não aplicável.,Não aplicável.,FALSE
COLISTIMETATO DE SODIO 1000000 U.I PO SOL. INJ.,Ajuste Direto Regime Geral,Aquisição de bens móveis,"33698000-9, Produtos para fins clínicos","Centro Hospitalar e Universitário de Coimbra, E. P. E. (510103448)",PHARMIS (502595442),"68.673,60 €",12-03-2018,01-03-2016,365 dias,"Portugal, Coimbra, Coimbra","Artigo 20.º, n.º 1, alínea a) do Código dos Contratos Públicos",31-12-2016,"68.673,60 €",,"",,Não aplicável.,Não aplicável.,FALSE
Ajuste Directo nº040002012016-Reagentes p/o Serviço de Sangue e Medicina Transfusional,Ajuste Direto Regime Geral,Aquisição de bens móveis,"33696500-0, Reagentes de laboratório","Centro Hospitalar e Universitário de Coimbra, E. P. E. (510103448)",Biomerieux (501524177),"6.640,00 €",12-03-2018,23-02-2016,365 dias,"Portugal, Coimbra, Coimbra","Artigo 26.º, n.º 1, alínea a) do Código dos Contratos Públicos",31-12-2016,"6.640,00 €",,"",,Não aplicável.,Não aplicável.,FALSE
040107032016PONATINIB 15MG COMP,Ajuste Direto Regime Geral,Aquisição de bens móveis,"33698000-9, Produtos para fins clínicos","Centro Hospitalar e Universitário de Coimbra, E. P. E. (510103448)",KOMTUR PHARMACEUTICA BERLIN (DE142043814),"71.700,00 €",12-03-2018,04-03-2016,365 dias,"Portugal, Coimbra, Coimbra","Artigo 24.º, n.º 1, alínea e) do Código dos Contratos Públicos",31-12-2016,"71.700,00 €",,"",,Não aplicável.,Não aplicável.,FALSE
040201542018 - OUTRO MATERIAL DE CONSUMO,Ajuste Direto Regime Geral,Aquisição de bens móveis,"33000000-0, Equipamento médico, medicamentos e produtos para cuidados pessoais","Centro Hospitalar e Universitário de Coimbra, E. P. E. (510103448)",PMH (502376899),"5.987,00 €",12-03-2018,18-01-2018,360 dias,"Portugal, Coimbra, Coimbra","Artigo 24.º, n.º 1, alínea e) do Código dos Contratos Públicos","","",,"",,Não aplicável.,Não aplicável.,FALSE
Aquisição de um ecógrafo intra-operatório para tumores oculares para o Serviço de Oftalmologia,Ajuste Direto Regime Geral,Aquisição de bens móveis,"33112000-8, Equipamento de imagiologia por ecos, ultra-sons e doppler","Centro Hospitalar e Universitário de Coimbra, E. P. E. (510103448)","José Cotta - Equipamentos Médicos e Serviços, Lda. (500155739)","64.700,00 €",12-03-2018,12-12-2017,20 dias,"Portugal, Coimbra, Coimbra","Artigo 20.º, n.º 1, alínea a) do Código dos Contratos Públicos","","",,"",,Não aplicável.,Não aplicável.,FALSE
040200202018 - OUTRO MATERIAL DE CONSUMO,Ajuste Direto Regime Geral,Aquisição de bens móveis,"33000000-0, Equipamento médico, medicamentos e produtos para cuidados pessoais","Centro Hospitalar e Universitário de Coimbra, E. P. E. (510103448)",EPJ (506820513),"59.662,00 €",12-03-2018,05-01-2018,360 dias,"Portugal, Coimbra, Coimbra","Artigo 24.º, n.º 1, alínea e) do Código dos Contratos Públicos","","",,"",,Não aplicável.,Não aplicável.,FALSE
Ajuste Directo nº040002042016-Reagentes p/o Serviço de Sangue e Medicina Transfusional,Ajuste Direto Regime Geral,Aquisição de bens móveis,"33696500-0, Reagentes de laboratório","Centro Hospitalar e Universitário de Coimbra, E. P. E. (510103448)",Immucor (503007358),"4.170,24 €",12-03-2018,23-02-2016,365 dias,"Portugal, Coimbra, Coimbra","Artigo 26.º, n.º 1, alínea a) do Código dos Contratos Públicos",31-12-2016,"4.170,24 €",,"",,Não aplicável.,Não aplicável.,FALSE
040200222018 - OUTRO MATERIAL DE CONSUMO,Ajuste Direto Regime Geral,Aquisição de bens móveis,"33000000-0, Equipamento médico, medicamentos e produtos para cuidados pessoais","Centro Hospitalar e Universitário de Coimbra, E. P. E. (510103448)",MOLNLYCKE (511101066),"8.532,00 €",12-03-2018,18-01-2018,360 dias,"Portugal, Coimbra, Coimbra","Artigo 24.º, n.º 1, alínea e) do Código dos Contratos Públicos","","",,"",,Não aplicável.,Não aplicável.,FALSE
040200212018 - OUTRO MATERIAL DE CONSUMO,Ajuste Direto Regime Geral,Aquisição de bens móveis,"33000000-0, Equipamento médico, medicamentos e produtos para cuidados pessoais","Centro Hospitalar e Universitário de Coimbra, E. P. E. (510103448)",EPJ (506820513),"18.209,88 €",12-03-2018,05-01-2018,360 dias,"Portugal, Coimbra, Coimbra","Artigo 24.º, n.º 1, alínea e) do Código dos Contratos Públicos","","",,"",,Não aplicável.,Não aplicável.,FALSE
040200192018 - OSTEOSSINTESE,Ajuste Direto Regime Geral,Aquisição de bens móveis,"33000000-0, Equipamento médico, medicamentos e produtos para cuidados pessoais","Centro Hospitalar e Universitário de Coimbra, E. P. E. (510103448)",B BRAUN MEDICAL (501506543),"44.979,60 €",12-03-2018,04-01-2018,360 dias,"Portugal, Coimbra, Coimbra","Artigo 24.º, n.º 1, alínea e) do Código dos Contratos Públicos","","",,"",,Não aplicável.,Não aplicável.,FALSE
040200182018 - OUTRO MATERIAL DE CONSUMO,Ajuste Direto Regime Geral,Aquisição de bens móveis,"33000000-0, Equipamento médico, medicamentos e produtos para cuidados pessoais","Centro Hospitalar e Universitário de Coimbra, E. P. E. (510103448)",OASIPOR (502260750),"24.490,00 €",12-03-2018,05-01-2018,360 dias,"Portugal, Coimbra, Coimbra","Artigo 24.º, n.º 1, alínea e) do Código dos Contratos Públicos","","",,"",,Não aplicável.,Não aplicável.,FALSE
040200812017 - OUTRO MATERIAL DE CONSUMO,Ajuste Direto Regime Geral,Aquisição de bens móveis,"33000000-0, Equipamento médico, medicamentos e produtos para cuidados pessoais","Centro Hospitalar e Universitário de Coimbra, E. P. E. (510103448)",INDAS (503505196),"29.846,32 €",12-03-2018,03-02-2017,360 dias,"Portugal, Coimbra, Coimbra","Artigo 24.º, n.º 1, alínea e) do Código dos Contratos Públicos","","",,"",,Não aplicável.,Não aplicável.,FALSE
040200362017 - OUTRO MATERIAL DE CONSUMO,Ajuste Direto Regime Geral,Aquisição de bens móveis,"33000000-0, Equipamento médico, medicamentos e produtos para cuidados pessoais","Centro Hospitalar e Universitário de Coimbra, E. P. E. (510103448)",3 M PORTUGAL (500193940),"73.102,50 €",12-03-2018,06-01-2017,360 dias,"Portugal, Coimbra, Coimbra","Artigo 24.º, n.º 1, alínea e) do Código dos Contratos Públicos","","",,"",,Não aplicável.,Não aplicável.,FALSE
040200712017 - OUTRO MATERIAL DE CONSUMO,Ajuste Direto Regime Geral,Aquisição de bens móveis,"33000000-0, Equipamento médico, medicamentos e produtos para cuidados pessoais","Centro Hospitalar e Universitário de Coimbra, E. P. E. (510103448)",BASTOS VIEGAS (500042772),"70.713,26 €",12-03-2018,12-01-2017,360 dias,"Portugal, Coimbra, Coimbra","Artigo 24.º, n.º 1, alínea e) do Código dos Contratos Públicos","","",,"",,Não aplicável.,Não aplicável.,FALSE
Reagentes para a Unidade de Cuidados Pos Anestesicos,Ajuste Direto Regime Geral,Aquisição de bens móveis,"33696500-0, Reagentes de laboratório","Centro Hospitalar e Universitário de Coimbra, E. P. E. (510103448)",werfen (501086110),"20.520,00 €",09-03-2018,16-12-2016,365 dias,"Portugal, Coimbra, Coimbra","Artigo 26.º, n.º 1, alínea a) do Código dos Contratos Públicos",31-12-2017,"20.520,00 €",,"",,Não aplicável.,Não aplicável.,FALSE
AQUISIÇÃO DE DUAS MÁQUINAS DE LAVAR LOIÇA,Ajuste Direto Regime Geral,Aquisição de bens móveis,"30000000-9, Máquinas, equipamento e material de escritório e de informática, excepto mobiliário e pacotes de programas (software)","Centro Hospitalar e Universitário de Coimbra, E. P. E. (510103448)","PR HOTEL, LDA. (503757241)","3.000,00 €",09-03-2018,09-03-2018,30 dias,"Portugal, Coimbra, Coimbra","Artigo 20.º, n.º 1, alínea a) do Código dos Contratos Públicos","","",,"",,Não aplicável.,Não aplicável.,FALSE
Ajuste Directo nº040001272016-Reagentes p/Classif. Sang. Doentes p/o Serviço de Sang. e Medicina Transfusional,Ajuste Direto Regime Geral,Aquisição de bens móveis,"33696500-0, Reagentes de laboratório","Centro Hospitalar e Universitário de Coimbra, E. P. E. (510103448)",Bio-Rad (501301321),"258.781,12 €",09-03-2018,08-03-2016,365 dias,"Portugal, Coimbra, Coimbra","Artigo 26.º, n.º 1, alínea a) do Código dos Contratos Públicos",31-12-2016,"258.781,12 €",,"",,Não aplicável.,Não aplicável.,FALSE
Ajuste Directo nº040001262016-Reagentes p/o Serviço de Sangue e Medicina Transfusional,Ajuste Direto Regime Geral,Aquisição de bens móveis,"33696500-0, Reagentes de laboratório","Centro Hospitalar e Universitário de Coimbra, E. P. E. (510103448)",Biomerieux (501524177),"18.681,60 €",09-03-2018,31-12-2016,365 dias,"Portugal, Coimbra, Coimbra","Artigo 26.º, n.º 1, alínea a) do Código dos Contratos Públicos",31-12-2016,"18.681,60 €",,"",,Não aplicável.,Não aplicável.,FALSE
Reagentes para a Cardiologia A ( Laboratório de Hemodinamica),Ajuste Direto Regime Geral,Aquisição de bens móveis,"33696500-0, Reagentes de laboratório","Centro Hospitalar e Universitário de Coimbra, E.P. (510103448)",radiometer (980201667),"6.750,00 €",09-03-2018,16-12-2016,365 dias,"Portugal, Coimbra, Coimbra","Artigo 26.º, n.º 1, alínea a) do Código dos Contratos Públicos",31-12-2017,"6.750,00 €",,"",,Não aplicável.,Não aplicável.,FALSE
Ajuste Directo nº040001232016-Reagentes p/o Serviço de Sangue e Medicina Transfusional,Ajuste Direto Regime Geral,Aquisição de bens móveis,"33696500-0, Reagentes de laboratório","Centro Hospitalar e Universitário de Coimbra, E. P. E. (510103448)","Bio-Rad (501301321), Grifols (502041285)","5.608,20 €",09-03-2018,03-02-2016,365 dias,"Portugal, Coimbra, Coimbra","Artigo 20.º, n.º 1, alínea a) do Código dos Contratos Públicos",31-12-2016,"5.608,20 €",,"",,Não aplicável.,Não aplicável.,FALSE
Ajuste Directo nº040001222016-Reagentes p/o Serviço de Sangue e Medicina Transfusional,Ajuste Direto Regime Geral,Aquisição de bens móveis,"33696500-0, Reagentes de laboratório","Centro Hospitalar e Universitário de Coimbra, E. P. E. (510103448)",Immucor (503007358),"31.685,69 €",09-03-2018,10-02-2016,365 dias,"Portugal, Coimbra, Coimbra","Artigo 26.º, n.º 1, alínea a) do Código dos Contratos Públicos",31-12-2016,"31.685,69 €",,"",,Não aplicável.,Não aplicável.,FALSE
Reagentes para a Unidade de Queimados,Ajuste Direto Regime Geral,Aquisição de bens móveis,"33696500-0, Reagentes de laboratório","Centro Hospitalar e Universitário de Coimbra, E. P. E. (510103448)",Magnamed (503640476),"12.875,00 €",09-03-2018,16-12-2016,365 dias,"Portugal, Coimbra, Coimbra","Artigo 26.º, n.º 1, alínea a) do Código dos Contratos Públicos",31-12-2017,"12.875,00 €",,"",,Não aplicável.,Não aplicável.,FALSE
040207082018 - Implante Coclear,Ajuste Direto Regime Geral,Aquisição de bens móveis,"33000000-0, Equipamento médico, medicamentos e produtos para cuidados pessoais","Centro Hospitalar e Universitário de Coimbra, E. P. E. (510103448)",Coselgi Portugal (509230598),"16.217,10 €",09-03-2018,09-03-2018,20 dias,"Portugal, Coimbra, Coimbra","Artigo 24.º, n.º 1, alínea e), subalínea ii) do Código dos Contratos Públicos",12-03-2018,"16.217,10 €",,"",,Não aplicável.,Não aplicável.,FALSE
Ajuste Directo nº040001092016-Reagentes p/o Serviço de Sangue e Medicina Transfusional,Ajuste Direto Regime Geral,Aquisição de bens móveis,"33696500-0, Reagentes de laboratório","Centro Hospitalar e Universitário de Coimbra, E. P. E. (510103448)","Bio-Rad (501301321), Diasorin (980379563)","840,96 €",09-03-2018,03-02-2016,365 dias,"Portugal, Coimbra, Coimbra","Artigo 20.º, n.º 1, alínea a) do Código dos Contratos Públicos",31-12-2016,"840,96 €",,"",,Não aplicável.,Não aplicável.,FALSE
MATERIAL GERAL ANGIO,Ajuste Direto Regime Geral,Aquisição de bens móveis,"33000000-0, Equipamento médico, medicamentos e produtos para cuidados pessoais","Centro Hospitalar e Universitário de Coimbra, E. P. E. (510103448)","MED XRAY - SISTEMAS MEDICOS, LDA (506187071)","8.457,00 €",09-03-2018,23-02-2018,365 dias,"Portugal, Coimbra, Coimbra","Artigo 24.º, n.º 1, alínea e) do Código dos Contratos Públicos","","",,"",,Não aplicável.,Não aplicável.,FALSE
Reagentes para a Unidade de Cuidados Pós Anestesicos,Ajuste Direto Regime Geral,Aquisição de bens móveis,"33696500-0, Reagentes de laboratório","Centro Hospitalar e Universitário de Coimbra, E. P. E. (510103448)",werfen (501086110),"1.875,00 €",09-03-2018,16-12-2016,365 dias,"Portugal, Coimbra, Coimbra","Artigo 26.º, n.º 1, alínea a) do Código dos Contratos Públicos",31-12-2017,"1.875,00 €",,"",,Não aplicável.,Não aplicável.,FALSE
Reagentes para o Bloco Operatório do Hospital Pediatrico,Ajuste Direto Regime Geral,Aquisição de bens móveis,"33696500-0, Reagentes de laboratório","Centro Hospitalar e Universitário de Coimbra, E.P. (510103448)",RADIOMETER (980201667),"13.308,60 €",09-03-2018,16-12-2016,365 dias,"Portugal, Coimbra, Coimbra","Artigo 26.º, n.º 1, alínea a) do Código dos Contratos Públicos",31-12-2017,"13.308,60 €",,"",,Não aplicável.,Não aplicável.,FALSE
Serviços de formação 'lean'-2018,Ajuste Direto Regime Geral,Aquisição de serviços,"73000000-2, Serviços de investigação e desenvolvimento e serviços de consultoria conexos","Centro Hospitalar e Universitário de Coimbra, E. P. E. (510103448)",Pensamento Inesperado (510310591),"16.500,00 €",09-03-2018,12-02-2018,334 dias,"Portugal, Coimbra, Coimbra","Artigo 20.º, n.º 1, alínea a) do Código dos Contratos Públicos","","",,"",,Não aplicável.,Não aplicável.,FALSE
CAT SW GHAF e PREL-SPMS ref.00063_2018-ano 2018,Ajuste Direto Regime Geral,Aquisição de serviços,"72000000-5, Serviços de TI: consultoria, desenvolvimento de software, Internet e apoio","Centro Hospitalar e Universitário de Coimbra, E. P. E. (510103448)",ST+i (502246995),"20.750,00 €",09-03-2018,22-02-2018,365 dias,"Portugal, Coimbra, Coimbra","Artigo 24.º, n.º 1, alínea e) do Código dos Contratos Públicos","","",,"",,Não aplicável.,Não aplicável.,FALSE
CAT sistema PACS SYNGO(Radio.HUC.120)-SPMS ref.00179_2017-ano 2018,Ajuste Direto Regime Geral,Aquisição de serviços,"72000000-5, Serviços de TI: consultoria, desenvolvimento de software, Internet e apoio","Centro Hospitalar e Universitário de Coimbra, E. P. E. (510103448)",Siemens Healthcare (507925173),"106.776,96 €",09-03-2018,20-02-2018,365 dias,"Portugal, Coimbra, Coimbra","Artigo 24.º, n.º 1, alínea e) do Código dos Contratos Públicos","","",,"",,Não aplicável.,Não aplicável.,FALSE
CAT SW B-ICU-CARE(UCI.HP.32302)-SPMS ref.00182_2017-ano 2018,Ajuste Direto Regime Geral,Aquisição de serviços,"72000000-5, Serviços de TI: consultoria, desenvolvimento de software, Internet e apoio","Centro Hospitalar e Universitário de Coimbra, E. P. E. (510103448)",B-Simple (506188841),"41.000,00 €",09-03-2018,20-02-2018,365 dias,"Portugal, Coimbra, Coimbra","Artigo 24.º, n.º 1, alínea e) do Código dos Contratos Públicos","","",,"",,Não aplicável.,Não aplicável.,FALSE
Indicador Biológico para Autoclave,Ajuste Direto Regime Geral,Aquisição de bens móveis,"33000000-0, Equipamento médico, medicamentos e produtos para cuidados pessoais","Centro Hospitalar e Universitário de Coimbra, E. P. E. (510103448)",3M PORTUGAL LDA (500193940),"43.210,00 €",08-03-2018,10-01-2017,30 dias,"Portugal, Coimbra, Coimbra","Artigo 24.º, n.º 1, alínea e) do Código dos Contratos Públicos","","",,"",,Não aplicável.,Não aplicável.,FALSE
Ajuste Directo nº040001082016-Reagentes p/o Serviço de Sangue e Medicina Transfusional,Ajuste Direto Regime Geral,Aquisição de bens móveis,"33696500-0, Reagentes de laboratório","Centro Hospitalar e Universitário de Coimbra, E. P. E. (510103448)",Biognostica (504441256),"3.900,00 €",08-03-2018,13-01-2016,365 dias,"Portugal, Coimbra, Coimbra","Artigo 26.º, n.º 1, alínea a) do Código dos Contratos Públicos",31-12-2016,"3.900,00 €",,"",,Não aplicável.,Não aplicável.,FALSE
Ajuste Directo nº040001072016-Reagentes p/o Serviço de Sangue e Medicina Transfusional,Ajuste Direto Regime Geral,Aquisição de bens móveis,"33696500-0, Reagentes de laboratório","Centro Hospitalar e Universitário de Coimbra, E. P. E. (510103448)",Immucor  (503007358),"157.920,00 €",08-03-2018,01-03-2016,365 dias,"Portugal, Coimbra, Coimbra","Artigo 26.º, n.º 1, alínea a) do Código dos Contratos Públicos",31-12-2016,"157.920,00 €",,"",,Não aplicável.,Não aplicável.,FALSE
Cápsulas Endoscópicas,Ajuste Direto Regime Geral,Aquisição de bens móveis,"33000000-0, Equipamento médico, medicamentos e produtos para cuidados pessoais","Centro Hospitalar e Universitário de Coimbra, E. P. E. (510103448)","Medtronic Portugal,Lda (504223933)","54.000,00 €",08-03-2018,10-01-2017,30 dias,"Portugal, Coimbra, Coimbra","Artigo 24.º, n.º 1, alínea e) do Código dos Contratos Públicos","","",,"",,Não aplicável.,Não aplicável.,FALSE
040127472016 - Infliximab 100mg pó conc sol inj FR IV,Ajuste Direto Regime Geral,Aquisição de bens móveis,"33698000-9, Produtos para fins clínicos","Centro Hospitalar e Universitário de Coimbra, E. P. E. (510103448)",Merck Sharp & Dohme Lda (500191360),"64.750,00 €",08-03-2018,27-12-2016,180 dias,"Portugal, Coimbra, Coimbra","Artigo 24.º, n.º 1, alínea e) do Código dos Contratos Públicos",30-12-2016,"64.750,00 €",,"",,Não aplicável.,Não aplicável.,FALSE
040127392016 - Infliximab 100mg pó conc sol inj fr IV,Ajuste Direto Regime Geral,Aquisição de bens móveis,"33698000-9, Produtos para fins clínicos","Centro Hospitalar e Universitário de Coimbra, E. P. E. (510103448)",Merck Sharp & Dohme Lda (500191360),"64.750,00 €",08-03-2018,21-12-2016,180 dias,"Portugal, Coimbra, Coimbra","Artigo 24.º, n.º 1, alínea e) do Código dos Contratos Públicos",30-12-2016,"64.750,00 €",,"",,Não aplicável.,Não aplicável.,FALSE
OUTRO MATERIAL DE CONSUMO CLÍNICO Papel TNT,Ajuste Direto Regime Geral,Aquisição de bens móveis,"33000000-0, Equipamento médico, medicamentos e produtos para cuidados pessoais","Centro Hospitalar e Universitário de Coimbra, E. P. E. (510103448)","3M PORTUGAL, LDA (500193940)","34.920,00 €",08-03-2018,19-01-2017,30 dias,"Portugal, Coimbra, Coimbra","Artigo 24.º, n.º 1, alínea e) do Código dos Contratos Públicos","","",,"",,Não aplicável.,Não aplicável.,FALSE
OUTRO MATERIAL CONSUMO CLÍNICO Manga Mista; Papel Térmico Papel TNT,Ajuste Direto Regime Geral,Aquisição de bens móveis,"33000000-0, Equipamento médico, medicamentos e produtos para cuidados pessoais","Centro Hospitalar e Universitário de Coimbra, E. P. E. (510103448)","3M PORTUGAL, LDA (500193940)","50.301,08 €",08-03-2018,13-01-2017,30 dias,"Portugal, Coimbra, Coimbra","Artigo 24.º, n.º 1, alínea e) do Código dos Contratos Públicos","","",,"",,Não aplicável.,Não aplicável.,FALSE
Ajuste Directo nº040001062016-Reagentes p/o Serviço de Sangue e Medicina Transfusional,Ajuste Direto Regime Geral,Aquisição de bens móveis,"33696500-0, Reagentes de laboratório","Centro Hospitalar e Universitário de Coimbra, E. P. E. (510103448)",Iberlab & Imunoreage (503406694),"19.040,00 €",08-03-2018,26-02-2016,365 dias,"Portugal, Coimbra, Coimbra","Artigo 26.º, n.º 1, alínea a) do Código dos Contratos Públicos",31-12-2016,"19.040,00 €",,"",,Não aplicável.,Não aplicável.,FALSE
Ajuste Directo nº040001052016-Reagentes p/o Serviço de Sangue e Medicina Transfusional,Ajuste Direto Regime Geral,Aquisição de bens móveis,"33696500-0, Reagentes de laboratório","Centro Hospitalar e Universitário de Coimbra, E. P. E. (510103448)",Beckman Coulter (509035167),"106.105,14 €",08-03-2018,18-02-2016,365 dias,"Portugal, Coimbra, Coimbra","Artigo 26.º, n.º 1, alínea a) do Código dos Contratos Públicos",31-12-2016,"106.105,14 €",,"",,Não aplicável.,Não aplicável.,FALSE
040228792017 Material Consumo Clinico,Ajuste Direto Regime Geral,Aquisição de bens móveis,"33000000-0, Equipamento médico, medicamentos e produtos para cuidados pessoais","Centro Hospitalar e Universitário de Coimbra, E. P. E. (510103448)","MOONSURGE - IMPORT.  EXP. MATERIAL MEDICO,LDA (506657035)","5.880,00 €",07-03-2018,14-11-2017,60 dias,"Portugal, Coimbra, Coimbra","Artigo 24.º, n.º 1, alínea e) do Código dos Contratos Públicos","","",,"",,Não aplicável.,Não aplicável.,FALSE
Outro Material de Consumo Clínico Pinças; Rectosigmoidoscopios; Anuscópios ; Ansas; Escovilhão Sistema de clip,Ajuste Direto Regime Geral,Aquisição de bens móveis,"33000000-0, Equipamento médico, medicamentos e produtos para cuidados pessoais","Centro Hospitalar e Universitário de Coimbra, E. P. E. (510103448)","ALVES & Cª (IRMÃOS), LDA (500310068)","19.399,50 €",07-03-2018,28-01-2017,30 dias,"Portugal, Coimbra, Coimbra","Artigo 24.º, n.º 1, alínea e) do Código dos Contratos Públicos","","",,"",,Não aplicável.,Não aplicável.,FALSE
Sacos Descartável  para Aspirador de Rampa,Ajuste Direto Regime Geral,Aquisição de bens móveis,"33000000-0, Equipamento médico, medicamentos e produtos para cuidados pessoais","Centro Hospitalar e Universitário de Coimbra, E. P. E. (510103448)",AIR LIQUIDE HEALTHCARE (501576436),"13.500,00 €",07-03-2018,26-01-2017,30 dias,"Portugal, Coimbra, Coimbra","Artigo 24.º, n.º 1, alínea e) do Código dos Contratos Públicos","","",,"",,Não aplicável.,Não aplicável.,FALSE
Luvas de exame em nitrilo,Ajuste Direto Regime Geral,Aquisição de bens móveis,"33000000-0, Equipamento médico, medicamentos e produtos para cuidados pessoais","Centro Hospitalar e Universitário de Coimbra, E. P. E. (510103448)",EPJMÉDICA (506820513),"33.722,00 €",07-03-2018,10-01-2017,30 dias,"Portugal, Coimbra, Coimbra","Artigo 24.º, n.º 1, alínea e) do Código dos Contratos Públicos","","",,"",,Não aplicável.,Não aplicável.,FALSE
Ajuste Directo nº040001042016-Reagentes p/o Serviço de Sangue e Medicina Transfusional,Ajuste Direto Regime Geral,Aquisição de bens móveis,"33696500-0, Reagentes de laboratório","Centro Hospitalar e Universitário de Coimbra, E. P. E. (510103448)",Biomerieux Portugal (501524177),"40.315,90 €",07-03-2018,04-03-2016,365 dias,"Portugal, Coimbra, Coimbra","Artigo 26.º, n.º 1, alínea a) do Código dos Contratos Públicos",31-12-2016,"40.315,90 €",,"",,Não aplicável.,Não aplicável.,FALSE
Ajuste Directo nº040001032016-Reagentes p/o Serviço de Sangue e Medicina Transfusional,Ajuste Direto Regime Geral,Aquisição de bens móveis,"33696500-0, Reagentes de laboratório","Centro Hospitalar e Universitário de Coimbra, E. P. E. (510103448)",Bioportugal (502380543),"3.880,00 €",07-03-2018,15-01-2016,365 dias,"Portugal, Coimbra, Coimbra","Artigo 26.º, n.º 1, alínea a) do Código dos Contratos Públicos",31-12-2016,"3.880,00 €",,"",,Não aplicável.,Não aplicável.,FALSE
Ajuste Directo nº040001022016-Reagentes Biologia Molecular p/o Serviço de Sangue e Med. Transfusional,Ajuste Direto Regime Geral,Aquisição de bens móveis,"33696500-0, Reagentes de laboratório","Centro Hospitalar e Universitário de Coimbra, E. P. E. (510103448)",Citomed (503492043),"900,00 €",06-03-2018,15-01-2016,365 dias,"Portugal, Coimbra, Coimbra","Artigo 26.º, n.º 1, alínea a) do Código dos Contratos Públicos",31-12-2016,"900,00 €",,"",,Não aplicável.,Não aplicável.,FALSE
Ajuste Directo nº040001012016-Reagentes p/o Serviço de Sangue e Medicina Transfusional,Ajuste Direto Regime Geral,Aquisição de bens móveis,"33696500-0, Reagentes de laboratório","Centro Hospitalar e Universitário de Coimbra, E. P. E. (510103448)",Quilaban (500399670),"203.782,44 €",06-03-2018,04-03-2016,365 dias,"Portugal, Coimbra, Coimbra","Artigo 26.º, n.º 1, alínea a) do Código dos Contratos Públicos",31-12-2016,"203.782,44 €",,"",,Não aplicável.,Não aplicável.,FALSE
Material para Cirurgia Otognática,Concurso público,Aquisição de bens móveis,"33000000-0, Equipamento médico, medicamentos e produtos para cuidados pessoais","Centro Hospitalar e Universitário de Coimbra, E. P. E. (510103448)","MAFFINTER, MED, S.L. (B-83163337)","970,00 €",06-03-2018,09-12-2017,365 dias,"Portugal, Coimbra, Coimbra","Artigo 20.º, n.º 1, alínea b) do Código dos Contratos Públicos","","",,"",,Não aplicável.,Não aplicável.,FALSE
040208122017 - DIVERSO MATERIAL DE CONSUMO,Ajuste Direto Regime Geral,Aquisição de bens móveis,"33000000-0, Equipamento médico, medicamentos e produtos para cuidados pessoais","Centro Hospitalar e Universitário de Coimbra, E. P. E. (510103448)",LINDE SAUDE (500125546),"14.250,00 €",06-03-2018,07-03-2017,360 dias,"Portugal, Coimbra, Coimbra","Artigo 24.º, n.º 1, alínea e) do Código dos Contratos Públicos","","",,"",,Não aplicável.,Não aplicável.,FALSE
040204182017 - OSTEOSSINTESE,Ajuste Direto Regime Geral,Aquisição de bens móveis,"33000000-0, Equipamento médico, medicamentos e produtos para cuidados pessoais","Centro Hospitalar e Universitário de Coimbra, E. P. E. (510103448)",JOHNSON (500153370),"25.000,00 €",06-03-2018,17-03-2017,360 dias,"Portugal, Coimbra, Coimbra","Artigo 26.º, n.º 1, alínea a) do Código dos Contratos Públicos","","",,"",,Não aplicável.,Não aplicável.,FALSE
040204142017 - COLUNA,Ajuste Direto Regime Geral,Aquisição de bens móveis,"33000000-0, Equipamento médico, medicamentos e produtos para cuidados pessoais","Centro Hospitalar e Universitário de Coimbra, E. P. E. (510103448)",JOHNSON (500153370),"75.000,00 €",06-03-2018,10-03-2017,360 dias,"Portugal, Coimbra, Coimbra","Artigo 26.º, n.º 1, alínea a) do Código dos Contratos Públicos","","",,"",,Não aplicável.,Não aplicável.,FALSE
040200822017 - DIVERSO MATERIAL DE CONSUMO,Ajuste Direto Regime Geral,Aquisição de bens móveis,"33000000-0, Equipamento médico, medicamentos e produtos para cuidados pessoais","Centro Hospitalar e Universitário de Coimbra, E. P. E. (510103448)",INDAS (503505196),"73.228,32 €",06-03-2018,05-01-2017,360 dias,"Portugal, Coimbra, Coimbra","Artigo 24.º, n.º 1, alínea e) do Código dos Contratos Públicos","","",,"",,Não aplicável.,Não aplicável.,FALSE
040127202016 - Infliximab 100mg pó conc sol inj frs IV,Ajuste Direto Regime Geral,Aquisição de bens móveis,"33698000-9, Produtos para fins clínicos","Centro Hospitalar e Universitário de Coimbra, E. P. E. (510103448)",Merck Sharp & Dohme Lda (500191360),"64.750,00 €",06-03-2018,20-12-2016,180 dias,"Portugal, Coimbra, Coimbra","Artigo 24.º, n.º 1, alínea e) do Código dos Contratos Públicos",30-12-2016,"64.750,00 €",,"",,Não aplicável.,Não aplicável.,FALSE
040200832017 - OUTRO MATERIAL DE CONSUMO,Ajuste Direto Regime Geral,Aquisição de bens móveis,"33000000-0, Equipamento médico, medicamentos e produtos para cuidados pessoais","Centro Hospitalar e Universitário de Coimbra, E. P. E. (510103448)",INDAS (503505196),"68.889,60 €",06-03-2018,05-01-2017,360 dias,"Portugal, Coimbra, Coimbra","Artigo 24.º, n.º 1, alínea e) do Código dos Contratos Públicos","","",,"",,Não aplicável.,Não aplicável.,FALSE
040200852017 - DIVERSO MATERIAL DE CONSUMO,Ajuste Direto Regime Geral,Aquisição de bens móveis,"33000000-0, Equipamento médico, medicamentos e produtos para cuidados pessoais","Centro Hospitalar e Universitário de Coimbra, E. P. E. (510103448)",AVIQUIMICA (500039720),"49.964,80 €",06-03-2018,10-01-2017,360 dias,"Portugal, Coimbra, Coimbra","Artigo 24.º, n.º 1, alínea e) do Código dos Contratos Públicos","","",,"",,Não aplicável.,Não aplicável.,FALSE
040200802017 .- OUTRO MATERIAL DE CONSUMO,Ajuste Direto Regime Geral,Aquisição de bens móveis,"33000000-0, Equipamento médico, medicamentos e produtos para cuidados pessoais","Centro Hospitalar e Universitário de Coimbra, E. P. E. (510103448)",INDAS (503505196),"63.309,84 €",06-03-2018,05-01-2017,360 dias,"Portugal, Coimbra, Coimbra","Artigo 24.º, n.º 1, alínea e) do Código dos Contratos Públicos","","",,"",,Não aplicável.,Não aplicável.,FALSE
040200732017 - outro material de consumo,Ajuste Direto Regime Geral,Aquisição de bens móveis,"33000000-0, Equipamento médico, medicamentos e produtos para cuidados pessoais","Centro Hospitalar e Universitário de Coimbra, E. P. E. (510103448)",BASTOS VIEGAS (500042772),"57.272,46 €",06-03-2018,12-01-2017,360 dias,"Portugal, Coimbra, Coimbra","Artigo 24.º, n.º 1, alínea e) do Código dos Contratos Públicos","","",,"",,Não aplicável.,Não aplicável.,FALSE
040208832017 - COLUNA,Ajuste Direto Regime Geral,Aquisição de bens móveis,"33000000-0, Equipamento médico, medicamentos e produtos para cuidados pessoais","Centro Hospitalar e Universitário de Coimbra, E. P. E. (510103448)",NEUROWAVE (508537150),"75.000,00 €",06-03-2018,17-03-2017,360 dias,"Portugal, Coimbra, Coimbra","Artigo 24.º, n.º 1, alínea e) do Código dos Contratos Públicos",29-12-2017,"3.428.385,00 €",,AS NOTAS DE ENCOMENDA SAO EMITIDAS DE ACORDO COM AS CIRURGIAS REALIZADAS,,Não aplicável.,Não aplicável.,FALSE
Outro Material de Consumo Clínico - 040200082017 Ventosas;Sacos de Borracha   agua quente e Gelo; Fato Bylibe e Mantas térmicas,Ajuste Direto Regime Geral,Aquisição de bens móveis,"33000000-0, Equipamento médico, medicamentos e produtos para cuidados pessoais","Centro Hospitalar e Universitário de Coimbra, E. P. E. (510103448)","Bacelar & Irmão, Lda (500532818)","41.558,40 €",06-03-2018,26-01-2017,30 dias,"Portugal<BR/>Portugal, Coimbra, Coimbra","Artigo 24.º, n.º 1, alínea a) do Código dos Contratos Públicos","","",,"",,Não aplicável.,Não aplicável.,FALSE
Roupa de Cama,Concurso público,Aquisição de bens móveis,"39512100-5, Lençóis<BR/>39512000-4, Roupa de cama<BR/>39516110-6, Almofadas<BR/>39512500-9, Fronhas para almofadas","Centro Hospitalar e Universitário de Coimbra, E.P. (510103448)","TEXTEIS EVARISTO SAMPAIO, S.A. (501268073), MEILEX, LDA (501759441), RIBEIRO & CARLOS, LDA (502383542)","93.929,50 €",06-03-2018,29-01-2018,300 dias,"Portugal, Coimbra, Coimbra","Artigo 20.º, n.º 1, alínea b) do Código dos Contratos Públicos","","",,"",,Não aplicável.,Não aplicável.,FALSE
Fumarato de Dimetilo 240mg caps GR,Ajuste Direto Regime Geral,Aquisição de bens móveis,"33698000-9, Produtos para fins clínicos","Centro Hospitalar e Universitário de Coimbra, E. P. E. (510103448)",Biogen Portugal Lda (506415740),"48.154,61 €",06-03-2018,16-12-2016,180 dias,"Portugal, Coimbra, Coimbra","Artigo 24.º, n.º 1, alínea e) do Código dos Contratos Públicos",30-12-2016,"48.154,61 €",,"",,Não aplicável.,Não aplicável.,FALSE
Fardas de Bloco,Concurso público,Aquisição de bens móveis,"39518000-6, Roupa para uso hospitalar","Centro Hospitalar e Universitário de Coimbra, E. P. E. (510103448)","MEILEX, LDA (501759441)","63.580,00 €",06-03-2018,14-02-2018,300 dias,"Portugal, Coimbra, Coimbra","Artigo 20.º, n.º 1, alínea b) do Código dos Contratos Públicos","","",,"",,Não aplicável.,Não aplicável.,FALSE
Cardioversor camara única Cardioversor CRTD Cardioversor  dupla camara,Ajuste Direto Regime Geral,Aquisição de bens móveis,"33182210-4, Estimulador cardíaco (pacemaker)","Centro Hospitalar e Universitário de Coimbra, E. P. E. (510103448)",MEDTRONIC PORTUGAL LDA (504223933),"189.450,00 €",05-03-2018,24-01-2018,20 dias,"Portugal, Coimbra, Coimbra","Artigo 24.º, n.º 1, alínea c) do Código dos Contratos Públicos","","",,"",,Não aplicável.,Não aplicável.,FALSE
Sistemas de pacemakers VDR Sistemas de pacemakers CRTP Sistemas de pacemakers  dupla camara,Ajuste Direto Regime Geral,Aquisição de bens móveis,"33182210-4, Estimulador cardíaco (pacemaker)","Centro Hospitalar e Universitário de Coimbra, E. P. E. (510103448)","MEDTRONIC PORTUGAL, LDA. (504223933)","59.000,00 €",05-03-2018,24-01-2018,20 dias,"Portugal, Coimbra, Coimbra","Artigo 21.º, n.º 1, alínea c) do Código dos Contratos Públicos","","",,"",,Não aplicável.,Não aplicável.,FALSE
Ajuste Directo nº040001002016-Reagentes p/o Serviço de Sangue e Medicina Transfusional,Ajuste Direto Regime Geral,Aquisição de bens móveis,"33696500-0, Reagentes de laboratório","Centro Hospitalar e Universitário de Coimbra, E.P. (510103448)","Bioportugal (502380543), Isoder (502241594)","3.528,00 €",05-03-2018,13-01-2016,365 dias,"Portugal, Coimbra, Coimbra","Artigo 20.º, n.º 1, alínea a) do Código dos Contratos Públicos",31-12-2016,"3.528,00 €",,"",,Não aplicável.,Não aplicável.,FALSE
"Aquisição de serviços de seguro de acidentes de trabalho para os colaboradores do CHUC, E.P.E.",Concurso público,Aquisição de serviços,"66512100-3, Serviços de seguros de acidentes","Centro Hospitalar e Universitário de Coimbra, E. P. E. (510103448)","Seguradoras Unidas, S.A. (500940231)","683.367,60 €",05-03-2018,21-02-2018,306 dias,"Portugal, Coimbra, Coimbra","Artigo 20.º, n.º 1, alínea b) do Código dos Contratos Públicos","","",,"",,Não aplicável.,Não aplicável.,FALSE
Ajuste Directo nº040000992016-Reagentes p/o Serviço de Sangue e Medicina Transfusional,Ajuste Direto Regime Geral,Aquisição de bens móveis,"33696500-0, Reagentes de laboratório","Centro Hospitalar e Universitário de Coimbra, E. P. E. (510103448)","Diasorin (980379563), Bio-Rad (501301321)","3.332,16 €",05-03-2018,13-01-2016,365 dias,"Portugal, Coimbra, Coimbra","Artigo 20.º, n.º 1, alínea a) do Código dos Contratos Públicos",31-12-2016,"3.332,16 €",,"",,Não aplicável.,Não aplicável.,FALSE
Ajuste Directo nº040000982016-Reagentes (Virologia) p/o Serviço de Sangue e Medicina Transfusional,Ajuste Direto Regime Geral,Aquisição de bens móveis,"33696500-0, Reagentes de laboratório","Centro Hospitalar e Universitário de Coimbra, E.P. (510103448)","Quilaban (500399670), Bio-Rad (501301321)","18.565,20 €",05-03-2018,31-12-2016,365 dias,"Portugal, Coimbra, Coimbra","Artigo 20.º, n.º 1, alínea a) do Código dos Contratos Públicos",31-12-2016,"18.565,20 €",,"",,Não aplicável.,Não aplicável.,FALSE
Ajuste Directo nº040000702016-Reagentes p/Histoquimica p/o Serviço de Anatomia Patológica,Ajuste Direto Regime Geral,Aquisição de bens móveis,"33696500-0, Reagentes de laboratório","Centro Hospitalar e Universitário de Coimbra, E. P. E. (510103448)","Leica (500301921), VWR International (503842770), Proclinica (500222665), Olympus (980474710), Enzymatic (510662625)","23.157,00 €",05-03-2018,12-02-2016,365 dias,"Portugal, Coimbra, Coimbra","Artigo 20.º, n.º 1, alínea a) do Código dos Contratos Públicos",31-12-2016,"23.157,00 €",,"",,Não aplicável.,Não aplicável.,FALSE
040201162018 - Material de Consumo Clinico,Ajuste Direto Regime Geral,Aquisição de bens móveis,"33000000-0, Equipamento médico, medicamentos e produtos para cuidados pessoais","Centro Hospitalar e Universitário de Coimbra, E. P. E. (510103448)","SARSTEDT - TECNOLOGIA DE LABORATORIO,LDA (503019461)","9.547,00 €",05-03-2018,11-01-2018,365 dias,"Portugal, Coimbra, Coimbra","Artigo 24.º, n.º 1, alínea e) do Código dos Contratos Públicos","","",,"",,Não aplicável.,Não aplicável.,FALSE
040203322018   Material de Consumo clinico,Ajuste Direto Regime Geral,Aquisição de bens móveis,"33000000-0, Equipamento médico, medicamentos e produtos para cuidados pessoais","Centro Hospitalar e Universitário de Coimbra, E. P. E. (510103448)","ALBINO DIAS ANDRADE, LDA (500013810)","9.922,00 €",05-03-2018,19-01-2018,365 dias,"Portugal, Coimbra, Coimbra","Artigo 24.º, n.º 1, alínea e) do Código dos Contratos Públicos","","",,"",,Não aplicável.,Não aplicável.,FALSE
