Objeto do Contrato,Tipo de Procedimento,Tipo(s) de Contrato,CPVs,Entidade(s) Adjudicante(s),Entidade(s) Adjudicatária(s),Preço Contratual,Data de Publicação,Data de Celebração do Contrato,Prazo de Execução,Local de Execução,Fundamentação,Data de Fecho do Contrato,Preço Total Efetivo,Causas das Alterações ao Prazo,Causas das Alterações ao Preço,Estado,N.º registo do Acordo Quadro,Descrição do Acordo Quadro,Procedimento Centralizado
PREDNISOLONA PÓ - SOL. INJ. DE 50MG E DE 250MG,Ajuste Direto Regime Geral,Outros Tipos (artº 26 al. e) nº 1),"33692500-2, Soluções injectáveis","Administração Regional de Saúde de Lisboa e Vale do Tejo, I.P. (503148776)","MERCK, S.A. (500650870)","42.852,00 €",03-03-2011,25-02-2011,4 dias,"Portugal, Lisboa, Lisboa","Artigo 26.º, n.º 1, alínea e) do Código dos Contratos Públicos","","",,,,Não aplicável.,Não aplicável.,
CARBOXIMETILCELULOSE SODICA COM PRATA 10X10,Ajuste Direto Regime Geral,Outros Tipos (artº 26 al. e) nº 1),"33141110-4, Pensos","Administração Regional de Saúde de Lisboa e Vale do Tejo, I.P. (503148776)","KVTECH PORTUGAL, Lda. (Convatec) (508671531)","856.320,00 €",03-03-2011,23-02-2011,2 dias,"Portugal, Lisboa, Lisboa","Artigo 26.º, n.º 1, alínea e) do Código dos Contratos Públicos","","",,,,Não aplicável.,Não aplicável.,
CARBOXIMETILCELULOSE SODICA 10X10,Ajuste Direto Regime Geral,Outros Tipos (artº 26 al. e) nº 1),"33141110-4, Pensos","Administração Regional de Saúde de Lisboa e Vale do Tejo, I.P. (503148776)","KVTECH PORTUGAL, Lda. (Convatec) (508671531)","321.666,00 €",03-03-2011,23-02-2011,2 dias,"Portugal, Lisboa, Lisboa","Artigo 26.º, n.º 1, alínea e) do Código dos Contratos Públicos","","",,,,Não aplicável.,Não aplicável.,
POLIURETANO S/ REBORDO NÃO ADES 10X10,Ajuste Direto Regime Geral,Outros Tipos (artº 26 al. e) nº 1),"33141110-4, Pensos","Administração Regional de Saúde de Lisboa e Vale do Tejo, I.P. (503148776)","SMITH & NEPHEW, Lda. (503552461)","90.600,00 €",03-03-2011,22-02-2011,1 dias,"Portugal, Lisboa, Lisboa","Artigo 26.º, n.º 1, alínea e) do Código dos Contratos Públicos","","",,,,Não aplicável.,Não aplicável.,
POLIURETANO SACROCOCCIGEO C/ REBORDO ADES 18X18,Ajuste Direto Regime Geral,Outros Tipos (artº 26 al. e) nº 1),"33141111-1, Pensos adesivos","Administração Regional de Saúde de Lisboa e Vale do Tejo, I.P. (503148776)","SMITH & NEPHEW, Lda. (503552461)","245.000,00 €",03-03-2011,22-02-2011,1 dias,"Portugal, Lisboa, Lisboa","Artigo 26.º, n.º 1, alínea e) do Código dos Contratos Públicos","","",,,,Não aplicável.,Não aplicável.,
GAZE PARAFINADA 10X10,Ajuste Direto Regime Geral,Outros Tipos (artº 26 al. e) nº 1),"33141119-7, Compressas","Administração Regional de Saúde de Lisboa e Vale do Tejo, I.P. (503148776)","SMITH & NEPHEW, Lda. (503552461)","20.424,00 €",03-03-2011,22-02-2011,1 dias,"Portugal, Lisboa, Lisboa","Artigo 26.º, n.º 1, alínea e) do Código dos Contratos Públicos","","",,,,Não aplicável.,Não aplicável.,
"GAZE IMPREGNADA COM VASELINA 7,5X7,5 (ADAPTIC)",Ajuste Direto Regime Geral,Outros Tipos (artº 26 al. e) nº 1),"33141119-7, Compressas","Administração Regional de Saúde de Lisboa e Vale do Tejo, I.P. (503148776)",SYSTAGENIX WOUND MANAGEMENT (SPAIN) - SUCURSAL EM PORTUGAL (980402298),"6.750,00 €",03-03-2011,22-02-2011,1 dias,"Portugal, Lisboa, Lisboa","Artigo 26.º, n.º 1, alínea e) do Código dos Contratos Públicos","","",,,,Não aplicável.,Não aplicável.,
ALGINATO CALCIO C/ PRATA S/ REBORDO 10X10,Ajuste Direto Regime Geral,Outros Tipos (artº 26 al. e) nº 1),"33141110-4, Pensos","Administração Regional de Saúde de Lisboa e Vale do Tejo, I.P. (503148776)","3M PORTUGAL, Lda. (500193940)","131.600,00 €",03-03-2011,15-02-2011,2 dias,"Portugal, Lisboa, Lisboa","Artigo 26.º, n.º 1, alínea e) do Código dos Contratos Públicos","","",,,,Não aplicável.,Não aplicável.,
ALGINATO CALCIO 10X10,Ajuste Direto Regime Geral,Outros Tipos (artº 26 al. e) nº 1),"33141110-4, Pensos","Administração Regional de Saúde de Lisboa e Vale do Tejo, I.P. (503148776)","SMITH & NEPHEW, Lda. (503552461)","103.028,00 €",03-03-2011,15-02-2011,1 dias,"Portugal, Lisboa, Lisboa","Artigo 26.º, n.º 1, alínea e) do Código dos Contratos Públicos","","",,,,Não aplicável.,Não aplicável.,
Reparação do esterilizador do CS de Alcanena,Ajuste Direto Regime Geral,Aquisição de serviços,"50000000-5, Serviços de reparação e manutenção","Administração Regional de Saúde de Lisboa e Vale do Tejo, I.P. (503148776)",STERYL SER (508051711),"352,00 €",02-03-2011,20-01-2011,1 dias,"Portugal, Santarém, Alcanena","Artigo 24.º, n.º 1, alínea e) do Código dos Contratos Públicos",20-01-2011,"352,00 €",,,,Não aplicável.,Não aplicável.,
Aquisição de oxigénio medicinal garrafa 50L e oxigénio medicinal Compact BB5,Ajuste Direto Regime Geral,Aquisição de bens móveis,"24111900-4, Oxigénio","Administração Regional de Saúde de Lisboa e Vale do Tejo, I.P. (503148776)",Air Liquide (501576436),"225,60 €",02-03-2011,19-01-2011,1 dias,"Portugal, Santarém, Ourém","Artigo 24.º, n.º 1, alínea e) do Código dos Contratos Públicos",19-01-2011,"225,60 €",,,,Não aplicável.,Não aplicável.,
POLIURETANO PELICULA TRANSPARENTE ADESIVA 10M X 10M - ROLO,Ajuste Direto Regime Geral,Outros Tipos (artº 26 al. e) nº 1),"33141111-1, Pensos adesivos","Administração Regional de Saúde de Lisboa e Vale do Tejo, I.P. (503148776)","3M PORTUGAL, Lda. (500193940)","80.000,00 €",02-03-2011,22-02-2011,2 dias,"Portugal, Lisboa, Lisboa","Artigo 26.º, n.º 1, alínea e) do Código dos Contratos Públicos","","",,,,Não aplicável.,Não aplicável.,
HIDROGEL - GEL (Bisnaga),Ajuste Direto Regime Geral,Outros Tipos (artº 26 al. e) nº 1),"33690000-3, Medicamentos vários","Administração Regional de Saúde de Lisboa e Vale do Tejo, I.P. (503148776)","3M PORTUGAL, Lda. (500193940)","72.022,50 €",02-03-2011,22-02-2011,2 dias,"Portugal, Lisboa, Lisboa","Artigo 26.º, n.º 1, alínea e) do Código dos Contratos Públicos","","",,,,Não aplicável.,Não aplicável.,
Aquisição de equipamento audio visual para a USF Eça de Queiróz - ACES Arco Ribeirinho.,Ajuste Direto Regime Geral,Aquisição de bens móveis,"30230000-0, Equipamento informático","Administração Regional de Saúde de Lisboa e Vale do Tejo, I.P. (503148776)",Absolutus  Lda (503703745),"867,40 €",02-03-2011,16-02-2011,1 dias,"Portugal, Setúbal, Barreiro","Artigo 1.º do Decreto-Lei n.º 48/2008, de 13.03","","",,,,Não aplicável.,Não aplicável.,
"POLIURETANO C/ REBORDO ADESIVADO 9,5 X 9,5",Ajuste Direto Regime Geral,Outros Tipos (artº 26 al. e) nº 1),"33141111-1, Pensos adesivos","Administração Regional de Saúde de Lisboa e Vale do Tejo, I.P. (503148776)",SYSTAGENIX WOUND MANAGEMENT (SPAIN) - SUCURSAL EM PORTUGAL (980402298),"141.075,00 €",02-03-2011,22-02-2011,1 dias,"Portugal, Lisboa, Lisboa","Artigo 26.º, n.º 1, alínea e) do Código dos Contratos Públicos","","",,,,Não aplicável.,Não aplicável.,
LUVAS LATEX NÃO ESTERILIZADAS DIVERSAS,Ajuste Direto Regime Geral,Outros Tipos (artº 26 al. e) nº 1),"18424300-0, Luvas descartáveis","Administração Regional de Saúde de Lisboa e Vale do Tejo, I.P. (503148776)","VWR INTERNATIONAL, Lda. (503842770)","199.800,00 €",02-03-2011,15-02-2011,5 dias,"Portugal, Lisboa, Lisboa","Artigo 26.º, n.º 1, alínea e) do Código dos Contratos Públicos","","",,,,Não aplicável.,Não aplicável.,
Aquisição de equipamento médico para a USF Eça de Queiróz - ACES Arco Ribeirinho.,Ajuste Direto Regime Geral,Aquisição de bens móveis,"33100000-1, Equipamento médico","Administração Regional de Saúde de Lisboa e Vale do Tejo, I.P. (503148776)",M.M. Cunha Lda (507374843),"2.184,62 €",02-03-2011,22-02-2011,30 dias,"Portugal, Setúbal, Barreiro","Artigo 1.º do Decreto-Lei n.º 48/2008, de 13.03","","",,,,Não aplicável.,Não aplicável.,
"POLIURETANO C/ REBORDO ADESIVADO 14,5 X 14,5",Ajuste Direto Regime Geral,Outros Tipos (artº 26 al. e) nº 1),"33141111-1, Pensos adesivos","Administração Regional de Saúde de Lisboa e Vale do Tejo, I.P. (503148776)",SYSTAGENIX WOUND MANAGEMENT (SPAIN) - SUCURSAL DE PORTUGAL (980402298),"256.500,00 €",02-03-2011,22-02-2011,1 dias,"Portugal, Lisboa, Lisboa","Artigo 26.º, n.º 1, alínea e) do Código dos Contratos Públicos","","",,,,Não aplicável.,Não aplicável.,
Aquisição de equipamento para a USF Eça de Queiróz - ACES Arco Ribeirinho.,Ajuste Direto Regime Geral,Aquisição de bens móveis,"33100000-1, Equipamento médico","Administração Regional de Saúde de Lisboa e Vale do Tejo, I.P. (503148776)",Speculum SA (502996323),"230,00 €",02-03-2011,17-02-2011,20 dias,"Portugal, Setúbal, Barreiro","Artigo 1.º do Decreto-Lei n.º 48/2008, de 13.03","","",,,,Não aplicável.,Não aplicável.,
Aquisição de mobiliário médico para a USF Eça de Queiróz - ACES Arco Ribeirinho.,Ajuste Direto Regime Geral,Aquisição de bens móveis,"33192000-2, Mobiliário para fins médicos","Administração Regional de Saúde de Lisboa e Vale do Tejo, I.P. (503148776)",Eugenio Pereira Lda (503989525),"5.095,00 €",02-03-2011,16-02-2011,15 dias,"Portugal, Lisboa, Odivelas","Artigo 1.º do Decreto-Lei n.º 48/2008, de 13.03","","",,,,Não aplicável.,Não aplicável.,
Aquisição de equipamento para a USF Eça de Queiróz - ACES Arco Ribeirinho.,Ajuste Direto Regime Geral,Aquisição de bens móveis,"33100000-1, Equipamento médico","Administração Regional de Saúde de Lisboa e Vale do Tejo, I.P. (503148776)",Dignum Lda (509569188),"160,00 €",02-03-2011,17-02-2011,15 dias,"Portugal, Setúbal, Barreiro","Artigo 1.º do Decreto-Lei n.º 48/2008, de 13.03","","",,,,Não aplicável.,Não aplicável.,
Aquisição de Mobiliário médico para a USF Eça de Queiróz - ACES Arco Ribeirinho.,Ajuste Direto Regime Geral,Aquisição de bens móveis,"33192000-2, Mobiliário para fins médicos","Administração Regional de Saúde de Lisboa e Vale do Tejo, I.P. (503148776)",Ergotec Lda (503455105),"1.577,48 €",02-03-2011,22-02-2011,20 dias,"Portugal, Setúbal, Barreiro","Artigo 1.º do Decreto-Lei n.º 48/2008, de 13.03","","",,,,Não aplicável.,Não aplicável.,
Aquisição de equipamento de fisioterapia para a USF Eça de Queiróz - ACES Arco Ribeirinho.,Ajuste Direto Regime Geral,Aquisição de bens móveis,"33192000-2, Mobiliário para fins médicos","Administração Regional de Saúde de Lisboa e Vale do Tejo, I.P. (503148776)",Sorisa SA (500990441),"1.342,38 €",02-03-2011,16-02-2011,30 dias,"Portugal, Setúbal, Barreiro","Artigo 1.º do Decreto-Lei n.º 48/2008, de 13.03","","",,,,Não aplicável.,Não aplicável.,
"Cloreto de Sódio 0,9% para irrigação - 45ml",Concurso público,Aquisição de bens móveis,"33000000-0, Equipamento médico, medicamentos e produtos para cuidados pessoais","Administração Regional de Saúde de Lisboa e Vale do Tejo, I.P. (503148776)","OVERPHARMA - Produtos Médicos e Farmacêuticos, Lda. (505792362)","60.200,00 €",01-03-2011,26-11-2010,2 dias,"Portugal, Lisboa, Lisboa","Artigo 155.º, alínea a) do Código dos Contratos Públicos","","",,,,Não aplicável.,Não aplicável.,
DINITRATO DE ISOSSORBIDA COMP. 5MG,Ajuste Direto Regime Geral,Outros Tipos (artº 26 al. e) nº 1),"33690000-3, Medicamentos vários","Administração Regional de Saúde de Lisboa e Vale do Tejo, I.P. (503148776)","LAB. VITORIA, S.A. (500162220)","208,26 €",01-03-2011,23-02-2011,5 dias,"Portugal, Lisboa, Lisboa","Artigo 26.º, n.º 1, alínea e) do Código dos Contratos Públicos","","",,,,Não aplicável.,Não aplicável.,
REAGENTES DIVERSOS PARA BIOQUIMICA/IMUNOQUIMICA,Ajuste Direto Regime Geral,Outros Tipos (artº 24 al. e) nº 1),"33696500-0, Reagentes de laboratório","Administração Regional de Saúde de Lisboa e Vale do Tejo, I.P. (503148776)","ROCHE - Sistemas Diagnostico Soc. Unipessoal, Lda. (504282921)","1.814,24 €",01-03-2011,25-02-2011,3 dias,"Portugal, Lisboa, Lisboa","Artigo 24.º, n.º 1, alínea e) do Código dos Contratos Públicos","","",,,,Não aplicável.,Não aplicável.,
HIDROXIZINA COMP 25MG,Ajuste Direto Regime Geral,Outros Tipos (artº 26 al. e) nº 1),"33690000-3, Medicamentos vários","Administração Regional de Saúde de Lisboa e Vale do Tejo, I.P. (503148776)","UCB PHARMA, Lda. (500291322)","380,82 €",01-03-2011,25-02-2011,1 dias,"Portugal, Lisboa, Lisboa","Artigo 26.º, n.º 1, alínea e) do Código dos Contratos Públicos","","",,,,Não aplicável.,Não aplicável.,
Aquisição de Linha de Sutura Sintetica Absorvível Atraumática Lanceolada 4/0,Ajuste Direto Regime Geral,Aquisição de bens móveis,"33140000-3, Material médico de consumo","Administração Regional de Saúde de Lisboa e Vale do Tejo, I.P. (503148776)","Johnson & Johnson, Lda (500153370)","1.843,20 €",01-03-2011,21-02-2011,30 dias,"Portugal, Lisboa, Lisboa","Artigo 24.º, n.º 1, alínea e) do Código dos Contratos Públicos","","",,,,Não aplicável.,Não aplicável.,
Aquisição de Bicarbonato de NA Inj 84mg/ml - 20ml,Ajuste Direto Regime Geral,Aquisição de bens móveis,"33140000-3, Material médico de consumo","Administração Regional de Saúde de Lisboa e Vale do Tejo, I.P. (503148776)","B Braun Medical, Lda (501506543)","86,85 €",01-03-2011,24-02-2011,30 dias,"Portugal, Lisboa, Lisboa","Artigo 26.º, n.º 1, alínea e) do Código dos Contratos Públicos","","",,,,Não aplicável.,Não aplicável.,
NANOCRISTALINO DE PRATA 10X10,Ajuste Direto Regime Geral,Outros Tipos (artº 26 al. e) nº 1),"33141110-4, Pensos","Administração Regional de Saúde de Lisboa e Vale do Tejo, I.P. (503148776)","SMITH & NEPHEW, Lda. (503552461)","673,92 €",28-02-2011,22-02-2011,1 dias,"Portugal, Lisboa, Lisboa","Artigo 26.º, n.º 1, alínea e) do Código dos Contratos Públicos","","",,,,Não aplicável.,Não aplicável.,
IBUPROFENO COMP 400MG,Ajuste Direto Regime Geral,Outros Tipos (artº 26 al. e) nº 1),"33690000-3, Medicamentos vários","Administração Regional de Saúde de Lisboa e Vale do Tejo, I.P. (503148776)",LAB. MEDINFAR (500384045),"735,00 €",28-02-2011,23-02-2011,5 dias,"Portugal, Lisboa, Lisboa","Artigo 26.º, n.º 1, alínea e) do Código dos Contratos Públicos","","",,,,Não aplicável.,Não aplicável.,
Reparação de AVAC - UCSP Constância,Ajuste Direto Regime Geral,Aquisição de serviços,"50000000-5, Serviços de reparação e manutenção","Administração Regional de Saúde de Lisboa e Vale do Tejo, I.P. (503148776)",SUCH-Serviço de Utilização Comum Hospitais (500900469),"1.604,52 €",25-02-2011,03-01-2011,10 dias,"Portugal, Santarém, Constancia","Artigo 24.º, n.º 1, alínea e) do Código dos Contratos Públicos","","",,,,Não aplicável.,Não aplicável.,
Reparação de AVAC - UCSP Constância,Ajuste Direto Regime Geral,Aquisição de serviços,"50000000-5, Serviços de reparação e manutenção","Administração Regional de Saúde de Lisboa e Vale do Tejo, I.P. (503148776)",SUCH- Serviço de Utilização Comum Hospitais (500900469),"81,84 €",25-02-2011,03-01-2011,10 dias,"Portugal, Santarém, Constancia","Artigo 24.º, n.º 1, alínea e) do Código dos Contratos Públicos","","",,,,Não aplicável.,Não aplicável.,
Reparação de AVAC - UCSP Sardoal,Ajuste Direto Regime Geral,Aquisição de serviços,"50000000-5, Serviços de reparação e manutenção","Administração Regional de Saúde de Lisboa e Vale do Tejo, I.P. (503148776)",SUCH-Serviço de Utilização Comum Hospitais (500900469),"4.791,98 €",25-02-2011,03-01-2011,10 dias,"Portugal, Santarém, Sardoal","Artigo 24.º, n.º 1, alínea e) do Código dos Contratos Públicos","","",,,,Não aplicável.,Não aplicável.,
Reparação de AVAC - UCSP Abrantes,Ajuste Direto Regime Geral,Aquisição de serviços,"50000000-5, Serviços de reparação e manutenção","Administração Regional de Saúde de Lisboa e Vale do Tejo, I.P. (503148776)",SUCH-Serviço de Utilização Comum Hospitais (500900469),"31,44 €",25-02-2011,03-01-2011,10 dias,"Portugal, Santarém, Abrantes","Artigo 24.º, n.º 1, alínea e) do Código dos Contratos Públicos","","",,,,Não aplicável.,Não aplicável.,
Reparação de AVAC - UCSP Ferreira do Zêzere,Ajuste Direto Regime Geral,Aquisição de serviços,"50000000-5, Serviços de reparação e manutenção","Administração Regional de Saúde de Lisboa e Vale do Tejo, I.P. (503148776)",SUCH- Serviço de Utilização Comum Hospitais (500900469),"217,31 €",25-02-2011,03-01-2011,10 dias,"Portugal, Santarém, Ferreira do Zezere","Artigo 24.º, n.º 1, alínea e) do Código dos Contratos Públicos","","",,,,Não aplicável.,Não aplicável.,
Comunicações Fixas de Voz - UCSP Vila Nova da Barquinha,Ajuste Direto Regime Geral,Aquisição de serviços,"64200000-8, Serviços de telecomunicações","Administração Regional de Saúde de Lisboa e Vale do Tejo, I.P. (503148776)","PT Comunicações,S.A. (504615947)","5.691,06 €",24-02-2011,03-01-2011,365 dias,"Portugal, Santarém, Vila Nova da Barquinha","Artigo 24.º, n.º 1, alínea e) do Código dos Contratos Públicos","","",,,,Não aplicável.,Não aplicável.,
Comunicações Fixas de Voz - UAG,Ajuste Direto Regime Geral,Aquisição de serviços,"64200000-8, Serviços de telecomunicações","Administração Regional de Saúde de Lisboa e Vale do Tejo, I.P. (503148776)","PT Comunicações,S.A. (504615947)","6.747,97 €",24-02-2011,03-01-2011,365 dias,"Portugal, Santarém, Constancia","Artigo 24.º, n.º 1, alínea e) do Código dos Contratos Públicos","","",,,,Não aplicável.,Não aplicável.,
LUVA IRRECUPERAVEL N/ ESTERILIZADA,Ajuste Direto Regime Geral,Outros Tipos (artº 26 al. e) nº 1),"18424300-0, Luvas descartáveis","Administração Regional de Saúde de Lisboa e Vale do Tejo, I.P. (503148776)","PERGUT PORTUGAL, Lda. (501799729)","46.500,00 €",24-02-2011,15-02-2011,5 dias,"Portugal, Lisboa, Lisboa","Artigo 26.º, n.º 1, alínea e) do Código dos Contratos Públicos","","",,,,Não aplicável.,Não aplicável.,
PENSOS ABSORVENTES NÃO ADESIVADOS NÃO ESTERILIZADOS - DIVERSOS,Ajuste Direto Regime Geral,Outros Tipos (artº 26 al. e) nº 1),"33141110-4, Pensos","Administração Regional de Saúde de Lisboa e Vale do Tejo, I.P. (503148776)","BASTOS VIEGAS, S.A. (500042772)","15.523,15 €",24-02-2011,15-02-2011,15 dias,"Portugal, Lisboa, Lisboa","Artigo 26.º, n.º 1, alínea e) do Código dos Contratos Públicos","","",,,,Não aplicável.,Não aplicável.,
"CARVÃO ACTIVADO C/ PRATA 10,5X10,5",Ajuste Direto Regime Geral,Outros Tipos (artº 26 al. e) nº 1),"33141110-4, Pensos","Administração Regional de Saúde de Lisboa e Vale do Tejo, I.P. (503148776)",SYSTAGENIX WOUND MANAGEMENT (SPAIN) - SUC. PORTUGAL (980402298),"341.000,00 €",24-02-2011,15-02-2011,1 dias,"Portugal, Lisboa, Lisboa","Artigo 26.º, n.º 1, alínea e) do Código dos Contratos Públicos","","",,,,Não aplicável.,Não aplicável.,
Aquisição de Cassetes para Signature,Ajuste Direto Regime Geral,Aquisição de bens móveis,"33662100-9, Medicamentos usados em oftalmologia","Administração Regional de Saúde de Lisboa e Vale do Tejo, I.P. (503148776)",Abbott Medical Optics Spain SL (980262364),"29.250,00 €",24-02-2011,14-02-2011,30 dias,"Portugal, Lisboa, Lisboa","Artigo 20.º, n.º 1, alínea a) do Código dos Contratos Públicos","","",,,,Não aplicável.,Não aplicável.,
"COLAGENASE POM 0,6U/g",Ajuste Direto Regime Geral,Outros Tipos (artº 26 al. e) nº 1),"33690000-3, Medicamentos vários","Administração Regional de Saúde de Lisboa e Vale do Tejo, I.P. (503148776)","SMITH & NEPHEW, Lda. (503552461)","63.928,00 €",24-02-2011,02-02-2011,1 dias,"Portugal, Lisboa, Lisboa","Artigo 26.º, n.º 1, alínea e) do Código dos Contratos Públicos","","",,,,Não aplicável.,Não aplicável.,
Gás propano  a granel para para caldeira de aquecimento,Ajuste Direto Regime Geral,Aquisição de serviços,"09122100-1, Gás propano","Administração Regional de Saúde de Lisboa e Vale do Tejo, I.P. (503148776)",Petrogal- Petróleos de Portugal.S.A. (500697370),"1.176,24 €",24-02-2011,05-01-2011,1 dias,"Portugal, Santarém, Alcanena","Artigo 24.º, n.º 1, alínea e) do Código dos Contratos Públicos",05-01-2011,"1.176,24 €",,,,Não aplicável.,Não aplicável.,
"Limpeza , afinações, substituição, de tambor,  rolo fusor, rolo de pressão e de 6 separadores",Ajuste Direto Regime Geral,Aquisição de serviços,"50313100-3, Serviços de reparação de fotocopiadoras","Administração Regional de Saúde de Lisboa e Vale do Tejo, I.P. (503148776)","Duplieme- Máquinas de Escritório, Lda (501425519)","339,95 €",24-02-2011,14-01-2011,1 dias,"Portugal, Santarém, Torres Novas","Artigo 24.º, n.º 1, alínea e) do Código dos Contratos Públicos",14-01-2011,"339,95 €",,,,Não aplicável.,Não aplicável.,
Comunicações Fixas de Voz - UCSP Mação,Ajuste Direto Regime Geral,Aquisição de serviços,"64200000-8, Serviços de telecomunicações","Administração Regional de Saúde de Lisboa e Vale do Tejo, I.P. (503148776)","PT Comunicações, S.A. (504615947)","9.837,40 €",23-02-2011,18-02-2011,365 dias,"Portugal, Santarém, Mação","Artigo 24.º, n.º 1, alínea e) do Código dos Contratos Públicos","","",,,,Não aplicável.,Não aplicável.,
"Serviços de Fornecimento de Energia Eléctrica para os Serviços Desconcentrados da ARSLVT, IP em Santarém para o ano de 2011.",Ajuste Direto Regime Geral,Aquisição de serviços,"98390000-3, Outros serviços","Administração Regional de Saúde de Lisboa e Vale do Tejo, I.P. (503148776)","EDP - Serviço Universal, S.A. (507846044)","3.962,26 €",23-02-2011,07-02-2011,365 dias,"Portugal, Santarém, Santarém","Artigo 24.º, n.º 1, alínea e) do Código dos Contratos Públicos","","",,,,Não aplicável.,Não aplicável.,
"Serviços de Fornecimento de Comunicação de Dados, Circuitos e Banda Larga para os Serviços Desconcentrados da ARSLVT, IP em Santarém para o ano de 2011.",Ajuste Direto Regime Geral,Aquisição de serviços,"98390000-3, Outros serviços","Administração Regional de Saúde de Lisboa e Vale do Tejo, I.P. (503148776)","PT Prime - Soluções Empresariais de Telecomunicações e Sistemas, S.A. (502840757)","4.471,54 €",23-02-2011,07-02-2011,365 dias,"Portugal, Santarém, Santarém","Artigo 24.º, n.º 1, alínea e) do Código dos Contratos Públicos","","",,,,Não aplicável.,Não aplicável.,
"Serviços de Fornecimento de Água para os Serviços Desconcentrados da ARSLVT, IP em Setúbal para o ano de 2011.",Ajuste Direto Regime Geral,Aquisição de serviços,"98390000-3, Outros serviços","Administração Regional de Saúde de Lisboa e Vale do Tejo, I.P. (503148776)","Águas do Sado, S.A. (504014889)","6.603,77 €",23-02-2011,07-02-2011,365 dias,"Portugal, Setúbal, Setúbal","Artigo 24.º, n.º 1, alínea e) do Código dos Contratos Públicos","","",,,,Não aplicável.,Não aplicável.,
Aquisição de gás - UCSP Constância,Ajuste Direto Regime Geral,Aquisição de serviços,"65200000-5, Serviços de distribuição de gás e serviços conexos","Administração Regional de Saúde de Lisboa e Vale do Tejo, I.P. (503148776)","Petrogal - Petróleos de Portugal, S.A. (500697370)","7.119,76 €",23-02-2011,03-01-2011,365 dias,"Portugal, Santarém, Constancia","Artigo 20.º, n.º 1, alínea a) do Código dos Contratos Públicos","","",,,,Não aplicável.,Não aplicável.,
Aquisição de gás - UCSP Vila Nova da Barquinha,Ajuste Direto Regime Geral,Aquisição de serviços,"65200000-5, Serviços de distribuição de gás e serviços conexos","Administração Regional de Saúde de Lisboa e Vale do Tejo, I.P. (503148776)","Petrogal - Petróleos de Portugal, S.A. (500697370)","7.601,63 €",23-02-2011,03-01-2011,365 dias,"Portugal, Santarém, Vila Nova da Barquinha","Artigo 20.º, n.º 1, alínea a) do Código dos Contratos Públicos","","",,,,Não aplicável.,Não aplicável.,
Aquisição de gás - UCSP Sardoal,Ajuste Direto Regime Geral,Aquisição de serviços,"65200000-5, Serviços de distribuição de gás e serviços conexos","Administração Regional de Saúde de Lisboa e Vale do Tejo, I.P. (503148776)","Petrogal - Petróleos de Portugal, S.A. (500697370)","13.375,61 €",23-02-2011,03-01-2011,365 dias,"Portugal, Santarém, Sardoal","Artigo 20.º, n.º 1, alínea a) do Código dos Contratos Públicos","","",,,,Não aplicável.,Não aplicável.,
MATERIAL DIVERSO DE ESPIROMETRIA,Ajuste Direto Regime Geral,Outros Tipos (artº 24 al. e) nº 1),"33140000-3, Material médico de consumo","Administração Regional de Saúde de Lisboa e Vale do Tejo, I.P. (503148776)","PROMEI CENTRO, Lda. (506470113)","1.970,88 €",22-02-2011,21-02-2011,3 dias,"Portugal, Lisboa, Lisboa","Artigo 24.º, n.º 1, alínea e) do Código dos Contratos Públicos","","",,,,Não aplicável.,Não aplicável.,
COMPRESSA NÃO TECIDO NÃO ESTERILIZADA 30X15,Ajuste Direto Regime Geral,Outros Tipos (artº 20 al. a) nº 1),"33141119-7, Compressas","Administração Regional de Saúde de Lisboa e Vale do Tejo, I.P. (503148776)","ALBINO DIAS DE ANDRADE, Lda. (500013810)","14.175,00 €",22-02-2011,18-02-2011,1 dias,"Portugal, Lisboa, Lisboa","Artigo 20.º, n.º 1, alínea a) do Código dos Contratos Públicos","","",,,,Não aplicável.,Não aplicável.,
FIXADOR DE RX X-OMAT / REVELADOR X-OMAT EX II,Ajuste Direto Regime Geral,Outros Tipos (artº 24 al. e) nº 1),"24950000-8, Produtos químicos para fins específicos","Administração Regional de Saúde de Lisboa e Vale do Tejo, I.P. (503148776)","CARESTREAM HEALTH PORTUGAL, Lda. (508054320)","21.075,00 €",22-02-2011,18-02-2011,3 dias,"Portugal, Lisboa, Lisboa","Artigo 24.º, n.º 1, alínea e) do Código dos Contratos Públicos","","",,,,Não aplicável.,Não aplicável.,
Aquisição de equipamento médico para USF Tejo,Ajuste Direto Regime Geral,Aquisição de bens móveis,"33192000-2, Mobiliário para fins médicos","Administração Regional de Saúde de Lisboa e Vale do Tejo, I.P. (503148776)",Frilabo II (507958861),"1.560,00 €",21-02-2011,07-02-2011,30 dias,"Portugal, Lisboa, Loures","Artigo 1.º do Decreto-Lei n.º 48/2008, de 13.03","","",,,,Não aplicável.,Não aplicável.,
Aquisição de equipamento médico para USF Tejo,Ajuste Direto Regime Geral,Aquisição de bens móveis,"33192000-2, Mobiliário para fins médicos","Administração Regional de Saúde de Lisboa e Vale do Tejo, I.P. (503148776)",Eugenio Pereira Lda (503989525),"7.277,70 €",21-02-2011,03-02-2011,15 dias,"Portugal, Lisboa, Loures","Artigo 1.º do Decreto-Lei n.º 48/2008, de 13.03","","",,,,Não aplicável.,Não aplicável.,
Aquisição de equipamento médico para USF Tejo,Ajuste Direto Regime Geral,Aquisição de bens móveis,"38652100-1, Projectores","Administração Regional de Saúde de Lisboa e Vale do Tejo, I.P. (503148776)",Absolutus (503703745),"1.992,92 €",21-02-2011,02-02-2011,1 dias,"Portugal, Lisboa, Loures","Artigo 1.º do Decreto-Lei n.º 48/2008, de 13.03","","",,,,Não aplicável.,Não aplicável.,
Aquisição de equipamento médico para USF Lapias,Ajuste Direto Regime Geral,Aquisição de bens móveis,"33100000-1, Equipamento médico","Administração Regional de Saúde de Lisboa e Vale do Tejo, I.P. (503148776)",Promei centro Lda (506470113),"1.163,75 €",21-02-2011,04-02-2011,30 dias,"Portugal, Lisboa, Sintra","Artigo 1.º do Decreto-Lei n.º 48/2008, de 13.03","","",,,,Não aplicável.,Não aplicável.,
REAGENTES DIVERSOS P/ LABORATORIO DE OEIRAS - CONTRA-CONSUMO,Ajuste Direto Regime Geral,Outros Tipos (artº 24 al. e) nº 1),"33696500-0, Reagentes de laboratório","Administração Regional de Saúde de Lisboa e Vale do Tejo, I.P. (503148776)","BIOMERIEUX PORTUGAL, Lda. (501524177)","519,40 €",21-02-2011,10-02-2011,1 dias,"Portugal, Lisboa, Lisboa","Artigo 24.º, n.º 1, alínea e) do Código dos Contratos Públicos","","",,,,Não aplicável.,Não aplicável.,
Aquisição de equipamento para USF Lapias,Ajuste Direto Regime Geral,Aquisição de bens móveis,"39711100-0, Frigoríficos e congeladores","Administração Regional de Saúde de Lisboa e Vale do Tejo, I.P. (503148776)",Frilabo lda (507958861),"1.270,00 €",21-02-2011,07-02-2011,30 dias,"Portugal, Lisboa, Sintra","Artigo 1.º do Decreto-Lei n.º 48/2008, de 13.03","","",,,,Não aplicável.,Não aplicável.,
SYPAL-CB / SEROPOS CONTROL,Ajuste Direto Regime Geral,Outros Tipos (artº 24 al. e) nº 1),"33696500-0, Reagentes de laboratório","Administração Regional de Saúde de Lisboa e Vale do Tejo, I.P. (503148776)","QUILABAN - Quimica Laboratorial Analítica, Lda. (500399670)","148,26 €",21-02-2011,10-02-2011,15 dias,"Portugal, Lisboa, Lisboa","Artigo 24.º, n.º 1, alínea e) do Código dos Contratos Públicos","","",,,,Não aplicável.,Não aplicável.,
D-10 DUAL PROGRAM REORDER PACK Hb A1c,Ajuste Direto Regime Geral,Outros Tipos (artº 24 al. e) nº 1),"33696500-0, Reagentes de laboratório","Administração Regional de Saúde de Lisboa e Vale do Tejo, I.P. (503148776)","BIO RAD - Laboratories, Lda. (501301321)","2.000,00 €",21-02-2011,10-02-2011,10 dias,"Portugal, Lisboa, Lisboa","Artigo 24.º, n.º 1, alínea e) do Código dos Contratos Públicos","","",,,,Não aplicável.,Não aplicável.,
Aquisição de equipamento médico para USF Tejo,Ajuste Direto Regime Geral,Aquisição de bens móveis,"33192000-2, Mobiliário para fins médicos","Administração Regional de Saúde de Lisboa e Vale do Tejo, I.P. (503148776)",Ergotec Lda (503455105),"250,00 €",21-02-2011,04-02-2011,15 dias,"Portugal, Lisboa, Loures","Artigo 1.º do Decreto-Lei n.º 48/2008, de 13.03","","",,,,Não aplicável.,Não aplicável.,
CARVÃO ACTIVADO C/ FIBRAS ALGINATO+CARBOX. 10X10,Ajuste Direto Regime Geral,Outros Tipos (artº 26 al. e) nº 1),"33141110-4, Pensos","Administração Regional de Saúde de Lisboa e Vale do Tejo, I.P. (503148776)","KVTECH PORTUGAL, Lda. (508671531)","140.160,00 €",21-02-2011,15-02-2011,2 dias,"Portugal, Lisboa, Lisboa","Artigo 26.º, n.º 1, alínea e) do Código dos Contratos Públicos","","",,,,Não aplicável.,Não aplicável.,
Aquisição de equipamento médico para USF Tejo,Ajuste Direto Regime Geral,Aquisição de bens móveis,"33100000-1, Equipamento médico","Administração Regional de Saúde de Lisboa e Vale do Tejo, I.P. (503148776)",eugenio pereira lda (503989525),"325,80 €",21-02-2011,09-02-2011,15 dias,"Portugal, Lisboa, Loures","Artigo 1.º do Decreto-Lei n.º 48/2008, de 13.03","","",,,,Não aplicável.,Não aplicável.,
Aquisição de equipamento médico para USF Tejo,Ajuste Direto Regime Geral,Aquisição de bens móveis,"33192000-2, Mobiliário para fins médicos","Administração Regional de Saúde de Lisboa e Vale do Tejo, I.P. (503148776)",Projecto ganho lda (507857860),"219,68 €",21-02-2011,10-02-2011,30 dias,"Portugal, Lisboa, Loures","Artigo 1.º do Decreto-Lei n.º 48/2008, de 13.03","","",,,,Não aplicável.,Não aplicável.,
Aquisição de equipamento médico para USF Tejo,Ajuste Direto Regime Geral,Aquisição de bens móveis,"33100000-1, Equipamento médico","Administração Regional de Saúde de Lisboa e Vale do Tejo, I.P. (503148776)",Speculum SA (502996323),"2.409,38 €",21-02-2011,09-02-2011,15 dias,"Portugal, Lisboa, Loures","Artigo 1.º do Decreto-Lei n.º 48/2008, de 13.03","","",,,,Não aplicável.,Não aplicável.,
Aquisição de equipamento médico para USF Tejo,Ajuste Direto Regime Geral,Aquisição de bens móveis,"33100000-1, Equipamento médico","Administração Regional de Saúde de Lisboa e Vale do Tejo, I.P. (503148776)",Dignum Medical Lda (509569188),"418,00 €",21-02-2011,09-02-2011,15 dias,"Portugal, Lisboa, Loures","Artigo 1.º do Decreto-Lei n.º 48/2008, de 13.03","","",,,,Não aplicável.,Não aplicável.,
Aquisição de equipamento médico para USF Tejo,Ajuste Direto Regime Geral,Aquisição de bens móveis,"39151200-7, Bancadas de trabalho","Administração Regional de Saúde de Lisboa e Vale do Tejo, I.P. (503148776)",Industrial laborum SA (506692027),"2.000,00 €",21-02-2011,03-02-2011,30 dias,"Portugal, Lisboa, Loures","Artigo 1.º do Decreto-Lei n.º 48/2008, de 13.03","","",,,,Não aplicável.,Não aplicável.,
Aquisição de equipamento médico para USF Tejo,Ajuste Direto Regime Geral,Aquisição de bens móveis,"33100000-1, Equipamento médico","Administração Regional de Saúde de Lisboa e Vale do Tejo, I.P. (503148776)",M.M. cunha (507374843),"844,76 €",21-02-2011,04-02-2011,30 dias,"Portugal, Lisboa, Loures","Artigo 1.º do Decreto-Lei n.º 48/2008, de 13.03","","",,,,Não aplicável.,Não aplicável.,
Aquisição de equipamento médico para USF Ramada,Ajuste Direto Regime Geral,Aquisição de bens móveis,"33100000-1, Equipamento médico","Administração Regional de Saúde de Lisboa e Vale do Tejo, I.P. (503148776)",Duekipa Lda (508690102),"3.240,15 €",21-02-2011,02-02-2011,30 dias,"Portugal, Lisboa, Odivelas","Artigo 1.º do Decreto-Lei n.º 48/2008, de 13.03","","",,,,Não aplicável.,Não aplicável.,
