Objeto do Contrato,Tipo de Procedimento,Tipo(s) de Contrato,CPVs,Entidade(s) Adjudicante(s),Entidade(s) Adjudicatária(s),Preço Contratual,Data de Publicação,Data de Celebração do Contrato,Prazo de Execução,Local de Execução,Fundamentação,Data de Fecho do Contrato,Preço Total Efetivo,Causas das Alterações ao Prazo,Causas das Alterações ao Preço,Estado,N.º registo do Acordo Quadro,Descrição do Acordo Quadro,Procedimento Centralizado
Aquisição de material de economato,Ao abrigo de acordo-quadro (art.º 259.º),Aquisição de bens móveis,"30192000-1, Material de escritório","Administração Regional de Saúde de Lisboa e Vale do Tejo, I. P. (503148776)","OLMAR - ARTIGOS DE PAPELARIA, LDA (508831989)","3.442,50 €",11-12-2018,13-11-2018,1 dias,"Portugal, Lisboa, Lisboa",Artigo 259.º do Código dos Contratos Públicos,,,,,,1478938,ECONOMATO - LOTE 2 DO PECI,FALSE
"Aquisição de 30 frascos de Fluoresceína 2,5mg/ ml + Oxibuprocaína ",Ao abrigo de acordo-quadro (art.º 259.º),Aquisição de bens móveis,"33690000-3, Medicamentos vários","Administração Regional de Saúde de Lisboa e Vale do Tejo, I. P. (503148776)","Alcon Portugal - Produtos e Equipamentos Oftalmofógicos, Lda (501251685)","60,30 €",07-12-2018,20-11-2018,252 dias,"Portugal, Lisboa",Artigo 259.º do Código dos Contratos Públicos,,,,,,2124520,CP 2016/55 - Medicamentos Diversos,FALSE
"Aquisição de 645 unidade de Teste de Deteção de Anfetaminas, cocaína/ Opio/ Canabis na Saliva",Ao abrigo de acordo-quadro (art.º 259.º),Aquisição de bens móveis,"33690000-3, Medicamentos vários","Administração Regional de Saúde de Lisboa e Vale do Tejo, I. P. (503148776)","Normax - Fábrica de Vidros Cientificos, Lda (500203130)","5.663,10 €",06-12-2018,28-03-2018,279 dias,"Portugal, Lisboa",Artigo 259.º do Código dos Contratos Públicos,,,,,,1555404,CP 2015/73 - Acordo quadro para fornecimento de Reagentes - Testes Rápidos às Instituições e Serviços do Serviço Nacional de Saúde,FALSE
Aquisição de 3.685 de Ligadura Cola de Zinco,Ao abrigo de acordo-quadro (art.º 259.º),Aquisição de bens móveis,"33690000-3, Medicamentos vários","Administração Regional de Saúde de Lisboa e Vale do Tejo, I. P. (503148776)","Paul Hartmann, Lda (502271728)","9.212,50 €",06-12-2018,19-09-2018,104 dias,"Portugal, Lisboa",Artigo 259.º do Código dos Contratos Públicos,,,,,,1974985,"Medicamentos Analgésicos, Antipiréticos e Antidepressivos",FALSE
Aquisição de 50.000 unidades de Carboxametilcelulose Sódica c/ Prata 10 x 10cm,Ajuste Direto Regime Geral,Aquisição de bens móveis,"33690000-3, Medicamentos vários","Administração Regional de Saúde de Lisboa e Vale do Tejo, I. P. (503148776)","Kvtech Portugal - Produtos Médicos Unipessoal, Lda (508671531)","189.500,00 €",06-12-2018,06-12-2018,26 dias,"Portugal, Lisboa","Artigo 24.º, n.º 1, alínea e), subalínea ii) do Código dos Contratos Públicos",,,,,,Não aplicável.,Não aplicável.,FALSE
Aquisição de 36.000 unidades de Carboximetilcelulose sódica 10x10 cm,Ajuste Direto Regime Geral,Aquisição de bens móveis,"33690000-3, Medicamentos vários","Administração Regional de Saúde de Lisboa e Vale do Tejo, I. P. (503148776)","Kvtech Portugal - Produtos Médicos Unipessoal, Lda (508671531)","77.040,00 €",06-12-2018,06-12-2018,26 dias,"Portugal, Lisboa","Artigo 24.º, n.º 1, alínea e), subalínea ii) do Código dos Contratos Públicos",,,,,,Não aplicável.,Não aplicável.,FALSE
Protamina Sulfato,Ao abrigo de acordo-quadro (art.º 259.º),Aquisição de bens móveis,"33600000-6, Produtos farmacêuticos","Administração Regional de Saúde de Lisboa e Vale do Tejo, I. P. (503148776)","R2Mc - Rangel, Produtos Farmacêuticos S.a  (510599818)","115,71 €",05-12-2018,28-11-2018,34 dias,"Portugal, Lisboa",Artigo 259.º do Código dos Contratos Públicos,,,,,,2775699,"CP 2017/50 - Medicação antialérgica, vitaminas e sais minerais, medicamentos usados no tratamento de intoxicações e grupo 20.9",FALSE
"Cloreto de Sódio 0,9% para irrigação",Ao abrigo de acordo-quadro (art.º 259.º),Aquisição de bens móveis,"33600000-6, Produtos farmacêuticos","Administração Regional de Saúde de Lisboa e Vale do Tejo, I. P. (503148776)",Labesfal - Laboratórios Almiro S.a (501169580),"12.333,00 €",05-12-2018,17-09-2018,106 dias,"Portugal, Lisboa",Artigo 259.º do Código dos Contratos Públicos,,,,,,2528675,CP 2017/3 - Acordo Quadro para fornecimento de corretivos da volémia e outras soluções estéreis,FALSE
Isoniazida 150mg + Rifampicina 300mg,Ajuste Direto Regime Geral,Aquisição de bens móveis,"33600000-6, Produtos farmacêuticos","Administração Regional de Saúde de Lisboa e Vale do Tejo, I. P. (503148776)","Sanofi - Produtos Farmacêuticos, Lda  (500134960)","5.600,00 €",04-12-2018,28-08-2018,126 dias,"Portugal, Lisboa","Artigo 24.º, n.º 1, alínea e), subalínea ii) do Código dos Contratos Públicos",,,,,,Não aplicável.,Não aplicável.,FALSE
Clofazimina 100mg comprimido,Ajuste Direto Regime Geral,Aquisição de bens móveis,"33600000-6, Produtos farmacêuticos","Administração Regional de Saúde de Lisboa e Vale do Tejo, I. P. (503148776)","Dux Pharma, Unipessoal Lda (510803679)","1.681,20 €",04-12-2018,29-11-2018,33 dias,"Portugal, Lisboa","Artigo 24.º, n.º 1, alínea b) do Código dos Contratos Públicos",,,,,,Não aplicável.,Não aplicável.,FALSE
