Objeto do Contrato,Tipo de Procedimento,Tipo(s) de Contrato,CPVs,Entidade(s) Adjudicante(s),Entidade(s) Adjudicatária(s),Preço Contratual,Data de Publicação,Data de Celebração do Contrato,Prazo de Execução,Local de Execução,Fundamentação,Data de Fecho do Contrato,Preço Total Efetivo,Causas das Alterações ao Prazo,Causas das Alterações ao Preço,Estado,N.º registo do Acordo Quadro,Descrição do Acordo Quadro,Procedimento Centralizado
"AQUISIÇÃO DE PRESTAÇÃO DE SERVIÇOS DE SECRETARIADO CLINICO, EM REGIME DE OUTSOURCING PARA O PERÍODO DE 12 SEMANAS, PARA O ACES LISBOA CENTRAL.",Ajuste Direto Regime Geral,Aquisição de serviços,"75122000-7, Serviços administrativos na área da saúde","Administração Regional de Saúde de Lisboa e Vale do Tejo, I. P. (503148776)","KELLY SERVICES - GESTÃO DE PROCESSOS, LDA (506434770)","9.745,85 €",20-03-2015,16-03-2015,88 dias,"Portugal, Lisboa, Lisboa","Artigo 20.º, n.º 1, alínea a) do Código dos Contratos Públicos","","",,,,Não aplicável.,Não aplicável.,FALSE
EMPREITADA DE REMODELAÇÃO DO ANTIGO CENTRO DE SAÚDE DO SOBRAL DE MONTE AGRAÇO,Concurso público,Empreitadas de obras públicas,"45453100-8, Obras de recuperação","Administração Regional de Saúde de Lisboa e Vale do Tejo, I. P. (503148776)","CONTENÇÃO - ENGENHARIA E CONSTRUÇÕES, LDA  (503448354)","13.972,30 €",20-03-2015,20-03-2015,60 dias,"Portugal, Lisboa, Sobral de Monte Agraço","Artigo 19.º, alínea b) do Código dos Contratos Públicos","","",,,,Não aplicável.,Não aplicável.,FALSE
Mangas p/esterilização,Ajuste Direto Regime Geral,Aquisição de bens móveis,"33000000-0, Equipamento médico, medicamentos e produtos para cuidados pessoais","Administração Regional de Saúde de Lisboa e Vale do Tejo, I. P. (503148776)","Dimor Lusitana, Lda (500730741)","683,10 €",20-03-2015,13-03-2015,10 dias,"Portugal, Lisboa, Loures","Artigo 20.º, n.º 1, alínea a) do Código dos Contratos Públicos","","",,,,Não aplicável.,Não aplicável.,FALSE
Carimbos,Ajuste Direto Regime Geral,Aquisição de bens móveis,"30000000-9, Máquinas, equipamento e material de escritório e de informática, excepto mobiliário e pacotes de programas (software)","Administração Regional de Saúde de Lisboa e Vale do Tejo, I. P. (503148776)",A UM - Equipamento Material Escritório (502129425),"284,03 €",20-03-2015,19-01-2015,10 dias,"Portugal, Lisboa, Loures","Artigo 20.º, n.º 1, alínea a) do Código dos Contratos Públicos","","",,,,Não aplicável.,Não aplicável.,FALSE
Reparação da Unidade Móvel 99-24-EF,Ajuste Direto Regime Geral,Aquisição de serviços,"50000000-5, Serviços de reparação e manutenção","Administração Regional de Saúde de Lisboa e Vale do Tejo, I. P. (503148776)","Iveco Portugal - comércio Veículos Industriais, SA (501445927)","540,34 €",20-03-2015,19-01-2015,5 dias,"Portugal, Lisboa, Odivelas","Artigo 20.º, n.º 1, alínea a) do Código dos Contratos Públicos","","",,,,Não aplicável.,Não aplicável.,FALSE
"Vinhetas p/ UCSP Moscavide, USF Genesis, USF Ramada e UCSP Olaio",Ajuste Direto Regime Geral,Aquisição de bens móveis,"22000000-0, Material impresso e afins","Administração Regional de Saúde de Lisboa e Vale do Tejo, I. P. (503148776)",Imprensa Nacional Casa da Moeda (500792887),"110,00 €",20-03-2015,21-01-2015,5 dias,"Portugal, Lisboa, Odivelas","Artigo 24.º, n.º 1, alínea e) do Código dos Contratos Públicos","","",,,,Não aplicável.,Não aplicável.,FALSE
Pequenas Reparações nos Edifícios,Ajuste Direto Regime Geral,Aquisição de serviços,"50000000-5, Serviços de reparação e manutenção","Administração Regional de Saúde de Lisboa e Vale do Tejo, I. P. (503148776)","Reis do Tempo - Construções Unipessoal, Lda (509615112)","2.676,00 €",20-03-2015,21-01-2015,20 dias,"Portugal, Lisboa, Loures","Artigo 20.º, n.º 1, alínea a) do Código dos Contratos Públicos","","",,,,Não aplicável.,Não aplicável.,FALSE
"AQUISIÇÃO DE SERVIÇOS DE RECOLHA DE EQUIPAMENTO DE ESTERILIZAÇÃO, MATERIAL MÉDICO E OUTROS PARA O ACES ARRÁBIDA - PERÍODO DE MARÇO A DEZEMBRO DE 2015 (ANEXO A)",Ajuste Direto Regime Geral,Aquisição de serviços,"60000000-8, Serviços de transporte (excl. transporte de resíduos)","Administração Regional de Saúde de Lisboa e Vale do Tejo, I. P. (503148776)","ALFA LISBON - GESTÃO DE PROCESSOS DE EXPEDIÇÃO, LDA (507586522)","30.640,00 €",20-03-2015,17-03-2015,289 dias,"Portugal, Lisboa, Lisboa","Artigo 24.º, n.º 1, alínea b) do Código dos Contratos Públicos","","",,,,Não aplicável.,Não aplicável.,FALSE
"AQUISIÇÃO DE SERVIÇOS DE RECOLHA DE EQUIPAMENTO DE ESTERILIZAÇÃO, MATERIAL MÉDICO E OUTROS PARA O ACES LISBOA OCIDENTAL E OEIRAS - PERÍODO DE MARÇO A DEZEMBRO DE 2015 (ANEXO A)",Ajuste Direto Regime Geral,Aquisição de serviços,"60000000-8, Serviços de transporte (excl. transporte de resíduos)","Administração Regional de Saúde de Lisboa e Vale do Tejo, I. P. (503148776)","ALFA LISBON - GESTÃO DE PROCESSOS DE EXPEDIÇÃO, LDA (507586522)","19.950,00 €",20-03-2015,17-03-2015,289 dias,"Portugal, Lisboa, Lisboa","Artigo 24.º, n.º 1, alínea b) do Código dos Contratos Públicos","","",,,,Não aplicável.,Não aplicável.,FALSE
"AQUISIÇÃO DE SERVIÇOS DE RECOLHA DE EQUIPAMENTO DE ESTERILIZAÇÃO, MATERIAL MÉDICO E OUTROS PARA O ACES ESTUÁRIO DO TEJO - PERÍODO DE MARÇO A DEZEMBRO DE 2015 (ANEXO A)",Ajuste Direto Regime Geral,Aquisição de serviços,"60000000-8, Serviços de transporte (excl. transporte de resíduos)","Administração Regional de Saúde de Lisboa e Vale do Tejo, I. P. (503148776)","ALFARIO - GESTÃO DE SOLUÇÕES INTEGRADAS DE TRANSPORTE, LDA (509602789)","39.900,00 €",20-03-2015,17-03-2015,289 dias,"Portugal, Lisboa, Vila Franca de Xira","Artigo 24.º, n.º 1, alínea b) do Código dos Contratos Públicos","","",,,,Não aplicável.,Não aplicável.,FALSE
"AQUISIÇÃO DE SERVIÇOS DE RECOLHA DE EQUIPAMENTO DE ESTERILIZAÇÃO, MATERIAL MÉDICO E OUTROS PARA O ACES CASCAIS - PERÍODO DE MARÇO A DEZEMBRO DE 2015.",Ajuste Direto Regime Geral,Aquisição de serviços,"60000000-8, Serviços de transporte (excl. transporte de resíduos)","Administração Regional de Saúde de Lisboa e Vale do Tejo, I. P. (503148776)","ALFA LISBON - GESTÃO DE PROCESSOS DE EXPEDIÇÃO, LDA  (507586522)","19.950,00 €",20-03-2015,17-03-2015,289 dias,"Portugal, Lisboa, Lisboa","Artigo 24.º, n.º 1, alínea b) do Código dos Contratos Públicos","","",,,,Não aplicável.,Não aplicável.,FALSE
"AQUISIÇÃO DE SERVIÇOS TÉCNICOS ESPECIALIZADOS NO ÂMBITO DO PROJETO DE PARCERIA COM OS MUNICÍPIOS PARA A CRIAÇÃO DE NOVAS UNIDADES DE SAÚDE, PARA O PERÍODO 01-03-2015 A 31-12-2015.",Concurso público,Aquisição de serviços,"98390000-3, Outros serviços","Administração Regional de Saúde de Lisboa e Vale do Tejo, I. P. (503148776)","RANDSTAD II - PRESTAÇÃO DE SERVIÇOS, LDA  (503298999)","110.180,00 €",20-03-2015,03-03-2015,303 dias,"Portugal, Lisboa, Lisboa","Artigo 20.º, n.º 1, alínea b) do Código dos Contratos Públicos","","",,,,Não aplicável.,Não aplicável.,FALSE
PRESTAÇÃO DE SERVIÇOS DE ACOMPANHAMENTO À PRODUÇÃO DO HOSPITAL DE CASCAIS EM REGIME DE PPP PARA O  ANO DE 2015.,Ajuste Direto Regime Geral,Aquisição de serviços,"79412000-5, Serviços de consultoria em matéria de gestão financeira","Administração Regional de Saúde de Lisboa e Vale do Tejo, I. P. (503148776)","PRICEWATERHOUSECOOPERS /AG - ASSESSORIA DE GESTÃO, LDA (504193279)","56.724,00 €",20-03-2015,09-03-2015,365 dias,"Portugal, Lisboa, Lisboa","Artigo 27.º, n.º 1, alínea b) do Código dos Contratos Públicos","","",,,,Não aplicável.,Não aplicável.,FALSE
AQUISIÇÃO DE SERVIÇOS DA ARS DE SANTARÉM E OESTE - ANO DE 2015.,Ajuste Direto Regime Geral,Aquisição de serviços,"79100000-5, Serviços jurídicos","Administração Regional de Saúde de Lisboa e Vale do Tejo, I. P. (503148776)","ANA MARTINHO DO ROSÁRIO, ISABEL ALVES DE MATOS E VICTOR BATISTA - SOCIEDADE DE ADVOGADOS (502744669)","13.365,00 €",20-03-2015,02-03-2015,365 dias,"Portugal, Santarém, Santarém","Artigo 27.º, n.º 1, alínea b) do Código dos Contratos Públicos","","",,,,Não aplicável.,Não aplicável.,FALSE
"PRESTAÇÃO DE SERVIÇOS INSTALAÇÃO DE 23 EQUIPAMENTOS USADOS DE AR CONDICIONADO, LIGAÇÃO À REDE ELÉCTRICA E DE DRENAGEM PARA A USF SAMORA CORREIA - ACES ESTUÁRIO DO TEJO",Ajuste Direto Regime Geral,Aquisição de serviços,"51500000-7, Serviços de instalação de máquinas e equipamento","Administração Regional de Saúde de Lisboa e Vale do Tejo, I. P. (503148776)","TECNOSPIE, S.A. (500205698)","7.350,15 €",20-03-2015,19-03-2015,30 dias,"Portugal, Santarém, Benavente","Artigo 20.º, n.º 1, alínea a) do Código dos Contratos Públicos","","",,,,Não aplicável.,Não aplicável.,FALSE
"PRESTAÇÃO DE SERVIÇOS MÉDICOS PARA A ÁREA DA DEPENDÊNCIA DA ARSLVT, IP PARA 2015",Ajuste Direto Regime Geral,Aquisição de serviços,"85100000-0, Serviços de saúde","Administração Regional de Saúde de Lisboa e Vale do Tejo, I. P. (503148776)","HELPED - PRESTAÇÃO DE SERVIÇOS DE SAÚDE, LDA  (506069010)","4.370,91 €",17-03-2015,30-01-2015,365 dias,"Portugal, Setúbal, Barreiro",Artigo 258.º do Código dos Contratos Públicos,"","",,,,Não aplicável.,Não aplicável.,FALSE
"PRESTAÇÃO DE SERVIÇOS MÉDICOS PARA A ÁREA DA DEPENDÊNCIA DA ARSLVT, IP PARA 2015",Ajuste Direto Regime Geral,Aquisição de serviços,"85100000-0, Serviços de saúde","Administração Regional de Saúde de Lisboa e Vale do Tejo, I. P. (503148776)","GS24 - HEALTHCARE SOLUTIONS, S.A. (507824652)","21.072,80 €",17-03-2015,30-01-2015,365 dias,"Portugal, Leiria, Caldas da Rainha",Artigo 258.º do Código dos Contratos Públicos,"","",,,,Não aplicável.,Não aplicável.,FALSE
"PRESTAÇÃO DE SERVIÇOS MÉDICOS PARA A ÁREA DA DEPENDÊNCIA DA ARSLVT, IP PARA 2015",Ajuste Direto Regime Geral,Aquisição de serviços,"85100000-0, Serviços de saúde","Administração Regional de Saúde de Lisboa e Vale do Tejo, I. P. (503148776)","KELLY SERVICES - HEALTHCARE, UNIPESSOAL, LDA  (510723691)","11.199,96 €",17-03-2015,30-01-2015,365 dias,"Portugal, Santarém, Santarém",Artigo 258.º do Código dos Contratos Públicos,"","",,,,Não aplicável.,Não aplicável.,FALSE
"FORNECIMENTO DE ENERGIA ELÉTRICA PARA O EX. IDT (AV. JAIME REBELO, 29 SETÚBAL E TRAVESSA POÇO,6 BARREIRO), PARA O PERÍODO DE JANEIRO A JUNHO DE 2015.",Ajuste Direto Regime Geral,Aquisição de serviços,"65310000-9, Distribuição de electricidade","Administração Regional de Saúde de Lisboa e Vale do Tejo, I. P. (503148776)","EDP SERVIÇO UNIVERSAL, S.A. (507846044)","3.520,20 €",17-03-2015,13-03-2015,180 dias,"Portugal, Setúbal, Barreiro","Artigo 24.º, n.º 1, alínea e) do Código dos Contratos Públicos","","",,,,Não aplicável.,Não aplicável.,FALSE
Aquisição de serviços de fornecimento de refeições confecionadas e prestação de serviços associadas para o período de 01/02/2015 a 28/02/2015,Ajuste Direto Regime Geral,Aquisição de serviços,"55500000-5, Serviços de cantinas e de fornecimento de refeições (catering)","Administração Regional de Saúde de Lisboa e Vale do Tejo, I. P. (503148776)","ITAU, SA (500142858)","13.013,41 €",17-03-2015,16-03-2015,28 dias,"Portugal, Lisboa, Lisboa","Artigo 24.º, n.º 1, alínea c) do Código dos Contratos Públicos","","",,,,Não aplicável.,Não aplicável.,FALSE
"FORNECIMENTO DE ENERGIA ELÉTRICA PARA A SEDE DA ARSLVT, IP. (AV. EUA 77), PARA O PERÍODO DE JANEIRO A JUNHO DE 2015.",Ajuste Direto Regime Geral,Aquisição de serviços,"65310000-9, Distribuição de electricidade","Administração Regional de Saúde de Lisboa e Vale do Tejo, I. P. (503148776)","EDP SERVIÇO UNIVERSAL, S.A. (507846044)","33.758,58 €",17-03-2015,13-03-2015,180 dias,"Portugal, Lisboa, Lisboa","Artigo 24.º, n.º 1, alínea e) do Código dos Contratos Públicos","","",,,,Não aplicável.,Não aplicável.,FALSE
FORNECIMENTO DE ENERGIA ELÉTRICA PARA O PERÍODO DE JANEIRO A JUNHO DEM 2015.,Ajuste Direto Regime Geral,Aquisição de serviços,"65310000-9, Distribuição de electricidade","Administração Regional de Saúde de Lisboa e Vale do Tejo, I. P. (503148776)","EDP SERVIÇO UNIVERSAL, S.A. (507846044)","68.220,72 €",17-03-2015,13-03-2015,180 dias,"Portugal, Lisboa","Artigo 24.º, n.º 1, alínea e) do Código dos Contratos Públicos","","",,,,Não aplicável.,Não aplicável.,FALSE
"FORNECIMENTO DE ENERGIA ELÉTRICA PARA O ACES OESTE NORTE, PARA O PERÍODO DE JANEIRO A JUNHO DE 2015.",Ajuste Direto Regime Geral,Aquisição de serviços,"65310000-9, Distribuição de electricidade","Administração Regional de Saúde de Lisboa e Vale do Tejo, I. P. (503148776)","EDP SERVIÇO UNIVERSAL, S.A. (507846044)","88.934,60 €",17-03-2015,13-03-2015,180 dias,"Portugal, Leiria, Caldas da Rainha","Artigo 24.º, n.º 1, alínea e) do Código dos Contratos Públicos","","",,,,Não aplicável.,Não aplicável.,FALSE
"FORNECIMENTO DE ENERGIA ELÉCTRICA PARA A PRACETA DAMIÃO DE GÓIS, Nº8, EM SANTARÉM, PARA O PERÍODO DE JANEIRO A JUNHO DE 2015.",Ajuste Direto Regime Geral,Aquisição de serviços,"65310000-9, Distribuição de electricidade","Administração Regional de Saúde de Lisboa e Vale do Tejo, I. P. (503148776)","EDP SERVIÇO UNIVERSAL, S.A. (507846044)","436,20 €",17-03-2015,13-03-2015,180 dias,"Portugal, Santarém, Santarém","Artigo 24.º, n.º 1, alínea e) do Código dos Contratos Públicos","","",,,,Não aplicável.,Não aplicável.,FALSE
PRESTAÇÃO DE SERVIÇOS MÉDICOS - PLANO DE CONTINGÊNCIA GRIPE 2015 - MÊS DE MARÇO,Ajuste Direto Regime Geral,Aquisição de serviços,"85100000-0, Serviços de saúde","Administração Regional de Saúde de Lisboa e Vale do Tejo, I. P. (503148776)","KELLY SERVICES - HEALTHCARE, UNIPESSOAL, LDA  (510723691)","352,20 €",17-03-2015,16-03-2015,31 dias,"Portugal, Lisboa, Torres Vedras","Artigo 24.º, n.º 1, alínea c) do Código dos Contratos Públicos","","",,,,Não aplicável.,Não aplicável.,FALSE
PRESTAÇÃO DE SERVIÇOS MÉDICOS - PLANO DE CONTINGÊNCIA GRIPE 2015 - MÊS DE JANEIRO,Ajuste Direto Regime Geral,Aquisição de serviços,"85100000-0, Serviços de saúde","Administração Regional de Saúde de Lisboa e Vale do Tejo, I. P. (503148776)","SUCESSO 24 HORAS, S.A. (507328310)","69,20 €",17-03-2015,16-03-2015,31 dias,"Portugal, Santarém, Salvaterra de Magos","Artigo 24.º, n.º 1, alínea c) do Código dos Contratos Públicos","","",,,,Não aplicável.,Não aplicável.,FALSE
PRESTAÇÃO DE SERVIÇOS MÉDICOS - PLANO DE CONTINGÊNCIA GRIPE 2015 - MÊS DE JANEIRO,Ajuste Direto Regime Geral,Aquisição de serviços,"85100000-0, Serviços de saúde","Administração Regional de Saúde de Lisboa e Vale do Tejo, I. P. (503148776)","KELLY SERVICES - HEALTHCARE, UNIPESSOAL, LDA  (510723691)","704,40 €",17-03-2015,16-03-2015,31 dias,"Portugal, Lisboa, Torres Vedras","Artigo 24.º, n.º 1, alínea c) do Código dos Contratos Públicos","","",,,,Não aplicável.,Não aplicável.,FALSE
PRESTAÇÃO DE SERVIÇOS MÉDICOS - PLANO DE CONTINGÊNCIA GRIPE 2015 - MÊS DE FEVEREIRO,Ajuste Direto Regime Geral,Aquisição de serviços,"85100000-0, Serviços de saúde","Administração Regional de Saúde de Lisboa e Vale do Tejo, I. P. (503148776)","KELLY SERVICES - HEALTHCARE, UNIPESSOAL, LDA  (510723691)","1.408,00 €",16-03-2015,16-03-2015,28 dias,"Portugal, Lisboa, Torres Vedras","Artigo 24.º, n.º 1, alínea c) do Código dos Contratos Públicos","","",,,,Não aplicável.,Não aplicável.,FALSE
PRESTAÇÃO DE SERVIÇOS MÉDICOS - PLANO DE CONTINGÊNCIA GRIPE 2015 - MÊS DE FEVEREIRO,Ajuste Direto Regime Geral,Aquisição de serviços,"85100000-0, Serviços de saúde","Administração Regional de Saúde de Lisboa e Vale do Tejo, I. P. (503148776)","SUCESSO 24 HORAS, S.A. (507328310)","1.211,00 €",16-03-2015,16-03-2015,28 dias,"Portugal, Santarém, Salvaterra de Magos<BR/>Portugal, Setúbal, Setúbal","Artigo 24.º, n.º 1, alínea c) do Código dos Contratos Públicos","","",,,,Não aplicável.,Não aplicável.,FALSE
GLUCAGOM 1MG PÓ SOLUÇÃO INJECTÁVEL (IM/IV/SC),Ajuste Direto Regime Geral,Aquisição de bens móveis,"33690000-3, Medicamentos vários","Administração Regional de Saúde de Lisboa e Vale do Tejo, I. P. (503148776)","NOVO NORDISK - COMÉRCIO PRODUTOS FARMACÊUTICOS, LDA (501485210)","2.730,00 €",16-03-2015,06-03-2015,365 dias,"Portugal, Lisboa, Lisboa","Artigo 24.º, n.º 1, alínea e) do Código dos Contratos Públicos","","",,,,Não aplicável.,Não aplicável.,FALSE
IMPREGNADOS COM IODOFOROS EM SUPORTE SINTÉTICO 10CM X 10CM,Ajuste Direto Regime Geral,Aquisição de bens móveis,"33141110-4, Pensos","Administração Regional de Saúde de Lisboa e Vale do Tejo, I. P. (503148776)","SMITH & NEPHEW, LDA (503552461)","142.400,00 €",16-03-2015,06-03-2015,365 dias,"Portugal, Lisboa, Lisboa","Artigo 26.º, n.º 1, alínea e) do Código dos Contratos Públicos","","",,,,Não aplicável.,Não aplicável.,FALSE
AZITROMICINA 500MG - COMPRIMIDO,Ajuste Direto Regime Geral,Aquisição de bens móveis,"33690000-3, Medicamentos vários","Administração Regional de Saúde de Lisboa e Vale do Tejo, I. P. (503148776)","GENERIS - FARMACÊUTICA, S.A. (508107997)","136,80 €",16-03-2015,09-03-2015,1 dias,"Portugal, Lisboa, Lisboa","Artigo 26.º, n.º 1, alínea e) do Código dos Contratos Públicos","","",,,,Não aplicável.,Não aplicável.,FALSE
Aquisição de fornecimento de eletricidade em regime de mercado livre ao abrigo do Lote 5 do Acordo Quadro nº 18. Período de 01/03/2014 a 31/12/2014,Ajuste Direto Regime Geral,Aquisição de serviços,"65310000-9, Distribuição de electricidade","Administração Regional de Saúde de Lisboa e Vale do Tejo, I. P. (503148776)","EDP Comercial, SA (503504564)","0,00 €",16-03-2015,16-03-2015,306 dias,"Portugal, Lisboa<BR/>Portugal, Leiria<BR/>Portugal, Santarém<BR/>Portugal, Setúbal",Artigo 258.º do Código dos Contratos Públicos,"","",,,,1410405,Aquisição de fornecimento de eletricidade em regime de mercado livre ao abrigo do Lote 5 do Acordo Quadro nº 18. Período de 01/03/2014 a 31/12/2014,FALSE
CONSUMÍVEIS DIVERSOS PARA RX,Ajuste Direto Regime Geral,Aquisição de bens móveis,"33140000-3, Material médico de consumo","Administração Regional de Saúde de Lisboa e Vale do Tejo, I. P. (503148776)","CARESTREAM HEALTH PORTUGAL - COMÉRCIO E PRESTAÇÃO DE SERVIÇOS MÉDICOS, UNIPESSOAL, LDA  (508054320)","13.128,15 €",16-03-2015,11-03-2015,3 dias,"Portugal, Lisboa, Lisboa","Artigo 24.º, n.º 1, alínea e) do Código dos Contratos Públicos","","",,,,Não aplicável.,Não aplicável.,FALSE
Aquisição de fornecimento de eletricidade em regime de mercado livre ao abrigo do Lote 5 do AQ nº 18. Período de 01/01/2015 a 31/03/2015,Ajuste Direto Regime Geral,Aquisição de serviços,"65300000-6, Serviços de distribuição de electricidade e serviços conexos","Administração Regional de Saúde de Lisboa e Vale do Tejo, I. P. (503148776)","EDP Comercial, SA (503504564)","0,00 €",16-03-2015,16-03-2015,90 dias,"Portugal, Lisboa<BR/>Portugal, Santarém<BR/>Portugal, Leiria<BR/>Portugal, Setúbal",Artigo 258.º do Código dos Contratos Públicos,"","",,,,1410354,Aquisição de fornecimento de eletricidade em regime de mercado livre ao abrigo do Lote 5 do AQ nº 18. Período de 01/01/2015 a 31/03/2015,FALSE
"Obras de reparação nas casas das máquinas dos elevadores do nº75 da ARSLVT,IP.",Ajuste Direto Regime Geral,Concessão de obras públicas<br/>Empreitadas de obras públicas,"45113000-2, Obras no local","Administração Regional de Saúde de Lisboa e Vale do Tejo, I. P. (503148776)","Estabil - Engenheiros Associados, Lda (502522798)","368,79 €",16-03-2015,16-03-2015,5 dias,"Portugal, Lisboa, Lisboa","Artigo 19.º, alínea a) do Código dos Contratos Públicos","","",,,,Não aplicável.,Não aplicável.,FALSE
"Aquisição de prestação de serviços postais e financeiros, na modalidade de vale em ordenador, na sede da ARSLVT, IP, ACES e DICAD. Período de 01/01/2015 a 31/12/2015",Ajuste Direto Regime Geral,Aquisição de serviços,"64110000-0, Serviços postais","Administração Regional de Saúde de Lisboa e Vale do Tejo, I. P. (503148776)",CTT - Correios de Portugal (500077568),"261.715,27 €",16-03-2015,16-03-2015,365 dias,Portugal,"Artigo 24.º, n.º 1, alínea e) do Código dos Contratos Públicos","","",,,,Não aplicável.,Não aplicável.,FALSE
"AQUISIÇÃO DE PRESTAÇÃO DE SERVIÇOS DE MANUTENÇÃO E ASSISTÊNCIA TÉCNICA DE ELEVADORES DA ARSLVT,IP,  ACES LISBOA CENTRAL, LISBOA OCIDENTAL E OEIRAS E LOURES/ODIVELAS - ANO DE 2015",Ajuste Direto Regime Geral,Aquisição de serviços,"50750000-7, Serviços de manutenção de elevadores","Administração Regional de Saúde de Lisboa e Vale do Tejo, I. P. (503148776)","GRUPNOR - GRUPO PORTUGUÊS DE ELEVADORES DO NORTE, LDA (500959579)","936,00 €",13-03-2015,11-03-2015,365 dias,"Portugal, Lisboa, Lisboa","Artigo 24.º, n.º 1, alínea e) do Código dos Contratos Públicos","","",,,,Não aplicável.,Não aplicável.,FALSE
"AQUISIÇÃO DE PRESTAÇÃO DE SERVIÇOS DE MANUTENÇÃO E ASSISTÊNCIA TÉCNICA DE ELEVADORES DA ARSLVT,IP,  ACES LISBOA CENTRAL, LISBOA OCIDENTAL E OEIRAS E LOURES/ODIVELAS - ANO DE 2015",Ajuste Direto Regime Geral,Aquisição de serviços,"50750000-7, Serviços de manutenção de elevadores","Administração Regional de Saúde de Lisboa e Vale do Tejo, I. P. (503148776)","ORONA PORTUGAL, LDA (501606319)","996,00 €",13-03-2015,11-03-2015,365 dias,"Portugal, Lisboa, Lisboa","Artigo 24.º, n.º 1, alínea e) do Código dos Contratos Públicos","","",,,,Não aplicável.,Não aplicável.,FALSE
Aqusição de Polielectrolitico + Glucose 50mg/ml sol inj 500ml IV,Ajuste Direto Regime Geral,Aquisição de bens móveis,"33000000-0, Equipamento médico, medicamentos e produtos para cuidados pessoais","Administração Regional de Saúde de Lisboa e Vale do Tejo, I. P. (503148776)","LABESFAL - LABORATORIOS ALMIRO, S.A. (501169580)","856,00 €",13-03-2015,10-03-2015,293 dias,"Portugal, Lisboa","Artigo 26.º, n.º 1, alínea e) do Código dos Contratos Públicos","","",,,,Não aplicável.,Não aplicável.,FALSE
"FORNECIMENTO DE ENERGIA ELÉTRICA PARA A USF QUINTA DO CONDE, PARA O PERÍODO DE JANEIRO A JUNHO DE 2015.",Ajuste Direto Regime Geral,Aquisição de serviços,"65310000-9, Distribuição de electricidade","Administração Regional de Saúde de Lisboa e Vale do Tejo, I. P. (503148776)","IBERDROLA CLIENTES, S.A.U. (ESA95758389)","7.341,06 €",12-03-2015,10-03-2015,180 dias,"Portugal, Setúbal, Sesimbra","Artigo 24.º, n.º 1, alínea e) do Código dos Contratos Públicos","","",,,,Não aplicável.,Não aplicável.,FALSE
"AQUISIÇÃO DE PRESTAÇÃO DE SERVIÇOS DE MANUTENÇÃO E ASSISTÊNCIA TÉCNICA DE ELEVADORES, ASCENSORES E MONTA-CARGAS DA ARSLVT,IP,  ACES E INSTALAÇÕES DO DICAD- EX. IDT - ANO DE 2015.",Ajuste Direto Regime Geral,Aquisição de serviços,"50750000-7, Serviços de manutenção de elevadores","Administração Regional de Saúde de Lisboa e Vale do Tejo, I. P. (503148776)","GRUPNOR - GRUPO PORTUGUÊS DE ELEVADORES DO NORTE, LDA (500959579)","708,00 €",12-03-2015,17-02-2015,365 dias,"Portugal, Lisboa, Lisboa","Artigo 24.º, n.º 1, alínea c) do Código dos Contratos Públicos","","",,,,Não aplicável.,Não aplicável.,FALSE
"AQUISIÇÃO DE PRESTAÇÃO DE SERVIÇOS DE MANUTENÇÃO E ASSISTÊNCIA TÉCNICA DE ELEVADORES, ASCENSORES E MONTA-CARGAS DA ARSLVT,IP,  ACES E INSTALAÇÕES DO DICAD- EX. IDT - ANO DE 2015.",Ajuste Direto Regime Geral,Aquisição de serviços,"50750000-7, Serviços de manutenção de elevadores","Administração Regional de Saúde de Lisboa e Vale do Tejo, I. P. (503148776)","GRUPNOR - GRUPO PORTUGUÊS DE ELEVADORES DO NORTE, LDA (500959579)","624,00 €",12-03-2015,17-02-2015,365 dias,"Portugal, Lisboa, Lisboa","Artigo 24.º, n.º 1, alínea c) do Código dos Contratos Públicos","","",,,,Não aplicável.,Não aplicável.,FALSE
"AQUISIÇÃO DE PRESTAÇÃO DE SERVIÇOS DE MANUTENÇÃO E ASSISTÊNCIA TÉCNICA DE ELEVADORES, ASCENSORES E MONTA-CARGAS DA ARSLVT,IP,  ACES E INSTALAÇÕES DO DICAD- EX. IDT - ANO DE 2015.",Ajuste Direto Regime Geral,Aquisição de serviços,"50750000-7, Serviços de manutenção de elevadores","Administração Regional de Saúde de Lisboa e Vale do Tejo, I. P. (503148776)","GRUPNOR - GRUPO PORTUGUÊS DE ELEVADORES DO NORTE, LDA (500959579)","468,00 €",12-03-2015,17-02-2015,365 dias,"Portugal, Santarém, Almeirim","Artigo 24.º, n.º 1, alínea c) do Código dos Contratos Públicos","","",,,,Não aplicável.,Não aplicável.,FALSE
"AQUISIÇÃO DE PRESTAÇÃO DE SERVIÇOS DE MANUTENÇÃO E ASSISTÊNCIA TÉCNICA DE ELEVADORES, ASCENSORES E MONTA-CARGAS DA ARSLVT,IP,  ACES E INSTALAÇÕES DO DICAD- EX. IDT - ANO DE 2015.",Ajuste Direto Regime Geral,Aquisição de serviços,"50750000-7, Serviços de manutenção de elevadores","Administração Regional de Saúde de Lisboa e Vale do Tejo, I. P. (503148776)","GRUPNOR - GRUPO PORTUGUÊS DE ELEVADORES DO NORTE, LDA (500959579)","1.560,00 €",12-03-2015,17-02-2015,365 dias,"Portugal, Santarém, Mação","Artigo 24.º, n.º 1, alínea c) do Código dos Contratos Públicos","","",,,,Não aplicável.,Não aplicável.,FALSE
"AQUISIÇÃO DE PRESTAÇÃO DE SERVIÇOS DE MANUTENÇÃO E ASSISTÊNCIA TÉCNICA DE ELEVADORES, ASCENSORES E MONTA-CARGAS DA ARSLVT,IP,  ACES E INSTALAÇÕES DO DICAD- EX. IDT - ANO DE 2015.",Ajuste Direto Regime Geral,Aquisição de serviços,"50750000-7, Serviços de manutenção de elevadores","Administração Regional de Saúde de Lisboa e Vale do Tejo, I. P. (503148776)","GRUPNOR - GRUPO PORTUGUÊS DE ELEVADORES DO NORTE, LDA (500959579)","1.488,00 €",12-03-2015,17-02-2015,365 dias,"Portugal, Lisboa, Torres Vedras","Artigo 24.º, n.º 1, alínea c) do Código dos Contratos Públicos","","",,,,Não aplicável.,Não aplicável.,FALSE
"AQUISIÇÃO DE PRESTAÇÃO DE SERVIÇOS DE MANUTENÇÃO E ASSISTÊNCIA TÉCNICA DE ELEVADORES, ASCENSORES E MONTA-CARGAS DA ARSLVT,IP,  ACES E INSTALAÇÕES DO DICAD- EX. IDT - ANO DE 2015.",Ajuste Direto Regime Geral,Aquisição de serviços,"50750000-7, Serviços de manutenção de elevadores","Administração Regional de Saúde de Lisboa e Vale do Tejo, I. P. (503148776)","GRUPNOR - GRUPO PORTUGUÊS DE ELEVADORES DO NORTE, LDA (500959579)","84,00 €",12-03-2015,17-02-2015,365 dias,"Portugal, Leiria, Caldas da Rainha","Artigo 24.º, n.º 1, alínea c) do Código dos Contratos Públicos","","",,,,Não aplicável.,Não aplicável.,FALSE
"AQUISIÇÃO DE PRESTAÇÃO DE SERVIÇOS DE MANUTENÇÃO E ASSISTÊNCIA TÉCNICA DE ELEVADORES, ASCENSORES E MONTA-CARGAS DA ARSLVT,IP,  ACES E INSTALAÇÕES DO DICAD- EX. IDT - ANO DE 2015.",Ajuste Direto Regime Geral,Aquisição de serviços,"50750000-7, Serviços de manutenção de elevadores","Administração Regional de Saúde de Lisboa e Vale do Tejo, I. P. (503148776)","GRUPNOR - GRUPO PORTUGUÊS DE ELEVADORES DO NORTE, LDA (500959579)","468,00 €",12-03-2015,17-02-2015,365 dias,"Portugal, Setúbal, Setúbal","Artigo 24.º, n.º 1, alínea c) do Código dos Contratos Públicos","","",,,,Não aplicável.,Não aplicável.,FALSE
"AQUISIÇÃO DE PRESTAÇÃO DE SERVIÇOS DE MANUTENÇÃO E ASSISTÊNCIA TÉCNICA DE ELEVADORES, ASCENSORES E MONTA-CARGAS DA ARSLVT,IP,  ACES E INSTALAÇÕES DO DICAD- EX. IDT - ANO DE 2015.",Ajuste Direto Regime Geral,Aquisição de serviços,"50750000-7, Serviços de manutenção de elevadores","Administração Regional de Saúde de Lisboa e Vale do Tejo, I. P. (503148776)","GRUPNOR - GRUPO PORTUGUÊS DE ELEVADORES DO NORTE, LDA (500959579)","780,00 €",12-03-2015,17-02-2015,365 dias,"Portugal, Setúbal, Barreiro","Artigo 24.º, n.º 1, alínea c) do Código dos Contratos Públicos","","",,,,Não aplicável.,Não aplicável.,FALSE
"AQUISIÇÃO DE PRESTAÇÃO DE SERVIÇOS DE MANUTENÇÃO E ASSISTÊNCIA TÉCNICA DE ELEVADORES, ASCENSORES E MONTA-CARGAS DA ARSLVT,IP,  ACES",Ajuste Direto Regime Geral,Aquisição de serviços,"50750000-7, Serviços de manutenção de elevadores","Administração Regional de Saúde de Lisboa e Vale do Tejo, I. P. (503148776)","GRUPNOR - GRUPO PORTUGUÊS DE ELEVADORES DO NORTE, LDA (500959579)","2.424,00 €",12-03-2015,17-02-2015,365 dias,"Portugal, Setúbal, Almada","Artigo 24.º, n.º 1, alínea c) do Código dos Contratos Públicos","","",,,,Não aplicável.,Não aplicável.,FALSE
"AQUISIÇÃO DE PRESTAÇÃO DE SERVIÇOS DE MANUTENÇÃO E ASSISTÊNCIA TÉCNICA DE ELEVADORES, ASCENSORES E MONTA-CARGAS DA ARSLVT,IP,  ACES",Ajuste Direto Regime Geral,Aquisição de serviços,"50750000-7, Serviços de manutenção de elevadores","Administração Regional de Saúde de Lisboa e Vale do Tejo, I. P. (503148776)","GRUPNOR - GRUPO PORTUGUÊS DE ELEVADORES DO NORTE, LDA (500959579)","2.340,00 €",12-03-2015,17-02-2015,365 dias,"Portugal, Lisboa, Vila Franca de Xira","Artigo 24.º, n.º 1, alínea c) do Código dos Contratos Públicos","","",,,,Não aplicável.,Não aplicável.,FALSE
"AQUISIÇÃO DE PRESTAÇÃO DE SERVIÇOS DE MANUTENÇÃO E ASSISTÊNCIA TÉCNICA DE ELEVADORES, ASCENSORES E MONTA-CARGAS DA ARSLVT,IP,  ACES",Ajuste Direto Regime Geral,Aquisição de serviços,"50750000-7, Serviços de manutenção de elevadores","Administração Regional de Saúde de Lisboa e Vale do Tejo, I. P. (503148776)","GRUPNOR - GRUPO PORTUGUÊS DE ELEVADORES DO NORTE, LDA (500959579)","1.248,00 €",12-03-2015,17-02-2015,365 dias,"Portugal, Lisboa, Loures","Artigo 24.º, n.º 1, alínea c) do Código dos Contratos Públicos","","",,,,Não aplicável.,Não aplicável.,FALSE
"AQUISIÇÃO DE PRESTAÇÃO DE SERVIÇOS DE MANUTENÇÃO E ASSISTÊNCIA TÉCNICA DE ELEVADORES, ASCENSORES E MONTA-CARGAS DA ARSLVT,IP,  ACES",Ajuste Direto Regime Geral,Aquisição de serviços,"50750000-7, Serviços de manutenção de elevadores","Administração Regional de Saúde de Lisboa e Vale do Tejo, I. P. (503148776)","GRUPNOR - GRUPO PORTUGUÊS DE ELEVADORES DO NORTE, LDA (500959579)","2.112,00 €",12-03-2015,17-02-2015,365 dias,"Portugal, Lisboa, Sintra","Artigo 24.º, n.º 1, alínea c) do Código dos Contratos Públicos","","",,,,Não aplicável.,Não aplicável.,FALSE
"AQUISIÇÃO DE PRESTAÇÃO DE SERVIÇOS DE MANUTENÇÃO E ASSISTÊNCIA TÉCNICA DE ELEVADORES, ASCENSORES E MONTA-CARGAS DA ARSLVT,IP,  ACES",Ajuste Direto Regime Geral,Aquisição de serviços,"50750000-7, Serviços de manutenção de elevadores","Administração Regional de Saúde de Lisboa e Vale do Tejo, I. P. (503148776)","GRUPNOR - GRUPO PORTUGUÊS DE ELEVADORES DO NORTE, LDA (500959579)","1.248,00 €",12-03-2015,17-02-2015,365 dias,"Portugal, Lisboa, Amadora","Artigo 24.º, n.º 1, alínea c) do Código dos Contratos Públicos","","",,,,Não aplicável.,Não aplicável.,FALSE
"AQUISIÇÃO DE PRESTAÇÃO DE SERVIÇOS DE MANUTENÇÃO E ASSISTÊNCIA TÉCNICA DE ELEVADORES, ASCENSORES E MONTA-CARGAS DA ARSLVT,IP,  ACES",Ajuste Direto Regime Geral,Aquisição de serviços,"50750000-7, Serviços de manutenção de elevadores","Administração Regional de Saúde de Lisboa e Vale do Tejo, I. P. (503148776)","GRUPNOR - GRUPO PORTUGUÊS DE ELEVADORES DO NORTE, LDA (500959579)","1.716,00 €",12-03-2015,17-02-2015,365 dias,"Portugal, Lisboa, Cascais","Artigo 24.º, n.º 1, alínea c) do Código dos Contratos Públicos","","",,,,Não aplicável.,Não aplicável.,FALSE
"AQUISIÇÃO DE PRESTAÇÃO DE SERVIÇOS DE MANUTENÇÃO E ASSISTÊNCIA TÉCNICA DE ELEVADORES, ASCENSORES E MONTA-CARGAS DA ARSLVT,IP,  ACES E INSTALAÇÕES DO DICAD- EX. IDT - ANO DE 2015.",Ajuste Direto Regime Geral,Aquisição de serviços,"50750000-7, Serviços de manutenção de elevadores","Administração Regional de Saúde de Lisboa e Vale do Tejo, I. P. (503148776)","GRUPNOR - GRUPO PORTUGUÊS DE ELEVADORES DO NORTE, LDA (500959579)","1.800,00 €",12-03-2015,17-02-2015,365 dias,"Portugal, Lisboa, Lisboa","Artigo 24.º, n.º 1, alínea c) do Código dos Contratos Públicos","","",,,,Não aplicável.,Não aplicável.,FALSE
"AQUISIÇÃO DE PRESTAÇÃO DE SERVIÇOS DE MANUTENÇÃO E ASSISTÊNCIA TÉCNICA DE ELEVADORES, ASCENSORES E MONTA-CARGAS DA ARSLVT,IP,  ACES E INSTALAÇÕES DO DICAD- EX. IDT - ANO DE 2015.",Ajuste Direto Regime Geral,Aquisição de serviços,"50750000-7, Serviços de manutenção de elevadores","Administração Regional de Saúde de Lisboa e Vale do Tejo, I. P. (503148776)","GRUPNOR - GRUPO PORTUGUÊS DE ELEVADORES DO NORTE, LDA (500959579)","1.800,00 €",12-03-2015,17-02-2015,365 dias,"Portugal, Lisboa, Lisboa","Artigo 24.º, n.º 1, alínea c) do Código dos Contratos Públicos","","",,,,Não aplicável.,Não aplicável.,FALSE
"AQUISIÇÃO DE PRESTAÇÃO DE SERVIÇOS DE MANUTENÇÃO E ASSISTÊNCIA TÉCNICA DE ELEVADORES, ASCENSORES E MONTA-CARGAS DA ARSLVT,IP,  ACES E INSTALAÇÕES DO DICAD- EX. IDT - ANO DE 2015.",Ajuste Direto Regime Geral,Aquisição de serviços,"50750000-7, Serviços de manutenção de elevadores","Administração Regional de Saúde de Lisboa e Vale do Tejo, I. P. (503148776)","GRUPNOR - GRUPO PORTUGUÊS DE ELEVADORES DO NORTE, LDA (500959579)","1.428,00 €",12-03-2015,17-02-2015,365 dias,"Portugal, Lisboa, Lisboa","Artigo 24.º, n.º 1, alínea c) do Código dos Contratos Públicos","","",,,,Não aplicável.,Não aplicável.,FALSE
Aqusição de Omeprazol 20MG comprimidos,Ajuste Direto Regime Geral,Aquisição de bens móveis,"33000000-0, Equipamento médico, medicamentos e produtos para cuidados pessoais","Administração Regional de Saúde de Lisboa e Vale do Tejo, I. P. (503148776)","GENERIS FARMACEUTICA, S.A. (508107997)","187,50 €",12-03-2015,10-03-2015,295 dias,"Portugal, Lisboa","Artigo 26.º, n.º 1, alínea e) do Código dos Contratos Públicos","","",,,,Não aplicável.,Não aplicável.,FALSE
Aquisição de vinhetas e blocos de receituario - ACES Oeste Sul,Ajuste Direto Regime Geral,Aquisição de bens móveis,"30199761-2, Etiquetas com códigos de barras","Administração Regional de Saúde de Lisboa e Vale do Tejo, I. P. (503148776)",INCM - Imprensa Nacional Casa da Moeda (500792887),"95,00 €",11-03-2015,27-02-2015,20 dias,"Portugal, Lisboa, Torres Vedras","Artigo 24.º, n.º 1, alínea e) do Código dos Contratos Públicos",04-03-2015,"95,00 €",,,,Não aplicável.,Não aplicável.,FALSE
Aqusição de Metoclopramida 10MG/2ML,Ajuste Direto Regime Geral,Aquisição de bens móveis,"33000000-0, Equipamento médico, medicamentos e produtos para cuidados pessoais","Administração Regional de Saúde de Lisboa e Vale do Tejo, I. P. (503148776)","LABESFAL - LABORATORIOS ALMIRO, S.A. (501169580)","1.650,00 €",11-03-2015,05-03-2015,289 dias,"Portugal, Lisboa","Artigo 26.º, n.º 1, alínea e) do Código dos Contratos Públicos","","",,,,Não aplicável.,Não aplicável.,FALSE
