Objeto do Contrato,Tipo de Procedimento,Tipo(s) de Contrato,CPVs,Entidade(s) Adjudicante(s),Entidade(s) Adjudicatária(s),Preço Contratual,Data de Publicação,Data de Celebração do Contrato,Prazo de Execução,Local de Execução,Fundamentação,Data de Fecho do Contrato,Preço Total Efetivo,Causas das Alterações ao Prazo,Causas das Alterações ao Preço,Estado,N.º registo do Acordo Quadro,Descrição do Acordo Quadro,Procedimento Centralizado
02/00006.25/2017 - Aquisição de Material de Consumo Diverso para Laboratório,Concurso público,Aquisição de bens móveis,"33000000-0, Equipamento médico, medicamentos e produtos para cuidados pessoais","Centro Hospitalar de Entre o Douro e Vouga, E.P.E. (508878462)","PVL - PRODUTOS PARA LABORATÓRIO, LDA (501411852), Fischer Scientific, Ldª (506429210), Z-MED, Equipamentos Médicos e Hospitalares, Lda (508531535), VACUETTE PORTUGAL, SA (505348470), SARSTEDT (503019461), Frilabo II, Lda. (507958861), JOSÉ MANUEL GOMES DOS DOS SANTOS (501399224), BIOPORTUGAL (502380543), EZEQUIEL PANÄO JORGE (501412727), VIDROLAB 2 - VID MAT LABORAT, SA (501450629),  VWR INTERNATIONAL- MATERIAL DE LABORATORIO, LDA (503842770), NORMAX - Fabrica de Vidros Cientificos, Lda (500203130)","30.463,77 €",29-05-2017,10-05-2017,240 dias,"Portugal, Aveiro, Santa Maria da Feira","Artigo 20.º, n.º 1, alínea b) do Código dos Contratos Públicos",,,,,,Não aplicável.,Não aplicável.,FALSE
02/00030.23/2015 - Aquisição de Material Urodinâmico e Reeducação do Pavimento Pélvico,Concurso público,Aquisição de bens móveis,"33140000-3, Material médico de consumo","Centro Hospitalar de Entre o Douro e Vouga, E.P.E. (508878462)","SPECULUM - Artigos Médicos, S.A. (502996323)","2.350,00 €",29-05-2017,04-05-2017,240 dias,"Portugal, Aveiro, Santa Maria da Feira","Artigo 20.º, n.º 1, alínea b) do Código dos Contratos Públicos",,,,,,Não aplicável.,Não aplicável.,FALSE
02/00030.23/2015 - Aquisição de Material Urodinâmico e Reeducação do Pavimento Pélvico,Concurso público,Aquisição de bens móveis,"33140000-3, Material médico de consumo","Centro Hospitalar de Entre o Douro e Vouga, E.P.E. (508878462)","TEPREL- Equipamentos Médicos, ldª. (502262184)","2.450,00 €",29-05-2017,04-05-2017,240 dias,"Portugal, Aveiro, Santa Maria da Feira","Artigo 20.º, n.º 1, alínea b) do Código dos Contratos Públicos",,,,,,Não aplicável.,Não aplicável.,FALSE
02/00030.23/2015 - Aquisição de Material Urodinâmico e Reeducação do Pavimento Pélvico,Concurso público,Aquisição de bens móveis,"33140000-3, Material médico de consumo","Centro Hospitalar de Entre o Douro e Vouga, E.P.E. (508878462)",Mundinter (500199906),"13.457,45 €",29-05-2017,04-05-2017,240 dias,"Portugal, Aveiro, Santa Maria da Feira","Artigo 20.º, n.º 1, alínea b) do Código dos Contratos Públicos",,,,,,Não aplicável.,Não aplicável.,FALSE
Aquisição do medicamento “Cabazitaxel 60mg/1.5ml conc e solv inj fr 1.5ml iv” (AD-AC-2017-41) - Compras Centralizadas ano 2017,Ajuste Direto Regime Geral,Aquisição de bens móveis,"33600000-6, Produtos farmacêuticos","Centro Hospitalar de Entre o Douro e Vouga, E.P.E. (508878462)",Sanofi (500134960),"27.797,00 €",26-05-2017,08-05-2017,238 dias,"Portugal, Aveiro, Santa Maria da Feira","Artigo 24.º, n.º 1, alínea e) do Código dos Contratos Públicos",,,,,,Não aplicável.,Não aplicável.,FALSE
Aquisição de Aflibercept 40mg/ml sol inj fr 100ul intravitreo e Sorafenib 200 mg comp (P259-AC-2017-53) - Compras Centralizadas ano 2017,Ao abrigo de acordo-quadro (art.º 259.º),Aquisição de bens móveis,"33600000-6, Produtos farmacêuticos","Centro Hospitalar de Entre o Douro e Vouga, E.P.E. (508878462)","BAYER PORTUGAL, S.A. (500043256)","14.330,88 €",26-05-2017,29-03-2017,276 dias,"Portugal, Aveiro, Santa Maria da Feira",Artigo 259.º do Código dos Contratos Públicos,,,,,,1377420,Acordo quadro para fornecimento de medicamentos usados nas afecções oculares e otorrinolaringologias às instituições e serviços do serviço nacional de saúde,FALSE
Aquisição de Aflibercept 40mg/ml sol inj fr 100ul intravitreo e Sorafenib 200 mg comp (P259-AC-2017-53) - Compras Centralizadas ano 2017,Ao abrigo de acordo-quadro (art.º 259.º),Aquisição de bens móveis,"33600000-6, Produtos farmacêuticos","Centro Hospitalar de Entre o Douro e Vouga, E.P.E. (508878462)","BAYER PORTUGAL, S.A. (500043256)","21.557,26 €",26-05-2017,29-03-2017,276 dias,"Portugal, Aveiro, Santa Maria da Feira",Artigo 259.º do Código dos Contratos Públicos,,,,,,1771819,CP 2015/6 - Acordo quadro para o fornecimento de Medicamentos do Foro Oncológico,FALSE
Aquisição de Medicamentos Exclusivos Amgen (P259-AC-2017-34) - Compras Centralizadas ano 2017,Ao abrigo de acordo-quadro (art.º 259.º),Aquisição de bens móveis,"33600000-6, Produtos farmacêuticos","Centro Hospitalar de Entre o Douro e Vouga, E.P.E. (508878462)",AMGEN-BIOFARMACEUTICA LDA (502942959),"55.262,40 €",26-05-2017,23-03-2017,283 dias,"Portugal, Aveiro, Santa Maria da Feira",Artigo 259.º do Código dos Contratos Públicos,,,,,,1410779,CP 2015/47 - Acordo quadro para fornecimento de medicamentos do aparelho locomotor às instituições e serviços do serviço nacional de saúde,FALSE
Aquisição de Medicamentos Exclusivos Amgen (P259-AC-2017-34) - Compras Centralizadas ano 2017,Ao abrigo de acordo-quadro (art.º 259.º),Aquisição de bens móveis,"33600000-6, Produtos farmacêuticos","Centro Hospitalar de Entre o Douro e Vouga, E.P.E. (508878462)",AMGEN-BIOFARMACEUTICA LDA (502942959),"64.133,49 €",26-05-2017,23-03-2017,283 dias,"Portugal, Aveiro, Santa Maria da Feira",Artigo 259.º do Código dos Contratos Públicos,,,,,,1771819,CP 2015/6 - Acordo quadro para o fornecimento de Medicamentos do Foro Oncológico,FALSE
Aquisição do medicamento “Vinorrelbina 30mg cáps (P259-AC-2017-06) - Compras Centralizadas ano 2017,Ao abrigo de acordo-quadro (art.º 259.º),Aquisição de bens móveis,"33600000-6, Produtos farmacêuticos","Centro Hospitalar de Entre o Douro e Vouga, E.P.E. (508878462)","Pierre Fabre Médicament Portugal, Lda (500230366)","35.496,00 €",26-05-2017,28-02-2017,305 dias,"Portugal, Aveiro, Santa Maria da Feira",Artigo 259.º do Código dos Contratos Públicos,,,,,,2124520,CP 2016/55 - Medicamentos Diversos,FALSE
03/00019.42/2017 - Obras substituição telhado CE e Medicina e reparação telhado armazém clinico.- HOAZ,Ajuste Direto Regime Geral,Empreitadas de obras públicas,"45453000-7, Obras de revisão e recuperação","Centro Hospitalar de Entre o Douro e Vouga, E.P.E. (508878462)","J. DA SILVA FARIA, LDA (501600051)","94.437,14 €",25-05-2017,01-05-2017,60 dias,"Portugal, Aveiro, Santa Maria da Feira","Artigo 19.º, alínea a) do Código dos Contratos Públicos",,,,,,Não aplicável.,Não aplicável.,FALSE
Aq. do medicamento “Efavirenz + Emtricitabina + Tenofovir (600+200+245mg) comp / Tenofovir (P259-AC-2017-15) - Compras Centralizadas ano 2017,Ao abrigo de acordo-quadro (art.º 259.º),Aquisição de bens móveis,"33600000-6, Produtos farmacêuticos","Centro Hospitalar de Entre o Douro e Vouga, E.P.E. (508878462)","Gilead Sciences, Lda. (503604704)","53.392,56 €",25-05-2017,28-02-2017,305 dias,"Portugal, Aveiro, Santa Maria da Feira",Artigo 259.º do Código dos Contratos Públicos,,,,,,2183729,Medicamentos antirretrovíricos para o tratamento da infeção por VIH,FALSE
07/00011.11/2017 - Aquisição do medicamento Adalimumab / lopinavir + ritonavir 250mg comp (P259-AC-2016-244),Ao abrigo de acordo-quadro (art.º 259.º),Aquisição de bens móveis,"33600000-6, Produtos farmacêuticos","Centro Hospitalar de Entre o Douro e Vouga, E.P.E. (508878462)","AbbVie, Lda. (510229050)","2.659,10 €",24-05-2017,26-01-2017,340 dias,"Portugal, Aveiro, Santa Maria da Feira",Artigo 259.º do Código dos Contratos Públicos,,,,,,2183729,Medicamentos antirretrovíricos para o tratamento da infeção por VIH,FALSE
Aquisição do medicamento Adalimumab / lopinavir + ritonavir 250mg comp (P259-AC-2016-244) - Compras Centralizadas ano 2017,Ao abrigo de acordo-quadro (art.º 259.º),Aquisição de bens móveis,"33600000-6, Produtos farmacêuticos","Centro Hospitalar de Entre o Douro e Vouga, E.P.E. (508878462)","AbbVie, Lda. (510229050)","190.059,71 €",24-05-2017,26-01-2017,340 dias,"Portugal, Aveiro, Santa Maria da Feira",Artigo 259.º do Código dos Contratos Públicos,,,,,,1771819,CP 2015/6 - Acordo quadro para o fornecimento de Medicamentos do Foro Oncológico,FALSE
Aq. Medicamentos Exclusivos Janssen (P259-AC-2017-45) - Compras Centralizadas 2017,Ao abrigo de acordo-quadro (art.º 259.º),Aquisição de bens móveis,"33600000-6, Produtos farmacêuticos","Centro Hospitalar de Entre o Douro e Vouga, E.P.E. (508878462)","Janssen Cilag Farmacêutica, Lda. (500189412)","340.855,00 €",24-05-2017,04-05-2017,242 dias,"Portugal, Aveiro, Santa Maria da Feira",Artigo 259.º do Código dos Contratos Públicos,,,,,,1771819,CP 2015/6 - Acordo quadro para o fornecimento de Medicamentos do Foro Oncológico,FALSE
02/00023.62/2017 - Aquisição de Prestação de Serviços Médicos de Medicina do Trabalho,Concurso público,Aquisição de serviços,"85147000-1, Serviços de medicina do trabalho","Centro Hospitalar de Entre o Douro e Vouga, E.P.E. (508878462)","Medempresa - Medicina da Empresa, S. A. (502777354)","24.000,00 €",24-05-2017,10-05-2017,240 dias,"Portugal, Aveiro, Santa Maria da Feira","Artigo 20.º, n.º 1, alínea b) do Código dos Contratos Públicos",,,,,,Não aplicável.,Não aplicável.,FALSE
11/00110.11/2017 - Aquisição do medicamento Idarucizumab 2.5g/50ml sol inj fr50ml iv,Ajuste Direto Regime Geral,Aquisição de bens móveis,"33600000-6, Produtos farmacêuticos","Centro Hospitalar de Entre o Douro e Vouga, E.P.E. (508878462)","UNILFARMA-UNIAO INTERN.LABOR.FARM., LDA (500293023)","8.032,00 €",22-05-2017,22-05-2017,223 dias,"Portugal, Aveiro, Santa Maria da Feira","Artigo 24.º, n.º 1, alínea e) do Código dos Contratos Públicos",,,,,,Não aplicável.,Não aplicável.,FALSE
