Objeto do Contrato,Tipo de Procedimento,Tipo(s) de Contrato,CPVs,Entidade(s) Adjudicante(s),Entidade(s) Adjudicatária(s),Preço Contratual,Data de Publicação,Data de Celebração do Contrato,Prazo de Execução,Local de Execução,Fundamentação,Data de Fecho do Contrato,Preço Total Efetivo,Causas das Alterações ao Prazo,Causas das Alterações ao Preço,Estado,N.º registo do Acordo Quadro,Descrição do Acordo Quadro,Procedimento Centralizado
"Renovação do Contrato de Manutenção e Assistência Técnica aos equipamentos """"Grifols"""" do CHSJ, EPE, para o ano de 2015",Ajuste Direto Regime Geral,Aquisição de serviços,"50000000-5, Serviços de reparação e manutenção","Centro Hospitalar de São João, E. P. E. (509821197)","Grifols Portugal, Produtos Farmacêuticos e Hospitalares, Lda (502041285)","16.292,65 €",07-01-2016,06-01-2015,365 dias,"Portugal, Porto, Porto","Artigo 24.º, n.º 1, alínea e) do Código dos Contratos Públicos",,,,,,Não aplicável.,Não aplicável.,FALSE
"Renovação do Contrato de Manutenção e Assistência Técnica a vários Equipamentos do Serviço de Oftalmologia do CHSJ, EPE, para o ano de 2015.",Ajuste Direto Regime Geral,Aquisição de serviços,"50000000-5, Serviços de reparação e manutenção","Centro Hospitalar de São João, E. P. E. (509821197)","José Cotta - Equipamentos Médicos e Serviços, S.A. (500155739)","8.553,60 €",07-01-2016,19-03-2015,365 dias,"Portugal, Porto, Porto","Artigo 24.º, n.º 1, alínea e) do Código dos Contratos Públicos",,,,,,Não aplicável.,Não aplicável.,FALSE
"Renovação do Contrato de Manutenção e Assistência Técnica às cadeiras do Serviço de Estomatologia marca """"Kavo"""" do CHSJ, EPE, para o ano de 2015.",Ajuste Direto Regime Geral,Aquisição de serviços,"50000000-5, Serviços de reparação e manutenção","Centro Hospitalar de São João, E. P. E. (509821197)","Leonel Ferreira & Guedes, Lda (507811321)","7.200,00 €",07-01-2016,03-03-2015,365 dias,"Portugal, Porto, Porto","Artigo 20.º, n.º 1, alínea a) do Código dos Contratos Públicos",,,,,,Não aplicável.,Não aplicável.,FALSE
"Renovação do Contrato de Manutenção e Assistência Técnica aos Equipamentos """"Shimadzu"""" do CHSJ, EPE, para o ano de 2015.",Ajuste Direto Regime Geral,Aquisição de serviços,"50000000-5, Serviços de reparação e manutenção","Centro Hospitalar de São João, E. P. E. (509821197)","Med X Ray - Sistemas Médicos, Lda (506187071)","25.054,40 €",07-01-2016,06-01-2015,365 dias,"Portugal, Porto, Porto","Artigo 24.º, n.º 1, alínea e) do Código dos Contratos Públicos",,,,,,Não aplicável.,Não aplicável.,FALSE
"Renovação do Contrato de Manutenção e Assistência Técnica à cama """"Clinitron"""" da Unidade de Queimados do CHSJ, EPE, para o ano de 2015.",Ajuste Direto Regime Geral,Aquisição de serviços,"50000000-5, Serviços de reparação e manutenção","Centro Hospitalar de São João, E. P. E. (509821197)","Sano-Técnica, Lda. (500239819)","6.679,20 €",07-01-2016,25-02-2015,365 dias,"Portugal, Porto, Porto","Artigo 24.º, n.º 1, alínea e) do Código dos Contratos Públicos",,,,,,Não aplicável.,Não aplicável.,FALSE
"Contrato de Manutenção e assistência Técnica ao equipamento Olympus """"Sakura"""" do CHSJ, EPE, para o ano de 2015",Ajuste Direto Regime Geral,Aquisição de serviços,"50000000-5, Serviços de reparação e manutenção","Centro Hospitalar de São João, E. P. E. (509821197)","Olympus Iberia, S.A.U. - Sucursal Portugal (980474710)","6.552,00 €",07-01-2016,06-08-2015,365 dias,"Portugal, Porto, Porto","Artigo 24.º, n.º 1, alínea e) do Código dos Contratos Públicos",,,,,,Não aplicável.,Não aplicável.,FALSE
"Aquisição de 102 módulos de arquivo de blocos de parafina para o Serviço de Anatomia Patológica do CHSJ, EPE",Ajuste Direto Regime Geral,Aquisição de bens móveis,"39132000-6, Sistemas de arquivo","Centro Hospitalar de São João, E. P. E. (509821197)","Garal - Gabinete Técnico Comercial, Lda (500777314)","29.172,00 €",07-01-2016,18-11-2015,30 dias,"Portugal, Porto, Porto","Artigo 20.º, n.º 1, alínea a) do Código dos Contratos Públicos",,,,,,Não aplicável.,Não aplicável.,FALSE
"Contrato de Manutenção de Licenciamento, do Software de Antivírus Mcafee instataldo no CHSJ, EPE, para o ano de 2016",Ajuste Direto Regime Geral,Aquisição de serviços,"50000000-5, Serviços de reparação e manutenção","Centro Hospitalar de São João, E. P. E. (509821197)","Iten Solutions - Sistemas de Informação, S.A. (510728189)","9.966,69 €",05-01-2016,17-12-2015,365 dias,"Portugal, Porto, Porto","Artigo 20.º, n.º 1, alínea a) do Código dos Contratos Públicos",,,,,,Não aplicável.,Não aplicável.,FALSE
"Contrato de Manutenção e Assistência Técnica aos Softwares SGICM, SISLAB, SIBAS, ANAPAT e EPR-OR instalados no CHSJ, EPE, para o ano de 2015",Ajuste Direto Regime Geral,Aquisição de serviços,"50000000-5, Serviços de reparação e manutenção","Centro Hospitalar de São João, E. P. E. (509821197)","Glintt - Healthcare Solutions, S.A. (502479418)","115.957,41 €",05-01-2016,21-12-2015,365 dias,"Portugal, Porto, Porto","Artigo 24.º, n.º 1, alínea e) do Código dos Contratos Públicos",,,,,,Não aplicável.,Não aplicável.,FALSE
