Objeto do Contrato,Tipo de Procedimento,Tipo(s) de Contrato,CPVs,Entidade(s) Adjudicante(s),Entidade(s) Adjudicatária(s),Preço Contratual,Data de Publicação,Data de Celebração do Contrato,Prazo de Execução,Local de Execução,Fundamentação,Data de Fecho do Contrato,Preço Total Efetivo,Causas das Alterações ao Prazo,Causas das Alterações ao Preço,Estado,N.º registo do Acordo Quadro,Descrição do Acordo Quadro,Procedimento Centralizado
P259-2018-113 - Convite à apresentação de proposta ao fornecedor com o qual tenha sido homologado CPA ao abrigo do Acordo Quadro 2017/67 – Medicamentos para a Hepatite C crónica.,Ao abrigo de acordo-quadro (art.º 259.º),Aquisição de bens móveis,"33600000-6, Produtos farmacêuticos","Centro Hospitalar do Porto, E. P. E. (508331471)","ABBVIE, LDA (510229050)","6.600,00 €",11-10-2018,13-09-2018,365 dias,"Portugal, Porto, Porto<BR/>Portugal",Artigo 259.º do Código dos Contratos Públicos,,,,,,3023927,CP 2017/67 - Medicamentos para a Hepatite C crónica,TRUE
P259-2018-113 - Convite à apresentação de proposta ao fornecedor com o qual tenha sido homologado CPA ao abrigo do Acordo Quadro 2017/67 – Medicamentos para a Hepatite C crónica.,Ao abrigo de acordo-quadro (art.º 259.º),Aquisição de bens móveis,"33600000-6, Produtos farmacêuticos","Centro Hospitalar do Porto, E. P. E. (508331471)","ABBVIE, LDA (510229050)","66.000,00 €",11-10-2018,13-09-2018,365 dias,"Portugal<BR/>Portugal, Porto, Porto",Artigo 259.º do Código dos Contratos Públicos,,,,,,3023927,CP 2017/67 - Medicamentos para a Hepatite C crónica,TRUE
