Objeto do Contrato,Tipo de Procedimento,Tipo(s) de Contrato,CPVs,Entidade(s) Adjudicante(s),Entidade(s) Adjudicatária(s),Preço Contratual,Data de Publicação,Data de Celebração do Contrato,Prazo de Execução,Local de Execução,Fundamentação,Data de Fecho do Contrato,Preço Total Efetivo,Causas das Alterações ao Prazo,Causas das Alterações ao Preço,Estado,N.º registo do Acordo Quadro,Descrição do Acordo Quadro,Procedimento Centralizado
Serviços Médicos Endocrinologia - outubro a dezembro 2017,Ajuste Direto Regime Geral,Aquisição de serviços,"85000000-9, Serviços de saúde e acção social","Centro Hospitalar de Setúbal, E. P. E. (507606787)",Ricardo Manuel Manteigas de Castro Fonseca (219044295),"6.000,00 €",10-11-2017,03-10-2017,120 dias,"Portugal, Setúbal, Setúbal","Artigo 20.º, n.º 1, alínea a) do Código dos Contratos Públicos",,,,,,Não aplicável.,Não aplicável.,FALSE
Serviços Médicos Anestesia,Ajuste Direto Regime Geral,Aquisição de serviços,"85000000-9, Serviços de saúde e acção social","Centro Hospitalar de Setúbal, E. P. E. (507606787)","F. CARVALHO ARAÚJO, LDA (507606671)","74.880,00 €",08-11-2017,23-05-2017,365 dias,"Portugal, Setúbal, Setúbal","Artigo 20.º, n.º 1, alínea a) do Código dos Contratos Públicos",,,,,,Não aplicável.,Não aplicável.,FALSE
Ecógrafo para o Serviço de Imagiologia,Ajuste Direto Regime Geral,Aquisição de bens móveis,"33000000-0, Equipamento médico, medicamentos e produtos para cuidados pessoais","Centro Hospitalar de Setúbal, E. P. E. (507606787)",Toshiba Medical Systems S.A. (980023700),"42.000,00 €",07-11-2017,07-11-2017,20 dias,"Portugal, Setúbal, Setúbal","Artigo 20.º, n.º 1, alínea a) do Código dos Contratos Públicos",,,,,,Não aplicável.,Não aplicável.,FALSE
Serviços Médicos UCI - agosto a dezembro 2017,Ajuste Direto Regime Geral,Aquisição de serviços,"85000000-9, Serviços de saúde e acção social","Centro Hospitalar de Setúbal, E. P. E. (507606787)","GERMANO & EMÍLIO - SERVIÇOS DE SAÚDE, LDA (508029570)","21.120,00 €",07-11-2017,12-10-2017,152 dias,"Portugal, Setúbal, Setúbal","Artigo 20.º, n.º 1, alínea a) do Código dos Contratos Públicos",,,,,,Não aplicável.,Não aplicável.,FALSE
Serviços Médicos UCI - julho a dezembro 2017,Ajuste Direto Regime Geral,Aquisição de serviços,"85000000-9, Serviços de saúde e acção social","Centro Hospitalar de Setúbal, E. P. E. (507606787)",Pedro Rodrigues Gomes e Melo de la Feria (215602170),"11.216,64 €",07-11-2017,17-10-2017,183 dias,"Portugal, Setúbal, Setúbal","Artigo 20.º, n.º 1, alínea a) do Código dos Contratos Públicos",,,,,,Não aplicável.,Não aplicável.,FALSE
Serviços Médicos no serviço UCI,Ajuste Direto Regime Geral,Aquisição de serviços,"85000000-9, Serviços de saúde e acção social","Centro Hospitalar de Setúbal, E. P. E. (507606787)",Nuno Daniel Gaibino Silva (242076513),"7.200,00 €",07-11-2017,17-10-2017,183 dias,"Portugal, Setúbal, Setúbal","Artigo 20.º, n.º 1, alínea a) do Código dos Contratos Públicos",,,,,,Não aplicável.,Não aplicável.,FALSE
Lâminas para máquina de tricotomia para o ano de 2018,Ajuste Direto Regime Geral,Aquisição de bens móveis,"33000000-0, Equipamento médico, medicamentos e produtos para cuidados pessoais","Centro Hospitalar de Setúbal, E. P. E. (507606787)","3M Espãna, S.L. Sucursal em Protugal (980560241)","8.512,00 €",07-11-2017,06-11-2017,365 dias,"Portugal, Setúbal, Setúbal","Artigo 20.º, n.º 1, alínea a) do Código dos Contratos Públicos",,,,,,Não aplicável.,Não aplicável.,FALSE
Serviços Médicos Medicina Interna SUG,Ajuste Direto Regime Geral,Aquisição de serviços,"85000000-9, Serviços de saúde e acção social","Centro Hospitalar de Setúbal, E. P. E. (507606787)",Vitor Emanuel Varela de Freitas (233074317),"23.040,00 €",06-11-2017,27-04-2017,365 dias,"Portugal, Setúbal, Setúbal","Artigo 20.º, n.º 1, alínea a) do Código dos Contratos Públicos",,,,,,Não aplicável.,Não aplicável.,FALSE
AQ URGENTE: DOLUTEGRAVIR 50 MG COMP,Ao abrigo de acordo-quadro (art.º 259.º),Aquisição de bens móveis,"33600000-6, Produtos farmacêuticos","Centro Hospitalar de Setúbal, E. P. E. (507606787)","VIIVHIV HEALTHCARE, UNIPESSOAL. LDA                (509117961)","5.280,01 €",02-11-2017,30-10-2017,365 dias,"Portugal, Setúbal, Setúbal",Artigo 259.º do Código dos Contratos Públicos,,,,,,2545980,CP 2017/61 - Acordo quadro para fornecimento de Medicamentos Diversos   às Instituições e Serviços do Serviço Nacional de Saúde,FALSE
Fenilefrina 5.376 mg + Tropicamida 0.28 mg Inserto oft,Ajuste Direto Regime Geral,Aquisição de bens móveis,"33600000-6, Produtos farmacêuticos","Centro Hospitalar de Setúbal, E. P. E. (507606787)","THEA PORTUGAL, S.A. (507978358)","12.279,40 €",02-11-2017,21-08-2017,365 dias,"Portugal, Setúbal, Setúbal","Artigo 24.º, n.º 1, alínea e) do Código dos Contratos Públicos",,,,,,Não aplicável.,Não aplicável.,FALSE
MEDICAMENTOS DIVERSOS,Ao abrigo de acordo-quadro (art.º 259.º),Aquisição de bens móveis,"33600000-6, Produtos farmacêuticos","Centro Hospitalar de Setúbal, E. P. E. (507606787)","CSL BEHRING,Ldª (503047201)","721.130,00 €",02-11-2017,14-09-2017,365 dias,"Portugal, Setúbal, Setúbal",Artigo 259.º do Código dos Contratos Públicos,,,,,,2124520,CP 2016/55 - Medicamentos Diversos,FALSE
Ecógrafos para o serviço de Anestesiologia,Concurso público,Aquisição de bens móveis,"33100000-1, Equipamento médico","Centro Hospitalar de Setúbal, E. P. E. (507606787)","Siemens Healthcare, Lda (507925173)","33.460,00 €",31-10-2017,24-10-2017,25 dias,"Portugal, Setúbal, Setúbal","Artigo 20.º, n.º 1, alínea b) do Código dos Contratos Públicos",,,,,,Não aplicável.,Não aplicável.,FALSE
Equipamento para artroscopia,Ajuste Direto Regime Geral,Aquisição de bens móveis,"33000000-0, Equipamento médico, medicamentos e produtos para cuidados pessoais","Centro Hospitalar de Setúbal, E. P. E. (507606787)",Smith & Nephew (503552461),"13.388,00 €",31-10-2017,30-10-2017,5 dias,"Portugal, Setúbal, Setúbal","Artigo 24.º, n.º 1, alínea e) do Código dos Contratos Públicos",,,,,,Não aplicável.,Não aplicável.,FALSE
2C001117 - TAC's para o Ano de 2017 - Agosto a Dezembro,Concurso público,Aquisição de serviços,"85150000-5, Serviços de imagiologia médica","Centro Hospitalar de Setúbal, E. P. E. (507606787)","DIMASUL - Diagnostico pela Imagem do Sul, Lda. (502654643)","24.346,00 €",31-10-2017,21-08-2017,133 dias,"Portugal, Setúbal, Setúbal","Artigo 20.º, n.º 1, alínea b) do Código dos Contratos Públicos",,,,,,Não aplicável.,Não aplicável.,FALSE
Ecógrafo para o serviço de Urgência,Ajuste Direto Regime Geral,Aquisição de bens móveis,"33000000-0, Equipamento médico, medicamentos e produtos para cuidados pessoais","Centro Hospitalar de Setúbal, E. P. E. (507606787)","Speculum - Artigos Médicos, S.A. (502996323)","19.458,85 €",31-10-2017,26-10-2017,10 dias,"Portugal, Setúbal, Setúbal","Artigo 20.º, n.º 1, alínea a) do Código dos Contratos Públicos",,,,,,Não aplicável.,Não aplicável.,FALSE
