Objeto do Contrato,Tipo de Procedimento,Tipo(s) de Contrato,CPVs,Entidade(s) Adjudicante(s),Entidade(s) Adjudicatária(s),Preço Contratual,Data de Publicação,Data de Celebração do Contrato,Prazo de Execução,Local de Execução,Fundamentação,Data de Fecho do Contrato,Preço Total Efetivo,Causas das Alterações ao Prazo,Causas das Alterações ao Preço,Estado,N.º registo do Acordo Quadro,Descrição do Acordo Quadro,Procedimento Centralizado
Substituição do Equipamento de RX da Sala 3 do Serviço de Radiologia,Ajuste Direto Regime Geral,Aquisição de bens móveis,"33111600-7, Aparelhos de radiografia","Centro Hospitalar de São João, E. P. E. (509821197)",Siemens SA (500247480),"49.174,00 €",07-06-2013,03-06-2013,30 dias,"Portugal, Porto, Porto","Artigo 26.º, n.º 1, alínea a) do Código dos Contratos Públicos",,,,,,Não aplicável.,Não aplicável.,
Integração SIIMA ECG no Electrocardiógrafo do Serviço de Cardiologia,Ajuste Direto Regime Geral,Aquisição de serviços,"72500000-0, Serviços relacionados com a informática","Centro Hospitalar de São João, E. P. E. (509821197)",First Solutions SA (505345978),"285,50 €",07-06-2013,03-06-2013,30 dias,"Portugal, Porto, Porto","Artigo 24.º, n.º 1, alínea e) do Código dos Contratos Públicos",,,,,,Não aplicável.,Não aplicável.,
Equipamento de aquisição e armazenamento de imagens para o Serviço de Gastroenterologia,Ajuste Direto Regime Geral,Aquisição de bens móveis,"30200000-1, Equipamento e material informático","Centro Hospitalar de São João, E. P. E. (509821197)",First Solutions SA (505345978),"8.200,00 €",07-06-2013,03-06-2013,30 dias,"Portugal, Porto, Porto","Artigo 24.º, n.º 1, alínea e) do Código dos Contratos Públicos",,,,,,Não aplicável.,Não aplicável.,
Aquisição de Licença de Diagnóstico para Estação de Trabalho Patologia Mamária,Ajuste Direto Regime Geral,Aquisição de bens móveis,"48180000-3, Pacote de software para medicina","Centro Hospitalar de São João, E. P. E. (509821197)",Sectra Medical Systems S.L. (980379920),"8.800,00 €",07-06-2013,03-06-2013,30 dias,"Portugal, Porto, Porto","Artigo 20.º, n.º 1, alínea a) do Código dos Contratos Públicos",,,,,,Não aplicável.,Não aplicável.,
Projectos: Remodelação e Ampliação do Corpo Poente; Remodeção do Corpo Sul; Remodelação do Corpo Norte; Remodelação dos Corpos Transversais; Construção do Edifício da Consulta Externa e Exames Especiais; Construção do Edificio da Hemodiálise e Laboratórios; Remodelação e Ampliação da Área dos Meios Complementares de Diagnóstico e Tratamento.,Ajuste Direto Regime Geral,Aquisição de serviços,"71000000-8, Serviços de arquitectura, construção, engenharia e inspecção","Centro Hospitalar de São João, E. P. E. (509821197)","ARIPA Ilídio Pelicano Arquitectos, SA (500915814)","5.079.717,00 €",07-06-2013,21-03-2011,1095 dias,"Portugal, Porto, Porto","Artigo 27.º, n.º 1, alínea g) do Código dos Contratos Públicos",,,,,,Não aplicável.,Não aplicável.,
"Renovação do Contrato de Manutenção às Instalações e Equipamentos da Gestão Centralizada do CHSJ,EPE para o ano de 2013",Ajuste Direto Regime Geral,Aquisição de serviços,"50000000-5, Serviços de reparação e manutenção","Centro Hospitalar de São João, E. P. E. (509821197)","Sauter Ibérica, S.A. (980134919)","10.800,00 €",04-06-2013,28-05-2013,365 dias,"Portugal, Porto, Porto","Artigo 20.º, n.º 1, alínea a) do Código dos Contratos Públicos",,,,,,Não aplicável.,Não aplicável.,
"Celebração do Contrato de Manutenção e Assistência Técnica ao equipamento de frio do Serviço de Imunohemoterapia do CHSJ,EPE para o ano de 2013",Ajuste Direto Regime Geral,Aquisição de serviços,"50000000-5, Serviços de reparação e manutenção","Centro Hospitalar de São João, E. P. E. (509821197)","Elnor - Equipamentos Técnicos e de Laboratório, S.A. (500094403)","48.050,00 €",03-06-2013,28-05-2013,365 dias,"Portugal, Porto, Porto","Artigo 20.º, n.º 1, alínea a) do Código dos Contratos Públicos",,,,,,Não aplicável.,Não aplicável.,
"Celebração do Contrato de Manutenção e Assistência Técnica aos equipamentos de frio do Serviço de Anatomia Patológica do CHSJ,EPE para o ano de 2013",Ajuste Direto Regime Geral,Aquisição de serviços,"50000000-5, Serviços de reparação e manutenção","Centro Hospitalar de São João, E. P. E. (509821197)","Elnor - Equipamentos Técnicos de Laboratório, S.A. (500094403)","6.241,00 €",03-06-2013,28-05-2013,365 dias,"Portugal, Porto, Porto","Artigo 20.º, n.º 1, alínea a) do Código dos Contratos Públicos",,,,,,Não aplicável.,Não aplicável.,
"Renovação do Contrato de Manutenção aos extintores e bocas-de-incêndio do CHSJ,EPE para o ano de 2013",Ajuste Direto Regime Geral,Aquisição de serviços,"50000000-5, Serviços de reparação e manutenção","Centro Hospitalar de São João, E. P. E. (509821197)","Fireprin - Equipamentos de Proteção Contra Incêndios, Lda (506265617)","5.980,50 €",03-06-2013,28-05-2013,365 dias,"Portugal, Porto, Porto","Artigo 20.º, n.º 1, alínea a) do Código dos Contratos Públicos",,,,,,Não aplicável.,Não aplicável.,
"Celebração do Contrato de Manutenção e Assistência Técnica ao equipamento """"Leica"""" do Serviço de Anatomia Patológica do CHSJ,EPE para o ano de 2013",Ajuste Direto Regime Geral,Aquisição de serviços,"50000000-5, Serviços de reparação e manutenção","Centro Hospitalar de São João, E. P. E. (509821197)","Leica Microssistemas - Instrumentos de Precisão, Sociedade Unipessoal, Lda (500301921)","8.497,86 €",03-06-2013,29-04-2013,365 dias,"Portugal, Porto, Porto","Artigo 24.º, n.º 1, alínea e) do Código dos Contratos Públicos",,,,,,Não aplicável.,Não aplicável.,
"Renovação do Contrato de Manutenção à Consola de Assistência Ventricular """"Berlin Heart"""" do Serviço de Cirurgia Torácica do CHSJ,EPE para o ano de 2013",Ajuste Direto Regime Geral,Aquisição de serviços,"50000000-5, Serviços de reparação e manutenção","Centro Hospitalar de São João, E. P. E. (509821197)","LusoPalex - Unipessoal, Lda (503531588)","8.278,50 €",03-06-2013,08-04-2013,365 dias,"Portugal, Porto, Porto","Artigo 24.º, n.º 1, alínea e) do Código dos Contratos Públicos",,,,,,Não aplicável.,Não aplicável.,
"Renovação do Contrato de Manutenção e Assistência Técnica aos Balanceadores do Data Center do CHSJ,EPE para o ano de 2013",Ajuste Direto Regime Geral,Aquisição de serviços,"50000000-5, Serviços de reparação e manutenção","Centro Hospitalar de São João, E. P. E. (509821197)","Syncrea - Enterprises Communications, S.A. (507838130)","6.333,33 €",03-06-2013,08-04-2013,365 dias,"Portugal, Porto, Porto","Artigo 20.º, n.º 1, alínea a) do Código dos Contratos Públicos",,,,,,Não aplicável.,Não aplicável.,
"Renovação do Contrato de manutenção aos equipamentos Siemens do CHSJ,EPE para o ano de 2013",Ajuste Direto Regime Geral,Aquisição de serviços,"50000000-5, Serviços de reparação e manutenção","Centro Hospitalar de São João, E. P. E. (509821197)","Siemens, S.A. (500247480)","436.489,34 €",03-06-2013,08-04-2013,365 dias,"Portugal, Porto, Porto","Artigo 24.º, n.º 1, alínea e) do Código dos Contratos Públicos",,,,,,Não aplicável.,Não aplicável.,
"Renovação do Contrato de Assistência Técnica ao software PICIS do CHSJ,EPE para o ano de 2013",Ajuste Direto Regime Geral,Aquisição de serviços,"50000000-5, Serviços de reparação e manutenção","Centro Hospitalar de São João, E. P. E. (509821197)","Siemens, S.A. (500247480)","70.302,39 €",03-06-2013,31-01-2013,365 dias,"Portugal, Porto, Porto","Artigo 24.º, n.º 1, alínea e) do Código dos Contratos Públicos",,,,,,Não aplicável.,Não aplicável.,
"Renovação do Contrato Técnica ao Software Lantis do CHSJ,EPE para o ano de 2013",Ajuste Direto Regime Geral,Aquisição de serviços,"50000000-5, Serviços de reparação e manutenção","Centro Hospitalar de São João, E. P. E. (509821197)","Siemens, S.A. (500247480)","4.955,93 €",03-06-2013,07-02-2013,365 dias,"Portugal, Porto, Porto","Artigo 24.º, n.º 1, alínea e) do Código dos Contratos Públicos",,,,,,Não aplicável.,Não aplicável.,
"Renovação do contrato de Assistência Técnica para o Software """"Sisqual"""" do CHSJ,EPE ara o ano de 2013 ",Ajuste Direto Regime Geral,Aquisição de serviços,"50000000-5, Serviços de reparação e manutenção","Centro Hospitalar de São João, E. P. E. (509821197)","Sisqual - Sistemas Informáticos, Lda (502772298)","25.308,00 €",03-06-2013,08-04-2013,365 dias,"Portugal, Porto, Porto","Artigo 24.º, n.º 1, alínea e) do Código dos Contratos Públicos",,,,,,Não aplicável.,Não aplicável.,
"Renovação do contrato de Licenciamento do Kofax workstations e Volume e do Software Cvision Trapeze do CHSJ,EPE para o ano de 2013",Ajuste Direto Regime Geral,Aquisição de serviços,"50000000-5, Serviços de reparação e manutenção","Centro Hospitalar de São João, E. P. E. (509821197)","Wemake - Tecnologias de Informação, Lda (506097250)","7.096,50 €",03-06-2013,08-04-2013,365 dias,"Portugal, Porto, Porto","Artigo 20.º, n.º 1, alínea a) do Código dos Contratos Públicos",,,,,,Não aplicável.,Não aplicável.,
Renovação do Contrato de Manutenção ao Sistema Gestão Documental para o ano de 2013,Ajuste Direto Regime Geral,Aquisição de serviços,"50000000-5, Serviços de reparação e manutenção","Centro Hospitalar de São João, E. P. E. (509821197)","Wemake - Tecnologias de Informação, Lda (506097250)","4.628,16 €",03-06-2013,31-01-2013,365 dias,"Portugal, Porto, Porto","Artigo 24.º, n.º 1, alínea e) do Código dos Contratos Públicos",,,,,,Não aplicável.,Não aplicável.,
"Celebração do Contrato de Manutenção e Assistência Técnica à cama """"Clinitron"""" da Unidade de Queimados do CHSJ,EPE para o ano de 2013",Ajuste Direto Regime Geral,Aquisição de serviços,"50000000-5, Serviços de reparação e manutenção","Centro Hospitalar de São João, E. P. E. (509821197)","Sano-Técnica Medical, Lda (500239819)","7.590,00 €",03-06-2013,29-04-2013,365 dias,"Portugal, Porto, Porto","Artigo 24.º, n.º 1, alínea e) do Código dos Contratos Públicos",,,,,,Não aplicável.,Não aplicável.,
"Celebração do contrato de Manutenção e Assistência técnica às cadeiras marca """"Kavo"""" do CHSJ,EPE para o ano de 2013",Ajuste Direto Regime Geral,Aquisição de serviços,"50000000-5, Serviços de reparação e manutenção","Centro Hospitalar de São João, E. P. E. (509821197)","Leonel Ferreira & Guedes, Lda (507811321)","7.800,00 €",03-06-2013,09-05-2013,365 dias,"Portugal, Porto, Porto","Artigo 20.º, n.º 1, alínea a) do Código dos Contratos Públicos",,,,,,Não aplicável.,Não aplicável.,
"Renovação do Contrato de Manutenção a vários equipamentos de Anatomia Patológica do CHSJ,EPE para o ano de 2013",Ajuste Direto Regime Geral,Aquisição de serviços,"50000000-5, Serviços de reparação e manutenção","Centro Hospitalar de São João, E. P. E. (509821197)",Inopat S.A. (503294420),"5.976,00 €",03-06-2013,09-05-2013,365 dias,"Portugal, Porto, Porto","Artigo 24.º, n.º 1, alínea e) do Código dos Contratos Públicos",,,,,,Não aplicável.,Não aplicável.,
"Renovação do Contrato de Manutenção do equipamento Acelerador Clinc 600 instalado no Serviço de Radioterapia do CHSJ,EPE para o ano de 2013",Ajuste Direto Regime Geral,Aquisição de serviços,"50000000-5, Serviços de reparação e manutenção","Centro Hospitalar de São João, E. P. E. (509821197)","Varian Medical Systems Ibérica, S.L. (980236436)","73.351,43 €",03-06-2013,09-05-2013,365 dias,"Portugal, Porto, Porto","Artigo 24.º, n.º 1, alínea e) do Código dos Contratos Públicos",,,,,,Não aplicável.,Não aplicável.,
"Serviços de limpeza, desgaseificação e desmantelamento do dois tanques de nafta do CHSJ, EPE",Ajuste Direto Regime Geral,Aquisição de serviços,"90913000-0, Serviços de limpeza de tanques e reservatórios","Centro Hospitalar de São João, E. P. E. (509821197)",EGEO Tecnologia e Ambiente SA (500512884),"19.998,50 €",31-05-2013,16-05-2013,11 dias,"Portugal, Porto, Porto","Artigo 20.º, n.º 1, alínea a) do Código dos Contratos Públicos",,,,,,Não aplicável.,Não aplicável.,
"Renovação da Aquisição de Serviços de Assistência Técnica aos equipamentos """"Architect e Prism"""", representados pela Abbott, do CHSJ,EPE para o ano de 2013",Ajuste Direto Regime Geral,Aquisição de serviços,"50000000-5, Serviços de reparação e manutenção","Centro Hospitalar de São João, E. P. E. (509821197)","Abbott Laboratórios, Lda (500006148)","149.256,00 €",31-05-2013,28-05-2013,365 dias,"Portugal, Porto, Porto","Artigo 24.º, n.º 1, alínea e) do Código dos Contratos Públicos",,,,,,Não aplicável.,Não aplicável.,
"Renovação do Contrato de Manutenção e Assistência Técnica aos Softwares Aplicacionais Sibas, Sislab/Hipo, Cardio, Sgicm, e-Results e Interfaces do CHSJ,EPE para o ano de 2013",Ajuste Direto Regime Geral,Aquisição de serviços,"50000000-5, Serviços de reparação e manutenção","Centro Hospitalar de São João, E. P. E. (509821197)","Glintt - Helthcare Solutions, S.A. (502479418)","140.818,10 €",31-05-2013,16-05-2013,365 dias,"Portugal, Porto, Porto","Artigo 24.º, n.º 1, alínea e) do Código dos Contratos Públicos",,,,,,Não aplicável.,Não aplicável.,
