Objeto do Contrato,Tipo de Procedimento,Tipo(s) de Contrato,CPVs,Entidade(s) Adjudicante(s),Entidade(s) Adjudicatária(s),Preço Contratual,Data de Publicação,Data de Celebração do Contrato,Prazo de Execução,Local de Execução,Fundamentação,Data de Fecho do Contrato,Preço Total Efetivo,Causas das Alterações ao Prazo,Causas das Alterações ao Preço,Estado,N.º registo do Acordo Quadro,Descrição do Acordo Quadro,Procedimento Centralizado
07/00030.11/2017 - Aquisição do medicamento “Lopinavir 200mg + Ritonavir 50mg comp” (P259-AC-2017-57),Ao abrigo de acordo-quadro (art.º 259.º),Aquisição de bens móveis,"33600000-6, Produtos farmacêuticos","Centro Hospitalar de Entre o Douro e Vouga, E.P.E. (508878462)","ABBVIE, LDA (510229050)","2.437,51 €",19-04-2017,22-03-2017,285 dias,"Portugal, Aveiro, Santa Maria da Feira",Artigo 259.º do Código dos Contratos Públicos,"","",,,,2183729,Medicamentos antirretrovíricos para o tratamento da infeção por VIH,FALSE
02/00023.42/2016 - Remodelação do Serviço de Urgência da Unidade de São João da Madeira,Concurso público,Empreitadas de obras públicas,"45454000-4, Obras de reestruturação","Centro Hospitalar de Entre o Douro e Vouga, E.P.E. (508878462)","SISFOZ - MONTAGENS ELÉCTRICAS, LIMITADA (502680814)","190.611,22 €",19-04-2017,05-04-2017,90 dias,"Portugal, Aveiro, São João da Madeira","Artigo 19.º, alínea b) do Código dos Contratos Públicos","","",,,,Não aplicável.,Não aplicável.,FALSE
03/00090.42/2016- Aq. Autorefratómetro/Tonómetro/Queratómetro,Ajuste Direto Regime Geral,Aquisição de bens móveis,"33122000-1, Equipamento oftalmológico","CENTRO HOSPITALAR DE ENTRE O DOURO E VOUGA, E.P.E. (508878462)","GRUPO TAPER - EQUIPAMENTOS DE PRECISÃO CIENTÍFICA, LDA (506886336)","15.740,00 €",19-04-2017,06-03-2017,30 dias,"Portugal, Aveiro, Santa Maria da Feira","Artigo 20.º, n.º 1, alínea a) do Código dos Contratos Públicos","","",,,,Não aplicável.,Não aplicável.,FALSE
02/00019.26/2017 - Aquisição de Próteses de Anca Primárias,Concurso público,Aquisição de bens móveis,"33183200-8, Próteses ortopédicas","Centro Hospitalar de Entre o Douro e Vouga, E.P.E. (508878462)",Johnson  (500153370),"157.401,00 €",19-04-2017,24-03-2017,180 dias,"Portugal, Aveiro, Santa Maria da Feira",Artigo 155.º do Código dos Contratos Públicos,"","",,,,Não aplicável.,Não aplicável.,FALSE
Aquisição de 2 desfibrilhadores,Ajuste Direto Regime Geral,Aquisição de bens móveis,"33100000-1, Equipamento médico","CENTRO HOSPITALAR DE ENTRE O DOURO E VOUGA, E.P.E. (508878462)","Clinifar - Produtos Clínicos e Farmacêuticos, S.A. (503281115)","11.400,00 €",19-04-2017,29-03-2017,20 dias,"Portugal, Aveiro, Santa Maria da Feira","Artigo 20.º, n.º 1, alínea a) do Código dos Contratos Públicos",09-05-2017,"11.400,00 €",,,,Não aplicável.,Não aplicável.,FALSE
Aquisição de sistema informático para implementação de Triagem Pediátrica Canadiana,Ajuste Direto Regime Geral,Aquisição de serviços,"72000000-5, Serviços de TI: consultoria, desenvolvimento de software, Internet e apoio","Centro Hospitalar de Entre o Douro e Vouga, E.P.E. (508878462)","BIQ - Health Solutions, Lda (504105337)","9.900,00 €",19-04-2017,07-04-2017,20 dias,"Portugal, Aveiro, Santa Maria da Feira","Artigo 20.º, n.º 1, alínea a) do Código dos Contratos Públicos","","",,,,Não aplicável.,Não aplicável.,FALSE
Aquisição de 5 bisturis elétricos,Ajuste Direto Regime Geral,Aquisição de bens móveis,"33100000-1, Equipamento médico","CENTRO HOSPITALAR DE ENTRE O DOURO E VOUGA, E.P.E. (508878462)","Bacelar & Irmão, Lda (500532818)","21.250,00 €",19-04-2017,03-03-2017,30 dias,"Portugal, Aveiro, Santa Maria da Feira","Artigo 20.º, n.º 1, alínea a) do Código dos Contratos Públicos","","",,,,Não aplicável.,Não aplicável.,FALSE
Aquisição de Ceritinib 150 mg Cáps,Ajuste Direto Regime Geral,Aquisição de bens móveis,"33600000-6, Produtos farmacêuticos","CENTRO HOSPITALAR DE ENTRE O DOURO E VOUGA, E.P.E. (508878462)",NOVARTIS FARMA (500063524),"34.980,03 €",18-04-2017,14-03-2017,365 dias,"Portugal, Aveiro, Santa Maria da Feira","Artigo 24.º, n.º 1, alínea e) do Código dos Contratos Públicos","","",,,,Não aplicável.,Não aplicável.,FALSE
Aquisição de Medicamentos Exclusivos Bausch & Lomb,Ajuste Direto Regime Geral,Aquisição de bens móveis,"33600000-6, Produtos farmacêuticos","CENTRO HOSPITALAR DE ENTRE O DOURO E VOUGA, E.P.E. (508878462)",BAUSCH + LOMB (980218764),"8.015,10 €",18-04-2017,16-02-2017,365 dias,"Portugal, Aveiro, Santa Maria da Feira","Artigo 24.º, n.º 1, alínea e) do Código dos Contratos Públicos","","",,,,Não aplicável.,Não aplicável.,FALSE
11/00013.11/2017 - Aq. Nivolumab 10mg/ml sol inj,Ajuste Direto Regime Geral,Aquisição de bens móveis,"33600000-6, Produtos farmacêuticos","CENTRO HOSPITALAR DE ENTRE O DOURO E VOUGA, E.P.E. (508878462)",BRISTOL-MYERS SQUIBB F.PORT.LD (500048193),"484.500,00 €",17-04-2017,23-03-2017,284 dias,"Portugal, Aveiro, Santa Maria da Feira","Artigo 24.º, n.º 1, alínea e) do Código dos Contratos Públicos","","",,,,Não aplicável.,Não aplicável.,FALSE
CSA_11/00004.11/2017 - Aquisição de Regorafenib 40mg comp.,Ajuste Direto Regime Geral,Aquisição de bens móveis,"33600000-6, Produtos farmacêuticos","Centro Hospitalar de Entre o Douro e Vouga, E.P.E. (508878462)","BAYER PORTUGAL, LDA (500043256)","13.252,78 €",17-04-2017,02-02-2017,179 dias,"Portugal, Aveiro, Santa Maria da Feira","Artigo 24.º, n.º 1, alínea e) do Código dos Contratos Públicos","","",,,,Não aplicável.,Não aplicável.,FALSE
"11/00106.11/2017 - Aquisição do medicamento """"Elbasvir 50 mg + Grazoprevir 100 mg Comp (Zepatier)""""",Ajuste Direto Regime Geral,Aquisição de bens móveis,"33600000-6, Produtos farmacêuticos","Centro Hospitalar de Entre o Douro e Vouga, E.P.E. (508878462)","MERCK SHARP E DOHME, LDA (500191360)","6.226,80 €",17-04-2017,05-04-2017,30 dias,"Portugal, Aveiro, Santa Maria da Feira","Artigo 24.º, n.º 1, alínea e) do Código dos Contratos Públicos","","",,,,Não aplicável.,Não aplicável.,FALSE
"07/00038.11/2017 - Aquisição do medicamento """"Tamoxifeno 20mg comp."""" (P259-AC-2017-67)",Ao abrigo de acordo-quadro (art.º 259.º),Aquisição de bens móveis,"33600000-6, Produtos farmacêuticos","Centro Hospitalar de Entre o Douro e Vouga, E.P.E. (508878462)","FARMOZ-SOC.TECNICO MEDICINAL, SA (501505334)","2.140,08 €",13-04-2017,05-04-2017,270 dias,"Portugal, Aveiro, Santa Maria da Feira",Artigo 259.º do Código dos Contratos Públicos,"","",,,,1771819,CP 2015/6 - Acordo quadro para o fornecimento de Medicamentos do Foro Oncológico,FALSE
"07/00024.11/2017 - Aquisição do medicamento """"Metotrexato 2.5mg comp."""" (P259-AC-2017-33)",Ao abrigo de acordo-quadro (art.º 259.º),Aquisição de bens móveis,"33600000-6, Produtos farmacêuticos","Centro Hospitalar de Entre o Douro e Vouga, E.P.E. (508878462)","LABORATORIOS PFIZER,S.A. (500162166)","5,84 €",13-04-2017,29-03-2017,278 dias,"Portugal, Aveiro, Santa Maria da Feira",Artigo 259.º do Código dos Contratos Públicos,"","",,,,1771819,CP 2015/6 - Acordo quadro para o fornecimento de Medicamentos do Foro Oncológico,FALSE
"07/00027.11/2017 - Aquisição do medicamento """"Nevirapina 10mg/ml susp oral fr 240ml"""" (P259-AC-2017-41)",Ao abrigo de acordo-quadro (art.º 259.º),Aquisição de bens móveis,"33600000-6, Produtos farmacêuticos","Centro Hospitalar de Entre o Douro e Vouga, E.P.E. (508878462)",UNILFARMA         (500293023),"20,37 €",13-04-2017,29-03-2017,278 dias,"Portugal, Aveiro, Santa Maria da Feira",Artigo 259.º do Código dos Contratos Públicos,"","",,,,2183729,Medicamentos antirretrovíricos para o tratamento da infeção por VIH,FALSE
"07/00032.11/2017 - Aquisição do medicamento """"Mitomicina 40mg pó sol inj fr iv ivesical"""" (P259-AC-2017-54)",Ao abrigo de acordo-quadro (art.º 259.º),Aquisição de bens móveis,"33600000-6, Produtos farmacêuticos","Centro Hospitalar de Entre o Douro e Vouga, E.P.E. (508878462)","FERRER PORTUGAL,S.A. (500069190)","3.361,84 €",13-04-2017,22-03-2017,285 dias,"Portugal, Aveiro, Santa Maria da Feira",Artigo 259.º do Código dos Contratos Públicos,"","",,,,1771819,CP 2015/6 - Acordo quadro para o fornecimento de Medicamentos do Foro Oncológico,FALSE
"07/00025.11/2017 - Aquisição do medicamento """"Zidovudinas"""" (P259-AC-2017-38)",Ao abrigo de acordo-quadro (art.º 259.º),Aquisição de bens móveis,"33600000-6, Produtos farmacêuticos","Centro Hospitalar de Entre o Douro e Vouga, E.P.E. (508878462)","VIIVHIV HEALTHCARE, UNIPESSOAL,LDA  (509117961)","56,84 €",13-04-2017,22-03-2017,285 dias,"Portugal, Aveiro, Santa Maria da Feira",Artigo 259.º do Código dos Contratos Públicos,"","",,,,2183729,Medicamentos antirretrovíricos para o tratamento da infeção por VIH,FALSE
