Objeto do Contrato,Tipo de Procedimento,Tipo(s) de Contrato,CPVs,Entidade(s) Adjudicante(s),Entidade(s) Adjudicatária(s),Preço Contratual,Data de Publicação,Data de Celebração do Contrato,Prazo de Execução,Local de Execução,Fundamentação,Data de Fecho do Contrato,Preço Total Efetivo,Causas das Alterações ao Prazo,Causas das Alterações ao Preço,Estado,N.º registo do Acordo Quadro,Descrição do Acordo Quadro,Procedimento Centralizado
AD/2542/2018 -  Aquisição de Sonda Linear para Ecógrafo,Ajuste Direto Regime Geral,Aquisição de bens móveis,"33141641-5, Sondas","Instituto Português de Oncologia de Lisboa FG, E.P.E. (506361616)",LUSOPALEX (503531588),"7.875,00 €",08-08-2018,07-08-2018,30 dias,"Portugal, Lisboa, Lisboa<BR/>Portugal","Artigo 24.º, n.º 1, alínea d) do Código dos Contratos Públicos",,,,,,Não aplicável.,Não aplicável.,FALSE
AD623-2018 CANULAS TRAQUEOTOMIA,Ajuste Direto Regime Geral,Aquisição de bens móveis,"33141220-8, Cânulas","Instituto Português de Oncologia de Lisboa Francisco Gentil, E. P. E. (506361616)",MEDTRONIC PORTUGAL LDA (504223933),"14.761,00 €",03-08-2018,11-07-2018,30 dias,"Portugal, Lisboa, Lisboa","Artigo 20.º, n.º 1, alínea a) do Código dos Contratos Públicos",,,,,,Não aplicável.,Não aplicável.,FALSE
AD69-2018 MEDICAMENTOS,Ajuste Direto Regime Geral,Aquisição de bens móveis,"33600000-6, Produtos farmacêuticos","Instituto Português de Oncologia de Lisboa Francisco Gentil, E. P. E. (506361616)",FARMA MONDO SA (CHE110318823),"12.000,00 €",03-08-2018,17-05-2018,30 dias,"Portugal, Lisboa, Lisboa","Artigo 20.º, n.º 1, alínea a) do Código dos Contratos Públicos",,,,,,Não aplicável.,Não aplicável.,FALSE
AD2079-2018 MEDICAMENTOS,Ajuste Direto Regime Geral,Aquisição de bens móveis,"33600000-6, Produtos farmacêuticos","Instituto Português de Oncologia de Lisboa Francisco Gentil, E. P. E. (506361616)","QUILABAN-QUÍMICA LABORATORIAL ANALITICA, SA (500399670)","73.046,97 €",02-08-2018,21-06-2018,205 dias,"Portugal, Lisboa, Lisboa","Artigo 24.º, n.º 1, alínea e) do Código dos Contratos Públicos",,,,,,Não aplicável.,Não aplicável.,FALSE
AD68-2018 MEDICAMENTOS,Ajuste Direto Regime Geral,Aquisição de bens móveis,"33600000-6, Produtos farmacêuticos","Instituto Português de Oncologia de Lisboa Francisco Gentil, E. P. E. (506361616)",CLINIGEN HEALTHCARE (GB100125104),"11.760,00 €",02-08-2018,11-07-2018,30 dias,"Portugal, Lisboa, Lisboa","Artigo 20.º, n.º 1, alínea a) do Código dos Contratos Públicos",,,,,,Não aplicável.,Não aplicável.,FALSE
AD938-2018 MEDICAMENTOS,Ajuste Direto Regime Geral,Aquisição de bens móveis,"33600000-6, Produtos farmacêuticos","Instituto Português de Oncologia de Lisboa Francisco Gentil, E. P. E. (506361616)",LABESFAL- LABORATÓRIOS ALMIRO LDA (501169580),"12.232,00 €",02-08-2018,27-04-2018,30 dias,"Portugal, Lisboa, Lisboa","Artigo 20.º, n.º 1, alínea a) do Código dos Contratos Públicos",,,,,,Não aplicável.,Não aplicável.,FALSE
AD938-2018 MEDICAMENTO,Ajuste Direto Regime Geral,Aquisição de bens móveis,"33600000-6, Produtos farmacêuticos","Instituto Português de Oncologia de Lisboa Francisco Gentil, E. P. E. (506361616)",CLINIFAR PRODUTOS FARMACEUTICOS (503281115),"10.643,60 €",02-08-2018,27-04-2018,30 dias,"Portugal, Lisboa, Lisboa","Artigo 20.º, n.º 1, alínea a) do Código dos Contratos Públicos",,,,,,Não aplicável.,Não aplicável.,FALSE
AD2529-2018 CATETER,Ajuste Direto Regime Geral,Aquisição de bens móveis,"33141200-2, Cateteres","Instituto Português de Oncologia de Lisboa Francisco Gentil, E. P. E. (506361616)",SOCIEDADE MEDTRONIC PORTUGAL LDA (504223933),"26.000,00 €",31-07-2018,31-07-2018,30 dias,"Portugal, Lisboa, Lisboa","Artigo 20.º, n.º 1, alínea a) do Código dos Contratos Públicos",,,,,,Não aplicável.,Não aplicável.,FALSE
AD2633-DIVERSO MATERIAL DE CONSUMO,Ajuste Direto Regime Geral,Aquisição de bens móveis,"33140000-3, Material médico de consumo","Instituto Português de Oncologia de Lisboa Francisco Gentil, E. P. E. (506361616)","SOCIEDADE MEDTRONIC PORTUGAL, LDA (504223933)","17.445,78 €",31-07-2018,26-07-2018,30 dias,"Portugal, Lisboa, Lisboa","Artigo 24.º, n.º 1, alínea c) do Código dos Contratos Públicos",,,,,,Não aplicável.,Não aplicável.,FALSE
