Objeto do Contrato,Tipo de Procedimento,Tipo(s) de Contrato,CPVs,Entidade(s) Adjudicante(s),Entidade(s) Adjudicatária(s),Preço Contratual,Data de Publicação,Data de Celebração do Contrato,Prazo de Execução,Local de Execução,Fundamentação,Data de Fecho do Contrato,Preço Total Efetivo,Causas das Alterações ao Prazo,Causas das Alterações ao Preço,Estado,N.º registo do Acordo Quadro,Descrição do Acordo Quadro,Procedimento Centralizado
Aquisição de material de uso único para o bloco operatório e outros serviços clínicos durante o ano de 2012.,Ajuste Direto Regime Geral,Aquisição de bens móveis,"33140000-3, Material médico de consumo",HOSPITAL DR FRANCISCO ZAGALO (501510150),"Helder Gonçalves, Lda. (503855421), Oasipor - Importação e Exportação, S.A. (502260750), EPJ Médica - Artigos Médicos e Hospitalares, Lda. (506820513), Bastos Viegas, S.A. (500042772)","6.852,61 €",20-04-2012,29-02-2012,365 dias,"Portugal, Aveiro, Ovar","Artigo 26.º, n.º 1, alínea e) do Código dos Contratos Públicos",31-12-2012,"5.724,13 €",,Fornecimento abaixo do previsto,,Não aplicável.,Não aplicável.,
Fornecimento de Gás Natural em Regime de Mercado Livre durante o ano de 2012,Ajuste Direto Regime Geral,Aquisição de serviços,"65210000-8, Distribuição de gás",HOSPITAL DR FRANCISCO ZAGALO (501510150),Galp Power S.A. (504723456),"24.105,32 €",20-04-2012,15-02-2012,280 dias,"Portugal, Aveiro, Ovar","Artigo 20.º, n.º 1, alínea a) do Código dos Contratos Públicos",30-11-2012,"14.537,57 €",,Fornecimentos abaixo do previsto,,Não aplicável.,Não aplicável.,
Fornecimento de Electricidade em Regime de Mercado Livre,Ajuste Direto Regime Geral,Aquisição de serviços,"65310000-9, Distribuição de electricidade",HOSPITAL DR FRANCISCO ZAGALO (501510150),"EDP Comercial - Comercialização de Energia, S.A. (503504564)","55.334,95 €",20-04-2012,15-02-2012,280 dias,"Portugal, Aveiro, Ovar","Artigo 20.º, n.º 1, alínea a) do Código dos Contratos Públicos",31-12-2012,"38.396,60 €",,serviços efectuados abaixo do previsto,,Não aplicável.,Não aplicável.,
Aquisição de Bisturi Electrico (Técnica Ligasure) para cirurgia aberta e laparoscópica,Ajuste Direto Regime Geral,Aquisição de bens móveis,"33162100-4, Aparelhos para blocos operatórios",HOSPITAL DR FRANCISCO ZAGALO (501510150),Covidien Portugal - Produtos de Saúde Unipessoal Lda. (503413410),"9.000,00 €",20-04-2012,12-04-2012,2 dias,"Portugal, Aveiro, Ovar","Artigo 20.º, n.º 1, alínea a) do Código dos Contratos Públicos",15-06-2012,"9.000,00 €",,"",,Não aplicável.,Não aplicável.,
Fornecimento de Electricidade relativo ao mes de Março/2012,Ajuste Direto Regime Geral,Aquisição de serviços,"65310000-9, Distribuição de electricidade",HOSPITAL DR FRANCISCO ZAGALO (501510150),"EDP Serviço Universal, S.A. (507846044)","5.187,10 €",19-04-2012,11-04-2012,30 dias,"Portugal, Aveiro, Ovar","Artigo 20.º, n.º 1, alínea a) do Código dos Contratos Públicos",11-04-2012,"5.187,10 €",,"",,Não aplicável.,Não aplicável.,
Serviços médicos de Oftalmologia em Abril de 2012,Ajuste Direto Regime Geral,Aquisição de serviços,"85121281-6, Serviços de oftalmologia",HOSPITAL DR FRANCISCO ZAGALO (501510150),"Helped-Prestação de Serviços de Saúde, Lda. (506069010)","13.231,00 €",17-04-2012,12-04-2012,30 dias,"Portugal, Aveiro, Ovar","Artigo 20.º, n.º 1, alínea a) do Código dos Contratos Públicos",30-04-2012,"10.539,00 €",,Serviços efectuados abaixo do valor previsto,,Não aplicável.,Não aplicável.,
Serviços médicos de Otorrinolaringologia em Abril de 2012,Ajuste Direto Regime Geral,Aquisição de serviços,"85121240-7, Serviços de otorrinolaringologia ou audiologia",HOSPITAL DR FRANCISCO ZAGALO (501510150),"Clinica Dr. Rui Pratas, Lda. (505914832)","12.420,00 €",17-04-2012,12-04-2012,30 dias,"Portugal, Aveiro, Ovar","Artigo 20.º, n.º 1, alínea a) do Código dos Contratos Públicos",30-04-2012,"11.201,00 €",,Serviços efectuados abaixo do valor previsto,,Não aplicável.,Não aplicável.,
Serviços médicos na area de Anestesiologia em Abril de 2012,Ajuste Direto Regime Geral,Aquisição de serviços,"85121200-5, Serviços de medicina especializada",HOSPITAL DR FRANCISCO ZAGALO (501510150),"Medicsearch, S. A. (508080517)","6.000,00 €",17-04-2012,12-04-2012,30 dias,"Portugal, Aveiro, Ovar","Artigo 20.º, n.º 1, alínea a) do Código dos Contratos Públicos",30-04-2012,"8.295,00 €",,Serviços efectuados acima do valor previsto,,Não aplicável.,Não aplicável.,
Exames MCDT efectuados por utentes em Abril de 2012,Ajuste Direto Regime Geral,Aquisição de serviços,"85150000-5, Serviços de imagiologia médica",HOSPITAL DR FRANCISCO ZAGALO (501510150),"Dr.Campos Costa-Consultorio de Tomogr.Comput. S.A. (502082429), Hospital Cuf Porto, S.A. (508963150), Instituto Cuf Diagnóstico e Tratamento, S.A. (506123243), Dr. Pinto Leite-Instituto de Radiologia (501396772)","15.180,00 €",17-04-2012,12-04-2012,30 dias,"Portugal, Aveiro, Ovar","Artigo 20.º, n.º 1, alínea a) do Código dos Contratos Públicos",30-04-2012,"9.852,84 €",,Exames efectuados abaixo do previsto,,Não aplicável.,Não aplicável.,
Serviços de Assistentes técnicos em Abril de 2012,Ajuste Direto Regime Geral,Aquisição de serviços,"79620000-6, Serviços de fornecimento de pessoal, inclusive temporário",HOSPITAL DR FRANCISCO ZAGALO (501510150),"Tonus-Trabalho Temporario, Lda. (508986460)","14.000,00 €",17-04-2012,12-04-2012,30 dias,"Portugal, Aveiro, Ovar","Artigo 20.º, n.º 1, alínea a) do Código dos Contratos Públicos",30-04-2012,"12.435,08 €",,Serviços efectuados abaixo do previsto,,Não aplicável.,Não aplicável.,
Aquisição de serviços de Enfermagem para o mês de Abril de 2012,Ajuste Direto Regime Geral,Aquisição de serviços,"79624000-4, Serviços de fornecimento de pessoal de enfermagem",HOSPITAL DR FRANCISCO ZAGALO (501510150),"Tonus-Trabalho Temporário, Lda. (508986460)","23.000,00 €",17-04-2012,12-04-2012,30 dias,"Portugal, Aveiro, Ovar","Artigo 20.º, n.º 1, alínea a) do Código dos Contratos Públicos",30-04-2012,"20.108,31 €",,Serviços efectuados abaixo do previsto,,Não aplicável.,Não aplicável.,
Aquisição de Serviços de Assistentes Operacionais para o mês de Abril de 2012,Ajuste Direto Regime Geral,Aquisição de serviços,"79620000-6, Serviços de fornecimento de pessoal, inclusive temporário",HOSPITAL DR FRANCISCO ZAGALO (501510150),"Tonus-Trabalho Temporario, Lda. (508986460)","24.000,00 €",17-04-2012,12-04-2012,30 dias,"Portugal, Aveiro, Ovar","Artigo 20.º, n.º 1, alínea a) do Código dos Contratos Públicos",30-04-2012,"16.846,27 €",,Serviços efectuados abaixo do previsto,,Não aplicável.,Não aplicável.,
Serviços médicos na area da Otorrinolaringologia para Março de 2012,Ajuste Direto Regime Geral,Aquisição de serviços,"85121240-7, Serviços de otorrinolaringologia ou audiologia",HOSPITAL DR FRANCISCO ZAGALO (501510150),"Clnica Dr. Rui Pratas, Lda. (505914832)","12.420,00 €",17-04-2012,12-04-2012,30 dias,"Portugal, Aveiro, Ovar","Artigo 20.º, n.º 1, alínea a) do Código dos Contratos Públicos",12-04-2012,"10.958,00 €",,Valor dos serviços prestados inferior ao previsto.,,Não aplicável.,Não aplicável.,
Serviços de Enfermagem para o mes de Março de 2012,Ajuste Direto Regime Geral,Aquisição de serviços,"79624000-4, Serviços de fornecimento de pessoal de enfermagem",HOSPITAL DR FRANCISCO ZAGALO (501510150),"Tonus-Trabalho Temporario, Lda. (508986460)","21.500,00 €",17-04-2012,07-03-2012,30 dias,"Portugal, Aveiro, Ovar","Artigo 20.º, n.º 1, alínea a) do Código dos Contratos Públicos",31-03-2012,"19.397,68 €",,Serviços efectuados abaixo do valor previsto,,Não aplicável.,Não aplicável.,
Trabalho de Assistentes Operacionais durante o mes de Março de 2012,Ajuste Direto Regime Geral,Aquisição de serviços,"79620000-6, Serviços de fornecimento de pessoal, inclusive temporário",HOSPITAL DR FRANCISCO ZAGALO (501510150),"Tonus-Trabalho Temporario, Lda. (508986460)","22.000,00 €",17-04-2012,07-03-2012,30 dias,"Portugal, Aveiro, Ovar","Artigo 20.º, n.º 1, alínea a) do Código dos Contratos Públicos",31-03-2012,"17.965,73 €",,Serviços efectuados por valor inferior ao previsto,,Não aplicável.,Não aplicável.,
aquisição de 8 ampolas de  Imiglucerase 400 U Pó Sol. Inj. Fr IV- Cerezyme,Ajuste Direto Regime Geral,Aquisição de bens móveis,"33690000-3, Medicamentos vários",HOSPITAL DR FRANCISCO ZAGALO (501510150),"Genzyme Portugal, Lda (506399354)","13.536,00 €",16-04-2012,12-04-2012,1 dias,"Portugal, Aveiro, Ovar","Artigo 24.º, n.º 1, alínea e) do Código dos Contratos Públicos",12-04-2012,"13.536,00 €",,"",,Não aplicável.,Não aplicável.,
Aquisição de próteses ortopédicas da anca.,Concurso público,Aquisição de bens móveis,"33183000-6, Material de assistência ortopédica<BR/>33183200-8, Próteses ortopédicas",HOSPITAL DR FRANCISCO ZAGALO (501510150),"Biomet Portugal Unipessoal Lda (500254990), Artur Salgado (503612600), Smith & Nephew Lda (503552461)","60.350,00 €",13-04-2012,18-05-2011,230 dias,"Portugal, Aveiro, Ovar","Artigo 20.º, n.º 1, alínea b) do Código dos Contratos Públicos",31-12-2011,"44.567,00 €",,Previsão superior às aquisições.,,Não aplicável.,Não aplicável.,
Aquisição de próteses ortopédicas do joelho.,Concurso público,Aquisição de bens móveis,"33183200-8, Próteses ortopédicas",HOSPITAL DR FRANCISCO ZAGALO (501510150),Artur Salgado (503612600),"36.250,00 €",13-04-2012,10-05-2011,225 dias,"Portugal, Aveiro, Ovar","Artigo 20.º, n.º 1, alínea b) do Código dos Contratos Públicos",31-12-2011,"36.250,00 €",,"",,Não aplicável.,Não aplicável.,
Fornecimento e instalação de radiadores para o Serviço de internamento de Medicina.,Ajuste Direto Regime Geral,Aquisição de bens móveis,"39151000-5, Mobiliário diverso",HOSPITAL DR FRANCISCO ZAGALO (501510150),"Irmãos Pinho Resende, Lda (502838809)","6.260,16 €",13-04-2012,20-04-2011,30 dias,"Portugal, Aveiro, Ovar","Artigo 20.º, n.º 1, alínea a) do Código dos Contratos Públicos",19-05-2011,"7.629,27 €",,Previsão errada para aquisição do objecto do contrato.,,Não aplicável.,Não aplicável.,
AQUISIÇÃO DE CACIFOS PARA VESTIÁRIOS E CADEIRAS PARA SALA DE FORMAÇÃO.,Ajuste Direto Regime Geral,Aquisição de bens móveis,"39151000-5, Mobiliário diverso",HOSPITAL DR FRANCISCO ZAGALO (501510150),"ELUCCI LDA (507684680), HAWORTH PORTUGAL MOB. ESCRITÓRIO SA (500077622)","5.165,88 €",13-04-2012,30-03-2011,30 dias,"Portugal, Aveiro, Ovar","Artigo 20.º, n.º 4 do Código dos Contratos Públicos",29-04-2011,"5.165,88 €",,"",,Não aplicável.,Não aplicável.,
Aquisição de material de limpeza e higiene.,Ajuste Direto Regime Geral,Aquisição de serviços<br/>Concessão de serviços públicos<br/>Locação de bens móveis<br/>Aquisição de bens móveis,"33760000-5, Papel higiénico, lenços, toalhas de mão e guardanapos",HOSPITAL DR FRANCISCO ZAGALO (501510150),"A J OLIVEIRA (502293748), MEILEX (501759441), J P RELVA (200442783)","10.162,60 €",13-04-2012,23-03-2011,280 dias,"Portugal, Aveiro, Ovar","Artigo 21.º, n.º 1, alínea a) do Código dos Contratos Públicos",31-12-2011,"6.961,44 €",,Previsão de consumos superior às aquisições.,,Não aplicável.,Não aplicável.,
Aquisição de material de uso único para o Bloco Operatório e outros serviços clínicos,Ajuste Direto Regime Geral,Locação de bens móveis<br/>Aquisição de bens móveis<br/>Aquisição de serviços<br/>Concessão de serviços públicos,"33140000-3, Material médico de consumo",HOSPITAL DR FRANCISCO ZAGALO (501510150),"Pergut Portugal (501799729), Oasipor-Importação e Exportação SA (502260750), Anastácio Saldanha Unipessoal Lda (505804441), Bastos & Viegas SA (500042772), Helder Gonçalves (503855421)","7.967,48 €",13-04-2012,21-01-2011,344 dias,"Portugal, Aveiro, Ovar","Artigo 26.º, n.º 1, alínea e) do Código dos Contratos Públicos",31-12-2011,"3.800,02 €",,Previsão de consumo superior às aquisições.,,Não aplicável.,Não aplicável.,
Serviço de manutenção de Software aplicacional,Ajuste Direto Regime Geral,Aquisição de serviços,"72590000-7, Serviços de informática prestados por profissionais",HOSPITAL DR FRANCISCO ZAGALO (501510150),"Glintt-Healthcare Solutions,S.A. (502479418)","18.150,00 €",12-04-2012,05-04-2012,365 dias,"Portugal, Aveiro, Ovar","Artigo 20.º, n.º 1, alínea a) do Código dos Contratos Públicos",09-04-2012,"18.150,00 €",,"",,Não aplicável.,Não aplicável.,
"Aquisição de sacos plásticos para lixo, roupa suja e outros.",Ajuste Direto Regime Geral,Aquisição de bens móveis<br/>Concessão de serviços públicos<br/>Aquisição de serviços<br/>Locação de bens móveis,"33140000-3, Material médico de consumo",HOSPITAL DR FRANCISCO ZAGALO (501510150),"MEILEX LDA (501759441), A J OLIVEIRA LDA (502293748)","5.772,36 €",12-04-2012,23-03-2011,279 dias,"Portugal, Aveiro, Ovar","Artigo 20.º, n.º 1, alínea a) do Código dos Contratos Públicos",31-12-2011,"4.669,58 €",,Previsão de consumos superior às aquisições.,,Não aplicável.,Não aplicável.,
Aquisição de material de ostomia.,Ajuste Direto Regime Geral,Aquisição de bens móveis,"33140000-3, Material médico de consumo",HOSPITAL DR FRANCISCO ZAGALO (501510150),"SPCARE Lda (508284872), Coloplast Portugal (503989037)","754,72 €",12-04-2012,01-06-2011,213 dias,"Portugal, Aveiro, Ovar","Artigo 26.º, n.º 1, alínea e) do Código dos Contratos Públicos",31-12-2011,"124,82 €",,Previsão de consumos superior às aquisições.,,Não aplicável.,Não aplicável.,
AQUISIÇÃO DE CONSUMIVEIS DE OTORRINOLARINGOLOGIA,Ajuste Direto Regime Geral,Aquisição de bens móveis,"33140000-3, Material médico de consumo",HOSPITAL DR FRANCISCO ZAGALO (501510150),OLympus Portugal (503581429),"9.806,94 €",11-04-2012,23-02-2011,365 dias,"Portugal, Aveiro, Ovar<BR/>Portugal, Aveiro, Ovar","Artigo 24.º, n.º 1, alínea d) do Código dos Contratos Públicos",31-12-2011,"9.806,94 €",,"",,Não aplicável.,Não aplicável.,
Aquisição de compressas de gaze hidrófila esterilizadas e não esterilizadas e com contraste.,Ajuste Direto Regime Geral,Aquisição de bens móveis,"33141119-7, Compressas",HOSPITAL DR FRANCISCO ZAGALO (501510150),"Albino Dias Andrade, Lda (500013810)","5.102,03 €",11-04-2012,20-04-2011,255 dias,"Portugal, Aveiro, Ovar","Artigo 20.º, n.º 1, alínea a) do Código dos Contratos Públicos",31-12-2011,"5.102,03 €",,"",,Não aplicável.,Não aplicável.,
