Objeto do Contrato,Tipo de Procedimento,Tipo(s) de Contrato,CPVs,Entidade(s) Adjudicante(s),Entidade(s) Adjudicatária(s),Preço Contratual,Data de Publicação,Data de Celebração do Contrato,Prazo de Execução,Local de Execução,Fundamentação,Data de Fecho do Contrato,Preço Total Efetivo,Causas das Alterações ao Prazo,Causas das Alterações ao Preço,Estado,N.º registo do Acordo Quadro,Descrição do Acordo Quadro,Procedimento Centralizado
"AQUISIÇÃO DE SINALÉTICA USF TEJO PC Nº3400010182, NPD Nº16E00397 E COMPROMISSO Nº5016046494",Ajuste Direto Regime Geral,Aquisição de bens móveis,"19000000-6, Materiais têxteis, de couro, de plástico e de borracha","Administração Regional de Saúde de Lisboa e Vale do Tejo, I. P. (503148776)",INFORTIPO - SERVIÇOS DE PUBLICIDADE  (502964472),"119,00 €",08-09-2016,18-08-2016,5 dias,"Portugal, Lisboa, Loures","Artigo 20.º, n.º 1, alínea a) do Código dos Contratos Públicos",,,,,,Não aplicável.,Não aplicável.,FALSE
"CONTRATO FOTOCOPIADORA XEROX UCC NOSTRA PONTINHA PC Nº3400010141, NPD Nº16J00389 E COMPROMISSO Nº5016045695",Ajuste Direto Regime Geral,Aquisição de serviços,"50000000-5, Serviços de reparação e manutenção","Administração Regional de Saúde de Lisboa e Vale do Tejo, I. P. (503148776)","JUVEX - EQUIPAMENTOS E SERVIÇOS, LDA  (503539767)","675,00 €",08-09-2016,08-08-2016,5 dias,"Portugal, Lisboa, Loures","Artigo 24.º, n.º 1, alínea e) do Código dos Contratos Públicos",,,,,,Não aplicável.,Não aplicável.,FALSE
"TRANSPORTE DE MERCADORIAS  PC Nº3400009368, NPD Nº16E00154 E COMPROMISSO Nº5016012663",Ajuste Direto Regime Geral,Aquisição de serviços,"60000000-8, Serviços de transporte (excl. transporte de resíduos)","Administração Regional de Saúde de Lisboa e Vale do Tejo, I. P. (503148776)",TEODORO E FERREIRA LDA  (501228500),"4.050,00 €",08-09-2016,14-03-2016,5 dias,"Portugal, Lisboa, Loures","Artigo 20.º, n.º 1, alínea a) do Código dos Contratos Públicos",,,,,,Não aplicável.,Não aplicável.,FALSE
Aquisição de Testes Miniaturizados – Lote III – Reagente de Determinação de Tempo de Protrombina,Concurso público,Aquisição de bens móveis,"33696200-7, Reagentes para análises ao sangue","Administração Regional de Saúde de Lisboa e Vale do Tejo, I. P. (503148776)","Werfen Portugal, Lda (501086110)","444.000,00 €",07-09-2016,02-06-2016,115 dias,"Portugal, Lisboa, Lisboa","Artigo 20.º, n.º 1, alínea b) do Código dos Contratos Públicos",,,,,,Não aplicável.,Não aplicável.,FALSE
Aquisição de Testes Miniaturizados – Lote II – Reagente de Determinação de 10 Parâmetros - Urina,Concurso público,Aquisição de bens móveis,"33696000-5, Reagentes e meios de contraste","Administração Regional de Saúde de Lisboa e Vale do Tejo, I. P. (503148776)","Siemens Healthcare, Lda (507925173)","128.800,00 €",07-09-2016,02-06-2016,115 dias,"Portugal, Lisboa, Lisboa","Artigo 20.º, n.º 1, alínea b) do Código dos Contratos Públicos",,,,,,Não aplicável.,Não aplicável.,FALSE
"Aquisição de Testes Miniaturizados – Lote I – Reagente de Determinação de Glucose no Sangue (Tira), ",Concurso público,Aquisição de bens móveis,"33696000-5, Reagentes e meios de contraste","Administração Regional de Saúde de Lisboa e Vale do Tejo, I. P. (503148776)","Iberlab & Imunoreage - Soluções para Laboratório, Lda (503406694)","52.640,00 €",07-09-2016,02-06-2016,115 dias,"Portugal, Lisboa, Lisboa","Artigo 20.º, n.º 1, alínea b) do Código dos Contratos Públicos",,,,,,Não aplicável.,Não aplicável.,FALSE
Aquisição de 2.000 cápsulas de Cicloserina 250mg - comprimido,Ajuste Direto Regime Geral,Aquisição de bens móveis,"33690000-3, Medicamentos vários","Administração Regional de Saúde de Lisboa e Vale do Tejo, I. P. (503148776)","Dux Pharma - Unipessoal, Lda (510803679)","9.100,00 €",06-09-2016,05-09-2016,117 dias,"Portugal, Lisboa","Artigo 24.º, n.º 1, alínea e) do Código dos Contratos Públicos",,,,,,Não aplicável.,Não aplicável.,FALSE
Aquisição de 6.000 comprimidos de Multivitaminas + Sais Minerais,Ao abrigo de acordo-quadro (art.º 258.º),Aquisição de bens móveis,"33690000-3, Medicamentos vários","Administração Regional de Saúde de Lisboa e Vale do Tejo, I. P. (503148776)","Meda Pharma - Produtos Farmacêuticos, S.A. (500082090)","300,00 €",06-09-2016,05-09-2016,117 dias,"Portugal, Lisboa, Lisboa",Artigo 258.º do Código dos Contratos Públicos,,,,,,1338581,"Acordo quadro para fornecimento de Medicação antialérgica, medicamentos usados no tratamento de intoxicações, vitaminas e sais minerais e grupo 20.9 - outros produtos às instituições e serviços do serviço nacional de saúde",FALSE
"AQUISIÇÃO DE VINHETAS MÉDICAS PC Nº3400010120, NPD Nº16J00384 E COMPROMISSO Nº5016045432",Ajuste Direto Regime Geral,Aquisição de bens móveis,"22000000-0, Material impresso e afins","Administração Regional de Saúde de Lisboa e Vale do Tejo, I. P. (503148776)",IMPRENSA NACIONAL CASA DA MOEDA  (500792887),"550,00 €",02-09-2016,03-08-2016,5 dias,"Portugal, Lisboa, Loures","Artigo 24.º, n.º 1, alínea e) do Código dos Contratos Públicos",,,,,,Não aplicável.,Não aplicável.,FALSE
AQUISIÇÃO DE EQUIPAMENTO MÉDICO PARA VÁRIOS ACES,Concurso público,Aquisição de bens móveis,"33100000-1, Equipamento médico","Administração Regional de Saúde de Lisboa e Vale do Tejo, I. P. (503148776)","PM EQUIPAMENTOS E SERVIÇOS, LDA (508299900)","71.980,00 €",01-09-2016,22-08-2016,45 dias,"Portugal, Lisboa, Lisboa","Artigo 20.º, n.º 1, alínea b) do Código dos Contratos Públicos",,,,,,Não aplicável.,Não aplicável.,FALSE
AQUISIÇÃO DE EQUIPAMENTO MÉDICO PARA VÁRIOS ACES,Concurso público,Aquisição de bens móveis,"33100000-1, Equipamento médico","Administração Regional de Saúde de Lisboa e Vale do Tejo, I. P. (503148776)","IBERDATA - Equipamentos, SA (501904921)","31.128,00 €",01-09-2016,22-08-2016,45 dias,"Portugal, Lisboa, Lisboa","Artigo 20.º, n.º 1, alínea b) do Código dos Contratos Públicos",,,,,,Não aplicável.,Não aplicável.,FALSE
Aquisição de pano multiuso,Ajuste Direto Regime Geral,Aquisição de bens móveis,"33140000-3, Material médico de consumo","Administração Regional de Saúde de Lisboa e Vale do Tejo, I. P. (503148776)","Fitisan - prod. Higiene e Embalagem, Lda (506320073)","1.875,00 €",01-09-2016,01-09-2016,150 dias,"Portugal, Lisboa, Lisboa","Artigo 20.º, n.º 1, alínea a) do Código dos Contratos Públicos",,,,,,Não aplicável.,Não aplicável.,FALSE
Aquisição Esfregão,Ajuste Direto Regime Geral,Aquisição de bens móveis,"33140000-3, Material médico de consumo","Administração Regional de Saúde de Lisboa e Vale do Tejo, I. P. (503148776)","Fitisan - Prod. Higiene e Embalagem, Lda (506320073)","300,00 €",01-09-2016,01-09-2016,150 dias,"Portugal, Lisboa, Lisboa","Artigo 20.º, n.º 1, alínea a) do Código dos Contratos Públicos",,,,,,Não aplicável.,Não aplicável.,FALSE
