Objeto do Contrato,Tipo de Procedimento,Tipo(s) de Contrato,CPVs,Entidade(s) Adjudicante(s),Entidade(s) Adjudicatária(s),Preço Contratual,Data de Publicação,Data de Celebração do Contrato,Prazo de Execução,Local de Execução,Fundamentação,Data de Fecho do Contrato,Preço Total Efetivo,Causas das Alterações ao Prazo,Causas das Alterações ao Preço,Estado,N.º registo do Acordo Quadro,Descrição do Acordo Quadro,Procedimento Centralizado
KIT PLAQUETAFERESE P/ EQUIPAMENTO AMICUS,Ajuste Direto Regime Geral,Aquisição de bens móveis,"33696500-0, Reagentes de laboratório","Instituto Português de Oncologia do Porto Francisco Gentil, E. P. E. (506362299)","FRESENIUS KABI PHARMA PORTUGAL, LDA. (504293753)","10.802,88 €",08-06-2018,11-12-2017,20 dias,"Portugal, Porto, Porto","Artigo 24.º, n.º 1, alínea e) do Código dos Contratos Públicos",,,,,,Não aplicável.,Não aplicável.,FALSE
KIT THINPREP GINECOLOGICO - SÓ FRASCO + ESCOVILHÃO,Ajuste Direto Regime Geral,Aquisição de bens móveis,"33140000-3, Material médico de consumo","Instituto Português de Oncologia do Porto Francisco Gentil, E. P. E. (506362299)","Hologic Iberia, S.L. (980277230)","89.200,00 €",08-06-2018,20-11-2017,20 dias,"Portugal, Porto, Porto","Artigo 24.º, n.º 1, alínea c) do Código dos Contratos Públicos",,,,,,Não aplicável.,Não aplicável.,FALSE
KITS HEMODIÁLISE PRINCIPAL E COMPLEMENTAR - NOV E DEZ 17,Ajuste Direto Regime Geral,Aquisição de bens móveis,"33140000-3, Material médico de consumo","Instituto Português de Oncologia do Porto Francisco Gentil, E. P. E. (506362299)","FRESENIUS MEDICAL CARE PORTUGAL, S.A. (503070220)","29.151,66 €",08-06-2018,13-12-2017,20 dias,"Portugal, Porto, Porto","Artigo 24.º, n.º 1, alínea e) do Código dos Contratos Públicos",,,,,,Não aplicável.,Não aplicável.,FALSE
"Aquisição centralizada SPMS, Acordo Quadro 2015/6 - P259-AC-2017-37 - CRIZOTINIB E SUNITINIB",Ao abrigo de acordo-quadro (art.º 259.º),Aquisição de bens móveis,"33600000-6, Produtos farmacêuticos","Instituto Português de Oncologia do Porto Francisco Gentil, E. P. E. (506362299)",PFIZER BIOFARMACEUTICA (513300376),"431.043,79 €",06-06-2018,08-03-2017,365 dias,"Portugal, Porto, Porto",Artigo 259.º do Código dos Contratos Públicos,,,,,,1771819,CP 2015/6 - Acordo quadro para o fornecimento de Medicamentos do Foro Oncológico,FALSE
"Aquisição centralizada SPMS, Acordo Quadro 2016/55 - P259-AC-2017-06 - VINORRELBINA",Ao abrigo de acordo-quadro (art.º 259.º),Aquisição de bens móveis,"33600000-6, Produtos farmacêuticos","Instituto Português de Oncologia do Porto Francisco Gentil, E. P. E. (506362299)","PIERRE FABRE MEDICAMENT PORTUGAL, LDA (500230366)","56.379,48 €",06-06-2018,21-02-2017,365 dias,"Portugal, Porto, Porto",Artigo 259.º do Código dos Contratos Públicos,,,,,,2124520,CP 2016/55 - Medicamentos Diversos,FALSE
Aquisição de medicamentos exclusivos - Crizotinib,Ajuste Direto Regime Geral,Aquisição de bens móveis,"33600000-6, Produtos farmacêuticos","Instituto Português de Oncologia do Porto Francisco Gentil, E. P. E. (506362299)",PFIZER BIOFARMACEUTICA (513300376),"31.506,73 €",06-06-2018,19-12-2017,20 dias,"Portugal, Porto, Porto","Artigo 24.º, n.º 1, alínea e) do Código dos Contratos Públicos",,,,,,Não aplicável.,Não aplicável.,FALSE
Aquisição de medicamentos exclusivos - Palbociclib e Parecoxib,Ajuste Direto Regime Geral,Aquisição de bens móveis,"33600000-6, Produtos farmacêuticos","Instituto Português de Oncologia do Porto Francisco Gentil, E. P. E. (506362299)",PFIZER BIOFARMACEUTICA (513300376),"21.223,02 €",06-06-2018,14-12-2017,20 dias,"Portugal, Porto, Porto","Artigo 24.º, n.º 1, alínea e) do Código dos Contratos Públicos",,,,,,Não aplicável.,Não aplicável.,FALSE
Aquisição de medicamentos exclusivos - Olaratumab - Out a Dez 17,Ajuste Direto Regime Geral,Aquisição de bens móveis,"33600000-6, Produtos farmacêuticos","Instituto Português de Oncologia do Porto Francisco Gentil, E. P. E. (506362299)",LILLY FARMA (500165602),"28.520,00 €",06-06-2018,27-12-2017,20 dias,"Portugal, Porto, Porto","Artigo 24.º, n.º 1, alínea e) do Código dos Contratos Públicos",,,,,,Não aplicável.,Não aplicável.,FALSE
Manutenção a equipamento de gastrenterologia,Ajuste Direto Regime Geral,Aquisição de serviços,"71356200-0, Serviços de assistência técnica","Instituto Português de Oncologia do Porto Francisco Gentil, E. P. E. (506362299)","OLYMPUS IBÉRIA, S.A. (980474710)","87.358,85 €",06-06-2018,19-03-2018,365 dias,"Portugal, Porto, Porto","Artigo 24.º, n.º 1, alínea e) do Código dos Contratos Públicos",,,,,,Não aplicável.,Não aplicável.,FALSE
Actos médicos realizados no exterior,Ajuste Direto Regime Geral,Aquisição de serviços,"85100000-0, Serviços de saúde","Instituto Português de Oncologia do Porto Francisco Gentil, E. P. E. (506362299)","Instituto Português do Sangue e da Transplantação, I. P. (502423943)","187.095,29 €",05-06-2018,18-04-2018,20 dias,"Portugal, Porto, Porto","Artigo 24.º, n.º 1, alínea e) do Código dos Contratos Públicos",,,,,,Não aplicável.,Não aplicável.,FALSE
MANUTENÇÃO CITOMETRO DE FLUXO,Ajuste Direto Regime Geral,Aquisição de serviços,"71356200-0, Serviços de assistência técnica","Instituto Português de Oncologia do Porto Francisco Gentil, E. P. E. (506362299)",ENZIFARMA - DIAGNOSTICA E FARMACEUT (503636975),"6.063,46 €",05-06-2018,12-09-2017,20 dias,"Portugal, Porto, Porto","Artigo 24.º, n.º 1, alínea e) do Código dos Contratos Públicos",,,,,,Não aplicável.,Não aplicável.,FALSE
Aquisição de medicamentos exclusivos - Inotuzumab ozogamicina,Ajuste Direto Regime Geral,Aquisição de bens móveis,"33600000-6, Produtos farmacêuticos","Instituto Português de Oncologia do Porto Francisco Gentil, E. P. E. (506362299)",Pfizer (500162166),"29.910,00 €",05-06-2018,23-05-2018,20 dias,"Portugal, Porto, Porto","Artigo 24.º, n.º 1, alínea e), subalínea iii) do Código dos Contratos Públicos",,,,,,Não aplicável.,Não aplicável.,FALSE
Aquisição de medicamentos exclusivos - Panitumumab,Ajuste Direto Regime Geral,Aquisição de bens móveis,"33600000-6, Produtos farmacêuticos","Instituto Português de Oncologia do Porto Francisco Gentil, E. P. E. (506362299)","AMGEN BIOFARMACEUTICA, LDA. (502942959)","16.256,72 €",05-06-2018,14-12-2017,20 dias,"Portugal, Porto, Porto","Artigo 24.º, n.º 1, alínea e) do Código dos Contratos Públicos",,,,,,Não aplicável.,Não aplicável.,FALSE
