Objeto do Contrato,Tipo de Procedimento,Tipo(s) de Contrato,CPVs,Entidade(s) Adjudicante(s),Entidade(s) Adjudicatária(s),Preço Contratual,Data de Publicação,Data de Celebração do Contrato,Prazo de Execução,Local de Execução,Fundamentação,Data de Fecho do Contrato,Preço Total Efetivo,Causas das Alterações ao Prazo,Causas das Alterações ao Preço,Estado,N.º registo do Acordo Quadro,Descrição do Acordo Quadro,Procedimento Centralizado
Aquisição de material clinico,Ajuste Direto Regime Geral,Aquisição de bens móveis,"33000000-0, Equipamento médico, medicamentos e produtos para cuidados pessoais","Administração Regional de Saúde do Centro, I. P. (503122165)","BASTOS VIEGAS,S.A. (500042772)","67.219,78 €",31-12-2013,12-12-2013,180 dias,"Portugal, Coimbra, Coimbra","Artigo 20.º, n.º 1, alínea a) do Código dos Contratos Públicos",,,,,,Não aplicável.,Não aplicável.,
Processo n.º 13800024. ACES Baixo Mondego. Centro de Saúde de Buarcos. Remodelação do atendimento da USF,Ajuste Direto Regime Geral,Empreitadas de obras públicas,"45000000-7, Construção","Administração Regional de Saúde do Centro, I. P. (503122165)",Santana e Silva (501183337),"2.003,00 €",30-12-2013,04-11-2013,15 dias,"Portugal, Coimbra, Coimbra","Artigo 19.º, alínea a) do Código dos Contratos Públicos",,,,,,Não aplicável.,Não aplicável.,
Aquisição de equipamento médico para a USF Vitasourium (PAI 2009),Ajuste Direto Regime Geral,Aquisição de bens móveis,"33100000-1, Equipamento médico","Administração Regional de Saúde do Centro, I.P. (503122165)","EPJMÉDICA - ARTIGOS MÉDICOS E HOSP., LDA. (506820513)","348,00 €",30-12-2013,30-04-2013,30 dias,"Portugal, Coimbra, Soure","Artigo 20.º, n.º 1, alínea a) do Código dos Contratos Públicos",,,,,,Não aplicável.,Não aplicável.,
Aquisição de equipamento médico para a USF Vitasourium (PAI 2009),Ajuste Direto Regime Geral,Aquisição de bens móveis,"33100000-1, Equipamento médico","Administração Regional de Saúde do Centro, I.P. (503122165)","EPJMÉDICA - ARTIGOS MÉDICOS E HOSP., LDA. (506820513)","213,65 €",30-12-2013,30-04-2013,30 dias,"Portugal, Coimbra, Soure","Artigo 20.º, n.º 1, alínea a) do Código dos Contratos Públicos",,,,,,Não aplicável.,Não aplicável.,
"INSTALAÇÃO E CONECTORIZAÇÃO DOS BASTIDORES DO EDIFICIO DA AV. BISSAYA BARRETO, 52; SERVIÇOS DA ARSC, IP E ACES BAIXO MONDEGO",Ajuste Direto Regime Geral,Aquisição de bens móveis,"30000000-9, Máquinas, equipamento e material de escritório e de informática, excepto mobiliário e pacotes de programas (software)","Administração Regional de Saúde do Centro, I. P. (503122165)","LÂMPADA DE CORES-INSTALAÇÕES ELECTRICAS E OBRAS PÚBLICAS, LDA. (509231608)","3.390,00 €",30-12-2013,12-11-2013,5 dias,"Portugal, Coimbra, Coimbra","Artigo 20.º, n.º 1, alínea a) do Código dos Contratos Públicos",,,,,,Não aplicável.,Não aplicável.,
Processo n.º 13800022. Obras para adaptação da USF Terras de Antuã em Salreu. ACES Baixo Vouga,Ajuste Direto Regime Geral,Empreitadas de obras públicas,"45000000-7, Construção","Administração Regional de Saúde do Centro, I. P. (503122165)","Elisio de Azevedo, Lda (501355804)","39.997,20 €",26-12-2013,14-10-2013,60 dias,"Portugal, Aveiro, Aveiro","Artigo 19.º, alínea a) do Código dos Contratos Públicos",,,,,,Não aplicável.,Não aplicável.,
