Objeto do Contrato,Tipo de Procedimento,Tipo(s) de Contrato,CPVs,Entidade(s) Adjudicante(s),Entidade(s) Adjudicatária(s),Preço Contratual,Data de Publicação,Data de Celebração do Contrato,Prazo de Execução,Local de Execução,Fundamentação,Data de Fecho do Contrato,Preço Total Efetivo,Causas das Alterações ao Prazo,Causas das Alterações ao Preço,Estado,N.º registo do Acordo Quadro,Descrição do Acordo Quadro,Procedimento Centralizado
"SP/89/2018 - Aquisição de Vacinas, Lotes 1, 2, 3 e 4 - PNV 2018",Ao abrigo de acordo-quadro (art.º 259.º),Aquisição de bens móveis,"33000000-0, Equipamento médico, medicamentos e produtos para cuidados pessoais","Administração Regional de Saúde do Algarve, I. P. (503148709)","Sanofi, Lda. (500134960)","143.597,00 €",10-08-2018,12-03-2018,324 dias,"Portugal, Faro, Faro",Artigo 259.º do Código dos Contratos Públicos,"","",,"",,1923518,CP 2016/13 - Acordo Quadro para fornecimento de Vacinas e Tuberculinas   às Instituições e Serviços do Serviço Nacional de Saúde,TRUE
"SP/89/2018 - Aquisição de Vacinas, Lotes 1, 2, 3 e 4 - PNV 2018",Ao abrigo de acordo-quadro (art.º 259.º),Aquisição de bens móveis,"33000000-0, Equipamento médico, medicamentos e produtos para cuidados pessoais","Administração Regional de Saúde do Algarve, I. P. (503148709)","GlaxoSmithKline, Lda. (500139962)","176.412,00 €",10-08-2018,12-03-2018,324 dias,"Portugal, Faro, Faro",Artigo 259.º do Código dos Contratos Públicos,"","",,"",,1923518,CP 2016/13 - Acordo Quadro para fornecimento de Vacinas e Tuberculinas   às Instituições e Serviços do Serviço Nacional de Saúde,TRUE
SP/41/2018 - Aquisição de vacinas II - PNV 2018,Ao abrigo de acordo-quadro (art.º 259.º),Aquisição de bens móveis,"33651600-4, Vacinas","Administração Regional de Saúde do Algarve, I.P. (503148709)","Pfizer Biofarmacêutica, Lda. (513300376)","745.399,00 €",10-08-2018,22-02-2018,312 dias,"Portugal, Faro, Faro",Artigo 259.º do Código dos Contratos Públicos,"","",,"",,1923518,CP 2016/13 - Acordo Quadro para fornecimento de Vacinas e Tuberculinas   às Instituições e Serviços do Serviço Nacional de Saúde,TRUE
SP/19/2018 - Aquisição de vacinas para PNV 2018,Ao abrigo de acordo-quadro (art.º 259.º),Aquisição de bens móveis,"33651600-4, Vacinas","Administração Regional de Saúde do Algarve, I. P. (503148709)","Merck, Sharp & Dohme, Lda. (500191360)","263.600,00 €",10-08-2018,19-02-2018,310 dias,"Portugal, Faro, Faro",Artigo 259.º do Código dos Contratos Públicos,"","",,"",,1923518,CP 2016/13 - Acordo Quadro para fornecimento de Vacinas e Tuberculinas   às Instituições e Serviços do Serviço Nacional de Saúde,TRUE
SP/19/2018 - Aquisição de vacinas para PNV 2018,Ao abrigo de acordo-quadro (art.º 259.º),Aquisição de bens móveis,"33651600-4, Vacinas","Administração Regional de Saúde do Algarve, I. P. (503148709)","Sanofi - Produtos Farmacêuticos, Lda. (500134960)","331.540,00 €",10-08-2018,16-02-2018,318 dias,"Portugal, Faro, Faro",Artigo 259.º do Código dos Contratos Públicos,"","",,"",,1923518,CP 2016/13 - Acordo Quadro para fornecimento de Vacinas e Tuberculinas   às Instituições e Serviços do Serviço Nacional de Saúde,TRUE
SP/19/2018 - Aquisição de vacinas para PNV 2018,Ao abrigo de acordo-quadro (art.º 259.º),Aquisição de bens móveis,"33651600-4, Vacinas","Administração Regional de Saúde do Algarve, I. P. (503148709)","GlaxoSmithKline, Lda. (500139962)","75.871,30 €",10-08-2018,20-02-2018,340 dias,"Portugal, Faro, Faro",Artigo 259.º do Código dos Contratos Públicos,"","",,"",,1923518,CP 2016/13 - Acordo Quadro para fornecimento de Vacinas e Tuberculinas   às Instituições e Serviços do Serviço Nacional de Saúde,TRUE
"Concurso Público n.º 201/2018- Aquisição de testes para determinação do tempo protrombina e APTT, testes de urina II e sedimento urinário",Concurso público,Aquisição de bens móveis,"33696000-5, Reagentes e meios de contraste","Administração Regional de Saúde do Algarve, I.P. (503148709)",MENARINI DIAGNÓSTICOS MATERIAL DE LABORATÓRIO (502610069),"4.580,00 €",10-08-2018,10-08-2018,152 dias,"Portugal, Faro, Faro","Artigo 20.º, n.º 1, alínea b) do Código dos Contratos Públicos",31-12-2018,"4.580,00 €",,"",,Não aplicável.,Não aplicável.,FALSE
"Concurso Público n.º 201/2018- Aquisição de testes para determinação do tempo protrombina e APTT, testes de urina II e sedimento urinário",Concurso público,Aquisição de bens móveis,"33696500-0, Reagentes de laboratório","Administração Regional de Saúde do Algarve, I.P. (503148709)","STAGO PORTUGAL, UNIPESSOAL, LDA (509952976)","1.492,08 €",10-08-2018,10-08-2018,152 dias,"Portugal, Faro, Faro","Artigo 20.º, n.º 1, alínea b) do Código dos Contratos Públicos",31-12-2018,"1.492,08 €",,"",,Não aplicável.,Não aplicável.,FALSE
"Aquisição de Desinfetantes, Antisséticos e Produtos Farmacêuticos ",Consulta Prévia,Aquisição de bens móveis,"33600000-6, Produtos farmacêuticos","Administração Regional de Saúde do Algarve, I. P. (503148709)","Medinfar Sorológico, S.A. (501197052)","164,00 €",10-08-2018,10-08-2018,140 dias,"Portugal, Faro, Faro","Artigo 20.º, n.º 1, alínea c) do Código dos Contratos Públicos",15-11-2018,"164,00 €",,"",,Não aplicável.,Não aplicável.,FALSE
"Aquisição de Desinfetantes, Antisséticos e Produtos Farmacêuticos ",Consulta Prévia,Aquisição de bens móveis,"33600000-6, Produtos farmacêuticos","Administração Regional de Saúde do Algarve, I. P. (503148709)","Dimorasept, Lda. (510258786)","1.554,00 €",10-08-2018,09-08-2018,140 dias,"Portugal, Faro, Faro","Artigo 20.º, n.º 1, alínea c) do Código dos Contratos Públicos","","",,"",,Não aplicável.,Não aplicável.,FALSE
Aquisição de Material de Penso de Efeito Terapêutico.1,Ao abrigo de acordo-quadro (art.º 259.º),Aquisição de bens móveis,"33140000-3, Material médico de consumo","Administração Regional de Saúde do Algarve, I. P. (503148709)","Laboratórios Urgo, SL (980507782)","5.070,00 €",10-08-2018,27-06-2018,184 dias,"Portugal, Faro, Faro",Artigo 259.º do Código dos Contratos Públicos,22-11-2018,"5.070,00 €",,"",,1315192,Acordo Quadro para fornecimento de material de penso de efeito terapêutico às Instituições e Serviços do Serviço Nacional de Saúde,FALSE
Aquisição de Material de Penso de Efeito Terapêutico.1,Ao abrigo de acordo-quadro (art.º 259.º),Aquisição de bens móveis,"33140000-3, Material médico de consumo","Administração Regional de Saúde do Algarve, I. P. (503148709)","Paul Hartmann, Lda. (502271728)","2.925,00 €",10-08-2018,22-06-2018,190 dias,"Portugal, Faro, Faro",Artigo 259.º do Código dos Contratos Públicos,22-10-2018,"2.925,00 €",,"",,1315192,Acordo Quadro para fornecimento de material de penso de efeito terapêutico às Instituições e Serviços do Serviço Nacional de Saúde,FALSE
Aquisição de Material de Penso de Efeito Terapêutico.1,Ao abrigo de acordo-quadro (art.º 259.º),Aquisição de bens móveis,"33140000-3, Material médico de consumo","Administração Regional de Saúde do Algarve, I. P. (503148709)","Clinifar, S.A. (503281115)","10.038,32 €",10-08-2018,08-06-2018,204 dias,"Portugal, Faro, Faro",Artigo 259.º do Código dos Contratos Públicos,07-11-2018,"10.038,32 €",,"",,1315192,Acordo Quadro para fornecimento de material de penso de efeito terapêutico às Instituições e Serviços do Serviço Nacional de Saúde,FALSE
Aquisição de Material de Penso de Efeito Terapêutico.1,Ao abrigo de acordo-quadro (art.º 259.º),Aquisição de bens móveis,"33140000-3, Material médico de consumo","Administração Regional de Saúde do Algarve, I. P. (503148709)","Smith $ Nephew, Lda. (503552461)","10.590,00 €",10-08-2018,27-06-2018,179 dias,"Portugal, Faro, Faro",Artigo 259.º do Código dos Contratos Públicos,24-10-2018,"10.590,00 €",,"",,1315192,Acordo Quadro para fornecimento de material de penso de efeito terapêutico às Instituições e Serviços do Serviço Nacional de Saúde,FALSE
Aquisição de Material de Penso de Efeito Terapêutico.1,Ao abrigo de acordo-quadro (art.º 259.º),Aquisição de bens móveis,"33140000-3, Material médico de consumo","Administração Regional de Saúde do Algarve, I. P. (503148709)","Queenlabs, Lda. (503984485)","2.338,50 €",10-08-2018,27-06-2018,179 dias,"Portugal, Faro, Faro",Artigo 259.º do Código dos Contratos Públicos,29-08-2018,"2.338,50 €",,"",,1315192,Acordo Quadro para fornecimento de material de penso de efeito terapêutico às Instituições e Serviços do Serviço Nacional de Saúde,FALSE
Aquisição de Material de Penso de Efeito Terapêutico.1,Ao abrigo de acordo-quadro (art.º 259.º),Aquisição de bens móveis,"33140000-3, Material médico de consumo","Administração Regional de Saúde do Algarve, I. P. (503148709)","Molnlycke Health Care, Lda. (511101066)","1.420,00 €",10-08-2018,22-06-2018,190 dias,"Portugal, Faro, Faro",Artigo 259.º do Código dos Contratos Públicos,27-08-2018,"1.420,00 €",,"",,1315192,Acordo Quadro para fornecimento de material de penso de efeito terapêutico às Instituições e Serviços do Serviço Nacional de Saúde,FALSE
Aquisição de Fio Sintético,Ao abrigo de acordo-quadro (art.º 259.º),Aquisição de bens móveis,"33600000-6, Produtos farmacêuticos","Administração Regional de Saúde do Algarve, I. P. (503148709)","Socime II, Lda. (504453939)","102,96 €",10-08-2018,10-08-2018,140 dias,"Portugal, Faro, Faro",Artigo 259.º do Código dos Contratos Públicos,"","",,"",,1830807,Acordo quadro para fornecimento de Suturas Cirúrgicas - Parte I   às Instituições e Serviços do Serviço Nacional de Saúde,FALSE
Aquisição de Fio Sintético,Ao abrigo de acordo-quadro (art.º 259.º),Aquisição de bens móveis,"33600000-6, Produtos farmacêuticos","Administração Regional de Saúde do Algarve, I. P. (503148709)","HR - Hospitalar, Lda. (501895558)","97,20 €",10-08-2018,10-08-2018,140 dias,"Portugal, Faro, Faro",Artigo 259.º do Código dos Contratos Públicos,"","",,"",,1830807,Acordo quadro para fornecimento de Suturas Cirúrgicas - Parte I   às Instituições e Serviços do Serviço Nacional de Saúde,FALSE
Aquisição de vacina Pneumocócica 23 valências,Ajuste Direto Regime Geral,Aquisição de bens móveis,"33651600-4, Vacinas","Administração Regional de Saúde do Algarve, I. P. (503148709)","Merck Sharp & Dohme, Lda. (500191360)","521,00 €",09-08-2018,16-05-2018,229 dias,"Portugal, Faro, Faro","Artigo 24.º, n.º 1, alínea e), subalínea ii) do Código dos Contratos Públicos",20-09-2018,"521,00 €",,"",,Não aplicável.,Não aplicável.,FALSE
"Aquisição de Desinfetantes, Antisséticos e Produtos Farmacêuticos ",Consulta Prévia,Aquisição de bens móveis,"33600000-6, Produtos farmacêuticos","Administração Regional de Saúde do Algarve, I. P. (503148709)","Johnson & Johnson, Lda. (500153370)","1.584,00 €",09-08-2018,09-08-2018,140 dias,"Portugal, Faro, Faro","Artigo 20.º, n.º 1, alínea c) do Código dos Contratos Públicos",22-11-2018,"1.440,00 €",,Quantidades encomendadas.,,Não aplicável.,Não aplicável.,FALSE
"Aquisição de Desinfetantes, Antisséticos e Produtos Farmacêuticos ",Consulta Prévia,Aquisição de bens móveis,"33600000-6, Produtos farmacêuticos","Administração Regional de Saúde do Algarve, I. P. (503148709)","B.Braun Medical, Lda. (501506543)","210,96 €",09-08-2018,09-08-2018,140 dias,"Portugal, Faro, Faro","Artigo 20.º, n.º 1, alínea c) do Código dos Contratos Públicos",14-11-2018,"210,96 €",,"",,Não aplicável.,Não aplicável.,FALSE
Aquisição de Medicamentos Gerais CPA142016,Ao abrigo de acordo-quadro (art.º 259.º),Aquisição de bens móveis,"33690000-3, Medicamentos vários","Administração Regional de Saúde do Algarve, I. P. (503148709)","Laboratórios Normon, S.A. (505654156)","88,00 €",08-08-2018,08-08-2018,146 dias,"Portugal, Faro, Faro",Artigo 259.º do Código dos Contratos Públicos,13-08-2018,"66,00 €",,Quantidades encomendadas.,,1194708,"CONCURSO PÚBLICO PARA A CELEBRAÇÃO DE CONTRATOS PÚBLICOS DE APROVISIONAMENTO PARA A ÁREA DA SAÚDE, MEDICAMENTOS DO APARELHO DIGESTIVO, ÀS INSTITUIÇÕES E SERVIÇOS DO SERVIÇO NACIONAL DE SAÚDE",FALSE
Aquisição de Medicamentos Gerais CPA142016,Ao abrigo de acordo-quadro (art.º 259.º),Aquisição de bens móveis,"33690000-3, Medicamentos vários","Administração Regional de Saúde do Algarve, I. P. (503148709)","Generis, S.A. (508107997)","234,08 €",08-08-2018,08-08-2018,148 dias,"Portugal, Faro, Faro",Artigo 259.º do Código dos Contratos Públicos,30-10-2018,"79,40 €",,Quantidades encomendadas.,,1194708,"CONCURSO PÚBLICO PARA A CELEBRAÇÃO DE CONTRATOS PÚBLICOS DE APROVISIONAMENTO PARA A ÁREA DA SAÚDE, MEDICAMENTOS DO APARELHO DIGESTIVO, ÀS INSTITUIÇÕES E SERVIÇOS DO SERVIÇO NACIONAL DE SAÚDE",FALSE
Aquisição de Medicamentos Gerais CPA142016,Ao abrigo de acordo-quadro (art.º 259.º),Aquisição de bens móveis,"33690000-3, Medicamentos vários","Administração Regional de Saúde do Algarve, I. P. (503148709)","Overpharma - Produtos Médicos Farmacêuticos, Lda. (505792362)","116,72 €",08-08-2018,08-08-2018,148 dias,"Portugal, Faro, Faro",Artigo 259.º do Código dos Contratos Públicos,"","",,"",,1194708,"CONCURSO PÚBLICO PARA A CELEBRAÇÃO DE CONTRATOS PÚBLICOS DE APROVISIONAMENTO PARA A ÁREA DA SAÚDE, MEDICAMENTOS DO APARELHO DIGESTIVO, ÀS INSTITUIÇÕES E SERVIÇOS DO SERVIÇO NACIONAL DE SAÚDE",FALSE
Aquisição de Medicamentos Gerais CPA142016,Ao abrigo de acordo-quadro (art.º 259.º),Aquisição de bens móveis,"33690000-3, Medicamentos vários","Administração Regional de Saúde do Algarve, I. P. (503148709)","Labesfal - Laboratórios Almiro, S.A. (501169580)","23,60 €",08-08-2018,08-08-2018,146 dias,"Portugal, Faro, Faro",Artigo 259.º do Código dos Contratos Públicos,28-11-2018,"17,70 €",,Quantidades encomendadas.,,1194708,"CONCURSO PÚBLICO PARA A CELEBRAÇÃO DE CONTRATOS PÚBLICOS DE APROVISIONAMENTO PARA A ÁREA DA SAÚDE, MEDICAMENTOS DO APARELHO DIGESTIVO, ÀS INSTITUIÇÕES E SERVIÇOS DO SERVIÇO NACIONAL DE SAÚDE",FALSE
Aquisição de Medicamentos Gerais CPA142016,Ao abrigo de acordo-quadro (art.º 259.º),Aquisição de bens móveis,"33690000-3, Medicamentos vários","Administração Regional de Saúde do Algarve, I. P. (503148709)","Mylan, Lda. (502248793)","652,61 €",08-08-2018,08-08-2018,146 dias,"Portugal, Faro, Faro",Artigo 259.º do Código dos Contratos Públicos,21-09-2018,"652,61 €",,"",,1194708,"CONCURSO PÚBLICO PARA A CELEBRAÇÃO DE CONTRATOS PÚBLICOS DE APROVISIONAMENTO PARA A ÁREA DA SAÚDE, MEDICAMENTOS DO APARELHO DIGESTIVO, ÀS INSTITUIÇÕES E SERVIÇOS DO SERVIÇO NACIONAL DE SAÚDE",FALSE
Aquisição de Medicamentos Gerais CPA142016,Ao abrigo de acordo-quadro (art.º 259.º),Aquisição de bens móveis,"33690000-3, Medicamentos vários","Administração Regional de Saúde do Algarve, I. P. (503148709)","Laboratórios Medinfar, S.A. (500384045)","628,05 €",08-08-2018,08-08-2018,146 dias,"Portugal, Faro, Faro",Artigo 259.º do Código dos Contratos Públicos,12-11-2018,"295,47 €",,Quantidades encomendadas.,,1194708,"CONCURSO PÚBLICO PARA A CELEBRAÇÃO DE CONTRATOS PÚBLICOS DE APROVISIONAMENTO PARA A ÁREA DA SAÚDE, MEDICAMENTOS DO APARELHO DIGESTIVO, ÀS INSTITUIÇÕES E SERVIÇOS DO SERVIÇO NACIONAL DE SAÚDE",FALSE
Aquisição de Impressos,Consulta Prévia,Aquisição de bens móveis,"30199710-0, Sobrescritos impressos","Administração Regional de Saúde do Algarve, I. P. (503148709)",Arnaldo Matos Pereira Lda (500030693),"444,00 €",07-08-2018,07-08-2018,146 dias,"Portugal, Faro, Faro","Artigo 20.º, n.º 1, alínea c) do Código dos Contratos Públicos","","",,"",,Não aplicável.,Não aplicável.,FALSE
Aquisição de Impressos,Consulta Prévia,Aquisição de bens móveis,"30199710-0, Sobrescritos impressos","Administração Regional de Saúde do Algarve, I. P. (503148709)","CONTISYSTEMS, S.A. (504227114)","5.764,00 €",07-08-2018,07-08-2018,146 dias,"Portugal, Faro, Faro","Artigo 20.º, n.º 1, alínea c) do Código dos Contratos Públicos","","",,"",,Não aplicável.,Não aplicável.,FALSE
Aquisição de Impressos,Consulta Prévia,Aquisição de bens móveis,"30199710-0, Sobrescritos impressos","Administração Regional de Saúde do Algarve, I. P. (503148709)",PAPELMUNDE SOC MAT GRAFICO LD      (501555315),"3.024,00 €",07-08-2018,07-08-2018,146 dias,"Portugal, Faro, Faro","Artigo 20.º, n.º 1, alínea c) do Código dos Contratos Públicos","","",,"",,Não aplicável.,Não aplicável.,FALSE
Aquisição de Campo Operatório S/Janela,Ao abrigo de acordo-quadro (art.º 259.º),Aquisição de bens móveis,"33190000-8, Dispositivos e produtos médicos variados","Administração Regional de Saúde do Algarve, I. P. (503148709)","Docworld, Lda (508592909)","282,00 €",06-08-2018,06-08-2018,147 dias,"Portugal, Faro, Faro",Artigo 259.º do Código dos Contratos Públicos,"","",,"",,2497138,CP 2016/42 - Acordo quadro para o fornecimento de Campos Operatórios,FALSE
Aquisição de Reagentes de Diagnóstico Rápido,Consulta Prévia,Aquisição de bens móveis,"33600000-6, Produtos farmacêuticos","Administração Regional de Saúde do Algarve, I. P. (503148709)","Abbott, Lda. (500006148)","9.240,00 €",03-08-2018,03-08-2018,149 dias,"Portugal, Faro, Faro","Artigo 20.º, n.º 1, alínea c) do Código dos Contratos Públicos",11-12-2018,"7.700,00 €",,Quantidades encomendadas.,,Não aplicável.,Não aplicável.,FALSE
