Objeto do Contrato,Tipo de Procedimento,Tipo(s) de Contrato,CPVs,Entidade(s) Adjudicante(s),Entidade(s) Adjudicatária(s),Preço Contratual,Data de Publicação,Data de Celebração do Contrato,Prazo de Execução,Local de Execução,Fundamentação,Data de Fecho do Contrato,Preço Total Efetivo,Causas das Alterações ao Prazo,Causas das Alterações ao Preço,Estado,N.º registo do Acordo Quadro,Descrição do Acordo Quadro,Procedimento Centralizado
V 133 - VACINA HEXAVALENTE CONTRA DIF. TET. PERT. Hib VIP e VHB (DTPaHibVIPVHB) [UDOSE],Ao abrigo de acordo-quadro (art.º 259.º),Aquisição de bens móveis,"33000000-0, Equipamento médico, medicamentos e produtos para cuidados pessoais","Administração Regional de Saúde de Lisboa e Vale do Tejo, I. P. (503148776)","Sanofi Produtos Farmacêuticos, Lda. (500134960)","1.513.590,00 €",20-07-2018,05-04-2018,270 dias,"Portugal, Lisboa, Lisboa",Artigo 259.º do Código dos Contratos Públicos,,,,,,1923518,CP 2016/13 - Acordo Quadro para fornecimento de Vacinas e Tuberculinas   às Instituições e Serviços do Serviço Nacional de Saúde,TRUE
"Atropina sol. inj 0,5mg/ml im iv sc",Ao abrigo de acordo-quadro (art.º 259.º),Aquisição de bens móveis,"33600000-6, Produtos farmacêuticos","Administração Regional de Saúde de Lisboa e Vale do Tejo, I. P. (503148776)",B.braun Medical Lda  (501506543),"1.545,00 €",20-07-2018,22-05-2018,365 dias,"Portugal, Lisboa",Artigo 259.º do Código dos Contratos Públicos,,,,,,2335591,CP 2016/01 - Acordo Quadro para fornecimento de Medicamentos do Aparelho Cardiovascular   às Instituições e Serviços do Serviço Nacional de Saúde,FALSE
Aquisição de especulos vaginais,Consulta Prévia,Aquisição de bens móveis,"33140000-3, Material médico de consumo","Administração Regional de Saúde de Lisboa e Vale do Tejo, I. P. (503148776)",SPECULUM (502996323),"30.680,80 €",20-07-2018,09-04-2018,180 dias,"Portugal, Lisboa, Lisboa","Artigo 20.º, n.º 1, alínea c) do Código dos Contratos Públicos",,,,,,Não aplicável.,Não aplicável.,FALSE
Piridoxina 300mg cp,Ajuste Direto Regime Geral,Aquisição de bens móveis,"33600000-6, Produtos farmacêuticos","Administração Regional de Saúde de Lisboa e Vale do Tejo, I. P. (503148776)","Teofarma, SRL (980244463)","1.888,00 €",20-07-2018,02-04-2018,365 dias,"Portugal, Lisboa","Artigo 24.º, n.º 1, alínea e) do Código dos Contratos Públicos",,,,,,Não aplicável.,Não aplicável.,FALSE
Fixador de Citologia sem CFC 100ml,Ajuste Direto Regime Geral,Aquisição de bens móveis,"33600000-6, Produtos farmacêuticos","Administração Regional de Saúde de Lisboa e Vale do Tejo, I. P. (503148776)",Normax - Fábrica de Vidros Cientificos Lda  (500203130),"3.628,80 €",20-07-2018,09-04-2018,365 dias,"Portugal, Lisboa","Artigo 20.º, n.º 1, alínea a) do Código dos Contratos Públicos",,,,,,Não aplicável.,Não aplicável.,FALSE
glucose 300mg sol inj 20ml,Ao abrigo de acordo-quadro (art.º 259.º),Aquisição de bens móveis,"33600000-6, Produtos farmacêuticos","Administração Regional de Saúde de Lisboa e Vale do Tejo, I. P. (503148776)",B.braun Medical Lda  (501506543),"468,00 €",20-07-2018,22-05-2018,365 dias,"Portugal, Lisboa",Artigo 259.º do Código dos Contratos Públicos,,,,,,2528675,CP 2017/3 - Acordo Quadro para fornecimento de corretivos da volémia e outras soluções estéreis,FALSE
Aquisição de equipamento médico pra a USF Maré (Aces Cascais),Ajuste Direto Regime Geral,Aquisição de bens móveis,"39300000-5, Equipamento diverso","Administração Regional de Saúde de Lisboa e Vale do Tejo, I. P. (503148776)",ALFRAPHAR – EQUIPAMENTOS E PRODUTOS FARMACÊUTICOS LDA (504223895),"1.171,50 €",19-07-2018,04-06-2018,20 dias,"Portugal, Lisboa, Cascais","Artigo 20.º, n.º 1, alínea a) do Código dos Contratos Públicos",,,,,,Não aplicável.,Não aplicável.,FALSE
Obras no Piso 1 das instalações do Hospital Pulido Valente para a criação de uma USF,Concurso público,Empreitadas de obras públicas,"45113000-2, Obras no local","Administração Regional de Saúde de Lisboa e Vale do Tejo, I. P. (503148776)","DAPE, LDA (504931946)","470.939,65 €",19-07-2018,18-05-2018,120 dias,"Portugal, Lisboa, Lisboa","Artigo 19.º, alínea b) do Código dos Contratos Públicos",,,,,,Não aplicável.,Não aplicável.,FALSE
Aquisição de alcoolímetros para o DICAD,Ajuste Direto Regime Geral,Aquisição de bens móveis,"38300000-8, Instrumentos de medição","Administração Regional de Saúde de Lisboa e Vale do Tejo, I. P. (503148776)",DRAGER PORTUGAL (508771323),"9.787,75 €",18-07-2018,28-06-2018,20 dias,"Portugal, Lisboa, Lisboa","Artigo 20.º, n.º 1, alínea d) do Código dos Contratos Públicos",,,,,,Não aplicável.,Não aplicável.,FALSE
Prestação de serviços médicos sem especialidade para o mês de junho,Ajuste Direto Regime Geral,Aquisição de serviços,"85141000-9, Serviços prestados pelo pessoal médico",Adm.Reg.de Saúde de Lisboa e Vale do Tejo (ARSLVT) (503148776),GS24- Healthcare Solutions S.A. (507824652),"97.253,99 €",17-07-2018,16-07-2018,30 dias,"Portugal, Lisboa","Artigo 27.º, n.º 1, alínea a) do Código dos Contratos Públicos",,,,,,Não aplicável.,Não aplicável.,FALSE
Prestação de serviços médicos sem especialidade para o mês de maio,Ajuste Direto Regime Geral,Aquisição de serviços,"85141000-9, Serviços prestados pelo pessoal médico","Administração Regional de Saúde de Lisboa e Vale do Tejo, I. P. (503148776)",GS24- Healthcare Solutions S.A. (507824652),"83.668,59 €",17-07-2018,16-07-2018,31 dias,"Portugal, Lisboa","Artigo 27.º, n.º 1, alínea a) do Código dos Contratos Públicos",,,,,,Não aplicável.,Não aplicável.,FALSE
Pirazinamida 500mg - comprimido,Ao abrigo de acordo-quadro (art.º 259.º),Aquisição de bens móveis,"33690000-3, Medicamentos vários","Administração Regional de Saúde de Lisboa e Vale do Tejo, I. P. (503148776)","Sanofi - Produtos Farmacêuticos, Lda (500134960)","1.260,00 €",13-07-2018,23-01-2018,343 dias,"Portugal, Lisboa",Artigo 259.º do Código dos Contratos Públicos,,,,,,2775691,CP 2017/5 - Acordo Quadro para fornecimento de Medicamentos anti-infeciosos: exceto antivíricos e antifúngicos,FALSE
Paracetamol 250mg SUP,Ao abrigo de acordo-quadro (art.º 259.º),Aquisição de bens móveis,"33690000-3, Medicamentos vários","Administração Regional de Saúde de Lisboa e Vale do Tejo, I. P. (503148776)","Overpharma - Produtos Médicos e Farmacêuticos, Lda (505792362)","239,60 €",13-07-2018,29-01-2018,337 dias,"Portugal, Lisboa",Artigo 259.º do Código dos Contratos Públicos,,,,,,1974985,"Medicamentos Analgésicos, Antipiréticos e Antidepressivos",FALSE
Paracetamol 250mg SUP,Ao abrigo de acordo-quadro (art.º 259.º),Aquisição de bens móveis,"33690000-3, Medicamentos vários","Administração Regional de Saúde de Lisboa e Vale do Tejo, I. P. (503148776)","Overpharma - Produtos Medicos e Farmacêuticos, Lda (505792362)","239,60 €",13-07-2018,29-01-2018,337 dias,"Portugal, Lisboa",Artigo 259.º do Código dos Contratos Públicos,,,,,,1974985,"Medicamentos Analgésicos, Antipiréticos e Antidepressivos",FALSE
Levofloxacina 250mg,Ao abrigo de acordo-quadro (art.º 259.º),Aquisição de bens móveis,"33690000-3, Medicamentos vários","Administração Regional de Saúde de Lisboa e Vale do Tejo, I. P. (503148776)","Teva Pharma - Produtos Farmacêuticos, Lda (507045491)","600,00 €",13-07-2018,29-01-2018,337 dias,"Portugal, Lisboa",Artigo 259.º do Código dos Contratos Públicos,,,,,,2775691,CP 2017/5 - Acordo Quadro para fornecimento de Medicamentos anti-infeciosos: exceto antivíricos e antifúngicos,FALSE
Adrenalina 1mg / ml Sol Inj IM IV IC SC,Ao abrigo de acordo-quadro (art.º 259.º),Aquisição de bens móveis,"33600000-6, Produtos farmacêuticos",Adm.Reg.de Saúde de Lisboa e Vale do Tejo (ARSLVT) (503148776),"Labesfal - Laboratórios Almiro, S.A. (501169580)","4.837,00 €",13-07-2018,08-03-2018,299 dias,"Portugal, Lisboa",Artigo 259.º do Código dos Contratos Públicos,,,,,,2335591,CP 2016/01 - Acordo Quadro para fornecimento de Medicamentos do Aparelho Cardiovascular   às Instituições e Serviços do Serviço Nacional de Saúde,FALSE
Adrenalina 1mg / ml Sol Inj IM IV IC SC,Ao abrigo de acordo-quadro (art.º 259.º),Aquisição de bens móveis,"33690000-3, Medicamentos vários","Administração Regional de Saúde de Lisboa e Vale do Tejo, I. P. (503148776)","Labesfal - Laboratórios Almiro, S.A. (501169580)","4.837,00 €",13-07-2018,08-03-2018,299 dias,"Portugal, Lisboa",Artigo 259.º do Código dos Contratos Públicos,,,,,,2335591,CP 2016/01 - Acordo Quadro para fornecimento de Medicamentos do Aparelho Cardiovascular   às Instituições e Serviços do Serviço Nacional de Saúde,FALSE
Isoniazida 50mg + Pirazinamida 300mg + Rifampicina 120mg,Ao abrigo de acordo-quadro (art.º 259.º),Aquisição de bens móveis,"33690000-3, Medicamentos vários","Administração Regional de Saúde de Lisboa e Vale do Tejo, I. P. (503148776)","Sanofi - Produtos Farmacêuticos, Lda (500134960)","24.149,00 €",13-07-2018,29-01-2018,337 dias,"Portugal, Lisboa",Artigo 259.º do Código dos Contratos Públicos,,,,,,2775691,CP 2017/5 - Acordo Quadro para fornecimento de Medicamentos anti-infeciosos: exceto antivíricos e antifúngicos,FALSE
Aquisição de equipamento médico para o Aces Arrábida,Ajuste Direto Regime Geral,Aquisição de bens móveis,"33100000-1, Equipamento médico","Administração Regional de Saúde de Lisboa e Vale do Tejo, I. P. (503148776)",ALFRAPHAR – EQUIPAMENTOS E PRODUTOS FARMACÊUTICOS LDA (504223895),"2.397,00 €",11-07-2018,23-05-2018,20 dias,"Portugal, Setúbal, Setúbal","Artigo 20.º, n.º 1, alínea a) do Código dos Contratos Públicos",,,,,,Não aplicável.,Não aplicável.,FALSE
Serviço de aluguer de asseticos e toalheiros dispensadores para a ARSLVT,Ajuste Direto Regime Geral,Aquisição de serviços,"50760000-0, Reparação e manutenção de sanitários públicos","Administração Regional de Saúde de Lisboa e Vale do Tejo, I. P. (503148776)",Spast- Soc. Portuguesa Aluguer serviços têxteis (502095857),"2.111,04 €",11-07-2018,15-05-2018,365 dias,"Portugal, Lisboa, Lisboa","Artigo 20.º, n.º 1, alínea d) do Código dos Contratos Públicos",,,,,,Não aplicável.,Não aplicável.,FALSE
Aquisição de mobiliário para a US Cadaval,Ao abrigo de acordo-quadro (art.º 259.º),Aquisição de bens móveis,"39100000-3, Mobiliário","Administração Regional de Saúde de Lisboa e Vale do Tejo, I. P. (503148776)","MOBAPEC - MOBILIÁRIO ESCOLAR, LDA (501155015)","370,00 €",11-07-2018,22-05-2018,223 dias,"Portugal, Lisboa, Torres Vedras",Artigo 259.º do Código dos Contratos Públicos,,,,,,1260651,Acordo quadro de fornecimento de mobiliário,FALSE
Aquisição de mobiliário para a US Cadaval,Ao abrigo de acordo-quadro (art.º 259.º),Aquisição de bens móveis,"39100000-3, Mobiliário","Administração Regional de Saúde de Lisboa e Vale do Tejo, I. P. (503148776)",Nautilus (503653179),"1.350,04 €",11-07-2018,22-05-2018,223 dias,"Portugal, Lisboa, Torres Vedras",Artigo 259.º do Código dos Contratos Públicos,,,,,,1260651,Acordo quadro de fornecimento de mobiliário,FALSE
Aquisição de mobiliário para a US Cadaval,Ao abrigo de acordo-quadro (art.º 259.º),Aquisição de bens móveis,"39100000-3, Mobiliário","Administração Regional de Saúde de Lisboa e Vale do Tejo, I. P. (503148776)","Julcar Mobiliário Integrado, SA (501140263)","36.690,72 €",11-07-2018,22-05-2018,223 dias,"Portugal, Lisboa, Torres Vedras",Artigo 259.º do Código dos Contratos Públicos,,,,,,1260651,Acordo quadro de fornecimento de mobiliário,FALSE
"Obras de Beneficiação da Unidade de Saúde de São Sebastião, do ACES Arrábida",Consulta Prévia,Empreitadas de obras públicas,"45113000-2, Obras no local","Administração Regional de Saúde de Lisboa e Vale do Tejo, I. P. (503148776)","NOW XXI – Engenharia & Construções, Limitada (514288256)","134.498,06 €",11-07-2018,05-07-2018,110 dias,"Portugal, Setúbal, Setúbal","Artigo 20.º, n.º 1, alínea c) do Código dos Contratos Públicos",,,,,,Não aplicável.,Não aplicável.,FALSE
Aquisição de fotómetros,Consulta Prévia,Aquisição de bens móveis,"38300000-8, Instrumentos de medição",Adm.Reg.de Saúde de Lisboa e Vale do Tejo (ARSLVT) (503148776),"Oilwater Industrial - Serviços e Representações, S.a (508980267)","14.708,16 €",11-07-2018,12-04-2018,20 dias,"Portugal, Lisboa, Lisboa","Artigo 32.º, n.º 2 do Código dos Contratos Públicos",,,,,,Não aplicável.,Não aplicável.,FALSE
