Objeto do Contrato,Tipo de Procedimento,Tipo(s) de Contrato,CPVs,Entidade(s) Adjudicante(s),Entidade(s) Adjudicatária(s),Preço Contratual,Data de Publicação,Data de Celebração do Contrato,Prazo de Execução,Local de Execução,Fundamentação,Data de Fecho do Contrato,Preço Total Efetivo,Causas das Alterações ao Prazo,Causas das Alterações ao Preço,Estado,N.º registo do Acordo Quadro,Descrição do Acordo Quadro,Procedimento Centralizado
Prestação Serviços,Ajuste Direto Regime Geral,Aquisição de serviços,"85000000-9, Serviços de saúde e acção social",Centro Hospitalar Psiquiátrico de Lisboa (508338476),Liliane Sousa Viegas (153384140),"1.133,38 €",10-04-2018,07-06-2017,30 dias,"Portugal, Lisboa, Lisboa","Artigo 24.º, n.º 1, alínea c) do Código dos Contratos Públicos",30-06-2017,"1.133,38 €",,,,Não aplicável.,Não aplicável.,FALSE
Prestação Serviços,Ajuste Direto Regime Geral,Aquisição de serviços,"80000000-4, Serviços de ensino e formação",Centro Hospitalar Psiquiátrico de Lisboa (508338476),Liliane Sousa Viegas (153384140),"1.133,38 €",10-04-2018,12-07-2017,30 dias,"Portugal, Lisboa, Lisboa","Artigo 24.º, n.º 1, alínea c) do Código dos Contratos Públicos",31-07-2017,"1.133,38 €",,,,Não aplicável.,Não aplicável.,FALSE
Prestação Serviços,Ajuste Direto Regime Geral,Aquisição de serviços,"85000000-9, Serviços de saúde e acção social",Centro Hospitalar Psiquiátrico de Lisboa (508338476),Rita Páscoa de Aguiar (209962925),"265,16 €",10-04-2018,12-07-2017,30 dias,"Portugal, Lisboa, Lisboa","Artigo 24.º, n.º 1, alínea c) do Código dos Contratos Públicos",31-07-2017,"265,16 €",,,,Não aplicável.,Não aplicável.,FALSE
Prestação Serviços,Ajuste Direto Regime Geral,Aquisição de serviços,"85000000-9, Serviços de saúde e acção social",Centro Hospitalar Psiquiátrico de Lisboa (508338476),Rita Páscoa de Aguiar (209962925),"265,16 €",10-04-2018,11-08-2017,30 dias,"Portugal, Lisboa, Lisboa","Artigo 24.º, n.º 1, alínea c) do Código dos Contratos Públicos",31-08-2017,"265,16 €",,,,Não aplicável.,Não aplicável.,FALSE
Prestação Serviços,Ajuste Direto Regime Geral,Aquisição de serviços,"85000000-9, Serviços de saúde e acção social",Centro Hospitalar Psiquiátrico de Lisboa (508338476),Liliane Sousa Viegas (153384140),"1.133,38 €",10-04-2018,11-09-2017,30 dias,"Portugal, Lisboa, Lisboa","Artigo 24.º, n.º 1, alínea c) do Código dos Contratos Públicos",30-09-2017,"1.133,38 €",,,,Não aplicável.,Não aplicável.,FALSE
