Objeto do Contrato,Tipo de Procedimento,Tipo(s) de Contrato,CPVs,Entidade(s) Adjudicante(s),Entidade(s) Adjudicatária(s),Preço Contratual,Data de Publicação,Data de Celebração do Contrato,Prazo de Execução,Local de Execução,Fundamentação,Data de Fecho do Contrato,Preço Total Efetivo,Causas das Alterações ao Prazo,Causas das Alterações ao Preço,Estado,N.º registo do Acordo Quadro,Descrição do Acordo Quadro,Procedimento Centralizado
30015/2018 SUPORTES P O LIXO,Consulta Prévia,Aquisição de bens móveis,"33000000-0, Equipamento médico, medicamentos e produtos para cuidados pessoais","Centro Hospitalar Barreiro Montijo, E. P. E. (509186998)","EUGÉNIO PEREIRA, LDA. (503989525)","12.189,00 €",24-10-2018,11-06-2018,90 dias,"Portugal, Setúbal, Barreiro","Artigo 20.º, n.º 1, alínea c) do Código dos Contratos Públicos",04-09-2018,"12.189,00 €",,,,Não aplicável.,Não aplicável.,FALSE
30023/2018 ARMARIOS RODADOS,Consulta Prévia,Aquisição de bens móveis,"33000000-0, Equipamento médico, medicamentos e produtos para cuidados pessoais","Centro Hospitalar Barreiro Montijo, E. P. E. (509186998)","BIQ - HEALTH SOLUTIONS, LDA (504105337)","5.670,00 €",24-10-2018,23-07-2018,60 dias,"Portugal, Setúbal, Barreiro","Artigo 20.º, n.º 1, alínea c) do Código dos Contratos Públicos",24-09-2018,"5.670,00 €",,,,Não aplicável.,Não aplicável.,FALSE
30026/2018 CARROS DE UNIDOSE E CASSETES,Consulta Prévia,Aquisição de bens móveis,"33000000-0, Equipamento médico, medicamentos e produtos para cuidados pessoais","Centro Hospitalar Barreiro Montijo, E. P. E. (509186998)","PARAMEDICA-EQUIPAMENTOS MED, LDA (501393005)","20.320,00 €",24-10-2018,06-07-2018,60 dias,"Portugal, Setúbal, Barreiro","Artigo 20.º, n.º 1, alínea c) do Código dos Contratos Públicos",06-09-2018,"20.320,00 €",,,,Não aplicável.,Não aplicável.,FALSE
