Objeto do Contrato,Tipo de Procedimento,Tipo(s) de Contrato,CPVs,Entidade(s) Adjudicante(s),Entidade(s) Adjudicatária(s),Preço Contratual,Data de Publicação,Data de Celebração do Contrato,Prazo de Execução,Local de Execução,Fundamentação,Data de Fecho do Contrato,Preço Total Efetivo,Causas das Alterações ao Prazo,Causas das Alterações ao Preço,Estado,N.º registo do Acordo Quadro,Descrição do Acordo Quadro,Procedimento Centralizado
Aquisição de Gas Natural para o CHPL Ano 2015-(UMC-SG),Concurso público,Aquisição de bens móveis,"09123000-7, Gás natural","Centro Hospitalar e Universitário de Coimbra, E. P. E. (510103448), Instituto Nacional de Saúde Dr. Ricardo Jorge, I. P. (501427511), Centro Hospitalar de São João, E. P. E. (509821197), Hospital Santa Maria Maior, E. P. E. (506361381), Administração Regional de Saúde do Norte, I. P. (503135593), Instituto Português de Oncologia de Coimbra Francisco Gentil, E. P. E. (506361438), Centro Hospitalar do Baixo Vouga, E. P. E (CHBV, E. P. E.) (510123210), Centro Hospitalar do Algarve, E. P. E. (510745997), Hospital Garcia de Orta, E. P. E. (506361470), Centro Hospitalar Vila Nova de Gaia - Espinho, E. P. E. (508142156), Instituto de Oftalmologia Dr. Gama Pinto (600000052), Centro Hospitalar Tondela-Viseu, E. P. E. (509822940), Centro Hospitalar Cova da Beira, E. P. E. (506361659), Unidade Local de Saúde do Nordeste, E. P. E (509932584), Administração Regional de Saúde do Centro, I. P. (503122165), Centro Hospitalar de Setúbal, E. P. E. (507606787), Centro Hospitalar Psiquiátrico de Lisboa (508338476), Hospital de José Luciano de Castro (501613021), Hospital Dr. Francisco Zagalo (501510150), Centro Hospitalar Lisboa Norte, E. P. E. (508481287), Serviço de Intervenção nos Comportamentos Aditivos e nas Dependências (600084884), Centro Hospitalar do Médio Ave, E. P. E. (508093937), Unidade Local de Saúde da Guarda, E. P. E. (508752000), Instituto Português de Oncologia de Lisboa Francisco Gentil, E. P. E. (506361616), Centro Hospitalar do Alto Ave, E. P. E. (508080827), Centro Hospitalar do Oeste (510412009), Centro Hospitalar do Tâmega e Sousa, E. P. E. (508318262), Secretaria-Geral do Ministério da Saúde (600080684), Unidade Local de Saúde de Castelo Branco, E. P. E. (509309844), Instituto Português de Oncologia do Porto Francisco Gentil, E. P. E. (506362299), Centro Hospitalar Póvoa de Varzim - Vila do Conde, E. P. E. (508741823), Hospital do Espírito Santo de Évora, E. P. E. (508085888), Centro Hospitalar de Lisboa Ocidental, E. P. E. (507618319), Hospital Distrital de Santarém, E. P. E. (506361462), Centro Hospitalar de Entre o Douro e Vouga, E.P.E. (508878462), Instituto Nacional de Emergência Médica, I. P. (501356126), Centro Hospitalar de Lisboa Central, E. P. E. (508080142), Centro Hospitalar Porto, E. P. E. (508331471), Centro Hospitalar do Médio Tejo, E. P. E. (506361608), SUCH - Serviço de Utilização Comum dos Hospitais (500900469), Administração Regional de Saúde de Lisboa e Vale do Tejo, I. P. (503148776), Centro Hospitalar Barreiro Montijo, E. P. E. (509186998), Hospital de Magalhães Lemos, E. P. E. (502828790), Centro Hospitalar de Trás-os-Montes e Alto Douro, E. P. E. (508100496), Hospital Arcebispo João Crisóstomo (501626123), Unidade Local de Saúde do Alto Minho, E. P. E. (508786193), Centro Hospitalar de Leiria, E. P. E. (509822932), Instituto Português do Sangue e da Transplantação, I. P. (502423943), Direcção-Geral da Saúde (600037100)","EDP Comercial, S.A (503504564)","579.733,88 €",07-03-2016,30-01-2015,365 dias,"Portugal, Lisboa, Lisboa",Artigo 259.º do Código dos Contratos Públicos,31-12-2015,"525.715,02 €",,Valor corresponde ao Faturado (inferior ao estimado),,Não aplicável.,Não aplicável.,TRUE
Aquisição de Sistema de produção de ar comprimido medicinal (Central produtora de ar medicinal),Ajuste Direto Regime Geral,Aquisição de bens móveis,"42100000-0, Máquinas para a produção e utilização de energia mecânica","CENTRO HOSPITALAR DE ENTRE O DOURO E VOUGA, E.P.E. (508878462)","Air Liquide Medicinal, S.A. (501576436)","33.000,00 €",03-03-2016,05-02-2016,30 dias,"Portugal, Aveiro, Santa Maria da Feira","Artigo 20.º, n.º 1, alínea a) do Código dos Contratos Públicos",28-04-2016,"33.000,00 €",,"",,Não aplicável.,Não aplicável.,FALSE
Aquisição de Aparelho de eletroestimulação e biofeedback para reeducação do soalho pélvico para MFR,Ajuste Direto Regime Geral,Aquisição de bens móveis,"33100000-1, Equipamento médico","CENTRO HOSPITALAR DE ENTRE O DOURO E VOUGA, E.P.E. (508878462)","Speculum, Artigos Médicos, SA (502996323)","3.875,95 €",02-03-2016,01-03-2016,30 dias,"Portugal, Aveiro, Santa Maria da Feira","Artigo 20.º, n.º 1, alínea a) do Código dos Contratos Públicos",02-11-2016,"3.875,95 €",,"",,Não aplicável.,Não aplicável.,FALSE
