Objeto do Contrato,Tipo de Procedimento,Tipo(s) de Contrato,CPVs,Entidade(s) Adjudicante(s),Entidade(s) Adjudicatária(s),Preço Contratual,Data de Publicação,Data de Celebração do Contrato,Prazo de Execução,Local de Execução,Fundamentação,Data de Fecho do Contrato,Preço Total Efetivo,Causas das Alterações ao Prazo,Causas das Alterações ao Preço,Estado,N.º registo do Acordo Quadro,Descrição do Acordo Quadro,Procedimento Centralizado
medicamento,Ajuste Direto Regime Geral,Aquisição de bens móveis,"33000000-0, Equipamento médico, medicamentos e produtos para cuidados pessoais","Unidade Local de Saúde do Baixo Alentejo, E. P. E. (508754275)","BGP Products, Unipessoal, Lda (513263268)","57,89 €",21-11-2017,30-05-2017,365 dias,"Portugal, Beja, Beja","Artigo 20.º, n.º 1, alínea a) do Código dos Contratos Públicos",,,,,,Não aplicável.,Não aplicável.,FALSE
medicamento,Ajuste Direto Regime Geral,Aquisição de bens móveis,"33000000-0, Equipamento médico, medicamentos e produtos para cuidados pessoais","Unidade Local de Saúde do Baixo Alentejo, E. P. E. (508754275)","Linde Portugal, Lda (500266344)","700,00 €",21-11-2017,31-05-2017,365 dias,"Portugal, Beja, Beja","Artigo 24.º, n.º 1, alínea e) do Código dos Contratos Públicos",,,,,,Não aplicável.,Não aplicável.,FALSE
medicamento,Ajuste Direto Regime Geral,Aquisição de bens móveis,"33000000-0, Equipamento médico, medicamentos e produtos para cuidados pessoais","Unidade Local de Saúde do Baixo Alentejo, E. P. E. (508754275)",Zambon Produtos Farmacêuticos Lda. (502155930),"112,50 €",21-11-2017,31-05-2017,365 dias,"Portugal, Beja, Beja","Artigo 24.º, n.º 1, alínea e) do Código dos Contratos Públicos",,,,,,Não aplicável.,Não aplicável.,FALSE
medicamento,Ajuste Direto Regime Geral,Aquisição de bens móveis,"33000000-0, Equipamento médico, medicamentos e produtos para cuidados pessoais","Unidade Local de Saúde do Baixo Alentejo, E. P. E. (508754275)","JANSSEN CILAG FARMACEUTICA, LDA. (500189412)","35,80 €",21-11-2017,31-05-2017,365 dias,"Portugal, Beja, Beja","Artigo 24.º, n.º 1, alínea e) do Código dos Contratos Públicos",,,,,,Não aplicável.,Não aplicável.,FALSE
medicamento,Ajuste Direto Regime Geral,Aquisição de bens móveis,"33000000-0, Equipamento médico, medicamentos e produtos para cuidados pessoais","Unidade Local de Saúde do Baixo Alentejo, E. P. E. (508754275)","GARAL, LDA. (500777314)","132,00 €",21-11-2017,06-06-2017,365 dias,"Portugal, Beja, Beja","Artigo 20.º, n.º 1, alínea a) do Código dos Contratos Públicos",,,,,,Não aplicável.,Não aplicável.,FALSE
medicamento,Ajuste Direto Regime Geral,Aquisição de bens móveis,"33000000-0, Equipamento médico, medicamentos e produtos para cuidados pessoais","Unidade Local de Saúde do Baixo Alentejo, E. P. E. (508754275)","SMITH & NEPHEW, LDª (503552461)","456,00 €",21-11-2017,02-06-2017,365 dias,"Portugal, Beja, Beja","Artigo 20.º, n.º 1, alínea a) do Código dos Contratos Públicos",,,,,,Não aplicável.,Não aplicável.,FALSE
medicamentos,Ajuste Direto Regime Geral,Aquisição de bens móveis,"33000000-0, Equipamento médico, medicamentos e produtos para cuidados pessoais","Unidade Local de Saúde do Baixo Alentejo, E. P. E. (508754275)","FRESENIUS MEDICAL CARE PORTUGAL, SA (503070220)","144,00 €",21-11-2017,06-06-2017,365 dias,"Portugal, Beja, Beja","Artigo 24.º, n.º 1, alínea e) do Código dos Contratos Públicos",,,,,,Não aplicável.,Não aplicável.,FALSE
medicamento,Ajuste Direto Regime Geral,Aquisição de bens móveis,"33000000-0, Equipamento médico, medicamentos e produtos para cuidados pessoais","Unidade Local de Saúde do Baixo Alentejo, E. P. E. (508754275)","Proclínica - Equipamentos e Produtos Clínicos, Lda. (500222665)","50,40 €",20-11-2017,07-06-2017,365 dias,"Portugal, Beja, Beja","Artigo 20.º, n.º 1, alínea a) do Código dos Contratos Públicos",,,,,,Não aplicável.,Não aplicável.,FALSE
medicamento,Ajuste Direto Regime Geral,Aquisição de bens móveis,"33000000-0, Equipamento médico, medicamentos e produtos para cuidados pessoais","Unidade Local de Saúde do Baixo Alentejo, E. P. E. (508754275)",Desma Laboratório Farmacêutico S.L. (980300649),"100,00 €",20-11-2017,07-06-2017,365 dias,"Portugal, Beja, Beja","Artigo 24.º, n.º 1, alínea e) do Código dos Contratos Públicos",,,,,,Não aplicável.,Não aplicável.,FALSE
medicamento,Ajuste Direto Regime Geral,Aquisição de bens móveis,"33000000-0, Equipamento médico, medicamentos e produtos para cuidados pessoais","Unidade Local de Saúde do Baixo Alentejo, E. P. E. (508754275)","FRANKLAB PORTUGAL, LDA (506058654)","134,10 €",20-11-2017,08-06-2017,365 dias,"Portugal, Beja, Beja","Artigo 20.º, n.º 1, alínea a) do Código dos Contratos Públicos",,,,,,Não aplicável.,Não aplicável.,FALSE
medicamento,Ajuste Direto Regime Geral,Aquisição de bens móveis,"33000000-0, Equipamento médico, medicamentos e produtos para cuidados pessoais","Unidade Local de Saúde do Baixo Alentejo, E. P. E. (508754275)","BIOGEN IDEC PORTUGAL-SOC.FARM.UNIP., LDA (506415740)","130,60 €",20-11-2017,09-06-2017,365 dias,"Portugal, Beja, Beja","Artigo 24.º, n.º 1, alínea e) do Código dos Contratos Públicos",,,,,,Não aplicável.,Não aplicável.,FALSE
medicamento,Ajuste Direto Regime Geral,Aquisição de bens móveis,"33000000-0, Equipamento médico, medicamentos e produtos para cuidados pessoais","Unidade Local de Saúde do Baixo Alentejo, E. P. E. (508754275)","Roche Farmacêutica Química, Lda. (500233810)","1.688,50 €",20-11-2017,09-06-2017,365 dias,"Portugal, Beja, Beja","Artigo 24.º, n.º 1, alínea e) do Código dos Contratos Públicos",,,,,,Não aplicável.,Não aplicável.,FALSE
medicamento,Ajuste Direto Regime Geral,Aquisição de bens móveis,"33000000-0, Equipamento médico, medicamentos e produtos para cuidados pessoais","Unidade Local de Saúde do Baixo Alentejo, E. P. E. (508754275)","Nutricia Advanced Medical Nutrition Unipessoal, Lda (507558286)","61,20 €",20-11-2017,13-06-2017,365 dias,"Portugal, Beja, Beja","Artigo 20.º, n.º 1, alínea a) do Código dos Contratos Públicos",,,,,,Não aplicável.,Não aplicável.,FALSE
medicamento,Ajuste Direto Regime Geral,Aquisição de bens móveis,"33000000-0, Equipamento médico, medicamentos e produtos para cuidados pessoais","Unidade Local de Saúde do Baixo Alentejo, E. P. E. (508754275)","Roche Farmacêutica Química, Lda. (500233810)","2.701,59 €",20-11-2017,13-06-2017,365 dias,"Portugal, Beja, Beja","Artigo 24.º, n.º 1, alínea e) do Código dos Contratos Públicos",,,,,,Não aplicável.,Não aplicável.,FALSE
medicamento,Ajuste Direto Regime Geral,Aquisição de bens móveis,"33000000-0, Equipamento médico, medicamentos e produtos para cuidados pessoais","Unidade Local de Saúde do Baixo Alentejo, E. P. E. (508754275)",TECNIMEDE -SOCIEDADE TECNICO MEDICINAL SA (500626413),"306,60 €",17-11-2017,13-06-2017,365 dias,"Portugal, Beja, Beja","Artigo 24.º, n.º 1, alínea e) do Código dos Contratos Públicos",,,,,,Não aplicável.,Não aplicável.,FALSE
medicamento,Ajuste Direto Regime Geral,Aquisição de bens móveis,"33000000-0, Equipamento médico, medicamentos e produtos para cuidados pessoais","Unidade Local de Saúde do Baixo Alentejo, E. P. E. (508754275)","MEDTRONIC PORTUGAL, LDA (504223933)","164,16 €",17-11-2017,16-06-2017,365 dias,"Portugal, Beja, Beja","Artigo 24.º, n.º 1, alínea e) do Código dos Contratos Públicos",,,,,,Não aplicável.,Não aplicável.,FALSE
Medicamento,Ajuste Direto Regime Geral,Aquisição de bens móveis,"33000000-0, Equipamento médico, medicamentos e produtos para cuidados pessoais","Unidade Local de Saúde do Baixo Alentejo, E. P. E. (508754275)",DIMORASEPT-Higiene    (510258786),"264,00 €",17-11-2017,20-06-2017,365 dias,"Portugal, Beja, Beja","Artigo 20.º, n.º 1, alínea a) do Código dos Contratos Públicos",,,,,,Não aplicável.,Não aplicável.,FALSE
medicamento,Ajuste Direto Regime Geral,Aquisição de bens móveis,"33000000-0, Equipamento médico, medicamentos e produtos para cuidados pessoais","Unidade Local de Saúde do Baixo Alentejo, E. P. E. (508754275)","JOSE MANUEL GOMES DOS SANTOS, LDA (501399224)","25,48 €",17-11-2017,28-06-2017,365 dias,"Portugal, Beja, Beja","Artigo 20.º, n.º 1, alínea a) do Código dos Contratos Públicos",,,,,,Não aplicável.,Não aplicável.,FALSE
medicamento,Ajuste Direto Regime Geral,Aquisição de bens móveis,"33000000-0, Equipamento médico, medicamentos e produtos para cuidados pessoais","Unidade Local de Saúde do Baixo Alentejo, E. P. E. (508754275)",LUNDBECK PORTUGAL - PROD FARMACEUTICOS UNIPESSOAL (503573922),"128,10 €",17-11-2017,22-06-2017,365 dias,"Portugal, Beja, Beja","Artigo 24.º, n.º 1, alínea e) do Código dos Contratos Públicos",,,,,,Não aplicável.,Não aplicável.,FALSE
medicamento,Ajuste Direto Regime Geral,Aquisição de bens móveis,"33000000-0, Equipamento médico, medicamentos e produtos para cuidados pessoais","Unidade Local de Saúde do Baixo Alentejo, E. P. E. (508754275)","SERVIER PORTUGAL-ESP.FARM.,LDA (502177420)","4.364,46 €",15-11-2017,22-06-2017,365 dias,"Portugal, Beja, Beja","Artigo 26.º, n.º 1, alínea e) do Código dos Contratos Públicos",,,,,,Não aplicável.,Não aplicável.,FALSE
medicamento,Ajuste Direto Regime Geral,Aquisição de bens móveis,"33000000-0, Equipamento médico, medicamentos e produtos para cuidados pessoais","Unidade Local de Saúde do Baixo Alentejo, E. P. E. (508754275)","Astrazeneca - Produtos Farmacêuticos, Lda (502942240)","196,58 €",15-11-2017,22-06-2017,365 dias,"Portugal, Beja, Beja","Artigo 24.º, n.º 1, alínea e) do Código dos Contratos Públicos",,,,,,Não aplicável.,Não aplicável.,FALSE
medicamento,Ajuste Direto Regime Geral,Aquisição de bens móveis,"33000000-0, Equipamento médico, medicamentos e produtos para cuidados pessoais","Unidade Local de Saúde do Baixo Alentejo, E. P. E. (508754275)","GARAL, LDA. (500777314)","121,00 €",15-11-2017,22-06-2017,365 dias,"Portugal, Beja, Beja","Artigo 20.º, n.º 1, alínea a) do Código dos Contratos Públicos",,,,,,Não aplicável.,Não aplicável.,FALSE
medicamento,Ajuste Direto Regime Geral,Aquisição de bens móveis,"33000000-0, Equipamento médico, medicamentos e produtos para cuidados pessoais","Unidade Local de Saúde do Baixo Alentejo, E. P. E. (508754275)","BDRPHARMA, Ldª (513077332)","4.517,50 €",14-11-2017,22-06-2017,365 dias,"Portugal, Beja, Beja","Artigo 20.º, n.º 1, alínea a) do Código dos Contratos Públicos",,,,,,Não aplicável.,Não aplicável.,FALSE
