Objeto do Contrato,Tipo de Procedimento,Tipo(s) de Contrato,CPVs,Entidade(s) Adjudicante(s),Entidade(s) Adjudicatária(s),Preço Contratual,Data de Publicação,Data de Celebração do Contrato,Prazo de Execução,Local de Execução,Fundamentação,Data de Fecho do Contrato,Preço Total Efetivo,Causas das Alterações ao Prazo,Causas das Alterações ao Preço,Estado,N.º registo do Acordo Quadro,Descrição do Acordo Quadro,Procedimento Centralizado
"Prestação serviços Manutenção - ecografos, worstation, TAC EStação AW Mamografo Seno Essential, ESta",Ajuste Direto Regime Geral,Aquisição de serviços,"50421200-4, Serviços de reparação e manutenção de equipamentos de raios X","Hospital Distrital de Santarém, EPE (506361462)","AVENIDA DO FORTE, 6-6A 2º PISO-EDIFICIO RAMAZZOTTI (500357129)","0,00 €",21-10-2016,28-07-2015,365 dias,"Portugal, Santarém, Santarém","Artigo 24.º, n.º 1, alínea e) do Código dos Contratos Públicos",,,,,,Não aplicável.,Não aplicável.,FALSE
PRESTAÇÃO SERVIÇOS ASSISTÊNCIA TÉCNICA EQUIPAMENTO TRATAMENTO AGUA ANO 2016,Ajuste Direto Regime Geral,Aquisição de serviços,"50800000-3, Serviços de reparação e manutenção diversos","Hospital Distrital de Santarém, EPE (506361462)","ENKROT Gestão E Tratamento De Aguas, S.A.. (500103461)","0,00 €",21-10-2016,23-03-2016,365 dias,"Portugal, Santarém, Santarém","Artigo 24.º, n.º 1, alínea e) do Código dos Contratos Públicos",,,,,,Não aplicável.,Não aplicável.,FALSE
PRESTAÇÃO SERVIÇOS VIGILÂNCIA E SEGURANÇA HUMANA 2º SEMESTRE 2016,Ao abrigo de acordo-quadro (art.º 258.º),Aquisição de serviços,"79000000-4, Serviços a empresas: direito, comercialização, consultoria, recrutamento, impressão e segurança","Hospital Distrital de Santarém, E. P. E. (506361462)",Ronsegur (507011724),"105.464,04 €",21-10-2016,23-06-2016,180 dias,"Portugal, Santarém, Santarém",Artigo 258.º do Código dos Contratos Públicos,,,,,,115553,Concurso Público para Formação de Acordo Quadro para prestação de serviços de cedência de trabalhadores em regime de trabalho temporário,FALSE
DIVERSO EQUIPAMENTO HOSPITALAR PARA BLOCO OPERATORIO TEMPORARIO,Concurso público,Aquisição de bens móveis,"33192000-2, Mobiliário para fins médicos","Hospital Distrital de Santarém, E. P. E. (506361462)","Speculum - Artigos Médicos, S.A. (502996323)","177,00 €",12-10-2016,06-10-2016,30 dias,"Portugal, Santarém, Santarém","Artigo 20.º, n.º 1, alínea b) do Código dos Contratos Públicos",,,,,,Não aplicável.,Não aplicável.,FALSE
DIVERSO EQUIPAMENTO HOSPITALAR PARA BLOCO OPERATORIO TEMPORARIO,Concurso público,Aquisição de bens móveis,"33192000-2, Mobiliário para fins médicos","Hospital Distrital de Santarém, E. P. E. (506361462)","Speculum - Artigos Médicos, S.A. (502996323)","1.152,00 €",12-10-2016,06-10-2016,30 dias,"Portugal, Santarém, Santarém","Artigo 20.º, n.º 1, alínea b) do Código dos Contratos Públicos",,,,,,Não aplicável.,Não aplicável.,FALSE
DIVERSO EQUIPAMENTO HOSPITALAR PARA BLOCO OPERATÓRIO TEMPORÁRIO,Concurso público,Aquisição de bens móveis,"33192000-2, Mobiliário para fins médicos","Hospital Distrital de Santarém, E. P. E. (506361462)","Eugenio Pereira, Lda (503989525)","560,00 €",12-10-2016,06-10-2016,30 dias,"Portugal, Santarém, Santarém","Artigo 20.º, n.º 1, alínea b) do Código dos Contratos Públicos",,,,,,Não aplicável.,Não aplicável.,FALSE
DIVERSO EQUIPAMENTO HOSPITALAR PARA BLOCO OPERATÓRIO TEMPORÁRIO,Concurso público,Aquisição de bens móveis,"33192000-2, Mobiliário para fins médicos","Hospital Distrital de Santarém, E. P. E. (506361462)",BACELAR & IRMÃO LDA (500532818),"914,20 €",12-10-2016,06-10-2016,30 dias,"Portugal, Santarém, Santarém","Artigo 20.º, n.º 1, alínea b) do Código dos Contratos Públicos",,,,,,Não aplicável.,Não aplicável.,FALSE
DIVERSO EQUIPAMENTO HOSPITALAR PARA BLOCO OPERATÓRIO TEMPORÁRIO,Concurso público,Aquisição de bens móveis,"33192000-2, Mobiliário para fins médicos","Hospital Distrital de Santarém, E. P. E. (506361462)","PARAMEDICA - Equipamentos Médicos, Lda. (501393005)","850,00 €",12-10-2016,06-10-2016,30 dias,"Portugal, Santarém, Santarém","Artigo 20.º, n.º 1, alínea b) do Código dos Contratos Públicos",,,,,,Não aplicável.,Não aplicável.,FALSE
EQUIPAMENTO HOSPITALAR PARA BLOCO OPERATÓRIO TEMPORÁRIO,Concurso público,Aquisição de bens móveis,"33192000-2, Mobiliário para fins médicos","Hospital Distrital de Santarém, E. P. E. (506361462)","PARAMEDICA - Equipamentos Médicos, Lda. (501393005)","3.600,00 €",12-10-2016,06-10-2016,30 dias,"Portugal, Santarém, Santarém","Artigo 20.º, n.º 1, alínea b) do Código dos Contratos Públicos",,,,,,Não aplicável.,Não aplicável.,FALSE
DIVERSO EQUIPAMENTO HOSPITALAR PARA BLOCO OPERATÓRIO TEMPORÁRIO,Concurso público,Aquisição de bens móveis,"33192000-2, Mobiliário para fins médicos","Hospital Distrital de Santarém, E. P. E. (506361462)","PARAMEDICA - Equipamentos Médicos, Lda. (501393005)","1.900,00 €",12-10-2016,06-10-2016,30 dias,"Portugal, Santarém, Santarém","Artigo 20.º, n.º 1, alínea b) do Código dos Contratos Públicos",,,,,,Não aplicável.,Não aplicável.,FALSE
