Objeto do Contrato,Tipo de Procedimento,Tipo(s) de Contrato,CPVs,Entidade(s) Adjudicante(s),Entidade(s) Adjudicatária(s),Preço Contratual,Data de Publicação,Data de Celebração do Contrato,Prazo de Execução,Local de Execução,Fundamentação,Data de Fecho do Contrato,Preço Total Efetivo,Causas das Alterações ao Prazo,Causas das Alterações ao Preço,Estado,N.º registo do Acordo Quadro,Descrição do Acordo Quadro,Procedimento Centralizado
O presente procedimento tem por objecto o fornecimento de Sistemas fechados e material diverso de recolha de sangue.,Ao abrigo de acordo-quadro (art.º 259.º),Aquisição de bens móveis,"33000000-0, Equipamento médico, medicamentos e produtos para cuidados pessoais","Centro Hospitalar Póvoa de Varzim - Vila do Conde, E. P. E. (508741823)",SARSTEDT-TECNOLOGIA DE LABORATÓRIO LDA (503019461),"33.652,95 €",02-06-2017,10-05-2017,236 dias,"Portugal, Porto, Póvoa de Varzim",Artigo 259.º do Código dos Contratos Públicos,,,,,,1350003,Acordo Quadro para fornecimento de sistemas fechados e material diverso de recolha de sangue às instituições do SNS,FALSE
"Manutenção do datacenter para o CHPVVC, EPE.",Ajuste Direto Regime Geral,Aquisição de serviços,"50000000-5, Serviços de reparação e manutenção","Centro Hospitalar Póvoa de Varzim - Vila do Conde, E. P. E. (508741823)","ATM - SISTEMAS DE INFORMAÇÃO E SERVIÇOS, S.A. (509784267)","8.924,00 €",01-06-2017,05-12-2016,365 dias,"Portugal, Porto, Póvoa de Varzim","Artigo 20.º, n.º 1, alínea a) do Código dos Contratos Públicos",,,,,,Não aplicável.,Não aplicável.,FALSE
"Aquisição de lotes desertos do CP nº 12000816 (Reparação Articular) para o CHPVVC, EPE. ",Ajuste Direto Regime Geral,Aquisição de bens móveis,"33183100-7, Implantes ortopédicos","Centro Hospitalar Póvoa de Varzim - Vila do Conde, E. P. E. (508741823)","BONE CARE, LDA. (505899914)","4.396,00 €",01-06-2017,18-04-2017,236 dias,"Portugal, Porto, Póvoa de Varzim","Artigo 24.º, n.º 1, alínea b) do Código dos Contratos Públicos",,,,,,Não aplicável.,Não aplicável.,FALSE
Aquisição de lotes desertos da reparação articular do Concurso Público nº 12000816.,Ajuste Direto Regime Geral,Aquisição de bens móveis,"33183100-7, Implantes ortopédicos","Centro Hospitalar Póvoa de Varzim - Vila do Conde, E. P. E. (508741823)","Medicinália - Cormédica, Lda (500684324)","29.485,00 €",01-06-2017,10-05-2017,236 dias,"Portugal, Porto, Póvoa de Varzim","Artigo 24.º, n.º 1, alínea b) do Código dos Contratos Públicos",,,,,,Não aplicável.,Não aplicável.,FALSE
