Objeto do Contrato,Tipo de Procedimento,Tipo(s) de Contrato,CPVs,Entidade(s) Adjudicante(s),Entidade(s) Adjudicatária(s),Preço Contratual,Data de Publicação,Data de Celebração do Contrato,Prazo de Execução,Local de Execução,Fundamentação,Data de Fecho do Contrato,Preço Total Efetivo,Causas das Alterações ao Prazo,Causas das Alterações ao Preço,Estado,N.º registo do Acordo Quadro,Descrição do Acordo Quadro,Procedimento Centralizado
Sacos e Placas de Ostomia,Ao abrigo de acordo-quadro (art.º 259.º),Aquisição de bens móveis,"33140000-3, Material médico de consumo","Centro Hospitalar do Algarve, E. P. E. (510745997)","B. BRAUN MEDICAL,LDA. (501506543)","529,80 €",10-08-2015,04-08-2015,144 dias,"Portugal, Faro, Faro<BR/>Portugal, Faro, Lagos<BR/>Portugal, Faro, Portimão",Artigo 259.º do Código dos Contratos Públicos,"","",,"",,419168,CONCURSO PÚBLICO PARA A CELEBRAÇÃO DE CONTRATOS PÚBLICOS DE APROVISIONAMENTO PARA AQUISIÇÃO DE MATERIAL OSTOMIA DE ELIMINAÇÃO,FALSE
Proc. 78/2556/15-Fornecitº 10 Caixas de Cabo UTP + Esteira Metálica,Ajuste Direto Regime Geral,Aquisição de serviços,"51610000-1, Serviços de instalação de computadores e equipamento para processamento da informação","Centro Hospitalar do Algarve, E. P. E. (510745997)","V M R-Redes Informaticas,Lda (505402920)","793,00 €",06-08-2015,10-07-2015,6 dias,"Portugal, Faro, Faro","Artigo 20.º, n.º 1, alínea a) do Código dos Contratos Públicos","","",,"",,Não aplicável.,Não aplicável.,FALSE
Proc. 78/2556/15-Fornecitº 10 Caixas de Cabo UTP + Esteira Metálica,Ajuste Direto Regime Geral,Aquisição de serviços,"51610000-1, Serviços de instalação de computadores e equipamento para processamento da informação","Centro Hospitalar do Algarve, E. P. E. (510745997)","Acciona,SA (503431397)","1.118,49 €",06-08-2015,10-07-2015,6 dias,"Portugal, Faro, Faro","Artigo 20.º, n.º 1, alínea a) do Código dos Contratos Públicos","","",,"",,Não aplicável.,Não aplicável.,FALSE
72/2818/2015 - Aquisição de Material de Pneumologia,Ajuste Direto Regime Geral,Aquisição de bens móveis,"33140000-3, Material médico de consumo","Centro Hospitalar do Algarve, E. P. E. (510745997)","OLYMPUS IBERIA, s.a.u. (980474710)","6.960,00 €",06-08-2015,05-08-2015,179 dias,"Portugal, Faro, Lagos<BR/>Portugal, Faro, Portimão<BR/>Portugal, Faro, Faro","Artigo 20.º, n.º 1, alínea a) do Código dos Contratos Públicos","","",,"",,Não aplicável.,Não aplicável.,FALSE
Aquisição de campos operatórios e outro material consumo clínico,Ajuste Direto Regime Geral,Aquisição de bens móveis,"33140000-3, Material médico de consumo","Centro Hospitalar do Algarve, E. P. E. (510745997)","Medline international Portugal, Unipessoal, Lda. (510533515)","864,00 €",06-08-2015,31-07-2015,154 dias,"Portugal, Faro, Faro<BR/>Portugal, Faro, Lagos<BR/>Portugal, Faro, Portimão","Artigo 20.º, n.º 1, alínea a) do Código dos Contratos Públicos","","",,"",,Não aplicável.,Não aplicável.,FALSE
Cat Equip Informatico Imagiologia ( 68/217/15),Ajuste Direto Regime Geral,Aquisição de serviços,"72590000-7, Serviços de informática prestados por profissionais","Centro Hospitalar do Algarve, E. P. E. (510745997)",Siemens (500247480),"72.000,00 €",05-08-2015,03-07-2015,240 dias,"Portugal, Faro, Faro<BR/>Portugal, Faro, Portimão<BR/>Portugal, Faro, Lagos","Artigo 24.º, n.º 1, alínea e) do Código dos Contratos Públicos","","",,"",,Não aplicável.,Não aplicável.,FALSE
Ressonância ( 67/1771/15),Ajuste Direto Regime Geral,Aquisição de bens móveis,"33113000-5, Equipamento de imagiologia por ressonância magnética","Centro Hospitalar do Algarve, E. P. E. (510745997)",GS 24 (507824652),"198.000,00 €",05-08-2015,29-06-2015,90 dias,"Portugal, Faro, Faro","Artigo 24.º, n.º 1, alínea e) do Código dos Contratos Públicos",04-09-2015,"198.000,00 €",,"",,Não aplicável.,Não aplicável.,FALSE
Proc. 78/2602/15- IICurso ORL p/ Medicos de Medicina Geral e Familiar-Jantar e ofertas para Palestrantes,Ajuste Direto Regime Geral,Aquisição de serviços,"55900000-9, Serviços de comércio a retalho","Centro Hospitalar do Algarve, E. P. E. (510745997)",Ourivesaria-Relojoaria N. Santos (153409215),"185,37 €",05-08-2015,17-07-2015,5 dias,"Portugal, Faro, Faro","Artigo 20.º, n.º 1, alínea a) do Código dos Contratos Públicos","","",,"",,Não aplicável.,Não aplicável.,FALSE
Proc. 78/2602/15- IICurso ORL p/ Medicos de Medicina Geral e Familiar-Jantar e ofertas para Palestrantes,Ajuste Direto Regime Geral,Aquisição de serviços,"55311000-3, Serviços de restauração tradicional de clientela restrita","Centro Hospitalar do Algarve, E. P. E. (510745997)","Eurogostos,Lda (508607760)","833,33 €",05-08-2015,17-07-2015,5 dias,"Portugal, Faro, Faro","Artigo 20.º, n.º 1, alínea a) do Código dos Contratos Públicos","","",,"",,Não aplicável.,Não aplicável.,FALSE
Cat equip informatico ( 68/276/15),Ajuste Direto Regime Geral,Aquisição de serviços,"72600000-6, Serviços de consultoria e assistência informáticas","Centro Hospitalar do Algarve, E. P. E. (510745997)",B Simple (506188841),"6.666,65 €",05-08-2015,31-07-2015,180 dias,"Portugal, Faro, Portimão<BR/>Portugal, Faro, Faro","Artigo 24.º, n.º 1, alínea e) do Código dos Contratos Públicos","","",,"",,Não aplicável.,Não aplicável.,FALSE
Cat Equip Informatico - Glintt ( 68/274/15 ),Ajuste Direto Regime Geral,Aquisição de serviços,"72590000-7, Serviços de informática prestados por profissionais","Centro Hospitalar do Algarve, E. P. E. (510745997)",Glintt  (502479418),"1.800,00 €",05-08-2015,28-07-2015,365 dias,"Portugal, Faro, Portimão<BR/>Portugal, Faro, Lagos<BR/>Portugal, Faro, Faro","Artigo 24.º, n.º 1, alínea e) do Código dos Contratos Públicos",31-12-2015,"",,Prestação de serviços não foi efetuada em 2015,,Não aplicável.,Não aplicável.,FALSE
Proc.68/2590/15- Registo de Prestadores - Contribuição Regulatoria,Ajuste Direto Regime Geral,Aquisição de serviços,"75111100-8, Serviços executivos","Centro Hospitalar do Algarve, E. P. E. (510745997)",Entidade Reguladora da Saude (507021266),"25.000,00 €",05-08-2015,17-07-2015,30 dias,"Portugal, Faro, Faro","Artigo 24.º, n.º 1, alínea e) do Código dos Contratos Públicos","","",,"",,Não aplicável.,Não aplicável.,FALSE
Proc. 68/2391/15-Serviço de Ressonancias Magneticas-Outubro a Dezembro/2014.,Ajuste Direto Regime Geral,Aquisição de serviços,"85150000-5, Serviços de imagiologia médica","Centro Hospitalar do Algarve, E. P. E. (510745997)","GS 24- Healthcare Solutions,SA (507824652)","55.303,02 €",05-08-2015,30-06-2015,92 dias,"Portugal, Faro, Faro","Artigo 24.º, n.º 1, alínea e) do Código dos Contratos Públicos","","",,"",,Não aplicável.,Não aplicável.,FALSE
Proc.68/2387/15- Serviço Ressonancias Magneticas-Janeiro a Junho/2015,Ajuste Direto Regime Geral,Aquisição de serviços,"85150000-5, Serviços de imagiologia médica","Centro Hospitalar do Algarve, E. P. E. (510745997)","GS 24-Healthcare Solutions,SA (507824652)","102.887,28 €",05-08-2015,30-06-2015,181 dias,"Portugal, Faro, Faro","Artigo 24.º, n.º 1, alínea e) do Código dos Contratos Públicos","","",,"",,Não aplicável.,Não aplicável.,FALSE
Aquisição de Material de Consumo Clínico Diverso,Ajuste Direto Regime Geral,Aquisição de bens móveis,"33140000-3, Material médico de consumo","Centro Hospitalar do Algarve, E. P. E. (510745997)","PLASTIMEDE,LDA. (501899820)","738,00 €",05-08-2015,30-07-2015,155 dias,"Portugal, Faro, Faro<BR/>Portugal, Faro, Portimão<BR/>Portugal, Faro, Lagos","Artigo 20.º, n.º 1, alínea a) do Código dos Contratos Públicos","","",,"",,Não aplicável.,Não aplicável.,FALSE
Aquisição de Material de Consumo Clínico Diverso,Ajuste Direto Regime Geral,Aquisição de bens móveis,"33140000-3, Material médico de consumo","Centro Hospitalar do Algarve, E. P. E. (510745997)","MOLNLYCKE HEALTH CARE, LDA. (511101066)","99,00 €",05-08-2015,30-07-2015,155 dias,"Portugal, Faro, Lagos<BR/>Portugal, Faro, Faro<BR/>Portugal, Faro, Portimão","Artigo 20.º, n.º 1, alínea a) do Código dos Contratos Públicos","","",,"",,Não aplicável.,Não aplicável.,FALSE
Aquisição de Material de Consumo Clínico Diverso,Ajuste Direto Regime Geral,Aquisição de bens móveis,"33140000-3, Material médico de consumo","Centro Hospitalar do Algarve, E. P. E. (510745997)","B. BRAUN MEDICAL,LDA. (501506543)","642,16 €",05-08-2015,30-07-2015,155 dias,"Portugal, Faro, Faro<BR/>Portugal, Faro, Lagos<BR/>Portugal, Faro, Portimão","Artigo 20.º, n.º 1, alínea a) do Código dos Contratos Públicos","","",,"",,Não aplicável.,Não aplicável.,FALSE
Aquisição de Capsula Endoscópica c/mini camera,Ajuste Direto Regime Geral,Aquisição de bens móveis,"33140000-3, Material médico de consumo","Centro Hospitalar do Algarve, E. P. E. (510745997)","COVIDIEN PORTUGAL - PRODUTOS  DE SAUDE, UNIPESSOAL, LDA. (503413410)","13.740,00 €",04-08-2015,27-07-2015,157 dias,"Portugal, Faro, Lagos<BR/>Portugal, Faro, Faro<BR/>Portugal, Faro, Portimão","Artigo 20.º, n.º 1, alínea a) do Código dos Contratos Públicos","","",,"",,Não aplicável.,Não aplicável.,FALSE
72000026392015 - Aquisição de Material de Consumo Clínico Diverso,Ajuste Direto Regime Geral,Aquisição de bens móveis,"33140000-3, Material médico de consumo","Centro Hospitalar do Algarve, E. P. E. (510745997)","FRESENIUS MEDICAL CARE, S.A.. (503070220)","6.240,00 €",04-08-2015,27-07-2015,157 dias,"Portugal, Faro, Lagos<BR/>Portugal, Faro, Portimão<BR/>Portugal, Faro, Faro","Artigo 20.º, n.º 1, alínea a) do Código dos Contratos Públicos","","",,"",,Não aplicável.,Não aplicável.,FALSE
72/2794/2015 - Aquisição de Material p/ preparação de citostáticos,Ajuste Direto Regime Geral,Aquisição de bens móveis,"33140000-3, Material médico de consumo","Centro Hospitalar do Algarve, E. P. E. (510745997)","SMITHS MEDICAL(PORTUGAL),LDA. (507445937)","507,60 €",04-08-2015,03-08-2015,151 dias,"Portugal, Faro, Lagos<BR/>Portugal, Faro, Faro<BR/>Portugal, Faro, Portimão","Artigo 20.º, n.º 1, alínea a) do Código dos Contratos Públicos","","",,"",,Não aplicável.,Não aplicável.,FALSE
72/2794/2015 - Aquisição de Material p/ preparação de citostáticos,Ajuste Direto Regime Geral,Aquisição de bens móveis,"33140000-3, Material médico de consumo","Centro Hospitalar do Algarve, E. P. E. (510745997)",PMH-PROD.MEDICO-HOSPITALARES (502376899),"864,00 €",04-08-2015,03-08-2015,151 dias,"Portugal, Faro, Portimão<BR/>Portugal, Faro, Faro<BR/>Portugal, Faro, Lagos","Artigo 20.º, n.º 1, alínea a) do Código dos Contratos Públicos","","",,"",,Não aplicável.,Não aplicável.,FALSE
72/2794/2015 - Aquisição de Material p/ preparação de citostáticos,Ajuste Direto Regime Geral,Aquisição de bens móveis,"33140000-3, Material médico de consumo","Centro Hospitalar do Algarve, E. P. E. (510745997)","Medline international Portugal, Unipessoal, Lda. (510533515)","64,00 €",04-08-2015,03-08-2015,151 dias,"Portugal, Faro, Portimão<BR/>Portugal, Faro, Lagos<BR/>Portugal, Faro, Faro","Artigo 20.º, n.º 1, alínea a) do Código dos Contratos Públicos","","",,"",,Não aplicável.,Não aplicável.,FALSE
72/2794/2015 - Aquisição de Material p/ preparação de citostáticos,Ajuste Direto Regime Geral,Aquisição de bens móveis,"33140000-3, Material médico de consumo","Centro Hospitalar do Algarve, E. P. E. (510745997)","B. BRAUN MEDICAL,LDA. (501506543)","2.100,00 €",04-08-2015,03-08-2015,151 dias,"Portugal, Faro, Portimão<BR/>Portugal, Faro, Lagos<BR/>Portugal, Faro, Faro","Artigo 20.º, n.º 1, alínea a) do Código dos Contratos Públicos","","",,"",,Não aplicável.,Não aplicável.,FALSE
72/2794/2015 - Aquisição de Material p/ preparação de citostáticos,Ajuste Direto Regime Geral,Aquisição de bens móveis,"33140000-3, Material médico de consumo","Centro Hospitalar do Algarve, E. P. E. (510745997)","MEDICINALIA - CORMEDICA,LDA. (500684324)","1.526,00 €",04-08-2015,03-08-2015,151 dias,"Portugal, Faro, Faro<BR/>Portugal, Faro, Lagos<BR/>Portugal, Faro, Portimão","Artigo 20.º, n.º 1, alínea a) do Código dos Contratos Públicos","","",,"",,Não aplicável.,Não aplicável.,FALSE
72/2794/2015 - Aquisição de Material p/ preparação de citostáticos,Ajuste Direto Regime Geral,Aquisição de bens móveis,"33140000-3, Material médico de consumo","Centro Hospitalar do Algarve, E. P. E. (510745997)","CODAN II -VENDA E DIST. INSTRUMENTOS MÉDICOS E ACESSÓRIOS,S.A. (504923471)","1.980,00 €",04-08-2015,03-08-2015,151 dias,"Portugal, Faro, Lagos<BR/>Portugal, Faro, Portimão<BR/>Portugal, Faro, Faro","Artigo 20.º, n.º 1, alínea a) do Código dos Contratos Públicos","","",,"",,Não aplicável.,Não aplicável.,FALSE
72/2733/2015 - Aquisição de Trouxas,Ajuste Direto Regime Geral,Aquisição de bens móveis,"33140000-3, Material médico de consumo","Centro Hospitalar do Algarve, E. P. E. (510745997)",ANASTACIO SALDANHA UNIPESSOAL (505804441),"3.079,44 €",04-08-2015,28-07-2015,157 dias,"Portugal, Faro, Portimão<BR/>Portugal, Faro, Lagos<BR/>Portugal, Faro, Faro","Artigo 20.º, n.º 1, alínea a) do Código dos Contratos Públicos","","",,"",,Não aplicável.,Não aplicável.,FALSE
72/2733/2015 - Aquisição de Trouxas,Ajuste Direto Regime Geral,Aquisição de bens móveis,"33140000-3, Material médico de consumo","Centro Hospitalar do Algarve, E. P. E. (510745997)","VYGON (PORTUGAL),LDA. (503232785)","442,08 €",04-08-2015,28-07-2015,157 dias,"Portugal, Faro, Lagos<BR/>Portugal, Faro, Faro<BR/>Portugal, Faro, Portimão","Artigo 20.º, n.º 1, alínea a) do Código dos Contratos Públicos","","",,"",,Não aplicável.,Não aplicável.,FALSE
72/2733/2015 - Aquisição de Trouxas,Ajuste Direto Regime Geral,Aquisição de bens móveis,"33140000-3, Material médico de consumo","Centro Hospitalar do Algarve, E. P. E. (510745997)","MOLNLYCKE HEALTH CARE, LDA. (511101066)","5.752,00 €",04-08-2015,28-07-2015,157 dias,"Portugal, Faro, Faro<BR/>Portugal, Faro, Lagos<BR/>Portugal, Faro, Portimão","Artigo 20.º, n.º 1, alínea a) do Código dos Contratos Públicos","","",,"",,Não aplicável.,Não aplicável.,FALSE
72/2733/2015 - Aquisição de Trouxas,Ajuste Direto Regime Geral,Aquisição de bens móveis,"33140000-3, Material médico de consumo","Centro Hospitalar do Algarve, E. P. E. (510745997)","3M Portugal, Lda. (500193940)","112,00 €",04-08-2015,28-07-2015,157 dias,"Portugal, Faro, Portimão<BR/>Portugal, Faro, Lagos<BR/>Portugal, Faro, Faro","Artigo 20.º, n.º 1, alínea a) do Código dos Contratos Públicos","","",,"",,Não aplicável.,Não aplicável.,FALSE
72/2733/2015 - Aquisição de Trouxas,Ajuste Direto Regime Geral,Aquisição de bens móveis,"33140000-3, Material médico de consumo","Centro Hospitalar do Algarve, E. P. E. (510745997)","Medline international Portugal, Unipessoal, Lda. (510533515)","737,00 €",04-08-2015,28-07-2015,157 dias,"Portugal, Faro, Lagos<BR/>Portugal, Faro, Portimão<BR/>Portugal, Faro, Faro","Artigo 20.º, n.º 1, alínea a) do Código dos Contratos Públicos","","",,"",,Não aplicável.,Não aplicável.,FALSE
72/2733/2015 - Aquisição de Trouxas,Ajuste Direto Regime Geral,Aquisição de bens móveis,"33140000-3, Material médico de consumo","Centro Hospitalar do Algarve, E. P. E. (510745997)","LINEAMEDICA,S.A. (505148676)","2.481,60 €",04-08-2015,28-07-2015,157 dias,"Portugal, Faro, Lagos<BR/>Portugal, Faro, Faro<BR/>Portugal, Faro, Portimão","Artigo 20.º, n.º 1, alínea a) do Código dos Contratos Públicos","","",,"",,Não aplicável.,Não aplicável.,FALSE
72/2733/2015 - Aquisição de Trouxas,Ajuste Direto Regime Geral,Aquisição de bens móveis,"33140000-3, Material médico de consumo","Centro Hospitalar do Algarve, E. P. E. (510745997)","BASTOS VIEGAS,SA (500042772)","3.985,20 €",04-08-2015,28-07-2015,157 dias,"Portugal, Faro, Lagos<BR/>Portugal, Faro, Faro<BR/>Portugal, Faro, Portimão","Artigo 20.º, n.º 1, alínea a) do Código dos Contratos Públicos","","",,"",,Não aplicável.,Não aplicável.,FALSE
"Aquisição de Serviços para Pintura do Edifício da Unidade de Faro do Chalgalve,EPE",Concurso público,Aquisição de serviços,"50000000-5, Serviços de reparação e manutenção","Centro Hospitalar do Algarve, E. P. E. (510745997)","ROLEAR IV-CONSTRUCOES, LDA (504772406)","71.572,62 €",03-08-2015,08-07-2015,176 dias,"Portugal, Faro, Faro","Artigo 20.º, n.º 1, alínea b) do Código dos Contratos Públicos","","",,"",,Não aplicável.,Não aplicável.,FALSE
"Serviços médicos de urgência geral e básica, cuidados intensivos e Interm e Sala de Rean, Dec clinica, Dep Emer",Ajuste Direto Regime Geral,Aquisição de serviços,"85121100-4, Serviços de médicos de clínica geral","Centro Hospitalar do Algarve, E. P. E. (510745997)",Atlantic Melody - Lda (513353704),"39.000,00 €",31-07-2015,21-07-2015,180 dias,"Portugal, Faro, Lagos<BR/>Portugal, Faro, Portimão","Artigo 24.º, n.º 1, alínea c) do Código dos Contratos Públicos",31-12-2015,"25.431,25 €",,"O valor inicial do Contrato teve por base as necessidades estimadas para o período de 1 Julho de 2015 a 31 Dezembro de 2015, o valor final reflecte as necessidades efectivas.",,Não aplicável.,Não aplicável.,FALSE
"Serviços médicos de urgência geral e básica, cuidados intensivos e Interm e Sala de Rean, Dec clinica, Dep Emer",Ajuste Direto Regime Geral,Aquisição de serviços,"85121100-4, Serviços de médicos de clínica geral","Centro Hospitalar do Algarve, E. P. E. (510745997)","Harmonia Permanente, Lda (510291325)","55.900,00 €",31-07-2015,20-07-2015,180 dias,"Portugal, Faro, Vila Real Sto Antonio<BR/>Portugal, Faro, Lagos<BR/>Portugal, Faro, Albufeira<BR/>Portugal, Faro, Loulé<BR/>Portugal, Faro, Faro<BR/>Portugal, Faro, Portimão","Artigo 24.º, n.º 1, alínea c) do Código dos Contratos Públicos",31-12-2015,"46.200,00 €",,"O valor inicial do Contrato teve por base as necessidades estimadas para o período de 1 Julho de 2015 a 31 Dezembro de 2015, o valor final reflecte as necessidades efectivas.",,Não aplicável.,Não aplicável.,FALSE
"Serviços médicos de urgência geral , Pediátrica e Básic, Vmer",Ajuste Direto Regime Geral,Aquisição de serviços,"85121100-4, Serviços de médicos de clínica geral","Centro Hospitalar do Algarve, E. P. E. (510745997)","Juramento Ético, Serviços Médicos Unip, Lda (509630561)","39.000,00 €",31-07-2015,21-07-2015,180 dias,"Portugal, Faro, Faro<BR/>Portugal, Faro, Albufeira<BR/>Portugal, Faro, Portimão<BR/>Portugal, Faro, Lagos","Artigo 24.º, n.º 1, alínea c) do Código dos Contratos Públicos",31-12-2015,"25.025,00 €",,"O valor inicial do Contrato teve por base as necessidades estimadas para o período de 1 Julho de 2015 a 31 Dezembro de 2015, o valor final reflecte as necessidades efectivas.",,Não aplicável.,Não aplicável.,FALSE
"41/866/2015 Medicamentos Lercanidipina 10 mg, 20 mg e Nebovolol",Ao abrigo de acordo-quadro (art.º 259.º),Aquisição de bens móveis,"33690000-3, Medicamentos vários","Centro Hospitalar do Algarve, E. P. E. (510745997)","LABESFAL, Laboratório AlmiroS.A. (501169580)","30,74 €",31-07-2015,24-02-2015,310 dias,"Portugal, Faro, Faro",Artigo 259.º do Código dos Contratos Públicos,"","",,"",,1179915,"CONCURSO PÚBLICO PARA A CELEBRAÇÃO DE CONTRATOS PÚBLICOS DE APROVISIONAMENTO PARA A ÁREA DA SAÚDE, COM VISTA AO FORNECIMENTO DE MEDICAMENTOS DO APARELHO CARDIOVASCULAR, ÀS INSTITUIÇÕES E SERVIÇOS DO SERVIÇO NACIONAL DE SAÚDE",FALSE
41/538/2015 Injectáveis de grande Volume,Ao abrigo de acordo-quadro (art.º 259.º),Aquisição de bens móveis,"33690000-3, Medicamentos vários","Centro Hospitalar do Algarve, E. P. E. (510745997)","OVERPHARMA,LDA. (505792362), KORANGI-PROD.FARMAC.S.A. (505322307), B. BRAUN MEDICAL,LDA. (501506543)","49.078,00 €",31-07-2015,20-02-2015,314 dias,"Portugal, Faro, Faro",Artigo 259.º do Código dos Contratos Públicos,"","",,"",,1331181,Acordo Quadro para fornecimento de corretivos da volémia e outras soluções estéreis às Instituições e Serviços do Serviço Nacional de Saúde,FALSE
"41/536/2015 Insulinas Humanas, Isofanica",Ao abrigo de acordo-quadro (art.º 259.º),Aquisição de bens móveis,"33690000-3, Medicamentos vários","Centro Hospitalar do Algarve, E. P. E. (510745997)","LILLY PORTUGAL-PROD.FARMAC.LDA (500165602), SANOFI - PRODUTOS FARMACÊUTICOS, LDA. (500134960)","593,20 €",31-07-2015,27-04-2015,248 dias,"Portugal, Faro, Faro",Artigo 259.º do Código dos Contratos Públicos,"","",,"",,603979,"CONCURSO PÚBLICO PARA A CELEBRAÇÃO DE CONTRATOS PÚBLICOS DE APROVISIONAMENTO PARA A ÁREA DA SAÚDE, COM VISTA AO FORNECIMENTO DE HORMONAS E OUTROS MEDICAMENTOS USADOS NO TRATAMENTO DAS DOENÇAS ENDÓCRINAS, ÀS INSTITUIÇÕES E SERVIÇOS DO SERVIÇO NACIONAL DE SAÚDE",FALSE
61/1839/2015 - Gases Medicinais 2º Trimestre - PTM,Ajuste Direto Regime Geral,Aquisição de bens móveis,"33690000-3, Medicamentos vários","Centro Hospitalar do Algarve, E. P. E. (510745997)","Linde Portugal, lda. (500266344)","94.425,75 €",31-07-2015,29-04-2015,92 dias,"Portugal, Faro, Faro","Artigo 24.º, n.º 1, alínea e) do Código dos Contratos Públicos","","",,"",,Não aplicável.,Não aplicável.,FALSE
61/1838/2015 - Gases Medicinais 2º Trimestre,Ajuste Direto Regime Geral,Aquisição de bens móveis,"33690000-3, Medicamentos vários","Centro Hospitalar do Algarve, E. P. E. (510745997)",Air Liquide SA (501576436),"156.744,00 €",31-07-2015,24-04-2015,92 dias,"Portugal, Faro, Faro","Artigo 24.º, n.º 1, alínea e) do Código dos Contratos Públicos","","",,"",,Não aplicável.,Não aplicável.,FALSE
61/530/2015 - Gases Medicinais 1º Trimestre PTM,Ajuste Direto Regime Geral,Aquisição de bens móveis,"33690000-3, Medicamentos vários","Centro Hospitalar do Algarve, E. P. E. (510745997)",Linde Portugal Lda (500266344),"46.430,10 €",31-07-2015,29-01-2015,89 dias,"Portugal, Faro, Faro","Artigo 24.º, n.º 1, alínea e) do Código dos Contratos Públicos","","",,"",,Não aplicável.,Não aplicável.,FALSE
61/529/2015 - Gases Medicinais - 1º Trimestre A,Ajuste Direto Regime Geral,Aquisição de bens móveis,"33690000-3, Medicamentos vários","Centro Hospitalar do Algarve, E. P. E. (510745997)","Air Liquide Medicinal, SA (501576436)","195.667,44 €",31-07-2015,27-01-2015,89 dias,"Portugal, Faro, Faro","Artigo 24.º, n.º 1, alínea e) do Código dos Contratos Públicos","","",,"",,Não aplicável.,Não aplicável.,FALSE
41/525/2015 Parafinas Compostas,Ao abrigo de acordo-quadro (art.º 259.º),Aquisição de bens móveis,"33690000-3, Medicamentos vários","Centro Hospitalar do Algarve, E. P. E. (510745997)","LABORATÓRIO MEDINFAR - PRODUTOS FARMACÊUTICOS, SA (500384045), Clínifar - Produtos Clínicos e Farmacêuticos, S.A. (503281115)","6.833,40 €",31-07-2015,23-02-2015,306 dias,"Portugal, Faro, Faro",Artigo 259.º do Código dos Contratos Públicos,"","",,"",,549298,"Concurso Público para a celebração de Contratos Publicos de Aprovisionamento para a área da saúde com vista ao fornecimento de Antisepticos, Desinfetantes e Outros, às Instituições e Serviços do Serviço Nacional de Saúde.",FALSE
"72/2709/2015 - Aquisição de Parafusos Corticais,Schanz e Acetabulares",Ajuste Direto Regime Geral,Aquisição de bens móveis,"33140000-3, Material médico de consumo","Centro Hospitalar do Algarve, E. P. E. (510745997)",JOHNSON & JOHNSON PROD.PROF. (500153370),"5.631,00 €",31-07-2015,29-07-2015,154 dias,"Portugal, Faro, Lagos<BR/>Portugal, Faro, Portimão<BR/>Portugal, Faro, Faro","Artigo 20.º, n.º 1, alínea a) do Código dos Contratos Públicos","","",,"",,Não aplicável.,Não aplicável.,FALSE
