Objeto do Contrato,Tipo de Procedimento,Tipo(s) de Contrato,CPVs,Entidade(s) Adjudicante(s),Entidade(s) Adjudicatária(s),Preço Contratual,Data de Publicação,Data de Celebração do Contrato,Prazo de Execução,Local de Execução,Fundamentação,Data de Fecho do Contrato,Preço Total Efetivo,Causas das Alterações ao Prazo,Causas das Alterações ao Preço,Estado,N.º registo do Acordo Quadro,Descrição do Acordo Quadro,Procedimento Centralizado
4EXC0011/2013 - Kits hemofiltração e sacos de efluente,Ajuste Direto Regime Geral,Aquisição de bens móveis,"33000000-0, Equipamento médico, medicamentos e produtos para cuidados pessoais","Centro Hospitalar Barreiro Montijo, E. P. E. (509186998)",Gambro Lundia (980367751),"22.332,00 €",09-05-2013,04-03-2013,360 dias,"Portugal, Setúbal, Barreiro","Artigo 24.º, n.º 1, alínea e) do Código dos Contratos Públicos",31-12-2013,"25.602,00 €",,Aumento de consumo,,Não aplicável.,Não aplicável.,
4EXC0012/2013 - Sacos aspiração de fluidos,Ajuste Direto Regime Geral,Aquisição de bens móveis,"33000000-0, Equipamento médico, medicamentos e produtos para cuidados pessoais","Centro Hospitalar Barreiro Montijo, E. P. E. (509186998)",Medicinalia-Cormedica (500684324),"18.530,00 €",09-05-2013,06-02-2013,360 dias,"Portugal, Setúbal, Barreiro","Artigo 24.º, n.º 1, alínea e) do Código dos Contratos Públicos",31-12-2013,"14.307,50 €",,Redução de consumo,,Não aplicável.,Não aplicável.,
4EXC0013 - Filtros e bocais p provas funcionais,Ajuste Direto Regime Geral,Aquisição de bens móveis,"33000000-0, Equipamento médico, medicamentos e produtos para cuidados pessoais","Centro Hospitalar Barreiro Montijo, E. P. E. (509186998)",Pulmocor (501402578),"1.724,00 €",09-05-2013,29-01-2013,360 dias,"Portugal, Setúbal, Barreiro","Artigo 24.º, n.º 1, alínea e) do Código dos Contratos Públicos",31-12-2013,"1.976,00 €",,Aumento de consumo,,Não aplicável.,Não aplicável.,
4EXC0014/2013 - Pulseiras e identificadores electronico p bebes e crianças,Ajuste Direto Regime Geral,Aquisição de bens móveis,"33000000-0, Equipamento médico, medicamentos e produtos para cuidados pessoais","Centro Hospitalar Barreiro Montijo, E. P. E. (509186998)",Safesis (506240711),"20.664,20 €",09-05-2013,05-03-2013,360 dias,"Portugal, Setúbal, Barreiro","Artigo 24.º, n.º 1, alínea e) do Código dos Contratos Públicos",31-12-2013,"20.751,99 €",,AUMNTO D AUANTIDADES,,Não aplicável.,Não aplicável.,
4EXC0021/2013 - Reservatorio p maquina de penso,Ajuste Direto Regime Geral,Aquisição de bens móveis,"33000000-0, Equipamento médico, medicamentos e produtos para cuidados pessoais","Centro Hospitalar Barreiro Montijo, E. P. E. (509186998)",Expomedica (501886621),"9.100,00 €",09-05-2013,10-04-2013,360 dias,"Portugal, Setúbal, Barreiro","Artigo 24.º, n.º 1, alínea e) do Código dos Contratos Públicos",31-12-2013,"9.100,00 €",,"",,Não aplicável.,Não aplicável.,
4EXC0007/2013 - Sistemas de soros p bomba infusora Codan,Ajuste Direto Regime Geral,Aquisição de bens móveis,"33000000-0, Equipamento médico, medicamentos e produtos para cuidados pessoais","Centro Hospitalar Barreiro Montijo, E. P. E. (509186998)",Codan 11 (504923471),"8.000,00 €",08-05-2013,31-01-2013,360 dias,"Portugal, Setúbal, Barreiro","Artigo 24.º, n.º 1, alínea e) do Código dos Contratos Públicos",31-12-2013,"1.440,00 €",,Redução de consumo,,Não aplicável.,Não aplicável.,
4EXC0006/2013 - Sistemas soros p bombas infusoras B. Braun,Ajuste Direto Regime Geral,Aquisição de bens móveis,"33000000-0, Equipamento médico, medicamentos e produtos para cuidados pessoais","Centro Hospitalar Barreiro Montijo, E. P. E. (509186998)",B. Braun Medical (501506543),"19.000,00 €",08-05-2013,04-03-2013,360 dias,"Portugal, Setúbal, Barreiro","Artigo 24.º, n.º 1, alínea e) do Código dos Contratos Públicos",31-12-2013,"17.290,00 €",,Redução de consumo,,Não aplicável.,Não aplicável.,
4EXC0008/2013 - Cobertor p maquina de aquecimento e cobertura p termometro,Ajuste Direto Regime Geral,Aquisição de bens móveis,"33000000-0, Equipamento médico, medicamentos e produtos para cuidados pessoais","Centro Hospitalar Barreiro Montijo, E. P. E. (509186998)",Covidien Portugal (503413410),"17.251,20 €",08-05-2013,01-02-2013,360 dias,"Portugal, Setúbal, Barreiro","Artigo 20.º, n.º 1, alínea a) do Código dos Contratos Públicos",31-12-2013,"17.073,60 €",,Redução de consumo,,Não aplicável.,Não aplicável.,
4EXC0005//2013 - Pulseira p sistema hemovigilancia,Ajuste Direto Regime Geral,Aquisição de bens móveis,"33000000-0, Equipamento médico, medicamentos e produtos para cuidados pessoais","Centro Hospitalar Barreiro Montijo, E. P. E. (509186998)",Veridentia Portugal (509459951),"16.260,00 €",07-05-2013,18-01-2013,360 dias,"Portugal, Setúbal, Barreiro","Artigo 20.º, n.º 1, alínea a) do Código dos Contratos Públicos",31-12-2013,"17.886,00 €",,Aumento de quantidades,,Não aplicável.,Não aplicável.,
4EXC0001/2013 - Material p Citologia,Ajuste Direto Regime Geral,Aquisição de bens móveis,"33000000-0, Equipamento médico, medicamentos e produtos para cuidados pessoais","Centro Hospitalar Barreiro Montijo, E. P. E. (509186998)",Hologic Iberia (980277230),"26.364,88 €",07-05-2013,22-01-2013,360 dias,"Portugal, Setúbal, Barreiro","Artigo 20.º, n.º 1, alínea a) do Código dos Contratos Públicos",31-12-2013,"23.013,70 €",,Redução de consumo,,Não aplicável.,Não aplicável.,
410012/2013 - Kit monitorização de debito cardiaco,Ajuste Direto Regime Geral,Aquisição de bens móveis,"33000000-0, Equipamento médico, medicamentos e produtos para cuidados pessoais","Centro Hospitalar Barreiro Montijo, E. P. E. (509186998)",Clinifar (503281115),"8.580,00 €",07-05-2013,08-03-2013,360 dias,"Portugal, Setúbal, Barreiro","Artigo 20.º, n.º 1, alínea a) do Código dos Contratos Públicos",31-12-2013,"8.580,00 €",,"",,Não aplicável.,Não aplicável.,
410007/2013 - Meias elasticas,Ajuste Direto Regime Geral,Aquisição de bens móveis,"33000000-0, Equipamento médico, medicamentos e produtos para cuidados pessoais","Centro Hospitalar Barreiro Montijo, E. P. E. (509186998)",Medi Bayreuth (502577274),"7.241,00 €",07-05-2013,01-03-2013,360 dias,"Portugal, Setúbal, Barreiro","Artigo 20.º, n.º 1, alínea a) do Código dos Contratos Públicos",31-12-2013,"5.006,00 €",,Redução de consumo,,Não aplicável.,Não aplicável.,
410002/2013 Material de cito e histopatologia,Ajuste Direto Regime Geral,Aquisição de bens móveis,"33000000-0, Equipamento médico, medicamentos e produtos para cuidados pessoais","Centro Hospitalar Barreiro Montijo, E. P. E. (509186998)",Vidrolab 2 (501450629),"48,50 €",07-05-2013,08-03-2013,360 dias,"Portugal, Setúbal, Barreiro","Artigo 20.º, n.º 1, alínea a) do Código dos Contratos Públicos",31-12-2013,"",,Material não adquirido,,Não aplicável.,Não aplicável.,
410002/2013 Material de cito histopatologia,Ajuste Direto Regime Geral,Aquisição de bens móveis,"33000000-0, Equipamento médico, medicamentos e produtos para cuidados pessoais","Centro Hospitalar Barreiro Montijo, E. P. E. (509186998)",Azolab (506332918),"644,66 €",07-05-2013,08-03-2013,360 dias,"Portugal, Setúbal, Barreiro","Artigo 20.º, n.º 1, alínea a) do Código dos Contratos Públicos",31-12-2013,"930,41 €",,Aumento de consumo,,Não aplicável.,Não aplicável.,
410002/2013 Material de cito histopatologia,Ajuste Direto Regime Geral,Aquisição de bens móveis,"33000000-0, Equipamento médico, medicamentos e produtos para cuidados pessoais","Centro Hospitalar Barreiro Montijo, E. P. E. (509186998)",Inopat (503294420),"105,00 €",07-05-2013,08-03-2013,360 dias,"Portugal, Setúbal, Barreiro","Artigo 20.º, n.º 1, alínea a) do Código dos Contratos Públicos",31-12-2013,"105,00 €",,"",,Não aplicável.,Não aplicável.,
410002/2013 Material p cito e histopatologia,Ajuste Direto Regime Geral,Aquisição de bens móveis,"33000000-0, Equipamento médico, medicamentos e produtos para cuidados pessoais","Centro Hospitalar Barreiro Montijo, E. P. E. (509186998)",Garal (500777314),"8.693,80 €",07-05-2013,08-03-2013,360 dias,"Portugal, Setúbal, Barreiro","Artigo 20.º, n.º 1, alínea a) do Código dos Contratos Públicos",31-12-2013,"6.515,30 €",,Redução de consumos,,Não aplicável.,Não aplicável.,
