Objeto do Contrato,Tipo de Procedimento,Tipo(s) de Contrato,CPVs,Entidade(s) Adjudicante(s),Entidade(s) Adjudicatária(s),Preço Contratual,Data de Publicação,Data de Celebração do Contrato,Prazo de Execução,Local de Execução,Fundamentação,Data de Fecho do Contrato,Preço Total Efetivo,Causas das Alterações ao Prazo,Causas das Alterações ao Preço,Estado,N.º registo do Acordo Quadro,Descrição do Acordo Quadro,Procedimento Centralizado
Aquisição de catater de eco intra-cardíaco,Ajuste Direto Regime Geral,Aquisição de bens móveis,"33190000-8, Dispositivos e produtos médicos variados","Centro Hospitalar Lisboa Norte, E. P. E. (508481287)",JOHNSON (500153370),"10.000,00 €",21-11-2017,21-11-2017,1 dias,"Portugal, Lisboa, Lisboa","Artigo 24.º, n.º 1, alínea e) do Código dos Contratos Públicos",,,,,,Não aplicável.,Não aplicável.,FALSE
Aquisição de Serviços de Manutenção aos Equipamentos de Hemodinâmica.,Ajuste Direto Regime Geral,Aquisição de serviços,"50421000-2, Serviços de reparação e manutenção de equipamento médico","Centro Hospitalar Lisboa Norte, E. P. E. (508481287)",JOHNSON (500153370),"12.175,92 €",21-11-2017,07-03-2016,365 dias,"Portugal, Lisboa, Lisboa","Artigo 24.º, n.º 1, alínea e) do Código dos Contratos Públicos",,,,,,Não aplicável.,Não aplicável.,FALSE
Aquisição de Serviços de Manutenção aos Equipamentos de Distribuição Automática de Medicação Kardex.,Ajuste Direto Regime Geral,Aquisição de serviços,"50430000-8, Serviços de reparação e manutenção de equipamento de precisão","Centro Hospitalar Lisboa Norte, E. P. E. (508481287)","GRIFOLS PORTUGAL-PROD.FARM.HOSPIT., LDA (502041285)","50.789,25 €",21-11-2017,26-02-2016,365 dias,"Portugal, Lisboa, Lisboa","Artigo 24.º, n.º 1, alínea e) do Código dos Contratos Públicos",,,,,,Não aplicável.,Não aplicável.,FALSE
Aquisição de lidocaina 2% gel bisnaga,Ajuste Direto Regime Geral,Aquisição de bens móveis,"33690000-3, Medicamentos vários","Centro Hospitalar Lisboa Norte, E. P. E. (508481287)","SIDEFARMA, S.A. (500717419)","7.800,00 €",21-11-2017,21-11-2017,1 dias,"Portugal, Lisboa, Lisboa","Artigo 24.º, n.º 1, alínea e) do Código dos Contratos Públicos",,,,,,Não aplicável.,Não aplicável.,FALSE
Aquisição de água destilada sol. estéril,Ajuste Direto Regime Geral,Aquisição de bens móveis,"33690000-3, Medicamentos vários","Centro Hospitalar Lisboa Norte, E. P. E. (508481287)","OVERPHARMA,LDA. (505792362)","420,00 €",21-11-2017,21-11-2017,1 dias,"Portugal, Lisboa, Lisboa","Artigo 24.º, n.º 1, alínea e) do Código dos Contratos Públicos",,,,,,Não aplicável.,Não aplicável.,FALSE
Aquisição de produtos de apoio,Ajuste Direto Regime Geral,Aquisição de serviços,"85000000-9, Serviços de saúde e acção social","Centro Hospitalar Lisboa Norte, E. P. E. (508481287)","Ortopedia Moderna,Lda (500481300)","1.725,00 €",21-11-2017,21-11-2017,20 dias,"Portugal, Lisboa, Lisboa","Artigo 20.º, n.º 1, alínea a) do Código dos Contratos Públicos",,,,,,Não aplicável.,Não aplicável.,FALSE
Aquisição de produtos de apoio,Ajuste Direto Regime Geral,Aquisição de serviços,"85000000-9, Serviços de saúde e acção social","Centro Hospitalar Lisboa Norte, E. P. E. (508481287)",HEMICARE- Health Medical Care (506517080),"600,00 €",21-11-2017,21-11-2017,1 dias,"Portugal, Lisboa, Lisboa","Artigo 20.º, n.º 1, alínea a) do Código dos Contratos Públicos",,,,,,Não aplicável.,Não aplicável.,FALSE
Aquisição de sistemas CDI,Ajuste Direto Regime Geral,Aquisição de bens móveis,"33190000-8, Dispositivos e produtos médicos variados","Centro Hospitalar Lisboa Norte, E. P. E. (508481287)","Medtronic Portugal, Lda  (504223933)","38.805,00 €",21-11-2017,21-11-2017,1 dias,"Portugal, Lisboa, Lisboa","Artigo 24.º, n.º 1, alínea e) do Código dos Contratos Públicos",,,,,,Não aplicável.,Não aplicável.,FALSE
Aquisição de gerador de impulsos,Ajuste Direto Regime Geral,Aquisição de bens móveis,"33190000-8, Dispositivos e produtos médicos variados","CENTRO HOSPITALAR LISBOA NORTE, EPE (508481287)","Medtronic Portugal, Lda  (504223933)","10.075,00 €",21-11-2017,21-11-2017,1 dias,"Portugal, Lisboa, Lisboa","Artigo 24.º, n.º 1, alínea e) do Código dos Contratos Públicos",,,,,,Não aplicável.,Não aplicável.,FALSE
Aquisição de cateter balão dilatac valvular,Ajuste Direto Regime Geral,Aquisição de bens móveis,"33190000-8, Dispositivos e produtos médicos variados","CENTRO HOSPITALAR LISBOA NORTE, EPE (508481287)","Endovascular, Lda. (505537494)","10.620,00 €",21-11-2017,21-11-2017,1 dias,"Portugal, Lisboa, Lisboa","Artigo 20.º, n.º 1, alínea a) do Código dos Contratos Públicos",,,,,,Não aplicável.,Não aplicável.,FALSE
Empreitada de reparação da rede de águas residuais na Unidade Técnicas de Pediatria ¿ Piso 1.,Ajuste Direto Regime Geral,Empreitadas de obras públicas,"45259100-8, Reparação e manutenção de estações de tratamento de águas residuais","CENTRO HOSPITALAR LISBOA NORTE, EPE (508481287)","C.E Gonçalves, Lda (508657520)","10.070,00 €",21-11-2017,21-11-2017,30 dias,"Portugal, Lisboa, Lisboa","Artigo 19.º, alínea a) do Código dos Contratos Públicos",,,,,,Não aplicável.,Não aplicável.,FALSE
Aquisição de Serviços de Manutenção aos Equipamentos de Distribuição Automática de Medicação.,Ajuste Direto Regime Geral,Aquisição de serviços,"50430000-8, Serviços de reparação e manutenção de equipamento de precisão","Centro Hospitalar Lisboa Norte, E. P. E. (508481287)","GRIFOLS PORTUGAL-PROD.FARM.HOSPIT., LDA (502041285)","61.407,84 €",21-11-2017,26-02-2016,361 dias,"Portugal, Lisboa, Lisboa","Artigo 24.º, n.º 1, alínea e) do Código dos Contratos Públicos",,,,,,Não aplicável.,Não aplicável.,FALSE
Aquisição de Serviços de Manutenção ao Sistema de Monitorização de Instalações e Equipamentos Vigie,Ajuste Direto Regime Geral,Aquisição de serviços,"50413000-3, Serviços de reparação e manutenção de aparelhos de controlo","CENTRO HOSPITALAR LISBOA NORTE, EPE (508481287)","Vigie Solutions, Lda (509041108)","12.925,52 €",21-11-2017,29-01-2016,337 dias,"Portugal, Lisboa, Lisboa","Artigo 24.º, n.º 1, alínea e) do Código dos Contratos Públicos",,,,,,Não aplicável.,Não aplicável.,FALSE
AT sistemas de manutenção e controlo parque de estacionamento FL Gaspar,Ajuste Direto Regime Geral,Aquisição de serviços,"98351000-8, Serviços de gestão de parques de estacionamento","CENTRO HOSPITALAR LISBOA NORTE, EPE (508481287)","Fernando L. Gaspar, S.A. (502042044)","24.996,00 €",21-11-2017,29-01-2016,337 dias,"Portugal, Lisboa, Lisboa","Artigo 24.º, n.º 1, alínea e) do Código dos Contratos Públicos",,,,,,Não aplicável.,Não aplicável.,FALSE
Aquisição de Brentuximab Vedotina 50 mg inj.,Ajuste Direto Regime Geral,Aquisição de bens móveis,"33690000-3, Medicamentos vários","Centro Hospitalar Lisboa Norte, E. P. E. (508481287)",takeda farmaceuticos portugal (502801204),"37.951,20 €",21-11-2017,08-11-2017,1 dias,"Portugal, Lisboa, Lisboa","Artigo 24.º, n.º 1, alínea e) do Código dos Contratos Públicos",,,,,,Não aplicável.,Não aplicável.,FALSE
Aquisição de fator VIII recombinante s/ albumina 1000,Ajuste Direto Regime Geral,Aquisição de bens móveis,"33690000-3, Medicamentos vários","Centro Hospitalar Lisboa Norte, E. P. E. (508481287)","Pfizer Biofarmacêutica, Sociedade Unipessoal Lda. (513300376)","46.318,14 €",21-11-2017,14-11-2017,1 dias,"Portugal, Lisboa, Lisboa","Artigo 24.º, n.º 1, alínea e) do Código dos Contratos Públicos",,,,,,Não aplicável.,Não aplicável.,FALSE
176G000401 - Aquisição de materiais diversos para manutenção - armazém - Serviço Instalações e Equipamentos- CHLN - HSM,Ajuste Direto Regime Geral,Aquisição de bens móveis,"35125100-7, Sensores","CENTRO HOSPITALAR LISBOA NORTE, EPE (508481287)",DIMORASEPT-Higiene    (510258786),"14.483,00 €",21-11-2017,21-11-2017,30 dias,"Portugal, Lisboa, Lisboa","Artigo 20.º, n.º 1, alínea a) do Código dos Contratos Públicos",,,,,,Não aplicável.,Não aplicável.,FALSE
"Aquisição de dois ventiladores não invasivos, dois humidificadores e dois suportes rodados para o Serviço de Neonatologia - Internamento - Unidade de Cuidados Intensivos de Neonatologia (UCIN).",Ajuste Direto Regime Geral,Aquisição de bens móveis,"33100000-1, Equipamento médico","Centro Hospitalar Lisboa Norte, E. P. E. (508481287)",spaceinsp-dispositivos medicos (514126329),"19.980,00 €",21-11-2017,21-11-2017,40 dias,"Portugal, Lisboa, Lisboa","Artigo 20.º, n.º 1, alínea a) do Código dos Contratos Públicos",,,,,,Não aplicável.,Não aplicável.,FALSE
Aquisição de produtos de apoio,Ajuste Direto Regime Geral,Aquisição de serviços,"85000000-9, Serviços de saúde e acção social","CENTRO HOSPITALAR LISBOA NORTE, EPE (508481287)",Mário Paulo Ferreira (197118372),"184,90 €",20-11-2017,20-11-2017,10 dias,"Portugal, Lisboa, Lisboa","Artigo 20.º, n.º 1, alínea a) do Código dos Contratos Públicos",,,,,,Não aplicável.,Não aplicável.,FALSE
Aquisição de produtos de apoio,Ajuste Direto Regime Geral,Aquisição de serviços,"85000000-9, Serviços de saúde e acção social","CENTRO HOSPITALAR LISBOA NORTE, EPE (508481287)",Mário Paulo Ferreira (197118372),"177,36 €",20-11-2017,20-11-2017,10 dias,"Portugal, Lisboa, Lisboa","Artigo 20.º, n.º 1, alínea a) do Código dos Contratos Públicos",,,,,,Não aplicável.,Não aplicável.,FALSE
Aquisição de produtos de apoio,Ajuste Direto Regime Geral,Aquisição de serviços,"85000000-9, Serviços de saúde e acção social","CENTRO HOSPITALAR LISBOA NORTE, EPE (508481287)",Mário Paulo Ferreira (197118372),"174,52 €",20-11-2017,20-11-2017,10 dias,"Portugal, Lisboa, Lisboa","Artigo 20.º, n.º 1, alínea a) do Código dos Contratos Públicos",,,,,,Não aplicável.,Não aplicável.,FALSE
Aquisição de produtos de apoio,Ajuste Direto Regime Geral,Aquisição de serviços,"85000000-9, Serviços de saúde e acção social","CENTRO HOSPITALAR LISBOA NORTE, EPE (508481287)",Mário Paulo Ferreira (197118372),"226,41 €",20-11-2017,20-11-2017,10 dias,"Portugal, Lisboa, Lisboa","Artigo 20.º, n.º 1, alínea a) do Código dos Contratos Públicos",,,,,,Não aplicável.,Não aplicável.,FALSE
Aquisição de produtos de apoio,Ajuste Direto Regime Geral,Aquisição de serviços,"85000000-9, Serviços de saúde e acção social","CENTRO HOSPITALAR LISBOA NORTE, EPE (508481287)",Mário Paulo Ferreira (197118372),"184,90 €",20-11-2017,20-11-2017,10 dias,"Portugal, Lisboa, Lisboa","Artigo 20.º, n.º 1, alínea a) do Código dos Contratos Públicos",,,,,,Não aplicável.,Não aplicável.,FALSE
Aquisição de produtos de apoio,Ajuste Direto Regime Geral,Aquisição de serviços,"85000000-9, Serviços de saúde e acção social","CENTRO HOSPITALAR LISBOA NORTE, EPE (508481287)",Mário Paulo Ferreira (197118372),"164,10 €",20-11-2017,20-11-2017,10 dias,"Portugal, Lisboa, Lisboa","Artigo 20.º, n.º 1, alínea a) do Código dos Contratos Públicos",,,,,,Não aplicável.,Não aplicável.,FALSE
Aquisição de produtos de apoio,Ajuste Direto Regime Geral,Aquisição de serviços,"85000000-9, Serviços de saúde e acção social","CENTRO HOSPITALAR LISBOA NORTE, EPE (508481287)",Mário Paulo Ferreira (197118372),"136,78 €",20-11-2017,20-11-2017,10 dias,"Portugal, Lisboa, Lisboa","Artigo 20.º, n.º 1, alínea a) do Código dos Contratos Públicos",,,,,,Não aplicável.,Não aplicável.,FALSE
Aquisição de produtos de apoio,Ajuste Direto Regime Geral,Aquisição de serviços,"85000000-9, Serviços de saúde e acção social","CENTRO HOSPITALAR LISBOA NORTE, EPE (508481287)",Mário Paulo Ferreira (197118372),"184,90 €",20-11-2017,20-11-2017,10 dias,"Portugal, Lisboa, Lisboa","Artigo 20.º, n.º 1, alínea a) do Código dos Contratos Públicos",,,,,,Não aplicável.,Não aplicável.,FALSE
Aquisição de produtos de apoio,Ajuste Direto Regime Geral,Aquisição de serviços,"85000000-9, Serviços de saúde e acção social","CENTRO HOSPITALAR LISBOA NORTE, EPE (508481287)",Mário Paulo Ferreira (197118372),"174,53 €",20-11-2017,20-11-2017,10 dias,"Portugal, Lisboa, Lisboa","Artigo 24.º, n.º 1, alínea e) do Código dos Contratos Públicos",,,,,,Não aplicável.,Não aplicável.,FALSE
Aquisição de produtos de apoio,Ajuste Direto Regime Geral,Aquisição de serviços,"85000000-9, Serviços de saúde e acção social","CENTRO HOSPITALAR LISBOA NORTE, EPE (508481287)",Mário Paulo Ferreira (197118372),"184,90 €",20-11-2017,13-11-2017,10 dias,"Portugal, Lisboa, Lisboa","Artigo 20.º, n.º 1, alínea a) do Código dos Contratos Públicos",,,,,,Não aplicável.,Não aplicável.,FALSE
Aquisição de consumiveis para sistemas de mapeamento eletro-anatomico,Ajuste Direto Regime Geral,Aquisição de bens móveis,"33140000-3, Material médico de consumo","CENTRO HOSPITALAR LISBOA NORTE, EPE (508481287)",MEDTRONIC (504223933),"7.700,00 €",20-11-2017,20-11-2017,1 dias,"Portugal, Lisboa, Lisboa","Artigo 24.º, n.º 1, alínea e) do Código dos Contratos Públicos",,,,,,Não aplicável.,Não aplicável.,FALSE
Aquisição de produtos de apoio,Ajuste Direto Regime Geral,Aquisição de serviços,"85000000-9, Serviços de saúde e acção social","CENTRO HOSPITALAR LISBOA NORTE, EPE (508481287)",Mário Paulo Ferreira (197118372),"158,49 €",20-11-2017,20-11-2017,10 dias,"Portugal, Lisboa, Lisboa","Artigo 20.º, n.º 1, alínea a) do Código dos Contratos Públicos",,,,,,Não aplicável.,Não aplicável.,FALSE
Aquisição de produtos de apoio,Ajuste Direto Regime Geral,Aquisição de serviços,"85000000-9, Serviços de saúde e acção social","CENTRO HOSPITALAR LISBOA NORTE, EPE (508481287)",Mário Paulo Ferreira (197118372),"309,43 €",20-11-2017,20-11-2017,10 dias,"Portugal, Lisboa, Lisboa","Artigo 20.º, n.º 1, alínea a) do Código dos Contratos Públicos",,,,,,Não aplicável.,Não aplicável.,FALSE
Aquisição de produtos de apoio,Ajuste Direto Regime Geral,Aquisição de serviços,"85000000-9, Serviços de saúde e acção social","CENTRO HOSPITALAR LISBOA NORTE, EPE (508481287)",Mário Paulo Ferreira (197118372),"83,01 €",20-11-2017,20-11-2017,10 dias,"Portugal, Lisboa, Lisboa","Artigo 20.º, n.º 1, alínea a) do Código dos Contratos Públicos",,,,,,Não aplicável.,Não aplicável.,FALSE
Aquisição de produtos de apoio,Ajuste Direto Regime Geral,Aquisição de serviços,"85000000-9, Serviços de saúde e acção social","CENTRO HOSPITALAR LISBOA NORTE, EPE (508481287)",Mário Paulo Ferreira (197118372),"283,02 €",20-11-2017,20-11-2017,10 dias,"Portugal, Lisboa, Lisboa","Artigo 20.º, n.º 1, alínea a) do Código dos Contratos Públicos",,,,,,Não aplicável.,Não aplicável.,FALSE
Aquisição de produtos de apoio,Ajuste Direto Regime Geral,Aquisição de serviços,"85000000-9, Serviços de saúde e acção social","Centro Hospitalar Lisboa Norte, E. P. E. (508481287)",Mário Paulo Ferreira (197118372),"207,54 €",20-11-2017,20-11-2017,10 dias,"Portugal, Lisboa, Lisboa","Artigo 20.º, n.º 1, alínea a) do Código dos Contratos Públicos",,,,,,Não aplicável.,Não aplicável.,FALSE
Aquisição de imunoglobulina anti-hepatite B 200 UI,Ajuste Direto Regime Geral,Aquisição de bens móveis,"33690000-3, Medicamentos vários","Centro Hospitalar Lisboa Norte, E. P. E. (508481287)","CSL BEHRING, LDA (503047201)","455,00 €",20-11-2017,20-11-2017,1 dias,"Portugal, Lisboa, Lisboa","Artigo 24.º, n.º 1, alínea e) do Código dos Contratos Públicos",,,,,,Não aplicável.,Não aplicável.,FALSE
Aquisição de valvula aortica s/ sutura 25 mm,Ajuste Direto Regime Geral,Aquisição de bens móveis,"33190000-8, Dispositivos e produtos médicos variados","Centro Hospitalar Lisboa Norte, E. P. E. (508481287)","EDWARDS LIFESCIENCES , LDA (508014832)","5.900,00 €",20-11-2017,20-11-2017,1 dias,"Portugal, Lisboa, Lisboa","Artigo 24.º, n.º 1, alínea e) do Código dos Contratos Públicos",,,,,,Não aplicável.,Não aplicável.,FALSE
Aquisição de balão p/ dilatação valvular tipo inoue,Ajuste Direto Regime Geral,Aquisição de bens móveis,"33190000-8, Dispositivos e produtos médicos variados","Centro Hospitalar Lisboa Norte, E. P. E. (508481287)",MEDIJOPE MATERIAL HOSPITALAR (503005223),"12.000,00 €",20-11-2017,20-11-2017,1 dias,"Portugal, Lisboa, Lisboa","Artigo 20.º, n.º 1, alínea a) do Código dos Contratos Públicos",,,,,,Não aplicável.,Não aplicável.,FALSE
Aquisição de CDI VR,Ajuste Direto Regime Geral,Aquisição de bens móveis,"33190000-8, Dispositivos e produtos médicos variados","Centro Hospitalar Lisboa Norte, E. P. E. (508481287)",BIOTRONIK PORTUGAL (UNIPESSOAL) LDA (510726941),"8.772,00 €",20-11-2017,20-11-2017,1 dias,"Portugal, Lisboa, Lisboa","Artigo 24.º, n.º 1, alínea e) do Código dos Contratos Públicos",,,,,,Não aplicável.,Não aplicável.,FALSE
Aquisição de protese total joelho tumural cimentada,Ajuste Direto Regime Geral,Aquisição de bens móveis,"33190000-8, Dispositivos e produtos médicos variados","Centro Hospitalar Lisboa Norte, E. P. E. (508481287)","Medical Value, SA (509776531)","11.415,00 €",20-11-2017,20-11-2017,1 dias,"Portugal, Lisboa, Lisboa","Artigo 20.º, n.º 1, alínea a) do Código dos Contratos Públicos",,,,,,Não aplicável.,Não aplicável.,FALSE
Aquisição de material de ortopedia,Ajuste Direto Regime Geral,Aquisição de bens móveis,"33190000-8, Dispositivos e produtos médicos variados","Centro Hospitalar Lisboa Norte, E. P. E. (508481287)",MEDTRONIC (504223933),"9.207,25 €",20-11-2017,20-11-2017,1 dias,"Portugal, Lisboa, Lisboa","Artigo 20.º, n.º 1, alínea a) do Código dos Contratos Públicos",,,,,,Não aplicável.,Não aplicável.,FALSE
Aquisição de CDI BIV,Ajuste Direto Regime Geral,Aquisição de bens móveis,"33190000-8, Dispositivos e produtos médicos variados","Centro Hospitalar Lisboa Norte, E. P. E. (508481287)",MEDTRONIC (504223933),"13.308,00 €",20-11-2017,20-11-2017,1 dias,"Portugal, Lisboa, Lisboa","Artigo 24.º, n.º 1, alínea e) do Código dos Contratos Públicos",,,,,,Não aplicável.,Não aplicável.,FALSE
Aquisição de sistema pacemaker s/ eletrodos,Ajuste Direto Regime Geral,Aquisição de bens móveis,"33190000-8, Dispositivos e produtos médicos variados","Centro Hospitalar Lisboa Norte, E. P. E. (508481287)",MEDTRONIC (504223933),"8.333,00 €",20-11-2017,20-11-2017,1 dias,"Portugal, Lisboa, Lisboa","Artigo 24.º, n.º 1, alínea e) do Código dos Contratos Públicos",,,,,,Não aplicável.,Não aplicável.,FALSE
Aquisição de Meropenem sol. inj.,Ajuste Direto Regime Geral,Aquisição de bens móveis,"33690000-3, Medicamentos vários","Centro Hospitalar Lisboa Norte, E. P. E. (508481287)","Generis Farmacêutica, S.A. (508107997)","10.020,00 €",20-11-2017,07-11-2017,1 dias,"Portugal, Lisboa, Lisboa","Artigo 24.º, n.º 1, alínea e) do Código dos Contratos Públicos",,,,,,Não aplicável.,Não aplicável.,FALSE
Aquisição de acetilcisteina 600 mg,Ajuste Direto Regime Geral,Aquisição de bens móveis,"33690000-3, Medicamentos vários","Centro Hospitalar Lisboa Norte, E. P. E. (508481287)","Baxter Médico Farmaceutica, Lda (503347345)","2.025,00 €",20-11-2017,20-11-2017,1 dias,"Portugal, Lisboa, Lisboa","Artigo 24.º, n.º 1, alínea e) do Código dos Contratos Públicos",,,,,,Não aplicável.,Não aplicável.,FALSE
Aquisição de epoetina beta inj. 3.000 UI,Ajuste Direto Regime Geral,Aquisição de bens móveis,"33690000-3, Medicamentos vários","Centro Hospitalar Lisboa Norte, E. P. E. (508481287)","Roche Farmacêutica Química, Lda. (500233810)","572,40 €",20-11-2017,20-11-2017,1 dias,"Portugal, Lisboa, Lisboa","Artigo 24.º, n.º 1, alínea e) do Código dos Contratos Públicos",,,,,,Não aplicável.,Não aplicável.,FALSE
CP n.º 177A000015 - Aquisição de equipamento de monitorização,Concurso público,Aquisição de bens móveis,"33195200-5, Unidade central de monitorização","Centro Hospitalar Lisboa Norte, E. P. E. (508481287)",DRAGER (508771323),"145.300,00 €",20-11-2017,16-11-2017,20 dias,"Portugal, Lisboa, Lisboa","Artigo 20.º, n.º 1, alínea b) do Código dos Contratos Públicos",,,,,,Não aplicável.,Não aplicável.,FALSE
CP n.º 177A000015 - Aquisição de equipamento de monitorização,Concurso público,Aquisição de bens móveis,"33195100-4, Monitores","Centro Hospitalar Lisboa Norte, E. P. E. (508481287)","Clínifar - Produtos Clínicos e Farmacêuticos, S.A. (503281115)","137.000,00 €",20-11-2017,17-11-2017,20 dias,"Portugal, Lisboa, Lisboa","Artigo 20.º, n.º 1, alínea b) do Código dos Contratos Públicos",,,,,,Não aplicável.,Não aplicável.,FALSE
CP n.º 177A000015 - Aquisição de equipamento de monitorização,Concurso público,Aquisição de bens móveis,"33195200-5, Unidade central de monitorização","Centro Hospitalar Lisboa Norte, E. P. E. (508481287)",SpaceMedical (507662407),"41.263,75 €",20-11-2017,17-11-2017,20 dias,"Portugal, Lisboa, Lisboa","Artigo 20.º, n.º 1, alínea b) do Código dos Contratos Públicos",,,,,,Não aplicável.,Não aplicável.,FALSE
"Aquisição de glutationa reduzida 0,921 mg",Ajuste Direto Regime Geral,Aquisição de bens móveis,"33690000-3, Medicamentos vários","Centro Hospitalar Lisboa Norte, E. P. E. (508481287)",Institut Georges Lopez (429526973),"6.368,00 €",20-11-2017,20-11-2017,1 dias,"Portugal, Lisboa, Lisboa","Artigo 24.º, n.º 1, alínea e) do Código dos Contratos Públicos",,,,,,Não aplicável.,Não aplicável.,FALSE
Aquisição de etanercept 50 mg/1 ml sol. inj. (biossimilar),Ajuste Direto Regime Geral,Aquisição de bens móveis,"33690000-3, Medicamentos vários","Centro Hospitalar Lisboa Norte, E. P. E. (508481287)","BIOGEN IDEC PORTUGAL-SOC.FARM.UNIP., LDA (506415740)","4.752,96 €",20-11-2017,20-11-2017,1 dias,"Portugal, Lisboa, Lisboa","Artigo 24.º, n.º 1, alínea e) do Código dos Contratos Públicos",,,,,,Não aplicável.,Não aplicável.,FALSE
Aquisição de ringer c/ lactato sol. estéril frs. 500 ml,Ajuste Direto Regime Geral,Aquisição de bens móveis,"33690000-3, Medicamentos vários","Centro Hospitalar Lisboa Norte, E. P. E. (508481287)","B. Braun Medical, Lda. (501506543)","810,00 €",20-11-2017,20-11-2017,1 dias,"Portugal, Lisboa, Lisboa","Artigo 24.º, n.º 1, alínea e) do Código dos Contratos Públicos",,,,,,Não aplicável.,Não aplicável.,FALSE
Aquisição de polieletrolitico s/ glucose sol. inj. frs. 1 L,Ajuste Direto Regime Geral,Aquisição de bens móveis,"33690000-3, Medicamentos vários","Centro Hospitalar Lisboa Norte, E. P. E. (508481287)","Baxter Médico Farmaceutica, Lda (503347345)","266,00 €",20-11-2017,20-11-2017,1 dias,"Portugal, Lisboa, Lisboa","Artigo 24.º, n.º 1, alínea e) do Código dos Contratos Públicos",,,,,,Não aplicável.,Não aplicável.,FALSE
Aquisição de gluxose 5% sol. inj. saco plástico fléxivel,Ajuste Direto Regime Geral,Aquisição de bens móveis,"33690000-3, Medicamentos vários","Centro Hospitalar Lisboa Norte, E. P. E. (508481287)","Baxter Médico Farmaceutica, Lda (503347345)","168,00 €",20-11-2017,20-11-2017,1 dias,"Portugal, Lisboa, Lisboa","Artigo 24.º, n.º 1, alínea e) do Código dos Contratos Públicos",,,,,,Não aplicável.,Não aplicável.,FALSE
176G000402 -  Aquisição de materiais para manutenção - armazém - serviço de instalações e equipamentos -CHLN,Ajuste Direto Regime Geral,Aquisição de bens móveis,"35125100-7, Sensores","CENTRO HOSPITALAR LISBOA NORTE, EPE (508481287)",MEDTRONIC (504223933),"6.100,00 €",20-11-2017,20-11-2017,30 dias,"Portugal, Lisboa, Lisboa","Artigo 24.º, n.º 1, alínea e) do Código dos Contratos Públicos",,,,,,Não aplicável.,Não aplicável.,FALSE
"Aquisição de bosentan comp. 62,5 mg",Ajuste Direto Regime Geral,Aquisição de bens móveis,"33690000-3, Medicamentos vários","Centro Hospitalar Lisboa Norte, E. P. E. (508481287)","SANOFI- PRODUTOS FARMACÊUTICOS,LDA. (500134960)","805,50 €",17-11-2017,17-11-2017,1 dias,"Portugal, Lisboa, Lisboa","Artigo 20.º, n.º 1, alínea a) do Código dos Contratos Públicos",,,,,,Não aplicável.,Não aplicável.,FALSE
Aquisição de sistema de ampliação,Ajuste Direto Regime Geral,Aquisição de serviços,"85000000-9, Serviços de saúde e acção social","Centro Hospitalar Lisboa Norte, E. P. E. (508481287)",HEMICARE (506517080),"600,00 €",17-11-2017,17-11-2017,1 dias,"Portugal, Lisboa, Lisboa","Artigo 20.º, n.º 1, alínea a) do Código dos Contratos Públicos",,,,,,Não aplicável.,Não aplicável.,FALSE
Aquisição de sistema de ampliação,Ajuste Direto Regime Geral,Aquisição de serviços,"85000000-9, Serviços de saúde e acção social","Centro Hospitalar Lisboa Norte, E. P. E. (508481287)",HEMICARE (506517080),"600,00 €",17-11-2017,17-11-2017,1 dias,"Portugal, Lisboa, Lisboa","Artigo 20.º, n.º 1, alínea a) do Código dos Contratos Públicos",,,,,,Não aplicável.,Não aplicável.,FALSE
Aquisição de bomba infusora implantável,Ajuste Direto Regime Geral,Aquisição de bens móveis,"33190000-8, Dispositivos e produtos médicos variados","Centro Hospitalar Lisboa Norte, E. P. E. (508481287)","MEDTRONIC PORTUGAL, LDA (504223933)","8.000,00 €",17-11-2017,17-11-2017,1 dias,"Portugal, Lisboa, Lisboa","Artigo 24.º, n.º 1, alínea e) do Código dos Contratos Públicos",,,,,,Não aplicável.,Não aplicável.,FALSE
Aquisição de dabrafenib 75 mg caps.,Ajuste Direto Regime Geral,Aquisição de bens móveis,"33690000-3, Medicamentos vários","Centro Hospitalar Lisboa Norte, E. P. E. (508481287)","NOVARTIS FARMA, S.A. (500063524)","33.995,48 €",17-11-2017,14-06-2017,1 dias,"Portugal, Lisboa, Lisboa","Artigo 24.º, n.º 1, alínea e) do Código dos Contratos Públicos",,,,,,Não aplicável.,Não aplicável.,FALSE
Aquisição de brocas para o BOC II,Ajuste Direto Regime Geral,Aquisição de bens móveis,"33190000-8, Dispositivos e produtos médicos variados","Centro Hospitalar Lisboa Norte, E. P. E. (508481287)","MEDTRONIC PORTUGAL, LDA (504223933)","5.842,00 €",17-11-2017,17-11-2017,1 dias,"Portugal, Lisboa, Lisboa","Artigo 20.º, n.º 1, alínea a) do Código dos Contratos Públicos",,,,,,Não aplicável.,Não aplicável.,FALSE
Aquisição de micofenolato de mofetil caps. 250 mg,Ajuste Direto Regime Geral,Aquisição de bens móveis,"33690000-3, Medicamentos vários","Centro Hospitalar Lisboa Norte, E. P. E. (508481287)","Accord Healthcare, Unipessoal Lda (508622263)","1.108,50 €",17-11-2017,17-11-2017,1 dias,"Portugal, Lisboa, Lisboa","Artigo 24.º, n.º 1, alínea e) do Código dos Contratos Públicos",,,,,,Não aplicável.,Não aplicável.,FALSE
Aquisição de serviços de regularização do número de disparos da TAC Somatom Sensation Open - Serviço de Radioterapia - MCDT's ¿ CHLN ¿ HSM.,Ajuste Direto Regime Geral,Aquisição de serviços,"50421000-2, Serviços de reparação e manutenção de equipamento médico","CENTRO HOSPITALAR LISBOA NORTE, EPE (508481287)","SIEMENS  HEALTHCARE , LDA (507925173)","9.663,50 €",17-11-2017,17-11-2017,30 dias,"Portugal, Lisboa, Lisboa","Artigo 24.º, n.º 1, alínea e) do Código dos Contratos Públicos",,,,,,Não aplicável.,Não aplicável.,FALSE
Aquisição de elbasvir 50 mg + grazoprevir 100 mg comp.,Ajuste Direto Regime Geral,Aquisição de bens móveis,"33690000-3, Medicamentos vários","Centro Hospitalar Lisboa Norte, E. P. E. (508481287)","Meck Sharp & Dohme, Lda. (500191360)","6.700,74 €",16-11-2017,16-11-2017,1 dias,"Portugal, Lisboa, Lisboa","Artigo 24.º, n.º 1, alínea e) do Código dos Contratos Públicos",,,,,,Não aplicável.,Não aplicável.,FALSE
Aquisição de elbasvir 50 mg + grazoprevir 100 mg comp.,Ajuste Direto Regime Geral,Aquisição de bens móveis,"33690000-3, Medicamentos vários","Centro Hospitalar Lisboa Norte, E. P. E. (508481287)","Merck Sharp & Dohme, Lda. (500191360)","8.934,32 €",16-11-2017,16-11-2017,1 dias,"Portugal, Lisboa, Lisboa","Artigo 24.º, n.º 1, alínea e) do Código dos Contratos Públicos",,,,,,Não aplicável.,Não aplicável.,FALSE
Aquisição de elbasvir 50 mg + grazoprevir 100 mg comp.,Ajuste Direto Regime Geral,Aquisição de bens móveis,"33600000-6, Produtos farmacêuticos","Centro Hospitalar Lisboa Norte, E. P. E. (508481287)",MERCK SHARP & DOHME LDA (500191360),"6.700,74 €",16-11-2017,16-11-2017,1 dias,"Portugal, Lisboa, Lisboa","Artigo 24.º, n.º 1, alínea e) do Código dos Contratos Públicos",,,,,,Não aplicável.,Não aplicável.,FALSE
Aquisição de recargas de agrafador,Ajuste Direto Regime Geral,Aquisição de bens móveis,"33190000-8, Dispositivos e produtos médicos variados","Centro Hospitalar Lisboa Norte, E. P. E. (508481287)","MEDTRONIC PORTUGAL,LDA (504223933)","33.690,00 €",16-11-2017,16-11-2017,1 dias,"Portugal, Lisboa, Lisboa","Artigo 20.º, n.º 1, alínea a) do Código dos Contratos Públicos",,,,,,Não aplicável.,Não aplicável.,FALSE
175G000190 - Aquisição de Material Administrativo Diverso para 2017,Ajuste Direto Regime Geral,Aquisição de bens móveis,"30199000-0, Artigos de papelaria e outros artigos de papel","CENTRO HOSPITALAR LISBOA NORTE, EPE (508481287)","Oficinas Gráficas Ribeiro de Pêra, Lda. (500569495)","3.527,60 €",16-11-2017,16-11-2017,45 dias,"Portugal, Lisboa, Lisboa","Artigo 20.º, n.º 1, alínea a) do Código dos Contratos Públicos",,,,,,Não aplicável.,Não aplicável.,FALSE
Aquisição de temozolamida caps. 5 mg,Ajuste Direto Regime Geral,Aquisição de bens móveis,"33690000-3, Medicamentos vários","Centro Hospitalar Lisboa Norte, E. P. E. (508481287)","Accord Healthcare, Unipessoal Lda (508622263)","156,00 €",16-11-2017,16-11-2017,1 dias,"Portugal, Lisboa, Lisboa","Artigo 24.º, n.º 1, alínea e) do Código dos Contratos Públicos",,,,,,Não aplicável.,Não aplicável.,FALSE
Aquisição de cabazitaxel 60 mg inj.,Ajuste Direto Regime Geral,Aquisição de bens móveis,"33690000-3, Medicamentos vários","Centro Hospitalar Lisboa Norte, E. P. E. (508481287)","sanofi pro. farmaceuticos, lda (500134960)","43.681,00 €",15-11-2017,17-11-2016,1 dias,"Portugal, Lisboa, Lisboa","Artigo 24.º, n.º 1, alínea e) do Código dos Contratos Públicos",,,,,,Não aplicável.,Não aplicável.,FALSE
Aquisição de fator VIII recombinante 250 Ui,Ajuste Direto Regime Geral,Aquisição de bens móveis,"33690000-3, Medicamentos vários","Centro Hospitalar Lisboa Norte, E. P. E. (508481287)","SHIRE PHARMACEUTICALS PORTUGAL, LDA                (509264662)","10.905,30 €",15-11-2017,19-10-2017,1 dias,"Portugal, Lisboa, Lisboa","Artigo 24.º, n.º 1, alínea e) do Código dos Contratos Públicos",,,,,,Não aplicável.,Não aplicável.,FALSE
Aquisição de CDI VR com elétrodo único,Ajuste Direto Regime Geral,Aquisição de bens móveis,"33190000-8, Dispositivos e produtos médicos variados","CENTRO HOSPITALAR LISBOA NORTE, EPE (508481287)",BIOTRONIK PORTUGAL (UNIPESSOAL) LDA (510726941),"9.775,00 €",15-11-2017,15-11-2017,1 dias,"Portugal, Lisboa, Lisboa","Artigo 24.º, n.º 1, alínea e) do Código dos Contratos Públicos",,,,,,Não aplicável.,Não aplicável.,FALSE
Aquisição de material de ortopedia,Ajuste Direto Regime Geral,Aquisição de bens móveis,"33140000-3, Material médico de consumo","CENTRO HOSPITALAR LISBOA NORTE, EPE (508481287)","MEDTRONIC PORTUGAL, LDA (504223933)","6.094,50 €",15-11-2017,15-11-2017,1 dias,"Portugal, Lisboa, Lisboa","Artigo 24.º, n.º 1, alínea e) do Código dos Contratos Públicos",,,,,,Não aplicável.,Não aplicável.,FALSE
Aquisição de material para cirurgia vascular,Ajuste Direto Regime Geral,Aquisição de bens móveis,"33140000-3, Material médico de consumo","CENTRO HOSPITALAR LISBOA NORTE, EPE (508481287)","BIOSONDA - COMERCIO MAT. HOSPITALAR, LDA (501463313)","38.500,00 €",15-11-2017,15-11-2017,1 dias,"Portugal, Lisboa, Lisboa","Artigo 24.º, n.º 1, alínea e) do Código dos Contratos Públicos",,,,,,Não aplicável.,Não aplicável.,FALSE
Aquisição de hidropolimero espesso c/ rebordo,Ajuste Direto Regime Geral,Aquisição de bens móveis,"33690000-3, Medicamentos vários","CENTRO HOSPITALAR LISBOA NORTE, EPE (508481287)","SMITH & NEPHEW, LDA (503552461)","5.055,00 €",15-11-2017,15-11-2017,1 dias,"Portugal, Lisboa, Lisboa","Artigo 24.º, n.º 1, alínea e) do Código dos Contratos Públicos",,,,,,Não aplicável.,Não aplicável.,FALSE
Aquisição de produtos de apoio,Ajuste Direto Regime Geral,Aquisição de serviços,"85000000-9, Serviços de saúde e acção social","CENTRO HOSPITALAR LISBOA NORTE, EPE (508481287)",Ortopedia Moderna Lda (500481300),"1.614,25 €",15-11-2017,15-11-2017,20 dias,"Portugal, Lisboa, Lisboa","Artigo 20.º, n.º 1, alínea a) do Código dos Contratos Públicos",,,,,,Não aplicável.,Não aplicável.,FALSE
Aquisição de interface em silicone,Ajuste Direto Regime Geral,Aquisição de serviços,"85000000-9, Serviços de saúde e acção social","CENTRO HOSPITALAR LISBOA NORTE, EPE (508481287)",Ortopedia Moderna Lda (500481300),"253,45 €",15-11-2017,15-11-2017,5 dias,"Portugal, Lisboa, Lisboa","Artigo 20.º, n.º 1, alínea a) do Código dos Contratos Públicos",,,,,,Não aplicável.,Não aplicável.,FALSE
Aquisição de somatropina inj. 12 mg,Ajuste Direto Regime Geral,Aquisição de bens móveis,"33690000-3, Medicamentos vários","CENTRO HOSPITALAR LISBOA NORTE, EPE (508481287)",LILLY PORTUGAL - PRODUTOS FARMACEUTICOS (500165602),"1.857,51 €",15-11-2017,15-11-2017,1 dias,"Portugal, Lisboa, Lisboa","Artigo 24.º, n.º 1, alínea e) do Código dos Contratos Públicos",,,,,,Não aplicável.,Não aplicável.,FALSE
Aquisição de penso com prata banocristalina flex,Ajuste Direto Regime Geral,Aquisição de bens móveis,"33690000-3, Medicamentos vários","CENTRO HOSPITALAR LISBOA NORTE, EPE (508481287)","SMITH & NEPHEW, LDA (503552461)","6.748,80 €",15-11-2017,15-11-2017,1 dias,"Portugal, Lisboa, Lisboa","Artigo 24.º, n.º 1, alínea e) do Código dos Contratos Públicos",,,,,,Não aplicável.,Não aplicável.,FALSE
"Aquisição de alprazolam comp. 0,25 mg",Ajuste Direto Regime Geral,Aquisição de bens móveis,"33690000-3, Medicamentos vários","CENTRO HOSPITALAR LISBOA NORTE, EPE (508481287)","Generis Farmaceutica, S.A. (508107997)","42,00 €",15-11-2017,15-11-2017,1 dias,"Portugal, Lisboa, Lisboa","Artigo 20.º, n.º 1, alínea a) do Código dos Contratos Públicos",,,,,,Não aplicável.,Não aplicável.,FALSE
Aquisição de fator Von Willbrand 1200 UI c/ fator VI,Ajuste Direto Regime Geral,Aquisição de bens móveis,"33690000-3, Medicamentos vários","CENTRO HOSPITALAR LISBOA NORTE, EPE (508481287)","CSL BEHRING,Ldª (503047201)","7.647,20 €",15-11-2017,15-11-2017,1 dias,"Portugal, Lisboa, Lisboa","Artigo 24.º, n.º 1, alínea e) do Código dos Contratos Públicos",,,,,,Não aplicável.,Não aplicável.,FALSE
Aquisição infliximab 100 mg inj. (biossimilar),Ajuste Direto Regime Geral,Aquisição de bens móveis,"33690000-3, Medicamentos vários","CENTRO HOSPITALAR LISBOA NORTE, EPE (508481287)","LAB. PFIZER, LDA. (500162166)","100.885,50 €",15-11-2017,14-11-2017,1 dias,"Portugal, Lisboa, Lisboa","Artigo 24.º, n.º 1, alínea e) do Código dos Contratos Públicos",,,,,,Não aplicável.,Não aplicável.,FALSE
Aquisição de Canacinumab 150 mg inj.,Ajuste Direto Regime Geral,Aquisição de bens móveis,"33690000-3, Medicamentos vários","CENTRO HOSPITALAR LISBOA NORTE, EPE (508481287)","Novartis Farma - Produtos Farmaceuticos, S.A. (500063524)","31.475,40 €",15-11-2017,03-11-2017,1 dias,"Portugal, Lisboa, Lisboa","Artigo 24.º, n.º 1, alínea e) do Código dos Contratos Públicos",,,,,,Não aplicável.,Não aplicável.,FALSE
Aquisição de talidomida caps. 50 mg,Ajuste Direto Regime Geral,Aquisição de bens móveis,"33690000-3, Medicamentos vários","Centro Hospitalar Lisboa Norte, E. P. E. (508481287)","CELGENE - SOCIEDADE UNIPESSOAL, LDA (507791690)","43.680,00 €",15-11-2017,10-11-2017,1 dias,"Portugal, Lisboa, Lisboa","Artigo 24.º, n.º 1, alínea e) do Código dos Contratos Públicos",,,,,,Não aplicável.,Não aplicável.,FALSE
Aquisição de hidropolimero composto c/  prata e carvão rebordo 10x10 cm,Ajuste Direto Regime Geral,Aquisição de bens móveis,"33690000-3, Medicamentos vários","Centro Hospitalar Lisboa Norte, E. P. E. (508481287)","MOLNLYCKE HEALTH CARE-Com.Prod. Hospitalares,Lda. (511101066)","2.397,00 €",15-11-2017,15-11-2017,1 dias,"Portugal, Lisboa, Lisboa","Artigo 24.º, n.º 1, alínea e) do Código dos Contratos Públicos",,,,,,Não aplicável.,Não aplicável.,FALSE
Aquisição de hemoculturas anaerobios,Ajuste Direto Regime Geral,Aquisição de bens móveis,"33690000-3, Medicamentos vários","Centro Hospitalar Lisboa Norte, E. P. E. (508481287)",QUILABAN (500399670),"5.700,00 €",15-11-2017,15-11-2017,1 dias,"Portugal, Lisboa, Lisboa","Artigo 24.º, n.º 1, alínea e) do Código dos Contratos Públicos",,,,,,Não aplicável.,Não aplicável.,FALSE
Aquisição de somatropina inj. 6 mg,Ajuste Direto Regime Geral,Aquisição de bens móveis,"33690000-3, Medicamentos vários","Centro Hospitalar Lisboa Norte, E. P. E. (508481287)",LILLY PORTUGAL - PRODUTOS FARMACEUTICOS (500165602),"1.052,40 €",15-11-2017,15-11-2017,1 dias,"Portugal, Lisboa, Lisboa","Artigo 24.º, n.º 1, alínea e) do Código dos Contratos Públicos",,,,,,Não aplicável.,Não aplicável.,FALSE
"Prestação de serviços de seguros de automóvel para a frota do Centro Hospitalar Lisboa Norte, E.P.E. para o ano 2018.",Ajuste Direto Regime Geral,Aquisição de serviços,"66514110-0, Serviços de seguro automóvel","Centro Hospitalar Lisboa Norte, E. P. E. (508481287)",SABSEG - Corretor de Seguros S.A. (500906181),"7.638,00 €",15-11-2017,15-11-2017,365 dias,"Portugal, Lisboa, Lisboa","Artigo 20.º, n.º 1, alínea a) do Código dos Contratos Públicos",,,,,,Não aplicável.,Não aplicável.,FALSE
Aquisição de etanercept 50 mg sol. inj.,Ajuste Direto Regime Geral,Aquisição de bens móveis,"33690000-3, Medicamentos vários","Centro Hospitalar Lisboa Norte, E. P. E. (508481287)","Pfizer Biofarmacêutica, Lda. (513300376)","51.335,70 €",14-11-2017,14-11-2017,1 dias,"Portugal, Lisboa, Lisboa","Artigo 24.º, n.º 1, alínea e) do Código dos Contratos Públicos",,,,,,Não aplicável.,Não aplicável.,FALSE
Aquisição de sistema CDI BIV (CRT-D) + elétrodos,Ajuste Direto Regime Geral,Aquisição de bens móveis,"33190000-8, Dispositivos e produtos médicos variados","Centro Hospitalar Lisboa Norte, E. P. E. (508481287)","LIVANOVA PORTUGAL, LDA. (505514010)","15.035,00 €",14-11-2017,14-11-2017,1 dias,"Portugal, Lisboa, Lisboa","Artigo 24.º, n.º 1, alínea e) do Código dos Contratos Públicos",,,,,,Não aplicável.,Não aplicável.,FALSE
Aquisição de AC Anti VHC cobas 8.000 teste 200 T,Ajuste Direto Regime Geral,Aquisição de bens móveis,"33696000-5, Reagentes e meios de contraste","Centro Hospitalar Lisboa Norte, E. P. E. (508481287)","ROCHE SISTEMAS DIAGNOSTICO,LDA (504282921)","7.810,00 €",14-11-2017,14-11-2017,1 dias,"Portugal, Lisboa, Lisboa","Artigo 24.º, n.º 1, alínea e) do Código dos Contratos Públicos",,,,,,Não aplicável.,Não aplicável.,FALSE
Aquisição de naproxeno 500 mg comp.,Ajuste Direto Regime Geral,Aquisição de bens móveis,"33690000-3, Medicamentos vários","Centro Hospitalar Lisboa Norte, E. P. E. (508481287)","Generis Farmaceutica, S.A. (508107997)","32,64 €",14-11-2017,14-11-2017,1 dias,"Portugal, Lisboa, Lisboa","Artigo 24.º, n.º 1, alínea e) do Código dos Contratos Públicos",,,,,,Não aplicável.,Não aplicável.,FALSE
Aquisição de fator IX recombinante 1000 Ui inj.,Ajuste Direto Regime Geral,Aquisição de bens móveis,"33690000-3, Medicamentos vários","Centro Hospitalar Lisboa Norte, E. P. E. (508481287)","Pfizer Biofarmacêutica, Lda. (513300376)","94.255,50 €",14-11-2017,08-11-2017,1 dias,"Portugal, Lisboa, Lisboa","Artigo 24.º, n.º 1, alínea e) do Código dos Contratos Públicos",,,,,,Não aplicável.,Não aplicável.,FALSE
Aquisição de produtos de apoio,Ajuste Direto Regime Geral,Aquisição de serviços,"85000000-9, Serviços de saúde e acção social","CENTRO HOSPITALAR LISBOA NORTE, EPE (508481287)","Optocentro, Lda. (501472070)","389,01 €",13-11-2017,13-11-2017,30 dias,"Portugal, Lisboa, Lisboa","Artigo 20.º, n.º 1, alínea a) do Código dos Contratos Públicos",,,,,,Não aplicável.,Não aplicável.,FALSE
Aquisição de medicamentos,Ajuste Direto Regime Geral,Aquisição de bens móveis,"33690000-3, Medicamentos vários","CENTRO HOSPITALAR LISBOA NORTE, EPE (508481287)","Accord Healthcare, Unipessoal Lda (508622263)","1.940,20 €",13-11-2017,13-11-2017,1 dias,"Portugal, Lisboa, Lisboa","Artigo 24.º, n.º 1, alínea e) do Código dos Contratos Públicos",,,,,,Não aplicável.,Não aplicável.,FALSE
"CP n.º 178A000001 - Aquisição de 542 computadores p/ utilização em contexto """"desktop médico"""", no CHLN, EPE",Concurso público,Aquisição de bens móveis,"30213300-8, Computadores de secretária (desktop computers)","Centro Hospitalar Lisboa Norte, E. P. E. (508481287)","Paulo S. Conde, Lda. (506324729)","37.888,40 €",13-11-2017,06-11-2017,30 dias,"Portugal, Lisboa, Lisboa","Artigo 20.º, n.º 1, alínea b) do Código dos Contratos Públicos",,,,,,Não aplicável.,Não aplicável.,FALSE
Aquisição de medicamentos,Ajuste Direto Regime Geral,Aquisição de bens móveis,"33690000-3, Medicamentos vários","CENTRO HOSPITALAR LISBOA NORTE, EPE (508481287)","Accord Healthcare, Unipessoal Lda (508622263)","1.940,20 €",13-11-2017,13-11-2017,1 dias,"Portugal, Lisboa, Lisboa","Artigo 24.º, n.º 1, alínea e) do Código dos Contratos Públicos",,,,,,Não aplicável.,Não aplicável.,FALSE
Aquisição de infliximab conj. det.,Ajuste Direto Regime Geral,Aquisição de bens móveis,"33690000-3, Medicamentos vários","CENTRO HOSPITALAR LISBOA NORTE, EPE (508481287)",ARIUM (502501880),"8.100,00 €",13-11-2017,13-11-2017,1 dias,"Portugal, Lisboa, Lisboa","Artigo 24.º, n.º 1, alínea e) do Código dos Contratos Públicos",,,,,,Não aplicável.,Não aplicável.,FALSE
Aquisição de afatinib 30 mg comp.,Ajuste Direto Regime Geral,Aquisição de bens móveis,"33690000-3, Medicamentos vários","CENTRO HOSPITALAR LISBOA NORTE, EPE (508481287)",Unilfarma-União Internacional de Laboratórios Farmacêuticos Lda (500293023),"5.217,90 €",13-11-2017,13-11-2017,1 dias,"Portugal, Lisboa, Lisboa","Artigo 24.º, n.º 1, alínea e) do Código dos Contratos Públicos",,,,,,Não aplicável.,Não aplicável.,FALSE
Aquisição de infliximab conj. det.,Ajuste Direto Regime Geral,Aquisição de bens móveis,"33690000-3, Medicamentos vários","CENTRO HOSPITALAR LISBOA NORTE, EPE (508481287)",ARIUM (502501880),"8.100,00 €",13-11-2017,13-11-2017,1 dias,"Portugal, Lisboa, Lisboa","Artigo 24.º, n.º 1, alínea e) do Código dos Contratos Públicos",,,,,,Não aplicável.,Não aplicável.,FALSE
Aquisição de voriconazol 200 mg comp.,Ajuste Direto Regime Geral,Aquisição de bens móveis,"33690000-3, Medicamentos vários","Centro Hospitalar Lisboa Norte, E. P. E. (508481287)","Teva Pharma - Produtos Farmacêuticos, Lda (507045491)","8.999,76 €",13-11-2017,13-11-2017,1 dias,"Portugal, Lisboa, Lisboa<BR/>Portugal","Artigo 20.º, n.º 1, alínea a) do Código dos Contratos Públicos",,,,,,Não aplicável.,Não aplicável.,FALSE
Aquisição de glucose no sangue tiras-teste 50 Tiras,Ajuste Direto Regime Geral,Aquisição de bens móveis,"33696000-5, Reagentes e meios de contraste","Centro Hospitalar Lisboa Norte, E. P. E. (508481287)",JOHNSON (500153370),"8.300,00 €",13-11-2017,13-11-2017,1 dias,"Portugal, Lisboa, Lisboa","Artigo 24.º, n.º 1, alínea e) do Código dos Contratos Públicos",,,,,,Não aplicável.,Não aplicável.,FALSE
Aquisição de advia autoretic 4x600 ciclos,Ajuste Direto Regime Geral,Aquisição de bens móveis,"33696000-5, Reagentes e meios de contraste","Centro Hospitalar Lisboa Norte, E. P. E. (508481287)","SIEMENS HEALTHCARE, LDA (507925173)","6.720,00 €",13-11-2017,13-11-2017,1 dias,"Portugal, Lisboa, Lisboa","Artigo 24.º, n.º 1, alínea e) do Código dos Contratos Públicos",,,,,,Não aplicável.,Não aplicável.,FALSE
Ajuste Direto n.º 171002584 - Aquisição de derivados do plasma e medicamentos diversos - Conc. SPMS n.º 2015/9 e 2016/55 - P259-AC-2017-130,Ao abrigo de acordo-quadro (art.º 259.º),Aquisição de bens móveis,"33690000-3, Medicamentos vários","Centro Hospitalar Lisboa Norte, E. P. E. (508481287)",OCTAPHARMA - PRODUTOS FARMACEUTICOS                (502820780),"33.792,00 €",13-11-2017,02-10-2017,90 dias,"Portugal, Lisboa, Lisboa",Artigo 259.º do Código dos Contratos Públicos,,,,,,1423488,ACORDO QUADRO PARA FORNECIMENTO DE DERIVADOS DO PLASMA HUMANO ÀS INSTITUIÇÕES E SERVIÇOS DO SERVIÇO NACIONAL DE SAÚDE CP 2015/9,FALSE
Ajuste Direto n.º 171002584 - Aquisição de derivados do plasma e medicamentos diversos - Conc. SPMS n.º 2015/9 e 2016/55 - P259-AC-2017-130,Ao abrigo de acordo-quadro (art.º 259.º),Aquisição de bens móveis,"33690000-3, Medicamentos vários","Centro Hospitalar Lisboa Norte, E. P. E. (508481287)","GRIFOLS PORTUGAL, LDA. (502041285)","174.800,00 €",13-11-2017,02-10-2017,90 dias,"Portugal, Lisboa, Lisboa",Artigo 259.º do Código dos Contratos Públicos,,,,,,1423488,ACORDO QUADRO PARA FORNECIMENTO DE DERIVADOS DO PLASMA HUMANO ÀS INSTITUIÇÕES E SERVIÇOS DO SERVIÇO NACIONAL DE SAÚDE CP 2015/9,FALSE
Ajuste Direto n.º 171002584 - Aquisição de derivados do plasma e medicamentos diversos - Conc. SPMS n.º 2015/9 e 2016/55 - P259-AC-2017-130,Ao abrigo de acordo-quadro (art.º 259.º),Aquisição de bens móveis,"33690000-3, Medicamentos vários","Centro Hospitalar Lisboa Norte, E. P. E. (508481287)","TAKEDA-FARMACEUTICOS PORTUGAL, LDA (502801204)","22.088,00 €",13-11-2017,02-10-2017,90 dias,"Portugal, Lisboa, Lisboa",Artigo 259.º do Código dos Contratos Públicos,,,,,,1423488,ACORDO QUADRO PARA FORNECIMENTO DE DERIVADOS DO PLASMA HUMANO ÀS INSTITUIÇÕES E SERVIÇOS DO SERVIÇO NACIONAL DE SAÚDE CP 2015/9,FALSE
Ajuste Direto n.º 171002584 - Aquisição de derivados do plasma e medicamentos diversos - Conc. SPMS n.º 2015/9 e 2016/55 - P259-AC-2017-130,Ao abrigo de acordo-quadro (art.º 259.º),Aquisição de bens móveis,"33690000-3, Medicamentos vários","Centro Hospitalar Lisboa Norte, E. P. E. (508481287)",BAXTER MEDICO FARMACEUTICA LDA (503347345),"187.200,00 €",13-11-2017,13-11-2017,90 dias,"Portugal, Lisboa, Lisboa",Artigo 259.º do Código dos Contratos Públicos,,,,,,1423488,ACORDO QUADRO PARA FORNECIMENTO DE DERIVADOS DO PLASMA HUMANO ÀS INSTITUIÇÕES E SERVIÇOS DO SERVIÇO NACIONAL DE SAÚDE CP 2015/9,FALSE
Ajuste Direto n.º 171002584 - Aquisição de derivados do plasma e medicamentos diversos - Conc. SPMS n.º 2015/9 e 2016/55 - P259-AC-2017-130,Ao abrigo de acordo-quadro (art.º 259.º),Aquisição de bens móveis,"33690000-3, Medicamentos vários","Centro Hospitalar Lisboa Norte, E. P. E. (508481287)","CSL BEHRING,Ldª (503047201)","960.000,00 €",13-11-2017,02-10-2017,90 dias,"Portugal, Lisboa, Lisboa",Artigo 259.º do Código dos Contratos Públicos,,,,,,1423488,ACORDO QUADRO PARA FORNECIMENTO DE DERIVADOS DO PLASMA HUMANO ÀS INSTITUIÇÕES E SERVIÇOS DO SERVIÇO NACIONAL DE SAÚDE CP 2015/9,FALSE
Compra centralizada CPA 2015/6 -P259-AC-2017-121,Ao abrigo de acordo-quadro (art.º 259.º),Aquisição de bens móveis,"33690000-3, Medicamentos vários","Centro Hospitalar Lisboa Norte, E. P. E. (508481287)","SPMS- Serviços Partilhados do M. da Saúde, E.P.E. (509540716)","1.127,70 €",13-11-2017,13-11-2017,48 dias,"Portugal, Lisboa, Lisboa",Artigo 259.º do Código dos Contratos Públicos,,,,,,1771819,CP 2015/6 - Acordo quadro para o fornecimento de Medicamentos do Foro Oncológico,FALSE
