Objeto do Contrato,Tipo de Procedimento,Tipo(s) de Contrato,CPVs,Entidade(s) Adjudicante(s),Entidade(s) Adjudicatária(s),Preço Contratual,Data de Publicação,Data de Celebração do Contrato,Prazo de Execução,Local de Execução,Fundamentação,Data de Fecho do Contrato,Preço Total Efetivo,Causas das Alterações ao Prazo,Causas das Alterações ao Preço,Estado,N.º registo do Acordo Quadro,Descrição do Acordo Quadro,Procedimento Centralizado
"Formação de um contrato de aquisição de Serviços de Auditorias Financeiras completas a entidades do Ministério da Saúde, de acordo com lote 1 do caderno de encargos que deu origem ao presente contrato",Ao abrigo de acordo-quadro (art.º 259.º),Aquisição de serviços,"79210000-9, Serviços de contabilidade e auditoria","Hospital de Santa Maria Maior, E. P. E. (506361381)","Oliveira, Reis & Associados, SROC, Lda (501266259)","3.712,50 €",11-11-2015,29-09-2015,60 dias,"Portugal, Braga, Barcelos",Artigo 259.º do Código dos Contratos Públicos,,,,,,1487168,CELEBRAÇÃO DE ACORDO QUADRO PARA PRESTAÇÃO DE SERVIÇOS DE AUDITORIAS FINANCEIRAS,FALSE
Prestação de Serviços Médicos para o Serviço de Urgência,Ao abrigo de acordo-quadro (art.º 259.º),Aquisição de serviços,"85121100-4, Serviços de médicos de clínica geral","Hospital Santa Maria Maior, E. P. E. (506361381)","GS24 - Healthcare Solutions, S.A. (507824652)","21,62 €",02-11-2015,20-06-2014,365 dias,"Portugal, Braga, Barcelos",Artigo 259.º do Código dos Contratos Públicos,,,,,,454020,"CONCURSO PÚBLICO PARA A CELEBRAÇÃO DE CONTRATOS PÚBLICOS DE APROVISIONAMENTO PARA A ÁREA DA SAÚDE, COM VISTA À PRESTAÇÃO DE SERVIÇOS MÉDICOS ÀS INSTITUIÇÕES E SERVIÇOS DO SERVIÇO NACIONAL DE SAÚDE",FALSE
