Objeto do Contrato,Tipo de Procedimento,Tipo(s) de Contrato,CPVs,Entidade(s) Adjudicante(s),Entidade(s) Adjudicatária(s),Preço Contratual,Data de Publicação,Data de Celebração do Contrato,Prazo de Execução,Local de Execução,Fundamentação,Data de Fecho do Contrato,Preço Total Efetivo,Causas das Alterações ao Prazo,Causas das Alterações ao Preço,Estado,N.º registo do Acordo Quadro,Descrição do Acordo Quadro,Procedimento Centralizado
"Aquisição de imunoglobulina contra a raiva, no âmbito da reserva nacional",Ajuste Direto Regime Geral,Aquisição de bens móveis,"24000000-4, Produtos químicos",Direção-Geral da Saúde (600037100),"Sanofi Pasteur MSD, SA (507632796)","10.620,00 €",08-02-2016,09-10-2015,365 dias,"Portugal, Lisboa, Lisboa","Artigo 20.º, n.º 1, alínea a) do Código dos Contratos Públicos","","",,,,Não aplicável.,Não aplicável.,FALSE
"Manutenção aplicacional e apoio aos utilizadores dos sistemas HELICS UCI, HELICS CIR, UCI-RN e INCS",Ajuste Direto Regime Geral,Aquisição de serviços,"72000000-5, Serviços de TI: consultoria, desenvolvimento de software, Internet e apoio",Direção-Geral da Saúde (600037100),"Byvalue, Sistemas de Informação Lda (508124948)","7.740,00 €",08-02-2016,30-09-2015,365 dias,"Portugal, Lisboa, Lisboa","Artigo 20.º, n.º 1, alínea a) do Código dos Contratos Públicos",31-12-2015,"7.740,00 €",,,,Não aplicável.,Não aplicável.,FALSE
Realização de um estudo estatístico no âmbito da Doença Pulmonar Obstrutiva Crónica,Ajuste Direto Regime Geral,Aquisição de serviços,"79000000-4, Serviços a empresas: direito, comercialização, consultoria, recrutamento, impressão e segurança",Direção-Geral da Saúde (600037100),"IASIST Portugal, Consultoria na Área da Saúde Unipessoal, Lda (508052971)","35.000,00 €",08-02-2016,09-10-2015,60 dias,"Portugal, Lisboa, Lisboa","Artigo 20.º, n.º 1, alínea a) do Código dos Contratos Públicos",08-12-2015,"35.000,00 €",,,,Não aplicável.,Não aplicável.,FALSE
Prestação de serviços de manutenção e alojamento do Portal Ébola,Ajuste Direto Regime Geral,Aquisição de serviços,"72000000-5, Serviços de TI: consultoria, desenvolvimento de software, Internet e apoio",Direção-Geral da Saúde (600037100),"MWE, Consulting Lda (513148949)","13.360,00 €",08-02-2016,26-08-2015,365 dias,"Portugal, Lisboa, Lisboa","Artigo 20.º, n.º 1, alínea a) do Código dos Contratos Públicos",31-12-2015,"13.360,00 €",,,,Não aplicável.,Não aplicável.,FALSE
