Objeto do Contrato,Tipo de Procedimento,Tipo(s) de Contrato,CPVs,Entidade(s) Adjudicante(s),Entidade(s) Adjudicatária(s),Preço Contratual,Data de Publicação,Data de Celebração do Contrato,Prazo de Execução,Local de Execução,Fundamentação,Data de Fecho do Contrato,Preço Total Efetivo,Causas das Alterações ao Prazo,Causas das Alterações ao Preço,Estado,N.º registo do Acordo Quadro,Descrição do Acordo Quadro,Procedimento Centralizado
Serviços combinados de vigilância e segurança humana e de ligação a central de receção e monitorização de alarmes.,Ajuste Direto Regime Geral,Aquisição de serviços,"79000000-4, Serviços a empresas: direito, comercialização, consultoria, recrutamento, impressão e segurança","Instituto Nacional de Emergência Médica, I. P. (501356126)","PRESTIBEL - Empresa de Segurança, S.A. (501326456)","36.617,50 €",22-04-2015,09-04-2015,30 dias,"Portugal, Porto, Vila Nova de Gaia<BR/>Portugal, Coimbra, Coimbra<BR/>Portugal, Lisboa, Lisboa<BR/>Portugal, Porto, Porto","Artigo 24.º, n.º 1, alínea c) do Código dos Contratos Públicos",,,,,,Não aplicável.,Não aplicável.,FALSE
Serviços de comunicações de voz,Ajuste Direto Regime Geral,Aquisição de serviços,"64000000-6, Serviços postais e de telecomunicações","Instituto Nacional de Emergência Médica, I. P. (501356126)","ONITELECOM - Infocomunicações, S.A. (504073206)","118.733,02 €",22-04-2015,09-04-2015,183 dias,"Portugal, Portugal Continental","Artigo 24.º, n.º 1, alínea c) do Código dos Contratos Públicos",,,,,,Não aplicável.,Não aplicável.,FALSE
Aquisição de hardware VMER Monitoring System,Ajuste Direto Regime Geral,Aquisição de bens móveis,"30000000-9, Máquinas, equipamento e material de escritório e de informática, excepto mobiliário e pacotes de programas (software)","Instituto Nacional de Emergência Médica, I. P. (501356126)","NATIONAL INSTRUMENTS PORTUGAL UNIPESSOAL, LDA.  (504597892)","40.057,12 €",22-04-2015,10-04-2015,180 dias,"Portugal, Lisboa, Lisboa","Artigo 20.º, n.º 1, alínea a) do Código dos Contratos Públicos",,,,,,Não aplicável.,Não aplicável.,FALSE
Aquisição de serviços de comunicações móveis.,Ajuste Direto Regime Geral,Aquisição de serviços,"64000000-6, Serviços postais e de telecomunicações","Instituto Nacional de Emergência Médica, I. P. (501356126)","MEO - Serviços de Comunicações e Multimédia, S.A. (504615947)","68.600,05 €",21-04-2015,23-03-2015,153 dias,"Portugal, Portugal Continental","Artigo 24.º, n.º 1, alínea c) do Código dos Contratos Públicos",,,,,,Não aplicável.,Não aplicável.,FALSE
"Assistência técnica e manutenção ao sistema informático e de rede do INEM, I.P.",Ajuste Direto Regime Geral,Aquisição de serviços,"72000000-5, Serviços de TI: consultoria, desenvolvimento de software, Internet e apoio","Instituto Nacional de Emergência Médica, I. P. (501356126)","INTEGRATOR - Tecnologias de Informação, Lda. (506619290)","21.436,80 €",21-04-2015,30-03-2015,89 dias,Portugal,"Artigo 20.º, n.º 1, alínea a) do Código dos Contratos Públicos",,,,,,Não aplicável.,Não aplicável.,FALSE
