Objeto do Contrato,Tipo de Procedimento,Tipo(s) de Contrato,CPVs,Entidade(s) Adjudicante(s),Entidade(s) Adjudicatária(s),Preço Contratual,Data de Publicação,Data de Celebração do Contrato,Prazo de Execução,Local de Execução,Fundamentação,Data de Fecho do Contrato,Preço Total Efetivo,Causas das Alterações ao Prazo,Causas das Alterações ao Preço,Estado,N.º registo do Acordo Quadro,Descrição do Acordo Quadro,Procedimento Centralizado
REAGENTES,Ajuste Direto Regime Geral,Aquisição de bens móveis,"33696500-0, Reagentes de laboratório","Centro Hospitalar de Lisboa Central, E. P. E. (508080142)",BIOMERIEUX (501524177),"1.355,55 €",09-05-2014,02-05-2014,242 dias,"Portugal, Lisboa, Lisboa","Artigo 26.º, n.º 1, alínea a) do Código dos Contratos Públicos",,,,,,Não aplicável.,Não aplicável.,FALSE
REAGENTES,Ajuste Direto Regime Geral,Aquisição de bens móveis,"33696500-0, Reagentes de laboratório","Centro Hospitalar de Lisboa Central, E. P. E. (508080142)",DIAMED (501675809),"4.892,27 €",09-05-2014,30-04-2014,245 dias,"Portugal, Lisboa, Lisboa","Artigo 26.º, n.º 1, alínea a) do Código dos Contratos Públicos",,,,,,Não aplicável.,Não aplicável.,FALSE
PAINEIS DE CELULAS,Ajuste Direto Regime Geral,Aquisição de bens móveis,"33696500-0, Reagentes de laboratório","Centro Hospitalar de Lisboa Central, E. P. E. (508080142)",GRIFOLS (502041285),"1.040,40 €",09-05-2014,30-04-2014,253 dias,"Portugal, Lisboa, Lisboa","Artigo 26.º, n.º 1, alínea a) do Código dos Contratos Públicos",,,,,,Não aplicável.,Não aplicável.,FALSE
PAINEL CELULAS REVERSA / PESQUISA,Ajuste Direto Regime Geral,Aquisição de bens móveis,"33696500-0, Reagentes de laboratório","Centro Hospitalar de Lisboa Central, E. P. E. (508080142)",DIAMED (501675809),"54,80 €",09-05-2014,22-04-2014,253 dias,"Portugal, Lisboa, Lisboa","Artigo 26.º, n.º 1, alínea a) do Código dos Contratos Públicos",,,,,,Não aplicável.,Não aplicável.,FALSE
ENZIMA PLATINIUM Q PCR SUPERMIX (UDG),Ajuste Direto Regime Geral,Aquisição de bens móveis,"33696500-0, Reagentes de laboratório","Centro Hospitalar de Lisboa Central, E. P. E. (508080142)",ALFAGENE (503387398),"4.989,60 €",09-05-2014,29-04-2014,246 dias,"Portugal, Lisboa, Lisboa","Artigo 26.º, n.º 1, alínea a) do Código dos Contratos Públicos",,,,,,Não aplicável.,Não aplicável.,FALSE
DILUENTE II,Ajuste Direto Regime Geral,Aquisição de bens móveis,"33696500-0, Reagentes de laboratório","Centro Hospitalar de Lisboa Central, E. P. E. (508080142)",DIAMED (501675809),"2.765,00 €",09-05-2014,21-03-2014,285 dias,"Portugal, Lisboa, Lisboa","Artigo 26.º, n.º 1, alínea a) do Código dos Contratos Públicos",,,,,,Não aplicável.,Não aplicável.,FALSE
REAGENTE PARA EXTRAÇÃO DNA/RNA EASY MAG,Ajuste Direto Regime Geral,Aquisição de bens móveis,"33696500-0, Reagentes de laboratório","Centro Hospitalar de Lisboa Central, E. P. E. (508080142)",BIOMERIEUX (501524177),"4.051,15 €",09-05-2014,28-03-2014,278 dias,"Portugal, Lisboa, Lisboa","Artigo 26.º, n.º 1, alínea a) do Código dos Contratos Públicos",,,,,,Não aplicável.,Não aplicável.,FALSE
REAGENTES PARA EXTRAÇÃO EZ1 VIRUS MINI KIT,Ajuste Direto Regime Geral,Aquisição de bens móveis,"33696500-0, Reagentes de laboratório","Centro Hospitalar de Lisboa Central, E. P. E. (508080142)",QUILABAN (500399670),"2.207,50 €",09-05-2014,25-03-2014,281 dias,"Portugal, Lisboa, Lisboa","Artigo 26.º, n.º 1, alínea a) do Código dos Contratos Públicos",,,,,,Não aplicável.,Não aplicável.,FALSE
DILUENTE I BROMELINA,Ajuste Direto Regime Geral,Aquisição de bens móveis,"33696500-0, Reagentes de laboratório","Centro Hospitalar de Lisboa Central, E. P. E. (508080142)",GRIFOLS (502041285),"1.140,00 €",09-05-2014,18-03-2014,288 dias,"Portugal, Lisboa, Lisboa","Artigo 26.º, n.º 1, alínea a) do Código dos Contratos Públicos",,,,,,Não aplicável.,Não aplicável.,FALSE
PAINEIS DE CÉLULAS,Ajuste Direto Regime Geral,Aquisição de bens móveis,"33696500-0, Reagentes de laboratório","Centro Hospitalar de Lisboa Central, E. P. E. (508080142)",DIAMED (501675809),"4.892,27 €",09-05-2014,11-03-2014,351 dias,"Portugal, Lisboa, Lisboa","Artigo 26.º, n.º 1, alínea a) do Código dos Contratos Públicos",,,,,,Não aplicável.,Não aplicável.,FALSE
Aquisição de kit cell,Ajuste Direto Regime Geral,Aquisição de bens móveis,"33140000-3, Material médico de consumo","Centro Hospitalar de Lisboa Central, E.P.E. (CHLC) (508080142)","Ferrer Hospitalar, S.A. (504507680)","9.146,00 €",09-05-2014,09-05-2014,237 dias,"Portugal, Lisboa, Lisboa","Artigo 20.º, n.º 1, alínea a) do Código dos Contratos Públicos",,,,,,Não aplicável.,Não aplicável.,FALSE
Aquisição de compressas e tampões posições desertas do concurso publico 1-2.0043/14,Ajuste Direto Regime Geral,Aquisição de bens móveis,"33198100-5, Compressas de papel","Centro Hospitalar de Lisboa Central, E.P.E. (CHLC) (508080142)",Molnlycke Health Care (511101066),"5.950,43 €",09-05-2014,28-03-2014,278 dias,"Portugal, Lisboa, Lisboa","Artigo 24.º, n.º 1, alínea b) do Código dos Contratos Públicos",,,,,,Não aplicável.,Não aplicável.,FALSE
Diversos sistemas para bombas perfusoras,Concurso público,Aquisição de bens móveis,"33140000-3, Material médico de consumo","Centro Hospitalar de Lisboa Central, E. P. E. (508080142)","Hospira Portugal, Lda. (502918098)","32.000,00 €",09-05-2014,05-05-2014,237 dias,"Portugal, Lisboa, Lisboa","Artigo 20.º, n.º 1, alínea b) do Código dos Contratos Públicos",,,,,,Não aplicável.,Não aplicável.,FALSE
AQUISIÇÃO DE MANGA MISTA SEM FOLE,Ao abrigo de acordo-quadro (art.º 259.º),Aquisição de bens móveis,"33140000-3, Material médico de consumo","Centro Hospitalar de Lisboa Central, E. P. E. (508080142)","Pergut Portugal - Comercio de Produtos Hospitalares e Médicos, Lda (501799729)","1.634,64 €",09-05-2014,09-05-2014,251 dias,"Portugal, Lisboa, Lisboa",Artigo 259.º do Código dos Contratos Públicos,,,,,,540623,"CONCURSO PÚBLICO PARA A CELEBRAÇÃO DE CONTRATOS PÚBLICOS DE APROVISIONAMENTO PARA A ÁREA DA SAÚDE, COM VISTA AO FORNECIMENTO DE MATERIAL DISPOSABLE DE BLOCO OPERATÓRIO - PARTE 3, ÀS INSTITUIÇÕES E SERVIÇOS DO SERVIÇO NACIONAL DE SAÚDE",FALSE
"Aquisição de serviços referente á inspecção aos geradores de vapor do CHLC,EPE ",Ajuste Direto Regime Geral,Aquisição de serviços,"98300000-6, Serviços diversos","Centro Hospitalar de Lisboa Central, E. P. E. (508080142)",Instituto Soldadura Qualidade (500140022),"350,00 €",08-05-2014,10-02-2014,2 dias,"Portugal, Lisboa, Oeiras","Artigo 24.º, n.º 2, alínea c) do Código dos Contratos Públicos",,,,,,Não aplicável.,Não aplicável.,FALSE
"Aquisição de serviços referente á calibração dos equipamentos do CHLC,EPE",Ajuste Direto Regime Geral,Aquisição de serviços,"50800000-3, Serviços de reparação e manutenção diversos","Centro Hospitalar de Lisboa Central, E. P. E. (508080142)","E.I.A.- Electrónica Industrial de Alverca,Lda (502451033)","13.538,00 €",08-05-2014,12-03-2014,294 dias,"Portugal, Lisboa, Vila Franca de Xira","Artigo 20.º, n.º 1, alínea a) do Código dos Contratos Públicos",,,,,,Não aplicável.,Não aplicável.,FALSE
Particulas de PVA Calibradas e não calibradas,Concurso público,Aquisição de bens móveis,"33140000-3, Material médico de consumo","Centro Hospitalar de Lisboa Central, E. P. E. (508080142)",Boston Scientific (504988964),"93.350,40 €",08-05-2014,05-05-2014,240 dias,"Portugal, Lisboa, Lisboa","Artigo 20.º, n.º 1, alínea b) do Código dos Contratos Públicos",,,,,,Não aplicável.,Não aplicável.,FALSE
Diverso Material de Neuroradiologia,Concurso público,Aquisição de bens móveis,"33140000-3, Material médico de consumo","Centro Hospitalar de Lisboa Central, E. P. E. (508080142)",Medicinalia-Cormedica (500684324),"13.500,00 €",08-05-2014,29-04-2014,270 dias,"Portugal, Lisboa, Lisboa","Artigo 20.º, n.º 1, alínea b) do Código dos Contratos Públicos",,,,,,Não aplicável.,Não aplicável.,FALSE
Aquisição de lâmina para conexão esteril de tubuladuras,Ajuste Direto Regime Geral,Aquisição de bens móveis,"33140000-3, Material médico de consumo","Centro Hospitalar de Lisboa Central, E. P. E. (508080142)","Terumo BCT Europe NV, Sucursal en España (W0021849E)","13.500,00 €",08-05-2014,28-04-2014,247 dias,"Portugal, Lisboa, Lisboa","Artigo 20.º, n.º 1, alínea a) do Código dos Contratos Públicos",,,,,,Não aplicável.,Não aplicável.,FALSE
Aquisição de kite de aferese - Auto PBSC,Ajuste Direto Regime Geral,Aquisição de bens móveis,"33140000-3, Material médico de consumo","Centro Hospitalar de Lisboa Central, E.P.E. (CHLC) (508080142)","Terumo BCT Europe NV, Sucursal en España (W0021849E)","29.118,00 €",08-05-2014,06-05-2014,126 dias,"Portugal, Lisboa, Lisboa","Artigo 20.º, n.º 1, alínea a) do Código dos Contratos Públicos",,,,,,Não aplicável.,Não aplicável.,FALSE
PAINEIS DE CÉLULAS,Ajuste Direto Regime Geral,Aquisição de bens móveis,"33696500-0, Reagentes de laboratório","Centro Hospitalar de Lisboa Central, E. P. E. (508080142)",GRIFOLS (502041285),"1.040,40 €",07-05-2014,11-03-2014,295 dias,"Portugal, Lisboa, Lisboa","Artigo 26.º, n.º 1, alínea a) do Código dos Contratos Públicos",,,,,,Não aplicável.,Não aplicável.,FALSE
DILUENTE II,Ajuste Direto Regime Geral,Aquisição de bens móveis,"33696500-0, Reagentes de laboratório","Centro Hospitalar de Lisboa Central, E. P. E. (508080142)",DIAMED (501675809),"1.145,50 €",07-05-2014,03-03-2014,303 dias,"Portugal, Lisboa, Lisboa","Artigo 26.º, n.º 1, alínea a) do Código dos Contratos Públicos",,,,,,Não aplicável.,Não aplicável.,FALSE
COAGULAÇÃO CONTROLO NORMAL,Ajuste Direto Regime Geral,Aquisição de bens móveis,"33696500-0, Reagentes de laboratório","Centro Hospitalar de Lisboa Central, E. P. E. (508080142)",IZASA (501086110),"230,64 €",07-05-2014,12-03-2014,294 dias,"Portugal, Lisboa, Lisboa","Artigo 26.º, n.º 1, alínea a) do Código dos Contratos Públicos",,,,,,Não aplicável.,Não aplicável.,FALSE
PAINEL DE CELULAS,Ajuste Direto Regime Geral,Aquisição de bens móveis,"33696500-0, Reagentes de laboratório","Centro Hospitalar de Lisboa Central, E. P. E. (508080142)",DIAMED (501675809),"650,32 €",07-05-2014,24-02-2014,310 dias,"Portugal, Lisboa, Lisboa","Artigo 26.º, n.º 1, alínea a) do Código dos Contratos Públicos",,,,,,Não aplicável.,Não aplicável.,FALSE
SOLUÇÃO RINSE,Ajuste Direto Regime Geral,Aquisição de bens móveis,"33696500-0, Reagentes de laboratório","Centro Hospitalar de Lisboa Central, E. P. E. (508080142)",IZASA (501086110),"957,70 €",07-05-2014,21-02-2014,313 dias,"Portugal, Lisboa, Lisboa","Artigo 26.º, n.º 1, alínea a) do Código dos Contratos Públicos",,,,,,Não aplicável.,Não aplicável.,FALSE
4-2.0821/14 - Aquisição de Lavagem e Aspiração de Ossos,Ajuste Direto Regime Geral,Aquisição de bens móveis,"33140000-3, Material médico de consumo","Centro Hospitalar de Lisboa Central, E. P. E. (508080142)",Smith & Nephew (503552461),"4.948,90 €",07-05-2014,07-05-2014,240 dias,"Portugal, Lisboa, Lisboa","Artigo 20.º, n.º 1, alínea a) do Código dos Contratos Públicos",,,,,,Não aplicável.,Não aplicável.,FALSE
"Aquisição de cateter angioplastia para nefrologia e espiral de embolização 0,35",Ajuste Direto Regime Geral,Aquisição de bens móveis,"33140000-3, Material médico de consumo","Centro Hospitalar de Lisboa Central, E.P.E. (CHLC) (508080142)","Biosonda - Comercio Material Hospitalar, Lda (501463313)","23.760,00 €",07-05-2014,28-04-2014,247 dias,"Portugal, Lisboa, Lisboa","Artigo 20.º, n.º 4 do Código dos Contratos Públicos",,,,,,Não aplicável.,Não aplicável.,FALSE
"Aquisição de cateter angioplastia para nefrologia e espiral de embolização 0,35",Ajuste Direto Regime Geral,Aquisição de bens móveis,"33140000-3, Material médico de consumo","Centro Hospitalar de Lisboa Central, E.P.E. (CHLC) (508080142)","C.R. Bard Portugal, Lda (502438274)","23.450,00 €",07-05-2014,28-04-2014,247 dias,"Portugal, Lisboa, Lisboa","Artigo 20.º, n.º 1, alínea a) do Código dos Contratos Públicos",,,,,,Não aplicável.,Não aplicável.,FALSE
4-2.0627/14 - Aquisição de Material de Perfusão,Ajuste Direto Regime Geral,Aquisição de bens móveis,"33140000-3, Material médico de consumo","Centro Hospitalar de Lisboa Central, E. P. E. (508080142)",PMH (502376899),"2.508,00 €",06-05-2014,06-05-2014,240 dias,"Portugal, Lisboa, Lisboa","Artigo 20.º, n.º 1, alínea a) do Código dos Contratos Públicos",,,,,,Não aplicável.,Não aplicável.,FALSE
410251/14LIDOCAINA 700 MG PENSO IMPREGNADO,Ajuste Direto Regime Geral,Aquisição de bens móveis,"33000000-0, Equipamento médico, medicamentos e produtos para cuidados pessoais","Centro Hospitalar de Lisboa Central, E. P. E. (508080142)",Grunenthal Lda (500101965),"13.290,60 €",06-05-2014,07-03-2014,308 dias,"Portugal, Lisboa, Lisboa","Artigo 24.º, n.º 1, alínea e) do Código dos Contratos Públicos",,,,,,Não aplicável.,Não aplicável.,FALSE
Sistemas para alimentação entérica,Ajuste Direto Regime Geral,Aquisição de bens móveis,"33100000-1, Equipamento médico","Centro Hospitalar de Lisboa Central, E.P.E. (CHLC) (508080142)","Covidien Portugal, Lda. (503413410)","20.200,00 €",06-05-2014,06-05-2014,239 dias,"Portugal, Lisboa, Lisboa","Artigo 20.º, n.º 1, alínea a) do Código dos Contratos Públicos",,,,,,Não aplicável.,Não aplicável.,FALSE
510435/14BENZOATO DE BENZILO 277 MG/ML SOL CUT FR 200 ML,Ao abrigo de acordo-quadro (art.º 259.º),Aquisição de bens móveis,"33000000-0, Equipamento médico, medicamentos e produtos para cuidados pessoais","Centro Hospitalar de Lisboa Central, E. P. E. (508080142)",Bial- Portela & Cª S.A (500220913),"251,60 €",06-05-2014,29-04-2014,253 dias,"Portugal, Lisboa, Lisboa",Artigo 259.º do Código dos Contratos Públicos,,,,,,602875,"CONCURSO PÚBLICO PARA A CELEBRAÇÃO DE CONTRATOS PÚBLICOS DE APROVISIONAMENTO PARA A ÁREA DA SAÚDE, COM VISTA AO FORNECIMENTO DE MEDICAMENTOS DE CONSUMO GERAL - USADOS NAS AFECÇÕES CUTÂNEAS, ÀS INSTITUIÇÕES E SERVIÇOS DO SERVIÇO NACIONAL DE SAÚDE",FALSE
"Agulhas epicraneanas, de punção lombar e para neuro-estimulação",Ajuste Direto Regime Geral,Aquisição de bens móveis,"33000000-0, Equipamento médico, medicamentos e produtos para cuidados pessoais","Centro Hospitalar de Lisboa Central, E. P. E. (508080142)","H.R. - Hospitalar, Lda. (501895558)","1.223,75 €",06-05-2014,05-05-2014,239 dias,"Portugal, Lisboa, Lisboa","Artigo 20.º, n.º 1, alínea a) do Código dos Contratos Públicos",,,,,,Não aplicável.,Não aplicável.,FALSE
"Aquisição de Agulhas, Aspirador e Cateteres de Aspiração",Concurso público,Aquisição de bens móveis,"33140000-3, Material médico de consumo","Centro Hospitalar de Lisboa Central, E. P. E. (508080142)",MAquet (506819698),"50.714,40 €",06-05-2014,15-04-2014,270 dias,"Portugal, Lisboa, Lisboa","Artigo 20.º, n.º 1, alínea b) do Código dos Contratos Públicos",,,,,,Não aplicável.,Não aplicável.,FALSE
Diverso material para neuroradiologia,Concurso público,Aquisição de bens móveis,"33140000-3, Material médico de consumo","Centro Hospitalar de Lisboa Central, E. P. E. (508080142)",world medica (B-82612599),"4.548,00 €",06-05-2014,29-04-2014,270 dias,"Portugal, Lisboa, Lisboa","Artigo 20.º, n.º 1, alínea b) do Código dos Contratos Públicos",,,,,,Não aplicável.,Não aplicável.,FALSE
Diverso material para neuroradiologia,Concurso público,Aquisição de bens móveis,"33140000-3, Material médico de consumo","Centro Hospitalar de Lisboa Central, E. P. E. (508080142)",Socime II (504453939),"9.690,00 €",06-05-2014,29-04-2014,270 dias,"Portugal, Lisboa, Lisboa","Artigo 20.º, n.º 1, alínea b) do Código dos Contratos Públicos",,,,,,Não aplicável.,Não aplicável.,FALSE
Diverso material para neuroradiologia,Concurso público,Aquisição de bens móveis,"33140000-3, Material médico de consumo","Centro Hospitalar de Lisboa Central, E. P. E. (508080142)",Intersurgical (503480045),"4.200,00 €",06-05-2014,29-04-2014,270 dias,"Portugal, Lisboa, Lisboa","Artigo 20.º, n.º 1, alínea b) do Código dos Contratos Públicos",,,,,,Não aplicável.,Não aplicável.,FALSE
Diverso material para neuroradiologia,Concurso público,Aquisição de bens móveis,"33140000-3, Material médico de consumo","Centro Hospitalar de Lisboa Central, E. P. E. (508080142)",Clinifar (503281115),"4.350,00 €",06-05-2014,29-04-2014,270 dias,"Portugal, Lisboa, Lisboa","Artigo 20.º, n.º 1, alínea b) do Código dos Contratos Públicos",,,,,,Não aplicável.,Não aplicável.,FALSE
Diverso material para neuroradiologia,Concurso público,Aquisição de bens móveis,"33140000-3, Material médico de consumo","Centro Hospitalar de Lisboa Central, E. P. E. (508080142)",Biomedica (501745459),"20.400,00 €",06-05-2014,29-04-2014,270 dias,"Portugal, Lisboa, Lisboa","Artigo 20.º, n.º 1, alínea b) do Código dos Contratos Públicos",,,,,,Não aplicável.,Não aplicável.,FALSE
Diverso material para neuroradiologia,Concurso público,Aquisição de bens móveis,"33140000-3, Material médico de consumo","Centro Hospitalar de Lisboa Central, E. P. E. (508080142)",Braun Medical (501506543),"43.350,00 €",06-05-2014,29-04-2014,270 dias,"Portugal, Lisboa, Lisboa","Artigo 20.º, n.º 1, alínea b) do Código dos Contratos Públicos",,,,,,Não aplicável.,Não aplicável.,FALSE
Saco para pca com colocação de equipamento,Ajuste Direto Regime Geral,Aquisição de bens móveis,"33140000-3, Material médico de consumo","Centro Hospitalar de Lisboa Central, E.P.E. (CHLC) (508080142)",Smiths Medical (507445937),"10.800,00 €",06-05-2014,09-04-2014,270 dias,"Portugal, Lisboa, Lisboa","Artigo 20.º, n.º 1, alínea a) do Código dos Contratos Públicos",,,,,,Não aplicável.,Não aplicável.,FALSE
Aquisição de kit´s cateter diálise tuneliz. longa duração de vários tamanhos lotes desertos do cp n.º 1-2.0087/14,Ajuste Direto Regime Geral,Aquisição de bens móveis,"33140000-3, Material médico de consumo","Centro Hospitalar de Lisboa Central, E.P.E. (CHLC) (508080142)","Medinfar-Sorológico - Produtos e Equipamentos, S.A. (501197052)","148.980,00 €",05-05-2014,24-04-2014,251 dias,"Portugal, Lisboa, Lisboa","Artigo 24.º, n.º 1, alínea b) do Código dos Contratos Públicos",,,,,,Não aplicável.,Não aplicável.,FALSE
4-2.0347/14 - Aquisição de Agulhas de Bipsia Prostaticas,Ajuste Direto Regime Geral,Aquisição de bens móveis,"33141323-0, Agulhas de biópsia","Centro Hospitalar de Lisboa Central, E. P. E. (508080142)","Cateter, Produtos Médicos e Hospitalares, Lda (502914319), Clinifar - Produtos Clínicos e Farmacêuticos, S. A. (503281115)","17.977,20 €",05-05-2014,28-04-2014,240 dias,"Portugal, Lisboa, Lisboa","Artigo 20.º, n.º 1, alínea a) do Código dos Contratos Públicos",,,,,,Não aplicável.,Não aplicável.,FALSE
Diversos sistemas e material para administração de aerossóis,Concurso público,Aquisição de bens móveis,"33140000-3, Material médico de consumo","Centro Hospitalar de Lisboa Central, E. P. E. (508080142)","Teleflex Medical, S.A. (980249783)","21.500,00 €",05-05-2014,05-05-2014,240 dias,"Portugal, Lisboa, Lisboa","Artigo 20.º, n.º 1, alínea b) do Código dos Contratos Públicos",,,,,,Não aplicável.,Não aplicável.,FALSE
Diversos sistemas para bombas perfusoras,Concurso público,Aquisição de bens móveis,"33140000-3, Material médico de consumo","Centro Hospitalar de Lisboa Central, E. P. E. (508080142)","B. Braun Medical, Lda. (501506543)","48.460,00 €",05-05-2014,21-04-2014,240 dias,"Portugal, Lisboa, Lisboa","Artigo 20.º, n.º 1, alínea b) do Código dos Contratos Públicos",,,,,,Não aplicável.,Não aplicável.,FALSE
410313/14 OMEPRAZOL 40 MG PÓ SOL INJ FR IV,Ajuste Direto Regime Geral,Aquisição de bens móveis,"33000000-0, Equipamento médico, medicamentos e produtos para cuidados pessoais","Centro Hospitalar de Lisboa Central, E. P. E. (508080142)",Generis Farmaceutica (508107997),"2.415,00 €",02-05-2014,19-03-2014,286 dias,"Portugal, Lisboa, Lisboa","Artigo 20.º, n.º 1, alínea a) do Código dos Contratos Públicos",,,,,,Não aplicável.,Não aplicável.,FALSE
Pacemakers,Ao abrigo de acordo-quadro (art.º 259.º),Aquisição de bens móveis,"33000000-0, Equipamento médico, medicamentos e produtos para cuidados pessoais","Centro Hospitalar de Lisboa Central, E. P. E. (508080142)",Farmimpex Cardio (503061506),"249.845,00 €",02-05-2014,14-04-2014,226 dias,"Portugal, Lisboa, Lisboa",Artigo 259.º do Código dos Contratos Públicos,,,,,,600787,1-2.0019/2013-Concurso Público Internacional Tendente à Celebração de Acordo Quadro para Selecção de Fornecedores de Pacemakers.,FALSE
Pacemakers,Ao abrigo de acordo-quadro (art.º 259.º),Aquisição de bens móveis,"33000000-0, Equipamento médico, medicamentos e produtos para cuidados pessoais","Centro Hospitalar de Lisboa Central, E. P. E. (508080142)",Boston Scientific Portugal (504988964),"38.912,00 €",02-05-2014,10-04-2014,230 dias,"Portugal, Lisboa, Lisboa",Artigo 259.º do Código dos Contratos Públicos,,,,,,600787,1-2.0019/2013-Concurso Público Internacional Tendente à Celebração de Acordo Quadro para Selecção de Fornecedores de Pacemakers.,FALSE
Pacemakers,Ao abrigo de acordo-quadro (art.º 259.º),Aquisição de bens móveis,"33000000-0, Equipamento médico, medicamentos e produtos para cuidados pessoais","Centro Hospitalar de Lisboa Central, E. P. E. (508080142)",St. Jude Medical Portugal (504180746),"81.550,00 €",02-05-2014,08-04-2014,232 dias,"Portugal, Lisboa, Lisboa",Artigo 259.º do Código dos Contratos Públicos,,,,,,600787,1-2.0019/2013-Concurso Público Internacional Tendente à Celebração de Acordo Quadro para Selecção de Fornecedores de Pacemakers.,FALSE
Pacemakers,Ao abrigo de acordo-quadro (art.º 259.º),Aquisição de bens móveis,"33000000-0, Equipamento médico, medicamentos e produtos para cuidados pessoais","Centro Hospitalar de Lisboa Central, E. P. E. (508080142)",Sorincardio (505514010),"188.632,50 €",02-05-2014,04-04-2014,236 dias,"Portugal, Lisboa, Lisboa",Artigo 259.º do Código dos Contratos Públicos,,,,,,600787,1-2.0019/2013-Concurso Público Internacional Tendente à Celebração de Acordo Quadro para Selecção de Fornecedores de Pacemakers.,FALSE
Pacemakers,Ao abrigo de acordo-quadro (art.º 259.º),Aquisição de bens móveis,"33000000-0, Equipamento médico, medicamentos e produtos para cuidados pessoais","Centro Hospitalar de Lisboa Central, E. P. E. (508080142)",Medtronic Portugal (504223933),"167.005,00 €",02-05-2014,04-04-2014,236 dias,"Portugal, Lisboa, Lisboa",Artigo 259.º do Código dos Contratos Públicos,,,,,,600787,1-2.0019/2013-Concurso Público Internacional Tendente à Celebração de Acordo Quadro para Selecção de Fornecedores de Pacemakers.,FALSE
Aquisição de Linezolinda,Ao abrigo de acordo-quadro (art.º 259.º),Aquisição de bens móveis,"33651000-8, Anti-infecciosos gerais de uso sistémico","Centro Hospitalar de Lisboa Central, E. P. E. (508080142)",Pfizer (500162166),"357.928,00 €",02-05-2014,05-02-2014,330 dias,"Portugal, Lisboa, Lisboa",Artigo 259.º do Código dos Contratos Públicos,,,,,,457668,"CONCURSO PÚBLICO PARA A CELEBRAÇÃO DE CONTRATOS PÚBLICOS DE APROVISIONAMENTO PARA A ÁREA DA SAÚDE, COM VISTA AO FORNECIMENTO DE MEDICAMENTOS ANTI-INFECIOSOS: EXCETO ANTIVÍRICOS E ANTUFÚNGICOS, ÀS INSTITUIÇÕES E SERVIÇOS DO SERVIÇO NACIONAL DE SAÚDE",FALSE
Aquisição de dietas.,Ajuste Direto Regime Geral,Aquisição de bens móveis,"33692200-9, Produtos para nutrição parenteral","Centro Hospitalar de Lisboa Central, E. P. E. (508080142)",Nutrícia (507558286),"5.081,72 €",02-05-2014,14-03-2014,292 dias,"Portugal, Lisboa, Lisboa","Artigo 20.º, n.º 1, alínea a) do Código dos Contratos Públicos",,,,,,Não aplicável.,Não aplicável.,FALSE
510196/14TIGECICLINA 50 MG /RIFABUTINA 150 MG CÁPS/DOXICICLINA 100 MG CÁPS,Ao abrigo de acordo-quadro (art.º 259.º),Aquisição de bens móveis,"33000000-0, Equipamento médico, medicamentos e produtos para cuidados pessoais","Centro Hospitalar de Lisboa Central, E. P. E. (508080142)",Laboratórios Pfizer Lda (500162166),"12.098,00 €",02-05-2014,07-01-2014,365 dias,"Portugal, Lisboa, Lisboa",Artigo 259.º do Código dos Contratos Públicos,,,,,,455180,"CONCURSO PÚBLICO PARA A CELEBRAÇÃO DE CONTRATOS PÚBLICOS DE APROVISIONAMENTO PARA A ÁREA DA SAÚDE, COM VISTA AO FORNECIMENTO DE MEDICAMENTOS ANTI-INFECIOSOS: ANTIVÍRICOS E ANTIFÚNGICOS, ÀS INSTITUIÇÕES E SERVIÇOS DO SERVIÇO NACIONAL DE SAÚDE  ",FALSE
