Objeto do Contrato,Tipo de Procedimento,Tipo(s) de Contrato,CPVs,Entidade(s) Adjudicante(s),Entidade(s) Adjudicatária(s),Preço Contratual,Data de Publicação,Data de Celebração do Contrato,Prazo de Execução,Local de Execução,Fundamentação,Data de Fecho do Contrato,Preço Total Efetivo,Causas das Alterações ao Prazo,Causas das Alterações ao Preço,Estado,N.º registo do Acordo Quadro,Descrição do Acordo Quadro,Procedimento Centralizado
Aquisição de medicamentos: Pembrolizumab 50mg,Ajuste Direto Regime Geral,Aquisição de bens móveis,"33690000-3, Medicamentos vários","Hospital do Espírito Santo de Évora, E. P. E. (508085888)","Merck Sharp & Dohme, Lda. (500191360)","5.268,00 €",10-08-2017,24-02-2017,8 dias,"Portugal, Évora, Évora","Artigo 24.º, n.º 1, alínea e) do Código dos Contratos Públicos",,,,,,Não aplicável.,Não aplicável.,FALSE
Aquisição de medicamentos: Pemetrexedo 500mg,Ajuste Direto Regime Geral,Aquisição de bens móveis,"33690000-3, Medicamentos vários","Hospital do Espírito Santo de Évora, E. P. E. (508085888)","LILLY PORTUGAL-PROD.FARMACEUTICOS, LDA (500165602)","5.277,36 €",10-08-2017,19-06-2017,8 dias,"Portugal, Évora, Évora","Artigo 24.º, n.º 1, alínea e) do Código dos Contratos Públicos",,,,,,Não aplicável.,Não aplicável.,FALSE
Aquisição de medicamentos: Pemetrexedo 500mg,Ajuste Direto Regime Geral,Aquisição de bens móveis,"33690000-3, Medicamentos vários","Hospital do Espírito Santo de Évora, E. P. E. (508085888)","LILLY PORTUGAL-PROD.FARMACEUTICOS, LDA (500165602)","5.277,36 €",09-08-2017,11-05-2017,8 dias,"Portugal, Évora, Évora","Artigo 24.º, n.º 1, alínea e) do Código dos Contratos Públicos",,,,,,Não aplicável.,Não aplicável.,FALSE
Aquisição de medicamentos:  Pemetrexedo 500mg,Ajuste Direto Regime Geral,Aquisição de bens móveis,"33690000-3, Medicamentos vários","Hospital do Espírito Santo de Évora, E. P. E. (508085888)","LILLY PORTUGAL-PROD.FARMACEUTICOS, LDA (500165602)","5.277,36 €",09-08-2017,26-04-2017,8 dias,"Portugal, Évora, Évora","Artigo 24.º, n.º 1, alínea e) do Código dos Contratos Públicos",,,,,,Não aplicável.,Não aplicável.,FALSE
Aquisição de medicamentos: Nivolumab 10mg,Ajuste Direto Regime Geral,Aquisição de bens móveis,"33690000-3, Medicamentos vários","Hospital do Espírito Santo de Évora, E. P. E. (508085888)","BRISTOL-MYERS SQUIBB FARMACÊUTICA PORTUGUESA, S.A. (500048193)","5.280,00 €",09-08-2017,13-06-2017,8 dias,"Portugal, Évora, Évora","Artigo 24.º, n.º 1, alínea e) do Código dos Contratos Públicos",,,,,,Não aplicável.,Não aplicável.,FALSE
Aquisição de medicamentos: Lenalidomida 25 mg,Ajuste Direto Regime Geral,Aquisição de bens móveis,"33690000-3, Medicamentos vários","Hospital do Espírito Santo de Évora, E. P. E. (508085888)","CELGENE - SOCIEDADE UNIPESSOAL, LDA (507791690)","5.417,14 €",09-08-2017,30-03-2017,8 dias,"Portugal, Évora, Évora","Artigo 24.º, n.º 1, alínea e) do Código dos Contratos Públicos",,,,,,Não aplicável.,Não aplicável.,FALSE
Aquisição de medicamentos: ibrutinib 140mg,Ajuste Direto Regime Geral,Aquisição de bens móveis,"33690000-3, Medicamentos vários","Hospital do Espírito Santo de Évora, E. P. E. (508085888)","JANSSEN CILAG FARMACÊUTICA, LDA. (500189412)","5.496,57 €",09-08-2017,27-03-2017,8 dias,"Portugal, Évora, Évora","Artigo 24.º, n.º 1, alínea e) do Código dos Contratos Públicos",,,,,,Não aplicável.,Não aplicável.,FALSE
Aquisição de medicamentos: Ibrutinib 140mg,Ajuste Direto Regime Geral,Aquisição de bens móveis,"33690000-3, Medicamentos vários","Hospital do Espírito Santo de Évora, E. P. E. (508085888)","JANSSEN CILAG FARMACÊUTICA, LDA. (500189412)","5.496,57 €",09-08-2017,08-02-2017,8 dias,"Portugal, Évora, Évora","Artigo 24.º, n.º 1, alínea e) do Código dos Contratos Públicos",,,,,,Não aplicável.,Não aplicável.,FALSE
Aquisição de medicamentos: Bosutinib 500mg,Ajuste Direto Regime Geral,Aquisição de bens móveis,"33690000-3, Medicamentos vários","Hospital do Espírito Santo de Évora, E. P. E. (508085888)","Pfizer Biofarmacêutica, Sociedade Unipessoal Lda. (513300376)","5.774,48 €",09-08-2017,21-03-2017,8 dias,"Portugal, Évora, Évora","Artigo 24.º, n.º 1, alínea e) do Código dos Contratos Públicos",,,,,,Não aplicável.,Não aplicável.,FALSE
Aquisição de medicamentos: Moroctocog alfa 1000,Ajuste Direto Regime Geral,Aquisição de bens móveis,"33690000-3, Medicamentos vários","Hospital do Espírito Santo de Évora, E. P. E. (508085888)","Pfizer Biofarmacêutica, Sociedade Unipessoal Lda. (513300376)","5.789,80 €",09-08-2017,16-06-2017,8 dias,"Portugal, Évora, Évora","Artigo 24.º, n.º 1, alínea e) do Código dos Contratos Públicos",,,,,,Não aplicável.,Não aplicável.,FALSE
Aquisição de medicamentos: Moroctocog alfa 1000,Ajuste Direto Regime Geral,Aquisição de bens móveis,"33690000-3, Medicamentos vários","Hospital do Espírito Santo de Évora, E. P. E. (508085888)","Pfizer Biofarmacêutica, Sociedade Unipessoal Lda. (513300376)","5.789,80 €",09-08-2017,30-05-2017,8 dias,"Portugal, Évora, Évora","Artigo 24.º, n.º 1, alínea e) do Código dos Contratos Públicos",,,,,,Não aplicável.,Não aplicável.,FALSE
Aquisição de medicamentos: Moroctocog alfa 1000,Ajuste Direto Regime Geral,Aquisição de bens móveis,"33690000-3, Medicamentos vários","Hospital do Espírito Santo de Évora, E. P. E. (508085888)","Pfizer Biofarmacêutica, Sociedade Unipessoal Lda. (513300376)","5.789,80 €",09-08-2017,28-04-2017,8 dias,"Portugal, Évora, Évora","Artigo 24.º, n.º 1, alínea e) do Código dos Contratos Públicos",,,,,,Não aplicável.,Não aplicável.,FALSE
Aquisição de medicamentos: Fosaprepitant 150mg,Ajuste Direto Regime Geral,Aquisição de bens móveis,"33690000-3, Medicamentos vários","Hospital do Espírito Santo de Évora, E. P. E. (508085888)","MERCK SHARP E DOHME, LDA (500191360)","5.846,00 €",08-08-2017,11-04-2017,8 dias,"Portugal, Évora, Évora","Artigo 26.º, n.º 1, alínea e) do Código dos Contratos Públicos",,,,,,Não aplicável.,Não aplicável.,FALSE
Aquisição de medicamentos: Fosaprepitant 150mg,Ajuste Direto Regime Geral,Aquisição de bens móveis,"33690000-3, Medicamentos vários","Hospital do Espírito Santo de Évora, E. P. E. (508085888)","MERCK SHARP E DOHME, LDA (500191360)","5.846,00 €",08-08-2017,03-03-2017,8 dias,"Portugal, Évora, Évora","Artigo 26.º, n.º 1, alínea e) do Código dos Contratos Públicos",,,,,,Não aplicável.,Não aplicável.,FALSE
Aquisição de medicamentos: Fosaprepitant 150mg,Ajuste Direto Regime Geral,Aquisição de bens móveis,"33690000-3, Medicamentos vários","Hospital do Espírito Santo de Évora, E. P. E. (508085888)","MERCK SHARP E DOHME, LDA (500191360)","5.846,00 €",08-08-2017,15-02-2017,8 dias,"Portugal, Évora, Évora","Artigo 26.º, n.º 1, alínea e) do Código dos Contratos Públicos",,,,,,Não aplicável.,Não aplicável.,FALSE
Aquisição de medicamentos: Omalizumab 150mg,Ajuste Direto Regime Geral,Aquisição de bens móveis,"33690000-3, Medicamentos vários","Hospital do Espírito Santo de Évora, E. P. E. (508085888)","NOVARTIS FARMA-PRODUT.FARMACEUTICOS, SA (500063524)","6.161,80 €",08-08-2017,15-03-2017,8 dias,"Portugal, Évora, Évora","Artigo 24.º, n.º 1, alínea e) do Código dos Contratos Públicos",,,,,,Não aplicável.,Não aplicável.,FALSE
Aquisição de medicamentos; Omalizumab 150mg,Ajuste Direto Regime Geral,Aquisição de bens móveis,"33690000-3, Medicamentos vários","Hospital do Espírito Santo de Évora, E. P. E. (508085888)","NOVARTIS FARMA-PRODUT.FARMACEUTICOS, SA (500063524)","6.161,80 €",08-08-2017,07-02-2017,8 dias,"Portugal, Évora, Évora","Artigo 24.º, n.º 1, alínea e) do Código dos Contratos Públicos",,,,,,Não aplicável.,Não aplicável.,FALSE
Aquisição de medicamentos: Omalizumab 150mg,Ajuste Direto Regime Geral,Aquisição de bens móveis,"33690000-3, Medicamentos vários","Hospital do Espírito Santo de Évora, E. P. E. (508085888)","MERCK SHARP E DOHME, LDA (500191360)","6.161,80 €",08-08-2017,15-02-2017,8 dias,"Portugal, Évora, Évora","Artigo 26.º, n.º 1, alínea e) do Código dos Contratos Públicos",,,,,,Não aplicável.,Não aplicável.,FALSE
Aquisição de medicamentos: Pembrolizumab 50mg,Ajuste Direto Regime Geral,Aquisição de bens móveis,"33690000-3, Medicamentos vários","Hospital do Espírito Santo de Évora, E. P. E. (508085888)","MERCK SHARP E DOHME, LDA (500191360)","6.300,00 €",08-08-2017,26-04-2017,8 dias,"Portugal, Évora, Évora","Artigo 24.º, n.º 1, alínea e) do Código dos Contratos Públicos",,,,,,Não aplicável.,Não aplicável.,FALSE
Aquisição de medicamentos: Etanercept 50mg,Ajuste Direto Regime Geral,Aquisição de bens móveis,"33690000-3, Medicamentos vários","Hospital do Espírito Santo de Évora, E. P. E. (508085888)","Pfizer Biofarmacêutica, Sociedade Unipessoal Lda. (513300376)","6.318,25 €",08-08-2017,20-06-2017,8 dias,"Portugal, Évora, Évora","Artigo 26.º, n.º 1, alínea e) do Código dos Contratos Públicos",,,,,,Não aplicável.,Não aplicável.,FALSE
Aquisição de medicamentos: Etanercept 50mg,Ajuste Direto Regime Geral,Aquisição de bens móveis,"33690000-3, Medicamentos vários","Hospital do Espírito Santo de Évora, E. P. E. (508085888)","Pfizer Biofarmacêutica, Sociedade Unipessoal Lda. (513300376)","6.318,25 €",08-08-2017,17-05-2017,8 dias,"Portugal, Évora, Évora","Artigo 26.º, n.º 1, alínea e) do Código dos Contratos Públicos",,,,,,Não aplicável.,Não aplicável.,FALSE
Aquisição de medicamentos: Etanercept 50 mg,Ajuste Direto Regime Geral,Aquisição de bens móveis,"33690000-3, Medicamentos vários","Hospital do Espírito Santo de Évora, E. P. E. (508085888)","Pfizer Biofarmacêutica, Sociedade Unipessoal Lda. (513300376)","6.318,25 €",08-08-2017,30-03-2017,8 dias,"Portugal, Évora, Évora","Artigo 26.º, n.º 1, alínea e) do Código dos Contratos Públicos",,,,,,Não aplicável.,Não aplicável.,FALSE
Aquisição de medicamentos: Tocilizumab 162mg,Ajuste Direto Regime Geral,Aquisição de bens móveis,"33690000-3, Medicamentos vários","Hospital do Espírito Santo de Évora, E. P. E. (508085888)",Roche (500233810),"6.365,12 €",08-08-2017,15-05-2017,8 dias,"Portugal, Évora, Évora","Artigo 26.º, n.º 1, alínea e) do Código dos Contratos Públicos",,,,,,Não aplicável.,Não aplicável.,FALSE
Aquisição de medicamentos:Tocilizumab 162mg,Ajuste Direto Regime Geral,Aquisição de bens móveis,"33690000-3, Medicamentos vários","Hospital do Espírito Santo de Évora, E. P. E. (508085888)","ROCHE FARMACEUTICA QUIMICA, LDA (500233810)","6.365,12 €",08-08-2017,10-04-2017,8 dias,"Portugal, Évora, Évora","Artigo 26.º, n.º 1, alínea e) do Código dos Contratos Públicos",,,,,,Não aplicável.,Não aplicável.,FALSE
Aquisição de medicamentos:  Tocilizumab,Ajuste Direto Regime Geral,Aquisição de bens móveis,"33690000-3, Medicamentos vários","Hospital do Espírito Santo de Évora, E. P. E. (508085888)","ROCHE FARMACEUTICA QUIMICA, LDA (500233810)","6.365,12 €",07-08-2017,09-03-2017,8 dias,"Portugal, Évora, Évora","Artigo 27.º, n.º 1, alínea e) do Código dos Contratos Públicos",,,,,,Não aplicável.,Não aplicável.,FALSE
Aquisição de medicamentos: Obinutuzumab 25mg,Ajuste Direto Regime Geral,Aquisição de bens móveis,"33690000-3, Medicamentos vários","Hospital do Espírito Santo de Évora, E. P. E. (508085888)","ROCHE FARMACEUTICA QUIMICA, LDA (500233810)","6.453,84 €",07-08-2017,23-06-2017,8 dias,"Portugal, Évora, Évora","Artigo 24.º, n.º 1, alínea e) do Código dos Contratos Públicos",,,,,,Não aplicável.,Não aplicável.,FALSE
Aquisição de medicamentos: Obinutuzumab 25mg,Ajuste Direto Regime Geral,Aquisição de bens móveis,"33690000-3, Medicamentos vários","Hospital do Espírito Santo de Évora, E. P. E. (508085888)","ROCHE FARMACEUTICA QUIMICA, LDA (500233810)","6.453,84 €",07-08-2017,26-04-2017,8 dias,"Portugal, Évora, Évora","Artigo 24.º, n.º 1, alínea e) do Código dos Contratos Públicos",,,,,,Não aplicável.,Não aplicável.,FALSE
Aquisição de medicamentos: Obinutuzumab 25 mg,Ajuste Direto Regime Geral,Aquisição de bens móveis,"33690000-3, Medicamentos vários","Hospital do Espírito Santo de Évora, E. P. E. (508085888)","ROCHE FARMACEUTICA QUIMICA, LDA (500233810)","6.453,84 €",07-08-2017,10-04-2017,8 dias,"Portugal, Évora, Évora","Artigo 24.º, n.º 1, alínea e) do Código dos Contratos Públicos",,,,,,Não aplicável.,Não aplicável.,FALSE
Aquisição de medicamentos: Obinutuzumab 25mg,Ajuste Direto Regime Geral,Aquisição de bens móveis,"33690000-3, Medicamentos vários","Hospital do Espírito Santo de Évora, E. P. E. (508085888)","Roche Farmacêutica Química, Lda. (500233810)","6.453,84 €",07-08-2017,26-04-2017,8 dias,"Portugal, Évora, Évora","Artigo 24.º, n.º 1, alínea e) do Código dos Contratos Públicos",,,,,,Não aplicável.,Não aplicável.,FALSE
Aquisição de medicamentos: Obinutuzumab 25mg,Ajuste Direto Regime Geral,Aquisição de bens móveis,"33690000-3, Medicamentos vários","Hospital do Espírito Santo de Évora, E. P. E. (508085888)","Roche Farmacêutica Química, Lda. (500233810)","6.453,84 €",07-08-2017,07-04-2017,8 dias,"Portugal, Évora, Évora","Artigo 24.º, n.º 1, alínea e) do Código dos Contratos Públicos",,,,,,Não aplicável.,Não aplicável.,FALSE
Aquisição de medicamentos: Obinutuzumab 25mg,Ajuste Direto Regime Geral,Aquisição de bens móveis,"33690000-3, Medicamentos vários","Hospital do Espírito Santo de Évora, E. P. E. (508085888)","Roche Farmacêutica Química, Lda. (500233810)","6.453,84 €",07-08-2017,28-03-2017,8 dias,"Portugal, Évora, Évora","Artigo 24.º, n.º 1, alínea e) do Código dos Contratos Públicos",,,,,,Não aplicável.,Não aplicável.,FALSE
Aquisição de medicamentos: Dexmedetomidina 100mg,Ajuste Direto Regime Geral,Aquisição de bens móveis,"33690000-3, Medicamentos vários","Hospital do Espírito Santo de Évora, E. P. E. (508085888)",ORIONFIN LDA (508907365),"6.480,00 €",07-08-2017,15-03-2017,8 dias,"Portugal, Évora, Évora","Artigo 24.º, n.º 1, alínea e) do Código dos Contratos Públicos",,,,,,Não aplicável.,Não aplicável.,FALSE
Aquisição de medicamentos: Elbasvir 50mg,Ajuste Direto Regime Geral,Aquisição de bens móveis,"33690000-3, Medicamentos vários","Hospital do Espírito Santo de Évora, E. P. E. (508085888)","Merck Sharp & Dohme, Lda. (500191360)","6.700,74 €",07-08-2017,19-04-2017,8 dias,"Portugal, Évora, Évora","Artigo 24.º, n.º 1, alínea e) do Código dos Contratos Públicos",,,,,,Não aplicável.,Não aplicável.,FALSE
Aquisição de medicamentos: Elbasvir 50mg,Ajuste Direto Regime Geral,Aquisição de bens móveis,"33690000-3, Medicamentos vários","Hospital do Espírito Santo de Évora, E. P. E. (508085888)","Merck Sharp & Dohme, Lda. (500191360)","6.700,74 €",07-08-2017,19-04-2017,8 dias,"Portugal, Évora, Évora","Artigo 24.º, n.º 1, alínea e) do Código dos Contratos Públicos",,,,,,Não aplicável.,Não aplicável.,FALSE
Aquisição de medicamentos: Azacitidina 100mg,Ajuste Direto Regime Geral,Aquisição de bens móveis,"33690000-3, Medicamentos vários","Hospital do Espírito Santo de Évora, E. P. E. (508085888)","CELGENE SOCIEDADE UNIPESSOAL, LDA. (507791690)","7.080,00 €",07-08-2017,19-06-2017,8 dias,"Portugal, Évora, Évora","Artigo 24.º, n.º 1, alínea e) do Código dos Contratos Públicos",,,,,,Não aplicável.,Não aplicável.,FALSE
Aquisição de medicamentos: Azacitidina 100mg,Ajuste Direto Regime Geral,Aquisição de bens móveis,"33690000-3, Medicamentos vários","Hospital do Espírito Santo de Évora, E. P. E. (508085888)","CELGENE SOCIEDADE UNIPESSOAL, LDA. (507791690)","7.080,00 €",07-08-2017,07-06-2017,8 dias,"Portugal, Évora, Évora","Artigo 24.º, n.º 1, alínea e) do Código dos Contratos Públicos",,,,,,Não aplicável.,Não aplicável.,FALSE
Aquisição de medicamentos: Azacitidina 100mg,Ajuste Direto Regime Geral,Aquisição de bens móveis,"33690000-3, Medicamentos vários","Hospital do Espírito Santo de Évora, E. P. E. (508085888)","CELGENE SOCIEDADE UNIPESSOAL, LDA. (507791690)","7.080,00 €",07-08-2017,01-06-2017,8 dias,"Portugal, Évora, Évora","Artigo 24.º, n.º 1, alínea e) do Código dos Contratos Públicos",,,,,,Não aplicável.,Não aplicável.,FALSE
Aquisição de medicamentos: Azacitidina 100mg,Ajuste Direto Regime Geral,Aquisição de bens móveis,"33690000-3, Medicamentos vários","Hospital do Espírito Santo de Évora, E. P. E. (508085888)","CELGENE SOCIEDADE UNIPESSOAL, LDA. (507791690)","7.080,00 €",07-08-2017,15-05-2017,8 dias,"Portugal, Évora, Évora","Artigo 24.º, n.º 1, alínea e) do Código dos Contratos Públicos",,,,,,Não aplicável.,Não aplicável.,FALSE
Aquisição de medicamentos: Azacitidina 100mg,Ajuste Direto Regime Geral,Aquisição de bens móveis,"33690000-3, Medicamentos vários","Hospital do Espírito Santo de Évora, E. P. E. (508085888)","CELGENE SOCIEDADE UNIPESSOAL, LDA. (507791690)","7.080,00 €",07-08-2017,08-05-2017,8 dias,"Portugal, Évora, Évora","Artigo 24.º, n.º 1, alínea e) do Código dos Contratos Públicos",,,,,,Não aplicável.,Não aplicável.,FALSE
Aquisição de medicamentos: Azacitidina 100mg,Ajuste Direto Regime Geral,Aquisição de bens móveis,"33690000-3, Medicamentos vários","Hospital do Espírito Santo de Évora, E. P. E. (508085888)","CELGENE SOCIEDADE UNIPESSOAL, LDA. (507791690)","7.080,00 €",07-08-2017,11-04-2017,8 dias,"Portugal, Évora, Évora","Artigo 24.º, n.º 1, alínea e) do Código dos Contratos Públicos",,,,,,Não aplicável.,Não aplicável.,FALSE
Aquisição de medicamentos: Azacitidina 100mg,Ajuste Direto Regime Geral,Aquisição de bens móveis,"33690000-3, Medicamentos vários","Hospital do Espírito Santo de Évora, E. P. E. (508085888)","CELGENE SOCIEDADE UNIPESSOAL, LDA. (507791690)","7.080,00 €",07-08-2017,09-02-2017,8 dias,"Portugal, Évora, Évora","Artigo 24.º, n.º 1, alínea e) do Código dos Contratos Públicos",,,,,,Não aplicável.,Não aplicável.,FALSE
Aquisição de medicamentos: Enoxaparina Sódica 40 mg,Ajuste Direto Regime Geral,Aquisição de bens móveis,"33690000-3, Medicamentos vários","Hospital do Espírito Santo de Évora, E. P. E. (508085888)","SANOFI - PRODUTOS FARMACÊUTICOS, LDA. (500134960)","7.166,88 €",07-08-2017,30-03-2017,8 dias,"Portugal, Évora, Évora","Artigo 24.º, n.º 1, alínea e) do Código dos Contratos Públicos",,,,,,Não aplicável.,Não aplicável.,FALSE
Dispositivos médicos de urologia,Concurso público,Aquisição de bens móveis,"33169000-2, Material cirúrgico","Hospital do Espírito Santo de Évora, E. P. E. (508085888)","COLOPLAST PORTUGAL-SOC.UNIPESSOAL, LDA. (503989037), Boston Scientific Portugal - Disp. Médicos, Lda (504988964), BIOTORAX, LDA (508761913), LUSOPALEX LDA. (503531588), ENDOTÉCNICA - Material Cirurgico, Lda (503818348), Moonsurge (506657035)","113.054,50 €",07-08-2017,10-05-2017,270 dias,"Portugal, Évora, Évora","Artigo 20.º, n.º 1, alínea b) do Código dos Contratos Públicos",,,,,,Não aplicável.,Não aplicável.,FALSE
Prestação de serviços médicos em UCI,Ajuste Direto Regime Geral,Aquisição de serviços,"85120000-6, Serviços de prática médica e serviços conexos","Hospital do Espírito Santo de Évora, E. P. E. (508085888)",Goldfigure Ldª (510281435),"19.656,00 €",07-08-2017,05-04-2017,360 dias,"Portugal, Évora, Évora","Artigo 20.º, n.º 1, alínea a) do Código dos Contratos Públicos",,,,,,Não aplicável.,Não aplicável.,FALSE
Aquisição de medicamentos:  Dinitrato isossórbida,Ajuste Direto Regime Geral,Aquisição de bens móveis,"33690000-3, Medicamentos vários","Hospital do Espírito Santo de Évora, EPE (508085888)","SPCARE, Especialidades Farmacêuticas, Ldª (508284872)","19.653,76 €",07-08-2017,13-06-2017,180 dias,"Portugal, Évora, Évora","Artigo 24.º, n.º 1, alínea e) do Código dos Contratos Públicos",,,,,,Não aplicável.,Não aplicável.,FALSE
Reagentes de autoimunidade,Concurso público,Aquisição de bens móveis,"33696200-7, Reagentes para análises ao sangue","Hospital do Espírito Santo de Évora, E. P. E. (508085888)","Thermo Fisher Diagnostics, Soc. Unip., Lda (506916243), ARIUM - SISTEMAS DE DIAGNÓSTICO, LDA (502501880)","61.776,00 €",07-08-2017,19-04-2017,240 dias,"Portugal, Évora, Évora","Artigo 20.º, n.º 1, alínea b) do Código dos Contratos Públicos",,,,,,Não aplicável.,Não aplicável.,FALSE
Conjuntos de histeroscopia,Ajuste Direto Regime Geral,Aquisição de bens móveis,"33190000-8, Dispositivos e produtos médicos variados","Hospital do Espírito Santo de Évora, E. P. E. (508085888)","Bayer - Portugal, Lda. (500043256)","15.000,00 €",07-08-2017,26-04-2017,240 dias,"Portugal, Évora, Évora","Artigo 24.º, n.º 1, alínea e) do Código dos Contratos Públicos",,,,,,Não aplicável.,Não aplicável.,FALSE
Aquisição de compressas,Ajuste Direto Regime Geral,Aquisição de bens móveis,"33141119-7, Compressas","Hospital do Espírito Santo de Évora, E. P. E. (508085888)","ALBINO DIAS DE ANDRADE, LDA (500013810)","17.150,09 €",07-08-2017,16-05-2017,90 dias,"Portugal, Évora, Évora","Artigo 20.º, n.º 1, alínea a) do Código dos Contratos Públicos",,,,,,Não aplicável.,Não aplicável.,FALSE
Aquisição de reagente p/ determinação de mutações nos genes,Ajuste Direto Regime Geral,Aquisição de bens móveis,"33696000-5, Reagentes e meios de contraste","Hospital do Espírito Santo de Évora, E. P. E. (508085888)",Biocartis NV (BE0827475227),"42.000,00 €",07-08-2017,18-01-2017,365 dias,"Portugal, Évora, Évora","Artigo 20.º, n.º 1, alínea a) do Código dos Contratos Públicos",,,,,,Não aplicável.,Não aplicável.,FALSE
Aquisição de correctivos de volémia,Ao abrigo de acordo-quadro (art.º 259.º),Aquisição de bens móveis,"33690000-3, Medicamentos vários","Hospital do Espírito Santo de Évora, E. P. E. (508085888)","CONFAR CONSORCIO FARMACEUTICO L                    (500070229), B BRAUN MEDICAL LDA (501506543)","308.443,81 €",04-08-2017,27-06-2017,180 dias,"Portugal, Évora, Évora",Artigo 259.º do Código dos Contratos Públicos,,,,,,1331181,Acordo Quadro para fornecimento de corretivos da volémia e outras soluções estéreis às Instituições e Serviços do Serviço Nacional de Saúde,FALSE
Prestação de serviços de assistência técnica,Ajuste Direto Regime Geral,Aquisição de serviços,"71356200-0, Serviços de assistência técnica","Hospital do Espírito Santo de Évora, E. P. E. (508085888)","JOSE COTTA- EQUIPAM.MEDICOS SERVICOS, LDA (500155739)","10.362,75 €",04-08-2017,21-06-2017,365 dias,"Portugal, Évora, Évora","Artigo 24.º, n.º 1, alínea e) do Código dos Contratos Públicos",,,,,,Não aplicável.,Não aplicável.,FALSE
Prestação de serviços de assistência técnica,Ajuste Direto Regime Geral,Aquisição de serviços,"71356200-0, Serviços de assistência técnica","Hospital do Espírito Santo de Évora, E. P. E. (508085888)","HELDER GONÇALVES - ASSIST. TECNICA DE EQUIPAM., LDA (503855421)","2.922,00 €",04-08-2017,17-05-2017,365 dias,"Portugal, Évora, Évora","Artigo 24.º, n.º 1, alínea e) do Código dos Contratos Públicos",,,,,,Não aplicável.,Não aplicável.,FALSE
Prestação de serviços de assistência técnica,Ajuste Direto Regime Geral,Aquisição de serviços,"71356200-0, Serviços de assistência técnica","Hospital do Espírito Santo de Évora, E. P. E. (508085888)","CONSENSO-SISTEMAS SEGURANCA,LDA. (503894516)","833,00 €",04-08-2017,05-04-2017,365 dias,"Portugal, Évora, Évora","Artigo 24.º, n.º 1, alínea e) do Código dos Contratos Públicos",,,,,,Não aplicável.,Não aplicável.,FALSE
Prestação de serviços de assistência técnica,Ajuste Direto Regime Geral,Aquisição de serviços,"71356200-0, Serviços de assistência técnica","Hospital do Espírito Santo de Évora, E. P. E. (508085888)",Attendsys (510306802),"8.616,46 €",04-08-2017,02-06-2017,365 dias,"Portugal, Évora, Évora","Artigo 24.º, n.º 1, alínea e) do Código dos Contratos Públicos",,,,,,Não aplicável.,Não aplicável.,FALSE
Aquisição de medicamento antiretroviral,Ao abrigo de acordo-quadro (art.º 259.º),Aquisição de bens móveis,"33690000-3, Medicamentos vários","Hospital do Espírito Santo de Évora, E. P. E. (508085888)","ViiV Healthcare, Unipessoal Lda (509117961)","27.648,00 €",03-08-2017,27-06-2017,150 dias,"Portugal, Évora, Évora",Artigo 259.º do Código dos Contratos Públicos,,,,,,2183729,Medicamentos antirretrovíricos para o tratamento da infeção por VIH,FALSE
Aquisição de medicamentos do foro oncológico,Ao abrigo de acordo-quadro (art.º 259.º),Aquisição de bens móveis,"33652000-5, Antineoplásicos e imunomoduladores","Hospital do Espírito Santo de Évora, E. P. E. (508085888)","LILLY PORTUGAL - PRODUTOS FARMACEUTICOS, LDA (500165602)","51.717,96 €",03-08-2017,12-07-2017,150 dias,"Portugal, Évora, Évora",Artigo 259.º do Código dos Contratos Públicos,,,,,,1771819,CP 2015/6 - Acordo quadro para o fornecimento de Medicamentos do Foro Oncológico,FALSE
Aquisição de medicamentos do foro oncológico,Ao abrigo de acordo-quadro (art.º 259.º),Aquisição de bens móveis,"33652000-5, Antineoplásicos e imunomoduladores","Hospital do Espírito Santo de Évora, E. P. E. (508085888)","Novartis Farma - Produtos Farmacêuticos, S.A. (500063524)","215.945,73 €",03-08-2017,12-07-2017,150 dias,"Portugal, Évora, Évora",Artigo 259.º do Código dos Contratos Públicos,,,,,,1771819,CP 2015/6 - Acordo quadro para o fornecimento de Medicamentos do Foro Oncológico,FALSE
Aquisição de medicamentos,Ao abrigo de acordo-quadro (art.º 259.º),Aquisição de bens móveis,"33690000-3, Medicamentos vários","Hospital do Espírito Santo de Évora, E. P. E. (508085888)",GILEAD SCIENCES. LDA (503604704),"5.882,40 €",03-08-2017,04-07-2017,150 dias,"Portugal, Évora, Évora",Artigo 259.º do Código dos Contratos Públicos,,,,,,1120578,"CONCURSO PÚBLICO PARA A CELEBRAÇÃO DE CONTRATOS PÚBLICOS DE APROVISIONAMENTO PARA A ÁREA DA SAÚDE, COM VISTA AO FORNECIMENTO DE MEDICAMENTOS ANTI-RETROVIRAIS, ÀS INSTITUIÇÕES E SERVIÇOS DO SERVIÇO NACIONAL DE SAÚDE  ",FALSE
