Objeto do Contrato,Tipo de Procedimento,Tipo(s) de Contrato,CPVs,Entidade(s) Adjudicante(s),Entidade(s) Adjudicatária(s),Preço Contratual,Data de Publicação,Data de Celebração do Contrato,Prazo de Execução,Local de Execução,Fundamentação,Data de Fecho do Contrato,Preço Total Efetivo,Causas das Alterações ao Prazo,Causas das Alterações ao Preço,Estado,N.º registo do Acordo Quadro,Descrição do Acordo Quadro,Procedimento Centralizado
Aquisição de glucose no sangue tiras-teste,Ajuste Direto Regime Geral,Aquisição de bens móveis,"33690000-3, Medicamentos vários","Centro Hospitalar Lisboa Norte, E. P. E. (508481287)",Johnson & Johnson (500153370),"8.300,00 €",21-03-2017,21-03-2017,1 dias,"Portugal, Lisboa, Lisboa","Artigo 24.º, n.º 1, alínea e) do Código dos Contratos Públicos",,,,,,Não aplicável.,Não aplicável.,FALSE
Aquisição de produtos de apoio,Ajuste Direto Regime Geral,Aquisição de serviços,"85000000-9, Serviços de saúde e acção social","CENTRO HOSPITALAR LISBOA NORTE, EPE (508481287)","Ortopedia Moderna, Lda (500481300)","235,00 €",21-03-2017,21-03-2017,21 dias,"Portugal, Lisboa, Lisboa","Artigo 20.º, n.º 1, alínea a) do Código dos Contratos Públicos",,,,,,Não aplicável.,Não aplicável.,FALSE
Aquisição de droperidol,Ajuste Direto Regime Geral,Aquisição de bens móveis,"33690000-3, Medicamentos vários","Centro Hospitalar Lisboa Norte, E. P. E. (508481287)","Alloga Portugal - Armazenagem e Distribuição Farmacêutica, Lda (504507230)","6.668,00 €",21-03-2017,21-03-2017,1 dias,"Portugal, Lisboa, Lisboa","Artigo 24.º, n.º 1, alínea e) do Código dos Contratos Públicos",,,,,,Não aplicável.,Não aplicável.,FALSE
Aquisição de HIV teste determinação por PCR 48 T,Ajuste Direto Regime Geral,Aquisição de bens móveis,"33696000-5, Reagentes e meios de contraste","Centro Hospitalar Lisboa Norte, E. P. E. (508481287)","Roche Sistemas de Diagnóstico, Lda (504282921)","42.240,00 €",21-03-2017,17-03-2017,1 dias,"Portugal, Lisboa, Lisboa","Artigo 24.º, n.º 1, alínea e) do Código dos Contratos Públicos",,,,,,Não aplicável.,Não aplicável.,FALSE
Aquisição de Mycobacterium tuberculosis,Ajuste Direto Regime Geral,Aquisição de bens móveis,"33696000-5, Reagentes e meios de contraste","Centro Hospitalar Lisboa Norte, E. P. E. (508481287)","Quilaban, Sa (500399670)","5.400,00 €",21-03-2017,20-03-2017,1 dias,"Portugal, Lisboa, Lisboa","Artigo 24.º, n.º 1, alínea e) do Código dos Contratos Públicos",,,,,,Não aplicável.,Não aplicável.,FALSE
"Aquisição de bisoprolol 2,5 mg comp.",Ajuste Direto Regime Geral,Aquisição de bens móveis,"33690000-3, Medicamentos vários","Centro Hospitalar Lisboa Norte, E. P. E. (508481287)",KRKA FARMACEUTICA (507981227),"86,40 €",21-03-2017,20-03-2017,1 dias,"Portugal, Lisboa, Lisboa","Artigo 24.º, n.º 1, alínea e) do Código dos Contratos Públicos",,,,,,Não aplicável.,Não aplicável.,FALSE
Aquisição de serviços de rollout do processo clinico,Ajuste Direto Regime Geral,Aquisição de serviços,"72212213-5, Serviços de desenvolvimento de software para melhoria de sistemas operativos","Centro Hospitalar Lisboa Norte, E. P. E. (508481287)",Glintt Healthcare Solutions (502479418),"195.852,25 €",21-03-2017,01-09-2015,122 dias,"Portugal, Lisboa, Lisboa","Artigo 24.º, n.º 1, alínea e) do Código dos Contratos Públicos",,,,,,Não aplicável.,Não aplicável.,FALSE
Desenvolvimento de software para o laboratório de Neuropatologia,Ajuste Direto Regime Geral,Aquisição de serviços,"51000000-9, Serviços de instalação (excepto software)","Centro Hospitalar Lisboa Norte, E. P. E. (508481287)","Maxdata  Software, S.A. (502250259)","18.570,00 €",21-03-2017,06-10-2015,60 dias,"Portugal, Lisboa, Lisboa","Artigo 24.º, n.º 1, alínea e) do Código dos Contratos Públicos",,,,,,Não aplicável.,Não aplicável.,FALSE
PS implementação PCE 33 serviços,Ajuste Direto Regime Geral,Aquisição de serviços,"72212213-5, Serviços de desenvolvimento de software para melhoria de sistemas operativos","Centro Hospitalar Lisboa Norte, E. P. E. (508481287)",Glintt Healthcare Solutions (502479418),"308.912,95 €",20-03-2017,04-11-2016,57 dias,"Portugal, Lisboa, Lisboa","Artigo 24.º, n.º 1, alínea e) do Código dos Contratos Públicos",,,,,,Não aplicável.,Não aplicável.,FALSE
Aquisição de Equipamento de Wireless Periférico,Ajuste Direto Regime Geral,Aquisição de bens móveis,"32510000-1, Sistema de telecomunicações sem fio","Centro Hospitalar Lisboa Norte, E. P. E. (508481287)","Rampage - Tecnologias de Informação, S.A. (503481980)","74.450,00 €",20-03-2017,11-12-2015,20 dias,"Portugal, Lisboa, Lisboa","Artigo 20.º, n.º 1, alínea a) do Código dos Contratos Públicos",,,,,,Não aplicável.,Não aplicável.,FALSE
Aquisição de incremento storage,Ajuste Direto Regime Geral,Aquisição de bens móveis,"30210000-4, Máquinas de processamento de dados (hardware)","Centro Hospitalar Lisboa Norte, E. P. E. (508481287)","Totalstor Soluções de Armazenamento de Dados, S.A, (502889624)","37.928,00 €",20-03-2017,08-10-2015,30 dias,"Portugal, Lisboa, Lisboa","Artigo 20.º, n.º 1, alínea a) do Código dos Contratos Públicos",,,,,,Não aplicável.,Não aplicável.,FALSE
Aquisição de oito servidores,Ajuste Direto Regime Geral,Aquisição de bens móveis,"48820000-2, Servidores","CENTRO HOSPITALAR LISBOA NORTE, EPE (508481287)","Ozona Consulting, SL  (980315921)","73.745,68 €",20-03-2017,24-09-2015,30 dias,"Portugal, Lisboa, Lisboa","Artigo 20.º, n.º 1, alínea a) do Código dos Contratos Públicos",,,,,,Não aplicável.,Não aplicável.,FALSE
Aquisição de informatização para BO,Ajuste Direto Regime Geral,Aquisição de bens móveis,"30200000-1, Equipamento e material informático","Centro Hospitalar Lisboa Norte, E. P. E. (508481287)","Cerner Portugal, Unipessoal, Lda (513269843)","163.943,86 €",20-03-2017,28-09-2015,30 dias,"Portugal, Lisboa, Lisboa","Artigo 24.º, n.º 1, alínea e) do Código dos Contratos Públicos",,,,,,Não aplicável.,Não aplicável.,FALSE
Expansão do equipamento core de rede,Ajuste Direto Regime Geral,Aquisição de bens móveis,"30210000-4, Máquinas de processamento de dados (hardware)","CENTRO HOSPITALAR LISBOA NORTE, EPE (508481287)",Cilnet - Comunicações e Projetos Especiais S.A. (505267772),"74.190,00 €",20-03-2017,13-08-2016,30 dias,"Portugal, Lisboa, Lisboa","Artigo 20.º, n.º 1, alínea a) do Código dos Contratos Públicos",,,,,,Não aplicável.,Não aplicável.,FALSE
"Aquisição de equipamento de wireless central para o Centro Hospitalar Lisboa Norte, EPE",Concurso público,Aquisição de bens móveis,"32430000-6, Rede global (WAN)","Centro Hospitalar Lisboa Norte, E. P. E. (508481287)",Cilnet - Comunicações e Projetos Especiais S.A. (505267772),"66.837,79 €",20-03-2017,17-06-2016,30 dias,"Portugal, Lisboa, Lisboa","Artigo 20.º, n.º 1, alínea b) do Código dos Contratos Públicos",,,,,,Não aplicável.,Não aplicável.,FALSE
"Aquisição de solução backup e salvaguarda de dados para o Centro Hospitalar Lisboa Norte, EPE",Concurso público,Aquisição de bens móveis,"48732000-8, Pacote de software para segurança de dados","Centro Hospitalar Lisboa Norte, E. P. E. (508481287)","Totalstor Soluções de Armazenamento de Dados, S.A, (502889624)","204.250,00 €",20-03-2017,30-11-2015,31 dias,"Portugal, Lisboa, Lisboa","Artigo 20.º, n.º 1, alínea b) do Código dos Contratos Públicos",,,,,,Não aplicável.,Não aplicável.,FALSE
Aquisição de 400 computadores,Concurso público,Aquisição de bens móveis,"30213300-8, Computadores de secretária (desktop computers)","Centro Hospitalar Lisboa Norte, E. P. E. (508481287)","Basedois - Informática e Telecomunicações, Lda. (501333401)","192.400,00 €",20-03-2017,04-12-2015,27 dias,"Portugal, Lisboa, Lisboa","Artigo 20.º, n.º 1, alínea b) do Código dos Contratos Públicos",,,,,,Não aplicável.,Não aplicável.,FALSE
"Aquisição de 3 bastidores para neurocirurgia, hemodinânica e estomatologia",Ajuste Direto Regime Geral,Aquisição de bens móveis,"32420000-3, Equipamento de rede","Centro Hospitalar Lisboa Norte, E. P. E. (508481287)","Regra - Sistemas de Informação, S.A. (500229147)","74.689,94 €",20-03-2017,02-09-2015,30 dias,"Portugal, Lisboa, Lisboa","Artigo 20.º, n.º 1, alínea a) do Código dos Contratos Públicos",,,,,,Não aplicável.,Não aplicável.,FALSE
Aquisição de protese valvular aortica percutanea,Ajuste Direto Regime Geral,Aquisição de bens móveis,"33190000-8, Dispositivos e produtos médicos variados","Centro Hospitalar Lisboa Norte, E. P. E. (508481287)","MEDTRONIC PORTUGAL, LDA. (504223933)","16.500,00 €",17-03-2017,17-03-2017,1 dias,"Portugal, Lisboa, Lisboa","Artigo 20.º, n.º 1, alínea a) do Código dos Contratos Públicos",,,,,,Não aplicável.,Não aplicável.,FALSE
Aquisição de CDI BIV (CRT-D),Ajuste Direto Regime Geral,Aquisição de bens móveis,"33190000-8, Dispositivos e produtos médicos variados","Centro Hospitalar Lisboa Norte, E. P. E. (508481287)","MEDTRONIC PORTUGAL, LDA. (504223933)","15.518,00 €",17-03-2017,17-03-2017,1 dias,"Portugal, Lisboa, Lisboa","Artigo 20.º, n.º 1, alínea a) do Código dos Contratos Públicos",,,,,,Não aplicável.,Não aplicável.,FALSE
Aquisição de material para Cardiogia,Ajuste Direto Regime Geral,Aquisição de bens móveis,"33140000-3, Material médico de consumo","Centro Hospitalar Lisboa Norte, E. P. E. (508481287)","MEDTRONIC PORTUGAL, LDA. (504223933)","6.635,00 €",17-03-2017,17-03-2017,1 dias,"Portugal, Lisboa, Lisboa","Artigo 20.º, n.º 1, alínea a) do Código dos Contratos Públicos",,,,,,Não aplicável.,Não aplicável.,FALSE
Aquisição de adalimumab,Ajuste Direto Regime Geral,Aquisição de bens móveis,"33690000-3, Medicamentos vários","CENTRO HOSPITALAR LISBOA NORTE, EPE (508481287)","ARIUM, LDA (502501880)","5.400,00 €",17-03-2017,17-03-2017,1 dias,"Portugal, Lisboa, Lisboa","Artigo 24.º, n.º 1, alínea e) do Código dos Contratos Públicos",,,,,,Não aplicável.,Não aplicável.,FALSE
Aquisição de creatinaquinase,Ajuste Direto Regime Geral,Aquisição de bens móveis,"33690000-3, Medicamentos vários","CENTRO HOSPITALAR LISBOA NORTE, EPE (508481287)",Roche (504282921),"6.140,00 €",17-03-2017,17-03-2017,1 dias,"Portugal, Lisboa, Lisboa","Artigo 24.º, n.º 1, alínea e) do Código dos Contratos Públicos",,,,,,Não aplicável.,Não aplicável.,FALSE
Aquisição de cloreto de sodio,Ajuste Direto Regime Geral,Aquisição de bens móveis,"33690000-3, Medicamentos vários","CENTRO HOSPITALAR LISBOA NORTE, EPE (508481287)","LABESFAL-LABORATORIOS ALMIRO, SA (501169580)","8.928,00 €",17-03-2017,17-03-2017,1 dias,"Portugal, Lisboa, Lisboa","Artigo 24.º, n.º 1, alínea e) do Código dos Contratos Públicos",,,,,,Não aplicável.,Não aplicável.,FALSE
Aquisição de fator VIII recombinante 2000 UI (octog alfa),Ajuste Direto Regime Geral,Aquisição de bens móveis,"33690000-3, Medicamentos vários","CENTRO HOSPITALAR LISBOA NORTE, EPE (508481287)","Baxalta Portugal Unipessoal, Lda. (513252193)","186.945,00 €",17-03-2017,17-03-2017,1 dias,"Portugal, Lisboa, Lisboa","Artigo 24.º, n.º 1, alínea e) do Código dos Contratos Públicos",,,,,,Não aplicável.,Não aplicável.,FALSE
Aquisição de produtos de apoio,Ajuste Direto Regime Geral,Aquisição de serviços,"85000000-9, Serviços de saúde e acção social","CENTRO HOSPITALAR LISBOA NORTE, EPE (508481287)",OrtoRego (504820915),"897,00 €",17-03-2017,17-03-2017,21 dias,"Portugal, Lisboa, Lisboa","Artigo 20.º, n.º 1, alínea a) do Código dos Contratos Públicos",,,,,,Não aplicável.,Não aplicável.,FALSE
Aquisição de par de botas,Ajuste Direto Regime Geral,Aquisição de serviços,"85000000-9, Serviços de saúde e acção social","CENTRO HOSPITALAR LISBOA NORTE, EPE (508481287)",OrtoRego (504820915),"86,00 €",17-03-2017,17-03-2017,15 dias,"Portugal, Lisboa, Lisboa","Artigo 20.º, n.º 1, alínea a) do Código dos Contratos Públicos",,,,,,Não aplicável.,Não aplicável.,FALSE
Aquisição de prótese dentaria + 2 ganchos,Ajuste Direto Regime Geral,Aquisição de serviços,"85000000-9, Serviços de saúde e acção social","CENTRO HOSPITALAR LISBOA NORTE, EPE (508481287)",Mário Paulo Ferreira (197118372),"183,95 €",17-03-2017,17-03-2017,10 dias,"Portugal, Lisboa, Lisboa","Artigo 20.º, n.º 1, alínea a) do Código dos Contratos Públicos",,,,,,Não aplicável.,Não aplicável.,FALSE
Aquisição de Pacote de Horas para Manutenção e Apoio de Soluções Máximo para o Ano de 2017,Ajuste Direto Regime Geral,Aquisição de serviços,"72212430-2, Serviços de desenvolvimento de software para gestão de inventários","CENTRO HOSPITALAR LISBOA NORTE, EPE (508481287)","IBM Portuguesa, S.A. (500068801)","9.744,00 €",17-03-2017,17-03-2017,289 dias,"Portugal, Lisboa, Lisboa","Artigo 20.º, n.º 1, alínea a) do Código dos Contratos Públicos",,,,,,Não aplicável.,Não aplicável.,FALSE
Aquisição de produtos de apoio,Ajuste Direto Regime Geral,Aquisição de serviços,"85000000-9, Serviços de saúde e acção social","Centro Hospitalar Lisboa Norte, E. P. E. (508481287)","Coselgi Portugal, SA (509230598)","1.500,00 €",17-03-2017,17-03-2017,1 dias,"Portugal, Lisboa, Lisboa","Artigo 20.º, n.º 1, alínea a) do Código dos Contratos Públicos",,,,,,Não aplicável.,Não aplicável.,FALSE
"Fornecimento e instalação de estores, películas e espelhos para o Serviço de Pedopsiquiatria  HPV.",Ajuste Direto Regime Geral,Empreitadas de obras públicas,"45453000-7, Obras de revisão e recuperação","Centro Hospitalar Lisboa Norte, E. P. E. (508481287)",Francisco José Vieira Marques (128779799),"3.050,00 €",17-03-2017,17-03-2017,5 dias,"Portugal, Lisboa, Lisboa","Artigo 19.º, alínea a) do Código dos Contratos Públicos",,,,,,Não aplicável.,Não aplicável.,FALSE
Aquisição de sacos de urina e sistema de enema durante o ano 2017,Ajuste Direto Regime Geral,Aquisição de bens móveis,"33141615-4, Sacos para urina","CENTRO HOSPITALAR LISBOA NORTE, EPE (508481287)",C. R. Bard Portugal (502438274),"2.856,00 €",16-03-2017,16-03-2017,290 dias,"Portugal, Lisboa, Lisboa","Artigo 20.º, n.º 1, alínea a) do Código dos Contratos Públicos",,,,,,Não aplicável.,Não aplicável.,FALSE
Aquisição de produtos de apoio,Ajuste Direto Regime Geral,Aquisição de serviços,"85000000-9, Serviços de saúde e acção social","CENTRO HOSPITALAR LISBOA NORTE, EPE (508481287)",Gaes (503134139),"1.040,00 €",16-03-2017,16-03-2017,5 dias,"Portugal, Lisboa, Lisboa","Artigo 20.º, n.º 1, alínea a) do Código dos Contratos Públicos",,,,,,Não aplicável.,Não aplicável.,FALSE
Aquisição de andarilho + cadeira de rodas,Ajuste Direto Regime Geral,Aquisição de serviços,"85000000-9, Serviços de saúde e acção social","CENTRO HOSPITALAR LISBOA NORTE, EPE (508481287)",SIORTO (500251177),"211,00 €",16-03-2017,16-03-2017,21 dias,"Portugal, Lisboa, Lisboa","Artigo 20.º, n.º 1, alínea a) do Código dos Contratos Públicos",,,,,,Não aplicável.,Não aplicável.,FALSE
Aquisição de par de guardas laterais,Ajuste Direto Regime Geral,Aquisição de serviços,"85000000-9, Serviços de saúde e acção social","CENTRO HOSPITALAR LISBOA NORTE, EPE (508481287)","Ortopedia Moderna, Lda (500481300)","119,99 €",16-03-2017,16-03-2017,10 dias,"Portugal, Lisboa, Lisboa","Artigo 20.º, n.º 1, alínea a) do Código dos Contratos Públicos",,,,,,Não aplicável.,Não aplicável.,FALSE
Aquisição de par de ortoteses,Ajuste Direto Regime Geral,Aquisição de serviços,"85000000-9, Serviços de saúde e acção social","CENTRO HOSPITALAR LISBOA NORTE, EPE (508481287)","Ortopedia Moderna, Lda (500481300)","626,46 €",16-03-2017,16-03-2017,15 dias,"Portugal, Lisboa, Lisboa","Artigo 20.º, n.º 1, alínea a) do Código dos Contratos Públicos",,,,,,Não aplicável.,Não aplicável.,FALSE
Aquisição de toners e tinteiros,Ajuste Direto Regime Geral,Aquisição de bens móveis,"30000000-9, Máquinas, equipamento e material de escritório e de informática, excepto mobiliário e pacotes de programas (software)","CENTRO HOSPITALAR LISBOA NORTE, EPE (508481287)","ITEN SOLUTIONS - SISTEMAS DE INFORMAÇÃO, S.A. (510728189)","14.553,53 €",16-03-2017,16-03-2017,1 dias,"Portugal, Lisboa, Lisboa","Artigo 20.º, n.º 1, alínea a) do Código dos Contratos Públicos",,,,,,Não aplicável.,Não aplicável.,FALSE
Aquisição de material para cirurgia vascular,Ajuste Direto Regime Geral,Aquisição de bens móveis,"33190000-8, Dispositivos e produtos médicos variados","CENTRO HOSPITALAR LISBOA NORTE, EPE (508481287)","BIOSONDA - COMERCIO MAT. HOSPITALAR, LDA (501463313)","25.500,00 €",16-03-2017,16-03-2017,1 dias,"Portugal, Lisboa, Lisboa","Artigo 20.º, n.º 1, alínea a) do Código dos Contratos Públicos",,,,,,Não aplicável.,Não aplicável.,FALSE
Aquisição de toners e tinta solida,Ajuste Direto Regime Geral,Aquisição de bens móveis,"30200000-1, Equipamento e material informático","CENTRO HOSPITALAR LISBOA NORTE, EPE (508481287)","Maxone Material de Escritório, Lda (507052609)","8.743,92 €",16-03-2017,16-03-2017,1 dias,"Portugal, Lisboa, Lisboa","Artigo 20.º, n.º 1, alínea a) do Código dos Contratos Públicos",,,,,,Não aplicável.,Não aplicável.,FALSE
Aquisição de CDI VR,Ajuste Direto Regime Geral,Aquisição de bens móveis,"33190000-8, Dispositivos e produtos médicos variados","Centro Hospitalar Lisboa Norte, E. P. E. (508481287)","LIVANOVA PORTUGAL, LDA. (505514010)","8.550,00 €",16-03-2017,16-03-2017,1 dias,"Portugal, Lisboa, Lisboa","Artigo 20.º, n.º 1, alínea a) do Código dos Contratos Públicos",,,,,,Não aplicável.,Não aplicável.,FALSE
Aquisição de instrumental viper II,Ajuste Direto Regime Geral,Aquisição de bens móveis,"33190000-8, Dispositivos e produtos médicos variados","Centro Hospitalar Lisboa Norte, E. P. E. (508481287)","JOHNSON & JOHNSON, LDA. (500153370)","6.288,00 €",16-03-2017,16-03-2017,1 dias,"Portugal, Lisboa, Lisboa","Artigo 20.º, n.º 1, alínea a) do Código dos Contratos Públicos",,,,,,Não aplicável.,Não aplicável.,FALSE
Aquisição de prótese valvular aórtica percutanea,Ajuste Direto Regime Geral,Aquisição de bens móveis,"33190000-8, Dispositivos e produtos médicos variados","Centro Hospitalar Lisboa Norte, E. P. E. (508481287)",Edwards Lifesciences (Portugal) (508014832),"36.000,00 €",16-03-2017,16-03-2017,1 dias,"Portugal, Lisboa, Lisboa","Artigo 20.º, n.º 1, alínea a) do Código dos Contratos Públicos",,,,,,Não aplicável.,Não aplicável.,FALSE
Aquisição de ceftolozano 1 g + tazobacatm,Ajuste Direto Regime Geral,Aquisição de bens móveis,"33690000-3, Medicamentos vários","Centro Hospitalar Lisboa Norte, E. P. E. (508481287)","Merck Sharp & Dohme, Lda. (500191360)","19.257,00 €",16-03-2017,16-03-2017,1 dias,"Portugal, Lisboa, Lisboa","Artigo 24.º, n.º 1, alínea e) do Código dos Contratos Públicos",,,,,,Não aplicável.,Não aplicável.,FALSE
Aquisição de infliximab 100 mg sol. ing,Ajuste Direto Regime Geral,Aquisição de bens móveis,"33690000-3, Medicamentos vários","Centro Hospitalar Lisboa Norte, E. P. E. (508481287)",MERCK SHARP DOHME                                  (500191360),"194.250,00 €",16-03-2017,14-03-2017,1 dias,"Portugal, Lisboa, Lisboa","Artigo 24.º, n.º 1, alínea e) do Código dos Contratos Públicos",,,,,,Não aplicável.,Não aplicável.,FALSE
Aquisição de sistema de exclusão do apêndice auricular,Ajuste Direto Regime Geral,Aquisição de bens móveis,"33190000-8, Dispositivos e produtos médicos variados","Centro Hospitalar Lisboa Norte, E. P. E. (508481287)",Lusopalex (503531588),"14.750,00 €",16-03-2017,16-03-2017,1 dias,"Portugal, Lisboa, Lisboa","Artigo 20.º, n.º 1, alínea a) do Código dos Contratos Públicos",,,,,,Não aplicável.,Não aplicável.,FALSE
Aquisição de seringa gas sang,Ajuste Direto Regime Geral,Aquisição de bens móveis,"33190000-8, Dispositivos e produtos médicos variados","Centro Hospitalar Lisboa Norte, E. P. E. (508481287)","RADIOMETER IBERICA, SL (980201667)","13.600,00 €",16-03-2017,16-03-2017,1 dias,"Portugal, Lisboa, Lisboa","Artigo 20.º, n.º 1, alínea a) do Código dos Contratos Públicos",,,,,,Não aplicável.,Não aplicável.,FALSE
Aquisição de protese valvular aortica percutanea,Ajuste Direto Regime Geral,Aquisição de bens móveis,"33190000-8, Dispositivos e produtos médicos variados","Centro Hospitalar Lisboa Norte, E. P. E. (508481287)",Edwards Lifesciences (Portugal) (508014832),"36.000,00 €",16-03-2017,16-03-2017,1 dias,"Portugal, Lisboa, Lisboa","Artigo 20.º, n.º 1, alínea a) do Código dos Contratos Públicos",,,,,,Não aplicável.,Não aplicável.,FALSE
Aquisição de protese valvular aortica percutanea extansivel,Ajuste Direto Regime Geral,Aquisição de bens móveis,"33190000-8, Dispositivos e produtos médicos variados","Centro Hospitalar Lisboa Norte, E. P. E. (508481287)",Edwards Lifesciences (Portugal) (508014832),"18.000,00 €",16-03-2017,16-03-2017,1 dias,"Portugal, Lisboa, Lisboa","Artigo 20.º, n.º 1, alínea a) do Código dos Contratos Públicos",,,,,,Não aplicável.,Não aplicável.,FALSE
Aquisição de diverso material de laboratório,Ajuste Direto Regime Geral,Aquisição de bens móveis,"33140000-3, Material médico de consumo","Centro Hospitalar Lisboa Norte, E. P. E. (508481287)","NORMAX - FÁBRICA DE VIDROS CIENTIFICOS, LDA   (500203130)","82,12 €",16-03-2017,16-03-2017,1 dias,"Portugal, Lisboa, Lisboa","Artigo 20.º, n.º 1, alínea a) do Código dos Contratos Públicos",,,,,,Não aplicável.,Não aplicável.,FALSE
Aquisição de diverso material de laboratório,Ajuste Direto Regime Geral,Aquisição de bens móveis,"33140000-3, Material médico de consumo","Centro Hospitalar Lisboa Norte, E. P. E. (508481287)","JOSÉ MANUEL GOMES DOS SANTOS,LDA                   (501399224)","216,80 €",16-03-2017,16-03-2017,1 dias,"Portugal, Lisboa, Lisboa","Artigo 20.º, n.º 1, alínea a) do Código dos Contratos Públicos",,,,,,Não aplicável.,Não aplicável.,FALSE
Aquisição de diverso material de laboratório,Ajuste Direto Regime Geral,Aquisição de bens móveis,"33140000-3, Material médico de consumo","Centro Hospitalar Lisboa Norte, E. P. E. (508481287)","VWR INTERNATIONAL - MATERIAL DE LABORATÓRIO, LDA. (503842770)","42,70 €",16-03-2017,16-03-2017,1 dias,"Portugal, Lisboa, Lisboa","Artigo 20.º, n.º 1, alínea a) do Código dos Contratos Públicos",,,,,,Não aplicável.,Não aplicável.,FALSE
Aquisição de cadeira de rodas,Ajuste Direto Regime Geral,Aquisição de serviços,"85000000-9, Serviços de saúde e acção social","Centro Hospitalar Lisboa Norte, E. P. E. (508481287)","Ortopedia Moderna, Lda (500481300)","2.895,80 €",16-03-2017,16-03-2017,21 dias,"Portugal, Lisboa, Lisboa","Artigo 20.º, n.º 1, alínea a) do Código dos Contratos Públicos",,,,,,Não aplicável.,Não aplicável.,FALSE
Aquisição de diversos produtos de apoio,Ajuste Direto Regime Geral,Aquisição de serviços,"85000000-9, Serviços de saúde e acção social","Centro Hospitalar Lisboa Norte, E. P. E. (508481287)","Ortopedia Moderna, Lda (500481300)","355,00 €",16-03-2017,16-03-2017,21 dias,"Portugal, Lisboa, Lisboa","Artigo 20.º, n.º 1, alínea a) do Código dos Contratos Públicos",,,,,,Não aplicável.,Não aplicável.,FALSE
Aquisição de cadeira de rodas + almofada,Ajuste Direto Regime Geral,Aquisição de serviços,"85000000-9, Serviços de saúde e acção social","Centro Hospitalar Lisboa Norte, E. P. E. (508481287)","Ortopedia Moderna, Lda (500481300)","1.392,70 €",16-03-2017,16-03-2017,21 dias,"Portugal, Lisboa, Lisboa","Artigo 20.º, n.º 1, alínea a) do Código dos Contratos Públicos",,,,,,Não aplicável.,Não aplicável.,FALSE
Aquisição de protese + cadeira de rodas,Ajuste Direto Regime Geral,Aquisição de serviços,"85000000-9, Serviços de saúde e acção social","Centro Hospitalar Lisboa Norte, E. P. E. (508481287)","Ortopedia Moderna, Lda (500481300)","2.113,00 €",16-03-2017,16-03-2017,21 dias,"Portugal, Lisboa, Lisboa","Artigo 20.º, n.º 1, alínea a) do Código dos Contratos Públicos",,,,,,Não aplicável.,Não aplicável.,FALSE
Aquisição de protese transtibial,Ajuste Direto Regime Geral,Aquisição de serviços,"85000000-9, Serviços de saúde e acção social","Centro Hospitalar Lisboa Norte, E. P. E. (508481287)","Ortopedia Moderna, Lda (500481300)","1.464,20 €",16-03-2017,16-03-2017,21 dias,"Portugal, Lisboa, Lisboa","Artigo 20.º, n.º 1, alínea a) do Código dos Contratos Públicos",,,,,,Não aplicável.,Não aplicável.,FALSE
Aquisição de ortoteses,Ajuste Direto Regime Geral,Aquisição de serviços,"85000000-9, Serviços de saúde e acção social","Centro Hospitalar Lisboa Norte, E. P. E. (508481287)","Ortopedia Moderna, Lda (500481300)","398,85 €",16-03-2017,16-03-2017,21 dias,"Portugal, Lisboa, Lisboa","Artigo 20.º, n.º 1, alínea a) do Código dos Contratos Públicos",,,,,,Não aplicável.,Não aplicável.,FALSE
Aquisição de sistema CROS,Ajuste Direto Regime Geral,Aquisição de serviços,"85000000-9, Serviços de saúde e acção social","Centro Hospitalar Lisboa Norte, E. P. E. (508481287)","Coselgi Portugal, SA (509230598)","943,00 €",16-03-2017,16-03-2017,5 dias,"Portugal, Lisboa, Lisboa","Artigo 20.º, n.º 1, alínea a) do Código dos Contratos Públicos",,,,,,Não aplicável.,Não aplicável.,FALSE
Aquisição de bacilos gram positivos PC 42,Ajuste Direto Regime Geral,Aquisição de bens móveis,"33696000-5, Reagentes e meios de contraste","Centro Hospitalar Lisboa Norte, E. P. E. (508481287)","Beckman Coulter Portugal Uni., Lda (509035167)","5.200,00 €",15-03-2017,15-03-2017,1 dias,"Portugal, Lisboa, Lisboa","Artigo 24.º, n.º 1, alínea e) do Código dos Contratos Públicos",,,,,,Não aplicável.,Não aplicável.,FALSE
Aquisição de bacilos gram negativos,Ajuste Direto Regime Geral,Aquisição de bens móveis,"33690000-3, Medicamentos vários","Centro Hospitalar Lisboa Norte, E. P. E. (508481287)","Beckman Coulter Portugal Uni., Lda (509035167)","7.800,00 €",15-03-2017,15-03-2017,1 dias,"Portugal, Lisboa, Lisboa","Artigo 24.º, n.º 1, alínea e) do Código dos Contratos Públicos",,,,,,Não aplicável.,Não aplicável.,FALSE
Aquisição de material de limpeza para o ano de 2017,Ajuste Direto Regime Geral,Aquisição de bens móveis,"39224000-8, Vassouras, escovas e outros artigos de vários tipos","CENTRO HOSPITALAR LISBOA NORTE, EPE (508481287)","Amadeu pereira Cardoso, Lda. (506348989)","823,60 €",15-03-2017,15-03-2017,291 dias,"Portugal, Lisboa, Lisboa","Artigo 20.º, n.º 1, alínea a) do Código dos Contratos Públicos",,,,,,Não aplicável.,Não aplicável.,FALSE
Aquisição de ala top immulite conj. det 200 T,Ajuste Direto Regime Geral,Aquisição de bens móveis,"33690000-3, Medicamentos vários","Centro Hospitalar Lisboa Norte, E. P. E. (508481287)",SIEMENS (507925173),"6.763,00 €",15-03-2017,15-03-2017,1 dias,"Portugal, Lisboa, Lisboa","Artigo 24.º, n.º 1, alínea e) do Código dos Contratos Públicos",,,,,,Não aplicável.,Não aplicável.,FALSE
Aquisição de CDI BIV,Ajuste Direto Regime Geral,Aquisição de bens móveis,"33190000-8, Dispositivos e produtos médicos variados","Centro Hospitalar Lisboa Norte, E. P. E. (508481287)","MEDTRONIC PORTUGAL, LDA (504223933)","14.496,00 €",15-03-2017,15-03-2017,1 dias,"Portugal, Lisboa, Lisboa","Artigo 20.º, n.º 1, alínea a) do Código dos Contratos Públicos",,,,,,Não aplicável.,Não aplicável.,FALSE
Aquisição de protese dentaria acrilica inferior 11 dentes,Ajuste Direto Regime Geral,Aquisição de bens móveis,"33184000-3, Próteses","Centro Hospitalar Lisboa Norte, E. P. E. (508481287)",Mário Paulo Ferreira (197118372),"80,19 €",15-03-2017,15-03-2017,10 dias,"Portugal, Lisboa, Lisboa","Artigo 20.º, n.º 1, alínea a) do Código dos Contratos Públicos",,,,,,Não aplicável.,Não aplicável.,FALSE
Aquisição de etiquetas,Ajuste Direto Regime Geral,Aquisição de bens móveis,"30199760-5, Etiquetas","Centro Hospitalar Lisboa Norte, E. P. E. (508481287)",DATA LABEL PORTUGAL (506448967),"508,50 €",15-03-2017,15-03-2017,291 dias,"Portugal, Lisboa, Lisboa","Artigo 20.º, n.º 1, alínea a) do Código dos Contratos Públicos",,,,,,Não aplicável.,Não aplicável.,FALSE
Aquisição de kit tabuleiro p/pericardiocentese desc para o ano de 2017,Ajuste Direto Regime Geral,Aquisição de bens móveis,"33141620-2, Kits médicos","CENTRO HOSPITALAR LISBOA NORTE, EPE (508481287)","Merit Medical Portugal, S.A (513157816)","9.360,00 €",15-03-2017,15-03-2017,291 dias,"Portugal, Lisboa, Lisboa","Artigo 20.º, n.º 1, alínea a) do Código dos Contratos Públicos",,,,,,Não aplicável.,Não aplicável.,FALSE
Aquisição de material de limpeza para o ano de 2017,Ajuste Direto Regime Geral,Aquisição de bens móveis,"39224000-8, Vassouras, escovas e outros artigos de vários tipos","CENTRO HOSPITALAR LISBOA NORTE, EPE (508481287)","João Antunes & Amaro, Lda (500149003)","5.322,76 €",15-03-2017,15-03-2017,291 dias,"Portugal, Lisboa, Lisboa","Artigo 20.º, n.º 1, alínea a) do Código dos Contratos Públicos",,,,,,Não aplicável.,Não aplicável.,FALSE
Aquisição trouxas cirúrgicas universais e campos cirúrgicos durante o ano de 2017.,Concurso público,Aquisição de bens móveis,"33140000-3, Material médico de consumo","Centro Hospitalar Lisboa Norte, E. P. E. (508481287)","PAUL HARTMAN, LDA           (502271728)","60.457,44 €",15-03-2017,15-03-2017,291 dias,"Portugal, Lisboa, Lisboa","Artigo 20.º, n.º 1, alínea b) do Código dos Contratos Públicos",,,,,,Não aplicável.,Não aplicável.,FALSE
Aquisição de material de penso/dispositivos médicos p/ o ano de 2017,Concurso público,Aquisição de bens móveis,"33140000-3, Material médico de consumo","Centro Hospitalar Lisboa Norte, E. P. E. (508481287)","3M Portugal, Lda. (500193940)","2.540,20 €",15-03-2017,15-03-2017,291 dias,"Portugal, Lisboa, Lisboa","Artigo 20.º, n.º 1, alínea b) do Código dos Contratos Públicos",,,,,,Não aplicável.,Não aplicável.,FALSE
Aquisição de sondas diversas/dispositivos médicos para o ano de 2017,Concurso público,Aquisição de bens móveis,"33141641-5, Sondas","CENTRO HOSPITALAR LISBOA NORTE, EPE (508481287)","MEDTRONIC PORTUGAL, LDA. (504223933)","15,96 €",15-03-2017,15-03-2017,291 dias,"Portugal, Lisboa, Lisboa","Artigo 20.º, n.º 1, alínea b) do Código dos Contratos Públicos",,,,,,Não aplicável.,Não aplicável.,FALSE
Aquisição de luva de exame em nitrilo n estéril,Ajuste Direto Regime Geral,Aquisição de bens móveis,"33190000-8, Dispositivos e produtos médicos variados","Centro Hospitalar Lisboa Norte, E. P. E. (508481287)","DocWorld, Lda. (508592909)","9.480,00 €",14-03-2017,14-03-2017,1 dias,"Portugal, Lisboa, Lisboa","Artigo 20.º, n.º 1, alínea a) do Código dos Contratos Públicos",,,,,,Não aplicável.,Não aplicável.,FALSE
Aquisição de gerador de impulsos implante 2 canais substituição,Ajuste Direto Regime Geral,Aquisição de bens móveis,"33190000-8, Dispositivos e produtos médicos variados","Centro Hospitalar Lisboa Norte, E. P. E. (508481287)","MEDTRONIC PORTUGAL, LDA. (504223933)","20.150,00 €",14-03-2017,14-03-2017,1 dias,"Portugal, Lisboa, Lisboa","Artigo 20.º, n.º 1, alínea a) do Código dos Contratos Públicos",,,,,,Não aplicável.,Não aplicável.,FALSE
Aquisição de material de limpeza para o ano de 2017,Ajuste Direto Regime Geral,Aquisição de bens móveis,"39224000-8, Vassouras, escovas e outros artigos de vários tipos","CENTRO HOSPITALAR LISBOA NORTE, EPE (508481287)","MEILEX, LDA (501759441)","946,40 €",13-03-2017,13-03-2017,293 dias,"Portugal, Lisboa, Lisboa","Artigo 20.º, n.º 1, alínea a) do Código dos Contratos Públicos",,,,,,Não aplicável.,Não aplicável.,FALSE
Aquisição de gerador de impulsos,Ajuste Direto Regime Geral,Aquisição de bens móveis,"33190000-8, Dispositivos e produtos médicos variados","Centro Hospitalar Lisboa Norte, E. P. E. (508481287)","MEDTRONIC PORTUGAL, LDA. (504223933)","20.150,00 €",13-03-2017,13-03-2017,1 dias,"Portugal, Lisboa, Lisboa","Artigo 20.º, n.º 1, alínea a) do Código dos Contratos Públicos",,,,,,Não aplicável.,Não aplicável.,FALSE
"Aquisição de parafusos, barras e fios",Ajuste Direto Regime Geral,Aquisição de bens móveis,"33190000-8, Dispositivos e produtos médicos variados","Centro Hospitalar Lisboa Norte, E. P. E. (508481287)",Johnson & Johnson (500153370),"8.760,00 €",13-03-2017,13-03-2017,1 dias,"Portugal, Lisboa, Lisboa","Artigo 20.º, n.º 1, alínea a) do Código dos Contratos Públicos",,,,,,Não aplicável.,Não aplicável.,FALSE
Aquisição de dois monitores para utilização no Centro Hospitalar Lisboa Norte.,Ajuste Direto Regime Geral,Aquisição de bens móveis,"30230000-0, Equipamento informático","CENTRO HOSPITALAR LISBOA NORTE, EPE (508481287)","VTT.Link - Serviços de Informática e Telecomunicações Unipessoal, Lda. (508888018)","274,00 €",13-03-2017,13-03-2017,14 dias,"Portugal, Lisboa, Lisboa","Artigo 20.º, n.º 1, alínea a) do Código dos Contratos Públicos",,,,,,Não aplicável.,Não aplicável.,FALSE
Aquisição de dispositivo para tratamento percutâneo,Ajuste Direto Regime Geral,Aquisição de bens móveis,"33190000-8, Dispositivos e produtos médicos variados","Centro Hospitalar Lisboa Norte, E. P. E. (508481287)","Abbott Laboratórios, Lda (500006148)","40.000,00 €",13-03-2017,13-03-2017,1 dias,"Portugal, Lisboa, Lisboa","Artigo 20.º, n.º 1, alínea a) do Código dos Contratos Públicos",,,,,,Não aplicável.,Não aplicável.,FALSE
Aquisição de produtos de apoio,Ajuste Direto Regime Geral,Aquisição de serviços,"85000000-9, Serviços de saúde e acção social","Centro Hospitalar Lisboa Norte, E. P. E. (508481287)",Mário Paulo Ferreira (197118372),"182,07 €",13-03-2017,13-03-2017,10 dias,"Portugal, Lisboa, Lisboa","Artigo 20.º, n.º 1, alínea a) do Código dos Contratos Públicos",,,,,,Não aplicável.,Não aplicável.,FALSE
Aquisição de produtos de apoio,Ajuste Direto Regime Geral,Aquisição de serviços,"85000000-9, Serviços de saúde e acção social","Centro Hospitalar Lisboa Norte, E. P. E. (508481287)",Mário Paulo Ferreira (197118372),"169,82 €",13-03-2017,13-03-2017,10 dias,"Portugal, Lisboa, Lisboa","Artigo 20.º, n.º 1, alínea a) do Código dos Contratos Públicos",,,,,,Não aplicável.,Não aplicável.,FALSE
Aquisição de produtos de apoio,Ajuste Direto Regime Geral,Aquisição de serviços,"85000000-9, Serviços de saúde e acção social","Centro Hospitalar Lisboa Norte, E. P. E. (508481287)",Mário Paulo Ferreira (197118372),"160,37 €",13-03-2017,13-03-2017,10 dias,"Portugal, Lisboa, Lisboa","Artigo 20.º, n.º 1, alínea a) do Código dos Contratos Públicos",,,,,,Não aplicável.,Não aplicável.,FALSE
Aquisição de produtos de apoio,Ajuste Direto Regime Geral,Aquisição de serviços,"85000000-9, Serviços de saúde e acção social","Centro Hospitalar Lisboa Norte, E. P. E. (508481287)",Mário Paulo Ferreira (197118372),"122,64 €",13-03-2017,13-03-2017,10 dias,"Portugal, Lisboa, Lisboa","Artigo 20.º, n.º 1, alínea a) do Código dos Contratos Públicos",,,,,,Não aplicável.,Não aplicável.,FALSE
Aquisição de produtos de apoio,Ajuste Direto Regime Geral,Aquisição de serviços,"85000000-9, Serviços de saúde e acção social","Centro Hospitalar Lisboa Norte, E. P. E. (508481287)",Mário Paulo Ferreira (197118372),"140,57 €",13-03-2017,13-03-2017,10 dias,"Portugal, Lisboa, Lisboa","Artigo 20.º, n.º 1, alínea a) do Código dos Contratos Públicos",,,,,,Não aplicável.,Não aplicável.,FALSE
Aquisição de produtos de apoio,Ajuste Direto Regime Geral,Aquisição de serviços,"85000000-9, Serviços de saúde e acção social","Centro Hospitalar Lisboa Norte, E. P. E. (508481287)",Mário Paulo Ferreira (197118372),"184,90 €",13-03-2017,13-03-2017,10 dias,"Portugal, Lisboa, Lisboa","Artigo 20.º, n.º 1, alínea a) do Código dos Contratos Públicos",,,,,,Não aplicável.,Não aplicável.,FALSE
Aquisição de produtos de apoio,Ajuste Direto Regime Geral,Aquisição de serviços,"85000000-9, Serviços de saúde e acção social","Centro Hospitalar Lisboa Norte, E. P. E. (508481287)",Mário Paulo Ferreira (197118372),"117,92 €",13-03-2017,13-03-2017,10 dias,"Portugal, Lisboa, Lisboa","Artigo 20.º, n.º 1, alínea a) do Código dos Contratos Públicos",,,,,,Não aplicável.,Não aplicável.,FALSE
Aquisição de abacavir 300 mg comp.,Ajuste Direto Regime Geral,Aquisição de bens móveis,"33690000-3, Medicamentos vários","Centro Hospitalar Lisboa Norte, E. P. E. (508481287)","VIIVHIV HEALTHCARE, UNIPESSOAL. LDA                (509117961)","10.936,08 €",13-03-2017,13-03-2017,1 dias,"Portugal, Lisboa, Lisboa","Artigo 24.º, n.º 1, alínea e) do Código dos Contratos Públicos",,,,,,Não aplicável.,Não aplicável.,FALSE
Aquisição de vaselina solida purificada pomada bisnaga 20 g,Ajuste Direto Regime Geral,Aquisição de bens móveis,"33690000-3, Medicamentos vários","Centro Hospitalar Lisboa Norte, E. P. E. (508481287)",PROCLIN. - EQUIPAMENTOS E PRODUTOS CLINICOS        (500222665),"600,00 €",13-03-2017,10-03-2017,1 dias,"Portugal, Lisboa, Lisboa","Artigo 20.º, n.º 1, alínea a) do Código dos Contratos Públicos",,,,,,Não aplicável.,Não aplicável.,FALSE
"Empreitada para execução da obra de instalação de infra-estruturas para desktop médico nos serviços de URR, UTER, UFRR e Laboratório de Sono.",Ajuste Direto Regime Geral,Empreitadas de obras públicas,"45310000-3, Obras de instalação eléctrica","CENTRO HOSPITALAR LISBOA NORTE, EPE (508481287)","Pontiluz, Lda. (501989048)","8.108,65 €",13-03-2017,13-03-2017,15 dias,"Portugal, Lisboa, Lisboa","Artigo 19.º, alínea a) do Código dos Contratos Públicos",,,,,,Não aplicável.,Não aplicável.,FALSE
Aquisição de etaenrcept sol. inj. 50 mg/1 ml canetas,Ajuste Direto Regime Geral,Aquisição de bens móveis,"33690000-3, Medicamentos vários","Centro Hospitalar Lisboa Norte, E. P. E. (508481287)","PFIZER Biofarmacêutica, Soc. Unip., Lda (513300376)","177.659,91 €",13-03-2017,10-03-2017,1 dias,"Portugal, Lisboa, Lisboa","Artigo 24.º, n.º 1, alínea e) do Código dos Contratos Públicos",,,,,,Não aplicável.,Não aplicável.,FALSE
Aquisição de valvula aórtica sem sutura,Ajuste Direto Regime Geral,Aquisição de bens móveis,"33190000-8, Dispositivos e produtos médicos variados","Centro Hospitalar Lisboa Norte, E. P. E. (508481287)",Edwards Lifesciences (Portugal) (508014832),"5.900,00 €",13-03-2017,13-03-2017,1 dias,"Portugal, Lisboa, Lisboa","Artigo 20.º, n.º 1, alínea a) do Código dos Contratos Públicos",,,,,,Não aplicável.,Não aplicável.,FALSE
Aquisição de CDI BIV (CRT-D),Ajuste Direto Regime Geral,Aquisição de bens móveis,"33190000-8, Dispositivos e produtos médicos variados","Centro Hospitalar Lisboa Norte, E. P. E. (508481287)",St. Jude Medical Portugal (504180746),"15.518,00 €",13-03-2017,13-03-2017,1 dias,"Portugal, Lisboa, Lisboa","Artigo 20.º, n.º 1, alínea a) do Código dos Contratos Públicos",,,,,,Não aplicável.,Não aplicável.,FALSE
