Objeto do Contrato,Tipo de Procedimento,Tipo(s) de Contrato,CPVs,Entidade(s) Adjudicante(s),Entidade(s) Adjudicatária(s),Preço Contratual,Data de Publicação,Data de Celebração do Contrato,Prazo de Execução,Local de Execução,Fundamentação,Data de Fecho do Contrato,Preço Total Efetivo,Causas das Alterações ao Prazo,Causas das Alterações ao Preço,Estado,N.º registo do Acordo Quadro,Descrição do Acordo Quadro,Procedimento Centralizado
"Prestação de serviços, em regime de avença, de assessoria técnica e de gestão, com intervenção específica ao nível de apoio transversal dos Programas Nacionais Prioritários, e na concretização  de sistemas de monitorização de programas intergrados no PNS, ao nível de análise de informação de saúde",Ajuste Direto Regime Geral,Aquisição de serviços,"71621000-7, Serviços técnicos de análise ou consultoria",Direcção-Geral da Saúde (600037100),Matilde de Araújo e Sá Valente (243034911),"14.417,76 €",11-01-2013,01-01-2013,364 dias,"Portugal, Lisboa, Lisboa","Artigo 20.º, n.º 1, alínea a) do Código dos Contratos Públicos",30-12-2013,"14.417,76 €",,,,Não aplicável.,Não aplicável.,
"Aquisição de serviços para gestão de projetos e assessoria técnica, com intervenção especifica nas doenças oncológicas",Ajuste Direto Regime Geral,Aquisição de serviços,"71621000-7, Serviços técnicos de análise ou consultoria",Direcção-Geral da Saúde (600037100),Ana Cristina Urpina Portugal Cabrita Matias (193119005),"9.102,01 €",11-01-2013,15-08-2012,138 dias,"Portugal, Lisboa, Lisboa","Artigo 20.º, n.º 1, alínea a) do Código dos Contratos Públicos",31-12-2012,"9.102,01 €",,,,Não aplicável.,Não aplicável.,
"Aquisição de serviços para assessoria técnica e gestão, com intervenção específica ao nível do VIH/Sida",Ajuste Direto Regime Geral,Aquisição de serviços,"71621000-7, Serviços técnicos de análise ou consultoria",Direcção-Geral da Saúde (600037100),Joana Mota Bettencourt Melo Fonseca (207526028),"12.149,34 €",11-01-2013,01-07-2012,183 dias,"Portugal, Lisboa, Lisboa","Artigo 20.º, n.º 1, alínea a) do Código dos Contratos Públicos",31-12-2012,"12.149,34 €",,,,Não aplicável.,Não aplicável.,
"Aquisição de serviços para assessoria técnica e gestão, com intervenção específica nas doenças oncológicas",Ajuste Direto Regime Geral,Aquisição de serviços,"71621000-7, Serviços técnicos de análise ou consultoria",Direcção-Geral da Saúde (600037100),Elisabeth Somsen (100727816),"10.124,45 €",11-01-2013,01-08-2012,152 dias,"Portugal, Lisboa, Lisboa","Artigo 20.º, n.º 1, alínea a) do Código dos Contratos Públicos",31-12-2012,"10.124,45 €",,,,Não aplicável.,Não aplicável.,
"Aquisição de serviços para assessoria técnica na área da psicopedagogia clínica, com intervenção especifica ao nível da saúde mental",Ajuste Direto Regime Geral,Aquisição de serviços,"71621000-7, Serviços técnicos de análise ou consultoria",Direcção-Geral da Saúde (600037100),Pedro Manuel Torres Rio Dias Mateus (212242962),"10.124,45 €",11-01-2013,01-08-2012,152 dias,"Portugal, Lisboa, Lisboa","Artigo 20.º, n.º 1, alínea a) do Código dos Contratos Públicos",31-12-2012,"10.124,45 €",,,,Não aplicável.,Não aplicável.,
"Aquisição de serviços para assessoria técnica e gestão, com intervenção especifica ao nível do VIH/Sida",Ajuste Direto Regime Geral,Aquisição de serviços,"71621000-7, Serviços técnicos de análise ou consultoria",Direcção-Geral da Saúde (600037100),Maria Teresa dos Santos Silva Correia de Melo (159339065),"12.149,34 €",11-01-2013,01-07-2012,183 dias,"Portugal, Lisboa, Lisboa","Artigo 20.º, n.º 1, alínea a) do Código dos Contratos Públicos",31-12-2012,"12.149,34 €",,,,Não aplicável.,Não aplicável.,
Licenciamento do Software SIPAFS - Contrato de renovação,Ajuste Direto Regime Geral,Aquisição de bens móveis,"22456000-1, Licenças",Direcção-Geral da Saúde (600037100),Normática - Serviços de Informática e Organização SA (501782230),"12.150,00 €",04-01-2013,19-12-2012,365 dias,"Portugal, Lisboa, Lisboa","Artigo 20.º, n.º 1, alínea a) do Código dos Contratos Públicos",31-07-2013,"12.150,00 €",,,,Não aplicável.,Não aplicável.,
Aquisição de serviços para a criação e execução de 2.500 caixas no âmbito do projecto SOBE,Ajuste Direto Regime Geral,Aquisição de serviços,"79930000-2, Serviços de concepção de modelos especializados",Direcção-Geral da Saúde (600037100),Atelier Arte e Expressão (502332794),"9.000,00 €",04-01-2013,11-09-2012,90 dias,Portugal,"Artigo 20.º, n.º 1, alínea a) do Código dos Contratos Públicos",31-12-2012,"9.000,00 €",,,,Não aplicável.,Não aplicável.,
"Aquisição de 1.500.000 preservativos masculinos normais, e 395.000 preservativos masculinos extra-forte, para distribuição junto de ações comunitárias levadas a cabo pelo Programa Nacional para a Infeção VIH/sida e por organizações da sociedade civil",Ajuste Direto Regime Geral,Aquisição de bens móveis,"33712000-4, Preservativos",Direcção-Geral da Saúde (600037100),"Clinifar - Produtos Clínicos e Farmacêuticos, SA (503281115)","74.780,00 €",04-01-2013,19-12-2012,30 dias,Portugal,Artigo 258.º do Código dos Contratos Públicos,31-12-2012,"74.780,00 €",,,,Não aplicável.,Não aplicável.,
Aquisição de 600.000 embalagens de gel lubrificante no âmbito do Programa Nacional para a Infeção VIH/sida.,Ajuste Direto Regime Geral,Aquisição de bens móveis,"24951100-6, Produtos lubrificantes",Direcção-Geral da Saúde (600037100),"Hemicare - Comércio e Representações de Material e Equipamentos Médicos, Ldª (506517080)","41.400,00 €",04-01-2013,19-12-2012,30 dias,Portugal,Artigo 258.º do Código dos Contratos Públicos,31-12-2012,"41.400,00 €",,,,Não aplicável.,Não aplicável.,
Aquisição de 80.000 preservativos femininos para distribuição junto de ações comunitárias levadas a cabo pelo Programa Nacional para a Infeção VIH/sida e por organizações da sociedade civil.,Ajuste Direto Regime Geral,Aquisição de bens móveis,"33712000-4, Preservativos",Direcção-Geral da Saúde (600037100),Hemicare - Comércio e Representações de Material e Equipamentos Médicos Ldª (506517080),"50.384,00 €",03-01-2013,04-12-2012,30 dias,Portugal,Artigo 258.º do Código dos Contratos Públicos,31-12-2012,"50.384,00 €",,,,Não aplicável.,Não aplicável.,
Serviços para a execução e implementação do Plano de Contingência das Ondas de Calor para 2012,Ajuste Direto Regime Geral,Aquisição de serviços,"71313000-5, Serviços de consultoria em matéria de engenharia do ambiente",Direcção-Geral da Saúde (600037100),Carla Fernanda da Silva Teixeira Selada (222871210),"8.500,00 €",02-01-2013,27-07-2012,244 dias,"Portugal, Lisboa, Lisboa","Artigo 20.º, n.º 1, alínea a) do Código dos Contratos Públicos",27-03-2013,"8.500,00 €",,,,Não aplicável.,Não aplicável.,
