Objeto do Contrato,Tipo de Procedimento,Tipo(s) de Contrato,CPVs,Entidade(s) Adjudicante(s),Entidade(s) Adjudicatária(s),Preço Contratual,Data de Publicação,Data de Celebração do Contrato,Prazo de Execução,Local de Execução,Fundamentação,Data de Fecho do Contrato,Preço Total Efetivo,Causas das Alterações ao Prazo,Causas das Alterações ao Preço,Estado,N.º registo do Acordo Quadro,Descrição do Acordo Quadro,Procedimento Centralizado
AQ101216 Aquisição de medicamentos Inovadores para Tratamento Hepatite -2016,Ajuste Direto Regime Geral,Aquisição de bens móveis,"33620000-2, Medicamentos para o sangue, para os órgãos hematopoiéticos e para o aparelho cardiovascular","Centro Hospitalar de Lisboa Ocidental, E. P. E. (507618319)","Gilead Sciences, Lda (503604704)","159.302,71 €",11-11-2016,21-10-2016,2016 dias,"Portugal, Lisboa, Lisboa",Artigo 258.º do Código dos Contratos Públicos,,,,,,Não aplicável.,Não aplicável.,FALSE
AQ101186 Aquisição de Medicamentos Inovadores para Tratamento Hepatite - 2016,Ajuste Direto Regime Geral,Aquisição de bens móveis,"33620000-2, Medicamentos para o sangue, para os órgãos hematopoiéticos e para o aparelho cardiovascular","Centro Hospitalar de Lisboa Ocidental, E. P. E. (507618319)","GILEAD SCIENCES, LDA (503604704)","92.367,66 €",11-11-2016,14-10-2016,2016 dias,"Portugal, Lisboa, Lisboa",Artigo 258.º do Código dos Contratos Públicos,,,,,,Não aplicável.,Não aplicável.,FALSE
AQ101156 Aquisição de Medicamentos Inovadores para Tratamento Hepatite - 2016,Ajuste Direto Regime Geral,Aquisição de bens móveis,"33620000-2, Medicamentos para o sangue, para os órgãos hematopoiéticos e para o aparelho cardiovascular","Centro Hospitalar de Lisboa Ocidental, E. P. E. (507618319)","GILEAD SCIENCES, LDA (503604704)","257.026,98 €",11-11-2016,07-10-2016,2016 dias,"Portugal, Lisboa, Lisboa",Artigo 258.º do Código dos Contratos Públicos,,,,,,Não aplicável.,Não aplicável.,FALSE
AQ101146 Aquisição de Medicamentos Inovadores para Tratamento Hepatite -2016,Ajuste Direto Regime Geral,Aquisição de bens móveis,"33620000-2, Medicamentos para o sangue, para os órgãos hematopoiéticos e para o aparelho cardiovascular","Centro Hospitalar de Lisboa Ocidental, E. P. E. (507618319)","Gilead Sciences, Lda  (503604704)","539.148,96 €",11-11-2016,07-10-2016,2016 dias,"Portugal, Lisboa, Lisboa",Artigo 258.º do Código dos Contratos Públicos,,,,,,Não aplicável.,Não aplicável.,FALSE
AQ101096 Aquisição de Medicamentos Inovadores para Tratamento Hepatite 2016,Ajuste Direto Regime Geral,Aquisição de bens móveis,"33620000-2, Medicamentos para o sangue, para os órgãos hematopoiéticos e para o aparelho cardiovascular","Centro Hospitalar de Lisboa Ocidental, E. P. E. (507618319)","GILEAD SCIENCES, LDA (503604704)","87.348,66 €",11-11-2016,15-09-2016,2016 dias,"Portugal, Lisboa, Lisboa",Artigo 258.º do Código dos Contratos Públicos,,,,,,Não aplicável.,Não aplicável.,FALSE
AQ101076 Aquisição de Medicamentos Inovadores para Tratamento Hepatite - 2016,Ajuste Direto Regime Geral,Aquisição de bens móveis,"33620000-2, Medicamentos para o sangue, para os órgãos hematopoiéticos e para o aparelho cardiovascular","Centro Hospitalar de Lisboa Ocidental, E. P. E. (507618319)","Gilead Sciences, Lda (503604704)","133.532,49 €",11-11-2016,10-09-2016,2016 dias,"Portugal, Lisboa, Lisboa",Artigo 258.º do Código dos Contratos Públicos,,,,,,Não aplicável.,Não aplicável.,FALSE
AQ101056 Aquisição de Medicamentos Inovadores para Tratamento Hepatite - 2016,Ajuste Direto Regime Geral,Aquisição de bens móveis,"33620000-2, Medicamentos para o sangue, para os órgãos hematopoiéticos e para o aparelho cardiovascular","Centro Hospitalar de Lisboa Ocidental, E. P. E. (507618319)","Gilead Sciences, Lda (503604704)","487.946,13 €",11-11-2016,02-09-2016,2016 dias,"Portugal, Lisboa, Lisboa",Artigo 258.º do Código dos Contratos Públicos,,,,,,Não aplicável.,Não aplicável.,FALSE
AQ101016 Aquisição medicamentos inovadores para tratamento hepatite  -2016,Ajuste Direto Regime Geral,Aquisição de bens móveis,"33620000-2, Medicamentos para o sangue, para os órgãos hematopoiéticos e para o aparelho cardiovascular","Centro Hospitalar de Lisboa Ocidental, E. P. E. (507618319)","GILEAD SCIENCES, LDA (503604704)","318.267,81 €",11-11-2016,22-08-2016,2016 dias,"Portugal, Lisboa, Lisboa",Artigo 258.º do Código dos Contratos Públicos,,,,,,Não aplicável.,Não aplicável.,FALSE
Aquisição de Medicamentosn para Tratamento da Hepatite (VIEKIRAX + EXVIERA) ano 2016,Ajuste Direto Regime Geral,Aquisição de bens móveis,"33620000-2, Medicamentos para o sangue, para os órgãos hematopoiéticos e para o aparelho cardiovascular","Centro Hospitalar de Lisboa Ocidental, EPE (CHLO) (507618319)","Abbvie, Lda. (510229050)","16.064,00 €",11-11-2016,22-08-2016,2016 dias,"Portugal, Lisboa, Lisboa","Artigo 24.º, n.º 1, alínea a) do Código dos Contratos Públicos",,,,,,Não aplicável.,Não aplicável.,FALSE
Aquisição de medicamentos para tratamento hepatite (VIEKIRAX + EXVIERA) ANO 2016,Ajuste Direto Regime Geral,Aquisição de bens móveis,"33620000-2, Medicamentos para o sangue, para os órgãos hematopoiéticos e para o aparelho cardiovascular",CHLN (507618319),"ABBVIE, lDA (510229050)","16.064,00 €",11-11-2016,12-10-2016,2016 dias,"Portugal, Lisboa, Lisboa","Artigo 24.º, n.º 1, alínea a) do Código dos Contratos Públicos",,,,,,Não aplicável.,Não aplicável.,FALSE
Aquisição de Arca Congeladora para o Laboratório de Biologia Molecular do HEM,Ajuste Direto Regime Geral,Aquisição de bens móveis,"33100000-1, Equipamento médico","Centro Hospitalar de Lisboa Ocidental, E. P. E. (507618319)","Frilabo II, Lda (507958861)","10.720,00 €",08-11-2016,07-09-2016,2 dias,"Portugal, Lisboa, Lisboa","Artigo 20.º, n.º 1, alínea a) do Código dos Contratos Públicos",,,,,,Não aplicável.,Não aplicável.,FALSE
Aquisição de Anéis e Proteses valvulares Cardiacas para o CHLO no Ano de 2016,Concurso público,Aquisição de bens móveis,"33140000-3, Material médico de consumo","Centro Hospitalar de Lisboa Ocidental, E. P. E. (507618319)","LUSOPALEX, LDA (503531588)","40.500,00 €",04-11-2016,10-10-2016,365 dias,"Portugal, Lisboa, Lisboa","Artigo 20.º, n.º 1, alínea b) do Código dos Contratos Públicos",,,,,,Não aplicável.,Não aplicável.,FALSE
Aquisição de material de CPRE,Concurso público,Aquisição de bens móveis,"33140000-3, Material médico de consumo","Centro Hospitalar de Lisboa Ocidental, E. P. E. (507618319)","ENDOTECNICA, LDA. (503818348)","34.730,00 €",04-11-2016,27-09-2016,365 dias,"Portugal, Lisboa, Lisboa","Artigo 20.º, n.º 1, alínea b) do Código dos Contratos Públicos",,,,,,Não aplicável.,Não aplicável.,FALSE
Aquisição de material para CPRE,Concurso público,Aquisição de bens móveis,"33140000-3, Material médico de consumo","Centro Hospitalar de Lisboa Ocidental, E. P. E. (507618319)","CAREWILL, LDA (507484851)","272,00 €",04-11-2016,01-09-2016,365 dias,"Portugal, Lisboa, Lisboa","Artigo 20.º, n.º 1, alínea b) do Código dos Contratos Públicos",,,,,,Não aplicável.,Não aplicável.,FALSE
Aquisição de material para CPRE,Concurso público,Aquisição de bens móveis,"33140000-3, Material médico de consumo","Centro Hospitalar de Lisboa Ocidental, E. P. E. (507618319)","Alves & Cª (Irmão), Lda. (500310068)","802,80 €",04-11-2016,01-09-2016,365 dias,"Portugal, Lisboa, Lisboa","Artigo 20.º, n.º 1, alínea b) do Código dos Contratos Públicos",,,,,,Não aplicável.,Não aplicável.,FALSE
Aquisição de material para CPRE,Concurso público,Aquisição de bens móveis,"33140000-3, Material médico de consumo","Centro Hospitalar de Lisboa Ocidental, E. P. E. (507618319)",Boston Scientific Portugal (504988964),"155.968,40 €",04-11-2016,27-09-2016,365 dias,"Portugal, Lisboa, Lisboa","Artigo 20.º, n.º 1, alínea b) do Código dos Contratos Públicos",,,,,,Não aplicável.,Não aplicável.,FALSE
"Aquisição de Implantes Cocleares para o CHLO, EPE",Concurso público,Aquisição de bens móveis,"33140000-3, Material médico de consumo","Centro Hospitalar de Lisboa Ocidental, E. P. E. (507618319)","COSELGI PORTUGAL, SA (509230598)","211.900,00 €",03-11-2016,11-10-2016,365 dias,"Portugal, Lisboa, Lisboa","Artigo 20.º, n.º 1, alínea b) do Código dos Contratos Públicos",,,,,,Não aplicável.,Não aplicável.,FALSE
Aquisição de Anéis e Próteses valvulares Cardíacas para o CHLO no Ano de 2016,Concurso público,Aquisição de bens móveis,"33140000-3, Material médico de consumo","Centro Hospitalar de Lisboa Ocidental, E. P. E. (507618319)",ST. JUDE MEDICAL PORTUGAL (504180746),"298.825,00 €",02-11-2016,10-10-2016,365 dias,"Portugal, Lisboa, Lisboa","Artigo 20.º, n.º 1, alínea b) do Código dos Contratos Públicos",,,,,,Não aplicável.,Não aplicável.,FALSE
Aquisição de Anéis e Proteses valvulares Cardiacas para o CHLO no Ano de 2016,Concurso público,Aquisição de bens móveis,"33140000-3, Material médico de consumo","Centro Hospitalar de Lisboa Ocidental, E. P. E. (507618319)","MEDICINALIA CORMEDICA - COMER. PROD. MED. HOSP.,LD (500684324)","143.075,00 €",02-11-2016,10-10-2016,365 dias,"Portugal, Lisboa, Lisboa","Artigo 20.º, n.º 1, alínea b) do Código dos Contratos Públicos",,,,,,Não aplicável.,Não aplicável.,FALSE
Aquisição de Anéis e Próteses Valvulares Cardiacas,Concurso público,Aquisição de bens móveis,"33140000-3, Material médico de consumo","Centro Hospitalar de Lisboa Ocidental, E. P. E. (507618319)","Edwards Lifesciences, Lda (508014832)","172.000,00 €",02-11-2016,10-10-2016,365 dias,"Portugal, Lisboa, Lisboa","Artigo 20.º, n.º 1, alínea b) do Código dos Contratos Públicos",,,,,,Não aplicável.,Não aplicável.,FALSE
