Objeto do Contrato,Tipo de Procedimento,Tipo(s) de Contrato,CPVs,Entidade(s) Adjudicante(s),Entidade(s) Adjudicatária(s),Preço Contratual,Data de Publicação,Data de Celebração do Contrato,Prazo de Execução,Local de Execução,Fundamentação,Data de Fecho do Contrato,Preço Total Efetivo,Causas das Alterações ao Prazo,Causas das Alterações ao Preço,Estado,N.º registo do Acordo Quadro,Descrição do Acordo Quadro,Procedimento Centralizado
2 Monitores Desfibrilhadores com Capnografia para o SUG,Consulta Prévia,Aquisição de bens móveis,"33123210-3, Aparelhos para monitorização cardíaca","Hospital Professor Doutor Fernando Fonseca, E. P. E. (503035416)","CLINIFAR - PROD. CLINICOS E FARMACEUTICOS, S.A. (503281115)","19.980,00 €",29-11-2018,13-11-2018,15 dias,"Portugal, Lisboa, Amadora","Artigo 20.º, n.º 1, alínea c) do Código dos Contratos Públicos",,,,,,Não aplicável.,Não aplicável.,FALSE
Aquisição de 1(um) ecógrafo,Consulta Prévia,Aquisição de bens móveis,"33124120-2, Aparelhos de ultra-sons","Hospital Professor Doutor Fernando Fonseca, E. P. E. (503035416)",GENERAL ELECTRIC PORTUGUESA SA (500357129),"44.500,00 €",28-11-2018,16-11-2018,30 dias,"Portugal, Lisboa, Amadora","Artigo 20.º, n.º 1, alínea c) do Código dos Contratos Públicos",,,,,,Não aplicável.,Não aplicável.,FALSE
"Aquisição de serviços de elaboração de Projetos de Dimensionamento e Execução para a implementação de medidas de eficiência energética - Trabalhos de construção civil e outros trabalhos de engenharia do Hospital Professor Doutor Fernando Fonseca, E.P.E.",Concurso público,Aquisição de serviços,"71000000-8, Serviços de arquitectura, construção, engenharia e inspecção","Hospital Professor Doutor Fernando Fonseca, E. P. E. (503035416)",Ripórtico Engenharia Lda (506782328),"35.000,00 €",28-11-2018,21-09-2018,213 dias,"Portugal, Lisboa, Amadora","Artigo 20.º, n.º 1, alínea a) do Código dos Contratos Públicos",,,,,,Não aplicável.,Não aplicável.,FALSE
Aquisição de Serviços de IVG,Ajuste Direto Regime Geral,Aquisição de serviços,"85121210-8, Serviços de ginecologia ou obstetrícia","HOSPITAL PROFESSOR DOUTOR FERNANDO FONSECA, EPE (503035416)"," Samer Ames, SA (507740343)","143.388,00 €",28-11-2018,28-02-2018,120 dias,"Portugal, Lisboa, Amadora","Artigo 24.º, n.º 1, alínea c) do Código dos Contratos Públicos",,,,,,Não aplicável.,Não aplicável.,FALSE
