Objeto do Contrato,Tipo de Procedimento,Tipo(s) de Contrato,CPVs,Entidade(s) Adjudicante(s),Entidade(s) Adjudicatária(s),Preço Contratual,Data de Publicação,Data de Celebração do Contrato,Prazo de Execução,Local de Execução,Fundamentação,Data de Fecho do Contrato,Preço Total Efetivo,Causas das Alterações ao Prazo,Causas das Alterações ao Preço,Estado,N.º registo do Acordo Quadro,Descrição do Acordo Quadro,Procedimento Centralizado
Manutenção Preventiva e Assistência Técnica aos Fotocopiadores da ULSAM,Ajuste Direto Regime Geral,Aquisição de serviços,"50313200-4, Serviços de manutenção de fotocopiadoras","Unidade Local de Saúde do Alto Minho, EPE (ULSAM) (508786193)","Reprofax - Equipamentos de Escritório, Lda. (503475807)","12.920,00 €",31-03-2017,23-03-2017,365 dias,"Portugal, Viana do Castelo","Artigo 20.º, n.º 1, alínea a) do Código dos Contratos Públicos",,,,,,Não aplicável.,Não aplicável.,FALSE
Atualização do Datacenter de Ponte de Lima,Concurso público,Aquisição de bens móveis,"30200000-1, Equipamento e material informático","Unidade Local de Saúde do Alto Minho, EPE (ULSAM) (508786193)","ATM - Sistemas de Informação e Serviços, S.A. (509784267)","88.812,75 €",31-03-2017,27-01-2017,30 dias,"Portugal, Viana do Castelo, Ponte de Lima","Artigo 20.º, n.º 1, alínea b) do Código dos Contratos Públicos",,,,,,Não aplicável.,Não aplicável.,FALSE
Ampliação do Sistema de Vácuo para Transporte de Amostras Central Colheitas HSL,Ajuste Direto Regime Geral,Aquisição de bens móveis,"31213400-6, Sistema de distribuição","Unidade Local de Saúde do Alto Minho, E. P. E. (508786193)","J.J.L., LDA. (506310132)","5.457,94 €",22-03-2017,16-03-2017,30 dias,"Portugal, Viana do Castelo, Viana do Castelo","Artigo 24.º, n.º 1, alínea e) do Código dos Contratos Públicos",,,,,,Não aplicável.,Não aplicável.,FALSE
Aquisição de MCC - Compressas,Concurso público,Aquisição de bens móveis,"33140000-3, Material médico de consumo","Unidade Local de Saúde do Alto Minho, E. P. E. (508786193)","Texpol – Têxtil planas oliveras Portugal, unipessoal, Lda. (509211216)","71.054,50 €",22-03-2017,01-03-2017,365 dias,"Portugal, Viana do Castelo","Artigo 20.º, n.º 1, alínea b) do Código dos Contratos Públicos",,,,,,Não aplicável.,Não aplicável.,FALSE
