Objeto do Contrato,Tipo de Procedimento,Tipo(s) de Contrato,CPVs,Entidade(s) Adjudicante(s),Entidade(s) Adjudicatária(s),Preço Contratual,Data de Publicação,Data de Celebração do Contrato,Prazo de Execução,Local de Execução,Fundamentação,Data de Fecho do Contrato,Preço Total Efetivo,Causas das Alterações ao Prazo,Causas das Alterações ao Preço,Estado,N.º registo do Acordo Quadro,Descrição do Acordo Quadro,Procedimento Centralizado
Aquisição de 900 doses de Imunoglobulina anti-D,Ajuste Direto Regime Geral,Aquisição de bens móveis,"33651520-9, Imunoglobulinas","Administração Regional de Saúde do Norte, I.P. (503135593)",CSL Behring (503047201),"67.950,00 €",08-04-2011,28-03-2011,156 dias,"Portugal, Braga","Artigo 24.º, n.º 1, alínea e) do Código dos Contratos Públicos",30-12-2011,"67.950,00 €",,,,Não aplicável.,Não aplicável.,
"Fornecimento, montagem e calibragem de ampola de RX.",Ajuste Direto Regime Geral,Aquisição de bens móveis,"33111000-1, Aparelhos para radiologia","Administração Regional de Saúde do Norte, I.P. (503135593)",Equigerax (502284137),"5.660,00 €",08-04-2011,24-02-2011,12 dias,"Portugal, Aveiro, Arouca","Artigo 20.º, n.º 1, alínea a) do Código dos Contratos Públicos","","",,,,Não aplicável.,Não aplicável.,
Aquisição de diversos produtos de Laboratório,Ajuste Direto Regime Geral,Aquisição de bens móveis,"33696500-0, Reagentes de laboratório","Administração Regional de Saúde do Norte, I.P. (503135593)",Quilaban (500399670),"29.220,30 €",06-04-2011,31-03-2011,275 dias,"Portugal, Braga","Artigo 24.º, n.º 1, alínea e) do Código dos Contratos Públicos",30-12-2011,"29.220,30 €",,,,Não aplicável.,Não aplicável.,
Aquisição de 100 enemas de diazepam 5 mg,Ao abrigo de acordo-quadro (art.º 258.º),Aquisição de bens móveis,"33690000-3, Medicamentos vários","Administração Regional de Saúde do Norte, I.P. (503135593)",Actavis (980334934),"80,80 €",04-04-2011,14-03-2011,15 dias,"Portugal, Braga","Artigo 26.º, n.º 1, alínea e) do Código dos Contratos Públicos",30-12-2011,"80,80 €",,,,Não definido.,Não definido.,
Aquisição de 100 frascos de Isoniazida xarope,Ao abrigo de acordo-quadro (art.º 258.º),Aquisição de bens móveis,"33690000-3, Medicamentos vários","Administração Regional de Saúde do Norte, I.P. (503135593)",Laboratorio Militar (600019675),"280,19 €",01-04-2011,15-02-2011,45 dias,"Portugal, Braga",Artigo 258.º do Código dos Contratos Públicos,30-12-2011,"280,19 €",,,,Não definido.,Não definido.,
Instalações e Equipamentos Electricos USF Brás-Oleiro,Ajuste Direto Regime Geral,Empreitadas de obras públicas,"45311000-0, Instalação de cabos e acessórios eléctricos","Administração Regional de Saúde do Norte, I.P. (503135593)","J. da Silva Faria, Lda (501600051)","65.828,28 €",01-04-2011,21-07-2010,160 dias,"Portugal, Porto, Gondomar","Artigo 1.º do Decreto-Lei n.º 48/2008, de 13.03",05-01-2011,"65.828,28 €",,,,Não aplicável.,Não aplicável.,
