Objeto do Contrato,Tipo de Procedimento,Tipo(s) de Contrato,CPVs,Entidade(s) Adjudicante(s),Entidade(s) Adjudicatária(s),Preço Contratual,Data de Publicação,Data de Celebração do Contrato,Prazo de Execução,Local de Execução,Fundamentação,Data de Fecho do Contrato,Preço Total Efetivo,Causas das Alterações ao Prazo,Causas das Alterações ao Preço,Estado,N.º registo do Acordo Quadro,Descrição do Acordo Quadro,Procedimento Centralizado
"Aluguer de plataformas elevatórias para mudanças a efetuar no Edifício do nº77, do piso 9 para o piso 2, na Av. EUA (sede da ARSLVT,IP.).",Ajuste Direto Regime Geral,Aquisição de serviços,"63110000-3, Serviços de movimentação de carga","Administração Regional de Saúde de Lisboa e Vale do Tejo, I. P. (503148776)","Transportes Barata & Carvalho, Lda. (500425299)","8.000,00 €",18-06-2015,18-06-2015,5 dias,"Portugal, Lisboa, Lisboa","Artigo 20.º, n.º 1, alínea a) do Código dos Contratos Públicos",,,,,,Não aplicável.,Não aplicável.,FALSE
Empreitada de Remodelação no Centro de Saúde de Fátima,Ajuste Direto Regime Geral,Empreitadas de obras públicas,"45113000-2, Obras no local","Administração Regional de Saúde de Lisboa e Vale do Tejo, I. P. (503148776)","Mário Sanfona, Lda (505322900)","1.420,00 €",18-06-2015,18-06-2015,30 dias,"Portugal, Leiria, Leiria","Artigo 19.º, alínea a) do Código dos Contratos Públicos",,,,,,Não aplicável.,Não aplicável.,FALSE
Obras de beneficiação no Centro de Saúde de Vale da Pedra,Ajuste Direto Regime Geral,Empreitadas de obras públicas,"45113000-2, Obras no local","Administração Regional de Saúde de Lisboa e Vale do Tejo, I. P. (503148776)","Mário Sanfona, Lda (505322900)","2.155,00 €",18-06-2015,18-06-2015,30 dias,"Portugal, Santarém, Cartaxo","Artigo 19.º, alínea a) do Código dos Contratos Públicos",,,,,,Não aplicável.,Não aplicável.,FALSE
Obras de reparação da rede de drenagem das águas residuais domésticas de S. João do Estoril,Ajuste Direto Regime Geral,Empreitadas de obras públicas,"45113000-2, Obras no local","Administração Regional de Saúde de Lisboa e Vale do Tejo, I. P. (503148776)","Prtangle Engenharia e Srviços, Lda (513103988)","13.150,00 €",16-06-2015,16-06-2015,45 dias,"Portugal, Lisboa, Cascais","Artigo 19.º, alínea a) do Código dos Contratos Públicos",,,,,,Não aplicável.,Não aplicável.,FALSE
CARIMBO,Ajuste Direto Regime Geral,Aquisição de bens móveis,"22000000-0, Material impresso e afins","Administração Regional de Saúde de Lisboa e Vale do Tejo, I. P. (503148776)",A UM - EQUIPAMENTO MATERIAL ESCRITÓRIO (502129425),"203,98 €",15-06-2015,24-02-2015,10 dias,"Portugal, Lisboa, Loures","Artigo 20.º, n.º 1, alínea a) do Código dos Contratos Públicos",,,,,,Não aplicável.,Não aplicável.,FALSE
PEQUENAS REPARAÇÕES E MANUTENÇÕES NOS EDIÍCIOS DE SAÚDE,Ajuste Direto Regime Geral,Aquisição de serviços,"50000000-5, Serviços de reparação e manutenção","Administração Regional de Saúde de Lisboa e Vale do Tejo, I. P. (503148776)","BLOCO ZERO - SOCIEDADE DE CONSTRUÇÕES, LDA (502689730)","5.000,00 €",15-06-2015,10-03-2015,180 dias,"Portugal, Lisboa, Loures","Artigo 20.º, n.º 1, alínea a) do Código dos Contratos Públicos",,,,,,Não aplicável.,Não aplicável.,FALSE
CARIMBOS,Ajuste Direto Regime Geral,Aquisição de bens móveis,"22000000-0, Material impresso e afins","Administração Regional de Saúde de Lisboa e Vale do Tejo, I. P. (503148776)",A UM  - EQUIPAMENTO MATERIAL ESCRITÓRIO (502129425),"76,96 €",15-06-2015,26-05-2015,10 dias,"Portugal, Lisboa, Loures","Artigo 20.º, n.º 1, alínea a) do Código dos Contratos Públicos",,,,,,Não aplicável.,Não aplicável.,FALSE
MICROONDAS P/VÁRIAS UNIDADES,Ajuste Direto Regime Geral,Aquisição de bens móveis,"39000000-2, Mobiliário (incl. de escritório), acessórios, aparelhos domésticos (excl. iluminação) e produtos de limpeza","Administração Regional de Saúde de Lisboa e Vale do Tejo, I. P. (503148776)","MONTILETRICA - COMÉRCIO ELECTRODOMÉSTICAS, LDA (501976329)","188,00 €",15-06-2015,27-05-2015,10 dias,"Portugal, Lisboa, Loures","Artigo 20.º, n.º 1, alínea a) do Código dos Contratos Públicos",,,,,,Não aplicável.,Não aplicável.,FALSE
CARIMBOS,Ajuste Direto Regime Geral,Aquisição de bens móveis,"22000000-0, Material impresso e afins","Administração Regional de Saúde de Lisboa e Vale do Tejo, I. P. (503148776)",A UM - EQUIPAMENTO DE MATERIAL DE ESCRITÓRIO (502129425),"49,83 €",15-06-2015,11-05-2015,10 dias,"Portugal, Lisboa, Loures","Artigo 20.º, n.º 1, alínea a) do Código dos Contratos Públicos",,,,,,Não aplicável.,Não aplicável.,FALSE
FARDAMENTO P/ ISF ARS MÉDICA AO ABRIGO DOS INCENTIVOS INSTITUCIONAIS,Ajuste Direto Regime Geral,Aquisição de bens móveis,"18000000-9, Vestuário, calçado, malas e artigos de viagem, acessórios","Administração Regional de Saúde de Lisboa e Vale do Tejo, I. P. (503148776)","RISQUINHA, LDA (503649805)","1.350,00 €",15-06-2015,30-04-2015,10 dias,"Portugal, Lisboa, Loures","Artigo 20.º, n.º 1, alínea a) do Código dos Contratos Públicos",,,,,,Não aplicável.,Não aplicável.,FALSE
VINHETAS,Ajuste Direto Regime Geral,Aquisição de bens móveis,"22000000-0, Material impresso e afins","Administração Regional de Saúde de Lisboa e Vale do Tejo, I. P. (503148776)",IMPRENSA NACIONAL CASA DA MOEDA (500792887),"430,00 €",15-06-2015,04-06-2015,5 dias,"Portugal, Lisboa, Loures","Artigo 20.º, n.º 1, alínea a) do Código dos Contratos Públicos",,,,,,Não aplicável.,Não aplicável.,FALSE
REAGENTES DIVERSOS - IBERLAB,Ajuste Direto Regime Geral,Aquisição de bens móveis,"33696000-5, Reagentes e meios de contraste","Administração Regional de Saúde de Lisboa e Vale do Tejo, I. P. (503148776)","IBERLAB & IMUNOREAGE - SOLUÇÕES PARA LABORATÓRIOS, LDA (503406694)","86.600,00 €",12-06-2015,28-05-2015,217 dias,"Portugal, Lisboa, Lisboa","Artigo 24.º, n.º 1, alínea e) do Código dos Contratos Públicos",,,,,,Não aplicável.,Não aplicável.,FALSE
REAGENTES E MEIOS DE CULTURA - BIO-RAD,Ajuste Direto Regime Geral,Aquisição de bens móveis,"33696000-5, Reagentes e meios de contraste","Administração Regional de Saúde de Lisboa e Vale do Tejo, I. P. (503148776)","BIO-RAD LABORATORIES - APARELHOS E REAGENTES PARA LABORATÓRIOS, LDA (501301321)","11.640,00 €",12-06-2015,06-05-2015,238 dias,"Portugal, Lisboa, Lisboa","Artigo 24.º, n.º 1, alínea e) do Código dos Contratos Públicos",,,,,,Não aplicável.,Não aplicável.,FALSE
LIGADURAS TIPO CREPE - VÁRIOS TAMANHOS,Ajuste Direto Regime Geral,Aquisição de bens móveis,"33141126-9, Ligaduras","Administração Regional de Saúde de Lisboa e Vale do Tejo, I. P. (503148776)","ALBINO DIAS DE ANDRADE, LDA (500013810)","135.800,00 €",12-06-2015,20-05-2015,225 dias,"Portugal, Lisboa, Lisboa","Artigo 20.º, n.º 1, alínea a) do Código dos Contratos Públicos",,,,,,Não aplicável.,Não aplicável.,FALSE
"AQUISIÇÃO DE PRESTAÇÃO DE SERVIÇOS DE SECRETARIADO CLINICO, EM REGIME DE OUTSOURCING, PARA O MÊS DE JUNHO E JULHO DE 2015, PARA O ACES LISBOA CENTRAL.",Ajuste Direto Regime Geral,Aquisição de serviços,"75122000-7, Serviços administrativos na área da saúde","Administração Regional de Saúde de Lisboa e Vale do Tejo, I. P. (503148776)","Kelly Services - Gestão de Processos, Lda (506434770)","6.497,24 €",11-06-2015,01-06-2015,60 dias,"Portugal, Lisboa, Lisboa","Artigo 20.º, n.º 1, alínea a) do Código dos Contratos Públicos",,,,,,Não aplicável.,Não aplicável.,FALSE
"FORNECIMENTO GÁS NATURAL - CRI ORIENTAL (RUA DE XABREGAS, 32) - ABRIL A JULHO DE 2015.",Ajuste Direto Regime Geral,Aquisição de serviços,"65200000-5, Serviços de distribuição de gás e serviços conexos","Administração Regional de Saúde de Lisboa e Vale do Tejo, I. P. (503148776)","LISBOAGÁS COMERCIALIZAÇÃO, S.A. (508156661)","200,00 €",11-06-2015,08-06-2015,60 dias,"Portugal, Lisboa, Lisboa","Artigo 24.º, n.º 1, alínea e) do Código dos Contratos Públicos",,,,,,Não aplicável.,Não aplicável.,FALSE
EQUIPAMENTO MÉDICO PARA ARSLVT,Ajuste Direto Regime Geral,Aquisição de bens móveis,"33100000-1, Equipamento médico","Administração Regional de Saúde de Lisboa e Vale do Tejo, I. P. (503148776)","P M - EQUIPAMENTOS E SERVIÇOS, LDA (508299900)","71.980,00 €",11-06-2015,01-06-2015,5 dias,"Portugal, Lisboa, Lisboa","Artigo 20.º, n.º 1, alínea a) do Código dos Contratos Públicos",,,,,,Não aplicável.,Não aplicável.,FALSE
Obras de reparação das fachadas das Unidades de Saúde de S. Domingos de Rana,Ajuste Direto Regime Geral,Empreitadas de obras públicas,"45113000-2, Obras no local","Administração Regional de Saúde de Lisboa e Vale do Tejo, I. P. (503148776)","Armando Cunha, S.A. (500316066)","2.457,00 €",11-06-2015,11-06-2015,20 dias,"Portugal, Lisboa, Cascais","Artigo 19.º, alínea a) do Código dos Contratos Públicos",,,,,,Não aplicável.,Não aplicável.,FALSE
