Objeto do Contrato,Tipo de Procedimento,Tipo(s) de Contrato,CPVs,Entidade(s) Adjudicante(s),Entidade(s) Adjudicatária(s),Preço Contratual,Data de Publicação,Data de Celebração do Contrato,Prazo de Execução,Local de Execução,Fundamentação,Data de Fecho do Contrato,Preço Total Efetivo,Causas das Alterações ao Prazo,Causas das Alterações ao Preço,Estado,N.º registo do Acordo Quadro,Descrição do Acordo Quadro,Procedimento Centralizado
Aquisição de Material de economato,Ao abrigo de acordo-quadro (art.º 259.º),Aquisição de bens móveis,"30190000-7, Equipamento e material de escritório diverso","Administração Regional de Saúde do Algarve, I. P. (503148709)","Olmar - Artigos de Papelaria, Lda (508831989)","91,60 €",09-06-2017,09-06-2017,365 dias,"Portugal, Faro, Faro",Artigo 259.º do Código dos Contratos Públicos,31-12-2017,"91,60 €",...,...,,1351201,Acordo quadro de fornecimento de papel e economato,FALSE
SC 221/2017 - Aquisição de sistemas fechados e material diverso de recolha de sangue,Ao abrigo de acordo-quadro (art.º 259.º),Aquisição de bens móveis,"33600000-6, Produtos farmacêuticos","Administração Regional de Saúde do Algarve, I. P. (503148709)","Sarstedt - Tecnologia de Laboratório, SA (503019461)","5.880,10 €",08-06-2017,08-06-2017,206 dias,"Portugal, Faro, Faro",Artigo 259.º do Código dos Contratos Públicos,15-12-2017,"1.485,80 €","",quantidades encomendadas e satisfeitas,,1350003,Acordo Quadro para fornecimento de sistemas fechados e material diverso de recolha de sangue às instituições do SNS,FALSE
SC/81/2017 - Aquisição de Testes Deteção Drogas,Ao abrigo de acordo-quadro (art.º 259.º),Aquisição de bens móveis,"33600000-6, Produtos farmacêuticos","Administração Regional de Saúde do Algarve, I. P. (503148709)","Normax - Fábrica Vidros Científicos, Lda. (500203130)","1.317,00 €",08-06-2017,08-06-2017,200 dias,"Portugal, Faro, Faro",Artigo 259.º do Código dos Contratos Públicos,08-06-2017,"263,40 €","",Quantidades encomendadas,,1555404,CP 2015/73 - Acordo quadro para fornecimento de Reagentes - Testes Rápidos às Instituições e Serviços do Serviço Nacional de Saúde,FALSE
CP 105/2017 - Aquisição de testes de hematologia para o ano de 2017,Concurso público,Aquisição de bens móveis,"33696500-0, Reagentes de laboratório","Administração Regional de Saúde do Algarve, I. P. (503148709)","Stago Portugal Unipessoal, Lda (509952976)","1.554,25 €",08-06-2017,08-06-2017,206 dias,"Portugal, Faro, Faro","Artigo 20.º, n.º 1, alínea b) do Código dos Contratos Públicos",24-11-2017,"1.492,08 €","",quantidades encomendadas e satisfeitas,,Não aplicável.,Não aplicável.,FALSE
CP 105/2017 - Aquisição de testes de hematologia para o ano de 2017,Concurso público,Aquisição de bens móveis,"33696500-0, Reagentes de laboratório","Administração Regional de Saúde do Algarve, I. P. (503148709)","BECKMAN COULTER PORTUGAL UNIPESSOAL,LDA. (509035167)","10.340,00 €",08-06-2017,29-05-2017,206 dias,"Portugal, Faro, Faro","Artigo 20.º, n.º 1, alínea b) do Código dos Contratos Públicos",28-11-2017,"5.765,00 €","",quantidades encomendadas e satisfeitas,,Não aplicável.,Não aplicável.,FALSE
CP 105/2017 - Aquisição de testes de hematologia para o ano de 2017,Concurso público,Aquisição de bens móveis,"33696500-0, Reagentes de laboratório","Administração Regional de Saúde do Algarve, I. P. (503148709)","Menarini Diagnosticos, Material de Laboratório, Lda (502610069)","11.450,00 €",08-06-2017,29-05-2017,206 dias,"Portugal, Faro, Faro","Artigo 20.º, n.º 1, alínea b) do Código dos Contratos Públicos",24-11-2017,"3.893,00 €","",quantidades encomendadas e satisfeitas,,Não aplicável.,Não aplicável.,FALSE
Aquisição de Kits de Baclofeno,Ajuste Direto Regime Geral,Aquisição de bens móveis,"33100000-1, Equipamento médico","Administração Regional de Saúde do Algarve, I. P. (503148709)","Medtronic Portugal, Lda. (504223933)","2.240,00 €",07-06-2017,29-05-2017,207 dias,"Portugal, Faro, Faro","Artigo 24.º, n.º 1, alínea e) do Código dos Contratos Públicos","","","","",,Não aplicável.,Não aplicável.,FALSE
Talas insufláveis,Ajuste Direto Regime Geral,Aquisição de bens móveis,"33100000-1, Equipamento médico","Administração Regional de Saúde do Algarve, I. P. (503148709)",Grupo Vitalino  (513083162),"7.240,30 €",07-06-2017,29-05-2017,207 dias,"Portugal, Faro, Faro","Artigo 20.º, n.º 1, alínea a) do Código dos Contratos Públicos","","","","",,Não aplicável.,Não aplicável.,FALSE
Aquisição de testes para o rastreio do cancro do colon e recto.,Concurso público,Aquisição de bens móveis,"33141625-7, Kits de diagnóstico","Administração Regional de Saúde do Algarve, I. P. (503148709)","SYSMEX ESPAÑA, S.L (B-64928948)","128.000,00 €",07-06-2017,01-06-2017,213 dias,"Portugal, Faro, Faro","Artigo 20.º, n.º 1, alínea b) do Código dos Contratos Públicos",31-12-2017,"69.600,00 €","",Quantidades encomendadas.,,Não aplicável.,Não aplicável.,FALSE
Aquisição de Azitromicina,Ao abrigo de acordo-quadro (art.º 259.º),Aquisição de bens móveis,"33651000-8, Anti-infecciosos gerais de uso sistémico","Administração Regional de Saúde do Algarve, I. P. (503148709)","Generis Farmacêutica, S.A. (508107997)","90,30 €",07-06-2017,07-06-2017,207 dias,"Portugal, Faro, Faro",Artigo 259.º do Código dos Contratos Públicos,08-06-2017,"30,32 €","",Quantidades encomendadas.,,1326195,ACORDO QUADRO PARA FORNECIMENTO DE MEDICAMENTOS ANTI-INFECIOSOS: EXCETO ANTIVÍRICOS E ANTIFÚNGICOS ÀS INSTITUIÇÕES E SERVIÇOS DO SERVIÇO NACIONAL DE SAÚDE,FALSE
AD_157_2017 - Obras de adaptação funcional para o gabinete de medicina dentária UCSP Tavira,Ajuste Direto Regime Geral,Empreitadas de obras públicas,"45453000-7, Obras de revisão e recuperação","Administração Regional de Saúde do Algarve, I. P. (503148709)","Joaquim & Fernandes, Lda (501717307)","11.329,72 €",06-06-2017,06-06-2017,30 dias,"Portugal, Faro, Tavira","Artigo 19.º, alínea a) do Código dos Contratos Públicos","","11.329,72 €","","",,Não aplicável.,Não aplicável.,FALSE
Aquisição de Clonixina,Ao abrigo de acordo-quadro (art.º 259.º),Aquisição de bens móveis,"33661000-1, Medicamentos para o sistema nervoso","Administração Regional de Saúde do Algarve, I. P. (503148709)","LUSOMEDICAMENTA-SOCIEDADE TECNICA FARMACEUTICA, S.A. (507150473)","315,36 €",05-06-2017,05-06-2017,209 dias,"Portugal, Faro, Faro",Artigo 259.º do Código dos Contratos Públicos,19-12-2017,"315,29 €","",Quantidades encomendadas,,1974985,"Medicamentos Analgésicos, Antipiréticos e Antidepressivos",FALSE
Aquisição de Material de Consumo Clínico,Ajuste Direto Regime Geral,Aquisição de bens móveis,"33721100-1, Lâminas de barbear<BR/>33140000-3, Material médico de consumo","Administração Regional de Saúde do Algarve, I. P. (503148709)","Bastos Viegas, SA (500042772)","1.447,50 €",05-06-2017,05-06-2017,209 dias,"Portugal, Faro, Faro","Artigo 20.º, n.º 1, alínea a) do Código dos Contratos Públicos","","","","",,Não aplicável.,Não aplicável.,FALSE
Aquisição de Material de consumo Clínico,Ajuste Direto Regime Geral,Aquisição de bens móveis,"33141615-4, Sacos para urina<BR/>33140000-3, Material médico de consumo<BR/>33141110-4, Pensos","Administração Regional de Saúde do Algarve, I. P. (503148709)","EPJMédica - Artigos Medicos e Hospitalares, Lda (506820513)","285,60 €",05-06-2017,05-06-2017,209 dias,"Portugal, Faro, Faro","Artigo 20.º, n.º 1, alínea a) do Código dos Contratos Públicos","","","","",,Não aplicável.,Não aplicável.,FALSE
Aquisição de Material de Consumo Clínico,Ajuste Direto Regime Geral,Aquisição de bens móveis,"33141200-2, Cateteres<BR/>33140000-3, Material médico de consumo","Administração Regional de Saúde do Algarve, I. P. (503148709)","Intersurgical Portugal - Comércio de Produtos Hospitalares, Lda (503480045)","368,50 €",05-06-2017,05-06-2017,209 dias,"Portugal, Faro, Faro","Artigo 20.º, n.º 1, alínea a) do Código dos Contratos Públicos","","","","",,Não aplicável.,Não aplicável.,FALSE
Aquisição de Material de Consumo Clínico,Ajuste Direto Regime Geral,Aquisição de bens móveis,"33140000-3, Material médico de consumo<BR/>33141641-5, Sondas","Administração Regional de Saúde do Algarve, I. P. (503148709)","Overpharma Produtos Médicos e Farmaceuticos, Lda (505792362)","732,56 €",05-06-2017,05-06-2017,209 dias,"Portugal, Faro, Faro","Artigo 20.º, n.º 1, alínea a) do Código dos Contratos Públicos","","","","",,Não aplicável.,Não aplicável.,FALSE
" Aquisição de Inibidor Proteico para pré-tratamento de instrumentos para a Farmácia da ARS Algarve, I.P.",Ajuste Direto Regime Geral,Aquisição de bens móveis,"33631600-8, Anti-sépticos e desinfectantes","Administração Regional de Saúde do Algarve, I. P. (503148709)",DIMORASEPT - HIGIENE MÉDICA HOS LDA (510258786),"1.998,00 €",05-06-2017,05-06-2017,209 dias,"Portugal, Faro, Faro","Artigo 24.º, n.º 1, alínea e) do Código dos Contratos Públicos",29-12-2017,"1.554,00 €","",Quantidades adjudicadas não encomendadas na totalidade,,Não aplicável.,Não aplicável.,FALSE
AQUISIÇÃO DE MEDICAMENTOS GERAIS,Ao abrigo de acordo-quadro (art.º 259.º),Aquisição de bens móveis,"33690000-3, Medicamentos vários","Administração Regional de Saúde do Algarve, I. P. (503148709)","SANOFI- PROD.FARMACEUTICOS, LDA (500134960)","688,96 €",05-06-2017,05-06-2017,209 dias,"Portugal, Faro, Faro",Artigo 259.º do Código dos Contratos Públicos,02-08-2017,"626,70 €","",Quantidades encomendadas.,,2356543,CP 2016/19 - Medicamentos Antipsicóticos,FALSE
Aquisição de Material de Consumo Hoteleiro,Concurso público,Aquisição de bens móveis,"39830000-9, Produtos de limpeza<BR/>19640000-4, Sacos de polietileno para recolha de lixo e resíduos","Administração Regional de Saúde do Algarve, I. P. (503148709)","JBS Higi, Lda (513110461)","19.713,00 €",05-06-2017,22-05-2017,209 dias,"Portugal, Faro, Faro","Artigo 20.º, n.º 1, alínea b) do Código dos Contratos Públicos",31-12-2017,"12.353,43 €",....,Quantidades Adjudicadas não foram todas satisfeitas,,Não aplicável.,Não aplicável.,FALSE
AD_88_2017 - Aquisição de Módulos Pré Fabricados para ampliação das instalações da UCSP de Quarteira,Ajuste Direto Regime Geral,Aquisição de bens móveis,"44211000-2, Edifícios pré-fabricados","Administração Regional de Saúde do Algarve, I. P. (503148709)","Algeco, S.A. (502721871)","56.627,34 €",05-06-2017,23-05-2017,30 dias,"Portugal, Faro, Loulé","Artigo 20.º, n.º 1, alínea a) do Código dos Contratos Públicos",20-12-2017,"56.627,34 €","","",,Não aplicável.,Não aplicável.,FALSE
AD_94_2017 Fornecimento de Telheiros para as USF Albufeira e lauroé,Ajuste Direto Regime Geral,Aquisição de bens móveis,"44431000-0, Chapas de cobertura","Administração Regional de Saúde do Algarve, I. P. (503148709)","Algeco, S.A. (502721871)","39.999,69 €",05-06-2017,25-05-2017,30 dias,"Portugal, Faro, Loulé<BR/>Portugal, Faro, Albufeira","Artigo 20.º, n.º 1, alínea a) do Código dos Contratos Públicos",03-10-2017,"39.999,69 €","","",,Não aplicável.,Não aplicável.,FALSE
SC_146_2017 Aquisição de Material de consumo clincio,Ao abrigo de acordo-quadro (art.º 259.º),Aquisição de bens móveis,"33000000-0, Equipamento médico, medicamentos e produtos para cuidados pessoais","Administração Regional de Saúde do Algarve, I. P. (503148709)",Iberlab & Imunoreage (503406694),"1.860,00 €",05-06-2017,05-06-2017,180 dias,"Portugal, Faro, Faro",Artigo 259.º do Código dos Contratos Públicos,"","","","",,464738,"Concurso público para a celebração de contratos públicos de aprovisionamento para a área da saúde, com vista ao fornecimento de material de prevenção e deteção do HIV.",FALSE
SC_138_2017 Aquisição de Material de Consumo Clínico,Ao abrigo de acordo-quadro (art.º 259.º),Aquisição de bens móveis,"33000000-0, Equipamento médico, medicamentos e produtos para cuidados pessoais","Administração Regional de Saúde do Algarve, I. P. (503148709)",OverPharm (505792362),"1.113,00 €",05-06-2017,05-06-2017,180 dias,"Portugal, Faro, Faro",Artigo 259.º do Código dos Contratos Públicos,"","","","",,2183748,Pensos especiais,FALSE
SC_138_2017 Aquisição de Material de consumo clinico,Ao abrigo de acordo-quadro (art.º 259.º),Aquisição de bens móveis,"33000000-0, Equipamento médico, medicamentos e produtos para cuidados pessoais","Administração Regional de Saúde do Algarve, I. P. (503148709)",Bastos & Viegas (500042772),"1.429,40 €",05-06-2017,05-06-2017,180 dias,"Portugal, Faro, Faro",Artigo 259.º do Código dos Contratos Públicos,"","","","",,2183748,Pensos especiais,FALSE
SP/204/2017 - Aquisição de Tuberculina (T222),Ajuste Direto Regime Geral,Aquisição de bens móveis,"33651600-4, Vacinas","Administração Regional de Saúde do Algarve, I. P. (503148709)","J.M.Farmacêutica, S.A. (503550558)","8.580,00 €",02-06-2017,02-06-2017,210 dias,"Portugal, Faro, Faro","Artigo 24.º, n.º 1, alínea e) do Código dos Contratos Públicos",23-11-2017,"8.580,00 €","","",,Não aplicável.,Não aplicável.,FALSE
AM/183/2017 - Aquisição de Medicamentos Diversos.1,Ajuste Direto Regime Geral,Aquisição de bens móveis,"33690000-3, Medicamentos vários","Administração Regional de Saúde do Algarve, I. P. (503148709)","Laboratórios Vitória, S.A. (500162220)","370,16 €",02-06-2017,02-06-2017,210 dias,"Portugal, Faro, Faro","Artigo 24.º, n.º 1, alínea e) do Código dos Contratos Públicos",04-08-2017,"213,46 €","",Quantidades encomendadas.,,Não aplicável.,Não aplicável.,FALSE
AD/75/2017 - Aquisição de Gases Medicinais,Ajuste Direto Regime Geral,Aquisição de bens móveis,"24100000-5, Gases","Administração Regional de Saúde do Algarve, I. P. (503148709)","Linde Portugal, Lda. (500266344)","9.272,64 €",01-06-2017,01-06-2017,214 dias,"Portugal, Faro, Faro","Artigo 20.º, n.º 1, alínea a) do Código dos Contratos Públicos",22-12-2017,"1.291,56 €","",Quantidades encomendadas.,,Não aplicável.,Não aplicável.,FALSE
SC/208/2017 - Aquisição de Medicamentos Gerais.10,Ao abrigo de acordo-quadro (art.º 259.º),Aquisição de bens móveis,"33690000-3, Medicamentos vários","Administração Regional de Saúde do Algarve, I. P. (503148709)","Meda Pharma Produtos Farmacêuticos, S.A. (500082090)","2.703,94 €",01-06-2017,01-06-2017,214 dias,"Portugal, Faro, Faro",Artigo 259.º do Código dos Contratos Públicos,27-11-2017,"2.670,94 €","",Quantidades encomendadas.,,602875,"CONCURSO PÚBLICO PARA A CELEBRAÇÃO DE CONTRATOS PÚBLICOS DE APROVISIONAMENTO PARA A ÁREA DA SAÚDE, COM VISTA AO FORNECIMENTO DE MEDICAMENTOS DE CONSUMO GERAL - USADOS NAS AFECÇÕES CUTÂNEAS, ÀS INSTITUIÇÕES E SERVIÇOS DO SERVIÇO NACIONAL DE SAÚDE",FALSE
