Objeto do Contrato,Tipo de Procedimento,Tipo(s) de Contrato,CPVs,Entidade(s) Adjudicante(s),Entidade(s) Adjudicatária(s),Preço Contratual,Data de Publicação,Data de Celebração do Contrato,Prazo de Execução,Local de Execução,Fundamentação,Data de Fecho do Contrato,Preço Total Efetivo,Causas das Alterações ao Prazo,Causas das Alterações ao Preço,Estado,N.º registo do Acordo Quadro,Descrição do Acordo Quadro,Procedimento Centralizado
"Serviços de Limpeza para a Unidade Local de Saúde da Guarda, E.P.E.",Concurso público,Aquisição de serviços,"90911200-8, Serviços de limpeza de edifícios","Unidade Local de Saúde da Guarda, E.P.E (508752000)",CLECE SA (980359759),"445.568,88 €",17-06-2016,04-06-2015,365 dias,"Portugal, Guarda, Guarda","Artigo 20.º, n.º 1, alínea b) do Código dos Contratos Públicos",,,,,,Não aplicável.,Não aplicável.,FALSE
Aquisição de Grua elevatória e de elevador de transf. de doentes P/ AVC e cirurgia,Ajuste Direto Regime Geral,Aquisição de bens móveis,"33140000-3, Material médico de consumo","Unidade Local de Saúde da Guarda, E.P.E (508752000)","EPJMÉDICA - Artigos Médicos e Hospitalares, Lda (506820513)","3.845,40 €",16-06-2016,08-06-2016,45 dias,"Portugal, Guarda, Guarda","Artigo 20.º, n.º 1, alínea a) do Código dos Contratos Públicos",,,,,,Não aplicável.,Não aplicável.,FALSE
Obras de Reparação de Infiltrações no PT,Ajuste Direto Regime Geral,Empreitadas de obras públicas,"45259000-7, Reparação e manutenção de instalações","Unidade Local de Saúde da Guarda, E.P.E (508752000)","EDIBEIRAS - EDIFÍCIOS E OBRAS PÚBLICAS DAS BEIRAS, LDA (508005833)","19.745,50 €",15-06-2016,23-05-2016,30 dias,"Portugal, Guarda, Guarda","Artigo 19.º, alínea a) do Código dos Contratos Públicos",,,,,,Não aplicável.,Não aplicável.,FALSE
Instalações Sanitárias da Oncologia,Ajuste Direto Regime Geral,Empreitadas de obras públicas,"45215000-7, Obras de construção de edifícios relacionados com serviços de saúde ou sociais, crematórios e instalações sanitárias públicas","UNIDADE LOCAL DE SAÚDE DA GUARDA, E.P.E (508752000)","EDIBEIRAS - EDIFÍCIOS E OBRAS PÚBLICAS DAS BEIRAS, LDA (508005833)","4.582,31 €",15-06-2016,08-06-2016,30 dias,"Portugal, Guarda, Guarda","Artigo 19.º, alínea a) do Código dos Contratos Públicos",,,,,,Não aplicável.,Não aplicável.,FALSE
