Objeto do Contrato,Tipo de Procedimento,Tipo(s) de Contrato,CPVs,Entidade(s) Adjudicante(s),Entidade(s) Adjudicatária(s),Preço Contratual,Data de Publicação,Data de Celebração do Contrato,Prazo de Execução,Local de Execução,Fundamentação,Data de Fecho do Contrato,Preço Total Efetivo,Causas das Alterações ao Prazo,Causas das Alterações ao Preço,Estado,N.º registo do Acordo Quadro,Descrição do Acordo Quadro,Procedimento Centralizado
0042E17 - PROTESES DENTARIAS,Ajuste Direto Regime Geral,Aquisição de serviços,"85100000-0, Serviços de saúde","CENTRO HOSPITALAR DE LEIRIA, E.P.E. (509822932)","Laboratório Dentário Daniel S. Morgado, Lda. (502419717)","14.887,40 €",10-10-2017,21-06-2017,365 dias,"Portugal, Leiria","Artigo 20.º, n.º 1, alínea a) do Código dos Contratos Públicos",27-06-2017,"14.887,40 €",,,,Não aplicável.,Não aplicável.,FALSE
7152E17-DUODENOSCÓPIO,Ajuste Direto Regime Geral,Aquisição de bens móveis,"33100000-1, Equipamento médico","Centro Hospitalar de Leiria, E. P. E. (509822932)","OLYMPUS IBÉRIA, SAU (980474710)","20.300,00 €",06-10-2017,04-10-2017,1 dias,"Portugal, Leiria, Leiria","Artigo 20.º, n.º 1, alínea a) do Código dos Contratos Públicos",04-10-2017,"20.300,00 €",,,,Não aplicável.,Não aplicável.,FALSE
