Objeto do Contrato,Tipo de Procedimento,Tipo(s) de Contrato,CPVs,Entidade(s) Adjudicante(s),Entidade(s) Adjudicatária(s),Preço Contratual,Data de Publicação,Data de Celebração do Contrato,Prazo de Execução,Local de Execução,Fundamentação,Data de Fecho do Contrato,Preço Total Efetivo,Causas das Alterações ao Prazo,Causas das Alterações ao Preço,Estado,N.º registo do Acordo Quadro,Descrição do Acordo Quadro,Procedimento Centralizado
AD 96/2018 - prestação de serviços de lavagem e tratamento de roupa para a UDA e LRSP para o ano de 2018,Ajuste Direto Regime Geral,Aquisição de serviços,"98311000-6, Serviços de recolha de roupa por lavandarias","Administração Regional de Saúde do Algarve, I. P. (503148709)","OM WASH, UNIPESSOAL, LDA (509859291)","4.233,90 €",28-02-2018,28-02-2018,306 dias,"Portugal, Faro, Faro","Artigo 20.º, n.º 1, alínea d) do Código dos Contratos Públicos","","",,"",,Não aplicável.,Não aplicável.,FALSE
Fornecimento de Combustíveis com associação de portagens e parques via verde,Ajuste Direto Regime Geral,Aquisição de bens móveis,"09100000-0, Combustíveis","Administração Regional de Saúde do Algarve, I. P. (503148709)","Galp Petróleos de Portugal - Petrogal, S.A. (500697370)","12.047,22 €",26-02-2018,15-02-2018,31 dias,"Portugal, Faro, Faro","Artigo 24.º, n.º 1, alínea c) do Código dos Contratos Públicos",28-02-2018,"9.453,24 €",,"Valor Adjudicado, não foi totalmente encomendado",,Não aplicável.,Não aplicável.,FALSE
Serviços de manutenção e assistência técnica aos equipamentos de digitalização de imagem radiológica.,Ajuste Direto Regime Geral,Aquisição de serviços,"50000000-5, Serviços de reparação e manutenção","Administração Regional de Saúde do Algarve, I. P. (503148709)",FUJIFILM EUROPE GMBH (980456517),"10.198,59 €",21-02-2018,02-02-2018,333 dias,"Portugal, Faro, Silves<BR/>Portugal, Faro, Loulé<BR/>Portugal, Faro, Vila Real Sto Antonio<BR/>Portugal, Faro, Olhão<BR/>Portugal, Faro, Albufeira<BR/>Portugal, Faro, Faro<BR/>Portugal, Faro, Tavira","Artigo 24.º, n.º 1, alínea e) do Código dos Contratos Públicos",31-12-2018,"10.198,59 €",,"",,Não aplicável.,Não aplicável.,FALSE
Prestação de Serviços de Medicina Dentária,Ao abrigo de acordo-quadro (art.º 259.º),Aquisição de serviços,"85131000-6, Serviços de medicina dentária","Administração Regional de Saúde do Algarve, I. P. (503148709)","Precise, SA (513993274)","31.200,00 €",21-02-2018,14-02-2018,365 dias,"Portugal, Faro, Faro",Artigo 259.º do Código dos Contratos Públicos,"","",,"",,2660427,CP 2017/115 - Acordo Quadro para Prestação de Serviços de Medicina Dentária,FALSE
Serviços de Medicina Dentária,Ao abrigo de acordo-quadro (art.º 259.º),Aquisição de serviços,"85131000-6, Serviços de medicina dentária","Administração Regional de Saúde do Algarve, I. P. (503148709)",MEDIPEOPLE- LDA (508543436),"39.249,60 €",21-02-2018,14-02-2018,365 dias,"Portugal, Faro, Faro",Artigo 259.º do Código dos Contratos Públicos,"","",,"",,2660427,CP 2017/115 - Acordo Quadro para Prestação de Serviços de Medicina Dentária,FALSE
