Objeto do Contrato,Tipo de Procedimento,Tipo(s) de Contrato,CPVs,Entidade(s) Adjudicante(s),Entidade(s) Adjudicatária(s),Preço Contratual,Data de Publicação,Data de Celebração do Contrato,Prazo de Execução,Local de Execução,Fundamentação,Data de Fecho do Contrato,Preço Total Efetivo,Causas das Alterações ao Prazo,Causas das Alterações ao Preço,Estado,N.º registo do Acordo Quadro,Descrição do Acordo Quadro,Procedimento Centralizado
1900002/2019 Fornecimento de Serviços para Realização de Ressonâncias Magnéticas aos Doentes do CHBM para o ano 2019 e 2020,Concurso público,Aquisição de serviços,"85150000-5, Serviços de imagiologia médica","CHBM - Centro Hospital Barreiro Montijo, EPE (509186998)","IMI - Imagens Médicas Integradas, S.A. (501721037)","512.860,00 €",11-01-2019,07-01-2019,730 dias,"Portugal, Setúbal, Barreiro","Artigo 20.º, n.º 1, alínea a) do Código dos Contratos Públicos","","",,,,Não aplicável.,Não aplicável.,FALSE
"1900001/2019 Fornecimento de Serviços de Realização de Tomografia Computorizada aos doentes do CHBM, para os anos 2019 e 2020",Concurso público,Aquisição de serviços,"85150000-5, Serviços de imagiologia médica","CHBM - Centro Hospital Barreiro Montijo, EPE (509186998)","Imaset - Clínica Imagiológica de Setúbal, Unipessoal, Lda (503848263)","546.638,00 €",11-01-2019,07-12-2018,730 dias,"Portugal, Setúbal, Barreiro<BR/>Portugal","Artigo 20.º, n.º 1, alínea a) do Código dos Contratos Públicos","","",,,,Não aplicável.,Não aplicável.,FALSE
30013/2018 MONITORES TENSÃO ARTERIAL,Consulta Prévia,Aquisição de bens móveis,"33100000-1, Equipamento médico","CHBM - Centro Hospital Barreiro Montijo, EPE (509186998)","CLINIFAR - PROD. CLINICOS E FARMACEUTICOS, S.A. (503281115)","6.594,00 €",11-01-2019,27-11-2018,90 dias,"Portugal<BR/>Portugal, Setúbal, Barreiro","Artigo 20.º, n.º 1, alínea c) do Código dos Contratos Públicos",27-12-2018,"6.594,00 €",,,,Não aplicável.,Não aplicável.,FALSE
