Objeto do Contrato,Tipo de Procedimento,Tipo(s) de Contrato,CPVs,Entidade(s) Adjudicante(s),Entidade(s) Adjudicatária(s),Preço Contratual,Data de Publicação,Data de Celebração do Contrato,Prazo de Execução,Local de Execução,Fundamentação,Data de Fecho do Contrato,Preço Total Efetivo,Causas das Alterações ao Prazo,Causas das Alterações ao Preço,Estado,N.º registo do Acordo Quadro,Descrição do Acordo Quadro,Procedimento Centralizado
5420154/2013 material inutilização Medicina Intensiva,Ajuste Direto Regime Geral,Aquisição de bens móveis,"33000000-0, Equipamento médico, medicamentos e produtos para cuidados pessoais","Centro Hospitalar e Universitário de Coimbra, E.P.E. (510103448)","MANUEL NUNES ANTÃO, LDA (500179905)","88,60 €",01-10-2013,02-05-2013,30 dias,"Portugal, Coimbra, Coimbra","Artigo 20.º, n.º 1, alínea a) do Código dos Contratos Públicos","","",,,,Não aplicável.,Não aplicável.,
CAIXA DE PETRY PARA REALIZAÇÃO DE INSI - 100 UNIDADES  PALHETA DE VITRIFICAÇÃO - 300 UNIDADES,Ajuste Direto Regime Geral,Aquisição de bens móveis,"33000000-0, Equipamento médico, medicamentos e produtos para cuidados pessoais","Centro Hospitalar e Universitário de Coimbra, E.P.E. (510103448)","ZMWAY - LABORATORIO SOLUTIONS (508085349), EMB-EQUIPAMENTOS MÉDICOS BIOLÓGICOS, LDA (507364457)","11.115,00 €",01-10-2013,27-09-2013,60 dias,"Portugal, Coimbra, Coimbra","Artigo 20.º, n.º 1, alínea a) do Código dos Contratos Públicos","","",,,,Não aplicável.,Não aplicável.,
Pacemakers e Electrocateteres-St. Jude Medical,Ajuste Direto Regime Geral,Aquisição de bens móveis,"33000000-0, Equipamento médico, medicamentos e produtos para cuidados pessoais","Centro Hospitalar e Universitário de Coimbra, E.P.E. (510103448)","ST.JUDE MEDICAL-D.PROD.MED,LDA (504180746)","19.647,50 €",01-10-2013,18-09-2013,20 dias,"Portugal, Coimbra, Coimbra","Artigo 24.º, n.º 1, alínea e) do Código dos Contratos Públicos","","",,,,Não aplicável.,Não aplicável.,
5450142/2013 - Papel de Impressão e Papel de Embalagem,Ajuste Direto Regime Geral,Aquisição de bens móveis,"30000000-9, Máquinas, equipamento e material de escritório e de informática, excepto mobiliário e pacotes de programas (software)","Centro Hospitalar e Universitário de Coimbra, E.P.E. (510103448)","Baxter Médico-Farmacêutica, Lda. (503347345)","26.388,60 €",30-09-2013,12-09-2013,110 dias,"Portugal, Coimbra, Coimbra","Artigo 24.º, n.º 1, alínea e) do Código dos Contratos Públicos","","",,,,Não aplicável.,Não aplicável.,
Fornecimento de Desferriprona 500 mg comp,Ajuste Direto Regime Geral,Aquisição de bens móveis,"33698000-9, Produtos para fins clínicos","Centro Hospitalar e Universitário de Coimbra, E.P. (510103448)","Profarin-Distribuidora de Produtos Farmacêuticos Industriais, Ld.ª (500223238)","9.000,00 €",30-09-2013,11-09-2013,120 dias,"Portugal, Coimbra","Artigo 24.º, n.º 1, alínea e) do Código dos Contratos Públicos",31-12-2013,"9.000,00 €",,,,Não aplicável.,Não aplicável.,
"Fornecimento de Sol Dial Perit Glicose 13,6 mg/ml bicarbonato ",Ajuste Direto Regime Geral,Aquisição de bens móveis,"33698000-9, Produtos para fins clínicos","Centro Hospitalar e Universitário de Coimbra, E.P. (510103448)","Baxter Medico Farmacêutica, Ld.ª (503347345)","3.420,00 €",30-09-2013,10-09-2013,120 dias,"Portugal, Coimbra, Coimbra<BR/>Portugal","Artigo 24.º, n.º 1, alínea e) do Código dos Contratos Públicos",31-12-2013,"3.420,00 €",,,,Não aplicável.,Não aplicável.,
Aquisição de: EVEROLÍMUS 10 MG COMP,Ajuste Direto Regime Geral,Aquisição de bens móveis,"33698000-9, Produtos para fins clínicos","Centro Hospitalar e Universitário de Coimbra, E.P. (510103448)","Novartis Farma - Produtos Farmacêuticos, S. A.  (500063524)","39.534,03 €",30-09-2013,02-09-2013,365 dias,"Portugal, Coimbra, Coimbra<BR/>Portugal","Artigo 24.º, n.º 1, alínea e) do Código dos Contratos Públicos",24-12-2013,"39.534,03 €",,,,Não aplicável.,Não aplicável.,
BOTAS ORTOPEDICAS - 1 PAR  MEIA PARA COTO - 1 UNIDADE  MANGA COMPRESSIVA - 1 UNIDADE  ORTOTESES TORNOZELO-PÉ AFO - 1 UNIDADE,Ajuste Direto Regime Geral,Aquisição de bens móveis,"33000000-0, Equipamento médico, medicamentos e produtos para cuidados pessoais","Centro Hospitalar e Universitário de Coimbra, E.P.E. (510103448)","ORTOMILEMIO - IND. PROTESES E ORTOTESES, LDA (510169627), VITAE ORTHOS ORTOPEDIAS, LDA (507319672), ORTOPEDIA ALVALAN, LDA (500749060)","319,02 €",30-09-2013,01-06-2013,30 dias,"Portugal, Coimbra, Coimbra","Artigo 20.º, n.º 1, alínea a) do Código dos Contratos Públicos","","",,,,Não aplicável.,Não aplicável.,
Aquisição de: GAZE CELULOSE OXIDADA (REGENERADA) 10X20 CM APOSITO,Ajuste Direto Regime Geral,Aquisição de bens móveis,"33698000-9, Produtos para fins clínicos","Centro Hospitalar e Universitário de Coimbra, E.P. (510103448)","Johnson & Johnson, Lda (500153370)","12.667,50 €",30-09-2013,19-09-2013,365 dias,"Portugal, Coimbra, Coimbra","Artigo 20.º, n.º 1, alínea a) do Código dos Contratos Públicos",31-12-2013,"12.667,50 €",,,,Não aplicável.,Não aplicável.,
GUIAS E DISPOSITIVOS DE OCLUSÃO,Ajuste Direto Regime Geral,Aquisição de bens móveis,"33000000-0, Equipamento médico, medicamentos e produtos para cuidados pessoais","Centro Hospitalar e Universitário de Coimbra, E.P.E. (510103448)",St. Jude Medical  (504180746),"1.191,68 €",27-09-2013,27-09-2013,30 dias,"Portugal, Coimbra, Coimbra","Artigo 24.º, n.º 1, alínea e) do Código dos Contratos Públicos","","",,,,Não aplicável.,Não aplicável.,
Material de Intervenção e Diagnóstico,Ajuste Direto Regime Geral,Aquisição de bens móveis,"33000000-0, Equipamento médico, medicamentos e produtos para cuidados pessoais","Centro Hospitalar e Universitário de Coimbra, E.P.E. (510103448)",Medicinalia Cormedica (500684324),"19.945,00 €",27-09-2013,23-09-2013,30 dias,"Portugal, Coimbra, Coimbra","Artigo 24.º, n.º 1, alínea e) do Código dos Contratos Públicos","","",,,,Não aplicável.,Não aplicável.,
BAINHAS,Ajuste Direto Regime Geral,Aquisição de bens móveis,"33000000-0, Equipamento médico, medicamentos e produtos para cuidados pessoais","Centro Hospitalar e Universitário de Coimbra, E.P.E. (510103448)",TELEFLEX MEDICAL (980249783),"1.280,00 €",27-09-2013,23-09-2013,30 dias,"Portugal, Coimbra, Coimbra","Artigo 24.º, n.º 1, alínea e) do Código dos Contratos Públicos","","",,,,Não aplicável.,Não aplicável.,
Material de Tratamento,Ajuste Direto Regime Geral,Aquisição de bens móveis,"33000000-0, Equipamento médico, medicamentos e produtos para cuidados pessoais","Centro Hospitalar e Universitário de Coimbra, E.P.E. (510103448)",MEDXRAY (506187071),"600,60 €",27-09-2013,23-09-2013,30 dias,"Portugal, Coimbra, Coimbra","Artigo 24.º, n.º 1, alínea e) do Código dos Contratos Públicos","","",,,,Não aplicável.,Não aplicável.,
1 UNIDADE - CARDIODESFIBRILHADOR CDI CAMARA DUPLA COM ELECTRODOS,Ajuste Direto Regime Geral,Aquisição de bens móveis,"33000000-0, Equipamento médico, medicamentos e produtos para cuidados pessoais","Centro Hospitalar e Universitário de Coimbra, E.P.E. (510103448)","BOSTON SCIENTIFIC PORTUGAL -DISPOSITIVOS MEDICOS,LDA (504988964)","16.150,00 €",27-09-2013,06-08-2013,20 dias,"Portugal, Coimbra, Coimbra","Artigo 24.º, n.º 1, alínea e) do Código dos Contratos Públicos","","",,,,Não aplicável.,Não aplicável.,
Stents,Ajuste Direto Regime Geral,Aquisição de bens móveis,"33000000-0, Equipamento médico, medicamentos e produtos para cuidados pessoais","Centro Hospitalar e Universitário de Coimbra, E.P.E. (510103448)",Farmimpex Cardio (503061506),"709,00 €",27-09-2013,23-09-2013,30 dias,"Portugal, Coimbra, Coimbra","Artigo 24.º, n.º 1, alínea e) do Código dos Contratos Públicos","","",,,,Não aplicável.,Não aplicável.,
Próteses Arto Bi- Ilíacas,Ajuste Direto Regime Geral,Aquisição de bens móveis,"33000000-0, Equipamento médico, medicamentos e produtos para cuidados pessoais","Centro Hospitalar e Universitário de Coimbra, E.P.E. (510103448)",Medicinália Cormédica  (500684324),"22.400,00 €",27-09-2013,23-09-2013,30 dias,"Portugal, Coimbra, Coimbra","Artigo 24.º, n.º 1, alínea e) do Código dos Contratos Públicos","","",,,,Não aplicável.,Não aplicável.,
1 UNIDADE - CARDIODESFIBRILHADOR - CDI BIVENTRICULAR SEM ELECTRODO  1 UNIDADE - CARDIODESFIBRILHADOR - CDI BIVENTRICULAR COM ELECTRODO,Ajuste Direto Regime Geral,Aquisição de bens móveis,"33000000-0, Equipamento médico, medicamentos e produtos para cuidados pessoais","Centro Hospitalar e Universitário de Coimbra, E.P.E. (510103448)","BOSTON SCIENTIFIC  PORTUGAL -DISPOSITIVOS MÉDICOS,LDA (504988964)","39.980,00 €",27-09-2013,06-08-2013,20 dias,"Portugal, Coimbra, Coimbra","Artigo 24.º, n.º 1, alínea e) do Código dos Contratos Públicos","","",,,,Não aplicável.,Não aplicável.,
8 UNIDADES  -  VALVULA CARDIACA MONODISCO AORTICA,Ajuste Direto Regime Geral,Aquisição de bens móveis,"33000000-0, Equipamento médico, medicamentos e produtos para cuidados pessoais","Centro Hospitalar e Universitário de Coimbra, E.P.E. (510103448)",MEDTRONIC PORTUGAL - COMERCIO E DISTRIBUIÇÃO APARELHOS MEDICOS LDA (504223933),"10.400,00 €",27-09-2013,25-07-2013,20 dias,"Portugal, Coimbra, Coimbra","Artigo 24.º, n.º 1, alínea e) do Código dos Contratos Públicos","","",,,,Não aplicável.,Não aplicável.,
CONJUNTOS DE BIÓPSIA E COILS,Ajuste Direto Regime Geral,Aquisição de bens móveis,"33000000-0, Equipamento médico, medicamentos e produtos para cuidados pessoais","Centro Hospitalar e Universitário de Coimbra, E.P.E. (510103448)","BIOSONDA, COMÉRCIO DE MATERIAL HOSPITALAR (501463313)","7.348,30 €",26-09-2013,23-09-2013,30 dias,"Portugal, Coimbra, Coimbra","Artigo 24.º, n.º 1, alínea d) do Código dos Contratos Públicos","","",,,,Não aplicável.,Não aplicável.,
STENTS VASCULARES E BALÕES,Ajuste Direto Regime Geral,Aquisição de bens móveis,"33000000-0, Equipamento médico, medicamentos e produtos para cuidados pessoais","Centro Hospitalar e Universitário de Coimbra, E.P.E. (510103448)",C.R. BARD PORTUGAL (502438274),"4.615,00 €",26-09-2013,23-09-2013,30 dias,"Portugal, Coimbra, Coimbra","Artigo 24.º, n.º 1, alínea a) do Código dos Contratos Públicos","","",,,,Não aplicável.,Não aplicável.,
MATERIAL DE INTERVENÇÃO E DIAGNÓSTICO,Ajuste Direto Regime Geral,Aquisição de bens móveis,"33000000-0, Equipamento médico, medicamentos e produtos para cuidados pessoais","Centro Hospitalar e Universitário de Coimbra, E.P.E. (510103448)",C.R. BARD PORTUGAL; LDA (502438274),"1.650,00 €",26-09-2013,23-09-2013,30 dias,"Portugal, Coimbra, Coimbra","Artigo 24.º, n.º 1, alínea a) do Código dos Contratos Públicos","","",,,,Não aplicável.,Não aplicável.,
5 Unidades - Conj. Cateter  P/Termodiluição Art.Radial Adulto  10 Uniddes - Conj. Cateter  P/Termodiluição Art.Femural Adulto,Ajuste Direto Regime Geral,Aquisição de bens móveis,"33000000-0, Equipamento médico, medicamentos e produtos para cuidados pessoais","Centro Hospitalar e Universitário de Coimbra, E.P.E. (510103448)","Clinifar - Produtos Clinicos e Farmaceuticos, S.A. (503281115)","4.500,00 €",26-09-2013,15-06-2013,90 dias,"Portugal, Coimbra, Coimbra","Artigo 20.º, n.º 1, alínea a) do Código dos Contratos Públicos","","",,,,Não aplicável.,Não aplicável.,
1 Unidade - Cardiodesfibrilhador - CDI Biventricular com Electrodo,Ajuste Direto Regime Geral,Aquisição de bens móveis,"33000000-0, Equipamento médico, medicamentos e produtos para cuidados pessoais","Centro Hospitalar e Universitário de Coimbra, E.P.E. (510103448)","Boston Scientific Portugal, Dispositivos Médicos, Lda (504988964)","21.000,00 €",26-09-2013,06-08-2013,20 dias,"Portugal, Coimbra, Coimbra","Artigo 24.º, n.º 1, alínea e) do Código dos Contratos Públicos","","",,,,Não aplicável.,Não aplicável.,
1 Unidade - Cardiodesfibrilhador  CDI Camara Unica com Electrodo  2 Unidades - Cardiodesfibrilhador  CDI camara Unica sem Electrodos,Ajuste Direto Regime Geral,Aquisição de bens móveis,"33000000-0, Equipamento médico, medicamentos e produtos para cuidados pessoais","Centro Hospitalar e Universitário de Coimbra, E.P.E. (510103448)","Boston Scientific Portugal - Dispositivos Médicos , Lda (504988964)","40.000,00 €",26-09-2013,06-08-2013,20 dias,"Portugal, Coimbra, Coimbra","Artigo 24.º, n.º 1, alínea e) do Código dos Contratos Públicos","","",,,,Não aplicável.,Não aplicável.,
1 unidade  - Cardioversor - CDI Camara Única com Electrodo,Ajuste Direto Regime Geral,Aquisição de bens móveis<br/>Sociedade,"33000000-0, Equipamento médico, medicamentos e produtos para cuidados pessoais","Centro Hospitalar e Universitário de Coimbra, E.P.E. (510103448)","Farmimpex Cardio- Equipamentos Médico-Cirurgicos,S.A (503061506)","11.900,00 €",26-09-2013,25-07-2013,20 dias,"Portugal, Coimbra, Coimbra","Artigo 24.º, n.º 1, alínea e) do Código dos Contratos Públicos","","",,,,Não aplicável.,Não aplicável.,
1 Unidade - Cardiodesfibrilhador  CDI Camara Dupla com Electrodo  1 unidade-   cardiodesfibrilhador  CDI camara Unica com Electrodo,Ajuste Direto Regime Geral,Aquisição de bens móveis,"33000000-0, Equipamento médico, medicamentos e produtos para cuidados pessoais","Centro Hospitalar e Universitário de Coimbra, E.P.E. (510103448)","Farmimpex Cardio - Equipamentos Médico-Cirurgicos,SA (503061506)","31.250,00 €",25-09-2013,24-07-2013,60 dias,"Portugal, Coimbra, Coimbra","Artigo 24.º, n.º 1, alínea e) do Código dos Contratos Públicos","","",,,,Não aplicável.,Não aplicável.,
6 Unidades Electrodos CPRD-D PADZ desfibrilhação externa para monitor Zoll,Ajuste Direto Regime Geral,Aquisição de bens móveis,"33000000-0, Equipamento médico, medicamentos e produtos para cuidados pessoais","Centro Hospitalar e Universitário de Coimbra, E.P.E. (510103448)","IBERDATA EQUIPAMENTOS, LDA (501904921)","861,30 €",25-09-2013,26-08-2013,90 dias,"Portugal, Coimbra, Coimbra","Artigo 20.º, n.º 1, alínea a) do Código dos Contratos Públicos","","",,,,Não aplicável.,Não aplicável.,
1 unidade - cardioversor Desfibrilhador com Electrodo,Ajuste Direto Regime Geral,Aquisição de bens móveis,"33000000-0, Equipamento médico, medicamentos e produtos para cuidados pessoais","Centro Hospitalar e Universitário de Coimbra, E.P.E. (510103448)","ST Jude Medical Portugal - Distribruiçaõ de Produtos Médicos, Lda (504180746)","14.000,00 €",25-09-2013,12-08-2013,60 dias,"Portugal, Coimbra, Coimbra","Artigo 24.º, n.º 1, alínea e) do Código dos Contratos Públicos","","",,,,Não aplicável.,Não aplicável.,
