Objeto do Contrato,Tipo de Procedimento,Tipo(s) de Contrato,CPVs,Entidade(s) Adjudicante(s),Entidade(s) Adjudicatária(s),Preço Contratual,Data de Publicação,Data de Celebração do Contrato,Prazo de Execução,Local de Execução,Fundamentação,Data de Fecho do Contrato,Preço Total Efetivo,Causas das Alterações ao Prazo,Causas das Alterações ao Preço,Estado,N.º registo do Acordo Quadro,Descrição do Acordo Quadro,Procedimento Centralizado
"Prestação de Serviços Médicos, na Especialidade de Cirurgia Geral, na ULSNA, EPE (Agosto a Dezembro de 2014)",Ajuste Direto Regime Geral,Aquisição de serviços,"85100000-0, Serviços de saúde","Unidade Local de Saúde do Norte Alentejano, E. P. E. (508094461)","Honorismédica, Lda (509799191)","30.075,48 €",10-10-2014,09-10-2014,153 dias,"Portugal, Portalegre, Portalegre","Artigo 24.º, n.º 1, alínea a) do Código dos Contratos Públicos","","",,,,Não aplicável.,Não aplicável.,FALSE
"Prestação de Serviços Médicos, na Especialidade de Cardiologia, na ULSNA, EPE (Fevereiro a Dezembro de 2014)",Ajuste Direto Regime Geral,Aquisição de serviços,"85100000-0, Serviços de saúde","Unidade Local de Saúde do Norte Alentejano, E. P. E. (508094461)",BTATV Serviços Médicos Lda (513044043),"39.272,77 €",10-10-2014,11-06-2014,334 dias,"Portugal, Portalegre, Elvas","Artigo 20.º, n.º 1, alínea a) do Código dos Contratos Públicos",11-06-2014,"39.272,77 €",,,,Não aplicável.,Não aplicável.,FALSE
MEDICAMENTOS DO FORO ONCOLÓGICO,Ao abrigo de acordo-quadro (art.º 259.º),Aquisição de bens móveis,"33000000-0, Equipamento médico, medicamentos e produtos para cuidados pessoais","Unidade Local de Saúde do Norte Alentejano, E. P. E. (508094461)","GENERIS - FARMACEUTICA, S.A.          (508107997), FARMOZ - SOC TECNICO MEDICINAL SA          (501505334), ABBVIE,LDA                                         (510229050), LAB. PFIZER, LDA.                         (500162166), RES - PRESTAÇAO DE SERVIÇOS COMERCIAIS S.A         (502440163), MERCK SHARP DOHME    (500191360), HIKMA FARMACÊUTICA (PORTUGAL) SA.          (502266791)","12.667,99 €",08-10-2014,22-07-2014,45 dias,"Portugal, Portalegre, Elvas<BR/>Portugal, Portalegre, Portalegre",Artigo 259.º do Código dos Contratos Públicos,"","",,,,383205,CONCURSO PÚBLICO PARA A CELEBRAÇÃO DE CONTRATOS PÚBLICOS DE APROVISIONAMENTO PARA AQUISIÇÃO MEDICAMENTOS DO FORO ONCOLÓGICO II,FALSE
MEDICAMENTOS DO FORO ONCOLÓGICO,Ao abrigo de acordo-quadro (art.º 259.º),Aquisição de bens móveis,"33000000-0, Equipamento médico, medicamentos e produtos para cuidados pessoais","Unidade Local de Saúde do Norte Alentejano, E. P. E. (508094461)","LAB. PFIZER, LDA.                              (500162166)","11,88 €",07-10-2014,08-07-2014,45 dias,"Portugal, Portalegre, Portalegre<BR/>Portugal, Portalegre, Elvas",Artigo 259.º do Código dos Contratos Públicos,"","",,,,383205,CONCURSO PÚBLICO PARA A CELEBRAÇÃO DE CONTRATOS PÚBLICOS DE APROVISIONAMENTO PARA AQUISIÇÃO MEDICAMENTOS DO FORO ONCOLÓGICO II,FALSE
MEDICAMENTOS DO FORO ONCOLÓGICO,Ao abrigo de acordo-quadro (art.º 259.º),Aquisição de bens móveis,"33000000-0, Equipamento médico, medicamentos e produtos para cuidados pessoais","Unidade Local de Saúde do Norte Alentejano, E. P. E. (508094461)","AUROVITAS UNIPESSOAL, LDA         (513053239), GENERIS - FARMACEUTICA, S.A.          (508107997), HOSPIRA PORTUGAL LDA          (502918098)","902,83 €",07-10-2014,07-07-2014,45 dias,"Portugal, Portalegre, Portalegre<BR/>Portugal, Portalegre, Elvas",Artigo 259.º do Código dos Contratos Públicos,"","",,,,383205,CONCURSO PÚBLICO PARA A CELEBRAÇÃO DE CONTRATOS PÚBLICOS DE APROVISIONAMENTO PARA AQUISIÇÃO MEDICAMENTOS DO FORO ONCOLÓGICO II,FALSE
MEDICAMENTOS DO FORO ONCOLÓGICO,Ao abrigo de acordo-quadro (art.º 259.º),Aquisição de bens móveis,"33000000-0, Equipamento médico, medicamentos e produtos para cuidados pessoais","Unidade Local de Saúde do Norte Alentejano, E. P. E. (508094461)","GENERIS - FARMACEUTICA, S.A.                       (508107997), MERCK SHARP DOHME                  (500191360), IPSEN PORTUGAL-PRODUTOS FARMACÊUTICOS SA.          (502609800), RES - PRESTAÇAO DE SERVIÇOS COMERCIAIS S.A         (502440163)","515,00 €",07-10-2014,04-07-2014,45 dias,"Portugal, Portalegre, Portalegre<BR/>Portugal, Portalegre, Elvas",Artigo 259.º do Código dos Contratos Públicos,"","",,,,383205,CONCURSO PÚBLICO PARA A CELEBRAÇÃO DE CONTRATOS PÚBLICOS DE APROVISIONAMENTO PARA AQUISIÇÃO MEDICAMENTOS DO FORO ONCOLÓGICO II,FALSE
MEDICAMENTOS DO FORO ONCOLÓGICO,Ao abrigo de acordo-quadro (art.º 259.º),Aquisição de bens móveis,"33000000-0, Equipamento médico, medicamentos e produtos para cuidados pessoais","Unidade Local de Saúde do Norte Alentejano, E. P. E. (508094461)","HOSPIRA PORTUGAL LDA             (502918098), SANOFI- PRODUTOS FARMACÊUTICOS,LDA.                (500134960), IPSEN PORTUGAL-PRODUTOS FARMACÊUTICOS SA.          (502609800), ASTELLAS FARMA, LDA.                         (502540249), RES - PRESTAÇAO DE SERVIÇOS COMERCIAIS S.A         (502440163), MERCK SHARP DOHME                     (500191360), ASTRAZENECA-PRODUTOS FARMACÊUTICOS,LDA.            (502942240), GLAXOSMITHKLINE-PROD. FARMACÊUTICOS, LDA.          (500139962), ROCHE FARMACÊUTICA QUIMICA, LDA.                   (500233810), MERCK SA                    (500650870)","33.072,56 €",07-10-2014,03-07-2014,45 dias,"Portugal, Portalegre, Portalegre<BR/>Portugal, Portalegre, Elvas",Artigo 259.º do Código dos Contratos Públicos,"","",,,,383205,CONCURSO PÚBLICO PARA A CELEBRAÇÃO DE CONTRATOS PÚBLICOS DE APROVISIONAMENTO PARA AQUISIÇÃO MEDICAMENTOS DO FORO ONCOLÓGICO II,FALSE
MEDICAMENTOS DO FORO ONCOLÓGICO,Ao abrigo de acordo-quadro (art.º 259.º),Aquisição de bens móveis,"33000000-0, Equipamento médico, medicamentos e produtos para cuidados pessoais","Unidade Local de Saúde do Norte Alentejano, E. P. E. (508094461)","LAB. PFIZER, LDA.                    (500162166), FARMOZ - SOC TECNICO MEDICINAL SA                  (501505334), SANOFI- PRODUTOS FARMACÊUTICOS,LDA.         (500134960), ROCHE FARMACÊUTICA QUIMICA, LDA.                   (500233810)","4.289,64 €",07-10-2014,02-07-2014,45 dias,"Portugal, Portalegre, Portalegre<BR/>Portugal, Portalegre, Elvas",Artigo 259.º do Código dos Contratos Públicos,"","",,,,383205,CONCURSO PÚBLICO PARA A CELEBRAÇÃO DE CONTRATOS PÚBLICOS DE APROVISIONAMENTO PARA AQUISIÇÃO MEDICAMENTOS DO FORO ONCOLÓGICO II,FALSE
MEDICAMENTOS DO FORO ONCOLÓGICO,Ao abrigo de acordo-quadro (art.º 259.º),Aquisição de bens móveis,"33000000-0, Equipamento médico, medicamentos e produtos para cuidados pessoais","Unidade Local de Saúde do Norte Alentejano, E. P. E. (508094461)","HOSPIRA PORTUGAL LDA                      (502918098), HIKMA FARMACÊUTICA (PORTUGAL) SA.                  (502266791)","332,67 €",07-10-2014,30-06-2014,45 dias,"Portugal, Portalegre, Elvas<BR/>Portugal, Portalegre, Portalegre",Artigo 259.º do Código dos Contratos Públicos,"","",,,,383205,CONCURSO PÚBLICO PARA A CELEBRAÇÃO DE CONTRATOS PÚBLICOS DE APROVISIONAMENTO PARA AQUISIÇÃO MEDICAMENTOS DO FORO ONCOLÓGICO II,FALSE
MEDICAMENTOS DO FORO ONCOLÓGICO,Ao abrigo de acordo-quadro (art.º 259.º),Aquisição de bens móveis,"33000000-0, Equipamento médico, medicamentos e produtos para cuidados pessoais","Unidade Local de Saúde do Norte Alentejano, E. P. E. (508094461)","ASTRAZENECA-PRODUTOS FARMACÊUTICOS,LDA.            (502942240), HOSPIRA PORTUGAL LDA                               (502918098), HIKMA FARMACÊUTICA (PORTUGAL) SA.                  (502266791), ASTELLAS FARMA, LDA.                               (502540249), ROCHE FARMACÊUTICA QUIMICA, LDA.                   (500233810), IPSEN PORTUGAL-PRODUTOS FARMACÊUTICOS SA.          (502609800), TEVA PHARMA - PRODUTOS FARMACEUTICOS,LDA           (507045491), LILLY PORTUGAL - PRODUTOS FARMACEUTICOS            (500165602), MERCK SA                                (500650870)","23.611,93 €",07-10-2014,27-06-2014,45 dias,"Portugal, Portalegre, Elvas<BR/>Portugal, Portalegre, Portalegre",Artigo 259.º do Código dos Contratos Públicos,"","",,,,383205,CONCURSO PÚBLICO PARA A CELEBRAÇÃO DE CONTRATOS PÚBLICOS DE APROVISIONAMENTO PARA AQUISIÇÃO MEDICAMENTOS DO FORO ONCOLÓGICO II,FALSE
MEDICAMENTOS DO FORO ONCOLÓGICO,Ao abrigo de acordo-quadro (art.º 259.º),Aquisição de bens móveis,"33000000-0, Equipamento médico, medicamentos e produtos para cuidados pessoais","Unidade Local de Saúde do Norte Alentejano, E. P. E. (508094461)","ROCHE FARMACÊUTICA QUIMICA, LDA.                   (500233810)","16.689,00 €",07-10-2014,26-06-2014,45 dias,"Portugal, Portalegre, Elvas<BR/>Portugal, Portalegre, Portalegre",Artigo 259.º do Código dos Contratos Públicos,"","",,,,383205,CONCURSO PÚBLICO PARA A CELEBRAÇÃO DE CONTRATOS PÚBLICOS DE APROVISIONAMENTO PARA AQUISIÇÃO MEDICAMENTOS DO FORO ONCOLÓGICO II,FALSE
MEDICAMENTOS DO FORO ONCOLÓGICO,Ao abrigo de acordo-quadro (art.º 259.º),Aquisição de bens móveis,"33000000-0, Equipamento médico, medicamentos e produtos para cuidados pessoais","Unidade Local de Saúde do Norte Alentejano, E. P. E. (508094461)","HOSPIRA PORTUGAL LDA               (502918098), MERCK SA                         (500650870), RES - PRESTAÇAO DE SERVIÇOS COMERCIAIS S.A         (502440163), ROCHE FARMACÊUTICA QUIMICA, LDA.                   (500233810), ASTELLAS FARMA, LDA.              (502540249)","1.605,98 €",07-10-2014,25-06-2014,45 dias,"Portugal, Portalegre, Portalegre<BR/>Portugal, Portalegre, Elvas",Artigo 259.º do Código dos Contratos Públicos,"","",,,,383205,CONCURSO PÚBLICO PARA A CELEBRAÇÃO DE CONTRATOS PÚBLICOS DE APROVISIONAMENTO PARA AQUISIÇÃO MEDICAMENTOS DO FORO ONCOLÓGICO II,FALSE
MEDICAMENTOS DO FORO ONCOLÓGICO,Ao abrigo de acordo-quadro (art.º 259.º),Aquisição de bens móveis,"33000000-0, Equipamento médico, medicamentos e produtos para cuidados pessoais","Unidade Local de Saúde do Norte Alentejano, E. P. E. (508094461)","FARMOZ - SOC TECNICO MEDICINAL SA                  (501505334), HIKMA FARMACÊUTICA (PORTUGAL) SA.                  (502266791), ROCHE FARMACÊUTICA QUIMICA, LDA.                   (500233810), MERCK SHARP DOHME                   (500191360), GENERIS - FARMACEUTICA, S.A.             (508107997), ABBVIE,LDA                             (510229050), LAB. PFIZER, LDA.                   (500162166)","33.549,51 €",07-10-2014,24-06-2014,45 dias,"Portugal, Portalegre, Elvas<BR/>Portugal, Portalegre, Portalegre",Artigo 259.º do Código dos Contratos Públicos,"","",,,,383205,CONCURSO PÚBLICO PARA A CELEBRAÇÃO DE CONTRATOS PÚBLICOS DE APROVISIONAMENTO PARA AQUISIÇÃO MEDICAMENTOS DO FORO ONCOLÓGICO II,FALSE
MEDICAMENTOS DO FORO ONCOLÓGICO,Ao abrigo de acordo-quadro (art.º 259.º),Aquisição de bens móveis,"33000000-0, Equipamento médico, medicamentos e produtos para cuidados pessoais","Unidade Local de Saúde do Norte Alentejano, E. P. E. (508094461)","SANOFI- PRODUTOS FARMACÊUTICOS,LDA.                (500134960), MERCK SHARP DOHME                          (500191360), IPSEN PORTUGAL-PRODUTOS FARMACÊUTICOS SA.          (502609800), ABBVIE,LDA                     (510229050)","1.035,24 €",07-10-2014,26-06-2014,45 dias,"Portugal, Portalegre, Portalegre<BR/>Portugal, Portalegre, Elvas",Artigo 259.º do Código dos Contratos Públicos,"","",,,,383205,CONCURSO PÚBLICO PARA A CELEBRAÇÃO DE CONTRATOS PÚBLICOS DE APROVISIONAMENTO PARA AQUISIÇÃO MEDICAMENTOS DO FORO ONCOLÓGICO II,FALSE
MEDICAMENTOS DO FORO ONCOLÓGICO,Ao abrigo de acordo-quadro (art.º 259.º),Aquisição de bens móveis,"33000000-0, Equipamento médico, medicamentos e produtos para cuidados pessoais","Unidade Local de Saúde do Norte Alentejano, E. P. E. (508094461)","GENERIS - FARMACEUTICA, S.A.                       (508107997), ROCHE FARMACÊUTICA QUIMICA, LDA.                   (500233810)","206,05 €",07-10-2014,19-06-2014,45 dias,"Portugal, Portalegre, Elvas<BR/>Portugal, Portalegre, Portalegre",Artigo 259.º do Código dos Contratos Públicos,"","",,,,383205,CONCURSO PÚBLICO PARA A CELEBRAÇÃO DE CONTRATOS PÚBLICOS DE APROVISIONAMENTO PARA AQUISIÇÃO MEDICAMENTOS DO FORO ONCOLÓGICO II,FALSE
MEDICAMENTOS DO FORO ONCOLÓGICO,Ao abrigo de acordo-quadro (art.º 259.º),Aquisição de bens móveis,"33000000-0, Equipamento médico, medicamentos e produtos para cuidados pessoais","Unidade Local de Saúde do Norte Alentejano, E. P. E. (508094461)","ROCHE FARMACÊUTICA QUIMICA, LDA.                   (500233810)","237,30 €",07-10-2014,18-06-2014,45 dias,"Portugal, Portalegre, Elvas<BR/>Portugal, Portalegre, Portalegre",Artigo 259.º do Código dos Contratos Públicos,"","",,,,383205,CONCURSO PÚBLICO PARA A CELEBRAÇÃO DE CONTRATOS PÚBLICOS DE APROVISIONAMENTO PARA AQUISIÇÃO MEDICAMENTOS DO FORO ONCOLÓGICO II,FALSE
MEDICAMENTOS DO FORO ONCOLÓGICO,Ao abrigo de acordo-quadro (art.º 259.º),Aquisição de bens móveis,"33000000-0, Equipamento médico, medicamentos e produtos para cuidados pessoais","Unidade Local de Saúde do Norte Alentejano, E. P. E. (508094461)","MERCK SHARP DOHME                                  (500191360), ROCHE FARMACÊUTICA QUIMICA, LDA.                   (500233810)","156,12 €",07-10-2014,17-06-2014,45 dias,"Portugal, Portalegre, Portalegre<BR/>Portugal, Portalegre, Elvas",Artigo 259.º do Código dos Contratos Públicos,"","",,,,383205,CONCURSO PÚBLICO PARA A CELEBRAÇÃO DE CONTRATOS PÚBLICOS DE APROVISIONAMENTO PARA AQUISIÇÃO MEDICAMENTOS DO FORO ONCOLÓGICO II,FALSE
MEDICAMENTOS DO FORO ONCOLÓGICO,Ao abrigo de acordo-quadro (art.º 259.º),Aquisição de bens móveis,"33000000-0, Equipamento médico, medicamentos e produtos para cuidados pessoais","Unidade Local de Saúde do Norte Alentejano, E. P. E. (508094461)","ROCHE FARMACÊUTICA QUIMICA, LDA.                   (500233810), ASTRAZENECA-PRODUTOS FARMACÊUTICOS,LDA.            (502942240), GENERIS - FARMACEUTICA, S.A.                   (508107997)","232,70 €",07-10-2014,16-06-2014,45 dias,"Portugal, Portalegre, Portalegre",Artigo 259.º do Código dos Contratos Públicos,"","",,,,383205,CONCURSO PÚBLICO PARA A CELEBRAÇÃO DE CONTRATOS PÚBLICOS DE APROVISIONAMENTO PARA AQUISIÇÃO MEDICAMENTOS DO FORO ONCOLÓGICO II,FALSE
MEDICAMENTOS DO FORO ONCOLÓGICO,Ao abrigo de acordo-quadro (art.º 259.º),Aquisição de bens móveis,"33000000-0, Equipamento médico, medicamentos e produtos para cuidados pessoais","Unidade Local de Saúde do Norte Alentejano, E. P. E. (508094461)","ASTRAZENECA-PRODUTOS FARMACÊUTICOS,LDA.            (502942240), IPSEN PORTUGAL-PRODUTOS FARMACÊUTICOS SA.          (502609800)","1.496,44 €",07-10-2014,13-06-2014,45 dias,"Portugal, Portalegre, Elvas<BR/>Portugal, Portalegre, Portalegre",Artigo 259.º do Código dos Contratos Públicos,"","",,,,383205,CONCURSO PÚBLICO PARA A CELEBRAÇÃO DE CONTRATOS PÚBLICOS DE APROVISIONAMENTO PARA AQUISIÇÃO MEDICAMENTOS DO FORO ONCOLÓGICO II,FALSE
MEDICAMENTOS DO FORO ONCOLÓGICO,Ao abrigo de acordo-quadro (art.º 259.º),Aquisição de bens móveis,"33000000-0, Equipamento médico, medicamentos e produtos para cuidados pessoais","Unidade Local de Saúde do Norte Alentejano, E. P. E. (508094461)",MERCK SHARP DOHME                                  (500191360),"6.060,00 €",07-10-2014,12-06-2014,45 dias,"Portugal, Portalegre, Elvas<BR/>Portugal, Portalegre, Portalegre",Artigo 259.º do Código dos Contratos Públicos,"","",,,,383205,CONCURSO PÚBLICO PARA A CELEBRAÇÃO DE CONTRATOS PÚBLICOS DE APROVISIONAMENTO PARA AQUISIÇÃO MEDICAMENTOS DO FORO ONCOLÓGICO II,FALSE
MEDICAMENTOS DO FORO ONCOLÓGICO,Ao abrigo de acordo-quadro (art.º 259.º),Aquisição de bens móveis,"33000000-0, Equipamento médico, medicamentos e produtos para cuidados pessoais","Unidade Local de Saúde do Norte Alentejano, E. P. E. (508094461)","LAB. PFIZER, LDA.                       (500162166)","3,96 €",07-10-2014,09-06-2014,45 dias,"Portugal, Portalegre, Portalegre",Artigo 259.º do Código dos Contratos Públicos,"","",,,,383205,CONCURSO PÚBLICO PARA A CELEBRAÇÃO DE CONTRATOS PÚBLICOS DE APROVISIONAMENTO PARA AQUISIÇÃO MEDICAMENTOS DO FORO ONCOLÓGICO II,FALSE
MEDICAMENTOS DO FORO ONCOLÓGICO,Ao abrigo de acordo-quadro (art.º 259.º),Aquisição de bens móveis,"33000000-0, Equipamento médico, medicamentos e produtos para cuidados pessoais","Unidade Local de Saúde do Norte Alentejano, E. P. E. (508094461)","MEDAC                                              (980369959), HIKMA FARMACÊUTICA (PORTUGAL) SA.                  (502266791), ACTAVIS AS SUCURSAL                                (980334934), FRESENIUS KABI PHARMA PORTUGAL                     (504293753)","3.735,93 €",07-10-2014,05-06-2014,45 dias,"Portugal, Portalegre, Elvas<BR/>Portugal, Portalegre, Portalegre",Artigo 259.º do Código dos Contratos Públicos,"","",,,,383205,CONCURSO PÚBLICO PARA A CELEBRAÇÃO DE CONTRATOS PÚBLICOS DE APROVISIONAMENTO PARA AQUISIÇÃO MEDICAMENTOS DO FORO ONCOLÓGICO II,FALSE
MEDICAMENTOS DO FORO ONCOLÓGICO,Ao abrigo de acordo-quadro (art.º 259.º),Aquisição de bens móveis,"33000000-0, Equipamento médico, medicamentos e produtos para cuidados pessoais","Unidade Local de Saúde do Norte Alentejano, E. P. E. (508094461)","ASTELLAS FARMA, LDA.               (502540249), ABBVIE,LDA                                         (510229050), LAB. PFIZER, LDA.                                  (500162166), FRESENIUS KABI PHARMA PORTUGAL                     (504293753), MERCK SA                             (500650870), HOSPIRA PORTUGAL LDA                               (502918098), HIKMA FARMACÊUTICA (PORTUGAL) SA.                 (502266791), LILLY PORTUGAL - PRODUTOS FARMACEUTICOS      (500165602), TEVA PHARMA - PRODUTOS FARMACEUTICOS,LDA           (507045491), IPSEN PORTUGAL-PRODUTOS FARMACÊUTICOS SA.          (502609800), ROCHE FARMACÊUTICA QUIMICA, LDA.                   (500233810), RES - PRESTAÇAO DE SERVIÇOS COMERCIAIS S.A         (502440163), ASTRAZENECA-PRODUTOS FARMACÊUTICOS,LDA.            (502942240)","33.652,44 €",07-10-2014,06-06-2014,45 dias,"Portugal, Portalegre, Elvas<BR/>Portugal, Portalegre, Portalegre",Artigo 259.º do Código dos Contratos Públicos,"","",,,,383205,CONCURSO PÚBLICO PARA A CELEBRAÇÃO DE CONTRATOS PÚBLICOS DE APROVISIONAMENTO PARA AQUISIÇÃO MEDICAMENTOS DO FORO ONCOLÓGICO II,FALSE
MEDICAMENTOS DO FORO ONCOLÓGICO,Ao abrigo de acordo-quadro (art.º 259.º),Aquisição de bens móveis,"33000000-0, Equipamento médico, medicamentos e produtos para cuidados pessoais","Unidade Local de Saúde do Norte Alentejano, E. P. E. (508094461)","RES - PRESTAÇAO DE SERVIÇOS COMERCIAIS S.A     (502440163), TEVA PHARMA - PRODUTOS FARMACEUTICOS,LDA           (507045491)","1.212,40 €",07-10-2014,30-05-2014,45 dias,"Portugal, Portalegre, Portalegre<BR/>Portugal, Portalegre, Elvas",Artigo 259.º do Código dos Contratos Públicos,"","",,,,383205,CONCURSO PÚBLICO PARA A CELEBRAÇÃO DE CONTRATOS PÚBLICOS DE APROVISIONAMENTO PARA AQUISIÇÃO MEDICAMENTOS DO FORO ONCOLÓGICO II,FALSE
MEDICAMENTOS DO FORO ONCOLÓGICO,Ao abrigo de acordo-quadro (art.º 259.º),Aquisição de bens móveis,"33000000-0, Equipamento médico, medicamentos e produtos para cuidados pessoais","Unidade Local de Saúde do Norte Alentejano, E. P. E. (508094461)","ASTELLAS FARMA, LDA.                  (502540249), RES - PRESTAÇAO DE SERVIÇOS COMERCIAIS S.A         (502440163)","234,48 €",07-10-2014,29-05-2014,45 dias,"Portugal, Portalegre, Elvas<BR/>Portugal, Portalegre, Portalegre",Artigo 259.º do Código dos Contratos Públicos,"","",,,,383205,CONCURSO PÚBLICO PARA A CELEBRAÇÃO DE CONTRATOS PÚBLICOS DE APROVISIONAMENTO PARA AQUISIÇÃO MEDICAMENTOS DO FORO ONCOLÓGICO II,FALSE
MEDICAMENTOS DO FORO ONCOLÓGICO,Ao abrigo de acordo-quadro (art.º 259.º),Aquisição de bens móveis,"33000000-0, Equipamento médico, medicamentos e produtos para cuidados pessoais","Unidade Local de Saúde do Norte Alentejano, E. P. E. (508094461)","FRESENIUS KABI PHARMA PORTUGAL                     (504293753), ABBVIE,LDA                           (510229050)","15,52 €",07-10-2014,28-05-2014,45 dias,"Portugal, Portalegre, Portalegre<BR/>Portugal, Portalegre, Elvas",Artigo 259.º do Código dos Contratos Públicos,"","",,,,383205,CONCURSO PÚBLICO PARA A CELEBRAÇÃO DE CONTRATOS PÚBLICOS DE APROVISIONAMENTO PARA AQUISIÇÃO MEDICAMENTOS DO FORO ONCOLÓGICO II,FALSE
MEDICAMENTOS DO FORO ONCOLÓGICO,Ao abrigo de acordo-quadro (art.º 259.º),Aquisição de bens móveis,"33000000-0, Equipamento médico, medicamentos e produtos para cuidados pessoais","Unidade Local de Saúde do Norte Alentejano, E. P. E. (508094461)",RES - PRESTAÇAO DE SERVIÇOS COMERCIAIS S.A         (502440163),"619,52 €",07-10-2014,27-05-2014,45 dias,"Portugal, Portalegre, Portalegre<BR/>Portugal, Portalegre, Elvas",Artigo 259.º do Código dos Contratos Públicos,"","",,,,383205,CONCURSO PÚBLICO PARA A CELEBRAÇÃO DE CONTRATOS PÚBLICOS DE APROVISIONAMENTO PARA AQUISIÇÃO MEDICAMENTOS DO FORO ONCOLÓGICO II,FALSE
MEDICAMENTOS DO FORO ONCOLÓGICO,Ao abrigo de acordo-quadro (art.º 259.º),Aquisição de bens móveis,"33000000-0, Equipamento médico, medicamentos e produtos para cuidados pessoais","Unidade Local de Saúde do Norte Alentejano, E. P. E. (508094461)",MERCK SHARP DOHME                                  (500191360),"4.751,76 €",07-10-2014,26-05-2014,45 dias,"Portugal, Portalegre, Elvas<BR/>Portugal, Portalegre, Portalegre",Artigo 259.º do Código dos Contratos Públicos,"","",,,,383205,CONCURSO PÚBLICO PARA A CELEBRAÇÃO DE CONTRATOS PÚBLICOS DE APROVISIONAMENTO PARA AQUISIÇÃO MEDICAMENTOS DO FORO ONCOLÓGICO II,FALSE
MEDICAMENTOS DO FORO ONCOLÓGICO,Ao abrigo de acordo-quadro (art.º 259.º),Aquisição de bens móveis,"33000000-0, Equipamento médico, medicamentos e produtos para cuidados pessoais","Unidade Local de Saúde do Norte Alentejano, E. P. E. (508094461)","ROCHE FARMACÊUTICA QUIMICA, LDA.                   (500233810), FARMOZ - SOC TECNICO MEDICINAL SA                  (501505334), MERCK SA                    (500650870), HOSPIRA PORTUGAL LDA            (502918098), ASTELLAS FARMA, LDA.                              (502540249), FRESENIUS KABI PHARMA PORTUGAL                     (504293753), ASTRAZENECA-PRODUTOS FARMACÊUTICOS,LDA.    (502942240), TEVA PHARMA - PRODUTOS FARMACEUTICOS,LDA           (507045491), RES - PRESTAÇAO DE SERVIÇOS COMERCIAIS S.A         (502440163), IPSEN PORTUGAL-PRODUTOS FARMACÊUTICOS SA.          (502609800)","36.798,65 €",07-10-2014,22-05-2014,45 dias,"Portugal, Portalegre, Portalegre<BR/>Portugal, Portalegre, Elvas",Artigo 259.º do Código dos Contratos Públicos,"","",,,,383205,CONCURSO PÚBLICO PARA A CELEBRAÇÃO DE CONTRATOS PÚBLICOS DE APROVISIONAMENTO PARA AQUISIÇÃO MEDICAMENTOS DO FORO ONCOLÓGICO II,FALSE
MEDICAMENTOS DO FORO ONCOLÓGICO,Ao abrigo de acordo-quadro (art.º 259.º),Aquisição de bens móveis,"33000000-0, Equipamento médico, medicamentos e produtos para cuidados pessoais","Unidade Local de Saúde do Norte Alentejano, E. P. E. (508094461)","RES - PRESTAÇAO DE SERVIÇOS COMERCIAIS S.A         (502440163), MERCK SHARP DOHME                                 (500191360), GENERIS - FARMACEUTICA, S.A.      (508107997), ROCHE FARMACÊUTICA QUIMICA, LDA.                   (500233810)","2.140,09 €",07-10-2014,21-05-2014,45 dias,"Portugal, Portalegre, Portalegre<BR/>Portugal, Portalegre, Elvas",Artigo 259.º do Código dos Contratos Públicos,"","",,,,383205,CONCURSO PÚBLICO PARA A CELEBRAÇÃO DE CONTRATOS PÚBLICOS DE APROVISIONAMENTO PARA AQUISIÇÃO MEDICAMENTOS DO FORO ONCOLÓGICO II,FALSE
MEDICAMENTOS DO FORO ONCOLÓGICO,Ao abrigo de acordo-quadro (art.º 259.º),Aquisição de bens móveis,"33000000-0, Equipamento médico, medicamentos e produtos para cuidados pessoais","Unidade Local de Saúde do Norte Alentejano, E. P. E. (508094461)","MERCK SHARP DOHME                                  (500191360), GENERIS - FARMACEUTICA, S.A.                       (508107997), LAB. PFIZER, LDA.                             (500162166), ABBVIE,LDA         (510229050), RES - PRESTAÇAO DE SERVIÇOS COMERCIAIS S.A         (502440163), FARMOZ - SOC TECNICO MEDICINAL SA                  (501505334), HIKMA FARMACÊUTICA (PORTUGAL) SA.                  (502266791)","3.370,58 €",07-10-2014,20-05-2014,45 dias,"Portugal, Portalegre, Elvas<BR/>Portugal, Portalegre, Portalegre",Artigo 259.º do Código dos Contratos Públicos,"","",,,,383205,CONCURSO PÚBLICO PARA A CELEBRAÇÃO DE CONTRATOS PÚBLICOS DE APROVISIONAMENTO PARA AQUISIÇÃO MEDICAMENTOS DO FORO ONCOLÓGICO II,FALSE
MEDICAMENTOS DO FORO ONCOLÓGICO,Ao abrigo de acordo-quadro (art.º 259.º),Aquisição de bens móveis,"33000000-0, Equipamento médico, medicamentos e produtos para cuidados pessoais","Unidade Local de Saúde do Norte Alentejano, E. P. E. (508094461)","LAB. PFIZER, LDA.                                  (500162166)","973,44 €",07-10-2014,19-05-2014,45 dias,"Portugal, Portalegre, Portalegre<BR/>Portugal, Portalegre, Elvas",Artigo 259.º do Código dos Contratos Públicos,"","",,,,383205,CONCURSO PÚBLICO PARA A CELEBRAÇÃO DE CONTRATOS PÚBLICOS DE APROVISIONAMENTO PARA AQUISIÇÃO MEDICAMENTOS DO FORO ONCOLÓGICO II,FALSE
MEDICAMENTOS DO FORO ONCOLÓGICO,Ao abrigo de acordo-quadro (art.º 259.º),Aquisição de bens móveis,"33000000-0, Equipamento médico, medicamentos e produtos para cuidados pessoais","Unidade Local de Saúde do Norte Alentejano, E. P. E. (508094461)","ASTELLAS FARMA, LDA.                        (502540249), LAB. PFIZER, LDA.                                  (500162166), IPSEN PORTUGAL-PRODUTOS FARMACÊUTICOS SA.          (502609800)","453,90 €",07-10-2014,15-05-2014,45 dias,"Portugal, Portalegre, Portalegre<BR/>Portugal, Portalegre, Elvas",Artigo 259.º do Código dos Contratos Públicos,"","",,,,383205,CONCURSO PÚBLICO PARA A CELEBRAÇÃO DE CONTRATOS PÚBLICOS DE APROVISIONAMENTO PARA AQUISIÇÃO MEDICAMENTOS DO FORO ONCOLÓGICO II,FALSE
MEDICAMENTOS DO FORO ONCOLÓGICO,Ao abrigo de acordo-quadro (art.º 259.º),Aquisição de bens móveis,"33000000-0, Equipamento médico, medicamentos e produtos para cuidados pessoais","Unidade Local de Saúde do Norte Alentejano, E. P. E. (508094461)","ASTRAZENECA-PRODUTOS FARMACÊUTICOS,LDA.            (502942240)","34,20 €",07-10-2014,14-05-2014,45 dias,"Portugal, Portalegre, Portalegre<BR/>Portugal, Portalegre, Elvas",Artigo 259.º do Código dos Contratos Públicos,"","",,,,383205,CONCURSO PÚBLICO PARA A CELEBRAÇÃO DE CONTRATOS PÚBLICOS DE APROVISIONAMENTO PARA AQUISIÇÃO MEDICAMENTOS DO FORO ONCOLÓGICO II,FALSE
MEDICAMENTOS DO FORO ONCOLÓGICO,Ao abrigo de acordo-quadro (art.º 259.º),Aquisição de bens móveis,"33000000-0, Equipamento médico, medicamentos e produtos para cuidados pessoais","Unidade Local de Saúde do Norte Alentejano, E. P. E. (508094461)","ROCHE FARMACÊUTICA QUIMICA, LDA.                   (500233810)","1.521,72 €",07-10-2014,13-05-2014,45 dias,"Portugal, Portalegre, Portalegre<BR/>Portugal, Portalegre, Elvas",Artigo 259.º do Código dos Contratos Públicos,"","",,,,383205,CONCURSO PÚBLICO PARA A CELEBRAÇÃO DE CONTRATOS PÚBLICOS DE APROVISIONAMENTO PARA AQUISIÇÃO MEDICAMENTOS DO FORO ONCOLÓGICO II,FALSE
MEDICAMENTOS DO FORO ONCOLÓGICO,Ao abrigo de acordo-quadro (art.º 259.º),Aquisição de bens móveis,"33000000-0, Equipamento médico, medicamentos e produtos para cuidados pessoais","Unidade Local de Saúde do Norte Alentejano, E. P. E. (508094461)","FARMOZ - SOC TECNICO MEDICINAL SA                  (501505334), ASTRAZENECA-PRODUTOS FARMACÊUTICOS,LDA.            (502942240)","801,58 €",07-10-2014,08-05-2014,45 dias,"Portugal, Portalegre, Portalegre",Artigo 259.º do Código dos Contratos Públicos,"","",,,,383205,CONCURSO PÚBLICO PARA A CELEBRAÇÃO DE CONTRATOS PÚBLICOS DE APROVISIONAMENTO PARA AQUISIÇÃO MEDICAMENTOS DO FORO ONCOLÓGICO II,FALSE
MEDICAMENTOS DO FORO ONCOLÓGICO,Ao abrigo de acordo-quadro (art.º 259.º),Aquisição de bens móveis,"33000000-0, Equipamento médico, medicamentos e produtos para cuidados pessoais","Unidade Local de Saúde do Norte Alentejano, E. P. E. (508094461)","LAB. PFIZER, LDA.                (500162166)","58,08 €",07-10-2014,07-05-2014,45 dias,"Portugal, Portalegre, Portalegre<BR/>Portugal, Portalegre, Elvas",Artigo 259.º do Código dos Contratos Públicos,"","",,,,383205,CONCURSO PÚBLICO PARA A CELEBRAÇÃO DE CONTRATOS PÚBLICOS DE APROVISIONAMENTO PARA AQUISIÇÃO MEDICAMENTOS DO FORO ONCOLÓGICO II,FALSE
MEDICAMENTOS DO FORO ONCOLÓGICO,Ao abrigo de acordo-quadro (art.º 259.º),Aquisição de bens móveis,"33000000-0, Equipamento médico, medicamentos e produtos para cuidados pessoais","Unidade Local de Saúde do Norte Alentejano, E. P. E. (508094461)",ACTAVIS AS SUCURSAL                           (980334934),"398,50 €",02-10-2014,06-05-2014,45 dias,"Portugal, Portalegre, Portalegre<BR/>Portugal, Portalegre, Elvas",Artigo 259.º do Código dos Contratos Públicos,"","",,,,383205,CONCURSO PÚBLICO PARA A CELEBRAÇÃO DE CONTRATOS PÚBLICOS DE APROVISIONAMENTO PARA AQUISIÇÃO MEDICAMENTOS DO FORO ONCOLÓGICO II,FALSE
MEDICAMENTOS DO FORO ONCOLÓGICO,Ao abrigo de acordo-quadro (art.º 259.º),Aquisição de bens móveis,"33000000-0, Equipamento médico, medicamentos e produtos para cuidados pessoais","Unidade Local de Saúde do Norte Alentejano, E. P. E. (508094461)","MERCK SA                                           (500650870), IPSEN PORTUGAL-PRODUTOS FARMACÊUTICOS SA.          (502609800), ABBVIE,LDA            (510229050), ROCHE FARMACÊUTICA QUIMICA, LDA.                   (500233810), ASTRAZENECA-PRODUTOS FARMACÊUTICOS,LDA.            (502942240), HOSPIRA PORTUGAL LDA                               (502918098), FRESENIUS KABI PHARMA PORTUGAL                     (504293753), ACTAVIS AS SUCURSAL                                (980334934), RES - PRESTAÇAO DE SERVIÇOS COMERCIAIS S.A       (502440163)","6.546,37 €",02-10-2014,05-05-2014,45 dias,"Portugal, Portalegre, Elvas<BR/>Portugal, Portalegre, Portalegre",Artigo 259.º do Código dos Contratos Públicos,"","",,,,383205,CONCURSO PÚBLICO PARA A CELEBRAÇÃO DE CONTRATOS PÚBLICOS DE APROVISIONAMENTO PARA AQUISIÇÃO MEDICAMENTOS DO FORO ONCOLÓGICO II,FALSE
MEDICAMENTOS DO FORO ONCOLÓGICO,Ao abrigo de acordo-quadro (art.º 259.º),Aquisição de bens móveis,"33000000-0, Equipamento médico, medicamentos e produtos para cuidados pessoais","Unidade Local de Saúde do Norte Alentejano, E. P. E. (508094461)","ABBVIE,LDA                                         (510229050), RES - PRESTAÇAO DE SERVIÇOS COMERCIAIS S.A         (502440163)","361,12 €",02-10-2014,02-05-2014,45 dias,"Portugal, Portalegre, Portalegre<BR/>Portugal, Portalegre, Elvas",Artigo 259.º do Código dos Contratos Públicos,"","",,,,383205,CONCURSO PÚBLICO PARA A CELEBRAÇÃO DE CONTRATOS PÚBLICOS DE APROVISIONAMENTO PARA AQUISIÇÃO MEDICAMENTOS DO FORO ONCOLÓGICO II,FALSE
MEDICAMENTOS DO FORO ONCOLÓGICO,Ao abrigo de acordo-quadro (art.º 259.º),Aquisição de bens móveis,"33000000-0, Equipamento médico, medicamentos e produtos para cuidados pessoais","Unidade Local de Saúde do Norte Alentejano, E. P. E. (508094461)",RES - PRESTAÇAO DE SERVIÇOS COMERCIAIS S.A         (502440163),"156,00 €",02-10-2014,29-04-2014,45 dias,"Portugal, Portalegre, Portalegre<BR/>Portugal, Portalegre, Elvas",Artigo 259.º do Código dos Contratos Públicos,"","",,,,383205,CONCURSO PÚBLICO PARA A CELEBRAÇÃO DE CONTRATOS PÚBLICOS DE APROVISIONAMENTO PARA AQUISIÇÃO MEDICAMENTOS DO FORO ONCOLÓGICO II,FALSE
MEDICAMENTOS DO FORO ONCOLÓGICO,Ao abrigo de acordo-quadro (art.º 259.º),Aquisição de bens móveis,"33000000-0, Equipamento médico, medicamentos e produtos para cuidados pessoais","Unidade Local de Saúde do Norte Alentejano, E. P. E. (508094461)","ROCHE FARMACÊUTICA QUIMICA, LDA.                   (500233810)","1.070,00 €",02-10-2014,28-04-2014,45 dias,"Portugal, Portalegre, Portalegre<BR/>Portugal, Portalegre, Elvas",Artigo 259.º do Código dos Contratos Públicos,"","",,,,383205,CONCURSO PÚBLICO PARA A CELEBRAÇÃO DE CONTRATOS PÚBLICOS DE APROVISIONAMENTO PARA AQUISIÇÃO MEDICAMENTOS DO FORO ONCOLÓGICO II,FALSE
MEDICAMENTOS DO FORO ONCOLÓGICO,Ao abrigo de acordo-quadro (art.º 259.º),Aquisição de bens móveis,"33000000-0, Equipamento médico, medicamentos e produtos para cuidados pessoais","Unidade Local de Saúde do Norte Alentejano, E. P. E. (508094461)","ASTELLAS FARMA, LDA.               (502540249), FRESENIUS KABI PHARMA PORTUGAL                     (504293753), HOSPIRA PORTUGAL LDA                               (502918098), ROCHE FARMACÊUTICA QUIMICA, LDA.                   (500233810), CPH PHARMA - PRODUTOS FARMACEUTICOS, SA            (500069190), TEVA PHARMA - PRODUTOS FARMACEUTICOS,LDA           (507045491), GLAXOSMITHKLINE-PROD. FARMACÊUTICOS, LDA.          (500139962), RES - PRESTAÇAO DE SERVIÇOS COMERCIAIS S.A         (502440163), HIKMA FARMACÊUTICA (PORTUGAL) SA.                  (502266791), IPSEN PORTUGAL-PRODUTOS FARMACÊUTICOS SA.          (502609800), MERCK SHARP DOHME        (500191360), ASTRAZENECA-PRODUTOS FARMACÊUTICOS,LDA.          (502942240)","34.785,39 €",02-10-2014,24-04-2014,45 dias,"Portugal, Portalegre, Elvas<BR/>Portugal, Portalegre, Portalegre",Artigo 259.º do Código dos Contratos Públicos,"","",,,,383205,CONCURSO PÚBLICO PARA A CELEBRAÇÃO DE CONTRATOS PÚBLICOS DE APROVISIONAMENTO PARA AQUISIÇÃO MEDICAMENTOS DO FORO ONCOLÓGICO II,FALSE
MEDICAMENTOS DO FORO ONCOLÓGICO,Ao abrigo de acordo-quadro (art.º 259.º),Aquisição de bens móveis,"33000000-0, Equipamento médico, medicamentos e produtos para cuidados pessoais","Unidade Local de Saúde do Norte Alentejano, E. P. E. (508094461)","GENERIS - FARMACEUTICA, S.A.                  (508107997), MERCK SHARP DOHME                                  (500191360)","1.328,10 €",02-10-2014,23-04-2014,45 dias,"Portugal, Portalegre, Portalegre<BR/>Portugal, Portalegre, Elvas",Artigo 259.º do Código dos Contratos Públicos,"","",,,,383205,CONCURSO PÚBLICO PARA A CELEBRAÇÃO DE CONTRATOS PÚBLICOS DE APROVISIONAMENTO PARA AQUISIÇÃO MEDICAMENTOS DO FORO ONCOLÓGICO II,FALSE
MEDICAMENTOS DO FORO ONCOLÓGICO,Ao abrigo de acordo-quadro (art.º 259.º),Aquisição de bens móveis,"33000000-0, Equipamento médico, medicamentos e produtos para cuidados pessoais","Unidade Local de Saúde do Norte Alentejano, E. P. E. (508094461)","LAB. PFIZER, LDA.                                  (500162166), FARMOZ - SOC TECNICO MEDICINAL SA                  (501505334), MERCK SHARP DOHME                                 (500191360), ABBVIE,LDA                                         (510229050), RES - PRESTAÇAO DE SERVIÇOS COMERCIAIS S.A        (502440163)","4.279,99 €",02-10-2014,22-04-2014,45 dias,"Portugal, Portalegre, Elvas<BR/>Portugal, Portalegre, Portalegre",Artigo 259.º do Código dos Contratos Públicos,"","",,,,383205,CONCURSO PÚBLICO PARA A CELEBRAÇÃO DE CONTRATOS PÚBLICOS DE APROVISIONAMENTO PARA AQUISIÇÃO MEDICAMENTOS DO FORO ONCOLÓGICO II,FALSE
MEDICAMENTOS DO FORO ONCOLÓGICO,Ao abrigo de acordo-quadro (art.º 259.º),Aquisição de bens móveis,"33000000-0, Equipamento médico, medicamentos e produtos para cuidados pessoais","Unidade Local de Saúde do Norte Alentejano, E. P. E. (508094461)","LAB. PFIZER, LDA.                                  (500162166)","4.689,28 €",02-10-2014,17-04-2014,45 dias,"Portugal, Portalegre, Elvas<BR/>Portugal, Portalegre, Portalegre",Artigo 259.º do Código dos Contratos Públicos,"","",,,,383205,CONCURSO PÚBLICO PARA A CELEBRAÇÃO DE CONTRATOS PÚBLICOS DE APROVISIONAMENTO PARA AQUISIÇÃO MEDICAMENTOS DO FORO ONCOLÓGICO II,FALSE
MEDICAMENTOS DO FORO ONCOLÓGICO,Ao abrigo de acordo-quadro (art.º 259.º),Aquisição de bens móveis,"33000000-0, Equipamento médico, medicamentos e produtos para cuidados pessoais","Unidade Local de Saúde do Norte Alentejano, E. P. E. (508094461)","ROCHE FARMACÊUTICA QUIMICA, LDA.                   (500233810), RES - PRESTAÇAO DE SERVIÇOS COMERCIAIS S.A         (502440163), TEVA PHARMA - PRODUTOS FARMACEUTICOS,LDA           (507045491)","3.614,59 €",02-10-2014,10-04-2014,45 dias,"Portugal, Portalegre, Elvas<BR/>Portugal, Portalegre, Portalegre<BR/>Portugal",Artigo 259.º do Código dos Contratos Públicos,"","",,,,383205,CONCURSO PÚBLICO PARA A CELEBRAÇÃO DE CONTRATOS PÚBLICOS DE APROVISIONAMENTO PARA AQUISIÇÃO MEDICAMENTOS DO FORO ONCOLÓGICO II,FALSE
Aquisição de Vinhetas e Receitas,Ajuste Direto Regime Geral,Aquisição de bens móveis,"22900000-9, Material impresso diverso","Unidade Local de Saúde do Norte Alentejano, E. P. E. (508094461)",IMPRENSA NACIONAL - CASA DA MOEDA SA (500792887),"380,00 €",02-10-2014,17-09-2014,5 dias,"Portugal, Portalegre","Artigo 24.º, n.º 1, alínea e) do Código dos Contratos Públicos","","",,,,Não aplicável.,Não aplicável.,FALSE
MEDICAMENTOS DO FORO ONCOLÓGICO,Ao abrigo de acordo-quadro (art.º 259.º),Aquisição de bens móveis,"33000000-0, Equipamento médico, medicamentos e produtos para cuidados pessoais","Unidade Local de Saúde do Norte Alentejano, E. P. E. (508094461)",FRESENIUS KABI PHARMA PORTUGAL                     (504293753),"198,90 €",01-10-2014,09-04-2014,45 dias,"Portugal, Portalegre, Portalegre",Artigo 259.º do Código dos Contratos Públicos,"","",,,,383205,CONCURSO PÚBLICO PARA A CELEBRAÇÃO DE CONTRATOS PÚBLICOS DE APROVISIONAMENTO PARA AQUISIÇÃO MEDICAMENTOS DO FORO ONCOLÓGICO II,FALSE
MEDICAMENTOS DO FORO ONCOLÓGICO,Ao abrigo de acordo-quadro (art.º 259.º),Aquisição de bens móveis,"33000000-0, Equipamento médico, medicamentos e produtos para cuidados pessoais","Unidade Local de Saúde do Norte Alentejano, E. P. E. (508094461)","LABORATÓRIOS INIBSA, SA.  (500139571)","19,20 €",01-10-2014,08-04-2014,45 dias,"Portugal, Portalegre, Portalegre<BR/>Portugal, Portalegre, Elvas",Artigo 259.º do Código dos Contratos Públicos,"","",,,,383205,CONCURSO PÚBLICO PARA A CELEBRAÇÃO DE CONTRATOS PÚBLICOS DE APROVISIONAMENTO PARA AQUISIÇÃO MEDICAMENTOS DO FORO ONCOLÓGICO II,FALSE
MEDICAMENTOS DO FORO ONCOLÓGICO,Ao abrigo de acordo-quadro (art.º 259.º),Aquisição de bens móveis,"33000000-0, Equipamento médico, medicamentos e produtos para cuidados pessoais","Unidade Local de Saúde do Norte Alentejano, E. P. E. (508094461)","TEVA PHARMA - PRODUTOS FARMACEUTICOS,LDA           (507045491)","86,40 €",01-10-2014,04-04-2014,45 dias,"Portugal, Portalegre, Elvas<BR/>Portugal, Portalegre, Portalegre",Artigo 259.º do Código dos Contratos Públicos,"","",,,,383205,CONCURSO PÚBLICO PARA A CELEBRAÇÃO DE CONTRATOS PÚBLICOS DE APROVISIONAMENTO PARA AQUISIÇÃO MEDICAMENTOS DO FORO ONCOLÓGICO II,FALSE
MEDICAMENTOS DO FORO ONCOLÓGICO,Ao abrigo de acordo-quadro (art.º 259.º),Aquisição de bens móveis,"33000000-0, Equipamento médico, medicamentos e produtos para cuidados pessoais","Unidade Local de Saúde do Norte Alentejano, E. P. E. (508094461)","RES - PRESTAÇAO DE SERVIÇOS COMERCIAIS S.A         (502440163), FRESENIUS KABI PHARMA PORTUGAL                     (504293753), MEDAC                         (980369959), TEVA PHARMA - PRODUTOS FARMACEUTICOS,LDA           (507045491), ROCHE FARMACÊUTICA QUIMICA, LDA.                   (500233810), MERCK SA                                           (500650870), FARMOZ - SOC TECNICO MEDICINAL SA              (501505334), ASTRAZENECA-PRODUTOS FARMACÊUTICOS,LDA.         (502942240), ABBVIE,LDA                                         (510229050), HOSPIRA PORTUGAL LDA                               (502918098)","24.396,72 €",01-10-2014,03-04-2014,45 dias,"Portugal, Portalegre, Elvas<BR/>Portugal, Portalegre, Portalegre",Artigo 259.º do Código dos Contratos Públicos,"","",,,,383205,CONCURSO PÚBLICO PARA A CELEBRAÇÃO DE CONTRATOS PÚBLICOS DE APROVISIONAMENTO PARA AQUISIÇÃO MEDICAMENTOS DO FORO ONCOLÓGICO II,FALSE
MEDICAMENTOS DO FORO ONCOLÓGICO,Ao abrigo de acordo-quadro (art.º 259.º),Aquisição de bens móveis,"33000000-0, Equipamento médico, medicamentos e produtos para cuidados pessoais","Unidade Local de Saúde do Norte Alentejano, E. P. E. (508094461)","ROCHE FARMACÊUTICA QUIMICA, LDA.                   (500233810), JANSSEN CILAG FARMACEUTICA, LDA.                   (500189412), LAB. PFIZER, LDA.         (500162166)","5.946,86 €",01-10-2014,02-04-2014,45 dias,"Portugal, Portalegre, Elvas<BR/>Portugal, Portalegre, Portalegre",Artigo 259.º do Código dos Contratos Públicos,"","",,,,383205,CONCURSO PÚBLICO PARA A CELEBRAÇÃO DE CONTRATOS PÚBLICOS DE APROVISIONAMENTO PARA AQUISIÇÃO MEDICAMENTOS DO FORO ONCOLÓGICO II,FALSE
MEDICAMENTOS DO FORO ONCOLÓGICO,Ao abrigo de acordo-quadro (art.º 259.º),Aquisição de bens móveis,"33000000-0, Equipamento médico, medicamentos e produtos para cuidados pessoais","Unidade Local de Saúde do Norte Alentejano, E. P. E. (508094461)","GENERIS - FARMACEUTICA, S.A.                       (508107997)","122,50 €",01-10-2014,01-04-2014,45 dias,"Portugal, Portalegre, Portalegre<BR/>Portugal, Portalegre, Elvas",Artigo 259.º do Código dos Contratos Públicos,"","",,,,383205,CONCURSO PÚBLICO PARA A CELEBRAÇÃO DE CONTRATOS PÚBLICOS DE APROVISIONAMENTO PARA AQUISIÇÃO MEDICAMENTOS DO FORO ONCOLÓGICO II,FALSE
MEDICAMENTOS DO FORO ONCOLÓGICO,Ao abrigo de acordo-quadro (art.º 259.º),Aquisição de bens móveis,"33000000-0, Equipamento médico, medicamentos e produtos para cuidados pessoais","Unidade Local de Saúde do Norte Alentejano, E. P. E. (508094461)","ABBVIE,LDA                    (510229050), ASTELLAS FARMA, LDA.                              (502540249), ASTRAZENECA-PRODUTOS FARMACÊUTICOS,LDA.            (502942240), RES - PRESTAÇAO DE SERVIÇOS COMERCIAIS S.A   (502440163)","895,38 €",01-10-2014,28-03-2014,45 dias,"Portugal, Portalegre, Portalegre<BR/>Portugal, Portalegre, Elvas",Artigo 259.º do Código dos Contratos Públicos,"","",,,,383205,CONCURSO PÚBLICO PARA A CELEBRAÇÃO DE CONTRATOS PÚBLICOS DE APROVISIONAMENTO PARA AQUISIÇÃO MEDICAMENTOS DO FORO ONCOLÓGICO II,FALSE
MEDICAMENTOS DO FORO ONCOLÓGICO,Ao abrigo de acordo-quadro (art.º 259.º),Aquisição de bens móveis,"33000000-0, Equipamento médico, medicamentos e produtos para cuidados pessoais","Unidade Local de Saúde do Norte Alentejano, E. P. E. (508094461)","MERCK SHARP DOHME       (500191360), TEVA PHARMA - PRODUTOS FARMACEUTICOS,LDA           (507045491), FRESENIUS KABI PHARMA PORTUGAL                     (504293753), HOSPIRA PORTUGAL LDA                               (502918098), ROCHE FARMACÊUTICA QUIMICA, LDA.                   (500233810), HIKMA FARMACÊUTICA (PORTUGAL) SA.                  (502266791), RES - PRESTAÇAO DE SERVIÇOS COMERCIAIS S.A         (502440163)","6.444,10 €",01-10-2014,27-03-2014,45 dias,"Portugal, Portalegre, Elvas<BR/>Portugal, Portalegre, Portalegre",Artigo 259.º do Código dos Contratos Públicos,"","",,,,383205,CONCURSO PÚBLICO PARA A CELEBRAÇÃO DE CONTRATOS PÚBLICOS DE APROVISIONAMENTO PARA AQUISIÇÃO MEDICAMENTOS DO FORO ONCOLÓGICO II,FALSE
MEDICAMENTOS DO FORO ONCOLÓGICO,Ao abrigo de acordo-quadro (art.º 259.º),Aquisição de bens móveis,"33000000-0, Equipamento médico, medicamentos e produtos para cuidados pessoais","Unidade Local de Saúde do Norte Alentejano, E. P. E. (508094461)","IPSEN PORTUGAL-PRODUTOS FARMACÊUTICOS SA.          (502609800), NOVARTIS FARMA-PROD.FARMACÊUTICOS,SA.          (500063524), RES - PRESTAÇAO DE SERVIÇOS COMERCIAIS S.A         (502440163), ROCHE FARMACÊUTICA QUIMICA, LDA.                   (500233810), FARMOZ - SOC TECNICO MEDICINAL SA                  (501505334), GLAXOSMITHKLINE-PROD. FARMACÊUTICOS, LDA.          (500139962), ASTRAZENECA-PRODUTOS FARMACÊUTICOS,LDA.        (502942240), MERCK SHARP DOHME       (500191360), BRISTOL - MYERS SQUIBB SA.                (500048193), TEVA PHARMA - PRODUTOS FARMACEUTICOS,LDA           (507045491), LAB. PFIZER, LDA.                             (500162166), JANSSEN CILAG FARMACEUTICA, LDA.                   (500189412), GENERIS - FARMACEUTICA, S.A.         (508107997)","47.798,33 €",01-10-2014,25-03-2014,45 dias,"Portugal, Portalegre, Elvas<BR/>Portugal, Portalegre, Portalegre",Artigo 259.º do Código dos Contratos Públicos,"","",,,,383205,CONCURSO PÚBLICO PARA A CELEBRAÇÃO DE CONTRATOS PÚBLICOS DE APROVISIONAMENTO PARA AQUISIÇÃO MEDICAMENTOS DO FORO ONCOLÓGICO II,FALSE
MEDICAMENTOS DO FORO ONCOLÓGICO,Ao abrigo de acordo-quadro (art.º 259.º),Aquisição de bens móveis,"33000000-0, Equipamento médico, medicamentos e produtos para cuidados pessoais","Unidade Local de Saúde do Norte Alentejano, E. P. E. (508094461)","ROCHE FARMACÊUTICA QUIMICA, LDA.                   (500233810)","43,52 €",01-10-2014,21-03-2014,45 dias,"Portugal, Portalegre, Portalegre<BR/>Portugal, Portalegre, Elvas",Artigo 259.º do Código dos Contratos Públicos,"","",,,,383205,CONCURSO PÚBLICO PARA A CELEBRAÇÃO DE CONTRATOS PÚBLICOS DE APROVISIONAMENTO PARA AQUISIÇÃO MEDICAMENTOS DO FORO ONCOLÓGICO II,FALSE
MEDICAMENTOS DO FORO ONCOLÓGICO,Ao abrigo de acordo-quadro (art.º 259.º),Aquisição de bens móveis,"33000000-0, Equipamento médico, medicamentos e produtos para cuidados pessoais","Unidade Local de Saúde do Norte Alentejano, E. P. E. (508094461)","FRESENIUS KABI PHARMA PORTUGAL                     (504293753), HOSPIRA PORTUGAL LDA                      (502918098), ACTAVIS AS SUCURSAL                  (980334934)","1.624,28 €",01-10-2014,20-03-2014,45 dias,"Portugal, Portalegre, Elvas<BR/>Portugal, Portalegre, Portalegre",Artigo 259.º do Código dos Contratos Públicos,"","",,,,383205,CONCURSO PÚBLICO PARA A CELEBRAÇÃO DE CONTRATOS PÚBLICOS DE APROVISIONAMENTO PARA AQUISIÇÃO MEDICAMENTOS DO FORO ONCOLÓGICO II,FALSE
MEDICAMENTOS DO FORO ONCOLÓGICO,Ao abrigo de acordo-quadro (art.º 259.º),Aquisição de bens móveis,"33000000-0, Equipamento médico, medicamentos e produtos para cuidados pessoais","Unidade Local de Saúde do Norte Alentejano, E. P. E. (508094461)",MERCK SHARP DOHME                         (500191360),"20,48 €",01-10-2014,19-03-2014,45 dias,"Portugal, Portalegre, Portalegre",Artigo 259.º do Código dos Contratos Públicos,"","",,,,383205,CONCURSO PÚBLICO PARA A CELEBRAÇÃO DE CONTRATOS PÚBLICOS DE APROVISIONAMENTO PARA AQUISIÇÃO MEDICAMENTOS DO FORO ONCOLÓGICO II,FALSE
MEDICAMENTOS DO FORO ONCOLÓGICO,Ao abrigo de acordo-quadro (art.º 259.º),Aquisição de bens móveis,"33000000-0, Equipamento médico, medicamentos e produtos para cuidados pessoais","Unidade Local de Saúde do Norte Alentejano, E. P. E. (508094461)","MEDAC (980369959), LAB. PFIZER, LDA.                              (500162166)","421,70 €",01-10-2014,18-03-2014,45 dias,"Portugal, Portalegre, Portalegre<BR/>Portugal, Portalegre, Elvas",Artigo 259.º do Código dos Contratos Públicos,"","",,,,383205,CONCURSO PÚBLICO PARA A CELEBRAÇÃO DE CONTRATOS PÚBLICOS DE APROVISIONAMENTO PARA AQUISIÇÃO MEDICAMENTOS DO FORO ONCOLÓGICO II,FALSE
MEDICAMENTOS DO FORO ONCOLÓGICO,Ao abrigo de acordo-quadro (art.º 259.º),Aquisição de bens móveis,"33000000-0, Equipamento médico, medicamentos e produtos para cuidados pessoais","Unidade Local de Saúde do Norte Alentejano, E. P. E. (508094461)",ACTAVIS AS SUCURSAL                         (980334934),"13,80 €",01-10-2014,17-03-2014,45 dias,"Portugal, Portalegre, Portalegre<BR/>Portugal, Portalegre, Elvas",Artigo 259.º do Código dos Contratos Públicos,"","",,,,383205,CONCURSO PÚBLICO PARA A CELEBRAÇÃO DE CONTRATOS PÚBLICOS DE APROVISIONAMENTO PARA AQUISIÇÃO MEDICAMENTOS DO FORO ONCOLÓGICO II,FALSE
MEDICAMENTOS DO FORO ONCOLÓGICO,Ao abrigo de acordo-quadro (art.º 259.º),Aquisição de bens móveis,"33000000-0, Equipamento médico, medicamentos e produtos para cuidados pessoais","Unidade Local de Saúde do Norte Alentejano, E. P. E. (508094461)","ABBVIE,LDA                                   (510229050)","2.768,99 €",01-10-2014,14-03-2014,45 dias,"Portugal, Portalegre, Portalegre<BR/>Portugal, Portalegre, Elvas",Artigo 259.º do Código dos Contratos Públicos,"","",,,,383205,CONCURSO PÚBLICO PARA A CELEBRAÇÃO DE CONTRATOS PÚBLICOS DE APROVISIONAMENTO PARA AQUISIÇÃO MEDICAMENTOS DO FORO ONCOLÓGICO II,FALSE
MEDICAMENTOS DO FORO ONCOLÓGIVO,Ao abrigo de acordo-quadro (art.º 259.º),Aquisição de bens móveis,"33000000-0, Equipamento médico, medicamentos e produtos para cuidados pessoais","Unidade Local de Saúde do Norte Alentejano, E. P. E. (508094461)","GLAXOSMITHKLINE-PROD. FARMACÊUTICOS, LDA.          (500139962), RES - PRESTAÇAO DE SERVIÇOS COMERCIAIS S.A         (502440163), ACTAVIS AS SUCURSAL                                (980334934)","403,68 €",01-10-2014,13-03-2014,45 dias,"Portugal, Portalegre, Portalegre",Artigo 259.º do Código dos Contratos Públicos,"","",,,,383205,CONCURSO PÚBLICO PARA A CELEBRAÇÃO DE CONTRATOS PÚBLICOS DE APROVISIONAMENTO PARA AQUISIÇÃO MEDICAMENTOS DO FORO ONCOLÓGICO II,FALSE
