Objeto do Contrato,Tipo de Procedimento,Tipo(s) de Contrato,CPVs,Entidade(s) Adjudicante(s),Entidade(s) Adjudicatária(s),Preço Contratual,Data de Publicação,Data de Celebração do Contrato,Prazo de Execução,Local de Execução,Fundamentação,Data de Fecho do Contrato,Preço Total Efetivo,Causas das Alterações ao Prazo,Causas das Alterações ao Preço,Estado,N.º registo do Acordo Quadro,Descrição do Acordo Quadro,Procedimento Centralizado
Aquisição de publicações - Sumário executivo da avaliação externa ao PNCDT -2015-2013,Ajuste Direto Regime Geral,Aquisição de bens móveis,"22000000-0, Material impresso e afins",Serviço de Intervenção nos Comportamentos Aditivos e nas Dependências (600084884),"Loures Gráfica - Sociedade de Artes Gráficas, Lda (501709304)","1.270,00 €",12-08-2013,10-01-2013,15 dias,"Portugal, Lisboa, Lisboa","Artigo 20.º, n.º 1, alínea a) do Código dos Contratos Públicos",,,,,,Não aplicável.,Não aplicável.,
Aquisição de serviços - Atualização da prescrição electronica de medicamentos no SIM,Ajuste Direto Regime Geral,Aquisição de serviços,"72000000-5, Serviços de TI: consultoria, desenvolvimento de software, Internet e apoio",Serviço de Intervenção nos Comportamentos Aditivos e nas Dependências (600084884),"Normática - Serviço de Informática e Organização, SA (501782230)","4.930,00 €",12-08-2013,07-02-2013,15 dias,"Portugal, Lisboa, Lisboa","Artigo 20.º, n.º 1, alínea a) do Código dos Contratos Públicos",,,,,,Não aplicável.,Não aplicável.,
Aquisição de serviços - Manutenção da plataforma outsystems para um periodo de 12 meses,Ajuste Direto Regime Geral,Aquisição de serviços,"50000000-5, Serviços de reparação e manutenção",Serviço de Intervenção nos Comportamentos Aditivos e nas Dependências (600084884),"Outsystems - Software em rede, SA (504995634)","16.065,00 €",12-08-2013,07-02-2013,365 dias,"Portugal, Lisboa, Lisboa","Artigo 20.º, n.º 1, alínea a) do Código dos Contratos Públicos",,,,,,Não aplicável.,Não aplicável.,
"Aquisição de publicações - Revista """"Dependência""""",Ajuste Direto Regime Geral,Aquisição de bens móveis,"22000000-0, Material impresso e afins",Serviço de Intervenção nos Comportamentos Aditivos e nas Dependências (600084884),Newscoop. - Informação e comunicação CRL (507932161),"35.000,00 €",12-08-2013,06-03-2013,365 dias,Portugal,"Artigo 20.º, n.º 1, alínea a) do Código dos Contratos Públicos",,,,,,Não aplicável.,Não aplicável.,
Aquisição de serviços de upgrade java da plataforma outsystems para o SICAD,Ajuste Direto Regime Geral,Aquisição de serviços,"72000000-5, Serviços de TI: consultoria, desenvolvimento de software, Internet e apoio",Serviço de Intervenção nos Comportamentos Aditivos e nas Dependências (600084884),SPMS - Serviços Partilhados do Ministério da Saúde  (509540716),"9.950,00 €",12-08-2013,19-03-2013,10 dias,"Portugal, Lisboa, Lisboa","Artigo 20.º, n.º 1, alínea a) do Código dos Contratos Públicos",,,,,,Não aplicável.,Não aplicável.,
Aquisição de serviços - Bolsa de horas para manutenção evolutiva do SIM,Ajuste Direto Regime Geral,Aquisição de serviços,"50000000-5, Serviços de reparação e manutenção",Serviço de Intervenção nos Comportamentos Aditivos e nas Dependências (600084884),"Normática - Serviços de Informática e Organização, SA (501782230)","4.999,00 €",12-08-2013,15-07-2013,15 dias,"Portugal, Lisboa, Lisboa","Artigo 20.º, n.º 1, alínea a) do Código dos Contratos Públicos",,,,,,Não aplicável.,Não aplicável.,
"Aquisição de serviços de limpeza e fornecimento de consumiveis para as CDT's da região do Porto, Centro, Lisboa e Algarve - 3 meses",Ajuste Direto Regime Geral,Aquisição de serviços,"90000000-7, Serviços relativos a águas residuais, resíduos, limpeza e ambiente",Serviço de Intervenção nos Comportamentos Aditivos e nas Dependências (600084884),"SAMSIC Portugal, Facility (504839748)","5.197,50 €",12-08-2013,01-04-2013,90 dias,Portugal,"Artigo 20.º, n.º 1, alínea a) do Código dos Contratos Públicos",,,,,,Não aplicável.,Não aplicável.,
"Aquisição de serviços de limpeza e fornecimento de consumiveis para as CDT's da região do Porto, Centro, Lisboa e Algarve - 3 meses",Ajuste Direto Regime Geral,Aquisição de serviços,"90000000-7, Serviços relativos a águas residuais, resíduos, limpeza e ambiente",Serviço de Intervenção nos Comportamentos Aditivos e nas Dependências (600084884),SAMSIC Portugal - Facility (504839748),"5.197,50 €",12-08-2013,14-01-2013,90 dias,Portugal,"Artigo 20.º, n.º 1, alínea a) do Código dos Contratos Públicos",,,,,,Não aplicável.,Não aplicável.,
Aquisição de serviços de limpeza e fornecimento de consumiveis para as CDT's da região do Alentejo - 3 meses,Ajuste Direto Regime Geral,Aquisição de serviços,"90000000-7, Serviços relativos a águas residuais, resíduos, limpeza e ambiente",Serviço de Intervenção nos Comportamentos Aditivos e nas Dependências (600084884),"Conforlimpa Tejo - Limpezas Industriais, SA (503172588)","1.054,74 €",12-08-2013,01-07-2013,90 dias,"Portugal, Évora, Évora<BR/>Portugal, Beja, Beja<BR/>Portugal, Portalegre, Portalegre","Artigo 20.º, n.º 1, alínea a) do Código dos Contratos Públicos",,,,,,Não aplicável.,Não aplicável.,
Aquisição de serviços de limpeza e fornecimento de consumiveis para as CDT's da região do Alentejo - 4 meses,Ajuste Direto Regime Geral,Aquisição de serviços,"90000000-7, Serviços relativos a águas residuais, resíduos, limpeza e ambiente",Serviço de Intervenção nos Comportamentos Aditivos e nas Dependências (600084884),"Conforlimpa Tejo - Limpezas Industriais, SA (503172588)","1.406,32 €",12-08-2013,04-03-2013,120 dias,"Portugal, Évora, Évora<BR/>Portugal, Portalegre, Portalegre<BR/>Portugal, Beja, Beja","Artigo 20.º, n.º 1, alínea a) do Código dos Contratos Públicos",,,,,,Não aplicável.,Não aplicável.,
Aquisição de serviços de limpeza e fornecimento de consumiveis para as CDT's da região do Alentejo - 2 meses,Ajuste Direto Regime Geral,Aquisição de serviços,"90000000-7, Serviços relativos a águas residuais, resíduos, limpeza e ambiente",Serviço de Intervenção nos Comportamentos Aditivos e nas Dependências (600084884),"Conforlimpa Tejo - Limpezas Industrais, SA (503172588)","3.944,58 €",12-08-2013,18-01-2013,60 dias,"Portugal, Évora, Évora<BR/>Portugal, Beja, Beja<BR/>Portugal, Portalegre, Portalegre","Artigo 20.º, n.º 1, alínea a) do Código dos Contratos Públicos",,,,,,Não aplicável.,Não aplicável.,
Aquisição de serviços de transformação e transporte de Cloridrato de Metadona em pó no âmbito do Programa de Metadona,Ajuste Direto Regime Geral,Aquisição de serviços,"98000000-3, Outros serviços comunitários, sociais e pessoais<BR/>60000000-8, Serviços de transporte (excl. transporte de resíduos)",Serviço de Intervenção nos Comportamentos Aditivos e nas Dependências (600084884),Laboratório Militar de Produtos Quimicos e Farmacêuticos  (600019675),"206.501,44 €",12-08-2013,11-01-2013,365 dias,Portugal,"Artigo 24.º, n.º 1, alínea e) do Código dos Contratos Públicos",,,,,,Não aplicável.,Não aplicável.,
Aquisição de serviços postais para o SICAD e as CDT's,Ajuste Direto Regime Geral,Aquisição de serviços,"64000000-6, Serviços postais e de telecomunicações",Serviço de Intervenção nos Comportamentos Aditivos e nas Dependências (600084884),"CTT - Correios de Portugal, SA (500077568)","21.600,00 €",12-08-2013,15-01-2013,365 dias,Portugal,"Artigo 20.º, n.º 1, alínea a) do Código dos Contratos Públicos",,,,,,Não aplicável.,Não aplicável.,
Aquisição de serviços de cópia e impressão ao abrigo do acordo quadro - Lote 8,Ao abrigo de acordo-quadro (art.º 258.º),Aquisição de serviços,"79000000-4, Serviços a empresas: direito, comercialização, consultoria, recrutamento, impressão e segurança",Serviço de Intervenção nos Comportamentos Aditivos e nas Dependências (600084884),"Canon Portugal, SA (507477740)","146.383,20 €",12-08-2013,15-04-2013,1095 dias,Portugal,"Artigo 26.º, n.º 1, alínea e) do Código dos Contratos Públicos",,,,,,236709,"A CONTRATAÇÃO DE SERVIÇOS DE CÓPIA E IMPRESSÃO EM REGIME DE OUTSOURCING PARA O INSTITUTO DA DROGA E DA TOXICODEPENDÊNCIA, I.P., PARA UM PERIODO DE 2 MESES AO ABRIGO DO ACORDO QUADRO N.º 4 – CÓPIA E IMPRESSÃO DA ANCP ",
Aquisição de serviços de comunicações - Linhas analógicas para as CDT's,Ajuste Direto Regime Geral,Aquisição de serviços,"64000000-6, Serviços postais e de telecomunicações",Serviço de Intervenção nos Comportamentos Aditivos e nas Dependências (600084884),"PT Comunicações, SA (504615947)","3.759,80 €",12-08-2013,15-04-2013,365 dias,Portugal,"Artigo 20.º, n.º 1, alínea a) do Código dos Contratos Públicos",,,,,,Não aplicável.,Não aplicável.,
