Objeto do Contrato,Tipo de Procedimento,Tipo(s) de Contrato,CPVs,Entidade(s) Adjudicante(s),Entidade(s) Adjudicatária(s),Preço Contratual,Data de Publicação,Data de Celebração do Contrato,Prazo de Execução,Local de Execução,Fundamentação,Data de Fecho do Contrato,Preço Total Efetivo,Causas das Alterações ao Prazo,Causas das Alterações ao Preço,Estado,N.º registo do Acordo Quadro,Descrição do Acordo Quadro,Procedimento Centralizado
Aquisição de Material para Tratamento por Pressão Negativa,Concurso público,Aquisição de bens móveis,"33140000-3, Material médico de consumo","Centro Hospitalar Vila Nova de Gaia - Espinho, E. P. E. (508142156)",Smith & Nephew Lda (503552461),"124.313,85 €",11-08-2014,11-08-2014,150 dias,"Portugal, Porto, Vila Nova de Gaia","Artigo 20.º, n.º 1, alínea b) do Código dos Contratos Públicos",,,,,,Não aplicável.,Não aplicável.,FALSE
Aquisição de Material Administrativo,Concurso público,Aquisição de bens móveis,"30192000-1, Material de escritório","Centro Hospitalar Vila Nova de Gaia - Espinho, E. P. E. (508142156)","Aviquímica-Importações e manufacturas, Lda. (500039720)","5.493,00 €",08-08-2014,31-07-2014,150 dias,"Portugal, Porto, Vila Nova de Gaia","Artigo 20.º, n.º 1, alínea b) do Código dos Contratos Públicos",,,,,,Não aplicável.,Não aplicável.,FALSE
Aquisição de Material Administrativo,Concurso público,Aquisição de bens móveis,"30192000-1, Material de escritório","Centro Hospitalar Vila Nova de Gaia - Espinho, E. P. E. (508142156)",TOPTONER- Reciclagem e Comercialização Con. Inf. (504242644),"2.693,55 €",08-08-2014,31-07-2014,150 dias,"Portugal, Porto, Vila Nova de Gaia","Artigo 20.º, n.º 1, alínea b) do Código dos Contratos Públicos",,,,,,Não aplicável.,Não aplicável.,FALSE
Aquisição de Material Administrativo,Concurso público,Aquisição de bens móveis,"30192000-1, Material de escritório","Centro Hospitalar Vila Nova de Gaia - Espinho, E. P. E. (508142156)",Olmar- Artigos de Papelaria Lda. (508831989),"7.533,21 €",08-08-2014,31-07-2014,150 dias,"Portugal, Porto, Vila Nova de Gaia","Artigo 20.º, n.º 1, alínea b) do Código dos Contratos Públicos",,,,,,Não aplicável.,Não aplicável.,FALSE
Aquisição de Material Administrativo,Concurso público,Aquisição de bens móveis,"30192000-1, Material de escritório","Centro Hospitalar Vila Nova de Gaia - Espinho, E. P. E. (508142156)",Staples Portugal-Equipamentos de Escritório S.A. (503789372),"243,83 €",08-08-2014,31-07-2014,150 dias,"Portugal, Porto, Vila Nova de Gaia","Artigo 20.º, n.º 1, alínea b) do Código dos Contratos Públicos",,,,,,Não aplicável.,Não aplicável.,FALSE
"Aquisição de Serviços de Fiscalização da Empreitada de Construção do Novo Edifício Hospitalar a Integrar no Plano de Reabilitação do CHVNGaiai/espinho, EPE ",Concurso público,Aquisição de serviços,"71247000-1, Supervisão de trabalhos de construção","Centro Hospitalar Vila Nova de Gaia - Espinho, E. P. E. (508142156)",Vitor Hugo - Coordenação e Gestão de Projectos S.A. (503040630),"147.240,00 €",07-08-2014,15-07-2014,540 dias,"Portugal, Porto, Vila Nova de Gaia","Artigo 20.º, n.º 1, alínea b) do Código dos Contratos Públicos",,,,,,Não aplicável.,Não aplicável.,FALSE
"Medicamentos Antipsicóticos, AQ 2012/19",Ao abrigo de acordo-quadro (art.º 259.º),Aquisição de bens móveis,"33600000-6, Produtos farmacêuticos","Centro Hospitalar Vila Nova de Gaia - Espinho, E. P. E. (508142156)","LUNDBECK PORTUGAL - PRODUTOS FARMACÊUTICOS, UNIPESSOAL, LDA  (503573922)","544,77 €",04-08-2014,21-07-2014,160 dias,"Portugal, Porto, Vila Nova de Gaia",Artigo 259.º do Código dos Contratos Públicos,,,,,,389354,CONCURSO PÚBLICO PARA A CELEBRAÇÃO DE CONTRATOS PÚBLICOS DE APROVISIONAMENTO PARA AQUISIÇÃO MEDICAMENTOS ANTI-PSICÓTICOS,FALSE
"Hormonas, AQ 2013/07",Ao abrigo de acordo-quadro (art.º 259.º),Aquisição de bens móveis,"33640000-8, Medicamentos para o aparelho geniturinário e hormonas","Centro Hospitalar Vila Nova de Gaia - Espinho, E. P. E. (508142156)",Sanofi - Produtos Farmacêuticos Lda (500134960),"186,48 €",04-08-2014,04-08-2014,160 dias,"Portugal, Porto, Vila Nova de Gaia",Artigo 259.º do Código dos Contratos Públicos,,,,,,603979,"CONCURSO PÚBLICO PARA A CELEBRAÇÃO DE CONTRATOS PÚBLICOS DE APROVISIONAMENTO PARA A ÁREA DA SAÚDE, COM VISTA AO FORNECIMENTO DE HORMONAS E OUTROS MEDICAMENTOS USADOS NO TRATAMENTO DAS DOENÇAS ENDÓCRINAS, ÀS INSTITUIÇÕES E SERVIÇOS DO SERVIÇO NACIONAL DE SAÚDE",FALSE
"Hormonas, AQ 2013/07",Ao abrigo de acordo-quadro (art.º 259.º),Aquisição de bens móveis,"33640000-8, Medicamentos para o aparelho geniturinário e hormonas","Centro Hospitalar Vila Nova de Gaia - Espinho, E. P. E. (508142156)",Laboratórios Pfizer Lda (500162166),"163.431,28 €",04-08-2014,04-08-2014,160 dias,"Portugal, Porto, Vila Nova de Gaia",Artigo 259.º do Código dos Contratos Públicos,,,,,,603979,"CONCURSO PÚBLICO PARA A CELEBRAÇÃO DE CONTRATOS PÚBLICOS DE APROVISIONAMENTO PARA A ÁREA DA SAÚDE, COM VISTA AO FORNECIMENTO DE HORMONAS E OUTROS MEDICAMENTOS USADOS NO TRATAMENTO DAS DOENÇAS ENDÓCRINAS, ÀS INSTITUIÇÕES E SERVIÇOS DO SERVIÇO NACIONAL DE SAÚDE",FALSE
"Hormonas, AQ 2013/07",Ao abrigo de acordo-quadro (art.º 259.º),Aquisição de bens móveis,"33640000-8, Medicamentos para o aparelho geniturinário e hormonas","Centro Hospitalar Vila Nova de Gaia - Espinho, E. P. E. (508142156)","Laboratorios Normon, S.A. (505654156)","1.073,00 €",04-08-2014,04-08-2014,160 dias,"Portugal, Porto, Vila Nova de Gaia",Artigo 259.º do Código dos Contratos Públicos,,,,,,603979,"CONCURSO PÚBLICO PARA A CELEBRAÇÃO DE CONTRATOS PÚBLICOS DE APROVISIONAMENTO PARA A ÁREA DA SAÚDE, COM VISTA AO FORNECIMENTO DE HORMONAS E OUTROS MEDICAMENTOS USADOS NO TRATAMENTO DAS DOENÇAS ENDÓCRINAS, ÀS INSTITUIÇÕES E SERVIÇOS DO SERVIÇO NACIONAL DE SAÚDE",FALSE
"Hormonas, AQ 2013/07",Ao abrigo de acordo-quadro (art.º 259.º),Aquisição de bens móveis,"33640000-8, Medicamentos para o aparelho geniturinário e hormonas","Centro Hospitalar Vila Nova de Gaia - Espinho, E. P. E. (508142156)",Labesfal-Laboratórios Almiro SA (501169580),"2.959,60 €",04-08-2014,04-08-2014,160 dias,"Portugal, Porto, Vila Nova de Gaia",Artigo 259.º do Código dos Contratos Públicos,,,,,,603979,"CONCURSO PÚBLICO PARA A CELEBRAÇÃO DE CONTRATOS PÚBLICOS DE APROVISIONAMENTO PARA A ÁREA DA SAÚDE, COM VISTA AO FORNECIMENTO DE HORMONAS E OUTROS MEDICAMENTOS USADOS NO TRATAMENTO DAS DOENÇAS ENDÓCRINAS, ÀS INSTITUIÇÕES E SERVIÇOS DO SERVIÇO NACIONAL DE SAÚDE",FALSE
"Hormonas, AQ 2013/07",Ao abrigo de acordo-quadro (art.º 259.º),Aquisição de bens móveis,"33640000-8, Medicamentos para o aparelho geniturinário e hormonas","Centro Hospitalar Vila Nova de Gaia - Espinho, E. P. E. (508142156)",IPSEN PORTUGAL (502609800),"26.214,30 €",04-08-2014,04-08-2014,160 dias,"Portugal, Porto, Vila Nova de Gaia",Artigo 259.º do Código dos Contratos Públicos,,,,,,603979,"CONCURSO PÚBLICO PARA A CELEBRAÇÃO DE CONTRATOS PÚBLICOS DE APROVISIONAMENTO PARA A ÁREA DA SAÚDE, COM VISTA AO FORNECIMENTO DE HORMONAS E OUTROS MEDICAMENTOS USADOS NO TRATAMENTO DAS DOENÇAS ENDÓCRINAS, ÀS INSTITUIÇÕES E SERVIÇOS DO SERVIÇO NACIONAL DE SAÚDE",FALSE
"Hormonas, AQ 2013/07",Ao abrigo de acordo-quadro (art.º 259.º),Aquisição de bens móveis,"33640000-8, Medicamentos para o aparelho geniturinário e hormonas","Centro Hospitalar Vila Nova de Gaia - Espinho, E. P. E. (508142156)","D.L.A. FARMACÊUTICA, S.A. (503894427)","12.480,00 €",04-08-2014,04-08-2014,160 dias,"Portugal, Porto, Vila Nova de Gaia",Artigo 259.º do Código dos Contratos Públicos,,,,,,603979,"CONCURSO PÚBLICO PARA A CELEBRAÇÃO DE CONTRATOS PÚBLICOS DE APROVISIONAMENTO PARA A ÁREA DA SAÚDE, COM VISTA AO FORNECIMENTO DE HORMONAS E OUTROS MEDICAMENTOS USADOS NO TRATAMENTO DAS DOENÇAS ENDÓCRINAS, ÀS INSTITUIÇÕES E SERVIÇOS DO SERVIÇO NACIONAL DE SAÚDE",FALSE
Aquisição de Dermatoscópio - Serviço de Dermatologia,Ajuste Direto Regime Geral,Aquisição de bens móveis,"33166000-1, Aparelhos para dermatologia","Centro Hospitalar Vila Nova de Gaia - Espinho, E. P. E. (508142156)",Filsat Lda (506708616),"19.341,00 €",01-08-2014,25-07-2014,15 dias,"Portugal, Porto, Vila Nova de Gaia","Artigo 24.º, n.º 1, alínea c) do Código dos Contratos Públicos",,,,,,Não aplicável.,Não aplicável.,FALSE
Desvio da linha de esgoto exterior -Serv Anatomia Patologica,Ajuste Direto Regime Geral,Empreitadas de obras públicas,"45232400-6, Obras de construção de esgotos","Centro Hospitalar Vila Nova de Gaia - Espinho, E. P. E. (508142156)","FSA- Construções Unipessoal, Lda (510490530)","34.678,45 €",01-08-2014,27-05-2014,45 dias,"Portugal, Porto, Vila Nova de Gaia","Artigo 24.º, n.º 1, alínea c) do Código dos Contratos Públicos",,,,,,Não aplicável.,Não aplicável.,FALSE
Aquisição de Mesa Operatória - Bloco Central -Piso 3,Ajuste Direto Regime Geral,Aquisição de bens móveis,"33192230-3, Mesas de cirurgia","Centro Hospitalar Vila Nova de Gaia - Espinho, E. P. E. (508142156)",Maquet Portugal S.A. (506819698),"72.374,86 €",01-08-2014,16-07-2014,20 dias,"Portugal, Porto, Vila Nova de Gaia","Artigo 24.º, n.º 1, alínea e) do Código dos Contratos Públicos",,,,,,Não aplicável.,Não aplicável.,FALSE
Alteração das Instalações Sanitárias-UCIM/AVC,Ajuste Direto Regime Geral,Empreitadas de obras públicas,"45453000-7, Obras de revisão e recuperação","Centro Hospitalar Vila Nova de Gaia - Espinho, E. P. E. (508142156)",Vaslopes Soc de Construções Lda (504684078),"3.550,00 €",01-08-2014,25-07-2014,10 dias,"Portugal, Porto, Vila Nova de Gaia","Artigo 19.º, alínea a) do Código dos Contratos Públicos",,,,,,Não aplicável.,Não aplicável.,FALSE
Aquisição de Perfurador Jacobs Chuck ADO2 - Bloco Piso 3,Ajuste Direto Regime Geral,Aquisição de bens móveis,"33162000-3, Aparelhos e instrumentos para blocos operatórios","Centro Hospitalar Vila Nova de Gaia - Espinho, E. P. E. (508142156)",Medtronic Portugal Lda (504223933),"3.500,00 €",01-08-2014,29-07-2014,3 dias,"Portugal, Porto, Vila Nova de Gaia","Artigo 24.º, n.º 1, alínea e) do Código dos Contratos Públicos",,,,,,Não aplicável.,Não aplicável.,FALSE
Aquisição de Serviços de Comunicação de Voz e Dados - Ano 2014,Ajuste Direto Regime Geral,Aquisição de serviços,"64210000-1, Serviços telefónicos e de transmissão de dados","Centro Hospitalar Vila Nova de Gaia - Espinho, E. P. E. (508142156)",PT Comunicações S.A. + MEO S.A. (504615947),"154.472,00 €",01-08-2014,15-07-2014,365 dias,"Portugal, Porto, Vila Nova de Gaia","Artigo 27.º, n.º 1, alínea a) do Código dos Contratos Públicos",,,,,,Não aplicável.,Não aplicável.,FALSE
"Aquisição de Serviços de Comunicação de Voz (fixa e móvel) e Dados no CHVNGaia/E,EPE",Concurso público,Aquisição de serviços,"64210000-1, Serviços telefónicos e de transmissão de dados","Centro Hospitalar Vila Nova de Gaia - Espinho, E.P.E. (508142156)",PT Comunicações SA+ TMN SA (504615947),"64.439,60 €",01-08-2014,22-08-2013,150 dias,"Portugal, Porto, Vila Nova de Gaia","Artigo 20.º, n.º 1, alínea b) do Código dos Contratos Públicos",,,,,,Não aplicável.,Não aplicável.,FALSE
