Objeto do Contrato,Tipo de Procedimento,Tipo(s) de Contrato,CPVs,Entidade(s) Adjudicante(s),Entidade(s) Adjudicatária(s),Preço Contratual,Data de Publicação,Data de Celebração do Contrato,Prazo de Execução,Local de Execução,Fundamentação,Data de Fecho do Contrato,Preço Total Efetivo,Causas das Alterações ao Prazo,Causas das Alterações ao Preço,Estado,N.º registo do Acordo Quadro,Descrição do Acordo Quadro,Procedimento Centralizado
serviços de enfermagem,Ajuste Direto Regime Geral,Aquisição de serviços,"85000000-9, Serviços de saúde e acção social","Administração Regional de Saúde do Centro, I. P. (503122165)",Lícia Maria Batista Teixeira (264460979),"1.216,00 €",23-04-2018,04-01-2018,31 dias,"Portugal, Coimbra, Coimbra","Artigo 20.º, n.º 1, alínea a) do Código dos Contratos Públicos",31-01-2018,"1.216,00 €",,"",,Não aplicável.,Não aplicável.,FALSE
serviços médicos,Ajuste Direto Regime Geral,Aquisição de serviços,"85000000-9, Serviços de saúde e acção social","Administração Regional de Saúde do Centro, I. P. (503122165)",Mihail Angheluta (228990289),"78.000,00 €",23-04-2018,01-01-2018,365 dias,"Portugal, Viseu, São Pedro do Sul","Artigo 24.º, n.º 1, alínea c) do Código dos Contratos Públicos",31-12-2018,"54.775,00 €",,Realização de número de horas inferior ao contratado.,,Não aplicável.,Não aplicável.,FALSE
serviços médicos,Ajuste Direto Regime Geral,Aquisição de serviços,"85000000-9, Serviços de saúde e acção social","Administração Regional de Saúde do Centro, I. P. (503122165)",Liliana Marlene Marques Campos (213623846),"26.100,00 €",23-04-2018,01-02-2018,334 dias,"Portugal, Viseu, São Pedro do Sul","Artigo 24.º, n.º 1, alínea c) do Código dos Contratos Públicos","","",,"",,Não aplicável.,Não aplicável.,FALSE
Serviços médicos,Ajuste Direto Regime Geral,Aquisição de serviços,"85000000-9, Serviços de saúde e acção social","Administração Regional de Saúde do Centro, I. P. (503122165)",Liliana Marlene Marques Campos (213623846),"26.100,00 €",23-04-2018,01-02-2018,334 dias,"Portugal, Viseu, São Pedro do Sul","Artigo 21.º, n.º 1, alínea c) do Código dos Contratos Públicos","","",,"",,Não aplicável.,Não aplicável.,FALSE
