Objeto do Contrato,Tipo de Procedimento,Tipo(s) de Contrato,CPVs,Entidade(s) Adjudicante(s),Entidade(s) Adjudicatária(s),Preço Contratual,Data de Publicação,Data de Celebração do Contrato,Prazo de Execução,Local de Execução,Fundamentação,Data de Fecho do Contrato,Preço Total Efetivo,Causas das Alterações ao Prazo,Causas das Alterações ao Preço,Estado,N.º registo do Acordo Quadro,Descrição do Acordo Quadro,Procedimento Centralizado
"PRESTAÇÃO DE MANUTENÇÃO DOS SISTEMAS PACS SYNAPSE NAS ENTIDADES DO MINISTÉRIO DA SAÚDE, PARA O ANO 2013",Ajuste Direto Regime Geral,Aquisição de serviços,"72610000-9, Serviços de assistência informática","Serviço Partilhados do Ministério da Saúde, E. P. E. (509540716)",FUJIFILM Europe GMBH - Sucursal em Portugal (980456517),"145.000,00 €",21-03-2013,28-02-2013,365 dias,Portugal,"Artigo 24.º, n.º 1, alínea e) do Código dos Contratos Públicos","","",,,,Não aplicável.,Não aplicável.,
"PRESTAÇÃO DE SERVIÇOS DE AUDITORIA CLINICA NO ÂMBITO DOS CONTRATOS DE GESTÃO DOS HOSPITAIS EM REGIME PPP DA ARSLVT, IP",Ajuste Direto Regime Geral,Aquisição de serviços,"79212000-3, Serviços de auditoria","Serviço Partilhados do Ministério da Saúde, E. P. E. (509540716)","SHORCUT, Lda (505106841)","67.200,00 €",21-03-2013,13-03-2013,274 dias,"Portugal, Lisboa","Artigo 20.º, n.º 1, alínea a) do Código dos Contratos Públicos",30-03-2014,"67.200,00 €",,,,Não aplicável.,Não aplicável.,
"PRESTAÇÃO DE SERVIÇOS DE APOIO/MANUTENÇÃO DO SOFTWARE SGTD INSTALADO NAS ARS, PARA O ANO 2013",Ajuste Direto Regime Geral,Aquisição de serviços,"72610000-9, Serviços de assistência informática","Serviço Partilhados do Ministério da Saúde, E. P. E. (509540716)","LINK CONSULTING, S.A. (504551221)","243.573,00 €",21-03-2013,15-03-2013,330 dias,Portugal,"Artigo 24.º, n.º 1, alínea e) do Código dos Contratos Públicos",31-12-2013,"243.573,00 €",,,,Não aplicável.,Não aplicável.,
Aquisição de impressora e serviços de manutenção,Ajuste Direto Regime Geral,Aquisição de bens móveis<br/>Aquisição de serviços,"30230000-0, Equipamento informático<BR/>50310000-1, Manutenção e reparação de máquinas de escritório","Serviço Partilhados do Ministério da Saúde, E. P. E. (509540716)","Canon Portugal, S.A. (507477740)","5.318,80 €",20-03-2013,14-02-2013,320 dias,Portugal,"Artigo 20.º, n.º 1, alínea a) do Código dos Contratos Públicos","","",,,,Não aplicável.,Não aplicável.,
"AQUISIÇÃO DE SERVIÇOS DE CONSULTORIA TÉCNICA NO DIÁLOGO CONCORRENCIAL DE AQUISIÇÃO, IMPLEMENTAÇÃO E EXPLORAÇÃO DA REDE INFORMÁTICA DA SAÚDE (RIS)",Ajuste Direto Regime Geral,Aquisição de serviços,"71316000-6, Serviços de consultoria em matéria de telecomunicações","Serviço Partilhados do Ministério da Saúde, E. P. E. (509540716)","NAE COMUNICACIONS, S.L. (B63442701)","74.978,50 €",18-03-2013,12-03-2013,210 dias,"Portugal, Lisboa","Artigo 20.º, n.º 1, alínea a) do Código dos Contratos Públicos","","",,,,Não aplicável.,Não aplicável.,
"AQUISIÇÃO DE SERVIÇOS DE CONSULTORIA JURÍDICA DE APOIO AO ACOMPANHAMENTO DA EXECUÇÃO DOS CONTRATOS DE GESTÃO DOS HOSPITAIS DE BRAGA, CASCAIS, LOURES E VILA FRANCA DE XIRA, EM REGIME DE PARCERIA PÚBLICO – PRIVADA",Ajuste Direto Regime Geral,Aquisição de serviços,"79111000-5, Serviços de assessoria jurídica","Serviço Partilhados do Ministério da Saúde, E. P. E. (509540716)","BAS - Sociedade de Advogados, RL (509100007)","151.420,50 €",18-03-2013,05-03-2013,457 dias,Portugal,"Artigo 27.º, n.º 1, alínea b) do Código dos Contratos Públicos","","",,,,Não aplicável.,Não aplicável.,
"PRESTAÇÃO DE SERVIÇOS DE AUDITORIA AO SISTEMA DE MONITORIZAÇÃO DOS PARÂMETROS DE DESEMPENHO E RESULTADO DOS CONTRATOS DE GESTÃO DOS HOSPITAIS EM REGIME PPP DA ARSLVT, IP",Ajuste Direto Regime Geral,Aquisição de serviços,"79212000-3, Serviços de auditoria","Serviço Partilhados do Ministério da Saúde, E. P. E. (509540716)","TIMESTAMP - Sitemas de Informação, S.A. (506360237)","74.700,00 €",15-03-2013,13-03-2013,365 dias,"Portugal, Lisboa, Lisboa","Artigo 20.º, n.º 1, alínea a) do Código dos Contratos Públicos","","",,,,Não aplicável.,Não aplicável.,
Produção de receitas médicas a disponibilizar aos profissionais e instituições de saúde,Ajuste Direto Regime Geral,Aquisição de serviços,"72500000-0, Serviços relacionados com a informática","Serviço Partilhados do Ministério da Saúde, E. P. E. (509540716)","Imprensa Nacional - Casa da Moeda, S.A. (500792887)","234.750,00 €",13-03-2013,05-03-2013,365 dias,Portugal,"Artigo 24.º, n.º 1, alínea e) do Código dos Contratos Públicos","","",,,,Não aplicável.,Não aplicável.,
AQUISIÇÃO DE SERVIÇOS DE DESENVOLVIMENTO E IMPLEMENTAÇÃO DE SOLUÇÃO DE TI PARA GESTÃO DE INCIDENTES,Ajuste Direto Regime Geral,Aquisição de serviços,"72500000-0, Serviços relacionados com a informática","Serviço Partilhados do Ministério da Saúde, E. P. E. (509540716)","iUZ, Technologies Lda (507976460)","74.500,00 €",13-03-2013,05-03-2013,183 dias,Portugal,"Artigo 20.º, n.º 1, alínea a) do Código dos Contratos Públicos","","",,,,Não aplicável.,Não aplicável.,
Aquisição de serviços para upgrade java da plataforma outsystems.,Ajuste Direto Regime Geral,Aquisição de serviços,"72422000-4, Serviços de desenvolvimento de aplicações para servidores de Internet ou intranet","Serviço Partilhados do Ministério da Saúde, E. P. E. (509540716)","OutSystems - Software em rede, S.A (504995634)","8.053,00 €",13-03-2013,13-03-2013,30 dias,Portugal,"Artigo 20.º, n.º 1, alínea a) do Código dos Contratos Públicos","","",,,,Não aplicável.,Não aplicável.,
Aquisição de serviços para controlo do consumo elétrico TI e otimização do circuito de refrigeração no polo técnico do Porto,Ajuste Direto Regime Geral,Aquisição de serviços,"50532400-7, Serviços de reparação e manutenção de equipamento de distribuição eléctrica","Serviço Partilhados do Ministério da Saúde, E. P. E. (509540716)","MAXIGLOBAL- EQUIPAMENTOS E SERVIÇOS DE INFORMÁTICA, SA (504320882)","8.795,00 €",12-03-2013,12-03-2013,30 dias,Portugal,"Artigo 20.º, n.º 1, alínea a) do Código dos Contratos Públicos","","",,,,Não aplicável.,Não aplicável.,
Aquisição de serviços para upgrade de licenciamento Teleform,Ajuste Direto Regime Geral,Aquisição de serviços,"72540000-2, Serviços de actualização informática","Serviço Partilhados do Ministério da Saúde, E. P. E. (509540716)","PSE, LDA (503323390)","9.950,00 €",12-03-2013,12-03-2013,30 dias,"Portugal, Lisboa, Lisboa","Artigo 20.º, n.º 1, alínea a) do Código dos Contratos Públicos","","",,,,Não aplicável.,Não aplicável.,
