Objeto do Contrato,Tipo de Procedimento,Tipo(s) de Contrato,CPVs,Entidade(s) Adjudicante(s),Entidade(s) Adjudicatária(s),Preço Contratual,Data de Publicação,Data de Celebração do Contrato,Prazo de Execução,Local de Execução,Fundamentação,Data de Fecho do Contrato,Preço Total Efetivo,Causas das Alterações ao Prazo,Causas das Alterações ao Preço,Estado,N.º registo do Acordo Quadro,Descrição do Acordo Quadro,Procedimento Centralizado
RADIOFARMACOS,Ajuste Direto Regime Geral,Aquisição de bens móveis,"33690000-3, Medicamentos vários",Instituto Português de Oncologia de Coimbra - Francisco Gentil E.P.E. (506361438),"ISODER, S.A. (502241594)","58.800,00 €",29-12-2015,08-01-2014,358 dias,"Portugal, Coimbra, Coimbra","Artigo 24.º, n.º 1, alínea e) do Código dos Contratos Públicos",01-07-2014,"2.920,00 €",,Diminuição das necessidades,,Não aplicável.,Não aplicável.,FALSE
"MED. EXCLUSIVO ROCHE FARMACEUTICA QUIMICA, LDA",Ajuste Direto Regime Geral,Aquisição de bens móveis,"33600000-6, Produtos farmacêuticos","Instituto Português de Oncologia de Coimbra Francisco Gentil, E. P. E. (506361438)","ROCHE FARMACEUTICA QUIMICA, LDA (500233810)","497.097,00 €",21-12-2015,14-12-2015,366 dias,"Portugal, Coimbra, Coimbra","Artigo 24.º, n.º 1, alínea e) do Código dos Contratos Públicos",06-12-2016,"314.828,10 €",,Diminuição das necessidades.,,Não aplicável.,Não aplicável.,FALSE
AQUISÇÃO DE RESSONANCIAS  MAGNETICAS AO EXTERIOR 298G14,Ajuste Direto Regime Geral,Aquisição de serviços,"85150000-5, Serviços de imagiologia médica","Instituto Português de Oncologia de Coimbra Francisco Gentil, E. P. E. (506361438)",IMACENTRO (501998861),"35.575,00 €",21-12-2015,27-02-2014,365 dias,"Portugal, Coimbra, Coimbra","Artigo 20.º, n.º 1, alínea a) do Código dos Contratos Públicos",31-12-2014,"87.535,00 €",,AUMENTO DAS NECESSIDADES,,Não aplicável.,Não aplicável.,FALSE
