Objeto do Contrato,Tipo de Procedimento,Tipo(s) de Contrato,CPVs,Entidade(s) Adjudicante(s),Entidade(s) Adjudicatária(s),Preço Contratual,Data de Publicação,Data de Celebração do Contrato,Prazo de Execução,Local de Execução,Fundamentação,Data de Fecho do Contrato,Preço Total Efetivo,Causas das Alterações ao Prazo,Causas das Alterações ao Preço,Estado,N.º registo do Acordo Quadro,Descrição do Acordo Quadro,Procedimento Centralizado
REAGENTES P/ O EQUIPAMENTO MINIVIDAS (TONDELA),Ajuste Direto Regime Geral,Aquisição de bens móveis,"33000000-0, Equipamento médico, medicamentos e produtos para cuidados pessoais","Centro Hospitalar Tondela-Viseu, E. P. E. (509822940)","BIOMÉRIEUX PORTUGAL, LDA (501524177)","7.754,84 €",17-03-2014,15-01-2014,365 dias,"Portugal, Viseu, Viseu","Artigo 20.º, n.º 1, alínea a) do Código dos Contratos Públicos",,,,,,Não aplicável.,Não aplicável.,FALSE
Contrato Manutenção e suporte Técnico para a solução Microsoft,Ajuste Direto Regime Geral,Aquisição de serviços,"72000000-5, Serviços de TI: consultoria, desenvolvimento de software, Internet e apoio","Centro Hospitalar Tondela-Viseu, E. P. E. (509822940)","ITEN Solutions -Sistemas de Informação,S.A. (510728189)","10.800,00 €",12-03-2014,11-12-2013,365 dias,"Portugal, Viseu, Viseu","Artigo 20.º, n.º 1, alínea a) do Código dos Contratos Públicos",,,,,,Não aplicável.,Não aplicável.,FALSE
Contrato de Manutenção e Assistência Técnica a diversos Servidores.,Ajuste Direto Regime Geral,Aquisição de serviços,"72000000-5, Serviços de TI: consultoria, desenvolvimento de software, Internet e apoio","Centro Hospitalar Tondela-Viseu, E. P. E. (509822940)","Normática , Serviços de Informática e Organização S.A. (501782230)","35.992,92 €",12-03-2014,20-12-2013,365 dias,"Portugal, Viseu, Viseu","Artigo 20.º, n.º 1, alínea a) do Código dos Contratos Públicos",,,,,,Não aplicável.,Não aplicável.,FALSE
Contrato de Manutenção e Assistência Técnica aos componentes de Hardware e Software de Infra-Estruturas IT,Ajuste Direto Regime Geral,Aquisição de serviços,"72000000-5, Serviços de TI: consultoria, desenvolvimento de software, Internet e apoio","Centro Hospitalar Tondela-Viseu, E. P. E. (509822940)",NOVABASE IMS-Infrastructures and Managed Services.S.A. (500074372),"24.900,00 €",12-03-2014,12-12-2013,365 dias,"Portugal, Viseu, Viseu","Artigo 20.º, n.º 1, alínea a) do Código dos Contratos Públicos",,,,,,Não aplicável.,Não aplicável.,FALSE
