Objeto do Contrato,Tipo de Procedimento,Tipo(s) de Contrato,CPVs,Entidade(s) Adjudicante(s),Entidade(s) Adjudicatária(s),Preço Contratual,Data de Publicação,Data de Celebração do Contrato,Prazo de Execução,Local de Execução,Fundamentação,Data de Fecho do Contrato,Preço Total Efetivo,Causas das Alterações ao Prazo,Causas das Alterações ao Preço,Estado,N.º registo do Acordo Quadro,Descrição do Acordo Quadro,Procedimento Centralizado
37003918- Aquisição de serviços Médicos Cardiologia (avença) ano 2018,Ajuste Direto Regime Geral,Aquisição de serviços,"85100000-0, Serviços de saúde","Centro Hospitalar do Médio Tejo, E. P. E. (506361608)","Cardiocentro de Tomar, lda (505154994)","24.768,00 €",11-05-2018,16-04-2018,395 dias,"Portugal, Santarém, Torres Novas","Artigo 27.º, n.º 1, alínea b) do Código dos Contratos Públicos","","",,,,Não aplicável.,Não aplicável.,FALSE
Máquina de Lavar Loiça (3700517),Ajuste Direto Regime Geral,Aquisição de bens móveis,"39713100-4, Máquinas de lavar louça","Centro Hospitalar do Médio Tejo, E. P. E. (506361608)","DeepFreeze, Lda (510775292)","23.490,00 €",09-05-2018,31-10-2017,20 dias,"Portugal, Santarém, Abrantes","Artigo 20.º, n.º 1, alínea a) do Código dos Contratos Públicos",09-04-2018,"23.490,00 €",,,,Não aplicável.,Não aplicável.,FALSE
Aquisição DM Oftalmologia 2018,Concurso público,Aquisição de bens móveis,"33100000-1, Equipamento médico","Centro Hospitalar do Médio Tejo, E. P. E. (506361608)",ALCON PORTUGAL-PROD.EQUIP.OFTALMOLOGICOS (501251685),"304.100,00 €",07-05-2018,17-04-2018,365 dias,"Portugal, Santarém, Tomar","Artigo 20.º, n.º 1, alínea b) do Código dos Contratos Públicos","","",,,,Não aplicável.,Não aplicável.,FALSE
"Serviços de Manutenção de Equipamento Diverso para o CHMT, para 2018",Ajuste Direto Regime Geral,Aquisição de serviços,"50400000-9, Serviços de reparação e manutenção de equipamento médico e de precisão","Centro Hospitalar do Médio Tejo, E. P. E. (506361608)",STB - Serviços Telemáticos e Biomédicos Unipessoal Lda (506989020),"42.875,00 €",04-05-2018,03-04-2018,365 dias,"Portugal, Santarém, Torres Novas<BR/>Portugal, Santarém, Abrantes<BR/>Portugal, Santarém, Tomar","Artigo 27.º, n.º 1, alínea a) do Código dos Contratos Públicos","","",,,,Não aplicável.,Não aplicável.,FALSE
