Objeto do Contrato,Tipo de Procedimento,Tipo(s) de Contrato,CPVs,Entidade(s) Adjudicante(s),Entidade(s) Adjudicatária(s),Preço Contratual,Data de Publicação,Data de Celebração do Contrato,Prazo de Execução,Local de Execução,Fundamentação,Data de Fecho do Contrato,Preço Total Efetivo,Causas das Alterações ao Prazo,Causas das Alterações ao Preço,Estado,N.º registo do Acordo Quadro,Descrição do Acordo Quadro,Procedimento Centralizado
Contrato de Manutenção e Assistência Técnica aos Equipamentos de Radiologia e Mamografo instalados nos Centros de Saúde da ARS Algarve.,Ajuste Direto Regime Geral,Aquisição de serviços,"50421200-4, Serviços de reparação e manutenção de equipamentos de raios X","Administração Regional de Saúde do Algarve, I. P. (503148709)","Dias & Dinis-Soluções para Imagiologia, Lda (502081198)","14.900,00 €",30-12-2015,21-12-2015,365 dias,"Portugal, Faro, Silves<BR/>Portugal, Faro, Loulé<BR/>Portugal, Faro, Vila Real Sto Antonio<BR/>Portugal, Faro, Faro<BR/>Portugal, Faro, Tavira<BR/>Portugal, Faro, Olhão<BR/>Portugal, Faro, Albufeira","Artigo 20.º, n.º 1, alínea a) do Código dos Contratos Públicos",20-12-2016,"14.900,00 €",,"",,Não aplicável.,Não aplicável.,FALSE
SC/140/2015 - AQUISIÇÃO DE MEDICAMENTOS GERAIS.7,Ao abrigo de acordo-quadro (art.º 259.º),Aquisição de bens móveis,"33690000-3, Medicamentos vários","Administração Regional de Saúde do Algarve, I. P. (503148709)","DLA Farmacêutica, S.A. (503894427)","4.957,12 €",30-12-2015,17-09-2015,104 dias,"Portugal, Faro, Faro",Artigo 259.º do Código dos Contratos Públicos,"","",,"",,613285,"CONCURSO PÚBLICO PARA A CELEBRAÇÃO DE CONTRATOS PÚBLICOS DE APROVISIONAMENTO PARA A ÁREA DA SAÚDE, COM VISTA AO FORNECIMENTO DE MEDICAMENTOS ANALGÉSICOS, ANTIPIRÉTICOS E ANTIDEPRESSORES, ÀS INSTITUIÇÕES E SERVIÇOS DO SERVIÇO NACIONAL DE SAÚDE",FALSE
SC/140/2015 - Aquisição de Medicamentos Gerais.7,Ao abrigo de acordo-quadro (art.º 259.º),Aquisição de bens móveis,"33690000-3, Medicamentos vários","Administração Regional de Saúde do Algarve, I. P. (503148709)","Sanofi - Produtos Farmaceuticos, Lda. (500134960)","183,24 €",28-12-2015,25-11-2015,36 dias,"Portugal, Faro, Faro",Artigo 259.º do Código dos Contratos Públicos,"","",,"",,613285,"CONCURSO PÚBLICO PARA A CELEBRAÇÃO DE CONTRATOS PÚBLICOS DE APROVISIONAMENTO PARA A ÁREA DA SAÚDE, COM VISTA AO FORNECIMENTO DE MEDICAMENTOS ANALGÉSICOS, ANTIPIRÉTICOS E ANTIDEPRESSORES, ÀS INSTITUIÇÕES E SERVIÇOS DO SERVIÇO NACIONAL DE SAÚDE",FALSE
SC/140/2015 - Aquisição de Medicamentos Gerais.7,Ao abrigo de acordo-quadro (art.º 259.º),Aquisição de bens móveis,"33690000-3, Medicamentos vários","Administração Regional de Saúde do Algarve, I. P. (503148709)","B.Braun Medical, Lda. (501506543)","84,00 €",28-12-2015,07-12-2015,24 dias,"Portugal, Faro, Faro",Artigo 259.º do Código dos Contratos Públicos,"","",,"",,613285,"CONCURSO PÚBLICO PARA A CELEBRAÇÃO DE CONTRATOS PÚBLICOS DE APROVISIONAMENTO PARA A ÁREA DA SAÚDE, COM VISTA AO FORNECIMENTO DE MEDICAMENTOS ANALGÉSICOS, ANTIPIRÉTICOS E ANTIDEPRESSORES, ÀS INSTITUIÇÕES E SERVIÇOS DO SERVIÇO NACIONAL DE SAÚDE",FALSE
SC/140/2015 - Aquisição de Medicamentos Gerais.7,Ao abrigo de acordo-quadro (art.º 259.º),Aquisição de bens móveis,"33690000-3, Medicamentos vários","Administração Regional de Saúde do Algarve, I. P. (503148709)","Pharmakern Portugal, Lda. (507002571)","59,94 €",28-12-2015,16-09-2015,105 dias,"Portugal, Faro, Faro",Artigo 259.º do Código dos Contratos Públicos,"","",,"",,613285,"CONCURSO PÚBLICO PARA A CELEBRAÇÃO DE CONTRATOS PÚBLICOS DE APROVISIONAMENTO PARA A ÁREA DA SAÚDE, COM VISTA AO FORNECIMENTO DE MEDICAMENTOS ANALGÉSICOS, ANTIPIRÉTICOS E ANTIDEPRESSORES, ÀS INSTITUIÇÕES E SERVIÇOS DO SERVIÇO NACIONAL DE SAÚDE",FALSE
SC/140/2015 - Aquisição de Medicamentos Gerais.7,Ao abrigo de acordo-quadro (art.º 259.º),Aquisição de bens móveis,"33690000-3, Medicamentos vários","Administração Regional de Saúde do Algarve, I. P. (503148709)","UCB Pharma, Lda. (500291322)","200,80 €",28-12-2015,11-11-2015,50 dias,"Portugal, Faro, Faro",Artigo 259.º do Código dos Contratos Públicos,"","",,"",,613285,"CONCURSO PÚBLICO PARA A CELEBRAÇÃO DE CONTRATOS PÚBLICOS DE APROVISIONAMENTO PARA A ÁREA DA SAÚDE, COM VISTA AO FORNECIMENTO DE MEDICAMENTOS ANALGÉSICOS, ANTIPIRÉTICOS E ANTIDEPRESSORES, ÀS INSTITUIÇÕES E SERVIÇOS DO SERVIÇO NACIONAL DE SAÚDE",FALSE
SC/140/2015 - Aquisição de Medicamentos Gerais.7,Ao abrigo de acordo-quadro (art.º 259.º),Aquisição de bens móveis,"33690000-3, Medicamentos vários","Administração Regional de Saúde do Algarve, I. P. (503148709)","Glaxo Smith Kline, Lda. (500139962)","236,10 €",28-12-2015,06-11-2015,55 dias,"Portugal, Faro, Faro",Artigo 259.º do Código dos Contratos Públicos,"","",,"",,613285,"CONCURSO PÚBLICO PARA A CELEBRAÇÃO DE CONTRATOS PÚBLICOS DE APROVISIONAMENTO PARA A ÁREA DA SAÚDE, COM VISTA AO FORNECIMENTO DE MEDICAMENTOS ANALGÉSICOS, ANTIPIRÉTICOS E ANTIDEPRESSORES, ÀS INSTITUIÇÕES E SERVIÇOS DO SERVIÇO NACIONAL DE SAÚDE",FALSE
SC/140/2015 - Aquisição de Medicamentos Gerais.7,Ao abrigo de acordo-quadro (art.º 259.º),Aquisição de bens móveis,"33690000-3, Medicamentos vários","Administração Regional de Saúde do Algarve, I. P. (503148709)","Merck Sharp & Dohme, Lda. (500191360)","81,09 €",28-12-2015,11-11-2015,50 dias,"Portugal, Faro, Faro",Artigo 259.º do Código dos Contratos Públicos,"","",,"",,613285,"CONCURSO PÚBLICO PARA A CELEBRAÇÃO DE CONTRATOS PÚBLICOS DE APROVISIONAMENTO PARA A ÁREA DA SAÚDE, COM VISTA AO FORNECIMENTO DE MEDICAMENTOS ANALGÉSICOS, ANTIPIRÉTICOS E ANTIDEPRESSORES, ÀS INSTITUIÇÕES E SERVIÇOS DO SERVIÇO NACIONAL DE SAÚDE",FALSE
SC/140/2015 - Aquisição de Medicamentos Gerais.7,Ao abrigo de acordo-quadro (art.º 259.º),Aquisição de bens móveis,"33690000-3, Medicamentos vários","Administração Regional de Saúde do Algarve, I. P. (503148709)","Grunenthal, S.A. (500101965)","309,54 €",28-12-2015,03-09-2015,118 dias,"Portugal, Faro, Faro",Artigo 259.º do Código dos Contratos Públicos,"","",,"",,613285,"CONCURSO PÚBLICO PARA A CELEBRAÇÃO DE CONTRATOS PÚBLICOS DE APROVISIONAMENTO PARA A ÁREA DA SAÚDE, COM VISTA AO FORNECIMENTO DE MEDICAMENTOS ANALGÉSICOS, ANTIPIRÉTICOS E ANTIDEPRESSORES, ÀS INSTITUIÇÕES E SERVIÇOS DO SERVIÇO NACIONAL DE SAÚDE",FALSE
AM/327/2015 - AQUISIÇÃO DE POLIURETANO COM CARBOXIMETILCELULOSE,Ajuste Direto Regime Geral,Aquisição de bens móveis,"33140000-3, Material médico de consumo","Administração Regional de Saúde do Algarve, I. P. (503148709)","Kvtech Portugal, Lda. (508671531)","16.680,00 €",23-12-2015,23-12-2015,8 dias,"Portugal, Faro, Faro","Artigo 24.º, n.º 1, alínea e) do Código dos Contratos Públicos",30-12-2015,"16.680,00 €",,"",,Não aplicável.,Não aplicável.,FALSE
SC/140/2015 - AQUISIÇÃO DE MEDICAMENTOS GERAIS.7,Ao abrigo de acordo-quadro (art.º 259.º),Aquisição de bens móveis,"33690000-3, Medicamentos vários","Administração Regional de Saúde do Algarve, I. P. (503148709)","Farmoz, S.A. (501505334)","183,42 €",22-12-2015,10-11-2015,49 dias,"Portugal, Faro, Faro",Artigo 259.º do Código dos Contratos Públicos,"","",,"",,613285,"CONCURSO PÚBLICO PARA A CELEBRAÇÃO DE CONTRATOS PÚBLICOS DE APROVISIONAMENTO PARA A ÁREA DA SAÚDE, COM VISTA AO FORNECIMENTO DE MEDICAMENTOS ANALGÉSICOS, ANTIPIRÉTICOS E ANTIDEPRESSORES, ÀS INSTITUIÇÕES E SERVIÇOS DO SERVIÇO NACIONAL DE SAÚDE",FALSE
SC/271/2015 - AQUISIÇÃO DE MATERIAL DE PENSO DE EFEITO TERAPÊUTICO E PENSO TRADICIONAL,Ao abrigo de acordo-quadro (art.º 259.º),Aquisição de bens móveis,"33140000-3, Material médico de consumo","Administração Regional de Saúde do Algarve, I. P. (503148709)","Clinifar, S.A. (503281115)","1.085,00 €",22-12-2015,22-12-2015,9 dias,"Portugal, Faro, Faro",Artigo 259.º do Código dos Contratos Públicos,"","",,"",,490160,"CONCURSO PÚBLICO PARA A CELEBRAÇÃO DE CONTRATOS PÚBLICOS DE APROVISIONAMENTO PARA A ÁREA DA SAÚDE, COM VISTA AO FORNECIMENTO DE MATERIAL PENSO DE EFEITO TERAPÊUTICO - ÀS INSTITUIÇÕES E SERVIÇOS DO SERVIÇO NACIONAL DE SAÚDE",FALSE
AM/292/2015 - Aquisição de Vacina contra Papilomavírus Humano - HPV - qt adiconais,Ajuste Direto Regime Geral,Aquisição de bens móveis,"33651600-4, Vacinas","Administração Regional de Saúde do Algarve, I. P. (503148709)","Sanofi Pasteur MSD, S.A. (507632796)","33.000,00 €",22-12-2015,22-12-2015,9 dias,"Portugal, Faro, Faro","Artigo 26.º, n.º 1, alínea e) do Código dos Contratos Públicos",29-12-2015,"33.000,00 €",,"",,Não aplicável.,Não aplicável.,FALSE
AD/258/2015 - AQUISIÇÃO DE MATERIAL DE CONSUMO CLINICO.2,Ajuste Direto Regime Geral,Aquisição de bens móveis,"33140000-3, Material médico de consumo","Administração Regional de Saúde do Algarve, I. P. (503148709)","Aviquimica, Lda. (500039720)","640,00 €",22-12-2015,22-12-2015,9 dias,"Portugal, Faro, Faro","Artigo 20.º, n.º 1, alínea a) do Código dos Contratos Públicos",29-12-2015,"640,00 €",,"",,Não aplicável.,Não aplicável.,FALSE
SC/291/2015 - Aquisição de Material de Consumo Clínico Diverso,Ao abrigo de acordo-quadro (art.º 259.º),Aquisição de bens móveis,"33140000-3, Material médico de consumo","Administração Regional de Saúde do Algarve, I. P. (503148709)","Overpharma, Lda. (505792362)","749,80 €",22-12-2015,22-12-2015,9 dias,"Portugal, Faro, Faro",Artigo 259.º do Código dos Contratos Públicos,"","",,"",,1341769,"ACORDO QUADRO PARA FORNECIMENTO DE SERINGAS, AGULHAS E CONTENTORES ÀS INSTITUIÇÕES E SERVIÇOS DO SERVIÇO NACIONAL DE SAÚDE PROGRAMA DE CONCURSO",FALSE
AD/324/2015 - AQUISIÇÃO DE TOXINA BOTULINICA,Ajuste Direto Regime Geral,Aquisição de bens móveis,"33690000-3, Medicamentos vários","Administração Regional de Saúde do Algarve, I. P. (503148709)","Grunenthal, S.A. (500101965)","12.100,00 €",21-12-2015,21-12-2015,10 dias,"Portugal, Faro, Faro","Artigo 20.º, n.º 1, alínea a) do Código dos Contratos Públicos","","",,"",,Não aplicável.,Não aplicável.,FALSE
AD/275/2015 - AQUISIÇÃO DE REAGENTES DE DIAGNÓSTICO RÁPIDO,Ajuste Direto Regime Geral,Aquisição de bens móveis,"33696000-5, Reagentes e meios de contraste","Administração Regional de Saúde do Algarve, I. P. (503148709)","Siemens Healthcare Diagnostics Unipessoal, Lda. (507925173)","2.250,00 €",21-12-2015,21-12-2015,10 dias,"Portugal, Faro, Faro","Artigo 20.º, n.º 1, alínea a) do Código dos Contratos Públicos",30-12-2015,"2.250,00 €",,"",,Não aplicável.,Não aplicável.,FALSE
AD/275/2015 - AQUISIÇÃO DE REAGENTES DE DIAGNÓSTICO RÁPIDO,Ajuste Direto Regime Geral,Aquisição de bens móveis,"33696200-7, Reagentes para análises ao sangue","Administração Regional de Saúde do Algarve, I. P. (503148709)","Abbott Laboratórios, Lda. (500006148)","6.120,00 €",21-12-2015,21-12-2015,10 dias,"Portugal, Faro, Faro","Artigo 20.º, n.º 1, alínea a) do Código dos Contratos Públicos",30-12-2015,"6.120,00 €",,"",,Não aplicável.,Não aplicável.,FALSE
AD/258/2015 - AQUISIÇÃO DE MATERIAL DE CONSUMO CLINICO.2,Ajuste Direto Regime Geral,Aquisição de bens móveis,"33140000-3, Material médico de consumo","Administração Regional de Saúde do Algarve, I. P. (503148709)","Speculum, S.A. (502996323)","288,00 €",21-12-2015,21-12-2015,10 dias,"Portugal, Faro, Faro","Artigo 20.º, n.º 1, alínea a) do Código dos Contratos Públicos","","",,"",,Não aplicável.,Não aplicável.,FALSE
AD/258/2015 - AQUISIÇÃO DE MATERIAL DE CONSUMO CLINICO.2,Ajuste Direto Regime Geral,Aquisição de bens móveis,"33140000-3, Material médico de consumo","Administração Regional de Saúde do Algarve, I. P. (503148709)","Covidien Portugal, Lda. (503413410)","4.500,00 €",21-12-2015,21-12-2015,10 dias,"Portugal, Faro, Faro","Artigo 20.º, n.º 1, alínea a) do Código dos Contratos Públicos",29-12-2015,"1.057,50 €",,Quantidades fornecidas.,,Não aplicável.,Não aplicável.,FALSE
AD/258/2015 - AQUISIÇÃO DE MATERIAL DE CONSUMO CLINICO.2,Ajuste Direto Regime Geral,Aquisição de bens móveis,"33140000-3, Material médico de consumo","Administração Regional de Saúde do Algarve, I. P. (503148709)","Bastos & Viegas, S.A. (500042772)","228,80 €",21-12-2015,21-12-2015,10 dias,"Portugal, Faro, Faro","Artigo 20.º, n.º 1, alínea a) do Código dos Contratos Públicos",30-12-2015,"228,80 €",,"",,Não aplicável.,Não aplicável.,FALSE
AD/258/2015 - AQUISIÇÃO DE MATERIAL DE CONSUMO CLINICO.2,Ajuste Direto Regime Geral,Aquisição de bens móveis,"33140000-3, Material médico de consumo","Administração Regional de Saúde do Algarve, I. P. (503148709)","ANASTÁCIO SALDANHA UNIPESSOAL, LDA. (505804441)","34,90 €",21-12-2015,21-12-2015,10 dias,"Portugal, Faro, Faro","Artigo 20.º, n.º 1, alínea a) do Código dos Contratos Públicos",29-12-2015,"34,90 €",,"",,Não aplicável.,Não aplicável.,FALSE
AD/258/2015 - AQUISIÇÃO DE MATERIAL DE CONSUMO CLINICO.2,Ajuste Direto Regime Geral,Aquisição de bens móveis,"33140000-3, Material médico de consumo","Administração Regional de Saúde do Algarve, I. P. (503148709)","Ezequiel Panão Jorge, Lda. (501412727)","182,00 €",21-12-2015,21-12-2015,10 dias,"Portugal, Faro, Faro","Artigo 20.º, n.º 1, alínea a) do Código dos Contratos Públicos",28-12-2015,"182,00 €",,"",,Não aplicável.,Não aplicável.,FALSE
AD/258/2015 - AQUISIÇÃO DE MATERIAL DE CONSUMO CLINICO.2,Ajuste Direto Regime Geral,Aquisição de bens móveis,"33140000-3, Material médico de consumo","Administração Regional de Saúde do Algarve, I. P. (503148709)","Teleflex Medical, S.A. - Sucursal em Portugal (980249783)","196,00 €",21-12-2015,21-12-2015,10 dias,"Portugal, Faro, Faro","Artigo 20.º, n.º 1, alínea a) do Código dos Contratos Públicos",29-12-2015,"53,92 €",,Quantidades fornecidas.,,Não aplicável.,Não aplicável.,FALSE
SC/271/2015 - AQUISIÇÃO DE MATERIAL DE PENSO DE EFEITO TERAPÊUTICO E PENSO TRADICIONAL,Ao abrigo de acordo-quadro (art.º 259.º),Aquisição de bens móveis,"33140000-3, Material médico de consumo","Administração Regional de Saúde do Algarve, I. P. (503148709)","Molnlycke Health Care, Lda. (511101066)","201,60 €",21-12-2015,21-12-2015,10 dias,"Portugal, Faro, Faro",Artigo 259.º do Código dos Contratos Públicos,"","",,"",,490160,"CONCURSO PÚBLICO PARA A CELEBRAÇÃO DE CONTRATOS PÚBLICOS DE APROVISIONAMENTO PARA A ÁREA DA SAÚDE, COM VISTA AO FORNECIMENTO DE MATERIAL PENSO DE EFEITO TERAPÊUTICO - ÀS INSTITUIÇÕES E SERVIÇOS DO SERVIÇO NACIONAL DE SAÚDE",FALSE
SC/271/2015 - AQUISIÇÃO DE MATERIAL DE PENSO DE EFEITO TERAPÊUTICO E PENSO TRADICIONAL,Ao abrigo de acordo-quadro (art.º 259.º),Aquisição de bens móveis,"33140000-3, Material médico de consumo","Administração Regional de Saúde do Algarve, I. P. (503148709)","SPC - South Point Care, Lda. (508284872)","3.415,00 €",21-12-2015,21-12-2015,10 dias,"Portugal, Faro, Faro",Artigo 259.º do Código dos Contratos Públicos,"","",,"",,490160,"CONCURSO PÚBLICO PARA A CELEBRAÇÃO DE CONTRATOS PÚBLICOS DE APROVISIONAMENTO PARA A ÁREA DA SAÚDE, COM VISTA AO FORNECIMENTO DE MATERIAL PENSO DE EFEITO TERAPÊUTICO - ÀS INSTITUIÇÕES E SERVIÇOS DO SERVIÇO NACIONAL DE SAÚDE",FALSE
SC/271/2015 - AQUISIÇÃO DE MATERIAL DE PENSO DE EFEITO TERAPÊUTICO E PENSO TRADICIONAL,Ao abrigo de acordo-quadro (art.º 259.º),Aquisição de bens móveis,"33140000-3, Material médico de consumo","Administração Regional de Saúde do Algarve, I. P. (503148709)","Paul Hartmann, Lda. (502271728)","1.437,90 €",21-12-2015,21-12-2015,10 dias,"Portugal, Faro, Faro",Artigo 259.º do Código dos Contratos Públicos,"","",,"",,490160,"CONCURSO PÚBLICO PARA A CELEBRAÇÃO DE CONTRATOS PÚBLICOS DE APROVISIONAMENTO PARA A ÁREA DA SAÚDE, COM VISTA AO FORNECIMENTO DE MATERIAL PENSO DE EFEITO TERAPÊUTICO - ÀS INSTITUIÇÕES E SERVIÇOS DO SERVIÇO NACIONAL DE SAÚDE",FALSE
SC/271/2015 - AQUISIÇÃO DE MATERIAL DE PENSO DE EFEITO TERAPÊUTICO E PENSO TRADICIONAL,Ao abrigo de acordo-quadro (art.º 259.º),Aquisição de bens móveis,"33140000-3, Material médico de consumo","Administração Regional de Saúde do Algarve, I. P. (503148709)","B.Braun Medical, Lda. (501506543)","1.625,00 €",21-12-2015,21-12-2015,10 dias,"Portugal, Faro, Faro",Artigo 259.º do Código dos Contratos Públicos,"","",,"",,490160,"CONCURSO PÚBLICO PARA A CELEBRAÇÃO DE CONTRATOS PÚBLICOS DE APROVISIONAMENTO PARA A ÁREA DA SAÚDE, COM VISTA AO FORNECIMENTO DE MATERIAL PENSO DE EFEITO TERAPÊUTICO - ÀS INSTITUIÇÕES E SERVIÇOS DO SERVIÇO NACIONAL DE SAÚDE",FALSE
