Objeto do Contrato,Tipo de Procedimento,Tipo(s) de Contrato,CPVs,Entidade(s) Adjudicante(s),Entidade(s) Adjudicatária(s),Preço Contratual,Data de Publicação,Data de Celebração do Contrato,Prazo de Execução,Local de Execução,Fundamentação,Data de Fecho do Contrato,Preço Total Efetivo,Causas das Alterações ao Prazo,Causas das Alterações ao Preço,Estado,N.º registo do Acordo Quadro,Descrição do Acordo Quadro,Procedimento Centralizado
"Aquisição de serviços de gestão e operação de plataforma de colaboração de atendimento da SPMS, EPE ",Ajuste Direto Regime Geral,Aquisição de serviços,"72510000-3, Serviços de gestão relacionados com a informática","SPMS - Serviços Partilhados do Ministério da Saúde, E.P.E. (509540716)","NOS COMUNICAÇÕES, S.A. (502604751)","60.000,00 €",30-09-2016,20-07-2016,163 dias,Portugal,"Artigo 20.º, n.º 1, alínea a) do Código dos Contratos Públicos","","",,"",,Não aplicável.,Não aplicável.,FALSE
Aquisição de Licenças e Assistência Pós Venda de Software para o Ministério da Saúde,Ao abrigo de acordo-quadro (art.º 259.º),Aquisição de bens móveis,"48218000-9, Pacote de software para gestão de licenças","SPMS - Serviços Partilhados do Ministério da Saúde, E. P. E. (509540716)","ITEN SOLUTIONS - SISTEMAS DE INFORMAÇÃO, S.A., (510728189)","6.492.015,05 €",30-09-2016,29-06-2016,365 dias,Portugal,Artigo 259.º do Código dos Contratos Públicos,30-09-2017,"6.492.015,05 €",,"",,610968,Acordo quadro de licenciamento de software e serviços conexos,FALSE
Aquisição de serviços de secretariado de apoio ao Conselho de Administração,Ajuste Direto Regime Geral,Aquisição de serviços,"75112100-5, Serviços administrativos relacionados com projectos de desenvolvimento","SPMS - Serviços Partilhados do Ministério da Saúde, E. P. E. (509540716)","RH Portugal - Consultores em Investimentos Humanos, Lda. (503461245)","66.540,00 €",30-09-2016,19-08-2016,730 dias,Portugal,"Artigo 20.º, n.º 1, alínea a) do Código dos Contratos Públicos","","",,"",,Não aplicável.,Não aplicável.,FALSE
Aquisição de serviços para a área de compras transversais,Ajuste Direto Regime Geral,Aquisição de serviços,"79500000-9, Serviços auxiliares de escritório","SPMS- Serviços Partilhados do M. da Saúde, E.P.E. (509540716)","Manpower Solutions, Unipessoal, Lda (503626007)","15.434,81 €",30-09-2016,01-07-2016,365 dias,Portugal,"Artigo 20.º, n.º 1, alínea a) do Código dos Contratos Públicos",03-07-2017,"15.434,81 €",,"",,Não aplicável.,Não aplicável.,FALSE
Medicamentos do Foro Oncológico,Concurso público,Aquisição de bens móveis,"33600000-6, Produtos farmacêuticos","SPMS - Serviços Partilhados do Ministério da Saúde, E. P. E. (509540716)","ASTRAZENECA PRODUTOS FARMACEUTICOS, LDA. (502942240)","0,00 €",27-09-2016,02-08-2016,90 dias,"Portugal, Guarda, Guarda",Artigo 259.º do Código dos Contratos Públicos,"","",,"",,1771819,CP 2015/6 - Acordo quadro para o fornecimento de Medicamentos do Foro Oncológico,FALSE
Aquisição de serviços de auditoria à segurança,Ajuste Direto Regime Geral,Aquisição de serviços,"72910000-2, Serviços informáticos de segurança","SPMS - Serviços Partilhados do Ministério da Saúde, E. P. E. (509540716)","DRC - DATA RECOVER CENTER, LDA (502321660)","9.950,00 €",27-09-2016,09-09-2016,21 dias,Portugal,"Artigo 20.º, n.º 1, alínea a) do Código dos Contratos Públicos",07-10-2016,"9.950,00 €",,"",,Não aplicável.,Não aplicável.,FALSE
Aquisição de serviços de suporte técnico de informática de administradores de sistemas da SPMS,Ajuste Direto Regime Geral,Aquisição de serviços,"72222300-0, Serviços relacionados com as tecnologias da informação","SPMS - Serviços Partilhados do Ministério da Saúde, E. P. E. (509540716)",Iten Solutions - Sistemas de Informação SA (510728189),"38.677,50 €",27-09-2016,26-08-2016,124 dias,Portugal,"Artigo 20.º, n.º 1, alínea a) do Código dos Contratos Públicos",31-12-2016,"38.677,50 €",,"",,Não aplicável.,Não aplicável.,FALSE
"Aquisição de equipamentos para infraestruturar as instalações da SPMS, EPE ",Ajuste Direto Regime Geral,Aquisição de bens móveis,"32400000-7, Redes","SPMS - Serviços Partilhados do Ministério da Saúde, E. P. E. (509540716)","VISUALFORMA - TECNOLOGIAS DE INFORMAÇÃO, S.A. (503536717)","62.495,00 €",27-09-2016,01-09-2016,120 dias,Portugal,"Artigo 20.º, n.º 1, alínea a) do Código dos Contratos Públicos",31-12-2016,"62.495,00 €",,"",,Não aplicável.,Não aplicável.,FALSE
Aquisição de solução integrada para a gestão do ciclo de notificação para pagamento das taxas moderadoras em dívida  das unidades de saúde - SITAM,Ajuste Direto Regime Geral,Aquisição de serviços,"72212900-8, Serviços de desenvolvimento de software e sistemas informáticos diversos","SPMS - Serviços Partilhados do Ministério da Saúde, E. P. E. (509540716)","Correios de Portugal, SA (500077568)","74.314,00 €",27-09-2016,24-08-2016,122 dias,Portugal,"Artigo 20.º, n.º 1, alínea a) do Código dos Contratos Públicos",31-03-2017,"63.695,47 €",,Consumo efetivo,,Não aplicável.,Não aplicável.,FALSE
Aquisição de serviços de suporte e manutenção corretiva da plataforma Identity & Access Managemente da SPMS,Ajuste Direto Regime Geral,Aquisição de serviços,"72212000-4, Serviços de programação de software de aplicação","SPMS - Serviços Partilhados do Ministério da Saúde, E. P. E. (509540716)","Cloudcomputing.PT, Lda. (509381219)","50.220,00 €",23-09-2016,25-08-2016,365 dias,Portugal,"Artigo 20.º, n.º 1, alínea a) do Código dos Contratos Públicos",27-08-2017,"50.220,00 €",,"",,Não aplicável.,Não aplicável.,FALSE
Aquisição de licenças ARCGIS,Ao abrigo de acordo-quadro (art.º 259.º),Aquisição de bens móveis,"48000000-8, Pacotes de software e sistemas de informação","SPMS - Serviços Partilhados do Ministério da Saúde, E. P. E. (509540716)","Esri Portugal – Sistemas e Informação Geográfica, SA (501941231)","27.625,00 €",23-09-2016,02-09-2016,365 dias,Portugal,Artigo 259.º do Código dos Contratos Públicos,"","",,"",,610968,Acordo quadro de licenciamento de software e serviços conexos,FALSE
