Objeto do Contrato,Tipo de Procedimento,Tipo(s) de Contrato,CPVs,Entidade(s) Adjudicante(s),Entidade(s) Adjudicatária(s),Preço Contratual,Data de Publicação,Data de Celebração do Contrato,Prazo de Execução,Local de Execução,Fundamentação,Data de Fecho do Contrato,Preço Total Efetivo,Causas das Alterações ao Prazo,Causas das Alterações ao Preço,Estado,N.º registo do Acordo Quadro,Descrição do Acordo Quadro,Procedimento Centralizado
"Agregação para aquisição de serviços de manutenção e assistência técnica dos sistemas SGCIM, RADIO, SISLAB, SIBAS, ANAPAT e EPR-OR.",Ajuste Direto Regime Geral,Aquisição de serviços,"50000000-5, Serviços de reparação e manutenção","Centro Hospitalar Cova da Beira, E. P. E. (506361659)","Glintt - Healthcare Solutions, S.  A. (502479418)","72.484,49 €",30-04-2018,27-03-2018,365 dias,"Portugal, Castelo Branco, Covilhã","Artigo 24.º, n.º 1, alínea e), subalínea i) do Código dos Contratos Públicos",,,,,,Não aplicável.,Não aplicável.,FALSE
AD 05/2018 - Aquisição de um esfíncter urinário artificial,Ajuste Direto Regime Geral,Aquisição de bens móveis,"33140000-3, Material médico de consumo","Centro Hospitalar Cova da Beira, E. P. E. (506361659)","BOSTON SCIENTIFIC PORTUGAL - DISPOSITIVOS MEDICOS, LDA (504988964)","7.500,00 €",30-04-2018,18-04-2018,245 dias,"Portugal, Castelo Branco, Covilhã","Artigo 20.º, n.º 1, alínea a) do Código dos Contratos Públicos",,,,,,Não aplicável.,Não aplicável.,FALSE
Aquisição de gestão de filas de atendimento na Consulta Externa,Ajuste Direto Regime Geral,Aquisição de bens móveis,"48445000-9, Pacote de software para gestão da relação com os clientes","Centro Hospitalar Cova da Beira, EPE (506361659)","Cerner Portugal, Unipessoal, Lda (513269843)","73.900,00 €",30-04-2018,23-03-2018,150 dias,"Portugal, Castelo Branco, Covilhã","Artigo 20.º, n.º 1, alínea a) do Código dos Contratos Públicos",,,,,,Não aplicável.,Não aplicável.,FALSE
AD 12/18 - Medicamentos para Tratamento da Hepatite C,Ajuste Direto Regime Geral,Aquisição de bens móveis,"33600000-6, Produtos farmacêuticos","Centro Hospitalar Cova da Beira, E. P. E. (506361659)","ABBVIE, LDA (510229050)","6.600,00 €",30-04-2018,24-04-2018,245 dias,"Portugal, Castelo Branco, Covilhã","Artigo 24.º, n.º 1, alínea e) do Código dos Contratos Públicos",,,,,,Não aplicável.,Não aplicável.,FALSE
Aquisição de Medicamentos para a Hepatite C Crónica,Ao abrigo de acordo-quadro (art.º 258.º),Aquisição de bens móveis,"33600000-6, Produtos farmacêuticos","Centro Hospitalar Cova da Beira, E. P. E. (506361659)","GILEAD SCIENCES, LDA (503604704)","69.000,00 €",30-04-2018,24-04-2018,245 dias,"Portugal, Castelo Branco, Covilhã",Artigo 258.º do Código dos Contratos Públicos,,,,,,3023927,CP 2017/67 - Medicamentos para a Hepatite C crónica,FALSE
