Objeto do Contrato,Tipo de Procedimento,Tipo(s) de Contrato,CPVs,Entidade(s) Adjudicante(s),Entidade(s) Adjudicatária(s),Preço Contratual,Data de Publicação,Data de Celebração do Contrato,Prazo de Execução,Local de Execução,Fundamentação,Data de Fecho do Contrato,Preço Total Efetivo,Causas das Alterações ao Prazo,Causas das Alterações ao Preço,Estado,N.º registo do Acordo Quadro,Descrição do Acordo Quadro,Procedimento Centralizado
"Aquisição de Material Descartável de Bloco Operatório, para a ULSNA, EPE, para 2014",Ajuste Direto Regime Geral,Aquisição de bens móveis,"33140000-3, Material médico de consumo","Unidade Local de Saúde do Norte Alentejano, E. P. E. (508094461)","Vidrolab 2, Lda. (501450629)","477,00 €",21-09-2015,06-08-2014,153 dias,"Portugal, Portalegre","Artigo 20.º, n.º 1, alínea a) do Código dos Contratos Públicos",31-12-2014,"87,60 €",,Não houve necessidade de aquisição de todas as quantidades previstas inicialmente,,Não aplicável.,Não aplicável.,FALSE
"Aquisição de Material Descartável de Bloco Operatório, para a ULSNA, EPE, para 2014",Ajuste Direto Regime Geral,Aquisição de bens móveis,"33140000-3, Material médico de consumo","Unidade Local de Saúde do Norte Alentejano, E. P. E. (508094461)",VYGON PORTUGAL (503232785),"618,00 €",21-09-2015,06-08-2014,153 dias,"Portugal, Portalegre","Artigo 20.º, n.º 1, alínea a) do Código dos Contratos Públicos",31-12-2014,"185,40 €",,Não houve necessidade de aquisição de todas as quantidades previstas inicialmente,,Não aplicável.,Não aplicável.,FALSE
"Aquisição de Material Descartável de Bloco Operatório, para a ULSNA, EPE, para 2014",Ajuste Direto Regime Geral,Aquisição de bens móveis,"33140000-3, Material médico de consumo","Unidade Local de Saúde do Norte Alentejano, E. P. E. (508094461)","TELEFLEX MEDICAL, S.A (980249783)","953,05 €",21-09-2015,06-08-2014,153 dias,"Portugal, Portalegre","Artigo 20.º, n.º 1, alínea a) do Código dos Contratos Públicos",31-12-2014,"270,00 €",,Não houve necessidade de aquisição de todas as quantidades previstas inicialmente,,Não aplicável.,Não aplicável.,FALSE
"Aquisição de Material Descartável de Bloco Operatório, para a ULSNA, EPE, para 2014",Ajuste Direto Regime Geral,Aquisição de bens móveis,"33140000-3, Material médico de consumo","Unidade Local de Saúde do Norte Alentejano, E. P. E. (508094461)",SMITHS MEDICAL (507445937),"9.141,00 €",21-09-2015,06-08-2014,153 dias,"Portugal, Portalegre","Artigo 20.º, n.º 1, alínea a) do Código dos Contratos Públicos",31-12-2014,"3.003,00 €",,Não houve necessidade de aquisição de todas as quantidades previstas inicialmente,,Não aplicável.,Não aplicável.,FALSE
"Aquisição de Material Descartável de Bloco Operatório, para a ULSNA, EPE, para 2014",Ajuste Direto Regime Geral,Aquisição de bens móveis,"33140000-3, Material médico de consumo","Unidade Local de Saúde do Norte Alentejano, E. P. E. (508094461)",PMH PRODUTOS MEDICO HOSPITALARES SA (502376899),"442,50 €",21-09-2015,06-08-2014,153 dias,"Portugal, Portalegre","Artigo 20.º, n.º 1, alínea a) do Código dos Contratos Públicos",31-12-2014,"88,50 €",,Não houve necessidade de aquisição de todas as quantidades previstas inicialmente,,Não aplicável.,Não aplicável.,FALSE
"Aquisição de Material Descartável de Bloco Operatório, para a ULSNA, EPE, para 2014",Ajuste Direto Regime Geral,Aquisição de bens móveis,"33140000-3, Material médico de consumo","Unidade Local de Saúde do Norte Alentejano, E. P. E. (508094461)","Medicinália Cormédica, Lda. (500684324)","1.789,00 €",21-09-2015,06-08-2014,153 dias,"Portugal, Portalegre","Artigo 20.º, n.º 1, alínea a) do Código dos Contratos Públicos",31-12-2014,"490,00 €",,Não houve necessidade de aquisição de todas as quantidades previstas inicialmente,,Não aplicável.,Não aplicável.,FALSE
"Aquisição de Material Descartável de Bloco Operatório, para a ULSNA, EPE, para 2014",Ajuste Direto Regime Geral,Aquisição de bens móveis,"33140000-3, Material médico de consumo","Unidade Local de Saúde do Norte Alentejano, E. P. E. (508094461)",JMV PRODUTOS HOSPITALARES (501887148),"263,20 €",21-09-2015,06-08-2014,153 dias,"Portugal, Portalegre","Artigo 20.º, n.º 1, alínea a) do Código dos Contratos Públicos",31-12-2014,"",,Não houve necessidade de aquisição de todas as quantidades previstas inicialmente,,Não aplicável.,Não aplicável.,FALSE
"Aquisição de Material Descartável de Bloco Operatório, para a ULSNA, EPE, para 2014",Ajuste Direto Regime Geral,Aquisição de bens móveis,"33140000-3, Material médico de consumo","Unidade Local de Saúde do Norte Alentejano, E. P. E. (508094461)",INTERSURGICAL PORTUGAL (503480045),"386,00 €",21-09-2015,06-08-2014,153 dias,"Portugal, Portalegre","Artigo 20.º, n.º 1, alínea a) do Código dos Contratos Públicos",31-12-2014,"126,50 €",,Não houve necessidade de aquisição de todas as quantidades previstas inicialmente,,Não aplicável.,Não aplicável.,FALSE
"Aquisição de Material Descartável de Bloco Operatório, para a ULSNA, EPE, para 2014",Ajuste Direto Regime Geral,Aquisição de bens móveis,"33140000-3, Material médico de consumo","Unidade Local de Saúde do Norte Alentejano, E. P. E. (508094461)","HR - Hospitalar, Lda. (501895558)","765,60 €",21-09-2015,06-08-2014,153 dias,"Portugal, Portalegre","Artigo 20.º, n.º 1, alínea a) do Código dos Contratos Públicos",31-12-2014,"",,Não houve necessidade de aquisição de todas as quantidades previstas inicialmente,,Não aplicável.,Não aplicável.,FALSE
"Aquisição de Material Descartável de Bloco Operatório, para a ULSNA, EPE, para 2014",Ajuste Direto Regime Geral,Aquisição de bens móveis,"33140000-3, Material médico de consumo","Unidade Local de Saúde do Norte Alentejano, E. P. E. (508094461)",HOSPITEX - MATERIAL HOSPITALAR (501909842),"4.272,00 €",21-09-2015,06-08-2014,153 dias,"Portugal, Portalegre","Artigo 20.º, n.º 1, alínea a) do Código dos Contratos Públicos",31-12-2014,"1.045,10 €",,Não houve necessidade de aquisição de todas as quantidades previstas inicialmente,,Não aplicável.,Não aplicável.,FALSE
"Aquisição de Material Descartável de Bloco Operatório, para a ULSNA, EPE, para 2014",Ajuste Direto Regime Geral,Aquisição de bens móveis,"33140000-3, Material médico de consumo","Unidade Local de Saúde do Norte Alentejano, E. P. E. (508094461)",EXPOMEDICA (501886621),"206,00 €",21-09-2015,06-08-2014,153 dias,"Portugal, Portalegre","Artigo 20.º, n.º 1, alínea a) do Código dos Contratos Públicos",31-12-2014,"80,50 €",,Não houve necessidade de aquisição de todas as quantidades previstas inicialmente,,Não aplicável.,Não aplicável.,FALSE
"Aquisição de Material Descartável de Bloco Operatório, para a ULSNA, EPE, para 2014",Ajuste Direto Regime Geral,Aquisição de bens móveis,"33140000-3, Material médico de consumo","Unidade Local de Saúde do Norte Alentejano, E. P. E. (508094461)",COVIDIEN PORTUGAL (503413410),"2.167,50 €",21-09-2015,06-08-2014,153 dias,"Portugal, Portalegre","Artigo 20.º, n.º 1, alínea a) do Código dos Contratos Públicos",31-12-2014,"896,00 €",,Não houve necessidade de aquisição de todas as quantidades previstas inicialmente,,Não aplicável.,Não aplicável.,FALSE
"Aquisição de Material Descartável de Bloco Operatório, para a ULSNA, EPE, para 2014",Ajuste Direto Regime Geral,Aquisição de bens móveis,"33140000-3, Material médico de consumo","Unidade Local de Saúde do Norte Alentejano, E. P. E. (508094461)",CLINIFAR SA (503281115),"1.536,00 €",21-09-2015,06-08-2014,153 dias,"Portugal, Portalegre","Artigo 20.º, n.º 1, alínea a) do Código dos Contratos Públicos",31-12-2014,"432,00 €",,Não houve necessidade de aquisição de todas as quantidades previstas inicialmente,,Não aplicável.,Não aplicável.,FALSE
"Aquisição de Material Descartável de Bloco Operatório, para a ULSNA, EPE, para 2014",Ajuste Direto Regime Geral,Aquisição de bens móveis,"33140000-3, Material médico de consumo","Unidade Local de Saúde do Norte Alentejano, E. P. E. (508094461)","B BRAUN MEDICAL, LDA. (501506543)","3.596,40 €",21-09-2015,06-08-2014,153 dias,"Portugal, Portalegre","Artigo 20.º, n.º 1, alínea a) do Código dos Contratos Públicos",31-12-2014,"1.198,80 €",,Não houve necessidade de aquisição de todas as quantidades previstas inicialmente,,Não aplicável.,Não aplicável.,FALSE
"Aquisição de Material Descartável de Bloco Operatório, para a ULSNA, EPE, para 2014",Ajuste Direto Regime Geral,Aquisição de bens móveis,"33140000-3, Material médico de consumo","Unidade Local de Saúde do Norte Alentejano, E. P. E. (508094461)",ANASTACIO SALDANHA UNIPESSOAL LDA. (505804441),"3.640,68 €",21-09-2015,06-08-2014,153 dias,"Portugal, Portalegre","Artigo 20.º, n.º 1, alínea a) do Código dos Contratos Públicos",31-12-2014,"659,00 €",,Não houve necessidade de aquisição de todas as quantidades previstas inicialmente,,Não aplicável.,Não aplicável.,FALSE
"Aquisição de material de electromedicina (electrodos e papel de registo), para a ULSNA, EPE, para 2014",Ajuste Direto Regime Geral,Aquisição de bens móveis,"33140000-3, Material médico de consumo","Unidade Local de Saúde do N. Alentejano,EPE(ULSNA) (508094461)",EME ELECTROMEDICA - EZEQUIEL PANAO JORGE (501412727),"535,20 €",21-09-2015,19-02-2014,365 dias,"Portugal, Portalegre","Artigo 20.º, n.º 1, alínea a) do Código dos Contratos Públicos",31-12-2014,"374,64 €",,Não houve necessidade de aquisição de todas as quantidades previstas inicialmente,,Não aplicável.,Não aplicável.,FALSE
"Aquisição de material de electromedicina (electrodos e papel de registo), para a ULSNA, EPE, para 2014",Ajuste Direto Regime Geral,Aquisição de bens móveis,"33140000-3, Material médico de consumo","Unidade Local de Saúde do N. Alentejano,EPE(ULSNA) (508094461)",COVIDIEN PORTUGAL (503413410),"2.222,50 €",21-09-2015,19-02-2014,365 dias,"Portugal, Portalegre","Artigo 20.º, n.º 1, alínea a) do Código dos Contratos Públicos",31-12-2014,"466,25 €",,Não houve necessidade de aquisição de todas as quantidades previstas inicialmente,,Não aplicável.,Não aplicável.,FALSE
"Aquisição de material de electromedicina (electrodos e papel de registo), para a ULSNA, EPE, para 2014",Ajuste Direto Regime Geral,Aquisição de bens móveis,"33140000-3, Material médico de consumo","Unidade Local de Saúde do N. Alentejano,EPE(ULSNA) (508094461)","MEDINFAR-SOROLÓGICO,S.A (501197052)","5.999,00 €",21-09-2015,19-02-2014,365 dias,"Portugal, Portalegre","Artigo 20.º, n.º 1, alínea a) do Código dos Contratos Públicos",31-12-2014,"3.641,64 €",,Não houve necessidade de aquisição de todas as quantidades previstas inicialmente,,Não aplicável.,Não aplicável.,FALSE
"Aquisição de material de electromedicina (electrodos e papel de registo), para a ULSNA, EPE, para 2014",Ajuste Direto Regime Geral,Aquisição de bens móveis,"33140000-3, Material médico de consumo","Unidade Local de Saúde do N. Alentejano,EPE(ULSNA) (508094461)",ELNOR - EQUIP TEC LAB. (500094403),"1.770,00 €",21-09-2015,19-02-2014,365 dias,"Portugal, Portalegre","Artigo 20.º, n.º 1, alínea a) do Código dos Contratos Públicos",31-12-2014,"1.050,00 €",,Não houve necessidade de aquisição de todas as quantidades previstas inicialmente,,Não aplicável.,Não aplicável.,FALSE
"Aquisição de material de electromedicina (electrodos e papel de registo), para a ULSNA, EPE, para 2014",Ajuste Direto Regime Geral,Aquisição de bens móveis,"33140000-3, Material médico de consumo","Unidade Local de Saúde do N. Alentejano,EPE(ULSNA) (508094461)",IBERDATA EQUIPAMENTOS SA (501904921),"76,80 €",21-09-2015,19-02-2014,365 dias,"Portugal, Portalegre","Artigo 20.º, n.º 1, alínea a) do Código dos Contratos Públicos",31-12-2014,"",,Não houve necessidade de aquisição de todas as quantidades previstas inicialmente,,Não aplicável.,Não aplicável.,FALSE
Aquisição de material de penso,Ajuste Direto Regime Geral,Aquisição de bens móveis,"33140000-3, Material médico de consumo","Unidade Local de Saúde do Norte Alentejano, E. P. E. (508094461)","PAUL HARTMANN (502271728), BASTOS VIEGAS SA (500042772), OVERPHARMA - PRODUTOS MEDICOS E FARM. (505792362)","10.029,20 €",21-09-2015,19-03-2014,270 dias,"Portugal, Portalegre","Artigo 20.º, n.º 1, alínea a) do Código dos Contratos Públicos",31-12-2014,"6.926,12 €",,Não houve necessidade de aquisição de todas as quantidades previstas inicialmente,,Não aplicável.,Não aplicável.,FALSE
"Fornecimento de Fios de Sutura e Lâminas de Bisturi, para a ULSNA, EPE, para 2014",Ajuste Direto Regime Geral,Aquisição de bens móveis,"33141125-2, Material de sutura cirúrgica","Unidade Local de Saúde do N. Alentejano,EPE(ULSNA) (508094461)",SOCIME MEDICAL LDA (504453939),"8.002,20 €",21-09-2015,16-10-2014,90 dias,"Portugal, Portalegre","Artigo 20.º, n.º 1, alínea a) do Código dos Contratos Públicos",31-12-2014,"2.213,88 €",,Não houve necessidade de aquisição de todas as quantidades previstas inicialmente,,Não aplicável.,Não aplicável.,FALSE
"Fornecimento de Fios de Sutura e Lâminas de Bisturi, para a ULSNA, EPE, para 2014",Ajuste Direto Regime Geral,Aquisição de bens móveis,"33141125-2, Material de sutura cirúrgica","Unidade Local de Saúde do N. Alentejano,EPE(ULSNA) (508094461)",PMH PRODUTOS MEDICO HOSPITALARES SA (502376899),"2.068,08 €",21-09-2015,16-10-2014,90 dias,"Portugal, Portalegre","Artigo 20.º, n.º 1, alínea a) do Código dos Contratos Públicos",31-12-2014,"567,60 €",,Não houve necessidade de aquisição de todas as quantidades previstas inicialmente,,Não aplicável.,Não aplicável.,FALSE
Medicamentos,Ajuste Direto Regime Geral,Aquisição de bens móveis,"33000000-0, Equipamento médico, medicamentos e produtos para cuidados pessoais","Unidade Local de Saúde do Norte Alentejano, E. P. E. (508094461)","GLAXOSMITHKLINE-PROD. FARMACÊUTICOS, LDA. (500139962)","6.411,90 €",21-09-2015,05-03-2015,60 dias,"Portugal, Portalegre, Portalegre","Artigo 24.º, n.º 1, alínea e) do Código dos Contratos Públicos",01-05-2015,"6.411,90 €",,"",,Não aplicável.,Não aplicável.,FALSE
"Fornecimento de Fios de Sutura e lâminas de Bisturi, para a ULSNA, EPE, para 2014",Ajuste Direto Regime Geral,Aquisição de bens móveis,"33141125-2, Material de sutura cirúrgica","Unidade Local de Saúde do N. Alentejano,EPE(ULSNA) (508094461)","HR - Hospitalar, Lda. (501895558)","1.034,52 €",21-09-2015,16-10-2014,90 dias,"Portugal, Portalegre","Artigo 20.º, n.º 1, alínea a) do Código dos Contratos Públicos",31-12-2014,"118,80 €",,Não houve necessidade de aquisição de todas as quantidades previstas inicialmente,,Não aplicável.,Não aplicável.,FALSE
"Fornecimento de Fios de Sutura e Lâminas de Sutura, para a ULSNA, EPE, para 2014",Ajuste Direto Regime Geral,Aquisição de bens móveis,"33141125-2, Material de sutura cirúrgica","Unidade Local de Saúde do N. Alentejano,EPE(ULSNA) (508094461)",JMV PRODUTOS HOSPITALARES (501887148),"329,40 €",21-09-2015,16-10-2014,90 dias,"Portugal, Portalegre","Artigo 20.º, n.º 1, alínea a) do Código dos Contratos Públicos",31-12-2014,"",,Não houve necessidade de aquisição de todas as quantidades previstas inicialmente,,Não aplicável.,Não aplicável.,FALSE
"Fornecimento de Fios de Sutura e Lâminas de Bisturi, para a ULSNA, EPE, para 2014",Ajuste Direto Regime Geral,Aquisição de bens móveis,"33141125-2, Material de sutura cirúrgica","Unidade Local de Saúde do N. Alentejano,EPE(ULSNA) (508094461)","B BRAUN MEDICAL, LDA. (501506543)","2.182,32 €",21-09-2015,16-10-2014,90 dias,"Portugal, Portalegre","Artigo 20.º, n.º 1, alínea a) do Código dos Contratos Públicos",31-12-2014,"474,48 €",,Não houve necessidade de aquisição de todas as quantidades previstas inicialmente,,Não aplicável.,Não aplicável.,FALSE
"Fornecimento de Fios de Sutura e Lâminas de Bisturi, para a ULSNA, EPE, para 2014",Ajuste Direto Regime Geral,Aquisição de bens móveis,"33141125-2, Material de sutura cirúrgica","Unidade Local de Saúde do N. Alentejano,EPE(ULSNA) (508094461)",EME ELECTROMEDICA - EZEQUIEL PANAO JORGE (501412727),"887,04 €",21-09-2015,16-10-2014,90 dias,"Portugal, Portalegre","Artigo 20.º, n.º 1, alínea a) do Código dos Contratos Públicos",31-12-2014,"446,40 €",,Não houve necessidade de aquisição de todas as quantidades previstas inicialmente,,Não aplicável.,Não aplicável.,FALSE
"Fornecimento de Fios de Sutura e Lâminas de Bisturi, para a ULSNA, EPE, para 2014",Ajuste Direto Regime Geral,Aquisição de bens móveis,"33141125-2, Material de sutura cirúrgica","Unidade Local de Saúde do N. Alentejano,EPE(ULSNA) (508094461)",COVIDIEN PORTUGAL (503413410),"430,00 €",21-09-2015,16-10-2014,90 dias,"Portugal, Portalegre","Artigo 20.º, n.º 1, alínea a) do Código dos Contratos Públicos",31-12-2014,"178,00 €",,Não houve necessidade de aquisição de todas as quantidades previstas inicialmente,,Não aplicável.,Não aplicável.,FALSE
Medicamentos,Ajuste Direto Regime Geral,Aquisição de bens móveis,"33000000-0, Equipamento médico, medicamentos e produtos para cuidados pessoais","Unidade Local de Saúde do Norte Alentejano, E. P. E. (508094461)","AMGEN BIOFARMACÊUTICA, LDA. (502942959)","8.904,33 €",21-09-2015,05-03-2015,60 dias,"Portugal, Portalegre, Portalegre","Artigo 24.º, n.º 1, alínea e) do Código dos Contratos Públicos",01-05-2015,"8.904,33 €",,"",,Não aplicável.,Não aplicável.,FALSE
"Aquisição de Material Descartável de Laboratório, para a ULSNA, EPE, para 2014",Ajuste Direto Regime Geral,Aquisição de bens móveis,"33140000-3, Material médico de consumo","Unidade Local de Saúde do Norte Alentejano, E. P. E. (508094461)",VWR INTERNATIONAL MATERIAL DE LAB. (503842770),"695,32 €",21-09-2015,18-06-2014,180 dias,"Portugal, Portalegre","Artigo 20.º, n.º 1, alínea a) do Código dos Contratos Públicos",31-12-2014,"463,96 €",,Não houve necessidade de aquisição de todas as quantidades previstas inicialmente,,Não aplicável.,Não aplicável.,FALSE
AQUISIÇÃO DE MEDICAMENTOS,Ajuste Direto Regime Geral,Aquisição de bens móveis,"33000000-0, Equipamento médico, medicamentos e produtos para cuidados pessoais","Unidade Local de Saúde do Norte Alentejano, E. P. E. (508094461)","ASTELLAS FARMA, LDA.                               (502540249)","6.509,80 €",18-09-2015,10-09-2015,30 dias,"Portugal, Portalegre, Elvas<BR/>Portugal, Portalegre, Portalegre","Artigo 24.º, n.º 1, alínea e) do Código dos Contratos Públicos",18-09-2015,"6.509,80 €",,"",,Não aplicável.,Não aplicável.,FALSE
"Aquisição de Material Descartável de Laboratório, para a ULSNA, EPE, para 2014",Ajuste Direto Regime Geral,Aquisição de bens móveis,"33140000-3, Material médico de consumo","Unidade Local de Saúde do Norte Alentejano, E. P. E. (508094461)",VACUETTE PORTUGAL S.A. (505348470),"451,95 €",18-09-2015,18-06-2014,180 dias,"Portugal, Portalegre","Artigo 20.º, n.º 1, alínea a) do Código dos Contratos Públicos",31-12-2014,"277,61 €",,Não houve necessidade de aquisição de todas as quantidades previstas inicialmente,,Não aplicável.,Não aplicável.,FALSE
"Aquisição de Material Descartável de Laboratório, para a ULSNA, EPE, para 2014",Ajuste Direto Regime Geral,Aquisição de bens móveis,"33140000-3, Material médico de consumo","Unidade Local de Saúde do Norte Alentejano, E. P. E. (508094461)","Vidrolab 2, Lda. (501450629)","251,68 €",18-09-2015,18-06-2014,180 dias,"Portugal, Portalegre","Artigo 20.º, n.º 1, alínea a) do Código dos Contratos Públicos",31-12-2014,"28,42 €",,Não houve necessidade de aquisição das quantidades estimadas inicialmente,,Não aplicável.,Não aplicável.,FALSE
"Aquisição de Material Descartável de Laboratório, para a ULSNA, EPE, para 2014",Ajuste Direto Regime Geral,Aquisição de bens móveis,"33140000-3, Material médico de consumo","Unidade Local de Saúde do Norte Alentejano, E. P. E. (508094461)",SARSTEDT (503019461),"7.009,13 €",18-09-2015,18-06-2014,180 dias,"Portugal, Portalegre","Artigo 20.º, n.º 1, alínea a) do Código dos Contratos Públicos",31-12-2014,"5.974,29 €",,Não houve necessidade de aquisição de todas as quantidades previstas inicialmente,,Não aplicável.,Não aplicável.,FALSE
AQUISIÇÃO DE MEDICAMENTOS,Ajuste Direto Regime Geral,Aquisição de bens móveis,"33000000-0, Equipamento médico, medicamentos e produtos para cuidados pessoais","Unidade Local de Saúde do Norte Alentejano, E. P. E. (508094461)",SANOFI PASTEUR MSD SA                              (507632796),"8.226,80 €",18-09-2015,25-11-2014,30 dias,"Portugal, Portalegre, Elvas<BR/>Portugal, Portalegre, Portalegre","Artigo 20.º, n.º 1, alínea a) do Código dos Contratos Públicos",18-09-2015,"8.226,80 €",,"",,Não aplicável.,Não aplicável.,FALSE
AQUISIÇÃO DE MEDICAMENTOS,Ajuste Direto Regime Geral,Aquisição de bens móveis,"33000000-0, Equipamento médico, medicamentos e produtos para cuidados pessoais","Unidade Local de Saúde do Norte Alentejano, E. P. E. (508094461)","NOVARTIS FARMA-PROD.FARMACÊUTICOS,SA.              (500063524)","7.582,81 €",18-09-2015,25-11-2014,30 dias,"Portugal, Portalegre, Elvas<BR/>Portugal, Portalegre, Portalegre","Artigo 20.º, n.º 1, alínea a) do Código dos Contratos Públicos",18-09-2015,"7.582,81 €",,"",,Não aplicável.,Não aplicável.,FALSE
AQUISIÇÃO DE MEDICAMENTOS,Ajuste Direto Regime Geral,Aquisição de bens móveis,"33000000-0, Equipamento médico, medicamentos e produtos para cuidados pessoais","Unidade Local de Saúde do Norte Alentejano, E. P. E. (508094461)","ROCHE FARMACÊUTICA QUIMICA, LDA.                   (500233810)","10.182,80 €",18-09-2015,25-11-2014,30 dias,"Portugal, Portalegre, Elvas<BR/>Portugal, Portalegre, Portalegre","Artigo 20.º, n.º 1, alínea a) do Código dos Contratos Públicos",18-09-2015,"10.182,80 €",,"",,Não aplicável.,Não aplicável.,FALSE
"Empreitada para Intervenções no Centro de Saúde de Ponte de Sôr - ULSNA, EPE",Ajuste Direto Regime Geral,Empreitadas de obras públicas,"50000000-5, Serviços de reparação e manutenção","Unidade Local de Saúde do Norte Alentejano, E. P. E. (508094461)",Seconfral (501415017),"41.691,07 €",18-09-2015,09-09-2014,45 dias,"Portugal, Portalegre, Ponte de Sor","Artigo 19.º, alínea a) do Código dos Contratos Públicos","","",,"",,Não aplicável.,Não aplicável.,FALSE
AQUISIÇÃO DE MEDICAMENTOS,Ajuste Direto Regime Geral,Aquisição de bens móveis,"33000000-0, Equipamento médico, medicamentos e produtos para cuidados pessoais","Unidade Local de Saúde do Norte Alentejano, E. P. E. (508094461)","ROCHE FARMACÊUTICA QUIMICA, LDA.                   (500233810)","21.184,80 €",18-09-2015,19-12-2014,30 dias,"Portugal, Portalegre, Elvas<BR/>Portugal, Portalegre, Portalegre","Artigo 20.º, n.º 1, alínea a) do Código dos Contratos Públicos",18-09-2015,"21.184,80 €",,"",,Não aplicável.,Não aplicável.,FALSE
"Fornecimento de protectores auriculares para termómetro digital welch allyn, para a ULSNA, EPE, 2014",Ajuste Direto Regime Geral,Aquisição de bens móveis,"33140000-3, Material médico de consumo","Unidade Local de Saúde do Norte Alentejano, E. P. E. (508094461)","SpaceMedical Pedro Pestana, Lda. (507662407)","5.593,00 €",18-09-2015,17-09-2014,153 dias,"Portugal, Portalegre","Artigo 20.º, n.º 1, alínea a) do Código dos Contratos Públicos",31-12-2014,"1.917,60 €",,Não houve necessidade de aquisição de todas as quantidades previstas inicialmente,,Não aplicável.,Não aplicável.,FALSE
"Fornecimento de próteses cirúrgicas bipolares da anca para a ULSNA, EPE, 2014",Ajuste Direto Regime Geral,Aquisição de bens móveis,"33140000-3, Material médico de consumo","Unidade Local de Saúde do Norte Alentejano, E. P. E. (508094461)",JOHNSON JOHNSON MEDICAL (500153370),"5.050,00 €",18-09-2015,29-01-2014,153 dias,"Portugal, Portalegre, Portalegre","Artigo 24.º, n.º 1, alínea c) do Código dos Contratos Públicos",31-05-2014,"750,00 €",,Não houve necessidade de aquisição de todas as quantidades previstas inicialmente,,Não aplicável.,Não aplicável.,FALSE
AQUISIÇÃO DE MEDICAMENTOS,Ajuste Direto Regime Geral,Aquisição de bens móveis,"33000000-0, Equipamento médico, medicamentos e produtos para cuidados pessoais","Unidade Local de Saúde do Norte Alentejano, E. P. E. (508094461)","LAB. PFIZER, LDA.                                  (500162166)","8.279,88 €",18-09-2015,19-12-2014,30 dias,"Portugal, Portalegre, Portalegre","Artigo 20.º, n.º 1, alínea a) do Código dos Contratos Públicos",18-09-2015,"8.279,88 €",,"",,Não aplicável.,Não aplicável.,FALSE
"Aquisição de Próteses Cirúrgicas da Anca e do Joelho, para a ULSNA, EPE (2014)",Ajuste Direto Regime Geral,Aquisição de bens móveis,"33140000-3, Material médico de consumo","Unidade Local de Saúde do Norte Alentejano, E. P. E. (508094461)",JOHNSON JOHNSON MEDICAL (500153370),"103.600,00 €",18-09-2015,17-07-2014,180 dias,"Portugal, Portalegre, Portalegre","Artigo 24.º, n.º 1, alínea c) do Código dos Contratos Públicos",31-12-2014,"71.180,00 €",,Não houve necessidade de aquisição de todas as quantidades previstas inicialmente,,Não aplicável.,Não aplicável.,FALSE
"Fornecimento de próteses cirúrgicas da anca e do joelho para a ULSNA, EPE (2014)",Ajuste Direto Regime Geral,Aquisição de bens móveis,"33140000-3, Material médico de consumo","Unidade Local de Saúde do Norte Alentejano, E. P. E. (508094461)",JOHNSON JOHNSON MEDICAL (500153370),"94.400,00 €",18-09-2015,04-02-2014,153 dias,"Portugal, Portalegre, Portalegre","Artigo 24.º, n.º 1, alínea c) do Código dos Contratos Públicos",31-12-2014,"92.540,00 €",,Não houve necessidade de aquisição de todas as quantidades previstas inicialmente,,Não aplicável.,Não aplicável.,FALSE
AQUISIÇÃO DE MEDICAMENTOS,Ajuste Direto Regime Geral,Aquisição de bens móveis,"33000000-0, Equipamento médico, medicamentos e produtos para cuidados pessoais","Unidade Local de Saúde do Norte Alentejano, E. P. E. (508094461)","ROCHE FARMACÊUTICA QUIMICA, LDA.                   (500233810)","11.836,66 €",18-09-2015,19-12-2014,30 dias,"Portugal, Portalegre, Portalegre<BR/>Portugal, Portalegre, Elvas","Artigo 20.º, n.º 1, alínea a) do Código dos Contratos Públicos",18-09-2015,"11.836,66 €",,"",,Não aplicável.,Não aplicável.,FALSE
AQUISIÇÃO DE MEDICAMENTOS,Ajuste Direto Regime Geral,Aquisição de bens móveis,"33000000-0, Equipamento médico, medicamentos e produtos para cuidados pessoais","Unidade Local de Saúde do Norte Alentejano, E. P. E. (508094461)","JANSSEN CILAG FARMACEUTICA, LDA.                   (500189412)","8.080,38 €",18-09-2015,19-12-2014,30 dias,"Portugal, Portalegre, Elvas<BR/>Portugal, Portalegre, Portalegre","Artigo 20.º, n.º 1, alínea a) do Código dos Contratos Públicos",18-09-2015,"8.080,38 €",,"",,Não aplicável.,Não aplicável.,FALSE
AQUISIÇÃO DE MEDICAMENTOS,Ajuste Direto Regime Geral,Aquisição de bens móveis,"33000000-0, Equipamento médico, medicamentos e produtos para cuidados pessoais","Unidade Local de Saúde do Norte Alentejano, E. P. E. (508094461)","GLAXOSMITHKLINE-PROD. FARMACÊUTICOS, LDA.          (500139962)","10.360,66 €",18-09-2015,19-12-2014,30 dias,"Portugal, Portalegre, Elvas<BR/>Portugal, Portalegre, Portalegre","Artigo 20.º, n.º 1, alínea a) do Código dos Contratos Públicos",18-09-2015,"10.360,66 €",,"",,Não aplicável.,Não aplicável.,FALSE
AQUISIÇÃO DE MEDICAMENTOS,Ajuste Direto Regime Geral,Aquisição de bens móveis,"33000000-0, Equipamento médico, medicamentos e produtos para cuidados pessoais","Unidade Local de Saúde do Norte Alentejano, E. P. E. (508094461)","ROCHE FARMACÊUTICA QUIMICA, LDA.                   (500233810)","48.804,99 €",18-09-2015,19-12-2014,30 dias,"Portugal, Portalegre, Elvas<BR/>Portugal, Portalegre, Portalegre","Artigo 20.º, n.º 1, alínea a) do Código dos Contratos Públicos",18-09-2015,"48.804,99 €",,"",,Não aplicável.,Não aplicável.,FALSE
Medicamentos,Ajuste Direto Regime Geral,Aquisição de bens móveis,"33000000-0, Equipamento médico, medicamentos e produtos para cuidados pessoais","Unidade Local de Saúde do Norte Alentejano, E. P. E. (508094461)","ROCHE FARMACÊUTICA QUIMICA, LDA. (500233810)","9.802,99 €",17-09-2015,04-05-2015,60 dias,"Portugal, Portalegre, Portalegre","Artigo 24.º, n.º 1, alínea e) do Código dos Contratos Públicos",01-07-2015,"9.802,99 €",,"",,Não aplicável.,Não aplicável.,FALSE
"Aquisição de dispositivos médicos opcionais para próteses cirúrgicas da anca e do joelho, para a ULSNA, EPE, para 2014",Ajuste Direto Regime Geral,Aquisição de bens móveis,"33140000-3, Material médico de consumo","Unidade Local de Saúde do Norte Alentejano, E. P. E. (508094461)",JOHNSON JOHNSON MEDICAL (500153370),"37.325,00 €",17-09-2015,21-07-2014,365 dias,"Portugal, Portalegre","Artigo 24.º, n.º 1, alínea e) do Código dos Contratos Públicos",31-12-2014,"16.450,75 €",,Não houve necessidade de aquisição de todas as quantidades previstas inicialmente,,Não aplicável.,Não aplicável.,FALSE
"Aquisição de consumíveis para equipamento PrismaFlex, para a ULSNA, EPE, para 2014",Ajuste Direto Regime Geral,Aquisição de bens móveis,"33140000-3, Material médico de consumo","Unidade Local de Saúde do Norte Alentejano, E. P. E. (508094461)",GAMBRO (501082107),"77.180,00 €",17-09-2015,21-01-2014,365 dias,"Portugal, Portalegre, Portalegre","Artigo 24.º, n.º 1, alínea e) do Código dos Contratos Públicos",31-12-2014,"53.120,00 €",,Não houve necessidade de aquisição de todas as quantidades previstas inicialmente,,Não aplicável.,Não aplicável.,FALSE
"Aquisição de receptais para sistema de aspiração de líquidos orgânicos, para a ULSNA, EPE, para 2014",Ajuste Direto Regime Geral,Aquisição de bens móveis,"33140000-3, Material médico de consumo","Unidade Local de Saúde do Norte Alentejano, E. P. E. (508094461)","Medicinália Cormédica, Lda. (500684324)","11.653,50 €",17-09-2015,21-01-2014,365 dias,"Portugal, Portalegre, Portalegre","Artigo 24.º, n.º 1, alínea e) do Código dos Contratos Públicos",31-12-2014,"10.657,00 €",,Não houve necessidade de aquisição de todas as quantidades previstas inicialmente,,Não aplicável.,Não aplicável.,FALSE
"Aquisição de Lâminas de Uso Único de Tricotomia, para a ULSNA, EPE, para 2014",Ajuste Direto Regime Geral,Aquisição de bens móveis,"33140000-3, Material médico de consumo","Unidade Local de Saúde do Norte Alentejano, E. P. E. (508094461)",3M PORTUGAL (500193940),"2.000,00 €",17-09-2015,08-01-2014,365 dias,"Portugal, Portalegre","Artigo 24.º, n.º 1, alínea e) do Código dos Contratos Públicos",31-12-2014,"1.760,00 €",,Não houve necessidade de aquisição de todas as quantidades previstas inicialmente,,Não aplicável.,Não aplicável.,FALSE
"Aquisição de consumíveis para equipamento STERRAD, para a ULSNA, EPE, para 2014",Ajuste Direto Regime Geral,Aquisição de bens móveis,"33140000-3, Material médico de consumo","Unidade Local de Saúde do Norte Alentejano, E. P. E. (508094461)",JOHNSON JOHNSON MEDICAL (500153370),"13.874,00 €",17-09-2015,21-01-2014,365 dias,"Portugal, Portalegre, Portalegre","Artigo 24.º, n.º 1, alínea e) do Código dos Contratos Públicos",31-12-2014,"9.814,00 €",,Não houve necessidade de aquisição de todas as quantidades previstas inicialmente,,Não aplicável.,Não aplicável.,FALSE
"Fornecimento de agulhas hipodérmicas com sistema anti picada à ULSNA, EPE, até final de 2014",Ajuste Direto Regime Geral,Aquisição de bens móveis,"33140000-3, Material médico de consumo","Unidade Local de Saúde do Norte Alentejano, E. P. E. (508094461)",SMITHS MEDICAL (507445937),"28.602,50 €",17-09-2015,01-09-2014,120 dias,"Portugal, Portalegre","Artigo 24.º, n.º 1, alínea c) do Código dos Contratos Públicos",31-12-2014,"16.949,00 €",,Não houve necessidade de aquisição de todas as quantidades previstas inicialmente,,Não aplicável.,Não aplicável.,FALSE
"Aquisição de kit's de laparoscopia e de laqueação de trompas, para a ULSNA, EPE, até final de 2014",Ajuste Direto Regime Geral,Aquisição de bens móveis,"33140000-3, Material médico de consumo","Unidade Local de Saúde do Norte Alentejano, E. P. E. (508094461)",MOONSURGE CIRURGIA E INOVACAO (506657035),"32.323,40 €",17-09-2015,06-08-2014,153 dias,"Portugal, Portalegre","Artigo 24.º, n.º 1, alínea c) do Código dos Contratos Públicos",31-12-2014,"22.515,30 €",,Não houve necessidade de aquisição de todas as quantidades previstas inicialmente,,Não aplicável.,Não aplicável.,FALSE
Medicamentos,Ajuste Direto Regime Geral,Aquisição de bens móveis,"33000000-0, Equipamento médico, medicamentos e produtos para cuidados pessoais","Unidade Local de Saúde do Norte Alentejano, E. P. E. (508094461)",IPSEN PORTUGAL-PRODUTOS FARMACÊUTICOS SA. (502609800),"6.918,43 €",17-09-2015,06-05-2015,60 dias,"Portugal, Portalegre, Portalegre","Artigo 24.º, n.º 1, alínea e) do Código dos Contratos Públicos",01-07-2015,"6.918,43 €",,"",,Não aplicável.,Não aplicável.,FALSE
"Prestação de Serviços Médicos, na Especialidade de Ortopedia, na ULSNA, EPE (Setembro a Dezembro de 2015",Ajuste Direto Regime Geral,Aquisição de serviços,"85100000-0, Serviços de saúde","Unidade Local de Saúde do Norte Alentejano, E. P. E. (508094461)",Rui Manuel de Freitas Dias (172481902),"13.200,00 €",17-09-2015,07-09-2015,122 dias,"Portugal, Portalegre, Portalegre","Artigo 24.º, n.º 1, alínea b) do Código dos Contratos Públicos",07-09-2015,"13.200,00 €",,"",,Não aplicável.,Não aplicável.,FALSE
"Prestação de Serviços de Correios da Unidade Local de Saúde do Norte Alentejano, (Ano 2014)",Ajuste Direto Regime Geral,Aquisição de serviços,"64100000-7, Serviços postais e de correio rápido","Unidade Local de Saúde do Norte Alentejano, E. P. E. (508094461)",Correios de Portugal SA (500077568),"60.000,00 €",17-09-2015,23-04-2014,365 dias,"Portugal, Portalegre, Portalegre","Artigo 24.º, n.º 1, alínea e) do Código dos Contratos Públicos","","",,"",,Não aplicável.,Não aplicável.,FALSE
Medicamentos,Ajuste Direto Regime Geral,Aquisição de bens móveis,"33000000-0, Equipamento médico, medicamentos e produtos para cuidados pessoais","Unidade Local de Saúde do Norte Alentejano, E. P. E. (508094461)","ABBVIE,LDA (510229050)","6.204,42 €",15-09-2015,13-05-2015,60 dias,"Portugal, Portalegre, Portalegre","Artigo 24.º, n.º 1, alínea e) do Código dos Contratos Públicos",01-07-2015,"6.204,42 €",,"",,Não aplicável.,Não aplicável.,FALSE
Medicamentos,Ajuste Direto Regime Geral,Aquisição de bens móveis,"33000000-0, Equipamento médico, medicamentos e produtos para cuidados pessoais","Unidade Local de Saúde do Norte Alentejano, E. P. E. (508094461)",SANOFI PASTEUR MSD SA (507632796),"7.392,00 €",15-09-2015,14-05-2015,60 dias,"Portugal, Portalegre, Portalegre","Artigo 24.º, n.º 1, alínea e) do Código dos Contratos Públicos",01-07-2015,"7.392,00 €",,"",,Não aplicável.,Não aplicável.,FALSE
Medicamentos,Ajuste Direto Regime Geral,Aquisição de bens móveis,"33000000-0, Equipamento médico, medicamentos e produtos para cuidados pessoais","Unidade Local de Saúde do Norte Alentejano, E. P. E. (508094461)","NOVARTIS FARMA-PROD.FARMACÊUTICOS,SA. (500063524)","7.582,81 €",15-09-2015,15-05-2015,60 dias,"Portugal, Portalegre, Portalegre","Artigo 24.º, n.º 1, alínea e) do Código dos Contratos Públicos",01-07-2015,"7.582,81 €",,"",,Não aplicável.,Não aplicável.,FALSE
Medicamentos,Ajuste Direto Regime Geral,Aquisição de bens móveis,"33000000-0, Equipamento médico, medicamentos e produtos para cuidados pessoais","Unidade Local de Saúde do Norte Alentejano, E. P. E. (508094461)",GILEAD SCIENCES LDA. (503604704),"7.812,00 €",15-09-2015,15-05-2015,60 dias,"Portugal, Portalegre, Portalegre","Artigo 24.º, n.º 1, alínea e) do Código dos Contratos Públicos",01-07-2015,"7.812,00 €",,"",,Não aplicável.,Não aplicável.,FALSE
Medicamentos,Ajuste Direto Regime Geral,Aquisição de bens móveis,"33000000-0, Equipamento médico, medicamentos e produtos para cuidados pessoais","Unidade Local de Saúde do Norte Alentejano, E. P. E. (508094461)","GLAXOSMITHKLINE-PROD. FARMACÊUTICOS, LDA. (500139962)","7.717,95 €",15-09-2015,15-05-2015,60 dias,"Portugal, Portalegre, Portalegre","Artigo 24.º, n.º 1, alínea e) do Código dos Contratos Públicos",01-07-2015,"7.717,95 €",,"",,Não aplicável.,Não aplicável.,FALSE
Medicamentos,Ajuste Direto Regime Geral,Aquisição de bens móveis,"33000000-0, Equipamento médico, medicamentos e produtos para cuidados pessoais","Unidade Local de Saúde do Norte Alentejano, E. P. E. (508094461)","ASTELLAS FARMA, LDA. (502540249)","6.014,40 €",15-09-2015,15-05-2015,60 dias,"Portugal, Portalegre, Portalegre","Artigo 24.º, n.º 1, alínea e) do Código dos Contratos Públicos",01-07-2015,"6.014,40 €",,"",,Não aplicável.,Não aplicável.,FALSE
AQUISIÇÃO DE MEDICAMENTOS,Ajuste Direto Regime Geral,Aquisição de bens móveis,"33000000-0, Equipamento médico, medicamentos e produtos para cuidados pessoais","Unidade Local de Saúde do Norte Alentejano, E. P. E. (508094461)",SANOFI PASTEUR MSD SA                              (507632796),"13.060,00 €",14-09-2015,19-06-2014,30 dias,"Portugal, Portalegre, Portalegre<BR/>Portugal, Portalegre, Elvas","Artigo 20.º, n.º 1, alínea a) do Código dos Contratos Públicos",14-09-2015,"13.060,00 €",,"",,Não aplicável.,Não aplicável.,FALSE
AQUISIÇÃO DE MEDICAMENTOS,Ajuste Direto Regime Geral,Aquisição de bens móveis,"33000000-0, Equipamento médico, medicamentos e produtos para cuidados pessoais","Unidade Local de Saúde do Norte Alentejano, E. P. E. (508094461)",GILEAD SCIENCES LDA.                               (503604704),"14.280,06 €",14-09-2015,16-06-2014,30 dias,"Portugal, Portalegre, Portalegre<BR/>Portugal, Portalegre, Elvas","Artigo 20.º, n.º 1, alínea a) do Código dos Contratos Públicos",14-09-2015,"14.280,06 €",,"",,Não aplicável.,Não aplicável.,FALSE
MEDICAMENTOS,Ajuste Direto Regime Geral,Aquisição de bens móveis,"33000000-0, Equipamento médico, medicamentos e produtos para cuidados pessoais","Unidade Local de Saúde do Norte Alentejano, E. P. E. (508094461)","ASTRAZENECA-PRODUTOS FARMACÊUTICOS,LDA.            (502942240)","6.718,62 €",11-09-2015,28-03-2014,30 dias,"Portugal, Portalegre, Elvas<BR/>Portugal, Portalegre, Portalegre","Artigo 20.º, n.º 1, alínea a) do Código dos Contratos Públicos",28-03-2014,"6.718,62 €",,"",,Não aplicável.,Não aplicável.,FALSE
Medicamentos,Ajuste Direto Regime Geral,Aquisição de bens móveis,"33000000-0, Equipamento médico, medicamentos e produtos para cuidados pessoais","Unidade Local de Saúde do Norte Alentejano, E. P. E. (508094461)","LAB. PFIZER, LDA. (500162166)","8.279,88 €",11-09-2015,13-06-2014,60 dias,"Portugal, Portalegre, Portalegre","Artigo 24.º, n.º 1, alínea e) do Código dos Contratos Públicos",01-08-2014,"8.279,88 €",,"",,Não aplicável.,Não aplicável.,FALSE
Medicamentos,Ajuste Direto Regime Geral,Aquisição de bens móveis,"33000000-0, Equipamento médico, medicamentos e produtos para cuidados pessoais","Unidade Local de Saúde do Norte Alentejano, E. P. E. (508094461)","JANSSEN CILAG FARMACEUTICA, LDA. (500189412)","5.475,96 €",11-09-2015,13-06-2014,60 dias,"Portugal, Portalegre, Portalegre","Artigo 24.º, n.º 1, alínea e) do Código dos Contratos Públicos",01-08-2014,"5.475,96 €",,"",,Não aplicável.,Não aplicável.,FALSE
Medicamentos,Ajuste Direto Regime Geral,Aquisição de bens móveis,"33000000-0, Equipamento médico, medicamentos e produtos para cuidados pessoais","Unidade Local de Saúde do Norte Alentejano, E. P. E. (508094461)",IPSEN PORTUGAL-PRODUTOS FARMACÊUTICOS SA. (502609800),"5.460,00 €",11-09-2015,13-06-2014,60 dias,"Portugal, Portalegre, Portalegre","Artigo 24.º, n.º 1, alínea e) do Código dos Contratos Públicos",01-08-2014,"5.460,00 €",,"",,Não aplicável.,Não aplicável.,FALSE
MEDICAMENTOS,Ajuste Direto Regime Geral,Aquisição de bens móveis,"33000000-0, Equipamento médico, medicamentos e produtos para cuidados pessoais","Unidade Local de Saúde do Norte Alentejano, E. P. E. (508094461)","SANOFI- PRODUTOS FARMACÊUTICOS,LDA.                (500134960)","5.716,80 €",11-09-2015,27-03-2014,30 dias,"Portugal, Portalegre, Portalegre<BR/>Portugal, Portalegre, Elvas","Artigo 20.º, n.º 1, alínea a) do Código dos Contratos Públicos",27-03-2014,"5.716,80 €",,"",,Não aplicável.,Não aplicável.,FALSE
MEDICAMENTOS,Ajuste Direto Regime Geral,Aquisição de bens móveis,"33000000-0, Equipamento médico, medicamentos e produtos para cuidados pessoais","Unidade Local de Saúde do Norte Alentejano, E. P. E. (508094461)","AMGEN BIOFARMACÊUTICA, LDA.                        (502942959)","6.000,00 €",11-09-2015,27-03-2014,30 dias,"Portugal, Portalegre, Portalegre<BR/>Portugal, Portalegre, Elvas","Artigo 20.º, n.º 1, alínea a) do Código dos Contratos Públicos",27-03-2014,"6.000,00 €",,"",,Não aplicável.,Não aplicável.,FALSE
AQUISIÇÃO DE MEDICAMENTOS,Ajuste Direto Regime Geral,Aquisição de bens móveis,"33000000-0, Equipamento médico, medicamentos e produtos para cuidados pessoais","Unidade Local de Saúde do Norte Alentejano, E. P. E. (508094461)",GILEAD SCIENCES LDA.                               (503604704),"14.065,60 €",11-09-2015,01-07-2014,30 dias,"Portugal, Portalegre, Elvas<BR/>Portugal, Portalegre, Portalegre","Artigo 20.º, n.º 1, alínea a) do Código dos Contratos Públicos",11-09-2015,"14.065,60 €",,"",,Não aplicável.,Não aplicável.,FALSE
AQUISIÇÃO DE MEDICAMENTOS,Ajuste Direto Regime Geral,Aquisição de bens móveis,"33000000-0, Equipamento médico, medicamentos e produtos para cuidados pessoais","Unidade Local de Saúde do Norte Alentejano, E. P. E. (508094461)","ABBVIE,LDA                                         (510229050)","12.753,95 €",11-09-2015,01-07-2014,30 dias,"Portugal, Portalegre, Elvas<BR/>Portugal, Portalegre, Portalegre","Artigo 20.º, n.º 1, alínea a) do Código dos Contratos Públicos",11-09-2015,"12.753,95 €",,"",,Não aplicável.,Não aplicável.,FALSE
Medicamentos,Ajuste Direto Regime Geral,Aquisição de bens móveis,"33000000-0, Equipamento médico, medicamentos e produtos para cuidados pessoais","Unidade Local de Saúde do Norte Alentejano, E. P. E. (508094461)","B BRAUN MEDICAL, LDA. (501506543)","8.570,55 €",11-09-2015,15-07-2014,60 dias,"Portugal, Portalegre, Portalegre","Artigo 24.º, n.º 1, alínea e) do Código dos Contratos Públicos",01-09-2014,"8.570,55 €",,"",,Não aplicável.,Não aplicável.,FALSE
AQUISIÇÃO DE MEDICAMENTOS,Ajuste Direto Regime Geral,Aquisição de bens móveis,"33000000-0, Equipamento médico, medicamentos e produtos para cuidados pessoais","Unidade Local de Saúde do Norte Alentejano, E. P. E. (508094461)","ROCHE FARMACÊUTICA QUIMICA, LDA.                   (500233810)","16.689,00 €",11-09-2015,07-07-2014,30 dias,"Portugal, Portalegre, Elvas<BR/>Portugal, Portalegre, Portalegre","Artigo 20.º, n.º 1, alínea a) do Código dos Contratos Públicos",11-09-2015,"16.689,00 €",,"",,Não aplicável.,Não aplicável.,FALSE
"Prestação de Serviços de Manutenção aos Equipamentos de Marca GE da ULSNA, EPE (Ano 2015)",Ajuste Direto Regime Geral,Aquisição de serviços,"50000000-5, Serviços de reparação e manutenção","Unidade Local de Saúde do Norte Alentejano, E. P. E. (508094461)",General Electric Portuguesa (500357129),"97.234,41 €",11-09-2015,25-08-2015,365 dias,"Portugal, Portalegre, Portalegre","Artigo 24.º, n.º 1, alínea e) do Código dos Contratos Públicos","","",,"",,Não aplicável.,Não aplicável.,FALSE
MEDICAMENTOS,Ajuste Direto Regime Geral,Aquisição de bens móveis,"33000000-0, Equipamento médico, medicamentos e produtos para cuidados pessoais","Unidade Local de Saúde do Norte Alentejano, E. P. E. (508094461)","ROCHE FARMACÊUTICA QUIMICA, LDA.                   (500233810)","26.517,76 €",11-09-2015,25-03-2014,30 dias,"Portugal, Portalegre, Elvas<BR/>Portugal, Portalegre, Portalegre","Artigo 20.º, n.º 1, alínea a) do Código dos Contratos Públicos",25-03-2014,"26.517,76 €",,"",,Não aplicável.,Não aplicável.,FALSE
Medicamentos,Ajuste Direto Regime Geral,Aquisição de bens móveis,"33000000-0, Equipamento médico, medicamentos e produtos para cuidados pessoais","Unidade Local de Saúde do Norte Alentejano, E. P. E. (508094461)",MERCK SHARP DOHME (500191360),"5.250,00 €",11-09-2015,15-07-2014,60 dias,"Portugal, Portalegre, Portalegre","Artigo 24.º, n.º 1, alínea e) do Código dos Contratos Públicos",01-09-2014,"5.250,00 €",,"",,Não aplicável.,Não aplicável.,FALSE
"Prestação de Serviços Médicos na Especialidade de Pediatria, na ULSNA, EPE (Julho a Setembro de 2015)",Ajuste Direto Regime Geral,Aquisição de serviços,"85100000-0, Serviços de saúde","Unidade Local de Saúde do Norte Alentejano, E. P. E. (508094461)","Consultório de Pediatria Eugénia Capela, Lda (504212842)","28.080,00 €",11-09-2015,03-08-2015,92 dias,"Portugal, Portalegre, Portalegre","Artigo 24.º, n.º 1, alínea b) do Código dos Contratos Públicos",03-08-2015,"28.080,00 €",,"",,Não aplicável.,Não aplicável.,FALSE
"Prestação de Serviços Médicos, na Especialidade de Ginecologia/Obstetrícia, na ULSNA, EPE (1 de Agosto a 31 de Dezembro de 2015)",Ajuste Direto Regime Geral,Aquisição de serviços,"85100000-0, Serviços de saúde","Unidade Local de Saúde do Norte Alentejano, E. P. E. (508094461)","Enrique Matallana, Lda (507839587)","19.262,75 €",11-09-2015,25-08-2015,153 dias,"Portugal, Portalegre, Elvas","Artigo 24.º, n.º 1, alínea b) do Código dos Contratos Públicos",25-08-2015,"19.262,75 €",,"",,Não aplicável.,Não aplicável.,FALSE
Medicamentos,Ajuste Direto Regime Geral,Aquisição de bens móveis,"33000000-0, Equipamento médico, medicamentos e produtos para cuidados pessoais","Unidade Local de Saúde do Norte Alentejano, E. P. E. (508094461)","LAB. PFIZER, LDA. (500162166)","6.299,33 €",11-09-2015,07-07-2014,60 dias,"Portugal, Portalegre, Portalegre","Artigo 24.º, n.º 1, alínea e) do Código dos Contratos Públicos",01-09-2015,"6.299,33 €",,"",,Não aplicável.,Não aplicável.,FALSE
