Objeto do Contrato,Tipo de Procedimento,Tipo(s) de Contrato,CPVs,Entidade(s) Adjudicante(s),Entidade(s) Adjudicatária(s),Preço Contratual,Data de Publicação,Data de Celebração do Contrato,Prazo de Execução,Local de Execução,Fundamentação,Data de Fecho do Contrato,Preço Total Efetivo,Causas das Alterações ao Prazo,Causas das Alterações ao Preço,Estado,N.º registo do Acordo Quadro,Descrição do Acordo Quadro,Procedimento Centralizado
"Aquisição de material de consumo hoteleiro, durante o ano de 2013.",Ajuste Direto Regime Geral,Aquisição de bens móveis,"39830000-9, Produtos de limpeza",HOSPITAL DR FRANCISCO ZAGALO (501510150),"Meilex, Lda. (501759441), A.J.Oliveira (502293748), J.P.Relva (200442783)","6.268,99 €",30-01-2013,22-01-2013,365 dias,"Portugal, Aveiro, Ovar","Artigo 20.º, n.º 1, alínea a) do Código dos Contratos Públicos",03-07-2013,"6.178,16 €",,fornecimentos abaixo do previsto,,Não aplicável.,Não aplicável.,
"Aquisição de sacos plásticos para lixo, roupa suja e outros durante o ano de 2013",Ajuste Direto Regime Geral,Aquisição de bens móveis,"18935000-2, Sacos de lavandaria",HOSPITAL DR FRANCISCO ZAGALO (501510150),Plasticolors (504183346),"6.269,20 €",30-01-2013,22-01-2013,365 dias,"Portugal, Aveiro, Ovar","Artigo 20.º, n.º 1, alínea a) do Código dos Contratos Públicos",31-08-2013,"5.028,13 €",,fornecimento abaixo do previsto,,Não aplicável.,Não aplicável.,
Aquisição de eletrodos de coagulação para otorrino durante o ano de 2013,Ajuste Direto Regime Geral,Aquisição de bens móveis,"33169000-2, Material cirúrgico",HOSPITAL DR FRANCISCO ZAGALO (501510150),"Olympus Iberia, S.A. (980474710)","8.853,62 €",30-01-2013,28-01-2013,365 dias,"Portugal, Aveiro, Ovar","Artigo 24.º, n.º 1, alínea e) do Código dos Contratos Públicos",04-12-2013,"7.552,46 €",,fornecimentos abaixo do previsto,,Não aplicável.,Não aplicável.,
Encargos com pensões relativo a funcionaria,Ajuste Direto Regime Geral,Aquisição de serviços,"98390000-3, Outros serviços",HOSPITAL DR FRANCISCO ZAGALO (501510150),Caixa Geral de Aposentações (500792968),"5.458,00 €",29-01-2013,09-05-2012,365 dias,"Portugal, Aveiro, Ovar","Artigo 20.º, n.º 1, alínea a) do Código dos Contratos Públicos",31-12-2012,"5.458,00 €",,"",,Não aplicável.,Não aplicável.,
Aquisição de eletrodos de coagulação bipolar para cornetos e palato mole,Ajuste Direto Regime Geral,Aquisição de bens móveis,"33169000-2, Material cirúrgico",HOSPITAL DR FRANCISCO ZAGALO (501510150),Olympus Ibéria (980474710),"3.794,72 €",29-01-2013,30-05-2012,183 dias,"Portugal, Aveiro, Ovar","Artigo 24.º, n.º 1, alínea e) do Código dos Contratos Públicos",31-12-2012,"3.794,72 €",,"",,Não aplicável.,Não aplicável.,
Aquisição de pinças ligasure para cirurgia laparoscópica,Ajuste Direto Regime Geral,Aquisição de bens móveis,"33169000-2, Material cirúrgico",HOSPITAL DR FRANCISCO ZAGALO (501510150),Covidien Portugal (503413410),"11.232,00 €",29-01-2013,31-05-2012,183 dias,"Portugal, Aveiro, Ovar","Artigo 20.º, n.º 1, alínea a) do Código dos Contratos Públicos",31-12-2012,"11.232,00 €",,"",,Não aplicável.,Não aplicável.,
Exames efectuados a utentes de Imagiologia,Ajuste Direto Regime Geral,Aquisição de serviços,"85150000-5, Serviços de imagiologia médica",HOSPITAL DR FRANCISCO ZAGALO (501510150),"Dr.Campos Costa, Lda. (502082429), Dr. Pinto Leite-Instituto de Radiologia (501396772), CMN-Centro Medico da Praça, Lda (501583157)","15.180,00 €",25-01-2013,12-04-2012,30 dias,"Portugal, Aveiro, Ovar","Artigo 20.º, n.º 1, alínea a) do Código dos Contratos Públicos",12-04-2012,"12.213,57 €",,exames efectuados abaixo do previsto.,,Não aplicável.,Não aplicável.,
Aquisição de Rendas do Edificio Hospitalar para o ano 2013,Ajuste Direto Regime Geral,Aquisição de serviços,"70310000-7, Serviços de venda ou arrendamento de edifícios",HOSPITAL DR FRANCISCO ZAGALO (501510150),Santa Casa da Misericordia de Ovar (500834610),"60.415,00 €",24-01-2013,07-01-2013,365 dias,"Portugal, Aveiro, Ovar","Artigo 20.º, n.º 1, alínea a) do Código dos Contratos Públicos",31-12-2013,"60.415,00 €",,"",,Não aplicável.,Não aplicável.,
Aquisição de Serviços médicos de Anestesiologia,Ajuste Direto Regime Geral,Aquisição de serviços,"85121200-5, Serviços de medicina especializada",HOSPITAL DR FRANCISCO ZAGALO (501510150),"Medicsearch, S.A. (508080517)","10.500,00 €",24-01-2013,21-01-2013,30 dias,"Portugal, Aveiro, Ovar","Artigo 20.º, n.º 1, alínea a) do Código dos Contratos Públicos",31-01-2013,"7.110,00 €",,Serviços médicos efectuados abaixo do previsto,,Não aplicável.,Não aplicável.,
Aquisição de trabalho temporario para Técnicos e Serralheiro,Ajuste Direto Regime Geral,Aquisição de serviços,"79620000-6, Serviços de fornecimento de pessoal, inclusive temporário",HOSPITAL DR FRANCISCO ZAGALO (501510150),"Tonus - Trabalho Temporario, Lda. (508986460)","7.200,00 €",24-01-2013,15-01-2013,30 dias,"Portugal, Aveiro, Ovar","Artigo 20.º, n.º 1, alínea a) do Código dos Contratos Públicos",31-01-2013,"6.555,35 €",,Serviços efectuados abaixo do previsto,,Não aplicável.,Não aplicável.,
Aquisição de Serviços de Técnicos Diag.Terapeuticos e Tecnica Superior Saude,Ajuste Direto Regime Geral,Aquisição de serviços,"79620000-6, Serviços de fornecimento de pessoal, inclusive temporário",HOSPITAL DR FRANCISCO ZAGALO (501510150),"Tonus Global, Unipessoal, Lda. (509622976)","11.200,00 €",24-01-2013,15-01-2013,30 dias,"Portugal, Aveiro, Ovar","Artigo 20.º, n.º 1, alínea a) do Código dos Contratos Públicos",31-01-2013,"9.176,80 €",,Serviços efectuados abaixo do previsto,,Não aplicável.,Não aplicável.,
Aquisição de Serviços de Enfermagem,Ajuste Direto Regime Geral,Aquisição de serviços,"79624000-4, Serviços de fornecimento de pessoal de enfermagem",HOSPITAL DR FRANCISCO ZAGALO (501510150),"Tonus Global, Unipessoal, Lda. (509622976)","22.700,00 €",24-01-2013,15-01-2013,30 dias,"Portugal, Aveiro, Ovar","Artigo 22.º, n.º 1, alínea a) do Código dos Contratos Públicos",31-01-2013,"20.112,70 €",,Serviços efectuados abaixo do previsto,,Não aplicável.,Não aplicável.,
Aquisição de serviços de trabalho temporario de Assistentes Operacionais,Ajuste Direto Regime Geral,Aquisição de serviços,"79620000-6, Serviços de fornecimento de pessoal, inclusive temporário",HOSPITAL DR FRANCISCO ZAGALO (501510150),"Tonus - Trabalho Temporario, Lda. (508986460)","18.000,00 €",24-01-2013,15-01-2013,30 dias,"Portugal, Aveiro, Ovar","Artigo 20.º, n.º 1, alínea a) do Código dos Contratos Públicos",31-01-2013,"17.524,10 €",,Serviços efectuados abaixo do previsto,,Não aplicável.,Não aplicável.,
Aquisição de serviços de trabalho temporario de Assistentes Técnicos,Ajuste Direto Regime Geral,Aquisição de serviços,"79620000-6, Serviços de fornecimento de pessoal, inclusive temporário",HOSPITAL DR FRANCISCO ZAGALO (501510150),"Tonus - Trabalho Temporario, Lda. (508986460)","15.000,00 €",24-01-2013,15-01-2013,30 dias,"Portugal, Aveiro, Ovar","Artigo 20.º, n.º 1, alínea a) do Código dos Contratos Públicos",31-01-2013,"11.378,52 €",,Serviços efectuados abaixo do previsto,,Não aplicável.,Não aplicável.,
Serviços de TDT e TSS,Concurso público,Aquisição de serviços,"79620000-6, Serviços de fornecimento de pessoal, inclusive temporário",HOSPITAL DR FRANCISCO ZAGALO (501510150),"Tonus Global, Unipessoal, Lda. (509622976)","67.347,00 €",23-01-2013,18-07-2012,153 dias,"Portugal, Aveiro, Ovar","Artigo 20.º, n.º 1, alínea b) do Código dos Contratos Públicos",31-12-2012,"47.463,15 €",,Serviços efectuados abaixo do previsto,,Não aplicável.,Não aplicável.,
Serviços de Trabalho temporario de Tecnicos e Serralheiro,Concurso público,Aquisição de serviços,"79620000-6, Serviços de fornecimento de pessoal, inclusive temporário",HOSPITAL DR FRANCISCO ZAGALO (501510150),"Tonus-Trabalho Temporario, Lda. (508986460)","33.161,25 €",23-01-2013,16-07-2012,153 dias,"Portugal, Aveiro, Ovar","Artigo 20.º, n.º 1, alínea b) do Código dos Contratos Públicos",31-12-2012,"39.430,36 €",,Serviços efectuados acima do previsto,,Não aplicável.,Não aplicável.,
Serviços de trabalho temporario de Assistentes tecnicos,Concurso público,Aquisição de serviços,"79620000-6, Serviços de fornecimento de pessoal, inclusive temporário",HOSPITAL DR FRANCISCO ZAGALO (501510150),"Tonus-Trabalho Temporario,Lda. (508986460)","96.711,20 €",23-01-2013,28-06-2012,183 dias,"Portugal, Aveiro, Ovar","Artigo 20.º, n.º 1, alínea b) do Código dos Contratos Públicos",31-12-2012,"73.923,73 €",,Serviços efectuados abaixo do previsto,,Não aplicável.,Não aplicável.,
