Objeto do Contrato,Tipo de Procedimento,Tipo(s) de Contrato,CPVs,Entidade(s) Adjudicante(s),Entidade(s) Adjudicatária(s),Preço Contratual,Data de Publicação,Data de Celebração do Contrato,Prazo de Execução,Local de Execução,Fundamentação,Data de Fecho do Contrato,Preço Total Efetivo,Causas das Alterações ao Prazo,Causas das Alterações ao Preço,Estado,N.º registo do Acordo Quadro,Descrição do Acordo Quadro,Procedimento Centralizado
Aquisição de Material de Consumo Clínico para o CST Porto - Área da Transplantação (LUSOCORD,Ajuste Direto Regime Geral,Aquisição de bens móveis,"33141000-0, Material médico não químico descartável e produtos hematológicos<BR/>33141613-0, Sacos para sangue","Instituto Português do Sangue e da Transplantação, I. P. (502423943)","Hemovision, Ldª (509717853)","22.750,00 €",31-05-2016,19-05-2016,200 dias,"Portugal, Porto, Porto","Artigo 20.º, n.º 1, alínea a) do Código dos Contratos Públicos",,,,,,Não aplicável.,Não aplicável.,FALSE
"Aquisição de Material de Consumo Clínico - Saco Quádruplo para colheita de Sangue CPD, SagManitol, até conclusão do CP 1200416.",Ajuste Direto Regime Geral,Aquisição de bens móveis,"33141613-0, Sacos para sangue","Instituto Português do Sangue e da Transplantação, I. P. (502423943)","Fresenius Kabi Pharma Portugal, Ldª (504293753)","16.000,00 €",31-05-2016,23-05-2016,90 dias,"Portugal, Faro, Loulé","Artigo 26.º, n.º 1, alínea a) do Código dos Contratos Públicos",,,,,,Não aplicável.,Não aplicável.,FALSE
"Aquisição de Reagentes  - Monoclonais para o IPST, IP, durante o ano 2016",Ajuste Direto Regime Geral,Aquisição de bens móveis,"33696200-7, Reagentes para análises ao sangue","Instituto Português do Sangue e da Transplantação, I. P. (502423943)",Enzifarma (503636975),"179.798,00 €",31-05-2016,05-05-2016,240 dias,"Portugal, Lisboa, Lisboa<BR/>Portugal, Coimbra, Coimbra<BR/>Portugal, Porto, Porto","Artigo 24.º, n.º 1, alínea e) do Código dos Contratos Públicos",,,,,,Não aplicável.,Não aplicável.,FALSE
Aquisição de Reagentes de Determinação do Quimerismo Celular no Pós-Transplantação de Células Hematopoiéticas,Ajuste Direto Regime Geral,Aquisição de bens móveis,"33696200-7, Reagentes para análises ao sangue","Instituto Português do Sangue e da Transplantação, I. P. (502423943)",Diagnostica Longwood (980475554),"13.000,00 €",31-05-2016,18-05-2016,270 dias,"Portugal, Lisboa, Lisboa","Artigo 24.º, n.º 1, alínea e) do Código dos Contratos Públicos",,,,,,Não aplicável.,Não aplicável.,FALSE
Aquisição de Controlo para Citometria de Fluxo para avaliação das CD34 - Área da Transplantação,Ajuste Direto Regime Geral,Aquisição de bens móveis,"33696200-7, Reagentes para análises ao sangue","Instituto Português do Sangue e da Transplantação, I. P. (502423943)",Enzifarma (503636975),"7.364,40 €",31-05-2016,31-03-2016,274 dias,"Portugal, Porto, Porto","Artigo 20.º, n.º 1, alínea a) do Código dos Contratos Públicos",,,,,,Não aplicável.,Não aplicável.,FALSE
Aquisição de Reagentes para o Lab. de Citometria de Fluxo do CSTP - Transplantação,Ajuste Direto Regime Geral,Aquisição de bens móveis,"33696200-7, Reagentes para análises ao sangue","Instituto Português do Sangue e da Transplantação, I. P. (502423943)","Zmway, Lda (508085349)","5.520,00 €",31-05-2016,15-04-2016,260 dias,"Portugal, Porto, Porto","Artigo 20.º, n.º 1, alínea a) do Código dos Contratos Públicos",,,,,,Não aplicável.,Não aplicável.,FALSE
Aquisição de Reagentes de Genotipagem HLA-ABCDRDQ Baixa Resolução,Ajuste Direto Regime Geral,Aquisição de bens móveis,"33696200-7, Reagentes para análises ao sangue","Instituto Português do Sangue e da Transplantação, I. P. (502423943)",Diagnostica Longwood (980475554),"6.500,00 €",31-05-2016,09-05-2016,265 dias,"Portugal, Lisboa, Lisboa","Artigo 20.º, n.º 1, alínea a) do Código dos Contratos Públicos",,,,,,Não aplicável.,Não aplicável.,FALSE
Aquisição de Reagentes para o Banco de Tecidos e Lusocord,Ajuste Direto Regime Geral,Aquisição de bens móveis,"33696200-7, Reagentes para análises ao sangue","Instituto Português do Sangue e da Transplantação, I. P. (502423943)",Biomérieux Portugal (501524177),"7.262,80 €",31-05-2016,18-02-2016,316 dias,"Portugal, Porto, Porto<BR/>Portugal, Lisboa, Lisboa","Artigo 20.º, n.º 1, alínea a) do Código dos Contratos Públicos",,,,,,Não aplicável.,Não aplicável.,FALSE
Aquisição de Reagentes p/ o Lab. Controlo de Qualidade do CSTL - Delegação do Algarve,Ajuste Direto Regime Geral,Aquisição de bens móveis,"33696200-7, Reagentes para análises ao sangue","Instituto Português do Sangue e da Transplantação, I. P. (502423943)","Werfen Portugal, Lda (501086110)","10.082,59 €",24-05-2016,23-03-2016,280 dias,"Portugal, Faro, Faro","Artigo 20.º, n.º 1, alínea a) do Código dos Contratos Públicos",,,,,,Não aplicável.,Não aplicável.,FALSE
Aquisição de Reagentes p/ o Lab. Doenças Transmissíveis do CST Porto,Ajuste Direto Regime Geral,Aquisição de bens móveis,"33696200-7, Reagentes para análises ao sangue","Instituto Português do Sangue e da Transplantação, I. P. (502423943)","Quilaban, S.A. (500399670)","8.925,00 €",24-05-2016,15-03-2016,250 dias,"Portugal, Porto, Porto","Artigo 20.º, n.º 1, alínea a) do Código dos Contratos Públicos",,,,,,Não aplicável.,Não aplicável.,FALSE
Aquisição de Reagente p/ Determinação Genotipo HCV PCR p/ o CST Porto,Ajuste Direto Regime Geral,Aquisição de bens móveis,"33696200-7, Reagentes para análises ao sangue","Instituto Português do Sangue e da Transplantação, I. P. (502423943)","Siemens Healthcare, Lda (507925173)","7.200,00 €",24-05-2016,15-03-2016,250 dias,"Portugal, Porto, Porto","Artigo 20.º, n.º 1, alínea a) do Código dos Contratos Públicos",,,,,,Não aplicável.,Não aplicável.,FALSE
Aquisição de Reagentes p/ os Lab. Doenças Transmissíveis do CST Lisboa,Ajuste Direto Regime Geral,Aquisição de bens móveis,"33696200-7, Reagentes para análises ao sangue","Instituto Português do Sangue e da Transplantação, I. P. (502423943)","Abbott Laboratórios, Lda (500006148)","139.225,00 €",24-05-2016,18-05-2016,225 dias,"Portugal, Lisboa, Lisboa","Artigo 26.º, n.º 1, alínea a) do Código dos Contratos Públicos",,,,,,Não aplicável.,Não aplicável.,FALSE
"Aquisição de Reagentes p/ os Lab. Doenças Transmissíveis do IPST, IP",Ajuste Direto Regime Geral,Aquisição de bens móveis,"33696200-7, Reagentes para análises ao sangue","Instituto Português do Sangue e da Transplantação, I. P. (502423943)","Abbott Laboratórios, Lda (500006148)","26.750,00 €",24-05-2016,04-05-2016,240 dias,"Portugal, Lisboa, Lisboa<BR/>Portugal, Porto, Porto","Artigo 26.º, n.º 1, alínea a) do Código dos Contratos Públicos",,,,,,Não aplicável.,Não aplicável.,FALSE
Aquisição de Reagentes p/ o Lab. Doenças Transmissíveis do CST Porto,Ajuste Direto Regime Geral,Aquisição de bens móveis,"33696200-7, Reagentes para análises ao sangue","Instituto Português do Sangue e da Transplantação, I. P. (502423943)","Quilaban, S.A. (500399670)","9.914,00 €",24-05-2016,29-04-2016,240 dias,"Portugal, Porto, Porto","Artigo 26.º, n.º 1, alínea a) do Código dos Contratos Públicos",,,,,,Não aplicável.,Não aplicável.,FALSE
Aquisição de Reagentes p/ o Lab. Controlo de Qualidade do CSTL - Delegação do Algarve,Ajuste Direto Regime Geral,Aquisição de bens móveis,"33696200-7, Reagentes para análises ao sangue","Instituto Português do Sangue e da Transplantação, I. P. (502423943)","Enzifarma, S.A. (503636975)","19.035,95 €",24-05-2016,04-05-2016,240 dias,"Portugal, Faro, Faro","Artigo 26.º, n.º 1, alínea a) do Código dos Contratos Públicos",,,,,,Não aplicável.,Não aplicável.,FALSE
Aquisição de Reagentes p/ o Laboratório de Controlo de Qualidade do CST Coimbra,Ajuste Direto Regime Geral,Aquisição de bens móveis,"33696200-7, Reagentes para análises ao sangue","Instituto Português do Sangue e da Transplantação, I. P. (502423943)","Werfen Portugal, Lda (501086110)","5.047,10 €",24-05-2016,07-03-2016,300 dias,"Portugal, Coimbra, Coimbra","Artigo 24.º, n.º 1, alínea b) do Código dos Contratos Públicos",,,,,,Não aplicável.,Não aplicável.,FALSE
"Aquisição de Controlos de Qualidade p/ os diversos Laboratórios do IPST, IP, durante o ano 2016",Ajuste Direto Regime Geral,Aquisição de bens móveis,"33696200-7, Reagentes para análises ao sangue","Instituto Português do Sangue e da Transplantação, I. P. (502423943)","Biognóstica, Lda (504441256)","55.374,00 €",24-05-2016,03-03-2016,300 dias,"Portugal, Faro, Faro<BR/>Portugal, Coimbra, Coimbra<BR/>Portugal, Porto, Porto<BR/>Portugal, Lisboa, Lisboa","Artigo 24.º, n.º 1, alínea e) do Código dos Contratos Públicos",,,,,,Não aplicável.,Não aplicável.,FALSE
Aquisição de Reagentes p/ o Lab. Doenças Transmissíveis do CST Porto,Ajuste Direto Regime Geral,Aquisição de bens móveis,"33696200-7, Reagentes para análises ao sangue","Instituto Português do Sangue e da Transplantação, I. P. (502423943)","Abbott Laboratórios, Lda (500006148)","20.000,00 €",24-05-2016,08-03-2016,300 dias,"Portugal, Porto, Porto","Artigo 26.º, n.º 1, alínea a) do Código dos Contratos Públicos",,,,,,Não aplicável.,Não aplicável.,FALSE
Aquisição de Testes p/ Pesq. Atc Irreg. p/ Met. Antiglob. Hum. Células I+II,Ajuste Direto Regime Geral,Aquisição de bens móveis,"33696200-7, Reagentes para análises ao sangue","Instituto Português do Sangue e da Transplantação, I. P. (502423943)","Immucor (Portugal), Lda (503007358)","9.495,84 €",24-05-2016,09-03-2016,285 dias,"Portugal, Porto, Porto","Artigo 26.º, n.º 1, alínea a) do Código dos Contratos Públicos",,,,,,Não aplicável.,Não aplicável.,FALSE
"Aquisição de Garrafas Anaerob. e Aerob. p/ Deteção Bacteriológica do IPST, IP, durante o ano 2016",Ajuste Direto Regime Geral,Aquisição de bens móveis,"33696200-7, Reagentes para análises ao sangue","Instituto Português do Sangue e da Transplantação, I. P. (502423943)","Biomerieux Portugal, Lda (501524177)","175.956,00 €",24-05-2016,16-02-2016,315 dias,"Portugal, Faro, Faro<BR/>Portugal, Porto, Porto<BR/>Portugal, Coimbra, Coimbra","Artigo 24.º, n.º 1, alínea e) do Código dos Contratos Públicos",,,,,,Não aplicável.,Não aplicável.,FALSE
AD nº 5902916 Consultadoria Técnica na área da Biologia Celular e Molecular,Ajuste Direto Regime Geral,Aquisição de serviços,"73000000-2, Serviços de investigação e desenvolvimento e serviços de consultoria conexos","Instituto Português do Sangue e da Transplantação, I. P. (502423943)",Ana Catarina Campos Bolotinha (229832601),"10.808,04 €",24-05-2016,16-05-2016,182 dias,"Portugal, Lisboa, Lisboa","Artigo 20.º, n.º 1, alínea a) do Código dos Contratos Públicos",,,,,,Não aplicável.,Não aplicável.,FALSE
