Objeto do Contrato,Tipo de Procedimento,Tipo(s) de Contrato,CPVs,Entidade(s) Adjudicante(s),Entidade(s) Adjudicatária(s),Preço Contratual,Data de Publicação,Data de Celebração do Contrato,Prazo de Execução,Local de Execução,Fundamentação,Data de Fecho do Contrato,Preço Total Efetivo,Causas das Alterações ao Prazo,Causas das Alterações ao Preço,Estado,N.º registo do Acordo Quadro,Descrição do Acordo Quadro,Procedimento Centralizado
Aquisição de economato,Ao abrigo de acordo-quadro (art.º 259.º),Aquisição de bens móveis,"30190000-7, Equipamento e material de escritório diverso","Instituto Nacional de Emergência Médica, I.P. (501356126), Infarmed - Autoridade Nacional do Medicamento e Produtos de Saúde, I.P (600037002), Direção-Geral da Saúde (600037100), Instituto Português do Sangue e da Transplantação, I.P. (502423943), Administração Regional de Saúde Algarve, I.P. (503148709), Administração Regional de Saúde Norte, I.P. (503135593), Serviço de Intervenção nos Comportamentos Aditivos e nas Dependências (600084884), Secretaria-Geral do Ministério da Saúde (600080684), Administração Regional de Saúde Alentejo, I.P.  (503148768)","Olmar - Artigos de papelaria, Lda (508831989)","1.023,49 €",11-09-2014,02-09-2013,122 dias,"Portugal, Lisboa, Lisboa",Artigo 259.º do Código dos Contratos Públicos,"","",,"",,600257,Concurso limitado por prévia qualificação para a celebração de Acordo Quadro para o fornecimento de bens de  mobiliário.,TRUE
"Transporte e distribuição de materiais do Armazém, Serviços Farmacêuticos e Laboratório Regional de Saúde Pública da ARS Algarve para as Unidades dos Agrupamentos dos Centros de Saúde-ACES e serviços da sede da ARS Algarve.",Concurso público,Aquisição de serviços,"60000000-8, Serviços de transporte (excl. transporte de resíduos)","Administração Regional de Saúde do Algarve, I.P. (503148709)","Urbanos-Soluções, S.A (502392290)","48.763,24 €",11-09-2014,01-09-2014,730 dias,"Portugal, Faro","Artigo 20.º, n.º 1, alínea b) do Código dos Contratos Públicos",31-08-2016,"48.763,12 €",,Arredondamentos de facturação.,,Não aplicável.,Não aplicável.,FALSE
AQUISIÇÃO DE MEDICAMENTOS GERAIS.1,Ao abrigo de acordo-quadro (art.º 259.º),Aquisição de bens móveis,"33690000-3, Medicamentos vários","Administração Regional de Saúde do Algarve, I. P. (503148709)","Farmoz - Sociedade Técnico Medicinal, S.A. (501505334)","147,60 €",10-09-2014,10-09-2014,112 dias,"Portugal, Faro, Faro",Artigo 259.º do Código dos Contratos Públicos,12-09-2014,"147,60 €",,"",,613285,"CONCURSO PÚBLICO PARA A CELEBRAÇÃO DE CONTRATOS PÚBLICOS DE APROVISIONAMENTO PARA A ÁREA DA SAÚDE, COM VISTA AO FORNECIMENTO DE MEDICAMENTOS ANALGÉSICOS, ANTIPIRÉTICOS E ANTIDEPRESSORES, ÀS INSTITUIÇÕES E SERVIÇOS DO SERVIÇO NACIONAL DE SAÚDE",FALSE
CP/156/2014 - Aquisição de Material de Consumo Clínicio,Concurso público,Aquisição de bens móveis,"33141119-7, Compressas","Administração Regional de Saúde do Algarve, I. P. (503148709)","Albino Dias de Andrade, Lda. (500013810)","6.586,65 €",09-09-2014,18-07-2014,165 dias,"Portugal, Faro","Artigo 20.º, n.º 1, alínea b) do Código dos Contratos Públicos","","",,"",,Não aplicável.,Não aplicável.,FALSE
"SC/174/2014 - Prestação de Serviços Médicos para os ACES e SUB's da ARS Algarve, I.P.",Ao abrigo de acordo-quadro (art.º 259.º),Aquisição de serviços,"85121100-4, Serviços de médicos de clínica geral","Administração Regional de Saúde do Algarve, I. P. (503148709)","Kelly Services - Healthcare, Unipessoal Lda. (510723691)","571.535,25 €",09-09-2014,18-08-2014,135 dias,"Portugal, Faro",Artigo 259.º do Código dos Contratos Públicos,"","",,"",,454020,"CONCURSO PÚBLICO PARA A CELEBRAÇÃO DE CONTRATOS PÚBLICOS DE APROVISIONAMENTO PARA A ÁREA DA SAÚDE, COM VISTA À PRESTAÇÃO DE SERVIÇOS MÉDICOS ÀS INSTITUIÇÕES E SERVIÇOS DO SERVIÇO NACIONAL DE SAÚDE",FALSE
SC/226/2014 - Aquisição de Resguardos para Incontinência,Ajuste Direto Regime Geral,Aquisição de bens móveis,"39512300-7, Resguardos para colchões","Administração Regional de Saúde do Algarve, I.P. (503148709)","Bastos Viegas, S.A. (500042772)","264,00 €",09-09-2014,29-08-2014,124 dias,"Portugal, Faro","Artigo 20.º, n.º 1, alínea a) do Código dos Contratos Públicos","","",,"",,Não aplicável.,Não aplicável.,FALSE
AQUISIÇÃO DE PARAFINA LIQUIDA,Ajuste Direto Regime Geral,Aquisição de bens móveis,"33690000-3, Medicamentos vários","Administração Regional de Saúde do Algarve, I. P. (503148709)","Confar - Consórcio Farmacêutico, Lda. (500070229)","265,50 €",04-09-2014,04-09-2014,118 dias,"Portugal, Faro, Faro","Artigo 24.º, n.º 1, alínea e) do Código dos Contratos Públicos",18-12-2014,"206,50 €",,Quantidades Fornecidas,,Não aplicável.,Não aplicável.,FALSE
"AQUISIÇÃO DE LIDOCAINA, MEMANTINA E TAPENTADOL",Ao abrigo de acordo-quadro (art.º 259.º),Aquisição de bens móveis,"33690000-3, Medicamentos vários","Administração Regional de Saúde do Algarve, I. P. (503148709)","Grunenthal, S.A. (500101965)","526,55 €",02-09-2014,02-09-2014,120 dias,"Portugal, Faro, Faro",Artigo 259.º do Código dos Contratos Públicos,31-12-2014,"110,58 €",,Quantidades Fornecidas,,611371,"CONCURSO PÚBLICO PARA A CELEBRAÇÃO DE CONTRATOS PÚBLICOS DE APROVISIONAMENTO PARA A ÁREA DA SAÚDE, COM VISTA AO FORNECIMENTO DE MEDICAMENTOS ANESTÉSICOS E RELAXANTES MUSCULARES, ÀS INSTITUIÇÕES E SERVIÇOS DO SERVIÇO NACIONAL DE SAÚDE    ",FALSE
"AD/177/2014 - Aquisição de Algálias, Sacos Coletores e Sondas",Ajuste Direto Regime Geral,Aquisição de bens móveis,"33141000-0, Material médico não químico descartável e produtos hematológicos<BR/>33141641-5, Sondas","Administração Regional de Saúde do Algarve, I. P. (503148709)","Overpharma Produtos Médicos e Farmacêuticos, Lda. (505792362)","4.220,94 €",01-09-2014,22-08-2014,130 dias,"Portugal, Faro","Artigo 20.º, n.º 1, alínea a) do Código dos Contratos Públicos","","",,"",,Não aplicável.,Não aplicável.,FALSE
"AD/177/2014 - Aquisição de Algálias, Sacos Coletores e Sondas",Ajuste Direto Regime Geral,Aquisição de bens móveis,"33141615-4, Sacos para urina","Administração Regional de Saúde do Algarve, I. P. (503148709)","Aviquimica - Importações e Manufacturas, Lda. (500039720)","2.650,00 €",01-09-2014,22-08-2014,130 dias,"Portugal, Faro","Artigo 20.º, n.º 1, alínea a) do Código dos Contratos Públicos","","",,"",,Não aplicável.,Não aplicável.,FALSE
"AD/177/2014 - Aquisição de Algálias, Sacos Coletores e Sondas",Ajuste Direto Regime Geral,Aquisição de bens móveis,"33141641-5, Sondas","Administração Regional de Saúde do Algarve, I. P. (503148709)","HR - Hospitalar, Lda. (501895558)","79,00 €",01-09-2014,22-08-2014,130 dias,"Portugal, Faro","Artigo 20.º, n.º 1, alínea a) do Código dos Contratos Públicos","","",,"",,Não aplicável.,Não aplicável.,FALSE
