Objeto do Contrato,Tipo de Procedimento,Tipo(s) de Contrato,CPVs,Entidade(s) Adjudicante(s),Entidade(s) Adjudicatária(s),Preço Contratual,Data de Publicação,Data de Celebração do Contrato,Prazo de Execução,Local de Execução,Fundamentação,Data de Fecho do Contrato,Preço Total Efetivo,Causas das Alterações ao Prazo,Causas das Alterações ao Preço,Estado,N.º registo do Acordo Quadro,Descrição do Acordo Quadro,Procedimento Centralizado
CATETER PARA CTO TRAILBLAZER - Ajuste Directo Nº 2420617,Ajuste Direto Regime Geral,Aquisição de bens móveis,"33000000-0, Equipamento médico, medicamentos e produtos para cuidados pessoais","Hospital Garcia de Orta, E. P. E. (506361470)","MEDTRONIC PORTUGAL, LDA. (504223933)","7.500,00 €",21-08-2017,27-04-2017,365 dias,"Portugal, Setúbal, Almada","Artigo 20.º, n.º 1, alínea a) do Código dos Contratos Públicos",,,,,,Não aplicável.,Não aplicável.,FALSE
CONJUNTO DE CAPSULAS DE VIDEOENDOSCOPIA - Ajuste Directo Nº 2438297,Ajuste Direto Regime Geral,Aquisição de bens móveis,"33000000-0, Equipamento médico, medicamentos e produtos para cuidados pessoais","Hospital Garcia de Orta, E. P. E. (506361470)","MEDTRONIC PORTUGAL, LDA. (504223933)","5.100,00 €",21-08-2017,03-08-2017,365 dias,"Portugal, Setúbal, Almada","Artigo 20.º, n.º 1, alínea a) do Código dos Contratos Públicos",,,,,,Não aplicável.,Não aplicável.,FALSE
CONJUNTO DE CAPSULAS DE VIDEOENDOSCOPIA - Ajuste Directo Nº 2431527,Ajuste Direto Regime Geral,Aquisição de bens móveis,"33000000-0, Equipamento médico, medicamentos e produtos para cuidados pessoais","Hospital Garcia de Orta, E. P. E. (506361470)","MEDTRONIC PORTUGAL, LDA. (504223933)","5.100,00 €",21-08-2017,25-07-2017,365 dias,"Portugal, Setúbal, Almada","Artigo 20.º, n.º 1, alínea a) do Código dos Contratos Públicos",,,,,,Não aplicável.,Não aplicável.,FALSE
KIT DETECCAO DE HPV - Ajuste Directo Nº 1407667,Ajuste Direto Regime Geral,Aquisição de bens móveis,"33000000-0, Equipamento médico, medicamentos e produtos para cuidados pessoais","Hospital Garcia de Orta, E. P. E. (506361470)",ROCHE DIAGNOSTICS (504282921),"7.476,00 €",21-08-2017,10-08-2017,365 dias,"Portugal, Setúbal, Almada","Artigo 20.º, n.º 1, alínea a) do Código dos Contratos Públicos",,,,,,Não aplicável.,Não aplicável.,FALSE
AQUISIÇÃO DE TESTES DE HEMOGLOBINA GLICADA - Ajuste Directo Nº 1402196,Ajuste Direto Regime Geral,Aquisição de bens móveis,"33000000-0, Equipamento médico, medicamentos e produtos para cuidados pessoais","Hospital Garcia de Orta, E. P. E. (506361470)",MENARINI DIAGNOSTICOS (502610069),"17.800,00 €",18-08-2017,30-11-2016,365 dias,"Portugal, Setúbal, Almada","Artigo 20.º, n.º 1, alínea a) do Código dos Contratos Públicos",,,,,,Não aplicável.,Não aplicável.,FALSE
CARDIOVERSOR DESFI.IMPL.RESSINCRONIZACAO VENTRICULAR - Ajuste Directo Nº 2430647,Ajuste Direto Regime Geral,Aquisição de bens móveis,"33000000-0, Equipamento médico, medicamentos e produtos para cuidados pessoais","Hospital Garcia de Orta, E. P. E. (506361470)",ST. JUDE MEDICAL PORTUGAL (504180746),"15.000,00 €",18-08-2017,14-08-2017,365 dias,"Portugal, Setúbal, Almada","Artigo 20.º, n.º 1, alínea a) do Código dos Contratos Públicos",,,,,,Não aplicável.,Não aplicável.,FALSE
CARDIOVERSOR DESFI.IMPL.RESSINCRONIZACAO VENTRICULAR - Ajuste Directo Nº 2430637,Ajuste Direto Regime Geral,Aquisição de bens móveis,"33000000-0, Equipamento médico, medicamentos e produtos para cuidados pessoais","Hospital Garcia de Orta, E. P. E. (506361470)",ST. JUDE MEDICAL PORTUGAL (504180746),"30.000,00 €",18-08-2017,14-08-2017,365 dias,"Portugal, Setúbal, Almada","Artigo 20.º, n.º 1, alínea a) do Código dos Contratos Públicos",,,,,,Não aplicável.,Não aplicável.,FALSE
MATERIAL OSTEOSINTESE / PRÓTESE - Ajuste Directo Nº 2436067,Ajuste Direto Regime Geral,Aquisição de bens móveis,"33000000-0, Equipamento médico, medicamentos e produtos para cuidados pessoais","Hospital Garcia de Orta, E. P. E. (506361470)",JOHNSON & JOHNSON (500153370),"5.484,43 €",18-08-2017,28-07-2017,365 dias,"Portugal, Setúbal, Almada","Artigo 20.º, n.º 1, alínea a) do Código dos Contratos Públicos",,,,,,Não aplicável.,Não aplicável.,FALSE
"AQUISIÇÃO DE LÂMINAS DE HISTOQUÍMICAC/COLOCAÇÃO DE EQUIPAMENTO, REAGENTES E CONSUMÍVEIS  - Ajuste Directo Nº 1500817",Ajuste Direto Regime Geral,Aquisição de bens móveis,"33000000-0, Equipamento médico, medicamentos e produtos para cuidados pessoais","Hospital Garcia de Orta, E. P. E. (506361470)",LUSOPALEX LDA. (503531588),"12.338,00 €",18-08-2017,13-03-2017,365 dias,"Portugal, Setúbal, Almada","Artigo 26.º, n.º 1, alínea a) do Código dos Contratos Públicos",,,,,,Não aplicável.,Não aplicável.,FALSE
"AQUISIÇÃO DE REAGENTES PARA RASTREIO DE AGENTES TRANSMISSÍVEIS EM DADORES DE SANGUE, ÓRGÃOS E TECIDOS PARA O SERVIÇO DE MEDICINA TRANSFUSIONAL - Ajuste Directo Nº 1500667",Ajuste Direto Regime Geral,Aquisição de bens móveis,"33000000-0, Equipamento médico, medicamentos e produtos para cuidados pessoais","Hospital Garcia de Orta, E. P. E. (506361470)","OCD CLINICAL DIAGNOSTICS PORT. UNIP., LDA (513032665)","86.004,80 €",18-08-2017,06-04-2017,365 dias,"Portugal, Setúbal, Almada","Artigo 26.º, n.º 1, alínea a) do Código dos Contratos Públicos",,,,,,Não aplicável.,Não aplicável.,FALSE
TUBOS DE COLHEITA PARA PESQUISA DE SANGUE OCULTO NAS FEZES- Ajuste Directo Nº 1406137,Ajuste Direto Regime Geral,Aquisição de bens móveis,"33000000-0, Equipamento médico, medicamentos e produtos para cuidados pessoais","Hospital Garcia de Orta, E. P. E. (506361470)",MENARINI DIAGNOSTICOS (502610069),"38.610,00 €",18-08-2017,18-07-2017,30 dias,"Portugal, Setúbal, Almada","Artigo 24.º, n.º 1, alínea c) do Código dos Contratos Públicos",,,,,,Não aplicável.,Não aplicável.,FALSE
REALIZAÇÃO DE TESTES DE CADEIAS LEVES LIVRES NO SORO COM COLOCAÇÃO DE EQUIPAMENTO - Ajuste Directo Nº 1400017,Ajuste Direto Regime Geral,Aquisição de bens móveis,"33000000-0, Equipamento médico, medicamentos e produtos para cuidados pessoais","Hospital Garcia de Orta, E. P. E. (506361470)",The Binding site group Ltd - Sucursal em Portugal (980525136),"58.500,00 €",17-08-2017,16-02-2017,365 dias,"Portugal, Setúbal, Almada","Artigo 20.º, n.º 1, alínea a) do Código dos Contratos Públicos",,,,,,Não aplicável.,Não aplicável.,FALSE
REAGENTES PARA REALIZAÇÃO DE TESTES OSNA -Ajste Directo Nº 1407267,Ajuste Direto Regime Geral,Aquisição de bens móveis,"33000000-0, Equipamento médico, medicamentos e produtos para cuidados pessoais","Hospital Garcia de Orta, E. P. E. (506361470)",SYSMEX ESPANA S.L. (B64928948),"7.457,23 €",17-08-2017,14-08-2017,365 dias,"Portugal, Setúbal, Almada","Artigo 20.º, n.º 1, alínea a) do Código dos Contratos Públicos",,,,,,Não aplicável.,Não aplicável.,FALSE
REAGENTES - Ajuste Directo Nº 1407547,Ajuste Direto Regime Geral,Aquisição de bens móveis,"33000000-0, Equipamento médico, medicamentos e produtos para cuidados pessoais","Hospital Garcia de Orta, E. P. E. (506361470)",ROCHE DIAGNOSTICS (504282921),"25.765,00 €",17-08-2017,14-08-2017,365 dias,"Portugal, Setúbal, Almada","Artigo 20.º, n.º 1, alínea a) do Código dos Contratos Públicos",,,,,,Não aplicável.,Não aplicável.,FALSE
REAGENTES - Ajuste Directo Nº 1506247,Ajuste Direto Regime Geral,Aquisição de bens móveis,"33000000-0, Equipamento médico, medicamentos e produtos para cuidados pessoais","Hospital Garcia de Orta, E. P. E. (506361470)",ROCHE DIAGNOSTICS (504282921),"46.407,00 €",17-08-2017,20-07-2017,365 dias,"Portugal, Setúbal, Almada","Artigo 24.º, n.º 1, alínea e) do Código dos Contratos Públicos",,,,,,Não aplicável.,Não aplicável.,FALSE
GASES MEDICINAIS - Ajuste Directo Nº 14054317,Ajuste Direto Regime Geral,Aquisição de bens móveis,"33000000-0, Equipamento médico, medicamentos e produtos para cuidados pessoais","Hospital Garcia de Orta, E. P. E. (506361470)","PRAXAIR PORTUGAL GASES, S.A. (501738916)","62.507,18 €",17-08-2017,06-04-2017,90 dias,"Portugal, Setúbal, Almada","Artigo 24.º, n.º 1, alínea e) do Código dos Contratos Públicos",,,,,,Não aplicável.,Não aplicável.,FALSE
OXIGÉNIO 100 % GÁS INAL RECIP. CRIOGÉNICO INALATÓRIA - Ajuste Directo Nº 14169917,Ajuste Direto Regime Geral,Aquisição de bens móveis,"33000000-0, Equipamento médico, medicamentos e produtos para cuidados pessoais","Hospital Garcia de Orta, E. P. E. (506361470)","PRAXAIR PORTUGAL GASES, S.A. (501738916)","73.000,00 €",17-08-2017,20-07-2017,365 dias,"Portugal, Setúbal, Almada","Artigo 24.º, n.º 1, alínea e) do Código dos Contratos Públicos",,,,,,Não aplicável.,Não aplicável.,FALSE
AQUISIÇÃO DE REAGENTES PARA PESQUISA POR PCR DE MRSA - Ajuste Directo Nº 1404107,Ajuste Direto Regime Geral,Aquisição de bens móveis,"33000000-0, Equipamento médico, medicamentos e produtos para cuidados pessoais","Hospital Garcia de Orta, E. P. E. (506361470)","WERFEN PORTUGAL, LDA (501086110)","19.250,00 €",17-08-2017,06-06-2017,365 dias,"Portugal, Setúbal, Almada","Artigo 20.º, n.º 1, alínea a) do Código dos Contratos Públicos",,,,,,Não aplicável.,Não aplicável.,FALSE
REAGENTES ( TRANSFERRINA / VITAMINA B12 / FOLATO ) - Ajuste Directo Nº 1504327,Ajuste Direto Regime Geral,Aquisição de bens móveis,"33000000-0, Equipamento médico, medicamentos e produtos para cuidados pessoais","Hospital Garcia de Orta, E. P. E. (506361470)",ROCHE DIAGNOSTICS (504282921),"16.120,00 €",17-08-2017,09-05-2017,365 dias,"Portugal, Setúbal, Almada","Artigo 24.º, n.º 1, alínea e) do Código dos Contratos Públicos",,,,,,Não aplicável.,Não aplicável.,FALSE
ENDOPROTESE - Ajuste Directo Nº 2449176,Ajuste Direto Regime Geral,Aquisição de bens móveis,"33000000-0, Equipamento médico, medicamentos e produtos para cuidados pessoais","Hospital Garcia de Orta, E. P. E. (506361470)",LUSOPALEX LDA. (503531588),"45.100,00 €",17-08-2017,07-12-2016,90 dias,"Portugal, Setúbal, Almada","Artigo 20.º, n.º 1, alínea a) do Código dos Contratos Públicos",,,,,,Não aplicável.,Não aplicável.,FALSE
AFLIBERCEPT 40 MG/ML SOL INJ FR 100 ΜL INTRAVÍTREO - Ajuste Directo Nº 11193717,Ao abrigo de acordo-quadro (art.º 259.º),Aquisição de bens móveis,"33600000-6, Produtos farmacêuticos","Hospital Garcia de Orta, E. P. E. (506361470)","BAYER PORTUGAL, S.A. (500043256)","9.553,92 €",16-08-2017,14-08-2017,30 dias,"Portugal, Setúbal, Almada",Artigo 259.º do Código dos Contratos Públicos,,,,,,1377420,Acordo quadro para fornecimento de medicamentos usados nas afecções oculares e otorrinolaringologias às instituições e serviços do serviço nacional de saúde,FALSE
SECUCINUMAB 150 MG/1 ML SOL INJ CANETA 1 ML SC - Ajuste Directo Nº 14195617,Ajuste Direto Regime Geral,Aquisição de bens móveis,"33600000-6, Produtos farmacêuticos","Hospital Garcia de Orta, E.P.E. (506361470)","NOVARTIS FARMA, S.A. (500063524)","9.060,66 €",16-08-2017,14-08-2017,365 dias,"Portugal, Setúbal, Almada","Artigo 24.º, n.º 1, alínea e) do Código dos Contratos Públicos",,,,,,Não aplicável.,Não aplicável.,FALSE
PLASMA HUMANO DO GRUPO AB SOL INJ FR 200 ML IV - Ajuste Directo Nº 11191017,Ao abrigo de acordo-quadro (art.º 259.º),Aquisição de bens móveis,"33600000-6, Produtos farmacêuticos","Hospital Garcia de Orta, E.P.E. (506361470)",OCTAPHARMA PROD.FARMACEUTICO (502820780),"26.775,00 €",16-08-2017,01-08-2017,30 dias,"Portugal, Setúbal, Almada",Artigo 259.º do Código dos Contratos Públicos,,,,,,1423488,ACORDO QUADRO PARA FORNECIMENTO DE DERIVADOS DO PLASMA HUMANO ÀS INSTITUIÇÕES E SERVIÇOS DO SERVIÇO NACIONAL DE SAÚDE CP 2015/9,FALSE
TENOFOVIR 245 MG COMP - Ajuste dIrecto Nº 14195017,Ajuste Direto Regime Geral,Aquisição de bens móveis,"33600000-6, Produtos farmacêuticos","Hospital Garcia de Orta, E.P.E. (506361470)","MYLAN, LDA. (502248793)","7.227,00 €",16-08-2017,14-08-2017,90 dias,"Portugal, Setúbal, Almada","Artigo 24.º, n.º 1, alínea c) do Código dos Contratos Públicos",,,,,,Não aplicável.,Não aplicável.,FALSE
SOMATROPINA 10 MG/1.5 ML SOL INJ CARTU 1.5 ML SC (OMNITROPE) - Ajuste Directo Nº 11194817,Ao abrigo de acordo-quadro (art.º 259.º),Aquisição de bens móveis,"33600000-6, Produtos farmacêuticos","Hospital Garcia de Orta, E.P.E. (506361470)","SANDOZ FARMACÊUTICA, LDA. (506985261)","6.750,00 €",16-08-2017,14-08-2017,90 dias,"Portugal, Setúbal, Almada",Artigo 259.º do Código dos Contratos Públicos,,,,,,1415640,CP 2015/7 - ACORDO QUADRO PARA FORNECIMENTO DE HORMONAS E OUTROS MEDICAMENTOS USADOS NO TRATAMENTO DAS DOENÇAS ENDÓCRINAS ÀS INSTITUIÇÕES E SERVIÇOS DO SERVIÇO NACIONAL DE SAÚDE,FALSE
REGORAFENIB 40 MG COMP - Ajuste Directo Nº 14198517,Ajuste Direto Regime Geral,Aquisição de bens móveis,"33600000-6, Produtos farmacêuticos","Hospital Garcia de Orta, E. P. E. (506361470)","BAYER PORTUGAL, S.A. (500043256)","5.979,96 €",16-08-2017,14-08-2017,180 dias,"Portugal, Setúbal, Almada","Artigo 24.º, n.º 1, alínea e) do Código dos Contratos Públicos",,,,,,Não aplicável.,Não aplicável.,FALSE
USTECINUMAB 130 MG/26 ML SOL INJ FR 26 ML IV - Ajuste Directo Nº 14192617,Ajuste Direto Regime Geral,Aquisição de bens móveis,"33600000-6, Produtos farmacêuticos","Hospital Garcia de Orta, E. P. E. (506361470)","JANSSEN CILAG FARMACÊUTICA, LDA. (500189412)","8.051,40 €",16-08-2017,14-08-2017,365 dias,"Portugal, Setúbal, Almada","Artigo 24.º, n.º 1, alínea e) do Código dos Contratos Públicos",,,,,,Não aplicável.,Não aplicável.,FALSE
LIDOCAINA 2% (CLORIDRATO) GELE BG 30G - Ajuste Directo Nº 11193417,Ao abrigo de acordo-quadro (art.º 259.º),Aquisição de bens móveis,"33600000-6, Produtos farmacêuticos","Hospital Garcia de Orta, E. P. E. (506361470)",SIDEFARMA - SOC. IND. EXPAN. FARM (500717419),"6.000,00 €",16-08-2017,14-08-2017,180 dias,"Portugal, Setúbal, Almada",Artigo 259.º do Código dos Contratos Públicos,,,,,,1370278,CP 2015/51 - Acordo quadro para fornecimento de medicamentos usados nas afeções cutâneas às instituições e serviços do serviço nacional de saúde,FALSE
ILOPROST 0.05 MG/0.5 ML SOL INJ FR 0.5 ML IV(ILOMEDIN) - Ajuste Directo Nº 11192217,Ao abrigo de acordo-quadro (art.º 259.º),Aquisição de bens móveis,"33600000-6, Produtos farmacêuticos","Hospital Garcia de Orta, E. P. E. (506361470)","BAYER PORTUGAL, S.A. (500043256)","8.947,68 €",16-08-2017,14-08-2017,180 dias,"Portugal, Setúbal, Almada",Artigo 259.º do Código dos Contratos Públicos,,,,,,2489595,CP 2016/18 - Acordo quadro para fornecimento de Medicamentos do Grupo 4: Sangue às Instituições e Serviços do Serviço Nacional de Saúde,FALSE
ABACAVIR 300 MG COMP - Ajuste Directo Nº 11195517,Ao abrigo de acordo-quadro (art.º 259.º),Aquisição de bens móveis,"33600000-6, Produtos farmacêuticos","Hospital Garcia de Orta, E. P. E. (506361470)","SANDOZ FARMACÊUTICA, LDA. (506985261)","10.371,60 €",16-08-2017,14-08-2017,30 dias,"Portugal, Setúbal, Almada",Artigo 259.º do Código dos Contratos Públicos,,,,,,2183729,Medicamentos antirretrovíricos para o tratamento da infeção por VIH,FALSE
RILPIVIRINA 25 MG COMP - Ajuste Directo Nº 11191317,Ao abrigo de acordo-quadro (art.º 259.º),Aquisição de bens móveis,"33600000-6, Produtos farmacêuticos","Hospital Garcia de Orta, E. P. E. (506361470)","JANSSEN CILAG FARMACÊUTICA, LDA. (500189412)","13.084,20 €",16-08-2017,14-08-2017,180 dias,"Portugal, Setúbal, Almada",Artigo 259.º do Código dos Contratos Públicos,,,,,,2183729,Medicamentos antirretrovíricos para o tratamento da infeção por VIH,FALSE
ESOMEPRAZOL 20 MG COMP - Ajuste Directo Nº 11189617,Ao abrigo de acordo-quadro (art.º 259.º),Aquisição de bens móveis,"33600000-6, Produtos farmacêuticos","Hospital Garcia de Orta, E. P. E. (506361470)","GENERIS FARMACEUTICA, S.A. (505625520)","5.213,60 €",16-08-2017,14-08-2017,90 dias,"Portugal, Setúbal, Almada",Artigo 259.º do Código dos Contratos Públicos,,,,,,2222779,Medicamentos do aparelho digestivo,FALSE
RITUXIMAB 500 MG/50 ML SOL INJ FR 50 ML IV - Ajuste Directo Nº 14182617,Ajuste Direto Regime Geral,Aquisição de bens móveis,"33600000-6, Produtos farmacêuticos","Hospital Garcia de Orta, E. P. E. (506361470)",PHARMAKERN PORTUGAL (507002571),"42.600,00 €",16-08-2017,14-08-2017,365 dias,"Portugal, Setúbal, Almada","Artigo 24.º, n.º 1, alínea c) do Código dos Contratos Públicos",,,,,,Não aplicável.,Não aplicável.,FALSE
DPCA - BAXTER JUNHO 2017 ( SOLUÇÕES DIÁLISE PERITONEAL ) - Ajuste Directo Nº 14184917,Ajuste Direto Regime Geral,Aquisição de bens móveis,"33600000-6, Produtos farmacêuticos","Hospital Garcia de Orta, E. P. E. (506361470)","BAXTER MÉDICO-FARMACÊUTICA, LDA. (503347345)","41.879,20 €",16-08-2017,14-08-2017,365 dias,"Portugal, Setúbal, Almada","Artigo 24.º, n.º 1, alínea e) do Código dos Contratos Públicos",,,,,,Não aplicável.,Não aplicável.,FALSE
ABACAVIR 600 MG + LAMIVUDINA 300 MG COMP - Ajuste Directo Nº 14181617,Ajuste Direto Regime Geral,Aquisição de bens móveis,"33600000-6, Produtos farmacêuticos","Hospital Garcia de Orta, E. P. E. (506361470)","TEVA PHARMA, PROD. FARMAC., LDA. (507045491)","31.412,70 €",16-08-2017,14-08-2017,180 dias,"Portugal, Setúbal, Almada","Artigo 24.º, n.º 1, alínea c) do Código dos Contratos Públicos",,,,,,Não aplicável.,Não aplicável.,FALSE
SEVOFLURANO LÍQ INAL VAPO FR 250 ML - 11189717,Ao abrigo de acordo-quadro (art.º 259.º),Aquisição de bens móveis,"33600000-6, Produtos farmacêuticos","Hospital Garcia de Orta, E. P. E. (506361470)","ABBVIE, LDA. (510229050)","19.066,32 €",16-08-2017,14-08-2017,90 dias,"Portugal, Setúbal, Almada",Artigo 259.º do Código dos Contratos Públicos,,,,,,2211341,Medicamentos anestésicos e relaxantes musculares,FALSE
LENALIDOMIDA 10 MG CÁPSULA - Ajste Directo Nº 14192117,Ajuste Direto Regime Geral,Aquisição de bens móveis,"33600000-6, Produtos farmacêuticos","Hospital Garcia de Orta, E. P. E. (506361470)","CELGENE SOCIEDADE UNIPESSOAL, LDA. (507791690)","9.374,60 €",16-08-2017,14-08-2017,60 dias,"Portugal, Setúbal, Almada","Artigo 24.º, n.º 1, alínea c) do Código dos Contratos Públicos",,,,,,Não aplicável.,Não aplicável.,FALSE
DARBEPOETINAS - Ajuste Directo Nº 11180917,Ao abrigo de acordo-quadro (art.º 259.º),Aquisição de bens móveis,"33600000-6, Produtos farmacêuticos","Hospital Garcia de Orta, E. P. E. (506361470)","AMGEN - BIOFARMACÊUTICA, LDA. (502942959)","55.400,00 €",14-08-2017,27-07-2017,90 dias,"Portugal, Setúbal, Almada",Artigo 259.º do Código dos Contratos Públicos,,,,,,1348990,Acordo quadro para fornecimento de Estimulantes da Eritropoiese às instituições e serviços do serviço nacional de saúde,FALSE
CLINDAMICINA 600 MG/4 ML SOL INJ FR 4 ML IM IV - Ajuste Directo Nº 11173917,Ao abrigo de acordo-quadro (art.º 259.º),Aquisição de bens móveis,"33600000-6, Produtos farmacêuticos","Hospital Garcia de Orta, E. P. E. (506361470)","LABESFAL, S.A. (501169580)","10.513,86 €",14-08-2017,28-07-2017,90 dias,"Portugal, Setúbal, Almada",Artigo 259.º do Código dos Contratos Públicos,,,,,,1326195,ACORDO QUADRO PARA FORNECIMENTO DE MEDICAMENTOS ANTI-INFECIOSOS: EXCETO ANTIVÍRICOS E ANTIFÚNGICOS ÀS INSTITUIÇÕES E SERVIÇOS DO SERVIÇO NACIONAL DE SAÚDE,FALSE
ALBUMINA HUMANA 200 MG/ML SOL INJ FR 50 ML IV - 11177217,Ao abrigo de acordo-quadro (art.º 259.º),Aquisição de bens móveis,"33600000-6, Produtos farmacêuticos","Hospital Garcia de Orta, E. P. E. (506361470)",GRIFOLS (502041285),"10.925,00 €",14-08-2017,14-07-2017,30 dias,"Portugal, Setúbal, Almada",Artigo 259.º do Código dos Contratos Públicos,,,,,,2124520,CP 2016/55 - Medicamentos Diversos,FALSE
"CONCENTRADO PROTROMBÍNICO II, VII, IX, X 500UI FR/AMP - Ajuste Directo Nº 11177117",Ao abrigo de acordo-quadro (art.º 259.º),Aquisição de bens móveis,"33600000-6, Produtos farmacêuticos","Hospital Garcia de Orta, E. P. E. (506361470)","CSL BEHRING, LDA. (503047201)","5.000,00 €",14-08-2017,25-07-2017,30 dias,"Portugal, Setúbal, Almada",Artigo 259.º do Código dos Contratos Públicos,,,,,,1423488,ACORDO QUADRO PARA FORNECIMENTO DE DERIVADOS DO PLASMA HUMANO ÀS INSTITUIÇÕES E SERVIÇOS DO SERVIÇO NACIONAL DE SAÚDE CP 2015/9,FALSE
DOLUTEGRAVIR 50 MG COMP - Ajuste Directo Nº 14177017,Ajuste Direto Regime Geral,Aquisição de bens móveis,"33600000-6, Produtos farmacêuticos","Hospital Garcia de Orta, E. P. E. (506361470)","VIIVHIV HEALTHCARE, UNIPESSOAL, LDA. (509117961)","58.520,13 €",14-08-2017,18-07-2017,365 dias,"Portugal, Setúbal, Almada","Artigo 24.º, n.º 1, alínea e) do Código dos Contratos Públicos",,,,,,Não aplicável.,Não aplicável.,FALSE
FERRO (CARBOXIMALTOSE) 500 MG/10ML SOL INJ FR IV -FERINJECT - Ajuste Directo Nº 11176917,Ao abrigo de acordo-quadro (art.º 259.º),Aquisição de bens móveis,"33600000-6, Produtos farmacêuticos","Hospital Garcia de Orta, E. P. E. (506361470)","OM PHARMA, S.A. (500207410)","24.302,88 €",14-08-2017,25-07-2017,60 dias,"Portugal, Setúbal, Almada",Artigo 259.º do Código dos Contratos Públicos,,,,,,2489595,CP 2016/18 - Acordo quadro para fornecimento de Medicamentos do Grupo 4: Sangue às Instituições e Serviços do Serviço Nacional de Saúde,FALSE
BOSENTANO 125 MG COMP - Ajuste Directo Nº 14176417,Ajuste Direto Regime Geral,Aquisição de bens móveis,"33600000-6, Produtos farmacêuticos","Hospital Garcia de Orta, E. P. E. (506361470)","ACTELION PHARMACEUTICALS PORTUGAL, LDA. (507336488)","49.291,20 €",14-08-2017,25-07-2017,180 dias,"Portugal, Setúbal, Almada","Artigo 24.º, n.º 1, alínea e) do Código dos Contratos Públicos",,,,,,Não aplicável.,Não aplicável.,FALSE
INFLIXIMAB 100 MG PÓ CONC SOL INJ FR IV - Ajuste Directo Nº 11174417,Ao abrigo de acordo-quadro (art.º 259.º),Aquisição de bens móveis,"33600000-6, Produtos farmacêuticos","Hospital Garcia de Orta, E. P. E. (506361470)","MERCK SHARP DOHME, LDA. (500191360)","32.375,00 €",14-08-2017,11-07-2017,90 dias,"Portugal, Setúbal, Almada",Artigo 259.º do Código dos Contratos Públicos,,,,,,1771819,CP 2015/6 - Acordo quadro para o fornecimento de Medicamentos do Foro Oncológico,FALSE
IMUNOGLOBULINA HUMANA NORMAL 100 MG/ML SOL INJ FR 200 ML IV - Ajuste Directo Nº 11173417,Ao abrigo de acordo-quadro (art.º 259.º),Aquisição de bens móveis,"33600000-6, Produtos farmacêuticos","Hospital Garcia de Orta, E. P. E. (506361470)","CSL BEHRING, LDA. (503047201)","77.980,00 €",14-08-2017,13-07-2017,30 dias,"Portugal, Setúbal, Almada",Artigo 259.º do Código dos Contratos Públicos,,,,,,2124520,CP 2016/55 - Medicamentos Diversos,FALSE
PIRFENIDONA 267 MG CÁPS - Ajuste Directo Nº 14173017,Ajuste Direto Regime Geral,Aquisição de bens móveis,"33600000-6, Produtos farmacêuticos","Hospital Garcia de Orta, E. P. E. (506361470)",ROCHE FARMACÊUTICA (500233810),"7.721,28 €",14-08-2017,25-07-2017,180 dias,"Portugal, Setúbal, Almada","Artigo 24.º, n.º 1, alínea e) do Código dos Contratos Públicos",,,,,,Não aplicável.,Não aplicável.,FALSE
NINTEDANIB 150 MG CÁPS - Ajuste Directo Nº 14172817,Ajuste Direto Regime Geral,Aquisição de bens móveis,"33600000-6, Produtos farmacêuticos","Hospital Garcia de Orta, E. P. E. (506361470)","UNILFARMA, LDA. (500293023)","10.199,99 €",14-08-2017,11-07-2017,180 dias,"Portugal, Setúbal, Almada","Artigo 24.º, n.º 1, alínea e) do Código dos Contratos Públicos",,,,,,Não aplicável.,Não aplicável.,FALSE
AZACITIDINA 100 MG PÓ SUSP INJ - Ajuste Directo Nº 14172017,Ajuste Direto Regime Geral,Locação de bens móveis<br/>Aquisição de bens móveis,"33600000-6, Produtos farmacêuticos","Hospital Garcia de Orta, E. P. E. (506361470)","CELGENE SOCIEDADE UNIPESSOAL, LDA. (507791690)","15.930,00 €",14-08-2017,25-07-2017,180 dias,"Portugal, Setúbal, Almada","Artigo 24.º, n.º 1, alínea e) do Código dos Contratos Públicos",,,,,,Não aplicável.,Não aplicável.,FALSE
LENALIDOMIDA 25 MG CÁPSULA - Ajuste Directo Nº 14171817,Ajuste Direto Regime Geral,Aquisição de bens móveis,"33600000-6, Produtos farmacêuticos","Hospital Garcia de Orta, E. P. E. (506361470)","CELGENE SOCIEDADE UNIPESSOAL, LDA. (507791690)","97.508,50 €",14-08-2017,27-07-2017,180 dias,"Portugal, Setúbal, Almada","Artigo 24.º, n.º 1, alínea e) do Código dos Contratos Públicos",,,,,,Não aplicável.,Não aplicável.,FALSE
ABIRATERONA 250 MG COMP - Ajuste Directo Nº 11171617,Ao abrigo de acordo-quadro (art.º 259.º),Aquisição de bens móveis,"33600000-6, Produtos farmacêuticos","Hospital Garcia de Orta, E. P. E. (506361470)","JANSSEN CILAG FARMACÊUTICA, LDA. (500189412)","43.387,20 €",14-08-2017,07-07-2017,30 dias,"Portugal, Setúbal, Almada",Artigo 259.º do Código dos Contratos Públicos,,,,,,1771819,CP 2015/6 - Acordo quadro para o fornecimento de Medicamentos do Foro Oncológico,FALSE
IMIGLUCERASE 400 U PÓ SOL INJ FR IV - Ajuste Directo Nº 11171417,Ao abrigo de acordo-quadro (art.º 259.º),Aquisição de bens móveis,"33600000-6, Produtos farmacêuticos","Hospital Garcia de Orta, E. P. E. (506361470)","SANOFI - PRODUTOS FARMACÊUTICOS, LDA. (500134960)","50.670,40 €",14-08-2017,07-07-2017,60 dias,"Portugal, Setúbal, Almada",Artigo 259.º do Código dos Contratos Públicos,,,,,,1338581,"Acordo quadro para fornecimento de Medicação antialérgica, medicamentos usados no tratamento de intoxicações, vitaminas e sais minerais e grupo 20.9 - outros produtos às instituições e serviços do serviço nacional de saúde",FALSE
MIFEPRISTONA 200 MG COMP - Ajuste Directo Nº 14170417,Ajuste Direto Regime Geral,Aquisição de bens móveis,"33600000-6, Produtos farmacêuticos","Hospital Garcia de Orta, E. P. E. (506361470)",DISTRIFARMA (502948663),"6.060,00 €",14-08-2017,05-07-2017,180 dias,"Portugal, Setúbal, Almada","Artigo 24.º, n.º 1, alínea e) do Código dos Contratos Públicos",,,,,,Não aplicável.,Não aplicável.,FALSE
OSIMERTINIB 80 MG COMP - Ajuste Directo Nº 14170017,Ajuste Direto Regime Geral,Aquisição de bens móveis,"33600000-6, Produtos farmacêuticos","Hospital Garcia de Orta, E. P. E. (506361470)","ASTRAZENECA, LDA. (502942240)","17.400,00 €",11-08-2017,04-07-2017,180 dias,"Portugal, Setúbal, Almada","Artigo 24.º, n.º 1, alínea e) do Código dos Contratos Públicos",,,,,,Não aplicável.,Não aplicável.,FALSE
PERTUZUMAB 420 MG/14 ML SOL INJ FR 14 ML IV - Ajuste Directo Nº 11169717,Ao abrigo de acordo-quadro (art.º 259.º),Aquisição de bens móveis,"33600000-6, Produtos farmacêuticos","Hospital Garcia de Orta, E. P. E. (506361470)",ROCHE FARMACÊUTICA (500233810),"96.657,75 €",11-08-2017,06-07-2017,180 dias,"Portugal, Setúbal, Almada",Artigo 259.º do Código dos Contratos Públicos,,,,,,1771819,CP 2015/6 - Acordo quadro para o fornecimento de Medicamentos do Foro Oncológico,FALSE
IPRATRÓPIO (BROMETO) 20 ΜG/DOSE SOL PRESSU INAL RECIP PRESSU 200 DOSE(S) - Ajuste Directo Nº 11169017,Ao abrigo de acordo-quadro (art.º 259.º),Aquisição de bens móveis,"33600000-6, Produtos farmacêuticos","Hospital Garcia de Orta, E. P. E. (506361470)","UNILFARMA, LDA. (500293023)","5.340,00 €",11-08-2017,04-07-2017,90 dias,"Portugal, Setúbal, Almada",Artigo 259.º do Código dos Contratos Públicos,,,,,,1638654,CP 2015/12 - Acordo quadro para fornecimento de Medicamentos do Aparelho Respiratório às Instituições e Serviços do Serviço Nacional de Saúde,FALSE
DERIVADOS PLASMA P259-AC-2017-95 - Ajuste Directo Nº 11169217,Ao abrigo de acordo-quadro (art.º 259.º),Aquisição de bens móveis,"33600000-6, Produtos farmacêuticos","Hospital Garcia de Orta, E. P. E. (506361470)",GRIFOLS (502041285),"106,56 €",11-08-2017,04-07-2017,180 dias,"Portugal, Setúbal, Almada",Artigo 259.º do Código dos Contratos Públicos,,,,,,1423488,ACORDO QUADRO PARA FORNECIMENTO DE DERIVADOS DO PLASMA HUMANO ÀS INSTITUIÇÕES E SERVIÇOS DO SERVIÇO NACIONAL DE SAÚDE CP 2015/9,FALSE
DERIVADOS PLASMA P259-AC-2017-95 - Ajuste Directo Nº11169217,Ao abrigo de acordo-quadro (art.º 259.º),Aquisição de bens móveis,"33600000-6, Produtos farmacêuticos","Hospital Garcia de Orta, E. P. E. (506361470)","CSL BEHRING, LDA. (503047201)","8.032,00 €",11-08-2017,04-07-2017,180 dias,"Portugal, Setúbal, Almada",Artigo 259.º do Código dos Contratos Públicos,,,,,,1423488,ACORDO QUADRO PARA FORNECIMENTO DE DERIVADOS DO PLASMA HUMANO ÀS INSTITUIÇÕES E SERVIÇOS DO SERVIÇO NACIONAL DE SAÚDE CP 2015/9,FALSE
CAB 27621- MEDICAMENTOS P259-AC-2017-56 ( CICLOFOSFAMIDA 1000 MG PÓ SOL INJ FR IV )  - Ajuste Directo Nº 11168617,Ao abrigo de acordo-quadro (art.º 259.º),Aquisição de bens móveis,"33600000-6, Produtos farmacêuticos","Hospital Garcia de Orta, E. P. E. (506361470)","BAXTER MÉDICO-FARMACÊUTICA, LDA. (503347345)","5.893,88 €",11-08-2017,04-07-2017,180 dias,"Portugal, Setúbal, Almada",Artigo 259.º do Código dos Contratos Públicos,,,,,,1771819,CP 2015/6 - Acordo quadro para o fornecimento de Medicamentos do Foro Oncológico,FALSE
DESFLUORANO LÍQ INAL VAPO FR 240 ML - Ajuste Directo Nº 11165817,Ao abrigo de acordo-quadro (art.º 259.º),Aquisição de bens móveis,"33600000-6, Produtos farmacêuticos","Hospital Garcia de Orta, E. P. E. (506361470)","BAXTER MÉDICO-FARMACÊUTICA, LDA. (503347345)","12.090,24 €",11-08-2017,28-06-2017,90 dias,"Portugal, Setúbal, Almada",Artigo 259.º do Código dos Contratos Públicos,,,,,,2211341,Medicamentos anestésicos e relaxantes musculares,FALSE
RITUXIMAB 500 MG/50 ML SOL INJ FR 50 ML IV - Ajuste Directo Nº 14165717,Ajuste Direto Regime Geral,Aquisição de bens móveis,"33600000-6, Produtos farmacêuticos","Hospital Garcia de Orta, E. P. E. (506361470)",PHARMAKERN PORTUGAL (507002571),"14.200,00 €",11-08-2017,30-06-2017,180 dias,"Portugal, Setúbal, Almada","Artigo 24.º, n.º 1, alínea c) do Código dos Contratos Públicos",,,,,,Não aplicável.,Não aplicável.,FALSE
PEGVISOMANT 15 MG PÓ SOL INJ FR SC - Ajuste Directo Nº 11165017,Ao abrigo de acordo-quadro (art.º 259.º),Aquisição de bens móveis,"33600000-6, Produtos farmacêuticos","Hospital Garcia de Orta, E.P.E. (506361470)","PFIZER BIOFARMACÊUTICA, SOC. UNIP., LDA. (513300376)","7.662,09 €",11-08-2017,07-07-2017,90 dias,"Portugal, Setúbal, Almada",Artigo 259.º do Código dos Contratos Públicos,,,,,,1415640,CP 2015/7 - ACORDO QUADRO PARA FORNECIMENTO DE HORMONAS E OUTROS MEDICAMENTOS USADOS NO TRATAMENTO DAS DOENÇAS ENDÓCRINAS ÀS INSTITUIÇÕES E SERVIÇOS DO SERVIÇO NACIONAL DE SAÚDE,FALSE
OMALIZUMAB 150 MG/1 ML SOL INJ SER 1 ML SC - Ajuste Directo Nº 11164917,Ao abrigo de acordo-quadro (art.º 259.º),Aquisição de bens móveis,"33600000-6, Produtos farmacêuticos","Hospital Garcia de Orta, E.P.E. (506361470)","NOVARTIS FARMA, S.A. (500063524)","12.323,60 €",11-08-2017,07-07-2017,30 dias,"Portugal, Setúbal, Almada",Artigo 259.º do Código dos Contratos Públicos,,,,,,1638654,CP 2015/12 - Acordo quadro para fornecimento de Medicamentos do Aparelho Respiratório às Instituições e Serviços do Serviço Nacional de Saúde,FALSE
FOSFATOS SOL RECT CANULA (ENEMA) - Ajuste Directo Nº 14164817,Ajuste Direto Regime Geral,Aquisição de bens móveis,"33600000-6, Produtos farmacêuticos","Hospital Garcia de Orta, E.P.E. (506361470)","JABA RECORDATI, S.A. (500492867)","5.040,00 €",11-08-2017,21-07-2017,180 dias,"Portugal, Setúbal, Almada","Artigo 24.º, n.º 1, alínea e) do Código dos Contratos Públicos",,,,,,Não aplicável.,Não aplicável.,FALSE
GLATIRÂMERO (ACETATO) 20 MG PÓ SOL INJ FR SC - Ajuste Directo Nº11164517,Ao abrigo de acordo-quadro (art.º 259.º),Aquisição de bens móveis,"33600000-6, Produtos farmacêuticos","Hospital Garcia de Orta, E.P.E. (506361470)","TEVA PHARMA, PROD. FARMAC., LDA. (507045491)","5.550,47 €",11-08-2017,07-07-2017,30 dias,"Portugal, Setúbal, Almada",Artigo 259.º do Código dos Contratos Públicos,,,,,,1771819,CP 2015/6 - Acordo quadro para o fornecimento de Medicamentos do Foro Oncológico,FALSE
CINACALCET 30 MG COMP - Ajuste Directo Nº 11164217,Ao abrigo de acordo-quadro (art.º 259.º),Aquisição de bens móveis,"33600000-6, Produtos farmacêuticos","Hospital Garcia de Orta, E.P.E. (506361470)","AMGEN - BIOFARMACÊUTICA, LDA. (502942959)","14.026,88 €",11-08-2017,07-07-2017,90 dias,"Portugal, Setúbal, Almada",Artigo 259.º do Código dos Contratos Públicos,,,,,,1410779,CP 2015/47 - Acordo quadro para fornecimento de medicamentos do aparelho locomotor às instituições e serviços do serviço nacional de saúde,FALSE
DARBEPOETINAS - Ajuste Directo Nº 11164117,Ao abrigo de acordo-quadro (art.º 259.º),Aquisição de bens móveis,"33600000-6, Produtos farmacêuticos","Hospital Garcia de Orta, E.P.E. (506361470)","AMGEN - BIOFARMACÊUTICA, LDA. (502942959)","64.400,00 €",11-08-2017,29-06-2017,30 dias,"Portugal, Setúbal, Almada",Artigo 259.º do Código dos Contratos Públicos,,,,,,1348990,Acordo quadro para fornecimento de Estimulantes da Eritropoiese às instituições e serviços do serviço nacional de saúde,FALSE
NIVOLUMAB'S - Ajuste Directo Nº 14163717,Ajuste Direto Regime Geral,Aquisição de bens móveis,"33600000-6, Produtos farmacêuticos","Hospital Garcia de Orta, E.P.E. (506361470)",BRISTOL-MYERS SQUIBB PORTUGAL (500207879),"58.608,00 €",11-08-2017,29-06-2017,180 dias,"Portugal, Setúbal, Almada","Artigo 24.º, n.º 1, alínea e) do Código dos Contratos Públicos",,,,,,Não aplicável.,Não aplicável.,FALSE
CETAMINA 500 MG/10 ML SOL INJ FR 10 ML IM IV - Ajuste Directo Nº 11163517,Ao abrigo de acordo-quadro (art.º 259.º),Aquisição de bens móveis,"33600000-6, Produtos farmacêuticos","Hospital Garcia de Orta, E. P. E. (506361470)",HIKMA FARMACEUTICA (PORTUGAL) S.A. (502266791),"9.360,00 €",11-08-2017,27-06-2017,120 dias,"Portugal, Setúbal, Almada",Artigo 259.º do Código dos Contratos Públicos,,,,,,2211341,Medicamentos anestésicos e relaxantes musculares,FALSE
VORICONAZOL 200 MG PÓ SOL INJ FR IV - Ajuste Directo Nº 11162217,Ao abrigo de acordo-quadro (art.º 259.º),Aquisição de bens móveis,"33600000-6, Produtos farmacêuticos","Hospital Garcia de Orta, E. P. E. (506361470)",LAB. PFIZER (500162166),"5.146,56 €",11-08-2017,29-06-2017,90 dias,"Portugal, Setúbal, Almada",Artigo 259.º do Código dos Contratos Públicos,,,,,,1422736,CP 2015/41 - ACORDO QUADRO PARA FORNECIMENTO DE MEDICAMENTOS ANTI-INFECIOSOS: ANTIVÍRICOS E ANTIFÚNGICOS ÀS INSTITUIÇÕES E SERVIÇOS DO SERVIÇO NACIONAL DE SAÚDE,FALSE
SUGAMADEX 100 MG/ML SOL INJ FR 2 ML IV - Ajuste Directo Nº 11161817,Ao abrigo de acordo-quadro (art.º 259.º),Aquisição de bens móveis,"33600000-6, Produtos farmacêuticos","Hospital Garcia de Orta, E. P. E. (506361470)","MERCK SHARP DOHME, LDA. (500191360)","15.560,00 €",11-08-2017,28-06-2017,365 dias,"Portugal, Setúbal, Almada",Artigo 259.º do Código dos Contratos Públicos,,,,,,1338581,"Acordo quadro para fornecimento de Medicação antialérgica, medicamentos usados no tratamento de intoxicações, vitaminas e sais minerais e grupo 20.9 - outros produtos às instituições e serviços do serviço nacional de saúde",FALSE
