Objeto do Contrato,Tipo de Procedimento,Tipo(s) de Contrato,CPVs,Entidade(s) Adjudicante(s),Entidade(s) Adjudicatária(s),Preço Contratual,Data de Publicação,Data de Celebração do Contrato,Prazo de Execução,Local de Execução,Fundamentação,Data de Fecho do Contrato,Preço Total Efetivo,Causas das Alterações ao Prazo,Causas das Alterações ao Preço,Estado,N.º registo do Acordo Quadro,Descrição do Acordo Quadro,Procedimento Centralizado
1064818 - Rifampicina 600 mg pó sol inj AUE 2588 - Duxpharma,Ajuste Direto Regime Geral,Aquisição de bens móveis,"33600000-6, Produtos farmacêuticos","Centro Hospitalar Vila Nova de Gaia - Espinho, E. P. E. (508142156)","Duxpharma Unipessoal, Lda (510803679)","8.700,00 €",21-02-2018,14-02-2018,365 dias,"Portugal, Porto, Vila Nova de Gaia","Artigo 24.º, n.º 1, alínea e), subalínea ii) do Código dos Contratos Públicos",,,,,,Não aplicável.,Não aplicável.,FALSE
1068818 - CEFTAZIDIMA 2000 MG + AVIBACTAM 500 MG PÓ CONC SOL INJ FR IV,Ajuste Direto Regime Geral,Aquisição de bens móveis,"33600000-6, Produtos farmacêuticos","Centro Hospitalar Vila Nova de Gaia - Espinho, E. P. E. (508142156)",Clinigen Healthcare Ltd (100125104),"14.098,00 €",21-02-2018,20-02-2018,30 dias,"Portugal, Porto, Vila Nova de Gaia","Artigo 21.º, n.º 1, alínea c) do Código dos Contratos Públicos",,,,,,Não aplicável.,Não aplicável.,FALSE
Medicamentos Centralizada 1 mês - Ferrer,Ajuste Direto Regime Geral,Aquisição de bens móveis,"33600000-6, Produtos farmacêuticos","Centro Hospitalar Vila Nova de Gaia - Espinho, E. P. E. (508142156)","Ferrer Portugal, SA (500069190)","1.905,38 €",21-02-2018,14-02-2018,30 dias,"Portugal, Porto, Vila Nova de Gaia","Artigo 21.º, n.º 1, alínea c) do Código dos Contratos Públicos",,,,,,Não aplicável.,Não aplicável.,FALSE
1030518 - Medicamentos Centralizada 1 mês - Merck SA,Ajuste Direto Regime Geral,Aquisição de bens móveis,"33600000-6, Produtos farmacêuticos","Centro Hospitalar Vila Nova de Gaia - Espinho, E. P. E. (508142156)","MERCK, S.A. (500650870)","52.569,21 €",21-02-2018,14-02-2018,30 dias,"Portugal, Porto, Vila Nova de Gaia","Artigo 21.º, n.º 1, alínea c) do Código dos Contratos Públicos",,,,,,Não aplicável.,Não aplicável.,FALSE
Aquisição de 125 Postos de Trabalho,Ao abrigo de acordo-quadro (art.º 259.º),Aquisição de bens móveis,"30000000-9, Máquinas, equipamento e material de escritório e de informática, excepto mobiliário e pacotes de programas (software)","Centro Hospitalar Vila Nova de Gaia - Espinho, E. P. E. (508142156)","Basedois - Informática e Telecomunicações, LDA (501333401)","78.875,00 €",20-02-2018,27-01-2018,30 dias,"Portugal, Porto, Vila Nova de Gaia",Artigo 259.º do Código dos Contratos Públicos,,,,,,1196657,Acordo Quadro para aquisição e aluguer operacional de equipamento informático,FALSE
Aquisição de Camas Hospitalares Motorizadas - PCGripe,Ajuste Direto Regime Geral,Aquisição de bens móveis,"33192120-9, Camas de hospital","Centro Hospitalar Vila Nova de Gaia - Espinho, E. P. E. (508142156)",Vasconcelos & Freitas Lda (501054006),"22.500,00 €",20-02-2018,29-01-2018,28 dias,"Portugal, Porto, Vila Nova de Gaia","Artigo 20.º, n.º 1, alínea a) do Código dos Contratos Públicos",,,,,,Não aplicável.,Não aplicável.,FALSE
Aquisição de Equipamento de Estomatologia,Ajuste Direto Regime Geral,Aquisição de bens móveis,"33126000-9, Aparelhos para estomatologia",Centro Hospitalar Vila Nova de Gaia (CHNVG) (508142156),MONTELLANO (500196494),"15.500,00 €",20-02-2018,05-02-2018,30 dias,"Portugal, Porto, Vila Nova de Gaia","Artigo 20.º, n.º 1, alínea a) do Código dos Contratos Públicos",,,,,,Não aplicável.,Não aplicável.,FALSE
Aquisição de Mesa Operatória - Bloco Operatório,Ajuste Direto Regime Geral,Aquisição de bens móveis,"33192230-3, Mesas de cirurgia","Centro Hospitalar Vila Nova de Gaia - Espinho, E. P. E. (508142156)","GETINGE GROUP PORTUGAL, UNIP LDA (MAQUET PORT) (506819698)","69.675,69 €",20-02-2018,05-02-2018,45 dias,"Portugal, Porto, Vila Nova de Gaia","Artigo 24.º, n.º 1, alínea c) do Código dos Contratos Públicos",,,,,,Não aplicável.,Não aplicável.,FALSE
Prótese p/ Amputação Transfemural - AAT,Ajuste Direto Regime Geral,Aquisição de bens móveis,"33100000-1, Equipamento médico","Centro Hospitalar Vila Nova de Gaia - Espinho, E. P. E. (508142156)",CENTRO REABILITAÇÃO PROFISSIONAL DE GAIA (504791834),"6.881,45 €",19-02-2018,19-02-2018,10 dias,"Portugal, Porto, Vila Nova de Gaia","Artigo 20.º, n.º 1, alínea a) do Código dos Contratos Públicos",,,,,,Não aplicável.,Não aplicável.,FALSE
Aquisição de Material de Imobilização e Perneiras de Compressão,Concurso público,Aquisição de bens móveis,"33140000-3, Material médico de consumo","Centro Hospitalar Vila Nova de Gaia - Espinho, E. P. E. (508142156)","MEDTRONIC PORTUGAL, LDA (504223933)","32.640,00 €",19-02-2018,24-01-2018,330 dias,"Portugal, Porto, Vila Nova de Gaia","Artigo 20.º, n.º 1, alínea b) do Código dos Contratos Públicos",,,,,,Não aplicável.,Não aplicável.,FALSE
Aquisição de Material de Imobilização e Perneiras de Compressão,Concurso público,Aquisição de bens móveis,"33140000-3, Material médico de consumo","Centro Hospitalar Vila Nova de Gaia - Espinho, E. P. E. (508142156)","FACTOR PLUS - PROD. MED. E HOSPITAL., LDA. (502810645)","1.159,00 €",19-02-2018,24-01-2018,330 dias,"Portugal, Porto, Vila Nova de Gaia","Artigo 20.º, n.º 1, alínea b) do Código dos Contratos Públicos",,,,,,Não aplicável.,Não aplicável.,FALSE
Aquisição de Material de Imobilização e Perneiras de Compressão,Concurso público,Aquisição de bens móveis,"33140000-3, Material médico de consumo","Centro Hospitalar Vila Nova de Gaia - Espinho, E. P. E. (508142156)","AVIQUIMICA- IMPORTAÇÃO E MANUFACTURAS, LDA (500039720)","7.472,56 €",19-02-2018,24-01-2018,330 dias,"Portugal, Porto, Vila Nova de Gaia","Artigo 20.º, n.º 1, alínea b) do Código dos Contratos Públicos",,,,,,Não aplicável.,Não aplicável.,FALSE
Aquisição de Cuvetes p/tempo coagulação activada,Ajuste Direto Regime Geral,Aquisição de bens móveis,"33696000-5, Reagentes e meios de contraste",Centro Hospitalar Vila Nova de Gaia (CHNVG) (508142156),"MEDTRONIC PORTUGAL, LDA (504223933)","14.750,00 €",19-02-2018,12-01-2018,365 dias,"Portugal, Porto, Vila Nova de Gaia","Artigo 24.º, n.º 1, alínea e) do Código dos Contratos Públicos",,,,,,Não aplicável.,Não aplicável.,FALSE
Medicamentos Centralizada 1 mês - Celgene,Ajuste Direto Regime Geral,Aquisição de bens móveis,"33600000-6, Produtos farmacêuticos",Centro Hospitalar Vila Nova de Gaia (CHNVG) (508142156),"CELGENE - Sociedade Unipessoal, Lda (507791690)","60.564,75 €",16-02-2018,06-02-2018,30 dias,"Portugal, Porto, Vila Nova de Gaia","Artigo 24.º, n.º 1, alínea c) do Código dos Contratos Públicos",,,,,,Não aplicável.,Não aplicável.,FALSE
Medicamentos Centralizada 1 mês - Pharmakern,Ajuste Direto Regime Geral,Aquisição de bens móveis,"33600000-6, Produtos farmacêuticos","Centro Hospitalar Vila Nova de Gaia - Espinho, E. P. E. (508142156)","PharmaKERN Portugal - Prod. Farmac., Lda (507002571)","41.044,00 €",16-02-2018,30-01-2018,30 dias,"Portugal, Porto, Vila Nova de Gaia","Artigo 24.º, n.º 1, alínea c) do Código dos Contratos Públicos",,,,,,Não aplicável.,Não aplicável.,FALSE
Centralizada Bristol 1 mês,Ajuste Direto Regime Geral,Aquisição de bens móveis,"33600000-6, Produtos farmacêuticos",Centro Hospitalar Vila Nova de Gaia (CHNVG) (508142156),Bristol-Myers Squibb (500048193),"6.236,48 €",16-02-2018,24-01-2018,30 dias,"Portugal, Porto, Vila Nova de Gaia","Artigo 24.º, n.º 1, alínea c) do Código dos Contratos Públicos",,,,,,Não aplicável.,Não aplicável.,FALSE
Centralizada firma actelion 1 mês,Ajuste Direto Regime Geral,Aquisição de bens móveis,"33600000-6, Produtos farmacêuticos",Centro Hospitalar Vila Nova de Gaia (CHNVG) (508142156),"Actelion Pharmaceuticals Portugal, Lda (507336488)","27.630,00 €",16-02-2018,24-01-2018,30 dias,"Portugal, Porto, Vila Nova de Gaia","Artigo 24.º, n.º 1, alínea c) do Código dos Contratos Públicos",,,,,,Não aplicável.,Não aplicável.,FALSE
centralizada Ipsen 1 mês,Ajuste Direto Regime Geral,Aquisição de bens móveis,"33600000-6, Produtos farmacêuticos",Centro Hospitalar Vila Nova de Gaia (CHNVG) (508142156),Ipsen Portugal (502609800),"14.332,84 €",16-02-2018,24-01-2018,30 dias,"Portugal, Porto, Vila Nova de Gaia","Artigo 24.º, n.º 1, alínea c) do Código dos Contratos Públicos",,,,,,Não aplicável.,Não aplicável.,FALSE
Medicamentos centralizada 1 mês - Astellas,Ajuste Direto Regime Geral,Aquisição de bens móveis,"33600000-6, Produtos farmacêuticos",Centro Hospitalar Vila Nova de Gaia (CHNVG) (508142156),Astellas Farma (502540249),"29.783,29 €",16-02-2018,14-02-2018,30 dias,"Portugal, Porto, Vila Nova de Gaia","Artigo 24.º, n.º 1, alínea c) do Código dos Contratos Públicos",,,,,,Não aplicável.,Não aplicável.,FALSE
1032718 - medicamentos centralizada 1 mês - Teva,Ajuste Direto Regime Geral,Aquisição de bens móveis,"33600000-6, Produtos farmacêuticos","Centro Hospitalar Vila Nova de Gaia - Espinho, E. P. E. (508142156)",TEVA Pharma - Produtos Farmacêuticos (507045491),"25.215,41 €",16-02-2018,14-02-2018,30 dias,"Portugal, Porto, Vila Nova de Gaia","Artigo 24.º, n.º 1, alínea c) do Código dos Contratos Públicos",,,,,,Não aplicável.,Não aplicável.,FALSE
Medicamentos Centralizada 1 mês - CSL Behring,Ajuste Direto Regime Geral,Aquisição de bens móveis,"33600000-6, Produtos farmacêuticos","Centro Hospitalar Vila Nova de Gaia - Espinho, E. P. E. (508142156)","CSL Behring, Lda (503047201)","13.034,00 €",16-02-2018,14-02-2018,30 dias,"Portugal, Porto, Vila Nova de Gaia","Artigo 24.º, n.º 1, alínea c) do Código dos Contratos Públicos",,,,,,Não aplicável.,Não aplicável.,FALSE
Aquisição de Reagentes para Patologia Clinica,Ajuste Direto Regime Geral,Aquisição de bens móveis,"33696000-5, Reagentes e meios de contraste","Centro Hospitalar Vila Nova de Gaia - Espinho, E. P. E. (508142156)","ALERE,LDA. (502518863)","28.553,60 €",16-02-2018,12-01-2018,365 dias,"Portugal, Porto, Vila Nova de Gaia","Artigo 24.º, n.º 1, alínea e) do Código dos Contratos Públicos",,,,,,Não aplicável.,Não aplicável.,FALSE
"Aquisição de Reagentes para a Realização de Sedimentos Urinários Utilizados no Equipamento """"Sysmex MDO UX2000""""",Ajuste Direto Regime Geral,Aquisição de bens móveis,"33696000-5, Reagentes e meios de contraste","Centro Hospitalar Vila Nova de Gaia - Espinho, E. P. E. (508142156)","Emilio de Azevedo Campos, S.A. (500094853)","65.175,00 €",16-02-2018,05-02-2018,365 dias,"Portugal, Porto, Vila Nova de Gaia","Artigo 24.º, n.º 1, alínea e) do Código dos Contratos Públicos",,,,,,Não aplicável.,Não aplicável.,FALSE
"Aquisição de Reagentes Utilizados no Equipamento """"ROTEM""""",Ajuste Direto Regime Geral,Aquisição de bens móveis,"33696000-5, Reagentes e meios de contraste","Centro Hospitalar Vila Nova de Gaia - Espinho, E. P. E. (508142156)","Biometa Tecnologia Y Sistemas, S.A. (A33553645)","27.500,00 €",16-02-2018,05-02-2018,365 dias,"Portugal, Porto, Vila Nova de Gaia","Artigo 24.º, n.º 1, alínea e) do Código dos Contratos Públicos",,,,,,Não aplicável.,Não aplicável.,FALSE
"Aquisição de Controlos de Qualidade Externos-Células-Equipamento """"IH500""""",Ajuste Direto Regime Geral,Aquisição de bens móveis,"33696000-5, Reagentes e meios de contraste","Centro Hospitalar Vila Nova de Gaia - Espinho, E. P. E. (508142156)","Bio-Rad Laboratóries, Lda. (501301321)","11.580,14 €",16-02-2018,01-02-2018,180 dias,"Portugal, Porto, Vila Nova de Gaia","Artigo 24.º, n.º 1, alínea e) do Código dos Contratos Públicos",,,,,,Não aplicável.,Não aplicável.,FALSE
Manutenção CircleVCI,Ajuste Direto Regime Geral,Aquisição de serviços,"72000000-5, Serviços de TI: consultoria, desenvolvimento de software, Internet e apoio","Centro Hospitalar Vila Nova de Gaia - Espinho, E. P. E. (508142156)",Circle cardiovascular imaging B.V. (82306884b01),"5.925,00 €",15-02-2018,14-02-2018,365 dias,"Portugal, Porto, Vila Nova de Gaia","Artigo 24.º, n.º 1, alínea e) do Código dos Contratos Públicos",,,,,,Não aplicável.,Não aplicável.,FALSE
Consumíveis p/ Equipamento de Alto Fluxo,Ajuste Direto Regime Geral,Aquisição de bens móveis,"33100000-1, Equipamento médico","Centro Hospitalar Vila Nova de Gaia - Espinho, E. P. E. (508142156)",Fisher & Paykel Healthcare (FR3141762658),"6.866,00 €",15-02-2018,15-02-2018,330 dias,"Portugal, Porto, Vila Nova de Gaia","Artigo 24.º, n.º 1, alínea e) do Código dos Contratos Públicos",,,,,,Não aplicável.,Não aplicável.,FALSE
Consumíveis p/ Bomba Infusora Cadd-PCA,Ajuste Direto Regime Geral,Aquisição de bens móveis,"33100000-1, Equipamento médico","Centro Hospitalar Vila Nova de Gaia - Espinho, E. P. E. (508142156)",SMITH MEDICAL (507445937),"26.828,00 €",15-02-2018,15-02-2018,330 dias,"Portugal, Porto, Vila Nova de Gaia","Artigo 24.º, n.º 1, alínea e) do Código dos Contratos Públicos",,,,,,Não aplicável.,Não aplicável.,FALSE
Serviços de Eletricidade pª Aumento de Pot~encia em Quadro Eletrico,Ajuste Direto Regime Geral,Aquisição de serviços,"51112000-0, Serviços de instalação de equipamento para distribuição e controlo de electricidade","Centro Hospitalar Vila Nova de Gaia - Espinho, E. P. E. (508142156)","MÁRIO E. GONÇALVES & CRUZ, LDA. (501508538)","4.553,92 €",14-02-2018,15-11-2017,5 dias,"Portugal, Porto, Vila Nova de Gaia","Artigo 24.º, n.º 1, alínea c) do Código dos Contratos Públicos",,,,,,Não aplicável.,Não aplicável.,FALSE
Colocação de repetidores de sinal nos edif. do CHVNG,Ajuste Direto Regime Geral,Aquisição de serviços,"64200000-8, Serviços de telecomunicações","Centro Hospitalar Vila Nova de Gaia - Espinho, E. P. E. (508142156)",Nos Comunicações SA (503922692),"9.750,00 €",14-02-2018,20-12-2017,30 dias,"Portugal, Porto, Vila Nova de Gaia","Artigo 24.º, n.º 1, alínea e) do Código dos Contratos Públicos",,,,,,Não aplicável.,Não aplicável.,FALSE
Procedimento 1061418 - Aquisição de Contracetivos (Sector Farmacêutico) (CPA 2015/20),Ao abrigo de acordo-quadro (art.º 259.º),Aquisição de bens móveis,"33600000-6, Produtos farmacêuticos","Centro Hospitalar Vila Nova de Gaia - Espinho, E. P. E. (508142156)",MERCK SHARP & DHOME LDA. (500191360),"16.942,80 €",14-02-2018,12-01-2018,365 dias,"Portugal, Porto, Vila Nova de Gaia",Artigo 259.º do Código dos Contratos Públicos,,,,,,1459323,CP 2015/20,FALSE
Procedimento 1061418 - Aquisição de Contracetivos (Sector Farmacêutico) (CPA 2015/20),Ao abrigo de acordo-quadro (art.º 259.º),Aquisição de bens móveis,"33600000-6, Produtos farmacêuticos","Centro Hospitalar Vila Nova de Gaia - Espinho, E. P. E. (508142156)",LOGIFARMA - Logistica Farmacêutica SA (503934640),"128,04 €",14-02-2018,12-01-2018,365 dias,"Portugal, Porto, Vila Nova de Gaia",Artigo 259.º do Código dos Contratos Públicos,,,,,,1459323,CP 2015/20,FALSE
Procedimento 1061418 - Aquisição de Contracetivos (Sector Farmacêutico) (CPA 2015/20),Ao abrigo de acordo-quadro (art.º 259.º),Aquisição de bens móveis,"33600000-6, Produtos farmacêuticos","Centro Hospitalar Vila Nova de Gaia - Espinho, E. P. E. (508142156)","LABORATORIOS PFIZER, LDA (500162166)","358,53 €",14-02-2018,12-01-2018,365 dias,"Portugal, Porto, Vila Nova de Gaia",Artigo 259.º do Código dos Contratos Públicos,,,,,,1459323,CP 2015/20,FALSE
Procedimento 1061418 - Aquisição de Contracetivos (Sector Farmacêutico) (CPA 2015/20),Ao abrigo de acordo-quadro (art.º 259.º),Aquisição de bens móveis,"33600000-6, Produtos farmacêuticos","Centro Hospitalar Vila Nova de Gaia - Espinho, E. P. E. (508142156)","Generis - Farmacêutica, SA (508107997)","60,45 €",14-02-2018,12-01-2018,365 dias,"Portugal, Porto, Vila Nova de Gaia",Artigo 259.º do Código dos Contratos Públicos,,,,,,1459323,CP 2015/20,FALSE
Procedimento 1061418 - Aquisição de Contracetivos (Sector Farmacêutico) (CPA 2015/20),Ao abrigo de acordo-quadro (art.º 259.º),Aquisição de bens móveis,"33600000-6, Produtos farmacêuticos","Centro Hospitalar Vila Nova de Gaia - Espinho, E. P. E. (508142156)",Bayer Portugal S.A. (500043256),"31.922,50 €",14-02-2018,12-01-2018,365 dias,"Portugal, Porto, Vila Nova de Gaia",Artigo 259.º do Código dos Contratos Públicos,,,,,,1459323,CP 2015/20,FALSE
Consumíveis de mapeamento tridimensional para eletrofisiologia contra colocação de equipamento - NAVEX - 1.ª renov n.º 2052217,Ajuste Direto Regime Geral,Aquisição de bens móveis,"33100000-1, Equipamento médico","Centro Hospitalar Vila Nova de Gaia - Espinho, E. P. E. (508142156)",ABBOTT MEDICAL (504180746),"630.900,00 €",14-02-2018,14-02-2018,330 dias,"Portugal, Porto, Vila Nova de Gaia","Artigo 24.º, n.º 1, alínea e) do Código dos Contratos Públicos",,,,,,Não aplicável.,Não aplicável.,FALSE
Procedimento 1028418 - Aquisição de Noradrenalina 1 mg/ ml Sol Inj Fr 10 ml IV,Ao abrigo de acordo-quadro (art.º 259.º),Aquisição de bens móveis,"33600000-6, Produtos farmacêuticos","Centro Hospitalar Vila Nova de Gaia - Espinho, E. P. E. (508142156)","B. Braun Medical, Lda (501506543)","7.030,00 €",12-02-2018,10-01-2018,365 dias,"Portugal, Porto, Vila Nova de Gaia",Artigo 259.º do Código dos Contratos Públicos,,,,,,2335591,CP 2016/01 - Acordo Quadro para fornecimento de Medicamentos do Aparelho Cardiovascular   às Instituições e Serviços do Serviço Nacional de Saúde,FALSE
1015918 - Aquisição de Lamivudina 300 mg comp,Ao abrigo de acordo-quadro (art.º 259.º),Aquisição de bens móveis,"33600000-6, Produtos farmacêuticos","Centro Hospitalar Vila Nova de Gaia - Espinho, E. P. E. (508142156)","Tecnimede - Socied. Técnico-Medicinal, SA (500626413)","7.350,00 €",12-02-2018,10-01-2018,365 dias,"Portugal, Porto, Vila Nova de Gaia",Artigo 259.º do Código dos Contratos Públicos,,,,,,2183729,Medicamentos antirretrovíricos para o tratamento da infeção por VIH,FALSE
Próteses Transtibiais,Ajuste Direto Regime Geral,Aquisição de bens móveis,"33100000-1, Equipamento médico","Centro Hospitalar Vila Nova de Gaia - Espinho, E. P. E. (508142156)",CENTRO REABILITAÇÃO PROFISSIONAL DE GAIA (504791834),"6.375,06 €",12-02-2018,12-02-2018,180 dias,"Portugal, Porto, Vila Nova de Gaia","Artigo 20.º, n.º 1, alínea a) do Código dos Contratos Públicos",,,,,,Não aplicável.,Não aplicável.,FALSE
Prestação de Serviços de Vigilância e Segurança - Ano 2017,Concurso público,Aquisição de serviços,"79710000-4, Serviços de segurança","Centro Hospitalar Vila Nova de Gaia - Espinho, E. P. E. (508142156)","Ronsegur, Lda. (507011724)","217.560,00 €",11-02-2018,13-06-2017,365 dias,"Portugal, Porto, Vila Nova de Gaia","Artigo 20.º, n.º 1, alínea b) do Código dos Contratos Públicos",,,,,,Não aplicável.,Não aplicável.,FALSE
Aquisição de Serviços de Manutenção de Equipamentos Ativos de Rede do CHVNG- Ano 2017,Ajuste Direto Regime Geral,Aquisição de serviços,"50334400-9, Serviços de manutenção de sistemas de comunicações","Centro Hospitalar Vila Nova de Gaia - Espinho, E. P. E. (508142156)","Pamafe - Informática, Lda. (504099388)","29.940,00 €",11-02-2018,31-08-2017,365 dias,"Portugal, Porto, Vila Nova de Gaia","Artigo 24.º, n.º 1, alínea e) do Código dos Contratos Públicos",,,,,,Não aplicável.,Não aplicável.,FALSE
Celebração de Contrato de Assistência Técnica aos Equipamentos de Imagiologia - Ano 2017,Ajuste Direto Regime Geral,Aquisição de serviços,"50421000-2, Serviços de reparação e manutenção de equipamento médico",Centro Hospitalar Vila Nova de Gaia (CHNVG) (508142156),SIEMENS HEALTHCARE DIAGNOSTICS LDA (507925173),"138.824,76 €",11-02-2018,31-08-2017,365 dias,"Portugal, Porto, Vila Nova de Gaia","Artigo 24.º, n.º 1, alínea e) do Código dos Contratos Públicos",,,,,,Não aplicável.,Não aplicável.,FALSE
Prestação de Serviços Técnicos para Elaboração de  Proposta de Alterações Acompanhamento de Empreitada - Fase B Novo Edifício,Ajuste Direto Regime Geral,Outros Tipos (Concessão de exploração de bens do domínio público),"71200000-0, Serviços de arquitectura e afins","Centro Hospitalar Vila Nova de Gaia - Espinho, E. P. E. (508142156)","Vitor Hugo - Coordenação e Gestão de Projectos, SA (503040630)","56.887,50 €",11-02-2018,31-08-2017,45 dias,"Portugal, Porto, Vila Nova de Gaia","Artigo 24.º, n.º 1, alínea e) do Código dos Contratos Públicos",,,,,,Não aplicável.,Não aplicável.,FALSE
Celebração de Contrato de Assistência Técnica ao Equipamento de Assistência Ventricular IKUS 2000 do Serviço de Cirurgia Torácica - Ano 2017,Ajuste Direto Regime Geral,Aquisição de serviços,"50421000-2, Serviços de reparação e manutenção de equipamento médico",Centro Hospitalar Vila Nova de Gaia (CHNVG) (508142156),"Lusopalex, Lda (503531588)","7.040,00 €",11-02-2018,31-08-2017,365 dias,"Portugal, Porto, Vila Nova de Gaia","Artigo 24.º, n.º 1, alínea e) do Código dos Contratos Públicos",,,,,,Não aplicável.,Não aplicável.,FALSE
"Aquisição de Serviços de Análise Externa da Instituição para Efeitos de Definição de Estratégia do CHVNG/E,EPE",Ajuste Direto Regime Geral,Aquisição de serviços,"72221000-0, Serviços de consultoria em matéria de análise de gestão","Centro Hospitalar Vila Nova de Gaia - Espinho, E. P. E. (508142156)",Deloitte Consultores SA (502310090),"4.000,00 €",11-02-2018,12-09-2017,10 dias,"Portugal, Porto, Vila Nova de Gaia","Artigo 20.º, n.º 1, alínea a) do Código dos Contratos Públicos",,,,,,Não aplicável.,Não aplicável.,FALSE
"Aquisição de Serviços de Apoio Técnico de Projeto, Fiscalização,Controlo de Qualidade e Ambiente e Coordenação de Segurança e Saúde - 2017",Ajuste Direto Regime Geral,Locação de bens móveis<br/>Aquisição de serviços,"71247000-1, Supervisão de trabalhos de construção","Centro Hospitalar Vila Nova de Gaia - Espinho, E. P. E. (508142156)","Vitor Hugo - Coordenação e Gestão de Projectos, SA (503040630)","80.000,04 €",11-02-2018,30-10-2017,365 dias,"Portugal, Porto, Vila Nova de Gaia","Artigo 27.º, n.º 1, alínea a) do Código dos Contratos Públicos",,,,,,Não aplicável.,Não aplicável.,FALSE
