Objeto do Contrato,Tipo de Procedimento,Tipo(s) de Contrato,CPVs,Entidade(s) Adjudicante(s),Entidade(s) Adjudicatária(s),Preço Contratual,Data de Publicação,Data de Celebração do Contrato,Prazo de Execução,Local de Execução,Fundamentação,Data de Fecho do Contrato,Preço Total Efetivo,Causas das Alterações ao Prazo,Causas das Alterações ao Preço,Estado,N.º registo do Acordo Quadro,Descrição do Acordo Quadro,Procedimento Centralizado
Prestação de serviço de higiene e limpeza a nível nacional,Ajuste Direto Regime Geral,Aquisição de serviços,"90000000-7, Serviços relativos a águas residuais, resíduos, limpeza e ambiente","Instituto Nacional de Emergência Médica, I. P. (501356126)","Interlimpe Facility Service, SA (502611057)","23.352,03 €",10-11-2017,24-10-2017,31 dias,"Portugal, Porto, Porto<BR/>Portugal, Porto, Vila Nova de Gaia<BR/>Portugal, Lisboa, Lisboa<BR/>Portugal, Coimbra, Coimbra<BR/>Portugal, Faro, Faro","Artigo 24.º, n.º 1, alínea c) do Código dos Contratos Públicos",,,,,,Não aplicável.,Não aplicável.,FALSE
Prestação de serviço de helitransporte de doentes e serviços conexos - Helicóptero Ligeiro de Stª. Comba Dão (16 a 31 outubro).,Ajuste Direto Regime Geral,Aquisição de serviços,"60000000-8, Serviços de transporte (excl. transporte de resíduos)","Instituto Nacional de Emergência Médica, I. P. (501356126)","BABCOCK Mission Critical Services Portugal, Lda. (503546054)","83.870,97 €",09-11-2017,07-11-2017,16 dias,"Portugal, Portugal Continental","Artigo 24.º, n.º 1, alínea c) do Código dos Contratos Públicos",,,,,,Não aplicável.,Não aplicável.,FALSE
Avaliação psicológica candidatos concurso TEPH,Ajuste Direto Regime Geral,Aquisição de serviços,"79600000-0, Serviços de recrutamento","Instituto Nacional de Emergência Médica, I. P. (501356126)","Infopsi - Serviços Médicos e Psicológicos, Lda. (509964559)","14.000,00 €",09-11-2017,22-08-2017,40 dias,"Portugal, Lisboa, Lisboa","Artigo 20.º, n.º 1, alínea a) do Código dos Contratos Públicos",,,,,,Não aplicável.,Não aplicável.,FALSE
Aquisição de fardamento - botas,Ajuste Direto Regime Geral,Aquisição de bens móveis,"18800000-7, Calçado","Instituto Nacional de Emergência Médica, I. P. (501356126)","AMF, Lda. (504465767)","60.900,00 €",08-11-2017,27-10-2017,20 dias,"Portugal, Portugal Continental","Artigo 20.º, n.º 1, alínea a) do Código dos Contratos Públicos",,,,,,Não aplicável.,Não aplicável.,FALSE
Aquisição de auriculares - CODU Coimbra e Porto,Ajuste Direto Regime Geral,Aquisição de bens móveis,"32500000-8, Equipamento e material para telecomunicações","Instituto Nacional de Emergência Médica, I. P. (501356126)","Decunify - Soluções de Comunicações, S.A. (504889893)","19.206,50 €",08-11-2017,30-10-2017,20 dias,"Portugal, Coimbra, Coimbra<BR/>Portugal, Porto, Porto","Artigo 20.º, n.º 1, alínea a) do Código dos Contratos Públicos",,,,,,Não aplicável.,Não aplicável.,FALSE
Aquisição de auriculares - CODU Lisboa,Ajuste Direto Regime Geral,Aquisição de bens móveis,"32500000-8, Equipamento e material para telecomunicações","Instituto Nacional de Emergência Médica, I. P. (501356126)","Iberambar, Lda. (510385010)","7.447,50 €",08-11-2017,31-10-2017,10 dias,"Portugal, Lisboa, Lisboa","Artigo 20.º, n.º 1, alínea a) do Código dos Contratos Públicos",,,,,,Não aplicável.,Não aplicável.,FALSE
