Objeto do Contrato,Tipo de Procedimento,Tipo(s) de Contrato,CPVs,Entidade(s) Adjudicante(s),Entidade(s) Adjudicatária(s),Preço Contratual,Data de Publicação,Data de Celebração do Contrato,Prazo de Execução,Local de Execução,Fundamentação,Data de Fecho do Contrato,Preço Total Efetivo,Causas das Alterações ao Prazo,Causas das Alterações ao Preço,Estado,N.º registo do Acordo Quadro,Descrição do Acordo Quadro,Procedimento Centralizado
AD106545 AQUISIÇÃO DE MEDICAMENTOS INOVADORES PARA TRATAMENTO HEPATITE C,Ajuste Direto Regime Geral,Aquisição de bens móveis,"33620000-2, Medicamentos para o sangue, para os órgãos hematopoiéticos e para o aparelho cardiovascular","Centro Hospitalar de Lisboa Ocidental, EPE (CHLO) (507618319)","GILEAD SCIENCES, LDA (503604704)","652.605,45 €",05-08-2015,25-06-2015,2015 dias,"Portugal, Lisboa, Lisboa","Artigo 24.º, n.º 1, alínea e) do Código dos Contratos Públicos",,,,,,Não aplicável.,Não aplicável.,FALSE
AD104265 AQUISIÇÃO DE MEDICAMENTOS EXCLUSIVOS DA GILEAD SCIENCES 2015,Ajuste Direto Regime Geral,Aquisição de bens móveis,"33614000-7, Antidiarreicos, anti-inflamatórios e anti-infecciosos intestinais","Centro Hospitalar de Lisboa Ocidental, EPE (CHLO) (507618319)","GILEAD SCIENCES, LDA (503604704)","461.931,18 €",05-08-2015,23-06-2015,2015 dias,"Portugal, Lisboa, Lisboa","Artigo 24.º, n.º 1, alínea e) do Código dos Contratos Públicos",,,,,,Não aplicável.,Não aplicável.,FALSE
AD106305 AQUISIÇÃO DE MEDICAMENTOS INOVADORES PARA TRATAMENTO HEPATITE C,Ajuste Direto Regime Geral,Aquisição de bens móveis,"33620000-2, Medicamentos para o sangue, para os órgãos hematopoiéticos e para o aparelho cardiovascular","Centro Hospitalar de Lisboa Ocidental, EPE (CHLO) (507618319)","GILEAD SCIENCES, LDA (503604704)","1.032.114,09 €",04-08-2015,15-06-2015,2015 dias,"Portugal, Lisboa, Lisboa","Artigo 24.º, n.º 1, alínea e) do Código dos Contratos Públicos",,,,,,Não aplicável.,Não aplicável.,FALSE
AD106085 AQUISIÇÃO DE MEDICAMENTOS INOVADORES PARA TRATAMENTO HEPATITE C,Ajuste Direto Regime Geral,Aquisição de bens móveis,"33620000-2, Medicamentos para o sangue, para os órgãos hematopoiéticos e para o aparelho cardiovascular","Centro Hospitalar de Lisboa Ocidental, EPE (CHLO) (507618319)","GILEAD SCIENCES, LDA (503604704)","1.032.114,09 €",04-08-2015,01-06-2015,2015 dias,"Portugal, Lisboa, Lisboa","Artigo 24.º, n.º 1, alínea e) do Código dos Contratos Públicos",,,,,,Não aplicável.,Não aplicável.,FALSE
AD104305 AQUISIÇÃO DE MEDICAMENTOS EXCLUSIVOS DA EMPRESA JANSSEN CILAG,Ajuste Direto Regime Geral,Aquisição de bens móveis,"33614000-7, Antidiarreicos, anti-inflamatórios e anti-infecciosos intestinais","Centro Hospitalar de Lisboa Ocidental, EPE (CHLO) (507618319)","JANSSEN CILAG FARMACEUTICA, LDA (500189412)","887.543,19 €",04-08-2015,25-06-2015,2015 dias,"Portugal, Lisboa, Lisboa","Artigo 24.º, n.º 1, alínea e) do Código dos Contratos Públicos",,,,,,Não aplicável.,Não aplicável.,FALSE
AD107555 AQUISIÇAO DE MEDICAMENTOS INOVADORES PARA TRATAMENTO HEPATITE C,Ajuste Direto Regime Geral,Aquisição de bens móveis,"33620000-2, Medicamentos para o sangue, para os órgãos hematopoiéticos e para o aparelho cardiovascular","Centro Hospitalar de Lisboa Ocidental, EPE (CHLO) (507618319)",GILEAD SCIENCES LDA (503604704),"888.543,60 €",04-08-2015,14-07-2015,2015 dias,"Portugal, Lisboa, Lisboa","Artigo 24.º, n.º 1, alínea e) do Código dos Contratos Públicos",,,,,,Não aplicável.,Não aplicável.,FALSE
AD107535 AQUISIÇÃO DE MEDICAMENTOS INOVADORES PARA TRATAMENTO HEPATITE C,Ajuste Direto Regime Geral,Aquisição de bens móveis,"33620000-2, Medicamentos para o sangue, para os órgãos hematopoiéticos e para o aparelho cardiovascular","Centro Hospitalar de Lisboa Ocidental, EPE (CHLO) (507618319)","GILEAD SCIENCES, LDA (503604704)","1.930.695,69 €",04-08-2015,14-07-2015,2015 dias,"Portugal, Lisboa, Lisboa","Artigo 24.º, n.º 1, alínea e) do Código dos Contratos Públicos",,,,,,Não aplicável.,Não aplicável.,FALSE
AD100174 AQUISIÇÃO DE MEDICAMENTOS EXCLUSIVOS EMPRESA LABESFAL,Ajuste Direto Regime Geral,Aquisição de bens móveis,"33610000-9, Medicamentos para o tracto digestivo e o metabolismo","Centro Hospitalar de Lisboa Ocidental, E. P. E. (507618319)","LABESFAL LABORATORIOS ALMIRO, S.A. (501169580)","68.588,06 €",04-08-2015,19-01-2015,2015 dias,"Portugal, Lisboa, Lisboa","Artigo 24.º, n.º 1, alínea e) do Código dos Contratos Públicos",,,,,,Não aplicável.,Não aplicável.,FALSE
AQUISIÇÃO DE SERVIÇOS DE UPGRADE AO IMPAX AGFA VERSAO 6.6.1,Ajuste Direto Regime Geral,Aquisição de serviços,"72200000-7, Serviços de consultoria e de programação de software","Centro Hospitalar de Lisboa Ocidental, E. P. E. (507618319)",AGFA HEALTHCARE (500011060),"18.802,00 €",03-08-2015,14-07-2015,10 dias,"Portugal, Lisboa, Lisboa","Artigo 24.º, n.º 1, alínea e) do Código dos Contratos Públicos",,,,,,Não aplicável.,Não aplicável.,FALSE
