Objeto do Contrato,Tipo de Procedimento,Tipo(s) de Contrato,CPVs,Entidade(s) Adjudicante(s),Entidade(s) Adjudicatária(s),Preço Contratual,Data de Publicação,Data de Celebração do Contrato,Prazo de Execução,Local de Execução,Fundamentação,Data de Fecho do Contrato,Preço Total Efetivo,Causas das Alterações ao Prazo,Causas das Alterações ao Preço,Estado,N.º registo do Acordo Quadro,Descrição do Acordo Quadro,Procedimento Centralizado
Serviços Médicos - Triagem Geral - 37013718,Consulta Prévia,Aquisição de serviços,"85100000-0, Serviços de saúde","Centro Hospitalar do Médio Tejo, E. P. E. (506361608)",Inês Mateus de Almeida (201246619),"23.320,00 €",11-07-2018,30-05-2018,365 dias,"Portugal, Santarém, Abrantes","Artigo 20.º, n.º 1, alínea c) do Código dos Contratos Públicos",,,,,,Não aplicável.,Não aplicável.,FALSE
Aquisição de Serviços de Tratamento de Resíduos,Concurso público,Aquisição de serviços,"90000000-7, Serviços relativos a águas residuais, resíduos, limpeza e ambiente","Centro Hospitalar do Médio Tejo, E. P. E. (506361608)","Ambimed Gestão Ambiental,Lda (503593427)","580.146,00 €",05-07-2018,08-03-2016,1095 dias,"Portugal, Santarém, Torres Novas","Artigo 20.º, n.º 1, alínea b) do Código dos Contratos Públicos",,,,,,Não aplicável.,Não aplicável.,FALSE
"Manutenção do Software Modulab, 2018",Ajuste Direto Regime Geral,Aquisição de serviços,"72260000-5, Serviços relacionados com software","Centro Hospitalar do Médio Tejo, E. P. E. (506361608)","Werfen Portugal , Lda. (501086110)","33.760,00 €",04-07-2018,21-05-2018,365 dias,"Portugal, Santarém, Torres Novas","Artigo 24.º, n.º 1, alínea c) do Código dos Contratos Públicos",,,,,,Não aplicável.,Não aplicável.,FALSE
Serviços Médicos - Triagem Geral - 37014918,Consulta Prévia,Aquisição de serviços,"85100000-0, Serviços de saúde","Centro Hospitalar do Médio Tejo, E. P. E. (506361608)",Ana Rita Grossinho Reis (245843469),"14.300,00 €",04-07-2018,03-04-2018,365 dias,"Portugal, Santarém, Abrantes","Artigo 20.º, n.º 1, alínea c) do Código dos Contratos Públicos",,,,,,Não aplicável.,Não aplicável.,FALSE
Serviços Médicos - Cuidados Intensivos - 37018118,Consulta Prévia,Aquisição de serviços,"85100000-0, Serviços de saúde","Centro Hospitalar do Médio Tejo, E. P. E. (506361608)","Vicente Ferreira - Serviços Médicos, Lda (510675832)","8.763,00 €",04-07-2018,23-05-2018,365 dias,"Portugal, Santarém, Abrantes","Artigo 20.º, n.º 1, alínea c) do Código dos Contratos Públicos",,,,,,Não aplicável.,Não aplicável.,FALSE
Serviços Médicos - Triagem Geral - 37015118,Consulta Prévia,Aquisição de serviços,"85100000-0, Serviços de saúde","Centro Hospitalar do Médio Tejo, E. P. E. (506361608)",Rossimed - Clínica Médica Lda (503591181),"13.200,00 €",03-07-2018,30-05-2018,365 dias,"Portugal, Santarém, Abrantes","Artigo 20.º, n.º 1, alínea c) do Código dos Contratos Públicos",,,,,,Não aplicável.,Não aplicável.,FALSE
Serviços Médicos - Pediatria - 37017418,Consulta Prévia,Aquisição de serviços,"85100000-0, Serviços de saúde","Centro Hospitalar do Médio Tejo, E. P. E. (506361608)",RICARDO PEDRO SANTOS FERREIRA (151593221),"23.368,00 €",03-07-2018,18-04-2018,365 dias,"Portugal, Santarém, Torres Novas","Artigo 20.º, n.º 1, alínea c) do Código dos Contratos Públicos",,,,,,Não aplicável.,Não aplicável.,FALSE
Serviços Médicos - Triagem Pediátrica - 37022118,Consulta Prévia,Aquisição de serviços,"85100000-0, Serviços de saúde","Centro Hospitalar do Médio Tejo, E. P. E. (506361608)","Targetpower Serviços Medicos, Lda (508713978)","24.200,00 €",02-07-2018,18-04-2018,365 dias,"Portugal, Santarém, Torres Novas","Artigo 20.º, n.º 1, alínea c) do Código dos Contratos Públicos",,,,,,Não aplicável.,Não aplicável.,FALSE
Serviços Médicos - Triagem Pediátrica - 37022118,Consulta Prévia,Aquisição de serviços,"85100000-0, Serviços de saúde","Centro Hospitalar do Médio Tejo, E. P. E. (506361608)","Nicolae Munteanu - Actividades Médicas, Lda (510191843)","22.000,00 €",02-07-2018,12-04-2018,365 dias,"Portugal, Santarém, Torres Novas","Artigo 20.º, n.º 1, alínea c) do Código dos Contratos Públicos",,,,,,Não aplicável.,Não aplicável.,FALSE
Serviços Médicos - VMER- 37018718,Consulta Prévia,Aquisição de serviços,"85100000-0, Serviços de saúde","Centro Hospitalar do Médio Tejo, E. P. E. (506361608)","Enzima Pródiga, Lda (514422939)","11.000,00 €",02-07-2018,23-05-2018,365 dias,"Portugal, Santarém, Abrantes","Artigo 20.º, n.º 1, alínea c) do Código dos Contratos Públicos",,,,,,Não aplicável.,Não aplicável.,FALSE
Serviços Médicos - VMER- 37018718,Consulta Prévia,Aquisição de serviços,"85100000-0, Serviços de saúde","Centro Hospitalar do Médio Tejo, E. P. E. (506361608)",Quaresma & Agostinho (509860710),"20.900,00 €",02-07-2018,23-05-2018,365 dias,"Portugal, Santarém, Abrantes","Artigo 20.º, n.º 1, alínea c) do Código dos Contratos Públicos",,,,,,Não aplicável.,Não aplicável.,FALSE
Serviços Médicos - Triagem Geral - 37014118,Consulta Prévia,Aquisição de serviços,"85100000-0, Serviços de saúde","Centro Hospitalar do Médio Tejo, E. P. E. (506361608)",GS24- Healthcare Solutions S.A. (507824652),"33.000,00 €",02-07-2018,03-05-2018,365 dias,"Portugal, Santarém, Abrantes","Artigo 20.º, n.º 1, alínea c) do Código dos Contratos Públicos",,,,,,Não aplicável.,Não aplicável.,FALSE
Serviços Médicos - Triagem Geral - 37014118,Consulta Prévia,Aquisição de serviços,"85100000-0, Serviços de saúde","Centro Hospitalar do Médio Tejo, E. P. E. (506361608)",Catarina Madeira Pinto (251219976),"7.700,00 €",02-07-2018,03-05-2018,365 dias,"Portugal, Santarém, Abrantes","Artigo 20.º, n.º 1, alínea c) do Código dos Contratos Públicos",,,,,,Não aplicável.,Não aplicável.,FALSE
Serviços Médicos - Triagem Geral - 37014118,Consulta Prévia,Aquisição de serviços,"85100000-0, Serviços de saúde","Centro Hospitalar do Médio Tejo, E. P. E. (506361608)",Diogo Correia Soeiro (257530878),"6.600,00 €",02-07-2018,24-05-2018,365 dias,"Portugal, Santarém, Abrantes","Artigo 20.º, n.º 1, alínea c) do Código dos Contratos Públicos",,,,,,Não aplicável.,Não aplicável.,FALSE
