Objeto do Contrato,Tipo de Procedimento,Tipo(s) de Contrato,CPVs,Entidade(s) Adjudicante(s),Entidade(s) Adjudicatária(s),Preço Contratual,Data de Publicação,Data de Celebração do Contrato,Prazo de Execução,Local de Execução,Fundamentação,Data de Fecho do Contrato,Preço Total Efetivo,Causas das Alterações ao Prazo,Causas das Alterações ao Preço,Estado,N.º registo do Acordo Quadro,Descrição do Acordo Quadro,Procedimento Centralizado
Aquisição de 50.000 unidades de vacina contra a gripe,Ajuste Direto Regime Geral,Aquisição de bens móveis,"33651660-2, Vacinas antigripe","Administração Regional de Saúde de Lisboa e Vale do Tejo, I.P. (503148776)",Sanofi Pasteur MSD (507632796),"1.580.000,00 €",10-10-2012,10-10-2012,20 dias,"Portugal, Lisboa","Artigo 26.º, n.º 1, alínea e) do Código dos Contratos Públicos",,,,,,Não aplicável.,Não aplicável.,
Tubos e embalagens de plástico,Concurso público,Locação de bens móveis,"33140000-3, Material médico de consumo","Administração Regional de Saúde de Lisboa e Vale do Tejo, I.P. (503148776)",Vidrolab 2 (501450629),"680,00 €",10-10-2012,28-09-2012,20 dias,"Portugal, Lisboa","Artigo 155.º, alínea b) do Código dos Contratos Públicos",,,,,,Não aplicável.,Não aplicável.,
Porta lâminas em cartão,Concurso público,Locação de bens móveis,"33140000-3, Material médico de consumo","Administração Regional de Saúde de Lisboa e Vale do Tejo, I.P. (503148776)",Leica Microsistemas (500301921),"22.500,00 €",10-10-2012,28-09-2012,20 dias,"Portugal, Lisboa<BR/>Portugal, Lisboa","Artigo 155.º, alínea b) do Código dos Contratos Públicos",,,,,,Não aplicável.,Não aplicável.,
Espátulas e Lâminas de Citologia,Concurso público,Locação de bens móveis,"33140000-3, Material médico de consumo","Administração Regional de Saúde de Lisboa e Vale do Tejo, I.P. (503148776)",Speculum (502996323),"11.148,00 €",10-10-2012,28-09-2012,20 dias,"Portugal, Lisboa","Artigo 155.º, alínea b) do Código dos Contratos Públicos",,,,,,Não aplicável.,Não aplicável.,
Escovas de citologia,Concurso público,Locação de bens móveis,"33140000-3, Material médico de consumo","Administração Regional de Saúde de Lisboa e Vale do Tejo, I.P. (503148776)",Filsat (506708616),"38.400,00 €",10-10-2012,28-09-2012,20 dias,"Portugal, Lisboa","Artigo 155.º, alínea b) do Código dos Contratos Públicos",,,,,,Não aplicável.,Não aplicável.,
"Prestação de cuidados de saúde na área médica nos ACES Seixal/Sesimbra e Serra DAire, período de 02/07/2012 a 31/08/2012",Ajuste Direto Regime Geral,Aquisição de serviços,"85141000-9, Serviços prestados pelo pessoal médico","Administração Regional de Saúde de Lisboa e Vale do Tejo, I.P. (503148776)","Sucesso 24 Horas, Lda (507328310)","136.125,00 €",10-10-2012,13-08-2012,61 dias,"Portugal, Setúbal, Seixal<BR/>Portugal, Setúbal, Sesimbra<BR/>Portugal, Santarém","Artigo 24.º, n.º 1, alínea e) do Código dos Contratos Públicos",,,,,,Não aplicável.,Não aplicável.,
"Prestação de cuidados de saúde na área médica para os ACES de Vila Franca de Xira e Almada, Período de 02/07 a 31/08/2012",Ajuste Direto Regime Geral,Aquisição de serviços,"85141000-9, Serviços prestados pelo pessoal médico","Administração Regional de Saúde de Lisboa e Vale do Tejo, I.P. (503148776)","Solid Phase, Lda (504137000)","47.268,00 €",10-10-2012,31-07-2012,61 dias,"Portugal, Setúbal, Almada<BR/>Portugal, Lisboa, Vila Franca de Xira","Artigo 26.º, n.º 1, alínea e) do Código dos Contratos Públicos",,,,,,Não aplicável.,Não aplicável.,
Aquisição de Vacina Penta (DTP acelular HIB/VIP),Ajuste Direto Regime Geral,Aquisição de bens móveis,"33651600-4, Vacinas","Administração Regional de Saúde de Lisboa e Vale do Tejo, I.P. (503148776)",Sanofi Pasteur MSD (507632796),"190.000,00 €",10-10-2012,10-10-2012,20 dias,"Portugal, Lisboa","Artigo 26.º, n.º 1, alínea e) do Código dos Contratos Públicos",,,,,,Não aplicável.,Não aplicável.,
"Prestação de cuidados de saúde na área médica nos ACES Loures, Sintra/Mafra, Algueirão/Rio Mouro e Cacém/queluz para o período de 02/07/2012 a 31/08/2012",Ajuste Direto Regime Geral,Aquisição de serviços,"85141000-9, Serviços prestados pelo pessoal médico","Administração Regional de Saúde de Lisboa e Vale do Tejo, I.P. (503148776)","Sucesso 24 Horas, Lda (507328310)","133.650,00 €",10-10-2012,28-08-2012,61 dias,"Portugal, Lisboa","Artigo 26.º, n.º 1, alínea e) do Código dos Contratos Públicos",,,,,,Não aplicável.,Não aplicável.,
Prestação de serviços de técnicos de saúde,Concurso público,Aquisição de serviços,"85000000-9, Serviços de saúde e acção social","Administração Regional de Saúde de Lisboa e Vale do Tejo, I.P. (503148776)","Quantumtime Clinical, Lda (508851866)","67.664,61 €",10-10-2012,12-07-2012,182 dias,"Portugal, Santarém<BR/>Portugal, Setúbal, Setúbal<BR/>Portugal, Lisboa","Artigo 155.º, alínea a) do Código dos Contratos Públicos",,,,,,Não aplicável.,Não aplicável.,
Prestação de serviços de cuidados de saúde na área de enfermagem,Concurso público,Aquisição de serviços,"85141200-1, Serviços prestados pelo pessoal de enfermagem","Administração Regional de Saúde de Lisboa e Vale do Tejo, I.P. (503148776)","Medicsearch, SA (508080517)","36.348,52 €",10-10-2012,12-07-2012,91 dias,"Portugal, Lisboa, Oeiras<BR/>Portugal, Lisboa, Lisboa<BR/>Portugal, Lisboa, Loures","Artigo 155.º, alínea a) do Código dos Contratos Públicos",,,,,,Não aplicável.,Não aplicável.,
Prestação de serviços de cuidados de saúde na área de enfermagem,Concurso público,Aquisição de serviços,"85141200-1, Serviços prestados pelo pessoal de enfermagem","Administração Regional de Saúde de Lisboa e Vale do Tejo, I.P. (503148776)","E-Sycare, SA (509706134)","31.021,90 €",10-10-2012,12-07-2012,91 dias,"Portugal, Lisboa, Odivelas","Artigo 155.º, alínea a) do Código dos Contratos Públicos",,,,,,Não aplicável.,Não aplicável.,
Prestação de serviços de cuidados de saúde na área de enfermagem,Concurso público,Aquisição de serviços,"85141200-1, Serviços prestados pelo pessoal de enfermagem","Administração Regional de Saúde de Lisboa e Vale do Tejo, I.P. (503148776)","Medicsearch, SA (508080517)","60.518,64 €",10-10-2012,12-07-2012,91 dias,"Portugal, Leiria, Peniche<BR/>Portugal, Leiria, Alcobaça<BR/>Portugal, Leiria, Bombarral<BR/>Portugal, Leiria, Caldas da Rainha<BR/>Portugal, Leiria, Nazaré<BR/>Portugal, Santarém<BR/>Portugal, Leiria, Óbidos","Artigo 155.º, alínea a) do Código dos Contratos Públicos",,,,,,Não aplicável.,Não aplicável.,
Prestação de serviços de cuidados de saúde na área de enfermagem,Concurso público,Aquisição de serviços,"85141200-1, Serviços prestados pelo pessoal de enfermagem","Administração Regional de Saúde de Lisboa e Vale do Tejo, I.P. (503148776)","E-Sycare, SA (509706134)","33.237,75 €",10-10-2012,12-07-2012,91 dias,"Portugal, Lisboa, Vila Franca de Xira<BR/>Portugal, Santarém, Ferreira do Zezere","Artigo 155.º, alínea a) do Código dos Contratos Públicos",,,,,,Não aplicável.,Não aplicável.,
Prestação de serviços de cuidados de saúde na área de enfermagem,Concurso público,Aquisição de serviços,"85141200-1, Serviços prestados pelo pessoal de enfermagem","Administração Regional de Saúde de Lisboa e Vale do Tejo, I.P. (503148776)","Medicsearch, SA (508080517)","13.494,00 €",10-10-2012,12-07-2012,91 dias,"Portugal, Setúbal, Setúbal<BR/>Portugal, Setúbal, Palmela","Artigo 155.º, alínea a) do Código dos Contratos Públicos",,,,,,Não aplicável.,Não aplicável.,
Prestação de serviços de cuidados de saúde na área de enfermagem,Concurso público,Aquisição de serviços,"85141200-1, Serviços prestados pelo pessoal de enfermagem","Administração Regional de Saúde de Lisboa e Vale do Tejo, I.P. (503148776)","E-Sycare, SA (509706134)","50.271,39 €",10-10-2012,12-07-2012,91 dias,"Portugal, Setúbal, Seixal<BR/>Portugal, Setúbal, Almada","Artigo 155.º, alínea a) do Código dos Contratos Públicos",,,,,,Não aplicável.,Não aplicável.,
Prestação de serviços de enfermagem para o periodo de 02-07 a 30-09 de 2012.,Concurso público,Aquisição de serviços,"85141200-1, Serviços prestados pelo pessoal de enfermagem","Administração Regional de Saúde de Lisboa e Vale do Tejo, I.P. (503148776)","Quantumtime Clinical, Lda (508851866)","57.452,27 €",09-10-2012,12-07-2012,90 dias,"Portugal, Lisboa, Sintra<BR/>Portugal, Lisboa, Amadora","Artigo 155.º, alínea a) do Código dos Contratos Públicos",,,,,,Não aplicável.,Não aplicável.,
Aquisição de Algálias diversas,Concurso público,Locação de bens móveis,"33140000-3, Material médico de consumo","Administração Regional de Saúde de Lisboa e Vale do Tejo, I.P. (503148776)","Coloplast Portugal (503989037), Ezequiel Panão Jorge, Lda. (501412727)","21.746,80 €",09-10-2012,28-09-2012,20 dias,"Portugal, Lisboa","Artigo 155.º, alínea b) do Código dos Contratos Públicos",,,,,,Não aplicável.,Não aplicável.,
Aquisição de Consumíveis de Impressão do Lote KONICA MINOLTA - Lote 3 do PECI,Ajuste Direto Regime Geral,Aquisição de bens móveis,"30125110-5, Tóner para impressoras laser e aparelhos de fax","Administração Regional de Saúde de Lisboa e Vale do Tejo, I.P. (503148776)","NEWALBAN - Soluções para Empresas, S.A. (505076780)","219,00 €",08-10-2012,08-10-2012,20 dias,"Portugal, Lisboa, Lisboa",Artigo 258.º do Código dos Contratos Públicos,,,,,,Não aplicável.,Não aplicável.,
Aquisição de Consumíveis de Impressão do Lote PANASONIC - Lote 3 do PECI,Ajuste Direto Regime Geral,Aquisição de bens móveis,"30125110-5, Tóner para impressoras laser e aparelhos de fax","Administração Regional de Saúde de Lisboa e Vale do Tejo, I.P. (503148776)","JODRAX, Comércio de Equipamentos de Escritório, Lda. (503580724)","608,00 €",08-10-2012,04-10-2012,20 dias,"Portugal, Lisboa, Lisboa",Artigo 258.º do Código dos Contratos Públicos,,,,,,Não aplicável.,Não aplicável.,
Aquisição de Isoniazida 300 mg,Ajuste Direto Regime Geral,Aquisição de bens móveis,"33651000-8, Anti-infecciosos gerais de uso sistémico","Administração Regional de Saúde de Lisboa e Vale do Tejo, I.P. (503148776)",Laboratório Militar de Pod. Q. e Farmacêuticos (600019675),"7.200,00 €",03-10-2012,03-10-2012,20 dias,"Portugal, Lisboa, Lisboa","Artigo 20.º, n.º 1, alínea a) do Código dos Contratos Públicos",,,,,,Não aplicável.,Não aplicável.,
Obra de Beneficiação e Remodelação dos Pisos 1 e 2 do Edifício da Avenida dos EUA nº77,Concurso público,Empreitadas de obras públicas,"45454000-4, Obras de reestruturação","Administração Regional de Saúde de Lisboa e Vale do Tejo, I.P. (503148776)","GNC - Gás Natural Climatização Unipessoal, Lda (504050435)","85.881,19 €",03-10-2012,19-09-2012,30 dias,"Portugal, Lisboa","Artigo 19.º, alínea b) do Código dos Contratos Públicos",,,,,,Não aplicável.,Não aplicável.,
Aquisição de Vacina contra a Raiva,Ajuste Direto Regime Geral,Aquisição de bens móveis,"33651600-4, Vacinas","Administração Regional de Saúde de Lisboa e Vale do Tejo, I.P. (503148776)","Novartis Farma - Produtos Farmaceuticos, S.A. (500063524)","1.297,50 €",02-10-2012,02-10-2012,20 dias,"Portugal, Lisboa","Artigo 26.º, n.º 1, alínea e) do Código dos Contratos Públicos",,,,,,Não aplicável.,Não aplicável.,
"Revisão de Preços da Empreitada de Construção da Unidade de Saúde Familiar Kosmus, no Centro de Saúde da Parede",Ajuste Direto Regime Geral,Empreitadas de obras públicas,"45453100-8, Obras de recuperação","Administração Regional de Saúde de Lisboa e Vale do Tejo, I.P. (503148776)","Comprojecto - Projectos e Construções, Lda (501191690)","13.595,37 €",02-10-2012,02-10-2012,20 dias,"Portugal, Lisboa","Artigo 19.º, alínea a) do Código dos Contratos Públicos",,,,,,Não aplicável.,Não aplicável.,
Construção de ramal para telecomunicações de voz e dados para a USF 7ª Colina do ACES 01 Lisboa Norte,Ajuste Direto Regime Geral,Aquisição de serviços,"50700000-2, Serviços de reparação e manutenção de equipamento em edifícios","Administração Regional de Saúde de Lisboa e Vale do Tejo, I.P. (503148776)","PT Comunicações, S.A. (504615947)","270,00 €",02-10-2012,28-09-2012,35 dias,"Portugal, Lisboa, Lisboa","Artigo 24.º, n.º 1, alínea e) do Código dos Contratos Públicos",,,,,,Não aplicável.,Não aplicável.,
Construção de ramal para comunicações de voz e dados na UCSP Sobral Monte Agraço,Ajuste Direto Regime Geral,Aquisição de serviços,"50700000-2, Serviços de reparação e manutenção de equipamento em edifícios","Administração Regional de Saúde de Lisboa e Vale do Tejo, I.P. (503148776)","PT Comunicações, S.A. (504615947)","1.499,70 €",02-10-2012,28-09-2012,35 dias,"Portugal, Lisboa, Sobral de Monte Agraço","Artigo 24.º, n.º 1, alínea e) do Código dos Contratos Públicos",,,,,,Não aplicável.,Não aplicável.,
Prestação de serviços com aplicação de materiais na montagem de 2 Esterilizadores verticais e uma Máquina de Lavar Miéle no LSP ARSLVT - Oeiras.,Ajuste Direto Regime Geral,Aquisição de serviços,"98390000-3, Outros serviços","Administração Regional de Saúde de Lisboa e Vale do Tejo, I.P. (503148776)",Such - Serviço de Utilização Comuns Hospitais (500900469),"1.128,20 €",02-10-2012,01-10-2012,20 dias,"Portugal, Lisboa, Oeiras","Artigo 24.º, n.º 1, alínea e) do Código dos Contratos Públicos",,,,,,Não aplicável.,Não aplicável.,
Prestação de Serviços de deslocações,Ajuste Direto Regime Geral,Aquisição de serviços,"63515000-2, Serviços de viagens","Administração Regional de Saúde de Lisboa e Vale do Tejo, I.P. (503148776)","TOP ATLÂNTICO - Viagens e Turismo, S.A. (501061126)","1.199,38 €",02-10-2012,28-09-2012,1 dias,"Portugal, Lisboa, Lisboa",Artigo 258.º do Código dos Contratos Públicos,,,,,,Não aplicável.,Não aplicável.,
Aquisição de Adrenalina Inj. 1mg/ml - 1 ml,Ajuste Direto Regime Geral,Aquisição de bens móveis,"33690000-3, Medicamentos vários","Administração Regional de Saúde de Lisboa e Vale do Tejo, I.P. (503148776)","B. BRAUN MEDICAL, LDA. (501506543)","3.204,00 €",01-10-2012,28-09-2012,20 dias,"Portugal, Lisboa, Lisboa","Artigo 26.º, n.º 1, alínea e) do Código dos Contratos Públicos",,,,,,Não aplicável.,Não aplicável.,
Aquisição de Amicacina Inj. 250mg/ml - 2 ml,Ajuste Direto Regime Geral,Aquisição de bens móveis,"33690000-3, Medicamentos vários","Administração Regional de Saúde de Lisboa e Vale do Tejo, I.P. (503148776)","Laboratórios Normon, SA (505654156)","1.780,00 €",01-10-2012,28-09-2012,20 dias,"Portugal, Lisboa, Lisboa","Artigo 26.º, n.º 1, alínea e) do Código dos Contratos Públicos",,,,,,Não aplicável.,Não aplicável.,
Aquisição de Batas Descartáveis,Ajuste Direto Regime Geral,Aquisição de bens móveis,"33140000-3, Material médico de consumo","Administração Regional de Saúde de Lisboa e Vale do Tejo, I.P. (503148776)","OVERPHARMA - Prod. Med. Farmacêutica, Lda. (505792362)","3.744,00 €",01-10-2012,28-09-2012,20 dias,"Portugal, Lisboa, Lisboa","Artigo 26.º, n.º 1, alínea e) do Código dos Contratos Públicos",,,,,,Não aplicável.,Não aplicável.,
