Objeto do Contrato,Tipo de Procedimento,Tipo(s) de Contrato,CPVs,Entidade(s) Adjudicante(s),Entidade(s) Adjudicatária(s),Preço Contratual,Data de Publicação,Data de Celebração do Contrato,Prazo de Execução,Local de Execução,Fundamentação,Data de Fecho do Contrato,Preço Total Efetivo,Causas das Alterações ao Prazo,Causas das Alterações ao Preço,Estado,N.º registo do Acordo Quadro,Descrição do Acordo Quadro,Procedimento Centralizado
Equipamento para teste de AVAC,Ajuste Direto Regime Geral,Aquisição de bens móveis,"31600000-2, Equipamento e aparelhos eléctricos",Serviço de Utilização Comum dos Hospitais (500900469),"F.FONSECA, S.A. (500833982)","7.106,29 €",11-08-2017,09-08-2017,45 dias,"Portugal, Porto, Porto","Artigo 20.º, n.º 1, alínea a) do Código dos Contratos Públicos",,,,,,Não aplicável.,Não aplicável.,FALSE
"Manutenção a Equipamento de Datacenter dos Ed. do INEM de Lisboa, Porto e Coimbra.",Ajuste Direto Regime Geral,Aquisição de serviços,"50700000-2, Serviços de reparação e manutenção de equipamento em edifícios",Serviço de Utilização Comum dos Hospitais (500900469),"SCHNEIDER ELECTRIC PORTUGAL, LDA (500281858)","8.183,00 €",11-08-2017,25-07-2017,160 dias,Portugal,"Artigo 20.º, n.º 1, alínea a) do Código dos Contratos Públicos",,,,,,Não aplicável.,Não aplicável.,FALSE
