Objeto do Contrato,Tipo de Procedimento,Tipo(s) de Contrato,CPVs,Entidade(s) Adjudicante(s),Entidade(s) Adjudicatária(s),Preço Contratual,Data de Publicação,Data de Celebração do Contrato,Prazo de Execução,Local de Execução,Fundamentação,Data de Fecho do Contrato,Preço Total Efetivo,Causas das Alterações ao Prazo,Causas das Alterações ao Preço,Estado,N.º registo do Acordo Quadro,Descrição do Acordo Quadro,Procedimento Centralizado
"Aquisição de reagentes para análise sumária de urina tipo II e sedimento urinário para o Hospital Distrital da Figueira da Foz, EPE",Ajuste Direto Regime Geral,Aquisição de bens móveis,"33696700-2, Reagentes para urologia","Hospital Distrital Figueira da Foz, E.P.E. (506361527)","ROCHE SISTEMAS DIAGNOSTICO,LDA (504282921)","17.400,00 €",21-11-2017,02-11-2017,365 dias,"Portugal, Coimbra, Figueira da Foz","Artigo 20.º, n.º 1, alínea a) do Código dos Contratos Públicos",,,,,,Não aplicável.,Não aplicável.,FALSE
T265 - TENOFOVIR (COMP. REVESTIDOS) 245 MG; COMP.,Ao abrigo de acordo-quadro (art.º 259.º),Aquisição de bens móveis,"33650000-1, Anti-infecciosos gerais de uso sistémico, vacinas, antineoplásicos e imunomoduladores","Hospital Distrital da Figueira da Foz, E. P. E. (506361527)","GILEAD SCIENCES, LDA (503604704)","16.030,08 €",15-11-2017,03-03-2017,365 dias,"Portugal, Coimbra, Figueira da Foz",Artigo 259.º do Código dos Contratos Públicos,,,,,,2183729,Medicamentos antirretrovíricos para o tratamento da infeção por VIH,FALSE
