Objeto do Contrato,Tipo de Procedimento,Tipo(s) de Contrato,CPVs,Entidade(s) Adjudicante(s),Entidade(s) Adjudicatária(s),Preço Contratual,Data de Publicação,Data de Celebração do Contrato,Prazo de Execução,Local de Execução,Fundamentação,Data de Fecho do Contrato,Preço Total Efetivo,Causas das Alterações ao Prazo,Causas das Alterações ao Preço,Estado,N.º registo do Acordo Quadro,Descrição do Acordo Quadro,Procedimento Centralizado
"Aquisição de Serviços de Assessoria de Imprensa e Comunicação do Centro Hospitalar de S. João, EPE para o ano de 2017",Ajuste Direto Regime Geral,Aquisição de serviços,"73000000-2, Serviços de investigação e desenvolvimento e serviços de consultoria conexos","Centro Hospitalar de São João, E. P. E. (509821197)","Ilha das Palavras - Comunicação, Unipessoal Lda. (508028515)","32.736,00 €",28-06-2017,10-03-2017,365 dias,"Portugal, Porto, Porto","Artigo 20.º, n.º 1, alínea a) do Código dos Contratos Públicos",,,,,,Não aplicável.,Não aplicável.,FALSE
aquisição de sal Minorador de ph e resinas para o serviço de instalações e equipamentos,Ajuste Direto Regime Geral,Aquisição de bens móveis,"24962000-5, Produtos químicos para tratamento da água","Centro Hospitalar de São João, E. P. E. (509821197)",hemotecnica (501744010),"10.769,00 €",28-06-2017,07-03-2016,60 dias,"Portugal, Porto, Porto","Artigo 20.º, n.º 1, alínea a) do Código dos Contratos Públicos",,,,,,Não aplicável.,Não aplicável.,FALSE
"Aquisição de Serviços de Custódia de Arquivo, para o ano de 2017",Ajuste Direto Regime Geral,Aquisição de serviços,"79100000-5, Serviços jurídicos","Centro Hospitalar de São João, E. P. E. (509821197)","Cuatrecasas, Gonçalves Pereira - Sociedade de Advogados RL (502101210)","36.000,00 €",27-06-2017,22-03-2017,365 dias,"Portugal, Porto, Porto","Artigo 20.º, n.º 1, alínea a) do Código dos Contratos Públicos",,,,,,Não aplicável.,Não aplicável.,FALSE
"Aquisição de Serviços de Custódia de Arquivo, para o ano de 2017",Ajuste Direto Regime Geral,Aquisição de serviços,"72252000-6, Serviços de arquivo informático","Centro Hospitalar de São João, E. P. E. (509821197)",EAD - Empresa de Arquivo de Documentação (507616944),"37.000,00 €",27-06-2017,18-04-2017,365 dias,"Portugal, Porto, Porto","Artigo 20.º, n.º 1, alínea a) do Código dos Contratos Públicos",,,,,,Não aplicável.,Não aplicável.,FALSE
"Aquisição de Serviços de Custódia de Arquivo, para o ano de 2017",Ajuste Direto Regime Geral,Aquisição de serviços,"72252000-6, Serviços de arquivo informático","Centro Hospitalar de São João, E. P. E. (509821197)",EAD - Empresa de Arquivo de Documentação (507616944),"37.000,00 €",27-06-2017,18-04-2017,365 dias,"Portugal, Porto, Porto","Artigo 20.º, n.º 1, alínea a) do Código dos Contratos Públicos",,,,,,Não aplicável.,Não aplicável.,FALSE
"Aquisição de Serviços para Gestão de Projecto de Implementação de um Repositório Clínico Digital (RCD), no Centro Hospitalar de São João, EPE",Ajuste Direto Regime Geral,Aquisição de serviços,"73000000-2, Serviços de investigação e desenvolvimento e serviços de consultoria conexos","Centro Hospitalar de São João, E. P. E. (509821197)","INESC TEC - Instituto de Engenharia de Sistemas e Computadores, Tecnologia e Ciência (504441361)","58.200,00 €",27-06-2017,01-06-2017,365 dias,"Portugal, Porto, Porto","Artigo 20.º, n.º 1, alínea a) do Código dos Contratos Públicos",,,,,,Não aplicável.,Não aplicável.,FALSE
"Aquisição de Serviços de Jardinagem para o CHSJ, EPE. para o ano de 2017",Ajuste Direto Regime Geral,Aquisição de serviços,"77310000-6, Serviços de plantação e manutenção de áreas verdes","Centro Hospitalar de São João, E. P. E. (509821197)",Jovefijar (503838454),"40.206,00 €",27-06-2017,24-01-2017,365 dias,"Portugal, Porto, Porto","Artigo 20.º, n.º 1, alínea a) do Código dos Contratos Públicos",,,,,,Não aplicável.,Não aplicável.,FALSE
Aquisição de Serviços de Análises e Avaliação - Sagilab,Ajuste Direto Regime Geral,Aquisição de serviços,"71620000-0, Serviços de análise","Centro Hospitalar de São João, E. P. E. (509821197)","Sagilab - Laboratório de Análises Técnicas, S.A. (504486799)","14.510,80 €",27-06-2017,12-01-2017,365 dias,"Portugal, Porto, Porto","Artigo 20.º, n.º 1, alínea a) do Código dos Contratos Públicos",,,,,,Não aplicável.,Não aplicável.,FALSE
"Contrato de Manutenção às Unidades de Tratamento de Águas de vários Serviços do Centro Hospitalar de São João, EPE, para o ano de 2016",Ajuste Direto Regime Geral,Aquisição de serviços,"50000000-5, Serviços de reparação e manutenção","Centro Hospitalar de São João, E. P. E. (509821197)",HEMOTECNICA (501744010),"12.333,60 €",23-06-2017,03-02-2016,365 dias,"Portugal, Porto, Porto","Artigo 20.º, n.º 1, alínea a) do Código dos Contratos Públicos",,,,,,Não aplicável.,Não aplicável.,FALSE
"Contrato de Manutenção aos Equipamentos de Ventilação e Cuidados Intensivos instalados no CHSJ, EPE para o ano de 2017",Ajuste Direto Regime Geral,Aquisição de serviços,"50000000-5, Serviços de reparação e manutenção","Centro Hospitalar de São João, E. P. E. (509821197)","Pulmocor - Equipamento Medico, SA (501402578)","20.196,00 €",23-06-2017,23-02-2017,365 dias,"Portugal, Porto, Porto","Artigo 24.º, n.º 1, alínea e) do Código dos Contratos Públicos",,,,,,Não aplicável.,Não aplicável.,FALSE
"Renovação do Contrato de Manutenção e Assistência Técnica ao Sistema Automático de Distribuição e Reembalagem de Medicamentos instalados no CHSJ, EPE para o ano de 2017",Ajuste Direto Regime Geral,Aquisição de serviços,"50000000-5, Serviços de reparação e manutenção","Centro Hospitalar de São João, E. P. E. (509821197)",BAXTER MEDICO-FARMACEUTICA LDA (503347345),"19.084,28 €",23-06-2017,11-01-2017,365 dias,"Portugal, Porto, Porto","Artigo 24.º, n.º 1, alínea e) do Código dos Contratos Públicos",,,,,,Não aplicável.,Não aplicável.,FALSE
"Serviços de Assistência Técnica ao software B-ICU-Care, instalado no CHSJ, EPE para o ano de 2017",Ajuste Direto Regime Geral,Aquisição de serviços,"50000000-5, Serviços de reparação e manutenção","Centro Hospitalar de São João, E. P. E. (509821197)",B - Simple (506188841),"90.722,74 €",23-06-2017,20-03-2017,365 dias,"Portugal, Porto, Porto","Artigo 24.º, n.º 1, alínea e) do Código dos Contratos Públicos",,,,,,Não aplicável.,Não aplicável.,FALSE
"Serviços de Manutenção Corretiva e Evolutiva dos Sistemas Clinidata, instalado no CHSJ, EPE, para o ano de 2017",Ajuste Direto Regime Geral,Aquisição de serviços,"50000000-5, Serviços de reparação e manutenção","Centro Hospitalar de São João, E. P. E. (509821197)","MAXDATA SOFTWARE, S.A. (502250259)","55.800,00 €",23-06-2017,22-06-2017,365 dias,"Portugal, Porto, Porto","Artigo 24.º, n.º 1, alínea e) do Código dos Contratos Públicos",,,,,,Não aplicável.,Não aplicável.,FALSE
"Contrato de Manutenção e Assistência Técnica aos Equipamentos de Esterilização instalados no CHSJ, EPE para o ano 2017",Ajuste Direto Regime Geral,Aquisição de serviços,"50000000-5, Serviços de reparação e manutenção","Centro Hospitalar de São João, E. P. E. (509821197)","A.J. Costa (Irmaos),Lda. (500002576)","12.852,00 €",23-06-2017,23-05-2017,365 dias,"Portugal, Porto, Porto","Artigo 24.º, n.º 1, alínea e) do Código dos Contratos Públicos",,,,,,Não aplicável.,Não aplicável.,FALSE
"aquisição de sensores de Gotas fresenius para o serviço de instalações e equipamentos do CHSJ, EPE",Ajuste Direto Regime Geral,Aquisição de bens móveis,"39290000-1, Acessórios diversos","Centro Hospitalar de São João, E. P. E. (509821197)",FRESENIUS KABI PHARMA PORTUGAL LDA (504293753),"23.735,00 €",21-06-2017,12-06-2017,60 dias,"Portugal, Porto, Porto","Artigo 24.º, n.º 1, alínea e) do Código dos Contratos Públicos",,,,,,Não aplicável.,Não aplicável.,FALSE
