Objeto do Contrato,Tipo de Procedimento,Tipo(s) de Contrato,CPVs,Entidade(s) Adjudicante(s),Entidade(s) Adjudicatária(s),Preço Contratual,Data de Publicação,Data de Celebração do Contrato,Prazo de Execução,Local de Execução,Fundamentação,Data de Fecho do Contrato,Preço Total Efetivo,Causas das Alterações ao Prazo,Causas das Alterações ao Preço,Estado,N.º registo do Acordo Quadro,Descrição do Acordo Quadro,Procedimento Centralizado
Processo n.º 13900597. Alterações e correções a efetuar nas Inst. Elétricas no Centro de Saúde de Miranda do Corvo.,Ajuste Direto Regime Geral,Aquisição de serviços,"50000000-5, Serviços de reparação e manutenção","Administração Regional de Saúde do Centro, I. P. (503122165)","Irtel - Inst. Rádio Televisão e Eletricidade, Lda. (501583033)","555,00 €",09-06-2014,09-06-2014,6 dias,"Portugal, Coimbra, Coimbra","Artigo 20.º, n.º 1, alínea a) do Código dos Contratos Públicos","","",,"",,Não aplicável.,Não aplicável.,FALSE
Aquisição de material de consumo clinico para os Laboratórios de Saúde Pública,Ajuste Direto Regime Geral,Aquisição de bens móveis,"33140000-3, Material médico de consumo","Administração Regional de Saúde do Centro, I. P. (503122165)","VWR International, Lda (503842770)","2.624,60 €",06-06-2014,06-06-2014,180 dias,"Portugal, Aveiro, Aveiro<BR/>Portugal, Leiria, Leiria<BR/>Portugal, Coimbra, Coimbra","Artigo 20.º, n.º 1, alínea a) do Código dos Contratos Públicos",05-11-2014,"2.624,60 €",,"",,Não aplicável.,Não aplicável.,FALSE
Aquisição de material de consumo clinico para os Laboratórios de Saúde Pública,Ajuste Direto Regime Geral,Aquisição de bens móveis,"33140000-3, Material médico de consumo","Administração Regional de Saúde do Centro, I. P. (503122165)","Vidrolab2, SA (501450629)","4.731,32 €",06-06-2014,06-06-2014,180 dias,"Portugal, Aveiro, Aveiro<BR/>Portugal, Coimbra, Coimbra<BR/>Portugal, Leiria, Leiria","Artigo 20.º, n.º 1, alínea a) do Código dos Contratos Públicos",22-12-2014,"4.731,32 €",,"",,Não aplicável.,Não aplicável.,FALSE
Aquisição de material de consumo clinico para os Laboratórios de Saúde Pública,Ajuste Direto Regime Geral,Aquisição de bens móveis,"33140000-3, Material médico de consumo","Administração Regional de Saúde do Centro, I. P. (503122165)","Type Solution, SA (508400317)","9.600,81 €",06-06-2014,06-06-2014,180 dias,"Portugal, Coimbra, Coimbra<BR/>Portugal, Aveiro, Aveiro<BR/>Portugal, Leiria, Leiria","Artigo 20.º, n.º 1, alínea a) do Código dos Contratos Públicos",12-12-2014,"9.600,81 €",,"",,Não aplicável.,Não aplicável.,FALSE
Aquisição de material de consumo clinico para os Laboratórios de Saúde Pública,Ajuste Direto Regime Geral,Aquisição de bens móveis,"33140000-3, Material médico de consumo","Administração Regional de Saúde do Centro, I. P. (503122165)","Normax - Fábrica de Vidros Científicos, Lda (500203130)","2.276,48 €",06-06-2014,06-06-2014,180 dias,"Portugal, Aveiro, Aveiro<BR/>Portugal, Coimbra, Coimbra<BR/>Portugal, Leiria, Leiria","Artigo 20.º, n.º 1, alínea a) do Código dos Contratos Públicos",17-11-2014,"2.268,48 €",," A diferença de 8 €, deve-se ao fato da quantidade por embagem ser de 1000 unidades e restaram 500 unidades, e não foi possível ecomendar.",,Não aplicável.,Não aplicável.,FALSE
Aquisição de material de consumo clinico para os Laboratórios de Saúde Pública,Ajuste Direto Regime Geral,Aquisição de bens móveis,"33140000-3, Material médico de consumo","Administração Regional de Saúde do Centro, I. P. (503122165)","José Manuel Gomes dos Santos, Lda (501399224)","1.520,80 €",06-06-2014,06-06-2014,180 dias,"Portugal, Aveiro, Aveiro<BR/>Portugal, Leiria, Leiria<BR/>Portugal, Coimbra, Coimbra","Artigo 20.º, n.º 1, alínea a) do Código dos Contratos Públicos",23-01-2015,"1.520,80 €",,"",,Não aplicável.,Não aplicável.,FALSE
Aquisição de material de consumo clinico para os Laboratórios de Saúde Pública,Ajuste Direto Regime Geral,Aquisição de bens móveis,"33140000-3, Material médico de consumo","Administração Regional de Saúde do Centro, I. P. (503122165)","Frilabo II, Lda (507958861)","1.617,27 €",06-06-2014,06-06-2014,180 dias,"Portugal, Coimbra, Coimbra<BR/>Portugal, Leiria, Leiria<BR/>Portugal, Aveiro, Aveiro","Artigo 20.º, n.º 1, alínea a) do Código dos Contratos Públicos",10-02-2015,"1.617,27 €",,"",,Não aplicável.,Não aplicável.,FALSE
Empreitada para remodelação do Centro de Saúde de Sever do Vouga,Concurso público,Empreitadas de obras públicas,"45215100-8, Obras de construção de edifícios relacionados com serviços de saúde","Administração Regional de Saúde do Centro, I.P. (503122165)","Energcambra - Construção Civil e Obras Públicas, Lda (509910327)","164.482,96 €",06-06-2014,27-05-2014,180 dias,"Portugal, Aveiro, Sever do Vouga","Artigo 19.º, alínea b) do Código dos Contratos Públicos","","",,"",,Não aplicável.,Não aplicável.,FALSE
Empreitada de ampliação da Extensão de Saúde de Ponte de Vagos,Concurso público,Empreitadas de obras públicas,"45262800-9, Obras de ampliação de edifícios","Administração Regional de Saúde do Centro, I.P. (503122165)","Energcambra - Construção Civil e Obras Públicas, Lda (509910327)","144.879,67 €",06-06-2014,27-05-2014,180 dias,"Portugal, Aveiro, Vagos","Artigo 19.º, alínea b) do Código dos Contratos Públicos","","",,"",,Não aplicável.,Não aplicável.,FALSE
Aquisição de reagente para determinação do tempo de protrombina,Ajuste Direto Regime Geral,Aquisição de bens móveis,"33696500-0, Reagentes de laboratório","Administração Regional de Saúde do Centro, I. P. (503122165)",ROCHE SISTEMAS DE DIAGNOSTICO (504282921),"40.380,00 €",05-06-2014,05-06-2014,30 dias,"Portugal, Coimbra, Coimbra","Artigo 24.º, n.º 1, alínea e) do Código dos Contratos Públicos","","",,"",,Não aplicável.,Não aplicável.,FALSE
"Serviços de mudanças de vários edifícios da ARSC, IP",Concurso público,Aquisição de serviços,"63110000-3, Serviços de movimentação de carga","Administração Regional de Saúde do Centro, I. P. (503122165)","Urbanos Soluções, SA (502392290)","32.015,24 €",05-06-2014,13-05-2014,365 dias,"Portugal, Coimbra, Coimbra<BR/>Portugal, Coimbra, Lousã","Artigo 20.º, n.º 1, alínea b) do Código dos Contratos Públicos",17-07-2015,"25.672,14 €",,A bolsa de horas considerada no lote 3 não foi esgotada por não ter sido necessário.,,Não aplicável.,Não aplicável.,FALSE
Aquisição de medicamentos,Ao abrigo de acordo-quadro (art.º 259.º),Aquisição de bens móveis,"33690000-3, Medicamentos vários","Administração Regional de Saúde do Centro, I. P. (503122165)",ACTAVIS AS (980334934),"114,52 €",05-06-2014,06-05-2014,180 dias,"Portugal, Coimbra, Coimbra",Artigo 259.º do Código dos Contratos Públicos,"","",,"",,463786,"P 2012/2 - Medicamentos do Sistema Nervoso Cerebrospinal: exceto anestésicos, relaxantes musculares, analgésicos, antipiréticos, antidepressores e anti-psicóticos",FALSE
Aquisição de medicamentos,Ao abrigo de acordo-quadro (art.º 259.º),Aquisição de bens móveis,"33690000-3, Medicamentos vários","Administração Regional de Saúde do Centro, I. P. (503122165)",LABESFAL (501169580),"1.125,50 €",05-06-2014,06-05-2014,180 dias,"Portugal, Coimbra, Coimbra",Artigo 259.º do Código dos Contratos Públicos,"","",,"",,463786,"P 2012/2 - Medicamentos do Sistema Nervoso Cerebrospinal: exceto anestésicos, relaxantes musculares, analgésicos, antipiréticos, antidepressores e anti-psicóticos",FALSE
Aquisição de medicamentos,Ao abrigo de acordo-quadro (art.º 259.º),Aquisição de bens móveis,"33690000-3, Medicamentos vários","Administração Regional de Saúde do Centro, I. P. (503122165)",MEDA PHARMA (500082090),"174,00 €",05-06-2014,06-05-2014,180 dias,"Portugal, Coimbra, Coimbra",Artigo 259.º do Código dos Contratos Públicos,"","",,"",,463786,"P 2012/2 - Medicamentos do Sistema Nervoso Cerebrospinal: exceto anestésicos, relaxantes musculares, analgésicos, antipiréticos, antidepressores e anti-psicóticos",FALSE
Aquisição de medicamentos,Ao abrigo de acordo-quadro (art.º 259.º),Aquisição de bens móveis,"33690000-3, Medicamentos vários","Administração Regional de Saúde do Centro, I. P. (503122165)",FARMOZ (501505334),"154,00 €",05-06-2014,06-05-2014,180 dias,"Portugal, Coimbra, Coimbra",Artigo 259.º do Código dos Contratos Públicos,"","",,"",,463786,"P 2012/2 - Medicamentos do Sistema Nervoso Cerebrospinal: exceto anestésicos, relaxantes musculares, analgésicos, antipiréticos, antidepressores e anti-psicóticos",FALSE
Aquisição de medicamentos,Ao abrigo de acordo-quadro (art.º 259.º),Aquisição de bens móveis,"33690000-3, Medicamentos vários","Administração Regional de Saúde do Centro, I. P. (503122165)",TECNIFAR (500280436),"118,54 €",05-06-2014,06-05-2014,180 dias,"Portugal, Coimbra, Coimbra",Artigo 259.º do Código dos Contratos Públicos,"","",,"",,463786,"P 2012/2 - Medicamentos do Sistema Nervoso Cerebrospinal: exceto anestésicos, relaxantes musculares, analgésicos, antipiréticos, antidepressores e anti-psicóticos",FALSE
Aquisição de Agomelatina,Ajuste Direto Regime Geral,Aquisição de bens móveis,"33600000-6, Produtos farmacêuticos","Administração Regional de Saúde do Centro, I. P. (503122165)",servier portugal (502177420),"720,00 €",05-06-2014,04-06-2014,60 dias,"Portugal, Coimbra, Coimbra","Artigo 24.º, n.º 1, alínea e) do Código dos Contratos Públicos","","",,"",,Não aplicável.,Não aplicável.,FALSE
Aquisição de lidocaina 10%,Ao abrigo de acordo-quadro (art.º 259.º),Aquisição de bens móveis,"33600000-6, Produtos farmacêuticos","Administração Regional de Saúde do Centro, I. P. (503122165)",SIDEFARMA (500717419),"1.262,50 €",05-06-2014,05-06-2014,60 dias,"Portugal, Coimbra, Coimbra",Artigo 259.º do Código dos Contratos Públicos,"","",,"",,520788,CONCURSO PUBLICO PARA A CELEBRAÇÃO DE CONTRATOS PUBLICOS DE APROVISIONAMENTO PARA A AREA DA SAUDE  COM VISTA AO FORNECIMENTO DE MEDICAMENTOS PARA O APARELHO DIGESTIVO  AS INSITUIÇÕES DO SERVIÇO NACIONAL DE SAÚDE,FALSE
Aquisição de imunoglobulinas,Ao abrigo de acordo-quadro (art.º 259.º),Aquisição de bens móveis,"33651520-9, Imunoglobulinas","Administração Regional de Saúde do Centro, I. P. (503122165)","GRIFOLS PORTUGAL-PROD.FARMACEUTICOS E HOSPITALARES, LDA (502041285)","600,00 €",05-06-2014,04-06-2014,180 dias,"Portugal, Coimbra, Coimbra",Artigo 259.º do Código dos Contratos Públicos,"","",,"",,535788,"CONCURSO PÚBLICO PARA A CELEBRAÇÃO DE CONTRATOSPÚBLICOS DE APROVISIONAMENTO PARA A ÁREA DA SAÚDE, COM VISTA AO FORNECIMENTO DE DERIVADOS DO PLASMA HUMANOÀS INSTITUIÇÕES E SERVIÇOS DO SERVIÇO NACIONAL DE SAÚDE",FALSE
Aquisição de imunoglobulinas,Ao abrigo de acordo-quadro (art.º 259.º),Aquisição de bens móveis,"33651520-9, Imunoglobulinas","Administração Regional de Saúde do Centro, I. P. (503122165)","OCTAPHARMA-PRODUTOS FARMACEUTICOS,LDA (502820780)","48.000,00 €",05-06-2014,05-06-2014,180 dias,"Portugal, Coimbra, Coimbra",Artigo 259.º do Código dos Contratos Públicos,"","",,"",,535788,"CONCURSO PÚBLICO PARA A CELEBRAÇÃO DE CONTRATOSPÚBLICOS DE APROVISIONAMENTO PARA A ÁREA DA SAÚDE, COM VISTA AO FORNECIMENTO DE DERIVADOS DO PLASMA HUMANOÀS INSTITUIÇÕES E SERVIÇOS DO SERVIÇO NACIONAL DE SAÚDE",FALSE
Aquisição de tiras p/ determinação de glicose no sangue,Concurso público,Aquisição de bens móveis,"33000000-0, Equipamento médico, medicamentos e produtos para cuidados pessoais","Administração Regional de Saúde do Centro, I. P. (503122165)","ABBOTT LABORATORIOS, LDA (500006148)","24.640,00 €",05-06-2014,23-05-2014,180 dias,"Portugal, Coimbra, Coimbra","Artigo 20.º, n.º 1, alínea b) do Código dos Contratos Públicos","","",,"",,Não aplicável.,Não aplicável.,FALSE
Aquisição de medicamentos,Ajuste Direto Regime Geral,Aquisição de bens móveis,"33600000-6, Produtos farmacêuticos","Administração Regional de Saúde do Centro, I. P. (503122165)","SERVIER PORTUGAL-ESP. FARMACEUTICAS, LDA (502177420)","737,21 €",04-06-2014,04-06-2014,180 dias,"Portugal, Coimbra, Coimbra","Artigo 20.º, n.º 1, alínea a) do Código dos Contratos Públicos","","",,"",,Não aplicável.,Não aplicável.,FALSE
Aquisição de medicamentos,Ao abrigo de acordo-quadro (art.º 259.º),Aquisição de bens móveis,"33690000-3, Medicamentos vários","Administração Regional de Saúde do Centro, I. P. (503122165)","SANOFI-PRODUTOS FARMACEUTICOS, LDA (500134960)","38,76 €",04-06-2014,20-05-2014,180 dias,"Portugal, Coimbra, Coimbra",Artigo 259.º do Código dos Contratos Públicos,"","",,"",,513025,"CONCURSO PÚBLICO PARA A CELEBRAÇÃO DE CONTRATOS PÚBLICOS DE APROVISIONAMENTO PARA A ÁREA DA SAÚDE, COM VISTA AO FORNECIMENTO DE MEDICAMENTOS DE CONSUMO GERAL  (FFOSI)- APARELHO CARDIOVASCULAR., ÀS INSTITUIÇÕES E SERVIÇOS DO SERVIÇO NACIONAL DE SAÚDE",FALSE
Aquisição de medicamentos,Ao abrigo de acordo-quadro (art.º 259.º),Aquisição de bens móveis,"33690000-3, Medicamentos vários","Administração Regional de Saúde do Centro, I. P. (503122165)","GENERIS FARMACEUTICA, SA (508107997)","85,20 €",04-06-2014,20-05-2014,180 dias,"Portugal, Coimbra, Coimbra",Artigo 259.º do Código dos Contratos Públicos,"","",,"",,513025,"CONCURSO PÚBLICO PARA A CELEBRAÇÃO DE CONTRATOS PÚBLICOS DE APROVISIONAMENTO PARA A ÁREA DA SAÚDE, COM VISTA AO FORNECIMENTO DE MEDICAMENTOS DE CONSUMO GERAL  (FFOSI)- APARELHO CARDIOVASCULAR., ÀS INSTITUIÇÕES E SERVIÇOS DO SERVIÇO NACIONAL DE SAÚDE",FALSE
Aquisição de medicamentos,Ao abrigo de acordo-quadro (art.º 259.º),Aquisição de bens móveis,"33690000-3, Medicamentos vários","Administração Regional de Saúde do Centro, I. P. (503122165)",B.BRAUN MEDICAL LDA (501506543),"2.000,40 €",04-06-2014,20-05-2014,180 dias,"Portugal, Coimbra, Coimbra",Artigo 259.º do Código dos Contratos Públicos,"","",,"",,513025,"CONCURSO PÚBLICO PARA A CELEBRAÇÃO DE CONTRATOS PÚBLICOS DE APROVISIONAMENTO PARA A ÁREA DA SAÚDE, COM VISTA AO FORNECIMENTO DE MEDICAMENTOS DE CONSUMO GERAL  (FFOSI)- APARELHO CARDIOVASCULAR., ÀS INSTITUIÇÕES E SERVIÇOS DO SERVIÇO NACIONAL DE SAÚDE",FALSE
Aquisição de iodopovidona 1%,Ao abrigo de acordo-quadro (art.º 259.º),Aquisição de bens móveis,"33600000-6, Produtos farmacêuticos","Administração Regional de Saúde do Centro, I. P. (503122165)","MEDA PHARMA-PRODUTOS FARMACEUTICOS, S.A. (500082090)","4.725,00 €",04-06-2014,02-06-2014,180 dias,"Portugal, Coimbra, Coimbra",Artigo 259.º do Código dos Contratos Públicos,"","",,"",,549298,"Concurso Público para a celebração de Contratos Publicos de Aprovisionamento para a área da saúde com vista ao fornecimento de Antisepticos, Desinfetantes e Outros, às Instituições e Serviços do Serviço Nacional de Saúde.",FALSE
processo 14250077,Ao abrigo de acordo-quadro (art.º 259.º),Aquisição de bens móveis,"33600000-6, Produtos farmacêuticos","Administração Regional de Saúde do Centro, I. P. (503122165)",paul hartmann (502271728),"164,00 €",03-06-2014,28-02-2014,120 dias,"Portugal, Coimbra, Coimbra",Artigo 259.º do Código dos Contratos Públicos,"","",,"",,534953,"CONCURSO PÚBLICO PARA A CELEBRAÇÃO DE CONTRATOS PÚBLICOS DE APROVISIONAMENTO PARA A ÁREA DA SAÚDE, COM VISTA AO FORNECIMENTO DE MATERIAL DE PENSO TRADICIONAL/CLASSICO - PARTE 1 - ÀS INSTITUIÇÕES E SERVIÇOS DO SERVIÇO NACIONAL DE SAÚDE  ",FALSE
processo 14100470,Ajuste Direto Regime Geral,Aquisição de bens móveis,"33690000-3, Medicamentos vários","Administração Regional de Saúde do Centro, I. P. (503122165)",cs portugal (503395960),"840,00 €",02-06-2014,02-06-2014,180 dias,"Portugal, Viseu, Viseu","Artigo 24.º, n.º 1, alínea e) do Código dos Contratos Públicos","","",,"",,Não aplicável.,Não aplicável.,FALSE
