Objeto do Contrato,Tipo de Procedimento,Tipo(s) de Contrato,CPVs,Entidade(s) Adjudicante(s),Entidade(s) Adjudicatária(s),Preço Contratual,Data de Publicação,Data de Celebração do Contrato,Prazo de Execução,Local de Execução,Fundamentação,Data de Fecho do Contrato,Preço Total Efetivo,Causas das Alterações ao Prazo,Causas das Alterações ao Preço,Estado,N.º registo do Acordo Quadro,Descrição do Acordo Quadro,Procedimento Centralizado
Alojamento em Coimbra para participação numa reunião - 1 participante/2 dias,Ao abrigo de acordo-quadro (art.º 258.º),Aquisição de serviços,"63510000-7, Serviços de agências de viagens e serviços similares","INFARMED - Autoridade Nacional do Medicamento e Produtos de Saúde, I. P. (600037002)","TQ- Travel Quality - Viagens e Turismo,Lda (501313915)","61,75 €",07-01-2014,30-12-2013,2 dias,Portugal,"Artigo 27.º, n.º 1, alínea h) do Código dos Contratos Públicos",,,,,,273814,"Acordo Quadro de viagens, transportes aéreos e alojamentos",FALSE
Serviços de alojamento no ambito de inspecções a farmácias na zona de Évora-  3participantes/3 dias,Ao abrigo de acordo-quadro (art.º 258.º),Aquisição de serviços,"63510000-7, Serviços de agências de viagens e serviços similares","INFARMED - Autoridade Nacional do Medicamento e Produtos de Saúde, I. P. (600037002)","Pamtours - Viagens e Turismo, Lda (502844779)","444,00 €",06-01-2014,30-12-2013,3 dias,Portugal,"Artigo 27.º, n.º 1, alínea h) do Código dos Contratos Públicos",,,,,,273814,"Acordo Quadro de viagens, transportes aéreos e alojamentos",FALSE
Serviços de alojamento no ambito de inspecções a farmácias na zona do porto- 5 participantes/3 dias,Ao abrigo de acordo-quadro (art.º 258.º),Aquisição de serviços,"63510000-7, Serviços de agências de viagens e serviços similares","INFARMED - Autoridade Nacional do Medicamento e Produtos de Saúde, I. P. (600037002)","pamtours - viagens e turismo,lda (502844779)","700,00 €",06-01-2014,30-12-2013,3 dias,Portugal,"Artigo 27.º, n.º 1, alínea h) do Código dos Contratos Públicos",,,,,,273814,"Acordo Quadro de viagens, transportes aéreos e alojamentos",FALSE
Serviços de viagem para participação numa reunião em Coimbra - 1 participante/1 dia,Ao abrigo de acordo-quadro (art.º 258.º),Aquisição de serviços,"63510000-7, Serviços de agências de viagens e serviços similares","INFARMED - Autoridade Nacional do Medicamento e Produtos de Saúde, I. P. (600037002)","Pamtours - Viagens e Turismo,Lda (502844779)","47,00 €",06-01-2014,18-12-2013,1 dias,Portugal,"Artigo 27.º, n.º 1, alínea h) do Código dos Contratos Públicos",,,,,,273814,"Acordo Quadro de viagens, transportes aéreos e alojamentos",FALSE
"Serviços de alojamento e viagem para participação numa reunião """"Business to Business Africa"""" em Bruxelas, 2 participantes/2 dias",Ao abrigo de acordo-quadro (art.º 258.º),Aquisição de serviços,"63510000-7, Serviços de agências de viagens e serviços similares","INFARMED - Autoridade Nacional do Medicamento e Produtos de Saúde, I. P. (600037002)","Pamtours- Viagens e Turismo,Lda (502844779)","1.871,09 €",06-01-2014,30-12-2013,2 dias,Bélgica,"Artigo 27.º, n.º 1, alínea h) do Código dos Contratos Públicos",,,,,,273814,"Acordo Quadro de viagens, transportes aéreos e alojamentos",FALSE
"serviços de viagem e alojamento para participação na reunião HEADS OF MEDICINES AGENCIES WGEO, em Oslo- 1 participante/ 2 dias",Ao abrigo de acordo-quadro (art.º 258.º),Aquisição de serviços,"63510000-7, Serviços de agências de viagens e serviços similares","INFARMED - Autoridade Nacional do Medicamento e Produtos de Saúde, I. P. (600037002)","TQ- Travel Quality . Viagens e Turismo,Lda (501313915)","1.229,76 €",02-01-2014,30-12-2013,2 dias,Noruega,"Artigo 27.º, n.º 1, alínea h) do Código dos Contratos Públicos",,,,,,273814,"Acordo Quadro de viagens, transportes aéreos e alojamentos",FALSE
"serviços de viagem e alojamento para participação na reunião  DO MINISTERIO DE SANIDAD, SERVICIOS SOCIALES E IGUALDAD,em Madrid- 2 participantes/2 dias",Ao abrigo de acordo-quadro (art.º 258.º),Aquisição de serviços,"63510000-7, Serviços de agências de viagens e serviços similares","INFARMED - Autoridade Nacional do Medicamento e Produtos de Saúde, I. P. (600037002)","TQ- Travel Quality- Viagens e Turismo,Lda (501313915)","907,07 €",02-01-2014,30-12-2013,2 dias,Espanha,"Artigo 27.º, n.º 1, alínea h) do Código dos Contratos Públicos",,,,,,273814,"Acordo Quadro de viagens, transportes aéreos e alojamentos",FALSE
"Serviços de viagem e alojamento para participação na reunião do REPER e DG Markt, em Bruxelas, 1 participante-1 dia",Ao abrigo de acordo-quadro (art.º 258.º),Aquisição de serviços,"63510000-7, Serviços de agências de viagens e serviços similares","INFARMED - Autoridade Nacional do Medicamento e Produtos de Saúde, I. P. (600037002)","TQ- Travel Quality- viagens e turismo,lda (501313915)","582,18 €",02-01-2014,26-12-2013,1 dias,Bélgica,"Artigo 27.º, n.º 1, alínea h) do Código dos Contratos Públicos",,,,,,273814,"Acordo Quadro de viagens, transportes aéreos e alojamentos",FALSE
