Objeto do Contrato,Tipo de Procedimento,Tipo(s) de Contrato,CPVs,Entidade(s) Adjudicante(s),Entidade(s) Adjudicatária(s),Preço Contratual,Data de Publicação,Data de Celebração do Contrato,Prazo de Execução,Local de Execução,Fundamentação,Data de Fecho do Contrato,Preço Total Efetivo,Causas das Alterações ao Prazo,Causas das Alterações ao Preço,Estado,N.º registo do Acordo Quadro,Descrição do Acordo Quadro,Procedimento Centralizado
Aquisição de agulhas hipodermicas,Ao abrigo de acordo-quadro (art.º 259.º),Aquisição de bens móveis,"33000000-0, Equipamento médico, medicamentos e produtos para cuidados pessoais","Administração Regional de Saúde do Centro, I. P. (503122165)",Pergut Portugal (501799729),"2.400,25 €",02-07-2014,02-07-2014,180 dias,"Portugal, Coimbra, Coimbra",Artigo 259.º do Código dos Contratos Públicos,"","",,"",,448705,"CONCURSO PÚBLICO PARA A CELEBRAÇÃO DE CONTRATOS PÚBLICOS DE APROVISIONAMENTO PARA A ÁREA DA SAÚDE, COM VISTA AO FORNECIMENTO DE SERINGAS, AGULHAS, CONTENTORES E SISTEMAS FECHADOS DE COLHEITA,  ÀS INSTITUIÇÕES E SERVIÇOS DO SERVIÇO NACIONAL DE SAÚDE",FALSE
Aquisição de luvas,Ao abrigo de acordo-quadro (art.º 259.º),Aquisição de bens móveis,"33140000-3, Material médico de consumo","Administração Regional de Saúde do Centro, I. P. (503122165)",Anastacio Saldanha Unipessoal Lda (505804441),"13.097,76 €",02-07-2014,02-07-2014,180 dias,"Portugal, Coimbra, Coimbra",Artigo 259.º do Código dos Contratos Públicos,"","",,"",,544071,"CONCURSO PÚBLICO PARA A CELEBRAÇÃO DE CONTRATOS PÚBLICOS DE APROVISIONAMENTO PARA A ÁREA DA SAÚDE, COM VISTA AO FORNECIMENTO DE LUVAS PARA USO MÉDICO, ÀS INSTITUIÇÕES E SERVIÇOS DO SERVIÇO NACIONAL DE SAÚDE",FALSE
Aquisição de material para a consulta de higiene oral e medicina dentária,Ajuste Direto Regime Geral,Aquisição de bens móveis,"33140000-3, Material médico de consumo","Administração Regional de Saúde do Centro, I. P. (503122165)","Compañia Dental de Venta Directa, SA (980187036)","10.459,83 €",02-07-2014,02-07-2014,180 dias,"Portugal, Viseu, Viseu<BR/>Portugal, Coimbra, Coimbra<BR/>Portugal, Aveiro, Aveiro","Artigo 20.º, n.º 1, alínea a) do Código dos Contratos Públicos",07-08-2014,"10.438,53 €",,"A ref.6-830 e ref.6-824, já não estão a ser comercializadas pelo fornecedor, razão pela qual não terem sido fornecidas e também não se encontrarem pendentes.",,Não aplicável.,Não aplicável.,FALSE
Aquisição de material para a consulta de higiene oral e medicina dentária,Ajuste Direto Regime Geral,Aquisição de bens móveis,"33140000-3, Material médico de consumo","Administração Regional de Saúde do Centro, I. P. (503122165)","Vitalcare, Lda (505381206)","1.982,05 €",02-07-2014,02-07-2014,180 dias,"Portugal, Aveiro, Aveiro<BR/>Portugal, Viseu, Viseu<BR/>Portugal, Coimbra, Coimbra","Artigo 20.º, n.º 1, alínea a) do Código dos Contratos Públicos",22-12-2014,"1.982,05 €",,"",,Não aplicável.,Não aplicável.,FALSE
Aquisição de material para a consulta de higiene oral e medicina dentária,Ajuste Direto Regime Geral,Aquisição de bens móveis,"33140000-3, Material médico de consumo","Administração Regional de Saúde do Centro, I. P. (503122165)","Bastos Viegas, SA (500042772)","1.481,38 €",02-07-2014,02-07-2014,180 dias,"Portugal, Viseu, Viseu<BR/>Portugal, Aveiro, Aveiro<BR/>Portugal, Coimbra, Coimbra","Artigo 20.º, n.º 1, alínea a) do Código dos Contratos Públicos",11-12-2014,"1.412,22 €",,.,,Não aplicável.,Não aplicável.,FALSE
Aquisição de equipamento médico para ACeS Pinhal Litoral,Ajuste Direto Regime Geral,Aquisição de bens móveis,"33000000-0, Equipamento médico, medicamentos e produtos para cuidados pessoais","Administração Regional de Saúde do Centro, I.P. (503122165)","Promeicentro, Lda (506470113)","1.333,62 €",02-07-2014,02-07-2014,180 dias,"Portugal, Leiria, Leiria","Artigo 20.º, n.º 1, alínea a) do Código dos Contratos Públicos",28-08-2014,"1.333,62 €",,"",,Não aplicável.,Não aplicável.,FALSE
Aquisição de equipamento médico para ACeS Pinhal Litoral,Ajuste Direto Regime Geral,Aquisição de bens móveis,"33000000-0, Equipamento médico, medicamentos e produtos para cuidados pessoais","Administração Regional de Saúde do Centro, I.P. (503122165)","Mundinter, SA (500199906)","474,64 €",02-07-2014,02-07-2014,180 dias,"Portugal, Leiria, Leiria","Artigo 20.º, n.º 1, alínea a) do Código dos Contratos Públicos",24-07-2014,"474,64 €",,"",,Não aplicável.,Não aplicável.,FALSE
Aquisição de obturador,Ao abrigo de acordo-quadro (art.º 259.º),Aquisição de bens móveis,"33141200-2, Cateteres","Administração Regional de Saúde do Centro, I. P. (503122165)","PMH-PRODUTOS MEDICOS-HOSPITALARES,SA (502376899)","26,00 €",01-07-2014,30-06-2014,60 dias,"Portugal, Coimbra, Coimbra",Artigo 259.º do Código dos Contratos Públicos,"","",,"",,412727,CONCURSO PÚBLICO PARA A CELEBRAÇÃO DE CONTRATOS PÚBLICOS DE APROVISIONAMENTO PARA AQUISIÇÃO DE MATERIAL CATETERES,FALSE
