Objeto do Contrato,Tipo de Procedimento,Tipo(s) de Contrato,CPVs,Entidade(s) Adjudicante(s),Entidade(s) Adjudicatária(s),Preço Contratual,Data de Publicação,Data de Celebração do Contrato,Prazo de Execução,Local de Execução,Fundamentação,Data de Fecho do Contrato,Preço Total Efetivo,Causas das Alterações ao Prazo,Causas das Alterações ao Preço,Estado,N.º registo do Acordo Quadro,Descrição do Acordo Quadro,Procedimento Centralizado
"Aquisição de Dinitrato Isossorbido IV, 1mgml; 10 ml solução injetável",Ajuste Direto Regime Geral,Aquisição de bens móveis,"33600000-6, Produtos farmacêuticos","Hospital Professor Doutor Fernando Fonseca, E. P. E. (503035416)","South Point Care, Especialidades Farmacêuticas Lda. (508284872)","50.332,08 €",09-03-2017,24-02-2017,365 dias,"Portugal, Lisboa, Amadora","Artigo 24.º, n.º 1, alínea e) do Código dos Contratos Públicos",,,,,,Não aplicável.,Não aplicável.,FALSE
Aquisição de Implantes Cocleares - 2017,Concurso público,Aquisição de bens móveis,"33698000-9, Produtos para fins clínicos","Hospital Professor Doutor Fernando Fonseca, E. P. E. (503035416)","Coselgi Portugal, S.A  (509230598)","74.500,00 €",06-03-2017,13-02-2017,321 dias,"Portugal, Lisboa, Amadora","Artigo 20.º, n.º 1, alínea b) do Código dos Contratos Públicos",,,,,,Não aplicável.,Não aplicável.,FALSE
30 Impressoras Zebra gk420d com placa de rede ou Equivalente,Ajuste Direto Regime Geral,Aquisição de bens móveis,"30232110-8, Impressoras laser",Hospital Prof. Doutor Fernando Fonseca E.P.E. (503035416),"Dreamway! Unipessoal, Lda (508771390)","9.270,00 €",03-03-2017,27-02-2017,15 dias,"Portugal, Lisboa, Amadora","Artigo 20.º, n.º 1, alínea a) do Código dos Contratos Públicos",,,,,,Não aplicável.,Não aplicável.,FALSE
CONSUMÍVEIS PARA REALIZAÇÃO DE COLORAÇÃO DE ROTINA (HEMATOXILINA-EOSINA) E MONTAGEM DE LÂMINAS E REAGENTES PARA AUTOMATIZAÇÃO COMPLETA DA IMUNOHISTOQUÍMICA,Concurso público,Aquisição de bens móveis,"33698000-9, Produtos para fins clínicos","Hospital Professor Doutor Fernando Fonseca, E. P. E. (503035416)","LEICA MICROSSISTEMAS,LDA. (500301921)","70.472,00 €",03-03-2017,03-02-2017,331 dias,"Portugal, Lisboa, Amadora","Artigo 20.º, n.º 1, alínea b) do Código dos Contratos Públicos",,,,,,Não aplicável.,Não aplicável.,FALSE
1 Crióstato,Ajuste Direto Regime Geral,Aquisição de bens móveis,"38000000-5, Equipamento laboratorial, óptico e de precisão (exc. óculos)","Hospital Professor Doutor Fernando Fonseca, E. P. E. (503035416)","LEICA MICROSSISTEMAS,LDA. (500301921)","27.183,79 €",03-03-2017,19-01-2017,30 dias,"Portugal, Lisboa, Amadora","Artigo 20.º, n.º 1, alínea a) do Código dos Contratos Públicos",,,,,,Não aplicável.,Não aplicável.,FALSE
