Objeto do Contrato,Tipo de Procedimento,Tipo(s) de Contrato,CPVs,Entidade(s) Adjudicante(s),Entidade(s) Adjudicatária(s),Preço Contratual,Data de Publicação,Data de Celebração do Contrato,Prazo de Execução,Local de Execução,Fundamentação,Data de Fecho do Contrato,Preço Total Efetivo,Causas das Alterações ao Prazo,Causas das Alterações ao Preço,Estado,N.º registo do Acordo Quadro,Descrição do Acordo Quadro,Procedimento Centralizado
Processo n.º 15800090. Empreitada de Obras de Proteção Solar de Fachada Exterior Envidraçada. Centro de Saúde Dr. Arnaldo Sampaio - ACES PL.,Ajuste Direto Regime Geral,Empreitadas de obras públicas,"45000000-7, Construção","Administração Regional de Saúde do Centro, I. P. (503122165)","Reis Pinto, Lda. (500994315)","22.950,00 €",30-07-2015,05-05-2015,90 dias,"Portugal, Leiria, Leiria","Artigo 19.º, alínea a) do Código dos Contratos Públicos","","22.950,00 €",Não Houve,Não Houve,,Não aplicável.,Não aplicável.,FALSE
Aquisição de compressas,Concurso público,Locação de bens móveis,"33140000-3, Material médico de consumo","Administração Regional de Saúde do Centro, I. P. (503122165)",Albino Dias Andrade (500013810),"74.398,78 €",27-07-2015,08-07-2015,180 dias,"Portugal, Coimbra, Coimbra","Artigo 20.º, n.º 1, alínea b) do Código dos Contratos Públicos",30-12-2015,"74.389,49 €","",Acerto embalagem,,Não aplicável.,Não aplicável.,FALSE
