Objeto do Contrato,Tipo de Procedimento,Tipo(s) de Contrato,CPVs,Entidade(s) Adjudicante(s),Entidade(s) Adjudicatária(s),Preço Contratual,Data de Publicação,Data de Celebração do Contrato,Prazo de Execução,Local de Execução,Fundamentação,Data de Fecho do Contrato,Preço Total Efetivo,Causas das Alterações ao Prazo,Causas das Alterações ao Preço,Estado,N.º registo do Acordo Quadro,Descrição do Acordo Quadro,Procedimento Centralizado
FEXC0003/2016 - AZOTO LIQUIDO (PARA MISTURADOR),Ajuste Direto Regime Geral,Aquisição de bens móveis,"33600000-6, Produtos farmacêuticos","Centro Hospitalar Barreiro Montijo, E. P. E. (509186998)","LINDE PORTUGAL, LDA. (500266344)","12.800,00 €",28-04-2016,07-01-2016,365 dias,"Portugal, Setúbal, Barreiro","Artigo 24.º, n.º 1, alínea a) do Código dos Contratos Públicos",26-04-2016,"12.800,00 €",,"",,Não aplicável.,Não aplicável.,FALSE
FEXC0002/2016 - DACLATASVIR 60 MG COMP,Ajuste Direto Regime Geral,Aquisição de bens móveis,"33600000-6, Produtos farmacêuticos","Centro Hospitalar Barreiro Montijo, E. P. E. (509186998)",BRISTOL MYERS SQUIBB-FARM. POR (500048193),"8.533,99 €",28-04-2016,06-01-2016,365 dias,"Portugal, Setúbal, Barreiro","Artigo 24.º, n.º 1, alínea a) do Código dos Contratos Públicos",08-01-2016,"8.533,99 €",,"",,Não aplicável.,Não aplicável.,FALSE
FEXC0001/2016 - LEDIPASVIR 90MG + SOFOSBUVIR 400MG COMP,Ajuste Direto Regime Geral,Aquisição de bens móveis,"33600000-6, Produtos farmacêuticos","Centro Hospitalar Barreiro Montijo, E. P. E. (509186998)","GILEAD SCIENCES, LDA. (503604704)","46.183,83 €",28-04-2016,06-01-2016,365 dias,"Portugal, Setúbal, Barreiro","Artigo 24.º, n.º 1, alínea a) do Código dos Contratos Públicos",11-01-2016,"46.183,83 €",,"",,Não aplicável.,Não aplicável.,FALSE
FI0101/2016 - MEDICAMENTOS ANTI INFECCIOSOS,Ao abrigo de acordo-quadro (art.º 259.º),Aquisição de bens móveis,"33600000-6, Produtos farmacêuticos","Centro Hospitalar Barreiro Montijo, E. P. E. (509186998)","HIKMA FARMACEUTICA (PORTUGAL), LDA. (502266791)","825,00 €",28-04-2016,20-01-2016,365 dias,"Portugal, Setúbal, Barreiro",Artigo 259.º do Código dos Contratos Públicos,22-01-2016,"825,00 €",,"",,455180,"CONCURSO PÚBLICO PARA A CELEBRAÇÃO DE CONTRATOS PÚBLICOS DE APROVISIONAMENTO PARA A ÁREA DA SAÚDE, COM VISTA AO FORNECIMENTO DE MEDICAMENTOS ANTI-INFECIOSOS: ANTIVÍRICOS E ANTIFÚNGICOS, ÀS INSTITUIÇÕES E SERVIÇOS DO SERVIÇO NACIONAL DE SAÚDE  ",FALSE
FI0101/2016 - MEDICAMENTOS ANTI INFECCIOSOS,Ao abrigo de acordo-quadro (art.º 259.º),Aquisição de bens móveis,"33600000-6, Produtos farmacêuticos","Centro Hospitalar Barreiro Montijo, E. P. E. (509186998)","MERCK SHARP & DOHME, LDA (500191360)","4.168,00 €",28-04-2016,20-01-2016,365 dias,"Portugal, Setúbal, Barreiro",Artigo 259.º do Código dos Contratos Públicos,22-01-2016,"4.168,00 €",,"",,455180,"CONCURSO PÚBLICO PARA A CELEBRAÇÃO DE CONTRATOS PÚBLICOS DE APROVISIONAMENTO PARA A ÁREA DA SAÚDE, COM VISTA AO FORNECIMENTO DE MEDICAMENTOS ANTI-INFECIOSOS: ANTIVÍRICOS E ANTIFÚNGICOS, ÀS INSTITUIÇÕES E SERVIÇOS DO SERVIÇO NACIONAL DE SAÚDE  ",FALSE
FI0101/2016 - MEDICAMENTOS ANTI INFECCIOSOS,Ao abrigo de acordo-quadro (art.º 259.º),Aquisição de bens móveis,"33600000-6, Produtos farmacêuticos","Centro Hospitalar Barreiro Montijo, E. P. E. (509186998)","OVERPHARMA - PROD. MÉDICOS E FARMACÊUTICOS, LDA (505792362)","12,23 €",28-04-2016,20-01-2016,365 dias,"Portugal, Setúbal, Barreiro",Artigo 259.º do Código dos Contratos Públicos,22-01-2016,"12,23 €",,"",,455180,"CONCURSO PÚBLICO PARA A CELEBRAÇÃO DE CONTRATOS PÚBLICOS DE APROVISIONAMENTO PARA A ÁREA DA SAÚDE, COM VISTA AO FORNECIMENTO DE MEDICAMENTOS ANTI-INFECIOSOS: ANTIVÍRICOS E ANTIFÚNGICOS, ÀS INSTITUIÇÕES E SERVIÇOS DO SERVIÇO NACIONAL DE SAÚDE  ",FALSE
FI0053/2016 - CIPROFLOXACINA 200 MG (2 MG/ML) SOL INJ 100 ML FRS/AMP,Ao abrigo de acordo-quadro (art.º 259.º),Aquisição de bens móveis,"33600000-6, Produtos farmacêuticos","Centro Hospitalar Barreiro Montijo, E. P. E. (509186998)","HIKMA FARMACEUTICA (PORTUGAL), LDA. (502266791)","900,00 €",28-04-2016,11-01-2016,365 dias,"Portugal, Setúbal, Barreiro",Artigo 259.º do Código dos Contratos Públicos,14-01-2016,"900,00 €",,"",,455180,"CONCURSO PÚBLICO PARA A CELEBRAÇÃO DE CONTRATOS PÚBLICOS DE APROVISIONAMENTO PARA A ÁREA DA SAÚDE, COM VISTA AO FORNECIMENTO DE MEDICAMENTOS ANTI-INFECIOSOS: ANTIVÍRICOS E ANTIFÚNGICOS, ÀS INSTITUIÇÕES E SERVIÇOS DO SERVIÇO NACIONAL DE SAÚDE  ",FALSE
FEXC0095/2016 - CIAMEMAZINA 4% (1 MG/GOTA <> 200 MG / 5 ML) SOL ORAL FRS,Ajuste Direto Regime Geral,Aquisição de bens móveis,"33600000-6, Produtos farmacêuticos","Centro Hospitalar Barreiro Montijo, E. P. E. (509186998)","LABORATORIOS VITORIA, SA (500162220)","151,00 €",28-04-2016,27-01-2016,365 dias,"Portugal, Setúbal, Barreiro","Artigo 24.º, n.º 1, alínea a) do Código dos Contratos Públicos",29-01-2016,"151,00 €",,"",,Não aplicável.,Não aplicável.,FALSE
FI0044/2016 - CARVEDILOL 25 MG COMP,Ao abrigo de acordo-quadro (art.º 259.º),Aquisição de bens móveis,"33600000-6, Produtos farmacêuticos","Centro Hospitalar Barreiro Montijo, E. P. E. (509186998)","LABESFAL-L. ESP. FARM. ALMIRO, (501169580)","24,64 €",28-04-2016,08-01-2016,365 dias,"Portugal, Setúbal, Barreiro",Artigo 259.º do Código dos Contratos Públicos,19-01-2016,"24,64 €",,"",,513025,"CONCURSO PÚBLICO PARA A CELEBRAÇÃO DE CONTRATOS PÚBLICOS DE APROVISIONAMENTO PARA A ÁREA DA SAÚDE, COM VISTA AO FORNECIMENTO DE MEDICAMENTOS DE CONSUMO GERAL  (FFOSI)- APARELHO CARDIOVASCULAR., ÀS INSTITUIÇÕES E SERVIÇOS DO SERVIÇO NACIONAL DE SAÚDE",FALSE
FI0382/2016 - PENSO DE GAZE VASELINADA 7 M X 10 CM CAIXA,Ao abrigo de acordo-quadro (art.º 259.º),Aquisição de bens móveis,"33600000-6, Produtos farmacêuticos","Centro Hospitalar Barreiro Montijo, E. P. E. (509186998)","SMITH & NEPHEW - PROD. FARMACEUTICOS, LDA. (503552461)","271,08 €",28-04-2016,27-04-2016,10 dias,"Portugal, Setúbal, Barreiro",Artigo 259.º do Código dos Contratos Públicos,27-04-2016,"271,08 €",,"",,490160,"CONCURSO PÚBLICO PARA A CELEBRAÇÃO DE CONTRATOS PÚBLICOS DE APROVISIONAMENTO PARA A ÁREA DA SAÚDE, COM VISTA AO FORNECIMENTO DE MATERIAL PENSO DE EFEITO TERAPÊUTICO - ÀS INSTITUIÇÕES E SERVIÇOS DO SERVIÇO NACIONAL DE SAÚDE",FALSE
"4SEX0003/2016 - CAT E MANUT. DAS CENTRAIS TELEFONICAS DO CHBM, P/ 2016",Ajuste Direto Regime Geral,Aquisição de serviços,"50000000-5, Serviços de reparação e manutenção","Centro Hospitalar Barreiro Montijo, E. P. E. (509186998)","CONNECTIS UC UNIFIED COMMUNICATIONS UNIPESSOAL, LDA (510686559)","14.152,44 €",26-04-2016,12-01-2016,365 dias,"Portugal, Setúbal, Barreiro","Artigo 24.º, n.º 1, alínea e) do Código dos Contratos Públicos",31-12-2016,"14.152,44 €",,"",,Não aplicável.,Não aplicável.,FALSE
4SEX0001/2016 - CAT E MANUT SOFTWARE EKANBAN P/ 2016,Ajuste Direto Regime Geral,Aquisição de serviços,"50000000-5, Serviços de reparação e manutenção","Centro Hospitalar Barreiro Montijo, E. P. E. (509186998)","BIQ - HEALTH SOLUTIONS, LDA (504105337)","6.240,00 €",26-04-2016,24-02-2016,365 dias,"Portugal, Setúbal, Barreiro","Artigo 24.º, n.º 1, alínea e) do Código dos Contratos Públicos",31-12-2016,"6.240,00 €",,"",,Não aplicável.,Não aplicável.,FALSE
Fornecimento de DM para Endoscopia e Próteses de Gastro em Consignação,Concurso público,Aquisição de bens móveis,"33100000-1, Equipamento médico","Centro Hospitalar Barreiro Montijo, E. P. E. (509186998)","ALVES & CO (IRMAOS), LDA (500310068)","44.270,60 €",22-04-2016,24-03-2015,365 dias,"Portugal, Setúbal, Barreiro","Artigo 20.º, n.º 1, alínea b) do Código dos Contratos Públicos",31-12-2015,"44.270,60 €",,redução de consumos,,Não aplicável.,Não aplicável.,FALSE
4I0004/2015 CATETERES,Ao abrigo de acordo-quadro (art.º 259.º),Aquisição de bens móveis,"33000000-0, Equipamento médico, medicamentos e produtos para cuidados pessoais","Centro Hospitalar Barreiro Montijo, E. P. E. (509186998)","OVERPHARMA - PROD. MÉDICOS E FARMACÊUTICOS,  (505792362)","1.214,40 €",22-04-2016,12-01-2015,365 dias,"Portugal, Setúbal, Barreiro",Artigo 259.º do Código dos Contratos Públicos,12-01-2015,"1.214,40 €",,"",,412727,CONCURSO PÚBLICO PARA A CELEBRAÇÃO DE CONTRATOS PÚBLICOS DE APROVISIONAMENTO PARA AQUISIÇÃO DE MATERIAL CATETERES,FALSE
4I0004/2015 CATETERES,Ao abrigo de acordo-quadro (art.º 259.º),Aquisição de bens móveis,"33000000-0, Equipamento médico, medicamentos e produtos para cuidados pessoais","Centro Hospitalar Barreiro Montijo, E. P. E. (509186998)","SMITHS MEDICAL, LDA (507445937)","31,50 €",22-04-2016,12-01-2015,365 dias,"Portugal, Setúbal, Barreiro",Artigo 259.º do Código dos Contratos Públicos,31-12-2015,"31,50 €",,"",,412727,CONCURSO PÚBLICO PARA A CELEBRAÇÃO DE CONTRATOS PÚBLICOS DE APROVISIONAMENTO PARA AQUISIÇÃO DE MATERIAL CATETERES,FALSE
4I0004/2015 CATETERES,Ao abrigo de acordo-quadro (art.º 259.º),Aquisição de bens móveis,"33000000-0, Equipamento médico, medicamentos e produtos para cuidados pessoais","Centro Hospitalar Barreiro Montijo, E. P. E. (509186998)","VYGON (PORTUGAL), LDA. (503232785)","3.696,80 €",22-04-2016,12-01-2015,365 dias,"Portugal, Setúbal, Barreiro",Artigo 259.º do Código dos Contratos Públicos,12-01-2015,"3.696,80 €",,"",,412727,CONCURSO PÚBLICO PARA A CELEBRAÇÃO DE CONTRATOS PÚBLICOS DE APROVISIONAMENTO PARA AQUISIÇÃO DE MATERIAL CATETERES,FALSE
4I0004/2015 CATETERES,Ao abrigo de acordo-quadro (art.º 259.º),Aquisição de bens móveis,"33000000-0, Equipamento médico, medicamentos e produtos para cuidados pessoais","Centro Hospitalar Barreiro Montijo, E. P. E. (509186998)","B. BRAUN MEDICAL, LDA (501506543)","67.822,30 €",22-04-2016,12-01-2015,365 dias,"Portugal, Setúbal, Barreiro",Artigo 259.º do Código dos Contratos Públicos,31-12-2015,"67.822,30 €",,"",,412727,CONCURSO PÚBLICO PARA A CELEBRAÇÃO DE CONTRATOS PÚBLICOS DE APROVISIONAMENTO PARA AQUISIÇÃO DE MATERIAL CATETERES,FALSE
4I0004/2015 CATETERES,Ao abrigo de acordo-quadro (art.º 259.º),Aquisição de bens móveis,"33000000-0, Equipamento médico, medicamentos e produtos para cuidados pessoais","Centro Hospitalar Barreiro Montijo, E. P. E. (509186998)",PERGUT PORTUGAL (501799729),"20.155,50 €",22-04-2016,12-01-2015,365 dias,"Portugal, Setúbal, Barreiro",Artigo 259.º do Código dos Contratos Públicos,31-12-2015,"20.155,50 €",,"",,412727,CONCURSO PÚBLICO PARA A CELEBRAÇÃO DE CONTRATOS PÚBLICOS DE APROVISIONAMENTO PARA AQUISIÇÃO DE MATERIAL CATETERES,FALSE
"4EXC0027/2016 - FIBRA 270 MICRAS ;600 MICRAS DESCAR. P LITOTERICIA;BAINHA ACESSO URETRAL 38CM, 54 CM",Ajuste Direto Regime Geral,Aquisição de bens móveis,"33140000-3, Material médico de consumo","Centro Hospitalar Barreiro Montijo, E. P. E. (509186998)","OLYMPUS IBERIA, S.A.U. (980474710)","8.301,77 €",21-04-2016,18-04-2016,365 dias,"Portugal, Setúbal, Barreiro","Artigo 24.º, n.º 1, alínea a) do Código dos Contratos Públicos",18-04-2016,"8.301,77 €",,"",,Não aplicável.,Não aplicável.,FALSE
FI0379/2016 - PENSO DE HIDROFIBRAS,Ao abrigo de acordo-quadro (art.º 259.º),Aquisição de bens móveis,"33600000-6, Produtos farmacêuticos","Centro Hospitalar Barreiro Montijo, E. P. E. (509186998)","KVTECH PORTUGAL - PROD. MEDICOS UNIP., LDA (508671531)","1.030,80 €",21-04-2016,20-04-2016,20 dias,"Portugal, Setúbal, Barreiro",Artigo 259.º do Código dos Contratos Públicos,20-04-2016,"1.030,80 €",,"",,490160,"CONCURSO PÚBLICO PARA A CELEBRAÇÃO DE CONTRATOS PÚBLICOS DE APROVISIONAMENTO PARA A ÁREA DA SAÚDE, COM VISTA AO FORNECIMENTO DE MATERIAL PENSO DE EFEITO TERAPÊUTICO - ÀS INSTITUIÇÕES E SERVIÇOS DO SERVIÇO NACIONAL DE SAÚDE",FALSE
