Objeto do Contrato,Tipo de Procedimento,Tipo(s) de Contrato,CPVs,Entidade(s) Adjudicante(s),Entidade(s) Adjudicatária(s),Preço Contratual,Data de Publicação,Data de Celebração do Contrato,Prazo de Execução,Local de Execução,Fundamentação,Data de Fecho do Contrato,Preço Total Efetivo,Causas das Alterações ao Prazo,Causas das Alterações ao Preço,Estado,N.º registo do Acordo Quadro,Descrição do Acordo Quadro,Procedimento Centralizado
Aquisição de cadeiras ultra leves e electrica,Ajuste Direto Regime Geral,Aquisição de bens móveis,"33193120-6, Cadeiras de rodas",Centro de Medicina de Reabilitação da Região Centro - Rovisco Pais (503767336),"Mobilitec, Lda (506343910)","5.420,70 €",17-05-2011,24-02-2011,120 dias,"Portugal, Coimbra, Cantanhede","Artigo 26.º, n.º 1, alínea a) do Código dos Contratos Públicos",,,,,,Não aplicável.,Não aplicável.,
AQUISIÇAÕ DE CAMAS E OUTROS,Ajuste Direto Regime Geral,Aquisição de bens móveis,"33192130-2, Camas equipadas com motor",Centro de Medicina de Reabilitação da Região Centro - Rovisco Pais (503767336),"ORTOGANDARA, LDA (506111873)","2.301,31 €",11-05-2011,04-02-2011,120 dias,"Portugal, Coimbra, Cantanhede","Artigo 26.º, n.º 1, alínea a) do Código dos Contratos Públicos",,,,,,Não aplicável.,Não aplicável.,
aQUISIÇÃO DE CADEIRAS EM LIGA LEVE,Ajuste Direto Regime Geral,Aquisição de bens móveis,"33193120-6, Cadeiras de rodas",Centro de Medicina de Reabilitação da Região Centro - Rovisco Pais (503767336),"EPJMEDICA, LDA (506820513)","2.108,75 €",11-05-2011,04-02-2011,120 dias,"Portugal, Coimbra, Cantanhede","Artigo 26.º, n.º 1, alínea a) do Código dos Contratos Públicos",,,,,,Não aplicável.,Não aplicável.,
