Objeto do Contrato,Tipo de Procedimento,Tipo(s) de Contrato,CPVs,Entidade(s) Adjudicante(s),Entidade(s) Adjudicatária(s),Preço Contratual,Data de Publicação,Data de Celebração do Contrato,Prazo de Execução,Local de Execução,Fundamentação,Data de Fecho do Contrato,Preço Total Efetivo,Causas das Alterações ao Prazo,Causas das Alterações ao Preço,Estado,N.º registo do Acordo Quadro,Descrição do Acordo Quadro,Procedimento Centralizado
1R/01076/17- Meios p/ Realização Análises Clínicas Imunologia,Ajuste Direto Regime Geral,Aquisição de bens móveis,"33696500-0, Reagentes de laboratório","Centro Hospitalar Tondela-Viseu, E. P. E. (509822940)","WERFEN PORTUGAL, LDA (501086110)","7.404,00 €",18-04-2017,27-03-2017,1 dias,"Portugal, Viseu, Viseu","Artigo 20.º, n.º 1, alínea a) do Código dos Contratos Públicos",,,,,,Não aplicável.,Não aplicável.,FALSE
SACOS PLÁSTICOS,Ajuste Direto Regime Geral,Aquisição de bens móveis,"19640000-4, Sacos de polietileno para recolha de lixo e resíduos","Centro Hospitalar Tondela-Viseu, E. P. E. (509822940)","JOALPLÁS - INDÚSTRIA DE PLÁSTICOS, LDA (501891960)","21.423,00 €",18-04-2017,05-04-2017,90 dias,"Portugal, Viseu, Viseu","Artigo 20.º, n.º 1, alínea a) do Código dos Contratos Públicos",,,,,,Não aplicável.,Não aplicável.,FALSE
AQUISIÇÃO DE ETANERCEPT 50MG INJ CANETA,Ajuste Direto Regime Geral,Aquisição de bens móveis,"33600000-6, Produtos farmacêuticos","Centro Hospitalar Tondela-Viseu, E. P. E. (509822940)","PFIZER BIOFARMACÊUTICA, SOCIEDADE UNIPESSOAL,LDA. (513300376)","78.959,96 €",17-04-2017,06-04-2017,1 dias,"Portugal, Viseu, Viseu","Artigo 24.º, n.º 1, alínea e) do Código dos Contratos Públicos",,,,,,Não aplicável.,Não aplicável.,FALSE
1R/00059/17-MEIOS P/ REALIZ. DE ANAL. CLÍNICAS DE COAGULAÇÃO (2) (AQ_3R/03268/2015),Ajuste Direto Regime Geral,Aquisição de bens móveis,"33696500-0, Reagentes de laboratório","Centro Hospitalar Tondela-Viseu, E. P. E. (509822940)","WERFEN PORTUGAL, LDA (501086110)","148.156,65 €",12-04-2017,10-03-2017,365 dias,"Portugal, Viseu, Viseu","Artigo 26.º, n.º 1, alínea e) do Código dos Contratos Públicos",,,,,,Não aplicável.,Não aplicável.,FALSE
1R/01041/17-REAGENTES P/ REALIZAÇÕES DE HEMOGRAMAS,Ajuste Direto Regime Geral,Aquisição de bens móveis,"33696500-0, Reagentes de laboratório","Centro Hospitalar Tondela-Viseu, E. P. E. (509822940)","BECKMAN COULTER PORTUGAL UNIPESSOAL, LDA (509035167)","8.455,40 €",12-04-2017,04-04-2017,1 dias,"Portugal, Viseu, Viseu","Artigo 24.º, n.º 1, alínea e) do Código dos Contratos Públicos",,,,,,Não aplicável.,Não aplicável.,FALSE
FACTOR ANTIHEMOFILICO IX 500UI RECOMBINANTE AMP,Ajuste Direto Regime Geral,Aquisição de bens móveis,"33600000-6, Produtos farmacêuticos","Centro Hospitalar Tondela-Viseu, E. P. E. (509822940)","PFIZER BIOFARMACÊUTICA, SOCIEDADE UNIPESSOAL,LDA. (513300376)","37.702,80 €",11-04-2017,06-04-2017,1 dias,"Portugal, Viseu, Viseu","Artigo 24.º, n.º 1, alínea e) do Código dos Contratos Públicos",,,,,,Não aplicável.,Não aplicável.,FALSE
