Objeto do Contrato,Tipo de Procedimento,Tipo(s) de Contrato,CPVs,Entidade(s) Adjudicante(s),Entidade(s) Adjudicatária(s),Preço Contratual,Data de Publicação,Data de Celebração do Contrato,Prazo de Execução,Local de Execução,Fundamentação,Data de Fecho do Contrato,Preço Total Efetivo,Causas das Alterações ao Prazo,Causas das Alterações ao Preço,Estado,N.º registo do Acordo Quadro,Descrição do Acordo Quadro,Procedimento Centralizado
"Abertura/fecho de água na Rua Dário Canas, nº2, Odivelas, devido a uma rutura num cano no edifício onde se encontra a UCSP Olaio.",Ajuste Direto Regime Geral,Aquisição de serviços,"65100000-4, Serviços de distribuição de água e serviços conexos","Administração Regional de Saúde de Lisboa e Vale do Tejo, I. P. (503148776)",SMAS - LOURES (MUNICIPIO LOURES) (680009671),"50,00 €",10-01-2014,10-01-2014,180 dias,"Portugal, Lisboa, Odivelas","Artigo 20.º, n.º 1, alínea a) do Código dos Contratos Públicos",,,,,,Não aplicável.,Não aplicável.,FALSE
"Aquisição de uma prestação de serviços de seguro automóvel para a frota da Administração Regional de Saúde de Lisboa e Vale do Tejo, IP (ARSLVT, IP), para o período de 12 meses a contar da data de inclusão dos veículos na apólice.",Ajuste Direto Regime Geral,Aquisição de serviços,"66514110-0, Serviços de seguro automóvel","Administração Regional de Saúde de Lisboa e Vale do Tejo, I. P. (503148776)","FIDELIDADE - CA. DE SEGUROS, S.A. (500918880)","47.228,07 €",10-01-2014,10-01-2014,365 dias,"Portugal, Setúbal<BR/>Portugal, Lisboa<BR/>Portugal, Leiria<BR/>Portugal, Santarém","Artigo 20.º, n.º 1, alínea a) do Código dos Contratos Públicos",,,,,,Não aplicável.,Não aplicável.,FALSE
Aquisição de Bicarbonato Sodio 14MG/ML,Ajuste Direto Regime Geral,Aquisição de bens móveis,"33690000-3, Medicamentos vários","Administração Regional de Saúde de Lisboa e Vale do Tejo, I. P. (503148776)","B. Braun Medical, Lda. (501506543)","186,00 €",10-01-2014,09-01-2014,20 dias,"Portugal, Lisboa","Artigo 26.º, n.º 1, alínea e) do Código dos Contratos Públicos",,,,,,Não aplicável.,Não aplicável.,FALSE
Aquisição de Vacina Dupla TD,Ajuste Direto Regime Geral,Aquisição de bens móveis,"33651600-4, Vacinas","Administração Regional de Saúde de Lisboa e Vale do Tejo, I. P. (503148776)",Sanofi Pasteur MDS (507632796),"140.000,00 €",10-01-2014,09-01-2014,20 dias,"Portugal, Lisboa","Artigo 24.º, n.º 1, alínea e) do Código dos Contratos Públicos",,,,,,Não aplicável.,Não aplicável.,FALSE
Fornecimento de água para 2013 - ACES Médio Tejo.,Ajuste Direto Regime Geral,Aquisição de serviços,"65100000-4, Serviços de distribuição de água e serviços conexos","Administração Regional de Saúde de Lisboa e Vale do Tejo, I. P. (503148776)","AR - ÁGUAS DO RIBATEJO, EM, SA (508345464)","4.207,41 €",10-01-2014,10-01-2014,180 dias,"Portugal, Santarém","Artigo 24.º, n.º 1, alínea e) do Código dos Contratos Públicos",,,,,,Não aplicável.,Não aplicável.,FALSE
Renovação do certificado digital qualificado qualidade (1 ano),Ajuste Direto Regime Geral,Aquisição de serviços,"79130000-4, Serviços de certificação e documentação legal","Administração Regional de Saúde de Lisboa e Vale do Tejo, I. P. (503148776)","Multicert - Serviços de Certificação Electronica, SA (505767457)","99,48 €",10-01-2014,10-01-2014,365 dias,"Portugal, Lisboa, Lisboa","Artigo 24.º, n.º 1, alínea e) do Código dos Contratos Públicos",,,,,,Não aplicável.,Não aplicável.,FALSE
"Fornecimento de água para 2013 - ARSLVT, IP.",Ajuste Direto Regime Geral,Aquisição de serviços,"65100000-4, Serviços de distribuição de água e serviços conexos","Administração Regional de Saúde de Lisboa e Vale do Tejo, I. P. (503148776)",EPAL - Empresa Portuguesa (500906840),"12.519,66 €",10-01-2014,10-01-2014,180 dias,"Portugal, Lisboa, Lisboa","Artigo 24.º, n.º 1, alínea e) do Código dos Contratos Públicos",,,,,,Não aplicável.,Não aplicável.,FALSE
Fornecimento de água para 2013 - ACES Lisboa Norte.,Ajuste Direto Regime Geral,Aquisição de serviços,"65100000-4, Serviços de distribuição de água e serviços conexos","Administração Regional de Saúde de Lisboa e Vale do Tejo, I. P. (503148776)",EPAL - Empresa Portuguesa (500906840),"51.493,46 €",10-01-2014,10-01-2014,180 dias,"Portugal, Lisboa, Lisboa","Artigo 24.º, n.º 1, alínea e) do Código dos Contratos Públicos",,,,,,Não aplicável.,Não aplicável.,FALSE
Fornecimento de água para 2013 - USF D. Sancho I (Pontével).,Ajuste Direto Regime Geral,Aquisição de serviços,"65100000-4, Serviços de distribuição de água e serviços conexos","Administração Regional de Saúde de Lisboa e Vale do Tejo, I. P. (503148776)","CARTÁGUA - ÁGUAS DO CARTAXO, SA (509361161)","11.311,01 €",10-01-2014,10-01-2014,180 dias,"Portugal, Santarém, Cartaxo","Artigo 24.º, n.º 1, alínea e) do Código dos Contratos Públicos",,,,,,Não aplicável.,Não aplicável.,FALSE
Aquisição de prestação de serviços de manutenção ao ascensor sito na USF Lóios ACES Lisboa Central- Ano de 2014.,Ajuste Direto Regime Geral,Aquisição de serviços,"50000000-5, Serviços de reparação e manutenção","Administração Regional de Saúde de Lisboa e Vale do Tejo, I. P. (503148776)","Orona Portugal, Sociedade Unipessoal Lda. (501606319)","1.140,00 €",09-01-2014,08-01-2014,365 dias,"Portugal, Lisboa, Lisboa","Artigo 24.º, n.º 1, alínea e) do Código dos Contratos Públicos",,,,,,Não aplicável.,Não aplicável.,FALSE
Aquisição de protecção de dados,Concurso público,Aquisição de bens móveis,"48000000-8, Pacotes de software e sistemas de informação","Administração Regional de Saúde de Lisboa e Vale do Tejo, I. P. (503148776)","Fujitsu Technology Solutions, Lda (500646791)","72.646,30 €",06-01-2014,04-12-2013,60 dias,"Portugal, Lisboa, Lisboa","Artigo 20.º, n.º 1, alínea b) do Código dos Contratos Públicos",,,,,,Não aplicável.,Não aplicável.,FALSE
Fornecimento de água para 2013 - ACES Médio Tejo.,Ajuste Direto Regime Geral,Aquisição de serviços,"65100000-4, Serviços de distribuição de água e serviços conexos","Administração Regional de Saúde de Lisboa e Vale do Tejo, I. P. (503148776)",SMAS - TOMAR (MUNICIPIO DE TOMAR) (680039457),"992,78 €",02-01-2014,02-01-2014,180 dias,"Portugal, Santarém, Tomar","Artigo 24.º, n.º 1, alínea e) do Código dos Contratos Públicos",,,,,,Não aplicável.,Não aplicável.,FALSE
Fornecimento de água para 2013 - ACES Sintra.,Ajuste Direto Regime Geral,Aquisição de serviços,"65100000-4, Serviços de distribuição de água e serviços conexos","Administração Regional de Saúde de Lisboa e Vale do Tejo, I. P. (503148776)",SMAS - SINTRA (MUNICIPIO DE SINTRA) (680000054),"4.949,34 €",02-01-2014,02-01-2014,180 dias,"Portugal, Lisboa, Sintra","Artigo 24.º, n.º 1, alínea e) do Código dos Contratos Públicos",,,,,,Não aplicável.,Não aplicável.,FALSE
Fornecimento de água para 2013 - ACES Médio Tejo.,Ajuste Direto Regime Geral,Aquisição de serviços,"65100000-4, Serviços de distribuição de água e serviços conexos","Administração Regional de Saúde de Lisboa e Vale do Tejo, I. P. (503148776)",MUNICÍPIO VILA NOVA BARQUINHA (506899250),"1.483,27 €",02-01-2014,02-01-2014,180 dias,"Portugal, Santarém, Vila Nova da Barquinha","Artigo 24.º, n.º 1, alínea e) do Código dos Contratos Públicos",,,,,,Não aplicável.,Não aplicável.,FALSE
Fornecimento de água para 2013 - ACES Oeste Sul.,Ajuste Direto Regime Geral,Aquisição de serviços,"65100000-4, Serviços de distribuição de água e serviços conexos","Administração Regional de Saúde de Lisboa e Vale do Tejo, I. P. (503148776)",MUNICÍPIO SOBRAL MONTE AGRAÇO (505410850),"185,92 €",02-01-2014,02-01-2014,180 dias,"Portugal, Lisboa, Sobral de Monte Agraço","Artigo 24.º, n.º 1, alínea e) do Código dos Contratos Públicos",,,,,,Não aplicável.,Não aplicável.,FALSE
Fornecimento de água para 2013 - ACES Lisboa Central.,Ajuste Direto Regime Geral,Aquisição de serviços,"65100000-4, Serviços de distribuição de água e serviços conexos","Administração Regional de Saúde de Lisboa e Vale do Tejo, I. P. (503148776)",EPAL - Empresa Portuguesa (500906840),"26.517,33 €",02-01-2014,02-01-2014,180 dias,"Portugal, Lisboa","Artigo 24.º, n.º 1, alínea e) do Código dos Contratos Públicos",,,,,,Não aplicável.,Não aplicável.,FALSE
Fornecimento de água para 2013 - ACES Estuário do Tejo.,Ajuste Direto Regime Geral,Aquisição de serviços,"65100000-4, Serviços de distribuição de água e serviços conexos","Administração Regional de Saúde de Lisboa e Vale do Tejo, I. P. (503148776)","ADAZ - ÁGUAS DA AZAMBUJA, SA (508911443)","3.120,97 €",02-01-2014,02-01-2014,180 dias,"Portugal, Lisboa","Artigo 24.º, n.º 1, alínea e) do Código dos Contratos Públicos",,,,,,Não aplicável.,Não aplicável.,FALSE
Fornecimento de agua para 2013 - ACES Oeste Norte,Ajuste Direto Regime Geral,Aquisição de serviços,"65100000-4, Serviços de distribuição de água e serviços conexos","Administração Regional de Saúde de Lisboa e Vale do Tejo, I. P. (503148776)",SMAS - Nazaré  (680017399),"164,94 €",02-01-2014,27-12-2013,20 dias,"Portugal, Lisboa","Artigo 24.º, n.º 1, alínea e) do Código dos Contratos Públicos",,,,,,Não aplicável.,Não aplicável.,FALSE
Fornecimento de àgua para 2013 - ACES Leziria,Ajuste Direto Regime Geral,Aquisição de serviços,"65100000-4, Serviços de distribuição de água e serviços conexos","Administração Regional de Saúde de Lisboa e Vale do Tejo, I. P. (503148776)",Lusagua Alcanena S.A. (501834273),"287,82 €",02-01-2014,27-12-2013,20 dias,"Portugal, Lisboa","Artigo 24.º, n.º 1, alínea e) do Código dos Contratos Públicos",,,,,,Não aplicável.,Não aplicável.,FALSE
Contrato de abastecimento de água por intermédio de contador - Unidade de Saude de Monte Pedral,Ajuste Direto Regime Geral,Aquisição de serviços,"65100000-4, Serviços de distribuição de água e serviços conexos","Administração Regional de Saúde de Lisboa e Vale do Tejo, I. P. (503148776)","EPAL - Empresa Portuguesa das Aguas Livres, S.A. (500906840)","389,16 €",02-01-2014,27-12-2013,20 dias,"Portugal, Lisboa","Artigo 24.º, n.º 1, alínea e) do Código dos Contratos Públicos",,,,,,Não aplicável.,Não aplicável.,FALSE
"Aquisição de 1.470 Unidades de Campo Cirúrgico 45 A 60X50 cm, com Óculo",Ajuste Direto Regime Geral,Aquisição de bens móveis,"33140000-3, Material médico de consumo","Administração Regional de Saúde de Lisboa e Vale do Tejo, I. P. (503148776)","Bastos Viegas, S.A. (500042772)","304,88 €",02-01-2014,20-11-2013,20 dias,"Portugal, Lisboa","Artigo 26.º, n.º 1, alínea e) do Código dos Contratos Públicos",,,,,,Não aplicável.,Não aplicável.,FALSE
Aquisição de 31.710 Unidades de Campos Esterilizados 38X45,Ajuste Direto Regime Geral,Aquisição de bens móveis,"33140000-3, Material médico de consumo","Administração Regional de Saúde de Lisboa e Vale do Tejo, I. P. (503148776)","Bastos Viegas, S.A. (500042772)","4.293,53 €",02-01-2014,20-11-2013,20 dias,"Portugal, Lisboa","Artigo 26.º, n.º 1, alínea e) do Código dos Contratos Públicos",,,,,,Não aplicável.,Não aplicável.,FALSE
Aquisição de 32.100 Unidades de Campos Esterilizados - 45 a 50X75 cm,Ajuste Direto Regime Geral,Aquisição de bens móveis,"33140000-3, Material médico de consumo","Administração Regional de Saúde de Lisboa e Vale do Tejo, I. P. (503148776)","Paul Hartmann, Lda. (502271728)","7.864,50 €",02-01-2014,20-11-2013,20 dias,"Portugal, Lisboa","Artigo 26.º, n.º 1, alínea e) do Código dos Contratos Públicos",,,,,,Não aplicável.,Não aplicável.,FALSE
Aquisição de 700.000 Unidades de Compressa TNT Estéril 5X5,Ajuste Direto Regime Geral,Aquisição de bens móveis,"33141119-7, Compressas","Administração Regional de Saúde de Lisboa e Vale do Tejo, I. P. (503148776)","Bastos Viegas, S.A. (500042772)","4.830,00 €",02-01-2014,20-11-2013,20 dias,"Portugal, Lisboa","Artigo 26.º, n.º 1, alínea e) do Código dos Contratos Públicos",,,,,,Não aplicável.,Não aplicável.,FALSE
"Aquisição de 1.700.000 Unidades de Compressa TNT Estéril 7,5X7,5",Ajuste Direto Regime Geral,Aquisição de bens móveis,"33141119-7, Compressas","Administração Regional de Saúde de Lisboa e Vale do Tejo, I. P. (503148776)","Bastos Viegas, S.A. (500042772)","13.600,00 €",02-01-2014,20-11-2013,20 dias,"Portugal, Lisboa","Artigo 26.º, n.º 1, alínea e) do Código dos Contratos Públicos",,,,,,Não aplicável.,Não aplicável.,FALSE
Aquisição de 700.000 Unidades de Compressa TNT Não Estéril 5X5,Ajuste Direto Regime Geral,Aquisição de bens móveis,"33141119-7, Compressas","Administração Regional de Saúde de Lisboa e Vale do Tejo, I.P. (503148776)","Bastos Viegas, S.A. (500042772)","2.011,80 €",02-01-2014,20-11-2013,20 dias,"Portugal, Lisboa","Artigo 26.º, n.º 1, alínea e) do Código dos Contratos Públicos",,,,,,Não aplicável.,Não aplicável.,FALSE
Aquisição de 15.000 Aventais Descartáveis,Ajuste Direto Regime Geral,Aquisição de bens móveis,"33140000-3, Material médico de consumo","Administração Regional de Saúde de Lisboa e Vale do Tejo, I. P. (503148776)","Ezequiel Panão Jorge, Lda. (501412727)","328,50 €",02-01-2014,20-11-2013,20 dias,"Portugal, Lisboa","Artigo 26.º, n.º 1, alínea e) do Código dos Contratos Públicos",,,,,,Não aplicável.,Não aplicável.,FALSE
