Objeto do Contrato,Tipo de Procedimento,Tipo(s) de Contrato,CPVs,Entidade(s) Adjudicante(s),Entidade(s) Adjudicatária(s),Preço Contratual,Data de Publicação,Data de Celebração do Contrato,Prazo de Execução,Local de Execução,Fundamentação,Data de Fecho do Contrato,Preço Total Efetivo,Causas das Alterações ao Prazo,Causas das Alterações ao Preço,Estado,N.º registo do Acordo Quadro,Descrição do Acordo Quadro,Procedimento Centralizado
Dispositivos Médicos Diversos - AQ 2015/36,Ao abrigo de acordo-quadro (art.º 258.º),Aquisição de bens móveis,"33140000-3, Material médico de consumo",Administração Regional de Saúde do Alentejo (ARSA) (503148768),B BRAUN MEDICAL LDA (501506543),"1.928,40 €",28-06-2018,08-08-2017,180 dias,"Portugal, Évora",Artigo 258.º do Código dos Contratos Públicos,16-11-2017,"1.928,40 €",,"",,1415642,CP 2015/36,FALSE
Medicamentos do Aparelho Locomotor - AQ 2015/47,Ao abrigo de acordo-quadro (art.º 258.º),Aquisição de bens móveis,"33600000-6, Produtos farmacêuticos",Administração Regional de Saúde do Alentejo (ARSA) (503148768),Labesfal - Labotatórios Almiro SA (501169580),"960,00 €",28-06-2018,13-09-2017,150 dias,"Portugal, Évora",Artigo 258.º do Código dos Contratos Públicos,28-11-2017,"960,00 €",,"",,1410779,CP 2015/47 - Acordo quadro para fornecimento de medicamentos do aparelho locomotor às instituições e serviços do serviço nacional de saúde,FALSE
Medicamentos Diversos - AQ 2015/61,Ao abrigo de acordo-quadro (art.º 258.º),Aquisição de bens móveis,"33600000-6, Produtos farmacêuticos",Administração Regional de Saúde do Alentejo (ARSA) (503148768),"ANGELINI FARMACEUTICA, LDA (500583650)","748,50 €",28-06-2018,13-11-2017,180 dias,"Portugal, Évora",Artigo 258.º do Código dos Contratos Públicos,15-11-2017,"748,50 €",,"",,1513257,Acordo quadro para fornecimento de Medicamentos diversos II   às Instituições e Serviços do Serviço Nacional de Saúde,FALSE
Medicamentos Diversos - AQ 2015/64,Ao abrigo de acordo-quadro (art.º 259.º),Aquisição de bens móveis,"33600000-6, Produtos farmacêuticos",Administração Regional de Saúde do Alentejo (ARSA) (503148768),PHARMAKERN (507002571),"29,40 €",28-06-2018,12-10-2017,120 dias,"Portugal, Évora",Artigo 259.º do Código dos Contratos Públicos,15-11-2017,"24,70 €",,O preço unitário faturado é inferior ao adjudicado,,1394106,CP 2015/64 - Medicamentos Diversos,FALSE
Material de Pensos de Efeito Terapêutico - AQ 2014/10,Ao abrigo de acordo-quadro (art.º 259.º),Aquisição de bens móveis,"33600000-6, Produtos farmacêuticos",Administração Regional de Saúde do Alentejo (ARSA) (503148768),"MOLNLYCKE HEALTH CARE COM PROD HOSPITALARES, LDA (511101066)","234,50 €",28-06-2018,02-10-2017,60 dias,"Portugal, Évora",Artigo 259.º do Código dos Contratos Públicos,04-10-2017,"234,50 €",,"",,1315192,Acordo Quadro para fornecimento de material de penso de efeito terapêutico às Instituições e Serviços do Serviço Nacional de Saúde,FALSE
"Aquisição de Material de Consumo Clínico - Preservativos Femininos e Lancetas, ao abrigo de Contratos Públicos de Aprovisionamento (CPA's) dos SPMS, com consulta ao Catalogo de Aprov. Público de Saúde",Ao abrigo de acordo-quadro (art.º 259.º),Aquisição de bens móveis,"33600000-6, Produtos farmacêuticos",Administração Regional de Saúde do Alentejo (ARSA) (503148768),CLINIFAR (503281115),"410,00 €",28-06-2018,17-07-2017,150 dias,"Portugal, Évora",Artigo 259.º do Código dos Contratos Públicos,18-07-2017,"410,00 €",,"",,611510,"CONCURSO PÚBLICO PARA A CELEBRAÇÃO DE CONTRATOS PÚBLICOS DE APROVISIONAMENTO PARA A ÁREA DA SAÚDE, COM VISTA AO FORNECIMENTO DE MATERIAL DE PREVENÇÃO E DETEÇÃO HIV ÀS INSTITUIÇÕES E SERVIÇOS DO SERVIÇO NACIONAL DE SAÚDE",FALSE
"Aquisição de Material de Consumo Clínico - Preservativos Femininos e Lancetas, ao abrigo de Contratos Públicos de Aprovisionamento (CPA's) dos SPMS, com consulta ao Catalogo de Aprov. Público de Saúde",Ao abrigo de acordo-quadro (art.º 259.º),Aquisição de bens móveis,"33600000-6, Produtos farmacêuticos",Administração Regional de Saúde do Alentejo (ARSA) (503148768),VACUETTE PORTUGAL (505348470),"860,10 €",28-06-2018,04-10-2017,150 dias,"Portugal, Évora",Artigo 259.º do Código dos Contratos Públicos,06-11-2017,"860,10 €",,"",,611510,"CONCURSO PÚBLICO PARA A CELEBRAÇÃO DE CONTRATOS PÚBLICOS DE APROVISIONAMENTO PARA A ÁREA DA SAÚDE, COM VISTA AO FORNECIMENTO DE MATERIAL DE PREVENÇÃO E DETEÇÃO HIV ÀS INSTITUIÇÕES E SERVIÇOS DO SERVIÇO NACIONAL DE SAÚDE",FALSE
"Fornecimento de Mobiliário  para as Extensões de Saúde do Torrão e Alvalade do Sado e ARS Alentejo (Acordo Quadro """"Mobiliário"""" da ESPAP - Lotes (1, 2, 5 e 14)",Ao abrigo de acordo-quadro (art.º 259.º),Aquisição de bens móveis,"39100000-3, Mobiliário","Administração Regional de Saúde do Alentejo, I. P. (503148768)","Julcar Mobiliário Integrado, SA (501140263)","11.717,00 €",22-06-2018,01-03-2018,180 dias,"Portugal, Setúbal, Alcácer do Sal<BR/>Portugal, Setúbal, Santiago do Cacém",Artigo 259.º do Código dos Contratos Públicos,02-05-2018,"11.717,00 €",,"",,1260651,Acordo quadro de fornecimento de mobiliário,FALSE
"Aquisição de Material de Consumo Clínico - Bolsas e Mangas, ao abrigo de Contratos Públicos de Aprovisionamento (CPA's) dos SPMS, com consulta ao Catalogo de Aprov. Público de Saúde ",Ao abrigo de acordo-quadro (art.º 259.º),Aquisição de bens móveis,"33198200-6, Saquetas e invólucros de papel para esterilização",Administração Regional de Saúde do Alentejo (ARSA) (503148768),"Bastos Viegas, S.A. (500042772)","41,94 €",22-06-2018,02-11-2017,180 dias,"Portugal, Évora",Artigo 259.º do Código dos Contratos Públicos,16-11-2017,"34,95 €",,Fornecimento de caixas de cartão com 500 unidades em vez das 600 unidades inicialmente encomendadas,,1974943,CP 2016/43 - Acordo quadro para fornecimento de Material para Empacotamento em Esterilização às Instituições e Serviços do Serviço Nacional de Saúde.,FALSE
"Aquisição de Material de Consumo Clínico - Bolsas e Mangas, ao abrigo de Contratos Públicos de Aprovisionamento (CPA's) dos SPMS, com consulta ao Catalogo de Aprov. Público de Saúde ",Ao abrigo de acordo-quadro (art.º 259.º),Aquisição de bens móveis,"33198200-6, Saquetas e invólucros de papel para esterilização",Administração Regional de Saúde do Alentejo (ARSA) (503148768),PERGUT PORTUGAL-C.P.HOSP.MED (501799729),"756,00 €",22-06-2018,25-08-2017,180 dias,"Portugal, Évora",Artigo 259.º do Código dos Contratos Públicos,31-08-2017,"259,20 €",,A empresa não forneceu a totalidade do material,,1974943,CP 2016/43 - Acordo quadro para fornecimento de Material para Empacotamento em Esterilização às Instituições e Serviços do Serviço Nacional de Saúde.,FALSE
"Aquisição de Material de Consumo Clínico - Bolsas e Mangas, ao abrigo de Contratos Públicos de Aprovisionamento (CPA's) dos SPMS, com consulta ao Catalogo de Aprov. Público de Saúde ",Ao abrigo de acordo-quadro (art.º 259.º),Aquisição de bens móveis,"33198200-6, Saquetas e invólucros de papel para esterilização",Administração Regional de Saúde do Alentejo (ARSA) (503148768),"DIMOR LUSITANA, LDA (500730741)","195,00 €",22-06-2018,14-07-2017,180 dias,"Portugal, Évora",Artigo 259.º do Código dos Contratos Públicos,27-07-2017,"195,00 €",,"",,1974943,CP 2016/43 - Acordo quadro para fornecimento de Material para Empacotamento em Esterilização às Instituições e Serviços do Serviço Nacional de Saúde.,FALSE
Aquisição de Penso de Efeito Terapeutico CP 2014010,Ao abrigo de acordo-quadro (art.º 258.º),Aquisição de bens móveis,"33600000-6, Produtos farmacêuticos",Administração Regional de Saúde do Alentejo (ARSA) (503148768),"CLINIFAR - PROD. CLINICOS E FARMACEUTICOS, S.A. (503281115)","1.215,00 €",22-06-2018,02-11-2017,65 dias,"Portugal, Évora",Artigo 258.º do Código dos Contratos Públicos,07-11-2017,"1.215,00 €",,"",,1315192,Acordo Quadro para fornecimento de material de penso de efeito terapêutico às Instituições e Serviços do Serviço Nacional de Saúde,FALSE
ALUGUER DE GARRAFAS DE OXIGÉNIO MEDICINAL,Ajuste Direto Regime Geral,Aquisição de serviços,"85111700-7, Serviços de oxigenoterapia",Administração Regional de Saúde do Alentejo (ARSA) (503148768),"AIR LIQUIDE MEDICINAL, SA (501576436)","6.800,00 €",22-06-2018,12-02-2018,183 dias,"Portugal, Évora","Artigo 20.º, n.º 1, alínea a) do Código dos Contratos Públicos",19-11-2018,"6.700,00 €",,Não forneceram as garrafas para sala de vacinação UCSP évora,,Não aplicável.,Não aplicável.,FALSE
MCC Agulhas e Seringas,Ao abrigo de acordo-quadro (art.º 258.º),Aquisição de bens móveis,"33600000-6, Produtos farmacêuticos",Administração Regional de Saúde do Alentejo (ARSA) (503148768),PERGUT PORTUGAL-C.P.HOSP.MED (501799729),"645,00 €",21-06-2018,14-02-2018,330 dias,"Portugal, Évora","Artigo 32.º, n.º 3, alínea b) do Código dos Contratos Públicos",19-09-2018,"301,00 €",,Não forneceu a totalidade,,1341769,"ACORDO QUADRO PARA FORNECIMENTO DE SERINGAS, AGULHAS E CONTENTORES ÀS INSTITUIÇÕES E SERVIÇOS DO SERVIÇO NACIONAL DE SAÚDE PROGRAMA DE CONCURSO",FALSE
MCC Agulhas e Seringas,Ao abrigo de acordo-quadro (art.º 258.º),Aquisição de bens móveis,"33600000-6, Produtos farmacêuticos",Administração Regional de Saúde do Alentejo (ARSA) (503148768),"B BRAUN MEDICAL, LDA (501506543)","1.097,86 €",21-06-2018,30-04-2018,330 dias,"Portugal, Évora",Artigo 258.º do Código dos Contratos Públicos,25-09-2018,"1.097,86 €",,"",,1341769,"ACORDO QUADRO PARA FORNECIMENTO DE SERINGAS, AGULHAS E CONTENTORES ÀS INSTITUIÇÕES E SERVIÇOS DO SERVIÇO NACIONAL DE SAÚDE PROGRAMA DE CONCURSO",FALSE
MCC Agulhas e Seringas,Ao abrigo de acordo-quadro (art.º 258.º),Aquisição de bens móveis,"33600000-6, Produtos farmacêuticos",Administração Regional de Saúde do Alentejo (ARSA) (503148768),"BECTON DICKINSON PORTUGAL UNIPESSOAL, LDA (514239743)","242,04 €",21-06-2018,14-02-2018,330 dias,"Portugal, Évora",Artigo 258.º do Código dos Contratos Públicos,12-10-2018,"242,04 €",,"",,1341769,"ACORDO QUADRO PARA FORNECIMENTO DE SERINGAS, AGULHAS E CONTENTORES ÀS INSTITUIÇÕES E SERVIÇOS DO SERVIÇO NACIONAL DE SAÚDE PROGRAMA DE CONCURSO",FALSE
MCC Agulhas e Seringas,Ao abrigo de acordo-quadro (art.º 258.º),Aquisição de bens móveis,"33600000-6, Produtos farmacêuticos",Administração Regional de Saúde do Alentejo (ARSA) (503148768),"CLINIFAR - PROD. CLINICOS E FARMACEUTICOS, S.A. (503281115)","263,20 €",21-06-2018,14-02-2018,330 dias,"Portugal, Évora",Artigo 258.º do Código dos Contratos Públicos,23-05-2018,"274,05 €",,Acerto das quantidades com as embalagens fornecidas,,1341769,"ACORDO QUADRO PARA FORNECIMENTO DE SERINGAS, AGULHAS E CONTENTORES ÀS INSTITUIÇÕES E SERVIÇOS DO SERVIÇO NACIONAL DE SAÚDE PROGRAMA DE CONCURSO",FALSE
MCC Agulhas e Seringas,Ao abrigo de acordo-quadro (art.º 258.º),Aquisição de bens móveis,"33600000-6, Produtos farmacêuticos",Administração Regional de Saúde do Alentejo (ARSA) (503148768),"ANASTACIO SALDANHA,  UNIPESSOAL  LDA (505804441)","70,05 €",21-06-2018,21-06-2018,330 dias,"Portugal, Évora",Artigo 258.º do Código dos Contratos Públicos,11-09-2018,"70,05 €",,"",,1341769,"ACORDO QUADRO PARA FORNECIMENTO DE SERINGAS, AGULHAS E CONTENTORES ÀS INSTITUIÇÕES E SERVIÇOS DO SERVIÇO NACIONAL DE SAÚDE PROGRAMA DE CONCURSO",FALSE
MCC Agulhas e Seringas,Ao abrigo de acordo-quadro (art.º 258.º),Aquisição de bens móveis,"33600000-6, Produtos farmacêuticos",Administração Regional de Saúde do Alentejo (ARSA) (503148768),"QUILABAN - QUIMICA LABORATORIAL ANALITICA, SA (500399670)","476,80 €",21-06-2018,05-06-2018,330 dias,"Portugal, Évora",Artigo 258.º do Código dos Contratos Públicos,29-11-2018,"196,68 €",,Não forneceu a totalidade,,1341769,"ACORDO QUADRO PARA FORNECIMENTO DE SERINGAS, AGULHAS E CONTENTORES ÀS INSTITUIÇÕES E SERVIÇOS DO SERVIÇO NACIONAL DE SAÚDE PROGRAMA DE CONCURSO",FALSE
MCC Agulhas e Seringas,Ao abrigo de acordo-quadro (art.º 258.º),Aquisição de bens móveis,"33600000-6, Produtos farmacêuticos",Administração Regional de Saúde do Alentejo (ARSA) (503148768),"OVERPHARMA-PRODUTOS MÉDICOS E FARMACÉUTICOS,LDA (505792362)","25,22 €",21-06-2018,21-06-2018,330 dias,"Portugal, Évora",Artigo 258.º do Código dos Contratos Públicos,10-09-2018,"25,22 €",,"",,1341769,"ACORDO QUADRO PARA FORNECIMENTO DE SERINGAS, AGULHAS E CONTENTORES ÀS INSTITUIÇÕES E SERVIÇOS DO SERVIÇO NACIONAL DE SAÚDE PROGRAMA DE CONCURSO",FALSE
MCC Agulhas e Seringas,Ao abrigo de acordo-quadro (art.º 258.º),Aquisição de bens móveis,"33600000-6, Produtos farmacêuticos",Administração Regional de Saúde do Alentejo (ARSA) (503148768),"DOCWORLD, LDA (508592909)","238,20 €",21-06-2018,30-04-2018,330 dias,"Portugal, Évora",Artigo 258.º do Código dos Contratos Públicos,10-09-2018,"238,20 €",,"",,1341769,"ACORDO QUADRO PARA FORNECIMENTO DE SERINGAS, AGULHAS E CONTENTORES ÀS INSTITUIÇÕES E SERVIÇOS DO SERVIÇO NACIONAL DE SAÚDE PROGRAMA DE CONCURSO",FALSE
Ensaios (químicos) de aptidão de águas naturais e de consumo humano _ LSP Alentejo,Ajuste Direto Regime Geral,Aquisição de serviços,"90000000-7, Serviços relativos a águas residuais, resíduos, limpeza e ambiente","Administração Regional de Saúde do Alentejo, I. P. (503148768)",Relacre Associação de Laboratórios Acreditados de Portugal (502578874),"1.770,00 €",21-06-2018,28-06-2017,30 dias,"Portugal, Portalegre, Portalegre<BR/>Portugal, Évora, Évora<BR/>Portugal, Beja, Beja<BR/>Portugal","Artigo 24.º, n.º 1, alínea e) do Código dos Contratos Públicos",14-09-2017,"795,00 €",,Anulação de valores faturados pela 2ª distribuição do EAp,,Não aplicável.,Não aplicável.,FALSE
Aquisição de Garrotes,Ao abrigo de acordo-quadro (art.º 259.º),Aquisição de bens móveis,"33600000-6, Produtos farmacêuticos",Administração Regional de Saúde do Alentejo (ARSA) (503148768),"P.M.H. - PROD. MEDICOS HOSPITALARES, LDA. (502376899)","1.115,60 €",21-06-2018,30-10-2017,150 dias,"Portugal, Évora",Artigo 259.º do Código dos Contratos Públicos,07-11-2017,"1.119,50 €",,acerto das quantidades com a embalagem fornecida,,1212278,"CONCURSO PÚBLICO PARA A CELEBRAÇÃO DE CONTRATOS PÚBLICOS DE APROVISIONAMENTO PARA A ÁREA DA SAÚDE, COM VISTA AO FORNECIMENTO DE CATETERES, ÀS INSTITUIÇÕES E SERVIÇOS DO SERVIÇO NACIONAL DE SAÚDE",FALSE
Aquisição de Garrotes,Ao abrigo de acordo-quadro (art.º 259.º),Aquisição de bens móveis,"33600000-6, Produtos farmacêuticos",Administração Regional de Saúde do Alentejo (ARSA) (503148768),"B BRAUN MEDICAL, LDA (501506543)","4,19 €",21-06-2018,11-11-2017,150 dias,"Portugal, Évora",Artigo 259.º do Código dos Contratos Públicos,24-11-2017,"13,97 €",,"Adjudicou-se 30 unidades, mas a empresa só tinha embalagens com 100 unidades",,1212278,"CONCURSO PÚBLICO PARA A CELEBRAÇÃO DE CONTRATOS PÚBLICOS DE APROVISIONAMENTO PARA A ÁREA DA SAÚDE, COM VISTA AO FORNECIMENTO DE CATETERES, ÀS INSTITUIÇÕES E SERVIÇOS DO SERVIÇO NACIONAL DE SAÚDE",FALSE
Aquisição de Garrotes,Ao abrigo de acordo-quadro (art.º 259.º),Aquisição de bens móveis,"33600000-6, Produtos farmacêuticos",Administração Regional de Saúde do Alentejo (ARSA) (503148768),"OVERPHARMA-PRODUTOS MÉDICOS E FARMACÉUTICOS,LDA (505792362)","1.026,00 €",21-06-2018,25-08-2017,150 dias,"Portugal, Évora",Artigo 259.º do Código dos Contratos Públicos,16-11-2017,"1.023,37 €",,acerto das quantidades fornecidas com as embalagens,,1212278,"CONCURSO PÚBLICO PARA A CELEBRAÇÃO DE CONTRATOS PÚBLICOS DE APROVISIONAMENTO PARA A ÁREA DA SAÚDE, COM VISTA AO FORNECIMENTO DE CATETERES, ÀS INSTITUIÇÕES E SERVIÇOS DO SERVIÇO NACIONAL DE SAÚDE",FALSE
Aquisição de Garrotes,Ao abrigo de acordo-quadro (art.º 259.º),Aquisição de bens móveis,"33600000-6, Produtos farmacêuticos",Administração Regional de Saúde do Alentejo (ARSA) (503148768),"Becton Diskinson, S.A.-Suc. em Portugal (980245214)","5,60 €",21-06-2018,08-11-2017,180 dias,"Portugal, Évora",Artigo 259.º do Código dos Contratos Públicos,31-12-2017,"160,13 €",,"O preço contratual era por caixa, mas no concurso adjudicou-se 25 caixas ",,1350003,Acordo Quadro para fornecimento de sistemas fechados e material diverso de recolha de sangue às instituições do SNS,FALSE
"Aquisição de Material de Consumo Clínico - Aventais e Laminas de Bisturi, ao abrigo de Contratos Públicos de Aprovisionamento (CPA's) dos SPMS, com consulta ao Catalogo de Aprov. Público de Saúde ",Ao abrigo de acordo-quadro (art.º 259.º),Aquisição de bens móveis,"33100000-1, Equipamento médico",Administração Regional de Saúde do Alentejo (ARSA) (503148768),"H.R. -  HOSPITALAR, LDA (501895558)","557,50 €",21-06-2018,21-08-2017,150 dias,"Portugal, Évora",Artigo 259.º do Código dos Contratos Públicos,16-11-2017,"528,33 €",,Não forneceu a totalidade das Laminas de Bisturi 22,,2102851,CP 2016/74 - Acordo quadro para fornecimento de Material disposable de bloco operatório - Parte I-B às Instituições e Serviços do Serviço Nacional de Saúde,FALSE
"Aquisição de Material de Consumo Clínico - Aventais e Laminas de Bisturi, ao abrigo de Contratos Públicos de Aprovisionamento (CPA's) dos SPMS, com consulta ao Catalogo de Aprov. Público de Saúde ",Ao abrigo de acordo-quadro (art.º 259.º),Aquisição de bens móveis,"33100000-1, Equipamento médico",Administração Regional de Saúde do Alentejo (ARSA) (503148768),"QUILABAN - QUIMICA LABORATORIAL ANALITICA, SA (500399670)","0,47 €",21-06-2018,07-11-2017,150 dias,"Portugal, Évora",Artigo 259.º do Código dos Contratos Públicos,12-12-2017,"47,00 €",,"Considerou-se o preço base da unidade, mas no concurso adjudicou-se 100 unidades",,2102851,CP 2016/74 - Acordo quadro para fornecimento de Material disposable de bloco operatório - Parte I-B às Instituições e Serviços do Serviço Nacional de Saúde,FALSE
"Testes de Deteção de Drogas na Urina, ao abrigo do AQ 2015/73",Ao abrigo de acordo-quadro (art.º 259.º),Aquisição de bens móveis,"33600000-6, Produtos farmacêuticos",Administração Regional de Saúde do Alentejo (ARSA) (503148768),"NORMAX FABRICA VIDROS CIENTIFICOS, LDA (500203130)","245,40 €",21-06-2018,13-11-2017,210 dias,"Portugal, Évora",Artigo 259.º do Código dos Contratos Públicos,20-12-2017,"245,40 €",,"",,1555404,CP 2015/73 - Acordo quadro para fornecimento de Reagentes - Testes Rápidos às Instituições e Serviços do Serviço Nacional de Saúde,FALSE
"Testes de Deteção de Drogas na Urina, ao abrigo do AQ 2015/73",Ao abrigo de acordo-quadro (art.º 259.º),Aquisição de bens móveis,"33600000-6, Produtos farmacêuticos",Administração Regional de Saúde do Alentejo (ARSA) (503148768),"QUILABAN - QUIMICA LABORATORIAL ANALITICA, SA (500399670)","8.446,55 €",21-06-2018,05-07-2017,210 dias,"Portugal, Évora",Artigo 259.º do Código dos Contratos Públicos,31-12-2017,"8.446,55 €",,"",,1555404,CP 2015/73 - Acordo quadro para fornecimento de Reagentes - Testes Rápidos às Instituições e Serviços do Serviço Nacional de Saúde,FALSE
