Objeto do Contrato,Tipo de Procedimento,Tipo(s) de Contrato,CPVs,Entidade(s) Adjudicante(s),Entidade(s) Adjudicatária(s),Preço Contratual,Data de Publicação,Data de Celebração do Contrato,Prazo de Execução,Local de Execução,Fundamentação,Data de Fecho do Contrato,Preço Total Efetivo,Causas das Alterações ao Prazo,Causas das Alterações ao Preço,Estado,N.º registo do Acordo Quadro,Descrição do Acordo Quadro,Procedimento Centralizado
Aquisição de Pantoprazol 40 mg pó sol inj fr IV (CPA 2012/14),Ajuste Direto Regime Geral,Aquisição de bens móveis,"33600000-6, Produtos farmacêuticos","Centro Hospitalar Vila Nova de Gaia - Espinho, E.P.E. (508142156)",SANDOZ FARMACÊUTICA (506985261),"2.760,00 €",11-10-2013,11-10-2013,1 dias,"Portugal<BR/>Portugal, Porto, Vila Nova de Gaia","Artigo 24.º, n.º 1, alínea c) do Código dos Contratos Públicos","","",,,,Não aplicável.,Não aplicável.,
"Aquisição de Urinóis em Cartão, ao Abrigo do AQ 2012/25",Ao abrigo de acordo-quadro (art.º 259.º),Aquisição de bens móveis,"33100000-1, Equipamento médico","Centro Hospitalar Vila Nova de Gaia - Espinho, E.P.E. (508142156)","EZEQUIEL PANÃO JORGE, LDA (501412727)","2.286,50 €",11-10-2013,11-04-2013,270 dias,"Portugal, Porto, Vila Nova de Gaia",Artigo 259.º do Código dos Contratos Públicos,"","",,,,389355,"CONCURSO PÚBLICO PARA A CELEBRAÇÃO DE CONTRATOS PÚBLICOS DE APROVISIONAMENTO PARA AQUISIÇÃO DE MATERIAL DE INCONTINÊNCIA, PROTECÇÃO CUTÂNEA E ALIVIO DE PRESSÃO",
Aquisição de Seringas p/ Alimentação,Ao abrigo de acordo-quadro (art.º 259.º),Aquisição de bens móveis,"33140000-3, Material médico de consumo","Centro Hospitalar Vila Nova de Gaia - Espinho, E.P.E. (508142156)","P.M.H. - PROD. MÉDICO-HOSPITALARES, LDA (502376899)","2.329,50 €",11-10-2013,28-08-2013,120 dias,"Portugal, Porto, Vila Nova de Gaia",Artigo 259.º do Código dos Contratos Públicos,"","",,,,448705,"CONCURSO PÚBLICO PARA A CELEBRAÇÃO DE CONTRATOS PÚBLICOS DE APROVISIONAMENTO PARA A ÁREA DA SAÚDE, COM VISTA AO FORNECIMENTO DE SERINGAS, AGULHAS, CONTENTORES E SISTEMAS FECHADOS DE COLHEITA,  ÀS INSTITUIÇÕES E SERVIÇOS DO SERVIÇO NACIONAL DE SAÚDE",
Reparação da Mesa de RX,Ajuste Direto Regime Geral,Aquisição de bens móveis,"33114000-2, Aparelhos para espectroscopia","Centro Hospitalar Vila Nova de Gaia - Espinho, E.P.E. (508142156)","PHILIPS PORTUGUESA, S.A. - Sector Healthcare (500216843)","973,38 €",11-10-2013,11-10-2013,1 dias,"Portugal, Porto, Vila Nova de Gaia","Artigo 24.º, n.º 1, alínea e) do Código dos Contratos Públicos","","",,,,Não aplicável.,Não aplicável.,
MATERIAL P/ ELECTROBISTURI - PEDAL,Ajuste Direto Regime Geral,Aquisição de bens móveis,"31160000-5, Peças para motores, geradores e transformadores eléctricos","Centro Hospitalar Vila Nova de Gaia - Espinho, E.P.E. (508142156)","OLYMPUS IBÉRIA, S.A.U. - SUCURSAL EM PORTUGAL (980474710)","1.576,77 €",11-10-2013,11-10-2013,1 dias,"Portugal, Porto, Vila Nova de Gaia","Artigo 24.º, n.º 1, alínea e) do Código dos Contratos Públicos","","",,,,Não aplicável.,Não aplicável.,
Aquisição de Dioxido de Carbono,Ajuste Direto Regime Geral,Aquisição de bens móveis,"33696000-5, Reagentes e meios de contraste","Centro Hospitalar Vila Nova de Gaia - Espinho, E.P.E. (508142156)","Praxair Portugal Gases, S.A. (501738916)","750,00 €",11-10-2013,11-10-2013,60 dias,"Portugal, Porto, Vila Nova de Gaia","Artigo 24.º, n.º 1, alínea c) do Código dos Contratos Públicos","","",,,,Não aplicável.,Não aplicável.,
AD para Aquisição de Palha de Transferência de Embrioes,Ajuste Direto Regime Geral,Aquisição de bens móveis,"33140000-3, Material médico de consumo","Centro Hospitalar Vila Nova de Gaia - Espinho, E.P.E. (508142156)","EMB-EQUIPOS MÉDICO-BIOLÓGICOS SERVICIO TÉCNICO,SL (B-61298469)","183,00 €",11-10-2013,10-10-2013,80 dias,"Portugal, Porto, Vila Nova de Gaia","Artigo 24.º, n.º 1, alínea c) do Código dos Contratos Públicos","","",,,,Não aplicável.,Não aplicável.,
AD para Aquisição de Serviços de Assistência Técnica à Central Telefónica,Ajuste Direto Regime Geral,Aquisição de serviços,"64210000-1, Serviços telefónicos e de transmissão de dados","Centro Hospitalar Vila Nova de Gaia - Espinho, E.P.E. (508142156)","PT PRIME - SOLUÇÕES EMPRESARIAIS, S.A. (502840757)","5.883,71 €",11-10-2013,11-10-2013,80 dias,"Portugal, Porto, Vila Nova de Gaia","Artigo 24.º, n.º 1, alínea e) do Código dos Contratos Públicos","","",,,,Não aplicável.,Não aplicável.,
Aquisição de Sacos e Abraçadeiras em Plástico Para Uso Hospitalar,Concurso público,Aquisição de bens móveis,"19640000-4, Sacos de polietileno para recolha de lixo e resíduos","Centro Hospitalar Vila Nova de Gaia - Espinho, E.P.E. (508142156)","João Antunes Amaro, Lda. (500149003), Manuel de Sousa Lopes (500181110)","137.218,44 €",11-10-2013,22-07-2013,150 dias,"Portugal, Porto, Vila Nova de Gaia","Artigo 20.º, n.º 1, alínea b) do Código dos Contratos Públicos","","",,,,Não aplicável.,Não aplicável.,
Aquisição de Zaragatoas c/ Meio de Transporte,Ajuste Direto Regime Geral,Aquisição de bens móveis,"33696000-5, Reagentes e meios de contraste","Centro Hospitalar Vila Nova de Gaia - Espinho, E.P.E. (508142156)","VWR Internacional -Material de Laboratório,Lda. (503842770)","199,50 €",11-10-2013,11-10-2013,90 dias,"Portugal, Porto, Vila Nova de Gaia","Artigo 24.º, n.º 1, alínea c) do Código dos Contratos Públicos","","",,,,Não aplicável.,Não aplicável.,
Aquisição de Pantoprazol 40 mg pó sol inj fr IV (CPA 2012/14),Ajuste Direto Regime Geral,Aquisição de bens móveis,"33600000-6, Produtos farmacêuticos","Centro Hospitalar Vila Nova de Gaia - Espinho, E.P.E. (508142156)",HIKMA FARMACEUTICA (502266791),"2.520,00 €",11-10-2013,11-10-2013,60 dias,"Portugal, Porto, Vila Nova de Gaia","Artigo 24.º, n.º 1, alínea c) do Código dos Contratos Públicos","","",,,,Não aplicável.,Não aplicável.,
AD para Aquisição de Reagente (CMV IGG Avidity 30 testes),Ajuste Direto Regime Geral,Aquisição de bens móveis,"33696000-5, Reagentes e meios de contraste","Centro Hospitalar Vila Nova de Gaia - Espinho, E.P.E. (508142156)",BIOMERIEUX PORTUGUESA (501524177),"160,68 €",11-10-2013,11-10-2013,90 dias,"Portugal, Porto, Vila Nova de Gaia","Artigo 24.º, n.º 1, alínea c) do Código dos Contratos Públicos","","",,,,Não aplicável.,Não aplicável.,
Aquisição Hexafluoreto de enxofre 8 µg/ml (s/ CPA),Ajuste Direto Regime Geral,Aquisição de bens móveis,"33600000-6, Produtos farmacêuticos","Centro Hospitalar Vila Nova de Gaia - Espinho, E.P.E. (508142156)",LABORATÓRIOS FARMACÊUTICOS ROVI SA (980166705),"2.800,00 €",11-10-2013,11-10-2013,60 dias,"Portugal, Porto, Vila Nova de Gaia","Artigo 24.º, n.º 1, alínea c) do Código dos Contratos Públicos","","",,,,Não aplicável.,Não aplicável.,
Aquisição Hidroxizina 25mg Comp (s/ CPA Excl),Ajuste Direto Regime Geral,Aquisição de bens móveis,"33600000-6, Produtos farmacêuticos","Centro Hospitalar Vila Nova de Gaia - Espinho, E.P.E. (508142156)",UCB-PRODUTOS FARMACEUTICOS (500291322),"390,60 €",11-10-2013,11-10-2013,60 dias,"Portugal, Porto, Vila Nova de Gaia","Artigo 24.º, n.º 1, alínea e) do Código dos Contratos Públicos","","",,,,Não aplicável.,Não aplicável.,
Aquisição Clonazepam 2mg comp,Ajuste Direto Regime Geral,Aquisição de bens móveis,"33600000-6, Produtos farmacêuticos","Centro Hospitalar Vila Nova de Gaia - Espinho, E.P.E. (508142156)","ROCHE Farmacêutica Quimica, Lda (500233810)","35,28 €",11-10-2013,11-10-2013,60 dias,"Portugal, Porto, Vila Nova de Gaia","Artigo 24.º, n.º 1, alínea c) do Código dos Contratos Públicos","","",,,,Não aplicável.,Não aplicável.,
AD para Aquisição de Diverso Material de Consumo Clinico,Ajuste Direto Regime Geral,Aquisição de bens móveis,"33140000-3, Material médico de consumo","Centro Hospitalar Vila Nova de Gaia - Espinho, E.P.E. (508142156)",JOHNSON & JOHNSON MEDICAL (500153370),"3.317,72 €",11-10-2013,10-10-2013,80 dias,"Portugal, Porto, Vila Nova de Gaia","Artigo 24.º, n.º 1, alínea c) do Código dos Contratos Públicos","","",,,,Não aplicável.,Não aplicável.,
Aquisição Acido fusídico 20 mg/g Pom Bisn 15 g (CPA 2013/51),Ajuste Direto Regime Geral,Aquisição de bens móveis,"33600000-6, Produtos farmacêuticos","Centro Hospitalar Vila Nova de Gaia - Espinho, E.P.E. (508142156)","LABORATÓRIO MEDINFAR, S.A. (500384045)","320,00 €",11-10-2013,11-10-2013,60 dias,"Portugal, Porto, Vila Nova de Gaia","Artigo 24.º, n.º 1, alínea c) do Código dos Contratos Públicos","","",,,,Não aplicável.,Não aplicável.,
AD para Aquisição de Material de Coluna,Ajuste Direto Regime Geral,Aquisição de bens móveis,"33183000-6, Material de assistência ortopédica","Centro Hospitalar Vila Nova de Gaia - Espinho, E.P.E. (508142156)",SYNTHES  LDA. (501212191),"2.752,74 €",11-10-2013,10-10-2013,80 dias,"Portugal, Porto, Vila Nova de Gaia","Artigo 24.º, n.º 1, alínea c) do Código dos Contratos Públicos","","",,,,Não aplicável.,Não aplicável.,
AD para Aquisição de Entecavir 1 mg Comp,Ajuste Direto Regime Geral,Aquisição de bens móveis,"33600000-6, Produtos farmacêuticos","Centro Hospitalar Vila Nova de Gaia - Espinho, E.P.E. (508142156)",BRISTOL- MYERS SQUIBB (500048193),"8.994,00 €",11-10-2013,07-10-2013,60 dias,"Portugal, Porto, Vila Nova de Gaia","Artigo 24.º, n.º 1, alínea e) do Código dos Contratos Públicos","","",,,,Não aplicável.,Não aplicável.,
AD para Aquisição de Dieta Completa Normalizadas p/ Diabéticos e c/ fibras Frs 500 Ml,Ajuste Direto Regime Geral,Aquisição de bens móveis,"33600000-6, Produtos farmacêuticos","Centro Hospitalar Vila Nova de Gaia - Espinho, E.P.E. (508142156)","Fresenius Kabi Pharma Portugal, Lda (504293753)","2.013,00 €",11-10-2013,10-10-2013,80 dias,"Portugal, Porto, Vila Nova de Gaia","Artigo 24.º, n.º 1, alínea c) do Código dos Contratos Públicos","","",,,,Não aplicável.,Não aplicável.,
AD para Aquisição de Dieta Lactea Baixo Teor Lipidico Enriq MCT Pó Emb,Ajuste Direto Regime Geral,Aquisição de bens móveis,"33600000-6, Produtos farmacêuticos","Centro Hospitalar Vila Nova de Gaia - Espinho, E.P.E. (508142156)","Nutricia Advanced Medical Nutrition Unip., Lda (507558286)","810,72 €",11-10-2013,10-10-2013,80 dias,"Portugal, Porto, Vila Nova de Gaia","Artigo 24.º, n.º 1, alínea c) do Código dos Contratos Públicos","","",,,,Não aplicável.,Não aplicável.,
"Aquisição de Dietas Entéricas, Leites e Farinhas Lácteas",Concurso público,Aquisição de bens móveis,"33692300-0, Alimentos enterais","Centro Hospitalar Vila Nova de Gaia - Espinho, E.P.E. (508142156)","Fresenius Kabi Pharma portugal, Lda. (504293753), B. Braun Medical, Lda. (501506543), Milupa Comercial - Comercialização de Produtos Alimentares SA. (502192828), Nestlé porugal, S.A. (500201307), Nutricia Advanced Medical Nutrition- Unipessoal, Lda. (507558286)","34.599,58 €",11-10-2013,23-07-2013,150 dias,"Portugal, Porto, Vila Nova de Gaia","Artigo 20.º, n.º 1, alínea b) do Código dos Contratos Públicos","","",,,,Não aplicável.,Não aplicável.,
AD para Aquisição de Dieta Comp Normalizada Polimerica liq. Frs 500ML Sonda,Ajuste Direto Regime Geral,Aquisição de bens móveis,"33600000-6, Produtos farmacêuticos","Centro Hospitalar Vila Nova de Gaia - Espinho, E.P.E. (508142156)","Fresenius Kabi Pharma Portugal, Lda (504293753)","7.040,00 €",11-10-2013,10-10-2013,80 dias,"Portugal, Porto, Vila Nova de Gaia","Artigo 24.º, n.º 1, alínea c) do Código dos Contratos Públicos","","",,,,Não aplicável.,Não aplicável.,
"AD para Aquisição de Bainha Longa Ramp 8,5 F  ",Ajuste Direto Regime Geral,Aquisição de bens móveis,"33140000-3, Material médico de consumo","Centro Hospitalar Vila Nova de Gaia - Espinho, E.P.E. (508142156)",ST. JUDE MEDICAL PORTUGAL (504180746),"1.880,00 €",11-10-2013,10-10-2013,80 dias,"Portugal, Porto, Vila Nova de Gaia","Artigo 24.º, n.º 1, alínea c) do Código dos Contratos Públicos","","",,,,Não aplicável.,Não aplicável.,
AD para Aquisição de Tampão Anal Pequeno,Ajuste Direto Regime Geral,Aquisição de bens móveis,"33140000-3, Material médico de consumo","Centro Hospitalar Vila Nova de Gaia - Espinho, E.P.E. (508142156)","SPCare, Especialidades Farmacêuticas, Lda (508284872)","59,00 €",11-10-2013,10-10-2013,80 dias,"Portugal, Porto, Vila Nova de Gaia","Artigo 24.º, n.º 1, alínea c) do Código dos Contratos Públicos","","",,,,Não aplicável.,Não aplicável.,
AD para Aquisição de Lente de Camara Posterior,Ajuste Direto Regime Geral,Aquisição de bens móveis,"33140000-3, Material médico de consumo","Centro Hospitalar Vila Nova de Gaia - Espinho, E.P.E. (508142156)",ALCON Portugal (501251685),"450,00 €",11-10-2013,10-10-2013,80 dias,"Portugal, Porto, Vila Nova de Gaia","Artigo 24.º, n.º 1, alínea c) do Código dos Contratos Públicos","","",,,,Não aplicável.,Não aplicável.,
AD para Aquisição de Fita p/ Cerclage de Ptose da Palpebra,Ajuste Direto Regime Geral,Aquisição de bens móveis,"33140000-3, Material médico de consumo","Centro Hospitalar Vila Nova de Gaia - Espinho, E.P.E. (508142156)",JOSÉ COTTA (500155739),"492,00 €",11-10-2013,10-10-2013,80 dias,"Portugal, Porto, Vila Nova de Gaia","Artigo 24.º, n.º 1, alínea c) do Código dos Contratos Públicos","","",,,,Não aplicável.,Não aplicável.,
AD para Aquisição de Pinça Paufique Dentes Obliquos,Ajuste Direto Regime Geral,Aquisição de bens móveis,"33140000-3, Material médico de consumo","Centro Hospitalar Vila Nova de Gaia - Espinho, E.P.E. (508142156)",GRUPO TAPER (506886336),"135,85 €",11-10-2013,10-10-2013,80 dias,"Portugal, Porto, Vila Nova de Gaia","Artigo 24.º, n.º 1, alínea c) do Código dos Contratos Públicos","","",,,,Não aplicável.,Não aplicável.,
AD para Aquisição de Introdutor Longo Aramado 8F,Ajuste Direto Regime Geral,Aquisição de bens móveis,"33140000-3, Material médico de consumo","Centro Hospitalar Vila Nova de Gaia - Espinho, E.P.E. (508142156)","Teleflex Medical, S.A.U. (980249783)","480,00 €",11-10-2013,10-10-2013,80 dias,"Portugal, Porto, Vila Nova de Gaia","Artigo 24.º, n.º 1, alínea c) do Código dos Contratos Públicos","","",,,,Não aplicável.,Não aplicável.,
AD para Aquisição de Camara Expansora p/ Administração de Aerosol,Ajuste Direto Regime Geral,Aquisição de bens móveis,"33140000-3, Material médico de consumo","Centro Hospitalar Vila Nova de Gaia - Espinho, E.P.E. (508142156)",PULMOCOR (501402578),"200,00 €",11-10-2013,10-10-2013,80 dias,"Portugal, Porto, Vila Nova de Gaia","Artigo 24.º, n.º 1, alínea c) do Código dos Contratos Públicos","","",,,,Não aplicável.,Não aplicável.,
AD para Aquisição de Material de Coluna,Ajuste Direto Regime Geral,Aquisição de bens móveis,"33183000-6, Material de assistência ortopédica","Centro Hospitalar Vila Nova de Gaia - Espinho, E.P.E. (508142156)","MBA PORTUGAL, S.A. (504445960)","3.032,00 €",11-10-2013,10-10-2013,70 dias,"Portugal, Porto, Vila Nova de Gaia","Artigo 24.º, n.º 1, alínea c) do Código dos Contratos Públicos","","",,,,Não aplicável.,Não aplicável.,
AD para Aquisição de Material de Coluna,Ajuste Direto Regime Geral,Aquisição de bens móveis,"33183000-6, Material de assistência ortopédica","Centro Hospitalar Vila Nova de Gaia - Espinho, E.P.E. (508142156)","MBA PORTUGAL, S.A. (504445960)","2.642,00 €",11-10-2013,10-10-2013,90 dias,"Portugal, Porto, Vila Nova de Gaia","Artigo 24.º, n.º 1, alínea c) do Código dos Contratos Públicos","","",,,,Não aplicável.,Não aplicável.,
AD para Aquisição de Lentes Oftalmológicas,Ajuste Direto Regime Geral,Aquisição de bens móveis,"33190000-8, Dispositivos e produtos médicos variados","Centro Hospitalar Vila Nova de Gaia - Espinho, E.P.E. (508142156)",ALCON Portugal (501251685),"50,00 €",11-10-2013,10-10-2013,80 dias,"Portugal, Porto, Vila Nova de Gaia","Artigo 24.º, n.º 1, alínea c) do Código dos Contratos Públicos","","",,,,Não aplicável.,Não aplicável.,
AD para Aquisição de Protese Total da Anca Cimentada,Ajuste Direto Regime Geral,Aquisição de bens móveis,"33183200-8, Próteses ortopédicas","Centro Hospitalar Vila Nova de Gaia - Espinho, E.P.E. (508142156)",P.H.O. (504980580),"130,00 €",11-10-2013,10-10-2013,60 dias,"Portugal, Porto, Vila Nova de Gaia","Artigo 24.º, n.º 1, alínea c) do Código dos Contratos Públicos","","",,,,Não aplicável.,Não aplicável.,
AD para Aquisição de Sensor de Fluxo,Ajuste Direto Regime Geral,Aquisição de bens móveis,"33140000-3, Material médico de consumo","Centro Hospitalar Vila Nova de Gaia - Espinho, E.P.E. (508142156)","Medicinália - Cormédica, Lda (500684324)","178,00 €",11-10-2013,10-10-2013,80 dias,"Portugal, Porto, Vila Nova de Gaia","Artigo 24.º, n.º 1, alínea c) do Código dos Contratos Públicos","","",,,,Não aplicável.,Não aplicável.,
AD para Aquisição de Eletrodos p/ Aparelho de Tens,Ajuste Direto Regime Geral,Aquisição de bens móveis,"33140000-3, Material médico de consumo","Centro Hospitalar Vila Nova de Gaia - Espinho, E.P.E. (508142156)","VITALINO SOUSA FIGUEIREDO, LDA (501277196)","138,00 €",11-10-2013,10-10-2013,80 dias,"Portugal, Porto, Vila Nova de Gaia","Artigo 24.º, n.º 1, alínea c) do Código dos Contratos Públicos","","",,,,Não aplicável.,Não aplicável.,
"AD para Aquisição de Tubos Endotraqueais, Endobronquicos e Cateter Oclusão  ",Ajuste Direto Regime Geral,Aquisição de bens móveis,"33140000-3, Material médico de consumo","Centro Hospitalar Vila Nova de Gaia - Espinho, E.P.E. (508142156)","Teleflex Medical, S.A.U. (980249783)","3.039,91 €",11-10-2013,10-10-2013,80 dias,"Portugal, Porto, Vila Nova de Gaia","Artigo 24.º, n.º 1, alínea c) do Código dos Contratos Públicos","","",,,,Não aplicável.,Não aplicável.,
AD para Aquisição de IIioprost 10µG/ML  Sol.inal neb Fr 2 ml,Ajuste Direto Regime Geral,Aquisição de bens móveis,"33600000-6, Produtos farmacêuticos","Centro Hospitalar Vila Nova de Gaia - Espinho, E.P.E. (508142156)",BAYER PORTUGAL S.A. (500043256),"8.654,40 €",11-10-2013,10-10-2013,60 dias,"Portugal, Porto, Vila Nova de Gaia","Artigo 24.º, n.º 1, alínea c) do Código dos Contratos Públicos","","",,,,Não aplicável.,Não aplicável.,
Aquisição Cinto de Segurança p/ imobilização,Ajuste Direto Regime Geral,Aquisição de bens móveis,"33100000-1, Equipamento médico","Centro Hospitalar Vila Nova de Gaia - Espinho, E.P.E. (508142156)",JMV - Produtos Hospitalares (501887148),"440,00 €",11-10-2013,11-10-2013,90 dias,"Portugal, Porto, Vila Nova de Gaia","Artigo 24.º, n.º 1, alínea c) do Código dos Contratos Públicos","","",,,,Não aplicável.,Não aplicável.,
Aquisição Material para Cirurgia Cardíaca,Ajuste Direto Regime Geral,Aquisição de bens móveis,"33100000-1, Equipamento médico","Centro Hospitalar Vila Nova de Gaia - Espinho, E.P.E. (508142156)",MAQUET PORTUGAL (506819698),"4.200,00 €",11-10-2013,11-10-2013,90 dias,"Portugal, Porto, Vila Nova de Gaia","Artigo 24.º, n.º 1, alínea c) do Código dos Contratos Públicos","","",,,,Não aplicável.,Não aplicável.,
Aquisição Pessario de Silicone e Electrodo de Escalpe,Ajuste Direto Regime Geral,Aquisição de bens móveis,"33100000-1, Equipamento médico","Centro Hospitalar Vila Nova de Gaia - Espinho, E.P.E. (508142156)",SPECULUM (502996323),"3.250,00 €",11-10-2013,11-10-2013,90 dias,"Portugal, Porto, Vila Nova de Gaia","Artigo 24.º, n.º 1, alínea c) do Código dos Contratos Públicos","","",,,,Não aplicável.,Não aplicável.,
"Aquisição de Agulhas c/ Aleta 21 e 25 G, AQ 2012/22",Ao abrigo de acordo-quadro (art.º 259.º),Aquisição de bens móveis,"33100000-1, Equipamento médico","Centro Hospitalar Vila Nova de Gaia - Espinho, E.P.E. (508142156)",PERGUT PORTUGAL (501799729),"412,51 €",11-10-2013,31-07-2013,150 dias,"Portugal, Porto, Vila Nova de Gaia",Artigo 259.º do Código dos Contratos Públicos,"","",,,,448705,"CONCURSO PÚBLICO PARA A CELEBRAÇÃO DE CONTRATOS PÚBLICOS DE APROVISIONAMENTO PARA A ÁREA DA SAÚDE, COM VISTA AO FORNECIMENTO DE SERINGAS, AGULHAS, CONTENTORES E SISTEMAS FECHADOS DE COLHEITA,  ÀS INSTITUIÇÕES E SERVIÇOS DO SERVIÇO NACIONAL DE SAÚDE",
Aquisição Seringa p/ Injeção Gordura,Ajuste Direto Regime Geral,Aquisição de bens móveis,"33100000-1, Equipamento médico","Centro Hospitalar Vila Nova de Gaia - Espinho, E.P.E. (508142156)","TEPREL- Equipamentos Médicos, ldª. (502262184)","84,00 €",11-10-2013,11-10-2013,90 dias,"Portugal, Porto, Vila Nova de Gaia","Artigo 24.º, n.º 1, alínea c) do Código dos Contratos Públicos","","",,,,Não aplicável.,Não aplicável.,
"aquisição PIPETA P/ MICROINJECÇAO 0,005 MICRONS ",Ajuste Direto Regime Geral,Aquisição de bens móveis,"33100000-1, Equipamento médico","Centro Hospitalar Vila Nova de Gaia - Espinho, E.P.E. (508142156)",BIOSONDA (501463313),"1.800,00 €",11-10-2013,11-10-2013,90 dias,"Portugal, Porto, Vila Nova de Gaia","Artigo 24.º, n.º 1, alínea c) do Código dos Contratos Públicos","","",,,,Não aplicável.,Não aplicável.,
Aquisição de Mascara Resistente a Fluidos com Viseira,Ajuste Direto Regime Geral,Aquisição de bens móveis,"33100000-1, Equipamento médico","Centro Hospitalar Vila Nova de Gaia - Espinho, E.P.E. (508142156)",FACTOR PLUS (502810645),"576,00 €",11-10-2013,11-10-2013,90 dias,"Portugal, Porto, Vila Nova de Gaia","Artigo 24.º, n.º 1, alínea c) do Código dos Contratos Públicos","","",,,,Não aplicável.,Não aplicável.,
Aquisição de Conjuntos p/ Infusão de Insulina,Ao abrigo de acordo-quadro (art.º 259.º),Aquisição de bens móveis,"33100000-1, Equipamento médico","Centro Hospitalar Vila Nova de Gaia - Espinho, E.P.E. (508142156)","ROCHE SISTEMAS DE DIAGNÓSTICO, LDA (504282921)","8.305,50 €",11-10-2013,11-10-2013,80 dias,"Portugal, Porto, Vila Nova de Gaia",Artigo 259.º do Código dos Contratos Públicos,"","",,,,382570,CONCURSO PÚBLICO PARA A CELEBRAÇÃO DE CONTRATOS PÚBLICOS DE APROVISIONAMENTO PARA AQUISIÇÃO BOMBAS DE PERFUSÃO SUBCUTANEA CONTINUA DE INSULINA E RESPECTIVOS CONSUMÍVEIS,
Aquisição de Ponteiras p/ Cirurgia de Raiofrequência,Ajuste Direto Regime Geral,Aquisição de bens móveis,"33100000-1, Equipamento médico","Centro Hospitalar Vila Nova de Gaia - Espinho, E.P.E. (508142156)",STRYKER PORTUGAL (504594214),"2.800,00 €",11-10-2013,11-10-2013,90 dias,"Portugal, Porto, Vila Nova de Gaia","Artigo 24.º, n.º 1, alínea c) do Código dos Contratos Públicos","","",,,,Não aplicável.,Não aplicável.,
Aquisição PROLONGADOR DE CATETER P/DIALISE PERITONEAL,Ajuste Direto Regime Geral,Aquisição de bens móveis,"33100000-1, Equipamento médico","Centro Hospitalar Vila Nova de Gaia - Espinho, E.P.E. (508142156)","BAXTER MEDICO - FARMACÊUTICA, LDA (503347345)","303,50 €",11-10-2013,11-10-2013,90 dias,"Portugal, Porto, Vila Nova de Gaia","Artigo 24.º, n.º 1, alínea c) do Código dos Contratos Públicos","","",,,,Não aplicável.,Não aplicável.,
AD para Aquisição de Cabo para Aparelho,Ajuste Direto Regime Geral,Aquisição de bens móveis,"32581100-0, Cabos para transmissão de dados","Centro Hospitalar Vila Nova de Gaia - Espinho, E.P.E. (508142156)",ELNOR (500094403),"190,00 €",11-10-2013,10-10-2013,60 dias,"Portugal, Porto, Vila Nova de Gaia","Artigo 24.º, n.º 1, alínea c) do Código dos Contratos Públicos","","",,,,Não aplicável.,Não aplicável.,
Aquisição Dreno toracico de silicone CH 27x50cm,Ajuste Direto Regime Geral,Aquisição de bens móveis,"33100000-1, Equipamento médico","Centro Hospitalar Vila Nova de Gaia - Espinho, E.P.E. (508142156)","H.R. PRODUTOS QUIMICOS, LDA (501895558)","168,00 €",11-10-2013,11-10-2013,90 dias,"Portugal, Porto, Vila Nova de Gaia","Artigo 24.º, n.º 1, alínea c) do Código dos Contratos Públicos","","",,,,Não aplicável.,Não aplicável.,
AD para Aquisição de Cabo de Ligação a Pacemaker,Ajuste Direto Regime Geral,Aquisição de bens móveis,"32581100-0, Cabos para transmissão de dados","Centro Hospitalar Vila Nova de Gaia - Espinho, E.P.E. (508142156)",MEDTRONIC (504223933),"300,00 €",11-10-2013,10-10-2013,60 dias,"Portugal, Porto, Vila Nova de Gaia","Artigo 24.º, n.º 1, alínea e) do Código dos Contratos Públicos","","",,,,Não aplicável.,Não aplicável.,
"Aquisição ANSA DIATERMICA 2,0X1,0CM ",Ajuste Direto Regime Geral,Aquisição de bens móveis,"33100000-1, Equipamento médico","Centro Hospitalar Vila Nova de Gaia - Espinho, E.P.E. (508142156)","Boston Scientific Portugal - Disp. Médicos, Lda (504988964)","1.500,00 €",11-10-2013,11-10-2013,90 dias,"Portugal, Porto, Vila Nova de Gaia","Artigo 24.º, n.º 1, alínea c) do Código dos Contratos Públicos","","",,,,Não aplicável.,Não aplicável.,
"Aquisição de Lancetas, ao Abrigo do AQ 2012/31",Ao abrigo de acordo-quadro (art.º 259.º),Aquisição de bens móveis,"33100000-1, Equipamento médico","Centro Hospitalar Vila Nova de Gaia - Espinho, E.P.E. (508142156)",SARSTEDT (503019461),"7.800,00 €",11-10-2013,05-09-2013,120 dias,"Portugal, Porto, Vila Nova de Gaia",Artigo 259.º do Código dos Contratos Públicos,"","",,,,464738,"Concurso público para a celebração de contratos públicos de aprovisionamento para a área da saúde, com vista ao fornecimento de material de prevenção e deteção do HIV.",
"Aquisição ANSA DIATERMICA 2,0X1,0CM ",Ajuste Direto Regime Geral,Aquisição de bens móveis,"33100000-1, Equipamento médico","Centro Hospitalar Vila Nova de Gaia - Espinho, E.P.E. (508142156)",DISPROMEDI -Produtos e Equipamentos Médicos (505684772),"304,80 €",11-10-2013,11-10-2013,90 dias,"Portugal, Porto, Vila Nova de Gaia","Artigo 24.º, n.º 1, alínea c) do Código dos Contratos Públicos","","",,,,Não aplicável.,Não aplicável.,
Aquisição Agulha p/ Estimulação de Nervos Periféricos,Ajuste Direto Regime Geral,Aquisição de bens móveis,"33100000-1, Equipamento médico","Centro Hospitalar Vila Nova de Gaia - Espinho, E.P.E. (508142156)","VYGON (PORTUGAL), LDA. (503232785)","750,00 €",11-10-2013,11-10-2013,90 dias,"Portugal, Porto, Vila Nova de Gaia","Artigo 24.º, n.º 1, alínea c) do Código dos Contratos Públicos","","",,,,Não aplicável.,Não aplicável.,
AD para Aquisição de Cabos para Aparelho,Ajuste Direto Regime Geral,Aquisição de bens móveis,"32581100-0, Cabos para transmissão de dados","Centro Hospitalar Vila Nova de Gaia - Espinho, E.P.E. (508142156)","GERANSWERS, LDA (507683528)","420,00 €",11-10-2013,10-10-2013,60 dias,"Portugal, Porto, Vila Nova de Gaia","Artigo 24.º, n.º 1, alínea c) do Código dos Contratos Públicos","","",,,,Não aplicável.,Não aplicável.,
Aquisição Material para Ventilação,Ajuste Direto Regime Geral,Aquisição de bens móveis,"33100000-1, Equipamento médico","Centro Hospitalar Vila Nova de Gaia - Espinho, E.P.E. (508142156)",INTERSURGICAL PORTUGAL Lda. (503480045),"170,00 €",11-10-2013,11-10-2013,90 dias,"Portugal, Porto, Vila Nova de Gaia","Artigo 24.º, n.º 1, alínea c) do Código dos Contratos Públicos","","",,,,Não aplicável.,Não aplicável.,
AD para Aquisição de Cabo de 12 Derivações,Ajuste Direto Regime Geral,Aquisição de bens móveis,"32581100-0, Cabos para transmissão de dados","Centro Hospitalar Vila Nova de Gaia - Espinho, E.P.E. (508142156)","Drager Portugal, Lda (508771323)","1.400,00 €",11-10-2013,10-10-2013,60 dias,"Portugal, Porto, Vila Nova de Gaia","Artigo 24.º, n.º 1, alínea c) do Código dos Contratos Públicos","","",,,,Não aplicável.,Não aplicável.,
Aquisição de Fresa de Craneotomo,Ajuste Direto Regime Geral,Aquisição de bens móveis,"33100000-1, Equipamento médico","Centro Hospitalar Vila Nova de Gaia - Espinho, E.P.E. (508142156)","B BRAUN MEDICAL, LDA.V (501506543)","3.338,00 €",11-10-2013,10-10-2013,90 dias,"Portugal, Porto, Vila Nova de Gaia","Artigo 24.º, n.º 1, alínea c) do Código dos Contratos Públicos","","",,,,Não aplicável.,Não aplicável.,
Aquisição Capas Protectoras p/ Microscopio,Ajuste Direto Regime Geral,Aquisição de bens móveis,"33100000-1, Equipamento médico","Centro Hospitalar Vila Nova de Gaia - Espinho, E.P.E. (508142156)",LINEAMÉDICA (505148676),"1.091,00 €",11-10-2013,10-10-2013,90 dias,"Portugal, Porto, Vila Nova de Gaia","Artigo 24.º, n.º 1, alínea c) do Código dos Contratos Públicos","","",,,,Não aplicável.,Não aplicável.,
Aquisição Material de Laboratório,Ajuste Direto Regime Geral,Aquisição de bens móveis,"33100000-1, Equipamento médico","Centro Hospitalar Vila Nova de Gaia - Espinho, E.P.E. (508142156)",GARAL (500777314),"8.830,00 €",11-10-2013,10-10-2013,90 dias,"Portugal, Porto, Vila Nova de Gaia","Artigo 24.º, n.º 1, alínea c) do Código dos Contratos Públicos","","",,,,Não aplicável.,Não aplicável.,
AD para Aquisição de Cabo para Placas,Ajuste Direto Regime Geral,Aquisição de bens móveis,"32581100-0, Cabos para transmissão de dados","Centro Hospitalar Vila Nova de Gaia - Espinho, E.P.E. (508142156)",BACELAR & IRMÃO (500532818),"61,10 €",11-10-2013,10-10-2013,60 dias,"Portugal, Porto, Vila Nova de Gaia","Artigo 24.º, n.º 1, alínea c) do Código dos Contratos Públicos","","",,,,Não aplicável.,Não aplicável.,
AD para Aluguer de Compressor Unidade II,Ajuste Direto Regime Geral,Aquisição de serviços,"51134000-0, Serviços de instalação de compressores","Centro Hospitalar Vila Nova de Gaia - Espinho, E.P.E. (508142156)","Praxair Portugal Gases, S.A. (501738916)","2.760,00 €",11-10-2013,10-10-2013,60 dias,"Portugal, Porto, Vila Nova de Gaia","Artigo 24.º, n.º 1, alínea c) do Código dos Contratos Públicos","","",,,,Não aplicável.,Não aplicável.,
AD para Reparação de Espirometro,Ajuste Direto Regime Geral,Aquisição de serviços,"50410000-2, Serviços de reparação e manutenção de aparelhos de medição, ensaio e controlo","Centro Hospitalar Vila Nova de Gaia - Espinho, E.P.E. (508142156)","SANO-TÉCNICA, LDª. (500239819)","346,00 €",11-10-2013,10-10-2013,60 dias,"Portugal, Porto, Vila Nova de Gaia","Artigo 24.º, n.º 1, alínea c) do Código dos Contratos Públicos","","",,,,Não aplicável.,Não aplicável.,
AD para Reparação de Ecografo,Ajuste Direto Regime Geral,Aquisição de serviços,"50421000-2, Serviços de reparação e manutenção de equipamento médico","Centro Hospitalar Vila Nova de Gaia - Espinho, E.P.E. (508142156)","ASTRIMED-Informática e Tecnologia Médica,Lda (507007867)","395,00 €",11-10-2013,10-10-2013,60 dias,"Portugal, Porto, Vila Nova de Gaia","Artigo 24.º, n.º 1, alínea c) do Código dos Contratos Públicos","","",,,,Não aplicável.,Não aplicável.,
Aquisição de Diverso Instrumental Cirurgico,Ajuste Direto Regime Geral,Aquisição de bens móveis,"33100000-1, Equipamento médico","Centro Hospitalar Vila Nova de Gaia - Espinho, E.P.E. (508142156)","TEPREL- Equipamentos Médicos, ldª. (502262184)","594,50 €",11-10-2013,11-10-2013,1 dias,"Portugal, Porto, Vila Nova de Gaia","Artigo 24.º, n.º 1, alínea c) do Código dos Contratos Públicos","","",,,,Não aplicável.,Não aplicável.,
AD para Reparação de Serra,Ajuste Direto Regime Geral,Aquisição de serviços,"50422000-9, Serviços de reparação e manutenção de equipamento cirúrgico","Centro Hospitalar Vila Nova de Gaia - Espinho, E.P.E. (508142156)",STRYKER PORTUGAL (504594214),"1.467,83 €",11-10-2013,10-10-2013,60 dias,"Portugal, Porto, Vila Nova de Gaia","Artigo 24.º, n.º 1, alínea c) do Código dos Contratos Públicos","","",,,,Não aplicável.,Não aplicável.,
Aquisição de Esferas de Quimioembolização,Ajuste Direto Regime Geral,Aquisição de bens móveis,"33100000-1, Equipamento médico","Centro Hospitalar Vila Nova de Gaia - Espinho, E.P.E. (508142156)",TERUMO EUROPE ESPAÑA S.L. (980472024),"1.680,00 €",11-10-2013,11-10-2013,1 dias,"Portugal, Porto, Vila Nova de Gaia","Artigo 24.º, n.º 1, alínea c) do Código dos Contratos Públicos","","",,,,Não aplicável.,Não aplicável.,
2815613- AD para Aquisição Material de Coluna,Ajuste Direto Regime Geral,Aquisição de bens móveis,"33100000-1, Equipamento médico","Centro Hospitalar Vila Nova de Gaia - Espinho, E.P.E. (508142156)",SYNTHES  LDA. (501212191),"3.540,00 €",10-10-2013,10-10-2013,1 dias,"Portugal, Porto, Vila Nova de Gaia","Artigo 24.º, n.º 1, alínea c) do Código dos Contratos Públicos","","",,,,Não aplicável.,Não aplicável.,
2815513 - AD para Aquisição Material de Coluna,Ajuste Direto Regime Geral,Aquisição de bens móveis,"33100000-1, Equipamento médico","Centro Hospitalar Vila Nova de Gaia - Espinho, E.P.E. (508142156)","MBA PORTUGAL, S.A. (504445960)","1.854,00 €",10-10-2013,10-10-2013,1 dias,"Portugal, Porto, Vila Nova de Gaia","Artigo 24.º, n.º 1, alínea c) do Código dos Contratos Públicos","","",,,,Não aplicável.,Não aplicável.,
Aquisição Trepanos p/ Transplantes de Córneas,Ajuste Direto Regime Geral,Aquisição de bens móveis,"33100000-1, Equipamento médico","Centro Hospitalar Vila Nova de Gaia - Espinho, E.P.E. (508142156)","MULTISISTEMAS, LDA (501497951)","436,00 €",10-10-2013,10-10-2013,1 dias,"Portugal, Porto, Vila Nova de Gaia","Artigo 24.º, n.º 1, alínea c) do Código dos Contratos Públicos","","",,,,Não aplicável.,Não aplicável.,
3811713 - Aquisição de Cabo Completo 3 Derivações,Ajuste Direto Regime Geral,Aquisição de bens móveis,"31224400-6, Cabos de ligação","Centro Hospitalar Vila Nova de Gaia - Espinho, E.P.E. (508142156)","GERANSWERS, LDA (507683528)","65,00 €",10-10-2013,10-10-2013,1 dias,"Portugal, Porto, Vila Nova de Gaia","Artigo 24.º, n.º 1, alínea c) do Código dos Contratos Públicos",10-10-2013,"65,00 €",,,,Não aplicável.,Não aplicável.,
Aquisição de Ecocardiógrafo de Gama Alta para o Serviço de Cirurgia Cardiotoracica - Unidade I,Ajuste Direto Regime Geral,Aquisição de bens móveis,"33112340-3, Ecocardiógrafos","Centro Hospitalar Vila Nova de Gaia - Espinho, E.P.E. (508142156)",Philips Portuguesa S.A. (500216843),"78.300,00 €",10-10-2013,16-07-2013,30 dias,"Portugal, Porto, Vila Nova de Gaia","Artigo 24.º, n.º 1, alínea e) do Código dos Contratos Públicos","","",,,,Não aplicável.,Não aplicável.,
Reagentes para o Equipamento Architect,Ajuste Direto Regime Geral,Aquisição de bens móveis,"33696000-5, Reagentes e meios de contraste","Centro Hospitalar Vila Nova de Gaia - Espinho, E.P.E. (508142156)","ABBOTT LABORATÓRIOS, LDA (500006148)","7.466,22 €",10-10-2013,10-10-2013,90 dias,"Portugal, Porto, Vila Nova de Gaia","Artigo 24.º, n.º 1, alínea c) do Código dos Contratos Públicos","","",,,,Não aplicável.,Não aplicável.,
Aquisição de Frasco de Drenagem Toracica 3L,Ajuste Direto Regime Geral,Aquisição de bens móveis,"33100000-1, Equipamento médico","Centro Hospitalar Vila Nova de Gaia - Espinho, E.P.E. (508142156)",CATIMED (503416568),"4.050,00 €",10-10-2013,10-10-2013,90 dias,"Portugal, Porto, Vila Nova de Gaia","Artigo 24.º, n.º 1, alínea c) do Código dos Contratos Públicos","","",,,,Não aplicável.,Não aplicável.,
"AD para Aquisição de Carvão Ativado e Prata 10,5x10,5 cm apósito (CPA 2012/10)  ",Ajuste Direto Regime Geral,Aquisição de bens móveis,"33600000-6, Produtos farmacêuticos","Centro Hospitalar Vila Nova de Gaia - Espinho, E.P.E. (508142156)","SMITH & NEPHEW, LDA (503552461)","679,80 €",10-10-2013,08-10-2013,60 dias,"Portugal, Porto, Vila Nova de Gaia","Artigo 24.º, n.º 1, alínea c) do Código dos Contratos Públicos","","",,,,Não aplicável.,Não aplicável.,
AD para Aquisição de Óxido de Zinco+Retinol+Alfatocoferol+ Colecalciferol Cr Bisn 50g,Ajuste Direto Regime Geral,Aquisição de bens móveis,"33600000-6, Produtos farmacêuticos","Centro Hospitalar Vila Nova de Gaia - Espinho, E.P.E. (508142156)","LABORATÓRIO MEDINFAR, S.A. (500384045)","300,00 €",10-10-2013,08-10-2013,60 dias,"Portugal, Porto, Vila Nova de Gaia","Artigo 24.º, n.º 1, alínea c) do Código dos Contratos Públicos","","",,,,Não aplicável.,Não aplicável.,
AD para Aquisição Perneiras 35x60cm,Ajuste Direto Regime Geral,Aquisição de bens móveis,"33100000-1, Equipamento médico","Centro Hospitalar Vila Nova de Gaia - Espinho, E.P.E. (508142156)","3M PORTUGAL, LDA (500193940)","153,00 €",10-10-2013,10-10-2013,90 dias,"Portugal, Porto, Vila Nova de Gaia","Artigo 24.º, n.º 1, alínea c) do Código dos Contratos Públicos","","",,,,Não aplicável.,Não aplicável.,
Aquisição Prolongador p/ bomba infusora de 150 cm,Ajuste Direto Regime Geral,Aquisição de bens móveis,"33100000-1, Equipamento médico","Centro Hospitalar Vila Nova de Gaia - Espinho, E. P. E. (508142156)",CODAN 11 S.A. PORTUGAL (504923471),"900,00 €",10-10-2013,10-10-2013,90 dias,"Portugal, Porto, Vila Nova de Gaia","Artigo 24.º, n.º 1, alínea c) do Código dos Contratos Públicos","","",,,,Não aplicável.,Não aplicável.,
2811913 - Aquisição de Seringas e Sondas Vesicais,Ajuste Direto Regime Geral,Aquisição de bens móveis,"33140000-3, Material médico de consumo","Centro Hospitalar Vila Nova de Gaia - Espinho, E.P.E. (508142156)","B BRAUN MEDICAL, LDA. (501506543)","4.237,00 €",10-10-2013,10-10-2013,90 dias,"Portugal, Porto, Vila Nova de Gaia","Artigo 24.º, n.º 1, alínea c) do Código dos Contratos Públicos","","",,,,Não aplicável.,Não aplicável.,
Aquisição de Tampas para Tubos,Ajuste Direto Regime Geral,Aquisição de bens móveis,"33100000-1, Equipamento médico","Centro Hospitalar Vila Nova de Gaia - Espinho, E.P.E. (508142156)",SARSTEDT (503019461),"2.036,00 €",10-10-2013,10-10-2013,90 dias,"Portugal, Porto, Vila Nova de Gaia","Artigo 24.º, n.º 1, alínea c) do Código dos Contratos Públicos","","",,,,Não aplicável.,Não aplicável.,
"AD para Aquisição de FENILEFRINA 5 MG/ML GOT NAS, SOL FR 15 ML  ",Ajuste Direto Regime Geral,Aquisição de bens móveis,"33600000-6, Produtos farmacêuticos","Centro Hospitalar Vila Nova de Gaia - Espinho, E.P.E. (508142156)","OMEGA PHARMA PORTUGUESA, LDA (506112233)","199,80 €",09-10-2013,08-10-2013,90 dias,"Portugal, Porto, Vila Nova de Gaia","Artigo 24.º, n.º 1, alínea c) do Código dos Contratos Públicos","","",,,,Não aplicável.,Não aplicável.,
AD para Aquisição de Avental de Plastico,Ajuste Direto Regime Geral,Aquisição de bens móveis,"33140000-3, Material médico de consumo","Centro Hospitalar Vila Nova de Gaia - Espinho, E.P.E. (508142156)","Quilaban - Quimica Laboratorial Analitica, S.A. (500399670)","124,50 €",09-10-2013,09-10-2013,7 dias,"Portugal, Porto, Vila Nova de Gaia","Artigo 24.º, n.º 1, alínea c) do Código dos Contratos Públicos","","",,,,Não aplicável.,Não aplicável.,
AD para Aquisição de Sensores de Fluxo,Ajuste Direto Regime Geral,Aquisição de bens móveis,"33140000-3, Material médico de consumo","Centro Hospitalar Vila Nova de Gaia - Espinho, E.P.E. (508142156)","Drager Portugal, Lda (508771323)","656,09 €",09-10-2013,08-10-2013,30 dias,"Portugal, Porto, Vila Nova de Gaia","Artigo 24.º, n.º 1, alínea c) do Código dos Contratos Públicos","","",,,,Não aplicável.,Não aplicável.,
AD para Aquisição de Eletrodos de Contacto para Cardiotocografo STAN,Ajuste Direto Regime Geral,Aquisição de bens móveis,"33140000-3, Material médico de consumo","Centro Hospitalar Vila Nova de Gaia - Espinho, E.P.E. (508142156)",SPECULUM (502996323),"590,40 €",09-10-2013,07-10-2013,80 dias,"Portugal, Porto, Vila Nova de Gaia","Artigo 24.º, n.º 1, alínea c) do Código dos Contratos Públicos","","",,,,Não aplicável.,Não aplicável.,
AD para Aquisição de Conjunto p/ Cricotomia de Emergência Pediatrico,Ajuste Direto Regime Geral,Aquisição de bens móveis,"33140000-3, Material médico de consumo","Centro Hospitalar Vila Nova de Gaia - Espinho, E.P.E. (508142156)","Rocha Neves, Lda. (500233691)","540,00 €",09-10-2013,08-10-2013,90 dias,"Portugal, Porto, Vila Nova de Gaia","Artigo 24.º, n.º 1, alínea c) do Código dos Contratos Públicos","","",,,,Não aplicável.,Não aplicável.,
AD para Aquisição Diversos Reagentes e Controlos de Qualidade para Lab Patologia Clinica,Ajuste Direto Regime Geral,Aquisição de bens móveis,"33696500-0, Reagentes de laboratório","Centro Hospitalar Vila Nova de Gaia - Espinho, E.P.E. (508142156)",BIOPORTUGAL (502380543),"1.845,79 €",09-10-2013,09-10-2013,90 dias,"Portugal, Porto, Vila Nova de Gaia","Artigo 24.º, n.º 1, alínea c) do Código dos Contratos Públicos","","",,,,Não aplicável.,Não aplicável.,
Cabos p/ ECG 3 derivações,Ajuste Direto Regime Geral,Aquisição de bens móveis,"33100000-1, Equipamento médico","Centro Hospitalar Vila Nova de Gaia - Espinho, E.P.E. (508142156)","Drager Portugal, Lda (508771323)","153,77 €",09-10-2013,09-10-2013,1 dias,"Portugal, Porto, Vila Nova de Gaia","Artigo 24.º, n.º 1, alínea c) do Código dos Contratos Públicos","","",,,,Não aplicável.,Não aplicável.,
AD para Aquisição de Seda 1 Ag Lanc 60mm 3/8 circulo,Ajuste Direto Regime Geral,Aquisição de bens móveis,"33140000-3, Material médico de consumo","Centro Hospitalar Vila Nova de Gaia - Espinho, E.P.E. (508142156)","H.R. PRODUTOS QUIMICOS, LDA (501895558)","1.289,28 €",09-10-2013,09-10-2013,90 dias,"Portugal, Porto, Vila Nova de Gaia","Artigo 24.º, n.º 1, alínea c) do Código dos Contratos Públicos","","",,,,Não aplicável.,Não aplicável.,
AD para Aquisição de Fato de Bloco Irrecuperavel Tamanho L,Ajuste Direto Regime Geral,Aquisição de bens móveis,"33140000-3, Material médico de consumo","Centro Hospitalar Vila Nova de Gaia - Espinho, E.P.E. (508142156)","Oasipor, S.A (502260750)","1.116,00 €",09-10-2013,09-10-2013,90 dias,"Portugal, Porto, Vila Nova de Gaia","Artigo 24.º, n.º 1, alínea c) do Código dos Contratos Públicos","","",,,,Não aplicável.,Não aplicável.,
Reagentes p/ equipamento Vitek 2XL,Ajuste Direto Regime Geral,Aquisição de bens móveis,"33696000-5, Reagentes e meios de contraste","Centro Hospitalar Vila Nova de Gaia - Espinho, E.P.E. (508142156)",BIOMERIEUX PORTUGUESA (501524177),"9.974,80 €",09-10-2013,09-10-2013,90 dias,"Portugal, Porto, Vila Nova de Gaia","Artigo 24.º, n.º 1, alínea c) do Código dos Contratos Públicos","","",,,,Não aplicável.,Não aplicável.,
AD para Aquisição de Tubos Endobronquicos,Ajuste Direto Regime Geral,Aquisição de bens móveis,"33140000-3, Material médico de consumo","Centro Hospitalar Vila Nova de Gaia - Espinho, E.P.E. (508142156)","COVIDIEN PORTUGAL-Produtos de Saúde,Unipessoal,Lda (503413410)","165,00 €",09-10-2013,09-10-2013,60 dias,"Portugal, Porto, Vila Nova de Gaia","Artigo 24.º, n.º 1, alínea c) do Código dos Contratos Públicos","","",,,,Não aplicável.,Não aplicável.,
Cefoxitina E-TEST,Ajuste Direto Regime Geral,Aquisição de bens móveis,"33696000-5, Reagentes e meios de contraste","Centro Hospitalar Vila Nova de Gaia - Espinho, E.P.E. (508142156)",BIOMERIEUX PORTUGUESA (501524177),"520,00 €",09-10-2013,09-10-2013,90 dias,"Portugal, Porto, Vila Nova de Gaia","Artigo 24.º, n.º 1, alínea c) do Código dos Contratos Públicos","","",,,,Não aplicável.,Não aplicável.,
BANDA DE MALHA SINT. REVES. C/ SILIC. P/ TRATA. INCONTINENCIA MASC.,Ajuste Direto Regime Geral,Aquisição de bens móveis,"33140000-3, Material médico de consumo","Centro Hospitalar Vila Nova de Gaia - Espinho, E.P.E. (508142156)","Coloplast Portugal - Sociedade Unipessoal, Lda (503989037)","1.700,00 €",09-10-2013,09-10-2013,1 dias,"Portugal, Porto, Vila Nova de Gaia","Artigo 24.º, n.º 1, alínea c) do Código dos Contratos Públicos","","",,,,Não aplicável.,Não aplicável.,
Varfarina 5 mg Comp,Ajuste Direto Regime Geral,Aquisição de bens móveis,"33600000-6, Produtos farmacêuticos","Centro Hospitalar Vila Nova de Gaia - Espinho, E.P.E. (508142156)",TEOFARMA SRL (980244463),"207,00 €",09-10-2013,09-10-2013,60 dias,"Portugal, Porto, Vila Nova de Gaia","Artigo 24.º, n.º 1, alínea c) do Código dos Contratos Públicos","","",,,,Não aplicável.,Não aplicável.,
Aquisição de Sistemas de Alimentação Entérica,Concurso público,Aquisição de bens móveis,"33140000-3, Material médico de consumo","Centro Hospitalar Vila Nova de Gaia - Espinho, E.P.E. (508142156)","Fresenius Kabi Pharma Portugal, Lda. (504293753)","18.315,70 €",09-10-2013,30-05-2013,210 dias,"Portugal, Porto, Vila Nova de Gaia","Artigo 20.º, n.º 1, alínea b) do Código dos Contratos Públicos","","",,,,Não aplicável.,Não aplicável.,
"Gaze c/ Iodo 9,5 x 9,5 cm Aposito ",Ajuste Direto Regime Geral,Aquisição de bens móveis,"33600000-6, Produtos farmacêuticos","Centro Hospitalar Vila Nova de Gaia - Espinho, E.P.E. (508142156)","MEDA PHARMA - PRODUTOS FARMACÊUTICOS, S.A. (500082090)","900,00 €",09-10-2013,08-10-2013,60 dias,"Portugal, Porto, Vila Nova de Gaia","Artigo 24.º, n.º 1, alínea c) do Código dos Contratos Públicos","","",,,,Não aplicável.,Não aplicável.,
Enoxaparina sódica 20 mg/0.2 ml Sol inj Ser 0.2 ml SC,Ajuste Direto Regime Geral,Aquisição de bens móveis,"33600000-6, Produtos farmacêuticos","Centro Hospitalar Vila Nova de Gaia - Espinho, E.P.E. (508142156)","Sanofi-Aventis - Prod. Farmacêuticos, Lda (500134960)","3.348,00 €",09-10-2013,09-10-2013,90 dias,"Portugal, Porto, Vila Nova de Gaia","Artigo 24.º, n.º 1, alínea c) do Código dos Contratos Públicos","","",,,,Não aplicável.,Não aplicável.,
Miconazol 20 mg/g Cr Bisn 15 g,Ajuste Direto Regime Geral,Aquisição de bens móveis,"33600000-6, Produtos farmacêuticos","Centro Hospitalar Vila Nova de Gaia - Espinho, E.P.E. (508142156)",JOHNSON & JOHNSON MEDICAL (500153370),"299,40 €",09-10-2013,09-10-2013,90 dias,"Portugal, Porto, Vila Nova de Gaia","Artigo 24.º, n.º 1, alínea c) do Código dos Contratos Públicos","","",,,,Não aplicável.,Não aplicável.,
AD para Aquisição de Acetato de Cálcio 660 mg comp,Ajuste Direto Regime Geral,Aquisição de bens móveis,"33600000-6, Produtos farmacêuticos","Centro Hospitalar Vila Nova de Gaia - Espinho, E.P.E. (508142156)",OM PORTUGUESA (500207410),"632,25 €",09-10-2013,07-10-2013,90 dias,"Portugal, Porto, Vila Nova de Gaia","Artigo 24.º, n.º 1, alínea e) do Código dos Contratos Públicos","","",,,,Não aplicável.,Não aplicável.,
AD para Aquisição de COMPLEXO B + BIOTINA COMP,Ajuste Direto Regime Geral,Aquisição de bens móveis,"33600000-6, Produtos farmacêuticos","Centro Hospitalar Vila Nova de Gaia - Espinho, E.P.E. (508142156)","MEDA PHARMA - PRODUTOS FARMACÊUTICOS, S.A (500082090)","441,00 €",09-10-2013,07-10-2013,90 dias,"Portugal, Porto, Vila Nova de Gaia","Artigo 24.º, n.º 1, alínea c) do Código dos Contratos Públicos","","",,,,Não aplicável.,Não aplicável.,
Aquisição de Dispositivos de Colheita para Gasometrias,Ajuste Direto Regime Geral,Aquisição de bens móveis,"33140000-3, Material médico de consumo","Centro Hospitalar Vila Nova de Gaia - Espinho, E.P.E. (508142156)",Radiometer Iberica SL (980201667),"4.095,00 €",09-10-2013,30-09-2013,90 dias,"Portugal, Porto, Vila Nova de Gaia","Artigo 20.º, n.º 1, alínea a) do Código dos Contratos Públicos","","",,,,Não aplicável.,Não aplicável.,
AD para Aquisição de PEGINTERFERÃO ALFA-2B 0.08 MG PÓ SOL INJ CANETA SC,Ajuste Direto Regime Geral,Aquisição de bens móveis,"33600000-6, Produtos farmacêuticos","Centro Hospitalar Vila Nova de Gaia - Espinho, E.P.E. (508142156)",MERCK SHARP & DHOME LDA. (500191360),"999,30 €",09-10-2013,07-10-2013,60 dias,"Portugal, Porto, Vila Nova de Gaia","Artigo 24.º, n.º 1, alínea c) do Código dos Contratos Públicos","","",,,,Não aplicável.,Não aplicável.,
AD para Aquisição de LEUPRORRELINA 11.25 MG PÓ SUSP INJ SER IM SC,Ajuste Direto Regime Geral,Aquisição de bens móveis,"33600000-6, Produtos farmacêuticos","Centro Hospitalar Vila Nova de Gaia - Espinho, E.P.E. (508142156)","ABBVIE, LDA (510229050)","1.338,55 €",09-10-2013,07-10-2013,60 dias,"Portugal, Porto, Vila Nova de Gaia","Artigo 24.º, n.º 1, alínea c) do Código dos Contratos Públicos","","",,,,Não aplicável.,Não aplicável.,
AD para Aquisição de Lisinopril 5 mg comp,Ajuste Direto Regime Geral,Aquisição de bens móveis,"33600000-6, Produtos farmacêuticos","Centro Hospitalar Vila Nova de Gaia - Espinho, E.P.E. (508142156)","Generis - Farmacêutica, SA (508107997)","38,08 €",09-10-2013,07-10-2013,60 dias,"Portugal, Porto, Vila Nova de Gaia","Artigo 24.º, n.º 1, alínea c) do Código dos Contratos Públicos","","",,,,Não aplicável.,Não aplicável.,
AD para Aquisição de Sulfato de Protamina 14000 U.I./ ml sol inj fr 5 ml IV,Ajuste Direto Regime Geral,Aquisição de bens móveis,"33600000-6, Produtos farmacêuticos","Centro Hospitalar Vila Nova de Gaia - Espinho, E.P.E. (508142156)","R2MC - RANGEL Produtos Farmacêuticos, SA (510599818)","3.780,00 €",09-10-2013,07-10-2013,60 dias,"Portugal, Porto, Vila Nova de Gaia","Artigo 24.º, n.º 1, alínea c) do Código dos Contratos Públicos","","",,,,Não aplicável.,Não aplicável.,
AD para Aquisição de Oxido Férrico Sacarosado 100MG/5ML Sol. Inj. Fr.5ML IV,Ajuste Direto Regime Geral,Aquisição de bens móveis,"33000000-0, Equipamento médico, medicamentos e produtos para cuidados pessoais","Centro Hospitalar Vila Nova de Gaia - Espinho, E.P.E. (508142156)","Generis - Farmacêutica, SA (508107997)","2.320,00 €",09-10-2013,07-10-2013,60 dias,"Portugal, Porto, Vila Nova de Gaia","Artigo 24.º, n.º 1, alínea c) do Código dos Contratos Públicos","","",,,,Não aplicável.,Não aplicável.,
Aquisição Cuvetes p/ tempo coagulação activada,Ajuste Direto Regime Geral,Aquisição de bens móveis,"33696000-5, Reagentes e meios de contraste","Centro Hospitalar Vila Nova de Gaia - Espinho, E.P.E. (508142156)",MEDTRONIC (504223933),"4.425,00 €",09-10-2013,09-10-2013,90 dias,"Portugal, Porto, Vila Nova de Gaia","Artigo 24.º, n.º 1, alínea c) do Código dos Contratos Públicos","","",,,,Não aplicável.,Não aplicável.,
9809313 - AD para Aquisição Anaerobios Indicador,Ajuste Direto Regime Geral,Aquisição de bens móveis,"33696000-5, Reagentes e meios de contraste","Centro Hospitalar Vila Nova de Gaia - Espinho, E.P.E. (508142156)","VWR Internacional -Material de Laboratório,Lda. (503842770)","108,00 €",08-10-2013,08-10-2013,90 dias,"Portugal, Porto, Vila Nova de Gaia","Artigo 24.º, n.º 1, alínea c) do Código dos Contratos Públicos","","",,,,Não aplicável.,Não aplicável.,
9809213 - AD para Aquisição Metanol PA,Ajuste Direto Regime Geral,Aquisição de bens móveis,"33696500-0, Reagentes de laboratório","Centro Hospitalar Vila Nova de Gaia - Espinho, E.P.E. (508142156)","VWR Internacional -Material de Laboratório,Lda. (503842770)","552,00 €",08-10-2013,08-10-2013,90 dias,"Portugal, Porto, Vila Nova de Gaia","Artigo 24.º, n.º 1, alínea c) do Código dos Contratos Públicos","","",,,,Não aplicável.,Não aplicável.,
AD PARA AQUISIÇÃO DE DIVERSO INSTRUMENTAL CIRURGICO,Ajuste Direto Regime Geral,Aquisição de bens móveis,"33100000-1, Equipamento médico","Centro Hospitalar Vila Nova de Gaia - Espinho, E.P.E. (508142156)","B BRAUN MEDICAL, LDA. (501506543)","6.078,76 €",07-10-2013,03-10-2013,90 dias,"Portugal, Porto, Vila Nova de Gaia","Artigo 24.º, n.º 1, alínea c) do Código dos Contratos Públicos","","",,,,Não aplicável.,Não aplicável.,
AD PARA AQUISIÇÃO DE DIVERSO INSTRUMENTAL CIRURGICO,Ajuste Direto Regime Geral,Aquisição de bens móveis,"33100000-1, Equipamento médico","Centro Hospitalar Vila Nova de Gaia - Espinho, E.P.E. (508142156)",BACELAR & IRMÃO (500532818),"82,30 €",07-10-2013,03-10-2013,90 dias,"Portugal, Porto, Vila Nova de Gaia","Artigo 24.º, n.º 1, alínea c) do Código dos Contratos Públicos","","",,,,Não aplicável.,Não aplicável.,
"Medicamentos do Foro Oncológico, ao Abrigo do AQ 2011/06, dos SPMS",Ao abrigo de acordo-quadro (art.º 259.º),Aquisição de bens móveis,"33600000-6, Produtos farmacêuticos","Centro Hospitalar Vila Nova de Gaia - Espinho, E.P.E. (508142156)",TEVA Pharma - Produtos Farmacêuticos (507045491),"8.367,40 €",02-10-2013,09-09-2013,120 dias,"Portugal, Porto, Vila Nova de Gaia",Artigo 259.º do Código dos Contratos Públicos,"","",,,,345900,CONCURSO PÚBLICO PARA A CELEBRAÇÃO DE CONTRATOS PÚBLICOS DE APROVISIONAMENTO PARA AQUISIÇÃO MEDICAMENTOS DO FORO ONCOLÓGICO,
"Medicamentos do Foro Oncológico, ao Abrigo do AQ 2011/06, dos SPMS",Ao abrigo de acordo-quadro (art.º 259.º),Aquisição de bens móveis,"33600000-6, Produtos farmacêuticos","Centro Hospitalar Vila Nova de Gaia - Espinho, E.P.E. (508142156)",SANDOZ FARMACÊUTICA (506985261),"22.296,00 €",02-10-2013,09-09-2013,120 dias,"Portugal, Porto, Vila Nova de Gaia",Artigo 259.º do Código dos Contratos Públicos,"","",,,,345900,CONCURSO PÚBLICO PARA A CELEBRAÇÃO DE CONTRATOS PÚBLICOS DE APROVISIONAMENTO PARA AQUISIÇÃO MEDICAMENTOS DO FORO ONCOLÓGICO,
"Medicamentos do Foro Oncológico, ao Abrigo do AQ 2011/06, dos SPMS",Ao abrigo de acordo-quadro (art.º 259.º),Aquisição de bens móveis,"33600000-6, Produtos farmacêuticos","Centro Hospitalar Vila Nova de Gaia - Espinho, E.P.E. (508142156)","RES MEDICAL, LDA (502440163)","4.582,16 €",02-10-2013,09-09-2013,120 dias,"Portugal, Porto, Vila Nova de Gaia",Artigo 259.º do Código dos Contratos Públicos,"","",,,,345900,CONCURSO PÚBLICO PARA A CELEBRAÇÃO DE CONTRATOS PÚBLICOS DE APROVISIONAMENTO PARA AQUISIÇÃO MEDICAMENTOS DO FORO ONCOLÓGICO,
"Medicamentos do Foro Oncológico, ao Abrigo do AQ 2011/06, dos SPMS",Ao abrigo de acordo-quadro (art.º 259.º),Aquisição de bens móveis,"33600000-6, Produtos farmacêuticos","Centro Hospitalar Vila Nova de Gaia - Espinho, E.P.E. (508142156)","Overpharma, Lda. (505792362)","1.324,40 €",02-10-2013,09-09-2013,120 dias,"Portugal, Porto, Vila Nova de Gaia",Artigo 259.º do Código dos Contratos Públicos,"","",,,,345900,CONCURSO PÚBLICO PARA A CELEBRAÇÃO DE CONTRATOS PÚBLICOS DE APROVISIONAMENTO PARA AQUISIÇÃO MEDICAMENTOS DO FORO ONCOLÓGICO,
"Medicamentos do Foro Oncológico, ao Abrigo do AQ 2011/06, dos SPMS",Ao abrigo de acordo-quadro (art.º 259.º),Aquisição de bens móveis,"33600000-6, Produtos farmacêuticos","Centro Hospitalar Vila Nova de Gaia - Espinho, E.P.E. (508142156)",Medac - Sucursal Portugal (980369959),"2.280,00 €",02-10-2013,09-09-2013,120 dias,"Portugal, Porto, Vila Nova de Gaia",Artigo 259.º do Código dos Contratos Públicos,"","",,,,345900,CONCURSO PÚBLICO PARA A CELEBRAÇÃO DE CONTRATOS PÚBLICOS DE APROVISIONAMENTO PARA AQUISIÇÃO MEDICAMENTOS DO FORO ONCOLÓGICO,
"Medicamentos do Foro Oncológico, ao Abrigo do AQ 2011/06, dos SPMS",Ao abrigo de acordo-quadro (art.º 259.º),Aquisição de bens móveis,"33600000-6, Produtos farmacêuticos","Centro Hospitalar Vila Nova de Gaia - Espinho, E.P.E. (508142156)","Generis - Farmacêutica, SA (508107997)","1.260,00 €",02-10-2013,09-09-2013,120 dias,"Portugal, Porto, Vila Nova de Gaia",Artigo 259.º do Código dos Contratos Públicos,"","",,,,345900,CONCURSO PÚBLICO PARA A CELEBRAÇÃO DE CONTRATOS PÚBLICOS DE APROVISIONAMENTO PARA AQUISIÇÃO MEDICAMENTOS DO FORO ONCOLÓGICO,
"Medicamentos do Foro Oncológico, ao Abrigo do AQ 2011/06, dos SPMS",Ao abrigo de acordo-quadro (art.º 259.º),Aquisição de bens móveis,"33600000-6, Produtos farmacêuticos","Centro Hospitalar Vila Nova de Gaia - Espinho, E.P.E. (508142156)","Farmoz, LDA (501505334)","13.692,00 €",02-10-2013,09-09-2013,120 dias,"Portugal, Porto, Vila Nova de Gaia",Artigo 259.º do Código dos Contratos Públicos,"","",,,,345900,CONCURSO PÚBLICO PARA A CELEBRAÇÃO DE CONTRATOS PÚBLICOS DE APROVISIONAMENTO PARA AQUISIÇÃO MEDICAMENTOS DO FORO ONCOLÓGICO,
"Medicamentos do Foro Oncológico, ao Abrigo do AQ 2011/06, dos SPMS",Ao abrigo de acordo-quadro (art.º 259.º),Aquisição de bens móveis,"33600000-6, Produtos farmacêuticos","Centro Hospitalar Vila Nova de Gaia - Espinho, E.P.E. (508142156)","DNA PHARMA, LDA (508917654)","3.269,39 €",02-10-2013,09-09-2013,120 dias,"Portugal, Porto, Vila Nova de Gaia",Artigo 259.º do Código dos Contratos Públicos,"","",,,,345900,CONCURSO PÚBLICO PARA A CELEBRAÇÃO DE CONTRATOS PÚBLICOS DE APROVISIONAMENTO PARA AQUISIÇÃO MEDICAMENTOS DO FORO ONCOLÓGICO,
"Medicamentos do Foro Oncológico, ao Abrigo do AQ 2011/06, dos SPMS",Ao abrigo de acordo-quadro (art.º 259.º),Aquisição de bens móveis,"33600000-6, Produtos farmacêuticos","Centro Hospitalar Vila Nova de Gaia - Espinho, E.P.E. (508142156)",Actavis As Sucursal (980334934),"9.825,35 €",02-10-2013,09-09-2013,120 dias,"Portugal, Porto, Vila Nova de Gaia",Artigo 259.º do Código dos Contratos Públicos,"","",,,,345900,CONCURSO PÚBLICO PARA A CELEBRAÇÃO DE CONTRATOS PÚBLICOS DE APROVISIONAMENTO PARA AQUISIÇÃO MEDICAMENTOS DO FORO ONCOLÓGICO,
"Hormonas, ao Abrigo do AQ 2011/07 - parte III",Ao abrigo de acordo-quadro (art.º 259.º),Aquisição de bens móveis,"33600000-6, Produtos farmacêuticos","Centro Hospitalar Vila Nova de Gaia - Espinho, E.P.E. (508142156)","D.L.A. FARMACÊUTICA, S.A. (503894427)","4.690,00 €",02-10-2013,31-07-2013,180 dias,"Portugal, Porto, Vila Nova de Gaia",Artigo 259.º do Código dos Contratos Públicos,"","",,,,603979,"CONCURSO PÚBLICO PARA A CELEBRAÇÃO DE CONTRATOS PÚBLICOS DE APROVISIONAMENTO PARA A ÁREA DA SAÚDE, COM VISTA AO FORNECIMENTO DE HORMONAS E OUTROS MEDICAMENTOS USADOS NO TRATAMENTO DAS DOENÇAS ENDÓCRINAS, ÀS INSTITUIÇÕES E SERVIÇOS DO SERVIÇO NACIONAL DE SAÚDE",
"Hormonas, ao Abrigo do AQ 2011/07 - parte III",Ao abrigo de acordo-quadro (art.º 259.º),Aquisição de bens móveis,"33600000-6, Produtos farmacêuticos","Centro Hospitalar Vila Nova de Gaia - Espinho, E.P.E. (508142156)","LABESFAL - LABORATÓRIOS ALMIRO, SA (501169580)","1.118,60 €",02-10-2013,31-07-2013,180 dias,"Portugal, Porto, Vila Nova de Gaia",Artigo 259.º do Código dos Contratos Públicos,"","",,,,603979,"CONCURSO PÚBLICO PARA A CELEBRAÇÃO DE CONTRATOS PÚBLICOS DE APROVISIONAMENTO PARA A ÁREA DA SAÚDE, COM VISTA AO FORNECIMENTO DE HORMONAS E OUTROS MEDICAMENTOS USADOS NO TRATAMENTO DAS DOENÇAS ENDÓCRINAS, ÀS INSTITUIÇÕES E SERVIÇOS DO SERVIÇO NACIONAL DE SAÚDE",
"Hormonas, ao Abrigo do AQ 2011/07 - parte III",Ao abrigo de acordo-quadro (art.º 259.º),Aquisição de bens móveis,"33600000-6, Produtos farmacêuticos","Centro Hospitalar Vila Nova de Gaia - Espinho, E.P.E. (508142156)","Generis - Farmacêutica, SA (508107997)","2.279,00 €",02-10-2013,12-07-2013,180 dias,"Portugal, Porto, Vila Nova de Gaia",Artigo 259.º do Código dos Contratos Públicos,"","",,,,603979,"CONCURSO PÚBLICO PARA A CELEBRAÇÃO DE CONTRATOS PÚBLICOS DE APROVISIONAMENTO PARA A ÁREA DA SAÚDE, COM VISTA AO FORNECIMENTO DE HORMONAS E OUTROS MEDICAMENTOS USADOS NO TRATAMENTO DAS DOENÇAS ENDÓCRINAS, ÀS INSTITUIÇÕES E SERVIÇOS DO SERVIÇO NACIONAL DE SAÚDE",
"Hormonas, ao Abrigo do AQ 2011/07 - parte III",Ao abrigo de acordo-quadro (art.º 259.º),Aquisição de bens móveis,"33600000-6, Produtos farmacêuticos","Centro Hospitalar Vila Nova de Gaia - Espinho, E.P.E. (508142156)","Novartis Farma - Produtos Farmacêuticos, SA (500063524)","1.550,45 €",02-10-2013,12-07-2013,180 dias,"Portugal, Porto, Vila Nova de Gaia",Artigo 259.º do Código dos Contratos Públicos,"","",,,,603979,"CONCURSO PÚBLICO PARA A CELEBRAÇÃO DE CONTRATOS PÚBLICOS DE APROVISIONAMENTO PARA A ÁREA DA SAÚDE, COM VISTA AO FORNECIMENTO DE HORMONAS E OUTROS MEDICAMENTOS USADOS NO TRATAMENTO DAS DOENÇAS ENDÓCRINAS, ÀS INSTITUIÇÕES E SERVIÇOS DO SERVIÇO NACIONAL DE SAÚDE",
"Medicamentos do Aparelho Digestivo, ao Abrigo do AQ 2012/14 - Parte II",Ao abrigo de acordo-quadro (art.º 259.º),Aquisição de bens móveis,"33600000-6, Produtos farmacêuticos","Centro Hospitalar Vila Nova de Gaia - Espinho, E.P.E. (508142156)","Sanofi-Aventis - Prod. Farmacêuticos, Lda (500134960)","2.250,83 €",02-10-2013,31-07-2013,150 dias,"Portugal, Porto, Vila Nova de Gaia",Artigo 259.º do Código dos Contratos Públicos,"","",,,,520788,CONCURSO PUBLICO PARA A CELEBRAÇÃO DE CONTRATOS PUBLICOS DE APROVISIONAMENTO PARA A AREA DA SAUDE  COM VISTA AO FORNECIMENTO DE MEDICAMENTOS PARA O APARELHO DIGESTIVO  AS INSITUIÇÕES DO SERVIÇO NACIONAL DE SAÚDE,
"Medicamentos do Aparelho Digestivo, ao Abrigo do AQ 2012/14 - Parte II",Ao abrigo de acordo-quadro (art.º 259.º),Aquisição de bens móveis,"33600000-6, Produtos farmacêuticos","Centro Hospitalar Vila Nova de Gaia - Espinho, E.P.E. (508142156)","LABORATÓRIOS NORMON, S.A. (505654156)","15.450,00 €",02-10-2013,31-07-2013,150 dias,"Portugal, Porto, Vila Nova de Gaia",Artigo 259.º do Código dos Contratos Públicos,"","",,,,520788,CONCURSO PUBLICO PARA A CELEBRAÇÃO DE CONTRATOS PUBLICOS DE APROVISIONAMENTO PARA A AREA DA SAUDE  COM VISTA AO FORNECIMENTO DE MEDICAMENTOS PARA O APARELHO DIGESTIVO  AS INSITUIÇÕES DO SERVIÇO NACIONAL DE SAÚDE,
"Medicamentos do Aparelho Digestivo, ao Abrigo do AQ 2012/14 - Parte II",Ao abrigo de acordo-quadro (art.º 259.º),Aquisição de bens móveis,"33600000-6, Produtos farmacêuticos","Centro Hospitalar Vila Nova de Gaia - Espinho, E.P.E. (508142156)","LABESFAL - LABORATÓRIOS ALMIRO, SA (501169580)","4.946,70 €",02-10-2013,31-07-2013,150 dias,"Portugal, Porto, Vila Nova de Gaia",Artigo 259.º do Código dos Contratos Públicos,"","",,,,520788,CONCURSO PUBLICO PARA A CELEBRAÇÃO DE CONTRATOS PUBLICOS DE APROVISIONAMENTO PARA A AREA DA SAUDE  COM VISTA AO FORNECIMENTO DE MEDICAMENTOS PARA O APARELHO DIGESTIVO  AS INSITUIÇÕES DO SERVIÇO NACIONAL DE SAÚDE,
"Medicamentos do Aparelho Digestivo, ao Abrigo do AQ 2012/14 - Parte II",Ao abrigo de acordo-quadro (art.º 259.º),Aquisição de bens móveis,"33600000-6, Produtos farmacêuticos","Centro Hospitalar Vila Nova de Gaia - Espinho, E.P.E. (508142156)","GLAXOSMITHKLINE Produtos Farmacêuticos, Lda (500139962)","1.047,60 €",02-10-2013,31-07-2013,150 dias,"Portugal, Porto, Vila Nova de Gaia",Artigo 259.º do Código dos Contratos Públicos,"","",,,,520788,CONCURSO PUBLICO PARA A CELEBRAÇÃO DE CONTRATOS PUBLICOS DE APROVISIONAMENTO PARA A AREA DA SAUDE  COM VISTA AO FORNECIMENTO DE MEDICAMENTOS PARA O APARELHO DIGESTIVO  AS INSITUIÇÕES DO SERVIÇO NACIONAL DE SAÚDE,
"Medicamentos do Aparelho  Digestivo, ao Abrigo do AQ 2012/14 - Parte I",Ao abrigo de acordo-quadro (art.º 259.º),Aquisição de bens móveis,"33600000-6, Produtos farmacêuticos","Centro Hospitalar Vila Nova de Gaia - Espinho, E.P.E. (508142156)","RATIOPHARM, LDA (502414910)","153,00 €",02-10-2013,31-07-2013,150 dias,"Portugal, Porto, Vila Nova de Gaia",Artigo 259.º do Código dos Contratos Públicos,"","",,,,520788,CONCURSO PUBLICO PARA A CELEBRAÇÃO DE CONTRATOS PUBLICOS DE APROVISIONAMENTO PARA A AREA DA SAUDE  COM VISTA AO FORNECIMENTO DE MEDICAMENTOS PARA O APARELHO DIGESTIVO  AS INSITUIÇÕES DO SERVIÇO NACIONAL DE SAÚDE,
"Medicamentos do Aparelho  Digestivo, ao Abrigo do AQ 2012/14 - Parte I",Ao abrigo de acordo-quadro (art.º 259.º),Aquisição de bens móveis,"33600000-6, Produtos farmacêuticos","Centro Hospitalar Vila Nova de Gaia - Espinho, E.P.E. (508142156)","LABORATORIOS VITÓRIA, S.A (500162220)","6,00 €",02-10-2013,31-07-2013,150 dias,"Portugal, Porto, Vila Nova de Gaia",Artigo 259.º do Código dos Contratos Públicos,"","",,,,520788,CONCURSO PUBLICO PARA A CELEBRAÇÃO DE CONTRATOS PUBLICOS DE APROVISIONAMENTO PARA A AREA DA SAUDE  COM VISTA AO FORNECIMENTO DE MEDICAMENTOS PARA O APARELHO DIGESTIVO  AS INSITUIÇÕES DO SERVIÇO NACIONAL DE SAÚDE,
"Medicamentos do Aparelho  Digestivo, ao Abrigo do AQ 2012/14 - Parte I",Ao abrigo de acordo-quadro (art.º 259.º),Aquisição de bens móveis,"33600000-6, Produtos farmacêuticos","Centro Hospitalar Vila Nova de Gaia - Espinho, E.P.E. (508142156)","LABESFAL - LABORATÓRIOS ALMIRO, SA (501169580)","283,80 €",02-10-2013,31-07-2013,150 dias,"Portugal, Porto, Vila Nova de Gaia",Artigo 259.º do Código dos Contratos Públicos,"","",,,,520788,CONCURSO PUBLICO PARA A CELEBRAÇÃO DE CONTRATOS PUBLICOS DE APROVISIONAMENTO PARA A AREA DA SAUDE  COM VISTA AO FORNECIMENTO DE MEDICAMENTOS PARA O APARELHO DIGESTIVO  AS INSITUIÇÕES DO SERVIÇO NACIONAL DE SAÚDE,
"Hormonas, ao Abrigo do AQ 2011/07 - Parte II",Ao abrigo de acordo-quadro (art.º 259.º),Aquisição de bens móveis,"33600000-6, Produtos farmacêuticos","Centro Hospitalar Vila Nova de Gaia - Espinho, E.P.E. (508142156)",SANDOZ FARMACÊUTICA (506985261),"3.870,00 €",02-10-2013,22-08-2013,160 dias,"Portugal, Porto, Vila Nova de Gaia",Artigo 259.º do Código dos Contratos Públicos,"","",,,,603979,"CONCURSO PÚBLICO PARA A CELEBRAÇÃO DE CONTRATOS PÚBLICOS DE APROVISIONAMENTO PARA A ÁREA DA SAÚDE, COM VISTA AO FORNECIMENTO DE HORMONAS E OUTROS MEDICAMENTOS USADOS NO TRATAMENTO DAS DOENÇAS ENDÓCRINAS, ÀS INSTITUIÇÕES E SERVIÇOS DO SERVIÇO NACIONAL DE SAÚDE",
"Hormonas, ao Abrigo do AQ 2011/07 - Parte II",Ao abrigo de acordo-quadro (art.º 259.º),Aquisição de bens móveis,"33600000-6, Produtos farmacêuticos","Centro Hospitalar Vila Nova de Gaia - Espinho, E.P.E. (508142156)",HOSPIRA (502918098),"4.026,60 €",02-10-2013,22-08-2013,160 dias,"Portugal, Porto, Vila Nova de Gaia",Artigo 259.º do Código dos Contratos Públicos,"","",,,,603979,"CONCURSO PÚBLICO PARA A CELEBRAÇÃO DE CONTRATOS PÚBLICOS DE APROVISIONAMENTO PARA A ÁREA DA SAÚDE, COM VISTA AO FORNECIMENTO DE HORMONAS E OUTROS MEDICAMENTOS USADOS NO TRATAMENTO DAS DOENÇAS ENDÓCRINAS, ÀS INSTITUIÇÕES E SERVIÇOS DO SERVIÇO NACIONAL DE SAÚDE",
"Hormonas, ao Abrigo do AQ 2011/07 - Parte II",Ao abrigo de acordo-quadro (art.º 259.º),Aquisição de bens móveis,"33600000-6, Produtos farmacêuticos","Centro Hospitalar Vila Nova de Gaia - Espinho, E.P.E. (508142156)","Generis - Farmacêutica, SA (508107997)","31.741,00 €",02-10-2013,22-08-2013,160 dias,"Portugal, Porto, Vila Nova de Gaia",Artigo 259.º do Código dos Contratos Públicos,"","",,,,603979,"CONCURSO PÚBLICO PARA A CELEBRAÇÃO DE CONTRATOS PÚBLICOS DE APROVISIONAMENTO PARA A ÁREA DA SAÚDE, COM VISTA AO FORNECIMENTO DE HORMONAS E OUTROS MEDICAMENTOS USADOS NO TRATAMENTO DAS DOENÇAS ENDÓCRINAS, ÀS INSTITUIÇÕES E SERVIÇOS DO SERVIÇO NACIONAL DE SAÚDE",
"Hormonas, ao Abrigo do AQ 2011/07 - parte I",Ao abrigo de acordo-quadro (art.º 259.º),Aquisição de bens móveis,"33600000-6, Produtos farmacêuticos","Centro Hospitalar Vila Nova de Gaia - Espinho, E.P.E. (508142156)","Sanofi-Aventis - Prod. Farmacêuticos, Lda (500134960)","139,68 €",02-10-2013,31-07-2013,150 dias,"Portugal, Porto, Vila Nova de Gaia",Artigo 259.º do Código dos Contratos Públicos,"","",,,,603979,"CONCURSO PÚBLICO PARA A CELEBRAÇÃO DE CONTRATOS PÚBLICOS DE APROVISIONAMENTO PARA A ÁREA DA SAÚDE, COM VISTA AO FORNECIMENTO DE HORMONAS E OUTROS MEDICAMENTOS USADOS NO TRATAMENTO DAS DOENÇAS ENDÓCRINAS, ÀS INSTITUIÇÕES E SERVIÇOS DO SERVIÇO NACIONAL DE SAÚDE",
"Hormonas, ao Abrigo do AQ 2011/07 - parte I",Ao abrigo de acordo-quadro (art.º 259.º),Aquisição de bens móveis,"33600000-6, Produtos farmacêuticos","Centro Hospitalar Vila Nova de Gaia - Espinho, E.P.E. (508142156)","LABESFAL - LABORATÓRIOS ALMIRO, SA (501169580)","658,90 €",02-10-2013,31-07-2013,150 dias,"Portugal, Porto, Vila Nova de Gaia",Artigo 259.º do Código dos Contratos Públicos,"","",,,,603979,"CONCURSO PÚBLICO PARA A CELEBRAÇÃO DE CONTRATOS PÚBLICOS DE APROVISIONAMENTO PARA A ÁREA DA SAÚDE, COM VISTA AO FORNECIMENTO DE HORMONAS E OUTROS MEDICAMENTOS USADOS NO TRATAMENTO DAS DOENÇAS ENDÓCRINAS, ÀS INSTITUIÇÕES E SERVIÇOS DO SERVIÇO NACIONAL DE SAÚDE",
"Hormonas, ao Abrigo do AQ 2011/07 - parte I",Ao abrigo de acordo-quadro (art.º 259.º),Aquisição de bens móveis,"33600000-6, Produtos farmacêuticos","Centro Hospitalar Vila Nova de Gaia - Espinho, E.P.E. (508142156)",HOSPIRA (502918098),"118,80 €",02-10-2013,31-07-2013,150 dias,"Portugal, Porto, Vila Nova de Gaia",Artigo 259.º do Código dos Contratos Públicos,"","",,,,603979,"CONCURSO PÚBLICO PARA A CELEBRAÇÃO DE CONTRATOS PÚBLICOS DE APROVISIONAMENTO PARA A ÁREA DA SAÚDE, COM VISTA AO FORNECIMENTO DE HORMONAS E OUTROS MEDICAMENTOS USADOS NO TRATAMENTO DAS DOENÇAS ENDÓCRINAS, ÀS INSTITUIÇÕES E SERVIÇOS DO SERVIÇO NACIONAL DE SAÚDE",
"Hormonas, ao Abrigo do AQ 2011/07 - parte I",Ao abrigo de acordo-quadro (art.º 259.º),Aquisição de bens móveis,"33600000-6, Produtos farmacêuticos","Centro Hospitalar Vila Nova de Gaia - Espinho, E.P.E. (508142156)","Generis - Farmacêutica, SA (508107997)","284,20 €",02-10-2013,31-07-2013,150 dias,"Portugal, Porto, Vila Nova de Gaia",Artigo 259.º do Código dos Contratos Públicos,"","",,,,603979,"CONCURSO PÚBLICO PARA A CELEBRAÇÃO DE CONTRATOS PÚBLICOS DE APROVISIONAMENTO PARA A ÁREA DA SAÚDE, COM VISTA AO FORNECIMENTO DE HORMONAS E OUTROS MEDICAMENTOS USADOS NO TRATAMENTO DAS DOENÇAS ENDÓCRINAS, ÀS INSTITUIÇÕES E SERVIÇOS DO SERVIÇO NACIONAL DE SAÚDE",
"Aquisição de Medicamentos do Foro Oncológico II, ao Abrigo do AQ 2012/06 - Parte II",Ao abrigo de acordo-quadro (art.º 259.º),Aquisição de bens móveis,"33600000-6, Produtos farmacêuticos","Centro Hospitalar Vila Nova de Gaia - Espinho, E.P.E. (508142156)",TEVA Pharma - Produtos Farmacêuticos (507045491),"783,50 €",02-10-2013,09-05-2013,240 dias,"Portugal, Porto, Vila Nova de Gaia",Artigo 259.º do Código dos Contratos Públicos,"","",,,,383205,CONCURSO PÚBLICO PARA A CELEBRAÇÃO DE CONTRATOS PÚBLICOS DE APROVISIONAMENTO PARA AQUISIÇÃO MEDICAMENTOS DO FORO ONCOLÓGICO II,
"Aquisição de Medicamentos do Foro Oncológico II, ao Abrigo do AQ 2012/06 - Parte II",Ao abrigo de acordo-quadro (art.º 259.º),Aquisição de bens móveis,"33600000-6, Produtos farmacêuticos","Centro Hospitalar Vila Nova de Gaia - Espinho, E.P.E. (508142156)","RES MEDICAL, LDA (502440163)","135,00 €",02-10-2013,09-05-2013,240 dias,"Portugal, Porto, Vila Nova de Gaia",Artigo 259.º do Código dos Contratos Públicos,"","",,,,383205,CONCURSO PÚBLICO PARA A CELEBRAÇÃO DE CONTRATOS PÚBLICOS DE APROVISIONAMENTO PARA AQUISIÇÃO MEDICAMENTOS DO FORO ONCOLÓGICO II,
"Aquisição de Medicamentos do Foro Oncológico II, ao Abrigo do AQ 2012/06 - Parte II",Ao abrigo de acordo-quadro (art.º 259.º),Aquisição de bens móveis,"33600000-6, Produtos farmacêuticos","Centro Hospitalar Vila Nova de Gaia - Espinho, E.P.E. (508142156)","Fresenius Kabi Pharma Portugal, Lda (504293753)","701,25 €",02-10-2013,09-05-2013,240 dias,"Portugal, Porto, Vila Nova de Gaia",Artigo 259.º do Código dos Contratos Públicos,"","",,,,383205,CONCURSO PÚBLICO PARA A CELEBRAÇÃO DE CONTRATOS PÚBLICOS DE APROVISIONAMENTO PARA AQUISIÇÃO MEDICAMENTOS DO FORO ONCOLÓGICO II,
Aquisição de Anti-Retrovirais,Ao abrigo de acordo-quadro (art.º 259.º),Aquisição de bens móveis,"33600000-6, Produtos farmacêuticos","Centro Hospitalar Vila Nova de Gaia - Espinho, E.P.E. (508142156)",TEVA Pharma - Produtos Farmacêuticos (507045491),"59.489,50 €",02-10-2013,22-05-2013,220 dias,"Portugal, Porto, Vila Nova de Gaia",Artigo 259.º do Código dos Contratos Públicos,"","",,,,461371,CP 2012/40 - MEDICAMENTOS ANTI-RETROVIRAIS,
Aquisição de Anti-Retrovirais,Ao abrigo de acordo-quadro (art.º 259.º),Aquisição de bens móveis,"33600000-6, Produtos farmacêuticos","Centro Hospitalar Vila Nova de Gaia - Espinho, E.P.E. (508142156)","GLAXOSMITHKLINE Produtos Farmacêuticos, Lda (500139962)","820,00 €",02-10-2013,22-05-2013,220 dias,"Portugal, Porto, Vila Nova de Gaia",Artigo 259.º do Código dos Contratos Públicos,"","",,,,461371,CP 2012/40 - MEDICAMENTOS ANTI-RETROVIRAIS,
Aquisição de Anti-Retrovirais,Ao abrigo de acordo-quadro (art.º 259.º),Aquisição de bens móveis,"33600000-6, Produtos farmacêuticos","Centro Hospitalar Vila Nova de Gaia - Espinho, E.P.E. (508142156)",Aurobindo Pharma Portugal (508527465),"39.688,00 €",02-10-2013,22-05-2013,220 dias,"Portugal, Porto, Vila Nova de Gaia",Artigo 259.º do Código dos Contratos Públicos,"","",,,,461371,CP 2012/40 - MEDICAMENTOS ANTI-RETROVIRAIS,
Aquisição de Contracetivos Orais,Ao abrigo de acordo-quadro (art.º 259.º),Aquisição de bens móveis,"33600000-6, Produtos farmacêuticos","Centro Hospitalar Vila Nova de Gaia - Espinho, E.P.E. (508142156)",TECNIFAR (500280436),"17,84 €",02-10-2013,11-04-2013,270 dias,"Portugal, Porto, Vila Nova de Gaia",Artigo 259.º do Código dos Contratos Públicos,"","",,,,530535,"CONCURSO PÚBLICO PARA A CELEBRAÇÃO DE CONTRATOS PÚBLICOS DE APROVISIONAMENTO PARA A ÁREA DA SAÚDE, COM VISTA AO FORNECIMENTO DE CONTRACETIVOS ORAIS, PROFILÁTICOS E MECÂNICOS ÀS INSTITUIÇÕES E SERVIÇOS DO SERVIÇO NACIONAL DE SAÚDE  ",
Aquisição de Contracetivos Orais,Ao abrigo de acordo-quadro (art.º 259.º),Aquisição de bens móveis,"33600000-6, Produtos farmacêuticos","Centro Hospitalar Vila Nova de Gaia - Espinho, E.P.E. (508142156)","LABORATORIOS PFIZER, LDA (500162166)","100,00 €",02-10-2013,11-04-2013,270 dias,"Portugal, Porto, Vila Nova de Gaia",Artigo 259.º do Código dos Contratos Públicos,"","",,,,530535,"CONCURSO PÚBLICO PARA A CELEBRAÇÃO DE CONTRATOS PÚBLICOS DE APROVISIONAMENTO PARA A ÁREA DA SAÚDE, COM VISTA AO FORNECIMENTO DE CONTRACETIVOS ORAIS, PROFILÁTICOS E MECÂNICOS ÀS INSTITUIÇÕES E SERVIÇOS DO SERVIÇO NACIONAL DE SAÚDE  ",
Aquisição de Contracetivos Orais,Ao abrigo de acordo-quadro (art.º 259.º),Aquisição de bens móveis,"33600000-6, Produtos farmacêuticos","Centro Hospitalar Vila Nova de Gaia - Espinho, E.P.E. (508142156)","Generis - Farmacêutica, SA (508107997)","293,14 €",02-10-2013,11-04-2013,270 dias,"Portugal, Porto, Vila Nova de Gaia",Artigo 259.º do Código dos Contratos Públicos,"","",,,,530535,"CONCURSO PÚBLICO PARA A CELEBRAÇÃO DE CONTRATOS PÚBLICOS DE APROVISIONAMENTO PARA A ÁREA DA SAÚDE, COM VISTA AO FORNECIMENTO DE CONTRACETIVOS ORAIS, PROFILÁTICOS E MECÂNICOS ÀS INSTITUIÇÕES E SERVIÇOS DO SERVIÇO NACIONAL DE SAÚDE  ",
Aquisição de Aparadeiras CT e Babetes para Estomatologia,Ao abrigo de acordo-quadro (art.º 259.º),Aquisição de bens móveis,"33770000-8, Artigos de papel para uso sanitário","Centro Hospitalar Vila Nova de Gaia - Espinho, E.P.E. (508142156)",BASTOS VIEGAS (500042772),"29,55 €",02-10-2013,01-10-2013,90 dias,"Portugal, Porto, Vila Nova de Gaia",Artigo 259.º do Código dos Contratos Públicos,"","",,,,598830,"CONCURSO PÚBLICO PARA A CELEBRAÇÃO DE CONTRATOS PÚBLICOS DE APROVISIONAMENTO PARA A ÁREA DA SAÚDE, COM VISTA AO FORNECIMENTO DE MATERIAL DE INCONTINÊNCIA, PROTEÇÃO CUTÂNEA E ALÍVIO DE PRESSÃO, ÀS INSTITUIÇÕES E SERVIÇOS DO SERVIÇO NACIONAL DE SAÚDE",
Aquisição de Aparadeiras CT e Babetes para Estomatologia,Ao abrigo de acordo-quadro (art.º 259.º),Aquisição de bens móveis,"33770000-8, Artigos de papel para uso sanitário","Centro Hospitalar Vila Nova de Gaia - Espinho, E.P.E. (508142156)","SANUSCONCEPT, LDA (509682880)","227,20 €",02-10-2013,01-10-2013,90 dias,"Portugal, Porto, Vila Nova de Gaia",Artigo 259.º do Código dos Contratos Públicos,"","",,,,598830,"CONCURSO PÚBLICO PARA A CELEBRAÇÃO DE CONTRATOS PÚBLICOS DE APROVISIONAMENTO PARA A ÁREA DA SAÚDE, COM VISTA AO FORNECIMENTO DE MATERIAL DE INCONTINÊNCIA, PROTEÇÃO CUTÂNEA E ALÍVIO DE PRESSÃO, ÀS INSTITUIÇÕES E SERVIÇOS DO SERVIÇO NACIONAL DE SAÚDE",
Aquisição de Corretivos da Volémia e Outras Soluções Estéreis,Ao abrigo de acordo-quadro (art.º 259.º),Aquisição de bens móveis,"33600000-6, Produtos farmacêuticos","Centro Hospitalar Vila Nova de Gaia - Espinho, E.P.E. (508142156)","Overpharma, Lda. (505792362)","361.763,98 €",01-10-2013,04-03-2013,300 dias,"Portugal, Porto, Vila Nova de Gaia",Artigo 259.º do Código dos Contratos Públicos,"","",,,,-405831022,CP 2012/3 - CORRECTIVOS DA VOLÉMIA E OUTRAS SOLUÇÕES ESTÉREIS,
Aquisição de Corretivos da Volémia e Outras Soluções Estéreis,Ao abrigo de acordo-quadro (art.º 259.º),Aquisição de bens móveis,"33600000-6, Produtos farmacêuticos","Centro Hospitalar Vila Nova de Gaia - Espinho, E.P.E. (508142156)","LABESFAL - LABORATÓRIOS ALMIRO, SA (501169580)","43.929,14 €",01-10-2013,04-03-2013,300 dias,"Portugal, Porto, Vila Nova de Gaia",Artigo 259.º do Código dos Contratos Públicos,"","",,,,-405831022,CP 2012/3 - CORRECTIVOS DA VOLÉMIA E OUTRAS SOLUÇÕES ESTÉREIS,
Aquisição de Corretivos da Volémia e Outras Soluções Estéreis,Ao abrigo de acordo-quadro (art.º 259.º),Aquisição de bens móveis,"33600000-6, Produtos farmacêuticos","Centro Hospitalar Vila Nova de Gaia - Espinho, E.P.E. (508142156)","Fresenius Kabi Pharma Portugal, Lda (504293753)","2.403,42 €",01-10-2013,04-03-2013,300 dias,"Portugal, Porto, Vila Nova de Gaia",Artigo 259.º do Código dos Contratos Públicos,"","",,,,-405831022,CP 2012/3 - CORRECTIVOS DA VOLÉMIA E OUTRAS SOLUÇÕES ESTÉREIS,
Aquisição de Corretivos da Volémia e Outras Soluções Estéreis,Ao abrigo de acordo-quadro (art.º 259.º),Aquisição de bens móveis,"33600000-6, Produtos farmacêuticos","Centro Hospitalar Vila Nova de Gaia - Espinho, E.P.E. (508142156)","BAXTER MEDICO - FARMACÊUTICA, LDA (503347345)","188.470,77 €",01-10-2013,04-03-2013,300 dias,"Portugal, Porto, Vila Nova de Gaia",Artigo 259.º do Código dos Contratos Públicos,"","",,,,-405831022,CP 2012/3 - CORRECTIVOS DA VOLÉMIA E OUTRAS SOLUÇÕES ESTÉREIS,
Aquisição de Corretivos da Volémia e Outras Soluções Estéreis,Ao abrigo de acordo-quadro (art.º 259.º),Aquisição de bens móveis,"33600000-6, Produtos farmacêuticos","Centro Hospitalar Vila Nova de Gaia - Espinho, E.P.E. (508142156)","B BRAUN MEDICAL, LDA. (501506543)","141.316,16 €",01-10-2013,04-03-2013,300 dias,"Portugal, Porto, Vila Nova de Gaia",Artigo 259.º do Código dos Contratos Públicos,"","",,,,-405831022,CP 2012/3 - CORRECTIVOS DA VOLÉMIA E OUTRAS SOLUÇÕES ESTÉREIS,
"Aquisição de Medicamentos de Consumo Geral - Aparelho Respiratório, ao Abrigo do AQ 2012/12",Ao abrigo de acordo-quadro (art.º 259.º),Aquisição de bens móveis,"33600000-6, Produtos farmacêuticos","Centro Hospitalar Vila Nova de Gaia - Espinho, E.P.E. (508142156)",UNILFARMA (500293023),"8.220,61 €",01-10-2013,18-03-2013,290 dias,"Portugal, Porto, Vila Nova de Gaia",Artigo 259.º do Código dos Contratos Públicos,"","",,,,469931,CP 2012/12 - Medicamentos do Aparelho Respiratório,
"Aquisição de Medicamentos de Consumo Geral - Aparelho Respiratório, ao Abrigo do AQ 2012/12",Ao abrigo de acordo-quadro (art.º 259.º),Aquisição de bens móveis,"33600000-6, Produtos farmacêuticos","Centro Hospitalar Vila Nova de Gaia - Espinho, E.P.E. (508142156)",TEVA Pharma - Produtos Farmacêuticos (507045491),"71.808,70 €",01-10-2013,18-03-2013,290 dias,"Portugal, Porto, Vila Nova de Gaia",Artigo 259.º do Código dos Contratos Públicos,"","",,,,469931,CP 2012/12 - Medicamentos do Aparelho Respiratório,
"Aquisição de Medicamentos de Consumo Geral - Aparelho Respiratório, ao Abrigo do AQ 2012/12",Ao abrigo de acordo-quadro (art.º 259.º),Aquisição de bens móveis,"33600000-6, Produtos farmacêuticos","Centro Hospitalar Vila Nova de Gaia - Espinho, E.P.E. (508142156)",SANDOZ FARMACÊUTICA (506985261),"2.503,96 €",01-10-2013,18-03-2013,290 dias,"Portugal, Porto, Vila Nova de Gaia",Artigo 259.º do Código dos Contratos Públicos,"","",,,,469931,CP 2012/12 - Medicamentos do Aparelho Respiratório,
"Aquisição de Medicamentos de Consumo Geral - Aparelho Respiratório, ao Abrigo do AQ 2012/12",Ao abrigo de acordo-quadro (art.º 259.º),Aquisição de bens móveis,"33600000-6, Produtos farmacêuticos","Centro Hospitalar Vila Nova de Gaia - Espinho, E.P.E. (508142156)","Novartis Farma - Produtos Farmacêuticos, SA (500063524)","209.569,35 €",01-10-2013,18-03-2013,290 dias,"Portugal, Porto, Vila Nova de Gaia",Artigo 259.º do Código dos Contratos Públicos,"","",,,,469931,CP 2012/12 - Medicamentos do Aparelho Respiratório,
"Aquisição de Medicamentos de Consumo Geral - Aparelho Respiratório, ao Abrigo do AQ 2012/12",Ao abrigo de acordo-quadro (art.º 259.º),Aquisição de bens móveis,"33600000-6, Produtos farmacêuticos","Centro Hospitalar Vila Nova de Gaia - Espinho, E.P.E. (508142156)","LABESFAL - LABORATÓRIOS ALMIRO, SA (501169580)","18.755,30 €",01-10-2013,18-03-2013,290 dias,"Portugal, Porto, Vila Nova de Gaia",Artigo 259.º do Código dos Contratos Públicos,"","",,,,469931,CP 2012/12 - Medicamentos do Aparelho Respiratório,
"Aquisição de Medicamentos de Consumo Geral - Aparelho Resiratório, ao Abrigo do AQ 2012/12",Ao abrigo de acordo-quadro (art.º 259.º),Aquisição de bens móveis,"33600000-6, Produtos farmacêuticos","Centro Hospitalar Vila Nova de Gaia - Espinho, E.P.E. (508142156)","GLAXOSMITHKLINE Produtos Farmacêuticos, Lda (500139962)","2.920,30 €",01-10-2013,18-03-2013,290 dias,"Portugal, Porto, Vila Nova de Gaia",Artigo 259.º do Código dos Contratos Públicos,"","",,,,469931,CP 2012/12 - Medicamentos do Aparelho Respiratório,
"Aquisição de Medicamentos de Consumo Geral - Aparelho Resiratório, ao Abrigo do AQ 2012/12",Ao abrigo de acordo-quadro (art.º 259.º),Aquisição de bens móveis,"33600000-6, Produtos farmacêuticos","Centro Hospitalar Vila Nova de Gaia - Espinho, E.P.E. (508142156)","Farmoz, LDA (501505334)","4,80 €",01-10-2013,18-03-2013,290 dias,"Portugal, Porto, Vila Nova de Gaia",Artigo 259.º do Código dos Contratos Públicos,"","",,,,469931,CP 2012/12 - Medicamentos do Aparelho Respiratório,
"Aquisição de Medicamentos de Consumo Geral - Aparelho Resiratório, ao Abrigo do AQ 2012/12",Ao abrigo de acordo-quadro (art.º 259.º),Aquisição de bens móveis,"33600000-6, Produtos farmacêuticos","Centro Hospitalar Vila Nova de Gaia - Espinho, E.P.E. (508142156)","BIAL - PORTELA & COMPANHIA, SA (500220913)","202,50 €",01-10-2013,18-03-2013,290 dias,"Portugal, Porto, Vila Nova de Gaia",Artigo 259.º do Código dos Contratos Públicos,"","",,,,469931,CP 2012/12 - Medicamentos do Aparelho Respiratório,
"Aquisição de Medicamentos de Consumo Geral - Aparelho Resiratório, ao Abrigo do AQ 2012/12",Ao abrigo de acordo-quadro (art.º 259.º),Aquisição de bens móveis,"33600000-6, Produtos farmacêuticos","Centro Hospitalar Vila Nova de Gaia - Espinho, E.P.E. (508142156)","B BRAUN MEDICAL, LDA. (501506543)","5.093,20 €",01-10-2013,18-03-2013,290 dias,"Portugal, Porto, Vila Nova de Gaia",Artigo 259.º do Código dos Contratos Públicos,"","",,,,469931,CP 2012/12 - Medicamentos do Aparelho Respiratório,
"Aquisição de Medicamentos de Consumo Geral - Aparelho Resiratório, ao Abrigo do AQ 2012/12",Ao abrigo de acordo-quadro (art.º 259.º),Aquisição de bens móveis,"33600000-6, Produtos farmacêuticos","Centro Hospitalar Vila Nova de Gaia - Espinho, E.P.E. (508142156)","ASTRAZENECA Produtos Farmacêuticos, Lda (502942240)","39,26 €",01-10-2013,18-03-2013,290 dias,"Portugal, Porto, Vila Nova de Gaia",Artigo 259.º do Código dos Contratos Públicos,"","",,,,469931,CP 2012/12 - Medicamentos do Aparelho Respiratório,
"Aquisição de Medicamentos de Consumo Geral - Aparelho Resiratório, ao Abrigo do AQ 2012/12",Ao abrigo de acordo-quadro (art.º 259.º),Aquisição de bens móveis,"33600000-6, Produtos farmacêuticos","Centro Hospitalar Vila Nova de Gaia - Espinho, E.P.E. (508142156)","ANGELINI FARMACÊUTICA, LDA (500583650)","4.617,00 €",01-10-2013,18-03-2013,290 dias,"Portugal, Porto, Vila Nova de Gaia",Artigo 259.º do Código dos Contratos Públicos,"","",,,,469931,CP 2012/12 - Medicamentos do Aparelho Respiratório,
"Aquisição de Anestésicos e Relaxantes Musculares, ao Abrigo do AQ 2012/45",Ao abrigo de acordo-quadro (art.º 259.º),Aquisição de bens móveis,"33600000-6, Produtos farmacêuticos","Centro Hospitalar Vila Nova de Gaia - Espinho, E.P.E. (508142156)",TEVA Pharma - Produtos Farmacêuticos (507045491),"12,50 €",01-10-2013,06-05-2013,240 dias,"Portugal, Porto, Vila Nova de Gaia",Artigo 259.º do Código dos Contratos Públicos,"","",,,,461372,CP 2012/45 - MEDICAMENTOS ANESTÉSICOS E RELAXANTES MUSCULARES,
"Aquisição de Anestésicos e Relaxantes Musculares, ao Abrigo do AQ 2012/45",Ao abrigo de acordo-quadro (art.º 259.º),Aquisição de bens móveis,"33600000-6, Produtos farmacêuticos","Centro Hospitalar Vila Nova de Gaia - Espinho, E.P.E. (508142156)",SIDEFARMA (500717419),"71.658,00 €",01-10-2013,06-05-2013,240 dias,"Portugal, Porto, Vila Nova de Gaia",Artigo 259.º do Código dos Contratos Públicos,"","",,,,461372,CP 2012/45 - MEDICAMENTOS ANESTÉSICOS E RELAXANTES MUSCULARES,
"Aquisição de Anestésicos e Relaxantes Musculares, ao Abrigo do AQ 2012/45",Ao abrigo de acordo-quadro (art.º 259.º),Aquisição de bens móveis,"33600000-6, Produtos farmacêuticos","Centro Hospitalar Vila Nova de Gaia - Espinho, E.P.E. (508142156)","Profarin - Distrib. Prod. Farmac. Industriais, Lda (500223238)","13.500,00 €",01-10-2013,06-05-2013,240 dias,"Portugal, Porto, Vila Nova de Gaia",Artigo 259.º do Código dos Contratos Públicos,"","",,,,461372,CP 2012/45 - MEDICAMENTOS ANESTÉSICOS E RELAXANTES MUSCULARES,
"Aquisição de Anestésicos e Relaxantes Musculares, ao Abrigo do AQ 2012/45",Ao abrigo de acordo-quadro (art.º 259.º),Aquisição de bens móveis,"33600000-6, Produtos farmacêuticos","Centro Hospitalar Vila Nova de Gaia - Espinho, E.P.E. (508142156)","PHARMIS BIOFARMACÊUTICA, LDA (502595442)","275,00 €",01-10-2013,06-05-2013,240 dias,"Portugal, Porto, Vila Nova de Gaia",Artigo 259.º do Código dos Contratos Públicos,"","",,,,461372,CP 2012/45 - MEDICAMENTOS ANESTÉSICOS E RELAXANTES MUSCULARES,
"Aquisição de Anestésicos e Relaxantes Musculares, ao Abrigo do AQ 2012/45",Ao abrigo de acordo-quadro (art.º 259.º),Aquisição de bens móveis,"33600000-6, Produtos farmacêuticos","Centro Hospitalar Vila Nova de Gaia - Espinho, E.P.E. (508142156)","Novartis Farma - Produtos Farmacêuticos, SA (500063524)","1.013,98 €",01-10-2013,06-05-2013,240 dias,"Portugal, Porto, Vila Nova de Gaia",Artigo 259.º do Código dos Contratos Públicos,"","",,,,461372,CP 2012/45 - MEDICAMENTOS ANESTÉSICOS E RELAXANTES MUSCULARES,
"Aquisição de Anestésicos e Relaxantes Musculares, ao Abrigo do AQ 2012/45",Ao abrigo de acordo-quadro (art.º 259.º),Aquisição de bens móveis,"33600000-6, Produtos farmacêuticos","Centro Hospitalar Vila Nova de Gaia - Espinho, E.P.E. (508142156)",MERCK SHARP & DHOME LDA. (500191360),"35.481,29 €",01-10-2013,06-05-2013,240 dias,"Portugal, Porto, Vila Nova de Gaia",Artigo 259.º do Código dos Contratos Públicos,"","",,,,461372,CP 2012/45 - MEDICAMENTOS ANESTÉSICOS E RELAXANTES MUSCULARES,
"Aquisição de Anestésicos e Relaxantes Musculares, ao Abrigo do AQ 2012/45",Ao abrigo de acordo-quadro (art.º 259.º),Aquisição de bens móveis,"33600000-6, Produtos farmacêuticos","Centro Hospitalar Vila Nova de Gaia - Espinho, E.P.E. (508142156)","LABORATÓRIOS NORMON, S.A. (505654156)","1.218,60 €",01-10-2013,06-05-2013,240 dias,"Portugal, Porto, Vila Nova de Gaia",Artigo 259.º do Código dos Contratos Públicos,"","",,,,461372,CP 2012/45 - MEDICAMENTOS ANESTÉSICOS E RELAXANTES MUSCULARES,
"Aquisição de Anestésicos e Relaxantes Musculares, ao Abrigo do AQ 2012/45",Ao abrigo de acordo-quadro (art.º 259.º),Aquisição de bens móveis,"33600000-6, Produtos farmacêuticos","Centro Hospitalar Vila Nova de Gaia - Espinho, E.P.E. (508142156)",HOSPIRA (502918098),"1.615,50 €",01-10-2013,06-05-2013,240 dias,"Portugal, Porto, Vila Nova de Gaia",Artigo 259.º do Código dos Contratos Públicos,"","",,,,461372,CP 2012/45 - MEDICAMENTOS ANESTÉSICOS E RELAXANTES MUSCULARES,
"Aquisição de Anestésicos e Relaxantes Musculares, ao Abrigo do AQ 2012/45",Ao abrigo de acordo-quadro (art.º 259.º),Aquisição de bens móveis,"33600000-6, Produtos farmacêuticos","Centro Hospitalar Vila Nova de Gaia - Espinho, E.P.E. (508142156)",HIKMA FARMACEUTICA (502266791),"5.036,80 €",01-10-2013,06-05-2013,240 dias,"Portugal, Porto, Vila Nova de Gaia",Artigo 259.º do Código dos Contratos Públicos,"","",,,,461372,CP 2012/45 - MEDICAMENTOS ANESTÉSICOS E RELAXANTES MUSCULARES,
"Aquisição de Anestésicos e Relaxantes Musculares, ao Abrigo do AQ 2012/45",Ao abrigo de acordo-quadro (art.º 259.º),Aquisição de bens móveis,"33600000-6, Produtos farmacêuticos","Centro Hospitalar Vila Nova de Gaia - Espinho, E.P.E. (508142156)","GLAXOSMITHKLINE Produtos Farmacêuticos, Lda (500139962)","1.008,00 €",01-10-2013,06-05-2013,240 dias,"Portugal, Porto, Vila Nova de Gaia",Artigo 259.º do Código dos Contratos Públicos,"","",,,,461372,CP 2012/45 - MEDICAMENTOS ANESTÉSICOS E RELAXANTES MUSCULARES,
"Aquisição de Anestésicos e Relaxantes Musculares, ao Abrigo do AQ 2012/45",Ao abrigo de acordo-quadro (art.º 259.º),Aquisição de bens móveis,"33600000-6, Produtos farmacêuticos","Centro Hospitalar Vila Nova de Gaia - Espinho, E.P.E. (508142156)","Fresenius Kabi Pharma Portugal, Lda (504293753)","23.063,70 €",01-10-2013,06-05-2013,240 dias,"Portugal, Porto, Vila Nova de Gaia",Artigo 259.º do Código dos Contratos Públicos,"","",,,,461372,CP 2012/45 - MEDICAMENTOS ANESTÉSICOS E RELAXANTES MUSCULARES,
"Aquisição de Anestésicos e Relaxantes Musculares, ao Abrigo do AQ 2012/45",Ao abrigo de acordo-quadro (art.º 259.º),Aquisição de bens móveis,"33600000-6, Produtos farmacêuticos","Centro Hospitalar Vila Nova de Gaia - Espinho, E.P.E. (508142156)","BAXTER MEDICO - FARMACÊUTICA, LDA (503347345)","299.142,60 €",01-10-2013,06-05-2013,240 dias,"Portugal, Porto, Vila Nova de Gaia",Artigo 259.º do Código dos Contratos Públicos,"","",,,,461372,CP 2012/45 - MEDICAMENTOS ANESTÉSICOS E RELAXANTES MUSCULARES,
"Aquisição de Anestésicos e Relaxantes Musculares, ao Abrigo do AQ 2012/45",Ao abrigo de acordo-quadro (art.º 259.º),Aquisição de bens móveis,"33600000-6, Produtos farmacêuticos","Centro Hospitalar Vila Nova de Gaia - Espinho, E.P.E. (508142156)","B BRAUN MEDICAL, LDA. (501506543)","36.719,50 €",01-10-2013,06-05-2013,240 dias,"Portugal, Porto, Vila Nova de Gaia",Artigo 259.º do Código dos Contratos Públicos,"","",,,,461372,CP 2012/45 - MEDICAMENTOS ANESTÉSICOS E RELAXANTES MUSCULARES,
"Aquisição de Anestésicos e Relaxantes Musculares, ao Abrigo do AQ 2012/45",Ao abrigo de acordo-quadro (art.º 259.º),Aquisição de bens móveis,"33600000-6, Produtos farmacêuticos","Centro Hospitalar Vila Nova de Gaia - Espinho, E.P.E. (508142156)","ASTRAZENECA Produtos Farmacêuticos, Lda (502942240)","24.000,00 €",01-10-2013,06-05-2013,240 dias,"Portugal, Porto, Vila Nova de Gaia",Artigo 259.º do Código dos Contratos Públicos,"","",,,,461372,CP 2012/45 - MEDICAMENTOS ANESTÉSICOS E RELAXANTES MUSCULARES,
"Aquisição de Anestésicos e Relaxantes Musculares, ao Abrigo do AQ 2012/45",Ao abrigo de acordo-quadro (art.º 259.º),Aquisição de bens móveis,"33600000-6, Produtos farmacêuticos","Centro Hospitalar Vila Nova de Gaia - Espinho, E.P.E. (508142156)","ABBVIE, LDA (510229050)","3.027,00 €",01-10-2013,06-05-2013,240 dias,"Portugal, Porto, Vila Nova de Gaia",Artigo 259.º do Código dos Contratos Públicos,"","",,,,461372,CP 2012/45 - MEDICAMENTOS ANESTÉSICOS E RELAXANTES MUSCULARES,
Aquisição de Nutrição Parentérica,Ao abrigo de acordo-quadro (art.º 259.º),Aquisição de bens móveis,"33600000-6, Produtos farmacêuticos","Centro Hospitalar Vila Nova de Gaia - Espinho, E.P.E. (508142156)","Fresenius Kabi Pharma Portugal, Lda (504293753)","167.184,64 €",01-10-2013,18-03-2013,300 dias,"Portugal, Porto, Vila Nova de Gaia",Artigo 259.º do Código dos Contratos Públicos,"","",,,,457058,"CONCURSO PÚBLICO PARA A CELEBRAÇÃO DE CONTRATOS PÚBLICOS DE APROVISIONAMENTO PARA A ÁREA DA SAÚDE, COM VISTA AO FORNECIMENTO DE MEDICAMENTOS PARA NUTRIÇÃO PARENTÉRICA, ÀS INSTITUIÇÕES E SERVIÇOS DO SERVIÇO NACIONAL DE SAÚDE",
Aquisição de Nutrição Parentérica,Ao abrigo de acordo-quadro (art.º 259.º),Aquisição de bens móveis,"33600000-6, Produtos farmacêuticos","Centro Hospitalar Vila Nova de Gaia - Espinho, E.P.E. (508142156)","BAXTER MEDICO - FARMACÊUTICA, LDA (503347345)","95.567,34 €",01-10-2013,18-03-2013,300 dias,"Portugal, Porto, Vila Nova de Gaia",Artigo 259.º do Código dos Contratos Públicos,"","",,,,457058,"CONCURSO PÚBLICO PARA A CELEBRAÇÃO DE CONTRATOS PÚBLICOS DE APROVISIONAMENTO PARA A ÁREA DA SAÚDE, COM VISTA AO FORNECIMENTO DE MEDICAMENTOS PARA NUTRIÇÃO PARENTÉRICA, ÀS INSTITUIÇÕES E SERVIÇOS DO SERVIÇO NACIONAL DE SAÚDE",
Aquisição de Nutrição Parentérica,Ao abrigo de acordo-quadro (art.º 259.º),Aquisição de bens móveis,"33600000-6, Produtos farmacêuticos","Centro Hospitalar Vila Nova de Gaia - Espinho, E.P.E. (508142156)","B BRAUN MEDICAL, LDA. (501506543)","52.634,96 €",01-10-2013,18-03-2013,300 dias,"Portugal, Porto, Vila Nova de Gaia",Artigo 259.º do Código dos Contratos Públicos,"","",,,,457058,"CONCURSO PÚBLICO PARA A CELEBRAÇÃO DE CONTRATOS PÚBLICOS DE APROVISIONAMENTO PARA A ÁREA DA SAÚDE, COM VISTA AO FORNECIMENTO DE MEDICAMENTOS PARA NUTRIÇÃO PARENTÉRICA, ÀS INSTITUIÇÕES E SERVIÇOS DO SERVIÇO NACIONAL DE SAÚDE",
