Objeto do Contrato,Tipo de Procedimento,Tipo(s) de Contrato,CPVs,Entidade(s) Adjudicante(s),Entidade(s) Adjudicatária(s),Preço Contratual,Data de Publicação,Data de Celebração do Contrato,Prazo de Execução,Local de Execução,Fundamentação,Data de Fecho do Contrato,Preço Total Efetivo,Causas das Alterações ao Prazo,Causas das Alterações ao Preço,Estado,N.º registo do Acordo Quadro,Descrição do Acordo Quadro,Procedimento Centralizado
Obras para colocação de mastros de bandeiras na Sede da ARSC,Ajuste Direto Regime Geral,Empreitadas de obras públicas,"45262000-1, Construções especializadas excepto obras de cobertura","Administração Regional de Saúde do Centro, I. P. (503122165)","Renovalar - Renovação e Manutenção de Imobiliário, Unipessoal, Lda (503634190)","2.895,00 €",11-12-2014,11-12-2014,15 dias,"Portugal, Coimbra, Coimbra","Artigo 19.º, alínea a) do Código dos Contratos Públicos","","2.895,00 €",Rutura de stock de matéria prima,,,Não aplicável.,Não aplicável.,FALSE
Processo N.º 14800859. ACES Baixo Vouga. Centro de Saúde de Águeda. Trabalhos de limpeza na cobertura.,Ajuste Direto Regime Geral,Empreitadas de obras públicas,"45452000-0, Trabalhos de limpeza exterior de edifícios","ADMINISTRAÇÃO REGIONAL DE SAÚDE DO CENTRO, I. P. (503122165)","Domus Construções, Lda (502253622)","898,00 €",11-12-2014,12-11-2014,8 dias,"Portugal, Aveiro, Águeda","Artigo 19.º, alínea a) do Código dos Contratos Públicos","","","",,,Não aplicável.,Não aplicável.,FALSE
Processo n.º 14800584. Empreitada de Obras de Reparação no Centro de Saúde de Estarreja.,Ajuste Direto Regime Geral,Empreitadas de obras públicas,"45261900-3, Obras de reparação e manutenção de coberturas","Administração Regional de Saúde do Centro, I. P. (503122165)",SCARP - Sociedade de Construções Civis e Obras Públicas (501475281),"4.868,60 €",09-12-2014,24-09-2014,30 dias,"Portugal, Aveiro, Aveiro","Artigo 19.º, alínea a) do Código dos Contratos Públicos","","","",,,Não aplicável.,Não aplicável.,FALSE
Empreitada de Obras para Reinstalação do Equipamento de Estomatologia – 2ª Fase – C. S. de Estarreja,Ajuste Direto Regime Geral,Empreitadas de obras públicas,"45453000-7, Obras de revisão e recuperação","ADMINISTRAÇÃO REGIONAL DE SAÚDE DO CENTRO, I. P. (503122165)",Construções Rodrigues e Filho (501799249),"12.999,00 €",05-12-2014,23-09-2014,60 dias,"Portugal, Aveiro, Estarreja","Artigo 19.º, alínea a) do Código dos Contratos Públicos","","","",,,Não aplicável.,Não aplicável.,FALSE
Processo N.º 14800486. Unidade de Saúde Familiar da Lousã. Reforço da guarda do patim do átrio principal e colocação de portas nos corredores.,Ajuste Direto Regime Geral,Empreitadas de obras públicas,"45200000-9, Obras de construção total ou parcial e de engenharia civil","Administração Regional de Saúde do Centro, I. P. (503122165)","Reis Pinto, Lda (500994315)","6.983,66 €",04-12-2014,02-09-2014,30 dias,"Portugal, Coimbra, Lousã","Artigo 19.º, alínea a) do Código dos Contratos Públicos","","","",,,Não aplicável.,Não aplicável.,FALSE
Aluguer de equipamento médico para o Gabinete de Formação da ARS Centro I.P.,Ajuste Direto Regime Geral,Locação de bens móveis,"33100000-1, Equipamento médico","Administração Regional de Saúde do Centro, I. P. (503122165)",Medicinalia - Cormédica (500189420),"2.800,00 €",03-12-2014,11-06-2014,180 dias,"Portugal, Coimbra, Coimbra","Artigo 20.º, n.º 1, alínea a) do Código dos Contratos Públicos",29-08-2014,"2.800,00 €","",,,Não aplicável.,Não aplicável.,FALSE
Aquisição de equipamento médico para a consulta do pé diabético do ACES Cova da Beira e ACES Dão Lafões,Ajuste Direto Regime Geral,Aquisição de bens móveis,"33100000-1, Equipamento médico","Administração Regional de Saúde do Centro, I. P. (503122165)","Medical Plus, Lda (506658066)","409,00 €",03-12-2014,17-07-2014,30 dias,"Portugal, Viseu, Viseu<BR/>Portugal, Castelo Branco, Covilhã","Artigo 20.º, n.º 1, alínea a) do Código dos Contratos Públicos",01-08-2014,"409,00 €","",,,Não aplicável.,Não aplicável.,FALSE
Aquisição de equipamento médico para a consulta do pé diabético do ACES Cova da Beira e ACES Dão Lafões,Ajuste Direto Regime Geral,Aquisição de bens móveis,"33100000-1, Equipamento médico","Administração Regional de Saúde do Centro, I. P. (503122165)","Grupo Vitalino, SA - Vitalcare (513083162)","8.865,08 €",03-12-2014,30-07-2014,30 dias,"Portugal, Viseu, Viseu<BR/>Portugal, Castelo Branco, Fundão<BR/>Portugal, Castelo Branco, Belmonte<BR/>Portugal, Castelo Branco, Covilhã","Artigo 20.º, n.º 1, alínea a) do Código dos Contratos Públicos",18-09-2014,"8.865,08 €","",,,Não aplicável.,Não aplicável.,FALSE
Aquisição de equipamento médico para a consulta do pé diabético do ACES Cova da Beira e ACES Dão Lafões,Ajuste Direto Regime Geral,Aquisição de bens móveis,"33100000-1, Equipamento médico","Administração Regional de Saúde do Centro, I. P. (503122165)","Promei Centro - Compra e Venda, Mont. A. S. Eq. Hosp., Lda (506470113)","3.656,50 €",03-12-2014,17-07-2014,30 dias,"Portugal, Castelo Branco, Fundão<BR/>Portugal, Viseu, Viseu<BR/>Portugal, Castelo Branco, Covilhã<BR/>Portugal, Castelo Branco, Belmonte","Artigo 20.º, n.º 1, alínea a) do Código dos Contratos Públicos",14-11-2014,"3.656,50 €","",,,Não aplicável.,Não aplicável.,FALSE
Aquisição de equipamento médico para a consulta do pé diabético do ACES Cova da Beira e ACES Dão Lafões,Ajuste Direto Regime Geral,Aquisição de bens móveis,"33100000-1, Equipamento médico","Administração Regional de Saúde do Centro, I. P. (503122165)","Cenatolim, Lda (507397924)","630,00 €",03-12-2014,17-07-2014,30 dias,"Portugal, Castelo Branco, Fundão<BR/>Portugal, Castelo Branco, Covilhã<BR/>Portugal, Castelo Branco, Belmonte<BR/>Portugal, Viseu, Viseu","Artigo 20.º, n.º 1, alínea a) do Código dos Contratos Públicos",23-07-2014,"630,00 €","",,,Não aplicável.,Não aplicável.,FALSE
envelopes diversos,Ajuste Direto Regime Geral,Aquisição de bens móveis,"30000000-9, Máquinas, equipamento e material de escritório e de informática, excepto mobiliário e pacotes de programas (software)","Administração Regional de Saúde do Centro, I. P. (503122165)",Editorial do Ministério fa Educação e Ciência (600000532),"1.181,00 €",01-12-2014,09-09-2014,30 dias,"Portugal, Distrito não determinado, Concelho não determinado","Artigo 20.º, n.º 1, alínea a) do Código dos Contratos Públicos",28-10-2014,"1.181,00 €","",,,Não aplicável.,Não aplicável.,FALSE
envelopes diversos e pastas com logo da ARSC,Ajuste Direto Regime Geral,Aquisição de bens móveis,"30000000-9, Máquinas, equipamento e material de escritório e de informática, excepto mobiliário e pacotes de programas (software)","Administração Regional de Saúde do Centro, I. P. (503122165)","NSG - Novas Soluções Gráficas, SA (510361650)","3.026,99 €",01-12-2014,09-09-2014,30 dias,"Portugal, Distrito não determinado, Concelho não determinado","Artigo 20.º, n.º 1, alínea a) do Código dos Contratos Públicos",05-11-2014,"3.026,99 €","",,,Não aplicável.,Não aplicável.,FALSE
envelopes diversos,Ajuste Direto Regime Geral,Aquisição de bens móveis,"30199710-0, Sobrescritos impressos","Administração Regional de Saúde do Centro, I. P. (503122165)","Lito Tipo - Machado e Machado, Lda (500834857)","6.894,80 €",01-12-2014,09-09-2014,30 dias,"Portugal, Distrito não determinado, Concelho não determinado","Artigo 20.º, n.º 1, alínea a) do Código dos Contratos Públicos",28-10-2014,"6.894,80 €","",,,Não aplicável.,Não aplicável.,FALSE
