Objeto do Contrato,Tipo de Procedimento,Tipo(s) de Contrato,CPVs,Entidade(s) Adjudicante(s),Entidade(s) Adjudicatária(s),Preço Contratual,Data de Publicação,Data de Celebração do Contrato,Prazo de Execução,Local de Execução,Fundamentação,Data de Fecho do Contrato,Preço Total Efetivo,Causas das Alterações ao Prazo,Causas das Alterações ao Preço,Estado,N.º registo do Acordo Quadro,Descrição do Acordo Quadro,Procedimento Centralizado
AD 49007117 - Reparação de impressora e bisturi,Ajuste Direto Regime Geral,Aquisição de serviços,"50000000-5, Serviços de reparação e manutenção",Hospital Dr. Francisco Zagalo (501510150),"TEPREL, S.A. (502262184)","2.037,80 €",27-09-2017,23-08-2017,30 dias,"Portugal, Aveiro, Ovar","Artigo 20.º, n.º 1, alínea a) do Código dos Contratos Públicos",20-09-2017,"2.037,80 €",,,,Não aplicável.,Não aplicável.,FALSE
AD 49007117 - Reparação de impressora e bisturi,Ajuste Direto Regime Geral,Aquisição de serviços,"50000000-5, Serviços de reparação e manutenção",Hospital Dr. Francisco Zagalo (501510150),"Esq-Esquemaquer, Lda (509372813)","404,50 €",27-09-2017,23-08-2017,30 dias,"Portugal, Aveiro, Ovar","Artigo 20.º, n.º 1, alínea a) do Código dos Contratos Públicos",20-09-2017,"404,50 €",,,,Não aplicável.,Não aplicável.,FALSE
49000617-serviços anos anteriores,Ajuste Direto Regime Geral,Aquisição de serviços,"79600000-0, Serviços de recrutamento",Hospital Dr. Francisco Zagalo (501510150),"Centro Hospitalar do Baixo Vouga, Epe (510123210)","2.222,16 €",26-09-2017,24-01-2017,90 dias,"Portugal, Aveiro, Ovar","Artigo 20.º, n.º 1, alínea a) do Código dos Contratos Públicos",30-04-2017,"2.222,16 €",,,,Não aplicável.,Não aplicável.,FALSE
49000617-serviços anos anteriores,Ajuste Direto Regime Geral,Aquisição de serviços,"64200000-8, Serviços de telecomunicações",Hospital Dr. Francisco Zagalo (501510150),"MEO-Serviços de Comunicações e Multimédia, S.A. (504615947)","999,80 €",26-09-2017,24-01-2017,30 dias,"Portugal, Aveiro, Ovar","Artigo 20.º, n.º 1, alínea a) do Código dos Contratos Públicos",28-02-2017,"999,80 €",,,,Não aplicável.,Não aplicável.,FALSE
49000717-Exames MCDT,Ajuste Direto Regime Geral,Aquisição de serviços,"85100000-0, Serviços de saúde",Hospital Dr. Francisco Zagalo (501510150),IBMC-INST.BIOLOGIA MOLEC.CELU. (503828360),"155,00 €",26-09-2017,20-01-2017,30 dias,"Portugal, Aveiro, Ovar","Artigo 20.º, n.º 1, alínea a) do Código dos Contratos Públicos",28-02-2017,"155,00 €",,,,Não aplicável.,Não aplicável.,FALSE
49000717-Exames - MCDT,Ajuste Direto Regime Geral,Aquisição de serviços,"60100000-9, Serviços de transporte rodoviário",Hospital Dr. Francisco Zagalo (501510150),ASSOC.HUMAN.BOMB.VOLUNT.SEVER DO VOUGA (500928088),"56,10 €",26-09-2017,20-01-2017,30 dias,"Portugal, Aveiro, Ovar","Artigo 20.º, n.º 1, alínea a) do Código dos Contratos Públicos",28-02-2017,"56,10 €",,,,Não aplicável.,Não aplicável.,FALSE
49000717-Exames - MCDT,Ajuste Direto Regime Geral,Aquisição de serviços,"60100000-9, Serviços de transporte rodoviário",Hospital Dr. Francisco Zagalo (501510150),ASSOCIACAO HUMANITARIA BOMBEIROS VOLUNT OVAR (501287566),"1.881,42 €",26-09-2017,20-01-2017,30 dias,"Portugal, Aveiro, Ovar","Artigo 20.º, n.º 1, alínea a) do Código dos Contratos Públicos",28-02-2017,"1.881,42 €",,,,Não aplicável.,Não aplicável.,FALSE
49000817-Fornecimentos e serviços anos anteriores,Ajuste Direto Regime Geral,Aquisição de serviços,"79600000-0, Serviços de recrutamento",Hospital Dr. Francisco Zagalo (501510150),AOKI Portugal Trabalho Temporario(Sucursal Portu) (980527007),"419,83 €",21-09-2017,19-01-2017,30 dias,"Portugal, Aveiro, Ovar","Artigo 20.º, n.º 1, alínea a) do Código dos Contratos Públicos",28-02-2017,"419,83 €",,,,Não aplicável.,Não aplicável.,FALSE
49000817-Fornec. e serviços anos anteriores,Ajuste Direto Regime Geral,Aquisição de serviços,"50000000-5, Serviços de reparação e manutenção",Hospital Dr. Francisco Zagalo (501510150),EDICOPIA (501991220),"54,35 €",21-09-2017,19-01-2017,30 dias,"Portugal, Aveiro, Ovar","Artigo 20.º, n.º 1, alínea a) do Código dos Contratos Públicos",28-02-2017,"54,35 €",,,,Não aplicável.,Não aplicável.,FALSE
