Objeto do Contrato,Tipo de Procedimento,Tipo(s) de Contrato,CPVs,Entidade(s) Adjudicante(s),Entidade(s) Adjudicatária(s),Preço Contratual,Data de Publicação,Data de Celebração do Contrato,Prazo de Execução,Local de Execução,Fundamentação,Data de Fecho do Contrato,Preço Total Efetivo,Causas das Alterações ao Prazo,Causas das Alterações ao Preço,Estado,N.º registo do Acordo Quadro,Descrição do Acordo Quadro,Procedimento Centralizado
Imobilizado da Glintt para Ano 2014,Ajuste Direto Regime Geral,Aquisição de serviços,"72000000-5, Serviços de TI: consultoria, desenvolvimento de software, Internet e apoio",Centro Hospitalar Psiquiátrico de Lisboa (508338476),GLINTT - HEALTHCARE SOLUTIONS SA (503541320),"1.601,25 €",26-03-2014,27-02-2014,365 dias,"Portugal, Lisboa, Lisboa","Artigo 20.º, n.º 1, alínea a) do Código dos Contratos Públicos",31-12-2014,"1.641,30 €",,Valor Faturado foi inferior,,Não aplicável.,Não aplicável.,FALSE
Suporte para 1 Ano - VU5-PR-STR-G-SSS-C (Pack 10),Ajuste Direto Regime Geral,Aquisição de serviços,"72000000-5, Serviços de TI: consultoria, desenvolvimento de software, Internet e apoio",Centro Hospitalar Psiquiátrico de Lisboa (508338476),"CIL-Centro de Informática, S.A (500809690)","2.351,52 €",26-03-2014,24-01-2014,365 dias,"Portugal, Lisboa, Lisboa","Artigo 20.º, n.º 1, alínea a) do Código dos Contratos Públicos",31-12-2014,"2.351,52 €",,"",,Não aplicável.,Não aplicável.,FALSE
Ligação do Pav. 11 ao Pav. 28 em Fibra Óptica,Ajuste Direto Regime Geral,Aquisição de serviços,"51000000-9, Serviços de instalação (excepto software)",Centro Hospitalar Psiquiátrico de Lisboa (508338476),"CIL - Centro de Informática, S.A (500809690)","8.979,08 €",25-03-2014,13-01-2014,30 dias,"Portugal, Lisboa, Lisboa","Artigo 20.º, n.º 1, alínea a) do Código dos Contratos Públicos",24-02-2014,"8.979,08 €",,"",,Não aplicável.,Não aplicável.,FALSE
Manutenção do Elevador (E 18734) Pav. 28 - Ano 2014,Ajuste Direto Regime Geral,Aquisição de serviços,"50000000-5, Serviços de reparação e manutenção",Centro Hospitalar Psiquiátrico de Lisboa (508338476),"SCHMITT - Elevadores, Lda (500230757)","1.180,56 €",25-03-2014,14-01-2014,365 dias,"Portugal, Lisboa, Lisboa","Artigo 20.º, n.º 1, alínea a) do Código dos Contratos Públicos",31-12-2014,"847,03 €",,Valor Faturado foi inferior,,Não aplicável.,Não aplicável.,FALSE
Switch UPS Rack e Serviços Networking,Ajuste Direto Regime Geral,Aquisição de bens móveis,"30000000-9, Máquinas, equipamento e material de escritório e de informática, excepto mobiliário e pacotes de programas (software)",Centro Hospitalar Psiquiátrico de Lisboa (508338476),CIL - Centro de Informática (500809690),"8.936,77 €",25-03-2014,13-01-2014,15 dias,"Portugal, Lisboa, Lisboa","Artigo 20.º, n.º 1, alínea a) do Código dos Contratos Públicos",16-04-2014,"8.936,77 €",,"",,Não aplicável.,Não aplicável.,FALSE
Limpeza para CHPL Ano 2014,Ajuste Direto Regime Geral,Aquisição de serviços,"90000000-7, Serviços relativos a águas residuais, resíduos, limpeza e ambiente",Centro Hospitalar Psiquiátrico de Lisboa (508338476),"Operandus-Limpeza Profissional, Lda (502771496)","479.898,00 €",24-03-2014,27-01-2014,365 dias,"Portugal, Lisboa, Lisboa","Artigo 27.º, n.º 1, alínea h) do Código dos Contratos Públicos",31-12-2014,"479.898,00 €",,"",,1186199,680005/2014 - Limpeza para CHPL Ano 2014,FALSE
Aquisição de Segurança e Vigilância para o CHPL Ano 2014,Ao abrigo de acordo-quadro (art.º 258.º),Aquisição de serviços,"79000000-4, Serviços a empresas: direito, comercialização, consultoria, recrutamento, impressão e segurança",Centro Hospitalar Psiquiatrico de Lisboa (508338476),PRESTIBEL (501326456),"158.399,04 €",24-03-2014,20-12-2013,365 dias,"Portugal, Lisboa, Lisboa","Artigo 27.º, n.º 1, alínea h) do Código dos Contratos Públicos",31-12-2014,"158.399,04 €",,"",,1169153,680004/2013 - Aquisição de Segurança e Vigilância para o CHPL para Ano 2013,FALSE
Aquisição de Técnico Superior - Outubro e Novembro 2013,Ajuste Direto Regime Geral,Aquisição de serviços,"85000000-9, Serviços de saúde e acção social",Centro Hospitalar Psiquiátrico de Lisboa (508338476),Carla Craveiro Rodrigues (200976222),"2.934,12 €",24-03-2014,28-10-2013,62 dias,"Portugal, Lisboa, Lisboa","Artigo 24.º, n.º 1, alínea c) do Código dos Contratos Públicos",29-11-2013,"2.934,12 €",,"",,Não aplicável.,Não aplicável.,FALSE
"Aquisição de TDT Cardiopneumografia - Outubro, Novembro e Dezembro 2013",Ajuste Direto Regime Geral,Aquisição de serviços,"85000000-9, Serviços de saúde e acção social",Centro Hospitalar Psiquiátrico de Lisboa (508338476),Joana Inês Bexiga Patinha (222759747),"330,87 €",24-03-2014,28-10-2013,93 dias,"Portugal, Lisboa, Lisboa","Artigo 24.º, n.º 1, alínea c) do Código dos Contratos Públicos",31-12-2013,"330,87 €",,"",,Não aplicável.,Não aplicável.,FALSE
"Aquisição de TDT Radiologia - Outubro, Novembro e Dezembro 2013",Ajuste Direto Regime Geral,Aquisição de serviços,"85000000-9, Serviços de saúde e acção social",Centro Hospitalar Psiquiátrico de Lisboa (508338476),João Pedro Fidalgo da Costa (235451460),"1.311,33 €",24-03-2014,28-10-2013,93 dias,"Portugal, Lisboa, Lisboa","Artigo 24.º, n.º 1, alínea c) do Código dos Contratos Públicos",31-12-2013,"1.311,33 €",,"",,Não aplicável.,Não aplicável.,FALSE
"Aquisição de Serviços de TDT Neurofisiologia (30H/semanais) - Outubro, Novembro e Dezembro 2013",Ajuste Direto Regime Geral,Aquisição de serviços,"85000000-9, Serviços de saúde e acção social",Centro Hospitalar Psiquiátrico de Lisboa (508338476),Hugo José Moreira Ferreira (244087490),"3.316,35 €",21-03-2014,28-10-2013,93 dias,"Portugal, Lisboa, Lisboa","Artigo 24.º, n.º 1, alínea c) do Código dos Contratos Públicos",31-12-2013,"3.316,35 €",,"",,Não aplicável.,Não aplicável.,FALSE
