Objeto do Contrato,Tipo de Procedimento,Tipo(s) de Contrato,CPVs,Entidade(s) Adjudicante(s),Entidade(s) Adjudicatária(s),Preço Contratual,Data de Publicação,Data de Celebração do Contrato,Prazo de Execução,Local de Execução,Fundamentação,Data de Fecho do Contrato,Preço Total Efetivo,Causas das Alterações ao Prazo,Causas das Alterações ao Preço,Estado,N.º registo do Acordo Quadro,Descrição do Acordo Quadro,Procedimento Centralizado
Prestação de serviços de manutenção e assistência técnica ao Sistema de Gestão Integrada do Circuito do Medicamento e Materiais - SCICM,Ajuste Direto Regime Geral,Aquisição de serviços,"72000000-5, Serviços de TI: consultoria, desenvolvimento de software, Internet e apoio","Serviço Partilhados do Ministério da Saúde, E. P. E. (509540716)","Glintt - Healthcare Solutions, S.A. (502479418)","148.875,00 €",21-05-2012,08-05-2012,274 dias,"Portugal, Portugal Continental","Artigo 20.º, n.º 1, alínea a) do Código dos Contratos Públicos",,,,,,Não aplicável.,Não aplicável.,
AQUISIÇÃO DE LICENÇAS DE UTILIZAÇÃO DE SOFTWARE PARA CLASSIFICAÇÃO DE DOENTES EM GRUPOS DE DIAGNÓSTICOS HOMOGÉNEOS (GDH),Ajuste Direto Regime Geral,Aquisição de serviços,"72500000-0, Serviços relacionados com a informática","Serviço Partilhados do Ministério da Saúde, E. P. E. (509540716)","SIGESA - Sistemas de Gestão de Saúde (Portugal) Unipessoal, Lda (509661319)","170.000,00 €",21-05-2012,10-02-2012,365 dias,Portugal,"Artigo 20.º, n.º 1, alínea a) do Código dos Contratos Públicos",,,,,,Não aplicável.,Não aplicável.,
Prestação de serviços médicos de anestesiologia,Ajuste Direto Regime Geral,Aquisição de serviços,"79625000-1, Serviços de fornecimento de pessoal médico","Serviço Partilhados do Ministério da Saúde, E. P. E. (509540716)","Fridana Serviçso Médicos, Lda (506974928)","67.500,00 €",18-05-2012,04-05-2012,92 dias,"Portugal, Lisboa, Lisboa","Artigo 24.º, n.º 1, alínea c) do Código dos Contratos Públicos",,,,,,Não aplicável.,Não aplicável.,
PRESTAÇÃO DE SERVIÇOS PARA O DESENVOLVIMENTO DO FORMULÁRIO ELETRÓNICO PARA REQUERIMENTO E RECLAMAÇÃO FINANCEIRA NO PAGAMENTO DE TAXAS MODERADORAS,Ajuste Direto Regime Geral,Aquisição de serviços,"72500000-0, Serviços relacionados com a informática","Serviço Partilhados do Ministério da Saúde, E. P. E. (509540716)",SOFTVENTURE - CONSULTORIA E TECNOLOGIA S.A. (511252277),"43.926,24 €",18-05-2012,04-05-2012,120 dias,Portugal,"Artigo 20.º, n.º 1, alínea a) do Código dos Contratos Públicos",,,,,,Não aplicável.,Não aplicável.,
PRESTAÇÃO DE SERVIÇOS DE HELP-DESK E MANUTENÇÃO DA SOLUÇÃO GESTCARE CCI DA RNCCI,Ajuste Direto Regime Geral,Aquisição de serviços,"72500000-0, Serviços relacionados com a informática","Serviço Partilhados do Ministério da Saúde, E. P. E. (509540716)",CARE4IT  - CONSULTORIA EM TECNOLOGIAS DE INFORMAÇÃO LDA (505959224),"150.000,00 €",18-05-2012,15-05-2012,180 dias,Portugal,"Artigo 20.º, n.º 1, alínea a) do Código dos Contratos Públicos",,,,,,Não aplicável.,Não aplicável.,
CONTRATO DE PRESTAÇÃO DE SERVIÇOS DE CONSULTORIA INFORMÁTICA,Ajuste Direto Regime Geral,Aquisição de serviços,"72500000-0, Serviços relacionados com a informática","Serviço Partilhados do Ministério da Saúde, E. P. E. (509540716)",ALFREDO & SOUSA - INFORMÁTICA LDA (503438030),"37.293,75 €",17-05-2012,27-04-2012,305 dias,Portugal,"Artigo 20.º, n.º 1, alínea a) do Código dos Contratos Públicos",,,,,,Não aplicável.,Não aplicável.,
"AJUSTE DIRETO PARA A PRESTAÇÃO DE SERVIÇOS DE AUDITORIA FINANCEIRA PARA A ADMINISTRAÇÃO REGIONAL DE SAÚDE DE LISBOA E VALE DO TEJO IP, CENTRO HOSPITALAR DE LISBOA ORIENTAL EPE, CENTRO HOSPITALAR DE LISBOA CENTRAL EPE E HOSPITAL GARCIA D’ORTA EPE",Ajuste Direto Regime Geral,Aquisição de serviços,"79212100-4, Serviços de auditoria financeira","Serviço Partilhados do Ministério da Saúde, E. P. E. (509540716)",KPMG & ASSOCIADOS - SOCIEDADE DE REVISORES OFICIAIS DE CONTAS S.A (502161078),"98.000,00 €",16-05-2012,04-05-2012,60 dias,Portugal,"Artigo 20.º, n.º 1, alínea a) do Código dos Contratos Públicos",,,,,,Não aplicável.,Não aplicável.,
AJUSTE DIRETO PARA AQUISIÇÃO DE SERVIÇOS PARA A CONCEÇÃO E ELABORAÇÃO DE SIMULADOR DE ANÁLISE À ESTRUTURA REMUNERATÓRIA DOS PROFISSIONAIS MÉDICOS,Ajuste Direto Regime Geral,Aquisição de serviços,"72000000-5, Serviços de TI: consultoria, desenvolvimento de software, Internet e apoio","Serviço Partilhados do Ministério da Saúde, E. P. E. (509540716)","DELOITTE CONSULTORES, SA (502310090)","21.500,00 €",15-05-2012,07-05-2012,35 dias,Portugal,"Artigo 20.º, n.º 1, alínea a) do Código dos Contratos Públicos",,,,,,Não aplicável.,Não aplicável.,
Prestação de serviços de gestão e administração dos sistemas e base de dados do SONHO V2 e apoio ao projecto de consolidação das bases de dados dos ACES,Ajuste Direto Regime Geral,Aquisição de serviços,"72000000-5, Serviços de TI: consultoria, desenvolvimento de software, Internet e apoio","Serviço Partilhados do Ministério da Saúde, E. P. E. (509540716)","ORAMIX - Sistemas de Informação, S.A. (504448382)","199.870,00 €",15-05-2012,09-05-2012,274 dias,"Portugal, Portugal Continental","Artigo 20.º, n.º 1, alínea a) do Código dos Contratos Públicos",,,,,,Não aplicável.,Não aplicável.,
Prestação de serviços de manutenção e assistência técnica das infraestruturas de suporte ao Datacenter do ministério da Saúde,Ajuste Direto Regime Geral,Aquisição de serviços,"72500000-0, Serviços relacionados com a informática","Serviço Partilhados do Ministério da Saúde, E. P. E. (509540716)","Prologica - Sistemas Informáticos, S.A. (501432507)","19.733,36 €",11-05-2012,08-05-2012,244 dias,"Portugal, Portugal Continental","Artigo 20.º, n.º 1, alínea a) do Código dos Contratos Públicos",,,,,,Não aplicável.,Não aplicável.,
AQUISIÇÃO DE UMA SOLUÇÃO ANTIVIRUS E ANTI-SPAM PARA SPMS,Ajuste Direto Regime Geral,Aquisição de bens móveis<br/>Aquisição de serviços,"72500000-0, Serviços relacionados com a informática","Serviço Partilhados do Ministério da Saúde, E. P. E. (509540716)","COMPANHIA IBM PORTUGUESA, S.A. (500068801)","42.453,43 €",11-05-2012,08-05-2012,244 dias,"Portugal, Lisboa, Lisboa","Artigo 20.º, n.º 1, alínea a) do Código dos Contratos Públicos",,,,,,Não aplicável.,Não aplicável.,
