Objeto do Contrato,Tipo de Procedimento,Tipo(s) de Contrato,CPVs,Entidade(s) Adjudicante(s),Entidade(s) Adjudicatária(s),Preço Contratual,Data de Publicação,Data de Celebração do Contrato,Prazo de Execução,Local de Execução,Fundamentação,Data de Fecho do Contrato,Preço Total Efetivo,Causas das Alterações ao Prazo,Causas das Alterações ao Preço,Estado,N.º registo do Acordo Quadro,Descrição do Acordo Quadro,Procedimento Centralizado
- A5280 - Acetato de Galtiramero (40 Mg/Ml; Sol. Inj. Seringa); - D208 - Doxorrubicina Lipossomica pó veiculo p/ susp. inj. 50 Mg frs; - V88 - Vincristina sol. inj. (1 Mg/Ml; 20 Ml; Frs),Ao abrigo de acordo-quadro (art.º 259.º),Aquisição de bens móveis,"33652000-5, Antineoplásicos e imunomoduladores","Hospital Distrital da Figueira da Foz, E. P. E. (506361527)","TEVA PHARMA - PRODUTOS FARMACEUTICOS,LDA           (507045491)","21.277,38 €",20-10-2017,27-03-2017,365 dias,"Portugal, Coimbra, Figueira da Foz",Artigo 259.º do Código dos Contratos Públicos,,,,,,1771819,CP 2015/6 - Acordo quadro para o fornecimento de Medicamentos do Foro Oncológico,FALSE
C186 - CICLOFOSFAMIDA (50 MG; CÁP/COMP.),Ao abrigo de acordo-quadro (art.º 259.º),Aquisição de bens móveis,"33652000-5, Antineoplásicos e imunomoduladores","Hospital Distrital da Figueira da Foz, E. P. E. (506361527)",BAXTER MEDICO FARMACEUTICA LDA (503347345),"58,24 €",19-10-2017,21-09-2017,365 dias,"Portugal, Coimbra, Figueira da Foz",Artigo 259.º do Código dos Contratos Públicos,,,,,,1771819,CP 2015/6 - Acordo quadro para o fornecimento de Medicamentos do Foro Oncológico,FALSE
"G215 - GOLIMUMAB (50 MG/0,5 ML; SOL. INJ.; CANETA/SERINGA)",Ao abrigo de acordo-quadro (art.º 259.º),Aquisição de bens móveis,"33652000-5, Antineoplásicos e imunomoduladores","Hospital Distrital da Figueira da Foz, E. P. E. (506361527)",MERCK SHARP DOHME                                  (500191360),"50.375,00 €",18-10-2017,17-03-2017,365 dias,"Portugal, Coimbra, Figueira da Foz",Artigo 259.º do Código dos Contratos Públicos,,,,,,1771819,CP 2015/6 - Acordo quadro para o fornecimento de Medicamentos do Foro Oncológico,FALSE
"I946 - Interferão Beta 1A (12 MUI/Ml; 1,5 Ml; Cartucho); I948 - Interferão Beta 1A (24 MUI/Ml; 1,5 Ml; Cartucho);",Ao abrigo de acordo-quadro (art.º 259.º),Aquisição de bens móveis,"33652000-5, Antineoplásicos e imunomoduladores","Hospital Distrital da Figueira da Foz, E. P. E. (506361527)","Merck, SA. (500650870)","47.320,23 €",18-10-2017,17-05-2017,365 dias,"Portugal, Coimbra, Figueira da Foz",Artigo 259.º do Código dos Contratos Públicos,,,,,,1771819,CP 2015/6 - Acordo quadro para o fornecimento de Medicamentos do Foro Oncológico,FALSE
A5249 - AFLIBERCEPT (40 MG/ML; SOL. INJ.; FRS),Ao abrigo de acordo-quadro (art.º 259.º),Aquisição de bens móveis,"33652000-5, Antineoplásicos e imunomoduladores","Hospital Distrital da Figueira da Foz, E. P. E. (506361527)","Bayer Portugal, Lda. (500043256)","47.769,60 €",17-10-2017,22-08-2017,365 dias,"Portugal, Coimbra, Figueira da Foz",Artigo 259.º do Código dos Contratos Públicos,,,,,,1771819,CP 2015/6 - Acordo quadro para o fornecimento de Medicamentos do Foro Oncológico,FALSE
B-325 - Bevacizumab 25 Mg/Ml 100 Mg/4 Ml; Conc. p/ a sol. p/ a perfusão; Frs; B-326 - Bevacizumab 25 Mg/Ml 400 Mg/16 Ml; Conc. p/ a sol. p/ a perfusão; Frs; T1238 - Trastuzumab (600 Mg/5 Ml; Sol. Inj.; SC; Frs),Ao abrigo de acordo-quadro (art.º 259.º),Aquisição de bens móveis,"33652000-5, Antineoplásicos e imunomoduladores","Hospital Distrital da Figueira da Foz, E. P. E. (506361527)",ROCHE FARMACEUTICA QUIMICA LDA (500233810),"45.406,55 €",12-10-2017,31-05-2017,365 dias,"Portugal, Coimbra, Figueira da Foz",Artigo 259.º do Código dos Contratos Públicos,,,,,,1771819,CP 2015/6 - Acordo quadro para o fornecimento de Medicamentos do Foro Oncológico,FALSE
