Objeto do Contrato,Tipo de Procedimento,Tipo(s) de Contrato,CPVs,Entidade(s) Adjudicante(s),Entidade(s) Adjudicatária(s),Preço Contratual,Data de Publicação,Data de Celebração do Contrato,Prazo de Execução,Local de Execução,Fundamentação,Data de Fecho do Contrato,Preço Total Efetivo,Causas das Alterações ao Prazo,Causas das Alterações ao Preço,Estado,N.º registo do Acordo Quadro,Descrição do Acordo Quadro,Procedimento Centralizado
Aquisição de reagentes para PNAEQ,Ajuste Direto Regime Geral,Aquisição de bens móveis,"33696500-0, Reagentes de laboratório",Instituto Nacional de Saúde Dr.Ricardo Jorge(INSA) (501427511),"Irlandox- Laboratórios de Quimicos Analiticos, Lda (502515619)","3.447,40 €",13-03-2015,16-02-2015,90 dias,"Portugal, Lisboa, Lisboa","Artigo 24.º, n.º 1, alínea e) do Código dos Contratos Públicos",,,,,,Não aplicável.,Não aplicável.,FALSE
Aquisição de prestação de serviços para fins exclusivos de investigação projeto BioFig,Ajuste Direto Regime Geral,Aquisição de serviços,"72500000-0, Serviços relacionados com a informática","Instituto Nacional de Saúde Dr. Ricardo Jorge, I. P. (501427511)",Fundação Calouste Gulbenkian (500745684),"3.981,23 €",10-03-2015,10-02-2015,90 dias,"Portugal, Lisboa, Lisboa","Artigo 26.º, n.º 1, alínea b) do Código dos Contratos Públicos",,,,,,Não aplicável.,Não aplicável.,FALSE
Aquisiçao de serviços para fins exclusivos de investigação Pojeto e-COR,Ajuste Direto Regime Geral,Aquisição de serviços,"73210000-7, Serviços de consultoria em matéria de investigação","Instituto Nacional de Saúde Dr. Ricardo Jorge, I. P. (501427511)",EpiSystem Consultores de saúde pública (509351700),"4.950,00 €",10-03-2015,30-12-2014,90 dias,"Portugal, Lisboa, Lisboa","Artigo 26.º, n.º 1, alínea b) do Código dos Contratos Públicos",,,,,,Não aplicável.,Não aplicável.,FALSE
Reagentes para Fibrose quistica,Ajuste Direto Regime Geral,Aquisição de bens móveis,"33696500-0, Reagentes de laboratório",Instituto Nacional de Saúde Dr.Ricardo Jorge(INSA) (501427511),"ILC - Instrumentos de Laboratório e Cientificos, Lda (500948208)","21.600,00 €",10-03-2015,22-12-2014,90 dias,"Portugal, Lisboa, Lisboa","Artigo 26.º, n.º 1, alínea a) do Código dos Contratos Públicos",,,,,,Não aplicável.,Não aplicável.,FALSE
Equipamento de descontaminação biológica,Concurso público,Aquisição de bens móveis,"38000000-5, Equipamento laboratorial, óptico e de precisão (exc. óculos)","Instituto Nacional de Saúde Dr. Ricardo Jorge, I. P. (501427511)","VWR Internacional, Lda (503842770)","29.040,00 €",09-03-2015,29-12-2014,90 dias,"Portugal, Porto, Porto<BR/>Portugal, Lisboa, Lisboa<BR/>Portugal, Setúbal, Setúbal","Artigo 20.º, n.º 1, alínea b) do Código dos Contratos Públicos",,,,,,Não aplicável.,Não aplicável.,FALSE
Equipamento de descontaminação biológica,Concurso público,Aquisição de bens móveis,"38000000-5, Equipamento laboratorial, óptico e de precisão (exc. óculos)","Instituto Nacional de Saúde Dr. Ricardo Jorge, I. P. (501427511)",Dias de Sousa SA (504080857),"47.500,00 €",09-03-2015,29-12-2014,90 dias,"Portugal, Lisboa, Lisboa<BR/>Portugal, Porto, Porto<BR/>Portugal, Setúbal, Setúbal","Artigo 20.º, n.º 1, alínea b) do Código dos Contratos Públicos",,,,,,Não aplicável.,Não aplicável.,FALSE
"Aquisição de material cromatografia, filtração e protecção",Ajuste Direto Regime Geral,Aquisição de bens móveis,"33140000-3, Material médico de consumo",Instituto Nacional de Saúde Dr.Ricardo Jorge(INSA) (501427511),"Interface - Equipamento e Técnica, Lda (501379860)","935,02 €",09-03-2015,12-12-2014,90 dias,"Portugal, Lisboa, Lisboa<BR/>Portugal, Porto, Porto<BR/>Portugal, Setúbal, Setúbal","Artigo 20.º, n.º 1, alínea a) do Código dos Contratos Públicos",,,,,,Não aplicável.,Não aplicável.,FALSE
"Aquisição de material cromatografia, filtração e protecção",Ajuste Direto Regime Geral,Aquisição de bens móveis,"33140000-3, Material médico de consumo",Instituto Nacional de Saúde Dr.Ricardo Jorge(INSA) (501427511),"VWR Internacional, Lda (503842770)","1.626,40 €",09-03-2015,12-12-2014,90 dias,"Portugal, Setúbal, Setúbal<BR/>Portugal, Lisboa, Lisboa<BR/>Portugal, Porto, Porto","Artigo 20.º, n.º 1, alínea a) do Código dos Contratos Públicos",,,,,,Não aplicável.,Não aplicável.,FALSE
"Aquisição de material cromatografia, filtração e protecção",Ajuste Direto Regime Geral,Aquisição de bens móveis,"33140000-3, Material médico de consumo",Instituto Nacional de Saúde Dr.Ricardo Jorge(INSA) (501427511),UNICAM - Sistemas AnaliticosLda (502614625),"4.839,40 €",09-03-2015,12-12-2014,90 dias,"Portugal, Porto, Porto<BR/>Portugal, Setúbal, Setúbal<BR/>Portugal, Lisboa, Lisboa","Artigo 20.º, n.º 1, alínea a) do Código dos Contratos Públicos",,,,,,Não aplicável.,Não aplicável.,FALSE
"Aquisição de material cromatografia, filtração e protecção",Ajuste Direto Regime Geral,Aquisição de bens móveis,"33140000-3, Material médico de consumo",Instituto Nacional de Saúde Dr.Ricardo Jorge(INSA) (501427511),"Dimor Lusitana, Lda (500730741)","512,50 €",09-03-2015,12-12-2014,90 dias,"Portugal, Setúbal, Setúbal<BR/>Portugal, Porto, Porto<BR/>Portugal, Lisboa, Lisboa","Artigo 20.º, n.º 1, alínea a) do Código dos Contratos Públicos",,,,,,Não aplicável.,Não aplicável.,FALSE
"Aquisição de material cromatografia, filtração e protecção",Ajuste Direto Regime Geral,Aquisição de bens móveis,"33140000-3, Material médico de consumo",Instituto Nacional de Saúde Dr.Ricardo Jorge(INSA) (501427511),"Frilabo II, Lda (507958861)","2.086,68 €",09-03-2015,12-12-2014,90 dias,"Portugal, Lisboa, Lisboa<BR/>Portugal, Setúbal, Setúbal<BR/>Portugal, Porto, Porto","Artigo 20.º, n.º 1, alínea a) do Código dos Contratos Públicos",,,,,,Não aplicável.,Não aplicável.,FALSE
"Aquisição de material cromatografia, filtração e protecção",Ajuste Direto Regime Geral,Aquisição de bens móveis,"33140000-3, Material médico de consumo",Instituto Nacional de Saúde Dr.Ricardo Jorge(INSA) (501427511),"EZEQUIEL PANÃO JORGE, LDA (501412727)","811,84 €",09-03-2015,12-12-2014,90 dias,"Portugal, Setúbal, Setúbal<BR/>Portugal, Lisboa, Lisboa<BR/>Portugal, Porto, Porto","Artigo 20.º, n.º 1, alínea a) do Código dos Contratos Públicos",,,,,,Não aplicável.,Não aplicável.,FALSE
Aquisição de material de consumo administrativo,Ajuste Direto Regime Geral,Aquisição de bens móveis,"31000000-6, Maquinaria, aparelhagem, equipamento e consumíveis eléctricos; iluminação","Instituto Nacional de Saúde Dr. Ricardo Jorge, I. P. (501427511)","Alfagene Novas Tecnologias das Ciencias da Vida, Lda (503387398)","3.000,00 €",09-03-2015,18-11-2014,90 dias,"Portugal, Lisboa, Lisboa","Artigo 20.º, n.º 1, alínea a) do Código dos Contratos Públicos",,,,,,Não aplicável.,Não aplicável.,FALSE
Aquisição de material de consumo administrativo,Ajuste Direto Regime Geral,Aquisição de bens móveis,"31000000-6, Maquinaria, aparelhagem, equipamento e consumíveis eléctricos; iluminação","Instituto Nacional de Saúde Dr. Ricardo Jorge, I. P. (501427511)","A.J.Costa (Irmãos), Lda (500002576)","25,00 €",09-03-2015,18-11-2014,90 dias,"Portugal, Lisboa, Lisboa","Artigo 20.º, n.º 1, alínea a) do Código dos Contratos Públicos",,,,,,Não aplicável.,Não aplicável.,FALSE
Amostras para a LGC,Ajuste Direto Regime Geral,Aquisição de serviços,"73200000-4, Serviços de consultoria em matéria de investigação e desenvolvimento","Instituto Nacional de Saúde Dr. Ricardo Jorge, I. P. (501427511)",FEI Europe B.V (W0032378B),"122,62 €",09-03-2015,23-12-2014,30 dias,"Portugal, Lisboa, Lisboa","Artigo 26.º, n.º 1, alínea a) do Código dos Contratos Públicos",,,,,,Não aplicável.,Não aplicável.,FALSE
Aquisição de material de consumo administrativo,Ajuste Direto Regime Geral,Aquisição de bens móveis,"30100000-0, Máquinas, equipamento e material de escritório, excepto computadores, impressoras e mobiliário","Instituto Nacional de Saúde Dr. Ricardo Jorge, I. P. (501427511)","Biomerieux Portugal, Lda (501524177)","192,50 €",09-03-2015,18-11-2014,90 dias,"Portugal, Lisboa, Lisboa","Artigo 20.º, n.º 1, alínea a) do Código dos Contratos Públicos",,,,,,Não aplicável.,Não aplicável.,FALSE
Aquisição de acessorio de microscópio,Ajuste Direto Regime Geral,Aquisição de bens móveis,"38510000-3, Microscópios","Instituto Nacional de Saúde Dr. Ricardo Jorge, I. P. (501427511)",FEI Europe BV  (W0032378B),"186,00 €",06-03-2015,27-06-2014,90 dias,"Portugal, Lisboa, Lisboa","Artigo 24.º, n.º 1, alínea e) do Código dos Contratos Públicos",,,,,,Não aplicável.,Não aplicável.,FALSE
Aquisiç~qo linhas celulares,Ajuste Direto Regime Geral,Aquisição de bens móveis,"24300000-7, Produtos químicos orgânicos e inorgânicos de base","Instituto Nacional de Saúde Dr. Ricardo Jorge, I. P. (501427511)",Sgma Aldrich (980148820),"1.168,50 €",05-03-2015,17-12-2014,90 dias,"Portugal, Lisboa, Lisboa","Artigo 20.º, n.º 1, alínea a) do Código dos Contratos Públicos",,,,,,Não aplicável.,Não aplicável.,FALSE
Aquisição de reagentes para AEQ,Ajuste Direto Regime Geral,Aquisição de bens móveis,"33696500-0, Reagentes de laboratório",Instituto Nacional de Saúde Dr.Ricardo Jorge(INSA) (501427511),"Irlandox- Laboratórios de Quimica Analítica, Lda (502515619)","2.296,19 €",04-03-2015,27-01-2015,90 dias,"Portugal, Lisboa, Lisboa","Artigo 24.º, n.º 1, alínea e) do Código dos Contratos Públicos",,,,,,Não aplicável.,Não aplicável.,FALSE
Aquisição de amostras para o programa AEQ-PNAEQ,Ajuste Direto Regime Geral,Aquisição de bens móveis,"33140000-3, Material médico de consumo","Instituto Nacional de Saúde Dr. Ricardo Jorge, I. P. (501427511)",Thermo Fisher Scientific Inc. (74-2951231),"1.502,11 €",04-03-2015,05-02-2015,90 dias,"Portugal, Lisboa, Lisboa","Artigo 24.º, n.º 1, alínea e) do Código dos Contratos Públicos",,,,,,Não aplicável.,Não aplicável.,FALSE
Aquisição de amostras para o programa PNAEQ,Ajuste Direto Regime Geral,Aquisição de bens móveis,"33140000-3, Material médico de consumo","Instituto Nacional de Saúde Dr. Ricardo Jorge, I. P. (501427511)",Institute of Bioanalytics (RFB) (DE231466924),"3.605,00 €",04-03-2015,06-02-2015,90 dias,"Portugal, Lisboa, Lisboa","Artigo 24.º, n.º 1, alínea e) do Código dos Contratos Públicos",,,,,,Não aplicável.,Não aplicável.,FALSE
Aquisição de amostras para o programa PNAEQ,Ajuste Direto Regime Geral,Aquisição de bens móveis,"33140000-3, Material médico de consumo","Instituto Nacional de Saúde Dr. Ricardo Jorge, I. P. (501427511)","I,MCA laboratory (3846039)","2.025,00 €",04-03-2015,09-02-2015,90 dias,"Portugal, Lisboa, Lisboa","Artigo 24.º, n.º 1, alínea e) do Código dos Contratos Públicos",,,,,,Não aplicável.,Não aplicável.,FALSE
Aquisição de reagentes para PNAEQ,Ajuste Direto Regime Geral,Aquisição de bens móveis,"33696500-0, Reagentes de laboratório",Instituto Nacional de Saúde Dr.Ricardo Jorge(INSA) (501427511),"Bio-Rad Laboratories, Lda (501301321)","4.881,50 €",04-03-2015,10-02-2015,90 dias,"Portugal, Lisboa, Lisboa","Artigo 24.º, n.º 1, alínea e) do Código dos Contratos Públicos",,,,,,Não aplicável.,Não aplicável.,FALSE
Aquisição de reagentes ao estrangeiro,Ajuste Direto Regime Geral,Aquisição de bens móveis,"33140000-3, Material médico de consumo","Instituto Nacional de Saúde Dr. Ricardo Jorge, I. P. (501427511)",Schircks Laboratories (CHE107.504.845),"398,45 €",04-03-2015,28-01-2015,90 dias,"Portugal, Lisboa, Lisboa","Artigo 24.º, n.º 1, alínea e) do Código dos Contratos Públicos",,,,,,Não aplicável.,Não aplicável.,FALSE
Aquisição de reagentes ao estrageiro,Ajuste Direto Regime Geral,Aquisição de bens móveis,"33140000-3, Material médico de consumo","Instituto Nacional de Saúde Dr. Ricardo Jorge, I. P. (501427511)",Science services GmbH (129456394),"137,90 €",04-03-2015,29-01-2015,90 dias,"Portugal, Lisboa, Lisboa","Artigo 24.º, n.º 1, alínea e) do Código dos Contratos Públicos",,,,,,Não aplicável.,Não aplicável.,FALSE
Aquisição de reagentes ao estrageiro,Ajuste Direto Regime Geral,Aquisição de bens móveis,"33140000-3, Material médico de consumo","Instituto Nacional de Saúde Dr. Ricardo Jorge, I. P. (501427511)",Carote natura (CHE-101.151.197),"262,73 €",04-03-2015,11-02-2015,90 dias,"Portugal, Lisboa, Lisboa","Artigo 24.º, n.º 1, alínea c) do Código dos Contratos Públicos",,,,,,Não aplicável.,Não aplicável.,FALSE
Aquisição de reagentes ao estrangeiro,Ajuste Direto Regime Geral,Aquisição de bens móveis,"33140000-3, Material médico de consumo","Instituto Nacional de Saúde Dr. Ricardo Jorge, I. P. (501427511)",Inorganic Ventures (Va24703),"92,39 €",04-03-2015,09-02-2015,90 dias,"Portugal, Lisboa, Lisboa","Artigo 24.º, n.º 1, alínea c) do Código dos Contratos Públicos",,,,,,Não aplicável.,Não aplicável.,FALSE
