Objeto do Contrato,Tipo de Procedimento,Tipo(s) de Contrato,CPVs,Entidade(s) Adjudicante(s),Entidade(s) Adjudicatária(s),Preço Contratual,Data de Publicação,Data de Celebração do Contrato,Prazo de Execução,Local de Execução,Fundamentação,Data de Fecho do Contrato,Preço Total Efetivo,Causas das Alterações ao Prazo,Causas das Alterações ao Preço,Estado,N.º registo do Acordo Quadro,Descrição do Acordo Quadro,Procedimento Centralizado
Empreitada de ampliação da unidade centralizada de quimioterapia - Farmácia,Consulta Prévia,Empreitadas de obras públicas,"45454000-4, Obras de reestruturação","IPO Porto FG, EPE (506362299)","Modus Complete, Lda (514110643)","39.500,00 €",07-02-2019,15-01-2019,60 dias,"Portugal, Porto, Porto","Artigo 19.º, alínea c) do Código dos Contratos Públicos",,,,,,Não aplicável.,Não aplicável.,FALSE
Colocação de pavimento vinílico na farmácia - Ensaios clínicos e UCQ,Consulta Prévia,Empreitadas de obras públicas,"45432111-5, Colocação de revestimentos flexíveis em solos","IPO Porto FG, EPE (506362299)",REVINOBRE (502674318),"10.945,00 €",07-02-2019,08-10-2018,60 dias,"Portugal, Porto, Porto","Artigo 20.º, n.º 1, alínea c) do Código dos Contratos Públicos",,,,,,Não aplicável.,Não aplicável.,FALSE
"Empreitada de ampliação da farmácia, ensaios clínicos - Divisórias",Consulta Prévia,Empreitadas de obras públicas,"45454000-4, Obras de reestruturação","IPO Porto FG, EPE (506362299)","Decotirso - Decorações, Lda. (502462043)","16.146,39 €",07-02-2019,14-09-2018,60 dias,"Portugal, Porto, Porto","Artigo 20.º, n.º 1, alínea c) do Código dos Contratos Públicos",,,,,,Não aplicável.,Não aplicável.,FALSE
Fase 3 das candidaturas ao POSEUR,Ajuste Direto Regime Geral,Aquisição de serviços,"73200000-4, Serviços de consultoria em matéria de investigação e desenvolvimento","IPO Porto FG, EPE (506362299)","Deloitte Consultores, S.A. (502310090)","18.000,00 €",07-02-2019,30-11-2018,270 dias,"Portugal, Porto, Porto","Artigo 20.º, n.º 1, alínea d) do Código dos Contratos Públicos",,,,,,Não aplicável.,Não aplicável.,FALSE
ADCM 0051/19: CAT a equipamento Drager,Ajuste Direto Regime Geral,Aquisição de serviços,"71356200-0, Serviços de assistência técnica","Instituto Português de Oncologia do Porto Francisco Gentil, E. P. E. (506362299)",DRAGER PORTUGAL (508771323),"12.461,58 €",06-02-2019,14-11-2018,365 dias,"Portugal, Porto, Porto","Artigo 24.º, n.º 1, alínea e), subalínea ii) do Código dos Contratos Públicos",,,,,,Não aplicável.,Não aplicável.,FALSE
AD 0106/19 Recolha de resíduos valorizáveis,Ajuste Direto Regime Geral,Aquisição de serviços,"90500000-2, Serviços relativos a resíduos e lixos","Instituto Português de Oncologia do Porto Francisco Gentil, E. P. E. (506362299)",Rduz Gestão Global de Residuos Sa (507225740),"20.079,16 €",06-02-2019,09-01-2019,365 dias,"Portugal, Porto, Porto","Artigo 24.º, n.º 1, alínea a) do Código dos Contratos Públicos",,,,,,Não aplicável.,Não aplicável.,FALSE
Prestação de serviços de Catering da III conferência de enfermagem do IPO's,Ajuste Direto Regime Geral,Aquisição de serviços,"55330000-2, Serviços de cafetaria","Instituto Português de Oncologia do Porto Francisco Gentil, E. P. E. (506362299)",Powerwizard Unipessoal Lda  (510714307),"8.255,00 €",06-02-2019,05-02-2019,1 dias,"Portugal, Porto, Porto","Artigo 20.º, n.º 1, alínea d) do Código dos Contratos Públicos",,,,,,Não aplicável.,Não aplicável.,FALSE
CP 0003/19: Recolha de resíduos urbanos e valorizáveis,Concurso público,Aquisição de serviços,"90511000-2, Serviços de recolha de resíduos","IPO Porto FG, EPE (506362299)","Recolte - Serviços e Meio Ambiente, SA (503505390)","32.800,38 €",06-02-2019,02-01-2019,365 dias,Portugal,"Artigo 20.º, n.º 1, alínea b) do Código dos Contratos Públicos",,,,,,Não aplicável.,Não aplicável.,FALSE
ADCM 0072/19 Manutenção a equipamento de anatomia patológica Leica 2019,Ajuste Direto Regime Geral,Aquisição de serviços,"71356200-0, Serviços de assistência técnica","IPO Porto FG, EPE (506362299)","LEICA MICROSSISTEMAS,LDA. (500301921)","13.374,63 €",06-02-2019,23-01-2019,365 dias,"Portugal, Porto, Porto","Artigo 20.º, n.º 1, alínea d) do Código dos Contratos Públicos",,,,,,Não aplicável.,Não aplicável.,FALSE
AD 0086/19: Controlo do teor residual de Gases 2019,Ajuste Direto Regime Geral,Aquisição de serviços,"71700000-5, Serviços de controlo e monitorização","IPO Porto FG, EPE (506362299)",Serviço de Utilização Comum dos Hospitais (500900469),"12.839,04 €",06-02-2019,23-01-2019,365 dias,"Portugal, Porto, Porto","Artigo 20.º, n.º 1, alínea d) do Código dos Contratos Públicos",,,,,,Não aplicável.,Não aplicável.,FALSE
AD 0027/19: Prestação de serviços de medicina no trabalho,Ajuste Direto Regime Geral,Aquisição de serviços,"85147000-1, Serviços de medicina do trabalho","Instituto Português de Oncologia do Porto Francisco Gentil, E. P. E. (506362299)","Fátima Fernandes Graça, Serviços Médicos Unipessoal, Lda.  (514217839)","18.720,00 €",06-02-2019,02-01-2019,365 dias,"Portugal, Porto, Porto","Artigo 20.º, n.º 1, alínea d) do Código dos Contratos Públicos",,,,,,Não aplicável.,Não aplicável.,FALSE
CPI 0001/19 Seguro de Acidentes de Trabalho 2019,Concurso público,Aquisição de serviços,"66510000-8, Serviços de seguros","IPO Porto FG, EPE (506362299)","COSTA DUARTE – Corretor de Seguros, SA  (503976555)","283.250,74 €",06-02-2019,08-11-2018,365 dias,Portugal,"Artigo 20.º, n.º 1, alínea a) do Código dos Contratos Públicos",,,,,,Não aplicável.,Não aplicável.,FALSE
AC 0125/19 Fornecimento de eletricidade em 2019,Ao abrigo de acordo-quadro (art.º 259.º),Aquisição de bens móveis,"09300000-2, Electricidade, aquecimento, energia solar e nuclear","Instituto Português de Oncologia do Porto Francisco Gentil, E. P. E. (506362299)","Iberdrola Clientes Portugal, Unipessoal, Lda (502124083)","1.539.093,16 €",06-02-2019,01-01-2019,365 dias,"Portugal, Porto, Porto",Artigo 259.º do Código dos Contratos Públicos,,,,,,1494502,Acordo quadro para o fornecimento de eletricidade em regime de mercado livre para Portugal Continental,FALSE
ADCM 0052/19 Manutenção a equipamento Canon Medical 2019,Ajuste Direto Regime Geral,Aquisição de serviços,"71356200-0, Serviços de assistência técnica","Instituto Português de Oncologia do Porto Francisco Gentil, E. P. E. (506362299)","CANON MEDICAL SYSTEMS, S.A.-REPRESENTAÇAO PERMANENTE (980023700)","140.315,36 €",06-02-2019,09-01-2019,365 dias,Portugal,"Artigo 24.º, n.º 1, alínea e), subalínea ii) do Código dos Contratos Públicos",,,,,,Não aplicável.,Não aplicável.,FALSE
Assistência técnica a diverso hardware em 2019,Concurso público,Aquisição de serviços,"72611000-6, Serviços de assistência técnica informática","Instituto Português de Oncologia do Porto Francisco Gentil, E. P. E. (506362299)","Gonksys, S.A (510874169)","35.030,82 €",06-02-2019,11-01-2019,365 dias,Portugal,"Artigo 20.º, n.º 1, alínea b) do Código dos Contratos Públicos",,,,,,Não aplicável.,Não aplicável.,FALSE
Assistência técnica a equipamentos Siemens em 2019,Ajuste Direto Regime Geral,Aquisição de serviços,"71356200-0, Serviços de assistência técnica","Instituto Português de Oncologia do Porto Francisco Gentil, E. P. E. (506362299)","Siemens Healthcare, Lda. (507925173)","53.927,11 €",06-02-2019,02-01-2019,365 dias,Portugal,"Artigo 24.º, n.º 1, alínea e), subalínea ii) do Código dos Contratos Públicos",,,,,,Não aplicável.,Não aplicável.,FALSE
Aquisição de licenças antivírus e serviços de upgrade.,Consulta Prévia,Aquisição de bens móveis,"48760000-3, Pacote de software para protecção antivírus","Instituto Português de Oncologia do Porto Francisco Gentil, E. P. E. (506362299)","A2ITwb - Tecnologia, SA (510688268)","14.395,22 €",06-02-2019,09-01-2019,365 dias,Portugal,"Artigo 20.º, n.º 1, alínea c) do Código dos Contratos Públicos",,,,,,Não aplicável.,Não aplicável.,FALSE
AD 0078/19 Serviços de codificação 2019,Ajuste Direto Regime Geral,Aquisição de serviços,"85140000-2, Serviços de saúde diversos","Instituto Português de Oncologia do Porto Francisco Gentil, E. P. E. (506362299)",Vera Lúcia Ferreira - Serviços Médicos Lda.  (513832190),"19.995,00 €",06-02-2019,23-01-2019,365 dias,"Portugal, Porto, Porto","Artigo 20.º, n.º 1, alínea d) do Código dos Contratos Públicos",,,,,,Não aplicável.,Não aplicável.,FALSE
CP 0065/19 Manutenção a hardware 2019,Ajuste Direto Regime Geral,Aquisição de serviços,"72611000-6, Serviços de assistência técnica informática","Instituto Português de Oncologia do Porto Francisco Gentil, E. P. E. (506362299)","Pamafe Informática, Lda (504099388)","16.975,00 €",06-02-2019,09-01-2019,365 dias,"Portugal, Porto, Porto","Artigo 24.º, n.º 1, alínea a) do Código dos Contratos Públicos",,,,,,Não aplicável.,Não aplicável.,FALSE
ADCM 0011/19 Manutenção ao equipamento BD FACS Canto 2L,Ajuste Direto Regime Geral,Aquisição de serviços,"50400000-9, Serviços de reparação e manutenção de equipamento médico e de precisão","Instituto Português de Oncologia do Porto Francisco Gentil, E. P. E. (506362299)","Enzifarma-Diagnostica e Farmaceutica, SA (503636975)","15.000,00 €",06-02-2019,14-11-2018,365 dias,"Portugal, Porto, Porto","Artigo 24.º, n.º 1, alínea e), subalínea ii) do Código dos Contratos Públicos",,,,,,Não aplicável.,Não aplicável.,FALSE
ADCM 0006/19 Manutenção a equipamento Varian,Ajuste Direto Regime Geral,Aquisição de serviços,"71356200-0, Serviços de assistência técnica","Instituto Português de Oncologia do Porto Francisco Gentil, E. P. E. (506362299)",VARIAN MEDICAL SYTEMS IBÉRICA SUCURSAL EM PORTUGAL (980236436),"1.320.645,30 €",06-02-2019,09-01-2019,365 dias,"Portugal, Porto, Porto","Artigo 24.º, n.º 1, alínea e), subalínea ii) do Código dos Contratos Públicos",,,,,,Não aplicável.,Não aplicável.,FALSE
ADCM 0049/19 Manutenção a Chillers Carrier 2019,Ajuste Direto Regime Geral,Aquisição de serviços,"71356200-0, Serviços de assistência técnica","Instituto Português de Oncologia do Porto Francisco Gentil, E. P. E. (506362299)","CARRIER PORTUGAL,LDA. (502949112)","5.020,00 €",05-02-2019,07-11-2018,365 dias,"Portugal, Porto, Porto","Artigo 24.º, n.º 1, alínea e), subalínea ii) do Código dos Contratos Públicos",,,,,,Não aplicável.,Não aplicável.,FALSE
ADCM 0030/19: Licenciamento do sistema de controlo de assiduidade 2019,Ajuste Direto Regime Geral,Aquisição de serviços,"72000000-5, Serviços de TI: consultoria, desenvolvimento de software, Internet e apoio","Instituto Português de Oncologia do Porto Francisco Gentil, E. P. E. (506362299)","RECURSOS IDEIAS E SOLUCES INFORMATICAS, LDA (503754803)","5.109,03 €",05-02-2019,07-11-2018,365 dias,"Portugal, Porto, Porto","Artigo 24.º, n.º 1, alínea e), subalínea ii) do Código dos Contratos Públicos",,,,,,Não aplicável.,Não aplicável.,FALSE
ADCM 0012/19: Manutenção a equipamento Grifols 2019,Ajuste Direto Regime Geral,Aquisição de serviços,"71356200-0, Serviços de assistência técnica","Instituto Português de Oncologia do Porto Francisco Gentil, E. P. E. (506362299)","GRIFOLS PORTUGAL, LDA (502041285)","5.906,32 €",05-02-2019,02-01-2019,365 dias,"Portugal, Porto, Porto","Artigo 24.º, n.º 1, alínea e), subalínea ii) do Código dos Contratos Públicos",,,,,,Não aplicável.,Não aplicável.,FALSE
AD 0010/19: Manutenção a equipamento de deteção de incêndio 2019,Ajuste Direto Regime Geral,Aquisição de serviços,"71356200-0, Serviços de assistência técnica","Instituto Português de Oncologia do Porto Francisco Gentil, E. P. E. (506362299)","Siemens, S.A. (500247480)","6.500,00 €",05-02-2019,19-12-2018,365 dias,"Portugal, Porto, Porto","Artigo 24.º, n.º 1, alínea e), subalínea ii) do Código dos Contratos Públicos",,,,,,Não aplicável.,Não aplicável.,FALSE
ADCM 0047/19 Manutenção a rede de distribuição de gases medicinais 2019,Ajuste Direto Regime Geral,Aquisição de serviços,"71356200-0, Serviços de assistência técnica","Instituto Português de Oncologia do Porto Francisco Gentil, E. P. E. (506362299)",AIR LIQUIDE MEDICINAL S A (501576436),"6.504,00 €",05-02-2019,07-11-2018,365 dias,"Portugal, Porto, Porto","Artigo 24.º, n.º 1, alínea e), subalínea ii) do Código dos Contratos Públicos",,,,,,Não aplicável.,Não aplicável.,FALSE
AD 0021/19: Consultoria de Segurança 2019,Ajuste Direto Regime Geral,Aquisição de serviços,"79000000-4, Serviços a empresas: direito, comercialização, consultoria, recrutamento, impressão e segurança","Instituto Português de Oncologia do Porto Francisco Gentil, E. P. E. (506362299)","Código Prodígio Unipessoal, Lda (510728855)","6.628,92 €",05-02-2019,14-11-2018,365 dias,"Portugal, Porto, Porto","Artigo 20.º, n.º 1, alínea d) do Código dos Contratos Públicos",,,,,,Não aplicável.,Não aplicável.,FALSE
ADCM 0054/19 Manutenção a Sistema de Digitalização CR950 2019,Ajuste Direto Regime Geral,Aquisição de serviços,"71356200-0, Serviços de assistência técnica","Instituto Português de Oncologia do Porto Francisco Gentil, E. P. E. (506362299)",CARESTREAM HEALTH PORTUGAL LDA (508054320),"6.896,00 €",05-02-2019,21-11-2018,365 dias,"Portugal, Porto, Porto","Artigo 24.º, n.º 1, alínea e), subalínea ii) do Código dos Contratos Públicos",,,,,,Não aplicável.,Não aplicável.,FALSE
ADCM 0017/19 Manutenção a central telefónica 2019,Ajuste Direto Regime Geral,Aquisição de serviços,"71356200-0, Serviços de assistência técnica","Instituto Português de Oncologia do Porto Francisco Gentil, E. P. E. (506362299)","Warpcom Services, S.A. (505134195)","6.950,00 €",05-02-2019,23-01-2019,365 dias,"Portugal, Porto, Porto","Artigo 24.º, n.º 1, alínea e), subalínea ii) do Código dos Contratos Públicos",,,,,,Não aplicável.,Não aplicável.,FALSE
AD 0073/19 Responsabilidade pela instalação elétrica,Ajuste Direto Regime Geral,Aquisição de serviços,"71300000-1, Serviços de engenharia","Instituto Português de Oncologia do Porto Francisco Gentil, E. P. E. (506362299)",ATM (502700823),"6.960,00 €",05-02-2019,23-01-2019,365 dias,"Portugal, Porto, Porto","Artigo 20.º, n.º 1, alínea d) do Código dos Contratos Públicos",,,,,,Não aplicável.,Não aplicável.,FALSE
AD 0042/19: Manutenção a RX Telecomandado Philips 2019,Ajuste Direto Regime Geral,Aquisição de serviços,"71356200-0, Serviços de assistência técnica","Instituto Português de Oncologia do Porto Francisco Gentil, E. P. E. (506362299)","MICROMIL-SISTEMAS MÉDICOS E INDUSTRIAIS,S.A. (501605770)","7.200,00 €",05-02-2019,23-01-2019,365 dias,"Portugal, Porto, Porto","Artigo 20.º, n.º 1, alínea d) do Código dos Contratos Públicos",,,,,,Não aplicável.,Não aplicável.,FALSE
AD 0035/19: Manutenção aos sistemas de cloragem  à rede de água potável 2019,Ajuste Direto Regime Geral,Aquisição de serviços,"71356200-0, Serviços de assistência técnica","Instituto Português de Oncologia do Porto Francisco Gentil, E. P. E. (506362299)","Enkrott - Gestão e Tratamento de Águas, S.A. (500103461)","7.296,00 €",05-02-2019,23-01-2019,365 dias,"Portugal, Porto, Porto","Artigo 20.º, n.º 1, alínea d) do Código dos Contratos Públicos",,,,,,Não aplicável.,Não aplicável.,FALSE
AD 0040/19: CAT a câmara de fluxo laminar,Ajuste Direto Regime Geral,Aquisição de serviços,"71356200-0, Serviços de assistência técnica","Instituto Português de Oncologia do Porto Francisco Gentil, E. P. E. (506362299)",Tradelabor (503069442),"7.427,40 €",05-02-2019,23-01-2019,365 dias,"Portugal, Porto, Porto","Artigo 20.º, n.º 1, alínea d) do Código dos Contratos Públicos",,,,,,Não aplicável.,Não aplicável.,FALSE
ADCM 0015/19 Manutenção a equipamento Sterrad NX 2019,Ajuste Direto Regime Geral,Aquisição de serviços,"71356200-0, Serviços de assistência técnica","Instituto Português de Oncologia do Porto Francisco Gentil, E. P. E. (506362299)",JOHNSON JOHNSON MEDICAL (500153370),"9.504,00 €",05-02-2019,31-10-2018,365 dias,"Portugal, Porto, Porto","Artigo 24.º, n.º 1, alínea e), subalínea ii) do Código dos Contratos Públicos",,,,,,Não aplicável.,Não aplicável.,FALSE
