Objeto do Contrato,Tipo de Procedimento,Tipo(s) de Contrato,CPVs,Entidade(s) Adjudicante(s),Entidade(s) Adjudicatária(s),Preço Contratual,Data de Publicação,Data de Celebração do Contrato,Prazo de Execução,Local de Execução,Fundamentação,Data de Fecho do Contrato,Preço Total Efetivo,Causas das Alterações ao Prazo,Causas das Alterações ao Preço,Estado,N.º registo do Acordo Quadro,Descrição do Acordo Quadro,Procedimento Centralizado
"Aquisição de Consumíveis Para Sistema De Drenagem Torácica Com Colocação De Equipamentos para o Centro Hospitalar de S. João, E.P.E.",Ajuste Direto Regime Geral,Aquisição de bens móveis,"33140000-3, Material médico de consumo","Centro Hospitalar de São João, E. P. E. (509821197)","Bacelar & Irmão, Lda (500532818)","18.945,80 €",03-11-2017,18-10-2017,74 dias,"Portugal, Porto, Porto","Artigo 20.º, n.º 1, alínea a) do Código dos Contratos Públicos",,,,,,Não aplicável.,Não aplicável.,FALSE
"Aquisição de 2 unidades de CDI DR para o Centro Hospitalar de S. João, E.P.E.",Ajuste Direto Regime Geral,Aquisição de bens móveis,"33182200-1, Aparelhos para estimulação cardíaca","Centro Hospitalar de São João, E. P. E. (509821197)",ST. JUDE MEDICAL PORTUGAL (504180746),"13.900,00 €",02-11-2017,11-09-2017,111 dias,"Portugal, Porto, Porto","Artigo 20.º, n.º 1, alínea a) do Código dos Contratos Públicos",,,,,,Não aplicável.,Não aplicável.,FALSE
"Aquisição de Stent Coronário com fármaco e sem polímero para o Centro Hospitalar de S. João, E.P.E. (CHSJ)",Ajuste Direto Regime Geral,Aquisição de bens móveis,"33000000-0, Equipamento médico, medicamentos e produtos para cuidados pessoais","Centro Hospitalar de São João, E. P. E. (509821197)","CARDINAL HEALTH PORTUGAL 513 UNIPESSOAL, LDA (513620834)","21.420,00 €",02-11-2017,10-10-2017,82 dias,"Portugal, Porto, Porto","Artigo 24.º, n.º 1, alínea e) do Código dos Contratos Públicos",,,,,,Não aplicável.,Não aplicável.,FALSE
