Objeto do Contrato,Tipo de Procedimento,Tipo(s) de Contrato,CPVs,Entidade(s) Adjudicante(s),Entidade(s) Adjudicatária(s),Preço Contratual,Data de Publicação,Data de Celebração do Contrato,Prazo de Execução,Local de Execução,Fundamentação,Data de Fecho do Contrato,Preço Total Efetivo,Causas das Alterações ao Prazo,Causas das Alterações ao Preço,Estado,N.º registo do Acordo Quadro,Descrição do Acordo Quadro,Procedimento Centralizado
"Fornecimento de 3100 Rolos de Papel Plastificado 50x70cm, picotado, ao Instituto Portugês do Sangue, IP, durante o ano 2012.",Ajuste Direto Regime Geral,Aquisição de bens móveis,"33140000-3, Material médico de consumo","Instituto Português do Sangue, I.P. (502423943)","Mundisan Papeis e Prod. de Higiene, Ldª (502729252)","9.889,00 €",07-03-2012,08-02-2012,326 dias,"Portugal, Coimbra, Coimbra","Artigo 20.º, n.º 1, alínea a) do Código dos Contratos Públicos",,,,,,Não aplicável.,Não aplicável.,
"O presente contrato tem por objeto o fornecimento pelo segundo outorgante ao primeiro outorgante a quantidade de 18.000 (dezoito mil) sacos para Colheita de Sangue, quádruplos c/filtro refª 722000.",Ajuste Direto Regime Geral,Aquisição de bens móveis,"33141613-0, Sacos para sangue","Instituto Português do Sangue, I.P. (502423943)",Grifols Portugal (502041285),"225.000,00 €",03-03-2012,15-02-2012,180 dias,"Portugal, Lisboa, Lisboa","Artigo 26.º, n.º 1, alínea a) do Código dos Contratos Públicos",,,,,,Não aplicável.,Não aplicável.,
"O presente contrato tem por objetivo o fornecimento, pelo segundo outorgante ao primeiro outorgante a quantidade de 40.000 (quarenta mil) sacos p/colheita de sangue, quádruplos Top&Bottom,c/ filtro para Concentrato de Eritrócitos, refª 21013.",Ajuste Direto Regime Geral,Aquisição de bens móveis,"33141613-0, Sacos para sangue","Instituto Português do Sangue, I.P. (502423943)",Menarini Diagnosticos (502610069),"488.000,00 €",03-03-2012,15-02-2012,180 dias,"Portugal, Coimbra, Coimbra<BR/>Portugal, Porto, Porto","Artigo 26.º, n.º 1, alínea a) do Código dos Contratos Públicos",,,,,,Não aplicável.,Não aplicável.,
