Objeto do Contrato,Tipo de Procedimento,Tipo(s) de Contrato,CPVs,Entidade(s) Adjudicante(s),Entidade(s) Adjudicatária(s),Preço Contratual,Data de Publicação,Data de Celebração do Contrato,Prazo de Execução,Local de Execução,Fundamentação,Data de Fecho do Contrato,Preço Total Efetivo,Causas das Alterações ao Prazo,Causas das Alterações ao Preço,Estado,N.º registo do Acordo Quadro,Descrição do Acordo Quadro,Procedimento Centralizado
30 Impressoras Zebra gk420d com placa de rede ou Equivalente,Ajuste Direto Regime Geral,Aquisição de bens móveis,"30232110-8, Impressoras laser",Hospital Prof. Doutor Fernando Fonseca E.P.E. (503035416),"Dreamway! Unipessoal, Lda (508771390)","9.270,00 €",03-03-2017,27-02-2017,15 dias,"Portugal, Lisboa, Amadora","Artigo 20.º, n.º 1, alínea a) do Código dos Contratos Públicos",,,,,,Não aplicável.,Não aplicável.,FALSE
CONSUMÍVEIS PARA REALIZAÇÃO DE COLORAÇÃO DE ROTINA (HEMATOXILINA-EOSINA) E MONTAGEM DE LÂMINAS E REAGENTES PARA AUTOMATIZAÇÃO COMPLETA DA IMUNOHISTOQUÍMICA,Concurso público,Aquisição de bens móveis,"33698000-9, Produtos para fins clínicos","Hospital Professor Doutor Fernando Fonseca, E. P. E. (503035416)","LEICA MICROSSISTEMAS,LDA. (500301921)","70.472,00 €",03-03-2017,03-02-2017,331 dias,"Portugal, Lisboa, Amadora","Artigo 20.º, n.º 1, alínea b) do Código dos Contratos Públicos",,,,,,Não aplicável.,Não aplicável.,FALSE
1 Crióstato,Ajuste Direto Regime Geral,Aquisição de bens móveis,"38000000-5, Equipamento laboratorial, óptico e de precisão (exc. óculos)","Hospital Professor Doutor Fernando Fonseca, E. P. E. (503035416)","LEICA MICROSSISTEMAS,LDA. (500301921)","27.183,79 €",03-03-2017,19-01-2017,30 dias,"Portugal, Lisboa, Amadora","Artigo 20.º, n.º 1, alínea a) do Código dos Contratos Públicos",,,,,,Não aplicável.,Não aplicável.,FALSE
Contrato de Serviços de Manutenção Efacec,Ajuste Direto Regime Geral,Aquisição de serviços,"50000000-5, Serviços de reparação e manutenção",Hospital Prof. Doutor Fernando Fonseca E.P.E. (503035416),"Efacec-Manvia, Manutenção Hospitalar, A.C.E. (509801510)","327.831,56 €",02-03-2017,08-11-2016,121 dias,"Portugal, Lisboa, Amadora","Artigo 24.º, n.º 1, alínea c) do Código dos Contratos Públicos",,,,,,Não aplicável.,Não aplicável.,FALSE
19 Computadores Lenovo ThinkCentre M93p Tiny i5 ou equivalente.,Ajuste Direto Regime Geral,Aquisição de bens móveis,"30213300-8, Computadores de secretária (desktop computers)",Hospital Prof. Doutor Fernando Fonseca E.P.E. (503035416),"Dreamway! Unipessoal, Lda (508771390)","9.006,00 €",02-03-2017,27-02-2017,15 dias,"Portugal, Lisboa, Amadora","Artigo 20.º, n.º 1, alínea a) do Código dos Contratos Públicos",,,,,,Não aplicável.,Não aplicável.,FALSE
Repavimentação de 17 WC - banhos assistidos,Ajuste Direto Regime Geral,Empreitadas de obras públicas,"45113000-2, Obras no local","Hospital Professor Doutor Fernando Fonseca, E. P. E. (503035416)",Jorge & Lico Lda. (506883965),"6.800,00 €",23-02-2017,22-02-2017,15 dias,"Portugal, Lisboa, Amadora","Artigo 19.º, alínea a) do Código dos Contratos Públicos",,,,,,Não aplicável.,Não aplicável.,FALSE
Contrato de Manutenção da INTRANET - 2017,Ajuste Direto Regime Geral,Aquisição de serviços,"72212220-7, Serviços de desenvolvimento de software para Internet e intranet",Hospital Prof. Doutor Fernando Fonseca E.P.E. (503035416),"CAVEDIGITAL – consultadoria e soluções informáticas, Lda (505011050)","9.900,00 €",23-02-2017,23-02-2017,365 dias,"Portugal, Lisboa, Amadora","Artigo 24.º, n.º 1, alínea e) do Código dos Contratos Públicos",,,,,,Não aplicável.,Não aplicável.,FALSE
