Objeto do Contrato,Tipo de Procedimento,Tipo(s) de Contrato,CPVs,Entidade(s) Adjudicante(s),Entidade(s) Adjudicatária(s),Preço Contratual,Data de Publicação,Data de Celebração do Contrato,Prazo de Execução,Local de Execução,Fundamentação,Data de Fecho do Contrato,Preço Total Efetivo,Causas das Alterações ao Prazo,Causas das Alterações ao Preço,Estado,N.º registo do Acordo Quadro,Descrição do Acordo Quadro,Procedimento Centralizado
496 Consumiveis de Impressão,Ajuste Direto Regime Geral,Aquisição de bens móveis,"30120000-6, Equipamento para fotocópia e impressão em offset","Administração Regional de Saúde do Norte, I.P. (503135593)","PAULO S.CONDE, LDA (506324729)","21.259,00 €",07-12-2011,28-03-2011,2 dias,"Portugal, Braga<BR/>Portugal, Porto<BR/>Portugal, Vila Real<BR/>Portugal, Viseu<BR/>Portugal, Aveiro","Artigo 20.º, n.º 1, alínea a) do Código dos Contratos Públicos","","",,,,Não aplicável.,Não aplicável.,
Aquisição de 750 doses da vacina VIP,Ao abrigo de acordo-quadro (art.º 258.º),Aquisição de bens móveis,"33651600-4, Vacinas","Administração Regional de Saúde do Norte, I.P. (503135593)","J. M. Farmacêutica, S.A. (503550558)","5.220,00 €",07-12-2011,28-11-2011,2 dias,"Portugal, Braga",Artigo 258.º do Código dos Contratos Públicos,30-12-2011,"5.220,00 €",,,,Não definido.,Não definido.,
Aquisição de 30 doses da vacina DTPa,Ao abrigo de acordo-quadro (art.º 258.º),Aquisição de bens móveis,"33651600-4, Vacinas","Administração Regional de Saúde do Norte, I.P. (503135593)",GlaxoSmithKline (500139962),"258,30 €",07-12-2011,28-11-2011,1 dias,"Portugal, Braga",Artigo 258.º do Código dos Contratos Públicos,30-12-2011,"258,30 €",,,,Não definido.,Não definido.,
Aquisição de 40 doses da vacina HIB,Ao abrigo de acordo-quadro (art.º 258.º),Aquisição de bens móveis,"33651600-4, Vacinas","Administração Regional de Saúde do Norte, I.P. (503135593)",GlaxoSmithKline (500139962),"308,80 €",06-12-2011,28-11-2011,2 dias,"Portugal, Braga",Artigo 258.º do Código dos Contratos Públicos,30-12-2011,"308,80 €",,,,Não definido.,Não definido.,
Aquisição de 900 doses da Vacina Stamaril,Ao abrigo de acordo-quadro (art.º 258.º),Aquisição de bens móveis,"33651600-4, Vacinas","Administração Regional de Saúde do Norte, I.P. (503135593)",Sanofi Pasteur MSD (507632796),"6.120,00 €",06-12-2011,25-11-2011,3 dias,"Portugal, Braga",Artigo 258.º do Código dos Contratos Públicos,30-12-2011,"6.120,00 €",,,,Não definido.,Não definido.,
Aquisição de Micropipeta Multicanal Gilson,Ajuste Direto Regime Geral,Aquisição de bens móveis,"38437000-7, Pipetas de laboratório e acessórios","Administração Regional de Saúde do Norte, I.P. (503135593)",Reagente 5 (501194053),"428,00 €",06-12-2011,28-11-2011,2 dias,"Portugal, Braga","Artigo 24.º, n.º 1, alínea e) do Código dos Contratos Públicos","","",,,,Não aplicável.,Não aplicável.,
Aquisição de 400 doses de Vacina contra a Febre Tifoide,Ao abrigo de acordo-quadro (art.º 258.º),Aquisição de bens móveis,"33651600-4, Vacinas","Administração Regional de Saúde do Norte, I.P. (503135593)",Sanofi Pasteur MSD (507632796),"4.120,00 €",06-12-2011,17-11-2011,4 dias,"Portugal, Braga",Artigo 258.º do Código dos Contratos Públicos,"","",,,,Não definido.,Não definido.,
Substituição de tectos e reparação extrerior CDP Lamas,Ajuste Direto Regime Geral,Empreitadas de obras públicas,"45453000-7, Obras de revisão e recuperação","Administração Regional de Saúde do Norte, I.P. (503135593)","Pedra Lascada - Sociedade de Construções, Lda (508466350)","23.898,00 €",06-12-2011,28-11-2011,30 dias,"Portugal, Aveiro, Santa Maria da Feira","Artigo 19.º, alínea a) do Código dos Contratos Públicos",06-01-2012,"23.898,00 €",,,,Não aplicável.,Não aplicável.,
Substituição cobertura US Oliveira do Douro,Ajuste Direto Regime Geral,Empreitadas de obras públicas,"45261920-9, Obras de manutenção de coberturas","Administração Regional de Saúde do Norte, I.P. (503135593)","Evaristo Vieira & Filho, Lda (501125892)","68.312,00 €",06-12-2011,24-11-2011,35 dias,"Portugal, Porto, Vila Nova de Gaia","Artigo 19.º, alínea a) do Código dos Contratos Públicos",27-12-2011,"68.312,00 €",,,,Não aplicável.,Não aplicável.,
50.000 Escova p/ colpocitologia esterilizada (cervex)<br />35.000 especulo vaginal medio descartavel<br />8.000   especulo vaginal pequeno descartavel,Ajuste Direto Regime Geral,Aquisição de bens móveis,"33140000-3, Material médico de consumo","Administração Regional de Saúde do Norte, I.P. (503135593)",SPECULUM (502996323),"28.192,00 €",05-12-2011,19-10-2011,15 dias,"Portugal, Aveiro<BR/>Portugal, Vila Real<BR/>Portugal, Porto<BR/>Portugal, Viseu<BR/>Portugal, Braga","Artigo 20.º, n.º 1, alínea a) do Código dos Contratos Públicos","","",,,,Não aplicável.,Não aplicável.,
7.000 MASCARA PLASTICO P/ NEBULIZAÇÃO IRRECUPERAVEL (adulto)<br />3.800 MASCARA P/ APLICAÇÃO DE OXIGENIO IRRECUPERAVEL (adulto)<br />2.897 MININEBULIZADOR KIT COMPLETO (adulto),Ajuste Direto Regime Geral,Aquisição de bens móveis,"33140000-3, Material médico de consumo","Administração Regional de Saúde do Norte, I.P. (503135593)",INTERSURGICAL - PORTUGAL (503480045),"5.142,26 €",05-12-2011,19-10-2011,1 dias,"Portugal, Aveiro<BR/>Portugal, Braga<BR/>Portugal, Vila Real<BR/>Portugal, Porto<BR/>Portugal, Viseu","Artigo 20.º, n.º 1, alínea a) do Código dos Contratos Públicos","","",,,,Não aplicável.,Não aplicável.,
500 Imunoglobulina Humana contra o antigénio D 1500 U.i./2 ml,Ajuste Direto Regime Geral,Aquisição de bens móveis,"33651520-9, Imunoglobulinas","Administração Regional de Saúde do Norte, I.P. (503135593)",CSL - BEHRING LDA - BNP PARIBAS FACTOR SA (503047201),"37.750,00 €",05-12-2011,24-11-2011,1 dias,"Portugal, Viseu<BR/>Portugal, Porto<BR/>Portugal, Vila Real<BR/>Portugal, Aveiro<BR/>Portugal, Braga","Artigo 24.º, n.º 1, alínea e) do Código dos Contratos Públicos","","",,,,Não aplicável.,Não aplicável.,
2.000 Algalia foley nº12; 2.000 Sonda gastroduodenal 100% silicone (tipo levine) nº18; 1.000 sonda aspiração CH nº12; 800 sonda gastroduodenal 100% silicone (tipo levine) nº16; 700 sonda aspiração CH nº 18; 250 sonda gastroduodenal 100% silicone (tipo levine) nº 14,Ajuste Direto Regime Geral,Aquisição de bens móveis,"33100000-1, Equipamento médico","Administração Regional de Saúde do Norte, I.P. (503135593)","COLOPLAST PORTUGAL (503989037), EPJMEDICA (506820513), VYGON PORTUGAL, LDA (503232785)","18.748,15 €",05-12-2011,23-11-2011,3 dias,"Portugal, Porto<BR/>Portugal, Aveiro<BR/>Portugal, Viseu<BR/>Portugal, Braga<BR/>Portugal, Vila Real","Artigo 20.º, n.º 1, alínea a) do Código dos Contratos Públicos","","",,,,Não aplicável.,Não aplicável.,
Cobertura parcial e redes de água CS Montalegre,Ajuste Direto Regime Geral,Empreitadas de obras públicas,"45453000-7, Obras de revisão e recuperação","Administração Regional de Saúde do Norte, I.P. (503135593)","Construções Ezequiel Pinho Moreira, Lda (503320455)","148.532,00 €",02-12-2011,22-11-2011,40 dias,"Portugal, Vila Real, Montalegre","Artigo 19.º, alínea a) do Código dos Contratos Públicos",06-01-2012,"148.532,00 €",,,,Não aplicável.,Não aplicável.,
Remodelação e beneficiação CS Santa Maria da Feira,Ajuste Direto Regime Geral,Empreitadas de obras públicas,"45454000-4, Obras de reestruturação","Administração Regional de Saúde do Norte, I.P. (503135593)","Nordivi - Montagem de estruturas Decorativas, Lda (502274425)","146.908,52 €",02-12-2011,23-11-2011,30 dias,"Portugal, Aveiro, Santa Maria da Feira","Artigo 19.º, alínea a) do Código dos Contratos Públicos",06-01-2012,"146.908,52 €",,,,Não aplicável.,Não aplicável.,
Ar condicionado USF S. João,Ajuste Direto Regime Geral,Empreitadas de obras públicas,"45350000-5, Instalações mecânicas","Administração Regional de Saúde do Norte, I.P. (503135593)","Tempo de Retorno - Unipessoal, Lda (509691269)","45.690,00 €",02-12-2011,25-11-2011,30 dias,"Portugal, Porto, Porto","Artigo 19.º, alínea a) do Código dos Contratos Públicos",10-01-2012,"45.690,00 €",,,,Não aplicável.,Não aplicável.,
Climatização US S. Martinho do Campo,Ajuste Direto Regime Geral,Empreitadas de obras públicas,"45350000-5, Instalações mecânicas","Administração Regional de Saúde do Norte, I.P. (503135593)","Nobrework, Lda (507713230)","105.999,00 €",02-12-2011,23-11-2011,30 dias,"Portugal, Porto, Santo Tirso","Artigo 19.º, alínea a) do Código dos Contratos Públicos",13-01-2012,"105.999,00 €",,,,Não aplicável.,Não aplicável.,
