Objeto do Contrato,Tipo de Procedimento,Tipo(s) de Contrato,CPVs,Entidade(s) Adjudicante(s),Entidade(s) Adjudicatária(s),Preço Contratual,Data de Publicação,Data de Celebração do Contrato,Prazo de Execução,Local de Execução,Fundamentação,Data de Fecho do Contrato,Preço Total Efetivo,Causas das Alterações ao Prazo,Causas das Alterações ao Preço,Estado,N.º registo do Acordo Quadro,Descrição do Acordo Quadro,Procedimento Centralizado
Aquisição de Gases Medicinais,Ajuste Direto Regime Geral,Aquisição de bens móveis,"24111500-0, Gases médicos","Centro Hospitalar Póvoa de Varzim - Vila do Conde, E. P. E. (508741823)","ACAÍL, GÁS, S.A. (503789151)","56.504,80 €",08-09-2017,29-08-2017,125 dias,"Portugal, Porto, Póvoa de Varzim","Artigo 20.º, n.º 1, alínea a) do Código dos Contratos Públicos",,,,,,Não aplicável.,Não aplicável.,FALSE
Compressas N/Tecido,Ao abrigo de acordo-quadro (art.º 259.º),Aquisição de bens móveis,"33100000-1, Equipamento médico","Centro Hospitalar Póvoa de Varzim/Vila do Conde, EPE (508741823)",ALBINO DIAS ANDRADE LDA (500013810),"7.275,00 €",08-09-2017,05-09-2017,118 dias,"Portugal, Porto, Póvoa de Varzim",Artigo 259.º do Código dos Contratos Públicos,,,,,,2190354,CP 2016/21 - Acordo quadro para fornecimento de Gazes Medicadas e Ligaduras de Gaze às Instituições e Serviços do Serviço Nacional de Saúde,FALSE
Aquisição de Material de Higiene e Limpeza,Concurso público,Aquisição de bens móveis,"18930000-7, Sacas e sacos","Centro Hospitalar Póvoa de Varzim - Vila do Conde, E. P. E. (508741823)","REI & REI, LDA  - PLASTICOS e CONFECÇOES (502897970)","20.233,78 €",07-09-2017,30-09-2016,46 dias,"Portugal, Porto, Póvoa de Varzim","Artigo 20.º, n.º 1, alínea b) do Código dos Contratos Públicos",,,,,,Não aplicável.,Não aplicável.,FALSE
Aquisição de Material de Higiene e Limpeza,Concurso público,Aquisição de bens móveis,"39224000-8, Vassouras, escovas e outros artigos de vários tipos","Centro Hospitalar Póvoa de Varzim - Vila do Conde, E. P. E. (508741823)","Jofigi - Armazém de Papel e Sistemas de Higiene, Unipessoal, LDA (507004680)","120,00 €",07-09-2017,30-09-2016,93 dias,"Portugal, Porto, Póvoa de Varzim","Artigo 20.º, n.º 1, alínea b) do Código dos Contratos Públicos",,,,,,Não aplicável.,Não aplicável.,FALSE
Aquisição de Material de Higiene e Limpeza,Concurso público,Aquisição de bens móveis,"39831200-8, Detergentes","Centro Hospitalar Póvoa de Varzim - Vila do Conde, E. P. E. (508741823)"," VWR INTERNATIONAL- MATERIAL DE LABORATORIO, LDA (503842770)","212,80 €",07-09-2017,30-09-2016,93 dias,"Portugal, Porto, Póvoa de Varzim","Artigo 20.º, n.º 1, alínea b) do Código dos Contratos Públicos",,,,,,Não aplicável.,Não aplicável.,FALSE
Aquisição de Material de Higiene e Limpeza,Concurso público,Aquisição de bens móveis,"39831300-9, Produtos para limpeza de pavimentos","Centro Hospitalar Póvoa de Varzim - Vila do Conde, E. P. E. (508741823)","ANTONIO DA SILVA CAMPOS, SA (502057246)","24,50 €",07-09-2017,30-09-2016,93 dias,"Portugal, Porto, Póvoa de Varzim","Artigo 20.º, n.º 1, alínea b) do Código dos Contratos Públicos",,,,,,Não aplicável.,Não aplicável.,FALSE
Aquisição de Material de Higiene e Limpeza,Concurso público,Aquisição de bens móveis,"39831300-9, Produtos para limpeza de pavimentos","Centro Hospitalar Póvoa de Varzim - Vila do Conde, E. P. E. (508741823)","Jodel - Produtos Quimicos, Sa (500618860)","353,30 €",07-09-2017,30-09-2016,93 dias,"Portugal, Porto, Póvoa de Varzim","Artigo 20.º, n.º 1, alínea b) do Código dos Contratos Públicos",,,,,,Não aplicável.,Não aplicável.,FALSE
Aquisição de Material de Higiene e Limpeza,Concurso público,Aquisição de bens móveis,"24311000-7, Elementos químicos, compostos e ácidos inorgânicos","Centro Hospitalar Póvoa de Varzim - Vila do Conde, E. P. E. (508741823)","LABLAD - Tito & Fidalgos, Lda. (502629703)","847,68 €",07-09-2017,30-09-2016,93 dias,"Portugal, Porto, Póvoa de Varzim","Artigo 20.º, n.º 1, alínea b) do Código dos Contratos Públicos",,,,,,Não aplicável.,Não aplicável.,FALSE
Aquisição de Material de Higiene e Limpeza,Concurso público,Aquisição de bens móveis,"33760000-5, Papel higiénico, lenços, toalhas de mão e guardanapos","Centro Hospitalar Póvoa de Varzim - Vila do Conde, E. P. E. (508741823)",Jocalu Higiene Industrial (502999900),"20.582,91 €",07-09-2017,05-12-2016,27 dias,"Portugal, Porto, Póvoa de Varzim","Artigo 20.º, n.º 1, alínea b) do Código dos Contratos Públicos",,,,,,Não aplicável.,Não aplicável.,FALSE
Aquisição  de Material de Higiene e Limpeza,Concurso público,Aquisição de bens móveis,"18141000-9, Luvas de trabalho","Centro Hospitalar Póvoa de Varzim - Vila do Conde, E. P. E. (508741823)",H.R.-PRODUTOS QUIMICOS LDA (501895558),"139,52 €",07-09-2017,30-09-2016,93 dias,"Portugal, Porto, Póvoa de Varzim","Artigo 20.º, n.º 1, alínea b) do Código dos Contratos Públicos",,,,,,Não aplicável.,Não aplicável.,FALSE
Aquisição de Material de Higiene e Limpeza,Concurso público,Aquisição de bens móveis,"39000000-2, Mobiliário (incl. de escritório), acessórios, aparelhos domésticos (excl. iluminação) e produtos de limpeza","Centro Hospitalar Póvoa de Varzim - Vila do Conde, E. P. E. (508741823)","A. J. OLIVEIRA, LDA (502293748)","6.458,62 €",07-09-2017,30-09-2016,93 dias,"Portugal, Porto, Póvoa de Varzim","Artigo 20.º, n.º 1, alínea b) do Código dos Contratos Públicos",,,,,,Não aplicável.,Não aplicável.,FALSE
Aquisição de Sistemas de Próteses do Joelho,Concurso público,Locação de bens móveis,"33184000-3, Próteses","Centro Hospitalar Póvoa de Varzim - Vila do Conde, E.P.E. (508741823)",SMITH + NEPHEW (503552461),"13.404,60 €",07-09-2017,19-08-2015,135 dias,"Portugal, Porto, Póvoa de Varzim","Artigo 20.º, n.º 1, alínea b) do Código dos Contratos Públicos",,,,,,Não aplicável.,Não aplicável.,FALSE
"Aquisição e instalação de vários equipamentos de vigilância e segurança  para o CENTRO HOSPITALAR Póvoa de Varzim / Vila do Conde, E.P.E .",Ajuste Direto Regime Geral,Aquisição de bens móveis,"33123200-0, Aparelhos para electrocardiografia","Centro Hospitalar Póvoa de Varzim - Vila do Conde, E.P.E. (508741823)",GERANSWERS (507683528),"800,00 €",07-09-2017,22-07-2015,163 dias,"Portugal, Porto, Póvoa de Varzim","Artigo 20.º, n.º 1, alínea a) do Código dos Contratos Públicos",,,,,,Não aplicável.,Não aplicável.,FALSE
"Aquisição e instalação de vários equipamentos de vigilância e segurança  para o CENTRO HOSPITALAR Póvoa de Varzim / Vila do Conde, E.P.E . ",Ajuste Direto Regime Geral,Aquisição de bens móveis,"33123210-3, Aparelhos para monitorização cardíaca","Centro Hospitalar Póvoa de Varzim - Vila do Conde, E.P.E. (508741823)",CLINIFAR (503281115),"11.499,99 €",07-09-2017,12-08-2015,142 dias,"Portugal, Porto, Póvoa de Varzim","Artigo 20.º, n.º 1, alínea a) do Código dos Contratos Públicos",,,,,,Não aplicável.,Não aplicável.,FALSE
"Aquisição de  Reagentes para Microbiologia Manual e Automática, com colocação de Equipamentos e Consumíveis",Concurso público,Aquisição de bens móveis,"24000000-4, Produtos químicos","Centro Hospitalar Póvoa de Varzim - Vila do Conde, E. P. E. (508741823)","ARIUM - SISTEMAS DE DIAGNÓSTICO, LDA (502501880)","272,00 €",06-09-2017,12-08-2015,142 dias,"Portugal, Porto, Póvoa de Varzim","Artigo 20.º, n.º 1, alínea b) do Código dos Contratos Públicos",,,,,,Não aplicável.,Não aplicável.,FALSE
"Aquisição de Reagentes para Microbiologia Manual e Automática, com colocação de Equipamentos e Consumíveis",Concurso público,Aquisição de bens móveis,"24000000-4, Produtos químicos","Centro Hospitalar Póvoa de Varzim - Vila do Conde, E. P. E. (508741823)","VWR INTERNACIONAL - MATERIAL DE LABORATÓRIO, LDA. (503842770)","218,40 €",06-09-2017,12-08-2015,142 dias,"Portugal, Porto, Póvoa de Varzim","Artigo 20.º, n.º 1, alínea b) do Código dos Contratos Públicos",,,,,,Não aplicável.,Não aplicável.,FALSE
"Aquisição de Reagentes para Microbiologia Manual e Automática, com colocação de Equipamentos e Consumíveis",Concurso público,Aquisição de bens móveis,"24000000-4, Produtos químicos","Centro Hospitalar Póvoa de Varzim - Vila do Conde, E. P. E. (508741823)","BIOMERIEUX PORTUGAL, LDA. (501524177)","186,00 €",06-09-2017,12-08-2015,142 dias,"Portugal, Porto, Póvoa de Varzim","Artigo 20.º, n.º 1, alínea b) do Código dos Contratos Públicos",,,,,,Não aplicável.,Não aplicável.,FALSE
"Aquisição de  Reagentes para Microbiologia Manual e Automática, com colocação de Equipamentos e Consumíveis",Concurso público,Aquisição de bens móveis,"24000000-4, Produtos químicos","Centro Hospitalar Póvoa de Varzim - Vila do Conde, E. P. E. (508741823)","Alere, Lda. (502518863)","6.898,60 €",06-09-2017,12-08-2015,142 dias,"Portugal, Porto, Póvoa de Varzim","Artigo 20.º, n.º 1, alínea b) do Código dos Contratos Públicos",,,,,,Não aplicável.,Não aplicável.,FALSE
"Aquisição de  Reagentes para Microbiologia Manual e Automática, com colocação de Equipamentos e Consumíveis",Concurso público,Aquisição de bens móveis,"24000000-4, Produtos químicos","Centro Hospitalar Póvoa de Varzim - Vila do Conde, E. P. E. (508741823)","Alere, Lda. (502518863)","4.400,00 €",06-09-2017,12-08-2015,142 dias,"Portugal, Porto, Póvoa de Varzim","Artigo 20.º, n.º 1, alínea b) do Código dos Contratos Públicos",,,,,,Não aplicável.,Não aplicável.,FALSE
"Aquisição de  Reagentes para Microbiologia Manual e Automática, com colocação de Equipamentos e Consumíveis",Concurso público,Aquisição de bens móveis,"24000000-4, Produtos químicos","Centro Hospitalar Póvoa de Varzim - Vila do Conde, E. P. E. (508741823)","Bio-Rad Laboratories, Lda. (501301321)","4.523,00 €",06-09-2017,12-08-2015,142 dias,"Portugal, Porto, Póvoa de Varzim","Artigo 20.º, n.º 1, alínea b) do Código dos Contratos Públicos",,,,,,Não aplicável.,Não aplicável.,FALSE
"Aquisição de Reagentes para Microbiologia Manual e Automática, com colocação de Equipamentos e Consumíveis",Concurso público,Aquisição de bens móveis,"24000000-4, Produtos químicos","Centro Hospitalar Póvoa de Varzim - Vila do Conde, E. P. E. (508741823)","FISHER SCIENTIFIC, UNIPESSOAL, LDA (506429210)","1.576,25 €",06-09-2017,12-08-2015,142 dias,"Portugal, Porto, Póvoa de Varzim","Artigo 20.º, n.º 1, alínea b) do Código dos Contratos Públicos",,,,,,Não aplicável.,Não aplicável.,FALSE
"Prestação de serviços médicos sem especialidade, no âmbito de actividades no serviço de urgência da Unidade Hospitalar da Póvoa de Varzim do Centro Hospitalar Póvoa de Varzim/Vila do Conde, E.P.E.",Ajuste Direto Regime Geral,Aquisição de serviços,"85121200-5, Serviços de medicina especializada","Centro Hospitalar Póvoa de Varzim - Vila do Conde, E. P. E. (508741823)",Ana Maria da Costa e Silva Ferreira (218588712),"2.400,00 €",06-09-2017,05-09-2017,118 dias,"Portugal, Porto, Póvoa de Varzim","Artigo 24.º, n.º 1, alínea e) do Código dos Contratos Públicos",,,,,,Não aplicável.,Não aplicável.,FALSE
"Prestação de Serviços médicos com especialidade em Medicina Interna, no âmbito de actividades no serviço de urgência e outras actividades no Centro Hospitalar Póvoa de Varzim/Vila do Conde. ",Ajuste Direto Regime Geral,Aquisição de serviços,"85121200-5, Serviços de medicina especializada","Centro Hospitalar Póvoa de Varzim - Vila do Conde, E. P. E. (508741823)",Ana Luísa Novo da Silva (217509312),"5.928,00 €",06-09-2017,05-09-2017,118 dias,"Portugal, Porto, Póvoa de Varzim","Artigo 24.º, n.º 1, alínea e) do Código dos Contratos Públicos",,,,,,Não aplicável.,Não aplicável.,FALSE
Aquisição de Sistemas de Próteses do joelho,Concurso público,Locação de bens móveis,"33184000-3, Próteses","Centro Hospitalar Póvoa de Varzim - Vila do Conde, E.P.E. (508741823)","MBA Portugal, S.A. (504445960)","18.650,00 €",05-09-2017,19-08-2015,135 dias,"Portugal, Porto, Póvoa de Varzim","Artigo 20.º, n.º 1, alínea b) do Código dos Contratos Públicos",,,,,,Não aplicável.,Não aplicável.,FALSE
Aquisição de  Sistemas de Próteses do Joelho,Concurso público,Locação de bens móveis,"33184000-3, Próteses","Centro Hospitalar Póvoa de Varzim - Vila do Conde, E.P.E. (508741823)","MEDICINÁLIA-CORMÉDICA, LDA            (500684324)","13.630,00 €",05-09-2017,19-08-2015,135 dias,"Portugal, Porto, Póvoa de Varzim","Artigo 20.º, n.º 1, alínea b) do Código dos Contratos Públicos",,,,,,Não aplicável.,Não aplicável.,FALSE
Aquisição de Sistemas de Próteses do Joelho,Concurso público,Locação de bens móveis,"33184000-3, Próteses","Centro Hospitalar Póvoa de Varzim - Vila do Conde, E.P.E. (508741823)",BIOMET PORTUGAL UNIPESSOAL LDA (500254990),"133.695,00 €",05-09-2017,19-08-2017,135 dias,"Portugal, Porto, Póvoa de Varzim","Artigo 20.º, n.º 1, alínea b) do Código dos Contratos Públicos",,,,,,Não aplicável.,Não aplicável.,FALSE
"Fornecimento de Material de penso, nos termos das características definidas no convite e caderno de encargos.",Ajuste Direto Regime Geral,Aquisição de bens móveis,"33141126-9, Ligaduras","Centro Hospitalar Póvoa de Varzim - Vila do Conde, E. P. E. (508741823)",CLINIFAR (503281115),"330,00 €",01-09-2017,21-04-2015,232 dias,"Portugal, Porto, Póvoa de Varzim","Artigo 20.º, n.º 1, alínea a) do Código dos Contratos Públicos",,,,,,Não aplicável.,Não aplicável.,FALSE
"Fornecimento de Material de penso, nos termos das características definidas no convite e caderno de encargos.",Ajuste Direto Regime Geral,Aquisição de bens móveis,"33141119-7, Compressas","Centro Hospitalar Póvoa de Varzim - Vila do Conde, E. P. E. (508741823)",ALBINO DIAS ANDRADE LDA (500013810),"23.341,10 €",01-09-2017,14-05-2015,232 dias,"Portugal, Porto, Póvoa de Varzim","Artigo 20.º, n.º 1, alínea a) do Código dos Contratos Públicos",,,,,,Não aplicável.,Não aplicável.,FALSE
"Fornecimento de Material de penso, nos termos das características definidas no convite e caderno de encargos.",Ajuste Direto Regime Geral,Aquisição de bens móveis,"33141119-7, Compressas","Centro Hospitalar Póvoa de Varzim - Vila do Conde, E. P. E. (508741823)","TEXTIL PLANAS OLIVEIRAS PORTUGAL, UNIP.LDA. (509211216)","8.694,50 €",01-09-2017,14-05-2015,232 dias,"Portugal, Porto, Póvoa de Varzim","Artigo 20.º, n.º 1, alínea a) do Código dos Contratos Públicos",,,,,,Não aplicável.,Não aplicável.,FALSE
"Fornecimento de Material de penso, nos termos das características definidas no convite e caderno de encargos.",Ajuste Direto Regime Geral,Aquisição de bens móveis,"33140000-3, Material médico de consumo","Centro Hospitalar Póvoa de Varzim - Vila do Conde, E. P. E. (508741823)",PAUL HARTMANN (502271728),"3.180,00 €",01-09-2017,14-05-2015,232 dias,"Portugal, Porto, Póvoa de Varzim","Artigo 20.º, n.º 1, alínea a) do Código dos Contratos Públicos",,,,,,Não aplicável.,Não aplicável.,FALSE
"Aquisição de Material de Anestesia para o Centro Hospitalar Póvoa de Varzim/vila do Conde, E.P.E. (CHPVVC, E.P.E.) de acordo com o anexo III e Especificações Técnicas do Caderno de Encargos",Concurso público,Locação de bens móveis,"33171000-9, Material para anestesia e reanimação","Centro Hospitalar Póvoa de Varzim - Vila do Conde, E. P. E. (508741823)","SMITHS MEDICAL(PORTUGAL),LDA. (507445937)","10.407,00 €",31-08-2017,03-01-2017,363 dias,"Portugal, Porto, Póvoa de Varzim","Artigo 20.º, n.º 1, alínea b) do Código dos Contratos Públicos",,,,,,Não aplicável.,Não aplicável.,FALSE
Fornecimento de material de penso de acordo com o caderno de encargos e anexo III.,Ajuste Direto Regime Geral,Aquisição de bens móveis,"33141111-1, Pensos adesivos","Centro Hospitalar Póvoa de Varzim - Vila do Conde, E. P. E. (508741823)","ANASTACIO SALDANHA UNIPESSOAL, LDA. (505804441)","78,30 €",31-08-2017,14-05-2015,232 dias,"Portugal, Porto, Póvoa de Varzim","Artigo 20.º, n.º 1, alínea a) do Código dos Contratos Públicos",,,,,,Não aplicável.,Não aplicável.,FALSE
Fornecimento de material de penso de acordo com o caderno de encargos e anexo III.,Ajuste Direto Regime Geral,Aquisição de bens móveis,"33140000-3, Material médico de consumo","Centro Hospitalar Póvoa de Varzim - Vila do Conde, E. P. E. (508741823)",EZEQUIEL PANÄO JORGE (501412727),"1.340,30 €",31-08-2017,14-05-2015,232 dias,"Portugal, Porto, Póvoa de Varzim","Artigo 20.º, n.º 1, alínea a) do Código dos Contratos Públicos",,,,,,Não aplicável.,Não aplicável.,FALSE
Fornecimento de material de penso de acordo com o caderno de encargos e anexo III.,Ajuste Direto Regime Geral,Aquisição de bens móveis,"33140000-3, Material médico de consumo","Centro Hospitalar Póvoa de Varzim - Vila do Conde, E. P. E. (508741823)",BASTOS VIEGAS SA (500042772),"85,50 €",31-08-2017,14-05-2015,232 dias,"Portugal, Porto, Póvoa de Varzim","Artigo 20.º, n.º 1, alínea a) do Código dos Contratos Públicos",,,,,,Não aplicável.,Não aplicável.,FALSE
Fornecimento de material de penso de acordo com o caderno de encargos e anexo III.,Ajuste Direto Regime Geral,Aquisição de bens móveis,"33141126-9, Ligaduras","Centro Hospitalar Póvoa de Varzim - Vila do Conde, E. P. E. (508741823)","BSN MEDICAL, S.A. (505385058)","1.590,00 €",31-08-2017,21-04-2015,232 dias,"Portugal, Porto, Póvoa de Varzim","Artigo 20.º, n.º 1, alínea a) do Código dos Contratos Públicos",,,,,,Não aplicável.,Não aplicável.,FALSE
"Tem por objecto a aquisição de Material de Penso, de acordo com o convite e caderno de encargos.",Ajuste Direto Regime Geral,Aquisição de bens móveis,"33140000-3, Material médico de consumo","Centro Hospitalar Póvoa de Varzim - Vila do Conde, E. P. E. (508741823)","ANASTACIO SALDANHA UNIPESSOAL, LDA. (505804441)","462,70 €",31-08-2017,14-05-2015,232 dias,"Portugal, Porto, Póvoa de Varzim","Artigo 20.º, n.º 1, alínea a) do Código dos Contratos Públicos",,,,,,Não aplicável.,Não aplicável.,FALSE
