Objeto do Contrato,Tipo de Procedimento,Tipo(s) de Contrato,CPVs,Entidade(s) Adjudicante(s),Entidade(s) Adjudicatária(s),Preço Contratual,Data de Publicação,Data de Celebração do Contrato,Prazo de Execução,Local de Execução,Fundamentação,Data de Fecho do Contrato,Preço Total Efetivo,Causas das Alterações ao Prazo,Causas das Alterações ao Preço,Estado,N.º registo do Acordo Quadro,Descrição do Acordo Quadro,Procedimento Centralizado
Cardioversor Desfibrilhador Bivent. com Electrodos        1 Unidade  Cardioversor Desfibrilhador sem Electrodos   1 Unidade,Ajuste Direto Regime Geral,Aquisição de bens móveis,"33000000-0, Equipamento médico, medicamentos e produtos para cuidados pessoais","Centro Hospitalar e Universitário de Coimbra, E.P.E. (510103448)","Boston Scientific Portugal, Lda (504988964)","34.000,00 €",20-06-2013,12-06-2013,20 dias,"Portugal, Coimbra, Coimbra","Artigo 24.º, n.º 1, alínea e) do Código dos Contratos Públicos","","",,"",,Não aplicável.,Não aplicável.,
Cardioversor Desf. Biventricular sem Electrodos  - 1  Unidade  Cardioversores Desf. com Electrodos   -  2 unidades,Ajuste Direto Regime Geral,Aquisição de bens móveis,"33000000-0, Equipamento médico, medicamentos e produtos para cuidados pessoais","Centro Hospitalar e Universitário de Coimbra, E.P.E. (510103448)","Boston Scientific Portugal, Lda (504988964)","46.980,00 €",19-06-2013,01-06-2013,20 dias,"Portugal, Coimbra, Coimbra","Artigo 24.º, n.º 1, alínea e) do Código dos Contratos Públicos","","",,"",,Não aplicável.,Não aplicável.,
5420430/2013 - OSTEOSSINTESE,Ajuste Direto Regime Geral,Aquisição de bens móveis,"33000000-0, Equipamento médico, medicamentos e produtos para cuidados pessoais","Centro Hospitalar e Universitário de Coimbra, E.P.E. (510103448)",SYNTHES (501212191),"4.427,70 €",19-06-2013,12-06-2013,20 dias,"Portugal, Coimbra, Coimbra","Artigo 24.º, n.º 1, alínea e) do Código dos Contratos Públicos","","",,"",,Não aplicável.,Não aplicável.,
5420427/2013 - OSTEOSSINTESE,Ajuste Direto Regime Geral,Aquisição de bens móveis,"33000000-0, Equipamento médico, medicamentos e produtos para cuidados pessoais","Centro Hospitalar e Universitário de Coimbra, E.P.E. (510103448)",SYNTHES (501212191),"1.594,97 €",19-06-2013,12-06-2013,15 dias,"Portugal, Coimbra, Coimbra","Artigo 24.º, n.º 1, alínea e) do Código dos Contratos Públicos","","",,"",,Não aplicável.,Não aplicável.,
5420432/2013 - PROTESE DO DISCO INTERVERTEBRAL,Ajuste Direto Regime Geral,Aquisição de bens móveis,"33000000-0, Equipamento médico, medicamentos e produtos para cuidados pessoais","Centro Hospitalar e Universitário de Coimbra, E.P.E. (510103448)",SYNTHES (501212191),"3.467,86 €",19-06-2013,12-06-2013,15 dias,"Portugal, Coimbra, Coimbra","Artigo 24.º, n.º 1, alínea e) do Código dos Contratos Públicos","","",,"",,Não aplicável.,Não aplicável.,
5420426/2013- OSTEOSSINTESE,Ajuste Direto Regime Geral,Aquisição de bens móveis,"33000000-0, Equipamento médico, medicamentos e produtos para cuidados pessoais","Centro Hospitalar e Universitário de Coimbra, E.P.E. (510103448)",SYNTHES (501212191),"856,11 €",19-06-2013,12-06-2013,10 dias,"Portugal, Coimbra, Coimbra","Artigo 24.º, n.º 1, alínea e) do Código dos Contratos Públicos","","",,"",,Não aplicável.,Não aplicável.,
5420395/2013 - OSTEOSSINTESE,Ajuste Direto Regime Geral,Aquisição de bens móveis,"33000000-0, Equipamento médico, medicamentos e produtos para cuidados pessoais","Centro Hospitalar e Universitário de Coimbra, E.P.E. (510103448)",SYNTHES (501212191),"3.461,20 €",19-06-2013,12-06-2013,10 dias,"Portugal, Coimbra, Coimbra","Artigo 24.º, n.º 1, alínea e) do Código dos Contratos Públicos","","",,"",,Não aplicável.,Não aplicável.,
5420438/2013 - MATERIAL DE COLUNA,Ajuste Direto Regime Geral,Aquisição de bens móveis,"33000000-0, Equipamento médico, medicamentos e produtos para cuidados pessoais","Centro Hospitalar e Universitário de Coimbra, E.P.E. (510103448)",SYNTHES  (501212191),"7.305,68 €",19-06-2013,12-06-2013,10 dias,"Portugal, Coimbra, Coimbra","Artigo 24.º, n.º 1, alínea e) do Código dos Contratos Públicos","","",,"",,Não aplicável.,Não aplicável.,
5420311/2013 - OUTRO MATERIAL DE CONSUMO,Ajuste Direto Regime Geral,Aquisição de bens móveis,"33000000-0, Equipamento médico, medicamentos e produtos para cuidados pessoais","Centro Hospitalar e Universitário de Coimbra, E.P.E. (510103448)","JOHNSON & JOHNSON, LDA (500153370)","3.633,75 €",19-06-2013,12-06-2013,10 dias,"Portugal, Coimbra, Coimbra","Artigo 24.º, n.º 1, alínea a) do Código dos Contratos Públicos","","",,"",,Não aplicável.,Não aplicável.,
5420429/2013 - OSTEOSSINTESE,Ajuste Direto Regime Geral,Aquisição de bens móveis,"33000000-0, Equipamento médico, medicamentos e produtos para cuidados pessoais","Centro Hospitalar e Universitário de Coimbra, E.P.E. (510103448)","SYNTHES - COMERCIALIZAÇAO DE DISPOSITIVOS MEDICOS, LDA (501212191)","1.048,35 €",19-06-2013,12-06-2013,10 dias,"Portugal, Coimbra, Coimbra","Artigo 24.º, n.º 1, alínea a) do Código dos Contratos Públicos","","",,"",,Não aplicável.,Não aplicável.,
5420428/2013 - OSTEOSSINTESE,Ajuste Direto Regime Geral,Aquisição de bens móveis,"33000000-0, Equipamento médico, medicamentos e produtos para cuidados pessoais","Centro Hospitalar e Universitário de Coimbra, E.P.E. (510103448)","SYNTHES - COMERCIALIZAÇAO DE DISPOSITIVOS MEDICOS, LD (501212191)","1.914,11 €",19-06-2013,12-06-2013,20 dias,"Portugal, Coimbra, Coimbra","Artigo 24.º, n.º 1, alínea a) do Código dos Contratos Públicos","","",,"",,Não aplicável.,Não aplicável.,
5420436/2013 - OSTEOSSINTESE,Ajuste Direto Regime Geral,Aquisição de bens móveis,"33000000-0, Equipamento médico, medicamentos e produtos para cuidados pessoais","Centro Hospitalar e Universitário de Coimbra, E.P.E. (510103448)","SYNTHES - COMERCIALIZAÇÃO DE DISPOSITIVOS MEDICOS, LDA (501212191)","783,35 €",19-06-2013,12-06-2013,10 dias,"Portugal, Coimbra, Coimbra","Artigo 24.º, n.º 1, alínea a) do Código dos Contratos Públicos","","",,"",,Não aplicável.,Não aplicável.,
5420439/2013 - material de coluna,Ajuste Direto Regime Geral,Aquisição de bens móveis,"33000000-0, Equipamento médico, medicamentos e produtos para cuidados pessoais","Centro Hospitalar e Universitário de Coimbra, E.P.E. (510103448)",EUROSINTESE (503491403),"3.540,00 €",19-06-2013,12-06-2013,15 dias,"Portugal, Coimbra, Coimbra<BR/>Portugal","Artigo 24.º, n.º 1, alínea a) do Código dos Contratos Públicos","","",,"",,Não aplicável.,Não aplicável.,
Cardioversor Desfibrilhador com Electrodos - 1 Unidade,Ajuste Direto Regime Geral,Aquisição de bens móveis,"33000000-0, Equipamento médico, medicamentos e produtos para cuidados pessoais","Centro Hospitalar e Universitário de Coimbra, E.P.E. (510103448)","Sorincardio - Comercialização e Destribuição de Equipamentos Médicos, lda (505514010)","13.500,00 €",19-06-2013,30-05-2013,20 dias,"Portugal, Coimbra, Coimbra","Artigo 24.º, n.º 1, alínea e) do Código dos Contratos Públicos","","",,"",,Não aplicável.,Não aplicável.,
2 unidades     -   Cardioversores Desfibrilhadores com Electrodos,Ajuste Direto Regime Geral,Aquisição de bens móveis,"33000000-0, Equipamento médico, medicamentos e produtos para cuidados pessoais","Centro Hospitalar e Universitário de Coimbra, E.P.E. (510103448)","Sorincardio - Comercialização e Destribuição de equipamentos Médicos,Lda (505514010)","30.000,00 €",19-06-2013,31-05-2013,20 dias,"Portugal, Coimbra, Coimbra","Artigo 24.º, n.º 1, alínea e) do Código dos Contratos Públicos","","",,"",,Não aplicável.,Não aplicável.,
Cardioversores  Desfibrilhadores com Electrodo  -   2 unidades,Ajuste Direto Regime Geral,Aquisição de bens móveis,"33000000-0, Equipamento médico, medicamentos e produtos para cuidados pessoais","Centro Hospitalar e Universitário de Coimbra, E.P.E. (510103448)","Sorincardio - Comercialização e Destribuição de Equipamentos Médicos, Lda (505514010)","30.000,00 €",19-06-2013,31-05-2013,20 dias,"Portugal, Coimbra, Coimbra","Artigo 24.º, n.º 1, alínea e) do Código dos Contratos Públicos","","",,"",,Não aplicável.,Não aplicável.,
5420433/2013 - PROTESE DE REVISAO TC3,Ajuste Direto Regime Geral,Aquisição de bens móveis,"33000000-0, Equipamento médico, medicamentos e produtos para cuidados pessoais","Centro Hospitalar e Universitário de Coimbra, E.P.E. (510103448)",JOHNSON & JOHNSON LT (500153370),"9.010,00 €",18-06-2013,12-06-2013,20 dias,"Portugal, Coimbra, Coimbra","Artigo 24.º, n.º 1, alínea a) do Código dos Contratos Públicos","","",,"",,Não aplicável.,Não aplicável.,
5420404/2013 - PROTESE DA ANCA CIMENTADAS,Ajuste Direto Regime Geral,Aquisição de bens móveis,"33000000-0, Equipamento médico, medicamentos e produtos para cuidados pessoais","Centro Hospitalar e Universitário de Coimbra, E.P.E. (510103448)",ZIMMER SA (980151716),"1.824,00 €",18-06-2013,09-06-2013,10 dias,"Portugal, Coimbra, Coimbra","Artigo 24.º, n.º 1, alínea a) do Código dos Contratos Públicos","","",,"",,Não aplicável.,Não aplicável.,
5420412/2013 - OSTEOSSINTESE,Ajuste Direto Regime Geral,Aquisição de bens móveis,"33000000-0, Equipamento médico, medicamentos e produtos para cuidados pessoais","Centro Hospitalar e Universitário de Coimbra, E.P.E. (510103448)",SYNTHES - COMERCIALIZAÇAO DE DISPOSITIVOS MEDICOS LDA (501212191),"2.128,51 €",18-06-2013,09-06-2013,10 dias,"Portugal, Coimbra, Coimbra","Artigo 24.º, n.º 1, alínea a) do Código dos Contratos Públicos","","",,"",,Não aplicável.,Não aplicável.,
5420410/2013 MATERIAL DE COLUNA LEGACY,Ajuste Direto Regime Geral,Aquisição de bens móveis,"33000000-0, Equipamento médico, medicamentos e produtos para cuidados pessoais","Centro Hospitalar e Universitário de Coimbra, E.P.E. (510103448)",MEDTRONIC PORTUGAL (504223933),"4.864,00 €",18-06-2013,09-06-2013,10 dias,"Portugal, Coimbra, Coimbra","Artigo 24.º, n.º 1, alínea a) do Código dos Contratos Públicos","","",,"",,Não aplicável.,Não aplicável.,
5420411/2013 - coluna,Ajuste Direto Regime Geral,Aquisição de bens móveis,"33000000-0, Equipamento médico, medicamentos e produtos para cuidados pessoais","Centro Hospitalar e Universitário de Coimbra, E.P.E. (510103448)",EUROSINTESE (503491403),"6.162,50 €",18-06-2013,09-06-2013,10 dias,"Portugal, Coimbra, Coimbra","Artigo 20.º, n.º 1, alínea a) do Código dos Contratos Públicos","","",,"",,Não aplicável.,Não aplicável.,
Cassete c/peroxido hidrogenio p/equip Sterrad NX_Exclusivo,Ajuste Direto Regime Geral,Aquisição de bens móveis,"33000000-0, Equipamento médico, medicamentos e produtos para cuidados pessoais","Centro Hospitalar e Universitário de Coimbra, E.P.E. (510103448)","Johnson & Johnson,Lda (500153370)","23.800,50 €",18-06-2013,01-06-2013,196 dias,"Portugal, Coimbra, Coimbra","Artigo 24.º, n.º 1, alínea e) do Código dos Contratos Públicos","","",,"",,Não aplicável.,Não aplicável.,
Pulseira electronica descartavel p/identificacao recem-nascido,Ajuste Direto Regime Geral,Aquisição de bens móveis,"33000000-0, Equipamento médico, medicamentos e produtos para cuidados pessoais","Centro Hospitalar e Universitário de Coimbra, E.P.E. (510103448)","NOVALEC-Electronica Industrial de Protecção e Comando,Lda (502249919)","8.580,00 €",18-06-2013,01-06-2013,196 dias,"Portugal, Coimbra, Coimbra","Artigo 24.º, n.º 1, alínea e) do Código dos Contratos Públicos","","",,"",,Não aplicável.,Não aplicável.,
Material de Coluna do HP(REQ. 53),Ajuste Direto Regime Geral,Aquisição de bens móveis,"33000000-0, Equipamento médico, medicamentos e produtos para cuidados pessoais","Centro Hospitalar e Universitário de Coimbra, E.P.E. (510103448)","MEDTRONIC PT-C.DIST.AP.MED,LDA (504223933)","5.430,00 €",17-06-2013,04-05-2013,1 dias,"Portugal, Coimbra, Coimbra","Artigo 24.º, n.º 1, alínea e) do Código dos Contratos Públicos","","",,"",,Não aplicável.,Não aplicável.,
Balões de Angioplastia e Valvuloplastia,Ajuste Direto Regime Geral,Aquisição de bens móveis,"33000000-0, Equipamento médico, medicamentos e produtos para cuidados pessoais","Centro Hospitalar e Universitário de Coimbra, E.P.E. (510103448)","Terumo Europe Espanha, S.L (980472024)","26.800,00 €",17-06-2013,12-06-2013,245 dias,"Portugal, Coimbra, Coimbra","Artigo 24.º, n.º 1, alínea e) do Código dos Contratos Públicos","","",,"",,Não aplicável.,Não aplicável.,
Material de Coluna(Tecnica Malibu Daytona),Ajuste Direto Regime Geral,Aquisição de bens móveis,"33000000-0, Equipamento médico, medicamentos e produtos para cuidados pessoais","Centro Hospitalar e Universitário de Coimbra, E.P.E. (510103448)",ACUNA Y FOMBONA (980095891),"14.968,82 €",14-06-2013,12-06-2013,1 dias,"Portugal, Coimbra, Coimbra","Artigo 24.º, n.º 1, alínea e) do Código dos Contratos Públicos","","",,"",,Não aplicável.,Não aplicável.,
Material Coluna (Técnica Malibu Daytona),Ajuste Direto Regime Geral,Aquisição de bens móveis,"33000000-0, Equipamento médico, medicamentos e produtos para cuidados pessoais","Centro Hospitalar e Universitário de Coimbra, E.P.E. (510103448)",ACUNA Y FOMBONA (980095891),"13.291,47 €",14-06-2013,12-06-2013,1 dias,"Portugal, Coimbra, Coimbra","Artigo 24.º, n.º 1, alínea e) do Código dos Contratos Públicos","","",,"",,Não aplicável.,Não aplicável.,
Material de Coluna(Técnica Malibu Daytona),Ajuste Direto Regime Geral,Aquisição de bens móveis,"33000000-0, Equipamento médico, medicamentos e produtos para cuidados pessoais","Centro Hospitalar e Universitário de Coimbra, E.P.E. (510103448)",ACUNA Y FOMBONA (980095891),"143.781,17 €",14-06-2013,12-06-2013,1 dias,"Portugal, Coimbra, Coimbra","Artigo 24.º, n.º 1, alínea e) do Código dos Contratos Públicos","","",,"",,Não aplicável.,Não aplicável.,
"Encaixe  para protese transtibial, 1 unidade  Encaixe para amputação transfemoral, 1 unidade  Protese para amputação transfemoral, 1 unidade",Ajuste Direto Regime Geral,Aquisição de bens móveis,"33000000-0, Equipamento médico, medicamentos e produtos para cuidados pessoais","Centro Hospitalar e Universitário de Coimbra, E.P.E. (510103448)","Quantum Ortopédicos, Ldª (503197840), Ortomilenio-Ind. de Proteses e Ortoteses, Ldª (510169627)","3.482,50 €",13-06-2013,12-06-2013,30 dias,"Portugal, Coimbra, Coimbra","Artigo 20.º, n.º 1, alínea a) do Código dos Contratos Públicos","","",,"",,Não aplicável.,Não aplicável.,
"Protese para amputação transfemoral, 1 unidade; Protese para amputação transtibial, 1 unidade",Ajuste Direto Regime Geral,Aquisição de bens móveis,"33000000-0, Equipamento médico, medicamentos e produtos para cuidados pessoais","Centro Hospitalar e Universitário de Coimbra, E.P.E. (510103448)","Ortopedia Alvalan, Lda. (500749060), Ortopedia Universal, Lda. (502367644)","3.828,00 €",13-06-2013,06-04-2013,30 dias,"Portugal, Coimbra, Coimbra","Artigo 20.º, n.º 1, alínea a) do Código dos Contratos Públicos","","",,"",,Não aplicável.,Não aplicável.,
"Protese de amputação transtibial, 1 unidade; Protese de amputação transfemoral, 1 unidade; Substituição de encaixe de protese canadense, 1 unidade",Ajuste Direto Regime Geral,Aquisição de bens móveis,"33000000-0, Equipamento médico, medicamentos e produtos para cuidados pessoais","Centro Hospitalar e Universitário de Coimbra, E.P.E. (510103448)","Quantum Ortopedicos, Lda. (503197840), Oropedia Alvalan, Lda. (500749060)","8.247,50 €",13-06-2013,10-03-2013,30 dias,"Portugal, Coimbra, Coimbra","Artigo 20.º, n.º 1, alínea a) do Código dos Contratos Públicos","","",,"",,Não aplicável.,Não aplicável.,
Balões de Angioplastia e Valvuloplastia,Ajuste Direto Regime Geral,Aquisição de bens móveis,"33000000-0, Equipamento médico, medicamentos e produtos para cuidados pessoais","Centro Hospitalar e Universitário de Coimbra, E.P.E. (510103448)","ABBOTT LABORATORIOS,LDA. (500006148)","4.950,00 €",13-06-2013,14-05-2013,245 dias,"Portugal, Coimbra, Coimbra","Artigo 24.º, n.º 1, alínea e) do Código dos Contratos Públicos","","",,"",,Não aplicável.,Não aplicável.,
CHUPETAS PARA RECÉM NASCIDOS PREMATURAS - 90 UN.,Ajuste Direto Regime Geral,Aquisição de bens móveis,"33000000-0, Equipamento médico, medicamentos e produtos para cuidados pessoais","Centro Hospitalar e Universitário de Coimbra, E.P.E. (510103448)","MAGNAMED - COMERCIALIZAÇÃO DE PRODUTOS MÉDICOS, LDª (503640476)","225,00 €",12-06-2013,01-06-2013,180 dias,"Portugal, Coimbra, Coimbra","Artigo 20.º, n.º 1, alínea a) do Código dos Contratos Públicos","","",,"",,Não aplicável.,Não aplicável.,
Aquisição de: CAL SODADA TIPO ( DRAGERSORB CLIC),Ajuste Direto Regime Geral,Aquisição de bens móveis,"33000000-0, Equipamento médico, medicamentos e produtos para cuidados pessoais","Centro Hospitalar e Universitário de Coimbra, E.P.E. (510103448)","Drager Porygal, Lda (508771323)","18.309,72 €",12-06-2013,25-03-2013,365 dias,"Portugal, Coimbra, Coimbra","Artigo 20.º, n.º 1, alínea a) do Código dos Contratos Públicos",31-12-2013,"24.711,72 €",,"",,Não aplicável.,Não aplicável.,
2 unidades de peças de mão,Ajuste Direto Regime Geral,Aquisição de bens móveis,"33000000-0, Equipamento médico, medicamentos e produtos para cuidados pessoais","Centro Hospitalar e Universitário de Coimbra, E.P.E. (510103448)","Alcon Portugal-Produtos e Equipamentos Oftalmológicos, Lda (501251685)","5.000,00 €",11-06-2013,09-06-2013,30 dias,"Portugal, Coimbra, Coimbra","Artigo 24.º, n.º 1, alínea e) do Código dos Contratos Públicos","","",,"",,Não aplicável.,Não aplicável.,
Aquisição de:  Eptacog alfa (activado) 250 KUI pó sol. inj. fr. IV,Ajuste Direto Regime Geral,Aquisição de bens móveis,"33000000-0, Equipamento médico, medicamentos e produtos para cuidados pessoais","Centro Hospitalar e Universitário de Coimbra, E.P.E. (510103448)","Novo Nordisk, Lda (501485210)","152.000,00 €",11-06-2013,20-05-2013,365 dias,"Portugal, Coimbra, Coimbra","Artigo 24.º, n.º 1, alínea e) do Código dos Contratos Públicos",31-12-2013,"152.000,00 €",,"",,Não aplicável.,Não aplicável.,
Aquisição de:  Antisépticos e Desinfetantes,Ajuste Direto Regime Geral,Aquisição de bens móveis,"33000000-0, Equipamento médico, medicamentos e produtos para cuidados pessoais","Centro Hospitalar e Universitário de Coimbra, E.P.E. (510103448)","Proclinica, Lda (500222665)","27.868,93 €",11-06-2013,15-05-2013,365 dias,"Portugal, Coimbra, Coimbra","Artigo 20.º, n.º 1, alínea a) do Código dos Contratos Públicos",31-12-2013,"32.720,13 €",,Devido ao acréscimo elevado do número de doentes,,Não aplicável.,Não aplicável.,
"Aquisição de: Netilmicina 150mg/1,5ml sol. inj. fr. 1,5ml IM IV",Ajuste Direto Regime Geral,Aquisição de bens móveis,"33000000-0, Equipamento médico, medicamentos e produtos para cuidados pessoais","Centro Hospitalar e Universitário de Coimbra, E.P.E. (510103448)","Laboratórios Atral,S. A. (500162085)","68.280,00 €",11-06-2013,15-05-2013,365 dias,"Portugal, Coimbra, Coimbra","Artigo 20.º, n.º 1, alínea a) do Código dos Contratos Públicos",31-12-2013,"68.280,00 €",,"",,Não aplicável.,Não aplicável.,
Aquisição de: NONACOG ALFA 250 U.I. PÓ SOL INJ FR IV,Ajuste Direto Regime Geral,Aquisição de bens móveis,"33000000-0, Equipamento médico, medicamentos e produtos para cuidados pessoais","Centro Hospitalar e Universitário de Coimbra, E.P.E. (510103448)","Laboratórios Pfizer, Lda (500162166)","18.523,86 €",11-06-2013,18-02-2013,365 dias,"Portugal, Coimbra, Coimbra","Artigo 24.º, n.º 1, alínea e) do Código dos Contratos Públicos",31-12-2013,"18.523,86 €",,"",,Não aplicável.,Não aplicável.,
Aquisição de: PLASMA HUMANO DO GRUPO AB SOL INJ FR 200 ML IV,Ajuste Direto Regime Geral,Aquisição de bens móveis,"33000000-0, Equipamento médico, medicamentos e produtos para cuidados pessoais","Centro Hospitalar e Universitário de Coimbra, E.P.E. (510103448)","Octapharma - Produtos Farmacêuticos, Lda (502820780)","70.920,00 €",11-06-2013,27-02-2013,365 dias,"Portugal, Coimbra, Coimbra","Artigo 24.º, n.º 1, alínea e) do Código dos Contratos Públicos",31-12-2013,"70.920,00 €",,"",,Não aplicável.,Não aplicável.,
