Objeto do Contrato,Tipo de Procedimento,Tipo(s) de Contrato,CPVs,Entidade(s) Adjudicante(s),Entidade(s) Adjudicatária(s),Preço Contratual,Data de Publicação,Data de Celebração do Contrato,Prazo de Execução,Local de Execução,Fundamentação,Data de Fecho do Contrato,Preço Total Efetivo,Causas das Alterações ao Prazo,Causas das Alterações ao Preço,Estado,N.º registo do Acordo Quadro,Descrição do Acordo Quadro,Procedimento Centralizado
Fios de Sutura,Ajuste Direto Regime Geral,Aquisição de bens móveis,"33140000-3, Material médico de consumo","Centro Hospitalar de Leiria, E. P. E. (509822932)","MEDTRONIC PORTUGAL, LDA (504223933)","7.726,20 €",31-08-2017,02-08-2017,365 dias,"Portugal, Leiria, Leiria","Artigo 20.º, n.º 1, alínea a) do Código dos Contratos Públicos","","",,,,Não aplicável.,Não aplicável.,FALSE
Fios de Sutura,Ajuste Direto Regime Geral,Aquisição de bens móveis,"33140000-3, Material médico de consumo","Centro Hospitalar de Leiria, E. P. E. (509822932)","B.BRAUN MEDICAL, LDA (501506543)","2.141,52 €",31-08-2017,02-08-2017,365 dias,"Portugal, Leiria, Leiria","Artigo 20.º, n.º 1, alínea a) do Código dos Contratos Públicos","","",,,,Não aplicável.,Não aplicável.,FALSE
Material de Pacing,Ajuste Direto Regime Geral,Aquisição de bens móveis,"33140000-3, Material médico de consumo","Centro Hospitalar de Leiria, E. P. E. (509822932)","FARMIMPEX-EQUIP.MEDICO-CIRURGICO,LDA. (503061506)","14.825,00 €",31-08-2017,17-07-2017,30 dias,"Portugal, Leiria, Leiria","Artigo 20.º, n.º 1, alínea a) do Código dos Contratos Públicos",24-08-2017,"14.825,00 €",,,,Não aplicável.,Não aplicável.,FALSE
1206O17 Medicamento Caspofungina 50 mg inj,Ao abrigo de acordo-quadro (art.º 259.º),Aquisição de bens móveis,"33600000-6, Produtos farmacêuticos","Centro Hospitalar de Leiria, E. P. E. (509822932)","MERCK SHARP E DOHME, LDA (500191360)","8.830,40 €",31-08-2017,30-08-2017,150 dias,"Portugal, Leiria, Leiria",Artigo 259.º do Código dos Contratos Públicos,"","",,,,1422736,CP 2015/41 - ACORDO QUADRO PARA FORNECIMENTO DE MEDICAMENTOS ANTI-INFECIOSOS: ANTIVÍRICOS E ANTIFÚNGICOS ÀS INSTITUIÇÕES E SERVIÇOS DO SERVIÇO NACIONAL DE SAÚDE,FALSE
"1186O17 Medicamento Fentanilo 0,25 mg/5 ml",Ao abrigo de acordo-quadro (art.º 259.º),Aquisição de bens móveis,"33600000-6, Produtos farmacêuticos","Centro Hospitalar de Leiria, E. P. E. (509822932)","LABESFAL-LABORATORIOS ALMIRO, SA (501169580)","179,25 €",31-08-2017,30-08-2017,20 dias,"Portugal, Leiria, Leiria",Artigo 259.º do Código dos Contratos Públicos,31-08-2017,"179,25 €",,,,1974985,"Medicamentos Analgésicos, Antipiréticos e Antidepressivos",FALSE
Medicamentos Antipsicóticos,Ao abrigo de acordo-quadro (art.º 259.º),Aquisição de bens móveis,"33661000-1, Medicamentos para o sistema nervoso","CENTRO HOSPITALAR DE LEIRIA, E.P.E. (509822932)","SANOFI-PRODUTOS FARMACEUTICOS,LDA (500134960)","1.950,00 €",31-08-2017,14-08-2017,365 dias,"Portugal, Leiria, Leiria",Artigo 259.º do Código dos Contratos Públicos,"","",,,,2356543,CP 2016/19 - Medicamentos Antipsicóticos,FALSE
Medicamentos Aparelho Respiratório,Ao abrigo de acordo-quadro (art.º 259.º),Aquisição de bens móveis,"33661000-1, Medicamentos para o sistema nervoso","CENTRO HOSPITALAR DE LEIRIA, E.P.E. (509822932)",PHARMAKERN PORTUGAL (507002571),"73,31 €",31-08-2017,14-08-2017,365 dias,"Portugal, Leiria, Leiria",Artigo 259.º do Código dos Contratos Públicos,"","",,,,2356543,CP 2016/19 - Medicamentos Antipsicóticos,FALSE
Medicamentos Antipsicóticos,Ao abrigo de acordo-quadro (art.º 259.º),Aquisição de bens móveis,"33661000-1, Medicamentos para o sistema nervoso","CENTRO HOSPITALAR DE LEIRIA, E.P.E. (509822932)",AUROBINDO PHARMA PORTUGAL (508527465),"659,52 €",31-08-2017,14-08-2017,365 dias,"Portugal, Leiria, Leiria",Artigo 259.º do Código dos Contratos Públicos,"","",,,,2356543,CP 2016/19 - Medicamentos Antipsicóticos,FALSE
Medicamentos Antipsicóticos,Ao abrigo de acordo-quadro (art.º 259.º),Aquisição de bens móveis,"33661000-1, Medicamentos para o sistema nervoso","CENTRO HOSPITALAR DE LEIRIA, E.P.E. (509822932)",OVERPHARMA - PRODUTOS MEDICOS E FARM.              (505792362),"7.506,24 €",31-08-2017,14-08-2017,365 dias,"Portugal, Leiria, Leiria",Artigo 259.º do Código dos Contratos Públicos,"","",,,,2356543,CP 2016/19 - Medicamentos Antipsicóticos,FALSE
Medicamentos Antipsicóticos,Ao abrigo de acordo-quadro (art.º 259.º),Aquisição de bens móveis,"33661000-1, Medicamentos para o sistema nervoso","CENTRO HOSPITALAR DE LEIRIA, E.P.E. (509822932)","PROFARIN-DIST.FARMAC.IND.,LDA. (500223238)","626,85 €",31-08-2017,14-08-2017,365 dias,"Portugal, Leiria, Leiria",Artigo 259.º do Código dos Contratos Públicos,"","",,,,2356543,CP 2016/19 - Medicamentos Antipsicóticos,FALSE
Medicamentos Antipsicóticos,Ao abrigo de acordo-quadro (art.º 259.º),Aquisição de bens móveis,"33661000-1, Medicamentos para o sistema nervoso","CENTRO HOSPITALAR DE LEIRIA, E.P.E. (509822932)",Ratiopharma (502414910),"5.120,00 €",31-08-2017,14-08-2017,365 dias,"Portugal, Leiria, Leiria",Artigo 259.º do Código dos Contratos Públicos,"","",,,,2356543,CP 2016/19 - Medicamentos Antipsicóticos,FALSE
Medicamentos Antipsicóticos,Ao abrigo de acordo-quadro (art.º 259.º),Aquisição de bens móveis,"33661000-1, Medicamentos para o sistema nervoso","CENTRO HOSPITALAR DE LEIRIA, E.P.E. (509822932)","JANSSEN CILAG FARMACEUTICA, LDA (500189412)","53.067,92 €",31-08-2017,14-08-2017,365 dias,"Portugal, Leiria, Leiria",Artigo 259.º do Código dos Contratos Públicos,"","",,,,2356543,CP 2016/19 - Medicamentos Antipsicóticos,FALSE
Medicamentos Antipsicóticos,Ao abrigo de acordo-quadro (art.º 259.º),Aquisição de bens móveis,"33661000-1, Medicamentos para o sistema nervoso","CENTRO HOSPITALAR DE LEIRIA, E.P.E. (509822932)","LABESFAL-LAB. ALMIRO, SA.                          (501169580)","64,97 €",31-08-2017,14-08-2017,365 dias,"Portugal, Leiria, Leiria",Artigo 259.º do Código dos Contratos Públicos,"","",,,,2356543,CP 2016/19 - Medicamentos Antipsicóticos,FALSE
Medicamentos Antipsicóticos,Ao abrigo de acordo-quadro (art.º 259.º),Aquisição de bens móveis,"33661000-1, Medicamentos para o sistema nervoso","CENTRO HOSPITALAR DE LEIRIA, E.P.E. (509822932)","Generis Farmacêutica, SA (508107997)","635,64 €",31-08-2017,14-08-2017,365 dias,"Portugal, Leiria, Leiria",Artigo 259.º do Código dos Contratos Públicos,"","",,,,2356543,CP 2016/19 - Medicamentos Antipsicóticos,FALSE
Reagentes Diversos Imunologia - Leptospira,Ajuste Direto Regime Geral,Aquisição de bens móveis,"33600000-6, Produtos farmacêuticos","Centro Hospitalar de Leiria, E. P. E. (509822932)",Know-how Lda (509884296),"477,00 €",30-08-2017,30-08-2017,120 dias,"Portugal, Leiria, Leiria","Artigo 20.º, n.º 1, alínea a) do Código dos Contratos Públicos","","",,,,Não aplicável.,Não aplicável.,FALSE
Reagentes Diversos Microbiologia - Pesquisa H1N1,Ajuste Direto Regime Geral,Aquisição de bens móveis,"33600000-6, Produtos farmacêuticos","Centro Hospitalar de Leiria, E. P. E. (509822932)","Alere, Lda (502518863)","1.200,00 €",30-08-2017,30-08-2017,120 dias,"Portugal, Leiria, Leiria","Artigo 26.º, n.º 1, alínea a) do Código dos Contratos Públicos","","",,,,Não aplicável.,Não aplicável.,FALSE
"Medicamentos Antialérgicos, Intoxicações, Vitaminas",Ao abrigo de acordo-quadro (art.º 259.º),Aquisição de bens móveis,"33600000-6, Produtos farmacêuticos","Centro Hospitalar de Leiria, E. P. E. (509822932)","LEO Farmacêuticos, Lda. (503932680)","115,71 €",30-08-2017,14-08-2017,365 dias,"Portugal, Leiria, Leiria",Artigo 259.º do Código dos Contratos Públicos,"","",,,,1338581,"Acordo quadro para fornecimento de Medicação antialérgica, medicamentos usados no tratamento de intoxicações, vitaminas e sais minerais e grupo 20.9 - outros produtos às instituições e serviços do serviço nacional de saúde",FALSE
"Medicamentos Antialérgicos, Intoxicações, Vitaminas",Ao abrigo de acordo-quadro (art.º 259.º),Aquisição de bens móveis,"33600000-6, Produtos farmacêuticos","Centro Hospitalar de Leiria, E. P. E. (509822932)","FARMOZ - Sociedade Tecnico Medicinal, SA (501505334)","8.636,43 €",30-08-2017,14-08-2017,365 dias,"Portugal, Leiria, Leiria",Artigo 259.º do Código dos Contratos Públicos,"","",,,,1338581,"Acordo quadro para fornecimento de Medicação antialérgica, medicamentos usados no tratamento de intoxicações, vitaminas e sais minerais e grupo 20.9 - outros produtos às instituições e serviços do serviço nacional de saúde",FALSE
"Medicamentos Antialérgicos, Intoxicações, Vitaminas",Ao abrigo de acordo-quadro (art.º 259.º),Aquisição de bens móveis,"33600000-6, Produtos farmacêuticos","Centro Hospitalar de Leiria, E. P. E. (509822932)","Novartis Farma Produtos Farmaceuticos, Lda (500063524)","6.491,28 €",30-08-2017,14-08-2017,365 dias,"Portugal, Leiria, Leiria",Artigo 259.º do Código dos Contratos Públicos,"","",,,,1338581,"Acordo quadro para fornecimento de Medicação antialérgica, medicamentos usados no tratamento de intoxicações, vitaminas e sais minerais e grupo 20.9 - outros produtos às instituições e serviços do serviço nacional de saúde",FALSE
"Medicamentos Antialérgicos, Intoxicações, Vitaminas",Ao abrigo de acordo-quadro (art.º 259.º),Aquisição de bens móveis,"33600000-6, Produtos farmacêuticos","Centro Hospitalar de Leiria, E. P. E. (509822932)","SANDOZ FARMACEUTICA, LDA (506985261)","1.406,25 €",30-08-2017,14-08-2017,365 dias,"Portugal, Leiria, Leiria",Artigo 259.º do Código dos Contratos Públicos,"","",,,,1338581,"Acordo quadro para fornecimento de Medicação antialérgica, medicamentos usados no tratamento de intoxicações, vitaminas e sais minerais e grupo 20.9 - outros produtos às instituições e serviços do serviço nacional de saúde",FALSE
"Medicamentos Antialérgicos, Intoxicações, Vitaminas",Ao abrigo de acordo-quadro (art.º 259.º),Aquisição de bens móveis,"33600000-6, Produtos farmacêuticos","Centro Hospitalar de Leiria, E. P. E. (509822932)","LABESFAL-LAB. ALMIRO, SA.                          (501169580)","9.899,19 €",30-08-2017,14-08-2017,365 dias,"Portugal, Leiria, Leiria",Artigo 259.º do Código dos Contratos Públicos,"","",,,,1338581,"Acordo quadro para fornecimento de Medicação antialérgica, medicamentos usados no tratamento de intoxicações, vitaminas e sais minerais e grupo 20.9 - outros produtos às instituições e serviços do serviço nacional de saúde",FALSE
"Medicamentos antialérgicos, Intoxicações, Vitaminas",Ao abrigo de acordo-quadro (art.º 259.º),Aquisição de bens móveis,"33600000-6, Produtos farmacêuticos","Centro Hospitalar de Leiria, E. P. E. (509822932)","LABORATORIO MEDINFAR, SA (500384045)","52,50 €",30-08-2017,14-08-2017,365 dias,"Portugal, Leiria, Leiria",Artigo 259.º do Código dos Contratos Públicos,"","",,,,1338581,"Acordo quadro para fornecimento de Medicação antialérgica, medicamentos usados no tratamento de intoxicações, vitaminas e sais minerais e grupo 20.9 - outros produtos às instituições e serviços do serviço nacional de saúde",FALSE
"Medicamentos Antialérgicos, Intoxicações, Vitaminas",Ao abrigo de acordo-quadro (art.º 259.º),Aquisição de bens móveis,"33600000-6, Produtos farmacêuticos","Centro Hospitalar de Leiria, E. P. E. (509822932)","SANOFI-PRODUTOS FARMACEUTICOS,LDA (500134960)","60,00 €",30-08-2017,14-08-2017,365 dias,"Portugal, Leiria, Leiria",Artigo 259.º do Código dos Contratos Públicos,"","",,,,1338581,"Acordo quadro para fornecimento de Medicação antialérgica, medicamentos usados no tratamento de intoxicações, vitaminas e sais minerais e grupo 20.9 - outros produtos às instituições e serviços do serviço nacional de saúde",FALSE
Medicamentos Aparelho Respiratório,Ao abrigo de acordo-quadro (art.º 259.º),Aquisição de bens móveis,"33600000-6, Produtos farmacêuticos","Centro Hospitalar de Leiria, E. P. E. (509822932)",OVERPHARMA - PRODUTOS MEDICOS E FARM.              (505792362),"234,00 €",30-08-2017,07-08-2017,20 dias,"Portugal, Leiria, Leiria",Artigo 259.º do Código dos Contratos Públicos,25-08-2017,"234,00 €",,,,1638654,CP 2015/12 - Acordo quadro para fornecimento de Medicamentos do Aparelho Respiratório às Instituições e Serviços do Serviço Nacional de Saúde,FALSE
Medicamentos Aparelho Respiratório,Ao abrigo de acordo-quadro (art.º 259.º),Aquisição de bens móveis,"33600000-6, Produtos farmacêuticos","Centro Hospitalar de Leiria, E. P. E. (509822932)","NOVARTIS FARMA-PRODUT.FARMACEUTICOS, SA (500063524)","28.350,80 €",30-08-2017,07-08-2017,20 dias,"Portugal, Leiria, Leiria",Artigo 259.º do Código dos Contratos Públicos,25-08-2017,"28.350,80 €",,,,1638654,CP 2015/12 - Acordo quadro para fornecimento de Medicamentos do Aparelho Respiratório às Instituições e Serviços do Serviço Nacional de Saúde,FALSE
Medicamentos Aparelho Respiratório,Ao abrigo de acordo-quadro (art.º 259.º),Aquisição de bens móveis,"33600000-6, Produtos farmacêuticos","Centro Hospitalar de Leiria, E. P. E. (509822932)","LABESFAL-LAB. ALMIRO, SA.                          (501169580)","2.722,20 €",30-08-2017,07-08-2017,20 dias,"Portugal, Leiria, Leiria",Artigo 259.º do Código dos Contratos Públicos,25-08-2017,"2.722,20 €",,,,1638654,CP 2015/12 - Acordo quadro para fornecimento de Medicamentos do Aparelho Respiratório às Instituições e Serviços do Serviço Nacional de Saúde,FALSE
Medicamentos Aparelho respiratório,Ao abrigo de acordo-quadro (art.º 259.º),Aquisição de bens móveis,"33600000-6, Produtos farmacêuticos","Centro Hospitalar de Leiria, E. P. E. (509822932)","Unilfarma - União Internacional de Laboratórios Farmacêuticos, Lda (500293023)","2.175,26 €",30-08-2017,07-08-2017,20 dias,"Portugal, Leiria, Leiria",Artigo 259.º do Código dos Contratos Públicos,25-08-2017,"2.175,26 €",,,,1638654,CP 2015/12 - Acordo quadro para fornecimento de Medicamentos do Aparelho Respiratório às Instituições e Serviços do Serviço Nacional de Saúde,FALSE
Medicamentos Aparelho respiratório,Ao abrigo de acordo-quadro (art.º 259.º),Aquisição de bens móveis,"33600000-6, Produtos farmacêuticos","Centro Hospitalar de Leiria, E. P. E. (509822932)","LABORATORIO MEDINFAR, SA (500384045)","581,66 €",30-08-2017,07-08-2017,20 dias,"Portugal, Leiria, Leiria",Artigo 259.º do Código dos Contratos Públicos,25-08-2017,"581,66 €",,,,1638654,CP 2015/12 - Acordo quadro para fornecimento de Medicamentos do Aparelho Respiratório às Instituições e Serviços do Serviço Nacional de Saúde,FALSE
Medicamentos Aparelho Respiratório,Ao abrigo de acordo-quadro (art.º 259.º),Aquisição de bens móveis,"33600000-6, Produtos farmacêuticos","Centro Hospitalar de Leiria, E. P. E. (509822932)","LABESFAL-LAB. ALMIRO, SA.                          (501169580)","11.912,15 €",30-08-2017,07-08-2017,20 dias,"Portugal, Leiria, Leiria",Artigo 259.º do Código dos Contratos Públicos,25-08-2017,"11.912,15 €",,,,1638654,CP 2015/12 - Acordo quadro para fornecimento de Medicamentos do Aparelho Respiratório às Instituições e Serviços do Serviço Nacional de Saúde,FALSE
Medicamentos Aparelho Respiratório,Ao abrigo de acordo-quadro (art.º 259.º),Aquisição de bens móveis,"33600000-6, Produtos farmacêuticos","Centro Hospitalar de Leiria, E. P. E. (509822932)","GLAXOSMITHKLINE-PROD.FARMACEUTICOS, LDA (500139962)","4.509,78 €",30-08-2017,07-08-2017,20 dias,"Portugal, Leiria, Leiria",Artigo 259.º do Código dos Contratos Públicos,25-08-2017,"4.509,78 €",,,,1638654,CP 2015/12 - Acordo quadro para fornecimento de Medicamentos do Aparelho Respiratório às Instituições e Serviços do Serviço Nacional de Saúde,FALSE
Medicamentos Aparelho respiratório,Ao abrigo de acordo-quadro (art.º 259.º),Aquisição de bens móveis,"33600000-6, Produtos farmacêuticos","Centro Hospitalar de Leiria, E. P. E. (509822932)","ANGELINI FARMACEUTICA,LDA (500583650)","260,60 €",30-08-2017,07-08-2017,20 dias,"Portugal, Leiria, Leiria",Artigo 259.º do Código dos Contratos Públicos,25-08-2017,"260,60 €",,,,1638654,CP 2015/12 - Acordo quadro para fornecimento de Medicamentos do Aparelho Respiratório às Instituições e Serviços do Serviço Nacional de Saúde,FALSE
Medicamentos Aparelho Respiratório,Ao abrigo de acordo-quadro (art.º 259.º),Aquisição de bens móveis,"33600000-6, Produtos farmacêuticos","Centro Hospitalar de Leiria, E. P. E. (509822932)","TEVA PHARMA-PRODUTOS FARMACEUTICOS, LDA (507045491)","37.730,00 €",30-08-2017,14-08-2017,20 dias,"Portugal, Leiria, Leiria",Artigo 259.º do Código dos Contratos Públicos,30-08-2017,"37.730,00 €",,,,1638654,CP 2015/12 - Acordo quadro para fornecimento de Medicamentos do Aparelho Respiratório às Instituições e Serviços do Serviço Nacional de Saúde,FALSE
Medicamentos Aparelho Respiratório,Ao abrigo de acordo-quadro (art.º 259.º),Aquisição de bens móveis,"33600000-6, Produtos farmacêuticos","Centro Hospitalar de Leiria, E. P. E. (509822932)","MEDA PHARMA - PRODUTOS FARMACÊUTICOS, SA.          (500082090)","519,75 €",30-08-2017,14-08-2017,20 dias,"Portugal, Leiria, Leiria",Artigo 259.º do Código dos Contratos Públicos,30-08-2017,"519,75 €",,,,1638654,CP 2015/12 - Acordo quadro para fornecimento de Medicamentos do Aparelho Respiratório às Instituições e Serviços do Serviço Nacional de Saúde,FALSE
Hormonas e Medicamentos Doenças Endócrinas,Ao abrigo de acordo-quadro (art.º 259.º),Aquisição de bens móveis,"33600000-6, Produtos farmacêuticos","Centro Hospitalar de Leiria, E. P. E. (509822932)","SANOFI-PRODUTOS FARMACEUTICOS,LDA (500134960)","3.445,50 €",30-08-2017,14-08-2017,20 dias,"Portugal, Leiria, Leiria",Artigo 259.º do Código dos Contratos Públicos,30-08-2017,"3.445,50 €",,,,1415640,CP 2015/7 - ACORDO QUADRO PARA FORNECIMENTO DE HORMONAS E OUTROS MEDICAMENTOS USADOS NO TRATAMENTO DAS DOENÇAS ENDÓCRINAS ÀS INSTITUIÇÕES E SERVIÇOS DO SERVIÇO NACIONAL DE SAÚDE,FALSE
Hormonas e Medicamentos Doenças Endócrinas,Ao abrigo de acordo-quadro (art.º 259.º),Aquisição de bens móveis,"33600000-6, Produtos farmacêuticos","Centro Hospitalar de Leiria, E. P. E. (509822932)","LABESFAL-LAB. ALMIRO, SA.                          (501169580)","56,90 €",30-08-2017,14-08-2017,20 dias,"Portugal, Leiria, Leiria",Artigo 259.º do Código dos Contratos Públicos,30-08-2017,"56,90 €",,,,1415640,CP 2015/7 - ACORDO QUADRO PARA FORNECIMENTO DE HORMONAS E OUTROS MEDICAMENTOS USADOS NO TRATAMENTO DAS DOENÇAS ENDÓCRINAS ÀS INSTITUIÇÕES E SERVIÇOS DO SERVIÇO NACIONAL DE SAÚDE,FALSE
Ácido Hialurónico (Hilano G-F20),Ajuste Direto Regime Geral,Aquisição de bens móveis,"33140000-3, Material médico de consumo","Centro Hospitalar de Leiria, E. P. E. (509822932)","SANOFI-PRODUTOS FARMACEUTICOS,LDA (500134960)","23.200,00 €",29-08-2017,16-06-2017,365 dias,"Portugal, Leiria, Leiria","Artigo 20.º, n.º 1, alínea a) do Código dos Contratos Públicos","","",,,,Não aplicável.,Não aplicável.,FALSE
Material revisão prótese joelho,Ajuste Direto Regime Geral,Aquisição de bens móveis,"33140000-3, Material médico de consumo","Centro Hospitalar de Leiria, E. P. E. (509822932)","STRYKER PORTUGAL PRODUTOS MEDICOS, LDA (504594214)","8.680,00 €",29-08-2017,07-06-2017,30 dias,"Portugal, Leiria, Leiria","Artigo 20.º, n.º 1, alínea a) do Código dos Contratos Públicos",12-06-2017,"8.680,00 €",,,,Não aplicável.,Não aplicável.,FALSE
Material Hemodinâmica,Ajuste Direto Regime Geral,Aquisição de bens móveis,"33140000-3, Material médico de consumo","Centro Hospitalar de Leiria, E. P. E. (509822932)","BOSTON SCIENTIFIC PORTUGAL-DISP.MEDICOS,LDA. (504988964)","37.290,00 €",29-08-2017,19-04-2017,30 dias,"Portugal, Leiria, Leiria","Artigo 20.º, n.º 1, alínea a) do Código dos Contratos Públicos",21-04-2017,"37.290,00 €",,,,Não aplicável.,Não aplicável.,FALSE
Medicamentos Diversos,Ao abrigo de acordo-quadro (art.º 259.º),Aquisição de bens móveis,"33600000-6, Produtos farmacêuticos","Centro Hospitalar de Leiria, E. P. E. (509822932)",OVERPHARMA-PROD.MEDICOS FARMACEUTICOS (505792362),"47,73 €",29-08-2017,09-08-2017,20 dias,"Portugal, Leiria, Leiria",Artigo 259.º do Código dos Contratos Públicos,29-08-2017,"47,73 €",,,,1404918,CP 2015/48 - Acordo Quadro para fornecimento de Medicamentos de Consumo Geral - Aparelho Geniturinário às Instituições e Serviços do Serviço Nacional de Saúde,FALSE
Medicamentos Diversos,Ao abrigo de acordo-quadro (art.º 259.º),Aquisição de bens móveis,"33600000-6, Produtos farmacêuticos","Centro Hospitalar de Leiria, E. P. E. (509822932)",MEDA-PHARMA PROD.FARMACEUTICOS (500082090),"600,00 €",29-08-2017,09-08-2017,20 dias,"Portugal, Leiria, Leiria",Artigo 259.º do Código dos Contratos Públicos,"","",,,,1404918,CP 2015/48 - Acordo Quadro para fornecimento de Medicamentos de Consumo Geral - Aparelho Geniturinário às Instituições e Serviços do Serviço Nacional de Saúde,FALSE
Medicamentos Exclusivos Ferring,Ao abrigo de acordo-quadro (art.º 259.º),Aquisição de bens móveis,"33600000-6, Produtos farmacêuticos","Centro Hospitalar de Leiria, E. P. E. (509822932)","FERRING PORTUGUESA-PROD.FARM.SOC.UN.,LDA (502034831)","19.205,89 €",29-08-2017,09-08-2017,20 dias,"Portugal, Leiria, Leiria",Artigo 259.º do Código dos Contratos Públicos,29-08-2017,"19.205,89 €",,,,1404918,CP 2015/48 - Acordo Quadro para fornecimento de Medicamentos de Consumo Geral - Aparelho Geniturinário às Instituições e Serviços do Serviço Nacional de Saúde,FALSE
1168O17 Agregação P259-AC-2017-99 Gemcitabina,Ao abrigo de acordo-quadro (art.º 259.º),Aquisição de bens móveis,"33600000-6, Produtos farmacêuticos","Centro Hospitalar de Leiria, E. P. E. (509822932)","FRESENIUS KABI PHARMA PORTUGAL, LDA (504293753)","677,00 €",29-08-2017,17-07-2017,160 dias,"Portugal, Leiria, Leiria",Artigo 259.º do Código dos Contratos Públicos,"","",,,,1771819,CP 2015/6 - Acordo quadro para o fornecimento de Medicamentos do Foro Oncológico,FALSE
Medicamentos Aparelho Geniturinário,Ao abrigo de acordo-quadro (art.º 259.º),Aquisição de bens móveis,"33600000-6, Produtos farmacêuticos","Centro Hospitalar de Leiria, E. P. E. (509822932)",OVERPHARMA-PROD.MEDICOS FARMACEUTICOS (505792362),"9,59 €",29-08-2017,09-08-2017,20 dias,"Portugal, Leiria, Leiria",Artigo 259.º do Código dos Contratos Públicos,29-08-2017,"9,59 €",,,,1404918,CP 2015/48 - Acordo Quadro para fornecimento de Medicamentos de Consumo Geral - Aparelho Geniturinário às Instituições e Serviços do Serviço Nacional de Saúde,FALSE
Saco recolha orgãos,Ajuste Direto Regime Geral,Aquisição de bens móveis,"33140000-3, Material médico de consumo","Centro Hospitalar de Leiria, E. P. E. (509822932)",APPLIED MEDICAL DISTRIBUITION EUROPE B.V. - SUC.PORTUGAL (980571111),"2.590,00 €",29-08-2017,10-08-2017,30 dias,"Portugal, Leiria, Leiria","Artigo 20.º, n.º 1, alínea a) do Código dos Contratos Públicos",10-08-2017,"2.590,00 €",,,,Não aplicável.,Não aplicável.,FALSE
Saco recolha orgãos,Ajuste Direto Regime Geral,Aquisição de bens móveis,"33140000-3, Material médico de consumo","Centro Hospitalar de Leiria, E. P. E. (509822932)","ENDOTECNICA-MATERIAL CIRURGICO, LDA (503818348)","7.770,00 €",29-08-2017,17-03-2017,120 dias,"Portugal, Leiria, Leiria","Artigo 20.º, n.º 1, alínea a) do Código dos Contratos Públicos",09-06-2017,"7.770,00 €",,,,Não aplicável.,Não aplicável.,FALSE
Sistema de soros,Ajuste Direto Regime Geral,Aquisição de bens móveis,"33140000-3, Material médico de consumo","Centro Hospitalar de Leiria, E. P. E. (509822932)","P.M.H. PRODUTOS MEDICO HOSPITALARES, SA (502376899)","7.980,00 €",29-08-2017,01-03-2017,30 dias,"Portugal, Leiria, Leiria","Artigo 20.º, n.º 1, alínea a) do Código dos Contratos Públicos",30-03-2017,"7.980,00 €",,,,Não aplicável.,Não aplicável.,FALSE
Material Artroscopia e Ligamentoplastia,Ajuste Direto Regime Geral,Aquisição de bens móveis,"33140000-3, Material médico de consumo","Centro Hospitalar de Leiria, E. P. E. (509822932)","JOHNSON E JOHNSON, LDA (500153370)","10.274,24 €",29-08-2017,24-01-2017,180 dias,"Portugal, Leiria, Leiria","Artigo 20.º, n.º 1, alínea a) do Código dos Contratos Públicos",06-07-2017,"10.274,24 €",,,,Não aplicável.,Não aplicável.,FALSE
Pinças para Eletrocirurgia,Ajuste Direto Regime Geral,Aquisição de bens móveis,"33140000-3, Material médico de consumo","Centro Hospitalar de Leiria, E. P. E. (509822932)","MEDTRONIC PORTUGAL, LDA (504223933)","71.218,80 €",29-08-2017,10-01-2017,90 dias,"Portugal, Leiria, Leiria","Artigo 20.º, n.º 1, alínea a) do Código dos Contratos Públicos",31-03-2017,"71.218,80 €",,,,Não aplicável.,Não aplicável.,FALSE
1187O17 PLASMA HUMANO VÍRUS INATIVADO,Ao abrigo de acordo-quadro (art.º 259.º),Aquisição de bens móveis,"33600000-6, Produtos farmacêuticos","CENTRO HOSPITALAR DE LEIRIA, E.P.E. (509822932)","OCTAPHARMA-PRODUTOS FARMACEUTICOS, LDA (502820780)","20.527,50 €",29-08-2017,18-08-2017,90 dias,"Portugal, Leiria, Leiria",Artigo 259.º do Código dos Contratos Públicos,"","",,,,1423488,ACORDO QUADRO PARA FORNECIMENTO DE DERIVADOS DO PLASMA HUMANO ÀS INSTITUIÇÕES E SERVIÇOS DO SERVIÇO NACIONAL DE SAÚDE CP 2015/9,FALSE
Material para Oftalmologia,Ajuste Direto Regime Geral,Aquisição de bens móveis,"33140000-3, Material médico de consumo","Centro Hospitalar de Leiria, E. P. E. (509822932)","OFTALTEC-INSTRUM.CIRURGIC.QUALIDADE,LDA (503197149)","2.513,00 €",29-08-2017,10-01-2017,120 dias,"Portugal, Leiria, Leiria","Artigo 20.º, n.º 1, alínea a) do Código dos Contratos Públicos",10-05-2017,"2.513,00 €",,,,Não aplicável.,Não aplicável.,FALSE
Material para Oftalmologia,Ajuste Direto Regime Geral,Aquisição de bens móveis,"33140000-3, Material médico de consumo","Centro Hospitalar de Leiria, E. P. E. (509822932)",OVERPHARMA-PROD.MEDICOS FARMACEUTICOS (505792362),"106,00 €",29-08-2017,10-01-2017,120 dias,"Portugal, Leiria, Leiria","Artigo 20.º, n.º 1, alínea a) do Código dos Contratos Públicos",10-05-2017,"106,00 €",,,,Não aplicável.,Não aplicável.,FALSE
Material para Oftalmologia,Ajuste Direto Regime Geral,Aquisição de bens móveis,"33140000-3, Material médico de consumo","Centro Hospitalar de Leiria, E. P. E. (509822932)","OFTALDATA-PRODUTOS OFTALMOLOGIA, LDA (504887459)","2.399,20 €",29-08-2017,10-01-2017,120 dias,"Portugal, Leiria, Leiria","Artigo 20.º, n.º 1, alínea a) do Código dos Contratos Públicos",10-05-2017,"2.399,20 €",,,,Não aplicável.,Não aplicável.,FALSE
Material para Oftalmilogia,Ajuste Direto Regime Geral,Aquisição de bens móveis,"33140000-3, Material médico de consumo","Centro Hospitalar de Leiria, E. P. E. (509822932)",MOLNLYCKE HEALTH CARE-COM.P.HOSPITALARES (511101066),"138,00 €",29-08-2017,10-01-2017,120 dias,"Portugal, Leiria, Leiria","Artigo 20.º, n.º 1, alínea a) do Código dos Contratos Públicos",10-05-2017,"138,00 €",,,,Não aplicável.,Não aplicável.,FALSE
8108E17-REPARAÇÃO DE MESA DE OPERAÇÕES ELECTROMECÂNICA,Ajuste Direto Regime Geral,Aquisição de serviços,"50000000-5, Serviços de reparação e manutenção","Centro Hospitalar de Leiria, E. P. E. (509822932)","IBERDATA EQUIPAMENTOS, SA (501904921)","9.115,00 €",29-08-2017,10-05-2017,1 dias,"Portugal, Leiria, Leiria","Artigo 20.º, n.º 1, alínea a) do Código dos Contratos Públicos",16-05-2017,"9.115,00 €",,,,Não aplicável.,Não aplicável.,FALSE
Material para Oftalmologia,Ajuste Direto Regime Geral,Aquisição de bens móveis,"33140000-3, Material médico de consumo","Centro Hospitalar de Leiria, E. P. E. (509822932)","BAUSCH E LOMB, SA (980218764)","84,00 €",29-08-2017,10-01-2017,120 dias,"Portugal, Leiria, Leiria","Artigo 20.º, n.º 1, alínea a) do Código dos Contratos Públicos",10-05-2017,"84,00 €",,,,Não aplicável.,Não aplicável.,FALSE
Material para Oftalmologia,Ajuste Direto Regime Geral,Aquisição de bens móveis,"33140000-3, Material médico de consumo","Centro Hospitalar de Leiria, E. P. E. (509822932)","ALCON PORTUGAL-PROD.EQUIP.OFTALM., LDA (501251685)","8.216,40 €",29-08-2017,10-01-2017,120 dias,"Portugal, Leiria, Leiria","Artigo 20.º, n.º 1, alínea a) do Código dos Contratos Públicos",10-05-2017,"8.216,40 €",,,,Não aplicável.,Não aplicável.,FALSE
Máquinas de Sutura,Ajuste Direto Regime Geral,Aquisição de bens móveis,"33140000-3, Material médico de consumo","Centro Hospitalar de Leiria, E. P. E. (509822932)","MEDTRONIC PORTUGAL, LDA (504223933)","51.240,00 €",29-08-2017,09-01-2017,90 dias,"Portugal, Leiria, Leiria","Artigo 20.º, n.º 1, alínea a) do Código dos Contratos Públicos",30-03-2017,"51.240,00 €",,,,Não aplicável.,Não aplicável.,FALSE
Máquinas de Sutura,Ajuste Direto Regime Geral,Aquisição de bens móveis,"33140000-3, Material médico de consumo","Centro Hospitalar de Leiria, E. P. E. (509822932)","ENDOTECNICA-MATERIAL CIRURGICO, LDA (503818348)","2.760,00 €",29-08-2017,09-01-2017,90 dias,"Portugal, Leiria, Leiria","Artigo 20.º, n.º 1, alínea a) do Código dos Contratos Públicos",30-03-2017,"2.760,00 €",,,,Não aplicável.,Não aplicável.,FALSE
Máquinas de Sutura,Ajuste Direto Regime Geral,Aquisição de bens móveis,"33140000-3, Material médico de consumo","Centro Hospitalar de Leiria, E. P. E. (509822932)","BSN MEDICAL, S.A. (505385058)","576,00 €",29-08-2017,09-01-2017,90 dias,"Portugal, Leiria, Leiria","Artigo 20.º, n.º 1, alínea a) do Código dos Contratos Públicos",30-03-2017,"576,00 €",,,,Não aplicável.,Não aplicável.,FALSE
Máquinas Sutura,Ajuste Direto Regime Geral,Aquisição de bens móveis,"33140000-3, Material médico de consumo","Centro Hospitalar de Leiria, E. P. E. (509822932)","B.BRAUN MEDICAL, LDA (501506543)","2.256,00 €",29-08-2017,09-01-2017,90 dias,"Portugal, Leiria, Leiria","Artigo 20.º, n.º 1, alínea a) do Código dos Contratos Públicos",30-03-2017,"2.256,00 €",,,,Não aplicável.,Não aplicável.,FALSE
Fios de Sutura,Ajuste Direto Regime Geral,Aquisição de bens móveis,"33140000-3, Material médico de consumo","Centro Hospitalar de Leiria, E. P. E. (509822932)","MEDTRONIC PORTUGAL, LDA (504223933)","9.757,92 €",29-08-2017,09-01-2017,270 dias,"Portugal, Leiria, Leiria","Artigo 20.º, n.º 1, alínea a) do Código dos Contratos Públicos",31-08-2017,"9.757,92 €",,,,Não aplicável.,Não aplicável.,FALSE
Fios de Sutura,Ajuste Direto Regime Geral,Aquisição de bens móveis,"33140000-3, Material médico de consumo","Centro Hospitalar de Leiria, E. P. E. (509822932)","H.R. HOSPITALAR, UNIPESSOAL, LDA. (501895558)","1.235,64 €",29-08-2017,09-01-2017,270 dias,"Portugal, Leiria, Leiria","Artigo 20.º, n.º 1, alínea a) do Código dos Contratos Públicos",31-08-2017,"1.235,64 €",,,,Não aplicável.,Não aplicável.,FALSE
1063E17 Toxina Botulínica 100U,Ajuste Direto Regime Geral,Aquisição de bens móveis,"33600000-6, Produtos farmacêuticos","Centro Hospitalar de Leiria, E. P. E. (509822932)","LOGISTA,TRANSPORTES,TRANSITARIOS E PHARMA-UNIP..LDA (503538108)","3.690,00 €",29-08-2017,28-08-2017,150 dias,"Portugal, Leiria, Leiria","Artigo 24.º, n.º 1, alínea e) do Código dos Contratos Públicos","","",,,,Não aplicável.,Não aplicável.,FALSE
Fios de Sutura,Ajuste Direto Regime Geral,Aquisição de bens móveis,"33140000-3, Material médico de consumo","Centro Hospitalar de Leiria, E. P. E. (509822932)","B.BRAUN MEDICAL, LDA (501506543)","27.927,34 €",29-08-2017,09-01-2017,270 dias,"Portugal, Leiria, Leiria","Artigo 20.º, n.º 1, alínea a) do Código dos Contratos Públicos",31-08-2017,"27.927,34 €",,,,Não aplicável.,Não aplicável.,FALSE
1117E17 Reagentes diversos Imunologia - LAM RICKETTSIA CONORI P/IFI,Ajuste Direto Regime Geral,Aquisição de bens móveis,"33696000-5, Reagentes e meios de contraste","Centro Hospitalar de Leiria, E. P. E. (509822932)","BAPTISTA MARQUES DIAG. E REAGENTES, LDA (501439110)","822,00 €",29-08-2017,25-08-2017,150 dias,"Portugal, Leiria, Leiria","Artigo 26.º, n.º 1, alínea a) do Código dos Contratos Públicos","","",,,,Não aplicável.,Não aplicável.,FALSE
8141E17-REPARAÇÃO DE COMPRESSOR DE CHILLER,Ajuste Direto Regime Geral,Aquisição de serviços,"50000000-5, Serviços de reparação e manutenção","Centro Hospitalar de Leiria, E. P. E. (509822932)","KMG, LDA. (510728910)","10.900,00 €",28-08-2017,29-06-2017,1 dias,"Portugal, Leiria, Leiria","Artigo 20.º, n.º 1, alínea a) do Código dos Contratos Públicos",29-06-2017,"10.900,00 €",,,,Não aplicável.,Não aplicável.,FALSE
8142E17-REPARAÇÃO DE COMPRESSORES DE CHILLERS,Ajuste Direto Regime Geral,Aquisição de serviços,"50000000-5, Serviços de reparação e manutenção","Centro Hospitalar de Leiria, E. P. E. (509822932)","KMG, LDA. (510728910)","11.935,00 €",28-08-2017,05-07-2017,1 dias,"Portugal, Leiria, Leiria","Artigo 20.º, n.º 1, alínea a) do Código dos Contratos Públicos",05-07-2017,"11.935,00 €",,,,Não aplicável.,Não aplicável.,FALSE
"1058E17 Medicamento AUE - Isoprenalina 0,2 mg/ml",Ajuste Direto Regime Geral,Aquisição de bens móveis,"33600000-6, Produtos farmacêuticos","Centro Hospitalar de Leiria, E. P. E. (509822932)","BIOJAM, SA  - HEALTH CONSULTING (513642749)","1.485,00 €",28-08-2017,24-08-2017,150 dias,"Portugal, Leiria, Leiria","Artigo 24.º, n.º 1, alínea e) do Código dos Contratos Públicos","","",,,,Não aplicável.,Não aplicável.,FALSE
1058E17 Medicamento AUE - Propanolol 1 mg/ml,Ajuste Direto Regime Geral,Aquisição de bens móveis,"33600000-6, Produtos farmacêuticos","Centro Hospitalar de Leiria, E. P. E. (509822932)","DUXPHARMA, LDA. (510803679)","239,25 €",28-08-2017,24-08-2017,150 dias,"Portugal, Leiria, Leiria","Artigo 24.º, n.º 1, alínea e) do Código dos Contratos Públicos","","",,,,Não aplicável.,Não aplicável.,FALSE
1174O17 Alteplase 10 mg inj,Ao abrigo de acordo-quadro (art.º 259.º),Aquisição de bens móveis,"33600000-6, Produtos farmacêuticos","Centro Hospitalar de Leiria, E. P. E. (509822932)","UNILFARMA-UNIAO INTERN.LABOR.FARM., LDA (500293023)","3.835,20 €",28-08-2017,23-08-2017,150 dias,"Portugal, Leiria, Leiria",Artigo 259.º do Código dos Contratos Públicos,"","",,,,2489595,CP 2016/18 - Acordo quadro para fornecimento de Medicamentos do Grupo 4: Sangue às Instituições e Serviços do Serviço Nacional de Saúde,FALSE
1203O17 Ringer e Lactato,Ao abrigo de acordo-quadro (art.º 259.º),Aquisição de bens móveis,"33600000-6, Produtos farmacêuticos","Centro Hospitalar de Leiria, E. P. E. (509822932)","FRESENIUS KABI PHARMA PORTUGAL, LDA (504293753)","805,00 €",28-08-2017,23-08-2017,20 dias,"Portugal, Leiria, Leiria",Artigo 259.º do Código dos Contratos Públicos,"","",,,,2528675,CP 2017/3 - Acordo Quadro para fornecimento de corretivos da volémia e outras soluções estéreis,FALSE
1204O17 Medicamento Levetiracetam 500 mg comp,Ao abrigo de acordo-quadro (art.º 259.º),Aquisição de bens móveis,"33600000-6, Produtos farmacêuticos","Centro Hospitalar de Leiria, E. P. E. (509822932)","SANOFI-PRODUTOS FARMACEUTICOS,LDA (500134960)","322,92 €",28-08-2017,23-08-2017,150 dias,"Portugal, Leiria, Leiria",Artigo 259.º do Código dos Contratos Públicos,"","",,,,1179911,"CONCURSO PÚBLICO PARA A CELEBRAÇÃO DE CONTRATOS PÚBLICOS DE APROVISIONAMENTO PARA A ÁREA DA SAÚDE, MEDICAMENTOS DO SISTEMA NERVOSO CEREBROSPINAL, EXCETO: ANESTÉSICOS, RELAXANTES MUSCULARES, ANALGÉSICOS, ANTIPIRÉTICOS, ANTIDEPRESSORES E ANTIPSICÓTICOS, ÀS INSTITUIÇÕES E SERVIÇOS DO SERVIÇO NACIONAL DE SAÚDE",FALSE
1104E17 Reagentes para biologia molecular,Ajuste Direto Regime Geral,Aquisição de bens móveis,"33696000-5, Reagentes e meios de contraste","Centro Hospitalar de Leiria, E. P. E. (509822932)","WERFEN PORTUGAL, LDA (501086110)","5.990,00 €",28-08-2017,23-08-2017,180 dias,"Portugal, Leiria, Leiria","Artigo 24.º, n.º 1, alínea e) do Código dos Contratos Públicos","","",,,,Não aplicável.,Não aplicável.,FALSE
1117E17 Reagentes diversos - IGRA,Ajuste Direto Regime Geral,Aquisição de bens móveis,"33696000-5, Reagentes e meios de contraste","Centro Hospitalar de Leiria, E. P. E. (509822932)","QUILABAN-QUIM.LABORATOR.ANALITICA, SA (500399670)","7.476,00 €",28-08-2017,23-08-2017,180 dias,"Portugal, Leiria, Leiria","Artigo 26.º, n.º 1, alínea a) do Código dos Contratos Públicos","","",,,,Não aplicável.,Não aplicável.,FALSE
"1192O17 Antisséticos, desinfetantes e outros CPA 2015/8",Ao abrigo de acordo-quadro (art.º 259.º),Aquisição de bens móveis,"33600000-6, Produtos farmacêuticos","Centro Hospitalar de Leiria, E. P. E. (509822932)","PAUL HARTMANN, LDA (502271728)","1.404,00 €",28-08-2017,14-08-2017,180 dias,"Portugal, Leiria, Leiria",Artigo 259.º do Código dos Contratos Públicos,"","",,,,1406003,CP 2015/8,FALSE
"1192O17 Antisséticos, desinfetantes e outros CPA 2015/8",Ao abrigo de acordo-quadro (art.º 259.º),Aquisição de bens móveis,"33600000-6, Produtos farmacêuticos","Centro Hospitalar de Leiria, E. P. E. (509822932)","P.M.H. PRODUTOS MEDICO HOSPITALARES, SA (502376899)","3.780,00 €",28-08-2017,14-08-2017,180 dias,"Portugal, Leiria, Leiria",Artigo 259.º do Código dos Contratos Públicos,"","",,,,1406003,CP 2015/8,FALSE
"1192O17 Antisséticos, desinfetantes e outros CPA 2015/8",Ao abrigo de acordo-quadro (art.º 259.º),Aquisição de bens móveis,"33600000-6, Produtos farmacêuticos","Centro Hospitalar de Leiria, E. P. E. (509822932)",MEDA-PHARMA PROD.FARMACEUTICOS (500082090),"255,00 €",28-08-2017,14-08-2017,180 dias,"Portugal, Leiria, Leiria",Artigo 259.º do Código dos Contratos Públicos,"","",,,,1406003,CP 2015/8,FALSE
"1192O17 Antisséticos, desinfetantes e outros CPA 2015/8",Ao abrigo de acordo-quadro (art.º 259.º),Aquisição de bens móveis,"33600000-6, Produtos farmacêuticos","Centro Hospitalar de Leiria, E. P. E. (509822932)","DIMOR LUSITANA, LDA (500730741)","294,00 €",28-08-2017,14-08-2017,180 dias,"Portugal, Leiria, Leiria",Artigo 259.º do Código dos Contratos Públicos,"","",,,,1406003,CP 2015/8,FALSE
"1192O17 Antisséticos, desinfetantes e outros CPA 2015/8",Ao abrigo de acordo-quadro (art.º 259.º),Aquisição de bens móveis,"33600000-6, Produtos farmacêuticos","Centro Hospitalar de Leiria, E. P. E. (509822932)","B.BRAUN MEDICAL, LDA (501506543)","9.667,30 €",28-08-2017,14-08-2017,180 dias,"Portugal, Leiria, Leiria",Artigo 259.º do Código dos Contratos Públicos,"","",,,,1406003,CP 2015/8,FALSE
"1192O17 Antisséticos, desinfetantes e outros CPA 2015/8",Ao abrigo de acordo-quadro (art.º 259.º),Aquisição de bens móveis,"33600000-6, Produtos farmacêuticos","Centro Hospitalar de Leiria, E. P. E. (509822932)","VYGON (PORTUGAL), LDA (503232785)","731,88 €",28-08-2017,14-08-2017,180 dias,"Portugal, Leiria, Leiria",Artigo 259.º do Código dos Contratos Públicos,"","",,,,1406003,CP 2015/8,FALSE
"1192O17 Antisséticos, desinfetantes e outros CPA 2015/8",Ao abrigo de acordo-quadro (art.º 259.º),Aquisição de bens móveis,"33600000-6, Produtos farmacêuticos","Centro Hospitalar de Leiria, E. P. E. (509822932)","AGA-ALCOOL GENEROS ALIMENTARES, SA (500727457)","2.751,12 €",28-08-2017,14-08-2017,180 dias,"Portugal, Leiria, Leiria",Artigo 259.º do Código dos Contratos Públicos,"","",,,,1406003,CP 2015/8,FALSE
"1031O16 Antisséticos, desinfetantes e outros CPA 2015/8",Ao abrigo de acordo-quadro (art.º 259.º),Aquisição de bens móveis,"33600000-6, Produtos farmacêuticos","Centro Hospitalar de Leiria, E. P. E. (509822932)","VYGON (PORTUGAL), LDA (503232785)","119,90 €",28-08-2017,14-08-2017,180 dias,"Portugal, Leiria, Leiria",Artigo 259.º do Código dos Contratos Públicos,28-08-2017,"119,90 €",,,,1406003,CP 2015/8,FALSE
"1031O16 Antisséticos, desinfetantes e outros CPA 2015/8",Ao abrigo de acordo-quadro (art.º 259.º),Aquisição de bens móveis,"33600000-6, Produtos farmacêuticos","Centro Hospitalar de Leiria, E. P. E. (509822932)","PAUL HARTMANN, LDA (502271728)","1.040,00 €",28-08-2017,14-08-2017,180 dias,"Portugal, Leiria, Leiria",Artigo 259.º do Código dos Contratos Públicos,28-08-2017,"1.040,00 €",,,,1406003,CP 2015/8,FALSE
"1031O16 Antisséticos, desinfetantes e outros CPA 2015/8",Ao abrigo de acordo-quadro (art.º 259.º),Aquisição de bens móveis,"33600000-6, Produtos farmacêuticos","Centro Hospitalar de Leiria, E. P. E. (509822932)","P.M.H. PRODUTOS MEDICO HOSPITALARES, SA (502376899)","1.890,00 €",28-08-2017,14-08-2017,180 dias,"Portugal, Leiria, Leiria",Artigo 259.º do Código dos Contratos Públicos,28-08-2017,"1.890,00 €",,,,1406003,CP 2015/8,FALSE
"1031O16 Antisséticos, desinfetantes e outros CPA 2015/8",Ao abrigo de acordo-quadro (art.º 259.º),Aquisição de bens móveis,"33600000-6, Produtos farmacêuticos","Centro Hospitalar de Leiria, E. P. E. (509822932)",MEDA-PHARMA PROD.FARMACEUTICOS (500082090),"21,25 €",28-08-2017,14-08-2017,180 dias,"Portugal, Leiria, Leiria",Artigo 259.º do Código dos Contratos Públicos,28-08-2017,"21,25 €",,,,1406003,CP 2015/8,FALSE
"1031O16 Antisséticos, desinfetantes e outros CPA 2015/8",Ao abrigo de acordo-quadro (art.º 259.º),Aquisição de bens móveis,"33600000-6, Produtos farmacêuticos","Centro Hospitalar de Leiria, E. P. E. (509822932)","DIMOR LUSITANA, LDA (500730741)","176,40 €",28-08-2017,14-08-2017,180 dias,"Portugal, Leiria, Leiria",Artigo 259.º do Código dos Contratos Públicos,28-08-2017,"176,40 €",,,,1406003,CP 2015/8,FALSE
"1031O16 Antisséticos, desinfetantes e outros CPA 2015/8",Ao abrigo de acordo-quadro (art.º 259.º),Aquisição de bens móveis,"33600000-6, Produtos farmacêuticos","Centro Hospitalar de Leiria, E. P. E. (509822932)","B.BRAUN MEDICAL, LDA (501506543)","2.144,60 €",28-08-2017,14-08-2017,180 dias,"Portugal, Leiria, Leiria",Artigo 259.º do Código dos Contratos Públicos,28-08-2017,"2.144,60 €",,,,1406003,CP 2015/8,FALSE
"1031O16 Antisséticos, desinfetantes e outros CPA 2015/8",Ao abrigo de acordo-quadro (art.º 259.º),Aquisição de bens móveis,"33600000-6, Produtos farmacêuticos","Centro Hospitalar de Leiria, E. P. E. (509822932)","AGA-ALCOOL GENEROS ALIMENTARES, SA (500727457)","933,44 €",28-08-2017,14-08-2017,180 dias,"Portugal, Leiria, Leiria",Artigo 259.º do Código dos Contratos Públicos,28-08-2017,"933,44 €",,,,1406003,CP 2015/8,FALSE
Sondas e Cânulas,Ajuste Direto Regime Geral,Aquisição de bens móveis,"33140000-3, Material médico de consumo","Centro Hospitalar de Leiria, E. P. E. (509822932)","P.M.H. PRODUTOS MEDICO HOSPITALARES, SA (502376899)","750,00 €",25-08-2017,04-01-2017,120 dias,"Portugal, Leiria, Leiria","Artigo 20.º, n.º 1, alínea a) do Código dos Contratos Públicos","","",,,,Não aplicável.,Não aplicável.,FALSE
Sondas e Cânulas,Ajuste Direto Regime Geral,Aquisição de bens móveis,"33140000-3, Material médico de consumo","Centro Hospitalar de Leiria, E. P. E. (509822932)","MUNDINTER INTERC.MUNDIAL COMERCIO, SA (500199906)","1.706,12 €",25-08-2017,04-04-2017,120 dias,"Portugal, Leiria, Leiria","Artigo 20.º, n.º 1, alínea a) do Código dos Contratos Públicos","","",,,,Não aplicável.,Não aplicável.,FALSE
Sondas e Cânulas,Ajuste Direto Regime Geral,Aquisição de bens móveis,"33140000-3, Material médico de consumo","Centro Hospitalar de Leiria, E. P. E. (509822932)","MEDTRONIC PORTUGAL, LDA (504223933)","112,00 €",25-08-2017,04-04-2017,120 dias,"Portugal, Leiria, Leiria","Artigo 20.º, n.º 1, alínea a) do Código dos Contratos Públicos","","",,,,Não aplicável.,Não aplicável.,FALSE
Sondas e Cânulas,Ajuste Direto Regime Geral,Aquisição de bens móveis,"33140000-3, Material médico de consumo","Centro Hospitalar de Leiria, E. P. E. (509822932)","H.R. HOSPITALAR, UNIPESSOAL, LDA. (501895558)","697,60 €",25-08-2017,04-04-2017,120 dias,"Portugal, Leiria, Leiria","Artigo 20.º, n.º 1, alínea a) do Código dos Contratos Públicos","","",,,,Não aplicável.,Não aplicável.,FALSE
Sondas e Cânulas,Ajuste Direto Regime Geral,Aquisição de bens móveis,"33140000-3, Material médico de consumo","Centro Hospitalar de Leiria, E. P. E. (509822932)","EPJMEDICA-ART.MEDICOS HOSPITALARES, LDA (506820513)","290,80 €",25-08-2017,04-04-2017,120 dias,"Portugal, Leiria, Leiria","Artigo 20.º, n.º 1, alínea a) do Código dos Contratos Públicos","","",,,,Não aplicável.,Não aplicável.,FALSE
Sondas e Cânulas,Ajuste Direto Regime Geral,Aquisição de bens móveis,"33140000-3, Material médico de consumo","Centro Hospitalar de Leiria, E. P. E. (509822932)","ANASTACIO SALDANHA UNIPESSOAL, LDA. (505804441)","49,60 €",25-08-2017,04-01-2017,120 dias,"Portugal, Leiria, Leiria","Artigo 20.º, n.º 1, alínea a) do Código dos Contratos Públicos","","",,,,Não aplicável.,Não aplicável.,FALSE
0274E17-SERV. MANUT. ASSIST. TÉCNICA AO DIGITALIZADOR DO RX DO HDP,Ajuste Direto Regime Geral,Aquisição de serviços,"50000000-5, Serviços de reparação e manutenção","Centro Hospitalar de Leiria, E. P. E. (509822932)",FUJIFILM EUROPE GMBH-SUCURSAL PORTUGAL (980456517),"5.016,00 €",25-08-2017,04-05-2017,365 dias,"Portugal, Leiria, Leiria","Artigo 20.º, n.º 1, alínea a) do Código dos Contratos Públicos","","",,,,Não aplicável.,Não aplicável.,FALSE
0276E17-SERV. MANUT. ASSIST. TÉCNICA DIGITALIZADOR DO RX HSA,Ajuste Direto Regime Geral,Aquisição de serviços,"50000000-5, Serviços de reparação e manutenção","Centro Hospitalar de Leiria, E. P. E. (509822932)","AGFA, LDA. (500011060)","9.156,00 €",25-08-2017,04-05-2017,365 dias,"Portugal, Leiria, Leiria","Artigo 20.º, n.º 1, alínea a) do Código dos Contratos Públicos","","",,,,Não aplicável.,Não aplicável.,FALSE
Lentes Intraoculares,Ajuste Direto Regime Geral,Aquisição de bens móveis,"33731110-7, Lentes intraoculares","Centro Hospitalar de Leiria, E. P. E. (509822932)","OPHTEC PORTUGAL-EXCELENTETITULO-UNIP., LDA (510255086)","5.950,00 €",25-08-2017,05-01-2017,120 dias,"Portugal, Leiria, Leiria","Artigo 26.º, n.º 1, alínea a) do Código dos Contratos Públicos",18-04-2017,"5.950,00 €",,,,Não aplicável.,Não aplicável.,FALSE
Lentes Intraoculares,Ajuste Direto Regime Geral,Aquisição de bens móveis,"33731110-7, Lentes intraoculares","Centro Hospitalar de Leiria, E. P. E. (509822932)","ALCON PORTUGAL-PROD.EQUIP.OFTALM., LDA (501251685)","86.314,00 €",25-08-2017,05-01-2017,120 dias,"Portugal, Leiria, Leiria","Artigo 26.º, n.º 1, alínea a) do Código dos Contratos Públicos",18-04-2017,"86.314,00 €",,,,Não aplicável.,Não aplicável.,FALSE
Conjunto Injeção Intra-Vítreo,Ajuste Direto Regime Geral,Aquisição de bens móveis,"33140000-3, Material médico de consumo","Centro Hospitalar de Leiria, E. P. E. (509822932)",OVERPHARMA-PROD.MEDICOS FARMACEUTICOS (505792362),"9.687,60 €",25-08-2017,03-01-2017,60 dias,"Portugal, Leiria, Leiria","Artigo 20.º, n.º 1, alínea a) do Código dos Contratos Públicos",28-04-2017,"9.687,60 €",,,,Não aplicável.,Não aplicável.,FALSE
Viscoelásticos para Oftalmologia,Ajuste Direto Regime Geral,Aquisição de bens móveis,"33140000-3, Material médico de consumo","Centro Hospitalar de Leiria, E. P. E. (509822932)","OFTALDATA-PRODUTOS OFTALMOLOGIA, LDA (504887459)","182,00 €",25-08-2017,03-01-2017,60 dias,"Portugal, Leiria, Leiria","Artigo 20.º, n.º 1, alínea a) do Código dos Contratos Públicos","","",,,,Não aplicável.,Não aplicável.,FALSE
Viscoelásticos para Oftalmologia,Ajuste Direto Regime Geral,Aquisição de bens móveis,"33140000-3, Material médico de consumo","Centro Hospitalar de Leiria, E. P. E. (509822932)","ALCON PORTUGAL-PROD.EQUIP.OFTALM., LDA (501251685)","13.545,00 €",25-08-2017,03-01-2017,60 dias,"Portugal, Leiria, Leiria","Artigo 20.º, n.º 1, alínea a) do Código dos Contratos Públicos","","",,,,Não aplicável.,Não aplicável.,FALSE
0299E17-ASSIST. TÉCNICA AOS SISTEMAS DE GESTÃO DE FILAS DE ESPERA 2017,Ajuste Direto Regime Geral,Aquisição de serviços,"50000000-5, Serviços de reparação e manutenção","Centro Hospitalar de Leiria, E. P. E. (509822932)","GPTECH, SA (504983474)","9.853,79 €",25-08-2017,31-05-2017,365 dias,"Portugal, Leiria, Leiria","Artigo 20.º, n.º 1, alínea a) do Código dos Contratos Públicos","","",,,,Não aplicável.,Não aplicável.,FALSE
Viscoelásticos para Oftalmologia,Ajuste Direto Regime Geral,Aquisição de bens móveis,"33140000-3, Material médico de consumo","Centro Hospitalar de Leiria, E. P. E. (509822932)","ABBOTT MEDICAL OPTICS SPAIN, S.L. (980262364)","238,00 €",25-08-2017,03-01-2017,60 dias,"Portugal, Leiria, Leiria","Artigo 20.º, n.º 1, alínea a) do Código dos Contratos Públicos","","",,,,Não aplicável.,Não aplicável.,FALSE
0318E17-MANUTENÇÃO DE COMPRESSORES ACM E ACI,Ajuste Direto Regime Geral,Aquisição de serviços,"50000000-5, Serviços de reparação e manutenção","Centro Hospitalar de Leiria, E. P. E. (509822932)","IFHI, LDA. (502264543)","9.482,00 €",25-08-2017,13-06-2017,1 dias,"Portugal, Leiria, Leiria","Artigo 20.º, n.º 1, alínea a) do Código dos Contratos Públicos",16-06-2017,"9.482,00 €",,,,Não aplicável.,Não aplicável.,FALSE
Material Irrecuperável Médico Cirúrgico,Ajuste Direto Regime Geral,Aquisição de bens móveis,"33140000-3, Material médico de consumo","Centro Hospitalar de Leiria, E. P. E. (509822932)","VYGON (PORTUGAL), LDA (503232785)","250,00 €",25-08-2017,03-01-2017,120 dias,"Portugal, Leiria, Leiria","Artigo 20.º, n.º 1, alínea a) do Código dos Contratos Públicos","","",,,,Não aplicável.,Não aplicável.,FALSE
Material Irrecuperável Médico Cirúrgico,Ajuste Direto Regime Geral,Aquisição de bens móveis,"33140000-3, Material médico de consumo","Centro Hospitalar de Leiria, E. P. E. (509822932)","TELEFLEX MEDICAL, S.A.U. (980249783)","168,48 €",25-08-2017,03-01-2017,120 dias,"Portugal, Leiria, Leiria","Artigo 20.º, n.º 1, alínea a) do Código dos Contratos Públicos","","",,,,Não aplicável.,Não aplicável.,FALSE
Avental plástico,Ao abrigo de acordo-quadro (art.º 259.º),Aquisição de bens móveis,"33140000-3, Material médico de consumo","Centro Hospitalar de Leiria, E. P. E. (509822932)","QUILABAN-QUIM.LABORATOR.ANALITICA, SA (500399670)","2.604,00 €",25-08-2017,17-01-2017,150 dias,"Portugal, Leiria, Leiria","Artigo 20.º, n.º 1, alínea b) do Código dos Contratos Públicos",31-05-2017,"2.604,00 €",,,,451780,CP 2012/24 - MATERAIL DISPOSABLE DE BLOCO OPERATORIO,FALSE
Material Irrecuperável Médico Cirúrgico,Ajuste Direto Regime Geral,Aquisição de bens móveis,"33140000-3, Material médico de consumo","Centro Hospitalar de Leiria, E. P. E. (509822932)","SARSTEDT, SA (503019461)","74,40 €",25-08-2017,03-01-2017,120 dias,"Portugal, Leiria, Leiria","Artigo 20.º, n.º 1, alínea a) do Código dos Contratos Públicos","","",,,,Não aplicável.,Não aplicável.,FALSE
Material Irrecuperável Médico Cirúrgico,Ajuste Direto Regime Geral,Aquisição de bens móveis,"33140000-3, Material médico de consumo","Centro Hospitalar de Leiria, E. P. E. (509822932)","P.M.H. PRODUTOS MEDICO HOSPITALARES, SA (502376899)","5.073,00 €",25-08-2017,03-01-2017,120 dias,"Portugal, Leiria, Leiria","Artigo 20.º, n.º 1, alínea a) do Código dos Contratos Públicos","","",,,,Não aplicável.,Não aplicável.,FALSE
Máscaras com atilhos,Ao abrigo de acordo-quadro (art.º 259.º),Aquisição de bens móveis,"33140000-3, Material médico de consumo","Centro Hospitalar de Leiria, E. P. E. (509822932)",OVERPHARMA-PROD.MEDICOS FARMACEUTICOS (505792362),"2.803,20 €",25-08-2017,17-01-2017,150 dias,"Portugal, Leiria, Leiria","Artigo 20.º, n.º 1, alínea b) do Código dos Contratos Públicos",31-05-2017,"2.803,20 €",,,,451780,CP 2012/24 - MATERAIL DISPOSABLE DE BLOCO OPERATORIO,FALSE
Batas cirúrgicas reforçadas,Ao abrigo de acordo-quadro (art.º 259.º),Aquisição de bens móveis,"33140000-3, Material médico de consumo","Centro Hospitalar de Leiria, E. P. E. (509822932)","OASIPOR-IMPORTACAO E EXPORTACAO, S.A (502260750)","7.911,00 €",25-08-2017,17-01-2017,150 dias,"Portugal, Leiria, Leiria","Artigo 20.º, n.º 1, alínea b) do Código dos Contratos Públicos",31-05-2017,"7.911,00 €",,,,451780,CP 2012/24 - MATERAIL DISPOSABLE DE BLOCO OPERATORIO,FALSE
Material Irrecuperável Médico Cirúrgico,Ajuste Direto Regime Geral,Aquisição de bens móveis,"33140000-3, Material médico de consumo","Centro Hospitalar de Leiria, E. P. E. (509822932)","MEDTRONIC PORTUGAL, LDA (504223933)","145,00 €",25-08-2017,03-01-2017,120 dias,"Portugal, Leiria, Leiria","Artigo 20.º, n.º 1, alínea a) do Código dos Contratos Públicos","","",,,,Não aplicável.,Não aplicável.,FALSE
Bata proteção quimioterapia,Ao abrigo de acordo-quadro (art.º 259.º),Aquisição de bens móveis,"33140000-3, Material médico de consumo","Centro Hospitalar de Leiria, E. P. E. (509822932)",MOLNLYCKE HEALTH CARE-COM.P.HOSPITALARES (511101066),"495,88 €",25-08-2017,17-01-2017,150 dias,"Portugal, Leiria, Leiria","Artigo 20.º, n.º 1, alínea b) do Código dos Contratos Públicos",31-05-2017,"495,88 €",,,,451780,CP 2012/24 - MATERAIL DISPOSABLE DE BLOCO OPERATORIO,FALSE
Material Irrecuperável Médico Cirúrgico,Ajuste Direto Regime Geral,Aquisição de bens móveis,"33140000-3, Material médico de consumo","Centro Hospitalar de Leiria, E. P. E. (509822932)","INTERSURGICAL PORTUGAL, LDA (503480045)","10.383,04 €",25-08-2017,03-01-2017,120 dias,"Portugal, Leiria, Leiria","Artigo 20.º, n.º 1, alínea a) do Código dos Contratos Públicos","","",,,,Não aplicável.,Não aplicável.,FALSE
Máscara cirúrgica com viseira,Ao abrigo de acordo-quadro (art.º 259.º),Aquisição de bens móveis,"33140000-3, Material médico de consumo","Centro Hospitalar de Leiria, E. P. E. (509822932)","BASTOS VIEGAS, SA (500042772)","828,00 €",25-08-2017,17-01-2017,150 dias,"Portugal, Leiria, Leiria","Artigo 20.º, n.º 1, alínea b) do Código dos Contratos Públicos",31-05-2017,"828,00 €",,,,451780,CP 2012/24 - MATERAIL DISPOSABLE DE BLOCO OPERATORIO,FALSE
Material Irrecuperável Médico Cirúrgico,Ajuste Direto Regime Geral,Aquisição de bens móveis,"33140000-3, Material médico de consumo","Centro Hospitalar de Leiria, E. P. E. (509822932)","IBERDATA EQUIPAMENTOS, SA (501904921)","374,28 €",25-08-2017,03-01-2017,120 dias,"Portugal, Leiria, Leiria","Artigo 20.º, n.º 1, alínea a) do Código dos Contratos Públicos","","",,,,Não aplicável.,Não aplicável.,FALSE
Máscara cirúrgica,Ao abrigo de acordo-quadro (art.º 259.º),Aquisição de bens móveis,"33140000-3, Material médico de consumo","Centro Hospitalar de Leiria, E. P. E. (509822932)","AVIQUIMICA-IMPORTACAO MANUFACTURAS, LDA (500039720)","480,00 €",25-08-2017,17-01-2017,150 dias,"Portugal, Leiria, Leiria","Artigo 20.º, n.º 1, alínea b) do Código dos Contratos Públicos",31-05-2017,"480,00 €",,,,451780,CP 2012/24 - MATERAIL DISPOSABLE DE BLOCO OPERATORIO,FALSE
Material Irrecuperável Médico Cirúrgico,Ajuste Direto Regime Geral,Aquisição de bens móveis,"33140000-3, Material médico de consumo","Centro Hospitalar de Leiria, E. P. E. (509822932)","BASTOS VIEGAS, SA (500042772)","92,85 €",25-08-2017,03-01-2017,120 dias,"Portugal, Leiria, Leiria","Artigo 20.º, n.º 1, alínea a) do Código dos Contratos Públicos","","",,,,Não aplicável.,Não aplicável.,FALSE
Material Irrecuperável Médico Cirúrgico,Ajuste Direto Regime Geral,Aquisição de bens móveis,"33140000-3, Material médico de consumo","Centro Hospitalar de Leiria, E. P. E. (509822932)","B.BRAUN MEDICAL, LDA (501506543)","4.665,75 €",25-08-2017,03-01-2017,120 dias,"Portugal, Leiria, Leiria","Artigo 20.º, n.º 1, alínea a) do Código dos Contratos Públicos","","",,,,Não aplicável.,Não aplicável.,FALSE
Bata cirúrgica estéril,Ao abrigo de acordo-quadro (art.º 259.º),Aquisição de bens móveis,"33140000-3, Material médico de consumo","Centro Hospitalar de Leiria, E. P. E. (509822932)","ANASTACIO SALDANHA UNIPESSOAL, LDA. (505804441)","10.311,84 €",25-08-2017,10-01-2017,150 dias,"Portugal, Leiria, Leiria","Artigo 20.º, n.º 1, alínea b) do Código dos Contratos Públicos",31-05-2017,"10.311,84 €",,,,451780,CP 2012/24 - MATERAIL DISPOSABLE DE BLOCO OPERATORIO,FALSE
Material Irrecuperável Médico Cirúrgico,Ajuste Direto Regime Geral,Aquisição de bens móveis,"33140000-3, Material médico de consumo","Centro Hospitalar de Leiria, E. P. E. (509822932)","ANASTACIO SALDANHA UNIPESSOAL, LDA. (505804441)","2.529,60 €",25-08-2017,03-01-2017,120 dias,"Portugal, Leiria, Leiria","Artigo 20.º, n.º 1, alínea a) do Código dos Contratos Públicos","","",,,,Não aplicável.,Não aplicável.,FALSE
Material Irrecuperável Médico Cirúrgico,Ajuste Direto Regime Geral,Aquisição de bens móveis,"33140000-3, Material médico de consumo","Centro Hospitalar de Leiria, E. P. E. (509822932)","H.R. HOSPITALAR, UNIPESSOAL, LDA. (501895558)","1.228,40 €",25-08-2017,03-01-2017,120 dias,"Portugal, Leiria, Leiria","Artigo 20.º, n.º 1, alínea a) do Código dos Contratos Públicos","","",,,,Não aplicável.,Não aplicável.,FALSE
Material Irrecuperável Médico Cirúrgico,Ajuste Direto Regime Geral,Aquisição de bens móveis,"33140000-3, Material médico de consumo","Centro Hospitalar de Leiria, E. P. E. (509822932)","FRESENIUS KABI PHARMA PORTUGAL, LDA (504293753)","12.936,00 €",25-08-2017,03-01-2017,120 dias,"Portugal, Leiria, Leiria","Artigo 20.º, n.º 1, alínea a) do Código dos Contratos Públicos","","",,,,Não aplicável.,Não aplicável.,FALSE
Material Irrecuperável Médico Cirúrgico,Ajuste Direto Regime Geral,Aquisição de bens móveis,"33140000-3, Material médico de consumo","Centro Hospitalar de Leiria, E. P. E. (509822932)","CLINIFAR-PROD.CLINIC.FARMACEUTICOS, SA (503281115)","376,80 €",25-08-2017,03-01-2017,120 dias,"Portugal, Leiria, Leiria","Artigo 20.º, n.º 1, alínea a) do Código dos Contratos Públicos","","",,,,Não aplicável.,Não aplicável.,FALSE
Tecido não tecido,Ao abrigo de acordo-quadro (art.º 259.º),Aquisição de bens móveis,"33198000-4, Artigos de papel para uso hospitalar","Centro Hospitalar de Leiria, E. P. E. (509822932)","PERGUT PORTUGAL-COM.PROD.HOSP.MED., LDA (501799729)","8.580,00 €",25-08-2017,07-06-2017,150 dias,"Portugal, Leiria, Leiria","Artigo 20.º, n.º 1, alínea b) do Código dos Contratos Públicos",30-06-2017,"8.580,00 €",,,,540623,"CONCURSO PÚBLICO PARA A CELEBRAÇÃO DE CONTRATOS PÚBLICOS DE APROVISIONAMENTO PARA A ÁREA DA SAÚDE, COM VISTA AO FORNECIMENTO DE MATERIAL DISPOSABLE DE BLOCO OPERATÓRIO - PARTE 3, ÀS INSTITUIÇÕES E SERVIÇOS DO SERVIÇO NACIONAL DE SAÚDE",FALSE
Manga peróxido hidrogénio,Ao abrigo de acordo-quadro (art.º 259.º),Aquisição de bens móveis,"33198200-6, Saquetas e invólucros de papel para esterilização","Centro Hospitalar de Leiria, E. P. E. (509822932)","EUROCASMEDICA, SA (503322105)","441,70 €",25-08-2017,07-06-2017,150 dias,"Portugal, Leiria, Leiria","Artigo 20.º, n.º 1, alínea b) do Código dos Contratos Públicos",30-06-2017,"441,70 €",,,,540623,"CONCURSO PÚBLICO PARA A CELEBRAÇÃO DE CONTRATOS PÚBLICOS DE APROVISIONAMENTO PARA A ÁREA DA SAÚDE, COM VISTA AO FORNECIMENTO DE MATERIAL DISPOSABLE DE BLOCO OPERATÓRIO - PARTE 3, ÀS INSTITUIÇÕES E SERVIÇOS DO SERVIÇO NACIONAL DE SAÚDE",FALSE
Saco papel / Papel rugoso,Ao abrigo de acordo-quadro (art.º 259.º),Aquisição de bens móveis,"33198200-6, Saquetas e invólucros de papel para esterilização","Centro Hospitalar de Leiria, E. P. E. (509822932)","BASTOS VIEGAS, SA (500042772)","647,80 €",25-08-2017,07-06-2017,365 dias,"Portugal, Leiria, Leiria","Artigo 20.º, n.º 1, alínea b) do Código dos Contratos Públicos",30-06-2017,"647,80 €",,,,540623,"CONCURSO PÚBLICO PARA A CELEBRAÇÃO DE CONTRATOS PÚBLICOS DE APROVISIONAMENTO PARA A ÁREA DA SAÚDE, COM VISTA AO FORNECIMENTO DE MATERIAL DISPOSABLE DE BLOCO OPERATÓRIO - PARTE 3, ÀS INSTITUIÇÕES E SERVIÇOS DO SERVIÇO NACIONAL DE SAÚDE",FALSE
Teste bowie dick,Ao abrigo de acordo-quadro (art.º 259.º),Aquisição de bens móveis,"33140000-3, Material médico de consumo","Centro Hospitalar de Leiria, E. P. E. (509822932)","ANASTACIO SALDANHA UNIPESSOAL, LDA. (505804441)","63,36 €",25-08-2017,07-06-2017,150 dias,"Portugal, Leiria, Leiria","Artigo 20.º, n.º 1, alínea b) do Código dos Contratos Públicos",30-06-2017,"63,36 €",,,,540623,"CONCURSO PÚBLICO PARA A CELEBRAÇÃO DE CONTRATOS PÚBLICOS DE APROVISIONAMENTO PARA A ÁREA DA SAÚDE, COM VISTA AO FORNECIMENTO DE MATERIAL DISPOSABLE DE BLOCO OPERATÓRIO - PARTE 3, ÀS INSTITUIÇÕES E SERVIÇOS DO SERVIÇO NACIONAL DE SAÚDE",FALSE
Indicador biológico,Concurso público,Aquisição de bens móveis,"33140000-3, Material médico de consumo","Centro Hospitalar de Leiria, E. P. E. (509822932)","PROMEI CENTRO, LDA (506470113)","3.542,40 €",25-08-2017,27-07-2017,365 dias,"Portugal, Leiria, Leiria","Artigo 20.º, n.º 1, alínea b) do Código dos Contratos Públicos","","",,,,Não aplicável.,Não aplicável.,FALSE
Indicadores químicos,Concurso público,Aquisição de bens móveis,"33140000-3, Material médico de consumo","Centro Hospitalar de Leiria, E. P. E. (509822932)","HELDER GONCALVES - ASSIST. TECNICA DE EQUIPAM., LDA. (503855421)","2.143,20 €",25-08-2017,27-07-2017,365 dias,"Portugal, Leiria, Leiria","Artigo 20.º, n.º 1, alínea b) do Código dos Contratos Públicos","","",,,,Não aplicável.,Não aplicável.,FALSE
Indicador químico,Concurso público,Aquisição de bens móveis,"33140000-3, Material médico de consumo","Centro Hospitalar de Leiria, E. P. E. (509822932)","DIMOR LUSITANA, LDA (500730741)","4.130,00 €",25-08-2017,27-07-2017,365 dias,"Portugal, Leiria, Leiria","Artigo 20.º, n.º 1, alínea b) do Código dos Contratos Públicos","","",,,,Não aplicável.,Não aplicável.,FALSE
Indicador químico,Concurso público,Aquisição de bens móveis,"33140000-3, Material médico de consumo","Centro Hospitalar de Leiria, E. P. E. (509822932)","EPJMEDICA-ART.MEDICOS HOSPITALARES, LDA (506820513)","1.488,00 €",25-08-2017,27-07-2017,365 dias,"Portugal, Leiria, Leiria","Artigo 20.º, n.º 1, alínea b) do Código dos Contratos Públicos","","",,,,Não aplicável.,Não aplicável.,FALSE
Manga mista,Concurso público,Aquisição de bens móveis,"33140000-3, Material médico de consumo","Centro Hospitalar de Leiria, E. P. E. (509822932)","DOCWORLD, LDA (508592909)","4.047,00 €",25-08-2017,27-07-2017,365 dias,"Portugal, Leiria, Leiria","Artigo 20.º, n.º 1, alínea b) do Código dos Contratos Públicos","","",,,,Não aplicável.,Não aplicável.,FALSE
Indicador e cassete c/ agente esterilizante,Concurso público,Aquisição de bens móveis,"33140000-3, Material médico de consumo","Centro Hospitalar de Leiria, E. P. E. (509822932)","JOHNSON E JOHNSON, LDA (500153370)","62.992,00 €",25-08-2017,31-07-2017,365 dias,"Portugal, Leiria, Leiria","Artigo 20.º, n.º 1, alínea b) do Código dos Contratos Públicos","","",,,,Não aplicável.,Não aplicável.,FALSE
Vídeo cápsula para estudo do intestino,Ajuste Direto Regime Geral,Aquisição de bens móveis,"33140000-3, Material médico de consumo","CENTRO HOSPITALAR DE LEIRIA, E.P.E. (509822932)","MEDTRONIC PORTUGAL, LDA (504223933)","26.000,00 €",25-08-2017,27-03-2017,365 dias,"Portugal, Leiria, Leiria","Artigo 24.º, n.º 1, alínea a) do Código dos Contratos Públicos","","",,,,Não aplicável.,Não aplicável.,FALSE
Indicador vapor classe 6,Ajuste Direto Regime Geral,Aquisição de bens móveis,"33140000-3, Material médico de consumo","Centro Hospitalar de Leiria, E. P. E. (509822932)","VITATECH-EQUIPAMENTOS E CONSUMIVEIS HOSPITALARES,LDA. (510693660)","487,50 €",24-08-2017,03-01-2017,150 dias,"Portugal, Leiria, Leiria","Artigo 20.º, n.º 1, alínea a) do Código dos Contratos Públicos",31-05-2017,"487,50 €",,,,Não aplicável.,Não aplicável.,FALSE
Manguito,Ajuste Direto Regime Geral,Aquisição de bens móveis,"33140000-3, Material médico de consumo","Centro Hospitalar de Leiria, E. P. E. (509822932)","OASIPOR-IMPORTACAO E EXPORTACAO, S.A. (502260750)","1.080,00 €",24-08-2017,03-01-2017,150 dias,"Portugal, Leiria, Leiria","Artigo 20.º, n.º 1, alínea a) do Código dos Contratos Públicos",31-05-2017,"1.080,00 €",,,,Não aplicável.,Não aplicável.,FALSE
Trouxa cirurgica,Ajuste Direto Regime Geral,Aquisição de bens móveis,"33140000-3, Material médico de consumo","Centro Hospitalar de Leiria, E. P. E. (509822932)","MOLNLYCKE PRODUTOS HOSPITALARES, LDA (503237612)","12.487,50 €",24-08-2017,03-01-2017,150 dias,"Portugal, Leiria, Leiria","Artigo 20.º, n.º 1, alínea a) do Código dos Contratos Públicos",31-05-2017,"12.487,50 €",,,,Não aplicável.,Não aplicável.,FALSE
Indicadores_diversos,Ajuste Direto Regime Geral,Aquisição de bens móveis,"33140000-3, Material médico de consumo","Centro Hospitalar de Leiria, E. P. E. (509822932)","JOHNSON E JOHNSON, LDA (500153370)","17.617,60 €",24-08-2017,03-01-2017,150 dias,"Portugal, Leiria, Leiria","Artigo 20.º, n.º 1, alínea a) do Código dos Contratos Públicos",31-05-2017,"17.617,60 €",,,,Não aplicável.,Não aplicável.,FALSE
Indicador químico adesivo vapor,Ajuste Direto Regime Geral,Aquisição de bens móveis,"33140000-3, Material médico de consumo","Centro Hospitalar de Leiria, E. P. E. (509822932)","EPJMEDICA-ART.MEDICOS HOSPITALARES, LDA (506820513)","430,08 €",24-08-2017,03-01-2017,150 dias,"Portugal, Leiria, Leiria","Artigo 20.º, n.º 1, alínea a) do Código dos Contratos Públicos",31-05-2017,"430,08 €",,,,Não aplicável.,Não aplicável.,FALSE
Indicador químico vapor,Ajuste Direto Regime Geral,Aquisição de bens móveis,"33140000-3, Material médico de consumo","Centro Hospitalar de Leiria, E. P. E. (509822932)","DIMOR LUSITANA, LDA (500730741)","1.896,00 €",24-08-2017,03-01-2017,150 dias,"Portugal, Leiria, Leiria","Artigo 20.º, n.º 1, alínea a) do Código dos Contratos Públicos",31-05-2017,"1.896,00 €",,,,Não aplicável.,Não aplicável.,FALSE
Material empacotamento_diverso,Ajuste Direto Regime Geral,Aquisição de bens móveis,"33140000-3, Material médico de consumo","Centro Hospitalar de Leiria, E. P. E. (509822932)","BASTOS VIEGAS, SA (500042772)","7.758,03 €",24-08-2017,03-01-2017,150 dias,"Portugal, Leiria, Leiria","Artigo 20.º, n.º 1, alínea a) do Código dos Contratos Públicos",31-05-2017,"7.758,03 €",,,,Não aplicável.,Não aplicável.,FALSE
Trouxa parto,Ajuste Direto Regime Geral,Aquisição de bens móveis,"33140000-3, Material médico de consumo","Centro Hospitalar de Leiria, E. P. E. (509822932)","ANASTACIO SALDANHA UNIPESSOAL, LDA. (505804441)","3.756,80 €",24-08-2017,03-01-2017,150 dias,"Portugal, Leiria, Leiria","Artigo 20.º, n.º 1, alínea a) do Código dos Contratos Públicos",31-05-2017,"3.756,80 €",,,,Não aplicável.,Não aplicável.,FALSE
Guia hidrofilo,Ajuste Direto Regime Geral,Aquisição de bens móveis,"33140000-3, Material médico de consumo","Centro Hospitalar de Leiria, E. P. E. (509822932)","TERUMO EUROPE ESPANA, SL (980472024)","1.400,00 €",24-08-2017,03-01-2017,120 dias,"Portugal, Leiria, Leiria","Artigo 20.º, n.º 1, alínea a) do Código dos Contratos Públicos",28-04-2017,"1.400,00 €",,,,Não aplicável.,Não aplicável.,FALSE
Bainhas,Ajuste Direto Regime Geral,Aquisição de bens móveis,"33140000-3, Material médico de consumo","Centro Hospitalar de Leiria, E. P. E. (509822932)","TELEFLEX MEDICAL, S.A.U. (980249783)","712,50 €",24-08-2017,03-01-2017,120 dias,"Portugal, Leiria, Leiria","Artigo 20.º, n.º 1, alínea a) do Código dos Contratos Públicos",28-04-2017,"712,50 €",,,,Não aplicável.,Não aplicável.,FALSE
Cateter drenagem c/ trocart,Ajuste Direto Regime Geral,Aquisição de bens móveis,"33141200-2, Cateteres","Centro Hospitalar de Leiria, E. P. E. (509822932)","MERIT MEDICAL PORTUGAL,SA (513157816)","1.380,00 €",24-08-2017,03-01-2017,120 dias,"Portugal, Leiria, Leiria","Artigo 20.º, n.º 1, alínea a) do Código dos Contratos Públicos",28-04-2017,"1.380,00 €",,,,Não aplicável.,Não aplicável.,FALSE
Seringa c/ dispositivo de bloqueio,Ajuste Direto Regime Geral,Aquisição de bens móveis,"33140000-3, Material médico de consumo","Centro Hospitalar de Leiria, E. P. E. (509822932)","CATETER PRODUTOS MEDICOS HOSPITALARES,LD (502914319)","450,00 €",24-08-2017,03-01-2017,120 dias,"Portugal, Leiria, Leiria","Artigo 20.º, n.º 1, alínea a) do Código dos Contratos Públicos",28-04-2017,"450,00 €",,,,Não aplicável.,Não aplicável.,FALSE
Proteses biliares,Ajuste Direto Regime Geral,Aquisição de bens móveis,"33140000-3, Material médico de consumo","Centro Hospitalar de Leiria, E. P. E. (509822932)","BOSTON SCIENTIFIC PORTUGAL-DISP.MEDICOS,LDA. (504988964)","3.630,00 €",24-08-2017,03-01-2017,120 dias,"Portugal, Leiria, Leiria","Artigo 20.º, n.º 1, alínea a) do Código dos Contratos Públicos",28-04-2017,"3.630,00 €",,,,Não aplicável.,Não aplicável.,FALSE
"0323E17-SERVIÇOS DE ASSISTÊNCIA TÉCNICA ÀS INSTALAÇÕES E EQUIPAMENTOS ELÉCTRICOS DO CHL, EPE E AO CCGE DO HSA 01.06.2017 A 31.05.2018",Ajuste Direto Regime Geral,Aquisição de serviços,"50000000-5, Serviços de reparação e manutenção","Centro Hospitalar de Leiria, E. P. E. (509822932)","UPK, SA (513567399)","162.000,00 €",23-08-2017,08-06-2017,365 dias,"Portugal, Leiria, Leiria","Artigo 20.º, n.º 1, alínea a) do Código dos Contratos Públicos","","",,,,Não aplicável.,Não aplicável.,FALSE
0347E17-SERVIÇOS DE LIMPEZA NA QUINTA DOS ANDRINOS,Ajuste Direto Regime Geral,Aquisição de serviços,"90000000-7, Serviços relativos a águas residuais, resíduos, limpeza e ambiente","Centro Hospitalar de Leiria, E. P. E. (509822932)","FOZALUGA, LDA. (506785505)","5.600,00 €",23-08-2017,05-07-2017,5 dias,"Portugal, Leiria, Leiria","Artigo 20.º, n.º 1, alínea a) do Código dos Contratos Públicos",05-07-2017,"5.600,00 €",,,,Não aplicável.,Não aplicável.,FALSE
"0360E17-MANUTENÇÃO DOS ESPAÇOS VERDES DO CHL, EPE DE JULHO A DEZEMBRO DE 2017",Ajuste Direto Regime Geral,Aquisição de serviços,"50000000-5, Serviços de reparação e manutenção","Centro Hospitalar de Leiria, E. P. E. (509822932)","VIBEIRAS, SA (502050942)","18.000,00 €",23-08-2017,10-07-2017,184 dias,"Portugal, Leiria, Leiria","Artigo 20.º, n.º 1, alínea a) do Código dos Contratos Públicos","","",,,,Não aplicável.,Não aplicável.,FALSE
"0361E17-MANUTENÇÃO E ASSISTÊNCIA TÉCNICA AOS SERVIDORES DO CHL, EPE",Ajuste Direto Regime Geral,Aquisição de serviços,"50000000-5, Serviços de reparação e manutenção","Centro Hospitalar de Leiria, E. P. E. (509822932)","INFORMANTÉM, SA (503670693)","7.717,15 €",23-08-2017,10-07-2017,123 dias,"Portugal, Leiria, Leiria","Artigo 20.º, n.º 1, alínea a) do Código dos Contratos Públicos","","",,,,Não aplicável.,Não aplicável.,FALSE
Cateteres,Ao abrigo de acordo-quadro (art.º 259.º),Aquisição de bens móveis,"33141200-2, Cateteres","Centro Hospitalar de Leiria, E. P. E. (509822932)","SMITHS MEDICAL (PORTUGAL),UNIPESSOAL,LDA (507445937)","4.189,50 €",23-08-2017,14-08-2017,150 dias,"Portugal, Leiria, Leiria","Artigo 20.º, n.º 1, alínea b) do Código dos Contratos Públicos","","",,,,1212278,"CONCURSO PÚBLICO PARA A CELEBRAÇÃO DE CONTRATOS PÚBLICOS DE APROVISIONAMENTO PARA A ÁREA DA SAÚDE, COM VISTA AO FORNECIMENTO DE CATETERES, ÀS INSTITUIÇÕES E SERVIÇOS DO SERVIÇO NACIONAL DE SAÚDE",FALSE
0359E17-MANUTENÇÃO APLICACIONAL DE SOLUÇÕES INFORMÁTICAS,Ajuste Direto Regime Geral,Aquisição de serviços,"50000000-5, Serviços de reparação e manutenção","Centro Hospitalar de Leiria, E. P. E. (509822932)","ACSS-ADM. CENT. SISTEMA SAUDE, IP (508188423)","38.508,72 €",23-08-2017,05-07-2017,365 dias,"Portugal, Leiria, Leiria","Artigo 20.º, n.º 1, alínea a) do Código dos Contratos Públicos","","",,,,Não aplicável.,Não aplicável.,FALSE
0543E16-SERVIÇOS DE SEGURANÇA E VIGILÂNCIA,Ajuste Direto Regime Geral,Aquisição de serviços,"79000000-4, Serviços a empresas: direito, comercialização, consultoria, recrutamento, impressão e segurança","Centro Hospitalar de Leiria, E. P. E. (509822932)","VIGIEXPERT, LDA. (506807266)","474.592,80 €",23-08-2017,08-09-2016,365 dias,"Portugal, Leiria, Leiria","Artigo 20.º, n.º 1, alínea a) do Código dos Contratos Públicos","","",,,,Não aplicável.,Não aplicável.,FALSE
