Objeto do Contrato,Tipo de Procedimento,Tipo(s) de Contrato,CPVs,Entidade(s) Adjudicante(s),Entidade(s) Adjudicatária(s),Preço Contratual,Data de Publicação,Data de Celebração do Contrato,Prazo de Execução,Local de Execução,Fundamentação,Data de Fecho do Contrato,Preço Total Efetivo,Causas das Alterações ao Prazo,Causas das Alterações ao Preço,Estado,N.º registo do Acordo Quadro,Descrição do Acordo Quadro,Procedimento Centralizado
Aquisição de 10 unidades de Tubo Guia Adulto,Concurso público,Aquisição de bens móveis,"33140000-3, Material médico de consumo","Administração Regional de Saúde do Norte, I. P. (503135593)",Covidien  (503413410),"29,50 €",19-06-2015,17-11-2014,41 dias,"Portugal, Vila Real, Vila Real<BR/>Portugal, Porto, Maia<BR/>Portugal, Distrito não determinado, Concelho não determinado",Artigo 155.º do Código dos Contratos Públicos,"","","",,,Não aplicável.,Não aplicável.,FALSE
Aquisição de 15 unidades de Tubo introdutor Bougie,Concurso público,Aquisição de bens móveis,"33140000-3, Material médico de consumo","Administração Regional de Saúde do Norte, I. P. (503135593)",Intersurgical (503480045),"48,00 €",19-06-2015,17-11-2014,41 dias,"Portugal, Porto, Maia<BR/>Portugal, Distrito não determinado, Concelho não determinado<BR/>Portugal, Vila Real, Vila Real",Artigo 155.º do Código dos Contratos Públicos,"","","",,,Não aplicável.,Não aplicável.,FALSE
Aquisição de 20 unidades de Tubo Guia Pediátrico,Concurso público,Aquisição de bens móveis,"33140000-3, Material médico de consumo","Administração Regional de Saúde do Norte, I. P. (503135593)",Covidien (503413410),"59,00 €",19-06-2015,17-11-2014,41 dias,"Portugal, Distrito não determinado, Concelho não determinado<BR/>Portugal, Vila Real, Vila Real<BR/>Portugal, Porto, Maia",Artigo 155.º do Código dos Contratos Públicos,"","","",,,Não aplicável.,Não aplicável.,FALSE
Aquisição de 5 unidades de Tubo Esófago Traqueal,Concurso público,Aquisição de bens móveis,"33140000-3, Material médico de consumo","Administração Regional de Saúde do Norte, I. P. (503135593)",Covidien Portugal (503413410),"500,00 €",19-06-2015,17-11-2014,41 dias,"Portugal, Distrito não determinado, Concelho não determinado<BR/>Portugal, Vila Real, Vila Real<BR/>Portugal, Porto, Maia",Artigo 155.º do Código dos Contratos Públicos,"","","",,,Não aplicável.,Não aplicável.,FALSE
Aquisição de 40 unidades de Tubo Nasofaríngeo nº7,Concurso público,Aquisição de bens móveis,"33140000-3, Material médico de consumo","Administração Regional de Saúde do Norte, I. P. (503135593)","H.R. Produtos Quimicos, lda (501895558)","35,60 €",17-06-2015,17-11-2014,41 dias,"Portugal, Porto, Maia<BR/>Portugal, Distrito não determinado, Concelho não determinado<BR/>Portugal, Vila Real, Vila Real",Artigo 155.º do Código dos Contratos Públicos,"","","",,,Não aplicável.,Não aplicável.,FALSE
Aquisição de 40 unidades de Tubo Nasofaríngeo nº6,Concurso público,Aquisição de bens móveis,"33140000-3, Material médico de consumo","Administração Regional de Saúde do Norte, I. P. (503135593)","H.R. Produtos Quimicos,lda (501895558)","35,60 €",17-06-2015,17-11-2014,41 dias,"Portugal, Vila Real, Vila Real<BR/>Portugal, Porto, Maia<BR/>Portugal, Distrito não determinado, Concelho não determinado",Artigo 155.º do Código dos Contratos Públicos,"","","",,,Não aplicável.,Não aplicável.,FALSE
Aquisição de 2.000 unidades de Traqueia Nebulizador,Concurso público,Aquisição de bens móveis,"33140000-3, Material médico de consumo","Administração Regional de Saúde do Norte, I. P. (503135593)",Intersurgical (503480045),"222,40 €",17-06-2015,17-11-2014,41 dias,"Portugal, Porto, Maia<BR/>Portugal, Vila Real, Vila Real<BR/>Portugal, Distrito não determinado, Concelho não determinado",Artigo 155.º do Código dos Contratos Públicos,"","","",,,Não aplicável.,Não aplicável.,FALSE
Aquisição de 40 unidades de tubo orofaríngeo (guedel)nº3,Concurso público,Aquisição de bens móveis,"33140000-3, Material médico de consumo","Administração Regional de Saúde do Norte, I. P. (503135593)",Intersurgical (503480045),"8,00 €",17-06-2015,17-11-2014,41 dias,"Portugal, Distrito não determinado, Concelho não determinado<BR/>Portugal, Porto, Maia<BR/>Portugal, Vila Real, Vila Real",Artigo 155.º do Código dos Contratos Públicos,"","","",,,Não aplicável.,Não aplicável.,FALSE
Remodelação e adaptação - USF Felgueiras Rubeans (CS Felgueiras),Ajuste Direto Regime Geral,Empreitadas de obras públicas,"45454000-4, Obras de reestruturação","Administração Regional de Saúde do Norte, I. P. (503135593)","Maria Silva Moreira, Unipessoal Lda  (510118356)","39.490,29 €",15-06-2015,05-06-2015,90 dias,"Portugal, Porto, Felgueiras","Artigo 19.º, alínea a) do Código dos Contratos Públicos","","39.490,29 €","",,,Não aplicável.,Não aplicável.,FALSE
"Piso 0 - USF Almedina, USP, UCSP  ",Ajuste Direto Regime Geral,Empreitadas de obras públicas,"45454000-4, Obras de reestruturação","Administração Regional de Saúde do Norte, I. P. (503135593)","ANI - Engenharia, Lda  (509254993)","48.612,72 €",15-06-2015,27-05-2015,90 dias,"Portugal, Viseu, Lamego","Artigo 19.º, alínea a) do Código dos Contratos Públicos","","48.612,72 €"," Verificou-se que, face à natureza e quantidade  dos trabalhos a realizar, foi estimado um prazo para realização da empreitada superior ao realmente necessário.  ",,,Não aplicável.,Não aplicável.,FALSE
"Elevador, piso 2 - CS S. Roque   ",Ajuste Direto Regime Geral,Empreitadas de obras públicas,"45454000-4, Obras de reestruturação","Administração Regional de Saúde do Norte, I. P. (503135593)",CREC - Engenharia e Construções Lda  (503854263),"70.153,84 €",15-06-2015,27-05-2015,120 dias,"Portugal, Porto, Porto","Artigo 19.º, alínea a) do Código dos Contratos Públicos","","70.153,84 €","",,,Não aplicável.,Não aplicável.,FALSE
Cobertura e piso 1 - USF Cávado Saúde,Ajuste Direto Regime Geral,Empreitadas de obras públicas,"45453100-8, Obras de recuperação","Administração Regional de Saúde do Norte, I. P. (503135593)",Matrice Lda  (503884669),"41.182,50 €",15-06-2015,15-05-2015,90 dias,"Portugal, Braga, Barcelos","Artigo 19.º, alínea a) do Código dos Contratos Públicos","","41.182,50 €"," Verificou-se que, face à natureza e quantidade  dos trabalhos a realizar, foi estimado um prazo para realização da empreitada ligeiramente superior ao realmente necessário.",,,Não aplicável.,Não aplicável.,FALSE
Eletricidade - CS Santo Tirso,Ajuste Direto Regime Geral,Empreitadas de obras públicas,"45310000-3, Obras de instalação eléctrica","Administração Regional de Saúde do Norte, I. P. (503135593)","Trofilectrica-Energia e Telecomunicações, Lda  (500946485)","11.887,00 €",12-06-2015,25-05-2015,30 dias,"Portugal, Porto, Santo Tirso","Artigo 19.º, alínea a) do Código dos Contratos Públicos","","11.887,00 €",Não se verificaram atrasos. A receção provisória foi celebrada no dia útil seguinte à data da conclusão prevista pois terminava no feriado municipal.,,,Não aplicável.,Não aplicável.,FALSE
Obras de instalação de ar condicionado - ET Areias,Ajuste Direto Regime Geral,Empreitadas de obras públicas,"45331220-4, Instalação de ar condicionado","Administração Regional de Saúde do Norte, I. P. (503135593)","Tropikbarometro - Climatizações, Lda (510483747)","13.875,00 €",12-06-2015,13-05-2015,30 dias,"Portugal, Porto, Santo Tirso","Artigo 19.º, alínea a) do Código dos Contratos Públicos","","13.875,00 €","",,,Não aplicável.,Não aplicável.,FALSE
Reparação de diversos problemas identificados nas centrais telefónicas,Ajuste Direto Regime Geral,Aquisição de serviços,"50334140-8, Serviços de reparação e manutenção de aparelhos telefónicos","Administração Regional de Saúde do Norte, I. P. (503135593)","CorrenteVantagem - Unipessoal, Lda. (510713980)","1.462,50 €",12-06-2015,05-05-2015,3 dias,"Portugal, Porto, Maia<BR/>Portugal, Porto, Porto<BR/>Portugal, Porto, Lousada<BR/>Portugal, Porto, Vila Nova de Gaia","Artigo 20.º, n.º 1, alínea a) do Código dos Contratos Públicos",05-05-2015,"1.462,50 €","",,,Não aplicável.,Não aplicável.,FALSE
Obras de instalação de ar condicionado - ET de Lamego,Ajuste Direto Regime Geral,Empreitadas de obras públicas,"45331220-4, Instalação de ar condicionado","Administração Regional de Saúde do Norte, I. P. (503135593)","Tropikbarometro - Climatizações, Lda (510483747)","11.675,00 €",12-06-2015,13-05-2015,30 dias,"Portugal, Viseu, Lamego","Artigo 19.º, alínea a) do Código dos Contratos Públicos","","11.675,00 €"," Verificou-se que, face à natureza e quantidade  dos trabalhos a realizar, foi estimado um prazo para realização da empreitada superior ao realmente necessário.  ",,,Não aplicável.,Não aplicável.,FALSE
Correção térmica/ conservação cobertura plana - USF Santos Pousada,Ajuste Direto Regime Geral,Empreitadas de obras públicas,"45453100-8, Obras de recuperação","Administração Regional de Saúde do Norte, I. P. (503135593)","Construções Cruz, Archer & Ferreira Lda  (501777865)","8.437,50 €",12-06-2015,29-05-2015,60 dias,"Portugal, Porto, Porto","Artigo 19.º, alínea a) do Código dos Contratos Públicos","","8.437,50 €","",,,Não aplicável.,Não aplicável.,FALSE
Obras de tratamento de fachadas e casa dos lixos - UCSP de Lordelo do Ouro,Ajuste Direto Regime Geral,Empreitadas de obras públicas,"45453000-7, Obras de revisão e recuperação","Administração Regional de Saúde do Norte, I. P. (503135593)","Bruno da Silva Martins, Unipessoal Lda  (510234690)","14.680,00 €",12-06-2015,13-05-2015,45 dias,"Portugal, Porto, Porto","Artigo 19.º, alínea a) do Código dos Contratos Públicos","","14.680,00 €"," Verificou-se que, face à natureza e quantidade  dos trabalhos a realizar, foi estimado um prazo para realização da empreitada superior ao realmente necessário.  ",,,Não aplicável.,Não aplicável.,FALSE
Obras de adaptação e conservação (Saúde Pública) - Comunidade Terapêutica Ponte da Pedra,Ajuste Direto Regime Geral,Empreitadas de obras públicas,"45453000-7, Obras de revisão e recuperação","Administração Regional de Saúde do Norte, I. P. (503135593)","Bruno da Silva Martins, Unipessoal Lda  (513110860)","14.900,00 €",11-06-2015,24-04-2015,45 dias,"Portugal, Porto, Matosinhos","Artigo 19.º, alínea a) do Código dos Contratos Públicos","","14.900,00 €"," Verificou-se que, face à natureza e quantidade  dos trabalhos a realizar, foi estimado um prazo para realização da empreitada superior ao realmente necessário.  ",,,Não aplicável.,Não aplicável.,FALSE
