Objeto do Contrato,Tipo de Procedimento,Tipo(s) de Contrato,CPVs,Entidade(s) Adjudicante(s),Entidade(s) Adjudicatária(s),Preço Contratual,Data de Publicação,Data de Celebração do Contrato,Prazo de Execução,Local de Execução,Fundamentação,Data de Fecho do Contrato,Preço Total Efetivo,Causas das Alterações ao Prazo,Causas das Alterações ao Preço,Estado,N.º registo do Acordo Quadro,Descrição do Acordo Quadro,Procedimento Centralizado
"Aquisição Centralizada de Medicamentos para as Instituições do Serviço Nacional de Saúde, ao abrigo do Acordo Quadro 2015/6 - Medicamentos do Foro Oncologico",Ao abrigo de acordo-quadro (art.º 259.º),Aquisição de bens móveis,"33000000-0, Equipamento médico, medicamentos e produtos para cuidados pessoais","Centro Hospitalar Cova da Beira, E. P. E. (506361659)","BRISTOL MYERS SQUIBB FARM.PORTUGUESA, SA (500048193)","24.945,91 €",10-05-2018,04-05-2018,245 dias,"Portugal, Castelo Branco, Covilhã",Artigo 259.º do Código dos Contratos Públicos,,,,,,3391448,"PRC_0119/2018_CLG - Aquisição de Material Hidráulico para a Águas do Norte, S.A.",FALSE
"Aquisição Centralizada de Medicamentos para as Instituições do Serviço Nacional de Saúde, ao abrigo do Acordo Quadro 2016/18",Ao abrigo de acordo-quadro (art.º 259.º),Aquisição de bens móveis,"33000000-0, Equipamento médico, medicamentos e produtos para cuidados pessoais","Centro Hospitalar Cova da Beira, E. P. E. (506361659)","SANOFI-PRODUTOS FARMACEUTICOS,LDA (500134960)","27.757,20 €",10-05-2018,03-05-2018,245 dias,"Portugal, Castelo Branco, Covilhã",Artigo 259.º do Código dos Contratos Públicos,,,,,,3391487,"PRC_0120/2018_CLG - Aquisição de Material Elétrico para a Águas do Norte, S.A.",FALSE
Aquisição Centralizada de Medicamentos para as Instituições do Serviço Nacional de Saúde.,Ao abrigo de acordo-quadro (art.º 259.º),Aquisição de bens móveis,"33000000-0, Equipamento médico, medicamentos e produtos para cuidados pessoais","Centro Hospitalar Cova da Beira, E. P. E. (506361659)","ROCHE FARMACEUTICA QUIMICA, LDA (500233810)","65.323,65 €",10-05-2018,30-04-2018,365 dias,"Portugal, Castelo Branco, Covilhã",Artigo 259.º do Código dos Contratos Públicos,,,,,,3144211,Concurso público com publicação no JOUE para a celebração de Acordo Quadro para o fornecimento de Roupa Hospitalar Diversa,FALSE
Aquisição Centralizada de Medicamentos para as Instituições do Serviço Nacional de Saúde.,Ao abrigo de acordo-quadro (art.º 259.º),Aquisição de bens móveis,"33000000-0, Equipamento médico, medicamentos e produtos para cuidados pessoais","Centro Hospitalar Cova da Beira, E. P. E. (506361659)","UCB PHARMA (PRODUTOS FARMACEUTICOS), LDA (500291322)","7.090,00 €",10-05-2018,27-04-2018,365 dias,"Portugal, Castelo Branco, Covilhã",Artigo 259.º do Código dos Contratos Públicos,,,,,,3390359,PRC_0085/2018_LAB - Aquisição de Reagentes e Consumíveis de Laboratório,FALSE
Aquisição Centralizada de Medicamentos para as Instituições do Serviço Nacional de Saúde.,Ao abrigo de acordo-quadro (art.º 259.º),Aquisição de bens móveis,"33000000-0, Equipamento médico, medicamentos e produtos para cuidados pessoais","Centro Hospitalar Cova da Beira, E. P. E. (506361659)","PHARMAKERN PORTUGAL-PROD.FARMACEUT, LDA (507002571)","29.862,00 €",10-05-2018,27-04-2018,365 dias,"Portugal, Castelo Branco, Covilhã",Artigo 259.º do Código dos Contratos Públicos,,,,,,3384719,Aquisição de Produtos de Higiene de WC,FALSE
Aquisição Centralizada de Medicamentos para as Instituições do Serviço Nacional de Saúde.,Ajuste Direto Regime Geral,Aquisição de bens móveis,"33000000-0, Equipamento médico, medicamentos e produtos para cuidados pessoais","Centro Hospitalar Cova da Beira, E. P. E. (506361659)","ACCORD HEALTHCARE, UNIPESSOAL LDA (508622263)","608,40 €",10-05-2018,27-04-2018,365 dias,"Portugal, Castelo Branco, Covilhã",Artigo 258.º do Código dos Contratos Públicos,,,,,,Não aplicável.,Não aplicável.,FALSE
Concurso Publico Internacional para aquisição Centralizada de Medicamentos para as Instituições do SNS - CP 2017/118,Ao abrigo de acordo-quadro (art.º 259.º),Aquisição de bens móveis,"33000000-0, Equipamento médico, medicamentos e produtos para cuidados pessoais","Centro Hospitalar Cova da Beira, E. P. E. (506361659)",GENERIS - FARMACEUTICA S A (508107997),"383,04 €",09-05-2018,27-04-2018,365 dias,"Portugal, Castelo Branco, Covilhã",Artigo 259.º do Código dos Contratos Públicos,,,,,,3384719,Aquisição de Produtos de Higiene de WC,FALSE
Concurso Publico Internacional para aquisição Centralizada de Medicamentos para as Instituições do SNS - CP 2017/118,Ao abrigo de acordo-quadro (art.º 259.º),Aquisição de bens móveis,"33000000-0, Equipamento médico, medicamentos e produtos para cuidados pessoais","Centro Hospitalar Cova da Beira, E. P. E. (506361659)","TEVA PHARMA-PRODUTOS FARMACEUTICOS, LDA (507045491)","3.305,88 €",09-05-2018,27-04-2018,365 dias,"Portugal, Castelo Branco, Covilhã",Artigo 259.º do Código dos Contratos Públicos,,,,,,3384719,Aquisição de Produtos de Higiene de WC,FALSE
Concurso Publico Internacional para aquisição Centralizada de Medicamentos para as Instituições do SNS - CP 2017/118,Ao abrigo de acordo-quadro (art.º 259.º),Aquisição de bens móveis,"33000000-0, Equipamento médico, medicamentos e produtos para cuidados pessoais","Centro Hospitalar Cova da Beira, E. P. E. (506361659)","SANOFI-PRODUTOS FARMACEUTICOS,LDA (500134960)","1.651,20 €",09-05-2018,27-04-2018,365 dias,"Portugal, Castelo Branco, Covilhã",Artigo 259.º do Código dos Contratos Públicos,,,,,,3384719,Aquisição de Produtos de Higiene de WC,FALSE
Ajuste Direto para aquisição de Medicamento I287 - Infliximab doentes em tratamento para as instituições do SNS,Ajuste Direto Regime Geral,Aquisição de bens móveis,"33000000-0, Equipamento médico, medicamentos e produtos para cuidados pessoais","Centro Hospitalar Cova da Beira, E. P. E. (506361659)","PHARMAKERN PORTUGAL-PROD.FARMACEUT, LDA (507002571)","4.202,10 €",09-05-2018,20-04-2018,365 dias,"Portugal, Castelo Branco, Covilhã","Artigo 24.º, n.º 1, alínea e), subalínea i) do Código dos Contratos Públicos",,,,,,Não aplicável.,Não aplicável.,FALSE
Ajuste Direto para aquisição do medicamento I287 - Infliximab doentes em tratamento para as Instituições do SNS,Ajuste Direto Regime Geral,Aquisição de bens móveis,"33000000-0, Equipamento médico, medicamentos e produtos para cuidados pessoais","Centro Hospitalar Cova da Beira, E. P. E. (506361659)","MERCK SHARP & DOHME, LDA (500191360)","32.051,25 €",09-05-2018,16-04-2018,365 dias,"Portugal, Castelo Branco, Covilhã","Artigo 24.º, n.º 1, alínea e), subalínea i) do Código dos Contratos Públicos",,,,,,Não aplicável.,Não aplicável.,FALSE
Aquisição Centralizada de Medicamentos para as Instituições do Serviço Nacional de Saúde.,Ao abrigo de acordo-quadro (art.º 259.º),Aquisição de bens móveis,"33000000-0, Equipamento médico, medicamentos e produtos para cuidados pessoais","Centro Hospitalar Cova da Beira, E. P. E. (506361659)","ABBVIE, LDA (510229050)","3.323,84 €",09-05-2018,09-04-2018,365 dias,"Portugal, Castelo Branco, Covilhã",Artigo 259.º do Código dos Contratos Públicos,,,,,,3390359,PRC_0085/2018_LAB - Aquisição de Reagentes e Consumíveis de Laboratório,FALSE
Aquisição Centralizada de Medicamentos para as Instituições do Serviço Nacional de Saúde.,Ao abrigo de acordo-quadro (art.º 259.º),Aquisição de bens móveis,"33000000-0, Equipamento médico, medicamentos e produtos para cuidados pessoais","Centro Hospitalar Cova da Beira, E. P. E. (506361659)","GRIFOLS PORTUGAL-PROD.FARM.HOSPIT., LDA (502041285)","60,97 €",09-05-2018,23-03-2018,365 dias,"Portugal, Castelo Branco, Covilhã",Artigo 259.º do Código dos Contratos Públicos,,,,,,3390359,PRC_0085/2018_LAB - Aquisição de Reagentes e Consumíveis de Laboratório,FALSE
Aquisição Centralizada de Medicamentos para as Instituições do Serviço Nacional de Saúde.,Ao abrigo de acordo-quadro (art.º 259.º),Aquisição de bens móveis,"33000000-0, Equipamento médico, medicamentos e produtos para cuidados pessoais","Centro Hospitalar Cova da Beira, E. P. E. (506361659)","CSL BEHRING, LDA. (503047201)","51.333,20 €",09-05-2018,23-03-2018,365 dias,"Portugal, Castelo Branco, Covilhã",Artigo 259.º do Código dos Contratos Públicos,,,,,,3390359,PRC_0085/2018_LAB - Aquisição de Reagentes e Consumíveis de Laboratório,FALSE
Aquisição Centralizada de Medicamentos para as Instituições do Serviço Nacional de Saúde.,Ao abrigo de acordo-quadro (art.º 259.º),Aquisição de bens móveis,"33000000-0, Equipamento médico, medicamentos e produtos para cuidados pessoais","Centro Hospitalar Cova da Beira, E. P. E. (506361659)","SHIRE PHARMACEUTICALS PORTUGAL, LDA. (509264662)","13.404,60 €",09-05-2018,23-03-2018,365 dias,"Portugal, Castelo Branco, Covilhã",Artigo 259.º do Código dos Contratos Públicos,,,,,,3390359,PRC_0085/2018_LAB - Aquisição de Reagentes e Consumíveis de Laboratório,FALSE
"Aquisição de Medicamentos Desencadeada pela SPMS, no âmbito do despacho 1571-B/2016 de 29 de janeiro",Ao abrigo de acordo-quadro (art.º 259.º),Aquisição de bens móveis,"33000000-0, Equipamento médico, medicamentos e produtos para cuidados pessoais","Centro Hospitalar Cova da Beira, E. P. E. (506361659)",ASTELLAS  (502540249),"203.153,16 €",09-05-2018,23-03-2018,365 dias,"Portugal, Castelo Branco, Covilhã",Artigo 259.º do Código dos Contratos Públicos,,,,,,3390359,PRC_0085/2018_LAB - Aquisição de Reagentes e Consumíveis de Laboratório,FALSE
Aquisição Centralizada de Medicamentos para as Instituições do Serviço Nacional de Saúde - Ref.ª  CP 2017/126,Ao abrigo de acordo-quadro (art.º 259.º),Aquisição de bens móveis,"33000000-0, Equipamento médico, medicamentos e produtos para cuidados pessoais","Centro Hospitalar Cova da Beira, E. P. E. (506361659)","TEVA PHARMA-PRODUTOS FARMACEUTICOS, LDA (507045491)","328,79 €",09-05-2018,02-04-2018,365 dias,"Portugal, Castelo Branco, Covilhã",Artigo 259.º do Código dos Contratos Públicos,,,,,,3322294,Aquisição de Mobiliário Escolar,FALSE
Aquisição de serviços de manutenção preventiva e corretiva aos equipamentos afetos ao Serviço de Imagiologia,Ajuste Direto Regime Geral,Aquisição de serviços,"50400000-9, Serviços de reparação e manutenção de equipamento médico e de precisão","Centro Hospitalar Cova da Beira, E. P. E. (506361659)","Agfa Healtcare Equipamentos Portuga, Lda. (500011060)","8.640,00 €",07-05-2018,02-05-2018,365 dias,"Portugal, Castelo Branco, Covilhã","Artigo 24.º, n.º 1, alínea e) do Código dos Contratos Públicos",,,,,,Não aplicável.,Não aplicável.,FALSE
"Procedimento n.º 00055_2017, Lote 3 - Agregação para equipamento informático (52 computadores de secretária avançado e respetivos periféricos), ao abrigo do Acordo Quadro da ESPAP.",Ao abrigo de acordo-quadro (art.º 259.º),Aquisição de bens móveis,"48900000-7, Pacote de software e sistemas informáticos diversos","Centro Hospitalar Cova da Beira, E. P. E. (506361659)","Informantem - Informática e Manutenção, SA (503670693)","30.879,68 €",07-05-2018,08-03-2018,365 dias,"Portugal, Castelo Branco, Covilhã",Artigo 259.º do Código dos Contratos Públicos,,,,,,3386464,"PROC-SD-12/2018 - Acordo Quadro Singular para fornecimento de peças de desgaste, manutenção e reparação das Bombas de Parafuso da marca SEEPEX ",FALSE
