Objeto do Contrato,Tipo de Procedimento,Tipo(s) de Contrato,CPVs,Entidade(s) Adjudicante(s),Entidade(s) Adjudicatária(s),Preço Contratual,Data de Publicação,Data de Celebração do Contrato,Prazo de Execução,Local de Execução,Fundamentação,Data de Fecho do Contrato,Preço Total Efetivo,Causas das Alterações ao Prazo,Causas das Alterações ao Preço,Estado,N.º registo do Acordo Quadro,Descrição do Acordo Quadro,Procedimento Centralizado
Fornecimento electricidade,Ajuste Direto Regime Geral,Aquisição de serviços,"65300000-6, Serviços de distribuição de electricidade e serviços conexos",Hospital Dr. Francisco Zagalo (501510150),EDP COMERCIAL (503504564),"6.017,04 €",10-09-2015,23-01-2015,30 dias,"Portugal, Aveiro, Ovar","Artigo 20.º, n.º 1, alínea a) do Código dos Contratos Públicos",23-01-2015,"6.017,04 €","",,,Não aplicável.,Não aplicável.,FALSE
Contrato de assistencia tecnica a equipamentos informaticos,Ajuste Direto Regime Geral,Aquisição de serviços,"50000000-5, Serviços de reparação e manutenção",Hospital Dr. Francisco Zagalo (501510150),"ITEN SOLUTIONS-Sistemas de Informação, S.A. (510728189)","5.214,76 €",10-09-2015,27-07-2015,30 dias,"Portugal, Aveiro, Ovar","Artigo 20.º, n.º 1, alínea a) do Código dos Contratos Públicos",18-08-2015,"5.214,76 €","",,,Não aplicável.,Não aplicável.,FALSE
Aquisição de material de consumo clinico diverso,Ajuste Direto Regime Geral,Aquisição de bens móveis,"33140000-3, Material médico de consumo",Hospital Dr. Francisco Zagalo (501510150),PORTO SAUDE (502927178),"77,60 €",10-09-2015,09-09-2015,30 dias,"Portugal, Aveiro, Ovar","Artigo 20.º, n.º 1, alínea a) do Código dos Contratos Públicos",02-12-2015,"77,60 €","",,,Não aplicável.,Não aplicável.,FALSE
Aquisição de material de consumo clinico diverss,Ajuste Direto Regime Geral,Aquisição de bens móveis,"33140000-3, Material médico de consumo",Hospital Dr. Francisco Zagalo (501510150),GRUPO VITALINO (513083162),"24,14 €",10-09-2015,09-09-2015,30 dias,"Portugal, Aveiro, Ovar","Artigo 20.º, n.º 1, alínea a) do Código dos Contratos Públicos",31-12-2015,"24,14 €","",,,Não aplicável.,Não aplicável.,FALSE
Aquisição de material de consumo clinico diverso,Ajuste Direto Regime Geral,Aquisição de bens móveis,"33140000-3, Material médico de consumo",Hospital Dr. Francisco Zagalo (501510150),JMV (501887148),"38,76 €",10-09-2015,09-09-2015,30 dias,"Portugal, Aveiro, Ovar","Artigo 20.º, n.º 1, alínea a) do Código dos Contratos Públicos",31-12-2015,"38,76 €","",,,Não aplicável.,Não aplicável.,FALSE
Aquisição de material de consumo clinico,Ajuste Direto Regime Geral,Aquisição de bens móveis,"33140000-3, Material médico de consumo",Hospital Dr. Francisco Zagalo (501510150),VYGON LDA (503232785),"5,50 €",10-09-2015,09-09-2015,30 dias,"Portugal, Aveiro, Ovar","Artigo 20.º, n.º 1, alínea a) do Código dos Contratos Públicos",31-12-2015,"5,50 €","",,,Não aplicável.,Não aplicável.,FALSE
Aquisição de material de consumo clinico diverso,Ajuste Direto Regime Geral,Aquisição de bens móveis,"33140000-3, Material médico de consumo",Hospital Dr. Francisco Zagalo (501510150),B.BRAUN (501506543),"22,20 €",10-09-2015,09-09-2015,30 dias,"Portugal, Aveiro, Ovar","Artigo 20.º, n.º 1, alínea a) do Código dos Contratos Públicos",31-12-2015,"22,20 €","",,,Não aplicável.,Não aplicável.,FALSE
Aquisição de material de consumo clinico diverso,Ajuste Direto Regime Geral,Aquisição de bens móveis,"33140000-3, Material médico de consumo",Hospital Dr. Francisco Zagalo (501510150),B.BRAUN (501506543),"27,65 €",10-09-2015,09-09-2015,30 dias,"Portugal, Aveiro, Ovar","Artigo 20.º, n.º 1, alínea a) do Código dos Contratos Públicos",31-12-2015,"27,65 €","",,,Não aplicável.,Não aplicável.,FALSE
Aquisição de medicamentos c/ CHNM do catálogo,Ajuste Direto Regime Geral,Aquisição de bens móveis,"33690000-3, Medicamentos vários",Hospital Dr. Francisco Zagalo (501510150),OVERPHARMA (504615947),"14,74 €",10-09-2015,23-12-2014,1 dias,"Portugal, Aveiro, Ovar","Artigo 20.º, n.º 1, alínea a) do Código dos Contratos Públicos",23-12-2014,"14,74 €",AQUISIÇÃO DE MEDICAMENTOS,,,Não aplicável.,Não aplicável.,FALSE
Aquisição de medicamentos c/CHNM do catálogo,Ajuste Direto Regime Geral,Aquisição de bens móveis,"33690000-3, Medicamentos vários",Hospital Dr. Francisco Zagalo (501510150),B.BRAUN (501506543),"172,00 €",10-09-2015,23-12-2014,1 dias,"Portugal, Aveiro, Ovar","Artigo 20.º, n.º 1, alínea a) do Código dos Contratos Públicos",23-12-2014,"172,00 €",AQUISIÇÃO DE MEDICAMENTOS,,,Não aplicável.,Não aplicável.,FALSE
material de manutenção,Ajuste Direto Regime Geral,Aquisição de bens móveis,"44000000-0, Estruturas e materiais de construção; produtos auxiliares de construção (excepto aparelhos eléctricos)",Hospital Dr. Francisco Zagalo (501510150),Drogaria Silva (105049700),"218,82 €",09-09-2015,27-10-2014,60 dias,"Portugal, Aveiro, Ovar","Artigo 20.º, n.º 1, alínea a) do Código dos Contratos Públicos",31-12-2014,"218,82 €","",,,Não aplicável.,Não aplicável.,FALSE
Material de manutenção,Ajuste Direto Regime Geral,Aquisição de bens móveis,"44000000-0, Estruturas e materiais de construção; produtos auxiliares de construção (excepto aparelhos eléctricos)",Hospital Dr. Francisco Zagalo (501510150),Eletrosiluz (500600279),"66,68 €",09-09-2015,27-10-2014,60 dias,"Portugal, Aveiro, Ovar","Artigo 20.º, n.º 1, alínea a) do Código dos Contratos Públicos",31-12-2014,"66,68 €","",,,Não aplicável.,Não aplicável.,FALSE
Material de manutenção,Ajuste Direto Regime Geral,Aquisição de bens móveis,"44000000-0, Estruturas e materiais de construção; produtos auxiliares de construção (excepto aparelhos eléctricos)",Hospital Dr. Francisco Zagalo (501510150),José Pereira Saramago (500649170),"26,00 €",09-09-2015,27-10-2014,60 dias,"Portugal, Aveiro, Ovar","Artigo 20.º, n.º 1, alínea a) do Código dos Contratos Públicos",31-12-2014,"26,00 €","",,,Não aplicável.,Não aplicável.,FALSE
Aquisição de material de tratamento,Ajuste Direto Regime Geral,Aquisição de bens móveis,"33140000-3, Material médico de consumo",Hospital Dr. Francisco Zagalo (501510150),"OLUMPUS IBERIA, S.A.U. (980474710)","421,63 €",09-09-2015,17-01-2014,348 dias,"Portugal, Aveiro, Ovar","Artigo 20.º, n.º 1, alínea a) do Código dos Contratos Públicos",31-12-2014,"421,63 €","",,,Não aplicável.,Não aplicável.,FALSE
Aquisiçã de material de tratamento,Ajuste Direto Regime Geral,Aquisição de bens móveis,"33140000-3, Material médico de consumo",Hospital Dr. Francisco Zagalo (501510150),Nutricia Advanced Nutrition Unipessoal Lda (507558286),"93,00 €",09-09-2015,17-01-2014,348 dias,"Portugal, Aveiro, Ovar","Artigo 20.º, n.º 1, alínea a) do Código dos Contratos Públicos",31-12-2014,"93,00 €","",,,Não aplicável.,Não aplicável.,FALSE
Aquisição de material de tratamento,Ajuste Direto Regime Geral,Aquisição de bens móveis,"33140000-3, Material médico de consumo",Hospital Dr. Francisco Zagalo (501510150),"FRESENIUS KABI PHARMA PORTUGAL, LDA (504293753)","92,61 €",09-09-2015,17-01-2014,348 dias,"Portugal, Aveiro, Ovar","Artigo 20.º, n.º 1, alínea a) do Código dos Contratos Públicos",31-12-2014,"92,61 €","",,,Não aplicável.,Não aplicável.,FALSE
Aquisição de material de tratamento,Ajuste Direto Regime Geral,Aquisição de bens móveis,"33140000-3, Material médico de consumo",Hospital Dr. Francisco Zagalo (501510150),"EUCASMÉDICA, SA (503322105)","15,00 €",09-09-2015,17-01-2014,348 dias,"Portugal, Aveiro, Ovar","Artigo 20.º, n.º 1, alínea a) do Código dos Contratos Públicos",31-12-2014,"15,00 €","",,,Não aplicável.,Não aplicável.,FALSE
Aquisição de material de tratamento,Ajuste Direto Regime Geral,Aquisição de bens móveis,"33140000-3, Material médico de consumo",Hospital Dr. Francisco Zagalo (501510150),B.BRAUN MEDICAL (501506543),"119,00 €",09-09-2015,17-01-2014,348 dias,"Portugal, Aveiro, Ovar","Artigo 20.º, n.º 1, alínea a) do Código dos Contratos Públicos",31-12-2014,"119,00 €","",,,Não aplicável.,Não aplicável.,FALSE
Aquisição de material de tratamento,Ajuste Direto Regime Geral,Aquisição de bens móveis,"33140000-3, Material médico de consumo",Hospital Dr. Francisco Zagalo (501510150),"VYGON, LDA (503232785)","85,00 €",09-09-2015,17-01-2014,348 dias,"Portugal, Aveiro, Ovar","Artigo 20.º, n.º 1, alínea a) do Código dos Contratos Públicos",31-12-2014,"85,00 €","",,,Não aplicável.,Não aplicável.,FALSE
Aquisição de material de consumo clinico,Ajuste Direto Regime Geral,Aquisição de bens móveis,"33140000-3, Material médico de consumo",Hospital Dr. Francisco Zagalo (501510150),COVIDIEN (503413410),"615,00 €",09-09-2015,14-01-2014,351 dias,"Portugal, Aveiro, Ovar","Artigo 20.º, n.º 1, alínea a) do Código dos Contratos Públicos",14-01-2014,"615,00 €","",,,Não aplicável.,Não aplicável.,FALSE
Aquisição material de consumo clinico,Ajuste Direto Regime Geral,Aquisição de bens móveis,"33140000-3, Material médico de consumo",Hospital Dr. Francisco Zagalo (501510150),B.BRAUN MEDICAL (501506543),"600,00 €",09-09-2015,14-01-2014,351 dias,"Portugal, Aveiro, Ovar","Artigo 20.º, n.º 1, alínea a) do Código dos Contratos Públicos",14-01-2014,"600,00 €","",,,Não aplicável.,Não aplicável.,FALSE
Aquisição de material de consumo clinico,Ajuste Direto Regime Geral,Aquisição de bens móveis,"33140000-3, Material médico de consumo",Hospital Dr. Francisco Zagalo (501510150),"OASIPOR - IMPORTAÇÃO E EXPORTAÇÃO, S.A. (502260750)","156,80 €",09-09-2015,14-01-2014,358 dias,"Portugal, Aveiro, Ovar","Artigo 20.º, n.º 1, alínea a) do Código dos Contratos Públicos",31-12-2014,"156,80 €","",,,Não aplicável.,Não aplicável.,FALSE
Aquisição de material de consumo clinico,Ajuste Direto Regime Geral,Aquisição de bens móveis,"33140000-3, Material médico de consumo",Hospital Dr. Francisco Zagalo (501510150),"LINDE SAUDE, SOCIEDADE UNIPESSOAL,LDA (500125546)","270,00 €",09-09-2015,14-01-2014,358 dias,"Portugal, Aveiro, Ovar","Artigo 20.º, n.º 1, alínea a) do Código dos Contratos Públicos",31-12-2014,"270,00 €","",,,Não aplicável.,Não aplicável.,FALSE
Aquisição de material de consumo clinico,Ajuste Direto Regime Geral,Aquisição de bens móveis,"33140000-3, Material médico de consumo",Hospital Dr. Francisco Zagalo (501510150),"INTERSURGICAL PORTUGAL,LDA. (503480045)","55,00 €",09-09-2015,14-01-2014,358 dias,"Portugal, Aveiro, Ovar","Artigo 20.º, n.º 1, alínea a) do Código dos Contratos Públicos",31-12-2014,"55,00 €","",,,Não aplicável.,Não aplicável.,FALSE
Aquisição de material de consumo clinico,Ajuste Direto Regime Geral,Aquisição de bens móveis,"33140000-3, Material médico de consumo",Hospital Dr. Francisco Zagalo (501510150),"EUROCASMEDICA, SA (503322105)","86,41 €",09-09-2015,14-01-2014,358 dias,"Portugal, Aveiro, Ovar","Artigo 20.º, n.º 1, alínea a) do Código dos Contratos Públicos",31-12-2014,"86,41 €","",,,Não aplicável.,Não aplicável.,FALSE
Aquisição de material de consumo clinico,Ajuste Direto Regime Geral,Aquisição de bens móveis,"33140000-3, Material médico de consumo",Hospital Dr. Francisco Zagalo (501510150),"ALBINO DIAS ANDRADE,LDA. (500013810)","126,30 €",09-09-2015,14-01-2014,351 dias,"Portugal, Aveiro, Ovar","Artigo 20.º, n.º 1, alínea a) do Código dos Contratos Públicos",14-01-2014,"126,30 €","",,,Não aplicável.,Não aplicável.,FALSE
Aquisição de material de consumo clínico,Ajuste Direto Regime Geral,Aquisição de bens móveis,"33140000-3, Material médico de consumo",Hospital Dr. Francisco Zagalo (501510150),3 M PORTUGAL (500193940),"40,00 €",09-09-2015,14-01-2014,351 dias,"Portugal, Aveiro, Ovar","Artigo 20.º, n.º 1, alínea a) do Código dos Contratos Públicos",14-01-2014,"40,00 €","",,,Não aplicável.,Não aplicável.,FALSE
Aquisição de material de consumo clinico,Ajuste Direto Regime Geral,Aquisição de bens móveis,"33140000-3, Material médico de consumo",Hospital Dr. Francisco Zagalo (501510150),TELEFLEX MEDICAL (980249783),"60,00 €",09-09-2015,07-01-2014,358 dias,"Portugal, Aveiro, Ovar","Artigo 20.º, n.º 1, alínea a) do Código dos Contratos Públicos",31-12-2014,"60,00 €","",,,Não aplicável.,Não aplicável.,FALSE
Aquisição de material de consumo clinico,Ajuste Direto Regime Geral,Aquisição de bens móveis,"33140000-3, Material médico de consumo",Hospital Dr. Francisco Zagalo (501510150),TEPREL-EQUIPAMENTOS TÉCNICOS S.A. (502262184),"266,40 €",09-09-2015,07-01-2014,358 dias,"Portugal, Aveiro, Ovar","Artigo 20.º, n.º 1, alínea a) do Código dos Contratos Públicos",31-12-2014,"266,40 €","",,,Não aplicável.,Não aplicável.,FALSE
Aquisição de material de consumo clinico,Ajuste Direto Regime Geral,Aquisição de bens móveis,"33140000-3, Material médico de consumo",Hospital Dr. Francisco Zagalo (501510150),"COLOPLAST PORTUGAL, SOC.UNIP.LDA (503989037)","63,60 €",09-09-2015,07-01-2014,358 dias,"Portugal, Aveiro, Ovar","Artigo 20.º, n.º 1, alínea a) do Código dos Contratos Públicos",31-12-2014,"63,60 €","",,,Não aplicável.,Não aplicável.,FALSE
Aquisição de material de consumo clinico,Ajuste Direto Regime Geral,Aquisição de bens móveis,"33140000-3, Material médico de consumo",Hospital Dr. Francisco Zagalo (501510150),"EUROCASMEDICA, SA (503322105)","113,00 €",09-09-2015,07-01-2014,358 dias,"Portugal, Aveiro, Ovar","Artigo 20.º, n.º 1, alínea a) do Código dos Contratos Públicos",31-12-2014,"113,00 €","",,,Não aplicável.,Não aplicável.,FALSE
Aquisição de material de consumo clinico,Ajuste Direto Regime Geral,Aquisição de bens móveis,"33140000-3, Material médico de consumo",Hospital Dr. Francisco Zagalo (501510150),"EUROCASMEDICA, SA (503322105)","155,00 €",09-09-2015,07-01-2014,358 dias,"Portugal, Aveiro, Ovar","Artigo 20.º, n.º 1, alínea a) do Código dos Contratos Públicos",31-12-2014,"155,00 €","",,,Não aplicável.,Não aplicável.,FALSE
Aquisição de material de consumo clinico,Ajuste Direto Regime Geral,Aquisição de bens móveis,"33140000-3, Material médico de consumo",Hospital Dr. Francisco Zagalo (501510150),"IBERDATA EQUIPAMENTOS,SA (501904921)","129,00 €",09-09-2015,07-01-2014,358 dias,"Portugal, Aveiro, Ovar","Artigo 20.º, n.º 1, alínea a) do Código dos Contratos Públicos",31-12-2014,"129,00 €","",,,Não aplicável.,Não aplicável.,FALSE
Aquisição de material de consumo clinico,Ajuste Direto Regime Geral,Aquisição de bens móveis,"33140000-3, Material médico de consumo",Hospital Dr. Francisco Zagalo (501510150),"B.BRAUN MEDICAL, LDA. (501506543)","398,20 €",09-09-2015,07-01-2014,358 dias,"Portugal, Aveiro, Ovar","Artigo 20.º, n.º 1, alínea a) do Código dos Contratos Públicos",31-12-2014,"398,20 €","",,,Não aplicável.,Não aplicável.,FALSE
Aquisição de material de consumo clinico,Ajuste Direto Regime Geral,Aquisição de bens móveis,"33140000-3, Material médico de consumo",Hospital Dr. Francisco Zagalo (501510150),"C.R.BARD PORTUGAL, LDA. (502438274)","43,50 €",09-09-2015,07-01-2014,358 dias,"Portugal, Aveiro, Ovar","Artigo 20.º, n.º 1, alínea a) do Código dos Contratos Públicos",31-12-2014,"43,50 €","",,,Não aplicável.,Não aplicável.,FALSE
Aquisição de material de consumo clinico,Ajuste Direto Regime Geral,Aquisição de bens móveis,"33140000-3, Material médico de consumo",Hospital Dr. Francisco Zagalo (501510150),"VYGON, LDA (503232785)","202,50 €",09-09-2015,07-01-2014,358 dias,"Portugal, Aveiro, Ovar","Artigo 20.º, n.º 1, alínea a) do Código dos Contratos Públicos",31-12-2014,"202,50 €","",,,Não aplicável.,Não aplicável.,FALSE
Aquisição de material de consumo clinico,Ajuste Direto Regime Geral,Aquisição de bens móveis,"33140000-3, Material médico de consumo",Hospital Dr. Francisco Zagalo (501510150),INSTRUMEDICIR - EQUIP.MEDICO-CIRURG. LDA (507754468),"107,00 €",08-09-2015,07-04-2014,252 dias,"Portugal, Aveiro, Ovar","Artigo 20.º, n.º 1, alínea a) do Código dos Contratos Públicos",31-12-2014,"107,00 €","",,,Não aplicável.,Não aplicável.,FALSE
Aquisição de material de consumo clinico,Ajuste Direto Regime Geral,Aquisição de bens móveis,"33140000-3, Material médico de consumo",Hospital Dr. Francisco Zagalo (501510150),"B.BRAUN MEDICAL, LDA. (501506543)","3.225,43 €",08-09-2015,07-04-2014,252 dias,"Portugal, Aveiro, Ovar","Artigo 20.º, n.º 1, alínea a) do Código dos Contratos Públicos",31-12-2014,"3.225,43 €","",,,Não aplicável.,Não aplicável.,FALSE
Aquisição de material para uso de laboratorio,Ajuste Direto Regime Geral,Aquisição de bens móveis,"38000000-5, Equipamento laboratorial, óptico e de precisão (exc. óculos)",Hospital Dr. Francisco Zagalo (501510150),"SIEMENS HEALTHCARE DIAGNOSTICS, LDA (507925173)","172,88 €",08-09-2015,18-02-2014,354 dias,"Portugal, Aveiro, Ovar","Artigo 20.º, n.º 1, alínea a) do Código dos Contratos Públicos",31-12-2014,"172,88 €","",,,Não aplicável.,Não aplicável.,FALSE
Aquisição de material para uso em laboratório,Ajuste Direto Regime Geral,Aquisição de bens móveis,"38000000-5, Equipamento laboratorial, óptico e de precisão (exc. óculos)",Hospital Dr. Francisco Zagalo (501510150),"SARSTEDT, LDA (503019461)","50,32 €",08-09-2015,18-02-2014,354 dias,"Portugal, Aveiro, Ovar","Artigo 20.º, n.º 1, alínea a) do Código dos Contratos Públicos",31-12-2014,"50,32 €","",,,Não aplicável.,Não aplicável.,FALSE
Aquisição de material para uso em laboratorio,Ajuste Direto Regime Geral,Aquisição de bens móveis,"38000000-5, Equipamento laboratorial, óptico e de precisão (exc. óculos)",Hospital Dr. Francisco Zagalo (501510150),EZEQUIEL PANAO JORGE LDA. (501412727),"156,45 €",08-09-2015,18-02-2014,354 dias,"Portugal, Aveiro, Ovar","Artigo 20.º, n.º 1, alínea a) do Código dos Contratos Públicos",31-12-2014,"156,45 €","",,,Não aplicável.,Não aplicável.,FALSE
aquisição de hardware,Ajuste Direto Regime Geral,Aquisição de bens móveis,"30000000-9, Máquinas, equipamento e material de escritório e de informática, excepto mobiliário e pacotes de programas (software)",Hospital Dr. Francisco Zagalo (501510150),Iten Solutions (510728189),"504,99 €",08-09-2015,22-01-2014,30 dias,"Portugal, Aveiro, Ovar","Artigo 20.º, n.º 1, alínea a) do Código dos Contratos Públicos",22-01-2014,"504,99 €","",,,Não aplicável.,Não aplicável.,FALSE
aquisição de hardware,Ajuste Direto Regime Geral,Aquisição de bens móveis,"30000000-9, Máquinas, equipamento e material de escritório e de informática, excepto mobiliário e pacotes de programas (software)",Hospital Dr. Francisco Zagalo (501510150),Netflow (507596137),"3.172,00 €",08-09-2015,22-01-2014,30 dias,"Portugal, Aveiro, Ovar","Artigo 20.º, n.º 1, alínea a) do Código dos Contratos Públicos",22-01-2014,"3.172,00 €","",,,Não aplicável.,Não aplicável.,FALSE
Aquisição de material de electromedicina,Ajuste Direto Regime Geral,Aquisição de bens móveis,"33000000-0, Equipamento médico, medicamentos e produtos para cuidados pessoais",Hospital Dr. Francisco Zagalo (501510150),"EUROCASMEDICA, SA (503322105)","37,52 €",08-09-2015,05-02-2014,311 dias,"Portugal, Aveiro, Ovar","Artigo 20.º, n.º 1, alínea a) do Código dos Contratos Públicos",31-12-2014,"37,52 €","",,,Não aplicável.,Não aplicável.,FALSE
Aquisição de material de electromedicina,Ajuste Direto Regime Geral,Aquisição de bens móveis,"33000000-0, Equipamento médico, medicamentos e produtos para cuidados pessoais",Hospital Dr. Francisco Zagalo (501510150),EZEQUIEL PANAO JORGE LDA. (501412727),"72,26 €",08-09-2015,05-02-2014,311 dias,"Portugal, Aveiro, Ovar","Artigo 20.º, n.º 1, alínea a) do Código dos Contratos Públicos",31-12-2014,"72,26 €","",,,Não aplicável.,Não aplicável.,FALSE
Aquisição de material de consumo clínico -21,Ajuste Direto Regime Geral,Aquisição de bens móveis,"33141100-1, Pensos; clipes, suturas, ligaduras",Hospital Dr. Francisco Zagalo (501510150),"DOCWORLD, LDA (508592909)","7,16 €",08-09-2015,18-02-2014,346 dias,"Portugal, Aveiro, Ovar","Artigo 20.º, n.º 1, alínea a) do Código dos Contratos Públicos",31-12-2014,"7,16 €","",,,Não aplicável.,Não aplicável.,FALSE
Aquisição de material de consumo clinico- 21,Ajuste Direto Regime Geral,Aquisição de bens móveis,"33141100-1, Pensos; clipes, suturas, ligaduras",Hospital Dr. Francisco Zagalo (501510150),"ABÍLIO FREIRE, LDA. (500432600)","373,55 €",08-09-2015,18-02-2014,346 dias,"Portugal, Aveiro, Ovar","Artigo 20.º, n.º 1, alínea a) do Código dos Contratos Públicos",31-12-2014,"373,55 €","",,,Não aplicável.,Não aplicável.,FALSE
Aquisição de material de consumo clinico -21,Ajuste Direto Regime Geral,Aquisição de bens móveis,"33141100-1, Pensos; clipes, suturas, ligaduras",Hospital Dr. Francisco Zagalo (501510150),PAUL HARTMANN LDA (502271728),"14,58 €",08-09-2015,18-02-2014,346 dias,"Portugal, Aveiro, Ovar","Artigo 20.º, n.º 1, alínea a) do Código dos Contratos Públicos","","","",,,Não aplicável.,Não aplicável.,FALSE
Aquisição de material de consumo clinico- 21,Ajuste Direto Regime Geral,Aquisição de bens móveis,"33141100-1, Pensos; clipes, suturas, ligaduras",Hospital Dr. Francisco Zagalo (501510150),"BASTOS E VIEGAS, S.A. (500042772)","34,98 €",08-09-2015,18-02-2014,346 dias,"Portugal, Aveiro, Ovar","Artigo 20.º, n.º 1, alínea a) do Código dos Contratos Públicos",31-12-2014,"34,98 €","",,,Não aplicável.,Não aplicável.,FALSE
Aquisição de material de consumo clinico- 21,Ajuste Direto Regime Geral,Aquisição de bens móveis,"33141100-1, Pensos; clipes, suturas, ligaduras",Hospital Dr. Francisco Zagalo (501510150),EZEQUIEL PANAO JORGE LDA. (501412727),"538,97 €",08-09-2015,18-02-2014,346 dias,"Portugal, Aveiro, Ovar","Artigo 20.º, n.º 1, alínea a) do Código dos Contratos Públicos",31-12-2014,"538,97 €","",,,Não aplicável.,Não aplicável.,FALSE
47002714-ESPELHOS,Ajuste Direto Regime Geral,Aquisição de bens móveis,"39000000-2, Mobiliário (incl. de escritório), acessórios, aparelhos domésticos (excl. iluminação) e produtos de limpeza",Hospital Dr. Francisco Zagalo (501510150),MANUEL DUARTE PAULO (105054011),"144,00 €",08-09-2015,29-12-2014,30 dias,"Portugal, Aveiro, Ovar","Artigo 20.º, n.º 1, alínea a) do Código dos Contratos Públicos",31-12-2014,"144,00 €","",,,Não aplicável.,Não aplicável.,FALSE
47002714-CADEIRAS RODAS E ESPELHOS,Ajuste Direto Regime Geral,Aquisição de bens móveis,"33000000-0, Equipamento médico, medicamentos e produtos para cuidados pessoais",Hospital Dr. Francisco Zagalo (501510150),PORTO SAUDE-EQUIP.CLIN.LAB. (502927178),"3.196,80 €",08-09-2015,29-12-2014,30 dias,"Portugal, Aveiro, Ovar","Artigo 20.º, n.º 1, alínea a) do Código dos Contratos Públicos",31-12-2014,"3.196,80 €","",,,Não aplicável.,Não aplicável.,FALSE
