Objeto do Contrato,Tipo de Procedimento,Tipo(s) de Contrato,CPVs,Entidade(s) Adjudicante(s),Entidade(s) Adjudicatária(s),Preço Contratual,Data de Publicação,Data de Celebração do Contrato,Prazo de Execução,Local de Execução,Fundamentação,Data de Fecho do Contrato,Preço Total Efetivo,Causas das Alterações ao Prazo,Causas das Alterações ao Preço,Estado,N.º registo do Acordo Quadro,Descrição do Acordo Quadro,Procedimento Centralizado
5450294/2013 - Tóneres,Ajuste Direto Regime Geral,Aquisição de bens móveis,"30000000-9, Máquinas, equipamento e material de escritório e de informática, excepto mobiliário e pacotes de programas (software)","Centro Hospitalar e Universitário de Coimbra, E. P. E. (510103448)","STAPLES PORTUGAL - EQUIP. ESCRITORIO, SA (503789372), CPCIS COMPANHIA PORTUGUESA COMP. INF. SISTEMAS, SA (501267255), NOVABIT INFORMÁTICA UNIPESSOAL,LDA (503411302), OLMAR-ARTIGOS DE PAPELARIA, LDA (508831989), EXTRACLICK EQUIPAMENTOS E SERVIÇOS LDA., (505770849)","33.750,81 €",01-07-2014,20-03-2014,180 dias,"Portugal, Coimbra, Coimbra","Artigo 20.º, n.º 1, alínea a) do Código dos Contratos Públicos","","","","",,Não aplicável.,Não aplicável.,FALSE
040401642014 - Roupa de Bloco,Ajuste Direto Regime Geral,Aquisição de bens móveis,"39518100-7, Roupa para blocos operatórios","Centro Hospitalar e Universitário de Coimbra, E. P. E. (510103448)","RIBEIRO & CARLOS, LDA - MUNDIFATO (502383542)","74.980,00 €",01-07-2014,12-06-2014,180 dias,"Portugal, Coimbra, Coimbra","Artigo 20.º, n.º 1, alínea a) do Código dos Contratos Públicos","","","","",,Não aplicável.,Não aplicável.,FALSE
040401632014 - Roupa para Serviços Específicos,Ajuste Direto Regime Geral,Aquisição de bens móveis,"18000000-9, Vestuário, calçado, malas e artigos de viagem, acessórios","Centro Hospitalar e Universitário de Coimbra, E. P. E. (510103448)","RIBEIRO & CARLOS, LDA - MUNDIFATO (502383542)","67.655,00 €",01-07-2014,12-06-2014,180 dias,"Portugal, Coimbra, Coimbra","Artigo 20.º, n.º 1, alínea a) do Código dos Contratos Públicos","","","","",,Não aplicável.,Não aplicável.,FALSE
040401622014 - Lençóis Estampados,Ajuste Direto Regime Geral,Aquisição de bens móveis,"39512100-5, Lençóis","Centro Hospitalar e Universitário de Coimbra, E. P. E. (510103448)","RIBEIRO & CARLOS, LDA - MUNDIFATO (502383542)","54.162,50 €",01-07-2014,12-06-2014,180 dias,"Portugal, Coimbra, Coimbra","Artigo 20.º, n.º 1, alínea a) do Código dos Contratos Públicos","","","","",,Não aplicável.,Não aplicável.,FALSE
5421285/2013 - COLUNA,Ajuste Direto Regime Geral,Aquisição de bens móveis,"33000000-0, Equipamento médico, medicamentos e produtos para cuidados pessoais","Centro Hospitalar e Universitário de Coimbra, E. P. E. (510103448)",JOHNSON (500153370),"1.726,60 €",30-06-2014,12-12-2013,10 dias,"Portugal, Coimbra, Coimbra","Artigo 24.º, n.º 1, alínea e) do Código dos Contratos Públicos","","","","",,Não aplicável.,Não aplicável.,FALSE
5421306/2013 - OSTEOSSINTESE,Ajuste Direto Regime Geral,Aquisição de bens móveis,"33000000-0, Equipamento médico, medicamentos e produtos para cuidados pessoais","Centro Hospitalar e Universitário de Coimbra, E. P. E. (510103448)",SYNTHES (501212191),"3.261,31 €",30-06-2014,11-12-2013,20 dias,"Portugal, Coimbra, Coimbra","Artigo 24.º, n.º 1, alínea e) do Código dos Contratos Públicos","","","","",,Não aplicável.,Não aplicável.,FALSE
5421004/2013 - RIGIFIX,Ajuste Direto Regime Geral,Aquisição de bens móveis,"33000000-0, Equipamento médico, medicamentos e produtos para cuidados pessoais","Centro Hospitalar e Universitário de Coimbra, E. P. E. (510103448)",JOHNSON (500153370),"520,20 €",30-06-2014,05-11-2013,10 dias,"Portugal, Coimbra, Coimbra","Artigo 24.º, n.º 1, alínea e) do Código dos Contratos Públicos","","","","",,Não aplicável.,Não aplicável.,FALSE
5421297/2013 - PLACA,Ajuste Direto Regime Geral,Aquisição de bens móveis,"33000000-0, Equipamento médico, medicamentos e produtos para cuidados pessoais","Centro Hospitalar e Universitário de Coimbra, E. P. E. (510103448)",SYNTHES (501212191),"2.049,30 €",30-06-2014,11-12-2013,10 dias,"Portugal, Coimbra, Coimbra","Artigo 24.º, n.º 1, alínea e) do Código dos Contratos Públicos","","","","",,Não aplicável.,Não aplicável.,FALSE
5421014/2013 - COLUNA,Ajuste Direto Regime Geral,Aquisição de bens móveis,"33000000-0, Equipamento médico, medicamentos e produtos para cuidados pessoais","Centro Hospitalar e Universitário de Coimbra, E. P. E. (510103448)",SYNTHES (501212191),"2.893,88 €",30-06-2014,05-11-2013,10 dias,"Portugal, Coimbra, Coimbra","Artigo 24.º, n.º 1, alínea e) do Código dos Contratos Públicos","","","","",,Não aplicável.,Não aplicável.,FALSE
5421293/2013 - PLACAS/CABOS,Ajuste Direto Regime Geral,Aquisição de bens móveis,"33000000-0, Equipamento médico, medicamentos e produtos para cuidados pessoais","Centro Hospitalar e Universitário de Coimbra, E. P. E. (510103448)",SMITH & NEPHEW (503552461),"1.343,00 €",30-06-2014,12-12-2013,2 dias,"Portugal, Coimbra, Coimbra","Artigo 24.º, n.º 1, alínea e) do Código dos Contratos Públicos","","","","",,Não aplicável.,Não aplicável.,FALSE
5421168/2013 - HALLO VEST,Ajuste Direto Regime Geral,Aquisição de bens móveis,"33000000-0, Equipamento médico, medicamentos e produtos para cuidados pessoais","Centro Hospitalar e Universitário de Coimbra, E. P. E. (510103448)",JOHNSON (500153370),"3.690,00 €",30-06-2014,03-12-2013,20 dias,"Portugal, Coimbra, Coimbra","Artigo 24.º, n.º 1, alínea e) do Código dos Contratos Públicos","","","","",,Não aplicável.,Não aplicável.,FALSE
5421412/2013 - VIPER,Ajuste Direto Regime Geral,Aquisição de bens móveis,"33000000-0, Equipamento médico, medicamentos e produtos para cuidados pessoais","Centro Hospitalar e Universitário de Coimbra, E. P. E. (510103448)",JOHNSON (500153370),"4.637,60 €",30-06-2014,22-01-2014,10 dias,"Portugal, Coimbra, Coimbra","Artigo 24.º, n.º 1, alínea e) do Código dos Contratos Públicos","","","","",,Não aplicável.,Não aplicável.,FALSE
5421304/2013 - osteossintese,Ajuste Direto Regime Geral,Aquisição de bens móveis,"33000000-0, Equipamento médico, medicamentos e produtos para cuidados pessoais","Centro Hospitalar e Universitário de Coimbra, E. P. E. (510103448)",synthes (501212191),"1.160,49 €",30-06-2014,12-12-2013,20 dias,"Portugal, Coimbra, Coimbra","Artigo 24.º, n.º 1, alínea e) do Código dos Contratos Públicos","","","","",,Não aplicável.,Não aplicável.,FALSE
Aquisição de 45 cadeiras e de 4 mesas de apoio,Ajuste Direto Regime Geral,Aquisição de bens móveis,"39000000-2, Mobiliário (incl. de escritório), acessórios, aparelhos domésticos (excl. iluminação) e produtos de limpeza","Centro Hospitalar e Universitário de Coimbra, E. P. E. (510103448)","Haworth Portugal - Mobiliário de Escritório, S.A. (500077622)","5.694,03 €",27-06-2014,27-06-2014,30 dias,"Portugal, Coimbra, Coimbra","Artigo 20.º, n.º 1, alínea a) do Código dos Contratos Públicos","","","","",,Não aplicável.,Não aplicável.,FALSE
Tesoura de Metzembaun,Ajuste Direto Regime Geral,Aquisição de bens móveis,"33000000-0, Equipamento médico, medicamentos e produtos para cuidados pessoais","Centro Hospitalar e Universitário de Coimbra, E. P. E. (510103448)","B. Braun Medical, Lda. (501506543)","103,09 €",26-06-2014,26-06-2014,5 dias,"Portugal, Coimbra, Coimbra","Artigo 20.º, n.º 1, alínea a) do Código dos Contratos Públicos","","","","",,Não aplicável.,Não aplicável.,FALSE
Pinça de Histeroscopia e Tesoura de Histeroscopia,Ajuste Direto Regime Geral,Aquisição de bens móveis,"33000000-0, Equipamento médico, medicamentos e produtos para cuidados pessoais","Centro Hospitalar e Universitário de Coimbra, E. P. E. (510103448)","Teprel Equipamentos Médicos, S.A. (502262184)","1.097,00 €",26-06-2014,26-06-2014,30 dias,"Portugal, Coimbra, Coimbra","Artigo 20.º, n.º 1, alínea a) do Código dos Contratos Públicos","","","","",,Não aplicável.,Não aplicável.,FALSE
5410160/2013 - ACTIVADOR OLYMPUS MOD . 420004 ENDOACT 4 L BIDON,Ajuste Direto Regime Geral,Aquisição de bens móveis,"33698000-9, Produtos para fins clínicos","Centro Hospitalar e Universitário de Coimbra, E. P. E. (510103448)","OLYMPUS IBERIA, S.A.U. (980474710)","7.298,08 €",26-06-2014,26-01-2013,365 dias,"Portugal, Coimbra, Coimbra","Artigo 26.º, n.º 1, alínea a) do Código dos Contratos Públicos",31-12-2013,"9.909,04 €",Aumento das quantidades necessárias,Devido ao acréscimo elevado do número de doentes,,Não aplicável.,Não aplicável.,FALSE
5410161/2013 - DETERGENTE OLYMPUS MOD. 420001 ENDODET 4 L BIDON,Ajuste Direto Regime Geral,Aquisição de bens móveis,"33698000-9, Produtos para fins clínicos","Centro Hospitalar e Universitário de Coimbra, E. P. E. (510103448)","OLYMPUS IBERIA, S.A.U. (980474710)","5.335,97 €",26-06-2014,26-01-2013,365 dias,"Portugal, Coimbra, Coimbra","Artigo 26.º, n.º 1, alínea a) do Código dos Contratos Públicos",31-12-2013,"10.004,94 €",Necessidade de aumento de quantidades,Devido ao acréscimo elevado do número de doentes,,Não aplicável.,Não aplicável.,FALSE
5410163/2013 - PROPOFOL 10 MG/ML EMUL INJ SER 50 ML IV,Ajuste Direto Regime Geral,Aquisição de bens móveis,"33698000-9, Produtos para fins clínicos","Centro Hospitalar e Universitário de Coimbra, E.P.E. (510103448)","ASTRAZENECA PRODUTOS FARMACÊUTICOS, LDA (502942240)","8.433,18 €",26-06-2014,26-01-2013,365 dias,"Portugal, Coimbra, Coimbra","Artigo 24.º, n.º 1, alínea e) do Código dos Contratos Públicos",31-12-2013,"8.433,18 €","","",,Não aplicável.,Não aplicável.,FALSE
5410169/2013 - Espironolactona 25 mg comp,Ajuste Direto Regime Geral,Aquisição de bens móveis,"33698000-9, Produtos para fins clínicos","Centro Hospitalar e Universitário de Coimbra, E. P. E. (510103448)","ALTER, SA - LABORATORIOS (500017387)","942,30 €",26-06-2014,14-01-2013,365 dias,"Portugal, Coimbra, Coimbra","Artigo 24.º, n.º 1, alínea e) do Código dos Contratos Públicos",31-12-2013,"942,30 €","","",,Não aplicável.,Não aplicável.,FALSE
5410170/2013 - NETILMICINA 150 MG/1.5 ML SOL INJ FR 1.5 ML IM IV,Ajuste Direto Regime Geral,Aquisição de bens móveis,"33698000-9, Produtos para fins clínicos","Centro Hospitalar e Universitário de Coimbra, E.P.E. (510103448)","LABORATORIOS ATRAL, SA (500162085)","51.779,00 €",26-06-2014,19-02-2013,365 dias,"Portugal, Coimbra, Coimbra","Artigo 20.º, n.º 1, alínea a) do Código dos Contratos Públicos",31-12-2013,"51.779,00 €","","",,Não aplicável.,Não aplicável.,FALSE
"Fornecimento e montagem de bancadas, baías de  lavagem, prateleiras em sala de despejo de internamento  de cirurgia vascular (441)",Ajuste Direto Regime Geral,Aquisição de bens móveis,"39000000-2, Mobiliário (incl. de escritório), acessórios, aparelhos domésticos (excl. iluminação) e produtos de limpeza","Centro Hospitalar e Universitário de Coimbra, E. P. E. (510103448)",SEIXAS E SIMOES (503620106),"6.310,72 €",25-06-2014,25-06-2014,30 dias,"Portugal, Coimbra, Coimbra","Artigo 20.º, n.º 1, alínea a) do Código dos Contratos Públicos","","","","",,Não aplicável.,Não aplicável.,FALSE
Fornecimento e montagem de módulos de armarios para sala de pausa de internamento para o serviço de Cirurgia Vascular (441),Ajuste Direto Regime Geral,Aquisição de bens móveis,"39000000-2, Mobiliário (incl. de escritório), acessórios, aparelhos domésticos (excl. iluminação) e produtos de limpeza","Centro Hospitalar e Universitário de Coimbra, E. P. E. (510103448)","SEIXAS E SIMOES, LDA (503620106)","1.484,05 €",25-06-2014,25-06-2014,30 dias,"Portugal, Coimbra, Coimbra","Artigo 20.º, n.º 1, alínea a) do Código dos Contratos Públicos","","","","",,Não aplicável.,Não aplicável.,FALSE
Fornecimento e montagem de bancadas de trabalho e armário para sala terapêutica para o serviço de Cirurgia Vascular (441),Ajuste Direto Regime Geral,Aquisição de bens móveis,"39000000-2, Mobiliário (incl. de escritório), acessórios, aparelhos domésticos (excl. iluminação) e produtos de limpeza","Centro Hospitalar e Universitário de Coimbra, E. P. E. (510103448)","Seixas e Simoes, Lda (503620106)","2.912,34 €",25-06-2014,25-06-2014,30 dias,"Portugal, Coimbra, Coimbra","Artigo 20.º, n.º 1, alínea a) do Código dos Contratos Públicos","","","","",,Não aplicável.,Não aplicável.,FALSE
Aquisição de 1 frigorifico para armazenar produtos médicos para a UCA,Ajuste Direto Regime Geral,Aquisição de bens móveis,"34000000-7, Equipamento e produtos auxiliares de transporte","Centro Hospitalar e Universitário de Coimbra, E. P. E. (510103448)","Norconcessus, Lda (504907808)","569,80 €",25-06-2014,25-06-2014,30 dias,"Portugal, Coimbra, Coimbra","Artigo 20.º, n.º 1, alínea a) do Código dos Contratos Públicos","","","","",,Não aplicável.,Não aplicável.,FALSE
Aquisição de 2 macas hidraulicas para a UCA,Ajuste Direto Regime Geral,Aquisição de bens móveis,"39000000-2, Mobiliário (incl. de escritório), acessórios, aparelhos domésticos (excl. iluminação) e produtos de limpeza","Centro Hospitalar e Universitário de Coimbra, E. P. E. (510103448)","Neurowave, lda (508537150)","3.431,00 €",24-06-2014,24-06-2014,30 dias,"Portugal, Coimbra, Coimbra","Artigo 20.º, n.º 1, alínea a) do Código dos Contratos Públicos","","","","",,Não aplicável.,Não aplicável.,FALSE
AQUISIÇÃO DE UMA MÁQUINA DE FABRICAR GELO,Ajuste Direto Regime Geral,Aquisição de bens móveis,"31000000-6, Maquinaria, aparelhagem, equipamento e consumíveis eléctricos; iluminação","Centro Hospitalar e Universitário de Coimbra, E. P. E. (510103448)","AZENHA E IRMÃO, LDA (501531084)","685,00 €",23-06-2014,23-06-2014,5 dias,"Portugal, Coimbra, Coimbra","Artigo 20.º, n.º 1, alínea a) do Código dos Contratos Públicos","","","","",,Não aplicável.,Não aplicável.,FALSE
Aquisição de uma Marquesa Ginecológica Electrica com Perneiras- Ginecologia A- Urgência (450),Ajuste Direto Regime Geral,Aquisição de bens móveis,"34000000-7, Equipamento e produtos auxiliares de transporte","Centro Hospitalar e Universitário de Coimbra, E. P. E. (510103448)","MAQUET PORTUGAL- COMERCIO DE EQUIPAMENTOS HOSPITALARES, UNIPESSOAL, LDA  (506819698)","7.000,00 €",23-06-2014,23-06-2014,30 dias,"Portugal, Coimbra, Coimbra","Artigo 20.º, n.º 1, alínea a) do Código dos Contratos Públicos","","","","",,Não aplicável.,Não aplicável.,FALSE
Aquisição de reagentes para bioquimica (h. geral e h. pediátrico),Ajuste Direto Regime Geral,Aquisição de bens móveis,"33696500-0, Reagentes de laboratório","Centro Hospitalar e Universitário de Coimbra, E. P. E. (510103448)","Siemens Healthcare Diagnostics, Unipessoal, Lda  (507925173)","2.922,48 €",23-06-2014,12-02-2014,365 dias,"Portugal, Coimbra, Coimbra","Artigo 26.º, n.º 1, alínea a) do Código dos Contratos Públicos",31-12-2014,"2.922,48 €","","",,Não aplicável.,Não aplicável.,FALSE
