Objeto do Contrato,Tipo de Procedimento,Tipo(s) de Contrato,CPVs,Entidade(s) Adjudicante(s),Entidade(s) Adjudicatária(s),Preço Contratual,Data de Publicação,Data de Celebração do Contrato,Prazo de Execução,Local de Execução,Fundamentação,Data de Fecho do Contrato,Preço Total Efetivo,Causas das Alterações ao Prazo,Causas das Alterações ao Preço,Estado,N.º registo do Acordo Quadro,Descrição do Acordo Quadro,Procedimento Centralizado
Aquisição 200 unidades de disco registador de temperatura,Ajuste Direto Regime Geral,Aquisição de bens móveis,"30192000-1, Material de escritório","Administração Regional de Saúde do Norte, I. P. (503135593)","frilabo, Lda (507958861)","432,00 €",11-04-2014,09-04-2014,365 dias,"Portugal, Vila Real, Vila Real","Artigo 20.º, n.º 1, alínea a) do Código dos Contratos Públicos",17-09-2014,"432,00 €",,"",,Não aplicável.,Não aplicável.,FALSE
"Aquisição de 1.500 unidades de Deterg lavag, desinf superf  e DM não emergíveis 750 ml",Ajuste Direto Regime Geral,Aquisição de bens móveis,"33140000-3, Material médico de consumo","Administração Regional de Saúde do Norte, I. P. (503135593)",AIR LIQUIDE MEDICINAL S.A. (501576436),"5.850,00 €",11-04-2014,10-04-2014,365 dias,"Portugal, Vila Real, Vila Real","Artigo 20.º, n.º 1, alínea a) do Código dos Contratos Públicos",29-10-2014,"5.850,00 €",,"",,Não aplicável.,Não aplicável.,FALSE
Aquisição 300 Pinça dissecção (standard) 15/16 cm - 300 Pinça hemostática Pean recta 14/16 cm - 100 Porta agulhas Mayo Hegar 15/16 cm - 200 Tesoura bicos finos curva 15/16 cm - 200 Tesoura bicos finos curva 15/16 cm - 100 Tesoura bicos rombos curva 15/16 cm - 5 Pinça Magill Adulto,Ajuste Direto Regime Geral,Aquisição de bens móveis,"33140000-3, Material médico de consumo","Administração Regional de Saúde do Norte, I. P. (503135593)",EZEQUIEL PANAO JORGE LDA     (501412727),"1.672,25 €",10-04-2014,09-04-2014,365 dias,"Portugal, Vila Real, Vila Real","Artigo 20.º, n.º 1, alínea a) do Código dos Contratos Públicos",17-06-2014,"1.672,25 €",,"",,Não aplicável.,Não aplicável.,FALSE
2.944  Pinça para tirar agrafes - 300 Tesoura Mezenbaum fino curva (para DIU) 20/23 cm,Ajuste Direto Regime Geral,Aquisição de bens móveis,"33140000-3, Material médico de consumo","Administração Regional de Saúde do Norte, I. P. (503135593)",BASTOS VIEGAS S A - BESLEASING E FACTORING     (500042772),"5.913,80 €",10-04-2014,09-04-2014,365 dias,"Portugal, Vila Real, Vila Real","Artigo 20.º, n.º 1, alínea a) do Código dos Contratos Públicos",10-12-2014,"5.913,80 €",,"",,Não aplicável.,Não aplicável.,FALSE
300 Ampolas 10 mg/ml Sol inj Fr 100 ml IV,Ajuste Direto Regime Geral,Aquisição de bens móveis,"33600000-6, Produtos farmacêuticos","Administração Regional de Saúde do Norte, I. P. (503135593)",B. Braun Medical (501506543),"170,97 €",10-04-2014,07-04-2014,365 dias,"Portugal, Vila Real, Vila Real",Artigo 258.º do Código dos Contratos Públicos,05-11-2014,"170,97 €",,"",,1197923,300 Ampolas 10 mg/ml Sol inj Fr 100 ml IV,FALSE
"Aquisição de 20 litros Àcido Peracético 0,35%",Ajuste Direto Regime Geral,Aquisição de bens móveis,"33600000-6, Produtos farmacêuticos","Administração Regional de Saúde do Norte, I. P. (503135593)","Franklab Portugal, Lda     (506058654)","124,00 €",10-04-2014,02-04-2014,365 dias,"Portugal, Vila Real, Vila Real","Artigo 24.º, n.º 1, alínea e) do Código dos Contratos Públicos",03-03-2014,"124,00 €",,"",,Não aplicável.,Não aplicável.,FALSE
Aquisição de 26.000 ampolas de hidrocortisona 100 mg Pó sol. inj. 2ml,Ao abrigo de acordo-quadro (art.º 258.º),Aquisição de bens móveis,"33600000-6, Produtos farmacêuticos","Administração Regional de Saúde do Norte, I. P. (503135593)","Generis Farmacêutica, S.A. (508107997)","17.420,00 €",09-04-2014,25-02-2014,335 dias,"Portugal, Distrito não determinado, Concelho não determinado<BR/>Portugal, Porto, Maia<BR/>Portugal, Vila Real, Vila Real",Artigo 258.º do Código dos Contratos Públicos,12-08-2014,"17.420,00 €",,"",,370804,CONCURSO PÚBLICO PARA A CELEBRAÇÃO DE CONTRATOS PÚBLICOS DE APROVISIONAMENTO PARA AQUISIÇÃO HORMONAS E OUTROS MEDICAMENTOS USADOS NO TRATAMENTO DAS DOENÇAS ENDÓCRINAS,FALSE
40 Sacos Domicilio Enfermgem grande - 30 Sacos Domicilio Enfermagem médio,Ajuste Direto Regime Geral,Aquisição de bens móveis,"33140000-3, Material médico de consumo","Administração Regional de Saúde do Norte, I. P. (503135593)",BASTOS VIEGAS S A - BESLEASING E FACTORING        (500042772),"4.407,00 €",09-04-2014,03-04-2014,365 dias,"Portugal, Vila Real, Vila Real","Artigo 20.º, n.º 1, alínea a) do Código dos Contratos Públicos",18-11-2014,"4.407,00 €",,"",,Não aplicável.,Não aplicável.,FALSE
Aquisição de 10 unidades de Válvula Inspiratória Ventilador Oxylog 1000,Ajuste Direto Regime Geral,Aquisição de bens móveis,"33140000-3, Material médico de consumo","Administração Regional de Saúde do Norte, I. P. (503135593)",INTERSURGICAL - PORTUGA (503480045),"75,00 €",09-04-2014,09-04-2014,365 dias,"Portugal, Vila Real, Vila Real","Artigo 20.º, n.º 1, alínea a) do Código dos Contratos Públicos",23-04-2014,"75,00 €",,"",,Não aplicável.,Não aplicável.,FALSE
"Aquisição de 20 unidades de Máscara Insuflador Manual nº. 00, 20 unidades de Máscara Insuflador Manual nº. 0, 20 unidades de Máscara Insuflador Manual nº. 1, 20 unidades de Tubo orofaringeo (Guedel) nº 1, 20 unidades de Tubo orofaringeo (Guedel) nº 0, 20 unidades de Tubo orofaringeo (Guedel) nº 00, 20 unidades de Tubo orofaringeo (Guedel) nº 000, 20 unidades de Traqueia Ventilador, 20 unidades de Swivel c/traqueia Adulto e 20 unidades de Swivel c/filtro Pediátrico",Ajuste Direto Regime Geral,Aquisição de bens móveis,"33140000-3, Material médico de consumo","Administração Regional de Saúde do Norte, I. P. (503135593)",INTERSURGICAL - PORTUGA (503480045),"159,40 €",09-04-2014,09-04-2014,365 dias,"Portugal, Vila Real, Vila Real","Artigo 20.º, n.º 1, alínea a) do Código dos Contratos Públicos",23-04-2014,"159,40 €",,"",,Não aplicável.,Não aplicável.,FALSE
Aquisição de 700 000 unidades de envelopes D/L (220mmx110mm) economato geral c/janela  Aquisição de 90 000 unidades de envelopes D/L (220mmx110mm) economato geral s/janela,Ajuste Direto Regime Geral,Aquisição de bens móveis,"22100000-1, Livros, brochuras e folhetos impressos","Administração Regional de Saúde do Norte, I. P. (503135593)",Águia de Penafiel (504510274),"36.915,00 €",09-04-2014,15-01-2014,365 dias,"Portugal, Vila Real, Vila Real","Artigo 20.º, n.º 1, alínea a) do Código dos Contratos Públicos",13-11-2014,"36.915,00 €",,"",,Não aplicável.,Não aplicável.,FALSE
"Aquisição de 20 unidades de tubo endotraqueal com cuff nº 3,5  Aquisição de 20 unidades de tubo endotraqueal com cuff nº 4,5  Aquisição de 40 tubos nasofaringeo nº 6  Aquisição de 40 unidades de tubos nasofaringeo nº 7",Ajuste Direto Regime Geral,Aquisição de bens móveis,"33140000-3, Material médico de consumo","Administração Regional de Saúde do Norte, I. P. (503135593)",HR Produtos Quimicos (501895558),"96,00 €",09-04-2014,21-03-2014,365 dias,"Portugal, Vila Real, Vila Real","Artigo 20.º, n.º 1, alínea a) do Código dos Contratos Públicos",04-04-2014,"96,00 €",,"",,Não aplicável.,Não aplicável.,FALSE
Aquisição de 40 unidades de Tubo endotraqueal com cuff nº 3  Aquisição de 30 unidades de tubo endotraqueal com cuff nº 4  Aquisição de guia pediátrico,Ajuste Direto Regime Geral,Aquisição de bens móveis,"33140000-3, Material médico de consumo","Administração Regional de Saúde do Norte, I. P. (503135593)",Covidien Portugal (503413410),"93,00 €",09-04-2014,21-03-2014,365 dias,"Portugal, Vila Real, Vila Real","Artigo 20.º, n.º 1, alínea a) do Código dos Contratos Públicos","","",,"",,Não aplicável.,Não aplicável.,FALSE
Aquisição de medicamentos usados em afecções cutâneas (16.000 bisnagas de ácido fusídico 20mg/g Pom 15g),Ao abrigo de acordo-quadro (art.º 258.º),Aquisição de bens móveis,"33600000-6, Produtos farmacêuticos","Administração Regional de Saúde do Norte, I. P. (503135593)","Laboratórios Medinfar, S.A. (500384045)","32.000,00 €",08-04-2014,18-03-2014,282 dias,"Portugal, Vila Real, Vila Real<BR/>Portugal, Porto, Maia<BR/>Portugal, Distrito não determinado, Concelho não determinado",Artigo 258.º do Código dos Contratos Públicos,12-09-2014,"32.000,00 €",,"",,602875,"CONCURSO PÚBLICO PARA A CELEBRAÇÃO DE CONTRATOS PÚBLICOS DE APROVISIONAMENTO PARA A ÁREA DA SAÚDE, COM VISTA AO FORNECIMENTO DE MEDICAMENTOS DE CONSUMO GERAL - USADOS NAS AFECÇÕES CUTÂNEAS, ÀS INSTITUIÇÕES E SERVIÇOS DO SERVIÇO NACIONAL DE SAÚDE",FALSE
Aquisição de medicamentos anti-infecciosos (9000 unidades de Etionamida 250mg comp.),Ajuste Direto Regime Geral,Aquisição de bens móveis,"33600000-6, Produtos farmacêuticos","Administração Regional de Saúde do Norte, I. P. (503135593)",IDIS WORLD MEDICINES (700513982),"50.832,00 €",08-04-2014,03-03-2014,327 dias,"Portugal, Vila Real, Vila Real<BR/>Portugal, Distrito não determinado, Concelho não determinado<BR/>Portugal, Porto, Maia","Artigo 20.º, n.º 1, alínea a) do Código dos Contratos Públicos",25-06-2014,"50.832,00 €",,"",,Não aplicável.,Não aplicável.,FALSE
Aquisição  de 200 sacos de recolha de vómito,Ajuste Direto Regime Geral,Aquisição de bens móveis,"34741600-9, Sacos de enjoo","Administração Regional de Saúde do Norte, I. P. (503135593)","Paul Hartman, Lda (502271728)","36,00 €",08-04-2014,02-04-2014,365 dias,"Portugal, Vila Real, Vila Real","Artigo 20.º, n.º 1, alínea a) do Código dos Contratos Públicos",04-04-2014,"36,00 €",,"",,Não aplicável.,Não aplicável.,FALSE
Aquisição de 20 sacos de cadáver,Ajuste Direto Regime Geral,Aquisição de bens móveis,"33922000-9, Sacos para transporte de cadáveres","Administração Regional de Saúde do Norte, I. P. (503135593)","Bastos Viegas, S.A. (500042772)","55,60 €",08-04-2014,02-04-2014,365 dias,"Portugal, Vila Real, Vila Real","Artigo 20.º, n.º 1, alínea a) do Código dos Contratos Públicos",28-04-2014,"55,60 €",,"",,Não aplicável.,Não aplicável.,FALSE
Aquisição de 6.000 unidades de contentor p7recolha de agulhas 500cc,Ao abrigo de acordo-quadro (art.º 259.º),Aquisição de bens móveis,"33140000-3, Material médico de consumo","Administração Regional de Saúde do Norte, I. P. (503135593)","Overpharma, lda (505792362)","3.060,00 €",07-04-2014,10-03-2014,290 dias,"Portugal, Vila Real, Vila Real<BR/>Portugal, Distrito não determinado, Concelho não determinado<BR/>Portugal, Porto, Maia",Artigo 259.º do Código dos Contratos Públicos,19-03-2014,"3.060,00 €",,"",,448705,"CONCURSO PÚBLICO PARA A CELEBRAÇÃO DE CONTRATOS PÚBLICOS DE APROVISIONAMENTO PARA A ÁREA DA SAÚDE, COM VISTA AO FORNECIMENTO DE SERINGAS, AGULHAS, CONTENTORES E SISTEMAS FECHADOS DE COLHEITA,  ÀS INSTITUIÇÕES E SERVIÇOS DO SERVIÇO NACIONAL DE SAÚDE",FALSE
Aquisição de 6.000 unidades de contentor p/recolha de agulhas 1500/2000cc,Ao abrigo de acordo-quadro (art.º 259.º),Aquisição de bens móveis,"33140000-3, Material médico de consumo","Administração Regional de Saúde do Norte, I. P. (503135593)","Overpharma Produtos Medicos Farmac. , lda (505792362)","5.040,00 €",07-04-2014,10-03-2014,290 dias,"Portugal, Vila Real, Vila Real<BR/>Portugal, Distrito não determinado, Concelho não determinado<BR/>Portugal, Porto, Maia",Artigo 259.º do Código dos Contratos Públicos,24-11-2014,"5.040,00 €",,"",,448705,"CONCURSO PÚBLICO PARA A CELEBRAÇÃO DE CONTRATOS PÚBLICOS DE APROVISIONAMENTO PARA A ÁREA DA SAÚDE, COM VISTA AO FORNECIMENTO DE SERINGAS, AGULHAS, CONTENTORES E SISTEMAS FECHADOS DE COLHEITA,  ÀS INSTITUIÇÕES E SERVIÇOS DO SERVIÇO NACIONAL DE SAÚDE",FALSE
Aquisição de 8.000 unidades de contentor p/recolha de agulhas 4500/5000cc,Ao abrigo de acordo-quadro (art.º 259.º),Aquisição de bens móveis,"33140000-3, Material médico de consumo","Administração Regional de Saúde do Norte, I. P. (503135593)","Normax - Fábrica de vidros cientificos, lda (500203130)","11.040,00 €",07-04-2014,10-03-2014,290 dias,"Portugal, Vila Real, Vila Real<BR/>Portugal, Distrito não determinado, Concelho não determinado<BR/>Portugal, Porto, Maia",Artigo 259.º do Código dos Contratos Públicos,21-11-2014,"11.040,00 €",,"",,448705,"CONCURSO PÚBLICO PARA A CELEBRAÇÃO DE CONTRATOS PÚBLICOS DE APROVISIONAMENTO PARA A ÁREA DA SAÚDE, COM VISTA AO FORNECIMENTO DE SERINGAS, AGULHAS, CONTENTORES E SISTEMAS FECHADOS DE COLHEITA,  ÀS INSTITUIÇÕES E SERVIÇOS DO SERVIÇO NACIONAL DE SAÚDE",FALSE
"Aquisição de 3.500 unidades de sistema fechado colheita aspiração plasma 4/4,5ml",Ao abrigo de acordo-quadro (art.º 259.º),Aquisição de bens móveis,"33140000-3, Material médico de consumo","Administração Regional de Saúde do Norte, I. P. (503135593)","Sarsted, lda (503019461)","413,00 €",07-04-2014,10-03-2014,290 dias,"Portugal, Vila Real, Vila Real<BR/>Portugal, Distrito não determinado, Concelho não determinado<BR/>Portugal, Porto, Maia",Artigo 259.º do Código dos Contratos Públicos,10-11-2014,"413,00 €",,"",,448705,"CONCURSO PÚBLICO PARA A CELEBRAÇÃO DE CONTRATOS PÚBLICOS DE APROVISIONAMENTO PARA A ÁREA DA SAÚDE, COM VISTA AO FORNECIMENTO DE SERINGAS, AGULHAS, CONTENTORES E SISTEMAS FECHADOS DE COLHEITA,  ÀS INSTITUIÇÕES E SERVIÇOS DO SERVIÇO NACIONAL DE SAÚDE",FALSE
Aquisição de 600 unidades de agulhas com aleta nº23,Ao abrigo de acordo-quadro (art.º 259.º),Aquisição de bens móveis,"33140000-3, Material médico de consumo","Administração Regional de Saúde do Norte, I. P. (503135593)","Pergut - Heller Factoring Portuguesa, S.A. (501799729)","29,82 €",07-04-2014,10-03-2014,290 dias,"Portugal, Distrito não determinado, Concelho não determinado<BR/>Portugal, Porto, Maia<BR/>Portugal, Vila Real, Vila Real",Artigo 259.º do Código dos Contratos Públicos,27-11-2014,"29,82 €",,"",,448705,"CONCURSO PÚBLICO PARA A CELEBRAÇÃO DE CONTRATOS PÚBLICOS DE APROVISIONAMENTO PARA A ÁREA DA SAÚDE, COM VISTA AO FORNECIMENTO DE SERINGAS, AGULHAS, CONTENTORES E SISTEMAS FECHADOS DE COLHEITA,  ÀS INSTITUIÇÕES E SERVIÇOS DO SERVIÇO NACIONAL DE SAÚDE",FALSE
50 Kg de SACO PLASTICO TRANSPARENTE 18x10CM - 12.000 Rolos SACOS LIXO PRETO 30 LITROS 52x60,Ajuste Direto Regime Geral,Aquisição de bens móveis,"19640000-4, Sacos de polietileno para recolha de lixo e resíduos","Administração Regional de Saúde Norte, I.P. (503135593)","A. J. OLIVEIRA, LDA             (502293748)","3.822,50 €",07-04-2014,03-02-2014,365 dias,"Portugal, Vila Real, Vila Real","Artigo 20.º, n.º 1, alínea a) do Código dos Contratos Públicos",18-06-2014,"3.822,50 €",,"",,Não aplicável.,Não aplicável.,FALSE
Aquisição de 500 unidades agulhas com aleta nº21,Ao abrigo de acordo-quadro (art.º 259.º),Aquisição de bens móveis,"33140000-3, Material médico de consumo","Administração Regional de Saúde do Norte, I. P. (503135593)","Pergut - Heller Factoring Portuguesa, S.A. (501799729)","24,85 €",07-04-2014,10-03-2014,290 dias,"Portugal, Porto, Maia<BR/>Portugal, Vila Real, Vila Real<BR/>Portugal, Distrito não determinado, Concelho não determinado",Artigo 259.º do Código dos Contratos Públicos,31-12-2014,"24,85 €",,"",,448705,"CONCURSO PÚBLICO PARA A CELEBRAÇÃO DE CONTRATOS PÚBLICOS DE APROVISIONAMENTO PARA A ÁREA DA SAÚDE, COM VISTA AO FORNECIMENTO DE SERINGAS, AGULHAS, CONTENTORES E SISTEMAS FECHADOS DE COLHEITA,  ÀS INSTITUIÇÕES E SERVIÇOS DO SERVIÇO NACIONAL DE SAÚDE",FALSE
Aquis~ição  700 Embalagens SACO P/LIXO 50X70 CM - 6.000 Rolos SACOS LIXO GRANDE 100 LITROS 76x95,Ajuste Direto Regime Geral,Aquisição de bens móveis,"19640000-4, Sacos de polietileno para recolha de lixo e resíduos","Administração Regional de Saúde do Norte, I.P. (503135593)",CLAUDINO OLIVEIRA GONCALVES SUCRS-EMBALAGENS E PLÁSTICO  (504663968),"9.890,00 €",07-04-2014,13-02-2014,365 dias,"Portugal, Vila Real, Vila Real","Artigo 20.º, n.º 1, alínea a) do Código dos Contratos Públicos",19-11-2014,"9.890,00 €",,"",,Não aplicável.,Não aplicável.,FALSE
Aquisição de 200.000 Unidades Saco plástico para lixo contaminado 25x30cm,Ajuste Direto Regime Geral,Aquisição de bens móveis,"19640000-4, Sacos de polietileno para recolha de lixo e resíduos","Administração Regional de Saúde do Norte, I.P. (503135593)","PLASTICOLORS - Transf. Matérias Plásticas, Lda.     (504183346)","5.600,00 €",07-04-2014,07-02-2014,365 dias,"Portugal, Vila Real, Vila Real","Artigo 20.º, n.º 1, alínea a) do Código dos Contratos Públicos",10-06-2014,"5.600,00 €",,"",,Não aplicável.,Não aplicável.,FALSE
Aquisição 200 Kg SACO PLASTICO TRANSPARENTE 15X20CM - 9000  Rolos SACOS LIXO PRETO 50 LITROS 60x80,Ajuste Direto Regime Geral,Locação de bens móveis<br/>Aquisição de bens móveis,"19640000-4, Sacos de polietileno para recolha de lixo e resíduos","Administração Regional de Saúde do Norte, I. P. (503135593)",Plasticolors (504183346),"6.670,00 €",07-04-2014,07-02-2014,365 dias,"Portugal, Vila Real, Vila Real","Artigo 20.º, n.º 1, alínea a) do Código dos Contratos Públicos",05-11-2014,"6.670,00 €",,"",,Não aplicável.,Não aplicável.,FALSE
"Aquisição de 350.000 unidades de seringa irrecuperável, 2 peças (5ml)",Ao abrigo de acordo-quadro (art.º 259.º),Aquisição de bens móveis,"33140000-3, Material médico de consumo","Administração Regional de Saúde do Norte, I. P. (503135593)","B Braun Medical, lda (501506543)","6.300,00 €",07-04-2014,10-03-2014,290 dias,"Portugal, Distrito não determinado, Concelho não determinado<BR/>Portugal, Porto, Maia<BR/>Portugal, Vila Real, Vila Real",Artigo 259.º do Código dos Contratos Públicos,14-11-2014,"6.300,00 €",,"",,448705,"CONCURSO PÚBLICO PARA A CELEBRAÇÃO DE CONTRATOS PÚBLICOS DE APROVISIONAMENTO PARA A ÁREA DA SAÚDE, COM VISTA AO FORNECIMENTO DE SERINGAS, AGULHAS, CONTENTORES E SISTEMAS FECHADOS DE COLHEITA,  ÀS INSTITUIÇÕES E SERVIÇOS DO SERVIÇO NACIONAL DE SAÚDE",FALSE
"Aquisição de 15.000 unidades de Seringa Irrecuperável, 2 peças (20ml)",Ao abrigo de acordo-quadro (art.º 259.º),Aquisição de bens móveis,"33140000-3, Material médico de consumo","Administração Regional de Saúde do Norte, I. P. (503135593)","B Braun Medical, lda (501506543)","690,00 €",07-04-2014,10-03-2014,290 dias,"Portugal, Porto, Maia<BR/>Portugal, Distrito não determinado, Concelho não determinado<BR/>Portugal, Vila Real, Vila Real",Artigo 259.º do Código dos Contratos Públicos,27-11-2014,"690,00 €",,"",,448705,"CONCURSO PÚBLICO PARA A CELEBRAÇÃO DE CONTRATOS PÚBLICOS DE APROVISIONAMENTO PARA A ÁREA DA SAÚDE, COM VISTA AO FORNECIMENTO DE SERINGAS, AGULHAS, CONTENTORES E SISTEMAS FECHADOS DE COLHEITA,  ÀS INSTITUIÇÕES E SERVIÇOS DO SERVIÇO NACIONAL DE SAÚDE",FALSE
Aquisição de 45.000 unidades de Seringa Irrecuperável 2 peças (10ml),Ao abrigo de acordo-quadro (art.º 259.º),Aquisição de bens móveis,"33140000-3, Material médico de consumo","Administração Regional de Saúde do Norte, I. P. (503135593)","Pergut - Heller Factoring Portuguesa,s.a. (501799729)","1.327,50 €",07-04-2014,10-03-2014,290 dias,"Portugal, Distrito não determinado, Concelho não determinado<BR/>Portugal, Porto, Maia<BR/>Portugal, Vila Real, Vila Real",Artigo 259.º do Código dos Contratos Públicos,27-11-2014,"1.327,50 €",,"",,448705,"CONCURSO PÚBLICO PARA A CELEBRAÇÃO DE CONTRATOS PÚBLICOS DE APROVISIONAMENTO PARA A ÁREA DA SAÚDE, COM VISTA AO FORNECIMENTO DE SERINGAS, AGULHAS, CONTENTORES E SISTEMAS FECHADOS DE COLHEITA,  ÀS INSTITUIÇÕES E SERVIÇOS DO SERVIÇO NACIONAL DE SAÚDE",FALSE
Aquisição 1000 ml Glicerina - 100 ml Óleo de imersão - 2500 ml Xilol,Ajuste Direto Regime Geral,Aquisição de bens móveis,"33696500-0, Reagentes de laboratório","Administração Regional de Saúde do Norte, I. P. (503135593)","VWR - Internacional, Material Laboratório (503842770)","112,10 €",07-04-2014,06-03-2014,365 dias,"Portugal, Vila Real, Vila Real","Artigo 20.º, n.º 1, alínea a) do Código dos Contratos Públicos",19-04-2014,"112,10 €",,"",,Não aplicável.,Não aplicável.,FALSE
"Aquisição de 25.000 unidades de Seringa Irrecuperável , 2 peças 100ml",Ao abrigo de acordo-quadro (art.º 259.º),Aquisição de bens móveis,"33140000-3, Material médico de consumo","Administração Regional de Saúde do Norte, I. P. (503135593)","P M H Produtos Medico Hospitalares, S.A. (502376899)","11.647,50 €",07-04-2014,10-03-2014,290 dias,"Portugal, Porto, Maia<BR/>Portugal, Distrito não determinado, Concelho não determinado<BR/>Portugal, Vila Real, Vila Real",Artigo 259.º do Código dos Contratos Públicos,10-11-2014,"11.647,50 €",,"",,448705,"CONCURSO PÚBLICO PARA A CELEBRAÇÃO DE CONTRATOS PÚBLICOS DE APROVISIONAMENTO PARA A ÁREA DA SAÚDE, COM VISTA AO FORNECIMENTO DE SERINGAS, AGULHAS, CONTENTORES E SISTEMAS FECHADOS DE COLHEITA,  ÀS INSTITUIÇÕES E SERVIÇOS DO SERVIÇO NACIONAL DE SAÚDE",FALSE
"Auisição de 1000 ml Ácido Clorídrico Fumante 37% - 5000 ml metanol - 60 unidades Solução tampão pH 10 - 100 gr Cloridrato de 1,10-fenantrolina - 1000 ml Ácido Clorídrico 1 M (1N) - 500 ml Solução Padrão Cloreto 1000 mg/L - 500 ml Solução Padrão Nitrato 1000 mg/L - 30 unidades Solução Tampão pH 4 (calibração) - 60 unidades Solução Tampão pH 9 - 250 gr Cloridrato de hidroxilamina - 10.000ml Ácido Clorídrico 25% - 2500 ml Ácido Nítrico 65% - 500 ml Solução Padrão Amónia 1000 ppm - 500 ml Solução Padrão Nitrito 1000 ppm - 1000 ml Glicerol- 1500gr Meio de cultura Fluorocult- 1 unidade Peróxido de Hidrogénio 30%- 3000ml Solução tampão pH 4,66 (20ºC) (Ácido acético/Acetato sódio) - 100 ml Solução padrão de alumínio 1000mg/L (calibração) - 1 ampola Solução padrão de alumínio 1000 mg/L (controlo) -100 ml Solução padrão de manganês 1000 mg/L (calibração) - 1 ampola Solução padrão de manganês 1000 mg/L (controlo) - 1 ampola Solução padrão de amónia 1000 ppm (controlo) - 500 ml Solução padrão fluoreto 1000 mg/L (calibração) -1 ampola Solução padrão fluoreto 1000 mg/L (controlo) - 30 Unidades Solução tampão pH 7 (calibração) 500 ml Solução padrão sódio 1000 mg/L (calibração) - 1 ampola Solução padrão sódio 1000 mg/mL (controlo) - 1 ampola Solução padrão cloreto 1000 mg/L (controlo) - 7500 ml etanol absoluto p. a. - taxa para DIC - taxa para ISA              ",Ajuste Direto Regime Geral,Aquisição de bens móveis,"33696500-0, Reagentes de laboratório","Administração Regional de Saúde do Norte, I. P. (503135593)","VWR - Internacional, Material Laboratório (503842770)","1.645,45 €",07-04-2014,06-03-2014,365 dias,"Portugal, Vila Real, Vila Real","Artigo 20.º, n.º 1, alínea a) do Código dos Contratos Públicos",04-12-2014,"1.645,45 €",,"",,Não aplicável.,Não aplicável.,FALSE
Aquisição de 40 unidades de agulha intra óssea adulto  Aquisição de 40 unidades de agulha intra óssea criança,Ajuste Direto Regime Geral,Aquisição de bens móveis,"33140000-3, Material médico de consumo","Administração Regional de Saúde do Norte, I. P. (503135593)",Remeditec - Grupo Iberdata (505086344),"4.990,40 €",07-04-2014,24-03-2014,365 dias,"Portugal, Vila Real, Vila Real","Artigo 20.º, n.º 1, alínea a) do Código dos Contratos Públicos",04-12-2014,"4.990,40 €",,"",,Não aplicável.,Não aplicável.,FALSE
Aquisição de 3 500 tubos de citrato sódico 450 mg/5ml + laurilsulfiac sód. 45mg/5ml  Aquisição de 4 000 carteiras de sucrafalto 200mg/ml susp oral 5 ml,Ajuste Direto Regime Geral,Aquisição de bens móveis,"33600000-6, Produtos farmacêuticos","Administração Regional de Saúde do Norte, I. P. (503135593)","Overpharma, Lda (505792362)","2.342,85 €",07-04-2014,24-03-2014,365 dias,"Portugal, Vila Real, Vila Real",Artigo 258.º do Código dos Contratos Públicos,26-06-2014,"2.342,85 €",,"",,1195295,Aquisição de 3 500 tubos de citrato sódico 450 mg/5ml + laurilsulfiac sód. 45mg/5ml  Aquisição de 4 000 carteiras de sucrafalto 200mg/ml susp oral 5 ml,FALSE
Aquisição de 2 000 ampolas de bitilescopolamina 20mg/ml,Ajuste Direto Regime Geral,Aquisição de bens móveis,"33600000-6, Produtos farmacêuticos","Administração Regional de Saúde do Norte, I. P. (503135593)",Unilfarma (500293023),"399,00 €",07-04-2014,24-03-2014,365 dias,"Portugal, Vila Real, Vila Real",Artigo 258.º do Código dos Contratos Públicos,12-05-2014,"399,00 €",,"",,1195281,Aquisição de 2 000 ampolas de butilescopolamina 20 mg/ml,FALSE
Aquisição de 50 000 unidades de flureto de sódio 2mg/ml sol bucal fr 100 ml,Ajuste Direto Regime Geral,Aquisição de bens móveis,"33600000-6, Produtos farmacêuticos","Administração Regional de Saúde do Norte, I. P. (503135593)","Labesfal - Laboratórios Almiro, Sa (501169580)","97.495,00 €",07-04-2014,24-03-2014,365 dias,"Portugal, Vila Real, Vila Real",Artigo 258.º do Código dos Contratos Públicos,28-11-2014,"97.495,00 €",,"",,1195267,Aquisição de 50 000 unidades de flureto de sódio 2mg/ml sol bucal fr 100 ml,FALSE
Aquisição de 650 tubos de lidocaina 100 mg/ml,Ajuste Direto Regime Geral,Aquisição de bens móveis,"33600000-6, Produtos farmacêuticos","Administração Regional de Saúde do Norte, I. P. (503135593)",Sidefarma (500717419),"3.282,50 €",07-04-2014,24-03-2014,365 dias,"Portugal, Vila Real, Vila Real",Artigo 258.º do Código dos Contratos Públicos,11-11-2014,"3.282,50 €",,"",,1195256,Aquisição de 650 tubos de lidocaina 100 mg/ml,FALSE
Aquisição de 250 Frascos de carvão ativado 50g pó p/susp oral,Ajuste Direto Regime Geral,Aquisição de bens móveis,"33600000-6, Produtos farmacêuticos","Administração Regional de Saúde do Norte, I. P. (503135593)","Laboratórios Medinfar, Sa (500384045)","3.373,75 €",07-04-2014,24-03-2014,365 dias,"Portugal, Vila Real, Vila Real",Artigo 258.º do Código dos Contratos Públicos,29-10-2014,"3.373,75 €",,"",,1195242,Aquisição de 250 frascos de carvão ativado 50g pó p/suspensão oral,FALSE
Aquisição de 15 000 Ampolas de lidocaina 20 mg/ml,Ajuste Direto Regime Geral,Aquisição de bens móveis,"33600000-6, Produtos farmacêuticos","Administração Regional de Saúde do Norte, I. P. (503135593)","Labesfal - laboratórios Almiro, SA (501169580)","10.935,00 €",07-04-2014,17-03-2014,365 dias,"Portugal, Vila Real, Vila Real",Artigo 258.º do Código dos Contratos Públicos,17-11-2014,"10.935,00 €",,"",,1195223,Aquisição de 15 000 Ampolas de lidocaina 20 mg/ml,FALSE
Aquisição de 300 unidades de discos registador de temperatura diâm. 12.5 cm,Ajuste Direto Regime Geral,Aquisição de bens móveis,"30192000-1, Material de escritório","Administração Regional de Saúde do Norte, I. P. (503135593)",Iberlab & imunoreage (503406694),"251,10 €",07-04-2014,11-03-2014,365 dias,"Portugal, Vila Real, Vila Real","Artigo 20.º, n.º 1, alínea a) do Código dos Contratos Públicos",14-05-2014,"251,10 €",,"",,Não aplicável.,Não aplicável.,FALSE
"Aquisição de 15 rolos de papel p/ecg 21,5 cm de largura  Aquisição de 180 rolos de papel p/ecg 6cm de largura aprox. Ref. 1006006",Ajuste Direto Regime Geral,Aquisição de bens móveis,"30192000-1, Material de escritório","Administração Regional de Saúde do Norte, I. P. (503135593)","Eugénio Pereira, Lda (503989525)","255,45 €",07-04-2014,11-03-2014,365 dias,"Portugal, Vila Real, Vila Real","Artigo 20.º, n.º 1, alínea a) do Código dos Contratos Públicos",13-10-2014,"255,45 €",,"",,Não aplicável.,Não aplicável.,FALSE
Aquisição de 400 unidades de copos p/nebulizador omrom,Ajuste Direto Regime Geral,Aquisição de bens móveis,"33140000-3, Material médico de consumo","Administração Regional de Saúde do Norte, I. P. (503135593)",Feiramédica. Lda (503731900),"1.300,00 €",07-04-2014,12-03-2014,365 dias,"Portugal, Vila Real, Vila Real","Artigo 20.º, n.º 1, alínea a) do Código dos Contratos Públicos",21-03-2014,"1.300,00 €",,"",,Não aplicável.,Não aplicável.,FALSE
Aquisição de 100 unidades de rolo de etiquetas para impressora zebra T402 71x30 mm,Ajuste Direto Regime Geral,Aquisição de bens móveis,"30192000-1, Material de escritório","Administração Regional de Saúde do Norte, I. P. (503135593)",CDI - Companhia Distribuidora de Informática (502803355),"400,00 €",07-04-2014,07-03-2014,365 dias,"Portugal, Vila Real, Vila Real","Artigo 20.º, n.º 1, alínea a) do Código dos Contratos Públicos",18-03-2014,"400,00 €",,"",,Não aplicável.,Não aplicável.,FALSE
Aquisição de 400 unidades de agulha para sistema fechado colheita de sangue 20 g,Ajuste Direto Regime Geral,Aquisição de bens móveis,"33140000-3, Material médico de consumo","Administração Regional de Saúde do Norte, I. P. (503135593)","Sarsted, Lda (503019461)","84,00 €",07-04-2014,27-03-2014,365 dias,"Portugal, Vila Real, Vila Real","Artigo 20.º, n.º 1, alínea a) do Código dos Contratos Públicos",27-04-2014,"84,00 €",,"",,Não aplicável.,Não aplicável.,FALSE
Aquisição de 1 600 unidades de Adaptadores extração múltipla por vácuo não reutilizável,Ajuste Direto Regime Geral,Aquisição de bens móveis,"33140000-3, Material médico de consumo","Administração Regional de Saúde do Norte, I. P. (503135593)",Vacuete Portugal SA (505348470),"254,24 €",07-04-2014,26-03-2014,365 dias,"Portugal, Vila Real, Vila Real",Artigo 258.º do Código dos Contratos Públicos,26-03-2014,"254,24 €",,"",,1195178,Aquisição de 1 600 unidades de Adaptadores extração múltipla por vácuo não reutilizável,FALSE
Aquisição de 17 000 Unidades de batas de proteção irrecuperável,Ajuste Direto Regime Geral,Aquisição de bens móveis,"33140000-3, Material médico de consumo","Administração Regional de Saúde do Norte, I. P. (503135593)","Ezequiel Panão Jorge, Lda (501412727)","350,40 €",07-04-2014,20-03-2014,365 dias,"Portugal, Vila Real, Vila Real",Artigo 258.º do Código dos Contratos Públicos,07-11-2014,"350,40 €",,"",,1195172,Aquisição de 16 000 Unidades de avental plástico irrecuperável,FALSE
Aquisição de 17 000 Unidades de batas de proteção irrecuperável,Ajuste Direto Regime Geral,Aquisição de bens móveis,"33140000-3, Material médico de consumo","Administração Regional de Saúde do Norte, I. P. (503135593)","Overpharma, Lda (505792362)","3.570,00 €",07-04-2014,20-03-2014,365 dias,"Portugal, Vila Real, Vila Real",Artigo 258.º do Código dos Contratos Públicos,03-07-2014,"3.570,00 €",,"",,1195170,Aquisição de 17 000 Unidades de batas de proteção irrecuperável,FALSE
Aquisição de 25 unidades de óculos de proteção descartáveis,Ajuste Direto Regime Geral,Aquisição de bens móveis,"33140000-3, Material médico de consumo","Administração Regional de Saúde do Norte, I. P. (503135593)",Factor Plus Sa (502810645),"35,00 €",07-04-2014,20-03-2014,365 dias,"Portugal, Vila Real, Vila Real",Artigo 258.º do Código dos Contratos Públicos,20-03-2014,"35,00 €",,"",,1195167,Aquisição de 25 unidades de óculos de proteção descartáveis,FALSE
Aquisição de 7 920 unidades de máscara proteção profissionais irrecuperável,Ajuste Direto Regime Geral,Aquisição de bens móveis,"33140000-3, Material médico de consumo","Administração Regional de Saúde do Norte, I. P. (503135593)",Bastos Viegas SA (500042772),"2.360,16 €",07-04-2014,20-03-2014,365 dias,"Portugal, Vila Real, Vila Real",Artigo 258.º do Código dos Contratos Públicos,04-06-2014,"2.360,16 €",,"",,1195165,Aquisição de 7 920 unidades de máscara proteção profissionais irrecuperável,FALSE
Aquisição de 3 360 unidades de toucas de protecção em TNT irrecuperável,Ajuste Direto Regime Geral,Aquisição de bens móveis,"33140000-3, Material médico de consumo","Administração Regional de Saúde do Norte, I. P. (503135593)",OASIPOR (502260750),"302,40 €",07-04-2014,20-03-2014,365 dias,"Portugal, Vila Real, Vila Real",Artigo 258.º do Código dos Contratos Públicos,15-07-2014,"259,20 €",,O nº de unidades por embalagem não permitiu adquirir a totalidade do material,,1195163,Aquisição de 3 360 unidades de toucas de protecção em TNT irrecuperável,FALSE
Aquisição de 14 000 Folhas de papel para esterilização rugoso 50x50 cm  2 400 Unidades de Teste controlo esterilização (Bowie & Dick),Ajuste Direto Regime Geral,Aquisição de bens móveis,"33140000-3, Material médico de consumo","Administração Regional de Saúde do Norte, I. P. (503135593)",Bastos Viegas (500042772),"3.951,40 €",07-04-2014,24-03-2014,365 dias,"Portugal, Vila Real, Vila Real",Artigo 258.º do Código dos Contratos Públicos,07-11-2014,"3.951,40 €",,"",,1195157,Aquisição de 14 000 Folhas de papel para esterilização rugoso 50x50 cm  2 400 Unidades de Teste controlo esterilização (Bowie & Dick),FALSE
Aquisição de 100 rolos de manga para esterilização com fole 300 mm,Ajuste Direto Regime Geral,Aquisição de bens móveis,"33140000-3, Material médico de consumo","Administração Regional de Saúde do Norte, I. P. (503135593)","3 M Portugal, Lda (500193940)","2.295,00 €",07-04-2014,24-03-2014,365 dias,"Portugal, Vila Real, Vila Real",Artigo 258.º do Código dos Contratos Públicos,17-11-2014,"2.295,00 €",,"",,1195155,Aquisição de 100 rolos de manga para esterilização com fole 300 mm,FALSE
Aquisição de 100 rolos de Manga para esterilização sem fole 75 mm,Ajuste Direto Regime Geral,Aquisição de bens móveis,"33140000-3, Material médico de consumo","Administração Regional de Saúde do Norte, I. P. (503135593)",Pergut (501799729),"834,00 €",07-04-2014,24-03-2014,365 dias,"Portugal, Vila Real, Vila Real",Artigo 258.º do Código dos Contratos Públicos,08-11-2014,"834,00 €",,"",,1195147,Aquisição de 100 rolos de Manga para esterilização sem fole 75 mm,FALSE
Aquisição de 1 400 pensos de pelicula poliuretano com acrilico absorvente 10x10 cm,Ajuste Direto Regime Geral,Aquisição de bens móveis,"33600000-6, Produtos farmacêuticos","Administração Regional de Saúde do Norte, I. P. (503135593)",Clinifar - Prod. Clinicos Farmacêuticos (503281115),"322,00 €",07-04-2014,01-04-2014,365 dias,"Portugal, Vila Real, Vila Real",Artigo 258.º do Código dos Contratos Públicos,17-11-2014,"322,00 €",,"",,1195141,Aquisição de 1 400 pensos de pelicula poliuretano com acrilico absorvente 10x10 cm,FALSE
Aquisição de 2 000 comprimidos de metoclopramida 10 mg comp,Ajuste Direto Regime Geral,Aquisição de bens móveis,"33600000-6, Produtos farmacêuticos","Administração Regional de Saúde do Norte, I. P. (503135593)",Labesfal - Laboratório Almiro SA (501169580),"66,40 €",07-04-2014,27-03-2014,365 dias,"Portugal, Vila Real, Vila Real",Artigo 258.º do Código dos Contratos Públicos,03-04-2014,"66,40 €",,"",,1195137,Aquisição de 2 000 comprimidos de metoclopramida 10 mg comp,FALSE
Aquisição de 400 frascos de budesonida 1mg/2ml susp inal neb fr 2 ml,Ajuste Direto Regime Geral,Aquisição de bens móveis,"33600000-6, Produtos farmacêuticos","Administração Regional de Saúde do Norte, I. P. (503135593)",Teva Pharma - Produtos Farmacêuticos (507045491),"274,40 €",07-04-2014,28-03-2014,365 dias,"Portugal, Vila Real, Vila Real",Artigo 258.º do Código dos Contratos Públicos,08-05-2014,"274,40 €",,"",,1195130,Aquisição de 400 frascos de budesonida 1mg/2ml susp inal neb fr 2 ml,FALSE
Aquisição de 240 comprimidos de Valproato semisódico 500 mg comp,Ajuste Direto Regime Geral,Aquisição de bens móveis,"33600000-6, Produtos farmacêuticos","Administração Regional de Saúde do Norte, I. P. (503135593)",Tecnifar  (500280436),"50,28 €",07-04-2014,28-03-2014,365 dias,"Portugal, Vila Real, Vila Real",Artigo 258.º do Código dos Contratos Públicos,27-04-2014,"50,28 €",,"",,1195117,Aquisição de 240 comprimidos de Valproato semisódico 500 mg comp,FALSE
Aquisição de 16.519 unidades de DETERGENTE NEUTRO,Ajuste Direto Regime Geral,Aquisição de bens móveis,"39831200-8, Detergentes","Administração Regional de Saúde do Norte, I. P. (503135593)","RMV PRODUTOS HOSPITALARES, UNIPESSOAL LDA (507866347)","35.433,26 €",04-04-2014,12-03-2014,365 dias,"Portugal, Vila Real, Vila Real","Artigo 20.º, n.º 1, alínea a) do Código dos Contratos Públicos",30-12-2014,"35.433,26 €",,"",,Não aplicável.,Não aplicável.,FALSE
Aquisição de 90.000 unidades de porta lâmina individual,Concurso público,Aquisição de bens móveis,"33140000-3, Material médico de consumo","Administração Regional de Saúde do Norte, I. P. (503135593)","Sarsted, lda (503019461)","0,12 €",04-04-2014,14-03-2014,254 dias,"Portugal, Porto, Maia<BR/>Portugal, Vila Real, Vila Real<BR/>Portugal, Distrito não determinado, Concelho não determinado","Artigo 155.º, alínea a) do Código dos Contratos Públicos",06-08-2014,"0,12 €",,"",,Não aplicável.,Não aplicável.,FALSE
1000 Pilhas alcalinas SV (LR61) - 300 Pilhas alcalinas (SR41SW),Ajuste Direto Regime Geral,Aquisição de bens móveis,"31411000-0, Pilhas alcalinas","Administração Regional de Saúde do Norte, I. P. (503135593)",Sapel - Sociedade de Acessórios P. Escritório (500242194),"1.245,00 €",04-04-2014,07-03-2014,365 dias,"Portugal, Vila Real, Vila Real","Artigo 20.º, n.º 1, alínea a) do Código dos Contratos Públicos",14-11-2014,"1.245,00 €",,"",,Não aplicável.,Não aplicável.,FALSE
"Aquisição de 40.000 unidades de Teste Rápido Heroína, 40.000 unidades de Teste Rápido Cocaína, 8.000 unidades de Teste Rápido Cannabinoides ( THC), 13.000 unidades de Teste Rápido Metadona, 1.480 unidades de Teste Rápido Metanfetaminas, 1.200 unidades de Teste Ecstasy, 6.000 unidades de Teste Rápido Buprenorfina (SUBUTEX) e 880 unidades de Teste Rápido Anfetaminas",Ajuste Direto Regime Geral,Aquisição de bens móveis,"33696500-0, Reagentes de laboratório","Administração Regional de Saúde do Norte, I. P. (503135593)","ALERE, LDA (502518863)","21.006,40 €",04-04-2014,13-02-2014,365 dias,"Portugal, Vila Real, Vila Real","Artigo 20.º, n.º 1, alínea a) do Código dos Contratos Públicos",09-12-2014,"21.006,40 €",,"",,Não aplicável.,Não aplicável.,FALSE
Aquisição de 65.000 unidades de frasco plástico esterilizado para colheita  50 ml.,Concurso público,Aquisição de bens móveis,"33140000-3, Material médico de consumo","Administração Regional de Saúde do Norte, I. P. (503135593)","Normax Fábrica de vidros cientificos,lda (500203130)","0,04 €",04-04-2014,14-03-2014,254 dias,"Portugal, Distrito não determinado, Concelho não determinado<BR/>Portugal, Porto, Maia<BR/>Portugal, Vila Real, Vila Real","Artigo 155.º, alínea a) do Código dos Contratos Públicos",30-09-2014,"0,04 €",,"",,Não aplicável.,Não aplicável.,FALSE
Aquisição de 47000 ampolas de Tiocolquicosido 4 mg/2 ml Sol inj IM,Ajuste Direto Regime Geral,Aquisição de bens móveis,"33660000-4, Medicamentos para o sistema nervoso e para os órgãos sensoriais","Administração Regional de Saúde do Norte, I. P. (503135593)","Sanofi - Produtos Farmacêuticos, Lda (500134960)","19.740,00 €",04-04-2014,14-03-2014,365 dias,"Portugal, Vila Real, Vila Real",Artigo 258.º do Código dos Contratos Públicos,29-10-2014,"19.740,00 €",,"",,1194292,Aquisição de 47000 ampolas de Tiocolquicosido 4 mg/2 ml Sol inj IM,FALSE
Aquisição de 110.000 unidades de lâmina bisturi nº24,Concurso público,Aquisição de bens móveis,"33140000-3, Material médico de consumo","Administração Regional de Saúde do Norte, I. P. (503135593)","Ezequiel Panao Jorge, lda (501412727)","0,03 €",04-04-2014,14-03-2014,254 dias,"Portugal, Distrito não determinado, Concelho não determinado<BR/>Portugal, Vila Real, Vila Real<BR/>Portugal, Porto, Maia","Artigo 155.º, alínea a) do Código dos Contratos Públicos",15-09-2014,"0,03 €",,"",,Não aplicável.,Não aplicável.,FALSE
1250 Pilhas alcalinas (sizeC) - LR14  400 Pilhas alcalinas 12V (LR 932)  900 Pilhas alcalinas (CR2032)  300 Pilhas alcalinas LR44  510 Pilhas alcalina LR41,Ajuste Direto Regime Geral,Aquisição de bens móveis,"31411000-0, Pilhas alcalinas","Administração Regional de Saúde do Norte, I. P. (503135593)",Realcópia (503257400),"1.294,45 €",04-04-2014,27-02-2014,365 dias,"Portugal, Vila Real, Vila Real","Artigo 20.º, n.º 1, alínea a) do Código dos Contratos Públicos",14-11-2014,"1.294,45 €",,"",,Não aplicável.,Não aplicável.,FALSE
Aquisição de 100.000 unidades lâmina bisturi nº11,Concurso público,Aquisição de bens móveis,"33140000-3, Material médico de consumo","Administração Regional de Saúde do Norte, I. P. (503135593)","Ezequiel Panao Jorge, lda (501412727)","0,02 €",04-04-2014,14-03-2014,254 dias,"Portugal, Distrito não determinado, Concelho não determinado<BR/>Portugal, Porto, Maia<BR/>Portugal, Vila Real, Vila Real","Artigo 155.º, alínea a) do Código dos Contratos Públicos",15-09-2014,"0,02 €",,"",,Não aplicável.,Não aplicável.,FALSE
"Aquisição de 2.000 ampolas de Atropina 0,5 mg/1 ml Sol inj IM IV S e 800 ampolas de Adrenalina 1 mg/ml Sol inj1 ml IM IV SC",Ajuste Direto Regime Geral,Aquisição de bens móveis,"33670000-7, Medicamentos para o aparelho respiratório","Administração Regional de Saúde do Norte, I. P. (503135593)",B BRAUN MEDICAL LDA   (501506543),"2.544,00 €",04-04-2014,12-03-2014,365 dias,"Portugal, Vila Real, Vila Real",Artigo 258.º do Código dos Contratos Públicos,04-12-2014,"2.544,00 €",,"",,1194265,"Aquisição de 2.000 ampolas de Atropina 0,5 mg/1 ml Sol inj IM IV S e 800 ampolas de Adrenalina 1 mg/ml Sol inj1 ml IM IV SC",FALSE
Aquisição de 150.000 unidades de lâmina bisturi nº20.,Concurso público,Aquisição de bens móveis,"33140000-3, Material médico de consumo","Administração Regional de Saúde do Norte, I. P. (503135593)","Ezequiel Panao Jorge, lda (501412727)","0,02 €",04-04-2014,14-03-2014,254 dias,"Portugal, Vila Real, Vila Real<BR/>Portugal, Distrito não determinado, Concelho não determinado<BR/>Portugal, Porto, Maia","Artigo 155.º, alínea a) do Código dos Contratos Públicos","","",,"",,Não aplicável.,Não aplicável.,FALSE
"Aquisição de 24.960 comp. de Captopril 25 mg, 560 comp. de Enalapril 20 mg e 896 uni. de Losartan 50 mg Comp",Ajuste Direto Regime Geral,Aquisição de bens móveis,"33670000-7, Medicamentos para o aparelho respiratório","Administração Regional de Saúde do Norte, I. P. (503135593)","GENERIS FARMACÊUTICA,SA (508107997)","293,17 €",04-04-2014,24-03-2014,365 dias,"Portugal, Vila Real, Vila Real",Artigo 258.º do Código dos Contratos Públicos,29-04-2014,"293,17 €",,"",,1194253,"Aquisição de 24.960 comp. de Captopril 25 mg, 560 comp. de Enalapril 20 mg e 896 uni. de Losartan 50 mg Comp",FALSE
Aquisição de 250 cart. de fio de sutura agulha lanceolada 3/8 circ. 19mm3/0sinté. absorção rápida.,Concurso público,Aquisição de bens móveis,"33140000-3, Material médico de consumo","Administração Regional de Saúde do Norte, I. P. (503135593)","B Braun Medical, lda (501506543)","1,93 €",04-04-2014,14-03-2014,254 dias,"Portugal, Porto, Maia<BR/>Portugal, Vila Real, Vila Real<BR/>Portugal, Distrito não determinado, Concelho não determinado","Artigo 155.º, alínea a) do Código dos Contratos Públicos",19-03-2014,"1,93 €",,"",,Não aplicável.,Não aplicável.,FALSE
aquisição de 600 ampolas Amiodarona 150 mg/3 ml Sol inj Fr 3 ml IV,Ajuste Direto Regime Geral,Aquisição de bens móveis,"33670000-7, Medicamentos para o aparelho respiratório","Administração Regional de Saúde do Norte, I. P. (503135593)","HIKMA FARMACEUTICA,LDA - BNP PARIBAS FACTOR (502266791)","227,40 €",04-04-2014,13-03-2014,365 dias,"Portugal, Vila Real, Vila Real",Artigo 258.º do Código dos Contratos Públicos,24-04-2014,"227,40 €",,"",,1194236,Aquisição de 600 ampolas de Amiodarona 150 mg/3 ml Sol inj Fr 3 ml IV,FALSE
Aquisição de 504.000 COPO BRANCO S/ TAMPA (100 cc),Ajuste Direto Regime Geral,Aquisição de bens móveis,"39221120-4, Chávenas e copos","Administração Regional de Saúde do Norte, I. P. (503135593)","INTRAPLAS - INDUSTRIA TRANSFORMADORA DE PLÁSTICOS, S.A. (500140944)","4.082,40 €",04-04-2014,03-04-2014,365 dias,"Portugal, Vila Real, Vila Real<BR/>Portugal","Artigo 20.º, n.º 1, alínea a) do Código dos Contratos Públicos",19-11-2014,"4.082,40 €",,"",,Não aplicável.,Não aplicável.,FALSE
Aquisição de 6.200 ampolas de Furosemida 20 mg/2 ml Sol inj 2ml IM IV e 200 ampolas de Dopamina 40 mg/ml Sol p/ perfusão 5 ml IV,Ajuste Direto Regime Geral,Aquisição de bens móveis,"33670000-7, Medicamentos para o aparelho respiratório","Administração Regional de Saúde do Norte, I. P. (503135593)",OVERPHARMA- PRODUTOS MEDICOS FARMAC. LDA (505792362),"855,00 €",03-04-2014,12-03-2014,365 dias,"Portugal, Vila Real, Vila Real",Artigo 258.º do Código dos Contratos Públicos,07-05-2014,"855,00 €",,"",,1193811,Aquisição de 6.200 ampolas de Furosemida 20 mg/2 ml Sol inj 2ml IM IV e 200 ampolas de Dopamina 40 mg/ml Sol p/ perfusão 5 ml IV,FALSE
"Aquisição de 50 ampolas de Dobutamina 12,5 mg/ml Sol inj 20 ml IV",Ajuste Direto Regime Geral,Aquisição de bens móveis,"33670000-7, Medicamentos para o aparelho respiratório","Administração Regional de Saúde do Norte, I. P. (503135593)",SIDEFARMA SOC IND EXP FARMAC (500717419),"110,00 €",03-04-2014,25-03-2014,365 dias,"Portugal, Vila Real, Vila Real",Artigo 258.º do Código dos Contratos Públicos,10-04-2014,"110,00 €",,"",,1193790,"Aquisição de 50 Ampolas de Dobutamina 12,5 mg/ml Sol inj 20 ml IV",FALSE
Aquisição de 1.500 unidades de Teste Saliva Multi-Drogas,Ajuste Direto Regime Geral,Aquisição de bens móveis,"33696500-0, Reagentes de laboratório","Administração Regional de Saúde do Norte, I. P. (503135593)","NORMAX - FÁBRICA DE VIDROS CIENTIFICOS, LDA (500203130)","11.907,00 €",03-04-2014,13-02-2014,365 dias,"Portugal, Vila Real, Vila Real","Artigo 20.º, n.º 1, alínea a) do Código dos Contratos Públicos",09-12-2014,"11.907,00 €",,"",,Não aplicável.,Não aplicável.,FALSE
Aquisição de 2.000 tubos de Tubo meio de cultura Lowenstein-Jeens,Ajuste Direto Regime Geral,Aquisição de bens móveis,"33696500-0, Reagentes de laboratório","Administração Regional de Saúde do Norte, I. P. (503135593)","IBERCULT - Com. de testes na área da Bacteriologia, Lda (507001664)","1.298,00 €",03-04-2014,31-03-2014,365 dias,"Portugal, Vila Real, Vila Real","Artigo 20.º, n.º 1, alínea a) do Código dos Contratos Públicos",06-11-2014,"1.298,00 €",,"",,Não aplicável.,Não aplicável.,FALSE
Aquisição de 500 testes de Teste rápido pesquisa de Mycobacterium tuberculosis complex,Ajuste Direto Regime Geral,Aquisição de bens móveis,"33696500-0, Reagentes de laboratório","Administração Regional de Saúde do Norte, I. P. (503135593)","QUILABAN-QUIM. LAB. ANALITICA,LDA (500399670)","1.750,00 €",03-04-2014,26-03-2014,365 dias,"Portugal, Vila Real, Vila Real","Artigo 20.º, n.º 1, alínea a) do Código dos Contratos Públicos",17-12-2014,"1.750,00 €",,"",,Não aplicável.,Não aplicável.,FALSE
Aquisição de Papel para fotocópia e Impressão,Ao abrigo de acordo-quadro (art.º 259.º),Aquisição de bens móveis,"30197643-5, Papel para fotocópia","Instituto Português de Oncologia de Coimbra Francisco Gentil, EPE (506361438), Hospital Santa Maria Maior, EPE (506361381), Centro Hospitalar do Alto Ave, EPE (508080827), Centro Medicina de Reabilitação da Região Centro Rovisco Pais (503767336), Hospital Distrital Figueira da Foz, EPE (506361527), Centro Hospitalar de Entre Douro e Vouga,  EPE (508878462), Hospital de Santarém, EPE (506361462), Centro Hospitalar de Leiria-Pombal, EPE (509822932), Administração Central do Sistema de Saúde, IP (508188423), Administração Regional de Saúde do Alentejo, IP (503148768), Instituto Nacional de Emergência Médica, IP (501356126), Hospital José Luciano de Castro (501613021), Secretaria-Geral do Ministério da Saúde (600080684), Centro Hospitalar de S. João, EPE (509821197), Unidade Local de saúde da Guarda, EPE (508752000), Centro Hospitalar do Médio Tejo, EPE (506361608), Instituto Português de Oncologia do Porto Francisco Gentil, EPE (506362299), Administração Regional de Saúde do Algarve, IP (503148709), Instituto Nacional de Saúde Dr. Ricardo Jorge, IP (501427511), Administração Regional de Saúde de Lisboa e Vale do Tejo, IP (503148776), Centro Hospitalar Tâmega e Sousa, EPE (508318262), Centro Hospitalar de Setúbal, EPE (507606787), Centro Hospitalar do Oeste (510412009), Unidade Local de Saúde do Alto Minho, EPE (508786193), Hospital Espírito Santo, EPE (508085888), Direção-Geral da Saúde (600037100), Unidade Local de Saúde do Baixo Alentejo, EPE (508754275), Centro Hospitalar do Algarve, EPE (510745997), Centro Hospitalar de Lisboa Ocidental, EPE (507618319), Instituto de Oftalmologia Dr. Gama Pinto (600000052), Serviço de Intervenção nos Comportamentos Aditivos e nas Dependências (600084884), Centro Hospitalar Tondela-Viseu, EPE (509822940), Administração Regional de Saúde do Norte, IP (503135593), Hospital Arcebispo João Crisóstomo (501626123), Hospital Professor Doutor Fernando Fonseca, EPE (503035416), Administração Regional de Saúde do Centro, IP (503122165), Unidade Local de Saúde do Nordeste, EPE (509932584), Unidade Local de Saúde de Castelo Branco, EPE (509309844), Centro Hospitalar do Médio Ave, EPE (508093937), Centro Hospitalar e Universitário de Coimbra, EPE (510103448), Unidade Local de Saúde do Norte Alentejano, EPE (508094461), Hospital de Magalhães Lemos, EPE (502828790), Autoridade Nacional do Medicamento e Produtos de Saúde, IP (600037002), Centro Hospitalar Barreiro Montijo, EPE (509186998), Inspeção-Geral das Atividades em Saúde (600018857), Centro Hospitalar Cova da Beira, EPE (506361659), Unidade Local de Saúde de Matosinhos, EPE (506361390), Instituto Português do Sangue e da Transplantação, IP (502423943), Hospital Dr. Francisco Zagalo (507846044), Centro Hospitalar de Trás-os-Montes e Alto Douro, EPE (508100496), Centro Hospitalar Vila Nova de Gaia/Espinho, EPE (508142156), Centro Hospitalar Lisboa Central, EPE (508080142), Hospital Garcia de Orta, EPE (506361470), Centro Hospitalar de Lisboa Norte, EPE (508481287), Centro Hospitalar do Porto, EPE (508331471), Centro Hospitalar Psiquiátrico de Lisboa (508338476), Serviços Partilhados do Ministério da Saúde, EPE (509540716)","Staples Portugal, S.A. (503789372)","1.678.737,97 €",01-04-2014,02-01-2014,365 dias,Portugal,Artigo 259.º do Código dos Contratos Públicos,30-01-2014,"5.443,80 €",,O total efetivo corresponde apenas a este Centro Hospitalar.,,162548,"Concurso limitado por prévia qualificação para a celebração de Acordo Quadro para fornecimento de papel, economato e consumíveis de impressão.",TRUE
"Aquisição de eletricidade englobando BTE, MT, AT e MAT",Ao abrigo de acordo-quadro (art.º 259.º),Aquisição de bens móveis,"09310000-5, Electricidade","Hospital Dr. Francisco Zagalo - Ovar (501510150), Hospital de Santarém, E.P.E. (506361462), Hospital Garcia de Orta, E.P.E. (506361470), Insituto Nacional de Saúde Dr. Ricardo Jorge, I.P. (501427511), Unidade Local de Saúde de Castelo Branco, E.P.E. (509309844), Administração Central do Sistema de Saúde, I.P. (508188423), Direcção-Geral da Saúde (600037100), Instituto Português Oncologia do Porto Francisco Gentil, E.P.E. (506362299), Hospital de Magalhães Lemos, E. P. E. (502828790), Centro Hospitalar do Baixo Vouga, E.P.E. (510123210), Instituto Português do sangue (502423943), Unidade Local de Saúde de Matosinhos, E.P.E. (506361390), Centro Hospitalar de Trás-os-Montes e Alto Douro, E. P. E. (508100496), Centro Hospitalar de Leiria, E.P.E. (509822932), Centro Hospitalar Lisboa Norte, E. P. E. (508481287), Hospital Santa Maria Maior, E.P.E. - Barcelos (506361381), Unidade Local de Saúde do Alto Minho, E. P. E. (508786193), Centro Hospitalar de Setúbal, E. P. E. (507606787), Centro Hospitalar de Lisboa Central, E. P. E. (508080142), Centro Hospitalar do Porto, E.P.E. (508331471), Instituto Nacional de Emergência Médica, I.P. (501356126), Unidade Local de Saúde do Nordeste, E. P. E (509932584), Centro Hospitalar do Médio Tejo, E. P. E. (506361608), Centro Medicina de Reabilitação da Região Centro Rovisco Pais (503767336), Centro Hospitalar de Entre o Douro e Vouga, E.P.E. (508878462), Instituto de Oftalmologia Dr. Gama Pinto (600000052), Centro Hospitalar Póvoa de Varzim - Vila do Conde, E.P.E. (508741823), Hospital do Espírito Santo de Évora, E. P. E. (508085888), INFARMED - Autoridade Nacional do Medicamento e Produtos de Saúde I.P. (600037002), Centro Hospitalar do Alto Ave, E.P.E. (508080827), Administração Regional de Saúde do Centro, I. P. (503122165), Unidade Local de Saúde do Baixo Alentejo, E.P.E. (508754275), Centro Hospitalar Tondela-Viseu, E.P.E. (509822940), Serviço Partilhados do Ministério da Saúde, E. P. E. (509540716), CENTRO HOSPITALAR DO ALGARVE (508718872), Unidade Local de Saúde do Litoral Alentejano, E.P.E. (510445152), Hospital Professor Doutor Fernando Fonseca, E.P.E. (503035416), Centro Hospitalar do Médio Ave, E.P.E. (508093937), Administração Regional de Saúde Algarve, I.P. (503148709), Secretaria-Geral do Ministério da Saúde (600080684), Centro Hospitalar Cova da Beira, EPE (506361659), Hospital José Luciano de Castro - Anadia (501613021), Centro Hospitalar Vila Nova de Gaia - Espinho, E. P. E. (508142156), Centro Hospitalar Psiquiátrico de Lisboa (508338476), Instituto Português Oncologia de Coimbra Francisco Gentil, E.P.E. (506361438), CHO - Centro Hospitalar do Oeste (510412009), Unidade Local de Saúde da Guarda, E.P.E. (508752000), Centro Hospitalar e Universitário de Coimbra, E. P. E. (510103448), Centro Hospitalar Barreiro Montijo, E.P.E. (509186998), Inspeção-Geral das Atividades em Saúde (600018857), SUCH - Serviço de Utilização Comum dos Hospitais (500900469), Centro Hospitalar de Lisboa Ocidental, E.P.E. (507618319), Centro Hospitalar do Tâmega e Sousa, E. P. E. (508318262), Administração Regional de Saúde de Lisboa e Vale do Tejo, I. P. (503148776), Administração Regional de Saúde do Alentejo, I. P. (503148768), Administração Regional de Saúde do Norte, I. P. (503135593)","EDP Comercial, SA (503504564)","23.711.683,78 €",01-04-2014,01-03-2014,365 dias,Portugal,Artigo 259.º do Código dos Contratos Públicos,30-12-2014,"356.327,09 €",,diminuicao das necessidades,,314294,Acordo quadro para o fornecimento de electricidade em regime de mercado livre para Portugal Continental,TRUE
Aquisição de Economato,Ao abrigo de acordo-quadro (art.º 259.º),Aquisição de bens móveis,"30192000-1, Material de escritório","Direção-Geral da Saúde (600037100), Administração Regional de Saúde Lisboa e Vale do Tejo, IP (503148776), Administração Regional de Saúde Centro, IP (503122165), Secretaria-Geral do Ministério da Saúde (600080684), Instituto Português do Sangue e da Transplantação, I.P. (502423943), Administração Regional de Saúde Alentejo, IP  (503148768), Inatituto Nacional de Emergência Médica, I.P. (501356126), Administração Regional de Saúde Algarve, IP (503148709), Administração Central do Sistema de Saúde, I.P. (508188423), Inspeção-Geral das Atividades em Saúde (600018857), Autoridade Nacional do Medicamento e Produtos de Saúde (600037002), Administração Regional de Saúde Norte, IP (503135593), Serviço de Intervenção nos Comportamentos Aditivos e nas Dependências (600084884), Instituto Nacional de Saúde Dr. Ricardo Jorge, IP (501427511)","Olmar - Artigos de Papelaria, Lda. (508831989)","267.744,78 €",01-04-2014,22-02-2013,365 dias,Portugal,Artigo 259.º do Código dos Contratos Públicos,31-12-2013,"267.744,78 €",,"",,162548,"Concurso limitado por prévia qualificação para a celebração de Acordo Quadro para fornecimento de papel, economato e consumíveis de impressão.",TRUE
Aquisição de 190.000 unidades de lâmina citologia bordo esmiralado com extremidade fosca,Concurso público,Aquisição de bens móveis,"33140000-3, Material médico de consumo","Administração Regional de Saúde do Norte, I. P. (503135593)","Speculum- Artigos médicos, lda (502996323)","0,01 €",01-04-2014,14-03-2014,254 dias,"Portugal, Vila Real, Vila Real<BR/>Portugal, Distrito não determinado, Concelho não determinado<BR/>Portugal, Porto, Maia","Artigo 155.º, alínea a) do Código dos Contratos Públicos",21-10-2014,"0,01 €",,"",,Não aplicável.,Não aplicável.,FALSE
AQUISIÇÃO DE COMBUSTIVEL RODOVIÁRIO EM POSTOS DE ABASTECIMENTO PUBLICOS,Ao abrigo de acordo-quadro (art.º 259.º),Aquisição de bens móveis,"09100000-0, Combustíveis","Instituto Português do Sangue e da Transplantação, I.P. (502423943), Gabinete do Secretário de Estado da Saúde  (600052290), Gabinete do Secretário de Estado Adjunto do Ministro da Saúde  (600071006), Administração Regional de Saúde Algarve, I.P. (503148709), Serviço de Intervenção nos Comportamentos Aditivos e nas Dependências (600084884), Secretaria-Geral do Ministério da Saúde (600080684), Administração Regional de Saúde Norte, I.P. (503135593), Administração Regional de Saúde Alentejo, I.P. (503148768), Administração Regional de Saúde Lisboa e Vale do Tejo, I.P. (503148776), Administração Central do Sistema de Saúde, I.P. (508188423), Instituto Nacional de Emergência Médica, I.P. (501356126), Inspeção-Geral das Atividades em Saúde (600018857), Instituto Nacional de Saúde Dr. Ricardo Jorge, I.P. (501427511), Direção-Geral da Saúde (600037100), Infarmed - Autoridade Nacional do Medicamento e Produtos de Saúde, I.P. (600037002), Gabinete do Ministro da Saúde  (600052303), Administração Regional de Saúde Centro, I.P. (503122165)",Petroleos de Portugal SA (500697370),"3.483.417,76 €",01-04-2014,14-01-2013,365 dias,Portugal,Artigo 259.º do Código dos Contratos Públicos,14-01-2014,"3.483.417,76 €",,"",,1189847,FORNECIMENTO DE ENERGIA ELÉCTRICA PARA DIVERSAS INSTALAÇÕES OU INFRA-ESTRUTURAS DO MUNICÍPIO DE MATOSINHOS,TRUE
Aquisição de 4.500 cart. fio de seda  c/ agulha lanceolada 3/8 circulo 16mm 3/0,Concurso público,Aquisição de bens móveis,"33140000-3, Material médico de consumo","Administração Regional de Saúde do Norte, I. P. (503135593)","speculum- Artigos Médicos, lda (502996323)","0,66 €",01-04-2014,14-03-2014,254 dias,"Portugal, Porto, Maia<BR/>Portugal, Distrito não determinado, Concelho não determinado<BR/>Portugal, Vila Real, Vila Real","Artigo 155.º, alínea a) do Código dos Contratos Públicos",21-10-2014,"0,66 €",,"",,Não aplicável.,Não aplicável.,FALSE
Aquisição de 4.000 unidades de fio de seda com agulha lanceolada 3/8 circulo 19mm 4/0,Concurso público,Aquisição de bens móveis,"33140000-3, Material médico de consumo","Administração Regional de Saúde do Norte, I. P. (503135593)","Speculum- Artigos Médicos, lda (502996323)","0,66 €",01-04-2014,14-03-2014,254 dias,"Portugal, Distrito não determinado, Concelho não determinado<BR/>Portugal, Vila Real, Vila Real<BR/>Portugal, Porto, Maia","Artigo 155.º, alínea a) do Código dos Contratos Públicos","","",,"",,Não aplicável.,Não aplicável.,FALSE
