Objeto do Contrato,Tipo de Procedimento,Tipo(s) de Contrato,CPVs,Entidade(s) Adjudicante(s),Entidade(s) Adjudicatária(s),Preço Contratual,Data de Publicação,Data de Celebração do Contrato,Prazo de Execução,Local de Execução,Fundamentação,Data de Fecho do Contrato,Preço Total Efetivo,Causas das Alterações ao Prazo,Causas das Alterações ao Preço,Estado,N.º registo do Acordo Quadro,Descrição do Acordo Quadro,Procedimento Centralizado
Prestação de serviços medicos na area de urologia,Ajuste Direto Regime Geral,Aquisição de serviços,"85100000-0, Serviços de saúde",Hospital Dr. Francisco Zagalo (501510150),"Drª.Teresa Bragança & Dr. Ulisses Ribau, Med. Esp. Lda. (508476143)","6.956,40 €",01-10-2014,30-09-2014,30 dias,"Portugal, Aveiro, Ovar","Artigo 20.º, n.º 1, alínea a) do Código dos Contratos Públicos",30-09-2014,"6.956,40 €",,"",,Não aplicável.,Não aplicável.,FALSE
Prestação de serviços medicos na area de urologia,Ajuste Direto Regime Geral,Aquisição de serviços,"85100000-0, Serviços de saúde",Hospital Dr. Francisco Zagalo (501510150),"DrªTeresa Bragança & DrUlissesRibau, Med. Espec. Lda. (508476143)","6.591,20 €",01-10-2014,30-09-2014,30 dias,"Portugal, Aveiro, Ovar","Artigo 20.º, n.º 1, alínea a) do Código dos Contratos Públicos",30-09-2014,"6.591,20 €",,"",,Não aplicável.,Não aplicável.,FALSE
Prestação de Serviços medicos na area de urologia,Ajuste Direto Regime Geral,Aquisição de serviços,"85100000-0, Serviços de saúde",Hospital Dr. Francisco Zagalo (501510150),"DrªTeresa Bragança & DrªUlisses Ribau, Med.Esp.Lda. (508476143)","7.634,00 €",01-10-2014,30-09-2014,30 dias,"Portugal, Aveiro, Ovar","Artigo 20.º, n.º 1, alínea a) do Código dos Contratos Públicos",30-09-2014,"7.634,00 €",,"",,Não aplicável.,Não aplicável.,FALSE
Aquisição de diverso equipamento de Oftalmologia,Ajuste Direto Regime Geral,Aquisição de bens móveis,"33100000-1, Equipamento médico",Hospital Dr. Francisco Zagalo - Ovar (501510150),"Visional Unipessoal, Lda.  (508798280)","5.540,00 €",25-09-2014,23-07-2014,30 dias,"Portugal<BR/>Portugal, Aveiro, Ovar","Artigo 20.º, n.º 1, alínea a) do Código dos Contratos Públicos",30-09-2014,"5.540,00 €",,"",,Não aplicável.,Não aplicável.,FALSE
Serviços de analises clinicas a utentes,Ajuste Direto Regime Geral,Aquisição de serviços,"85148000-8, Serviços de análises clínicas",Hospital Dr. Francisco Zagalo (501510150),"Delbran-Laboratorio de Analises Clinicas, Lda. (501148949)","28.794,81 €",25-09-2014,17-09-2014,180 dias,"Portugal, Aveiro, Ovar","Artigo 20.º, n.º 1, alínea a) do Código dos Contratos Públicos",31-12-2014,"23.431,10 €",,serviços efectuados abaixo do previsto,,Não aplicável.,Não aplicável.,FALSE
Serviços de exames de Imagiologia a utentes,Ajuste Direto Regime Geral,Aquisição de serviços,"85150000-5, Serviços de imagiologia médica",Hospital Dr. Francisco Zagalo (501510150),"Amadeu Campos Costa-Soc.Unipessoal, Lda.  (506794547)","9.594,80 €",25-09-2014,24-09-2014,180 dias,"Portugal, Aveiro, Ovar","Artigo 20.º, n.º 1, alínea a) do Código dos Contratos Públicos",31-12-2014,"12.391,26 €",,Exames efectuados acima do previsto,,Não aplicável.,Não aplicável.,FALSE
Serviços de advocacia juridica,Ajuste Direto Regime Geral,Aquisição de serviços,"79110000-8, Serviços de assessoria e representação jurídicas",Hospital Dr. Francisco Zagalo (501510150),"Vieira Conde & Associados-Soc.Advogados,RL (503611824)","5.466,00 €",24-09-2014,30-07-2014,180 dias,"Portugal, Aveiro, Ovar","Artigo 20.º, n.º 1, alínea a) do Código dos Contratos Públicos",31-12-2014,"5.466,00 €",,"",,Não aplicável.,Não aplicável.,FALSE
Serviços medicos de anestesiologia,Ajuste Direto Regime Geral,Aquisição de serviços,"79620000-6, Serviços de fornecimento de pessoal, inclusive temporário",Hospital Dr. Francisco Zagalo (501510150),"Clinica Medica Esam, Lda. (509858716)","6.840,00 €",23-09-2014,17-09-2014,30 dias,"Portugal, Aveiro, Ovar","Artigo 20.º, n.º 1, alínea a) do Código dos Contratos Públicos",17-09-2014,"6.840,00 €",,"",,Não aplicável.,Não aplicável.,FALSE
