Objeto do Contrato,Tipo de Procedimento,Tipo(s) de Contrato,CPVs,Entidade(s) Adjudicante(s),Entidade(s) Adjudicatária(s),Preço Contratual,Data de Publicação,Data de Celebração do Contrato,Prazo de Execução,Local de Execução,Fundamentação,Data de Fecho do Contrato,Preço Total Efetivo,Causas das Alterações ao Prazo,Causas das Alterações ao Preço,Estado,N.º registo do Acordo Quadro,Descrição do Acordo Quadro,Procedimento Centralizado
AQ100096 Aquisição de Medicamentos do G.F.T. 6 Aparelho Digestivo - ano 2016,Ajuste Direto Regime Geral,Aquisição de bens móveis,"33620000-2, Medicamentos para o sangue, para os órgãos hematopoiéticos e para o aparelho cardiovascular","Centro Hospitalar de Lisboa Ocidental, E. P. E. (507618319)","Overrpharma Produtos Médicos Farmaceuticos, Lda (505792362)","533.664,00 €",11-04-2016,20-01-2016,2016 dias,"Portugal, Lisboa, Lisboa",Artigo 258.º do Código dos Contratos Públicos,,,,,,Não aplicável.,Não aplicável.,FALSE
AQ100046 Aquisição Medicamentos G.F.T. 5 Aparelho respiratorio ano 2016,Ajuste Direto Regime Geral,Aquisição de bens móveis,"33670000-7, Medicamentos para o aparelho respiratório","Centro Hospitalar de Lisboa Ocidental, E. P. E. (507618319)","DLA Farmaceutica, S.A. (503894427)","355.082,00 €",11-04-2016,13-01-2016,2016 dias,"Portugal, Lisboa, Lisboa",Artigo 258.º do Código dos Contratos Públicos,,,,,,Não aplicável.,Não aplicável.,FALSE
AQ100215 Fornecimento medicamentos G.F.T. 19 (SPMS),Ajuste Direto Regime Geral,Aquisição de bens móveis,"33660000-4, Medicamentos para o sistema nervoso e para os órgãos sensoriais","Centro Hospitalar de Lisboa Ocidental, E. P. E. (507618319)",Medac Gesellschaft Sucursal Portugal  (980369959),"19.600,00 €",11-04-2016,01-06-2015,2015 dias,"Portugal, Lisboa, Lisboa",Artigo 258.º do Código dos Contratos Públicos,,,,,,Não aplicável.,Não aplicável.,FALSE
AQ100426 Aquisição Medicamentos Inovadores Tratamento Hepatite - 2016,Ajuste Direto Regime Geral,Aquisição de bens móveis,"33620000-2, Medicamentos para o sangue, para os órgãos hematopoiéticos e para o aparelho cardiovascular","Centro Hospitalar de Lisboa Ocidental, E. P. E. (507618319)","Gilead Sciences, Lda (503604704)","631.516,62 €",11-04-2016,19-02-2016,2016 dias,"Portugal, Lisboa, Lisboa",Artigo 258.º do Código dos Contratos Públicos,,,,,,Não aplicável.,Não aplicável.,FALSE
AQ100416 Aquisição Medicamentos Inovadores Tratamento Hepatite - 2016,Ajuste Direto Regime Geral,Aquisição de bens móveis,"33620000-2, Medicamentos para o sangue, para os órgãos hematopoiéticos e para o aparelho cardiovascular","Centro Hospitalar de Lisboa Ocidental, E. P. E. (507618319)","Gilead Sciences, Lda (503604704)","677.700,45 €",11-04-2016,17-02-2016,2016 dias,"Portugal, Lisboa, Lisboa",Artigo 258.º do Código dos Contratos Públicos,,,,,,Não aplicável.,Não aplicável.,FALSE
AQ100406 Aquisição Medicamentos Inovadores Tratamento Hepatite - 2016,Ajuste Direto Regime Geral,Aquisição de bens móveis,"33620000-2, Medicamentos para o sangue, para os órgãos hematopoiéticos e para o aparelho cardiovascular","Centro Hospitalar de Lisboa Ocidental, E. P. E. (507618319)","Gilead Sciences, Lda (503604704)","138.551,49 €",11-04-2016,15-02-2016,2016 dias,"Portugal, Lisboa, Lisboa",Artigo 258.º do Código dos Contratos Públicos,,,,,,Não aplicável.,Não aplicável.,FALSE
AQ100386 Aquisição Medicamentos Inovadores Tratamento Hepatite 2016,Ajuste Direto Regime Geral,Aquisição de bens móveis,"33620000-2, Medicamentos para o sangue, para os órgãos hematopoiéticos e para o aparelho cardiovascular","Centro Hospitalar de Lisboa Ocidental, E. P. E. (507618319)","Gilead Sciences, Lda (503604704)","621.478,62 €",11-04-2016,04-02-2016,2016 dias,"Portugal, Lisboa",Artigo 258.º do Código dos Contratos Públicos,,,,,,Não aplicável.,Não aplicável.,FALSE
AQ100376 Aquisição de Medicamentos Inovadores Tratamento Hepatite - 2016,Ajuste Direto Regime Geral,Aquisição de bens móveis,"33620000-2, Medicamentos para o sangue, para os órgãos hematopoiéticos e para o aparelho cardiovascular","Centro Hospitalar de Lisboa Ocidental, E. P. E. (507618319)","Gilead Sciences, Lda (503604704)","410.635,47 €",11-04-2016,28-01-2016,2016 dias,"Portugal, Lisboa",Artigo 258.º do Código dos Contratos Públicos,,,,,,Não aplicável.,Não aplicável.,FALSE
AQ100366 aquisição medicamentos inovadores tratamento hepatite 2016,Ajuste Direto Regime Geral,Aquisição de bens móveis,"33620000-2, Medicamentos para o sangue, para os órgãos hematopoiéticos e para o aparelho cardiovascular","Centro Hospitalar de Lisboa Ocidental, E. P. E. (507618319)","gilead sciences, lda (503604704)","184.735,32 €",11-04-2016,20-01-2016,2016 dias,"Portugal, Lisboa",Artigo 258.º do Código dos Contratos Públicos,,,,,,Não aplicável.,Não aplicável.,FALSE
AD107685 Aquisição de Medicamentos Inovadores para Tratamento Hepatite,Ajuste Direto Regime Geral,Aquisição de bens móveis,"33620000-2, Medicamentos para o sangue, para os órgãos hematopoiéticos e para o aparelho cardiovascular","Centro Hospitalar de Lisboa Ocidental, EPE (CHLO) (507618319)","GLEAD SCIENCES, LDA (503604704)","544.167,96 €",11-04-2016,28-07-2015,2015 dias,Portugal,"Artigo 24.º, n.º 1, alínea c) do Código dos Contratos Públicos",,,,,,Não aplicável.,Não aplicável.,FALSE
Alimentação do Chiller do BO/HSC desde o QGBT,Ajuste Direto Regime Geral,Aquisição de serviços,"51110000-6, Serviços de instalação de equipamento eléctrico","Centro Hospitalar de Lisboa Ocidental, EPE (CHLO) (507618319)",Constarte - Construções SA (500072221),"8.760,00 €",08-04-2016,08-04-2016,15 dias,"Portugal, Lisboa, Oeiras","Artigo 20.º, n.º 1, alínea a) do Código dos Contratos Públicos",,,,,,Não aplicável.,Não aplicável.,FALSE
Aquisição de Sistemas de Pacemakers,Ao abrigo de acordo-quadro (art.º 259.º),Aquisição de bens móveis,"33000000-0, Equipamento médico, medicamentos e produtos para cuidados pessoais","Centro Hospitalar de Lisboa Ocidental, E. P. E. (507618319)",St. Jude Medical (504180746),"734.732,00 €",07-04-2016,30-03-2016,365 dias,"Portugal, Lisboa, Lisboa",Artigo 259.º do Código dos Contratos Públicos,,,,,,600105,"CONCURSO PÚBLICO PARA A CELEBRAÇÃO DE CONTRATOS PÚBLICOS DE APROVISIONAMENTO PARA A ÁREA DA SAÚDE, COM VISTA AO FORNECIMENTO SISTEMAS DE PACEMAKERS ÀS INSTITUIÇÕES E SERVIÇOS DO SERVIÇO NACIONAL DE SAÚDE",FALSE
Fornecimento e montagem de sistema de deteção de incêndios do refeitório/bar do piso 0 do HSFX,Ajuste Direto Regime Geral,Aquisição de serviços,"51000000-9, Serviços de instalação (excepto software)","Centro Hospitalar de Lisboa Ocidental, E. P. E. (507618319)","PREVINCÊNDIO, LDA (503568333)","14.995,21 €",06-04-2016,18-03-2016,30 dias,"Portugal, Lisboa, Lisboa","Artigo 20.º, n.º 1, alínea a) do Código dos Contratos Públicos",,,,,,Não aplicável.,Não aplicável.,FALSE
REMODELAÇÃO DA COBERTURA DA CAFETARIA EXTERIOR DO HSFX – CONSTRUÇÃO CIVIL,Ajuste Direto Regime Geral,Empreitadas de obras públicas,"45200000-9, Obras de construção total ou parcial e de engenharia civil","Centro Hospitalar de Lisboa Ocidental, EPE (CHLO) (507618319)","Pentaláxia, Lda (510363245)","84.740,00 €",06-04-2016,08-03-2016,90 dias,"Portugal, Lisboa, Lisboa","Artigo 19.º, alínea a) do Código dos Contratos Públicos",,,,,,Não aplicável.,Não aplicável.,FALSE
AQUISIÇÃO DE SERVIÇOS DE MANUTENÇÃO E ASSISTÊNCIA TÉCNICA A CÂMARAS DE FLUXO LAMINAR E HOTTES DO CHLO,Ajuste Direto Regime Geral,Aquisição de serviços,"50800000-3, Serviços de reparação e manutenção diversos","Centro Hospitalar de Lisboa Ocidental, EPE (CHLO) (507618319)","Tradelabor, Lda (503069442)","5.500,00 €",06-04-2016,04-04-2016,271 dias,"Portugal, Lisboa, Lisboa","Artigo 20.º, n.º 1, alínea a) do Código dos Contratos Públicos",,,,,,Não aplicável.,Não aplicável.,FALSE
AQUISIÇÃO DE MESA CIRURGICA PARA BO HSFX CIRURGIA GERAL,Ajuste Direto Regime Geral,Aquisição de bens móveis,"33100000-1, Equipamento médico","Centro Hospitalar de Lisboa Ocidental, EPE (CHLO) (507618319)",Lineamedica (505148676),"20.885,00 €",05-04-2016,07-03-2016,2 dias,"Portugal, Lisboa, Lisboa","Artigo 20.º, n.º 1, alínea a) do Código dos Contratos Públicos",,,,,,Não aplicável.,Não aplicável.,FALSE
"PRESTAÇÃO DE SERVIÇOS DE SUPORTE E MANUTENÇÃO DA REDE DE DADOS DO CHLO, EPE PARA O ANO DE 2016 ",Ajuste Direto Regime Geral,Aquisição de serviços,"50800000-3, Serviços de reparação e manutenção diversos","Centro Hospitalar de Lisboa Ocidental, EPE (CHLO) (507618319)","Convex, Lda (502145838)","15.750,00 €",04-04-2016,01-03-2016,306 dias,"Portugal, Lisboa, Oeiras<BR/>Portugal, Lisboa, Lisboa","Artigo 20.º, n.º 1, alínea a) do Código dos Contratos Públicos",,,,,,Não aplicável.,Não aplicável.,FALSE
Serviços de manutenção do software SISCONT instalado no CHLO NO ANO DE 2016,Ajuste Direto Regime Geral,Aquisição de serviços,"72000000-5, Serviços de TI: consultoria, desenvolvimento de software, Internet e apoio","Centro Hospitalar de Lisboa Ocidental, E. P. E. (507618319)",SISBIT (502195576),"7.858,13 €",01-04-2016,07-03-2016,365 dias,"Portugal, Lisboa, Lisboa","Artigo 24.º, n.º 1, alínea e) do Código dos Contratos Públicos",,,,,,Não aplicável.,Não aplicável.,FALSE
AQUISIÇAO DE SERVIÇOS DE CONCEPÇÃO DO NOVO SISTEMA LOGÍSTICO CENTRALIZADO DO CHLO,Ajuste Direto Regime Geral,Aquisição de serviços,"72224000-1, Serviços de consultoria em gestão de projectos","Centro Hospitalar de Lisboa Ocidental, EPE (CHLO) (507618319)","Logistema, Consultores de Logistica SA (502945540)","74.787,50 €",01-04-2016,17-03-2016,240 dias,"Portugal, Lisboa, Lisboa","Artigo 20.º, n.º 1, alínea a) do Código dos Contratos Públicos",,,,,,Não aplicável.,Não aplicável.,FALSE
"Reparação do Elevador nº 4, do HEM, CHLO",Ajuste Direto Regime Geral,Aquisição de serviços,"50000000-5, Serviços de reparação e manutenção","Centro Hospitalar de Lisboa Ocidental, E. P. E. (507618319)","Grupnor, Lda (500959579)","6.435,56 €",01-04-2016,28-03-2016,15 dias,"Portugal, Lisboa, Lisboa","Artigo 24.º, n.º 1, alínea e) do Código dos Contratos Públicos",,,,,,Não aplicável.,Não aplicável.,FALSE
