Objeto do Contrato,Tipo de Procedimento,Tipo(s) de Contrato,CPVs,Entidade(s) Adjudicante(s),Entidade(s) Adjudicatária(s),Preço Contratual,Data de Publicação,Data de Celebração do Contrato,Prazo de Execução,Local de Execução,Fundamentação,Data de Fecho do Contrato,Preço Total Efetivo,Causas das Alterações ao Prazo,Causas das Alterações ao Preço,Estado,N.º registo do Acordo Quadro,Descrição do Acordo Quadro,Procedimento Centralizado
Aquisição de sofosbuvir 400 mg cp,Ajuste Direto Regime Geral,Aquisição de bens móveis,"33690000-3, Medicamentos vários","Instituto Português de Oncologia de Lisboa Francisco Gentil, E. P. E. (506361616)",GILEAD SCIENCES LDA (503604704),"41.164,83 €",31-07-2015,09-07-2015,2 dias,"Portugal, Lisboa, Lisboa","Artigo 24.º, n.º 1, alínea e) do Código dos Contratos Públicos",,,,,,Não aplicável.,Não aplicável.,FALSE
Contrato assistência tércnica,Ajuste Direto Regime Geral,Aquisição de serviços,"50400000-9, Serviços de reparação e manutenção de equipamento médico e de precisão","Instituto Português de Oncologia de Lisboa FG, E.P.E. (506361616)",SLIDELOG (506385876),"3.355,00 €",31-07-2015,08-04-2015,365 dias,"Portugal, Lisboa, Lisboa","Artigo 24.º, n.º 1, alínea e) do Código dos Contratos Públicos",,,,,,Não aplicável.,Não aplicável.,FALSE
Diverso equipamento para determinação da asparaginase em doentes com  LLA,Ajuste Direto Regime Geral,Aquisição de bens móveis,"38300000-8, Instrumentos de medição","Instituto Português de Oncologia de Lisboa FG, E.P.E. (506361616)",WWR INTERNATIONAL-MATERIAL DE LABORATÓRIO LDA (503842770),"3.949,61 €",31-07-2015,12-05-2015,20 dias,"Portugal, Lisboa, Lisboa","Artigo 20.º, n.º 1, alínea a) do Código dos Contratos Públicos",,,,,,Não aplicável.,Não aplicável.,FALSE
