Objeto do Contrato,Tipo de Procedimento,Tipo(s) de Contrato,CPVs,Entidade(s) Adjudicante(s),Entidade(s) Adjudicatária(s),Preço Contratual,Data de Publicação,Data de Celebração do Contrato,Prazo de Execução,Local de Execução,Fundamentação,Data de Fecho do Contrato,Preço Total Efetivo,Causas das Alterações ao Prazo,Causas das Alterações ao Preço,Estado,N.º registo do Acordo Quadro,Descrição do Acordo Quadro,Procedimento Centralizado
Aquisição do Serviço de Reparação/substituição do tampo de mesa do Angiografo,Ajuste Direto Regime Geral,Aquisição de serviços,"50421000-2, Serviços de reparação e manutenção de equipamento médico","Hospital Professor Doutor Fernando Fonseca, E. P. E. (503035416)",GENERAL ELECTRIC PORTUGUESA SA (500357129),"12.009,28 €",18-01-2018,29-12-2017,1 dias,"Portugal, Lisboa, Amadora","Artigo 24.º, n.º 1, alínea c) do Código dos Contratos Públicos",,,,,,Não aplicável.,Não aplicável.,FALSE
Aquisição de Lentes Intraoculares Pequena Incisão em Monobloco e Lentes Intraoculares de Câmara Posterior de Três Peças - até 31 de dezembro de 2017,Ajuste Direto Regime Geral,Aquisição de bens móveis,"33731110-7, Lentes intraoculares","Hospital Professor Doutor Fernando Fonseca, E. P. E. (503035416)",ABBOTT MEDICAL OPTICS SPAIN SL SUCURSAL EM PORTUGAL  (980262364),"25.800,00 €",18-01-2018,12-12-2017,180 dias,"Portugal, Lisboa, Amadora","Artigo 20.º, n.º 1, alínea a) do Código dos Contratos Públicos",,,,,,Não aplicável.,Não aplicável.,FALSE
Contrato de Manutenção referente à infraestrutura física do DATACENTER - 2018,Ajuste Direto Regime Geral,Aquisição de serviços,"72212900-8, Serviços de desenvolvimento de software e sistemas informáticos diversos",Hospital Prof. Doutor Fernando Fonseca E.P.E. (503035416),"MAXIGLOBAL, SA (504320882)","7.300,00 €",16-01-2018,16-01-2018,365 dias,"Portugal, Lisboa, Amadora","Artigo 20.º, n.º 1, alínea a) do Código dos Contratos Públicos",,,,,,Não aplicável.,Não aplicável.,FALSE
Cateteres intravasculares coronários com luz para o Laboratório de Hemodinâmica,Ajuste Direto Regime Geral,Aquisição de bens móveis,"33698000-9, Produtos para fins clínicos","Hospital Professor Doutor Fernando Fonseca, E. P. E. (503035416)",ST JUDE MEDICAL PORTUGA (504180746),"5.225,00 €",15-01-2018,23-11-2017,38 dias,"Portugal, Lisboa, Amadora","Artigo 24.º, n.º 1, alínea e) do Código dos Contratos Públicos",,,,,,Não aplicável.,Não aplicável.,FALSE
Pacemaker,Ajuste Direto Regime Geral,Aquisição de bens móveis,"33182210-4, Estimulador cardíaco (pacemaker)","Hospital Professor Doutor Fernando Fonseca, E. P. E. (503035416)",ST JUDE MEDICAL PORTUGA (504180746),"61.200,00 €",15-01-2018,03-01-2018,178 dias,"Portugal, Lisboa, Amadora","Artigo 24.º, n.º 1, alínea c) do Código dos Contratos Públicos",,,,,,Não aplicável.,Não aplicável.,FALSE
Cateteres intravasculares coronários com luz,Ajuste Direto Regime Geral,Aquisição de bens móveis,"33698000-9, Produtos para fins clínicos","Hospital Professor Doutor Fernando Fonseca, E. P. E. (503035416)",ST JUDE MEDICAL PORTUGAL (504180746),"19.000,00 €",15-01-2018,03-01-2018,362 dias,"Portugal, Lisboa, Amadora","Artigo 24.º, n.º 1, alínea c) do Código dos Contratos Públicos",,,,,,Não aplicável.,Não aplicável.,FALSE
Sistemas de Aterectomia Rotacional,Ajuste Direto Regime Geral,Aquisição de bens móveis,"33698000-9, Produtos para fins clínicos",Hospital Prof. Doutor Fernando Fonseca E.P.E. (503035416),"BOSTON SCIENTIFIC PORTUGAL - DISPOSITIVOS MEDICOS, LDA (504988964)","39.800,00 €",15-01-2018,02-01-2018,363 dias,"Portugal, Lisboa, Amadora","Artigo 24.º, n.º 1, alínea e) do Código dos Contratos Públicos",,,,,,Não aplicável.,Não aplicável.,FALSE
