Objeto do Contrato,Tipo de Procedimento,Tipo(s) de Contrato,CPVs,Entidade(s) Adjudicante(s),Entidade(s) Adjudicatária(s),Preço Contratual,Data de Publicação,Data de Celebração do Contrato,Prazo de Execução,Local de Execução,Fundamentação,Data de Fecho do Contrato,Preço Total Efetivo,Causas das Alterações ao Prazo,Causas das Alterações ao Preço,Estado,N.º registo do Acordo Quadro,Descrição do Acordo Quadro,Procedimento Centralizado
"Aquisição de Material de Consumo Clínico - Luvas de Nitrilo"""" para os armazéns do IPST, IP., durante o ano 2013.",Ajuste Direto Regime Geral,Aquisição de bens móveis,"33140000-3, Material médico de consumo","Instituto Português do Sangue e da Transplantação, I. P. (502423943)","Medinália Cormédica - Com. de Prod. Médicos Hospitalares, Ldª (500684324)","5.869,60 €",24-09-2013,18-09-2013,104 dias,"Portugal, Lisboa, Lisboa<BR/>Portugal, Coimbra, Coimbra<BR/>Portugal, Porto, Porto","Artigo 20.º, n.º 1, alínea a) do Código dos Contratos Públicos",,,,,,Não aplicável.,Não aplicável.,
Aquisição de Mat. Comns. Clínico - Sacos para Colheita de Sangue,Concurso público,Aquisição de bens móveis,"33141613-0, Sacos para sangue","Instituto Português do Sangue e da Transplantação, I. P. (502423943)","Menarini Diagnosticos, Ldª (502610069)","2.597.900,00 €",21-09-2013,25-02-2013,225 dias,"Portugal, Coimbra, Coimbra<BR/>Portugal, Lisboa, Lisboa<BR/>Portugal, Porto, Porto","Artigo 20.º, n.º 1, alínea b) do Código dos Contratos Públicos",,,,,,Não aplicável.,Não aplicável.,
"Aquisição de Mat. Consumo Clínico - Lâminas para Conexão Estéril de Tubuladuras, durante o ano 2013.",Concurso público,Aquisição de bens móveis,"33141000-0, Material médico não químico descartável e produtos hematológicos","Instituto Português do Sangue e da Transplantação, I. P. (502423943)",Terumo BCT Europe NV - Sucursal em Espanha (W-0021849E),"667.436,00 €",21-09-2013,05-04-2013,271 dias,"Portugal, Porto, Porto<BR/>Portugal, Lisboa, Lisboa<BR/>Portugal, Coimbra, Coimbra","Artigo 20.º, n.º 1, alínea b) do Código dos Contratos Públicos",,,,,,Não aplicável.,Não aplicável.,
"Aquisição de Mat. Cons. Clínico - Kit para Pools de Plaquetas, durante o ano 2013.",Concurso público,Aquisição de bens móveis,"33141500-5, Produtos hematológicos","Instituto Português do Sangue e da Transplantação, I. P. (502423943)",Terumo BCT Europe - Sucursal em Espanha (W-0021849E),"2.465.000,00 €",21-09-2013,03-04-2013,273 dias,"Portugal, Lisboa, Lisboa<BR/>Portugal, Coimbra, Coimbra","Artigo 20.º, n.º 1, alínea b) do Código dos Contratos Públicos",,,,,,Não aplicável.,Não aplicável.,
"Aquisição de Mat. Consumo Clínico - Solução Aditiva p/Plaquetas, durante o ano 2013",Concurso público,Aquisição de bens móveis,"33141500-5, Produtos hematológicos","Instituto Português do Sangue e da Transplantação, I. P. (502423943)","Fenwal Europe, SPRL (980362679)","167.458,08 €",21-09-2013,05-03-2013,300 dias,"Portugal, Coimbra, Coimbra<BR/>Portugal, Lisboa, Lisboa","Artigo 20.º, n.º 1, alínea b) do Código dos Contratos Públicos",,,,,,Não aplicável.,Não aplicável.,
"Aquisição de Material de Consumo Clínico p/Colheitas por Aférese, durante o ano 2013.",Concurso público,Aquisição de bens móveis,"33141500-5, Produtos hematológicos","Instituto Português do Sangue e da Transplantação, I. P. (502423943)","DLA Farmacêutica, SA (503894427)","11.723,60 €",21-09-2013,05-03-2013,300 dias,"Portugal, Porto, Porto<BR/>Portugal, Lisboa, Lisboa<BR/>Portugal, Coimbra, Coimbra","Artigo 20.º, n.º 1, alínea b) do Código dos Contratos Públicos",,,,,,Não aplicável.,Não aplicável.,
"Aquisição de Material de Consumo Clínico p/ Colheitas por Aférese, durante o ano 2013",Concurso público,Aquisição de bens móveis,"33141500-5, Produtos hematológicos","Instituto Português do Sangue e da Transplantação, I. P. (502423943)",Fenwal Europe SPRL (980362679),"172.996,80 €",21-09-2013,05-03-2013,300 dias,"Portugal, Porto, Porto<BR/>Portugal, Coimbra, Coimbra<BR/>Portugal, Lisboa, Lisboa","Artigo 20.º, n.º 1, alínea b) do Código dos Contratos Públicos",,,,,,Não aplicável.,Não aplicável.,
