Objeto do Contrato,Tipo de Procedimento,Tipo(s) de Contrato,CPVs,Entidade(s) Adjudicante(s),Entidade(s) Adjudicatária(s),Preço Contratual,Data de Publicação,Data de Celebração do Contrato,Prazo de Execução,Local de Execução,Fundamentação,Data de Fecho do Contrato,Preço Total Efetivo,Causas das Alterações ao Prazo,Causas das Alterações ao Preço,Estado,N.º registo do Acordo Quadro,Descrição do Acordo Quadro,Procedimento Centralizado
Material de Intervenção P/ Hemodinâmica e Cardiologia de Intervenção,Concurso público,Locação de bens móveis,"33182200-1, Aparelhos para estimulação cardíaca","Centro Hospitalar do Algarve, E. P. E. (510745997)","ENDOVASCULAR,LDA. (505537494)","6.000,00 €",19-02-2014,22-01-2014,315 dias,"Portugal, Faro, Faro","Artigo 20.º, n.º 1, alínea b) do Código dos Contratos Públicos",,,,,,Não aplicável.,Não aplicável.,FALSE
Material de Intervenção p/ Hemodinâmica e Cardiologia de Intervenção,Concurso público,Locação de bens móveis,"33182000-9, Material de assistência à função cardíaca","Centro Hospitalar do Algarve, E. P. E. (510745997)",SOCIME MEDICAL (504453939),"7.200,00 €",19-02-2014,22-01-2014,315 dias,"Portugal, Faro, Faro","Artigo 20.º, n.º 1, alínea b) do Código dos Contratos Públicos",,,,,,Não aplicável.,Não aplicável.,FALSE
Material de Intervenção p/ Hemodinâmica e Cardiologia de Intervenção,Concurso público,Locação de bens móveis,"33182200-1, Aparelhos para estimulação cardíaca","Centro Hospitalar do Algarve, E. P. E. (510745997)","MEDTRONIC PORTUGAL, LDA. (504223933)","12.600,00 €",19-02-2014,22-01-2014,315 dias,"Portugal, Faro, Faro","Artigo 20.º, n.º 1, alínea b) do Código dos Contratos Públicos",,,,,,Não aplicável.,Não aplicável.,FALSE
Material de Intervenção P/ Hemodinamica e Cardiologia de Intervenção,Concurso público,Locação de bens móveis,"33182200-1, Aparelhos para estimulação cardíaca","Centro Hospitalar do Algarve, E. P. E. (510745997)","Abbott Laboratórios, Lda. (500006148)","3.500,00 €",19-02-2014,22-01-2014,315 dias,"Portugal, Faro, Faro","Artigo 20.º, n.º 1, alínea b) do Código dos Contratos Públicos",,,,,,Não aplicável.,Não aplicável.,FALSE
Material de Intervenção Para Hemodinâmica e Cardiologia de Intervenção,Concurso público,Locação de bens móveis,"33182000-9, Material de assistência à função cardíaca","Centro Hospitalar do Algarve, E. P. E. (510745997)","MEDICINALIA - CORMEDICA,LDA. (500684324)","2.475,00 €",19-02-2014,22-01-2014,315 dias,"Portugal, Faro, Faro","Artigo 20.º, n.º 1, alínea b) do Código dos Contratos Públicos",,,,,,Não aplicável.,Não aplicável.,FALSE
Material de Intervenção para Hemodinânica e Cardiologia de Intervenção,Concurso público,Locação de bens móveis,"33182200-1, Aparelhos para estimulação cardíaca","Centro Hospitalar do Algarve, E. P. E. (510745997)",MEDICAL VALUE S.A. (509776531),"57.500,00 €",19-02-2014,31-01-2014,315 dias,"Portugal, Faro, Faro","Artigo 20.º, n.º 1, alínea b) do Código dos Contratos Públicos",,,,,,Não aplicável.,Não aplicável.,FALSE
Material de Intervenção para Hemodinâmica e Cardiologia de Intervenção,Concurso público,Locação de bens móveis,"33182000-9, Material de assistência à função cardíaca","Centro Hospitalar do Algarve, E. P. E. (510745997)",TERUMO EUROPE ESPANHA SL (980472024),"76.800,00 €",19-02-2014,31-01-2014,315 dias,"Portugal, Faro, Faro","Artigo 20.º, n.º 1, alínea b) do Código dos Contratos Públicos",,,,,,Não aplicável.,Não aplicável.,FALSE
"Prestação de Serviços de Manutenção e Assistência Técnica aos Equipamentos de Aquecimento, Ventilação e Ar Condicionado (AVAC), Instalações Frigoríficas e Outros. - Unidade de Faro",Ajuste Direto Regime Geral,Aquisição de serviços,"50000000-5, Serviços de reparação e manutenção","Centro Hospitalar do Algarve, E. P. E. (510745997)","TECNOSPIE, SA (500205698)","33.720,36 €",14-02-2014,13-02-2014,120 dias,"Portugal, Faro, Faro","Artigo 24.º, n.º 1, alínea c) do Código dos Contratos Públicos",,,,,,Não aplicável.,Não aplicável.,FALSE
Prestação de Serviços de Segurança e Vigilância - Unidade de Faro,Ajuste Direto Regime Geral,Aquisição de serviços,"79710000-4, Serviços de segurança","Centro Hospitalar do Algarve, E. P. E. (510745997)",Ronsegur - Rondas e Segurança Lda (507011724),"61.568,00 €",13-02-2014,13-02-2014,59 dias,"Portugal, Faro, Faro","Artigo 24.º, n.º 1, alínea c) do Código dos Contratos Públicos",,,,,,Não aplicável.,Não aplicável.,FALSE
Prestação de Serviços de Limpeza - Unidade de Faro,Ajuste Direto Regime Geral,Aquisição de serviços,"90910000-9, Serviços de limpeza","Centro Hospitalar do Algarve, E. P. E. (510745997)",CLECE SA - Sucursal em Portugal (980359759),"80.880,00 €",13-02-2014,13-02-2014,120 dias,"Portugal, Faro, Faro","Artigo 24.º, n.º 1, alínea c) do Código dos Contratos Públicos",,,,,,Não aplicável.,Não aplicável.,FALSE
"Prestação de Serviços de Manutenção das Instalações do Centro Hospitalar do Algarve, E.P.E",Ajuste Direto Regime Geral,Aquisição de serviços,"50000000-5, Serviços de reparação e manutenção","Centro Hospitalar do Algarve, E. P. E. (510745997)","Acciona Facility Services, SA (503431397)","74.608,04 €",13-02-2014,13-02-2014,120 dias,"Portugal, Faro, Faro","Artigo 24.º, n.º 1, alínea c) do Código dos Contratos Públicos",,,,,,Não aplicável.,Não aplicável.,FALSE
CAT às Unidades Portáteis de Osmose Inversa,Ajuste Direto Regime Geral,Aquisição de serviços,"50800000-3, Serviços de reparação e manutenção diversos","Centro Hospitalar do Algarve, E. P. E. (510745997)","FRESENIUS MEDICAL CARE, S.A.. (503070220)","5.316,00 €",13-02-2014,30-01-2014,335 dias,"Portugal, Faro, Faro","Artigo 24.º, n.º 1, alínea e) do Código dos Contratos Públicos",,,,,,Não aplicável.,Não aplicável.,FALSE
BOLETIM IND. SAUDE CARTAO REGISTO VACINACAO MOD.1553 BOLETIM SAUDE INFANTIL JUVENIL-COR-AZUL MOD.1397 BOLETIM SAUDE INFANTIL JUVENIL-COR-ROSA MOD.1396 IMP. BOLETIM ITENERARIO MOD. INCM 683 LIVRO RECLAMACES MOD INCM 1426 (AMARELO) LIVRO DE ESTUPEFACIENTES MOD. 1509 ANEXO X,Ajuste Direto Regime Geral,Aquisição de bens móveis,"22000000-0, Material impresso e afins","Centro Hospitalar do Algarve, E. P. E. (510745997)","IMPR.NACIONAL-CASA DA MOEDA,EP (500792887)","10.796,21 €",13-02-2014,27-01-2014,2 dias,"Portugal, Faro, Portimão<BR/>Portugal, Faro, Faro<BR/>Portugal, Faro, Lagos","Artigo 24.º, n.º 1, alínea e) do Código dos Contratos Públicos",,,,,,Não aplicável.,Não aplicável.,FALSE
HEMODERIVADOS MOD.1804  -ARS,Ajuste Direto Regime Geral,Aquisição de bens móveis,"22000000-0, Material impresso e afins","Centro Hospitalar do Algarve, E. P. E. (510745997)","A.R.S. ALGARVE, I.P. (503148709)","561,15 €",13-02-2014,27-01-2014,2 dias,"Portugal, Faro, Portimão","Artigo 24.º, n.º 1, alínea e) do Código dos Contratos Públicos",,,,,,Não aplicável.,Não aplicável.,FALSE
ENDOPROTESE VASCULAR - STENTS SEM FARMACO  ENDOPROTESE VASCULAR - STENTS COM FARMACO,Ao abrigo de acordo-quadro (art.º 259.º),Aquisição de bens móveis,"33140000-3, Material médico de consumo","Centro Hospitalar do Algarve, E. P. E. (510745997)",MEDICAL VALUE S.A. (509776531),"274.550,00 €",13-02-2014,03-02-2014,321 dias,"Portugal, Faro, Faro",Artigo 259.º do Código dos Contratos Públicos,,,,,,602205,"CONCURSO PÚBLICO PARA A CELEBRAÇÃO DE CONTRATOS PÚBLICOS DE APROVISIONAMENTO PARA A ÁREA DA SAÚDE, COM VISTA AO FORNECIMENTO SISTEMAS DE STENTS CORONÁRIOS ÀS INSTITUIÇÕES E SERVIÇOS DO SERVIÇO NACIONAL DE SAÚDE",FALSE
Prestação Serviços Ressonância Magnética (Agosto a Dezembro de 2013),Ajuste Direto Regime Geral,Aquisição de serviços,"85000000-9, Serviços de saúde e acção social","Centro Hospitalar do Algarve, E. P. E. (510745997)",GS24 - Healthcare Solutions - SA (507824652),"194.200,00 €",12-02-2014,31-12-2013,153 dias,"Portugal, Faro, Faro","Artigo 24.º, n.º 1, alínea c) do Código dos Contratos Públicos",,,,,,Não aplicável.,Não aplicável.,FALSE
Prestação de Serviços de Seguro Acidente de Trabalho - Unidades de Portimão e Lagos,Ajuste Direto Regime Geral,Aquisição de serviços,"66510000-8, Serviços de seguros","Centro Hospitalar do Algarve, E. P. E. (510745997)",Companhia Seguros Tranquilidade (500940231),"16.060,72 €",12-02-2014,21-01-2014,59 dias,"Portugal, Faro, Portimão<BR/>Portugal, Faro, Lagos","Artigo 20.º, n.º 1, alínea a) do Código dos Contratos Públicos",,,,,,Não aplicável.,Não aplicável.,FALSE
Implementação / acompanhamento do Serviço de Benchmarking On-Line - AD382/11,Ajuste Direto Regime Geral,Aquisição de serviços,"85000000-9, Serviços de saúde e acção social","Centro Hospitalar do Algarve, E. P. E. (510745997)",IASIST (508052971),"26.220,00 €",12-02-2014,13-01-2014,2 dias,"Portugal, Faro, Faro","Artigo 20.º, n.º 1, alínea a) do Código dos Contratos Públicos",,,,,,Não aplicável.,Não aplicável.,FALSE
Prestação de Serviços de Seguro Acidente de Trabalho - Unidade de Faro,Ajuste Direto Regime Geral,Aquisição de serviços,"66510000-8, Serviços de seguros","Centro Hospitalar do Algarve, E. P. E. (510745997)",Companhia de Seguros Allianz Portugal (115084150),"27.922,00 €",12-02-2014,21-01-2014,59 dias,"Portugal, Faro, Faro","Artigo 20.º, n.º 1, alínea a) do Código dos Contratos Públicos",,,,,,Não aplicável.,Não aplicável.,FALSE
