Objeto do Contrato,Tipo de Procedimento,Tipo(s) de Contrato,CPVs,Entidade(s) Adjudicante(s),Entidade(s) Adjudicatária(s),Preço Contratual,Data de Publicação,Data de Celebração do Contrato,Prazo de Execução,Local de Execução,Fundamentação,Data de Fecho do Contrato,Preço Total Efetivo,Causas das Alterações ao Prazo,Causas das Alterações ao Preço,Estado,N.º registo do Acordo Quadro,Descrição do Acordo Quadro,Procedimento Centralizado
Cladribina 10 mg comp.,Ajuste Direto Regime Geral,Aquisição de bens móveis,"33600000-6, Produtos farmacêuticos","Centro Hospitalar de Setúbal, E. P. E. (507606787)",MERCK  S.A. (500650870),"21.345,00 €",28-11-2018,08-11-2018,53 dias,"Portugal, Setúbal, Setúbal","Artigo 24.º, n.º 1, alínea e), subalínea iii) do Código dos Contratos Públicos",,,,,,Não aplicável.,Não aplicável.,FALSE
"Copos, colheres e palhinhas para o ano de 2019",Consulta Prévia,Aquisição de bens móveis,"33000000-0, Equipamento médico, medicamentos e produtos para cuidados pessoais","Centro Hospitalar de Setúbal, E. P. E. (507606787)","João Antunes Amaro, Lda (500149003)","6.676,00 €",28-11-2018,27-11-2018,365 dias,"Portugal, Setúbal, Setúbal","Artigo 20.º, n.º 1, alínea c) do Código dos Contratos Públicos",,,,,,Não aplicável.,Não aplicável.,FALSE
LENALIDOMIDA 5 MG CÁPS,Ajuste Direto Regime Geral,Aquisição de bens móveis,"33600000-6, Produtos farmacêuticos","Centro Hospitalar de Setúbal, E. P. E. (507606787)","CELGENE SOCIEDADE UNIPESSOAL, LDA (507791690)","8.905,86 €",26-11-2018,20-11-2018,15 dias,"Portugal, Setúbal, Setúbal","Artigo 20.º, n.º 1, alínea d) do Código dos Contratos Públicos",,,,,,Não aplicável.,Não aplicável.,FALSE
EMTRICITABINA 200 MG + TENOFOVIR ALAFENAMIDA 10 MG COMP,Ao abrigo de acordo-quadro (art.º 259.º),Aquisição de bens móveis,"33600000-6, Produtos farmacêuticos","Centro Hospitalar de Setúbal, E. P. E. (507606787)","GILEAD SCIENCES, LDA. (503604704)","6.948,12 €",26-11-2018,13-11-2018,15 dias,"Portugal, Setúbal, Setúbal",Artigo 259.º do Código dos Contratos Públicos,,,,,,2545980,CP 2017/61 - Acordo quadro para fornecimento de Medicamentos Diversos   às Instituições e Serviços do Serviço Nacional de Saúde,FALSE
BORTEZOMIB 3.5 MG PÓ SOL INJ FR FILGRASTRIM (G-CSF) 30MUI /0.5 SOL INJ SER .5ML IV/SC POLIURETANO c/ silicone +PRATA+CARVÃO PENSO 10X10 s/rebordo,Ao abrigo de acordo-quadro (art.º 259.º),Aquisição de bens móveis,"33600000-6, Produtos farmacêuticos","Centro Hospitalar de Setúbal, E. P. E. (507606787)","JANSSEN CILAG FARMACEUTICA (500189412), AMGEN BIOFARMACÊUTICA, LDA. (502942959), Molnlycke Heath Care, Lda. (511101066)","9.752,04 €",26-11-2018,13-11-2018,15 dias,"Portugal, Setúbal, Setúbal",Artigo 259.º do Código dos Contratos Públicos,,,,,,2969238,"CP 2017/6 - Acordo Quadro para fornecimento de Medicamentos do Foro Oncológico e Imunomoduladores, às Instituições e Serviços do Serviço Nacional de Saúde",FALSE
PERTUZUMAB 420 MG/14 ML IV Sugamadex 100 mg/ml Sol inj Fr 2 ml IV,Ao abrigo de acordo-quadro (art.º 259.º),Aquisição de bens móveis,"33600000-6, Produtos farmacêuticos","Centro Hospitalar de Setúbal, E. P. E. (507606787)","ROCHE FARMACEUTICA QUIMICA LDA (500233810), Merck Sharp & Dohme, Lda. (500191360)","30.588,34 €",26-11-2018,15-11-2018,15 dias,"Portugal, Setúbal, Setúbal",Artigo 259.º do Código dos Contratos Públicos,,,,,,2969238,"CP 2017/6 - Acordo Quadro para fornecimento de Medicamentos do Foro Oncológico e Imunomoduladores, às Instituições e Serviços do Serviço Nacional de Saúde",FALSE
Entecavir 0.5 mg Comp Rilpivirina 25 mg Comp TENOFOVIR 245 MG + ENTRICITABINA 200 MG CAP/COMP DOLUTEGRAVIR 50 MG COMP. Maraviroc 300 mg Comp Emtricitabina 200 mg + Tenofovir alafenamida 25 mg Comp,Ao abrigo de acordo-quadro (art.º 259.º),Aquisição de bens móveis,"33600000-6, Produtos farmacêuticos","Centro Hospitalar de Setúbal, E. P. E. (507606787)","JANSSEN CILAG FARMACEUTICA (500189412), VIIVVHIV Healthcare Unipessoal Lda (509117961), BRISTOL-MYERS SQUIBB FARMACÊUTICA PORTUGUESA, S.A. (500048193), GILEAD SCIENCES, LDA (503604704), TEVA PHARMA - PRODUTOS FARMACEUTICOS,LDA (507045491)","63.196,91 €",26-11-2018,31-10-2018,15 dias,"Portugal, Setúbal, Setúbal",Artigo 259.º do Código dos Contratos Públicos,,,,,,2545980,CP 2017/61 - Acordo quadro para fornecimento de Medicamentos Diversos   às Instituições e Serviços do Serviço Nacional de Saúde,FALSE
Broncovideoscópio e videoprocessador de alta definição,Ajuste Direto Regime Geral,Aquisição de bens móveis,"33000000-0, Equipamento médico, medicamentos e produtos para cuidados pessoais","Centro Hospitalar de Setúbal, E. P. E. (507606787)",Sistemas Integrales de La Medicina SA - Sucursal em Portugal (980488842),"25.245,00 €",24-11-2018,13-11-2018,30 dias,"Portugal, Setúbal, Setúbal","Artigo 26.º, n.º 1, alínea a) do Código dos Contratos Públicos",,,,,,Não aplicável.,Não aplicável.,FALSE
Epirrubicina 2 mg/ml Sol inj Fr 100 ml IA IV IVesical ROMIPLOSTIM 250 MCG PÓ SOL INJ FR SC BORTEZOMIB 3.5 MG PÓ SOL INJ FR,Ao abrigo de acordo-quadro (art.º 259.º),Aquisição de bens móveis,"33600000-6, Produtos farmacêuticos","Centro Hospitalar de Setúbal, E. P. E. (507606787)","AMGEN BIOFARMACÊUTICA, LDA. (502942959), JANSSEN CILAG FARMACÊUTICA, LDA (500189412), TEVA PHARMA - PRODUTOS FARMACEUTICOS,LDA (507045491)","9.904,98 €",23-11-2018,20-11-2018,15 dias,"Portugal, Setúbal, Setúbal",Artigo 259.º do Código dos Contratos Públicos,,,,,,1771819,CP 2015/6 - Acordo quadro para o fornecimento de Medicamentos do Foro Oncológico,FALSE
Lâminas para máquina de tricotomia para o ano de 2019,Ajuste Direto Regime Geral,Aquisição de bens móveis,"33000000-0, Equipamento médico, medicamentos e produtos para cuidados pessoais","Centro Hospitalar de Setúbal, E. P. E. (507606787)",3M ESPANA S.L. SUCURSAL EM PORTUGAL (980560241),"8.664,00 €",21-11-2018,20-11-2018,365 dias,"Portugal, Setúbal, Setúbal","Artigo 26.º, n.º 1, alínea a) do Código dos Contratos Públicos",,,,,,Não aplicável.,Não aplicável.,FALSE
