Objeto do Contrato,Tipo de Procedimento,Tipo(s) de Contrato,CPVs,Entidade(s) Adjudicante(s),Entidade(s) Adjudicatária(s),Preço Contratual,Data de Publicação,Data de Celebração do Contrato,Prazo de Execução,Local de Execução,Fundamentação,Data de Fecho do Contrato,Preço Total Efetivo,Causas das Alterações ao Prazo,Causas das Alterações ao Preço,Estado,N.º registo do Acordo Quadro,Descrição do Acordo Quadro,Procedimento Centralizado
Aquisição de TEMOZOLOMIDAS,Ao abrigo de acordo-quadro (art.º 259.º),Aquisição de bens móveis,"33600000-6, Produtos farmacêuticos","Hospital Garcia de Orta, E. P. E. (506361470)","ACCORD HEALTHCARE, UNIPESSOAL LDA (508622263)","5.150,00 €",11-05-2018,16-01-2018,365 dias,"Portugal, Setúbal, Almada",Artigo 259.º do Código dos Contratos Públicos,,,,,,1771819,CP 2015/6 - Acordo quadro para o fornecimento de Medicamentos do Foro Oncológico,FALSE
Dicloreto de Rádio (223RA),Ajuste Direto Regime Geral,Aquisição de bens móveis,"33600000-6, Produtos farmacêuticos","Hospital Garcia de Orta, E. P. E. (506361470)","BAYER PORTUGAL, LDA (500043256)","21.759,90 €",11-05-2018,16-01-2018,365 dias,"Portugal, Setúbal, Almada","Artigo 24.º, n.º 1, alínea e) do Código dos Contratos Públicos",,,,,,Não aplicável.,Não aplicável.,FALSE
Aquisição de TRASTUZUMAB'S,Ajuste Direto Regime Geral,Aquisição de bens móveis,"33600000-6, Produtos farmacêuticos","Hospital Garcia de Orta, E. P. E. (506361470)","ROCHE FARMACEUTICA QUIMICA, LDA (500233810)","13.170,27 €",10-05-2018,16-01-2018,365 dias,"Portugal, Setúbal, Almada","Artigo 24.º, n.º 1, alínea e) do Código dos Contratos Públicos",,,,,,Não aplicável.,Não aplicável.,FALSE
Contrato de Assistência Técnica a Equipamentos marca PENTAX (2018),Ajuste Direto Regime Geral,Aquisição de serviços,"50420000-5, Serviços de reparação e manutenção de equipamento médico e cirúrgico","Hospital Garcia de Orta, E. P. E. (506361470)","SIMMÉDICA -SISTEMAS INTEGRALES DE LA MEDICINA, S.A SUCURSAL EM PORTUGAL (980488842)","32.500,00 €",08-05-2018,22-03-2018,365 dias,"Portugal, Setúbal, Almada","Artigo 24.º, n.º 1, alínea e), subalínea iii) do Código dos Contratos Públicos",,,,,,Não aplicável.,Não aplicável.,FALSE
Contrato de Assistência Técnica a Equipamentos de marca PHILIPS (2018),Ajuste Direto Regime Geral,Aquisição de serviços,"50420000-5, Serviços de reparação e manutenção de equipamento médico e cirúrgico","Hospital Garcia de Orta, E. P. E. (506361470)",PHILIPS PORTUGUESA S.A (500216843),"165.763,56 €",07-05-2018,29-03-2018,365 dias,"Portugal, Setúbal, Almada","Artigo 24.º, n.º 1, alínea e), subalínea iii) do Código dos Contratos Públicos",,,,,,Não aplicável.,Não aplicável.,FALSE
Aquisição de Mão-de-Obra de Electricidade para a obra da nova UCA,Ajuste Direto Regime Geral,Aquisição de serviços,"71000000-8, Serviços de arquitectura, construção, engenharia e inspecção","Hospital Garcia de Orta, E. P. E. (506361470)","Efago - Manutenção Hospitalar, ACE (510930573)","27.132,00 €",07-05-2018,14-02-2017,8 dias,"Portugal, Setúbal, Almada","Artigo 20.º, n.º 1, alínea a) do Código dos Contratos Públicos",,,,,,Não aplicável.,Não aplicável.,FALSE
