Objeto do Contrato,Tipo de Procedimento,Tipo(s) de Contrato,CPVs,Entidade(s) Adjudicante(s),Entidade(s) Adjudicatária(s),Preço Contratual,Data de Publicação,Data de Celebração do Contrato,Prazo de Execução,Local de Execução,Fundamentação,Data de Fecho do Contrato,Preço Total Efetivo,Causas das Alterações ao Prazo,Causas das Alterações ao Preço,Estado,N.º registo do Acordo Quadro,Descrição do Acordo Quadro,Procedimento Centralizado
Aquisição de serviços  de manutenção evolutiva do Sclinico,Ajuste Direto Regime Geral,Aquisição de serviços,"72500000-0, Serviços relacionados com a informática","SPMS- Serviços Partilhados do M. da Saúde, E.P.E. (509540716)","Altranportugal, S. A. (504272179)","60.580,00 €",16-06-2016,30-05-2016,152 dias,Portugal,"Artigo 20.º, n.º 1, alínea a) do Código dos Contratos Públicos","","",,,,Não aplicável.,Não aplicável.,FALSE
Aquisição de serviços juridicos para patrocínio judicial em representação da SPMS,Ajuste Direto Regime Geral,Aquisição de serviços,"79111000-5, Serviços de assessoria jurídica","SPMS- Serviços Partilhados do M. da Saúde, E.P.E. (509540716)","Miranda & Associados - Soc. Advogados, RL (505701839)","67.500,00 €",16-06-2016,31-05-2016,365 dias,Portugal,"Artigo 27.º, n.º 1, alínea b) do Código dos Contratos Públicos","","",,,,Não aplicável.,Não aplicável.,FALSE
Aquisição de serviços de desenvolvimento e manutenção aplicacional aos sistemas de informação no âmbito dos Acordos Internacionais,Ao abrigo de acordo-quadro (art.º 259.º),Aquisição de serviços,"72500000-0, Serviços relacionados com a informática","SPMS- Serviços Partilhados do M. da Saúde, E.P.E. (509540716)","Altranportugal, S. A. (504272179)","107.835,20 €",16-06-2016,31-05-2016,365 dias,Portugal,Artigo 259.º do Código dos Contratos Públicos,"","",,,,425776,CONCURSO PÚBLICO n.º 20120117 -,FALSE
Aquisição de serviços para implementação da codificação de diagnósticos em ICD 10 CM/PCS,Ajuste Direto Regime Geral,Aquisição de serviços,"72600000-6, Serviços de consultoria e assistência informáticas","SPMS- Serviços Partilhados do M. da Saúde, E.P.E. (509540716)","ABS - Consultadoria Informática, Lda (510727743)","62.496,00 €",16-06-2016,25-05-2016,219 dias,Portugal,"Artigo 20.º, n.º 1, alínea a) do Código dos Contratos Públicos",31-12-2016,"62.496,00 €",,,,Não aplicável.,Não aplicável.,FALSE
"Aquisição de serviços de desenvolvimento e manutenção aplicacional - corretiva e evolutiva do Sinus, SAM e SAPE",Ao abrigo de acordo-quadro (art.º 259.º),Aquisição de serviços,"72500000-0, Serviços relacionados com a informática","SPMS- Serviços Partilhados do M. da Saúde, E.P.E. (509540716)","Altranportugal, S. A. (504272179)","130.000,00 €",16-06-2016,24-05-2016,548 dias,Portugal,Artigo 259.º do Código dos Contratos Públicos,"","",,,,425776,CONCURSO PÚBLICO n.º 20120117 -,FALSE
"Aquisição de serviços de análise funcional, documentação, testes e formação ",Ajuste Direto Regime Geral,Aquisição de serviços,"72212218-0, Serviços de desenvolvimento de software para gestão de licenças","SPMS- Serviços Partilhados do M. da Saúde, E.P.E. (509540716)","Altranportugal, S. A. (504272179)","69.291,20 €",16-06-2016,27-05-2016,365 dias,Portugal,"Artigo 20.º, n.º 1, alínea a) do Código dos Contratos Públicos","","",,,,Não aplicável.,Não aplicável.,FALSE
Aquisição de serviços de suporte e manutenção corretiva e evolutiva na área de integrações com o Sclinico,Ao abrigo de acordo-quadro (art.º 259.º),Aquisição de serviços,"72500000-0, Serviços relacionados com a informática","SPMS - Serviços Partilhados do Ministério da Saúde, E. P. E. (509540716)","Altranportugal, SA (504272179)","135.200,00 €",16-06-2016,23-05-2016,729 dias,Portugal,Artigo 259.º do Código dos Contratos Públicos,29-12-2017,"135.200,00 €",,,,425776,CONCURSO PÚBLICO n.º 20120117 -,FALSE
Aquisição de serviços de suporte e manutenção corretiva do sistema de informação clínico - Sclinico,Ao abrigo de acordo-quadro (art.º 259.º),Aquisição de serviços,"72500000-0, Serviços relacionados com a informática","SPMS - Serviços Partilhados do Ministério da Saúde, E. P. E. (509540716)","Altranportugal, S. A. (504272179)","135.200,00 €",16-06-2016,27-05-2016,729 dias,Portugal,Artigo 259.º do Código dos Contratos Públicos,"","",,,,425776,CONCURSO PÚBLICO n.º 20120117 -,FALSE
Aquisição de serviços de segurança e vigilância humana,Ajuste Direto Regime Geral,Aquisição de serviços,"79714000-2, Serviços de vigilância","SPMS - Serviços Partilhados do Ministério da Saúde, E. P. E. (509540716)","Strong - Segurança, SA (503257567)","21.000,00 €",16-06-2016,23-05-2016,30 dias,Portugal,"Artigo 20.º, n.º 1, alínea a) do Código dos Contratos Públicos",31-05-2016,"21.000,00 €",,,,Não aplicável.,Não aplicável.,FALSE
Aquisição de serviços de desenvolvimento aplicacional do projeto VCI – Visão Clínica Integrada,Concurso público,Aquisição de serviços,"72500000-0, Serviços relacionados com a informática","SPMS - Serviços Partilhados do Ministério da Saúde, E. P. E. (509540716)","Altranportugal, S. A. (504272179)","130.152,00 €",16-06-2016,24-05-2016,913 dias,Portugal,"Artigo 21.º, n.º 1, alínea b) do Código dos Contratos Públicos","","",,,,Não aplicável.,Não aplicável.,FALSE
