Objeto do Contrato,Tipo de Procedimento,Tipo(s) de Contrato,CPVs,Entidade(s) Adjudicante(s),Entidade(s) Adjudicatária(s),Preço Contratual,Data de Publicação,Data de Celebração do Contrato,Prazo de Execução,Local de Execução,Fundamentação,Data de Fecho do Contrato,Preço Total Efetivo,Causas das Alterações ao Prazo,Causas das Alterações ao Preço,Estado,N.º registo do Acordo Quadro,Descrição do Acordo Quadro,Procedimento Centralizado
040208872016 - Material de Consumo Clinico,Ajuste Direto Regime Geral,Aquisição de bens móveis,"33000000-0, Equipamento médico, medicamentos e produtos para cuidados pessoais","Centro Hospitalar e Universitário de Coimbra, E. P. E. (510103448)",ENDOTECNICA MATERIAL CIRURGICO (503818348),"65.299,20 €",10-04-2017,11-04-2016,365 dias,"Portugal, Coimbra, Coimbra","Artigo 24.º, n.º 1, alínea e) do Código dos Contratos Públicos","","",,"",,Não aplicável.,Não aplicável.,FALSE
040110852015-TRIENTINA 300 MG CAPS,Ajuste Direto Regime Geral,Aquisição de bens móveis,"33600000-6, Produtos farmacêuticos","Centro Hospitalar e Universitário de Coimbra, E. P. E. (510103448)","ETIOPHARMA, SA. (509393357)","14.160,00 €",07-04-2017,16-06-2015,365 dias,"Portugal, Coimbra, Coimbra","Artigo 24.º, n.º 1, alínea e) do Código dos Contratos Públicos",31-12-2015,"14.160,00 €",,"",,Não aplicável.,Não aplicável.,FALSE
CAT Solução PICIS-serviço UCI do polo HG-SPMS.ref.2016UMC462,Ajuste Direto Regime Geral,Aquisição de serviços,"72000000-5, Serviços de TI: consultoria, desenvolvimento de software, Internet e apoio","Centro Hospitalar e Universitário de Coimbra, E. P. E. (510103448)",Cerner (513269843),"40.636,36 €",07-04-2017,27-03-2017,365 dias,"Portugal, Coimbra, Coimbra","Artigo 24.º, n.º 1, alínea e) do Código dos Contratos Públicos","","",,"",,Não aplicável.,Não aplicável.,FALSE
Combustiveis rodoviarios-Janeiro,Ajuste Direto Regime Geral,Aquisição de bens móveis,"09000000-3, Produtos petrolíferos, combustíveis, electricidade e outras fontes de energia","Centro Hospitalar e Universitário de Coimbra, E. P. E. (510103448)",Petroleos de portugal (500697370),"7.832,00 €",07-04-2017,04-04-2017,31 dias,"Portugal, Coimbra, Coimbra","Artigo 20.º, n.º 1, alínea a) do Código dos Contratos Públicos","","",,"",,Não aplicável.,Não aplicável.,FALSE
procedimento n.º 040111002015 –  ledipasvir 90 mg + sofosbuvir 400 mg – comp.,Ajuste Direto Regime Geral,Aquisição de bens móveis,"33698000-9, Produtos para fins clínicos","Centro Hospitalar e Universitário de Coimbra, E. P. E. (510103448)","GILEAD SCIENCES, LDA (503604704)","46.183,83 €",07-04-2017,04-05-2015,365 dias,"Portugal, Coimbra, Coimbra","Artigo 24.º, n.º 1, alínea e) do Código dos Contratos Públicos",04-05-2015,"46.183,83 €",,"",,Não aplicável.,Não aplicável.,FALSE
procedimento n.º 040110992015 –  ledipasvir 90 mg + sofosbuvir 400 mg – comp.,Ajuste Direto Regime Geral,Aquisição de bens móveis,"33698000-9, Produtos para fins clínicos","Centro Hospitalar e Universitário de Coimbra, E. P. E. (510103448)","GILEAD SCIENCES, LDA (503604704)","46.183,83 €",07-04-2017,04-05-2015,365 dias,"Portugal, Coimbra, Coimbra","Artigo 24.º, n.º 1, alínea e) do Código dos Contratos Públicos",31-12-2015,"46.183,83 €",,"",,Não aplicável.,Não aplicável.,FALSE
040109362015 DACLATASVIR 60MG COMP,Ajuste Direto Regime Geral,Aquisição de bens móveis,"33698000-9, Produtos para fins clínicos","Centro Hospitalar e Universitário de Coimbra, E. P. E. (510103448)",BRISTOL (500048193),"62.078,12 €",07-04-2017,15-04-2015,365 dias,"Portugal, Coimbra, Coimbra","Artigo 24.º, n.º 1, alínea e) do Código dos Contratos Públicos",31-12-2015,"62.078,12 €",,"",,Não aplicável.,Não aplicável.,FALSE
040109972017 NELARABINA 5 MG/ML SOL.INJ,Ajuste Direto Regime Geral,Aquisição de bens móveis,"33698000-9, Produtos para fins clínicos","Centro Hospitalar e Universitário de Coimbra, E. P. E. (510103448)",GLAXO (500139962),"3.314,71 €",07-04-2017,05-05-2015,365 dias,"Portugal, Coimbra, Coimbra","Artigo 24.º, n.º 1, alínea e) do Código dos Contratos Públicos",31-12-2015,"3.314,71 €",,"",,Não aplicável.,Não aplicável.,FALSE
040109982015 SACAROSE 240 MG/ML SOL ORAL FRA 2ML,Ajuste Direto Regime Geral,Aquisição de bens móveis,"33698000-9, Produtos para fins clínicos","Centro Hospitalar e Universitário de Coimbra, E. P. E. (510103448)",MEDIREX (507026004),"3.840,00 €",07-04-2017,23-04-2015,365 dias,"Portugal, Coimbra, Coimbra","Artigo 20.º, n.º 1, alínea a) do Código dos Contratos Públicos",31-12-2015,"3.840,00 €",,"",,Não aplicável.,Não aplicável.,FALSE
040109992015 GENTAMICINA 32.5MG IMPL SAQ,Ajuste Direto Regime Geral,Aquisição de bens móveis,"33698000-9, Produtos para fins clínicos","Centro Hospitalar e Universitário de Coimbra, E. P. E. (510103448)",EUSAPHARMA (980376580),"750,00 €",07-04-2017,05-05-2015,365 dias,"Portugal, Coimbra, Coimbra","Artigo 24.º, n.º 1, alínea e) do Código dos Contratos Públicos","","",,"",,Não aplicável.,Não aplicável.,FALSE
040110022015 AMIDOTRIZOATO DE MEGLUMINA 660 MG,Ajuste Direto Regime Geral,Aquisição de bens móveis,"33698000-9, Produtos para fins clínicos","Centro Hospitalar e Universitário de Coimbra, E. P. E. (510103448)",BAYER (500043256),"4.900,00 €",07-04-2017,28-04-2015,365 dias,"Portugal, Coimbra, Coimbra","Artigo 24.º, n.º 1, alínea e) do Código dos Contratos Públicos",31-12-2015,"4.900,00 €",,"",,Não aplicável.,Não aplicável.,FALSE
04010995215 AMSACRINA 75MG PO SOL. INJ,Ajuste Direto Regime Geral,Aquisição de bens móveis,"33698000-9, Produtos para fins clínicos","Centro Hospitalar e Universitário de Coimbra, E. P. E. (510103448)",ETIOPHARMA (509393357),"13.500,00 €",07-04-2017,21-04-2015,365 dias,"Portugal, Coimbra, Coimbra","Artigo 24.º, n.º 1, alínea e) do Código dos Contratos Públicos",31-12-2015,"13.500,00 €",,"",,Não aplicável.,Não aplicável.,FALSE
040110032015 FORTIFICANTE DE LEITE MATERNO EM PO EMB 200G,Ajuste Direto Regime Geral,Aquisição de bens móveis,"33698000-9, Produtos para fins clínicos","Centro Hospitalar e Universitário de Coimbra, E. P. E. (510103448)",MILUPA (502192828),"780,57 €",07-04-2017,23-04-2015,365 dias,"Portugal, Coimbra, Coimbra","Artigo 20.º, n.º 1, alínea a) do Código dos Contratos Públicos",31-12-2015,"780,57 €",,"",,Não aplicável.,Não aplicável.,FALSE
040109932015 brentuximab vedotina 50 mg po,Ajuste Direto Regime Geral,Aquisição de bens móveis,"33698000-9, Produtos para fins clínicos","Centro Hospitalar e Universitário de Coimbra, E. P. E. (510103448)",IDIS (700513982),"29.997,00 €",07-04-2017,05-05-2015,365 dias,"Portugal, Coimbra, Coimbra","Artigo 24.º, n.º 1, alínea e) do Código dos Contratos Públicos",31-12-2015,"29.997,00 €",,"",,Não aplicável.,Não aplicável.,FALSE
04019912015 RIOCIGUAT cOMP.,Ajuste Direto Regime Geral,Aquisição de bens móveis,"33698000-9, Produtos para fins clínicos","Centro Hospitalar e Universitário de Coimbra, E. P. E. (510103448)",BAYER (500043256),"27.998,25 €",07-04-2017,21-04-2015,365 dias,"Portugal, Coimbra, Coimbra","Artigo 24.º, n.º 1, alínea e) do Código dos Contratos Públicos",31-12-2015,"27.998,25 €",,"",,Não aplicável.,Não aplicável.,FALSE
Interstim,Ajuste Direto Regime Geral,Aquisição de bens móveis,"33000000-0, Equipamento médico, medicamentos e produtos para cuidados pessoais","Centro Hospitalar e Universitário de Coimbra, E. P. E. (510103448)","MEDTRONIC PORTUGAL, LDA (504223933)","37.055,76 €",06-04-2017,04-04-2017,3 dias,"Portugal, Coimbra, Coimbra","Artigo 24.º, n.º 1, alínea e) do Código dos Contratos Públicos",06-04-2017,"37.055,76 €",,"",,Não aplicável.,Não aplicável.,FALSE
Material de consumo clinico,Ajuste Direto Regime Geral,Aquisição de bens móveis,"33000000-0, Equipamento médico, medicamentos e produtos para cuidados pessoais","Centro Hospitalar e Universitário de Coimbra, E. P. E. (510103448)",Smith & Nephew (503552461),"7.531,00 €",06-04-2017,01-04-2017,20 dias,"Portugal, Coimbra, Coimbra","Artigo 24.º, n.º 1, alínea e) do Código dos Contratos Públicos",30-05-2017,"7.531,00 €",,"",,Não aplicável.,Não aplicável.,FALSE
Armário para acondicionamento de instrumental cirúrgico,Ajuste Direto Regime Geral,Aquisição de bens móveis,"39000000-2, Mobiliário (incl. de escritório), acessórios, aparelhos domésticos (excl. iluminação) e produtos de limpeza","Centro Hospitalar e Universitário de Coimbra, E. P. E. (510103448)","BACELAR E IRMÃO, LDA (500532818)","6.629,06 €",06-04-2017,06-04-2017,30 dias,"Portugal, Coimbra, Coimbra","Artigo 20.º, n.º 1, alínea a) do Código dos Contratos Públicos","","",,"",,Não aplicável.,Não aplicável.,FALSE
040110882015-TENOXICAM 20 MG COMP,Ajuste Direto Regime Geral,Aquisição de bens móveis,"33600000-6, Produtos farmacêuticos","Centro Hospitalar e Universitário de Coimbra, E. P. E. (510103448)",MEDA PHARMA (500082090),"62,82 €",06-04-2017,20-05-2015,365 dias,"Portugal, Coimbra, Coimbra","Artigo 24.º, n.º 1, alínea e) do Código dos Contratos Públicos",20-05-2015,"62,82 €",,"",,Não aplicável.,Não aplicável.,FALSE
040110892015-PELICULA ADESIVA COM BOLSA ALMOFADADA 16X5CM APOSITO,Ajuste Direto Regime Geral,Aquisição de bens móveis,"33698000-9, Produtos para fins clínicos","Centro Hospitalar e Universitário de Coimbra, E. P. E. (510103448)",MEDICINALIA CORMEDICA (500684324),"332,50 €",06-04-2017,28-05-2015,365 dias,"Portugal, Coimbra, Coimbra","Artigo 24.º, n.º 1, alínea a) do Código dos Contratos Públicos",31-12-2015,"332,50 €",,"",,Não aplicável.,Não aplicável.,FALSE
040110002015 Ponatinib 15 mg comp,Ajuste Direto Regime Geral,Aquisição de bens móveis,"33698000-9, Produtos para fins clínicos","Centro Hospitalar e Universitário de Coimbra, E. P. E. (510103448)",KOMTUR PHARMACEUTICA BERLIN (DE142043814),"17.925,00 €",06-04-2017,16-04-2015,365 dias,"Portugal, Coimbra, Coimbra","Artigo 24.º, n.º 1, alínea e) do Código dos Contratos Públicos",31-12-2015,"17.925,00 €",,"",,Não aplicável.,Não aplicável.,FALSE
040110692015-Alergenos serie A,Ajuste Direto Regime Geral,Aquisição de bens móveis,"33600000-6, Produtos farmacêuticos","Centro Hospitalar e Universitário de Coimbra, E. P. E. (510103448)",Edol (507072642),"2.440,32 €",06-04-2017,13-05-2015,365 dias,"Portugal, Coimbra, Coimbra","Artigo 24.º, n.º 1, alínea e) do Código dos Contratos Públicos",31-12-2015,"2.440,32 €",,"",,Não aplicável.,Não aplicável.,FALSE
040110702015-Alergenos serie D,Ajuste Direto Regime Geral,Aquisição de bens móveis,"33600000-6, Produtos farmacêuticos","Centro Hospitalar e Universitário de Coimbra, E. P. E. (510103448)",Edol (507072642),"955,84 €",06-04-2017,27-05-2015,365 dias,"Portugal, Coimbra, Coimbra","Artigo 24.º, n.º 1, alínea e) do Código dos Contratos Públicos",27-05-2015,"955,84 €",,"",,Não aplicável.,Não aplicável.,FALSE
Ajuste Directo nº040110712015-Testes para colheita citologica de endocolo e exocolo,Ajuste Direto Regime Geral,Aquisição de bens móveis,"33600000-6, Produtos farmacêuticos","Centro Hospitalar e Universitário de Coimbra, E. P. E. (510103448)",Bioportugal (502380543),"46.000,00 €",06-04-2017,18-05-2015,365 dias,"Portugal, Coimbra, Coimbra","Artigo 20.º, n.º 1, alínea a) do Código dos Contratos Públicos",31-12-2015,"46.000,00 €",,"",,Não aplicável.,Não aplicável.,FALSE
Stent Biliar N/Coberto,Ajuste Direto Regime Geral,Aquisição de bens móveis,"33000000-0, Equipamento médico, medicamentos e produtos para cuidados pessoais","Centro Hospitalar e Universitário de Coimbra, E. P. E. (510103448)","C. R. BARD PORTUGAL, LDA (502438274)","18.900,00 €",05-04-2017,24-02-2017,270 dias,"Portugal, Coimbra, Coimbra","Artigo 24.º, n.º 1, alínea e) do Código dos Contratos Públicos","","",,"",,Não aplicável.,Não aplicável.,FALSE
Stent Biliar N/Coberto,Ajuste Direto Regime Geral,Aquisição de bens móveis,"33000000-0, Equipamento médico, medicamentos e produtos para cuidados pessoais","Centro Hospitalar e Universitário de Coimbra, E. P. E. (510103448)","BOSTON SCIENTIFIC PORTUGAL, LDA (504988964)","57.000,00 €",05-04-2017,01-03-2017,270 dias,"Portugal, Coimbra, Coimbra","Artigo 24.º, n.º 1, alínea e) do Código dos Contratos Públicos","","",,"",,Não aplicável.,Não aplicável.,FALSE
Stent para tratamento de trombos AVC,Ajuste Direto Regime Geral,Aquisição de bens móveis,"33000000-0, Equipamento médico, medicamentos e produtos para cuidados pessoais","Centro Hospitalar e Universitário de Coimbra, E. P. E. (510103448)","MEDICINALIA CORMEDICA - COMER. PROD. MED. HOSP.,LD (500684324)","51.000,00 €",05-04-2017,01-03-2017,300 dias,"Portugal, Coimbra, Coimbra","Artigo 24.º, n.º 1, alínea e) do Código dos Contratos Públicos","","",,"",,Não aplicável.,Não aplicável.,FALSE
040110862015-Tioguanina 40 mg comp,Ajuste Direto Regime Geral,Aquisição de bens móveis,"33600000-6, Produtos farmacêuticos","Centro Hospitalar e Universitário de Coimbra, E. P. E. (510103448)","ETIOPHARMA, SA (509393357)","3.000,00 €",05-04-2017,04-06-2015,365 dias,"Portugal, Coimbra, Coimbra","Artigo 24.º, n.º 1, alínea e) do Código dos Contratos Públicos",31-12-2015,"3.000,00 €",,"",,Não aplicável.,Não aplicável.,FALSE
NUTRIÇÃO,Ajuste Direto Regime Geral,Aquisição de bens móveis,"33698000-9, Produtos para fins clínicos","Centro Hospitalar e Universitário de Coimbra, E.P. (510103448)",Nutricia (507558286),"2.919,68 €",05-04-2017,03-08-2015,365 dias,"Portugal, Coimbra, Coimbra","Artigo 20.º, n.º 1, alínea a) do Código dos Contratos Públicos",31-12-2015,"2.919,68 €",,"",,Não aplicável.,Não aplicável.,FALSE
040210302017 - Prótese do Joelho,Ajuste Direto Regime Geral,Aquisição de bens móveis,"33000000-0, Equipamento médico, medicamentos e produtos para cuidados pessoais","Centro Hospitalar e Universitário de Coimbra, E. P. E. (510103448)","STRYKER PORTUGAL PRODUTOS  MEDICOS, LDA (504594214)","33.230,00 €",05-04-2017,01-04-2017,20 dias,"Portugal, Coimbra, Coimbra","Artigo 24.º, n.º 1, alínea e) do Código dos Contratos Públicos",05-04-2017,"33.230,00 €",,"",,Não aplicável.,Não aplicável.,FALSE
040109352015 DACLATASVIR 60MG COMP,Ajuste Direto Regime Geral,Aquisição de bens móveis,"33698000-9, Produtos para fins clínicos","Centro Hospitalar e Universitário de Coimbra, E. P. E. (510103448)",BRISTOL (500048193),"62.078,12 €",05-04-2017,15-04-2015,365 dias,"Portugal, Coimbra, Coimbra","Artigo 24.º, n.º 1, alínea e) do Código dos Contratos Públicos",31-12-2015,"62.078,12 €",,"",,Não aplicável.,Não aplicável.,FALSE
040110822015-Daclatasvir 60 mg comp,Ajuste Direto Regime Geral,Aquisição de bens móveis,"33600000-6, Produtos farmacêuticos","Centro Hospitalar e Universitário de Coimbra, E. P. E. (510103448)",Bristol (500048193),"62.078,12 €",05-04-2017,13-05-2015,365 dias,"Portugal, Coimbra, Coimbra","Artigo 24.º, n.º 1, alínea e) do Código dos Contratos Públicos",31-12-2015,"62.078,12 €",,"",,Não aplicável.,Não aplicável.,FALSE
040109312015 MEXILETINA 200MG,Ajuste Direto Regime Geral,Aquisição de bens móveis,"33698000-9, Produtos para fins clínicos","Centro Hospitalar e Universitário de Coimbra, E. P. E. (510103448)",WEPHARMA UK (GB944893866),"525,00 €",05-04-2017,09-04-2015,365 dias,"Portugal, Coimbra, Coimbra","Artigo 24.º, n.º 1, alínea e) do Código dos Contratos Públicos",31-12-2015,"525,00 €",,"",,Não aplicável.,Não aplicável.,FALSE
Material deformidades da coluna - HP,Ajuste Direto Regime Geral,Aquisição de bens móveis,"33000000-0, Equipamento médico, medicamentos e produtos para cuidados pessoais","Centro Hospitalar e Universitário de Coimbra, E. P. E. (510103448)",ACUNA Y FOMBONA PORTUGAL (980095891),"65.388,10 €",05-04-2017,04-04-2017,20 dias,"Portugal, Coimbra, Coimbra","Artigo 24.º, n.º 1, alínea e) do Código dos Contratos Públicos",05-04-2017,"65.388,10 €",,"",,Não aplicável.,Não aplicável.,FALSE
Ajuste Directo nº040110732015-Teste Imunocromatografico para Detecção de IGFBP-1 Tira p/os Serv. Farmaceuticos,Ajuste Direto Regime Geral,Aquisição de bens móveis,"33600000-6, Produtos farmacêuticos","Centro Hospitalar e Universitário de Coimbra, E. P. E. (510103448)",Isoder (502241594),"2.080,00 €",05-04-2017,17-06-2015,365 dias,"Portugal, Coimbra, Coimbra","Artigo 20.º, n.º 1, alínea a) do Código dos Contratos Públicos",31-12-2015,"2.080,00 €",,"",,Não aplicável.,Não aplicável.,FALSE
MATERIAL DE ESTOMATOLOGIA,Ajuste Direto Regime Geral,Aquisição de bens móveis,"33698000-9, Produtos para fins clínicos","Centro Hospitalar e Universitário de Coimbra, E.P. (510103448)","EXPOMEDICA (501886621), MACHADO  (500174245), JOHNSON (500153370), INIBSA (500139571)","62.020,46 €",05-04-2017,20-08-2015,365 dias,"Portugal, Coimbra, Coimbra","Artigo 20.º, n.º 1, alínea a) do Código dos Contratos Públicos",31-12-2015,"62.020,46 €",,"",,Não aplicável.,Não aplicável.,FALSE
OSTEOSSINTESE,Ajuste Direto Regime Geral,Aquisição de bens móveis,"33000000-0, Equipamento médico, medicamentos e produtos para cuidados pessoais","Centro Hospitalar e Universitário de Coimbra, E. P. E. (510103448)",Osteoplac (B20595989),"7.325,00 €",05-04-2017,04-04-2017,20 dias,"Portugal, Coimbra, Coimbra","Artigo 24.º, n.º 1, alínea e) do Código dos Contratos Públicos",05-04-2017,"7.325,00 €",,"",,Não aplicável.,Não aplicável.,FALSE
Papel A4 Branco 80g,Ajuste Direto Regime Geral,Aquisição de bens móveis,"30000000-9, Máquinas, equipamento e material de escritório e de informática, excepto mobiliário e pacotes de programas (software)","Centro Hospitalar e Universitário de Coimbra, E. P. E. (510103448)","STAPLES PORTUGAL - EQUIP. ESCRITORIO, SA (503789372)","3.640,00 €",05-04-2017,30-03-2017,3 dias,"Portugal, Coimbra, Coimbra","Artigo 24.º, n.º 1, alínea c) do Código dos Contratos Públicos",30-03-2017,"3.640,00 €",,"",,Não aplicável.,Não aplicável.,FALSE
040110662015 QUININA 300 MG COMP,Ajuste Direto Regime Geral,Aquisição de bens móveis,"33698000-9, Produtos para fins clínicos","Centro Hospitalar e Universitário de Coimbra, E. P. E. (510103448)",LABESFAL (501169580),"423,00 €",05-04-2017,13-05-2015,365 dias,"Portugal, Coimbra, Coimbra","Artigo 24.º, n.º 1, alínea e) do Código dos Contratos Públicos",31-12-2015,"423,00 €",,"",,Não aplicável.,Não aplicável.,FALSE
040110672015 OXANDROLONA 10MG COMP,Ajuste Direto Regime Geral,Aquisição de bens móveis,"33698000-9, Produtos para fins clínicos","Centro Hospitalar e Universitário de Coimbra, E. P. E. (510103448)",dux pharma (510803679),"645,04 €",05-04-2017,13-05-2015,365 dias,"Portugal, Coimbra, Coimbra","Artigo 24.º, n.º 1, alínea e) do Código dos Contratos Públicos",31-12-2015,"645,04 €",,"",,Não aplicável.,Não aplicável.,FALSE
040110682015 ALERGENOS SERIE B,Ajuste Direto Regime Geral,Aquisição de bens móveis,"33698000-9, Produtos para fins clínicos","Centro Hospitalar e Universitário de Coimbra, E. P. E. (510103448)",LAB EDOL (507072642),"2.762,10 €",05-04-2017,25-05-2015,365 dias,"Portugal, Coimbra, Coimbra","Artigo 24.º, n.º 1, alínea e) do Código dos Contratos Públicos",31-12-2015,"2.762,10 €",,"",,Não aplicável.,Não aplicável.,FALSE
040110642015 ULIPRISTAL 5MG COMP,Ajuste Direto Regime Geral,Aquisição de bens móveis,"33698000-9, Produtos para fins clínicos","Centro Hospitalar e Universitário de Coimbra, E. P. E. (510103448)",LOGIFARMA (503934640),"5.320,39 €",05-04-2017,13-05-2015,365 dias,"Portugal, Coimbra, Coimbra","Artigo 24.º, n.º 1, alínea e) do Código dos Contratos Públicos",31-12-2015,"5.320,39 €",,"",,Não aplicável.,Não aplicável.,FALSE
Sistema Digital de imagem para o BOC,Ajuste Direto Regime Geral,Aquisição de bens móveis,"33000000-0, Equipamento médico, medicamentos e produtos para cuidados pessoais","Centro Hospitalar e Universitário de Coimbra, E. P. E. (510103448)","STRYKER PORTUGAL - PRODUTOS MEDICOS, UNIPESSOAL,LDA. (504594214)","7.315,00 €",05-04-2017,05-04-2017,15 dias,"Portugal, Coimbra, Coimbra","Artigo 20.º, n.º 1, alínea a) do Código dos Contratos Públicos","","",,"",,Não aplicável.,Não aplicável.,FALSE
TESTE RESPIRATÓRIO COM TRIGLICERIDEOS MARCADO CARBONO 13 KIT,Ajuste Direto Regime Geral,Aquisição de bens móveis,"33698000-9, Produtos para fins clínicos","Centro Hospitalar e Universitário de Coimbra, E.P. (510103448)",ISOMED (B - 80619133),"2.700,00 €",05-04-2017,22-10-2015,365 dias,"Portugal, Coimbra, Coimbra","Artigo 20.º, n.º 1, alínea a) do Código dos Contratos Públicos",31-12-2015,"2.700,00 €",,"",,Não aplicável.,Não aplicável.,FALSE
040110612015 DACLATASVIR 60MG COMP,Ajuste Direto Regime Geral,Aquisição de bens móveis,"33600000-6, Produtos farmacêuticos","Centro Hospitalar e Universitário de Coimbra, E. P. E. (510103448)",BRISTOL (500048193),"62.078,12 €",05-04-2017,13-05-2015,365 dias,"Portugal, Coimbra, Coimbra","Artigo 24.º, n.º 1, alínea e) do Código dos Contratos Públicos",31-12-2015,"62.078,12 €",,"",,Não aplicável.,Não aplicável.,FALSE
040110632015 LIDOCAINA 20MG/ML GEL,Ajuste Direto Regime Geral,Aquisição de bens móveis,"33600000-6, Produtos farmacêuticos","Centro Hospitalar e Universitário de Coimbra, E. P. E. (510103448)",SIDEFARMA (500717419),"864,00 €",05-04-2017,25-05-2015,365 dias,"Portugal, Coimbra, Coimbra","Artigo 24.º, n.º 1, alínea e) do Código dos Contratos Públicos",31-12-2015,"864,00 €",,"",,Não aplicável.,Não aplicável.,FALSE
040110382015 FLUODESOXIGLUCOSE (18F) SOL. INJ.,Ajuste Direto Regime Geral,Aquisição de bens móveis,"33600000-6, Produtos farmacêuticos","Centro Hospitalar e Universitário de Coimbra, E. P. E. (510103448)",ISODER (502241594),"22.022,00 €",05-04-2017,06-05-2015,365 dias,"Portugal, Coimbra, Coimbra","Artigo 20.º, n.º 1, alínea a) do Código dos Contratos Públicos",31-12-2015,"22.022,00 €",,"",,Não aplicável.,Não aplicável.,FALSE
040203412017 Material de Laboratório,Ajuste Direto Regime Geral,Aquisição de bens móveis,"33000000-0, Equipamento médico, medicamentos e produtos para cuidados pessoais","Centro Hospitalar e Universitário de Coimbra, E. P. E. (510103448)","WERFEN PORTUGAL, LDA (EX IZASA) (501086110)","32.343,11 €",04-04-2017,10-03-2017,365 dias,"Portugal, Coimbra, Coimbra","Artigo 24.º, n.º 1, alínea e) do Código dos Contratos Públicos","","",,"",,Não aplicável.,Não aplicável.,FALSE
040110352015 imunoglobulina humana contra o antigenio d 250,Ajuste Direto Regime Geral,Aquisição de bens móveis,"33698000-9, Produtos para fins clínicos","Centro Hospitalar e Universitário de Coimbra, E. P. E. (510103448)",MILLER & MILLER LTD (GB291669322),"6.487,50 €",04-04-2017,27-04-2015,365 dias,"Portugal, Coimbra, Coimbra","Artigo 24.º, n.º 1, alínea e) do Código dos Contratos Públicos",31-12-2015,"3.460,00 €",,Alteração de quantidades,,Não aplicável.,Não aplicável.,FALSE
040110062015 ETOSSUXIMIDA 250MG CAPS,Ajuste Direto Regime Geral,Aquisição de bens móveis,"33690000-3, Medicamentos vários","Centro Hospitalar e Universitário de Coimbra, E. P. E. (510103448)",IDIS (700513982),"384,00 €",04-04-2017,28-04-2015,365 dias,"Portugal, Coimbra, Coimbra","Artigo 24.º, n.º 1, alínea e) do Código dos Contratos Públicos",28-04-2015,"384,00 €",,"",,Não aplicável.,Não aplicável.,FALSE
040110012015 DOLUTEGRAVIR 50 MG COMP,Ajuste Direto Regime Geral,Aquisição de bens móveis,"33698000-9, Produtos para fins clínicos","Centro Hospitalar e Universitário de Coimbra, E.P. (510103448)",VIIVHIV HEALTHCARE (509117961),"96.800,22 €",04-04-2017,06-05-2015,365 dias,"Portugal, Coimbra, Coimbra","Artigo 24.º, n.º 1, alínea e) do Código dos Contratos Públicos",31-12-2015,"96.800,22 €",,"",,Não aplicável.,Não aplicável.,FALSE
050102542015 LEDIPASVIR 90MG+SOFOSBUVIR 400MG COMP,Ajuste Direto Regime Geral,Aquisição de bens móveis,"33698000-9, Produtos para fins clínicos","Centro Hospitalar e Universitário de Coimbra, E. P. E. (510103448)",gilead (503604704),"46.183,83 €",04-04-2017,15-12-2015,365 dias,"Portugal, Coimbra, Coimbra",Artigo 258.º do Código dos Contratos Públicos,31-12-2015,"46.183,83 €",,"",,Não aplicável.,Não aplicável.,FALSE
050102552015 LEDIPASVIR 90MG+SOFOSBUVIR 400MG COMP,Ajuste Direto Regime Geral,Aquisição de bens móveis,"33698000-9, Produtos para fins clínicos","Centro Hospitalar e Universitário de Coimbra, E. P. E. (510103448)",gilead (503604704),"46.183,83 €",04-04-2017,09-12-2015,365 dias,"Portugal, Coimbra, Coimbra",Artigo 258.º do Código dos Contratos Públicos,31-12-2015,"46.183,83 €",,"",,Não aplicável.,Não aplicável.,FALSE
Aquisição de 1 cardiotocógrafo para o serviço de obstetrícia,Ajuste Direto Regime Geral,Aquisição de bens móveis,"33000000-0, Equipamento médico, medicamentos e produtos para cuidados pessoais","Centro Hospitalar e Universitário de Coimbra, E. P. E. (510103448)",SPECULUM (502996323),"7.490,00 €",04-04-2017,22-02-2017,30 dias,"Portugal, Coimbra, Coimbra","Artigo 20.º, n.º 1, alínea a) do Código dos Contratos Públicos","","",,"",,Não aplicável.,Não aplicável.,FALSE
050102562015 LEDIPASVIR 90MG+SOFOSBUVIR 400MG COMP,Ajuste Direto Regime Geral,Aquisição de bens móveis,"33698000-9, Produtos para fins clínicos","Centro Hospitalar e Universitário de Coimbra, E. P. E. (510103448)",GILEAD (503604704),"92.367,66 €",04-04-2017,17-12-2015,365 dias,"Portugal, Coimbra, Coimbra",Artigo 258.º do Código dos Contratos Públicos,31-12-2015,"46.183,83 €",,Ministeririo da saude -gilead,,Não aplicável.,Não aplicável.,FALSE
Aquisição de 3 estações de diagnóstico IMAC,Ajuste Direto Regime Geral,Aquisição de bens móveis,"30000000-9, Máquinas, equipamento e material de escritório e de informática, excepto mobiliário e pacotes de programas (software)","Centro Hospitalar e Universitário de Coimbra, E. P. E. (510103448)",Espectro (503115231),"5.358,00 €",04-04-2017,15-03-2017,5 dias,"Portugal, Coimbra, Coimbra","Artigo 20.º, n.º 1, alínea a) do Código dos Contratos Públicos","","",,"",,Não aplicável.,Não aplicável.,FALSE
Aquisição de um aspirador de secreções para o serviço de pneumologia do HG (2150301),Ajuste Direto Regime Geral,Aquisição de bens móveis,"33000000-0, Equipamento médico, medicamentos e produtos para cuidados pessoais","Centro Hospitalar e Universitário de Coimbra, E. P. E. (510103448)","SANO TECNICA, LDA (500239819)","202,50 €",04-04-2017,06-03-2017,30 dias,"Portugal, Coimbra, Coimbra","Artigo 20.º, n.º 1, alínea a) do Código dos Contratos Públicos","","",,"",,Não aplicável.,Não aplicável.,FALSE
Aquisição de um Monitor Cardíaco multiparametrico,Ajuste Direto Regime Geral,Aquisição de bens móveis,"33000000-0, Equipamento médico, medicamentos e produtos para cuidados pessoais","Centro Hospitalar e Universitário de Coimbra, E. P. E. (510103448)",GERANSERS (507683528),"1.600,00 €",04-04-2017,24-02-2017,15 dias,"Portugal, Coimbra, Coimbra","Artigo 20.º, n.º 1, alínea a) do Código dos Contratos Públicos","","",,"",,Não aplicável.,Não aplicável.,FALSE
Fornecimento e montagem de lâminas verticais em oneumologia /imunoalergologia- consulta externa,Ajuste Direto Regime Geral,Aquisição de bens móveis,"39000000-2, Mobiliário (incl. de escritório), acessórios, aparelhos domésticos (excl. iluminação) e produtos de limpeza","Centro Hospitalar e Universitário de Coimbra, E. P. E. (510103448)",seixas e simões (503620106),"550,00 €",04-04-2017,06-03-2017,30 dias,"Portugal, Coimbra, Coimbra","Artigo 20.º, n.º 1, alínea a) do Código dos Contratos Públicos","","",,"",,Não aplicável.,Não aplicável.,FALSE
Aquisição de 15 acess point para o serviço de tecnologias e sistemas de informação (820),Ajuste Direto Regime Geral,Aquisição de bens móveis,"30000000-9, Máquinas, equipamento e material de escritório e de informática, excepto mobiliário e pacotes de programas (software)","Centro Hospitalar e Universitário de Coimbra, E. P. E. (510103448)",cesario e cesario (503133329),"2.250,00 €",04-04-2017,24-03-2017,7 dias,"Portugal, Coimbra, Coimbra","Artigo 20.º, n.º 1, alínea a) do Código dos Contratos Públicos","","",,"",,Não aplicável.,Não aplicável.,FALSE
050102572015 LEDIPASVIR 90MG+SOFOSBUVIR 400MG COMP,Ajuste Direto Regime Geral,Aquisição de bens móveis,"33698000-9, Produtos para fins clínicos","Centro Hospitalar e Universitário de Coimbra, E. P. E. (510103448)",GILEAD (503604704),"46.183,83 €",04-04-2017,15-12-2015,365 dias,"Portugal, Coimbra, Coimbra",Artigo 258.º do Código dos Contratos Públicos,31-12-2015,"46.183,83 €",,"",,Não aplicável.,Não aplicável.,FALSE
Ajuste Directo nº040000582015-Reagentes Virologia-HIV p/o Serviço Sangue e Med. Transfusional,Ajuste Direto Regime Geral,Aquisição de bens móveis,"33696500-0, Reagentes de laboratório","Centro Hospitalar e Universitário de Coimbra, E. P. E. (510103448)","Bio-Rad Laboratorios (501301321), Quilaban (500399670), Abbott Laboratorios (500006148)","184.469,84 €",04-04-2017,12-03-2015,365 dias,"Portugal, Coimbra, Coimbra","Artigo 20.º, n.º 1, alínea a) do Código dos Contratos Públicos",31-12-2015,"14.077,00 €",,Houve menos doentes a efectuar analises,,Não aplicável.,Não aplicável.,FALSE
050102582015 LEDIPASVIR 90MG+SOFOSBUVIR 400MG COMP,Ajuste Direto Regime Geral,Aquisição de bens móveis,"33698000-9, Produtos para fins clínicos","Centro Hospitalar e Universitário de Coimbra, E. P. E. (510103448)",GILEAD (503604704),"46.183,83 €",04-04-2017,15-12-2015,365 dias,"Portugal, Coimbra, Coimbra",Artigo 258.º do Código dos Contratos Públicos,31-12-2015,"46.183,83 €",,"",,Não aplicável.,Não aplicável.,FALSE
050102532015 Ledipasvir 90mg+Sofosbuvir 400mg comp.,Ajuste Direto Regime Geral,Aquisição de bens móveis,"33698000-9, Produtos para fins clínicos","Centro Hospitalar e Universitário de Coimbra, E. P. E. (510103448)",GILEAD (503604704),"46.183,83 €",03-04-2017,15-12-2015,365 dias,"Portugal, Coimbra, Coimbra",Artigo 258.º do Código dos Contratos Públicos,31-12-2015,"46.183,83 €",,"",,Não aplicável.,Não aplicável.,FALSE
050102522015 Ledipasvir 90mg+Sofosbuvir 400mg comp.,Ajuste Direto Regime Geral,Aquisição de bens móveis,"33698000-9, Produtos para fins clínicos","Centro Hospitalar e Universitário de Coimbra, E. P. E. (510103448)",GILEAD (503604704),"46.183,83 €",03-04-2017,15-12-2015,365 dias,"Portugal, Coimbra, Coimbra",Artigo 258.º do Código dos Contratos Públicos,31-12-2015,"46.183,83 €",,"",,Não aplicável.,Não aplicável.,FALSE
050102512015 Ledipasvir 90mg+Sofosbuvir 400mg comp.,Ajuste Direto Regime Geral,Aquisição de bens móveis,"33698000-9, Produtos para fins clínicos","Centro Hospitalar e Universitário de Coimbra, E. P. E. (510103448)",GILEAD (503604704),"46.183,83 €",03-04-2017,15-12-2015,365 dias,"Portugal, Coimbra, Coimbra",Artigo 258.º do Código dos Contratos Públicos,31-12-2015,"46.183,83 €",,"",,Não aplicável.,Não aplicável.,FALSE
050102452015 Ledipasvir 90mg+Sofosbuvir 400mg comp.,Ajuste Direto Regime Geral,Aquisição de bens móveis,"33698000-9, Produtos para fins clínicos","Centro Hospitalar e Universitário de Coimbra, E. P. E. (510103448)",GILEAD (503604704),"92.367,66 €",03-04-2017,07-12-2015,365 dias,"Portugal, Coimbra, Coimbra",Artigo 258.º do Código dos Contratos Públicos,31-12-2015,"46.183,83 €",,MINISTERIO DA SAUDE - GILEAD,,Não aplicável.,Não aplicável.,FALSE
050102432015 Ledipasvir 90mg+Sofosbuvir 400mg comp.,Ajuste Direto Regime Geral,Aquisição de bens móveis,"33698000-9, Produtos para fins clínicos","Centro Hospitalar e Universitário de Coimbra, E. P. E. (510103448)",GILEAD (503604704),"46.183,83 €",03-04-2017,30-11-2015,365 dias,"Portugal, Coimbra, Coimbra",Artigo 258.º do Código dos Contratos Públicos,31-12-2015,"46.183,83 €",,"",,Não aplicável.,Não aplicável.,FALSE
050102422015 Ledipasvir 90mg+Sofosbuvir 400mg comp.,Ajuste Direto Regime Geral,Aquisição de bens móveis,"33698000-9, Produtos para fins clínicos","Centro Hospitalar e Universitário de Coimbra, E. P. E. (510103448)",GILEAD (503604704),"46.183,83 €",03-04-2017,30-11-2015,365 dias,"Portugal, Coimbra, Coimbra",Artigo 258.º do Código dos Contratos Públicos,31-12-2015,"46.183,83 €",,"",,Não aplicável.,Não aplicável.,FALSE
050102382015 Ledipasvir 90mg+Sofosbuvir 400mg comp.,Ajuste Direto Regime Geral,Aquisição de bens móveis,"33698000-9, Produtos para fins clínicos","Centro Hospitalar e Universitário de Coimbra, E. P. E. (510103448)",GILEAD (503604704),"46.183,83 €",03-04-2017,30-11-2015,365 dias,"Portugal, Coimbra, Coimbra",Artigo 258.º do Código dos Contratos Públicos,31-12-2015,"46.183,83 €",,"",,Não aplicável.,Não aplicável.,FALSE
050102402015 Ledipasvir 90mg+Sofosbuvir 400mg comp.,Ajuste Direto Regime Geral,Aquisição de bens móveis,"33698000-9, Produtos para fins clínicos","Centro Hospitalar e Universitário de Coimbra, E. P. E. (510103448)",GILEAD (503604704),"46.183,83 €",03-04-2017,30-11-2015,365 dias,"Portugal, Coimbra, Coimbra",Artigo 258.º do Código dos Contratos Públicos,31-12-2015,"46.183,83 €",,"",,Não aplicável.,Não aplicável.,FALSE
050102412015 Ledipasvir 90mg+Sofosbuvir 400mg comp.,Ajuste Direto Regime Geral,Aquisição de bens móveis,"33698000-9, Produtos para fins clínicos","Centro Hospitalar e Universitário de Coimbra, E. P. E. (510103448)",Gilead (503604704),"46.183,83 €",03-04-2017,30-11-2015,365 dias,"Portugal, Coimbra, Coimbra",Artigo 258.º do Código dos Contratos Públicos,31-12-2015,"46.183,83 €",,"",,Não aplicável.,Não aplicável.,FALSE
2 Aparelhos de anestesia com monitorização para o Bloco Operatório do Serviço de Urgência dos HUC,Concurso público,Aquisição de bens móveis,"33172100-7, Aparelhos para anestesia","Centro Hospitalar e Universitário de Coimbra, E. P. E. (510103448)","GETINGE GROUP PORTUGAL, UNIPESSOAL LDA (MAQUET) (506819698)","79.000,00 €",03-04-2017,23-03-2017,28 dias,"Portugal, Coimbra, Coimbra","Artigo 20.º, n.º 1, alínea b) do Código dos Contratos Públicos","","",,"",,Não aplicável.,Não aplicável.,FALSE
Manutenção e suporte da infraestrutura servidores/storage-HUC/HG-2017,Ajuste Direto Regime Geral,Aquisição de serviços,"72000000-5, Serviços de TI: consultoria, desenvolvimento de software, Internet e apoio","Centro Hospitalar e Universitário de Coimbra, E. P. E. (510103448)",Hewlett Packard portugal (502407697),"86.934,68 €",03-04-2017,06-03-2017,365 dias,"Portugal, Coimbra, Coimbra","Artigo 20.º, n.º 1, alínea a) do Código dos Contratos Públicos","","",,"",,Não aplicável.,Não aplicável.,FALSE
"Aquisição de serviços para transporte de medicamentos, para o CHUC.",Concurso público,Aquisição de serviços,"60161000-4, Serviços de transporte de encomendas","Centro Hospitalar e Universitário de Coimbra, E. P. E. (510103448)",Torrestir (501929797),"42.933,00 €",03-04-2017,03-03-2017,240 dias,"Portugal, Coimbra, Coimbra","Artigo 20.º, n.º 1, alínea b) do Código dos Contratos Públicos","","",,"",,Não aplicável.,Não aplicável.,FALSE
Ajuste Directo nº040000552015-Reagentes Virologia-Hepatite Delta p/o Serviço de Sangue e Medicina Transfusional,Ajuste Direto Regime Geral,Aquisição de bens móveis,"33696500-0, Reagentes de laboratório","Centro Hospitalar e Universitário de Coimbra, E. P. E. (510103448)","Bio-Rad Laboratorios, Lda. (501301321)","2.221,44 €",03-04-2017,07-01-2015,365 dias,"Portugal, Coimbra, Coimbra","Artigo 26.º, n.º 1, alínea a) do Código dos Contratos Públicos",31-12-2015,"2.221,44 €",,"",,Não aplicável.,Não aplicável.,FALSE
procedimento n.º 040110982015 –  ledipasvir 90 mg + sofosbuvir 400 mg – comp.,Ajuste Direto Regime Geral,Aquisição de bens móveis,"33698000-9, Produtos para fins clínicos","Centro Hospitalar e Universitário de Coimbra, E. P. E. (510103448)","GILEAD SCIENCES, LDA (503604704)","46.183,83 €",03-04-2017,04-05-2015,365 dias,"Portugal, Coimbra, Coimbra","Artigo 24.º, n.º 1, alínea e) do Código dos Contratos Públicos",31-12-2015,"46.183,83 €",,"",,Não aplicável.,Não aplicável.,FALSE
procedimento n.º 040110972015 –  ledipasvir 90 mg + sofosbuvir 400 mg – comp.,Ajuste Direto Regime Geral,Aquisição de bens móveis,"33698000-9, Produtos para fins clínicos","Centro Hospitalar e Universitário de Coimbra, E. P. E. (510103448)","GILEAD SCIENCES, LDA (503604704)","46.183,83 €",31-03-2017,04-05-2015,365 dias,"Portugal, Coimbra, Coimbra","Artigo 24.º, n.º 1, alínea e) do Código dos Contratos Públicos",04-05-2015,"46.183,83 €",,"",,Não aplicável.,Não aplicável.,FALSE
050102272015 LEDIPASVIR 90MG+SOFOSBUVIR 400MG COMP,Ajuste Direto Regime Geral,Aquisição de bens móveis,"33698000-9, Produtos para fins clínicos","Centro Hospitalar e Universitário de Coimbra, E. P. E. (510103448)",GILEAD (503604704),"46.183,83 €",31-03-2017,30-11-2015,365 dias,"Portugal, Coimbra, Coimbra",Artigo 258.º do Código dos Contratos Públicos,31-12-2015,"46.183,83 €",,"",,Não aplicável.,Não aplicável.,FALSE
050102312015 LEDIPASVIR 90MG+SOFOSBUVIR 400MG COMP,Ajuste Direto Regime Geral,Aquisição de bens móveis,"33698000-9, Produtos para fins clínicos","Centro Hospitalar e Universitário de Coimbra, E. P. E. (510103448)",GILEAD (503604704),"46.183,83 €",31-03-2017,30-11-2015,365 dias,"Portugal, Coimbra, Coimbra",Artigo 258.º do Código dos Contratos Públicos,31-12-2015,"46.183,83 €",,"",,Não aplicável.,Não aplicável.,FALSE
050102332015 LEDIPASVIR 90MG+SOFOSBUVIR 400MG COMP,Ajuste Direto Regime Geral,Aquisição de bens móveis,"33698000-9, Produtos para fins clínicos","Centro Hospitalar e Universitário de Coimbra, E. P. E. (510103448)",GILEAD (503604704),"46.183,83 €",31-03-2017,30-11-2015,365 dias,"Portugal, Coimbra, Coimbra",Artigo 258.º do Código dos Contratos Públicos,31-12-2015,"46.183,83 €",,"",,Não aplicável.,Não aplicável.,FALSE
050102322015 LEDIPASVIR 90MG+SOFOSBUVIR 400MG COMP,Ajuste Direto Regime Geral,Aquisição de bens móveis,"33698000-9, Produtos para fins clínicos","Centro Hospitalar e Universitário de Coimbra, E. P. E. (510103448)",GILEAD (503604704),"46.183,83 €",31-03-2017,30-11-2015,365 dias,"Portugal, Coimbra, Coimbra",Artigo 258.º do Código dos Contratos Públicos,31-12-2015,"46.183,83 €",,"",,Não aplicável.,Não aplicável.,FALSE
050102352015 LEDIPASVIR 90MG+SOFOSBUVIR 400MG COMP,Ajuste Direto Regime Geral,Aquisição de bens móveis,"33698000-9, Produtos para fins clínicos","Centro Hospitalar e Universitário de Coimbra, E. P. E. (510103448)",GILEAD (503604704),"46.183,83 €",31-03-2017,30-11-2015,365 dias,"Portugal, Coimbra, Coimbra",Artigo 258.º do Código dos Contratos Públicos,31-12-2015,"46.183,83 €",,"",,Não aplicável.,Não aplicável.,FALSE
050102362015 LEDIPASVIR 90MG+SOFOSBUVIR 400MG COMP,Ajuste Direto Regime Geral,Aquisição de bens móveis,"33698000-9, Produtos para fins clínicos","Centro Hospitalar e Universitário de Coimbra, E. P. E. (510103448)",GILEAD (503604704),"46.183,83 €",31-03-2017,30-11-2015,365 dias,"Portugal, Coimbra, Coimbra",Artigo 258.º do Código dos Contratos Públicos,31-12-2015,"46.183,83 €",,"",,Não aplicável.,Não aplicável.,FALSE
050102262015 LEDIPASVIR 90MG+SOFOSBUVIR 400MG COMP,Ajuste Direto Regime Geral,Aquisição de bens móveis,"33698000-9, Produtos para fins clínicos","Centro Hospitalar e Universitário de Coimbra, E. P. E. (510103448)",GILEAD (503604704),"92.367,66 €",31-03-2017,30-11-2015,365 dias,"Portugal, Coimbra, Coimbra",Artigo 258.º do Código dos Contratos Públicos,31-12-2015,"30.789,22 €",,MINISTERIO DA SAUDE,,Não aplicável.,Não aplicável.,FALSE
050102252015 SOFOSBUVIR 400MG COMP,Ajuste Direto Regime Geral,Aquisição de bens móveis,"33698000-9, Produtos para fins clínicos","Centro Hospitalar e Universitário de Coimbra, E. P. E. (510103448)",GILEAD (503604704),"41.164,83 €",31-03-2017,26-11-2015,365 dias,"Portugal, Coimbra, Coimbra",Artigo 258.º do Código dos Contratos Públicos,31-12-2015,"41.164,83 €",,"",,Não aplicável.,Não aplicável.,FALSE
050102232015 LEDIPASVIR 90MG+SOFOSBUVIR 400MG COMP,Ajuste Direto Regime Geral,Aquisição de bens móveis,"33698000-9, Produtos para fins clínicos","Centro Hospitalar e Universitário de Coimbra, E. P. E. (510103448)",GILEAD (503604704),"46.183,83 €",31-03-2017,26-11-2015,365 dias,"Portugal, Coimbra, Coimbra",Artigo 258.º do Código dos Contratos Públicos,31-12-2015,"46.183,83 €",,"",,Não aplicável.,Não aplicável.,FALSE
050102222015 LEDIPASVIR 90MG+SOFOSBUVIR 400MG COMP,Ajuste Direto Regime Geral,Aquisição de bens móveis,"33698000-9, Produtos para fins clínicos","Centro Hospitalar e Universitário de Coimbra, E. P. E. (510103448)",GILEAD (503604704),"46.183,83 €",31-03-2017,26-11-2015,365 dias,"Portugal, Coimbra, Coimbra",Artigo 258.º do Código dos Contratos Públicos,31-12-2015,"46.183,83 €",,"",,Não aplicável.,Não aplicável.,FALSE
050102212015 LEDIPASVIR 90MG+SOFOSBUVIR 400MG COMP,Ajuste Direto Regime Geral,Aquisição de bens móveis,"33698000-9, Produtos para fins clínicos","Centro Hospitalar e Universitário de Coimbra, E. P. E. (510103448)",GILEAD (503604704),"46.183,83 €",31-03-2017,26-11-2015,365 dias,"Portugal, Coimbra, Coimbra",Artigo 258.º do Código dos Contratos Públicos,31-12-2015,"46.183,83 €",,"",,Não aplicável.,Não aplicável.,FALSE
050102192015 LEDIPASVIR 90MG+SOFOSBUVIR 400MG COMP,Ajuste Direto Regime Geral,Aquisição de bens móveis,"33698000-9, Produtos para fins clínicos","Centro Hospitalar e Universitário de Coimbra, E. P. E. (510103448)",GILEAD (503604704),"46.183,83 €",31-03-2017,26-11-2015,365 dias,"Portugal, Coimbra, Coimbra",Artigo 258.º do Código dos Contratos Públicos,31-12-2015,"46.183,83 €",,"",,Não aplicável.,Não aplicável.,FALSE
050102182015 LEDIPASVIR 90MG+SOFOSBUVIR 400MG COMP,Ajuste Direto Regime Geral,Aquisição de bens móveis,"33698000-9, Produtos para fins clínicos","Centro Hospitalar e Universitário de Coimbra, E. P. E. (510103448)",GILEAD (503604704),"46.183,83 €",31-03-2017,31-12-2015,365 dias,"Portugal, Coimbra, Coimbra",Artigo 258.º do Código dos Contratos Públicos,"","",,"",,Não aplicável.,Não aplicável.,FALSE
050102152015 LEDIPASVIR 90MG+SOFOSBUVIR 400MG COMP,Ajuste Direto Regime Geral,Aquisição de bens móveis,"33698000-9, Produtos para fins clínicos","Centro Hospitalar e Universitário de Coimbra, E. P. E. (510103448)",gilead (503604704),"41.164,83 €",31-03-2017,26-11-2015,365 dias,"Portugal, Coimbra, Coimbra",Artigo 258.º do Código dos Contratos Públicos,31-12-2015,"41.164,83 €",,"",,Não aplicável.,Não aplicável.,FALSE
050102162015 LEDIPASVIR 90MG+SOFOSBUVIR 400MG COMP,Ajuste Direto Regime Geral,Aquisição de bens móveis,"33698000-9, Produtos para fins clínicos","Centro Hospitalar e Universitário de Coimbra, E. P. E. (510103448)",gilead (503604704),"46.183,83 €",31-03-2017,26-11-2015,365 dias,"Portugal, Coimbra, Coimbra",Artigo 258.º do Código dos Contratos Públicos,31-12-2015,"46.183,83 €",,"",,Não aplicável.,Não aplicável.,FALSE
050102162015 LEDIPASVIR 90MG+SOFOSBUVIR 400MG COMP,Ajuste Direto Regime Geral,Aquisição de bens móveis,"33698000-9, Produtos para fins clínicos","Centro Hospitalar e Universitário de Coimbra, E. P. E. (510103448)",gilead (503604704),"46.183,83 €",31-03-2017,26-11-2016,365 dias,"Portugal, Coimbra, Coimbra",Artigo 258.º do Código dos Contratos Públicos,"","",,"",,Não aplicável.,Não aplicável.,FALSE
Caixas e Pastas de Arquivo,Ajuste Direto Regime Geral,Aquisição de bens móveis,"30100000-0, Máquinas, equipamento e material de escritório, excepto computadores, impressoras e mobiliário","Centro Hospitalar e Universitário de Coimbra, E.P. (510103448)","ENVELOPRINTER,LDA (508469830)","1.120,00 €",31-03-2017,10-03-2017,270 dias,"Portugal, Coimbra, Coimbra","Artigo 20.º, n.º 1, alínea a) do Código dos Contratos Públicos",10-03-2017,"1.120,00 €",,"",,Não aplicável.,Não aplicável.,FALSE
Ajuste Directo nº040000512015-Reag. Virologia-Transplante de Órgãos Sólidos p/o Serv. Sangue e Med. Transfusional,Ajuste Direto Regime Geral,Aquisição de bens móveis,"33696500-0, Reagentes de laboratório","Centro Hospitalar e Universitário de Coimbra, E.P. (510103448)",Abbott Laboratórios (500006148),"49.088,00 €",31-03-2017,06-02-2015,365 dias,"Portugal, Coimbra, Coimbra","Artigo 26.º, n.º 1, alínea a) do Código dos Contratos Públicos",31-12-2015,"24.843,00 €",,"Não houve necessidade, menos doentes para analise",,Não aplicável.,Não aplicável.,FALSE
CATETERES,Ajuste Direto Regime Geral,Aquisição de bens móveis,"33000000-0, Equipamento médico, medicamentos e produtos para cuidados pessoais","Centro Hospitalar e Universitário de Coimbra, E. P. E. (510103448)",TERUMO EUROPE ESPANHA SL (DELEGAÇAO PORTUGAL) (980472024),"66.687,50 €",31-03-2017,20-01-2017,365 dias,"Portugal, Coimbra, Coimbra","Artigo 24.º, n.º 1, alínea e) do Código dos Contratos Públicos",31-12-2017,"23.402,50 €",,AQUISIÇAO PARCIAL,,Não aplicável.,Não aplicável.,FALSE
MATERIAL TRATAMENTO,Ajuste Direto Regime Geral,Aquisição de bens móveis,"33000000-0, Equipamento médico, medicamentos e produtos para cuidados pessoais","Centro Hospitalar e Universitário de Coimbra, E. P. E. (510103448)","FRESENIUS KABI PHARMA PORTUGAL, LDA (504293753)","14.758,90 €",31-03-2017,18-01-2017,365 dias,"Portugal, Coimbra, Coimbra","Artigo 24.º, n.º 1, alínea e) do Código dos Contratos Públicos",31-12-2017,"8.810,28 €",,AQUSIÇAO PARCIAL,,Não aplicável.,Não aplicável.,FALSE
MATERIAL TRATAMENTO,Ajuste Direto Regime Geral,Aquisição de bens móveis,"33000000-0, Equipamento médico, medicamentos e produtos para cuidados pessoais","Centro Hospitalar e Universitário de Coimbra, E. P. E. (510103448)","BIOSONDA - COMERCIO MAT. HOSPITALAR, LDA (501463313)","52.547,50 €",31-03-2017,20-01-2017,365 dias,"Portugal, Coimbra, Coimbra","Artigo 24.º, n.º 1, alínea e) do Código dos Contratos Públicos",31-12-2017,"45.165,48 €",,AQUISIÇAO PARCIAL,,Não aplicável.,Não aplicável.,FALSE
MICROGUIA HIDROFILICA,Ajuste Direto Regime Geral,Aquisição de bens móveis,"33000000-0, Equipamento médico, medicamentos e produtos para cuidados pessoais","Centro Hospitalar e Universitário de Coimbra, E. P. E. (510103448)","MEDICINALIA CORMEDICA - COMER. PROD. MED. HOSP.,LD (500684324)","17.980,00 €",31-03-2017,09-02-2017,365 dias,"Portugal, Coimbra, Coimbra","Artigo 24.º, n.º 1, alínea e) do Código dos Contratos Públicos",31-12-2017,"17.980,00 €",,"",,Não aplicável.,Não aplicável.,FALSE
GUIA METALICA,Ajuste Direto Regime Geral,Aquisição de bens móveis,"33000000-0, Equipamento médico, medicamentos e produtos para cuidados pessoais","Centro Hospitalar e Universitário de Coimbra, E. P. E. (510103448)","ABBOTT LABORATORIOS, LDA (500006148)","74.800,00 €",31-03-2017,26-01-2017,365 dias,"Portugal, Coimbra, Coimbra","Artigo 24.º, n.º 1, alínea e) do Código dos Contratos Públicos",31-12-2017,"74.800,00 €",,"",,Não aplicável.,Não aplicável.,FALSE
MATERIAL TRATAMENTO,Ajuste Direto Regime Geral,Aquisição de bens móveis,"33000000-0, Equipamento médico, medicamentos e produtos para cuidados pessoais","Centro Hospitalar e Universitário de Coimbra, E. P. E. (510103448)","SMITHS MEDICAL PORTUGAL UNIPESSOAL, LDA (507445937)","30.846,00 €",31-03-2017,26-01-2017,365 dias,"Portugal, Coimbra, Coimbra","Artigo 24.º, n.º 1, alínea e) do Código dos Contratos Públicos",31-12-2017,"30.846,00 €",,"",,Não aplicável.,Não aplicável.,FALSE
MANIFOLD,Ajuste Direto Regime Geral,Aquisição de bens móveis,"33000000-0, Equipamento médico, medicamentos e produtos para cuidados pessoais","Centro Hospitalar e Universitário de Coimbra, E. P. E. (510103448)","MED XRAY - SISTEMAS MEDICOS, LDA (506187071)","13.075,00 €",31-03-2017,20-01-2017,365 dias,"Portugal, Coimbra, Coimbra","Artigo 24.º, n.º 1, alínea e) do Código dos Contratos Públicos",31-12-2017,"",,AUSENCIA DE PEDIDO DE COMPRA,,Não aplicável.,Não aplicável.,FALSE
PARTICULA EMBOLIZACAO,Ajuste Direto Regime Geral,Aquisição de bens móveis,"33000000-0, Equipamento médico, medicamentos e produtos para cuidados pessoais","Centro Hospitalar e Universitário de Coimbra, E. P. E. (510103448)","BIOCOMPATIBLES UK LIMITED, BTG (DE298038646)","60.200,00 €",31-03-2017,20-01-2017,365 dias,"Portugal, Coimbra, Coimbra","Artigo 24.º, n.º 1, alínea e) do Código dos Contratos Públicos",31-12-2017,"60.200,00 €",,"",,Não aplicável.,Não aplicável.,FALSE
MATERIAL TRATAMENTO,Ajuste Direto Regime Geral,Aquisição de bens móveis,"33000000-0, Equipamento médico, medicamentos e produtos para cuidados pessoais","Centro Hospitalar e Universitário de Coimbra, E. P. E. (510103448)","H.R. -  HOSPITALAR, LDA (501895558)","9.578,19 €",31-03-2017,20-01-2017,365 dias,"Portugal, Coimbra, Coimbra","Artigo 24.º, n.º 1, alínea e) do Código dos Contratos Públicos",31-12-2017,"8.007,01 €",,AQUISIÇAO PARCIAL,,Não aplicável.,Não aplicável.,FALSE
MATERIAL TRATAMENTO,Ajuste Direto Regime Geral,Aquisição de bens móveis,"33000000-0, Equipamento médico, medicamentos e produtos para cuidados pessoais","Centro Hospitalar e Universitário de Coimbra, E. P. E. (510103448)","MEDICINALIA CORMEDICA - COMER. PROD. MED. HOSP.,LD (500684324)","41.850,50 €",31-03-2017,20-01-2017,365 dias,"Portugal, Coimbra, Coimbra","Artigo 24.º, n.º 1, alínea e) do Código dos Contratos Públicos",31-12-2017,"40.374,52 €",,AQUISIÇAO PARCIAL,,Não aplicável.,Não aplicável.,FALSE
BALAO FARMACO ACTP,Ajuste Direto Regime Geral,Aquisição de bens móveis,"33000000-0, Equipamento médico, medicamentos e produtos para cuidados pessoais","Centro Hospitalar e Universitário de Coimbra, E. P. E. (510103448)","B BRAUN MEDICAL, LDA (501506543)","49.500,00 €",31-03-2017,20-01-2017,365 dias,"Portugal, Coimbra, Coimbra","Artigo 24.º, n.º 1, alínea e) do Código dos Contratos Públicos",31-12-2017,"12.750,00 €",,AQUISIÇAO PARCIAL,,Não aplicável.,Não aplicável.,FALSE
AGULHA,Ajuste Direto Regime Geral,Aquisição de bens móveis,"33000000-0, Equipamento médico, medicamentos e produtos para cuidados pessoais","Centro Hospitalar e Universitário de Coimbra, E. P. E. (510103448)","EMB - EQUIPAMENTOS MÉDICOS BIOLÓGICOS, LDA (507364457)","25.850,00 €",31-03-2017,08-02-2017,365 dias,"Portugal, Coimbra, Coimbra","Artigo 24.º, n.º 1, alínea e) do Código dos Contratos Públicos",31-12-2017,"24.785,00 €",,AQUISIÇAO PARCIAL,,Não aplicável.,Não aplicável.,FALSE
MATERIAL TRATAMENTO,Ajuste Direto Regime Geral,Aquisição de bens móveis,"33000000-0, Equipamento médico, medicamentos e produtos para cuidados pessoais","Centro Hospitalar e Universitário de Coimbra, E. P. E. (510103448)","MEDTRONIC PORTUGAL, LDA (504223933)","42.445,50 €",31-03-2017,18-01-2017,365 dias,"Portugal, Coimbra, Coimbra","Artigo 24.º, n.º 1, alínea e) do Código dos Contratos Públicos",31-12-2017,"41.311,95 €",,AQUISIÇAO PARCIAL,,Não aplicável.,Não aplicável.,FALSE
MICROCATETER EMBOLIZACAO,Ajuste Direto Regime Geral,Aquisição de bens móveis,"33000000-0, Equipamento médico, medicamentos e produtos para cuidados pessoais","Centro Hospitalar e Universitário de Coimbra, E. P. E. (510103448)",TERUMO EUROPE ESPANHA SL (DELEGAÇAO PORTUGAL) (980472024),"46.060,00 €",31-03-2017,20-01-2017,365 dias,"Portugal, Coimbra, Coimbra","Artigo 24.º, n.º 1, alínea e) do Código dos Contratos Públicos",31-12-2017,"46.060,00 €",,"",,Não aplicável.,Não aplicável.,FALSE
MATERIAL TRATAMENTO,Ajuste Direto Regime Geral,Aquisição de bens móveis,"33000000-0, Equipamento médico, medicamentos e produtos para cuidados pessoais","Centro Hospitalar e Universitário de Coimbra, E. P. E. (510103448)","KVTECH PORTUGAL - PROD. MEDICOS UNIPESSOAL, LDA (508671531)","10.625,00 €",31-03-2017,26-01-2017,365 dias,"Portugal, Coimbra, Coimbra","Artigo 24.º, n.º 1, alínea e) do Código dos Contratos Públicos",31-12-2017,"9.255,69 €",,AQUISIÇAO PARCIAL,,Não aplicável.,Não aplicável.,FALSE
KIT PUNCAO,Ajuste Direto Regime Geral,Aquisição de bens móveis,"33000000-0, Equipamento médico, medicamentos e produtos para cuidados pessoais","Centro Hospitalar e Universitário de Coimbra, E. P. E. (510103448)","MERIT MEDICAL PORTUGAL, S.A. (513157816)","29.000,00 €",31-03-2017,18-01-2017,365 dias,"Portugal, Coimbra, Coimbra","Artigo 24.º, n.º 1, alínea e) do Código dos Contratos Públicos",31-12-2017,"24.000,00 €",,AQUISIÇAO PARCIAL,,Não aplicável.,Não aplicável.,FALSE
SACO OSTOMIA,Ajuste Direto Regime Geral,Aquisição de bens móveis,"33000000-0, Equipamento médico, medicamentos e produtos para cuidados pessoais","Centro Hospitalar e Universitário de Coimbra, E. P. E. (510103448)",SPC - SOUTH POINT CARE - ESP. FARMAC. LDA (SPCARE) (508284872),"11.605,40 €",31-03-2017,26-01-2017,365 dias,"Portugal, Coimbra, Coimbra","Artigo 24.º, n.º 1, alínea e) do Código dos Contratos Públicos",31-12-2017,"11.605,40 €",,"",,Não aplicável.,Não aplicável.,FALSE
MATERIAL TRATAMENTO,Ajuste Direto Regime Geral,Aquisição de bens móveis,"33000000-0, Equipamento médico, medicamentos e produtos para cuidados pessoais","Centro Hospitalar e Universitário de Coimbra, E. P. E. (510103448)","B BRAUN MEDICAL, LDA (501506543)","6.370,00 €",31-03-2017,23-03-2017,275 dias,"Portugal, Coimbra, Coimbra","Artigo 24.º, n.º 1, alínea e) do Código dos Contratos Públicos",31-12-2017,"6.125,50 €",,AQUISIÇAO PARCIAL,,Não aplicável.,Não aplicável.,FALSE
