Objeto do Contrato,Tipo de Procedimento,Tipo(s) de Contrato,CPVs,Entidade(s) Adjudicante(s),Entidade(s) Adjudicatária(s),Preço Contratual,Data de Publicação,Data de Celebração do Contrato,Prazo de Execução,Local de Execução,Fundamentação,Data de Fecho do Contrato,Preço Total Efetivo,Causas das Alterações ao Prazo,Causas das Alterações ao Preço,Estado,N.º registo do Acordo Quadro,Descrição do Acordo Quadro,Procedimento Centralizado
Aquisição de serviços no âmbito da uniformização da imagem institucional da DGS,Ajuste Direto Regime Geral,Aquisição de serviços,"79000000-4, Serviços a empresas: direito, comercialização, consultoria, recrutamento, impressão e segurança",Direção-Geral da Saúde (600037100),"Pinto Azul Unipessoal, Lda. (510941710)","32.160,00 €",05-04-2018,23-03-2018,284 dias,"Portugal, Lisboa","Artigo 20.º, n.º 1, alínea a) do Código dos Contratos Públicos",,,,,,Não aplicável.,Não aplicável.,FALSE
Aquisição de serviços de manutenção e assistência técnica para 3 impressoras multifuncionais a cores marca RICOH,Consulta Prévia,Aquisição de serviços,"72610000-9, Serviços de assistência informática",Direção-Geral da Saúde (600037100),"Ricoh Portugal, Unipessoal, Lda. (508080975)","19.759,19 €",02-04-2018,19-03-2018,280 dias,"Portugal, Lisboa","Artigo 20.º, n.º 1, alínea c) do Código dos Contratos Públicos",,,,,,Não aplicável.,Não aplicável.,FALSE
