Objeto do Contrato,Tipo de Procedimento,Tipo(s) de Contrato,CPVs,Entidade(s) Adjudicante(s),Entidade(s) Adjudicatária(s),Preço Contratual,Data de Publicação,Data de Celebração do Contrato,Prazo de Execução,Local de Execução,Fundamentação,Data de Fecho do Contrato,Preço Total Efetivo,Causas das Alterações ao Prazo,Causas das Alterações ao Preço,Estado,N.º registo do Acordo Quadro,Descrição do Acordo Quadro,Procedimento Centralizado
Renovação de aquisição de serviços médicos sem especialidade para unidades do Dicad - CRI de Vila Real/ ET Chaves ano de 2018. Processo nº18000138 - CA nº382018 - Ramon José Mosteyrin.,Ajuste Direto Regime Geral,Aquisição de serviços,"85121000-3, Serviços de prática médica","Administração Regional de Saúde do Norte, I. P. (503135593)",Ramon José Bandín Mosteyrín (231006373),"35.904,00 €",20-06-2018,27-03-2018,366 dias,"Portugal, Vila Real, Vila Real","Artigo 20.º, n.º 1, alínea a) do Código dos Contratos Públicos",31-12-2018,"34.276,00 €",,Numero de horas realizadas inferiores ao numero de horas contratadas,,Não aplicável.,Não aplicável.,FALSE
Renovação de aquisição de serviços médicos sem especialidade para unidades do Dicad - CRI de Vila Real ano de 2018. Processo nº18000138 - CA nº402018 - Ana Filipa Teixeira.,Ajuste Direto Regime Geral,Aquisição de serviços,"85121000-3, Serviços de prática médica","Administração Regional de Saúde do Norte, I. P. (503135593)",Ana Filipa Brás César Teixeira (229198414),"15.136,00 €",19-06-2018,27-04-2018,366 dias,"Portugal, Vila Real, Vila Real","Artigo 20.º, n.º 1, alínea a) do Código dos Contratos Públicos",31-12-2018,"11.638,00 €",,Numero de horas realizadas inferiores ao numero de horas contratadas,,Não aplicável.,Não aplicável.,FALSE
Renovação de aquisição de serviços médicos sem especialidade para unidades do Dicad - CRI Porto Central/ET S.M. Feira ano de 2018. Processo nº18000138 - CA nº302018 - Maria Luísa Leite.,Ajuste Direto Regime Geral,Aquisição de serviços,"85121000-3, Serviços de prática médica","Administração Regional de Saúde do Norte, I. P. (503135593)",Maria Luísa Rodrigues da Silveira Leite (236906488),"39.952,00 €",19-06-2018,29-01-2018,366 dias,"Portugal, Porto, Vila Nova de Gaia","Artigo 20.º, n.º 1, alínea a) do Código dos Contratos Públicos",31-12-2018,"36.091,00 €",,Numero de horas realizadas inferiores ao numero de horas contratadas,,Não aplicável.,Não aplicável.,FALSE
Renovação de aquisição de serviços médicos sem especialidade para unidades do Dicad - CRI Porto Central/ET Vila Nova Gaia  ano de 2018. Processo nº18000138 - CA nº372018 - Eduardo Palha Fernandes.,Ajuste Direto Regime Geral,Aquisição de serviços,"85121000-3, Serviços de prática médica","Administração Regional de Saúde do Norte, I. P. (503135593)",Eduardo Jorge Palha Teixeira Fernandes (248885421),"10.758,00 €",19-06-2018,29-01-2018,366 dias,"Portugal, Porto, Vila Nova de Gaia","Artigo 20.º, n.º 1, alínea a) do Código dos Contratos Públicos",31-12-2018,"9.240,00 €",,Numero de horas realizadas inferiores ao numero de horas contratadas,,Não aplicável.,Não aplicável.,FALSE
Renovação de aquisição de serviços médicos com especialidade para unidades do Dicad - PIAM - Programa Integrado de Atendimento Materno ano de 2018. Processo nº18000138 - CA nº412018 - Vítor Bruno Leite.,Ajuste Direto Regime Geral,Aquisição de serviços,"85121270-6, Serviços de psiquiatria ou psicologia","Administração Regional de Saúde do Norte, I. P. (503135593)",Vitor Bruno da Silva Ferreira Leite (241528259),"10.816,00 €",18-06-2018,02-02-2018,366 dias,"Portugal, Porto, Matosinhos","Artigo 20.º, n.º 1, alínea a) do Código dos Contratos Públicos",31-12-2018,"4.940,00 €",,Numero de horas realizadas inferiores ao numero de horas contratadas,,Não aplicável.,Não aplicável.,FALSE
Renovação de aquisição de serviços médicos com especialidade para unidades do Dicad - CRI Viana do Castelo ano de 2018. Processo nº18000138 - CA nº242018 - Teresa Novo.,Ajuste Direto Regime Geral,Aquisição de serviços,"85121270-6, Serviços de psiquiatria ou psicologia","Administração Regional de Saúde do Norte, I. P. (503135593)",Teresa Maria da Silva Novo (188014179),"8.112,00 €",18-06-2018,02-02-2018,366 dias,"Portugal, Viana do Castelo, Viana do Castelo","Artigo 20.º, n.º 1, alínea a) do Código dos Contratos Públicos",31-12-2018,"7.462,00 €",,Numero de horas realizadas inferiores ao numero de horas contratadas,,Não aplicável.,Não aplicável.,FALSE
Aquisição de serviços médicos sem especialidade para unidades do Dicad - CRI Porto Central - ET Cedofeita ano de 2018. Processo nº18000138 - CA nº492018 - João Felgueiras.,Ajuste Direto Regime Geral,Aquisição de serviços,"85121000-3, Serviços de prática médica","Administração Regional de Saúde do Norte, I. P. (503135593)",João Leonel Gonçalves de Pinho Felgueiras (217665411),"9.152,00 €",18-06-2018,29-01-2018,366 dias,"Portugal, Porto, Vila Nova de Gaia","Artigo 20.º, n.º 1, alínea a) do Código dos Contratos Públicos",31-12-2018,"7.656,00 €",,Numero de horas realizadas inferiores ao numero de horas contratadas,,Não aplicável.,Não aplicável.,FALSE
Aquisição de serviços médicos com especialidade para unidades do Dicad - CRI Porto Central - ET S.M. da Feira ano de 2018. Processo nº18000138 - CA nº272018 - Ângela Maria Ribeiro.,Ajuste Direto Regime Geral,Aquisição de serviços,"85121000-3, Serviços de prática médica","Administração Regional de Saúde do Norte, I. P. (503135593)",Ângela Maria Queirós Ribeiro (204948770),"12.844,00 €",15-06-2018,29-01-2018,366 dias,"Portugal, Porto, Vila Nova de Gaia","Artigo 20.º, n.º 1, alínea a) do Código dos Contratos Públicos",31-12-2018,"11.323,00 €",,Numero de horas efetuadas inferiores ao numero de horas realizadas,,Não aplicável.,Não aplicável.,FALSE
"Aquisição de serviços médicos sem especialidade para unidades do Dicad para o CRI Porto Central/ ET Gaia no de 2018. Processo nº18000138 - CA nº312018 - José Magueta - Unipessoal, Lda.",Ajuste Direto Regime Geral,Aquisição de serviços,"85121000-3, Serviços de prática médica","Administração Regional de Saúde do Norte, I. P. (503135593)",José Magueta Unipessoal Lda (513815651),"20.240,00 €",15-06-2018,29-01-2018,366 dias,"Portugal, Porto, Vila Nova de Gaia","Artigo 20.º, n.º 1, alínea a) do Código dos Contratos Públicos",31-12-2018,"19.514,00 €",,Numero de horas realizadas inferiores ao numero de horas contratadas,,Não aplicável.,Não aplicável.,FALSE
Aquisição de serviços médicos sem especialidade para unidades do Dicad para o CRI Porto Central/ ET S.M. Feira ano de 2018. Processo nº18000138 - CA nº282018 - Elsa Marina Meireles.,Ajuste Direto Regime Geral,Aquisição de serviços,"85121000-3, Serviços de prática médica","Administração Regional de Saúde do Norte, I. P. (503135593)",Elsa Marina Cerqueira Meireles (219214751),"5.148,00 €",15-06-2018,29-01-2018,366 dias,"Portugal, Porto, Vila Nova de Gaia","Artigo 20.º, n.º 1, alínea a) do Código dos Contratos Públicos",31-12-2018,"4.147,00 €",,Numero de horas realizadas inferiores ao numero de horas contratadas,,Não aplicável.,Não aplicável.,FALSE
Aquisição de serviços médicos sem especialidade para unidades do Dicad para o CRI Porto Central/ ET Santa Maria Feira para o ano de 2018. Processo nº18000138 - CA nº522018 - João Manuel Borges Ferreira,Ajuste Direto Regime Geral,Aquisição de serviços,"85121000-3, Serviços de prática médica","Administração Regional de Saúde do Norte, I. P. (503135593)",João Manuel Borges Ferreira (238657027),"9.724,00 €",15-06-2018,29-01-2018,366 dias,"Portugal, Porto, Vila Nova de Gaia","Artigo 20.º, n.º 1, alínea a) do Código dos Contratos Públicos",31-12-2018,"8.140,00 €",,Numero de horas realizadas inferiores ao numero de horas contratadas,,Não aplicável.,Não aplicável.,FALSE
"Aquisição de serviços médicos com especialidade para unidades do Dicad - CRI Porto Central/ET Cedofeita para o ano de 2018. Processo nº18000138 - CA nº262018 - Nuno Rodrigues Silva - Serviços Clínicos, Lda. ",Ajuste Direto Regime Geral,Aquisição de serviços,"85121270-6, Serviços de psiquiatria ou psicologia","Administração Regional de Saúde do Norte, I. P. (503135593)","Nuno Rodrigues Silva - Serviços Clínicos e Formação Unipessoal, Lda (510666680)","20.280,00 €",15-06-2018,29-01-2018,366 dias,"Portugal, Porto, Porto","Artigo 20.º, n.º 1, alínea a) do Código dos Contratos Públicos",31-12-2018,"17.940,00 €",,Numero de horas realizadas inferiores ao numero de horas contratadas,,Não aplicável.,Não aplicável.,FALSE
Aquisição de serviços médicos sem especialidade para unidade do Dicad - CRI Porto Central/ET Cedofeita para o ano de 2018. Procedimento nº18000138 - CA nº262018 - Mónica Alexandra Almeida.,Ajuste Direto Regime Geral,Aquisição de serviços,"85121000-3, Serviços de prática médica","Administração Regional de Saúde do Norte, I. P. (503135593)",Mónica Alexandra Ferreira de Almeida (209682175),"6.864,00 €",15-06-2018,29-01-2018,366 dias,"Portugal, Porto, Vila Nova de Gaia","Artigo 20.º, n.º 1, alínea a) do Código dos Contratos Públicos",31-12-2018,"5.082,00 €",,Numero de horas realizadas inferiores ao numero de horas contratadas,,Não aplicável.,Não aplicável.,FALSE
Aquisição de serviços médicos com especialidade para a unidade do DICAD - CRI Bragança para o ano de 2018. Processo nº18000138 - CA nº182018 - José  Alvarez Cutrin.,Ajuste Direto Regime Geral,Aquisição de serviços,"85121000-3, Serviços de prática médica","Administração Regional de Saúde do Norte, I. P. (503135593)",José Angel Alvarez Cutrin (231829523),"58.136,00 €",15-06-2018,02-02-2018,366 dias,"Portugal, Braganca, Bragança","Artigo 20.º, n.º 1, alínea a) do Código dos Contratos Públicos",31-12-2018,"43.037,80 €",,Numero de horas realizadas inferiores ao numero de horas contratadas,,Não aplicável.,Não aplicável.,FALSE
Aquisição de serviços médicos sem especialidades para o DICAD - Unidade de Alcoologia do Porto para o ano de 2018. Processo nº18000138 - CA nº422018 - Amujaci Fátima Guedes.,Ajuste Direto Regime Geral,Aquisição de serviços,"85121000-3, Serviços de prática médica","Administração Regional de Saúde do Norte, I. P. (503135593)",Amujaci Fátima Alves de Moraes Guedes (228088046),"37.752,00 €",14-06-2018,29-01-2018,366 dias,"Portugal, Porto, Matosinhos","Artigo 20.º, n.º 1, alínea a) do Código dos Contratos Públicos",31-12-2018,"37.752,00 €",,"",,Não aplicável.,Não aplicável.,FALSE
Aquisição de serviços médicos sem especialidades para o DICAD - Unidade de Alcoologia do Porto para o ano de 2018. Processo nº18000138 - CA nº432018 - Diniz Reis.,Ajuste Direto Regime Geral,Aquisição de serviços,"85121000-3, Serviços de prática médica","Administração Regional de Saúde do Norte, I. P. (503135593)",Diniz Alvino Marques dos Reis (232997020),"28.600,00 €",14-06-2018,29-01-2018,366 dias,"Portugal, Porto, Matosinhos","Artigo 20.º, n.º 1, alínea a) do Código dos Contratos Públicos",31-12-2018,"28.600,00 €",,"",,Não aplicável.,Não aplicável.,FALSE
AP 506 Aquisição de material de consumo clinico,Consulta Prévia,Aquisição de bens móveis,"33140000-3, Material médico de consumo","Administração Regional de Saúde do Norte, I. P. (503135593)","Vacuete Portugal, SA (505348470)","88,49 €",11-06-2018,21-05-2018,230 dias,"Portugal, Porto, Maia<BR/>Portugal, Vila Real, Vila Real","Artigo 20.º, n.º 1, alínea c) do Código dos Contratos Públicos",25-05-2018,"88,49 €",,"",,Não aplicável.,Não aplicável.,FALSE
