Objeto do Contrato,Tipo de Procedimento,Tipo(s) de Contrato,CPVs,Entidade(s) Adjudicante(s),Entidade(s) Adjudicatária(s),Preço Contratual,Data de Publicação,Data de Celebração do Contrato,Prazo de Execução,Local de Execução,Fundamentação,Data de Fecho do Contrato,Preço Total Efetivo,Causas das Alterações ao Prazo,Causas das Alterações ao Preço,Estado,N.º registo do Acordo Quadro,Descrição do Acordo Quadro,Procedimento Centralizado
ÓTICA HOPKINS 30º 4MM 30CM (REPARAÇÃO POR SUBSTITUIÇÃO) - B.O. UROLOGIA,Ajuste Direto Regime Geral,Aquisição de bens móveis,"33162200-5, Instrumentos para blocos operatórios","Centro Hospitalar do Baixo Vouga, E. P. E. (510123210)","TEPREL - EQUIPAMENTO MÉDICOS, S.A. (502262184)","1.195,00 €",30-08-2018,29-08-2018,45 dias,"Portugal, Aveiro, Aveiro","Artigo 24.º, n.º 1, alínea e), subalínea ii) do Código dos Contratos Públicos",,,,,,Não aplicável.,Não aplicável.,FALSE
"GRANDE REPARAÇÃO DO ANGIOGRAFO CARL ZEISS, S/N: 984741 (INV: 33753) DA CONS.OFTALMOLOGIA",Ajuste Direto Regime Geral,Aquisição de bens móveis,"33110000-4, Equipamento de imagiologia para uso médico, dentário e veterinário","Centro Hospitalar do Baixo Vouga, E. P. E. (510123210)",Carl Zeiss (980503043),"2.293,85 €",30-08-2018,09-08-2018,45 dias,"Portugal, Aveiro, Aveiro","Artigo 24.º, n.º 1, alínea e), subalínea ii) do Código dos Contratos Públicos",,,,,,Não aplicável.,Não aplicável.,FALSE
"GRANDE REPARAÇÃO DO MOTOR/PUNHO DE SERRAS AESCULAP, S/N: 002269 (INV: 48668)",Ajuste Direto Regime Geral,Aquisição de bens móveis,"33100000-1, Equipamento médico","Centro Hospitalar do Baixo Vouga, E. P. E. (510123210)","B BRAUN MEDICAL, LDA (501506543)","2.871,58 €",30-08-2018,09-08-2018,30 dias,"Portugal, Aveiro, Aveiro","Artigo 24.º, n.º 1, alínea e), subalínea ii) do Código dos Contratos Públicos",,,,,,Não aplicável.,Não aplicável.,FALSE
FORNECIMENTO E INSTALAÇÃO DE DEPÓSITO DE AQS NA SUBESTAÇÃO DO BLOCO 6/8,Ajuste Direto Regime Geral,Aquisição de bens móveis,"39715000-7, Aquecedores de água e aquecimento central para edifícios; equipamento para canalização","Centro Hospitalar do Baixo Vouga, E. P. E. (510123210)","Pinto & Cruz - Instalações e Manutenção, S.A. (510134980)","9.149,14 €",24-08-2018,27-07-2018,60 dias,"Portugal, Aveiro, Aveiro","Artigo 20.º, n.º 1, alínea d) do Código dos Contratos Públicos",,,,,,Não aplicável.,Não aplicável.,FALSE
