Objeto do Contrato,Tipo de Procedimento,Tipo(s) de Contrato,CPVs,Entidade(s) Adjudicante(s),Entidade(s) Adjudicatária(s),Preço Contratual,Data de Publicação,Data de Celebração do Contrato,Prazo de Execução,Local de Execução,Fundamentação,Data de Fecho do Contrato,Preço Total Efetivo,Causas das Alterações ao Prazo,Causas das Alterações ao Preço,Estado,N.º registo do Acordo Quadro,Descrição do Acordo Quadro,Procedimento Centralizado
AQUISIÇÃO DE REAGENTES,Ajuste Direto Regime Geral,Aquisição de bens móveis,"33696500-0, Reagentes de laboratório","Instituto Nacional de Saúde Dr. Ricardo Jorge, I.P. (501427511)","SOQUÍMICA - Sociedade de Representações de Quimica, LDA (500274231)","312,00 €",07-09-2012,31-07-2012,20 dias,"Portugal, Lisboa, Lisboa","Artigo 24.º, n.º 1, alínea a) do Código dos Contratos Públicos",,,,,,Não aplicável.,Não aplicável.,
AQUISIÇÃO DE REAGENTES,Ajuste Direto Regime Geral,Aquisição de bens móveis,"33696500-0, Reagentes de laboratório","Instituto Nacional de Saúde Dr. Ricardo Jorge, I.P. (501427511)","BIOPORTUGAL - Quimico Farmacêutica, LDA (502380543)","60,00 €",07-09-2012,31-07-2012,5 dias,"Portugal, Lisboa, Lisboa","Artigo 24.º, n.º 1, alínea a) do Código dos Contratos Públicos",,,,,,Não aplicável.,Não aplicável.,
AQUISIÇÃO DE REAGENTES,Ajuste Direto Regime Geral,Aquisição de bens móveis,"33696500-0, Reagentes de laboratório","Instituto Nacional de Saúde Dr. Ricardo Jorge, I.P. (501427511)","BIO-RAD Laboratories, Lda (501301321)","140,90 €",06-09-2012,06-08-2012,5 dias,"Portugal, Lisboa, Lisboa","Artigo 24.º, n.º 1, alínea a) do Código dos Contratos Públicos",,,,,,Não aplicável.,Não aplicável.,
AQUISIÇÃO DE REAGENTES,Ajuste Direto Regime Geral,Aquisição de bens móveis,"33696500-0, Reagentes de laboratório","Instituto Nacional de Saúde Dr. Ricardo Jorge, I.P. (501427511)","VWR-International - Material de Laboratório, LDA (503842770)","4.649,45 €",06-09-2012,06-08-2012,3 dias,"Portugal, Lisboa, Lisboa","Artigo 24.º, n.º 1, alínea a) do Código dos Contratos Públicos",,,,,,Não aplicável.,Não aplicável.,
AQUISIÇÃO DE REAGENTES,Ajuste Direto Regime Geral,Aquisição de bens móveis,"33696500-0, Reagentes de laboratório","Instituto Nacional de Saúde Dr. Ricardo Jorge, I.P. (501427511)","ILC - Instrumentos de Laboratório e Científicos, LDA (500948208)","2.368,00 €",06-09-2012,31-07-2012,10 dias,"Portugal, Lisboa, Lisboa","Artigo 24.º, n.º 1, alínea a) do Código dos Contratos Públicos",,,,,,Não aplicável.,Não aplicável.,
AQUISIÇÃO DE REAGENTES,Ajuste Direto Regime Geral,Aquisição de bens móveis,"33696500-0, Reagentes de laboratório","Instituto Nacional de Saúde Dr. Ricardo Jorge, I.P. (501427511)","ROCHE Sistemas de Diagnósticos, Lda (504282921)","5.251,39 €",06-09-2012,31-07-2012,5 dias,"Portugal, Lisboa, Lisboa","Artigo 24.º, n.º 1, alínea a) do Código dos Contratos Públicos",,,,,,Não aplicável.,Não aplicável.,
AQUISIÇÃO DE REAGENTES,Ajuste Direto Regime Geral,Aquisição de bens móveis,"33696500-0, Reagentes de laboratório","Instituto Nacional de Saúde Dr. Ricardo Jorge, I.P. (501427511)","BAPTISTA MARQUES, Diagnóstica e Reagentes, Lda (501439110)","21.608,67 €",05-09-2012,28-03-2012,3 dias,"Portugal, Lisboa, Lisboa","Artigo 20.º, n.º 1, alínea a) do Código dos Contratos Públicos",,,,,,Não aplicável.,Não aplicável.,
AQUISIÇÃO DE REAGENTES,Ajuste Direto Regime Geral,Aquisição de bens móveis,"33696500-0, Reagentes de laboratório","Instituto Nacional de Saúde Dr. Ricardo Jorge, I.P. (501427511)","L.G.C.STANDARDS, S.L.U. (ESB62362041)","2.520,00 €",05-09-2012,28-03-2012,15 dias,"Portugal, Lisboa, Lisboa","Artigo 20.º, n.º 1, alínea a) do Código dos Contratos Públicos",,,,,,Não aplicável.,Não aplicável.,
AQUISIÇÃO DE REAGENTES,Ajuste Direto Regime Geral,Aquisição de bens móveis,"33696500-0, Reagentes de laboratório","Instituto Nacional de Saúde Dr. Ricardo Jorge, I.P. (501427511)",TEBU-BIO-LDA (509036171),"2.986,00 €",05-09-2012,28-03-2012,5 dias,"Portugal, Lisboa, Lisboa<BR/>Portugal, Lisboa, Lisboa","Artigo 20.º, n.º 1, alínea a) do Código dos Contratos Públicos",,,,,,Não aplicável.,Não aplicável.,
AQUISIÇÃO DE REAGENTES,Ajuste Direto Regime Geral,Aquisição de bens móveis,"33696500-0, Reagentes de laboratório","Instituto Nacional de Saúde Dr. Ricardo Jorge, I.P. (501427511)","ROCHE Sistemas de Diagnósticos, Lda (504282921)","17.167,57 €",03-09-2012,22-08-2012,5 dias,"Portugal, Lisboa, Lisboa","Artigo 26.º, n.º 1, alínea a) do Código dos Contratos Públicos",,,,,,Não aplicável.,Não aplicável.,
Aquisição de Reagentes,Ajuste Direto Regime Geral,Aquisição de bens móveis,"33696500-0, Reagentes de laboratório","Instituto Nacional de Saúde Dr. Ricardo Jorge, I.P. (501427511)","IZASA PORTUGAL - Distribuições Técnicas, Ldª (501086110)","11.987,42 €",03-09-2012,27-08-2012,2 dias,"Portugal, Lisboa, Lisboa","Artigo 24.º, n.º 1, alínea b) do Código dos Contratos Públicos",,,,,,Não aplicável.,Não aplicável.,
Fornecimento de peças para câmara fitoclima,Ajuste Direto Regime Geral,Aquisição de bens móveis,"42670000-3, Peças e acessórios para máquinas-ferramentas","Instituto Nacional de Saúde Dr. Ricardo Jorge, I.P. (501427511)","CONCESSUS-Sociedade de Apetrechamento Técnico e Científico, S.A. (500070040)","521,90 €",31-08-2012,27-01-2012,10 dias,"Portugal, Lisboa, Lisboa","Artigo 20.º, n.º 1, alínea a) do Código dos Contratos Públicos",,,,,,Não aplicável.,Não aplicável.,
Aquisição de reagentes,Ajuste Direto Regime Geral,Aquisição de bens móveis,"33696500-0, Reagentes de laboratório","Instituto Nacional de Saúde Dr. Ricardo Jorge, I.P. (501427511)",Frilabo (507958861),"680,00 €",31-08-2012,22-08-2012,5 dias,"Portugal, Porto, Maia","Artigo 20.º, n.º 1, alínea a) do Código dos Contratos Públicos",,,,,,Não aplicável.,Não aplicável.,
