Objeto do Contrato,Tipo de Procedimento,Tipo(s) de Contrato,CPVs,Entidade(s) Adjudicante(s),Entidade(s) Adjudicatária(s),Preço Contratual,Data de Publicação,Data de Celebração do Contrato,Prazo de Execução,Local de Execução,Fundamentação,Data de Fecho do Contrato,Preço Total Efetivo,Causas das Alterações ao Prazo,Causas das Alterações ao Preço,Estado,N.º registo do Acordo Quadro,Descrição do Acordo Quadro,Procedimento Centralizado
"CONCURSO PÚBLICO PARA AQUISIÇÃO E INSTALAÇÃO DE UMA SOLUÇÃO INFORMÁTICA ESPECÍFICA PARA A GESTÃO E REGISTOS CLÍNICOS DA ATIVIDADE PERI-ANESTÉSICA PARA A UNIDADE LOCAL DE SAÚDE DE MATOSINHOS, EPE.",Concurso público,Aquisição de serviços,"72900000-9, Serviços informáticos de segurança (back-up) e serviços informáticos de conversão de catálogos","Unidade Local de Saúde de Matosinhos, EPE (ULSM) (506361390)",B-Simple (506188841),"199.000,00 €",11-12-2018,27-08-2018,122 dias,"Portugal<BR/>Portugal, Porto, Matosinhos","Artigo 20.º, n.º 1, alínea a) do Código dos Contratos Públicos",,,,,,Não aplicável.,Não aplicável.,TRUE
P259-AC-2017-199,Ao abrigo de acordo-quadro (art.º 259.º),Aquisição de bens móveis,"33600000-6, Produtos farmacêuticos","Unidade Local de Saúde de Matosinhos, E. P. E. (506361390)",NOVARTIS FARMA PRODUTOS FARMACEUTICOS S.A. (500063524),"67.344,72 €",11-12-2018,01-01-2018,365 dias,"Portugal, Porto, Matosinhos",Artigo 259.º do Código dos Contratos Públicos,,,,,,1771819,CP 2015/6 - Acordo quadro para o fornecimento de Medicamentos do Foro Oncológico,FALSE
Fornecimento e instalação de portas do Hall de Entrada do HPH,Consulta Prévia,Aquisição de bens móveis,"44200000-2, Produtos estruturais","Unidade Local de Saúde de Matosinhos, E. P. E. (506361390)","Nobre Objetivo Construções, Lda. (508705339)","17.838,00 €",11-12-2018,21-09-2018,30 dias,"Portugal, Porto, Matosinhos","Artigo 20.º, n.º 1, alínea c) do Código dos Contratos Públicos",,,,,,Não aplicável.,Não aplicável.,FALSE
P259-AC-2017-189,Ao abrigo de acordo-quadro (art.º 259.º),Aquisição de bens móveis,"33600000-6, Produtos farmacêuticos","Unidade Local de Saúde de Matosinhos, E. P. E. (506361390)","BAXTER MEDICO FARMACEUTICA,LDA (503347345)","1.290,60 €",11-12-2018,21-12-2017,365 dias,"Portugal, Porto, Matosinhos",Artigo 259.º do Código dos Contratos Públicos,,,,,,2545980,CP 2017/61 - Acordo quadro para fornecimento de Medicamentos Diversos   às Instituições e Serviços do Serviço Nacional de Saúde,FALSE
P259-AC-2017-189,Ao abrigo de acordo-quadro (art.º 259.º),Aquisição de bens móveis,"33600000-6, Produtos farmacêuticos","Unidade Local de Saúde de Matosinhos, E. P. E. (506361390)","BAXTER MEDICO FARMACEUTICA,LDA (503347345)","10.752,90 €",11-12-2018,01-01-2018,365 dias,"Portugal, Porto, Matosinhos",Artigo 259.º do Código dos Contratos Públicos,,,,,,1771819,CP 2015/6 - Acordo quadro para o fornecimento de Medicamentos do Foro Oncológico,FALSE
Aquisição de Serviços de Fornecimento e Instalação de Solução Informática que Viabilize a Implementação do Registo Eletrónico ao Utente em Contexto de Bloco Operatório para ULSM,Consulta Prévia,Aquisição de serviços,"72500000-0, Serviços relacionados com a informática","Unidade Local de Saúde de Matosinhos, EPE (ULSM) (506361390)","BIQ HEALTH SOLUTIONS, LDA. (504105337)","70.825,00 €",11-12-2018,27-08-2018,150 dias,"Portugal, Porto, Matosinhos<BR/>Portugal","Artigo 20.º, n.º 1, alínea c) do Código dos Contratos Públicos",,,,,,Não aplicável.,Não aplicável.,TRUE
Fornecimento de Medicamentos Antineoplásicos e Imunomoduladores (não incluídos no acordo-quadro),Concurso público,Aquisição de bens móveis,"33600000-6, Produtos farmacêuticos","Unidade Local de Saúde de Matosinhos, EPE (ULSM) (506361390)",CELGENE SOCIEDADE UNIPESSOAL LDA (507791690),"12.390,00 €",11-12-2018,08-11-2018,120 dias,"Portugal, Porto, Matosinhos","Artigo 20.º, n.º 1, alínea b) do Código dos Contratos Públicos",,,,,,Não aplicável.,Não aplicável.,FALSE
Fornecimento do Sistema Nervoso Cerebrospinal,Concurso público,Aquisição de bens móveis,"33600000-6, Produtos farmacêuticos","Unidade Local de Saúde de Matosinhos, EPE (ULSM) (506361390)","Sandoz Farmacêutica, Lda (506985261)","322,19 €",10-12-2018,29-11-2018,33 dias,"Portugal, Porto, Matosinhos","Artigo 20.º, n.º 1, alínea a) do Código dos Contratos Públicos",,,,,,Não aplicável.,Não aplicável.,FALSE
Fornecimento do Sistema Nervoso Cerebrospinal,Concurso público,Aquisição de bens móveis,"33600000-6, Produtos farmacêuticos","Unidade Local de Saúde de Matosinhos, EPE (ULSM) (506361390)",roche farmaceutica (500233810),"22,04 €",10-12-2018,29-11-2018,33 dias,"Portugal, Porto, Matosinhos","Artigo 20.º, n.º 1, alínea a) do Código dos Contratos Públicos",,,,,,Não aplicável.,Não aplicável.,FALSE
Fornecimento do Sistema Nervoso Cerebrospinal,Concurso público,Aquisição de bens móveis,"33600000-6, Produtos farmacêuticos","Unidade Local de Saúde de Matosinhos, EPE (ULSM) (506361390)",OVERPHARMA PRODUTOS MEDICOS E FARMACEUTICOS LDA. (505792362),"757,35 €",10-12-2018,29-11-2018,33 dias,"Portugal, Porto, Matosinhos","Artigo 20.º, n.º 1, alínea a) do Código dos Contratos Públicos",,,,,,Não aplicável.,Não aplicável.,FALSE
Fornecimento do Sistema Nervoso Cerebrospinal,Concurso público,Aquisição de bens móveis,"33600000-6, Produtos farmacêuticos","Unidade Local de Saúde de Matosinhos, EPE (ULSM) (506361390)","LABESFAL-LABORATORIOS ALMIRO, SA (501169580)","4.083,50 €",10-12-2018,29-11-2018,33 dias,"Portugal, Porto, Matosinhos","Artigo 20.º, n.º 1, alínea a) do Código dos Contratos Públicos",,,,,,Não aplicável.,Não aplicável.,FALSE
Fornecimento do Sistema Nervoso Cerebrospinal,Concurso público,Aquisição de bens móveis,"33600000-6, Produtos farmacêuticos","Unidade Local de Saúde de Matosinhos, EPE (ULSM) (506361390)","LABORATÓRIOS INIBSA, S.A. (500139571)","71,44 €",10-12-2018,29-11-2018,33 dias,"Portugal, Porto, Matosinhos","Artigo 20.º, n.º 1, alínea a) do Código dos Contratos Públicos",,,,,,Não aplicável.,Não aplicável.,FALSE
Fornecimento do Sistema Nervoso Cerebrospinal,Concurso público,Aquisição de bens móveis,"33600000-6, Produtos farmacêuticos","Unidade Local de Saúde de Matosinhos, EPE (ULSM) (506361390)","Fresenius Kabi Pharma Portugal, Lda. (504293753)","363,14 €",10-12-2018,29-11-2018,33 dias,"Portugal, Porto, Matosinhos","Artigo 20.º, n.º 1, alínea a) do Código dos Contratos Públicos",,,,,,Não aplicável.,Não aplicável.,FALSE
Fornecimento de medicamentos do Sistema Nervoso Cerebrospinal,Concurso público,Aquisição de bens móveis,"33600000-6, Produtos farmacêuticos","Unidade Local de Saúde de Matosinhos, EPE (ULSM) (506361390)","B. BRAUN MEDICAL, LDA. (501506543)","656,00 €",10-12-2018,29-11-2018,120 dias,"Portugal, Porto, Matosinhos","Artigo 20.º, n.º 1, alínea a) do Código dos Contratos Públicos",,,,,,Não aplicável.,Não aplicável.,FALSE
P259-AC-2017-151,Ao abrigo de acordo-quadro (art.º 259.º),Aquisição de bens móveis,"33600000-6, Produtos farmacêuticos","Unidade Local de Saúde de Matosinhos, E. P. E. (506361390)",astrazeneca (502942240),"24.454,72 €",10-12-2018,01-01-2018,365 dias,"Portugal, Porto, Matosinhos",Artigo 259.º do Código dos Contratos Públicos,,,,,,1771819,CP 2015/6 - Acordo quadro para o fornecimento de Medicamentos do Foro Oncológico,FALSE
P259-AC-2017-190,Ao abrigo de acordo-quadro (art.º 259.º),Aquisição de bens móveis,"33600000-6, Produtos farmacêuticos","Unidade Local de Saúde de Matosinhos, E. P. E. (506361390)","GILEAD SCIENCES, LDA. (503604704)","280.104,66 €",10-12-2018,01-01-2018,365 dias,"Portugal, Porto, Matosinhos",Artigo 259.º do Código dos Contratos Públicos,,,,,,2183729,Medicamentos antirretrovíricos para o tratamento da infeção por VIH,FALSE
P259-AC-2017-161,Ao abrigo de acordo-quadro (art.º 259.º),Aquisição de bens móveis,"33600000-6, Produtos farmacêuticos","Unidade Local de Saúde de Matosinhos, E. P. E. (506361390)",roche farmaceutica (500233810),"421.813,71 €",10-12-2018,01-01-2018,365 dias,"Portugal, Porto, Matosinhos",Artigo 259.º do Código dos Contratos Públicos,,,,,,1771819,CP 2015/6 - Acordo quadro para o fornecimento de Medicamentos do Foro Oncológico,FALSE
P259-AC-2017-145,Ao abrigo de acordo-quadro (art.º 259.º),Aquisição de bens móveis,"33600000-6, Produtos farmacêuticos","Unidade Local de Saúde de Matosinhos, E. P. E. (506361390)","ABBVIE, LDA (510229050)","1.057.136,16 €",10-12-2018,01-01-2018,365 dias,"Portugal, Porto, Matosinhos",Artigo 259.º do Código dos Contratos Públicos,,,,,,1771819,CP 2015/6 - Acordo quadro para o fornecimento de Medicamentos do Foro Oncológico,FALSE
P259-AC-2017-182,Ao abrigo de acordo-quadro (art.º 259.º),Aquisição de bens móveis,"33600000-6, Produtos farmacêuticos","Unidade Local de Saúde de Matosinhos, E. P. E. (506361390)",ViiV Healthcare (509117961),"3.816,72 €",10-12-2018,01-01-2018,365 dias,"Portugal, Porto, Matosinhos",Artigo 259.º do Código dos Contratos Públicos,,,,,,2183729,Medicamentos antirretrovíricos para o tratamento da infeção por VIH,FALSE
P259-AC-2017-182,Ao abrigo de acordo-quadro (art.º 259.º),Aquisição de bens móveis,"33600000-6, Produtos farmacêuticos","Unidade Local de Saúde de Matosinhos, E. P. E. (506361390)",ViiV Healthcare (509117961),"133.320,30 €",10-12-2018,01-01-2018,365 dias,"Portugal, Porto, Matosinhos",Artigo 259.º do Código dos Contratos Públicos,,,,,,2545980,CP 2017/61 - Acordo quadro para fornecimento de Medicamentos Diversos   às Instituições e Serviços do Serviço Nacional de Saúde,FALSE
Candeeiros de Teto para o Bloco de Partos,Ajuste Direto Regime Geral,Aquisição de bens móveis,"31500000-1, Equipamento para iluminação e lâmpadas eléctricas","Unidade Local de Saúde de Matosinhos, EPE (ULSM) (506361390)",Mundinter (500199906),"10.330,30 €",08-12-2018,26-06-2018,188 dias,"Portugal, Porto, Matosinhos","Artigo 20.º, n.º 1, alínea a) do Código dos Contratos Públicos",,,,,,Não aplicável.,Não aplicável.,FALSE
P259-AC-2017-174,Ao abrigo de acordo-quadro (art.º 259.º),Aquisição de bens móveis,"33600000-6, Produtos farmacêuticos","Unidade Local de Saúde de Matosinhos, E. P. E. (506361390)","BIOGEN IDEC PORTUGAL-SOC.FARM.UNIP, LDA (506415740)","309.020,80 €",08-12-2018,01-01-2018,365 dias,"Portugal, Porto, Matosinhos",Artigo 259.º do Código dos Contratos Públicos,,,,,,1771819,CP 2015/6 - Acordo quadro para o fornecimento de Medicamentos do Foro Oncológico,FALSE
Reparação de Colonoscópio,Ajuste Direto Regime Geral,Aquisição de serviços,"50420000-5, Serviços de reparação e manutenção de equipamento médico e cirúrgico","Unidade Local de Saúde de Matosinhos, E. P. E. (506361390)",CAREWILL (507484851),"5.950,00 €",08-12-2018,23-02-2018,311 dias,"Portugal, Porto, Matosinhos","Artigo 20.º, n.º 1, alínea a) do Código dos Contratos Públicos",,,,,,Não aplicável.,Não aplicável.,FALSE
P259-AC-2017-171,Ao abrigo de acordo-quadro (art.º 259.º),Aquisição de bens móveis,"33600000-6, Produtos farmacêuticos","Unidade Local de Saúde de Matosinhos, E. P. E. (506361390)","ACCORD HEALTHCARE, UNIPESSOAL, LDA (508622263)","1.082,50 €",08-12-2018,01-01-2018,365 dias,"Portugal, Porto, Matosinhos",Artigo 259.º do Código dos Contratos Públicos,,,,,,1771819,CP 2015/6 - Acordo quadro para o fornecimento de Medicamentos do Foro Oncológico,FALSE
P259-AC-2017-188,Ao abrigo de acordo-quadro (art.º 259.º),Aquisição de bens móveis,"33600000-6, Produtos farmacêuticos","Unidade Local de Saúde de Matosinhos, E. P. E. (506361390)","ABBVIE, LDA (510229050)","9.528,35 €",08-12-2018,01-01-2018,365 dias,"Portugal, Porto, Matosinhos",Artigo 259.º do Código dos Contratos Públicos,,,,,,2183729,Medicamentos antirretrovíricos para o tratamento da infeção por VIH,FALSE
Prestação de serviços de manutenção e assistência técnica a equipamentos de monitorização,Consulta Prévia,Aquisição de bens móveis,"33100000-1, Equipamento médico","Unidade Local de Saúde de Matosinhos, E. P. E. (506361390)","IBERDATA - Equipamentos, SA (501904921)","8.733,00 €",08-12-2018,22-06-2018,192 dias,"Portugal, Porto, Matosinhos","Artigo 20.º, n.º 1, alínea c) do Código dos Contratos Públicos",,,,,,Não aplicável.,Não aplicável.,FALSE
P259-AC-2017-185,Ao abrigo de acordo-quadro (art.º 259.º),Aquisição de bens móveis,"33600000-6, Produtos farmacêuticos","Unidade Local de Saúde de Matosinhos, E. P. E. (506361390)","GENERIS - FARMACÊUTICA, S.A. (508107997)","10.546,20 €",08-12-2018,01-01-2018,365 dias,"Portugal, Porto, Matosinhos",Artigo 259.º do Código dos Contratos Públicos,,,,,,1771819,CP 2015/6 - Acordo quadro para o fornecimento de Medicamentos do Foro Oncológico,FALSE
P259-AC-2017-173,Ao abrigo de acordo-quadro (art.º 259.º),Aquisição de bens móveis,"33600000-6, Produtos farmacêuticos","Unidade Local de Saúde de Matosinhos, E. P. E. (506361390)",SANOFI PRODUTOS FARMACEUTICOS LDA (500134960),"28.925,57 €",08-12-2018,01-01-2018,365 dias,"Portugal, Porto, Matosinhos",Artigo 259.º do Código dos Contratos Públicos,,,,,,1771819,CP 2015/6 - Acordo quadro para o fornecimento de Medicamentos do Foro Oncológico,FALSE
P259-AC-2017-173,Ao abrigo de acordo-quadro (art.º 259.º),Aquisição de bens móveis,"33600000-6, Produtos farmacêuticos","Unidade Local de Saúde de Matosinhos, E. P. E. (506361390)",SANOFI PRODUTOS FARMACEUTICOS LDA (500134960),"1.049,04 €",08-12-2018,01-01-2018,365 dias,"Portugal, Porto, Matosinhos",Artigo 259.º do Código dos Contratos Públicos,,,,,,2489595,CP 2016/18 - Acordo quadro para fornecimento de Medicamentos do Grupo 4: Sangue às Instituições e Serviços do Serviço Nacional de Saúde,FALSE
P259-AC-2017-172,Ao abrigo de acordo-quadro (art.º 259.º),Aquisição de bens móveis,"33600000-6, Produtos farmacêuticos","Unidade Local de Saúde de Matosinhos, E. P. E. (506361390)","PFIZER BIOFARMACEUTICA, LDA (513300376)","86.866,08 €",08-12-2018,01-01-2018,365 dias,"Portugal, Porto, Matosinhos",Artigo 259.º do Código dos Contratos Públicos,,,,,,1415640,CP 2015/7 - ACORDO QUADRO PARA FORNECIMENTO DE HORMONAS E OUTROS MEDICAMENTOS USADOS NO TRATAMENTO DAS DOENÇAS ENDÓCRINAS ÀS INSTITUIÇÕES E SERVIÇOS DO SERVIÇO NACIONAL DE SAÚDE,FALSE
P259-AC-2017-162,Ao abrigo de acordo-quadro (art.º 259.º),Aquisição de bens móveis,"33600000-6, Produtos farmacêuticos","Unidade Local de Saúde de Matosinhos, E. P. E. (506361390)","BAYER PORTUGAL, Lda. (500043256)","158.491,01 €",08-12-2018,01-01-2018,365 dias,"Portugal, Porto, Matosinhos",Artigo 259.º do Código dos Contratos Públicos,,,,,,1377420,Acordo quadro para fornecimento de medicamentos usados nas afecções oculares e otorrinolaringologias às instituições e serviços do serviço nacional de saúde,FALSE
P259-AC-2017-158,Ao abrigo de acordo-quadro (art.º 259.º),Aquisição de bens móveis,"33600000-6, Produtos farmacêuticos","Unidade Local de Saúde de Matosinhos, E. P. E. (506361390)","Janssen Cilag Farmacêutica, Lda (500189412)","617.651,88 €",08-12-2018,01-01-2018,365 dias,"Portugal, Porto, Matosinhos",Artigo 259.º do Código dos Contratos Públicos,,,,,,2183729,Medicamentos antirretrovíricos para o tratamento da infeção por VIH,FALSE
Fornecimento de Upgrade de Versão Maxpro/Paperless,Ajuste Direto Regime Geral,Aquisição de bens móveis,"48210000-3, Pacote de software para ligações em rede","Unidade Local de Saúde de Matosinhos, E. P. E. (506361390)",Sisqual - Emp. de Inv. e Desemv de Sist. Inf. SA (502772298),"9.945,00 €",08-12-2018,18-09-2018,104 dias,"Portugal, Porto, Matosinhos",Artigo 258.º do Código dos Contratos Públicos,,,,,,Não aplicável.,Não aplicável.,FALSE
P259-AC-2017-158,Ao abrigo de acordo-quadro (art.º 259.º),Aquisição de bens móveis,"33600000-6, Produtos farmacêuticos","Unidade Local de Saúde de Matosinhos, E. P. E. (506361390)","Janssen Cilag Farmacêutica, Lda (500189412)","484.579,78 €",08-12-2018,01-01-2018,365 dias,"Portugal, Porto, Matosinhos",Artigo 259.º do Código dos Contratos Públicos,,,,,,1771819,CP 2015/6 - Acordo quadro para o fornecimento de Medicamentos do Foro Oncológico,FALSE
P259-AC-2017-156,Ao abrigo de acordo-quadro (art.º 259.º),Aquisição de bens móveis,"33600000-6, Produtos farmacêuticos","Unidade Local de Saúde de Matosinhos, E. P. E. (506361390)",ferrer (500069190),"15.127,20 €",08-12-2018,01-01-2018,365 dias,"Portugal, Porto, Matosinhos",Artigo 259.º do Código dos Contratos Públicos,,,,,,1771819,CP 2015/6 - Acordo quadro para o fornecimento de Medicamentos do Foro Oncológico,FALSE
P259-AC-2017-164,Ao abrigo de acordo-quadro (art.º 259.º),Aquisição de bens móveis,"33600000-6, Produtos farmacêuticos","Unidade Local de Saúde de Matosinhos, E. P. E. (506361390)",MERCK SHARP & DOHME LDA (500191360),"252.697,35 €",08-12-2018,01-01-2018,365 dias,"Portugal, Porto, Matosinhos",Artigo 259.º do Código dos Contratos Públicos,,,,,,602067,"ONCURSO PÚBLICO PARA A CELEBRAÇÃO DE CONTRATOS PÚBLICOS DE APROVISIONAMENTO PARA A ÁREA DA SAÚDE, COM VISTA AO FORNECIMENTO DE MEDICAMENTOS DE CONSUMO GERAL - MEDICAÇÃO ANTIALÉRGICA, MEDICAMENTOS USADOS NO TRATAMENTO DE INTOXICAÇÕES, VITAMINAS E SAIS MINERAIS  E GRUPO 20.9 - OUTROS PRODUTOS, ÀS INSTITUIÇÕES E SERVIÇOS DO SERVIÇO NACIONAL DE SAÚDE",FALSE
Contrato de manutenção e assistência técnica às centrais telefônicas da ULSM,Ajuste Direto Regime Geral,Aquisição de bens móveis,"32550000-3, Equipamento telefónico","Unidade Local de Saúde de Matosinhos, E. P. E. (506361390)","2007 COM, Lda (508018030)","7.340,00 €",08-12-2018,03-01-2018,362 dias,"Portugal, Porto, Matosinhos",Artigo 258.º do Código dos Contratos Públicos,,,,,,Não aplicável.,Não aplicável.,FALSE
P259-AC-2017-164,Ao abrigo de acordo-quadro (art.º 259.º),Aquisição de bens móveis,"33600000-6, Produtos farmacêuticos","Unidade Local de Saúde de Matosinhos, E. P. E. (506361390)",MERCK SHARP & DOHME LDA (500191360),"4.481,25 €",08-12-2018,01-01-2018,365 dias,"Portugal, Porto, Matosinhos",Artigo 259.º do Código dos Contratos Públicos,,,,,,1771819,CP 2015/6 - Acordo quadro para o fornecimento de Medicamentos do Foro Oncológico,FALSE
"Prestação de Serviços de Manutenção e Assistência Técnica aos Sistemas de Alarme de Incêndio, Intrusão, Pânico, Fuga de Gás, Combustível, Sistema de Vigilância e Controlo de Acessos",Ajuste Direto Regime Geral,Aquisição de serviços,"50800000-3, Serviços de reparação e manutenção diversos","Unidade Local de Saúde de Matosinhos, E. P. E. (506361390)","Esegur, S.A. (503125873)","9.199,52 €",08-12-2018,13-04-2018,365 dias,"Portugal, Porto, Matosinhos","Artigo 20.º, n.º 1, alínea a) do Código dos Contratos Públicos",,,,,,Não aplicável.,Não aplicável.,FALSE
P259-AC-2017-165,Ao abrigo de acordo-quadro (art.º 259.º),Aquisição de bens móveis,"33600000-6, Produtos farmacêuticos","Unidade Local de Saúde de Matosinhos, E. P. E. (506361390)","FERRING PORTUGUESA-PROD. FARMAC.SOC.UNIP.,LDA. (502034831)","2.645,82 €",08-12-2018,01-01-2018,365 dias,"Portugal, Porto, Matosinhos",Artigo 259.º do Código dos Contratos Públicos,,,,,,1771819,CP 2015/6 - Acordo quadro para o fornecimento de Medicamentos do Foro Oncológico,FALSE
P259-AC-2017-152,Ao abrigo de acordo-quadro (art.º 259.º),Aquisição de bens móveis,"33600000-6, Produtos farmacêuticos","Unidade Local de Saúde de Matosinhos, E. P. E. (506361390)",ViiV Healthcare (509117961),"81,00 €",08-12-2018,01-01-2018,365 dias,"Portugal, Porto, Matosinhos",Artigo 259.º do Código dos Contratos Públicos,,,,,,2183729,Medicamentos antirretrovíricos para o tratamento da infeção por VIH,FALSE
P259-AC-2017-152,Ao abrigo de acordo-quadro (art.º 259.º),Aquisição de bens móveis,"33600000-6, Produtos farmacêuticos","Unidade Local de Saúde de Matosinhos, E. P. E. (506361390)",ViiV Healthcare (509117961),"240.109,65 €",08-12-2018,01-01-2018,365 dias,"Portugal, Porto, Matosinhos",Artigo 259.º do Código dos Contratos Públicos,,,,,,2545980,CP 2017/61 - Acordo quadro para fornecimento de Medicamentos Diversos   às Instituições e Serviços do Serviço Nacional de Saúde,FALSE
Contrato de manutenção aos Equipamentos de Imagiologia General Electric,Concurso público,Aquisição de serviços,"50421000-2, Serviços de reparação e manutenção de equipamento médico","Unidade Local de Saúde de Matosinhos, EPE (ULSM) (506361390)",MESA (980468906),"107.875,00 €",06-12-2018,07-06-2018,364 dias,"Portugal, Porto, Matosinhos","Artigo 20.º, n.º 2, alínea b), subalínea i) do Código dos Contratos Públicos",,,,,,Não aplicável.,Não aplicável.,FALSE
FORNECIMENTO DE UM ENDOSCÓPIO ALTO COM RETOMA,Consulta Prévia,Aquisição de bens móveis,"33100000-1, Equipamento médico","Unidade Local de Saúde de Matosinhos, E. P. E. (506361390)",OLYMPUS IBERIA SAU (980474710),"15.600,00 €",06-12-2018,10-10-2018,30 dias,"Portugal, Porto, Matosinhos","Artigo 20.º, n.º 1, alínea c) do Código dos Contratos Públicos",,,,,,Não aplicável.,Não aplicável.,FALSE
Serviço de Assistência Técnica  e Manutenção aos Equipamentos de Gastroenterologia da ULSM,Consulta Prévia,Aquisição de serviços,"50800000-3, Serviços de reparação e manutenção diversos","Unidade Local de Saúde de Matosinhos, E. P. E. (506361390)","IBERDATA - Equipamentos, SA (501904921)","21.890,00 €",06-12-2018,11-09-2018,120 dias,"Portugal, Porto, Matosinhos","Artigo 20.º, n.º 1, alínea c) do Código dos Contratos Públicos",,,,,,Não aplicável.,Não aplicável.,FALSE
P259-AC-2017-148,Ao abrigo de acordo-quadro (art.º 259.º),Aquisição de bens móveis,"33600000-6, Produtos farmacêuticos","Unidade Local de Saúde de Matosinhos, E. P. E. (506361390)","PIERRE FABRE MEDICAMENT PORTUGAL, LDA. (500230366)","55.797,60 €",06-12-2018,21-11-2017,365 dias,"Portugal, Porto, Matosinhos",Artigo 259.º do Código dos Contratos Públicos,,,,,,2545980,CP 2017/61 - Acordo quadro para fornecimento de Medicamentos Diversos   às Instituições e Serviços do Serviço Nacional de Saúde,FALSE
"Contrato de manutenção aos equipamentos de Anestesia, Monitorização e Osteodensitometro",Ajuste Direto Regime Geral,Aquisição de serviços,"50420000-5, Serviços de reparação e manutenção de equipamento médico e cirúrgico","Unidade Local de Saúde de Matosinhos, E. P. E. (506361390)",Iberdata (501904921),"21.215,00 €",06-12-2018,22-12-2017,364 dias,"Portugal, Porto, Matosinhos","Artigo 20.º, n.º 1, alínea a) do Código dos Contratos Públicos",,,,,,Não aplicável.,Não aplicável.,FALSE
P259-AC-2017-153,Ao abrigo de acordo-quadro (art.º 259.º),Aquisição de bens móveis,"33600000-6, Produtos farmacêuticos","Unidade Local de Saúde de Matosinhos, E. P. E. (506361390)",GILEAD SCIENCES LDA. (503604704),"238.048,72 €",06-12-2018,16-11-2017,365 dias,"Portugal, Porto, Matosinhos",Artigo 259.º do Código dos Contratos Públicos,,,,,,2545980,CP 2017/61 - Acordo quadro para fornecimento de Medicamentos Diversos   às Instituições e Serviços do Serviço Nacional de Saúde,FALSE
P259-AC-2017-153,Ao abrigo de acordo-quadro (art.º 259.º),Aquisição de bens móveis,"33600000-6, Produtos farmacêuticos","Unidade Local de Saúde de Matosinhos, E. P. E. (506361390)",GILEAD SCIENCES LDA. (503604704),"8.235,36 €",06-12-2018,16-11-2017,365 dias,"Portugal, Porto, Matosinhos",Artigo 259.º do Código dos Contratos Públicos,,,,,,2183729,Medicamentos antirretrovíricos para o tratamento da infeção por VIH,FALSE
P259-AC-2017-144,Ao abrigo de acordo-quadro (art.º 259.º),Aquisição de bens móveis,"33600000-6, Produtos farmacêuticos","Unidade Local de Saúde de Matosinhos, E. P. E. (506361390)",MERCK SA (500650870),"628.832,74 €",06-12-2018,08-11-2017,365 dias,"Portugal, Porto, Matosinhos",Artigo 259.º do Código dos Contratos Públicos,,,,,,1771819,CP 2015/6 - Acordo quadro para o fornecimento de Medicamentos do Foro Oncológico,FALSE
P259-AC-2017-157,Ao abrigo de acordo-quadro (art.º 259.º),Aquisição de bens móveis,"33600000-6, Produtos farmacêuticos","Unidade Local de Saúde de Matosinhos, E. P. E. (506361390)",teva (507045491),"194.098,98 €",06-12-2018,08-11-2017,365 dias,"Portugal, Porto, Matosinhos",Artigo 259.º do Código dos Contratos Públicos,,,,,,1771819,CP 2015/6 - Acordo quadro para o fornecimento de Medicamentos do Foro Oncológico,FALSE
Prestação de Serviços de Manutenção aos Equipamentos de Esterilização,Consulta Prévia,Aquisição de serviços,"50800000-3, Serviços de reparação e manutenção diversos","Unidade Local de Saúde de Matosinhos, E. P. E. (506361390)","IBERDATA - Equipamentos, SA (501904921)","7.985,00 €",06-12-2018,29-10-2018,60 dias,"Portugal, Porto, Matosinhos","Artigo 20.º, n.º 1, alínea c) do Código dos Contratos Públicos",,,,,,Não aplicável.,Não aplicável.,FALSE
P259-AC-2017-159,Ao abrigo de acordo-quadro (art.º 259.º),Aquisição de bens móveis,"33600000-6, Produtos farmacêuticos","Unidade Local de Saúde de Matosinhos, E. P. E. (506361390)",novartis (500063524),"624.822,48 €",06-12-2018,08-11-2017,365 dias,"Portugal, Porto, Matosinhos",Artigo 259.º do Código dos Contratos Públicos,,,,,,1771819,CP 2015/6 - Acordo quadro para o fornecimento de Medicamentos do Foro Oncológico,FALSE
"Prestação de serviços de manutenção e assistência técnica  aos ventiladores , mesas e transferes",Concurso público,Aquisição de serviços,"50000000-5, Serviços de reparação e manutenção","Unidade Local de Saúde de Matosinhos, EPE (ULSM) (506361390)","GETINGE GROUP PORTUGAL, UNIP LDA (MAQUET PORT) (506819698)","74.121,00 €",06-12-2018,15-05-2018,210 dias,"Portugal, Porto, Matosinhos","Artigo 20.º, n.º 1, alínea b) do Código dos Contratos Públicos",,,,,,Não aplicável.,Não aplicável.,FALSE
P259-AC-2017-146,Ao abrigo de acordo-quadro (art.º 259.º),Aquisição de bens móveis,"33600000-6, Produtos farmacêuticos","Unidade Local de Saúde de Matosinhos, E. P. E. (506361390)",IPSEN PORTUGAL-PRODUTOS FARMACÊUTICOS SA. (502609800),"100.871,20 €",06-12-2018,06-11-2017,365 dias,"Portugal, Porto, Matosinhos",Artigo 259.º do Código dos Contratos Públicos,,,,,,1771819,CP 2015/6 - Acordo quadro para o fornecimento de Medicamentos do Foro Oncológico,FALSE
P259-AC-2017-146,Ao abrigo de acordo-quadro (art.º 259.º),Aquisição de bens móveis,"33600000-6, Produtos farmacêuticos","Unidade Local de Saúde de Matosinhos, E. P. E. (506361390)",IPSEN PORTUGAL-PRODUTOS FARMACÊUTICOS SA. (502609800),"48.759,57 €",06-12-2018,01-01-2018,365 dias,"Portugal, Porto, Matosinhos",Artigo 259.º do Código dos Contratos Públicos,,,,,,1415640,CP 2015/7 - ACORDO QUADRO PARA FORNECIMENTO DE HORMONAS E OUTROS MEDICAMENTOS USADOS NO TRATAMENTO DAS DOENÇAS ENDÓCRINAS ÀS INSTITUIÇÕES E SERVIÇOS DO SERVIÇO NACIONAL DE SAÚDE,FALSE
Fornecimento de Medicamentos do Aparelho Músculo-Esquelético (não incluídos no acordo-quadro),Consulta Prévia,Aquisição de bens móveis,"33632000-9, Medicamentos para o aparelho músculo-esquelético","Unidade Local de Saúde de Matosinhos, EPE (ULSM) (506361390)",KORANGI - PRODUTOS FARMACEUTICOS (505322307),"1.327,56 €",06-12-2018,17-11-2018,45 dias,Portugal,"Artigo 20.º, n.º 1, alínea c) do Código dos Contratos Públicos",,,,,,Não aplicável.,Não aplicável.,FALSE
Fornecimento de Medicamentos do Aparelho Músculo-Esquelético (não incluídos no acordo-quadro),Consulta Prévia,Aquisição de bens móveis,"33632000-9, Medicamentos para o aparelho músculo-esquelético","Unidade Local de Saúde de Matosinhos, EPE (ULSM) (506361390)","Generis - Farmacêutica, SA (508107997)","28,43 €",06-12-2018,17-11-2018,45 dias,Portugal,"Artigo 20.º, n.º 1, alínea c) do Código dos Contratos Públicos",,,,,,Não aplicável.,Não aplicável.,FALSE
Fornecimento de medicamentos do aparelho geniturinário,Ao abrigo de acordo-quadro (art.º 259.º),Aquisição de bens móveis,"33641000-5, Medicamentos para o aparelho geniturinário e hormonas sexuais","Unidade Local de Saúde de Matosinhos, E. P. E. (506361390)","Mylan, Lda (502248793)","100,00 €",06-12-2018,19-06-2018,180 dias,"Portugal, Porto, Matosinhos",Artigo 259.º do Código dos Contratos Públicos,,,,,,3016206,"CP 2017/48 - Acordo Quadro para fornecimento de Medicamentos do aparelho geniturinário, às Instituições e Serviços do Serviço Nacional de Saúde",FALSE
Fornecimento de medicamentos do aparelho geniturinário,Ao abrigo de acordo-quadro (art.º 259.º),Aquisição de bens móveis,"33641000-5, Medicamentos para o aparelho geniturinário e hormonas sexuais","Unidade Local de Saúde de Matosinhos, E. P. E. (506361390)","Bayer Portugal, Lda (500043256)","206,64 €",06-12-2018,19-06-2018,180 dias,"Portugal, Porto, Matosinhos",Artigo 259.º do Código dos Contratos Públicos,,,,,,3016206,"CP 2017/48 - Acordo Quadro para fornecimento de Medicamentos do aparelho geniturinário, às Instituições e Serviços do Serviço Nacional de Saúde",FALSE
Fornecimento de medicamentos do aparelho geniturinário,Ao abrigo de acordo-quadro (art.º 259.º),Aquisição de bens móveis,"33641000-5, Medicamentos para o aparelho geniturinário e hormonas sexuais","Unidade Local de Saúde de Matosinhos, E. P. E. (506361390)","Laboratorios Azevedo, SA (507474287)","13,80 €",05-12-2018,19-06-2018,180 dias,"Portugal, Porto, Matosinhos",Artigo 259.º do Código dos Contratos Públicos,,,,,,3016206,"CP 2017/48 - Acordo Quadro para fornecimento de Medicamentos do aparelho geniturinário, às Instituições e Serviços do Serviço Nacional de Saúde",FALSE
Fornecimento de medicamentos do aparelho geniturinário,Ao abrigo de acordo-quadro (art.º 259.º),Aquisição de bens móveis,"33641000-5, Medicamentos para o aparelho geniturinário e hormonas sexuais","Unidade Local de Saúde de Matosinhos, E. P. E. (506361390)","Generis - Farmacêutica, SA (508107997)","160,63 €",05-12-2018,19-06-2018,180 dias,"Portugal, Porto, Matosinhos",Artigo 259.º do Código dos Contratos Públicos,,,,,,3016206,"CP 2017/48 - Acordo Quadro para fornecimento de Medicamentos do aparelho geniturinário, às Instituições e Serviços do Serviço Nacional de Saúde",FALSE
"Fornecimento de medicação antialérgica, vitaminas e sais minerais, medicamentos usados no tratamento de intoxicações e grupo 20.9 - outros produtos ",Ao abrigo de acordo-quadro (art.º 259.º),Aquisição de bens móveis,"33600000-6, Produtos farmacêuticos","Unidade Local de Saúde de Matosinhos, E. P. E. (506361390)","Labesfal, SA (501169580)","13.852,08 €",05-12-2018,15-06-2018,180 dias,"Portugal, Porto, Matosinhos",Artigo 259.º do Código dos Contratos Públicos,,,,,,2556987,"CP 2017/65 - Acordo Quadro para fornecimento de Medicamentos de Várias áreas Terapêuticas, às Instituições e Serviços do Serviço Nacional de Saúde",FALSE
Prestação de Serviços de Manutenção e Assistência Técnica aos Equipamentos de Monitorização Philips SMI,Ajuste Direto Regime Geral,Aquisição de serviços,"50800000-3, Serviços de reparação e manutenção diversos","Unidade Local de Saúde de Matosinhos, E. P. E. (506361390)",Philips  (500216843),"14.124,00 €",05-12-2018,12-06-2018,202 dias,"Portugal, Porto, Matosinhos","Artigo 20.º, n.º 1, alínea a) do Código dos Contratos Públicos",,,,,,Não aplicável.,Não aplicável.,FALSE
"Fornecimento de medicação antialérgica, vitaminas e sais minerais, medicamentos usados no tratamento de intoxicações e grupo 20.9 - outros produtos ",Ao abrigo de acordo-quadro (art.º 259.º),Aquisição de bens móveis,"33600000-6, Produtos farmacêuticos","Unidade Local de Saúde de Matosinhos, E. P. E. (506361390)","Novartis Farma - Produtos Farmacêuticos, S.A (500063524)","16.659,95 €",05-12-2018,15-06-2018,180 dias,"Portugal, Porto, Matosinhos",Artigo 259.º do Código dos Contratos Públicos,,,,,,2556987,"CP 2017/65 - Acordo Quadro para fornecimento de Medicamentos de Várias áreas Terapêuticas, às Instituições e Serviços do Serviço Nacional de Saúde",FALSE
"Fornecimento de medicação antialérgica, vitaminas e sais minerais, medicamentos usados no tratamento de intoxicações e grupo 20.9 - outros produtos ",Ao abrigo de acordo-quadro (art.º 259.º),Aquisição de bens móveis,"33600000-6, Produtos farmacêuticos","Unidade Local de Saúde de Matosinhos, E. P. E. (506361390)","Sandoz Farmacêutica, Lda (506985261)","160,65 €",05-12-2018,15-06-2018,199 dias,"Portugal, Porto, Matosinhos",Artigo 259.º do Código dos Contratos Públicos,,,,,,2556987,"CP 2017/65 - Acordo Quadro para fornecimento de Medicamentos de Várias áreas Terapêuticas, às Instituições e Serviços do Serviço Nacional de Saúde",FALSE
Fornecimento de medicamentos do aparelho cardiovascular,Ao abrigo de acordo-quadro (art.º 259.º),Aquisição de bens móveis,"33600000-6, Produtos farmacêuticos","Unidade Local de Saúde de Matosinhos, E. P. E. (506361390)",Astrazeneca (502942240),"9.732,54 €",05-12-2018,19-06-2018,195 dias,"Portugal, Porto, Matosinhos",Artigo 259.º do Código dos Contratos Públicos,,,,,,2335591,CP 2016/01 - Acordo Quadro para fornecimento de Medicamentos do Aparelho Cardiovascular   às Instituições e Serviços do Serviço Nacional de Saúde,FALSE
Fornecimento de medicamentos do aparelho cardiovascular,Ao abrigo de acordo-quadro (art.º 259.º),Aquisição de bens móveis,"33600000-6, Produtos farmacêuticos","Unidade Local de Saúde de Matosinhos, E. P. E. (506361390)",Labesfal (501169580),"74,95 €",05-12-2018,19-06-2018,195 dias,"Portugal, Porto, Matosinhos",Artigo 259.º do Código dos Contratos Públicos,,,,,,2335591,CP 2016/01 - Acordo Quadro para fornecimento de Medicamentos do Aparelho Cardiovascular   às Instituições e Serviços do Serviço Nacional de Saúde,FALSE
Fornecimento de medicamentos do aparelho cardiovascular,Ao abrigo de acordo-quadro (art.º 259.º),Aquisição de bens móveis,"33600000-6, Produtos farmacêuticos","Unidade Local de Saúde de Matosinhos, E. P. E. (506361390)",Bayer (500043256),"5,00 €",05-12-2018,19-06-2018,195 dias,"Portugal, Porto, Matosinhos",Artigo 259.º do Código dos Contratos Públicos,,,,,,2335591,CP 2016/01 - Acordo Quadro para fornecimento de Medicamentos do Aparelho Cardiovascular   às Instituições e Serviços do Serviço Nacional de Saúde,FALSE
Fornecimento de medicamentos do aparelho cardiovascular,Ao abrigo de acordo-quadro (art.º 259.º),Aquisição de bens móveis,"33600000-6, Produtos farmacêuticos","Unidade Local de Saúde de Matosinhos, E. P. E. (506361390)",Mylan (502248793),"94,06 €",05-12-2018,19-06-2018,195 dias,"Portugal, Porto, Matosinhos",Artigo 259.º do Código dos Contratos Públicos,,,,,,2335591,CP 2016/01 - Acordo Quadro para fornecimento de Medicamentos do Aparelho Cardiovascular   às Instituições e Serviços do Serviço Nacional de Saúde,FALSE
Fornecimento de medicamentos do aparelho cardiovascular,Ao abrigo de acordo-quadro (art.º 259.º),Aquisição de bens móveis,"33600000-6, Produtos farmacêuticos","Unidade Local de Saúde de Matosinhos, E. P. E. (506361390)",Generis (508107997),"160,14 €",05-12-2018,19-06-2018,195 dias,"Portugal, Porto, Matosinhos",Artigo 259.º do Código dos Contratos Públicos,,,,,,2335591,CP 2016/01 - Acordo Quadro para fornecimento de Medicamentos do Aparelho Cardiovascular   às Instituições e Serviços do Serviço Nacional de Saúde,FALSE
Fornecimento de medicamentos do aparelho cardiovascular,Ao abrigo de acordo-quadro (art.º 259.º),Aquisição de bens móveis,"33600000-6, Produtos farmacêuticos","Unidade Local de Saúde de Matosinhos, E. P. E. (506361390)",HIKMA (502266791),"456,00 €",05-12-2018,19-06-2018,195 dias,"Portugal, Porto, Matosinhos",Artigo 259.º do Código dos Contratos Públicos,,,,,,2335591,CP 2016/01 - Acordo Quadro para fornecimento de Medicamentos do Aparelho Cardiovascular   às Instituições e Serviços do Serviço Nacional de Saúde,FALSE
Prestação de Serviços de Manutenção e Assistência Técnica aos Equipamentos de Infusão e Perfusão da marca B. Braun na ULSM,Concurso público,Aquisição de serviços,"50000000-5, Serviços de reparação e manutenção","Unidade Local de Saúde de Matosinhos, E. P. E. (506361390)","ATM - Assistência Total em Manutenção, S.A. (502700823)","30.195,40 €",05-12-2018,28-05-2018,365 dias,"Portugal, Porto, Matosinhos","Artigo 20.º, n.º 1, alínea b) do Código dos Contratos Públicos",,,,,,Não aplicável.,Não aplicável.,FALSE
"Prestação de Serviços de Calibração de Equipamentos à ULSM, EPE",Consulta Prévia,Aquisição de serviços,"50433000-9, Serviços de calibragem","Unidade Local de Saúde de Matosinhos, E. P. E. (506361390)","E.I.A. – Electrónica Industrial de Alverca, Lda. (502451033)","6.299,15 €",05-12-2018,09-08-2018,120 dias,"Portugal, Porto, Matosinhos","Artigo 20.º, n.º 1, alínea c) do Código dos Contratos Públicos",,,,,,Não aplicável.,Não aplicável.,FALSE
Medicamentos antivíricos e antifúngicos,Ao abrigo de acordo-quadro (art.º 259.º),Aquisição de bens móveis,"33600000-6, Produtos farmacêuticos","Unidade Local de Saúde de Matosinhos, E. P. E. (506361390)",MERCK SHARP & DOHME (500191360),"2.557,83 €",01-12-2018,15-06-2018,199 dias,"Portugal, Porto, Matosinhos",Artigo 259.º do Código dos Contratos Públicos,,,,,,1422736,CP 2015/41 - ACORDO QUADRO PARA FORNECIMENTO DE MEDICAMENTOS ANTI-INFECIOSOS: ANTIVÍRICOS E ANTIFÚNGICOS ÀS INSTITUIÇÕES E SERVIÇOS DO SERVIÇO NACIONAL DE SAÚDE,FALSE
Medicamentos antivíricos e antifúngicos,Ao abrigo de acordo-quadro (art.º 259.º),Aquisição de bens móveis,"33600000-6, Produtos farmacêuticos","Unidade Local de Saúde de Matosinhos, E. P. E. (506361390)",ROCHE FARMACEUTICA  (500233810),"224,38 €",01-12-2018,15-06-2018,199 dias,"Portugal, Porto, Matosinhos",Artigo 259.º do Código dos Contratos Públicos,,,,,,1422736,CP 2015/41 - ACORDO QUADRO PARA FORNECIMENTO DE MEDICAMENTOS ANTI-INFECIOSOS: ANTIVÍRICOS E ANTIFÚNGICOS ÀS INSTITUIÇÕES E SERVIÇOS DO SERVIÇO NACIONAL DE SAÚDE,FALSE
Medicamentos antivíricos e antifúngicos,Ao abrigo de acordo-quadro (art.º 259.º),Aquisição de bens móveis,"33600000-6, Produtos farmacêuticos","Unidade Local de Saúde de Matosinhos, E. P. E. (506361390)",GLAXOSMITHKLINE (500139962),"68,54 €",01-12-2018,15-06-2018,199 dias,"Portugal, Porto, Matosinhos",Artigo 259.º do Código dos Contratos Públicos,,,,,,1422736,CP 2015/41 - ACORDO QUADRO PARA FORNECIMENTO DE MEDICAMENTOS ANTI-INFECIOSOS: ANTIVÍRICOS E ANTIFÚNGICOS ÀS INSTITUIÇÕES E SERVIÇOS DO SERVIÇO NACIONAL DE SAÚDE,FALSE
Medicamentos do foro oncológico,Ao abrigo de acordo-quadro (art.º 259.º),Aquisição de bens móveis,"33600000-6, Produtos farmacêuticos","Unidade Local de Saúde de Matosinhos, E. P. E. (506361390)",TEVA PHARMA (507045491),"320,00 €",01-12-2018,02-08-2018,151 dias,"Portugal, Porto, Matosinhos",Artigo 259.º do Código dos Contratos Públicos,,,,,,1771819,CP 2015/6 - Acordo quadro para o fornecimento de Medicamentos do Foro Oncológico,FALSE
Medicamentos do foro oncológico,Ao abrigo de acordo-quadro (art.º 259.º),Aquisição de bens móveis,"33600000-6, Produtos farmacêuticos","Unidade Local de Saúde de Matosinhos, E. P. E. (506361390)",LABORATORIOS PFIZER (500162166),"245,65 €",01-12-2018,02-08-2018,151 dias,"Portugal, Porto, Matosinhos",Artigo 259.º do Código dos Contratos Públicos,,,,,,1771819,CP 2015/6 - Acordo quadro para o fornecimento de Medicamentos do Foro Oncológico,FALSE
Medicamentos do foro oncológico,Ao abrigo de acordo-quadro (art.º 259.º),Aquisição de bens móveis,"33600000-6, Produtos farmacêuticos","Unidade Local de Saúde de Matosinhos, E. P. E. (506361390)",LOGIFARMA (503934640),"9.658,96 €",01-12-2018,02-08-2018,151 dias,"Portugal, Porto, Matosinhos",Artigo 259.º do Código dos Contratos Públicos,,,,,,1771819,CP 2015/6 - Acordo quadro para o fornecimento de Medicamentos do Foro Oncológico,FALSE
Medicamentos do foro oncológico,Ao abrigo de acordo-quadro (art.º 259.º),Aquisição de bens móveis,"33600000-6, Produtos farmacêuticos","Unidade Local de Saúde de Matosinhos, E. P. E. (506361390)",ASTELLAS FARMA (502540249),"1.070,10 €",01-12-2018,02-08-2018,151 dias,"Portugal, Porto, Matosinhos",Artigo 259.º do Código dos Contratos Públicos,,,,,,1771819,CP 2015/6 - Acordo quadro para o fornecimento de Medicamentos do Foro Oncológico,FALSE
FORNECIMENTO DE HORMONAS E OUTROS MEDICAMENTOS USADOS NO TRTAMENTO DE DOENÇAS ENDÓCRINAS,Ao abrigo de acordo-quadro (art.º 259.º),Aquisição de bens móveis,"33600000-6, Produtos farmacêuticos","Unidade Local de Saúde de Matosinhos, E. P. E. (506361390)",GENERIS (508107997),"2.665,00 €",01-12-2018,29-06-2018,180 dias,"Portugal, Porto, Matosinhos",Artigo 259.º do Código dos Contratos Públicos,,,,,,1415640,CP 2015/7 - ACORDO QUADRO PARA FORNECIMENTO DE HORMONAS E OUTROS MEDICAMENTOS USADOS NO TRATAMENTO DAS DOENÇAS ENDÓCRINAS ÀS INSTITUIÇÕES E SERVIÇOS DO SERVIÇO NACIONAL DE SAÚDE,FALSE
Medicamentos do foro oncológico,Ao abrigo de acordo-quadro (art.º 259.º),Aquisição de bens móveis,"33600000-6, Produtos farmacêuticos","Unidade Local de Saúde de Matosinhos, E. P. E. (506361390)",FRESENIUS KABI PHARMA (504293753),"5.026,20 €",01-12-2018,02-08-2018,151 dias,"Portugal, Porto, Matosinhos",Artigo 259.º do Código dos Contratos Públicos,,,,,,1771819,CP 2015/6 - Acordo quadro para o fornecimento de Medicamentos do Foro Oncológico,FALSE
FORNECIMENTO DE HORMONAS E OUTROS MEDICAMENTOS USADOS NO TRTAMENTO DE DOENÇAS ENDÓCRINAS,Ao abrigo de acordo-quadro (art.º 259.º),Aquisição de bens móveis,"33600000-6, Produtos farmacêuticos","Unidade Local de Saúde de Matosinhos, E. P. E. (506361390)","LABORATORIOS AZEVEDOS, SA (507474287)","19,14 €",01-12-2018,29-06-2018,180 dias,"Portugal, Porto, Matosinhos",Artigo 259.º do Código dos Contratos Públicos,,,,,,1415640,CP 2015/7 - ACORDO QUADRO PARA FORNECIMENTO DE HORMONAS E OUTROS MEDICAMENTOS USADOS NO TRATAMENTO DAS DOENÇAS ENDÓCRINAS ÀS INSTITUIÇÕES E SERVIÇOS DO SERVIÇO NACIONAL DE SAÚDE,FALSE
FORNECIMENTO DE HORMONAS E OUTROS MEDICAMENTOS USADOS NO TRTAMENTO DE DOENÇAS ENDÓCRINAS,Ao abrigo de acordo-quadro (art.º 259.º),Aquisição de bens móveis,"33600000-6, Produtos farmacêuticos","Unidade Local de Saúde de Matosinhos, E. P. E. (506361390)",GENERIS (508107997),"5.226,00 €",01-12-2018,29-06-2018,180 dias,"Portugal, Porto, Matosinhos",Artigo 259.º do Código dos Contratos Públicos,,,,,,1415640,CP 2015/7 - ACORDO QUADRO PARA FORNECIMENTO DE HORMONAS E OUTROS MEDICAMENTOS USADOS NO TRATAMENTO DAS DOENÇAS ENDÓCRINAS ÀS INSTITUIÇÕES E SERVIÇOS DO SERVIÇO NACIONAL DE SAÚDE,FALSE
Medicamentos do foro oncológico,Ao abrigo de acordo-quadro (art.º 259.º),Aquisição de bens móveis,"33600000-6, Produtos farmacêuticos","Unidade Local de Saúde de Matosinhos, E. P. E. (506361390)",BAXTER (503347345),"449,28 €",01-12-2018,02-08-2018,151 dias,"Portugal, Porto, Matosinhos",Artigo 259.º do Código dos Contratos Públicos,,,,,,1771819,CP 2015/6 - Acordo quadro para o fornecimento de Medicamentos do Foro Oncológico,FALSE
FORNECIMENTO DE HORMONAS E OUTROS MEDICAMENTOS USADOS NO TRTAMENTO DE DOENÇAS ENDÓCRINAS,Ao abrigo de acordo-quadro (art.º 259.º),Aquisição de bens móveis,"33600000-6, Produtos farmacêuticos","Unidade Local de Saúde de Matosinhos, E. P. E. (506361390)",NOVO NORDISK (501485210),"54,60 €",01-12-2018,29-06-2018,180 dias,"Portugal, Porto, Matosinhos",Artigo 259.º do Código dos Contratos Públicos,,,,,,1415640,CP 2015/7 - ACORDO QUADRO PARA FORNECIMENTO DE HORMONAS E OUTROS MEDICAMENTOS USADOS NO TRATAMENTO DAS DOENÇAS ENDÓCRINAS ÀS INSTITUIÇÕES E SERVIÇOS DO SERVIÇO NACIONAL DE SAÚDE,FALSE
Medicamentos do foro oncológico,Ao abrigo de acordo-quadro (art.º 259.º),Aquisição de bens móveis,"33600000-6, Produtos farmacêuticos","Unidade Local de Saúde de Matosinhos, E. P. E. (506361390)",JANSSEN (500189412),"3.343,56 €",01-12-2018,02-08-2018,151 dias,"Portugal, Porto, Matosinhos",Artigo 259.º do Código dos Contratos Públicos,,,,,,1771819,CP 2015/6 - Acordo quadro para o fornecimento de Medicamentos do Foro Oncológico,FALSE
Fornecimento e montagem de mini-monta-cargas para transporte de mercadorias entre o serviço de farmácia e o hospital dia,Consulta Prévia,Aquisição de bens móveis,"42416120-2, Monta-cargas","Unidade Local de Saúde de Matosinhos, E. P. E. (506361390)","Pinto & Cruz, S.A. (500217904)","5.730,00 €",01-12-2018,06-06-2018,180 dias,"Portugal, Porto, Matosinhos","Artigo 20.º, n.º 1, alínea c) do Código dos Contratos Públicos",,,,,,Não aplicável.,Não aplicável.,FALSE
Prestação de Serviços de Adaptação da sala de espera da Ala O,Ajuste Direto Regime Geral,Empreitadas de obras públicas,"50700000-2, Serviços de reparação e manutenção de equipamento em edifícios","Unidade Local de Saúde de Matosinhos, E. P. E. (506361390)","Ricardo Duarte, Lda (505646641)","5.669,96 €",01-12-2018,19-04-2018,210 dias,"Portugal, Porto, Matosinhos","Artigo 19.º, alínea a) do Código dos Contratos Públicos",,,,,,Não aplicável.,Não aplicável.,FALSE
FORNECIMENTO DE MEDICAMENTOS ANTIRRETROVÍRICOS PARA TRTAMENTO DA INFEÇÃO POR VIH,Ao abrigo de acordo-quadro (art.º 259.º),Aquisição de bens móveis,"33600000-6, Produtos farmacêuticos","Unidade Local de Saúde de Matosinhos, E. P. E. (506361390)",GILEAD SCIENCES (503604704),"12.096,00 €",01-12-2018,18-10-2018,75 dias,"Portugal, Porto, Matosinhos",Artigo 259.º do Código dos Contratos Públicos,,,,,,2183729,Medicamentos antirretrovíricos para o tratamento da infeção por VIH,FALSE
Fornecimento de derivados do plasma humano,Ao abrigo de acordo-quadro (art.º 259.º),Aquisição de bens móveis,"33141520-1, Derivados do plasma","Unidade Local de Saúde de Matosinhos, E. P. E. (506361390)","Octapharma - Produtos Farmacêuticos, Lda. (502820780)","2.450,00 €",01-12-2018,09-07-2018,175 dias,"Portugal, Porto, Matosinhos",Artigo 259.º do Código dos Contratos Públicos,,,,,,2800702,CP 2017/9 - Acordo quadro para fornecimento de Derivados do Plasma Humano às Instituições e Serviços do Serviço Nacional de Saúde,FALSE
Fornecimento de derivados do plasma humano,Ao abrigo de acordo-quadro (art.º 259.º),Aquisição de bens móveis,"33141520-1, Derivados do plasma","Unidade Local de Saúde de Matosinhos, E. P. E. (506361390)",KEDRION PORTUGAL  (508472830),"150,75 €",01-12-2018,09-07-2018,175 dias,"Portugal, Porto, Matosinhos",Artigo 259.º do Código dos Contratos Públicos,,,,,,2800702,CP 2017/9 - Acordo quadro para fornecimento de Derivados do Plasma Humano às Instituições e Serviços do Serviço Nacional de Saúde,FALSE
Fornecimento de derivados do plasma humano,Ao abrigo de acordo-quadro (art.º 259.º),Aquisição de bens móveis,"33141520-1, Derivados do plasma","Unidade Local de Saúde de Matosinhos, E. P. E. (506361390)",Grifols Portugal - Produtos Farmacêuticos e Hospitalares Lda  (502041285),"9.767,50 €",01-12-2018,09-07-2018,175 dias,"Portugal, Porto, Matosinhos",Artigo 259.º do Código dos Contratos Públicos,,,,,,2800702,CP 2017/9 - Acordo quadro para fornecimento de Derivados do Plasma Humano às Instituições e Serviços do Serviço Nacional de Saúde,FALSE
Fornecimento e montagem de tubagem e isolamento nos circuitos,Ajuste Direto Regime Geral,Aquisição de serviços,"50700000-2, Serviços de reparação e manutenção de equipamento em edifícios","Unidade Local de Saúde de Matosinhos, EPE (ULSM) (506361390)","CISEC - Soluções Técnicas de Engenharia e Serviços, S.A. (500205698)","19.975,00 €",01-12-2018,24-04-2018,120 dias,"Portugal, Porto, Matosinhos","Artigo 20.º, n.º 1, alínea a) do Código dos Contratos Públicos",,,,,,Não aplicável.,Não aplicável.,FALSE
FORNECIMENTO DE MEDICAMENTOS ANTIRRETROVÍRICOS PARA TRTAMENTO DA INFEÇÃO POR VIH,Ao abrigo de acordo-quadro (art.º 259.º),Aquisição de bens móveis,"33600000-6, Produtos farmacêuticos","Unidade Local de Saúde de Matosinhos, E. P. E. (506361390)",TEVA (507045491),"3.747,06 €",01-12-2018,18-10-2018,75 dias,"Portugal, Porto, Matosinhos",Artigo 259.º do Código dos Contratos Públicos,,,,,,2183729,Medicamentos antirretrovíricos para o tratamento da infeção por VIH,FALSE
Fornecimento de medicamentos usados nas afeções cutâneas,Ao abrigo de acordo-quadro (art.º 259.º),Aquisição de bens móveis,"33600000-6, Produtos farmacêuticos","Unidade Local de Saúde de Matosinhos, E. P. E. (506361390)","Sidefarma - Sociedade Industrial Expansão Farmacêutica, S.A. (500717419)","3.503,50 €",01-12-2018,09-07-2018,176 dias,"Portugal, Porto, Matosinhos",Artigo 259.º do Código dos Contratos Públicos,,,,,,2850371,"CP 2017/51 - Acordo Quadro para fornecimento de Medicamentos usados nas afeções cutâneas, às Instituições e Serviços do Serviço Nacional de Saúde",FALSE
Fornecimento de medicamentos do aparelho digestivo,Ao abrigo de acordo-quadro (art.º 259.º),Aquisição de bens móveis,"33661000-1, Medicamentos para o sistema nervoso","Unidade Local de Saúde de Matosinhos, E. P. E. (506361390)",HIKMA (502266791),"12.037,20 €",01-12-2018,15-06-2018,199 dias,"Portugal, Porto, Matosinhos",Artigo 259.º do Código dos Contratos Públicos,,,,,,2222779,Medicamentos do aparelho digestivo,FALSE
Fornecimento de medicamentos usados nas afeções cutâneas,Ao abrigo de acordo-quadro (art.º 259.º),Aquisição de bens móveis,"33600000-6, Produtos farmacêuticos","Unidade Local de Saúde de Matosinhos, E. P. E. (506361390)","R2Mc - Rangel, Produtos Farmacêuticos S.A  (510599818)","203,95 €",01-12-2018,09-07-2018,176 dias,"Portugal, Porto, Matosinhos",Artigo 259.º do Código dos Contratos Públicos,,,,,,2850371,"CP 2017/51 - Acordo Quadro para fornecimento de Medicamentos usados nas afeções cutâneas, às Instituições e Serviços do Serviço Nacional de Saúde",FALSE
Fornecimento de medicamentos usados nas afeções cutâneas,Ao abrigo de acordo-quadro (art.º 259.º),Aquisição de bens móveis,"33600000-6, Produtos farmacêuticos","Unidade Local de Saúde de Matosinhos, E. P. E. (506361390)",Labesfal - Laboratórios Almiro S.a. (501169580),"12.840,00 €",01-12-2018,09-07-2018,176 dias,"Portugal, Porto, Matosinhos",Artigo 259.º do Código dos Contratos Públicos,,,,,,2850371,"CP 2017/51 - Acordo Quadro para fornecimento de Medicamentos usados nas afeções cutâneas, às Instituições e Serviços do Serviço Nacional de Saúde",FALSE
Fornecimento de medicamentos usados nas afeções cutâneas,Ao abrigo de acordo-quadro (art.º 259.º),Aquisição de bens móveis,"33600000-6, Produtos farmacêuticos","Unidade Local de Saúde de Matosinhos, E. P. E. (506361390)",Laboratorio Medinfar-Produtos Farmaceuticos S.A (500384045),"835,50 €",01-12-2018,09-07-2018,176 dias,"Portugal, Porto, Matosinhos",Artigo 259.º do Código dos Contratos Públicos,,,,,,2850371,"CP 2017/51 - Acordo Quadro para fornecimento de Medicamentos usados nas afeções cutâneas, às Instituições e Serviços do Serviço Nacional de Saúde",FALSE
Fornecimento de medicamentos usados nas afeções cutâneas,Ao abrigo de acordo-quadro (art.º 259.º),Aquisição de bens móveis,"33600000-6, Produtos farmacêuticos","Unidade Local de Saúde de Matosinhos, E. P. E. (506361390)","Johnson & Johnson, Lda  (500153370)","440,64 €",01-12-2018,09-07-2018,176 dias,"Portugal, Porto, Matosinhos",Artigo 259.º do Código dos Contratos Públicos,,,,,,2850371,"CP 2017/51 - Acordo Quadro para fornecimento de Medicamentos usados nas afeções cutâneas, às Instituições e Serviços do Serviço Nacional de Saúde",FALSE
Fornecimento de Multisplit para Centro Saúde Sta Cruz do Bispo,Consulta Prévia,Aquisição de bens móveis,"42512000-8, Instalações de ar condicionado","Unidade Local de Saúde de Matosinhos, E. P. E. (506361390)","CISEC - Soluções Técnicas de Engenharia e Serviços, S.A. (500205698)","6.750,00 €",01-12-2018,09-08-2018,120 dias,"Portugal, Porto, Matosinhos","Artigo 20.º, n.º 1, alínea c) do Código dos Contratos Públicos",,,,,,Não aplicável.,Não aplicável.,FALSE
Fornecimento de medicamentos usados nas afeções cutâneas,Ao abrigo de acordo-quadro (art.º 259.º),Aquisição de bens móveis,"33600000-6, Produtos farmacêuticos","Unidade Local de Saúde de Matosinhos, E. P. E. (506361390)","Glaxosmithkline - Produtos Farmaceuticos, Lda. (500139962)","912,75 €",01-12-2018,09-07-2018,176 dias,"Portugal, Porto, Matosinhos",Artigo 259.º do Código dos Contratos Públicos,,,,,,2850371,"CP 2017/51 - Acordo Quadro para fornecimento de Medicamentos usados nas afeções cutâneas, às Instituições e Serviços do Serviço Nacional de Saúde",FALSE
Fornecimento de medicamentos do aparelho digestivo,Ao abrigo de acordo-quadro (art.º 259.º),Aquisição de bens móveis,"33661000-1, Medicamentos para o sistema nervoso","Unidade Local de Saúde de Matosinhos, E. P. E. (506361390)",ANGELINI (500583650),"8.338,26 €",01-12-2018,15-06-2018,199 dias,"Portugal, Porto, Matosinhos",Artigo 259.º do Código dos Contratos Públicos,,,,,,2222779,Medicamentos do aparelho digestivo,FALSE
Fornecimento de medicamentos usados nas afeções cutâneas,Ao abrigo de acordo-quadro (art.º 259.º),Aquisição de bens móveis,"33600000-6, Produtos farmacêuticos","Unidade Local de Saúde de Matosinhos, E. P. E. (506361390)"," Davi II - Farmacêutica, S.A (508309450)","125,00 €",01-12-2018,09-07-2018,176 dias,"Portugal, Porto, Matosinhos",Artigo 259.º do Código dos Contratos Públicos,,,,,,2850371,"CP 2017/51 - Acordo Quadro para fornecimento de Medicamentos usados nas afeções cutâneas, às Instituições e Serviços do Serviço Nacional de Saúde",FALSE
Fornecimento de medicamentos usados nas afeções cutâneas,Ao abrigo de acordo-quadro (art.º 259.º),Aquisição de bens móveis,"33600000-6, Produtos farmacêuticos","Unidade Local de Saúde de Matosinhos, E. P. E. (506361390)","ASTRAZENECA Produtos Farmacêuticos, Lda (502942240)","2.230,40 €",01-12-2018,09-07-2018,176 dias,"Portugal, Porto, Matosinhos",Artigo 259.º do Código dos Contratos Públicos,,,,,,2850371,"CP 2017/51 - Acordo Quadro para fornecimento de Medicamentos usados nas afeções cutâneas, às Instituições e Serviços do Serviço Nacional de Saúde",FALSE
Fornecimento de Medicamentos diversos AQ 2015/064,Ao abrigo de acordo-quadro (art.º 259.º),Aquisição de bens móveis,"33600000-6, Produtos farmacêuticos","Unidade Local de Saúde de Matosinhos, E. P. E. (506361390)","Generis - Farmacêutica, S.A  (508107997)","105,60 €",01-12-2018,15-06-2018,200 dias,"Portugal, Porto, Matosinhos",Artigo 259.º do Código dos Contratos Públicos,,,,,,1394106,CP 2015/64 - Medicamentos Diversos,FALSE
Fornecimento de Medicamentos diversos AQ 2015/064,Ao abrigo de acordo-quadro (art.º 259.º),Aquisição de bens móveis,"33600000-6, Produtos farmacêuticos","Unidade Local de Saúde de Matosinhos, E. P. E. (506361390)",Fresenius Kabi Pharma Portugal Lda (504293753),"1.326,60 €",01-12-2018,15-06-2018,200 dias,"Portugal, Porto, Matosinhos",Artigo 259.º do Código dos Contratos Públicos,,,,,,1394106,CP 2015/64 - Medicamentos Diversos,FALSE
Fornecimento de corretivos da volémia e outras soluções,Ao abrigo de acordo-quadro (art.º 259.º),Aquisição de bens móveis,"33600000-6, Produtos farmacêuticos","Unidade Local de Saúde de Matosinhos, E. P. E. (506361390)","B.BRAUN MEDICAL, LDA (501506543)","64,00 €",01-12-2018,09-07-2018,176 dias,"Portugal, Porto, Matosinhos",Artigo 259.º do Código dos Contratos Públicos,,,,,,2528675,CP 2017/3 - Acordo Quadro para fornecimento de corretivos da volémia e outras soluções estéreis,FALSE
Fornecimento de corretivos da volémia e outras soluções,Ao abrigo de acordo-quadro (art.º 259.º),Aquisição de bens móveis,"33600000-6, Produtos farmacêuticos","Unidade Local de Saúde de Matosinhos, E. P. E. (506361390)",Labesfal - Laboratórios Almiro S.A (501169580),"2.378,44 €",01-12-2018,09-07-2018,176 dias,"Portugal, Porto, Matosinhos",Artigo 259.º do Código dos Contratos Públicos,,,,,,2528675,CP 2017/3 - Acordo Quadro para fornecimento de corretivos da volémia e outras soluções estéreis,FALSE
"Fornecimento de medicamentos do sistema nervoso cerebrospinal, exceto: anestésicos, relaxantes musculares, analgésicos, antipiréticos, antidepressivos e antipsicóticos",Ao abrigo de acordo-quadro (art.º 259.º),Aquisição de bens móveis,"33600000-6, Produtos farmacêuticos","Unidade Local de Saúde de Matosinhos, E. P. E. (506361390)",LABESFAL (501169580),"3,46 €",01-12-2018,09-07-2018,175 dias,"Portugal, Porto, Matosinhos",Artigo 259.º do Código dos Contratos Públicos,,,,,,2528670,"CP 2017/2 - Acordo Quadro para fornecimento de Medicamentos do Sistema Nervoso Cerebrospinal, exceto: anestésicos, relaxantes musculares, analgésicos, antipiréticos, antidepressivos e antipsicóticos  às Instituições e Serviços do Serviço Nacional de Saúde",FALSE
"Fornecimento de medicamentos do sistema nervoso cerebrospinal, exceto: anestésicos, relaxantes musculares, analgésicos, antipiréticos, antidepressivos e antipsicóticos",Ao abrigo de acordo-quadro (art.º 259.º),Aquisição de bens móveis,"33600000-6, Produtos farmacêuticos","Unidade Local de Saúde de Matosinhos, E. P. E. (506361390)",GENERIS (508107997),"6.426,93 €",01-12-2018,09-07-2018,175 dias,"Portugal, Porto, Matosinhos",Artigo 259.º do Código dos Contratos Públicos,,,,,,2528670,"CP 2017/2 - Acordo Quadro para fornecimento de Medicamentos do Sistema Nervoso Cerebrospinal, exceto: anestésicos, relaxantes musculares, analgésicos, antipiréticos, antidepressivos e antipsicóticos  às Instituições e Serviços do Serviço Nacional de Saúde",FALSE
Fornecimento de medicamentos para a Hepatite C crónica,Ao abrigo de acordo-quadro (art.º 259.º),Aquisição de bens móveis,"33600000-6, Produtos farmacêuticos","Unidade Local de Saúde de Matosinhos, E. P. E. (506361390)","GILEAD SCIENCES, LDA  (503604704)","48.300,00 €",01-12-2018,27-06-2018,188 dias,"Portugal, Porto, Matosinhos",Artigo 259.º do Código dos Contratos Públicos,,,,,,3023927,CP 2017/67 - Medicamentos para a Hepatite C crónica,FALSE
"Fornecimento de medicamentos do sistema nervoso cerebrospinal, exceto: anestésicos, relaxantes musculares, analgésicos, antipiréticos, antidepressivos e antipsicóticos",Ao abrigo de acordo-quadro (art.º 259.º),Aquisição de bens móveis,"33600000-6, Produtos farmacêuticos","Unidade Local de Saúde de Matosinhos, E. P. E. (506361390)",MYLAN (502248793),"193,89 €",01-12-2018,09-07-2018,175 dias,"Portugal, Porto, Matosinhos",Artigo 259.º do Código dos Contratos Públicos,,,,,,2528670,"CP 2017/2 - Acordo Quadro para fornecimento de Medicamentos do Sistema Nervoso Cerebrospinal, exceto: anestésicos, relaxantes musculares, analgésicos, antipiréticos, antidepressivos e antipsicóticos  às Instituições e Serviços do Serviço Nacional de Saúde",FALSE
Fornecimento de Medicamentos Diversos,Ao abrigo de acordo-quadro (art.º 259.º),Aquisição de bens móveis,"33600000-6, Produtos farmacêuticos","Unidade Local de Saúde de Matosinhos, E. P. E. (506361390)","Sandoz Farmaceutica, Lda (506985261)","5,85 €",01-12-2018,29-10-2018,60 dias,"Portugal, Porto, Matosinhos",Artigo 259.º do Código dos Contratos Públicos,,,,,,2545980,CP 2017/61 - Acordo quadro para fornecimento de Medicamentos Diversos   às Instituições e Serviços do Serviço Nacional de Saúde,FALSE
Fornecimento de medicamentos para a Hepatite C crónica,Ao abrigo de acordo-quadro (art.º 259.º),Aquisição de bens móveis,"33600000-6, Produtos farmacêuticos","Unidade Local de Saúde de Matosinhos, E. P. E. (506361390)","MERCK SHARP & DOHME, LDA (500191360)","26.802,96 €",01-12-2018,12-07-2018,173 dias,"Portugal, Porto, Matosinhos",Artigo 259.º do Código dos Contratos Públicos,,,,,,3023927,CP 2017/67 - Medicamentos para a Hepatite C crónica,FALSE
Fornecimento de Medicamentos Diversos,Ao abrigo de acordo-quadro (art.º 259.º),Aquisição de bens móveis,"33600000-6, Produtos farmacêuticos","Unidade Local de Saúde de Matosinhos, E. P. E. (506361390)","Labesfal, SA (501169580)","121,60 €",01-12-2018,29-10-2018,60 dias,"Portugal, Porto, Matosinhos",Artigo 259.º do Código dos Contratos Públicos,,,,,,2545980,CP 2017/61 - Acordo quadro para fornecimento de Medicamentos Diversos   às Instituições e Serviços do Serviço Nacional de Saúde,FALSE
"Fornecimento de medicamentos do sistema nervoso cerebrospinal, exceto: anestésicos, relaxantes musculares, analgésicos, antipiréticos, antidepressivos e antipsicóticos",Ao abrigo de acordo-quadro (art.º 259.º),Aquisição de bens móveis,"33600000-6, Produtos farmacêuticos","Unidade Local de Saúde de Matosinhos, E. P. E. (506361390)",BIAL (500220913),"5,40 €",01-12-2018,09-07-2018,175 dias,"Portugal, Porto, Matosinhos",Artigo 259.º do Código dos Contratos Públicos,,,,,,2528670,"CP 2017/2 - Acordo Quadro para fornecimento de Medicamentos do Sistema Nervoso Cerebrospinal, exceto: anestésicos, relaxantes musculares, analgésicos, antipiréticos, antidepressivos e antipsicóticos  às Instituições e Serviços do Serviço Nacional de Saúde",FALSE
Fornecimento de Medicamentos Diversos,Ao abrigo de acordo-quadro (art.º 259.º),Aquisição de bens móveis,"33600000-6, Produtos farmacêuticos","Unidade Local de Saúde de Matosinhos, E. P. E. (506361390)","Baxter Medico - Farmaceutica, Lda (503347345)","117,45 €",01-12-2018,29-10-2018,60 dias,"Portugal, Porto, Matosinhos",Artigo 259.º do Código dos Contratos Públicos,,,,,,2545980,CP 2017/61 - Acordo quadro para fornecimento de Medicamentos Diversos   às Instituições e Serviços do Serviço Nacional de Saúde,FALSE
Fornecimento de Medicamentos Diversos,Ao abrigo de acordo-quadro (art.º 259.º),Aquisição de bens móveis,"33600000-6, Produtos farmacêuticos","Unidade Local de Saúde de Matosinhos, E. P. E. (506361390)","Gilead Sciences, Lda (503604704)","47.759,08 €",01-12-2018,29-10-2018,60 dias,"Portugal, Porto, Matosinhos",Artigo 259.º do Código dos Contratos Públicos,,,,,,2545980,CP 2017/61 - Acordo quadro para fornecimento de Medicamentos Diversos   às Instituições e Serviços do Serviço Nacional de Saúde,FALSE
"Fornecimento de medicamentos do sistema nervoso cerebrospinal, exceto: anestésicos, relaxantes musculares, analgésicos, antipiréticos, antidepressivos e antipsicóticos",Ao abrigo de acordo-quadro (art.º 259.º),Aquisição de bens móveis,"33600000-6, Produtos farmacêuticos","Unidade Local de Saúde de Matosinhos, E. P. E. (506361390)",TECNIFAR (500280436),"6,53 €",01-12-2018,09-07-2018,175 dias,"Portugal, Porto, Matosinhos",Artigo 259.º do Código dos Contratos Públicos,,,,,,2528670,"CP 2017/2 - Acordo Quadro para fornecimento de Medicamentos do Sistema Nervoso Cerebrospinal, exceto: anestésicos, relaxantes musculares, analgésicos, antipiréticos, antidepressivos e antipsicóticos  às Instituições e Serviços do Serviço Nacional de Saúde",FALSE
Fornecimento de medicamentos para a Hepatite C crónica,Ao abrigo de acordo-quadro (art.º 259.º),Aquisição de bens móveis,"33600000-6, Produtos farmacêuticos","Unidade Local de Saúde de Matosinhos, E. P. E. (506361390)","GILEAD SCIENCES, LDA (503604704)","27.600,00 €",01-12-2018,12-07-2018,173 dias,"Portugal, Porto, Matosinhos",Artigo 259.º do Código dos Contratos Públicos,,,,,,3023927,CP 2017/67 - Medicamentos para a Hepatite C crónica,FALSE
Fornecimento de Medicação Antialérgica (não incluídos em acordo-quadro),Consulta Prévia,Aquisição de bens móveis,"33690000-3, Medicamentos vários","Unidade Local de Saúde de Matosinhos, EPE (ULSM) (506361390)",MECRK SHARP & DOHME LDA (500191360),"20,40 €",01-12-2018,06-10-2018,87 dias,"Portugal, Porto, Matosinhos","Artigo 20.º, n.º 1, alínea c) do Código dos Contratos Públicos",,,,,,Não aplicável.,Não aplicável.,FALSE
Fornecimento de Medicamentos do Aparelho Digestivo (não incluídos no acordo-quadro),Consulta Prévia,Aquisição de bens móveis,"33610000-9, Medicamentos para o tracto digestivo e o metabolismo","Unidade Local de Saúde de Matosinhos, EPE (ULSM) (506361390)",PROSPA LABORATÓRIOS FARMACÊUTICOS SA (500130248),"4.855,68 €",01-12-2018,29-10-2018,64 dias,"Portugal, Porto, Matosinhos","Artigo 20.º, n.º 1, alínea c) do Código dos Contratos Públicos",,,,,,Não aplicável.,Não aplicável.,FALSE
Fornecimento de Medicamentos do Aparelho Digestivo (não incluídos no acordo-quadro),Consulta Prévia,Aquisição de bens móveis,"33610000-9, Medicamentos para o tracto digestivo e o metabolismo","Unidade Local de Saúde de Matosinhos, EPE (ULSM) (506361390)","GENERIS-FARMACEUTICA,SA (508107997)","132,86 €",01-12-2018,29-10-2018,64 dias,"Portugal, Porto, Matosinhos","Artigo 20.º, n.º 1, alínea c) do Código dos Contratos Públicos",,,,,,Não aplicável.,Não aplicável.,FALSE
Fornecimento de Medicamentos do Aparelho Cardiovascular (não incluídos em acordo-quadro),Consulta Prévia,Aquisição de bens móveis,"33622000-6, Medicamentos para o aparelho cardiovascular","Unidade Local de Saúde de Matosinhos, EPE (ULSM) (506361390)","SANOFI - PRODUTOS FARMACÊUTICOS, LDA. (500134960)","9,60 €",01-12-2018,29-10-2018,60 dias,"Portugal<BR/>Portugal, Porto, Matosinhos","Artigo 20.º, n.º 1, alínea c) do Código dos Contratos Públicos",,,,,,Não aplicável.,Não aplicável.,FALSE
Fornecimento de Medicamentos do grupo de sangue (não incluídos em acordo-quadro),Consulta Prévia,Aquisição de bens móveis,"33620000-2, Medicamentos para o sangue, para os órgãos hematopoiéticos e para o aparelho cardiovascular","Unidade Local de Saúde de Matosinhos, E. P. E. (506361390)",BRISTOL-MYERS SQUIB FARMAC PORTUGUESA SA (500048193),"212,04 €",01-12-2018,08-11-2018,54 dias,"Portugal, Porto, Matosinhos","Artigo 20.º, n.º 1, alínea c) do Código dos Contratos Públicos",,,,,,Não aplicável.,Não aplicável.,FALSE
Fornecimento de Medicamentos do grupo de sangue (não incluídos em acordo-quadro),Consulta Prévia,Aquisição de bens móveis,"33620000-2, Medicamentos para o sangue, para os órgãos hematopoiéticos e para o aparelho cardiovascular","Unidade Local de Saúde de Matosinhos, E. P. E. (506361390)",BDR PHARMA (513077332),"1.052,19 €",01-12-2018,08-11-2018,54 dias,"Portugal, Porto, Matosinhos","Artigo 20.º, n.º 1, alínea c) do Código dos Contratos Públicos",,,,,,Não aplicável.,Não aplicável.,FALSE
Fornecimento de Medicamentos do Aparelho Cardiovascular (não incluídos em acordo-quadro),Consulta Prévia,Aquisição de bens móveis,"33622000-6, Medicamentos para o aparelho cardiovascular","Unidade Local de Saúde de Matosinhos, EPE (ULSM) (506361390)","LABESFAL - Laboratórios Almiro, S.A (501169580)","578,85 €",01-12-2018,29-10-2018,60 dias,"Portugal, Porto, Matosinhos<BR/>Portugal","Artigo 20.º, n.º 1, alínea c) do Código dos Contratos Públicos",,,,,,Não aplicável.,Não aplicável.,FALSE
Fornecimento de Medicamentos do Aparelho Cardiovascular (não incluídos em acordo-quadro),Consulta Prévia,Aquisição de bens móveis,"33622000-6, Medicamentos para o aparelho cardiovascular","Unidade Local de Saúde de Matosinhos, EPE (ULSM) (506361390)","GENERIS-FARMACEUTICA,SA (508107997)","75,60 €",01-12-2018,29-10-2018,60 dias,"Portugal, Porto, Matosinhos","Artigo 20.º, n.º 1, alínea c) do Código dos Contratos Públicos",,,,,,Não aplicável.,Não aplicável.,FALSE
Fornecimento de Medicamentos do Aparelho Cardiovascular (não incluídos em acordo-quadro),Consulta Prévia,Aquisição de bens móveis,"33622000-6, Medicamentos para o aparelho cardiovascular","Unidade Local de Saúde de Matosinhos, EPE (ULSM) (506361390)",BDR PHARMA (513077332),"355,18 €",01-12-2018,29-10-2018,60 dias,"Portugal, Porto, Matosinhos<BR/>Portugal","Artigo 20.º, n.º 1, alínea c) do Código dos Contratos Públicos",,,,,,Não aplicável.,Não aplicável.,FALSE
