Objeto do Contrato,Tipo de Procedimento,Tipo(s) de Contrato,CPVs,Entidade(s) Adjudicante(s),Entidade(s) Adjudicatária(s),Preço Contratual,Data de Publicação,Data de Celebração do Contrato,Prazo de Execução,Local de Execução,Fundamentação,Data de Fecho do Contrato,Preço Total Efetivo,Causas das Alterações ao Prazo,Causas das Alterações ao Preço,Estado,N.º registo do Acordo Quadro,Descrição do Acordo Quadro,Procedimento Centralizado
Reparação e Manutenção de Centrais Telefónicas,Ajuste Direto Regime Geral,Aquisição de serviços,"50334140-8, Serviços de reparação e manutenção de aparelhos telefónicos","Administração Regional de Saúde do Norte, I. P. (503135593)","CorrenteVantagem - Unipessoal, Lda. (510713980)","2.062,50 €",09-06-2015,13-05-2015,3 dias,"Portugal, Porto, Porto","Artigo 20.º, n.º 1, alínea a) do Código dos Contratos Públicos",25-05-2015,"2.062,50 €","","",,Não aplicável.,Não aplicável.,FALSE
Aquisição 70 ampolas de Propofol 10mg/ml Emul Inj. Fr 20 ml IV,Ao abrigo de acordo-quadro (art.º 259.º),Aquisição de bens móveis,"33661200-3, Analgésicos","Administração Regional de Saúde do Norte, I. P. (503135593)",Fresenius K. P. Portugal (504293753),"55,30 €",08-06-2015,07-01-2015,358 dias,"Portugal, Distrito não determinado, Concelho não determinado<BR/>Portugal, Vila Real, Vila Real<BR/>Portugal, Porto, Maia",Artigo 259.º do Código dos Contratos Públicos,08-07-2015,"55,30 €","","",,611371,"CONCURSO PÚBLICO PARA A CELEBRAÇÃO DE CONTRATOS PÚBLICOS DE APROVISIONAMENTO PARA A ÁREA DA SAÚDE, COM VISTA AO FORNECIMENTO DE MEDICAMENTOS ANESTÉSICOS E RELAXANTES MUSCULARES, ÀS INSTITUIÇÕES E SERVIÇOS DO SERVIÇO NACIONAL DE SAÚDE    ",FALSE
Aquisição de 17000 ampolas de Tiocolquicosido 4mg/2ml sol. Inj. IM,Ao abrigo de acordo-quadro (art.º 259.º),Aquisição de bens móveis,"33661200-3, Analgésicos","Administração Regional de Saúde do Norte, I. P. (503135593)","DLA Farmaceutica, S.A. (503894427)","7.123,00 €",08-06-2015,07-01-2015,358 dias,"Portugal, Porto, Maia<BR/>Portugal, Vila Real, Vila Real<BR/>Portugal, Distrito não determinado, Concelho não determinado",Artigo 259.º do Código dos Contratos Públicos,21-10-2015,"7.122,16 €","",Por causa do nº de unidades por embalagem,,611371,"CONCURSO PÚBLICO PARA A CELEBRAÇÃO DE CONTRATOS PÚBLICOS DE APROVISIONAMENTO PARA A ÁREA DA SAÚDE, COM VISTA AO FORNECIMENTO DE MEDICAMENTOS ANESTÉSICOS E RELAXANTES MUSCULARES, ÀS INSTITUIÇÕES E SERVIÇOS DO SERVIÇO NACIONAL DE SAÚDE    ",FALSE
"Ap 618 - 15004663 - Aquisição de 1000 Multi-adaptador não pirogénico; 20 pipetas volumétrica de vidro 25 ml; 10 frascos de vidro graduado 1000 ml com tampa de rosaca, 2000 pontas micropipteas 1000-10000 ul; 666 frascos plásticos esterilizados 1000 ml e 6 golbelé de plástico 600 ml",Ajuste Direto Regime Geral,Aquisição de bens móveis,"38437000-7, Pipetas de laboratório e acessórios","Administração Regional de Saúde do Norte, I. P. (503135593)","NORMAX - Fábrica de Vidros Cientificos, Lda (500203130)","950,44 €",08-06-2015,03-06-2015,300 dias,"Portugal, Vila Real, Vila Real<BR/>Portugal, Porto, Maia","Artigo 20.º, n.º 1, alínea a) do Código dos Contratos Públicos",17-09-2015,"950,44 €","","",,Não aplicável.,Não aplicável.,FALSE
AP 618 - 15004664 - Aquisição de 20 frscos de vidro graduado 500 ml com tampa de rosaca e 6912 frascos plásticos esterilizado 500 ml 500 ml (com Ma Tio),Ajuste Direto Regime Geral,Aquisição de bens móveis,"38437000-7, Pipetas de laboratório e acessórios","Administração Regional de Saúde do Norte, I. P. (503135593)",VIDROLAB 2 (501450629),"4.323,44 €",08-06-2015,28-05-2015,300 dias,"Portugal, Porto, Maia<BR/>Portugal, Vila Real, Vila Real","Artigo 20.º, n.º 1, alínea a) do Código dos Contratos Públicos",17-09-2015,"4.323,44 €","","",,Não aplicável.,Não aplicável.,FALSE
A.P. 686 - Aquisição de 8.000 ampolas de Clemastina 1 mg/ml Sol inj 2 ml IM IV,Ajuste Direto Regime Geral,Aquisição de bens móveis,"33600000-6, Produtos farmacêuticos","Administração Regional de Saúde do Norte, I. P. (503135593)","NOVARTIS-CONSUMER HEALTH, PROD. FARM. E NUT. LDA         (500268215)","7.416,00 €",08-06-2015,26-05-2015,365 dias,"Portugal, Porto, Maia<BR/>Portugal, Vila Real, Vila Real","Artigo 24.º, n.º 1, alínea e) do Código dos Contratos Públicos",13-08-2015,"5.511,02 €",Foi feito alteração de resto de quantidades para o fornecedor GlaxoSmithkline,Foi feito alteração de resto de quantidades para o fornecedor GlaxoSmithkline,,Não aplicável.,Não aplicável.,FALSE
A.P. 895 - Aquisição de 4.500 comprimidos de Moxifloxacina 400 mg,Ao abrigo de acordo-quadro (art.º 259.º),Aquisição de bens móveis,"33600000-6, Produtos farmacêuticos","Administração Regional de Saúde do Norte, I. P. (503135593)","MYLAN, LDº       (502248793)","3.429,00 €",08-06-2015,03-06-2015,365 dias,"Portugal, Vila Real, Vila Real<BR/>Portugal, Porto, Maia",Artigo 259.º do Código dos Contratos Públicos,27-11-2015,"3.429,00 €","","",,1326195,ACORDO QUADRO PARA FORNECIMENTO DE MEDICAMENTOS ANTI-INFECIOSOS: EXCETO ANTIVÍRICOS E ANTIFÚNGICOS ÀS INSTITUIÇÕES E SERVIÇOS DO SERVIÇO NACIONAL DE SAÚDE,FALSE
Obras de tratamento de fachadas - USF Valongo,Ajuste Direto Regime Geral,Empreitadas de obras públicas,"45453000-7, Obras de revisão e recuperação","Administração Regional de Saúde do Norte, I. P. (503135593)","Betão Na Cidade, Unipessoal Lda  (510234690)","24.650,00 €",08-06-2015,28-05-2015,30 dias,"Portugal, Porto, Valongo","Artigo 19.º, alínea a) do Código dos Contratos Públicos","","24.650,00 €",Não se verificaram atrasos. A receção provisória foi celebrada no dia útil seguinte à data da conclusão prevista pois terminava ao sábado.,"",,Não aplicável.,Não aplicável.,FALSE
Obras de substituição de tetos - USF Valongo,Ajuste Direto Regime Geral,Empreitadas de obras públicas,"45453000-7, Obras de revisão e recuperação","Administração Regional de Saúde do Norte, I. P. (503135593)","Betão Na Cidade, Unipessoal Lda  (510234690)","20.400,47 €",08-06-2015,26-05-2015,45 dias,"Portugal, Porto, Valongo","Artigo 19.º, alínea a) do Código dos Contratos Públicos","","20.400,47 €","","",,Não aplicável.,Não aplicável.,FALSE
Obras de tratamento de fachadas - USF Aníbal Cunha,Ajuste Direto Regime Geral,Empreitadas de obras públicas,"45453000-7, Obras de revisão e recuperação","Administração Regional de Saúde do Norte, I. P. (503135593)",Ideias & Enigmas - Unipessoal Lda  (509895786),"20.632,82 €",08-06-2015,14-05-2015,45 dias,"Portugal, Porto, Porto","Artigo 19.º, alínea a) do Código dos Contratos Públicos","","20.632,82 €",Não se verificaram atrasos. A receção provisória foi celebrada no dia útil seguinte à data da conclusão prevista pois terminava ao domingo.,"",,Não aplicável.,Não aplicável.,FALSE
Aquisição de isoniazida 300 mg,Ajuste Direto Regime Geral,Aquisição de bens móveis,"33600000-6, Produtos farmacêuticos","Administração Regional de Saúde do Norte, I. P. (503135593)",Duxpharma (510803679),"67.353,00 €",05-06-2015,24-02-2015,324 dias,"Portugal, Vila Real, Vila Real<BR/>Portugal, Porto, Maia<BR/>Portugal, Distrito não determinado, Concelho não determinado","Artigo 20.º, n.º 1, alínea a) do Código dos Contratos Públicos",24-09-2015,"67.353,00 €","","",,Não aplicável.,Não aplicável.,FALSE
Aquisição de Vacinas e Tuberculinas,Ao abrigo de acordo-quadro (art.º 258.º),Aquisição de bens móveis,"33650000-1, Anti-infecciosos gerais de uso sistémico, vacinas, antineoplásicos e imunomoduladores","Administração Regional de Saúde do Norte, I. P. (503135593)",J.M. Farmacêutica (503550558),"18.115,20 €",05-06-2015,28-02-2014,350 dias,"Portugal, Vila Real, Vila Real<BR/>Portugal, Porto, Porto",Artigo 258.º do Código dos Contratos Públicos,23-01-2015,"6.216,00 €","",Fornecedor não tinha para entrega,,513076,"CONCURSO PÚBLICO PARA A CELEBRAÇÃO DE CONTRATOS PÚBLICOS DE APROVISIONAMENTO PARA A ÁREA DA SAÚDE, COM VISTA AO FORNECIMENTO DE VACINAS E TUBERCULINAS, ÀS INSTITUIÇÕES E SERVIÇOS DO SERVIÇO NACIONAL DE SAÚDE E REGIÕES AUTONOMAS",FALSE
Aquisição de Vacinas e Tuberculinas,Ao abrigo de acordo-quadro (art.º 258.º),Aquisição de bens móveis,"33650000-1, Anti-infecciosos gerais de uso sistémico, vacinas, antineoplásicos e imunomoduladores","Administração Regional de Saúde do Norte, I. P. (503135593)",J.M. Farmacêutica (503550558),"3.190,20 €",05-06-2015,28-02-2014,350 dias,"Portugal, Porto, Maia<BR/>Portugal, Vila Real, Vila Real",Artigo 258.º do Código dos Contratos Públicos,23-01-2015,"981,60 €","",O fornecedor não tinha para entrega,,513076,"CONCURSO PÚBLICO PARA A CELEBRAÇÃO DE CONTRATOS PÚBLICOS DE APROVISIONAMENTO PARA A ÁREA DA SAÚDE, COM VISTA AO FORNECIMENTO DE VACINAS E TUBERCULINAS, ÀS INSTITUIÇÕES E SERVIÇOS DO SERVIÇO NACIONAL DE SAÚDE E REGIÕES AUTONOMAS",FALSE
Renovação Anual de Certificado Diginal,Ajuste Direto Regime Geral,Aquisição de serviços,"79132100-9, Serviços de certificação de assinaturas electrónicas","Administração Regional de Saúde do Norte, I. P. (503135593)","Digitalsign - Certificadora Digital, S.A. (507015851)","65,00 €",05-06-2015,15-05-2015,1 dias,"Portugal, Porto, Porto","Artigo 20.º, n.º 1, alínea a) do Código dos Contratos Públicos",15-05-2015,"65,00 €","","",,Não aplicável.,Não aplicável.,FALSE
"Aquisição de 90 unidades de tubo endotraquetal com cuff nº7,5",Concurso público,Aquisição de bens móveis,"33140000-3, Material médico de consumo","Administração Regional de Saúde do Norte, I. P. (503135593)",Remeditec (505086344),"46,80 €",04-06-2015,17-11-2014,41 dias,"Portugal, Porto, Maia<BR/>Portugal, Vila Real, Vila Real<BR/>Portugal, Distrito não determinado, Concelho não determinado",Artigo 155.º do Código dos Contratos Públicos,"","","","",,Não aplicável.,Não aplicável.,FALSE
Aquisição de 40 unidades de tubo endotraquetal com cuff nº8,Concurso público,Aquisição de bens móveis,"33140000-3, Material médico de consumo","Administração Regional de Saúde do Norte, I. P. (503135593)",Overpharma (505792362),"23,20 €",04-06-2015,17-11-2014,41 dias,"Portugal, Porto, Maia<BR/>Portugal, Distrito não determinado, Concelho não determinado<BR/>Portugal, Vila Real, Vila Real",Artigo 155.º do Código dos Contratos Públicos,"","","","",,Não aplicável.,Não aplicável.,FALSE
Aquisição de 95 unidades de tubo endotraquetal com cuff nº7,Concurso público,Aquisição de bens móveis,"33140000-3, Material médico de consumo","Administração Regional de Saúde do Norte, I. P. (503135593)",Overpharma (505792362),"55,10 €",04-06-2015,17-11-2014,41 dias,"Portugal, Distrito não determinado, Concelho não determinado<BR/>Portugal, Porto, Maia<BR/>Portugal, Vila Real, Vila Real",Artigo 155.º do Código dos Contratos Públicos,"","","","",,Não aplicável.,Não aplicável.,FALSE
Aquisição de 85 unidades de tubo endotraquetal  com cuff nº6,Concurso público,Aquisição de bens móveis,"33140000-3, Material médico de consumo","Administração Regional de Saúde do Norte, I. P. (503135593)",Overpharma (505792362),"49,30 €",04-06-2015,17-11-2014,41 dias,"Portugal, Vila Real, Vila Real<BR/>Portugal, Porto, Maia<BR/>Portugal, Distrito não determinado, Concelho não determinado",Artigo 155.º do Código dos Contratos Públicos,"","","","",,Não aplicável.,Não aplicável.,FALSE
Obras de adaptação e conservação - UDN/ DICAD - Matosinhos,Ajuste Direto Regime Geral,Empreitadas de obras públicas,"45453000-7, Obras de revisão e recuperação","Administração Regional de Saúde do Norte, I. P. (503135593)","Requintegótico - Engenharia e Construção Civil, Lda  (510723675)","14.250,00 €",04-06-2015,24-04-2015,45 dias,"Portugal, Porto, Matosinhos","Artigo 19.º, alínea a) do Código dos Contratos Públicos","","14.250,00 €"," Verificou-se que, face à natureza e quantidade  dos trabalhos a realizar, foi estimado um prazo para realização da empreitada superior ao realmente necessário.  ","",,Não aplicável.,Não aplicável.,FALSE
UCSP Murça - Reparações de construção civil,Ajuste Direto Regime Geral,Empreitadas de obras públicas,"45454000-4, Obras de reestruturação","Administração Regional de Saúde do Norte, I. P. (503135593)",Evaristo Vieira & Filho Lda  (501125892),"2.400,60 €",04-06-2015,12-03-2015,15 dias,"Portugal, Vila Real, Murça","Artigo 19.º, alínea a) do Código dos Contratos Públicos","","2.400,60 €"," Verificou-se que, face à natureza e quantidade  dos trabalhos a realizar, foi estimado um prazo para realização da empreitada ligeiramente superior ao realmente necessário.","",,Não aplicável.,Não aplicável.,FALSE
CS Alijó - Reparações de construção civil,Ajuste Direto Regime Geral,Empreitadas de obras públicas,"45454000-4, Obras de reestruturação","Administração Regional de Saúde do Norte, I. P. (503135593)","Agostinho Vieira - Canalizações, Unipessoal Lda  (510521037)","4.993,20 €",04-06-2015,10-03-2015,60 dias,"Portugal, Vila Real, Alijó","Artigo 19.º, alínea a) do Código dos Contratos Públicos","","4.993,20 €"," Verificou-se que, face à natureza e quantidade  dos trabalhos a realizar, foi estimado um prazo para realização da empreitada ligeiramente superior ao realmente necessário.","",,Não aplicável.,Não aplicável.,FALSE
CS Mateus - Reparação de infiltrações,Ajuste Direto Regime Geral,Empreitadas de obras públicas,"45261900-3, Obras de reparação e manutenção de coberturas","Administração Regional de Saúde do Norte, I. P. (503135593)",Evaristo Vieira & Filho Lda  (501125892),"3.760,50 €",04-06-2015,22-04-2015,30 dias,"Portugal, Vila Real, Vila Real","Artigo 19.º, alínea a) do Código dos Contratos Públicos","","3.760,50 €","","",,Não aplicável.,Não aplicável.,FALSE
Obras de adaptação e conservação - CRI Oriental,Ajuste Direto Regime Geral,Empreitadas de obras públicas,"45453000-7, Obras de revisão e recuperação","Administração Regional de Saúde do Norte, I. P. (503135593)","Betão na Cidade, Unipessoal Lda. (510234690)","78.090,00 €",04-06-2015,24-04-2015,45 dias,"Portugal, Porto, Porto","Artigo 19.º, alínea a) do Código dos Contratos Públicos","","78.090,00 €"," Verificou-se que, face à natureza e quantidade  dos trabalhos a realizar, foi estimado um prazo para realização da empreitada ligeiramente inferior ao realmente necessário.  ","",,Não aplicável.,Não aplicável.,FALSE
Aquisição de 5.000 unidades de Cicloserina 250 mg,Ajuste Direto Regime Geral,Aquisição de bens móveis,"33600000-6, Produtos farmacêuticos","Administração Regional de Saúde do Norte, I. P. (503135593)",Idis World Medicines (700513982),"6,20 €",03-06-2015,21-11-2014,406 dias,"Portugal, Porto, Porto","Artigo 20.º, n.º 1, alínea a) do Código dos Contratos Públicos",28-05-2015,"6,20 €","","",,Não aplicável.,Não aplicável.,FALSE
Aquisição de 600 frascos de Estreptomicina 1g Pó,Ajuste Direto Regime Geral,Aquisição de bens móveis,"33600000-6, Produtos farmacêuticos","Administração Regional de Saúde do Norte, I. P. (503135593)",Idis World Medicines (700513982),"2,74 €",03-06-2015,21-11-2014,406 dias,"Portugal, Porto, Porto","Artigo 20.º, n.º 1, alínea a) do Código dos Contratos Públicos",09-09-2015,"","",Revogação do contrato,,Não aplicável.,Não aplicável.,FALSE
Aquisição de 10.000 comprimidos de Etionamida 250 mg,Ajuste Direto Regime Geral,Aquisição de bens móveis,"33600000-6, Produtos farmacêuticos","Administração Regional de Saúde do Norte, I. P. (503135593)","Etiopharma, S.A. (509393357)","5,46 €",03-06-2015,21-11-2014,406 dias,"Portugal, Porto, Porto","Artigo 20.º, n.º 1, alínea a) do Código dos Contratos Públicos",23-11-2015,"5,46 €","","",,Não aplicável.,Não aplicável.,FALSE
Aquisição de 800 comprimidos de Amoxicilina + ácido clavulânico,Ao abrigo de acordo-quadro (art.º 258.º),Aquisição de bens móveis,"33600000-6, Produtos farmacêuticos","Administração Regional de Saúde do Norte, I. P. (503135593)",GlaxoSmithKline (500139962),"81,60 €",03-06-2015,17-04-2015,254 dias,"Portugal, Distrito não determinado, Concelho não determinado<BR/>Portugal, Porto, Maia<BR/>Portugal, Vila Real, Vila Real",Artigo 258.º do Código dos Contratos Públicos,06-05-2015,"81,60 €","","",,1326195,ACORDO QUADRO PARA FORNECIMENTO DE MEDICAMENTOS ANTI-INFECIOSOS: EXCETO ANTIVÍRICOS E ANTIFÚNGICOS ÀS INSTITUIÇÕES E SERVIÇOS DO SERVIÇO NACIONAL DE SAÚDE,FALSE
Aquisição de 550 comprimidos de Domperidona 10 mg,Ao abrigo de acordo-quadro (art.º 259.º),Aquisição de bens móveis,"33600000-6, Produtos farmacêuticos","Administração Regional de Saúde do Norte, I. P. (503135593)","Generis Farmacêutica, S.A. (508107997)","6,05 €",03-06-2015,08-05-2015,232 dias,"Portugal, Porto, Maia<BR/>Portugal, Vila Real, Vila Real<BR/>Portugal, Distrito não determinado, Concelho não determinado",Artigo 259.º do Código dos Contratos Públicos,11-05-2015,"5,94 €","",Devido ao numero de unidades por embalagem,,1194708,"CONCURSO PÚBLICO PARA A CELEBRAÇÃO DE CONTRATOS PÚBLICOS DE APROVISIONAMENTO PARA A ÁREA DA SAÚDE, MEDICAMENTOS DO APARELHO DIGESTIVO, ÀS INSTITUIÇÕES E SERVIÇOS DO SERVIÇO NACIONAL DE SAÚDE",FALSE
" AP 3127 12 Unidades bases porosas para rampa de filtração  15 000 unidades membranas filtrantes 0,4 com 47 mm  11 100 unidades copos esterilizados rampa filtração 100 ml  1050 unidades copos esterilizados rampa filtração 250 ml",Ajuste Direto Regime Geral,Aquisição de bens móveis,"33696000-5, Reagentes e meios de contraste","Administração Regional de Saúde do Norte, I. P. (503135593)","Type Solutions, SA (508400317)","16.099,04 €",02-06-2015,04-02-2015,300 dias,"Portugal, Porto, Maia<BR/>Portugal, Vila Real, Vila Real","Artigo 20.º, n.º 1, alínea a) do Código dos Contratos Públicos",23-12-2014,"16.099,04 €","","",,Não aplicável.,Não aplicável.,FALSE
AP 3127 2000 g maximum recovery diluent  1000 g brain heart  2000 g meio de cultura colombia agar  2000 g meio de cultura lauryl sulfato agar  1000 g meio cultura PCA  1500 g meio cultura XLD  7000 g meio cutura yeast extract agar  1000 g perfringens agar,Ajuste Direto Regime Geral,Aquisição de bens móveis,"33696000-5, Reagentes e meios de contraste","Administração Regional de Saúde do Norte, I. P. (503135593)","Type solution, SA (508400317)","2.809,82 €",02-06-2015,10-02-2015,300 dias,"Portugal, Vila Real, Vila Real<BR/>Portugal, Porto, Maia","Artigo 20.º, n.º 1, alínea a) do Código dos Contratos Públicos",23-12-2014,"2.809,82 €","","",,Não aplicável.,Não aplicável.,FALSE
90 000 Comprimidos trocloseno sódico 2.5g AP - 681,Ajuste Direto Regime Geral,Aquisição de bens móveis,"33600000-6, Produtos farmacêuticos","Administração Regional de Saúde do Norte, I. P. (503135593)","Johnson&johnson, Lda (500153370)","6.840,00 €",02-06-2015,15-05-2015,210 dias,"Portugal, Porto, Maia<BR/>Portugal, Vila Real, Vila Real","Artigo 20.º, n.º 1, alínea a) do Código dos Contratos Públicos",12-10-2015,"6.840,00 €","","",,Não aplicável.,Não aplicável.,FALSE
"Aquisição de 70 unidades de tubo endotraquetal com cuff nº8,5",Concurso público,Aquisição de bens móveis,"33140000-3, Material médico de consumo","Administração Regional de Saúde do Norte, I. P. (503135593)",Overpharma (505792362),"40,60 €",02-06-2015,17-11-2014,41 dias,"Portugal, Vila Real, Vila Real<BR/>Portugal, Distrito não determinado, Concelho não determinado<BR/>Portugal, Porto, Maia",Artigo 155.º do Código dos Contratos Públicos,"","","","",,Não aplicável.,Não aplicável.,FALSE
2000 g maximum recovery diluent  1000 g brain heart  2000 g meio de cultura columbia agar  1000 g meio de cultura lauryl sulfato agar  2000 g perfringens agar  1 kit legionella latex test,Ajuste Direto Regime Geral,Aquisição de bens móveis,"33696500-0, Reagentes de laboratório","Administração Regional de Saúde do Norte, I. P. (503135593)","Type solution, Sa (508400317)","1.397,09 €",02-06-2015,27-04-2015,240 dias,"Portugal, Vila Real, Vila Real<BR/>Portugal, Porto, Maia","Artigo 20.º, n.º 1, alínea a) do Código dos Contratos Públicos",18-06-2015,"1.397,09 €","","",,Não aplicável.,Não aplicável.,FALSE
"Aquisição de 70 unidades de tubo endotraquetal com cuff nº6,5",Concurso público,Aquisição de bens móveis,"33140000-3, Material médico de consumo","Administração Regional de Saúde do Norte, I. P. (503135593)",Remeditec  (505086344),"36,40 €",02-06-2015,17-11-2014,41 dias,"Portugal, Porto, Maia<BR/>Portugal, Distrito não determinado, Concelho não determinado<BR/>Portugal, Vila Real, Vila Real",Artigo 155.º do Código dos Contratos Públicos,"","","","",,Não aplicável.,Não aplicável.,FALSE
398400 Unidades de copo branco sem tampa 100 cc,Ajuste Direto Regime Geral,Aquisição de bens móveis,"39221120-4, Chávenas e copos","Administração Regional de Saúde do Norte, I. P. (503135593)",Intraplás (500140944),"3.227,04 €",02-06-2015,01-06-2015,180 dias,"Portugal, Vila Real, Vila Real<BR/>Portugal, Porto, Maia","Artigo 20.º, n.º 1, alínea a) do Código dos Contratos Públicos",04-08-2015,"3.227,04 €","","",,Não aplicável.,Não aplicável.,FALSE
460 000 Unidades de penso rápido n/estéril,Ao abrigo de acordo-quadro (art.º 259.º),Aquisição de bens móveis,"33141110-4, Pensos","Administração Regional de Saúde do Norte, I. P. (503135593)","Overpharma, Lda (505792362)","3.680,00 €",02-06-2015,11-05-2015,210 dias,"Portugal, Porto, Maia<BR/>Portugal, Vila Real, Vila Real",Artigo 259.º do Código dos Contratos Públicos,18-11-2015,"3.680,00 €","","",,534953,"CONCURSO PÚBLICO PARA A CELEBRAÇÃO DE CONTRATOS PÚBLICOS DE APROVISIONAMENTO PARA A ÁREA DA SAÚDE, COM VISTA AO FORNECIMENTO DE MATERIAL DE PENSO TRADICIONAL/CLASSICO - PARTE 1 - ÀS INSTITUIÇÕES E SERVIÇOS DO SERVIÇO NACIONAL DE SAÚDE  ",FALSE
Aprov-Vr 15000050 - AP 9 - Concurso publico   Aquisição de 8.000 Ampolas Tiamina 100 mg/2 ml Sol inj 2 ml IM IV SC,Ajuste Direto Regime Geral,Aquisição de bens móveis,"33600000-6, Produtos farmacêuticos","Administração Regional de Saúde do Norte, I. P. (503135593)","Labesfal - Laboratórios Almiro, S.A. (501169580)","14.400,00 €",02-06-2015,18-03-2015,360 dias,"Portugal, Porto, Maia<BR/>Portugal, Vila Real, Vila Real","Artigo 20.º, n.º 1, alínea a) do Código dos Contratos Públicos",15-10-2015,"14.400,00 €","","",,Não aplicável.,Não aplicável.,FALSE
7 000 unidades de permetrina 10 mg/g creme/espuma cutânea,Ao abrigo de acordo-quadro (art.º 259.º),Aquisição de bens móveis,"33600000-6, Produtos farmacêuticos","Administração Regional de Saúde do Norte, I. P. (503135593)","Angelini, Lda (500583650)","34.930,00 €",02-06-2015,18-05-2015,210 dias,"Portugal, Vila Real, Vila Real<BR/>Portugal, Porto, Maia",Artigo 259.º do Código dos Contratos Públicos,09-06-2015,"34.930,00 €","","",,602875,"CONCURSO PÚBLICO PARA A CELEBRAÇÃO DE CONTRATOS PÚBLICOS DE APROVISIONAMENTO PARA A ÁREA DA SAÚDE, COM VISTA AO FORNECIMENTO DE MEDICAMENTOS DE CONSUMO GERAL - USADOS NAS AFECÇÕES CUTÂNEAS, ÀS INSTITUIÇÕES E SERVIÇOS DO SERVIÇO NACIONAL DE SAÚDE",FALSE
30 bisnagas de clotrimazol 10 mg/g cr bisn 20 g,Ao abrigo de acordo-quadro (art.º 259.º),Aquisição de bens móveis,"33600000-6, Produtos farmacêuticos","Administração Regional de Saúde do Norte, I. P. (503135593)","Overpharma, Lda (505792362)","15,00 €",02-06-2015,18-05-2015,210 dias,"Portugal, Porto, Maia<BR/>Portugal, Vila Real, Vila Real",Artigo 259.º do Código dos Contratos Públicos,04-11-2015,"15,00 €","","",,602875,"CONCURSO PÚBLICO PARA A CELEBRAÇÃO DE CONTRATOS PÚBLICOS DE APROVISIONAMENTO PARA A ÁREA DA SAÚDE, COM VISTA AO FORNECIMENTO DE MEDICAMENTOS DE CONSUMO GERAL - USADOS NAS AFECÇÕES CUTÂNEAS, ÀS INSTITUIÇÕES E SERVIÇOS DO SERVIÇO NACIONAL DE SAÚDE",FALSE
"Aprov-VR 15000050 - AP 9 Concurso Publico  Aquisição de 3.500 Bisnagas  Lidocaína 20 mg/g Gel 30g, 800 tubos Lidocaína 100 mg/ml Sol pulv cut",Ajuste Direto Regime Geral,Aquisição de bens móveis,"33600000-6, Produtos farmacêuticos","Administração Regional de Saúde do Norte, I. P. (503135593)",Siderfarma Soc. Ind Exp Farmac (500717419),"7.835,00 €",02-06-2015,19-03-2015,360 dias,"Portugal, Porto, Maia<BR/>Portugal, Vila Real, Vila Real","Artigo 20.º, n.º 1, alínea a) do Código dos Contratos Públicos",10-11-2015,"7.835,00 €","","",,Não aplicável.,Não aplicável.,FALSE
Aquisição de 30 unidades de tubo endotraquetal com cuff nº5,Concurso público,Aquisição de bens móveis,"33140000-3, Material médico de consumo","Administração Regional de Saúde do Norte, I. P. (503135593)",Overpharma (505792362),"17,40 €",02-06-2015,17-11-2014,41 dias,"Portugal, Porto, Maia<BR/>Portugal, Distrito não determinado, Concelho não determinado<BR/>Portugal, Vila Real, Vila Real",Artigo 155.º do Código dos Contratos Públicos,"","","","",,Não aplicável.,Não aplicável.,FALSE
"Aquisição de 30 unidades de tubo endotraquetal com cuff nº4,5",Concurso público,Aquisição de bens móveis,"33140000-3, Material médico de consumo","Administração Regional de Saúde do Norte, I. P. (503135593)",Overpharma (505792362),"17,40 €",01-06-2015,17-11-2014,41 dias,"Portugal, Distrito não determinado, Concelho não determinado<BR/>Portugal, Porto, Maia<BR/>Portugal, Vila Real, Vila Real",Artigo 155.º do Código dos Contratos Públicos,"","","","",,Não aplicável.,Não aplicável.,FALSE
Aquisição de 20 unidades de tubo endotraquetal com cuff nº4,Concurso público,Aquisição de bens móveis,"33140000-3, Material médico de consumo","Administração Regional de Saúde do Norte, I. P. (503135593)",Overpharma (505792362),"11,60 €",01-06-2015,17-11-2014,41 dias,"Portugal, Distrito não determinado, Concelho não determinado<BR/>Portugal, Vila Real, Vila Real<BR/>Portugal, Porto, Maia",Artigo 155.º do Código dos Contratos Públicos,"","","","",,Não aplicável.,Não aplicável.,FALSE
"Aquisição de 40 unidades de Tubo endotraquetal com cuff nº 3,5",Concurso público,Aquisição de bens móveis,"33140000-3, Material médico de consumo","Administração Regional de Saúde do Norte, I. P. (503135593)",Overpharma (505792362),"23,20 €",01-06-2015,17-11-2014,41 dias,"Portugal, Porto, Matosinhos<BR/>Portugal, Distrito não determinado, Concelho não determinado<BR/>Portugal, Vila Real, Vila Real",Artigo 155.º do Código dos Contratos Públicos,"","","","",,Não aplicável.,Não aplicável.,FALSE
Aquisição de 30 unidades de Tubo endotraquetal com cuff nº3,Concurso público,Aquisição de bens móveis,"33140000-3, Material médico de consumo","Administração Regional de Saúde do Norte, I. P. (503135593)",Overpharma  (505792362),"17,40 €",01-06-2015,17-11-2014,41 dias,"Portugal, Vila Real, Vila Real<BR/>Portugal, Distrito não determinado, Concelho não determinado<BR/>Portugal, Porto, Maia",Artigo 155.º do Código dos Contratos Públicos,"","","","",,Não aplicável.,Não aplicável.,FALSE
Aprov-VR15004596 - AP 580  Aquisição de 10800 comprimidos Tiapride (cloridrato) 100 mgTiapride (cloridrato) 100 mg,Ao abrigo de acordo-quadro (art.º 259.º),Aquisição de bens móveis,"33600000-6, Produtos farmacêuticos","Administração Regional de Saúde do Norte, I. P. (503135593)","Sanofi - Produtos Farmacêuticos, Lda (500134960)","615,60 €",01-06-2015,29-04-2015,240 dias,"Portugal, Vila Real, Vila Real<BR/>Portugal, Porto, Maia",Artigo 259.º do Código dos Contratos Públicos,17-09-2015,"615,60 €","","",,1153380,"CONCURSO PÚBLICO PARA A CELEBRAÇÃO DE CONTRATOS PÚBLICOS DE APROVISIONAMENTO PARA A ÁREA DA SAÚDE, COM VISTA AO FORNECIMENTO DE MEDICAMENTOS ANTIPSICÓTICOS, ÀS INSTITUIÇÕES E SERVIÇOS DO SERVIÇO NACIONAL DE SAÚDE",FALSE
