Objeto do Contrato,Tipo de Procedimento,Tipo(s) de Contrato,CPVs,Entidade(s) Adjudicante(s),Entidade(s) Adjudicatária(s),Preço Contratual,Data de Publicação,Data de Celebração do Contrato,Prazo de Execução,Local de Execução,Fundamentação,Data de Fecho do Contrato,Preço Total Efetivo,Causas das Alterações ao Prazo,Causas das Alterações ao Preço,Estado,N.º registo do Acordo Quadro,Descrição do Acordo Quadro,Procedimento Centralizado
"Aquisição de serviços de RTS """"Return to Support de Hardware e Software"""" no CHLO",Ajuste Direto Regime Geral,Aquisição de serviços,"72000000-5, Serviços de TI: consultoria, desenvolvimento de software, Internet e apoio","Centro Hospitalar de Lisboa Ocidental, EPE (507618319)","CPC IS - Companhia Portuguesa de Computadores, Informática e Sistemas, SA (501267255)","8.147,39 €",17-07-2013,17-07-2013,168 dias,"Portugal, Lisboa, Lisboa","Artigo 21.º, n.º 1, alínea a) do Código dos Contratos Públicos",,,,,,Não aplicável.,Não aplicável.,
"Empreitada de obras de construção civil do Centro de Reprodução Medicamente Assistida do CHLO, EPE",Ajuste Direto Regime Geral,Empreitadas de obras públicas,"45000000-7, Construção","Centro Hospitalar de Lisboa Ocidental, EPE (507618319)","Scoprolumba, Sociedade de Construções e Projectos, SA (501208143)","90.578,89 €",16-07-2013,08-07-2013,120 dias,"Portugal, Lisboa, Lisboa","Artigo 19.º, alínea a) do Código dos Contratos Públicos",,,,,,Não aplicável.,Não aplicável.,
