Objeto do Contrato,Tipo de Procedimento,Tipo(s) de Contrato,CPVs,Entidade(s) Adjudicante(s),Entidade(s) Adjudicatária(s),Preço Contratual,Data de Publicação,Data de Celebração do Contrato,Prazo de Execução,Local de Execução,Fundamentação,Data de Fecho do Contrato,Preço Total Efetivo,Causas das Alterações ao Prazo,Causas das Alterações ao Preço,Estado,N.º registo do Acordo Quadro,Descrição do Acordo Quadro,Procedimento Centralizado
Aquisição de 100 unidades Salbutamol 100 ug./dose Susp. presu inal Recip pressu 200 dos,Ajuste Direto Regime Geral,Aquisição de bens móveis,"33600000-6, Produtos farmacêuticos","Administração Regional de Saúde do Norte, I. P. (503135593)",GLAXOSMITHKLINE (500139962),"100,00 €",13-03-2014,12-03-2014,365 dias,"Portugal, Vila Real, Vila Real",Artigo 258.º do Código dos Contratos Públicos,24-10-2014,"100,00 €",,,,1179370,Aquisição de 100 unidades Salbutamol 100 ug./dose Susp. presu inal Recip pressu 200 dos,FALSE
Tarifa de ligação do saneamento da unidade de saúde de Urgezes,Ajuste Direto Regime Geral,Aquisição de serviços,"90920000-2, Serviços de saneamento de instalações","Administração Regional de Saúde do Norte, I. P. (503135593)","Vimágua - Empresa de Água e Saneamento de Guimarães e Vizela, E.I.M. S.A. (505993082)","7.194,60 €",12-03-2014,13-03-2013,15 dias,"Portugal, Braga, Guimarães","Artigo 20.º, n.º 1, alínea a) do Código dos Contratos Públicos",28-03-2013,"7.194,60 €",,,,Não aplicável.,Não aplicável.,FALSE
Substituição de duas lâmpadas nos postes de iluminação do parque de estacionamento da unidade de saúde da Póvoa de Lanhoso,Ajuste Direto Regime Geral,Aquisição de serviços,"50711000-2, Serviços de reparação e manutenção de equipamento eléctrico em edifícios","Administração Regional de Saúde do Norte, I. P. (503135593)","José Ramiro & Alves, Lda (505653800)","385,00 €",12-03-2014,16-12-2013,5 dias,"Portugal, Braga, Póvoa de Lanhoso","Artigo 20.º, n.º 1, alínea a) do Código dos Contratos Públicos",21-12-2013,"385,00 €",,,,Não aplicável.,Não aplicável.,FALSE
Reparação de anomalia na rede de abastecimento de energia elétrica da unidade de saúde de Vila Verde,Ajuste Direto Regime Geral,Concessão de obras públicas,"50711000-2, Serviços de reparação e manutenção de equipamento eléctrico em edifícios","Administração Regional de Saúde do Norte, I. P. (503135593)","José Ramiro & Alves, Lda (505653800)","80,00 €",12-03-2014,19-12-2013,5 dias,"Portugal, Braga, Vila Verde","Artigo 19.º, alínea a) do Código dos Contratos Públicos","","80,00 €",,,,Não aplicável.,Não aplicável.,FALSE
Reparação de cobertura no Centro de Saúde de Póvoa de Lanhoso,Ajuste Direto Regime Geral,Concessão de obras públicas,"45261910-6, Reparação de coberturas","Administração Regional de Saúde do Norte, I. P. (503135593)","TIIB - Técnicas de Isolamento e Impermeabilização de Braga, Lda (507295978)","380,00 €",12-03-2014,28-11-2013,5 dias,"Portugal, Braga, Póvoa de Lanhoso","Artigo 19.º, alínea a) do Código dos Contratos Públicos","","380,00 €",,,,Não aplicável.,Não aplicável.,FALSE
Reparação e limpeza da cobertura do Centro de Saúde de Vila Verde,Ajuste Direto Regime Geral,Concessão de obras públicas,"45261910-6, Reparação de coberturas","Administração Regional de Saúde do Norte, I. P. (503135593)","TIIB - Técnicas de Isolamento e Impermeabilização de Braga, Lda (507295978)","3.740,00 €",11-03-2014,28-11-2013,10 dias,"Portugal, Braga, Vila Verde","Artigo 19.º, alínea a) do Código dos Contratos Públicos","","3.740,00 €",,,,Não aplicável.,Não aplicável.,FALSE
Aquisição de 270  000 comprimidos de Piridoxina (Vitamina B 6) 40 mg e 3 200 ampolas de Procaína 100 mg/5 ml Sol inj 5 ml SC,Ajuste Direto Regime Geral,Aquisição de bens móveis,"33600000-6, Produtos farmacêuticos","Administração Regional de Saúde do Norte, I. P. (503135593)",Labesfal - Laboratórios Almiro (501169580),"114.890,00 €",11-03-2014,03-02-2014,365 dias,"Portugal, Vila Real, Vila Real","Artigo 20.º, n.º 1, alínea a) do Código dos Contratos Públicos",18-11-2014,"114.890,00 €",,,,Não aplicável.,Não aplicável.,FALSE
Aquisição de 10 000 ampolas de tiamina 100 mg/2 ml Sol inj 2 ml IM IV SC,Ajuste Direto Regime Geral,Aquisição de bens móveis,"33600000-6, Produtos farmacêuticos","Administração Regional de Saúde do Norte, I. P. (503135593)","Labesfal - Laboratórios Almiro, Lda (501169580)","18.000,00 €",11-03-2014,17-01-2014,365 dias,"Portugal, Vila Real, Vila Real","Artigo 20.º, n.º 1, alínea a) do Código dos Contratos Públicos",14-11-2014,"18.000,00 €",,,,Não aplicável.,Não aplicável.,FALSE
"Aquisição de Isoniazida 0,68% Xarope e  60 Frascos de Ipecacuanha 1,4 mg/ml xarope",Ajuste Direto Regime Geral,Aquisição de bens móveis,"33600000-6, Produtos farmacêuticos","Administração Regional de Saúde do Norte, I. P. (503135593)",Laboratório Militar P. Químico (600019675),"1.410,60 €",11-03-2014,07-03-2014,365 dias,"Portugal, Vila Real, Vila Real","Artigo 20.º, n.º 1, alínea a) do Código dos Contratos Públicos",19-11-2014,"1.410,60 €",,,,Não aplicável.,Não aplicável.,FALSE
Aquisição de 4 000 unidades caixa de papelão,Ajuste Direto Regime Geral,Aquisição de bens móveis,"44617000-8, Caixas","Administração Regional de Saúde do Norte, I. P. (503135593)",Gilberto Branco (500815950),"12.560,00 €",11-03-2014,16-01-2014,365 dias,"Portugal, Vila Real, Vila Real","Artigo 20.º, n.º 1, alínea a) do Código dos Contratos Públicos",15-07-2014,"12.560,00 €",,,,Não aplicável.,Não aplicável.,FALSE
Aquisição de 350 unidades de connector em Y para aspirador secreções (8/10 MM),Ajuste Direto Regime Geral,Aquisição de bens móveis,"33140000-3, Material médico de consumo","Administração Regional de Saúde do Norte, I. P. (503135593)","VYGON Portugal, Lda (503232785)","227,50 €",11-03-2014,07-03-2014,365 dias,"Portugal, Vila Real, Vila Real","Artigo 20.º, n.º 1, alínea a) do Código dos Contratos Públicos",21-05-2014,"227,50 €",,,,Não aplicável.,Não aplicável.,FALSE
Aquisição de 9 000 bisnagas de Lidocaína 20 mg/g Gel 30 g,Ajuste Direto Regime Geral,Aquisição de bens móveis,"33600000-6, Produtos farmacêuticos","Administração Regional de Saúde do Norte, I. P. (503135593)",SIDEFARMA Soc. Ind. Exp. Farmaceutica (500717419),"8.100,00 €",11-03-2014,04-03-2014,365 dias,"Portugal, Vila Real, Vila Real","Artigo 20.º, n.º 1, alínea a) do Código dos Contratos Públicos",24-11-2014,"8.100,00 €",,,,Não aplicável.,Não aplicável.,FALSE
Aquisição de 10 pares de pás para disfibrilhador adulto,Ajuste Direto Regime Geral,Aquisição de bens móveis,"33140000-3, Material médico de consumo","Administração Regional de Saúde do Norte, I. P. (503135593)",Salitec - Serviços e Equipamentos de Saúde (506380408),"269,00 €",11-03-2014,04-03-2014,365 dias,"Portugal, Vila Real, Vila Real","Artigo 20.º, n.º 1, alínea a) do Código dos Contratos Públicos",02-04-2014,"269,00 €",,,,Não aplicável.,Não aplicável.,FALSE
"Aquisição de 5000 frascos de cloreto de sódio 0,9% Sol inj 500 ml IV;  1500 frascos de glucose 50 mg/ml inj 500 ml IV; 400 frascos de glucose 100 mg/ml Sol inj 500 mkl IV; 600 frascos de Glu 50 mg/ml + cloreto sódio 9 mg/ml Sol inj 500 ml IV; 1200 ampolas de Glucose 300 mg/ml Fr 20 ml IV; 16 000 ampolas de água para preparações injectáveis Dol inj 10 ml, 4 000 ampolas  água para preparações injectáveis Sol  imj. 5ml; 13 000 ampolas cloreto de sódio 0,9% Sol inj 5 ml  150 frascos de electrólitos + gelatina Sol p/ perfusão 500 ml IV e 100 ampolas de gluconato de cálcio 10% Sol. inj. 10 ml IV",Ajuste Direto Regime Geral,Aquisição de bens móveis,"33600000-6, Produtos farmacêuticos","Administração Regional de Saúde do Norte, I. P. (503135593)",B. Braun Medical (501506543),"12.650,00 €",11-03-2014,10-03-2014,365 dias,"Portugal, Vila Real, Vila Real",Artigo 258.º do Código dos Contratos Públicos,26-11-2014,"12.650,00 €",,,,1177577,"Aquisição de 5000 frascos de cloreto de sódio 0,9% Sol inj 500 ml IV;  1500 frascos de glucose 50 mg/ml inj 500 ml IV; 400 frascos de glucose 100 mg/ml Sol inj 500 mkl IV; 600 frascos de Glu 50 mg/ml + cloreto sódio 9 mg/ml Sol inj 500 ml IV; 1200 ampolas de Glucose 300 mg/ml Fr 20 ml IV; 16 000 ampolas de água para preparações injectáveis Dol inj 10 ml, 4 000 ampolas  água para preparações injectáveis Sol  imj. 5ml; 13 000 ampolas cloreto de sódio 0,9% Sol inj 5 ml  150 frascos de electrólitos + gelatina Sol p/ perfusão 500 ml IV e 100 ampolas de gluconato de cálcio 10% Sol. inj. 10 ml IV",FALSE
"Aquisição de 25 000 frascos de cloreto de sódio 0,9% Sol inj 100 ml IV; 50 ampolas de sulfato de magnésio 2 000 mg/10 ml Sol inj 10 ml IM IV; 14 00 unidades de Polielectrolítico + Glucose 50 mg/ml Sol inj. 500 ml IV; 1200 unidades de Polielectrolítico Sol inj 500 ml IV; 200 ampolas de cloreto de cálcio 100 mg/ml Sol inj. fr. 10 ml Iv e 23 000 ampolas de cloreto de sódio 0,9% Sol inj 10 ml IM IV SC",Ajuste Direto Regime Geral,Aquisição de bens móveis,"33600000-6, Produtos farmacêuticos","Administração Regional de Saúde do Norte, I. P. (503135593)",Labesfal - Laboratórios Almiro (501169580),"21.148,68 €",11-03-2014,10-03-2014,365 dias,"Portugal, Vila Real, Vila Real",Artigo 258.º do Código dos Contratos Públicos,21-11-2014,"21.148,68 €",,,,1177556,"Aquisição de 25 000 frascos de cloreto de sódio 0,9% Sol inj 100 ml IV; 50 ampolas de sulfato de magnésio 2 000 mg/10 ml Sol inj 10 ml IM IV; 14 00 unidades de Polielectrolítico + Glucose 50 mg/ml Sol inj. 500 ml IV; 1200 unidades de Polielectrolítico Sol inj 500 ml IV; 200 ampolas de cloreto de cálcio 100 mg/ml Sol inj. fr. 10 ml Iv e 23 000 ampolas de cloreto de sódio 0,9% Sol inj 10 ml IM IV SC",FALSE
"Aquisição de 996 unidades de água destilada 1000 ml; 100000 frascos de cloreto de sódio 0,9% Sol irrigação 100 ml e 40 000 unidades de cloreto de sódio 0,9% Sol irrigação 250 ml",Ajuste Direto Regime Geral,Aquisição de bens móveis,"33600000-6, Produtos farmacêuticos","Administração Regional de Saúde do Norte, I. P. (503135593)","B Braun Medical, Lda (501506543)","89.581,70 €",11-03-2014,10-03-2014,365 dias,"Portugal, Vila Real, Vila Real",Artigo 258.º do Código dos Contratos Públicos,03-11-2014,"89.581,70 €",,,,1177525,"Aquisição de 996 unidades de água destilada 1000 ml; 100000 frascos de cloreto de sódio 0,9% Sol irrigação 100 ml e 40 000 unidades de cloreto de sódio 0,9% Sol irrigação 250 ml",FALSE
Aquisição de 1500 frascos de lucose 50 mg/ml Sol inj 100 ml IV,Ajuste Direto Regime Geral,Aquisição de bens móveis,"33600000-6, Produtos farmacêuticos","Administração Regional de Saúde do Norte, I. P. (503135593)",OVERPHARMA (505792362),"1.005,00 €",11-03-2014,10-03-2014,365 dias,"Portugal, Vila Real, Vila Real",Artigo 258.º do Código dos Contratos Públicos,05-11-2014,"1.005,00 €",,,,1177514,Aquisição de 1500 frascos de lucose 50 mg/ml Sol inj 100 ml IV,FALSE
Aplicação de tomada informática no CRI em Braga,Ajuste Direto Regime Geral,Concessão de obras públicas,"45311000-0, Instalação de cabos e acessórios eléctricos","Administração Regional de Saúde do Norte, I. P. (503135593)","José Ramiro & Alves, Lda (505653800)","295,00 €",07-03-2014,07-11-2013,10 dias,"Portugal, Braga, Braga","Artigo 19.º, alínea a) do Código dos Contratos Públicos","","295,00 €",,,,Não aplicável.,Não aplicável.,FALSE
Aquisição de 60 000 ampolas de diclofenac 25 mg/ml Sol inj 3 ml IM,Ajuste Direto Regime Geral,Aquisição de bens móveis,"33600000-6, Produtos farmacêuticos","Administração Regional de Saúde do Norte, I. P. (503135593)",LABESFAL - Laboratórios Almiro (501169580),"9.600,00 €",06-03-2014,04-03-2014,365 dias,"Portugal, Vila Real, Vila Real",Artigo 258.º do Código dos Contratos Públicos,10-11-2014,"9.600,00 €",,,,1175455,Aquisição de 60 000 ampolas de diclofenac 25 mg/ml Sol inj 3 ml IM,FALSE
Aquisição de 450 ratos (cor Preta) e 400 teclados (cor preta),Ajuste Direto Regime Geral,Aquisição de bens móveis,"30200000-1, Equipamento e material informático","Administração Regional de Saúde do Norte, I. P. (503135593)",Iten Solutions (510728189),"3.727,50 €",06-03-2014,04-03-2014,365 dias,"Portugal, Vila Real, Vila Real","Artigo 20.º, n.º 1, alínea a) do Código dos Contratos Públicos",10-11-2014,"3.727,50 €",,,,Não aplicável.,Não aplicável.,FALSE
Aquisição de 10 000 eléctrodos Universais e 1 800 tubos de gel electrocondutor,Ajuste Direto Regime Geral,Aquisição de bens móveis,"33140000-3, Material médico de consumo","Administração Regional de Saúde do Norte, I. P. (503135593)",Bramedicafisio (508560152),"1.280,00 €",06-03-2014,05-03-2014,365 dias,"Portugal, Vila Real, Vila Real","Artigo 20.º, n.º 1, alínea a) do Código dos Contratos Públicos",10-10-2014,"1.280,00 €",,,,Não aplicável.,Não aplicável.,FALSE
Aquisição de 50 unidades de creme de massagem p/ fisioterapia 5 L,Ajuste Direto Regime Geral,Aquisição de bens móveis,"33600000-6, Produtos farmacêuticos","Administração Regional de Saúde do Norte, I. P. (503135593)",BRAMEDICAFISIO (508560152),"1.183,00 €",06-03-2014,05-03-2014,365 dias,"Portugal, Vila Real, Vila Real","Artigo 20.º, n.º 1, alínea a) do Código dos Contratos Públicos",11-08-2014,"1.183,00 €",,,,Não aplicável.,Não aplicável.,FALSE
"Aquisição de 1200 unidades de Dreno Penrose em latex flexível 22,5x1,5cm esterilizado;; 1 000 unidades de dreno Penrose em latex flexível 22,5x1 cm esterilizado e 500 unidades dreno pemrose em latexx flexível 22,5x2 cm esterilizado",Ajuste Direto Regime Geral,Aquisição de bens móveis,"33140000-3, Material médico de consumo","Administração Regional de Saúde do Norte, I. P. (503135593)",Hospitex Mat. Hospitalar (501909842),"2.079,00 €",06-03-2014,05-03-2014,365 dias,"Portugal, Vila Real, Vila Real","Artigo 20.º, n.º 1, alínea a) do Código dos Contratos Públicos",27-11-2014,"2.079,00 €",,,,Não aplicável.,Não aplicável.,FALSE
Aquisição de 5 000 ampolas de Ranitidina 50 mg/2 Ml Sol inj 2 ml IM IV,Ajuste Direto Regime Geral,Aquisição de bens móveis,"33600000-6, Produtos farmacêuticos","Administração Regional de Saúde do Norte, I. P. (503135593)","LABESFAL - Laboratórios Almiro, S.A. (501169580)","595,00 €",06-03-2014,06-03-2014,365 dias,"Portugal, Vila Real, Vila Real",Artigo 258.º do Código dos Contratos Públicos,03-11-2014,"595,00 €",,,,1175359,Aquisição de 5 000 ampolas de Ranitidina 50 mg/2 Ml Sol inj 2 ml IM IV,FALSE
Aquisição de 2 500 unidades de lidocaína 100 mg/10 ml Sol inj 10 ml IV SC,Ajuste Direto Regime Geral,Aquisição de bens móveis,"33600000-6, Produtos farmacêuticos","Administração Regional de Saúde do Norte, I. P. (503135593)","B BRAUN MEDICAL, S.A. (501506543)","4.047,50 €",04-03-2014,28-02-2014,365 dias,"Portugal, Vila Real, Vila Real",Artigo 258.º do Código dos Contratos Públicos,05-08-2014,"4.047,50 €",,,,1173886,Aquisição de 2 500 unidades de lidocaína 100 mg/10 ml Sol inj 10 ml IV SC,FALSE
Aquisição de medicamentos usados em Afecções Oculares,Ao abrigo de acordo-quadro (art.º 258.º),Aquisição de bens móveis,"33600000-6, Produtos farmacêuticos","Administração Regional de Saúde do Norte, I. P. (503135593)","Laboratório Edol Produtos Famacêuticos, S.A. (507072642)","2.272,00 €",03-03-2014,10-01-2014,365 dias,"Portugal, Porto, Maia",Artigo 258.º do Código dos Contratos Públicos,13-08-2014,"2.272,00 €",,,,602068,"CONCURSO PÚBLICO PARA A CELEBRAÇÃO DE CONTRATOS PÚBLICOS DE APROVISIONAMENTO PARA A ÁREA DA SAÚDE, COM VISTA AO FORNECIMENTO DE MEDICAMENTOS DE CONSUMO GERAL - MEDICAMENTOS USADOS NAS AFEÇÕES OCULARES E  OTORRINOLARINGOLÓGICAS, ÀS INSTITUIÇÕES E SERVIÇOS DO SERVIÇO NACIONAL DE SAÚDE",FALSE
Aquisição de medicamentos usados em Afecções Oculares,Ao abrigo de acordo-quadro (art.º 258.º),Aquisição de bens móveis,"33600000-6, Produtos farmacêuticos","Administração Regional de Saúde do Norte, I. P. (503135593)","Laboratório Edol Produtos Farmacêuticos, S.A. (507072642)","1.350,00 €",03-03-2014,10-01-2014,365 dias,"Portugal, Porto, Maia",Artigo 258.º do Código dos Contratos Públicos,13-08-2014,"1.350,00 €",,,,602068,"CONCURSO PÚBLICO PARA A CELEBRAÇÃO DE CONTRATOS PÚBLICOS DE APROVISIONAMENTO PARA A ÁREA DA SAÚDE, COM VISTA AO FORNECIMENTO DE MEDICAMENTOS DE CONSUMO GERAL - MEDICAMENTOS USADOS NAS AFEÇÕES OCULARES E  OTORRINOLARINGOLÓGICAS, ÀS INSTITUIÇÕES E SERVIÇOS DO SERVIÇO NACIONAL DE SAÚDE",FALSE
