Objeto do Contrato,Tipo de Procedimento,Tipo(s) de Contrato,CPVs,Entidade(s) Adjudicante(s),Entidade(s) Adjudicatária(s),Preço Contratual,Data de Publicação,Data de Celebração do Contrato,Prazo de Execução,Local de Execução,Fundamentação,Data de Fecho do Contrato,Preço Total Efetivo,Causas das Alterações ao Prazo,Causas das Alterações ao Preço,Estado,N.º registo do Acordo Quadro,Descrição do Acordo Quadro,Procedimento Centralizado
Aquisição de Ampola do Aparelho Coroskop da Cardiologia Invasiva do CHSJ,Ajuste Direto Regime Geral,Aquisição de bens móveis,"33110000-4, Equipamento de imagiologia para uso médico, dentário e veterinário","Centro Hospitalar de São João, E. P. E. (509821197)",Siemens SA (500247480),"41.250,00 €",11-04-2013,08-04-2013,5 dias,"Portugal, Porto, Porto","Artigo 24.º, n.º 1, alínea e) do Código dos Contratos Públicos",,,,,,Não aplicável.,Não aplicável.,
"Aquisição de um Sistema de Imagem por Técnicas de Ultrassonografia (Ecógrafo) para o Serviço Radiologia CHSJ, EPE",Ajuste Direto Regime Geral,Aquisição de bens móveis,"33110000-4, Equipamento de imagiologia para uso médico, dentário e veterinário","Centro Hospitalar de São João, E. P. E. (509821197)",Toshiba Medical Systems (980023700),"40.500,00 €",11-04-2013,27-03-2013,19 dias,"Portugal, Porto, Porto","Artigo 20.º, n.º 1, alínea a) do Código dos Contratos Públicos",,,,,,Não aplicável.,Não aplicável.,
"Aquisição de Solução Armazenamento de Dados para o CHSJ, EPE",Ajuste Direto Regime Geral,Aquisição de bens móveis,"30000000-9, Máquinas, equipamento e material de escritório e de informática, excepto mobiliário e pacotes de programas (software)","Centro Hospitalar de São João, E. P. E. (509821197)",CPCIS (501267255),"72.667,10 €",11-04-2013,19-03-2013,20 dias,"Portugal, Porto, Porto","Artigo 20.º, n.º 1, alínea a) do Código dos Contratos Públicos",,,,,,Não aplicável.,Não aplicável.,
Aquisição de Servidores (Blades) para o CHSJ,Ajuste Direto Regime Geral,Aquisição de bens móveis,"30000000-9, Máquinas, equipamento e material de escritório e de informática, excepto mobiliário e pacotes de programas (software)","Centro Hospitalar de São João, E. P. E. (509821197)",SVDI - Serv Tec Inform Lda. (504308289),"63.393,90 €",11-04-2013,19-03-2013,20 dias,"Portugal, Porto, Porto","Artigo 20.º, n.º 1, alínea a) do Código dos Contratos Públicos",,,,,,Não aplicável.,Não aplicável.,
Aquisição de Ultracongelador Vertical para Urologia,Ajuste Direto Regime Geral,Aquisição de bens móveis,"33000000-0, Equipamento médico, medicamentos e produtos para cuidados pessoais","Centro Hospitalar de São João, E. P. E. (509821197)",Norconcessus (504907808),"7.379,23 €",11-04-2013,26-03-2013,30 dias,"Portugal, Porto, Porto","Artigo 20.º, n.º 1, alínea a) do Código dos Contratos Públicos",,,,,,Não aplicável.,Não aplicável.,
Aquisição de Ultracongelador Vertical para o Lab. Hematologia Clínica,Ajuste Direto Regime Geral,Aquisição de bens móveis,"33000000-0, Equipamento médico, medicamentos e produtos para cuidados pessoais","Centro Hospitalar de São João, E. P. E. (509821197)",Norconcessus (504907808),"5.879,23 €",11-04-2013,26-03-2013,30 dias,"Portugal, Porto, Porto","Artigo 20.º, n.º 1, alínea a) do Código dos Contratos Públicos",,,,,,Não aplicável.,Não aplicável.,
