Objeto do Contrato,Tipo de Procedimento,Tipo(s) de Contrato,CPVs,Entidade(s) Adjudicante(s),Entidade(s) Adjudicatária(s),Preço Contratual,Data de Publicação,Data de Celebração do Contrato,Prazo de Execução,Local de Execução,Fundamentação,Data de Fecho do Contrato,Preço Total Efetivo,Causas das Alterações ao Prazo,Causas das Alterações ao Preço,Estado,N.º registo do Acordo Quadro,Descrição do Acordo Quadro,Procedimento Centralizado
"Fornecimento de 150 ampolas de flumazenilo, sol.inj.0,5mg/5ml.  ",Ajuste Direto Regime Geral,Aquisição de bens móveis,"33000000-0, Equipamento médico, medicamentos e produtos para cuidados pessoais","Instituto Nacional de Emergência Médica, I. P. (501356126)",ACCORD HEALTHCARE (508622263),"0,00 €",08-06-2016,03-06-2016,1 dias,"Portugal, Lisboa, Lisboa","Artigo 26.º, n.º 1, alínea e) do Código dos Contratos Públicos",,,,,,2160544,"AQUISIÇÃO DE FLUMAZENILO, SOL.INJ.0,5MG/5ML",FALSE
Fornecimento de 30 conjuntos para cricotirotomia de emergência – adulto e 25 conjuntos para cricotirotomia de emergência - pediátrico.,Ajuste Direto Regime Geral,Aquisição de bens móveis,"33000000-0, Equipamento médico, medicamentos e produtos para cuidados pessoais","Instituto Nacional de Emergência Médica, I. P. (501356126)","Biosonda, Lda (501463313)","4.185,00 €",08-06-2016,11-05-2016,1 dias,"Portugal, Lisboa, Lisboa","Artigo 20.º, n.º 1, alínea a) do Código dos Contratos Públicos",,,,,,Não aplicável.,Não aplicável.,FALSE
"AQUISIÇÃO DE PARACETAMOL, COMP 500MG, DOPAMINA E METOCLOPRAMIDA, COMP 10MG ",Ajuste Direto Regime Geral,Aquisição de bens móveis,"33000000-0, Equipamento médico, medicamentos e produtos para cuidados pessoais","Instituto Nacional de Emergência Médica, I. P. (501356126)","LABORATÓRIO MEDINFAR, SA (500384045)","0,00 €",08-06-2016,03-06-2016,3 dias,"Portugal, Lisboa, Lisboa","Artigo 26.º, n.º 1, alínea e) do Código dos Contratos Públicos",,,,,,2160449,"AQUISIÇÃO DE PARACETAMOL, COMP 500MG, DOPAMINA E METOCLOPRAMIDA, COMP 10MG",FALSE
"Fornecimento de 50 omeprazol 40mg, pó p/sol. inj. frasco.    ",Ajuste Direto Regime Geral,Aquisição de bens móveis,"33000000-0, Equipamento médico, medicamentos e produtos para cuidados pessoais","Instituto Nacional de Emergência Médica, I. P. (501356126)","D.L.A. Farmacêutica, S.A. (503894427)","0,00 €",08-06-2016,30-05-2016,1 dias,"Portugal, Lisboa, Lisboa","Artigo 26.º, n.º 1, alínea e) do Código dos Contratos Públicos",,,,,,2160405,"AQUISIÇÃO DE OMEPRAZOL, 40MG, PÓ P/SOL.INJ. FR. ",FALSE
