Objeto do Contrato,Tipo de Procedimento,Tipo(s) de Contrato,CPVs,Entidade(s) Adjudicante(s),Entidade(s) Adjudicatária(s),Preço Contratual,Data de Publicação,Data de Celebração do Contrato,Prazo de Execução,Local de Execução,Fundamentação,Data de Fecho do Contrato,Preço Total Efetivo,Causas das Alterações ao Prazo,Causas das Alterações ao Preço,Estado,N.º registo do Acordo Quadro,Descrição do Acordo Quadro,Procedimento Centralizado
"Aquisição de mobiliário administrativo e de escritório, Contrato nº 16/2016 (2015_UMC_MOB - Lote 1)",Ao abrigo de acordo-quadro (art.º 259.º),Aquisição de bens móveis,"39100000-3, Mobiliário","Administração Regional de Saúde do Norte, I. P. (503135593)","Tripolo, Lda. (501264124)","12.402,00 €",19-08-2016,04-02-2016,331 dias,"Portugal, Distrito não determinado, Concelho não determinado",Artigo 259.º do Código dos Contratos Públicos,21-06-2016,"12.402,00 €",,"",,1260651,Acordo quadro de fornecimento de mobiliário,TRUE
Prestação serviços médicos para o CRI Braga - ET Guimarães. Processo nº15003967 - Contrato Anual nº2872015.,Ao abrigo de acordo-quadro (art.º 259.º),Aquisição de serviços,"79625000-1, Serviços de fornecimento de pessoal médico","Administração Regional de Saúde do Norte, I. P. (503135593)","Medipeople - Soluções de Saúde e Educação, Lda  (508543436)","34.642,08 €",19-08-2016,30-01-2014,365 dias,"Portugal, Braga, Guimarães",Artigo 259.º do Código dos Contratos Públicos,31-12-2015,"34.642,08 €",,"",,454020,"CONCURSO PÚBLICO PARA A CELEBRAÇÃO DE CONTRATOS PÚBLICOS DE APROVISIONAMENTO PARA A ÁREA DA SAÚDE, COM VISTA À PRESTAÇÃO DE SERVIÇOS MÉDICOS ÀS INSTITUIÇÕES E SERVIÇOS DO SERVIÇO NACIONAL DE SAÚDE",FALSE
Prestação de serviços médicos para o CRI Bragança. Processo nº15003967 - Contrato Anual PHC nº2862015.,Ao abrigo de acordo-quadro (art.º 259.º),Aquisição de serviços,"79625000-1, Serviços de fornecimento de pessoal médico","Administração Regional de Saúde do Norte, I. P. (503135593)",Randstad Clinical - Cuidados de Saúde Lda (505121247),"44.408,00 €",19-08-2016,30-01-2014,365 dias,"Portugal, Braganca, Bragança",Artigo 259.º do Código dos Contratos Públicos,31-12-2015,"32.232,40 €",,Numero de horas realizadas inferior ao numero de horas contratadas.,,454020,"CONCURSO PÚBLICO PARA A CELEBRAÇÃO DE CONTRATOS PÚBLICOS DE APROVISIONAMENTO PARA A ÁREA DA SAÚDE, COM VISTA À PRESTAÇÃO DE SERVIÇOS MÉDICOS ÀS INSTITUIÇÕES E SERVIÇOS DO SERVIÇO NACIONAL DE SAÚDE",FALSE
Prestação de serviços médicos para o CRI Porto Central - ET S. M. Feira. Processo nº15003967 - Contrato PHC nº2902015,Ao abrigo de acordo-quadro (art.º 259.º),Aquisição de serviços,"79625000-1, Serviços de fornecimento de pessoal médico","Administração Regional de Saúde do Norte, I. P. (503135593)","Helped - Prestação de Serviços de Saúde, Lda (506069010)","33.888,40 €",19-08-2016,27-01-2014,365 dias,"Portugal, Porto, Vila Nova de Gaia",Artigo 259.º do Código dos Contratos Públicos,31-12-2015,"27.706,56 €",,Numero de contratadas inferior ao numero de horas realizadas,,454020,"CONCURSO PÚBLICO PARA A CELEBRAÇÃO DE CONTRATOS PÚBLICOS DE APROVISIONAMENTO PARA A ÁREA DA SAÚDE, COM VISTA À PRESTAÇÃO DE SERVIÇOS MÉDICOS ÀS INSTITUIÇÕES E SERVIÇOS DO SERVIÇO NACIONAL DE SAÚDE",FALSE
Prestação de serviços médicos para o CRI de Vila Real - ET Lamego. Processo nº15003967 - Contrato Anual PHC 2842015.,Ao abrigo de acordo-quadro (art.º 259.º),Aquisição de serviços,"79625000-1, Serviços de fornecimento de pessoal médico","Administração Regional de Saúde do Norte, I. P. (503135593)","Soclafe - Prestação de Serviços de Saúde, Lda (508717566)","26.454,42 €",19-08-2016,24-03-2015,365 dias,"Portugal, Vila Real, Vila Real",Artigo 259.º do Código dos Contratos Públicos,31-12-2015,"26.454,42 €",,"",,454020,"CONCURSO PÚBLICO PARA A CELEBRAÇÃO DE CONTRATOS PÚBLICOS DE APROVISIONAMENTO PARA A ÁREA DA SAÚDE, COM VISTA À PRESTAÇÃO DE SERVIÇOS MÉDICOS ÀS INSTITUIÇÕES E SERVIÇOS DO SERVIÇO NACIONAL DE SAÚDE",FALSE
Aquisição de serviços médicos para o CRI Porto Ocidental e CRI Porto Central. Processo nº15003967- Contrato anual PHC nº4922015.,Ao abrigo de acordo-quadro (art.º 259.º),Aquisição de serviços,"79625000-1, Serviços de fornecimento de pessoal médico","Administração Regional de Saúde do Norte, I. P. (503135593)","Soclafe, Lda (508717566)","49.121,80 €",19-08-2016,19-03-2015,324 dias,"Portugal, Porto, Porto",Artigo 259.º do Código dos Contratos Públicos,31-12-2015,"20.917,25 €",,Numero de horas efetuadas inferiores as previstas.,,454020,"CONCURSO PÚBLICO PARA A CELEBRAÇÃO DE CONTRATOS PÚBLICOS DE APROVISIONAMENTO PARA A ÁREA DA SAÚDE, COM VISTA À PRESTAÇÃO DE SERVIÇOS MÉDICOS ÀS INSTITUIÇÕES E SERVIÇOS DO SERVIÇO NACIONAL DE SAÚDE",FALSE
A.P. 802 APROV - VR 16001009 - Aquisição de 100 kg de Saco plástico transparente 40x25cm,Ajuste Direto Regime Geral,Aquisição de bens móveis,"18930000-7, Sacas e sacos","Administração Regional de Saúde do Norte, I. P. (503135593)","A. J. OLIVEIRA, LDA   (502293748)","188,00 €",12-08-2016,24-06-2016,300 dias,"Portugal, Porto, Maia<BR/>Portugal, Vila Real, Vila Real","Artigo 20.º, n.º 1, alínea a) do Código dos Contratos Públicos",26-10-2016,"188,00 €",,"",,Não aplicável.,Não aplicável.,FALSE
"Aquisição de Bens de Consumo Administrativo, 700.000 unidades de Envelope p/ Liga Portuguesa Contra o Cancro da Mama (RCM) e 700.000 unidades de Folha de Ofício Liga Portuguesa Contra Cancro da mama (RCM)",Ajuste Direto Regime Geral,Aquisição de bens móveis,"30190000-7, Equipamento e material de escritório diverso","Administração Regional de Saúde do Norte, I. P. (503135593)","Citygrafica, Lda.  (510243410)","19.327,00 €",12-08-2016,15-07-2016,300 dias,"Portugal, Porto, Maia<BR/>Portugal, Vila Real, Vila Real","Artigo 20.º, n.º 1, alínea a) do Código dos Contratos Públicos",15-07-2016,"19.327,00 €",,"",,Não aplicável.,Não aplicável.,FALSE
Aquisição de 450.000 unidades de Tríptico p/ Liga Portuguesa Contra o Cancro da mama (RCM),Ajuste Direto Regime Geral,Aquisição de bens móveis,"30190000-7, Equipamento e material de escritório diverso","Administração Regional de Saúde do Norte, I. P. (503135593)","GRAFICA RMS - Raul Manuel de Sousa, Lda    (500675287)","9.000,00 €",12-08-2016,08-06-2016,300 dias,"Portugal, Porto, Maia<BR/>Portugal, Vila Real, Vila Real","Artigo 20.º, n.º 1, alínea a) do Código dos Contratos Públicos",19-07-2016,"9.000,00 €",,"",,Não aplicável.,Não aplicável.,FALSE
"A.P. 1261 APROV - VR 16001533 - Aquisição de 10 resmas de Resma de papel para ECG 183mmx30mt, 25 rolos de Rolo de papel para ECG 6 Cm de largura aprox. (Ref: 1006017), 5 maços de Maço de papel p/ ECG30mx112mm, 15 maços de Maço de papel p/ ECG 10,8X14 cm (4,25""""X5,5"""") Ref: 9100-028-5 e 50 rolos de ROLO PAPEL P/ ECG 6 Cm de largura aprox. (Ref: 1006006)",Ajuste Direto Regime Geral,Aquisição de bens móveis,"30192000-1, Material de escritório","Administração Regional de Saúde do Norte,IP (ARSN) (503135593)","EUGENIO PEREIRA, LIMITADA    (503989525)","304,49 €",12-08-2016,02-08-2016,180 dias,"Portugal, Vila Real, Vila Real<BR/>Portugal, Porto, Maia","Artigo 20.º, n.º 1, alínea a) do Código dos Contratos Públicos",15-09-2016,"304,49 €",,"",,Não aplicável.,Não aplicável.,FALSE
A.P. 776 APROV - VR 16000983 - Aquisição de 6.000 comprimidos de Nitroglicerina 0.5 mg Comp subling,Ajuste Direto Regime Geral,Aquisição de bens móveis,"33600000-6, Produtos farmacêuticos","Administração Regional de Saúde do Norte,IP (ARSN) (503135593)","QUILABAN-QUIM. LAB. ANALITICA,LDA   (500399670)","359,98 €",12-08-2016,04-07-2016,240 dias,"Portugal, Porto, Maia<BR/>Portugal, Vila Real, Vila Real","Artigo 20.º, n.º 1, alínea a) do Código dos Contratos Públicos",18-08-2016,"339,60 €",,Quantidades,,Não aplicável.,Não aplicável.,FALSE
