Objeto do Contrato,Tipo de Procedimento,Tipo(s) de Contrato,CPVs,Entidade(s) Adjudicante(s),Entidade(s) Adjudicatária(s),Preço Contratual,Data de Publicação,Data de Celebração do Contrato,Prazo de Execução,Local de Execução,Fundamentação,Data de Fecho do Contrato,Preço Total Efetivo,Causas das Alterações ao Prazo,Causas das Alterações ao Preço,Estado,N.º registo do Acordo Quadro,Descrição do Acordo Quadro,Procedimento Centralizado
Lote 1 - M37 - Megestrol (160 Mg; Comp.),Ajuste Direto Regime Geral,Aquisição de bens móveis,"33600000-6, Produtos farmacêuticos","Hospital Distrital Figueira da Foz, E.P.E. (506361527)","GENERIS - FARMACÊUTICA, S.A. (508107997)","630,00 €",30-01-2019,16-01-2019,365 dias,"Portugal, Coimbra, Figueira da Foz","Artigo 24.º, n.º 1, alínea e), subalínea iii) do Código dos Contratos Públicos",,,,,,Não aplicável.,Não aplicável.,TRUE
- Lote 1 - V91 - Vinorrelbina (20 Mg; Cáps.); - Lote 2 - V92 - Vinorrelbina (30 Mg; Cáps.) ,Ao abrigo de acordo-quadro (art.º 259.º),Aquisição de bens móveis,"33600000-6, Produtos farmacêuticos","Hospital Distrital Figueira da Foz, E.P.E. (506361527)",PIERRE FABRE MED.PORTUGAL LDA (500230366),"594,48 €",30-01-2019,28-11-2018,365 dias,"Portugal, Coimbra, Figueira da Foz",Artigo 259.º do Código dos Contratos Públicos,,,,,,2545980,CP 2017/61 - Acordo quadro para fornecimento de Medicamentos Diversos   às Instituições e Serviços do Serviço Nacional de Saúde,TRUE
Viatura para Projeto PIIC - Hospitalização Domiciliária,Consulta Prévia,Aquisição de bens móveis,"34100000-8, Veículos a motor","Hospital Distrital Figueira da Foz, E.P.E. (506361527)","Ferreira Morais & Morais, lda (500048029)","26.016,26 €",28-01-2019,21-12-2018,30 dias,"Portugal, Coimbra, Figueira da Foz<BR/>Portugal","Artigo 20.º, n.º 1, alínea c) do Código dos Contratos Públicos",,,,,,Não aplicável.,Não aplicável.,FALSE
Climatização e Renovação de Ar para novo Ginásio,Consulta Prévia,Aquisição de bens móveis,"42512000-8, Instalações de ar condicionado","Hospital Distrital da Figueira da Foz, E. P. E. (506361527)","FORTCLIMA-INSTALAÇÕES MECÂNICAS, LDA (503994901)","16.747,46 €",28-01-2019,26-12-2018,30 dias,"Portugal, Coimbra, Figueira da Foz","Artigo 20.º, n.º 1, alínea c) do Código dos Contratos Públicos",,,,,,Não aplicável.,Não aplicável.,FALSE
Substituição de Rede de Vedação do perímetro hospitalar,Consulta Prévia,Aquisição de bens móveis,"44313000-7, Redes metálicas","Hospital Distrital Figueira da Foz, E.P.E. (506361527)"," TORRICENTRO II - Construções e Obras Públicas, S.A (507335236)","9.649,48 €",24-01-2019,02-01-2019,30 dias,"Portugal<BR/>Portugal, Coimbra, Figueira da Foz","Artigo 20.º, n.º 1, alínea c) do Código dos Contratos Públicos",,,,,,Não aplicável.,Não aplicável.,FALSE
Lote 6 - Z5 - Zidovudina 1% (50 Mg<> 5 Ml) - Frs,Ao abrigo de acordo-quadro (art.º 259.º),Aquisição de bens móveis,"33600000-6, Produtos farmacêuticos","Hospital Distrital Figueira da Foz, E.P.E. (506361527)",VIIVHIV HEALTHCARE UNIPESSOAL LDA (509117961),"9,00 €",23-01-2019,10-12-2018,365 dias,"Portugal, Coimbra, Figueira da Foz",Artigo 259.º do Código dos Contratos Públicos,,,,,,2183729,Medicamentos antirretrovíricos para o tratamento da infeção por VIH,TRUE
Lote 4 - D270 - Desflurano (240 Ml; Frs),Ao abrigo de acordo-quadro (art.º 259.º),Aquisição de bens móveis,"33600000-6, Produtos farmacêuticos","Hospital Distrital Figueira da Foz, E.P.E. (506361527)","BAXTER MEDICO FARMACÊUTICA,LDA. (503347345)","11.082,72 €",23-01-2019,21-12-2018,365 dias,"Portugal, Coimbra, Figueira da Foz",Artigo 259.º do Código dos Contratos Públicos,,,,,,2969238,"CP 2017/6 - Acordo Quadro para fornecimento de Medicamentos do Foro Oncológico e Imunomoduladores, às Instituições e Serviços do Serviço Nacional de Saúde",TRUE
Lote 2 - M176 - Mitomicina (40 Mg; Pó p/ Sol. Inj.; Frs),Ao abrigo de acordo-quadro (art.º 259.º),Aquisição de bens móveis,"33600000-6, Produtos farmacêuticos","Hospital Distrital Figueira da Foz, E.P.E. (506361527)","FERRER PORTUGAL, S.A. (500069190)","1.680,80 €",22-01-2019,07-12-2018,365 dias,"Portugal, Coimbra, Figueira da Foz",Artigo 259.º do Código dos Contratos Públicos,,,,,,2545980,CP 2017/61 - Acordo quadro para fornecimento de Medicamentos Diversos   às Instituições e Serviços do Serviço Nacional de Saúde,TRUE
