Objeto do Contrato,Tipo de Procedimento,Tipo(s) de Contrato,CPVs,Entidade(s) Adjudicante(s),Entidade(s) Adjudicatária(s),Preço Contratual,Data de Publicação,Data de Celebração do Contrato,Prazo de Execução,Local de Execução,Fundamentação,Data de Fecho do Contrato,Preço Total Efetivo,Causas das Alterações ao Prazo,Causas das Alterações ao Preço,Estado,N.º registo do Acordo Quadro,Descrição do Acordo Quadro,Procedimento Centralizado
MEDICAMENTOS EXCLUSIVOS BAYER,Ajuste Direto Regime Geral,Aquisição de bens móveis,"33690000-3, Medicamentos vários","Centro Hospitalar do Baixo Vouga, E. P. E (CHBV, E. P. E.) (510123210)","BAYER PORTUGAL, S.A. (500043256)","34.384,32 €",30-09-2015,23-09-2015,1095 dias,"Portugal, Aveiro","Artigo 24.º, n.º 1, alínea e) do Código dos Contratos Públicos",,,,,,Não aplicável.,Não aplicável.,FALSE
MEDICAMENTOS ANTIRRETROVIRAIS,Ajuste Direto Regime Geral,Aquisição de bens móveis,"33651000-8, Anti-infecciosos gerais de uso sistémico","Centro Hospitalar do Baixo Vouga, E. P. E (CHBV, E. P. E.) (510123210)","TECNIMED - SOCIEDADE TECNICO MEDICINAL, S.A. (500626413)","2.109,60 €",29-09-2015,11-08-2015,1095 dias,"Portugal, Aveiro","Artigo 20.º, n.º 1, alínea a) do Código dos Contratos Públicos",,,,,,Não aplicável.,Não aplicável.,FALSE
MEDICAMENTOS ANTIRRETROVIRAIS,Ajuste Direto Regime Geral,Aquisição de bens móveis,"33651000-8, Anti-infecciosos gerais de uso sistémico","Centro Hospitalar do Baixo Vouga, E. P. E (CHBV, E. P. E.) (510123210)","TEVA PHARMA-PROD.FARMACEUT,LDA (507045491)","39.798,00 €",29-09-2015,11-08-2015,1095 dias,"Portugal, Aveiro","Artigo 20.º, n.º 1, alínea a) do Código dos Contratos Públicos",,,,,,Não aplicável.,Não aplicável.,FALSE
"MED.SN CEREBROS; EXCETO ANES,R.MUSC,ANAL,ANTIP, E ANTI-PSI (CP 2014/2-SPMS)",Ao abrigo de acordo-quadro (art.º 259.º),Aquisição de bens móveis,"33600000-6, Produtos farmacêuticos","Centro Hospitalar do Baixo Vouga, E. P. E (CHBV, E. P. E.) (510123210)","LABORATORIOS PFIZER,LDA (500162166), BIOGEN IDEC PORTUGAL,LDA (506415740), LABORATÓRIOS NORMON, SA (505654156), ACCORD HEALTHCARE UNIPESSOAL, LDA (508622263), OVERPHARMA - PROD. MED. FARMACÊUTICOS, LDA (505792362), TECNIFAR (500280436), NOVARTIS FARMA-PROD.FARMAC,LDA (500063524), AUROVITAS UNIPESSOAL, LDA (513053239), HIKMA FARMACEUTICA PORT,LDA (502266791), MEDA PHARMA-PROD.FARMACET,S.A (500082090), SANOFI - PRODUTOS FARMACÊUTICOS, LDA (500134960), MERCK SHARP & DOHME, LDA (500191360), RATIOPHARM,LDA (502414910), GENERIS FARMACEUTICA, SA (508107997), LABESFAL-LAB.ALMIRO,SA (501169580)","45.925,02 €",25-09-2015,20-08-2015,365 dias,"Portugal, Aveiro",Artigo 259.º do Código dos Contratos Públicos,,,,,,1179911,"CONCURSO PÚBLICO PARA A CELEBRAÇÃO DE CONTRATOS PÚBLICOS DE APROVISIONAMENTO PARA A ÁREA DA SAÚDE, MEDICAMENTOS DO SISTEMA NERVOSO CEREBROSPINAL, EXCETO: ANESTÉSICOS, RELAXANTES MUSCULARES, ANALGÉSICOS, ANTIPIRÉTICOS, ANTIDEPRESSORES E ANTIPSICÓTICOS, ÀS INSTITUIÇÕES E SERVIÇOS DO SERVIÇO NACIONAL DE SAÚDE",FALSE
DARUNAVIR 800 MG COMP.,Ajuste Direto Regime Geral,Aquisição de bens móveis,"33651400-2, Antivíricos de uso sistémico","Centro Hospitalar do Baixo Vouga, E.P.E. (510123210)","JANSSEN-CILAG FARMACÊUTICA, LDA (500189412)","165.106,62 €",24-09-2015,20-10-2014,837 dias,"Portugal, Aveiro","Artigo 24.º, n.º 1, alínea e) do Código dos Contratos Públicos",,,,,,Não aplicável.,Não aplicável.,FALSE
LENALIDOMIDA 15 MG CAPS,Ajuste Direto Regime Geral,Aquisição de bens móveis,"33652000-5, Antineoplásicos e imunomoduladores","Centro Hospitalar do Baixo Vouga, E.P.E. (510123210)","CELGENE, SOCIEDADE UNIPESSOAL, LDA (507791690)","19.698,68 €",23-09-2015,17-09-2014,835 dias,"Portugal, Aveiro","Artigo 24.º, n.º 1, alínea e) do Código dos Contratos Públicos",,,,,,Não aplicável.,Não aplicável.,FALSE
