Objeto do Contrato,Tipo de Procedimento,Tipo(s) de Contrato,CPVs,Entidade(s) Adjudicante(s),Entidade(s) Adjudicatária(s),Preço Contratual,Data de Publicação,Data de Celebração do Contrato,Prazo de Execução,Local de Execução,Fundamentação,Data de Fecho do Contrato,Preço Total Efetivo,Causas das Alterações ao Prazo,Causas das Alterações ao Preço,Estado,N.º registo do Acordo Quadro,Descrição do Acordo Quadro,Procedimento Centralizado
Proc. 68/2579/2017-Serviços Médicos Urgência Cirurgia Geral,Ajuste Direto Regime Geral,Aquisição de serviços,"85121300-6, Serviços de cirurgia especializada","Centro Hospitalar Universitário do Algarve, E. P. E. (510745997)","Oxygenflavour-Serviços Médicos, Lda (509497071)","46.800,00 €",21-12-2017,23-08-2017,180 dias,"Portugal, Faro, Faro","Artigo 24.º, n.º 1, alínea e) do Código dos Contratos Públicos",31-12-2017,"35.280,00 €",,"O valor inicial do Contrato teve por base as necessidades estimadas para o período de 1 de julho de 2017 a 31 dezembro de 2017, o valor final reflete as necessidades efectivas.",,Não aplicável.,Não aplicável.,FALSE
Aquisição de Tubos de Colheita de Sangue,Ao abrigo de acordo-quadro (art.º 259.º),Aquisição de bens móveis,"33140000-3, Material médico de consumo","Centro Hospitalar Universitário do Algarve, E. P. E. (510745997)","VACUETTE PORTUGAL, S.A. (505348470)","58,50 €",21-12-2017,07-12-2017,24 dias,"Portugal, Faro, Lagos<BR/>Portugal, Faro, Faro<BR/>Portugal, Faro, Portimão",Artigo 259.º do Código dos Contratos Públicos,"","",,"",,1350003,Acordo Quadro para fornecimento de sistemas fechados e material diverso de recolha de sangue às instituições do SNS,FALSE
41.3818.2017 medicamento naproxeno 500mg,Ao abrigo de acordo-quadro (art.º 259.º),Aquisição de bens móveis,"33690000-3, Medicamentos vários","Centro Hospitalar Universitário do Algarve, E. P. E. (510745997)",generis farmaceutica SA (508107997),"88,32 €",21-12-2017,06-11-2017,55 dias,"Portugal, Faro, Faro",Artigo 259.º do Código dos Contratos Públicos,"","",,"",,1410779,CP 2015/47 - Acordo quadro para fornecimento de medicamentos do aparelho locomotor às instituições e serviços do serviço nacional de saúde,FALSE
41.3935.2017 Medicamento epoietina beta,Ao abrigo de acordo-quadro (art.º 259.º),Aquisição de bens móveis,"33690000-3, Medicamentos vários","Centro Hospitalar Universitário do Algarve, E. P. E. (510745997)",ROCHE FARMACEUTICA QUIMICA LDA (500233810),"136.516,56 €",21-12-2017,12-10-2017,79 dias,"Portugal, Faro, Faro",Artigo 259.º do Código dos Contratos Públicos,"","",,"",,2749216,CP 2017/11 - Acordo quadro para fornecimento de Medicamentos Estimulantes da eritropoiese às Instituições e Serviços do Serviço Nacional de Saúde,FALSE
41.3937.2017 medicamento carvao activado 10cmx10cm,Ao abrigo de acordo-quadro (art.º 259.º),Aquisição de bens móveis,"33690000-3, Medicamentos vários","Centro Hospitalar Universitário do Algarve, E. P. E. (510745997)","OVERPHARMA,LDA. (505792362)","240,00 €",21-12-2017,29-11-2017,32 dias,"Portugal, Faro, Faro",Artigo 259.º do Código dos Contratos Públicos,"","",,"",,1315192,Acordo Quadro para fornecimento de material de penso de efeito terapêutico às Instituições e Serviços do Serviço Nacional de Saúde,FALSE
41.3944.2017 Medicamento losartan 100mg,Ao abrigo de acordo-quadro (art.º 259.º),Aquisição de bens móveis,"33690000-3, Medicamentos vários","Centro Hospitalar Universitário do Algarve, E. P. E. (510745997)",generis farmaceutica SA (508107997),"72,80 €",21-12-2017,17-11-2017,44 dias,"Portugal, Faro, Faro",Artigo 259.º do Código dos Contratos Públicos,"","",,"",,2335591,CP 2016/01 - Acordo Quadro para fornecimento de Medicamentos do Aparelho Cardiovascular   às Instituições e Serviços do Serviço Nacional de Saúde,FALSE
41.3951.2017 medicamento quetiapina 100mg,Ao abrigo de acordo-quadro (art.º 259.º),Aquisição de bens móveis,"33690000-3, Medicamentos vários","Centro Hospitalar Universitário do Algarve, E. P. E. (510745997)",AUROVITAS UNIPESSOAL LDA (513053239),"138,60 €",21-12-2017,17-11-2017,44 dias,"Portugal, Faro, Faro",Artigo 259.º do Código dos Contratos Públicos,"","",,"",,2356543,CP 2016/19 - Medicamentos Antipsicóticos,FALSE
41.3982.2017 Medicamento bendamustina 100mg,Ao abrigo de acordo-quadro (art.º 259.º),Aquisição de bens móveis,"33690000-3, Medicamentos vários","Centro Hospitalar Universitário do Algarve, E. P. E. (510745997)",ACCORD HEALTHCARE (508622263),"1.872,50 €",21-12-2017,25-10-2017,67 dias,"Portugal, Faro, Faro",Artigo 259.º do Código dos Contratos Públicos,"","",,"",,1771819,CP 2015/6 - Acordo quadro para o fornecimento de Medicamentos do Foro Oncológico,FALSE
41.4042.2017 Medicamento zidovudina 250mg,Ao abrigo de acordo-quadro (art.º 259.º),Aquisição de bens móveis,"33690000-3, Medicamentos vários","Centro Hospitalar Universitário do Algarve, E. P. E. (510745997)","VIIVHIV HEALTHCARE, UNIPESSOAL. LDA (509117961)","204,00 €",21-12-2017,17-11-2017,44 dias,"Portugal, Faro, Faro",Artigo 259.º do Código dos Contratos Públicos,"","",,"",,2183729,Medicamentos antirretrovíricos para o tratamento da infeção por VIH,FALSE
41.4052.2017 Medicamento docetaxel 80mg/4ml,Ao abrigo de acordo-quadro (art.º 259.º),Aquisição de bens móveis,"33690000-3, Medicamentos vários","Centro Hospitalar Universitário do Algarve, E. P. E. (510745997)",AUROVITAS UNIPESSOAL LDA (513053239),"3.220,00 €",21-12-2017,20-10-2017,72 dias,"Portugal, Faro, Faro",Artigo 259.º do Código dos Contratos Públicos,"","",,"",,1771819,CP 2015/6 - Acordo quadro para o fornecimento de Medicamentos do Foro Oncológico,FALSE
41.4054.2017 Medicamento Bicalutamida 50mg,Ao abrigo de acordo-quadro (art.º 259.º),Aquisição de bens móveis,"33690000-3, Medicamentos vários","Centro Hospitalar Universitário do Algarve, E. P. E. (510745997)","TEVA PHARMA-PRODUTOS FARMACEUTICOS, LDA (507045491)","1.370,73 €",21-12-2017,25-10-2017,67 dias,"Portugal, Faro, Faro",Artigo 259.º do Código dos Contratos Públicos,"","",,"",,1771819,CP 2015/6 - Acordo quadro para o fornecimento de Medicamentos do Foro Oncológico,FALSE
41.4442.2017 medicamento acido zoledronico 5mg/100ml,Ao abrigo de acordo-quadro (art.º 259.º),Aquisição de bens móveis,"33690000-3, Medicamentos vários","Centro Hospitalar Universitário do Algarve, E. P. E. (510745997)",SANDOZ FARMACEUTICA LDA   (506985261),"752,10 €",20-12-2017,13-12-2017,19 dias,"Portugal, Faro, Faro",Artigo 259.º do Código dos Contratos Públicos,"","",,"",,1394106,CP 2015/64 - Medicamentos Diversos,FALSE
41.4287.2017 medicamento fluorouracilo 50mg/100ml,Ao abrigo de acordo-quadro (art.º 259.º),Aquisição de bens móveis,"33690000-3, Medicamentos vários","Centro Hospitalar Universitário do Algarve, E. P. E. (510745997)","TEVA PHARMA-PRODUTOS FARMACEUTICOS, LDA (507045491)","5.310,50 €",20-12-2017,13-11-2017,48 dias,"Portugal, Faro, Faro",Artigo 259.º do Código dos Contratos Públicos,"","",,"",,1771819,CP 2015/6 - Acordo quadro para o fornecimento de Medicamentos do Foro Oncológico,FALSE
41.4181.2017 medicamento risperidona 2mg,Ao abrigo de acordo-quadro (art.º 259.º),Aquisição de bens móveis,"33690000-3, Medicamentos vários","Centro Hospitalar Universitário do Algarve, E. P. E. (510745997)",generis farmaceutica SA (508107997),"51,00 €",20-12-2017,17-11-2017,44 dias,"Portugal, Faro, Faro",Artigo 259.º do Código dos Contratos Públicos,"","",,"",,2356543,CP 2016/19 - Medicamentos Antipsicóticos,FALSE
41.4178.2017 Medicamento escitalopram 10 mg,Ao abrigo de acordo-quadro (art.º 259.º),Aquisição de bens móveis,"33690000-3, Medicamentos vários","Centro Hospitalar Universitário do Algarve, E. P. E. (510745997)",AUROVITAS UNIPESSOAL LDA (513053239),"55,22 €",20-12-2017,29-11-2017,32 dias,"Portugal, Faro, Faro",Artigo 259.º do Código dos Contratos Públicos,"","",,"",,1974985,"Medicamentos Analgésicos, Antipiréticos e Antidepressivos",FALSE
41.4159.2017 medicamento vinorrelbina 10mg,Ao abrigo de acordo-quadro (art.º 259.º),Aquisição de bens móveis,"33690000-3, Medicamentos vários","Centro Hospitalar Universitário do Algarve, E. P. E. (510745997)",MEDAC (980369959),"343,75 €",20-12-2017,29-11-2017,32 dias,"Portugal, Faro, Faro",Artigo 259.º do Código dos Contratos Públicos,"","",,"",,1771819,CP 2015/6 - Acordo quadro para o fornecimento de Medicamentos do Foro Oncológico,FALSE
41.4158.2017 Medicamento levetiracetam 100 mg,Ao abrigo de acordo-quadro (art.º 259.º),Aquisição de bens móveis,"33690000-3, Medicamentos vários","Centro Hospitalar Universitário do Algarve, E. P. E. (510745997)",AUROVITAS UNIPESSOAL LDA (513053239),"222,32 €",20-12-2017,29-11-2017,32 dias,"Portugal, Faro, Faro",Artigo 259.º do Código dos Contratos Públicos,"","",,"",,2528670,"CP 2017/2 - Acordo Quadro para fornecimento de Medicamentos do Sistema Nervoso Cerebrospinal, exceto: anestésicos, relaxantes musculares, analgésicos, antipiréticos, antidepressivos e antipsicóticos  às Instituições e Serviços do Serviço Nacional de Saúde",FALSE
41.4116.2017 medicamento atorvastatina 20mg,Ao abrigo de acordo-quadro (art.º 259.º),Aquisição de bens móveis,"33690000-3, Medicamentos vários","Centro Hospitalar Universitário do Algarve, E. P. E. (510745997)","AUROBINDO PHARMA PORTUGAL, (UNIP.) LDA (508527465)","114,66 €",20-12-2017,29-11-2017,32 dias,"Portugal, Faro, Faro",Artigo 259.º do Código dos Contratos Públicos,"","",,"",,2335591,CP 2016/01 - Acordo Quadro para fornecimento de Medicamentos do Aparelho Cardiovascular   às Instituições e Serviços do Serviço Nacional de Saúde,FALSE
41.4115.2017 Cloreto de sódio 20%,Ao abrigo de acordo-quadro (art.º 259.º),Aquisição de bens móveis,"33600000-6, Produtos farmacêuticos","Centro Hospitalar Universitário do Algarve, E. P. E. (510745997)","Labesfal - Laboratórios Almiro, SA (501169580)","363,20 €",20-12-2017,14-11-2017,47 dias,"Portugal, Faro, Faro",Artigo 259.º do Código dos Contratos Públicos,"","",,"",,2528675,CP 2017/3 - Acordo Quadro para fornecimento de corretivos da volémia e outras soluções estéreis,FALSE
41.4114.2017 medicamento topotecano 4 mg,Ao abrigo de acordo-quadro (art.º 259.º),Aquisição de bens móveis,"33690000-3, Medicamentos vários","Centro Hospitalar Universitário do Algarve, E. P. E. (510745997)",AUROVITAS UNIPESSOAL LDA (513053239),"614,70 €",20-12-2017,28-11-2017,33 dias,"Portugal, Faro, Faro",Artigo 259.º do Código dos Contratos Públicos,"","",,"",,1771819,CP 2015/6 - Acordo quadro para o fornecimento de Medicamentos do Foro Oncológico,FALSE
41.3663.2017 Medicamento temozolomida 5 mg,Ao abrigo de acordo-quadro (art.º 259.º),Aquisição de bens móveis,"33690000-3, Medicamentos vários","Centro Hospitalar Universitário do Algarve, E. P. E. (510745997)",ACCORD HEALTHCARE (508622263),"82,00 €",20-12-2017,12-10-2017,49 dias,"Portugal, Faro, Faro",Artigo 259.º do Código dos Contratos Públicos,"","",,"",,1771819,CP 2015/6 - Acordo quadro para o fornecimento de Medicamentos do Foro Oncológico,FALSE
41.3666.2017 medicamentos Bicarbonato de sódio 84mg,Ao abrigo de acordo-quadro (art.º 259.º),Aquisição de bens móveis,"33690000-3, Medicamentos vários","Centro Hospitalar Universitário do Algarve, E. P. E. (510745997)","LABESFAL-LAB. ALMIRO, SA. (501169580)","144,60 €",20-12-2017,26-09-2017,66 dias,"Portugal, Faro, Faro",Artigo 259.º do Código dos Contratos Públicos,"","",,"",,2528675,CP 2017/3 - Acordo Quadro para fornecimento de corretivos da volémia e outras soluções estéreis,FALSE
41.3667.2017 Medicamentos Ropivacaina 75mg/10ml,Ao abrigo de acordo-quadro (art.º 259.º),Aquisição de bens móveis,"33690000-3, Medicamentos vários","Centro Hospitalar Universitário do Algarve, E. P. E. (510745997)","FRESENIUS KABI PHARMA PORTUGAL, LDA (504293753)","1.915,50 €",19-12-2017,26-09-2017,96 dias,"Portugal, Faro, Faro",Artigo 259.º do Código dos Contratos Públicos,"","",,"",,2211341,Medicamentos anestésicos e relaxantes musculares,FALSE
41.3671.2017 Medicamentos Anastrozol 1 mg,Ao abrigo de acordo-quadro (art.º 259.º),Aquisição de bens móveis,"33690000-3, Medicamentos vários","Centro Hospitalar Universitário do Algarve, E. P. E. (510745997)",ACCORD HEALTHCARE (508622263),"2.207,78 €",19-12-2017,13-10-2017,79 dias,"Portugal, Faro, Faro",Artigo 259.º do Código dos Contratos Públicos,"","",,"",,1771819,CP 2015/6 - Acordo quadro para o fornecimento de Medicamentos do Foro Oncológico,FALSE
41.3758.17 medicamento Clozapina 25mg,Ao abrigo de acordo-quadro (art.º 259.º),Aquisição de bens móveis,"33690000-3, Medicamentos vários","Centro Hospitalar Universitário do Algarve, E. P. E. (510745997)",generis farmaceutica SA (508107997),"93,60 €",19-12-2017,06-11-2017,55 dias,"Portugal, Faro, Faro",Artigo 259.º do Código dos Contratos Públicos,"","",,"",,2356543,CP 2016/19 - Medicamentos Antipsicóticos,FALSE
41.3759.2017 Medicamento Fenitoina 250mg/5ml,Ao abrigo de acordo-quadro (art.º 259.º),Aquisição de bens móveis,"33690000-3, Medicamentos vários","Centro Hospitalar Universitário do Algarve, E. P. E. (510745997)","GENERIS - FARMACEUTICA, S.A. (508107997), PHARMIS BIOFARMACEUTICA (502595442)","559,20 €",19-12-2017,03-11-2017,58 dias,"Portugal, Faro, Faro",Artigo 259.º do Código dos Contratos Públicos,"","",,"",,2528670,"CP 2017/2 - Acordo Quadro para fornecimento de Medicamentos do Sistema Nervoso Cerebrospinal, exceto: anestésicos, relaxantes musculares, analgésicos, antipiréticos, antidepressivos e antipsicóticos  às Instituições e Serviços do Serviço Nacional de Saúde",FALSE
Aquisição de Agulha Romba,Ao abrigo de acordo-quadro (art.º 259.º),Aquisição de bens móveis,"33140000-3, Material médico de consumo","Centro Hospitalar Universitário do Algarve, E.P.E. (510745997)","B. Braun Medical, Lda. (501506543)","523,20 €",19-12-2017,07-12-2017,24 dias,"Portugal, Faro, Faro<BR/>Portugal, Faro, Portimão<BR/>Portugal, Faro, Lagos",Artigo 259.º do Código dos Contratos Públicos,"","",,"",,1415642,CP 2015/36,FALSE
Aquisição de Cateteres (diálise peritoneal),Ao abrigo de acordo-quadro (art.º 259.º),Aquisição de bens móveis,"33140000-3, Material médico de consumo","Centro Hospitalar Universitário do Algarve, E. P. E. (510745997)","FRESENIUS MEDICAL CARE, S.A.. (503070220)","399,00 €",15-12-2017,28-11-2017,33 dias,"Portugal, Faro, Lagos<BR/>Portugal, Faro, Faro<BR/>Portugal, Faro, Portimão",Artigo 259.º do Código dos Contratos Públicos,"","",,"",,1481309,CP 2015/35 - Acordo quadro para fornecimento de bens e prestação de serviços de Diálise Peritoneal às Instituições e Serviços do Serviço Nacional de Saúde,FALSE
"Aquisição de Ligaduras Elásticas, Crepe",Ao abrigo de acordo-quadro (art.º 259.º),Aquisição de bens móveis,"33141100-1, Pensos; clipes, suturas, ligaduras","Centro Hospitalar Universitário do Algarve, E. P. E. (510745997)","EZEQUIEL PANAO JORGE,LDA (501412727)","108,96 €",15-12-2017,28-11-2017,33 dias,"Portugal, Faro, Portimão<BR/>Portugal, Faro, Lagos<BR/>Portugal, Faro, Faro",Artigo 259.º do Código dos Contratos Públicos,"","",,"",,2378981,Acordo quadro para fornecimento de Ligaduras de Compressão e Dispositivos de Imobilização às Instituições e Serviços do Serviço Nacional de Saúde.,FALSE
41.3589.2017 Medicamento Cefapima 1000mg,Ao abrigo de acordo-quadro (art.º 259.º),Aquisição de bens móveis,"33690000-3, Medicamentos vários","Centro Hospitalar Universitário do Algarve, E. P. E. (510745997)","BRISTOL MYERS SQUIB FARMACEUTICA PORTUGUESA, S.A. (500048193)","938,00 €",15-12-2017,21-09-2017,101 dias,"Portugal, Faro, Faro",Artigo 259.º do Código dos Contratos Públicos,"","",,"",,1326195,ACORDO QUADRO PARA FORNECIMENTO DE MEDICAMENTOS ANTI-INFECIOSOS: EXCETO ANTIVÍRICOS E ANTIFÚNGICOS ÀS INSTITUIÇÕES E SERVIÇOS DO SERVIÇO NACIONAL DE SAÚDE,FALSE
41.3593.2017 Celulose Oxidada 5x35cm,Ao abrigo de acordo-quadro (art.º 259.º),Aquisição de bens móveis,"33600000-6, Produtos farmacêuticos","Centro Hospitalar Universitário do Algarve, E. P. E. (510745997)","BIOTORAX, LDA (508761913)","3.736,00 €",15-12-2017,17-11-2017,75 dias,"Portugal, Faro, Faro",Artigo 259.º do Código dos Contratos Públicos,"","",,"",,1315192,Acordo Quadro para fornecimento de material de penso de efeito terapêutico às Instituições e Serviços do Serviço Nacional de Saúde,FALSE
Aquisição de Material para Esterilização,Ao abrigo de acordo-quadro (art.º 259.º),Aquisição de bens móveis,"33140000-3, Material médico de consumo","Centro Hospitalar Universitário do Algarve, E. P. E. (510745997)","BASTOS VIEGAS,SA (500042772)","657,00 €",15-12-2017,05-12-2017,26 dias,"Portugal, Faro, Portimão<BR/>Portugal, Faro, Faro<BR/>Portugal, Faro, Lagos",Artigo 259.º do Código dos Contratos Públicos,"","",,"",,1974943,CP 2016/43 - Acordo quadro para fornecimento de Material para Empacotamento em Esterilização às Instituições e Serviços do Serviço Nacional de Saúde.,FALSE
Aquisição de Material para Esterilização,Ao abrigo de acordo-quadro (art.º 259.º),Aquisição de bens móveis,"33140000-3, Material médico de consumo","Centro Hospitalar Universitário do Algarve, E. P. E. (510745997)","PERGUT PORTUGAL,LDA. (501799729)","421,80 €",15-12-2017,05-12-2017,26 dias,"Portugal, Faro, Faro<BR/>Portugal, Faro, Portimão<BR/>Portugal, Faro, Lagos",Artigo 259.º do Código dos Contratos Públicos,"","",,"",,1974943,CP 2016/43 - Acordo quadro para fornecimento de Material para Empacotamento em Esterilização às Instituições e Serviços do Serviço Nacional de Saúde.,FALSE
41.576.2017 Medicamentos Lercanidipina losartan,Ao abrigo de acordo-quadro (art.º 259.º),Aquisição de bens móveis,"33690000-3, Medicamentos vários","Centro Hospitalar Universitário do Algarve, E. P. E. (510745997)","AUROVITAS UNIPESSOAL, LDA         (513053239)","343,06 €",13-12-2017,06-02-2017,328 dias,"Portugal, Faro, Faro",Artigo 259.º do Código dos Contratos Públicos,"","",,"",,2335591,CP 2016/01 - Acordo Quadro para fornecimento de Medicamentos do Aparelho Cardiovascular   às Instituições e Serviços do Serviço Nacional de Saúde,FALSE
41.475.2017 Medicamentos Agua Destilada e cloretos de sodios,Ao abrigo de acordo-quadro (art.º 259.º),Aquisição de bens móveis,"33690000-3, Medicamentos vários","Centro Hospitalar Universitário do Algarve, E. P. E. (510745997)","LABESFAL-LABORATORIOS ALMIRO, SA (501169580)","58.618,20 €",13-12-2017,06-02-2017,328 dias,"Portugal, Faro, Faro",Artigo 259.º do Código dos Contratos Públicos,"","",,"",,2528675,CP 2017/3 - Acordo Quadro para fornecimento de corretivos da volémia e outras soluções estéreis,FALSE
41.470.2017 Nutrição Parenterica,Ao abrigo de acordo-quadro (art.º 259.º),Aquisição de bens móveis,"33600000-6, Produtos farmacêuticos","Centro Hospitalar Universitário do Algarve, E. P. E. (510745997)","FRESENIUS KABI PHARMA PORTUGAL (504293753), Baxter Médico Farmacêutica, Lda. (503347345)","212.040,80 €",13-12-2017,17-02-2017,317 dias,"Portugal, Faro, Faro",Artigo 259.º do Código dos Contratos Públicos,"","",,"",,1377429,Acordo Quadro para fornecimento de medicamentos para Nutrição Parentérica às Instituições e Serviços do Serviço Nacional de Saúde,FALSE
41.143.2017 Medicamentos Hidrocortisona 100mg,Ao abrigo de acordo-quadro (art.º 259.º),Aquisição de bens móveis,"33690000-3, Medicamentos vários","Centro Hospitalar Universitário do Algarve, E.P.E. (510745997)","GENERIS - FARMACEUTICA, S.A. (508107997)","39.600,00 €",12-12-2017,28-12-2016,365 dias,"Portugal, Faro, Faro",Artigo 259.º do Código dos Contratos Públicos,"","",,"",,603979,"CONCURSO PÚBLICO PARA A CELEBRAÇÃO DE CONTRATOS PÚBLICOS DE APROVISIONAMENTO PARA A ÁREA DA SAÚDE, COM VISTA AO FORNECIMENTO DE HORMONAS E OUTROS MEDICAMENTOS USADOS NO TRATAMENTO DAS DOENÇAS ENDÓCRINAS, ÀS INSTITUIÇÕES E SERVIÇOS DO SERVIÇO NACIONAL DE SAÚDE",FALSE
41.144.2017 Medicamentos Hormonas e outros Med. Usados no tratamento de doenças endorcrin,Ao abrigo de acordo-quadro (art.º 259.º),Aquisição de bens móveis,"33690000-3, Medicamentos vários","Centro Hospitalar Universitário do Algarve, E. P. E. (510745997)","GENERIS - FARMACEUTICA, S.A. (508107997), Lilly Portugal - Produtos Farmacêuticos Lda. (500165602), SANDOZ FARMACÊUTICA, LDA.                          (506985261)","502,54 €",12-12-2017,10-01-2017,355 dias,"Portugal, Faro, Faro",Artigo 259.º do Código dos Contratos Públicos,"","",,"",,603979,"CONCURSO PÚBLICO PARA A CELEBRAÇÃO DE CONTRATOS PÚBLICOS DE APROVISIONAMENTO PARA A ÁREA DA SAÚDE, COM VISTA AO FORNECIMENTO DE HORMONAS E OUTROS MEDICAMENTOS USADOS NO TRATAMENTO DAS DOENÇAS ENDÓCRINAS, ÀS INSTITUIÇÕES E SERVIÇOS DO SERVIÇO NACIONAL DE SAÚDE",FALSE
41.138.2017 Medicamentos do Foro Oncologico,Ao abrigo de acordo-quadro (art.º 259.º),Aquisição de bens móveis,"33690000-3, Medicamentos vários","Centro Hospitalar Universitário do Algarve, E. P. E. (510745997)","GENERIS - FARMACEUTICA, S.A. (508107997), Merck Sharp & Dohme, Lda. (500191360), Accord Healthcare Unipessoal, Lda. (508622263), FARMOZ SOCIEDADE TECNICO MEDICINAL, LDA (501505334), Bayer  Portugal, Lda. (500043256)","184.525,14 €",12-12-2017,04-01-2017,361 dias,"Portugal, Faro, Faro",Artigo 259.º do Código dos Contratos Públicos,"","",,"",,1771819,CP 2015/6 - Acordo quadro para o fornecimento de Medicamentos do Foro Oncológico,FALSE
41.136.2017 Medicamentos Correctivos da Volemia e outras Soluções estereis,Ao abrigo de acordo-quadro (art.º 259.º),Aquisição de bens móveis,"33690000-3, Medicamentos vários","Centro Hospitalar Universitário do Algarve, E. P. E. (510745997)","LABESFAL-LABORATORIOS ALMIRO, SA (501169580), B BRAUN MEDICAL, LDA. (501506543), Baxter Médico Farmacêutica, Lda. (503347345)","749.476,57 €",12-12-2017,08-02-2017,326 dias,"Portugal, Faro, Faro",Artigo 259.º do Código dos Contratos Públicos,"","",,"",,2528675,CP 2017/3 - Acordo Quadro para fornecimento de corretivos da volémia e outras soluções estéreis,FALSE
41.137.2017 Medicamentos Anto Infecciosos,Ao abrigo de acordo-quadro (art.º 259.º),Aquisição de bens móveis,"33690000-3, Medicamentos vários","Centro Hospitalar Universitário do Algarve, E. P. E. (510745997)","HIKMA FARMACÊUTICA (PORTUGAL) SA. (502266791), Labesfal (501169580), FARMOZ SOCIEDADE TECNICO MEDICINAL, LDA (501505334), OVERPHARMA - PRODUTOS MEDICOS E FARM. (505792362), BRISTOL - MYERS SQUIBB SA. (500048193), GENERIS - FARMACEUTICA, S.A. (508107997), SANDOZ FARMACÊUTICA, LDA.                          (506985261), LAB. PFIZER, LDA. (500162166), FRESENIUS KABI PHARMA PORTUGAL (504293753), TEVA PHARMA-PRODUTOD FARMACEUTICOS LDA (507045491)","279.444,65 €",12-12-2017,10-01-2017,355 dias,"Portugal, Faro, Faro",Artigo 259.º do Código dos Contratos Públicos,"","",,"",,1326195,ACORDO QUADRO PARA FORNECIMENTO DE MEDICAMENTOS ANTI-INFECIOSOS: EXCETO ANTIVÍRICOS E ANTIFÚNGICOS ÀS INSTITUIÇÕES E SERVIÇOS DO SERVIÇO NACIONAL DE SAÚDE,FALSE
41.135.2017 Medicamentos do Sistema Nervoso Cerebrospinal,Ao abrigo de acordo-quadro (art.º 259.º),Aquisição de bens móveis,"33690000-3, Medicamentos vários","Centro Hospitalar Universitário do Algarve, E. P. E. (510745997)","Sanofi - Produtos Farmacêuticos, Lda. (500134960), Tecnifar - Industria Técnica Farmacêutica S.A (500280436), RATIOPHARM                                         (502414910),  OVERPHARMA - PRODUTOS MEDICOS E FARM.                                 (505792362), PHARMAKERN PORTUGAL, LDA.                          (507002571), Labesfal - Laboratório Almiro, SA. (501169580), GENERIS - FARMACEUTICA, S.A.                       (508107997), Laboratório Medinfar - Prod. Farmacêuticos, SA (500384045), SANDOZ FARMACÊUTICA, LDA.                          (506985261)","9.456,40 €",11-12-2017,17-02-2017,317 dias,"Portugal, Faro, Faro",Artigo 259.º do Código dos Contratos Públicos,"","",,"",,2528670,"CP 2017/2 - Acordo Quadro para fornecimento de Medicamentos do Sistema Nervoso Cerebrospinal, exceto: anestésicos, relaxantes musculares, analgésicos, antipiréticos, antidepressivos e antipsicóticos  às Instituições e Serviços do Serviço Nacional de Saúde",FALSE
41.134.2017 Medicamentos Aparelho  Cardiovascular,Ao abrigo de acordo-quadro (art.º 259.º),Aquisição de bens móveis,"33690000-3, Medicamentos vários","Centro Hospitalar Universitário do Algarve, E. P. E. (510745997)","GENERIS - FARMACEUTICA, S.A.                       (508107997), Sanofi - Produtos Farmacêuticos, Lda. (500134960), Laboratório Medinfar - Prod. Farmacêuticos, SA (500384045), AUROVITAS UNIPESSOAL, LDA                          (513053239), HIKMA FARMACÊUTICA (PORTUGAL) SA.                  (502266791), FARMOZ SOCIEDADE TECNICO MEDICINAL, LDA (501505334), Sidefarma, SA (500717419),  OVERPHARMA - PRODUTOS MEDICOS E FARM.                                 (505792362), SANDOZ FARMACÊUTICA, LDA.                          (506985261), DLA Azevedos, SA (503894427), PHARMAKERN PORTUGAL, LDA.                          (507002571), Labesfal - Laboratório Almiro, SA. (501169580)","71.088,49 €",11-12-2017,17-01-2017,348 dias,"Portugal, Faro, Faro",Artigo 259.º do Código dos Contratos Públicos,"","",,"",,2335591,CP 2016/01 - Acordo Quadro para fornecimento de Medicamentos do Aparelho Cardiovascular   às Instituições e Serviços do Serviço Nacional de Saúde,FALSE
41.121.2017 Dialises Peritoneal,Ao abrigo de acordo-quadro (art.º 259.º),Aquisição de bens móveis,"33690000-3, Medicamentos vários","Centro Hospitalar Universitário do Algarve, E. P. E. (510745997)","FRESENIUSMEDICAL CARE PORTUGAL,SA. (503070220), Baxter Médico Farmacêutica, Lda. (503347345)","794.737,00 €",11-12-2017,17-01-2017,348 dias,"Portugal, Faro, Faro",Artigo 259.º do Código dos Contratos Públicos,"","",,"",,1481309,CP 2015/35 - Acordo quadro para fornecimento de bens e prestação de serviços de Diálise Peritoneal às Instituições e Serviços do Serviço Nacional de Saúde,FALSE
41.127.2017 Medicamentos Hemoderivados,Ao abrigo de acordo-quadro (art.º 259.º),Aquisição de bens móveis,"33690000-3, Medicamentos vários","Centro Hospitalar Universitário do Algarve, E. P. E. (510745997)","KEDRION PORTUGAL                                   (508472830), OCTAPHARMA - PRODUTOS FARMACEUTICOS                (502820780), CSL BEHRING (503047201)","61.712,20 €",11-12-2017,25-01-2017,340 dias,"Portugal, Faro, Faro",Artigo 259.º do Código dos Contratos Públicos,"","",,"",,1423488,ACORDO QUADRO PARA FORNECIMENTO DE DERIVADOS DO PLASMA HUMANO ÀS INSTITUIÇÕES E SERVIÇOS DO SERVIÇO NACIONAL DE SAÚDE CP 2015/9,FALSE
41.56.2017 Material de penso com efeito terapeutico,Ao abrigo de acordo-quadro (art.º 259.º),Aquisição de bens móveis,"33600000-6, Produtos farmacêuticos","Centro Hospitalar Universitário do Algarve, E. P. E. (510745997)","CLINIFAR SA (503281115), SMITH & NEPHEW, LDA. (503552461), Queenlabs - Especialidades Farmacêuticas,Lda (503984485), SPCARE ESP.FARMACEUTICAS,LDA. (508284872),  OVERPHARMA - PRODUTOS MEDICOS E FARM.                                 (505792362), Paul Hartmann, Lda (502271728), BSN MEDICAL S.A (505385058), Quilaban- Química Laboratorial Analítica, SA (500399670), B BRAUN MEDICAL LDA (501506543)","41.774,80 €",11-12-2017,24-04-2017,251 dias,"Portugal, Faro, Faro",Artigo 259.º do Código dos Contratos Públicos,"","",,"",,1315192,Acordo Quadro para fornecimento de material de penso de efeito terapêutico às Instituições e Serviços do Serviço Nacional de Saúde,FALSE
