Objeto do Contrato,Tipo de Procedimento,Tipo(s) de Contrato,CPVs,Entidade(s) Adjudicante(s),Entidade(s) Adjudicatária(s),Preço Contratual,Data de Publicação,Data de Celebração do Contrato,Prazo de Execução,Local de Execução,Fundamentação,Data de Fecho do Contrato,Preço Total Efetivo,Causas das Alterações ao Prazo,Causas das Alterações ao Preço,Estado,N.º registo do Acordo Quadro,Descrição do Acordo Quadro,Procedimento Centralizado
"Grande Reparação de Equipamento de Desinfecção Kaigen Cleantop das Técnicas de Gastro do CHSJ, EPE",Ajuste Direto Regime Geral,Aquisição de bens móveis,"33191000-5, Aparelhos para esterilização, desinfecção e higiene","Centro Hospitalar de São João, E. P. E. (509821197)","Alves & Irmão, Lda. (500310068)","7.744,50 €",24-11-2014,16-10-2014,30 dias,"Portugal, Porto, Porto","Artigo 20.º, n.º 1, alínea a) do Código dos Contratos Públicos",,,,,,Não aplicável.,Não aplicável.,FALSE
"Grande Reparação de Endoscópio GIF-H1890 das Técnicas de Gastro do CHSJ, EPE",Ajuste Direto Regime Geral,Aquisição de bens móveis,"33168000-5, Aparelhos para endoscopia e endocirurgia","Centro Hospitalar de São João, E. P. E. (509821197)",Olympus Iberia S.A.U. Sucursal em Portugal (980474710),"5.583,66 €",24-11-2014,28-10-2014,30 dias,"Portugal, Porto, Porto","Artigo 24.º, n.º 1, alínea e) do Código dos Contratos Públicos",,,,,,Não aplicável.,Não aplicável.,FALSE
"Aquisição de um Processador Ecográfico Olympus para o Serviço de Gastro do CHSJ, EPE",Ajuste Direto Regime Geral,Aquisição de bens móveis,"33112000-8, Equipamento de imagiologia por ecos, ultra-sons e doppler","Centro Hospitalar de São João, E. P. E. (509821197)",Olympus Iberia S.A.U. Sucursal em Portugal (980474710),"39.500,00 €",24-11-2014,10-11-2014,30 dias,"Portugal, Porto, Porto","Artigo 24.º, n.º 1, alínea e) do Código dos Contratos Públicos",,,,,,Não aplicável.,Não aplicável.,FALSE
"Aquisição de 4 Máquinas de Lavar Endoscópios para os Serviços de Gastroenterologia e Pneumologia do CHSJ, EPE",Ajuste Direto Regime Geral,Aquisição de bens móveis,"33191000-5, Aparelhos para esterilização, desinfecção e higiene","Centro Hospitalar de São João, E. P. E. (509821197)",Olympus Iberia S.A.U. Sucursal em Portugal (980474710),"51.750,00 €",24-11-2014,10-11-2014,30 dias,"Portugal, Porto, Porto","Artigo 20.º, n.º 1, alínea a) do Código dos Contratos Públicos",,,,,,Não aplicável.,Não aplicável.,FALSE
"Aquisição de 2 Ecógrafos Portáteis para a Urgência de Ginecologia e Obstetricia do CHSJ, EPE",Ajuste Direto Regime Geral,Aquisição de bens móveis,"33112000-8, Equipamento de imagiologia por ecos, ultra-sons e doppler","Centro Hospitalar São João, EPE (509821197)","Speculum Artigos Médicos, SA (502996323)","35.400,00 €",24-11-2014,29-10-2014,45 dias,"Portugal, Porto, Porto","Artigo 20.º, n.º 1, alínea a) do Código dos Contratos Públicos",,,,,,Não aplicável.,Não aplicável.,FALSE
"Aquisição de Serviços de aluguer de contentores para o CHSJ, EPE",Ajuste Direto Regime Geral,Concessão de obras públicas,"45300000-0, Instalações em edifícios","Centro Hospitalar de São João, E. P. E. (509821197)","Espiralnor - Reabilitação e Construções, Lda. (510891810)","65.774,16 €",24-11-2014,29-10-2014,90 dias,"Portugal, Porto, Porto","Artigo 19.º, alínea a) do Código dos Contratos Públicos",,,,,,Não aplicável.,Não aplicável.,FALSE
