Objeto do Contrato,Tipo de Procedimento,Tipo(s) de Contrato,CPVs,Entidade(s) Adjudicante(s),Entidade(s) Adjudicatária(s),Preço Contratual,Data de Publicação,Data de Celebração do Contrato,Prazo de Execução,Local de Execução,Fundamentação,Data de Fecho do Contrato,Preço Total Efetivo,Causas das Alterações ao Prazo,Causas das Alterações ao Preço,Estado,N.º registo do Acordo Quadro,Descrição do Acordo Quadro,Procedimento Centralizado
Aquisição de serviços de manutenção da autoclave de esterilização instalada no laboratório de saúde pública de évora,Ajuste Direto Regime Geral,Aquisição de serviços,"50421000-2, Serviços de reparação e manutenção de equipamento médico","Administração Regional de Saúde do Alentejo, IP (503148768)","A. J. Costa (Irmãos), Lda. (500002576)","960,00 €",10-01-2011,11-08-2010,0 dias,"Portugal, Évora, Évora","Artigo 20.º, n.º 1, alínea a) do Código dos Contratos Públicos",20-12-2010,"960,00 €",,,,Não aplicável.,Não aplicável.,
Aquisição de serviços de manutenção preventiva e manutenção correctiva das UPSs do ACES Alentejo Litoral,Ajuste Direto Regime Geral,Aquisição de serviços,"50000000-5, Serviços de reparação e manutenção","Administração Regional de Saúde do Alentejo, IP (503148768)","Schneider Electric II - IT Portugal, Lda. (503652369)","2.169,00 €",07-01-2011,26-08-2010,0 dias,"Portugal, Évora, Évora","Artigo 20.º, n.º 1, alínea a) do Código dos Contratos Públicos",31-12-2010,"2.169,00 €",,,,Não aplicável.,Não aplicável.,
Aquisição de serviços de reparação da UPS da UCSP de Alcácer do Sal,Ajuste Direto Regime Geral,Aquisição de serviços,"50000000-5, Serviços de reparação e manutenção","Administração Regional de Saúde do Alentejo, IP (503148768)","Schneider Electric II - IT Portugal, Lda. (503652369)","3.569,85 €",07-01-2011,30-06-2010,0 dias,"Portugal, Évora, Évora","Artigo 20.º, n.º 1, alínea a) do Código dos Contratos Públicos",31-12-2010,"3.569,85 €",,,,Não aplicável.,Não aplicável.,
Aquisição de equipamento de psicologia e avaliação - Intervenção Precoce na infância na região Alentejo,Ajuste Direto Regime Geral,Aquisição de bens móveis,"33156000-8, Material para testes psicológicos","Administração Regional de Saúde do Alentejo, IP (503148768)","CEGOC-TEA, LDA. (500059918)","34.608,65 €",07-01-2011,29-12-2010,0 dias,"Portugal, Évora, Évora","Artigo 20.º, n.º 1, alínea a) do Código dos Contratos Públicos",26-01-2011,"34.608,65 €",,,,Não aplicável.,Não aplicável.,
Aquisição de serviços para divulgação do rastreio do cancro do colo do útero na rede de multibanco,Ajuste Direto Regime Geral,Aquisição de serviços,"79341000-6, Serviços de publicidade","Administração Regional de Saúde do Alentejo, IP (503148768)","MILIDEIAS - Comunicação Visual, Lda. (503702030)","6.468,00 €",07-01-2011,29-12-2010,0 dias,"Portugal, Évora, Évora","Artigo 20.º, n.º 1, alínea a) do Código dos Contratos Públicos",26-01-2011,"6.468,00 €",,,,Não aplicável.,Não aplicável.,
Contrato de assistência técnica ao equipamento de arquivo digital de imagens clínicas,Ajuste Direto Regime Geral,Aquisição de serviços,"50324100-3, Serviços de manutenção de sistemas","Administração Regional de Saúde do Alentejo, IP (503148768)","Philips Portuguesa, S.A. (500216843)","29.904,00 €",07-01-2011,21-12-2010,0 dias,"Portugal, Évora, Évora","Artigo 20.º, n.º 1, alínea a) do Código dos Contratos Públicos",26-01-2011,"29.904,00 €",,,,Não aplicável.,Não aplicável.,
Fornecimento e Montagem de equipamento Administrativo e Mobiliário Hospitalar para a nova Extensão de Saúde de S. Teotónio,Ajuste Direto Regime Geral,Aquisição de bens móveis,"39000000-2, Mobiliário (incl. de escritório), acessórios, aparelhos domésticos (excl. iluminação) e produtos de limpeza","Administração Regional de Saúde do Alentejo, IP (503148768)","Mobieve (503691879), João Severo (175152802), J. Cardoso (160330920), Luís Santos (189372125), NKM (508930138)","12.625,71 €",07-01-2011,27-07-2010,21 dias,"Portugal, Beja, Odemira","Artigo 20.º, n.º 1, alínea a) do Código dos Contratos Públicos",26-09-2010,"12.625,71 €",,,,Não aplicável.,Não aplicável.,
Aquisição de serviços no âmbito da Gestão Integrada de Recursos Humanos,Ajuste Direto Regime Geral,Aquisição de serviços,"79414000-9, Serviços de consultoria em matéria de gestão de recursos humanos","Administração Regional de Saúde do Alentejo, IP (503148768)",Sinase (502851791),"50.753,05 €",07-01-2011,13-07-2009,0 dias,"Portugal, Évora, Évora","Artigo 20.º, n.º 1, alínea a) do Código dos Contratos Públicos","","",,,,Não aplicável.,Não aplicável.,
Realização de curso Gestão e Liderança para Coordenadores das UAG de Agrupamentos de Centros de Saúde,Ajuste Direto Regime Geral,Aquisição de serviços,"80510000-2, Serviços de formação especializada","Administração Regional de Saúde do Alentejo, IP (503148768)","Instituto Nacional de Administração, I.P. (501353542)","4.300,00 €",07-01-2011,24-11-2010,0 dias,"Portugal, Évora, Évora","Artigo 20.º, n.º 1, alínea a) do Código dos Contratos Públicos",31-12-2010,"4.300,00 €",,,,Não aplicável.,Não aplicável.,
Contratação de serviços de concepção e impressão de material promocional Projecto Bioexal - Banco de Tumores y ADN Extremeño - Alentejano,Ajuste Direto Regime Geral,Aquisição de serviços,"79341000-6, Serviços de publicidade","Administração Regional de Saúde do Alentejo, IP (503148768)",TCDesign - Tiago Chinelo (203289579),"2.175,00 €",07-01-2011,27-12-2010,0 dias,"Portugal, Évora, Évora","Artigo 20.º, n.º 1, alínea a) do Código dos Contratos Públicos",26-01-2011,"2.175,00 €",,,,Não aplicável.,Não aplicável.,
Aquisição de material de apoio às acções de formação,Ajuste Direto Regime Geral,Aquisição de bens móveis,"30192000-1, Material de escritório","Administração Regional de Saúde do Alentejo, IP (503148768)",Luís Alberto Rodrigues Marques (142945269),"1.472,50 €",07-01-2011,26-08-2010,0 dias,"Portugal, Évora, Évora","Artigo 20.º, n.º 1, alínea a) do Código dos Contratos Públicos",26-10-2010,"1.472,50 €",,,,Não aplicável.,Não aplicável.,
Serviços de suporte da plataforma de candidaturas de recursos humanos,Ajuste Direto Regime Geral,Aquisição de serviços,"72590000-7, Serviços de informática prestados por profissionais","Administração Regional de Saúde do Alentejo, IP (503148768)","Companhia Portuguesa de Computadores Informática e Sistemas, S.A. (501267255)","3.200,00 €",07-01-2011,08-11-2010,0 dias,"Portugal, Évora, Évora","Artigo 20.º, n.º 1, alínea a) do Código dos Contratos Públicos",26-12-2010,"3.200,00 €",,,,Não aplicável.,Não aplicável.,
Serviços de Formação para o Curso Via Verde SÉPSIS,Ajuste Direto Regime Geral,Aquisição de serviços,"80510000-2, Serviços de formação especializada","Administração Regional de Saúde do Alentejo, IP (503148768)",Grupo de Infecção e Sepsis do Hospital de S.João (505700387),"1.500,00 €",07-01-2011,18-10-2010,0 dias,"Portugal, Évora, Évora","Artigo 20.º, n.º 1, alínea a) do Código dos Contratos Públicos",26-11-2010,"1.500,00 €",,,,Não aplicável.,Não aplicável.,
Aquisição de pens para as acções de formação,Ajuste Direto Regime Geral,Aquisição de bens móveis,"30233100-2, Unidades de memória","Administração Regional de Saúde do Alentejo, IP (503148768)",Luis Alberto Rodrigues Marques (142945269),"1.565,00 €",06-01-2011,18-11-2010,0 dias,"Portugal, Évora, Évora","Artigo 20.º, n.º 1, alínea a) do Código dos Contratos Públicos",26-01-2011,"1.565,00 €",,,,Não aplicável.,Não aplicável.,
