Objeto do Contrato,Tipo de Procedimento,Tipo(s) de Contrato,CPVs,Entidade(s) Adjudicante(s),Entidade(s) Adjudicatária(s),Preço Contratual,Data de Publicação,Data de Celebração do Contrato,Prazo de Execução,Local de Execução,Fundamentação,Data de Fecho do Contrato,Preço Total Efetivo,Causas das Alterações ao Prazo,Causas das Alterações ao Preço,Estado,N.º registo do Acordo Quadro,Descrição do Acordo Quadro,Procedimento Centralizado
Aquisição de Gás Natural,Concurso público,Aquisição de bens móveis,"09123000-7, Gás natural","Unidade Local de Saúde do Alto Minho, EPE (ULSAM) (508786193)","Galp Power, S. A. (504723456)","208.307,89 €",31-03-2016,01-02-2016,335 dias,"Portugal, Viana do Castelo","Artigo 20.º, n.º 1, alínea b) do Código dos Contratos Públicos",,,,,,Não aplicável.,Não aplicável.,TRUE
Aquisição de Mobiliário para a ULSAM,Ajuste Direto Regime Geral,Aquisição de bens móveis,"39100000-3, Mobiliário","Unidade Local de Saúde do Alto Minho, EPE (ULSAM) (508786193)","Fluxoibéria Mobiliário de Escritório, Lda. (505250373)","847,30 €",28-03-2016,17-03-2016,30 dias,"Portugal, Viana do Castelo","Artigo 20.º, n.º 1, alínea a) do Código dos Contratos Públicos",,,,,,Não aplicável.,Não aplicável.,FALSE
Aquisição de Mobiliário para a ULSAM,Ajuste Direto Regime Geral,Aquisição de bens móveis,"39100000-3, Mobiliário","Unidade Local de Saúde do Alto Minho, EPE (ULSAM) (508786193)","Areaoffice Mobiliário e Decoração, Lda. (504304720)","1.509,50 €",28-03-2016,17-03-2016,30 dias,"Portugal, Viana do Castelo","Artigo 20.º, n.º 1, alínea a) do Código dos Contratos Públicos",,,,,,Não aplicável.,Não aplicável.,FALSE
Aquisição de Mobiliário para a ULSAM,Ajuste Direto Regime Geral,Aquisição de bens móveis,"39100000-3, Mobiliário","Unidade Local de Saúde do Alto Minho, EPE (ULSAM) (508786193)","Decitrel Inovação - Tecnologias para Educação, S. A. (507883594)","2.972,10 €",28-03-2016,17-03-2016,30 dias,"Portugal, Viana do Castelo","Artigo 20.º, n.º 1, alínea a) do Código dos Contratos Públicos",,,,,,Não aplicável.,Não aplicável.,FALSE
Aquisição de Mobiliário para a ULSAM,Ajuste Direto Regime Geral,Aquisição de bens móveis,"39100000-3, Mobiliário","Unidade Local de Saúde do Alto Minho, EPE (ULSAM) (508786193)","Jeset Comércio e Distribuição, Lda. (513079777)","8.214,78 €",28-03-2016,17-03-2016,30 dias,"Portugal, Viana do Castelo","Artigo 20.º, n.º 1, alínea a) do Código dos Contratos Públicos",,,,,,Não aplicável.,Não aplicável.,FALSE
Serviços de Manutenção Corretiva e Evolutiva dos Sistemas Clinidata instalados na ULSAM,Ajuste Direto Regime Geral,Aquisição de serviços,"50000000-5, Serviços de reparação e manutenção","Unidade Local de Saúde do Alto Minho, E. P. E. (508786193)","Maxdata Software, S. A. (502250259)","5.944,32 €",21-03-2016,26-02-2016,365 dias,"Portugal, Viana do Castelo","Artigo 24.º, n.º 1, alínea e) do Código dos Contratos Públicos",,,,,,Não aplicável.,Não aplicável.,FALSE
Aquisição de Carros Polivalentes e Armários de Medicação para a ULSAM,Ajuste Direto Regime Geral,Aquisição de bens móveis,"33192300-5, Mobiliário para fins médicos, excepto camas e mesas","Unidade Local de Saúde do Alto Minho, EPE (ULSAM) (508786193)","Bacelar & Irmão, Lda. (500532818)","22.267,50 €",21-03-2016,21-03-2016,30 dias,"Portugal, Viana do Castelo","Artigo 20.º, n.º 1, alínea a) do Código dos Contratos Públicos",,,,,,Não aplicável.,Não aplicável.,FALSE
