Objeto do Contrato,Tipo de Procedimento,Tipo(s) de Contrato,CPVs,Entidade(s) Adjudicante(s),Entidade(s) Adjudicatária(s),Preço Contratual,Data de Publicação,Data de Celebração do Contrato,Prazo de Execução,Local de Execução,Fundamentação,Data de Fecho do Contrato,Preço Total Efetivo,Causas das Alterações ao Prazo,Causas das Alterações ao Preço,Estado,N.º registo do Acordo Quadro,Descrição do Acordo Quadro,Procedimento Centralizado
20170913 - Equipamento Separação Biomuléculas,Ajuste Direto Regime Geral,Aquisição de bens móveis,"38900000-4, Instrumentos diversos de avaliação ou ensaio","Instituto Nacional de Saúde Doutor Ricardo Jorge, I. P. (501427511)","Bioportugal, Lda (502380543)","41.000,00 €",11-01-2018,20-12-2017,10 dias,"Portugal, Lisboa, Lisboa","Artigo 20.º, n.º 1, alínea a) do Código dos Contratos Públicos",28-12-2017,"41.000,00 €","","",,Não aplicável.,Não aplicável.,FALSE
20170876 - Aquisição Câmara Climática e Acessórios,Ajuste Direto Regime Geral,Aquisição de bens móveis,"38900000-4, Instrumentos diversos de avaliação ou ensaio","Instituto Nacional de Saúde Doutor Ricardo Jorge, I. P. (501427511)",ARALAB (501516590),"14.590,00 €",11-01-2018,15-12-2017,15 dias,"Portugal, Lisboa, Lisboa","Artigo 20.º, n.º 1, alínea a) do Código dos Contratos Públicos",22-12-2017,"14.590,00 €","","",,Não aplicável.,Não aplicável.,FALSE
20160951 - Empreitada para substituição da rede exterior de águas,Ajuste Direto Regime Geral,Empreitadas de obras públicas,"45232150-8, Obras relacionadas com condutas para abastecimento de água","Instituto Nacional de Saúde Doutor Ricardo Jorge, I. P. (501427511)","Santocelos-Construções, Lda (509844146)","26.315,60 €",09-01-2018,14-12-2016,150 dias,"Portugal, Lisboa, Lisboa","Artigo 19.º, alínea a) do Código dos Contratos Públicos","","26.315,60 €",.,"",,Não aplicável.,Não aplicável.,FALSE
20160021 - CAT sistemas de purificação de água,Ajuste Direto Regime Geral,Aquisição de serviços,"50000000-5, Serviços de reparação e manutenção","Instituto Nacional de Saúde Doutor Ricardo Jorge, I. P. (501427511)","MILLIPORE, SAS (FFR59434691192)","16.060,93 €",09-01-2018,04-04-2017,150 dias,"Portugal, Lisboa, Lisboa","Artigo 20.º, n.º 1, alínea a) do Código dos Contratos Públicos",11-05-2017,"16.060,93 €","","",,Não aplicável.,Não aplicável.,FALSE
20170963 - Auditoria e certificação energética,Ajuste Direto Regime Geral,Aquisição de serviços,"79212000-3, Serviços de auditoria",Instituto Nacional de Saúde Dr.Ricardo Jorge(INSA) (501427511),"GROWVISION, Consultores - Estudos Energéticos e Ambientais, Unipessoal (513795472)","5.800,00 €",08-01-2018,25-01-2017,150 dias,"Portugal, Lisboa, Lisboa","Artigo 20.º, n.º 1, alínea a) do Código dos Contratos Públicos",20-04-2017,"5.800,00 €","","",,Não aplicável.,Não aplicável.,FALSE
20170681 - Aquisição mobiliário,Ao abrigo de acordo-quadro (art.º 259.º),Aquisição de bens móveis,"39000000-2, Mobiliário (incl. de escritório), acessórios, aparelhos domésticos (excl. iluminação) e produtos de limpeza","Instituto Nacional de Saúde Doutor Ricardo Jorge, I. P. (501427511)","Julcar Mobiliário Integrado, S.A. (501140263)","4.255,00 €",08-01-2018,27-10-2017,90 dias,"Portugal, Lisboa, Lisboa<BR/>Portugal, Porto, Porto",Artigo 259.º do Código dos Contratos Públicos,12-12-2017,"4.255,00 €","","",,1260651,Acordo quadro de fornecimento de mobiliário,FALSE
20170459 - Aquisição de mobiliário,Ajuste Direto Regime Geral,Aquisição de bens móveis,"39130000-2, Mobiliário de escritório","Instituto Nacional de Saúde Doutor Ricardo Jorge, I. P. (501427511)","Nautilus,SA (503653179)","5.310,40 €",08-01-2018,02-08-2017,60 dias,"Portugal, Lisboa, Lisboa",Artigo 258.º do Código dos Contratos Públicos,11-09-2017,"5.310,40 €","","",,Não aplicável.,Não aplicável.,FALSE
20170219 - Reagentes para diagnóstico de mononucleose,Ajuste Direto Regime Geral,Aquisição de bens móveis,"33696500-0, Reagentes de laboratório","Instituto Nacional de Saúde Doutor Ricardo Jorge, I. P. (501427511)",Biomerieux Portugal (501524177),"1.080,00 €",08-01-2018,10-04-2017,30 dias,"Portugal, Lisboa, Lisboa","Artigo 26.º, n.º 1, alínea a) do Código dos Contratos Públicos",24-04-2017,"1.080,00 €","","",,Não aplicável.,Não aplicável.,FALSE
20170281 - Equipamento informático,Ajuste Direto Regime Geral,Aquisição de bens móveis,"30000000-9, Máquinas, equipamento e material de escritório e de informática, excepto mobiliário e pacotes de programas (software)","Instituto Nacional de Saúde Doutor Ricardo Jorge, I. P. (501427511)","Paulo S. Conde, Lda (506324729)","311,60 €",08-01-2018,20-06-2017,150 dias,"Portugal, Lisboa, Lisboa","Artigo 20.º, n.º 1, alínea a) do Código dos Contratos Públicos",03-07-2017,"311,60 €","","",,Não aplicável.,Não aplicável.,FALSE
20170281 - Equipamento informático,Ajuste Direto Regime Geral,Aquisição de bens móveis,"30000000-9, Máquinas, equipamento e material de escritório e de informática, excepto mobiliário e pacotes de programas (software)","Instituto Nacional de Saúde Doutor Ricardo Jorge, I. P. (501427511)","EDNI - Emp. Dist. Materia Informática, Lda (503258121)","198,95 €",08-01-2018,20-06-2017,150 dias,"Portugal, Lisboa, Lisboa","Artigo 20.º, n.º 1, alínea a) do Código dos Contratos Públicos",06-07-2017,"198,95 €","","",,Não aplicável.,Não aplicável.,FALSE
20170281 - Equipamento informático,Ajuste Direto Regime Geral,Aquisição de bens móveis,"30000000-9, Máquinas, equipamento e material de escritório e de informática, excepto mobiliário e pacotes de programas (software)","Instituto Nacional de Saúde Doutor Ricardo Jorge, I. P. (501427511)","Inforlandia, SA (502425296)","430,90 €",08-01-2018,20-06-2017,150 dias,"Portugal, Lisboa, Lisboa","Artigo 20.º, n.º 1, alínea a) do Código dos Contratos Públicos",30-06-2017,"430,90 €","","",,Não aplicável.,Não aplicável.,FALSE
20170281 - Equipamento informático,Ajuste Direto Regime Geral,Aquisição de bens móveis,"30000000-9, Máquinas, equipamento e material de escritório e de informática, excepto mobiliário e pacotes de programas (software)","Instituto Nacional de Saúde Doutor Ricardo Jorge, I. P. (501427511)","Inforlandia, SA (502425296)","2.226,50 €",08-01-2018,20-06-2017,150 dias,"Portugal, Lisboa, Lisboa","Artigo 20.º, n.º 1, alínea a) do Código dos Contratos Públicos",30-06-2017,"1.783,60 €","",no preço contratual estão 2 lotes em vez de 1,,Não aplicável.,Não aplicável.,FALSE
"20170138- Aquisição de animais de laboratório para o INSA, I.P.",Ajuste Direto Regime Geral,Aquisição de bens móveis,"33140000-3, Material médico de consumo","Instituto Nacional de Saúde Doutor Ricardo Jorge, I. P. (501427511)",Charles River Laboratories France (FR29086650041),"7.795,54 €",08-01-2018,10-03-2017,265 dias,"Portugal, Distrito não determinado, Concelho não determinado","Artigo 24.º, n.º 1, alínea e) do Código dos Contratos Públicos",21-11-2017,"7.728,87 €","",arredondamento do valor da fatura,,Não aplicável.,Não aplicável.,FALSE
20170540 - CAT máquinas de lavar material,Ajuste Direto Regime Geral,Aquisição de serviços,"50000000-5, Serviços de reparação e manutenção","Instituto Nacional de Saúde Doutor Ricardo Jorge, I. P. (501427511)","Miele Portuguesa, Lda (500193100)","17.400,00 €",08-01-2018,28-07-2017,903 dias,"Portugal, Porto, Porto<BR/>Portugal, Lisboa, Lisboa","Artigo 20.º, n.º 1, alínea a) do Código dos Contratos Públicos","","","","",,Não aplicável.,Não aplicável.,FALSE
20170286 Licenciamento do sistema de monitorização da Infraestrutura,Ajuste Direto Regime Geral,Aquisição de serviços,"72540000-2, Serviços de actualização informática","Instituto Nacional de Saúde Doutor Ricardo Jorge, I. P. (501427511)","SYSCRUM, LDA (509656510)","2.480,00 €",08-01-2018,30-05-2017,90 dias,"Portugal, Lisboa, Lisboa","Artigo 20.º, n.º 1, alínea a) do Código dos Contratos Públicos",02-06-2017,"2.480,00 €","","",,Não aplicável.,Não aplicável.,FALSE
20170105 - Atualização do Sistema de Gestão de Assiduidade,Ajuste Direto Regime Geral,Aquisição de serviços,"72000000-5, Serviços de TI: consultoria, desenvolvimento de software, Internet e apoio","Instituto Nacional de Saúde Doutor Ricardo Jorge, I. P. (501427511)",Infocontrol (501395784),"3.700,00 €",04-01-2018,26-06-2017,30 dias,"Portugal, Lisboa, Lisboa","Artigo 20.º, n.º 1, alínea a) do Código dos Contratos Públicos",11-10-2017,"3.700,00 €","","",,Não aplicável.,Não aplicável.,FALSE
software para elaboração de inquérito e estatística,Ajuste Direto Regime Geral,Aquisição de serviços,"72000000-5, Serviços de TI: consultoria, desenvolvimento de software, Internet e apoio","Instituto Nacional de Saúde Doutor Ricardo Jorge, I. P. (501427511)",PSE - PRODUTOS E SERVIÇOS DE ESTATISTICA LDA (503323390),"22.912,00 €",04-01-2018,06-03-2017,300 dias,"Portugal, Lisboa, Lisboa","Artigo 24.º, n.º 1, alínea e) do Código dos Contratos Públicos",20-03-2017,"22.912,00 €","","",,Não aplicável.,Não aplicável.,FALSE
20170033 - CAT aos Extintores e Hidrantes,Ajuste Direto Regime Geral,Aquisição de serviços,"50000000-5, Serviços de reparação e manutenção","Instituto Nacional de Saúde Doutor Ricardo Jorge, I. P. (501427511)",INTERFIRE LDA (509033237),"2.993,57 €",04-01-2018,23-05-2017,319 dias,"Portugal, Porto, Porto<BR/>Portugal, Lisboa, Lisboa","Artigo 20.º, n.º 1, alínea a) do Código dos Contratos Públicos",04-12-2017,"2.939,16 €","",não houve fornecimento do operador económico,,Não aplicável.,Não aplicável.,FALSE
Aquisição de material,Ajuste Direto Regime Geral,Aquisição de bens móveis,"33140000-3, Material médico de consumo","Instituto Nacional de Saúde Doutor Ricardo Jorge, I. P. (501427511)","WATERS TECHNOLOGIES LC-MS PORTUGAL, UNIPESSOAL LDA (510433669)","842,00 €",04-01-2018,13-09-2017,15 dias,"Portugal, Lisboa, Lisboa","Artigo 26.º, n.º 1, alínea b) do Código dos Contratos Públicos",20-09-2017,"842,00 €","","",,Não aplicável.,Não aplicável.,FALSE
20170741 - Aquisição urgente de reagentes,Ajuste Direto Regime Geral,Aquisição de bens móveis,"33696500-0, Reagentes de laboratório","Instituto Nacional de Saúde Doutor Ricardo Jorge, I. P. (501427511)","QUILABAN - QUIMICA LABORATORIAL ANALITICA, SA (500399670)","64.121,48 €",04-01-2018,07-11-2017,60 dias,"Portugal, Lisboa, Lisboa","Artigo 26.º, n.º 1, alínea a) do Código dos Contratos Públicos",27-12-2017,"64.121,48 €","","",,Não aplicável.,Não aplicável.,FALSE
20170735 - Aquisição urgente de reagentes para diagnóstico de doenças sexualmente transmitidas,Ajuste Direto Regime Geral,Aquisição de bens móveis,"33696500-0, Reagentes de laboratório",Instituto Nacional de Saúde Dr.Ricardo Jorge(INSA) (501427511),"Roche S. Diagnósticos, Lda (504282921)","29.116,80 €",03-01-2018,08-11-2017,55 dias,"Portugal, Lisboa, Lisboa","Artigo 26.º, n.º 1, alínea a) do Código dos Contratos Públicos",09-11-2017,"29.116,80 €","","",,Não aplicável.,Não aplicável.,FALSE
20170963 - Aluguer de equipamentos audiovisuais,Ajuste Direto Regime Geral,Aquisição de serviços,"51310000-8, Serviços de instalação de equipamento de rádio, televisão, áudio e vídeo","Instituto Nacional de Saúde Doutor Ricardo Jorge, I. P. (501427511)",Halogeneo Equipamento Audiovisual Lda (506907783),"4.270,00 €",02-01-2018,22-12-2017,5 dias,"Portugal, Lisboa, Lisboa","Artigo 20.º, n.º 1, alínea a) do Código dos Contratos Públicos",27-12-2017,"4.270,00 €","","",,Não aplicável.,Não aplicável.,FALSE
20170937 Aquisição de reagentes para projeto de investigação,Ajuste Direto Regime Geral,Aquisição de bens móveis,"33696500-0, Reagentes de laboratório","Instituto Nacional de Saúde Doutor Ricardo Jorge, I. P. (501427511)","ILC - INSTRUMENTOS DE LABORATORIO E CIENTIFICOS, LDA (500948208)","2.180,00 €",02-01-2018,18-12-2017,10 dias,"Portugal, Lisboa, Lisboa","Artigo 20.º, n.º 1, alínea a) do Código dos Contratos Públicos",29-12-2017,"2.180,00 €","","",,Não aplicável.,Não aplicável.,FALSE
20170906 - Aquisição de Reagentes,Ajuste Direto Regime Geral,Aquisição de bens móveis,"33696500-0, Reagentes de laboratório","Instituto Nacional de Saúde Doutor Ricardo Jorge, I. P. (501427511)","DIASORIN IBERIA, S.A SUCURSAL EM PORTUGAL (980379563)","1.937,74 €",02-01-2018,18-12-2017,13 dias,"Portugal, Lisboa, Lisboa","Artigo 24.º, n.º 1, alínea c) do Código dos Contratos Públicos",22-01-2018,"1.940,51 €","",arredondamento do iva,,Não aplicável.,Não aplicável.,FALSE
20170861 - Aquisição de Reagentes,Ajuste Direto Regime Geral,Aquisição de bens móveis,"33696500-0, Reagentes de laboratório","Instituto Nacional de Saúde Doutor Ricardo Jorge, I. P. (501427511)","LABORATORIOS LETI,S.L. UNIPERSONAL (B78152725)","2.956,80 €",02-01-2018,20-12-2017,13 dias,"Portugal, Lisboa, Lisboa","Artigo 20.º, n.º 1, alínea a) do Código dos Contratos Públicos",26-12-2017,"2.956,80 €","","",,Não aplicável.,Não aplicável.,FALSE
20170838 - Aquisição de Contentores de 250 ml em PP,Ajuste Direto Regime Geral,Aquisição de bens móveis,"33140000-3, Material médico de consumo","Instituto Nacional de Saúde Doutor Ricardo Jorge, I. P. (501427511)","SARSTEDT TECNOL.DE LABORATORIO, LDA (503019461)","500,16 €",02-01-2018,22-12-2017,10 dias,"Portugal, Lisboa, Lisboa","Artigo 20.º, n.º 1, alínea a) do Código dos Contratos Públicos",11-02-2018,"500,16 €","","",,Não aplicável.,Não aplicável.,FALSE
Reagentes para doenças infeciosas virais,Ajuste Direto Regime Geral,Aquisição de bens móveis,"33696500-0, Reagentes de laboratório","Instituto Nacional de Saúde Doutor Ricardo Jorge, I. P. (501427511)","Bioportugal, Lda (502380543)","1.550,00 €",02-01-2018,13-12-2017,10 dias,"Portugal, Lisboa, Lisboa","Artigo 26.º, n.º 1, alínea a) do Código dos Contratos Públicos",04-01-2018,"1.550,00 €","","",,Não aplicável.,Não aplicável.,FALSE
20170829 - Aquisição de Reagentes,Ajuste Direto Regime Geral,Aquisição de bens móveis,"33696500-0, Reagentes de laboratório","Instituto Nacional de Saúde Doutor Ricardo Jorge, I. P. (501427511)",Magnamed (503640476),"3.565,00 €",02-01-2018,19-12-2017,12 dias,"Portugal, Lisboa, Lisboa","Artigo 26.º, n.º 1, alínea a) do Código dos Contratos Públicos",28-12-2017,"2.688,00 €","",O valor estimado foi superior às necessidades efectivas tendo em conta o final do ano,,Não aplicável.,Não aplicável.,FALSE
reparação dos elevadores monta-pratos,Ajuste Direto Regime Geral,Aquisição de serviços,"50000000-5, Serviços de reparação e manutenção","Instituto Nacional de Saúde Doutor Ricardo Jorge, I. P. (501427511)"," PINTO & CRUZ, S.A. (500217904)","1.275,00 €",02-01-2018,19-12-2017,20 dias,"Portugal, Porto, Porto","Artigo 20.º, n.º 1, alínea a) do Código dos Contratos Públicos","","","","",,Não aplicável.,Não aplicável.,FALSE
20170727 - Empreitada Trabalhos Diversos - Conselho Nacional de Saúde,Ajuste Direto Regime Geral,Empreitadas de obras públicas,"45454000-4, Obras de reestruturação",Instituto Nacional de Saúde Dr.Ricardo Jorge(INSA) (501427511),Actia Engenharia e Construções Lda (509064930),"9.104,40 €",02-01-2018,17-11-2017,43 dias,"Portugal, Lisboa, Lisboa","Artigo 19.º, alínea a) do Código dos Contratos Públicos","","9.104,40 €",Sem alterações,"",,Não aplicável.,Não aplicável.,FALSE
20170846 - Aquisição de Pontas,Ajuste Direto Regime Geral,Aquisição de bens móveis,"38437110-1, Pontas de pipetas","Instituto Nacional de Saúde Doutor Ricardo Jorge, I. P. (501427511)","SARSTEDT TECNOL.DE LABORATORIO, LDA (503019461)","1.215,60 €",02-01-2018,22-12-2017,3 dias,"Portugal, Lisboa, Lisboa","Artigo 20.º, n.º 1, alínea a) do Código dos Contratos Públicos",31-01-2018,"1.215,60 €","","",,Não aplicável.,Não aplicável.,FALSE
material de laboratório,Ajuste Direto Regime Geral,Aquisição de bens móveis,"33140000-3, Material médico de consumo","Instituto Nacional de Saúde Doutor Ricardo Jorge, I. P. (501427511)","AB SCIEX Portugal – Sociedade Unipessoal, Lda. (510460771)","4.319,62 €",02-01-2018,15-12-2017,30 dias,"Portugal, Porto, Porto","Artigo 24.º, n.º 1, alínea a) do Código dos Contratos Públicos",20-12-2017,"4.319,62 €","","",,Não aplicável.,Não aplicável.,FALSE
Reagentes para diagnóstico de doenças parasitárias e respiratórias,Ajuste Direto Regime Geral,Aquisição de bens móveis,"33696500-0, Reagentes de laboratório","Instituto Nacional de Saúde Doutor Ricardo Jorge, I. P. (501427511)","ISÓTOPOS E DERIVADOS (ISODER), S.A. (502241594)","4.350,00 €",02-01-2018,13-12-2017,20 dias,"Portugal, Lisboa, Lisboa","Artigo 24.º, n.º 1, alínea c) do Código dos Contratos Públicos",21-12-2017,"4.110,00 €","",Devolvidos 96 testes por o prazo de validade ser curto.,,Não aplicável.,Não aplicável.,FALSE
Reagentes para diagnóstico de CMV,Ajuste Direto Regime Geral,Aquisição de bens móveis,"33696500-0, Reagentes de laboratório","Instituto Nacional de Saúde Doutor Ricardo Jorge, I. P. (501427511)","Bioportugal, Lda (502380543)","2.850,00 €",02-01-2018,15-12-2017,20 dias,"Portugal, Lisboa, Lisboa","Artigo 26.º, n.º 1, alínea a) do Código dos Contratos Públicos",21-12-2017,"2.800,00 €","",proposta mais baixa,,Não aplicável.,Não aplicável.,FALSE
"Trabalhos diversos para a exposição """"800 anos de saúde em Portugal",Ajuste Direto Regime Geral,Aquisição de serviços,"92000000-1, Serviços recreativos, culturais e desportivos","Instituto Nacional de Saúde Doutor Ricardo Jorge, I. P. (501427511)","MIHCOM Unipessoal, Lda (508909325)","15.200,00 €",02-01-2018,11-12-2017,20 dias,"Portugal, Lisboa, Lisboa","Artigo 20.º, n.º 1, alínea a) do Código dos Contratos Públicos",19-12-2017,"15.200,00 €","","",,Não aplicável.,Não aplicável.,FALSE
