Objeto do Contrato,Tipo de Procedimento,Tipo(s) de Contrato,CPVs,Entidade(s) Adjudicante(s),Entidade(s) Adjudicatária(s),Preço Contratual,Data de Publicação,Data de Celebração do Contrato,Prazo de Execução,Local de Execução,Fundamentação,Data de Fecho do Contrato,Preço Total Efetivo,Causas das Alterações ao Prazo,Causas das Alterações ao Preço,Estado,N.º registo do Acordo Quadro,Descrição do Acordo Quadro,Procedimento Centralizado
4SEX0025/2013 - CONTRATO E MANUTENÇÃO AOS EQUIPAMENTOS VARIAN DA RADIOTERAPIA,Ajuste Direto Regime Geral,Aquisição de serviços,"50000000-5, Serviços de reparação e manutenção","Centro Hospitalar Barreiro Montijo, E. P. E. (509186998)",VARIAN MEDICAL SYSTEMS IBERICA (980236436),"301.000,00 €",21-05-2013,11-03-2013,360 dias,"Portugal, Setúbal, Barreiro","Artigo 24.º, n.º 1, alínea e) do Código dos Contratos Públicos",31-12-2013,"301.000,00 €",,,,Não aplicável.,Não aplicável.,
"4SEX0005/2013 - LIGAÇÃO P/ SUPORTE DADOS, CIRCUITO E BANDA LARGA, C/ ALUGUER DE EQUIPAMENTO E SERVIÇOS",Ajuste Direto Regime Geral,Aquisição de serviços,"72000000-5, Serviços de TI: consultoria, desenvolvimento de software, Internet e apoio","Centro Hospitalar Barreiro Montijo, E. P. E. (509186998)","PT COMUNICAÇÕES, SA (504615947)","63.713,76 €",21-05-2013,08-02-2013,360 dias,"Portugal, Setúbal, Barreiro","Artigo 24.º, n.º 1, alínea e) do Código dos Contratos Públicos",31-12-2013,"63.713,76 €",,,,Não aplicável.,Não aplicável.,
4SEX0007/2013 - CONTRATO E MANUTENÇÃO DOS ECOGRAFOS TOSHIBA,Ajuste Direto Regime Geral,Aquisição de serviços,"50000000-5, Serviços de reparação e manutenção","Centro Hospitalar Barreiro Montijo, E. P. E. (509186998)","TOSHIBA MEDICAL SYSTEMS, SA (980023700)","15.025,00 €",21-05-2013,29-01-2013,360 dias,"Portugal, Setúbal, Barreiro","Artigo 24.º, n.º 1, alínea e) do Código dos Contratos Públicos",31-12-2013,"15.025,00 €",,,,Não aplicável.,Não aplicável.,
4SEX0003/2013 - CONTRATO E MANUTENÇÃO DOS 3 GERADORES DA CENTRAL TERMICA,Ajuste Direto Regime Geral,Aquisição de serviços,"50000000-5, Serviços de reparação e manutenção","Centro Hospitalar Barreiro Montijo, E. P. E. (509186998)","TERMETAL - INDUSTRIAS TERMICAS E CONSTRUÇÕES METALICAS, LDA (500626758)","11.851,47 €",21-05-2013,29-01-2013,360 dias,"Portugal, Setúbal, Barreiro","Artigo 24.º, n.º 1, alínea e) do Código dos Contratos Públicos",31-12-2013,"11.851,47 €",,,,Não aplicável.,Não aplicável.,
4SEX0006/2013 - CONTRATO E MANUTENÇÃO 5 ECOGRAFOS ACUSON E 1 TAC SOMATON,Ajuste Direto Regime Geral,Aquisição de serviços,"50000000-5, Serviços de reparação e manutenção","Centro Hospitalar Barreiro Montijo, E. P. E. (509186998)",SIEMENS S.A. (500247480),"41.017,95 €",21-05-2013,05-02-2013,360 dias,"Portugal, Setúbal, Barreiro","Artigo 24.º, n.º 1, alínea e) do Código dos Contratos Públicos",31-12-2013,"41.017,95 €",,,,Não aplicável.,Não aplicável.,
4SEX0013/2013 - CONTRATO E MANUTENÇÃO 7 VENTILADORES E 1 PLETISMOGRAFO,Ajuste Direto Regime Geral,Aquisição de serviços,"50000000-5, Serviços de reparação e manutenção","Centro Hospitalar Barreiro Montijo, E. P. E. (509186998)","PULMOCOR - EQUIPAMENTO MÉDICO, SA (501402578)","8.292,00 €",21-05-2013,09-01-2013,360 dias,"Portugal, Setúbal, Barreiro","Artigo 24.º, n.º 1, alínea e) do Código dos Contratos Públicos",31-12-2013,"8.292,00 €",,,,Não aplicável.,Não aplicável.,
"4SEX0010/2013 - CONTRATO E MANUTENÇÃO AO EQUIPAMENTO DE IMAGIOLOGIA PHILIPS, DA RADIOLOGIA",Ajuste Direto Regime Geral,Aquisição de serviços,"50000000-5, Serviços de reparação e manutenção","Centro Hospitalar Barreiro Montijo, E. P. E. (509186998)","PHILIPS PORTUGUESA, SA (500216843)","11.617,56 €",21-05-2013,29-01-2013,360 dias,"Portugal, Setúbal, Barreiro","Artigo 24.º, n.º 1, alínea e) do Código dos Contratos Públicos",31-12-2013,"11.617,56 €",,,,Não aplicável.,Não aplicável.,
4S0014/2013 - CONTRATO E MANUTENÇÃO AOS 6 ELEVADORES DO H. BARREIRO,Ajuste Direto Regime Geral,Aquisição de serviços,"50000000-5, Serviços de reparação e manutenção","Centro Hospitalar Barreiro Montijo, E. P. E. (509186998)","OTIS ELEVADORES, LDA (500069824)","14.325,12 €",21-05-2013,23-01-2013,360 dias,"Portugal, Setúbal, Barreiro","Artigo 24.º, n.º 1, alínea e) do Código dos Contratos Públicos",31-12-2013,"14.325,12 €",,,,Não aplicável.,Não aplicável.,
4SEX0009/2013 - CONTRATO E MANUTENÇÃO DAS MAQUINAS DE LAVAR ENDOSCÓPIOS,Ajuste Direto Regime Geral,Aquisição de serviços,"50000000-5, Serviços de reparação e manutenção","Centro Hospitalar Barreiro Montijo, E. P. E. (509186998)",OLYMPUS IBERIA S.A.U. (980474710),"9.840,00 €",21-05-2013,28-12-2012,360 dias,"Portugal, Setúbal, Barreiro","Artigo 24.º, n.º 1, alínea e) do Código dos Contratos Públicos",31-12-2013,"9.840,00 €",,,,Não aplicável.,Não aplicável.,
