Objeto do Contrato,Tipo de Procedimento,Tipo(s) de Contrato,CPVs,Entidade(s) Adjudicante(s),Entidade(s) Adjudicatária(s),Preço Contratual,Data de Publicação,Data de Celebração do Contrato,Prazo de Execução,Local de Execução,Fundamentação,Data de Fecho do Contrato,Preço Total Efetivo,Causas das Alterações ao Prazo,Causas das Alterações ao Preço,Estado,N.º registo do Acordo Quadro,Descrição do Acordo Quadro,Procedimento Centralizado
"ENVELOPES E CAPAS PARA 2017, COM CONSULTA A VÁRIAS ENTIDADES, POR LOTES.",Ajuste Direto Regime Geral,Aquisição de bens móveis,"22900000-9, Material impresso diverso","Instituto de Proteção e Assistência na Doença, I. P. (514247517)","Gráfica Campo de Ourique, Unipessoal, Lda. (500129762)","5.303,00 €",23-01-2018,11-08-2017,170 dias,"Portugal, Lisboa, Lisboa","Artigo 20.º, n.º 1, alínea a) do Código dos Contratos Públicos",31-12-2017,"5.303,00 €",,,,Não aplicável.,Não aplicável.,FALSE
"ENVELOPES E CAPAS PARA 2017, COM CONSULTA A VÁRIAS ENTIDADES, POR LOTES.",Ajuste Direto Regime Geral,Aquisição de bens móveis,"22900000-9, Material impresso diverso","Instituto de Proteção e Assistência na Doença, I. P. (514247517)",GRÁFICA CENTRAL MEALHADENSE (500129789),"6.648,30 €",23-01-2018,14-07-2017,170 dias,"Portugal, Lisboa, Lisboa","Artigo 20.º, n.º 1, alínea a) do Código dos Contratos Públicos",31-12-2017,"6.648,30 €",,,,Não aplicável.,Não aplicável.,FALSE
"ENVELOPES E CAPAS PARA 2017, COM CONSULTA A VÁRIAS ENTIDADES, POR LOTES.",Ajuste Direto Regime Geral,Aquisição de bens móveis,"22900000-9, Material impresso diverso","Instituto de Proteção e Assistência na Doença, I. P. (514247517)","Gráfica Campo de Ourique, Unipessoal, Lda. (500129762)","10.235,04 €",23-01-2018,11-08-2017,170 dias,"Portugal, Lisboa, Lisboa","Artigo 20.º, n.º 1, alínea a) do Código dos Contratos Públicos",31-12-2017,"10.235,04 €",,,,Não aplicável.,Não aplicável.,FALSE
"ENVELOPES E CAPAS PARA 2017, COM CONSULTA A VÁRIAS ENTIDADES, POR LOTES.",Ajuste Direto Regime Geral,Aquisição de bens móveis,"22900000-9, Material impresso diverso","Instituto de Proteção e Assistência na Doença, I. P. (514247517)",GRÁFICA CENTRAL MEALHADENSE (500129789),"974,25 €",23-01-2018,14-07-2017,170 dias,"Portugal, Lisboa, Lisboa","Artigo 20.º, n.º 1, alínea a) do Código dos Contratos Públicos",31-12-2017,"974,25 €",,,,Não aplicável.,Não aplicável.,FALSE
