Objeto do Contrato,Tipo de Procedimento,Tipo(s) de Contrato,CPVs,Entidade(s) Adjudicante(s),Entidade(s) Adjudicatária(s),Preço Contratual,Data de Publicação,Data de Celebração do Contrato,Prazo de Execução,Local de Execução,Fundamentação,Data de Fecho do Contrato,Preço Total Efetivo,Causas das Alterações ao Prazo,Causas das Alterações ao Preço,Estado,N.º registo do Acordo Quadro,Descrição do Acordo Quadro,Procedimento Centralizado
Aquisição de Algálias Folley,Ajuste Direto Regime Geral,Aquisição de bens móveis,"33141621-9, Kit para incontinência","Administração Regional de Saúde do Norte, I.P. (503135593)",Hospitex Mat Hospitalar (501909842),"13.112,00 €",05-06-2013,22-04-2013,270 dias,"Portugal, Porto, Maia<BR/>Portugal, Vila Real, Vila Real","Artigo 20.º, n.º 1, alínea a) do Código dos Contratos Públicos",31-12-2013,"13.112,00 €","",,,Não aplicável.,Não aplicável.,
Contentores de metadona 4ml c/ tampa de segurança,Ajuste Direto Regime Geral,Aquisição de bens móveis,"39226220-0, Frascos","Administração Regional de Saúde do Norte, I.P. (503135593)","Vidrolab 2 - BCP Factoring, S.A. (501450629)","7.175,00 €",05-06-2013,02-04-2013,270 dias,"Portugal, Vila Real, Vila Real<BR/>Portugal, Porto, Maia","Artigo 20.º, n.º 1, alínea a) do Código dos Contratos Públicos",31-12-2013,"7.175,00 €","",,,Não aplicável.,Não aplicável.,
Aquisição de Sondas Gastroduodenal 100% silicone,Ajuste Direto Regime Geral,Aquisição de bens móveis,"33141641-5, Sondas","Administração Regional de Saúde do Norte, I.P. (503135593)",Coloplast Portugal (503989037),"27.140,00 €",04-06-2013,08-05-2013,240 dias,"Portugal, Vila Real, Vila Real<BR/>Portugal, Porto, Maia","Artigo 20.º, n.º 1, alínea a) do Código dos Contratos Públicos",31-12-2013,"27.140,00 €","",,,Não aplicável.,Não aplicável.,
Aquisição de equipamento médico/mobiliário hospitalar para USFS,Ajuste Direto Regime Geral,Aquisição de bens móveis,"33100000-1, Equipamento médico","Administração Regional de Saúde do Norte, I.P. (503135593)","Bacelar & Irmão, lda (500532818)","23.909,29 €",03-06-2013,11-02-2013,20 dias,"Portugal, Porto, Porto","Artigo 20.º, n.º 1, alínea a) do Código dos Contratos Públicos","","","",,,Não aplicável.,Não aplicável.,
Diversos SUB Moimenta da Beira,Ajuste Direto Regime Geral,Empreitadas de obras públicas,"45450000-6, Outras obras de acabamento de edifícios","Administração Regional de Saúde do Norte, I.P. (503135593)","Desfilvital, Lda (510344186)","8.720,77 €",03-06-2013,04-03-2013,15 dias,"Portugal, Viseu, Moimenta da Beira","Artigo 19.º, alínea a) do Código dos Contratos Públicos","","8.720,77 €","",,,Não aplicável.,Não aplicável.,
Transferência de aparelho de RX CS Baião,Ajuste Direto Regime Geral,Aquisição de serviços,"51400000-6, Serviços de instalação de equipamento médico e cirúrgico","Administração Regional de Saúde do Norte, I.P. (503135593)","Philips Portuguesa, S.A. (500216843)","22.500,00 €",03-06-2013,21-02-2013,15 dias,"Portugal, Porto, Baião","Artigo 20.º, n.º 1, alínea a) do Código dos Contratos Públicos",29-05-2013,"22.500,00 €",A transferência do Rx só se conseguiu iniciar a 14 de Maio devido ás necessárias adaptações.,,,Não aplicável.,Não aplicável.,
Reparação e pintura de paredes SASU Porto,Ajuste Direto Regime Geral,Empreitadas de obras públicas,"45453000-7, Obras de revisão e recuperação","Administração Regional de Saúde do Norte, I.P. (503135593)","Nosniky - Engenharia e Construção Civil, Lda (510397352)","12.702,05 €",03-06-2013,28-03-2013,15 dias,"Portugal, Porto, Porto","Artigo 19.º, alínea a) do Código dos Contratos Públicos","","12.702,05 €",A obra foi concluida antes do previsto,,,Não aplicável.,Não aplicável.,
