Objeto do Contrato,Tipo de Procedimento,Tipo(s) de Contrato,CPVs,Entidade(s) Adjudicante(s),Entidade(s) Adjudicatária(s),Preço Contratual,Data de Publicação,Data de Celebração do Contrato,Prazo de Execução,Local de Execução,Fundamentação,Data de Fecho do Contrato,Preço Total Efetivo,Causas das Alterações ao Prazo,Causas das Alterações ao Preço,Estado,N.º registo do Acordo Quadro,Descrição do Acordo Quadro,Procedimento Centralizado
AQUISIÇÃO DE CONSUMIVEIS DE OTORRINOLARINGOLOGIA,Ajuste Direto Regime Geral,Aquisição de bens móveis,"33140000-3, Material médico de consumo",HOSPITAL DR FRANCISCO ZAGALO (501510150),OLympus Portugal (503581429),"9.806,94 €",11-04-2012,23-02-2011,365 dias,"Portugal, Aveiro, Ovar<BR/>Portugal, Aveiro, Ovar","Artigo 24.º, n.º 1, alínea d) do Código dos Contratos Públicos",31-12-2011,"9.806,94 €",,,,Não aplicável.,Não aplicável.,
Aquisição de compressas de gaze hidrófila esterilizadas e não esterilizadas e com contraste.,Ajuste Direto Regime Geral,Aquisição de bens móveis,"33141119-7, Compressas",HOSPITAL DR FRANCISCO ZAGALO (501510150),"Albino Dias Andrade, Lda (500013810)","5.102,03 €",11-04-2012,20-04-2011,255 dias,"Portugal, Aveiro, Ovar","Artigo 20.º, n.º 1, alínea a) do Código dos Contratos Públicos",31-12-2011,"5.102,03 €",,,,Não aplicável.,Não aplicável.,
Aquisição de gases medicinais,Ajuste Direto Regime Geral,Aquisição de bens móveis,"33690000-3, Medicamentos vários",HOSPITAL DR FRANCISCO ZAGALO (501510150),"Acail, Gas (503789151)","7.463,20 €",10-04-2012,05-04-2012,30 dias,"Portugal, Aveiro, Ovar","Artigo 20.º, n.º 1, alínea a) do Código dos Contratos Públicos",05-04-2012,"7.463,20 €",,,,Não aplicável.,Não aplicável.,
Exames M.C.D.T. de Imagiologia efectuados a utentes,Ajuste Direto Regime Geral,Aquisição de serviços,"85150000-5, Serviços de imagiologia médica",HOSPITAL DR FRANCISCO ZAGALO (501510150),Dr.Pinto Leite-Instituto de Radiologia (501396772),"13.194,00 €",04-04-2012,28-03-2012,30 dias,"Portugal, Aveiro, Ovar","Artigo 20.º, n.º 1, alínea a) do Código dos Contratos Públicos",28-03-2012,"13.194,00 €",,,,Não aplicável.,Não aplicável.,
