Objeto do Contrato,Tipo de Procedimento,Tipo(s) de Contrato,CPVs,Entidade(s) Adjudicante(s),Entidade(s) Adjudicatária(s),Preço Contratual,Data de Publicação,Data de Celebração do Contrato,Prazo de Execução,Local de Execução,Fundamentação,Data de Fecho do Contrato,Preço Total Efetivo,Causas das Alterações ao Prazo,Causas das Alterações ao Preço,Estado,N.º registo do Acordo Quadro,Descrição do Acordo Quadro,Procedimento Centralizado
81003518 - Medicamentos,Ajuste Direto Regime Geral,Aquisição de bens móveis,"33000000-0, Equipamento médico, medicamentos e produtos para cuidados pessoais","Unidade Local de Saúde do Norte Alentejano, E. P. E. (508094461)",Roche (500233810),"1.930,32 €",01-10-2018,19-07-2018,1 dias,"Portugal, Portalegre, Elvas","Artigo 24.º, n.º 1, alínea c) do Código dos Contratos Públicos","","",,,,Não aplicável.,Não aplicável.,FALSE
81003518 - Medicamentos,Ajuste Direto Regime Geral,Aquisição de bens móveis,"33000000-0, Equipamento médico, medicamentos e produtos para cuidados pessoais","Unidade Local de Saúde do Norte Alentejano, E. P. E. (508094461)",Glaxo Smith Kline Consumer Healthcare (500276994),"278,40 €",01-10-2018,19-07-2018,1 dias,"Portugal, Portalegre, Elvas","Artigo 24.º, n.º 1, alínea c) do Código dos Contratos Públicos","","",,,,Não aplicável.,Não aplicável.,FALSE
81003518 - Medicamentos,Ajuste Direto Regime Geral,Aquisição de bens móveis,"33000000-0, Equipamento médico, medicamentos e produtos para cuidados pessoais","Unidade Local de Saúde do Norte Alentejano, E. P. E. (508094461)","FARMACIA ELVAS UNIPESSOAL, LDA. (505542005)","8,49 €",01-10-2018,19-07-2018,1 dias,"Portugal, Portalegre, Elvas","Artigo 24.º, n.º 1, alínea c) do Código dos Contratos Públicos","","",,,,Não aplicável.,Não aplicável.,FALSE
81003518 - Medicamentos,Ajuste Direto Regime Geral,Aquisição de bens móveis,"33000000-0, Equipamento médico, medicamentos e produtos para cuidados pessoais","Unidade Local de Saúde do Norte Alentejano, E. P. E. (508094461)",B BRAUN MEDICAL LDA (501506543),"12,40 €",01-10-2018,19-07-2018,1 dias,"Portugal, Portalegre, Elvas","Artigo 24.º, n.º 1, alínea c) do Código dos Contratos Públicos","","",,,,Não aplicável.,Não aplicável.,FALSE
81003418 - Reagentes,Ajuste Direto Regime Geral,Aquisição de bens móveis,"33000000-0, Equipamento médico, medicamentos e produtos para cuidados pessoais","Unidade Local de Saúde do Norte Alentejano, E. P. E. (508094461)",Roche Sistemas de Diagnósticos (504282921),"907,10 €",01-10-2018,19-07-2018,1 dias,"Portugal, Portalegre, Elvas","Artigo 24.º, n.º 1, alínea c) do Código dos Contratos Públicos","","",,,,Não aplicável.,Não aplicável.,FALSE
81003418 - Reagentes,Ajuste Direto Regime Geral,Aquisição de bens móveis,"33000000-0, Equipamento médico, medicamentos e produtos para cuidados pessoais","Unidade Local de Saúde do Norte Alentejano, E. P. E. (508094461)",EMILIO DE AZEVEDO CAMPOS SA (500094853),"2.089,00 €",01-10-2018,19-07-2018,1 dias,"Portugal, Portalegre, Elvas","Artigo 24.º, n.º 1, alínea c) do Código dos Contratos Públicos","","",,,,Não aplicável.,Não aplicável.,FALSE
81003718 - Medicamentos,Ajuste Direto Regime Geral,Aquisição de bens móveis,"33000000-0, Equipamento médico, medicamentos e produtos para cuidados pessoais","Unidade Local de Saúde do Norte Alentejano, E. P. E. (508094461)",Roche Sistemas de Diagnósticos (504282921),"192,30 €",01-10-2018,19-07-2018,1 dias,"Portugal, Portalegre, Elvas","Artigo 24.º, n.º 1, alínea c) do Código dos Contratos Públicos","","",,,,Não aplicável.,Não aplicável.,FALSE
81003718 - Medicamentos,Ajuste Direto Regime Geral,Aquisição de bens móveis,"33000000-0, Equipamento médico, medicamentos e produtos para cuidados pessoais","Unidade Local de Saúde do Norte Alentejano, E. P. E. (508094461)","Medicinália Cormédica-Comercialização de produtos Médico Hospitalares, Lda (500684324)","1.350,00 €",01-10-2018,19-07-2018,1 dias,"Portugal, Portalegre, Elvas","Artigo 24.º, n.º 1, alínea c) do Código dos Contratos Públicos","","",,,,Não aplicável.,Não aplicável.,FALSE
81003718 - Medicamentos,Ajuste Direto Regime Geral,Aquisição de bens móveis,"33000000-0, Equipamento médico, medicamentos e produtos para cuidados pessoais","Unidade Local de Saúde do Norte Alentejano, E. P. E. (508094461)","FARMACIA ELVAS UNIPESSOAL, LDA. (505542005)","17,64 €",01-10-2018,19-07-2018,1 dias,"Portugal, Portalegre, Elvas","Artigo 24.º, n.º 1, alínea c) do Código dos Contratos Públicos","","",,,,Não aplicável.,Não aplicável.,FALSE
"51028018-P259-2018-120-AQUISIÇÃO DE MEDICAMENTOS DESENCADEADA PELA SPMS,EPE NO ÂMBITO DO DESPACHO 1571/b 2016 - R954.",Ao abrigo de acordo-quadro (art.º 259.º),Aquisição de bens móveis,"33600000-6, Produtos farmacêuticos","Unidade Local de Saúde do Norte Alentejano, E. P. E. (508094461)","MERCK, SA (500650870)","5.770,94 €",01-10-2018,14-09-2018,365 dias,"Portugal, Portalegre, Elvas",Artigo 259.º do Código dos Contratos Públicos,"","",,,,2183729,Medicamentos antirretrovíricos para o tratamento da infeção por VIH,FALSE
"51028018-P259-2018-120-AQUISIÇÃO DE MEDICAMENTOS DESENCADEADA PELA SPMS,EPE NO ÂMBITO DO DESPACHO 1571/b 2016 -R1021, V91, V92.",Ao abrigo de acordo-quadro (art.º 259.º),Aquisição de bens móveis,"33600000-6, Produtos farmacêuticos","Unidade Local de Saúde do Norte Alentejano, E. P. E. (508094461)","PIERRE FABRE MEDICAMENT PORTUGAL, LDA. (500230366)","10.942,00 €",01-10-2018,14-09-2018,365 dias,"Portugal, Portalegre, Elvas",Artigo 259.º do Código dos Contratos Públicos,"","",,,,2545980,CP 2017/61 - Acordo quadro para fornecimento de Medicamentos Diversos   às Instituições e Serviços do Serviço Nacional de Saúde,FALSE
"51028018-P259-2018-120-AQUISIÇÃO DE MEDICAMENTOS DESENCADEADA PELA SPMS,EPE NO ÂMBITO DO DESPACHO 1571/b 2016 -R1021, V91, V92.",Ao abrigo de acordo-quadro (art.º 259.º),Aquisição de bens móveis,"33600000-6, Produtos farmacêuticos","Unidade Local de Saúde do Norte Alentejano, E. P. E. (508094461)","NOVARTIS FARMA-PROD.FARMACÊUTICOS,SA. (500063524)","29.239,20 €",01-10-2018,14-09-2018,365 dias,"Portugal, Portalegre, Elvas",Artigo 259.º do Código dos Contratos Públicos,"","",,,,2545980,CP 2017/61 - Acordo quadro para fornecimento de Medicamentos Diversos   às Instituições e Serviços do Serviço Nacional de Saúde,FALSE
"51028018-P259-2018-120-AQUISIÇÃO DE MEDICAMENTOS DESENCADEADA PELA SPMS,EPE NO ÂMBITO DO DESPACHO 1571/b 2016 - O99.",Ao abrigo de acordo-quadro (art.º 259.º),Aquisição de bens móveis,"33600000-6, Produtos farmacêuticos","Unidade Local de Saúde do Norte Alentejano, E. P. E. (508094461)","NOVARTIS FARMA-PROD.FARMACÊUTICOS,SA. (500063524)","6.063,84 €",01-10-2018,14-09-2018,365 dias,"Portugal, Portalegre, Elvas",Artigo 259.º do Código dos Contratos Públicos,"","",,,,3379938,Hormonas e outros medicamentos usados no tratamento de doenças endócrinas,FALSE
"51028018-P259-2018-120-AQUISIÇÃO DE MEDICAMENTOS DESENCADEADA PELA SPMS,EPE NO ÂMBITO DO DESPACHO 1571/b 2016 - E25, E369.",Ao abrigo de acordo-quadro (art.º 259.º),Aquisição de bens móveis,"33600000-6, Produtos farmacêuticos","Unidade Local de Saúde do Norte Alentejano, E. P. E. (508094461)","SANOFI- PRODUTOS FARMACÊUTICOS,LDA. (500134960)","615,36 €",01-10-2018,14-09-2018,365 dias,"Portugal, Portalegre, Elvas",Artigo 259.º do Código dos Contratos Públicos,"","",,,,2489595,CP 2016/18 - Acordo quadro para fornecimento de Medicamentos do Grupo 4: Sangue às Instituições e Serviços do Serviço Nacional de Saúde,FALSE
Aquisição_Urgente_Material de Osteossíntese,Ajuste Direto Regime Geral,Aquisição de bens móveis,"33000000-0, Equipamento médico, medicamentos e produtos para cuidados pessoais","Unidade Local de Saúde do Norte Alentejano, E. P. E. (508094461)","Johnson&Johnson, Lda (500153370)","523,00 €",28-09-2018,30-08-2018,1 dias,"Portugal, Portalegre, Portalegre","Artigo 24.º, n.º 1, alínea c) do Código dos Contratos Públicos","","",,,,Não aplicável.,Não aplicável.,FALSE
"51028018-P259-2018-120-AQUISIÇÃO DE MEDICAMENTOS DESENCADEADA PELA SPMS,EPE NO ÂMBITO DO DESPACHO 1571/b 2016 - A5027, B325, B326, T1134, T1266, V88.",Ao abrigo de acordo-quadro (art.º 259.º),Aquisição de bens móveis,"33600000-6, Produtos farmacêuticos","Unidade Local de Saúde do Norte Alentejano, E. P. E. (508094461)","TEVA PHARMA - PRODUTOS FARMACEUTICOS,LDA. (507045491)","300,00 €",28-09-2018,14-09-2018,365 dias,"Portugal, Portalegre, Elvas",Artigo 259.º do Código dos Contratos Públicos,"","",,,,2969238,"CP 2017/6 - Acordo Quadro para fornecimento de Medicamentos do Foro Oncológico e Imunomoduladores, às Instituições e Serviços do Serviço Nacional de Saúde",FALSE
"51028018-P259-2018-120-AQUISIÇÃO DE MEDICAMENTOS DESENCADEADA PELA SPMS,EPE NO ÂMBITO DO DESPACHO 1571/b 2016 - A5027, B325, B326, T1134, T1266, V88.",Ao abrigo de acordo-quadro (art.º 259.º),Aquisição de bens móveis,"33600000-6, Produtos farmacêuticos","Unidade Local de Saúde do Norte Alentejano, E. P. E. (508094461)","ROCHE FARMACÊUTICA QUIMICA, LDA. (500233810)","75.810,23 €",28-09-2018,14-09-2018,365 dias,"Portugal, Portalegre, Elvas",Artigo 259.º do Código dos Contratos Públicos,"","",,,,2969238,"CP 2017/6 - Acordo Quadro para fornecimento de Medicamentos do Foro Oncológico e Imunomoduladores, às Instituições e Serviços do Serviço Nacional de Saúde",FALSE
"51028018-P259-2018-120-AQUISIÇÃO DE MEDICAMENTOS DESENCADEADA PELA SPMS,EPE NO ÂMBITO DO DESPACHO 1571/b 2016 - A5027, B325, B326, T1134, T1266, V88.",Ao abrigo de acordo-quadro (art.º 259.º),Aquisição de bens móveis,"33600000-6, Produtos farmacêuticos","Unidade Local de Saúde do Norte Alentejano, E. P. E. (508094461)",PROFARIN DISTRIBUIDORA DE PROD. FARM. INDUSTRIAIS (500223238),"2.111,04 €",28-09-2018,14-09-2018,365 dias,"Portugal, Portalegre, Elvas",Artigo 259.º do Código dos Contratos Públicos,"","",,,,2969238,"CP 2017/6 - Acordo Quadro para fornecimento de Medicamentos do Foro Oncológico e Imunomoduladores, às Instituições e Serviços do Serviço Nacional de Saúde",FALSE
"51027018-P259-2018-117-AQUISIÇÃO DE MEDICAMENTOS DESENCADEADA PELA SPMS,EPE NO ÂMBITO DO DESPACHO 1571/b 2016 - D299, G254, M176.",Ao abrigo de acordo-quadro (art.º 259.º),Aquisição de bens móveis,"33600000-6, Produtos farmacêuticos","Unidade Local de Saúde do Norte Alentejano, E. P. E. (508094461)",Ferrer Portugal S.A (500069190),"840,40 €",28-09-2018,05-09-2018,365 dias,"Portugal, Portalegre, Elvas",Artigo 259.º do Código dos Contratos Públicos,"","",,,,2969238,"CP 2017/6 - Acordo Quadro para fornecimento de Medicamentos do Foro Oncológico e Imunomoduladores, às Instituições e Serviços do Serviço Nacional de Saúde",FALSE
"51027018-P259-2018-117-AQUISIÇÃO DE MEDICAMENTOS DESENCADEADA PELA SPMS,EPE NO ÂMBITO DO DESPACHO 1571/b 2016 - D299, G254, M176.",Ao abrigo de acordo-quadro (art.º 259.º),Aquisição de bens móveis,"33600000-6, Produtos farmacêuticos","Unidade Local de Saúde do Norte Alentejano, E. P. E. (508094461)","GENERIS - FARMACEUTICA, S.A. (508107997)","434,40 €",28-09-2018,05-09-2018,365 dias,"Portugal, Portalegre, Elvas",Artigo 259.º do Código dos Contratos Públicos,"","",,,,2969238,"CP 2017/6 - Acordo Quadro para fornecimento de Medicamentos do Foro Oncológico e Imunomoduladores, às Instituições e Serviços do Serviço Nacional de Saúde",FALSE
"51027018-P259-2018-117-AQUISIÇÃO DE MEDICAMENTOS DESENCADEADA PELA SPMS,EPE NO ÂMBITO DO DESPACHO 1571/b 2016 - D299, G254, M176.",Ao abrigo de acordo-quadro (art.º 259.º),Aquisição de bens móveis,"33600000-6, Produtos farmacêuticos","Unidade Local de Saúde do Norte Alentejano, E. P. E. (508094461)","JANSSEN CILAG FARMACEUTICA, LDA. (500189412)","15.841,50 €",28-09-2018,05-09-2018,365 dias,"Portugal, Portalegre, Elvas",Artigo 259.º do Código dos Contratos Públicos,"","",,,,2969238,"CP 2017/6 - Acordo Quadro para fornecimento de Medicamentos do Foro Oncológico e Imunomoduladores, às Instituições e Serviços do Serviço Nacional de Saúde",FALSE
"51027018-P259-2018-117-AQUISIÇÃO DE MEDICAMENTOS DESENCADEADA PELA SPMS,EPE NO ÂMBITO DO DESPACHO 1571/b 2016 - D299, G254, M176.",Ao abrigo de acordo-quadro (art.º 259.º),Aquisição de bens móveis,"33600000-6, Produtos farmacêuticos","Unidade Local de Saúde do Norte Alentejano, E. P. E. (508094461)","JANSSEN CILAG FARMACEUTICA, LDA. (500189412)","15.841,50 €",28-09-2018,05-09-2018,365 dias,"Portugal, Portalegre, Elvas",Artigo 259.º do Código dos Contratos Públicos,"","",,,,2969238,"CP 2017/6 - Acordo Quadro para fornecimento de Medicamentos do Foro Oncológico e Imunomoduladores, às Instituições e Serviços do Serviço Nacional de Saúde",FALSE
"51027018-P259-2018-117-AQUISIÇÃO DE MEDICAMENTOS DESENCADEADA PELA SPMS,EPE NO ÂMBITO DO DESPACHO 1571/b 2016 - A988, D499, E365.",Ao abrigo de acordo-quadro (art.º 259.º),Aquisição de bens móveis,"33600000-6, Produtos farmacêuticos","Unidade Local de Saúde do Norte Alentejano, E. P. E. (508094461)",GILEAD SCIENCES LDA. (503604704),"12.705,84 €",28-09-2018,05-09-2018,365 dias,"Portugal, Portalegre, Elvas",Artigo 259.º do Código dos Contratos Públicos,"","",,,,2183729,Medicamentos antirretrovíricos para o tratamento da infeção por VIH,FALSE
"51027018-P259-2018-117-AQUISIÇÃO DE MEDICAMENTOS DESENCADEADA PELA SPMS,EPE NO ÂMBITO DO DESPACHO 1571/b 2016 - A988, D499, E365.",Ao abrigo de acordo-quadro (art.º 259.º),Aquisição de bens móveis,"33600000-6, Produtos farmacêuticos","Unidade Local de Saúde do Norte Alentejano, E. P. E. (508094461)","JANSSEN CILAG FARMACEUTICA, LDA. (500189412)","2.818,32 €",28-09-2018,05-09-2018,365 dias,"Portugal, Portalegre, Elvas",Artigo 259.º do Código dos Contratos Públicos,"","",,,,2183729,Medicamentos antirretrovíricos para o tratamento da infeção por VIH,FALSE
"51027018-P259-2018-117-AQUISIÇÃO DE MEDICAMENTOS DESENCADEADA PELA SPMS,EPE NO ÂMBITO DO DESPACHO 1571/b 2016 - A988, D499, E365.",Ao abrigo de acordo-quadro (art.º 259.º),Aquisição de bens móveis,"33600000-6, Produtos farmacêuticos","Unidade Local de Saúde do Norte Alentejano, E. P. E. (508094461)",BRISTOL - MYERS SQUIBB SA. (500048193),"348,57 €",28-09-2018,05-09-2018,365 dias,"Portugal, Portalegre, Elvas",Artigo 259.º do Código dos Contratos Públicos,"","",,,,2183729,Medicamentos antirretrovíricos para o tratamento da infeção por VIH,FALSE
81003618 - Reagentes,Ajuste Direto Regime Geral,Aquisição de bens móveis,"33000000-0, Equipamento médico, medicamentos e produtos para cuidados pessoais","Unidade Local de Saúde do Norte Alentejano, E. P. E. (508094461)",Roche Sistemas de Diagnósticos (504282921),"3.042,00 €",27-09-2018,19-07-2018,1 dias,"Portugal, Portalegre, Elvas","Artigo 24.º, n.º 1, alínea c) do Código dos Contratos Públicos","","",,,,Não aplicável.,Não aplicável.,FALSE
81003618 - Reagentes,Ajuste Direto Regime Geral,Aquisição de bens móveis,"33000000-0, Equipamento médico, medicamentos e produtos para cuidados pessoais","Unidade Local de Saúde do Norte Alentejano, E. P. E. (508094461)",Thermo Fisher Scientific (506916243),"574,23 €",27-09-2018,19-07-2018,1 dias,"Portugal, Portalegre, Elvas","Artigo 24.º, n.º 1, alínea c) do Código dos Contratos Públicos","","",,,,Não aplicável.,Não aplicável.,FALSE
81003818 - Medicamentos,Ajuste Direto Regime Geral,Aquisição de bens móveis,"33000000-0, Equipamento médico, medicamentos e produtos para cuidados pessoais","Unidade Local de Saúde do Norte Alentejano, E. P. E. (508094461)","Biomerieux Portugal, Lda (501524177)","1.290,45 €",27-09-2018,19-07-2018,1 dias,"Portugal, Portalegre, Elvas","Artigo 24.º, n.º 1, alínea c) do Código dos Contratos Públicos","","",,,,Não aplicável.,Não aplicável.,FALSE
81003818 - Medicamentos,Ajuste Direto Regime Geral,Aquisição de bens móveis,"33000000-0, Equipamento médico, medicamentos e produtos para cuidados pessoais","Unidade Local de Saúde do Norte Alentejano, E. P. E. (508094461)",BATISTA MARQUES DIAGNOSTICA E REAGENTES (501439110),"144,34 €",27-09-2018,19-07-2018,1 dias,"Portugal, Portalegre, Elvas","Artigo 24.º, n.º 1, alínea c) do Código dos Contratos Públicos","","",,,,Não aplicável.,Não aplicável.,FALSE
81003818 - Medicamentos,Ajuste Direto Regime Geral,Aquisição de bens móveis,"33000000-0, Equipamento médico, medicamentos e produtos para cuidados pessoais","Unidade Local de Saúde do Norte Alentejano, E. P. E. (508094461)",MONTELLANO LDA (500196494),"257,97 €",27-09-2018,19-07-2018,1 dias,"Portugal, Portalegre, Elvas","Artigo 24.º, n.º 1, alínea c) do Código dos Contratos Públicos","","",,,,Não aplicável.,Não aplicável.,FALSE
81003818 - Medicamentos,Ajuste Direto Regime Geral,Aquisição de bens móveis,"33000000-0, Equipamento médico, medicamentos e produtos para cuidados pessoais","Unidade Local de Saúde do Norte Alentejano, E. P. E. (508094461)",KRKA FARMACEUTICA (507981227),"523,20 €",27-09-2018,19-07-2018,1 dias,"Portugal, Portalegre, Elvas","Artigo 24.º, n.º 1, alínea c) do Código dos Contratos Públicos","","",,,,Não aplicável.,Não aplicável.,FALSE
81003818 - Medicamentos,Ajuste Direto Regime Geral,Aquisição de bens móveis,"33000000-0, Equipamento médico, medicamentos e produtos para cuidados pessoais","Unidade Local de Saúde do Norte Alentejano, E. P. E. (508094461)","FARMACIA ELVAS UNIPESSOAL, LDA. (505542005)","11,30 €",27-09-2018,19-07-2018,1 dias,"Portugal, Portalegre, Elvas","Artigo 24.º, n.º 1, alínea c) do Código dos Contratos Públicos","","",,,,Não aplicável.,Não aplicável.,FALSE
81003818 - Medicamentos,Ajuste Direto Regime Geral,Aquisição de bens móveis,"33000000-0, Equipamento médico, medicamentos e produtos para cuidados pessoais","Unidade Local de Saúde do Norte Alentejano, E. P. E. (508094461)","DÁVI II Farmacêutica, SA (508309450)","68,00 €",27-09-2018,19-07-2018,1 dias,"Portugal, Portalegre, Elvas","Artigo 24.º, n.º 1, alínea c) do Código dos Contratos Públicos","","",,,,Não aplicável.,Não aplicável.,FALSE
81004218 - Reagentes,Ajuste Direto Regime Geral,Aquisição de bens móveis,"33000000-0, Equipamento médico, medicamentos e produtos para cuidados pessoais","Unidade Local de Saúde do Norte Alentejano, E. P. E. (508094461)","STAGO PORTUGAL, UNIPESSOAL, LDA (509952976)","2.105,01 €",27-09-2018,28-06-2018,1 dias,"Portugal, Portalegre, Elvas","Artigo 24.º, n.º 1, alínea c) do Código dos Contratos Públicos","","",,,,Não aplicável.,Não aplicável.,FALSE
81004218 - Reagentes,Ajuste Direto Regime Geral,Aquisição de bens móveis,"33000000-0, Equipamento médico, medicamentos e produtos para cuidados pessoais","Unidade Local de Saúde do Norte Alentejano, E. P. E. (508094461)",Roche Sistemas de Diagnósticos (504282921),"882,89 €",27-09-2018,28-06-2018,1 dias,"Portugal, Portalegre, Elvas","Artigo 24.º, n.º 1, alínea c) do Código dos Contratos Públicos","","",,,,Não aplicável.,Não aplicável.,FALSE
81004218 - Reagentes,Ajuste Direto Regime Geral,Aquisição de bens móveis,"33000000-0, Equipamento médico, medicamentos e produtos para cuidados pessoais","Unidade Local de Saúde do Norte Alentejano, E. P. E. (508094461)",Thermo Fisher Scientific (506916243),"394,43 €",27-09-2018,28-06-2018,1 dias,"Portugal, Portalegre, Elvas","Artigo 24.º, n.º 1, alínea c) do Código dos Contratos Públicos","","",,,,Não aplicável.,Não aplicável.,FALSE
81004218 - Reagentes,Ajuste Direto Regime Geral,Aquisição de bens móveis,"33000000-0, Equipamento médico, medicamentos e produtos para cuidados pessoais","Unidade Local de Saúde do Norte Alentejano, E. P. E. (508094461)",Menarini Diagnosticos (502610069),"159,00 €",27-09-2018,28-06-2018,1 dias,"Portugal, Portalegre, Elvas","Artigo 24.º, n.º 1, alínea c) do Código dos Contratos Públicos","","",,,,Não aplicável.,Não aplicável.,FALSE
81004118 - Medicamentos,Ajuste Direto Regime Geral,Aquisição de bens móveis,"33000000-0, Equipamento médico, medicamentos e produtos para cuidados pessoais","Unidade Local de Saúde do Norte Alentejano, E. P. E. (508094461)","Hologic Iberia, S.L. (980277230)","1.027,20 €",27-09-2018,28-06-2018,1 dias,"Portugal, Portalegre, Elvas","Artigo 24.º, n.º 1, alínea c) do Código dos Contratos Públicos","","",,,,Não aplicável.,Não aplicável.,FALSE
"51027218-P259-2018-86-AQUISIÇÃO DE MEDICAMENTOS DESENCADEADA PELA SPMS,EPE NO ÂMBITO DO DESPACHO 1571/b 2016 - DP25.",Ao abrigo de acordo-quadro (art.º 259.º),Aquisição de bens móveis,"33600000-6, Produtos farmacêuticos","Unidade Local de Saúde do Norte Alentejano, E. P. E. (508094461)",KEDRION PORTUGAL (508472830),"111.600,00 €",27-09-2018,27-09-2018,365 dias,"Portugal, Portalegre, Elvas",Artigo 259.º do Código dos Contratos Públicos,"","",,,,2800702,CP 2017/9 - Acordo quadro para fornecimento de Derivados do Plasma Humano às Instituições e Serviços do Serviço Nacional de Saúde,FALSE
81004318 - Medicamentos,Ajuste Direto Regime Geral,Aquisição de bens móveis,"33000000-0, Equipamento médico, medicamentos e produtos para cuidados pessoais","Unidade Local de Saúde do Norte Alentejano, E. P. E. (508094461)","PROCLINICA EQUIPAMENTOS E PRODUTOS  CLINICOS, LDA (500222665)","51,60 €",27-09-2018,28-06-2018,1 dias,"Portugal, Portalegre, Elvas","Artigo 24.º, n.º 1, alínea c) do Código dos Contratos Públicos","","",,,,Não aplicável.,Não aplicável.,FALSE
81004318 - Medicamentos,Ajuste Direto Regime Geral,Aquisição de bens móveis,"33000000-0, Equipamento médico, medicamentos e produtos para cuidados pessoais","Unidade Local de Saúde do Norte Alentejano, E. P. E. (508094461)","Labesfal - Laboratórios Almiro, S.A. (501169580)","604,00 €",27-09-2018,28-06-2018,1 dias,"Portugal, Portalegre, Elvas","Artigo 24.º, n.º 1, alínea c) do Código dos Contratos Públicos","","",,,,Não aplicável.,Não aplicável.,FALSE
81004318 - Medicamentos,Ajuste Direto Regime Geral,Aquisição de bens móveis,"33000000-0, Equipamento médico, medicamentos e produtos para cuidados pessoais","Unidade Local de Saúde do Norte Alentejano, E. P. E. (508094461)","FARMACIA ELVAS UNIPESSOAL, LDA. (505542005)","19,61 €",27-09-2018,28-06-2018,1 dias,"Portugal, Portalegre, Elvas","Artigo 24.º, n.º 1, alínea c) do Código dos Contratos Públicos","","",,,,Não aplicável.,Não aplicável.,FALSE
81004318 - Medicamentos,Ajuste Direto Regime Geral,Aquisição de bens móveis,"33000000-0, Equipamento médico, medicamentos e produtos para cuidados pessoais","Unidade Local de Saúde do Norte Alentejano, E. P. E. (508094461)",FRESENIUS KABI PHARMA PORTUGAL LDA (504293753),"108,12 €",26-09-2018,28-06-2018,1 dias,"Portugal, Portalegre, Elvas","Artigo 24.º, n.º 1, alínea c) do Código dos Contratos Públicos","","",,,,Não aplicável.,Não aplicável.,FALSE
81004418 - Reagentes,Ajuste Direto Regime Geral,Aquisição de bens móveis,"33000000-0, Equipamento médico, medicamentos e produtos para cuidados pessoais","Unidade Local de Saúde do Norte Alentejano, E. P. E. (508094461)",Roche Sistemas de Diagnósticos (504282921),"2.179,20 €",26-09-2018,28-06-2018,1 dias,"Portugal, Portalegre, Elvas","Artigo 24.º, n.º 1, alínea c) do Código dos Contratos Públicos","","",,,,Não aplicável.,Não aplicável.,FALSE
81004418 - Reagentes,Ajuste Direto Regime Geral,Aquisição de bens móveis,"33000000-0, Equipamento médico, medicamentos e produtos para cuidados pessoais","Unidade Local de Saúde do Norte Alentejano, E. P. E. (508094461)","Quilaban, S.A. (500399670)","487,20 €",26-09-2018,28-06-2018,1 dias,"Portugal, Portalegre, Elvas","Artigo 24.º, n.º 1, alínea c) do Código dos Contratos Públicos","","",,,,Não aplicável.,Não aplicável.,FALSE
81004418 - Reagentes,Ajuste Direto Regime Geral,Aquisição de bens móveis,"33000000-0, Equipamento médico, medicamentos e produtos para cuidados pessoais","Unidade Local de Saúde do Norte Alentejano, E. P. E. (508094461)","NORMAX - FÁBRICA DE VIDROS CIENTÍFICOS, LDA. (500203130)","174,00 €",26-09-2018,28-06-2018,1 dias,"Portugal, Portalegre, Elvas","Artigo 24.º, n.º 1, alínea c) do Código dos Contratos Públicos","","",,,,Não aplicável.,Não aplicável.,FALSE
81004418 - Reagentes,Ajuste Direto Regime Geral,Aquisição de bens móveis,"33000000-0, Equipamento médico, medicamentos e produtos para cuidados pessoais","Unidade Local de Saúde do Norte Alentejano, E. P. E. (508094461)","WERFEN PORTUGAL, LDA (501086110)","1.443,00 €",26-09-2018,28-06-2018,1 dias,"Portugal, Portalegre, Elvas","Artigo 24.º, n.º 1, alínea c) do Código dos Contratos Públicos","","",,,,Não aplicável.,Não aplicável.,FALSE
81004418 - Reagentes,Ajuste Direto Regime Geral,Aquisição de bens móveis,"33000000-0, Equipamento médico, medicamentos e produtos para cuidados pessoais","Unidade Local de Saúde do Norte Alentejano, E. P. E. (508094461)","Biomerieux Portugal, Lda (501524177)","525,40 €",26-09-2018,28-06-2018,1 dias,"Portugal, Portalegre, Elvas","Artigo 24.º, n.º 1, alínea c) do Código dos Contratos Públicos","","",,,,Não aplicável.,Não aplicável.,FALSE
81004518 - Medicamentos,Ajuste Direto Regime Geral,Aquisição de bens móveis,"33000000-0, Equipamento médico, medicamentos e produtos para cuidados pessoais","Unidade Local de Saúde do Norte Alentejano, E. P. E. (508094461)",Servier Portugal (502177420),"1.980,00 €",26-09-2018,28-06-2018,1 dias,"Portugal, Portalegre, Elvas","Artigo 24.º, n.º 1, alínea c) do Código dos Contratos Públicos","","",,,,Não aplicável.,Não aplicável.,FALSE
81004518 - Medicamentos,Ajuste Direto Regime Geral,Aquisição de bens móveis,"33000000-0, Equipamento médico, medicamentos e produtos para cuidados pessoais","Unidade Local de Saúde do Norte Alentejano, E. P. E. (508094461)","Labesfal - Laboratórios Almiro, S.A. (501169580)","403,00 €",26-09-2018,28-06-2018,1 dias,"Portugal, Portalegre, Elvas","Artigo 24.º, n.º 1, alínea c) do Código dos Contratos Públicos","","",,,,Não aplicável.,Não aplicável.,FALSE
81004518 - Medicamentos,Ajuste Direto Regime Geral,Aquisição de bens móveis,"33000000-0, Equipamento médico, medicamentos e produtos para cuidados pessoais","Unidade Local de Saúde do Norte Alentejano, E. P. E. (508094461)","FARMACIA ELVAS UNIPESSOAL, LDA. (505542005)","2,17 €",26-09-2018,28-06-2018,1 dias,"Portugal, Portalegre, Elvas","Artigo 24.º, n.º 1, alínea c) do Código dos Contratos Públicos","","",,,,Não aplicável.,Não aplicável.,FALSE
81004618 - Reagentes,Ajuste Direto Regime Geral,Aquisição de bens móveis,"33000000-0, Equipamento médico, medicamentos e produtos para cuidados pessoais","Unidade Local de Saúde do Norte Alentejano, E. P. E. (508094461)",BIO-RAD LABORATORIES (501301321),"2.028,90 €",26-09-2018,28-06-2018,1 dias,"Portugal, Portalegre, Elvas","Artigo 24.º, n.º 1, alínea c) do Código dos Contratos Públicos","","",,,,Não aplicável.,Não aplicável.,FALSE
Opcionais_P.T.A,Ajuste Direto Regime Geral,Aquisição de bens móveis,"33000000-0, Equipamento médico, medicamentos e produtos para cuidados pessoais","Unidade Local de Saúde do Norte Alentejano, E. P. E. (508094461)","JOHNSON & JOHNSON, MEDICAL (500153370)","130,00 €",25-09-2018,06-09-2018,1 dias,"Portugal, Portalegre, Portalegre","Artigo 24.º, n.º 1, alínea e), subalínea i) do Código dos Contratos Públicos","","",,,,Não aplicável.,Não aplicável.,FALSE
Aquisição_URG._Material de Osteossíntese,Ajuste Direto Regime Geral,Aquisição de bens móveis,"33000000-0, Equipamento médico, medicamentos e produtos para cuidados pessoais","Unidade Local de Saúde do Norte Alentejano, E. P. E. (508094461)","JOHNSON & JOHNSON, MEDICAL (500153370)","2.438,00 €",25-09-2018,12-09-2018,1 dias,"Portugal, Portalegre, Portalegre","Artigo 24.º, n.º 1, alínea c) do Código dos Contratos Públicos","","",,,,Não aplicável.,Não aplicável.,FALSE
Aquisição_URG_ Material de Osteossíntese,Ajuste Direto Regime Geral,Aquisição de bens móveis,"33000000-0, Equipamento médico, medicamentos e produtos para cuidados pessoais","Unidade Local de Saúde do Norte Alentejano, E. P. E. (508094461)","JOHNSON & JOHNSON, MEDICAL (500153370)","523,00 €",25-09-2018,06-09-2018,1 dias,"Portugal, Portalegre, Portalegre","Artigo 24.º, n.º 1, alínea c) do Código dos Contratos Públicos","","",,,,Não aplicável.,Não aplicável.,FALSE
81004818 - Reagentes,Ajuste Direto Regime Geral,Aquisição de bens móveis,"33000000-0, Equipamento médico, medicamentos e produtos para cuidados pessoais","Unidade Local de Saúde do Norte Alentejano, E. P. E. (508094461)","Roche-Sistemas Diagnóstico, Lda. (504282921)","701,00 €",25-09-2018,28-06-2018,1 dias,"Portugal, Portalegre, Elvas","Artigo 24.º, n.º 1, alínea c) do Código dos Contratos Públicos","","",,,,Não aplicável.,Não aplicável.,FALSE
81004818 - Reagentes,Ajuste Direto Regime Geral,Aquisição de bens móveis,"33000000-0, Equipamento médico, medicamentos e produtos para cuidados pessoais","Unidade Local de Saúde do Norte Alentejano, E. P. E. (508094461)",Thermo Fisher Scientific (506916243),"570,42 €",25-09-2018,28-06-2018,1 dias,"Portugal, Portalegre, Elvas","Artigo 24.º, n.º 1, alínea c) do Código dos Contratos Públicos","","",,,,Não aplicável.,Não aplicável.,FALSE
81004818 - Reagentes,Ajuste Direto Regime Geral,Aquisição de bens móveis,"33000000-0, Equipamento médico, medicamentos e produtos para cuidados pessoais","Unidade Local de Saúde do Norte Alentejano, E. P. E. (508094461)",GRIFOLS PORTUGAL LDA (502041285),"3.145,50 €",25-09-2018,28-06-2018,1 dias,"Portugal, Portalegre, Elvas","Artigo 24.º, n.º 1, alínea c) do Código dos Contratos Públicos","","",,,,Não aplicável.,Não aplicável.,FALSE
81004818 - Reagentes,Ajuste Direto Regime Geral,Aquisição de bens móveis,"33000000-0, Equipamento médico, medicamentos e produtos para cuidados pessoais","Unidade Local de Saúde do Norte Alentejano, E. P. E. (508094461)","Biomerieux Portugal, Lda (501524177)","969,99 €",25-09-2018,28-06-2018,1 dias,"Portugal, Portalegre, Elvas","Artigo 24.º, n.º 1, alínea c) do Código dos Contratos Públicos","","",,,,Não aplicável.,Não aplicável.,FALSE
81004918 - Medicamentos,Ajuste Direto Regime Geral,Aquisição de bens móveis,"33000000-0, Equipamento médico, medicamentos e produtos para cuidados pessoais","Unidade Local de Saúde do Norte Alentejano, E. P. E. (508094461)",CS PORTUGAL PRODUTOS FARMACEUTICOS (503395960),"84,00 €",25-09-2018,28-06-2018,1 dias,"Portugal, Portalegre, Elvas","Artigo 24.º, n.º 1, alínea c) do Código dos Contratos Públicos","","",,,,Não aplicável.,Não aplicável.,FALSE
81004918 - Medicamentos,Ajuste Direto Regime Geral,Aquisição de bens móveis,"33000000-0, Equipamento médico, medicamentos e produtos para cuidados pessoais","Unidade Local de Saúde do Norte Alentejano, E. P. E. (508094461)","BAUSCH E LOMB, SA (980218764)","1.498,00 €",25-09-2018,28-06-2018,1 dias,"Portugal, Portalegre, Elvas","Artigo 24.º, n.º 1, alínea c) do Código dos Contratos Públicos","","",,,,Não aplicável.,Não aplicável.,FALSE
81004918 - Medicamentos,Ajuste Direto Regime Geral,Aquisição de bens móveis,"33000000-0, Equipamento médico, medicamentos e produtos para cuidados pessoais","Unidade Local de Saúde do Norte Alentejano, E. P. E. (508094461)","Ascensia Diabetes Care Portugal, Lda (513671714)","50,00 €",25-09-2018,28-06-2018,1 dias,"Portugal, Portalegre, Elvas","Artigo 24.º, n.º 1, alínea c) do Código dos Contratos Públicos","","",,,,Não aplicável.,Não aplicável.,FALSE
81004918 - Medicamentos,Ajuste Direto Regime Geral,Aquisição de bens móveis,"33000000-0, Equipamento médico, medicamentos e produtos para cuidados pessoais","Unidade Local de Saúde do Norte Alentejano, E. P. E. (508094461)","Air Liquide Medicinal, S.A. (501576436)","202,00 €",24-09-2018,28-06-2018,1 dias,"Portugal, Portalegre, Elvas","Artigo 24.º, n.º 1, alínea c) do Código dos Contratos Públicos","","",,,,Não aplicável.,Não aplicável.,FALSE
61017818 - Reagentes,Ajuste Direto Regime Geral,Aquisição de bens móveis,"33000000-0, Equipamento médico, medicamentos e produtos para cuidados pessoais","Unidade Local de Saúde do Norte Alentejano, E. P. E. (508094461)","Roche-Sistemas Diagnóstico, Lda. (504282921)","507,90 €",24-09-2018,09-05-2018,1 dias,"Portugal, Portalegre, Elvas","Artigo 24.º, n.º 1, alínea e), subalínea ii) do Código dos Contratos Públicos","","",,,,Não aplicável.,Não aplicável.,FALSE
61017818 - Reagentes,Ajuste Direto Regime Geral,Aquisição de bens móveis,"33000000-0, Equipamento médico, medicamentos e produtos para cuidados pessoais","Unidade Local de Saúde do Norte Alentejano, E. P. E. (508094461)","Biomerieux Portugal, Lda (501524177)","385,63 €",24-09-2018,09-05-2018,1 dias,"Portugal, Portalegre, Elvas","Artigo 24.º, n.º 1, alínea e), subalínea ii) do Código dos Contratos Públicos","","",,,,Não aplicável.,Não aplicável.,FALSE
61017818 - Reagentes,Ajuste Direto Regime Geral,Aquisição de bens móveis,"33000000-0, Equipamento médico, medicamentos e produtos para cuidados pessoais","Unidade Local de Saúde do Norte Alentejano, E. P. E. (508094461)",Alere Lda (502518863),"90,00 €",24-09-2018,09-05-2018,1 dias,"Portugal, Portalegre, Elvas","Artigo 24.º, n.º 1, alínea e), subalínea ii) do Código dos Contratos Públicos","","",,,,Não aplicável.,Não aplicável.,FALSE
"PRESTAÇÃO DE SERVIÇOS DE VIGILÂNCIA E SEGURANÇA HUMANA E DE LIGAÇÃO A CENTRAL DE RECEÇÃO E MONITORIZAÇÃO DE ALARMES AO ABRIGO DO LOTE 21 DO ACORDO QUADRO DA ESPAP PARA A UNIDADE LOCAL DE SAÚDE DO NORTE ALENTEJANO, EPE",Ao abrigo de acordo-quadro (art.º 259.º),Aquisição de serviços,"55100000-1, Serviços de hotelaria","Unidade Local de Saúde do Norte Alentejano, E. P. E. (508094461)",Prestibel (501326456),"422.470,92 €",24-09-2018,31-01-2018,365 dias,"Portugal, Portalegre",Artigo 259.º do Código dos Contratos Públicos,"","",,,,1683597,Prestação de serviços combinados de vigilância e segurança humana e de ligação a central de receção e monitorização de alarmes na Região Norte - Acordo Quadro nº 13 da ESPAP.,FALSE
61018418 - Medicamentos,Ajuste Direto Regime Geral,Aquisição de bens móveis,"33000000-0, Equipamento médico, medicamentos e produtos para cuidados pessoais","Unidade Local de Saúde do Norte Alentejano, E. P. E. (508094461)",WEP Clinical (944893866),"3.620,00 €",24-09-2018,19-07-2018,1 dias,"Portugal, Portalegre, Elvas","Artigo 24.º, n.º 1, alínea e), subalínea ii) do Código dos Contratos Públicos","","",,,,Não aplicável.,Não aplicável.,FALSE
61018418 - Medicamentos,Ajuste Direto Regime Geral,Aquisição de bens móveis,"33000000-0, Equipamento médico, medicamentos e produtos para cuidados pessoais","Unidade Local de Saúde do Norte Alentejano, E. P. E. (508094461)",Paul Hartmann Lda (502271728),"977,70 €",24-09-2018,19-07-2018,1 dias,"Portugal, Portalegre, Elvas","Artigo 24.º, n.º 1, alínea e), subalínea ii) do Código dos Contratos Públicos","","",,,,Não aplicável.,Não aplicável.,FALSE
61018418 - Medicamentos,Ajuste Direto Regime Geral,Aquisição de bens móveis,"33000000-0, Equipamento médico, medicamentos e produtos para cuidados pessoais","Unidade Local de Saúde do Norte Alentejano, E. P. E. (508094461)","PROCLINICA EQUIPAMENTOS E PRODUTOS  CLINICOS, LDA (500222665)","64,80 €",24-09-2018,19-07-2018,1 dias,"Portugal, Portalegre, Elvas","Artigo 24.º, n.º 1, alínea e), subalínea ii) do Código dos Contratos Públicos","","",,,,Não aplicável.,Não aplicável.,FALSE
61018418 - Medicamentos,Ajuste Direto Regime Geral,Aquisição de bens móveis,"33000000-0, Equipamento médico, medicamentos e produtos para cuidados pessoais","Unidade Local de Saúde do Norte Alentejano, E. P. E. (508094461)",Orionfin Unipessoal Lda (508907365),"1.257,58 €",24-09-2018,19-07-2018,1 dias,"Portugal, Portalegre, Elvas","Artigo 24.º, n.º 1, alínea e), subalínea ii) do Código dos Contratos Públicos","","",,,,Não aplicável.,Não aplicável.,FALSE
"Contrato de Prestação de Serviços Médicos na Triagem Pediátrica na ULSNA, EPE (Setembro a Dezembro de 2018)",Ajuste Direto Regime Geral,Aquisição de serviços,"85100000-0, Serviços de saúde","Unidade Local de Saúde do Norte Alentejano, E. P. E. (508094461)","Sumário Eloquente, Unipessoal, Lda (513872701)","6.648,00 €",24-09-2018,30-08-2018,122 dias,"Portugal, Portalegre, Portalegre","Artigo 24.º, n.º 1, alínea c) do Código dos Contratos Públicos","","",,,,Não aplicável.,Não aplicável.,FALSE
Aquisição de Ajudas Técnicas - Óculos,Ajuste Direto Regime Geral,Aquisição de bens móveis,"33000000-0, Equipamento médico, medicamentos e produtos para cuidados pessoais","Unidade Local de Saúde do Norte Alentejano, E. P. E. (508094461)",Multiopticas (507821092),"1.219,15 €",24-09-2018,13-09-2018,1 dias,"Portugal, Portalegre, Portalegre","Artigo 20.º, n.º 1, alínea d) do Código dos Contratos Públicos","","",,,,Não aplicável.,Não aplicável.,FALSE
61018518 - Reagentes,Ajuste Direto Regime Geral,Aquisição de bens móveis,"33000000-0, Equipamento médico, medicamentos e produtos para cuidados pessoais","Unidade Local de Saúde do Norte Alentejano, E. P. E. (508094461)","STAGO PORTUGAL, UNIPESSOAL, LDA (509952976)","2.053,22 €",24-09-2018,24-05-2018,1 dias,"Portugal, Portalegre, Elvas","Artigo 24.º, n.º 1, alínea e), subalínea ii) do Código dos Contratos Públicos","","",,,,Não aplicável.,Não aplicável.,FALSE
61018518 - Reagentes,Ajuste Direto Regime Geral,Aquisição de bens móveis,"33000000-0, Equipamento médico, medicamentos e produtos para cuidados pessoais","Unidade Local de Saúde do Norte Alentejano, E. P. E. (508094461)",Quilaban (500399670),"28,91 €",24-09-2018,24-05-2018,1 dias,"Portugal, Portalegre, Elvas","Artigo 24.º, n.º 1, alínea e), subalínea ii) do Código dos Contratos Públicos","","",,,,Não aplicável.,Não aplicável.,FALSE
61018518 - Reagentes,Ajuste Direto Regime Geral,Aquisição de bens móveis,"33000000-0, Equipamento médico, medicamentos e produtos para cuidados pessoais","Unidade Local de Saúde do Norte Alentejano, E. P. E. (508094461)","Biomerieux Portugal, Lda (501524177)","194,43 €",24-09-2018,24-05-2018,1 dias,"Portugal, Portalegre, Elvas","Artigo 24.º, n.º 1, alínea e), subalínea ii) do Código dos Contratos Públicos","","",,,,Não aplicável.,Não aplicável.,FALSE
61018518 - Reagentes,Ajuste Direto Regime Geral,Aquisição de bens móveis,"33000000-0, Equipamento médico, medicamentos e produtos para cuidados pessoais","Unidade Local de Saúde do Norte Alentejano, E. P. E. (508094461)",BATISTA MARQUES DIAGNOSTICA E REAGENTES (501439110),"80,00 €",24-09-2018,24-05-2018,1 dias,"Portugal, Portalegre, Elvas","Artigo 24.º, n.º 1, alínea e), subalínea ii) do Código dos Contratos Públicos","","",,,,Não aplicável.,Não aplicável.,FALSE
61018518 - Reagentes,Ajuste Direto Regime Geral,Aquisição de bens móveis,"33000000-0, Equipamento médico, medicamentos e produtos para cuidados pessoais","Unidade Local de Saúde do Norte Alentejano, E. P. E. (508094461)",Alere Lda (502518863),"70,00 €",24-09-2018,24-05-2018,1 dias,"Portugal, Portalegre, Elvas","Artigo 24.º, n.º 1, alínea e), subalínea ii) do Código dos Contratos Públicos","","",,,,Não aplicável.,Não aplicável.,FALSE
61018518 - Reagentes,Ajuste Direto Regime Geral,Aquisição de bens móveis,"33000000-0, Equipamento médico, medicamentos e produtos para cuidados pessoais","Unidade Local de Saúde do Norte Alentejano, E. P. E. (508094461)",Menarini Diagnosticos (502610069),"856,00 €",24-09-2018,24-05-2018,1 dias,"Portugal, Portalegre, Elvas","Artigo 24.º, n.º 1, alínea e), subalínea ii) do Código dos Contratos Públicos","","",,,,Não aplicável.,Não aplicável.,FALSE
Fornecimento de Material aplicado em Prótese Total do Ombro,Ajuste Direto Regime Geral,Aquisição de bens móveis,"33000000-0, Equipamento médico, medicamentos e produtos para cuidados pessoais","Unidade Local de Saúde do Norte Alentejano, E. P. E. (508094461)","Lima Implantes, Portugal (508634784)","2.610,00 €",21-09-2018,19-09-2018,1 dias,"Portugal, Portalegre, Portalegre","Artigo 24.º, n.º 1, alínea c) do Código dos Contratos Públicos","","",,,,Não aplicável.,Não aplicável.,FALSE
61018918 - Reagentes,Ajuste Direto Regime Geral,Aquisição de bens móveis,"33000000-0, Equipamento médico, medicamentos e produtos para cuidados pessoais","Unidade Local de Saúde do Norte Alentejano, E. P. E. (508094461)","ROCHE SISTEMAS DE DIAGNOSTICOS, LDA     (504282921)","1.044,70 €",21-09-2018,24-05-2018,1 dias,"Portugal, Portalegre, Elvas","Artigo 24.º, n.º 1, alínea e), subalínea ii) do Código dos Contratos Públicos","","",,,,Não aplicável.,Não aplicável.,FALSE
61018918 - Reagentes,Ajuste Direto Regime Geral,Aquisição de bens móveis,"33000000-0, Equipamento médico, medicamentos e produtos para cuidados pessoais","Unidade Local de Saúde do Norte Alentejano, E. P. E. (508094461)",Thermo Fisher Scientific (506916243),"2.867,38 €",21-09-2018,24-05-2018,1 dias,"Portugal, Portalegre, Elvas","Artigo 24.º, n.º 1, alínea e), subalínea ii) do Código dos Contratos Públicos","","",,,,Não aplicável.,Não aplicável.,FALSE
61018918 - Reagentes,Ajuste Direto Regime Geral,Aquisição de bens móveis,"33000000-0, Equipamento médico, medicamentos e produtos para cuidados pessoais","Unidade Local de Saúde do Norte Alentejano, E. P. E. (508094461)","Biomerieux Portugal, Lda (501524177)","846,56 €",21-09-2018,24-05-2018,1 dias,"Portugal, Portalegre, Elvas","Artigo 24.º, n.º 1, alínea e), subalínea ii) do Código dos Contratos Públicos","","",,,,Não aplicável.,Não aplicável.,FALSE
61018918 - Reagentes,Ajuste Direto Regime Geral,Aquisição de bens móveis,"33000000-0, Equipamento médico, medicamentos e produtos para cuidados pessoais","Unidade Local de Saúde do Norte Alentejano, E. P. E. (508094461)",Menarini Diagnosticos (502610069),"1.000,00 €",21-09-2018,24-05-2018,1 dias,"Portugal, Portalegre, Elvas","Artigo 24.º, n.º 1, alínea e), subalínea ii) do Código dos Contratos Públicos","","",,,,Não aplicável.,Não aplicável.,FALSE
61018918 - Reagentes,Ajuste Direto Regime Geral,Aquisição de bens móveis,"33000000-0, Equipamento médico, medicamentos e produtos para cuidados pessoais","Unidade Local de Saúde do Norte Alentejano, E. P. E. (508094461)",BIOGNÓSTICA (504441256),"67,00 €",21-09-2018,24-05-2018,1 dias,"Portugal, Portalegre, Elvas","Artigo 24.º, n.º 1, alínea e), subalínea ii) do Código dos Contratos Públicos","","",,,,Não aplicável.,Não aplicável.,FALSE
61018618 - Reagentes,Ajuste Direto Regime Geral,Aquisição de bens móveis,"33000000-0, Equipamento médico, medicamentos e produtos para cuidados pessoais","Unidade Local de Saúde do Norte Alentejano, E. P. E. (508094461)",Thermo Fisher Scientific (506916243),"508,96 €",21-09-2018,24-05-2018,1 dias,"Portugal, Portalegre, Elvas","Artigo 24.º, n.º 1, alínea e), subalínea ii) do Código dos Contratos Públicos","","",,,,Não aplicável.,Não aplicável.,FALSE
61017718 - Reagentes,Ajuste Direto Regime Geral,Aquisição de bens móveis,"33000000-0, Equipamento médico, medicamentos e produtos para cuidados pessoais","Unidade Local de Saúde do Norte Alentejano, E. P. E. (508094461)",Thermo Fisher Scientific (506916243),"805,62 €",21-09-2018,09-05-2018,1 dias,"Portugal, Portalegre, Elvas","Artigo 24.º, n.º 1, alínea e), subalínea ii) do Código dos Contratos Públicos","","",,,,Não aplicável.,Não aplicável.,FALSE
61017718 - Reagentes,Ajuste Direto Regime Geral,Aquisição de bens móveis,"33000000-0, Equipamento médico, medicamentos e produtos para cuidados pessoais","Unidade Local de Saúde do Norte Alentejano, E. P. E. (508094461)",EMILIO DE AZEVEDO CAMPOS SA (500094853),"1.074,00 €",21-09-2018,09-05-2018,1 dias,"Portugal, Portalegre, Elvas","Artigo 24.º, n.º 1, alínea e), subalínea ii) do Código dos Contratos Públicos","","",,,,Não aplicável.,Não aplicável.,FALSE
61017718 - Reagentes,Ajuste Direto Regime Geral,Aquisição de bens móveis,"33000000-0, Equipamento médico, medicamentos e produtos para cuidados pessoais","Unidade Local de Saúde do Norte Alentejano, E. P. E. (508094461)",BIO-RAD LABORATORIES (501301321),"623,70 €",21-09-2018,09-05-2018,1 dias,"Portugal, Portalegre, Elvas","Artigo 24.º, n.º 1, alínea e), subalínea ii) do Código dos Contratos Públicos","","",,,,Não aplicável.,Não aplicável.,FALSE
61017618 - Reagentes,Ajuste Direto Regime Geral,Aquisição de bens móveis,"33000000-0, Equipamento médico, medicamentos e produtos para cuidados pessoais","Unidade Local de Saúde do Norte Alentejano, E. P. E. (508094461)","VWR International - Material de Laboratório, Lda (503842770)","1.360,14 €",21-09-2018,09-05-2018,1 dias,"Portugal, Portalegre, Elvas","Artigo 24.º, n.º 1, alínea e), subalínea ii) do Código dos Contratos Públicos","","",,,,Não aplicável.,Não aplicável.,FALSE
61017618 - Reagentes,Ajuste Direto Regime Geral,Aquisição de bens móveis,"33000000-0, Equipamento médico, medicamentos e produtos para cuidados pessoais","Unidade Local de Saúde do Norte Alentejano, E. P. E. (508094461)","STAGO PORTUGAL, UNIPESSOAL, LDA (509952976)","6.045,09 €",21-09-2018,09-05-2018,1 dias,"Portugal, Portalegre, Elvas","Artigo 24.º, n.º 1, alínea e), subalínea ii) do Código dos Contratos Públicos","","",,,,Não aplicável.,Não aplicável.,FALSE
"PRESTAÇÃO SERVIÇOS DE ALIGUER DE 10 VENTILADORES PARA VENTILAÇÃO NÃO INVASIVA PARA DIVERSOS SERVIÇOS DA ULSNA,EPE",Ajuste Direto Regime Geral,Aquisição de serviços,"85100000-0, Serviços de saúde","Unidade Local de Saúde do Norte Alentejano, E. P. E. (508094461)","LINDE SAÚDE, LDA. (500125546)","12.100,00 €",21-09-2018,01-06-2018,365 dias,"Portugal, Portalegre, Portalegre","Artigo 20.º, n.º 1, alínea d) do Código dos Contratos Públicos",01-06-2018,"12.100,00 €",,,,Não aplicável.,Não aplicável.,FALSE
"Prestação de serviços de suporte e manutenção, incluindo fornecimento de Consumíveis para todo o Parque de Impressão da ULSNA, EPE",Ajuste Direto Regime Geral,Aquisição de serviços,"72600000-6, Serviços de consultoria e assistência informáticas","Unidade Local de Saúde do Norte Alentejano, E. P. E. (508094461)",Informantem (503670693),"75.639,04 €",21-09-2018,28-08-2018,240 dias,"Portugal, Portalegre","Artigo 24.º, n.º 1, alínea c) do Código dos Contratos Públicos","","",,,,Não aplicável.,Não aplicável.,FALSE
"61024518-AD-2018-73-AQUISIÇÃO DE MEDICAMENTOS DESENCADEADA PELA SPMS,EPE NO ÂMBITO DO DESPACHO 1571/b 2016 - U20.",Ajuste Direto Regime Geral,Aquisição de bens móveis,"33600000-6, Produtos farmacêuticos","Unidade Local de Saúde do Norte Alentejano, E. P. E. (508094461)",Janssen (500189412),"36.668,85 €",21-09-2018,03-09-2018,1 dias,"Portugal, Portalegre, Elvas","Artigo 24.º, n.º 1, alínea e), subalínea ii) do Código dos Contratos Públicos","","",,,,Não aplicável.,Não aplicável.,FALSE
