Objeto do Contrato,Tipo de Procedimento,Tipo(s) de Contrato,CPVs,Entidade(s) Adjudicante(s),Entidade(s) Adjudicatária(s),Preço Contratual,Data de Publicação,Data de Celebração do Contrato,Prazo de Execução,Local de Execução,Fundamentação,Data de Fecho do Contrato,Preço Total Efetivo,Causas das Alterações ao Prazo,Causas das Alterações ao Preço,Estado,N.º registo do Acordo Quadro,Descrição do Acordo Quadro,Procedimento Centralizado
AQUISIÇÃO DE SISTEMA WIRELESS ABERTO UTENTES - SAMA,Consulta Prévia,Aquisição de serviços,"72315000-6, Serviços de apoio e gestão de redes de dados","Unidade Local de Saúde da Guarda, E. P. E. (508752000)",Gonkys S.A. (510874169),"3.300,00 €",14-09-2018,27-08-2018,15 dias,"Portugal, Guarda, Guarda","Artigo 20.º, n.º 1, alínea c) do Código dos Contratos Públicos",,,,,,Não aplicável.,Não aplicável.,FALSE
AQUISIÇÃO DE TECNICAS ESPECIAIS (CORE) PARA 5 MESES DE 2018,Ajuste Direto Regime Geral,Aquisição de bens móveis<br/>Aquisição de serviços,"33000000-0, Equipamento médico, medicamentos e produtos para cuidados pessoais","Unidade Local de Saúde da Guarda, E. P. E. (508752000)",BIOMERIEUX PORTUGAL (501524177),"62.340,00 €",14-09-2018,17-08-2018,150 dias,"Portugal, Guarda, Guarda","Artigo 24.º, n.º 1, alínea e), subalínea ii) do Código dos Contratos Públicos",,,,,,Não aplicável.,Não aplicável.,FALSE
"ALUGUER DE EQUIPAMENTOS DE VENTILAÇÃO NÃO INVASIVA E DE TOSSE ASSISTIDA PARA O SERVIÇO DE PNEUMOLOGIA, UCIP E URGÊNCIA GERAL DE 01-06-2018 A 31-12-2018",Consulta Prévia,Aquisição de serviços<br/>Aquisição de bens móveis,"33190000-8, Dispositivos e produtos médicos variados","Unidade Local de Saúde da Guarda, E. P. E. (508752000)","Linde Saúde, Lda. (500125546)","21.597,90 €",14-09-2018,21-05-2018,210 dias,"Portugal, Guarda, Guarda","Artigo 20.º, n.º 1, alínea c) do Código dos Contratos Públicos",,,,,,Não aplicável.,Não aplicável.,FALSE
"Aluguer de equipamentos de ventilação não invasiva e de tosse assistida para o serviço de Pneumologia, UCIP e Urgência Geral de 01-01-2018 a 31-05-2018",Ajuste Direto Regime Geral,Aquisição de bens móveis,"33190000-8, Dispositivos e produtos médicos variados","Unidade Local de Saúde da Guarda, E. P. E. (508752000)","Linde Saúde - Sociedade Unipessoal, Lda (500125546)","13.005,50 €",14-09-2018,24-05-2018,150 dias,"Portugal, Guarda, Guarda","Artigo 20.º, n.º 1, alínea d) do Código dos Contratos Públicos",,,,,,Não aplicável.,Não aplicável.,FALSE
