Objeto do Contrato,Tipo de Procedimento,Tipo(s) de Contrato,CPVs,Entidade(s) Adjudicante(s),Entidade(s) Adjudicatária(s),Preço Contratual,Data de Publicação,Data de Celebração do Contrato,Prazo de Execução,Local de Execução,Fundamentação,Data de Fecho do Contrato,Preço Total Efetivo,Causas das Alterações ao Prazo,Causas das Alterações ao Preço,Estado,N.º registo do Acordo Quadro,Descrição do Acordo Quadro,Procedimento Centralizado
AM_176_2017 Aquisição de Medicamentos,Ajuste Direto Regime Geral,Aquisição de bens móveis,"33000000-0, Equipamento médico, medicamentos e produtos para cuidados pessoais","Administração Regional de Saúde do Algarve, I. P. (503148709)",GlaxoSmithkline (500276994),"1.486,20 €",31-05-2017,13-04-2017,365 dias,"Portugal, Faro, Faro","Artigo 24.º, n.º 1, alínea e) do Código dos Contratos Públicos","","",,"",,Não aplicável.,Não aplicável.,FALSE
AM_177_2017 - Aquisição de Medicamentos,Ajuste Direto Regime Geral,Aquisição de bens móveis,"33000000-0, Equipamento médico, medicamentos e produtos para cuidados pessoais","Administração Regional de Saúde do Algarve, I. P. (503148709)",Overpharma (505792362),"6.418,26 €",31-05-2017,13-04-2017,365 dias,"Portugal, Faro, Faro","Artigo 24.º, n.º 1, alínea e) do Código dos Contratos Públicos","","",,"",,Não aplicável.,Não aplicável.,FALSE
AM_173_2017 Aquisição de Medicamentos,Ajuste Direto Regime Geral,Aquisição de bens móveis,"33000000-0, Equipamento médico, medicamentos e produtos para cuidados pessoais","Administração Regional de Saúde do Algarve, I. P. (503148709)",Materfarma (503320668),"83,00 €",31-05-2017,19-05-2017,365 dias,"Portugal, Faro, Faro","Artigo 24.º, n.º 1, alínea e) do Código dos Contratos Públicos","","",,"",,Não aplicável.,Não aplicável.,FALSE
AM/154/2017 - Aquisição de Clonazepam e Midazolam,Ajuste Direto Regime Geral,Aquisição de bens móveis,"33690000-3, Medicamentos vários","Administração Regional de Saúde do Algarve, I. P. (503148709)","Roche - Farmacêutica Química, Lda. (500233810)","193,55 €",31-05-2017,31-05-2017,214 dias,"Portugal, Faro, Faro","Artigo 24.º, n.º 1, alínea e) do Código dos Contratos Públicos",14-12-2017,"38,22 €",,Quantidades encomendadas.,,Não aplicável.,Não aplicável.,FALSE
SP/110/2017 - Aquisição de vacina Hexavalente - Quantidades adicionais,Ao abrigo de acordo-quadro (art.º 259.º),Aquisição de bens móveis,"33651600-4, Vacinas","Administração Regional de Saúde do Algarve, I. P. (503148709)","Sanofi - Produtos Farmacêuticos, Lda. (500134960)","19.645,00 €",25-05-2017,25-05-2017,214 dias,"Portugal, Faro, Faro",Artigo 259.º do Código dos Contratos Públicos,30-05-2017,"19.645,00 €",,"",,2327827,CP 2016/13-A - Acordo Quadro para fornecimento de Vacinas e Tuberculinas - Parte II,FALSE
AM/164/2017 - Aquisição de Isoniazida,Ajuste Direto Regime Geral,Aquisição de bens móveis,"33690000-3, Medicamentos vários","Administração Regional de Saúde do Algarve, I. P. (503148709)",Laboratório Militar de Produtos Quimicos e Farmaceuticos (600019675),"3.344,40 €",24-05-2017,24-05-2017,214 dias,"Portugal, Faro, Faro","Artigo 24.º, n.º 1, alínea e) do Código dos Contratos Públicos",21-12-2017,"3.067,20 €",,Quantidades encomendadas.,,Não aplicável.,Não aplicável.,FALSE
AM 196/2017 - Aquisição de reagentes para Controlo da Qualidade da Agua para as USP,Ajuste Direto Regime Geral,Aquisição de bens móveis,"33696500-0, Reagentes de laboratório","Administração Regional de Saúde do Algarve, I. P. (503148709)","Hanna Instruments Portugal - Instrumentos de Controle, Lda (502540141)","692,00 €",24-05-2017,24-05-2017,222 dias,"Portugal, Faro, Faro","Artigo 24.º, n.º 1, alínea e) do Código dos Contratos Públicos",06-06-2017,"692,00 €",,"",,Não aplicável.,Não aplicável.,FALSE
Ajudas Técnicas para doentes do CMRSul,Ajuste Direto Regime Geral,Aquisição de bens móveis,"33141700-7, Material ortopédico","Administração Regional de Saúde do Algarve, I. P. (503148709)","Ortomedicinal, Lda. (501394605)","11.591,50 €",22-05-2017,10-05-2017,223 dias,"Portugal, Faro, Faro","Artigo 20.º, n.º 1, alínea a) do Código dos Contratos Públicos","","",,"",,Não aplicável.,Não aplicável.,FALSE
Ajudas Técnicas para doentes do CMRSul,Ajuste Direto Regime Geral,Aquisição de bens móveis,"33141700-7, Material ortopédico","Administração Regional de Saúde do Algarve, I. P. (503148709)","Ergométrica, Lda. (502111216)","36.912,00 €",22-05-2017,10-05-2017,223 dias,"Portugal, Faro, Faro","Artigo 20.º, n.º 1, alínea a) do Código dos Contratos Públicos","","",,"",,Não aplicável.,Não aplicável.,FALSE
Ajudas Técnicas para doentes do CMRSul,Ajuste Direto Regime Geral,Aquisição de bens móveis,"33141700-7, Material ortopédico","Administração Regional de Saúde do Algarve, I. P. (503148709)","Mobilitec, Lda. (506343910)","15.064,31 €",22-05-2017,10-05-2017,223 dias,"Portugal, Faro, Faro","Artigo 20.º, n.º 1, alínea a) do Código dos Contratos Públicos","","",,"",,Não aplicável.,Não aplicável.,FALSE
Ajudas Técnicas para doentes do CMRSul,Ajuste Direto Regime Geral,Aquisição de bens móveis,"33141700-7, Material ortopédico","Administração Regional de Saúde do Algarve, I. P. (503148709)","Anditec, Lda. (502551097)","2.476,65 €",22-05-2017,04-05-2017,223 dias,"Portugal, Faro, Faro","Artigo 20.º, n.º 1, alínea a) do Código dos Contratos Públicos","","",,"",,Não aplicável.,Não aplicável.,FALSE
Ajudas Técnicas para Doentes do CMRSul,Ajuste Direto Regime Geral,Aquisição de bens móveis,"33141700-7, Material ortopédico","Administração Regional de Saúde do Algarve, I. P. (503148709)",Interorto  (503889946),"703,09 €",22-05-2017,04-05-2017,223 dias,"Portugal, Faro, Faro","Artigo 20.º, n.º 1, alínea a) do Código dos Contratos Públicos","","",,"",,Não aplicável.,Não aplicável.,FALSE
SC/91/2017 - Aquisição de Medicamentos Gerais.2,Ao abrigo de acordo-quadro (art.º 259.º),Aquisição de bens móveis,"33690000-3, Medicamentos vários","Administração Regional de Saúde do Algarve, I. P. (503148709)","Pharmakern Portugal - Produtos Farmacêuticos Sociedade Unipessoal, Lda. (507002571)","16,47 €",22-05-2017,22-05-2017,240 dias,"Portugal, Faro, Faro",Artigo 259.º do Código dos Contratos Públicos,24-05-2017,"16,47 €",,"",,1638654,CP 2015/12 - Acordo quadro para fornecimento de Medicamentos do Aparelho Respiratório às Instituições e Serviços do Serviço Nacional de Saúde,FALSE
SC/91/2017 - Aquisição de Medicamentos Gerais.2,Ao abrigo de acordo-quadro (art.º 259.º),Aquisição de bens móveis,"33690000-3, Medicamentos vários","Administração Regional de Saúde do Algarve, I. P. (503148709)","Clinifar - Produtos Clinicos Farmacêuticos, S.A. (503281115)","261,36 €",22-05-2017,22-05-2017,294 dias,"Portugal, Faro, Faro",Artigo 259.º do Código dos Contratos Públicos,24-05-2017,"261,36 €",,"",,1638654,CP 2015/12 - Acordo quadro para fornecimento de Medicamentos do Aparelho Respiratório às Instituições e Serviços do Serviço Nacional de Saúde,FALSE
