Objeto do Contrato,Tipo de Procedimento,Tipo(s) de Contrato,CPVs,Entidade(s) Adjudicante(s),Entidade(s) Adjudicatária(s),Preço Contratual,Data de Publicação,Data de Celebração do Contrato,Prazo de Execução,Local de Execução,Fundamentação,Data de Fecho do Contrato,Preço Total Efetivo,Causas das Alterações ao Prazo,Causas das Alterações ao Preço,Estado,N.º registo do Acordo Quadro,Descrição do Acordo Quadro,Procedimento Centralizado
"Despesa com os consumos de electricidade para o período de Setembro a Dezembro de 2011, nas instalações daq Delegação Regional do Algarvel.",Ajuste Direto Regime Geral,Aquisição de serviços,"71314100-3, Serviços de electricidade","Instituto Nacional de Emergência Médica, IP (501356126)","EDP - DISTRIBUIÇÃO ENERGIA, SA (504394029)","3.450,00 €",21-11-2011,18-11-2011,30 dias,"Portugal, Lisboa, Lisboa","Artigo 24.º, n.º 1, alínea e) do Código dos Contratos Públicos",,,,,,Não aplicável.,Não aplicável.,
"Reparação de 2 LP 12 s/n 13083109, 11984086.",Ajuste Direto Regime Geral,Aquisição de serviços,"50000000-5, Serviços de reparação e manutenção","Instituto Nacional de Emergência Médica, IP (501356126)","MEDTRONIC, LDA. (504223933)","2.634,21 €",21-11-2011,18-11-2011,30 dias,"Portugal, Lisboa, Lisboa","Artigo 24.º, n.º 1, alínea e) do Código dos Contratos Públicos",,,,,,Não aplicável.,Não aplicável.,
"REPARAÇÃO DE 6 ASPIRADORES WEINMANN, s/n 16892, 17669, 2083, 3932, 21017, 21142.",Ajuste Direto Regime Geral,Aquisição de serviços,"50000000-5, Serviços de reparação e manutenção","Instituto Nacional de Emergência Médica, IP (501356126)","FUTURVIDA, LDA. (504260510)","1.224,28 €",18-11-2011,25-09-2011,30 dias,"Portugal, Lisboa, Lisboa","Artigo 24.º, n.º 1, alínea e) do Código dos Contratos Públicos",,,,,,Não aplicável.,Não aplicável.,
PRESTAÇÃO DE SERVIÇOS POR EMPRESA DE RECURSOS HUMANOS - ENFERMEIROS - HORAS QUALIDADE,Ajuste Direto Regime Geral,Aquisição de serviços,"79620000-6, Serviços de fornecimento de pessoal, inclusive temporário","Instituto Nacional de Emergência Médica, IP (501356126)","PSICOTEMPOS, LDA. (504617010)","2.008,22 €",18-11-2011,17-11-2011,30 dias,"Portugal, Lisboa, Lisboa","Artigo 24.º, n.º 1, alínea e) do Código dos Contratos Públicos",,,,,,Não aplicável.,Não aplicável.,
PRESTAÇÃO DE SERVIÇO POR EMPRESA DE RECURSOS HUMANOS - TAE E TOTE - HORAS EM DIA DE FERIADO,Ajuste Direto Regime Geral,Aquisição de serviços,"79620000-6, Serviços de fornecimento de pessoal, inclusive temporário","Instituto Nacional de Emergência Médica, IP (501356126)","PSICOTEMPOS, LDA. (504617010)","318,00 €",18-11-2011,17-11-2011,30 dias,"Portugal, Lisboa, Lisboa","Artigo 24.º, n.º 1, alínea e) do Código dos Contratos Públicos",,,,,,Não aplicável.,Não aplicável.,
PRESTAÇÃO DE SERVIÇOS POR EMPRESA DE RECURSOS HUMANOS - TOTE - HORAS EM DIA FERIADO,Ajuste Direto Regime Geral,Aquisição de serviços,"79620000-6, Serviços de fornecimento de pessoal, inclusive temporário","Instituto Nacional de Emergência Médica, IP (501356126)","PSICOTEMPOS, LDA. (504617010)","445,20 €",18-11-2011,17-11-2011,30 dias,"Portugal, Lisboa, Lisboa","Artigo 24.º, n.º 1, alínea e) do Código dos Contratos Públicos",,,,,,Não aplicável.,Não aplicável.,
PRESTAÇÃO DE SERVIÇOS POR EMPRESA DE RECURSOS HUMANOS - TOTE E TAE - HORAS EM DIA FERIADO,Ajuste Direto Regime Geral,Aquisição de serviços,"79620000-6, Serviços de fornecimento de pessoal, inclusive temporário","Instituto Nacional de Emergência Médica, IP (501356126)","PSICOTEMPOS, LDA. (504617010)","826,80 €",18-11-2011,14-11-2011,30 dias,"Portugal, Lisboa, Lisboa","Artigo 24.º, n.º 1, alínea e) do Código dos Contratos Públicos",,,,,,Não aplicável.,Não aplicável.,
"Aquisição de 3 frigorificos destinados aos armazéns satelites (Algarve, Porto, Coimbra), para o acondicionamento de medicamentos.",Ajuste Direto Regime Geral,Aquisição de bens móveis,"39711130-9, Frigoríficos","Instituto Nacional de Emergência Médica, IP (501356126)","A ICORMEL, LDA. (502891220)","4.629,00 €",16-11-2011,11-10-2011,30 dias,"Portugal, Lisboa, Lisboa","Artigo 20.º, n.º 1, alínea a) do Código dos Contratos Públicos",,,,,,Não aplicável.,Não aplicável.,
"Reparação de LP 12 sn 32203617, 32205894, 13083107, 30290031.",Ajuste Direto Regime Geral,Aquisição de serviços,"50000000-5, Serviços de reparação e manutenção","Instituto Nacional de Emergência Médica, IP (501356126)","MEDTRONIC, LDA. (504223933)","4.678,37 €",16-11-2011,10-11-2011,30 dias,"Portugal, Lisboa, Lisboa","Artigo 24.º, n.º 1, alínea e) do Código dos Contratos Públicos",,,,,,Não aplicável.,Não aplicável.,
"Fornecimento de 800 mascaras de insuflador manual nº 4(descartável), 700 mascara de insuflador manual nº5, 300 mascara lanringea nº1, 100 mascara lanrigea nº5, 25 peça de ligação em T p/doente entubado não ventilado, 20 traqueia simples descartável para ventilador, 80 canula orofaring. Irrecup. nº000, 1200 canula orofaring. irrecup. nº3, 100 canula orofaring. irrecup. nº5, 20000 mascara inalação O2 c/tubo de conexão-adulto.",Ajuste Direto Regime Geral,Aquisição de bens móveis,"33698000-9, Produtos para fins clínicos","Instituto Nacional de Emergência Médica, IP (501356126)",INTERSURGICAL (503480045),"10.659,60 €",16-11-2011,26-06-2011,30 dias,"Portugal, Lisboa, Lisboa","Artigo 20.º, n.º 1, alínea a) do Código dos Contratos Públicos",,,,,,Não aplicável.,Não aplicável.,
"FORNECIMENTO DE 400 TALAS DE MADEIRA, ESPESSURA 3mm, COMPRIMENTO 90 cm, LARGURA 8cm.",Ajuste Direto Regime Geral,Aquisição de bens móveis,"33141760-5, Talas","Instituto Nacional de Emergência Médica, IP (501356126)","EXTINCÊNDIOS, LDA. (501390324)","720,00 €",16-11-2011,14-10-2011,30 dias,"Portugal, Lisboa, Lisboa","Artigo 20.º, n.º 1, alínea a) do Código dos Contratos Públicos",,,,,,Não aplicável.,Não aplicável.,
FORNECIMENTO DE 30 ARGALIAS FOLLEY SILICONADA CH16; 20 ARGALIA FOLLEY SILICONADA CH12; 1200 CONECTOR P/CONTROLO DIGITAL DE ASPIRAÇÃO; 500 FILTROS PARA DOENTE ENTUBADO ADULTO.,Ajuste Direto Regime Geral,Aquisição de bens móveis,"33698000-9, Produtos para fins clínicos","Instituto Nacional de Emergência Médica, IP (501356126)","H. R., LDA. (501895558)","476,05 €",15-11-2011,24-10-2011,30 dias,"Portugal, Lisboa, Lisboa","Artigo 20.º, n.º 1, alínea a) do Código dos Contratos Públicos",,,,,,Não aplicável.,Não aplicável.,
Fornecimento de 204 detergente desinfectante (comp.amónio+guanidina+n prop.) (spray 750 ml),Ajuste Direto Regime Geral,Aquisição de bens móveis,"33600000-6, Produtos farmacêuticos","Instituto Nacional de Emergência Médica, IP (501356126)","AIR LIQUIDE MEDICINAL, SA (501576436)","862,92 €",15-11-2011,07-11-2011,30 dias,"Portugal, Lisboa, Lisboa","Artigo 20.º, n.º 1, alínea a) do Código dos Contratos Públicos",,,,,,Não aplicável.,Não aplicável.,
"FORNECIMENTO DE 60000 LUVAS DE EXAME EM LATEX, N/ESTÉRIL, SEM PÓ, TAM. L E 2000 PENSOS RÁPIDOS ESTÉREIS 19x72mm.",Ajuste Direto Regime Geral,Aquisição de bens móveis,"18424300-0, Luvas descartáveis<BR/>33141110-4, Pensos","Instituto Nacional de Emergência Médica, IP (501356126)","EZEQUIEL PANÃO JORGE, LDA. (501412727)","1.978,00 €",15-11-2011,04-11-2011,30 dias,"Portugal, Lisboa, Lisboa","Artigo 26.º, n.º 1, alínea e) do Código dos Contratos Públicos",,,,,,Não aplicável.,Não aplicável.,
FORNECIMENTO DE 160 BATERIAS PARA LP12.,Ajuste Direto Regime Geral,Aquisição de bens móveis,"31440000-2, Baterias","Instituto Nacional de Emergência Médica, IP (501356126)","MEDTRONIC, LDA. (504223933)","57.600,00 €",15-11-2011,07-11-2011,30 dias,"Portugal, Lisboa, Lisboa","Artigo 24.º, n.º 1, alínea e) do Código dos Contratos Públicos",,,,,,Não aplicável.,Não aplicável.,
AQUISIÇÃO DE SISTEMA DE RADIOGRAFIA COMPUTADORIZADA,Ajuste Direto Regime Geral,Aquisição de bens móveis,"33111800-9, Sistema de diagnóstico radiológico","Instituto Nacional de Emergência Médica, IP (501356126)","FUJIFILM PORTUGAL, LDA. (500134936)","16.750,00 €",14-11-2011,10-10-2011,30 dias,"Portugal, Lisboa, Lisboa","Artigo 20.º, n.º 1, alínea a) do Código dos Contratos Públicos",,,,,,Não aplicável.,Não aplicável.,
FORNECIMENTO DE 15 LEITORES DE CARTÃO DE CIDADÃO.,Ajuste Direto Regime Geral,Aquisição de bens móveis,"30216000-6, Leitores magnéticos ou ópticos","Instituto Nacional de Emergência Médica, IP (501356126)","CPCIS, SA (501267255)","181,50 €",14-11-2011,10-11-2011,30 dias,"Portugal, Lisboa, Lisboa","Artigo 20.º, n.º 1, alínea a) do Código dos Contratos Públicos",,,,,,Não aplicável.,Não aplicável.,
ASSISTÊNCIA TÈCNICA Á APLICAÇÃO SIADEM,Ajuste Direto Regime Geral,Aquisição de serviços,"72611000-6, Serviços de assistência técnica informática","Instituto Nacional de Emergência Médica, IP (501356126)","INTERGRAPH, SA (502679468)","29.213,28 €",14-11-2011,03-10-2011,30 dias,"Portugal, Lisboa, Lisboa","Artigo 24.º, n.º 1, alínea e) do Código dos Contratos Públicos",,,,,,Não aplicável.,Não aplicável.,
FORNECIMENTO DE 300 ESPONJAS DE GELATINA ESTÉRIL 80X50X10mm,Ajuste Direto Regime Geral,Aquisição de bens móveis,"33600000-6, Produtos farmacêuticos","Instituto Nacional de Emergência Médica, IP (501356126)","CLINIFAR, SA (503281115)","576,00 €",14-11-2011,13-11-2011,30 dias,"Portugal, Lisboa, Lisboa","Artigo 24.º, n.º 1, alínea e) do Código dos Contratos Públicos",,,,,,Não aplicável.,Não aplicável.,
PRESTAÇÃO DE SERVIÇO POR EMPRESA DE RECURSOS HUMANOS - TOTE E TAE - HORAS EM DIA FERIADO,Ajuste Direto Regime Geral,Aquisição de serviços,"79620000-6, Serviços de fornecimento de pessoal, inclusive temporário","Instituto Nacional de Emergência Médica, IP (501356126)","PSICOTEMPOS, LDA. (504617010)","826,80 €",14-11-2011,14-11-2011,30 dias,"Portugal, Lisboa, Lisboa","Artigo 24.º, n.º 1, alínea e) do Código dos Contratos Públicos",,,,,,Não aplicável.,Não aplicável.,
