Objeto do Contrato,Tipo de Procedimento,Tipo(s) de Contrato,CPVs,Entidade(s) Adjudicante(s),Entidade(s) Adjudicatária(s),Preço Contratual,Data de Publicação,Data de Celebração do Contrato,Prazo de Execução,Local de Execução,Fundamentação,Data de Fecho do Contrato,Preço Total Efetivo,Causas das Alterações ao Prazo,Causas das Alterações ao Preço,Estado,N.º registo do Acordo Quadro,Descrição do Acordo Quadro,Procedimento Centralizado
Aquisição de peças para repareção micropipetas,Ajuste Direto Regime Geral,Aquisição de bens móveis,"33140000-3, Material médico de consumo","Instituto Nacional de Saúde Dr. Ricardo Jorge, I. P. (501427511)","FISHER SCIENTIFIC, UNIPESSOAL (506429210)","469,99 €",30-01-2015,07-11-2014,68 dias,"Portugal, Lisboa, Lisboa","Artigo 20.º, n.º 1, alínea a) do Código dos Contratos Públicos",,,,,,Não aplicável.,Não aplicável.,FALSE
Aquisição de reagentes,Ajuste Direto Regime Geral,Aquisição de bens móveis,"33696000-5, Reagentes e meios de contraste","Instituto Nacional de Saúde Dr. Ricardo Jorge, I. P. (501427511)",Hach Lange (507155165),"5.873,40 €",30-01-2015,17-07-2014,178 dias,"Portugal, Lisboa, Lisboa","Artigo 26.º, n.º 1, alínea b) do Código dos Contratos Públicos",,,,,,Não aplicável.,Não aplicável.,FALSE
Aquisição de reagentes para fins exclusivos de investigação,Ajuste Direto Regime Geral,Aquisição de bens móveis,"33140000-3, Material médico de consumo","Instituto Nacional de Saúde Dr. Ricardo Jorge, I. P. (501427511)","Sarstedt- Tecnologia de Laboratório, Lda (503019461)","10.830,00 €",30-01-2015,13-11-2014,90 dias,"Portugal, Lisboa, Lisboa","Artigo 26.º, n.º 1, alínea b) do Código dos Contratos Públicos",,,,,,Não aplicável.,Não aplicável.,FALSE
Aquisição de serviços de impermeabilização dos lagos do jardim no INSA,Ajuste Direto Regime Geral,Aquisição de serviços,"50800000-3, Serviços de reparação e manutenção diversos","Instituto Nacional de Saúde Dr. Ricardo Jorge, I. P. (501427511)","Flora Garden, Lda (505634848)","5.373,00 €",29-01-2015,30-12-2014,90 dias,"Portugal, Lisboa, Lisboa","Artigo 20.º, n.º 1, alínea a) do Código dos Contratos Públicos",,,,,,Não aplicável.,Não aplicável.,FALSE
Reparação de peças autoclave,Ajuste Direto Regime Geral,Aquisição de bens móveis,"33191110-9, Autoclaves","Instituto Nacional de Saúde Dr. Ricardo Jorge, I. P. (501427511)",Steryl (508051711),"377,55 €",28-01-2015,05-05-2014,30 dias,"Portugal, Lisboa, Lisboa","Artigo 20.º, n.º 4 do Código dos Contratos Públicos",,,,,,Não aplicável.,Não aplicável.,FALSE
Peças para micóscópio electronico,Ajuste Direto Regime Geral,Aquisição de bens móveis,"38510000-3, Microscópios","Instituto Nacional de Saúde Dr. Ricardo Jorge, I. P. (501427511)",Fei Europe BV Sucursal EN ESPANa (W0032378B),"956,00 €",28-01-2015,20-11-2014,30 dias,"Portugal, Lisboa, Lisboa","Artigo 20.º, n.º 1, alínea a) do Código dos Contratos Públicos",,,,,,Não aplicável.,Não aplicável.,FALSE
20140753 - Aquisição de equipamentos de refrigeração e congelação,Ajuste Direto Regime Geral,Aquisição de bens móveis,"42513000-5, Equipamento de refrigeração e congelação","Instituto Nacional de Saúde Dr. Ricardo Jorge, I. P. (501427511)",Frilabo II (507958861),"27.639,00 €",26-01-2015,03-12-2014,27 dias,"Portugal, Lisboa, Lisboa","Artigo 26.º, n.º 1, alínea b) do Código dos Contratos Públicos",,,,,,Não aplicável.,Não aplicável.,FALSE
20140520- Aquisição de equipamento de comunicação e voz,Ajuste Direto Regime Geral,Aquisição de bens móveis,"32200000-5, Aparelhos emissores para radiotelefonia, radiotelegrafia, radiodifusão e televisão","Instituto Nacional de Saúde Dr. Ricardo Jorge, I. P. (501427511)","El Corte Ingês Informática, S.A. (980079659)","1.960,00 €",21-01-2015,09-09-2014,123 dias,"Portugal, Lisboa, Lisboa","Artigo 20.º, n.º 1, alínea a) do Código dos Contratos Públicos",,,,,,Não aplicável.,Não aplicável.,FALSE
