Objeto do Contrato,Tipo de Procedimento,Tipo(s) de Contrato,CPVs,Entidade(s) Adjudicante(s),Entidade(s) Adjudicatária(s),Preço Contratual,Data de Publicação,Data de Celebração do Contrato,Prazo de Execução,Local de Execução,Fundamentação,Data de Fecho do Contrato,Preço Total Efetivo,Causas das Alterações ao Prazo,Causas das Alterações ao Preço,Estado,N.º registo do Acordo Quadro,Descrição do Acordo Quadro,Procedimento Centralizado
"Aquisição  de 30 seringas (Adalimumab 40mg/0,8ml - caneta)",Ajuste Direto Regime Geral,Aquisição de bens móveis,"33600000-6, Produtos farmacêuticos","Unidade Local de Saúde de Castelo Branco, E. P. E. (509309844)","ABBVIE, LDA (510229050)","14.085,00 €",07-09-2012,16-08-2012,5 dias,"Portugal, Castelo Branco, Castelo Branco","Artigo 26.º, n.º 1, alínea e) do Código dos Contratos Públicos",21-08-2012,"14.085,00 €",,,,Não aplicável.,Não aplicável.,
Aquisição de 25 ampolas Factor Anti hemof. 1ooo u (fator VIII),Ajuste Direto Regime Geral,Aquisição de bens móveis,"33600000-6, Produtos farmacêuticos","Unidade Local de Saúde de Castelo Branco, E. P. E. (509309844)","BAXTER MEDICO-FARMACEUTICA,LDA (503347345)","16.725,00 €",06-09-2012,03-09-2012,5 dias,"Portugal, Castelo Branco, Castelo Branco","Artigo 26.º, n.º 1, alínea e) do Código dos Contratos Públicos",07-09-2012,"16.725,00 €",,,,Não aplicável.,Não aplicável.,
Aquisição 40 seringas Interferao Beta 1A 6 milhões 30Mcg,Ajuste Direto Regime Geral,Aquisição de bens móveis,"33600000-6, Produtos farmacêuticos","Unidade Local de Saúde de Castelo Branco, E. P. E. (509309844)","BIOGEN IDEC PORTUGAL, LDA (506415740)","7.749,30 €",06-09-2012,03-09-2012,5 dias,"Portugal, Castelo Branco, Castelo Branco","Artigo 24.º, n.º 1, alínea e) do Código dos Contratos Públicos",05-09-2012,"7.749,30 €",,,,Não aplicável.,Não aplicável.,
30 Ampolas infliximab 100mg,Ajuste Direto Regime Geral,Aquisição de bens móveis,"33600000-6, Produtos farmacêuticos","Unidade Local de Saúde de Castelo Branco, E. P. E. (509309844)","MERCK SHARP & DOHME, LDA (500191360)","12.898,68 €",05-09-2012,14-08-2012,5 dias,"Portugal, Castelo Branco, Castelo Branco","Artigo 20.º, n.º 1, alínea a) do Código dos Contratos Públicos",22-08-2012,"12.898,68 €",,,,Não aplicável.,Não aplicável.,
Aquisição  de 6 ampolas (Factor Anti Hemof. 500 U/Factor VIII)<br/>Aquisição de 25 ampolas (Factor Anti Hemof. 1000 U/factor VIII),Ajuste Direto Regime Geral,Aquisição de bens móveis,"33600000-6, Produtos farmacêuticos","Unidade Local de Saúde de Castelo Branco, E. P. E. (509309844)","BAXTER MEDICO-FARMACEUTICA, LDA (503347345)","18.732,00 €",05-09-2012,30-08-2012,3 dias,"Portugal, Castelo Branco, Castelo Branco","Artigo 26.º, n.º 1, alínea e) do Código dos Contratos Públicos",04-09-2012,"18.732,00 €",,,,Não aplicável.,Não aplicável.,
"Reparação do TAC, colocação de ampola",Ajuste Direto Regime Geral,Aquisição de serviços,"50000000-5, Serviços de reparação e manutenção","Unidade Local de Saúde de Castelo Branco, E. P. E. (509309844)","SIEMENS,SA (500247480)","68.000,00 €",05-09-2012,30-08-2012,3 dias,"Portugal, Castelo Branco, Castelo Branco","Artigo 24.º, n.º 1, alínea e) do Código dos Contratos Públicos",17-09-2012,"68.000,00 €",,,,Não aplicável.,Não aplicável.,
Aquisição de 80 canetas (Etanercept 50mg/1ml - caneta),Ajuste Direto Regime Geral,Aquisição de bens móveis,"33600000-6, Produtos farmacêuticos","Unidade Local de Saúde de Castelo Branco, E. P. E. (509309844)","Laboratórios Pfizer, Lda (500162166)","17.523,57 €",05-09-2012,30-08-2012,3 dias,"Portugal, Castelo Branco, Castelo Branco","Artigo 20.º, n.º 1, alínea a) do Código dos Contratos Públicos",04-09-2012,"17.523,57 €",,,,Não aplicável.,Não aplicável.,
150 Seringas Interferao Beta 1 B,Ajuste Direto Regime Geral,Aquisição de bens móveis,"33600000-6, Produtos farmacêuticos","Unidade Local de Saúde de Castelo Branco, E. P. E. (509309844)","NOVARTIS FARMA,S.A (500063524)","7.768,68 €",05-09-2012,16-08-2012,5 dias,"Portugal, Castelo Branco, Castelo Branco","Artigo 26.º, n.º 1, alínea e) do Código dos Contratos Públicos",10-09-2012,"7.768,68 €",,,,Não aplicável.,Não aplicável.,
"Aquisição de 6 canetas (Golimumab 50 mg/0,5 ml)",Ajuste Direto Regime Geral,Aquisição de bens móveis,"33600000-6, Produtos farmacêuticos","Unidade Local de Saúde de Castelo Branco, E. P. E. (509309844)","merk Sharp & Dohme, Lda (500191360)","5.328,78 €",05-09-2012,22-08-2012,3 dias,"Portugal, Castelo Branco, Castelo Branco","Artigo 20.º, n.º 1, alínea a) do Código dos Contratos Públicos",24-08-2012,"5.328,78 €",,,,Não aplicável.,Não aplicável.,
8 ampolas Factor anti hemofil 1000 u (factor VIII),Ajuste Direto Regime Geral,Aquisição de bens móveis,"33600000-6, Produtos farmacêuticos","Unidade Local de Saúde de Castelo Branco, E. P. E. (509309844)","BAXTER MEDICO-FARMACEUTICA,L (503347345)","5.352,00 €",05-09-2012,27-08-2012,5 dias,"Portugal, Castelo Branco, Castelo Branco","Artigo 26.º, n.º 1, alínea e) do Código dos Contratos Públicos",30-08-2012,"5.352,00 €",,,,Não aplicável.,Não aplicável.,
80 frascos Sugamadex 100 mg/ml sol inj 2 ml,Ajuste Direto Regime Geral,Aquisição de bens móveis,"33600000-6, Produtos farmacêuticos","Unidade Local de Saúde de Castelo Branco, E. P. E. (509309844)","MERCK SHARP & DOHME, LDA (500191360)","6.308,76 €",05-09-2012,22-08-2012,5 dias,"Portugal, Castelo Branco, Castelo Branco","Artigo 20.º, n.º 1, alínea a) do Código dos Contratos Públicos",30-08-2012,"6.308,76 €",,,,Não aplicável.,Não aplicável.,
"Aquisição de 32 seringas ( Interferao Beta 1 A, 6 milhões-30 Mcg )",Ajuste Direto Regime Geral,Aquisição de bens móveis,"33600000-6, Produtos farmacêuticos","Unidade Local de Saúde de Castelo Branco, E. P. E. (509309844)","Biogen Idec Portugal, Lda (506415740)","6.199,44 €",05-09-2012,22-08-2012,3 dias,"Portugal, Castelo Branco, Castelo Branco","Artigo 20.º, n.º 1, alínea a) do Código dos Contratos Públicos",22-08-2012,"6.199,44 €",,,,Não aplicável.,Não aplicável.,
10 seringas Leuprorrelina 45mg pó sol inj,Ajuste Direto Regime Geral,Aquisição de bens móveis,"33600000-6, Produtos farmacêuticos","Unidade Local de Saúde de Castelo Branco, E. P. E. (509309844)","ASTELLAS FARMA, LDA. (502540249)","5.102,80 €",05-09-2012,17-08-2012,5 dias,"Portugal, Castelo Branco, Castelo Branco","Artigo 20.º, n.º 1, alínea a) do Código dos Contratos Públicos",20-08-2012,"5.102,80 €",,,,Não aplicável.,Não aplicável.,
