Objeto do Contrato,Tipo de Procedimento,Tipo(s) de Contrato,CPVs,Entidade(s) Adjudicante(s),Entidade(s) Adjudicatária(s),Preço Contratual,Data de Publicação,Data de Celebração do Contrato,Prazo de Execução,Local de Execução,Fundamentação,Data de Fecho do Contrato,Preço Total Efetivo,Causas das Alterações ao Prazo,Causas das Alterações ao Preço,Estado,N.º registo do Acordo Quadro,Descrição do Acordo Quadro,Procedimento Centralizado
Prestação de Serviços de Assistência Técnica Software Aplicacional SISCONT durante 2013,Ajuste Direto Regime Geral,Aquisição de serviços,"50324100-3, Serviços de manutenção de sistemas","Centro Hospitalar de Lisboa Ocidental, EPE (CHLO) (507618319)","SHI, Lda (507603907)","8.057,52 €",20-05-2013,20-05-2013,365 dias,"Portugal, Lisboa, Lisboa","Artigo 21.º, n.º 1, alínea a) do Código dos Contratos Públicos",,,,,,Não aplicável.,Não aplicável.,
"Aquisição e Montagem dos Sistemas de Ar Condicionado na Obra do Novo Laboratório da Procriação Médica Assistida no CHLO, EPE",Ajuste Direto Regime Geral,Empreitadas de obras públicas,"45000000-7, Construção","Centro Hospitalar de Lisboa Ocidental, EPE (507618319)","Hepafiltra, Lda (503615072)","127.261,50 €",17-05-2013,17-05-2013,120 dias,"Portugal, Lisboa, Lisboa","Artigo 19.º, alínea a) do Código dos Contratos Públicos",,,,,,Não aplicável.,Não aplicável.,
Aquisiçao de Serviços de Alimentaçao para o CHLO no mes de maio de 2013,Ajuste Direto Regime Geral,Aquisição de serviços,"55500000-5, Serviços de cantinas e de fornecimento de refeições (catering)","Centro Hospitalar de Lisboa Ocidental, EPE (CHLO) (507618319)",ITAU (500142858),"152.971,69 €",17-05-2013,13-05-2013,31 dias,"Portugal, Lisboa, Lisboa","Artigo 27.º, n.º 1, alínea a) do Código dos Contratos Públicos",,,,,,Não aplicável.,Não aplicável.,
"AQUISIÇÃO DE ANACINRA, ENTRE OUTROS, PARA 2013 ",Ajuste Direto Regime Geral,Aquisição de bens móveis,"33000000-0, Equipamento médico, medicamentos e produtos para cuidados pessoais","Centro Hospitalar de Lisboa Ocidental, EPE (507618319)","DILOFAR - DISTRIBUIÇÃO, TRANSPORTES E LOGÍSTICA, L (500563004)","20.222,29 €",15-05-2013,28-01-2013,231 dias,"Portugal, Lisboa, Lisboa","Artigo 24.º, n.º 1, alínea e) do Código dos Contratos Públicos",,,,,,Não aplicável.,Não aplicável.,
Obra de adaptação/Remodelação do 3.º piso das Consultas Externas para criação de Gabinetes Médicos no Hospital de Egas Moniz,Ajuste Direto Regime Geral,Empreitadas de obras públicas,"45000000-7, Construção","Centro Hospitalar de Lisboa Ocidental, EPE (507618319)","Cintilantêxito - Construção Civil, Lda (510619240)","36.336,78 €",15-05-2013,10-05-2013,30 dias,"Portugal, Lisboa, Lisboa","Artigo 19.º, alínea a) do Código dos Contratos Públicos",,,,,,Não aplicável.,Não aplicável.,
"Execução de sistema de distribuição de gases medicinais para a zona de consultas, laboratório e sala de pequena cirurgia do HSFX",Ajuste Direto Regime Geral,Aquisição de serviços,"50000000-5, Serviços de reparação e manutenção","Centro Hospitalar de Lisboa Ocidental, EPE (507618319)","Vedolis - Soc. Técnica Metalúrgica Instalações e Equipamentos Industriais, Lda (501260170)","14.140,00 €",14-05-2013,14-05-2013,120 dias,"Portugal, Lisboa, Lisboa","Artigo 20.º, n.º 1, alínea a) do Código dos Contratos Públicos",,,,,,Não aplicável.,Não aplicável.,
