Objeto do Contrato,Tipo de Procedimento,Tipo(s) de Contrato,CPVs,Entidade(s) Adjudicante(s),Entidade(s) Adjudicatária(s),Preço Contratual,Data de Publicação,Data de Celebração do Contrato,Prazo de Execução,Local de Execução,Fundamentação,Data de Fecho do Contrato,Preço Total Efetivo,Causas das Alterações ao Prazo,Causas das Alterações ao Preço,Estado,N.º registo do Acordo Quadro,Descrição do Acordo Quadro,Procedimento Centralizado
FILTROS P AVAC,Ajuste Direto Regime Geral,Aquisição de bens móveis,"42531000-7, Peças para equipamento de refrigeração","Centro Hospitalar Barreiro Montijo, E. P. E. (509186998)","FILTERWIN, LDA. (505915251)","5.514,09 €",18-11-2014,06-11-2014,365 dias,"Portugal, Setúbal, Barreiro<BR/>Portugal","Artigo 20.º, n.º 1, alínea a) do Código dos Contratos Públicos",31-12-2014,"4.345,37 €",,NÁO FORNECIMENTO DO MATERIAL NA TOTALIDADE,,Não aplicável.,Não aplicável.,FALSE
REVESTIMENTO IMPERMIABILIZAÇAO DOS RESERVATORIOS,Ajuste Direto Regime Geral,Empreitadas de obras públicas,"45000000-7, Construção","Centro Hospitalar Barreiro Montijo, E. P. E. (509186998)",REDECOR (500228620),"6.994,28 €",14-11-2014,31-10-2014,30 dias,"Portugal, Setúbal, Barreiro","Artigo 25.º, n.º 1, alínea a) do Código dos Contratos Públicos","","",,"",,Não aplicável.,Não aplicável.,FALSE
