Objeto do Contrato,Tipo de Procedimento,Tipo(s) de Contrato,CPVs,Entidade(s) Adjudicante(s),Entidade(s) Adjudicatária(s),Preço Contratual,Data de Publicação,Data de Celebração do Contrato,Prazo de Execução,Local de Execução,Fundamentação,Data de Fecho do Contrato,Preço Total Efetivo,Causas das Alterações ao Prazo,Causas das Alterações ao Preço,Estado,N.º registo do Acordo Quadro,Descrição do Acordo Quadro,Procedimento Centralizado
Serviços de consultoria,Ajuste Direto Regime Geral,Aquisição de serviços,"79400000-8, Serviços de consultoria em matéria comercial e de gestão e serviços conexos","Hospital do Espírito Santo de Évora, E. P. E. (508085888)","ANTARES CONSULTING-CONSULT DE GESTÃO,LDA. (505906821)","45.000,00 €",25-01-2016,01-01-2016,30 dias,"Portugal, Évora, Évora","Artigo 24.º, n.º 1, alínea e) do Código dos Contratos Públicos",,,,,,Não aplicável.,Não aplicável.,FALSE
Aquisição de porta automatica,Ajuste Direto Regime Geral,Aquisição de bens móveis,"44210000-5, Estruturas e partes de estruturas","Hospital do Espírito Santo de Évora, E. P. E. (508085888)",MÁRIO GRAÇA MENDES LDA (504014013),"6.990,00 €",25-01-2016,18-01-2016,15 dias,"Portugal, Évora, Évora","Artigo 20.º, n.º 1, alínea a) do Código dos Contratos Públicos",,,,,,Não aplicável.,Não aplicável.,FALSE
Prestação de Serviços de Vigilância e Segurança,Ao abrigo de acordo-quadro (art.º 259.º),Aquisição de serviços,"79710000-4, Serviços de segurança","Hospital do Espírito Santo de Évora, E. P. E. (508085888)",COMANSEGUR-SEGURANÇA PRIVADA SA (503586579),"716.937,12 €",21-01-2016,23-12-2015,365 dias,"Portugal, Évora, Évora",Artigo 259.º do Código dos Contratos Públicos,,,,,,613183,Acordo quadro para a prestação de serviços de vigilância e segurança,FALSE
Aquisição e montagem de porta automática,Ajuste Direto Regime Geral,Aquisição de bens móveis,"44210000-5, Estruturas e partes de estruturas","Hospital do Espírito Santo de Évora, E. P. E. (508085888)",MÁRIO GRAÇA MENDES LDA (504014013),"4.277,00 €",21-01-2016,18-01-2016,15 dias,"Portugal, Évora, Évora","Artigo 20.º, n.º 1, alínea a) do Código dos Contratos Públicos",,,,,,Não aplicável.,Não aplicável.,FALSE
