Objeto do Contrato,Tipo de Procedimento,Tipo(s) de Contrato,CPVs,Entidade(s) Adjudicante(s),Entidade(s) Adjudicatária(s),Preço Contratual,Data de Publicação,Data de Celebração do Contrato,Prazo de Execução,Local de Execução,Fundamentação,Data de Fecho do Contrato,Preço Total Efetivo,Causas das Alterações ao Prazo,Causas das Alterações ao Preço,Estado,N.º registo do Acordo Quadro,Descrição do Acordo Quadro,Procedimento Centralizado
Protese de revisão de anca,Ajuste Direto Regime Geral,Aquisição de bens móveis,"33700000-7, Produtos para cuidados pessoais",Hospital Dr. Francisco Zagalo (501510150),"Artur Salgado, S.A. (503612600)","5.930,00 €",09-04-2014,19-03-2014,30 dias,"Portugal, Aveiro, Ovar","Artigo 20.º, n.º 1, alínea a) do Código dos Contratos Públicos",19-03-2014,"5.930,00 €",,"",,Não aplicável.,Não aplicável.,FALSE
Fornecimento de combustiveis rodoviarios,Ajuste Direto Regime Geral,Aquisição de serviços,"76000000-3, Serviços relacionados com as indústrias do gás e do petróleo",Hospital Dr. Francisco Zagalo (501510150),Petrogal-Petroleos de Portugal (500697370),"5.143,05 €",02-04-2014,14-01-2014,300 dias,"Portugal, Aveiro, Ovar","Artigo 20.º, n.º 1, alínea a) do Código dos Contratos Públicos",31-12-2014,"2.973,00 €",,fornecimentos abaixo do previsto,,Não aplicável.,Não aplicável.,FALSE
"Aquisição de eletricidade englobando BTE, MT, AT e MAT",Ao abrigo de acordo-quadro (art.º 259.º),Aquisição de bens móveis,"09310000-5, Electricidade","Secretaria-Geral do Ministério da Saúde (600080684), Hospital Santa Maria Maior, E.P.E. - Barcelos (506361381), Unidade Local de Saúde do Baixo Alentejo, E.P.E. (508754275), Centro Hospitalar de Leiria, E.P.E. (509822932), Unidade Local de Saúde do Nordeste, E. P. E (509932584), Hospital do Espírito Santo de Évora, E. P. E. (508085888), Administração Regional de Saúde do Centro, I. P. (503122165), Instituto de Oftalmologia Dr. Gama Pinto (600000052), Hospital de Magalhães Lemos, E. P. E. (502828790), Unidade Local de Saúde da Guarda, E.P.E. (508752000), Hospital de Santarém, E.P.E. (506361462), Centro Hospitalar Tondela-Viseu, E.P.E. (509822940), Administração Regional de Saúde do Alentejo, I. P. (503148768), Administração Regional de Saúde de Lisboa e Vale do Tejo, I. P. (503148776), Centro Hospitalar Lisboa Norte, E. P. E. (508481287), INFARMED - Autoridade Nacional do Medicamento e Produtos de Saúde I.P. (600037002), Centro Hospitalar de Lisboa Ocidental, E.P.E. (507618319), Inspeção-Geral das Atividades em Saúde (600018857), Centro Hospitalar de Entre o Douro e Vouga, E.P.E. (508878462), Centro Hospitalar do Alto Ave, E.P.E. (508080827), Serviço Partilhados do Ministério da Saúde, E. P. E. (509540716), Hospital Professor Doutor Fernando Fonseca, E.P.E. (503035416), Centro Hospitalar e Universitário de Coimbra, E. P. E. (510103448), Centro Hospitalar do Baixo Vouga, E.P.E. (510123210), Instituto Português Oncologia de Coimbra Francisco Gentil, E.P.E. (506361438), Centro Hospitalar do Tâmega e Sousa, E. P. E. (508318262), Administração Central do Sistema de Saúde, I.P. (508188423), SUCH - Serviço de Utilização Comum dos Hospitais (500900469), Centro Hospitalar Psiquiátrico de Lisboa (508338476), Centro Medicina de Reabilitação da Região Centro Rovisco Pais (503767336), Centro Hospitalar do Médio Tejo, E. P. E. (506361608), Centro Hospitalar do Médio Ave, E.P.E. (508093937), Direcção-Geral da Saúde (600037100), Insituto Nacional de Saúde Dr. Ricardo Jorge, I.P. (501427511), Hospital Dr. Francisco Zagalo - Ovar (501510150), Hospital Garcia de Orta, E.P.E. (506361470), Centro Hospitalar do Porto, E.P.E. (508331471), Instituto Nacional de Emergência Médica, I.P. (501356126), CENTRO HOSPITALAR DO ALGARVE (508718872), Instituto Português do sangue (502423943), Centro Hospitalar de Lisboa Central, E. P. E. (508080142), Centro Hospitalar Póvoa de Varzim - Vila do Conde, E.P.E. (508741823), Unidade Local de Saúde do Alto Minho, E. P. E. (508786193), CHO - Centro Hospitalar do Oeste (510412009), Instituto Português Oncologia do Porto Francisco Gentil, E.P.E. (506362299), Centro Hospitalar de Setúbal, E. P. E. (507606787), Administração Regional de Saúde do Norte, I. P. (503135593), Unidade Local de Saúde do Litoral Alentejano, E.P.E. (510445152), Hospital José Luciano de Castro - Anadia (501613021), Unidade Local de Saúde de Castelo Branco, E.P.E. (509309844), Administração Regional de Saúde Algarve, I.P. (503148709), Centro Hospitalar de Trás-os-Montes e Alto Douro, E. P. E. (508100496), Centro Hospitalar Vila Nova de Gaia - Espinho, E. P. E. (508142156), Unidade Local de Saúde de Matosinhos, E.P.E. (506361390), Centro Hospitalar Cova da Beira, EPE (506361659), Centro Hospitalar Barreiro Montijo, E.P.E. (509186998)","EDP Comercial, SA (503504564)","23.711.683,78 €",01-04-2014,01-03-2014,365 dias,Portugal,Artigo 259.º do Código dos Contratos Públicos,30-12-2014,"356.327,09 €",,diminuicao das necessidades,,314294,Acordo quadro para o fornecimento de electricidade em regime de mercado livre para Portugal Continental,TRUE
