Objeto do Contrato,Tipo de Procedimento,Tipo(s) de Contrato,CPVs,Entidade(s) Adjudicante(s),Entidade(s) Adjudicatária(s),Preço Contratual,Data de Publicação,Data de Celebração do Contrato,Prazo de Execução,Local de Execução,Fundamentação,Data de Fecho do Contrato,Preço Total Efetivo,Causas das Alterações ao Prazo,Causas das Alterações ao Preço,Estado,N.º registo do Acordo Quadro,Descrição do Acordo Quadro,Procedimento Centralizado
AD2794-2017-AQUISIÇÃO DE BENS PARA REALIZAR ANÁLISES NO LAB BACTERIOLOGIA,Ajuste Direto Regime Geral,Aquisição de bens móveis,"33696500-0, Reagentes de laboratório","Instituto Português de Oncologia de Lisboa Francisco Gentil, E. P. E. (506361616)","QUILABAN, SA-QUIMICA LABORATORIAL ANALITICA, SA (500399670)","934,80 €",21-11-2017,10-10-2017,30 dias,"Portugal, Lisboa, Lisboa","Artigo 27.º, n.º 1, alínea a) e n.º 2 do Código dos Contratos Públicos",,,,,,Não aplicável.,Não aplicável.,FALSE
AD2874-2017MEDICAMENTOS EXCLUSIVOS,Ajuste Direto Regime Geral,Aquisição de bens móveis,"33600000-6, Produtos farmacêuticos","Instituto Português de Oncologia de Lisboa FG, E.P.E. (506361616)",NOVARTIS FARMA PRODUTOS FARMACEUTICOS (500063524),"6.389,19 €",21-11-2017,16-11-2017,30 dias,"Portugal, Lisboa, Lisboa","Artigo 24.º, n.º 1, alínea e) do Código dos Contratos Públicos",,,,,,Não aplicável.,Não aplicável.,FALSE
AD3140-2017BEVACIZUMAB 400,Ao abrigo de acordo-quadro (art.º 259.º),Aquisição de bens móveis,"33600000-6, Produtos farmacêuticos","Instituto Português de Oncologia de Lisboa Francisco Gentil, E. P. E. (506361616)","ROCHE FARMACEUTICA QUIMICA, LDA (500233810)","14.210,25 €",20-11-2017,14-11-2017,30 dias,"Portugal, Lisboa, Lisboa",Artigo 259.º do Código dos Contratos Públicos,,,,,,1771819,CP 2015/6 - Acordo quadro para o fornecimento de Medicamentos do Foro Oncológico,FALSE
AD2106-2017-FORNECIMENTO DE REAGENTES PARA ANÁLISES NO LAB ENDOCRINOLOGIA AO IPOFG,Ajuste Direto Regime Geral,Aquisição de bens móveis,"33696500-0, Reagentes de laboratório","Instituto Português de Oncologia de Lisboa Francisco Gentil, E. P. E. (506361616)",ROCHE SISTEMAS DE DIAGNOSTICOS SOCIEDADE UNIPESSOAL LDA (504282921),"14.490,00 €",20-11-2017,13-10-2017,79 dias,"Portugal, Lisboa, Lisboa","Artigo 27.º, n.º 1, alínea a) do Código dos Contratos Públicos",,,,,,Não aplicável.,Não aplicável.,FALSE
AD2783-2017AQUISIÇÃO DE BENS PARA REALIZAR ANÁLISES NO LAB HEMATOLOGIA,Ajuste Direto Regime Geral,Aquisição de bens móveis,"33696500-0, Reagentes de laboratório","Instituto Português de Oncologia de Lisboa Francisco Gentil, E. P. E. (506361616)","WERFEN PORTUGAL, LDA (501086110)","19.534,16 €",17-11-2017,31-10-2017,61 dias,"Portugal, Lisboa, Lisboa","Artigo 27.º, n.º 1, alínea a) do Código dos Contratos Públicos",,,,,,Não aplicável.,Não aplicável.,FALSE
AD2731-2017 AQUISIÇÃO DE BENS PARA REALIZAR ANÁLISES NO LAB PATOLOGIA CLINICA,Ajuste Direto Regime Geral,Aquisição de bens móveis,"33696500-0, Reagentes de laboratório","Instituto Português de Oncologia de Lisboa Francisco Gentil, E. P. E. (506361616)",ABBOTT LABORATÓRIOS LDA (500006148),"170.016,86 €",16-11-2017,11-10-2017,80 dias,"Portugal, Lisboa, Lisboa","Artigo 27.º, n.º 1, alínea a) e n.º 2 do Código dos Contratos Públicos",,,,,,Não aplicável.,Não aplicável.,FALSE
AD2756-2017AQUISIÇÃO DE BENS PARA REALIZAR ANÁLISES,Ajuste Direto Regime Geral,Aquisição de bens móveis,"33696500-0, Reagentes de laboratório","Instituto Português de Oncologia de Lisboa FG, E.P.E. (506361616)","BECKMAN COULTER PORTUGAL UNIPESSOAL, LDA (509035167)","656,00 €",16-11-2017,10-10-2017,30 dias,"Portugal, Lisboa, Lisboa","Artigo 27.º, n.º 1, alínea a) e n.º 2 do Código dos Contratos Públicos",,,,,,Não aplicável.,Não aplicável.,FALSE
AD2665-2017AQUISIÇÃO DE SERVIÇOS COM FORNECIMENTO DE REAGENTES ANALISES LAB VIROLOGIA,Ajuste Direto Regime Geral,Aquisição de bens móveis,"33696500-0, Reagentes de laboratório","Instituto Português de Oncologia de Lisboa FG, E.P.E. (506361616)","DIASORIN IBERIA, S.A SUCURSAL EM PORTUGAL (980379563)","21.870,00 €",16-11-2017,03-10-2017,92 dias,"Portugal, Lisboa, Lisboa","Artigo 27.º, n.º 1, alínea a) e n.º 2 do Código dos Contratos Públicos",,,,,,Não aplicável.,Não aplicável.,FALSE
AD2664-2017AQUISIÇÃO DE SERVIÇOS COM FORNECIMENTO DE REAGENTES PARA REALIZAR ANALISES NO LAB VIROLOGIA,Ajuste Direto Regime Geral,Aquisição de bens móveis,"33696500-0, Reagentes de laboratório","Instituto Português de Oncologia de Lisboa FG, E.P.E. (506361616)","ABBOTT LABORATÓRIOS, LDA (500006148)","29.309,00 €",16-11-2017,02-10-2017,93 dias,"Portugal, Lisboa, Lisboa","Artigo 27.º, n.º 1, alínea a) e n.º 2 do Código dos Contratos Públicos",,,,,,Não aplicável.,Não aplicável.,FALSE
2666-2017AQUISIÇÃO DE SERVIÇOS COM FORNECIMENTO DE REAGENTES PARA REALIZAR ANÁLISES NO LAB. VIROLOGIA,Ajuste Direto Regime Geral,Aquisição de bens móveis,"33696500-0, Reagentes de laboratório","Instituto Português de Oncologia de Lisboa FG, E.P.E. (506361616)","WERFEN PORTUGAL, LDA (501086110)","13.320,00 €",16-11-2017,02-10-2017,90 dias,"Portugal, Lisboa, Lisboa","Artigo 27.º, n.º 1, alínea a) e n.º 2 do Código dos Contratos Públicos",,,,,,Não aplicável.,Não aplicável.,FALSE
CP2751-2017FORNECIMENTO DE SISTEMA DE NAVEGAÇÃO BRONCOSCOPICA,Concurso público,Aquisição de bens móveis,"33100000-1, Equipamento médico","Instituto Português de Oncologia de Lisboa Francisco Gentil, E. P. E. (506361616)","MEDTRONIC PORTUGAL, LDA (504223933)","150.000,00 €",14-11-2017,31-10-2017,30 dias,"Portugal, Lisboa, Lisboa","Artigo 20.º, n.º 1, alínea b) do Código dos Contratos Públicos",,,,,,Não aplicável.,Não aplicável.,FALSE
"AD2874-2017DEFERASIROX 90,180 360,MG",Ajuste Direto Regime Geral,Aquisição de bens móveis,"33600000-6, Produtos farmacêuticos","Instituto Português de Oncologia de Lisboa FG, E.P.E. (506361616)",NOVARTIS FARMA PRODUTOSFARMACEUTICOS SA (500063524),"23.356,60 €",14-11-2017,26-10-2017,65 dias,"Portugal, Lisboa, Lisboa","Artigo 24.º, n.º 1, alínea e) do Código dos Contratos Públicos",,,,,,Não aplicável.,Não aplicável.,FALSE
