Objeto do Contrato,Tipo de Procedimento,Tipo(s) de Contrato,CPVs,Entidade(s) Adjudicante(s),Entidade(s) Adjudicatária(s),Preço Contratual,Data de Publicação,Data de Celebração do Contrato,Prazo de Execução,Local de Execução,Fundamentação,Data de Fecho do Contrato,Preço Total Efetivo,Causas das Alterações ao Prazo,Causas das Alterações ao Preço,Estado,N.º registo do Acordo Quadro,Descrição do Acordo Quadro,Procedimento Centralizado
Aquisição de serviços médicos indiferenciados,Ajuste Direto Regime Geral,Aquisição de serviços,"85121000-3, Serviços de prática médica","Centro Hospitalar do Médio Ave, E. P. E. (508093937)",Sónia Jaqueline da Costa Fernandes (243158670),"7.920,00 €",26-07-2018,24-07-2018,365 dias,"Portugal, Porto, Santo Tirso","Artigo 20.º, n.º 1, alínea a) do Código dos Contratos Públicos",,,,,,Não aplicável.,Não aplicável.,FALSE
Aquisição de contentores corto perfurantes,Ao abrigo de acordo-quadro (art.º 259.º),Aquisição de bens móveis,"33100000-1, Equipamento médico","Centro Hospitalar do Médio Ave, E. P. E. (508093937)","SARSTEDT - TECNOLOGIA DE LABORATÓRIO, S.A. (503019461)","40,00 €",25-07-2018,17-07-2018,162 dias,"Portugal, Porto, Santo Tirso<BR/>Portugal, Braga, Vila Nova de Famalicão",Artigo 259.º do Código dos Contratos Públicos,,,,,,2942729,CP 2017/214 - Acordo Quadro para Fornecimento de Contentores às Instituições e Serviços do Serviço Nacional de Saúde,FALSE
Aquisição de contentores corto perfurantes,Ao abrigo de acordo-quadro (art.º 259.º),Aquisição de bens móveis,"33100000-1, Equipamento médico","Centro Hospitalar do Médio Ave, E. P. E. (508093937)",OVERPHARMA PRODUTOS MEDICOS E FARMACEUTICOS LDA (505792362),"1.955,00 €",25-07-2018,17-07-2018,162 dias,"Portugal, Braga, Vila Nova de Famalicão<BR/>Portugal, Porto, Santo Tirso",Artigo 259.º do Código dos Contratos Públicos,,,,,,2942729,CP 2017/214 - Acordo Quadro para Fornecimento de Contentores às Instituições e Serviços do Serviço Nacional de Saúde,FALSE
Aquisição de contentores corto perfurantes,Ao abrigo de acordo-quadro (art.º 259.º),Aquisição de bens móveis,"33100000-1, Equipamento médico","Centro Hospitalar do Médio Ave, E. P. E. (508093937)",AMBIMED GESTÃO AMBIENTAL LDA (503593427),"2.532,75 €",25-07-2018,17-07-2018,170 dias,"Portugal, Porto, Santo Tirso<BR/>Portugal, Braga, Vila Nova de Famalicão",Artigo 259.º do Código dos Contratos Públicos,,,,,,2942729,CP 2017/214 - Acordo Quadro para Fornecimento de Contentores às Instituições e Serviços do Serviço Nacional de Saúde,FALSE
Aquisição medicamentos do Grupo IV: Sangue,Ao abrigo de acordo-quadro (art.º 259.º),Aquisição de bens móveis,"33600000-6, Produtos farmacêuticos","Centro Hospitalar do Médio Ave, E. P. E. (508093937)",UNILFARMA UNIÃO INTERNACIONAL LABORATORIOS FARMACEUTICOS LDA (500293023),"14.922,42 €",25-07-2018,15-05-2018,224 dias,"Portugal, Porto, Santo Tirso<BR/>Portugal, Braga, Vila Nova de Famalicão",Artigo 259.º do Código dos Contratos Públicos,,,,,,2489595,CP 2016/18 - Acordo quadro para fornecimento de Medicamentos do Grupo 4: Sangue às Instituições e Serviços do Serviço Nacional de Saúde,FALSE
Elaboração de projecto de medidas de autoprotecção de todos os edifícios que compõem a Unidade de Santo Tirso,Consulta Prévia,Aquisição de serviços,"75250000-3, Serviços de socorro e de incêndios","Centro Hospitalar do Médio Ave, E. P. E. (508093937)",XZ - CONSULTORES S.A. (502703989),"7.545,00 €",25-07-2018,09-05-2018,180 dias,"Portugal, Porto, Santo Tirso","Artigo 20.º, n.º 1, alínea c) do Código dos Contratos Públicos",,,,,,Não aplicável.,Não aplicável.,FALSE
Aquisição de serviços médicos de medicina interna,Ajuste Direto Regime Geral,Aquisição de serviços,"85121000-3, Serviços de prática médica","Centro Hospitalar do Médio Ave, E. P. E. (508093937)",Joana de Castro Pereira e Rocha (245073515),"16.848,00 €",24-07-2018,17-07-2018,365 dias,"Portugal, Braga, Vila Nova de Famalicão","Artigo 20.º, n.º 1, alínea a) do Código dos Contratos Públicos",,,,,,Não aplicável.,Não aplicável.,FALSE
