Objeto do Contrato,Tipo de Procedimento,Tipo(s) de Contrato,CPVs,Entidade(s) Adjudicante(s),Entidade(s) Adjudicatária(s),Preço Contratual,Data de Publicação,Data de Celebração do Contrato,Prazo de Execução,Local de Execução,Fundamentação,Data de Fecho do Contrato,Preço Total Efetivo,Causas das Alterações ao Prazo,Causas das Alterações ao Preço,Estado,N.º registo do Acordo Quadro,Descrição do Acordo Quadro,Procedimento Centralizado
Aquisição de Cabos para o Storage do Datacenter (18 fibras LC/LC OM3 de 10 metros) - APROV-PRT 16001089,Ajuste Direto Regime Geral,Aquisição de bens móveis,"31224400-6, Cabos de ligação","Administração Regional de Saúde do Norte, I. P. (503135593)","Gonksys, S.A. (510874169)","224,28 €",09-09-2016,22-06-2016,35 dias,"Portugal, Porto, Porto","Artigo 20.º, n.º 1, alínea a) do Código dos Contratos Públicos",27-07-2016,"224,28 €","","",,Não aplicável.,Não aplicável.,FALSE
Aquisição de serviços médicos para o ACES Feira/ Arouca e ACES Aveiro Norte. Processo nº15003967 - CA nº3472015 e 3492015.,Ao abrigo de acordo-quadro (art.º 259.º),Aquisição de serviços,"79625000-1, Serviços de fornecimento de pessoal médico","Administração Regional de Saúde do Norte, I. P. (503135593)","Randstad Clinical - Cuidados de Saúde, Lda (505121247)","16.294,80 €",09-09-2016,30-01-2014,365 dias,"Portugal, Aveiro, Arouca<BR/>Portugal, Aveiro, Aveiro",Artigo 259.º do Código dos Contratos Públicos,31-12-2015,"16.294,80 €","","",,454020,"CONCURSO PÚBLICO PARA A CELEBRAÇÃO DE CONTRATOS PÚBLICOS DE APROVISIONAMENTO PARA A ÁREA DA SAÚDE, COM VISTA À PRESTAÇÃO DE SERVIÇOS MÉDICOS ÀS INSTITUIÇÕES E SERVIÇOS DO SERVIÇO NACIONAL DE SAÚDE",FALSE
Alteração da sala de espera - USF S. Gonçalo Amarante,Ajuste Direto Regime Geral,Empreitadas de obras públicas,"45454000-4, Obras de reestruturação","Administração Regional de Saúde do Norte, I. P. (503135593)","Domatis - Engenharia e Construção, SA (513630686)","4.619,63 €",09-09-2016,29-08-2016,20 dias,"Portugal, Porto, Amarante","Artigo 19.º, alínea a) do Código dos Contratos Públicos","","4.619,63 €"," Não se verificaram atrasos. Nos termos do n.º 2 do art.º 471.º do CCP, não se inclui na contagem o dia do evento.","",,Não aplicável.,Não aplicável.,FALSE
Adaptação cafetaria e zonas de circulação - USF Nova Era,Ajuste Direto Regime Geral,Empreitadas de obras públicas,"45454000-4, Obras de reestruturação","Administração Regional de Saúde do Norte, I. P. (503135593)","Domatis - Engenharia e Construção, S.A. (513630686)","4.998,80 €",09-09-2016,29-08-2016,20 dias,"Portugal, Porto, Paredes","Artigo 19.º, alínea a) do Código dos Contratos Públicos","","4.998,80 €","Não se verificaram atrasos. Nos termos do n.º 2 do art.º 471.º do CCP, não se inclui na contagem o dia do evento.","",,Não aplicável.,Não aplicável.,FALSE
Aquisição de serviços médicos para o ACES Feira/ Arouca - SUB/Arouca. Processo nº15003967 - CA nº3412015.,Ao abrigo de acordo-quadro (art.º 259.º),Aquisição de serviços,"79625000-1, Serviços de fornecimento de pessoal médico","Administração Regional de Saúde do Norte, I. P. (503135593)","Helped - Prestação de Serviços de Saúde, Lda (506069010)","320.079,88 €",09-09-2016,21-01-2015,365 dias,"Portugal, Aveiro, Santa Maria da Feira",Artigo 259.º do Código dos Contratos Públicos,31-12-2015,"320.079,88 €","","",,454020,"CONCURSO PÚBLICO PARA A CELEBRAÇÃO DE CONTRATOS PÚBLICOS DE APROVISIONAMENTO PARA A ÁREA DA SAÚDE, COM VISTA À PRESTAÇÃO DE SERVIÇOS MÉDICOS ÀS INSTITUIÇÕES E SERVIÇOS DO SERVIÇO NACIONAL DE SAÚDE",FALSE
"Aquisição de serviços médicos para o PIAM, CRI Porto Central - ET SM Feira, CRI Viana Castelo, Alcoologia e CRI Braga - ET Guimarães. Processo nº15003967 - CA nº2912015, 2932015,2942015,2952015 e 2962015. ",Ao abrigo de acordo-quadro (art.º 259.º),Aquisição de serviços,"79625000-1, Serviços de fornecimento de pessoal médico","Administração Regional de Saúde do Norte, I. P. (503135593)","Helped - Prestação de Serviços de Saúde, Lda (506069010)","55.698,02 €",09-09-2016,30-01-2014,365 dias,"Portugal, Porto, Vila Nova de Gaia<BR/>Portugal, Porto, Matosinhos<BR/>Portugal, Braga, Braga<BR/>Portugal, Viana do Castelo, Viana do Castelo",Artigo 259.º do Código dos Contratos Públicos,31-12-2015,"55.698,02 €","","",,454020,"CONCURSO PÚBLICO PARA A CELEBRAÇÃO DE CONTRATOS PÚBLICOS DE APROVISIONAMENTO PARA A ÁREA DA SAÚDE, COM VISTA À PRESTAÇÃO DE SERVIÇOS MÉDICOS ÀS INSTITUIÇÕES E SERVIÇOS DO SERVIÇO NACIONAL DE SAÚDE",FALSE
"Prestação de serviços médicos para o CRI Porto Ocidental - ET Matosinhos,  CRI Porto Central - ET Cedofeita; CRI Porto Oriental - ET Freamunde e Unidade Alcoologia. Processo nº15003967 - CA nº2812015, 2822015, 2802015 e 2832015.",Ao abrigo de acordo-quadro (art.º 259.º),Aquisição de serviços,"79625000-1, Serviços de fornecimento de pessoal médico","Administração Regional de Saúde do Norte, I. P. (503135593)","Soclafe - Prestação de Serviços de Saúde, Lda (508717566)","61.303,20 €",09-09-2016,30-01-2014,365 dias,"Portugal, Porto, Gondomar<BR/>Portugal, Porto, Porto<BR/>Portugal, Porto, Matosinhos",Artigo 259.º do Código dos Contratos Públicos,31-12-2015,"61.303,20 €","","",,454020,"CONCURSO PÚBLICO PARA A CELEBRAÇÃO DE CONTRATOS PÚBLICOS DE APROVISIONAMENTO PARA A ÁREA DA SAÚDE, COM VISTA À PRESTAÇÃO DE SERVIÇOS MÉDICOS ÀS INSTITUIÇÕES E SERVIÇOS DO SERVIÇO NACIONAL DE SAÚDE",FALSE
Renovação  Licenciamento software RED HAT Enterprise Refª. 2015UMC072 - Aprov-Prt 15005919,Ao abrigo de acordo-quadro (art.º 259.º),Aquisição de bens móveis,"48000000-8, Pacotes de software e sistemas de informação","Administração Regional de Saúde do Norte, I. P. (503135593)","Informática El Corte Inglês, S.A. (980079659)","5.453,46 €",09-09-2016,10-12-2015,7 dias,"Portugal, Porto, Porto",Artigo 259.º do Código dos Contratos Públicos,23-12-2015,"5.453,46 €","","",,610968,Acordo quadro de licenciamento de software e serviços conexos,TRUE
Aquisição e manutenção ao licenciamento Symantec Netbackup Refª. 2015UMC071 - Aprov-Prt 16000163,Ao abrigo de acordo-quadro (art.º 259.º),Aquisição de bens móveis,"48000000-8, Pacotes de software e sistemas de informação","Administração Regional de Saúde do Norte, I. P. (503135593)","Informática El Corte Inglês, S.A. (980079659)","11.063,93 €",09-09-2016,05-02-2016,7 dias,"Portugal, Porto, Porto",Artigo 259.º do Código dos Contratos Públicos,23-02-2016,"11.063,93 €","","",,610968,Acordo quadro de licenciamento de software e serviços conexos,TRUE
Licenciamento do Software Symantec Endpoint Refª. 2015UMC083 - Aprov-Prt 16000221,Ao abrigo de acordo-quadro (art.º 259.º),Aquisição de bens móveis,"48000000-8, Pacotes de software e sistemas de informação","Administração Regional de Saúde do Norte, I. P. (503135593)","Iten Solutions - Sistemas de Informação, S.A. (510728189)","15.300,00 €",09-09-2016,15-03-2016,15 dias,"Portugal, Porto, Porto",Artigo 259.º do Código dos Contratos Públicos,28-03-2016,"15.300,00 €","","",,610968,Acordo quadro de licenciamento de software e serviços conexos,TRUE
Aquisição de serviços de ligação à central de receção e monotorização de alarmes. Para vários ACES e Serviços Centrais da ARS Norte.,Ajuste Direto Regime Geral,Aquisição de serviços,"79710000-4, Serviços de segurança","Administração Regional de Saúde do Norte, I. P. (503135593)","Securitas - Serviços e Tecnologia de Segurança, S.A (500243719)","266.903,72 €",09-09-2016,01-07-2014,365 dias,"Portugal, Aveiro, Aveiro<BR/>Portugal, Porto, Póvoa de Varzim<BR/>Portugal, Porto, Valongo<BR/>Portugal, Porto, Gondomar<BR/>Portugal, Porto, Santo Tirso<BR/>Portugal, Porto, Paredes<BR/>Portugal, Porto, Maia<BR/>Portugal, Porto, Baião<BR/>Portugal, Aveiro, Arouca<BR/>Portugal, Porto, Porto<BR/>Portugal, Porto, Vila do Conde","Artigo 24.º, n.º 1, alínea e) do Código dos Contratos Públicos",31-12-2015,"266.903,72 €","","",,Não aplicável.,Não aplicável.,FALSE
Aquisição de serviços médicos para o CRI de Vila Real. Processo nº15003967 - CA PHC nº2882015,Ao abrigo de acordo-quadro (art.º 259.º),Aquisição de serviços,"79625000-1, Serviços de fornecimento de pessoal médico","Administração Regional de Saúde do Norte, I. P. (503135593)","Medipeople - Soluções de Saúde e Educação, Lda (508543436)","36.430,94 €",09-09-2016,30-01-2014,366 dias,"Portugal, Vila Real, Vila Real",Artigo 259.º do Código dos Contratos Públicos,31-12-2015,"36.430,94 €","","",,454020,"CONCURSO PÚBLICO PARA A CELEBRAÇÃO DE CONTRATOS PÚBLICOS DE APROVISIONAMENTO PARA A ÁREA DA SAÚDE, COM VISTA À PRESTAÇÃO DE SERVIÇOS MÉDICOS ÀS INSTITUIÇÕES E SERVIÇOS DO SERVIÇO NACIONAL DE SAÚDE",FALSE
Aquisição de terminais  biométricos de parede e  USB,Concurso público,Aquisição de bens móveis,"35125200-8, Sistema de controlo do tempo ou registador do tempo de trabalho","Administração Regional de Saúde do Norte, I. P. (503135593)","Projecttime II - Soluções Integradas, Lda. (506110117)","111.645,80 €",08-09-2016,18-03-2015,120 dias,"Portugal, Porto, Porto",Artigo 28.º do Código dos Contratos Públicos,24-11-2015,"111.645,80 €","","",,Não aplicável.,Não aplicável.,FALSE
"Aquisição de serviço de manutenção de sistemas de ventilação, aquecimento e ar condicionado, para as Unidades Funcionais do ACES Braga",Ajuste Direto Regime Geral,Aquisição de serviços,"50700000-2, Serviços de reparação e manutenção de equipamento em edifícios","Administração Regional de Saúde do Norte, I. P. (503135593)",Sorevco - Instalação de aparelhos de refrigeração Ar condicionado Lda (504674170),"6.625,00 €",08-09-2016,04-07-2016,60 dias,"Portugal, Braga, Braga","Artigo 20.º, n.º 1, alínea a) do Código dos Contratos Públicos",16-08-2016,"5.940,00 €","",No decorrer da execução do serviço verificou-se que não era necessário intervir num dos edifícios,,Não aplicável.,Não aplicável.,FALSE
Serviços de Assessoria de Sistemas de Informação Aprov-Prt 16000074,Ajuste Direto Regime Geral,Aquisição de serviços,"79420000-4, Serviços relacionados com a gestão","Administração Regional de Saúde do Norte, I. P. (503135593)","First Support Business Consulting Unipessoal, Lda. (510106650)","9.199,93 €",07-09-2016,01-04-2016,90 dias,"Portugal, Porto, Porto","Artigo 20.º, n.º 1, alínea a) do Código dos Contratos Públicos",04-04-2016,"9.199,93 €","","",,Não aplicável.,Não aplicável.,FALSE
ACES Feira Arouca - USF Novo Norte - Obras de adaptação,Ajuste Direto Regime Geral,Empreitadas de obras públicas,"45454000-4, Obras de reestruturação","Administração Regional de Saúde do Norte, I. P. (503135593)","Sociedade de Construções Fonte do Arco, Lda (507732472)","19.200,00 €",07-09-2016,17-08-2016,45 dias,"Portugal, Aveiro, Arouca","Artigo 19.º, alínea a) do Código dos Contratos Públicos","","19.200,00 €","","",,Não aplicável.,Não aplicável.,FALSE
Aquisição de serviços de reparação/manutenção de extintores nos Serviços Centrais de Vila Real-Logística da ARS Norte I.P.,Ajuste Direto Regime Geral,Aquisição de serviços,"50800000-3, Serviços de reparação e manutenção diversos","Administração Regional de Saúde do Norte, I. P. (503135593)","SEPEBE - Segurança e Prevenção, Lda (502319976)","164,50 €",02-09-2016,13-05-2016,3 dias,"Portugal, Vila Real, Vila Real","Artigo 20.º, n.º 1, alínea a) do Código dos Contratos Públicos",13-05-2016,"164,50 €","","",,Não aplicável.,Não aplicável.,FALSE
