Objeto do Contrato,Tipo de Procedimento,Tipo(s) de Contrato,CPVs,Entidade(s) Adjudicante(s),Entidade(s) Adjudicatária(s),Preço Contratual,Data de Publicação,Data de Celebração do Contrato,Prazo de Execução,Local de Execução,Fundamentação,Data de Fecho do Contrato,Preço Total Efetivo,Causas das Alterações ao Prazo,Causas das Alterações ao Preço,Estado,N.º registo do Acordo Quadro,Descrição do Acordo Quadro,Procedimento Centralizado
Concurso Público n.º 207/2012 - Aquisição de KIT'S Ginecológicos para Processamento de Citologia Cervical em Meio Liquido,Concurso público,Aquisição de bens móveis,"33141625-7, Kits de diagnóstico","Administração Regional de Saúde do Algarve, I.P. (503148709)","Hologic Iberia, S.L (980277230)","142.560,00 €",29-10-2013,02-01-2013,365 dias,"Portugal, Faro, Portimão<BR/>Portugal, Faro, Faro","Artigo 20.º, n.º 1, alínea b) do Código dos Contratos Públicos",31-12-2013,"142.560,00 €",,,,Não aplicável.,Não aplicável.,
Concurso Público n.º 57/2012- Aquisição de Reagentes para determinação do tempo de protrombina para o Laboratório Regional de Saúde Pública,Concurso público,Aquisição de bens móveis,"33696200-7, Reagentes para análises ao sangue","Administração Regional de Saúde do Algarve, I.P. (503148709)","IZASA Portugal - Distribuições Técnicas, Lda (501086110)","162.500,00 €",29-10-2013,21-09-2012,365 dias,"Portugal, Faro, Faro","Artigo 20.º, n.º 1, alínea b) do Código dos Contratos Públicos",20-09-2013,"162.500,00 €",,,,Não aplicável.,Não aplicável.,
