Objeto do Contrato,Tipo de Procedimento,Tipo(s) de Contrato,CPVs,Entidade(s) Adjudicante(s),Entidade(s) Adjudicatária(s),Preço Contratual,Data de Publicação,Data de Celebração do Contrato,Prazo de Execução,Local de Execução,Fundamentação,Data de Fecho do Contrato,Preço Total Efetivo,Causas das Alterações ao Prazo,Causas das Alterações ao Preço,Estado,N.º registo do Acordo Quadro,Descrição do Acordo Quadro,Procedimento Centralizado
"Solução Salina Balanceada p/ irrigação, 500 ml",Ajuste Direto Regime Geral,Aquisição de bens móveis,"33600000-6, Produtos farmacêuticos",Instituto de Oftalmologia Dr. Gama Pinto (600000052),"OVERPHARMA, LDA. (505792362)","9.734,40 €",11-09-2014,25-01-2013,365 dias,"Portugal, Lisboa, Lisboa","Artigo 20.º, n.º 1, alínea a) do Código dos Contratos Públicos",31-12-2013,"9.734,40 €",,,,Não aplicável.,Não aplicável.,FALSE
Acetilcolina 20 mg Pó sol inj   IOcular,Ajuste Direto Regime Geral,Aquisição de bens móveis,"33600000-6, Produtos farmacêuticos",Instituto de Oftalmologia Dr. Gama Pinto (600000052),"BAUSCH & LOMB, PORTUGAL (980218764)","6.840,00 €",11-09-2014,29-01-2013,365 dias,"Portugal, Lisboa, Lisboa","Artigo 20.º, n.º 1, alínea a) do Código dos Contratos Públicos",31-12-2013,"6.840,00 €",,,,Não aplicável.,Não aplicável.,FALSE
"Tropicamida 10 mg/ml (1%) Col, sol  10 ml",Ajuste Direto Regime Geral,Aquisição de bens móveis,"33600000-6, Produtos farmacêuticos",Instituto de Oftalmologia Dr. Gama Pinto (600000052),Laboratórios Edol - Produtos Farmacêuticos (507072642),"5.264,00 €",11-09-2014,25-01-2013,365 dias,"Portugal, Lisboa, Lisboa","Artigo 20.º, n.º 1, alínea a) do Código dos Contratos Públicos",31-12-2013,"5.264,00 €",,,,Não aplicável.,Não aplicável.,FALSE
