Objeto do Contrato,Tipo de Procedimento,Tipo(s) de Contrato,CPVs,Entidade(s) Adjudicante(s),Entidade(s) Adjudicatária(s),Preço Contratual,Data de Publicação,Data de Celebração do Contrato,Prazo de Execução,Local de Execução,Fundamentação,Data de Fecho do Contrato,Preço Total Efetivo,Causas das Alterações ao Prazo,Causas das Alterações ao Preço,Estado,N.º registo do Acordo Quadro,Descrição do Acordo Quadro,Procedimento Centralizado
Aquisição de serviços combinados de vigilância e segurança humana e de ligação a central de alarmes,Ajuste Direto Regime Geral,Aquisição de serviços,"90910000-9, Serviços de limpeza","Administração Regional de Saúde de Lisboa e Vale do Tejo, I. P. (503148776)","Prestibel - Empresa de Segurança, SA (501326456)","1.213.118,54 €",21-03-2018,14-03-2018,59 dias,"Portugal, Santarém<BR/>Portugal, Leiria<BR/>Portugal, Lisboa<BR/>Portugal, Setúbal","Artigo 21.º, n.º 1, alínea c) do Código dos Contratos Públicos",,,,,,Não aplicável.,Não aplicável.,FALSE
"Mudanças nos serviços centrais e desconcentrados da ARSLVT,IP.",Ajuste Direto Regime Geral,Aquisição de serviços,"63110000-3, Serviços de movimentação de carga","Administração Regional de Saúde de Lisboa e Vale do Tejo, I. P. (503148776)","TRANSPORTES BARATA & CARVALHO, LDA. (500425299)","34.998,00 €",20-03-2018,15-03-2018,180 dias,"Portugal, Lisboa","Artigo 20.º, n.º 1, alínea a) do Código dos Contratos Públicos",,,,,,Não aplicável.,Não aplicável.,FALSE
"Aquisição de serviços para assegurar o Mandato Judicial em sede de processos de natureza cível, penal, administrativa e registral da ARSLVT,IP.",Ajuste Direto Regime Geral,Aquisição de serviços,"79111000-5, Serviços de assessoria jurídica","Administração Regional de Saúde de Lisboa e Vale do Tejo, I. P. (503148776)",Inês Fortunato Pinheiro Miranda (219415102),"15.600,00 €",20-03-2018,15-03-2018,365 dias,"Portugal, Lisboa, Lisboa","Artigo 20.º, n.º 1, alínea a) do Código dos Contratos Públicos",,,,,,Não aplicável.,Não aplicável.,FALSE
"Aquisição de serviços de manutenção de instalações de elevação pra os serviços da dependência da ARSLVT, IP",Ajuste Direto Regime Geral,Aquisição de serviços,"50750000-7, Serviços de manutenção de elevadores","Administração Regional de Saúde de Lisboa e Vale do Tejo, I. P. (503148776)","Grupnor - Grupo Português de Elevadores do Norte, Lda (500959579)","2.018,00 €",20-03-2018,19-03-2018,31 dias,"Portugal, Leiria<BR/>Portugal, Santarém<BR/>Portugal, Setúbal<BR/>Portugal, Lisboa","Artigo 21.º, n.º 1, alínea c) do Código dos Contratos Públicos",,,,,,Não aplicável.,Não aplicável.,FALSE
"Aquisição de serviços médicos sem especialidade para a ARSLVT, IP",Ajuste Direto Regime Geral,Aquisição de serviços,"85141000-9, Serviços prestados pelo pessoal médico","Administração Regional de Saúde de Lisboa e Vale do Tejo, I. P. (503148776)",Claudio de Souza Sandner (179966677),"41.600,00 €",19-03-2018,08-03-2018,365 dias,"Portugal, Santarém","Artigo 24.º, n.º 1, alínea c) do Código dos Contratos Públicos",,,,,,Não aplicável.,Não aplicável.,FALSE
"Aquisição de serviços de higiene e limpeza para o período de 01/01/2018 a 28/02/2018 para os serviços da dependência da Administração Regional de Saúde de Lisboa e Vale do Tejo, IP.",Ajuste Direto Regime Geral,Aquisição de serviços,"90910000-9, Serviços de limpeza","Administração Regional de Saúde de Lisboa e Vale do Tejo, I. P. (503148776)","Interlimpe - Facility Services, SA (502611057)","636.329,44 €",19-03-2018,14-03-2018,59 dias,"Portugal, Leiria<BR/>Portugal, Santarém<BR/>Portugal, Setúbal<BR/>Portugal, Lisboa","Artigo 24.º, n.º 1, alínea c) do Código dos Contratos Públicos",,,,,,Não aplicável.,Não aplicável.,FALSE
"Aquisição de serviços médicos sem especialidade para a ARSLVT, IP",Ajuste Direto Regime Geral,Aquisição de serviços,"85141000-9, Serviços prestados pelo pessoal médico","Administração Regional de Saúde de Lisboa e Vale do Tejo, I. P. (503148776)",Galina Ceapa (278432387),"41.600,00 €",16-03-2018,08-03-2018,364 dias,"Portugal, Santarém","Artigo 20.º, n.º 1, alínea a) do Código dos Contratos Públicos",,,,,,Não aplicável.,Não aplicável.,FALSE
"Aquisição de serviços médicos sem especialidade para a ARSLVT, IP",Ajuste Direto Regime Geral,Aquisição de serviços,"85141000-9, Serviços prestados pelo pessoal médico","Administração Regional de Saúde de Lisboa e Vale do Tejo, I. P. (503148776)",Juliano Alcantara Rocha (261405608),"18.720,00 €",16-03-2018,05-03-2018,365 dias,"Portugal, Lisboa","Artigo 20.º, n.º 1, alínea a) do Código dos Contratos Públicos",,,,,,Não aplicável.,Não aplicável.,FALSE
"Aquisição de serviços médicos sem especialidade para a ARSLVT, IP",Ajuste Direto Regime Geral,Aquisição de serviços,"85141000-9, Serviços prestados pelo pessoal médico","Administração Regional de Saúde de Lisboa e Vale do Tejo, I. P. (503148776)",Pavel Ceapa (278431666),"41.600,00 €",16-03-2018,08-03-2018,365 dias,"Portugal, Santarém, Santarém","Artigo 20.º, n.º 1, alínea a) do Código dos Contratos Públicos",,,,,,Não aplicável.,Não aplicável.,FALSE
Aquisição de serviços médicos sem especialidade,Ajuste Direto Regime Geral,Aquisição de serviços,"85141000-9, Serviços prestados pelo pessoal médico","Administração Regional de Saúde de Lisboa e Vale do Tejo, I. P. (503148776)",Filipe António Fialho Taniça (120194066),"31.200,00 €",16-03-2018,01-03-2018,365 dias,"Portugal, Lisboa","Artigo 20.º, n.º 1, alínea a) do Código dos Contratos Públicos",,,,,,Não aplicável.,Não aplicável.,FALSE
Aquisição de vacinas contra a febre amarela (UDOSE) - V32,Ao abrigo de acordo-quadro (art.º 259.º),Aquisição de bens móveis,"33651600-4, Vacinas","Administração Regional de Saúde de Lisboa e Vale do Tejo, I. P. (503148776)","SANOFI - PROD. FARMACÊUTICOS, LDA. (500134960)","210.000,00 €",16-03-2018,05-03-2018,365 dias,"Portugal, Lisboa",Artigo 259.º do Código dos Contratos Públicos,,,,,,2327827,CP 2016/13-A - Acordo Quadro para fornecimento de Vacinas e Tuberculinas - Parte II,FALSE
Aquisição de vacinas contra difteria tétano e pertussis (UDOSE) V137,Ao abrigo de acordo-quadro (art.º 259.º),Aquisição de bens móveis,"33651600-4, Vacinas","Administração Regional de Saúde de Lisboa e Vale do Tejo, I. P. (503148776)",GLAXO SMITH KLINE-PROD. FARMACEUTICOS (500139962),"396.300,00 €",15-03-2018,07-03-2018,365 dias,"Portugal, Lisboa",Artigo 259.º do Código dos Contratos Públicos,,,,,,2327827,CP 2016/13-A - Acordo Quadro para fornecimento de Vacinas e Tuberculinas - Parte II,FALSE
"Aquisição de serviços para assegurar o Mandato Judicial em sede de processos de natureza cível, penal, administrativo, laboral e consultoria jurídica à ARSLVT, IP. - ano 2018.",Ajuste Direto Regime Geral,Aquisição de serviços,"79111000-5, Serviços de assessoria jurídica","Administração Regional de Saúde de Lisboa e Vale do Tejo, I. P. (503148776)","Neves Lima & Associados - Soc. Advogados, RL (507177690)","21.955,00 €",15-03-2018,12-03-2018,365 dias,"Portugal, Lisboa, Lisboa","Artigo 20.º, n.º 1, alínea a) do Código dos Contratos Públicos",,,,,,Não aplicável.,Não aplicável.,FALSE
Prestação de Serviços de Fiscalização da Empreitada de Remodelação do Centro de Saúde de Peniche.,Ajuste Direto Regime Geral,Aquisição de serviços,"71520000-9, Serviços de supervisão da construção","Administração Regional de Saúde de Lisboa e Vale do Tejo, I. P. (503148776)","PÓRTICO GABINETE DE ENGENHARIA, LDA (502460458)","26.460,00 €",15-03-2018,02-03-2018,210 dias,"Portugal, Leiria, Peniche","Artigo 20.º, n.º 1, alínea a) do Código dos Contratos Públicos",,,,,,Não aplicável.,Não aplicável.,FALSE
Aquisição de sonda de aspiração CH,Ajuste Direto Regime Geral,Aquisição de bens móveis,"33140000-3, Material médico de consumo","Administração Regional de Saúde de Lisboa e Vale do Tejo, I. P. (503148776)","MEDTRONIC PORTUGAL, LDA (504223933)","1.344,00 €",15-03-2018,23-02-2018,300 dias,"Portugal, Lisboa","Artigo 20.º, n.º 1, alínea a) do Código dos Contratos Públicos",,,,,,Não aplicável.,Não aplicável.,FALSE
Aquisição de sonda nelaton CH,Ajuste Direto Regime Geral,Aquisição de bens móveis,"33140000-3, Material médico de consumo","Administração Regional de Saúde de Lisboa e Vale do Tejo, I. P. (503148776)",EPJ (506820513),"894,40 €",15-03-2018,23-02-2018,300 dias,"Portugal, Lisboa","Artigo 20.º, n.º 1, alínea a) do Código dos Contratos Públicos",,,,,,Não aplicável.,Não aplicável.,FALSE
"Aquisição de veículos para a Administração Regional de Saúde de Lisboa e Vale do Tejo, IP",Ajuste Direto Regime Geral,Aquisição de bens móveis,"34100000-8, Veículos a motor","Administração Regional de Saúde de Lisboa e Vale do Tejo, I. P. (503148776)","Automóveis Citroen, SA (500038961)","113.226,00 €",15-03-2018,23-02-2018,30 dias,"Portugal, Lisboa, Lisboa","Artigo 24.º, n.º 1, alínea b) do Código dos Contratos Públicos",,,,,,Não aplicável.,Não aplicável.,FALSE
Aquisição de sonda de poliuretano p/ alimentação,Ajuste Direto Regime Geral,Aquisição de bens móveis,"33140000-3, Material médico de consumo","Administração Regional de Saúde de Lisboa e Vale do Tejo, I. P. (503148776)",EPJ (506820513),"2.854,00 €",15-03-2018,23-02-2018,300 dias,"Portugal, Lisboa","Artigo 20.º, n.º 1, alínea a) do Código dos Contratos Públicos",,,,,,Não aplicável.,Não aplicável.,FALSE
Aquisição de sonda rectal CH24,Ajuste Direto Regime Geral,Aquisição de bens móveis,"33140000-3, Material médico de consumo","Administração Regional de Saúde de Lisboa e Vale do Tejo, I. P. (503148776)",EPJ (506820513),"88,80 €",15-03-2018,23-02-2018,300 dias,"Portugal, Lisboa","Artigo 20.º, n.º 1, alínea a) do Código dos Contratos Públicos",,,,,,Não aplicável.,Não aplicável.,FALSE
Aquisição de sondas de silicone CH,Ajuste Direto Regime Geral,Aquisição de bens móveis,"33140000-3, Material médico de consumo","Administração Regional de Saúde de Lisboa e Vale do Tejo, I. P. (503148776)",VYGON (503232785),"22.977,20 €",15-03-2018,23-02-2018,300 dias,"Portugal, Lisboa","Artigo 20.º, n.º 1, alínea a) do Código dos Contratos Públicos",,,,,,Não aplicável.,Não aplicável.,FALSE
Aquisição de desosgestrel (75 MG) - D255,Ao abrigo de acordo-quadro (art.º 259.º),Aquisição de bens móveis,"33641400-9, Contraceptivos","Administração Regional de Saúde de Lisboa e Vale do Tejo, I. P. (503148776)","LOGIFARMA - LOGISTICA FARMACEUTICA, S.A. (503934640)","263.500,00 €",14-03-2018,07-03-2018,365 dias,"Portugal, Lisboa",Artigo 259.º do Código dos Contratos Públicos,,,,,,613817,"CONCURSO PÚBLICO PARA A CELEBRAÇÃO DE CONTRATOS PÚBLICOS DE APROVISIONAMENTO PARA A ÁREA DA SAÚDE, COM VISTA AO FORNECIMENTO DE CONTRACETIVOS ORAIS, PROFILATICOS E MECANICO, ÀS INSTITUIÇÕES E SERVIÇOS DO SERVIÇO NACIONAL DE SAÚDE",FALSE
Aquisição de acetato medroxiprogesterona (ISO MG) - A 28,Ao abrigo de acordo-quadro (art.º 259.º),Aquisição de bens móveis,"33641400-9, Contraceptivos","Administração Regional de Saúde de Lisboa e Vale do Tejo, I. P. (503148776)","LABORATORIOS PFIZER, S.A. (500162166)","7.155,00 €",14-03-2018,07-03-2018,365 dias,"Portugal, Lisboa",Artigo 259.º do Código dos Contratos Públicos,,,,,,613817,"CONCURSO PÚBLICO PARA A CELEBRAÇÃO DE CONTRATOS PÚBLICOS DE APROVISIONAMENTO PARA A ÁREA DA SAÚDE, COM VISTA AO FORNECIMENTO DE CONTRACETIVOS ORAIS, PROFILATICOS E MECANICO, ÀS INSTITUIÇÕES E SERVIÇOS DO SERVIÇO NACIONAL DE SAÚDE",FALSE
Aquisição de manga mista com fole p/ esterilização 15 cm,Ao abrigo de acordo-quadro (art.º 259.º),Aquisição de bens móveis,"33198200-6, Saquetas e invólucros de papel para esterilização",Adm.Reg.de Saúde de Lisboa e Vale do Tejo (ARSLVT) (503148776),"3M ESPAÑA, S.L., SUCURSAL EM PORTUGAL (980560241)","2.390,00 €",14-03-2018,09-03-2018,300 dias,"Portugal, Lisboa, Lisboa",Artigo 259.º do Código dos Contratos Públicos,,,,,,1974943,CP 2016/43 - Acordo quadro para fornecimento de Material para Empacotamento em Esterilização às Instituições e Serviços do Serviço Nacional de Saúde.,FALSE
"Aquisição de serviços médicos sem especialidade para a ARSLVT, IP",Ajuste Direto Regime Geral,Aquisição de serviços,"85141000-9, Serviços prestados pelo pessoal médico","Administração Regional de Saúde de Lisboa e Vale do Tejo, I. P. (503148776)",Marianna Katrich (277943256),"33.280,00 €",14-03-2018,02-03-2018,365 dias,"Portugal, Lisboa","Artigo 20.º, n.º 1, alínea a) do Código dos Contratos Públicos",,,,,,Não aplicável.,Não aplicável.,FALSE
"Aquisição de serviços médicos sem especialidade para a ARSLVT, IP",Ajuste Direto Regime Geral,Aquisição de serviços,"85141000-9, Serviços prestados pelo pessoal médico","Administração Regional de Saúde de Lisboa e Vale do Tejo, I. P. (503148776)",Henrique Manuel da Costa Samapio de Andrade (107592274),"41.600,00 €",14-03-2018,01-03-2018,365 dias,"Portugal, Setúbal","Artigo 20.º, n.º 1, alínea a) do Código dos Contratos Públicos",,,,,,Não aplicável.,Não aplicável.,FALSE
"Aquisição de serviços médicos sem especialidade para a ARSLVT, IP",Ajuste Direto Regime Geral,Aquisição de serviços,"85141000-9, Serviços prestados pelo pessoal médico","Administração Regional de Saúde de Lisboa e Vale do Tejo, I. P. (503148776)",Carlos Vieira Mendes Tavares (249943255),"41.600,00 €",14-03-2018,23-02-2018,365 dias,"Portugal, Lisboa, Sintra","Artigo 20.º, n.º 1, alínea a) do Código dos Contratos Públicos",,,,,,Não aplicável.,Não aplicável.,FALSE
"Aquisição de serviços médicos sem especialidade para a ARSLVT, IP",Ajuste Direto Regime Geral,Aquisição de serviços,"85141000-9, Serviços prestados pelo pessoal médico","Administração Regional de Saúde de Lisboa e Vale do Tejo, I. P. (503148776)",Lara Ingrid Sena Carvalho Lima Miranda (211954195),"41.600,00 €",14-03-2018,23-02-2018,365 dias,"Portugal, Lisboa, Sintra","Artigo 20.º, n.º 1, alínea a) do Código dos Contratos Públicos",,,,,,Não aplicável.,Não aplicável.,FALSE
Manutenção evolutiva do sistema RPRIR - para o ano de 2018,Ajuste Direto Regime Geral,Aquisição de serviços,"98390000-3, Outros serviços","Administração Regional de Saúde de Lisboa e Vale do Tejo, I. P. (503148776)",Luis Pedro Mendonça Santos de Paiva Boleo (165652640),"5.000,00 €",12-03-2018,12-03-2018,365 dias,"Portugal, Lisboa, Lisboa","Artigo 20.º, n.º 1, alínea a) do Código dos Contratos Públicos",,,,,,Não aplicável.,Não aplicável.,FALSE
CONTRATO DE PRESTAÇÃO DE SERVIÇOS ASSISTÊNCIA TÉCNICA - FOTOCOPIADORA REX ROTARY 1388,Ajuste Direto Regime Geral,Aquisição de serviços,"50000000-5, Serviços de reparação e manutenção","Administração Regional de Saúde de Lisboa e Vale do Tejo, I. P. (503148776)",Beltrão Coelho (502515350),"254,40 €",12-03-2018,20-02-2018,365 dias,"Portugal, Santarém, Rio Maior","Artigo 24.º, n.º 1, alínea e), subalínea i) do Código dos Contratos Públicos",,,,,,Não aplicável.,Não aplicável.,FALSE
"Aquisição de serviços médicos sem especialidade para a ARSLVT, IP ",Ajuste Direto Regime Geral,Aquisição de serviços,"85141000-9, Serviços prestados pelo pessoal médico","Administração Regional de Saúde de Lisboa e Vale do Tejo, I. P. (503148776)",José Maria Arez Romão Pais de Vasconcelos (250593262),"41.600,00 €",12-03-2018,05-03-2018,365 dias,"Portugal, Lisboa, Loures","Artigo 20.º, n.º 1, alínea a) do Código dos Contratos Públicos",,,,,,Não aplicável.,Não aplicável.,FALSE
"Aquisição de serviços médicos sem especialidade para a ARSLVT, IP ",Ajuste Direto Regime Geral,Aquisição de serviços,"85141000-9, Serviços prestados pelo pessoal médico","Administração Regional de Saúde de Lisboa e Vale do Tejo, I. P. (503148776)",Tatiana Bizgu (237997177),"41.600,00 €",12-03-2018,23-02-2018,365 dias,"Portugal, Lisboa, Sintra","Artigo 20.º, n.º 1, alínea a) do Código dos Contratos Públicos",,,,,,Não aplicável.,Não aplicável.,FALSE
CONCURSO PÚBLICO Nº 18K00021,Concurso público,Aquisição de serviços,"85100000-0, Serviços de saúde",Adm.Reg.de Saúde de Lisboa e Vale do Tejo (ARSLVT) (503148776),"Precise, SA (513993274)","55.120,00 €",12-03-2018,08-03-2018,365 dias,"Portugal, Lisboa","Artigo 20.º, n.º 1, alínea b) do Código dos Contratos Públicos",,,,,,Não aplicável.,Não aplicável.,FALSE
