Objeto do Contrato,Tipo de Procedimento,Tipo(s) de Contrato,CPVs,Entidade(s) Adjudicante(s),Entidade(s) Adjudicatária(s),Preço Contratual,Data de Publicação,Data de Celebração do Contrato,Prazo de Execução,Local de Execução,Fundamentação,Data de Fecho do Contrato,Preço Total Efetivo,Causas das Alterações ao Prazo,Causas das Alterações ao Preço,Estado,N.º registo do Acordo Quadro,Descrição do Acordo Quadro,Procedimento Centralizado
Aquisição de Economato,Ao abrigo de acordo-quadro (art.º 259.º),Aquisição de bens móveis,"30192000-1, Material de escritório","Centro Hospitalar do Médio Ave, E.P.E. (508093937)",OHM Técnica (504059521),"3.458,39 €",11-03-2016,01-01-2016,366 dias,"Portugal, Braga, Vila Nova de Famalicão<BR/>Portugal, Porto, Santo Tirso",Artigo 259.º do Código dos Contratos Públicos,"","",,"",,1351201,Acordo quadro de fornecimento de papel e economato,TRUE
Aquisição de Gás natural,Concurso público,Aquisição de bens móveis,"09123000-7, Gás natural","Centro Hospitalar do Médio Ave, E. P. E. (508093937)","Galp Power, SA (504723456)","57.328,00 €",11-03-2016,15-02-2016,334 dias,"Portugal, Braga, Vila Nova de Famalicão",Artigo 259.º do Código dos Contratos Públicos,"","",,"",,Não aplicável.,Não aplicável.,TRUE
Aquisição de Gas Natural para o CHPL Ano 2015-(UMC-SG),Concurso público,Aquisição de bens móveis,"09123000-7, Gás natural","Centro Hospitalar e Universitário de Coimbra, E. P. E. (510103448), Centro Hospitalar de Setúbal, E. P. E. (507606787), Instituto Nacional de Emergência Médica, I. P. (501356126), Centro Hospitalar Póvoa de Varzim - Vila do Conde, E. P. E. (508741823), Centro Hospitalar Porto, E. P. E. (508331471), Centro Hospitalar de Leiria, E. P. E. (509822932), Centro Hospitalar Cova da Beira, E. P. E. (506361659), Unidade Local de Saúde do Alto Minho, E. P. E. (508786193), Centro Hospitalar do Algarve, E. P. E. (510745997), Centro Hospitalar de Lisboa Central, E. P. E. (508080142), Instituto Nacional de Saúde Dr. Ricardo Jorge, I. P. (501427511), Hospital do Espírito Santo de Évora, E. P. E. (508085888), Centro Hospitalar Lisboa Norte, E. P. E. (508481287), Instituto de Oftalmologia Dr. Gama Pinto (600000052), Direcção-Geral da Saúde (600037100), Centro Hospitalar do Alto Ave, E. P. E. (508080827), Centro Hospitalar Vila Nova de Gaia - Espinho, E. P. E. (508142156), Hospital Garcia de Orta, E. P. E. (506361470), Administração Regional de Saúde do Centro, I. P. (503122165), Centro Hospitalar Tondela-Viseu, E. P. E. (509822940), Hospital de Magalhães Lemos, E. P. E. (502828790), Serviço de Intervenção nos Comportamentos Aditivos e nas Dependências (600084884), Hospital Arcebispo João Crisóstomo (501626123), Unidade Local de Saúde do Nordeste, E. P. E (509932584), Hospital de José Luciano de Castro (501613021), Administração Regional de Saúde do Norte, I. P. (503135593), Centro Hospitalar de Trás-os-Montes e Alto Douro, E. P. E. (508100496), Centro Hospitalar de Entre o Douro e Vouga, E.P.E. (508878462), Centro Hospitalar do Baixo Vouga, E. P. E (CHBV, E. P. E.) (510123210), Centro Hospitalar Psiquiátrico de Lisboa (508338476), Instituto Português do Sangue e da Transplantação, I. P. (502423943), Unidade Local de Saúde de Castelo Branco, E. P. E. (509309844), Centro Hospitalar de São João, E. P. E. (509821197), Centro Hospitalar de Lisboa Ocidental, E. P. E. (507618319), Centro Hospitalar do Tâmega e Sousa, E. P. E. (508318262), Instituto Português de Oncologia de Coimbra Francisco Gentil, E. P. E. (506361438), Administração Regional de Saúde de Lisboa e Vale do Tejo, I. P. (503148776), Centro Hospitalar do Médio Tejo, E. P. E. (506361608), Hospital Distrital de Santarém, E. P. E. (506361462), Unidade Local de Saúde da Guarda, E. P. E. (508752000), Hospital Dr. Francisco Zagalo (501510150), SUCH - Serviço de Utilização Comum dos Hospitais (500900469), Secretaria-Geral do Ministério da Saúde (600080684), Instituto Português de Oncologia do Porto Francisco Gentil, E. P. E. (506362299), Centro Hospitalar do Oeste (510412009), Hospital Santa Maria Maior, E. P. E. (506361381), Centro Hospitalar do Médio Ave, E. P. E. (508093937), Instituto Português de Oncologia de Lisboa Francisco Gentil, E. P. E. (506361616), Centro Hospitalar Barreiro Montijo, E. P. E. (509186998)","EDP Comercial, S.A (503504564)","579.733,88 €",07-03-2016,30-01-2015,365 dias,"Portugal, Lisboa, Lisboa",Artigo 259.º do Código dos Contratos Públicos,31-12-2015,"525.715,02 €",,Valor corresponde ao Faturado (inferior ao estimado),,Não aplicável.,Não aplicável.,TRUE
Aquisição de serviços de manutenção de equipamentos de gastroenterologia,Ajuste Direto Regime Geral,Aquisição de serviços,"50421000-2, Serviços de reparação e manutenção de equipamento médico","Centro Hospitalar Médio Ave, E.P.E.. (508093937)","OLYMPUS IBERIA S.A.U., Sucursal em Portugal (980474710)","19.788,65 €",02-03-2016,22-02-2016,306 dias,"Portugal, Braga, Vila Nova de Famalicão","Artigo 20.º, n.º 1, alínea a) do Código dos Contratos Públicos","","",,"",,Não aplicável.,Não aplicável.,FALSE
