Objeto do Contrato,Tipo de Procedimento,Tipo(s) de Contrato,CPVs,Entidade(s) Adjudicante(s),Entidade(s) Adjudicatária(s),Preço Contratual,Data de Publicação,Data de Celebração do Contrato,Prazo de Execução,Local de Execução,Fundamentação,Data de Fecho do Contrato,Preço Total Efetivo,Causas das Alterações ao Prazo,Causas das Alterações ao Preço,Estado,N.º registo do Acordo Quadro,Descrição do Acordo Quadro,Procedimento Centralizado
"Concurso Publico para celebração de contratos publicos de aprovisionamento para a area da saude, medicamentos do sistema nervoso cerebrospinal, exceto: anestesicos, relaxantes musculares, analgesicos, antipireticos, antidepressores e antipsicoticos, ás instituições e serviços do serviço nacional de saude.",Ao abrigo de acordo-quadro (art.º 259.º),Aquisição de bens móveis,"33600000-6, Produtos farmacêuticos","Centro Hospitalar do Tâmega e Sousa, E. P. E. (508318262)","UCB PHARMA (PRODUTOS FARMACÊUTICOS), LDA. (500291322)","199,52 €",21-09-2015,28-05-2015,213 dias,"Portugal, Porto, Penafiel<BR/>Portugal, Porto, Amarante","Artigo 20.º, n.º 1, alínea b) do Código dos Contratos Públicos","","",,,,1179911,"CONCURSO PÚBLICO PARA A CELEBRAÇÃO DE CONTRATOS PÚBLICOS DE APROVISIONAMENTO PARA A ÁREA DA SAÚDE, MEDICAMENTOS DO SISTEMA NERVOSO CEREBROSPINAL, EXCETO: ANESTÉSICOS, RELAXANTES MUSCULARES, ANALGÉSICOS, ANTIPIRÉTICOS, ANTIDEPRESSORES E ANTIPSICÓTICOS, ÀS INSTITUIÇÕES E SERVIÇOS DO SERVIÇO NACIONAL DE SAÚDE",FALSE
"Concurso Publico para celebração de contratos publicos de aprovisionamento para a area da saude, medicamentos do sistema nervoso cerebrospinal, exceto: anestesicos, relaxantes musculares, analgesicos, antipireticos, antidepressores e antipsicoticos, ás instituições e serviços do serviço nacional de saude.",Ao abrigo de acordo-quadro (art.º 259.º),Aquisição de bens móveis,"33600000-6, Produtos farmacêuticos","Centro Hospitalar do Tâmega e Sousa, E. P. E. (508318262)","TECNIFAR - INDÚSTRIA TÉCNICA FARMACÊUTICA, S.A.. (500280436)","625,39 €",21-09-2015,28-05-2015,213 dias,"Portugal, Porto, Penafiel<BR/>Portugal, Porto, Amarante","Artigo 20.º, n.º 1, alínea b) do Código dos Contratos Públicos","","",,,,1179911,"CONCURSO PÚBLICO PARA A CELEBRAÇÃO DE CONTRATOS PÚBLICOS DE APROVISIONAMENTO PARA A ÁREA DA SAÚDE, MEDICAMENTOS DO SISTEMA NERVOSO CEREBROSPINAL, EXCETO: ANESTÉSICOS, RELAXANTES MUSCULARES, ANALGÉSICOS, ANTIPIRÉTICOS, ANTIDEPRESSORES E ANTIPSICÓTICOS, ÀS INSTITUIÇÕES E SERVIÇOS DO SERVIÇO NACIONAL DE SAÚDE",FALSE
"Concurso Publico para celebração de contratos publicos de aprovisionamento para a area da saude, medicamentos do sistema nervoso cerebrospinal, exceto: anestesicos, relaxantes musculares, analgesicos, antipireticos, antidepressores e antipsicoticos, ás instituições e serviços do serviço nacional de saude.",Ao abrigo de acordo-quadro (art.º 259.º),Aquisição de bens móveis,"33600000-6, Produtos farmacêuticos","Centro Hospitalar do Tâmega e Sousa, E. P. E. (508318262)","SANOFI - PRODUTOS FARMACÊUTICOS, LDA.  (500134960)","1.222,98 €",21-09-2015,28-05-2015,213 dias,"Portugal, Porto, Penafiel<BR/>Portugal, Porto, Amarante","Artigo 20.º, n.º 1, alínea b) do Código dos Contratos Públicos","","",,,,1179911,"CONCURSO PÚBLICO PARA A CELEBRAÇÃO DE CONTRATOS PÚBLICOS DE APROVISIONAMENTO PARA A ÁREA DA SAÚDE, MEDICAMENTOS DO SISTEMA NERVOSO CEREBROSPINAL, EXCETO: ANESTÉSICOS, RELAXANTES MUSCULARES, ANALGÉSICOS, ANTIPIRÉTICOS, ANTIDEPRESSORES E ANTIPSICÓTICOS, ÀS INSTITUIÇÕES E SERVIÇOS DO SERVIÇO NACIONAL DE SAÚDE",FALSE
"Concurso Publico para celebração de contratos publicos de aprovisionamento para a area da saude, medicamentos do sistema nervoso cerebrospinal, exceto: anestesicos, relaxantes musculares, analgesicos, antipireticos, antidepressores e antipsicoticos, ás instituições e serviços do serviço nacional de saude.",Ao abrigo de acordo-quadro (art.º 259.º),Aquisição de bens móveis,"33600000-6, Produtos farmacêuticos","Centro Hospitalar do Tâmega e Sousa, E. P. E. (508318262)"," RATIOPHARM - COMÉRCIO E INDÚSTRIA DE PRODUTOS FARMACÊUTICOS, LDA. (502414910)","35,18 €",21-09-2015,28-05-2015,213 dias,"Portugal, Porto, Penafiel<BR/>Portugal, Porto, Amarante","Artigo 20.º, n.º 1, alínea b) do Código dos Contratos Públicos","","",,,,1179911,"CONCURSO PÚBLICO PARA A CELEBRAÇÃO DE CONTRATOS PÚBLICOS DE APROVISIONAMENTO PARA A ÁREA DA SAÚDE, MEDICAMENTOS DO SISTEMA NERVOSO CEREBROSPINAL, EXCETO: ANESTÉSICOS, RELAXANTES MUSCULARES, ANALGÉSICOS, ANTIPIRÉTICOS, ANTIDEPRESSORES E ANTIPSICÓTICOS, ÀS INSTITUIÇÕES E SERVIÇOS DO SERVIÇO NACIONAL DE SAÚDE",FALSE
"Concurso Publico para celebração de contratos publicos de aprovisionamento para a area da saude, medicamentos do sistema nervoso cerebrospinal, exceto: anestesicos, relaxantes musculares, analgesicos, antipireticos, antidepressores e antipsicoticos, ás instituições e serviços do serviço nacional de saude.",Ao abrigo de acordo-quadro (art.º 259.º),Aquisição de bens móveis,"33600000-6, Produtos farmacêuticos","Centro Hospitalar do Tâmega e Sousa, E. P. E. (508318262)","PHARMAKERN PORTUGAL - PRODUTOS FARMACÊUTICOS, SOCIEDADE UNIPESSOAL, LDA. (507002571)","11,18 €",21-09-2015,28-05-2015,213 dias,"Portugal, Porto, Penafiel<BR/>Portugal, Porto, Amarante","Artigo 20.º, n.º 1, alínea b) do Código dos Contratos Públicos","","",,,,1179911,"CONCURSO PÚBLICO PARA A CELEBRAÇÃO DE CONTRATOS PÚBLICOS DE APROVISIONAMENTO PARA A ÁREA DA SAÚDE, MEDICAMENTOS DO SISTEMA NERVOSO CEREBROSPINAL, EXCETO: ANESTÉSICOS, RELAXANTES MUSCULARES, ANALGÉSICOS, ANTIPIRÉTICOS, ANTIDEPRESSORES E ANTIPSICÓTICOS, ÀS INSTITUIÇÕES E SERVIÇOS DO SERVIÇO NACIONAL DE SAÚDE",FALSE
"Concurso Publico para celebração de contratos publicos de aprovisionamento para a area da saude, medicamentos do sistema nervoso cerebrospinal, exceto: anestesicos, relaxantes musculares, analgesicos, antipireticos, antidepressores e antipsicoticos, ás instituições e serviços do serviço nacional de saude.",Ao abrigo de acordo-quadro (art.º 259.º),Aquisição de bens móveis,"33600000-6, Produtos farmacêuticos","Centro Hospitalar do Tâmega e Sousa, E. P. E. (508318262)","OVERPHARMA - PRODUTOS MÉDICOS E FARMACÊUTICOS, LDA. (505792362)","15,26 €",21-09-2015,28-05-2015,213 dias,"Portugal, Porto, Penafiel<BR/>Portugal, Porto, Amarante","Artigo 20.º, n.º 1, alínea b) do Código dos Contratos Públicos","","",,,,1179911,"CONCURSO PÚBLICO PARA A CELEBRAÇÃO DE CONTRATOS PÚBLICOS DE APROVISIONAMENTO PARA A ÁREA DA SAÚDE, MEDICAMENTOS DO SISTEMA NERVOSO CEREBROSPINAL, EXCETO: ANESTÉSICOS, RELAXANTES MUSCULARES, ANALGÉSICOS, ANTIPIRÉTICOS, ANTIDEPRESSORES E ANTIPSICÓTICOS, ÀS INSTITUIÇÕES E SERVIÇOS DO SERVIÇO NACIONAL DE SAÚDE",FALSE
"Concurso Publico para celebração de contratos publicos de aprovisionamento para a area da saude, medicamentos do sistema nervoso cerebrospinal, exceto: anestesicos, relaxantes musculares, analgesicos, antipireticos, antidepressores e antipsicoticos, ás instituições e serviços do serviço nacional de saude.",Ao abrigo de acordo-quadro (art.º 259.º),Aquisição de bens móveis,"33600000-6, Produtos farmacêuticos","Centro Hospitalar do Tâmega e Sousa, E. P. E. (508318262)","MERCK SHARP & DOHME, LDA. (500191360)","265,49 €",21-09-2015,28-05-2015,213 dias,"Portugal, Porto, Penafiel<BR/>Portugal, Porto, Amarante","Artigo 20.º, n.º 1, alínea b) do Código dos Contratos Públicos","","",,,,1179911,"CONCURSO PÚBLICO PARA A CELEBRAÇÃO DE CONTRATOS PÚBLICOS DE APROVISIONAMENTO PARA A ÁREA DA SAÚDE, MEDICAMENTOS DO SISTEMA NERVOSO CEREBROSPINAL, EXCETO: ANESTÉSICOS, RELAXANTES MUSCULARES, ANALGÉSICOS, ANTIPIRÉTICOS, ANTIDEPRESSORES E ANTIPSICÓTICOS, ÀS INSTITUIÇÕES E SERVIÇOS DO SERVIÇO NACIONAL DE SAÚDE",FALSE
"Concurso Publico para celebração de contratos publicos de aprovisionamento para a area da saude, medicamentos do sistema nervoso cerebrospinal, exceto: anestesicos, relaxantes musculares, analgesicos, antipireticos, antidepressores e antipsicoticos, ás instituições e serviços do serviço nacional de saude.",Ao abrigo de acordo-quadro (art.º 259.º),Aquisição de bens móveis,"33600000-6, Produtos farmacêuticos","Centro Hospitalar do Tâmega e Sousa, E. P. E. (508318262)","LABESFAL - LABORATÓRIOS ALMIRO, S.A.. (501169580)","9.287,19 €",21-09-2015,28-05-2015,213 dias,"Portugal, Porto, Penafiel<BR/>Portugal, Porto, Amarante","Artigo 20.º, n.º 1, alínea b) do Código dos Contratos Públicos","","",,,,1179911,"CONCURSO PÚBLICO PARA A CELEBRAÇÃO DE CONTRATOS PÚBLICOS DE APROVISIONAMENTO PARA A ÁREA DA SAÚDE, MEDICAMENTOS DO SISTEMA NERVOSO CEREBROSPINAL, EXCETO: ANESTÉSICOS, RELAXANTES MUSCULARES, ANALGÉSICOS, ANTIPIRÉTICOS, ANTIDEPRESSORES E ANTIPSICÓTICOS, ÀS INSTITUIÇÕES E SERVIÇOS DO SERVIÇO NACIONAL DE SAÚDE",FALSE
"Concurso Publico para celebração de contratos publicos de aprovisionamento para a area da saude, medicamentos do sistema nervoso cerebrospinal, exceto: anestesicos, relaxantes musculares, analgesicos, antipireticos, antidepressores e antipsicoticos, ás instituições e serviços do serviço nacional de saude.",Ao abrigo de acordo-quadro (art.º 259.º),Aquisição de bens móveis,"33600000-6, Produtos farmacêuticos","Centro Hospitalar do Tâmega e Sousa, E. P. E. (508318262)",HIKMA FARMACÊUTICA (PORTUGAL) SA (502266791),"1.001,25 €",21-09-2015,28-05-2015,213 dias,"Portugal, Porto, Amarante<BR/>Portugal, Porto, Penafiel","Artigo 20.º, n.º 1, alínea b) do Código dos Contratos Públicos","","",,,,1179911,"CONCURSO PÚBLICO PARA A CELEBRAÇÃO DE CONTRATOS PÚBLICOS DE APROVISIONAMENTO PARA A ÁREA DA SAÚDE, MEDICAMENTOS DO SISTEMA NERVOSO CEREBROSPINAL, EXCETO: ANESTÉSICOS, RELAXANTES MUSCULARES, ANALGÉSICOS, ANTIPIRÉTICOS, ANTIDEPRESSORES E ANTIPSICÓTICOS, ÀS INSTITUIÇÕES E SERVIÇOS DO SERVIÇO NACIONAL DE SAÚDE",FALSE
"Concurso Publico para celebração de contratos publicos de aprovisionamento para a area da saude, medicamentos do sistema nervoso cerebrospinal, exceto: anestesicos, relaxantes musculares, analgesicos, antipireticos, antidepressores e antipsicoticos, ás instituições e serviços do serviço nacional de saude.",Ao abrigo de acordo-quadro (art.º 259.º),Aquisição de bens móveis,"33600000-6, Produtos farmacêuticos","Centro Hospitalar do Tâmega e Sousa, E. P. E. (508318262)","GLAXOSMITHKLINE - PRODUTOS FARMACÊUTICOS, LDA. (500139962)","2.210,61 €",21-09-2015,28-05-2015,213 dias,"Portugal, Porto, Amarante<BR/>Portugal, Porto, Penafiel","Artigo 20.º, n.º 1, alínea b) do Código dos Contratos Públicos","","",,,,1179911,"CONCURSO PÚBLICO PARA A CELEBRAÇÃO DE CONTRATOS PÚBLICOS DE APROVISIONAMENTO PARA A ÁREA DA SAÚDE, MEDICAMENTOS DO SISTEMA NERVOSO CEREBROSPINAL, EXCETO: ANESTÉSICOS, RELAXANTES MUSCULARES, ANALGÉSICOS, ANTIPIRÉTICOS, ANTIDEPRESSORES E ANTIPSICÓTICOS, ÀS INSTITUIÇÕES E SERVIÇOS DO SERVIÇO NACIONAL DE SAÚDE",FALSE
"Concurso Publico para celebração de contratos publicos de aprovisionamento para a area da saude, medicamentos do sistema nervoso cerebrospinal, exceto: anestesicos, relaxantes musculares, analgesicos, antipireticos, antidepressores e antipsicoticos, ás instituições e serviços do serviço nacional de saude.",Ao abrigo de acordo-quadro (art.º 259.º),Aquisição de bens móveis,"33600000-6, Produtos farmacêuticos","Centro Hospitalar do Tâmega e Sousa, E. P. E. (508318262)","GENERIS - FARMACÊUTICA, S.A.. (508107997)","424,41 €",21-09-2015,28-05-2015,213 dias,"Portugal, Porto, Penafiel<BR/>Portugal, Porto, Amarante","Artigo 20.º, n.º 1, alínea b) do Código dos Contratos Públicos","","",,,,1179911,"CONCURSO PÚBLICO PARA A CELEBRAÇÃO DE CONTRATOS PÚBLICOS DE APROVISIONAMENTO PARA A ÁREA DA SAÚDE, MEDICAMENTOS DO SISTEMA NERVOSO CEREBROSPINAL, EXCETO: ANESTÉSICOS, RELAXANTES MUSCULARES, ANALGÉSICOS, ANTIPIRÉTICOS, ANTIDEPRESSORES E ANTIPSICÓTICOS, ÀS INSTITUIÇÕES E SERVIÇOS DO SERVIÇO NACIONAL DE SAÚDE",FALSE
"Concurso Publico para celebração de contratos publicos de aprovisionamento para a area da saude, medicamentos do sistema nervoso cerebrospinal, exceto: anestesicos, relaxantes musculares, analgesicos, antipireticos, antidepressores e antipsicoticos, ás instituições e serviços do serviço nacional de saude.",Ao abrigo de acordo-quadro (art.º 259.º),Aquisição de bens móveis,"33600000-6, Produtos farmacêuticos","Centro Hospitalar do Tâmega e Sousa, E. P. E. (508318262)","FARMOZ - SOCIEDADE TÉCNICO MEDICINAL, S.A.. (501505334)","423,97 €",21-09-2015,28-05-2015,213 dias,"Portugal, Porto, Amarante<BR/>Portugal, Porto, Penafiel","Artigo 20.º, n.º 1, alínea b) do Código dos Contratos Públicos","","",,,,1179911,"CONCURSO PÚBLICO PARA A CELEBRAÇÃO DE CONTRATOS PÚBLICOS DE APROVISIONAMENTO PARA A ÁREA DA SAÚDE, MEDICAMENTOS DO SISTEMA NERVOSO CEREBROSPINAL, EXCETO: ANESTÉSICOS, RELAXANTES MUSCULARES, ANALGÉSICOS, ANTIPIRÉTICOS, ANTIDEPRESSORES E ANTIPSICÓTICOS, ÀS INSTITUIÇÕES E SERVIÇOS DO SERVIÇO NACIONAL DE SAÚDE",FALSE
"Concurso Publico para celebração de contratos publicos de aprovisionamento para a area da saude, medicamentos do sistema nervoso cerebrospinal, exceto: anestesicos, relaxantes musculares, analgesicos, antipireticos, antidepressores e antipsicoticos, ás instituições e serviços do serviço nacional de saude.",Ao abrigo de acordo-quadro (art.º 259.º),Aquisição de bens móveis,"33600000-6, Produtos farmacêuticos","Centro Hospitalar do Tâmega e Sousa, E. P. E. (508318262)","Combino Pharm Portugal, Unipessoal Lda (508622263)","1.275,00 €",21-09-2015,28-05-2015,213 dias,"Portugal, Porto, Amarante<BR/>Portugal, Porto, Penafiel","Artigo 20.º, n.º 1, alínea b) do Código dos Contratos Públicos","","",,,,1179911,"CONCURSO PÚBLICO PARA A CELEBRAÇÃO DE CONTRATOS PÚBLICOS DE APROVISIONAMENTO PARA A ÁREA DA SAÚDE, MEDICAMENTOS DO SISTEMA NERVOSO CEREBROSPINAL, EXCETO: ANESTÉSICOS, RELAXANTES MUSCULARES, ANALGÉSICOS, ANTIPIRÉTICOS, ANTIDEPRESSORES E ANTIPSICÓTICOS, ÀS INSTITUIÇÕES E SERVIÇOS DO SERVIÇO NACIONAL DE SAÚDE",FALSE
"Concurso Publico para celebração de contratos publicos de aprovisionamento para a area da saude, medicamentos do sistema nervoso cerebrospinal, exceto: anestesicos, relaxantes musculares, analgesicos, antipireticos, antidepressores e antipsicoticos, ás instituições e serviços do serviço nacional de saude.",Ao abrigo de acordo-quadro (art.º 259.º),Aquisição de bens móveis,"33600000-6, Produtos farmacêuticos","Centro Hospitalar do Tâmega e Sousa, E. P. E. (508318262)",BLUEFISH PHARMACEUTICALS AB (980429986),"53,42 €",21-09-2015,28-05-2015,213 dias,"Portugal, Porto, Penafiel<BR/>Portugal, Porto, Amarante","Artigo 20.º, n.º 1, alínea b) do Código dos Contratos Públicos","","",,,,1179911,"CONCURSO PÚBLICO PARA A CELEBRAÇÃO DE CONTRATOS PÚBLICOS DE APROVISIONAMENTO PARA A ÁREA DA SAÚDE, MEDICAMENTOS DO SISTEMA NERVOSO CEREBROSPINAL, EXCETO: ANESTÉSICOS, RELAXANTES MUSCULARES, ANALGÉSICOS, ANTIPIRÉTICOS, ANTIDEPRESSORES E ANTIPSICÓTICOS, ÀS INSTITUIÇÕES E SERVIÇOS DO SERVIÇO NACIONAL DE SAÚDE",FALSE
"Medicamentos usados nas afeções cutâneas - Lote 1, 6, 11, 14",Ao abrigo de acordo-quadro (art.º 259.º),Aquisição de bens móveis,"33600000-6, Produtos farmacêuticos","Centro Hospitalar do Tâmega e Sousa, E. P. E. (508318262)","LABORATÓRIO MEDINFAR - PRODUTOS FARMACÊUTICOS, S.A. (500384045)","2.380,64 €",18-09-2015,07-09-2015,114 dias,"Portugal, Porto, Amarante<BR/>Portugal, Porto, Penafiel",Artigo 259.º do Código dos Contratos Públicos,"","",,,,1370278,CP 2015/51 - Acordo quadro para fornecimento de medicamentos usados nas afeções cutâneas às instituições e serviços do serviço nacional de saúde,FALSE
Medicamentos usados nas afeções cutâneas - Lote 7,Ao abrigo de acordo-quadro (art.º 259.º),Aquisição de bens móveis,"33600000-6, Produtos farmacêuticos","Centro Hospitalar do Tâmega e Sousa, E. P. E. (508318262)","GLAXOSMITHKLINE - PRODUTOS FARMACÊUTICOS, LDA. (500139962)","114,00 €",18-09-2015,07-09-2015,114 dias,"Portugal, Porto, Amarante<BR/>Portugal, Porto, Penafiel",Artigo 259.º do Código dos Contratos Públicos,"","",,,,1370278,CP 2015/51 - Acordo quadro para fornecimento de medicamentos usados nas afeções cutâneas às instituições e serviços do serviço nacional de saúde,FALSE
Medicamentos usados nas afeções cutâneas - Lote 2,Ao abrigo de acordo-quadro (art.º 259.º),Aquisição de bens móveis,"33600000-6, Produtos farmacêuticos","Centro Hospitalar do Tâmega e Sousa, E. P. E. (508318262)","Genéris Farmacêutica, S.A. (508107997)","900,00 €",18-09-2015,07-09-2015,114 dias,"Portugal, Porto, Penafiel<BR/>Portugal, Porto, Amarante",Artigo 259.º do Código dos Contratos Públicos,"","",,,,1370278,CP 2015/51 - Acordo quadro para fornecimento de medicamentos usados nas afeções cutâneas às instituições e serviços do serviço nacional de saúde,FALSE
Medicamentos usados nas afeções cutâneas - Lote 3,Ao abrigo de acordo-quadro (art.º 259.º),Aquisição de bens móveis,"33600000-6, Produtos farmacêuticos","Centro Hospitalar do Tâmega e Sousa, E. P. E. (508318262)","FARMOZ - SOCIEDADE TÉCNICO MEDICINAL, S.A. (501505334)","144,00 €",18-09-2015,07-09-2015,114 dias,"Portugal, Porto, Penafiel<BR/>Portugal, Porto, Amarante",Artigo 259.º do Código dos Contratos Públicos,"","",,,,1370278,CP 2015/51 - Acordo quadro para fornecimento de medicamentos usados nas afeções cutâneas às instituições e serviços do serviço nacional de saúde,FALSE
"Medicamentos usados nas afeções cutâneas - Lote 8,9",Ao abrigo de acordo-quadro (art.º 259.º),Aquisição de bens móveis,"33600000-6, Produtos farmacêuticos","Centro Hospitalar do Tâmega e Sousa, E. P. E. (508318262)","LABORATÓRIO EDOL - PRODUTOS FARMACÊUTICOS, S.A. (507072642)","96,90 €",18-09-2015,07-09-2015,114 dias,"Portugal, Porto, Amarante<BR/>Portugal, Porto, Penafiel",Artigo 259.º do Código dos Contratos Públicos,"","",,,,1370278,CP 2015/51 - Acordo quadro para fornecimento de medicamentos usados nas afeções cutâneas às instituições e serviços do serviço nacional de saúde,FALSE
Medicamentos usados nas afeções cutâneas - Lote 12,Ao abrigo de acordo-quadro (art.º 259.º),Aquisição de bens móveis,"33600000-6, Produtos farmacêuticos","Centro Hospitalar do Tâmega e Sousa, E. P. E. (508318262)","B.BRAUN MEDICAL, LDA. (501506543)","9.000,00 €",18-09-2015,07-09-2015,114 dias,"Portugal, Porto, Amarante<BR/>Portugal, Porto, Penafiel",Artigo 259.º do Código dos Contratos Públicos,"","",,,,1370278,CP 2015/51 - Acordo quadro para fornecimento de medicamentos usados nas afeções cutâneas às instituições e serviços do serviço nacional de saúde,FALSE
"Medicamentos usados nas afeções cutâneas - Lote 15, 16",Ao abrigo de acordo-quadro (art.º 259.º),Aquisição de bens móveis,"33600000-6, Produtos farmacêuticos","Centro Hospitalar do Tâmega e Sousa, E. P. E. (508318262)","ASTRAZENECA - PRODUTOS FARMACÊUTICOS, LDA. (502942240)","569,80 €",18-09-2015,07-09-2015,114 dias,"Portugal, Porto, Penafiel<BR/>Portugal, Porto, Amarante",Artigo 259.º do Código dos Contratos Públicos,"","",,,,1370278,CP 2015/51 - Acordo quadro para fornecimento de medicamentos usados nas afeções cutâneas às instituições e serviços do serviço nacional de saúde,FALSE
Medicamentos usados nas afeções cutâneas - Lote 4,Ao abrigo de acordo-quadro (art.º 259.º),Aquisição de bens móveis,"33600000-6, Produtos farmacêuticos","Centro Hospitalar do Tâmega e Sousa, E. P. E. (508318262)"," ANGELINI FARMACÊUTICA, LDA. (500583650)","149,70 €",17-09-2015,07-09-2015,114 dias,"Portugal, Porto, Penafiel<BR/>Portugal, Porto, Amarante",Artigo 259.º do Código dos Contratos Públicos,"","",,,,1370278,CP 2015/51 - Acordo quadro para fornecimento de medicamentos usados nas afeções cutâneas às instituições e serviços do serviço nacional de saúde,FALSE
Equipamento para Gastrenterologia - Aparelhos endoscópicos,Ajuste Direto Regime Geral,Aquisição de bens móveis,"33100000-1, Equipamento médico","Centro Hospitalar do Tâmega e Sousa, E.P.E. (508318262)",OLYMPUS IBERIA - SUCURSAL EM PORTUGAL LDA.  (980474710),"70.000,00 €",17-09-2015,08-07-2015,30 dias,"Portugal, Porto, Amarante","Artigo 26.º, n.º 1, alínea a) do Código dos Contratos Públicos",05-08-2015,"70.000,00 €",,,,Não aplicável.,Não aplicável.,FALSE
Aquisição de Equipamento para Gastrenterologia - Torres de imagem,Ajuste Direto Regime Geral,Aquisição de bens móveis,"33100000-1, Equipamento médico","Centro Hospitalar do Tâmega e Sousa, E.P.E. (508318262)",OLYMPUS IBERIA - SUCURSAL EM PORTUGAL LDA.  (980474710),"72.298,80 €",17-09-2015,08-07-2015,30 dias,"Portugal, Porto, Amarante<BR/>Portugal, Porto, Penafiel","Artigo 26.º, n.º 1, alínea a) do Código dos Contratos Públicos",06-08-2015,"72.298,80 €",,,,Não aplicável.,Não aplicável.,FALSE
Aquisição de Sistema de Angiografia,Concurso público,Aquisição de bens móveis,"33111720-4, Aparelhos para angiografia","Centro Hospitalar do Tâmega e Sousa, E. P. E. (508318262)","PHILIPS PORTUGUESA, S.A.. (500216843)","349.295,00 €",15-09-2015,09-07-2015,50 dias,"Portugal, Porto, Amarante<BR/>Portugal, Porto, Penafiel","Artigo 20.º, n.º 1, alínea b) do Código dos Contratos Públicos","","",,,,Não aplicável.,Não aplicável.,FALSE
Fornecimento de Diverso Material para Urologia,Ajuste Direto Regime Geral,Aquisição de bens móveis,"33140000-3, Material médico de consumo","Centro Hospitalar do Tâmega e Sousa, E. P. E. (508318262)","C.R.BARD (PORTUGAL) - PRODUTOS E ARTIGOS MÉDICOS E FARMACÊUTICOS, LDA. (502438274)","2.188,40 €",14-09-2015,01-07-2015,360 dias,"Portugal, Porto, Penafiel<BR/>Portugal, Porto, Amarante","Artigo 20.º, n.º 1, alínea a) do Código dos Contratos Públicos","","",,,,Não aplicável.,Não aplicável.,FALSE
Fornecimento de Diverso Material para Urologia,Ajuste Direto Regime Geral,Aquisição de bens móveis,"33140000-3, Material médico de consumo","Centro Hospitalar do Tâmega e Sousa, E. P. E. (508318262)","COLOPLAST PORTUGAL, SOCIEDADE UNIPESSOAL, LDA. (503989037)","22.302,50 €",14-09-2015,01-07-2015,360 dias,"Portugal, Porto, Amarante<BR/>Portugal, Porto, Penafiel","Artigo 20.º, n.º 1, alínea a) do Código dos Contratos Públicos","","",,,,Não aplicável.,Não aplicável.,FALSE
