Objeto do Contrato,Tipo de Procedimento,Tipo(s) de Contrato,CPVs,Entidade(s) Adjudicante(s),Entidade(s) Adjudicatária(s),Preço Contratual,Data de Publicação,Data de Celebração do Contrato,Prazo de Execução,Local de Execução,Fundamentação,Data de Fecho do Contrato,Preço Total Efetivo,Causas das Alterações ao Prazo,Causas das Alterações ao Preço,Estado,N.º registo do Acordo Quadro,Descrição do Acordo Quadro,Procedimento Centralizado
20180401 - Aquisição de Kits de reagentes (elisa) para Projeto de Investigação,Ajuste Direto Regime Geral,Aquisição de bens móveis,"33696500-0, Reagentes de laboratório","Instituto Nacional de Saúde Doutor Ricardo Jorge, I. P. (501427511)","LABINOX - EQUIPAMENTOS E ASSISTÊNCIA TÉCNICA, LDA (503067890)","5.992,00 €",20-07-2018,20-07-2018,90 dias,"Portugal, Lisboa, Lisboa","Artigo 20.º, n.º 1, alínea d) do Código dos Contratos Públicos",08-10-2018,"5.991,96 €",,Faturação,,Não aplicável.,Não aplicável.,FALSE
20180373 - Aquisição de material de consumo clínico para Projeto de Investigação,Consulta Prévia,Aquisição de bens móveis,"33140000-3, Material médico de consumo","Instituto Nacional de Saúde Doutor Ricardo Jorge, I. P. (501427511)","Option2lab, Lda (509959296)","176,40 €",19-07-2018,19-07-2018,90 dias,"Portugal, Lisboa, Lisboa","Artigo 20.º, n.º 1, alínea c) do Código dos Contratos Públicos",08-11-2018,"176,40 €",,"",,Não aplicável.,Não aplicável.,FALSE
20180298 - Aquisição de amostras para Avaliação Externa da Qualidade,Ajuste Direto Regime Geral,Aquisição de bens móveis,"33696500-0, Reagentes de laboratório","Instituto Nacional de Saúde Doutor Ricardo Jorge, I. P. (501427511)",Charles River Microbial Solutions International Limited (IE3464447OH),"473,00 €",19-07-2018,16-07-2018,150 dias,"Portugal, Porto, Porto","Artigo 24.º, n.º 1, alínea e), subalínea iii) do Código dos Contratos Públicos",19-12-2018,"473,00 €",,"",,Não aplicável.,Não aplicável.,FALSE
20180398 - Aquisição de material de consumo clínico (Agulhas),Ajuste Direto Regime Geral,Aquisição de bens móveis,"33141320-9, Agulhas para fins médicos","Instituto Nacional de Saúde Doutor Ricardo Jorge, I. P. (501427511)","Normax - Fabrica de Vidros Cientificos, Lda. (500203130)","61,07 €",13-07-2018,13-07-2018,90 dias,"Portugal, Lisboa, Lisboa","Artigo 20.º, n.º 1, alínea d) do Código dos Contratos Públicos",15-10-2018,"61,07 €",,"",,Não aplicável.,Não aplicável.,FALSE
20180023 - Prestação de serviços Joana Albuquerque,Ajuste Direto Regime Geral,Aquisição de serviços,"73111000-3, Serviços relacionados com laboratórios de investigação","Instituto Nacional de Saúde Doutor Ricardo Jorge, I. P. (501427511)",Joana Isabel Silva de Albuquerque (238056864),"9.950,00 €",13-07-2018,06-04-2018,270 dias,"Portugal, Lisboa, Lisboa","Artigo 20.º, n.º 1, alínea d) do Código dos Contratos Públicos","","",,"",,Não aplicável.,Não aplicável.,FALSE
20180022 - Prestação serviços Dora Francisco,Ajuste Direto Regime Geral,Aquisição de serviços,"79416000-3, Serviços de relações públicas","Instituto Nacional de Saúde Doutor Ricardo Jorge, I. P. (501427511)",Dora Sofia da Cruz Francisco (217390285),"12.000,00 €",13-07-2018,09-04-2018,270 dias,"Portugal, Lisboa, Lisboa","Artigo 20.º, n.º 1, alínea d) do Código dos Contratos Públicos","","",,"",,Não aplicável.,Não aplicável.,FALSE
20180381 - Prestação serviços Lurdes Lucas,Ajuste Direto Regime Geral,Aquisição de serviços,"79131000-1, Serviços de documentação","Instituto Nacional de Saúde Doutor Ricardo Jorge, I. P. (501427511)",Maria de Lurdes Oliveira Santos Lucas (186721897),"4.900,00 €",13-07-2018,10-07-2018,210 dias,"Portugal, Porto, Porto","Artigo 20.º, n.º 1, alínea d) do Código dos Contratos Públicos",19-12-2018,"4.900,00 €",,"",,Não aplicável.,Não aplicável.,FALSE
20180352 - Solução Padrão de selenato,Ajuste Direto Regime Geral,Aquisição de bens móveis,"33696500-0, Reagentes de laboratório","Instituto Nacional de Saúde Doutor Ricardo Jorge, I. P. (501427511)","LABORSPIRIT, LDA (507485149)","182,00 €",13-07-2018,10-07-2018,60 dias,"Portugal, Lisboa, Lisboa","Artigo 24.º, n.º 1, alínea a) do Código dos Contratos Públicos",20-09-2018,"182,00 €",,"",,Não aplicável.,Não aplicável.,FALSE
20180361 - Coluna para HPLC,Ajuste Direto Regime Geral,Aquisição de bens móveis,"44523300-5, Acessórios","Instituto Nacional de Saúde Doutor Ricardo Jorge, I. P. (501427511)",Waters (510433669),"657,90 €",13-07-2018,10-07-2018,60 dias,"Portugal, Lisboa, Lisboa","Artigo 24.º, n.º 1, alínea e), subalínea iii) do Código dos Contratos Públicos",18-09-2018,"657,90 €",,"",,Não aplicável.,Não aplicável.,FALSE
20180370 - Acessórios de equipamento automatizado,Ajuste Direto Regime Geral,Aquisição de bens móveis,"44523300-5, Acessórios","Instituto Nacional de Saúde Doutor Ricardo Jorge, I. P. (501427511)",Biomerieux Portugal (501524177),"799,00 €",13-07-2018,10-07-2018,60 dias,"Portugal, Setúbal, Palmela","Artigo 24.º, n.º 1, alínea c) do Código dos Contratos Públicos",30-10-2018,"799,00 €",,"",,Não aplicável.,Não aplicável.,FALSE
20180362 - Aquisição de reagentes químicos,Ajuste Direto Regime Geral,Aquisição de bens móveis,"33696300-8, Reagentes químicos","Instituto Nacional de Saúde Doutor Ricardo Jorge, I. P. (501427511)","LABORSPIRIT, LDA (507485149)","432,15 €",13-07-2018,10-07-2018,60 dias,"Portugal, Lisboa, Lisboa","Artigo 20.º, n.º 1, alínea d) do Código dos Contratos Públicos",06-11-2018,"432,15 €",,"",,Não aplicável.,Não aplicável.,FALSE
20180386 - Reparação de 8 bombas de amostragem,Consulta Prévia,Aquisição de serviços,"50000000-5, Serviços de reparação e manutenção","Instituto Nacional de Saúde Doutor Ricardo Jorge, I. P. (501427511)",AMBICONTROL - CONTROLO DE POLUICAO (502715464),"844,00 €",12-07-2018,25-06-2018,60 dias,"Portugal, Porto, Porto","Artigo 20.º, n.º 1, alínea c) do Código dos Contratos Públicos",15-10-2018,"844,00 €",,"",,Não aplicável.,Não aplicável.,FALSE
20180385 - Reparação de um cromatografo,Ajuste Direto Regime Geral,Aquisição de serviços,"50000000-5, Serviços de reparação e manutenção","Instituto Nacional de Saúde Doutor Ricardo Jorge, I. P. (501427511)","SOQUIMICA - SOC DE REP DE QUIMICA, (500274231)","170,78 €",12-07-2018,25-06-2018,60 dias,"Portugal, Lisboa, Lisboa","Artigo 24.º, n.º 1, alínea e), subalínea ii) do Código dos Contratos Públicos",09-08-2018,"170,78 €",,"",,Não aplicável.,Não aplicável.,FALSE
20180360 - Acessórios para equipamentos automatizados,Ajuste Direto Regime Geral,Aquisição de bens móveis,"44523300-5, Acessórios","Instituto Nacional de Saúde Doutor Ricardo Jorge, I. P. (501427511)",STAGO (509952976),"1.184,99 €",12-07-2018,06-06-2018,120 dias,"Portugal, Lisboa, Lisboa<BR/>Portugal, Porto, Porto","Artigo 24.º, n.º 1, alínea e), subalínea iii) do Código dos Contratos Públicos",20-09-2018,"1.184,99 €",,"",,Não aplicável.,Não aplicável.,FALSE
20180306 - Aquisição de Hank`s BSS,Consulta Prévia,Aquisição de bens móveis,"33696500-0, Reagentes de laboratório","Instituto Nacional de Saúde Doutor Ricardo Jorge, I. P. (501427511)","VWR,Lda (503842770)","53,60 €",12-07-2018,08-06-2018,120 dias,"Portugal, Setúbal, Palmela","Artigo 20.º, n.º 1, alínea c) do Código dos Contratos Públicos","","",,"",,Não aplicável.,Não aplicável.,FALSE
20180276 -Acessórios de equipamento,Ajuste Direto Regime Geral,Aquisição de bens móveis,"33140000-3, Material médico de consumo","Instituto Nacional de Saúde Doutor Ricardo Jorge, I. P. (501427511)",ROCHE SISTEMAS DIAGNÓSTICO LDA (504282921),"305,00 €",12-07-2018,23-05-2018,120 dias,"Portugal, Setúbal, Palmela","Artigo 24.º, n.º 1, alínea e), subalínea iii) do Código dos Contratos Públicos",23-08-2018,"305,00 €",,"",,Não aplicável.,Não aplicável.,FALSE
20180232 - Aquisição de oligonucleótidos,Ajuste Direto Regime Geral,Aquisição de bens móveis,"33696500-0, Reagentes de laboratório","Instituto Nacional de Saúde Doutor Ricardo Jorge, I. P. (501427511)",ALFAGENE - NOVAS TECNOLOGIAS DAS C (503387398),"800,00 €",12-07-2018,26-03-2018,120 dias,"Portugal, Lisboa, Lisboa","Artigo 24.º, n.º 1, alínea c) do Código dos Contratos Públicos",19-12-2018,"800,00 €",,"",,Não aplicável.,Não aplicável.,FALSE
20180183 - Padrões deuterados,Ajuste Direto Regime Geral,Aquisição de bens móveis,"33696500-0, Reagentes de laboratório","Instituto Nacional de Saúde Doutor Ricardo Jorge, I. P. (501427511)","Tracer Tecnologias Analíticas, SL (CIF ESB82689092)","28.200,00 €",12-07-2018,11-04-2018,120 dias,"Portugal, Porto, Porto","Artigo 24.º, n.º 1, alínea e), subalínea iii) do Código dos Contratos Públicos",19-12-2018,"28.200,00 €",,"",,Não aplicável.,Não aplicável.,FALSE
20180371 - Reagentes para biologia molecular,Ajuste Direto Regime Geral,Aquisição de bens móveis,"33696500-0, Reagentes de laboratório","Instituto Nacional de Saúde Doutor Ricardo Jorge, I. P. (501427511)",ALFAGENE - NOVAS TECNOLOGIAS DAS C (503387398),"59,78 €",12-07-2018,06-07-2018,30 dias,"Portugal, Setúbal, Palmela","Artigo 24.º, n.º 1, alínea e), subalínea iii) do Código dos Contratos Públicos",18-09-2018,"59,78 €",,"",,Não aplicável.,Não aplicável.,FALSE
"Aquisição de padrões, materiais de referencia e controlos",Concurso público,Aquisição de bens móveis,"33696500-0, Reagentes de laboratório","Instituto Nacional de Saúde Doutor Ricardo Jorge, I. P. (501427511)","CSPSAUDE - Centro de Serviços Partilhados, SA (508440246)","271,00 €",12-07-2018,02-04-2018,285 dias,"Portugal, Lisboa, Lisboa","Artigo 20.º, n.º 1, alínea b) do Código dos Contratos Públicos","","",,"",,Não aplicável.,Não aplicável.,FALSE
"Material de manutenção e conservação de Cromatografia, Espectrometria, Potenciometria, Microscopia",Concurso público,Aquisição de bens móveis,"33140000-3, Material médico de consumo","Instituto Nacional de Saúde Doutor Ricardo Jorge, I. P. (501427511)","ZMWay, Lda (508085349)","862,00 €",11-07-2018,09-03-2018,298 dias,"Portugal, Lisboa, Lisboa","Artigo 20.º, n.º 1, alínea b) do Código dos Contratos Públicos","","",,"",,Não aplicável.,Não aplicável.,FALSE
"Material de manutenção e conservação de Cromatografia, Espectrometria, Potenciometria, Microscopia",Concurso público,Aquisição de bens móveis,"33140000-3, Material médico de consumo","Instituto Nacional de Saúde Doutor Ricardo Jorge, I. P. (501427511)","FILSAT - EQUIPAMENTOS MEDICOS CIENTIFICOS, LDA (506708616)","2.860,00 €",11-07-2018,09-03-2018,298 dias,"Portugal, Lisboa, Lisboa","Artigo 20.º, n.º 1, alínea b) do Código dos Contratos Públicos","","",,"",,Não aplicável.,Não aplicável.,FALSE
"Material de manutenção e conservação de Cromatografia, Espectrometria, Potenciometria, Microscopia",Concurso público,Aquisição de bens móveis,"33140000-3, Material médico de consumo","Instituto Nacional de Saúde Doutor Ricardo Jorge, I. P. (501427511)","NORLEQ - EQUIPAMENTOS E SERVIÇOS, LDA (509880509)","222,00 €",11-07-2018,09-03-2018,298 dias,"Portugal, Lisboa, Lisboa","Artigo 20.º, n.º 1, alínea b) do Código dos Contratos Públicos","","",,"",,Não aplicável.,Não aplicável.,FALSE
"Material de manutenção e conservação de Cromatografia, Espectrometria, Potenciometria, Microscopia",Concurso público,Aquisição de bens móveis,"33140000-3, Material médico de consumo","Instituto Nacional de Saúde Doutor Ricardo Jorge, I. P. (501427511)",AMBICONTROL - CONTROLO DE POLUICAO (502715464),"16.488,00 €",11-07-2018,29-03-2018,298 dias,"Portugal, Lisboa, Lisboa","Artigo 20.º, n.º 1, alínea b) do Código dos Contratos Públicos","","",,"",,Não aplicável.,Não aplicável.,FALSE
"Material de manutenção e conservação de Cromatografia, Espectrometria, Potenciometria, Microscopia",Concurso público,Aquisição de bens móveis,"33140000-3, Material médico de consumo","Instituto Nacional de Saúde Doutor Ricardo Jorge, I. P. (501427511)",Waters (510433669),"9.559,46 €",11-07-2018,09-03-2018,298 dias,"Portugal, Lisboa, Lisboa","Artigo 20.º, n.º 1, alínea b) do Código dos Contratos Públicos","","",,"",,Não aplicável.,Não aplicável.,FALSE
"Material de manutenção e conservação de Cromatografia, Espectrometria, Potenciometria, Microscopia",Concurso público,Aquisição de bens móveis,"33140000-3, Material médico de consumo","Instituto Nacional de Saúde Doutor Ricardo Jorge, I. P. (501427511)",Qlabo - Equipamentos de Lab. & Serviços Ldª (503829994),"579,50 €",11-07-2018,09-03-2018,298 dias,"Portugal, Lisboa, Lisboa","Artigo 20.º, n.º 1, alínea b) do Código dos Contratos Públicos","","",,"",,Não aplicável.,Não aplicável.,FALSE
"Material de manutenção e conservação de Cromatografia, Espectrometria, Potenciometria, Microscopia",Concurso público,Aquisição de bens móveis,"33140000-3, Material médico de consumo","Instituto Nacional de Saúde Doutor Ricardo Jorge, I. P. (501427511)","LABORSPIRIT, LDA (507485149)","5.533,54 €",11-07-2018,09-03-2018,298 dias,"Portugal, Lisboa, Lisboa","Artigo 20.º, n.º 1, alínea b) do Código dos Contratos Públicos","","",,"",,Não aplicável.,Não aplicável.,FALSE
"Material de manutenção e conservação de Cromatografia, Espectrometria, Potenciometria, Microscopia",Concurso público,Aquisição de bens móveis,"33140000-3, Material médico de consumo","Instituto Nacional de Saúde Doutor Ricardo Jorge, I. P. (501427511)","Frilabo II, Lda (507958861)","505,50 €",11-07-2018,09-03-2018,298 dias,"Portugal, Lisboa, Lisboa","Artigo 20.º, n.º 1, alínea b) do Código dos Contratos Públicos","","",,"",,Não aplicável.,Não aplicável.,FALSE
"Material de manutenção e conservação de Cromatografia, Espectrometria, Potenciometria, Microscopia",Concurso público,Aquisição de bens móveis,"33140000-3, Material médico de consumo","Instituto Nacional de Saúde Doutor Ricardo Jorge, I. P. (501427511)",ILC - INSTRUMENTOS DE LABORAT. E CI (500948208),"5.965,90 €",11-07-2018,09-03-2018,298 dias,"Portugal, Lisboa, Lisboa","Artigo 20.º, n.º 1, alínea b) do Código dos Contratos Públicos","","",,"",,Não aplicável.,Não aplicável.,FALSE
"Material de manutenção e conservação de Cromatografia, Espectrografia, Potenciometria, Microscopia",Concurso público,Aquisição de bens móveis,"33140000-3, Material médico de consumo","Instituto Nacional de Saúde Doutor Ricardo Jorge, I. P. (501427511)",Ambergo Lda (503741353),"857,00 €",11-07-2018,09-03-2018,298 dias,"Portugal, Lisboa, Lisboa","Artigo 20.º, n.º 1, alínea b) do Código dos Contratos Públicos","","",,"",,Não aplicável.,Não aplicável.,FALSE
