Objeto do Contrato,Tipo de Procedimento,Tipo(s) de Contrato,CPVs,Entidade(s) Adjudicante(s),Entidade(s) Adjudicatária(s),Preço Contratual,Data de Publicação,Data de Celebração do Contrato,Prazo de Execução,Local de Execução,Fundamentação,Data de Fecho do Contrato,Preço Total Efetivo,Causas das Alterações ao Prazo,Causas das Alterações ao Preço,Estado,N.º registo do Acordo Quadro,Descrição do Acordo Quadro,Procedimento Centralizado
Fornecimento de refeições confecionadas APROV-15000032,Ao abrigo de acordo-quadro (art.º 259.º),Aquisição de serviços,"55520000-1, Serviços de fornecimento de refeições (catering)","Administração Regional de Saúde do Algarve, I. P. (503148709), Administração Regional de Saúde do Norte, I. P. (503135593), Secretaria-Geral do Ministério da Saúde - SNCP (600080684), Administração Regional de Saúde de Lisboa e Vale do Tejo, I. P. (503148776)","GERTAL - Companhia Geral de Restaurantes e Alimentção, S.A. (500126623)","111.987,50 €",08-02-2016,01-03-2015,306 dias,"Portugal, Porto, Porto<BR/>Portugal, Distrito não determinado, Concelho não determinado","Artigo 20.º, n.º 1, alínea b) do Código dos Contratos Públicos","","",,"",,1125527,Acordo quadro para o fornecimento de refeições confecionadas,TRUE
Fornecimento de Eletricidade em Regime de Mercado Livre,Ao abrigo de acordo-quadro (art.º 259.º),Aquisição de bens móveis,"09310000-5, Electricidade",Secretaria-Geral do Ministério da Saúde - SNCP (600080684),"EDP COMERCIAL - Comercialização de Energia, S.A. (503504564)","18.243,90 €",04-02-2016,01-01-2016,366 dias,"Portugal, Lisboa, Lisboa",Artigo 259.º do Código dos Contratos Públicos,31-12-2016,"20.068,30 €",,"Considerando que o consumo de eletricidade é necessariamente uma quantidade estimada, não sendo nunca possível prever a quantidade exata de energia que será consumida num ano, mas apenas uma quantidade aproximada, tendo em conta o histórico de consumos, verificou-se que as quantidades estimadas de energia ativa, aquando da fase pré-contratual, ficaram um pouco aquém das necessidades, tendo sido consumidas no final de novembro, pelo que foi feita adenda ao contrato com vista a garantir o fornecimento de eletricidade às instalações referidas, até término da vigência do contrato. ",,314294,Acordo quadro para o fornecimento de electricidade em regime de mercado livre para Portugal Continental,TRUE
