Objeto do Contrato,Tipo de Procedimento,Tipo(s) de Contrato,CPVs,Entidade(s) Adjudicante(s),Entidade(s) Adjudicatária(s),Preço Contratual,Data de Publicação,Data de Celebração do Contrato,Prazo de Execução,Local de Execução,Fundamentação,Data de Fecho do Contrato,Preço Total Efetivo,Causas das Alterações ao Prazo,Causas das Alterações ao Preço,Estado,N.º registo do Acordo Quadro,Descrição do Acordo Quadro,Procedimento Centralizado
Medicamentos,Ajuste Direto Regime Geral,Aquisição de bens móveis,"33000000-0, Equipamento médico, medicamentos e produtos para cuidados pessoais","Unidade Local de Saúde do Norte Alentejano, E. P. E. (508094461)","SANOFI- PRODUTOS FARMACÊUTICOS,LDA. (500134960)","5.180,76 €",31-08-2015,16-05-2014,60 dias,"Portugal, Portalegre, Portalegre","Artigo 24.º, n.º 1, alínea e) do Código dos Contratos Públicos",01-07-2014,"5.180,76 €","","",,Não aplicável.,Não aplicável.,FALSE
MEDICAMENTOS,Ajuste Direto Regime Geral,Aquisição de bens móveis,"33000000-0, Equipamento médico, medicamentos e produtos para cuidados pessoais","Unidade Local de Saúde do Norte Alentejano, E. P. E. (508094461)","ROCHE FARMACÊUTICA QUIMICA, LDA.                   (500233810)","5.379,80 €",31-08-2015,13-02-2014,30 dias,"Portugal, Portalegre, Portalegre<BR/>Portugal, Portalegre, Elvas","Artigo 20.º, n.º 1, alínea a) do Código dos Contratos Públicos",13-02-2014,"5.379,80 €","","",,Não aplicável.,Não aplicável.,FALSE
MEDICAMENTOS,Ajuste Direto Regime Geral,Aquisição de bens móveis,"33000000-0, Equipamento médico, medicamentos e produtos para cuidados pessoais","Unidade Local de Saúde do Norte Alentejano, E. P. E. (508094461)","JANSSEN CILAG FARMACEUTICA, LDA.                   (500189412)","5.543,18 €",31-08-2015,12-02-2014,30 dias,"Portugal, Portalegre, Elvas<BR/>Portugal, Portalegre, Portalegre","Artigo 20.º, n.º 1, alínea a) do Código dos Contratos Públicos",12-02-2014,"5.543,18 €","","",,Não aplicável.,Não aplicável.,FALSE
Medicamentos,Ajuste Direto Regime Geral,Aquisição de bens móveis,"33000000-0, Equipamento médico, medicamentos e produtos para cuidados pessoais","Unidade Local de Saúde do Norte Alentejano, E. P. E. (508094461)",CSL BEHRING (501513426),"7.700,00 €",31-08-2015,30-07-2014,30 dias,"Portugal, Portalegre, Portalegre<BR/>Portugal, Portalegre, Elvas","Artigo 20.º, n.º 1, alínea a) do Código dos Contratos Públicos",30-07-2014,"7.700,00 €","","",,Não aplicável.,Não aplicável.,FALSE
Medicamentos,Ajuste Direto Regime Geral,Aquisição de bens móveis,"33000000-0, Equipamento médico, medicamentos e produtos para cuidados pessoais","Unidade Local de Saúde do Norte Alentejano, E. P. E. (508094461)",MERCK SHARP DOHME (503358991),"8.861,60 €",31-08-2015,30-07-2014,30 dias,"Portugal, Portalegre, Elvas<BR/>Portugal, Portalegre, Portalegre","Artigo 20.º, n.º 1, alínea a) do Código dos Contratos Públicos",30-07-2014,"8.861,60 €","","",,Não aplicável.,Não aplicável.,FALSE
AQUISIÇÃO DE MEDICAMENTOS,Ajuste Direto Regime Geral,Aquisição de bens móveis,"33000000-0, Equipamento médico, medicamentos e produtos para cuidados pessoais","Unidade Local de Saúde do Norte Alentejano, E. P. E. (508094461)",SANOFI PASTEUR MSD SA                              (507632796),"14.846,00 €",31-08-2015,14-04-2014,30 dias,"Portugal, Portalegre, Portalegre<BR/>Portugal, Portalegre, Elvas","Artigo 20.º, n.º 1, alínea a) do Código dos Contratos Públicos",31-08-2015,"14.846,00 €","","",,Não aplicável.,Não aplicável.,FALSE
AQUISIÇAO DE MEDICAMENTOS,Ajuste Direto Regime Geral,Aquisição de bens móveis,"33000000-0, Equipamento médico, medicamentos e produtos para cuidados pessoais","Unidade Local de Saúde do Norte Alentejano, E. P. E. (508094461)","GLAXOSMITHKLINE-PROD. FARMACÊUTICOS, LDA.          (500139962)","7.488,60 €",31-08-2015,14-04-2014,30 dias,"Portugal, Portalegre, Elvas<BR/>Portugal, Portalegre, Portalegre","Artigo 20.º, n.º 1, alínea a) do Código dos Contratos Públicos",31-08-2015,"7.488,60 €","","",,Não aplicável.,Não aplicável.,FALSE
Medicamentos,Ajuste Direto Regime Geral,Aquisição de bens móveis,"33000000-0, Equipamento médico, medicamentos e produtos para cuidados pessoais","Unidade Local de Saúde do Norte Alentejano, E. P. E. (508094461)","ABBVIE,LDA (510229050)","9.960,39 €",31-08-2015,04-08-2014,30 dias,"Portugal, Portalegre, Elvas<BR/>Portugal, Portalegre, Portalegre","Artigo 20.º, n.º 1, alínea a) do Código dos Contratos Públicos",04-08-2014,"9.960,39 €","","",,Não aplicável.,Não aplicável.,FALSE
AQUISIÇÃO DE MEDICAMENTOS,Ajuste Direto Regime Geral,Aquisição de bens móveis,"33000000-0, Equipamento médico, medicamentos e produtos para cuidados pessoais","Unidade Local de Saúde do Norte Alentejano, E. P. E. (508094461)","ROCHE FARMACÊUTICA QUIMICA, LDA.                   (500233810)","20.328,80 €",31-08-2015,11-04-2014,30 dias,"Portugal, Portalegre, Elvas<BR/>Portugal, Portalegre, Portalegre","Artigo 20.º, n.º 1, alínea a) do Código dos Contratos Públicos",31-08-2015,"20.328,80 €","","",,Não aplicável.,Não aplicável.,FALSE
Medicamentos,Ajuste Direto Regime Geral,Aquisição de bens móveis,"33000000-0, Equipamento médico, medicamentos e produtos para cuidados pessoais","Unidade Local de Saúde do Norte Alentejano, E. P. E. (508094461)","ROCHE FARMACÊUTICA QUIMICA, LDA. (500233810)","5.424,39 €",31-08-2015,16-05-2014,60 dias,"Portugal, Portalegre, Portalegre","Artigo 24.º, n.º 1, alínea e) do Código dos Contratos Públicos",01-07-2014,"5.424,39 €","","",,Não aplicável.,Não aplicável.,FALSE
AQUISIÇÃO DE MEDICAMENTOS,Ajuste Direto Regime Geral,Aquisição de bens móveis,"33000000-0, Equipamento médico, medicamentos e produtos para cuidados pessoais","Unidade Local de Saúde do Norte Alentejano, E. P. E. (508094461)","ABBVIE,LDA                                         (510229050)","8.904,22 €",31-08-2015,11-04-2014,30 dias,"Portugal, Portalegre, Elvas<BR/>Portugal, Portalegre, Portalegre","Artigo 20.º, n.º 1, alínea a) do Código dos Contratos Públicos",31-08-2015,"8.904,22 €","","",,Não aplicável.,Não aplicável.,FALSE
Medicamentos,Ajuste Direto Regime Geral,Aquisição de bens móveis,"33000000-0, Equipamento médico, medicamentos e produtos para cuidados pessoais","Unidade Local de Saúde do Norte Alentejano, E. P. E. (508094461)","ABBVIE,LDA (510229050)","6.057,78 €",31-08-2015,16-05-2014,60 dias,"Portugal, Portalegre, Portalegre","Artigo 24.º, n.º 1, alínea e) do Código dos Contratos Públicos",01-07-2014,"6.057,78 €","","",,Não aplicável.,Não aplicável.,FALSE
AQUISIÇÃO DE MEDICAMENTOS,Ajuste Direto Regime Geral,Aquisição de bens móveis,"33000000-0, Equipamento médico, medicamentos e produtos para cuidados pessoais","Unidade Local de Saúde do Norte Alentejano, E. P. E. (508094461)","AMGEN BIOFARMACÊUTICA, LDA.                        (502942959)","6.000,00 €",31-08-2015,11-04-2014,30 dias,"Portugal, Portalegre, Portalegre<BR/>Portugal, Portalegre, Elvas","Artigo 20.º, n.º 1, alínea a) do Código dos Contratos Públicos",31-08-2015,"6.000,00 €","","",,Não aplicável.,Não aplicável.,FALSE
AQUISIÇÃO DE MEDICAMENTOS,Ajuste Direto Regime Geral,Aquisição de bens móveis,"33000000-0, Equipamento médico, medicamentos e produtos para cuidados pessoais","Unidade Local de Saúde do Norte Alentejano, E. P. E. (508094461)","ROCHE FARMACÊUTICA QUIMICA, LDA.                   (500233810)","7.449,96 €",31-08-2015,11-04-2014,30 dias,"Portugal, Portalegre, Portalegre<BR/>Portugal, Portalegre, Elvas","Artigo 20.º, n.º 1, alínea a) do Código dos Contratos Públicos",31-08-2015,"7.449,96 €","","",,Não aplicável.,Não aplicável.,FALSE
AQUISIÇÃO DE MEDICAMENTOS,Ajuste Direto Regime Geral,Aquisição de bens móveis,"33000000-0, Equipamento médico, medicamentos e produtos para cuidados pessoais","Unidade Local de Saúde do Norte Alentejano, E. P. E. (508094461)","LAB. PFIZER, LDA.                                  (500162166)","10.373,70 €",31-08-2015,31-08-2015,30 dias,"Portugal, Portalegre, Portalegre<BR/>Portugal, Portalegre, Elvas","Artigo 20.º, n.º 1, alínea a) do Código dos Contratos Públicos",31-08-2015,"10.373,70 €","","",,Não aplicável.,Não aplicável.,FALSE
Medicamentos,Ajuste Direto Regime Geral,Aquisição de bens móveis,"33000000-0, Equipamento médico, medicamentos e produtos para cuidados pessoais","Unidade Local de Saúde do Norte Alentejano, E. P. E. (508094461)",GILEAD SCIENCES LDA.                               (507301161),"46.183,83 €",28-08-2015,14-04-2015,30 dias,"Portugal, Portalegre, Portalegre<BR/>Portugal, Portalegre, Elvas","Artigo 24.º, n.º 1, alínea e) do Código dos Contratos Públicos",14-04-2015,"46.183,83 €","","",,Não aplicável.,Não aplicável.,FALSE
MEDICAMENTOS,Ajuste Direto Regime Geral,Aquisição de bens móveis,"33000000-0, Equipamento médico, medicamentos e produtos para cuidados pessoais","Unidade Local de Saúde do Norte Alentejano, E. P. E. (508094461)","ROCHE FARMACÊUTICA QUIMICA, LDA.                   (500233810)","5.308,20 €",28-08-2015,11-02-2014,30 dias,"Portugal, Portalegre, Portalegre<BR/>Portugal, Portalegre, Elvas","Artigo 20.º, n.º 1, alínea a) do Código dos Contratos Públicos","","","","",,Não aplicável.,Não aplicável.,FALSE
MEDICAMENTOS,Ajuste Direto Regime Geral,Aquisição de bens móveis,"33000000-0, Equipamento médico, medicamentos e produtos para cuidados pessoais","Unidade Local de Saúde do Norte Alentejano, E. P. E. (508094461)",OVERPHARMA - PRODUTOS MEDICOS E FARM.              (505792362),"5.752,95 €",28-08-2015,11-02-2014,30 dias,"Portugal, Portalegre, Elvas<BR/>Portugal, Portalegre, Portalegre","Artigo 20.º, n.º 1, alínea a) do Código dos Contratos Públicos",11-02-2014,"5.752,95 €","","",,Não aplicável.,Não aplicável.,FALSE
MEDICAMENTOS,Ajuste Direto Regime Geral,Aquisição de bens móveis,"33000000-0, Equipamento médico, medicamentos e produtos para cuidados pessoais","Unidade Local de Saúde do Norte Alentejano, E. P. E. (508094461)","JANSSEN CILAG FARMACEUTICA, LDA.                   (500189412)","13.163,93 €",28-08-2015,11-02-2014,30 dias,"Portugal, Portalegre, Portalegre<BR/>Portugal, Portalegre, Elvas","Artigo 20.º, n.º 1, alínea a) do Código dos Contratos Públicos",11-02-2014,"13.163,93 €","","",,Não aplicável.,Não aplicável.,FALSE
Medicamentos,Ajuste Direto Regime Geral,Aquisição de bens móveis,"33000000-0, Equipamento médico, medicamentos e produtos para cuidados pessoais","Unidade Local de Saúde do Norte Alentejano, E. P. E. (508094461)",MERCK SHARP DOHME (500191360),"5.328,81 €",28-08-2015,21-05-2015,60 dias,"Portugal, Portalegre, Portalegre","Artigo 24.º, n.º 1, alínea e) do Código dos Contratos Públicos",01-07-2015,"5.328,81 €","","",,Não aplicável.,Não aplicável.,FALSE
Medicamentos,Ajuste Direto Regime Geral,Aquisição de bens móveis,"33000000-0, Equipamento médico, medicamentos e produtos para cuidados pessoais","Unidade Local de Saúde do Norte Alentejano, E. P. E. (508094461)","JANSSEN CILAG FARMACEUTICA, LDA. (500189412)","7.608,60 €",28-08-2015,21-05-2015,60 dias,"Portugal, Portalegre, Portalegre","Artigo 24.º, n.º 1, alínea e) do Código dos Contratos Públicos",01-07-2015,"7.608,60 €","","",,Não aplicável.,Não aplicável.,FALSE
MEDICAMENTOS,Ajuste Direto Regime Geral,Aquisição de bens móveis,"33000000-0, Equipamento médico, medicamentos e produtos para cuidados pessoais","Unidade Local de Saúde do Norte Alentejano, E. P. E. (508094461)","NOVARTIS FARMA-PROD.FARMACÊUTICOS,SA.              (500063524)","6.499,55 €",28-08-2015,07-02-2014,30 dias,"Portugal, Portalegre, Portalegre<BR/>Portugal, Portalegre, Elvas","Artigo 20.º, n.º 1, alínea a) do Código dos Contratos Públicos",07-02-2014,"6.499,55 €","","",,Não aplicável.,Não aplicável.,FALSE
Medicamentos,Ajuste Direto Regime Geral,Aquisição de bens móveis,"33000000-0, Equipamento médico, medicamentos e produtos para cuidados pessoais","Unidade Local de Saúde do Norte Alentejano, E. P. E. (508094461)",GILEAD SCIENCES LDA.                               (507301161),"23.091,94 €",28-08-2015,22-04-2015,30 dias,"Portugal, Portalegre, Elvas<BR/>Portugal, Portalegre, Portalegre","Artigo 24.º, n.º 1, alínea e) do Código dos Contratos Públicos",22-04-2015,"23.091,94 €","","",,Não aplicável.,Não aplicável.,FALSE
Medicamentos,Ajuste Direto Regime Geral,Aquisição de bens móveis,"33000000-0, Equipamento médico, medicamentos e produtos para cuidados pessoais","Unidade Local de Saúde do Norte Alentejano, E. P. E. (508094461)",GILEAD SCIENCES LDA.                               (507301161),"230.919,36 €",28-08-2015,31-03-2015,30 dias,"Portugal, Portalegre, Elvas<BR/>Portugal, Portalegre, Portalegre","Artigo 24.º, n.º 1, alínea e) do Código dos Contratos Públicos",31-03-2015,"230.919,36 €","","",,Não aplicável.,Não aplicável.,FALSE
MEDICAMENTOS,Ajuste Direto Regime Geral,Aquisição de bens móveis,"33000000-0, Equipamento médico, medicamentos e produtos para cuidados pessoais","Unidade Local de Saúde do Norte Alentejano, E. P. E. (508094461)","B BRAUN MEDICAL, LDA.                              (501506543)","11.968,31 €",28-08-2015,05-02-2014,30 dias,"Portugal, Portalegre, Portalegre<BR/>Portugal, Portalegre, Elvas","Artigo 20.º, n.º 1, alínea a) do Código dos Contratos Públicos",05-02-2014,"11.968,31 €","","",,Não aplicável.,Não aplicável.,FALSE
MEDICAMENTOS,Ajuste Direto Regime Geral,Aquisição de bens móveis,"33000000-0, Equipamento médico, medicamentos e produtos para cuidados pessoais","Unidade Local de Saúde do Norte Alentejano, E. P. E. (508094461)","GENERIS - FARMACEUTICA, S.A.                       (508107997)","6.552,00 €",28-08-2015,05-02-2014,30 dias,"Portugal, Portalegre, Portalegre<BR/>Portugal, Portalegre, Elvas","Artigo 20.º, n.º 1, alínea a) do Código dos Contratos Públicos",05-02-2014,"6.552,00 €","","",,Não aplicável.,Não aplicável.,FALSE
MEDICAMENTOS,Ajuste Direto Regime Geral,Aquisição de bens móveis,"33000000-0, Equipamento médico, medicamentos e produtos para cuidados pessoais","Unidade Local de Saúde do Norte Alentejano, E. P. E. (508094461)","JANSSEN CILAG FARMACEUTICA, LDA.                   (500189412)","5.543,18 €",28-08-2015,05-02-2014,30 dias,"Portugal, Portalegre, Elvas<BR/>Portugal, Portalegre, Portalegre","Artigo 20.º, n.º 1, alínea a) do Código dos Contratos Públicos",05-02-2014,"5.543,18 €","","",,Não aplicável.,Não aplicável.,FALSE
MEDICAMENTOS,Ajuste Direto Regime Geral,Aquisição de bens móveis,"33000000-0, Equipamento médico, medicamentos e produtos para cuidados pessoais","Unidade Local de Saúde do Norte Alentejano, E. P. E. (508094461)","SANOFI- PRODUTOS FARMACÊUTICOS,LDA.                (500134960)","5.711,04 €",28-08-2015,05-02-2014,30 dias,"Portugal, Portalegre, Elvas<BR/>Portugal, Portalegre, Portalegre","Artigo 20.º, n.º 1, alínea a) do Código dos Contratos Públicos",05-02-2014,"5.711,04 €","","",,Não aplicável.,Não aplicável.,FALSE
Medicamentos,Ajuste Direto Regime Geral,Aquisição de bens móveis,"33000000-0, Equipamento médico, medicamentos e produtos para cuidados pessoais","Unidade Local de Saúde do Norte Alentejano, E. P. E. (508094461)","AMGEN BIOFARMACÊUTICA, LDA. (502942959)","5.284,29 €",28-08-2015,26-05-2015,60 dias,"Portugal, Portalegre, Portalegre","Artigo 24.º, n.º 1, alínea e) do Código dos Contratos Públicos",01-07-2015,"5.284,29 €","","",,Não aplicável.,Não aplicável.,FALSE
MEDICAMENTOS,Ajuste Direto Regime Geral,Aquisição de bens móveis,"33000000-0, Equipamento médico, medicamentos e produtos para cuidados pessoais","Unidade Local de Saúde do Norte Alentejano, E. P. E. (508094461)","ASTRAZENECA-PRODUTOS FARMACÊUTICOS,LDA.            (502942240)","9.647,75 €",28-08-2015,04-02-2014,30 dias,"Portugal, Portalegre, Elvas<BR/>Portugal, Portalegre, Portalegre","Artigo 20.º, n.º 1, alínea a) do Código dos Contratos Públicos",04-02-2014,"9.647,75 €","","",,Não aplicável.,Não aplicável.,FALSE
MEDICAMENTOS,Ajuste Direto Regime Geral,Aquisição de bens móveis,"33000000-0, Equipamento médico, medicamentos e produtos para cuidados pessoais","Unidade Local de Saúde do Norte Alentejano, E. P. E. (508094461)",IPSEN PORTUGAL-PRODUTOS FARMACÊUTICOS SA.          (502609800),"9.761,00 €",28-08-2015,04-02-2014,30 dias,"Portugal, Portalegre, Portalegre<BR/>Portugal, Portalegre, Elvas","Artigo 20.º, n.º 1, alínea a) do Código dos Contratos Públicos",04-02-2014,"9.761,00 €","","",,Não aplicável.,Não aplicável.,FALSE
MEDICAMENTOS,Ajuste Direto Regime Geral,Aquisição de bens móveis,"33000000-0, Equipamento médico, medicamentos e produtos para cuidados pessoais","Unidade Local de Saúde do Norte Alentejano, E. P. E. (508094461)","ROCHE FARMACÊUTICA QUIMICA, LDA.                   (500233810)","23.077,26 €",28-08-2015,04-02-2014,30 dias,"Portugal, Portalegre, Portalegre<BR/>Portugal, Portalegre, Elvas","Artigo 20.º, n.º 1, alínea a) do Código dos Contratos Públicos",04-02-2014,"23.077,26 €","","",,Não aplicável.,Não aplicável.,FALSE
MEDICAMENTOS,Ajuste Direto Regime Geral,Aquisição de bens móveis,"33000000-0, Equipamento médico, medicamentos e produtos para cuidados pessoais","Unidade Local de Saúde do Norte Alentejano, E. P. E. (508094461)","NOVARTIS FARMA-PROD.FARMACÊUTICOS,SA.              (500063524)","9.971,10 €",28-08-2015,03-02-2014,30 dias,"Portugal, Portalegre, Elvas<BR/>Portugal, Portalegre, Portalegre","Artigo 20.º, n.º 1, alínea a) do Código dos Contratos Públicos",03-02-2014,"9.971,10 €","","",,Não aplicável.,Não aplicável.,FALSE
MEDICAMENTOS,Ajuste Direto Regime Geral,Aquisição de bens móveis,"33000000-0, Equipamento médico, medicamentos e produtos para cuidados pessoais","Unidade Local de Saúde do Norte Alentejano, E. P. E. (508094461)","ABBVIE,LDA                                         (510229050)","5.189,10 €",28-08-2015,03-02-2014,30 dias,"Portugal, Portalegre, Portalegre<BR/>Portugal, Portalegre, Elvas","Artigo 20.º, n.º 1, alínea a) do Código dos Contratos Públicos",03-02-2014,"5.189,10 €","","",,Não aplicável.,Não aplicável.,FALSE
MEDICAMENTOS,Ajuste Direto Regime Geral,Aquisição de bens móveis,"33000000-0, Equipamento médico, medicamentos e produtos para cuidados pessoais","Unidade Local de Saúde do Norte Alentejano, E. P. E. (508094461)",GILEAD SCIENCES LDA.                               (503604704),"9.520,04 €",28-08-2015,31-01-2014,30 dias,"Portugal, Portalegre, Elvas<BR/>Portugal, Portalegre, Portalegre","Artigo 20.º, n.º 1, alínea a) do Código dos Contratos Públicos",31-01-2014,"9.520,04 €","","",,Não aplicável.,Não aplicável.,FALSE
MEDICAMENTOS,Ajuste Direto Regime Geral,Aquisição de bens móveis,"33000000-0, Equipamento médico, medicamentos e produtos para cuidados pessoais","Unidade Local de Saúde do Norte Alentejano, E. P. E. (508094461)",MERCK SHARP DOHME                                  (500191360),"10.049,78 €",28-08-2015,30-01-2014,30 dias,"Portugal, Portalegre, Portalegre<BR/>Portugal, Portalegre, Elvas","Artigo 20.º, n.º 1, alínea a) do Código dos Contratos Públicos",30-01-2014,"10.049,78 €","","",,Não aplicável.,Não aplicável.,FALSE
MEDICAMENTOS,Ajuste Direto Regime Geral,Aquisição de bens móveis,"33000000-0, Equipamento médico, medicamentos e produtos para cuidados pessoais","Unidade Local de Saúde do Norte Alentejano, E. P. E. (508094461)","LAB. PFIZER, LDA.                                  (500162166)","8.861,60 €",28-08-2015,30-01-2014,30 dias,"Portugal, Portalegre, Portalegre<BR/>Portugal, Portalegre, Elvas","Artigo 20.º, n.º 1, alínea a) do Código dos Contratos Públicos",30-01-2014,"8.861,60 €","","",,Não aplicável.,Não aplicável.,FALSE
MEDICAMENTOS,Ajuste Direto Regime Geral,Aquisição de bens móveis,"33000000-0, Equipamento médico, medicamentos e produtos para cuidados pessoais","Unidade Local de Saúde do Norte Alentejano, E. P. E. (508094461)","JANSSEN CILAG FARMACEUTICA, LDA.                   (500189412)","9.198,11 €",28-08-2015,30-01-2014,30 dias,"Portugal, Portalegre, Portalegre<BR/>Portugal, Portalegre, Elvas","Artigo 20.º, n.º 1, alínea a) do Código dos Contratos Públicos",30-01-2014,"9.198,11 €","","",,Não aplicável.,Não aplicável.,FALSE
Medicamentos,Ajuste Direto Regime Geral,Aquisição de bens móveis,"33000000-0, Equipamento médico, medicamentos e produtos para cuidados pessoais","Unidade Local de Saúde do Norte Alentejano, E. P. E. (508094461)","MERCK, SA (500650870)","6.866,80 €",27-08-2015,29-05-2015,60 dias,"Portugal, Portalegre, Portalegre","Artigo 24.º, n.º 1, alínea e) do Código dos Contratos Públicos",01-07-2015,"6.866,80 €","","",,Não aplicável.,Não aplicável.,FALSE
Medicamentos,Ajuste Direto Regime Geral,Aquisição de bens móveis,"33000000-0, Equipamento médico, medicamentos e produtos para cuidados pessoais","Unidade Local de Saúde do Norte Alentejano, E. P. E. (508094461)",ROCHE SISTEMA DE DIAGNOSTICOS (504282921),"8.031,60 €",27-08-2015,01-04-2015,30 dias,"Portugal, Portalegre, Portalegre<BR/>Portugal, Portalegre, Elvas","Artigo 24.º, n.º 1, alínea e) do Código dos Contratos Públicos",01-04-2015,"8.031,60 €","","",,Não aplicável.,Não aplicável.,FALSE
MEDICAMENTOS,Ajuste Direto Regime Geral,Aquisição de bens móveis,"33000000-0, Equipamento médico, medicamentos e produtos para cuidados pessoais","Unidade Local de Saúde do Norte Alentejano, E. P. E. (508094461)",GILEAD SCIENCES LDA.                               (503604704),"19.040,08 €",27-08-2015,30-01-2014,30 dias,"Portugal, Portalegre, Elvas<BR/>Portugal, Portalegre, Portalegre","Artigo 20.º, n.º 1, alínea a) do Código dos Contratos Públicos",30-01-2014,"19.040,08 €","","",,Não aplicável.,Não aplicável.,FALSE
Medicamentos,Ajuste Direto Regime Geral,Aquisição de bens móveis,"33000000-0, Equipamento médico, medicamentos e produtos para cuidados pessoais","Unidade Local de Saúde do Norte Alentejano, E. P. E. (508094461)","JANSSEN CILAG FARMACEUTICA, LDA. (500189412)","6.847,74 €",27-08-2015,03-06-2015,60 dias,"Portugal, Portalegre, Portalegre","Artigo 24.º, n.º 1, alínea e) do Código dos Contratos Públicos",03-08-2015,"6.847,74 €","","",,Não aplicável.,Não aplicável.,FALSE
Reagentes,Ajuste Direto Regime Geral,Aquisição de bens móveis,"33000000-0, Equipamento médico, medicamentos e produtos para cuidados pessoais","Unidade Local de Saúde do Norte Alentejano, E. P. E. (508094461)",BIOMERIEUX PORTUGAL (501524177),"5.300,00 €",27-08-2015,01-04-2015,30 dias,"Portugal, Portalegre, Elvas<BR/>Portugal, Portalegre, Portalegre","Artigo 24.º, n.º 1, alínea e) do Código dos Contratos Públicos",01-04-2015,"5.300,00 €","","",,Não aplicável.,Não aplicável.,FALSE
MEDICAMENTOS,Ajuste Direto Regime Geral,Aquisição de bens móveis,"33000000-0, Equipamento médico, medicamentos e produtos para cuidados pessoais","Unidade Local de Saúde do Norte Alentejano, E. P. E. (508094461)","LAB. PFIZER, LDA.                                  (500162166)","5.257,02 €",27-08-2015,28-01-2014,30 dias,"Portugal, Portalegre, Portalegre<BR/>Portugal, Portalegre, Elvas","Artigo 20.º, n.º 1, alínea a) do Código dos Contratos Públicos",28-01-2014,"5.257,02 €","","",,Não aplicável.,Não aplicável.,FALSE
Medicamentos,Ajuste Direto Regime Geral,Aquisição de bens móveis,"33000000-0, Equipamento médico, medicamentos e produtos para cuidados pessoais","Unidade Local de Saúde do Norte Alentejano, E. P. E. (508094461)",Clinigen Healthcare Ltd (100125104),"7.644,00 €",27-08-2015,13-03-2015,30 dias,"Portugal, Portalegre, Elvas<BR/>Portugal, Portalegre, Portalegre","Artigo 24.º, n.º 1, alínea e) do Código dos Contratos Públicos",13-03-2015,"7.644,00 €","","",,Não aplicável.,Não aplicável.,FALSE
MEDICAMENTOS,Ajuste Direto Regime Geral,Aquisição de bens móveis,"33000000-0, Equipamento médico, medicamentos e produtos para cuidados pessoais","Unidade Local de Saúde do Norte Alentejano, E. P. E. (508094461)",SANOFI PASTEUR MSD SA                              (507632796),"6.493,68 €",27-08-2015,27-01-2014,30 dias,"Portugal, Portalegre, Elvas<BR/>Portugal, Portalegre, Portalegre","Artigo 20.º, n.º 1, alínea a) do Código dos Contratos Públicos",27-01-2014,"6.493,68 €","","",,Não aplicável.,Não aplicável.,FALSE
MEDICAMENTOS,Ajuste Direto Regime Geral,Aquisição de bens móveis,"33000000-0, Equipamento médico, medicamentos e produtos para cuidados pessoais","Unidade Local de Saúde do Norte Alentejano, E. P. E. (508094461)","GENERIS - FARMACEUTICA, S.A.                       (508107997)","5.050,20 €",27-08-2015,27-01-2014,30 dias,"Portugal, Portalegre, Elvas<BR/>Portugal, Portalegre, Portalegre","Artigo 20.º, n.º 1, alínea a) do Código dos Contratos Públicos",27-01-2014,"5.050,20 €","","",,Não aplicável.,Não aplicável.,FALSE
MEDICAMENTOS,Ajuste Direto Regime Geral,Aquisição de bens móveis,"33000000-0, Equipamento médico, medicamentos e produtos para cuidados pessoais","Unidade Local de Saúde do Norte Alentejano, E. P. E. (508094461)","GLAXOSMITHKLINE-PROD. FARMACÊUTICOS, LDA.          (500139962)","25.047,00 €",27-08-2015,27-01-2014,30 dias,"Portugal, Portalegre, Portalegre<BR/>Portugal, Portalegre, Elvas","Artigo 20.º, n.º 1, alínea a) do Código dos Contratos Públicos",27-01-2014,"25.047,00 €","","",,Não aplicável.,Não aplicável.,FALSE
Medicamentos,Ajuste Direto Regime Geral,Aquisição de bens móveis,"33000000-0, Equipamento médico, medicamentos e produtos para cuidados pessoais","Unidade Local de Saúde do Norte Alentejano, E. P. E. (508094461)","ALCON PORTUGAL, LDA. (501506543)","9.033,50 €",27-08-2015,26-02-2015,30 dias,"Portugal, Portalegre, Elvas<BR/>Portugal, Portalegre, Portalegre","Artigo 24.º, n.º 1, alínea e) do Código dos Contratos Públicos",26-02-2015,"9.033,50 €","","",,Não aplicável.,Não aplicável.,FALSE
MEDICAMENTOS,Ajuste Direto Regime Geral,Aquisição de bens móveis,"33000000-0, Equipamento médico, medicamentos e produtos para cuidados pessoais","Unidade Local de Saúde do Norte Alentejano, E. P. E. (508094461)","LAB. PFIZER, LDA.                                  (500162166)","11.489,13 €",26-08-2015,23-01-2014,30 dias,"Portugal, Portalegre, Portalegre<BR/>Portugal, Portalegre, Elvas","Artigo 20.º, n.º 1, alínea a) do Código dos Contratos Públicos",23-01-2014,"11.489,13 €","","",,Não aplicável.,Não aplicável.,FALSE
MEDICAMENTOS,Ajuste Direto Regime Geral,Aquisição de bens móveis,"33000000-0, Equipamento médico, medicamentos e produtos para cuidados pessoais","Unidade Local de Saúde do Norte Alentejano, E. P. E. (508094461)","ROCHE FARMACÊUTICA QUIMICA, LDA.                   (500233810)","18.401,18 €",26-08-2015,23-01-2014,30 dias,"Portugal, Portalegre, Portalegre<BR/>Portugal, Portalegre, Elvas","Artigo 20.º, n.º 1, alínea a) do Código dos Contratos Públicos",23-01-2014,"18.401,18 €","","",,Não aplicável.,Não aplicável.,FALSE
Medicamentos,Ajuste Direto Regime Geral,Aquisição de bens móveis,"33000000-0, Equipamento médico, medicamentos e produtos para cuidados pessoais","Unidade Local de Saúde do Norte Alentejano, E. P. E. (508094461)","ASTELLAS FARMA, LDA. (502540249)","6.014,40 €",26-08-2015,05-06-2015,60 dias,"Portugal, Portalegre, Portalegre","Artigo 24.º, n.º 1, alínea e) do Código dos Contratos Públicos",03-08-2015,"6.014,40 €","","",,Não aplicável.,Não aplicável.,FALSE
Medicamentos,Ajuste Direto Regime Geral,Aquisição de bens móveis,"33000000-0, Equipamento médico, medicamentos e produtos para cuidados pessoais","Unidade Local de Saúde do Norte Alentejano, E. P. E. (508094461)",OM PHARMA S.A (500207410),"5.722,80 €",26-08-2015,09-06-2015,60 dias,"Portugal, Portalegre, Portalegre","Artigo 24.º, n.º 1, alínea e) do Código dos Contratos Públicos",03-08-2015,"5.722,80 €","","",,Não aplicável.,Não aplicável.,FALSE
AQUISIÇÃO DE MEDICAMENTOS,Ajuste Direto Regime Geral,Aquisição de bens móveis,"33000000-0, Equipamento médico, medicamentos e produtos para cuidados pessoais","Unidade Local de Saúde do Norte Alentejano, E. P. E. (508094461)","ROCHE FARMACÊUTICA QUIMICA, LDA.                   (500233810)","14.823,00 €",26-08-2015,19-08-2015,30 dias,"Portugal, Portalegre, Elvas<BR/>Portugal, Portalegre, Portalegre","Artigo 20.º, n.º 1, alínea a) do Código dos Contratos Públicos",26-08-2015,"14.823,00 €","","",,Não aplicável.,Não aplicável.,FALSE
AQUISIÇÃO DE MEDICAMENTOS,Ajuste Direto Regime Geral,Aquisição de bens móveis,"33000000-0, Equipamento médico, medicamentos e produtos para cuidados pessoais","Unidade Local de Saúde do Norte Alentejano, E. P. E. (508094461)",SANOFI PASTEUR MSD SA                              (507632796),"12.136,53 €",26-08-2015,19-08-2015,30 dias,"Portugal, Portalegre, Elvas<BR/>Portugal, Portalegre, Portalegre","Artigo 20.º, n.º 1, alínea a) do Código dos Contratos Públicos",26-08-2015,"12.136,53 €","","",,Não aplicável.,Não aplicável.,FALSE
Aquisição de energia eléctrica ao abrigo do AQ-PARA -2015,Ao abrigo de acordo-quadro (art.º 259.º),Aquisição de bens móveis,"09310000-5, Electricidade","Administração Regional de Saúde do Centro, I. P. (503122165), Centro Hospitalar de Trás-os-Montes e Alto Douro, E. P. E. (508100496), Hospital de José Luciano de Castro (501613021), Centro Hospitalar de Setúbal, E. P. E. (507606787), Centro Hospitalar Porto, E. P. E. (508331471), CHO - Centro Hospitalar do Oeste (510412009), Hospital Garcia de Orta, E. P. E. (506361470), Hospital Distrital da Figueira da Foz, EPE (506361527), Centro Hospitalar do Algarve, E. P. E. (510745997), Centro Hospitalar e Universitário de Coimbra, E. P. E. (510103448), Administração Regional de Saúde do Alentejo, I. P. (503148768), Hospital de Santarém, EPE (506361462), Centro Hospitalar do Tâmega e Sousa, E. P. E. (508318262), Instituto Português do Sangue e da Transplantação, I. P. (502423943), Instituto Nacional de Saúde Dr. Ricardo Jorge, I. P. (501427511), Hospital Arcebispo João Crisóstomo (501626123), Centro Hospitalar Barreiro Montijo, E. P. E. (509186998), Centro Hospitalar Médio Ave, E.P.E.. (508093937), Centro Hospitalar Cova da Beira, EPE (506361659), Hospital de Magalhães Lemos, E. P. E. (502828790), Administração Central do Sistema de Saúde, I. P. (508188423), Hospital Santa Maria Maior, E. P. E. (506361381), Hospital do Espírito Santo de Évora, E. P. E. (508085888), Hospital Dr. Francisco Zagalo (501510150), Centro Hospitalar Psiquiátrico de Lisboa (CHPL) (508338476), Centro Hospitalar de Lisboa Central, E. P. E. (508080142), Secretaria-Geral do Ministério da Saúde - SNCP (600080684), Direção-Geral da Saúde (600037100), Instituto Nacional de Emergência Médica, I. P. (501356126), Centro Hospitalar Lisboa Norte, E. P. E. (508481287), Unidade Local de Saúde do Alto Minho, E. P. E. (508786193), Unidade Local de Saúde Nordeste, EPE (509932584), Unidade Local de Saúde do Litoral Alentejano, E. P. E. (510445152), Unidade Local de Saude do Baixo Alentejo, EPE (508754275), Unidade Local de Saúde de Castelo Branco, E. P. E. (509309844), Administração Regional de Saúde Lisboa e Vale do Tejo, I.P. (503148776), Centro Hospitalar do Baixo Vouga, E. P. E (CHBV, E. P. E.) (510123210), Centro Hospitalar do Alto Ave, EPE (508080827), Centro Hospitalar Póvoa de Varzim - Vila do Conde, E.P.E. (508741823), CENTRO HOSPITALAR DE LEIRIA, E.P.E. (509822932), Unidade Local de Saúde da Guarda, E. P. E. (508752000), INFARMED - Autoridade Nacional do Medicamento e Produtos de Saúde I.P. (600037002), Hospital Prof. Doutor Fernando Fonseca E.P.E. (503035416), SPMS - Serviços Partilhados do Ministério da Saúde, E. P. E. (509540716), Administração Regional de Saúde Algarve, I.P. (503148709), Inspeção-Geral das Atividades em Saúde (600018857), Centro de medicina e Reabilitação da Região Centro Rovisco Pais (503767336), Unidade Local de Saúde do Norte Alentejano, E. P. E. (508094461), Administração Regional de Saúde Norte, I.P. (503135593), Centro Hospitalar Vila Nova de Gaia - Espinho, E. P. E. (508142156), Centro Hospitalar de São João, E. P. E. (509821197), Instituto Português de Oncologia de Coimbra - Francisco Gentil E.P.E. (506361438), Centro Hospitalar do Médio Tejo, E. P. E. (506361608), Centro Hospitalar de Entre o Douro e Vouga, E.P.E. (508878462), Instituto Português de Oncologia de Lisboa Francisco Gentil, E. P. E. (506361616), Instituto de Oftalmologia Dr. Gama Pinto (600000052), SUCH - Serviço Utilização Comum Hospitais (500900469), Centro Hospitalar de Lisboa Ocidental, E. P. E. (507618319), Centro Hospitalar Tondela-Viseu, E. P. E. (509822940), Instituto Português de Oncologia do Porto Francisco Gentil, E. P. E. (506362299), Unidade Local de Saúde de Matosinhos, EPE (ULSM) (506361390)","GALP POWER, S.A. (504723456)","807.437,59 €",26-08-2015,13-02-2015,305 dias,"Portugal, Lisboa, Lisboa",Artigo 259.º do Código dos Contratos Públicos,31-12-2015,"807.437,59 €",NÃO APLICÁVEL,NÃO APLICÁVEL,,314294,Acordo quadro para o fornecimento de electricidade em regime de mercado livre para Portugal Continental,TRUE
AQUISIÇÃO DE MEDICAMENTOS,Ajuste Direto Regime Geral,Aquisição de bens móveis,"33000000-0, Equipamento médico, medicamentos e produtos para cuidados pessoais","Unidade Local de Saúde do Norte Alentejano, E. P. E. (508094461)",GILEAD SCIENCES LDA.                               (503604704),"7.161,00 €",25-08-2015,19-08-2015,30 dias,"Portugal, Portalegre, Portalegre<BR/>Portugal, Portalegre, Elvas","Artigo 20.º, n.º 1, alínea a) do Código dos Contratos Públicos",25-08-2015,"7.161,00 €","","",,Não aplicável.,Não aplicável.,FALSE
Medicamentos,Ajuste Direto Regime Geral,Aquisição de bens móveis,"33000000-0, Equipamento médico, medicamentos e produtos para cuidados pessoais","Unidade Local de Saúde do Norte Alentejano, E. P. E. (508094461)","ASTELLAS FARMA, LDA. (502540249)","6.014,40 €",25-08-2015,17-06-2015,60 dias,"Portugal, Portalegre, Portalegre","Artigo 24.º, n.º 1, alínea e) do Código dos Contratos Públicos",03-08-2015,"6.014,40 €","","",,Não aplicável.,Não aplicável.,FALSE
Medicamentos,Ajuste Direto Regime Geral,Aquisição de bens móveis,"33000000-0, Equipamento médico, medicamentos e produtos para cuidados pessoais","Unidade Local de Saúde do Norte Alentejano, E. P. E. (508094461)","AMGEN BIOFARMACÊUTICA, LDA. (502942959)","8.236,26 €",25-08-2015,17-06-2015,60 dias,"Portugal, Portalegre, Portalegre","Artigo 24.º, n.º 1, alínea e) do Código dos Contratos Públicos",03-08-2015,"8.236,26 €","","",,Não aplicável.,Não aplicável.,FALSE
MEDICAMENTOS,Ajuste Direto Regime Geral,Aquisição de bens móveis,"33000000-0, Equipamento médico, medicamentos e produtos para cuidados pessoais","Unidade Local de Saúde do Norte Alentejano, E. P. E. (508094461)","ABBVIE,LDA                                         (510229050)","10.166,30 €",25-08-2015,20-01-2014,30 dias,"Portugal, Portalegre, Elvas<BR/>Portugal, Portalegre, Portalegre","Artigo 20.º, n.º 1, alínea a) do Código dos Contratos Públicos",20-01-2014,"10.166,30 €","","",,Não aplicável.,Não aplicável.,FALSE
"Fornecimento de Gás Natural para a ULSNA, EPE (Período de 01 de Julho de 2015 a 30 de Junho de 2016)",Ajuste Direto Regime Geral,Aquisição de bens móveis,"09123000-7, Gás natural","Unidade Local de Saúde do Norte Alentejano, E. P. E. (508094461)",Galp Gás Natural (503103616),"76.500,00 €",25-08-2015,19-06-2015,365 dias,"Portugal, Portalegre, Elvas","Artigo 27.º, n.º 1, alínea a) do Código dos Contratos Públicos",25-08-2015,"76.500,00 €","","",,Não aplicável.,Não aplicável.,FALSE
"Prestação de Serviços Médicos na Especialidade de Medicina Interna na ULSNA, EPE (Período de 23 de Julho a 31 de Dezembro de 2015)",Ajuste Direto Regime Geral,Aquisição de serviços,"85100000-0, Serviços de saúde","Unidade Local de Saúde do Norte Alentejano, E. P. E. (508094461)",Luis Manuel Barrena Santana (274980827),"17.040,00 €",25-08-2015,14-08-2015,168 dias,"Portugal, Portalegre, Portalegre","Artigo 20.º, n.º 1, alínea a) do Código dos Contratos Públicos",25-08-2015,"17.040,00 €","","",,Não aplicável.,Não aplicável.,FALSE
Medicamentos,Ajuste Direto Regime Geral,Aquisição de bens móveis,"33000000-0, Equipamento médico, medicamentos e produtos para cuidados pessoais","Unidade Local de Saúde do Norte Alentejano, E. P. E. (508094461)","ACTELION PHARMACEUTICALS PORTUGAL, LDA. (507336488)","9.877,00 €",25-08-2015,19-02-2015,30 dias,"Portugal, Portalegre, Portalegre<BR/>Portugal, Portalegre, Elvas","Artigo 24.º, n.º 1, alínea e) do Código dos Contratos Públicos",19-02-2015,"9.877,00 €","","",,Não aplicável.,Não aplicável.,FALSE
Medicamentos,Ajuste Direto Regime Geral,Aquisição de bens móveis,"33000000-0, Equipamento médico, medicamentos e produtos para cuidados pessoais","Unidade Local de Saúde do Norte Alentejano, E. P. E. (508094461)","SANOFI- PRODUTOS FARMACÊUTICOS,LDA. (500134960)","7.942,00 €",25-08-2015,19-02-2015,30 dias,"Portugal, Portalegre, Portalegre<BR/>Portugal, Portalegre, Elvas","Artigo 24.º, n.º 1, alínea e) do Código dos Contratos Públicos",19-02-2015,"7.942,00 €","","",,Não aplicável.,Não aplicável.,FALSE
Medicamentos,Ajuste Direto Regime Geral,Aquisição de bens móveis,"33000000-0, Equipamento médico, medicamentos e produtos para cuidados pessoais","Unidade Local de Saúde do Norte Alentejano, E. P. E. (508094461)","CELGENE SOCIEDADE UNIPESSOAL, LDA. (507791690)","5.760,00 €",25-08-2015,19-02-2015,30 dias,"Portugal, Portalegre, Portalegre<BR/>Portugal, Portalegre, Elvas","Artigo 24.º, n.º 1, alínea e) do Código dos Contratos Públicos",19-02-2015,"5.760,00 €","","",,Não aplicável.,Não aplicável.,FALSE
Fornecimento de medicamentos do aparelho digestivo,Ao abrigo de acordo-quadro (art.º 259.º),Aquisição de bens móveis,"33000000-0, Equipamento médico, medicamentos e produtos para cuidados pessoais","Unidade Local de Saúde do Norte Alentejano, E. P. E. (508094461)","GLAXOSMITHKLINE-PROD. FARMACÊUTICOS, LDA.          (500139962)","55,50 €",25-08-2015,25-08-2015,150 dias,"Portugal, Portalegre, Portalegre<BR/>Portugal, Portalegre, Elvas",Artigo 259.º do Código dos Contratos Públicos,31-12-2015,"","",NÃO FORAM ADQUIRIDAS AS QUANTIDADES TOTAIS ESTIMADAS,,1194708,"CONCURSO PÚBLICO PARA A CELEBRAÇÃO DE CONTRATOS PÚBLICOS DE APROVISIONAMENTO PARA A ÁREA DA SAÚDE, MEDICAMENTOS DO APARELHO DIGESTIVO, ÀS INSTITUIÇÕES E SERVIÇOS DO SERVIÇO NACIONAL DE SAÚDE",FALSE
Fornecimento de medicamentos do aparelho digestivo,Ao abrigo de acordo-quadro (art.º 259.º),Aquisição de bens móveis,"33000000-0, Equipamento médico, medicamentos e produtos para cuidados pessoais","Unidade Local de Saúde do Norte Alentejano, E. P. E. (508094461)","BAYER PORTUGAL, SA.                                (500043256)","133,20 €",25-08-2015,25-08-2015,150 dias,"Portugal, Portalegre, Portalegre<BR/>Portugal, Portalegre, Elvas",Artigo 259.º do Código dos Contratos Públicos,31-12-2015,"","",NÃO FORAM ADQUIRIDAS AS QUANTIDADES TOTAIS ESTIMADAS,,1194708,"CONCURSO PÚBLICO PARA A CELEBRAÇÃO DE CONTRATOS PÚBLICOS DE APROVISIONAMENTO PARA A ÁREA DA SAÚDE, MEDICAMENTOS DO APARELHO DIGESTIVO, ÀS INSTITUIÇÕES E SERVIÇOS DO SERVIÇO NACIONAL DE SAÚDE",FALSE
Fornecimento de medicamentos do aparelho digestivo,Ao abrigo de acordo-quadro (art.º 259.º),Aquisição de bens móveis,"33000000-0, Equipamento médico, medicamentos e produtos para cuidados pessoais","Unidade Local de Saúde do Norte Alentejano, E. P. E. (508094461)","GENERIS - FARMACEUTICA, S.A.                       (508107997)","1.608,96 €",25-08-2015,25-08-2015,150 dias,"Portugal, Portalegre, Elvas<BR/>Portugal, Portalegre, Portalegre",Artigo 259.º do Código dos Contratos Públicos,31-12-2015,"459,06 €","",NÃO FORAM ADQUIRIDAS AS QUANTIDADES TOTAIS ESTIMADAS,,1194708,"CONCURSO PÚBLICO PARA A CELEBRAÇÃO DE CONTRATOS PÚBLICOS DE APROVISIONAMENTO PARA A ÁREA DA SAÚDE, MEDICAMENTOS DO APARELHO DIGESTIVO, ÀS INSTITUIÇÕES E SERVIÇOS DO SERVIÇO NACIONAL DE SAÚDE",FALSE
Fornecimento de Medicamentos do aparelho digestivo,Ao abrigo de acordo-quadro (art.º 259.º),Aquisição de bens móveis,"33000000-0, Equipamento médico, medicamentos e produtos para cuidados pessoais","Unidade Local de Saúde do Norte Alentejano, E. P. E. (508094461)","MEDA PHARMA - PRODUTOS FARMACÊUTICOS, SA.          (500082090)","84,60 €",25-08-2015,25-08-2015,150 dias,"Portugal, Portalegre, Elvas<BR/>Portugal, Portalegre, Portalegre",Artigo 259.º do Código dos Contratos Públicos,31-12-2015,"","",NÃO FORAM ADQUIRIDAS AS QUANTIDADES TOTAIS ESTIMADAS,,1194708,"CONCURSO PÚBLICO PARA A CELEBRAÇÃO DE CONTRATOS PÚBLICOS DE APROVISIONAMENTO PARA A ÁREA DA SAÚDE, MEDICAMENTOS DO APARELHO DIGESTIVO, ÀS INSTITUIÇÕES E SERVIÇOS DO SERVIÇO NACIONAL DE SAÚDE",FALSE
Fornecimento de medicamentos do aparelho digestivo,Ao abrigo de acordo-quadro (art.º 259.º),Aquisição de bens móveis,"33000000-0, Equipamento médico, medicamentos e produtos para cuidados pessoais","Unidade Local de Saúde do Norte Alentejano, E. P. E. (508094461)","LABESFAL-LAB. ALMIRO, SA.                          (501169580)","537,34 €",25-08-2015,25-08-2015,150 dias,"Portugal, Portalegre, Portalegre",Artigo 259.º do Código dos Contratos Públicos,31-12-2015,"50,16 €","",NÃO FORAM ADQUIRIDAS AS QUANTIDADES TOTAIS ESTIMADAS,,1194708,"CONCURSO PÚBLICO PARA A CELEBRAÇÃO DE CONTRATOS PÚBLICOS DE APROVISIONAMENTO PARA A ÁREA DA SAÚDE, MEDICAMENTOS DO APARELHO DIGESTIVO, ÀS INSTITUIÇÕES E SERVIÇOS DO SERVIÇO NACIONAL DE SAÚDE",FALSE
Fornecimento de medicamentos do aparelho digestivo,Ao abrigo de acordo-quadro (art.º 259.º),Aquisição de bens móveis,"33000000-0, Equipamento médico, medicamentos e produtos para cuidados pessoais","Unidade Local de Saúde do Norte Alentejano, E. P. E. (508094461)","PROSPA - LAB.FARMACÊUTICOS,SA.                     (500130248)","3.372,00 €",25-08-2015,25-08-2015,150 dias,"Portugal, Portalegre, Portalegre<BR/>Portugal, Portalegre, Elvas",Artigo 259.º do Código dos Contratos Públicos,31-12-2015,"1.461,20 €","",Não foram adquiridas as quantidades totais estimadas.,,1194708,"CONCURSO PÚBLICO PARA A CELEBRAÇÃO DE CONTRATOS PÚBLICOS DE APROVISIONAMENTO PARA A ÁREA DA SAÚDE, MEDICAMENTOS DO APARELHO DIGESTIVO, ÀS INSTITUIÇÕES E SERVIÇOS DO SERVIÇO NACIONAL DE SAÚDE",FALSE
Fornecimento de medicamentos do aparelho digestivo,Ao abrigo de acordo-quadro (art.º 259.º),Aquisição de bens móveis,"33000000-0, Equipamento médico, medicamentos e produtos para cuidados pessoais","Unidade Local de Saúde do Norte Alentejano, E. P. E. (508094461)",OVERPHARMA - PRODUTOS MEDICOS E FARM.              (505792362),"16.470,06 €",25-08-2015,25-08-2015,150 dias,"Portugal, Portalegre, Portalegre<BR/>Portugal, Portalegre, Elvas",Artigo 259.º do Código dos Contratos Públicos,31-12-2015,"6.473,12 €","",Não foram adquiridas as quantidades totais estimadas.,,1194708,"CONCURSO PÚBLICO PARA A CELEBRAÇÃO DE CONTRATOS PÚBLICOS DE APROVISIONAMENTO PARA A ÁREA DA SAÚDE, MEDICAMENTOS DO APARELHO DIGESTIVO, ÀS INSTITUIÇÕES E SERVIÇOS DO SERVIÇO NACIONAL DE SAÚDE",FALSE
Medicamentos,Ajuste Direto Regime Geral,Aquisição de bens móveis,"33000000-0, Equipamento médico, medicamentos e produtos para cuidados pessoais","Unidade Local de Saúde do Norte Alentejano, E. P. E. (508094461)","ACTELION PHARMACEUTICALS PORTUGAL, LDA. (507336488)","9.877,00 €",25-08-2015,02-02-2015,30 dias,"Portugal, Portalegre, Elvas<BR/>Portugal, Portalegre, Portalegre","Artigo 24.º, n.º 1, alínea e) do Código dos Contratos Públicos",02-02-2015,"9.877,00 €","","",,Não aplicável.,Não aplicável.,FALSE
AQUISIÇÃO DE MEDICAMENTOS,Ajuste Direto Regime Geral,Aquisição de bens móveis,"33000000-0, Equipamento médico, medicamentos e produtos para cuidados pessoais","Unidade Local de Saúde do Norte Alentejano, E. P. E. (508094461)",PFIZER LDA (513300376),"13.719,00 €",25-08-2015,25-08-2015,30 dias,"Portugal, Portalegre, Portalegre<BR/>Portugal, Portalegre, Elvas","Artigo 20.º, n.º 1, alínea a) do Código dos Contratos Públicos",25-08-2015,"13.719,00 €","","",,Não aplicável.,Não aplicável.,FALSE
Fornecimento de medicamentos aparelho digestivo,Ao abrigo de acordo-quadro (art.º 259.º),Aquisição de bens móveis,"33000000-0, Equipamento médico, medicamentos e produtos para cuidados pessoais","Unidade Local de Saúde do Norte Alentejano, E. P. E. (508094461)",Lab. Medinfar                                      (500384045),"1.681,00 €",25-08-2015,25-08-2015,150 dias,"Portugal, Portalegre, Portalegre<BR/>Portugal, Portalegre, Elvas",Artigo 259.º do Código dos Contratos Públicos,31-12-2015,"402,50 €","",Não foram adquiridas as quantidades totais estimadas.,,1194708,"CONCURSO PÚBLICO PARA A CELEBRAÇÃO DE CONTRATOS PÚBLICOS DE APROVISIONAMENTO PARA A ÁREA DA SAÚDE, MEDICAMENTOS DO APARELHO DIGESTIVO, ÀS INSTITUIÇÕES E SERVIÇOS DO SERVIÇO NACIONAL DE SAÚDE",FALSE
Fornecimento de medicamentos do aparelho digestivo,Ao abrigo de acordo-quadro (art.º 259.º),Aquisição de bens móveis,"33000000-0, Equipamento médico, medicamentos e produtos para cuidados pessoais","Unidade Local de Saúde do Norte Alentejano, E. P. E. (508094461)",UNILFARMA - UNIAO INTERN. LAB. S FARMACEUTICOS     (500293023),"1.412,82 €",25-08-2015,25-08-2015,150 dias,"Portugal, Portalegre, Portalegre<BR/>Portugal, Portalegre, Elvas",Artigo 259.º do Código dos Contratos Públicos,31-12-2015,"501,55 €","",Não foram adquiridas as quantidades totais estimadas.,,1194708,"CONCURSO PÚBLICO PARA A CELEBRAÇÃO DE CONTRATOS PÚBLICOS DE APROVISIONAMENTO PARA A ÁREA DA SAÚDE, MEDICAMENTOS DO APARELHO DIGESTIVO, ÀS INSTITUIÇÕES E SERVIÇOS DO SERVIÇO NACIONAL DE SAÚDE",FALSE
MEDICAMENTOS,Ajuste Direto Regime Geral,Aquisição de bens móveis,"33000000-0, Equipamento médico, medicamentos e produtos para cuidados pessoais","Unidade Local de Saúde do Norte Alentejano, E. P. E. (508094461)","SANOFI- PRODUTOS FARMACÊUTICOS,LDA.                (500134960)","5.537,32 €",25-08-2015,16-01-2014,30 dias,"Portugal, Portalegre, Elvas<BR/>Portugal, Portalegre, Portalegre","Artigo 20.º, n.º 1, alínea a) do Código dos Contratos Públicos",16-01-2014,"5.537,32 €","","",,Não aplicável.,Não aplicável.,FALSE
MEDICAMENTOS,Ajuste Direto Regime Geral,Aquisição de bens móveis,"33000000-0, Equipamento médico, medicamentos e produtos para cuidados pessoais","Unidade Local de Saúde do Norte Alentejano, E. P. E. (508094461)","BAYER PORTUGAL, SA.                                (500043256)","5.795,33 €",25-08-2015,16-01-2014,30 dias,"Portugal, Portalegre, Elvas<BR/>Portugal, Portalegre, Portalegre","Artigo 20.º, n.º 1, alínea a) do Código dos Contratos Públicos",16-01-2014,"5.795,33 €","","",,Não aplicável.,Não aplicável.,FALSE
MEDICAMENTOS,Ajuste Direto Regime Geral,Aquisição de bens móveis,"33000000-0, Equipamento médico, medicamentos e produtos para cuidados pessoais","Unidade Local de Saúde do Norte Alentejano, E. P. E. (508094461)","JANSSEN CILAG FARMACEUTICA, LDA.                   (500189412)","8.379,18 €",25-08-2015,15-01-2014,30 dias,"Portugal, Portalegre, Elvas<BR/>Portugal, Portalegre, Portalegre","Artigo 20.º, n.º 1, alínea a) do Código dos Contratos Públicos",15-01-2014,"8.379,18 €","","",,Não aplicável.,Não aplicável.,FALSE
MEDICAMENTOS,Ajuste Direto Regime Geral,Aquisição de bens móveis,"33000000-0, Equipamento médico, medicamentos e produtos para cuidados pessoais","Unidade Local de Saúde do Norte Alentejano, E. P. E. (508094461)",OM PHARMA S.A                                      (500207410),"9.825,00 €",25-08-2015,13-01-2014,30 dias,"Portugal, Portalegre, Portalegre<BR/>Portugal, Portalegre, Elvas","Artigo 20.º, n.º 1, alínea a) do Código dos Contratos Públicos",13-01-2014,"9.825,00 €","","",,Não aplicável.,Não aplicável.,FALSE
MEDICAMENTOS,Ajuste Direto Regime Geral,Aquisição de bens móveis,"33000000-0, Equipamento médico, medicamentos e produtos para cuidados pessoais","Unidade Local de Saúde do Norte Alentejano, E. P. E. (508094461)",MERCK SA                                           (500650870),"5.331,30 €",25-08-2015,13-01-2014,30 dias,"Portugal, Portalegre, Elvas<BR/>Portugal, Portalegre, Portalegre","Artigo 20.º, n.º 1, alínea a) do Código dos Contratos Públicos",13-01-2014,"5.331,30 €","","",,Não aplicável.,Não aplicável.,FALSE
MEDICAMENTOS,Ajuste Direto Regime Geral,Aquisição de bens móveis,"33000000-0, Equipamento médico, medicamentos e produtos para cuidados pessoais","Unidade Local de Saúde do Norte Alentejano, E. P. E. (508094461)","ROCHE FARMACÊUTICA QUIMICA, LDA.                   (500233810)","19.457,58 €",24-08-2015,13-01-2014,30 dias,"Portugal, Portalegre, Portalegre<BR/>Portugal, Portalegre, Elvas","Artigo 20.º, n.º 1, alínea a) do Código dos Contratos Públicos",13-01-2014,"19.457,58 €","","",,Não aplicável.,Não aplicável.,FALSE
MEDICAMENTOS,Ajuste Direto Regime Geral,Aquisição de bens móveis,"33000000-0, Equipamento médico, medicamentos e produtos para cuidados pessoais","Unidade Local de Saúde do Norte Alentejano, E. P. E. (508094461)","NOVARTIS FARMA-PROD.FARMACÊUTICOS,SA.              (500063524)","23.923,11 €",24-08-2015,13-01-2014,30 dias,"Portugal, Portalegre, Elvas<BR/>Portugal, Portalegre, Portalegre","Artigo 20.º, n.º 1, alínea a) do Código dos Contratos Públicos",13-01-2014,"23.923,11 €","","",,Não aplicável.,Não aplicável.,FALSE
MEDICAMENTOS,Ajuste Direto Regime Geral,Aquisição de bens móveis,"33000000-0, Equipamento médico, medicamentos e produtos para cuidados pessoais","Unidade Local de Saúde do Norte Alentejano, E. P. E. (508094461)",MERCK SHARP DOHME                                  (500191360),"26.697,65 €",24-08-2015,13-01-2014,30 dias,"Portugal, Portalegre, Elvas<BR/>Portugal, Portalegre, Portalegre","Artigo 20.º, n.º 1, alínea a) do Código dos Contratos Públicos",13-01-2014,"26.697,65 €","","",,Não aplicável.,Não aplicável.,FALSE
MEDICAMENTOS,Ajuste Direto Regime Geral,Aquisição de bens móveis,"33000000-0, Equipamento médico, medicamentos e produtos para cuidados pessoais","Unidade Local de Saúde do Norte Alentejano, E. P. E. (508094461)","LAB. PFIZER, LDA.                                  (500162166)","8.754,63 €",24-08-2015,13-01-2014,30 dias,"Portugal, Portalegre, Portalegre<BR/>Portugal, Portalegre, Elvas","Artigo 20.º, n.º 1, alínea a) do Código dos Contratos Públicos",13-01-2014,"8.754,63 €","","",,Não aplicável.,Não aplicável.,FALSE
Medicamentos,Ajuste Direto Regime Geral,Aquisição de bens móveis,"33000000-0, Equipamento médico, medicamentos e produtos para cuidados pessoais","Unidade Local de Saúde do Norte Alentejano, E. P. E. (508094461)","JANSSEN CILAG FARMACEUTICA, LDA.                   (500189412)","5.072,40 €",24-08-2015,02-02-2015,30 dias,"Portugal, Portalegre, Portalegre<BR/>Portugal, Portalegre, Elvas","Artigo 24.º, n.º 1, alínea e) do Código dos Contratos Públicos",02-02-2015,"5.072,40 €","","",,Não aplicável.,Não aplicável.,FALSE
Medicamentos,Ajuste Direto Regime Geral,Aquisição de bens móveis,"33000000-0, Equipamento médico, medicamentos e produtos para cuidados pessoais","Unidade Local de Saúde do Norte Alentejano, E. P. E. (508094461)",FRESENIUS MEDICAL CARE SA (503070220),"6.874,80 €",24-08-2015,02-02-2015,30 dias,"Portugal, Portalegre, Elvas<BR/>Portugal, Portalegre, Portalegre","Artigo 24.º, n.º 1, alínea e) do Código dos Contratos Públicos",02-02-2015,"6.874,80 €","","",,Não aplicável.,Não aplicável.,FALSE
MEDICAMENTOS,Ajuste Direto Regime Geral,Aquisição de bens móveis,"33000000-0, Equipamento médico, medicamentos e produtos para cuidados pessoais","Unidade Local de Saúde do Norte Alentejano, E. P. E. (508094461)","JANSSEN CILAG FARMACEUTICA, LDA.                   (500189412)","25.753,11 €",24-08-2015,13-01-2014,30 dias,"Portugal, Portalegre, Portalegre<BR/>Portugal, Portalegre, Elvas","Artigo 20.º, n.º 1, alínea a) do Código dos Contratos Públicos",13-01-2014,"25.753,11 €","","",,Não aplicável.,Não aplicável.,FALSE
MEDICAMENTOS,Ajuste Direto Regime Geral,Aquisição de bens móveis,"33000000-0, Equipamento médico, medicamentos e produtos para cuidados pessoais","Unidade Local de Saúde do Norte Alentejano, E. P. E. (508094461)",IPSEN PORTUGAL-PRODUTOS FARMACÊUTICOS SA.          (502609800),"6.145,45 €",24-08-2015,13-01-2014,30 dias,"Portugal, Portalegre, Elvas<BR/>Portugal, Portalegre, Portalegre","Artigo 20.º, n.º 1, alínea a) do Código dos Contratos Públicos",13-01-2014,"6.145,45 €","","",,Não aplicável.,Não aplicável.,FALSE
MEDICAMENTOS,Ajuste Direto Regime Geral,Aquisição de bens móveis,"33000000-0, Equipamento médico, medicamentos e produtos para cuidados pessoais","Unidade Local de Saúde do Norte Alentejano, E. P. E. (508094461)",GILEAD SCIENCES LDA.                               (503604704),"16.722,60 €",24-08-2015,13-01-2014,30 dias,"Portugal, Portalegre, Portalegre<BR/>Portugal, Portalegre, Elvas","Artigo 20.º, n.º 1, alínea a) do Código dos Contratos Públicos",13-01-2014,"16.722,60 €","","",,Não aplicável.,Não aplicável.,FALSE
Reagentes,Ajuste Direto Regime Geral,Aquisição de bens móveis,"33000000-0, Equipamento médico, medicamentos e produtos para cuidados pessoais","Unidade Local de Saúde do Norte Alentejano, E. P. E. (508094461)",ROCHE SISTEMA DE DIAGNOSTICOS (504282921),"6.088,16 €",24-08-2015,19-02-2015,30 dias,"Portugal, Portalegre, Portalegre<BR/>Portugal, Portalegre, Elvas","Artigo 24.º, n.º 1, alínea e) do Código dos Contratos Públicos",19-02-2015,"6.088,16 €","","",,Não aplicável.,Não aplicável.,FALSE
Medicamentos,Ajuste Direto Regime Geral,Aquisição de bens móveis,"33000000-0, Equipamento médico, medicamentos e produtos para cuidados pessoais","Unidade Local de Saúde do Norte Alentejano, E. P. E. (508094461)","SANOFI- PRODUTOS FARMACÊUTICOS,LDA. (500134960)","7.825,20 €",24-08-2015,02-02-2015,60 dias,"Portugal, Portalegre, Portalegre","Artigo 24.º, n.º 1, alínea e) do Código dos Contratos Públicos",01-04-2015,"7.825,20 €","","",,Não aplicável.,Não aplicável.,FALSE
Medicamentos,Ajuste Direto Regime Geral,Aquisição de bens móveis,"33000000-0, Equipamento médico, medicamentos e produtos para cuidados pessoais","Unidade Local de Saúde do Norte Alentejano, E. P. E. (508094461)","NOVARTIS FARMA-PROD.FARMACÊUTICOS,SA. (500063524)","7.582,81 €",24-08-2015,02-02-2015,60 dias,"Portugal, Portalegre, Portalegre","Artigo 24.º, n.º 1, alínea e) do Código dos Contratos Públicos",01-04-2015,"7.582,81 €","","",,Não aplicável.,Não aplicável.,FALSE
Medicamentos,Ajuste Direto Regime Geral,Aquisição de bens móveis,"33000000-0, Equipamento médico, medicamentos e produtos para cuidados pessoais","Unidade Local de Saúde do Norte Alentejano, E. P. E. (508094461)","LABESFAL-LAB. ALMIRO, SA. (501169580)","5.105,65 €",24-08-2015,02-02-2015,60 dias,"Portugal, Portalegre, Portalegre","Artigo 24.º, n.º 1, alínea e) do Código dos Contratos Públicos",01-04-2015,"5.105,65 €","","",,Não aplicável.,Não aplicável.,FALSE
Medicamentos,Ajuste Direto Regime Geral,Aquisição de bens móveis,"33000000-0, Equipamento médico, medicamentos e produtos para cuidados pessoais","Unidade Local de Saúde do Norte Alentejano, E. P. E. (508094461)","LAB. PFIZER, LDA. (500162166)","8.653,38 €",24-08-2015,02-02-2015,60 dias,"Portugal, Portalegre, Portalegre","Artigo 24.º, n.º 1, alínea e) do Código dos Contratos Públicos",01-04-2015,"8.653,38 €","","",,Não aplicável.,Não aplicável.,FALSE
Medicamentos,Ajuste Direto Regime Geral,Aquisição de bens móveis,"33000000-0, Equipamento médico, medicamentos e produtos para cuidados pessoais","Unidade Local de Saúde do Norte Alentejano, E. P. E. (508094461)","JANSSEN CILAG FARMACEUTICA, LDA. (500189412)","6.608,04 €",24-08-2015,02-02-2015,60 dias,"Portugal, Portalegre, Portalegre","Artigo 24.º, n.º 1, alínea e) do Código dos Contratos Públicos",01-04-2015,"6.608,04 €","","",,Não aplicável.,Não aplicável.,FALSE
AQUISIÇÃO DE MEDICAMENTOS,Ajuste Direto Regime Geral,Aquisição de bens móveis,"33000000-0, Equipamento médico, medicamentos e produtos para cuidados pessoais","Unidade Local de Saúde do Norte Alentejano, E. P. E. (508094461)",OCTAPHARMA - PRODUTOS FARMACEUTICOS                (502820780),"6.600,00 €",24-08-2015,19-08-2015,30 dias,"Portugal, Portalegre, Elvas<BR/>Portugal, Portalegre, Portalegre","Artigo 20.º, n.º 1, alínea a) do Código dos Contratos Públicos",24-08-2015,"6.600,00 €","","",,Não aplicável.,Não aplicável.,FALSE
AQUISIÇÃO DE MEDICAMENTOS,Ajuste Direto Regime Geral,Aquisição de bens móveis,"33000000-0, Equipamento médico, medicamentos e produtos para cuidados pessoais","Unidade Local de Saúde do Norte Alentejano, E. P. E. (508094461)",OCTAPHARMA - PRODUTOS FARMACEUTICOS                (502820780),"6.600,00 €",24-08-2015,24-08-2015,30 dias,"Portugal, Portalegre, Portalegre<BR/>Portugal, Portalegre, Elvas","Artigo 20.º, n.º 1, alínea a) do Código dos Contratos Públicos",24-08-2015,"6.600,00 €","","",,Não aplicável.,Não aplicável.,FALSE
Medicamentos,Ajuste Direto Regime Geral,Aquisição de bens móveis,"33140000-3, Material médico de consumo","Unidade Local de Saúde do Norte Alentejano, E. P. E. (508094461)","NOVARTIS FARMA-PROD.FARMACÊUTICOS,SA. (500063524)","6.509,57 €",21-08-2015,02-02-2015,60 dias,"Portugal, Portalegre, Portalegre","Artigo 24.º, n.º 1, alínea e) do Código dos Contratos Públicos",02-02-2015,"6.509,57 €","","",,Não aplicável.,Não aplicável.,FALSE
Medicamentos,Ajuste Direto Regime Geral,Aquisição de bens móveis,"33140000-3, Material médico de consumo","Unidade Local de Saúde do Norte Alentejano, E. P. E. (508094461)","LAB. PFIZER, LDA. (500162166)","8.279,88 €",21-08-2015,02-02-2015,60 dias,"Portugal, Portalegre, Portalegre","Artigo 24.º, n.º 1, alínea e) do Código dos Contratos Públicos",02-02-2015,"8.279,88 €","","",,Não aplicável.,Não aplicável.,FALSE
MEDICAMENTOS,Ajuste Direto Regime Geral,Aquisição de bens móveis,"33000000-0, Equipamento médico, medicamentos e produtos para cuidados pessoais","Unidade Local de Saúde do Norte Alentejano, E. P. E. (508094461)","ASTRAZENECA-PRODUTOS FARMACÊUTICOS,LDA.            (502942240)","9.533,79 €",21-08-2015,13-01-2014,30 dias,"Portugal, Portalegre, Elvas<BR/>Portugal, Portalegre, Portalegre","Artigo 20.º, n.º 1, alínea a) do Código dos Contratos Públicos",13-01-2014,"9.533,79 €","","",,Não aplicável.,Não aplicável.,FALSE
AQUISIÇÃO DE MEDICAMENTOS,Ajuste Direto Regime Geral,Aquisição de bens móveis,"33000000-0, Equipamento médico, medicamentos e produtos para cuidados pessoais","Unidade Local de Saúde do Norte Alentejano, E. P. E. (508094461)","ACTELION PHARMACEUTICALS PORTUGAL, LDA             (507336488)","5.526,00 €",21-08-2015,21-08-2015,30 dias,"Portugal, Portalegre, Portalegre<BR/>Portugal, Portalegre, Elvas","Artigo 24.º, n.º 1, alínea e) do Código dos Contratos Públicos",21-08-2015,"5.526,00 €","","",,Não aplicável.,Não aplicável.,FALSE
Medicamentos,Ajuste Direto Regime Geral,Aquisição de bens móveis,"33140000-3, Material médico de consumo","Unidade Local de Saúde do Norte Alentejano, E. P. E. (508094461)",SANOFI PASTEUR MSD SA (507632796),"7.392,00 €",21-08-2015,19-02-2015,60 dias,"Portugal, Portalegre, Portalegre","Artigo 24.º, n.º 1, alínea e) do Código dos Contratos Públicos",19-02-2015,"7.392,00 €","","",,Não aplicável.,Não aplicável.,FALSE
AQUISIÇÃO DE MEDICAMENTOS,Ajuste Direto Regime Geral,Aquisição de bens móveis,"33000000-0, Equipamento médico, medicamentos e produtos para cuidados pessoais","Unidade Local de Saúde do Norte Alentejano, E. P. E. (508094461)",PAUL HARTMANN                                      (502271728),"9.868,50 €",21-08-2015,22-07-2015,30 dias,"Portugal, Portalegre, Portalegre<BR/>Portugal, Portalegre, Elvas","Artigo 20.º, n.º 1, alínea a) do Código dos Contratos Públicos",24-08-2015,"9.868,50 €","","",,Não aplicável.,Não aplicável.,FALSE
Medicamentos,Ajuste Direto Regime Geral,Aquisição de bens móveis,"33140000-3, Material médico de consumo","Unidade Local de Saúde do Norte Alentejano, E. P. E. (508094461)","JANSSEN CILAG FARMACEUTICA, LDA. (500189412)","6.150,24 €",21-08-2015,19-02-2015,60 dias,"Portugal, Portalegre, Portalegre","Artigo 24.º, n.º 1, alínea e) do Código dos Contratos Públicos",19-02-2015,"6.150,24 €","","",,Não aplicável.,Não aplicável.,FALSE
AQUISIÇÃO DE MEDICAMENTOS,Ajuste Direto Regime Geral,Aquisição de bens móveis,"33000000-0, Equipamento médico, medicamentos e produtos para cuidados pessoais","Unidade Local de Saúde do Norte Alentejano, E. P. E. (508094461)",OVERPHARMA - PRODUTOS MEDICOS E FARM.              (505792362),"6.625,52 €",21-08-2015,22-07-2015,30 dias,"Portugal, Portalegre, Elvas<BR/>Portugal, Portalegre, Portalegre","Artigo 20.º, n.º 1, alínea a) do Código dos Contratos Públicos",24-08-2015,"6.625,52 €","","",,Não aplicável.,Não aplicável.,FALSE
AQUISIÇÃO DE MEDICAMENTOS,Ajuste Direto Regime Geral,Aquisição de bens móveis,"33000000-0, Equipamento médico, medicamentos e produtos para cuidados pessoais","Unidade Local de Saúde do Norte Alentejano, E. P. E. (508094461)",LINEAMÉDICA D MED CIRG SA                          (505148676),"8.140,00 €",21-08-2015,22-07-2015,30 dias,"Portugal, Portalegre, Elvas<BR/>Portugal, Portalegre, Portalegre","Artigo 20.º, n.º 1, alínea a) do Código dos Contratos Públicos",24-08-2015,"8.140,00 €","","",,Não aplicável.,Não aplicável.,FALSE
MEDICAMENTOS,Ajuste Direto Regime Geral,Aquisição de bens móveis,"33000000-0, Equipamento médico, medicamentos e produtos para cuidados pessoais","Unidade Local de Saúde do Norte Alentejano, E. P. E. (508094461)",LOGIFARMA - LOGISTICA FARMACÊUTICA S.A.            (503934640),"32.946,00 €",21-08-2015,07-01-2014,30 dias,"Portugal, Portalegre, Elvas<BR/>Portugal, Portalegre, Portalegre","Artigo 20.º, n.º 1, alínea a) do Código dos Contratos Públicos",07-01-2014,"32.946,00 €","","",,Não aplicável.,Não aplicável.,FALSE
Medicamentos,Ajuste Direto Regime Geral,Aquisição de bens móveis,"33140000-3, Material médico de consumo","Unidade Local de Saúde do Norte Alentejano, E. P. E. (508094461)","ABBVIE,LDA (510229050)","8.123,04 €",21-08-2015,19-02-2015,60 dias,"Portugal, Portalegre, Portalegre","Artigo 24.º, n.º 1, alínea e) do Código dos Contratos Públicos",19-02-2015,"8.123,04 €","","",,Não aplicável.,Não aplicável.,FALSE
MEDICAMENTOS,Ajuste Direto Regime Geral,Aquisição de bens móveis,"33000000-0, Equipamento médico, medicamentos e produtos para cuidados pessoais","Unidade Local de Saúde do Norte Alentejano, E. P. E. (508094461)","NOVARTIS FARMA-PROD.FARMACÊUTICOS,SA.              (500063524)","7.312,14 €",21-08-2015,06-01-2014,30 dias,"Portugal, Portalegre, Portalegre<BR/>Portugal, Portalegre, Elvas","Artigo 20.º, n.º 1, alínea a) do Código dos Contratos Públicos",06-01-2014,"7.312,14 €","","",,Não aplicável.,Não aplicável.,FALSE
Medicamentos,Ajuste Direto Regime Geral,Aquisição de bens móveis,"33140000-3, Material médico de consumo","Unidade Local de Saúde do Norte Alentejano, E. P. E. (508094461)","JANSSEN CILAG FARMACEUTICA, LDA. (500189412)","7.989,03 €",21-08-2015,06-03-2015,60 dias,"Portugal, Portalegre, Portalegre","Artigo 24.º, n.º 1, alínea e) do Código dos Contratos Públicos",06-03-2015,"7.989,03 €","","",,Não aplicável.,Não aplicável.,FALSE
Medicamentos,Ajuste Direto Regime Geral,Aquisição de bens móveis,"33140000-3, Material médico de consumo","Unidade Local de Saúde do Norte Alentejano, E. P. E. (508094461)",GILEAD SCIENCES LDA. (503604704),"6.908,70 €",21-08-2015,06-03-2015,60 dias,"Portugal, Portalegre, Portalegre","Artigo 24.º, n.º 1, alínea e) do Código dos Contratos Públicos",06-03-2015,"6.908,70 €","","",,Não aplicável.,Não aplicável.,FALSE
