Objeto do Contrato,Tipo de Procedimento,Tipo(s) de Contrato,CPVs,Entidade(s) Adjudicante(s),Entidade(s) Adjudicatária(s),Preço Contratual,Data de Publicação,Data de Celebração do Contrato,Prazo de Execução,Local de Execução,Fundamentação,Data de Fecho do Contrato,Preço Total Efetivo,Causas das Alterações ao Prazo,Causas das Alterações ao Preço,Estado,N.º registo do Acordo Quadro,Descrição do Acordo Quadro,Procedimento Centralizado
AD800162 Aquisição de 2 Braços de Estabilizador do Coração - Bloco Operatório HSC,Ajuste Direto Regime Geral,Aquisição de bens móveis,"33100000-1, Equipamento médico","Centro Hospitalar de Lisboa Ocidental, EPE (507618319)",Lusopalex Lda (503531588),"5.960,00 €",16-01-2013,16-01-2013,30 dias,"Portugal, Lisboa, Lisboa","Artigo 24.º, n.º 1, alínea e) do Código dos Contratos Públicos",,,,,,Não aplicável.,Não aplicável.,
Reformulação Infraestrutura de Rede p/ Comunicações (Rede Estruturada) dos pisos 0 e 7 do Hospital Egas Moniz - Consulta e Internamento de Psiquiatria,Ajuste Direto Regime Geral,Aquisição de serviços,"50312300-8, Manutenção e reparação de equipamento para redes de dados","Centro Hospitalar de Lisboa Ocidental, EPE (507618319)","NextiraOne Portugal, SA (505134195)","9.693,05 €",16-01-2013,08-01-2013,7 dias,"Portugal, Lisboa, Lisboa","Artigo 21.º, n.º 1, alínea a) do Código dos Contratos Públicos",,,,,,Não aplicável.,Não aplicável.,
Fornecimento e Montagem de Material para Reformulação da Infra Estrutura da Rede para Comunicações do CHLO,Ajuste Direto Regime Geral,Aquisição de serviços,"50312300-8, Manutenção e reparação de equipamento para redes de dados","Centro Hospitalar de Lisboa Ocidental, EPE (507618319)","Convex, Lda (502145838)","5.893,75 €",14-01-2013,14-01-2013,30 dias,"Portugal, Lisboa, Lisboa","Artigo 21.º, n.º 1, alínea a) do Código dos Contratos Públicos",,,,,,Não aplicável.,Não aplicável.,
"Aquisição de Serviços de Seguro no Ramo Acidentes de Trabalho para os Funcionários do CHLO, EPE",Concurso público,Aquisição de serviços,"66512000-2, Serviços de seguros de acidentes e de saúde","Centro Hospitalar de Lisboa Ocidental, EPE (507618319)","Corbroker, Corretores de Seguros (503239470)","273.050,82 €",11-01-2013,17-12-2012,365 dias,"Portugal, Lisboa, Lisboa","Artigo 20.º, n.º 1, alínea b) do Código dos Contratos Públicos",,,,,,Não aplicável.,Não aplicável.,
"Aquisição de Material Administrativo-Etiquetas para o CHLO,EPE",Ajuste Direto Regime Geral,Aquisição de bens móveis,"30199760-5, Etiquetas","Centro Hospitalar de Lisboa Ocidental, EPE (507618319)",DATA LABEL PORTUGAL LDA (506448967),"20.617,84 €",11-01-2013,11-01-2013,365 dias,"Portugal, Lisboa, Lisboa","Artigo 20.º, n.º 1, alínea a) do Código dos Contratos Públicos",,,,,,Não aplicável.,Não aplicável.,
