Objeto do Contrato,Tipo de Procedimento,Tipo(s) de Contrato,CPVs,Entidade(s) Adjudicante(s),Entidade(s) Adjudicatária(s),Preço Contratual,Data de Publicação,Data de Celebração do Contrato,Prazo de Execução,Local de Execução,Fundamentação,Data de Fecho do Contrato,Preço Total Efetivo,Causas das Alterações ao Prazo,Causas das Alterações ao Preço,Estado,N.º registo do Acordo Quadro,Descrição do Acordo Quadro,Procedimento Centralizado
SERVICOS DE PROTECCAO E SEGURANCA,Ajuste Direto Regime Geral,Aquisição de serviços,"79710000-4, Serviços de segurança",Centro Hospitalar Psiquiatrico de Lisboa (508338476),PRESTIBEL (501326456),"99.540,00 €",06-05-2011,07-01-2010,362 dias,"Portugal, Lisboa, Lisboa","Artigo 20.º, n.º 1, alínea a) do Código dos Contratos Públicos",31-12-2010,"99.540,00 €",,,,Não aplicável.,Não aplicável.,
AQUISICAO DE REAGENTES EXCLUSIVOS BAPTISTA MARQUES,Ajuste Direto Regime Geral,Aquisição de bens móveis,"33696500-0, Reagentes de laboratório",Centro Hospitalar Psiquiatrico de Lisboa (508338476),BAPTISTA MARQUES (501439110),"4.274,01 €",04-05-2011,14-01-2010,365 dias,"Portugal, Lisboa, Lisboa","Artigo 24.º, n.º 1, alínea e) do Código dos Contratos Públicos",31-12-2010,"4.274,01 €",,,,Não aplicável.,Não aplicável.,
