Objeto do Contrato,Tipo de Procedimento,Tipo(s) de Contrato,CPVs,Entidade(s) Adjudicante(s),Entidade(s) Adjudicatária(s),Preço Contratual,Data de Publicação,Data de Celebração do Contrato,Prazo de Execução,Local de Execução,Fundamentação,Data de Fecho do Contrato,Preço Total Efetivo,Causas das Alterações ao Prazo,Causas das Alterações ao Preço,Estado,N.º registo do Acordo Quadro,Descrição do Acordo Quadro,Procedimento Centralizado
PRESTAÇÃO SERVIÇOS MEDICOS-PEDIATRIA_CR,Ajuste Direto Regime Geral,Aquisição de serviços,"85100000-0, Serviços de saúde",Centro Hospitalar do Oeste (510412009),"HELPED, Prestação de Serviços de Saúde, Lda. (506069010)","8.762,78 €",02-07-2018,28-02-2017,28 dias,"Portugal, Leiria, Caldas da Rainha","Artigo 20.º, n.º 1, alínea a) do Código dos Contratos Públicos",28-02-2017,"8.762,78 €",,,,Não aplicável.,Não aplicável.,FALSE
PRESTAÇÃO SERVIÇOS DE TDT´S EM CONTEXTO HOSPITALAR-TV,Ajuste Direto Regime Geral,Aquisição de serviços,"79620000-6, Serviços de fornecimento de pessoal, inclusive temporário",Centro Hospitalar do Oeste (510412009),"LOWMARGIN, LDA (513319964)","8.123,37 €",02-07-2018,01-07-2017,31 dias,"Portugal, Leiria, Caldas da Rainha","Artigo 20.º, n.º 1, alínea a) do Código dos Contratos Públicos",01-07-2017,"8.123,37 €",,,,Não aplicável.,Não aplicável.,FALSE
