Objeto do Contrato,Tipo de Procedimento,Tipo(s) de Contrato,CPVs,Entidade(s) Adjudicante(s),Entidade(s) Adjudicatária(s),Preço Contratual,Data de Publicação,Data de Celebração do Contrato,Prazo de Execução,Local de Execução,Fundamentação,Data de Fecho do Contrato,Preço Total Efetivo,Causas das Alterações ao Prazo,Causas das Alterações ao Preço,Estado,N.º registo do Acordo Quadro,Descrição do Acordo Quadro,Procedimento Centralizado
Economato,Ao abrigo de acordo-quadro (art.º 259.º),Aquisição de bens móveis,"30192000-1, Material de escritório","Hospital do Espírito Santo de Évora, E. P. E. (508085888), CENTRO HOSPITALAR DE LEIRIA, E.P.E. (509822932), Instituto Português de Oncologia do Porto Francisco Gentil, E.P.E. (506362299), Centro Hospitalar do Médio Ave, E. P. E. (508093937), Centro Hospitalar de Setúbal, E. P. E. (507606787), Hospital de Santa Maria Maior, EPE (506361381), SPMS - Serviços Partilhados do Ministério da Saúde, E. P. E. (509540716), Serviço de Intervenção nos Comportamentos Aditivos e nas Dependências (600084884), Hospital Dr. Francisco Zagalo (501510150), Centro Hospitalar do Algarve, E. P. E. (510745997), Hospital Figueira da Foz, EPE (506361527), Instituto Português do Sangue e da Transplantação, I. P. (502423943), INFARMED - Autoridade Nacional do Medicamento e Produtos de Saúde I.P. (600037002), Direcção-Geral da Saúde (600037100), Centro Hospitalar Entre Douro e Vouga, EPE (508878462), Secretaria-Geral do Ministério da Saúde - SNCP (600080684), Administração Regional de Saúde de Lisboa e Vale do Tejo, I. P. (503148776), Centro Hospitalar do Baixo Vouga, E.P.E. (510123210), Unidade Local de saúde do Litoral Alentejano, EPE (510445152), Instituto Nacional de Emergência Médica, I. P. (501356126), CENTRO HOSPITALAR LISBOA NORTE, EPE (508481287), Administração Regional de Saúde do Centro, I. P. (503122165), Centro Hospitalar de São João, E. P. E. (509821197), Instituto Nacional de Saúde Doutor Ricardo Jorge, I.P. (501427511), Unidade Local de Saúde do Norte Alentejano, E. P. E. (508094461), Hospital José Luciano de Castro (501613021), Administração Regional de Saúde do Algarve, I. P. (503148709), Centro Hospitalar do Médio Tejo, E. P. E. (506361608), Centro Hospitalar de Trás-os-Montes e Alto Douro, EPE (508100496), Centro Hospitalar do Tâmega e Sousa, E. P. E. (508318262), Hospital Distrital de Santarém, E. P. E. (506361462), Centro Hospitalar Tondela-Viseu, E. P. E. (509822940), Administração Regional de Saúde do Alentejo (ARSA) (503148768), CHO - Centro Hospitalar do Oeste (510412009), Unidade Local de Saúde da Guarda, E. P. E. (508752000), SUCH (500900469), Unidade Local de Saúde de Matosinhos, EPE (ULSM) (506361390), Instituto Português de Oncologia de Lisboa Francisco Gentil, E. P. E. (506361616), Administração Regional de Saúde do Norte, I. P. (503135593), Centro Hospitalar do Porto, E.P.E. (CHP) (508331471), Instituto de Oftalmologia Dr. Gama Pinto (600000052), Inspeção-Geral das Atividades em Saúde (600018857), Unidade Local de Saúde de Castelo Branco, EPE (509309844), Centro Hospitalar Psiquiátrico de Lisboa (508338476), Unidade Local de Saúde do Nordeste, E. P. E (509932584), Instituto Português de Oncologia de Coimbra Francisco Gentil, E. P. E. (506361438), Centro Hospitalar Vila Nova de Gaia - Espinho, E. P. E. (508142156), Centro Hospitalar Barreiro Montijo, E. P. E. (509186998), Unidade Local de Saúde do Baixo Alentejo, E. P. E. (508754275), Centro Hospitalar de Lisboa Central, E. P. E. (508080142), Hospital Arcebispo João Crisóstomo (501626123), Hospital Professor Doutor Fernando Fonseca, E. P. E. (503035416), ACSS-Administração Central do Sistema de Saúde,IP (508188423), Hospital Garcia de Orta, E. P. E. (506361470), Centro de Medicina e Reabilitação da Região Centro - Rovisco Pais (503767336), Centro Hospitalar e Universitário de Coimbra, E. P. E. (510103448)","OLMAR - Artigos de Papelaria, Lda. (508831989)","17.216,38 €",08-07-2015,07-04-2015,300 dias,"Portugal, Coimbra, Coimbra",Artigo 259.º do Código dos Contratos Públicos,"","","","",,162548,"Concurso limitado por prévia qualificação para a celebração de Acordo Quadro para fornecimento de papel, economato e consumíveis de impressão.",TRUE
Papel para Fotocópia e Impressão,Ao abrigo de acordo-quadro (art.º 259.º),Aquisição de bens móveis,"30197643-5, Papel para fotocópia","Hospital Santa Maria Maior, E. P. E. (506361381), Centro Hospitalar de São João, E. P. E. (509821197), Centro Hospitalar de Leiria, E. P. E. (509822932), Hospital Distrital da Figueira da Foz, EPE (506361527), Centro Hospitalar e Universitário de Coimbra, E. P. E. (510103448), Centro Hospitalar do Médio Tejo, E.P.E. (CHMT) (506361608), Administração Regional de Saúde de Lisboa e Vale do Tejo, I. P. (503148776), CHBM - Centro Hospital Barreiro Montijo, EPE (509186998), Unidade Local de Saúde de Matosinhos, EPE (506361390), Hospital Prof. Doutor Fernando Fonseca E.P.E. (503035416), Administração Regional de Saúde do Centro, I. P. (503122165), Hospital do Espírito Santo de Évora, E. P. E. (508085888), Instituto Português de Oncologia do Porto Francisco Gentil, E. P. E. (506362299), Instituto de Oftalmologia Dr. Gama Pinto (600000052), Direção-Geral da Saúde (600037100), Centro Hospitalar Vila Nova de Gaia - Espinho, E. P. E. (508142156), Centro Hospitalar do Alto Ave, EPE (508080827), Administração Regional de Saúde do Alentejo, I. P. (503148768), Hospital Arcebispo João Crisóstomo (501626123), Centro Hospitalar do Oeste (510412009), Unidade Local de Saúde da Guarda, E. P. E. (508752000), Instituto Português do Sangue e da Transplantação, I. P. (502423943), Instituto Português de Oncologia de Coimbra - Francisco Gentil E.P.E. (506361438), Administração Central do Sistema de Saúde, I. P. (508188423), Unidade Local de Saúde do Litoral Alentejano, E. P. E. (510445152), Centro Hospitalar Tondela-Viseu, E. P. E. (509822940), Centro Hospitalar do Tâmega e Sousa, E. P. E. (508318262), Administração Regional de Saúde do Norte, I. P. (503135593), Unidade Local de Saúde do Nordeste, E. P. E (509932584), Centro Hospitalar de Trás os Montes e Alto Douro, EPE (508100496), CENTRO HOSPITALAR LISBOA NORTE, EPE (508481287), SPMS - Serviços Partilhados do Ministério da Saúde, E. P. E. (509540716), Hospital Garcia de Orta, EPE (506361470), Hospital Dr. Francisco Zagalo (501510150), Instituto Nacional de Emergência Médica, I. P. (501356126), SICAD  - Serviço de Intervenção nos Comportamentos Aditivos e nas Dependências (600084884), Hospital de Magalhães Lemos, E. P. E. (502828790), Secretaria-Geral do Ministério da Saúde - SNCP (600080684), Centro Hospitalar de Lisboa Central, E. P. E. (508080142), Unidade Local de Saúde do Norte Alentejano, E. P. E. (508094461), SUCH - Serviço de Utilização Comum dos Hospitais (500900469), INFARMED - Autoridade Nacional do Medicamento e Produtos de Saúde, I. P. (600037002), Administração Regional de Saúde do Algarve, I. P. (503148709), Centro Hospitalar Cova da Beira, EPE (506361659), Unidade Local de Saude do Baixo Alentejo, EPE (508754275), Centro Hospitalar Médio Ave, E.P.E.. (508093937), Centro Hospitalar do Baixo Vouga, E. P. E (CHBV, E. P. E.) (510123210), Centro Hospitalar de Entre o Douro e Vouga, E.P.E. (508878462), Instituto Português de Oncologia de Lisboa Francisco Gentil, E. P. E. (506361616), Centro Hospitalar Psiquiátrico de Lisboa (508338476), Centro Hospitalar Póvoa de Varzim - Vila do Conde, E. P. E. (508741823), Centro Hospitalar do Porto, E.P.E. (CHP) (508331471), Hospital Distrital de Santarém, E. P. E. (506361462), Hospital de José Luciano de Castro (501613021), Inspeção-Geral das Atividades em Saúde (600018857), Centro Hospitalar de Setúbal, E. P. E. (507606787), Centro Hospitalar de Lisboa Ocidental, E. P. E. (507618319), Centro de medicina e Reabilitação da Região Centro Rovisco Pais (503767336), Unidade Local de Saúde de Castelo Branco, E. P. E. (509309844), Unidade Local de Saúde do Alto Minho, E. P. E. (508786193), Centro Hospitalar do Algarve, E. P. E. (510745997)","STAPLES PORTUGAL - EQUIP. ESCRITORIO, SA (503789372)","95.332,74 €",08-07-2015,30-01-2015,300 dias,"Portugal, Coimbra, Coimbra",Artigo 259.º do Código dos Contratos Públicos,31-12-2015,"80.000,00 €",NÃO APLICÁVEL,NÃO APLICÁVEL,,162548,"Concurso limitado por prévia qualificação para a celebração de Acordo Quadro para fornecimento de papel, economato e consumíveis de impressão.",TRUE
