Objeto do Contrato,Tipo de Procedimento,Tipo(s) de Contrato,CPVs,Entidade(s) Adjudicante(s),Entidade(s) Adjudicatária(s),Preço Contratual,Data de Publicação,Data de Celebração do Contrato,Prazo de Execução,Local de Execução,Fundamentação,Data de Fecho do Contrato,Preço Total Efetivo,Causas das Alterações ao Prazo,Causas das Alterações ao Preço,Estado,N.º registo do Acordo Quadro,Descrição do Acordo Quadro,Procedimento Centralizado
Recolha e Tratamento dos Resíduos Hospitalares não Perigosos Classificados como Grupo I e II,Concurso público,Aquisição de serviços,"90513000-6, Serviços de tratamento e eliminação de resíduos e lixos não-perigosos","Centro Hospitalar de São João, E. P. E. (509821197)",Semural - Waste & Energy S.A. (510333044),"53.755,56 €",16-12-2015,01-04-2015,274 dias,"Portugal, Porto, Porto","Artigo 20.º, n.º 1, alínea b) do Código dos Contratos Públicos",,,,,,Não aplicável.,Não aplicável.,FALSE
"Aquisição de Oxigenadores de membrana, sist.. adm. de cardioplegia, autotransfusão, cânulas, hemofiltros e estabilizadores cardíacos",Concurso público,Aquisição de bens móveis,"33186100-8, Oxigenador","Centro Hospitalar de São João, E. P. E. (509821197)","Medicinália/Cormédica Lda (500684324), Edwards Lifescience Lda (508014832), Biotorax Lda (508761913)","880.889,00 €",16-12-2015,06-02-2014,133 dias,"Portugal, Porto, Porto","Artigo 20.º, n.º 1, alínea b) do Código dos Contratos Públicos",,,,,,Não aplicável.,Não aplicável.,FALSE
"Aquisição de Balões Predilatação Coronários tipo """"Cutting Balloon""""",Ajuste Direto Regime Geral,Aquisição de bens móveis,"33140000-3, Material médico de consumo","Centro Hospitalar São João, EPE (509821197)",Cardiva Portugal Unipessoal lda (508570514),"5.768,70 €",16-12-2015,29-10-2015,63 dias,"Portugal, Porto, Porto","Artigo 20.º, n.º 1, alínea a) do Código dos Contratos Públicos",,,,,,Não aplicável.,Não aplicável.,FALSE
Aquisição de Oxigenadores para ECMO,Ajuste Direto Regime Geral,Aquisição de bens móveis,"33186100-8, Oxigenador","Centro Hospitalar de São João, E. P. E. (509821197)",Maquet Portugal Lda (506819698),"9.500,00 €",16-12-2015,25-11-2015,36 dias,"Portugal, Porto, Porto","Artigo 24.º, n.º 1, alínea e) do Código dos Contratos Públicos",,,,,,Não aplicável.,Não aplicável.,FALSE
Aquisição de Testes Rápidos p/Detenção na Urina de Antigénios da Legionella e de Antigénios de strep.Pneumoniae,Ajuste Direto Regime Geral,Aquisição de bens móveis,"33696500-0, Reagentes de laboratório","Centro Hospitalar São João, EPE (509821197)",Alere Lda (502518863),"10.393,00 €",16-12-2015,12-10-2015,80 dias,"Portugal, Porto, Porto","Artigo 20.º, n.º 1, alínea a) do Código dos Contratos Públicos",,,,,,Não aplicável.,Não aplicável.,FALSE
Aquisição de Geradores de Tecnésio,Ajuste Direto Regime Geral,Aquisição de bens móveis,"33698000-9, Produtos para fins clínicos","Centro Hospitalar de São João, E. P. E. (509821197)",Isótopos e Derivados S.A. (502241594),"57.200,00 €",15-12-2015,30-01-2015,335 dias,"Portugal, Porto, Porto","Artigo 20.º, n.º 1, alínea a) do Código dos Contratos Públicos",,,,,,Não aplicável.,Não aplicável.,FALSE
Aquisição de reagentes de Imunocitoquímica para o serviço de Anatomia Patológica,Concurso público,Aquisição de bens móveis,"33696000-5, Reagentes e meios de contraste","Centro Hospitalar de São João, E. P. E. (509821197)","Lusopalex Unipessoal (503531588), Roche Sistemas Diagnósticos Lda (500301921), Leica Microsistemas Instrumentos de Precisão pessoal Lda (504282921)","46.101,16 €",15-12-2015,29-01-2015,336 dias,"Portugal, Porto, Porto","Artigo 20.º, n.º 1, alínea b) do Código dos Contratos Públicos",,,,,,Não aplicável.,Não aplicável.,FALSE
Aquisição de Reagentes de Imunocitoquímica para o Serviço de Anatomia Patológica,Concurso público,Aquisição de bens móveis,"33696000-5, Reagentes e meios de contraste","Centro Hospitalar de São João, E. P. E. (509821197)",Roche Sistemas de Diagnóstico Lda (504282921),"88.800,00 €",15-12-2015,29-01-2015,336 dias,"Portugal, Porto, Porto","Artigo 20.º, n.º 1, alínea b) do Código dos Contratos Públicos",,,,,,Não aplicável.,Não aplicável.,FALSE
Aquisição de Reagentes para o Serviço de Anatomia Patológica,Ajuste Direto Regime Geral,Aquisição de bens móveis,"33696000-5, Reagentes e meios de contraste","Centro Hospitalar de São João, E. P. E. (509821197)",Roche Sistemas de Diagnóstico Lda (504282921),"13.530,00 €",15-12-2015,01-04-2015,286 dias,"Portugal, Porto, Porto","Artigo 24.º, n.º 1, alínea e) do Código dos Contratos Públicos",,,,,,Não aplicável.,Não aplicável.,FALSE
Aquisição de Colistimetato Sódio 1000000 U.I. Pó Sol. Inal. Neb. FR,Ajuste Direto Regime Geral,Aquisição de bens móveis,"33600000-6, Produtos farmacêuticos","Centro Hospitalar São João, EPE (509821197)",Zambom - Produtos Farmacêuticos Lda (502155930),"32.000,00 €",15-12-2015,22-07-2015,162 dias,"Portugal, Porto, Porto","Artigo 20.º, n.º 1, alínea a) do Código dos Contratos Públicos",,,,,,Não aplicável.,Não aplicável.,FALSE
Aquisição de Lâminas rim/fígado/estom. pesquisa de auto anticorpos 8p,Ajuste Direto Regime Geral,Aquisição de bens móveis,"33696500-0, Reagentes de laboratório","Centro Hospitalar São João, EPE (509821197)",Isótopos e Derivados S.A. (502241594),"4.402,00 €",15-12-2015,24-08-2015,125 dias,"Portugal, Porto, Porto","Artigo 20.º, n.º 1, alínea a) do Código dos Contratos Públicos",,,,,,Não aplicável.,Não aplicável.,FALSE
"Realização de Empreitada de Execução do Anel de Água de Alimentação das UTA's do CAM do Pólo do Porto do Centro Hospitalar de S. João, E.P.E.",Concurso público,Empreitadas de obras públicas,"45232100-3, Obras anexas relacionadas com condutas para o transporte de água","Centro Hospitalar de São João, E. P. E. (509821197)",Pritérmica Instalações Especiais Lda (510492460),"252.300,00 €",14-12-2015,30-07-2015,84 dias,"Portugal, Porto, Porto","Artigo 19.º, alínea b) do Código dos Contratos Públicos",,,,,,Não aplicável.,Não aplicável.,FALSE
Aquisição de Alergenos,Ajuste Direto Regime Geral,Aquisição de bens móveis,"33698000-9, Produtos para fins clínicos","Centro Hospitalar de São João, E. P. E. (509821197)",Bial - Portela & Cª Lda (500220913),"3.829,66 €",14-12-2015,06-11-2014,420 dias,"Portugal, Porto, Porto","Artigo 20.º, n.º 1, alínea a) do Código dos Contratos Públicos",,,,,,Não aplicável.,Não aplicável.,FALSE
Aquisição de cateteres Guia para via radial,Ajuste Direto Regime Geral,Aquisição de bens móveis,"33140000-3, Material médico de consumo","Centro Hospitalar de São João, E. P. E. (509821197)",World Medica S.L. (B-82612599),"9.750,00 €",11-12-2015,06-01-2015,359 dias,"Portugal, Porto, Porto","Artigo 20.º, n.º 1, alínea a) do Código dos Contratos Públicos",,,,,,Não aplicável.,Não aplicável.,FALSE
Aquisição de sistemas de compressão radial,Ajuste Direto Regime Geral,Aquisição de bens móveis,"33140000-3, Material médico de consumo","Centro Hospitalar de São João, E. P. E. (509821197)",Clinifar S.A. (503281115),"2.062,50 €",11-12-2015,07-10-2015,85 dias,"Portugal, Porto, Porto","Artigo 20.º, n.º 1, alínea a) do Código dos Contratos Públicos",,,,,,Não aplicável.,Não aplicável.,FALSE
Aquisição de próteses para profilaxia de hérnia,Ajuste Direto Regime Geral,Aquisição de bens móveis,"33184000-3, Próteses","Centro Hospitalar de São João, E. P. E. (509821197)",Lusopalex Unipessoal Lda (503531588),"810,00 €",11-12-2015,29-10-2015,63 dias,"Portugal, Porto, Porto","Artigo 20.º, n.º 1, alínea a) do Código dos Contratos Públicos",,,,,,Não aplicável.,Não aplicável.,FALSE
Aquisição de máquinas de sutura de pele,Ajuste Direto Regime Geral,Aquisição de bens móveis,"33141122-1, Agrafos cirúrgicos","Centro Hospitalar de São João, E. P. E. (509821197)",B. Braun Medical Lda (501506543),"26.650,00 €",11-12-2015,30-03-2015,276 dias,"Portugal, Porto, Porto","Artigo 20.º, n.º 1, alínea a) do Código dos Contratos Públicos",,,,,,Não aplicável.,Não aplicável.,FALSE
Aquisição de Trocares 5mm Descartáveis,Ajuste Direto Regime Geral,Aquisição de bens móveis,"33160000-9, Técnicas cirúrgicas","Centro Hospitalar de São João, E. P. E. (509821197)",B. Braun Medical Lda (501506543),"14.238,00 €",11-12-2015,30-03-2015,276 dias,"Portugal, Porto, Porto","Artigo 20.º, n.º 1, alínea a) do Código dos Contratos Públicos",,,,,,Não aplicável.,Não aplicável.,FALSE
