Objeto do Contrato,Tipo de Procedimento,Tipo(s) de Contrato,CPVs,Entidade(s) Adjudicante(s),Entidade(s) Adjudicatária(s),Preço Contratual,Data de Publicação,Data de Celebração do Contrato,Prazo de Execução,Local de Execução,Fundamentação,Data de Fecho do Contrato,Preço Total Efetivo,Causas das Alterações ao Prazo,Causas das Alterações ao Preço,Estado,N.º registo do Acordo Quadro,Descrição do Acordo Quadro,Procedimento Centralizado
20180372 - Material de consumo clínico,Consulta Prévia,Aquisição de bens móveis,"33000000-0, Equipamento médico, medicamentos e produtos para cuidados pessoais","Instituto Nacional de Saúde Doutor Ricardo Jorge, I. P. (501427511)","VWR Internacional -Material de Laboratório,Lda. (503842770)","89,70 €",08-08-2018,25-06-2018,168 dias,"Portugal, Lisboa, Lisboa","Artigo 20.º, n.º 1, alínea c) do Código dos Contratos Públicos",08-10-2018,"89,70 €",,,,Não aplicável.,Não aplicável.,FALSE
20180331 - Aquisição de reagentes,Ajuste Direto Regime Geral,Aquisição de bens móveis,"33696000-5, Reagentes e meios de contraste","Instituto Nacional de Saúde Doutor Ricardo Jorge, I. P. (501427511)",WERFEN PORTUGAL LDA. (501086110),"1.060,00 €",07-08-2018,11-06-2018,180 dias,"Portugal, Lisboa, Lisboa","Artigo 24.º, n.º 1, alínea e), subalínea iii) do Código dos Contratos Públicos",20-08-2018,"1.060,00 €",,,,Não aplicável.,Não aplicável.,FALSE
20180328 - Aquisição de reagentes,Ajuste Direto Regime Geral,Aquisição de bens móveis,"33696000-5, Reagentes e meios de contraste","Instituto Nacional de Saúde Doutor Ricardo Jorge, I. P. (501427511)","Bio-Rad Laboratories, Lda (501301321)","1.532,00 €",07-08-2018,11-06-2018,180 dias,"Portugal, Lisboa, Lisboa","Artigo 24.º, n.º 1, alínea e), subalínea iii) do Código dos Contratos Públicos",27-07-2018,"1.532,00 €",,,,Não aplicável.,Não aplicável.,FALSE
20180265 - Aquisição de reagentes,Ajuste Direto Regime Geral,Aquisição de bens móveis,"33696000-5, Reagentes e meios de contraste","Instituto Nacional de Saúde Doutor Ricardo Jorge, I. P. (501427511)","Soquimica-Soc-Representações de Quimica, Lda (500274231)","9.075,84 €",07-08-2018,24-05-2018,246 dias,"Portugal, Lisboa, Lisboa","Artigo 24.º, n.º 1, alínea e), subalínea iii) do Código dos Contratos Públicos",04-12-2018,"9.075,84 €",,,,Não aplicável.,Não aplicável.,FALSE
20180249 - Material de consumo clínico,Ajuste Direto Regime Geral,Aquisição de bens móveis,"33000000-0, Equipamento médico, medicamentos e produtos para cuidados pessoais","Instituto Nacional de Saúde Doutor Ricardo Jorge, I. P. (501427511)","Soquimica-Soc-Representações de Quimica, Lda (500274231)","197,40 €",06-08-2018,11-05-2018,222 dias,"Portugal, Lisboa, Lisboa","Artigo 24.º, n.º 1, alínea e), subalínea iii) do Código dos Contratos Públicos",12-07-2018,"197,40 €",,,,Não aplicável.,Não aplicável.,FALSE
20180229 - Material de Consumo,Ajuste Direto Regime Geral,Aquisição de bens móveis,"33000000-0, Equipamento médico, medicamentos e produtos para cuidados pessoais","Instituto Nacional de Saúde Doutor Ricardo Jorge, I. P. (501427511)","Ultragene, Lda. (508797527)","1.245,10 €",06-08-2018,05-04-2018,270 dias,"Portugal, Lisboa, Lisboa","Artigo 20.º, n.º 1, alínea d) do Código dos Contratos Públicos",17-12-2018,"1.245,10 €",,,,Não aplicável.,Não aplicável.,FALSE
20180451 - Aquisição de reagentes,Ajuste Direto Regime Geral,Aquisição de bens móveis,"33696500-0, Reagentes de laboratório","Instituto Nacional de Saúde Doutor Ricardo Jorge, I. P. (501427511)","Alfagene - Novas Tecnologias Ciências da Vida, Ldª (503387398)","1.480,00 €",02-08-2018,02-08-2018,90 dias,"Portugal, Lisboa, Lisboa","Artigo 24.º, n.º 1, alínea e), subalínea iii) do Código dos Contratos Públicos",18-10-2018,"1.480,00 €",,,,Não aplicável.,Não aplicável.,FALSE
20180395 - Aquisição de 1 Flurimetro com leitor de placas,Ajuste Direto Regime Geral,Aquisição de bens móveis,"38900000-4, Instrumentos diversos de avaliação ou ensaio",Instituto Nacional de Saúde Dr.Ricardo Jorge(INSA) (501427511),ILC - INSTRUMENTOS DE LABORAT. E CI (500948208),"16.240,00 €",02-08-2018,27-07-2018,90 dias,Portugal,"Artigo 24.º, n.º 1, alínea e), subalínea iii) do Código dos Contratos Públicos",08-10-2018,"16.240,00 €",,,,Não aplicável.,Não aplicável.,FALSE
20180164 - Aquisição de reagentes,Ajuste Direto Regime Geral,Aquisição de bens móveis,"33696000-5, Reagentes e meios de contraste","Instituto Nacional de Saúde Doutor Ricardo Jorge, I. P. (501427511)","Alfagene - Novas Tecnologias Ciências da Vida, Ldª (503387398)","6.900,00 €",01-08-2018,03-04-2018,270 dias,"Portugal, Lisboa, Lisboa","Artigo 24.º, n.º 1, alínea e), subalínea iii) do Código dos Contratos Públicos",20-12-2018,"6.900,00 €",,,,Não aplicável.,Não aplicável.,FALSE
20180114 - Aquisição de reagentes,Ajuste Direto Regime Geral,Aquisição de bens móveis,"33696000-5, Reagentes e meios de contraste","Instituto Nacional de Saúde Doutor Ricardo Jorge, I. P. (501427511)","Fisher Scientific Unipessoal, Lda (506429210)","362,90 €",01-08-2018,02-04-2018,240 dias,"Portugal, Lisboa, Lisboa","Artigo 20.º, n.º 1, alínea d) do Código dos Contratos Públicos","","",,,,Não aplicável.,Não aplicável.,FALSE
