Objeto do Contrato,Tipo de Procedimento,Tipo(s) de Contrato,CPVs,Entidade(s) Adjudicante(s),Entidade(s) Adjudicatária(s),Preço Contratual,Data de Publicação,Data de Celebração do Contrato,Prazo de Execução,Local de Execução,Fundamentação,Data de Fecho do Contrato,Preço Total Efetivo,Causas das Alterações ao Prazo,Causas das Alterações ao Preço,Estado,N.º registo do Acordo Quadro,Descrição do Acordo Quadro,Procedimento Centralizado
Aquisição de serviços de manutenção de Infraestruturas de Data Center para a SPMS,Ajuste Direto Regime Geral,Aquisição de serviços,"72500000-0, Serviços relacionados com a informática","Serviço Partilhados do Ministério da Saúde, E. P. E. (509540716)",Consórcio CPCis - eChiron (501267255),"74.990,00 €",07-01-2013,26-11-2012,365 dias,Portugal,"Artigo 20.º, n.º 1, alínea a) do Código dos Contratos Públicos",31-12-2013,"74.990,00 €",,,,Não aplicável.,Não aplicável.,
"Aquisição de Serviços de Transferência de Conhecimento SIARS, SIM@SNS e MIM@UF",Ajuste Direto Regime Geral,Aquisição de serviços,"72500000-0, Serviços relacionados com a informática","Serviço Partilhados do Ministério da Saúde, E. P. E. (509540716)","Nimble Portal - Serviços de Consultoria de Gestão, Lda (510308759)","72.000,00 €",04-01-2013,28-12-2012,61 dias,Portugal,"Artigo 20.º, n.º 1, alínea a) do Código dos Contratos Públicos","","",,,,Não aplicável.,Não aplicável.,
Aquisição de Serviços de desenvolvimeno da solução para gestão de locais de prescrição,Ajuste Direto Regime Geral,Aquisição de serviços,"72500000-0, Serviços relacionados com a informática","Serviço Partilhados do Ministério da Saúde, E. P. E. (509540716)","DOITLEAN, LDA (509224075)","36.070,00 €",04-01-2013,27-12-2012,183 dias,Portugal,"Artigo 20.º, n.º 1, alínea a) do Código dos Contratos Públicos","","",,,,Não aplicável.,Não aplicável.,
PRESTAÇÃO DE SERVIÇOS DE GESTÃO DE PROJETOS,Ajuste Direto Regime Geral,Aquisição de serviços,"79421000-1, Serviços de gestão de projectos, excepto projectos de construção","Serviço Partilhados do Ministério da Saúde, E. P. E. (509540716)","VIA CONSULTING, S.A. (508418518)","66.000,00 €",03-01-2013,26-12-2012,335 dias,"Portugal, Lisboa, Lisboa","Artigo 20.º, n.º 1, alínea a) do Código dos Contratos Públicos","","",,,,Não aplicável.,Não aplicável.,
PRESTAÇÃO DE SERVIÇOS DE CONSULTORIA EM RECURSOS HUMANOS E VENCIMENTOS,Ajuste Direto Regime Geral,Aquisição de serviços,"79414000-9, Serviços de consultoria em matéria de gestão de recursos humanos","Serviço Partilhados do Ministério da Saúde, E. P. E. (509540716)","ATMInformática2 Soluções e Sistemas, S.A. (504062859)","46.560,00 €",03-01-2013,17-12-2012,365 dias,"Portugal, Porto, Porto","Artigo 20.º, n.º 1, alínea a) do Código dos Contratos Públicos","","",,,,Não aplicável.,Não aplicável.,
