Objeto do Contrato,Tipo de Procedimento,Tipo(s) de Contrato,CPVs,Entidade(s) Adjudicante(s),Entidade(s) Adjudicatária(s),Preço Contratual,Data de Publicação,Data de Celebração do Contrato,Prazo de Execução,Local de Execução,Fundamentação,Data de Fecho do Contrato,Preço Total Efetivo,Causas das Alterações ao Prazo,Causas das Alterações ao Preço,Estado,N.º registo do Acordo Quadro,Descrição do Acordo Quadro,Procedimento Centralizado
Medicamentos Antirretrovirais para 2018 - CPA 2016/40,Ao abrigo de acordo-quadro (art.º 259.º),Aquisição de bens móveis,"33000000-0, Equipamento médico, medicamentos e produtos para cuidados pessoais","Hospital Garcia de Orta, E. P. E. (506361470)","ABBVIE, LDA (510229050)","109.926,07 €",31-01-2019,22-03-2018,365 dias,"Portugal, Setúbal, Almada",Artigo 259.º do Código dos Contratos Públicos,,,,,,2183729,Medicamentos antirretrovíricos para o tratamento da infeção por VIH,FALSE
Medicamentos Antirretrovirais para 2018 - CPA 2016/40,Ao abrigo de acordo-quadro (art.º 259.º),Aquisição de bens móveis,"33000000-0, Equipamento médico, medicamentos e produtos para cuidados pessoais","Hospital Garcia de Orta, E. P. E. (506361470)",TEVA PHARMA  - PROD. FARMACÊUTICOS (507045491),"34.276,50 €",31-01-2019,22-03-2018,365 dias,"Portugal, Setúbal, Almada",Artigo 259.º do Código dos Contratos Públicos,,,,,,2183729,Medicamentos antirretrovíricos para o tratamento da infeção por VIH,FALSE
Medicamentos Antirretrovirais para 2018 - CPA 2016/40,Ao abrigo de acordo-quadro (art.º 259.º),Aquisição de bens móveis,"33000000-0, Equipamento médico, medicamentos e produtos para cuidados pessoais","Hospital Garcia de Orta, E. P. E. (506361470)","TECNIMEDE, SOC TECNICO-MED, SA (500626413)","1.955,10 €",31-01-2019,22-03-2018,365 dias,"Portugal, Setúbal, Almada",Artigo 259.º do Código dos Contratos Públicos,,,,,,2183729,Medicamentos antirretrovíricos para o tratamento da infeção por VIH,FALSE
Medicamentos Antirretrovirais para 2018 - CPA 2016/40,Ao abrigo de acordo-quadro (art.º 259.º),Aquisição de bens móveis,"33000000-0, Equipamento médico, medicamentos e produtos para cuidados pessoais","Hospital Garcia de Orta, E. P. E. (506361470)","SANDOZ FARMACEUTICA, LDA (506985261)","115.340,40 €",31-01-2019,22-03-2018,365 dias,"Portugal, Setúbal, Almada",Artigo 259.º do Código dos Contratos Públicos,,,,,,2183729,Medicamentos antirretrovíricos para o tratamento da infeção por VIH,FALSE
Medicamentos Antirretrovirais para 2018 - CPA 2016/40,Ao abrigo de acordo-quadro (art.º 259.º),Aquisição de bens móveis,"33000000-0, Equipamento médico, medicamentos e produtos para cuidados pessoais","Hospital Garcia de Orta, E. P. E. (506361470)","Mylan, Lda. (502248793)","2.073,60 €",31-01-2019,22-03-2018,365 dias,"Portugal, Setúbal, Almada",Artigo 259.º do Código dos Contratos Públicos,,,,,,2183729,Medicamentos antirretrovíricos para o tratamento da infeção por VIH,FALSE
IDARUCIZUMAB 2.5 G/50 ML SOL INJ FR 50 ML IV,Ajuste Direto Regime Geral,Aquisição de bens móveis,"33600000-6, Produtos farmacêuticos","Hospital Garcia de Orta, E. P. E. (506361470)",Unilfarma (500293023),"8.032,00 €",31-01-2019,29-01-2019,365 dias,"Portugal, Setúbal, Almada","Artigo 24.º, n.º 1, alínea e), subalínea iii) do Código dos Contratos Públicos",,,,,,Não aplicável.,Não aplicável.,FALSE
CLEMASTINA 2 MG/2 ML SOL INJ FR 2 ML IM IV,Ajuste Direto Regime Geral,Aquisição de bens móveis,"33600000-6, Produtos farmacêuticos","Hospital Garcia de Orta, E. P. E. (506361470)","RB – PRODUTOS FARMACEUTICOS , LDA (510784429)","7.380,00 €",31-01-2019,29-01-2019,365 dias,"Portugal, Setúbal, Almada","Artigo 24.º, n.º 1, alínea e), subalínea iii) do Código dos Contratos Públicos",,,,,,Não aplicável.,Não aplicável.,FALSE
EVOLOCUMAB 140 MG/1 ML SOL INJ CANETA 1 ML SC,Ajuste Direto Regime Geral,Aquisição de bens móveis,"33600000-6, Produtos farmacêuticos","Hospital Garcia de Orta, E. P. E. (506361470)",amgen (502942959),"8.417,76 €",31-01-2019,29-01-2019,365 dias,"Portugal, Setúbal, Almada","Artigo 24.º, n.º 1, alínea e), subalínea iii) do Código dos Contratos Públicos",,,,,,Não aplicável.,Não aplicável.,FALSE
BENZILPENICILINA SÓDICA 1 M.U.I. PÓ SOL INJ FR IM IV,Ajuste Direto Regime Geral,Aquisição de bens móveis,"33600000-6, Produtos farmacêuticos","Hospital Garcia de Orta, E. P. E. (506361470)","Laboratórios ATRAL, S.A. (500162085)","10.162,68 €",31-01-2019,29-01-2019,365 dias,"Portugal, Setúbal, Almada","Artigo 24.º, n.º 1, alínea e), subalínea iii) do Código dos Contratos Públicos",,,,,,Não aplicável.,Não aplicável.,FALSE
RITONAVIR 100 MG CÁPS,Consulta Prévia,Aquisição de bens móveis,"33600000-6, Produtos farmacêuticos","Hospital Garcia de Orta, E. P. E. (506361470)","ABBVIE, LDA (510229050)","5.299,47 €",31-01-2019,29-01-2019,30 dias,"Portugal, Setúbal, Almada","Artigo 20.º, n.º 1, alínea c) do Código dos Contratos Públicos",,,,,,Não aplicável.,Não aplicável.,FALSE
AMOXICILINA 1000 MG + ÁCIDO CLAVULÂNICO 200 MG PÓ SOL INJ FR IV,Ao abrigo de acordo-quadro (art.º 259.º),Aquisição de bens móveis,"33600000-6, Produtos farmacêuticos","Hospital Garcia de Orta, E. P. E. (506361470)","HIKMA FARMACEUTICA (PORTUGAL), SA (502266791)","26.260,00 €",31-01-2019,14-01-2019,365 dias,"Portugal, Setúbal, Almada",Artigo 259.º do Código dos Contratos Públicos,,,,,,2775691,CP 2017/5 - Acordo Quadro para fornecimento de Medicamentos anti-infeciosos: exceto antivíricos e antifúngicos,FALSE
METIRAPONA 250 MG CÁPS,Ajuste Direto Regime Geral,Aquisição de bens móveis,"33600000-6, Produtos farmacêuticos","Hospital Garcia de Orta, E. P. E. (506361470)","RB – PRODUTOS FARMACEUTICOS , LDA (510784429)","5.750,00 €",31-01-2019,19-12-2018,30 dias,"Portugal, Setúbal, Almada","Artigo 20.º, n.º 1, alínea d) do Código dos Contratos Públicos",,,,,,Não aplicável.,Não aplicável.,FALSE
DARUNAVIR 800 MG COMP,Consulta Prévia,Aquisição de bens móveis,"33600000-6, Produtos farmacêuticos","Hospital Garcia de Orta, E. P. E. (506361470)","SANDOZ FARMACEUTICA, LDA (506985261)","73.566,00 €",31-01-2019,13-12-2018,30 dias,"Portugal, Setúbal, Almada","Artigo 20.º, n.º 1, alínea c) do Código dos Contratos Públicos",,,,,,Não aplicável.,Não aplicável.,FALSE
REAGENTES DE CALENDÁRIO,Ajuste Direto Regime Geral,Aquisição de bens móveis,"33000000-0, Equipamento médico, medicamentos e produtos para cuidados pessoais","Hospital Garcia de Orta, E. P. E. (506361470)",BIO-RAD LABORATORIES (501301321),"8.668,40 €",30-01-2019,05-01-2019,365 dias,"Portugal, Setúbal, Almada","Artigo 20.º, n.º 1, alínea d) do Código dos Contratos Públicos",,,,,,Não aplicável.,Não aplicável.,FALSE
INFORM HER2 DUAL ISH DNA PROBE COCKTAIL,Ajuste Direto Regime Geral,Aquisição de bens móveis,"33600000-6, Produtos farmacêuticos","Hospital Garcia de Orta, E. P. E. (506361470)",ROCHE SISTEMA DE DIAGNOSTICOS (504282921),"5.725,00 €",30-01-2019,04-01-2019,30 dias,"Portugal, Setúbal, Almada","Artigo 20.º, n.º 1, alínea d) do Código dos Contratos Públicos",,,,,,Não aplicável.,Não aplicável.,FALSE
COBAS B 123 FLUID COOX 200,Ajuste Direto Regime Geral,Aquisição de bens móveis,"33600000-6, Produtos farmacêuticos","Hospital Garcia de Orta, E. P. E. (506361470)",ROCHE SISTEMA DE DIAGNOSTICOS (504282921),"16.992,00 €",30-01-2019,09-01-2019,120 dias,"Portugal, Setúbal, Almada","Artigo 26.º, n.º 1, alínea a) do Código dos Contratos Públicos",,,,,,Não aplicável.,Não aplicável.,FALSE
DESFERRASIROX 180 MG COMP,Ajuste Direto Regime Geral,Aquisição de bens móveis,"33600000-6, Produtos farmacêuticos","Hospital Garcia de Orta, E. P. E. (506361470)",NOVARTIS FARMA - PROD.FARM SA (500063524),"7.735,18 €",30-01-2019,14-01-2019,365 dias,"Portugal, Setúbal, Almada","Artigo 24.º, n.º 1, alínea e), subalínea iii) do Código dos Contratos Públicos",,,,,,Não aplicável.,Não aplicável.,FALSE
DEXAMETASONA 4 MG/ML SOL INJ FR 1 ML IARTICULAR IM ISSINOVIAL IV,Ajuste Direto Regime Geral,Aquisição de bens móveis,"33600000-6, Produtos farmacêuticos","Hospital Garcia de Orta, E. P. E. (506361470)","FRESENIUS- KABI PHARMA PORTUGAL, LD (504293753)","41.075,00 €",30-01-2019,14-01-2019,365 dias,"Portugal, Setúbal, Almada","Artigo 24.º, n.º 1, alínea e), subalínea iii) do Código dos Contratos Públicos",,,,,,Não aplicável.,Não aplicável.,FALSE
IXECIZUMAB 80 MG/1 ML SOL INJ CANETA 1 ML SC,Ajuste Direto Regime Geral,Aquisição de bens móveis,"33600000-6, Produtos farmacêuticos","Hospital Garcia de Orta, E. P. E. (506361470)",LILLY PORTUGAL - PRODUTOS FARMACEUTICOS (500165602),"6.600,00 €",30-01-2019,14-01-2019,365 dias,"Portugal, Setúbal, Almada","Artigo 24.º, n.º 1, alínea e), subalínea iii) do Código dos Contratos Públicos",,,,,,Não aplicável.,Não aplicável.,FALSE
ATEZOLIZUMAB 60 MG/ML SOL INJ FR 20 ML IV,Ajuste Direto Regime Geral,Aquisição de bens móveis,"33600000-6, Produtos farmacêuticos","Hospital Garcia de Orta, E. P. E. (506361470)","Roche Farmacêutica, Lda. (500233810)","49.890,72 €",30-01-2019,16-01-2019,90 dias,"Portugal, Setúbal, Almada","Artigo 24.º, n.º 1, alínea e), subalínea iii) do Código dos Contratos Públicos",,,,,,Não aplicável.,Não aplicável.,FALSE
EVEROLÍMUS 2 MG COMP DISPERSÍVEIS,Ajuste Direto Regime Geral,Aquisição de bens móveis,"33600000-6, Produtos farmacêuticos","Hospital Garcia de Orta, E. P. E. (506361470)",NOVARTIS FARMA - PROD.FARM SA (500063524),"11.390,40 €",30-01-2019,14-01-2019,365 dias,"Portugal, Setúbal, Almada","Artigo 24.º, n.º 1, alínea e), subalínea iii) do Código dos Contratos Públicos",,,,,,Não aplicável.,Não aplicável.,FALSE
NETUPITANT 300 MG + PALONOSSETROM 0.5 MG CÁPS,Ajuste Direto Regime Geral,Aquisição de bens móveis,"33600000-6, Produtos farmacêuticos","Hospital Garcia de Orta, E. P. E. (506361470)","OM Pharma, SA (500207410)","6.969,60 €",30-01-2019,14-01-2019,365 dias,"Portugal, Setúbal, Almada","Artigo 24.º, n.º 1, alínea e), subalínea iii) do Código dos Contratos Públicos",,,,,,Não aplicável.,Não aplicável.,FALSE
SELEXIPAG 200 MG COMP,Ajuste Direto Regime Geral,Aquisição de bens móveis,"33600000-6, Produtos farmacêuticos","Hospital Garcia de Orta, E. P. E. (506361470)",Actelion Pharmaceuticals Portugal Lda (507336488),"13.905,60 €",30-01-2019,14-01-2019,30 dias,"Portugal, Setúbal, Almada","Artigo 24.º, n.º 1, alínea e), subalínea iii) do Código dos Contratos Públicos",,,,,,Não aplicável.,Não aplicável.,FALSE
SELEXIPAG 600 MG COMP,Ajuste Direto Regime Geral,Aquisição de bens móveis,"33600000-6, Produtos farmacêuticos","Hospital Garcia de Orta, E. P. E. (506361470)",Actelion Pharmaceuticals Portugal Lda (507336488),"6.952,80 €",30-01-2019,14-01-2019,30 dias,"Portugal, Setúbal, Almada","Artigo 24.º, n.º 1, alínea e), subalínea iii) do Código dos Contratos Públicos",,,,,,Não aplicável.,Não aplicável.,FALSE
Imunoglobulina Humana Normal 100mg/ml Sol Inj Fr 50ml IV - CPA 2017/9,Ao abrigo de acordo-quadro (art.º 259.º),Aquisição de bens móveis,"33000000-0, Equipamento médico, medicamentos e produtos para cuidados pessoais","Hospital Garcia de Orta, E. P. E. (506361470)",CSL Behring Lda (503047201),"11.694,00 €",29-01-2019,20-08-2018,150 dias,"Portugal, Setúbal, Almada",Artigo 259.º do Código dos Contratos Públicos,,,,,,2800702,CP 2017/9 - Acordo quadro para fornecimento de Derivados do Plasma Humano às Instituições e Serviços do Serviço Nacional de Saúde,FALSE
"Medicamentos do Aparelho Cardiovascular, ao abrigo do CPA 2016/01 - Para 2018",Ao abrigo de acordo-quadro (art.º 259.º),Aquisição de bens móveis,"33600000-6, Produtos farmacêuticos","Hospital Garcia de Orta, E. P. E. (506361470)",Astrazeneca (502942240),"179,80 €",29-01-2019,01-03-2018,365 dias,"Portugal, Setúbal, Almada",Artigo 259.º do Código dos Contratos Públicos,,,,,,2335591,CP 2016/01 - Acordo Quadro para fornecimento de Medicamentos do Aparelho Cardiovascular   às Instituições e Serviços do Serviço Nacional de Saúde,FALSE
"Medicamentos do Aparelho Cardiovascular, ao abrigo do CPA 2016/01 - Para 2018",Ao abrigo de acordo-quadro (art.º 259.º),Aquisição de bens móveis,"33600000-6, Produtos farmacêuticos","Hospital Garcia de Orta, E. P. E. (506361470)","TECNIMEDE, SOC TECNICO-MED, SA (500626413)","519,20 €",29-01-2019,01-03-2018,365 dias,"Portugal, Setúbal, Almada",Artigo 259.º do Código dos Contratos Públicos,,,,,,2335591,CP 2016/01 - Acordo Quadro para fornecimento de Medicamentos do Aparelho Cardiovascular   às Instituições e Serviços do Serviço Nacional de Saúde,FALSE
"Medicamentos do Aparelho Cardiovascular, ao abrigo do CPA 2016/01 - Para 2018",Ao abrigo de acordo-quadro (art.º 259.º),Aquisição de bens móveis,"33600000-6, Produtos farmacêuticos","Hospital Garcia de Orta, E. P. E. (506361470)",RATIOPHARM (502414910),"199,17 €",29-01-2019,01-03-2018,365 dias,"Portugal, Setúbal, Almada",Artigo 259.º do Código dos Contratos Públicos,,,,,,2335591,CP 2016/01 - Acordo Quadro para fornecimento de Medicamentos do Aparelho Cardiovascular   às Instituições e Serviços do Serviço Nacional de Saúde,FALSE
"Medicamentos do Aparelho Cardiovascular, ao abrigo do CPA 2016/01 - Para 2018",Ao abrigo de acordo-quadro (art.º 259.º),Aquisição de bens móveis,"33600000-6, Produtos farmacêuticos","Hospital Garcia de Orta, E. P. E. (506361470)",OVERPHARMA (505792362),"5.755,50 €",29-01-2019,01-03-2018,365 dias,"Portugal, Setúbal, Almada",Artigo 259.º do Código dos Contratos Públicos,,,,,,2335591,CP 2016/01 - Acordo Quadro para fornecimento de Medicamentos do Aparelho Cardiovascular   às Instituições e Serviços do Serviço Nacional de Saúde,FALSE
"Medicamentos do Aparelho Cardiovascular, ao abrigo do CPA 2016/01 - Para 2018",Ao abrigo de acordo-quadro (art.º 259.º),Aquisição de bens móveis,"33600000-6, Produtos farmacêuticos","Hospital Garcia de Orta, E. P. E. (506361470)",medinfar (500384045),"200,00 €",29-01-2019,01-03-2018,365 dias,"Portugal, Setúbal, Almada",Artigo 259.º do Código dos Contratos Públicos,,,,,,2335591,CP 2016/01 - Acordo Quadro para fornecimento de Medicamentos do Aparelho Cardiovascular   às Instituições e Serviços do Serviço Nacional de Saúde,FALSE
"Medicamentos do Aparelho Cardiovascular, ao abrigo do CPA 2016/01 - Para 2018",Ao abrigo de acordo-quadro (art.º 259.º),Aquisição de bens móveis,"33600000-6, Produtos farmacêuticos","Hospital Garcia de Orta, E. P. E. (506361470)","LABESFAL - Laboratórios Almiro, S.A (501169580)","13.592,10 €",29-01-2019,01-03-2018,365 dias,"Portugal, Setúbal, Almada",Artigo 259.º do Código dos Contratos Públicos,,,,,,2335591,CP 2016/01 - Acordo Quadro para fornecimento de Medicamentos do Aparelho Cardiovascular   às Instituições e Serviços do Serviço Nacional de Saúde,FALSE
"Medicamentos do Aparelho Cardiovascular, ao abrigo do CPA 2016/01 - Para 2018",Ao abrigo de acordo-quadro (art.º 259.º),Aquisição de bens móveis,"33600000-6, Produtos farmacêuticos","Hospital Garcia de Orta, E. P. E. (506361470)","Laboratórios Pfizer, SA (500162166)","585,90 €",29-01-2019,01-03-2018,365 dias,"Portugal, Setúbal, Almada",Artigo 259.º do Código dos Contratos Públicos,,,,,,2335591,CP 2016/01 - Acordo Quadro para fornecimento de Medicamentos do Aparelho Cardiovascular   às Instituições e Serviços do Serviço Nacional de Saúde,FALSE
"Medicamentos do Aparelho Cardiovascular, ao abrigo do CPA 2016/01 - Para 2018",Ao abrigo de acordo-quadro (art.º 259.º),Aquisição de bens móveis,"33600000-6, Produtos farmacêuticos","Hospital Garcia de Orta, E. P. E. (506361470)","Glaxosmithkline, Lda. (500139962)","57.788,87 €",29-01-2019,01-03-2018,365 dias,"Portugal, Setúbal, Almada",Artigo 259.º do Código dos Contratos Públicos,,,,,,2335591,CP 2016/01 - Acordo Quadro para fornecimento de Medicamentos do Aparelho Cardiovascular   às Instituições e Serviços do Serviço Nacional de Saúde,FALSE
"Medicamentos do Aparelho Cardiovascular, ao abrigo do CPA 2016/01 - Para 2018",Ao abrigo de acordo-quadro (art.º 259.º),Aquisição de bens móveis,"33600000-6, Produtos farmacêuticos","Hospital Garcia de Orta, E. P. E. (506361470)","GENERIS FARMACEUTICA, SA (505625520)","72.286,51 €",29-01-2019,01-03-2018,365 dias,"Portugal, Setúbal, Almada",Artigo 259.º do Código dos Contratos Públicos,,,,,,2335591,CP 2016/01 - Acordo Quadro para fornecimento de Medicamentos do Aparelho Cardiovascular   às Instituições e Serviços do Serviço Nacional de Saúde,FALSE
"Medicamentos do Aparelho Cardiovascular, ao abrigo do CPA 2016/01 - Para 2018",Ao abrigo de acordo-quadro (art.º 259.º),Aquisição de bens móveis,"33600000-6, Produtos farmacêuticos","Hospital Garcia de Orta, E. P. E. (506361470)",FERRAZ LYNCE SA (500113270),"112,07 €",29-01-2019,01-03-2018,365 dias,"Portugal, Setúbal, Almada",Artigo 259.º do Código dos Contratos Públicos,,,,,,2335591,CP 2016/01 - Acordo Quadro para fornecimento de Medicamentos do Aparelho Cardiovascular   às Instituições e Serviços do Serviço Nacional de Saúde,FALSE
"Medicamentos do Aparelho Cardiovascular, ao abrigo do CPA 2016/01 - Para 2018",Ao abrigo de acordo-quadro (art.º 259.º),Aquisição de bens móveis,"33600000-6, Produtos farmacêuticos","Hospital Garcia de Orta, E. P. E. (506361470)","FRESENIUS- KABI PHARMA PORTUGAL, LD (504293753)","1.327,00 €",29-01-2019,01-03-2018,365 dias,"Portugal, Setúbal, Almada",Artigo 259.º do Código dos Contratos Públicos,,,,,,2335591,CP 2016/01 - Acordo Quadro para fornecimento de Medicamentos do Aparelho Cardiovascular   às Instituições e Serviços do Serviço Nacional de Saúde,FALSE
"Medicamentos do Aparelho Cardiovascular, ao abrigo do CPA 2016/01 - Para 2018",Ao abrigo de acordo-quadro (art.º 259.º),Aquisição de bens móveis,"33600000-6, Produtos farmacêuticos","Hospital Garcia de Orta, E. P. E. (506361470)",Baxter (503347345),"3.400,00 €",29-01-2019,01-03-2018,365 dias,"Portugal, Setúbal, Almada",Artigo 259.º do Código dos Contratos Públicos,,,,,,2335591,CP 2016/01 - Acordo Quadro para fornecimento de Medicamentos do Aparelho Cardiovascular   às Instituições e Serviços do Serviço Nacional de Saúde,FALSE
"Medicamentos do Aparelho Cardiovascular, ao abrigo do CPA 2016/01 - Para 2018",Ao abrigo de acordo-quadro (art.º 259.º),Aquisição de bens móveis,"33600000-6, Produtos farmacêuticos","Hospital Garcia de Orta, E. P. E. (506361470)",BAYER PORTUGAL LDA (500043256),"369,75 €",29-01-2019,01-03-2018,365 dias,"Portugal, Setúbal, Almada",Artigo 259.º do Código dos Contratos Públicos,,,,,,2335591,CP 2016/01 - Acordo Quadro para fornecimento de Medicamentos do Aparelho Cardiovascular   às Instituições e Serviços do Serviço Nacional de Saúde,FALSE
"Medicamentos do Aparelho Cardiovascular, ao abrigo do CPA 2016/01 - Para 2018",Ao abrigo de acordo-quadro (art.º 259.º),Aquisição de bens móveis,"33600000-6, Produtos farmacêuticos","Hospital Garcia de Orta, E. P. E. (506361470)",sanofi (500134960),"7,15 €",29-01-2019,01-03-2018,365 dias,"Portugal, Setúbal, Almada",Artigo 259.º do Código dos Contratos Públicos,,,,,,2335591,CP 2016/01 - Acordo Quadro para fornecimento de Medicamentos do Aparelho Cardiovascular   às Instituições e Serviços do Serviço Nacional de Saúde,FALSE
"Medicamentos do Aparelho Cardiovascular, ao abrigo do CPA 2016/01 - Para 2018",Ao abrigo de acordo-quadro (art.º 259.º),Aquisição de bens móveis,"33600000-6, Produtos farmacêuticos","Hospital Garcia de Orta, E. P. E. (506361470)","HIKMA Farmacêutica (Portugal), S.A. (502266791)","26.600,00 €",29-01-2019,01-03-2018,365 dias,"Portugal, Setúbal, Almada",Artigo 259.º do Código dos Contratos Públicos,,,,,,2335591,CP 2016/01 - Acordo Quadro para fornecimento de Medicamentos do Aparelho Cardiovascular   às Instituições e Serviços do Serviço Nacional de Saúde,FALSE
ETANERCEPT SERINGA 50 MG/1 ML SOL INJ  1 ML SC - CPA 2017/6,Ao abrigo de acordo-quadro (art.º 259.º),Aquisição de bens móveis,"33600000-6, Produtos farmacêuticos","Hospital Garcia de Orta, E. P. E. (506361470)","Pfizer Biofarmaceutica, Sociedade Unipessoal Lda. (513300376)","63.182,40 €",29-01-2019,24-01-2019,180 dias,"Portugal, Setúbal, Almada",Artigo 259.º do Código dos Contratos Públicos,,,,,,2969238,"CP 2017/6 - Acordo Quadro para fornecimento de Medicamentos do Foro Oncológico e Imunomoduladores, às Instituições e Serviços do Serviço Nacional de Saúde",FALSE
Aquisição de Ecógrafo para Anestesia - A.D. N.º 7400728,Ajuste Direto Regime Geral,Aquisição de bens móveis,"33112000-8, Equipamento de imagiologia por ecos, ultra-sons e doppler","Hospital Garcia de Orta, E.P.E. (506361470)",SIEMENS HEALTHCARE DIAGNOSTICS LDA (507925173),"17.790,00 €",27-01-2019,19-12-2018,30 dias,"Portugal, Setúbal, Almada","Artigo 20.º, n.º 1, alínea d) do Código dos Contratos Públicos",,,,,,Não aplicável.,Não aplicável.,FALSE
"PALIVIZUMAB 50 MG/0,5ML  SOL INJ FR IM",Ao abrigo de acordo-quadro (art.º 259.º),Aquisição de bens móveis,"33600000-6, Produtos farmacêuticos","Hospital Garcia de Orta, E. P. E. (506361470)","ABBVIE, LDA (510229050)","5.265,65 €",25-01-2019,24-01-2019,365 dias,"Portugal, Setúbal, Almada",Artigo 259.º do Código dos Contratos Públicos,,,,,,2969238,"CP 2017/6 - Acordo Quadro para fornecimento de Medicamentos do Foro Oncológico e Imunomoduladores, às Instituições e Serviços do Serviço Nacional de Saúde",FALSE
USTECINUMAB 90 MG/1 ML SOL INJ SER 1 ML SC,Ao abrigo de acordo-quadro (art.º 259.º),Aquisição de bens móveis,"33600000-6, Produtos farmacêuticos","Hospital Garcia de Orta, E. P. E. (506361470)","JANSSEN CILAG FARMACÊUTICA, LDA (500189412)","18.786,60 €",25-01-2019,24-01-2019,180 dias,"Portugal, Setúbal, Almada",Artigo 259.º do Código dos Contratos Públicos,,,,,,2556987,"CP 2017/65 - Acordo Quadro para fornecimento de Medicamentos de Várias áreas Terapêuticas, às Instituições e Serviços do Serviço Nacional de Saúde",FALSE
Contratação de Mão-de-Obra de Pedreiros e Serventes - C.Pr. N.º 0702118,Consulta Prévia,Empreitadas de obras públicas,"45200000-9, Obras de construção total ou parcial e de engenharia civil","Hospital Garcia de Orta, E.P.E. (506361470)",JOAQUIM M. M. COVA (202456501),"38.900,00 €",24-01-2019,14-12-2018,240 dias,"Portugal, Setúbal, Almada","Artigo 20.º, n.º 1, alínea c) do Código dos Contratos Públicos",,,,,,Não aplicável.,Não aplicável.,FALSE
Aquisição de Sistema Automático de Dispensa de Fármacos - A.D. N.º 7400277,Ajuste Direto Regime Geral,Aquisição de bens móveis,"33162100-4, Aparelhos para blocos operatórios","Hospital Garcia de Orta, E. P. E. (506361470)","BIQ - HEALTH SOLUTIONS, LDA. (504105337)","69.900,00 €",24-01-2019,21-11-2018,45 dias,"Portugal, Setúbal, Almada","Artigo 20.º, n.º 1, alínea a) do Código dos Contratos Públicos",,,,,,Não aplicável.,Não aplicável.,FALSE
Meios Diagnóstico para Imagiologia para 2018 - CPA 2015/56,Ao abrigo de acordo-quadro (art.º 259.º),Aquisição de bens móveis,"33000000-0, Equipamento médico, medicamentos e produtos para cuidados pessoais","Hospital Garcia de Orta, E. P. E. (506361470)","BAYER PORTUGAL, SA. (500043256)","179.530,45 €",24-01-2019,12-04-2018,365 dias,"Portugal, Setúbal, Almada",Artigo 259.º do Código dos Contratos Públicos,,,,,,1473614,CP 2015/56 - Acordo quadro para fornecimento de medicamentos usados como meios de diagnóstico em Imagiologia às Instituições e Serviços do Serviço Nacional de Saúde,FALSE
Meios Diagnóstico para Imagiologia para 2018 - CPA 2015/56,Ao abrigo de acordo-quadro (art.º 259.º),Aquisição de bens móveis,"33000000-0, Equipamento médico, medicamentos e produtos para cuidados pessoais","Hospital Garcia de Orta, E. P. E. (506361470)",GUERBET A MARTINS  FERNANDES S A (501172114),"162.375,00 €",24-01-2019,12-04-2018,365 dias,"Portugal, Setúbal, Almada",Artigo 259.º do Código dos Contratos Públicos,,,,,,1473614,CP 2015/56 - Acordo quadro para fornecimento de medicamentos usados como meios de diagnóstico em Imagiologia às Instituições e Serviços do Serviço Nacional de Saúde,FALSE
Medicamentos Diversos II para 2018 - CPA 2015/61,Ao abrigo de acordo-quadro (art.º 259.º),Aquisição de bens móveis,"33600000-6, Produtos farmacêuticos","Hospital Garcia de Orta, E. P. E. (506361470)","DAVI II FARMACÊUTICA, SA (508309450)","2.500,00 €",24-01-2019,27-02-2018,365 dias,"Portugal, Setúbal, Almada",Artigo 259.º do Código dos Contratos Públicos,,,,,,1513257,Acordo quadro para fornecimento de Medicamentos diversos II   às Instituições e Serviços do Serviço Nacional de Saúde,FALSE
Medicamentos Diversos II para 2018 - CPA 2015/61,Ao abrigo de acordo-quadro (art.º 259.º),Aquisição de bens móveis,"33600000-6, Produtos farmacêuticos","Hospital Garcia de Orta, E. P. E. (506361470)","ASTRAZENECA-PRODUTOS FARMACÊUTICOS,LDA. (502942240)","3.595,00 €",24-01-2019,27-02-2018,365 dias,"Portugal, Setúbal, Almada",Artigo 259.º do Código dos Contratos Públicos,,,,,,1513257,Acordo quadro para fornecimento de Medicamentos diversos II   às Instituições e Serviços do Serviço Nacional de Saúde,FALSE
Medicamentos Diversos II para 2018 - CPA 2015/61,Ao abrigo de acordo-quadro (art.º 259.º),Aquisição de bens móveis,"33600000-6, Produtos farmacêuticos","Hospital Garcia de Orta, E. P. E. (506361470)","TEVA PHARMA  - PROD. FARMACÊUTICOS, (507045491)","8.867,88 €",24-01-2019,27-02-2018,365 dias,"Portugal, Setúbal, Almada",Artigo 259.º do Código dos Contratos Públicos,,,,,,1513257,Acordo quadro para fornecimento de Medicamentos diversos II   às Instituições e Serviços do Serviço Nacional de Saúde,FALSE
Medicamentos Diversos II para 2018 - CPA 2015/61,Ao abrigo de acordo-quadro (art.º 259.º),Aquisição de bens móveis,"33600000-6, Produtos farmacêuticos","Hospital Garcia de Orta, E. P. E. (506361470)",msd (500191360),"555,00 €",24-01-2019,27-02-2018,365 dias,"Portugal, Setúbal, Almada",Artigo 259.º do Código dos Contratos Públicos,,,,,,1513257,Acordo quadro para fornecimento de Medicamentos diversos II   às Instituições e Serviços do Serviço Nacional de Saúde,FALSE
Medicamentos Diversos II para 2018 - CPA 2015/61,Ao abrigo de acordo-quadro (art.º 259.º),Aquisição de bens móveis,"33600000-6, Produtos farmacêuticos","Hospital Garcia de Orta, E. P. E. (506361470)",edol (507072642),"335,20 €",24-01-2019,27-02-2018,365 dias,"Portugal, Setúbal, Almada",Artigo 259.º do Código dos Contratos Públicos,,,,,,1513257,Acordo quadro para fornecimento de Medicamentos diversos II   às Instituições e Serviços do Serviço Nacional de Saúde,FALSE
Medicamentos Diversos II para 2018 - CPA 2015/61,Ao abrigo de acordo-quadro (art.º 259.º),Aquisição de bens móveis,"33600000-6, Produtos farmacêuticos","Hospital Garcia de Orta, E. P. E. (506361470)",glaxo (500139962),"185,77 €",24-01-2019,27-02-2018,365 dias,"Portugal, Setúbal, Almada",Artigo 259.º do Código dos Contratos Públicos,,,,,,1513257,Acordo quadro para fornecimento de Medicamentos diversos II   às Instituições e Serviços do Serviço Nacional de Saúde,FALSE
Medicamentos Diversos II para 2018 - CPA 2015/61,Ao abrigo de acordo-quadro (art.º 259.º),Aquisição de bens móveis,"33600000-6, Produtos farmacêuticos","Hospital Garcia de Orta, E. P. E. (506361470)","GENERIS FARMACEUTICA, SA (505625520)","3.945,42 €",24-01-2019,27-02-2018,365 dias,"Portugal, Setúbal, Almada",Artigo 259.º do Código dos Contratos Públicos,,,,,,1513257,Acordo quadro para fornecimento de Medicamentos diversos II   às Instituições e Serviços do Serviço Nacional de Saúde,FALSE
Prestação de Serviços de Manutenção Correctiva e Evolutiva dos Sistemas MAXPRO (Ano 2018) - N.º 8709878,Ao abrigo de acordo-quadro (art.º 259.º),Aquisição de serviços,"72267000-4, Serviços de manutenção e reparação de software","Hospital Garcia de Orta, E.P.E. (506361470)",SISQUAL (502772298),"21.488,69 €",23-01-2019,05-12-2018,365 dias,"Portugal, Setúbal, Almada",Artigo 259.º do Código dos Contratos Públicos,,,,,,2181407,"CELEBRAÇÃO DE ACORDO  QUADRO PARA A PRESTAÇÃO DE SERVIÇOS DE CONSULTADORIA, DESENVOLVIMENTO E MANUTENÇÃO DE SOFTWARE E GESTÃO OPERACIONAL DOS SISTEMAS E BASES DE DADOS   ",FALSE
Aquisição de 43 Módulos de 3 Cadeiras - A.D. N.º 7400718,Ajuste Direto Regime Geral,Aquisição de bens móveis,"39113000-7, Assentos e cadeiras diversos","Hospital Garcia de Orta, E. P. E. (506361470)",Movixira Mobiliário de Escritório (509116396),"9.460,00 €",23-01-2019,17-01-2019,60 dias,"Portugal, Setúbal, Almada","Artigo 20.º, n.º 1, alínea d) do Código dos Contratos Públicos",,,,,,Não aplicável.,Não aplicável.,FALSE
NATALIZUMAB 20MG/ML SOL.INJ. FR 15ML,Ao abrigo de acordo-quadro (art.º 259.º),Aquisição de bens móveis,"33600000-6, Produtos farmacêuticos","Hospital Garcia de Orta, E. P. E. (506361470)","BIOGEN PORTUGAL, LDA. (506415740)","36.120,00 €",23-01-2019,15-01-2019,60 dias,"Portugal, Setúbal, Almada",Artigo 259.º do Código dos Contratos Públicos,,,,,,2969238,"CP 2017/6 - Acordo Quadro para fornecimento de Medicamentos do Foro Oncológico e Imunomoduladores, às Instituições e Serviços do Serviço Nacional de Saúde",FALSE
SOMATROPINA 10 MG/2 ML SOL INJ CARTU 2 ML SC,Ao abrigo de acordo-quadro (art.º 259.º),Aquisição de bens móveis,"33600000-6, Produtos farmacêuticos","Hospital Garcia de Orta, E. P. E. (506361470)",Ipsen Portugal (502609800),"26.587,08 €",23-01-2019,15-01-2019,365 dias,"Portugal, Setúbal, Almada",Artigo 259.º do Código dos Contratos Públicos,,,,,,3379938,Hormonas e outros medicamentos usados no tratamento de doenças endócrinas,FALSE
SALBUTAMOL 100 ΜG/DOSE SUSP PRESSU INAL RECIP PRESSU 200 DOSE(S),Ao abrigo de acordo-quadro (art.º 259.º),Aquisição de bens móveis,"33600000-6, Produtos farmacêuticos","Hospital Garcia de Orta, E. P. E. (506361470)",GLAXOSMITHKLINE - PRODUTOS FARMACEUTICOS (500139962),"8.232,00 €",23-01-2019,15-01-2019,365 dias,"Portugal, Setúbal, Almada",Artigo 259.º do Código dos Contratos Públicos,,,,,,3583388,CP 2018/12,FALSE
SOMATROPINA 5.83 MG/ML SOL INJ CARTU 1.03 ML SC (SAIZEN),Ao abrigo de acordo-quadro (art.º 259.º),Aquisição de bens móveis,"33600000-6, Produtos farmacêuticos","Hospital Garcia de Orta, E. P. E. (506361470)",MERCK S.A. (500650870),"17.280,00 €",23-01-2019,14-01-2019,365 dias,"Portugal, Setúbal, Almada",Artigo 259.º do Código dos Contratos Públicos,,,,,,3379938,Hormonas e outros medicamentos usados no tratamento de doenças endócrinas,FALSE
EPOPROSTENOL 1.5 MG PÓ SOL INJ FR IV,Ao abrigo de acordo-quadro (art.º 259.º),Aquisição de bens móveis,"33600000-6, Produtos farmacêuticos","Hospital Garcia de Orta, E. P. E. (506361470)",Actelion Pharmaceuticals Portugal Lda (507336488),"24.516,80 €",23-01-2019,14-01-2019,30 dias,"Portugal, Setúbal, Almada",Artigo 259.º do Código dos Contratos Públicos,,,,,,3053200,"CP 2017/64 - Acordo Quadro para fornecimento de Medicamentos Diversos, às Instituições e Serviços do Serviço Nacional de Saúde",FALSE
ETRAVIRINA 200 MG COMP,Ao abrigo de acordo-quadro (art.º 259.º),Aquisição de bens móveis,"33600000-6, Produtos farmacêuticos","Hospital Garcia de Orta, E. P. E. (506361470)","JANSSEN CILAG FARMACÊUTICA, LDA (500189412)","38.535,24 €",23-01-2019,14-01-2019,365 dias,"Portugal, Setúbal, Almada",Artigo 259.º do Código dos Contratos Públicos,,,,,,2183729,Medicamentos antirretrovíricos para o tratamento da infeção por VIH,FALSE
FINGOLIMOD 0.5 MG CÁPS,Ao abrigo de acordo-quadro (art.º 259.º),Aquisição de bens móveis,"33600000-6, Produtos farmacêuticos","Hospital Garcia de Orta, E. P. E. (506361470)","Novartis Farma Produtos Farmacêuticos, SA (500063524)","40.918,37 €",23-01-2019,14-01-2019,30 dias,"Portugal, Setúbal, Almada",Artigo 259.º do Código dos Contratos Públicos,,,,,,2969238,"CP 2017/6 - Acordo Quadro para fornecimento de Medicamentos do Foro Oncológico e Imunomoduladores, às Instituições e Serviços do Serviço Nacional de Saúde",FALSE
ROPIVACAÍNA 2 MG/ML SOL INJ FR 100 ML EPIDURAL,Ao abrigo de acordo-quadro (art.º 259.º),Aquisição de bens móveis,"33600000-6, Produtos farmacêuticos","Hospital Garcia de Orta, E. P. E. (506361470)",FRESENIUS KABI PHARMA PORTUGAL LDA. (504293753),"5.000,00 €",23-01-2019,14-01-2019,365 dias,"Portugal, Setúbal, Almada",Artigo 259.º do Código dos Contratos Públicos,,,,,,2211341,Medicamentos anestésicos e relaxantes musculares,FALSE
FUMARATO DE DIMETILO 240 MG CÁPS GR,Ao abrigo de acordo-quadro (art.º 259.º),Aquisição de bens móveis,"33600000-6, Produtos farmacêuticos","Hospital Garcia de Orta, E. P. E. (506361470)","BIOGEN PORTUGAL, LDA. (506415740)","8.449,00 €",23-01-2019,14-01-2019,30 dias,"Portugal, Setúbal, Almada",Artigo 259.º do Código dos Contratos Públicos,,,,,,2545980,CP 2017/61 - Acordo quadro para fornecimento de Medicamentos Diversos   às Instituições e Serviços do Serviço Nacional de Saúde,FALSE
INFLIXIMAB 100 MG (BIOSSIMILAR) PÓ CONC SOL INJ FR IV,Ao abrigo de acordo-quadro (art.º 259.º),Aquisição de bens móveis,"33600000-6, Produtos farmacêuticos","Hospital Garcia de Orta, E. P. E. (506361470)","PHARMAKERN PORTUGAL, Produtos Farmacêuticos Soc. Unipessoal Lda (507002571)","42.900,00 €",23-01-2019,17-01-2019,30 dias,"Portugal, Setúbal, Almada",Artigo 259.º do Código dos Contratos Públicos,,,,,,2969238,"CP 2017/6 - Acordo Quadro para fornecimento de Medicamentos do Foro Oncológico e Imunomoduladores, às Instituições e Serviços do Serviço Nacional de Saúde",FALSE
ELECTRODO DE RETORNO DO PACIENTE,Ajuste Direto Regime Geral,Aquisição de bens móveis,"33000000-0, Equipamento médico, medicamentos e produtos para cuidados pessoais","Hospital Garcia de Orta, E. P. E. (506361470)",Abbott Medical Portugal (504180746),"5.562,50 €",23-01-2019,14-12-2018,30 dias,"Portugal, Setúbal, Almada","Artigo 20.º, n.º 1, alínea d) do Código dos Contratos Públicos",,,,,,Não aplicável.,Não aplicável.,FALSE
Prestação de Serviços Médicos no Serviço de VMER - A.D. N.º 8410178,Ajuste Direto Regime Geral,Aquisição de serviços,"85121200-5, Serviços de medicina especializada","Hospital Garcia de Orta, E. P. E. (506361470)",JOÃO PAULO MELO ALVES (231973365),"10.296,00 €",22-01-2019,13-12-2018,365 dias,"Portugal, Setúbal, Almada","Artigo 20.º, n.º 1, alínea d) do Código dos Contratos Públicos",,,,,,Não aplicável.,Não aplicável.,FALSE
Prestação de Serviços Médicos no Serviço de Neuropediatria - A.D. N.º 8407238,Ajuste Direto Regime Geral,Aquisição de serviços,"85121291-9, Serviços de pediatria","Hospital Garcia de Orta, E. P. E. (506361470)",CLARA VAZ MARECOS (222989157),"9.640,00 €",22-01-2019,14-11-2018,365 dias,"Portugal, Setúbal, Almada","Artigo 20.º, n.º 1, alínea d) do Código dos Contratos Públicos",,,,,,Não aplicável.,Não aplicável.,FALSE
Prestação de Serviços por Equipa Não Cirúrgica em Sala de Cirurgia de Ambulatório - C.P. N.º 8208568,Concurso público,Aquisição de serviços,"85100000-0, Serviços de saúde","Hospital Garcia de Orta, E. P. E. (506361470)",CLISA-CLINICA DE SANTO ANTÓNIO S.A. (500065080),"107.800,00 €",22-01-2019,07-11-2018,60 dias,Portugal,"Artigo 155.º, alínea a) do Código dos Contratos Públicos",,,,,,Não aplicável.,Não aplicável.,FALSE
Prestação de Serviços de Codificação de Processos de Internamento - A.D. N.º 8408158,Ajuste Direto Regime Geral,Aquisição de serviços,"85121240-7, Serviços de otorrinolaringologia ou audiologia","Hospital Garcia de Orta, E.P.E. (506361470)",RUDOLFO DE ALMEIDA MONTEMOR (208855327),"5.500,00 €",22-01-2019,19-12-2018,180 dias,"Portugal, Setúbal, Almada","Artigo 20.º, n.º 1, alínea d) do Código dos Contratos Públicos",,,,,,Não aplicável.,Não aplicável.,FALSE
TRASTUZUMAB 150 MG (BIOSSIMILAR) PÓ CONC SOL INJ FR IV - CPA 2018/55,Ao abrigo de acordo-quadro (art.º 259.º),Aquisição de bens móveis,"33600000-6, Produtos farmacêuticos","Hospital Garcia de Orta, E. P. E. (506361470)","AMGEN BIOFARMACÊUTICA, LDA. (502942959)","177.000,00 €",22-01-2019,17-01-2019,90 dias,"Portugal, Setúbal, Almada",Artigo 259.º do Código dos Contratos Públicos,,,,,,3430281,CP 2018/55,FALSE
ADALIMUMAB 40 MG SOL INJ CANETA  SC - CPA 2017/6,Ao abrigo de acordo-quadro (art.º 259.º),Aquisição de bens móveis,"33600000-6, Produtos farmacêuticos","Hospital Garcia de Orta, E. P. E. (506361470)","ABBVIE, LDA (510229050)","161.308,00 €",22-01-2019,17-01-2019,60 dias,"Portugal, Setúbal, Almada",Artigo 259.º do Código dos Contratos Públicos,,,,,,2969238,"CP 2017/6 - Acordo Quadro para fornecimento de Medicamentos do Foro Oncológico e Imunomoduladores, às Instituições e Serviços do Serviço Nacional de Saúde",FALSE
SECUCINUMAB 150 MG/1 ML SOL INJ CANETA 1 ML SC - CPA 2017/61,Ao abrigo de acordo-quadro (art.º 259.º),Aquisição de bens móveis,"33600000-6, Produtos farmacêuticos","Hospital Garcia de Orta, E. P. E. (506361470)","Novartis Farma Produtos Farmacêuticos, SA (500063524)","74.971,20 €",22-01-2019,17-01-2019,180 dias,"Portugal, Setúbal, Almada",Artigo 259.º do Código dos Contratos Públicos,,,,,,2545980,CP 2017/61 - Acordo quadro para fornecimento de Medicamentos Diversos   às Instituições e Serviços do Serviço Nacional de Saúde,FALSE
CATETER GUIA CORONÁRIOS (PTCA) 6F,Ajuste Direto Regime Geral,Aquisição de bens móveis,"33000000-0, Equipamento médico, medicamentos e produtos para cuidados pessoais","Hospital Garcia de Orta, E. P. E. (506361470)","Cardinal Health Portugal 513, Lda. (513620834)","6.960,00 €",21-01-2019,13-12-2018,30 dias,"Portugal, Setúbal, Almada","Artigo 20.º, n.º 1, alínea d) do Código dos Contratos Públicos",,,,,,Não aplicável.,Não aplicável.,FALSE
ELECTRODO DE RETORNO DO PACIENTE,Ajuste Direto Regime Geral,Aquisição de bens móveis,"33600000-6, Produtos farmacêuticos","Hospital Garcia de Orta, E. P. E. (506361470)","Abbott Medical (Portugal) - Distribuição de Produtos Médicos, Lda. (504180746)","5.562,50 €",21-01-2019,14-12-2018,30 dias,"Portugal, Setúbal, Almada","Artigo 20.º, n.º 1, alínea d) do Código dos Contratos Públicos",,,,,,Não aplicável.,Não aplicável.,FALSE
NILOTINIB 200 MG CÁPS - CPA 2017/6,Ao abrigo de acordo-quadro (art.º 259.º),Aquisição de bens móveis,"33600000-6, Produtos farmacêuticos","Hospital Garcia de Orta, E. P. E. (506361470)"," Novartis Farma Produtos Farmacêuticos, SA (500063524)","6.130,48 €",21-01-2019,09-01-2019,365 dias,"Portugal, Setúbal, Almada",Artigo 259.º do Código dos Contratos Públicos,,,,,,2969238,"CP 2017/6 - Acordo Quadro para fornecimento de Medicamentos do Foro Oncológico e Imunomoduladores, às Instituições e Serviços do Serviço Nacional de Saúde",FALSE
RUXOLITINIB 20 MG COMP - CPA 2017/6,Ao abrigo de acordo-quadro (art.º 259.º),Aquisição de bens móveis,"33600000-6, Produtos farmacêuticos","Hospital Garcia de Orta, E. P. E. (506361470)","Novartis Farma Produtos Farmacêuticos, SA (500063524)","179.785,72 €",21-01-2019,10-01-2019,365 dias,"Portugal, Setúbal, Almada",Artigo 259.º do Código dos Contratos Públicos,,,,,,2969238,"CP 2017/6 - Acordo Quadro para fornecimento de Medicamentos do Foro Oncológico e Imunomoduladores, às Instituições e Serviços do Serviço Nacional de Saúde",FALSE
BICALUTAMIDA 50 MG COMP,Ajuste Direto Regime Geral,Aquisição de bens móveis,"33600000-6, Produtos farmacêuticos","Hospital Garcia de Orta, E. P. E. (506361470)","PIERRE FABRE MEDIC.PORTUGAL,LD (500230366)","6.639,60 €",21-01-2019,08-01-2019,30 dias,"Portugal, Setúbal, Almada","Artigo 20.º, n.º 1, alínea d) do Código dos Contratos Públicos",,,,,,Não aplicável.,Não aplicável.,FALSE
SOMATROPINA 4 MG PÓ SOL INJ FR SC,Ajuste Direto Regime Geral,Aquisição de bens móveis,"33600000-6, Produtos farmacêuticos","Hospital Garcia de Orta, E. P. E. (506361470)","FERRING PORTUGUESA-PROD. FARMAC.SOC.UNIP.,LDA. (502034831)","6.720,00 €",21-01-2019,08-01-2019,365 dias,"Portugal, Setúbal, Almada","Artigo 24.º, n.º 1, alínea e), subalínea iii) do Código dos Contratos Públicos",,,,,,Não aplicável.,Não aplicável.,FALSE
Medicamentos das afeções Oculares e Otorrinolaringologia CPA 2015/49 - Para 2018,Ao abrigo de acordo-quadro (art.º 259.º),Aquisição de bens móveis,"33600000-6, Produtos farmacêuticos","Hospital Garcia de Orta, E. P. E. (506361470)","Tecnifar - Industria Técnica Farmacêutica, S.A.  (500280436)","57,90 €",21-01-2019,05-04-2018,365 dias,"Portugal, Setúbal, Almada",Artigo 259.º do Código dos Contratos Públicos,,,,,,1377420,Acordo quadro para fornecimento de medicamentos usados nas afecções oculares e otorrinolaringologias às instituições e serviços do serviço nacional de saúde,FALSE
Medicamentos das afeções Oculares e Otorrinolaringologia CPA 2015/49 - Para 2018,Ao abrigo de acordo-quadro (art.º 259.º),Aquisição de bens móveis,"33600000-6, Produtos farmacêuticos","Hospital Garcia de Orta, E. P. E. (506361470)","Novartis Farma Produtos Farmacêuticos, SA (500063524)","36,40 €",21-01-2019,05-04-2018,365 dias,"Portugal, Setúbal, Almada",Artigo 259.º do Código dos Contratos Públicos,,,,,,1377420,Acordo quadro para fornecimento de medicamentos usados nas afecções oculares e otorrinolaringologias às instituições e serviços do serviço nacional de saúde,FALSE
Medicamentos das afeções Oculares e Otorrinolaringologia CPA 2015/49 - Para 2018,Ao abrigo de acordo-quadro (art.º 259.º),Aquisição de bens móveis,"33600000-6, Produtos farmacêuticos","Hospital Garcia de Orta, E. P. E. (506361470)","GLAXO SMITHKLINE- PROD.FARMAC., LDA (500139962)","197,00 €",21-01-2019,05-04-2018,365 dias,"Portugal, Setúbal, Almada",Artigo 259.º do Código dos Contratos Públicos,,,,,,1377420,Acordo quadro para fornecimento de medicamentos usados nas afecções oculares e otorrinolaringologias às instituições e serviços do serviço nacional de saúde,FALSE
Medicamentos das afeções Oculares e Otorrinolaringologia CPA 2015/49 - Para 2018,Ao abrigo de acordo-quadro (art.º 259.º),Aquisição de bens móveis,"33600000-6, Produtos farmacêuticos","Hospital Garcia de Orta, E. P. E. (506361470)","DAVI II FARMACÊUTICA, SA (508309450)","11.248,00 €",21-01-2019,05-04-2018,365 dias,"Portugal, Setúbal, Almada",Artigo 259.º do Código dos Contratos Públicos,,,,,,1377420,Acordo quadro para fornecimento de medicamentos usados nas afecções oculares e otorrinolaringologias às instituições e serviços do serviço nacional de saúde,FALSE
Medicamentos das afeções Oculares e Otorrinolaringologia CPA 2015/49 - Para 2018,Ao abrigo de acordo-quadro (art.º 259.º),Aquisição de bens móveis,"33600000-6, Produtos farmacêuticos","Hospital Garcia de Orta, E. P. E. (506361470)",BAUSCH  LOMB (980218764),"7.490,00 €",21-01-2019,05-04-2018,365 dias,"Portugal, Setúbal, Almada",Artigo 259.º do Código dos Contratos Públicos,,,,,,1377420,Acordo quadro para fornecimento de medicamentos usados nas afecções oculares e otorrinolaringologias às instituições e serviços do serviço nacional de saúde,FALSE
Medicamentos das afeções Oculares e Otorrinolaringologia CPA 2015/49 - Para 2018,Ao abrigo de acordo-quadro (art.º 259.º),Aquisição de bens móveis,"33600000-6, Produtos farmacêuticos","Hospital Garcia de Orta, E. P. E. (506361470)",bayer portugal (500043256),"89.568,00 €",21-01-2019,05-04-2018,365 dias,"Portugal, Setúbal, Almada",Artigo 259.º do Código dos Contratos Públicos,,,,,,1377420,Acordo quadro para fornecimento de medicamentos usados nas afecções oculares e otorrinolaringologias às instituições e serviços do serviço nacional de saúde,FALSE
Medicamentos das afeções Oculares e Otorrinolaringologia CPA 2015/49 - Para 2018,Ao abrigo de acordo-quadro (art.º 259.º),Aquisição de bens móveis,"33600000-6, Produtos farmacêuticos","Hospital Garcia de Orta, E. P. E. (506361470)",LUSOMEDICAMENTA (507150473),"64,80 €",21-01-2019,05-04-2018,365 dias,"Portugal, Setúbal, Almada",Artigo 259.º do Código dos Contratos Públicos,,,,,,1377420,Acordo quadro para fornecimento de medicamentos usados nas afecções oculares e otorrinolaringologias às instituições e serviços do serviço nacional de saúde,FALSE
Medicamentos das afeções Oculares e Otorrinolaringologia CPA 2015/49 - Para 2018,Ao abrigo de acordo-quadro (art.º 259.º),Aquisição de bens móveis,"33600000-6, Produtos farmacêuticos","Hospital Garcia de Orta, E. P. E. (506361470)","LADORATORIO EDOL - PROD. FARMACÊUTICOS,S.A (507072642)","16.995,80 €",21-01-2019,05-04-2018,365 dias,"Portugal, Setúbal, Almada",Artigo 259.º do Código dos Contratos Públicos,,,,,,1377420,Acordo quadro para fornecimento de medicamentos usados nas afecções oculares e otorrinolaringologias às instituições e serviços do serviço nacional de saúde,FALSE
