Objeto do Contrato,Tipo de Procedimento,Tipo(s) de Contrato,CPVs,Entidade(s) Adjudicante(s),Entidade(s) Adjudicatária(s),Preço Contratual,Data de Publicação,Data de Celebração do Contrato,Prazo de Execução,Local de Execução,Fundamentação,Data de Fecho do Contrato,Preço Total Efetivo,Causas das Alterações ao Prazo,Causas das Alterações ao Preço,Estado,N.º registo do Acordo Quadro,Descrição do Acordo Quadro,Procedimento Centralizado
Fornecimento de válvulas bi.direcionais,Ao abrigo de acordo-quadro (art.º 258.º),Aquisição de bens móveis,"33000000-0, Equipamento médico, medicamentos e produtos para cuidados pessoais","Centro Hospitalar do Baixo Vouga, E.P.E (CHBV, E.P.E.) (510123210)","B. Braun Medical, Lda (501506543)","2.307,60 €",19-09-2013,30-08-2013,365 dias,"Portugal, Aveiro, Aveiro",Artigo 258.º do Código dos Contratos Públicos,"","",,"",,419168,CONCURSO PÚBLICO PARA A CELEBRAÇÃO DE CONTRATOS PÚBLICOS DE APROVISIONAMENTO PARA AQUISIÇÃO DE MATERIAL OSTOMIA DE ELIMINAÇÃO,
Execução de Trabalhos de Construção Civil/Requalificação de Espaço da Cirurgia de Ambulatório na Unidade de Águeda.,Ajuste Direto Regime Geral,Empreitadas de obras públicas,"45000000-7, Construção","Centro Hospitalar do Baixo Vouga, E.P.E. (510123210)",Sociedade de Construções Civis e Obras Públicas António Rodrigues Parente - SCARP S.A. (501475281),"19.918,00 €",19-09-2013,02-08-2013,25 dias,"Portugal, Aveiro, Águeda","Artigo 19.º, alínea a) do Código dos Contratos Públicos","","19.918,00 €",,"",,Não aplicável.,Não aplicável.,
Fornecimento e Instalação de um Tonómetro de Ar,Ajuste Direto Regime Geral,Aquisição de bens móveis,"33000000-0, Equipamento médico, medicamentos e produtos para cuidados pessoais","Centro Hospitalar do Baixo Vouga, E.P.E (CHBV, E.P.E.) (510123210)","António Moutinho e Companhia, Lda (500025550)","21.600,00 €",19-09-2013,20-08-2013,30 dias,"Portugal, Aveiro, Aveiro","Artigo 20.º, n.º 1, alínea a) do Código dos Contratos Públicos",20-09-2013,"21.600,00 €",,"",,Não aplicável.,Não aplicável.,
Fornecimento de Válvulas Bi-direcionais,Ao abrigo de acordo-quadro (art.º 258.º),Aquisição de bens móveis,"33000000-0, Equipamento médico, medicamentos e produtos para cuidados pessoais","Centro Hospitalar do Baixo Vouga, E.P.E (CHBV, E.P.E.) (510123210)","Vygon Portugal - Produtos médicos e farmacêuticos, Lda. (503232785)","68.700,00 €",19-09-2013,13-05-2013,1096 dias,"Portugal, Aveiro, Aveiro",Artigo 258.º do Código dos Contratos Públicos,"","",,"",,412727,CONCURSO PÚBLICO PARA A CELEBRAÇÃO DE CONTRATOS PÚBLICOS DE APROVISIONAMENTO PARA AQUISIÇÃO DE MATERIAL CATETERES,
FORNECIMENTO DE TUBOS PARA SISTEMA FECHADO DE COLHEITA DE SANGUE POR ASPIRAÇÃO,Ao abrigo de acordo-quadro (art.º 258.º),Aquisição de bens móveis,"33000000-0, Equipamento médico, medicamentos e produtos para cuidados pessoais","Centro Hospitalar do Baixo Vouga, E.P.E (CHBV, E.P.E.) (510123210)","Sarstedt, Lda (503019461)","41.797,10 €",18-09-2013,01-07-2013,365 dias,"Portugal, Aveiro, Aveiro",Artigo 258.º do Código dos Contratos Públicos,29-07-2014,"40.719,60 €",,Quantidades adquiridas inferiores às estimadas,,448705,"CONCURSO PÚBLICO PARA A CELEBRAÇÃO DE CONTRATOS PÚBLICOS DE APROVISIONAMENTO PARA A ÁREA DA SAÚDE, COM VISTA AO FORNECIMENTO DE SERINGAS, AGULHAS, CONTENTORES E SISTEMAS FECHADOS DE COLHEITA,  ÀS INSTITUIÇÕES E SERVIÇOS DO SERVIÇO NACIONAL DE SAÚDE",
