Objeto do Contrato,Tipo de Procedimento,Tipo(s) de Contrato,CPVs,Entidade(s) Adjudicante(s),Entidade(s) Adjudicatária(s),Preço Contratual,Data de Publicação,Data de Celebração do Contrato,Prazo de Execução,Local de Execução,Fundamentação,Data de Fecho do Contrato,Preço Total Efetivo,Causas das Alterações ao Prazo,Causas das Alterações ao Preço,Estado,N.º registo do Acordo Quadro,Descrição do Acordo Quadro,Procedimento Centralizado
Proc. n.º 16800190. ACES Baixo Vouga - CRI de Aveiro - Equipa de tratamento - Empreitada de reabilitação das instalações elétricas,Ajuste Direto Regime Geral,Empreitadas de obras públicas,"45000000-7, Construção","Administração Regional de Saúde do Centro, I. P. (503122165)","Manuel Borges & Filhos, Lda (501146830)","11.256,60 €",20-05-2016,28-04-2016,7 dias,"Portugal, Aveiro, Aveiro","Artigo 19.º, alínea a) do Código dos Contratos Públicos",,"11.256,60 €",Não houve,Não houve,,Não aplicável.,Não aplicável.,FALSE
Proc. n.º 16800068[15800571] - ACES Baixo Mondego - Unidade de Saúde Familiar Cruz de Celas Bloco C - Empreitada para remodelação da rede de esgotos pluviais exteriores,Ajuste Direto Regime Geral,Empreitadas de obras públicas,"45000000-7, Construção","Administração Regional de Saúde do Centro, I. P. (503122165)","Renovalar - Renovação e Manutenção Imobiliário Unipessoal, Lda (503634190)","1.800,01 €",20-05-2016,08-01-2016,20 dias,"Portugal, Coimbra, Coimbra","Artigo 19.º, alínea a) do Código dos Contratos Públicos",,"1.800,01 €",Não Houve,Não Houve,,Não aplicável.,Não aplicável.,FALSE
Proc. n.º 16810102[15810320]. Empreitada de obras de adaptação da UCC Laços de Mar e Ria instalada no Centro de Saúde de Ílhavo,Ajuste Direto Regime Geral,Empreitadas de obras públicas,"45000000-7, Construção","Administração Regional de Saúde do Centro, I. P. (503122165)",F. G. Silva (504151231),"21.109,81 €",17-05-2016,11-12-2015,60 dias,"Portugal, Aveiro, Aveiro","Artigo 19.º, alínea a) do Código dos Contratos Públicos",,"21.109,81 €",Não houve,Não houve,,Não aplicável.,Não aplicável.,FALSE
"Proc. n.º 16800258. Obras nas instalações da Av. Heróis de Angola, n.º 58, 2.º e 3.º andar - ACES PL",Ajuste Direto Regime Geral,Empreitadas de obras públicas,"45000000-7, Construção","Administração Regional de Saúde do Centro, I. P. (503122165)","Rosário & Cunha Sociedade de Construção Civil, Lda (502609893)","9.830,25 €",13-05-2016,04-04-2016,30 dias,"Portugal, Leiria, Leiria","Artigo 19.º, alínea a) do Código dos Contratos Públicos",,"9.830,25 €",Não Houve,Não Houve,,Não aplicável.,Não aplicável.,FALSE
