Objeto do Contrato,Tipo de Procedimento,Tipo(s) de Contrato,CPVs,Entidade(s) Adjudicante(s),Entidade(s) Adjudicatária(s),Preço Contratual,Data de Publicação,Data de Celebração do Contrato,Prazo de Execução,Local de Execução,Fundamentação,Data de Fecho do Contrato,Preço Total Efetivo,Causas das Alterações ao Prazo,Causas das Alterações ao Preço,Estado,N.º registo do Acordo Quadro,Descrição do Acordo Quadro,Procedimento Centralizado
P259-2018-94 - Aquisição da vacina V7 - vacina contra sarampo parati e rub (VASPR)[UDOSE] para as Instituições do SNS,Ao abrigo de acordo-quadro (art.º 259.º),Aquisição de bens móveis,"33650000-1, Anti-infecciosos gerais de uso sistémico, vacinas, antineoplásicos e imunomoduladores","Administração Regional de Saúde do Norte, I. P. (503135593)",msd (500191360),"273.105,00 €",10-12-2018,08-08-2018,143 dias,"Portugal<BR/>Portugal, Vila Real, Vila Real<BR/>Portugal, Distrito não determinado, Concelho não determinado<BR/>Portugal, Porto, Maia",Artigo 259.º do Código dos Contratos Públicos,"","",,"",,1923518,CP 2016/13 - Acordo Quadro para fornecimento de Vacinas e Tuberculinas   às Instituições e Serviços do Serviço Nacional de Saúde,TRUE
"Procedimento nº48/2018/CTPP/DICAD/ARSN - Aquisição de serviços de assistente técnica na área psicossocial para Comunidade Terapêutica Ponte da Pedra adstrita ao DICAD da ARSN, I.P. - Ana Sofia",Ajuste Direto Regime Geral,Aquisição de serviços,"85321000-5, Serviços sociais administrativos","Administração Regional de Saúde do Norte,IP (ARSN) (503135593)",Ana Sofia Afonso Jesus (253498139),"5.411,51 €",07-12-2018,20-09-2018,102 dias,"Portugal, Porto, Matosinhos","Artigo 20.º, n.º 1, alínea d) do Código dos Contratos Públicos",31-12-2018,"3.364,40 €",,Numero de horas realizadas inferiores ao numero de horas contratadas,,Não aplicável.,Não aplicável.,FALSE
"Procedimento nº46/2018/CTPP/DICAD/ARSN - Aquisição de serviços de assistente técnica na área psicossocial para Comunidade Terapêutica Ponte da Pedra adstrita ao DICAD da ARSN, I.P..",Ajuste Direto Regime Geral,Aquisição de serviços,"85321000-5, Serviços sociais administrativos","Administração Regional de Saúde do Norte, I. P. (503135593)",Joana de Sousa Teixeira (253094372),"5.411,51 €",07-12-2018,21-09-2018,103 dias,"Portugal, Porto, Matosinhos","Artigo 20.º, n.º 1, alínea d) do Código dos Contratos Públicos",31-12-2018,"3.299,70 €",,Numero de horas realizadas inferiores ao numero de horas contratadas,,Não aplicável.,Não aplicável.,FALSE
Aquisição Dispositivos Médicos - APROV-PRT 18002307 (AP1940),Ao abrigo de acordo-quadro (art.º 259.º),Aquisição de bens móveis,"33600000-6, Produtos farmacêuticos","Administração Regional de Saúde do Norte, I. P. (503135593)",BramédicaFisio (508560152),"9,26 €",07-12-2018,06-12-2018,25 dias,"Portugal, Aveiro, Santa Maria da Feira",Artigo 259.º do Código dos Contratos Públicos,31-12-2018,"9,26 €",,"",,1587913,Acordo Quadro para fornecimento de Equipamentos e Dispositivos Médicos de uso comum em internamento e ambulatório - Parte I às instituições e serviços do Serviço Nacional de Saúde.,FALSE
Aquisição Dispositivos Médicos - APROV-PRT 18002307 (AP1940),Ao abrigo de acordo-quadro (art.º 259.º),Aquisição de bens móveis,"33600000-6, Produtos farmacêuticos","Administração Regional de Saúde do Norte, I. P. (503135593)","Cenatolim, Lda (507397924)","62,70 €",07-12-2018,06-12-2018,25 dias,"Portugal, Aveiro, Santa Maria da Feira",Artigo 259.º do Código dos Contratos Públicos,06-12-2018,"62,70 €",,"",,1587913,Acordo Quadro para fornecimento de Equipamentos e Dispositivos Médicos de uso comum em internamento e ambulatório - Parte I às instituições e serviços do Serviço Nacional de Saúde.,FALSE
Aquisição Dispositivos Médicos - APROV-PRT 18002307 (AP1940),Ao abrigo de acordo-quadro (art.º 259.º),Aquisição de bens móveis,"33600000-6, Produtos farmacêuticos","Administração Regional de Saúde do Norte, I. P. (503135593)",Bastos Viegas (511135610),"100,55 €",07-12-2018,06-12-2018,25 dias,"Portugal, Aveiro, Santa Maria da Feira",Artigo 259.º do Código dos Contratos Públicos,21-12-2018,"100,55 €",,"",,1587913,Acordo Quadro para fornecimento de Equipamentos e Dispositivos Médicos de uso comum em internamento e ambulatório - Parte I às instituições e serviços do Serviço Nacional de Saúde.,FALSE
Aquisição Dispositivos Médicos - APROV-PRT 18002307 (AP1940),Ao abrigo de acordo-quadro (art.º 259.º),Aquisição de bens móveis,"33600000-6, Produtos farmacêuticos","Administração Regional de Saúde do Norte, I. P. (503135593)",EPJ Medica (506820513),"46,88 €",07-12-2018,06-12-2018,25 dias,"Portugal, Aveiro, Santa Maria da Feira",Artigo 259.º do Código dos Contratos Públicos,31-12-2018,"46,88 €",,"",,1587913,Acordo Quadro para fornecimento de Equipamentos e Dispositivos Médicos de uso comum em internamento e ambulatório - Parte I às instituições e serviços do Serviço Nacional de Saúde.,FALSE
Aquisição Dispositivos Médicos - APROV-PRT 18002307 (AP1940),Ao abrigo de acordo-quadro (art.º 259.º),Aquisição de bens móveis,"33600000-6, Produtos farmacêuticos","Administração Regional de Saúde do Norte, I. P. (503135593)","Bacelar & Irmão, Lda (500532818)","163,53 €",07-12-2018,06-12-2018,25 dias,"Portugal, Aveiro, Santa Maria da Feira",Artigo 259.º do Código dos Contratos Públicos,07-12-2018,"163,53 €",,"",,1587913,Acordo Quadro para fornecimento de Equipamentos e Dispositivos Médicos de uso comum em internamento e ambulatório - Parte I às instituições e serviços do Serviço Nacional de Saúde.,FALSE
Fornecimento e execução de sistema de desenfumagem integrado na USF Nuno Grande,Consulta Prévia,Empreitadas de obras públicas,"45343000-3, Instalação de equipamento para prevenção de incêndios","Administração Regional de Saúde do Norte,IP (ARSN) (503135593)","Teisil - Empresa de Construções, Lda (501867180)","29.505,00 €",05-12-2018,05-11-2018,45 dias,"Portugal, Vila Real, Vila Real<BR/>Portugal","Artigo 19.º, alínea c) do Código dos Contratos Públicos","","",,"",,Não aplicável.,Não aplicável.,FALSE
SINALÉTICA INTERIOR DA USF JOANE - Auditória Externa para Acreditação,Consulta Prévia,Aquisição de serviços,"50000000-5, Serviços de reparação e manutenção","Administração Regional de Saúde do Norte, I. P. (503135593)","Bracril - Reclamos Luminosos, Lda. (502572469)","4.991,20 €",05-12-2018,22-06-2018,30 dias,"Portugal, Braga, Vila Nova de Famalicão","Artigo 20.º, n.º 1, alínea c) do Código dos Contratos Públicos","","",,"",,Não aplicável.,Não aplicável.,FALSE
Fornecimento e colocação de bancada hospitalar na USF Régua,Consulta Prévia,Aquisição de serviços,"50000000-5, Serviços de reparação e manutenção","Administração Regional de Saúde do Norte, I. P. (503135593)",Bacelar & Irmão (500532818),"5.239,20 €",05-12-2018,13-11-2018,15 dias,"Portugal, Vila Real, Peso da Régua","Artigo 20.º, n.º 1, alínea c) do Código dos Contratos Públicos","","",,"",,Não aplicável.,Não aplicável.,FALSE
AP 2207 Aquisição  1.200 unidades Polielectrolítico + Glucose 50 mg/ml Sol inj 500 ml IV; 1.500 unidades Polielectrolítico Sol inj 500 ml IV,Ao abrigo de acordo-quadro (art.º 259.º),Aquisição de bens móveis,"33600000-6, Produtos farmacêuticos","Administração Regional de Saúde do Norte, I. P. (503135593)","LABESFAL - LABORATÓRIOS ALMIRO, S.A.  (501169580)","2.437,50 €",05-12-2018,05-12-2018,25 dias,"Portugal, Vila Real, Vila Real<BR/>Portugal, Porto, Maia",Artigo 259.º do Código dos Contratos Públicos,07-12-2018,"2.437,50 €",,"",,2528675,CP 2017/3 - Acordo Quadro para fornecimento de corretivos da volémia e outras soluções estéreis,FALSE
AP 140 - Aquisição de material de penso de efeito terapêutico,Concurso público,Aquisição de bens móveis,"33141100-1, Pensos; clipes, suturas, ligaduras","Administração Regional de Saúde do Norte, I. P. (503135593)","LABORATÓRIOS URGO, S.L.U. (83608604)","45.000,00 €",05-12-2018,05-12-2018,25 dias,"Portugal, Porto, Maia<BR/>Portugal, Vila Real, Vila Real","Artigo 20.º, n.º 1, alínea a) do Código dos Contratos Públicos",07-12-2018,"45.000,00 €",,"",,Não aplicável.,Não aplicável.,FALSE
AP 140 - Aquisição de material de penso de efeito terapêutico,Concurso público,Aquisição de bens móveis,"33141100-1, Pensos; clipes, suturas, ligaduras","Administração Regional de Saúde do Norte, I. P. (503135593)","MEDICINÁLIA CORMÉDICA, LDA (500684324)","21.780,00 €",05-12-2018,05-12-2018,25 dias,"Portugal, Vila Real, Vila Real<BR/>Portugal, Porto, Maia","Artigo 20.º, n.º 1, alínea a) do Código dos Contratos Públicos",11-12-2018,"21.780,00 €",,"",,Não aplicável.,Não aplicável.,FALSE
AP 140 - Aquisição de material de penso de efeito terapêutico,Concurso público,Aquisição de bens móveis,"33141100-1, Pensos; clipes, suturas, ligaduras","Administração Regional de Saúde do Norte, I. P. (503135593)",MOLNLYCKE HEALTH CARE (511101066),"117.049,92 €",05-12-2018,05-12-2018,25 dias,"Portugal, Vila Real, Vila Real<BR/>Portugal, Porto, Maia","Artigo 20.º, n.º 1, alínea a) do Código dos Contratos Públicos",12-12-2018,"117.049,92 €",,"",,Não aplicável.,Não aplicável.,FALSE
AP 140 - Aquisição de material de penso de efeito terapêutico,Concurso público,Aquisição de bens móveis,"33141100-1, Pensos; clipes, suturas, ligaduras","Administração Regional de Saúde do Norte, I. P. (503135593)","QUEENLABS - ESPECIALIDADES, LDA (503984485)","7.840,00 €",05-12-2018,05-12-2018,25 dias,"Portugal, Vila Real, Vila Real<BR/>Portugal, Porto, Maia","Artigo 20.º, n.º 1, alínea a) do Código dos Contratos Públicos",05-12-2018,"7.840,00 €",,"",,Não aplicável.,Não aplicável.,FALSE
APROV-VR- 18002381/18002382 - AP 1947 - aquisição de Bocal de cartão; copo para nebulizador e sacos de domicílios grandes e médios,Consulta Prévia,Aquisição de bens móveis,"33140000-3, Material médico de consumo","Administração Regional de Saúde do Norte, I. P. (503135593)","Feiramédica. Imp. com Equipa, Hospitalar, Lda (503731900)","1.330,75 €",04-12-2018,04-12-2018,25 dias,"Portugal, Vila Real, Vila Real","Artigo 20.º, n.º 1, alínea c) do Código dos Contratos Públicos","","",,"",,Não aplicável.,Não aplicável.,FALSE
APROV-VR- 18002381/18002382 - AP 1947 - aquisição de Bocal de cartão; copo para nebulizador e sacos de domicílios grandes e médios,Consulta Prévia,Aquisição de bens móveis,"33140000-3, Material médico de consumo","Administração Regional de Saúde do Norte, I. P. (503135593)","Eugenio Pereira, Lda (503989525)","150,00 €",04-12-2018,04-12-2018,25 dias,"Portugal, Vila Real, Vila Real","Artigo 20.º, n.º 1, alínea c) do Código dos Contratos Públicos",07-12-2018,"150,00 €",,"",,Não aplicável.,Não aplicável.,FALSE
AP 2096 Aquisição 600 unidades Capa Folder (Excl. ARS Norte); 150.000 unidades Envelope D/L (220mmX110mm) economato g. c/janela,Ajuste Direto Regime Geral,Aquisição de bens móveis,"18923100-6, Bolsas","Administração Regional de Saúde do Norte, I. P. (503135593)",PAPELMUNDE SOC MAT GRAFICO LD                           (501555315),"5.280,00 €",03-12-2018,03-12-2018,27 dias,"Portugal, Vila Real, Vila Real<BR/>Portugal, Porto, Maia","Artigo 20.º, n.º 1, alínea d) do Código dos Contratos Públicos","","",,"",,Não aplicável.,Não aplicável.,FALSE
Reparação e manutenção de equipamento mecânico no CS Vizela,Ajuste Direto Regime Geral,Aquisição de serviços,"50712000-9, Serviços de reparação e manutenção de equipamento mecânico em edifícios","Administração Regional de Saúde do Norte,IP (ARSN) (503135593)","Vento Lírico - Unipessoal, Lda  (509875289)","9.980,00 €",03-12-2018,29-11-2018,30 dias,"Portugal, Braga, Vizela","Artigo 20.º, n.º 1, alínea d) do Código dos Contratos Públicos","","",,"",,Não aplicável.,Não aplicável.,FALSE
"Trabalhos diversos a realizar na USF de Ruães, nomeadamente: Fornecimento e aplicação de 2 vigas metálicas de reforço da laje de teto da sala de espera; inversão do sentido de abertura da porta da sala de tratamentos; Fornecimento e aplicação de 3 luminárias.",Ajuste Direto Regime Geral,Empreitadas de obras públicas,"45259900-6, Modernização de instalações","Administração Regional de Saúde do Norte, I. P. (503135593)","Tecnocampo, Sociedade de Construções e Obras públicas, S.A. (504105655)","1.885,80 €",03-12-2018,11-06-2018,30 dias,"Portugal, Braga, Braga","Artigo 19.º, alínea d) do Código dos Contratos Públicos",19-11-2018,"1.885,80 €",,"",,Não aplicável.,Não aplicável.,FALSE
