Objeto do Contrato,Tipo de Procedimento,Tipo(s) de Contrato,CPVs,Entidade(s) Adjudicante(s),Entidade(s) Adjudicatária(s),Preço Contratual,Data de Publicação,Data de Celebração do Contrato,Prazo de Execução,Local de Execução,Fundamentação,Data de Fecho do Contrato,Preço Total Efetivo,Causas das Alterações ao Prazo,Causas das Alterações ao Preço,Estado,N.º registo do Acordo Quadro,Descrição do Acordo Quadro,Procedimento Centralizado
Medicamentos Exclusivos Ferring,Ajuste Direto Regime Geral,Aquisição de bens móveis,"33690000-3, Medicamentos vários","Centro Hospitalar do Baixo Vouga, E.P.E. (510123210)","FERRING-PROD.FARMAC.UNIP,LDA (502034831)","65.830,50 €",26-01-2016,26-11-2015,1095 dias,"Portugal, Aveiro","Artigo 24.º, n.º 1, alínea e) do Código dos Contratos Públicos",,,,,,Não aplicável.,Não aplicável.,FALSE
Medicamentos Exclusivos Overpharma,Ajuste Direto Regime Geral,Aquisição de bens móveis,"33690000-3, Medicamentos vários","Centro Hospitalar do Baixo Vouga, E.P.E. (510123210)","OVERPHARMA - PROD. MED. FARMACÊUTICOS, LDA (505792362)","53.928,00 €",22-01-2016,26-11-2015,1095 dias,"Portugal, Aveiro","Artigo 24.º, n.º 1, alínea e) do Código dos Contratos Públicos",,,,,,Não aplicável.,Não aplicável.,FALSE
