Objeto do Contrato,Tipo de Procedimento,Tipo(s) de Contrato,CPVs,Entidade(s) Adjudicante(s),Entidade(s) Adjudicatária(s),Preço Contratual,Data de Publicação,Data de Celebração do Contrato,Prazo de Execução,Local de Execução,Fundamentação,Data de Fecho do Contrato,Preço Total Efetivo,Causas das Alterações ao Prazo,Causas das Alterações ao Preço,Estado,N.º registo do Acordo Quadro,Descrição do Acordo Quadro,Procedimento Centralizado
Prestação de serviços de consultoria clínica em medicina dentária,Ajuste Direto Regime Geral,Aquisição de serviços,"79000000-4, Serviços a empresas: direito, comercialização, consultoria, recrutamento, impressão e segurança",Entidade Reguladora da Saúde (507021266),Pedro Miguel da Costa Azevedo Almeida (209854057),"20,00 €",25-07-2014,02-06-2014,365 dias,"Portugal, Porto, Porto","Artigo 20.º, n.º 1, alínea a) do Código dos Contratos Públicos",,,,,,Não aplicável.,Não aplicável.,FALSE
Prestação de serviços de consultoria clínica na área da medicina de saúde familiar.,Ajuste Direto Regime Geral,Aquisição de serviços,"79000000-4, Serviços a empresas: direito, comercialização, consultoria, recrutamento, impressão e segurança",Entidade Reguladora da Saúde (507021266),"Stomachion, Lda (508994977)","25,00 €",25-07-2014,02-06-2014,365 dias,"Portugal, Porto, Porto","Artigo 20.º, n.º 1, alínea a) do Código dos Contratos Públicos",,,,,,Não aplicável.,Não aplicável.,FALSE
" Prestação de serviços de consultoria clínica em medicina de saúde familiar, inscrito na respetiva ordem profissional",Ajuste Direto Regime Geral,Aquisição de serviços,"79000000-4, Serviços a empresas: direito, comercialização, consultoria, recrutamento, impressão e segurança",Entidade Reguladora da Saúde (507021266),José Luís da Costa Brandão (200994166),"25,00 €",25-07-2014,16-06-2014,365 dias,"Portugal, Porto, Porto","Artigo 20.º, n.º 1, alínea a) do Código dos Contratos Públicos",,,,,,Não aplicável.,Não aplicável.,FALSE
Prestação de serviços de consultoria clínica em medicina dentária.,Ajuste Direto Regime Geral,Aquisição de serviços,"79000000-4, Serviços a empresas: direito, comercialização, consultoria, recrutamento, impressão e segurança",Entidade Reguladora da Saúde (507021266),Ana Catarina Nogueira da Silva (233429824),"20,00 €",25-07-2014,02-06-2014,365 dias,"Portugal, Porto, Porto","Artigo 20.º, n.º 1, alínea a) do Código dos Contratos Públicos",,,,,,Não aplicável.,Não aplicável.,FALSE
"Aquisição de serviços para a  fiscalização, vistorias, monitorização e avaliações periódicas a estabelecimentos onde são prestados cuidados de saúde.",Ajuste Direto Regime Geral,Aquisição de serviços,"79000000-4, Serviços a empresas: direito, comercialização, consultoria, recrutamento, impressão e segurança",Entidade Reguladora da Saúde (507021266),Serviço de Utilização Comum dos Hospitais - SUCH (500900469),"19,00 €",25-07-2014,18-07-2014,365 dias,"Portugal, Porto, Porto","Artigo 20.º, n.º 1, alínea a) do Código dos Contratos Públicos",,,,,,Não aplicável.,Não aplicável.,FALSE
Aquisição de serviços de suporte de apoio técnico e manutenção ao ERP Primavera.,Ajuste Direto Regime Geral,Aquisição de serviços,"72000000-5, Serviços de TI: consultoria, desenvolvimento de software, Internet e apoio",Entidade Reguladora da Saúde (507021266),"PRIPT - Business Software Solutions , La. (507661800)","14.395,26 €",25-07-2014,15-07-2014,365 dias,"Portugal, Porto, Porto","Artigo 20.º, n.º 1, alínea a) do Código dos Contratos Públicos",,,,,,Não aplicável.,Não aplicável.,FALSE
"Aquisição de serviços informáticos para realização dos desenvolvimentos necessários à adequação do SRER e SGREC às novas necessidades, decorrentes da lei-quadro das entidades reguladoras (Lei n.º 67/2013, de 28 de agosto) e do projeto de alteração dos estatutos da ERS, amadurecimento da solução em termos de uso e informação, e integração com demais sistemas de informação existentes na ERS.",Ajuste Direto Regime Geral,Aquisição de serviços,"72000000-5, Serviços de TI: consultoria, desenvolvimento de software, Internet e apoio",Entidade Reguladora da Saúde (507021266),"Strix, Lda. (505793644)","66.000,00 €",25-07-2014,18-06-2014,197 dias,"Portugal, Porto, Porto","Artigo 20.º, n.º 1, alínea a) do Código dos Contratos Públicos",,,,,,Não aplicável.,Não aplicável.,FALSE
Aquisição de serviços de atendimento telefónico e presencial de apoio ao processo de licenciamento dos estabelecimentos prestadores de cuidados de saúde,Ajuste Direto Regime Geral,Aquisição de serviços,"65000000-3, Serviços públicos",Entidade Reguladora da Saúde (507021266),André Quintino dos Santos Mota (217790461),"9.960,00 €",25-07-2014,15-07-2014,365 dias,"Portugal, Porto, Porto","Artigo 20.º, n.º 1, alínea a) do Código dos Contratos Públicos",,,,,,Não aplicável.,Não aplicável.,FALSE
Prestação de serviços para atendimento telefónico e presencial de apoio ao processo de licenciamento dos estabelecimentos prestadores de cuidados de saúde,Ajuste Direto Regime Geral,Aquisição de serviços,"65000000-3, Serviços públicos",Entidade Reguladora da Saúde (507021266),Neuza Filipa da Silva Ribeiro (237186322),"9.960,00 €",25-07-2014,15-07-2014,365 dias,"Portugal, Porto, Porto","Artigo 20.º, n.º 1, alínea a) do Código dos Contratos Públicos",,,,,,Não aplicável.,Não aplicável.,FALSE
"Aquisição de serviços para a realização de melhorias, manutenção preventiva e corretiva na rede informática",Ajuste Direto Regime Geral,Aquisição de serviços,"50000000-5, Serviços de reparação e manutenção",Entidade Reguladora da Saúde (507021266),"Silverwizard, Lda. (510733140)","40.000,00 €",23-07-2014,16-07-2014,365 dias,"Portugal, Porto, Porto","Artigo 20.º, n.º 1, alínea a) do Código dos Contratos Públicos",,,,,,Não aplicável.,Não aplicável.,FALSE
