Objeto do Contrato,Tipo de Procedimento,Tipo(s) de Contrato,CPVs,Entidade(s) Adjudicante(s),Entidade(s) Adjudicatária(s),Preço Contratual,Data de Publicação,Data de Celebração do Contrato,Prazo de Execução,Local de Execução,Fundamentação,Data de Fecho do Contrato,Preço Total Efetivo,Causas das Alterações ao Prazo,Causas das Alterações ao Preço,Estado,N.º registo do Acordo Quadro,Descrição do Acordo Quadro,Procedimento Centralizado
Aquisição de Reagentes para o Serviço de Patologia Clinica-setor de Microbiologia,Ajuste Direto Regime Geral,Aquisição de bens móveis,"33000000-0, Equipamento médico, medicamentos e produtos para cuidados pessoais","Instituto Português de Oncologia de Coimbra Francisco Gentil, E. P. E. (506361438)",VWR INTERNACIONAL - MAT. DE LABORATORIO (503842770),"66,70 €",10-04-2015,16-01-2015,365 dias,"Portugal, Coimbra, Coimbra","Artigo 26.º, n.º 1, alínea a) do Código dos Contratos Públicos",10-12-2015,"170,65 €",,"aumento das quantidades previstas, consumidas em virtude do número de doentes",,Não aplicável.,Não aplicável.,FALSE
Aquisição de Reagentes para o Serviço de Patologia Clinica-setor de Microbiologia,Ajuste Direto Regime Geral,Aquisição de bens móveis,"33000000-0, Equipamento médico, medicamentos e produtos para cuidados pessoais","Instituto Português de Oncologia de Coimbra Francisco Gentil, E. P. E. (506361438)","ISODER, S.A. (502241594)","580,00 €",10-04-2015,16-01-2015,365 dias,"Portugal, Coimbra, Coimbra","Artigo 26.º, n.º 1, alínea a) do Código dos Contratos Públicos",24-08-2015,"360,00 €",,diminuiçao das quantidades previstas,,Não aplicável.,Não aplicável.,FALSE
Aquisição de Reagentes para o Serviço de Patologia Clinica-setor de Microbiologia,Ajuste Direto Regime Geral,Aquisição de bens móveis,"33000000-0, Equipamento médico, medicamentos e produtos para cuidados pessoais","Instituto Português de Oncologia de Coimbra Francisco Gentil, E. P. E. (506361438)",VIDROLAB 2 (501450629),"597,40 €",10-04-2015,16-01-2015,365 dias,"Portugal, Coimbra, Coimbra","Artigo 26.º, n.º 1, alínea a) do Código dos Contratos Públicos",23-10-2015,"134,49 €",,diminuiçao das quantidades previstas,,Não aplicável.,Não aplicável.,FALSE
Aquisição de Reagentes para o Serviço de Patologia Clinica-setor de Microbiologia,Ajuste Direto Regime Geral,Aquisição de bens móveis,"33000000-0, Equipamento médico, medicamentos e produtos para cuidados pessoais","Instituto Português de Oncologia de Coimbra Francisco Gentil, E. P. E. (506361438)","SARSTEDT - TECNOLOGIA DE LABORATORIO, LD (503019461)","848,68 €",10-04-2015,16-01-2015,365 dias,"Portugal, Coimbra, Coimbra","Artigo 26.º, n.º 1, alínea a) do Código dos Contratos Públicos",09-11-2015,"334,48 €",,diminuiçao das quantidades previstas,,Não aplicável.,Não aplicável.,FALSE
Aquisição de Reagentes para o Serviço de Patologia Clinica-setor de Microbiologia,Ajuste Direto Regime Geral,Aquisição de bens móveis,"33000000-0, Equipamento médico, medicamentos e produtos para cuidados pessoais","Instituto Português de Oncologia de Coimbra Francisco Gentil, E. P. E. (506361438)","QUILABAN - QUIMICA LABORATORIAL ANALITICA, S.A. (500399670)","11.621,14 €",10-04-2015,28-01-2015,365 dias,"Portugal, Coimbra, Coimbra","Artigo 26.º, n.º 1, alínea a) do Código dos Contratos Públicos",21-12-2015,"6.685,22 €",,diminuiçao das quantidades previstas,,Não aplicável.,Não aplicável.,FALSE
Aquisição de Reagentes para o Serviço de Patologia Clinica-setor de Microbiologia,Ajuste Direto Regime Geral,Aquisição de bens móveis,"33000000-0, Equipamento médico, medicamentos e produtos para cuidados pessoais","Instituto Português de Oncologia de Coimbra Francisco Gentil, E. P. E. (506361438)",BIOMERIEUX (501524177),"22.427,72 €",10-04-2015,28-01-2015,365 dias,"Portugal, Coimbra, Coimbra","Artigo 26.º, n.º 1, alínea a) do Código dos Contratos Públicos",21-12-2015,"20.060,42 €",,diminuiçao das quantidades previstas,,Não aplicável.,Não aplicável.,FALSE
Aquisição de Marcadores Tumorais para o Serviço de Patologia Clinica,Ajuste Direto Regime Geral,Aquisição de bens móveis,"33000000-0, Equipamento médico, medicamentos e produtos para cuidados pessoais","Instituto Português de Oncologia de Coimbra Francisco Gentil, E. P. E. (506361438)",BIOMERIEUX (501524177),"140,00 €",10-04-2015,22-12-2014,365 dias,"Portugal, Coimbra, Coimbra","Artigo 26.º, n.º 1, alínea a) do Código dos Contratos Públicos",31-12-2015,"",,diminuiçao das quantidades previstas,,Não aplicável.,Não aplicável.,FALSE
Aquisição de Marcadores Tumorais para o Serviço de Patologia Clinica,Ajuste Direto Regime Geral,Aquisição de bens móveis,"33000000-0, Equipamento médico, medicamentos e produtos para cuidados pessoais","Instituto Português de Oncologia de Coimbra Francisco Gentil, E. P. E. (506361438)","DIASORIN IBERIA,SA-SUCURSAL PORTUGAL (980379563)","2.760,00 €",10-04-2015,22-12-2014,365 dias,"Portugal, Coimbra, Coimbra","Artigo 26.º, n.º 1, alínea a) do Código dos Contratos Públicos",11-12-2015,"2.960,00 €",,"aumento das quantidades previstas, consumidas em virtude do número de doentes",,Não aplicável.,Não aplicável.,FALSE
Aquisição de Marcadores Tumorais para o Serviço de Patologia Clinica,Ajuste Direto Regime Geral,Aquisição de bens móveis,"33000000-0, Equipamento médico, medicamentos e produtos para cuidados pessoais","Instituto Português de Oncologia de Coimbra Francisco Gentil, E. P. E. (506361438)","MEDITECNO, LDA (505025990)","3.200,00 €",10-04-2015,22-12-2014,365 dias,"Portugal, Coimbra, Coimbra","Artigo 26.º, n.º 1, alínea a) do Código dos Contratos Públicos",11-12-2015,"3.200,00 €",,"",,Não aplicável.,Não aplicável.,FALSE
Aquisição de Marcadores Tumorais para o Serviço de Patologia Clinica,Ajuste Direto Regime Geral,Aquisição de bens móveis,"33000000-0, Equipamento médico, medicamentos e produtos para cuidados pessoais","Instituto Português de Oncologia de Coimbra Francisco Gentil, E. P. E. (506361438)","SIEMENS HEALTHCARE DIAGNOSTICS, LDA (507925173)","98.348,00 €",10-04-2015,30-12-2014,365 dias,"Portugal, Coimbra, Coimbra","Artigo 26.º, n.º 1, alínea a) do Código dos Contratos Públicos",09-12-2015,"93.667,20 €",,diminuiçao das quantidades previstas,,Não aplicável.,Não aplicável.,FALSE
Aquisição de Marcadores Tumorais para o Serviço de Patologia Clinica,Ajuste Direto Regime Geral,Aquisição de bens móveis,"33000000-0, Equipamento médico, medicamentos e produtos para cuidados pessoais","Instituto Português de Oncologia de Coimbra Francisco Gentil, E. P. E. (506361438)","FARDIOTOP, PROD. FARMACEUTICOS LDA (508033128)","79.497,00 €",10-04-2015,30-12-2014,365 dias,"Portugal, Coimbra, Coimbra","Artigo 26.º, n.º 1, alínea a) do Código dos Contratos Públicos",10-12-2015,"77.671,00 €",,"aumento das quantidades previstas, consumidas em virtude do número de doentes",,Não aplicável.,Não aplicável.,FALSE
Aquisição de Marcadores Tumorais para o Serviço de Patologia Clinica,Ajuste Direto Regime Geral,Aquisição de bens móveis,"33000000-0, Equipamento médico, medicamentos e produtos para cuidados pessoais","Instituto Português de Oncologia de Coimbra Francisco Gentil, E. P. E. (506361438)","ROCHE SIST.DIAG., SOC. UNIP. LDA (504282921)","63.366,96 €",10-04-2015,30-12-2014,365 dias,"Portugal, Coimbra, Coimbra","Artigo 26.º, n.º 1, alínea a) do Código dos Contratos Públicos",07-12-2015,"57.570,41 €",,diminuiçao das quantidades previstas,,Não aplicável.,Não aplicável.,FALSE
Aquisição de Reagentes de Patologia Molecular para o Serviço da Anatomia Patológica,Ajuste Direto Regime Geral,Aquisição de bens móveis,"33000000-0, Equipamento médico, medicamentos e produtos para cuidados pessoais","Instituto Português de Oncologia de Coimbra Francisco Gentil, E. P. E. (506361438)","FISHER SCIENTIFIC, LDA (506429210)","3.989,25 €",10-04-2015,29-12-2014,365 dias,"Portugal, Coimbra, Coimbra","Artigo 20.º, n.º 1, alínea a) do Código dos Contratos Públicos",10-12-2015,"628,33 €",,diminuiçao das quantidades previstas,,Não aplicável.,Não aplicável.,FALSE
Aquisição de Reagentes de Patologia Molecular para o Serviço da Anatomia Patológica,Ajuste Direto Regime Geral,Aquisição de bens móveis,"33000000-0, Equipamento médico, medicamentos e produtos para cuidados pessoais","Instituto Português de Oncologia de Coimbra Francisco Gentil, E. P. E. (506361438)",ALFAGENE (503387398),"2.109,69 €",10-04-2015,29-12-2014,365 dias,"Portugal, Coimbra, Coimbra","Artigo 20.º, n.º 1, alínea a) do Código dos Contratos Públicos",27-05-2015,"680,27 €",,diminuiçao das quantidades previstas,,Não aplicável.,Não aplicável.,FALSE
Aquisição de Reagentes de Patologia Molecular para o Serviço da Anatomia Patológica,Ajuste Direto Regime Geral,Aquisição de bens móveis,"33000000-0, Equipamento médico, medicamentos e produtos para cuidados pessoais","Instituto Português de Oncologia de Coimbra Francisco Gentil, E. P. E. (506361438)","BIOGROOVE UNIPESSOAL, LDA. (508423953)","9.936,00 €",10-04-2015,29-12-2014,365 dias,"Portugal, Coimbra, Coimbra","Artigo 20.º, n.º 1, alínea a) do Código dos Contratos Públicos",24-11-2015,"13.662,00 €",,"face ás necessidades reais, os consumos foram superiores ao inicialmente previsto",,Não aplicável.,Não aplicável.,FALSE
Aquisição de Reagentes de Patologia Molecular para o Serviço da Anatomia Patológica,Ajuste Direto Regime Geral,Aquisição de bens móveis,"33000000-0, Equipamento médico, medicamentos e produtos para cuidados pessoais","Instituto Português de Oncologia de Coimbra Francisco Gentil, E. P. E. (506361438)",BIO-RAD LABORATORIES LDA (501301321),"1.100,80 €",10-04-2015,29-12-2014,365 dias,"Portugal, Coimbra, Coimbra","Artigo 20.º, n.º 1, alínea a) do Código dos Contratos Públicos",20-11-2015,"80,00 €",,diminuiçao das quantidades previstas,,Não aplicável.,Não aplicável.,FALSE
Aquisição de Reagentes de Patologia Molecular para o Serviço da Anatomia Patológica,Ajuste Direto Regime Geral,Aquisição de bens móveis,"33000000-0, Equipamento médico, medicamentos e produtos para cuidados pessoais","Instituto Português de Oncologia de Coimbra Francisco Gentil, E. P. E. (506361438)",ENZIFARMA SA (503636975),"2.055,45 €",10-04-2015,29-12-2014,365 dias,"Portugal, Coimbra, Coimbra","Artigo 20.º, n.º 1, alínea a) do Código dos Contratos Públicos",30-12-2015,"",,diminuiçao das quantidades previstas,,Não aplicável.,Não aplicável.,FALSE
Aquisição de Reagentes de Patologia Molecular para o Serviço da Anatomia Patológica,Ajuste Direto Regime Geral,Aquisição de bens móveis,"33000000-0, Equipamento médico, medicamentos e produtos para cuidados pessoais","Instituto Português de Oncologia de Coimbra Francisco Gentil, E. P. E. (506361438)",VWR INTERNACIONAL - MAT. DE LABORATORIO (503842770),"6.079,96 €",10-04-2015,29-12-2014,365 dias,"Portugal, Coimbra, Coimbra","Artigo 20.º, n.º 1, alínea a) do Código dos Contratos Públicos",23-12-2015,"2.562,37 €",,diminuiçao das quantidades previstas,,Não aplicável.,Não aplicável.,FALSE
Aquisição de Reagentes de Patologia Molecular para o Serviço da Anatomia Patológica,Ajuste Direto Regime Geral,Aquisição de bens móveis,"33000000-0, Equipamento médico, medicamentos e produtos para cuidados pessoais","Instituto Português de Oncologia de Coimbra Francisco Gentil, E. P. E. (506361438)","BIOPORTUGAL-QUIMICO FARMACEUTICA, LDª. (502380543)","3.079,65 €",10-04-2015,29-12-2014,365 dias,"Portugal, Coimbra, Coimbra","Artigo 20.º, n.º 1, alínea a) do Código dos Contratos Públicos",28-12-2015,"9.412,20 €",,"face ás necessidades reais, os consumos foram superiores ao inicialmente previsto",,Não aplicável.,Não aplicável.,FALSE
Aquisição de Reagentes de Patologia Molecular para o Serviço da Anatomia Patológica,Ajuste Direto Regime Geral,Aquisição de bens móveis,"33000000-0, Equipamento médico, medicamentos e produtos para cuidados pessoais","Instituto Português de Oncologia de Coimbra Francisco Gentil, E. P. E. (506361438)","BIOTECNOMICA UNIPESSOAL, LDA. (509631789)","164,57 €",10-04-2015,29-12-2014,365 dias,"Portugal, Coimbra, Coimbra","Artigo 20.º, n.º 1, alínea a) do Código dos Contratos Públicos",29-12-2015,"86,90 €",,diminuiçao das quantidades previstas,,Não aplicável.,Não aplicável.,FALSE
Aquisição de Reagentes de Patologia Molecular para o Serviço da Anatomia Patológica,Ajuste Direto Regime Geral,Aquisição de bens móveis,"33000000-0, Equipamento médico, medicamentos e produtos para cuidados pessoais","Instituto Português de Oncologia de Coimbra Francisco Gentil, E. P. E. (506361438)",FRILABO  LDA (507958861),"6.071,24 €",10-04-2015,29-12-2014,365 dias,"Portugal, Coimbra, Coimbra","Artigo 20.º, n.º 1, alínea a) do Código dos Contratos Públicos",28-12-2015,"1.297,57 €",,diminuiçao das quantidades previstas,,Não aplicável.,Não aplicável.,FALSE
Aquisição de Reagentes de Patologia Molecular para o Serviço da Anatomia Patológica,Ajuste Direto Regime Geral,Aquisição de bens móveis,"33000000-0, Equipamento médico, medicamentos e produtos para cuidados pessoais","Instituto Português de Oncologia de Coimbra Francisco Gentil, E. P. E. (506361438)",BAPTISTA MARQUES DIAGN. REAG. LDA (501439110),"1.045,30 €",10-04-2015,29-12-2014,365 dias,"Portugal, Coimbra, Coimbra","Artigo 20.º, n.º 1, alínea a) do Código dos Contratos Públicos",30-12-2015,"",,diminuiçao das quantidades previstas,,Não aplicável.,Não aplicável.,FALSE
Aquisição de Reagentes de Patologia Molecular para o Serviço da Anatomia Patológica,Ajuste Direto Regime Geral,Aquisição de bens móveis,"33000000-0, Equipamento médico, medicamentos e produtos para cuidados pessoais","Instituto Português de Oncologia de Coimbra Francisco Gentil, E. P. E. (506361438)","ROCHE SIST.DIAG., SOC. UNIP. LDA (504282921)","1.288,00 €",09-04-2015,29-12-2014,365 dias,"Portugal, Coimbra, Coimbra","Artigo 20.º, n.º 1, alínea a) do Código dos Contratos Públicos",21-05-2015,"132,00 €",,diminuiçao das quantidades previstas,,Não aplicável.,Não aplicável.,FALSE
Aquisição de Reagentes de Patologia Molecular para o Serviço da Anatomia Patológica,Ajuste Direto Regime Geral,Aquisição de bens móveis,"33000000-0, Equipamento médico, medicamentos e produtos para cuidados pessoais","Instituto Português de Oncologia de Coimbra Francisco Gentil, E. P. E. (506361438)","IZASA PORTUGAL, LD (501086110)","7.175,00 €",09-04-2015,29-12-2014,365 dias,"Portugal, Coimbra, Coimbra","Artigo 20.º, n.º 1, alínea a) do Código dos Contratos Públicos",22-09-2015,"1.435,00 €",,diminuiçao das quantidades previstas,,Não aplicável.,Não aplicável.,FALSE
Aquisição de Reagentes de Patologia Molecular para o Serviço da Anatomia Patológica,Ajuste Direto Regime Geral,Aquisição de bens móveis,"33000000-0, Equipamento médico, medicamentos e produtos para cuidados pessoais","Instituto Português de Oncologia de Coimbra Francisco Gentil, E. P. E. (506361438)",LABCLINICS (999999999),"37,35 €",09-04-2015,29-12-2014,365 dias,"Portugal, Coimbra, Coimbra","Artigo 20.º, n.º 1, alínea a) do Código dos Contratos Públicos",07-09-2015,"51,04 €",,"face ás necessidades reais, os consumos foram superiores ao inicialmente previsto",,Não aplicável.,Não aplicável.,FALSE
Aquisição de Reagentes de Patologia Molecular para o Serviço da Anatomia Patológica			,Ajuste Direto Regime Geral,Aquisição de bens móveis,"33000000-0, Equipamento médico, medicamentos e produtos para cuidados pessoais","Instituto Português de Oncologia de Coimbra Francisco Gentil, E. P. E. (506361438)","REAGENTE 5 - QUIMICA E ELECTRONICA, LDA. (501194053)","38,60 €",09-04-2015,29-12-2014,365 dias,"Portugal, Coimbra, Coimbra","Artigo 20.º, n.º 1, alínea a) do Código dos Contratos Públicos",30-12-2015,"",,diminuiçao das quantidades previstas,,Não aplicável.,Não aplicável.,FALSE
Aquisição de Reagentes de Patologia Molecular para o Serviço da Anatomia Patológica,Ajuste Direto Regime Geral,Aquisição de bens móveis,"33000000-0, Equipamento médico, medicamentos e produtos para cuidados pessoais","Instituto Português de Oncologia de Coimbra Francisco Gentil, E. P. E. (506361438)",MENARINI - DIAGNOSTICS (502610069),"850,00 €",09-04-2015,29-12-2014,365 dias,"Portugal, Coimbra, Coimbra","Artigo 20.º, n.º 1, alínea a) do Código dos Contratos Públicos",07-12-2015,"4.250,00 €",,"face ás necessidades reais, os consumos foram superiores ao inicialmente previsto",,Não aplicável.,Não aplicável.,FALSE
Aquisição de Reagentes de Patologia Molecular para o Serviço da Anatomia Patológica,Ajuste Direto Regime Geral,Aquisição de bens móveis,"33000000-0, Equipamento médico, medicamentos e produtos para cuidados pessoais","Instituto Português de Oncologia de Coimbra Francisco Gentil, E. P. E. (506361438)","CITOMED, REPRES. PROD. MEDICOS, LDA (503492043)","37,00 €",07-04-2015,29-12-2014,365 dias,"Portugal, Coimbra, Coimbra","Artigo 20.º, n.º 1, alínea a) do Código dos Contratos Públicos",30-12-2015,"",,diminuiçao das quantidades previstas,,Não aplicável.,Não aplicável.,FALSE
Aquisição de Marcadores Virais para o Serviço de Imunohemoterapia,Ajuste Direto Regime Geral,Aquisição de bens móveis,"33000000-0, Equipamento médico, medicamentos e produtos para cuidados pessoais","Instituto Português de Oncologia de Coimbra Francisco Gentil, E. P. E. (506361438)","BIOMERIEUX PORTUGAL, LDA (501524177)","17.935,60 €",07-04-2015,14-01-2015,365 dias,"Portugal, Coimbra, Coimbra","Artigo 20.º, n.º 1, alínea a) do Código dos Contratos Públicos",17-12-2015,"16.342,46 €",,diminuição das quantidades previstas,,Não aplicável.,Não aplicável.,FALSE
FORNECIMENTO DE ANTICORPOS PARA ANATOMIA PATOLÓGICA - SETOR DE HISTOPATOLOGIA,Ajuste Direto Regime Geral,Aquisição de bens móveis,"33000000-0, Equipamento médico, medicamentos e produtos para cuidados pessoais","Instituto Português de Oncologia de Coimbra Francisco Gentil, E. P. E. (506361438)",ALFAGENE (503387398),"2.147,72 €",06-04-2015,16-01-2015,365 dias,"Portugal, Coimbra, Coimbra","Artigo 20.º, n.º 1, alínea a) do Código dos Contratos Públicos",12-11-2015,"2.147,72 €",,"",,Não aplicável.,Não aplicável.,FALSE
FORNECIMENTO DE ANTICORPOS PARA ANATOMIA PATOLÓGICA - SETOR DE HISTOPATOLOGIA,Ajuste Direto Regime Geral,Aquisição de bens móveis,"33000000-0, Equipamento médico, medicamentos e produtos para cuidados pessoais","Instituto Português de Oncologia de Coimbra Francisco Gentil, E. P. E. (506361438)","ZMWAY, LDA (508085349)","7.597,20 €",06-04-2015,16-01-2015,365 dias,"Portugal, Coimbra, Coimbra","Artigo 20.º, n.º 1, alínea a) do Código dos Contratos Públicos",16-11-2015,"2.434,43 €",,diminuição das quantidades previstas,,Não aplicável.,Não aplicável.,FALSE
FORNECIMENTO DE ANTICORPOS PARA ANATOMIA PATOLÓGICA - SETOR DE HISTOPATOLOGIA,Ajuste Direto Regime Geral,Aquisição de bens móveis,"33000000-0, Equipamento médico, medicamentos e produtos para cuidados pessoais","Instituto Português de Oncologia de Coimbra Francisco Gentil, E. P. E. (506361438)","LEICA MICROSISTEMAS, LDA (500301921)","957,00 €",06-04-2015,16-01-2015,365 dias,"Portugal, Coimbra, Coimbra","Artigo 20.º, n.º 1, alínea a) do Código dos Contratos Públicos",30-12-2015,"",,diminuição das quantidades previstas,,Não aplicável.,Não aplicável.,FALSE
FORNECIMENTO DE ANTICORPOS PARA ANATOMIA PATOLÓGICA - SETOR DE HISTOPATOLOGIA,Ajuste Direto Regime Geral,Aquisição de bens móveis,"33000000-0, Equipamento médico, medicamentos e produtos para cuidados pessoais","Instituto Português de Oncologia de Coimbra Francisco Gentil, E. P. E. (506361438)","GRUPO TAPER - EQUIP.PREC.CENTIFICA, LDA (506886336)","5.412,64 €",06-04-2015,16-01-2015,365 dias,"Portugal, Coimbra, Coimbra","Artigo 20.º, n.º 1, alínea a) do Código dos Contratos Públicos",20-11-2015,"4.141,52 €",,diminuição das quantidades previstas,,Não aplicável.,Não aplicável.,FALSE
FORNECIMENTO DE ANTICORPOS PARA ANATOMIA PATOLÓGICA - SETOR DE HISTOPATOLOGIA,Ajuste Direto Regime Geral,Aquisição de bens móveis,"33000000-0, Equipamento médico, medicamentos e produtos para cuidados pessoais","Instituto Português de Oncologia de Coimbra Francisco Gentil, E. P. E. (506361438)","ROCHE SIST.DIAG., SOC. UNIP. LDA (504282921)","3.300,00 €",06-04-2015,16-01-2015,365 dias,"Portugal, Coimbra, Coimbra","Artigo 20.º, n.º 1, alínea a) do Código dos Contratos Públicos",15-12-2015,"8.955,00 €",,Face ás necessidades reais do hospital os consumos foram superiores ao inicalmente previsto,,Não aplicável.,Não aplicável.,FALSE
FORNECIMENTO DE ANTICORPOS PARA ANATOMIA PATOLÓGICA - SETOR DE HISTOPATOLOGIA,Ajuste Direto Regime Geral,Aquisição de bens móveis,"33000000-0, Equipamento médico, medicamentos e produtos para cuidados pessoais","Instituto Português de Oncologia de Coimbra Francisco Gentil, E. P. E. (506361438)",MENARINI - DIAGNOSTICS (502610069),"4.700,72 €",06-04-2015,16-01-2015,365 dias,"Portugal, Coimbra, Coimbra","Artigo 20.º, n.º 1, alínea a) do Código dos Contratos Públicos",16-12-2015,"2.023,53 €",,diminuição das quantidades previstas,,Não aplicável.,Não aplicável.,FALSE
FORNECIMENTO DE ANTICORPOS PARA ANATOMIA PATOLÓGICA - SETOR DE HISTOPATOLOGIA,Ajuste Direto Regime Geral,Aquisição de bens móveis,"33000000-0, Equipamento médico, medicamentos e produtos para cuidados pessoais","Instituto Português de Oncologia de Coimbra Francisco Gentil, E. P. E. (506361438)","LUSOPALEX, LDA (503531588)","1.491,60 €",06-04-2015,16-01-2015,365 dias,"Portugal, Coimbra, Coimbra","Artigo 20.º, n.º 1, alínea a) do Código dos Contratos Públicos",30-12-2015,"",,diminuição das quantidades previstas,,Não aplicável.,Não aplicável.,FALSE
REAGENTES PARA  LABORATORIO DE PATOLOGIA CLINICA- SETOR DE HEMATOLOGIA,Ajuste Direto Regime Geral,Aquisição de bens móveis,"33000000-0, Equipamento médico, medicamentos e produtos para cuidados pessoais","Instituto Português de Oncologia de Coimbra Francisco Gentil, E. P. E. (506361438)","LUSOPALEX, LDA (503531588)","645,73 €",06-04-2015,22-12-2014,365 dias,"Portugal, Coimbra, Coimbra","Artigo 26.º, n.º 1, alínea a) do Código dos Contratos Públicos",30-12-2015,"",,diminuição das quantidades previstas,,Não aplicável.,Não aplicável.,FALSE
REAGENTES PARA  LABORATORIO DE PATOLOGIA CLINICA - SETOR DE HEMATOLOGIA,Ajuste Direto Regime Geral,Aquisição de bens móveis,"33000000-0, Equipamento médico, medicamentos e produtos para cuidados pessoais","Instituto Português de Oncologia de Coimbra Francisco Gentil, E. P. E. (506361438)","BIOPORTUGAL-QUIMICO FARMACE, LDª. (502380543)","1.911,00 €",06-04-2015,22-12-2014,365 dias,"Portugal, Coimbra, Coimbra","Artigo 26.º, n.º 1, alínea a) do Código dos Contratos Públicos",05-08-2015,"276,00 €",,diminuição das quantidades previstas,,Não aplicável.,Não aplicável.,FALSE
REAGENTES PARA  LABORATORIO DE PATOLOGIA CLINICA- SETOR DE HEMATOLOGIA,Ajuste Direto Regime Geral,Aquisição de bens móveis,"33000000-0, Equipamento médico, medicamentos e produtos para cuidados pessoais","Instituto Português de Oncologia de Coimbra Francisco Gentil, E. P. E. (506361438)",ENZIFARMA SA (503636975),"46.580,75 €",06-04-2015,30-12-2014,365 dias,"Portugal, Coimbra, Coimbra","Artigo 26.º, n.º 1, alínea a) do Código dos Contratos Públicos",15-12-2015,"20.083,10 €",,diminuição das quantidades previstas,,Não aplicável.,Não aplicável.,FALSE
REAGENTES PARA  LABORATORIO DE PATOLOGIA CLINICA - SETOR DE HEMATOLOGIA,Ajuste Direto Regime Geral,Aquisição de bens móveis,"33000000-0, Equipamento médico, medicamentos e produtos para cuidados pessoais","Instituto Português de Oncologia de Coimbra Francisco Gentil, E. P. E. (506361438)","IBERLAB & IMUNOR.-SOL. LABORAT., LDA (503406694)","34,44 €",06-04-2015,22-12-2014,365 dias,"Portugal, Coimbra, Coimbra","Artigo 26.º, n.º 1, alínea a) do Código dos Contratos Públicos",05-11-2015,"19,00 €",,diminuição das quantidades previstas,,Não aplicável.,Não aplicável.,FALSE
REAGENTES PARA  LABORATORIO DE PATOLOGIA CLINICA - SETOR DE HEMATOLOGIA,Ajuste Direto Regime Geral,Aquisição de bens móveis,"33000000-0, Equipamento médico, medicamentos e produtos para cuidados pessoais","Instituto Português de Oncologia de Coimbra Francisco Gentil, E. P. E. (506361438)","IZASA PORTUGAL, LD (501086110)","103.639,31 €",06-04-2015,30-12-2014,365 dias,"Portugal, Coimbra, Coimbra","Artigo 26.º, n.º 1, alínea a) do Código dos Contratos Públicos",21-12-2015,"89.740,12 €",,diminuição das quantidades previstas,,Não aplicável.,Não aplicável.,FALSE
REAGENTES PARA  LABORATORIO DE PATOLOGIA CLINICA - SETOR DE HEMATOLOGIA,Ajuste Direto Regime Geral,Aquisição de bens móveis,"33000000-0, Equipamento médico, medicamentos e produtos para cuidados pessoais","Instituto Português de Oncologia de Coimbra Francisco Gentil, E. P. E. (506361438)","ZMWAY, LDA (508085349)","8.846,16 €",06-04-2015,22-12-2014,365 dias,"Portugal, Coimbra, Coimbra","Artigo 26.º, n.º 1, alínea a) do Código dos Contratos Públicos",17-12-2015,"9.985,00 €",,face ás necessidades reais do hospital os consumos foram superiores ao inicialmente previsto,,Não aplicável.,Não aplicável.,FALSE
REAGENTES PARA  LABORATORIO DE PATOLOGIA CLINICA - SETOR DE HEMATOLOGIA,Ajuste Direto Regime Geral,Aquisição de bens móveis,"33000000-0, Equipamento médico, medicamentos e produtos para cuidados pessoais","Instituto Português de Oncologia de Coimbra Francisco Gentil, E. P. E. (506361438)",BECKMAN COULTER PORTUGAL (509035167),"127.787,20 €",06-04-2015,30-12-2014,365 dias,"Portugal, Coimbra, Coimbra","Artigo 26.º, n.º 1, alínea a) do Código dos Contratos Públicos",22-12-2015,"93.570,16 €",,diminuição das quantidades previstas,,Não aplicável.,Não aplicável.,FALSE
REAGENTES PARA BIOQUIMICA DO LABORATORIO DE PATOLOGIA CLINICA,Ajuste Direto Regime Geral,Aquisição de bens móveis,"33000000-0, Equipamento médico, medicamentos e produtos para cuidados pessoais","Instituto Português de Oncologia de Coimbra Francisco Gentil, E. P. E. (506361438)","SIEMENS HEALTHCARE DIAGNOSTICS, LDA (507925173)","15.263,02 €",06-04-2015,30-12-2014,365 dias,"Portugal, Coimbra, Coimbra","Artigo 26.º, n.º 1, alínea a) do Código dos Contratos Públicos",28-12-2015,"13.325,56 €",,diminuição das quantidades previstas,,Não aplicável.,Não aplicável.,FALSE
REAGENTES PARA BIOQUIMICA DO LABORATORIO DE PATOLOGIA CLINICA,Ajuste Direto Regime Geral,Aquisição de bens móveis,"33000000-0, Equipamento médico, medicamentos e produtos para cuidados pessoais","Instituto Português de Oncologia de Coimbra Francisco Gentil, E. P. E. (506361438)",BIOMERIEUX (501524177),"392,00 €",06-04-2015,22-12-2014,365 dias,"Portugal, Coimbra, Coimbra","Artigo 26.º, n.º 1, alínea a) do Código dos Contratos Públicos",03-12-2015,"1.392,00 €",,diminuição das quantidades previstas,,Não aplicável.,Não aplicável.,FALSE
REAGENTES PARA BIOQUIMICA DO LABORATORIO DE PATOLOGIA CLINICA,Ajuste Direto Regime Geral,Aquisição de bens móveis,"33000000-0, Equipamento médico, medicamentos e produtos para cuidados pessoais","Instituto Português de Oncologia de Coimbra Francisco Gentil, E. P. E. (506361438)",BAPTISTA MARQUES DIAGN. REAG. LDA (501439110),"1.410,88 €",06-04-2015,22-12-2014,365 dias,"Portugal, Coimbra, Coimbra","Artigo 26.º, n.º 1, alínea a) do Código dos Contratos Públicos",28-12-2015,"13.325,56 €",,diminuição das quantidades previstas,,Não aplicável.,Não aplicável.,FALSE
REAGENTES PARA BIOQUIMICA DO LABORATORIO DE PATOLOGIA CLINICA,Ajuste Direto Regime Geral,Aquisição de bens móveis,"33000000-0, Equipamento médico, medicamentos e produtos para cuidados pessoais","Instituto Português de Oncologia de Coimbra Francisco Gentil, E. P. E. (506361438)","ARIUM, LDA (502501880)","1.460,00 €",06-04-2015,22-12-2014,365 dias,"Portugal, Coimbra, Coimbra","Artigo 26.º, n.º 1, alínea a) do Código dos Contratos Públicos",17-09-2015,"730,00 €",,diminuição das quantidades previstas,,Não aplicável.,Não aplicável.,FALSE
REAGENTES PARA BIOQUIMICA DO LABORATORIO DE PATOLOGIA CLINICA,Ajuste Direto Regime Geral,Aquisição de bens móveis,"33000000-0, Equipamento médico, medicamentos e produtos para cuidados pessoais","Instituto Português de Oncologia de Coimbra Francisco Gentil, E. P. E. (506361438)","ROCHE SIST.DIAG., SOC. UNIP. LDA (504282921)","96.820,54 €",06-04-2015,30-12-2014,365 dias,"Portugal, Coimbra, Coimbra","Artigo 26.º, n.º 1, alínea a) do Código dos Contratos Públicos",28-12-2015,"86.858,48 €",,diminuição das quantidades previstas,,Não aplicável.,Não aplicável.,FALSE
REAGENTES PARA BIOQUIMICA DO LABORATORIO DE PATOLOGIA CLINICA,Ajuste Direto Regime Geral,Aquisição de bens móveis,"33000000-0, Equipamento médico, medicamentos e produtos para cuidados pessoais","Instituto Português de Oncologia de Coimbra Francisco Gentil, E. P. E. (506361438)","IBERLAB & IMUNOREAGE-SOL. LABORAT., LDA (503406694)","24,88 €",02-04-2015,22-12-2014,365 dias,"Portugal, Coimbra, Coimbra","Artigo 26.º, n.º 1, alínea a) do Código dos Contratos Públicos",29-12-2015,"24,88 €",,"",,Não aplicável.,Não aplicável.,FALSE
REAGENTES PARA BIOQUIMICA DO LABORATORIO DE PATOLOGIA CLINICA,Ajuste Direto Regime Geral,Aquisição de bens móveis,"33000000-0, Equipamento médico, medicamentos e produtos para cuidados pessoais","Instituto Português de Oncologia de Coimbra Francisco Gentil, E. P. E. (506361438)","RADIOMETER IBERICA, SL (980201667)","16.566,56 €",02-04-2015,30-12-2014,365 dias,"Portugal, Coimbra, Coimbra","Artigo 26.º, n.º 1, alínea a) do Código dos Contratos Públicos",28-12-2015,"13.904,63 €",,diminuição das quantidades previstas,,Não aplicável.,Não aplicável.,FALSE
REAGENTES PARA BIOQUIMICA DO LABORATORIO DE PATOLOGIA CLINICA,Ajuste Direto Regime Geral,Aquisição de bens móveis,"33000000-0, Equipamento médico, medicamentos e produtos para cuidados pessoais","Instituto Português de Oncologia de Coimbra Francisco Gentil, E. P. E. (506361438)","IRLANDOX LABORATORIOS, LDA (502515619)","676,87 €",02-04-2015,22-12-2014,365 dias,"Portugal, Coimbra, Coimbra","Artigo 26.º, n.º 1, alínea a) do Código dos Contratos Públicos",17-12-2015,"303,71 €",,diminuição das quantidades previstas,,Não aplicável.,Não aplicável.,FALSE
REAGENTES PARA BIOQUIMICA DO LABORATORIO DE PATOLOGIA CLINICA,Ajuste Direto Regime Geral,Aquisição de bens móveis,"33000000-0, Equipamento médico, medicamentos e produtos para cuidados pessoais","Instituto Português de Oncologia de Coimbra Francisco Gentil, E. P. E. (506361438)",BDPL  CIENTIFICA-  REAG. E INST. LDA (504527584),"429,03 €",02-04-2015,22-12-2014,365 dias,"Portugal, Coimbra, Coimbra","Artigo 26.º, n.º 1, alínea a) do Código dos Contratos Públicos",18-12-2015,"393,72 €",,diminuição das quantidades previstas,,Não aplicável.,Não aplicável.,FALSE
Infusores Portáteis,Ajuste Direto Regime Geral,Aquisição de bens móveis,"33100000-1, Equipamento médico","Instituto Português de Oncologia de Coimbra Francisco Gentil, E. P. E. (506361438)","MEDICINALIA CORMEDICA, LDA (500684324)","4.905,00 €",31-03-2015,02-01-2015,365 dias,"Portugal, Coimbra, Coimbra","Artigo 20.º, n.º 1, alínea a) do Código dos Contratos Públicos","","",,"",,Não aplicável.,Não aplicável.,FALSE
Infusores Portáteis,Ajuste Direto Regime Geral,Aquisição de bens móveis,"33100000-1, Equipamento médico","Instituto Português de Oncologia de Coimbra Francisco Gentil, E. P. E. (506361438)","BAXTER MEDICO-FARMACEUTICA, LDA (503347345)","33.048,00 €",31-03-2015,02-01-2015,365 dias,"Portugal, Coimbra, Coimbra","Artigo 20.º, n.º 1, alínea a) do Código dos Contratos Públicos","","",,"",,Não aplicável.,Não aplicável.,FALSE
Agulhas para administração através de implantofix,Ajuste Direto Regime Geral,Aquisição de bens móveis,"33100000-1, Equipamento médico","Instituto Português de Oncologia de Coimbra Francisco Gentil, E. P. E. (506361438)","SMITHS MEDICAL, UNIPESSOAL LDA (507445937)","55.680,00 €",31-03-2015,02-01-2015,730 dias,"Portugal, Coimbra, Coimbra","Artigo 20.º, n.º 1, alínea a) do Código dos Contratos Públicos","","",,"",,Não aplicável.,Não aplicável.,FALSE
Geradores de 99Mo-99mTc,Ajuste Direto Regime Geral,Aquisição de bens móveis,"33690000-3, Medicamentos vários",Instituto Português de Oncologia de Coimbra - Francisco Gentil E.P.E. (506361438),ADVANCED ACCELARATOR APPLICATIONS PORT UNIP LDA (509917267),"52.702,00 €",31-03-2015,04-12-2014,365 dias,"Portugal, Coimbra, Coimbra","Artigo 20.º, n.º 1, alínea a) do Código dos Contratos Públicos",28-12-2015,"52.702,00 €",,"",,Não aplicável.,Não aplicável.,FALSE
