Objeto do Contrato,Tipo de Procedimento,Tipo(s) de Contrato,CPVs,Entidade(s) Adjudicante(s),Entidade(s) Adjudicatária(s),Preço Contratual,Data de Publicação,Data de Celebração do Contrato,Prazo de Execução,Local de Execução,Fundamentação,Data de Fecho do Contrato,Preço Total Efetivo,Causas das Alterações ao Prazo,Causas das Alterações ao Preço,Estado,N.º registo do Acordo Quadro,Descrição do Acordo Quadro,Procedimento Centralizado
1100001/2019-SUTURA MECANICA,Concurso público,Aquisição de bens móveis,"33141125-2, Material de sutura cirúrgica","CHBM - Centro Hospital Barreiro Montijo, EPE (509186998)",MEDTRONIC PORTUGAL COMERCIO E DIST. APARELHOS MED. (504223933),"369.858,00 €",24-01-2019,07-12-2018,730 dias,"Portugal, Setúbal, Barreiro","Artigo 20.º, n.º 1, alínea a) do Código dos Contratos Públicos",,,,,,Não aplicável.,Não aplicável.,FALSE
1100001/2019-SUTURA MECANICA,Concurso público,Aquisição de bens móveis,"33141125-2, Material de sutura cirúrgica","CHBM - Centro Hospital Barreiro Montijo, EPE (509186998)","BIOTORAX, LDA (508761913)","2.680,00 €",24-01-2019,02-11-2018,730 dias,"Portugal, Setúbal, Barreiro","Artigo 20.º, n.º 1, alínea a) do Código dos Contratos Públicos",,,,,,Não aplicável.,Não aplicável.,FALSE
1100001/2019-SUTURA MECANICA,Concurso público,Aquisição de bens móveis,"33141125-2, Material de sutura cirúrgica","CHBM - Centro Hospital Barreiro Montijo, EPE (509186998)",ENDOTECNICA MATERIAL CIRURGICO (503818348),"14.160,00 €",24-01-2019,07-12-2018,730 dias,"Portugal, Setúbal, Barreiro","Artigo 20.º, n.º 1, alínea a) do Código dos Contratos Públicos",,,,,,Não aplicável.,Não aplicável.,FALSE
1100001/2019-SUTURA MECANICA,Concurso público,Aquisição de bens móveis,"33141125-2, Material de sutura cirúrgica","CHBM - Centro Hospital Barreiro Montijo, EPE (509186998)","MOONSURGE - IMPORT.  EXP. MATERIAL MEDICO,LDA (506657035)","34.800,00 €",24-01-2019,07-12-2018,730 dias,"Portugal, Setúbal, Barreiro","Artigo 20.º, n.º 1, alínea a) do Código dos Contratos Públicos",,,,,,Não aplicável.,Não aplicável.,FALSE
