Objeto do Contrato,Tipo de Procedimento,Tipo(s) de Contrato,CPVs,Entidade(s) Adjudicante(s),Entidade(s) Adjudicatária(s),Preço Contratual,Data de Publicação,Data de Celebração do Contrato,Prazo de Execução,Local de Execução,Fundamentação,Data de Fecho do Contrato,Preço Total Efetivo,Causas das Alterações ao Prazo,Causas das Alterações ao Preço,Estado,N.º registo do Acordo Quadro,Descrição do Acordo Quadro,Procedimento Centralizado
Aquisição de bancadas hospitalares,Ajuste Direto Regime Geral,Aquisição de bens móveis,"39181000-4, Bancadas de laboratório","Administração Regional de Saúde do Norte,IP (ARSN) (503135593)","Industrial Laborum Ibérica, S.A (506692027)","18.580,00 €",11-08-2014,21-05-2014,30 dias,"Portugal, Braga","Artigo 20.º, n.º 1, alínea a) do Código dos Contratos Públicos",17-06-2014,"18.580,00 €","",,,Não aplicável.,Não aplicável.,FALSE
"Aquisição de 70 tubos endotraqueais com cuff nº 2,5",Ajuste Direto Regime Geral,Aquisição de bens móveis,"33140000-3, Material médico de consumo","Administração Regional de Saúde do Norte, I. P. (503135593)",Teleflex (980249783),"78,47 €",07-08-2014,07-07-2014,365 dias,"Portugal, Vila Real, Vila Real","Artigo 20.º, n.º 1, alínea a) do Código dos Contratos Públicos","","","",,,Não aplicável.,Não aplicável.,FALSE
"Aquisição de 198 unidades de Enoxaparina 0,2 ml   Aquisição de 198 Unidades de Enoxaparina 0,4 ml",Ajuste Direto Regime Geral,Aquisição de bens móveis,"33600000-6, Produtos farmacêuticos","Administração Regional de Saúde do Norte, I. P. (503135593)",Sanofi - Produtos Farmacêuticos (500134960),"0,00 €",07-08-2014,04-08-2014,365 dias,"Portugal, Vila Real, Vila Real",Artigo 258.º do Código dos Contratos Públicos,"","","",,,1263598,"Aquisição de 198 unidades de Enoxaparina 0,2 ml   Aquisição de 198 Unidades de Enoxaparina 0,4 ml",FALSE
Aquisição de 400 unidades de cateter nº 14 e 200 unidades de cateter nº 16,Ajuste Direto Regime Geral,Aquisição de bens móveis,"33140000-3, Material médico de consumo","Administração Regional de Saúde do Norte, I. P. (503135593)",Smiths Medical Portugal (507445937),"0,00 €",07-08-2014,05-08-2014,365 dias,"Portugal, Vila Real, Vila Real",Artigo 258.º do Código dos Contratos Públicos,"","","",,,1263569,Aquisição de 400 unidades de cateter nº 14 e 200 unidades de cateter nº 16,FALSE
Aquisição de 5000 unidades de tranferes,Ajuste Direto Regime Geral,Aquisição de bens móveis,"33140000-3, Material médico de consumo","Administração Regional de Saúde do Norte, I. P. (503135593)",PMH Produtos Médicos Hospitalares (502376899),"0,00 €",07-08-2014,06-08-2014,365 dias,"Portugal, Vila Real, Vila Real",Artigo 258.º do Código dos Contratos Públicos,"","","",,,1263559,Aquisição de 5000 unidades de tranferes,FALSE
"Aquisição de variado equipamento Básico Médico Cirúrgico. de Laboratório, Mobiliário Hospitalar e Outros",Ajuste Direto Regime Geral,Aquisição de bens móveis,"33100000-1, Equipamento médico","Administração Regional de Saúde do Norte,IP (ARSN) (503135593)","Prhofame, lda (501891145)","31.170,65 €",06-08-2014,29-05-2014,210 dias,"Portugal, Braga","Artigo 20.º, n.º 1, alínea a) do Código dos Contratos Públicos",02-07-2014,"31.170,65 €","",,,Não aplicável.,Não aplicável.,FALSE
"Aquisição de variado equipamento básico Médico Cirurgico, de Laboratório e Mobiliário Hospitalar",Concurso público,Aquisição de bens móveis,"33100000-1, Equipamento médico","Administração Regional de Saúde do Norte, I. P. (503135593)",Prhofame lda (501891145),"40.591,00 €",05-08-2014,29-05-2014,210 dias,"Portugal, Braga","Artigo 155.º, alínea a) do Código dos Contratos Públicos",16-07-2014,"40.591,00 €","",,,Não aplicável.,Não aplicável.,FALSE
Aquisição de electrodomésticos,Ajuste Direto Regime Geral,Aquisição de bens móveis,"39710000-2, Electrodomésticos","Administração Regional de Saúde do Norte,IP (ARSN) (503135593)",A. De Oliveira Costa (123964849),"4.779,82 €",04-08-2014,21-05-2014,231 dias,"Portugal, Braga, Braga","Artigo 20.º, n.º 1, alínea a) do Código dos Contratos Públicos",15-07-2014,"4.779,82 €","",,,Não aplicável.,Não aplicável.,FALSE
USF Gaya - Instalação,Ajuste Direto Regime Geral,Empreitadas de obras públicas,"45454000-4, Obras de reestruturação","Administração Regional de Saúde do Norte, I. P. (503135593)","Palpitabstrato - Construções, Lda (513057790)","78.204,22 €",01-08-2014,18-07-2014,90 dias,"Portugal, Porto, Vila Nova de Gaia","Artigo 19.º, alínea a) do Código dos Contratos Públicos","","78.204,22 €",Verificou-se que foi estimado um prazo ligeiramente superior ao necessário para realização da empreitada superior ao realmente necessário.,,,Não aplicável.,Não aplicável.,FALSE
Edifício Soares dos Reis - Reparação de paredes exteriores,Ajuste Direto Regime Geral,Empreitadas de obras públicas,"45453000-7, Obras de revisão e recuperação","Administração Regional de Saúde do Norte, I. P. (503135593)","Nordivi - Montagem de Estuturas Decorativas, Lda. (502274425)","30.112,20 €",01-08-2014,18-07-2014,45 dias,"Portugal, Porto, Vila Nova de Gaia","Artigo 19.º, alínea a) do Código dos Contratos Públicos","","30.112,20 €","Verificou-se que, face à natureza e quantidade  dos trabalhos a realizar, foi estimado um prazo para realização da empreitada superior ao realmente necessário.  ",,,Não aplicável.,Não aplicável.,FALSE
