Objeto do Contrato,Tipo de Procedimento,Tipo(s) de Contrato,CPVs,Entidade(s) Adjudicante(s),Entidade(s) Adjudicatária(s),Preço Contratual,Data de Publicação,Data de Celebração do Contrato,Prazo de Execução,Local de Execução,Fundamentação,Data de Fecho do Contrato,Preço Total Efetivo,Causas das Alterações ao Prazo,Causas das Alterações ao Preço,Estado,N.º registo do Acordo Quadro,Descrição do Acordo Quadro,Procedimento Centralizado
Reparação de UPS  alocada ao Sistema PAC's,Ajuste Direto Regime Geral,Aquisição de serviços,"50800000-3, Serviços de reparação e manutenção diversos","Administração Regional de Saúde do Norte, I. P. (503135593)","Philips Portuguesa, S.A. (500216843)","576,00 €",29-05-2015,07-04-2015,7 dias,"Portugal, Porto, Vila Nova de Gaia","Artigo 20.º, n.º 1, alínea a) do Código dos Contratos Públicos",08-05-2015,"576,00 €",,,,Não aplicável.,Não aplicável.,FALSE
Aprov-VR 15004581 - AP 577  Aquisição de 300 ampolas Cloreto de cálcio 100 mg/ml Sol inj Fr 10 ml IV,Ao abrigo de acordo-quadro (art.º 259.º),Aquisição de bens móveis,"33690000-3, Medicamentos vários","Administração Regional de Saúde do Norte, I. P. (503135593)","Labesfal - Laboratório Almiro, SA (501169580)","566,97 €",29-05-2015,22-05-2015,210 dias,"Portugal, Vila Real, Vila Real<BR/>Portugal, Porto, Maia",Artigo 259.º do Código dos Contratos Públicos,25-05-2015,"566,97 €",,,,1331181,Acordo Quadro para fornecimento de corretivos da volémia e outras soluções estéreis às Instituições e Serviços do Serviço Nacional de Saúde,FALSE
Aprov-VR 15004581 - AP 577  Aquisição de 1300 Unidades Polielectrolítico Sol inj 500 ml IV,Ao abrigo de acordo-quadro (art.º 259.º),Aquisição de bens móveis,"33690000-3, Medicamentos vários","Administração Regional de Saúde do Norte, I. P. (503135593)","B Braun Medical, lda (501506543)","1.649,44 €",29-05-2015,26-05-2015,210 dias,"Portugal, Porto, Maia<BR/>Portugal, Vila Real, Vila Real",Artigo 155.º do Código dos Contratos Públicos,18-09-2015,"1.649,44 €",,,,1331181,Acordo Quadro para fornecimento de corretivos da volémia e outras soluções estéreis às Instituições e Serviços do Serviço Nacional de Saúde,FALSE
Serviços de Manutenção e Suporte aos Equipamentos BULL,Ajuste Direto Regime Geral,Aquisição de serviços,"72611000-6, Serviços de assistência técnica informática","Administração Regional de Saúde do Norte,IP (ARSN) (503135593)","GFI Portugal - Tecnologias de Informação, S.A. (502726890)","89.054,61 €",29-05-2015,02-04-2015,270 dias,"Portugal, Porto, Porto","Artigo 24.º, n.º 1, alínea e) do Código dos Contratos Públicos",18-05-2015,"89.054,61 €",,,,Não aplicável.,Não aplicável.,FALSE
Mudança de Local de servidor de voz  serviços de instalação  e configuração,Ajuste Direto Regime Geral,Aquisição de serviços,"50800000-3, Serviços de reparação e manutenção diversos","Administração Regional de Saúde do Norte, I. P. (503135593)","Primacom - Projecto, Inst. Manutenção, Comunicações, Lda (503114944)","308,00 €",29-05-2015,24-04-2015,3 dias,"Portugal, Porto, Vila Nova de Gaia","Artigo 20.º, n.º 1, alínea a) do Código dos Contratos Públicos",06-05-2015,"308,00 €",,,,Não aplicável.,Não aplicável.,FALSE
Aquisição de 3 centrais telefónicas e respetivos serviços de instalação,Ajuste Direto Regime Geral,Aquisição de bens móveis,"32570000-9, Equipamento para comunicações","Administração Regional de Saúde do Norte, I. P. (503135593)","NetFlow - Desenvolvimento de Sistemas de Informação, Lda. (507596137)","6.995,00 €",29-05-2015,24-02-2015,90 dias,"Portugal, Porto, Porto","Artigo 20.º, n.º 1, alínea a) do Código dos Contratos Públicos",26-05-2015,"6.995,00 €",,,,Não aplicável.,Não aplicável.,FALSE
Aquisição de 65 000 unidades de reagente determinação microalbuminúria,Concurso público,Aquisição de bens móveis,"33696000-5, Reagentes e meios de contraste","Administração Regional de Saúde do Norte, I. P. (503135593)",Siemens Healtcare Diagnóstico (507925173),"59.150,00 €",29-05-2015,10-04-2015,340 dias,"Portugal, Porto, Maia<BR/>Portugal, Vila Real, Vila Real","Artigo 20.º, n.º 1, alínea b) do Código dos Contratos Públicos",30-07-2015,"59.150,00 €",,,,Não aplicável.,Não aplicável.,FALSE
Aquisição de 900 testes alcool,Concurso público,Aquisição de bens móveis,"33696000-5, Reagentes e meios de contraste","Administração Regional de Saúde do Norte, I. P. (503135593)",Normax - Fábrica de Vidros Cientificos (500203130),"945,00 €",29-05-2015,17-04-2015,340 dias,"Portugal, Porto, Maia<BR/>Portugal, Vila Real, Vila Real","Artigo 20.º, n.º 1, alínea b) do Código dos Contratos Públicos",02-10-2015,"945,00 €",,,,Não aplicável.,Não aplicável.,FALSE
Aquisição de 6 000 testes rápido Buprenorfina,Concurso público,Aquisição de bens móveis,"33696000-5, Reagentes e meios de contraste","Administração Regional de Saúde do Norte, I. P. (503135593)","Quilaban - Quimica Lab Analítica, Lda (500399670)","991,20 €",29-05-2015,10-04-2015,240 dias,"Portugal, Vila Real, Vila Real<BR/>Portugal, Porto, Maia","Artigo 20.º, n.º 1, alínea b) do Código dos Contratos Públicos",15-09-2015,"991,20 €",,,,Não aplicável.,Não aplicável.,FALSE
Aquisição de 140 000 tiras de reagente exame sumário de urina 10 parâmetros,Concurso público,Aquisição de bens móveis,"33696000-5, Reagentes e meios de contraste","Administração Regional de Saúde do Norte, I. P. (503135593)",Iberlab & Imunoreage (503406694),"7.560,00 €",29-05-2015,10-04-2015,340 dias,"Portugal, Porto, Porto<BR/>Portugal, Vila Real, Vila Real","Artigo 20.º, n.º 1, alínea b) do Código dos Contratos Públicos",31-08-2015,"7.560,00 €",,,,Não aplicável.,Não aplicável.,FALSE
Aquisição de 18 000 testes de reagente det. gonadotropina humana na urina,Concurso público,Aquisição de bens móveis,"33696000-5, Reagentes e meios de contraste","Administração Regional de Saúde do Norte, I. P. (503135593)","Baptista Marques, Diagnóstica e reagentes (501439110)","3.960,00 €",29-05-2015,10-04-2015,350 dias,"Portugal, Porto, Maia<BR/>Portugal, Vila Real, Vila Real","Artigo 20.º, n.º 1, alínea b) do Código dos Contratos Públicos",22-09-2015,"3.960,00 €",,,,Não aplicável.,Não aplicável.,FALSE
Aquisição de 600 testes  rápido pesquisa de Mycobateriul tuberculosis complex,Concurso público,Aquisição de bens móveis,"33696000-5, Reagentes e meios de contraste","Administração Regional de Saúde do Norte, I. P. (503135593)",ALERE. LDA (502518863),"2.094,00 €",29-05-2015,10-04-2015,340 dias,"Portugal, Porto, Maia<BR/>Portugal, Vila Real, Vila Real","Artigo 20.º, n.º 1, alínea b) do Código dos Contratos Públicos",22-12-2015,"2.094,00 €",,,,Não aplicável.,Não aplicável.,FALSE
Aquisição de 4992 frascos Solução alcoólica anti-séptica e dermoprotectora 100 mL,Ao abrigo de acordo-quadro (art.º 259.º),Aquisição de bens móveis,"33600000-6, Produtos farmacêuticos","Administração Regional de Saúde do Norte, I. P. (503135593)","Vygon Portugal, Lda (503232785)","3.344,64 €",29-05-2015,27-05-2015,210 dias,"Portugal, Porto, Maia<BR/>Portugal, Vila Real, Vila Real",Artigo 259.º do Código dos Contratos Públicos,05-06-2015,"3.344,64 €",,,,1406003,CP 2015/8,FALSE
AP353 - 15004356 - Aquisição de 12000 preservativos feminino esponja,Ao abrigo de acordo-quadro (art.º 259.º),Aquisição de bens móveis,"33600000-6, Produtos farmacêuticos","Administração Regional de Saúde do Norte, I. P. (503135593)","Clinifar - Prod. Clinicos Farmacêuticos, S.A. (503281115)","9.840,00 €",29-05-2015,07-05-2015,250 dias,"Portugal, Vila Real, Vila Real<BR/>Portugal, Porto, Maia",Artigo 259.º do Código dos Contratos Públicos,13-07-2015,"9.840,00 €",,,,611510,"CONCURSO PÚBLICO PARA A CELEBRAÇÃO DE CONTRATOS PÚBLICOS DE APROVISIONAMENTO PARA A ÁREA DA SAÚDE, COM VISTA AO FORNECIMENTO DE MATERIAL DE PREVENÇÃO E DETEÇÃO HIV ÀS INSTITUIÇÕES E SERVIÇOS DO SERVIÇO NACIONAL DE SAÚDE",FALSE
AP353 - 15004355 - Aquisição de 25 920 unidades de gel lubrificante à base de água,Ao abrigo de acordo-quadro (art.º 259.º),Aquisição de bens móveis,"33600000-6, Produtos farmacêuticos","Administração Regional de Saúde do Norte, I. P. (503135593)",Ezequiel Panão Jorge (501412727),"1.607,04 €",29-05-2015,06-05-2015,250 dias,"Portugal, Porto, Maia<BR/>Portugal, Vila Real, Vila Real",Artigo 259.º do Código dos Contratos Públicos,13-07-2015,"1.607,04 €",,,,611510,"CONCURSO PÚBLICO PARA A CELEBRAÇÃO DE CONTRATOS PÚBLICOS DE APROVISIONAMENTO PARA A ÁREA DA SAÚDE, COM VISTA AO FORNECIMENTO DE MATERIAL DE PREVENÇÃO E DETEÇÃO HIV ÀS INSTITUIÇÕES E SERVIÇOS DO SERVIÇO NACIONAL DE SAÚDE",FALSE
AP 554 - 15004559 - Aquisição de 1400 agulhas com aleta nº 21 e 1900 agulhas com aleta nº 23,Ao abrigo de acordo-quadro (art.º 259.º),Aquisição de bens móveis,"33140000-3, Material médico de consumo","Administração Regional de Saúde do Norte, I. P. (503135593)","Pergut - Heller Factoring Portuguesa, S.A. (501799729)","164,01 €",29-05-2015,08-05-2015,250 dias,"Portugal, Porto, Maia<BR/>Portugal, Vila Real, Vila Real",Artigo 259.º do Código dos Contratos Públicos,08-05-2015,"164,01 €",,,,1341769,"ACORDO QUADRO PARA FORNECIMENTO DE SERINGAS, AGULHAS E CONTENTORES ÀS INSTITUIÇÕES E SERVIÇOS DO SERVIÇO NACIONAL DE SAÚDE PROGRAMA DE CONCURSO",FALSE
"AP 554 - 15004559 - Aquisição de 250 000 seringas irrecuperável, 2 peças (2 ml)",Ao abrigo de acordo-quadro (art.º 259.º),Aquisição de bens móveis,"33140000-3, Material médico de consumo","Administração Regional de Saúde do Norte, I. P. (503135593)",Normax - Fábrica de Vidros Cientificos (500203130),"4.125,00 €",29-05-2015,12-05-2015,200 dias,"Portugal, Vila Real, Vila Real<BR/>Portugal, Porto, Maia",Artigo 259.º do Código dos Contratos Públicos,07-10-2015,"4.125,00 €",,,,1341769,"ACORDO QUADRO PARA FORNECIMENTO DE SERINGAS, AGULHAS E CONTENTORES ÀS INSTITUIÇÕES E SERVIÇOS DO SERVIÇO NACIONAL DE SAÚDE PROGRAMA DE CONCURSO",FALSE
Serviços de Manutenção das grandes UPS's,Ajuste Direto Regime Geral,Aquisição de serviços,"50324200-4, Serviços de manutenção preventiva","Administração Regional de Saúde do Norte, I. P. (503135593)","LCPOWER - Soluções de Energia, S.A. (503074675)","1.362,00 €",28-05-2015,27-03-2015,360 dias,"Portugal, Porto, Porto","Artigo 20.º, n.º 1, alínea a) do Código dos Contratos Públicos",07-05-2015,"1.362,00 €",,,,Não aplicável.,Não aplicável.,FALSE
Serviços de Reparação de Centrais Telefónicas,Ajuste Direto Regime Geral,Aquisição de serviços,"50334140-8, Serviços de reparação e manutenção de aparelhos telefónicos","Administração Regional de Saúde do Norte, I. P. (503135593)","Primacom - Projecto, Inst. Manutenção Comunicações, Lda (503114944)","636,00 €",28-05-2015,11-05-2015,3 dias,"Portugal, Porto, Porto","Artigo 20.º, n.º 1, alínea a) do Código dos Contratos Públicos",12-05-2015,"636,00 €",,,,Não aplicável.,Não aplicável.,FALSE
Aquisição de serviços de manutenção e assistência  técnica  ao software Labway Aprov-Prt 15003925,Ajuste Direto Regime Geral,Aquisição de serviços,"72260000-5, Serviços relacionados com software","Administração Regional de Saúde do Norte, I. P. (503135593)","Ambidata - Digital Innovation Solutions &  Consulting, Lda. (504673734)","10.582,00 €",28-05-2015,21-04-2015,360 dias,"Portugal, Porto, Porto","Artigo 24.º, n.º 1, alínea e) do Código dos Contratos Públicos",27-05-2015,"10.582,00 €",,,,Não aplicável.,Não aplicável.,FALSE
Serviços de Manutenção evolutiva e suporte ao Sistema de Informação de suporte e gestão documental,Ajuste Direto Regime Geral,Outros Tipos (Concessão de exploração de bens do domínio público),"72260000-5, Serviços relacionados com software","Administração Regional de Saúde do Norte,IP (ARSN) (503135593)","Link Consulting - Tecnologias de Informação, S.A, (504551221)","17.450,00 €",28-05-2015,20-04-2015,7 dias,"Portugal, Porto, Porto","Artigo 24.º, n.º 1, alínea e) do Código dos Contratos Públicos",22-07-2015,"17.450,00 €",,,,Não aplicável.,Não aplicável.,FALSE
"Aquisição de equipamento básico Médico-Cirúrgico, de laboratório e Mobiliário Hospitalar",Concurso público,Aquisição de bens móveis,"33100000-1, Equipamento médico","Administração Regional de Saúde do Norte, I. P. (503135593)",Prhofame (501891145),"27.162,95 €",25-05-2015,17-02-2015,330 dias,"Portugal, Vila Real, Vila Real<BR/>Portugal, Porto, Maia<BR/>Portugal, Distrito não determinado, Concelho não determinado",Artigo 155.º do Código dos Contratos Públicos,24-04-2015,"27.162,95 €",,,,Não aplicável.,Não aplicável.,FALSE
"Aquisição de 12 unidades de Tubo endotraqueal com cuff nº2,5",Concurso público,Aquisição de bens móveis,"33140000-3, Material médico de consumo","Administração Regional de Saúde do Norte, I. P. (503135593)","Overpharma, lda (505792362)","6,96 €",22-05-2015,17-11-2014,41 dias,"Portugal, Vila Real, Vila Real<BR/>Portugal, Porto, Maia<BR/>Portugal, Distrito não determinado, Concelho não determinado","Artigo 20.º, n.º 1, alínea b) do Código dos Contratos Públicos","","",,,,Não aplicável.,Não aplicável.,FALSE
Upgrade de Memórias BULL - Aprov-Prt 15004691,Ajuste Direto Regime Geral,Aquisição de bens móveis,"30234500-3, Meios de armazenamento de memória","Administração Regional de Saúde do Norte, I. P. (503135593)",GFI Portugal (502726890),"4.920,00 €",21-05-2015,14-04-2015,7 dias,"Portugal, Porto, Porto","Artigo 24.º, n.º 1, alínea e) do Código dos Contratos Públicos",30-04-2015,"4.920,00 €",,,,Não aplicável.,Não aplicável.,FALSE
