Objeto do Contrato,Tipo de Procedimento,Tipo(s) de Contrato,CPVs,Entidade(s) Adjudicante(s),Entidade(s) Adjudicatária(s),Preço Contratual,Data de Publicação,Data de Celebração do Contrato,Prazo de Execução,Local de Execução,Fundamentação,Data de Fecho do Contrato,Preço Total Efetivo,Causas das Alterações ao Prazo,Causas das Alterações ao Preço,Estado,N.º registo do Acordo Quadro,Descrição do Acordo Quadro,Procedimento Centralizado
11/00376.11/2018 - Aquisição de Medicamentos Exclusivos - Posições Desertas,Ajuste Direto Regime Geral,Aquisição de bens móveis,"33000000-0, Equipamento médico, medicamentos e produtos para cuidados pessoais","Centro Hospitalar de Entre o Douro e Vouga, E.P.E. (508878462)",DISTRIFARMA-CIA DIST.FARMAC. (502948663),"15.797,60 €",10-10-2018,21-03-2018,300 dias,"Portugal, Aveiro, Santa Maria da Feira","Artigo 24.º, n.º 1, alínea e), subalínea ii) do Código dos Contratos Públicos",,,,,,Não aplicável.,Não aplicável.,FALSE
Micromotor para cirurgia do ouvido e hipófise,Consulta Prévia,Aquisição de bens móveis,"33000000-0, Equipamento médico, medicamentos e produtos para cuidados pessoais","Centro Hospitalar de Entre o Douro e Vouga, E.P.E. (508878462)","Medtronic Portugal, Lda (504223933)","24.083,00 €",10-10-2018,20-09-2018,90 dias,"Portugal, Aveiro, Santa Maria da Feira","Artigo 20.º, n.º 1, alínea c) do Código dos Contratos Públicos",,,,,,Não aplicável.,Não aplicável.,FALSE
LS_11/00206.62/2018 - Contrato de Assistência Técnica e Manutenção ao Equipamento Marca Drager instalado no CHEDV,Ajuste Direto Regime Geral,Aquisição de serviços,"50420000-5, Serviços de reparação e manutenção de equipamento médico e cirúrgico","Centro Hospitalar de Entre o Douro e Vouga, E.P.E. (508878462)","Dräger Portugal, Lda (508771323)","80.000,00 €",10-10-2018,30-05-2018,365 dias,"Portugal, Aveiro, Santa Maria da Feira","Artigo 24.º, n.º 1, alínea e) do Código dos Contratos Públicos",,,,,,Não aplicável.,Não aplicável.,FALSE
LS_16/01719.62/2018 - Prestação de Serviços de Barbeiro,Consulta Prévia,Aquisição de serviços,"98321100-0, Serviços de barbearia","Centro Hospitalar de Entre o Douro e Vouga, E.P.E. (508878462)",Sérgio Leite Leal (237235994),"4.200,00 €",08-10-2018,18-07-2018,180 dias,"Portugal, Aveiro, Oliveira de Azemeis","Artigo 20.º, n.º 1, alínea c) do Código dos Contratos Públicos",,,,,,Não aplicável.,Não aplicável.,FALSE
LS_11/02136.62/2018 - Cat e Manutenção à aplicação Informática VC ObsCare instalada no CHEDV,Ajuste Direto Regime Geral,Aquisição de serviços,"71356000-8, Serviços técnicos","Centro Hospitalar de Entre o Douro e Vouga, E.P.E. (508878462)","VirtualCare, Lda (510394639)","9.949,98 €",08-10-2018,22-08-2018,365 dias,"Portugal, Aveiro, Santa Maria da Feira","Artigo 24.º, n.º 1, alínea e), subalínea ii) do Código dos Contratos Públicos",,,,,,Não aplicável.,Não aplicável.,FALSE
LS_11/01253.42/2018 - Sistema de Controlo de Dose - SECTRA Dose Track,Ajuste Direto Regime Geral,Locação de bens móveis,"48000000-8, Pacotes de software e sistemas de informação","Centro Hospitalar de Entre o Douro e Vouga, E.P.E. (508878462)",Art Ces (513270396),"4.500,00 €",04-10-2018,02-05-2018,30 dias,"Portugal, Aveiro, Santa Maria da Feira","Artigo 21.º, n.º 1, alínea c) do Código dos Contratos Públicos",,,,,,Não aplicável.,Não aplicável.,FALSE
DS_15/02073.27/2018 - Aquisição de Material Osteossíntese da Coluna Dorso-Lombar,Ajuste Direto Regime Geral,Aquisição de bens móveis,"33140000-3, Material médico de consumo","CENTRO HOSPITALAR DE ENTRE O DOURO E VOUGA, E.P.E. (508878462)",MEDTRONIC PORTUGAL LDA (504223933),"19.947,00 €",01-10-2018,01-08-2018,153 dias,"Portugal, Aveiro, Santa Maria da Feira","Artigo 20.º, n.º 1, alínea d) do Código dos Contratos Públicos",,,,,,Não aplicável.,Não aplicável.,FALSE
"AQUISIÇÃO DE SEGURO DE ACIDENTES DE TRABALHO PARA O CENTRO HOSPITALAR DE ENTRE DOURO E VOUGA, EPE",Concurso público,Aquisição de serviços,"66510000-8, Serviços de seguros","CENTRO HOSPITALAR DE ENTRE O DOURO E VOUGA, E.P.E. (508878462)",Sosel - Corretores de Seguros SA (502379707),"84.651,56 €",01-10-2018,28-09-2018,91 dias,"Portugal, Aveiro, Santa Maria da Feira","Artigo 20.º, n.º 1, alínea a) do Código dos Contratos Públicos",,,,,,Não aplicável.,Não aplicável.,FALSE
