Objeto do Contrato,Tipo de Procedimento,Tipo(s) de Contrato,CPVs,Entidade(s) Adjudicante(s),Entidade(s) Adjudicatária(s),Preço Contratual,Data de Publicação,Data de Celebração do Contrato,Prazo de Execução,Local de Execução,Fundamentação,Data de Fecho do Contrato,Preço Total Efetivo,Causas das Alterações ao Prazo,Causas das Alterações ao Preço,Estado,N.º registo do Acordo Quadro,Descrição do Acordo Quadro,Procedimento Centralizado
"31/22/2015 Abiraterona, cladribina e Doxorrubicina Lip. Peguilada",Ao abrigo de acordo-quadro (art.º 258.º),Locação de bens móveis,"33690000-3, Medicamentos vários","Centro Hospitalar do Algarve, E. P. E. (510745997)",JANSSEN CILAG FARMACEUTICA (500189412),"271.408,48 €",30-09-2015,23-10-2014,365 dias,"Portugal, Faro, Faro","Artigo 26.º, n.º 1, alínea e) do Código dos Contratos Públicos","","",,"",,1119467,"CONCURSO PÚBLICO PARA A CELEBRAÇÃO DE CONTRATOS PÚBLICOS DE APROVISIONAMENTO PARA A ÁREA DA SAÚDE, COM VISTA AO FORNECIMENTO DE MEDICAMENTOS DO FORO ONCOLÓGICO, ÀS INSTITUIÇÕES E SERVIÇOS DO SERVIÇO NACIONAL DE SAÚDE",FALSE
72/3168/2015 - Aquisição de Material de Consumo Clinico - 24,Ajuste Direto Regime Geral,Aquisição de bens móveis,"33140000-3, Material médico de consumo","Centro Hospitalar do Algarve, E. P. E. (510745997)",MUC.MATERIAL DE UTILID.CLINICA (502379308),"11.003,04 €",30-09-2015,29-09-2015,93 dias,"Portugal, Faro, Lagos<BR/>Portugal, Faro, Faro<BR/>Portugal, Faro, Portimão","Artigo 20.º, n.º 1, alínea a) do Código dos Contratos Públicos","","",,"",,Não aplicável.,Não aplicável.,FALSE
72/3168/2015 - Aquisição de Material de Consumo Clinico - 24,Ajuste Direto Regime Geral,Aquisição de bens móveis,"33140000-3, Material médico de consumo","Centro Hospitalar do Algarve, E. P. E. (510745997)","IBERDATA-EQUIPAMENTOS, SA (501904921)","240,00 €",30-09-2015,29-09-2015,93 dias,"Portugal, Faro, Lagos<BR/>Portugal, Faro, Faro<BR/>Portugal, Faro, Portimão","Artigo 20.º, n.º 1, alínea a) do Código dos Contratos Públicos","","",,"",,Não aplicável.,Não aplicável.,FALSE
72/3168/2015 - Aquisição de Material de Consumo Clinico - 24,Ajuste Direto Regime Geral,Aquisição de bens móveis,"33140000-3, Material médico de consumo","Centro Hospitalar do Algarve, E. P. E. (510745997)","MEDINFAR - SEROLÓGICO PRODUTOS E EQUIPAMENTOS, S.A. (501197052)","160,65 €",30-09-2015,29-09-2015,93 dias,"Portugal, Faro, Lagos<BR/>Portugal, Faro, Faro<BR/>Portugal, Faro, Portimão","Artigo 20.º, n.º 4 do Código dos Contratos Públicos","","",,"",,Não aplicável.,Não aplicável.,FALSE
31/64/2015 Medicamentos Darunavir e Etravirina,Ao abrigo de acordo-quadro (art.º 258.º),Aquisição de bens móveis,"33690000-3, Medicamentos vários","Centro Hospitalar do Algarve, E. P. E. (510745997)",JANSSEN CILAG FARMACEUTICA (500189412),"283.899,90 €",30-09-2015,23-10-2014,365 dias,"Portugal, Faro, Faro","Artigo 26.º, n.º 1, alínea e) do Código dos Contratos Públicos","","",,"",,1120578,"CONCURSO PÚBLICO PARA A CELEBRAÇÃO DE CONTRATOS PÚBLICOS DE APROVISIONAMENTO PARA A ÁREA DA SAÚDE, COM VISTA AO FORNECIMENTO DE MEDICAMENTOS ANTI-RETROVIRAIS, ÀS INSTITUIÇÕES E SERVIÇOS DO SERVIÇO NACIONAL DE SAÚDE  ",FALSE
61/3038/2015 - Medicamentos Óxido de zinco 150 mg/g,Ajuste Direto Regime Geral,Aquisição de bens móveis,"33690000-3, Medicamentos vários","Centro Hospitalar do Algarve, E. P. E. (510745997)","Laboratório Medinfar-Produtos Farmacêuticos, SA (500384045)","1.840,00 €",30-09-2015,15-09-2015,107 dias,"Portugal, Faro, Faro","Artigo 24.º, n.º 1, alínea e) do Código dos Contratos Públicos","","",,"",,Não aplicável.,Não aplicável.,FALSE
61/3036/2015 - Medicamentos Clemastina 2 mg/2ml,Ajuste Direto Regime Geral,Aquisição de bens móveis,"33690000-3, Medicamentos vários","Centro Hospitalar do Algarve, E. P. E. (510745997)","GlaxoSmithKline Consumer Healthcare, Lda (500276994)","2.132,10 €",30-09-2015,15-09-2015,107 dias,"Portugal, Faro, Faro","Artigo 24.º, n.º 1, alínea e) do Código dos Contratos Públicos","","",,"",,Não aplicável.,Não aplicável.,FALSE
21/2759/2015 Medicamentos Imunoglobulina Humana normal 50 mg/ml,Concurso público,Aquisição de bens móveis,"33690000-3, Medicamentos vários","Centro Hospitalar do Algarve, E. P. E. (510745997)",OCTAFHARMA- PROD. FARMACEUTICO (502820780),"45.750,00 €",30-09-2015,09-09-2015,113 dias,"Portugal, Faro, Faro","Artigo 20.º, n.º 1, alínea b) do Código dos Contratos Públicos","","",,"",,Não aplicável.,Não aplicável.,FALSE
61/3019/2015 - Medicamentos Cianocobalamina 1 mg/1 ml,Ajuste Direto Regime Geral,Aquisição de bens móveis,"33690000-3, Medicamentos vários","Centro Hospitalar do Algarve, E. P. E. (510745997)","Labesfal-Laboratórios Almiro, SA (501169580)","1.330,00 €",30-09-2015,23-09-2015,99 dias,"Portugal, Faro, Faro","Artigo 24.º, n.º 1, alínea e) do Código dos Contratos Públicos","","",,"",,Não aplicável.,Não aplicável.,FALSE
61/3018/2015 - Medicamentos Perindopril 5 mg,Ajuste Direto Regime Geral,Aquisição de bens móveis,"33690000-3, Medicamentos vários","Centro Hospitalar do Algarve, E. P. E. (510745997)","Servier Portugal, lda (502177420)","369,90 €",30-09-2015,25-09-2015,97 dias,"Portugal, Faro, Faro","Artigo 24.º, n.º 1, alínea e) do Código dos Contratos Públicos","","",,"",,Não aplicável.,Não aplicável.,FALSE
61/3040/2015 - Medicamentos amidotrizoato de meglumina + amidotrizoato de sódio,Ajuste Direto Regime Geral,Aquisição de bens móveis,"33690000-3, Medicamentos vários","Centro Hospitalar do Algarve, E. P. E. (510745997)","Bayer Portugal, SA (500043256)","150,00 €",30-09-2015,11-09-2015,111 dias,"Portugal, Faro, Faro","Artigo 24.º, n.º 1, alínea e) do Código dos Contratos Públicos","","",,"",,Não aplicável.,Não aplicável.,FALSE
21/1654/2015 Reagentes para Autoimunidade por Imunofluorescência e imunoblot,Concurso público,Aquisição de bens móveis,"33696500-0, Reagentes de laboratório","Centro Hospitalar do Algarve, E. P. E. (510745997)","GRIFOLS PORTUGAL, LDA. (502041285)","14.630,00 €",30-09-2015,08-05-2015,237 dias,"Portugal, Faro, Faro","Artigo 20.º, n.º 1, alínea b) do Código dos Contratos Públicos","","",,"",,Não aplicável.,Não aplicável.,FALSE
61/2932/2015 - Medicamentos Ulipristal 5 mg,Ajuste Direto Regime Geral,Aquisição de bens móveis,"33690000-3, Medicamentos vários","Centro Hospitalar do Algarve, E. P. E. (510745997)","Logifarma-Logistica Farmacêutica, SA (503934640)","11.135,70 €",30-09-2015,09-09-2015,119 dias,"Portugal, Faro, Faro","Artigo 24.º, n.º 1, alínea e) do Código dos Contratos Públicos","","",,"",,Não aplicável.,Não aplicável.,FALSE
61/2819/2015 - Reagentes para Bioquimica,Ajuste Direto Regime Geral,Aquisição de bens móveis,"33696500-0, Reagentes de laboratório","Centro Hospitalar do Algarve, E. P. E. (510745997)","Roche Sistemas Diagnostico, Lda (504282921)","15.573,22 €",30-09-2015,02-09-2015,122 dias,"Portugal, Faro, Faro","Artigo 24.º, n.º 1, alínea e) do Código dos Contratos Públicos","","",,"",,Não aplicável.,Não aplicável.,FALSE
61/2802/2015 - Reagentes p/Imunoquimica,Ajuste Direto Regime Geral,Aquisição de bens móveis,"33696500-0, Reagentes de laboratório","Centro Hospitalar do Algarve, E. P. E. (510745997)","Abbott Laboratórios, Lda. (500006148)","97.604,63 €",30-09-2015,15-09-2015,121 dias,"Portugal, Faro, Faro","Artigo 24.º, n.º 1, alínea e) do Código dos Contratos Públicos","","",,"",,Não aplicável.,Não aplicável.,FALSE
Equipamento Desportivo - Equipa Feminina Futsal - 74/00003173/2015,Ajuste Direto Regime Geral,Aquisição de bens móveis,"18412000-0, Vestuário de desporto","Centro Hospitalar do Algarve, E. P. E. (510745997)","SPORT ZONE - COMERCIO DE ARTIGOS DE DESPORTO, SA (503646776)","16,18 €",30-09-2015,28-09-2015,5 dias,"Portugal, Faro, Faro","Artigo 20.º, n.º 1, alínea a) do Código dos Contratos Públicos","","",,"",,Não aplicável.,Não aplicável.,FALSE
Equipamento Desportivo - Equipa Feminina Futsal - 74/00003173/2015,Ajuste Direto Regime Geral,Aquisição de bens móveis,"18412000-0, Vestuário de desporto","Centro Hospitalar do Algarve, E. P. E. (510745997)",DECATHLON FARO (503074586),"234,73 €",30-09-2015,28-09-2015,5 dias,"Portugal, Faro, Faro","Artigo 20.º, n.º 1, alínea a) do Código dos Contratos Públicos","","",,"",,Não aplicável.,Não aplicável.,FALSE
Equipamento Desportivo - Equipa Feminina Futsal - 74/00003173/2015,Ajuste Direto Regime Geral,Aquisição de bens móveis,"18412000-0, Vestuário de desporto","Centro Hospitalar do Algarve, E. P. E. (510745997)","Adidas Portugal, SA (501316124)","8,13 €",30-09-2015,28-09-2015,5 dias,"Portugal, Faro, Faro","Artigo 20.º, n.º 1, alínea a) do Código dos Contratos Públicos","","",,"",,Não aplicável.,Não aplicável.,FALSE
61/2661/2015 - Medicamentos - Entecavir 0.5 mg,Ajuste Direto Regime Geral,Aquisição de bens móveis,"33690000-3, Medicamentos vários","Centro Hospitalar do Algarve, E. P. E. (510745997)",Bristol Myers Squibb Farmacêutica Portuguesa. SA (500048193),"29.777,16 €",30-09-2015,21-08-2015,142 dias,"Portugal, Faro, Faro","Artigo 24.º, n.º 1, alínea e) do Código dos Contratos Públicos","","",,"",,Não aplicável.,Não aplicável.,FALSE
61/2664/2015 -  Medicamentos - Octreotido 30 mg,Ajuste Direto Regime Geral,Aquisição de bens móveis,"33690000-3, Medicamentos vários","Centro Hospitalar do Algarve, E. P. E. (510745997)","Novartis Farma - Produtos Farmacêuticos, SA (500063524)","29.628,76 €",30-09-2015,17-08-2015,142 dias,"Portugal, Faro, Faro","Artigo 24.º, n.º 1, alínea e) do Código dos Contratos Públicos","","",,"",,Não aplicável.,Não aplicável.,FALSE
61/2678/2015 - Reagentes Imunologia,Ajuste Direto Regime Geral,Aquisição de bens móveis,"33696500-0, Reagentes de laboratório","Centro Hospitalar do Algarve, E. P. E. (510745997)","Roche Sistemas Diagnostico, Lda (504282921)","22.805,39 €",30-09-2015,02-09-2015,125 dias,"Portugal, Faro, Faro","Artigo 24.º, n.º 1, alínea e) do Código dos Contratos Públicos","","",,"",,Não aplicável.,Não aplicável.,FALSE
61/2482/2015 - Medicamentos Gentamicina 130 mg,Ajuste Direto Regime Geral,Aquisição de bens móveis,"33690000-3, Medicamentos vários","Centro Hospitalar do Algarve, E. P. E. (510745997)",EusaPharma SAS (424347011),"10.800,00 €",30-09-2015,12-08-2015,167 dias,"Portugal, Faro, Faro","Artigo 24.º, n.º 1, alínea e) do Código dos Contratos Públicos","","",,"",,Não aplicável.,Não aplicável.,FALSE
61/378/2015 - Reagentes para Citologia e Citologia não Ginecologica,Ajuste Direto Regime Geral,Aquisição de bens móveis,"33690000-3, Medicamentos vários","Centro Hospitalar do Algarve, E. P. E. (510745997)","Hologic Ibérica, S.L. (B-83279331)","21.514,80 €",30-09-2015,04-02-2015,346 dias,"Portugal, Faro, Faro","Artigo 24.º, n.º 1, alínea e) do Código dos Contratos Públicos","","",,"",,Não aplicável.,Não aplicável.,FALSE
41/168/2015 Medicamentos Anestesicos e relaxantes Musculares,Ao abrigo de acordo-quadro (art.º 259.º),Aquisição de bens móveis,"33690000-3, Medicamentos vários","Centro Hospitalar do Algarve, E. P. E. (510745997)","SANOFI - PRODUTOS FARMACÊUTICOS, LDA. (500134960), LABESFAL, Laboratório AlmiroS.A. (501169580), MERCK SHARP & DHOME,LDA. (500191360), HIKMA FARMACEUTICA,LDA (502266791), FRESENIUS KABI PHARMA PORTUGAL, LDA (504293753), HOSPIRA PORTUGAL, LDA. (502918098), BAXTER MEDICO-FARMACEUTICA,LDA (503347345), BLUEMED Unipessoal ,Lda (509912060), B. BRAUN MEDICAL,LDA. (501506543), GENERIS FARMACEUTICA,SA (508107997), SIDEFARMA, S.A. (500717419), Laboratórios Normon, S.A. (505654156), Glaxo SmithKline - Produtos Farmacêutico, Lda.  (500139962), QUILABAN,LDA. (500399670)","238.761,08 €",30-09-2015,27-11-2014,365 dias,"Portugal, Faro, Faro",Artigo 259.º do Código dos Contratos Públicos,"","",,"",,611371,"CONCURSO PÚBLICO PARA A CELEBRAÇÃO DE CONTRATOS PÚBLICOS DE APROVISIONAMENTO PARA A ÁREA DA SAÚDE, COM VISTA AO FORNECIMENTO DE MEDICAMENTOS ANESTÉSICOS E RELAXANTES MUSCULARES, ÀS INSTITUIÇÕES E SERVIÇOS DO SERVIÇO NACIONAL DE SAÚDE    ",FALSE
72/3165/2015 - Aquisição de Material de Consumo Clinico - 31621,Ajuste Direto Regime Geral,Aquisição de bens móveis,"33140000-3, Material médico de consumo","Centro Hospitalar do Algarve, E. P. E. (510745997)","MEDTRONIC PORTUGAL, LDA. (504223933)","1.040,00 €",30-09-2015,29-09-2015,93 dias,"Portugal, Faro, Lagos<BR/>Portugal, Faro, Portimão<BR/>Portugal, Faro, Faro","Artigo 20.º, n.º 1, alínea a) do Código dos Contratos Públicos","","",,"",,Não aplicável.,Não aplicável.,FALSE
61/373/2015 - Medicamentos Estavudina 30 mg e Entecavir 0.5 mg,Ajuste Direto Regime Geral,Aquisição de bens móveis,"33690000-3, Medicamentos vários","Centro Hospitalar do Algarve, E. P. E. (510745997)","Bristol Myers Squibb Farmacêutica Portuguesa, S.A. (500048193)","33.765,27 €",30-09-2015,26-01-2015,352 dias,"Portugal, Faro, Faro","Artigo 24.º, n.º 1, alínea e) do Código dos Contratos Públicos","","",,"",,Não aplicável.,Não aplicável.,FALSE
72/3165/2015 - Aquisição de Material de Consumo Clinico - 31621,Ajuste Direto Regime Geral,Aquisição de bens móveis,"33140000-3, Material médico de consumo","Centro Hospitalar do Algarve, E. P. E. (510745997)","EZEQUIEL PANAO JORGE,LDA (501412727)","372,00 €",30-09-2015,29-09-2015,93 dias,"Portugal, Faro, Lagos<BR/>Portugal, Faro, Faro<BR/>Portugal, Faro, Portimão","Artigo 20.º, n.º 1, alínea a) do Código dos Contratos Públicos","","",,"",,Não aplicável.,Não aplicável.,FALSE
72/3165/2015 - Aquisição de Material de Consumo Clinico - 31621,Ajuste Direto Regime Geral,Aquisição de bens móveis,"33140000-3, Material médico de consumo","Centro Hospitalar do Algarve, E. P. E. (510745997)",GRUPO VITALINO SA. (513083162),"14,44 €",30-09-2015,29-09-2015,93 dias,"Portugal, Faro, Lagos<BR/>Portugal, Faro, Faro<BR/>Portugal, Faro, Portimão","Artigo 20.º, n.º 1, alínea a) do Código dos Contratos Públicos","","",,"",,Não aplicável.,Não aplicável.,FALSE
72/3165/2015 - Aquisição de Material de Consumo Clinico - 31621,Ajuste Direto Regime Geral,Aquisição de bens móveis,"33140000-3, Material médico de consumo","Centro Hospitalar do Algarve, E. P. E. (510745997)","SMITH & NEPHEW, LDª (503552461)","6.360,00 €",30-09-2015,29-09-2015,93 dias,"Portugal, Faro, Portimão<BR/>Portugal, Faro, Lagos<BR/>Portugal, Faro, Faro","Artigo 20.º, n.º 1, alínea a) do Código dos Contratos Públicos","","",,"",,Não aplicável.,Não aplicável.,FALSE
72/3165/2015 - Aquisição de Material de Consumo Clinico - 31621,Ajuste Direto Regime Geral,Aquisição de bens móveis,"33140000-3, Material médico de consumo","Centro Hospitalar do Algarve, E. P. E. (510745997)","QUILABAN,LDA. (500399670)","33,60 €",30-09-2015,29-09-2015,93 dias,"Portugal, Faro, Lagos<BR/>Portugal, Faro, Portimão<BR/>Portugal, Faro, Faro","Artigo 20.º, n.º 1, alínea a) do Código dos Contratos Públicos","","",,"",,Não aplicável.,Não aplicável.,FALSE
72/3165/2015 - Aquisição de Material de Consumo Clinico - 31621,Ajuste Direto Regime Geral,Aquisição de bens móveis,"33140000-3, Material médico de consumo","Centro Hospitalar do Algarve, E. P. E. (510745997)","OVERPHARMA,LDA. (505792362)","83,00 €",30-09-2015,29-09-2015,93 dias,"Portugal, Faro, Lagos<BR/>Portugal, Faro, Faro<BR/>Portugal, Faro, Portimão","Artigo 20.º, n.º 1, alínea a) do Código dos Contratos Públicos","","",,"",,Não aplicável.,Não aplicável.,FALSE
72/3165/2015 - Aquisição de Material de Consumo Clinico - 31621,Ajuste Direto Regime Geral,Aquisição de bens móveis,"33140000-3, Material médico de consumo","Centro Hospitalar do Algarve, E. P. E. (510745997)",Docworld – Dispositivos Médicos (508592909),"707,00 €",30-09-2015,29-09-2015,93 dias,"Portugal, Faro, Portimão<BR/>Portugal, Faro, Lagos<BR/>Portugal, Faro, Faro","Artigo 20.º, n.º 1, alínea a) do Código dos Contratos Públicos","","",,"",,Não aplicável.,Não aplicável.,FALSE
72/3165/2015 - Aquisição de Material de Consumo Clinico - 31621,Ajuste Direto Regime Geral,Aquisição de bens móveis,"33140000-3, Material médico de consumo","Centro Hospitalar do Algarve, E. P. E. (510745997)",ORSICA-CENTRO TECNICO ORTOPEDICO (144745038),"440,40 €",30-09-2015,29-09-2015,93 dias,"Portugal, Faro, Faro<BR/>Portugal, Faro, Lagos<BR/>Portugal, Faro, Portimão","Artigo 20.º, n.º 1, alínea a) do Código dos Contratos Públicos","","",,"",,Não aplicável.,Não aplicável.,FALSE
72/3165/2015 - Aquisição de Material de Consumo Clinico - 31621,Ajuste Direto Regime Geral,Aquisição de bens móveis,"33140000-3, Material médico de consumo","Centro Hospitalar do Algarve, E. P. E. (510745997)","BASTOS VIEGAS,SA (500042772)","460,80 €",30-09-2015,29-09-2015,93 dias,"Portugal, Faro, Lagos<BR/>Portugal, Faro, Portimão<BR/>Portugal, Faro, Faro","Artigo 20.º, n.º 1, alínea a) do Código dos Contratos Públicos","","",,"",,Não aplicável.,Não aplicável.,FALSE
72/3165/2015 - Aquisição de Material de Consumo Clinico - 31621,Ajuste Direto Regime Geral,Aquisição de bens móveis,"33140000-3, Material médico de consumo","Centro Hospitalar do Algarve, E. P. E. (510745997)",ALBINO DIAS ANDRADE LDA (500013810),"1.120,95 €",30-09-2015,29-09-2015,93 dias,"Portugal, Faro, Faro<BR/>Portugal, Faro, Lagos<BR/>Portugal, Faro, Portimão","Artigo 20.º, n.º 1, alínea a) do Código dos Contratos Públicos","","",,"",,Não aplicável.,Não aplicável.,FALSE
61/2437/2015 - Kits Oftalmologia,Ajuste Direto Regime Geral,Aquisição de bens móveis,"33690000-3, Medicamentos vários","Centro Hospitalar do Algarve, E. P. E. (510745997)","Fase 4 Projetos Clinicos e Farmacêuticos, Lda (502840714)","12.635,00 €",30-09-2015,14-07-2015,184 dias,"Portugal, Faro, Faro","Artigo 24.º, n.º 1, alínea e) do Código dos Contratos Públicos","","",,"",,Não aplicável.,Não aplicável.,FALSE
72/3092/2015 - Aquisição de Material de Consumo Clinico,Ajuste Direto Regime Geral,Aquisição de bens móveis,"33140000-3, Material médico de consumo","Centro Hospitalar do Algarve, E. P. E. (510745997)","HR  HOSPITALAR,Unipessoal, LDA (501895558)","280,80 €",30-09-2015,29-09-2015,93 dias,"Portugal, Faro, Lagos<BR/>Portugal, Faro, Faro<BR/>Portugal, Faro, Portimão","Artigo 20.º, n.º 1, alínea a) do Código dos Contratos Públicos","","",,"",,Não aplicável.,Não aplicável.,FALSE
31/93/2015 Medicamentos Ustecinumab 45 mg,Ao abrigo de acordo-quadro (art.º 258.º),Locação de bens móveis,"33690000-3, Medicamentos vários","Centro Hospitalar do Algarve, E. P. E. (510745997)",JANSSEN CILAG FARMACEUTICA (500189412),"328.498,80 €",30-09-2015,23-10-2014,365 dias,"Portugal, Faro, Faro","Artigo 26.º, n.º 1, alínea e) do Código dos Contratos Públicos","","",,"",,1119467,"CONCURSO PÚBLICO PARA A CELEBRAÇÃO DE CONTRATOS PÚBLICOS DE APROVISIONAMENTO PARA A ÁREA DA SAÚDE, COM VISTA AO FORNECIMENTO DE MEDICAMENTOS DO FORO ONCOLÓGICO, ÀS INSTITUIÇÕES E SERVIÇOS DO SERVIÇO NACIONAL DE SAÚDE",FALSE
72/3092/2015 - Aquisição de Material de Consumo Clinico,Ajuste Direto Regime Geral,Aquisição de bens móveis,"33140000-3, Material médico de consumo","Centro Hospitalar do Algarve, E. P. E. (510745997)","COVIDIEN PORTUGAL - PRODUTOS  DE SAUDE, UNIPESSOAL, LDA. (503413410)","220,32 €",30-09-2015,29-09-2015,93 dias,"Portugal, Faro, Lagos<BR/>Portugal, Faro, Faro<BR/>Portugal, Faro, Portimão","Artigo 20.º, n.º 1, alínea a) do Código dos Contratos Públicos","","",,"",,Não aplicável.,Não aplicável.,FALSE
72/3092/2015 - Aquisição de Material de Consumo Clinico,Ajuste Direto Regime Geral,Aquisição de bens móveis,"33140000-3, Material médico de consumo","Centro Hospitalar do Algarve, E. P. E. (510745997)",BSN Medical (505385058),"33,00 €",30-09-2015,29-09-2015,93 dias,"Portugal, Faro, Portimão<BR/>Portugal, Faro, Faro<BR/>Portugal, Faro, Lagos","Artigo 20.º, n.º 1, alínea a) do Código dos Contratos Públicos","","",,"",,Não aplicável.,Não aplicável.,FALSE
72/3092/2015 - Aquisição de Material de Consumo Clinico,Ajuste Direto Regime Geral,Aquisição de bens móveis,"33140000-3, Material médico de consumo","Centro Hospitalar do Algarve, E. P. E. (510745997)","B. BRAUN MEDICAL,LDA. (501506543)","1.843,52 €",30-09-2015,29-09-2015,93 dias,"Portugal, Faro, Lagos<BR/>Portugal, Faro, Portimão<BR/>Portugal, Faro, Faro","Artigo 20.º, n.º 1, alínea a) do Código dos Contratos Públicos","","",,"",,Não aplicável.,Não aplicável.,FALSE
72/3092/2015 - Aquisição de Material de Consumo Clinico,Ajuste Direto Regime Geral,Aquisição de bens móveis,"33140000-3, Material médico de consumo","Centro Hospitalar do Algarve, E. P. E. (510745997)",ANASTACIO SALDANHA UNIPESSOAL (505804441),"212,90 €",30-09-2015,29-09-2015,93 dias,"Portugal, Faro, Lagos<BR/>Portugal, Faro, Faro<BR/>Portugal, Faro, Portimão","Artigo 20.º, n.º 1, alínea a) do Código dos Contratos Públicos","","",,"",,Não aplicável.,Não aplicável.,FALSE
72/3175/15 - Aquisição de Material p/ Gastro,Ajuste Direto Regime Geral,Aquisição de bens móveis,"33190000-8, Dispositivos e produtos médicos variados","Centro Hospitalar do Algarve, E. P. E. (510745997)","OLYMPUS IBERIA, s.a.u. (980474710)","58,00 €",30-09-2015,28-09-2015,5 dias,"Portugal, Faro, Faro<BR/>Portugal, Faro, Lagos<BR/>Portugal, Faro, Portimão","Artigo 20.º, n.º 1, alínea a) do Código dos Contratos Públicos","","",,"",,Não aplicável.,Não aplicável.,FALSE
72/3175/15 - Aquisição de Material p/Gastro,Ajuste Direto Regime Geral,Aquisição de bens móveis,"33140000-3, Material médico de consumo","Centro Hospitalar do Algarve, E. P. E. (510745997)",ENDOTÉCNICA - Soluções Hospitalares  (503818348),"1.009,00 €",30-09-2015,28-09-2015,5 dias,"Portugal, Faro, Faro<BR/>Portugal, Faro, Portimão<BR/>Portugal, Faro, Lagos","Artigo 20.º, n.º 1, alínea a) do Código dos Contratos Públicos","","",,"",,Não aplicável.,Não aplicável.,FALSE
72/3175/15 - Aquisição de Material p/Gastro,Ajuste Direto Regime Geral,Aquisição de bens móveis,"33140000-3, Material médico de consumo","Centro Hospitalar do Algarve, E. P. E. (510745997)","ALVES & CA(IRMAOS),LDA. (500310068)","225,60 €",30-09-2015,28-09-2015,5 dias,"Portugal, Faro, Lagos<BR/>Portugal, Faro, Faro<BR/>Portugal, Faro, Portimão","Artigo 20.º, n.º 1, alínea a) do Código dos Contratos Públicos","","",,"",,Não aplicável.,Não aplicável.,FALSE
31/445/2015 Medicmantos Anagrelida,Ao abrigo de acordo-quadro (art.º 258.º),Aquisição de bens móveis,"33690000-3, Medicamentos vários","Centro Hospitalar do Algarve, E. P. E. (510745997)","Shire Pharmaceuticals Portugal, Lda. (509264662)","32.703,75 €",29-09-2015,10-02-2015,324 dias,"Portugal, Faro, Faro","Artigo 26.º, n.º 1, alínea e) do Código dos Contratos Públicos","","",,"",,1224054,"CONCURSO PÚBLICO PARA A CELEBRAÇÃO DE CONTRATOS PÚBLICOS DE APROVISIONAMENTO PARA A ÁREA DA SAÚDE, COM VISTA AO FORNECIMENTO DE MEDICAMENTOS DO FORO ONCOLÓGICO II, ÀS INSTITUIÇÕES E SERVIÇOS DO SERVIÇO NACIONAL DE SAÚDE  ",FALSE
31/421/2015 Medicamentos Metilprednisolona,Ao abrigo de acordo-quadro (art.º 258.º),Aquisição de bens móveis,"33690000-3, Medicamentos vários","Centro Hospitalar do Algarve, E. P. E. (510745997)","LABORATÓRIOS PFIZER, LDA. (500162166)","22.220,00 €",29-09-2015,08-01-2015,357 dias,"Portugal, Faro, Faro","Artigo 26.º, n.º 1, alínea e) do Código dos Contratos Públicos","","",,"",,603979,"CONCURSO PÚBLICO PARA A CELEBRAÇÃO DE CONTRATOS PÚBLICOS DE APROVISIONAMENTO PARA A ÁREA DA SAÚDE, COM VISTA AO FORNECIMENTO DE HORMONAS E OUTROS MEDICAMENTOS USADOS NO TRATAMENTO DAS DOENÇAS ENDÓCRINAS, ÀS INSTITUIÇÕES E SERVIÇOS DO SERVIÇO NACIONAL DE SAÚDE",FALSE
31/252/2015 Medicamento Emtricitabina 200mg+Tenofovir 245mg,Ao abrigo de acordo-quadro (art.º 258.º),Aquisição de bens móveis,"33690000-3, Medicamentos vários","Centro Hospitalar do Algarve, E. P. E. (510745997)","Gilead Sciences, Lda. (503604704)","949.616,82 €",29-09-2015,27-03-2015,279 dias,"Portugal, Faro, Faro","Artigo 26.º, n.º 1, alínea e) do Código dos Contratos Públicos","","",,"",,1120578,"CONCURSO PÚBLICO PARA A CELEBRAÇÃO DE CONTRATOS PÚBLICOS DE APROVISIONAMENTO PARA A ÁREA DA SAÚDE, COM VISTA AO FORNECIMENTO DE MEDICAMENTOS ANTI-RETROVIRAIS, ÀS INSTITUIÇÕES E SERVIÇOS DO SERVIÇO NACIONAL DE SAÚDE  ",FALSE
31/2239/2015 Medicamentos Emtricitabina+Rilpivirina+Tenofovir,Ao abrigo de acordo-quadro (art.º 258.º),Aquisição de bens móveis,"33690000-3, Medicamentos vários","Centro Hospitalar do Algarve, E. P. E. (510745997)","Gilead Sciences, Lda. (503604704)","708.000,00 €",29-09-2015,09-06-2015,205 dias,"Portugal, Faro, Faro","Artigo 26.º, n.º 1, alínea e) do Código dos Contratos Públicos","","",,"",,1120578,"CONCURSO PÚBLICO PARA A CELEBRAÇÃO DE CONTRATOS PÚBLICOS DE APROVISIONAMENTO PARA A ÁREA DA SAÚDE, COM VISTA AO FORNECIMENTO DE MEDICAMENTOS ANTI-RETROVIRAIS, ÀS INSTITUIÇÕES E SERVIÇOS DO SERVIÇO NACIONAL DE SAÚDE  ",FALSE
31/1320/2015 Vacina pneumocócica poliosídica Sol inj Ser 0.5 ml IM SC,Ao abrigo de acordo-quadro (art.º 258.º),Aquisição de bens móveis,"33690000-3, Medicamentos vários","Centro Hospitalar do Algarve, E. P. E. (510745997)",Sanofi Pastuer MSD (507632796),"246,60 €",29-09-2015,21-04-2015,254 dias,"Portugal, Faro, Faro","Artigo 26.º, n.º 1, alínea e) do Código dos Contratos Públicos","","",,"",,610556,"CONCURSO PÚBLICO PARA A CELEBRAÇÃO DE CONTRATOS PÚBLICOS DE APROVISIONAMENTO PARA A ÁREA DA SAÚDE, COM VISTA AO FORNECIMENTO DE VACINAS E TUBERCULINAS, ÀS INSTITUIÇÕES E SERVIÇOS DO SERVIÇO NACIONAL DE SAÚDE",FALSE
"31/1289/2015 Medicamentos Brinzolamida 10mg/ml Col, susp Fr 5 ml",Ao abrigo de acordo-quadro (art.º 258.º),Aquisição de bens móveis,"33690000-3, Medicamentos vários","Centro Hospitalar do Algarve, E. P. E. (510745997)",ALCON PORTUGAL (501251685),"61,92 €",29-09-2015,17-02-2015,317 dias,"Portugal, Faro, Faro","Artigo 26.º, n.º 1, alínea e) do Código dos Contratos Públicos","","",,"",,1377420,Acordo quadro para fornecimento de medicamentos usados nas afecções oculares e otorrinolaringologias às instituições e serviços do serviço nacional de saúde,FALSE
Aquisição sensores e cabos - 66/00001355/2015,Ajuste Direto Regime Geral,Aquisição de bens móveis,"33140000-3, Material médico de consumo","Centro Hospitalar do Algarve, E. P. E. (510745997)","SANO-TECNICA,LDA. (500239819)","11.126,00 €",28-09-2015,31-03-2015,365 dias,"Portugal, Faro, Portimão<BR/>Portugal, Faro, Lagos<BR/>Portugal, Faro, Faro","Artigo 20.º, n.º 1, alínea a) do Código dos Contratos Públicos","","",,"",,Não aplicável.,Não aplicável.,FALSE
Aquisição de Material Administrativo - 75/00003149/2015,Ajuste Direto Regime Geral,Aquisição de bens móveis,"30192000-1, Material de escritório","Centro Hospitalar do Algarve, E. P. E. (510745997)","SOCIEDADE ACESSORIOS ESCRITORIO, LDA --- (SAPEL) (500242194)","12,06 €",28-09-2015,24-09-2015,7 dias,"Portugal, Faro, Portimão<BR/>Portugal, Faro, Faro<BR/>Portugal, Faro, Lagos","Artigo 20.º, n.º 1, alínea a) do Código dos Contratos Públicos","","",,"",,Não aplicável.,Não aplicável.,FALSE
Aquisição de Material Administrativo - 75/00003149/2015,Ajuste Direto Regime Geral,Aquisição de bens móveis,"30192000-1, Material de escritório","Centro Hospitalar do Algarve, E. P. E. (510745997)","COPIDATA ,S.A. (508225140)","821,50 €",28-09-2015,24-09-2015,7 dias,"Portugal, Faro, Portimão<BR/>Portugal, Faro, Lagos<BR/>Portugal, Faro, Faro","Artigo 20.º, n.º 1, alínea a) do Código dos Contratos Públicos","","",,"",,Não aplicável.,Não aplicável.,FALSE
Aquisição de Material Administrativo - 75/00003149/2015,Ajuste Direto Regime Geral,Aquisição de bens móveis,"30192000-1, Material de escritório","Centro Hospitalar do Algarve, E. P. E. (510745997)",PAPELARIA E LIVRARIA SAGRES (501212973),"1.747,69 €",28-09-2015,24-09-2015,7 dias,"Portugal, Faro, Faro<BR/>Portugal, Faro, Portimão<BR/>Portugal, Faro, Lagos","Artigo 20.º, n.º 1, alínea a) do Código dos Contratos Públicos","","",,"",,Não aplicável.,Não aplicável.,FALSE
Aquisição de Material Administrativo - 75/00003149/2015,Ajuste Direto Regime Geral,Aquisição de bens móveis,"30192000-1, Material de escritório","Centro Hospitalar do Algarve, E. P. E. (510745997)",OLMAR.FERNADO G.OLIVEIRA & CA. (500440263),"404,12 €",28-09-2015,24-09-2015,7 dias,"Portugal, Faro, Faro<BR/>Portugal, Faro, Portimão<BR/>Portugal, Faro, Lagos","Artigo 20.º, n.º 1, alínea a) do Código dos Contratos Públicos","","",,"",,Não aplicável.,Não aplicável.,FALSE
Aquisição de Material Administrativo - 75/00003149/2015,Ajuste Direto Regime Geral,Aquisição de bens móveis,"30192000-1, Material de escritório","Centro Hospitalar do Algarve, E. P. E. (510745997)",Vitatech Lda  (510693660),"15,00 €",28-09-2015,24-09-2015,7 dias,"Portugal, Faro, Faro<BR/>Portugal, Faro, Lagos<BR/>Portugal, Faro, Portimão","Artigo 20.º, n.º 1, alínea a) do Código dos Contratos Públicos","","",,"",,Não aplicável.,Não aplicável.,FALSE
Aquisição de Material Administrativo - 75/00003149/2015,Ajuste Direto Regime Geral,Aquisição de bens móveis,"30192000-1, Material de escritório","Centro Hospitalar do Algarve, E. P. E. (510745997)",Marcos de Azevedo Dias (108701476),"700,00 €",28-09-2015,24-09-2015,7 dias,"Portugal, Faro, Lagos<BR/>Portugal, Faro, Portimão<BR/>Portugal, Faro, Faro","Artigo 20.º, n.º 1, alínea a) do Código dos Contratos Públicos","","",,"",,Não aplicável.,Não aplicável.,FALSE
Aquisição de Material Administrativo - 75/00003149/2015,Ajuste Direto Regime Geral,Aquisição de bens móveis,"30192000-1, Material de escritório","Centro Hospitalar do Algarve, E. P. E. (510745997)","KoisasKomideias, Lda. (507911989)","235,00 €",28-09-2015,24-09-2015,7 dias,"Portugal, Faro, Lagos<BR/>Portugal, Faro, Faro<BR/>Portugal, Faro, Portimão","Artigo 20.º, n.º 1, alínea a) do Código dos Contratos Públicos","","",,"",,Não aplicável.,Não aplicável.,FALSE
Aquisição de Material Administrativo - 75/00003149/2015,Ajuste Direto Regime Geral,Aquisição de bens móveis,"30192000-1, Material de escritório","Centro Hospitalar do Algarve, E. P. E. (510745997)","IBERDATA-EQUIPAMENTOS, SA (501904921)","120,00 €",28-09-2015,24-09-2015,7 dias,"Portugal, Faro, Portimão<BR/>Portugal, Faro, Faro<BR/>Portugal, Faro, Lagos","Artigo 20.º, n.º 1, alínea a) do Código dos Contratos Públicos","","",,"",,Não aplicável.,Não aplicável.,FALSE
Aquisição de Material Administrativo - 75/00003149/2015,Ajuste Direto Regime Geral,Aquisição de bens móveis,"30192000-1, Material de escritório<BR/>30125100-2, Cartuchos de tinta (toner)","Centro Hospitalar do Algarve, E. P. E. (510745997)","PRN INFORMÁTICA, LDA (504100327)","93,50 €",28-09-2015,24-09-2015,7 dias,"Portugal, Faro, Lagos<BR/>Portugal, Faro, Faro<BR/>Portugal, Faro, Portimão","Artigo 20.º, n.º 1, alínea a) do Código dos Contratos Públicos","","",,"",,Não aplicável.,Não aplicável.,FALSE
31/1150/2015 Desmopressina 0.1mg e 0.004mg,Ao abrigo de acordo-quadro (art.º 258.º),Aquisição de bens móveis,"33690000-3, Medicamentos vários","Centro Hospitalar do Algarve, E. P. E. (510745997)",FERRING PORTUG.-PROD.FARMAC. (502034831),"282,66 €",28-09-2015,20-05-2015,225 dias,"Portugal, Faro, Faro","Artigo 26.º, n.º 1, alínea e) do Código dos Contratos Públicos","","",,"",,603979,"CONCURSO PÚBLICO PARA A CELEBRAÇÃO DE CONTRATOS PÚBLICOS DE APROVISIONAMENTO PARA A ÁREA DA SAÚDE, COM VISTA AO FORNECIMENTO DE HORMONAS E OUTROS MEDICAMENTOS USADOS NO TRATAMENTO DAS DOENÇAS ENDÓCRINAS, ÀS INSTITUIÇÕES E SERVIÇOS DO SERVIÇO NACIONAL DE SAÚDE",FALSE
Aquisição Material Hoteleiro - 74/00003131/2015,Ajuste Direto Regime Geral,Aquisição de bens móveis,"44617000-8, Caixas","Centro Hospitalar do Algarve, E. P. E. (510745997)",CONCEIÇÃO GUERREIRO FERNANDES PITEIRA (159957966),"7,72 €",28-09-2015,25-09-2015,7 dias,"Portugal, Faro, Portimão<BR/>Portugal, Faro, Faro<BR/>Portugal, Faro, Lagos","Artigo 20.º, n.º 1, alínea a) do Código dos Contratos Públicos","","",,"",,Não aplicável.,Não aplicável.,FALSE
Aquisição Material Hoteleiro - 74/00003131/2015,Ajuste Direto Regime Geral,Aquisição de bens móveis,"33760000-5, Papel higiénico, lenços, toalhas de mão e guardanapos","Centro Hospitalar do Algarve, E. P. E. (510745997)",SERVISAN-PROD HIGIENE S.A (500246530),"386,00 €",28-09-2015,25-09-2015,7 dias,"Portugal, Faro, Faro<BR/>Portugal, Faro, Portimão<BR/>Portugal, Faro, Lagos","Artigo 20.º, n.º 1, alínea a) do Código dos Contratos Públicos","","",,"",,Não aplicável.,Não aplicável.,FALSE
Aquisição Material Hoteleiro - 74/00003131/2015,Ajuste Direto Regime Geral,Aquisição de bens móveis,"44617000-8, Caixas","Centro Hospitalar do Algarve, E. P. E. (510745997)","Plásticos Industriais e Domésticos, SA (500219672)","129,43 €",28-09-2015,25-09-2015,7 dias,"Portugal, Faro, Portimão<BR/>Portugal, Faro, Lagos<BR/>Portugal, Faro, Faro","Artigo 20.º, n.º 1, alínea a) do Código dos Contratos Públicos","","",,"",,Não aplicável.,Não aplicável.,FALSE
Aquisição Material Hoteleiro - 74/00003131/2015,Ajuste Direto Regime Geral,Aquisição de bens móveis,"39831200-8, Detergentes","Centro Hospitalar do Algarve, E. P. E. (510745997)","ASC- Arménio Salgado Costa- Comércio de Produtos de Higiene, Lda  (505495414)","525,00 €",28-09-2015,25-09-2015,7 dias,"Portugal, Faro, Portimão<BR/>Portugal, Faro, Lagos<BR/>Portugal, Faro, Faro","Artigo 20.º, n.º 1, alínea a) do Código dos Contratos Públicos","","",,"",,Não aplicável.,Não aplicável.,FALSE
Aquisição Material Hoteleiro - 74/00003131/2015,Ajuste Direto Regime Geral,Aquisição de bens móveis,"18937100-7, Sacos para embalagem de mercadorias","Centro Hospitalar do Algarve, E. P. E. (510745997)","JOALPLAS, IND.PLASTICOS LDA (501891960)","255,60 €",28-09-2015,25-09-2015,7 dias,"Portugal, Faro, Lagos<BR/>Portugal, Faro, Portimão<BR/>Portugal, Faro, Faro","Artigo 20.º, n.º 1, alínea a) do Código dos Contratos Públicos","","",,"",,Não aplicável.,Não aplicável.,FALSE
Aquisição Material Hoteleiro - 74/00003131/2015,Ajuste Direto Regime Geral,Aquisição de bens móveis,"33721100-1, Lâminas de barbear<BR/>33761000-2, Papel higiénico","Centro Hospitalar do Algarve, E. P. E. (510745997)","JBSHIGI, Lda. (513110461)","280,08 €",28-09-2015,25-09-2015,7 dias,"Portugal, Faro, Faro<BR/>Portugal, Faro, Portimão<BR/>Portugal, Faro, Lagos","Artigo 20.º, n.º 1, alínea a) do Código dos Contratos Públicos","","",,"",,Não aplicável.,Não aplicável.,FALSE
Aquisição Material Hoteleiro - 74/00003131/2015,Ajuste Direto Regime Geral,Aquisição de bens móveis,"33711720-0, Pasta dentífrica","Centro Hospitalar do Algarve, E. P. E. (510745997)","DOMOTEL-MAQ EPROD DE LIMPEZA,L (501772367)","320,00 €",28-09-2015,25-09-2015,7 dias,"Portugal, Faro, Portimão<BR/>Portugal, Faro, Lagos<BR/>Portugal, Faro, Faro","Artigo 20.º, n.º 1, alínea a) do Código dos Contratos Públicos","","",,"",,Não aplicável.,Não aplicável.,FALSE
Aquisição Material Hoteleiro - 74/00003131/2015,Ajuste Direto Regime Geral,Aquisição de bens móveis,"39500000-7, Artigos têxteis","Centro Hospitalar do Algarve, E. P. E. (510745997)",Cleancheck Lda. (507225252),"720,00 €",28-09-2015,25-09-2015,7 dias,"Portugal, Faro, Faro<BR/>Portugal, Faro, Portimão<BR/>Portugal, Faro, Lagos","Artigo 20.º, n.º 1, alínea a) do Código dos Contratos Públicos","","",,"",,Não aplicável.,Não aplicável.,FALSE
Aquisição Material Hoteleiro - 74/00003131/2015,Ajuste Direto Regime Geral,Aquisição de bens móveis,"33711620-9, Pentes","Centro Hospitalar do Algarve, E. P. E. (510745997)",AVIQUIMICA IMPORT E MANUFATURA (500039720),"125,00 €",28-09-2015,25-09-2015,7 dias,"Portugal, Faro, Lagos<BR/>Portugal, Faro, Faro<BR/>Portugal, Faro, Portimão","Artigo 20.º, n.º 1, alínea a) do Código dos Contratos Públicos","","",,"",,Não aplicável.,Não aplicável.,FALSE
Material de Manutenção - 76/00003118/2015,Ajuste Direto Regime Geral,Aquisição de bens móveis,"39561110-6, Fitas","Centro Hospitalar do Algarve, E. P. E. (510745997)","ULTRAPOSTA - STAND PECAS ACESSORIOS UNIPESSOAL, LDA (509697135)","16,18 €",25-09-2015,21-09-2015,7 dias,"Portugal, Faro, Faro<BR/>Portugal, Faro, Portimão<BR/>Portugal, Faro, Lagos","Artigo 20.º, n.º 1, alínea a) do Código dos Contratos Públicos","","",,"",,Não aplicável.,Não aplicável.,FALSE
Material de Manutenção - 76/00003118/2015,Ajuste Direto Regime Geral,Aquisição de bens móveis,"31510000-4, Lâmpadas eléctricas de incandescência","Centro Hospitalar do Algarve, E. P. E. (510745997)","CELGARVE-CENTRO ELECTRICO DO ALGARVE,LDA (501619909)","248,45 €",25-09-2015,21-09-2015,7 dias,"Portugal, Faro, Portimão<BR/>Portugal, Faro, Faro<BR/>Portugal, Faro, Lagos","Artigo 20.º, n.º 1, alínea a) do Código dos Contratos Públicos","","",,"",,Não aplicável.,Não aplicável.,FALSE
Material de Manutenção - 76/00003118/2015,Ajuste Direto Regime Geral,Aquisição de bens móveis,"33140000-3, Material médico de consumo","Centro Hospitalar do Algarve, E. P. E. (510745997)","AIR LIQUIDE MEDICINAL,S.A. (501576436)","276,61 €",25-09-2015,21-09-2015,7 dias,"Portugal, Faro, Lagos<BR/>Portugal, Faro, Portimão<BR/>Portugal, Faro, Faro","Artigo 20.º, n.º 1, alínea a) do Código dos Contratos Públicos","","",,"",,Não aplicável.,Não aplicável.,FALSE
Material de Manutenção - 76/00003118/2015,Ajuste Direto Regime Geral,Aquisição de bens móveis,"31411000-0, Pilhas alcalinas","Centro Hospitalar do Algarve, E. P. E. (510745997)",PAPELARIA E LIVRARIA SAGRES (501212973),"34,20 €",25-09-2015,21-09-2015,7 dias,"Portugal, Faro, Portimão<BR/>Portugal, Faro, Faro<BR/>Portugal, Faro, Lagos","Artigo 20.º, n.º 1, alínea a) do Código dos Contratos Públicos","","",,"",,Não aplicável.,Não aplicável.,FALSE
Material de Manutenção - 76/00003118/2015,Ajuste Direto Regime Geral,Aquisição de bens móveis,"35125100-7, Sensores<BR/>33140000-3, Material médico de consumo","Centro Hospitalar do Algarve, E. P. E. (510745997)",MULTINFOR-EQ.MANUT.HOSPITALAR (501691278),"80,63 €",25-09-2015,21-09-2015,7 dias,"Portugal, Faro, Portimão<BR/>Portugal, Faro, Lagos<BR/>Portugal, Faro, Faro","Artigo 20.º, n.º 1, alínea a) do Código dos Contratos Públicos","","",,"",,Não aplicável.,Não aplicável.,FALSE
Material de Manutenção - 76/00003118/2015,Ajuste Direto Regime Geral,Aquisição de bens móveis,"39300000-5, Equipamento diverso","Centro Hospitalar do Algarve, E. P. E. (510745997)","MONTALGARVE - MATERIAIS E EQUIPAMENTOS INDUSTRIAIS, SA (500801118)","99,40 €",25-09-2015,21-09-2015,7 dias,"Portugal, Faro, Faro<BR/>Portugal, Faro, Portimão<BR/>Portugal, Faro, Lagos","Artigo 20.º, n.º 1, alínea a) do Código dos Contratos Públicos","","",,"",,Não aplicável.,Não aplicável.,FALSE
Material de Manutenção - 76/00003118/2015,Ajuste Direto Regime Geral,Aquisição de bens móveis,"33140000-3, Material médico de consumo","Centro Hospitalar do Algarve, E. P. E. (510745997)","IBERDATA-EQUIPAMENTOS, SA (501904921)","47,25 €",25-09-2015,21-09-2015,7 dias,"Portugal, Faro, Faro<BR/>Portugal, Faro, Portimão<BR/>Portugal, Faro, Lagos","Artigo 20.º, n.º 1, alínea a) do Código dos Contratos Públicos","","",,"",,Não aplicável.,Não aplicável.,FALSE
Material de Manutenção - 76/00003118/2015,Ajuste Direto Regime Geral,Aquisição de bens móveis,"35125100-7, Sensores","Centro Hospitalar do Algarve, E. P. E. (510745997)","GERANSWERS UNIPESSOAL,LDA (507683528)","87,00 €",25-09-2015,21-09-2015,7 dias,"Portugal, Faro, Portimão<BR/>Portugal, Faro, Lagos<BR/>Portugal, Faro, Faro","Artigo 20.º, n.º 1, alínea a) do Código dos Contratos Públicos","","",,"",,Não aplicável.,Não aplicável.,FALSE
Material de Manutenção - 76/00003118/2015,Ajuste Direto Regime Geral,Aquisição de bens móveis,"33140000-3, Material médico de consumo","Centro Hospitalar do Algarve, E. P. E. (510745997)","GENERAL ELECTRIC PORTUGUESA,SA (500357129)","162,40 €",25-09-2015,21-09-2015,7 dias,"Portugal, Faro, Faro<BR/>Portugal, Faro, Lagos<BR/>Portugal, Faro, Portimão","Artigo 20.º, n.º 1, alínea a) do Código dos Contratos Públicos","","",,"",,Não aplicável.,Não aplicável.,FALSE
Material de Manutenção - 76/00003118/2015,Ajuste Direto Regime Geral,Aquisição de bens móveis,"35125100-7, Sensores","Centro Hospitalar do Algarve, E. P. E. (510745997)",DRAGER PORTUGAL (508771323),"164,31 €",25-09-2015,21-09-2015,7 dias,"Portugal, Faro, Portimão<BR/>Portugal, Faro, Faro<BR/>Portugal, Faro, Lagos","Artigo 20.º, n.º 1, alínea a) do Código dos Contratos Públicos","","",,"",,Não aplicável.,Não aplicável.,FALSE
Material de Manutenção - 76/00003118/2015,Ajuste Direto Regime Geral,Aquisição de bens móveis,"39300000-5, Equipamento diverso<BR/>31440000-2, Baterias","Centro Hospitalar do Algarve, E. P. E. (510745997)","ALVES & CA(IRMAOS),LDA. (500310068)","510,00 €",25-09-2015,21-09-2015,7 dias,"Portugal, Faro, Faro<BR/>Portugal, Faro, Lagos<BR/>Portugal, Faro, Portimão","Artigo 20.º, n.º 1, alínea a) do Código dos Contratos Públicos","","",,"",,Não aplicável.,Não aplicável.,FALSE
computadores  77/3095/15,Ajuste Direto Regime Geral,Aquisição de bens móveis,"30230000-0, Equipamento informático","Centro Hospitalar do Algarve, E. P. E. (510745997)",Suporte de fabrica  (510332714),"2.694,90 €",24-09-2015,18-09-2015,15 dias,"Portugal, Faro, Faro<BR/>Portugal, Faro, Portimão","Artigo 20.º, n.º 1, alínea a) do Código dos Contratos Públicos","","",,"",,Não aplicável.,Não aplicável.,FALSE
computadores  77/3095/15,Ajuste Direto Regime Geral,Aquisição de bens móveis,"30230000-0, Equipamento informático","Centro Hospitalar do Algarve, E. P. E. (510745997)",ACJ Informatica Lda  (510078036),"6.400,00 €",24-09-2015,18-09-2015,15 dias,"Portugal, Faro, Faro<BR/>Portugal, Faro, Portimão","Artigo 20.º, n.º 1, alínea a) do Código dos Contratos Públicos",18-09-2015,"6.512,35 €",,Valor efectivo superior devido a alteração de quantidades.,,Não aplicável.,Não aplicável.,FALSE
CHAVE DESCARTÁVEL P/ PEÇA DE MÃO CUSA EXCEL 36khz,Ajuste Direto Regime Geral,Aquisição de bens móveis,"33140000-3, Material médico de consumo","Centro Hospitalar do Algarve, E. P. E. (510745997)",SOCIME II - Produtos Medicos Lda (504453939),"420,00 €",24-09-2015,02-09-2015,119 dias,"Portugal, Faro, Portimão<BR/>Portugal, Faro, Faro<BR/>Portugal, Faro, Lagos","Artigo 20.º, n.º 1, alínea a) do Código dos Contratos Públicos","","",,"",,Não aplicável.,Não aplicável.,FALSE
41/2927/2015 Medicamentos Cefuroxima 750 mg,Ao abrigo de acordo-quadro (art.º 259.º),Aquisição de bens móveis,"33690000-3, Medicamentos vários","Centro Hospitalar do Algarve, E. P. E. (510745997)","LABESFAL, Laboratório AlmiroS.A. (501169580)","2.335,50 €",23-09-2015,17-09-2015,106 dias,"Portugal, Faro, Faro",Artigo 259.º do Código dos Contratos Públicos,"","",,"",,1326195,ACORDO QUADRO PARA FORNECIMENTO DE MEDICAMENTOS ANTI-INFECIOSOS: EXCETO ANTIVÍRICOS E ANTIFÚNGICOS ÀS INSTITUIÇÕES E SERVIÇOS DO SERVIÇO NACIONAL DE SAÚDE,FALSE
41/2924/2015 Medicamentos Cloreto sódio 20%,Ao abrigo de acordo-quadro (art.º 259.º),Aquisição de bens móveis,"33690000-3, Medicamentos vários","Centro Hospitalar do Algarve, E. P. E. (510745997)","LABESFAL, Laboratório AlmiroS.A. (501169580)","486,00 €",23-09-2015,15-09-2015,107 dias,"Portugal, Faro, Faro",Artigo 259.º do Código dos Contratos Públicos,"","",,"",,1331181,Acordo Quadro para fornecimento de corretivos da volémia e outras soluções estéreis às Instituições e Serviços do Serviço Nacional de Saúde,FALSE
41/2919/2015 Vacina dupla contra Tetano e Difteria,Ao abrigo de acordo-quadro (art.º 259.º),Aquisição de bens móveis,"33690000-3, Medicamentos vários","Centro Hospitalar do Algarve, E. P. E. (510745997)",Sanofi Pastuer MSD (507632796),"725,00 €",23-09-2015,31-08-2015,122 dias,"Portugal, Faro, Faro",Artigo 259.º do Código dos Contratos Públicos,"","",,"",,610556,"CONCURSO PÚBLICO PARA A CELEBRAÇÃO DE CONTRATOS PÚBLICOS DE APROVISIONAMENTO PARA A ÁREA DA SAÚDE, COM VISTA AO FORNECIMENTO DE VACINAS E TUBERCULINAS, ÀS INSTITUIÇÕES E SERVIÇOS DO SERVIÇO NACIONAL DE SAÚDE",FALSE
41/2918/2015 Medicamentos Clotrimazol,Ao abrigo de acordo-quadro (art.º 259.º),Aquisição de bens móveis,"33690000-3, Medicamentos vários","Centro Hospitalar do Algarve, E. P. E. (510745997)","FARMOZ - Sociedade Tecnico Medicinal, SA (501505334)","168,00 €",23-09-2015,21-08-2015,107 dias,"Portugal, Faro, Faro",Artigo 259.º do Código dos Contratos Públicos,"","",,"",,1370278,CP 2015/51 - Acordo quadro para fornecimento de medicamentos usados nas afeções cutâneas às instituições e serviços do serviço nacional de saúde,FALSE
"41/2495/2015 Poliuretano c/ silicone normal 10x10 cm s/ rebordo, penso",Ao abrigo de acordo-quadro (art.º 259.º),Aquisição de bens móveis,"33690000-3, Medicamentos vários","Centro Hospitalar do Algarve, E. P. E. (510745997)","B. BRAUN MEDICAL,LDA. (501506543)","708,00 €",23-09-2015,10-09-2015,112 dias,"Portugal, Faro, Faro",Artigo 259.º do Código dos Contratos Públicos,"","",,"",,490160,"CONCURSO PÚBLICO PARA A CELEBRAÇÃO DE CONTRATOS PÚBLICOS DE APROVISIONAMENTO PARA A ÁREA DA SAÚDE, COM VISTA AO FORNECIMENTO DE MATERIAL PENSO DE EFEITO TERAPÊUTICO - ÀS INSTITUIÇÕES E SERVIÇOS DO SERVIÇO NACIONAL DE SAÚDE",FALSE
"41/892/2015 Celulose Oxidada, esponja de gelatina",Ao abrigo de acordo-quadro (art.º 259.º),Aquisição de bens móveis,"33690000-3, Medicamentos vários","Centro Hospitalar do Algarve, E. P. E. (510745997)","Clínifar - Produtos Clínicos e Farmacêuticos, S.A. (503281115)","1.527,80 €",23-09-2015,24-03-2015,282 dias,"Portugal, Faro, Faro",Artigo 259.º do Código dos Contratos Públicos,"","",,"",,552526,"CONCURSO PÚBLICO PARA A CELEBRAÇÃO DE CONTRATOS PÚBLICOS DE APROVISIONAMENTO PARA A ÁREA DA SAÚDE, COM VISTA AO FORNECIMENTO DE DISPOSITIVOS MÉDICOS DIVERSOS",FALSE
31/336/2015 Tuberculina Purif,Ao abrigo de acordo-quadro (art.º 258.º),Aquisição de bens móveis,"33690000-3, Medicamentos vários","Centro Hospitalar do Algarve, E. P. E. (510745997)",J.M.FARMACEUTICA (503550558),"655,20 €",22-09-2015,30-01-2015,335 dias,"Portugal, Faro, Faro","Artigo 26.º, n.º 1, alínea e) do Código dos Contratos Públicos","","",,"",,610556,"CONCURSO PÚBLICO PARA A CELEBRAÇÃO DE CONTRATOS PÚBLICOS DE APROVISIONAMENTO PARA A ÁREA DA SAÚDE, COM VISTA AO FORNECIMENTO DE VACINAS E TUBERCULINAS, ÀS INSTITUIÇÕES E SERVIÇOS DO SERVIÇO NACIONAL DE SAÚDE",FALSE
"31/299/2015 Medicamentos Paracetamol+Codeina, Paracetamol 1000 mg",Ao abrigo de acordo-quadro (art.º 258.º),Aquisição de bens móveis,"33690000-3, Medicamentos vários","Centro Hospitalar do Algarve, E. P. E. (510745997)","Bene Farmacêutica, Lda. (508735696)","215,02 €",22-09-2015,07-01-2015,358 dias,"Portugal, Faro, Faro","Artigo 26.º, n.º 1, alínea e) do Código dos Contratos Públicos","","",,"",,613285,"CONCURSO PÚBLICO PARA A CELEBRAÇÃO DE CONTRATOS PÚBLICOS DE APROVISIONAMENTO PARA A ÁREA DA SAÚDE, COM VISTA AO FORNECIMENTO DE MEDICAMENTOS ANALGÉSICOS, ANTIPIRÉTICOS E ANTIDEPRESSORES, ÀS INSTITUIÇÕES E SERVIÇOS DO SERVIÇO NACIONAL DE SAÚDE",FALSE
"41/169/2015 Medicamentos  Analgésicos, Antipiréticos e Antidepressores",Ao abrigo de acordo-quadro (art.º 259.º),Aquisição de bens móveis,"33690000-3, Medicamentos vários","Centro Hospitalar do Algarve, E. P. E. (510745997)","B. BRAUN MEDICAL,LDA. (501506543), OVERPHARMA,LDA. (505792362), Ferrer Portugal S.A. (500069190), SANOFI - PRODUTOS FARMACÊUTICOS, LDA. (500134960), Sandoz Farmacêutica, Lda (506985261), Aurovitas Unipessoal, Lda. (513053239), Glaxo SmithKline - Produtos Farmacêutico, Lda.  (500139962), LABESFAL, Laboratório AlmiroS.A. (501169580), Bluefish Pharmaceuticals AB (509426590), SIDEFARMA, S.A. (500717419), GENERIS FARMACEUTICA,SA (508107997), FARMOZ - Sociedade Tecnico Medicinal, SA (501505334)","84.930,85 €",22-09-2015,05-02-2015,329 dias,"Portugal, Faro, Faro",Artigo 259.º do Código dos Contratos Públicos,"","",,"",,613285,"CONCURSO PÚBLICO PARA A CELEBRAÇÃO DE CONTRATOS PÚBLICOS DE APROVISIONAMENTO PARA A ÁREA DA SAÚDE, COM VISTA AO FORNECIMENTO DE MEDICAMENTOS ANALGÉSICOS, ANTIPIRÉTICOS E ANTIDEPRESSORES, ÀS INSTITUIÇÕES E SERVIÇOS DO SERVIÇO NACIONAL DE SAÚDE",FALSE
Cat manutenção ressonancia ( 68/3034/15),Ajuste Direto Regime Geral,Aquisição de serviços,"50420000-5, Serviços de reparação e manutenção de equipamento médico e cirúrgico","Centro Hospitalar do Algarve, E. P. E. (510745997)",Siemens SA  (500247480),"21.666,68 €",22-09-2015,08-09-2015,120 dias,"Portugal, Faro, Faro","Artigo 24.º, n.º 1, alínea e) do Código dos Contratos Públicos","","",,"",,Não aplicável.,Não aplicável.,FALSE
Manutenção equip informatico ( 68/0223/15),Ajuste Direto Regime Geral,Aquisição de serviços,"50300000-8, Serviços de reparação e manutenção e serviços conexos relacionados com computadores pessoais e com equipamento burótico, audiovisual e para telecomunicações","Centro Hospitalar do Algarve, E. P. E. (510745997)",Sisqual (502772298),"11.637,77 €",22-09-2015,05-08-2015,365 dias,"Portugal, Faro, Lagos<BR/>Portugal, Faro, Faro<BR/>Portugal, Faro, Portimão","Artigo 24.º, n.º 1, alínea e) do Código dos Contratos Públicos","","",,"",,Não aplicável.,Não aplicável.,FALSE
campimetro ( 77/2771/15),Ajuste Direto Regime Geral,Aquisição de bens móveis,"33122000-1, Equipamento oftalmológico","Centro Hospitalar do Algarve, E. P. E. (510745997)",Grupo Taper  (506886336),"30.524,56 €",22-09-2015,31-08-2015,30 dias,"Portugal, Faro, Portimão","Artigo 20.º, n.º 1, alínea a) do Código dos Contratos Públicos","","",,"",,Não aplicável.,Não aplicável.,FALSE
Aquisição de Luvas p/ manipulação de citostáticos - ACSS,Ao abrigo de acordo-quadro (art.º 259.º),Aquisição de bens móveis,"33140000-3, Material médico de consumo","Centro Hospitalar do Algarve, E. P. E. (510745997)","MEDICINALIA - CORMEDICA,LDA. (500684324)","986,00 €",21-09-2015,16-09-2015,107 dias,"Portugal, Faro, Lagos<BR/>Portugal, Faro, Faro<BR/>Portugal, Faro, Portimão","Artigo 20.º, n.º 1, alínea b) do Código dos Contratos Públicos","","",,"",,544071,"CONCURSO PÚBLICO PARA A CELEBRAÇÃO DE CONTRATOS PÚBLICOS DE APROVISIONAMENTO PARA A ÁREA DA SAÚDE, COM VISTA AO FORNECIMENTO DE LUVAS PARA USO MÉDICO, ÀS INSTITUIÇÕES E SERVIÇOS DO SERVIÇO NACIONAL DE SAÚDE",FALSE
Aquisição de Luvas Manipulação de Citostáticos Estéril M,Ao abrigo de acordo-quadro (art.º 259.º),Aquisição de bens móveis,"33140000-3, Material médico de consumo","Centro Hospitalar do Algarve, E. P. E. (510745997)","MOLNLYCKE HEALTH CARE, LDA. (511101066)","750,00 €",21-09-2015,16-09-2015,107 dias,"Portugal, Faro, Lagos<BR/>Portugal, Faro, Faro<BR/>Portugal, Faro, Portimão","Artigo 20.º, n.º 1, alínea b) do Código dos Contratos Públicos","","",,"",,544071,"CONCURSO PÚBLICO PARA A CELEBRAÇÃO DE CONTRATOS PÚBLICOS DE APROVISIONAMENTO PARA A ÁREA DA SAÚDE, COM VISTA AO FORNECIMENTO DE LUVAS PARA USO MÉDICO, ÀS INSTITUIÇÕES E SERVIÇOS DO SERVIÇO NACIONAL DE SAÚDE",FALSE
Produção cirúrgica  ( Sigic ) - 2013/2014,Ajuste Direto Regime Geral,Aquisição de serviços,"85121200-5, Serviços de medicina especializada","Centro Hospitalar do Algarve, E. P. E. (510745997)",Miguel Angel Baltar Torres (230950272),"14.413,09 €",21-09-2015,31-08-2015,60 dias,"Portugal, Faro, Faro","Artigo 20.º, n.º 1, alínea a) do Código dos Contratos Públicos",31-08-2015,"14.413,09 €",,"",,Não aplicável.,Não aplicável.,FALSE
"Serviços Médicos de Urg Geral, Cuid Inten e Inter, Sala Rean, Dec Clinica",Ajuste Direto Regime Geral,Aquisição de serviços,"85121100-4, Serviços de médicos de clínica geral","Centro Hospitalar do Algarve, E. P. E. (510745997)",Regula Pulso - Serviços Médicos Lda (509887392),"52.320,00 €",21-09-2015,30-07-2015,139 dias,"Portugal, Faro, Lagos<BR/>Portugal, Faro, Faro<BR/>Portugal, Faro, Albufeira<BR/>Portugal, Faro, Portimão<BR/>Portugal, Faro, Vila Real Sto Antonio<BR/>Portugal, Faro, Loulé","Artigo 24.º, n.º 1, alínea c) do Código dos Contratos Públicos",31-12-2015,"360,00 €",,"O valor inicial do Contrato teve por base as necessidades estimadas para o período de 14 Agosto de 2015 a 31 Dezembro de 2015, no entanto a profissional apenas prestou serviço no mês de Agosto de 2015.",,Não aplicável.,Não aplicável.,FALSE
