Objeto do Contrato,Tipo de Procedimento,Tipo(s) de Contrato,CPVs,Entidade(s) Adjudicante(s),Entidade(s) Adjudicatária(s),Preço Contratual,Data de Publicação,Data de Celebração do Contrato,Prazo de Execução,Local de Execução,Fundamentação,Data de Fecho do Contrato,Preço Total Efetivo,Causas das Alterações ao Prazo,Causas das Alterações ao Preço,Estado,N.º registo do Acordo Quadro,Descrição do Acordo Quadro,Procedimento Centralizado
Fornecimento e Instalação de OCT com Angio,Concurso público,Aquisição de bens móveis,"33100000-1, Equipamento médico","Centro Hospitalar do Baixo Vouga, E.P.E. (510123210)","Carl Zeiss Meditec Iberia, SA (980503043)","80.000,00 €",17-10-2018,01-10-2018,183 dias,"Portugal, Aveiro, Aveiro","Artigo 20.º, n.º 1, alínea b) do Código dos Contratos Públicos",,,,,,Não aplicável.,Não aplicável.,FALSE
Fornecimento e Instalação de 1 (um) Micrótomo Automático,Consulta Prévia,Aquisição de bens móveis,"38000000-5, Equipamento laboratorial, óptico e de precisão (exc. óculos)","Centro Hospitalar do Baixo Vouga, E. P. E. (510123210)","Leica Microsistemas - Instrumentos de Precisão S.U., Lda (500301921)","13.750,00 €",17-10-2018,20-09-2018,25 dias,"Portugal, Aveiro, Aveiro","Artigo 20.º, n.º 1, alínea c) do Código dos Contratos Públicos",,,,,,Não aplicável.,Não aplicável.,FALSE
Fornecimento e Instalação de 1 Densitómetro,Consulta Prévia,Aquisição de bens móveis,"33111660-5, Densitómetros ósseos","Centro Hospitalar do Baixo Vouga, E. P. E. (510123210)","GENERAL ELECTRIC HEALTHCARE PORTUGAL, SOC UNIP LDA (500357129)","54.950,00 €",16-10-2018,20-09-2018,49 dias,"Portugal, Aveiro, Aveiro","Artigo 20.º, n.º 1, alínea c) do Código dos Contratos Públicos",,,,,,Não aplicável.,Não aplicável.,FALSE
