Objeto do Contrato,Tipo de Procedimento,Tipo(s) de Contrato,CPVs,Entidade(s) Adjudicante(s),Entidade(s) Adjudicatária(s),Preço Contratual,Data de Publicação,Data de Celebração do Contrato,Prazo de Execução,Local de Execução,Fundamentação,Data de Fecho do Contrato,Preço Total Efetivo,Causas das Alterações ao Prazo,Causas das Alterações ao Preço,Estado,N.º registo do Acordo Quadro,Descrição do Acordo Quadro,Procedimento Centralizado
AQUISIÇÃO DE CARTEIRAS DE ÁCIDO CÍTRICO – PROGRAMA TROCA DE SERINGAS,Ajuste Direto Regime Geral,Aquisição de bens móveis,"33600000-6, Produtos farmacêuticos","SPMS- Serviços Partilhados do M. da Saúde, E.P.E. (509540716)","Indosáude-Instituto de Formação e Inovação, Unipessoal, Lda (505215330)","26.000,00 €",31-08-2016,25-05-2016,210 dias,Portugal,"Artigo 24.º, n.º 1, alínea a) do Código dos Contratos Públicos","","",,,,Não aplicável.,Não aplicável.,FALSE
Aquisição de serviços especializados na adoção do modelo de comunicação para a gestão da segurança da informação,Ajuste Direto Regime Geral,Aquisição de serviços,"79111000-5, Serviços de assessoria jurídica","SPMS - Serviços Partilhados do Ministério da Saúde, E. P. E. (509540716)","Marksearch - Estudos de Mercado, L.da (IDC Portugal) (507510453)","60.000,00 €",31-08-2016,10-08-2016,120 dias,"Portugal, Lisboa, Lisboa","Artigo 20.º, n.º 1, alínea a) do Código dos Contratos Públicos","","",,,,Não aplicável.,Não aplicável.,FALSE
Aquisição de serviços de consultoria em recursos humanos e vencimentos,Ajuste Direto Regime Geral,Aquisição de serviços,"79132000-8, Serviços de certificação","SPMS - Serviços Partilhados do Ministério da Saúde, E. P. E. (509540716)",MULTICERT -SERV.CERTIFICAÇÃO ELECTRÓNICA (505767457),"8.670,00 €",31-08-2016,24-08-2016,350 dias,"Portugal, Lisboa, Lisboa","Artigo 20.º, n.º 1, alínea a) do Código dos Contratos Públicos",31-12-2016,"8.670,00 €",,,,Não aplicável.,Não aplicável.,FALSE
Aquisição de Seringas - Programa de Troca de Seringas,Ao abrigo de acordo-quadro (art.º 259.º),Aquisição de bens móveis,"33141310-6, Seringas","SPMS- Serviços Partilhados do M. da Saúde, E.P.E. (509540716)",Pergut Portugal (501799729),"798,00 €",30-08-2016,25-05-2016,30 dias,Portugal,Artigo 259.º do Código dos Contratos Públicos,"","",,,,1377429,Acordo Quadro para fornecimento de medicamentos para Nutrição Parentérica às Instituições e Serviços do Serviço Nacional de Saúde,FALSE
Aquisição e colagem de etiquetas - Programa de Troca de Seringas,Ajuste Direto Regime Geral,Aquisição de bens móveis,"30192800-9, Etiquetas autocolantes","SPMS- Serviços Partilhados do M. da Saúde, E.P.E. (509540716)","Efervescente Design e Comunicação, Lda. (506738400)","10.080,00 €",30-08-2016,14-06-2016,180 dias,Portugal,"Artigo 20.º, n.º 1, alínea a) do Código dos Contratos Públicos","","",,,,Não aplicável.,Não aplicável.,FALSE
Aquisição de sacos para distribuição dos kits do Programa de Troca de Seringas,Ajuste Direto Regime Geral,Aquisição de bens móveis,"18930000-7, Sacas e sacos","SPMS - Serviços Partilhados do Ministério da Saúde, E. P. E. (509540716)","Efervescente Design e Comunicação, Lda. (506738400)","21.950,00 €",30-08-2016,06-06-2016,210 dias,Portugal,"Artigo 20.º, n.º 1, alínea a) do Código dos Contratos Públicos","","",,,,Não aplicável.,Não aplicável.,FALSE
Aquisição de serviço de vigilância e segurança humana,Ajuste Direto Regime Geral,Aquisição de serviços,"79714000-2, Serviços de vigilância","SPMS - Serviços Partilhados do Ministério da Saúde, E. P. E. (509540716)","STRONG - SEGURANÇA, SA (503257567)","21.000,00 €",30-08-2016,27-07-2016,30 dias,"Portugal, Porto, Porto","Artigo 20.º, n.º 1, alínea a) do Código dos Contratos Públicos",31-07-2016,"21.000,00 €",,,,Não aplicável.,Não aplicável.,FALSE
Aquisição de serviços de desenvolvimento e manutenção aplicacional SICA,Ao abrigo de acordo-quadro (art.º 259.º),Aquisição de serviços,"72500000-0, Serviços relacionados com a informática","SPMS- Serviços Partilhados do M. da Saúde, E.P.E. (509540716)","NOVABASE Business Solutions - Soluções de Consultoria, Desenvolvimento, Integração, Outsourcing, Manutenção e Operação de Sistemas de Informação, S.A. (504857312)","209.658,24 €",30-08-2016,02-08-2016,365 dias,"Portugal, Lisboa, Lisboa",Artigo 259.º do Código dos Contratos Públicos,02-08-2017,"209.658,24 €",,,,425776,CONCURSO PÚBLICO n.º 20120117 -,FALSE
Aquisição de Preservativos Masculinos - Programa de Troca de Seringas,Ajuste Direto Regime Geral,Aquisição de bens móveis,"33712000-4, Preservativos","SPMS- Serviços Partilhados do M. da Saúde, E.P.E. (509540716)","Ezequiel Panão Jorge, Lda  (501412727)","28.735,20 €",30-08-2016,31-05-2016,210 dias,Portugal,"Artigo 20.º, n.º 1, alínea a) do Código dos Contratos Públicos","","",,,,Não aplicável.,Não aplicável.,FALSE
Aquisição de serviços de housing,Ajuste Direto Regime Geral,Aquisição de serviços,"72514000-1, Serviços de gestão de instalações informáticas","SPMS - Serviços Partilhados do Ministério da Saúde, E. P. E. (509540716)","Curiosity Waves Unipessoal, Lda (513563440)","19.500,00 €",30-08-2016,08-08-2016,120 dias,"Portugal, Lisboa, Lisboa","Artigo 20.º, n.º 1, alínea a) do Código dos Contratos Públicos",31-12-2016,"19.500,00 €",,,,Não aplicável.,Não aplicável.,FALSE
Aquisição de desenvolvimento e manutenção aplicacional SISO - Sistema de Informação Saúde Oral,Ao abrigo de acordo-quadro (art.º 259.º),Aquisição de serviços,"72500000-0, Serviços relacionados com a informática","SPMS- Serviços Partilhados do M. da Saúde, E.P.E. (509540716)","Altranportugal, S. A. (504272179)","85.068,00 €",30-08-2016,29-07-2016,548 dias,Portugal,Artigo 259.º do Código dos Contratos Públicos,"","",,,,425776,CONCURSO PÚBLICO n.º 20120117 -,FALSE
Aquisição de manutenção de Licenciamento do sistema de informação dos certificados de óbito (SICO),Ao abrigo de acordo-quadro (art.º 259.º),Aquisição de serviços,"72500000-0, Serviços relacionados com a informática","SPMS- Serviços Partilhados do M. da Saúde, E.P.E. (509540716)","Altranportugal, S. A. (504272179)","126.308,16 €",30-08-2016,29-07-2016,548 dias,Portugal,Artigo 259.º do Código dos Contratos Públicos,"","",,,,425776,CONCURSO PÚBLICO n.º 20120117 -,FALSE
Aquisição de serviços de implementação da evolução WEBGDH,Ao abrigo de acordo-quadro (art.º 259.º),Aquisição de serviços,"72500000-0, Serviços relacionados com a informática","SPMS- Serviços Partilhados do M. da Saúde, E.P.E. (509540716)","Altranportugal, S. A. (504272179)","99.565,20 €",30-08-2016,29-07-2016,365 dias,Portugal,Artigo 259.º do Código dos Contratos Públicos,"","",,,,425776,CONCURSO PÚBLICO n.º 20120117 -,FALSE
"Aquisição de serviços de manutenção, desenvolvimento e suporte à aplicação Sonho V2 ",Concurso público,Aquisição de serviços,"72500000-0, Serviços relacionados com a informática","SPMS - Serviços Partilhados do Ministério da Saúde, E. P. E. (509540716)","Altranportugal, S. A. (504272179)","142.885,00 €",30-08-2016,28-07-2016,730 dias,Portugal,"Artigo 21.º, n.º 2 do Código dos Contratos Públicos","","",,,,Não aplicável.,Não aplicável.,FALSE
"Serviços de maunutenção, desenvolvimento e suporte à aplicação SONHO V1",Concurso público,Aquisição de serviços,"72500000-0, Serviços relacionados com a informática","SPMS - Serviços Partilhados do Ministério da Saúde, E. P. E. (509540716)","Altranportugal, Lda (504272179)","138.006,00 €",30-08-2016,26-07-2016,730 dias,"Portugal, Porto, Porto","Artigo 31.º, n.º 1 do Código dos Contratos Públicos","","",,,,Não aplicável.,Não aplicável.,FALSE
Aquisição de serviços de manutenção e suporte aplicacional ao sistema de informação BAS,Concurso público,Aquisição de serviços,"72500000-0, Serviços relacionados com a informática","SPMS - Serviços Partilhados do Ministério da Saúde, E. P. E. (509540716)","ITDS - Internet, Tecnologias de Informação e Desenvolvimento de Software, S. A. (506247058)","9.778,50 €",30-08-2016,22-08-2016,365 dias,Portugal,"Artigo 21.º, n.º 2 do Código dos Contratos Públicos","","",,,,Não aplicável.,Não aplicável.,FALSE
Aquisição de serviços para manutenção das aplicações GTAM e CIM,Ajuste Direto Regime Geral,Aquisição de serviços,"72500000-0, Serviços relacionados com a informática","SPMS - Serviços Partilhados do Ministério da Saúde, E. P. E. (509540716)","Altranportugal, SA (504272179)","70.400,00 €",30-08-2016,20-07-2016,365 dias,"Portugal, Porto, Porto","Artigo 20.º, n.º 1, alínea a) do Código dos Contratos Públicos",27-07-2017,"70.400,00 €",,,,Não aplicável.,Não aplicável.,FALSE
Aquisição de serviços de higiene e limpeza com fornecimento de consumíveis,Ajuste Direto Regime Geral,Aquisição de serviços,"90911000-6, Serviços de limpeza de alojamentos, edifícios e janelas","SPMS - Serviços Partilhados do Ministério da Saúde, E. P. E. (509540716)","Garnica Faciliry Services, Lda (509909515)","13.550,00 €",30-08-2016,28-07-2016,60 dias,Portugal,"Artigo 20.º, n.º 1, alínea a) do Código dos Contratos Públicos",31-08-2016,"13.550,00 €",,,,Não aplicável.,Não aplicável.,FALSE
Aquisição de serviços de manutenção corretiva e evolutiva do sistema de informação de registo de certificados e incapacidade temporária,Concurso público,Aquisição de serviços,"72500000-0, Serviços relacionados com a informática","SPMS - Serviços Partilhados do Ministério da Saúde, E. P. E. (509540716)","Altranportugal, SA (504272179)","127.214,40 €",30-08-2016,25-07-2016,913 dias,"Portugal, Lisboa, Lisboa","Artigo 31.º, n.º 1 do Código dos Contratos Públicos","","",,,,Não aplicável.,Não aplicável.,FALSE
Aquisição de serviços de desenvolvimento e manutenção do sistema CCC- certificado para as cartas de condução,Ajuste Direto Regime Geral,Aquisição de serviços,"72500000-0, Serviços relacionados com a informática","SPMS - Serviços Partilhados do Ministério da Saúde, E. P. E. (509540716)","ABS- Consultoria Informática, Lda (510727743)","58.958,40 €",30-08-2016,29-07-2016,365 dias,"Portugal, Lisboa, Lisboa","Artigo 20.º, n.º 1, alínea a) do Código dos Contratos Públicos",31-12-2017,"58.958,40 €",,,,Não aplicável.,Não aplicável.,FALSE
"Aquisição de serviços de manutenção, desenvolvimento e suporte ao módulo de faturação da aplicação Sonho ",Concurso público,Aquisição de serviços,"72500000-0, Serviços relacionados com a informática","SPMS - Serviços Partilhados do Ministério da Saúde, E. P. E. (509540716)","Altranportugal, SA (504272179)","138.006,00 €",30-08-2016,28-07-2016,730 dias,"Portugal, Porto, Porto","Artigo 21.º, n.º 1, alínea b) do Código dos Contratos Públicos","","",,,,Não aplicável.,Não aplicável.,FALSE
Aquisição de serviços jurídicos no âmbito de procedimentos específicos na área da saúde - Acompanhamento de contencioso administrativo,Ajuste Direto Regime Geral,Aquisição de serviços,"79111000-5, Serviços de assessoria jurídica","SPMS- Serviços Partilhados do M. da Saúde, E.P.E. (509540716)",BAS - Sociedade de Advogados - RL (509100007),"45.000,00 €",30-08-2016,19-07-2016,365 dias,Portugal,"Artigo 27.º, n.º 1, alínea b) do Código dos Contratos Públicos",19-07-2017,"45.000,00 €",,,,Não aplicável.,Não aplicável.,FALSE
Aquisição de serviços de desenvolvimento de novas áreas no portal,Ajuste Direto Regime Geral,Aquisição de serviços,"72600000-6, Serviços de consultoria e assistência informáticas","SPMS- Serviços Partilhados do M. da Saúde, E.P.E. (509540716)","InovaStream, Lda (510610641)","9.850,00 €",29-08-2016,27-07-2016,60 dias,Portugal,"Artigo 20.º, n.º 1, alínea a) do Código dos Contratos Públicos","","",,,,Não aplicável.,Não aplicável.,FALSE
"Concurso Público para Aquisição de Serviços de Manutenção a Equipamentos IBM, instalados no Datacenter da SPMS, EPE",Concurso público,Aquisição de serviços,"72611000-6, Serviços de assistência técnica informática","Serviço Partilhados do Ministério da Saúde, E. P. E. (509540716)",Informática El Corte Ingês SA (980079659),"106.766,50 €",25-08-2016,26-02-2014,365 dias,Portugal,"Artigo 21.º, n.º 1, alínea b) do Código dos Contratos Públicos",25-02-2015,"106.766,50 €",,,,Não aplicável.,Não aplicável.,FALSE
LICENCIAMENTO ORACLE ORACLE GOLDENGATE,Ajuste Direto Regime Geral,Aquisição de bens móveis,"48900000-7, Pacote de software e sistemas informáticos diversos","Serviço Partilhados do Ministério da Saúde, E. P. E. (509540716)","Normática, Serviços de Informática e Organização, S. A. (501782230)","89.876,58 €",25-08-2016,27-12-2013,365 dias,Portugal,"Artigo 24.º, n.º 1, alínea e) do Código dos Contratos Públicos",31-12-2014,"89.876,58 €",,,,Não aplicável.,Não aplicável.,FALSE
Licenciamento de Software - Licenças e Assistência Pós Venda de Software Aplicacional para o Ministério da Saúde,Concurso público,Aquisição de bens móveis<br/>Aquisição de serviços,"48000000-8, Pacotes de software e sistemas de informação","SPMS - Serviços Partilhados do Ministério da Saúde, E. P. E. (509540716)","Prológica - Sistemas Informáticos, S. A. (501432507)","6.919.977,00 €",24-08-2016,15-04-2014,365 dias,Portugal,"Artigo 20.º, n.º 1, alínea b) do Código dos Contratos Públicos",05-05-2015,"6.919.977,00 €",,,,Não aplicável.,Não aplicável.,FALSE
