Objeto do Contrato,Tipo de Procedimento,Tipo(s) de Contrato,CPVs,Entidade(s) Adjudicante(s),Entidade(s) Adjudicatária(s),Preço Contratual,Data de Publicação,Data de Celebração do Contrato,Prazo de Execução,Local de Execução,Fundamentação,Data de Fecho do Contrato,Preço Total Efetivo,Causas das Alterações ao Prazo,Causas das Alterações ao Preço,Estado,N.º registo do Acordo Quadro,Descrição do Acordo Quadro,Procedimento Centralizado
AQUISICAO DE REAGENTES,Ajuste Direto Regime Geral,Aquisição de bens móveis,"33696500-0, Reagentes de laboratório",Centro Hospitalar Psiquiatrico de Lisboa (508338476),BIOMERIEUX (501524177),"2.325,76 €",19-09-2012,18-06-2012,1 dias,"Portugal, Lisboa, Lisboa","Artigo 24.º, n.º 1, alínea e) do Código dos Contratos Públicos",18-06-2012,"2.325,76 €",,,,Não aplicável.,Não aplicável.,
aquisicao de reagentes,Ajuste Direto Regime Geral,Aquisição de bens móveis,"33696500-0, Reagentes de laboratório",Centro Hospitalar Psiquiatrico de Lisboa (508338476),Biomérieux (501524177),"3.437,09 €",18-09-2012,17-05-2012,1 dias,"Portugal, Lisboa, Lisboa","Artigo 24.º, n.º 1, alínea e) do Código dos Contratos Públicos",18-05-2012,"3.437,09 €",,,,Não aplicável.,Não aplicável.,
AQUISICAO DE REGENTES,Ajuste Direto Regime Geral,Aquisição de bens móveis,"33696500-0, Reagentes de laboratório",Centro Hospitalar Psiquiatrico de Lisboa (508338476),HORIBA (980158583),"2.738,98 €",18-09-2012,13-04-2012,0 dias,"Portugal, Lisboa, Lisboa","Artigo 24.º, n.º 1, alínea e) do Código dos Contratos Públicos",13-04-2012,"2.738,98 €",,,,Não aplicável.,Não aplicável.,
"LIMPEZA, PODA E ABARE DE ARVORES",Ajuste Direto Regime Geral,Aquisição de serviços,"98390000-3, Outros serviços",Centro Hospitalar Psiquiatrico de Lisboa (508338476),JOSÉ MANUEL DIAS CASTRO NEVES (116018593),"6.550,00 €",12-09-2012,30-12-2011,20 dias,"Portugal, Lisboa, Lisboa","Artigo 20.º, n.º 1, alínea a) do Código dos Contratos Públicos",30-12-2011,"6.550,00 €",,,,Não aplicável.,Não aplicável.,
