Objeto do Contrato,Tipo de Procedimento,Tipo(s) de Contrato,CPVs,Entidade(s) Adjudicante(s),Entidade(s) Adjudicatária(s),Preço Contratual,Data de Publicação,Data de Celebração do Contrato,Prazo de Execução,Local de Execução,Fundamentação,Data de Fecho do Contrato,Preço Total Efetivo,Causas das Alterações ao Prazo,Causas das Alterações ao Preço,Estado,N.º registo do Acordo Quadro,Descrição do Acordo Quadro,Procedimento Centralizado
Digoxina,Ajuste Direto Regime Geral,Aquisição de bens móveis,"33698000-9, Produtos para fins clínicos","Centro Hospitalar e Universitário de Coimbra, E. P. E. (510103448)",LOGIFARMA (508907365),"4.404,68 €",10-04-2014,14-01-2014,365 dias,"Portugal, Coimbra, Coimbra","Artigo 24.º, n.º 1, alínea e) do Código dos Contratos Públicos",31-12-2014,"4.823,28 €",,"",,Não aplicável.,Não aplicável.,FALSE
Dimetilsulfoxido puro esteril 10ml - amp,Ajuste Direto Regime Geral,Aquisição de bens móveis,"33698000-9, Produtos para fins clínicos","Centro Hospitalar e Universitário de Coimbra, E. P. E. (510103448)",Concessus - Sociedade de Apetrechamento Técnico e Cientifico (500070040),"6.751,00 €",10-04-2014,20-01-2014,365 dias,"Portugal, Coimbra, Coimbra","Artigo 20.º, n.º 1, alínea a) do Código dos Contratos Públicos",31-12-2014,"8.164,00 €",,"",,Não aplicável.,Não aplicável.,FALSE
Aztreonam 1000mg pó sol inj Fr IM IV,Ajuste Direto Regime Geral,Aquisição de bens móveis,"33698000-9, Produtos para fins clínicos","Centro Hospitalar e Universitário de Coimbra, E.P. (510103448)",Bristol Meyrs Squibb (500048193),"6.796,79 €",10-04-2014,14-11-2013,365 dias,"Portugal, Coimbra, Coimbra","Artigo 24.º, n.º 1, alínea e) do Código dos Contratos Públicos",31-12-2014,"10.800,79 €",,"",,Não aplicável.,Não aplicável.,FALSE
Milrinona 20mg/20ml sol inj fr 20ml IV,Ajuste Direto Regime Geral,Aquisição de bens móveis,"33698000-9, Produtos para fins clínicos","Centro Hospitalar e Universitário de Coimbra, E.P. (510103448)",Sanofi Produtos Farmaceuticos Lda (500134960),"6.938,80 €",10-04-2014,14-11-2013,365 dias,"Portugal, Coimbra, Coimbra","Artigo 24.º, n.º 1, alínea e) do Código dos Contratos Públicos",31-12-2014,"6.938,80 €",,"",,Não aplicável.,Não aplicável.,FALSE
cateter venoso central duplo lumen 14 g 20 cm (Kit) - 430 unidades  cateter venoso central um lumen 16 cm (p/jugular interna) (kit) - 430 unidades,Ajuste Direto Regime Geral,Aquisição de bens móveis,"33000000-0, Equipamento médico, medicamentos e produtos para cuidados pessoais","Centro Hospitalar e Universitário de Coimbra, E. P. E. (510103448)","B BRAUN MEDICAL, LDA (501506543)","7.090,70 €",10-04-2014,09-04-2014,365 dias,"Portugal, Coimbra, Coimbra","Artigo 20.º, n.º 1, alínea a) do Código dos Contratos Públicos","","",,"",,Não aplicável.,Não aplicável.,FALSE
Iodixanol 652 mg/ml sol inj fr 200ml IAIT IV,Ajuste Direto Regime Geral,Aquisição de bens móveis,"33698000-9, Produtos para fins clínicos","Centro Hospitalar e Universitário de Coimbra, E.P. (510103448)",Satis Radioisotopos e Protecções  Contra Sobretensões Eléctricas Unipessoal Lda (500098140),"5.689,60 €",09-04-2014,14-11-2013,365 dias,"Portugal, Coimbra, Coimbra","Artigo 24.º, n.º 1, alínea e) do Código dos Contratos Públicos",31-12-2014,"5.689,60 €",,"",,Não aplicável.,Não aplicável.,FALSE
Clorambucilo 2mg comp,Ajuste Direto Regime Geral,Aquisição de bens móveis,"33698000-9, Produtos para fins clínicos","Centro Hospitalar e Universitário de Coimbra, E.P. (510103448)",Pharmis Biofarmaceutica Lda (502595442),"5.366,25 €",09-04-2014,26-11-2013,365 dias,"Portugal, Coimbra, Coimbra","Artigo 24.º, n.º 1, alínea e) do Código dos Contratos Públicos",31-12-2014,"6.491,25 €",,"",,Não aplicável.,Não aplicável.,FALSE
Fenobarbital 200mg/2ml sol inj fr 2ml IM IV,Ajuste Direto Regime Geral,Aquisição de bens móveis,"33698000-9, Produtos para fins clínicos","Centro Hospitalar e Universitário de Coimbra, E.P. (510103448)",Labesfal- Laboratório Almiro SA (501169580),"5.390,00 €",09-04-2014,26-11-2013,365 dias,"Portugal, Coimbra, Coimbra","Artigo 24.º, n.º 1, alínea e) do Código dos Contratos Públicos",31-12-2014,"5.390,00 €",,"",,Não aplicável.,Não aplicável.,FALSE
Ciclofosfamida 500mg pó sol inj fr IV,Ajuste Direto Regime Geral,Aquisição de bens móveis,"33698000-9, Produtos para fins clínicos","Centro Hospitalar e Universitário de Coimbra, E.P. (510103448)",Baxter Medico Farmaceutica Lda (503347345),"7.229,25 €",09-04-2014,12-11-2013,365 dias,"Portugal, Coimbra, Coimbra","Artigo 24.º, n.º 1, alínea e) do Código dos Contratos Públicos",31-12-2014,"9.524,25 €",,"",,Não aplicável.,Não aplicável.,FALSE
Pancreatina Composta c/ Rev Enterico 25.000UI comp,Ajuste Direto Regime Geral,Aquisição de bens móveis,"33698000-9, Produtos para fins clínicos","Centro Hospitalar e Universitário de Coimbra, E. P. E. (510103448)",Abbott Laboratorios Lda (500006148),"4.967,03 €",09-04-2014,26-11-2013,365 dias,"Portugal, Coimbra, Coimbra","Artigo 24.º, n.º 1, alínea e) do Código dos Contratos Públicos",31-12-2014,"7.179,48 €",,"",,Não aplicável.,Não aplicável.,FALSE
Bicarbonato de sódio 1000mg caps,Ajuste Direto Regime Geral,Aquisição de bens móveis,"33698000-9, Produtos para fins clínicos","Centro Hospitalar e Universitário de Coimbra, E.P. (510103448)",Labesfal Laboratorios Almiro SA (501169580),"5.004,00 €",09-04-2014,26-11-2013,365 dias,"Portugal, Coimbra, Coimbra","Artigo 24.º, n.º 1, alínea e) do Código dos Contratos Públicos",31-12-2014,"6.672,00 €",,"",,Não aplicável.,Não aplicável.,FALSE
Lidocaina 36mg/1.8ml+Adrenalina 0.04mg/1.8ml,Ajuste Direto Regime Geral,Aquisição de bens móveis,"33698000-9, Produtos para fins clínicos","Centro Hospitalar e Universitário de Coimbra, E.P. (510103448)",Laboratorios Inibsa SA (500139571),"9.005,27 €",09-04-2014,26-11-2013,365 dias,"Portugal, Coimbra, Coimbra","Artigo 24.º, n.º 1, alínea e) do Código dos Contratos Públicos",31-12-2014,"9.005,27 €",,"",,Não aplicável.,Não aplicável.,FALSE
Iopromida 769mg/ml sol inj fr 50ml IA,Ajuste Direto Regime Geral,Aquisição de bens móveis,"33698000-9, Produtos para fins clínicos","Centro Hospitalar e Universitário de Coimbra, E.P. (510103448)",Bayer Portugal SA (500043256),"8.860,50 €",09-04-2014,27-12-2013,365 dias,"Portugal, Coimbra, Coimbra","Artigo 24.º, n.º 1, alínea e) do Código dos Contratos Públicos",31-12-2014,"10.840,50 €",,"",,Não aplicável.,Não aplicável.,FALSE
Toxina Botulinica B 5000U/ml sol inj fr 1ml IM,Ajuste Direto Regime Geral,Aquisição de bens móveis,"33698000-9, Produtos para fins clínicos","Centro Hospitalar e Universitário de Coimbra, E. P. E. (510103448)",Eisai Farmaceutica Lda (507847660),"8.663,20 €",09-04-2014,18-12-2013,365 dias,"Portugal, Coimbra, Coimbra","Artigo 24.º, n.º 1, alínea e) do Código dos Contratos Públicos",31-12-2014,"8.663,20 €",,"",,Não aplicável.,Não aplicável.,FALSE
Rilmenidina 1mg comp,Ajuste Direto Regime Geral,Aquisição de bens móveis,"33698000-9, Produtos para fins clínicos","Centro Hospitalar e Universitário de Coimbra, E. P. E. (510103448)",Servier Portugal Especialidades Farmaceuticas Lda (502177420),"9.464,24 €",09-04-2014,12-11-2013,365 dias,"Portugal, Coimbra, Coimbra","Artigo 24.º, n.º 1, alínea e) do Código dos Contratos Públicos",31-12-2014,"12.371,84 €",,"",,Não aplicável.,Não aplicável.,FALSE
Adenosina 6mg/2ml sol inj fr 2mkl IV,Ajuste Direto Regime Geral,Aquisição de bens móveis,"33698000-9, Produtos para fins clínicos","Centro Hospitalar e Universitário de Coimbra, E.P. (510103448)",Sanofi Produtos Farmaceuticos Lda (500134960),"8.262,66 €",09-04-2014,26-11-2013,365 dias,"Portugal, Coimbra, Coimbra","Artigo 24.º, n.º 1, alínea e) do Código dos Contratos Públicos",31-12-2014,"8.262,66 €",,"",,Não aplicável.,Não aplicável.,FALSE
Ácido Ioxitalâmico 660.3 mg/ml sol oral fr 50ml,Ajuste Direto Regime Geral,Aquisição de bens móveis,"33698000-9, Produtos para fins clínicos","Centro Hospitalar e Universitário de Coimbra, E.P. (510103448)",A. Martins & Fernandes SA (501172114),"8.200,00 €",08-04-2014,28-11-2013,365 dias,"Portugal, Coimbra, Coimbra","Artigo 24.º, n.º 1, alínea e) do Código dos Contratos Públicos",31-12-2014,"8.200,00 €",,"",,Não aplicável.,Não aplicável.,FALSE
Everolimus 10mg comp,Ajuste Direto Regime Geral,Aquisição de bens móveis,"33698000-9, Produtos para fins clínicos","Centro Hospitalar e Universitário de Coimbra, E.P. (510103448)",Novartis Farma - Produtos Farmaceuticos SA (500063524),"200.711,21 €",08-04-2014,31-01-2014,365 dias,"Portugal, Coimbra, Coimbra","Artigo 24.º, n.º 1, alínea e) do Código dos Contratos Públicos",31-12-2014,"200.711,21 €",,"",,Não aplicável.,Não aplicável.,FALSE
Trolamina 6.7mg/g emul cut bisn 100ml,Ajuste Direto Regime Geral,Aquisição de bens móveis,"33698000-9, Produtos para fins clínicos","Centro Hospitalar e Universitário de Coimbra, E. P. E. (510103448)",Johnson & Jonhson (500153370),"7.894,18 €",08-04-2014,27-12-2013,365 dias,"Portugal, Coimbra, Coimbra","Artigo 24.º, n.º 1, alínea e) do Código dos Contratos Públicos",31-12-2014,"7.894,18 €",,"",,Não aplicável.,Não aplicável.,FALSE
Activador Olympus Mod. 420004 Endoact 5L Bidon,Ajuste Direto Regime Geral,Aquisição de bens móveis,"33698000-9, Produtos para fins clínicos","Centro Hospitalar e Universitário de Coimbra, E.P. (510103448)",Olympus Iberia S.A.U. (980474710),"8.964,95 €",08-04-2014,28-11-2013,365 dias,"Portugal, Coimbra, Coimbra","Artigo 24.º, n.º 1, alínea e) do Código dos Contratos Públicos",31-12-2014,"10.537,75 €",,"",,Não aplicável.,Não aplicável.,FALSE
Iobitridol 767.8mg/ml sol inj fr 200ml IV,Ajuste Direto Regime Geral,Aquisição de bens móveis,"33698000-9, Produtos para fins clínicos","Centro Hospitalar e Universitário de Coimbra, E.P. (510103448)",A. Martins & Fernandes SA (501172114),"9.216,00 €",08-04-2014,26-11-2013,365 dias,"Portugal, Coimbra, Coimbra","Artigo 24.º, n.º 1, alínea e) do Código dos Contratos Públicos",31-12-2014,"9.216,00 €",,"",,Não aplicável.,Não aplicável.,FALSE
Sol Hemof Glucose 1mg/ml sac 4500ml IV,Ajuste Direto Regime Geral,Aquisição de bens móveis,"33698000-9, Produtos para fins clínicos","Centro Hospitalar e Universitário de Coimbra, E.P. (510103448)",Fresenius Medical Care Portugal SA (503070220),"20.811,60 €",08-04-2014,03-12-2013,365 dias,"Portugal, Coimbra, Coimbra","Artigo 24.º, n.º 1, alínea e) do Código dos Contratos Públicos",31-12-2014,"20.811,60 €",,"",,Não aplicável.,Não aplicável.,FALSE
Cloreto de Acetilcolina 20mg pó sol inj fr Iocular,Ajuste Direto Regime Geral,Aquisição de bens móveis,"33698000-9, Produtos para fins clínicos","Centro Hospitalar e Universitário de Coimbra, E.P. (510103448)",Bausch & Lomb SA (980218764),"12.122,00 €",08-04-2014,27-12-2013,365 dias,"Portugal, Coimbra, Coimbra","Artigo 24.º, n.º 1, alínea e) do Código dos Contratos Públicos",11-12-2014,"14.402,00 €",,"",,Não aplicável.,Não aplicável.,FALSE
Sol Hemof Lactato3mmol/l sac 5000ml,Ajuste Direto Regime Geral,Aquisição de bens móveis,"33698000-9, Produtos para fins clínicos","Centro Hospitalar e Universitário de Coimbra, E.P. (510103448)",Gambro Lundia  AB - Sucursal em Portugal (980367751),"11.928,00 €",08-04-2014,28-01-2014,365 dias,"Portugal, Coimbra, Coimbra","Artigo 24.º, n.º 1, alínea e) do Código dos Contratos Públicos",31-12-2014,"11.928,00 €",,"",,Não aplicável.,Não aplicável.,FALSE
Cetorolac 10mg/1ml sol inj fr 1ml IM IV,Ajuste Direto Regime Geral,Aquisição de bens móveis,"33698000-9, Produtos para fins clínicos","Centro Hospitalar e Universitário de Coimbra, E.P. (510103448)",Roche Farmaceurica Quimica Lda (500233810),"11.576,32 €",08-04-2014,04-12-2013,365 dias,"Portugal, Coimbra, Coimbra","Artigo 24.º, n.º 1, alínea e) do Código dos Contratos Públicos",31-12-2014,"11.576,32 €",,"",,Não aplicável.,Não aplicável.,FALSE
AQUISIÇÃO DE 1 COFRE DE CHUMBO PARA A UNIDADE DE CUIDADOS CIRURGICOS (504),Ajuste Direto Regime Geral,Aquisição de bens móveis,"30000000-9, Máquinas, equipamento e material de escritório e de informática, excepto mobiliário e pacotes de programas (software)","Centro Hospitalar e Universitário de Coimbra, E. P. E. (510103448)",MARIO MIRANDA DE ALMEIDA (501469044),"34,00 €",08-04-2014,31-03-2014,4 dias,"Portugal, Coimbra, Coimbra","Artigo 20.º, n.º 1, alínea a) do Código dos Contratos Públicos","","",,"",,Não aplicável.,Não aplicável.,FALSE
Fitomenadiona 10mg/1ml sol inj fr 1ml IV oral,Ajuste Direto Regime Geral,Aquisição de bens móveis,"33698000-9, Produtos para fins clínicos","Centro Hospitalar e Universitário de Coimbra, E.P. (510103448)",Roche Farmaceutica Quimica Lda (500233810),"17.458,00 €",08-04-2014,30-01-2014,365 dias,"Portugal, Coimbra, Coimbra","Artigo 24.º, n.º 1, alínea e) do Código dos Contratos Públicos",31-12-2014,"17.458,00 €",,"",,Não aplicável.,Não aplicável.,FALSE
Valganciclovir 50mg/ml pó sol oral fr 100ml,Ajuste Direto Regime Geral,Aquisição de bens móveis,"33698000-9, Produtos para fins clínicos","Centro Hospitalar e Universitário de Coimbra, E.P. (510103448)",Roche Farmaceutica Quimica Lda (500233810),"29.650,68 €",08-04-2014,27-12-2013,365 dias,"Portugal, Coimbra, Coimbra","Artigo 24.º, n.º 1, alínea e) do Código dos Contratos Públicos",31-12-2014,"36.096,48 €",,"",,Não aplicável.,Não aplicável.,FALSE
AQUISIÇÃO DE UM DESFIBRILHADOR PARA O BO DE GINECOLOGIA,Ajuste Direto Regime Geral,Aquisição de bens móveis,"33000000-0, Equipamento médico, medicamentos e produtos para cuidados pessoais","Centro Hospitalar e Universitário de Coimbra, E. P. E. (510103448)",MEDICINALIA CORMEDICA (500684324),"4.890,00 €",08-04-2014,08-04-2014,15 dias,"Portugal, Coimbra, Coimbra","Artigo 20.º, n.º 1, alínea a) do Código dos Contratos Públicos","","",,"",,Não aplicável.,Não aplicável.,FALSE
Aquisição de uma cadeira de rodas,Ajuste Direto Regime Geral,Aquisição de bens móveis,"33000000-0, Equipamento médico, medicamentos e produtos para cuidados pessoais","Centro Hospitalar e Universitário de Coimbra, E. P. E. (510103448)","Mobilitec, Lda. (506343910)","106,50 €",07-04-2014,07-04-2014,5 dias,"Portugal, Coimbra, Coimbra","Artigo 20.º, n.º 1, alínea a) do Código dos Contratos Públicos","","",,"",,Não aplicável.,Não aplicável.,FALSE
Aquisição de uma Marquesa hidraulica,Ajuste Direto Regime Geral,Aquisição de bens móveis,"33000000-0, Equipamento médico, medicamentos e produtos para cuidados pessoais","Centro Hospitalar e Universitário de Coimbra, E. P. E. (510103448)","IMO - Ind. Metalúrgicas, S.A. (500136939)","2.121,00 €",04-04-2014,04-04-2014,30 dias,"Portugal, Coimbra, Coimbra","Artigo 20.º, n.º 1, alínea a) do Código dos Contratos Públicos","","",,"",,Não aplicável.,Não aplicável.,FALSE
Aquisição de um cesto perfurado com tampa e tapete de silicone,Ajuste Direto Regime Geral,Aquisição de bens móveis,"33000000-0, Equipamento médico, medicamentos e produtos para cuidados pessoais","Centro Hospitalar e Universitário de Coimbra, E. P. E. (510103448)","Eurocasmédica - Produtos Hospitalares, S.A. (503322105)","152,00 €",03-04-2014,03-04-2014,45 dias,"Portugal, Coimbra, Coimbra","Artigo 20.º, n.º 1, alínea a) do Código dos Contratos Públicos","","",,"",,Não aplicável.,Não aplicável.,FALSE
": Aquisição de Serviços de desinfestação, desparasitação e desratização ao CHUC,EPE, ano 2014",Ajuste Direto Regime Geral,Aquisição de serviços,"90670000-4, Serviços de desinfecção e exterminação em áreas urbanas ou rurais","Centro Hospitalar e Universitário de Coimbra, E. P. E. (510103448)",Ambinorma II (507583698),"3.190,50 €",03-04-2014,03-04-2014,275 dias,"Portugal, Coimbra, Coimbra","Artigo 20.º, n.º 1, alínea a) do Código dos Contratos Públicos","","",,"",,Não aplicável.,Não aplicável.,FALSE
Aquisição de 1 Monitor de Pressão Arterial,Ajuste Direto Regime Geral,Aquisição de bens móveis,"33000000-0, Equipamento médico, medicamentos e produtos para cuidados pessoais","Centro Hospitalar e Universitário de Coimbra, E. P. E. (510103448)","Iberdata - Equipamentos, S.A. (501904921)","887,63 €",03-04-2014,03-04-2014,28 dias,"Portugal, Coimbra, Coimbra","Artigo 20.º, n.º 1, alínea a) do Código dos Contratos Públicos","","",,"",,Não aplicável.,Não aplicável.,FALSE
Aquisição de 12 Equipamentos Tácteis,Ajuste Direto Regime Geral,Aquisição de bens móveis,"30000000-9, Máquinas, equipamento e material de escritório e de informática, excepto mobiliário e pacotes de programas (software)","Centro Hospitalar e Universitário de Coimbra, E. P. E. (510103448)","Espectro - Sistemas de Informação, S.A. (503115231)","8.856,00 €",02-04-2014,02-04-2014,20 dias,"Portugal, Coimbra, Coimbra","Artigo 20.º, n.º 1, alínea a) do Código dos Contratos Públicos","","",,"",,Não aplicável.,Não aplicável.,FALSE
"aquisição de Serviços de Assistência pós venda do Software Aplicacional ALERT - Healthcare Solutions, do CHUC.EPE, para o ano 2014(contratação SPMS)",Ajuste Direto Regime Geral,Aquisição de serviços,"72000000-5, Serviços de TI: consultoria, desenvolvimento de software, Internet e apoio","Centro Hospitalar e Universitário de Coimbra, E. P. E. (510103448)",Alert Life Sciences (507567455),"65.286,00 €",02-04-2014,25-03-2014,365 dias,"Portugal, Coimbra, Coimbra","Artigo 24.º, n.º 1, alínea e) do Código dos Contratos Públicos","","",,"",,Não aplicável.,Não aplicável.,FALSE
"Aquisição de Licença SW Filemaker, CHUC.EPE",Ajuste Direto Regime Geral,Aquisição de serviços,"72000000-5, Serviços de TI: consultoria, desenvolvimento de software, Internet e apoio","Centro Hospitalar e Universitário de Coimbra, E. P. E. (510103448)",3WD INFORMATICA (508249449),"900,00 €",02-04-2014,02-04-2014,365 dias,"Portugal, Coimbra, Coimbra","Artigo 20.º, n.º 1, alínea a) do Código dos Contratos Públicos","","",,"",,Não aplicável.,Não aplicável.,FALSE
Aquisição de Papel para fotocópia e Impressão,Ao abrigo de acordo-quadro (art.º 259.º),Aquisição de bens móveis,"30197643-5, Papel para fotocópia","Administração Regional de Saúde do Centro, IP (503122165), Instituto Português de Oncologia de Coimbra Francisco Gentil, EPE (506361438), Centro Hospitalar de S. João, EPE (509821197), Centro Hospitalar Vila Nova de Gaia/Espinho, EPE (508142156), Hospital Professor Doutor Fernando Fonseca, EPE (503035416), Centro Hospitalar e Universitário de Coimbra, EPE (510103448), Inspeção-Geral das Atividades em Saúde (600018857), Unidade Local de saúde da Guarda, EPE (508752000), Hospital de Santarém, EPE (506361462), Hospital Espírito Santo, EPE (508085888), Centro Hospitalar Barreiro Montijo, EPE (509186998), Hospital de Magalhães Lemos, EPE (502828790), Centro Hospitalar Tondela-Viseu, EPE (509822940), Centro Hospitalar do Algarve, EPE (510745997), Hospital Santa Maria Maior, EPE (506361381), Serviço de Intervenção nos Comportamentos Aditivos e nas Dependências (600084884), Centro Hospitalar de Lisboa Norte, EPE (508481287), Centro Hospitalar de Leiria-Pombal, EPE (509822932), Centro Hospitalar de Trás-os-Montes e Alto Douro, EPE (508100496), Hospital Garcia de Orta, EPE (506361470), Administração Regional de Saúde do Algarve, IP (503148709), Unidade Local de Saúde do Norte Alentejano, EPE (508094461), Unidade Local de Saúde do Nordeste, EPE (509932584), Instituto de Oftalmologia Dr. Gama Pinto (600000052), Centro Hospitalar de Lisboa Ocidental, EPE (507618319), Unidade Local de Saúde do Baixo Alentejo, EPE (508754275), Hospital Dr. Francisco Zagalo (507846044), Centro Hospitalar de Setúbal, EPE (507606787), Administração Regional de Saúde do Norte, IP (503135593), Centro Hospitalar de Entre Douro e Vouga,  EPE (508878462), Unidade Local de Saúde do Alto Minho, EPE (508786193), Centro Hospitalar do Alto Ave, EPE (508080827), Instituto Português de Oncologia do Porto Francisco Gentil, EPE (506362299), Autoridade Nacional do Medicamento e Produtos de Saúde, IP (600037002), Centro Medicina de Reabilitação da Região Centro Rovisco Pais (503767336), Instituto Nacional de Emergência Médica, IP (501356126), Centro Hospitalar do Oeste (510412009), Secretaria-Geral do Ministério da Saúde (600080684), Instituto Nacional de Saúde Dr. Ricardo Jorge, IP (501427511), Hospital José Luciano de Castro (501613021), Instituto Português do Sangue e da Transplantação, IP (502423943), Hospital Arcebispo João Crisóstomo (501626123), Centro Hospitalar do Médio Ave, EPE (508093937), Direção-Geral da Saúde (600037100), Serviços Partilhados do Ministério da Saúde, EPE (509540716), Centro Hospitalar Cova da Beira, EPE (506361659), Centro Hospitalar do Médio Tejo, EPE (506361608), Administração Regional de Saúde do Alentejo, IP (503148768), Unidade Local de Saúde de Castelo Branco, EPE (509309844), Centro Hospitalar Psiquiátrico de Lisboa (508338476), Administração Regional de Saúde de Lisboa e Vale do Tejo, IP (503148776), Centro Hospitalar Lisboa Central, EPE (508080142), Centro Hospitalar do Porto, EPE (508331471), Administração Central do Sistema de Saúde, IP (508188423), Centro Hospitalar Tâmega e Sousa, EPE (508318262), Hospital Distrital Figueira da Foz, EPE (506361527), Unidade Local de Saúde de Matosinhos, EPE (506361390)","Staples Portugal, S.A. (503789372)","1.678.737,97 €",01-04-2014,02-01-2014,365 dias,Portugal,Artigo 259.º do Código dos Contratos Públicos,30-01-2014,"5.443,80 €",,O total efetivo corresponde apenas a este Centro Hospitalar.,,162548,"Concurso limitado por prévia qualificação para a celebração de Acordo Quadro para fornecimento de papel, economato e consumíveis de impressão.",TRUE
"Aquisição de eletricidade englobando BTE, MT, AT e MAT",Ao abrigo de acordo-quadro (art.º 259.º),Aquisição de bens móveis,"09310000-5, Electricidade","Secretaria-Geral do Ministério da Saúde (600080684), Instituto de Oftalmologia Dr. Gama Pinto (600000052), Unidade Local de Saúde do Alto Minho, E. P. E. (508786193), Hospital Dr. Francisco Zagalo - Ovar (501510150), SUCH - Serviço de Utilização Comum dos Hospitais (500900469), Centro Hospitalar de Lisboa Ocidental, E.P.E. (507618319), Administração Regional de Saúde Algarve, I.P. (503148709), Insituto Nacional de Saúde Dr. Ricardo Jorge, I.P. (501427511), Centro Hospitalar do Médio Tejo, E. P. E. (506361608), Direcção-Geral da Saúde (600037100), Centro Hospitalar de Lisboa Central, E. P. E. (508080142), Centro Hospitalar do Tâmega e Sousa, E. P. E. (508318262), Centro Hospitalar Barreiro Montijo, E.P.E. (509186998), Serviço Partilhados do Ministério da Saúde, E. P. E. (509540716), Hospital José Luciano de Castro - Anadia (501613021), Centro Hospitalar de Setúbal, E. P. E. (507606787), Unidade Local de Saúde da Guarda, E.P.E. (508752000), Centro Hospitalar do Médio Ave, E.P.E. (508093937), Centro Hospitalar Lisboa Norte, E. P. E. (508481287), Hospital Santa Maria Maior, E.P.E. - Barcelos (506361381), Instituto Português do sangue (502423943), Unidade Local de Saúde de Castelo Branco, E.P.E. (509309844), Unidade Local de Saúde do Nordeste, E. P. E (509932584), Administração Regional de Saúde de Lisboa e Vale do Tejo, I. P. (503148776), Inspeção-Geral das Atividades em Saúde (600018857), Centro Hospitalar de Leiria, E.P.E. (509822932), Centro Hospitalar do Alto Ave, E.P.E. (508080827), Hospital de Santarém, E.P.E. (506361462), Hospital de Magalhães Lemos, E. P. E. (502828790), Centro Hospitalar de Trás-os-Montes e Alto Douro, E. P. E. (508100496), INFARMED - Autoridade Nacional do Medicamento e Produtos de Saúde I.P. (600037002), Unidade Local de Saúde do Litoral Alentejano, E.P.E. (510445152), Centro Hospitalar Tondela-Viseu, E.P.E. (509822940), Centro Hospitalar de Entre o Douro e Vouga, E.P.E. (508878462), Unidade Local de Saúde de Matosinhos, E.P.E. (506361390), Administração Regional de Saúde do Norte, I. P. (503135593), Centro Hospitalar do Porto, E.P.E. (508331471), Centro Hospitalar Vila Nova de Gaia - Espinho, E. P. E. (508142156), Centro Hospitalar e Universitário de Coimbra, E. P. E. (510103448), Centro Hospitalar Psiquiátrico de Lisboa (508338476), Hospital do Espírito Santo de Évora, E. P. E. (508085888), Administração Central do Sistema de Saúde, I.P. (508188423), Administração Regional de Saúde do Centro, I. P. (503122165), Centro Hospitalar Cova da Beira, EPE (506361659), Instituto Nacional de Emergência Médica, I.P. (501356126), Centro Hospitalar do Baixo Vouga, E.P.E. (510123210), Centro Medicina de Reabilitação da Região Centro Rovisco Pais (503767336), Unidade Local de Saúde do Baixo Alentejo, E.P.E. (508754275), CENTRO HOSPITALAR DO ALGARVE (508718872), Instituto Português Oncologia do Porto Francisco Gentil, E.P.E. (506362299), Hospital Professor Doutor Fernando Fonseca, E.P.E. (503035416), Administração Regional de Saúde do Alentejo, I. P. (503148768), Hospital Garcia de Orta, E.P.E. (506361470), CHO - Centro Hospitalar do Oeste (510412009), Instituto Português Oncologia de Coimbra Francisco Gentil, E.P.E. (506361438), Centro Hospitalar Póvoa de Varzim - Vila do Conde, E.P.E. (508741823)","EDP Comercial, SA (503504564)","23.711.683,78 €",01-04-2014,01-03-2014,365 dias,Portugal,Artigo 259.º do Código dos Contratos Públicos,30-12-2014,"356.327,09 €",,diminuicao das necessidades,,314294,Acordo quadro para o fornecimento de electricidade em regime de mercado livre para Portugal Continental,TRUE
KIT P/ CIRURGIA LAPAROSCOPICA POR UNICA PORTA DE ENTRADA T/P REF. TRIPORT W58050t - 36 unidades,Ajuste Direto Regime Geral,Aquisição de bens móveis,"33000000-0, Equipamento médico, medicamentos e produtos para cuidados pessoais","Centro Hospitalar e Universitário de Coimbra, E. P. E. (510103448)","OLYMPUS IBERIA, S.A.U.-SUCURSAL EM PORTUGAL (980474710)","15.477,60 €",01-04-2014,18-02-2014,365 dias,"Portugal, Coimbra, Coimbra","Artigo 20.º, n.º 1, alínea a) do Código dos Contratos Públicos","","",,"",,Não aplicável.,Não aplicável.,FALSE
AGULHA ANESTESIA EPIDURAL 18G X 3/4 T/P TUHOY - 150 UNIDADES  FILTRO PLANO PARA ANESTESIA EPIDURAL - 75 UNIDADES  AGULHA DE PUNÇÃO LOMBAR 22 G - 100 UNIDADES  AGULHA BISEL PARA ANESTESIA RAQUIDIANA - 50 UNIDADES,Ajuste Direto Regime Geral,Aquisição de bens móveis,"33000000-0, Equipamento médico, medicamentos e produtos para cuidados pessoais","Centro Hospitalar e Universitário de Coimbra, E. P. E. (510103448)","B BRAUN MEDICAL, LDA (501506543)","1.043,22 €",01-04-2014,19-03-2014,365 dias,"Portugal, Coimbra, Coimbra","Artigo 20.º, n.º 1, alínea a) do Código dos Contratos Públicos","","",,"",,Não aplicável.,Não aplicável.,FALSE
"Aquisição de cortinados/varões/biombos para o BO do HG, CHUC,EPE",Ajuste Direto Regime Geral,Aquisição de bens móveis,"39100000-3, Mobiliário","Centro Hospitalar e Universitário de Coimbra, E. P. E. (510103448)",Bacelar (500532818),"5.494,52 €",31-03-2014,31-03-2014,30 dias,"Portugal, Coimbra, Coimbra","Artigo 20.º, n.º 1, alínea a) do Código dos Contratos Públicos","","",,"",,Não aplicável.,Não aplicável.,FALSE
Aquisição de Material de Drenagem,Ajuste Direto Regime Geral,Aquisição de bens móveis,"33000000-0, Equipamento médico, medicamentos e produtos para cuidados pessoais","Centro Hospitalar e Universitário de Coimbra, E. P. E. (510103448)","CATIMED- PRODUTOS HOSPITALARES, LDA (503416568)","2.520,00 €",31-03-2014,01-01-2014,365 dias,"Portugal, Coimbra, Coimbra","Artigo 20.º, n.º 1, alínea a) do Código dos Contratos Públicos","","",,"",,Não aplicável.,Não aplicável.,FALSE
BROCA DE CRANIOTOMIA DRILL ANSPACH - 150 UNIDADES  SERRA CRANIOTOMIA DRILL ANSPACH - 60 UNIDADES  PERFURADOR CRANEANO DRILL ANSPACH - 30 UNIDADES,Ajuste Direto Regime Geral,Aquisição de bens móveis,"33000000-0, Equipamento médico, medicamentos e produtos para cuidados pessoais","Centro Hospitalar e Universitário de Coimbra, E. P. E. (510103448)",JOHNSON & JOHNSON LDA (500153370),"34.500,00 €",31-03-2014,28-03-2014,365 dias,"Portugal, Coimbra, Coimbra","Artigo 20.º, n.º 1, alínea a) do Código dos Contratos Públicos","","",,"",,Não aplicável.,Não aplicável.,FALSE
"Fenilefrina 5,376 mg + Ttropicamida 0,28 mg inserto oft",Ajuste Direto Regime Geral,Aquisição de bens móveis,"33698000-9, Produtos para fins clínicos","Centro Hospitalar e Universitário de Coimbra, E.P. (510103448)","Théa Portugal, S.A. (507978358)","11.137,90 €",31-03-2014,03-01-2014,365 dias,"Portugal, Coimbra, Coimbra","Artigo 24.º, n.º 1, alínea e) do Código dos Contratos Públicos",31-12-2014,"13.768,90 €",,"",,Não aplicável.,Não aplicável.,FALSE
