Objeto do Contrato,Tipo de Procedimento,Tipo(s) de Contrato,CPVs,Entidade(s) Adjudicante(s),Entidade(s) Adjudicatária(s),Preço Contratual,Data de Publicação,Data de Celebração do Contrato,Prazo de Execução,Local de Execução,Fundamentação,Data de Fecho do Contrato,Preço Total Efetivo,Causas das Alterações ao Prazo,Causas das Alterações ao Preço,Estado,N.º registo do Acordo Quadro,Descrição do Acordo Quadro,Procedimento Centralizado
AQUISIÇÃO DE IMUNOGLOBULINA HUMANA C/ TETANO 250UI/1ML IM,Ajuste Direto Regime Geral,Aquisição de bens móveis,"33690000-3, Medicamentos vários","Administração Regional de Saúde de Lisboa e Vale do Tejo, I. P. (503148776)","GRIFOLS PORTUGAL - PRODUTOS FARMACÊUTICOS E HOSPITALARES, LDA. (502041285)","30,00 €",10-04-2014,27-03-2014,1 dias,"Portugal, Lisboa, Lisboa","Artigo 26.º, n.º 1, alínea e) do Código dos Contratos Públicos","","",,"",,Não aplicável.,Não aplicável.,FALSE
"AQUISIÇÃO DE DESOGESTREL 0,075 MG COMP",Ajuste Direto Regime Geral,Aquisição de bens móveis,"33641410-2, Contraceptivos orais","Administração Regional de Saúde de Lisboa e Vale do Tejo, I. P. (503148776)","MERCK SHARP & DOHME, LDA (500191360)","66.124,80 €",10-04-2014,28-03-2014,1 dias,"Portugal, Lisboa, Lisboa","Artigo 26.º, n.º 1, alínea e) do Código dos Contratos Públicos","","",,"",,Não aplicável.,Não aplicável.,FALSE
AQUISIÇÃO DE SERINGA IRRECUPERÁVEL 2 CORPOS - 5 ML,Ajuste Direto Regime Geral,Aquisição de bens móveis,"33141310-6, Seringas","Administração Regional de Saúde de Lisboa e Vale do Tejo, I. P. (503148776)","B.BRAUN MEDICAL, LDA (501506543)","5.670,00 €",10-04-2014,10-04-2014,1 dias,"Portugal, Lisboa, Lisboa","Artigo 26.º, n.º 1, alínea e) do Código dos Contratos Públicos","","",,"",,Não aplicável.,Não aplicável.,FALSE
SERINGA IRRECUPERÁVEL 2 CORPOS - 10 ML,Ajuste Direto Regime Geral,Aquisição de bens móveis,"33141310-6, Seringas","Administração Regional de Saúde de Lisboa e Vale do Tejo, I. P. (503148776)","B.BRAUN MEDICAL, LDA. (501506543)","9.690,00 €",10-04-2014,10-04-2014,5 dias,"Portugal, Lisboa, Lisboa","Artigo 26.º, n.º 1, alínea e) do Código dos Contratos Públicos","","",,"",,Não aplicável.,Não aplicável.,FALSE
AQUISIÇÃO DE LIDOCAINA 20MG/G - GEL (BISNAGA DE 30G),Ajuste Direto Regime Geral,Aquisição de bens móveis,"33690000-3, Medicamentos vários","Administração Regional de Saúde de Lisboa e Vale do Tejo, I. P. (503148776)",Labesfal - Laboratórios Almiro S.A. (501169580),"8.800,00 €",10-04-2014,10-04-2014,1 dias,"Portugal, Lisboa, Lisboa","Artigo 24.º, n.º 1, alínea e) do Código dos Contratos Públicos","","",,"",,Não aplicável.,Não aplicável.,FALSE
Aquisição urgente de braçadeiras para os aparelhos de tensão arterial para adulto,Ajuste Direto Regime Geral,Aquisição de bens móveis,"33000000-0, Equipamento médico, medicamentos e produtos para cuidados pessoais","Administração Regional de Saúde de Lisboa e Vale do Tejo, I. P. (503148776)","Medinviv, Lda (509815359)","50,00 €",10-04-2014,10-03-2014,5 dias,"Portugal, Lisboa, Loures","Artigo 20.º, n.º 1, alínea a) do Código dos Contratos Públicos","","",,"",,Não aplicável.,Não aplicável.,FALSE
OBRAS NO CDP DE SINTRA - ESCORAMENTO DA SALA DE FARMÁCIA,Ajuste Direto Regime Geral,Empreitadas de obras públicas,"45113000-2, Obras no local","Administração Regional de Saúde de Lisboa e Vale do Tejo, I. P. (503148776)",António Macedo - Construção Civil e Obras Públicas Lda. (503320560),"350,00 €",10-04-2014,10-04-2014,2 dias,"Portugal, Lisboa, Sintra","Artigo 19.º, alínea a) do Código dos Contratos Públicos","","",,"",,Não aplicável.,Não aplicável.,FALSE
AQUISIÇÃO DE CARVAO ACTIVADO 50G SUSP ORAL FR 500ML,Ajuste Direto Regime Geral,Aquisição de bens móveis,"33690000-3, Medicamentos vários","Administração Regional de Saúde de Lisboa e Vale do Tejo, I. P. (503148776)",Laboratorio Medinfar - Produtos Farmaceuticos S.A. (500384045),"674,75 €",10-04-2014,31-03-2014,3 dias,"Portugal, Lisboa, Lisboa","Artigo 26.º, n.º 1, alínea e) do Código dos Contratos Públicos","","",,"",,Não aplicável.,Não aplicável.,FALSE
"AQUISIÇÃO DE COLAGENASE 0,6 U/G POM 30G",Ajuste Direto Regime Geral,Aquisição de bens móveis,"33690000-3, Medicamentos vários","Administração Regional de Saúde de Lisboa e Vale do Tejo, I. P. (503148776)","Smith & Nephew, Lda. (503552461)","14.277,00 €",09-04-2014,31-03-2014,2 dias,"Portugal, Lisboa, Lisboa","Artigo 26.º, n.º 1, alínea e) do Código dos Contratos Públicos","","",,"",,Não aplicável.,Não aplicável.,FALSE
AQUISIÇÃO DE ETONOGESTREL 68 MG IMPLANTE SC,Ajuste Direto Regime Geral,Aquisição de bens móveis,"33641410-2, Contraceptivos orais","Administração Regional de Saúde de Lisboa e Vale do Tejo, I. P. (503148776)","Merck, Sharp & Dohme, Lda. (500191360)","60.996,00 €",09-04-2014,28-03-2014,20 dias,"Portugal, Lisboa, Lisboa","Artigo 26.º, n.º 1, alínea e) do Código dos Contratos Públicos","","",,"",,Não aplicável.,Não aplicável.,FALSE
AQUISIÇÃO DE DICLOFENAC 75 MG/3ML SOL INJ IM IV,Ajuste Direto Regime Geral,Aquisição de bens móveis,"33690000-3, Medicamentos vários","Administração Regional de Saúde de Lisboa e Vale do Tejo, I. P. (503148776)","Labesfal - Laboratórios Almiro, S.A. (501169580)","19.200,00 €",09-04-2014,09-04-2014,365 dias,"Portugal, Lisboa, Lisboa","Artigo 26.º, n.º 1, alínea e) do Código dos Contratos Públicos","","",,"",,Não aplicável.,Não aplicável.,FALSE
AQUISIÇÃO DE VAC CONTRA POLIOMIELITE (VIP) SUSP INJ IM SC,Ajuste Direto Regime Geral,Aquisição de bens móveis,"33651600-4, Vacinas","Administração Regional de Saúde de Lisboa e Vale do Tejo, I. P. (503148776)","Sanofi Pasteur MSD, S.A. (507632796)","144.000,00 €",09-04-2014,08-04-2014,365 dias,"Portugal, Lisboa, Lisboa","Artigo 26.º, n.º 1, alínea e) do Código dos Contratos Públicos","","",,"",,Não aplicável.,Não aplicável.,FALSE
AQUISIÇÃO DE VACINA CONTRA O PAPILOMA VIRUS HUMANO (HPV),Ajuste Direto Regime Geral,Aquisição de bens móveis,"33651600-4, Vacinas","Administração Regional de Saúde de Lisboa e Vale do Tejo, I. P. (503148776)","Sanofi Pasteur MSD, S.A. (507632796)","1.595.000,00 €",09-04-2014,08-04-2014,365 dias,"Portugal, Lisboa, Lisboa","Artigo 26.º, n.º 1, alínea e) do Código dos Contratos Públicos","","",,"",,Não aplicável.,Não aplicável.,FALSE
AQUISIÇÃO DE VAC PENTA DTPAHIBVIP INJ IM,Ajuste Direto Regime Geral,Aquisição de bens móveis,"33651600-4, Vacinas","Administração Regional de Saúde de Lisboa e Vale do Tejo, I. P. (503148776)","Sanofi Pasteur MSD, S.A. (507632796)","1.666.500,00 €",09-04-2014,28-03-2014,365 dias,"Portugal, Lisboa, Lisboa","Artigo 26.º, n.º 1, alínea e) do Código dos Contratos Públicos","","",,"",,Não aplicável.,Não aplicável.,FALSE
AQUISIÇÃO DE VAC SARAMPO/PAROTID/RUBEOLA-VASPR INJ SC,Ajuste Direto Regime Geral,Aquisição de bens móveis,"33651600-4, Vacinas","Administração Regional de Saúde de Lisboa e Vale do Tejo, I. P. (503148776)","Sanofi Pasteur MSD, S.A. (507632796)","630.000,00 €",09-04-2014,28-03-2014,365 dias,"Portugal, Lisboa, Lisboa","Artigo 26.º, n.º 1, alínea e) do Código dos Contratos Públicos","","",,"",,Não aplicável.,Não aplicável.,FALSE
Paracetamol 500MG SUP,Ajuste Direto Regime Geral,Aquisição de bens móveis,"33690000-3, Medicamentos vários","Administração Regional de Saúde de Lisboa e Vale do Tejo, I. P. (503148776)","OVERPHARMA - PRODUTOS MÉDICOS E FARMACÊUTICOS, LDA. (505792362)","1.248,00 €",08-04-2014,21-03-2014,2 dias,"Portugal, Lisboa, Lisboa","Artigo 26.º, n.º 1, alínea e) do Código dos Contratos Públicos","","",,"",,Não aplicável.,Não aplicável.,FALSE
AQUISIÇÃO DE ACIDO ACETILSALICILICO 100 MG CP,Ajuste Direto Regime Geral,Aquisição de bens móveis,"33690000-3, Medicamentos vários","Administração Regional de Saúde de Lisboa e Vale do Tejo, I. P. (503148776)","Ratiopharm - Comércio e Indústria de Produtos Farmacêuticos, Lda. (502414910)","36,00 €",08-04-2014,24-03-2014,20 dias,"Portugal, Lisboa, Lisboa","Artigo 26.º, n.º 1, alínea e) do Código dos Contratos Públicos","","",,"",,Não aplicável.,Não aplicável.,FALSE
AQUISIÇÃO DE VAC TETRA DTPAHIB SUSP INJ IM,Ajuste Direto Regime Geral,Aquisição de bens móveis,"33651600-4, Vacinas","Administração Regional de Saúde de Lisboa e Vale do Tejo, I. P. (503148776)","Glaxosmithkline - Produtos Farmaceuticos, Lda. (500139962)","593.200,00 €",08-04-2014,07-04-2014,365 dias,"Portugal, Lisboa, Lisboa","Artigo 26.º, n.º 1, alínea e) do Código dos Contratos Públicos","","",,"",,Não aplicável.,Não aplicável.,FALSE
"AQUISIÇÃO DE VAC HEPATITE B INF 10MCG/0,5ML SUSP INJ",Ajuste Direto Regime Geral,Aquisição de bens móveis,"33651600-4, Vacinas","Administração Regional de Saúde de Lisboa e Vale do Tejo, I. P. (503148776)","Glaxosmithkline - Produtos Farmaceuticos, Lda. (500139962)","321.750,00 €",08-04-2014,07-04-2014,5 dias,"Portugal, Lisboa, Lisboa","Artigo 26.º, n.º 1, alínea e) do Código dos Contratos Públicos","","",,"",,Não aplicável.,Não aplicável.,FALSE
FORNECIMENTO DE ÁGUA PARA O ACES OESTE NORTE - ANO 2014.,Ajuste Direto Regime Geral,Aquisição de serviços,"65100000-4, Serviços de distribuição de água e serviços conexos","Administração Regional de Saúde de Lisboa e Vale do Tejo, I. P. (503148776)",Serviços Municipalizados da Camara Municipal de Peniche (680019600),"209,96 €",08-04-2014,08-04-2014,365 dias,"Portugal, Leiria, Peniche","Artigo 24.º, n.º 1, alínea e) do Código dos Contratos Públicos","","",,"",,Não aplicável.,Não aplicável.,FALSE
"AQUISIÇÃO DE EQUIPAMENTO INFORMÁTICO PARA A ARSLVT, IP",Ao abrigo de acordo-quadro (art.º 258.º),Aquisição de bens móveis,"30230000-0, Equipamento informático","Administração Regional de Saúde de Lisboa e Vale do Tejo, I. P. (503148776)","CYBERGAL - GESTÃO, INFORMÁTICA E SERVIÇOS LDA. (505353431)","7.282,08 €",08-04-2014,06-03-2014,20 dias,"Portugal, Lisboa, Lisboa",Artigo 258.º do Código dos Contratos Públicos,"","",,"",,1185849,"AQUISIÇÃO DE EQUIPAMENTO INFORMÁTICO PARA A ARSLVT, IP",FALSE
"AQUISIÇÃO DE EQUIPAMENTO INFORMÁTICO PARA A ARSLVT, IP",Ao abrigo de acordo-quadro (art.º 258.º),Aquisição de bens móveis,"30230000-0, Equipamento informático","Administração Regional de Saúde de Lisboa e Vale do Tejo, I. P. (503148776)",EDNI - EMPRESA DISTRIBUIDORA DE MATERIAL INFORMÁTICO LDA. (503258121),"312,80 €",08-04-2014,07-03-2014,20 dias,"Portugal, Lisboa, Lisboa",Artigo 258.º do Código dos Contratos Públicos,"","",,"",,1185849,"AQUISIÇÃO DE EQUIPAMENTO INFORMÁTICO PARA A ARSLVT, IP",FALSE
"AQUISIÇÃO DE EQUIPAMENTO INFORMÁTICO PARA A ARSLVT, IP",Ao abrigo de acordo-quadro (art.º 258.º),Aquisição de bens móveis,"30230000-0, Equipamento informático","Administração Regional de Saúde de Lisboa e Vale do Tejo, I. P. (503148776)","Basedois - Informática e Telecomunicações, Lda (501333401)","29.680,00 €",08-04-2014,11-03-2014,15 dias,"Portugal, Lisboa, Lisboa",Artigo 258.º do Código dos Contratos Públicos,"","",,"",,1185849,"AQUISIÇÃO DE EQUIPAMENTO INFORMÁTICO PARA A ARSLVT, IP",FALSE
Aquisição de Solução Polimerica para reforço de estrato de Cornea,Ajuste Direto Regime Geral,Aquisição de bens móveis,"33000000-0, Equipamento médico, medicamentos e produtos para cuidados pessoais","Administração Regional de Saúde de Lisboa e Vale do Tejo, I. P. (503148776)","Smith & Nephew, Lda (503552461)","15.144,84 €",08-04-2014,08-04-2014,2 dias,"Portugal, Lisboa, Lisboa","Artigo 26.º, n.º 1, alínea e) do Código dos Contratos Públicos","","",,"",,Não aplicável.,Não aplicável.,FALSE
Aquisição de Pelicula de Poliuretano Transparente Adesiva,Ajuste Direto Regime Geral,Aquisição de bens móveis,"33000000-0, Equipamento médico, medicamentos e produtos para cuidados pessoais","Administração Regional de Saúde de Lisboa e Vale do Tejo, I. P. (503148776)","Smith & Nephew, Lda (503552461)","51.000,00 €",08-04-2014,08-04-2014,3 dias,"Portugal, Lisboa, Lisboa","Artigo 26.º, n.º 1, alínea e) do Código dos Contratos Públicos","","",,"",,Não aplicável.,Não aplicável.,FALSE
AQUISIÇÃO DE VAC TETRA DTPAVIP SUSP INJ IM,Ajuste Direto Regime Geral,Aquisição de bens móveis,"33651600-4, Vacinas","Administração Regional de Saúde de Lisboa e Vale do Tejo, I. P. (503148776)",Glaxosmithkline - Produtos Farmaceuticos Lda. (500139962),"383.200,00 €",08-04-2014,07-04-2014,365 dias,"Portugal, Lisboa, Lisboa","Artigo 26.º, n.º 1, alínea e) do Código dos Contratos Públicos","","",,"",,Não aplicável.,Não aplicável.,FALSE
AQUISIÇÃO DE NITROGLICERINA 0.5MG,Ajuste Direto Regime Geral,Aquisição de bens móveis,"33690000-3, Medicamentos vários","Administração Regional de Saúde de Lisboa e Vale do Tejo, I. P. (503148776)",Quilaban - Quimica Laboratorial Analítica Lda. (500399670),"1.721,65 €",08-04-2014,10-03-2014,2 dias,"Portugal, Lisboa, Lisboa","Artigo 24.º, n.º 1, alínea e) do Código dos Contratos Públicos","","",,"",,1195883,AQUISIÇÃO DE NITROGLICERINA 0.5MG,FALSE
FORNECIMENTO DE SERVIÇOS DE ÁGUAS PARA O ACES OESTE NORTE - ANO DE 2014.,Ajuste Direto Regime Geral,Aquisição de serviços,"65100000-4, Serviços de distribuição de água e serviços conexos","Administração Regional de Saúde de Lisboa e Vale do Tejo, I. P. (503148776)",Municipio de Óbidos (506802698),"815,86 €",08-04-2014,08-04-2014,365 dias,"Portugal, Leiria, Caldas da Rainha","Artigo 24.º, n.º 1, alínea e) do Código dos Contratos Públicos","","",,"",,Não aplicável.,Não aplicável.,FALSE
AQUISIÇÃO DE PARACETAMOL 10MG /ML SOL INJ 100ML IV,Ajuste Direto Regime Geral,Aquisição de bens móveis,"33690000-3, Medicamentos vários","Administração Regional de Saúde de Lisboa e Vale do Tejo, I. P. (503148776)",Fresenius Kabi Pharma Portugal Lda. (504293753),"284,50 €",08-04-2014,24-03-2014,1 dias,"Portugal, Lisboa, Lisboa","Artigo 26.º, n.º 1, alínea e) do Código dos Contratos Públicos","","",,"",,Não aplicável.,Não aplicável.,FALSE
SERINGA IRRECUPERÁVEL 2 CORPOS - 20 ML,Ajuste Direto Regime Geral,Aquisição de bens móveis,"33141310-6, Seringas","Administração Regional de Saúde de Lisboa e Vale do Tejo, I. P. (503148776)",Normax - Fábrica de Vidros Cientificos Lda. (500203130),"2.977,00 €",07-04-2014,07-04-2014,3 dias,"Portugal, Lisboa, Lisboa","Artigo 26.º, n.º 1, alínea e) do Código dos Contratos Públicos","","",,"",,Não aplicável.,Não aplicável.,FALSE
SERVIÇOS DE MANUTENÇÃO DO SOFTWARE MAXPRO PARA O ANO 2014,Ajuste Direto Regime Geral,Aquisição de serviços,"72267000-4, Serviços de manutenção e reparação de software","Administração Regional de Saúde de Lisboa e Vale do Tejo, I. P. (503148776)",	Sisqual - Empresa de Investigação e Desenvolvimento de Sistemas Informaticos Lda. (502772298),"10.253,50 €",07-04-2014,28-03-2014,278 dias,"Portugal, Lisboa, Lisboa","Artigo 24.º, n.º 1, alínea e) do Código dos Contratos Públicos","","",,"",,Não aplicável.,Não aplicável.,FALSE
FORNECIMENTO DE PEÇAS EXTRA-CONTRATO ANO 2014,Ajuste Direto Regime Geral,Aquisição de bens móveis,"42670000-3, Peças e acessórios para máquinas-ferramentas","Administração Regional de Saúde de Lisboa e Vale do Tejo, I. P. (503148776)","Atm-Sistemas de Informação e Serviços, S.A. (509784267)","24.000,00 €",07-04-2014,17-03-2014,289 dias,"Portugal, Lisboa, Lisboa","Artigo 24.º, n.º 1, alínea e) do Código dos Contratos Públicos","","",,"",,Não aplicável.,Não aplicável.,FALSE
MODELO 1396 - BOLETIM DE SAÚDE INFANTIL (MENINAS E MENINOS),Ajuste Direto Regime Geral,Aquisição de bens móveis,"22820000-4, Formulários","Administração Regional de Saúde de Lisboa e Vale do Tejo, I. P. (503148776)",Imprensa Nacional Casa da Moeda (500792887),"6.350,00 €",04-04-2014,04-04-2014,20 dias,"Portugal, Lisboa, Lisboa","Artigo 24.º, n.º 1, alínea e) do Código dos Contratos Públicos","","",,"",,Não aplicável.,Não aplicável.,FALSE
AQUISIÇÃO DE LAMINAS DE BISTURI 11 E 22,Ajuste Direto Regime Geral,Aquisição de bens móveis,"33141411-4, Bisturis e lâminas","Administração Regional de Saúde de Lisboa e Vale do Tejo, I. P. (503148776)",Ezequiel Panão Jorge Lda. (501412727),"13.248,00 €",03-04-2014,03-04-2014,3 dias,"Portugal, Lisboa, Lisboa","Artigo 20.º, n.º 1, alínea a) do Código dos Contratos Públicos","","",,"",,Não aplicável.,Não aplicável.,FALSE
AQUISIÇÃO DE SERINGA IRRECUPERÁVEL 2 CORPOS BICO CATETER 50 ML,Ajuste Direto Regime Geral,Aquisição de bens móveis,"33141310-6, Seringas","Administração Regional de Saúde de Lisboa e Vale do Tejo, I. P. (503148776)","	Pmh - Produtos Médicos-Hospitalares, S.A. (502376899)","6.619,41 €",03-04-2014,02-04-2014,20 dias,"Portugal, Lisboa, Lisboa","Artigo 26.º, n.º 1, alínea e) do Código dos Contratos Públicos","","",,"",,Não aplicável.,Não aplicável.,FALSE
"FORNECIMENTO DE ENERGIA ELÉTRICA PARA A SEDE DA ARSLVT, IP. (AV. EUA Nº75, 1700-165 LISBOA ), PARA O PERÍODO DE JANEIRO A MARÇO DE 2014.",Ajuste Direto Regime Geral,Aquisição de serviços,"65310000-9, Distribuição de electricidade","Administração Regional de Saúde de Lisboa e Vale do Tejo, I. P. (503148776)","EDP Serviço Universal, S.A. (507846044)","30.428,10 €",03-04-2014,02-04-2014,90 dias,"Portugal, Lisboa, Lisboa","Artigo 24.º, n.º 1, alínea e) do Código dos Contratos Públicos","","",,"",,Não aplicável.,Não aplicável.,FALSE
AQUISIÇÃO DE AZOTO LIQUIDO -20L,Ajuste Direto Regime Geral,Aquisição de bens móveis,"24111800-3, Azoto líquido","Administração Regional de Saúde de Lisboa e Vale do Tejo, I. P. (503148776)","Gasin II - Gases Industriais, Unipessoal Lda. (510183751)","752,57 €",03-04-2014,02-04-2014,365 dias,"Portugal, Lisboa, Lisboa","Artigo 24.º, n.º 1, alínea e) do Código dos Contratos Públicos","","",,"",,Não aplicável.,Não aplicável.,FALSE
"INSCRIÇÃO PARA DEZ FORMANDOS NO """"CURSO DE ALTA DIREÇÃO EM GESTÃO DE UNIDADES DE SAÚDE PARA GESTORES""""",Ajuste Direto Regime Geral,Aquisição de serviços,"80522000-9, Seminários de formação","Administração Regional de Saúde de Lisboa e Vale do Tejo, I. P. (503148776)",INSTITUTO SUPERIOR DE CIENCIAS SOCIAIS E POLITICAS (600019152),"17.500,00 €",03-04-2014,01-04-2014,5 dias,"Portugal, Lisboa, Lisboa","Artigo 20.º, n.º 1, alínea a) do Código dos Contratos Públicos","","",,"",,Não aplicável.,Não aplicável.,FALSE
Aquisição de Papel para fotocópia e Impressão,Ao abrigo de acordo-quadro (art.º 259.º),Aquisição de bens móveis,"30197643-5, Papel para fotocópia","Hospital de Magalhães Lemos, EPE (502828790), Inspeção-Geral das Atividades em Saúde (600018857), Centro Hospitalar de Leiria-Pombal, EPE (509822932), Centro Hospitalar e Universitário de Coimbra, EPE (510103448), Centro Hospitalar do Médio Tejo, EPE (506361608), Administração Regional de Saúde do Norte, IP (503135593), Unidade Local de Saúde do Nordeste, EPE (509932584), Direção-Geral da Saúde (600037100), Unidade Local de Saúde de Castelo Branco, EPE (509309844), Instituto Nacional de Saúde Dr. Ricardo Jorge, IP (501427511), Centro Hospitalar de Trás-os-Montes e Alto Douro, EPE (508100496), Unidade Local de Saúde do Norte Alentejano, EPE (508094461), Instituto Nacional de Emergência Médica, IP (501356126), Administração Central do Sistema de Saúde, IP (508188423), Unidade Local de Saúde do Alto Minho, EPE (508786193), Hospital Espírito Santo, EPE (508085888), Centro Hospitalar Tondela-Viseu, EPE (509822940), Centro Hospitalar de S. João, EPE (509821197), Centro Hospitalar Barreiro Montijo, EPE (509186998), Serviços Partilhados do Ministério da Saúde, EPE (509540716), Hospital José Luciano de Castro (501613021), Centro Hospitalar Vila Nova de Gaia/Espinho, EPE (508142156), Centro Hospitalar Lisboa Central, EPE (508080142), Instituto Português de Oncologia de Coimbra Francisco Gentil, EPE (506361438), Administração Regional de Saúde do Algarve, IP (503148709), Centro Hospitalar do Porto, EPE (508331471), Instituto de Oftalmologia Dr. Gama Pinto (600000052), Administração Regional de Saúde do Alentejo, IP (503148768), Unidade Local de Saúde do Baixo Alentejo, EPE (508754275), Centro Hospitalar de Entre Douro e Vouga,  EPE (508878462), Hospital de Santarém, EPE (506361462), Hospital Distrital Figueira da Foz, EPE (506361527), Centro Hospitalar de Setúbal, EPE (507606787), Hospital Garcia de Orta, EPE (506361470), Unidade Local de saúde da Guarda, EPE (508752000), Centro Hospitalar do Algarve, EPE (510745997), Centro Hospitalar do Oeste (510412009), Hospital Dr. Francisco Zagalo (507846044), Centro Hospitalar de Lisboa Ocidental, EPE (507618319), Centro Hospitalar Cova da Beira, EPE (506361659), Centro Hospitalar do Médio Ave, EPE (508093937), Administração Regional de Saúde de Lisboa e Vale do Tejo, IP (503148776), Hospital Professor Doutor Fernando Fonseca, EPE (503035416), Centro Hospitalar do Alto Ave, EPE (508080827), Centro Hospitalar de Lisboa Norte, EPE (508481287), Unidade Local de Saúde de Matosinhos, EPE (506361390), Secretaria-Geral do Ministério da Saúde (600080684), Hospital Santa Maria Maior, EPE (506361381), Instituto Português do Sangue e da Transplantação, IP (502423943), Centro Medicina de Reabilitação da Região Centro Rovisco Pais (503767336), Serviço de Intervenção nos Comportamentos Aditivos e nas Dependências (600084884), Hospital Arcebispo João Crisóstomo (501626123), Administração Regional de Saúde do Centro, IP (503122165), Autoridade Nacional do Medicamento e Produtos de Saúde, IP (600037002), Centro Hospitalar Tâmega e Sousa, EPE (508318262), Instituto Português de Oncologia do Porto Francisco Gentil, EPE (506362299), Centro Hospitalar Psiquiátrico de Lisboa (508338476)","Staples Portugal, S.A. (503789372)","1.678.737,97 €",01-04-2014,02-01-2014,365 dias,Portugal,Artigo 259.º do Código dos Contratos Públicos,30-01-2014,"5.443,80 €",,O total efetivo corresponde apenas a este Centro Hospitalar.,,162548,"Concurso limitado por prévia qualificação para a celebração de Acordo Quadro para fornecimento de papel, economato e consumíveis de impressão.",TRUE
"Aquisição de eletricidade englobando BTE, MT, AT e MAT",Ao abrigo de acordo-quadro (art.º 259.º),Aquisição de bens móveis,"09310000-5, Electricidade","Centro Hospitalar de Leiria, E.P.E. (509822932), Centro Hospitalar Vila Nova de Gaia - Espinho, E. P. E. (508142156), Centro Hospitalar do Alto Ave, E.P.E. (508080827), Unidade Local de Saúde do Alto Minho, E. P. E. (508786193), Direcção-Geral da Saúde (600037100), Centro Hospitalar do Tâmega e Sousa, E. P. E. (508318262), Centro Hospitalar do Médio Tejo, E. P. E. (506361608), Instituto Nacional de Emergência Médica, I.P. (501356126), Centro Hospitalar do Médio Ave, E.P.E. (508093937), Instituto Português do sangue (502423943), Instituto Português Oncologia do Porto Francisco Gentil, E.P.E. (506362299), Hospital do Espírito Santo de Évora, E. P. E. (508085888), Secretaria-Geral do Ministério da Saúde (600080684), Administração Regional de Saúde Algarve, I.P. (503148709), Instituto de Oftalmologia Dr. Gama Pinto (600000052), Centro Hospitalar do Baixo Vouga, E.P.E. (510123210), Centro Hospitalar de Trás-os-Montes e Alto Douro, E. P. E. (508100496), INFARMED - Autoridade Nacional do Medicamento e Produtos de Saúde I.P. (600037002), Centro Hospitalar Póvoa de Varzim - Vila do Conde, E.P.E. (508741823), Unidade Local de Saúde de Castelo Branco, E.P.E. (509309844), Administração Regional de Saúde do Alentejo, I. P. (503148768), Centro Hospitalar de Lisboa Central, E. P. E. (508080142), Centro Hospitalar e Universitário de Coimbra, E. P. E. (510103448), CHO - Centro Hospitalar do Oeste (510412009), Centro Hospitalar Tondela-Viseu, E.P.E. (509822940), Unidade Local de Saúde do Litoral Alentejano, E.P.E. (510445152), Administração Central do Sistema de Saúde, I.P. (508188423), Centro Hospitalar Lisboa Norte, E. P. E. (508481287), Hospital de Santarém, E.P.E. (506361462), Unidade Local de Saúde da Guarda, E.P.E. (508752000), Hospital José Luciano de Castro - Anadia (501613021), Centro Hospitalar de Setúbal, E. P. E. (507606787), Centro Hospitalar do Porto, E.P.E. (508331471), Hospital Dr. Francisco Zagalo - Ovar (501510150), Instituto Português Oncologia de Coimbra Francisco Gentil, E.P.E. (506361438), Hospital Garcia de Orta, E.P.E. (506361470), Administração Regional de Saúde de Lisboa e Vale do Tejo, I. P. (503148776), Unidade Local de Saúde do Nordeste, E. P. E (509932584), Insituto Nacional de Saúde Dr. Ricardo Jorge, I.P. (501427511), Hospital Professor Doutor Fernando Fonseca, E.P.E. (503035416), Serviço Partilhados do Ministério da Saúde, E. P. E. (509540716), Centro Hospitalar Barreiro Montijo, E.P.E. (509186998), Administração Regional de Saúde do Centro, I. P. (503122165), Hospital de Magalhães Lemos, E. P. E. (502828790), Centro Hospitalar de Lisboa Ocidental, E.P.E. (507618319), SUCH - Serviço de Utilização Comum dos Hospitais (500900469), Administração Regional de Saúde do Norte, I. P. (503135593), Centro Hospitalar Psiquiátrico de Lisboa (508338476), Hospital Santa Maria Maior, E.P.E. - Barcelos (506361381), Centro Hospitalar de Entre o Douro e Vouga, E.P.E. (508878462), Unidade Local de Saúde de Matosinhos, E.P.E. (506361390), Unidade Local de Saúde do Baixo Alentejo, E.P.E. (508754275), CENTRO HOSPITALAR DO ALGARVE (508718872), Inspeção-Geral das Atividades em Saúde (600018857), Centro Hospitalar Cova da Beira, EPE (506361659), Centro Medicina de Reabilitação da Região Centro Rovisco Pais (503767336)","EDP Comercial, SA (503504564)","23.711.683,78 €",01-04-2014,01-03-2014,365 dias,Portugal,Artigo 259.º do Código dos Contratos Públicos,30-12-2014,"356.327,09 €",,diminuicao das necessidades,,314294,Acordo quadro para o fornecimento de electricidade em regime de mercado livre para Portugal Continental,TRUE
Aquisição de serviço Movel Terrestre,Ao abrigo de acordo-quadro (art.º 259.º),Aquisição de serviços,"64210000-1, Serviços telefónicos e de transmissão de dados","Gabinete do Ministro da Saúde (600052303), Gabinete do Secretário de Estado Adjunto do Ministro da Saúde (600071006), ARS Algarve (503148709), Infarmed - Autoridade Nacional do Medicamento e Produtos de Saúde, IP (600037002), Gabinete do Secretátio de Estado da Saúde (600052290), ARS Lisboa e Vale do Tejo (503148776), Secretaria-Geral do Ministério da Saúde (600080684), Instituto Nacional de Emergência Médica, IP (501356126), Inspeção-Geral das Atividades em Saúde (600018857)","MEO - Serviços de Comunicações e Multimédia, S. A. (502600268)","293.579,79 €",01-04-2014,01-02-2013,730 dias,Portugal,Artigo 259.º do Código dos Contratos Públicos,"","",,"",,464149,Acordo quadro de serviço móvel terrestre,TRUE
Aquisição de Economato,Ao abrigo de acordo-quadro (art.º 259.º),Aquisição de bens móveis,"30192000-1, Material de escritório","Direção-Geral da Saúde (600037100), Administração Regional de Saúde Algarve, IP (503148709), Instituto Nacional de Saúde Dr. Ricardo Jorge, IP (501427511), Instituto Português do Sangue e da Transplantação, I.P. (502423943), Serviço de Intervenção nos Comportamentos Aditivos e nas Dependências (600084884), Inatituto Nacional de Emergência Médica, I.P. (501356126), Autoridade Nacional do Medicamento e Produtos de Saúde (600037002), Secretaria-Geral do Ministério da Saúde (600080684), Administração Regional de Saúde Norte, IP (503135593), Administração Central do Sistema de Saúde, I.P. (508188423), Inspeção-Geral das Atividades em Saúde (600018857), Administração Regional de Saúde Alentejo, IP  (503148768), Administração Regional de Saúde Centro, IP (503122165), Administração Regional de Saúde Lisboa e Vale do Tejo, IP (503148776)","Olmar - Artigos de Papelaria, Lda. (508831989)","267.744,78 €",01-04-2014,22-02-2013,365 dias,Portugal,Artigo 259.º do Código dos Contratos Públicos,31-12-2013,"267.744,78 €",,"",,162548,"Concurso limitado por prévia qualificação para a celebração de Acordo Quadro para fornecimento de papel, economato e consumíveis de impressão.",TRUE
"Fornecimento de telecomunicações fixas de voz para as instalações da ARSLVT, IP ( CS Alameda, CS Golegã, USF Póvoa de Stº Adrião e USF Ramada). Periodo de Janeiro a Março de 2014",Ajuste Direto Regime Geral,Aquisição de serviços,"64200000-8, Serviços de telecomunicações","Administração Regional de Saúde de Lisboa e Vale do Tejo, I. P. (503148776)","PT Comunicações, SA (504615947)","2.791,04 €",01-04-2014,01-04-2014,90 dias,"Portugal, Santarém, Golegã<BR/>Portugal, Lisboa, Lisboa<BR/>Portugal, Lisboa, Odivelas","Artigo 24.º, n.º 1, alínea e) do Código dos Contratos Públicos","","",,"",,Não aplicável.,Não aplicável.,FALSE
EQUIPAMENTO PARA USF JARDIM DOS PLÁTANOS,Ajuste Direto Regime Geral,Aquisição de bens móveis,"33100000-1, Equipamento médico","Administração Regional de Saúde de Lisboa e Vale do Tejo, I. P. (503148776)","M. M. Cunha, Lda (507374843)","7.304,00 €",01-04-2014,01-04-2014,20 dias,"Portugal, Lisboa, Oeiras","Artigo 20.º, n.º 1, alínea a) do Código dos Contratos Públicos","","",,"",,Não aplicável.,Não aplicável.,FALSE
LUVAS DE NITRILO NÃO ESTERIL (TAMANHO S/M/L),Ajuste Direto Regime Geral,Aquisição de bens móveis,"33140000-3, Material médico de consumo","Administração Regional de Saúde de Lisboa e Vale do Tejo, I. P. (503148776)","Docworld, Lda (508592909)","18.796,00 €",01-04-2014,01-04-2014,2 dias,"Portugal, Lisboa, Lisboa","Artigo 26.º, n.º 1, alínea e) do Código dos Contratos Públicos","","",,"",,Não aplicável.,Não aplicável.,FALSE
"AQUISIÇÃO DE APARELHO DE AR CONDICIONADO, INSTALAÇÃO E LIGAÇÃO À REDE ELÉCTRICA E DE DRENAGEM PARA SALA DE BASTIDOR INFORMÁTICO DA USF TORNADA - ACES OESTE NORTE.",Ajuste Direto Regime Geral,Aquisição de bens móveis,"39717200-3, Aparelhos de ar condicionado","Administração Regional de Saúde de Lisboa e Vale do Tejo, I. P. (503148776)","Henriques E Junceira, Lda (504326457)","656,00 €",01-04-2014,31-03-2014,20 dias,"Portugal, Leiria, Caldas da Rainha","Artigo 20.º, n.º 1, alínea a) do Código dos Contratos Públicos","","",,"",,Não aplicável.,Não aplicável.,FALSE
AQUISIÇÃO DE COMBUSTIVEL RODOVIÁRIO EM POSTOS DE ABASTECIMENTO PUBLICOS,Ao abrigo de acordo-quadro (art.º 259.º),Aquisição de bens móveis,"09100000-0, Combustíveis","Gabinete do Ministro da Saúde  (600052303), Instituto Nacional de Saúde Dr. Ricardo Jorge, I.P. (501427511), Instituto Português do Sangue e da Transplantação, I.P. (502423943), Infarmed - Autoridade Nacional do Medicamento e Produtos de Saúde, I.P. (600037002), Instituto Nacional de Emergência Médica, I.P. (501356126), Inspeção-Geral das Atividades em Saúde (600018857), Direção-Geral da Saúde (600037100), Gabinete do Secretário de Estado da Saúde  (600052290), Administração Regional de Saúde Alentejo, I.P. (503148768), Secretaria-Geral do Ministério da Saúde (600080684), Administração Central do Sistema de Saúde, I.P. (508188423), Administração Regional de Saúde Algarve, I.P. (503148709), Administração Regional de Saúde Centro, I.P. (503122165), Administração Regional de Saúde Lisboa e Vale do Tejo, I.P. (503148776), Serviço de Intervenção nos Comportamentos Aditivos e nas Dependências (600084884), Administração Regional de Saúde Norte, I.P. (503135593), Gabinete do Secretário de Estado Adjunto do Ministro da Saúde  (600071006)",Petroleos de Portugal SA (500697370),"3.483.417,76 €",01-04-2014,14-01-2013,365 dias,Portugal,Artigo 259.º do Código dos Contratos Públicos,14-01-2014,"3.483.417,76 €",,"",,1189847,FORNECIMENTO DE ENERGIA ELÉCTRICA PARA DIVERSAS INSTALAÇÕES OU INFRA-ESTRUTURAS DO MUNICÍPIO DE MATOSINHOS,TRUE
Aquisição de PRESERVATIVO MASCULINO,Ajuste Direto Regime Geral,Aquisição de bens móveis,"33712000-4, Preservativos","Administração Regional de Saúde de Lisboa e Vale do Tejo, I. P. (503148776)","Ezequiel Panão Jorge, Lda (501412727)","36.797,64 €",01-04-2014,01-04-2014,20 dias,"Portugal, Lisboa, Lisboa","Artigo 26.º, n.º 1, alínea e) do Código dos Contratos Públicos","","",,"",,Não aplicável.,Não aplicável.,FALSE
