Objeto do Contrato,Tipo de Procedimento,Tipo(s) de Contrato,CPVs,Entidade(s) Adjudicante(s),Entidade(s) Adjudicatária(s),Preço Contratual,Data de Publicação,Data de Celebração do Contrato,Prazo de Execução,Local de Execução,Fundamentação,Data de Fecho do Contrato,Preço Total Efetivo,Causas das Alterações ao Prazo,Causas das Alterações ao Preço,Estado,N.º registo do Acordo Quadro,Descrição do Acordo Quadro,Procedimento Centralizado
Serviços Médicos - Triagem Geral,Ajuste Direto Regime Geral,Aquisição de serviços,"85100000-0, Serviços de saúde","Centro Hospitalar do Médio Tejo, E. P. E. (506361608)",Ana Luísa Ferreira Martins (219114366),"10.000,00 €",31-08-2017,20-07-2017,240 dias,"Portugal, Santarém, Abrantes","Artigo 20.º, n.º 1, alínea a) do Código dos Contratos Públicos",,,,,,Não aplicável.,Não aplicável.,FALSE
Prestação de Serviços Médicos Cirurgia Geral 37011617 (horas de jan a março),Ajuste Direto Regime Geral,Aquisição de serviços,"85100000-0, Serviços de saúde","Centro Hospitalar do Médio Tejo, E. P. E. (506361608)","Talenter-Gestão de Projetos, SA (506111148)","28.500,00 €",30-08-2017,08-02-2017,90 dias,"Portugal, Santarém, Torres Novas","Artigo 20.º, n.º 1, alínea a) do Código dos Contratos Públicos",,,,,,Não aplicável.,Não aplicável.,FALSE
Aquisição Ranibizumab- Oftalmologia,Ajuste Direto Regime Geral,Aquisição de bens móveis,"33600000-6, Produtos farmacêuticos","Centro Hospitalar do Médio Tejo, E. P. E. (506361608)","Novartis Farma Produtos Farmaceuticos, Lda (500063524)","389.856,00 €",30-08-2017,02-03-2017,365 dias,"Portugal, Santarém, Torres Novas","Artigo 20.º, n.º 1, alínea a) do Código dos Contratos Públicos",,,,,,Não aplicável.,Não aplicável.,FALSE
AQUISIÇÃO DE MEDICAMENTO-OSIMERTINIB,Ajuste Direto Regime Geral,Aquisição de bens móveis,"33600000-6, Produtos farmacêuticos","Centro Hospitalar do Médio Tejo, E.P.E. (CHMT) (506361608)","ASTRAZENECA, LDA. (502942240)","63.800,00 €",30-08-2017,18-04-2017,365 dias,"Portugal, Santarém, Torres Novas","Artigo 20.º, n.º 1, alínea a) do Código dos Contratos Públicos",,,,,,Não aplicável.,Não aplicável.,FALSE
Aquisição de Soluções Diálise Peritoneal,Ajuste Direto Regime Geral,Aquisição de bens móveis,"33600000-6, Produtos farmacêuticos","Centro Hospitalar do Médio Tejo, E.P.E. (CHMT) (506361608)","BAXTER MEDICO FARMACEUTICA, LDA (503347345)","18.360,00 €",30-08-2017,08-02-2017,365 dias,"Portugal, Santarém, Torres Novas","Artigo 20.º, n.º 1, alínea a) do Código dos Contratos Públicos",,,,,,Não aplicável.,Não aplicável.,FALSE
Medicamentos Lidocaína e Clorohexidina,Ajuste Direto Regime Geral,Aquisição de bens móveis,"33600000-6, Produtos farmacêuticos","Centro Hospitalar do Médio Tejo, E. P. E. (506361608)","PHARMIS BIOFARMACÊUTICA, LDA. (502595442)","17.665,20 €",29-08-2017,23-02-2017,365 dias,"Portugal, Santarém, Torres Novas","Artigo 20.º, n.º 1, alínea a) do Código dos Contratos Públicos",,,,,,Não aplicável.,Não aplicável.,FALSE
Antisséticos e Desinfetantes,Ajuste Direto Regime Geral,Aquisição de bens móveis,"33600000-6, Produtos farmacêuticos","Centro Hospitalar do Médio Tejo, E. P. E. (506361608)","VYGON (PORTUGAL), LDA (503232785)","31.118,11 €",29-08-2017,08-06-2017,365 dias,"Portugal, Santarém, Torres Novas","Artigo 20.º, n.º 1, alínea a) do Código dos Contratos Públicos",,,,,,Não aplicável.,Não aplicável.,FALSE
Medicamentos Diversos,Ajuste Direto Regime Geral,Aquisição de bens móveis,"33600000-6, Produtos farmacêuticos","Centro Hospitalar do Médio Tejo, E. P. E. (506361608)","ACCORD HEALTHACERE UNIPESSOAL, LDA (508622263)","62.149,05 €",29-08-2017,08-08-2017,365 dias,"Portugal, Santarém, Torres Novas","Artigo 20.º, n.º 1, alínea a) do Código dos Contratos Públicos",,,,,,Não aplicável.,Não aplicável.,FALSE
Medicamentos Antiretrovíricos -VIH,Ajuste Direto Regime Geral,Aquisição de bens móveis,"33600000-6, Produtos farmacêuticos","Centro Hospitalar do Médio Tejo, E. P. E. (506361608)","Generis Farmacêutica, S.A. (508107997)","1.004,85 €",29-08-2017,08-06-2017,365 dias,"Portugal, Santarém, Torres Novas","Artigo 20.º, n.º 1, alínea a) do Código dos Contratos Públicos",,,,,,Não aplicável.,Não aplicável.,FALSE
Medicamentos Anestésicos e Relaxantes Musculares,Ajuste Direto Regime Geral,Aquisição de bens móveis,"33600000-6, Produtos farmacêuticos","Centro Hospitalar do Médio Tejo, E. P. E. (506361608)","B. BRAUN MEDICAL, LDA. (501506543)","76.548,72 €",29-08-2017,10-05-2017,365 dias,"Portugal, Santarém, Torres Novas","Artigo 20.º, n.º 1, alínea a) do Código dos Contratos Públicos",,,,,,Não aplicável.,Não aplicável.,FALSE
Medicamentos Ap. Cardiovascular,Ajuste Direto Regime Geral,Aquisição de bens móveis,"33600000-6, Produtos farmacêuticos","Centro Hospitalar do Médio Tejo, E. P. E. (506361608)","LABORATÓRIO MEDINFAR, LDA (500384045)","74.214,10 €",29-08-2017,08-06-2017,365 dias,"Portugal, Santarém, Torres Novas","Artigo 20.º, n.º 1, alínea a) do Código dos Contratos Públicos",,,,,,Não aplicável.,Não aplicável.,FALSE
Medicamentos SN Cerebrospinal,Ajuste Direto Regime Geral,Aquisição de bens móveis,"33600000-6, Produtos farmacêuticos","Centro Hospitalar do Médio Tejo, E. P. E. (506361608)","MERCK SHARP DOHME, LDA. (500191360)","35.266,57 €",29-08-2017,08-06-2017,365 dias,"Portugal, Santarém, Torres Novas","Artigo 20.º, n.º 1, alínea a) do Código dos Contratos Públicos",,,,,,Não aplicável.,Não aplicável.,FALSE
"Medicamentos Anti-Infeciosos, Exceto Antivírico e Antifúngicos",Ajuste Direto Regime Geral,Aquisição de bens móveis,"33600000-6, Produtos farmacêuticos","Centro Hospitalar do Médio Tejo, E. P. E. (506361608)","LABESFAL-LABORATORIOS ALMIRO, SA (501169580)","231.491,39 €",29-08-2017,21-06-2017,365 dias,"Portugal, Santarém, Torres Novas","Artigo 20.º, n.º 1, alínea a) do Código dos Contratos Públicos",,,,,,Não aplicável.,Não aplicável.,FALSE
Medicamentos Aparelho Digestivo,Ajuste Direto Regime Geral,Aquisição de bens móveis,"33600000-6, Produtos farmacêuticos","Centro Hospitalar do Médio Tejo, E. P. E. (506361608)","LABORATÓRIO MEDINFAR, LDA (500384045)","41.892,62 €",29-08-2017,10-05-2017,365 dias,"Portugal, Santarém, Torres Novas","Artigo 20.º, n.º 1, alínea a) do Código dos Contratos Públicos",,,,,,Não aplicável.,Não aplicável.,FALSE
Medicamentos Grupo 4: Sangue,Ajuste Direto Regime Geral,Aquisição de bens móveis,"33600000-6, Produtos farmacêuticos","Centro Hospitalar do Médio Tejo, E. P. E. (506361608)","OVERPHARMA, PROD. MED. FARMAC., LD (505792362)","151.093,53 €",29-08-2017,17-05-2017,365 dias,"Portugal, Santarém, Torres Novas","Artigo 20.º, n.º 1, alínea a) do Código dos Contratos Públicos",,,,,,Não aplicável.,Não aplicável.,FALSE
Medicamentos Antipsicóticos,Ajuste Direto Regime Geral,Aquisição de bens móveis,"33600000-6, Produtos farmacêuticos","Centro Hospitalar do Médio Tejo, E. P. E. (506361608)","JANSSEN CILAG FARMACÊUTICA, LDA. (500189412)","124.125,17 €",29-08-2017,08-06-2017,365 dias,"Portugal, Santarém, Torres Novas","Artigo 20.º, n.º 1, alínea a) do Código dos Contratos Públicos",,,,,,Não aplicável.,Não aplicável.,FALSE
"Medicação Antialérgica, Vitaminas, Sais Minerais e Usados nas Intox.",Ajuste Direto Regime Geral,Aquisição de bens móveis,"33600000-6, Produtos farmacêuticos","Centro Hospitalar do Médio Tejo, E. P. E. (506361608)","LABESFAL-LABORATORIOS ALMIRO, SA (501169580)","33.437,61 €",29-08-2017,08-06-2017,365 dias,"Portugal, Santarém, Torres Novas","Artigo 20.º, n.º 1, alínea a) do Código dos Contratos Públicos",,,,,,Não aplicável.,Não aplicável.,FALSE
Medicamentos Foro Oncológico,Ajuste Direto Regime Geral,Aquisição de bens móveis,"33600000-6, Produtos farmacêuticos","Centro Hospitalar do Médio Tejo, E. P. E. (506361608)","TEVA PHARMA-PRODUTOS FARMACEUTICOS, LDA (507045491)","250.429,85 €",28-08-2017,08-06-2017,365 dias,"Portugal, Santarém, Torres Novas","Artigo 20.º, n.º 1, alínea a) do Código dos Contratos Públicos",,,,,,Não aplicável.,Não aplicável.,FALSE
Hormonas e Outros Medicamentos Doenças Endócrinas,Ajuste Direto Regime Geral,Aquisição de bens móveis,"33600000-6, Produtos farmacêuticos","Centro Hospitalar do Médio Tejo, E. P. E. (506361608)","Generis Farmacêutica, S.A. (508107997)","40.713,66 €",28-08-2017,11-05-2017,365 dias,"Portugal, Santarém, Torres Novas","Artigo 20.º, n.º 1, alínea a) do Código dos Contratos Públicos",,,,,,Não aplicável.,Não aplicável.,FALSE
Derivados Plasma Humano,Ajuste Direto Regime Geral,Aquisição de bens móveis,"33600000-6, Produtos farmacêuticos","Centro Hospitalar do Médio Tejo, E. P. E. (506361608)","CSL BEHRING, LDA. (503047201)","21.491,80 €",28-08-2017,19-07-2017,365 dias,"Portugal, Santarém, Torres Novas","Artigo 20.º, n.º 1, alínea a) do Código dos Contratos Públicos",,,,,,Não aplicável.,Não aplicável.,FALSE
Medicamentos Aparelho Respiratório,Ajuste Direto Regime Geral,Aquisição de bens móveis,"33600000-6, Produtos farmacêuticos","Centro Hospitalar do Médio Tejo, E. P. E. (506361608)",MEDA-PHARMA PROD.FARMACEUTICOS (500082090),"163.301,97 €",28-08-2017,21-06-2017,365 dias,"Portugal, Santarém, Torres Novas","Artigo 20.º, n.º 1, alínea a) do Código dos Contratos Públicos",,,,,,Não aplicável.,Não aplicável.,FALSE
"Contracetivos Orais, Profiláticos e Mecânicos",Ajuste Direto Regime Geral,Aquisição de bens móveis,"33600000-6, Produtos farmacêuticos","Centro Hospitalar do Médio Tejo, E. P. E. (506361608)","LABORATÓRIOS PFIZER, LDA. (500162166)","17.299,69 €",28-08-2017,06-07-2017,365 dias,"Portugal, Santarém, Torres Novas","Artigo 20.º, n.º 1, alínea a) do Código dos Contratos Públicos",,,,,,Não aplicável.,Não aplicável.,FALSE
Medicamentos Antifungicos e Antivíricos,Ajuste Direto Regime Geral,Aquisição de bens móveis,"33600000-6, Produtos farmacêuticos","Centro Hospitalar do Médio Tejo, E. P. E. (506361608)","GILEAD SCIENCES, LDA (503604704)","4.931.056,60 €",28-08-2017,21-06-2017,365 dias,"Portugal, Santarém, Torres Novas","Artigo 20.º, n.º 1, alínea a) do Código dos Contratos Públicos",,,,,,Não aplicável.,Não aplicável.,FALSE
Medicamentos Aparelho Locomotor,Ajuste Direto Regime Geral,Aquisição de bens móveis,"33600000-6, Produtos farmacêuticos","Centro Hospitalar do Médio Tejo, E. P. E. (506361608)","AMGEN - BIOFARMACÊUTICA, LDA. (502942959)","48.401,17 €",28-08-2017,08-06-2017,365 dias,"Portugal, Santarém, Torres Novas","Artigo 20.º, n.º 1, alínea a) do Código dos Contratos Públicos",,,,,,Não aplicável.,Não aplicável.,FALSE
Medicamentos Aparelho Geniturinário,Ajuste Direto Regime Geral,Aquisição de bens móveis,"33600000-6, Produtos farmacêuticos","Centro Hospitalar do Médio Tejo, E. P. E. (506361608)","LABORATÓRIOS PFIZER, LDA. (500162166)","8.584,24 €",28-08-2017,31-01-2017,365 dias,"Portugal, Santarém, Torres Novas","Artigo 20.º, n.º 1, alínea a) do Código dos Contratos Públicos",,,,,,Não aplicável.,Não aplicável.,FALSE
Medicamentos Usados Afeções Oculares e Otorrino,Ajuste Direto Regime Geral,Aquisição de bens móveis,"33600000-6, Produtos farmacêuticos","Centro Hospitalar do Médio Tejo, E. P. E. (506361608)",LABORATORIO EDOL-PROD.FARM.S.A. (507072642),"18.717,88 €",28-08-2017,06-07-2017,365 dias,"Portugal, Santarém, Torres Novas","Artigo 20.º, n.º 1, alínea a) do Código dos Contratos Públicos",,,,,,Não aplicável.,Não aplicável.,FALSE
Medicamentos Usados Afeções Cutâneas,Ajuste Direto Regime Geral,Aquisição de bens móveis,"33600000-6, Produtos farmacêuticos","Centro Hospitalar do Médio Tejo, E. P. E. (506361608)","LABORATÓRIO MEDINFAR, LDA (500384045)","5.739,97 €",28-08-2017,06-07-2017,365 dias,"Portugal, Santarém, Torres Novas","Artigo 20.º, n.º 1, alínea a) do Código dos Contratos Públicos",,,,,,Não aplicável.,Não aplicável.,FALSE
Reagentes Testes Rápidos - 31021417,Ajuste Direto Regime Geral,Aquisição de bens móveis,"33600000-6, Produtos farmacêuticos","Centro Hospitalar do Médio Tejo, E.P.E. (CHMT) (506361608)","Alere, Lda (502518863)","9.837,56 €",25-08-2017,08-06-2017,365 dias,"Portugal, Santarém, Torres Novas","Artigo 20.º, n.º 1, alínea a) do Código dos Contratos Públicos",,,,,,Não aplicável.,Não aplicável.,FALSE
Reagentes Biologia Molecular - 31001917,Ajuste Direto Regime Geral,Aquisição de bens móveis,"33600000-6, Produtos farmacêuticos","Centro Hospitalar do Médio Tejo, E.P.E. (CHMT) (506361608)","Werfen Portugal, Lda. (501086110)","71.610,00 €",25-08-2017,08-06-2017,365 dias,"Portugal, Santarém, Torres Novas","Artigo 20.º, n.º 1, alínea a) do Código dos Contratos Públicos",,,,,,Não aplicável.,Não aplicável.,FALSE
Medicamentos Usados Meio Diagnóstico Imagiologia,Ajuste Direto Regime Geral,Aquisição de bens móveis,"33600000-6, Produtos farmacêuticos","Centro Hospitalar do Médio Tejo, E. P. E. (506361608)","A. MARTINS & FERNANDES, S.A. (501172114)","4.357,15 €",23-08-2017,06-07-2017,365 dias,"Portugal, Santarém, Torres Novas","Artigo 20.º, n.º 1, alínea a) do Código dos Contratos Públicos",,,,,,Não aplicável.,Não aplicável.,FALSE
Dispositivos Médicos Diversos,Ajuste Direto Regime Geral,Aquisição de bens móveis,"33600000-6, Produtos farmacêuticos","Centro Hospitalar do Médio Tejo, E. P. E. (506361608)",ALCON PORTUGAL (501251685),"28.225,50 €",23-08-2017,07-06-2017,365 dias,"Portugal, Santarém, Torres Novas","Artigo 20.º, n.º 1, alínea a) do Código dos Contratos Públicos",,,,,,Não aplicável.,Não aplicável.,FALSE
"Medicamentos Analgésicos, Antipiréticos e Antidepressivos",Ajuste Direto Regime Geral,Aquisição de bens móveis,"33600000-6, Produtos farmacêuticos","Centro Hospitalar do Médio Tejo, E. P. E. (506361608)","LABORATÓRIO MEDINFAR, LDA (500384045)","80.884,08 €",23-08-2017,11-05-2017,365 dias,"Portugal, Santarém, Torres Novas","Artigo 20.º, n.º 1, alínea a) do Código dos Contratos Públicos",,,,,,Não aplicável.,Não aplicável.,FALSE
Medicamentos Diversos II,Ajuste Direto Regime Geral,Aquisição de bens móveis,"33600000-6, Produtos farmacêuticos","Centro Hospitalar do Médio Tejo, E. P. E. (506361608)","SANDOZ FARMACEUTICA, LDA (506985261)","22.255,32 €",23-08-2017,23-02-2017,365 dias,"Portugal, Santarém, Torres Novas","Artigo 20.º, n.º 1, alínea a) do Código dos Contratos Públicos",,,,,,Não aplicável.,Não aplicável.,FALSE
Cardioversor Desfibrilhador DR,Ajuste Direto Regime Geral,Aquisição de bens móveis,"33100000-1, Equipamento médico","Centro Hospitalar do Médio Tejo, E. P. E. (506361608)",ST. JUDE MEDICAL PORTUGAL (504180746),"11.500,00 €",23-08-2017,27-07-2017,365 dias,"Portugal, Santarém, Abrantes","Artigo 24.º, n.º 1, alínea c) do Código dos Contratos Públicos",,,,,,Não aplicável.,Não aplicável.,FALSE
81002217 - SPMS.P259- AC-2017-95,Ajuste Direto Regime Geral,Aquisição de bens móveis,"33600000-6, Produtos farmacêuticos","Centro Hospitalar do Médio Tejo, E. P. E. (506361608)","GRIFOLS PORTUGAL-PROD.FARM.HOSPIT., LDA (502041285)","1.103,90 €",21-08-2017,03-08-2017,365 dias,"Portugal, Santarém, Torres Novas","Artigo 20.º, n.º 1, alínea a) do Código dos Contratos Públicos",,,,,,Não aplicável.,Não aplicável.,FALSE
MEDICAMENTOS ANTIRRETROVÍRICOS HIV,Ajuste Direto Regime Geral,Aquisição de bens móveis,"33600000-6, Produtos farmacêuticos","Centro Hospitalar do Médio Tejo, E. P. E. (506361608)","ABBVIE, LDA (510229050)","179.458,77 €",21-08-2017,13-08-2017,365 dias,"Portugal, Santarém, Torres Novas","Artigo 20.º, n.º 1, alínea a) do Código dos Contratos Públicos",,,,,,Não aplicável.,Não aplicável.,FALSE
