Objeto do Contrato,Tipo de Procedimento,Tipo(s) de Contrato,CPVs,Entidade(s) Adjudicante(s),Entidade(s) Adjudicatária(s),Preço Contratual,Data de Publicação,Data de Celebração do Contrato,Prazo de Execução,Local de Execução,Fundamentação,Data de Fecho do Contrato,Preço Total Efetivo,Causas das Alterações ao Prazo,Causas das Alterações ao Preço,Estado,N.º registo do Acordo Quadro,Descrição do Acordo Quadro,Procedimento Centralizado
Aquisição de equipamentos de limpeza (sinalizadores de perigo de queda),Ajuste Direto Regime Geral,Aquisição de bens móveis,"34928470-3, Sinalização","Centro Hospitalar São João, EPE (509821197)",A.J.Oliveira (502293748),"135,00 €",20-02-2014,14-02-2014,5 dias,"Portugal, Porto, Porto","Artigo 20.º, n.º 1, alínea a) do Código dos Contratos Públicos",,,,,,Não aplicável.,Não aplicável.,FALSE
Aquisição de equipamentos de limpeza (carros de limpeza e acessórios),Ajuste Direto Regime Geral,Aquisição de bens móveis,"42995000-7, Máquinas de limpeza diversas","Centro Hospitalar São João, EPE (509821197)",J.M. Silva (503667544),"5.271,00 €",20-02-2014,14-02-2014,5 dias,"Portugal, Porto, Porto","Artigo 20.º, n.º 1, alínea a) do Código dos Contratos Públicos",,,,,,Não aplicável.,Não aplicável.,FALSE
"Renovação do Contrato de Manutenção ao Sistema GestVIDI - Gestão de Entrada de Visitas, do CHSJ,EPE para o ano de 2014",Ajuste Direto Regime Geral,Aquisição de serviços,"50000000-5, Serviços de reparação e manutenção","Centro Hospitalar de São João, E. P. E. (509821197)","Lincis - Soluções Integradas para Sistemas de Informação, Lda (505713519)","2.364,00 €",14-02-2014,09-01-2014,365 dias,"Portugal, Porto, Porto","Artigo 24.º, n.º 1, alínea e) do Código dos Contratos Públicos",,,,,,Não aplicável.,Não aplicável.,FALSE
"Renovação do Contrato de Manutenção e Assistência Técnica ao Sistema SINGAP - Gestão de Bens e Gestão de Manutenção do CHSJ,EPE para o ano de 2014",Ajuste Direto Regime Geral,Aquisição de serviços,"50000000-5, Serviços de reparação e manutenção","Centro Hospitalar de São João, E. P. E. (509821197)","Quidgest - Consultores de Gestão, S.A. (501989978)","9.850,00 €",14-02-2014,09-01-2014,365 dias,"Portugal, Porto, Porto","Artigo 24.º, n.º 1, alínea e) do Código dos Contratos Públicos",,,,,,Não aplicável.,Não aplicável.,FALSE
"Renovação do Contrato de Manutenção ao Sistema BabyMatch - Sistema Automático de Vigilância e Proteção Anti-Rapto de Recém-Nascidos do CHSJ, EPE para o ano de 2014",Ajuste Direto Regime Geral,Aquisição de serviços,"50000000-5, Serviços de reparação e manutenção","Centro Hospitalar de São João, E. P. E. (509821197)","Infocontroç - Eletrónica e Automatismo, Lda (501395784)","4.020,00 €",14-02-2014,09-01-2014,365 dias,"Portugal, Porto, Porto","Artigo 24.º, n.º 1, alínea e) do Código dos Contratos Públicos",,,,,,Não aplicável.,Não aplicável.,FALSE
"Renovação do Contrato de Manutenção ao Sistema """"Gestão Documental"""" do CHSJ,EPE para o ano de 2014",Ajuste Direto Regime Geral,Aquisição de serviços,"50000000-5, Serviços de reparação e manutenção","Centro Hospitalar de São João, E. P. E. (509821197)","Wemake - Tecnologias de Informação, Lda (506097250)","4.628,16 €",14-02-2014,13-01-2014,365 dias,"Portugal, Porto, Porto","Artigo 24.º, n.º 1, alínea e) do Código dos Contratos Públicos",,,,,,Não aplicável.,Não aplicável.,FALSE
"Contrato de Licenciamento do Kofax Workstations e Volume, e do Software Cvision Trapeze do CHSJ,EPE para o ano de 2014",Ajuste Direto Regime Geral,Aquisição de serviços,"50000000-5, Serviços de reparação e manutenção","Centro Hospitalar de São João, E. P. E. (509821197)","Wemake - Tecnologias de Informação, Lda (506097250)","7.096,56 €",14-02-2014,13-01-2014,365 dias,"Portugal, Porto, Porto","Artigo 24.º, n.º 1, alínea e) do Código dos Contratos Públicos",,,,,,Não aplicável.,Não aplicável.,FALSE
"Contrato de Manutenção e Assistência Técnica aos Osmómetros do CHSJ,EPE para o ano de 2014",Ajuste Direto Regime Geral,Aquisição de serviços,"50000000-5, Serviços de reparação e manutenção","Centro Hospitalar de São João, E. P. E. (509821197)","Filsat - Equipamentos Médico-Científicos, Lda (506708616)","3.920,00 €",14-02-2014,04-02-2014,365 dias,"Portugal, Porto, Porto","Artigo 24.º, n.º 1, alínea e) do Código dos Contratos Públicos",,,,,,Não aplicável.,Não aplicável.,FALSE
Renovação do Contrato de Manutenção aos Equipamentos Grifols para o ano de 2014,Ajuste Direto Regime Geral,Aquisição de serviços,"50000000-5, Serviços de reparação e manutenção","Centro Hospitalar de São João, E. P. E. (509821197)","Grifols Portugal, Produtos Farmacêuticos e Hospitalares, Lda (502041285)","16.292,65 €",14-02-2014,24-01-2014,365 dias,"Portugal, Porto, Porto","Artigo 24.º, n.º 1, alínea e) do Código dos Contratos Públicos",,,,,,Não aplicável.,Não aplicável.,FALSE
"Contrato de Manutenção, Licenciamento do Software, Configuração e Assistência Técnica aos Dispensadores Automáticos de Medicamentos Pyxis para o ano de 2014",Ajuste Direto Regime Geral,Aquisição de serviços,"50000000-5, Serviços de reparação e manutenção","Centro Hospitalar de São João, E. P. E. (509821197)","Grifols Portugal, Produtos Farmacêuticos e Hospitalares, Lda (502041285)","25.307,55 €",13-02-2014,24-01-2014,365 dias,"Portugal, Porto, Porto","Artigo 24.º, n.º 1, alínea e) do Código dos Contratos Públicos",,,,,,Não aplicável.,Não aplicável.,FALSE
"Contrato de Manutenção, Licenciamento, Atualização e Assistência Técnica do Software XCELERA  para o ano de 2014.",Ajuste Direto Regime Geral,Aquisição de serviços,"50000000-5, Serviços de reparação e manutenção","Centro Hospitalar de São João, E. P. E. (509821197)","Philips Portuguesa, S.A. (500216843)","26.534,88 €",13-02-2014,24-01-2014,365 dias,"Portugal, Porto, Porto","Artigo 24.º, n.º 1, alínea e) do Código dos Contratos Públicos",,,,,,Não aplicável.,Não aplicável.,FALSE
"Serviços de Calibração/Verificação Equipamentos do CHSJ, EPE",Ajuste Direto Regime Geral,Aquisição de serviços,"50433000-9, Serviços de calibragem","Centro Hospitalar São João, EPE (509821197)",ISQ (500140022),"1.170,00 €",13-02-2014,05-02-2014,5 dias,"Portugal, Porto, Porto","Artigo 20.º, n.º 1, alínea a) do Código dos Contratos Públicos",,,,,,Não aplicável.,Não aplicável.,FALSE
"Serviços de Calibração/Verificação Equipamentos do CHSJ, EPE",Ajuste Direto Regime Geral,Aquisição de serviços,"50433000-9, Serviços de calibragem","Centro Hospitalar São João, EPE (509821197)",CATIM (501630473),"4.394,24 €",13-02-2014,05-02-2014,5 dias,"Portugal, Porto, Porto","Artigo 20.º, n.º 1, alínea a) do Código dos Contratos Públicos",,,,,,Não aplicável.,Não aplicável.,FALSE
"Serviços de Calibração/Verificação de Equipamento do CHSJ, EPE",Ajuste Direto Regime Geral,Aquisição de serviços,"50433000-9, Serviços de calibragem","Centro Hospitalar São João, EPE (509821197)",IEP (501314415),"385,00 €",13-02-2014,05-02-2014,2 dias,"Portugal, Porto, Porto","Artigo 20.º, n.º 1, alínea a) do Código dos Contratos Públicos",,,,,,Não aplicável.,Não aplicável.,FALSE
