Objeto do Contrato,Tipo de Procedimento,Tipo(s) de Contrato,CPVs,Entidade(s) Adjudicante(s),Entidade(s) Adjudicatária(s),Preço Contratual,Data de Publicação,Data de Celebração do Contrato,Prazo de Execução,Local de Execução,Fundamentação,Data de Fecho do Contrato,Preço Total Efetivo,Causas das Alterações ao Prazo,Causas das Alterações ao Preço,Estado,N.º registo do Acordo Quadro,Descrição do Acordo Quadro,Procedimento Centralizado
Prestação de Serviços Médicos de Pediatria,Ajuste Direto Regime Geral,Aquisição de serviços,"85121291-9, Serviços de pediatria","Centro Hospitalar Universitário do Algarve, E. P. E. (510745997)",Softxperts Consulting. Lda. (510777503),"7.800,00 €",11-07-2018,16-05-2018,180 dias,"Portugal, Faro, Portimão","Artigo 24.º, n.º 1, alínea e), subalínea ii) do Código dos Contratos Públicos",,,,,,Não aplicável.,Não aplicável.,FALSE
62/2540/2018-Aquisição de TAMPA DE  PLASTICO MAQ.  CLIN-TOP,Ajuste Direto Regime Geral,Aquisição de bens móveis,"33140000-3, Material médico de consumo","Centro Hospitalar Universitário do Algarve, E. P. E. (510745997)","ALVES & CA(IRMAOS),LDA. (500310068)","100,00 €",11-07-2018,05-07-2018,180 dias,"Portugal, Faro, Faro<BR/>Portugal, Faro, Portimão","Artigo 24.º, n.º 1, alínea e), subalínea ii) do Código dos Contratos Públicos",,,,,,Não aplicável.,Não aplicável.,FALSE
Prestação de Serviços Médicos de Ginecologia/Obstetrícia,Ajuste Direto Regime Geral,Aquisição de serviços,"85121210-8, Serviços de ginecologia ou obstetrícia","Centro Hospitalar Universitário do Algarve, E. P. E. (510745997)","David Frutuoso, Lda. (509707297)","93.600,00 €",11-07-2018,31-01-2018,365 dias,"Portugal, Faro, Portimão","Artigo 24.º, n.º 1, alínea e), subalínea ii) do Código dos Contratos Públicos",,,,,,Não aplicável.,Não aplicável.,FALSE
Prestação de Serviços Médicos de Ginecologia/Obstetrícia,Ajuste Direto Regime Geral,Aquisição de serviços,"85121210-8, Serviços de ginecologia ou obstetrícia","Centro Hospitalar Universitário do Algarve, E. P. E. (510745997)","YSN Medical, Lda. (514330155)","31.200,00 €",11-07-2018,31-01-2018,365 dias,"Portugal, Faro, Portimão<BR/>Portugal, Faro, Faro","Artigo 24.º, n.º 1, alínea e), subalínea ii) do Código dos Contratos Públicos",,,,,,Não aplicável.,Não aplicável.,FALSE
Prestação de Serviços Médicos de Anestesiologia,Ajuste Direto Regime Geral,Aquisição de serviços,"85121000-3, Serviços de prática médica","Centro Hospitalar Universitário do Algarve, E. P. E. (510745997)","Aristoxygen - Serviços Médicos, Lda. (514786310)","140.400,00 €",11-07-2018,14-06-2018,270 dias,"Portugal, Faro, Portimão","Artigo 24.º, n.º 1, alínea e), subalínea ii) do Código dos Contratos Públicos",,,,,,Não aplicável.,Não aplicável.,FALSE
Prestação de Serviços Médicos de Urgência Geral,Ajuste Direto Regime Geral,Aquisição de serviços,"85121100-4, Serviços de médicos de clínica geral","Centro Hospitalar Universitário do Algarve, E. P. E. (510745997)","Viktor & Osukh, Lda. (514805293)","93.600,00 €",11-07-2018,11-06-2018,270 dias,"Portugal, Faro, Portimão","Artigo 24.º, n.º 1, alínea e), subalínea ii) do Código dos Contratos Públicos",,,,,,Não aplicável.,Não aplicável.,FALSE
92/2558/2018-Aquisição de Tampão Cavilha P/ Encavilhamento Cefalo Medular,Ajuste Direto Regime Geral,Aquisição de bens móveis,"33140000-3, Material médico de consumo","Centro Hospitalar Universitário do Algarve, E. P. E. (510745997)","STRYKER PORTUGAL PRODUTOS MEDICOS, LDA (504594214)","7,50 €",11-07-2018,05-07-2018,179 dias,"Portugal, Faro, Faro<BR/>Portugal, Faro, Portimão","Artigo 24.º, n.º 1, alínea e), subalínea iii) do Código dos Contratos Públicos",,,,,,Não aplicável.,Não aplicável.,FALSE
Prestação de Serviços Médicos de Anestesiologia,Ajuste Direto Regime Geral,Aquisição de serviços,"85121000-3, Serviços de prática médica","Centro Hospitalar Universitário do Algarve, E. P. E. (510745997)","Isabel Oliveira Eusébio, Lda. (508498520)","124.800,00 €",10-07-2018,31-01-2018,365 dias,"Portugal, Faro, Portimão","Artigo 24.º, n.º 1, alínea e), subalínea ii) do Código dos Contratos Públicos",,,,,,Não aplicável.,Não aplicável.,FALSE
62/2689/2018 - Material p/Cirurgia de Fixadores Externo Hoffmann,Ajuste Direto Regime Geral,Aquisição de bens móveis,"33183200-8, Próteses ortopédicas","Centro Hospitalar Universitário do Algarve, E. P. E. (510745997)","STRYKER PORTUGAL - PRODUTOS MEDICOS, UNIPESSOAL,LDA. (504594214)","1.023,00 €",10-07-2018,29-06-2018,5 dias,"Portugal, Faro, Portimão<BR/>Portugal, Faro, Faro","Artigo 24.º, n.º 1, alínea c) do Código dos Contratos Públicos",,,,,,Não aplicável.,Não aplicável.,FALSE
Prestação de Serviços de Ginecologia/Obstetrícia,Ajuste Direto Regime Geral,Aquisição de serviços,"85121210-8, Serviços de ginecologia ou obstetrícia","Centro Hospitalar Universitário do Algarve, E. P. E. (510745997)","José Sacramento Sousa, Lda. (509553761)","62.400,00 €",10-07-2018,31-01-2018,365 dias,"Portugal, Faro, Portimão","Artigo 24.º, n.º 1, alínea e), subalínea ii) do Código dos Contratos Públicos",,,,,,Não aplicável.,Não aplicável.,FALSE
Prestação de Serviços de Anestesiologia,Ajuste Direto Regime Geral,Aquisição de serviços,"85121000-3, Serviços de prática médica","Centro Hospitalar Universitário do Algarve, E. P. E. (510745997)","Medadvance - Prestação e Serviços Médicos, Lda. (510430996)","62.400,00 €",10-07-2018,31-01-2018,360 dias,"Portugal, Faro, Portimão","Artigo 24.º, n.º 1, alínea e), subalínea ii) do Código dos Contratos Públicos",,,,,,Não aplicável.,Não aplicável.,FALSE
Prestação de Serviços Médicos de Cirurgia Geral,Ajuste Direto Regime Geral,Aquisição de serviços,"85121000-3, Serviços de prática médica","Centro Hospitalar Universitário do Algarve, E. P. E. (510745997)",M. Castanheira Neves - Prestação de Serviços Médicos SA (504243705),"249.600,00 €",10-07-2018,31-01-2018,360 dias,"Portugal, Faro, Faro","Artigo 24.º, n.º 1, alínea e), subalínea ii) do Código dos Contratos Públicos",,,,,,Não aplicável.,Não aplicável.,FALSE
62/2684/2018 - Aquisição Material p/Neurocirurgia (Fixação de coluna),Ajuste Direto Regime Geral,Aquisição de bens móveis,"33183200-8, Próteses ortopédicas","Centro Hospitalar Universitário do Algarve, E. P. E. (510745997)","NEUROWAVE UNIPESSOAL,Lda (508537150)","7.464,00 €",10-07-2018,29-06-2018,5 dias,"Portugal, Faro, Faro","Artigo 24.º, n.º 1, alínea e), subalínea ii) do Código dos Contratos Públicos",,,,,,Não aplicável.,Não aplicável.,FALSE
Prestação Serviços Médicos Ginecologia/Obstetrícia,Ajuste Direto Regime Geral,Aquisição de serviços,"85121210-8, Serviços de ginecologia ou obstetrícia","Centro Hospitalar Universitário do Algarve, E. P. E. (510745997)","Solcare, Lda. (514256052)","93.600,00 €",10-07-2018,01-02-2018,365 dias,"Portugal, Faro, Portimão","Artigo 24.º, n.º 1, alínea e), subalínea ii) do Código dos Contratos Públicos",,,,,,Não aplicável.,Não aplicável.,FALSE
Prestação de Serviços Médicos de Anestesiologia,Ajuste Direto Regime Geral,Aquisição de serviços,"85121000-3, Serviços de prática médica","Centro Hospitalar Universitário do Algarve, E. P. E. (510745997)","Esfera Prioritária, Lda (514837683)","98.400,00 €",10-07-2018,19-06-2018,306 dias,"Portugal, Faro, Faro","Artigo 24.º, n.º 1, alínea e), subalínea ii) do Código dos Contratos Públicos",,,,,,Não aplicável.,Não aplicável.,FALSE
Aquisição de Sistema para cirurgia de Odontoide,Ajuste Direto Regime Geral,Aquisição de bens móveis,"33140000-3, Material médico de consumo","Centro Hospitalar Universitário do Algarve, E. P. E. (510745997)","JOHNSON & JOHNSON, LDA (500153370)","1.520,00 €",05-07-2018,19-06-2018,196 dias,"Portugal, Faro, Faro","Artigo 24.º, n.º 1, alínea e), subalínea ii) do Código dos Contratos Públicos",,,,,,Não aplicável.,Não aplicável.,FALSE
Prestação de Serviços de Higiene e Limpeza,Consulta Prévia,Aquisição de serviços,"90910000-9, Serviços de limpeza","Centro Hospitalar Universitário do Algarve, E. P. E. (510745997)","Clece, S.A. (513789995)","26.478,00 €",04-07-2018,04-07-2018,210 dias,"Portugal, Faro, Portimão","Artigo 20.º, n.º 1, alínea c) do Código dos Contratos Públicos",,,,,,Não aplicável.,Não aplicável.,FALSE
