Objeto do Contrato,Tipo de Procedimento,Tipo(s) de Contrato,CPVs,Entidade(s) Adjudicante(s),Entidade(s) Adjudicatária(s),Preço Contratual,Data de Publicação,Data de Celebração do Contrato,Prazo de Execução,Local de Execução,Fundamentação,Data de Fecho do Contrato,Preço Total Efetivo,Causas das Alterações ao Prazo,Causas das Alterações ao Preço,Estado,N.º registo do Acordo Quadro,Descrição do Acordo Quadro,Procedimento Centralizado
AQUISIÇÃO DE SISTEMA (KIT) PARA ARTROBOMBA DYONICS,Ajuste Direto Regime Geral,Aquisição de bens móveis,"33141700-7, Material ortopédico","Centro Hospitalar Tondela-Viseu, E. P. E. (509822940)","SMITH & NEPHEW, LDA (503552461)","8.800,44 €",20-06-2014,23-07-2013,1 dias,"Portugal, Viseu, Viseu","Artigo 24.º, n.º 1, alínea e) do Código dos Contratos Públicos",,,,,,Não aplicável.,Não aplicável.,FALSE
AQUISIÇÃO DE MATERIAL APLICADO - PROTESE P/TRATAMENTO ANEURISMA DA AORTA TORACICA,Ajuste Direto Regime Geral,Aquisição de bens móveis,"33184000-3, Próteses","Centro Hospitalar Tondela-Viseu, E. P. E. (509822940)","MEDTRONIC PORTUGAL, LDA (504223933)","7.000,00 €",20-06-2014,17-07-2013,1 dias,"Portugal, Viseu, Viseu","Artigo 20.º, n.º 1, alínea a) do Código dos Contratos Públicos",,,,,,Não aplicável.,Não aplicável.,FALSE
AQUISIÇÃO DE MATERIAL PARA FDS - FARMACIA,Ajuste Direto Regime Geral,Aquisição de bens móveis,"33140000-3, Material médico de consumo","Centro Hospitalar Tondela-Viseu, E. P. E. (509822940)","BAXTER MEDICO FARMACEUTICA,LD (503347345)","18.743,55 €",20-06-2014,17-07-2013,1 dias,"Portugal, Viseu, Viseu","Artigo 24.º, n.º 1, alínea e) do Código dos Contratos Públicos",,,,,,Não aplicável.,Não aplicável.,FALSE
AQUISIÇÃO DE AGRAFADOR LAPAROSCOPICO C/CORTE,Ajuste Direto Regime Geral,Aquisição de bens móveis,"33169000-2, Material cirúrgico","Centro Hospitalar Tondela-Viseu, E. P. E. (509822940)","JOHNSON & JOHNSON, MEDICAL (500153370)","5.040,00 €",20-06-2014,12-07-2013,1 dias,"Portugal, Viseu, Viseu","Artigo 20.º, n.º 1, alínea a) do Código dos Contratos Públicos",,,,,,Não aplicável.,Não aplicável.,FALSE
AQUISIÇÃO DE KIT EPIDURAL/RAQUIANESTESIA,Ajuste Direto Regime Geral,Aquisição de bens móveis,"33171000-9, Material para anestesia e reanimação","Centro Hospitalar Tondela-Viseu, E. P. E. (509822940)","LINEAMEDICA,S.A (505148676)","4.963,20 €",19-06-2014,28-06-2013,1 dias,"Portugal, Viseu, Viseu","Artigo 20.º, n.º 1, alínea a) do Código dos Contratos Públicos",,,,,,Não aplicável.,Não aplicável.,FALSE
AQUISIÇÃO DE DIVERSO MATERIAL CLINICO ANTI EMBOLIA,Ajuste Direto Regime Geral,Aquisição de bens móveis,"33140000-3, Material médico de consumo","Centro Hospitalar Tondela-Viseu, E. P. E. (509822940)","MEDI-BAYREUTH UNIP,LDA (502577274)","28.645,85 €",19-06-2014,21-06-2013,1 dias,"Portugal, Viseu, Viseu","Artigo 20.º, n.º 1, alínea a) do Código dos Contratos Públicos",,,,,,Não aplicável.,Não aplicável.,FALSE
AQUISIÇÃO DE PROTESES DA ANCA NÃO CIMENTADA,Ajuste Direto Regime Geral,Aquisição de bens móveis,"33183200-8, Próteses ortopédicas","Centro Hospitalar Tondela-Viseu, E. P. E. (509822940)","LIMA IMPLANTES PORTUGAL s.u., Lda. (508634784)","74.000,00 €",18-06-2014,31-01-2013,1 dias,"Portugal, Viseu, Viseu","Artigo 20.º, n.º 1, alínea a) do Código dos Contratos Públicos",,,,,,Não aplicável.,Não aplicável.,FALSE
AQUISIÇÃO DE EXTRATOR DE CALCULO 4 FIOS,Ajuste Direto Regime Geral,Aquisição de bens móveis,"33140000-3, Material médico de consumo","Centro Hospitalar Tondela-Viseu, E. P. E. (509822940)",9809306 (502438274),"9.360,00 €",18-06-2014,11-07-2013,1 dias,"Portugal, Viseu, Viseu","Artigo 24.º, n.º 1, alínea c) do Código dos Contratos Públicos",,,,,,Não aplicável.,Não aplicável.,FALSE
AQUISIÇÃO DE OXISENSOR DE OXIGENIO,Ajuste Direto Regime Geral,Aquisição de bens móveis,"33140000-3, Material médico de consumo","Centro Hospitalar Tondela-Viseu, E. P. E. (509822940)","COVIDIEN PORTUGAL-PRODUTOS DE SAÚDE UNIPESSOAL,LDA (503413410)","11.880,00 €",18-06-2014,15-07-2013,1 dias,"Portugal, Viseu, Viseu","Artigo 24.º, n.º 1, alínea c) do Código dos Contratos Públicos",,,,,,Não aplicável.,Não aplicável.,FALSE
AQUISIÇÃO DE SISTEMAS  DE SERINGAS P/BOMBAS INFUSORAS,Ajuste Direto Regime Geral,Aquisição de bens móveis,"33140000-3, Material médico de consumo","Centro Hospitalar Tondela-Viseu, E. P. E. (509822940)","B.BRAUN MEDICAL, LDA (501506543)","66.966,00 €",18-06-2014,04-06-2013,1 dias,"Portugal, Viseu, Viseu","Artigo 20.º, n.º 1, alínea a) do Código dos Contratos Públicos",,,,,,Não aplicável.,Não aplicável.,FALSE
AQUISIÇÃO DE OTICAS PARA GINECOLOGIA,Ajuste Direto Regime Geral,Aquisição de bens móveis,"38600000-1, Instrumentos ópticos","Centro Hospitalar Tondela-Viseu, E. P. E. (509822940)","INMEDSURGICAL_Instrumedicir-Equipamentos Médico-Cirurgicos,Lda (507754468)","10.840,00 €",18-06-2014,17-06-2014,1 dias,"Portugal, Viseu, Viseu","Artigo 20.º, n.º 1, alínea a) do Código dos Contratos Públicos",,,,,,Não aplicável.,Não aplicável.,FALSE
AQUISIÇÃO DE PROTESE P/TRATAMENTO ANEURISMA DA AORTA,Ajuste Direto Regime Geral,Aquisição de bens móveis,"33184000-3, Próteses","Centro Hospitalar Tondela-Viseu, E. P. E. (509822940)","MEDTRONIC PORTUGAL, LDA (504223933)","9.000,00 €",18-06-2014,14-06-2013,1 dias,"Portugal, Viseu, Viseu","Artigo 20.º, n.º 1, alínea a) do Código dos Contratos Públicos",,,,,,Não aplicável.,Não aplicável.,FALSE
AQUISIÇÃO DE MATERIAL APLICADO - PROTESE JOELHO CIMENTADO REVISÃO,Ajuste Direto Regime Geral,Aquisição de bens móveis,"33183200-8, Próteses ortopédicas","Centro Hospitalar Tondela-Viseu, E. P. E. (509822940)","ZIMMER , SA (980151716)","5.627,00 €",18-06-2014,18-06-2013,1 dias,"Portugal, Viseu, Viseu","Artigo 20.º, n.º 1, alínea a) do Código dos Contratos Públicos",,,,,,Não aplicável.,Não aplicável.,FALSE
AQUISIÇÃO DE SISTEMA GOTA A GOTA P/BOMBA INFUSORA,Ajuste Direto Regime Geral,Aquisição de bens móveis,"33140000-3, Material médico de consumo","Centro Hospitalar Tondela-Viseu, E. P. E. (509822940)","B.BRAUN MEDICAL, LDA (501506543)","13.300,00 €",18-06-2014,17-06-2013,1 dias,"Portugal, Viseu, Viseu","Artigo 24.º, n.º 1, alínea c) do Código dos Contratos Públicos",,,,,,Não aplicável.,Não aplicável.,FALSE
AQUISIÇÃO DE FIO GUIA ANGIOPLASTIA,Ajuste Direto Regime Geral,Aquisição de bens móveis,"33140000-3, Material médico de consumo","Centro Hospitalar Tondela-Viseu, E. P. E. (509822940)",ST.JUDE MEDICAL PORTUGAL (504180746),"27.000,00 €",18-06-2014,17-06-2013,1 dias,"Portugal, Viseu, Viseu","Artigo 24.º, n.º 1, alínea e) do Código dos Contratos Públicos",,,,,,Não aplicável.,Não aplicável.,FALSE
AQUISIÇÃO DE CU8VETE REACÇÃO ACL E MICROCUVETE P/HEMOGLOBINA,Ajuste Direto Regime Geral,Aquisição de bens móveis,"33140000-3, Material médico de consumo","Centro Hospitalar Tondela-Viseu, E. P. E. (509822940)",IZASA PORTUGAL-DISTR.TECNIC. (501086110),"40.965,44 €",18-06-2014,20-05-2013,1 dias,"Portugal, Viseu, Viseu","Artigo 20.º, n.º 1, alínea a) do Código dos Contratos Públicos",,,,,,Não aplicável.,Não aplicável.,FALSE
AQUISIÇÃO DE LANCETA P/PUNÇÃO CAPILAR AUTOMATICA,Ajuste Direto Regime Geral,Aquisição de bens móveis,"33141000-0, Material médico não químico descartável e produtos hematológicos","Centro Hospitalar Tondela-Viseu, E. P. E. (509822940)","MENARINI DIAGNOSTICOS,LDA (502610069)","4.987,50 €",18-06-2014,29-05-2013,1 dias,"Portugal, Viseu, Viseu","Artigo 24.º, n.º 1, alínea c) do Código dos Contratos Públicos",,,,,,Não aplicável.,Não aplicável.,FALSE
AQUISIÇÃO DE TUBO CRISTAL PVC,Ajuste Direto Regime Geral,Aquisição de bens móveis,"33140000-3, Material médico de consumo","Centro Hospitalar Tondela-Viseu, E. P. E. (509822940)",CASA DAS CHAVES DE VISEU (110768710),"6.800,00 €",18-06-2014,28-05-2013,1 dias,"Portugal, Viseu, Viseu","Artigo 20.º, n.º 1, alínea a) do Código dos Contratos Públicos",,,,,,Não aplicável.,Não aplicável.,FALSE
AQUISIÇÃO DE AGRAFADOR LINEAR C/CORTE P/CARGAS AZUIS,Ajuste Direto Regime Geral,Aquisição de bens móveis,"33169000-2, Material cirúrgico","Centro Hospitalar Tondela-Viseu, E. P. E. (509822940)","JOHNSON & JOHNSON, MEDICAL (500153370)","6.480,00 €",18-06-2014,30-04-2013,1 dias,"Portugal, Viseu, Viseu","Artigo 24.º, n.º 1, alínea c) do Código dos Contratos Públicos",,,,,,Não aplicável.,Não aplicável.,FALSE
AQUISIÇÃO DE MATERIAL APLICADO - COLUNA,Ajuste Direto Regime Geral,Aquisição de bens móveis,"33141700-7, Material ortopédico","Centro Hospitalar Tondela-Viseu, E. P. E. (509822940)","MEDTRONIC PORTUGAL, LDA (504223933)","7.410,00 €",18-06-2014,22-05-2013,1 dias,"Portugal, Viseu, Viseu","Artigo 20.º, n.º 1, alínea a) do Código dos Contratos Públicos",,,,,,Não aplicável.,Não aplicável.,FALSE
AQUISIÇÃO DE KIT SERINGA MULTI-USO A2000 P/INJETOR,Ajuste Direto Regime Geral,Aquisição de bens móveis,"33141620-2, Kits médicos","Centro Hospitalar Tondela-Viseu, E. P. E. (509822940)","MED X-RAY SISTEMAS MEDICOS, LDA (506187071)","25.371,00 €",18-06-2014,28-05-2013,1 dias,"Portugal, Viseu, Viseu","Artigo 20.º, n.º 1, alínea a) do Código dos Contratos Públicos",,,,,,Não aplicável.,Não aplicável.,FALSE
"AQUISIÇÃO DE MANDERIL """"PUNÇÃO"""" TROCAR LAPAROSC. E VEDANTE",Ajuste Direto Regime Geral,Aquisição de bens móveis,"33140000-3, Material médico de consumo","Centro Hospitalar Tondela-Viseu, E. P. E. (509822940)","B.BRAUN MEDICAL, LDA (501506543)","44.120,00 €",18-06-2014,12-06-2013,1 dias,"Portugal, Viseu, Viseu","Artigo 20.º, n.º 1, alínea a) do Código dos Contratos Públicos",,,,,,Não aplicável.,Não aplicável.,FALSE
AQUISIÇÃO DE CLIP HEMOSTATICO EM POLIMERO E TITANIO,Ajuste Direto Regime Geral,Aquisição de bens móveis,"33140000-3, Material médico de consumo","Centro Hospitalar Tondela-Viseu, E. P. E. (509822940)","JMV-PRODUTOS HOSPITALARES,LDA (501887148)","31.521,00 €",17-06-2014,28-05-2013,1 dias,"Portugal, Viseu, Viseu","Artigo 20.º, n.º 1, alínea a) do Código dos Contratos Públicos",,,,,,Não aplicável.,Não aplicável.,FALSE
AQUISIÇÃO DE PROTESE ESOFAGICA COBERTURA AUTO - EXPANSIVA,Ajuste Direto Regime Geral,Aquisição de bens móveis,"33184000-3, Próteses","Centro Hospitalar Tondela-Viseu, E. P. E. (509822940)","ALVES & CIA (IRMAOS), LDA (500310068)","4.470,00 €",17-06-2014,22-05-2013,1 dias,"Portugal, Viseu, Viseu","Artigo 20.º, n.º 1, alínea a) do Código dos Contratos Públicos",,,,,,Não aplicável.,Não aplicável.,FALSE
AQUISIÇÃO DE SISTEMA GOTA A GOTA PARA BOMBA INFUSORA,Ajuste Direto Regime Geral,Aquisição de bens móveis,"33140000-3, Material médico de consumo","Centro Hospitalar Tondela-Viseu, E. P. E. (509822940)","B.BRAUN MEDICAL, LDA (501506543)","4.940,00 €",17-06-2014,03-06-2013,1 dias,"Portugal, Viseu, Viseu","Artigo 20.º, n.º 1, alínea a) do Código dos Contratos Públicos",,,,,,Não aplicável.,Não aplicável.,FALSE
AQUISIÇÃO DE MATERIAL APLICADO - PROTESE JOELHO REVISÃO,Ajuste Direto Regime Geral,Aquisição de bens móveis,"33184000-3, Próteses","Centro Hospitalar Tondela-Viseu, E. P. E. (509822940)","ZIMMER , SA (980151716)","6.620,00 €",17-06-2014,22-05-2013,1 dias,"Portugal, Viseu, Viseu","Artigo 20.º, n.º 1, alínea a) do Código dos Contratos Públicos",,,,,,Não aplicável.,Não aplicável.,FALSE
AQUISIÇÃO DE PROTESE P/TRATAMENTO ANEURISMA DA AORTA,Ajuste Direto Regime Geral,Aquisição de bens móveis,"33184000-3, Próteses","Centro Hospitalar Tondela-Viseu, E. P. E. (509822940)","MEDTRONIC PORTUGAL, LDA (504223933)","9.000,00 €",17-06-2014,29-04-2013,1 dias,"Portugal, Viseu, Viseu","Artigo 20.º, n.º 1, alínea a) do Código dos Contratos Públicos",,,,,,Não aplicável.,Não aplicável.,FALSE
AQUISIÇÃO DE MATERIAL APLICADO - PROTESES DO JOELHO,Ajuste Direto Regime Geral,Aquisição de bens móveis,"33183200-8, Próteses ortopédicas","Centro Hospitalar Tondela-Viseu, E. P. E. (509822940)",STRYKER PORTUGAL-PROD.M.UNIP.L (504594214),"11.400,00 €",17-06-2014,07-05-2013,1 dias,"Portugal, Viseu, Viseu","Artigo 20.º, n.º 1, alínea a) do Código dos Contratos Públicos",,,,,,Não aplicável.,Não aplicável.,FALSE
AQUISIÇÃO D PROTESES DE ANCA NÃO CIMENTADA,Ajuste Direto Regime Geral,Aquisição de bens móveis,"33183200-8, Próteses ortopédicas","Centro Hospitalar Tondela-Viseu, E. P. E. (509822940)",P.H.O.-PROD.HOSPIT.P/ORTOPEDIA (504980580),"34.985,00 €",17-06-2014,26-03-2013,1 dias,"Portugal, Viseu, Viseu","Artigo 20.º, n.º 1, alínea a) do Código dos Contratos Públicos",,,,,,Não aplicável.,Não aplicável.,FALSE
AQUISIÇÃO DE COMPRESSA GAZE HIDROFILA,Ajuste Direto Regime Geral,Aquisição de bens móveis,"33141119-7, Compressas","Centro Hospitalar Tondela-Viseu, E. P. E. (509822940)","ALBINO DIAS DE ANDRADE, LDA (500013810)","8.445,00 €",17-06-2014,13-03-2013,1 dias,"Portugal, Viseu, Viseu","Artigo 20.º, n.º 1, alínea a) do Código dos Contratos Públicos",,,,,,Não aplicável.,Não aplicável.,FALSE
AQUISIÇÃO DE REAGENTE P/EQUIPAMENTO AUTO- LIPA 48,Ajuste Direto Regime Geral,Aquisição de bens móveis,"33696500-0, Reagentes de laboratório","Centro Hospitalar Tondela-Viseu, E. P. E. (509822940)","QUILABAN-QUÍMICA LABORATORIAL ANALÍTICA, S.A. (500399670)","33.938,00 €",16-06-2014,22-05-2014,1 dias,"Portugal, Viseu, Viseu","Artigo 20.º, n.º 1, alínea a) do Código dos Contratos Públicos",,,,,,Não aplicável.,Não aplicável.,FALSE
AQUISIÇÃO DE PROTESES EXPANSORAS MAMARIAS,Ajuste Direto Regime Geral,Aquisição de bens móveis,"33184400-7, Próteses mamárias","Centro Hospitalar Tondela-Viseu, E. P. E. (509822940)",HOSPITEX-MATERIAL HOSPITALAR (501909842),"19.980,50 €",16-06-2014,08-07-2013,1 dias,"Portugal, Viseu, Viseu","Artigo 20.º, n.º 1, alínea a) do Código dos Contratos Públicos",,,,,,Não aplicável.,Não aplicável.,FALSE
AQUISIÇÃO DE GERDOR,Ajuste Direto Regime Geral,Aquisição de bens móveis,"33182100-0, Desfibrilhador","Centro Hospitalar Tondela-Viseu, E. P. E. (509822940)",ST.JUDE MEDICAL PORTUGAL (504180746),"12.000,00 €",16-06-2014,27-02-2013,1 dias,"Portugal, Viseu, Viseu<BR/>Portugal","Artigo 20.º, n.º 1, alínea a) do Código dos Contratos Públicos",,,,,,Não aplicável.,Não aplicável.,FALSE
"AQUISIÇÃO DE TESOURA HARMONIC ACE, COM HASTE DIAM.56CM, COMP.36CM",Ajuste Direto Regime Geral,Aquisição de bens móveis,"39241200-5, Tesouras","Centro Hospitalar Tondela-Viseu, E. P. E. (509822940)","JOHNSON & JOHNSON, MEDICAL (500153370)","5.220,00 €",16-06-2014,27-02-2013,1 dias,"Portugal, Viseu, Viseu","Artigo 20.º, n.º 1, alínea a) do Código dos Contratos Públicos",,,,,,Não aplicável.,Não aplicável.,FALSE
AQUISIÇÃO DE GERADOR COM CARDIODESFIBRILHADOR,Ajuste Direto Regime Geral,Aquisição de bens móveis,"33182100-0, Desfibrilhador","Centro Hospitalar Tondela-Viseu, E. P. E. (509822940)",ST.JUDE MEDICAL PORTUGAL (504180746),"12.000,00 €",16-06-2014,06-02-2013,1 dias,"Portugal, Viseu, Viseu","Artigo 20.º, n.º 1, alínea a) do Código dos Contratos Públicos",,,,,,Não aplicável.,Não aplicável.,FALSE
AQUISIÇAÕ DE MATERIAL APLICADO,Ajuste Direto Regime Geral,Aquisição de bens móveis,"33184200-5, Próteses vasculares","Centro Hospitalar Tondela-Viseu, E. P. E. (509822940)","MEDTRONIC PORTUGAL, LDA (504223933)","9.000,00 €",16-06-2014,04-03-2013,1 dias,"Portugal, Viseu, Viseu","Artigo 20.º, n.º 1, alínea a) do Código dos Contratos Públicos",,,,,,Não aplicável.,Não aplicável.,FALSE
AQUISIÇÃO DE SERINGAS E AGULHAS PARA USO CLINICO,Ajuste Direto Regime Geral,Aquisição de bens móveis,"33141310-6, Seringas","Centro Hospitalar Tondela-Viseu, E. P. E. (509822940)","B.BRAUN MEDICAL, LDA (501506543)","80.582,84 €",13-06-2014,31-12-2013,1 dias,"Portugal, Viseu, Viseu","Artigo 26.º, n.º 1, alínea e) do Código dos Contratos Públicos",,,,,,Não aplicável.,Não aplicável.,FALSE
AQUISIÇÃO DE DIVERSOS REAGENTES P/ IMUNOHEMOTERAPIA,Ajuste Direto Regime Geral,Aquisição de bens móveis,"33696100-6, Reagentes para determinação do grupo sanguíneo","Centro Hospitalar Tondela-Viseu, E. P. E. (509822940)","DIAMED PORTUGUESA DIAGNÓSTICA, SA (501675809)","6.724,80 €",13-06-2014,22-01-2014,1 dias,"Portugal, Viseu, Viseu","Artigo 24.º, n.º 1, alínea c) do Código dos Contratos Públicos",,,,,,Não aplicável.,Não aplicável.,FALSE
AQUISIÇÃO DE DIVERSO MATERIAL PARA LIGAMENTOPLASTIA DO JOELHO,Ajuste Direto Regime Geral,Aquisição de bens móveis,"33140000-3, Material médico de consumo","Centro Hospitalar Tondela-Viseu, E. P. E. (509822940)","BIOMET PORTUGAL UNIPESSOAL,LDA (500254990)","16.537,00 €",13-06-2014,20-12-2013,1 dias,"Portugal, Viseu, Viseu","Artigo 20.º, n.º 1, alínea a) do Código dos Contratos Públicos",,,,,,Não aplicável.,Não aplicável.,FALSE
AAUISIÇÃO DE CONTRATO DE MANUTENÇÃO E ASSISTÊNCIA TÉCNICA A MONITORES DE SINAIS VITAIS MARCA SIEMENS E DRAGER,Ajuste Direto Regime Geral,Aquisição de serviços,"50421000-2, Serviços de reparação e manutenção de equipamento médico","Centro Hospitalar Tondela-Viseu, E. P. E. (509822940)","DRAGER PORTUGAL, LDA (508771323)","123.207,70 €",12-06-2014,31-12-2013,1 dias,"Portugal, Viseu, Viseu","Artigo 24.º, n.º 1, alínea e) do Código dos Contratos Públicos",,,,,,Não aplicável.,Não aplicável.,FALSE
"AQUISIÇÃO DE CONTRATO DE ALUGUER POR 5 ANOS, E DE MANUTENÇÃO E ASSISTÊNCIA TÉCNICA, AOS FOTOCOPIADORES E TELECOPIADORES CANON",Ajuste Direto Regime Geral,Aquisição de serviços,"50313200-4, Serviços de manutenção de fotocopiadoras","Centro Hospitalar Tondela-Viseu, E. P. E. (509822940)","CENTROFAX - SOC. COMERCIAL DE EQUIP. ESCRITÓRIO, LDA (502137428)","19.572,26 €",12-06-2014,07-11-2013,1 dias,"Portugal, Viseu, Viseu","Artigo 20.º, n.º 1, alínea a) do Código dos Contratos Públicos",,,,,,Não aplicável.,Não aplicável.,FALSE
AQUISIÇÃO DE CONTRATO DE MANUTENÇÃO E ASSISTÊNCIA TÉCNICA A DIVERSO EQUIPAMENTO REPRESENTADO PELA MEDICINALIA EM TONDELA,Ajuste Direto Regime Geral,Aquisição de serviços,"50421000-2, Serviços de reparação e manutenção de equipamento médico","Centro Hospitalar Tondela-Viseu, E. P. E. (509822940)","MEDICINÁLIA CORMEDICA, LDA (500684324)","8.506,36 €",12-06-2014,06-12-2013,1 dias,"Portugal, Viseu, Viseu","Artigo 20.º, n.º 1, alínea a) do Código dos Contratos Públicos",,,,,,Não aplicável.,Não aplicável.,FALSE
AQUISIÇÃO DE CONTRATO DE MANUTENÇÃO AO SOFTWARE DA GESTÃO DO LABORATÓRIO MODULAB,Ajuste Direto Regime Geral,Aquisição de serviços,"50312000-5, Manutenção e reparação de equipamento informático","Centro Hospitalar Tondela-Viseu, E. P. E. (509822940)",IZASA PORTUGAL-DISTR.TECNIC. (501086110),"16.668,00 €",12-06-2014,13-11-2013,1 dias,"Portugal, Viseu, Viseu","Artigo 24.º, n.º 1, alínea e) do Código dos Contratos Públicos",,,,,,Não aplicável.,Não aplicável.,FALSE
AQUISIÇÃO DE CONTRATO DE MANUTENÇÃO E ASSISTÊNCIA TÉCNICA A MESAS OPERATÓRIAS E OUTROS EQUIPAMENTOS,Ajuste Direto Regime Geral,Aquisição de serviços,"50421000-2, Serviços de reparação e manutenção de equipamento médico","Centro Hospitalar Tondela-Viseu, E. P. E. (509822940)","MEDICINÁLIA CORMEDICA, LDA (500684324)","63.495,30 €",12-06-2014,06-11-2013,1 dias,"Portugal, Viseu, Viseu","Artigo 24.º, n.º 1, alínea e) do Código dos Contratos Públicos",,,,,,Não aplicável.,Não aplicável.,FALSE
AQUISIÇÃO DE CONTRATO DE MANUTENÇÃO E ASSISTÊNCIA TÉCNICA AOS VENTILADORES SERVO,Ajuste Direto Regime Geral,Aquisição de serviços,"50421000-2, Serviços de reparação e manutenção de equipamento médico","Centro Hospitalar Tondela-Viseu, E. P. E. (509822940)","MAQUET PORTUGAL, LDA (506819698)","54.018,00 €",12-06-2014,06-11-2013,1 dias,"Portugal, Viseu, Viseu","Artigo 24.º, n.º 1, alínea e) do Código dos Contratos Públicos",,,,,,Não aplicável.,Não aplicável.,FALSE
AQUISIÇÃO DE CONTRATO DE MANUTENÇÃO E ASSISTÊNCIA TÉCNICA AOS EQUIPAMENTOS GENERAL ELECTRIC,Ajuste Direto Regime Geral,Aquisição de serviços,"50421000-2, Serviços de reparação e manutenção de equipamento médico","Centro Hospitalar Tondela-Viseu, E. P. E. (509822940)","GENERAL ELECTRIC PORTUGUESA, (500357129)","83.134,66 €",12-06-2014,06-11-2013,1 dias,"Portugal, Viseu, Viseu","Artigo 24.º, n.º 1, alínea e) do Código dos Contratos Públicos",,,,,,Não aplicável.,Não aplicável.,FALSE
AQUISIÇÃO DE CONTRATO DE MANUTENÇÃO E ASSISTÊNCIA TÉCNICA A MÁQUINAS E CADEIRAS DIÁLISE,Ajuste Direto Regime Geral,Aquisição de serviços,"50421000-2, Serviços de reparação e manutenção de equipamento médico","Centro Hospitalar Tondela-Viseu, E. P. E. (509822940)","FRESENIUS MEDICAL CARE PORTUGAL, SA (503070220)","12.435,60 €",12-06-2014,13-12-2013,1 dias,"Portugal, Viseu, Viseu","Artigo 20.º, n.º 1, alínea a) do Código dos Contratos Públicos",,,,,,Não aplicável.,Não aplicável.,FALSE
AQUISIÇÃO DE CONTRATO DE MANUTENÇÃO E ASSISTÊNCIA TÉCNICA AOS ELEVADORES DO H.S.T. E DPSM,Ajuste Direto Regime Geral,Aquisição de serviços,"50750000-7, Serviços de manutenção de elevadores","Centro Hospitalar Tondela-Viseu, E. P. E. (509822940)","SCHINDLER-ASC. ESC. ROLANT.,SA (502353740)","12.068,74 €",12-06-2014,13-11-2013,1 dias,"Portugal, Viseu, Viseu","Artigo 20.º, n.º 1, alínea a) do Código dos Contratos Públicos",,,,,,Não aplicável.,Não aplicável.,FALSE
AQUISIÇÃO DE CONTRATO DE MANUTENÇÃO E ASSISTÊNCIA TÉCNICA AOS CANDEEIROS RODADOS DE OBSERVAÇÃO E CIRÚRGICOS DO BLOCO OPERATÓRIO,Ajuste Direto Regime Geral,Aquisição de serviços,"50421000-2, Serviços de reparação e manutenção de equipamento médico","Centro Hospitalar Tondela-Viseu, E. P. E. (509822940)","MAQUET PORTUGAL, LDA (506819698)","7.206,36 €",12-06-2014,06-11-2013,1 dias,"Portugal, Viseu, Viseu","Artigo 20.º, n.º 1, alínea a) do Código dos Contratos Públicos",,,,,,Não aplicável.,Não aplicável.,FALSE
"AQUISIÇÃO DE CONTRATO DE MANUTENÇÃO E ASSISTÊNCIA TÉCNICA A EQUIPAMENTO IZASA DO SERVIÇO DE PATOLOGIA CLÍNICA, IMUNO-HEMOTERAPIA E ANATOMIA",Ajuste Direto Regime Geral,Aquisição de serviços,"50000000-5, Serviços de reparação e manutenção","Centro Hospitalar Tondela-Viseu, E. P. E. (509822940)",IZASA PORTUGAL-DISTR.TECNIC. (501086110),"8.601,88 €",12-06-2014,06-11-2013,1 dias,"Portugal, Viseu, Viseu","Artigo 20.º, n.º 1, alínea a) do Código dos Contratos Públicos",,,,,,Não aplicável.,Não aplicável.,FALSE
AQUISIÇÃO DE CONTRATO DE MANUTENÇÃO E  ASSISTÊNCIA TÉCNICA AO EQUIPAMENTO DE RESSONÂNCIA MAGNÉTICA,Ajuste Direto Regime Geral,Aquisição de serviços,"50421000-2, Serviços de reparação e manutenção de equipamento médico","Centro Hospitalar Tondela-Viseu, E. P. E. (509822940)","PHILIPS PORTUGUESA, SA (500216843)","25.093,33 €",12-06-2014,19-11-2013,1 dias,"Portugal, Viseu, Viseu","Artigo 24.º, n.º 1, alínea e) do Código dos Contratos Públicos",,,,,,Não aplicável.,Não aplicável.,FALSE
AQUISIÇÃO DE SERVIÇO DE LIMPEZA NAS UNIDADES DE CHTV - 1º TRIMESTRE,Ajuste Direto Regime Geral,Aquisição de serviços,"90910000-9, Serviços de limpeza","Centro Hospitalar Tondela-Viseu, E. P. E. (509822940)","Valorhospital, Gestão e Tratamento de Resíduos Hospitalares S.A. (505488400)","59.700,00 €",12-06-2014,13-03-2014,1 dias,"Portugal, Viseu, Viseu","Artigo 20.º, n.º 1, alínea a) do Código dos Contratos Públicos",,,,,,Não aplicável.,Não aplicável.,FALSE
