Objeto do Contrato,Tipo de Procedimento,Tipo(s) de Contrato,CPVs,Entidade(s) Adjudicante(s),Entidade(s) Adjudicatária(s),Preço Contratual,Data de Publicação,Data de Celebração do Contrato,Prazo de Execução,Local de Execução,Fundamentação,Data de Fecho do Contrato,Preço Total Efetivo,Causas das Alterações ao Prazo,Causas das Alterações ao Preço,Estado,N.º registo do Acordo Quadro,Descrição do Acordo Quadro,Procedimento Centralizado
"Aquisição de 1 900 Frascos de BETAMETASONA (sol. oral) [0,5 MG/ML; FRS",Ao abrigo de acordo-quadro (art.º 258.º),Aquisição de bens móveis,"33670000-7, Medicamentos para o aparelho respiratório","Administração Regional de Saúde do Norte,IP (ARSN) (503135593)","GLAXOSMITHKLINE-PROD.FARMACEUTICOS, LDA (500139962)","3.837,05 €",11-05-2018,02-03-2018,271 dias,"Portugal, Distrito não determinado, Concelho não determinado<BR/>Portugal, Vila Real, Vila Real<BR/>Portugal, Porto, Maia",Artigo 258.º do Código dos Contratos Públicos,"","",,"",,1638654,CP 2015/12 - Acordo quadro para fornecimento de Medicamentos do Aparelho Respiratório às Instituições e Serviços do Serviço Nacional de Saúde,FALSE
"Aquisição de 5 300 Ampolas de BETAMETASONA (sol. oral) [0,5 MG/ML; FRS0",Ao abrigo de acordo-quadro (art.º 258.º),Aquisição de bens móveis,"33670000-7, Medicamentos para o aparelho respiratório","Administração Regional de Saúde do Norte,IP (ARSN) (503135593)","TEVA PHARMA-PRODUTOS FARMACEUTICOS, LDA (507045491)","3.635,80 €",11-05-2018,01-03-2018,270 dias,"Portugal, Porto, Maia<BR/>Portugal, Vila Real, Vila Real<BR/>Portugal, Distrito não determinado, Concelho não determinado",Artigo 258.º do Código dos Contratos Públicos,"","",,"",,1638654,CP 2015/12 - Acordo quadro para fornecimento de Medicamentos do Aparelho Respiratório às Instituições e Serviços do Serviço Nacional de Saúde,FALSE
"Aquisição de 10 Frascos de BETAMETASONA (sol. oral) [0,5 MG/ML; FRS",Ao abrigo de acordo-quadro (art.º 258.º),Aquisição de bens móveis,"33600000-6, Produtos farmacêuticos","Administração Regional de Saúde do Norte,IP (ARSN) (503135593)","Novo Nordisk Comercio Produtos Farmaceuticos, Lda.  (501485210)","273,00 €",11-05-2018,12-03-2018,289 dias,"Portugal, Porto, Maia<BR/>Portugal, Distrito não determinado, Concelho não determinado<BR/>Portugal, Vila Real, Vila Real",Artigo 258.º do Código dos Contratos Públicos,"","",,"",,1415640,CP 2015/7 - ACORDO QUADRO PARA FORNECIMENTO DE HORMONAS E OUTROS MEDICAMENTOS USADOS NO TRATAMENTO DAS DOENÇAS ENDÓCRINAS ÀS INSTITUIÇÕES E SERVIÇOS DO SERVIÇO NACIONAL DE SAÚDE,FALSE
"Aquisição de 10 Frascos de BETAMETASONA (sol. oral) [0,5 MG/ML; FRS ",Ao abrigo de acordo-quadro (art.º 258.º),Aquisição de bens móveis,"33600000-6, Produtos farmacêuticos","Administração Regional de Saúde do Norte,IP (ARSN) (503135593)","MERCK SHARP & DOHME,LDA (500191360)","13,80 €",11-05-2018,06-03-2018,295 dias,"Portugal, Distrito não determinado, Concelho não determinado<BR/>Portugal, Porto, Maia<BR/>Portugal, Vila Real, Vila Real",Artigo 258.º do Código dos Contratos Públicos,"","",,"",,1415640,CP 2015/7 - ACORDO QUADRO PARA FORNECIMENTO DE HORMONAS E OUTROS MEDICAMENTOS USADOS NO TRATAMENTO DAS DOENÇAS ENDÓCRINAS ÀS INSTITUIÇÕES E SERVIÇOS DO SERVIÇO NACIONAL DE SAÚDE,FALSE
AP 652 - Aquisição de  2 Kit de Detection reagent kit; 3 unid Accuprobe M. Kansasii; 3 unid Accuprobe M.Avium Complex e 2 Kit Culture Identification Reagent Kit,Ajuste Direto Regime Geral,Aquisição de bens móveis,"33694000-1, Meios de diagnóstico","Administração Regional de Saúde do Norte, I. P. (503135593)",BIOMERIEUX Portugal (501524177),"3.179,72 €",11-05-2018,10-05-2018,260 dias,"Portugal, Porto, Maia<BR/>Portugal, Vila Real, Vila Real","Artigo 24.º, n.º 1, alínea e), subalínea ii) do Código dos Contratos Públicos",26-12-2018,"3.179,72 €",,"",,Não aplicável.,Não aplicável.,FALSE
Aquisição de 50 Frascos de 1110118820,Ao abrigo de acordo-quadro (art.º 259.º),Aquisição de bens móveis,"33661000-1, Medicamentos para o sistema nervoso","Administração Regional de Saúde do Norte, I. P. (503135593)","OVERPHARMA - PROD. MÉDICOS E FARMACÊUTICOS, LDA. (505792362)","105,00 €",11-05-2018,10-05-2018,231 dias,"Portugal, Vila Real, Vila Real<BR/>Portugal, Distrito não determinado, Concelho não determinado<BR/>Portugal, Porto, Maia",Artigo 259.º do Código dos Contratos Públicos,"","",,"",,2222779,Medicamentos do aparelho digestivo,FALSE
"Aquisição de 360 Comprimidos de BUTILESCOPOLAMINA [10 MG, CÁP/COMP]",Ao abrigo de acordo-quadro (art.º 259.º),Aquisição de bens móveis,"33661000-1, Medicamentos para o sistema nervoso","Administração Regional de Saúde do Norte, I. P. (503135593)","Sanofi - Produtos Farmacêuticos, Lda  (500134960)","21,53 €",11-05-2018,10-05-2018,231 dias,"Portugal, Distrito não determinado, Concelho não determinado<BR/>Portugal, Porto, Maia<BR/>Portugal, Vila Real, Vila Real",Artigo 259.º do Código dos Contratos Públicos,"","",,"",,2222779,Medicamentos do aparelho digestivo,FALSE
Aquisição de reagentes,Ao abrigo de acordo-quadro (art.º 259.º),Aquisição de bens móveis,"33694000-1, Meios de diagnóstico","Administração Regional de Saúde do Norte, I. P. (503135593)","Siemens Healtcare Diagnostico, Lda (507925173)","145.600,00 €",10-05-2018,26-03-2018,300 dias,"Portugal, Vila Real, Vila Real<BR/>Portugal, Porto, Maia",Artigo 259.º do Código dos Contratos Públicos,06-12-2018,"145.600,00 €",,"",,3377370,CP 2018/71 - Acordo Quadro para fornecimento de Dispositivos Médicos Diversos às Instituições e Serviços do  Serviço Nacional de Saúde,FALSE
Aquisição  de serviços de Assessoria Económico-financeira no âmbito da Gestão do contrato de  PPP Hospital de Braga. Processo nº18000171,Ajuste Direto Regime Geral,Aquisição de serviços,"72224000-1, Serviços de consultoria em gestão de projectos","Administração Regional de Saúde do Norte, I. P. (503135593)","PWC- AG - Assessoria de Gestão, Lda. (504193279)","42.520,30 €",10-05-2018,01-03-2018,152 dias,"Portugal, Braga, Braga<BR/>Portugal, Porto, Porto","Artigo 20.º, n.º 1, alínea a) do Código dos Contratos Públicos",02-10-2018,"40.050,80 €",,Numero de horas realizadas inferiores às contratadas,,Não aplicável.,Não aplicável.,FALSE
Aquisição de 350 Unidades de Fio Sutura Agulha Lanc.3/8circ.26mm2/0Sinté.absor.rapida,Ao abrigo de acordo-quadro (art.º 259.º),Aquisição de bens móveis,"33600000-6, Produtos farmacêuticos","Administração Regional de Saúde do Norte, I. P. (503135593)","SOCIME II - PRODUTOS MEDICOS, LDA (504453939)","444,50 €",10-05-2018,09-05-2018,233 dias,"Portugal, Distrito não determinado, Concelho não determinado<BR/>Portugal, Porto, Maia<BR/>Portugal, Vila Real, Vila Real",Artigo 259.º do Código dos Contratos Públicos,"","",,"",,1830807,Acordo quadro para fornecimento de Suturas Cirúrgicas - Parte I   às Instituições e Serviços do Serviço Nacional de Saúde,FALSE
Aquisição de serviços médicos sem especialidade para o CRI Porto Central - ET Vila Nova de Gaia. Processo nº18000138 - CA nº3102018 - Carina Marlene Bragança Rodrigues.,Ajuste Direto Regime Geral,Aquisição de serviços,"85121000-3, Serviços de prática médica","Administração Regional de Saúde do Norte, I. P. (503135593)",Carina Marlene Bragança Rodrigues (230832156),"9.152,00 €",02-05-2018,31-01-2018,365 dias,"Portugal, Porto, Vila do Conde","Artigo 20.º, n.º 1, alínea a) do Código dos Contratos Públicos",31-12-2018,"7.216,00 €",,Numero de horas realizadas inferiores ao numero de horas contratadas,,Não aplicável.,Não aplicável.,FALSE
Aquisição de serviços médicos sem especialidade CRI Porto Central - ET Vila Nova de Gaia. Processo nº18000138 - CA nº 5762018 - Sílvia Catarina Freitas,Ajuste Direto Regime Geral,Aquisição de serviços,"85121000-3, Serviços de prática médica","Administração Regional de Saúde do Norte, I. P. (503135593)",Silvia Catarina Peixoto de Freitas (222054310),"9.240,00 €",02-05-2018,03-04-2018,285 dias,"Portugal, Porto, Vila Nova de Gaia","Artigo 20.º, n.º 1, alínea a) do Código dos Contratos Públicos",31-12-2018,"6.114,00 €",,Numero de horas realizadas inferiores ao numero de horas contratadas,,Não aplicável.,Não aplicável.,FALSE
Aquisição de serviços médicos sem especialidade CRI Porto Central - ET Vila Nova de Gaia. Processo nº18000138 - CA nº4182018 - Lília Carlos Meireles Monteiro,Ajuste Direto Regime Geral,Aquisição de serviços,"85121000-3, Serviços de prática médica","Administração Regional de Saúde do Norte, I. P. (503135593)",Lilia Carlos Meireles Monteiro (252173422),"6.336,00 €",02-05-2018,23-02-2018,333 dias,"Portugal, Porto, Vila Nova de Gaia","Artigo 20.º, n.º 1, alínea a) do Código dos Contratos Públicos",31-12-2018,"4.290,00 €",,Numero de horas realizadas inferiores ao numero de horas contratadas,,Não aplicável.,Não aplicável.,FALSE
Aquisição de serviços médicos não especialistas para o CRI Porto Central - ET Vila Nova de Gaia. Processo nº18000138 - CA nº322018 - João Leonel Felgueiras.,Ajuste Direto Regime Geral,Aquisição de serviços,"85121000-3, Serviços de prática médica","Administração Regional de Saúde do Norte, I. P. (503135593)",João Leonel Gonçalves de Pinho Felgueiras (217665411),"5.720,00 €",02-05-2018,31-01-2018,365 dias,"Portugal, Porto, Vila Nova de Gaia","Artigo 20.º, n.º 1, alínea a) do Código dos Contratos Públicos",31-12-2018,"4.818,00 €",,Numero de horas realizadas inferiores ao numero de horas contratadas,,Não aplicável.,Não aplicável.,FALSE
