Objeto do Contrato,Tipo de Procedimento,Tipo(s) de Contrato,CPVs,Entidade(s) Adjudicante(s),Entidade(s) Adjudicatária(s),Preço Contratual,Data de Publicação,Data de Celebração do Contrato,Prazo de Execução,Local de Execução,Fundamentação,Data de Fecho do Contrato,Preço Total Efetivo,Causas das Alterações ao Prazo,Causas das Alterações ao Preço,Estado,N.º registo do Acordo Quadro,Descrição do Acordo Quadro,Procedimento Centralizado
Roupa,Ajuste Direto Regime Geral,Aquisição de bens móveis,"18000000-9, Vestuário, calçado, malas e artigos de viagem, acessórios","Centro Hospitalar de Setúbal, E. P. E. (507606787)","Ribeiro & Carlos, Lda (502383542)","22.208,92 €",07-07-2014,17-06-2014,30 dias,"Portugal, Setúbal, Setúbal","Artigo 20.º, n.º 1, alínea a) do Código dos Contratos Públicos",,,,,,Não aplicável.,Não aplicável.,FALSE
Serviços Lavagem e Tratamento Roupa - Abril a Dezembro 2014,Ajuste Direto Regime Geral,Aquisição de serviços,"85000000-9, Serviços de saúde e acção social","Centro Hospitalar de Setúbal, E. P. E. (507606787)",Lavapor (508313422),"246.906,00 €",03-07-2014,16-06-2014,275 dias,"Portugal, Setúbal, Setúbal","Artigo 20.º, n.º 1, alínea a) do Código dos Contratos Públicos",,,,,,Não aplicável.,Não aplicável.,FALSE
Reagentes Vários para Bioquimica,Ajuste Direto Regime Geral,Aquisição de bens móveis,"33696000-5, Reagentes e meios de contraste","Centro Hospitalar de Setúbal, E. P. E. (507606787)",Batista Marques (501439110),"11.197,00 €",01-07-2014,11-06-2014,365 dias,"Portugal, Setúbal, Setúbal","Artigo 24.º, n.º 1, alínea e) do Código dos Contratos Públicos",,,,,,Não aplicável.,Não aplicável.,FALSE
Reagentes para Aparelho de Bioquimica,Ajuste Direto Regime Geral,Aquisição de bens móveis,"33696000-5, Reagentes e meios de contraste","Centro Hospitalar de Setúbal, E. P. E. (507606787)",Roche Sistema Diagnostico (504282921),"14.838,30 €",01-07-2014,06-06-2014,365 dias,"Portugal, Setúbal, Setúbal","Artigo 24.º, n.º 1, alínea e) do Código dos Contratos Públicos",,,,,,Não aplicável.,Não aplicável.,FALSE
Reagentes para Anatomia Patológica,Ajuste Direto Regime Geral,Aquisição de bens móveis,"33696000-5, Reagentes e meios de contraste","Centro Hospitalar de Setúbal, E. P. E. (507606787)",Roche sistema Diagnostico (504282921),"81.942,20 €",01-07-2014,06-06-2014,365 dias,"Portugal, Setúbal, Setúbal","Artigo 24.º, n.º 1, alínea e) do Código dos Contratos Públicos",,,,,,Não aplicável.,Não aplicável.,FALSE
Reagentes de Citometria para Hematologia,Ajuste Direto Regime Geral,Aquisição de bens móveis,"33696000-5, Reagentes e meios de contraste","Centro Hospitalar de Setúbal, E. P. E. (507606787)",Enzifarma (503636975),"47.365,90 €",01-07-2014,23-04-2014,365 dias,"Portugal, Setúbal, Setúbal","Artigo 24.º, n.º 1, alínea e) do Código dos Contratos Públicos",,,,,,Não aplicável.,Não aplicável.,FALSE
