Objeto do Contrato,Tipo de Procedimento,Tipo(s) de Contrato,CPVs,Entidade(s) Adjudicante(s),Entidade(s) Adjudicatária(s),Preço Contratual,Data de Publicação,Data de Celebração do Contrato,Prazo de Execução,Local de Execução,Fundamentação,Data de Fecho do Contrato,Preço Total Efetivo,Causas das Alterações ao Prazo,Causas das Alterações ao Preço,Estado,N.º registo do Acordo Quadro,Descrição do Acordo Quadro,Procedimento Centralizado
Serviços medicos de Otorrinolaringologia,Ajuste Direto Regime Geral,Aquisição de serviços,"85100000-0, Serviços de saúde",Hospital Dr. Francisco Zagalo (501510150),"Clinica Medica-Cirurgica Dr. Rui Pratas, Lda. (505914832)","12.918,00 €",20-06-2014,30-05-2014,30 dias,"Portugal, Aveiro, Ovar","Artigo 20.º, n.º 1, alínea a) do Código dos Contratos Públicos",31-05-2014,"12.918,00 €",,"",,Não aplicável.,Não aplicável.,FALSE
Transporte de doentes em ambulancia,Ajuste Direto Regime Geral,Aquisição de serviços,"85100000-0, Serviços de saúde",Hospital Dr. Francisco Zagalo (501510150),Bombeiros Voluntarios de Ovar (501287566),"16.281,60 €",20-06-2014,13-06-2014,210 dias,"Portugal, Aveiro, Ovar","Artigo 20.º, n.º 1, alínea a) do Código dos Contratos Públicos",31-12-2014,"12.874,58 €",,serviços abaixo do previsto,,Não aplicável.,Não aplicável.,FALSE
Unidades Terapeuticas de Sangue,Ajuste Direto Regime Geral,Aquisição de serviços,"85100000-0, Serviços de saúde",Hospital Dr. Francisco Zagalo (501510150),Centro Hospitalar de S. João E.P.E. (509821197),"36.000,00 €",20-06-2014,17-06-2014,240 dias,"Portugal, Aveiro, Ovar","Artigo 20.º, n.º 1, alínea a) do Código dos Contratos Públicos",31-10-2014,"27.997,90 €",,serviços/fornecimentos abaixo do previsto,,Não aplicável.,Não aplicável.,FALSE
Fornecimento de gás natural,Ajuste Direto Regime Geral,Aquisição de serviços,"76100000-4, Serviços profissionais para a indústria do gás",Hospital Dr. Francisco Zagalo (501510150),"Galp Power, S.A. (504723456)","21.215,59 €",20-06-2014,13-06-2014,210 dias,"Portugal, Aveiro, Ovar","Artigo 20.º, n.º 1, alínea a) do Código dos Contratos Públicos",31-12-2014,"24.099,03 €",,fornecimentos/serviços acima do previsto,,Não aplicável.,Não aplicável.,FALSE
Trabalho temporario de assistentes tecnicos,Ajuste Direto Regime Geral,Aquisição de serviços,"79600000-0, Serviços de recrutamento",Hospital Dr. Francisco Zagalo (501510150),"Tonus - Trabalho Temporario, Lda. (508986460)","13.500,00 €",20-06-2014,30-05-2014,30 dias,"Portugal, Aveiro, Ovar","Artigo 20.º, n.º 1, alínea a) do Código dos Contratos Públicos",30-06-2014,"15.034,44 €",,Trabalho Temporario efectuado acima do previsto,,Não aplicável.,Não aplicável.,FALSE
Trabalho temporario de assistentes operacionais,Ajuste Direto Regime Geral,Aquisição de serviços,"79600000-0, Serviços de recrutamento",Hospital Dr. Francisco Zagalo (501510150),"Tonus-Trabalho Temporario, Lda. (508986460)","17.100,00 €",20-06-2014,30-05-2014,30 dias,"Portugal, Aveiro, Ovar","Artigo 20.º, n.º 1, alínea a) do Código dos Contratos Públicos",30-06-2014,"16.217,02 €",,Trab. Temp. efectuado abaixo do previsto,,Não aplicável.,Não aplicável.,FALSE
Trabalho temporario de assistentes operacionais,Ajuste Direto Regime Geral,Aquisição de serviços,"79600000-0, Serviços de recrutamento",Hospital Dr. Francisco Zagalo (501510150),"Tonus-Trabalho Temporario, Lda. (508986460)","16.507,49 €",20-06-2014,08-05-2014,30 dias,"Portugal, Aveiro, Ovar","Artigo 20.º, n.º 1, alínea a) do Código dos Contratos Públicos",08-05-2014,"16.507,49 €",,"",,Não aplicável.,Não aplicável.,FALSE
Trabalho temporario de assistentes tecnicos,Ajuste Direto Regime Geral,Aquisição de serviços,"79600000-0, Serviços de recrutamento",Hospital Dr. Francisco Zagalo (501510150),"Tonus - Trabalho Temporario, Lda.  (508986460)","12.399,35 €",20-06-2014,08-05-2014,30 dias,"Portugal, Aveiro, Ovar","Artigo 20.º, n.º 1, alínea a) do Código dos Contratos Públicos",08-05-2014,"12.399,35 €",,"",,Não aplicável.,Não aplicável.,FALSE
Contratos de Assistencia Tecnica a Elevadores,Ajuste Direto Regime Geral,Aquisição de serviços,"50800000-3, Serviços de reparação e manutenção diversos",Hospital Dr. Francisco Zagalo (501510150),"Schindler-Ascensores Escadas Rolantes, S.A. (502353740)","5.127,91 €",20-06-2014,21-04-2014,365 dias,"Portugal, Aveiro, Ovar","Artigo 20.º, n.º 1, alínea a) do Código dos Contratos Públicos",30-04-2014,"5.127,91 €",,"",,Não aplicável.,Não aplicável.,FALSE
Serviços medicos na especialidade de Urologia,Ajuste Direto Regime Geral,Aquisição de serviços,"85100000-0, Serviços de saúde",Hospital Dr. Francisco Zagalo (501510150),"Dr. Teresa Bragança & Dr. Ulisses Ribau, Med.Esp.Lda. (508476143)","7.155,00 €",20-06-2014,14-05-2014,30 dias,"Portugal, Aveiro, Ovar","Artigo 20.º, n.º 1, alínea a) do Código dos Contratos Públicos",14-05-2014,"7.155,00 €",,"",,Não aplicável.,Não aplicável.,FALSE
Serviços medicos na especialidade de Otorrinolaringologia,Ajuste Direto Regime Geral,Aquisição de serviços,"85100000-0, Serviços de saúde",Hospital Dr. Francisco Zagalo (501510150),"Clinica Medica-Cirurgia Dr. Rui Pratas, Lda.  (505914832)","15.105,00 €",20-06-2014,20-05-2014,30 dias,"Portugal, Aveiro, Ovar","Artigo 20.º, n.º 1, alínea a) do Código dos Contratos Públicos",20-05-2014,"15.105,00 €",,"",,Não aplicável.,Não aplicável.,FALSE
contrato de manutenção de serviços de sistema informaticos para 2014,Ajuste Direto Regime Geral,Aquisição de serviços,"72600000-6, Serviços de consultoria e assistência informáticas",Hospital Dr. Francisco Zagalo (501510150),"Glintt - Healthcare Solutions, S.A. (502479418)","22.557,75 €",19-06-2014,10-04-2014,365 dias,"Portugal, Aveiro, Ovar","Artigo 20.º, n.º 1, alínea a) do Código dos Contratos Públicos",31-12-2014,"22.557,75 €",,"",,Não aplicável.,Não aplicável.,FALSE
Internamento e intervenção a utente - sistema URGIC,Ajuste Direto Regime Geral,Aquisição de serviços,"85100000-0, Serviços de saúde",Hospital Dr. Francisco Zagalo (501510150),ARSC-Administração Regional de Saude do Centro IP (503122165),"5.106,59 €",19-06-2014,30-05-2014,30 dias,"Portugal, Aveiro, Ovar","Artigo 20.º, n.º 1, alínea a) do Código dos Contratos Públicos",30-05-2014,"5.106,59 €",,"",,Não aplicável.,Não aplicável.,FALSE
Serviços especializados na area de dermatologia,Ajuste Direto Regime Geral,Aquisição de serviços,"85100000-0, Serviços de saúde",Hospital Dr. Francisco Zagalo (501510150),Sentido Inato - Serviços Medicos Lda. (509229727),"5.400,00 €",18-06-2014,30-05-2014,60 dias,"Portugal, Aveiro, Ovar","Artigo 20.º, n.º 1, alínea a) do Código dos Contratos Públicos",31-05-2014,"5.400,00 €",,"",,Não aplicável.,Não aplicável.,FALSE
Prestação serviços de Tec. Diag. Terapeutico,Ajuste Direto Regime Geral,Aquisição de serviços,"79600000-0, Serviços de recrutamento",Hospital Dr. Francisco Zagalo (501510150),"Tonus Global, Unipessoal, Lda. (509622976)","7.000,00 €",12-06-2014,30-05-2014,30 dias,"Portugal, Aveiro, Ovar","Artigo 20.º, n.º 1, alínea a) do Código dos Contratos Públicos",31-05-2014,"6.526,62 €",,valor abaixo do previsto,,Não aplicável.,Não aplicável.,FALSE
Trabalho temporario de serralheiro e tecnicos,Ajuste Direto Regime Geral,Aquisição de serviços,"79600000-0, Serviços de recrutamento",Hospital Dr. Francisco Zagalo (501510150),"Tonus-Trabalho Temporario, Lda (508986460)","6.585,00 €",12-06-2014,30-05-2014,30 dias,"Portugal, Aveiro, Ovar","Artigo 20.º, n.º 1, alínea a) do Código dos Contratos Públicos",31-05-2014,"6.247,12 €",,valor abaixo do previsto,,Não aplicável.,Não aplicável.,FALSE
Trabalho temporario de assistentes operacionais,Ajuste Direto Regime Geral,Aquisição de serviços,"79600000-0, Serviços de recrutamento",Hospital Dr. Francisco Zagalo (501510150),"Tonus-Trabalho Temporario, Lda. (508986460)","17.100,00 €",12-06-2014,30-05-2014,30 dias,"Portugal, Aveiro, Ovar","Artigo 20.º, n.º 1, alínea a) do Código dos Contratos Públicos",31-05-2014,"16.745,80 €",,valor abaixo do previsto,,Não aplicável.,Não aplicável.,FALSE
Trabalho temporario de assistentes tecnicos,Ajuste Direto Regime Geral,Aquisição de serviços,"79600000-0, Serviços de recrutamento",Hospital Dr. Francisco Zagalo (501510150),"Tonus - Trabalho Temporario, Lda. (508986460)","13.500,00 €",12-06-2014,30-05-2014,30 dias,"Portugal, Aveiro, Ovar","Artigo 20.º, n.º 1, alínea a) do Código dos Contratos Públicos",31-05-2014,"12.574,99 €",,valor abaixo do previsto,,Não aplicável.,Não aplicável.,FALSE
