Objeto do Contrato,Tipo de Procedimento,Tipo(s) de Contrato,CPVs,Entidade(s) Adjudicante(s),Entidade(s) Adjudicatária(s),Preço Contratual,Data de Publicação,Data de Celebração do Contrato,Prazo de Execução,Local de Execução,Fundamentação,Data de Fecho do Contrato,Preço Total Efetivo,Causas das Alterações ao Prazo,Causas das Alterações ao Preço,Estado,N.º registo do Acordo Quadro,Descrição do Acordo Quadro,Procedimento Centralizado
SOLUÇÕES PARA DIALISE PERITONEAL (CP 2013/35 - SPMS),Ao abrigo de acordo-quadro (art.º 259.º),Aquisição de bens móveis,"33692800-5, Soluções para diálise","Centro Hospitalar do Baixo Vouga, E. P. E (CHBV, E. P. E.) (510123210)","BAXTER - MEDICO FARMACEUTICA, LDA (503347345)","9.636,00 €",06-12-2013,29-10-2013,63 dias,"Portugal, Aveiro, Aveiro",Artigo 259.º do Código dos Contratos Públicos,31-12-2013,"6.927,00 €","",-,,601978,"CONCURSO PÚBLICO PARA A CELEBRAÇÃO DE CONTRATOS PÚBLICOS DE APROVISIONAMENTO PARA A ÁREA DA SAÚDE, COM VISTA AO FORNECIMENTO DE BENS DE DÁLISE PERITONEAL ÀS INSTITUIÇÕES E SERVIÇOS DO SERVIÇO NACIONAL DE SAÚDE",
MOROCTOCOG ALFA 500 E 1000 UI PÓ SOL INJ FR IV,Ajuste Direto Regime Geral,Aquisição de bens móveis,"33621200-1, Anti-hemorrágicos","Centro Hospitalar do Baixo Vouga, E.P.E. (510123210)","LABORATÓRIOS PFIZER, LDA. (500162166)","20.699,60 €",05-12-2013,11-09-2013,111 dias,"Portugal, Aveiro, Aveiro","Artigo 24.º, n.º 1, alínea e) do Código dos Contratos Públicos",30-12-2013,"4.137,51 €",.,.,,Não aplicável.,Não aplicável.,
"CABAZITAXEL 60 MG / 1,5 ML",Ajuste Direto Regime Geral,Aquisição de bens móveis,"33652100-6, Antineoplásicos","Centro Hospitalar do Baixo Vouga, E.P.E. (510123210)","SANOFI - PRODUTOS FARMACÊUTICOS, LDA. (500134960)","27.534,00 €",04-12-2013,20-09-2013,104 dias,"Portugal, Aveiro, Aveiro","Artigo 24.º, n.º 1, alínea e) do Código dos Contratos Públicos",09-10-2013,"4.589,00 €",.,.,,Não aplicável.,Não aplicável.,
AFLIBERCEPT 40MG/ML 100MICROLITROS E ENZALUTAMIDA 40MG CÁPSULAS,Ajuste Direto Regime Geral,Aquisição de bens móveis,"33662100-9, Medicamentos usados em oftalmologia","Centro Hospitalar do Baixo Vouga, E.P.E. (510123210)",ASTELLAS FARMA (502540249),"9.699,84 €",04-12-2013,15-10-2013,77 dias,"Portugal, Aveiro, Aveiro","Artigo 24.º, n.º 1, alínea e) do Código dos Contratos Públicos",31-12-2013,"9.068,63 €","",-,,Não aplicável.,Não aplicável.,
AFLIBERCEPT 40MG/ML 100MICROLITROS E ENZALUTAMIDA 40MG CÁPSULAS,Ajuste Direto Regime Geral,Aquisição de bens móveis,"33662100-9, Medicamentos usados em oftalmologia","Centro Hospitalar do Baixo Vouga, E.P.E. (510123210)","BAYER PORTUGAL, SA (500043256)","7.479,00 €",03-12-2013,15-10-2013,77 dias,"Portugal, Aveiro, Aveiro","Artigo 24.º, n.º 1, alínea e) do Código dos Contratos Públicos",31-12-2013,"1.662,00 €","",-,,Não aplicável.,Não aplicável.,
ICATIBANT 30MG/3ML SOL.INJ.SC,Ajuste Direto Regime Geral,Aquisição de bens móveis,"33622000-6, Medicamentos para o aparelho cardiovascular","Centro Hospitalar do Baixo Vouga, E.P.E. (510123210)","SHIRE PHARMACEUTICALS PORTUGAL, LDA. (509264662)","6.237,96 €",03-12-2013,07-10-2013,85 dias,"Portugal, Aveiro, Aveiro","Artigo 24.º, n.º 1, alínea e) do Código dos Contratos Públicos",23-09-2013,"3.118,98 €",.,.,,Não aplicável.,Não aplicável.,
RUXOLITINIB 5 MG COMP.,Ajuste Direto Regime Geral,Aquisição de bens móveis,"33652100-6, Antineoplásicos","Centro Hospitalar do Baixo Vouga, E.P.E. (510123210)","NOVARTIS FARMA, SA (500063524)","14.280,00 €",03-12-2013,19-09-2013,103 dias,"Portugal, Aveiro, Aveiro","Artigo 24.º, n.º 1, alínea e) do Código dos Contratos Públicos",31-12-2013,"5.984,00 €","",-,,Não aplicável.,Não aplicável.,
BOCEPREVIR 200 MG,Ajuste Direto Regime Geral,Aquisição de bens móveis,"33651400-2, Antivíricos de uso sistémico","Centro Hospitalar do Baixo Vouga, E.P.E. (510123210)","MERCK SHARP & DOHME, LDA. (500191360)","37.276,85 €",03-12-2013,05-10-2013,117 dias,"Portugal, Aveiro, Aveiro","Artigo 24.º, n.º 1, alínea e) do Código dos Contratos Públicos",31-12-2015,"27.336,36 €","",-,,Não aplicável.,Não aplicável.,
