Objeto do Contrato,Tipo de Procedimento,Tipo(s) de Contrato,CPVs,Entidade(s) Adjudicante(s),Entidade(s) Adjudicatária(s),Preço Contratual,Data de Publicação,Data de Celebração do Contrato,Prazo de Execução,Local de Execução,Fundamentação,Data de Fecho do Contrato,Preço Total Efetivo,Causas das Alterações ao Prazo,Causas das Alterações ao Preço,Estado,N.º registo do Acordo Quadro,Descrição do Acordo Quadro,Procedimento Centralizado
Material consumo clinico,Ajuste Direto Regime Geral,Aquisição de bens móveis,"33140000-3, Material médico de consumo","Instituto Nacional de Saúde Dr. Ricardo Jorge, I. P. (501427511)",JCM Representações lda (502099330),"326,52 €",11-10-2013,15-05-2013,20 dias,"Portugal, Lisboa, Lisboa","Artigo 20.º, n.º 1, alínea a) do Código dos Contratos Públicos",,,,,,Não aplicável.,Não aplicável.,
Aquisição de reagentes,Ajuste Direto Regime Geral,Aquisição de bens móveis,"33696000-5, Reagentes e meios de contraste","Instituto Nacional de Saúde Dr. Ricardo Jorge, I. P. (501427511)",Sigma Aldrich Quimica S.A. (A-79184115),"149,50 €",11-10-2013,12-09-2013,5 dias,"Portugal, Lisboa, Lisboa","Artigo 26.º, n.º 1, alínea b) do Código dos Contratos Públicos",,,,,,Não aplicável.,Não aplicável.,
Aquisição de material consumo laboratorio,Ajuste Direto Regime Geral,Aquisição de bens móveis,"33140000-3, Material médico de consumo","Instituto Nacional de Saúde Dr. Ricardo Jorge, I. P. (501427511)","VWR  International - Material de Laboratorio, Ldª (503842770)","392,56 €",11-10-2013,07-10-2013,5 dias,"Portugal, Lisboa, Lisboa","Artigo 26.º, n.º 1, alínea b) do Código dos Contratos Públicos",,,,,,Não aplicável.,Não aplicável.,
Aquisição de material laboratorio,Ajuste Direto Regime Geral,Aquisição de bens móveis,"33140000-3, Material médico de consumo","Instituto Nacional de Saúde Dr. Ricardo Jorge, I. P. (501427511)","Waters Thecnologies LC-MS PORTUGAL, Unipessoal, Ldª (510433669)","512,00 €",11-10-2013,06-09-2013,5 dias,"Portugal, Lisboa, Lisboa","Artigo 26.º, n.º 1, alínea b) do Código dos Contratos Públicos",,,,,,Não aplicável.,Não aplicável.,
Aquisição de reagentes,Ajuste Direto Regime Geral,Aquisição de bens móveis,"33696000-5, Reagentes e meios de contraste","Instituto Nacional de Saúde Dr. Ricardo Jorge, I. P. (501427511)","VWR INTERNATIONAL - Material de Laboratório, Ld (503842770)","67,21 €",11-10-2013,05-09-2013,5 dias,"Portugal, Lisboa, Lisboa","Artigo 26.º, n.º 1, alínea b) do Código dos Contratos Públicos",,,,,,Não aplicável.,Não aplicável.,
Aquisição de reagentes,Ajuste Direto Regime Geral,Aquisição de bens móveis,"33696500-0, Reagentes de laboratório","Instituto Nacional de Saúde Dr. Ricardo Jorge, I. P. (501427511)",IZASA (501086110),"245,00 €",11-10-2013,11-07-2013,30 dias,"Portugal, Lisboa, Lisboa","Artigo 20.º, n.º 1, alínea a) do Código dos Contratos Públicos",,,,,,Não aplicável.,Não aplicável.,
Aquisição de reagentes,Ajuste Direto Regime Geral,Aquisição de bens móveis,"33696500-0, Reagentes de laboratório","Instituto Nacional de Saúde Dr. Ricardo Jorge, I. P. (501427511)",GRUPO TAPER (506886336),"2.788,00 €",11-10-2013,26-06-2013,278800 dias,"Portugal, Lisboa, Lisboa","Artigo 24.º, n.º 1, alínea a) do Código dos Contratos Públicos",,,,,,Não aplicável.,Não aplicável.,
Aquisição de reagentes,Ajuste Direto Regime Geral,Aquisição de bens móveis,"33696500-0, Reagentes de laboratório","Instituto Nacional de Saúde Dr. Ricardo Jorge, I. P. (501427511)",IZASA (501086110),"1.693,44 €",11-10-2013,03-07-2013,30 dias,"Portugal, Lisboa, Lisboa","Artigo 24.º, n.º 1, alínea b) do Código dos Contratos Públicos",,,,,,Não aplicável.,Não aplicável.,
Aquisição de peças - Gerador de Azoto,Ajuste Direto Regime Geral,Aquisição de bens móveis,"31120000-3, Geradores","Instituto Nacional de Saúde Dr. Ricardo Jorge, I. P. (501427511)",PEAK (GB699501784),"6.846,90 €",11-10-2013,22-07-2013,30 dias,Reino Unido,"Artigo 26.º, n.º 1, alínea a) do Código dos Contratos Públicos",,,,,,Não aplicável.,Não aplicável.,
Aquisição de Reagentes,Ajuste Direto Regime Geral,Aquisição de bens móveis,"33696500-0, Reagentes de laboratório","Instituto Nacional de Saúde Dr. Ricardo Jorge, I. P. (501427511)",ABCAM (GB 720008786),"852,00 €",11-10-2013,10-07-2013,30 dias,Reino Unido,"Artigo 24.º, n.º 1, alínea e) do Código dos Contratos Públicos",,,,,,Não aplicável.,Não aplicável.,
Aquisição de reagentes,Ajuste Direto Regime Geral,Aquisição de bens móveis,"33696500-0, Reagentes de laboratório","Instituto Nacional de Saúde Dr. Ricardo Jorge, I. P. (501427511)",Fisher Scientific (506429210),"890,82 €",10-10-2013,03-06-2013,90 dias,"Portugal, Lisboa, Lisboa","Artigo 20.º, n.º 1, alínea a) do Código dos Contratos Públicos",,,,,,Não aplicável.,Não aplicável.,
Aquisição de peças e reparação de equipamento,Ajuste Direto Regime Geral,Aquisição de bens móveis,"42531000-7, Peças para equipamento de refrigeração","Instituto Nacional de Saúde Dr. Ricardo Jorge, I. P. (501427511)","Alberto Rafael Ferreira Unipessoal, Lda ROCLIMA (509842852)","349,00 €",10-10-2013,21-03-2013,60 dias,"Portugal, Lisboa, Lisboa","Artigo 20.º, n.º 1, alínea a) do Código dos Contratos Públicos",,,,,,Não aplicável.,Não aplicável.,
Aquisição de etiquetas Zebra,Ajuste Direto Regime Geral,Aquisição de bens móveis,"30199760-5, Etiquetas","Instituto Nacional de Saúde Dr. Ricardo Jorge, I. P. (501427511)",ZETES BURÓTICA (501178503),"2.217,66 €",09-10-2013,27-05-2013,30 dias,"Portugal, Lisboa, Lisboa","Artigo 20.º, n.º 1, alínea a) do Código dos Contratos Públicos",,,,,,Não aplicável.,Não aplicável.,
Aquisição de reagentes,Ajuste Direto Regime Geral,Aquisição de bens móveis,"33696500-0, Reagentes de laboratório","Instituto Nacional de Saúde Dr. Ricardo Jorge, I. P. (501427511)",HEALTH &SAFETY LABORATORY (GB888810177),"6.840,00 €",09-10-2013,09-08-2013,60 dias,"Portugal, Lisboa, Lisboa","Artigo 24.º, n.º 1, alínea e) do Código dos Contratos Públicos",,,,,,Não aplicável.,Não aplicável.,
Aquisição de reagentes da area da bioquimica,Ajuste Direto Regime Geral,Aquisição de bens móveis,"33696500-0, Reagentes de laboratório","Instituto Nacional de Saúde Dr. Ricardo Jorge, I.P. (501427511)",POTENCIAL ZERO (506704017),"47.282,40 €",08-10-2013,20-08-2013,90 dias,"Portugal, Lisboa, Lisboa","Artigo 20.º, n.º 1, alínea a) do Código dos Contratos Públicos",,,,,,Não aplicável.,Não aplicável.,
20130535 - Aquisição de material de consumo clinico,Ajuste Direto Regime Geral,Aquisição de bens móveis,"33140000-3, Material médico de consumo","Instituto Nacional de Saúde Dr. Ricardo Jorge, I. P. (501427511)","Normax, Lda (500203130)","36,44 €",08-10-2013,12-09-2013,120 dias,"Portugal, Porto, Porto<BR/>Portugal, Lisboa, Lisboa","Artigo 24.º, n.º 1, alínea a) do Código dos Contratos Públicos",,,,,,Não aplicável.,Não aplicável.,
AQUISIÇÃO DE REAGENTES,Ajuste Direto Regime Geral,Aquisição de bens móveis,"33696500-0, Reagentes de laboratório","Instituto Nacional de Saúde Dr. Ricardo Jorge, I. P. (501427511)",ECAT (8028366872B01),"555,00 €",08-10-2013,05-06-2013,60 dias,"Portugal, Lisboa, Lisboa","Artigo 20.º, n.º 1, alínea a) do Código dos Contratos Públicos",,,,,,Não aplicável.,Não aplicável.,
Reparação de viatura,Ajuste Direto Regime Geral,Aquisição de bens móveis,"34300000-0, Peças e acessórios para veículos e seus motores","Instituto Nacional de Saúde Dr. Ricardo Jorge, I.P. (501427511)",CAETANO DRIVE (502245247),"760,07 €",08-10-2013,22-07-2013,5 dias,"Portugal, Lisboa, Lisboa","Artigo 20.º, n.º 1, alínea a) do Código dos Contratos Públicos",,,,,,Não aplicável.,Não aplicável.,
Aquisição de peças para vários refrigeradoras de laboratório.,Ajuste Direto Regime Geral,Aquisição de bens móveis,"31140000-9, Torres de refrigeração","Instituto Nacional de Saúde Dr. Ricardo Jorge, I.P. (501427511)","ALBERTO RAFAEL FERREIRA UNIPESSOAL,LDA (509842852)","3.137,00 €",08-10-2013,05-04-2013,90 dias,"Portugal, Lisboa, Lisboa","Artigo 20.º, n.º 1, alínea a) do Código dos Contratos Públicos",,,,,,Não aplicável.,Não aplicável.,
Peças para bomba de vacuo,Ajuste Direto Regime Geral,Aquisição de bens móveis,"34913000-0, Peças sobressalentes diversas","Instituto Nacional de Saúde Dr. Ricardo Jorge, I.P. (501427511)",JTC (501864369),"390,00 €",08-10-2013,04-03-2013,60 dias,"Portugal, Lisboa, Lisboa","Artigo 20.º, n.º 1, alínea a) do Código dos Contratos Públicos",,,,,,Não aplicável.,Não aplicável.,
Aquisição de peças,Ajuste Direto Regime Geral,Aquisição de bens móveis,"34300000-0, Peças e acessórios para veículos e seus motores","Instituto Nacional de Saúde Dr. Ricardo Jorge, I.P. (501427511)",CAETANO AUTO (505955342),"239,58 €",08-10-2013,01-03-2013,60 dias,"Portugal, Porto, Porto","Artigo 20.º, n.º 1, alínea a) do Código dos Contratos Públicos",,,,,,Não aplicável.,Não aplicável.,
20130209 -  Aquisição de filtros,Ajuste Direto Regime Geral,Aquisição de bens móveis,"39300000-5, Equipamento diverso","Instituto Nacional de Saúde Dr. Ricardo Jorge, I.P. (501427511)","Seabra Service, Lda (510114865)","100,00 €",07-10-2013,07-05-2013,2 dias,"Portugal, Lisboa, Lisboa","Artigo 20.º, n.º 1, alínea a) do Código dos Contratos Públicos",,,,,,Não aplicável.,Não aplicável.,
20130226 - Aquisição de peças,Ajuste Direto Regime Geral,Aquisição de bens móveis,"39300000-5, Equipamento diverso","Instituto Nacional de Saúde Dr. Ricardo Jorge, I.P. (501427511)",Duarte Nuno Lopes Clara (221913408),"699,40 €",07-10-2013,08-05-2013,15 dias,"Portugal, Lisboa, Lisboa","Artigo 26.º, n.º 1, alínea b) do Código dos Contratos Públicos",,,,,,Não aplicável.,Não aplicável.,
