Objeto do Contrato,Tipo de Procedimento,Tipo(s) de Contrato,CPVs,Entidade(s) Adjudicante(s),Entidade(s) Adjudicatária(s),Preço Contratual,Data de Publicação,Data de Celebração do Contrato,Prazo de Execução,Local de Execução,Fundamentação,Data de Fecho do Contrato,Preço Total Efetivo,Causas das Alterações ao Prazo,Causas das Alterações ao Preço,Estado,N.º registo do Acordo Quadro,Descrição do Acordo Quadro,Procedimento Centralizado
Concurso Público para a prestação de serviços de aconselhamento na redução de danos e minimização de riscos na unidade móvel no âmbito do programa troca de seringas para prevenção do VIH/SIDA,Concurso público,Aquisição de serviços,"85312320-8, Serviços de aconselhamento","SPMS - Serviços Partilhados do Ministério da Saúde, E. P. E. (509540716)",LisbonPH - Associação Juvenil para o Empreendedorismo da Faculdade de Farmácia da Universidade de Lisboa (510936342),"38.703,02 €",08-02-2018,07-02-2018,365 dias,"Portugal, Lisboa, Lisboa","Artigo 20.º, n.º 1, alínea b) do Código dos Contratos Públicos","","",,,,Não aplicável.,Não aplicável.,FALSE
AQUISIÇÃO DE SERVIÇOS DE SEGURANÇA E VIGILÂNCIA NAS INSTALAÇÕES DE LISBOA E PORTO,Ajuste Direto Regime Geral,Aquisição de serviços,"79710000-4, Serviços de segurança","SPMS- Serviços Partilhados do M. da Saúde, E.P.E. (509540716)","Securitas - Serviços e Tecnologia de Segurança, S.A. (500243719)","21.800,00 €",05-02-2018,22-12-2017,60 dias,Portugal,"Artigo 20.º, n.º 1, alínea a) do Código dos Contratos Públicos",28-02-2018,"21.800,00 €",,,,Não aplicável.,Não aplicável.,FALSE
