Objeto do Contrato,Tipo de Procedimento,Tipo(s) de Contrato,CPVs,Entidade(s) Adjudicante(s),Entidade(s) Adjudicatária(s),Preço Contratual,Data de Publicação,Data de Celebração do Contrato,Prazo de Execução,Local de Execução,Fundamentação,Data de Fecho do Contrato,Preço Total Efetivo,Causas das Alterações ao Prazo,Causas das Alterações ao Preço,Estado,N.º registo do Acordo Quadro,Descrição do Acordo Quadro,Procedimento Centralizado
Contratualização de 10 Camas de Cuidados Continuados.,Ajuste Direto Regime Geral,Aquisição de serviços,"85100000-0, Serviços de saúde",Hospital Prof. Doutor Fernando Fonseca E.P.E. (503035416),ASFE - Associação de Socorros da Freguesia da Encarnação (501866213),"27.000,00 €",10-12-2015,30-11-2015,30 dias,"Portugal, Lisboa, Mafra","Artigo 20.º, n.º 1, alínea a) do Código dos Contratos Públicos",,,,,,Não aplicável.,Não aplicável.,FALSE
"SERVIÇOS DE INTERNAMENTO DE CUIDADOS CONTINUADOS NAS REGIÕES-OESTE (NUTS III – 19), GRANDE LISBOA (NUTS III – 20) E PENINSULA DE SETÚBAL (NUTS III - 21). ",Concurso público,Aquisição de serviços,"85121252-4, Serviços de geriatria","Hospital Professor Doutor Fernando Fonseca, E. P. E. (503035416)",ASFE - Associação de Socorros da Freguesia da Encarnação  (501866213),"148.500,00 €",09-12-2015,01-12-2015,60 dias,"Portugal, Lisboa, Amadora","Artigo 20.º, n.º 1, alínea b) do Código dos Contratos Públicos",,,,,,Não aplicável.,Não aplicável.,FALSE
Módulos Pré-Fabricados,Ajuste Direto Regime Geral,Aquisição de bens móveis,"39151000-5, Mobiliário diverso","Hospital Professor Doutor Fernando Fonseca, E. P. E. (503035416)",Movex (501136827),"56.600,00 €",04-12-2015,25-11-2015,35 dias,"Portugal, Lisboa, Amadora","Artigo 20.º, n.º 1, alínea a) do Código dos Contratos Públicos",,,,,,Não aplicável.,Não aplicável.,FALSE
