Objeto do Contrato,Tipo de Procedimento,Tipo(s) de Contrato,CPVs,Entidade(s) Adjudicante(s),Entidade(s) Adjudicatária(s),Preço Contratual,Data de Publicação,Data de Celebração do Contrato,Prazo de Execução,Local de Execução,Fundamentação,Data de Fecho do Contrato,Preço Total Efetivo,Causas das Alterações ao Prazo,Causas das Alterações ao Preço,Estado,N.º registo do Acordo Quadro,Descrição do Acordo Quadro,Procedimento Centralizado
Aquisição de Serviços de Médico de Neurologia - Janeiro 2014,Ajuste Direto Regime Geral,Aquisição de serviços,"85000000-9, Serviços de saúde e acção social",Centro Hospitalar Psiquiátrico de Lisboa (508338476),S24 GROUP (507824652),"1.711,20 €",21-05-2014,31-01-2014,31 dias,"Portugal, Lisboa, Lisboa","Artigo 24.º, n.º 1, alínea c) do Código dos Contratos Públicos",28-02-2014,"1.711,20 €",,"",,Não aplicável.,Não aplicável.,FALSE
Alimentação para o CHPL - Maio 2014,Ajuste Direto Regime Geral,Aquisição de serviços,"55000000-0, Serviços de hotelaria, restauração e comércio a retalho",Centro Hospitalar Psiquiátrico de Lisboa (508338476),UNISELF - Soc. Rest. Publicos Privados SA-Factoring (501323325),"71.578,13 €",20-05-2014,15-05-2014,31 dias,"Portugal, Lisboa, Lisboa","Artigo 24.º, n.º 1, alínea c) do Código dos Contratos Públicos",30-07-2014,"73.543,85 €",,"Houve um agravamento de mais 2 417.84€, devido a aumento de número de refeições ",,Não aplicável.,Não aplicável.,FALSE
Manutenção ao Equipamento Hoteleiro e Frio para o Ano 2014,Ajuste Direto Regime Geral,Aquisição de serviços,"50000000-5, Serviços de reparação e manutenção",Centro Hospitalar Psiquiátrico de Lisboa (508338476),SUCH - Serviço de Utilização Comum dos Hospitais (500900469),"9.540,00 €",20-05-2014,24-01-2014,365 dias,"Portugal, Lisboa, Lisboa","Artigo 20.º, n.º 1, alínea a) do Código dos Contratos Públicos",31-12-2014,"9.540,00 €",,"",,Não aplicável.,Não aplicável.,FALSE
Diazepan 10mg/2ml sol inj fr 2ml,Ajuste Direto Regime Geral,Aquisição de bens móveis,"33000000-0, Equipamento médico, medicamentos e produtos para cuidados pessoais",Centro Hospitalar Psiquiátrico de Lisboa (508338476),Labesfal (501169580),"1.080,00 €",12-05-2014,29-04-2013,21 dias,"Portugal, Lisboa, Lisboa","Artigo 24.º, n.º 1, alínea e) do Código dos Contratos Públicos",29-04-2013,"1.080,00 €",,"",,Não aplicável.,Não aplicável.,FALSE
