Objeto do Contrato,Tipo de Procedimento,Tipo(s) de Contrato,CPVs,Entidade(s) Adjudicante(s),Entidade(s) Adjudicatária(s),Preço Contratual,Data de Publicação,Data de Celebração do Contrato,Prazo de Execução,Local de Execução,Fundamentação,Data de Fecho do Contrato,Preço Total Efetivo,Causas das Alterações ao Prazo,Causas das Alterações ao Preço,Estado,N.º registo do Acordo Quadro,Descrição do Acordo Quadro,Procedimento Centralizado
Aquisição de Placas de Memoria RAM,Ajuste Direto Regime Geral,Aquisição de bens móveis,"30233100-2, Unidades de memória","Administração Regional de Saúde do Norte, I.P. (503135593)",GFIPortugal (502726890),"7.000,00 €",17-01-2013,06-08-2012,15 dias,"Portugal, Porto, Porto","Artigo 20.º, n.º 1, alínea a) do Código dos Contratos Públicos",31-08-2012,"7.000,00 €","","",,Não aplicável.,Não aplicável.,
Variado equipamento médico,Ajuste Direto Regime Geral,Aquisição de bens móveis,"33100000-1, Equipamento médico","Administração Regional de Saúde do Norte, I.P. (503135593)",Suaves Plumas (507860373),"21.032,47 €",17-01-2013,11-12-2012,20 dias,"Portugal, Viseu, Moimenta da Beira<BR/>Portugal, Porto, Porto","Artigo 20.º, n.º 1, alínea a) do Código dos Contratos Públicos",17-01-2013,"21.032,47 €","","",,Não aplicável.,Não aplicável.,
Variado equipamento e mobiliário médico,Ajuste Direto Regime Geral,Aquisição de bens móveis,"33100000-1, Equipamento médico","Administração Regional de Saúde do Norte, I.P. (503135593)",Prhofame (501891145),"26.407,94 €",17-01-2013,22-11-2012,20 dias,"Portugal, Braga, Guimarães<BR/>Portugal, Porto<BR/>Portugal, Vila Real, Peso da Régua","Artigo 20.º, n.º 1, alínea a) do Código dos Contratos Públicos",17-01-2013,"26.407,94 €","","",,Não aplicável.,Não aplicável.,
Mobiliário e equipamento médico,Ajuste Direto Regime Geral,Aquisição de bens móveis,"33100000-1, Equipamento médico","Administração Regional de Saúde do Norte, I.P. (503135593)",Suaves Plumas (507860373),"18.352,33 €",17-01-2013,12-11-2012,20 dias,"Portugal, Viseu, Viseu<BR/>Portugal, Aveiro, Arouca","Artigo 20.º, n.º 1, alínea a) do Código dos Contratos Públicos",17-01-2013,"18.352,33 €","","",,Não aplicável.,Não aplicável.,
Variado equipamento médico,Ajuste Direto Regime Geral,Aquisição de bens móveis,"33100000-1, Equipamento médico","Administração Regional de Saúde do Norte, I.P. (503135593)",Eugénio Pereira (503989525),"7.460,59 €",17-01-2013,21-06-2012,20 dias,"Portugal, Aveiro, Espinho","Artigo 20.º, n.º 1, alínea a) do Código dos Contratos Públicos",17-01-2013,"7.460,59 €","","",,Não aplicável.,Não aplicável.,
Aquisição de serviços de limpesa para o ACES Vale do Sousa Sul,Ajuste Direto Regime Geral,Aquisição de serviços,"90910000-9, Serviços de limpeza","Administração Regional de Saúde do Norte, I.P. (503135593)","Conforlimpa (Tejo) - Multiseviços, S.A (503172588)","134.468,07 €",16-01-2013,15-01-2013,333 dias,"Portugal, Porto, Lousada","Artigo 20.º, n.º 1, alínea a) do Código dos Contratos Públicos",31-03-2013,"24.448,70 €","",Foi efetuada a rescisão do contrato.,,Não aplicável.,Não aplicável.,
Diverso mobiliário e equipamento médico,Ajuste Direto Regime Geral,Aquisição de bens móveis,"33100000-1, Equipamento médico","Administração Regional de Saúde do Norte, I.P. (503135593)",Só Saúde (508055180),"39.124,79 €",15-01-2013,16-11-2012,20 dias,"Portugal, Braga, Braga","Artigo 20.º, n.º 1, alínea a) do Código dos Contratos Públicos",15-01-2013,"39.124,79 €","","",,Não aplicável.,Não aplicável.,
Variado equipamento e mobiliário médico,Ajuste Direto Regime Geral,Aquisição de bens móveis,"33100000-1, Equipamento médico","Administração Regional de Saúde do Norte, I.P. (503135593)",Prhofame (501891145),"10.863,80 €",15-01-2013,08-10-2012,20 dias,"Portugal, Porto, Paços de Ferreira<BR/>Portugal, Braga, Braga<BR/>Portugal, Porto, Maia<BR/>Portugal, Porto, Valongo","Artigo 20.º, n.º 1, alínea a) do Código dos Contratos Públicos",19-12-2012,"10.863,80 €","","",,Não aplicável.,Não aplicável.,
Equipamento e mobiliário médico variado,Ajuste Direto Regime Geral,Aquisição de bens móveis,"33100000-1, Equipamento médico","Administração Regional de Saúde do Norte, I.P. (503135593)",Eugénio Pereira (503989525),"9.911,96 €",15-01-2013,20-06-2012,20 dias,"Portugal, Porto, Vila Nova de Gaia<BR/>Portugal, Braga, Braga<BR/>Portugal, Viseu<BR/>Portugal, Viseu, Lamego","Artigo 20.º, n.º 1, alínea a) do Código dos Contratos Públicos",15-01-2013,"9.911,96 €","","",,Não aplicável.,Não aplicável.,
"Aquisição de Toner  Xerox Phaser - Black, Cyan, Yellow e Magenta",Ajuste Direto Regime Geral,Aquisição de bens móveis,"30125110-5, Tóner para impressoras laser e aparelhos de fax","Administração Regional de Saúde do Norte, I.P. (503135593)",Xerox Portugal - Equipamento de Escritório (501656677),"15.715,80 €",14-01-2013,06-12-2012,365 dias,"Portugal, Vila Real, Vila Real","Artigo 20.º, n.º 1, alínea a) do Código dos Contratos Públicos",28-12-2012,"15.715,80 €","","",,Não aplicável.,Não aplicável.,
Variado equipamento e mobiliário médico,Ajuste Direto Regime Geral,Aquisição de bens móveis,"33100000-1, Equipamento médico","Administração Regional de Saúde do Norte, I.P. (503135593)",Eugénio Pereira (503989525),"28.323,17 €",14-01-2013,12-10-2012,20 dias,"Portugal, Porto, Valongo<BR/>Portugal, Porto, Porto<BR/>Portugal, Braga, Braga","Artigo 20.º, n.º 1, alínea a) do Código dos Contratos Públicos",14-01-2013,"28.323,17 €","","",,Não aplicável.,Não aplicável.,
Variado equipamento médico,Ajuste Direto Regime Geral,Aquisição de bens móveis,"33100000-1, Equipamento médico","Administração Regional de Saúde do Norte, I.P. (503135593)",Eugénio Pereira (503989525),"16.201,79 €",14-01-2013,15-11-2012,20 dias,"Portugal, Braga, Terras de Bouro","Artigo 20.º, n.º 1, alínea a) do Código dos Contratos Públicos",14-01-2013,"16.201,79 €","","",,Não aplicável.,Não aplicável.,
Variado equipamento e mobiliário médico,Ajuste Direto Regime Geral,Aquisição de bens móveis,"33100000-1, Equipamento médico","Administração Regional de Saúde do Norte, I.P. (503135593)",PortoSaúde (502927178),"7.018,00 €",14-01-2013,14-11-2012,20 dias,"Portugal, Porto, Porto<BR/>Portugal, Braga, Guimarães<BR/>Portugal, Porto, Valongo<BR/>Portugal, Porto, Vila Nova de Gaia","Artigo 20.º, n.º 1, alínea a) do Código dos Contratos Públicos",14-01-2013,"7.018,00 €","","",,Não aplicável.,Não aplicável.,
Adaptação USF Canaviais,Ajuste Direto Regime Geral,Empreitadas de obras públicas,"45454000-4, Obras de reestruturação","Administração Regional de Saúde do Norte, I.P. (503135593)","Átomo Matriz, Construção e Coordenação, Lda (510098428)","60.270,45 €",11-01-2013,13-12-2012,15 dias,"Portugal, Porto, Vila Nova de Gaia","Artigo 19.º, alínea a) do Código dos Contratos Públicos","","60.270,45 €",Atraso devido na formalização processual.,"",,Não aplicável.,Não aplicável.,
Climatização CS Valpaços,Ajuste Direto Regime Geral,Empreitadas de obras públicas,"45350000-5, Instalações mecânicas","Administração Regional de Saúde do Norte, I.P. (503135593)","Konfortoresposta - Climatização e Ventilação, Lda (510396496)","33.436,50 €",11-01-2013,04-12-2012,10 dias,"Portugal, Vila Real, Valpaços","Artigo 19.º, alínea a) do Código dos Contratos Públicos","","33.436,50 €",O serviço onde se executaram os trabalhos não parou o seu normal funcionamento pelo que condicionou o atraso da empreitada.,"",,Não aplicável.,Não aplicável.,
Adaptação USF Boa Nova,Ajuste Direto Regime Geral,Empreitadas de obras públicas,"45454000-4, Obras de reestruturação","Administração Regional de Saúde do Norte, I.P. (503135593)","Edimobe - Edificações Imobiliárias Bezerra, Lda (502398264)","67.656,82 €",11-01-2013,20-11-2012,30 dias,"Portugal, Porto, Vila Nova de Gaia","Artigo 19.º, alínea a) do Código dos Contratos Públicos","","67.656,82 €",O serviço onde se executaram os trabalhos não parou o seu normal funcionamento pelo que condicionou o atraso da empreitada.,"",,Não aplicável.,Não aplicável.,
Bancadas hospitalares,Ajuste Direto Regime Geral,Aquisição de bens móveis,"39100000-3, Mobiliário","Administração Regional de Saúde do Norte, I.P. (503135593)",Industrial Laborum (506692027),"11.807,78 €",11-01-2013,17-12-2012,20 dias,"Portugal, Braga, Terras de Bouro","Artigo 20.º, n.º 1, alínea a) do Código dos Contratos Públicos",10-01-2013,"11.807,78 €","","",,Não aplicável.,Não aplicável.,
Remodelação de gabinetes e reparação de cobertura P.I.A.C.,Ajuste Direto Regime Geral,Empreitadas de obras públicas,"45453000-7, Obras de revisão e recuperação","Administração Regional de Saúde do Norte, I.P. (503135593)","Qtcivil - Engenharia e Reabilitação, SA (503590010)","18.609,55 €",11-01-2013,22-11-2012,30 dias,"Portugal, Porto, Matosinhos","Artigo 19.º, alínea a) do Código dos Contratos Públicos","","18.609,55 €",Atraso devido na formalização processual.,"",,Não aplicável.,Não aplicável.,
Substituição de caixilharia USF / USP Santa Maria da Feira,Ajuste Direto Regime Geral,Empreitadas de obras públicas,"45421110-8, Instalação de caixilharia de portas e janelas","Administração Regional de Saúde do Norte, I.P. (503135593)","Avelar e Pias - Sociedade de Construções, Lda (505771071)","38.734,47 €",11-01-2013,04-12-2012,20 dias,"Portugal, Aveiro, Santa Maria da Feira","Artigo 19.º, alínea a) do Código dos Contratos Públicos","","38.734,47 €",Atraso devido na formalização processual.,"",,Não aplicável.,Não aplicável.,
Alteração da entrada principal CS Santa Maria da Feira,Ajuste Direto Regime Geral,Empreitadas de obras públicas,"45454000-4, Obras de reestruturação","Administração Regional de Saúde do Norte, I.P. (503135593)","Átomo Matriz - Construção e Coordenação, Lda (510098428)","16.984,56 €",11-01-2013,14-09-2012,30 dias,"Portugal, Aveiro, Santa Maria da Feira","Artigo 19.º, alínea a) do Código dos Contratos Públicos","","16.984,56 €",O serviço onde se executaram os trabalhos não parou o seu normal funcionamento pelo que condicionou o atraso da empreitada.,"",,Não aplicável.,Não aplicável.,
"Prestação de serviços de limpeza, Aces Gaia/USF Gaya + USF Arco do Prado.",Ajuste Direto Regime Geral,Aquisição de serviços,"79714000-2, Serviços de vigilância","Administração Regional de Saúde do Norte, I.P. (503135593)","Limpotécnica, Lda. (500165971)","3.126,82 €",11-01-2013,30-11-2012,60 dias,"Portugal, Porto, Porto","Artigo 20.º, n.º 1, alínea a) do Código dos Contratos Públicos",17-12-2012,"3.126,82 €","","",,Não aplicável.,Não aplicável.,
Reparação de telhado CRI Porto Oriental,Ajuste Direto Regime Geral,Empreitadas de obras públicas,"45453100-8, Obras de recuperação","Administração Regional de Saúde do Norte, I.P. (503135593)","Desfilvital, Lda (510344186)","7.600,00 €",11-01-2013,13-12-2012,15 dias,"Portugal, Porto, Porto","Artigo 19.º, alínea a) do Código dos Contratos Públicos",27-12-2012,"7.600,00 €","","",,Não aplicável.,Não aplicável.,
Retificação das redes água e esgotos e outros US Grijó,Ajuste Direto Regime Geral,Empreitadas de obras públicas,"45453100-8, Obras de recuperação","Administração Regional de Saúde do Norte, I.P. (503135593)","Jorge Manuel Vieira - Canalizações, Unipessoal, Lda (510029086)","13.349,28 €",11-01-2013,14-12-2012,15 dias,"Portugal, Porto, Vila Nova de Gaia","Artigo 19.º, alínea a) do Código dos Contratos Públicos",27-12-2012,"13.349,28 €","","",,Não aplicável.,Não aplicável.,
Parque de esatcionamento US Areia / Caldas da Saúde,Ajuste Direto Regime Geral,Empreitadas de obras públicas,"45454000-4, Obras de reestruturação","Administração Regional de Saúde do Norte, I.P. (503135593)","Nosniky - Engenharia e Construção Civil, Lda (510397352)","14.618,67 €",11-01-2013,18-12-2012,10 dias,"Portugal, Porto, Santo Tirso","Artigo 19.º, alínea a) do Código dos Contratos Públicos",27-12-2012,"14.618,67 €","","",,Não aplicável.,Não aplicável.,
Diversos USF Faria Guimarães,Ajuste Direto Regime Geral,Empreitadas de obras públicas,"45453100-8, Obras de recuperação","Administração Regional de Saúde do Norte, I.P. (503135593)","Desfilvital, Lda (510344186)","8.170,00 €",11-01-2013,05-11-2012,30 dias,"Portugal, Porto, Porto","Artigo 19.º, alínea a) do Código dos Contratos Públicos",28-12-2012,"8.170,00 €","","",,Não aplicável.,Não aplicável.,
Pala na porta de entrada US Oliveira de Azeméis,Ajuste Direto Regime Geral,Empreitadas de obras públicas,"45453100-8, Obras de recuperação","Administração Regional de Saúde do Norte, I.P. (503135593)","Aniferpal - Construção e Engenharia Civil, Lda (507381777)","5.140,00 €",11-01-2013,06-12-2012,15 dias,"Portugal, Aveiro, Oliveira de Azemeis","Artigo 22.º, n.º 1, alínea b) do Código dos Contratos Públicos",03-01-2013,"5.140,00 €","","",,Não aplicável.,Não aplicável.,
Reparação de AVAC CS Rio Tinto,Ajuste Direto Regime Geral,Empreitadas de obras públicas,"45453100-8, Obras de recuperação","Administração Regional de Saúde do Norte, I.P. (503135593)","Centelha do Ártico - Unipessoal, Lda (509749151)","11.675,00 €",11-01-2013,04-10-2012,30 dias,"Portugal, Porto, Gondomar","Artigo 19.º, alínea a) do Código dos Contratos Públicos",20-12-2012,"11.675,00 €","","",,Não aplicável.,Não aplicável.,
Diversos USF Alpendorada,Ajuste Direto Regime Geral,Empreitadas de obras públicas,"45453100-8, Obras de recuperação","Administração Regional de Saúde do Norte, I.P. (503135593)","M. & R. Modesta e Rangel, Lda (510249132)","14.081,00 €",11-01-2013,17-12-2012,14 dias,"Portugal, Porto, Amarante","Artigo 19.º, alínea a) do Código dos Contratos Públicos",03-01-2013,"14.081,00 €","","",,Não aplicável.,Não aplicável.,
Pinturas Exteriores e Outros US Abragão,Ajuste Direto Regime Geral,Empreitadas de obras públicas,"45453100-8, Obras de recuperação","Administração Regional de Saúde do Norte, I.P. (503135593)","Calibre Universal - Construções, Lda (509468276)","7.566,50 €",11-01-2013,06-11-2012,30 dias,"Portugal, Porto, Penafiel","Artigo 19.º, alínea a) do Código dos Contratos Públicos",03-01-2013,"7.566,50 €","","",,Não aplicável.,Não aplicável.,
Reparação de Cobertura CS Penafiel,Ajuste Direto Regime Geral,Empreitadas de obras públicas,"45453100-8, Obras de recuperação","Administração Regional de Saúde do Norte, I.P. (503135593)",Pedra Lascada (508466350),"8.305,00 €",11-01-2013,16-11-2012,30 dias,"Portugal, Porto, Penafiel","Artigo 19.º, alínea a) do Código dos Contratos Públicos",03-01-2013,"8.305,00 €","","",,Não aplicável.,Não aplicável.,
Fornecimento e montagem de ar condicionado USF Caminho Novo,Ajuste Direto Regime Geral,Empreitadas de obras públicas,"45331000-6, Instalação de aquecimento, ventilação e ar condicionado","Administração Regional de Saúde do Norte, I.P. (503135593)","Montequi - Montagem e Equipamentos, Unipessoal, Lda (505009919)","14.586,92 €",11-01-2013,05-11-2012,30 dias,"Portugal, Porto, Vila Nova de Gaia","Artigo 19.º, alínea a) do Código dos Contratos Públicos",27-12-2012,"14.586,92 €","","",,Não aplicável.,Não aplicável.,
Reparação do Posto de Transformação US Boa Nova,Ajuste Direto Regime Geral,Empreitadas de obras públicas,"45453100-8, Obras de recuperação","Administração Regional de Saúde do Norte, I.P. (503135593)","Imbatível Destaque Manutenções - Unipessoal, Lda (509779956)","10.700,00 €",11-01-2013,01-10-2012,30 dias,"Portugal, Porto, Vila Nova de Gaia","Artigo 19.º, alínea a) do Código dos Contratos Públicos",20-12-2012,"10.700,00 €","","",,Não aplicável.,Não aplicável.,
Beneficiação USF Terras de Santa Maria,Ajuste Direto Regime Geral,Empreitadas de obras públicas,"45454000-4, Obras de reestruturação","Administração Regional de Saúde do Norte, I.P. (503135593)",Avelar e Pias (505771071),"10.925,00 €",11-01-2013,12-11-2012,30 dias,"Portugal, Aveiro, Santa Maria da Feira","Artigo 19.º, alínea a) do Código dos Contratos Públicos",27-12-2012,"10.925,00 €","","",,Não aplicável.,Não aplicável.,
Variado equipamento administrativo e audiovisual,Ajuste Direto Regime Geral,Aquisição de bens móveis,"39100000-3, Mobiliário<BR/>32000000-3, Equipamento de rádio, televisão, comunicação, telecomunicações e afins","Administração Regional de Saúde do Norte, I.P. (503135593)",A. Oliveira Costa (123964849),"6.581,30 €",11-01-2013,20-11-2012,20 dias,"Portugal, Porto, Porto<BR/>Portugal, Aveiro, Santa Maria da Feira<BR/>Portugal, Braga, Braga","Artigo 20.º, n.º 1, alínea a) do Código dos Contratos Públicos",13-12-2012,"6.581,30 €","","",,Não aplicável.,Não aplicável.,
