Objeto do Contrato,Tipo de Procedimento,Tipo(s) de Contrato,CPVs,Entidade(s) Adjudicante(s),Entidade(s) Adjudicatária(s),Preço Contratual,Data de Publicação,Data de Celebração do Contrato,Prazo de Execução,Local de Execução,Fundamentação,Data de Fecho do Contrato,Preço Total Efetivo,Causas das Alterações ao Prazo,Causas das Alterações ao Preço,Estado,N.º registo do Acordo Quadro,Descrição do Acordo Quadro,Procedimento Centralizado
14/00157.29/2018 - Artigos rubrica 29,Ajuste Direto Regime Geral,Aquisição de bens móveis,"33140000-3, Material médico de consumo","Centro Hospitalar de Entre o Douro e Vouga, E.P.E. (508878462)","Surgyline-Dispositivos Médicos,Lda (509811663)","632,00 €",21-05-2018,17-01-2018,165 dias,"Portugal, Aveiro, Santa Maria da Feira","Artigo 20.º, n.º 1, alínea a) do Código dos Contratos Públicos",,,,,,Não aplicável.,Não aplicável.,FALSE
14/00157.29/2018 - Artigos rubrica 29,Ajuste Direto Regime Geral,Aquisição de bens móveis,"33140000-3, Material médico de consumo","Centro Hospitalar de Entre o Douro e Vouga, E.P.E. (508878462)","STRYKER PORTUGAL  - PRODUTOS MÉDICOS, LDA (504594214)","320,00 €",21-05-2018,17-01-2018,165 dias,"Portugal, Aveiro, Santa Maria da Feira","Artigo 20.º, n.º 1, alínea a) do Código dos Contratos Públicos",,,,,,Não aplicável.,Não aplicável.,FALSE
14/00157.29/2018 - Artigos rubrica 29,Ajuste Direto Regime Geral,Aquisição de bens móveis,"33140000-3, Material médico de consumo","Centro Hospitalar de Entre o Douro e Vouga, E.P.E. (508878462)","SOCIME II - PRODUTOS MEDICOS, LDA (504453939)","1.950,00 €",21-05-2018,17-01-2018,165 dias,"Portugal, Aveiro, Santa Maria da Feira","Artigo 20.º, n.º 1, alínea a) do Código dos Contratos Públicos",,,,,,Não aplicável.,Não aplicável.,FALSE
14/00157.29/2018 - Artigos rubrica 29,Ajuste Direto Regime Geral,Aquisição de bens móveis,"33140000-3, Material médico de consumo","Centro Hospitalar de Entre o Douro e Vouga, E.P.E. (508878462)","SMITHS MEDICAL PORTUGAL UNIPESSOAL, LDA (507445937)","2.340,00 €",21-05-2018,17-01-2018,165 dias,"Portugal, Aveiro, Santa Maria da Feira","Artigo 20.º, n.º 1, alínea a) do Código dos Contratos Públicos",,,,,,Não aplicável.,Não aplicável.,FALSE
14/00157.29/2018 - Artigos rubrica 29,Ajuste Direto Regime Geral,Aquisição de bens móveis,"33140000-3, Material médico de consumo","Centro Hospitalar de Entre o Douro e Vouga, E.P.E. (508878462)",OVERPHARMA (505792362),"360,00 €",21-05-2018,17-01-2018,165 dias,"Portugal, Aveiro, Santa Maria da Feira","Artigo 20.º, n.º 1, alínea a) do Código dos Contratos Públicos",,,,,,Não aplicável.,Não aplicável.,FALSE
14/00157.29/2018 - Artigos rubrica 29,Ajuste Direto Regime Geral,Aquisição de bens móveis,"33140000-3, Material médico de consumo","Centro Hospitalar de Entre o Douro e Vouga, E.P.E. (508878462)","Ortopedia Sanjoanense, Unipessoal, Lda (505068982)","482,00 €",21-05-2018,17-01-2018,165 dias,"Portugal, Aveiro, Santa Maria da Feira","Artigo 20.º, n.º 1, alínea a) do Código dos Contratos Públicos",,,,,,Não aplicável.,Não aplicável.,FALSE
14/00157.29/2018 - Artigos rubrica 29,Ajuste Direto Regime Geral,Aquisição de bens móveis,"33140000-3, Material médico de consumo","Centro Hospitalar de Entre o Douro e Vouga, E.P.E. (508878462)",Mundinter (500199906),"340,00 €",21-05-2018,17-01-2018,165 dias,"Portugal, Aveiro, Santa Maria da Feira","Artigo 20.º, n.º 1, alínea a) do Código dos Contratos Públicos",,,,,,Não aplicável.,Não aplicável.,FALSE
14/00157.29/2018 - Artigos rubrica 29,Ajuste Direto Regime Geral,Aquisição de bens móveis,"33140000-3, Material médico de consumo","Centro Hospitalar de Entre o Douro e Vouga, E.P.E. (508878462)","MOLNLYCKE HEALTH CARE, LDA. (511101066)","195,00 €",21-05-2018,17-01-2018,165 dias,"Portugal, Aveiro, Santa Maria da Feira","Artigo 20.º, n.º 1, alínea a) do Código dos Contratos Públicos",,,,,,Não aplicável.,Não aplicável.,FALSE
14/00157.29/2018 - Artigos rubrica 29,Ajuste Direto Regime Geral,Aquisição de bens móveis,"33140000-3, Material médico de consumo","Centro Hospitalar de Entre o Douro e Vouga, E.P.E. (508878462)",MEDTRONIC PORTUGAL LDA (504223933),"130,00 €",21-05-2018,17-01-2018,165 dias,"Portugal, Aveiro, Santa Maria da Feira","Artigo 20.º, n.º 1, alínea a) do Código dos Contratos Públicos",,,,,,Não aplicável.,Não aplicável.,FALSE
14/00157.29/2018 - Artigos Rubrica 29,Ajuste Direto Regime Geral,Aquisição de bens móveis,"33140000-3, Material médico de consumo","Centro Hospitalar de Entre o Douro e Vouga, E.P.E. (508878462)","MEDINFAR - SOROLÓGICO - PROD. E EQUIPAMENTOS, S. A (501197052)","118,30 €",21-05-2018,17-01-2018,165 dias,"Portugal, Aveiro, Santa Maria da Feira","Artigo 20.º, n.º 1, alínea a) do Código dos Contratos Públicos",,,,,,Não aplicável.,Não aplicável.,FALSE
14/00157.29/2018 - Artigos Rubrica 29,Ajuste Direto Regime Geral,Aquisição de bens móveis,"33140000-3, Material médico de consumo","Centro Hospitalar de Entre o Douro e Vouga, E.P.E. (508878462)","MED XRAY - SISTEMAS MEDICOS, LDA (506187071)","105,84 €",21-05-2018,17-01-2018,165 dias,"Portugal, Aveiro, Santa Maria da Feira","Artigo 20.º, n.º 1, alínea a) do Código dos Contratos Públicos",,,,,,Não aplicável.,Não aplicável.,FALSE
14/00157.29/2018 - Artigos Rubrica 29,Ajuste Direto Regime Geral,Aquisição de bens móveis,"33140000-3, Material médico de consumo","Centro Hospitalar de Entre o Douro e Vouga, E.P.E. (508878462)","MARIO TARON OLIVEIRA, LDA (501348140)","2.988,75 €",21-05-2018,17-01-2018,165 dias,"Portugal, Aveiro, Santa Maria da Feira","Artigo 20.º, n.º 1, alínea a) do Código dos Contratos Públicos",,,,,,Não aplicável.,Não aplicável.,FALSE
14/00157.29/2018 - Artigos rubrica 29,Ajuste Direto Regime Geral,Aquisição de bens móveis,"33140000-3, Material médico de consumo","Centro Hospitalar de Entre o Douro e Vouga, E.P.E. (508878462)","Feiramédica - Importação e Comércio de Equipamentos Hospitalares, Lda (503731900)","1.211,50 €",21-05-2018,17-01-2018,165 dias,"Portugal, Aveiro, Santa Maria da Feira","Artigo 20.º, n.º 1, alínea a) do Código dos Contratos Públicos",,,,,,Não aplicável.,Não aplicável.,FALSE
14/00157.29/2018 - Artigos rubrica 29,Ajuste Direto Regime Geral,Aquisição de bens móveis,"33140000-3, Material médico de consumo","Centro Hospitalar de Entre o Douro e Vouga, E.P.E. (508878462)","Eurocasmédica, Produtos Hospitalares, S.A. (503322105)","656,70 €",21-05-2018,17-01-2018,165 dias,"Portugal, Aveiro, Santa Maria da Feira","Artigo 20.º, n.º 1, alínea a) do Código dos Contratos Públicos",,,,,,Não aplicável.,Não aplicável.,FALSE
14/00157.29/2018 Artigos Rubrica 29,Ajuste Direto Regime Geral,Aquisição de bens móveis,"33140000-3, Material médico de consumo","Centro Hospitalar de Entre o Douro e Vouga, E.P.E. (508878462)",Esteriplas Indústria Médica (502020776),"158,10 €",21-05-2018,17-01-2018,165 dias,"Portugal, Aveiro, Santa Maria da Feira","Artigo 20.º, n.º 1, alínea a) do Código dos Contratos Públicos",,,,,,Não aplicável.,Não aplicável.,FALSE
Aquisição de medicamentos exclusivos BDRPHARMA,Ajuste Direto Regime Geral,Aquisição de bens móveis,"33600000-6, Produtos farmacêuticos","Centro Hospitalar de Entre o Douro e Vouga, E.P.E. (508878462)",Bdrpharma Lda  (513077332),"78.070,63 €",21-05-2018,26-03-2018,365 dias,"Portugal, Aveiro, Santa Maria da Feira","Artigo 24.º, n.º 1, alínea e) do Código dos Contratos Públicos",,,,,,Não aplicável.,Não aplicável.,FALSE
03/00189.62/2018 - Aquisição de prestação de serviços de apoio jurídico,Ajuste Direto Regime Geral,Aquisição de serviços,"79140000-7, Serviços de assessoria e informação jurídicas","Centro Hospitalar de Entre o Douro e Vouga, E.P.E. (508878462)",J. Delfim Maia (161743404),"54.000,00 €",21-05-2018,01-01-2018,365 dias,"Portugal, Aveiro, Santa Maria da Feira","Artigo 20.º, n.º 1, alínea a) do Código dos Contratos Públicos",,,,,,Não aplicável.,Não aplicável.,FALSE
14/00157.29/2018 - Artigos rubrica 29,Ajuste Direto Regime Geral,Aquisição de bens móveis,"33140000-3, Material médico de consumo","Centro Hospitalar de Entre o Douro e Vouga, E.P.E. (508878462)","Dräger Portugal, Lda (508771323)","1.127,00 €",21-05-2018,17-01-2018,165 dias,"Portugal, Aveiro, Santa Maria da Feira","Artigo 20.º, n.º 1, alínea a) do Código dos Contratos Públicos",,,,,,Não aplicável.,Não aplicável.,FALSE
14/00157.29/2018 - Artigos Rubrica 29,Ajuste Direto Regime Geral,Aquisição de bens móveis,"33140000-3, Material médico de consumo","Centro Hospitalar de Entre o Douro e Vouga, E.P.E. (508878462)","BIOSONDA-COMERCIO MATERIAL HOSPITALAR,LD (501463313)","600,00 €",21-05-2018,17-01-2018,165 dias,"Portugal, Aveiro, Santa Maria da Feira","Artigo 20.º, n.º 1, alínea a) do Código dos Contratos Públicos",,,,,,Não aplicável.,Não aplicável.,FALSE
14/00157.29/2018 - Artigos Rubrica 29,Ajuste Direto Regime Geral,Aquisição de bens móveis,"33140000-3, Material médico de consumo","Centro Hospitalar de Entre o Douro e Vouga, E.P.E. (508878462)","BASTOS VIEGAS, SA (500042772)","1.344,43 €",21-05-2018,17-01-2018,165 dias,"Portugal, Aveiro, Santa Maria da Feira","Artigo 20.º, n.º 1, alínea a) do Código dos Contratos Públicos",,,,,,Não aplicável.,Não aplicável.,FALSE
14/00157.29/2018 - Artigos Rubrica 29,Ajuste Direto Regime Geral,Aquisição de bens móveis,"33140000-3, Material médico de consumo","Centro Hospitalar de Entre o Douro e Vouga, E.P.E. (508878462)",AVIQUIMICA IMPORT E MANUFATURA (500039720),"4.097,90 €",21-05-2018,17-01-2018,165 dias,"Portugal, Aveiro, Santa Maria da Feira","Artigo 20.º, n.º 1, alínea a) do Código dos Contratos Públicos",,,,,,Não aplicável.,Não aplicável.,FALSE
14/00157.29/2018 - Artigos Rubrica 29,Ajuste Direto Regime Geral,Aquisição de bens móveis,"33140000-3, Material médico de consumo","Centro Hospitalar de Entre o Douro e Vouga, E.P.E. (508878462)",APPLIED MEDICAL DISTRIBUTION EUROPE B.V. SUC. PORT (980571111),"1.332,00 €",21-05-2018,17-01-2018,165 dias,"Portugal, Aveiro, Santa Maria da Feira","Artigo 20.º, n.º 1, alínea a) do Código dos Contratos Públicos",,,,,,Não aplicável.,Não aplicável.,FALSE
14/00157.29/2018 - Artigos Rubrica 29,Ajuste Direto Regime Geral,Aquisição de bens móveis,"33130000-0, Instrumentos e dispositivos dentários e de subespecialidade","Centro Hospitalar de Entre o Douro e Vouga, E.P.E. (508878462)","LINEAMEDICA-DISPOSITIVOS MEDICOS-CIRUGICOS, SA (505148676)","160,20 €",18-05-2018,17-01-2018,165 dias,"Portugal, Aveiro, Santa Maria da Feira","Artigo 20.º, n.º 1, alínea a) do Código dos Contratos Públicos",,,,,,Não aplicável.,Não aplicável.,FALSE
14/00157.29/2018- Artigos Rubrica 29,Ajuste Direto Regime Geral,Aquisição de bens móveis,"33140000-3, Material médico de consumo","Centro Hospitalar de Entre o Douro e Vouga, E.P.E. (508878462)","IBERDATA EQUIPAMENTOS, SA. (501904921)","63,09 €",18-05-2018,17-01-2018,165 dias,"Portugal, Aveiro, Santa Maria da Feira","Artigo 20.º, n.º 1, alínea a) do Código dos Contratos Públicos",,,,,,Não aplicável.,Não aplicável.,FALSE
14/00157.29/2018 - Artigos Rubrica 29,Ajuste Direto Regime Geral,Aquisição de bens móveis,"33140000-3, Material médico de consumo","Centro Hospitalar de Entre o Douro e Vouga, E.P.E. (508878462)",Grupo Vitalino (513083162),"84,14 €",18-05-2018,17-01-2018,165 dias,"Portugal, Aveiro, Santa Maria da Feira","Artigo 20.º, n.º 1, alínea a) do Código dos Contratos Públicos",,,,,,Não aplicável.,Não aplicável.,FALSE
14/00157.29/2018 - Artigos da rubrica 29,Ajuste Direto Regime Geral,Aquisição de bens móveis,"33140000-3, Material médico de consumo","Centro Hospitalar de Entre o Douro e Vouga, E.P.E. (508878462)","FILSAT - EQUIPAMENTOS MÉDICO-CIENTÍFICOS, LDA. (506708616)","4.910,40 €",18-05-2018,17-01-2018,165 dias,"Portugal, Aveiro, Santa Maria da Feira","Artigo 20.º, n.º 1, alínea a) do Código dos Contratos Públicos",,,,,,Não aplicável.,Não aplicável.,FALSE
14/00157.29/2018 - Artigos Rubrica 29,Ajuste Direto Regime Geral,Aquisição de bens móveis,"33140000-3, Material médico de consumo","Centro Hospitalar de Entre o Douro e Vouga, E.P.E. (508878462)","ANASTACIO SALDANHA UNIPESSOAL, LDA. (505804441)","138,80 €",18-05-2018,17-01-2018,165 dias,"Portugal, Aveiro, Santa Maria da Feira","Artigo 20.º, n.º 1, alínea a) do Código dos Contratos Públicos",,,,,,Não aplicável.,Não aplicável.,FALSE
14/00184.62/2018 - Aquisição de Prestação de Serviços para Aluguer de Viatura Comercial,Ajuste Direto Regime Geral,Aquisição de serviços,"60180000-3, Aluguer de veículos para transporte de mercadorias com condutor","Centro Hospitalar de Entre o Douro e Vouga, E.P.E. (508878462)","Ecomobile- Aluguer de Automóveis Unipessoal,Lda. (508633770)","2.784,60 €",18-05-2018,28-12-2017,180 dias,"Portugal, Aveiro, Santa Maria da Feira","Artigo 20.º, n.º 1, alínea a) do Código dos Contratos Públicos",,,,,,Não aplicável.,Não aplicável.,FALSE
14/00153.23/2018 - Artigos Rubrica 23,Ajuste Direto Regime Geral,Aquisição de bens móveis,"33140000-3, Material médico de consumo","Centro Hospitalar de Entre o Douro e Vouga, E.P.E. (508878462)",IIMA - INSTITUTO INTERNACIONAL MEDICINAS ALTERNATIVAS (503259853),"138,84 €",18-05-2018,17-01-2018,165 dias,"Portugal, Aveiro, Santa Maria da Feira","Artigo 20.º, n.º 1, alínea a) do Código dos Contratos Públicos",,,,,,Não aplicável.,Não aplicável.,FALSE
14/00153.23/2018 -Artigos Rubrica 23,Ajuste Direto Regime Geral,Aquisição de bens móveis,"33140000-3, Material médico de consumo","Centro Hospitalar de Entre o Douro e Vouga, E.P.E. (508878462)","P.M.H. - PROD. MEDICOS HOSPITALARES, LDA. (502376899)","9.742,86 €",18-05-2018,17-01-2018,165 dias,"Portugal, Aveiro, Santa Maria da Feira","Artigo 20.º, n.º 1, alínea a) do Código dos Contratos Públicos",,,,,,Não aplicável.,Não aplicável.,FALSE
14/00152.23/2018 -Aquisição de material de consumo clínico para laparóscopia,Ajuste Direto Regime Geral,Aquisição de bens móveis,"33140000-3, Material médico de consumo","Centro Hospitalar de Entre o Douro e Vouga, E.P.E. (508878462)","MARIO TARON OLIVEIRA, LDA (501348140)","3.837,60 €",17-05-2018,08-01-2018,174 dias,"Portugal, Aveiro, Santa Maria da Feira","Artigo 20.º, n.º 1, alínea a) do Código dos Contratos Públicos",,,,,,Não aplicável.,Não aplicável.,FALSE
Aquisição de Enoxaparina Sódicas (P259-2018-39),Ao abrigo de acordo-quadro (art.º 259.º),Aquisição de bens móveis,"33600000-6, Produtos farmacêuticos","Centro Hospitalar de Entre o Douro e Vouga, E.P.E. (508878462)","SANOFI - PRODUTOS FARMACEUTICOS , LDA (500134960)","51.016,86 €",17-05-2018,17-05-2018,229 dias,"Portugal, Aveiro, Santa Maria da Feira",Artigo 259.º do Código dos Contratos Públicos,,,,,,2489595,CP 2016/18 - Acordo quadro para fornecimento de Medicamentos do Grupo 4: Sangue às Instituições e Serviços do Serviço Nacional de Saúde,FALSE
14/00152.23/2018 - Aquisição de material de consumo clínico para laparóscopia,Ajuste Direto Regime Geral,Aquisição de bens móveis,"33140000-3, Material médico de consumo","Centro Hospitalar de Entre o Douro e Vouga, E.P.E. (508878462)","Eurocasmédica, S.A. (503322105)","11.440,00 €",17-05-2018,06-04-2018,174 dias,"Portugal, Aveiro, Santa Maria da Feira","Artigo 20.º, n.º 1, alínea a) do Código dos Contratos Públicos",,,,,,Não aplicável.,Não aplicável.,FALSE
14/00141.23/2018- Aquisição de Material de consumo clínico para Urologia,Ajuste Direto Regime Geral,Aquisição de bens móveis,"33140000-3, Material médico de consumo","Centro Hospitalar de Entre o Douro e Vouga, E.P.E. (508878462)","BOSTON SCIENTIFIC PORTUGAL, LDA (504988964)","359,50 €",17-05-2018,22-01-2018,159 dias,"Portugal, Aveiro, Santa Maria da Feira","Artigo 20.º, n.º 1, alínea a) do Código dos Contratos Públicos",,,,,,Não aplicável.,Não aplicável.,FALSE
14/00141.23/2018- Aquisição de material de consumo clínico de Urologia,Ajuste Direto Regime Geral,Aquisição de bens móveis,"33140000-3, Material médico de consumo","Centro Hospitalar de Entre o Douro e Vouga, E.P.E. (508878462)",MEDTRONIC PORTUGAL-COM.DIST.APAR.MEDICOS (504223933),"672,00 €",17-05-2018,22-01-2018,159 dias,"Portugal, Aveiro, Santa Maria da Feira","Artigo 20.º, n.º 1, alínea a) do Código dos Contratos Públicos",,,,,,Não aplicável.,Não aplicável.,FALSE
14/00141.23/2018 - Aquisição de material de consumo clínico para Urologia,Ajuste Direto Regime Geral,Aquisição de bens móveis,"33140000-3, Material médico de consumo","Centro Hospitalar de Entre o Douro e Vouga, E.P.E. (508878462)","COLOPLAST PORTUGAL SOC. UNIP., LDA (503989037)","19.116,82 €",17-05-2018,10-04-2018,159 dias,"Portugal, Aveiro, Santa Maria da Feira","Artigo 20.º, n.º 1, alínea a) do Código dos Contratos Públicos",,,,,,Não aplicável.,Não aplicável.,FALSE
"LS_07/00048.05/2018 - Aquisição de Papel e Economato, ao abrigo do Lote 1 e Lote 2 do Acordo Quadro para Fornecimento de Papel e Economato da ESPAP",Ao abrigo de acordo-quadro (art.º 259.º),Aquisição de bens móveis,"30199000-0, Artigos de papelaria e outros artigos de papel","Centro Hospitalar de Entre o Douro e Vouga, E.P.E. (508878462)","MAXONE - MATERIAL DE ESCRITORIO , LDA (507052609)","36.297,70 €",17-05-2018,20-12-2017,365 dias,"Portugal, Aveiro, Santa Maria da Feira","Artigo 20.º, n.º 1, alínea b) do Código dos Contratos Públicos",,,,,,1351201,Acordo quadro de fornecimento de papel e economato,FALSE
"LS_07/00048.05/2018 - Aquisição de Papel e Economato, ao abrigo do Lote 1 e Lote 2 do Acordo Quadro para Fornecimento de Papel e Economato da ESPAP",Ao abrigo de acordo-quadro (art.º 259.º),Aquisição de bens móveis,"30192000-1, Material de escritório","Centro Hospitalar de Entre o Douro e Vouga, E.P.E. (508878462)","OHM Tecnica - Representação de Marcas, Lda (504059521)","8.053,77 €",17-05-2018,20-12-2017,365 dias,"Portugal, Aveiro, Oliveira de Azemeis","Artigo 20.º, n.º 1, alínea b) do Código dos Contratos Públicos",,,,,,1351201,Acordo quadro de fornecimento de papel e economato,FALSE
Aquisição do medicamento “Paliperidona – Xeplion),Ao abrigo de acordo-quadro (art.º 259.º),Aquisição de bens móveis,"33600000-6, Produtos farmacêuticos","CENTRO HOSPITALAR DE ENTRE O DOURO E VOUGA, E.P.E. (508878462)","JANSSEN CILAG FARMACEUTICA, LDA (500189412)","96.912,00 €",16-05-2018,16-05-2018,229 dias,"Portugal, Aveiro, Santa Maria da Feira",Artigo 259.º do Código dos Contratos Públicos,,,,,,2556987,"CP 2017/65 - Acordo Quadro para fornecimento de Medicamentos de Várias áreas Terapêuticas, às Instituições e Serviços do Serviço Nacional de Saúde",FALSE
Aquisição Nutrição Entérica,Ajuste Direto Regime Geral,Aquisição de bens móveis,"33000000-0, Equipamento médico, medicamentos e produtos para cuidados pessoais","Centro Hospitalar de Entre o Douro e Vouga, E.P.E. (508878462)",Nespresso (500201307),"1.281,19 €",16-05-2018,15-01-2018,180 dias,"Portugal, Aveiro, Santa Maria da Feira","Artigo 20.º, n.º 1, alínea a) do Código dos Contratos Públicos",,,,,,Não aplicável.,Não aplicável.,FALSE
Aquisição Nutrição Entérica,Ajuste Direto Regime Geral,Aquisição de bens móveis,"33000000-0, Equipamento médico, medicamentos e produtos para cuidados pessoais","Centro Hospitalar de Entre o Douro e Vouga, E.P.E. (508878462)",FRESENIUS KABI  PHARMA PORTUGAL LDA (504293753),"19.660,67 €",16-05-2018,15-01-2018,180 dias,"Portugal, Aveiro, Santa Maria da Feira","Artigo 20.º, n.º 1, alínea a) do Código dos Contratos Públicos",,,,,,Não aplicável.,Não aplicável.,FALSE
Aquisição de Prótese de Joelho de Revisão Total,Ajuste Direto Regime Geral,Aquisição de bens móveis,"33000000-0, Equipamento médico, medicamentos e produtos para cuidados pessoais","Centro Hospitalar de Entre o Douro e Vouga, E.P.E. (508878462)","JOHNSON & JOHNSON, LDA (500153370)","74.170,00 €",16-05-2018,15-01-2018,180 dias,"Portugal, Aveiro, Santa Maria da Feira","Artigo 20.º, n.º 1, alínea a) do Código dos Contratos Públicos",,,,,,Não aplicável.,Não aplicável.,FALSE
Aquisição Nutrição Parentérica,Ajuste Direto Regime Geral,Aquisição de bens móveis,"33000000-0, Equipamento médico, medicamentos e produtos para cuidados pessoais","Centro Hospitalar de Entre o Douro e Vouga, E.P.E. (508878462)",Nespresso (500201307),"183,60 €",16-05-2018,15-01-2018,180 dias,"Portugal, Aveiro, Santa Maria da Feira","Artigo 20.º, n.º 1, alínea a) do Código dos Contratos Públicos",,,,,,Não aplicável.,Não aplicável.,FALSE
Aquisição Nutrição Parentérica,Ajuste Direto Regime Geral,Aquisição de bens móveis,"33000000-0, Equipamento médico, medicamentos e produtos para cuidados pessoais","Centro Hospitalar de Entre o Douro e Vouga, E.P.E. (508878462)",Milupa Comercial Com. Prod. Alimentares SA (502192828),"99,48 €",16-05-2018,15-01-2018,180 dias,"Portugal, Aveiro, Santa Maria da Feira","Artigo 20.º, n.º 1, alínea a) do Código dos Contratos Públicos",,,,,,Não aplicável.,Não aplicável.,FALSE
Aquisição Nutrição Parentérica,Ajuste Direto Regime Geral,Aquisição de bens móveis,"33000000-0, Equipamento médico, medicamentos e produtos para cuidados pessoais","Centro Hospitalar de Entre o Douro e Vouga, E.P.E. (508878462)",FRESENIUS KABI  PHARMA PORTUGAL LDA (504293753),"38.669,03 €",16-05-2018,28-03-2018,180 dias,"Portugal, Aveiro, Santa Maria da Feira","Artigo 20.º, n.º 1, alínea a) do Código dos Contratos Públicos",,,,,,Não aplicável.,Não aplicável.,FALSE
Aquisição De Detergentes E Desinfetantes Para Superfícies E Instrumentos,Ajuste Direto Regime Geral,Aquisição de bens móveis,"33000000-0, Equipamento médico, medicamentos e produtos para cuidados pessoais","Centro Hospitalar de Entre o Douro e Vouga, E.P.E. (508878462)","PAUL HARTMANN, LDA. (502271728)","900,00 €",16-05-2018,15-01-2018,180 dias,"Portugal, Aveiro, Santa Maria da Feira","Artigo 20.º, n.º 1, alínea a) do Código dos Contratos Públicos",,,,,,Não aplicável.,Não aplicável.,FALSE
Aquisição De Detergentes E Desinfetantes Para Superfícies E Instrumentos,Ajuste Direto Regime Geral,Aquisição de bens móveis,"33000000-0, Equipamento médico, medicamentos e produtos para cuidados pessoais","Centro Hospitalar de Entre o Douro e Vouga, E.P.E. (508878462)","Franklab Portugal, Lda (506058654)","16,34 €",16-05-2018,15-01-2018,180 dias,"Portugal, Aveiro, Santa Maria da Feira","Artigo 20.º, n.º 1, alínea a) do Código dos Contratos Públicos",,,,,,Não aplicável.,Não aplicável.,FALSE
Aquisição De Detergentes E Desinfetantes Para Superfícies E Instrumentos,Ajuste Direto Regime Geral,Aquisição de bens móveis,"33000000-0, Equipamento médico, medicamentos e produtos para cuidados pessoais","Centro Hospitalar de Entre o Douro e Vouga, E.P.E. (508878462)","AIR LIQUIDE MEDICINAL,S.A. (501576436)","3.482,64 €",16-05-2018,15-01-2018,180 dias,"Portugal, Aveiro, Santa Maria da Feira","Artigo 20.º, n.º 1, alínea a) do Código dos Contratos Públicos",,,,,,Não aplicável.,Não aplicável.,FALSE
Vários Reagentes de Laboratório,Ajuste Direto Regime Geral,Aquisição de bens móveis,"33000000-0, Equipamento médico, medicamentos e produtos para cuidados pessoais","Centro Hospitalar de Entre o Douro e Vouga, E.P.E. (508878462)",Werfen (501086110),"6.552,63 €",15-05-2018,15-01-2018,89 dias,"Portugal, Aveiro, Santa Maria da Feira","Artigo 20.º, n.º 1, alínea a) do Código dos Contratos Públicos",,,,,,Não aplicável.,Não aplicável.,FALSE
Vários Reagentes de Laboratório,Ajuste Direto Regime Geral,Aquisição de bens móveis,"33000000-0, Equipamento médico, medicamentos e produtos para cuidados pessoais","Centro Hospitalar de Entre o Douro e Vouga, E.P.E. (508878462)"," VWR INTERNATIONAL- MATERIAL DE LABORATORIO, LDA (503842770)","45,20 €",15-05-2018,15-01-2018,89 dias,"Portugal, Aveiro, Santa Maria da Feira","Artigo 20.º, n.º 1, alínea a) do Código dos Contratos Públicos",,,,,,Não aplicável.,Não aplicável.,FALSE
Vários Reagentes de Laboratório,Ajuste Direto Regime Geral,Aquisição de bens móveis,"33000000-0, Equipamento médico, medicamentos e produtos para cuidados pessoais","Centro Hospitalar de Entre o Douro e Vouga, E.P.E. (508878462)","QUILABAN QUIM. LABORATORIAL ANALITICA, SA (500399670)","222,00 €",15-05-2018,15-01-2018,89 dias,"Portugal, Aveiro, Santa Maria da Feira","Artigo 20.º, n.º 1, alínea a) do Código dos Contratos Públicos",,,,,,Não aplicável.,Não aplicável.,FALSE
Vários Reagentes de Laboratório,Ajuste Direto Regime Geral,Aquisição de bens móveis,"33000000-0, Equipamento médico, medicamentos e produtos para cuidados pessoais","Centro Hospitalar de Entre o Douro e Vouga, E.P.E. (508878462)","Normax - Fábrica Vidros Cientificos, Ldª (500203130)","10,47 €",15-05-2018,15-01-2018,89 dias,"Portugal, Aveiro, Santa Maria da Feira","Artigo 20.º, n.º 1, alínea a) do Código dos Contratos Públicos",,,,,,Não aplicável.,Não aplicável.,FALSE
Vários Reagentes de Laboratório,Ajuste Direto Regime Geral,Aquisição de bens móveis,"33000000-0, Equipamento médico, medicamentos e produtos para cuidados pessoais","Centro Hospitalar de Entre o Douro e Vouga, E.P.E. (508878462)",HEMICARE (506517080),"232,40 €",15-05-2018,15-01-2018,89 dias,"Portugal, Aveiro, Santa Maria da Feira","Artigo 20.º, n.º 1, alínea a) do Código dos Contratos Públicos",,,,,,Não aplicável.,Não aplicável.,FALSE
Vários Reagentes de Laboratório,Ajuste Direto Regime Geral,Aquisição de bens móveis,"33000000-0, Equipamento médico, medicamentos e produtos para cuidados pessoais","Centro Hospitalar de Entre o Douro e Vouga, E.P.E. (508878462)","CSPSAUDE - Centro de Serviços Partilhados, SA (508440246)","59,55 €",15-05-2018,15-01-2018,89 dias,"Portugal, Aveiro, Santa Maria da Feira","Artigo 20.º, n.º 1, alínea a) do Código dos Contratos Públicos",,,,,,Não aplicável.,Não aplicável.,FALSE
Vários Reagentes de Laboratório,Ajuste Direto Regime Geral,Aquisição de bens móveis,"33000000-0, Equipamento médico, medicamentos e produtos para cuidados pessoais","Centro Hospitalar de Entre o Douro e Vouga, E.P.E. (508878462)",BIO RAD LABORATORIES (501301321),"1.564,00 €",15-05-2018,15-01-2018,89 dias,"Portugal, Aveiro, Santa Maria da Feira","Artigo 20.º, n.º 1, alínea a) do Código dos Contratos Públicos",,,,,,Não aplicável.,Não aplicável.,FALSE
Vários Reagentes de Laboratório,Ajuste Direto Regime Geral,Aquisição de bens móveis,"33000000-0, Equipamento médico, medicamentos e produtos para cuidados pessoais","Centro Hospitalar de Entre o Douro e Vouga, E.P.E. (508878462)","BIOPORTUGAL QUIMICO, FARMACEUTICA, (502380543)","312,50 €",15-05-2018,15-01-2018,89 dias,"Portugal, Aveiro, Santa Maria da Feira","Artigo 20.º, n.º 1, alínea a) do Código dos Contratos Públicos",,,,,,Não aplicável.,Não aplicável.,FALSE
Vários Reagentes de Laboratório,Ajuste Direto Regime Geral,Aquisição de bens móveis,"33000000-0, Equipamento médico, medicamentos e produtos para cuidados pessoais","Centro Hospitalar de Entre o Douro e Vouga, E.P.E. (508878462)",BIOMERIEUX Portugal (501524177),"995,55 €",15-05-2018,15-01-2018,89 dias,"Portugal, Aveiro, Santa Maria da Feira","Artigo 20.º, n.º 1, alínea a) do Código dos Contratos Públicos",,,,,,Não aplicável.,Não aplicável.,FALSE
Vários Reagentes Laboratório,Ajuste Direto Regime Geral,Aquisição de bens móveis,"33000000-0, Equipamento médico, medicamentos e produtos para cuidados pessoais","Centro Hospitalar de Entre o Douro e Vouga, E.P.E. (508878462)","ALERE, LDA (502518863)","2.142,00 €",15-05-2018,15-01-2018,89 dias,"Portugal, Aveiro, Santa Maria da Feira","Artigo 20.º, n.º 1, alínea a) do Código dos Contratos Públicos",,,,,,Não aplicável.,Não aplicável.,FALSE
"Ident. Adenovirus, Influenza A E B, Parainfluenza 1,2 E 3 Vsr, Metapneum.",Ajuste Direto Regime Geral,Aquisição de bens móveis,"33000000-0, Equipamento médico, medicamentos e produtos para cuidados pessoais","Centro Hospitalar de Entre o Douro e Vouga, E.P.E. (508878462)",LABORATORIOS LETI ( B78152725 ),"9.873,60 €",15-05-2018,15-01-2018,180 dias,"Portugal, Aveiro, Santa Maria da Feira","Artigo 20.º, n.º 1, alínea a) do Código dos Contratos Públicos",,,,,,Não aplicável.,Não aplicável.,FALSE
Aquisição e Dispositivos Médicos de Monitorização de Glicémia,Ajuste Direto Regime Geral,Aquisição de bens móveis,"33000000-0, Equipamento médico, medicamentos e produtos para cuidados pessoais","Centro Hospitalar de Entre o Douro e Vouga, E.P.E. (508878462)",Abbott laboratorios (500006148),"15.895,00 €",15-05-2018,29-03-2018,180 dias,"Portugal, Aveiro, Santa Maria da Feira","Artigo 20.º, n.º 1, alínea a) do Código dos Contratos Públicos",,,,,,Não aplicável.,Não aplicável.,FALSE
Aquisição de Infliximab (Remicade) - doentes em tratamento,Ajuste Direto Regime Geral,Aquisição de bens móveis,"33600000-6, Produtos farmacêuticos","Centro Hospitalar de Entre o Douro e Vouga, E.P.E. (508878462)","MERCK SHARP & DOHME, LDA. (500191360)","432.530,00 €",15-05-2018,23-04-2018,263 dias,"Portugal, Aveiro, Santa Maria da Feira","Artigo 24.º, n.º 1, alínea e) do Código dos Contratos Públicos",,,,,,Não aplicável.,Não aplicável.,FALSE
14/00139.04/2018 - Aquisição de Material de Uso de Doentes,Ajuste Direto Regime Geral,Aquisição de bens móveis,"33700000-7, Produtos para cuidados pessoais","Centro Hospitalar de Entre o Douro e Vouga, E.P.E. (508878462)",AVIQUIMICA (500039720),"775,00 €",15-05-2018,03-01-2018,181 dias,"Portugal, Aveiro, Santa Maria da Feira","Artigo 20.º, n.º 1, alínea a) do Código dos Contratos Públicos",,,,,,Não aplicável.,Não aplicável.,FALSE
Aquisição de Lopinavir 200mg + Ritonavir 50mg comp (P259-2018-48),Ao abrigo de acordo-quadro (art.º 259.º),Aquisição de bens móveis,"33600000-6, Produtos farmacêuticos","Centro Hospitalar de Entre o Douro e Vouga, E.P.E. (508878462)","ABBVIE, LDA (510229050)","443,18 €",15-05-2018,04-04-2018,272 dias,"Portugal, Aveiro, Santa Maria da Feira",Artigo 259.º do Código dos Contratos Públicos,,,,,,2183729,Medicamentos antirretrovíricos para o tratamento da infeção por VIH,FALSE
14/00138.04/2018 - Aquisição de Material de Uso de Doentes,Ajuste Direto Regime Geral,Aquisição de bens móveis,"33700000-7, Produtos para cuidados pessoais","Centro Hospitalar de Entre o Douro e Vouga, E.P.E. (508878462)","Servisan - Produtos de Higiene,S.A. (500246530)","51,45 €",14-05-2018,03-01-2018,181 dias,"Portugal, Aveiro, Santa Maria da Feira","Artigo 20.º, n.º 1, alínea a) do Código dos Contratos Públicos",,,,,,Não aplicável.,Não aplicável.,FALSE
Aquisição de Fulvestrant 250 mg/5 ml sol inj ser 5 ml im (P259-2018-42),Ajuste Direto Regime Geral,Aquisição de bens móveis,"33600000-6, Produtos farmacêuticos","Centro Hospitalar de Entre o Douro e Vouga, E.P.E. (508878462)","Astra - Zeneca - Produtos Farmacêuticos, Lda. (502942240)","7.516,02 €",14-05-2018,09-05-2018,237 dias,"Portugal, Aveiro, Santa Maria da Feira",Artigo 258.º do Código dos Contratos Públicos,,,,,,Não aplicável.,Não aplicável.,FALSE
Aquisição de Sorafenib 200 mg comp (P259-2018-52),Ao abrigo de acordo-quadro (art.º 259.º),Aquisição de bens móveis,"33600000-6, Produtos farmacêuticos","Centro Hospitalar de Entre o Douro e Vouga, E.P.E. (508878462)","Bayer Portugal, Lda. (500043256)","67.683,84 €",14-05-2018,09-05-2018,237 dias,"Portugal, Aveiro, Santa Maria da Feira",Artigo 259.º do Código dos Contratos Públicos,,,,,,1771819,CP 2015/6 - Acordo quadro para o fornecimento de Medicamentos do Foro Oncológico,FALSE
Aquisição de Infliximab (Infletra) - doentes em tratamento (AD-2018-11),Ajuste Direto Regime Geral,Aquisição de bens móveis,"33600000-6, Produtos farmacêuticos","Centro Hospitalar de Entre o Douro e Vouga, E.P.E. (508878462)","LABORATORIOS PFIZER, LDA. (500162166)","143.152,16 €",14-05-2018,12-04-2018,362 dias,"Portugal, Aveiro, Santa Maria da Feira","Artigo 24.º, n.º 1, alínea e) do Código dos Contratos Públicos",,,,,,Não aplicável.,Não aplicável.,FALSE
03/00100.62/2017 - Aquisição de Prestação de Serviços de Consultoria Externa para Reestruturação do Serviço de Compras do CHEDV,Ajuste Direto Regime Geral,Aquisição de serviços,"79000000-4, Serviços a empresas: direito, comercialização, consultoria, recrutamento, impressão e segurança","Centro Hospitalar de Entre o Douro e Vouga, E.P.E. (508878462)","Kaizen Institute Spain, S.L. (B27722685)","24.450,00 €",11-05-2018,23-04-2018,60 dias,"Portugal, Aveiro, Santa Maria da Feira","Artigo 20.º, n.º 1, alínea a) do Código dos Contratos Públicos",,,,,,Não aplicável.,Não aplicável.,FALSE
14_00108.04_2018 - Aquisição de Sacos Plásticos,Ajuste Direto Regime Geral,Aquisição de bens móveis,"19640000-4, Sacos de polietileno para recolha de lixo e resíduos","Centro Hospitalar de Entre o Douro e Vouga, E.P.E. (508878462)",SUPER HIGIENE- SOCIEDADE DE EQUIPAMENTOS E HIGIENE (503002011),"53.431,38 €",11-05-2018,31-03-2018,90 dias,"Portugal, Aveiro, Santa Maria da Feira","Artigo 20.º, n.º 1, alínea a) do Código dos Contratos Públicos",,,,,,Não aplicável.,Não aplicável.,FALSE
