Objeto do Contrato,Tipo de Procedimento,Tipo(s) de Contrato,CPVs,Entidade(s) Adjudicante(s),Entidade(s) Adjudicatária(s),Preço Contratual,Data de Publicação,Data de Celebração do Contrato,Prazo de Execução,Local de Execução,Fundamentação,Data de Fecho do Contrato,Preço Total Efetivo,Causas das Alterações ao Prazo,Causas das Alterações ao Preço,Estado,N.º registo do Acordo Quadro,Descrição do Acordo Quadro,Procedimento Centralizado
"AQUISIÇÃO DE INTERFERAO BETA 1A 22 MCG (44MCG/ML CARTU. 1.5 ML) SOL INJ, INT",Ajuste Direto Regime Geral,Aquisição de bens móveis,"33600000-6, Produtos farmacêuticos","Centro Hospitalar Barreiro Montijo, E. P. E. (509186998)","MERCK FARMA E QUIMICA, S.A. (500650870)","160.973,00 €",14-12-2012,30-10-2012,10 dias,"Portugal, Setúbal, Barreiro","Artigo 24.º, n.º 1, alínea e) do Código dos Contratos Públicos",31-12-2012,"160.973,00 €",,,,Não aplicável.,Não aplicável.,
Aquisição de Medicamentos antineoplásicos e imunomoduladores,Ajuste Direto Regime Geral,Aquisição de bens móveis,"33600000-6, Produtos farmacêuticos","Centro Hospitalar Barreiro Montijo, E. P. E. (509186998)","CELGENE, SOCIEDADE UNIPESSOAL, LDA (507791690)","38.400,00 €",14-12-2012,23-10-2012,10 dias,"Portugal, Setúbal, Barreiro","Artigo 24.º, n.º 1, alínea e) do Código dos Contratos Públicos",31-12-2012,"38.400,00 €",,,,Não aplicável.,Não aplicável.,
AQUISIÇÃO DE BEXAROTENO 75MG CAPSULA,Ajuste Direto Regime Geral,Aquisição de bens móveis,"33600000-6, Produtos farmacêuticos","Centro Hospitalar Barreiro Montijo, E. P. E. (509186998)","EISAI FARMACEUTICA, UNIPESSOAL, LDA (507847660)","6.703,14 €",14-12-2012,19-11-2012,10 dias,"Portugal, Setúbal, Barreiro","Artigo 24.º, n.º 1, alínea e) do Código dos Contratos Públicos",31-12-2012,"6.703,14 €",,,,Não aplicável.,Não aplicável.,
AQUISIÇÃO DE DARBEPOETINA ALFA 150MCG E DE 500MCG,Ajuste Direto Regime Geral,Aquisição de bens móveis,"33600000-6, Produtos farmacêuticos","Centro Hospitalar Barreiro Montijo, E. P. E. (509186998)","AMGEN - BIOFARMACÊUTICA, LDA. (502942959)","13.770,00 €",14-12-2012,21-11-2012,5 dias,"Portugal, Setúbal, Barreiro","Artigo 24.º, n.º 1, alínea e) do Código dos Contratos Públicos",31-12-2012,"13.770,00 €",,,,Não aplicável.,Não aplicável.,
Aquisição de Medicamentos anti-infecciosos,Ajuste Direto Regime Geral,Aquisição de bens móveis,"33600000-6, Produtos farmacêuticos","Centro Hospitalar Barreiro Montijo, E. P. E. (509186998)","GILEAD SCIENCES, LDA. (503604704)","409.590,44 €",14-12-2012,31-10-2012,10 dias,"Portugal, Setúbal, Barreiro","Artigo 24.º, n.º 1, alínea e) do Código dos Contratos Públicos",31-12-2012,"409.590,44 €",,,,Não aplicável.,Não aplicável.,
AQUISIÇÃO DE PLASMA HUMANO INACTIVADO,Ajuste Direto Regime Geral,Aquisição de bens móveis,"33600000-6, Produtos farmacêuticos","Centro Hospitalar Barreiro Montijo, E. P. E. (509186998)",OCTAPHARMA (502595302),"27.669,00 €",14-12-2012,15-10-2012,5 dias,"Portugal, Setúbal, Barreiro","Artigo 24.º, n.º 1, alínea e) do Código dos Contratos Públicos",31-12-2012,"27.669,00 €",,,,Não aplicável.,Não aplicável.,
AQUISIÇÃO DE REAGENTE DET GLUCOSE NO SANGUE,Ajuste Direto Regime Geral,Aquisição de bens móveis,"33694000-1, Meios de diagnóstico","Centro Hospitalar Barreiro Montijo, E. P. E. (509186998)","ABBOTT LABORATORIOS, LDA (500006148)","10.500,00 €",14-12-2012,24-09-2012,7 dias,"Portugal, Setúbal, Barreiro","Artigo 20.º, n.º 4 do Código dos Contratos Públicos",31-12-2012,"10.500,00 €",,,,Não aplicável.,Não aplicável.,
AQUISIÇÃO DE BOLSAS NUT. PARENT. V. CENTRAL 1600 KCAL TOTAIS 12 G N 1477 M,Ajuste Direto Regime Geral,Aquisição de bens móveis,"33600000-6, Produtos farmacêuticos","Centro Hospitalar Barreiro Montijo, E. P. E. (509186998)","FRESENIUS KABI PHARMA PORTUGAL, LDA (504293753)","7.050,00 €",14-12-2012,02-10-2012,3 dias,"Portugal, Setúbal, Barreiro","Artigo 20.º, n.º 1, alínea a) do Código dos Contratos Públicos",31-12-2012,"7.050,00 €",,,,Não aplicável.,Não aplicável.,
AQUISIÇÃO DE CAMARA EXPANSORA COM MASCARA PARA ADULTO,Ajuste Direto Regime Geral,Aquisição de bens móveis,"33157000-5, Aparelhos para assistência respiratória e oxigenoterapia","Centro Hospitalar Barreiro Montijo, E. P. E. (509186998)","TEPREL - EQUIPAMENTOS MEDICOS, LDA (502262184)","4.395,00 €",14-12-2012,24-09-2012,5 dias,"Portugal, Setúbal, Barreiro","Artigo 20.º, n.º 1, alínea a) do Código dos Contratos Públicos",31-12-2013,"4.395,00 €",,,,Não aplicável.,Não aplicável.,
AQUISIÇÃO DE COBERTOR P MAQUINA DE AQUECIMENTO E PROTECTOR P TERMOMETRO CLINICO,Ajuste Direto Regime Geral,Aquisição de bens móveis,"33190000-8, Dispositivos e produtos médicos variados","Centro Hospitalar Barreiro Montijo, E. P. E. (509186998)","COVIDIEN PORTUGAL-PROD. SAÚDE, UNIP., LDA (503413410)","44.434,00 €",14-12-2012,24-09-2012,10 dias,"Portugal, Setúbal, Barreiro","Artigo 24.º, n.º 1, alínea e) do Código dos Contratos Públicos","","",,,,Não aplicável.,Não aplicável.,
AQUISIÇÃO DE SONDA CARDÍACA PARA SUBSTITUIÇÃO DE SONDA DANIFICADA,Ajuste Direto Regime Geral,Aquisição de bens móveis,"33182000-9, Material de assistência à função cardíaca","Centro Hospitalar Barreiro Montijo, E. P. E. (509186998)","GENERAL ELECTRIC PORTUGUESA, SA (500357129)","5.945,00 €",14-12-2012,20-09-2012,10 dias,"Portugal, Setúbal, Barreiro","Artigo 24.º, n.º 1, alínea e) do Código dos Contratos Públicos","","",,,,Não aplicável.,Não aplicável.,
AJUDA TÉCNICA - PROTESE TRANSFEMURAL ESQ.,Ajuste Direto Regime Geral,Aquisição de bens móveis<br/>Aquisição de serviços,"33183200-8, Próteses ortopédicas","Centro Hospitalar Barreiro Montijo, E. P. E. (509186998)","ORTODUQUE, LDA. (504022199)","5.150,00 €",13-12-2012,16-10-2012,30 dias,"Portugal, Setúbal, Barreiro","Artigo 20.º, n.º 1, alínea a) do Código dos Contratos Públicos",19-11-2012,"5.150,00 €",,,,Não aplicável.,Não aplicável.,
AQUISIÇÃO DE BATERIAS P/ UPS 12 V / 75 AMPERES,Ajuste Direto Regime Geral,Aquisição de bens móveis,"31711100-4, Componentes electrónicos","Centro Hospitalar Barreiro Montijo, E. P. E. (509186998)","EMERSON NETWORK POWER, LDA. (EX- (503322520)","79.425,00 €",13-12-2012,18-09-2012,1 dias,"Portugal, Setúbal, Barreiro","Artigo 20.º, n.º 1, alínea a) do Código dos Contratos Públicos","","",,,,Não aplicável.,Não aplicável.,
AQUISIÇÃO DE AMPOLA PARA O SISTEMA OBI DO ACELERADOR,Ajuste Direto Regime Geral,Aquisição de bens móveis,"33100000-1, Equipamento médico","Centro Hospitalar Barreiro Montijo, E. P. E. (509186998)",VARIAN - MEDICAL SYSTEMS IBERICA (980236436),"20.641,44 €",13-12-2012,14-11-2012,1 dias,"Portugal, Setúbal, Barreiro","Artigo 24.º, n.º 1, alínea e) do Código dos Contratos Públicos",16-11-2012,"20.641,44 €",,,,Não aplicável.,Não aplicável.,
AQUISIÇÃO DE COMPUTADOR P/MESA DE COMANDO DO TOMOGRAFO,Ajuste Direto Regime Geral,Aquisição de bens móveis,"33115000-9, Aparelhos para tomografia","Centro Hospitalar Barreiro Montijo, E. P. E. (509186998)","GENERAL ELECTRIC PORTUGUESA, SA (500357129)","9.453,23 €",13-12-2012,14-11-2012,7 dias,"Portugal, Setúbal, Barreiro","Artigo 24.º, n.º 1, alínea e) do Código dos Contratos Públicos","","",,,,Não aplicável.,Não aplicável.,
