Objeto do Contrato,Tipo de Procedimento,Tipo(s) de Contrato,CPVs,Entidade(s) Adjudicante(s),Entidade(s) Adjudicatária(s),Preço Contratual,Data de Publicação,Data de Celebração do Contrato,Prazo de Execução,Local de Execução,Fundamentação,Data de Fecho do Contrato,Preço Total Efetivo,Causas das Alterações ao Prazo,Causas das Alterações ao Preço,Estado,N.º registo do Acordo Quadro,Descrição do Acordo Quadro,Procedimento Centralizado
CINACALCET 30 MG COMP - Ajuste Directo Nº 11088017,Ao abrigo de acordo-quadro (art.º 259.º),Aquisição de bens móveis,"33000000-0, Equipamento médico, medicamentos e produtos para cuidados pessoais","Hospital Garcia de Orta, E. P. E. (506361470)","Amgen Biofarmacêutica, Lda (502942959)","14.026,99 €",21-04-2017,11-04-2017,90 dias,"Portugal, Setúbal, Almada",Artigo 259.º do Código dos Contratos Públicos,,,,,,1410779,CP 2015/47 - Acordo quadro para fornecimento de medicamentos do aparelho locomotor às instituições e serviços do serviço nacional de saúde,FALSE
NIFEDIPINA 30 MG COMP CR - Ajuste Directo Nº 11088117,Ajuste Direto Regime Geral,Aquisição de bens móveis,"33000000-0, Equipamento médico, medicamentos e produtos para cuidados pessoais","Hospital Garcia de Orta, E. P. E. (506361470)",BAYER PORTUGAL (500043256),"0,00 €",21-04-2017,07-04-2017,180 dias,"Portugal, Setúbal, Almada",Artigo 258.º do Código dos Contratos Públicos,,,,,,2712438,NIFEDIPINA 30 MG COMP CR,FALSE
VEDOLIZUMAB 300 MG PÓ CONC SOL INJ FR IV - Ajuste Directo Nº 14089717,Ajuste Direto Regime Geral,Aquisição de bens móveis,"33000000-0, Equipamento médico, medicamentos e produtos para cuidados pessoais","Hospital Garcia de Orta, E. P. E. (506361470)","TAKEDA-FARMACEUTICOS PORTUGAL, LDA (502801204)","6.932,00 €",21-04-2017,11-04-2017,365 dias,"Portugal, Setúbal, Almada","Artigo 24.º, n.º 1, alínea e) do Código dos Contratos Públicos",,,,,,Não aplicável.,Não aplicável.,FALSE
DOXORRUBICINA LIPOSSÓMICA PEGUILADA 2 MG/ML SOL INJ FR 10 ML IV - Ajuste Directo Nº 11089917,Ao abrigo de acordo-quadro (art.º 259.º),Aquisição de bens móveis,"33000000-0, Equipamento médico, medicamentos e produtos para cuidados pessoais","Hospital Garcia de Orta, E. P. E. (506361470)","JANSSEN-CILAG FARMACEUTICA, LDA (500189412)","12.673,20 €",21-04-2017,07-04-2017,180 dias,"Portugal, Setúbal, Almada",Artigo 259.º do Código dos Contratos Públicos,,,,,,1771819,CP 2015/6 - Acordo quadro para o fornecimento de Medicamentos do Foro Oncológico,FALSE
INFLIXIMAB 100 MG PÓ CONC SOL INJ FR IV - Ajuste Directo Nº 11091517,Ao abrigo de acordo-quadro (art.º 259.º),Aquisição de bens móveis,"33000000-0, Equipamento médico, medicamentos e produtos para cuidados pessoais","Hospital Garcia de Orta, E. P. E. (506361470)",MERCK SHARP & DHOME LDA. (500191360),"45.325,00 €",21-04-2017,07-04-2017,90 dias,"Portugal, Setúbal, Almada",Artigo 259.º do Código dos Contratos Públicos,,,,,,1771819,CP 2015/6 - Acordo quadro para o fornecimento de Medicamentos do Foro Oncológico,FALSE
LENALIDOMIDA 25 MG CÁPSULA,Ajuste Direto Regime Geral,Aquisição de bens móveis,"33000000-0, Equipamento médico, medicamentos e produtos para cuidados pessoais","Hospital Garcia de Orta, E. P. E. (506361470)",CELGENE SOCIEDADE UNIPESSOAL LDA (507791690),"97.508,50 €",21-04-2017,13-04-2017,365 dias,"Portugal, Setúbal, Almada","Artigo 24.º, n.º 1, alínea e) do Código dos Contratos Públicos",,,,,,Não aplicável.,Não aplicável.,FALSE
ABIRATERONA 250MG  COMP. - Ajuste Directo Nº 11092317,Ao abrigo de acordo-quadro (art.º 259.º),Aquisição de bens móveis,"33000000-0, Equipamento médico, medicamentos e produtos para cuidados pessoais","Hospital Garcia de Orta, E. P. E. (506361470)","JANSSEN-CILAG FARMACEUTICA, LDA (500189412)","60.742,08 €",21-04-2017,13-04-2017,180 dias,"Portugal, Setúbal, Almada",Artigo 259.º do Código dos Contratos Públicos,,,,,,1771819,CP 2015/6 - Acordo quadro para o fornecimento de Medicamentos do Foro Oncológico,FALSE
ACIDO MICOFENÓLICO 360 MG COMP GR - Ajuste Directo Nº 11092417,Ao abrigo de acordo-quadro (art.º 259.º),Aquisição de bens móveis,"33000000-0, Equipamento médico, medicamentos e produtos para cuidados pessoais","Hospital Garcia de Orta, E. P. E. (506361470)","Novartis Farma - Produtos Farmacêuticos, SA (500063524)","6.159,90 €",21-04-2017,11-04-2017,60 dias,"Portugal<BR/>Portugal, Setúbal, Almada",Artigo 259.º do Código dos Contratos Públicos,,,,,,1771819,CP 2015/6 - Acordo quadro para o fornecimento de Medicamentos do Foro Oncológico,FALSE
AZACITIDINA 100 MG PÓ SUSP INJ - Ajuste Directo Nº 14092517,Ajuste Direto Regime Geral,Aquisição de bens móveis,"33000000-0, Equipamento médico, medicamentos e produtos para cuidados pessoais","Hospital Garcia de Orta, E. P. E. (506361470)",CELGENE SOCIEDADE UNIPESSOAL LDA (507791690),"15.930,00 €",21-04-2017,11-04-2017,365 dias,"Portugal, Setúbal, Almada","Artigo 24.º, n.º 1, alínea e) do Código dos Contratos Públicos",,,,,,Não aplicável.,Não aplicável.,FALSE
SECUCINUMAB 150 MG/1 ML SOL INJ CANETA 1 ML SC - Ajuste Directo Nº 14093917,Ajuste Direto Regime Geral,Aquisição de bens móveis,"33000000-0, Equipamento médico, medicamentos e produtos para cuidados pessoais","Hospital Garcia de Orta, E. P. E. (506361470)","Novartis Farma - Produtos Farmacêuticos, SA (500063524)","5.053,86 €",21-04-2017,11-04-2017,365 dias,"Portugal, Setúbal, Almada","Artigo 24.º, n.º 1, alínea e) do Código dos Contratos Públicos",,,,,,Não aplicável.,Não aplicável.,FALSE
VINORELBINA 30 MG CÁPS - Ajuste Directo Nº 11057117,Ao abrigo de acordo-quadro (art.º 259.º),Aquisição de bens móveis,"33000000-0, Equipamento médico, medicamentos e produtos para cuidados pessoais","Hospital Garcia de Orta, E. P. E. (506361470)",PIERRE FABRE MEDICAMENT PORTUGAL LDA (500230366),"53.388,00 €",21-04-2017,08-03-2017,365 dias,"Portugal, Setúbal, Almada",Artigo 259.º do Código dos Contratos Públicos,,,,,,2124520,CP 2016/55 - Medicamentos Diversos,FALSE
TREPROSTINIL SODICO 1 MG/ML AMP 20 ML - Ajuste Directo Nº 11084017,Ao abrigo de acordo-quadro (art.º 259.º),Aquisição de bens móveis,"33000000-0, Equipamento médico, medicamentos e produtos para cuidados pessoais","Hospital Garcia de Orta, E. P. E. (506361470)","Ferrer Portugal, S.A. (500069190)","38.007,36 €",21-04-2017,23-03-2017,365 dias,"Portugal, Setúbal, Almada",Artigo 259.º do Código dos Contratos Públicos,,,,,,1771819,CP 2015/6 - Acordo quadro para o fornecimento de Medicamentos do Foro Oncológico,FALSE
SAQUINAVIR 500 MG COMP- PROCESSO AD-AC-2017 - Ajuste Directo Nº 11084217,Ajuste Direto Regime Geral,Aquisição de bens móveis,"33000000-0, Equipamento médico, medicamentos e produtos para cuidados pessoais","Hospital Garcia de Orta, E. P. E. (506361470)","ROCHE Farmacêutica Quimica, Lda (500233810)","19.202,40 €",21-04-2017,30-03-2017,365 dias,"Portugal, Setúbal, Almada","Artigo 24.º, n.º 1, alínea e) do Código dos Contratos Públicos",,,,,,Não aplicável.,Não aplicável.,FALSE
AFLIBERCEPT / ILOPROST  - Ajuste Directo Nº 11050417,Ao abrigo de acordo-quadro (art.º 259.º),Aquisição de bens móveis,"33000000-0, Equipamento médico, medicamentos e produtos para cuidados pessoais","Hospital Garcia de Orta, E. P. E. (506361470)","BAYER PORTUGAL, SA.                                (500043256)","32.093,76 €",21-04-2017,02-02-2017,365 dias,"Portugal, Setúbal, Almada",Artigo 259.º do Código dos Contratos Públicos,,,,,,1377420,Acordo quadro para fornecimento de medicamentos usados nas afecções oculares e otorrinolaringologias às instituições e serviços do serviço nacional de saúde,FALSE
PLASMA HUMANO DO GRUPO A SOL INJ FR 200 ML IV - Ajuste Directo Nº 14082117,Ajuste Direto Regime Geral,Aquisição de bens móveis,"33000000-0, Equipamento médico, medicamentos e produtos para cuidados pessoais","Hospital Garcia de Orta, E. P. E. (506361470)","OCTAPHARMA-PRODUTOS FARMACEUTICOS, LDA (502820780)","31.237,50 €",21-04-2017,24-03-2017,365 dias,"Portugal, Setúbal, Almada","Artigo 24.º, n.º 1, alínea e) do Código dos Contratos Públicos",,,,,,Não aplicável.,Não aplicável.,FALSE
MATERIAL Á CONSIGNAÇÃO ANGIOGRAFIA / CARDIOLOGIA INTERVENÇÃO - Ajuste Directo Nº 2441946,Ajuste Direto Regime Geral,Aquisição de bens móveis,"33000000-0, Equipamento médico, medicamentos e produtos para cuidados pessoais","Hospital Garcia de Orta, E. P. E. (506361470)",Biotronik Portugal (510726941),"8.250,00 €",20-04-2017,24-10-2016,365 dias,"Portugal, Setúbal, Almada","Artigo 20.º, n.º 1, alínea a) do Código dos Contratos Públicos",,,,,,Não aplicável.,Não aplicável.,FALSE
MATERIAL Á CONSIGNAÇÃO ANGIOGRAFIA / CARDIOLOGIA INTERVENÇÃO - Ajuste Directo Nº 2441946,Ajuste Direto Regime Geral,Aquisição de bens móveis,"33000000-0, Equipamento médico, medicamentos e produtos para cuidados pessoais","Hospital Garcia de Orta, E. P. E. (506361470)",TERUMO EUROPE ESPANHA SL * (980472024),"6.750,00 €",20-04-2017,24-10-2016,365 dias,"Portugal, Setúbal, Almada","Artigo 20.º, n.º 1, alínea a) do Código dos Contratos Públicos",,,,,,Não aplicável.,Não aplicável.,FALSE
MATERIAL Á CONSIGNAÇÃO ANGIOGRAFIA / CARDIOLOGIA INTERVENÇÃO - Ajuste Directo Nº 2441946,Ajuste Direto Regime Geral,Aquisição de bens móveis,"33000000-0, Equipamento médico, medicamentos e produtos para cuidados pessoais","Hospital Garcia de Orta, E. P. E. (506361470)",MEDTRONIC (504223933),"5.500,00 €",20-04-2017,24-10-2016,365 dias,"Portugal, Setúbal, Almada","Artigo 20.º, n.º 1, alínea a) do Código dos Contratos Públicos",,,,,,Não aplicável.,Não aplicável.,FALSE
MATERIAL Á CONSIGNAÇÃO ANGIOGRAFIA / CARDIOLOGIA INTERVENÇÃO - Ajuste Directo Nº 2441946,Ajuste Direto Regime Geral,Aquisição de bens móveis,"33000000-0, Equipamento médico, medicamentos e produtos para cuidados pessoais","Hospital Garcia de Orta, E. P. E. (506361470)","B. Braun Medical, Lda (501506543)","1.500,00 €",20-04-2017,24-10-2016,365 dias,"Portugal, Setúbal, Almada","Artigo 20.º, n.º 1, alínea a) do Código dos Contratos Públicos",,,,,,Não aplicável.,Não aplicável.,FALSE
MATERIAL Á CONSIGNAÇÃO ANGIOGRAFIA / CARDIOLOGIA INTERVENÇÃO - Ajuste Directo Nº 2441946,Ajuste Direto Regime Geral,Aquisição de bens móveis,"33000000-0, Equipamento médico, medicamentos e produtos para cuidados pessoais","Hospital Garcia de Orta, E. P. E. (506361470)","LUSOPALEX, LDA (503531588)","1.500,00 €",20-04-2017,24-10-2016,365 dias,"Portugal, Setúbal, Almada","Artigo 20.º, n.º 1, alínea a) do Código dos Contratos Públicos",,,,,,Não aplicável.,Não aplicável.,FALSE
MATERIAL Á CONSIGNAÇÃO ANGIOGRAFIA / CARDIOLOGIA INTERVENÇÃO - Ajuste Directo Nº 2441946,Ajuste Direto Regime Geral,Aquisição de bens móveis,"33000000-0, Equipamento médico, medicamentos e produtos para cuidados pessoais","Hospital Garcia de Orta, E. P. E. (506361470)","BSC PORTUGAL, LDA. (504988964)","750,00 €",20-04-2017,24-10-2016,365 dias,"Portugal, Setúbal, Almada","Artigo 20.º, n.º 1, alínea a) do Código dos Contratos Públicos",,,,,,Não aplicável.,Não aplicável.,FALSE
MATERIAL Á CONSIGNAÇÃO ANGIOGRAFIA / CARDIOLOGIA INTERVENÇÃO - Ajuste Directo Nº 2441946,Ajuste Direto Regime Geral,Aquisição de bens móveis,"33000000-0, Equipamento médico, medicamentos e produtos para cuidados pessoais","Hospital Garcia de Orta, E. P. E. (506361470)",Abbott Laboratórios (500006148),"2.500,00 €",20-04-2017,24-10-2016,365 dias,"Portugal, Setúbal, Almada","Artigo 20.º, n.º 1, alínea a) do Código dos Contratos Públicos",,,,,,Não aplicável.,Não aplicável.,FALSE
KIT PHACO OPO71 - Ajuste Directo Nº 2414207,Ajuste Direto Regime Geral,Aquisição de bens móveis,"33000000-0, Equipamento médico, medicamentos e produtos para cuidados pessoais","Hospital Garcia de Orta, E. P. E. (506361470)",ABBOTT MEDICAL OPTICS SPAIN S.L. (980262364),"16.800,00 €",19-04-2017,07-04-2017,180 dias,"Portugal, Setúbal, Almada","Artigo 20.º, n.º 1, alínea a) do Código dos Contratos Públicos",,,,,,Não aplicável.,Não aplicável.,FALSE
BATAS / CAMPOS  - Ajuste Directo Nº 2412547,Ajuste Direto Regime Geral,Aquisição de bens móveis,"33000000-0, Equipamento médico, medicamentos e produtos para cuidados pessoais","Hospital Garcia de Orta, E. P. E. (506361470)","LINEAMÉDICA-DISPOSITIVOS MÉDICOS-CIRUGICOS, SA (505148676)","23.809,36 €",19-04-2017,29-03-2017,180 dias,"Portugal, Setúbal, Almada","Artigo 20.º, n.º 1, alínea a) do Código dos Contratos Públicos",,,,,,Não aplicável.,Não aplicável.,FALSE
AQUISIÇÃO DE MATERIAL DIVERSO - Ajuste Directo Nº 2413567,Ajuste Direto Regime Geral,Aquisição de bens móveis,"33000000-0, Equipamento médico, medicamentos e produtos para cuidados pessoais","Hospital Garcia de Orta, E. P. E. (506361470)","MOLNLYCKE HEALTH CARE, LDA. (511101066)","39.118,00 €",19-04-2017,07-04-2017,180 dias,"Portugal, Setúbal, Almada","Artigo 20.º, n.º 1, alínea a) do Código dos Contratos Públicos",,,,,,Não aplicável.,Não aplicável.,FALSE
PAPEL FOTOCOPIA A4 80GR BRANCO - Ajuste Directo Nº 5400937,Ajuste Direto Regime Geral,Aquisição de bens móveis,"22900000-9, Material impresso diverso","Hospital Garcia de Orta, E. P. E. (506361470)","STAPLES PORTUGAL - EQUIP. ESCRITORIO, SA (503789372)","5.152,00 €",19-04-2017,07-04-2017,180 dias,"Portugal, Setúbal, Almada","Artigo 20.º, n.º 1, alínea a) do Código dos Contratos Públicos",,,,,,Não aplicável.,Não aplicável.,FALSE
KIT MICROINCISAO P/ EQUIPAMENTO FACO EMULSIFICADOR - Ajuste Directo Nº 2415987,Ajuste Direto Regime Geral,Aquisição de bens móveis,"33000000-0, Equipamento médico, medicamentos e produtos para cuidados pessoais","Hospital Garcia de Orta, E. P. E. (506361470)",Carl Zeiss Meditec Iberia SA - Suc. Portugal (980503043),"9.180,00 €",18-04-2017,04-04-2017,365 dias,"Portugal, Setúbal, Almada","Artigo 20.º, n.º 1, alínea a) do Código dos Contratos Públicos",,,,,,Não aplicável.,Não aplicável.,FALSE
PACK DE CATARATA ZEISS - Ajuste Directo Nº 2415977,Ajuste Direto Regime Geral,Aquisição de bens móveis,"33000000-0, Equipamento médico, medicamentos e produtos para cuidados pessoais","Hospital Garcia de Orta, E. P. E. (506361470)",Carl Zeiss Meditec Iberia SA - Suc. Portugal (980503043),"6.480,00 €",18-04-2017,11-04-2017,365 dias,"Portugal, Setúbal, Almada","Artigo 20.º, n.º 1, alínea a) do Código dos Contratos Públicos",,,,,,Não aplicável.,Não aplicável.,FALSE
KIT VITRECTOMIA DE ALTA VELOCIDADE 23G / FACA CRESCENTE / AFASTADOR DE IRIS - Ajuste Directo Nº 2415697,Ajuste Direto Regime Geral,Aquisição de bens móveis,"33000000-0, Equipamento médico, medicamentos e produtos para cuidados pessoais","Hospital Garcia de Orta, E. P. E. (506361470)",Alcon Portugal (501251685),"5.182,80 €",18-04-2017,11-04-2017,365 dias,"Portugal, Setúbal, Almada","Artigo 20.º, n.º 1, alínea a) do Código dos Contratos Públicos",,,,,,Não aplicável.,Não aplicável.,FALSE
MASCARA/RESPIRADOR DE PARTICULAS P2 - Ajuste Directo Nº 2440826,Ajuste Direto Regime Geral,Aquisição de bens móveis,"33000000-0, Equipamento médico, medicamentos e produtos para cuidados pessoais","Hospital Garcia de Orta, E. P. E. (506361470)",FACTOR PLUS - PROD. MED. HOSPITALARES (502810645),"8.220,00 €",13-04-2017,07-11-2016,365 dias,"Portugal, Setúbal, Almada","Artigo 20.º, n.º 1, alínea a) do Código dos Contratos Públicos",,,,,,Não aplicável.,Não aplicável.,FALSE
PACK CATARATA C/ KIT PHACO - ALCON - Ajuste Directo Nº 2440526,Ajuste Direto Regime Geral,Aquisição de bens móveis,"33000000-0, Equipamento médico, medicamentos e produtos para cuidados pessoais","Hospital Garcia de Orta, E. P. E. (506361470)","ALCON PORTUGAL-PROD.EQUIP.OFTALM., LDA (501251685)","10.637,28 €",11-04-2017,14-10-2016,365 dias,"Portugal, Setúbal, Almada","Artigo 20.º, n.º 1, alínea a) do Código dos Contratos Públicos",,,,,,Não aplicável.,Não aplicável.,FALSE
PACK CATARATA - ABBOTT - Ajuste Directo Nº 2440496,Ajuste Direto Regime Geral,Aquisição de bens móveis,"33000000-0, Equipamento médico, medicamentos e produtos para cuidados pessoais","Hospital Garcia de Orta, E. P. E. (506361470)","Abbott  Medical Optics Spain, SL - Sucursal em Portugal (980262364)","15.360,00 €",11-04-2017,02-11-2016,120 dias,"Portugal, Setúbal, Almada","Artigo 20.º, n.º 1, alínea a) do Código dos Contratos Públicos",,,,,,Não aplicável.,Não aplicável.,FALSE
