Objeto do Contrato,Tipo de Procedimento,Tipo(s) de Contrato,CPVs,Entidade(s) Adjudicante(s),Entidade(s) Adjudicatária(s),Preço Contratual,Data de Publicação,Data de Celebração do Contrato,Prazo de Execução,Local de Execução,Fundamentação,Data de Fecho do Contrato,Preço Total Efetivo,Causas das Alterações ao Prazo,Causas das Alterações ao Preço,Estado,N.º registo do Acordo Quadro,Descrição do Acordo Quadro,Procedimento Centralizado
MEDICAMENTOS DO APARELHO CARDIOVASCULAR (CP 2014/1 - SPMS),Ao abrigo de acordo-quadro (art.º 259.º),Aquisição de bens móveis,"33600000-6, Produtos farmacêuticos","Centro Hospitalar do Baixo Vouga, E. P. E (CHBV, E. P. E.) (510123210)","MERCK SHARP & DOHME, LDA (500191360), BAYER PORTUGAL, S.A. (500043256), BAXTER MEDICO-FARMACEUTICA, LDA (503347345), HIKMA FARMACEUTICA PORT,LDA (502266791), B.BRAUN MEDICAL, LDA (501506543), LABORATÓRIO MEDINFAR - PRODUTOS FARMACÊUTICOS, S.A. (500384045), AUROVITAS UNIPESSOAL, LDA (513053239), LABORATORIOS PFIZER,LDA (500162166), PHARMAKERN PORTUGAL (507002571), LABESFAL-LAB.ALMIRO,SA (501169580), D.L.A.-FARMACEUTICA,SA (503894427), TECNIMED - SOCIEDADE TECNICO MEDICINAL, S.A. (500626413), ASTRAZENECA - PRODUTOS FARMACÊUTICOS, LDA (502942240), SANOFI - PRODUTOS FARMACÊUTICOS, LDA (500134960), GENERIS FARMACEUTICA, SA (508107997), SIDEFARMA, S.A. - SOCIEDADE INDUSTRIAL DE EXPANSÃO FARMACÊUTICA, LDA (500717419)","29.017,85 €",10-11-2015,30-10-2015,365 dias,"Portugal, Aveiro",Artigo 259.º do Código dos Contratos Públicos,,,,,,1179915,"CONCURSO PÚBLICO PARA A CELEBRAÇÃO DE CONTRATOS PÚBLICOS DE APROVISIONAMENTO PARA A ÁREA DA SAÚDE, COM VISTA AO FORNECIMENTO DE MEDICAMENTOS DO APARELHO CARDIOVASCULAR, ÀS INSTITUIÇÕES E SERVIÇOS DO SERVIÇO NACIONAL DE SAÚDE",FALSE
MEDICAMENTOS EXCLUSIVOS DIVERSOS,Ajuste Direto Regime Geral,Aquisição de bens móveis,"33690000-3, Medicamentos vários","Centro Hospitalar do Baixo Vouga, E.P.E. (510123210)","RATIOPHARM,LDA (502414910)","20.664,00 €",05-11-2015,09-10-2015,1095 dias,"Portugal, Aveiro","Artigo 24.º, n.º 1, alínea e) do Código dos Contratos Públicos",,,,,,Não aplicável.,Não aplicável.,FALSE
MEDICAMENTOS EXCLUSIVOS DIVERSOS,Ajuste Direto Regime Geral,Aquisição de bens móveis,"33690000-3, Medicamentos vários","Centro Hospitalar do Baixo Vouga, E.P.E. (510123210)","LAB.EDOL,PROD.FARMACEUT,S.A. (507072642)","739,80 €",05-11-2015,01-10-2015,1095 dias,"Portugal, Aveiro","Artigo 24.º, n.º 1, alínea e) do Código dos Contratos Públicos",,,,,,Não aplicável.,Não aplicável.,FALSE
MEDICAMENTOS EXCLUSIVOS DIVERSOS,Ajuste Direto Regime Geral,Aquisição de bens móveis,"33690000-3, Medicamentos vários","Centro Hospitalar do Baixo Vouga, E.P.E. (510123210)","LABORATORIOS ATRAL,SA (500162085)","201,60 €",05-11-2015,01-10-2015,1095 dias,"Portugal, Aveiro","Artigo 24.º, n.º 1, alínea e) do Código dos Contratos Públicos",,,,,,Não aplicável.,Não aplicável.,FALSE
MEDICAMENTOS EXCLUSIVOS DIVERSOS,Ajuste Direto Regime Geral,Aquisição de bens móveis,"33690000-3, Medicamentos vários","Centro Hospitalar do Baixo Vouga, E.P.E. (510123210)","GRUNENTHAL,S.A. (500101965)","1.542,00 €",05-11-2015,01-10-2015,1095 dias,"Portugal, Aveiro","Artigo 24.º, n.º 1, alínea e) do Código dos Contratos Públicos",,,,,,Não aplicável.,Não aplicável.,FALSE
MEDICAMENTOS EXCLUSIVOS DIVERSOS,Ajuste Direto Regime Geral,Aquisição de bens móveis,"33690000-3, Medicamentos vários","Centro Hospitalar do Baixo Vouga, E.P.E. (510123210)","ALCON PORTUGAL - PROD. EQ. OFTALMOLOGICOS, LDA (501251685)","1.085,40 €",05-11-2015,01-10-2015,1095 dias,"Portugal, Aveiro","Artigo 24.º, n.º 1, alínea e) do Código dos Contratos Públicos",,,,,,Não aplicável.,Não aplicável.,FALSE
