Objeto do Contrato,Tipo de Procedimento,Tipo(s) de Contrato,CPVs,Entidade(s) Adjudicante(s),Entidade(s) Adjudicatária(s),Preço Contratual,Data de Publicação,Data de Celebração do Contrato,Prazo de Execução,Local de Execução,Fundamentação,Data de Fecho do Contrato,Preço Total Efetivo,Causas das Alterações ao Prazo,Causas das Alterações ao Preço,Estado,N.º registo do Acordo Quadro,Descrição do Acordo Quadro,Procedimento Centralizado
Aquisição de Reagentes,Ajuste Direto Regime Geral,Aquisição de bens móveis,"33696500-0, Reagentes de laboratório","Instituto Nacional de Saúde Dr. Ricardo Jorge, I.P. (501427511)","Specanalitica -Equipamentos Cientificos, Ldª (507350871)","91,60 €",21-12-2011,26-10-2011,20 dias,"Portugal, Lisboa, Lisboa","Artigo 20.º, n.º 1, alínea a) do Código dos Contratos Públicos",,,,,,Não aplicável.,Não aplicável.,
Aquisição de reagentes.,Ajuste Direto Regime Geral,Aquisição de bens móveis,"33696500-0, Reagentes de laboratório","Instituto Nacional de Saúde Dr. Ricardo Jorge, I.P. (501427511)","Izasa Portugal, Lda (501086110)","367,90 €",21-12-2011,05-07-2011,1 dias,"Portugal, Lisboa, Lisboa","Artigo 26.º, n.º 1, alínea b) do Código dos Contratos Públicos",,,,,,Não aplicável.,Não aplicável.,
Aquisição de reagentes.,Ajuste Direto Regime Geral,Aquisição de bens móveis,"33696500-0, Reagentes de laboratório","Instituto Nacional de Saúde Dr. Ricardo Jorge, I.P. (501427511)","VWR International, Lda (503842770)","1.398,32 €",21-12-2011,07-09-2011,5 dias,"Portugal, Lisboa, Lisboa","Artigo 26.º, n.º 1, alínea b) do Código dos Contratos Públicos",,,,,,Não aplicável.,Não aplicável.,
Aquisição de reagentes.,Ajuste Direto Regime Geral,Aquisição de bens móveis,"33696500-0, Reagentes de laboratório","Instituto Nacional de Saúde Dr. Ricardo Jorge, I.P. (501427511)","Alfagene, Lda (503387398)","760,90 €",21-12-2011,28-10-2011,5 dias,"Portugal, Lisboa, Lisboa","Artigo 26.º, n.º 1, alínea b) do Código dos Contratos Públicos",,,,,,Não aplicável.,Não aplicável.,
Aquisição de reagentes.,Ajuste Direto Regime Geral,Aquisição de bens móveis,"33696500-0, Reagentes de laboratório","Instituto Nacional de Saúde Dr. Ricardo Jorge, I.P. (501427511)","Sigma Aldrich Quimica, Lda (A-79184115)","350,00 €",21-12-2011,29-06-2011,5 dias,"Portugal, Lisboa, Lisboa","Artigo 26.º, n.º 1, alínea b) do Código dos Contratos Públicos",,,,,,Não aplicável.,Não aplicável.,
Aquisição de reagentes.,Ajuste Direto Regime Geral,Aquisição de bens móveis,"33696500-0, Reagentes de laboratório","Instituto Nacional de Saúde Dr. Ricardo Jorge, I.P. (501427511)","Alfagene, Lda (503387398)","245,90 €",21-12-2011,09-11-2011,5 dias,"Portugal, Lisboa, Lisboa","Artigo 24.º, n.º 1, alínea b) do Código dos Contratos Públicos",,,,,,Não aplicável.,Não aplicável.,
Aquisição de material de laboratório.,Ajuste Direto Regime Geral,Aquisição de bens móveis,"33140000-3, Material médico de consumo","Instituto Nacional de Saúde Dr. Ricardo Jorge, I.P. (501427511)","Bio-Rad Laboratories, Lda (501301321)","323,20 €",21-12-2011,09-11-2011,30 dias,"Portugal, Lisboa, Lisboa","Artigo 26.º, n.º 1, alínea b) do Código dos Contratos Públicos",,,,,,Não aplicável.,Não aplicável.,
Aquisição de reagentes.,Ajuste Direto Regime Geral,Aquisição de bens móveis,"33696500-0, Reagentes de laboratório","Instituto Nacional de Saúde Dr. Ricardo Jorge, I.P. (501427511)","Grupo Taper, Lda (506886336)","627,00 €",21-12-2011,09-11-2011,8 dias,"Portugal, Lisboa, Lisboa","Artigo 26.º, n.º 1, alínea b) do Código dos Contratos Públicos",,,,,,Não aplicável.,Não aplicável.,
Aquisição de reagentes.,Ajuste Direto Regime Geral,Aquisição de bens móveis,"33696500-0, Reagentes de laboratório","Instituto Nacional de Saúde Dr. Ricardo Jorge, I.P. (501427511)","PVL, Lda (501411852)","31,80 €",21-12-2011,09-11-2011,1 dias,"Portugal, Lisboa, Lisboa","Artigo 26.º, n.º 1, alínea b) do Código dos Contratos Públicos",,,,,,Não aplicável.,Não aplicável.,
Aquisição de Reagentes,Ajuste Direto Regime Geral,Aquisição de bens móveis,"33696500-0, Reagentes de laboratório","Instituto Nacional de Saúde Dr. Ricardo Jorge, I.P. (501427511)","Labocontrole-Equipamentos Cientificos e de Laboratório, Ldª (501872329)","461,52 €",21-12-2011,26-10-2011,20 dias,"Portugal, Lisboa, Lisboa","Artigo 20.º, n.º 1, alínea a) do Código dos Contratos Públicos",,,,,,Não aplicável.,Não aplicável.,
Aquisição de reagentes.,Ajuste Direto Regime Geral,Aquisição de bens móveis,"33696500-0, Reagentes de laboratório","Instituto Nacional de Saúde Dr. Ricardo Jorge, I.P. (501427511)","Alfagene, Lda (503387398)","900,00 €",21-12-2011,09-11-2011,5 dias,"Portugal, Lisboa, Lisboa","Artigo 26.º, n.º 1, alínea b) do Código dos Contratos Públicos",,,,,,Não aplicável.,Não aplicável.,
Aquisição de reagentes.,Ajuste Direto Regime Geral,Aquisição de bens móveis,"33696500-0, Reagentes de laboratório","Instituto Nacional de Saúde Dr. Ricardo Jorge, I.P. (501427511)","Sigma Aldrich Quimica, Lda (A-79184115)","473,30 €",21-12-2011,09-11-2011,5 dias,"Portugal, Lisboa, Lisboa","Artigo 26.º, n.º 1, alínea b) do Código dos Contratos Públicos",,,,,,Não aplicável.,Não aplicável.,
Aquisição de Reagentes,Ajuste Direto Regime Geral,Aquisição de bens móveis,"33696500-0, Reagentes de laboratório","Instituto Nacional de Saúde Dr. Ricardo Jorge, I.P. (501427511)","Iberlab & Imunoreage -Soluções para Laboratorio, Ldª (503406694)","992,88 €",21-12-2011,18-11-2011,20 dias,"Portugal, Lisboa, Lisboa","Artigo 20.º, n.º 1, alínea a) do Código dos Contratos Públicos",,,,,,Não aplicável.,Não aplicável.,
Reparação de cromatógrafo.,Ajuste Direto Regime Geral,Aquisição de serviços,"50530000-9, Serviços de reparação e manutenção de máquinas","Instituto Nacional de Saúde Dr. Ricardo Jorge, I.P. (501427511)","Via Athena - Gestão de Laboratórios, Lda (502272570)","679,00 €",21-12-2011,29-11-2010,10 dias,"Portugal, Lisboa, Lisboa","Artigo 20.º, n.º 1, alínea a) do Código dos Contratos Públicos",,,,,,Não aplicável.,Não aplicável.,
Reparação de sistemas de estufas de CO2.,Ajuste Direto Regime Geral,Aquisição de serviços,"50530000-9, Serviços de reparação e manutenção de máquinas","Instituto Nacional de Saúde Dr. Ricardo Jorge, I.P. (501427511)","Certilab, Lda (505403013)","3.647,40 €",21-12-2011,24-02-2010,45 dias,"Portugal, Lisboa, Lisboa","Artigo 20.º, n.º 1, alínea a) do Código dos Contratos Públicos",,,,,,Não aplicável.,Não aplicável.,
Aquisição de Reagentes,Ajuste Direto Regime Geral,Aquisição de bens móveis,"33696500-0, Reagentes de laboratório","Instituto Nacional de Saúde Dr. Ricardo Jorge, I.P. (501427511)","Ambergo-Estudos e Equipamentos de Controlo Ambiental, Ldª (503741353)","60,00 €",21-12-2011,26-10-2011,1 dias,"Portugal, Lisboa, Lisboa","Artigo 20.º, n.º 1, alínea a) do Código dos Contratos Públicos",,,,,,Não aplicável.,Não aplicável.,
Aquisição de reagentes.,Ajuste Direto Regime Geral,Aquisição de bens móveis,"33696500-0, Reagentes de laboratório","Instituto Nacional de Saúde Dr. Ricardo Jorge, I.P. (501427511)","Sigma Aldrich Quimica, Lda (A-79184115)","125,60 €",21-12-2011,28-10-2011,5 dias,"Portugal, Lisboa, Lisboa","Artigo 26.º, n.º 1, alínea b) do Código dos Contratos Públicos",,,,,,Não aplicável.,Não aplicável.,
Aquisição de reagentes.,Ajuste Direto Regime Geral,Aquisição de bens móveis,"33696500-0, Reagentes de laboratório","Instituto Nacional de Saúde Dr. Ricardo Jorge, I.P. (501427511)","Roche Sistemas de Diagnósticos, Lda (504282921)","1.053,80 €",21-12-2011,22-11-2011,5 dias,"Portugal, Lisboa, Lisboa","Artigo 24.º, n.º 1, alínea e) do Código dos Contratos Públicos",,,,,,Não aplicável.,Não aplicável.,
Aquisição de reagentes.,Ajuste Direto Regime Geral,Aquisição de bens móveis,"33696500-0, Reagentes de laboratório","Instituto Nacional de Saúde Dr. Ricardo Jorge, I.P. (501427511)","Izasa Portugal, Lda (501086110)","1.115,85 €",21-12-2011,17-11-2011,2 dias,"Portugal, Lisboa, Lisboa","Artigo 24.º, n.º 1, alínea e) do Código dos Contratos Públicos",,,,,,Não aplicável.,Não aplicável.,
Aquisição de reagentes.,Ajuste Direto Regime Geral,Aquisição de bens móveis,"33696500-0, Reagentes de laboratório","Instituto Nacional de Saúde Dr. Ricardo Jorge, I.P. (501427511)","VWR International, Lda (503842770)","3.226,10 €",21-12-2011,11-11-2011,7 dias,"Portugal, Lisboa, Lisboa","Artigo 26.º, n.º 1, alínea b) do Código dos Contratos Públicos",,,,,,Não aplicável.,Não aplicável.,
Aquisição de reagentes.,Ajuste Direto Regime Geral,Aquisição de bens móveis,"33696500-0, Reagentes de laboratório","Instituto Nacional de Saúde Dr. Ricardo Jorge, I.P. (501427511)","Grifols, Lda (502041285)","1.600,00 €",21-12-2011,17-08-2011,5 dias,"Portugal, Lisboa, Lisboa","Artigo 26.º, n.º 1, alínea b) do Código dos Contratos Públicos",,,,,,Não aplicável.,Não aplicável.,
Aquisição de reagentes.,Ajuste Direto Regime Geral,Aquisição de bens móveis,"33696500-0, Reagentes de laboratório","Instituto Nacional de Saúde Dr. Ricardo Jorge, I.P. (501427511)","Bioportugal, Lda (502380543)","6.070,00 €",21-12-2011,21-11-2011,8 dias,"Portugal, Porto, Porto<BR/>Portugal, Lisboa, Lisboa","Artigo 20.º, n.º 1, alínea a) do Código dos Contratos Públicos",,,,,,Não aplicável.,Não aplicável.,
Aquisição de material de laboratório.,Ajuste Direto Regime Geral,Aquisição de bens móveis,"33140000-3, Material médico de consumo","Instituto Nacional de Saúde Dr. Ricardo Jorge, I.P. (501427511)","VWR International, Lda (503842770)","5.656,10 €",21-12-2011,29-11-2011,3 dias,"Portugal, Porto, Porto","Artigo 20.º, n.º 1, alínea a) do Código dos Contratos Públicos",,,,,,Não aplicável.,Não aplicável.,
Aquisição Reagentes,Ajuste Direto Regime Geral,Aquisição de bens móveis,"33696500-0, Reagentes de laboratório","Instituto Nacional de Saúde Dr. Ricardo Jorge, I.P. (501427511)","Biomerieux Portugal, Ldª (501524177)","6.583,80 €",20-12-2011,10-11-2011,1 dias,"Portugal, Lisboa, Lisboa","Artigo 24.º, n.º 1, alínea b) do Código dos Contratos Públicos",,,,,,Não aplicável.,Não aplicável.,
Aquisição de Reagentes,Ajuste Direto Regime Geral,Aquisição de bens móveis,"33696500-0, Reagentes de laboratório","Instituto Nacional de Saúde Dr. Ricardo Jorge, I.P. (501427511)","Ambifood-Representações de Produtos Laboratoriais, Ldª (505400057)","236,50 €",20-12-2011,12-09-2011,2 dias,"Portugal, Lisboa, Lisboa","Artigo 20.º, n.º 1, alínea a) do Código dos Contratos Públicos",,,,,,Não aplicável.,Não aplicável.,
Aquisição de Reagentes,Ajuste Direto Regime Geral,Aquisição de bens móveis,"33696500-0, Reagentes de laboratório","Instituto Nacional de Saúde Dr. Ricardo Jorge, I.P. (501427511)","Immucor (Portugal)-Diagnósticos Médicos, Ldª (503007358)","81,69 €",20-12-2011,02-11-2011,5 dias,"Portugal, Lisboa, Lisboa","Artigo 20.º, n.º 1, alínea a) do Código dos Contratos Públicos",,,,,,Não aplicável.,Não aplicável.,
Aquisição de Reagentes,Ajuste Direto Regime Geral,Aquisição de bens móveis,"33696500-0, Reagentes de laboratório","Instituto Nacional de Saúde Dr. Ricardo Jorge, I.P. (501427511)","Grupo Taper - Equipamentoa de Precisão Cientifica, Ldª (506886336)","1.100,00 €",20-12-2011,26-10-2011,8 dias,"Portugal, Lisboa, Lisboa","Artigo 20.º, n.º 1, alínea a) do Código dos Contratos Públicos",,,,,,Não aplicável.,Não aplicável.,
FORNECIMENTO DE UMA PLACA DE COMANDO PARA AR CONDICIONADO,Ajuste Direto Regime Geral,Aquisição de bens móveis,"42512500-3, Peças para aparelhos de ar condicionado","Instituto Nacional de Saúde Dr. Ricardo Jorge, I.P. (501427511)","Certifiltra Manutenção de Ar Condicionado, Lda (504185861)","434,45 €",20-12-2011,09-12-2011,8 dias,"Portugal, Lisboa, Lisboa","Artigo 24.º, n.º 1, alínea e) do Código dos Contratos Públicos",,,,,,Não aplicável.,Não aplicável.,
Aquisição de material de laboratório.,Ajuste Direto Regime Geral,Aquisição de bens móveis,"33140000-3, Material médico de consumo","Instituto Nacional de Saúde Dr. Ricardo Jorge, I.P. (501427511)","PVL, Lda (501411852)","381,60 €",20-12-2011,29-06-2011,1 dias,"Portugal, Lisboa, Lisboa","Artigo 26.º, n.º 1, alínea b) do Código dos Contratos Públicos",,,,,,Não aplicável.,Não aplicável.,
Aquisição de reagentes.,Ajuste Direto Regime Geral,Aquisição de bens móveis,"33696500-0, Reagentes de laboratório","Instituto Nacional de Saúde Dr. Ricardo Jorge, I.P. (501427511)","Roche Sistemas de Diagnósticos, Lda (504282921)","176,00 €",20-12-2011,05-07-2011,5 dias,"Portugal, Lisboa, Lisboa","Artigo 26.º, n.º 1, alínea b) do Código dos Contratos Públicos",,,,,,Não aplicável.,Não aplicável.,
Aquisição de material de laboratório.,Ajuste Direto Regime Geral,Aquisição de bens móveis,"33140000-3, Material médico de consumo","Instituto Nacional de Saúde Dr. Ricardo Jorge, I.P. (501427511)","Vidrolab 2, SA (501450629)","240,15 €",20-12-2011,03-08-2011,20 dias,"Portugal, Porto, Porto","Artigo 24.º, n.º 1, alínea a) do Código dos Contratos Públicos",,,,,,Não aplicável.,Não aplicável.,
Aquisição de reagentes.,Ajuste Direto Regime Geral,Aquisição de bens móveis,"33696500-0, Reagentes de laboratório","Instituto Nacional de Saúde Dr. Ricardo Jorge, I.P. (501427511)","Bio-Rad Laboratories, Lda (501301321)","441,60 €",20-12-2011,23-11-2011,30 dias,"Portugal, Lisboa, Lisboa","Artigo 26.º, n.º 1, alínea b) do Código dos Contratos Públicos",,,,,,Não aplicável.,Não aplicável.,
Aquisição de material de laboratório.,Ajuste Direto Regime Geral,Aquisição de bens móveis,"24930000-2, Substâncias químicas para fotografia","Instituto Nacional de Saúde Dr. Ricardo Jorge, I.P. (501427511)","Give Me Options, Lda (508587271)","829,80 €",20-12-2011,19-07-2011,1 dias,"Portugal, Lisboa, Lisboa","Artigo 20.º, n.º 1, alínea a) do Código dos Contratos Públicos",,,,,,Não aplicável.,Não aplicável.,
Aquisição de Reagentes,Ajuste Direto Regime Geral,Aquisição de bens móveis,"33696500-0, Reagentes de laboratório","Instituto Nacional de Saúde Dr. Ricardo Jorge, I.P. (501427511)","Roche Sistemas de Diagnosticos, Ldª (504282921)","116,00 €",20-12-2011,26-10-2011,5 dias,"Portugal, Lisboa, Lisboa","Artigo 20.º, n.º 1, alínea a) do Código dos Contratos Públicos",,,,,,Não aplicável.,Não aplicável.,
Aquisição de reagentes.,Ajuste Direto Regime Geral,Aquisição de bens móveis,"33696500-0, Reagentes de laboratório","Instituto Nacional de Saúde Dr. Ricardo Jorge, I.P. (501427511)","Labocontrole, Lda (501872329)","206,00 €",20-12-2011,02-06-2011,30 dias,"Portugal, Porto, Porto","Artigo 24.º, n.º 1, alínea a) do Código dos Contratos Públicos",,,,,,Não aplicável.,Não aplicável.,
Aquisição de reagentes.,Ajuste Direto Regime Geral,Aquisição de bens móveis,"33696500-0, Reagentes de laboratório","Instituto Nacional de Saúde Dr. Ricardo Jorge, I.P. (501427511)","Via Athena, Lda (502272570)","3.827,00 €",20-12-2011,08-06-2011,10 dias,"Portugal, Lisboa, Lisboa","Artigo 24.º, n.º 1, alínea a) do Código dos Contratos Públicos",,,,,,Não aplicável.,Não aplicável.,
Aquisição de reagentes.,Ajuste Direto Regime Geral,Aquisição de bens móveis,"33696500-0, Reagentes de laboratório","Instituto Nacional de Saúde Dr. Ricardo Jorge, I.P. (501427511)","Hach-Lange, Lda (507155165)","13.640,95 €",20-12-2011,06-06-2011,30 dias,"Portugal, Porto, Porto<BR/>Portugal, Lisboa, Lisboa","Artigo 24.º, n.º 1, alínea a) do Código dos Contratos Públicos",,,,,,Não aplicável.,Não aplicável.,
Aquisição de material de laboratório.,Ajuste Direto Regime Geral,Aquisição de bens móveis,"33140000-3, Material médico de consumo","Instituto Nacional de Saúde Dr. Ricardo Jorge, I.P. (501427511)","JCM Representações, Lda (502099330)","2.470,28 €",20-12-2011,25-02-2011,20 dias,"Portugal, Lisboa, Lisboa","Artigo 20.º, n.º 1, alínea a) do Código dos Contratos Públicos",,,,,,Não aplicável.,Não aplicável.,
Aquisição de reagentes.,Ajuste Direto Regime Geral,Aquisição de bens móveis,"33696500-0, Reagentes de laboratório","Instituto Nacional de Saúde Dr. Ricardo Jorge, I.P. (501427511)","Bio-Rad Laboratories, Lda (501301321)","10.097,82 €",20-12-2011,27-04-2011,10 dias,"Portugal, Lisboa, Lisboa","Artigo 24.º, n.º 1, alínea e) do Código dos Contratos Públicos",,,,,,Não aplicável.,Não aplicável.,
Aquisição de Lâmpadas UV Vilber Loumat,Ajuste Direto Regime Geral,Aquisição de bens móveis,"31515000-9, Lâmpadas de raios ultravioleta","Instituto Nacional de Saúde Dr. Ricardo Jorge, I.P. (501427511)","Reagente 5-Quimica e Electronica, Ldª (501194053)","380,00 €",19-12-2011,20-10-2011,30 dias,"Portugal, Lisboa, Lisboa","Artigo 20.º, n.º 1, alínea a) do Código dos Contratos Públicos",,,,,,Não aplicável.,Não aplicável.,
"Aquisição de fibras, bastidor",Ajuste Direto Regime Geral,Aquisição de bens móveis,"32500000-8, Equipamento e material para telecomunicações","Instituto Nacional de Saúde Dr. Ricardo Jorge, I.P. (501427511)","Instalfone Instalações Telefónicas, Ldª (502843683)","6.494,29 €",19-12-2011,24-10-2011,7 dias,"Portugal, Lisboa, Lisboa","Artigo 20.º, n.º 1, alínea a) do Código dos Contratos Públicos",,,,,,Não aplicável.,Não aplicável.,
Aqusição de Serviços Técnicos Especializados de Apoio ao Programa de Modernização Administarativa,Ajuste Direto Regime Geral,Aquisição de serviços,"72224000-1, Serviços de consultoria em gestão de projectos","Instituto Nacional de Saúde Dr. Ricardo Jorge, I.P. (501427511)","No Limits Consulting, S.A. (505581477)","69.400,00 €",16-12-2011,12-10-2011,40 dias,"Portugal, Lisboa, Lisboa","Artigo 20.º, n.º 4 do Código dos Contratos Públicos",,,,,,Não aplicável.,Não aplicável.,
FORNECIMENTO E INSTALAÇÃO DE 5 FILTROS DE ALTA EFICIÊNCIA DE UNIDADE CLIMATIZADORA.,Ajuste Direto Regime Geral,Aquisição de bens móveis,"42514310-8, Filtros de ar","Instituto Nacional de Saúde Dr. Ricardo Jorge, I.P. (501427511)","CERTIFILTRA MANUTENÇÃO DE AR CONDICIONADO, LDA (504185861)","687,97 €",16-12-2011,28-11-2011,7 dias,"Portugal, Lisboa, Lisboa","Artigo 24.º, n.º 1, alínea e) do Código dos Contratos Públicos",,,,,,Não aplicável.,Não aplicável.,
Fornecimento e montagem de Equipamento ar condicionado,Ajuste Direto Regime Geral,Aquisição de bens móveis,"42512300-1, Sistemas de aquecimento, ventilação e ar condicionado","Instituto Nacional de Saúde Dr. Ricardo Jorge, I.P. (501427511)","Sorjeclima, Montagens e Reparações, Ldª (508565839)","5.875,00 €",16-12-2011,20-07-2011,30 dias,"Portugal, Lisboa, Lisboa","Artigo 20.º, n.º 1, alínea a) do Código dos Contratos Públicos",,,,,,Não aplicável.,Não aplicável.,
Aquisição de régua de energia electrica e fichas monobloco,Ajuste Direto Regime Geral,Aquisição de bens móveis,"31681410-0, Materiais eléctricos","Instituto Nacional de Saúde Dr. Ricardo Jorge, I.P. (501427511)","Instalfone -Instalações Telefónicas, Ldª (502843683)","154,02 €",16-12-2011,21-07-2011,7 dias,"Portugal, Lisboa, Lisboa","Artigo 20.º, n.º 1, alínea a) do Código dos Contratos Públicos",,,,,,Não aplicável.,Não aplicável.,
Aquisição de 5 impressoras HP Office 6000,Ajuste Direto Regime Geral,Aquisição de bens móveis,"30230000-0, Equipamento informático","Instituto Nacional de Saúde Dr. Ricardo Jorge, I.P. (501427511)","TPI-Services, Ldª (509757650)","374,50 €",16-12-2011,21-07-2011,7 dias,"Portugal, Lisboa, Lisboa","Artigo 20.º, n.º 1, alínea a) do Código dos Contratos Públicos",,,,,,Não aplicável.,Não aplicável.,
Aquisição de Reagentes,Ajuste Direto Regime Geral,Aquisição de bens móveis,"33696500-0, Reagentes de laboratório","Instituto Nacional de Saúde Dr. Ricardo Jorge, I.P. (501427511)","Tecnilab Portugal-Sociedade de Planeamento Tecnico e Cientifico, S.A. (500758158)","166,15 €",15-12-2011,26-10-2011,20 dias,"Portugal, Lisboa, Lisboa","Artigo 20.º, n.º 1, alínea a) do Código dos Contratos Públicos",,,,,,Não aplicável.,Não aplicável.,
Aquisição de Reagentes,Ajuste Direto Regime Geral,Aquisição de bens móveis,"33696500-0, Reagentes de laboratório","Instituto Nacional de Saúde Dr. Ricardo Jorge, I.P. (501427511)","Immucor(Portugal)-Diagnósticos Médicos, Ldª (503007358)","890,54 €",15-12-2011,26-10-2011,1 dias,"Portugal, Lisboa, Lisboa","Artigo 20.º, n.º 1, alínea a) do Código dos Contratos Públicos",,,,,,Não aplicável.,Não aplicável.,
PRESTAÇÃO DE SERVIÇO DA UNIDADE CLIMATIZADORA,Ajuste Direto Regime Geral,Aquisição de serviços,"50800000-3, Serviços de reparação e manutenção diversos","Instituto Nacional de Saúde Dr. Ricardo Jorge, I.P. (501427511)","CERTIFILTRA, LDA (504185861)","708,52 €",15-12-2011,14-11-2011,7 dias,"Portugal, Lisboa, Lisboa","Artigo 24.º, n.º 1, alínea e) do Código dos Contratos Públicos",,,,,,Não aplicável.,Não aplicável.,
Aquisição de reagentes,Ajuste Direto Regime Geral,Aquisição de bens móveis,"33696500-0, Reagentes de laboratório","Instituto Nacional de Saúde Dr. Ricardo Jorge, I.P. (501427511)","Hach Lange, Ldª (507155165)","807,34 €",15-12-2011,31-10-2011,7 dias,"Portugal, Lisboa, Lisboa","Artigo 20.º, n.º 1, alínea a) do Código dos Contratos Públicos",,,,,,Não aplicável.,Não aplicável.,
Aquisição de Reagentes para investigação cientifica,Ajuste Direto Regime Geral,Aquisição de bens móveis,"33696500-0, Reagentes de laboratório","Instituto Nacional de Saúde Dr. Ricardo Jorge, I.P. (501427511)","Bioportugal- Quimico e Farmacêutica, Ldª (502380543)","4.420,00 €",15-12-2011,26-10-2011,5 dias,"Portugal, Lisboa, Lisboa","Artigo 26.º, n.º 1, alínea b) do Código dos Contratos Públicos",,,,,,Não aplicável.,Não aplicável.,
AQUISIÇÃO DE 1 CONGELADOR VERTICAL E 1 FRIGORÍFICO/CONGELADOR,Ajuste Direto Regime Geral,Aquisição de bens móveis,"42513000-5, Equipamento de refrigeração e congelação","Instituto Nacional de Saúde Dr. Ricardo Jorge, I.P. (501427511)","VWR INTERNATIONAL, LDA (503842770)","1.900,00 €",15-12-2011,17-08-2011,15 dias,"Portugal, Lisboa, Lisboa","Artigo 20.º, n.º 1, alínea a) do Código dos Contratos Públicos",,,,,,Não aplicável.,Não aplicável.,
Aquisição de Reagentes para investigação cientifica,Ajuste Direto Regime Geral,Aquisição de bens móveis,"33696500-0, Reagentes de laboratório","Instituto Nacional de Saúde Dr. Ricardo Jorge, I.P. (501427511)","Baptista Marques - Diagnostica e Reagentes, Ldª (501439110)","1.789,00 €",15-12-2011,26-10-2011,8 dias,"Portugal, Lisboa, Lisboa","Artigo 26.º, n.º 1, alínea b) do Código dos Contratos Públicos",,,,,,Não aplicável.,Não aplicável.,
Aquisição de Reagentes,Ajuste Direto Regime Geral,Aquisição de bens móveis,"33696500-0, Reagentes de laboratório","Instituto Nacional de Saúde Dr. Ricardo Jorge, I.P. (501427511)","Bioportugal Quimico Farmacêutica, Ldº (502380543)","54,00 €",15-12-2011,02-11-2011,15 dias,"Portugal, Lisboa, Lisboa","Artigo 24.º, n.º 1, alínea b) do Código dos Contratos Públicos",,,,,,Não aplicável.,Não aplicável.,
Aquisição de Reagentes,Ajuste Direto Regime Geral,Aquisição de bens móveis,"33696500-0, Reagentes de laboratório","Instituto Nacional de Saúde Dr. Ricardo Jorge, I.P. (501427511)","Sigma Aldrich Quimica, S.A. (A-79184115)","910,30 €",15-12-2011,31-10-2011,5 dias,"Portugal, Lisboa, Lisboa","Artigo 24.º, n.º 1, alínea a) do Código dos Contratos Públicos",,,,,,Não aplicável.,Não aplicável.,
Aquisição de Reagentes,Ajuste Direto Regime Geral,Aquisição de bens móveis,"33696500-0, Reagentes de laboratório","Instituto Nacional de Saúde Dr. Ricardo Jorge, I.P. (501427511)","Tecnilab Portugal-Sociedade de Planeamento Técnico e Científico, S.A. (500758158)","1.542,21 €",14-12-2011,02-11-2011,15 dias,"Portugal, Lisboa, Lisboa","Artigo 24.º, n.º 1, alínea b) do Código dos Contratos Públicos",,,,,,Não aplicável.,Não aplicável.,
Aquisição de Reagentes,Ajuste Direto Regime Geral,Aquisição de bens móveis,"33696500-0, Reagentes de laboratório","Instituto Nacional de Saúde Dr. Ricardo Jorge, I.P. (501427511)","VWR-International Material de Laboratório, Ldª (503842770)","124,23 €",14-12-2011,02-11-2011,5 dias,"Portugal, Lisboa, Lisboa","Artigo 24.º, n.º 1, alínea a) do Código dos Contratos Públicos",,,,,,Não aplicável.,Não aplicável.,
Aquisição de Reagentes,Ajuste Direto Regime Geral,Aquisição de bens móveis,"33696500-0, Reagentes de laboratório","Instituto Nacional de Saúde Dr. Ricardo Jorge, I.P. (501427511)","Bio-Rad Laboratories, Ldª (501301321)","264,80 €",14-12-2011,31-10-2011,15 dias,"Portugal, Lisboa, Lisboa","Artigo 24.º, n.º 1, alínea a) do Código dos Contratos Públicos",,,,,,Não aplicável.,Não aplicável.,
Aquisição de Reagentes,Ajuste Direto Regime Geral,Aquisição de bens móveis,"33696500-0, Reagentes de laboratório","Instituto Nacional de Saúde Dr. Ricardo Jorge, I.P. (501427511)","Interface-Equipamento e Técnica, Ldª (501379860)","338,50 €",14-12-2011,31-10-2011,60 dias,"Portugal, Lisboa, Lisboa","Artigo 24.º, n.º 1, alínea b) do Código dos Contratos Públicos",,,,,,Não aplicável.,Não aplicável.,
Aquisição de Reagentes,Ajuste Direto Regime Geral,Aquisição de bens móveis,"33696500-0, Reagentes de laboratório","Instituto Nacional de Saúde Dr. Ricardo Jorge, I.P. (501427511)","Biomérieux Portugal-Aparelhos e Reagentes de Laboratório, ldª (501524177)","156,60 €",14-12-2011,09-09-2011,1 dias,"Portugal, Lisboa, Lisboa","Artigo 26.º, n.º 1, alínea b) do Código dos Contratos Públicos",,,,,,Não aplicável.,Não aplicável.,
Aquisição de Reagentes,Ajuste Direto Regime Geral,Aquisição de bens móveis,"33696500-0, Reagentes de laboratório","Instituto Nacional de Saúde Dr. Ricardo Jorge, I.P. (501427511)","VWR International-Material de Laboratório, Ldª (503842770)","507,60 €",14-12-2011,31-10-2011,15 dias,"Portugal, Lisboa, Lisboa","Artigo 24.º, n.º 1, alínea b) do Código dos Contratos Públicos",,,,,,Não aplicável.,Não aplicável.,
Aquisição de Reagentes,Ajuste Direto Regime Geral,Aquisição de bens móveis,"33696500-0, Reagentes de laboratório","Instituto Nacional de Saúde Dr. Ricardo Jorge, I.P. (501427511)","Prestifarma-Diagnostico e Produtos Farmacéuticos de Venda Livre, Ldª (503474517)","224,00 €",14-12-2011,02-11-2011,5 dias,"Portugal, Lisboa, Lisboa","Artigo 24.º, n.º 1, alínea b) do Código dos Contratos Públicos",,,,,,Não aplicável.,Não aplicável.,
Aquisição Reagentes,Ajuste Direto Regime Geral,Aquisição de bens móveis,"33696500-0, Reagentes de laboratório","Instituto Nacional de Saúde Dr. Ricardo Jorge, I.P. (501427511)","Sigma-Aldrich Quimica, S.A. (A-79184115)","220,00 €",14-12-2011,01-08-2011,5 dias,"Portugal, Lisboa, Lisboa","Artigo 24.º, n.º 1, alínea b) do Código dos Contratos Públicos",,,,,,Não aplicável.,Não aplicável.,
Aquisição de reagentes,Ajuste Direto Regime Geral,Aquisição de bens móveis,"33696500-0, Reagentes de laboratório","Instituto Nacional de Saúde Dr. Ricardo Jorge, I.P. (501427511)","Labometer - Sociedade Tecnica Equipamentos de Laboratorio, Ldª (500609160)","274,00 €",14-12-2011,01-08-2011,45 dias,"Portugal, Lisboa, Lisboa","Artigo 24.º, n.º 1, alínea b) do Código dos Contratos Públicos",,,,,,Não aplicável.,Não aplicável.,
aquisição de Reagentes,Ajuste Direto Regime Geral,Aquisição de bens móveis,"33696500-0, Reagentes de laboratório","Instituto Nacional de Saúde Dr. Ricardo Jorge, I.P. (501427511)","Quilaban - Quimica Laboratorial Analitica, Ldª (500399670)","3.038,07 €",14-12-2011,08-08-2011,2 dias,"Portugal, Lisboa, Lisboa","Artigo 24.º, n.º 1, alínea b) do Código dos Contratos Públicos",,,,,,Não aplicável.,Não aplicável.,
Aquisição de reagentes,Ajuste Direto Regime Geral,Aquisição de bens móveis,"33696500-0, Reagentes de laboratório","Instituto Nacional de Saúde Dr. Ricardo Jorge, I.P. (501427511)",Iberlab & Imunoreage (503406694),"713,74 €",14-12-2011,08-08-2011,8 dias,"Portugal, Lisboa, Lisboa","Artigo 24.º, n.º 1, alínea b) do Código dos Contratos Públicos",,,,,,Não aplicável.,Não aplicável.,
Reagentes,Ajuste Direto Regime Geral,Aquisição de bens móveis,"33696500-0, Reagentes de laboratório","Instituto Nacional de Saúde Dr. Ricardo Jorge, I.P. (501427511)","Quilaban, Ldª - Quimica Laboratorial Analitica, Ldª (500399670)","1.878,75 €",13-12-2011,08-08-2011,2 dias,"Portugal, Lisboa, Lisboa","Artigo 24.º, n.º 1, alínea b) do Código dos Contratos Públicos",,,,,,Não aplicável.,Não aplicável.,
Contrato de Manutenção para Autoclaves,Ajuste Direto Regime Geral,Aquisição de serviços,"50800000-3, Serviços de reparação e manutenção diversos","Instituto Nacional de Saúde Dr. Ricardo Jorge, I.P. (501427511)","A,J,COSTA, (Irmãos),Lda (500002576)","9.545,00 €",13-12-2011,07-11-2011,365 dias,"Portugal, Porto, Porto<BR/>Portugal, Setúbal, Setúbal<BR/>Portugal, Lisboa, Lisboa","Artigo 24.º, n.º 1, alínea e) do Código dos Contratos Públicos",,,,,,Não aplicável.,Não aplicável.,
Reagentes,Ajuste Direto Regime Geral,Aquisição de bens móveis,"33696500-0, Reagentes de laboratório","Instituto Nacional de Saúde Dr. Ricardo Jorge, I.P. (501427511)","Alfredo Cavalheiro, Ldª (500015392)","403,00 €",13-12-2011,02-08-2011,7 dias,"Portugal, Lisboa, Lisboa","Artigo 24.º, n.º 1, alínea a) do Código dos Contratos Públicos",,,,,,Não aplicável.,Não aplicável.,
Contrato de Manutenção para Autoclaves,Ajuste Direto Regime Geral,Aquisição de serviços,"50800000-3, Serviços de reparação e manutenção diversos","Instituto Nacional de Saúde Dr. Ricardo Jorge, I.P. (501427511)",A.J.COSTA (Irmãos) Lda. (500002576),"10.608,31 €",13-12-2011,24-05-2010,365 dias,"Portugal, Setúbal, Setúbal<BR/>Portugal, Lisboa, Lisboa<BR/>Portugal, Porto, Porto","Artigo 24.º, n.º 1, alínea e) do Código dos Contratos Públicos",,,,,,Não aplicável.,Não aplicável.,
Reagentes,Ajuste Direto Regime Geral,Aquisição de bens móveis,"33696500-0, Reagentes de laboratório","Instituto Nacional de Saúde Dr. Ricardo Jorge, I.P. (501427511)",Menarini Diagnosticos - Material de Laboratório Ldª (502610069),"340,34 €",13-12-2011,01-08-2011,10 dias,"Portugal, Lisboa, Lisboa","Artigo 24.º, n.º 1, alínea a) do Código dos Contratos Públicos",,,,,,Não aplicável.,Não aplicável.,
Reagentes,Ajuste Direto Regime Geral,Aquisição de bens móveis,"33696500-0, Reagentes de laboratório","Instituto Nacional de Saúde Dr. Ricardo Jorge, I.P. (501427511)","Baptista Marques Diagnostica e Reagentes, Ldª (501439110)","2.476,00 €",13-12-2011,01-08-2011,8 dias,"Portugal, Lisboa, Lisboa","Artigo 24.º, n.º 1, alínea a) do Código dos Contratos Públicos",,,,,,Não aplicável.,Não aplicável.,
Peças e manutenção para Espectrometria de Massas,Ajuste Direto Regime Geral,Aquisição de bens móveis,"31700000-3, Material electrónico, electromecânico e electrotécnico","Instituto Nacional de Saúde Dr. Ricardo Jorge, I.P. (501427511)","AB Sciex Spain, S.L. (980158419)","16.891,20 €",13-12-2011,14-11-2011,60 dias,"Portugal, Porto, Porto","Artigo 32.º, n.º 2, alínea a) do Código dos Contratos Públicos",,,,,,Não aplicável.,Não aplicável.,
Reagentes,Ajuste Direto Regime Geral,Aquisição de bens móveis,"33696500-0, Reagentes de laboratório","Instituto Nacional de Saúde Dr. Ricardo Jorge, I.P. (501427511)","Grupo Taper - Equipamentos de Precisão Científica, Ldª (506886336)","417,00 €",13-12-2011,01-08-2011,10 dias,"Portugal, Lisboa, Lisboa","Artigo 24.º, n.º 1, alínea a) do Código dos Contratos Públicos",,,,,,Não aplicável.,Não aplicável.,
Reagentes,Ajuste Direto Regime Geral,Aquisição de bens móveis,"33696500-0, Reagentes de laboratório","Instituto Nacional de Saúde Dr. Ricardo Jorge, I.P. (501427511)","Alfagene - Novas Tecnologias das Ciências da Vida, Ldª (503387398)","1.063,20 €",13-12-2011,08-08-2011,10 dias,"Portugal, Lisboa, Lisboa","Artigo 24.º, n.º 1, alínea a) do Código dos Contratos Públicos",,,,,,Não aplicável.,Não aplicável.,
reagentes,Ajuste Direto Regime Geral,Aquisição de bens móveis,"33696500-0, Reagentes de laboratório","Instituto Nacional de Saúde Dr. Ricardo Jorge, I.P. (501427511)","Alfagene, Novas Tecnologias das Ciências da Vida, Ldª (503387398)","1.208,40 €",13-12-2011,08-08-2011,5 dias,"Portugal, Lisboa, Lisboa","Artigo 24.º, n.º 1, alínea a) do Código dos Contratos Públicos",,,,,,Não aplicável.,Não aplicável.,
Reagentes,Ajuste Direto Regime Geral,Aquisição de bens móveis,"33696500-0, Reagentes de laboratório","Instituto Nacional de Saúde Dr. Ricardo Jorge, I.P. (501427511)","Bio-Rad Laboratories, Ldª (501301321)","1.912,43 €",13-12-2011,08-08-2011,10 dias,"Portugal, Lisboa, Lisboa","Artigo 24.º, n.º 1, alínea a) do Código dos Contratos Públicos",,,,,,Não aplicável.,Não aplicável.,
Aquisição de Reagentes,Ajuste Direto Regime Geral,Aquisição de bens móveis,"33696500-0, Reagentes de laboratório","Instituto Nacional de Saúde Dr. Ricardo Jorge, I.P. (501427511)","Batista Marques, Lda. (501439110)","1.168,00 €",13-12-2011,09-11-2011,15 dias,"Portugal, Setúbal, Setúbal","Artigo 26.º, n.º 1, alínea b) do Código dos Contratos Públicos",,,,,,Não aplicável.,Não aplicável.,
Aquisição de Reagentes,Ajuste Direto Regime Geral,Aquisição de bens móveis,"33696500-0, Reagentes de laboratório","Instituto Nacional de Saúde Dr. Ricardo Jorge, I.P. (501427511)","Tebu-Bio, Ldª (509036171)","2.881,00 €",12-12-2011,08-08-2011,5 dias,"Portugal, Lisboa, Lisboa","Artigo 24.º, n.º 1, alínea a) do Código dos Contratos Públicos",,,,,,Não aplicável.,Não aplicável.,
Contrato de Manutenção de Espectrofotometros,Ajuste Direto Regime Geral,Aquisição de serviços,"50410000-2, Serviços de reparação e manutenção de aparelhos de medição, ensaio e controlo","Instituto Nacional de Saúde Dr. Ricardo Jorge, I.P. (501427511)","Izasa-Distribuições Técnicas, Lda. (501086110)","15.997,76 €",12-12-2011,14-11-2011,365 dias,"Portugal, Porto, Porto<BR/>Portugal, Lisboa, Lisboa","Artigo 20.º, n.º 1, alínea a) do Código dos Contratos Públicos",,,,,,Não aplicável.,Não aplicável.,
Contrato de Manutenção do Sistema de AVAC,Ajuste Direto Regime Geral,Aquisição de serviços,"50800000-3, Serviços de reparação e manutenção diversos","Instituto Nacional de Saúde Dr. Ricardo Jorge, I.P. (501427511)","Euroma 21, Lda. (508888972)","11.160,00 €",12-12-2011,24-11-2011,365 dias,"Portugal, Porto, Porto","Artigo 20.º, n.º 1, alínea a) do Código dos Contratos Públicos",,,,,,Não aplicável.,Não aplicável.,
Contrato de Manutenção do Sofware HGMD,Ajuste Direto Regime Geral,Aquisição de serviços,"72261000-2, Serviços de assistência em matéria de software","Instituto Nacional de Saúde Dr. Ricardo Jorge, I.P. (501427511)",Biobase Biological Databases (190212058),"1.100,00 €",12-12-2011,22-07-2011,365 dias,"Portugal, Lisboa, Lisboa","Artigo 20.º, n.º 1, alínea a) do Código dos Contratos Públicos",,,,,,Não aplicável.,Não aplicável.,
Aquisição de Licenças de Software - Nautilus (LIMS),Ajuste Direto Regime Geral,Aquisição de bens móveis,"48611000-4, Pacote de software para bases de dados","Instituto Nacional de Saúde Dr. Ricardo Jorge, I.P. (501427511)","Thermofisher Scientific, S.L.U. (28954170)","55.934,00 €",12-12-2011,24-11-2011,12 dias,"Portugal, Lisboa, Lisboa","Artigo 20.º, n.º 1, alínea a) do Código dos Contratos Públicos",,,,,,Não aplicável.,Não aplicável.,
Aquisição do software SPSS Data Collection e Qualen,Ajuste Direto Regime Geral,Aquisição de bens móveis,"48611000-4, Pacote de software para bases de dados","Instituto Nacional de Saúde Dr. Ricardo Jorge, I.P. (501427511)","PSE-Produtos de Serviços e Estatísticas, Lda. (503323390)","71.655,00 €",12-12-2011,17-11-2011,8 dias,"Portugal, Lisboa, Lisboa","Artigo 24.º, n.º 1, alínea b) do Código dos Contratos Públicos",,,,,,Não aplicável.,Não aplicável.,
