Objeto do Contrato,Tipo de Procedimento,Tipo(s) de Contrato,CPVs,Entidade(s) Adjudicante(s),Entidade(s) Adjudicatária(s),Preço Contratual,Data de Publicação,Data de Celebração do Contrato,Prazo de Execução,Local de Execução,Fundamentação,Data de Fecho do Contrato,Preço Total Efetivo,Causas das Alterações ao Prazo,Causas das Alterações ao Preço,Estado,N.º registo do Acordo Quadro,Descrição do Acordo Quadro,Procedimento Centralizado
03/00100.62/2017 - Aquisição de Prestação de Serviços de Consultoria Externa para Reestruturação do Serviço de Compras do CHEDV,Ajuste Direto Regime Geral,Aquisição de serviços,"79000000-4, Serviços a empresas: direito, comercialização, consultoria, recrutamento, impressão e segurança","Centro Hospitalar de Entre o Douro e Vouga, E.P.E. (508878462)","Kaizen Institute Spain, S.L. (B27722685)","24.450,00 €",11-05-2018,23-04-2018,60 dias,"Portugal, Aveiro, Santa Maria da Feira","Artigo 20.º, n.º 1, alínea a) do Código dos Contratos Públicos",,,,,,Não aplicável.,Não aplicável.,FALSE
14_00108.04_2018 - Aquisição de Sacos Plásticos,Ajuste Direto Regime Geral,Aquisição de bens móveis,"19640000-4, Sacos de polietileno para recolha de lixo e resíduos","Centro Hospitalar de Entre o Douro e Vouga, E.P.E. (508878462)",SUPER HIGIENE- SOCIEDADE DE EQUIPAMENTOS E HIGIENE (503002011),"53.431,38 €",11-05-2018,31-03-2018,90 dias,"Portugal, Aveiro, Santa Maria da Feira","Artigo 20.º, n.º 1, alínea a) do Código dos Contratos Públicos",,,,,,Não aplicável.,Não aplicável.,FALSE
Serviços de manutenção e limpeza,Ajuste Direto Regime Geral,Aquisição de serviços,"90000000-7, Serviços relativos a águas residuais, resíduos, limpeza e ambiente","Centro Hospitalar de Entre o Douro e Vouga, E.P.E. (508878462)","ARTEVERDE - Relvados e Jardins, Lda (503192970)","10.725,00 €",10-05-2018,04-04-2018,183 dias,"Portugal, Aveiro, Santa Maria da Feira","Artigo 21.º, n.º 1, alínea c) do Código dos Contratos Públicos",,,,,,Não aplicável.,Não aplicável.,FALSE
Serviços na Área da Gastroenterologia,Ajuste Direto Regime Geral,Aquisição de serviços,"85000000-9, Serviços de saúde e acção social","Centro Hospitalar de Entre o Douro e Vouga, E.P.E. (508878462)","MANOPH - Laboratório de Endoscopia e Motilidade Digestiva, Lda (505387603)","46.451,00 €",10-05-2018,13-04-2018,183 dias,"Portugal, Aveiro, Santa Maria da Feira","Artigo 21.º, n.º 1, alínea c) do Código dos Contratos Públicos",,,,,,Não aplicável.,Não aplicável.,FALSE
Serviços de Apoio Jurídico,Ajuste Direto Regime Geral,Aquisição de serviços,"72000000-5, Serviços de TI: consultoria, desenvolvimento de software, Internet e apoio","Centro Hospitalar de Entre o Douro e Vouga, E.P.E. (508878462)",Dr. Joaquim José Amorim da Silva Troça (146042255),"20.940,00 €",10-05-2018,11-04-2018,365 dias,"Portugal, Aveiro, Santa Maria da Feira","Artigo 21.º, n.º 1, alínea c) do Código dos Contratos Públicos",,,,,,Não aplicável.,Não aplicável.,FALSE
Aquisição de pulseiras descartáveis de bebé para sistema Anti-Rapto,Ajuste Direto Regime Geral,Aquisição de bens móveis,"22455100-5, Pulseiras de identificação","Centro Hospitalar de Entre o Douro e Vouga, E.P.E. (508878462)",INFOCONTROL ELECTRONICA E AUTOMATISMO SA (501395784),"8.289,00 €",03-05-2018,20-04-2018,365 dias,"Portugal, Aveiro, Santa Maria da Feira","Artigo 24.º, n.º 1, alínea e) do Código dos Contratos Públicos",,,,,,Não aplicável.,Não aplicável.,FALSE
Aquisição de Material para Artroplastia Total da Anca Via DSA,Ajuste Direto Regime Geral,Aquisição de bens móveis,"33000000-0, Equipamento médico, medicamentos e produtos para cuidados pessoais","Centro Hospitalar de Entre o Douro e Vouga, E.P.E. (508878462)","STRYKER PORTUGAL PRODUTOS  MEDICOS, LDA (504594214)","15.980,00 €",03-05-2018,16-10-2017,155 dias,"Portugal, Aveiro, Santa Maria da Feira","Artigo 24.º, n.º 1, alínea e) do Código dos Contratos Públicos",,,,,,Não aplicável.,Não aplicável.,FALSE
Aquisição de medicamentos exclusivos Laboratórios Théa,Ajuste Direto Regime Geral,Aquisição de bens móveis,"33000000-0, Equipamento médico, medicamentos e produtos para cuidados pessoais","Centro Hospitalar de Entre o Douro e Vouga, E.P.E. (508878462)","THEA PORTUGAL, S.A. (507978358)","28.681,29 €",03-05-2018,28-03-2018,365 dias,"Portugal, Aveiro, Santa Maria da Feira","Artigo 24.º, n.º 1, alínea e) do Código dos Contratos Públicos",,,,,,Não aplicável.,Não aplicável.,FALSE
Aquisição de Acetonido de Fluocinolona 190 ug - Iluvien,Ajuste Direto Regime Geral,Aquisição de bens móveis,"33000000-0, Equipamento médico, medicamentos e produtos para cuidados pessoais","Centro Hospitalar de Entre o Douro e Vouga, E.P.E. (508878462)",ALIMERA SCIENCES LIMITED SU EM PORTUGAL (980523192),"70.818,00 €",03-05-2018,26-03-2018,365 dias,"Portugal, Aveiro, Santa Maria da Feira","Artigo 24.º, n.º 1, alínea e) do Código dos Contratos Públicos",,,,,,Não aplicável.,Não aplicável.,FALSE
Aquisição de Ramucirumab 10 mg/ml sol inj (exclusivo Lilly),Ajuste Direto Regime Geral,Aquisição de bens móveis,"33000000-0, Equipamento médico, medicamentos e produtos para cuidados pessoais","Centro Hospitalar de Entre o Douro e Vouga, E.P.E. (508878462)","Lilly Portugal - Produtos Farmacêuticos, Lda (500165602)","176.640,00 €",03-05-2018,27-03-2018,365 dias,"Portugal, Aveiro, Santa Maria da Feira","Artigo 24.º, n.º 1, alínea e) do Código dos Contratos Públicos",,,,,,Não aplicável.,Não aplicável.,FALSE
Aquisição de medicamentos exclusivos Labesfal,Ajuste Direto Regime Geral,Aquisição de bens móveis,"33000000-0, Equipamento médico, medicamentos e produtos para cuidados pessoais","Centro Hospitalar de Entre o Douro e Vouga, E.P.E. (508878462)","LABESFAL-L. ESP. FARM. ALMIRO, (501169580)","107.643,15 €",03-05-2018,26-03-2018,365 dias,"Portugal, Aveiro, Santa Maria da Feira","Artigo 24.º, n.º 1, alínea e) do Código dos Contratos Públicos",,,,,,Não aplicável.,Não aplicável.,FALSE
Aquisição de Nivolumab 10 mg/ml sol inj,Ajuste Direto Regime Geral,Aquisição de bens móveis,"33000000-0, Equipamento médico, medicamentos e produtos para cuidados pessoais","Centro Hospitalar de Entre o Douro e Vouga, E.P.E. (508878462)","BRISTOL MYERS SQUIBB FARM.PORTUGUESA, SA (500048193)","275.325,30 €",03-05-2018,09-03-2018,365 dias,"Portugal, Aveiro, Santa Maria da Feira","Artigo 24.º, n.º 1, alínea e) do Código dos Contratos Públicos",,,,,,Não aplicável.,Não aplicável.,FALSE
Aquisição de Medicamentos Exclusivos B. Braun,Ajuste Direto Regime Geral,Aquisição de bens móveis,"33000000-0, Equipamento médico, medicamentos e produtos para cuidados pessoais","Centro Hospitalar de Entre o Douro e Vouga, E.P.E. (508878462)",B.BRAUN MEDICAL (501506543),"11.244,44 €",03-05-2018,26-03-2018,365 dias,"Portugal, Aveiro, Santa Maria da Feira","Artigo 24.º, n.º 1, alínea e) do Código dos Contratos Públicos",,,,,,Não aplicável.,Não aplicável.,FALSE
Aquisição de Reagentes para Análise Citoquímica de Urinas,Ajuste Direto Regime Geral,Aquisição de bens móveis,"33696000-5, Reagentes e meios de contraste","Centro Hospitalar de Entre o Douro e Vouga, E.P.E. (508878462)","MENARINI DIAGNOSTICOS, LDA (502610069)","19.953,80 €",03-05-2018,16-04-2018,264 dias,"Portugal, Aveiro, Santa Maria da Feira","Artigo 20.º, n.º 1, alínea a) do Código dos Contratos Públicos",,,,,,Não aplicável.,Não aplicável.,FALSE
