Objeto do Contrato,Tipo de Procedimento,Tipo(s) de Contrato,CPVs,Entidade(s) Adjudicante(s),Entidade(s) Adjudicatária(s),Preço Contratual,Data de Publicação,Data de Celebração do Contrato,Prazo de Execução,Local de Execução,Fundamentação,Data de Fecho do Contrato,Preço Total Efetivo,Causas das Alterações ao Prazo,Causas das Alterações ao Preço,Estado,N.º registo do Acordo Quadro,Descrição do Acordo Quadro,Procedimento Centralizado
VALVULA AORTICA S/SUTURA 23MM,Ajuste Direto Regime Geral,Aquisição de bens móveis,"33190000-8, Dispositivos e produtos médicos variados","Centro Hospitalar Lisboa Norte, E. P. E. (508481287)",Edwards Lifesciences (508014832),"11.800,00 €",10-09-2018,20-07-2018,2 dias,"Portugal, Lisboa, Lisboa","Artigo 24.º, n.º 1, alínea e), subalínea ii) do Código dos Contratos Públicos",,,,,,Não aplicável.,Não aplicável.,FALSE
AQUISIÇÃO DE CDI'S,Ajuste Direto Regime Geral,Aquisição de bens móveis,"33190000-8, Dispositivos e produtos médicos variados","Centro Hospitalar Lisboa Norte, E. P. E. (508481287)","Medtronic Portugal, Lda. (504223933)","43.155,00 €",10-09-2018,25-07-2018,1 dias,"Portugal, Lisboa, Lisboa","Artigo 24.º, n.º 1, alínea e), subalínea ii) do Código dos Contratos Públicos",,,,,,Não aplicável.,Não aplicável.,FALSE
SISTEMA CDI VR,Ajuste Direto Regime Geral,Aquisição de bens móveis,"33190000-8, Dispositivos e produtos médicos variados","Centro Hospitalar Lisboa Norte, E. P. E. (508481287)",BOSTON SCIENTIFIC PORTUGAL LDA (504988964),"9.775,00 €",10-09-2018,17-07-2018,1 dias,"Portugal, Lisboa, Lisboa","Artigo 24.º, n.º 1, alínea e), subalínea ii) do Código dos Contratos Públicos",,,,,,Não aplicável.,Não aplicável.,FALSE
Aquisição de factor von willbrand 1200 ui c/ factor VIII 500 Ui (hemate),Ajuste Direto Regime Geral,Aquisição de bens móveis,"33690000-3, Medicamentos vários","Centro Hospitalar Lisboa Norte, E. P. E. (508481287)","CSL Behring, Lda (503047201)","22.941,60 €",10-09-2018,10-09-2018,112 dias,"Portugal, Lisboa, Lisboa","Artigo 24.º, n.º 1, alínea e), subalínea iii) do Código dos Contratos Públicos",,,,,,Não aplicável.,Não aplicável.,FALSE
Aquisição de bombas de perfusão subcutânea de insulina e respetivos consumiveis,Ao abrigo de acordo-quadro (art.º 259.º),Aquisição de bens móveis,"33194110-0, Bombas para perfusão","Centro Hospitalar Lisboa Norte, E. P. E. (508481287)","Roche Sistemas de Diagnósticos, Lda. (504282921)","25.500,00 €",10-09-2018,29-03-2018,277 dias,"Portugal, Lisboa, Lisboa",Artigo 259.º do Código dos Contratos Públicos,,,,,,1442148,ACORDO QUADRO PARA FORNECIMENTO DE BOMBAS DE PERFUSÃO SUBCUTANEA CONTINUA DE INSULINA E RESPETIVOS CONSUMÍVEIS ÀS INSTITUIÇÕES E SERVIÇOS DO SERVIÇO NACIONAL DE SAÚDE. CP 2015/29,FALSE
Aquisição de bombas de perfusão subcutânea de insulina e respetivos consumiveis,Ao abrigo de acordo-quadro (art.º 259.º),Aquisição de bens móveis,"33194110-0, Bombas para perfusão","Centro Hospitalar Lisboa Norte, E. P. E. (508481287)","Medtronic Portugal, Lda. (504223933)","48.070,00 €",10-09-2018,29-03-2018,277 dias,"Portugal, Lisboa, Lisboa",Artigo 259.º do Código dos Contratos Públicos,,,,,,1442148,ACORDO QUADRO PARA FORNECIMENTO DE BOMBAS DE PERFUSÃO SUBCUTANEA CONTINUA DE INSULINA E RESPETIVOS CONSUMÍVEIS ÀS INSTITUIÇÕES E SERVIÇOS DO SERVIÇO NACIONAL DE SAÚDE. CP 2015/29,FALSE
Aquisição de CDI BIV (CRT-D) conexões DF4 e IS1,Ajuste Direto Regime Geral,Aquisição de bens móveis,"33190000-8, Dispositivos e produtos médicos variados","Centro Hospitalar Lisboa Norte, EPE (508481287)",MEDTRONIC PORTUGAL LDA (504223933),"39.924,00 €",07-09-2018,07-09-2018,1 dias,"Portugal, Lisboa, Lisboa","Artigo 24.º, n.º 1, alínea e), subalínea i) do Código dos Contratos Públicos",,,,,,Não aplicável.,Não aplicável.,FALSE
Aquisição de valvula aórtica s/ sutura 23 mm,Ajuste Direto Regime Geral,Aquisição de bens móveis,"33190000-8, Dispositivos e produtos médicos variados","Centro Hospitalar Lisboa Norte, EPE (508481287)",Edwards Lifesciences (508014832),"5.900,00 €",07-09-2018,07-09-2018,1 dias,"Portugal, Lisboa, Lisboa","Artigo 24.º, n.º 1, alínea e), subalínea ii) do Código dos Contratos Públicos",,,,,,Não aplicável.,Não aplicável.,FALSE
Aquisição de CH 50 conj. det.,Ajuste Direto Regime Geral,Aquisição de bens móveis,"33696000-5, Reagentes e meios de contraste","Centro Hospitalar Lisboa Norte, EPE (508481287)",THE BINDING SITE GROUP-SUCURSAL EM PORTUGAL (980525136),"5.745,00 €",07-09-2018,07-09-2018,1 dias,"Portugal, Lisboa, Lisboa","Artigo 24.º, n.º 1, alínea e), subalínea ii) do Código dos Contratos Públicos",,,,,,Não aplicável.,Não aplicável.,FALSE
"Aquisição de hidropolimero espesso c/ reborso 15,4X",Ajuste Direto Regime Geral,Aquisição de bens móveis,"33690000-3, Medicamentos vários","Centro Hospitalar Lisboa Norte, EPE (508481287)","Smith & Nephew, Lda (503552461)","5.055,00 €",07-09-2018,07-09-2018,118 dias,"Portugal, Lisboa, Lisboa","Artigo 24.º, n.º 1, alínea e), subalínea ii) do Código dos Contratos Públicos",,,,,,Não aplicável.,Não aplicável.,FALSE
Atalureno 1000 mg Granulado P/Susp Oral,Ajuste Direto Regime Geral,Aquisição de bens móveis,"33690000-3, Medicamentos vários","Centro Hospitalar Lisboa Norte, E. P. E. (508481287)","LOGIFARMA-LOG.FARMACEUTICA, SA (503934640)","132.306,54 €",07-09-2018,17-07-2018,167 dias,"Portugal, Lisboa, Lisboa","Artigo 24.º, n.º 1, alínea e), subalínea iii) do Código dos Contratos Públicos",,,,,,Não aplicável.,Não aplicável.,FALSE
"Aquisição de 3 (três) aparelhos de eletrocirurgia para o Serviço de otorrinolarringologia , Voz e Perturbações da Comunicação - Bloco Operatório de Otorrinolaringologia I e Serviço de Neurocirurgia - Bloco Operatório. ",Consulta Prévia,Aquisição de bens móveis,"33100000-1, Equipamento médico","Centro Hospitalar Lisboa Norte, E. P. E. (508481287)","Angosaúde, S.A. (507016882)","16.808,61 €",07-09-2018,28-08-2018,30 dias,"Portugal, Lisboa, Lisboa","Artigo 20.º, n.º 1, alínea c) do Código dos Contratos Públicos",,,,,,Não aplicável.,Não aplicável.,FALSE
Aquisição de serviços de reparação ao equipamento da sala 2 de angiografia cardíaca do Serviço de Cardiologia I - MCDT's - Unidade de Cardiologia de Intervenção Joaquim Oliveira,Ajuste Direto Regime Geral,Aquisição de serviços,"50421200-4, Serviços de reparação e manutenção de equipamentos de raios X","Centro Hospitalar Lisboa Norte, E. P. E. (508481287)","A SIEMENS HEALTHCARE, LDA (507925173)","41.250,00 €",07-09-2018,04-09-2018,30 dias,"Portugal, Lisboa, Lisboa","Artigo 24.º, n.º 1, alínea e), subalínea iii) do Código dos Contratos Públicos",,,,,,Não aplicável.,Não aplicável.,FALSE
SISTEMAS CDI VR - CONEXÃO DF4,Ajuste Direto Regime Geral,Aquisição de bens móveis,"33190000-8, Dispositivos e produtos médicos variados","Centro Hospitalar Lisboa Norte, EPE (508481287)",Biotronik Portugal Unipessoal Lda (510726941),"19.550,00 €",07-09-2018,17-07-2018,1 dias,"Portugal, Lisboa, Lisboa","Artigo 24.º, n.º 1, alínea e), subalínea ii) do Código dos Contratos Públicos",,,,,,Não aplicável.,Não aplicável.,FALSE
SISTEMA PACEMAKER S/ELECTRODOS,Ajuste Direto Regime Geral,Aquisição de bens móveis,"33190000-8, Dispositivos e produtos médicos variados","Centro Hospitalar Lisboa Norte, E. P. E. (508481287)",MEDTRONIC PORTUGAL LDA (504223933),"8.333,00 €",07-09-2018,25-07-2018,1 dias,"Portugal, Lisboa, Lisboa","Artigo 24.º, n.º 1, alínea e), subalínea ii) do Código dos Contratos Públicos",,,,,,Não aplicável.,Não aplicável.,FALSE
Pacing,Ajuste Direto Regime Geral,Aquisição de bens móveis,"33190000-8, Dispositivos e produtos médicos variados","Centro Hospitalar Lisboa Norte, E. P. E. (508481287)","LIVANOVA PORTUGAL, Lda (505514010)","36.405,00 €",07-09-2018,17-07-2018,1 dias,"Portugal, Lisboa, Lisboa","Artigo 24.º, n.º 1, alínea e), subalínea ii) do Código dos Contratos Públicos",,,,,,Não aplicável.,Não aplicável.,FALSE
Empreitada para execução da obra para criação de oficina de frio na antiga casa das máquinas no Hospital de Santa Maria,Consulta Prévia,Empreitadas de obras públicas,"45213252-4, Construção de oficinas","Centro Hospitalar Lisboa Norte, E. P. E. (508481287)","Tojalense - Trabalhos em Construção Civil, Unipessoal, Lda (505569400)","6.650,14 €",07-09-2018,07-09-2018,15 dias,"Portugal, Lisboa, Lisboa","Artigo 19.º, alínea c) do Código dos Contratos Públicos",,,,,,Não aplicável.,Não aplicável.,FALSE
IMUNOGLOBULINA 100 MG/ML INJ FR 50 ML (5G)(PRIVIGEN),Ajuste Direto Regime Geral,Aquisição de bens móveis,"33690000-3, Medicamentos vários","Centro Hospitalar Lisboa Norte, E. P. E. (508481287)","CSL Behring, Lda (503047201)","48.725,00 €",07-09-2018,08-08-2018,145 dias,"Portugal, Lisboa, Lisboa","Artigo 24.º, n.º 1, alínea e), subalínea ii) do Código dos Contratos Públicos",,,,,,Não aplicável.,Não aplicável.,FALSE
Aquisição de materiais para a manutenção de equipamento de monitorização -armazém - Serviço de Instalações e Equipamentos - CHLN - HSM,Ajuste Direto Regime Geral,Aquisição de bens móveis,"39290000-1, Acessórios diversos","Centro Hospitalar Lisboa Norte, E. P. E. (508481287)","STRYKER PORTUGAL PRODUTOS MÉDICOS, LDA (504594214)","309,00 €",07-09-2018,07-09-2018,20 dias,"Portugal, Lisboa, Lisboa","Artigo 24.º, n.º 1, alínea e), subalínea iii) do Código dos Contratos Públicos",,,,,,Não aplicável.,Não aplicável.,FALSE
Aquisição de 50 colchões para a maca,Consulta Prévia,Aquisição de bens móveis,"39143112-4, Colchões","Centro Hospitalar Lisboa Norte, E. P. E. (508481287)","DUEKIPA – COMÉRCIO DE EQUIPAMENTOS MÉDICOS HOSPITALARES, UNIPESSOAL LDA (508690102)","2.675,00 €",07-09-2018,07-09-2018,15 dias,"Portugal, Lisboa, Lisboa","Artigo 20.º, n.º 1, alínea c) do Código dos Contratos Públicos",,,,,,Não aplicável.,Não aplicável.,FALSE
FACTOR VIII RECOMBINANTE 1000 UI ( OCTOG,Ajuste Direto Regime Geral,Aquisição de bens móveis,"33690000-3, Medicamentos vários","Centro Hospitalar Lisboa Norte, E. P. E. (508481287)",Shire Pharmaceuticals Portugal Lda (509264662),"137.093,00 €",07-09-2018,28-08-2018,124 dias,"Portugal, Lisboa, Lisboa","Artigo 24.º, n.º 1, alínea e), subalínea ii) do Código dos Contratos Públicos",,,,,,Não aplicável.,Não aplicável.,FALSE
Empreitada para execução da obra de substituição de pavimento vinilico,Consulta Prévia,Empreitadas de obras públicas,"45233251-3, Renovação de pavimentos","Centro Hospitalar Lisboa Norte, E. P. E. (508481287)",COPI- Construções. Civis Obras Pubicas Ind Lda (501536760),"9.744,00 €",06-09-2018,06-09-2018,21 dias,"Portugal, Lisboa, Lisboa","Artigo 19.º, alínea c) do Código dos Contratos Públicos",,,,,,Não aplicável.,Não aplicável.,FALSE
Aquisição de impregnado com vaselina 10x10 cm,Consulta Prévia,Aquisição de bens móveis,"33690000-3, Medicamentos vários","Centro Hospitalar Lisboa Norte, E. P. E. (508481287)","SMITH & NEPHEW, LDA. (503552461)","48,00 €",06-09-2018,06-09-2018,1 dias,"Portugal, Lisboa, Lisboa",Artigo 27.º-A do Código dos Contratos Públicos,,,,,,Não aplicável.,Não aplicável.,FALSE
Factor VIII Recombinante 2000 UI (Octog Alfa),Ajuste Direto Regime Geral,Aquisição de bens móveis,"33690000-3, Medicamentos vários","Centro Hospitalar Lisboa Norte, E. P. E. (508481287)",Shire Pharmaceuticals Portugal Lda (509264662),"249.260,00 €",06-09-2018,28-08-2018,125 dias,"Portugal, Lisboa, Lisboa","Artigo 24.º, n.º 1, alínea e), subalínea ii) do Código dos Contratos Públicos",,,,,,Não aplicável.,Não aplicável.,FALSE
IMUNOGLOBULINA 100 MG/ML INJ FR200 ML e 100MG/ML INJ FR100ML,Ajuste Direto Regime Geral,Aquisição de bens móveis,"33690000-3, Medicamentos vários","Centro Hospitalar Lisboa Norte, E. P. E. (508481287)","CSL Behring, Lda (503047201)","140.328,00 €",06-09-2018,21-08-2018,132 dias,"Portugal, Lisboa, Lisboa","Artigo 24.º, n.º 1, alínea e), subalínea ii) do Código dos Contratos Públicos",,,,,,Não aplicável.,Não aplicável.,FALSE
FACTOR VIII RECOMBINANTE 250 UI ( OCTOG ALFA ) ( ADVATE ),Ajuste Direto Regime Geral,Aquisição de bens móveis,"33690000-3, Medicamentos vários","Centro Hospitalar Lisboa Norte, E. P. E. (508481287)",Shire Pharmaceuticals Portugal Lda (509264662),"15.579,00 €",06-09-2018,23-08-2018,130 dias,"Portugal, Lisboa, Lisboa","Artigo 24.º, n.º 1, alínea e), subalínea ii) do Código dos Contratos Públicos",,,,,,Não aplicável.,Não aplicável.,FALSE
PROCESSADORES DE IMPLANTE COCLEAR,Ajuste Direto Regime Geral,Aquisição de bens móveis,"33190000-8, Dispositivos e produtos médicos variados","Centro Hospitalar Lisboa Norte, E. P. E. (508481287)","LUSITANIA SOLUÇÕES, LDA (513611231)","16.400,00 €",06-09-2018,24-07-2018,10 dias,"Portugal, Lisboa, Lisboa","Artigo 20.º, n.º 1, alínea d) do Código dos Contratos Públicos",,,,,,Não aplicável.,Não aplicável.,FALSE
KIT TESTE P/EQUIPAMENTO NIOX MINO 1000,Ajuste Direto Regime Geral,Aquisição de bens móveis,"33190000-8, Dispositivos e produtos médicos variados","Centro Hospitalar Lisboa Norte, E. P. E. (508481287)","Thermo Fisher Diagnostics, Soc. Unip. Lda. (506916243)","8.538,00 €",06-09-2018,20-07-2018,15 dias,"Portugal, Lisboa, Lisboa","Artigo 24.º, n.º 1, alínea e), subalínea ii) do Código dos Contratos Públicos",,,,,,Não aplicável.,Não aplicável.,FALSE
MATERIAL DE CARDIOLOGIA,Ajuste Direto Regime Geral,Aquisição de bens móveis,"33190000-8, Dispositivos e produtos médicos variados","Centro Hospitalar Lisboa Norte, E. P. E. (508481287)","BOSTON SCIENTIFIC PORTUGAL, LDA (504988964)","10.900,00 €",06-09-2018,26-07-2018,1 dias,"Portugal, Lisboa, Lisboa","Artigo 24.º, n.º 1, alínea e), subalínea ii) do Código dos Contratos Públicos",,,,,,Não aplicável.,Não aplicável.,FALSE
Conversor aórtico,Ajuste Direto Regime Geral,Aquisição de bens móveis,"33190000-8, Dispositivos e produtos médicos variados","Centro Hospitalar Lisboa Norte, E. P. E. (508481287)",BIOSONDA-COMERC MATERIAL HOSPITALAR (501463313),"8.500,00 €",06-09-2018,30-07-2018,1 dias,"Portugal, Lisboa, Lisboa","Artigo 24.º, n.º 1, alínea e), subalínea ii) do Código dos Contratos Públicos",,,,,,Não aplicável.,Não aplicável.,FALSE
Pacing,Ajuste Direto Regime Geral,Aquisição de bens móveis,"33190000-8, Dispositivos e produtos médicos variados","Centro Hospitalar Lisboa Norte, E. P. E. (508481287)","LIVANOVA PORTUGAL, Lda (505514010)","15.355,00 €",06-09-2018,19-07-2018,1 dias,"Portugal, Lisboa, Lisboa","Artigo 24.º, n.º 1, alínea e), subalínea ii) do Código dos Contratos Públicos",,,,,,Não aplicável.,Não aplicável.,FALSE
Pacing,Ajuste Direto Regime Geral,Aquisição de bens móveis,"33190000-8, Dispositivos e produtos médicos variados","Centro Hospitalar Lisboa Norte, E. P. E. (508481287)","Abbott Medical Portugal, Lda. (504180746)","63.094,00 €",06-09-2018,24-07-2018,1 dias,"Portugal, Lisboa, Lisboa","Artigo 24.º, n.º 1, alínea e), subalínea ii) do Código dos Contratos Públicos",,,,,,Não aplicável.,Não aplicável.,FALSE
Válvula Aórtica sem Sutura,Ajuste Direto Regime Geral,Aquisição de bens móveis,"33190000-8, Dispositivos e produtos médicos variados","Centro Hospitalar Lisboa Norte, E. P. E. (508481287)","EDWARDS LIFESCIENCES , LDA (508014832)","29.500,00 €",05-09-2018,10-08-2018,2 dias,"Portugal, Lisboa, Lisboa","Artigo 24.º, n.º 1, alínea e), subalínea ii) do Código dos Contratos Públicos",,,,,,Não aplicável.,Não aplicável.,FALSE
MATERIAL CARDIOLOGIA,Ajuste Direto Regime Geral,Aquisição de bens móveis,"33190000-8, Dispositivos e produtos médicos variados","Centro Hospitalar Lisboa Norte, E. P. E. (508481287)",VOLCANO EUROPE BVBA (BE0859842345),"29.925,00 €",05-09-2018,09-08-2018,1 dias,"Portugal, Lisboa, Lisboa","Artigo 24.º, n.º 1, alínea e), subalínea ii) do Código dos Contratos Públicos",,,,,,Não aplicável.,Não aplicável.,FALSE
SISTEMA CDI,Ajuste Direto Regime Geral,Aquisição de bens móveis,"33190000-8, Dispositivos e produtos médicos variados","Centro Hospitalar Lisboa Norte, E. P. E. (508481287)","LIVANOVA PORTUGAL, Lda (505514010)","26.570,00 €",05-09-2018,10-08-2018,1 dias,"Portugal, Lisboa, Lisboa","Artigo 24.º, n.º 1, alínea e), subalínea ii) do Código dos Contratos Públicos",,,,,,Não aplicável.,Não aplicável.,FALSE
MATERIAL DE ORTOPEDIA,Ajuste Direto Regime Geral,Aquisição de bens móveis,"33190000-8, Dispositivos e produtos médicos variados","Centro Hospitalar Lisboa Norte, EPE (508481287)",Johnson & Johnson; Lda (500153370),"8.786,00 €",05-09-2018,10-08-2018,1 dias,"Portugal, Lisboa, Lisboa","Artigo 24.º, n.º 1, alínea e), subalínea ii) do Código dos Contratos Públicos",,,,,,Não aplicável.,Não aplicável.,FALSE
PROCESSADOR DE IMPLANTE COCLEAR,Ajuste Direto Regime Geral,Aquisição de bens móveis,"33190000-8, Dispositivos e produtos médicos variados","Centro Hospitalar Lisboa Norte, E. P. E. (508481287)",Coselgi Portugal (509230598),"26.829,00 €",05-09-2018,10-08-2018,1 dias,"Portugal, Lisboa, Lisboa","Artigo 24.º, n.º 1, alínea e), subalínea ii) do Código dos Contratos Públicos",,,,,,Não aplicável.,Não aplicável.,FALSE
Batas descartáveis opacas para doentes,Ajuste Direto Regime Geral,Aquisição de bens móveis,"33190000-8, Dispositivos e produtos médicos variados","Centro Hospitalar Lisboa Norte, E. P. E. (508481287)","OASIPOR - MedicalWear, S.A. (502260750)","7.455,00 €",05-09-2018,10-08-2018,2 dias,"Portugal, Lisboa, Lisboa","Artigo 24.º, n.º 1, alínea c) do Código dos Contratos Públicos",,,,,,Não aplicável.,Não aplicável.,FALSE
MATERIAL DE CARDIOLOGIA,Ajuste Direto Regime Geral,Aquisição de bens móveis,"33190000-8, Dispositivos e produtos médicos variados","Centro Hospitalar Lisboa Norte, E. P. E. (508481287)","J.M.Farmacêutica, S.A. (503550558)","9.300,00 €",05-09-2018,07-08-2018,1 dias,"Portugal, Lisboa, Lisboa","Artigo 24.º, n.º 1, alínea e), subalínea ii) do Código dos Contratos Públicos",,,,,,Não aplicável.,Não aplicável.,FALSE
INSTRUMENTAL CIRURGICO,Ajuste Direto Regime Geral,Aquisição de bens móveis,"33190000-8, Dispositivos e produtos médicos variados","Centro Hospitalar Lisboa Norte, E. P. E. (508481287)",B BRAUN MEDICAL LDA (501506543),"38.884,34 €",05-09-2018,10-08-2018,1 dias,"Portugal, Lisboa, Lisboa","Artigo 24.º, n.º 1, alínea e), subalínea ii) do Código dos Contratos Públicos",,,,,,Não aplicável.,Não aplicável.,FALSE
Pacing,Ajuste Direto Regime Geral,Aquisição de bens móveis,"33190000-8, Dispositivos e produtos médicos variados","Centro Hospitalar Lisboa Norte, E. P. E. (508481287)",Biotronik Portugal Unipessoal Lda (510726941),"45.036,80 €",05-09-2018,02-08-2018,1 dias,"Portugal, Lisboa, Lisboa","Artigo 24.º, n.º 1, alínea e), subalínea ii) do Código dos Contratos Públicos",,,,,,Não aplicável.,Não aplicável.,FALSE
CAMPO CIRURGICO 150X180 C/ORIFICIO 6X8,Ajuste Direto Regime Geral,Aquisição de bens móveis,"33190000-8, Dispositivos e produtos médicos variados","Centro Hospitalar Lisboa Norte, E. P. E. (508481287)","MOLNLYCKE HEALTH CARE COM PROD HOSPITALARES, LDA (511101066)","1.411,20 €",05-09-2018,06-08-2018,2 dias,"Portugal, Lisboa, Lisboa","Artigo 24.º, n.º 1, alínea c) do Código dos Contratos Públicos",,,,,,Não aplicável.,Não aplicável.,FALSE
Aquisição de vários medicamentos,Ajuste Direto Regime Geral,Aquisição de bens móveis,"33690000-3, Medicamentos vários","Centro Hospitalar Lisboa Norte, E. P. E. (508481287)","CSL Behring, Lda (503047201)","7.647,20 €",05-09-2018,05-09-2018,1 dias,"Portugal, Lisboa, Lisboa","Artigo 24.º, n.º 1, alínea e), subalínea ii) do Código dos Contratos Públicos",,,,,,Não aplicável.,Não aplicável.,FALSE
Aquisição de tacrolimus caps. 5 mg,Ajuste Direto Regime Geral,Aquisição de bens móveis,"33690000-3, Medicamentos vários","Centro Hospitalar Lisboa Norte, E. P. E. (508481287)","Sandoz Farmacêutica, Lda. (506985261)","6.232,59 €",05-09-2018,05-09-2018,1 dias,"Portugal, Lisboa, Lisboa","Artigo 24.º, n.º 1, alínea e), subalínea ii) do Código dos Contratos Públicos",,,,,,Não aplicável.,Não aplicável.,FALSE
Aquisição de advia auroretic 4x600 ciclos,Ajuste Direto Regime Geral,Aquisição de bens móveis,"33696000-5, Reagentes e meios de contraste","Centro Hospitalar Lisboa Norte, E. P. E. (508481287)","A SIEMENS HEALTHCARE, LDA (507925173)","6.720,00 €",05-09-2018,05-09-2018,1 dias,"Portugal, Lisboa, Lisboa","Artigo 24.º, n.º 1, alínea e), subalínea ii) do Código dos Contratos Públicos",,,,,,Não aplicável.,Não aplicável.,FALSE
Aquisição de ferritina cobas 8.000 conj. det. 300 T,Ajuste Direto Regime Geral,Aquisição de bens móveis,"33696000-5, Reagentes e meios de contraste","Centro Hospitalar Lisboa Norte, E. P. E. (508481287)",ROCHE SISTEMA DE DIAGNOSTICOS (504282921),"8.246,16 €",05-09-2018,05-09-2018,1 dias,"Portugal, Lisboa, Lisboa","Artigo 24.º, n.º 1, alínea e), subalínea ii) do Código dos Contratos Públicos",,,,,,Não aplicável.,Não aplicável.,FALSE
"CPU N.º 189A000017- """"Aquisição de serviços de seguros de acidentes de trabalho para profissionais do Centro Hospitalar Lisboa Norte, E.P.E""""",Concurso público,Aquisição de serviços,"66512100-3, Serviços de seguros de acidentes","Centro Hospitalar Lisboa Norte, EPE (508481287)","Lusitania, CompaNhia de Seguros,S.A. (501689168)","140.610,10 €",04-09-2018,31-08-2018,30 dias,"Portugal, Lisboa, Lisboa",Artigo 155.º do Código dos Contratos Públicos,,,,,,Não aplicável.,Não aplicável.,FALSE
Regularização de material utilizado em Cir.de Ortopedia,Ajuste Direto Regime Geral,Aquisição de bens móveis,"33140000-3, Material médico de consumo","Centro Hospitalar Lisboa Norte, EPE (508481287)",JOHNSON & JOHNSON MEDICAL (500153370),"7.275,00 €",04-09-2018,03-09-2018,1 dias,"Portugal, Lisboa, Lisboa","Artigo 24.º, n.º 1, alínea e), subalínea ii) do Código dos Contratos Públicos",,,,,,Não aplicável.,Não aplicável.,FALSE
182G010500,Ajuste Direto Regime Geral,Aquisição de bens móveis,"33140000-3, Material médico de consumo","Centro Hospitalar Lisboa Norte, EPE (508481287)",JOHNSON & JOHNSON MEDICAL (500153370),"9.580,00 €",04-09-2018,03-09-2018,1 dias,"Portugal, Lisboa, Lisboa","Artigo 24.º, n.º 1, alínea e), subalínea ii) do Código dos Contratos Públicos",,,,,,Não aplicável.,Não aplicável.,FALSE
CLADRIBINA 10 MG COMP,Ajuste Direto Regime Geral,Aquisição de bens móveis,"33690000-3, Medicamentos vários","Centro Hospitalar Lisboa Norte, E. P. E. (508481287)",MERCK S.A. (500650870),"46.959,00 €",04-09-2018,18-07-2018,166 dias,"Portugal, Lisboa, Lisboa","Artigo 24.º, n.º 1, alínea e), subalínea iii) do Código dos Contratos Públicos",,,,,,Não aplicável.,Não aplicável.,FALSE
Aquisição de baterias para monitor,Ajuste Direto Regime Geral,Aquisição de bens móveis,"39290000-1, Acessórios diversos","Centro Hospitalar Lisboa Norte, E. P. E. (508481287)","DIMOR LUSITANA-COMÉRCIO DE PRODUTO DE HIGIENE, LDA (500730741)","952,00 €",03-09-2018,03-09-2018,119 dias,"Portugal, Lisboa, Lisboa","Artigo 24.º, n.º 1, alínea e), subalínea iii) do Código dos Contratos Públicos",,,,,,Não aplicável.,Não aplicável.,FALSE
GLUCONATO DE CLOROHEXIDINA 2% S/SABAO ADICI.TOALHETE,Ajuste Direto Regime Geral,Aquisição de bens móveis,"33690000-3, Medicamentos vários","Centro Hospitalar Lisboa Norte, E. P. E. (508481287)","Barna Imprt Médica Portugal, Lda. (513468994)","5.280,00 €",03-09-2018,07-08-2018,1 dias,"Portugal, Lisboa, Lisboa","Artigo 24.º, n.º 1, alínea e), subalínea ii) do Código dos Contratos Públicos",,,,,,Não aplicável.,Não aplicável.,FALSE
VITAMINA B12 COBAS 8.000 CONJ DET 300 T,Ajuste Direto Regime Geral,Aquisição de bens móveis,"33696000-5, Reagentes e meios de contraste","Centro Hospitalar Lisboa Norte, E. P. E. (508481287)","ROCHE SISTEMAS DE DIAGNÓSTICOS, LDA (504282921)","9.546,30 €",03-09-2018,09-08-2018,5 dias,"Portugal, Lisboa, Lisboa","Artigo 24.º, n.º 1, alínea e), subalínea ii) do Código dos Contratos Públicos",,,,,,Não aplicável.,Não aplicável.,FALSE
BACILOS GRAM NEGATIVOS TIPO 69 PAINEL ID,Ajuste Direto Regime Geral,Aquisição de bens móveis,"33696000-5, Reagentes e meios de contraste","Centro Hospitalar Lisboa Norte, E. P. E. (508481287)","Beckman Coulter Portugal, Unip., Lda (509035167)","11.700,00 €",03-09-2018,01-08-2018,152 dias,"Portugal, Lisboa, Lisboa","Artigo 24.º, n.º 1, alínea e), subalínea ii) do Código dos Contratos Públicos",,,,,,Não aplicável.,Não aplicável.,FALSE
Factor VIII Recombinante 500 UI (Kogenate),Ajuste Direto Regime Geral,Aquisição de bens móveis,"33690000-3, Medicamentos vários","Centro Hospitalar Lisboa Norte, E. P. E. (508481287)",BAYER PORTUGAL LDA (500043256),"24.600,00 €",03-09-2018,26-07-2018,158 dias,"Portugal, Lisboa, Lisboa","Artigo 24.º, n.º 1, alínea e), subalínea ii) do Código dos Contratos Públicos",,,,,,Não aplicável.,Não aplicável.,FALSE
IDEBENONA COMP REV 45 MG,Consulta Prévia,Aquisição de bens móveis,"33690000-3, Medicamentos vários","Centro Hospitalar Lisboa Norte, E. P. E. (508481287)","LABORATORIOS ATRAL, SA (500162085)","1.084,50 €",03-09-2018,02-08-2018,4 dias,"Portugal, Lisboa, Lisboa",Artigo 27.º-A do Código dos Contratos Públicos,,,,,,Não aplicável.,Não aplicável.,FALSE
Consulta Prévia n.º 181001576,Ao abrigo de acordo-quadro (art.º 259.º),Aquisição de bens móveis,"33690000-3, Medicamentos vários","Centro Hospitalar Lisboa Norte, E. P. E. (508481287)","Roche Farmacêutica Química, Lda. (500233810)","220.383,00 €",03-09-2018,03-09-2018,119 dias,"Portugal, Lisboa, Lisboa",Artigo 259.º do Código dos Contratos Públicos,,,,,,2969238,"CP 2017/6 - Acordo Quadro para fornecimento de Medicamentos do Foro Oncológico e Imunomoduladores, às Instituições e Serviços do Serviço Nacional de Saúde",FALSE
181G002861,Ajuste Direto Regime Geral,Aquisição de bens móveis,"33690000-3, Medicamentos vários","Centro Hospitalar Lisboa Norte, E. P. E. (508481287)","CSL Behring, Lda (503047201)","1.140,00 €",03-09-2018,07-08-2018,1 dias,"Portugal, Lisboa, Lisboa","Artigo 24.º, n.º 1, alínea e), subalínea ii) do Código dos Contratos Públicos",,,,,,Não aplicável.,Não aplicável.,FALSE
FACTOR IX RECOMBINANTE 500 UI ( BENEFIX,Ajuste Direto Regime Geral,Aquisição de bens móveis,"33690000-3, Medicamentos vários","Centro Hospitalar Lisboa Norte, E. P. E. (508481287)","Pfizer Biofarmaceutica, Sociedade Unipessoal Lda. (513300376)","12.567,60 €",03-09-2018,20-07-2018,164 dias,"Portugal, Lisboa, Lisboa","Artigo 24.º, n.º 1, alínea e), subalínea ii) do Código dos Contratos Públicos",,,,,,Não aplicável.,Não aplicável.,FALSE
RAPID POINT 500 CASSETE MEDIDA 400 T,Ajuste Direto Regime Geral,Aquisição de bens móveis,"33690000-3, Medicamentos vários","Centro Hospitalar Lisboa Norte, E. P. E. (508481287)","A SIEMENS HEALTHCARE, LDA (507925173)","7.127,52 €",03-09-2018,24-07-2018,2 dias,"Portugal, Lisboa, Lisboa","Artigo 24.º, n.º 1, alínea e), subalínea ii) do Código dos Contratos Públicos",,,,,,Não aplicável.,Não aplicável.,FALSE
ATALURENO 125 MG GRANULADO P/ SUSP ORAL,Ajuste Direto Regime Geral,Aquisição de bens móveis,"33690000-3, Medicamentos vários","Centro Hospitalar Lisboa Norte, E. P. E. (508481287)","Logifarma, SA (503934640)","33.076,68 €",03-09-2018,25-07-2018,159 dias,"Portugal, Lisboa, Lisboa","Artigo 24.º, n.º 1, alínea e), subalínea iii) do Código dos Contratos Públicos",,,,,,Não aplicável.,Não aplicável.,FALSE
181G002707,Ajuste Direto Regime Geral,Aquisição de bens móveis,"33690000-3, Medicamentos vários","Centro Hospitalar Lisboa Norte, E. P. E. (508481287)",INSTITUT GEORGES LOPEZ (429526973RCS),"9.552,00 €",03-09-2018,06-07-2018,1 dias,"Portugal, Lisboa, Lisboa","Artigo 24.º, n.º 1, alínea e), subalínea iii) do Código dos Contratos Públicos",,,,,,Não aplicável.,Não aplicável.,FALSE
VÁRIOS REAGENTES,Ajuste Direto Regime Geral,Aquisição de bens móveis,"33696000-5, Reagentes e meios de contraste","Centro Hospitalar Lisboa Norte, E. P. E. (508481287)","ROCHE SISTEMAS DE DIAGNÓSTICOS, LDA (504282921)","66.158,40 €",03-09-2018,23-07-2018,161 dias,"Portugal, Lisboa, Lisboa","Artigo 24.º, n.º 1, alínea e), subalínea iii) do Código dos Contratos Públicos",,,,,,Não aplicável.,Não aplicável.,FALSE
FACTOR VIII RECOMBINANTE 500 UI (OCTOG A,Ajuste Direto Regime Geral,Aquisição de bens móveis,"33690000-3, Medicamentos vários","Centro Hospitalar Lisboa Norte, EPE (508481287)",Shire Pharmaceuticals Portugal Lda (509264662),"77.895,00 €",03-09-2018,11-07-2018,1 dias,"Portugal, Lisboa, Lisboa","Artigo 24.º, n.º 1, alínea e), subalínea ii) do Código dos Contratos Públicos",,,,,,Não aplicável.,Não aplicável.,FALSE
IMUNOGLOBULINA 50 MG/ML SOL INJ FR 200 ML,Ajuste Direto Regime Geral,Aquisição de bens móveis,"33690000-3, Medicamentos vários","Centro Hospitalar Lisboa Norte, EPE (508481287)",OCTAPHARMA - PROD FARMACEUTICOS LDA (502820780),"18.346,50 €",03-09-2018,02-07-2018,2 dias,"Portugal, Lisboa, Lisboa","Artigo 24.º, n.º 1, alínea e), subalínea ii) do Código dos Contratos Públicos",,,,,,Não aplicável.,Não aplicável.,FALSE
FACTOR IX RECOMBINANTE 1000 UI INJ ( BENEFIX ),Ajuste Direto Regime Geral,Aquisição de bens móveis,"33690000-3, Medicamentos vários","Centro Hospitalar Lisboa Norte, E. P. E. (508481287)","PFIZER BIOFARMACEUTICA, SOCIEDADE UNIPESSOAL, LDA (513300376)","125.674,00 €",03-09-2018,26-07-2018,158 dias,"Portugal, Lisboa, Lisboa","Artigo 24.º, n.º 1, alínea e), subalínea iii) do Código dos Contratos Públicos",,,,,,Não aplicável.,Não aplicável.,FALSE
IMUNOGLOBULINA 100 MG/ML INJ FR 200 ML (20 G) ( PRIVIGEN ),Ajuste Direto Regime Geral,Aquisição de bens móveis,"33690000-3, Medicamentos vários","Centro Hospitalar Lisboa Norte, E. P. E. (508481287)",CSL BEHRING UNIPESSOAL (503047201),"187.104,00 €",03-09-2018,06-07-2018,1 dias,"Portugal, Lisboa, Lisboa","Artigo 24.º, n.º 1, alínea e), subalínea ii) do Código dos Contratos Públicos",,,,,,Não aplicável.,Não aplicável.,FALSE
FACTOR VIII RECOMBINANTE 250 UI ( OCTOG ALFA ) ( ADVATE ),Ajuste Direto Regime Geral,Aquisição de bens móveis,"33690000-3, Medicamentos vários","Centro Hospitalar Lisboa Norte, E. P. E. (508481287)",Shire Pharmaceuticals Portugal Lda (509264662),"15.579,00 €",03-09-2018,12-07-2018,1 dias,"Portugal, Lisboa, Lisboa","Artigo 24.º, n.º 1, alínea e), subalínea ii) do Código dos Contratos Públicos",,,,,,Não aplicável.,Não aplicável.,FALSE
181G002606,Ajuste Direto Regime Geral,Aquisição de bens móveis,"33690000-3, Medicamentos vários","Centro Hospitalar Lisboa Norte, E. P. E. (508481287)",BAYER PORTUGAL LDA (500043256),"16.400,00 €",03-09-2018,16-07-2018,168 dias,"Portugal, Lisboa, Lisboa","Artigo 24.º, n.º 1, alínea e), subalínea ii) do Código dos Contratos Públicos",,,,,,Não aplicável.,Não aplicável.,FALSE
IMUNOGLOBULINA 50 MG/ML SOL INJ FR 200 ML,Ajuste Direto Regime Geral,Aquisição de bens móveis,"33690000-3, Medicamentos vários","Centro Hospitalar Lisboa Norte, E. P. E. (508481287)",OCTAPHARMA - PROD FARMACEUTICOS LDA (502820780),"12.231,00 €",03-09-2018,02-07-2018,2 dias,"Portugal, Lisboa, Lisboa","Artigo 24.º, n.º 1, alínea e), subalínea ii) do Código dos Contratos Públicos",,,,,,Não aplicável.,Não aplicável.,FALSE
VEDOLIZUMAB 300 MG INJ,Ajuste Direto Regime Geral,Aquisição de bens móveis,"33690000-3, Medicamentos vários","Centro Hospitalar Lisboa Norte, E. P. E. (508481287)","Takeda - Farmacêuticos Portugal, Lda (502801204)","76.756,00 €",31-08-2018,22-08-2018,131 dias,"Portugal, Lisboa, Lisboa","Artigo 24.º, n.º 1, alínea e), subalínea iii) do Código dos Contratos Públicos",,,,,,Não aplicável.,Não aplicável.,FALSE
PROPOFOL SOL INJ 20 MG/ML SERINGA 50 ML,Ajuste Direto Regime Geral,Aquisição de bens móveis,"33690000-3, Medicamentos vários","Centro Hospitalar Lisboa Norte, E. P. E. (508481287)","BDRPHARMA, LDA (513077332)","38.115,00 €",31-08-2018,07-06-2018,207 dias,"Portugal, Lisboa, Lisboa","Artigo 24.º, n.º 1, alínea e), subalínea ii) do Código dos Contratos Públicos",,,,,,Não aplicável.,Não aplicável.,FALSE
Consulta previa n.º 181001499 - Aquisição de medicamentos diversos,Ao abrigo de acordo-quadro (art.º 259.º),Aquisição de bens móveis,"33690000-3, Medicamentos vários","Centro Hospitalar Lisboa Norte, E. P. E. (508481287)",PIERRE FABRE MEDICAMENT PORTUGAL LDA (500230366),"15.968,00 €",31-08-2018,31-08-2018,2 dias,"Portugal, Lisboa, Lisboa",Artigo 259.º do Código dos Contratos Públicos,,,,,,2545980,CP 2017/61 - Acordo quadro para fornecimento de Medicamentos Diversos   às Instituições e Serviços do Serviço Nacional de Saúde,FALSE
Consulta previa n.º 181001499 - Aquisição de medicamentos diversos,Ao abrigo de acordo-quadro (art.º 259.º),Aquisição de bens móveis,"33690000-3, Medicamentos vários","Centro Hospitalar Lisboa Norte, E. P. E. (508481287)",GILEAD SCIENCES LDA (503604704),"40.747,20 €",31-08-2018,31-08-2018,2 dias,"Portugal, Lisboa, Lisboa",Artigo 259.º do Código dos Contratos Públicos,,,,,,2545980,CP 2017/61 - Acordo quadro para fornecimento de Medicamentos Diversos   às Instituições e Serviços do Serviço Nacional de Saúde,FALSE
DEXAMETASONA SOL INJ 5 MG/ML AMP 1 ML,Ajuste Direto Regime Geral,Aquisição de bens móveis,"33690000-3, Medicamentos vários","Centro Hospitalar Lisboa Norte, E. P. E. (508481287)","BDRPHARMA, LDA (513077332)","27.105,00 €",31-08-2018,28-06-2018,186 dias,"Portugal, Lisboa, Lisboa","Artigo 24.º, n.º 1, alínea e), subalínea iii) do Código dos Contratos Públicos",,,,,,Não aplicável.,Não aplicável.,FALSE
Consulta previa n.º 181001543 - Aquisição de exemestano comprimidos de 25 MG,Ao abrigo de acordo-quadro (art.º 259.º),Aquisição de bens móveis,"33652000-5, Antineoplásicos e imunomoduladores","Centro Hospitalar Lisboa Norte, EPE (508481287)",ACCORD HEALTHCARE UNIPESSOAL LDA (508622263),"2.280,00 €",31-08-2018,31-08-2018,1 dias,"Portugal, Lisboa, Lisboa",Artigo 259.º do Código dos Contratos Públicos,,,,,,2969238,"CP 2017/6 - Acordo Quadro para fornecimento de Medicamentos do Foro Oncológico e Imunomoduladores, às Instituições e Serviços do Serviço Nacional de Saúde",FALSE
Consulta Previa n.º 181001553 - Aquisição de Midazolan solução injectavel 5 MG,Ao abrigo de acordo-quadro (art.º 259.º),Aquisição de bens móveis,"33661000-1, Medicamentos para o sistema nervoso","Centro Hospitalar Lisboa Norte, E. P. E. (508481287)",ACCORD HEALTHCARE UNIPESSOAL LDA (508622263),"345,60 €",31-08-2018,31-08-2018,1 dias,"Portugal, Lisboa, Lisboa",Artigo 259.º do Código dos Contratos Públicos,,,,,,2528670,"CP 2017/2 - Acordo Quadro para fornecimento de Medicamentos do Sistema Nervoso Cerebrospinal, exceto: anestésicos, relaxantes musculares, analgésicos, antipiréticos, antidepressivos e antipsicóticos  às Instituições e Serviços do Serviço Nacional de Saúde",FALSE
CERITINIB 150 MG CAPS,Ajuste Direto Regime Geral,Aquisição de bens móveis,"33690000-3, Medicamentos vários","Centro Hospitalar Lisboa Norte, E. P. E. (508481287)","NOVARTIS FARMA-PROD.FARMACÊUTICOS,SA. (500063524)","14.103,84 €",31-08-2018,21-06-2018,192 dias,"Portugal, Lisboa, Lisboa","Artigo 24.º, n.º 1, alínea e), subalínea iii) do Código dos Contratos Públicos",,,,,,Não aplicável.,Não aplicável.,FALSE
BACILOS GRAM NEGATIVOS TIPO 69 PAINEL ID,Ajuste Direto Regime Geral,Aquisição de bens móveis,"33696000-5, Reagentes e meios de contraste","Centro Hospitalar Lisboa Norte, E. P. E. (508481287)","Beckman Coulter Portugal, Unip., Lda (509035167)","11.700,00 €",31-08-2018,25-06-2018,189 dias,"Portugal, Lisboa, Lisboa","Artigo 24.º, n.º 1, alínea e), subalínea ii) do Código dos Contratos Públicos",,,,,,Não aplicável.,Não aplicável.,FALSE
BUDESONIDO 3 MG CAPS LM,Consulta Prévia,Aquisição de bens móveis,"33690000-3, Medicamentos vários","Centro Hospitalar Lisboa Norte, E. P. E. (508481287)","LABORATORIOS VITORIA, SA (500162220)","122,22 €",31-08-2018,02-07-2018,5 dias,"Portugal, Lisboa, Lisboa",Artigo 27.º-A do Código dos Contratos Públicos,,,,,,Não aplicável.,Não aplicável.,FALSE
Consulta Previa n.º 181001556 - Aquisição de nifedipina comprimido,Ao abrigo de acordo-quadro (art.º 259.º),Aquisição de bens móveis,"33622000-6, Medicamentos para o aparelho cardiovascular","Centro Hospitalar Lisboa Norte, E. P. E. (508481287)",generis farmaceutica sa (508107997),"6.862,80 €",31-08-2018,31-08-2018,2 dias,"Portugal, Lisboa, Lisboa",Artigo 259.º do Código dos Contratos Públicos,,,,,,2335591,CP 2016/01 - Acordo Quadro para fornecimento de Medicamentos do Aparelho Cardiovascular   às Instituições e Serviços do Serviço Nacional de Saúde,FALSE
Consulta previa n.º 181G003235 - Aquisição de Hidrogel penso,Consulta Prévia,Aquisição de bens móveis,"33690000-3, Medicamentos vários","Centro Hospitalar Lisboa Norte, E. P. E. (508481287)","SMITH & NEPHEW, LDA. (503552461)","447,50 €",31-08-2018,31-08-2018,2 dias,"Portugal, Lisboa, Lisboa",Artigo 27.º-A do Código dos Contratos Públicos,,,,,,Não aplicável.,Não aplicável.,FALSE
COLISTIMETATO DE SODIO SOL P/ NEBULIZAÇÃO 1000000 UI,Ajuste Direto Regime Geral,Aquisição de bens móveis,"33690000-3, Medicamentos vários","Centro Hospitalar Lisboa Norte, E. P. E. (508481287)",Zambon Produtos Farmaceuticos Lda (502155930),"32.930,28 €",31-08-2018,02-07-2018,1 dias,"Portugal, Lisboa, Lisboa","Artigo 24.º, n.º 1, alínea e), subalínea ii) do Código dos Contratos Públicos",,,,,,Não aplicável.,Não aplicável.,FALSE
Ajuste direto n.º 181G00333 - Aquisição de CARDS ANTI A/B/AB/D/CDE 100 CASSETES,Ajuste Direto Regime Geral,Aquisição de bens móveis,"33696000-5, Reagentes e meios de contraste","Centro Hospitalar Lisboa Norte, EPE (508481287)",OCD - CLINICAL DIAGNOSTICAS PORTUGAL UNIPESSOAL LDA (513032665),"6.938,61 €",31-08-2018,31-08-2018,2 dias,"Portugal, Lisboa, Lisboa","Artigo 24.º, n.º 1, alínea e), subalínea iii) do Código dos Contratos Públicos",,,,,,Não aplicável.,Não aplicável.,FALSE
FOLINATO DE CALCIO INJ 300 MG/30 ML AMP,Ajuste Direto Regime Geral,Aquisição de bens móveis,"33690000-3, Medicamentos vários","Centro Hospitalar Lisboa Norte, E. P. E. (508481287)","TEVA PHARMA - PRODUTOS FARMACÊUTICOS, LDA (507045491)","5.170,00 €",31-08-2018,12-06-2018,1 dias,"Portugal, Lisboa, Lisboa","Artigo 24.º, n.º 1, alínea e), subalínea ii) do Código dos Contratos Públicos",,,,,,Não aplicável.,Não aplicável.,FALSE
FACTOR VON WILLBRAND 1200 UI C/FACTOR VI,Ajuste Direto Regime Geral,Aquisição de bens móveis,"33690000-3, Medicamentos vários","Centro Hospitalar Lisboa Norte, E. P. E. (508481287)",CSL BEHRING UNIPESSOAL (503047201),"15.294,40 €",31-08-2018,02-07-2018,1 dias,"Portugal, Lisboa, Lisboa","Artigo 24.º, n.º 1, alínea e), subalínea iii) do Código dos Contratos Públicos",,,,,,Não aplicável.,Não aplicável.,FALSE
Aquisição de fator VIII RECOMBINANTE 250 ui (Octog Alfa),Ajuste Direto Regime Geral,Aquisição de bens móveis,"33690000-3, Medicamentos vários","Centro Hospitalar Lisboa Norte, E. P. E. (508481287)",Shire Pharmaceuticals Portugal Lda (509264662),"10.905,30 €",31-08-2018,14-06-2018,1 dias,"Portugal, Lisboa, Lisboa","Artigo 24.º, n.º 1, alínea e), subalínea ii) do Código dos Contratos Públicos",,,,,,Não aplicável.,Não aplicável.,FALSE
Aquisição de GLUCOSE NO SANGUE  TIRAS-TESTE 50 TIRAS,Ajuste Direto Regime Geral,Aquisição de bens móveis,"33696000-5, Reagentes e meios de contraste","Centro Hospitalar Lisboa Norte, E. P. E. (508481287)","JOHNSON & JOHNSON, LDA (500153370)","8.300,00 €",31-08-2018,12-07-2018,2 dias,"Portugal, Lisboa, Lisboa","Artigo 24.º, n.º 1, alínea e), subalínea ii) do Código dos Contratos Públicos",,,,,,Não aplicável.,Não aplicável.,FALSE
