Objeto do Contrato,Tipo de Procedimento,Tipo(s) de Contrato,CPVs,Entidade(s) Adjudicante(s),Entidade(s) Adjudicatária(s),Preço Contratual,Data de Publicação,Data de Celebração do Contrato,Prazo de Execução,Local de Execução,Fundamentação,Data de Fecho do Contrato,Preço Total Efetivo,Causas das Alterações ao Prazo,Causas das Alterações ao Preço,Estado,N.º registo do Acordo Quadro,Descrição do Acordo Quadro,Procedimento Centralizado
"120 ampolas de fitomenadiona 2mg/o,2 ml sol. inj /fr o,2 ml IM IV Oral",Ao abrigo de acordo-quadro (art.º 259.º),Aquisição de bens móveis,"33600000-6, Produtos farmacêuticos","Administração Regional de Saúde do Alentejo, I. P. (503148768)","Roche Farmacêutica Química, Lda. (500233810)","120,00 €",29-10-2018,13-06-2018,197 dias,"Portugal, Évora",Artigo 259.º do Código dos Contratos Públicos,25-10-2018,"120,00 €",,"",,2489595,CP 2016/18 - Acordo quadro para fornecimento de Medicamentos do Grupo 4: Sangue às Instituições e Serviços do Serviço Nacional de Saúde,FALSE
Aquisição de Material de Tratamento,Ajuste Direto Regime Geral,Aquisição de bens móveis,"33140000-3, Material médico de consumo",Administração Regional de Saúde do Alentejo (ARSA) (503148768),Coloplast Portugal (503989037),"1.049,00 €",25-10-2018,30-07-2018,150 dias,"Portugal, Évora","Artigo 20.º, n.º 1, alínea a) do Código dos Contratos Públicos",16-11-2018,"1.049,00 €",,"",,Não aplicável.,Não aplicável.,FALSE
Aquisição de Material de Tratamento,Ajuste Direto Regime Geral,Aquisição de bens móveis,"33140000-3, Material médico de consumo",Administração Regional de Saúde do Alentejo (ARSA) (503148768),Quilaban (500399670),"324,72 €",25-10-2018,31-07-2017,150 dias,"Portugal, Évora","Artigo 20.º, n.º 1, alínea a) do Código dos Contratos Públicos",16-11-2018,"324,72 €",,"",,Não aplicável.,Não aplicável.,FALSE
Aquisição de Material de Tratamento,Ajuste Direto Regime Geral,Aquisição de bens móveis,"33140000-3, Material médico de consumo",Administração Regional de Saúde do Alentejo (ARSA) (503148768),Docworld - Dispositivos Médicos (508592909),"741,60 €",25-10-2018,06-10-2017,60 dias,"Portugal, Évora","Artigo 20.º, n.º 1, alínea a) do Código dos Contratos Públicos",16-11-2018,"741,60 €",,"",,Não aplicável.,Não aplicável.,FALSE
Aquisição de Material de tratamento,Ajuste Direto Regime Geral,Aquisição de bens móveis,"33140000-3, Material médico de consumo",Administração Regional de Saúde do Alentejo (ARSA) (503148768),Overpharma (505792362),"110,50 €",25-10-2018,31-10-2017,60 dias,"Portugal, Évora","Artigo 20.º, n.º 1, alínea a) do Código dos Contratos Públicos",16-11-2018,"110,50 €",,"",,Não aplicável.,Não aplicável.,FALSE
Aquisição de Material de Tratamento,Ajuste Direto Regime Geral,Aquisição de bens móveis,"33140000-3, Material médico de consumo",Administração Regional de Saúde do Alentejo (ARSA) (503148768),PMH Produtos Med. Hospitalar (502376899),"153,72 €",25-10-2018,31-07-2017,150 dias,"Portugal, Évora","Artigo 20.º, n.º 1, alínea a) do Código dos Contratos Públicos",16-11-2018,"180,00 €",,Quantidades das caixas/embalagens,,Não aplicável.,Não aplicável.,FALSE
Aquisição de material de tratamento,Ajuste Direto Regime Geral,Aquisição de bens móveis,"33140000-3, Material médico de consumo",Administração Regional de Saúde do Alentejo (ARSA) (503148768),Hospitex - Material Hospitalar (501909842),"258,00 €",25-10-2018,02-11-2017,60 dias,"Portugal, Évora","Artigo 20.º, n.º 1, alínea a) do Código dos Contratos Públicos",16-11-2018,"258,00 €",,"",,Não aplicável.,Não aplicável.,FALSE
Aquisição de Material de Tratamento,Ajuste Direto Regime Geral,Aquisição de bens móveis,"33140000-3, Material médico de consumo",Administração Regional de Saúde do Alentejo (ARSA) (503148768),H.R. Hospitalar (501895558),"3,26 €",25-10-2018,06-10-2017,60 dias,"Portugal, Évora","Artigo 20.º, n.º 1, alínea a) do Código dos Contratos Públicos",16-11-2018,"7,75 €",,Quantidade das embalagens,,Não aplicável.,Não aplicável.,FALSE
Contratação de serviços combinados de vigilância e ligação a Central de alarmes para a ARSA em 2017,Ao abrigo de acordo-quadro (art.º 259.º),Aquisição de serviços,"79710000-4, Serviços de segurança","Administração Regional de Saúde do Alentejo, I. P. (503148768)","Prestibel - Empresa de Segurança, S.A. (501326456)","308.949,64 €",24-10-2018,31-01-2017,365 dias,"Portugal, Évora",Artigo 259.º do Código dos Contratos Públicos,31-12-2017,"360.204,64 €",,Adenda ao contrato por acréscimo de serviços no CS Reguengos de Monsaraz,,613183,Acordo quadro para a prestação de serviços de vigilância e segurança,FALSE
Prestação de serviços de médico dentista e assistente técnico de medicina dentária para o CS de Montemor-o-Novo,Ajuste Direto Regime Geral,Aquisição de serviços,"85100000-0, Serviços de saúde","Administração Regional de Saúde do Alentejo, I. P. (503148768)","Corevalue - Healthcare Solutions, Lda. (513654577)","19.995,33 €",24-10-2018,01-01-2018,250 dias,"Portugal, Évora, Montemor-o-Novo","Artigo 20.º, n.º 1, alínea a) do Código dos Contratos Públicos",07-09-2018,"20.573,75 €",,Número de horas efetuadas superior ao número de horas contratadas,,Não aplicável.,Não aplicável.,FALSE
Aquisição de electrodos para multifunções adulto - lifepak,Ajuste Direto Regime Geral,Aquisição de bens móveis,"33140000-3, Material médico de consumo",Administração Regional de Saúde do Alentejo (ARSA) (503148768),"Medtronic Portugal, Ldª (504223933)","800,00 €",24-10-2018,04-08-2017,120 dias,"Portugal, Évora","Artigo 20.º, n.º 1, alínea a) do Código dos Contratos Públicos",29-12-2017,"800,00 €",,"",,Não aplicável.,Não aplicável.,FALSE
Prestação de serviços de médico dentista e assistente técnico de medicina dentária para o CS de Portel,Ajuste Direto Regime Geral,Aquisição de serviços,"85100000-0, Serviços de saúde","Administração Regional de Saúde do Alentejo, I. P. (503148768)","Corevalue - Healthcare Solutions, Lda. (513654577)","20.833,36 €",24-10-2018,01-01-2018,250 dias,"Portugal, Évora, Portel","Artigo 20.º, n.º 1, alínea a) do Código dos Contratos Públicos",08-09-2018,"21.489,44 €",,Número de horas efetuadas superior ao número de horas previstas.,,Não aplicável.,Não aplicável.,FALSE
Aquisição de electrodos multifunções pediátrico-lifepak de uso único,Ajuste Direto Regime Geral,Aquisição de bens móveis,"33140000-3, Material médico de consumo",Administração Regional de Saúde do Alentejo (ARSA) (503148768),"Space - Equipamentos Médicos, Ldª (507662407)","790,50 €",24-10-2018,04-08-2017,120 dias,"Portugal, Évora","Artigo 20.º, n.º 1, alínea a) do Código dos Contratos Públicos",29-12-2017,"790,50 €",,"",,Não aplicável.,Não aplicável.,FALSE
Aquisição de 1.050 Balão esterilizado para colheita,Ajuste Direto Regime Geral,Aquisição de bens móveis,"33140000-3, Material médico de consumo",Administração Regional de Saúde do Alentejo (ARSA) (503148768),Ezequiel Panão Jorge (501412727),"54,60 €",24-10-2018,03-08-2017,120 dias,"Portugal, Évora","Artigo 20.º, n.º 1, alínea a) do Código dos Contratos Públicos",29-12-2017,"54,60 €",,"",,Não aplicável.,Não aplicável.,FALSE
Aquisição de electrodos para desfibrilhador de uso único pediátrico,Ajuste Direto Regime Geral,Aquisição de bens móveis,"33140000-3, Material médico de consumo",Administração Regional de Saúde do Alentejo (ARSA) (503148768),"Bastos Viegas, S.A. (500042772)","74,00 €",24-10-2018,30-11-2017,30 dias,"Portugal, Évora","Artigo 20.º, n.º 1, alínea a) do Código dos Contratos Públicos",29-12-2017,"74,00 €",,"",,Não aplicável.,Não aplicável.,FALSE
Aquisição de Electrodos para monitor desfibrilhador,Ajuste Direto Regime Geral,Aquisição de bens móveis,"33140000-3, Material médico de consumo",Administração Regional de Saúde do Alentejo (ARSA) (503148768),"Nosbet - Equipamentos, Ldª (513514872)","847,20 €",24-10-2018,20-12-2017,12 dias,"Portugal, Évora","Artigo 20.º, n.º 1, alínea a) do Código dos Contratos Públicos",29-12-2017,"847,20 €",,"",,Não aplicável.,Não aplicável.,FALSE
Contratação de serviços médicos para o SAP de Vendas Novas nos meses de agosto e setembro de 2017.,Ao abrigo de acordo-quadro (art.º 259.º),Aquisição de serviços,"85121000-3, Serviços de prática médica","Administração Regional de Saúde do Alentejo, I. P. (503148768)","Kelly Services - Healthcare, Unipessoal, Lda. (510723691)","1.580,40 €",24-10-2018,01-08-2017,60 dias,"Portugal, Évora, Vendas Novas",Artigo 259.º do Código dos Contratos Públicos,30-09-2017,"1.580,40 €",,"",,1490434,ACORDO QUADRO PARA PRESTAÇÃO DE SERVIÇOS MÉDICOS ÀS INSTITUIÇÕES E SERVIÇOS DO SERVIÇO NACIONAL DE SAÚDE,FALSE
