Objeto do Contrato,Tipo de Procedimento,Tipo(s) de Contrato,CPVs,Entidade(s) Adjudicante(s),Entidade(s) Adjudicatária(s),Preço Contratual,Data de Publicação,Data de Celebração do Contrato,Prazo de Execução,Local de Execução,Fundamentação,Data de Fecho do Contrato,Preço Total Efetivo,Causas das Alterações ao Prazo,Causas das Alterações ao Preço,Estado,N.º registo do Acordo Quadro,Descrição do Acordo Quadro,Procedimento Centralizado
AQUISIÇÃO DE BRONCOFIBROSCÓPIO,Ajuste Direto Regime Geral,Aquisição de bens móveis,"33000000-0, Equipamento médico, medicamentos e produtos para cuidados pessoais","Hospital Garcia de Orta, E. P. E. (506361470)","TEPREL - EQUIPAMENTO MÉDICOS, S.A. (502262184)","8.030,00 €",21-03-2018,09-03-2018,30 dias,"Portugal, Setúbal, Almada","Artigo 20.º, n.º 1, alínea a) do Código dos Contratos Públicos",,,,,,Não aplicável.,Não aplicável.,FALSE
PRESTAÇÃO DE SERVIÇOS DE DESENHADOR CAD PARA ANO DE 2017,Ajuste Direto Regime Geral,Aquisição de serviços,"71000000-8, Serviços de arquitectura, construção, engenharia e inspecção","Hospital Garcia de Orta, E. P. E. (506361470)","Efago - Manutenção Hospitalar, ACE (510930573)","30.982,56 €",21-03-2018,17-01-2018,365 dias,"Portugal, Setúbal, Almada","Artigo 20.º, n.º 1, alínea a) do Código dos Contratos Públicos",,,,,,Não aplicável.,Não aplicável.,FALSE
Aquisição de Pembrolizumab  100mg Pó Conc Sol inj Fr IV,Ajuste Direto Regime Geral,Aquisição de bens móveis,"33000000-0, Equipamento médico, medicamentos e produtos para cuidados pessoais","Hospital Garcia de Orta, E. P. E. (506361470)",Merck Sharp & Dohme (500191360),"420.000,00 €",20-03-2018,27-02-2018,365 dias,"Portugal, Setúbal, Almada","Artigo 24.º, n.º 1, alínea e), subalínea iii) do Código dos Contratos Públicos",,,,,,Não aplicável.,Não aplicável.,FALSE
PEMBROLIZUMAB 100 MG,Ajuste Direto Regime Geral,Aquisição de bens móveis,"33000000-0, Equipamento médico, medicamentos e produtos para cuidados pessoais","Hospital Garcia de Orta, E. P. E. (506361470)","MERCK SHARP & DOHME, LDA (500191360)","42.000,00 €",13-03-2018,03-01-2018,90 dias,"Portugal, Setúbal, Almada","Artigo 24.º, n.º 1, alínea e) do Código dos Contratos Públicos",,,,,,Não aplicável.,Não aplicável.,FALSE
