Objeto do Contrato,Tipo de Procedimento,Tipo(s) de Contrato,CPVs,Entidade(s) Adjudicante(s),Entidade(s) Adjudicatária(s),Preço Contratual,Data de Publicação,Data de Celebração do Contrato,Prazo de Execução,Local de Execução,Fundamentação,Data de Fecho do Contrato,Preço Total Efetivo,Causas das Alterações ao Prazo,Causas das Alterações ao Preço,Estado,N.º registo do Acordo Quadro,Descrição do Acordo Quadro,Procedimento Centralizado
Elaboração de projetos para Centro de Saúde de Ourique.,Ajuste Direto Regime Geral,Aquisição de serviços,"71242000-6, Preparação de projecto e concepção, estimativa de custos",Serviço de Utilização Comum dos Hospitais (500900469),"e3e - Machado, Trindade e Silva, Lda. (509046037)","17.800,00 €",21-03-2018,08-03-2018,30 dias,Portugal,"Artigo 20.º, n.º 1, alínea a) do Código dos Contratos Públicos",,,,,,Não aplicável.,Não aplicável.,FALSE
Serviços de mecanica,Ajuste Direto Regime Geral,Aquisição de serviços,"50000000-5, Serviços de reparação e manutenção",Serviço de Utilização Comum dos Hospitais (500900469),DS CAR Passion;lda (514724803),"25.200,00 €",19-03-2018,09-03-2018,354 dias,"Portugal, Coimbra, Coimbra","Artigo 20.º, n.º 1, alínea a) do Código dos Contratos Públicos",,,,,,Não aplicável.,Não aplicável.,FALSE
aquisição de suportes rodados para contentores em estrutura tubular de aço Inox,Ajuste Direto Regime Geral,Aquisição de bens móveis,"34000000-7, Equipamento e produtos auxiliares de transporte",Serviço de Utilização Comum dos Hospitais (500900469),MECR Lda - fabrico e Manutenção de Equipamentos (503450936),"18.850,00 €",19-03-2018,16-03-2018,20 dias,"Portugal, Coimbra","Artigo 20.º, n.º 1, alínea d) do Código dos Contratos Públicos",,,,,,Não aplicável.,Não aplicável.,FALSE
"aquisição de suportes rodados para contentores em estrutura tubular, para contentores Bio box de 60 LT,",Ajuste Direto Regime Geral,Aquisição de bens móveis,"34000000-7, Equipamento e produtos auxiliares de transporte",Serviço de Utilização Comum dos Hospitais (500900469),MECR Lda - fabrico e Manutenção de Equipamentos (503450936),"8.800,00 €",19-03-2018,16-03-2018,20 dias,"Portugal, Lisboa","Artigo 20.º, n.º 1, alínea d) do Código dos Contratos Públicos",,,,,,Não aplicável.,Não aplicável.,FALSE
"Prestação de Serviços de Recolha e Transporte e Tratamento de Lamas para a Estação de Tratamento de Águas Residuais do Centro Hospitalar Trás-os-Montes e Alto Douro, E.P.E.",Ajuste Direto Regime Geral,Aquisição de serviços,"90400000-1, Serviços relacionados com águas residuais",Serviço de Utilização Comum dos Hospitais (500900469),"SOMOS AMBIENTE , A.C.E (AGRUPAMENTO SUCH e AMBIPOMBAL) (508653479)","8.500,00 €",16-03-2018,16-03-2018,290 dias,"Portugal, Vila Real","Artigo 20.º, n.º 1, alínea d) do Código dos Contratos Públicos",,,,,,Não aplicável.,Não aplicável.,FALSE
Prestação de serviços externos de medicina do trabalho,Concurso público,Aquisição de serviços,"85147000-1, Serviços de medicina do trabalho",Serviço de Utilização Comum dos Hospitais (500900469),"Workview - Prestação de Serviços de HST, Lda (507159683)","50.589,00 €",16-03-2018,01-03-2018,334 dias,Portugal,"Artigo 20.º, n.º 1, alínea b) do Código dos Contratos Públicos",,,,,,Não aplicável.,Não aplicável.,FALSE
Serviço de Aluguer de Viatura para Transporte de Sangue e Derivados,Ajuste Direto Regime Geral,Aquisição de serviços,"60100000-9, Serviços de transporte rodoviário",Serviço de Utilização Comum dos Hospitais (500900469),Torres Servicio Movil (514082127),"48.274,19 €",15-03-2018,08-02-2018,365 dias,Portugal,"Artigo 20.º, n.º 1, alínea a) do Código dos Contratos Públicos",,,,,,Não aplicável.,Não aplicável.,FALSE
Serviços de Recolha e Transporte de Resíduos Hospitalares Perigosos na Região da Madeira,Ajuste Direto Regime Geral,Aquisição de serviços,"90524400-0, Recolha, transporte e eliminação de resíduos hospitalares",Serviço de Utilização Comum dos Hospitais (500900469),"Serlima Ambiente - Limpeza e Conservação, S.A. (511062052)","44.580,00 €",15-03-2018,15-03-2018,181 dias,"Portugal, Região Autónoma da Madeira","Artigo 20.º, n.º 1, alínea a) do Código dos Contratos Públicos",,,,,,Não aplicável.,Não aplicável.,FALSE
"Prestação de Serviços de aluguer de Viatura para Transporte de Medicamentos e Material Clinico para a área de Gestão de Serviços de Transporte do Centro Hospitalar de Vila Nova de Gaia/Espinho, para o ano de 2018",Ajuste Direto Regime Geral,Aquisição de serviços,"60100000-9, Serviços de transporte rodoviário",Serviço de Utilização Comum dos Hospitais (500900469),PETIT FORESTIER PORTUGAL (507619757),"39.150,00 €",15-03-2018,15-03-2018,365 dias,"Portugal, Porto, Vila Nova de Gaia","Artigo 20.º, n.º 1, alínea a) do Código dos Contratos Públicos",,,,,,Não aplicável.,Não aplicável.,FALSE
Energia Elétrica de Baixa Tensão Normal.,Ajuste Direto Regime Geral,Aquisição de bens móveis,"09310000-5, Electricidade",Serviço de Utilização Comum dos Hospitais (500900469),"Galp Power, SA (504723456)","9.131,21 €",15-03-2018,15-03-2018,60 dias,Portugal,"Artigo 24.º, n.º 1, alínea c) do Código dos Contratos Públicos",,,,,,Não aplicável.,Não aplicável.,FALSE
Assistência técnica a equipamentos médicos.,Ajuste Direto Regime Geral,Aquisição de serviços,"50421000-2, Serviços de reparação e manutenção de equipamento médico",Serviço de Utilização Comum dos Hospitais (500900469),SPACEINSP (514126329),"6.720,00 €",14-03-2018,13-03-2018,15 dias,"Portugal, Lisboa, Amadora","Artigo 24.º, n.º 1, alínea e), subalínea ii) do Código dos Contratos Públicos",,,,,,Não aplicável.,Não aplicável.,FALSE
"Assistência técnica a Esterilizador """"STERRAD 100S""""",Ajuste Direto Regime Geral,Aquisição de serviços,"50530000-9, Serviços de reparação e manutenção de máquinas",Serviço de Utilização Comum dos Hospitais (500900469),Johnson & Johnson (500153370),"6.120,00 €",12-03-2018,12-03-2018,294 dias,"Portugal, Lisboa, Amadora","Artigo 24.º, n.º 1, alínea e), subalínea ii) do Código dos Contratos Públicos",,,,,,Não aplicável.,Não aplicável.,FALSE
