Objeto do Contrato,Tipo de Procedimento,Tipo(s) de Contrato,CPVs,Entidade(s) Adjudicante(s),Entidade(s) Adjudicatária(s),Preço Contratual,Data de Publicação,Data de Celebração do Contrato,Prazo de Execução,Local de Execução,Fundamentação,Data de Fecho do Contrato,Preço Total Efetivo,Causas das Alterações ao Prazo,Causas das Alterações ao Preço,Estado,N.º registo do Acordo Quadro,Descrição do Acordo Quadro,Procedimento Centralizado
"Empreitada de Reparação do tecto da câmara frigorífica de plasma -40.º, nº 2, instalada no CSTL-S",Ajuste Direto Regime Geral,Aquisição de serviços,"50700000-2, Serviços de reparação e manutenção de equipamento em edifícios","Instituto Português do Sangue e da Transplantação, I. P. (502423943)","Electro-Refrigeração Valentim, Lda. (500295123)","6.128,00 €",20-11-2014,07-11-2014,20 dias,"Portugal, Lisboa, Lisboa","Artigo 20.º, n.º 1, alínea a) do Código dos Contratos Públicos",,,,,,Não aplicável.,Não aplicável.,FALSE
51115/2014 Aquisição de Reagentes para os Laboratórios de Imunologia Leucoplaquetária,Ajuste Direto Regime Geral,Aquisição de bens móveis,"33692000-7, Soluções medicinais","Instituto Português do Sangue e da Transplantação, I. P. (502423943)",Citomed (503492043),"7.305,20 €",17-11-2014,14-11-2014,40 dias,"Portugal, Porto, Porto<BR/>Portugal, Lisboa, Lisboa","Artigo 20.º, n.º 1, alínea a) do Código dos Contratos Públicos",,,,,,Não aplicável.,Não aplicável.,FALSE
"410422014 - Aquisição de Reagentes, Teste Fenotipagem RH e KELL ",Ajuste Direto Regime Geral,Aquisição de bens móveis,"33692000-7, Soluções medicinais","Instituto Português do Sangue e da Transplantação, I. P. (502423943)",BECKMAN (509035167),"8.640,00 €",17-11-2014,14-11-2014,35 dias,"Portugal, Porto, Porto","Artigo 26.º, n.º 1, alínea a) do Código dos Contratos Públicos",,,,,,Não aplicável.,Não aplicável.,FALSE
"Aquisição de Reagentes para os Laboratórios de Genética/Imunogenética e Alossensibilização e Serologia HLA do IPST, IP",Ajuste Direto Regime Geral,Aquisição de bens móveis,"33696200-7, Reagentes para análises ao sangue","Instituto Português do Sangue e da Transplantação, I. P. (502423943)",Comercial Rafer (980180651),"116.866,93 €",17-11-2014,26-08-2014,60 dias,"Portugal, Coimbra, Coimbra<BR/>Portugal, Porto, Porto<BR/>Portugal, Lisboa, Lisboa","Artigo 26.º, n.º 1, alínea a) do Código dos Contratos Públicos",,,,,,Não aplicável.,Não aplicável.,FALSE
