Objeto do Contrato,Tipo de Procedimento,Tipo(s) de Contrato,CPVs,Entidade(s) Adjudicante(s),Entidade(s) Adjudicatária(s),Preço Contratual,Data de Publicação,Data de Celebração do Contrato,Prazo de Execução,Local de Execução,Fundamentação,Data de Fecho do Contrato,Preço Total Efetivo,Causas das Alterações ao Prazo,Causas das Alterações ao Preço,Estado,N.º registo do Acordo Quadro,Descrição do Acordo Quadro,Procedimento Centralizado
Impressoras HP Laserjet Pro M 402 Dne,Consulta Prévia,Aquisição de bens móveis,"30000000-9, Máquinas, equipamento e material de escritório e de informática, excepto mobiliário e pacotes de programas (software)","Centro Hospitalar de Setúbal, E. P. E. (507606787)","Informantem - Informática e manutenção, Lda (503670693)","8.550,00 €",11-05-2018,11-05-2018,30 dias,"Portugal, Setúbal, Setúbal","Artigo 20.º, n.º 1, alínea c) do Código dos Contratos Públicos",,,,,,Não aplicável.,Não aplicável.,FALSE
Equipamento para cirurgia,Ajuste Direto Regime Geral,Aquisição de bens móveis,"33000000-0, Equipamento médico, medicamentos e produtos para cuidados pessoais","Centro Hospitalar de Setúbal, E. P. E. (507606787)","Stryker Portugal Produtos Médicos, Lda. (504594214)","7.656,90 €",11-05-2018,11-05-2018,30 dias,"Portugal, Setúbal, Setúbal","Artigo 20.º, n.º 1, alínea d) do Código dos Contratos Públicos",,,,,,Não aplicável.,Não aplicável.,FALSE
Serviços Médicos Dermatologia,Ajuste Direto Regime Geral,Aquisição de serviços,"85000000-9, Serviços de saúde e acção social","Centro Hospitalar de Setúbal, E. P. E. (507606787)",Dermarana (504471848),"27.200,00 €",10-05-2018,30-04-2018,365 dias,"Portugal, Setúbal, Setúbal","Artigo 20.º, n.º 1, alínea a) do Código dos Contratos Públicos",,,,,,Não aplicável.,Não aplicável.,FALSE
Serviços Médicos Ginecologia/obstetricia,Ajuste Direto Regime Geral,Aquisição de serviços,"85000000-9, Serviços de saúde e acção social","Centro Hospitalar de Setúbal, E. P. E. (507606787)","Ana Paula Valentim, Lda. (507262247)","10.800,00 €",10-05-2018,30-04-2018,365 dias,"Portugal, Setúbal, Setúbal","Artigo 20.º, n.º 1, alínea a) do Código dos Contratos Públicos",,,,,,Não aplicável.,Não aplicável.,FALSE
Atualização do sistema Xcelera,Ajuste Direto Regime Geral,Aquisição de bens móveis,"48000000-8, Pacotes de software e sistemas de informação","Centro Hospitalar de Setúbal, E. P. E. (507606787)","Philips Portuguesa, S.A. (500216843)","18.583,32 €",10-05-2018,02-05-2018,30 dias,"Portugal, Setúbal, Setúbal","Artigo 24.º, n.º 1, alínea c) do Código dos Contratos Públicos",,,,,,Não aplicável.,Não aplicável.,FALSE
Serviços Médicos Oftalmologia,Ajuste Direto Regime Geral,Aquisição de serviços,"85000000-9, Serviços de saúde e acção social","Centro Hospitalar de Setúbal, E. P. E. (507606787)",Gooft Lda (513554220),"16.640,00 €",10-05-2018,30-04-2018,365 dias,"Portugal, Setúbal, Setúbal","Artigo 20.º, n.º 1, alínea a) do Código dos Contratos Públicos",,,,,,Não aplicável.,Não aplicável.,FALSE
Serviços Médicos Oftalmologia,Ajuste Direto Regime Geral,Aquisição de serviços,"85000000-9, Serviços de saúde e acção social","Centro Hospitalar de Setúbal, E. P. E. (507606787)","Avaliação Continua-Prestação Serviços Médicos, Lda (508355206)","16.000,00 €",10-05-2018,30-04-2018,365 dias,"Portugal, Setúbal, Setúbal","Artigo 20.º, n.º 1, alínea a) do Código dos Contratos Públicos",,,,,,Não aplicável.,Não aplicável.,FALSE
"Serviços Médicos Neurologia, ano 2018",Ajuste Direto Regime Geral,Aquisição de serviços,"85000000-9, Serviços de saúde e acção social","Centro Hospitalar de Setúbal, E. P. E. (507606787)","Rui Labrusco, Lda (506584828)","67.500,00 €",10-05-2018,30-04-2018,365 dias,"Portugal, Setúbal, Setúbal","Artigo 20.º, n.º 1, alínea a) do Código dos Contratos Públicos",,,,,,Não aplicável.,Não aplicável.,FALSE
Microscópio ORL,Concurso público,Aquisição de bens móveis,"33100000-1, Equipamento médico",CENTRO HOSPITALAR DE SETÚBAL E.P.E. (507606787),"Lusopalex -Soc. Dist. Prod Hospitalares Unipessoal, Lda. (503531588)","74.900,00 €",09-05-2018,17-04-2018,30 dias,"Portugal, Setúbal, Setúbal","Artigo 20.º, n.º 1, alínea b) do Código dos Contratos Públicos",,,,,,Não aplicável.,Não aplicável.,FALSE
Comunicação Dados,Ajuste Direto Regime Geral,Aquisição de serviços,"64000000-6, Serviços postais e de telecomunicações","Centro Hospitalar de Setúbal, E. P. E. (507606787)","Meo-Serviços de Comunicações e Multimédia, S.A (504615947)","28.424,64 €",09-05-2018,30-11-2017,365 dias,"Portugal, Setúbal, Setúbal","Artigo 20.º, n.º 1, alínea a) do Código dos Contratos Públicos",,,,,,Não aplicável.,Não aplicável.,FALSE
instrumental para artroscopia,Ajuste Direto Regime Geral,Aquisição de bens móveis,"33000000-0, Equipamento médico, medicamentos e produtos para cuidados pessoais","Centro Hospitalar de Setúbal, E. P. E. (507606787)",Stryker Portugal (504594214),"8.175,24 €",09-05-2018,08-05-2018,30 dias,"Portugal, Setúbal, Setúbal","Artigo 20.º, n.º 1, alínea d) do Código dos Contratos Públicos",,,,,,Não aplicável.,Não aplicável.,FALSE
Serviços de manutenção às Camas Mundinter do CHS,Ajuste Direto Regime Geral,Aquisição de serviços,"50000000-5, Serviços de reparação e manutenção","Centro Hospitalar de Setúbal, E. P. E. (507606787)","Mundinter - intercâmbio Mundial de Comércio, SA (500199906)","18.300,00 €",08-05-2018,16-02-2018,365 dias,"Portugal, Setúbal, Setúbal","Artigo 24.º, n.º 1, alínea e), subalínea iii) do Código dos Contratos Públicos",,,,,,Não aplicável.,Não aplicável.,FALSE
Novas instalações sanitárias/vestiários para o Hospital Dia Piquiatria,Concurso público,Empreitadas de obras públicas,"45000000-7, Construção",CENTRO HOSPITALAR DE SETÚBAL E.P.E. (507606787),"Miguel A. Simões- Const Civil e Inst Tecnicas Unip , lda (509663613)","11.894,60 €",08-05-2018,17-04-2018,60 dias,"Portugal, Setúbal, Setúbal","Artigo 19.º, alínea b) do Código dos Contratos Públicos",,,,,,Não aplicável.,Não aplicável.,FALSE
sacos de plástico transparentes em rolo para o ano 2018,Consulta Prévia,Aquisição de bens móveis,"19500000-1, Materiais de plástico e de borracha","Centro Hospitalar de Setúbal, E. P. E. (507606787)","Exaclean, Lda (508758190)","15.000,00 €",08-05-2018,17-04-2018,365 dias,"Portugal, Setúbal, Setúbal","Artigo 20.º, n.º 1, alínea c) do Código dos Contratos Públicos",,,,,,Não aplicável.,Não aplicável.,FALSE
Fardamento para pessoal técnico e farmacêutico,Ajuste Direto Regime Geral,Aquisição de bens móveis,"18000000-9, Vestuário, calçado, malas e artigos de viagem, acessórios","Centro Hospitalar de Setúbal, E. P. E. (507606787)","Lintexport Internacional Textil, Lda (500316899)","9.664,68 €",08-05-2018,02-05-2018,30 dias,"Portugal, Setúbal, Setúbal","Artigo 20.º, n.º 1, alínea d) do Código dos Contratos Públicos",,,,,,Não aplicável.,Não aplicável.,FALSE
Serviços de manutenção corretiva e evolutiva dos sistemas ALERT instalados nas Entidades do ministério da Saude para o ano 2018,Ajuste Direto Regime Geral,Aquisição de serviços,"50000000-5, Serviços de reparação e manutenção","Centro Hospitalar de Setúbal, E. P. E. (507606787)","Alert Life Sciences Computing, SA (507567455)","33.062,00 €",07-05-2018,01-03-2018,365 dias,"Portugal, Setúbal, Setúbal","Artigo 24.º, n.º 1, alínea e) do Código dos Contratos Públicos",,,,,,Não aplicável.,Não aplicável.,FALSE
Comunicações Móveis,Ajuste Direto Regime Geral,Aquisição de serviços,"85000000-9, Serviços de saúde e acção social","Centro Hospitalar de Setúbal, E. P. E. (507606787)","MEO - Serviços de Comunicações e Multimédia, S.A. (504615947)","27.000,00 €",04-05-2018,30-11-2017,365 dias,"Portugal, Setúbal, Setúbal","Artigo 20.º, n.º 1, alínea a) do Código dos Contratos Públicos",,,,,,Não aplicável.,Não aplicável.,FALSE
Serviços Médicos Neurradiologia,Ajuste Direto Regime Geral,Aquisição de serviços,"85000000-9, Serviços de saúde e acção social","Centro Hospitalar de Setúbal, E. P. E. (507606787)",Paulo Eduardo Filipe Gomes Saraiva (147495768),"25.800,00 €",04-05-2018,11-04-2018,365 dias,"Portugal, Setúbal, Setúbal","Artigo 20.º, n.º 1, alínea a) do Código dos Contratos Públicos",,,,,,Não aplicável.,Não aplicável.,FALSE
concentrados de nefrologia,Ajuste Direto Regime Geral,Aquisição de bens móveis,"33690000-3, Medicamentos vários","Centro Hospitalar de Setúbal, E. P. E. (507606787)",fresenius medical care (503070220),"74.252,40 €",04-05-2018,18-01-2018,365 dias,"Portugal, Setúbal, Setúbal","Artigo 24.º, n.º 1, alínea a) do Código dos Contratos Públicos",,,,,,Não aplicável.,Não aplicável.,FALSE
Serviços Médicos Medicina Interna,Ajuste Direto Regime Geral,Aquisição de serviços,"85000000-9, Serviços de saúde e acção social","Centro Hospitalar de Setúbal, E. P. E. (507606787)",Cardiga Saúde Unipessoal Lda (513974660),"24.960,00 €",04-05-2018,10-04-2018,365 dias,"Portugal, Setúbal, Setúbal","Artigo 20.º, n.º 1, alínea a) do Código dos Contratos Públicos",,,,,,Não aplicável.,Não aplicável.,FALSE
Elaboração de projeto de unidade de internamento de curta duração,Consulta Prévia,Aquisição de serviços,"71000000-8, Serviços de arquitectura, construção, engenharia e inspecção","Centro Hospitalar de Setúbal, E. P. E. (507606787)","Luis Narciso Arquitetos, Lda (503413356)","34.300,00 €",03-05-2018,02-05-2018,30 dias,"Portugal, Setúbal, Setúbal","Artigo 20.º, n.º 1, alínea c) do Código dos Contratos Públicos",,,,,,Não aplicável.,Não aplicável.,FALSE
AQ URGENTE MEDICAMENTOS,Ajuste Direto Regime Geral,Aquisição de bens móveis,"33600000-6, Produtos farmacêuticos","Centro Hospitalar de Setúbal, E. P. E. (507606787)",KVTECH PORTUGAL-PRODUTOS MÉDICOS UNIPESSOAL LDA (508671531),"387,00 €",03-05-2018,22-02-2018,15 dias,"Portugal, Setúbal, Setúbal","Artigo 21.º, n.º 1, alínea a) do Código dos Contratos Públicos",,,,,,Não aplicável.,Não aplicável.,FALSE
Implementação  da filosofia Lean,Ajuste Direto Regime Geral,Aquisição de serviços,"72000000-5, Serviços de TI: consultoria, desenvolvimento de software, Internet e apoio","Centro Hospitalar de Setúbal, E. P. E. (507606787)","Pensamento inesperado, Lda (510310591)","18.000,00 €",03-05-2018,13-04-2018,30 dias,"Portugal, Setúbal, Setúbal","Artigo 20.º, n.º 1, alínea d) do Código dos Contratos Públicos",,,,,,Não aplicável.,Não aplicável.,FALSE
AQ URGENTE MEDICAMENTOS,Ajuste Direto Regime Geral,Aquisição de bens móveis,"33600000-6, Produtos farmacêuticos","Centro Hospitalar de Setúbal, E. P. E. (507606787)","Laboratórios Farmacêuticos ROVI, S.A. (980166705)","7.200,00 €",03-05-2018,22-02-2018,15 dias,"Portugal, Setúbal, Setúbal","Artigo 21.º, n.º 1, alínea a) do Código dos Contratos Públicos",,,,,,Não aplicável.,Não aplicável.,FALSE
instalação de equipamento de tratamento de águas aqs,Ajuste Direto Regime Geral,Aquisição de bens móveis,"41000000-9, Água captada e tratada","Centro Hospitalar de Setúbal, E. P. E. (507606787)",Suah - Serviço de Utilixzação Comum dos Hospitais (500900469),"7.820,00 €",03-05-2018,27-04-2018,30 dias,"Portugal, Setúbal, Setúbal","Artigo 24.º, n.º 1, alínea c) do Código dos Contratos Públicos",,,,,,Não aplicável.,Não aplicável.,FALSE
MEDICAMENTOS VARIOS INJECTAVEIS,Ajuste Direto Regime Geral,Aquisição de bens móveis,"33690000-3, Medicamentos vários","Centro Hospitalar de Setúbal, E. P. E. (507606787)","LABESFAL (501169580), B.BRAUN MEDICAL (501506543), BDRPHARMA (513077332), BLUEMED (509912060), FERRING  (502034831)","66.491,66 €",03-05-2018,22-02-2018,365 dias,"Portugal, Setúbal, Setúbal","Artigo 24.º, n.º 1, alínea a) do Código dos Contratos Públicos",,,,,,Não aplicável.,Não aplicável.,FALSE
