Objeto do Contrato,Tipo de Procedimento,Tipo(s) de Contrato,CPVs,Entidade(s) Adjudicante(s),Entidade(s) Adjudicatária(s),Preço Contratual,Data de Publicação,Data de Celebração do Contrato,Prazo de Execução,Local de Execução,Fundamentação,Data de Fecho do Contrato,Preço Total Efetivo,Causas das Alterações ao Prazo,Causas das Alterações ao Preço,Estado,N.º registo do Acordo Quadro,Descrição do Acordo Quadro,Procedimento Centralizado
Aquisição de CINACALCET 30 MG COMP,Ao abrigo de acordo-quadro (art.º 259.º),Aquisição de bens móveis,"33600000-6, Produtos farmacêuticos","Hospital Garcia de Orta, E. P. E. (506361470)","AMGEN BIOFARMACEUTICA,LDA (502942959)","11.221,59 €",21-05-2018,05-01-2018,365 dias,"Portugal, Setúbal, Almada",Artigo 259.º do Código dos Contratos Públicos,,,,,,1410779,CP 2015/47 - Acordo quadro para fornecimento de medicamentos do aparelho locomotor às instituições e serviços do serviço nacional de saúde,FALSE
Aquisição de SELANTE HEMOSTÁTICO MATRIZ ESTÉRIL - FLOSEAL,Ajuste Direto Regime Geral,Aquisição de bens móveis,"33600000-6, Produtos farmacêuticos","Hospital Garcia de Orta, E. P. E. (506361470)","BAXTER MEDICO - FARMACEUTICO, LDA (503347345)","9.600,00 €",21-05-2018,23-01-2018,365 dias,"Portugal, Setúbal, Almada","Artigo 20.º, n.º 1, alínea a) do Código dos Contratos Públicos",,,,,,Não aplicável.,Não aplicável.,FALSE
Aquisição de SUGAMADEX 100 MG/ML SOL INJ FR 5 ML IV,Ao abrigo de acordo-quadro (art.º 259.º),Aquisição de bens móveis,"33600000-6, Produtos farmacêuticos","Hospital Garcia de Orta, E. P. E. (506361470)",MERCK SHARP & DOHME (500191360),"7.604,96 €",21-05-2018,10-01-2018,365 dias,"Portugal, Setúbal, Almada",Artigo 259.º do Código dos Contratos Públicos,,,,,,2775699,"CP 2017/50 - Medicação antialérgica, vitaminas e sais minerais, medicamentos usados no tratamento de intoxicações e grupo 20.9",FALSE
Aquisição de PERTUZUMAB 420 MG/14 ML SOL INJ FR 14 ML IV,Ao abrigo de acordo-quadro (art.º 259.º),Aquisição de bens móveis,"33600000-6, Produtos farmacêuticos","Hospital Garcia de Orta, E. P. E. (506361470)",ROCHE FARMACEUTICA QUIMICA LDA (500233810),"110.466,00 €",21-05-2018,04-01-2018,365 dias,"Portugal, Setúbal, Almada",Artigo 259.º do Código dos Contratos Públicos,,,,,,1771819,CP 2015/6 - Acordo quadro para o fornecimento de Medicamentos do Foro Oncológico,FALSE
Aquisição de 7 Desfibrilhadores Com Capnografia e 2 Desfibrilhadores Sem Capnografia - AD Nº. 7402107,Ajuste Direto Regime Geral,Aquisição de bens móveis,"33000000-0, Equipamento médico, medicamentos e produtos para cuidados pessoais","Hospital Garcia de Orta, E. P. E. (506361470)","Clinifar - Produtos Clínicos e Farmacêuticos, SA (503281115)","56.212,00 €",21-05-2018,19-04-2018,30 dias,"Portugal, Setúbal, Almada","Artigo 20.º, n.º 1, alínea a) do Código dos Contratos Públicos",,,,,,Não aplicável.,Não aplicável.,FALSE
Contrato de Assistência Técnica (2018) para Solução Aplicacional de Gestão de Risco,Ajuste Direto Regime Geral,Aquisição de serviços,"50300000-8, Serviços de reparação e manutenção e serviços conexos relacionados com computadores pessoais e com equipamento burótico, audiovisual e para telecomunicações","Hospital Garcia de Orta, E. P. E. (506361470)","RISI - Recursos, Ideias e Soluções Informáticas, Lda. (503754803)","9.997,44 €",18-05-2018,11-05-2018,365 dias,"Portugal, Setúbal, Almada","Artigo 20.º, n.º 1, alínea d) do Código dos Contratos Públicos",,,,,,Não aplicável.,Não aplicável.,FALSE
Contrato de Assistência Técnica (2018) - Solução de WEBFILTERING SOPHOS,Ajuste Direto Regime Geral,Aquisição de serviços,"50300000-8, Serviços de reparação e manutenção e serviços conexos relacionados com computadores pessoais e com equipamento burótico, audiovisual e para telecomunicações","Hospital Garcia de Orta, E. P. E. (506361470)","A2ITwb - Tecnologia, SA (510688268)","9.600,00 €",18-05-2018,11-05-2018,365 dias,"Portugal, Setúbal, Almada","Artigo 20.º, n.º 1, alínea d) do Código dos Contratos Públicos",,,,,,Não aplicável.,Não aplicável.,FALSE
Contrato de Assistência Técnica (2018) - Solução NETSCALER,Ajuste Direto Regime Geral,Aquisição de serviços,"50300000-8, Serviços de reparação e manutenção e serviços conexos relacionados com computadores pessoais e com equipamento burótico, audiovisual e para telecomunicações","Hospital Garcia de Orta, E. P. E. (506361470)","A2ITwb - Tecnologia, SA (510688268)","7.500,00 €",18-05-2018,10-05-2018,365 dias,"Portugal, Setúbal, Almada","Artigo 20.º, n.º 1, alínea d) do Código dos Contratos Públicos",,,,,,Não aplicável.,Não aplicável.,FALSE
Contrato de Assistência Técnica (2018) - Solução de Gestão de Atendimento,Ajuste Direto Regime Geral,Aquisição de serviços,"50300000-8, Serviços de reparação e manutenção e serviços conexos relacionados com computadores pessoais e com equipamento burótico, audiovisual e para telecomunicações","Hospital Garcia de Orta, E. P. E. (506361470)",Attendsys Lda (510306802),"9.053,85 €",18-05-2018,11-05-2018,365 dias,"Portugal, Setúbal, Almada","Artigo 20.º, n.º 1, alínea d) do Código dos Contratos Públicos",,,,,,Não aplicável.,Não aplicável.,FALSE
Aquisição de DOLUTEGRAVIR 50 MG COMP,Ao abrigo de acordo-quadro (art.º 259.º),Aquisição de bens móveis,"33600000-6, Produtos farmacêuticos","Hospital Garcia de Orta, E. P. E. (506361470)","VIIVVHIV HEALTHCARE, UNIPESSOAL LDA (509117961)","117.040,27 €",17-05-2018,04-01-2018,365 dias,"Portugal, Setúbal, Almada",Artigo 259.º do Código dos Contratos Públicos,,,,,,2545980,CP 2017/61 - Acordo quadro para fornecimento de Medicamentos Diversos   às Instituições e Serviços do Serviço Nacional de Saúde,FALSE
Aquisição de DARBEPOETINAS,Ao abrigo de acordo-quadro (art.º 259.º),Aquisição de bens móveis,"33600000-6, Produtos farmacêuticos","Hospital Garcia de Orta, E. P. E. (506361470)","AMGEN BIOFARMACEUTICA, LDA. (502942959)","89.400,00 €",17-05-2018,29-12-2017,365 dias,"Portugal, Setúbal, Almada",Artigo 259.º do Código dos Contratos Públicos,,,,,,2749216,CP 2017/11 - Acordo quadro para fornecimento de Medicamentos Estimulantes da eritropoiese às Instituições e Serviços do Serviço Nacional de Saúde,FALSE
Aquisição de INTERFERÃO BETA-1A 30 MCG (AVONEX) IM SERINGA,Ao abrigo de acordo-quadro (art.º 259.º),Aquisição de bens móveis,"33600000-6, Produtos farmacêuticos","Hospital Garcia de Orta, E. P. E. (506361470)","BIOGEN IDEC PORTUGAL-SOC.FARM.UNIP, LDA (506415740)","17.559,12 €",17-05-2018,05-01-2018,365 dias,"Portugal, Setúbal, Almada",Artigo 259.º do Código dos Contratos Públicos,,,,,,1771819,CP 2015/6 - Acordo quadro para o fornecimento de Medicamentos do Foro Oncológico,FALSE
Aquisição de RILPIVIRINA 25 MG + EMTRICITABINA 200 MG + TENOFOVIR 245 MG COMP,Ao abrigo de acordo-quadro (art.º 259.º),Aquisição de bens móveis,"33600000-6, Produtos farmacêuticos","Hospital Garcia de Orta, E. P. E. (506361470)","GILEAD SCIENCES, LDA (503604704)","35.400,00 €",17-05-2018,05-01-2018,365 dias,"Portugal, Setúbal, Almada",Artigo 259.º do Código dos Contratos Públicos,,,,,,2545980,CP 2017/61 - Acordo quadro para fornecimento de Medicamentos Diversos   às Instituições e Serviços do Serviço Nacional de Saúde,FALSE
"Contrato de Assistência Técnica a Microscópios, Incubadoras de CO2 e Câmaras de Fluxo Laminar (2018) - A.D. n.º8401248",Ajuste Direto Regime Geral,Aquisição de serviços,"50420000-5, Serviços de reparação e manutenção de equipamento médico e cirúrgico","Hospital Garcia de Orta, E. P. E. (506361470)","Labocontrole, Lda (501872329)","5.514,00 €",17-05-2018,09-05-2018,365 dias,"Portugal, Setúbal, Almada","Artigo 24.º, n.º 1, alínea e), subalínea iii) do Código dos Contratos Públicos",,,,,,Não aplicável.,Não aplicável.,FALSE
"Aquisição de HIALURONATO DE SÓDIO + LIDOCAÍNA (15MG + 10MG) /ML SER 0,8ML",Ajuste Direto Regime Geral,Aquisição de bens móveis,"33600000-6, Produtos farmacêuticos","Hospital Garcia de Orta, E. P. E. (506361470)","Carl Zeiss Meditec Iberia, SA (980503043)","6.960,00 €",17-05-2018,05-01-2018,365 dias,"Portugal, Setúbal, Almada","Artigo 24.º, n.º 1, alínea e) do Código dos Contratos Públicos",,,,,,Não aplicável.,Não aplicável.,FALSE
Aquisição de ETANERCEPT CANETA 50 MG/1 ML SOL INJ 1 ML SC,Ao abrigo de acordo-quadro (art.º 259.º),Aquisição de bens móveis,"33600000-6, Produtos farmacêuticos","Hospital Garcia de Orta, E. P. E. (506361470)","BIOGEN IDEC PORTUGAL-SOC.FARM.UNIP, LDA (506415740)","6.624,00 €",16-05-2018,05-01-2018,365 dias,"Portugal, Setúbal, Almada",Artigo 259.º do Código dos Contratos Públicos,,,,,,1771819,CP 2015/6 - Acordo quadro para o fornecimento de Medicamentos do Foro Oncológico,FALSE
Aquisição de MICAFUNGINA 100MG PÓ SOL INJ FR IV'S,Ao abrigo de acordo-quadro (art.º 259.º),Aquisição de bens móveis,"33600000-6, Produtos farmacêuticos","Hospital Garcia de Orta, E. P. E. (506361470)",ASTELLAS  (502540249),"22.998,00 €",16-05-2018,05-01-2018,365 dias,"Portugal, Setúbal, Almada",Artigo 259.º do Código dos Contratos Públicos,,,,,,1422736,CP 2015/41 - ACORDO QUADRO PARA FORNECIMENTO DE MEDICAMENTOS ANTI-INFECIOSOS: ANTIVÍRICOS E ANTIFÚNGICOS ÀS INSTITUIÇÕES E SERVIÇOS DO SERVIÇO NACIONAL DE SAÚDE,FALSE
Aquisição de NIVOLUMAB 10MG/ML SOL INJ FR 4 ML IV,Ao abrigo de acordo-quadro (art.º 259.º),Aquisição de bens móveis,"33600000-6, Produtos farmacêuticos","Hospital Garcia de Orta, E. P. E. (506361470)",BRISTOL MYERS SQUIBB (500048193),"19.950,00 €",15-05-2018,05-01-2018,365 dias,"Portugal, Setúbal, Almada",Artigo 259.º do Código dos Contratos Públicos,,,,,,1771819,CP 2015/6 - Acordo quadro para o fornecimento de Medicamentos do Foro Oncológico,FALSE
Aquisição de INFLIXIMAB 100MG PÓ CONC SOL INJ FR IV,Ao abrigo de acordo-quadro (art.º 259.º),Aquisição de bens móveis,"33600000-6, Produtos farmacêuticos","Hospital Garcia de Orta, E. P. E. (506361470)","MERCK SHARP & DOHME, LDA. (500191360)","32.375,00 €",15-05-2018,05-01-2018,365 dias,"Portugal, Setúbal, Almada",Artigo 259.º do Código dos Contratos Públicos,,,,,,1771819,CP 2015/6 - Acordo quadro para o fornecimento de Medicamentos do Foro Oncológico,FALSE
Aquisição de SORAFENIB 200MG COMP,Ao abrigo de acordo-quadro (art.º 259.º),Aquisição de bens móveis,"33600000-6, Produtos farmacêuticos","Hospital Garcia de Orta, E. P. E. (506361470)","BAYER PORTUGAL, LDA (500043256)","49.273,73 €",15-05-2018,05-01-2018,365 dias,"Portugal, Setúbal, Almada",Artigo 259.º do Código dos Contratos Públicos,,,,,,1771819,CP 2015/6 - Acordo quadro para o fornecimento de Medicamentos do Foro Oncológico,FALSE
Aquisição de ALECTINIB 150mg cápsulas,Ajuste Direto Regime Geral,Aquisição de bens móveis,"33600000-6, Produtos farmacêuticos","Hospital Garcia de Orta, E. P. E. (506361470)",ROCHE FARMACEUTIOCA QUIMICA LDA (500233810),"11.271,68 €",15-05-2018,05-01-2018,365 dias,"Portugal, Setúbal, Almada","Artigo 24.º, n.º 1, alínea e) do Código dos Contratos Públicos",,,,,,Não aplicável.,Não aplicável.,FALSE
Aquisição de TEMOZOLOMIDAS,Ao abrigo de acordo-quadro (art.º 259.º),Aquisição de bens móveis,"33600000-6, Produtos farmacêuticos","Hospital Garcia de Orta, E. P. E. (506361470)","ACCORD HEALTHCARE, UNIPESSOAL LDA (508622263)","5.150,00 €",11-05-2018,16-01-2018,365 dias,"Portugal, Setúbal, Almada",Artigo 259.º do Código dos Contratos Públicos,,,,,,1771819,CP 2015/6 - Acordo quadro para o fornecimento de Medicamentos do Foro Oncológico,FALSE
Dicloreto de Rádio (223RA),Ajuste Direto Regime Geral,Aquisição de bens móveis,"33600000-6, Produtos farmacêuticos","Hospital Garcia de Orta, E. P. E. (506361470)","BAYER PORTUGAL, LDA (500043256)","21.759,90 €",11-05-2018,16-01-2018,365 dias,"Portugal, Setúbal, Almada","Artigo 24.º, n.º 1, alínea e) do Código dos Contratos Públicos",,,,,,Não aplicável.,Não aplicável.,FALSE
