Objeto do Contrato,Tipo de Procedimento,Tipo(s) de Contrato,CPVs,Entidade(s) Adjudicante(s),Entidade(s) Adjudicatária(s),Preço Contratual,Data de Publicação,Data de Celebração do Contrato,Prazo de Execução,Local de Execução,Fundamentação,Data de Fecho do Contrato,Preço Total Efetivo,Causas das Alterações ao Prazo,Causas das Alterações ao Preço,Estado,N.º registo do Acordo Quadro,Descrição do Acordo Quadro,Procedimento Centralizado
Manutenção da aplicação Navision,Ajuste Direto Regime Geral,Aquisição de serviços,"72600000-6, Serviços de consultoria e assistência informáticas","Instituto Nacional de Emergência Médica, I. P. (501356126)","Meta Estratégica - Soluções Tecnológicas, Lda. (509740782)","24.997,00 €",24-10-2017,20-10-2017,180 dias,"Portugal, Lisboa, Lisboa","Artigo 27.º, n.º 1, alínea h) do Código dos Contratos Públicos",,,,,,Não aplicável.,Não aplicável.,FALSE
"Prestação de serviços de Gestão Oficinal de Frota do INEM, I.P.  ",Ajuste Direto Regime Geral,Aquisição de serviços,"50000000-5, Serviços de reparação e manutenção","Instituto Nacional de Emergência Médica, I. P. (501356126)",FINLOG - Aluguer e Comércio de Automóveis (502584866),"502.000,00 €",23-10-2017,29-09-2017,61 dias,"Portugal, Portugal Continental","Artigo 27.º, n.º 1, alínea a) do Código dos Contratos Públicos",,,,,,Não aplicável.,Não aplicável.,FALSE
"Assistência técnica a servidores e equipamentos de rede do INEM, I.P.",Ajuste Direto Regime Geral,Aquisição de serviços,"72000000-5, Serviços de TI: consultoria, desenvolvimento de software, Internet e apoio","Instituto Nacional de Emergência Médica, I. P. (501356126)","Integrator – Tecnologias da Informação, SA. (506619290)","37.476,00 €",23-10-2017,09-10-2017,184 dias,"Portugal, Coimbra, Coimbra<BR/>Portugal, Porto, Vila Nova de Gaia<BR/>Portugal, Porto, Porto<BR/>Portugal, Lisboa, Lisboa","Artigo 20.º, n.º 1, alínea a) do Código dos Contratos Públicos",,,,,,Não aplicável.,Não aplicável.,FALSE
Aquisição de 7 (sete) Compressores Cardíacos Mecânicos,Ajuste Direto Regime Geral,Aquisição de bens móveis,"33000000-0, Equipamento médico, medicamentos e produtos para cuidados pessoais","Instituto Nacional de Emergência Médica, I. P. (501356126)","PHYSIO PORTUGAL SALES,LDA (510137946)","54.600,00 €",23-10-2017,12-10-2017,10 dias,"Portugal, Lisboa, Lisboa","Artigo 20.º, n.º 1, alínea a) do Código dos Contratos Públicos",,,,,,Não aplicável.,Não aplicável.,FALSE
