Objeto do Contrato,Tipo de Procedimento,Tipo(s) de Contrato,CPVs,Entidade(s) Adjudicante(s),Entidade(s) Adjudicatária(s),Preço Contratual,Data de Publicação,Data de Celebração do Contrato,Prazo de Execução,Local de Execução,Fundamentação,Data de Fecho do Contrato,Preço Total Efetivo,Causas das Alterações ao Prazo,Causas das Alterações ao Preço,Estado,N.º registo do Acordo Quadro,Descrição do Acordo Quadro,Procedimento Centralizado
AD 35/2019 - Prestação de Serviços de Lavagem e Tratamento de Roupa da UDA e do LRSP Algarve para o ano de 2019,Ajuste Direto Regime Geral,Aquisição de serviços,"98311000-6, Serviços de recolha de roupa por lavandarias","Administração Regional de Saúde do Algarve, I. P. (503148709)","OM Wash, Unipessoal, Lda. (509859291)","4.618,80 €",27-12-2018,27-12-2018,365 dias,"Portugal, Faro, Faro","Artigo 20.º, n.º 1, alínea d) do Código dos Contratos Públicos",,,,,,Não aplicável.,Não aplicável.,FALSE
"Aquisição de Contracetivos Orais, Profiláticos e Mecânicos - 2018",Ao abrigo de acordo-quadro (art.º 259.º),Aquisição de bens móveis,"33600000-6, Produtos farmacêuticos","Administração Regional de Saúde do Algarve, I. P. (503148709)","Ezequiel Panão Jorge, Lda. (501412727)","2.211,32 €",21-12-2018,11-07-2018,170 dias,"Portugal, Faro, Faro",Artigo 259.º do Código dos Contratos Públicos,,,,,,1459323,CP 2015/20,TRUE
"Aquisição de Contracetivos Orais, Profiláticos e Mecânicos - 2018",Ao abrigo de acordo-quadro (art.º 259.º),Aquisição de bens móveis,"33600000-6, Produtos farmacêuticos","Administração Regional de Saúde do Algarve, I. P. (503148709)","Pfizer, Lda. (500162166)","556,50 €",21-12-2018,16-02-2018,270 dias,"Portugal, Faro, Faro",Artigo 259.º do Código dos Contratos Públicos,,,,,,1459323,CP 2015/20,TRUE
