Objeto do Contrato,Tipo de Procedimento,Tipo(s) de Contrato,CPVs,Entidade(s) Adjudicante(s),Entidade(s) Adjudicatária(s),Preço Contratual,Data de Publicação,Data de Celebração do Contrato,Prazo de Execução,Local de Execução,Fundamentação,Data de Fecho do Contrato,Preço Total Efetivo,Causas das Alterações ao Prazo,Causas das Alterações ao Preço,Estado,N.º registo do Acordo Quadro,Descrição do Acordo Quadro,Procedimento Centralizado
"Prestação de serviços de apoio operacional, serviços de recolha, armazenamento, transporte, tratamento, destino final de Resíduos Hospitalares e fornecimentos de consumíveis",Ajuste Direto Regime Geral,Aquisição de serviços,"90510000-5, Tratamento e eliminação de resíduos",Serviço de Utilização Comum dos Hospitais (500900469),"SOMOS AMBIENTE , A.C.E (AGRUPAMENTO SUCH e AMBIPOMBAL) (508653479)","1.257.574,47 €",09-04-2018,04-04-2018,90 dias,Portugal,"Artigo 24.º, n.º 1, alínea c) do Código dos Contratos Públicos",,,,,,Não aplicável.,Não aplicável.,FALSE
Serviços de engenharia para elaboração de projectos de especialidades.,Ajuste Direto Regime Geral,Aquisição de serviços,"71242000-6, Preparação de projecto e concepção, estimativa de custos",Serviço de Utilização Comum dos Hospitais (500900469),"Garcia Vazquez – Engenharia e Gestão de Projectos, Lda. (503036471)","11.550,00 €",09-04-2018,28-03-2018,30 dias,"Portugal, Lisboa, Lisboa","Artigo 20.º, n.º 1, alínea d) do Código dos Contratos Públicos",,,,,,Não aplicável.,Não aplicável.,FALSE
"Elaboração de projectos das especialidades de acústica, aquecimento, ventilação e ar-condicionado, electricidade e estrutura.",Ajuste Direto Regime Geral,Aquisição de serviços,"71242000-6, Preparação de projecto e concepção, estimativa de custos",Serviço de Utilização Comum dos Hospitais (500900469),"Garcia Vazquez – Engenharia e Gestão de Projectos, Lda. (503036471)","19.900,00 €",09-04-2018,28-03-2018,30 dias,"Portugal, Lisboa, Lisboa","Artigo 20.º, n.º 1, alínea d) do Código dos Contratos Públicos",,,,,,Não aplicável.,Não aplicável.,FALSE
Aquisição de equipamento,Ajuste Direto Regime Geral,Aquisição de bens móveis,"30000000-9, Máquinas, equipamento e material de escritório e de informática, excepto mobiliário e pacotes de programas (software)",Serviço de Utilização Comum dos Hospitais (500900469),INFOCONTROL (501395784),"8.166,88 €",06-04-2018,03-04-2018,60 dias,"Portugal, Região Autónoma da Madeira, Funchal","Artigo 20.º, n.º 1, alínea d) do Código dos Contratos Públicos",,,,,,Não aplicável.,Não aplicável.,FALSE
Serviços de Auditoria para certificação energética.,Ajuste Direto Regime Geral,Aquisição de serviços,"71314000-2, Serviços relacionados com a energia e afins",Serviço de Utilização Comum dos Hospitais (500900469),"ECOSYMBOL, LDA. (513194061)","12.000,00 €",06-04-2018,16-03-2018,90 dias,"Portugal, Aveiro, Santa Maria da Feira","Artigo 20.º, n.º 1, alínea d) do Código dos Contratos Públicos",,,,,,Não aplicável.,Não aplicável.,FALSE
Reparação de equipamento de endoscopia,Ajuste Direto Regime Geral,Aquisição de serviços,"50421000-2, Serviços de reparação e manutenção de equipamento médico",Serviço de Utilização Comum dos Hospitais (500900469),"SIMMÉDICA -SISTEMAS INTEGRALES DE LA MEDICINA, S.A SUCURSAL EM PORTUGAL (980488842)","10.016,40 €",06-04-2018,05-04-2018,5 dias,"Portugal, Lisboa, Lisboa","Artigo 24.º, n.º 1, alínea e), subalínea ii) do Código dos Contratos Públicos",,,,,,Não aplicável.,Não aplicável.,FALSE
Fornecimento de ocmbustiveis,Ajuste Direto Regime Geral,Aquisição de bens móveis,"09000000-3, Produtos petrolíferos, combustíveis, electricidade e outras fontes de energia",Serviço de Utilização Comum dos Hospitais (500900469),"BP PORTUGAL - Comércio de Combustíveis e Lubrificantes, S. A. (500194670)","40.000,00 €",06-04-2018,16-03-2018,28 dias,"Portugal, Lisboa","Artigo 24.º, n.º 1, alínea c) do Código dos Contratos Públicos",,,,,,Não aplicável.,Não aplicável.,FALSE
Prestação de Serviços de Recolha e Transporte Rodoviário Nacional de Resíduos Hospitalares Perigosos para o ano de 2018,Ajuste Direto Regime Geral,Aquisição de serviços,"90524400-0, Recolha, transporte e eliminação de resíduos hospitalares",Serviço de Utilização Comum dos Hospitais (500900469),"SOMOS AMBIENTE , A.C.E (AGRUPAMENTO SUCH e AMBIPOMBAL) (508653479)","692.040,00 €",05-04-2018,04-04-2018,365 dias,"Portugal, Lisboa, Lisboa<BR/>Portugal, Leiria, Pombal<BR/>Portugal, Porto, Maia","Artigo 24.º, n.º 1, alínea a) do Código dos Contratos Públicos",,,,,,Não aplicável.,Não aplicável.,FALSE
Reparação de ecógrafo,Ajuste Direto Regime Geral,Aquisição de serviços,"50421000-2, Serviços de reparação e manutenção de equipamento médico",Serviço de Utilização Comum dos Hospitais (500900469),TOSHIBA MEDICAL SYSTEMS SA (980023700),"5.234,90 €",05-04-2018,04-04-2018,10 dias,"Portugal, Lisboa, Lisboa","Artigo 24.º, n.º 1, alínea e), subalínea ii) do Código dos Contratos Públicos",,,,,,Não aplicável.,Não aplicável.,FALSE
Aquisição de serviços de remodelação do sistema de extração,Ajuste Direto Regime Geral,Aquisição de serviços,"50000000-5, Serviços de reparação e manutenção",Serviço de Utilização Comum dos Hospitais (500900469),"Luis Geada- Equipamentos de Climatização, Lda (505975300)","10.792,00 €",04-04-2018,03-04-2018,20 dias,"Portugal, Leiria, Caldas da Rainha","Artigo 20.º, n.º 1, alínea d) do Código dos Contratos Públicos",,,,,,Não aplicável.,Não aplicável.,FALSE
Aquisição de baterias,Ajuste Direto Regime Geral,Aquisição de bens móveis,"31000000-6, Maquinaria, aparelhagem, equipamento e consumíveis eléctricos; iluminação",Serviço de Utilização Comum dos Hospitais (500900469),INFOCONTROL (501395784),"5.317,32 €",03-04-2018,03-04-2018,60 dias,"Portugal, Região Autónoma da Madeira, Funchal","Artigo 20.º, n.º 1, alínea d) do Código dos Contratos Públicos",,,,,,Não aplicável.,Não aplicável.,FALSE
Aquisição de Sacos Plásticos para Gestão de Resíduos do Instituto Português do Sangue e Transplantação - IPST,Ajuste Direto Regime Geral,Aquisição de bens móveis,"19520000-7, Produtos de plástico",Serviço de Utilização Comum dos Hospitais (500900469),"SOMOS AMBIENTE , A.C.E (AGRUPAMENTO SUCH e AMBIPOMBAL) (508653479)","10.582,50 €",03-04-2018,03-04-2018,20 dias,"Portugal, Lisboa","Artigo 20.º, n.º 1, alínea d) do Código dos Contratos Públicos",,,,,,Não aplicável.,Não aplicável.,FALSE
Serviços de Substituição das Resinas dos Descalcificadores da Água dos Furos da Lavandaria Central de Lisboa,Ajuste Direto Regime Geral,Aquisição de serviços,"50700000-2, Serviços de reparação e manutenção de equipamento em edifícios",Serviço de Utilização Comum dos Hospitais (500900469),"ENKROTT - GESTÃO E TRATAMENTO DE ÁGUAS, S.A. (500103461)","15.850,00 €",03-04-2018,26-03-2018,20 dias,"Portugal, Lisboa, Vila Franca de Xira","Artigo 20.º, n.º 1, alínea d) do Código dos Contratos Públicos",,,,,,Não aplicável.,Não aplicável.,FALSE
