Objeto do Contrato,Tipo de Procedimento,Tipo(s) de Contrato,CPVs,Entidade(s) Adjudicante(s),Entidade(s) Adjudicatária(s),Preço Contratual,Data de Publicação,Data de Celebração do Contrato,Prazo de Execução,Local de Execução,Fundamentação,Data de Fecho do Contrato,Preço Total Efetivo,Causas das Alterações ao Prazo,Causas das Alterações ao Preço,Estado,N.º registo do Acordo Quadro,Descrição do Acordo Quadro,Procedimento Centralizado
3.000 Algalias Foley Longa Duração nº16 (100% silicone)<br />1.000 Algalias Foley Longa Duração nº14 (100% silicone),Ajuste Direto Regime Geral,Aquisição de bens móveis,"33140000-3, Material médico de consumo","Administração Regional de Saúde do Norte, I.P. (503135593)",HOSPITEX Material Hospitalar (501909842),"5.960,00 €",11-11-2011,22-07-2011,3 dias,"Portugal, Aveiro<BR/>Portugal, Porto<BR/>Portugal, Braga<BR/>Portugal, Viseu<BR/>Portugal, Vila Real","Artigo 20.º, n.º 1, alínea a) do Código dos Contratos Públicos","","",,,,Não aplicável.,Não aplicável.,
40.000 Laminas bisturi nº11<br />35.000 Laminas Bisturi nº20<br />34.000 Laminas Bisturi nº24,Ajuste Direto Regime Geral,Aquisição de bens móveis,"33140000-3, Material médico de consumo","Administração Regional de Saúde do Norte, I.P. (503135593)","EUGENIO PEREITA, LIMITADA (503989525)","9.350,00 €",11-11-2011,11-07-2011,30 dias,"Portugal, Vila Real<BR/>Portugal, Porto<BR/>Portugal, Braga<BR/>Portugal, Aveiro<BR/>Portugal, Viseu","Artigo 20.º, n.º 1, alínea a) do Código dos Contratos Públicos","","",,,,Não aplicável.,Não aplicável.,
Aquisição de 1.800 doses de Vacina VASPR,Ao abrigo de acordo-quadro (art.º 258.º),Aquisição de bens móveis,"33651600-4, Vacinas","Administração Regional de Saúde do Norte, I.P. (503135593)","Sanofi Pasteur MSD, SA (507632796)","9.720,00 €",03-11-2011,24-10-2011,3 dias,"Portugal, Braga",Artigo 258.º do Código dos Contratos Públicos,"","",,,,Não definido.,Não definido.,
Aquisição de 3.850 doses de Vacina DTPa Hib Vip,Ao abrigo de acordo-quadro (art.º 258.º),Aquisição de bens móveis,"33651600-4, Vacinas","Administração Regional de Saúde do Norte, I.P. (503135593)","Sanofi Pasteur MSD, SA (507632796)","69.300,00 €",03-11-2011,24-10-2011,1 dias,"Portugal, Braga",Artigo 258.º do Código dos Contratos Públicos,"","",,,,Não definido.,Não definido.,
Aquisição de 3 Retinógrafos no âmbito do programa de rastreio de retinopatia diabética,Ajuste Direto Regime Geral,Aquisição de bens móveis,"33192000-2, Mobiliário para fins médicos","Administração Regional de Saúde do Norte, I.P. (503135593)",PM - Equipamentos e Serviços Lda (508299900),"74.700,00 €",03-11-2011,31-10-2011,20 dias,"Portugal, Porto<BR/>Portugal, Vila Real<BR/>Portugal, Braga","Artigo 20.º, n.º 1, alínea a) do Código dos Contratos Públicos",16-12-2011,"74.700,00 €",,,,Não aplicável.,Não aplicável.,
Aquisição de Equipamento Medico/Mob.Hospitalar para a Consulta Aberta do Peso da Régua,Ajuste Direto Regime Geral,Aquisição de bens móveis,"33192000-2, Mobiliário para fins médicos","Administração Regional de Saúde do Norte, I.P. (503135593)",Só Saúde - José Arantes Amorim Unipessoal Lda (508055180),"13.507,79 €",03-11-2011,18-10-2011,20 dias,"Portugal, Vila Real, Peso da Régua","Artigo 20.º, n.º 1, alínea a) do Código dos Contratos Públicos",07-11-2011,"13.507,79 €",,,,Não aplicável.,Não aplicável.,
"100.000 Lancetas automaticas para punção capilar, irrecuperavel (diabetico)",Ajuste Direto Regime Geral,Aquisição de bens móveis,"33140000-3, Material médico de consumo","Administração Regional de Saúde do Norte, I.P. (503135593)",VIA ACTUAL AUDIOVISUAIS (505194821),"7.992,00 €",02-11-2011,21-06-2011,1 dias,"Portugal, Vila Real<BR/>Portugal, Porto<BR/>Portugal, Viseu<BR/>Portugal, Braga<BR/>Portugal, Aveiro","Artigo 24.º, n.º 1, alínea a) do Código dos Contratos Públicos","","",,,,Não aplicável.,Não aplicável.,
22.000 Mininublizador Kit completo (adulto),Ajuste Direto Regime Geral,Aquisição de bens móveis,"33140000-3, Material médico de consumo","Administração Regional de Saúde do Norte, I.P. (503135593)",INTERSURGICAL - PORTUGAL (503480045),"12.754,20 €",02-11-2011,29-06-2011,1 dias,"Portugal, Vila Real<BR/>Portugal, Porto<BR/>Portugal, Viseu<BR/>Portugal, Aveiro<BR/>Portugal, Braga","Artigo 20.º, n.º 1, alínea a) do Código dos Contratos Públicos","","",,,,Não aplicável.,Não aplicável.,
1.000 Testes IGRA,Ajuste Direto Regime Geral,Aquisição de bens móveis,"33600000-6, Produtos farmacêuticos","Administração Regional de Saúde do Norte, I.P. (503135593)","QUILABAN-QUIM. LAB. ANALITICA, LDA (500399670)","26.770,44 €",02-11-2011,04-05-2011,2 dias,"Portugal, Vila Real<BR/>Portugal, Porto<BR/>Portugal, Viseu<BR/>Portugal, Braga<BR/>Portugal, Aveiro","Artigo 24.º, n.º 1, alínea e) do Código dos Contratos Públicos","","",,,,Não aplicável.,Não aplicável.,
Aquisição de Isoniazida 20mg/ml susp. Oral,Ajuste Direto Regime Geral,Aquisição de bens móveis,"33600000-6, Produtos farmacêuticos","Administração Regional de Saúde do Norte, I.P. (503135593)",LABORATORIO MILITAR P QUIMICO (600019675),"5.600,00 €",02-11-2011,26-05-2011,1 dias,"Portugal, Viseu<BR/>Portugal, Porto<BR/>Portugal, Vila Real<BR/>Portugal, Aveiro<BR/>Portugal, Braga","Artigo 24.º, n.º 1, alínea e) do Código dos Contratos Públicos","","",,,,Não aplicável.,Não aplicável.,
