Objeto do Contrato,Tipo de Procedimento,Tipo(s) de Contrato,CPVs,Entidade(s) Adjudicante(s),Entidade(s) Adjudicatária(s),Preço Contratual,Data de Publicação,Data de Celebração do Contrato,Prazo de Execução,Local de Execução,Fundamentação,Data de Fecho do Contrato,Preço Total Efetivo,Causas das Alterações ao Prazo,Causas das Alterações ao Preço,Estado,N.º registo do Acordo Quadro,Descrição do Acordo Quadro,Procedimento Centralizado
Proc. 78/0737/2018- Fornecimento de Gás Propono -Unid.CMFR Sul- Janeiro e Feveriro/ 2018,Ajuste Direto Regime Geral,Aquisição de bens móveis,"09122100-1, Gás propano","Centro Hospitalar Universitário do Algarve, E. P. E. (510745997)","Rubis Energia Portugal, Sa (513108890)","16.000,00 €",27-04-2018,13-03-2018,59 dias,"Portugal, Faro, São Brás de Alportel","Artigo 20.º, n.º 1, alínea d) do Código dos Contratos Públicos",,,,,,Não aplicável.,Não aplicável.,FALSE
Upgrade ( 67/1930/18),Ajuste Direto Regime Geral,Aquisição de bens móveis,"30230000-0, Equipamento informático","Centro Hospitalar Universitário do Algarve, E. P. E. (510745997)","Visualforma- Tecnologias de Informação, S.A. (503536717)","1.728,00 €",27-04-2018,20-04-2018,15 dias,"Portugal, Faro, Faro","Artigo 24.º, n.º 1, alínea e), subalínea iii) do Código dos Contratos Públicos",,,,,,Não aplicável.,Não aplicável.,FALSE
98-2043-2018 - Transporte de Doentes à chamada Regularizações,Ajuste Direto Regime Geral,Aquisição de serviços,"85143000-3, Serviços de ambulâncias","Centro Hospitalar Universitário do Algarve, E. P. E. (510745997)","Medy - Ambulâncias, Lda (508555817)","574,30 €",27-04-2018,26-04-2018,1 dias,"Portugal, Faro, Portimão","Artigo 24.º, n.º 1, alínea e), subalínea iii) do Código dos Contratos Públicos",,,,,,Não aplicável.,Não aplicável.,FALSE
"62/2142/2018 - Material p/cirurgia dia 27-04-2018-""""Protese Joelho ATTUNE""""",Ajuste Direto Regime Geral,Aquisição de bens móveis,"33183200-8, Próteses ortopédicas","Centro Hospitalar Universitário do Algarve, E. P. E. (510745997)","JOHNSON & JOHNSON, LDA (500153370)","2.164,00 €",26-04-2018,24-04-2018,5 dias,"Portugal, Faro, Portimão","Artigo 24.º, n.º 1, alínea e), subalínea iii) do Código dos Contratos Públicos",,,,,,Não aplicável.,Não aplicável.,FALSE
72/1653/2018 - Aquisição de Fixador Externo Hoffmann,Ajuste Direto Regime Geral,Aquisição de bens móveis,"33183000-6, Material de assistência ortopédica","Centro Hospitalar Universitário do Algarve, E. P. E. (510745997)","STRYKER PORTUGAL - PRODUTOS MEDICOS, UNIPESSOAL,LDA. (504594214)","7.823,16 €",26-04-2018,23-03-2018,5 dias,"Portugal, Faro, Portimão","Artigo 20.º, n.º 1, alínea d) do Código dos Contratos Públicos",,,,,,Não aplicável.,Não aplicável.,FALSE
92/2090/2018 Aquisição de Clamp p/ Cordão Umbilical,Ajuste Direto Regime Geral,Aquisição de bens móveis,"33140000-3, Material médico de consumo","Centro Hospitalar Universitário do Algarve, E. P. E. (510745997)","HR  HOSPITALAR,Unipessoal, LDA (501895558)","147,00 €",26-04-2018,19-04-2018,275 dias,"Portugal, Faro, Faro","Artigo 24.º, n.º 1, alínea b) do Código dos Contratos Públicos",,,,,,Não aplicável.,Não aplicável.,FALSE
