Objeto do Contrato,Tipo de Procedimento,Tipo(s) de Contrato,CPVs,Entidade(s) Adjudicante(s),Entidade(s) Adjudicatária(s),Preço Contratual,Data de Publicação,Data de Celebração do Contrato,Prazo de Execução,Local de Execução,Fundamentação,Data de Fecho do Contrato,Preço Total Efetivo,Causas das Alterações ao Prazo,Causas das Alterações ao Preço,Estado,N.º registo do Acordo Quadro,Descrição do Acordo Quadro,Procedimento Centralizado
Aquisição de Serviços de Segurança e Vigilância para a ULSG - março abril 2018,Ajuste Direto Regime Geral,Aquisição de serviços,"79710000-4, Serviços de segurança","UNIDADE LOCAL DE SAÚDE DA GUARDA, E.P.E (508752000)","CHARON - PRESTAÇÃO DE SERVIÇOS DE SEGURANÇA E VIGILÂNCIA, S. A (501718540)","109.997,74 €",06-04-2018,09-03-2018,60 dias,"Portugal, Guarda, Guarda","Artigo 20.º, n.º 1, alínea a) do Código dos Contratos Públicos",,,,,,Não aplicável.,Não aplicável.,FALSE
Aluguer de Contentores para Instalação do SUB de Foz Côa 2018,Ajuste Direto Regime Geral,Aquisição de serviços,"55250000-7, Serviços de aluguer de alojamentos mobilados de curta duração","UNIDADE LOCAL DE SAÚDE DA GUARDA, E.P.E (508752000)",ALGECO-CONSTRUÇÕES PRÉ-FABRICADAS. S.A. (502721871),"34.536,00 €",06-04-2018,05-03-2018,180 dias,"Portugal, Guarda, Guarda","Artigo 24.º, n.º 1, alínea e) do Código dos Contratos Públicos",,,,,,Não aplicável.,Não aplicável.,FALSE
Fornecimento de Reagentes para o diagnóstico de meningites/encefalites,Concurso público,Aquisição de bens móveis,"33696000-5, Reagentes e meios de contraste","Unidade Local de Saúde da Guarda, E. P. E. (508752000)",Biomerieux Portugal (501524177),"65.250,00 €",06-04-2018,21-03-2018,1095 dias,"Portugal, Guarda, Guarda","Artigo 20.º, n.º 1, alínea b) do Código dos Contratos Públicos",,,,,,Não aplicável.,Não aplicável.,FALSE
Aquisição de Prestação de Serviços - Formadores Externos área da Qualidade,Consulta Prévia,Aquisição de serviços,"79710000-4, Serviços de segurança","Unidade Local de Saúde da Guarda, E. P. E. (508752000)",Fernando Fausto Margalho Barroso (201537737),"3.000,00 €",06-04-2018,21-03-2018,90 dias,"Portugal, Guarda, Guarda","Artigo 20.º, n.º 1, alínea c) do Código dos Contratos Públicos",,,,,,Não aplicável.,Não aplicável.,FALSE
Aquisição de serviços de Seguro de acidentes de trabalho para 2 meses de 2018,Ajuste Direto Regime Geral,Aquisição de serviços,"66510000-8, Serviços de seguros","UNIDADE LOCAL DE SAÚDE DA GUARDA, E.P.E (508752000)","Seguradoras Unidas, S.A. (500940231)","18.720,32 €",06-04-2018,01-03-2018,60 dias,"Portugal, Guarda, Guarda","Artigo 27.º, n.º 1, alínea a) do Código dos Contratos Públicos",,,,,,Não aplicável.,Não aplicável.,FALSE
Fornecimento de reagentes para a determinação da HbA1C e outras variantes da Hemoglobina,Concurso público,Aquisição de bens móveis,"33696200-7, Reagentes para análises ao sangue","Unidade Local de Saúde da Guarda, E. P. E. (508752000)","HORIBA ABX, SA - SUCURSAL PORTUGUESA (980158583)","72.450,00 €",06-04-2018,20-09-2017,1095 dias,"Portugal, Guarda, Guarda","Artigo 20.º, n.º 1, alínea b) do Código dos Contratos Públicos",,,,,,Não aplicável.,Não aplicável.,FALSE
