Objeto do Contrato,Tipo de Procedimento,Tipo(s) de Contrato,CPVs,Entidade(s) Adjudicante(s),Entidade(s) Adjudicatária(s),Preço Contratual,Data de Publicação,Data de Celebração do Contrato,Prazo de Execução,Local de Execução,Fundamentação,Data de Fecho do Contrato,Preço Total Efetivo,Causas das Alterações ao Prazo,Causas das Alterações ao Preço,Estado,N.º registo do Acordo Quadro,Descrição do Acordo Quadro,Procedimento Centralizado
Aquisição de serviços de segurança para o ACES Feira/Arouca para as instalações da US de Canedo.,Ajuste Direto Regime Geral,Aquisição de serviços,"79710000-4, Serviços de segurança","Administração Regional de Saúde do Norte, I. P. (503135593)","Prestibel - Empresa de Segurança, S.A. (501326456)","2.010,25 €",31-05-2016,15-03-2016,30 dias,"Portugal, Aveiro, Arouca","Artigo 24.º, n.º 1, alínea c) do Código dos Contratos Públicos",30-04-2016,"2.010,25 €",,"",,Não aplicável.,Não aplicável.,FALSE
Aquisição de Serv. Assessoria de Imprensa - Processo 16000273,Ajuste Direto Regime Geral,Aquisição de serviços,"79140000-7, Serviços de assessoria e informação jurídicas","Administração Regional de Saúde do Norte,IP (ARSN) (503135593)","Connect Generation - Comunicação e Imagem, Lda. (509408800)","2.310,12 €",27-05-2016,29-02-2016,60 dias,"Portugal, Porto, Porto","Artigo 24.º, n.º 1, alínea c) do Código dos Contratos Públicos",26-04-2016,"2.310,12 €",,"Por razões de interesse público, foi consensualizado com o adjudicatário efetuar ajustamentos ao conteúdo do contrato.",,Não aplicável.,Não aplicável.,FALSE
Aquisição de Frigoríficos e Escadotes - APROV-PRT 16000492,Ajuste Direto Regime Geral,Aquisição de bens móveis,"39700000-9, Aparelhos de uso doméstico","Administração Regional de Saúde do Norte, I. P. (503135593)","Laborial Didática, Lda (508980348)","4.690,32 €",24-05-2016,31-03-2016,90 dias,"Portugal, Distrito não determinado, Concelho não determinado<BR/>Portugal, Porto, Porto","Artigo 20.º, n.º 1, alínea a) do Código dos Contratos Públicos",11-05-2016,"4.690,32 €",,"",,Não aplicável.,Não aplicável.,FALSE
Serviços de Manutenção para a Aplicação de Sistema de Gestão Documental Aprov-Prt 16000107,Ajuste Direto Regime Geral,Aquisição de serviços,"72260000-5, Serviços relacionados com software","Administração Regional de Saúde do Norte, I. P. (503135593)","Link Consulting - Tecnologias de Informação, S.A. (504551221)","14.184,00 €",24-05-2016,29-04-2016,365 dias,"Portugal, Porto, Porto","Artigo 24.º, n.º 1, alínea e) do Código dos Contratos Públicos",29-04-2016,"14.184,00 €",,"",,Não aplicável.,Não aplicável.,FALSE
Serviços de assessoria jurídica - Processo 16000146,Ajuste Direto Regime Geral,Aquisição de serviços,"79100000-5, Serviços jurídicos","Administração Regional de Saúde do Norte, I. P. (503135593)",Sandra Mónica Barata Luís (202550192),"4.050,00 €",23-05-2016,29-01-2016,90 dias,"Portugal, Porto, Porto","Artigo 24.º, n.º 1, alínea c) do Código dos Contratos Públicos",12-04-2016,"4.050,00 €",,"",,Não aplicável.,Não aplicável.,FALSE
Calibração de dois Monitores de Qualidade do Ar,Ajuste Direto Regime Geral,Aquisição de serviços,"50411000-9, Serviços de reparação e manutenção de aparelhos de medição","Administração Regional de Saúde do Norte, I. P. (503135593)","AmbiControl – Controlo de Poluição, Lda. (502715464)","4.830,00 €",23-05-2016,05-02-2016,330 dias,"Portugal, Porto, Porto","Artigo 20.º, n.º 1, alínea a) do Código dos Contratos Públicos",06-05-2016,"4.830,00 €",,"",,Não aplicável.,Não aplicável.,FALSE
