Objeto do Contrato,Tipo de Procedimento,Tipo(s) de Contrato,CPVs,Entidade(s) Adjudicante(s),Entidade(s) Adjudicatária(s),Preço Contratual,Data de Publicação,Data de Celebração do Contrato,Prazo de Execução,Local de Execução,Fundamentação,Data de Fecho do Contrato,Preço Total Efetivo,Causas das Alterações ao Prazo,Causas das Alterações ao Preço,Estado,N.º registo do Acordo Quadro,Descrição do Acordo Quadro,Procedimento Centralizado
NPD 5493000768 - Aquisição de Destilador/Titulador automático para doseamento de proteínas pelo método de Kjeldahl,Ajuste Direto Regime Geral,Aquisição de serviços<br/>Locação de bens móveis,"38000000-5, Equipamento laboratorial, óptico e de precisão (exc. óculos)","INFARMED - Autoridade Nacional do Medicamento e Produtos de Saúde, I. P. (600037002)","ROTOQUIMICA, LDA. (503653047)","31.360,00 €",28-09-2016,26-09-2016,90 dias,Portugal,"Artigo 24.º, n.º 1, alínea e) do Código dos Contratos Públicos",,,,,,Não aplicável.,Não aplicável.,FALSE
NPD 5493000763 - Renovação do suporte ao Licenciamento da Plataforma  WebMethods,Ajuste Direto Regime Geral,Aquisição de serviços,"72610000-9, Serviços de assistência informática","INFARMED - Autoridade Nacional do Medicamento e Produtos de Saúde, I. P. (600037002)",FINDMORE (508823617),"90.000,00 €",28-09-2016,26-09-2016,365 dias,Portugal,"Artigo 24.º, n.º 1, alínea e) do Código dos Contratos Públicos",,,,,,Não aplicável.,Não aplicável.,FALSE
"NPD 5493000809 - Aquisição de Balanças analíticas, acessórios para registo de dados, acessório para remoção de cargas electroestáticas e respetiva fonte de alimentação. ",Ajuste Direto Regime Geral,Locação de bens móveis,"38000000-5, Equipamento laboratorial, óptico e de precisão (exc. óculos)","INFARMED - Autoridade Nacional do Medicamento e Produtos de Saúde, I. P. (600037002)",SOQUIMICA. LDA. (500274231),"24.694,50 €",26-09-2016,26-09-2016,90 dias,Portugal,"Artigo 24.º, n.º 1, alínea e) do Código dos Contratos Públicos",,,,,,Não aplicável.,Não aplicável.,FALSE
"NPD 5493000281 - Aquisição de serviços para conceção criativa, desenvolvimento e produção de seis campanhas de comunicação ",Concurso público,Aquisição de serviços,"79341400-0, Serviços de campanhas publicitárias","INFARMED - Autoridade Nacional do Medicamento e Produtos de Saúde, I. P. (600037002)","HAVAS WORLDWIDE PORTUGAL, LDA. (502304863)","125.000,00 €",26-09-2016,09-09-2016,365 dias,Portugal,"Artigo 20.º, n.º 1, alínea b) do Código dos Contratos Públicos",,,,,,Não aplicável.,Não aplicável.,FALSE
