Objeto do Contrato,Tipo de Procedimento,Tipo(s) de Contrato,CPVs,Entidade(s) Adjudicante(s),Entidade(s) Adjudicatária(s),Preço Contratual,Data de Publicação,Data de Celebração do Contrato,Prazo de Execução,Local de Execução,Fundamentação,Data de Fecho do Contrato,Preço Total Efetivo,Causas das Alterações ao Prazo,Causas das Alterações ao Preço,Estado,N.º registo do Acordo Quadro,Descrição do Acordo Quadro,Procedimento Centralizado
Aquisição de Reagentes e Material de Imuno-Hematologia,Concurso público,Aquisição de bens móveis,"33696500-0, Reagentes de laboratório","Centro Hospitalar de Entre o Douro e Vouga, E.P.E. (508878462)","Grifols Portugal, Lda (502041285)","74.373,50 €",20-04-2018,16-03-2018,730 dias,"Portugal, Aveiro, Santa Maria da Feira","Artigo 20.º, n.º 1, alínea b) do Código dos Contratos Públicos",,,,,,Não aplicável.,Não aplicável.,FALSE
Aquisição de Reagentes Gerais de Microbiologia II,Ajuste Direto Regime Geral,Aquisição de bens móveis,"33696500-0, Reagentes de laboratório","Centro Hospitalar de Entre o Douro e Vouga, E.P.E. (508878462)","VWR International, Lda. (503842770)","99,60 €",20-04-2018,22-03-2018,365 dias,"Portugal, Aveiro, Santa Maria da Feira","Artigo 20.º, n.º 1, alínea a) do Código dos Contratos Públicos",,,,,,Não aplicável.,Não aplicável.,FALSE
Aquisição de Reagentes Gerais de Microbiologia II,Ajuste Direto Regime Geral,Aquisição de bens móveis,"33696500-0, Reagentes de laboratório","Centro Hospitalar de Entre o Douro e Vouga, E.P.E. (508878462)",Quilaban  (500399670),"740,00 €",20-04-2018,22-03-2018,365 dias,"Portugal, Aveiro, Santa Maria da Feira","Artigo 20.º, n.º 1, alínea a) do Código dos Contratos Públicos",,,,,,Não aplicável.,Não aplicável.,FALSE
Aquisição de Reagentes Gerais de Microbiologia II,Ajuste Direto Regime Geral,Aquisição de bens móveis,"33696500-0, Reagentes de laboratório","Centro Hospitalar de Entre o Douro e Vouga, E.P.E. (508878462)",IBERLAB (503406694),"6.150,00 €",20-04-2018,22-03-2018,365 dias,"Portugal, Aveiro, Santa Maria da Feira","Artigo 20.º, n.º 1, alínea a) do Código dos Contratos Públicos",,,,,,Não aplicável.,Não aplicável.,FALSE
Aquisição de Reagentes Gerais de Microbiologia II,Ajuste Direto Regime Geral,Aquisição de bens móveis,"33696500-0, Reagentes de laboratório","Centro Hospitalar de Entre o Douro e Vouga, E.P.E. (508878462)","Fisher Scientific, Unipessoal, Lda  (506429210)","226,80 €",20-04-2018,22-03-2018,365 dias,"Portugal, Aveiro, Santa Maria da Feira","Artigo 20.º, n.º 1, alínea a) do Código dos Contratos Públicos",,,,,,Não aplicável.,Não aplicável.,FALSE
Aquisição de Reagentes Gerais de Microbiologia II,Ajuste Direto Regime Geral,Aquisição de bens móveis,"33696500-0, Reagentes de laboratório","Centro Hospitalar de Entre o Douro e Vouga, E.P.E. (508878462)","Hemicare-Comércio Rep.Material e Equip.Médicos, Lda (506517080)","910,41 €",20-04-2018,22-03-2018,365 dias,"Portugal, Aveiro, Santa Maria da Feira","Artigo 20.º, n.º 1, alínea a) do Código dos Contratos Públicos",,,,,,Não aplicável.,Não aplicável.,FALSE
Aquisição de Reagentes Gerais de Microbiologia II,Ajuste Direto Regime Geral,Aquisição de bens móveis,"33696500-0, Reagentes de laboratório","Centro Hospitalar de Entre o Douro e Vouga, E.P.E. (508878462)",Biomerieux Portugal (501524177),"12.681,95 €",20-04-2018,22-03-2018,365 dias,"Portugal, Aveiro, Santa Maria da Feira","Artigo 20.º, n.º 1, alínea a) do Código dos Contratos Públicos",,,,,,Não aplicável.,Não aplicável.,FALSE
14/00144.62/2018 - Aquisição de Prestação de Serviços de Medicina do Trabalho,Ajuste Direto Regime Geral,Aquisição de serviços,"85000000-9, Serviços de saúde e acção social","Centro Hospitalar de Entre o Douro e Vouga, E.P.E. (508878462)",Medicina e segurança no trabalho (502777354),"9.000,00 €",17-04-2018,24-01-2018,180 dias,"Portugal, Aveiro, Santa Maria da Feira","Artigo 20.º, n.º 1, alínea a) do Código dos Contratos Públicos",,,,,,Não aplicável.,Não aplicável.,FALSE
Aquisição de 11 Óticas Olympus,Ajuste Direto Regime Geral,Aquisição de bens móveis,"33100000-1, Equipamento médico","Centro Hospitalar de Entre o Douro e Vouga, E.P.E. (508878462)",Olympus Ibéria S.A.U. (980474710),"14.480,00 €",17-04-2018,17-04-2018,30 dias,"Portugal, Aveiro, Santa Maria da Feira","Artigo 20.º, n.º 1, alínea a) do Código dos Contratos Públicos",,,,,,Não aplicável.,Não aplicável.,FALSE
