Objeto do Contrato,Tipo de Procedimento,Tipo(s) de Contrato,CPVs,Entidade(s) Adjudicante(s),Entidade(s) Adjudicatária(s),Preço Contratual,Data de Publicação,Data de Celebração do Contrato,Prazo de Execução,Local de Execução,Fundamentação,Data de Fecho do Contrato,Preço Total Efetivo,Causas das Alterações ao Prazo,Causas das Alterações ao Preço,Estado,N.º registo do Acordo Quadro,Descrição do Acordo Quadro,Procedimento Centralizado
"Aquisição de esmolol e cloreto de sódio 0,9% fr. 500ml para irrigação",Ajuste Direto Regime Geral,Aquisição de bens móveis,"33600000-6, Produtos farmacêuticos","Instituto Nacional de Emergência Médica, I. P. (501356126)","BAXTER, LDA (503347345)","0,00 €",07-12-2017,30-11-2017,1 dias,"Portugal, Lisboa, Lisboa","Artigo 26.º, n.º 1, alínea e) do Código dos Contratos Públicos",,,,,,3052137,"Aquisição de esmolol e cloreto de sódio 0,9% fr. 500ml para irrigação",FALSE
"Aquisição de pensos rápidos, agulhas hipodérmicas, cateteres endovenosos periféricos, torneiras de 3 vias e contentores de recolha de cortantes contaminados",Ajuste Direto Regime Geral,Aquisição de bens móveis,"33000000-0, Equipamento médico, medicamentos e produtos para cuidados pessoais","Instituto Nacional de Emergência Médica, I. P. (501356126)",OVERPHARMA (505792362),"0,00 €",07-12-2017,30-11-2017,2 dias,"Portugal, Lisboa, Lisboa","Artigo 26.º, n.º 1, alínea e) do Código dos Contratos Públicos",,,,,,3052104,"Aquisição de pensos rápidos, agulhas hipodérmicas, cateteres endovenosos periféricos, torneiras de 3 vias e contentores de recolha de cortantes contaminados",FALSE
Reparação de seringa perfusora compact sn 35577,Ajuste Direto Regime Geral,Aquisição de serviços,"50000000-5, Serviços de reparação e manutenção","Instituto Nacional de Emergência Médica, I. P. (501356126)","B.Braun, Lda (501506543)","71,28 €",06-12-2017,04-10-2017,30 dias,"Portugal, Lisboa, Lisboa","Artigo 24.º, n.º 1, alínea e) do Código dos Contratos Públicos",,,,,,Não aplicável.,Não aplicável.,FALSE
Reparação de um LP 12 sn 12439609,Ajuste Direto Regime Geral,Aquisição de serviços,"50000000-5, Serviços de reparação e manutenção","Instituto Nacional de Emergência Médica, I. P. (501356126)",Physio Portugal Sales (510137946),"1.680,22 €",06-12-2017,10-10-2017,30 dias,"Portugal, Lisboa, Lisboa","Artigo 24.º, n.º 1, alínea e) do Código dos Contratos Públicos",,,,,,Não aplicável.,Não aplicável.,FALSE
Reparação de seringa vial pilote A2 sn 17491162,Ajuste Direto Regime Geral,Aquisição de serviços,"50000000-5, Serviços de reparação e manutenção","Instituto Nacional de Emergência Médica, I. P. (501356126)",Fresenius Kabi (504293753),"505,25 €",06-12-2017,10-10-2017,30 dias,"Portugal, Lisboa, Lisboa","Artigo 24.º, n.º 1, alínea e) do Código dos Contratos Públicos",,,,,,Não aplicável.,Não aplicável.,FALSE
Reparação de incubadora air-shieds sn TI100 sn RC00794,Ajuste Direto Regime Geral,Aquisição de serviços,"50000000-5, Serviços de reparação e manutenção","Instituto Nacional de Emergência Médica, I. P. (501356126)","Sano-Tecnica, Lda (500239819)","2.203,20 €",06-12-2017,19-10-2017,30 dias,"Portugal, Lisboa, Lisboa","Artigo 20.º, n.º 1, alínea a) do Código dos Contratos Públicos",,,,,,Não aplicável.,Não aplicável.,FALSE
Reparação de plataforma ventilatória sn 8246/2004,Ajuste Direto Regime Geral,Aquisição de serviços,"50000000-5, Serviços de reparação e manutenção","Instituto Nacional de Emergência Médica, I. P. (501356126)","Equimetto, Lda (510969496)","2.986,13 €",06-12-2017,10-10-2017,30 dias,"Portugal, Lisboa, Lisboa","Artigo 24.º, n.º 1, alínea e) do Código dos Contratos Públicos",,,,,,Não aplicável.,Não aplicável.,FALSE
Reparação de monitor nonin sn 500689085,Ajuste Direto Regime Geral,Aquisição de serviços,"50000000-5, Serviços de reparação e manutenção","Instituto Nacional de Emergência Médica, I. P. (501356126)","Equimetto, lda (510969496)","1.387,98 €",06-12-2017,19-10-2017,30 dias,"Portugal, Lisboa, Lisboa","Artigo 24.º, n.º 1, alínea e) do Código dos Contratos Públicos",,,,,,Não aplicável.,Não aplicável.,FALSE
Aquisição de 20 imobilizadores de cabeça,Ajuste Direto Regime Geral,Aquisição de bens móveis,"33100000-1, Equipamento médico","Instituto Nacional de Emergência Médica, I. P. (501356126)","Ambex, Lda (507593111)","1.900,00 €",06-12-2017,04-10-2017,30 dias,"Portugal, Lisboa, Lisboa","Artigo 20.º, n.º 1, alínea a) do Código dos Contratos Públicos",,,,,,Não aplicável.,Não aplicável.,FALSE
