Objeto do Contrato,Tipo de Procedimento,Tipo(s) de Contrato,CPVs,Entidade(s) Adjudicante(s),Entidade(s) Adjudicatária(s),Preço Contratual,Data de Publicação,Data de Celebração do Contrato,Prazo de Execução,Local de Execução,Fundamentação,Data de Fecho do Contrato,Preço Total Efetivo,Causas das Alterações ao Prazo,Causas das Alterações ao Preço,Estado,N.º registo do Acordo Quadro,Descrição do Acordo Quadro,Procedimento Centralizado
Aquisição de 20 WORKSTATIONS + 20 MONITORES LCD - C.P. N.º 0701788,Consulta Prévia,Aquisição de bens móveis,"33197000-7, Equipamento informático para fins médicos","Hospital Garcia de Orta, E.P.E. (506361470)","Normática - Serviços de Informática e Organização, S.A. (501782230)","46.039,20 €",11-12-2018,26-11-2018,30 dias,"Portugal, Setúbal, Almada","Artigo 20.º, n.º 1, alínea c) do Código dos Contratos Públicos",,,,,,Não aplicável.,Não aplicável.,FALSE
Aquisição de 5 CARDIOTOCÓGRAFOS - C.P. N.º 0701768,Consulta Prévia,Aquisição de bens móveis,"33123230-9, Cardiógrafos","Hospital Garcia de Orta, E. P. E. (506361470)","SPECULUM - ARTIGOS MÉDICOS,LDA (502996323)","13.400,00 €",11-12-2018,21-11-2018,40 dias,"Portugal, Setúbal, Almada","Artigo 20.º, n.º 1, alínea c) do Código dos Contratos Públicos",,,,,,Não aplicável.,Não aplicável.,FALSE
RITUXIMAB - CPA 2017/6,Ao abrigo de acordo-quadro (art.º 259.º),Aquisição de bens móveis,"33000000-0, Equipamento médico, medicamentos e produtos para cuidados pessoais","Hospital Garcia de Orta, E. P. E. (506361470)","PHARMAKERN PORTUGAL, Produtos Farmacêuticos Soc. Unipessoal Lda (507002571)","70.470,00 €",11-12-2018,06-12-2018,30 dias,"Portugal, Setúbal, Almada",Artigo 259.º do Código dos Contratos Públicos,,,,,,2969238,"CP 2017/6 - Acordo Quadro para fornecimento de Medicamentos do Foro Oncológico e Imunomoduladores, às Instituições e Serviços do Serviço Nacional de Saúde",FALSE
INFLIXIMAB 100 MG PÓ CONC SOL INJ FR IV - CPA 2017/6,Ao abrigo de acordo-quadro (art.º 259.º),Aquisição de bens móveis,"33000000-0, Equipamento médico, medicamentos e produtos para cuidados pessoais","Hospital Garcia de Orta, E. P. E. (506361470)",MERCK SHARP & DOHME LDA (500191360),"24.000,00 €",11-12-2018,04-12-2018,30 dias,"Portugal, Setúbal, Almada",Artigo 259.º do Código dos Contratos Públicos,,,,,,2969238,"CP 2017/6 - Acordo Quadro para fornecimento de Medicamentos do Foro Oncológico e Imunomoduladores, às Instituições e Serviços do Serviço Nacional de Saúde",FALSE
AGALSIDASE BETA 35 MG PÓ SOL INJ FR IV - CPA 2017/58,Ao abrigo de acordo-quadro (art.º 259.º),Aquisição de bens móveis,"33000000-0, Equipamento médico, medicamentos e produtos para cuidados pessoais","Hospital Garcia de Orta, E. P. E. (506361470)","Sanofi - Produtos Farmacêuticos, Lda (500134960)","15.955,20 €",11-12-2018,04-12-2018,30 dias,"Portugal, Setúbal, Almada",Artigo 259.º do Código dos Contratos Públicos,,,,,,2658382,CP 2017/58 - Acordo Quadro para fornecimento de Medicamentos para Doenças Lisossomais de Sobrecarga às Instituições e Serviços do Serviço Nacional de Saúde,FALSE
NATALIZUMAB 20MG/ML SOL.INJ. FR 15ML - CPA2017/6,Ao abrigo de acordo-quadro (art.º 259.º),Aquisição de bens móveis,"33000000-0, Equipamento médico, medicamentos e produtos para cuidados pessoais","Hospital Garcia de Orta, E. P. E. (506361470)","BIOGEN IDEC PORTUGAL-SOC.FARM.UNIP, LDA (506415740)","36.120,00 €",11-12-2018,06-12-2018,30 dias,"Portugal, Setúbal, Almada",Artigo 259.º do Código dos Contratos Públicos,,,,,,2969238,"CP 2017/6 - Acordo Quadro para fornecimento de Medicamentos do Foro Oncológico e Imunomoduladores, às Instituições e Serviços do Serviço Nacional de Saúde",FALSE
SELANTE HEMOSTÁTICO DE COLAGÉNIO REVESTIDO POR NHS-PEG,Ajuste Direto Regime Geral,Aquisição de bens móveis,"33000000-0, Equipamento médico, medicamentos e produtos para cuidados pessoais","Hospital Garcia de Orta, E. P. E. (506361470)","BAXTER MEDICO FARMACEUTICA,LDA (503347345)","5.510,00 €",11-12-2018,05-12-2018,30 dias,"Portugal, Setúbal, Almada","Artigo 24.º, n.º 1, alínea e), subalínea iii) do Código dos Contratos Públicos",,,,,,Não aplicável.,Não aplicável.,FALSE
VEDOLIZUMAB 300 MG PÓ CONC SOL INJ FR IV,Ajuste Direto Regime Geral,Aquisição de bens móveis,"33000000-0, Equipamento médico, medicamentos e produtos para cuidados pessoais","Hospital Garcia de Orta, E. P. E. (506361470)","Takeda - Farmacêuticos Portugal, Lda. (502801204)","18.421,44 €",11-12-2018,05-12-2018,30 dias,"Portugal, Setúbal, Almada","Artigo 24.º, n.º 1, alínea e), subalínea iii) do Código dos Contratos Públicos",,,,,,Não aplicável.,Não aplicável.,FALSE
"CONCENTRADO PROTROMBÍNICO II, VII, IX, X 500UI FR/AMP - CPA 2017/9",Ao abrigo de acordo-quadro (art.º 259.º),Aquisição de bens móveis,"33000000-0, Equipamento médico, medicamentos e produtos para cuidados pessoais","Hospital Garcia de Orta, E. P. E. (506361470)",Octapharma Lda (502820780),"3.740,00 €",11-12-2018,28-11-2018,30 dias,"Portugal, Setúbal, Almada",Artigo 259.º do Código dos Contratos Públicos,,,,,,2800702,CP 2017/9 - Acordo quadro para fornecimento de Derivados do Plasma Humano às Instituições e Serviços do Serviço Nacional de Saúde,FALSE
"CONCENTRADO PROTROMBÍNICO II, VII, IX, X 500UI FR/AMP - CPA 2017/9",Ao abrigo de acordo-quadro (art.º 259.º),Aquisição de bens móveis,"33000000-0, Equipamento médico, medicamentos e produtos para cuidados pessoais","Hospital Garcia de Orta, E. P. E. (506361470)",CSL Behring Lda (503047201),"3.740,00 €",11-12-2018,28-11-2018,30 dias,"Portugal, Setúbal, Almada",Artigo 259.º do Código dos Contratos Públicos,,,,,,2800702,CP 2017/9 - Acordo quadro para fornecimento de Derivados do Plasma Humano às Instituições e Serviços do Serviço Nacional de Saúde,FALSE
CARFILZOMIB 60 MG PÓ SOL INJ FR IV,Ajuste Direto Regime Geral,Aquisição de bens móveis,"33000000-0, Equipamento médico, medicamentos e produtos para cuidados pessoais","Hospital Garcia de Orta, E. P. E. (506361470)",amgen (502942959),"26.869,44 €",11-12-2018,05-12-2018,30 dias,"Portugal, Setúbal, Almada","Artigo 24.º, n.º 1, alínea e), subalínea iii) do Código dos Contratos Públicos",,,,,,Não aplicável.,Não aplicável.,FALSE
SELEXIPAG 1600 ΜG COMP,Ajuste Direto Regime Geral,Aquisição de bens móveis,"33600000-6, Produtos farmacêuticos","Hospital Garcia de Orta, E. P. E. (506361470)","ACTELION PHARMACEUTICALS PORTUGAL, LDA (507336488)","10.429,20 €",11-12-2018,05-12-2018,30 dias,"Portugal, Setúbal, Almada","Artigo 24.º, n.º 1, alínea e), subalínea iii) do Código dos Contratos Públicos",,,,,,Não aplicável.,Não aplicável.,FALSE
Medicamentos Exclusivos,Ajuste Direto Regime Geral,Aquisição de bens móveis,"33600000-6, Produtos farmacêuticos","Hospital Garcia de Orta, E.P.E. (506361470)",roche farmaceutica (500233810),"124.887,54 €",10-12-2018,27-02-2018,365 dias,"Portugal, Setúbal, Almada","Artigo 24.º, n.º 1, alínea e) do Código dos Contratos Públicos",,,,,,Não aplicável.,Não aplicável.,FALSE
Medicamentos Exclusivos,Ajuste Direto Regime Geral,Aquisição de bens móveis,"33600000-6, Produtos farmacêuticos","Hospital Garcia de Orta, E.P.E. (506361470)","FRESENIUS MEDICAL CARE, S.A.. (503070220)","12.735,25 €",10-12-2018,23-02-2018,365 dias,"Portugal, Setúbal, Almada","Artigo 24.º, n.º 1, alínea e) do Código dos Contratos Públicos",,,,,,Não aplicável.,Não aplicável.,FALSE
LEDIPASVIR 90 MG + SOFOSBUVIR 400 MG COMP (12 tratamentos) - CPA 2017/67,Ao abrigo de acordo-quadro (art.º 259.º),Aquisição de bens móveis,"33000000-0, Equipamento médico, medicamentos e produtos para cuidados pessoais","Hospital Garcia de Orta, E. P. E. (506361470)","GILEAD SCIENCES, LDA. (503604704)","82.800,00 €",10-12-2018,17-05-2018,210 dias,"Portugal, Setúbal, Almada",Artigo 259.º do Código dos Contratos Públicos,,,,,,3023927,CP 2017/67 - Medicamentos para a Hepatite C crónica,FALSE
SOFOSBUVIR 400 MG + VELPATASVIR 100 MG COMP (10 tratamentos) - CPA 2017/67,Ao abrigo de acordo-quadro (art.º 259.º),Aquisição de bens móveis,"33000000-0, Equipamento médico, medicamentos e produtos para cuidados pessoais","Hospital Garcia de Orta, E. P. E. (506361470)","GILEAD SCIENCES, LDA. (503604704)","69.000,00 €",10-12-2018,17-05-2018,210 dias,"Portugal, Setúbal, Almada",Artigo 259.º do Código dos Contratos Públicos,,,,,,3023927,CP 2017/67 - Medicamentos para a Hepatite C crónica,FALSE
LEDIPASVIR 90 MG + SOFOSBUVIR 400 MG COMP (7 tratamentos) - CPA 2017/67,Ao abrigo de acordo-quadro (art.º 259.º),Aquisição de bens móveis,"33000000-0, Equipamento médico, medicamentos e produtos para cuidados pessoais","Hospital Garcia de Orta, E. P. E. (506361470)","GILEAD SCIENCES, LDA. (503604704)","48.289,08 €",10-12-2018,04-07-2018,180 dias,"Portugal, Setúbal, Almada",Artigo 259.º do Código dos Contratos Públicos,,,,,,3023927,CP 2017/67 - Medicamentos para a Hepatite C crónica,FALSE
ELBASVIR 50 MG + GRAZOPREVIR 100 MG COMP (4 tratamentos) - CPA 2017/67,Ao abrigo de acordo-quadro (art.º 259.º),Aquisição de bens móveis,"33000000-0, Equipamento médico, medicamentos e produtos para cuidados pessoais","Hospital Garcia de Orta, E. P. E. (506361470)","Merck Sharp & Dohme, Lda. (500191360)","29.036,54 €",10-12-2018,04-07-2018,180 dias,"Portugal, Setúbal, Almada",Artigo 259.º do Código dos Contratos Públicos,,,,,,3023927,CP 2017/67 - Medicamentos para a Hepatite C crónica,FALSE
SOFOSBUVIR 400 MG + VELPATASVIR 100 MG COMP (9 tratamentos) - CPA 2017/67,Ao abrigo de acordo-quadro (art.º 259.º),Aquisição de bens móveis,"33000000-0, Equipamento médico, medicamentos e produtos para cuidados pessoais","Hospital Garcia de Orta, E. P. E. (506361470)","GILEAD SCIENCES, LDA. (503604704)","62.100,00 €",10-12-2018,05-07-2018,180 dias,"Portugal, Setúbal, Almada",Artigo 259.º do Código dos Contratos Públicos,,,,,,3023927,CP 2017/67 - Medicamentos para a Hepatite C crónica,FALSE
SOFOSBUVIR 400 MG + VELPATASVIR 100 MG COMP (6 tratamentos) - CPA 2017/67,Ao abrigo de acordo-quadro (art.º 259.º),Aquisição de bens móveis,"33000000-0, Equipamento médico, medicamentos e produtos para cuidados pessoais","Hospital Garcia de Orta, E. P. E. (506361470)","GILEAD SCIENCES, LDA. (503604704)","41.400,00 €",10-12-2018,16-07-2018,180 dias,"Portugal, Setúbal, Almada",Artigo 259.º do Código dos Contratos Públicos,,,,,,3023927,CP 2017/67 - Medicamentos para a Hepatite C crónica,FALSE
LEDIPASVIR 90 MG + SOFOSBUVIR 400 MG COMP (30 tratamentos) - CPA 2017/67,Ao abrigo de acordo-quadro (art.º 259.º),Aquisição de bens móveis,"33000000-0, Equipamento médico, medicamentos e produtos para cuidados pessoais","Hospital Garcia de Orta, E. P. E. (506361470)","GILEAD SCIENCES, LDA. (503604704)","207.000,00 €",10-12-2018,26-07-2018,150 dias,"Portugal, Setúbal, Almada",Artigo 259.º do Código dos Contratos Públicos,,,,,,3023927,CP 2017/67 - Medicamentos para a Hepatite C crónica,FALSE
GLECAPREVIR 100 MG + PIBRENTASVIR 40 MG COMP - CPA 2017/67,Ao abrigo de acordo-quadro (art.º 259.º),Aquisição de bens móveis,"33600000-6, Produtos farmacêuticos","Hospital Garcia de Orta, E. P. E. (506361470)","ABBVIE, LDA (510229050)","33.000,06 €",07-12-2018,24-07-2018,30 dias,"Portugal, Setúbal, Almada",Artigo 259.º do Código dos Contratos Públicos,,,,,,3023927,CP 2017/67 - Medicamentos para a Hepatite C crónica,FALSE
ELBASVIR 50 MG + GRAZOPREVIR 100 MG COMP (7 TRATAMENTOS) - CPA 2017/67,Ao abrigo de acordo-quadro (art.º 259.º),Aquisição de bens móveis,"33600000-6, Produtos farmacêuticos","Hospital Garcia de Orta, E. P. E. (506361470)","Merck Sharp & Dohme, Lda. (500191360)","49.138,75 €",07-12-2018,23-07-2018,30 dias,"Portugal, Setúbal, Almada",Artigo 259.º do Código dos Contratos Públicos,,,,,,3023927,CP 2017/67 - Medicamentos para a Hepatite C crónica,FALSE
SOFOSBUVIR 400 MG + VELPATASVIR 100 MG COMP - CPA 2017/67,Ao abrigo de acordo-quadro (art.º 259.º),Aquisição de bens móveis,"33600000-6, Produtos farmacêuticos","Hospital Garcia de Orta, E. P. E. (506361470)","GILEAD SCIENCES, LDA. (503604704)","69.000,00 €",07-12-2018,30-08-2018,30 dias,"Portugal, Setúbal, Almada",Artigo 259.º do Código dos Contratos Públicos,,,,,,3023927,CP 2017/67 - Medicamentos para a Hepatite C crónica,FALSE
ELBASVIR 50 MG + GRAZOPREVIR 100 MG COMP - CPA 2017/67,Ao abrigo de acordo-quadro (art.º 259.º),Aquisição de bens móveis,"33000000-0, Equipamento médico, medicamentos e produtos para cuidados pessoais","Hospital Garcia de Orta, E. P. E. (506361470)","Merck Sharp & Dohme, Lda. (500191360)","20.102,22 €",07-12-2018,04-09-2018,30 dias,"Portugal, Setúbal, Almada",Artigo 259.º do Código dos Contratos Públicos,,,,,,3023927,CP 2017/67 - Medicamentos para a Hepatite C crónica,FALSE
LEDIPASVIR 90 MG + SOFOSBUVIR 400 MG COMP - CPA 2017/67,Ao abrigo de acordo-quadro (art.º 259.º),Aquisição de bens móveis,"33600000-6, Produtos farmacêuticos","Hospital Garcia de Orta, E. P. E. (506361470)","GILEAD SCIENCES, LDA. (503604704)","138.000,00 €",07-12-2018,30-08-2018,30 dias,"Portugal, Setúbal, Almada",Artigo 259.º do Código dos Contratos Públicos,,,,,,3023927,CP 2017/67 - Medicamentos para a Hepatite C crónica,FALSE
GLECAPREVIR 100 MG + PIBRENTASVIR 40 MG COMP - CPA 2017/67,Ao abrigo de acordo-quadro (art.º 259.º),Aquisição de bens móveis,"33600000-6, Produtos farmacêuticos","Hospital Garcia de Orta, E. P. E. (506361470)","ABBVIE, LDA (510229050)","19.800,00 €",07-12-2018,04-09-2018,30 dias,"Portugal, Setúbal, Almada",Artigo 259.º do Código dos Contratos Públicos,,,,,,3023927,CP 2017/67 - Medicamentos para a Hepatite C crónica,FALSE
Prestação de Serviços Médicos no Serviço de Anestesiologia - C.P. N.º 0802518,Consulta Prévia,Aquisição de serviços,"85121200-5, Serviços de medicina especializada","Hospital Garcia de Orta, E. P. E. (506361470)","RHINOCERUS, UNIPESSOAL, LDA. (513963430)","52.048,00 €",06-12-2018,08-11-2018,365 dias,"Portugal, Setúbal, Almada","Artigo 20.º, n.º 1, alínea c) do Código dos Contratos Públicos",,,,,,Não aplicável.,Não aplicável.,FALSE
PROTESE AORTO ILIACA,Ajuste Direto Regime Geral,Aquisição de bens móveis,"33000000-0, Equipamento médico, medicamentos e produtos para cuidados pessoais","Hospital Garcia de Orta, E. P. E. (506361470)",LusoPalex Lda. (503531588),"37.300,00 €",06-12-2018,02-11-2018,60 dias,"Portugal, Setúbal, Almada","Artigo 26.º, n.º 1, alínea a) do Código dos Contratos Públicos",,,,,,Não aplicável.,Não aplicável.,FALSE
Prestação de Serviços Médicos no Serviço de Urgência Geral - C.P. N.º 0802708,Consulta Prévia,Aquisição de serviços,"85121100-4, Serviços de médicos de clínica geral","Hospital Garcia de Orta, E. P. E. (506361470)",OCTÁVIA BÁRBARA VALDEZ DA FONSECA (220888035),"24.200,00 €",05-12-2018,28-11-2018,365 dias,"Portugal, Setúbal, Almada","Artigo 20.º, n.º 1, alínea c) do Código dos Contratos Públicos",,,,,,Não aplicável.,Não aplicável.,FALSE
STENT/ MICROCOILS,Ajuste Direto Regime Geral,Aquisição de bens móveis,"33000000-0, Equipamento médico, medicamentos e produtos para cuidados pessoais","Hospital Garcia de Orta, E. P. E. (506361470)",MEDECINALIA CORMÉDICA (500684324),"6.640,00 €",05-12-2018,02-11-2018,60 dias,"Portugal, Setúbal, Almada","Artigo 24.º, n.º 1, alínea c) do Código dos Contratos Públicos",,,,,,Não aplicável.,Não aplicável.,FALSE
STENT/ MICROCOIL,Ajuste Direto Regime Geral,Aquisição de bens móveis,"33000000-0, Equipamento médico, medicamentos e produtos para cuidados pessoais","Hospital Garcia de Orta, E. P. E. (506361470)",MEDECINALIA CORMÉDICA (500684324),"6.640,00 €",05-12-2018,02-11-2018,60 dias,"Portugal, Setúbal, Almada","Artigo 24.º, n.º 1, alínea c) do Código dos Contratos Públicos",,,,,,Não aplicável.,Não aplicável.,FALSE
RALTEGRAVIR 400 MG COMP - CPA 2016/40,Ao abrigo de acordo-quadro (art.º 259.º),Aquisição de bens móveis,"33000000-0, Equipamento médico, medicamentos e produtos para cuidados pessoais","Hospital Garcia de Orta, E. P. E. (506361470)","Merck Sharp & Dohme, Lda. (500191360)","120.228,00 €",03-12-2018,29-11-2018,30 dias,"Portugal, Setúbal, Almada",Artigo 259.º do Código dos Contratos Públicos,,,,,,2183729,Medicamentos antirretrovíricos para o tratamento da infeção por VIH,FALSE
TOCILIZUMAB 20MG/ML SOL INJ FR 10ML IV - CPA 2017/6,Ao abrigo de acordo-quadro (art.º 259.º),Aquisição de bens móveis,"33000000-0, Equipamento médico, medicamentos e produtos para cuidados pessoais","Hospital Garcia de Orta, E. P. E. (506361470)",ROCHE FARMACEUTICA QUIMICA LDA (500233810),"7.806,40 €",03-12-2018,13-11-2018,60 dias,"Portugal, Setúbal, Almada",Artigo 259.º do Código dos Contratos Públicos,,,,,,2969238,"CP 2017/6 - Acordo Quadro para fornecimento de Medicamentos do Foro Oncológico e Imunomoduladores, às Instituições e Serviços do Serviço Nacional de Saúde",FALSE
ERTAPENEM 1000 MG PÓ CONC SOL INJ FR IV - CPA 2017/5,Ao abrigo de acordo-quadro (art.º 259.º),Aquisição de bens móveis,"33000000-0, Equipamento médico, medicamentos e produtos para cuidados pessoais","Hospital Garcia de Orta, E. P. E. (506361470)","Merck Sharp & Dohme, Lda. (500191360)","11.750,00 €",03-12-2018,13-11-2018,60 dias,"Portugal, Setúbal, Almada",Artigo 259.º do Código dos Contratos Públicos,,,,,,2775691,CP 2017/5 - Acordo Quadro para fornecimento de Medicamentos anti-infeciosos: exceto antivíricos e antifúngicos,FALSE
VINORELBINA 20 MG CÁPS - CPA 2017/61,Ao abrigo de acordo-quadro (art.º 259.º),Aquisição de bens móveis,"33000000-0, Equipamento médico, medicamentos e produtos para cuidados pessoais","Hospital Garcia de Orta, E. P. E. (506361470)","PIERRE FABRE MEDICAMENT PORTUGAL, LDA. (500230366)","9.580,80 €",03-12-2018,13-11-2018,60 dias,"Portugal, Setúbal, Almada",Artigo 259.º do Código dos Contratos Públicos,,,,,,2545980,CP 2017/61 - Acordo quadro para fornecimento de Medicamentos Diversos   às Instituições e Serviços do Serviço Nacional de Saúde,FALSE
