Objeto do Contrato,Tipo de Procedimento,Tipo(s) de Contrato,CPVs,Entidade(s) Adjudicante(s),Entidade(s) Adjudicatária(s),Preço Contratual,Data de Publicação,Data de Celebração do Contrato,Prazo de Execução,Local de Execução,Fundamentação,Data de Fecho do Contrato,Preço Total Efetivo,Causas das Alterações ao Prazo,Causas das Alterações ao Preço,Estado,N.º registo do Acordo Quadro,Descrição do Acordo Quadro,Procedimento Centralizado
"Aquisição de serviços médicos sem especialidade, na área dos Cuidados de Saúde Primários da ARS NORTE, I.P. - ACES Aveiro Norte",Ao abrigo de acordo-quadro (art.º 259.º),Aquisição de serviços,"79625000-1, Serviços de fornecimento de pessoal médico","Administração Regional de Saúde do Norte, I.P. (503135593)","Soclafe - Prestação de Serviços de Saúde, lda (508717566)","16,25 €",01-10-2013,16-07-2013,188 dias,"Portugal, Aveiro, Oliveira de Azemeis<BR/>Portugal, Aveiro, São João da Madeira<BR/>Portugal, Aveiro, Vale de Cambra",Artigo 259.º do Código dos Contratos Públicos,31-12-2013,"16,25 €","",,,454020,"CONCURSO PÚBLICO PARA A CELEBRAÇÃO DE CONTRATOS PÚBLICOS DE APROVISIONAMENTO PARA A ÁREA DA SAÚDE, COM VISTA À PRESTAÇÃO DE SERVIÇOS MÉDICOS ÀS INSTITUIÇÕES E SERVIÇOS DO SERVIÇO NACIONAL DE SAÚDE",
Aquisição de 2 000 pares de livas em latex tamanho L  esterilizada,Ajuste Direto Regime Geral,Aquisição de bens móveis,"33140000-3, Material médico de consumo","Administração Regional de Saúde do Norte, I.P. (503135593)","Ezequiel Panão Jorge, Lda (501412727)","356,00 €",01-10-2013,16-09-2013,365 dias,"Portugal, Vila Real, Vila Real",Artigo 258.º do Código dos Contratos Públicos,07-11-2013,"356,00 €","",,,1072951,Aquisição de 2 000 pares de luvas em latex tamanho L esterilizada,
Aquisição de 300 000 unidades de livas em nitrilo tamanho L não esterilizada; 750 000 unidades de luvas em nitrilo tamanho M não esterilizada e 600 000 unidades  luvas em nitrilo tamanho S não esterilizada,Ajuste Direto Regime Geral,Aquisição de bens móveis,"33140000-3, Material médico de consumo","Administração Regional de Saúde do Norte, I.P. (503135593)",DOCWORLD. LDA (508592909),"47.685,00 €",01-10-2013,16-09-2013,365 dias,"Portugal, Vila Real, Vila Real",Artigo 258.º do Código dos Contratos Públicos,07-11-2013,"47.685,00 €","",,,1072948,Aquisição de 300 000 unidades de livas em nitrilo tamanho L não esterilizada; 750 000 unidades de luvas em nitrilo tamanho M não esterilizada e 600 000 unidades  luvas em nitrilo tamanho S não esterilizada,
Aquisição de 300 000 unidades de livas em nitrilo tamanho L não esterilizada; 750 000 unidades de luvas em nitrilo tamanho M não esterilizada e 600 000 unidades  luvas em nitrilo tamanho S não esterilizada,Ajuste Direto Regime Geral,Aquisição de bens móveis,"33140000-3, Material médico de consumo","Administração Regional de Saúde do Norte, I.P. (503135593)","H. R. - Produtos Quimicos, Lda (501895558)","47.685,00 €",01-10-2013,17-09-2013,365 dias,"Portugal, Vila Real, Vila Real",Artigo 258.º do Código dos Contratos Públicos,07-11-2013,"47.685,00 €","",,,1072936,Aquisição de 300 000 unidades de livas em nitrilo tamanho L não esterilizada; 750 000 unidades de luvas em nitrilo tamanho M não esterilizada e 600 000 unidades  luvas em nitrilo tamanho S não esterilizada,
Aquisição de 4 400 unidades luvas cirúrgicas latex empoadas nº 6,Ajuste Direto Regime Geral,Aquisição de bens móveis,"33140000-3, Material médico de consumo","Administração Regional de Saúde do Norte, I.P. (503135593)",Covicien Portugal - Prod. Saúde Unipessoal (503413410),"811,80 €",01-10-2013,11-09-2013,365 dias,"Portugal, Vila Real, Vila Real",Artigo 258.º do Código dos Contratos Públicos,20-09-2013,"811,80 €","",,,1072924,Aquisição de 4 400 unidades luvas cirúrgicas latex empoadas nº 6,
Aquisição de 600 comprimidos de Quetiapina 100 mg,Ajuste Direto Regime Geral,Aquisição de bens móveis,"33600000-6, Produtos farmacêuticos","Administração Regional de Saúde do Norte, I.P. (503135593)","Generis Farmacêutica, S.A. (508107997)","156,00 €",01-10-2013,06-09-2013,365 dias,"Portugal, Vila Real, Vila Real",Artigo 258.º do Código dos Contratos Públicos,10-09-2013,"156,00 €","",,,1072908,Aquisição de 600 comprimidos de Quetiapina 100 mg,
Aquisição de 1 176 comprimidos de Mirtazapina 15 mg,Ajuste Direto Regime Geral,Aquisição de bens móveis,"33600000-6, Produtos farmacêuticos","Administração Regional de Saúde do Norte, I.P. (503135593)",ACTAVIS AS SUCURSAL (980334934),"52,92 €",01-10-2013,16-09-2013,365 dias,"Portugal, Vila Real, Vila Real",Artigo 258.º do Código dos Contratos Públicos,20-09-2013,"52,92 €","",,,1072894,Aquisição de 1 176 comprimidos de Mirtazapina 15 mg,
Aquisição de 100 unidades de risperidona 1 mg/ml Sol oral Fr 30 ml,Ajuste Direto Regime Geral,Aquisição de bens móveis,"33600000-6, Produtos farmacêuticos","Administração Regional de Saúde do Norte, I.P. (503135593)",RATIOPHARM (502414910),"267,00 €",01-10-2013,11-09-2013,365 dias,"Portugal, Vila Real, Vila Real",Artigo 258.º do Código dos Contratos Públicos,12-09-2013,"267,00 €","",,,1072884,Aquisição de 100 unidades de risperidona 1 mg/ml Sol oral Fr 30 ml,
Aquisição de 2 240 comprimidos de Sertralina 50 mg,Ajuste Direto Regime Geral,Aquisição de bens móveis,"33600000-6, Produtos farmacêuticos","Administração Regional de Saúde do Norte, I.P. (503135593)","SANOFI - Produtos Farmacêuticos, Lda (500134960)","67,20 €",01-10-2013,17-09-2013,365 dias,"Portugal, Vila Real, Vila Real",Artigo 258.º do Código dos Contratos Públicos,18-09-2013,"67,20 €","",,,1072877,Aquisição de 2 240 comprimidos de Sertralina 50 mg,
"Aquisição de serviços médicos sem especialidade, na área dos cuidados de Saúde Primários da ARS NORTE, I.P. - ACES Cávado Braga",Ao abrigo de acordo-quadro (art.º 259.º),Aquisição de serviços,"79625000-1, Serviços de fornecimento de pessoal médico","Administração Regional de Saúde do Norte, I.P. (503135593)","Soclafe - Prestação de Serviços de Saúde, lda (508717566)","18,09 €",01-10-2013,16-07-2013,197 dias,"Portugal, Braga, Esposende<BR/>Portugal, Braga, Braga<BR/>Portugal, Braga, Barcelos",Artigo 259.º do Código dos Contratos Públicos,31-12-2013,"18,09 €","",,,454020,"CONCURSO PÚBLICO PARA A CELEBRAÇÃO DE CONTRATOS PÚBLICOS DE APROVISIONAMENTO PARA A ÁREA DA SAÚDE, COM VISTA À PRESTAÇÃO DE SERVIÇOS MÉDICOS ÀS INSTITUIÇÕES E SERVIÇOS DO SERVIÇO NACIONAL DE SAÚDE",
Aquisição de 1 000 pensos Poliuretano c/ silicone extra-fino 10x10 cm,Ajuste Direto Regime Geral,Aquisição de bens móveis,"33140000-3, Material médico de consumo","Administração Regional de Saúde do Norte, I.P. (503135593)",MOLNLYCKE HEALTH CARE (511101066),"2.070,00 €",01-10-2013,26-09-2013,365 dias,"Portugal, Vila Real, Vila Real",Artigo 258.º do Código dos Contratos Públicos,27-09-2013,"2.070,00 €","",,,1072871,Aquisição de 1 000 pensos Poliuretano c/ silicone extra-fino 10x10 cm,
Aquisição de 690 ampolas de clonixina 50 mg/ml Sol. inj 2 ml IM IV,Ajuste Direto Regime Geral,Aquisição de bens móveis,"33600000-6, Produtos farmacêuticos","Administração Regional de Saúde do Norte, I.P. (503135593)","JABA RECORDATI, S.A. (500492867)","159,85 €",01-10-2013,04-09-2013,365 dias,"Portugal, Vila Real, Vila Real",Artigo 258.º do Código dos Contratos Públicos,05-09-2013,"159,85 €","",,,1072859,Aquisição de 690 ampolas de clonixina 50 mg/ml Sol. inj 2 ml IM IV,
Aquisição de 2000 ampolas de acetilsalicilato de lisina 900 mg Pó Sol. inj. IM IV,Ajuste Direto Regime Geral,Aquisição de bens móveis,"33600000-6, Produtos farmacêuticos","Administração Regional de Saúde do Norte, I.P. (503135593)","LAFESFAL - Laboratórios Almiro, S.A. (501169580)","859,80 €",01-10-2013,14-08-2013,365 dias,"Portugal, Vila Real, Vila Real",Artigo 258.º do Código dos Contratos Públicos,28-10-2013,"859,80 €","",,,1072849,Aquisição de 2000 ampolas de acetilsalicilato de lisina 900 mg Pó Sol. inj. IM IV,
Aquisição de 16 000 pensos de poliuretano silicone e prata 10x10cm,Ajuste Direto Regime Geral,Aquisição de bens móveis,"33140000-3, Material médico de consumo","Administração Regional de Saúde do Norte, I.P. (503135593)","SMITH & NEPHEW, LDA (503552461)","48.800,00 €",01-10-2013,20-09-2013,365 dias,"Portugal, Vila Real, Vila Real",Artigo 258.º do Código dos Contratos Públicos,01-10-2013,"48.800,00 €","",,,1072442,Aquisição de 16 000 pensos de poliuretano silicone e prata 10x10cm,
"Aquisição de serviços médicos sem especialidade, na área dos cuidados de Saúde Primários da ARS NORTE, I.P. - ACES Douro Sul",Ao abrigo de acordo-quadro (art.º 259.º),Aquisição de serviços,"79625000-1, Serviços de fornecimento de pessoal médico","Administração Regional de Saúde do Norte, I.P. (503135593)","Helped Prestação de Serviços de Saúde, lda (506069010)","18,09 €",01-10-2013,16-07-2013,210 dias,"Portugal, Viseu, Tabuaço<BR/>Portugal, Viseu, Lamego<BR/>Portugal, Viseu, Penedono<BR/>Portugal, Viseu, São João da Pesqueira<BR/>Portugal, Viseu, Armamar<BR/>Portugal, Viseu, Moimenta da Beira<BR/>Portugal, Viseu, Sernancelhe<BR/>Portugal, Viseu, Tarouca",Artigo 259.º do Código dos Contratos Públicos,31-12-2013,"18,09 €","",,,454020,"CONCURSO PÚBLICO PARA A CELEBRAÇÃO DE CONTRATOS PÚBLICOS DE APROVISIONAMENTO PARA A ÁREA DA SAÚDE, COM VISTA À PRESTAÇÃO DE SERVIÇOS MÉDICOS ÀS INSTITUIÇÕES E SERVIÇOS DO SERVIÇO NACIONAL DE SAÚDE",
"Aquisição de Serviços Médicos com especialidade em Medicina Geral e Familiar, na área de Cuidados de Saúde Primários da ARS Norte, I.P. - Aces Feira Arouca",Ao abrigo de acordo-quadro (art.º 259.º),Aquisição de serviços,"79625000-1, Serviços de fornecimento de pessoal médico","Administração Regional de Saúde do Norte, I.P. (503135593)","Helped Prestação de Serviços de Saúde, lda (506069010)","18,39 €",01-10-2013,16-07-2013,210 dias,"Portugal, Aveiro, Arouca<BR/>Portugal, Aveiro, Santa Maria da Feira",Artigo 259.º do Código dos Contratos Públicos,31-12-2013,"18,39 €","",,,454020,"CONCURSO PÚBLICO PARA A CELEBRAÇÃO DE CONTRATOS PÚBLICOS DE APROVISIONAMENTO PARA A ÁREA DA SAÚDE, COM VISTA À PRESTAÇÃO DE SERVIÇOS MÉDICOS ÀS INSTITUIÇÕES E SERVIÇOS DO SERVIÇO NACIONAL DE SAÚDE",
"Aquisição de serviços médicos sem especialidade, na área dos cuidados de Sáude Primários da ARS Norte, - ACES Alto Ave",Ao abrigo de acordo-quadro (art.º 259.º),Aquisição de serviços,"79625000-1, Serviços de fornecimento de pessoal médico","Administração Regional de Saúde do Norte, I.P. (503135593)","Medipeople Soluções de Saúde e Educação, lda (508543436)","18,39 €",01-10-2013,16-07-2013,365 dias,"Portugal, Braga, Guimarães<BR/>Portugal, Braga, Vizela<BR/>Portugal, Braga, Fafe<BR/>Portugal, Vila Real, Mondim de Basto<BR/>Portugal, Braga, Cabeceiras de Basto",Artigo 259.º do Código dos Contratos Públicos,31-12-2013,"18,39 €","",,,454020,"CONCURSO PÚBLICO PARA A CELEBRAÇÃO DE CONTRATOS PÚBLICOS DE APROVISIONAMENTO PARA A ÁREA DA SAÚDE, COM VISTA À PRESTAÇÃO DE SERVIÇOS MÉDICOS ÀS INSTITUIÇÕES E SERVIÇOS DO SERVIÇO NACIONAL DE SAÚDE",
"Aquisição de 28.800 pastilhas de trocloseno sódico 2,5 g - Comp. Sol. aquosa",Ajuste Direto Regime Geral,Aquisição de bens móveis,"33600000-6, Produtos farmacêuticos","Administração Regional de Saúde do Norte, I.P. (503135593)",Imporquímica - Ind. Portuguesa de Prod. Quimica (502473274),"1.584,00 €",30-09-2013,30-09-2013,365 dias,"Portugal, Vila Real, Vila Real",Artigo 258.º do Código dos Contratos Públicos,30-09-2013,"1.584,00 €","",,,1072369,"Aquisição de 28.800 pastilhas de trocloseno sódico 2,5 g - Comp. Sol. aquosa",
"Aquisição de 100 litros de Ácido Peracético 0,35%",Ajuste Direto Regime Geral,Aquisição de bens móveis,"33600000-6, Produtos farmacêuticos","Administração Regional de Saúde do Norte, I.P. (503135593)","Franklab Portugal, Lda (506058654)","416,00 €",30-09-2013,30-09-2013,365 dias,"Portugal, Vila Real, Vila Real",Artigo 258.º do Código dos Contratos Públicos,20-11-2013,"416,00 €","",,,1072358,"Aquisição de 100 litros de Ácido Peracético 0,35%",
Aquisição de 480 comprimidos de Quetiapina 300 mg Comp-,Ajuste Direto Regime Geral,Aquisição de bens móveis,"33600000-6, Produtos farmacêuticos","Administração Regional de Saúde do Norte, I.P. (503135593)","Generis Farmacêutica, S.A. (508107997)","288,00 €",30-09-2013,30-09-2013,365 dias,"Portugal, Vila Real, Vila Real",Artigo 258.º do Código dos Contratos Públicos,01-10-2013,"288,00 €","",,,1072340,Aquisição de 480 comprimidos de Quetiapina 300 mg Comp-,
Aquisição de 4 000 livros Mod. 1388 - Boletim Planeamento Familiar; 40 livros Mod. 1426 - Livro de reclamações e 2500 Mod. 683 (INCM) - Boletim Itinerário,Ajuste Direto Regime Geral,Aquisição de bens móveis,"22110000-4, Livros impressos","Administração Regional de Saúde do Norte, I.P. (503135593)","Impresnsa Nacional Casa Moeda, S.A. (500792887)","3.005,00 €",30-09-2013,30-09-2013,365 dias,"Portugal, Vila Real, Vila Real","Artigo 24.º, n.º 1, alínea e) do Código dos Contratos Públicos",22-10-2013,"3.005,00 €","",,,Não aplicável.,Não aplicável.,
Aquisição de 7000 batas de proteção irrecuperável,Ao abrigo de acordo-quadro (art.º 259.º),Aquisição de bens móveis,"33140000-3, Material médico de consumo","Administração Regional de Saúde do Norte, I.P. (503135593)",Lineamédica - Dispositivos (505148676),"1.673,00 €",30-09-2013,19-07-2013,150 dias,"Portugal, Porto, Maia<BR/>Portugal, Vila Real",Artigo 259.º do Código dos Contratos Públicos,11-10-2013,"1.673,00 €","",,,451780,CP 2012/24 - MATERAIL DISPOSABLE DE BLOCO OPERATORIO,
Aquisição de 16000 Aventais de plástico irrecuperáveis,Ao abrigo de acordo-quadro (art.º 259.º),Aquisição de bens móveis,"33140000-3, Material médico de consumo","Administração Regional de Saúde do Norte, I.P. (503135593)","Ezequiel Panao Jorge, lda (501412727)","350,40 €",30-09-2013,19-07-2013,150 dias,"Portugal, Vila Real<BR/>Portugal, Porto, Maia",Artigo 259.º do Código dos Contratos Públicos,29-07-2013,"350,40 €","",,,451780,CP 2012/24 - MATERAIL DISPOSABLE DE BLOCO OPERATORIO,
Aquisição de 400 conectores em Y para Aspirador de Secreções,Ajuste Direto Regime Geral,Aquisição de bens móveis,"33140000-3, Material médico de consumo","Administração Regional de Saúde do Norte, I.P. (503135593)","Vygon Portugal, lda (503232785)","260,00 €",27-09-2013,23-08-2013,120 dias,"Portugal, Vila Real<BR/>Portugal, Porto, Maia","Artigo 20.º, n.º 1, alínea a) do Código dos Contratos Públicos",03-09-2013,"260,00 €","",,,Não aplicável.,Não aplicável.,
"Aquisição de 1000 tubos de pipeta cardiac; 300 unid. de reagente determinação bilirrubina no sangue, tira; 900 unid. de reagente determinação creatinina no sangue;  180 unid. de reagente determinação da glucose sangue, tira reflotron; 810 unid. de reagente determinação potássio no sangue; 900 unid. de reagente determinação da ureia;  800 testes Roche Cobas h232 CK-MB; 600 testes  Roche Cobas h232 D-Dimer;  440 testes Roche Cobas h232 MYOGLOBIN 20; 20 testes Roche Cobas h232 proBNP +, 950 unid. Roche Cobas h 232 T Quantitative 10",Ajuste Direto Regime Geral,Aquisição de bens móveis,"33696000-5, Reagentes e meios de contraste","Administração Regional de Saúde do Norte, I.P. (503135593)","Roche Sistemas de Diagnósticos, Lda (504282921)","23.455,81 €",27-09-2013,02-08-2013,365 dias,"Portugal, Vila Real, Vila Real","Artigo 24.º, n.º 1, alínea e) do Código dos Contratos Públicos",06-11-2013,"23.455,81 €","",,,Não aplicável.,Não aplicável.,
Arranjos exteriores CS Moimenta da Beira,Ajuste Direto Regime Geral,Empreitadas de obras públicas,"45450000-6, Outras obras de acabamento de edifícios","Administração Regional de Saúde do Norte, I.P. (503135593)","Ferteimetal, Lda (510146058)","26.670,76 €",27-09-2013,24-07-2013,90 dias,"Portugal, Viseu, Moimenta da Beira","Artigo 19.º, alínea a) do Código dos Contratos Públicos","","26.670,76 €",Adiantamento na execução dos trabalhos.,,,Não aplicável.,Não aplicável.,
Obra USF S. Tomé,Ajuste Direto Regime Geral,Empreitadas de obras públicas,"45453000-7, Obras de revisão e recuperação","Administração Regional de Saúde do Norte, I.P. (503135593)",Ecodata - Unipessoal Lda (509411150),"48.921,30 €",27-09-2013,24-07-2013,90 dias,"Portugal, Porto, Santo Tirso","Artigo 19.º, alínea a) do Código dos Contratos Públicos","","48.921,30 €",Pequeno atraso,,,Não aplicável.,Não aplicável.,
Obra USF Aves Saúde,Ajuste Direto Regime Geral,Empreitadas de obras públicas,"45453000-7, Obras de revisão e recuperação","Administração Regional de Saúde do Norte, I.P. (503135593)",Surpreender & Seduzir - Construções Unipessoal Lda (509621457),"32.155,00 €",27-09-2013,24-07-2013,90 dias,"Portugal, Porto, Santo Tirso","Artigo 19.º, alínea a) do Código dos Contratos Públicos","","32.155,00 €",Pequeno atraso,,,Não aplicável.,Não aplicável.,
AQUISIÇÃO DE 1200 CAIXAS DE REAGENTE DETERMINAÇÃO inr  NO SANGUE,Ajuste Direto Regime Geral,Aquisição de bens móveis,"33600000-6, Produtos farmacêuticos","Administração Regional de Saúde do Norte, I.P. (503135593)","Roche Sistemas de Diagnósticos, Lda (504282921)","143.580,00 €",26-09-2013,30-07-2013,365 dias,"Portugal, Vila Real, Vila Real","Artigo 24.º, n.º 1, alínea e) do Código dos Contratos Públicos",02-08-2013,"143.580,00 €","",,,Não aplicável.,Não aplicável.,
Aquisição de 6 000 frascos de Polihexanida e betaína Sol Irrigação 350 ml,Ajuste Direto Regime Geral,Aquisição de bens móveis,"33600000-6, Produtos farmacêuticos","Administração Regional de Saúde do Norte, I.P. (503135593)",B BRAUN MEDICAL (501506543),"34.080,00 €",26-09-2013,14-08-2013,365 dias,"Portugal, Vila Real, Vila Real","Artigo 20.º, n.º 1, alínea a) do Código dos Contratos Públicos",23-08-2013,"34.080,00 €","",,,Não aplicável.,Não aplicável.,
Aquisição de 700 contracetivos,Ao abrigo de acordo-quadro (art.º 258.º),Aquisição de bens móveis,"33641410-2, Contraceptivos orais","Administração Regional de Saúde do Norte, I.P. (503135593)",Laboratório Pfizer (500162166),"1.112,93 €",25-09-2013,17-09-2013,180 dias,"Portugal, Porto, Maia",Artigo 258.º do Código dos Contratos Públicos,25-11-2013,"1.112,93 €","",,,530535,"CONCURSO PÚBLICO PARA A CELEBRAÇÃO DE CONTRATOS PÚBLICOS DE APROVISIONAMENTO PARA A ÁREA DA SAÚDE, COM VISTA AO FORNECIMENTO DE CONTRACETIVOS ORAIS, PROFILÁTICOS E MECÂNICOS ÀS INSTITUIÇÕES E SERVIÇOS DO SERVIÇO NACIONAL DE SAÚDE  ",
Aquisição de 1500 unidades de bolsas suspensas e 2000 unidades de bolsas suspensas 41x25,Ajuste Direto Regime Geral,Aquisição de bens móveis,"18923100-6, Bolsas","Administração Regional de Saúde do Norte, I.P. (503135593)",Realcópia (503257400),"2.310,00 €",24-09-2013,28-08-2013,365 dias,"Portugal, Vila Real, Vila Real","Artigo 20.º, n.º 1, alínea a) do Código dos Contratos Públicos",09-09-2013,"2.310,00 €","",,,Não aplicável.,Não aplicável.,
Aquisição de 360 unidades de reagente det amilase pancreática no sangue - Tiras,Ajuste Direto Regime Geral,Aquisição de bens móveis,"33600000-6, Produtos farmacêuticos","Administração Regional de Saúde do Norte, I.P. (503135593)","Roche Sistemas de Diagnósticos, Lda (504282921)","1.120,28 €",24-09-2013,02-08-2013,365 dias,"Portugal, Vila Real, Vila Real","Artigo 24.º, n.º 1, alínea e) do Código dos Contratos Públicos",11-10-2013,"1.120,28 €","",,,Não aplicável.,Não aplicável.,
Aquisição  de 1000 electrodos Universais,Ajuste Direto Regime Geral,Aquisição de bens móveis,"33140000-3, Material médico de consumo","Administração Regional de Saúde do Norte, I.P. (503135593)",COVIDIEN Portugal - Prod. Saúde Unipessoal (503413410),"55,00 €",24-09-2013,11-09-2013,365 dias,"Portugal, Vila Real, Vila Real","Artigo 20.º, n.º 1, alínea a) do Código dos Contratos Públicos",11-09-2013,"55,00 €","",,,Não aplicável.,Não aplicável.,
Aquisição  de 500 unidades de Omeprazol 40 mg Pó Sol. inj. IV,Ajuste Direto Regime Geral,Aquisição de bens móveis,"33600000-6, Produtos farmacêuticos","Administração Regional de Saúde do Norte, I.P. (503135593)",Laboratório Azevedo Ind Farma (507474287),"400,00 €",24-09-2013,03-09-2013,365 dias,"Portugal, Vila Real, Vila Real","Artigo 20.º, n.º 1, alínea a) do Código dos Contratos Públicos",03-09-2013,"400,00 €","",,,Não aplicável.,Não aplicável.,
Aquisição de 12.000 Transferes,Ajuste Direto Regime Geral,Aquisição de bens móveis,"33140000-3, Material médico de consumo","Administração Regional de Saúde do Norte, I.P. (503135593)","Pergut- Heller Factoring Portuguesa, S.A. (501799729)","778,80 €",23-09-2013,25-07-2013,150 dias,"Portugal, Vila Real, Vila Real<BR/>Portugal, Porto, Maia","Artigo 20.º, n.º 1, alínea a) do Código dos Contratos Públicos",11-09-2013,"778,80 €","",,,Não aplicável.,Não aplicável.,
