Objeto do Contrato,Tipo de Procedimento,Tipo(s) de Contrato,CPVs,Entidade(s) Adjudicante(s),Entidade(s) Adjudicatária(s),Preço Contratual,Data de Publicação,Data de Celebração do Contrato,Prazo de Execução,Local de Execução,Fundamentação,Data de Fecho do Contrato,Preço Total Efetivo,Causas das Alterações ao Prazo,Causas das Alterações ao Preço,Estado,N.º registo do Acordo Quadro,Descrição do Acordo Quadro,Procedimento Centralizado
"Aquisição,impressão de flyers, folhetos, guias e manuais de boas práticas-Acreditação USF CelaSaúde",Ajuste Direto Regime Geral,Aquisição de bens móveis,"22900000-9, Material impresso diverso","Administração Regional de Saúde do Centro,IP(ARSC) (503122165)","José Baptista-artes Gráficas Unipessoal, Lda (509797741)","10.530,00 €",11-01-2019,30-07-2018,20 dias,"Portugal, Coimbra, Coimbra","Artigo 20.º, n.º 1, alínea d) do Código dos Contratos Públicos",07-08-2018,"10.530,00 €",,"",,Não aplicável.,Não aplicável.,FALSE
PROCESSO 18150281,Ao abrigo de acordo-quadro (art.º 259.º),Aquisição de bens móveis,"33600000-6, Produtos farmacêuticos","Administração Regional de Saúde do Centro, I. P. (503122165)",b.braun medical (501506543),"1.286,60 €",11-01-2019,21-06-2018,210 dias,"Portugal, Coimbra, Coimbra",Artigo 259.º do Código dos Contratos Públicos,08-10-2018,"1.286,60 €",,"",,2528675,CP 2017/3 - Acordo Quadro para fornecimento de corretivos da volémia e outras soluções estéreis,FALSE
PROCESSO 18150281,Ao abrigo de acordo-quadro (art.º 259.º),Aquisição de bens móveis,"33600000-6, Produtos farmacêuticos","Administração Regional de Saúde do Centro, I. P. (503122165)",overpharma (505792362),"6.853,20 €",11-01-2019,21-06-2018,210 dias,"Portugal, Coimbra, Coimbra",Artigo 259.º do Código dos Contratos Públicos,08-10-2018,"6.853,20 €",,"",,2528675,CP 2017/3 - Acordo Quadro para fornecimento de corretivos da volémia e outras soluções estéreis,FALSE
PROCESSO 18150281,Ao abrigo de acordo-quadro (art.º 259.º),Aquisição de bens móveis,"33600000-6, Produtos farmacêuticos","Administração Regional de Saúde do Centro, I. P. (503122165)",labesfal (501169580),"16.025,65 €",11-01-2019,21-06-2018,210 dias,"Portugal, Coimbra, Coimbra",Artigo 259.º do Código dos Contratos Públicos,08-10-2018,"16.025,65 €",,"",,2528675,CP 2017/3 - Acordo Quadro para fornecimento de corretivos da volémia e outras soluções estéreis,FALSE
Aquisição de ecopontos para diversas unidades funcionais,Ao abrigo de acordo-quadro (art.º 259.º),Aquisição de bens móveis,"39110000-6, Assentos, cadeiras e produtos afins e peças associadas","Administração Regional de Saúde do Centro, I. P. (503122165)","Nautilus, S.A. (503653179)","18.553,00 €",10-01-2019,02-07-2018,30 dias,"Portugal, Coimbra<BR/>Portugal, Aveiro",Artigo 259.º do Código dos Contratos Públicos,16-11-2018,"18.553,00 €",,"",,1260651,Acordo quadro de fornecimento de mobiliário,FALSE
Aquisição de material de economato para reposição stock,Ajuste Direto Regime Geral,Aquisição de bens móveis,"30100000-0, Máquinas, equipamento e material de escritório, excepto computadores, impressoras e mobiliário","Administração Regional de Saúde do Centro,IP(ARSC) (503122165)","Jose Borda & Cª, Lda (502907100)","16.320,00 €",10-01-2019,12-12-2018,20 dias,"Portugal, Coimbra, Coimbra","Artigo 24.º, n.º 1, alínea b) do Código dos Contratos Públicos",31-12-2018,"16.320,00 €",,"",,Não aplicável.,Não aplicável.,FALSE
Aquisição de consumíveis de impressão para reposição de stock no armazém central,Concurso público,Aquisição de bens móveis,"30200000-1, Equipamento e material informático","Administração Regional de Saúde do Centro, I. P. (503122165)",Reproset - Comércio de Consumíveis Informáticos Lda  (506448665),"755,24 €",10-01-2019,14-12-2018,16 dias,"Portugal, Coimbra, Coimbra",Artigo 155.º do Código dos Contratos Públicos,17-12-2018,"755,24 €",,"",,Não aplicável.,Não aplicável.,FALSE
Aquisição de consumíveis de impressão para reposição de stock no armazém central,Concurso público,Aquisição de bens móveis,"30200000-1, Equipamento e material informático","Administração Regional de Saúde do Centro, I. P. (503122165)","Max One - Material de Escritório, Lda.  (507052609)","202,10 €",10-01-2019,14-12-2018,16 dias,"Portugal, Coimbra, Coimbra",Artigo 155.º do Código dos Contratos Públicos,19-12-2018,"202,10 €",,"",,Não aplicável.,Não aplicável.,FALSE
Aquisição de consumíveis de impressão para reposição de stock no armazém central,Concurso público,Aquisição de bens móveis,"30200000-1, Equipamento e material informático","Administração Regional de Saúde do Centro, I. P. (503122165)","Fluir Consumiveis e Equipamento Informático, Unipessoal, Lda. (506212424)","531,20 €",10-01-2019,14-12-2018,16 dias,Portugal,Artigo 155.º do Código dos Contratos Públicos,24-01-2019,"531,20 €",,"",,Não aplicável.,Não aplicável.,FALSE
Aquisição de consumíveis de impressão para reposição de stock no armazém central,Concurso público,Aquisição de bens móveis,"30200000-1, Equipamento e material informático","Administração Regional de Saúde do Centro, I. P. (503122165)","Toptoner Reciclagem Comercial de Consumiveis Informáticos, Lda. (504242644)","1.778,88 €",10-01-2019,14-12-2018,16 dias,Portugal,Artigo 155.º do Código dos Contratos Públicos,18-12-2018,"1.778,88 €",,"",,Não aplicável.,Não aplicável.,FALSE
Aquisição de consumíveis de impressão para reposição de stock no armazém central,Concurso público,Aquisição de bens móveis,"30200000-1, Equipamento e material informático","Administração Regional de Saúde do Centro, I. P. (503122165)","Rasia - Racionalização de Sistemas Administrativos, Lda  (500880620)","51,75 €",10-01-2019,14-12-2018,16 dias,Portugal,Artigo 155.º do Código dos Contratos Públicos,31-12-2018,"51,75 €",,"",,Não aplicável.,Não aplicável.,FALSE
Aquisição de consumíveis de impressão para reposição de stock no armazém central,Concurso público,Aquisição de bens móveis,"30200000-1, Equipamento e material informático","Administração Regional de Saúde do Centro, I. P. (503122165)","Basedois, Lda (501333401)","4.551,00 €",10-01-2019,14-12-2018,16 dias,Portugal,Artigo 155.º do Código dos Contratos Públicos,14-12-2018,"4.551,00 €",,"",,Não aplicável.,Não aplicável.,FALSE
Aquisição de consumíveis de impressão para reposição de stock no armazém central,Concurso público,Aquisição de bens móveis,"30200000-1, Equipamento e material informático","Administração Regional de Saúde do Centro, I. P. (503122165)","NOVABIT, LDA (503411302)","155,88 €",10-01-2019,14-12-2018,16 dias,Portugal,Artigo 155.º do Código dos Contratos Públicos,19-12-2018,"155,88 €",,"",,Não aplicável.,Não aplicável.,FALSE
Aquisição de consumíveis de impressão para reposição de stock no armazém central,Concurso público,Aquisição de bens móveis,"30200000-1, Equipamento e material informático","Administração Regional de Saúde do Centro, I. P. (503122165)","IPM - INFORMATICA PAPELARIA MOBILIARIO, LDA (507847741)","8.392,94 €",10-01-2019,14-12-2018,16 dias,Portugal,Artigo 155.º do Código dos Contratos Públicos,19-12-2018,"8.392,94 €",,"",,Não aplicável.,Não aplicável.,FALSE
PROCESSO 18150277,Ao abrigo de acordo-quadro (art.º 259.º),Aquisição de bens móveis,"33000000-0, Equipamento médico, medicamentos e produtos para cuidados pessoais","Administração Regional de Saúde do Centro, I. P. (503122165)",SANOFI PROD. FARMACEUTICOS (500137960),"372,30 €",10-01-2019,11-06-2018,210 dias,"Portugal, Coimbra, Coimbra",Artigo 259.º do Código dos Contratos Públicos,04-12-2018,"",,PRODUTO DESCONTINUADO,,1974985,"Medicamentos Analgésicos, Antipiréticos e Antidepressivos",FALSE
PROCESSO 18150277,Ao abrigo de acordo-quadro (art.º 259.º),Aquisição de bens móveis,"33000000-0, Equipamento médico, medicamentos e produtos para cuidados pessoais","Administração Regional de Saúde do Centro, I. P. (503122165)",MYLAN (502248793),"591,36 €",10-01-2019,11-06-2018,210 dias,"Portugal, Coimbra, Coimbra",Artigo 259.º do Código dos Contratos Públicos,04-12-2018,"591,36 €",,"",,1974985,"Medicamentos Analgésicos, Antipiréticos e Antidepressivos",FALSE
PROCESSO 18150277,Ao abrigo de acordo-quadro (art.º 259.º),Aquisição de bens móveis,"33000000-0, Equipamento médico, medicamentos e produtos para cuidados pessoais","Administração Regional de Saúde do Centro, I. P. (503122165)",OVERPHARMA (505792362),"550,50 €",10-01-2019,11-06-2018,210 dias,"Portugal, Coimbra, Coimbra",Artigo 259.º do Código dos Contratos Públicos,04-12-2018,"550,50 €",,"",,1974985,"Medicamentos Analgésicos, Antipiréticos e Antidepressivos",FALSE
PROCESSO 18150277,Ao abrigo de acordo-quadro (art.º 259.º),Aquisição de bens móveis,"33000000-0, Equipamento médico, medicamentos e produtos para cuidados pessoais","Administração Regional de Saúde do Centro, I. P. (503122165)",FRESENIUS KABI (504293753),"192,00 €",10-01-2019,11-06-2018,210 dias,"Portugal, Coimbra, Coimbra",Artigo 259.º do Código dos Contratos Públicos,04-12-2018,"192,00 €",,"",,1974985,"Medicamentos Analgésicos, Antipiréticos e Antidepressivos",FALSE
PROCESSO 18150277,Ao abrigo de acordo-quadro (art.º 259.º),Aquisição de bens móveis,"33000000-0, Equipamento médico, medicamentos e produtos para cuidados pessoais","Administração Regional de Saúde do Centro, I. P. (503122165)",UNILFARMA (500293023),"224,00 €",10-01-2019,11-06-2018,210 dias,"Portugal, Coimbra, Coimbra",Artigo 259.º do Código dos Contratos Públicos,04-12-2018,"224,00 €",,"",,1974985,"Medicamentos Analgésicos, Antipiréticos e Antidepressivos",FALSE
PROCESSO 18150277,Ao abrigo de acordo-quadro (art.º 259.º),Aquisição de bens móveis,"33000000-0, Equipamento médico, medicamentos e produtos para cuidados pessoais","Administração Regional de Saúde do Centro, I. P. (503122165)",LAB.MEDINFAR (500384045),"21,62 €",10-01-2019,11-06-2018,210 dias,"Portugal, Coimbra, Coimbra",Artigo 259.º do Código dos Contratos Públicos,04-12-2018,"21,62 €",,"",,1974985,"Medicamentos Analgésicos, Antipiréticos e Antidepressivos",FALSE
PROCESSO 18150277,Ao abrigo de acordo-quadro (art.º 259.º),Aquisição de bens móveis,"33000000-0, Equipamento médico, medicamentos e produtos para cuidados pessoais","Administração Regional de Saúde do Centro, I. P. (503122165)",LUSOMEDICAMENTA (507150473),"73,58 €",10-01-2019,11-06-2018,210 dias,"Portugal, Coimbra, Coimbra",Artigo 259.º do Código dos Contratos Públicos,04-12-2018,"73,58 €",,"",,1974985,"Medicamentos Analgésicos, Antipiréticos e Antidepressivos",FALSE
PROCESSO 18150277,Ao abrigo de acordo-quadro (art.º 259.º),Aquisição de bens móveis,"33000000-0, Equipamento médico, medicamentos e produtos para cuidados pessoais","Administração Regional de Saúde do Centro, I. P. (503122165)",GSK PROD. FARMACEUTICOS (500139962),"33,30 €",10-01-2019,11-06-2018,210 dias,"Portugal, Coimbra, Coimbra",Artigo 259.º do Código dos Contratos Públicos,04-12-2018,"33,30 €",,"",,1974985,"Medicamentos Analgésicos, Antipiréticos e Antidepressivos",FALSE
PROCESSO 18150277,Ao abrigo de acordo-quadro (art.º 259.º),Aquisição de bens móveis,"33000000-0, Equipamento médico, medicamentos e produtos para cuidados pessoais","Administração Regional de Saúde do Centro, I. P. (503122165)",GENERIS (508107997),"371,04 €",10-01-2019,11-06-2018,210 dias,"Portugal, Coimbra, Coimbra",Artigo 259.º do Código dos Contratos Públicos,04-12-2018,"371,04 €",,"",,1974985,"Medicamentos Analgésicos, Antipiréticos e Antidepressivos",FALSE
PROCESSO 18150277,Ao abrigo de acordo-quadro (art.º 259.º),Aquisição de bens móveis,"33000000-0, Equipamento médico, medicamentos e produtos para cuidados pessoais","Administração Regional de Saúde do Centro, I. P. (503122165)",LABESFAL (501169580),"1.476,43 €",10-01-2019,11-06-2018,210 dias,"Portugal, Coimbra, Coimbra",Artigo 259.º do Código dos Contratos Públicos,04-12-2018,"1.476,43 €",,"",,1974985,"Medicamentos Analgésicos, Antipiréticos e Antidepressivos",FALSE
PROCESSO 18150279,Ao abrigo de acordo-quadro (art.º 259.º),Aquisição de bens móveis,"33661000-1, Medicamentos para o sistema nervoso","Administração Regional de Saúde do Centro, I. P. (503122165)",korangi (505322307),"4.193,32 €",10-01-2019,16-07-2018,180 dias,"Portugal, Coimbra, Coimbra",Artigo 259.º do Código dos Contratos Públicos,04-12-2018,"4.193,32 €",,"",,2211341,Medicamentos anestésicos e relaxantes musculares,FALSE
PROCESSO 18150279,Ao abrigo de acordo-quadro (art.º 259.º),Aquisição de bens móveis,"33661000-1, Medicamentos para o sistema nervoso","Administração Regional de Saúde do Centro, I. P. (503122165)",labesfal (501169580),"871,50 €",10-01-2019,28-06-2018,180 dias,"Portugal, Coimbra, Coimbra",Artigo 259.º do Código dos Contratos Públicos,04-12-2018,"871,50 €",,"",,2211341,Medicamentos anestésicos e relaxantes musculares,FALSE
PROCESSO 18150275,Ao abrigo de acordo-quadro (art.º 259.º),Aquisição de bens móveis,"33661000-1, Medicamentos para o sistema nervoso","Administração Regional de Saúde do Centro, I. P. (503122165)",janssen cilag (500189412),"129,60 €",10-01-2019,21-06-2018,180 dias,"Portugal, Coimbra, Coimbra",Artigo 259.º do Código dos Contratos Públicos,04-12-2018,"129,60 €",,"",,2356543,CP 2016/19 - Medicamentos Antipsicóticos,FALSE
Aquisição de Sacos para domicílios para diversas unidades de saúde da ARSC,Consulta Prévia,Aquisição de bens móveis,"33100000-1, Equipamento médico","Administração Regional de Saúde do Centro, I. P. (503122165)","EPJ Médica, Lda. (506820513)","8.713,96 €",10-01-2019,19-11-2018,43 dias,Portugal,"Artigo 20.º, n.º 1, alínea c) do Código dos Contratos Públicos",14-12-2018,"8.713,96 €",,"",,Não aplicável.,Não aplicável.,FALSE
PROCESSO 18150275,Ao abrigo de acordo-quadro (art.º 259.º),Aquisição de bens móveis,"33661000-1, Medicamentos para o sistema nervoso","Administração Regional de Saúde do Centro, I. P. (503122165)",pharmakern (507002571),"1.913,94 €",10-01-2019,21-06-2018,180 dias,"Portugal, Coimbra, Coimbra",Artigo 259.º do Código dos Contratos Públicos,04-12-2018,"1.913,94 €",,"",,2356543,CP 2016/19 - Medicamentos Antipsicóticos,FALSE
PROCESSO 18150275,Ao abrigo de acordo-quadro (art.º 259.º),Aquisição de bens móveis,"33661000-1, Medicamentos para o sistema nervoso","Administração Regional de Saúde do Centro, I. P. (503122165)",overpharma (505792362),"74,88 €",10-01-2019,21-06-2018,180 dias,"Portugal, Coimbra, Coimbra",Artigo 259.º do Código dos Contratos Públicos,04-12-2018,"",,não tem para entrega o produto,,2356543,CP 2016/19 - Medicamentos Antipsicóticos,FALSE
PROCESSO 18150275,Ao abrigo de acordo-quadro (art.º 259.º),Aquisição de bens móveis,"33661000-1, Medicamentos para o sistema nervoso","Administração Regional de Saúde do Centro, I. P. (503122165)",generis (508107997),"842,38 €",10-01-2019,21-06-2018,180 dias,"Portugal, Coimbra, Coimbra",Artigo 259.º do Código dos Contratos Públicos,04-12-2018,"842,38 €",,"",,2356543,CP 2016/19 - Medicamentos Antipsicóticos,FALSE
PROCESSO 18100835,Ajuste Direto Regime Geral,Aquisição de bens móveis,"33690000-3, Medicamentos vários","Administração Regional de Saúde do Centro,IP(ARSC) (503122165)",GSK PROD. FARMACEUTICOS (500276994),"1.670,40 €",07-01-2019,03-12-2018,30 dias,"Portugal, Coimbra, Coimbra<BR/>Portugal","Artigo 24.º, n.º 1, alínea e), subalínea iii) do Código dos Contratos Públicos",31-12-2018,"",,A EMPRESA DESCONTINUOU O PRODUTO,,Não aplicável.,Não aplicável.,FALSE
PROCESSO 18150891,Ao abrigo de acordo-quadro (art.º 259.º),Aquisição de bens móveis,"33000000-0, Equipamento médico, medicamentos e produtos para cuidados pessoais","Administração Regional de Saúde do Centro, I. P. (503122165)",GENERIS (508107997),"26,30 €",07-01-2019,26-11-2018,90 dias,"Portugal, Coimbra, Coimbra",Artigo 259.º do Código dos Contratos Públicos,19-12-2018,"26,30 €",,"",,1974985,"Medicamentos Analgésicos, Antipiréticos e Antidepressivos",FALSE
PROCESSO 18150891,Ao abrigo de acordo-quadro (art.º 259.º),Aquisição de bens móveis,"33000000-0, Equipamento médico, medicamentos e produtos para cuidados pessoais","Administração Regional de Saúde do Centro, I. P. (503122165)",GSK PRODUTOS FARMACEUTICOS (500139962),"88,80 €",07-01-2019,26-11-2018,90 dias,"Portugal, Coimbra, Coimbra",Artigo 259.º do Código dos Contratos Públicos,19-12-2018,"88,80 €",,"",,1974985,"Medicamentos Analgésicos, Antipiréticos e Antidepressivos",FALSE
"Aquisição de serviços de manutenção de equipamento de combate a incêndios p/ os edificios da ARSC (Sede, DICAD, ACES BV, PL e PIN)",Consulta Prévia,Aquisição de serviços,"51700000-9, Serviços de instalação de equipamento de protecção contra incêndios","Administração Regional de Saúde do Centro, I. P. (503122165)","PREVICHAMA - PREVENÇÃO DE INCENDIOS E MATERIAL DE SEGURANÇA, LDA (506561534)","5.779,96 €",07-01-2019,26-11-2018,24 dias,Portugal,"Artigo 20.º, n.º 1, alínea c) do Código dos Contratos Públicos",31-12-2018,"5.779,96 €",,"",,Não aplicável.,Não aplicável.,FALSE
"Concurso público para aquisição de consumíveis de impressão para a Administração Regional de Saúde do Centro, I.P.",Concurso público,Aquisição de bens móveis,"30000000-9, Máquinas, equipamento e material de escritório e de informática, excepto mobiliário e pacotes de programas (software)","Administração Regional de Saúde do Centro,IP(ARSC) (503122165)","Polisistemas-Equipamentos e Sistemas de Escritório, Ldª (502614498)","21.592,20 €",07-01-2019,17-12-2018,13 dias,Portugal,"Artigo 20.º, n.º 1, alínea b) do Código dos Contratos Públicos",31-12-2018,"21.592,20 €",,"",,Não aplicável.,Não aplicável.,TRUE
Aquisição de reagentes para hematologia e sumária de urina para o Laboratório de Arganil,Consulta Prévia,Aquisição de bens móveis,"33696500-0, Reagentes de laboratório",ADMINISTRAÇÃO REGIONAL DE SAÚDE DO CENTRO (503122165),"MENARINI DIAGNOSTICOS,LDA (502610069)","8.460,00 €",07-01-2019,11-12-2018,5 dias,"Portugal, Coimbra, Arganil<BR/>Portugal","Artigo 20.º, n.º 1, alínea c) do Código dos Contratos Públicos",17-12-2018,"8.460,00 €",,"",,Não aplicável.,Não aplicável.,FALSE
"Aquisição de equpamento biometrico para a ARSC,IP",Consulta Prévia,Aquisição de bens móveis,"30000000-9, Máquinas, equipamento e material de escritório e de informática, excepto mobiliário e pacotes de programas (software)","Administração Regional de Saúde do Centro,IP(ARSC) (503122165)","NORMATICA – Serviços de Informática e Organização, S.A. (501782230)","12.850,00 €",04-01-2019,17-12-2018,15 dias,"Portugal<BR/>Portugal, Coimbra, Coimbra","Artigo 20.º, n.º 1, alínea c) do Código dos Contratos Públicos",27-12-2018,"12.850,00 €",,"",,Não aplicável.,Não aplicável.,FALSE
18180877,Consulta Prévia,Aquisição de bens móveis,"33690000-3, Medicamentos vários","Administração Regional de Saúde do Centro, I. P. (503122165)",EXPOMEDICA (501886621),"3.120,00 €",04-01-2019,14-12-2018,30 dias,"Portugal<BR/>Portugal, Coimbra, Coimbra","Artigo 20.º, n.º 1, alínea c) do Código dos Contratos Públicos",18-12-2018,"3.120,00 €",,"",,Não aplicável.,Não aplicável.,FALSE
18180877,Consulta Prévia,Aquisição de bens móveis,"33690000-3, Medicamentos vários","Administração Regional de Saúde do Centro, I. P. (503122165)",SANOFI PRODUTOS FARMACÊUTICOS (500134960),"685,80 €",04-01-2019,14-12-2018,30 dias,"Portugal, Coimbra, Coimbra<BR/>Portugal","Artigo 20.º, n.º 1, alínea c) do Código dos Contratos Públicos",17-12-2018,"685,80 €",,"",,Não aplicável.,Não aplicável.,FALSE
18180877,Consulta Prévia,Aquisição de bens móveis,"33690000-3, Medicamentos vários","Administração Regional de Saúde do Centro, I. P. (503122165)",SMITH & NEPHEW (503552461),"5.688,00 €",04-01-2019,14-12-2018,30 dias,"Portugal<BR/>Portugal, Coimbra, Coimbra","Artigo 20.º, n.º 1, alínea c) do Código dos Contratos Públicos",18-12-2018,"5.688,00 €",,"",,Não aplicável.,Não aplicável.,FALSE
PROCESSO 18150893,Ao abrigo de acordo-quadro (art.º 259.º),Aquisição de bens móveis,"33600000-6, Produtos farmacêuticos","Administração Regional de Saúde do Centro,IP(ARSC) (503122165)",SANDOZ FARMACÊUTICA (506985261),"75,00 €",04-01-2019,14-12-2018,30 dias,"Portugal, Coimbra, Coimbra<BR/>Portugal",Artigo 259.º do Código dos Contratos Públicos,04-01-2019,"75,00 €",,"",,2775691,CP 2017/5 - Acordo Quadro para fornecimento de Medicamentos anti-infeciosos: exceto antivíricos e antifúngicos,FALSE
"Aquisição Contentores de esterilização, carros de transporte para pólos esterilização ACES PIN;PL;BV",Consulta Prévia,Aquisição de bens móveis,"33100000-1, Equipamento médico","Administração Regional de Saúde do Centro,IP(ARSC) (503122165)",Dimor Lusitania (500730741),"40.619,00 €",04-01-2019,31-08-2018,122 dias,"Portugal, Coimbra<BR/>Portugal, Leiria<BR/>Portugal, Aveiro","Artigo 20.º, n.º 1, alínea c) do Código dos Contratos Públicos",31-12-2018,"40.619,00 €",,"",,Não aplicável.,Não aplicável.,FALSE
PROCESSO 18150280,Ao abrigo de acordo-quadro (art.º 259.º),Aquisição de bens móveis,"33600000-6, Produtos farmacêuticos","Administração Regional de Saúde do Centro, I. P. (503122165)",novartis farma (500063524),"4,20 €",02-01-2019,11-06-2018,180 dias,"Portugal, Coimbra, Coimbra",Artigo 259.º do Código dos Contratos Públicos,27-12-2018,"4,20 €",,"",,2528670,"CP 2017/2 - Acordo Quadro para fornecimento de Medicamentos do Sistema Nervoso Cerebrospinal, exceto: anestésicos, relaxantes musculares, analgésicos, antipiréticos, antidepressivos e antipsicóticos  às Instituições e Serviços do Serviço Nacional de Saúde",FALSE
PROCESSO 18150280,Ao abrigo de acordo-quadro (art.º 259.º),Aquisição de bens móveis,"33600000-6, Produtos farmacêuticos","Administração Regional de Saúde do Centro, I. P. (503122165)",sanofi prod.farmaceuticos (500134960),"4,20 €",02-01-2019,11-06-2018,180 dias,"Portugal, Coimbra, Coimbra",Artigo 259.º do Código dos Contratos Públicos,27-12-2018,"4,20 €",,"",,2528670,"CP 2017/2 - Acordo Quadro para fornecimento de Medicamentos do Sistema Nervoso Cerebrospinal, exceto: anestésicos, relaxantes musculares, analgésicos, antipiréticos, antidepressivos e antipsicóticos  às Instituições e Serviços do Serviço Nacional de Saúde",FALSE
PROCESSO 18150280,Ao abrigo de acordo-quadro (art.º 259.º),Aquisição de bens móveis,"33600000-6, Produtos farmacêuticos","Administração Regional de Saúde do Centro, I. P. (503122165)",tecnimede (500626413),"389,30 €",02-01-2019,11-06-2018,180 dias,"Portugal, Coimbra, Coimbra",Artigo 259.º do Código dos Contratos Públicos,27-12-2018,"389,30 €",,"",,2528670,"CP 2017/2 - Acordo Quadro para fornecimento de Medicamentos do Sistema Nervoso Cerebrospinal, exceto: anestésicos, relaxantes musculares, analgésicos, antipiréticos, antidepressivos e antipsicóticos  às Instituições e Serviços do Serviço Nacional de Saúde",FALSE
PROCESSO 18150280,Ao abrigo de acordo-quadro (art.º 259.º),Aquisição de bens móveis,"33600000-6, Produtos farmacêuticos","Administração Regional de Saúde do Centro, I. P. (503122165)",pharmakern (507002571),"243,86 €",02-01-2019,11-06-2018,180 dias,"Portugal, Coimbra, Coimbra",Artigo 259.º do Código dos Contratos Públicos,27-12-2018,"243,86 €",,"",,2528670,"CP 2017/2 - Acordo Quadro para fornecimento de Medicamentos do Sistema Nervoso Cerebrospinal, exceto: anestésicos, relaxantes musculares, analgésicos, antipiréticos, antidepressivos e antipsicóticos  às Instituições e Serviços do Serviço Nacional de Saúde",FALSE
PROCESSO 18150280,Ao abrigo de acordo-quadro (art.º 259.º),Aquisição de bens móveis,"33600000-6, Produtos farmacêuticos","Administração Regional de Saúde do Centro, I. P. (503122165)",roche (500233810),"53,43 €",02-01-2019,11-06-2018,180 dias,"Portugal, Coimbra, Coimbra",Artigo 259.º do Código dos Contratos Públicos,27-12-2018,"53,43 €",,"",,2528670,"CP 2017/2 - Acordo Quadro para fornecimento de Medicamentos do Sistema Nervoso Cerebrospinal, exceto: anestésicos, relaxantes musculares, analgésicos, antipiréticos, antidepressivos e antipsicóticos  às Instituições e Serviços do Serviço Nacional de Saúde",FALSE
PROCESSO 18150280,Ao abrigo de acordo-quadro (art.º 259.º),Aquisição de bens móveis,"33600000-6, Produtos farmacêuticos","Administração Regional de Saúde do Centro, I. P. (503122165)",mylan (502248793),"141,75 €",02-01-2019,11-06-2018,180 dias,"Portugal, Coimbra, Coimbra",Artigo 259.º do Código dos Contratos Públicos,27-12-2018,"141,75 €",,"",,2528670,"CP 2017/2 - Acordo Quadro para fornecimento de Medicamentos do Sistema Nervoso Cerebrospinal, exceto: anestésicos, relaxantes musculares, analgésicos, antipiréticos, antidepressivos e antipsicóticos  às Instituições e Serviços do Serviço Nacional de Saúde",FALSE
PROCESSO 18150280,Ao abrigo de acordo-quadro (art.º 259.º),Aquisição de bens móveis,"33600000-6, Produtos farmacêuticos","Administração Regional de Saúde do Centro, I. P. (503122165)",tecnifar (500280436),"204,18 €",02-01-2019,11-06-2018,180 dias,"Portugal, Coimbra, Coimbra",Artigo 259.º do Código dos Contratos Públicos,27-12-2018,"204,18 €",,"",,2528670,"CP 2017/2 - Acordo Quadro para fornecimento de Medicamentos do Sistema Nervoso Cerebrospinal, exceto: anestésicos, relaxantes musculares, analgésicos, antipiréticos, antidepressivos e antipsicóticos  às Instituições e Serviços do Serviço Nacional de Saúde",FALSE
PROCESSO 18150280,Ao abrigo de acordo-quadro (art.º 259.º),Aquisição de bens móveis,"33600000-6, Produtos farmacêuticos","Administração Regional de Saúde do Centro, I. P. (503122165)",generis (508107997),"195,78 €",02-01-2019,11-06-2018,180 dias,"Portugal, Coimbra, Coimbra",Artigo 259.º do Código dos Contratos Públicos,27-12-2018,"195,78 €",,"",,2528670,"CP 2017/2 - Acordo Quadro para fornecimento de Medicamentos do Sistema Nervoso Cerebrospinal, exceto: anestésicos, relaxantes musculares, analgésicos, antipiréticos, antidepressivos e antipsicóticos  às Instituições e Serviços do Serviço Nacional de Saúde",FALSE
PROCESSO 18150280,Ao abrigo de acordo-quadro (art.º 259.º),Aquisição de bens móveis,"33600000-6, Produtos farmacêuticos","Administração Regional de Saúde do Centro, I. P. (503122165)",labesfal (501169580),"1.263,74 €",02-01-2019,11-06-2018,180 dias,"Portugal, Coimbra, Coimbra",Artigo 259.º do Código dos Contratos Públicos,27-12-2018,"1.263,74 €",,"",,2528670,"CP 2017/2 - Acordo Quadro para fornecimento de Medicamentos do Sistema Nervoso Cerebrospinal, exceto: anestésicos, relaxantes musculares, analgésicos, antipiréticos, antidepressivos e antipsicóticos  às Instituições e Serviços do Serviço Nacional de Saúde",FALSE
