Objeto do Contrato,Tipo de Procedimento,Tipo(s) de Contrato,CPVs,Entidade(s) Adjudicante(s),Entidade(s) Adjudicatária(s),Preço Contratual,Data de Publicação,Data de Celebração do Contrato,Prazo de Execução,Local de Execução,Fundamentação,Data de Fecho do Contrato,Preço Total Efetivo,Causas das Alterações ao Prazo,Causas das Alterações ao Preço,Estado,N.º registo do Acordo Quadro,Descrição do Acordo Quadro,Procedimento Centralizado
Manutenção do Software PACS  SECTRA,Ajuste Direto Regime Geral,Aquisição de serviços,"72000000-5, Serviços de TI: consultoria, desenvolvimento de software, Internet e apoio","Hospital da Senhora da Oliveira Guimarães, E. P. E. (508080827)",ARTES CES Unipessoal Lda  (513270396),"35.947,00 €",05-11-2015,04-08-2015,365 dias,"Portugal, Braga, Guimarães",Artigo 258.º do Código dos Contratos Públicos,"","",,,,Não aplicável.,Não aplicável.,FALSE
Fornecimento de Máquina de Reprocessamento de Endoscópios para o Serviço de Pneumologia,Ajuste Direto Regime Geral,Aquisição de bens móveis,"33000000-0, Equipamento médico, medicamentos e produtos para cuidados pessoais","Hospital da Senhora da Oliveira Guimarães, E. P. E. (508080827)","OLYMPUS IBERIA, S.A.U. Sucursal em Portugal (980474710)","11.000,00 €",04-11-2015,30-09-2015,60 dias,"Portugal, Braga, Guimarães","Artigo 20.º, n.º 1, alínea a) do Código dos Contratos Públicos",20-01-2016,"11.000,00 €",,,,Não aplicável.,Não aplicável.,FALSE
aluguer de equipamento de ventilo-terapia,Ajuste Direto Regime Geral,Locação de bens móveis,"33000000-0, Equipamento médico, medicamentos e produtos para cuidados pessoais","Centro Hospitalar do Alto Ave, E. P. E. (508080827)",linde saude lda  (500125546),"36.500,00 €",02-11-2015,15-07-2015,365 dias,"Portugal, Braga, Guimarães","Artigo 20.º, n.º 1, alínea a) do Código dos Contratos Públicos","","",,,,Não aplicável.,Não aplicável.,FALSE
prestação de serviços de micro  informática,Ajuste Direto Regime Geral,Aquisição de serviços,"79000000-4, Serviços a empresas: direito, comercialização, consultoria, recrutamento, impressão e segurança","Hospital da Senhora da Oliveira Guimarães, E. P. E. (508080827)",Matrizfavorita - Unipessoal Lda  (513386351),"9.312,00 €",02-11-2015,03-06-2015,183 dias,"Portugal, Braga, Guimarães","Artigo 20.º, n.º 1, alínea a) do Código dos Contratos Públicos","","",,,,Não aplicável.,Não aplicável.,FALSE
software de gestão de segurança e saúde no trabalho,Ajuste Direto Regime Geral,Aquisição de serviços,"72000000-5, Serviços de TI: consultoria, desenvolvimento de software, Internet e apoio","Hospital da Senhora da Oliveira Guimarães, E. P. E. (508080827)",10 Soft Desenvolvimento de Software Lda  (509281559),"6.350,00 €",02-11-2015,01-09-2015,12 dias,"Portugal, Braga, Guimarães","Artigo 20.º, n.º 1, alínea a) do Código dos Contratos Públicos","","",,,,Não aplicável.,Não aplicável.,FALSE
Manutenção de central telefonica,Ajuste Direto Regime Geral,Aquisição de serviços,"50000000-5, Serviços de reparação e manutenção","Hospital da Senhora da Oliveira Guimarães, E. P. E. (508080827)",Connectis (510686559),"7.642,00 €",02-11-2015,13-05-2015,365 dias,"Portugal, Braga, Guimarães","Artigo 20.º, n.º 1, alínea a) do Código dos Contratos Públicos","","",,,,Não aplicável.,Não aplicável.,FALSE
Manutenção dos sistema de monitorização de temperatura e humidade,Ajuste Direto Regime Geral,Aquisição de serviços,"50000000-5, Serviços de reparação e manutenção","Hospital da Senhora da Oliveira Guimarães, E. P. E. (508080827)",Advanced Products Portugal  (501503510),"9.893,00 €",02-11-2015,31-08-2015,120 dias,"Portugal, Braga, Guimarães","Artigo 20.º, n.º 1, alínea a) do Código dos Contratos Públicos","","",,,,Não aplicável.,Não aplicável.,FALSE
