Objeto do Contrato,Tipo de Procedimento,Tipo(s) de Contrato,CPVs,Entidade(s) Adjudicante(s),Entidade(s) Adjudicatária(s),Preço Contratual,Data de Publicação,Data de Celebração do Contrato,Prazo de Execução,Local de Execução,Fundamentação,Data de Fecho do Contrato,Preço Total Efetivo,Causas das Alterações ao Prazo,Causas das Alterações ao Preço,Estado,N.º registo do Acordo Quadro,Descrição do Acordo Quadro,Procedimento Centralizado
"Limpeza e desmatação da mata, com cobertura arbustiva e intervenção em árvores sem necessidade de escalonamento, incluindo (abate de árvores secas, decrépitas, dominadas e outras) com inclusão de destroçamento e retirada de resíduos.  ",Ajuste Direto Regime Geral,Aquisição de serviços,"50000000-5, Serviços de reparação e manutenção","Instituto Nacional de Emergência Médica, I. P. (501356126)","Ferrovial Serviços, SA (503307483)","9.205,89 €",31-01-2019,12-04-2018,60 dias,"Portugal, Lisboa, Lisboa","Artigo 20.º, n.º 1, alínea d) do Código dos Contratos Públicos",,,,,,Não aplicável.,Não aplicável.,FALSE
"Aquisição de verbetes recém-nascidos, óbito, socorro/transporte, VMER, CODU e fichas mod. F12-INEM  ",Ajuste Direto Regime Geral,Aquisição de bens móveis,"22000000-0, Material impresso e afins","Instituto Nacional de Emergência Médica, I. P. (501356126)","Reboot - Uniessoal, Lda (507831659)","21.520,00 €",31-01-2019,05-06-2018,60 dias,"Portugal, Lisboa, Loures","Artigo 20.º, n.º 1, alínea d) do Código dos Contratos Públicos",,,,,,Não aplicável.,Não aplicável.,FALSE
Aquisição de 250 tubos metálicos para estrutura de Hospital de Campanha do INEM,Ajuste Direto Regime Geral,Aquisição de bens móveis,"44000000-0, Estruturas e materiais de construção; produtos auxiliares de construção (excepto aparelhos eléctricos)","Instituto Nacional de Emergência Médica, I. P. (501356126)",Antonio Manuel Fernandes Baptista  (174359802),"15.875,00 €",31-01-2019,09-05-2018,30 dias,"Portugal, Coimbra, Coimbra","Artigo 20.º, n.º 1, alínea d) do Código dos Contratos Públicos",,,,,,Não aplicável.,Não aplicável.,FALSE
Reparação do Motor da Viatura 78-EP-20,Ajuste Direto Regime Geral,Aquisição de bens móveis,"34000000-7, Equipamento e produtos auxiliares de transporte","Instituto Nacional de Emergência Médica, I. P. (501356126)","António Saraiva, Lda. (502067373)","7.131,96 €",31-01-2019,13-03-2018,30 dias,Portugal,"Artigo 20.º, n.º 1, alínea d) do Código dos Contratos Públicos",,,,,,Não aplicável.,Não aplicável.,FALSE
"Procedimento para a Aquisição de Serviços por Ajuste Direto para Manutenção de Equipamentos e Sistemas de SCI para as Instalações do INEM em: Lisboa (Rua Almirante Barroso Nº 36; Rua Infante Dom Pedro Nº 8A-8B e Estrada do Lumiar Nº 14-20); Norte (Rua Dr. Alfredo de Magalhães Nº 62 - Edifício Minerva - Porto; Rua Régulo Maguanha, 113 - Porto e Rua Salgueiro Maia, Nº 20 - Vilas Nova de Gaia); Centro (Rua Manuel de Almeida e Sousa, Edifício B-SIDE - Coimbra; Avenida Elísio de Moura Nº 21; 23; 25; e 29 - Coimbra e Avenida Elísio de Moura Nº 31; 33 e 35 - Coimbra) e Algarve (MARF - Sítio de Guilhim, Edifício A1 - Faro e MARF - Sítio de Guilhim, Edifício A6, A7 e A8 - Faro), tomando como referência a proposta em anexo, da qual constam as necessidades do INEM a nível nacional, neste âmbito para efeitos de elaboração do caderno de encargos.  ",Ajuste Direto Regime Geral,Aquisição de serviços,"50000000-5, Serviços de reparação e manutenção","Instituto Nacional de Emergência Médica, I. P. (501356126)","SEGUR-FOGO  - Comércio de Equipamentos Contra o Fogo, Lda (501508732)","6.000,00 €",31-01-2019,06-03-2018,30 dias,"Portugal, Lisboa, Sintra","Artigo 20.º, n.º 1, alínea d) do Código dos Contratos Públicos",,,,,,Não aplicável.,Não aplicável.,FALSE
"Aquisição de óculos de administração de O2 adulto, tubos de conexão O2, cânulas orofaringeas irrecuperáveis, máscaras de inalação de O2 alta concentração – adulto, máscaras de insuflador manual descartáveis, máscaras inalação O2 com tubo de conexão – adulto, máscaras de inalação O2 adulto com nebulizador, filtros para doente entubado – ped., filtros para doente entubado adulto, circuitos de ventilação desc+peep+exp com linha monitorização, máscaras CPAP descartáveis",Consulta Prévia,Aquisição de bens móveis,"33000000-0, Equipamento médico, medicamentos e produtos para cuidados pessoais","Instituto Nacional de Emergência Médica, I. P. (501356126)",INTERSURGICAL (503480045),"10.104,30 €",30-01-2019,19-12-2018,2 dias,"Portugal, Lisboa, Lisboa","Artigo 20.º, n.º 1, alínea c) do Código dos Contratos Públicos",,,,,,Não aplicável.,Não aplicável.,FALSE
Caixa de velocidades 14-GZ-92,Ajuste Direto Regime Geral,Aquisição de bens móveis,"34300000-0, Peças e acessórios para veículos e seus motores","Instituto Nacional de Emergência Médica, I. P. (501356126)","Soauto - Comércio de Automóveis, SA (508734827)","8.603,67 €",30-01-2019,26-03-2018,30 dias,"Portugal, Lisboa, Lisboa","Artigo 20.º, n.º 1, alínea d) do Código dos Contratos Públicos",,,,,,Não aplicável.,Não aplicável.,FALSE
Prestação de serviços de Gestão Oficinal de frota,Ajuste Direto Regime Geral,Aquisição de serviços,"50000000-5, Serviços de reparação e manutenção","Instituto Nacional de Emergência Médica, I. P. (501356126)","FINLOG, S.A. (502584866)","502.000,00 €",30-01-2019,09-04-2018,61 dias,"Portugal, Portugal Continental","Artigo 27.º, n.º 1, alínea a) do Código dos Contratos Públicos",,,,,,Não aplicável.,Não aplicável.,FALSE
Apoio Logístico Base Macedo Cavaleiros janeiro a abril 2018,Ajuste Direto Regime Geral,Aquisição de serviços,"55100000-1, Serviços de hotelaria","Instituto Nacional de Emergência Médica, I. P. (501356126)","BABCOCK MISSION CRITICAL SERVICES PORTUGAL, UNIPESSOAL LDA (503546054)","1.960,00 €",30-01-2019,22-03-2018,120 dias,"Portugal, Braganca, Macedo de Cavaleiros","Artigo 20.º, n.º 1, alínea d) do Código dos Contratos Públicos",,,,,,Não aplicável.,Não aplicável.,FALSE
Aquisição de cateteres endovenosos periféricos 14G e 16G,Ao abrigo de acordo-quadro (art.º 258.º),Aquisição de bens móveis,"33000000-0, Equipamento médico, medicamentos e produtos para cuidados pessoais","Instituto Nacional de Emergência Médica, I. P. (501356126)",OVERPHARMA (505792362),"228,00 €",30-01-2019,11-04-2018,2 dias,"Portugal, Lisboa, Lisboa","Artigo 26.º, n.º 1, alínea e) do Código dos Contratos Públicos",,,,,,2622225,CP 2017/26 - Acordo Quadro para Fornecimento de Cateteres   às Instituições e Serviços do Serviço Nacional de Saúde,FALSE
"Convite ao abrigo dos Lotes 2, 5, 15, e 29 do Acordo Quadro Aquisição e Aluguer Operacional de Equipamento Informático em vigor na ESPAP, para o INEM e o HDS",Ao abrigo de acordo-quadro (art.º 259.º),Aquisição de bens móveis,"30230000-0, Equipamento informático","Instituto Nacional de Emergência Médica, I. P. (SNCP) (501356126)","Pamafe - Informática, Lda. (504099388)","36.069,97 €",30-01-2019,11-07-2018,30 dias,"Portugal, Lisboa, Lisboa<BR/>Portugal",Artigo 259.º do Código dos Contratos Públicos,,,,,,1196657,Acordo Quadro para aquisição e aluguer operacional de equipamento informático,TRUE
"Aquisição de lactato de ringer, água para preparação injectáveis",Ao abrigo de acordo-quadro (art.º 258.º),Aquisição de bens móveis,"33600000-6, Produtos farmacêuticos","Instituto Nacional de Emergência Médica, I. P. (501356126)",OVERPHARMA (505792362),"226,00 €",30-01-2019,11-04-2018,1 dias,"Portugal, Lisboa, Lisboa","Artigo 26.º, n.º 1, alínea e) do Código dos Contratos Públicos",,,,,,2528675,CP 2017/3 - Acordo Quadro para fornecimento de corretivos da volémia e outras soluções estéreis,FALSE
"AQUISIÇÃO DE DESENVOLVIMENTO, ASSISTÊNCIA TÉCNICA E HELPDESK DA PLATAFORMA DE GESTÃO DE STOCKS E IMOBILIZADO DO INSTITUTO NACIONAL DA EMERGÊNCIA MÉDICA I.P.",Ajuste Direto Regime Geral,Aquisição de serviços,"72600000-6, Serviços de consultoria e assistência informáticas",INEM -Instituto Nacional de Emergência Médica (501356126),LOG-PME (507963571),"17.245,00 €",30-01-2019,29-05-2018,365 dias,Portugal,"Artigo 20.º, n.º 1, alínea d) do Código dos Contratos Públicos",,,,,,Não aplicável.,Não aplicável.,TRUE
"Aquisição de adrenalina, aminofilina, bicarb. sódio 8,4%, cloreto de sódio 0,9%, heparina, suxametónio, paracetamol e fentanilo",Ao abrigo de acordo-quadro (art.º 258.º),Aquisição de bens móveis,"33600000-6, Produtos farmacêuticos","Instituto Nacional de Emergência Médica, I. P. (501356126)",B. BRAUN MEDICAL (501506543),"3.744,95 €",30-01-2019,30-04-2018,1 dias,"Portugal, Lisboa, Lisboa","Artigo 26.º, n.º 1, alínea e) do Código dos Contratos Públicos",,,,,,2335591,CP 2016/01 - Acordo Quadro para fornecimento de Medicamentos do Aparelho Cardiovascular   às Instituições e Serviços do Serviço Nacional de Saúde,FALSE
"Aquisição de gelatina composta e hes 6%,",Ao abrigo de acordo-quadro (art.º 258.º),Aquisição de bens móveis,"33600000-6, Produtos farmacêuticos","Instituto Nacional de Emergência Médica, I. P. (501356126)",FRESENIUS KABI (504293753),"2.132,40 €",30-01-2019,12-06-2018,1 dias,"Portugal, Lisboa, Lisboa","Artigo 26.º, n.º 1, alínea e) do Código dos Contratos Públicos",,,,,,2528675,CP 2017/3 - Acordo Quadro para fornecimento de corretivos da volémia e outras soluções estéreis,FALSE
"Aquisição de diazepam, glucose 30%, cloreto de cálcio 10%, sulfato de magnésio 20%, tiamina, ciprofloxacilina e flucloxacilina",Ao abrigo de acordo-quadro (art.º 258.º),Aquisição de bens móveis,"33600000-6, Produtos farmacêuticos","Instituto Nacional de Emergência Médica, I. P. (501356126)",LABESFAL (501169580),"2.286,08 €",30-01-2019,12-06-2018,1 dias,"Portugal, Lisboa, Lisboa","Artigo 26.º, n.º 1, alínea e) do Código dos Contratos Públicos",,,,,,2528675,CP 2017/3 - Acordo Quadro para fornecimento de corretivos da volémia e outras soluções estéreis,FALSE
Serviço de comunicações para os telefones satélite,Ajuste Direto Regime Geral,Aquisição de serviços,"64200000-8, Serviços de telecomunicações","Instituto Nacional de Emergência Médica, I. P. (501356126)",NAUTIRADAR-SIST.MARÍT.ELECT.TELECOMUNICAÇÕES LDA. (504652885),"5.400,00 €",30-01-2019,28-02-2018,300 dias,"Portugal, Portugal Continental","Artigo 20.º, n.º 1, alínea d) do Código dos Contratos Públicos",,,,,,Não aplicável.,Não aplicável.,FALSE
Aquisição de licenças do software de Testes de Viena,Ajuste Direto Regime Geral,Aquisição de bens móveis,"48000000-8, Pacotes de software e sistemas de informação","Instituto Nacional de Emergência Médica, I. P. (501356126)","INFOTESTE ? CENTRO DE ESTUDOS E DIAGNÓSTICO PSICOLÓGICO COMPUTORIZADO, LDA. (501748849)","6.350,94 €",30-01-2019,17-04-2018,240 dias,"Portugal, Lisboa, Lisboa","Artigo 20.º, n.º 1, alínea d) do Código dos Contratos Públicos",,,,,,Não aplicável.,Não aplicável.,FALSE
Aquisição de algodão hidro e óculos administração O2 pediátrico,Ao abrigo de acordo-quadro (art.º 258.º),Aquisição de bens móveis,"33000000-0, Equipamento médico, medicamentos e produtos para cuidados pessoais","Instituto Nacional de Emergência Médica, I. P. (501356126)",DOCWORLD (508592909),"184,08 €",30-01-2019,16-07-2018,2 dias,"Portugal, Lisboa, Lisboa","Artigo 26.º, n.º 1, alínea e) do Código dos Contratos Públicos",,,,,,2858426,CP 2017/212 - Acordo quadro para fornecimento de Dispositivos para Neonatologia e Pediatria às Instituições e Serviços do Serviço Nacional de Saúde,FALSE
"Prestação de serviços manutenção do sistema informático e da rede existente nos vários edifícios do INEM, I.P., onde estão englobados os serviços de manutenção de servidores, routers, switchs, firewall’s e toda a assistência técnica aplicacional de base para que o serviço funcione 24/7.",Ajuste Direto Regime Geral,Aquisição de serviços,"72000000-5, Serviços de TI: consultoria, desenvolvimento de software, Internet e apoio","Instituto Nacional de Emergência Médica, I. P. (501356126)","Integrator – Tecnologias da Informação, SA. (506619290)","7.375,00 €",29-01-2019,28-01-2019,31 dias,"Portugal, Portugal Continental","Artigo 24.º, n.º 1, alínea c) do Código dos Contratos Públicos",,,,,,Não aplicável.,Não aplicável.,FALSE
Serviços telecomunicações para suporte das comunicações de dados,Ajuste Direto Regime Geral,Aquisição de serviços,"64000000-6, Serviços postais e de telecomunicações","Instituto Nacional de Emergência Médica, I. P. (501356126)","Meo-Serviços de Comunicações e Multimédia, S.A (504615947)","4.264,56 €",29-01-2019,28-01-2019,31 dias,"Portugal, Portugal Continental","Artigo 24.º, n.º 1, alínea c) do Código dos Contratos Públicos",,,,,,Não aplicável.,Não aplicável.,FALSE
"Serviços de comunicações de voz em local fixo e números especiais,",Ajuste Direto Regime Geral,Aquisição de serviços,"64000000-6, Serviços postais e de telecomunicações","Instituto Nacional de Emergência Médica, I. P. (501356126)","Meo, Serviços de Comunicações e Multimédia, S. A. (504615947)","9.000,00 €",29-01-2019,28-01-2019,31 dias,"Portugal, Portugal Continental","Artigo 24.º, n.º 1, alínea c) do Código dos Contratos Públicos",,,,,,Não aplicável.,Não aplicável.,FALSE
"Aquisição de glucose 5%, sacos de 100ml e lidocaína 2%",Ao abrigo de acordo-quadro (art.º 258.º),Aquisição de bens móveis,"33600000-6, Produtos farmacêuticos","Instituto Nacional de Emergência Médica, I. P. (501356126)",Baxter (503347345),"210,50 €",28-01-2019,04-12-2018,1 dias,"Portugal, Lisboa, Lisboa","Artigo 26.º, n.º 1, alínea e) do Código dos Contratos Públicos",,,,,,2528675,CP 2017/3 - Acordo Quadro para fornecimento de corretivos da volémia e outras soluções estéreis,FALSE
"Aquisição de compressas gaze hidr. estéril 10x10cm, compressas tecido ñ tecido não esterilizada 15x20cm e compressas tecido ñ tecido estéril 15 x 20 cm",Ao abrigo de acordo-quadro (art.º 258.º),Aquisição de bens móveis,"33000000-0, Equipamento médico, medicamentos e produtos para cuidados pessoais","Instituto Nacional de Emergência Médica, I. P. (501356126)",ALBINO DIAS DE ANDRADE (500013810),"3.484,20 €",28-01-2019,23-11-2018,2 dias,"Portugal, Lisboa, Lisboa","Artigo 26.º, n.º 1, alínea e) do Código dos Contratos Públicos",,,,,,2190354,CP 2016/21 - Acordo quadro para fornecimento de Gazes Medicadas e Ligaduras de Gaze às Instituições e Serviços do Serviço Nacional de Saúde,FALSE
Aquisição de sistemas de administração soro com arejador com ligação luer lock e obturadores para acesso venoso,Ao abrigo de acordo-quadro (art.º 258.º),Aquisição de bens móveis,"33000000-0, Equipamento médico, medicamentos e produtos para cuidados pessoais",INEM -Instituto Nacional de Emergência Médica (501356126),BECTON DICKINSON (514239743),"422,00 €",28-01-2019,19-11-2018,4 dias,"Portugal, Lisboa, Lisboa","Artigo 26.º, n.º 1, alínea e) do Código dos Contratos Públicos",,,,,,2622225,CP 2017/26 - Acordo Quadro para Fornecimento de Cateteres   às Instituições e Serviços do Serviço Nacional de Saúde,FALSE
Aquisição de conjuntos para parto súbito,Consulta Prévia,Aquisição de bens móveis,"33000000-0, Equipamento médico, medicamentos e produtos para cuidados pessoais",INEM -Instituto Nacional de Emergência Médica (501356126),Bastos Viegas (500042772),"1.395,00 €",28-01-2019,20-12-2018,5 dias,"Portugal, Lisboa, Lisboa","Artigo 20.º, n.º 1, alínea c) do Código dos Contratos Públicos",,,,,,Não aplicável.,Não aplicável.,FALSE
"Aquisição de comprimidos de ticagrelor, 90mg",Ao abrigo de acordo-quadro (art.º 258.º),Aquisição de bens móveis,"33600000-6, Produtos farmacêuticos",INEM -Instituto Nacional de Emergência Médica (501356126),Astrazeneca (502942240),"196,58 €",28-01-2019,11-12-2018,3 dias,"Portugal, Lisboa, Lisboa","Artigo 26.º, n.º 1, alínea e) do Código dos Contratos Públicos",,,,,,3053200,"CP 2017/64 - Acordo Quadro para fornecimento de Medicamentos Diversos, às Instituições e Serviços do Serviço Nacional de Saúde",FALSE
AQUISIÇÃO DE LIGADURAS GAZE 5MX10CM SEM OURELA E LIGADURAS ELÁSTICAS 5MX5CM,Ao abrigo de acordo-quadro (art.º 258.º),Aquisição de bens móveis,"33000000-0, Equipamento médico, medicamentos e produtos para cuidados pessoais","Instituto Nacional de Emergência Médica, I. P. (501356126)","Abílio Freire, Lda (500432600)","167,20 €",28-01-2019,13-12-2018,5 dias,"Portugal, Lisboa, Lisboa","Artigo 26.º, n.º 1, alínea e) do Código dos Contratos Públicos",,,,,,2190354,CP 2016/21 - Acordo quadro para fornecimento de Gazes Medicadas e Ligaduras de Gaze às Instituições e Serviços do Serviço Nacional de Saúde,FALSE
"Aquisição de seringas irrecuperáveis 2ml, 5ml, 10ml, 20ml e  seringas irrecuperáveis 50ml com ligação luer lock",Ao abrigo de acordo-quadro (art.º 258.º),Aquisição de bens móveis,"33000000-0, Equipamento médico, medicamentos e produtos para cuidados pessoais","Instituto Nacional de Emergência Médica, I. P. (501356126)",Docworld (508592909),"118,92 €",28-01-2019,11-12-2018,2 dias,"Portugal, Lisboa, Lisboa","Artigo 26.º, n.º 1, alínea e) do Código dos Contratos Públicos",,,,,,3498461,CP 2018/22 - Acordo Quadro para fornecimento de Seringas,FALSE
"Aquisição de seringas irrecuperáveis, 3 peças bico largo de 100ml",Ao abrigo de acordo-quadro (art.º 258.º),Aquisição de bens móveis,"33000000-0, Equipamento médico, medicamentos e produtos para cuidados pessoais","Instituto Nacional de Emergência Médica, I. P. (501356126)",ANASTÁCIO SALDANHA (505804441),"62,25 €",28-01-2019,29-11-2018,5 dias,"Portugal, Lisboa, Lisboa","Artigo 26.º, n.º 1, alínea e) do Código dos Contratos Públicos",,,,,,3498461,CP 2018/22 - Acordo Quadro para fornecimento de Seringas,FALSE
Aquisição de torneiras de 3 vias,Ao abrigo de acordo-quadro (art.º 258.º),Aquisição de bens móveis,"33000000-0, Equipamento médico, medicamentos e produtos para cuidados pessoais","Instituto Nacional de Emergência Médica, I. P. (501356126)",SOCIME MEDICAL (504453939),"23,60 €",28-01-2019,13-12-2018,1 dias,"Portugal, Lisboa, Lisboa","Artigo 26.º, n.º 1, alínea e) do Código dos Contratos Públicos",,,,,,2622225,CP 2017/26 - Acordo Quadro para Fornecimento de Cateteres   às Instituições e Serviços do Serviço Nacional de Saúde,FALSE
"Aquisição de sondas de aspiração CH10, CH14 E CH16 com controlo de vácuo",Ao abrigo de acordo-quadro (art.º 258.º),Aquisição de bens móveis,"33000000-0, Equipamento médico, medicamentos e produtos para cuidados pessoais","Instituto Nacional de Emergência Médica, I. P. (501356126)",HR HOSPITALAR (501895558),"186,00 €",28-01-2019,13-12-2018,1 dias,"Portugal, Lisboa, Lisboa","Artigo 26.º, n.º 1, alínea e) do Código dos Contratos Públicos",,,,,,2791664,CP 2017/27 - Acordo quadro para fornecimento de Material de Ostomia e Eliminação - Parte II,FALSE
Aquisição de resguardos de proteção descartáveis 80 x 210 cm.,Consulta Prévia,Aquisição de bens móveis,"33000000-0, Equipamento médico, medicamentos e produtos para cuidados pessoais","Instituto Nacional de Emergência Médica, I. P. (501356126)",HOSPIVIDA (508731755),"15.323,00 €",28-01-2019,22-11-2018,15 dias,"Portugal, Lisboa, Lisboa","Artigo 20.º, n.º 1, alínea c) do Código dos Contratos Públicos",,,,,,Não aplicável.,Não aplicável.,FALSE
Aquisição de 250 rolos de papel para impressora para LP12 LP15,Ajuste Direto Regime Geral,Aquisição de bens móveis,"33000000-0, Equipamento médico, medicamentos e produtos para cuidados pessoais","Instituto Nacional de Emergência Médica, I. P. (501356126)",PHYSIO PORTUGAL SALES (510137946),"2.125,00 €",28-01-2019,16-04-2018,3 dias,"Portugal, Lisboa, Lisboa","Artigo 24.º, n.º 1, alínea e), subalínea ii) do Código dos Contratos Públicos",,,,,,Não aplicável.,Não aplicável.,FALSE
Aquisição de diversos consumíveis para lifepak,Ajuste Direto Regime Geral,Aquisição de bens móveis,"33000000-0, Equipamento médico, medicamentos e produtos para cuidados pessoais","Instituto Nacional de Emergência Médica, I. P. (501356126)",PHYSIO PORTUGAL SALES (510137946),"84.324,95 €",25-01-2019,27-04-2018,8 dias,"Portugal, Lisboa, Lisboa","Artigo 24.º, n.º 1, alínea e), subalínea ii) do Código dos Contratos Públicos",,,,,,Não aplicável.,Não aplicável.,FALSE
"Aquisição de cateteres endovenosos periféricos com proteção - 14G, 16G, 18G, 22G e 24G",Ao abrigo de acordo-quadro (art.º 258.º),Aquisição de bens móveis,"33000000-0, Equipamento médico, medicamentos e produtos para cuidados pessoais","Instituto Nacional de Emergência Médica, I. P. (501356126)",B. BRAUN MEDICAL (501506543),"874,00 €",25-01-2019,19-11-2018,1 dias,"Portugal, Lisboa, Lisboa","Artigo 26.º, n.º 1, alínea e) do Código dos Contratos Públicos",,,,,,2622225,CP 2017/26 - Acordo Quadro para Fornecimento de Cateteres   às Instituições e Serviços do Serviço Nacional de Saúde,FALSE
"Aquisição de ampolas de propofol 1%, amp.20ml emulsão inj.200mg/20ml",Ao abrigo de acordo-quadro (art.º 258.º),Aquisição de bens móveis,"33600000-6, Produtos farmacêuticos","Instituto Nacional de Emergência Médica, I. P. (501356126)",BAXTER (503347345),"94,50 €",25-01-2019,21-08-2018,1 dias,"Portugal, Lisboa, Lisboa","Artigo 26.º, n.º 1, alínea e) do Código dos Contratos Públicos",,,,,,2211341,Medicamentos anestésicos e relaxantes musculares,FALSE
"Aquisição de cloranfenicol colírio 8 mg/ml frasco 5 ml e cloranfenicol, pomada oftálmica 10mg/g",Ao abrigo de acordo-quadro (art.º 258.º),Locação de bens móveis,"33600000-6, Produtos farmacêuticos","Instituto Nacional de Emergência Médica, I. P. (501356126)",Laboratório Edol (507072642),"147,44 €",25-01-2019,17-08-2018,1 dias,"Portugal, Lisboa, Lisboa","Artigo 26.º, n.º 1, alínea e) do Código dos Contratos Públicos",,,,,,3358998,CP 2018/49 - Medicamentos usados nas afeções oculares e otorrinolaringológicas,FALSE
"Aquisição de cloreto de sódio 0,9% sol.inj.9mg/ml, sacos 500ml e 100ml",Ao abrigo de acordo-quadro (art.º 258.º),Aquisição de bens móveis,"33600000-6, Produtos farmacêuticos","Instituto Nacional de Emergência Médica, I. P. (501356126)",BAXTER (503347345),"1.536,00 €",25-01-2019,21-08-2018,1 dias,"Portugal, Lisboa, Lisboa","Artigo 26.º, n.º 1, alínea e) do Código dos Contratos Públicos",,,,,,2528675,CP 2017/3 - Acordo Quadro para fornecimento de corretivos da volémia e outras soluções estéreis,FALSE
"Aquisição de máscaras CPAP descartáveis S, M/L e XL",Consulta Prévia,Aquisição de bens móveis,"33000000-0, Equipamento médico, medicamentos e produtos para cuidados pessoais","Instituto Nacional de Emergência Médica, I. P. (501356126)",INTERSURGICAL (503480045),"20.880,00 €",25-01-2019,13-07-2018,3 dias,"Portugal, Lisboa, Lisboa","Artigo 20.º, n.º 1, alínea c) do Código dos Contratos Públicos",,,,,,Não aplicável.,Não aplicável.,FALSE
Aquisição de prolongamentos venosos m/f 100cm com ligação luer lock,Ao abrigo de acordo-quadro (art.º 258.º),Aquisição de bens móveis,"33000000-0, Equipamento médico, medicamentos e produtos para cuidados pessoais","Instituto Nacional de Emergência Médica, I. P. (501356126)",PMH-PRODUTOS MEDICO HOSP (502376899),"87,00 €",25-01-2019,29-11-2018,1 dias,"Portugal, Lisboa, Lisboa","Artigo 26.º, n.º 1, alínea e) do Código dos Contratos Públicos",,,,,,2622225,CP 2017/26 - Acordo Quadro para Fornecimento de Cateteres   às Instituições e Serviços do Serviço Nacional de Saúde,FALSE
"Aquisição de frascos de cloreto de sódio 0,9% para irrigação frascos de 500ml e frascos de cloreto de sódio 0,9% para irrigação frascos de 100ml",Ao abrigo de acordo-quadro (art.º 258.º),Aquisição de bens móveis,"33600000-6, Produtos farmacêuticos","Instituto Nacional de Emergência Médica, I. P. (501356126)",OVERPHARMA (505792362),"2.927,60 €",25-01-2019,09-11-2018,1 dias,"Portugal, Lisboa, Lisboa","Artigo 26.º, n.º 1, alínea e) do Código dos Contratos Públicos",,,,,,2528675,CP 2017/3 - Acordo Quadro para fornecimento de corretivos da volémia e outras soluções estéreis,FALSE
"Aquisição de clopidogrel, comprimidos 75mg, ác. acetilsalicílico, comp. 150 mg, diazepam, sol.rectal 5mg/2,5ml e tramadol, sol.inj.100mg/2ml amp.2ml",Ao abrigo de acordo-quadro (art.º 258.º),Aquisição de bens móveis,"33600000-6, Produtos farmacêuticos","Instituto Nacional de Emergência Médica, I. P. (501356126)",GENERIS - FARMACÊUTICA (508107997),"180,51 €",25-01-2019,27-06-2018,1 dias,"Portugal, Lisboa, Lisboa","Artigo 26.º, n.º 1, alínea e) do Código dos Contratos Públicos",,,,,,2528670,"CP 2017/2 - Acordo Quadro para fornecimento de Medicamentos do Sistema Nervoso Cerebrospinal, exceto: anestésicos, relaxantes musculares, analgésicos, antipiréticos, antidepressivos e antipsicóticos  às Instituições e Serviços do Serviço Nacional de Saúde",FALSE
"Aquisição de lactato de ringer, sol.inj. fr.500ml",Ao abrigo de acordo-quadro (art.º 258.º),Aquisição de bens móveis,"33600000-6, Produtos farmacêuticos","Instituto Nacional de Emergência Médica, I. P. (501356126)",OVERPHARMA (505792362),"255,00 €",25-01-2019,27-07-2018,1 dias,"Portugal, Lisboa, Lisboa","Artigo 26.º, n.º 1, alínea e) do Código dos Contratos Públicos",,,,,,2528675,CP 2017/3 - Acordo Quadro para fornecimento de corretivos da volémia e outras soluções estéreis,FALSE
"Aquisição de furosemida, metoclopramida e água para injetáveis",Ao abrigo de acordo-quadro (art.º 258.º),Aquisição de bens móveis,"33600000-6, Produtos farmacêuticos","Instituto Nacional de Emergência Médica, I. P. (501356126)",LABESFAL (501169580),"208,00 €",25-01-2019,25-10-2018,1 dias,"Portugal, Lisboa, Lisboa","Artigo 26.º, n.º 1, alínea e) do Código dos Contratos Públicos",,,,,,2528670,"CP 2017/2 - Acordo Quadro para fornecimento de Medicamentos do Sistema Nervoso Cerebrospinal, exceto: anestésicos, relaxantes musculares, analgésicos, antipiréticos, antidepressivos e antipsicóticos  às Instituições e Serviços do Serviço Nacional de Saúde",FALSE
"Aquisição de 60 ampolas de adenosina, sol. inj. 6mg/2ml amp. 2ml",Ao abrigo de acordo-quadro (art.º 258.º),Aquisição de bens móveis,"33600000-6, Produtos farmacêuticos","Instituto Nacional de Emergência Médica, I. P. (501356126)",BLUEMED (509912060),"142,80 €",25-01-2019,25-10-2018,2 dias,"Portugal, Lisboa, Lisboa","Artigo 26.º, n.º 1, alínea e) do Código dos Contratos Públicos",,,,,,2335591,CP 2016/01 - Acordo Quadro para fornecimento de Medicamentos do Aparelho Cardiovascular   às Instituições e Serviços do Serviço Nacional de Saúde,FALSE
"Aquisição de 100 ampolas de dinitrato de isossorbida sol.inj. 10mg/10ml , amp. 10ml",Ajuste Direto Regime Geral,Aquisição de bens móveis,"33600000-6, Produtos farmacêuticos","Instituto Nacional de Emergência Médica, I. P. (501356126)",SPCARE (508284872),"599,20 €",25-01-2019,27-11-2018,1 dias,"Portugal, Lisboa, Lisboa","Artigo 24.º, n.º 1, alínea e), subalínea ii) do Código dos Contratos Públicos",,,,,,Não aplicável.,Não aplicável.,FALSE
"Aquisição de 50 ampolas de tiopental sódico,pó p/sol.inj. 500mg",Ajuste Direto Regime Geral,Aquisição de bens móveis,"33600000-6, Produtos farmacêuticos","Instituto Nacional de Emergência Médica, I. P. (501356126)",B. BRAUN MEDICAL (501506543),"171,00 €",25-01-2019,30-10-2018,1 dias,"Portugal, Lisboa, Lisboa","Artigo 24.º, n.º 1, alínea e), subalínea ii) do Código dos Contratos Públicos",,,,,,Não aplicável.,Não aplicável.,FALSE
Aquisição de 100 brometo de rocurónio inj 50 mg/5 ml amp.,Ao abrigo de acordo-quadro (art.º 258.º),Aquisição de bens móveis,"33000000-0, Equipamento médico, medicamentos e produtos para cuidados pessoais","Instituto Nacional de Emergência Médica, I. P. (501356126)",Merck Sharp & Dohme (500191360),"130,00 €",25-01-2019,21-08-2018,2 dias,"Portugal, Lisboa, Lisboa","Artigo 26.º, n.º 1, alínea e) do Código dos Contratos Públicos",,,,,,2211341,Medicamentos anestésicos e relaxantes musculares,FALSE
Aquisição de 400 gazes parafinadas esterilizadas 10 x 10cm.,Ao abrigo de acordo-quadro (art.º 258.º),Aquisição de bens móveis,"33000000-0, Equipamento médico, medicamentos e produtos para cuidados pessoais","Instituto Nacional de Emergência Médica, I. P. (501356126)",SMITH & NEPHEW (503552461),"76,00 €",25-01-2019,10-07-2018,2 dias,"Portugal, Lisboa, Lisboa","Artigo 26.º, n.º 1, alínea e) do Código dos Contratos Públicos",,,,,,2190354,CP 2016/21 - Acordo quadro para fornecimento de Gazes Medicadas e Ligaduras de Gaze às Instituições e Serviços do Serviço Nacional de Saúde,FALSE
Aquisição de eléctrodos multifunções LP1000 quick-combo e baterias para LP 1000,Ajuste Direto Regime Geral,Aquisição de bens móveis,"33000000-0, Equipamento médico, medicamentos e produtos para cuidados pessoais","Instituto Nacional de Emergência Médica, I. P. (501356126)",Physio Portugal Sales (510137946),"68.750,00 €",25-01-2019,23-03-2018,10 dias,"Portugal, Lisboa, Lisboa","Artigo 24.º, n.º 1, alínea e), subalínea ii) do Código dos Contratos Públicos",,,,,,Não aplicável.,Não aplicável.,FALSE
Reparação de incubadora aviator sn NP118AV,Ajuste Direto Regime Geral,Aquisição de serviços,"50000000-5, Serviços de reparação e manutenção","Instituto Nacional de Emergência Médica, I. P. (501356126)","SANO-TECNICA, UNIPESSOAL, LIMITADA (500239819)","700,00 €",23-01-2019,22-03-2018,5 dias,"Portugal, Lisboa, Lisboa","Artigo 24.º, n.º 1, alínea e), subalínea iii) do Código dos Contratos Públicos",,,,,,Não aplicável.,Não aplicável.,FALSE
Aluguer de Fontes de água para o ano 2018,Ajuste Direto Regime Geral,Aquisição de serviços,"90000000-7, Serviços relativos a águas residuais, resíduos, limpeza e ambiente","Instituto Nacional de Emergência Médica, I. P. (501356126)",Jet Cooler - Águas e Cafés S.A. (502127856),"1.468,70 €",23-01-2019,30-04-2018,365 dias,"Portugal, Lisboa, Lisboa","Artigo 20.º, n.º 1, alínea d) do Código dos Contratos Públicos",,,,,,Não aplicável.,Não aplicável.,FALSE
Reparação de incubadora aviator sn NP 118AV,Ajuste Direto Regime Geral,Aquisição de serviços,"50000000-5, Serviços de reparação e manutenção","Instituto Nacional de Emergência Médica, I. P. (501356126)","SANO-TECNICA, UNIPESSOAL, LIMITADA (500239819)","186,20 €",23-01-2019,22-03-2018,5 dias,"Portugal, Lisboa, Lisboa","Artigo 24.º, n.º 1, alínea e), subalínea i) do Código dos Contratos Públicos",,,,,,Não aplicável.,Não aplicável.,FALSE
Serviço de transporte de passageiros - CP Comboios de Portugal para o ano 2018,Ajuste Direto Regime Geral,Aquisição de serviços,"60200000-0, Serviços de transporte ferroviário","Instituto Nacional de Emergência Médica, I. P. (501356126)","CP - Comboios de Portugal, E.P.E. (500498601)","3.500,00 €",22-01-2019,26-04-2018,365 dias,"Portugal, Lisboa, Lisboa","Artigo 24.º, n.º 1, alínea c) do Código dos Contratos Públicos",,,,,,Não aplicável.,Não aplicável.,FALSE
Assistência e Manutenção a multifunções xerox DC 260 para o 1º trimestre de 2018,Ajuste Direto Regime Geral,Aquisição de serviços,"50800000-3, Serviços de reparação e manutenção diversos","Instituto Nacional de Emergência Médica, I. P. (501356126)","Xerox Portugal, Lda (501656677)","416,67 €",22-01-2019,09-03-2018,90 dias,"Portugal, Lisboa, Lisboa","Artigo 20.º, n.º 1, alínea d) do Código dos Contratos Públicos",,,,,,Não aplicável.,Não aplicável.,FALSE
Serviço de inventário de equipamentos e instalações e relatório das condições das instalações do INEM.,Ajuste Direto Regime Geral,Aquisição de serviços,"72000000-5, Serviços de TI: consultoria, desenvolvimento de software, Internet e apoio","Instituto Nacional de Emergência Médica, I. P. (501356126)","Ferrovial Serviços, SA (503307483)","9.846,65 €",22-01-2019,06-07-2018,60 dias,"Portugal, Lisboa, Lisboa","Artigo 20.º, n.º 1, alínea d) do Código dos Contratos Públicos",,,,,,Não aplicável.,Não aplicável.,FALSE
Aquisição de 300 ampolas de amiodarona e  100 ampolas de midazolam,Ajuste Direto Regime Geral,Aquisição de bens móveis,"33600000-6, Produtos farmacêuticos","Instituto Nacional de Emergência Médica, I. P. (501356126)","HIKMA Farmacêutica (Portugal), S.A. (502266791)","145,99 €",21-01-2019,30-04-2018,1 dias,"Portugal, Lisboa, Lisboa","Artigo 26.º, n.º 1, alínea e) do Código dos Contratos Públicos",,,,,,Não aplicável.,Não aplicável.,FALSE
Aquisição de 36 conjuntos de Kits de parto de emergência,Consulta Prévia,Aquisição de bens móveis,"33600000-6, Produtos farmacêuticos","Instituto Nacional de Emergência Médica, I. P. (501356126)","Bastos Viegas, S.A. (500042772)","558,00 €",21-01-2019,12-09-2018,5 dias,"Portugal, Lisboa, Lisboa","Artigo 20.º, n.º 1, alínea c) do Código dos Contratos Públicos",,,,,,Não aplicável.,Não aplicável.,FALSE
