Objeto do Contrato,Tipo de Procedimento,Tipo(s) de Contrato,CPVs,Entidade(s) Adjudicante(s),Entidade(s) Adjudicatária(s),Preço Contratual,Data de Publicação,Data de Celebração do Contrato,Prazo de Execução,Local de Execução,Fundamentação,Data de Fecho do Contrato,Preço Total Efetivo,Causas das Alterações ao Prazo,Causas das Alterações ao Preço,Estado,N.º registo do Acordo Quadro,Descrição do Acordo Quadro,Procedimento Centralizado
AD292-2017-SUGAMADEX 100 MG/ML INJ-24 ML,Ao abrigo de acordo-quadro (art.º 259.º),Aquisição de bens móveis,"33600000-6, Produtos farmacêuticos","Instituto Português de Oncologia de Lisboa Francisco Gentil, E. P. E. (506361616)",MERCK SHARP & DOHME LIMITADA (500191360),"23.340,00 €",31-01-2017,23-01-2017,25 dias,"Portugal, Lisboa, Lisboa",Artigo 259.º do Código dos Contratos Públicos,,,,,,1338581,"Acordo quadro para fornecimento de Medicação antialérgica, medicamentos usados no tratamento de intoxicações, vitaminas e sais minerais e grupo 20.9 - outros produtos às instituições e serviços do serviço nacional de saúde",FALSE
AD183-2017PEMBROLIZUMAB 50 MG INJ,Ajuste Direto Regime Geral,Aquisição de bens móveis,"33600000-6, Produtos farmacêuticos","Instituto Português de Oncologia de Lisboa Francisco Gentil, E. P. E. (506361616)",MERCK SHARP & DOHME LDA (500191360),"132.940,00 €",30-01-2017,30-01-2017,25 dias,"Portugal, Lisboa, Lisboa","Artigo 24.º, n.º 1, alínea e) do Código dos Contratos Públicos",,,,,,Não aplicável.,Não aplicável.,FALSE
"AD465-2017 USTECINUMAB 45 MG/0,5 ML INJ SC",Ao abrigo de acordo-quadro (art.º 259.º),Aquisição de bens móveis,"33600000-6, Produtos farmacêuticos","Instituto Português de Oncologia de Lisboa Francisco Gentil, E. P. E. (506361616)",JANSSEN CILAG FARMACEUTICA LDA (500189412),"14.895,12 €",30-01-2017,25-01-2017,25 dias,"Portugal, Lisboa, Lisboa",Artigo 259.º do Código dos Contratos Públicos,,,,,,1771819,CP 2015/6 - Acordo quadro para o fornecimento de Medicamentos do Foro Oncológico,FALSE
AD53-2017-CONTROLO DE QUALIDADE EXTERNO ANTIGENURIA DE LEGIONELLA,Ajuste Direto Regime Geral,Aquisição de bens móveis,"33696500-0, Reagentes de laboratório","Instituto Português de Oncologia de Lisboa Francisco Gentil, E. P. E. (506361616)","BIOGNOSTICA-DISTRIBUIÇÃO DE PRODUTOS E EQUIPAMENTOS TÉCNICOS, LDA (504441256)","27.735,00 €",27-01-2017,17-01-2017,365 dias,"Portugal, Lisboa, Lisboa","Artigo 24.º, n.º 1, alínea e) do Código dos Contratos Públicos",,,,,,Não aplicável.,Não aplicável.,FALSE
AD52-2017CONTROLOS DE QUALIDADE EXTERNOS,Ajuste Direto Regime Geral,Aquisição de bens móveis,"33600000-6, Produtos farmacêuticos","Instituto Português de Oncologia de Lisboa Francisco Gentil, E. P. E. (506361616)","BIOPORTUGAL QUIMICO FARMACEUTICO, LDA (502380543)","6.680,00 €",27-01-2017,26-01-2017,25 dias,"Portugal, Lisboa, Lisboa","Artigo 24.º, n.º 1, alínea e) do Código dos Contratos Públicos",,,,,,Não aplicável.,Não aplicável.,FALSE
ADCAT-FIRST CARE,Ajuste Direto Regime Geral,Aquisição de serviços,"72260000-5, Serviços relacionados com software","Instituto Português de Oncologia de Lisboa FG, E.P.E. (506361616)",FIRTS SOLUTION-SISTEMAS DE INFORMAÇÃO S.A. (505345978),"6.858,00 €",26-01-2017,26-01-2017,365 dias,"Portugal, Lisboa, Lisboa","Artigo 24.º, n.º 1, alínea e) do Código dos Contratos Públicos",,,,,,Não aplicável.,Não aplicável.,FALSE
AD106-2017-MATERIAL ADMINISTRATIVO,Ajuste Direto Regime Geral,Aquisição de bens móveis,"30100000-0, Máquinas, equipamento e material de escritório, excepto computadores, impressoras e mobiliário","Instituto Português de Oncologia de Lisboa Francisco Gentil, E. P. E. (506361616)","ENVELOPRINTER, LDA (508469830)","12.924,15 €",25-01-2017,24-01-2017,25 dias,"Portugal, Lisboa, Lisboa","Artigo 20.º, n.º 1, alínea a) do Código dos Contratos Públicos",,,,,,Não aplicável.,Não aplicável.,FALSE
AD2089-2017-ALUGUER DE CITOMETRO,Ajuste Direto Regime Geral,Aquisição de serviços<br/>Aquisição de bens móveis,"33100000-1, Equipamento médico","Instituto Português de Oncologia de Lisboa Francisco Gentil, E. P. E. (506361616)","ENZIFARMA, S.A. (503636975)","15.000,00 €",25-01-2017,19-01-2017,365 dias,"Portugal, Lisboa, Lisboa","Artigo 20.º, n.º 1, alínea a) do Código dos Contratos Públicos",,,,,,Não aplicável.,Não aplicável.,FALSE
AD143-2017-Alimentação,Ajuste Direto Regime Geral,Aquisição de serviços,"55322000-3, Serviços de confecção de refeições","Instituto Português de Oncologia de Lisboa Francisco Gentil, E. P. E. (506361616)","GERTAL-Companhia Geral de Restaurantes e Alimentação,  S.A. (500126623)","190.130,70 €",24-01-2017,11-01-2017,60 dias,"Portugal, Lisboa, Lisboa","Artigo 24.º, n.º 1, alínea c) do Código dos Contratos Públicos",,,,,,Não aplicável.,Não aplicável.,FALSE
AD77-2017ASPARAGINASE PEGUILADA,Ajuste Direto Regime Geral,Aquisição de bens móveis,"33600000-6, Produtos farmacêuticos","Instituto Português de Oncologia de Lisboa Francisco Gentil, E. P. E. (506361616)","Alloga Portugal-Armazenagem e Distribuição Farmacêutica, Lda (504507230)","561.600,00 €",24-01-2017,27-12-2016,365 dias,"Portugal, Lisboa, Lisboa","Artigo 24.º, n.º 1, alínea e) do Código dos Contratos Públicos",,,,,,Não aplicável.,Não aplicável.,FALSE
AD210-2017 TRANSTUZUMAB EMITANSINA 100 MG INJ,Ajuste Direto Regime Geral,Aquisição de bens móveis,"33600000-6, Produtos farmacêuticos","Instituto Português de Oncologia de Lisboa Francisco Gentil, E. P. E. (506361616)","ROCHE FARMACEUTICA QUIMICA, LDA (500233810)","5.065,50 €",23-01-2017,03-01-2017,25 dias,"Portugal, Lisboa, Lisboa","Artigo 24.º, n.º 1, alínea e) do Código dos Contratos Públicos",,,,,,Não aplicável.,Não aplicável.,FALSE
AD219-2017-CLOFARABINA 1 MG/ML INJ 20 ML,Ajuste Direto Regime Geral,Aquisição de bens móveis,"33600000-6, Produtos farmacêuticos","Instituto Português de Oncologia de Lisboa Francisco Gentil, E. P. E. (506361616)",SANOFI-PRODUTOS FARMACEUTICOS LDA (500134960),"27.243,60 €",23-01-2017,06-01-2017,25 dias,"Portugal, Lisboa, Lisboa","Artigo 24.º, n.º 1, alínea e) do Código dos Contratos Públicos",,,,,,Não aplicável.,Não aplicável.,FALSE
AD3037-2016-AQUISIÇÃO DE MONODOSES FDG S,Ajuste Direto Regime Geral,Aquisição de bens móveis,"33100000-1, Equipamento médico","Instituto Português de Oncologia de Lisboa Francisco Gentil, E. P. E. (506361616)","ISOTOPOS E DERIVADOS ISODER S.A, (502241594)","304.600,00 €",23-01-2017,19-12-2016,20 dias,"Portugal, Lisboa, Lisboa","Artigo 24.º, n.º 1, alínea c) do Código dos Contratos Públicos",,,,,,Não aplicável.,Não aplicável.,FALSE
AD119-2017-SACOS TRANSPARENTES E OUTROS DE COR,Ajuste Direto Regime Geral,Aquisição de bens móveis,"19600000-2, Desperdícios de couro, de têxteis, de borracha e de plástico","Instituto Português de Oncologia de Lisboa FG, E.P.E. (506361616)","BIZPACK-UNIPESSOAL, LDA (509704514)","17.907,20 €",23-01-2017,20-01-2017,25 dias,"Portugal, Lisboa, Lisboa","Artigo 20.º, n.º 1, alínea a) do Código dos Contratos Públicos",,,,,,Não aplicável.,Não aplicável.,FALSE
