Objeto do Contrato,Tipo de Procedimento,Tipo(s) de Contrato,CPVs,Entidade(s) Adjudicante(s),Entidade(s) Adjudicatária(s),Preço Contratual,Data de Publicação,Data de Celebração do Contrato,Prazo de Execução,Local de Execução,Fundamentação,Data de Fecho do Contrato,Preço Total Efetivo,Causas das Alterações ao Prazo,Causas das Alterações ao Preço,Estado,N.º registo do Acordo Quadro,Descrição do Acordo Quadro,Procedimento Centralizado
Reagentes para Imuno-Hemoterapia,Ajuste Direto Regime Geral,Aquisição de bens móveis,"33696500-0, Reagentes de laboratório",Centro Hospitalar de Lisboa Central E.P.E. (508080142),DIAMED PORTUGUESA DIAGNOSTICA SA (501675809),"20.153,81 €",21-03-2013,19-03-2013,287 dias,"Portugal, Porto, Porto","Artigo 26.º, n.º 1, alínea a) do Código dos Contratos Públicos",,,,,,Não aplicável.,Não aplicável.,
Aquisição de Fluoresceína 100 mg/ml sol. inj. fr. 5 ml IV,Ajuste Direto Regime Geral,Aquisição de bens móveis,"33662100-9, Medicamentos usados em oftalmologia",Centro Hospitalar de Lisboa Central E.P.E. (508080142),Théa Portugal S.A. (507978358),"13.732,20 €",21-03-2013,20-03-2013,365 dias,"Portugal, Lisboa, Lisboa","Artigo 20.º, n.º 1, alínea a) do Código dos Contratos Públicos",,,,,,Não aplicável.,Não aplicável.,
Aquisição de papel de fotocopias A4 e A3,Ao abrigo de acordo-quadro (art.º 259.º),Aquisição de bens móveis,"30197643-5, Papel para fotocópia",Centro Hospitalar de Lisboa Central E.P.E. (508080142),Staples (503789372),"76.574,00 €",20-03-2013,13-03-2013,300 dias,"Portugal, Lisboa, Lisboa",Artigo 259.º do Código dos Contratos Públicos,,,,,,Não definido.,Não definido.,
"Levossimendano 2,5mg Sol. Inj. Frs. 5ml IV",Ajuste Direto Regime Geral,Aquisição de bens móveis,"33000000-0, Equipamento médico, medicamentos e produtos para cuidados pessoais",Centro Hospitalar de Lisboa Central E.P.E. (508080142),Orionfin Unipessoal Lda (508907365),"28.200,00 €",20-03-2013,20-03-2013,286 dias,"Portugal, Lisboa, Lisboa","Artigo 24.º, n.º 1, alínea e) do Código dos Contratos Públicos",,,,,,Não aplicável.,Não aplicável.,
Aquisição de Iomeprol 714.4 mg/ml sol. inj. fr. 200 ml IA IV.,Ajuste Direto Regime Geral,Aquisição de bens móveis,"33600000-6, Produtos farmacêuticos",Centro Hospitalar de Lisboa Central E.P.E. (508080142),"Laboratórios Farmacêuticos Rovi, S.A. (980166705)","11.964,00 €",19-03-2013,12-03-2013,365 dias,"Portugal, Lisboa, Lisboa","Artigo 24.º, n.º 1, alínea e) do Código dos Contratos Públicos",,,,,,Não aplicável.,Não aplicável.,
Reagentes para Medicina Transfusional Específico,Ajuste Direto Regime Geral,Aquisição de bens móveis,"33696500-0, Reagentes de laboratório",Centro Hospitalar de Lisboa Central E.P.E. (508080142),DIAMED DIAGNOSTICA PORTUGUESA SA (501675809),"11.797,45 €",19-03-2013,13-02-2013,316 dias,"Portugal, Porto, Porto","Artigo 20.º, n.º 1, alínea a) do Código dos Contratos Públicos",,,,,,Não aplicável.,Não aplicável.,
CUVETES PARA HEMOGLOBINOMETRO,Ajuste Direto Regime Geral,Aquisição de bens móveis,"33696500-0, Reagentes de laboratório",Centro Hospitalar de Lisboa Central E.P.E. (508080142),IZASA PORTUGAL (501086110),"7.500,00 €",19-03-2013,08-03-2013,298 dias,"Portugal, Lisboa, Lisboa","Artigo 26.º, n.º 1, alínea a) do Código dos Contratos Públicos",,,,,,Não aplicável.,Não aplicável.,
"Prestação de Serviços para Substituição de sensor de oximetria de dedo completo para ventilador ADU, instalado no BO de Pediatria do CHLC, EPE - Hospital Dona Estefânia",Ajuste Direto Regime Geral,Aquisição de serviços,"98390000-3, Outros serviços",Centro Hospitalar de Lisboa Central E.P.E. (508080142),IBERDATA (501904921),"272,95 €",19-03-2013,07-03-2013,15 dias,"Portugal, Lisboa, Lisboa","Artigo 24.º, n.º 1, alínea e) do Código dos Contratos Públicos",,,,,,Não aplicável.,Não aplicável.,
"Prestação de Serviços de Reparação com Substituição de Peças no CHLC, EPE - Hospital Dona Estefânia",Ajuste Direto Regime Geral,Aquisição de serviços,"98390000-3, Outros serviços",Centro Hospitalar de Lisboa Central E.P.E. (508080142),ALARTECNICA (503295787),"675,80 €",19-03-2013,07-03-2013,1 dias,"Portugal, Lisboa, Lisboa","Artigo 24.º, n.º 1, alínea e) do Código dos Contratos Públicos",,,,,,Não aplicável.,Não aplicável.,
"Prestação de Serviços de Reparações diversas com Fornecimento e Aplicação de Peças no CHLC, EPE - Hospital São José",Ajuste Direto Regime Geral,Aquisição de serviços,"98300000-6, Serviços diversos",Centro Hospitalar de Lisboa Central E.P.E. (508080142),SUCH (500900469),"4.263,49 €",19-03-2013,07-03-2013,1 dias,"Portugal, Lisboa, Lisboa","Artigo 24.º, n.º 1, alínea c) do Código dos Contratos Públicos",,,,,,Não aplicável.,Não aplicável.,
"Prestação de Serviços de Reparações Diversas com Fornecimento e Aplicação de Peças no CHLC, EPE - Hospital Dona Estefânia",Ajuste Direto Regime Geral,Aquisição de serviços,"98300000-6, Serviços diversos",Centro Hospitalar de Lisboa Central E.P.E. (508080142),EFACEC (502700823),"541,12 €",19-03-2013,07-03-2013,1 dias,"Portugal, Lisboa, Lisboa","Artigo 24.º, n.º 1, alínea c) do Código dos Contratos Públicos",,,,,,Não aplicável.,Não aplicável.,
"Prestação de Serviços de Reparação com Substituição de Peças dos Equipamentos do CHLC, EPE - Hospital dos Capuchos",Ajuste Direto Regime Geral,Aquisição de serviços,"98390000-3, Outros serviços",Centro Hospitalar de Lisboa Central E.P.E. (508080142),Medicinalia-Cormedica (500684324),"211,00 €",19-03-2013,07-03-2013,15 dias,"Portugal, Lisboa, Lisboa","Artigo 24.º, n.º 1, alínea e) do Código dos Contratos Públicos",,,,,,Não aplicável.,Não aplicável.,
"Prestação de Serviços de Fornecimento e Montagem de um Sistema de Detecção de Incêndios para o CHLC, EPE - Hospital São José",Ajuste Direto Regime Geral,Aquisição de serviços,"98390000-3, Outros serviços",Centro Hospitalar de Lisboa Central E.P.E. (508080142),Such-Dalkia (503718289),"1.394,57 €",19-03-2013,07-03-2013,30 dias,"Portugal, Lisboa, Lisboa","Artigo 24.º, n.º 1, alínea c) do Código dos Contratos Públicos",,,,,,Não aplicável.,Não aplicável.,
Aquisição de  720 saquetas de Cassia  Angustifolia + Ispagula + Plantago Ovata Gran. Saq.,Ajuste Direto Regime Geral,Aquisição de bens móveis,"33000000-0, Equipamento médico, medicamentos e produtos para cuidados pessoais",Centro Hospitalar de Lisboa Central E.P.E. (508080142),Overpharma  Produtos Médicos e  Farmacêuticos (505792362),"5.112,00 €",18-03-2013,18-03-2013,288 dias,"Portugal, Lisboa, Lisboa","Artigo 24.º, n.º 1, alínea e) do Código dos Contratos Públicos",,,,,,Não aplicável.,Não aplicável.,
"Prestação de Serviços para Montagem de Andaime na Fachada Lateral das Consultas Externas do CHLC, EPE - Hospital Santa Marta",Ajuste Direto Regime Geral,Aquisição de serviços,"98390000-3, Outros serviços",Centro Hospitalar de Lisboa Central E.P.E. (508080142),BRITUBO (504281640),"6.440,00 €",18-03-2013,29-11-2012,180 dias,"Portugal, Lisboa, Lisboa","Artigo 24.º, n.º 1, alínea c) do Código dos Contratos Públicos",,,,,,Não aplicável.,Não aplicável.,
"Obras de Beneficiação do Vestiário do Edifício Dom Pedro V do CHLC, EPE - Hospital Dona Estefânia",Ajuste Direto Regime Geral,Empreitadas de obras públicas,"45000000-7, Construção",Centro Hospitalar de Lisboa Central E.P.E. (508080142),OMEP (502022469),"13.821,56 €",18-03-2013,15-03-2013,30 dias,"Portugal, Lisboa, Lisboa","Artigo 19.º, alínea a) do Código dos Contratos Públicos",,,,,,Não aplicável.,Não aplicável.,
Aquisição de Matérias Primas para 2013.,Ajuste Direto Regime Geral,Aquisição de bens móveis,"33000000-0, Equipamento médico, medicamentos e produtos para cuidados pessoais",Centro Hospitalar de Lisboa Central E.P.E. (508080142),"José Manuel Gomes dos Santos, Lda. (501399224), Proclínica-Equipamentos e Produtos Clínicos, Lda. (500222665), VWR Internacional - Material de Laboratório, Lda. (503842770), Normax-Fábrica de Vidros Científicos, Lda. (500203130)","20.407,64 €",18-03-2013,12-02-2013,322 dias,"Portugal, Lisboa, Lisboa","Artigo 20.º, n.º 1, alínea a) do Código dos Contratos Públicos",,,,,,Não aplicável.,Não aplicável.,
"Aquisição de diverso material para 2013-Serviço de Nefrologia, UT do CHLC-HCC",Ajuste Direto Regime Geral,Aquisição de bens móveis,"33140000-3, Material médico de consumo",Centro Hospitalar de Lisboa Central E.P.E. (508080142),"FRESENIUS MEDICAL CARE LDA (503070220), Medinfar-Sorológico - Produtos e Equipamentos, S.A (501197052)","34.206,00 €",18-03-2013,18-03-2013,288 dias,"Portugal, Lisboa, Lisboa","Artigo 20.º, n.º 1, alínea a) do Código dos Contratos Públicos",,,,,,Não aplicável.,Não aplicável.,
"Aquisição de respiradores de particulas, para 2013",Ajuste Direto Regime Geral,Aquisição de bens móveis,"33157400-9, Respiradores para fins médicos",Centro Hospitalar de Lisboa Central E.P.E. (508080142),"UP MEDICAL, LDA (506921069), BASTOS VIEGAS, SA (500042772), PERGUT PORTUGAL LDA (501799729)","50.624,64 €",18-03-2013,05-03-2013,300 dias,"Portugal, Lisboa, Lisboa",Artigo 258.º do Código dos Contratos Públicos,,,,,,Não aplicável.,Não aplicável.,
Aquisição de Material de Consumo Clínico,Ajuste Direto Regime Geral,Aquisição de bens móveis,"33141119-7, Compressas",Centro Hospitalar de Lisboa Central E.P.E. (508080142),"Albino Dias de Andrade, Lda (500013810)","1.891,89 €",15-03-2013,15-03-2013,30 dias,"Portugal, Lisboa, Lisboa","Artigo 24.º, n.º 1, alínea c) do Código dos Contratos Públicos",,,,,,Não aplicável.,Não aplicável.,
"Aquisição de sulfato de condroitina 2% p/ inst. vesical, fr. 20ml",Ajuste Direto Regime Geral,Aquisição de bens móveis,"33000000-0, Equipamento médico, medicamentos e produtos para cuidados pessoais",Centro Hospitalar de Lisboa Central E.P.E. (508080142),"Companhia Portuguesa Higiene Pharma - Produtos Farmacêuticos, Sa (500069190)","12.050,00 €",15-03-2013,15-03-2013,292 dias,"Portugal, Lisboa, Lisboa","Artigo 20.º, n.º 1, alínea a) do Código dos Contratos Públicos",,,,,,Não aplicável.,Não aplicável.,
Aquisição de Moroctocog alfa 250UI pó sol inj fr IV,Ajuste Direto Regime Geral,Aquisição de bens móveis,"33000000-0, Equipamento médico, medicamentos e produtos para cuidados pessoais",Centro Hospitalar de Lisboa Central E.P.E. (508080142),"Laboratórios Pfizer, Lda. (500162166)","20.698,80 €",15-03-2013,11-03-2013,292 dias,"Portugal, Lisboa, Lisboa","Artigo 24.º, n.º 1, alínea e) do Código dos Contratos Públicos",,,,,,Não aplicável.,Não aplicável.,
Aquisição de tesouras ultra-sónicas para cirurgia laparoscópica,Ajuste Direto Regime Geral,Aquisição de bens móveis,"33140000-3, Material médico de consumo",Centro Hospitalar de Lisboa Central E.P.E. (508080142),"Johnson & Johnson, Lda (500153370)","46.980,00 €",15-03-2013,15-03-2013,20 dias,"Portugal, Lisboa, Lisboa","Artigo 24.º, n.º 1, alínea c) do Código dos Contratos Públicos",,,,,,Não aplicável.,Não aplicável.,
Material de Consumo Clínico,Ajuste Direto Regime Geral,Aquisição de bens móveis,"33140000-3, Material médico de consumo",Centro Hospitalar de Lisboa Central E.P.E. (508080142),SARSTEDT - TECNOLOGIA LABOR. (503019461),"9.147,00 €",15-03-2013,14-03-2013,30 dias,"Portugal, Lisboa","Artigo 24.º, n.º 1, alínea c) do Código dos Contratos Públicos",,,,,,Não aplicável.,Não aplicável.,
Aquisição de Material de Consumo Clínico,Ajuste Direto Regime Geral,Aquisição de bens móveis,"33141000-0, Material médico não químico descartável e produtos hematológicos",Centro Hospitalar de Lisboa Central E.P.E. (508080142),"Vygon - Produtos Médicos e Farmacêuticos, Lda (503232785)","11.104,85 €",15-03-2013,13-03-2013,30 dias,"Portugal, Lisboa, Lisboa","Artigo 24.º, n.º 1, alínea c) do Código dos Contratos Públicos",,,,,,Não aplicável.,Não aplicável.,
MATERIAL DE CONSUMO CLÍNICO,Ajuste Direto Regime Geral,Aquisição de bens móveis,"33140000-3, Material médico de consumo",Centro Hospitalar de Lisboa Central E.P.E. (508080142),BASTOS VIEGAS (500042772),"32.814,60 €",15-03-2013,08-03-2013,30 dias,"Portugal, Lisboa, Lisboa","Artigo 24.º, n.º 1, alínea c) do Código dos Contratos Públicos",,,,,,Não aplicável.,Não aplicável.,
Material de osteossíntese,Ajuste Direto Regime Geral,Aquisição de bens móveis,"33184100-4, Implantes cirúrgicos",Centro Hospitalar de Lisboa Central E.P.E. (508080142),Biomet Portugal (500254990),"27.322,81 €",15-03-2013,14-02-2013,1 dias,"Portugal, Lisboa, Lisboa","Artigo 24.º, n.º 1, alínea c) do Código dos Contratos Públicos",,,,,,Não aplicável.,Não aplicável.,
Aquisição de Material de Consumo Clínico,Ajuste Direto Regime Geral,Aquisição de bens móveis,"33141000-0, Material médico não químico descartável e produtos hematológicos",Centro Hospitalar de Lisboa Central E.P.E. (508080142),Lineamédica - Dispositos Médico-Cirurgico S.A. (505148676),"1.309,50 €",14-03-2013,12-03-2013,30 dias,"Portugal, Lisboa, Lisboa","Artigo 24.º, n.º 1, alínea c) do Código dos Contratos Públicos",,,,,,Não aplicável.,Não aplicável.,
Aquisição de Material de Consumo Clínico,Ajuste Direto Regime Geral,Aquisição de bens móveis,"33141119-7, Compressas",Centro Hospitalar de Lisboa Central E.P.E. (508080142),"Albino Dias de Andrade, Lda (500013810)","14.554,46 €",14-03-2013,18-02-2013,30 dias,"Portugal, Lisboa, Lisboa","Artigo 24.º, n.º 1, alínea c) do Código dos Contratos Públicos",,,,,,Não aplicável.,Não aplicável.,
Aquisição de Material de Consumo Clínico,Ajuste Direto Regime Geral,Aquisição de bens móveis,"33141000-0, Material médico não químico descartável e produtos hematológicos",Centro Hospitalar de Lisboa Central E.P.E. (508080142),"Kvtech Portugal - Produtos Médicos Unipessoal, Lda (508671531)","246,00 €",14-03-2013,13-03-2013,30 dias,"Portugal, Lisboa, Lisboa","Artigo 24.º, n.º 1, alínea c) do Código dos Contratos Públicos",,,,,,Não aplicável.,Não aplicável.,
Aquisição de Material de Consumo Clínico,Ajuste Direto Regime Geral,Aquisição de bens móveis,"33141000-0, Material médico não químico descartável e produtos hematológicos",Centro Hospitalar de Lisboa Central E.P.E. (508080142),"Vacuette Portugal, Importação e Exportação de Material Hospitalar, S. A. (505348470)","349,20 €",14-03-2013,13-03-2013,30 dias,"Portugal, Lisboa, Lisboa","Artigo 24.º, n.º 1, alínea c) do Código dos Contratos Públicos",,,,,,Não aplicável.,Não aplicável.,
Material de osteossíntese,Ajuste Direto Regime Geral,Aquisição de bens móveis,"33184100-4, Implantes cirúrgicos",Centro Hospitalar de Lisboa Central E.P.E. (508080142),Biomet Portugal (500254990),"19.092,40 €",14-03-2013,13-03-2013,1 dias,"Portugal, Lisboa, Lisboa","Artigo 24.º, n.º 1, alínea c) do Código dos Contratos Públicos",,,,,,Não aplicável.,Não aplicável.,
Aquisição de Material de Consumo Clínico,Ajuste Direto Regime Geral,Aquisição de bens móveis,"33141000-0, Material médico não químico descartável e produtos hematológicos",Centro Hospitalar de Lisboa Central E.P.E. (508080142),Factor Plus - Produtos Médicos e Hospitalares (502810645),"17.477,00 €",14-03-2013,13-03-2013,30 dias,"Portugal, Lisboa, Lisboa","Artigo 24.º, n.º 1, alínea c) do Código dos Contratos Públicos",,,,,,Não aplicável.,Não aplicável.,
Próteses de anca e de ombro e parafusos e barras para coluna,Ajuste Direto Regime Geral,Aquisição de bens móveis,"33184100-4, Implantes cirúrgicos",Centro Hospitalar de Lisboa Central E.P.E. (508080142),Johnson & Johnson (500153370),"60.555,00 €",14-03-2013,13-03-2013,1 dias,"Portugal, Lisboa, Lisboa","Artigo 24.º, n.º 1, alínea c) do Código dos Contratos Públicos",,,,,,Não aplicável.,Não aplicável.,
Aquisição de Material de Consumo Clínico,Ajuste Direto Regime Geral,Aquisição de bens móveis,"33140000-3, Material médico de consumo",Centro Hospitalar de Lisboa Central E.P.E. (508080142),"Anastácio Saldanha, Unipessoal Lda (505804441)","4.935,34 €",14-03-2013,13-03-2013,30 dias,"Portugal, Lisboa, Lisboa","Artigo 24.º, n.º 1, alínea c) do Código dos Contratos Públicos",,,,,,Não aplicável.,Não aplicável.,
Acetábulo de retenção e parafusos,Ajuste Direto Regime Geral,Aquisição de bens móveis,"33184100-4, Implantes cirúrgicos",Centro Hospitalar de Lisboa Central E.P.E. (508080142),BoneCare (505899914),"10.279,00 €",14-03-2013,13-03-2013,1 dias,"Portugal, Lisboa, Lisboa","Artigo 24.º, n.º 1, alínea c) do Código dos Contratos Públicos",,,,,,Não aplicável.,Não aplicável.,
Aquisição de Material de Consumo Clínico,Ajuste Direto Regime Geral,Aquisição de bens móveis,"33140000-3, Material médico de consumo",Centro Hospitalar de Lisboa Central E.P.E. (508080142),Teleflex Medical S. A. (980249783),"63,00 €",14-03-2013,13-03-2013,30 dias,"Portugal, Lisboa, Lisboa","Artigo 24.º, n.º 1, alínea c) do Código dos Contratos Públicos",,,,,,Não aplicável.,Não aplicável.,
Aquisição de etiquetas,Ajuste Direto Regime Geral,Aquisição de bens móveis,"30192800-9, Etiquetas autocolantes",Centro Hospitalar de Lisboa Central E.P.E. (508080142),"Pergaminho Dourado Unipessoal,Lda (509136591), Burotica Sociedade de Estudos e Equipamentos Automaticos (501178503), DataLabel Portugal, Lda (506448967)","11.888,00 €",14-03-2013,14-03-2013,270 dias,"Portugal, Lisboa, Lisboa","Artigo 20.º, n.º 1, alínea a) do Código dos Contratos Públicos",,,,,,Não aplicável.,Não aplicável.,
Prótese de revisão do joelho,Ajuste Direto Regime Geral,Aquisição de bens móveis,"33184100-4, Implantes cirúrgicos",Centro Hospitalar de Lisboa Central E.P.E. (508080142),Smith & Nephew (503552461),"7.700,00 €",14-03-2013,12-03-2013,1 dias,"Portugal, Lisboa, Lisboa","Artigo 24.º, n.º 1, alínea e) do Código dos Contratos Públicos",,,,,,Não aplicável.,Não aplicável.,
Material de osteossíntese,Ajuste Direto Regime Geral,Aquisição de bens móveis,"33184100-4, Implantes cirúrgicos",Centro Hospitalar de Lisboa Central E.P.E. (508080142),Synthes (501212191),"13.243,62 €",14-03-2013,12-03-2013,1 dias,"Portugal, Lisboa, Lisboa","Artigo 24.º, n.º 1, alínea c) do Código dos Contratos Públicos",,,,,,Não aplicável.,Não aplicável.,
Material de osteossíntese,Ajuste Direto Regime Geral,Aquisição de bens móveis,"33184100-4, Implantes cirúrgicos",Centro Hospitalar de Lisboa Central E.P.E. (508080142),MBA Portugal (504445960),"10.960,84 €",14-03-2013,12-03-2013,1 dias,"Portugal, Lisboa, Lisboa","Artigo 24.º, n.º 1, alínea c) do Código dos Contratos Públicos",,,,,,Não aplicável.,Não aplicável.,
Material de osteossíntese para coluna,Ajuste Direto Regime Geral,Aquisição de bens móveis,"33184100-4, Implantes cirúrgicos",Centro Hospitalar de Lisboa Central E.P.E. (508080142),Zimmer (980151716),"13.510,00 €",14-03-2013,12-03-2013,1 dias,"Portugal, Lisboa, Lisboa","Artigo 24.º, n.º 1, alínea c) do Código dos Contratos Públicos",,,,,,Não aplicável.,Não aplicável.,
"Prótses de anca, parafusos e placas",Ajuste Direto Regime Geral,Aquisição de bens móveis,"33184100-4, Implantes cirúrgicos",Centro Hospitalar de Lisboa Central E.P.E. (508080142),Lima Implantes Portugal (508634784),"6.195,00 €",14-03-2013,12-03-2013,1 dias,"Portugal, Lisboa, Lisboa","Artigo 24.º, n.º 1, alínea c) do Código dos Contratos Públicos",,,,,,Não aplicável.,Não aplicável.,
"Fornecimento de pinças laparoscopias descartáveis para o CHLC, E.P.E..",Ajuste Direto Regime Geral,Aquisição de bens móveis,"33140000-3, Material médico de consumo",Centro Hospitalar de Lisboa Central E.P.E. (508080142),"COVIDIEN PORTUGAL, UNIPESSOAL, LDA (503413410)","26.190,00 €",13-03-2013,13-03-2013,20 dias,"Portugal, Lisboa, Lisboa","Artigo 24.º, n.º 1, alínea c) do Código dos Contratos Públicos",,,,,,Não aplicável.,Não aplicável.,
"Aquisição de serviços para a manutenção do Sistema de Gestão da Qualidade no Serviço de Hematologia do CHLC,EPE",Ajuste Direto Regime Geral,Aquisição de serviços,"72225000-8, Serviços de análise e avaliação em matéria de garantias da qualidade dos sistemas",Centro Hospitalar de Lisboa Central E.P.E. (508080142),"B.I.E Q-Consultores de Engenharia e Gestão Industrial, Lda. (504105337)","7.200,00 €",13-03-2013,08-02-2013,365 dias,"Portugal, Lisboa, Lisboa","Artigo 20.º, n.º 1, alínea a) do Código dos Contratos Públicos",,,,,,Não aplicável.,Não aplicável.,
"Prestação de serviços referente á reparação de material médico cirúrgico do CHLC,EPE",Ajuste Direto Regime Geral,Aquisição de serviços,"50420000-5, Serviços de reparação e manutenção de equipamento médico e cirúrgico",Centro Hospitalar de Lisboa Central E.P.E. (508080142),"M.M. Cunha, Lda. (507374843)","861,29 €",13-03-2013,01-03-2013,8 dias,"Portugal, Lisboa, Lisboa","Artigo 24.º, n.º 1, alínea c) do Código dos Contratos Públicos",,,,,,Não aplicável.,Não aplicável.,
"Aquisição de Serviços de Engenheiro Físico para a Área de Saúde Ocupacional do CHLC,EPE",Ajuste Direto Regime Geral,Aquisição de serviços,"90721600-3, Serviços de radioprotecção",Centro Hospitalar de Lisboa Central E.P.E. (508080142),Catarina Alexandra Soares Simões (211581410),"14.829,38 €",13-03-2013,18-02-2013,365 dias,"Portugal, Lisboa, Lisboa","Artigo 20.º, n.º 1, alínea a) do Código dos Contratos Públicos",,,,,,Não aplicável.,Não aplicável.,
Aquisição de Anticorpos Antidigoxina 38mg Pó Sol. Inj.,Ajuste Direto Regime Geral,Aquisição de bens móveis,"33000000-0, Equipamento médico, medicamentos e produtos para cuidados pessoais",Centro Hospitalar de Lisboa Central E.P.E. (508080142),"Etiopharma, S.A (509393357)","18.720,00 €",13-03-2013,13-03-2013,293 dias,"Portugal, Lisboa, Lisboa","Artigo 24.º, n.º 1, alínea e) do Código dos Contratos Públicos",,,,,,Não aplicável.,Não aplicável.,
Aquisição de reagentes e demais bens necessários para a realização de análises para Auto-imunidade,Concurso público,Aquisição de bens móveis,"24000000-4, Produtos químicos",Centro Hospitalar de Lisboa Central E.P.E. (508080142),"ARIUM-SISTEMAS DE DIAGNOSTICO (502501880), ISODER (502241594), BIO-RAD (501301321), GRIFOLS (502041285), IZASA (501086110)","380.992,88 €",13-03-2013,05-03-2013,302 dias,"Portugal, Lisboa, Lisboa","Artigo 20.º, n.º 1, alínea b) do Código dos Contratos Públicos",,,,,,Não aplicável.,Não aplicável.,
Aquisição de Lactitol 10g Pó Sol. Oral Saq.,Ajuste Direto Regime Geral,Aquisição de bens móveis,"33000000-0, Equipamento médico, medicamentos e produtos para cuidados pessoais",Centro Hospitalar de Lisboa Central E.P.E. (508080142),"Angelini Farmacêutica, Lda (500583650)","6.854,40 €",13-03-2013,13-03-2013,293 dias,"Portugal, Lisboa, Lisboa","Artigo 24.º, n.º 1, alínea e) do Código dos Contratos Públicos",,,,,,Não aplicável.,Não aplicável.,
Aquisição de Eritromicina 1000mg Pó Sol Inj Fr IV,Ajuste Direto Regime Geral,Aquisição de bens móveis,"33000000-0, Equipamento médico, medicamentos e produtos para cuidados pessoais",Centro Hospitalar de Lisboa Central E.P.E. (508080142),"Labesfal-Laboratórios Almiro, SA. (501169580)","18.850,00 €",13-03-2013,13-03-2013,294 dias,"Portugal, Lisboa, Lisboa","Artigo 20.º, n.º 1, alínea a) do Código dos Contratos Públicos",,,,,,Não aplicável.,Não aplicável.,
240 capsulas de Aprepitant 125mg caps,Ajuste Direto Regime Geral,Aquisição de bens móveis,"33000000-0, Equipamento médico, medicamentos e produtos para cuidados pessoais",Centro Hospitalar de Lisboa Central E.P.E. (508080142),Merck Sharp $ Dohme (500191360),"7.497,17 €",13-03-2013,06-03-2013,300 dias,"Portugal, Lisboa, Lisboa","Artigo 24.º, n.º 1, alínea e) do Código dos Contratos Públicos",,,,,,Não aplicável.,Não aplicável.,
Aquisição de Bexaroteno 75mg caps,Ajuste Direto Regime Geral,Aquisição de bens móveis,"33000000-0, Equipamento médico, medicamentos e produtos para cuidados pessoais",Centro Hospitalar de Lisboa Central E.P.E. (508080142),"EF - Eisai Farmacêutica, Unipessoal, Lda. (507847660)","62.562,64 €",13-03-2013,28-02-2013,294 dias,"Portugal, Lisboa, Lisboa","Artigo 20.º, n.º 1, alínea a) do Código dos Contratos Públicos",,,,,,Não aplicável.,Não aplicável.,
Aquisição de Droperidol 5mg/2ml sol inj fr 2ml IM IV,Ajuste Direto Regime Geral,Aquisição de bens móveis,"33000000-0, Equipamento médico, medicamentos e produtos para cuidados pessoais",Centro Hospitalar de Lisboa Central E.P.E. (508080142),"Laboratórios Vitória, SA (500162220)","11.200,00 €",12-03-2013,05-03-2013,295 dias,"Portugal, Lisboa, Lisboa","Artigo 20.º, n.º 1, alínea a) do Código dos Contratos Públicos",,,,,,Não aplicável.,Não aplicável.,
Aquisição de Deferriprona 500mg comp,Ajuste Direto Regime Geral,Aquisição de bens móveis,"33000000-0, Equipamento médico, medicamentos e produtos para cuidados pessoais",Centro Hospitalar de Lisboa Central E.P.E. (508080142),"Profarin Dist Produtos Farmacêuticos Industriais, Lda (500223238)","13.500,00 €",12-03-2013,28-02-2013,295 dias,"Portugal, Lisboa, Lisboa","Artigo 20.º, n.º 1, alínea a) do Código dos Contratos Públicos",,,,,,Não aplicável.,Não aplicável.,
