Objeto do Contrato,Tipo de Procedimento,Tipo(s) de Contrato,CPVs,Entidade(s) Adjudicante(s),Entidade(s) Adjudicatária(s),Preço Contratual,Data de Publicação,Data de Celebração do Contrato,Prazo de Execução,Local de Execução,Fundamentação,Data de Fecho do Contrato,Preço Total Efetivo,Causas das Alterações ao Prazo,Causas das Alterações ao Preço,Estado,N.º registo do Acordo Quadro,Descrição do Acordo Quadro,Procedimento Centralizado
TRANSFERES PARA FLUIDOTERAPIA,Ajuste Direto Regime Geral,Aquisição de bens móveis,"33000000-0, Equipamento médico, medicamentos e produtos para cuidados pessoais","Instituto Português de Oncologia de Coimbra Francisco Gentil, E. P. E. (506361438)",BAXTER  (503347345),"1.320,00 €",11-09-2018,20-01-2017,365 dias,"Portugal, Coimbra, Coimbra","Artigo 20.º, n.º 1, alínea a) do Código dos Contratos Públicos",31-12-2017,"",,Sem fornecimento.,,Não aplicável.,Não aplicável.,FALSE
TRANSFERES PARA FLUIDOTERAPIA,Ajuste Direto Regime Geral,Aquisição de bens móveis,"33000000-0, Equipamento médico, medicamentos e produtos para cuidados pessoais","Instituto Português de Oncologia de Coimbra Francisco Gentil, E. P. E. (506361438)","B. Braun Medical, Lda (501506543)","9.810,00 €",11-09-2018,20-01-2017,365 dias,"Portugal, Coimbra, Coimbra","Artigo 20.º, n.º 1, alínea a) do Código dos Contratos Públicos",09-11-2017,"10.791,01 €",,necessidade do aumento das quantidades consumidas em virtude do número de doentes.,,Não aplicável.,Não aplicável.,FALSE
SISTEMA DE ENCHIMENTO INFUSORES,Ajuste Direto Regime Geral,Aquisição de bens móveis,"33000000-0, Equipamento médico, medicamentos e produtos para cuidados pessoais","Instituto Português de Oncologia de Coimbra Francisco Gentil, E. P. E. (506361438)","Grifols Portugal, Lda. (502041285)","6.588,50 €",11-09-2018,02-12-2016,365 dias,"Portugal, Coimbra, Coimbra","Artigo 20.º, n.º 1, alínea a) do Código dos Contratos Públicos",14-11-2017,"6.381,10 €",,Diminuição das quantidades,,Não aplicável.,Não aplicável.,FALSE
SISTEMAS ADM. FLUIDOS,Ajuste Direto Regime Geral,Aquisição de bens móveis,"33000000-0, Equipamento médico, medicamentos e produtos para cuidados pessoais","Instituto Português de Oncologia de Coimbra Francisco Gentil, E. P. E. (506361438)",BAXTER MEDICO FARMACEUTICA LDA (503347345),"210,00 €",11-09-2018,23-12-2016,365 dias,"Portugal, Coimbra, Coimbra","Artigo 20.º, n.º 1, alínea a) do Código dos Contratos Públicos",28-11-2017,"140,00 €",,Diminuição das quantidades,,Não aplicável.,Não aplicável.,FALSE
SISTEMAS ADM. FLUIDOS,Ajuste Direto Regime Geral,Aquisição de bens móveis,"33000000-0, Equipamento médico, medicamentos e produtos para cuidados pessoais","Instituto Português de Oncologia de Coimbra Francisco Gentil, E. P. E. (506361438)","Nutricia Advanced Medical Nutrition Unupessoal, Lda. (507558286)","80,00 €",10-09-2018,23-12-2016,365 dias,"Portugal, Coimbra, Coimbra","Artigo 20.º, n.º 1, alínea a) do Código dos Contratos Públicos",19-05-2017,"96,00 €",,aumento das quantidades consumidas em virtude do número de doentes.,,Não aplicável.,Não aplicável.,FALSE
SISTEMAS ADM. FLUIDOS,Ajuste Direto Regime Geral,Aquisição de bens móveis,"33000000-0, Equipamento médico, medicamentos e produtos para cuidados pessoais","Instituto Português de Oncologia de Coimbra Francisco Gentil, E. P. E. (506361438)",CAREFUSION (503898554),"25.059,10 €",10-09-2018,23-12-2016,365 dias,"Portugal, Coimbra, Coimbra","Artigo 20.º, n.º 1, alínea a) do Código dos Contratos Públicos",14-12-2017,"5.810,00 €",,necessidade do aumento das quantidades consumidas em virtude do número de doentes.,,Não aplicável.,Não aplicável.,FALSE
SACOS COLECTORES E SISTEMAS PARA IRRIGAÇÃO,Ajuste Direto Regime Geral,Aquisição de bens móveis,"33000000-0, Equipamento médico, medicamentos e produtos para cuidados pessoais","Instituto Português de Oncologia de Coimbra Francisco Gentil, E. P. E. (506361438)","PMH PRODUTOS MEDIC. HOSPITAL, SA (502376899)","9.336,50 €",10-09-2018,02-01-2017,365 dias,"Portugal, Coimbra, Coimbra","Artigo 20.º, n.º 1, alínea a) do Código dos Contratos Públicos",13-12-2017,"14.809,43 €",,necessidade do aumento das quantidades consumidas em virtude do número de doentes.,,Não aplicável.,Não aplicável.,FALSE
SACOS COLECTORES E SISTEMAS PARA IRRIGAÇÃO,Ajuste Direto Regime Geral,Aquisição de bens móveis,"33000000-0, Equipamento médico, medicamentos e produtos para cuidados pessoais","Instituto Português de Oncologia de Coimbra Francisco Gentil, E. P. E. (506361438)",MED X - RAY SISTEMAS MEDICOS (506187071),"376,50 €",10-09-2018,02-01-2017,365 dias,"Portugal, Coimbra, Coimbra","Artigo 20.º, n.º 1, alínea a) do Código dos Contratos Públicos",08-08-2017,"331,32 €",,Diminuição das quantidades,,Não aplicável.,Não aplicável.,FALSE
SACOS COLECTORES E SISTEMAS PARA IRRIGAÇÃO,Ajuste Direto Regime Geral,Aquisição de bens móveis,"33000000-0, Equipamento médico, medicamentos e produtos para cuidados pessoais","Instituto Português de Oncologia de Coimbra Francisco Gentil, E. P. E. (506361438)","EZEQUIEL PANÃO JORGE, LDA (501412727)","1.496,50 €",10-09-2018,02-01-2017,365 dias,"Portugal, Coimbra, Coimbra","Artigo 20.º, n.º 1, alínea a) do Código dos Contratos Públicos",12-12-2017,"2.574,00 €",,necessidade do aumento das quantidades consumidas em virtude do número de doentes.,,Não aplicável.,Não aplicável.,FALSE
SACOS COLECTORES E SISTEMAS PARA IRRIGAÇÃO,Ajuste Direto Regime Geral,Aquisição de bens móveis,"33000000-0, Equipamento médico, medicamentos e produtos para cuidados pessoais","Instituto Português de Oncologia de Coimbra Francisco Gentil, E. P. E. (506361438)",Teprel (502262184),"194,40 €",10-09-2018,02-01-2017,365 dias,"Portugal, Coimbra, Coimbra","Artigo 20.º, n.º 1, alínea a) do Código dos Contratos Públicos",31-12-2017,"",,Sem fornecimento.,,Não aplicável.,Não aplicável.,FALSE
SACOS COLECTORES E SISTEMAS PARA IRRIGAÇÃO,Ajuste Direto Regime Geral,Aquisição de bens móveis,"33000000-0, Equipamento médico, medicamentos e produtos para cuidados pessoais","Instituto Português de Oncologia de Coimbra Francisco Gentil, E. P. E. (506361438)",ENDOTECNICA MATERIAL CIRURGICO (503818348),"2.280,00 €",10-09-2018,02-01-2017,365 dias,"Portugal, Coimbra, Coimbra","Artigo 20.º, n.º 1, alínea a) do Código dos Contratos Públicos",05-12-2017,"820,80 €",,Diminuição das quantidades,,Não aplicável.,Não aplicável.,FALSE
SACOS COLECTORES E SISTEMAS PARA IRRIGAÇÃO,Ajuste Direto Regime Geral,Aquisição de bens móveis,"33000000-0, Equipamento médico, medicamentos e produtos para cuidados pessoais","Instituto Português de Oncologia de Coimbra Francisco Gentil, E. P. E. (506361438)","SARSTEDT - TECNOLOGIA DE LABORATORIO, S.A. (503019461)","54,70 €",10-09-2018,02-01-2017,365 dias,"Portugal, Coimbra, Coimbra","Artigo 20.º, n.º 1, alínea a) do Código dos Contratos Públicos",24-07-2017,"54,70 €",,Fornecimento de acordo com o previsto.,,Não aplicável.,Não aplicável.,FALSE
SACOS COLECTORES E SISTEMAS PARA IRRIGAÇÃO,Ajuste Direto Regime Geral,Aquisição de bens móveis,"33000000-0, Equipamento médico, medicamentos e produtos para cuidados pessoais","Instituto Português de Oncologia de Coimbra Francisco Gentil, E. P. E. (506361438)","Expomédica, Lda. (501886621)","525,00 €",10-09-2018,02-01-2017,365 dias,"Portugal, Coimbra, Coimbra","Artigo 20.º, n.º 1, alínea a) do Código dos Contratos Públicos",17-10-2017,"420,00 €",,Diminuição das quantidades,,Não aplicável.,Não aplicável.,FALSE
MATRIZES DÉRMICAS ACELULARES,Ajuste Direto Regime Geral,Aquisição de bens móveis,"33000000-0, Equipamento médico, medicamentos e produtos para cuidados pessoais","Instituto Português de Oncologia de Coimbra Francisco Gentil, E. P. E. (506361438)","Expomédica, Lda. (501886621)","31.000,00 €",10-09-2018,09-02-2017,365 dias,"Portugal, Coimbra, Coimbra","Artigo 20.º, n.º 1, alínea a) do Código dos Contratos Públicos",31-10-2017,"12.400,00 €",,Diminuição das quantidades,,Não aplicável.,Não aplicável.,FALSE
PULSEIRAS PARA IDENTIFICAÇÃO DE DOENTES,Ajuste Direto Regime Geral,Aquisição de bens móveis,"33000000-0, Equipamento médico, medicamentos e produtos para cuidados pessoais","Instituto Português de Oncologia de Coimbra Francisco Gentil, E. P. E. (506361438)","Burótica - Sociedade de Estudos e Equipamentos Automáticos de Escritório, S.A. (501178503)","8.664,00 €",10-09-2018,06-01-2017,365 dias,"Portugal, Coimbra, Coimbra","Artigo 20.º, n.º 1, alínea a) do Código dos Contratos Públicos",10-10-2017,"6.849,45 €",,Diminuição das quantidades,,Não aplicável.,Não aplicável.,FALSE
PRÓTESES MAMÁRIAS,Ajuste Direto Regime Geral,Aquisição de bens móveis,"33000000-0, Equipamento médico, medicamentos e produtos para cuidados pessoais","Instituto Português de Oncologia de Coimbra Francisco Gentil, E. P. E. (506361438)","Expomédica, Lda. (501886621)","131.325,00 €",10-09-2018,12-12-2016,365 dias,"Portugal, Coimbra, Coimbra","Artigo 20.º, n.º 1, alínea a) do Código dos Contratos Públicos",29-11-2017,"68.212,50 €",,Diminuição das quantidades,,Não aplicável.,Não aplicável.,FALSE
PRÓTESES FONATÓRIAS,Ajuste Direto Regime Geral,Aquisição de bens móveis,"33000000-0, Equipamento médico, medicamentos e produtos para cuidados pessoais","Instituto Português de Oncologia de Coimbra Francisco Gentil, E. P. E. (506361438)",ATOS MEDICAL SPAAIN SL-SUCURSAL EM PORTUGAL (980435978),"77.236,00 €",10-09-2018,14-12-2016,365 dias,"Portugal, Coimbra, Coimbra","Artigo 20.º, n.º 1, alínea a) do Código dos Contratos Públicos",21-12-2017,"91.998,00 €",,necessidade do aumento das quantidades consumidas em virtude do número de doentes.,,Não aplicável.,Não aplicável.,FALSE
PRÓTESES ESTOMATOLÓGICAS,Ajuste Direto Regime Geral,Aquisição de bens móveis,"33000000-0, Equipamento médico, medicamentos e produtos para cuidados pessoais","Instituto Português de Oncologia de Coimbra Francisco Gentil, E. P. E. (506361438)",MARIDENTE- LAB. DE PROT. DENTARIA LDA    (506960374),"3.149,53 €",10-09-2018,02-12-2016,365 dias,"Portugal, Coimbra, Coimbra","Artigo 20.º, n.º 1, alínea a) do Código dos Contratos Públicos",19-10-2017,"3.776,00 €",,necessidade do aumento das quantidades consumidas em virtude do número de doentes.,,Não aplicável.,Não aplicável.,FALSE
PINÇAS HEMOSTÁTICAS PARA SELADOR DE VASOS,Ajuste Direto Regime Geral,Aquisição de bens móveis,"33000000-0, Equipamento médico, medicamentos e produtos para cuidados pessoais","Instituto Português de Oncologia de Coimbra Francisco Gentil, E. P. E. (506361438)",MEDTRONIC PORTUGAL LDA (504223933),"119.100,00 €",10-09-2018,14-12-2016,365 dias,"Portugal, Coimbra, Coimbra","Artigo 20.º, n.º 1, alínea a) do Código dos Contratos Públicos",02-06-2017,"118.290,00 €",,Diminuição das quantidades,,Não aplicável.,Não aplicável.,FALSE
MATERIAL TÉCNICAS PNEUMOLOGIA,Ajuste Direto Regime Geral,Aquisição de bens móveis,"33000000-0, Equipamento médico, medicamentos e produtos para cuidados pessoais","Instituto Português de Oncologia de Coimbra Francisco Gentil, E. P. E. (506361438)",INTERSURGICAL (503480045),"39,00 €",07-09-2018,12-12-2016,365 dias,"Portugal, Coimbra, Coimbra","Artigo 20.º, n.º 1, alínea a) do Código dos Contratos Públicos",30-10-2017,"126,75 €",,necessidade do aumento das quantidades consumidas em virtude do número de doentes.,,Não aplicável.,Não aplicável.,FALSE
MATERIAL TÉCNICAS PNEUMOLOGIA,Ajuste Direto Regime Geral,Aquisição de bens móveis,"33000000-0, Equipamento médico, medicamentos e produtos para cuidados pessoais","Instituto Português de Oncologia de Coimbra Francisco Gentil, E. P. E. (506361438)",Sipaco Comercio Geral e Representações Lda (500749299),"663,50 €",07-09-2018,12-12-2016,365 dias,"Portugal, Coimbra, Coimbra","Artigo 20.º, n.º 1, alínea a) do Código dos Contratos Públicos",28-11-2017,"681,00 €",,necessidade do aumento das quantidades consumidas em virtude do número de doentes,,Não aplicável.,Não aplicável.,FALSE
MATERIAL TÉCNICAS PNEUMOLOGIA,Ajuste Direto Regime Geral,Aquisição de bens móveis,"33000000-0, Equipamento médico, medicamentos e produtos para cuidados pessoais","Instituto Português de Oncologia de Coimbra Francisco Gentil, E. P. E. (506361438)",Olympus Iberia S.A.U. (980474710),"15.029,08 €",07-09-2018,12-12-2016,365 dias,"Portugal, Coimbra, Coimbra","Artigo 20.º, n.º 1, alínea a) do Código dos Contratos Públicos",14-12-2017,"13.284,35 €",,diminuição das quantidades,,Não aplicável.,Não aplicável.,FALSE
MATERIAL TÉCNICAS PNEUMOLOGIA,Ajuste Direto Regime Geral,Aquisição de bens móveis,"33000000-0, Equipamento médico, medicamentos e produtos para cuidados pessoais","Instituto Português de Oncologia de Coimbra Francisco Gentil, E. P. E. (506361438)","PULMOCOR - EQUIPAMENTO MEDICO, LDA (501402578)","672,00 €",07-09-2018,12-12-2016,365 dias,"Portugal, Coimbra, Coimbra","Artigo 20.º, n.º 1, alínea a) do Código dos Contratos Públicos",27-12-2017,"1.140,00 €",,Necessidade de aumento das quantidades consumidas em virtude do número de doentes.,,Não aplicável.,Não aplicável.,FALSE
MATERIAL TÉCNICAS PNEUMOLOGIA,Ajuste Direto Regime Geral,Aquisição de bens móveis,"33000000-0, Equipamento médico, medicamentos e produtos para cuidados pessoais","Instituto Português de Oncologia de Coimbra Francisco Gentil, E. P. E. (506361438)",EPJMEDICA - ARTIGOS MÉDICOS HOSPITALARES (506820513),"289,45 €",07-09-2018,12-12-2016,365 dias,"Portugal, Coimbra, Coimbra","Artigo 20.º, n.º 1, alínea a) do Código dos Contratos Públicos",31-12-2017,"",,Sem fornecimento.,,Não aplicável.,Não aplicável.,FALSE
MATERIAL TÉCNICAS PNEUMOLOGIA,Ajuste Direto Regime Geral,Aquisição de bens móveis,"33000000-0, Equipamento médico, medicamentos e produtos para cuidados pessoais","Instituto Português de Oncologia de Coimbra Francisco Gentil, E. P. E. (506361438)","EZEQUIEL PANÃO JORGE, LDA (501412727)","212,80 €",07-09-2018,12-12-2016,365 dias,"Portugal, Coimbra, Coimbra","Artigo 20.º, n.º 1, alínea a) do Código dos Contratos Públicos",14-04-2017,"56,00 €",,Diminuição das quantidades,,Não aplicável.,Não aplicável.,FALSE
MATERIAL TÉCNICAS PNEUMOLOGIA,Ajuste Direto Regime Geral,Aquisição de bens móveis,"33000000-0, Equipamento médico, medicamentos e produtos para cuidados pessoais","Instituto Português de Oncologia de Coimbra Francisco Gentil, E. P. E. (506361438)","Vygon (Portugal), Lda (503232785)","369,00 €",07-09-2018,12-12-2016,365 dias,"Portugal, Coimbra, Coimbra","Artigo 20.º, n.º 1, alínea a) do Código dos Contratos Públicos",13-12-2017,"996,32 €",,Diminuição das quantidades.,,Não aplicável.,Não aplicável.,FALSE
MATERIAL TÉCNICAS GASTRENTEROLOGIA,Ajuste Direto Regime Geral,Aquisição de bens móveis,"33000000-0, Equipamento médico, medicamentos e produtos para cuidados pessoais","Instituto Português de Oncologia de Coimbra Francisco Gentil, E. P. E. (506361438)",Olympus Iberia S.A.U. (980474710),"9.206,34 €",07-09-2018,31-08-2017,365 dias,"Portugal, Coimbra, Coimbra","Artigo 20.º, n.º 1, alínea a) do Código dos Contratos Públicos",12-12-2017,"6.931,80 €",,Diminuição das quantidades,,Não aplicável.,Não aplicável.,FALSE
MATERIAL TÉCNICAS GASTRENTEROLOGIA,Ajuste Direto Regime Geral,Aquisição de bens móveis,"33000000-0, Equipamento médico, medicamentos e produtos para cuidados pessoais","Instituto Português de Oncologia de Coimbra Francisco Gentil, E. P. E. (506361438)","BOSTON SCIENTIFIC PORTUGAL, LDA (504988964)","2.040,00 €",07-09-2018,31-08-2017,365 dias,"Portugal, Coimbra, Coimbra","Artigo 20.º, n.º 1, alínea a) do Código dos Contratos Públicos",07-11-2017,"1.100,00 €",,Diminuição das quantidades,,Não aplicável.,Não aplicável.,FALSE
MATERIAL TÉCNICAS GASTRENTEROLOGIA,Ajuste Direto Regime Geral,Aquisição de bens móveis,"33000000-0, Equipamento médico, medicamentos e produtos para cuidados pessoais","Instituto Português de Oncologia de Coimbra Francisco Gentil, E. P. E. (506361438)","BASTOS VIEGAS, SA (500042772)","283,36 €",07-09-2018,31-08-2017,365 dias,"Portugal, Coimbra, Coimbra","Artigo 20.º, n.º 1, alínea a) do Código dos Contratos Públicos",13-12-2017,"77,02 €",,Diminuição das quantidades,,Não aplicável.,Não aplicável.,FALSE
MATERIAL TÉCNICAS GASTRENTEROLOGIA,Ajuste Direto Regime Geral,Aquisição de bens móveis,"33000000-0, Equipamento médico, medicamentos e produtos para cuidados pessoais","Instituto Português de Oncologia de Coimbra Francisco Gentil, E. P. E. (506361438)",CLINIFAR (503281115),"766,00 €",07-09-2018,31-08-2017,365 dias,"Portugal, Coimbra, Coimbra","Artigo 20.º, n.º 1, alínea a) do Código dos Contratos Públicos",07-11-2017,"766,00 €",,"",,Não aplicável.,Não aplicável.,FALSE
MATERIAL TÉCNICAS GASTRENTEROLOGIA,Ajuste Direto Regime Geral,Aquisição de bens móveis,"33000000-0, Equipamento médico, medicamentos e produtos para cuidados pessoais","Instituto Português de Oncologia de Coimbra Francisco Gentil, E. P. E. (506361438)","ALVES & COMPANHIA (IRMÃOS), LDA. (500310068)","4.202,75 €",07-09-2018,31-08-2017,365 dias,"Portugal, Coimbra, Coimbra","Artigo 20.º, n.º 1, alínea a) do Código dos Contratos Públicos",13-12-2017,"3.585,00 €",,Diminuição das quantidades,,Não aplicável.,Não aplicável.,FALSE
MATERIAL PARA CITOPATOLOGIA,Ajuste Direto Regime Geral,Aquisição de bens móveis,"33000000-0, Equipamento médico, medicamentos e produtos para cuidados pessoais","Instituto Português de Oncologia de Coimbra Francisco Gentil, E. P. E. (506361438)",HOLOGIC IBÉRICA (ES980277230),"39.579,60 €",07-09-2018,12-12-2016,365 dias,"Portugal, Coimbra, Coimbra","Artigo 20.º, n.º 1, alínea a) do Código dos Contratos Públicos",07-12-2017,"24.759,60 €",,Diminuição das quantidades,,Não aplicável.,Não aplicável.,FALSE
MATERIAL DE OSTOMIA NOVO,Ajuste Direto Regime Geral,Aquisição de bens móveis,"33000000-0, Equipamento médico, medicamentos e produtos para cuidados pessoais","Instituto Português de Oncologia de Coimbra Francisco Gentil, E. P. E. (506361438)",MULTIDEVICE (510205933),"6.806,00 €",07-09-2018,07-04-2017,365 dias,"Portugal, Coimbra, Coimbra","Artigo 20.º, n.º 1, alínea a) do Código dos Contratos Públicos",28-05-2017,"156,50 €",,Diminuição das quantidades,,Não aplicável.,Não aplicável.,FALSE
MATERIAL DE OSTOMIA NOVO,Ajuste Direto Regime Geral,Aquisição de bens móveis,"33000000-0, Equipamento médico, medicamentos e produtos para cuidados pessoais","Instituto Português de Oncologia de Coimbra Francisco Gentil, E. P. E. (506361438)","SP CARE, LDA (508284872)","4.051,00 €",07-09-2018,07-04-2017,365 dias,"Portugal, Coimbra, Coimbra","Artigo 20.º, n.º 1, alínea a) do Código dos Contratos Públicos",04-10-2017,"1.755,70 €",,Diminuição das quantidades,,Não aplicável.,Não aplicável.,FALSE
MATERIAL DE OSTOMIA NOVO,Ajuste Direto Regime Geral,Aquisição de bens móveis,"33000000-0, Equipamento médico, medicamentos e produtos para cuidados pessoais","Instituto Português de Oncologia de Coimbra Francisco Gentil, E. P. E. (506361438)","B. BRAUN MEDICAL, LDA (501506543)","4.520,50 €",07-09-2018,07-04-2017,365 dias,"Portugal, Coimbra, Coimbra","Artigo 20.º, n.º 1, alínea a) do Código dos Contratos Públicos",06-10-2017,"745,15 €",,Diminuição das quantidades,,Não aplicável.,Não aplicável.,FALSE
MATERIAL DE OSTOMIA RESPIRATÓRIA,Ajuste Direto Regime Geral,Aquisição de bens móveis,"33000000-0, Equipamento médico, medicamentos e produtos para cuidados pessoais","Instituto Português de Oncologia de Coimbra Francisco Gentil, E. P. E. (506361438)",ATOS MEDICAL SPAAIN SL-SUCURSAL EM PORTUGAL (980435978),"9.231,00 €",07-09-2018,02-12-2016,365 dias,"Portugal, Coimbra, Coimbra","Artigo 20.º, n.º 1, alínea a) do Código dos Contratos Públicos",12-12-2017,"11.738,78 €",,necessidade do aumento das quantidades consumidas em virtude do número de doentes.,,Não aplicável.,Não aplicável.,FALSE
MATERIAL DE OSTOMIA RESPIRATÓRIA,Ajuste Direto Regime Geral,Aquisição de bens móveis,"33000000-0, Equipamento médico, medicamentos e produtos para cuidados pessoais","Instituto Português de Oncologia de Coimbra Francisco Gentil, E. P. E. (506361438)","SMITHS MEDICAL PORTUGAL UNIPESSOAL, LDA (507445937)","2.432,00 €",07-09-2018,02-12-2016,365 dias,"Portugal, Coimbra, Coimbra","Artigo 20.º, n.º 1, alínea a) do Código dos Contratos Públicos",08-11-2017,"1.486,59 €",,Diminuição das quantidades,,Não aplicável.,Não aplicável.,FALSE
MATERIAL DE OSTOMIA RESPIRATÓRIA,Ajuste Direto Regime Geral,Aquisição de bens móveis,"33000000-0, Equipamento médico, medicamentos e produtos para cuidados pessoais","Instituto Português de Oncologia de Coimbra Francisco Gentil, E. P. E. (506361438)",INDAS PORTUGAL LDA (503505196),"810,00 €",07-09-2018,02-12-2016,365 dias,"Portugal, Coimbra, Coimbra","Artigo 20.º, n.º 1, alínea a) do Código dos Contratos Públicos",10-10-2017,"971,98 €",,necessidade do aumento das quantidades consumidas em virtude do número de doentes.,,Não aplicável.,Não aplicável.,FALSE
MATERIAL DE OSTOMIA RESPIRATÓRIA,Ajuste Direto Regime Geral,Aquisição de bens móveis,"33000000-0, Equipamento médico, medicamentos e produtos para cuidados pessoais","Instituto Português de Oncologia de Coimbra Francisco Gentil, E. P. E. (506361438)","Medicinália Cormédica, Lda. (500684324)","9.581,07 €",07-09-2018,02-12-2016,365 dias,"Portugal, Coimbra, Coimbra","Artigo 20.º, n.º 1, alínea a) do Código dos Contratos Públicos",12-12-2017,"10.987,13 €",,necessidade do aumento das quantidades consumidas em virtude do número de doentes.,,Não aplicável.,Não aplicável.,FALSE
MATERIAL DE OSTOMIAS,Ajuste Direto Regime Geral,Aquisição de bens móveis,"33000000-0, Equipamento médico, medicamentos e produtos para cuidados pessoais","Instituto Português de Oncologia de Coimbra Francisco Gentil, E. P. E. (506361438)",MULTIDEVICE (510205933),"792,00 €",06-09-2018,22-12-2016,365 dias,"Portugal, Coimbra, Coimbra","Artigo 20.º, n.º 1, alínea a) do Código dos Contratos Públicos",14-04-2017,"148,50 €",,Diminuição das quantidades,,Não aplicável.,Não aplicável.,FALSE
MATERIAL DE OSTOMIAS,Ajuste Direto Regime Geral,Aquisição de bens móveis,"33000000-0, Equipamento médico, medicamentos e produtos para cuidados pessoais","Instituto Português de Oncologia de Coimbra Francisco Gentil, E. P. E. (506361438)",STOMACARE - ENTREGAS MÉDICAS UNIP. LDA. (509469680),"63,50 €",06-09-2018,22-12-2016,365 dias,"Portugal, Coimbra, Coimbra","Artigo 20.º, n.º 1, alínea a) do Código dos Contratos Públicos",31-12-2017,"",,Sem fornecimento.,,Não aplicável.,Não aplicável.,FALSE
MATERIAL DE OSTOMIAS,Ajuste Direto Regime Geral,Aquisição de bens móveis,"33000000-0, Equipamento médico, medicamentos e produtos para cuidados pessoais","Instituto Português de Oncologia de Coimbra Francisco Gentil, E. P. E. (506361438)",SP CARE (508284872),"14.428,21 €",06-09-2018,22-12-2016,365 dias,"Portugal, Coimbra, Coimbra","Artigo 20.º, n.º 1, alínea a) do Código dos Contratos Públicos",12-12-2017,"6.997,91 €",,Diminuição das quantidades,,Não aplicável.,Não aplicável.,FALSE
MATERIAL DE OSTOMIAS,Ajuste Direto Regime Geral,Aquisição de bens móveis,"33000000-0, Equipamento médico, medicamentos e produtos para cuidados pessoais","Instituto Português de Oncologia de Coimbra Francisco Gentil, E. P. E. (506361438)","KVTECH PORTUGAL -PRODUTOS MEDICOS, UNIPESSOAL,LDA. (508671531)","8.703,60 €",06-09-2018,22-12-2016,365 dias,"Portugal, Coimbra, Coimbra","Artigo 20.º, n.º 1, alínea a) do Código dos Contratos Públicos",21-12-2017,"6.903,22 €",,Diminuição das quantidades,,Não aplicável.,Não aplicável.,FALSE
MATERIAL DE OSTOMIAS,Ajuste Direto Regime Geral,Aquisição de bens móveis,"33000000-0, Equipamento médico, medicamentos e produtos para cuidados pessoais","Instituto Português de Oncologia de Coimbra Francisco Gentil, E. P. E. (506361438)","Medicinália Cormédica, Lda. (500684324)","12.662,99 €",06-09-2018,22-12-2016,365 dias,"Portugal, Coimbra, Coimbra","Artigo 20.º, n.º 1, alínea a) do Código dos Contratos Públicos",13-12-2017,"10.152,34 €",,Diminuição das quantidades,,Não aplicável.,Não aplicável.,FALSE
MATERIAL DE OSTOMIAS,Ajuste Direto Regime Geral,Aquisição de bens móveis,"33000000-0, Equipamento médico, medicamentos e produtos para cuidados pessoais","Instituto Português de Oncologia de Coimbra Francisco Gentil, E. P. E. (506361438)","B. Braun Medical, Lda (501506543)","8.154,40 €",06-09-2018,22-12-2016,365 dias,"Portugal, Coimbra, Coimbra","Artigo 20.º, n.º 1, alínea a) do Código dos Contratos Públicos",14-12-2017,"8.034,50 €",,Diminuição das quantidades,,Não aplicável.,Não aplicável.,FALSE
MATERIAL LABORATORIO BIOLOGIA MOLECULAR,Ajuste Direto Regime Geral,Aquisição de bens móveis,"33000000-0, Equipamento médico, medicamentos e produtos para cuidados pessoais","Instituto Português de Oncologia de Coimbra Francisco Gentil, E. P. E. (506361438)","Frilabo II, Lda. (507958861)","15,00 €",06-09-2018,02-12-2016,365 dias,"Portugal, Coimbra, Coimbra","Artigo 20.º, n.º 1, alínea a) do Código dos Contratos Públicos",31-12-2017,"",,Sem fornecimento.,,Não aplicável.,Não aplicável.,FALSE
MATERIAL LABORATORIO BIOLOGIA MOLECULAR,Ajuste Direto Regime Geral,Aquisição de bens móveis,"33000000-0, Equipamento médico, medicamentos e produtos para cuidados pessoais","Instituto Português de Oncologia de Coimbra Francisco Gentil, E. P. E. (506361438)"," VWR INTERNATIONAL- MATERIAL DE LABORATORIO, LDA (503842770)","1.151,90 €",06-09-2018,02-12-2016,365 dias,"Portugal, Coimbra, Coimbra","Artigo 20.º, n.º 1, alínea a) do Código dos Contratos Públicos",13-12-2017,"205,19 €",,Diminuição das quantidades,,Não aplicável.,Não aplicável.,FALSE
MATERIAL LABORATORIO BIOLOGIA MOLECULAR,Ajuste Direto Regime Geral,Aquisição de bens móveis,"33000000-0, Equipamento médico, medicamentos e produtos para cuidados pessoais","Instituto Português de Oncologia de Coimbra Francisco Gentil, E. P. E. (506361438)","ENZIFARMA - Diagnóstica e Farmacêutica, S.A. (503636975)","244,70 €",06-09-2018,02-12-2016,365 dias,"Portugal, Coimbra, Coimbra","Artigo 20.º, n.º 1, alínea a) do Código dos Contratos Públicos",31-12-2017,"",,Sem fornecimento.,,Não aplicável.,Não aplicável.,FALSE
MATERIAL LABORATORIO BIOLOGIA MOLECULAR,Ajuste Direto Regime Geral,Aquisição de bens móveis,"33000000-0, Equipamento médico, medicamentos e produtos para cuidados pessoais","Instituto Português de Oncologia de Coimbra Francisco Gentil, E. P. E. (506361438)",Sarstedt Sa (503019461),"7.856,50 €",06-09-2018,02-12-2016,365 dias,"Portugal, Coimbra, Coimbra","Artigo 20.º, n.º 1, alínea a) do Código dos Contratos Públicos",13-12-2017,"4.839,00 €",,Diminuição das quantidades,,Não aplicável.,Não aplicável.,FALSE
MATERIAL INTUBAÇÃO UROLOGIA,Ajuste Direto Regime Geral,Aquisição de bens móveis,"33000000-0, Equipamento médico, medicamentos e produtos para cuidados pessoais","Instituto Português de Oncologia de Coimbra Francisco Gentil, E. P. E. (506361438)","MEDTRONIC PORTUGAL, LDA. (504223933)","50,00 €",06-09-2018,02-12-2016,365 dias,"Portugal, Coimbra, Coimbra","Artigo 20.º, n.º 1, alínea a) do Código dos Contratos Públicos",18-08-2017,"37,50 €",,Diminuição das quantidades,,Não aplicável.,Não aplicável.,FALSE
MATERIAL INTUBAÇÃO UROLOGIA,Ajuste Direto Regime Geral,Aquisição de bens móveis,"33000000-0, Equipamento médico, medicamentos e produtos para cuidados pessoais","Instituto Português de Oncologia de Coimbra Francisco Gentil, E. P. E. (506361438)","COLOPLAST PORTUGAL SOC. UNIP., LDA (EX PORGES) (503989037)","8.013,84 €",06-09-2018,02-12-2016,365 dias,"Portugal, Coimbra, Coimbra","Artigo 20.º, n.º 1, alínea a) do Código dos Contratos Públicos",13-12-2017,"8.721,65 €",,necessidade do aumento das quantidades consumidas em virtude do número de doentes.,,Não aplicável.,Não aplicável.,FALSE
MATERIAL INTUBAÇÃO UROLOGIA,Ajuste Direto Regime Geral,Aquisição de bens móveis,"33000000-0, Equipamento médico, medicamentos e produtos para cuidados pessoais","Instituto Português de Oncologia de Coimbra Francisco Gentil, E. P. E. (506361438)","TELEFLEX MEDICAL, S.A. (980249783)","1.155,26 €",06-09-2018,02-12-2016,365 dias,"Portugal, Coimbra, Coimbra","Artigo 20.º, n.º 1, alínea a) do Código dos Contratos Públicos",22-03-2017,"237,10 €",,Diminuição das quantidades,,Não aplicável.,Não aplicável.,FALSE
MATERIAL INTUBAÇÃO UROLOGIA,Ajuste Direto Regime Geral,Aquisição de bens móveis,"33000000-0, Equipamento médico, medicamentos e produtos para cuidados pessoais","Instituto Português de Oncologia de Coimbra Francisco Gentil, E. P. E. (506361438)","Overpharma - Produtos Médicos e Farmacêuticos, Lda  (505792362)","552,00 €",06-09-2018,02-12-2016,365 dias,"Portugal, Coimbra, Coimbra","Artigo 20.º, n.º 1, alínea a) do Código dos Contratos Públicos",14-12-2016,"471,50 €",,Diminuição das quantidades,,Não aplicável.,Não aplicável.,FALSE
MATERIAL INTUBAÇÃO UROLOGIA,Ajuste Direto Regime Geral,Aquisição de bens móveis,"33000000-0, Equipamento médico, medicamentos e produtos para cuidados pessoais","Instituto Português de Oncologia de Coimbra Francisco Gentil, E. P. E. (506361438)","C.R. BARD PORTUGAL, LDA (502438274)","8.615,00 €",06-09-2018,02-12-2016,365 dias,"Portugal, Coimbra, Coimbra","Artigo 20.º, n.º 1, alínea a) do Código dos Contratos Públicos",14-11-2017,"7.604,00 €",,Diminuição das quantidades,,Não aplicável.,Não aplicável.,FALSE
MATERIAL DE INTUBAÇÃO/SONDAS,Ajuste Direto Regime Geral,Aquisição de bens móveis,"33000000-0, Equipamento médico, medicamentos e produtos para cuidados pessoais","Instituto Português de Oncologia de Coimbra Francisco Gentil, E. P. E. (506361438)","MUNDINTER INTERC. MUNDIAL COMERC., SA (500199906)","563,73 €",06-09-2018,02-12-2016,365 dias,"Portugal, Coimbra, Coimbra","Artigo 20.º, n.º 1, alínea a) do Código dos Contratos Públicos",26-06-2017,"345,58 €",,Diminuição das quantidades,,Não aplicável.,Não aplicável.,FALSE
MATERIAL DE INTUBAÇÃO/SONDAS,Ajuste Direto Regime Geral,Aquisição de bens móveis,"33000000-0, Equipamento médico, medicamentos e produtos para cuidados pessoais","Instituto Português de Oncologia de Coimbra Francisco Gentil, E. P. E. (506361438)",EPJMEDICA - ARTIGOS MÉDICOS HOSPITALARES (506820513),"146,20 €",06-09-2018,02-12-2016,365 dias,"Portugal, Coimbra, Coimbra","Artigo 20.º, n.º 1, alínea a) do Código dos Contratos Públicos",08-11-2017,"146,19 €",,Diminuição das quantidades,,Não aplicável.,Não aplicável.,FALSE
MATERIAL DE INTUBAÇÃO/SONDAS,Ajuste Direto Regime Geral,Aquisição de bens móveis,"33000000-0, Equipamento médico, medicamentos e produtos para cuidados pessoais","Instituto Português de Oncologia de Coimbra Francisco Gentil, E. P. E. (506361438)",HR Hospitalar (501895558),"28,00 €",06-09-2018,02-12-2016,365 dias,"Portugal, Coimbra, Coimbra","Artigo 20.º, n.º 1, alínea a) do Código dos Contratos Públicos",26-09-2017,"28,00 €",,"",,Não aplicável.,Não aplicável.,FALSE
MATERIAL DE INTUBAÇÃO/SONDAS,Ajuste Direto Regime Geral,Aquisição de bens móveis,"33000000-0, Equipamento médico, medicamentos e produtos para cuidados pessoais","Instituto Português de Oncologia de Coimbra Francisco Gentil, E. P. E. (506361438)","GRIFOLS PORTUGAL, LDA (502041285)","1.836,00 €",06-09-2018,02-12-2016,365 dias,"Portugal, Coimbra, Coimbra","Artigo 20.º, n.º 1, alínea a) do Código dos Contratos Públicos",22-12-2017,"3.996,00 €",,necessidade do aumento das quantidades consumidas em virtude do número de doentes.,,Não aplicável.,Não aplicável.,FALSE
MATERIAL DE INTUBAÇÃO/SONDAS,Ajuste Direto Regime Geral,Aquisição de bens móveis,"33000000-0, Equipamento médico, medicamentos e produtos para cuidados pessoais","Instituto Português de Oncologia de Coimbra Francisco Gentil, E. P. E. (506361438)",Vygon (503232785),"1.507,60 €",06-09-2018,02-12-2016,365 dias,"Portugal, Coimbra, Coimbra","Artigo 20.º, n.º 1, alínea a) do Código dos Contratos Públicos",19-12-2017,"1.417,98 €",,Diminuição das quantidades,,Não aplicável.,Não aplicável.,FALSE
MATERIAL DE INTUBAÇÃO/SONDAS,Ajuste Direto Regime Geral,Aquisição de bens móveis,"33000000-0, Equipamento médico, medicamentos e produtos para cuidados pessoais","Instituto Português de Oncologia de Coimbra Francisco Gentil, E. P. E. (506361438)","FRESENIUS KABI PHARMA PORTUGAL,LDA (504293753)","793,95 €",06-09-2018,02-12-2016,365 dias,"Portugal, Coimbra, Coimbra","Artigo 20.º, n.º 1, alínea a) do Código dos Contratos Públicos",14-11-2017,"1.629,75 €",,necessidade do aumento das quantidades consumidas em virtude do número de doentes.,,Não aplicável.,Não aplicável.,FALSE
MATERIAL DE ANESTESIA,Ajuste Direto Regime Geral,Aquisição de bens móveis,"33000000-0, Equipamento médico, medicamentos e produtos para cuidados pessoais","Instituto Português de Oncologia de Coimbra Francisco Gentil, E. P. E. (506361438)","INTERSURGICAL PORTUGAL - Comércio de Produtos Hospitalares, Lda (503480045)","17.935,50 €",06-09-2018,12-12-2016,365 dias,"Portugal, Coimbra, Coimbra","Artigo 20.º, n.º 1, alínea a) do Código dos Contratos Públicos",13-12-2017,"24.184,07 €",,necessidade do aumento das quantidades consumidas em virtude do número de doentes.,,Não aplicável.,Não aplicável.,FALSE
MATERIAL DE ANESTESIA,Ajuste Direto Regime Geral,Aquisição de bens móveis,"33000000-0, Equipamento médico, medicamentos e produtos para cuidados pessoais","Instituto Português de Oncologia de Coimbra Francisco Gentil, E. P. E. (506361438)","MEDTRONIC PORTUGAL, LDA. (504223933)","4.189,00 €",06-09-2018,12-12-2016,365 dias,"Portugal, Coimbra, Coimbra","Artigo 20.º, n.º 1, alínea a) do Código dos Contratos Públicos",12-12-2017,"3.727,00 €",,Diminuição das quantidades,,Não aplicável.,Não aplicável.,FALSE
MATERIAL DE ANESTESIA,Ajuste Direto Regime Geral,Aquisição de bens móveis,"33000000-0, Equipamento médico, medicamentos e produtos para cuidados pessoais","Instituto Português de Oncologia de Coimbra Francisco Gentil, E. P. E. (506361438)","PMH PRODUTOS MEDIC. HOSPITAL, SA (502376899)","5.830,00 €",06-09-2018,12-12-2016,365 dias,"Portugal, Coimbra, Coimbra","Artigo 20.º, n.º 1, alínea a) do Código dos Contratos Públicos",13-12-2017,"7.665,79 €",,necessidade do aumento das quantidades consumidas em virtude do número de doentes.,,Não aplicável.,Não aplicável.,FALSE
MATERIAL DE ANESTESIA,Ajuste Direto Regime Geral,Aquisição de bens móveis,"33000000-0, Equipamento médico, medicamentos e produtos para cuidados pessoais","Instituto Português de Oncologia de Coimbra Francisco Gentil, E. P. E. (506361438)","SMITHS MEDICAL PORTUGAL UNIPESSOAL, LDA (507445937)","6.944,63 €",06-09-2018,12-12-2016,365 dias,"Portugal, Coimbra, Coimbra","Artigo 20.º, n.º 1, alínea a) do Código dos Contratos Públicos",30-11-2017,"4.146,38 €",,Diminuição das quantidades.,,Não aplicável.,Não aplicável.,FALSE
MATERIAL DE ANESTESIA,Ajuste Direto Regime Geral,Aquisição de bens móveis,"33000000-0, Equipamento médico, medicamentos e produtos para cuidados pessoais","Instituto Português de Oncologia de Coimbra Francisco Gentil, E. P. E. (506361438)","TELEFLEX MEDICAL, S.A. (980249783)","651,30 €",06-09-2018,12-12-2016,365 dias,"Portugal, Coimbra, Coimbra","Artigo 20.º, n.º 1, alínea a) do Código dos Contratos Públicos",29-11-2017,"2.514,10 €",,necessidade do aumento das quantidades consumidas em virtude do número de doentes.,,Não aplicável.,Não aplicável.,FALSE
MATERIAL DE ANESTESIA,Ajuste Direto Regime Geral,Aquisição de bens móveis,"33000000-0, Equipamento médico, medicamentos e produtos para cuidados pessoais","Instituto Português de Oncologia de Coimbra Francisco Gentil, E. P. E. (506361438)","Iberdata - Equipamentos, S.A. (501904921)","380,90 €",06-09-2018,12-12-2016,365 dias,"Portugal, Coimbra, Coimbra","Artigo 20.º, n.º 1, alínea a) do Código dos Contratos Públicos",08-06-2017,"554,70 €",,necessidade do aumento das quantidades consumidas em virtude do número de doentes.,,Não aplicável.,Não aplicável.,FALSE
MATERIAL DE ANESTESIA,Ajuste Direto Regime Geral,Aquisição de bens móveis,"33000000-0, Equipamento médico, medicamentos e produtos para cuidados pessoais","Instituto Português de Oncologia de Coimbra Francisco Gentil, E. P. E. (506361438)",HR Hospitalar (501895558),"3.438,30 €",06-09-2018,12-12-2016,365 dias,"Portugal, Coimbra, Coimbra","Artigo 20.º, n.º 1, alínea a) do Código dos Contratos Públicos",13-12-2017,"3.321,56 €",,Diminuição das quantidades,,Não aplicável.,Não aplicável.,FALSE
MATERIAL DE ANESTESIA,Ajuste Direto Regime Geral,Aquisição de bens móveis,"33000000-0, Equipamento médico, medicamentos e produtos para cuidados pessoais","Instituto Português de Oncologia de Coimbra Francisco Gentil, E. P. E. (506361438)","EZEQUIEL PANAO JORGE, LDA (501412727)","68,46 €",06-09-2018,12-12-2016,365 dias,"Portugal, Coimbra, Coimbra","Artigo 20.º, n.º 1, alínea a) do Código dos Contratos Públicos",31-12-2017,"",,Sem fornecimento.,,Não aplicável.,Não aplicável.,FALSE
MATERIAL DE ANESTESIA,Ajuste Direto Regime Geral,Aquisição de bens móveis,"33000000-0, Equipamento médico, medicamentos e produtos para cuidados pessoais","Instituto Português de Oncologia de Coimbra Francisco Gentil, E. P. E. (506361438)",MEDICINÁLIA CORMEDICA (500684324),"350,00 €",06-09-2018,12-12-2016,365 dias,"Portugal, Coimbra, Coimbra","Artigo 20.º, n.º 1, alínea a) do Código dos Contratos Públicos",22-12-2017,"1.190,00 €",,necessidade do aumento das quantidades consumidas em virtude do número de doentes.,,Não aplicável.,Não aplicável.,FALSE
MATERIAL DE ANESTESIA,Ajuste Direto Regime Geral,Aquisição de bens móveis,"33000000-0, Equipamento médico, medicamentos e produtos para cuidados pessoais","Instituto Português de Oncologia de Coimbra Francisco Gentil, E. P. E. (506361438)","AIR LIQUIDE MEDICINAL, S.A. (501576436)","1.295,00 €",06-09-2018,12-12-2016,365 dias,"Portugal, Coimbra, Coimbra","Artigo 20.º, n.º 1, alínea a) do Código dos Contratos Públicos",30-11-2017,"1.086,21 €",,Diminuição das quantidades,,Não aplicável.,Não aplicável.,FALSE
MATERIAL DE ANESTESIA,Ajuste Direto Regime Geral,Aquisição de bens móveis,"33000000-0, Equipamento médico, medicamentos e produtos para cuidados pessoais","Instituto Português de Oncologia de Coimbra Francisco Gentil, E. P. E. (506361438)",Vygon (503232785),"2.053,50 €",06-09-2018,12-12-2016,365 dias,"Portugal, Coimbra, Coimbra","Artigo 20.º, n.º 1, alínea a) do Código dos Contratos Públicos",06-11-2017,"4.224,52 €",,necessidade do aumento das quantidades consumidas em virtude do número de doentes.,,Não aplicável.,Não aplicável.,FALSE
MATERIAL DE ANESTESIA,Ajuste Direto Regime Geral,Aquisição de bens móveis,"33000000-0, Equipamento médico, medicamentos e produtos para cuidados pessoais","Instituto Português de Oncologia de Coimbra Francisco Gentil, E. P. E. (506361438)",B BRAUN MEDICAL LDA (501506543),"9.042,00 €",06-09-2018,12-12-2016,365 dias,"Portugal, Coimbra, Coimbra","Artigo 20.º, n.º 1, alínea a) do Código dos Contratos Públicos",14-12-2017,"11.122,00 €",,necessidade do aumento das quantidades consumidas em virtude do número de doentes.,,Não aplicável.,Não aplicável.,FALSE
MATERIAL DESCARTÁVEL GERAL,Ajuste Direto Regime Geral,Aquisição de bens móveis,"33000000-0, Equipamento médico, medicamentos e produtos para cuidados pessoais","Instituto Português de Oncologia de Coimbra Francisco Gentil, E. P. E. (506361438)","MOLNLYCKE HEALTH CARE, LDA (511101066)","6.357,00 €",05-09-2018,25-11-2016,365 dias,"Portugal, Coimbra, Coimbra","Artigo 20.º, n.º 1, alínea a) do Código dos Contratos Públicos",12-12-2017,"8.154,00 €",,necessidade do aumento das quantidades consumidas em virtude do número de doentes.,,Não aplicável.,Não aplicável.,FALSE
MATERIAL DESCARTÁVEL GERAL,Ajuste Direto Regime Geral,Aquisição de bens móveis,"33000000-0, Equipamento médico, medicamentos e produtos para cuidados pessoais","Instituto Português de Oncologia de Coimbra Francisco Gentil, E. P. E. (506361438)","ESSITY PORTUGAL, LDA (503237612)","9.799,52 €",05-09-2018,25-11-2016,365 dias,"Portugal, Coimbra, Coimbra","Artigo 20.º, n.º 1, alínea a) do Código dos Contratos Públicos",07-11-2017,"9.350,48 €",,Diminuição das quantidades,,Não aplicável.,Não aplicável.,FALSE
MATERIAL DESCARTÁVEL GERAL,Ajuste Direto Regime Geral,Aquisição de bens móveis,"33000000-0, Equipamento médico, medicamentos e produtos para cuidados pessoais","Instituto Português de Oncologia de Coimbra Francisco Gentil, E. P. E. (506361438)","MONTELLANO, LDA (500196494)","8,88 €",05-09-2018,25-11-2016,365 dias,"Portugal, Coimbra, Coimbra","Artigo 20.º, n.º 1, alínea a) do Código dos Contratos Públicos",31-12-2017,"",,Sem fornecimento.,,Não aplicável.,Não aplicável.,FALSE
MATERIAL DESCARTÁVEL GERAL,Ajuste Direto Regime Geral,Aquisição de bens móveis,"33000000-0, Equipamento médico, medicamentos e produtos para cuidados pessoais","Instituto Português de Oncologia de Coimbra Francisco Gentil, E. P. E. (506361438)",INDAS PORTUGAL LDA (503505196),"1.955,10 €",05-09-2018,25-11-2016,365 dias,"Portugal, Coimbra, Coimbra","Artigo 20.º, n.º 1, alínea a) do Código dos Contratos Públicos",18-12-2017,"2.168,05 €",,necessidade do aumento das quantidades consumidas em virtude do número de doentes.,,Não aplicável.,Não aplicável.,FALSE
MATERIAL DESCARTÁVEL GERAL,Ajuste Direto Regime Geral,Aquisição de bens móveis,"33000000-0, Equipamento médico, medicamentos e produtos para cuidados pessoais","Instituto Português de Oncologia de Coimbra Francisco Gentil, E. P. E. (506361438)",HR Hospitalar (501895558),"1.800,00 €",05-09-2018,25-11-2016,365 dias,"Portugal, Coimbra, Coimbra","Artigo 20.º, n.º 1, alínea a) do Código dos Contratos Públicos",07-11-2017,"2.388,00 €",,necessidade do aumento das quantidades consumidas em virtude do número de doentes.,,Não aplicável.,Não aplicável.,FALSE
MATERIAL DESCARTÁVEL GERAL,Ajuste Direto Regime Geral,Aquisição de bens móveis,"33000000-0, Equipamento médico, medicamentos e produtos para cuidados pessoais","Instituto Português de Oncologia de Coimbra Francisco Gentil, E. P. E. (506361438)","EZEQUIEL PANAO JORGE, LDA (501412727)","651,00 €",05-09-2018,25-11-2016,365 dias,"Portugal, Coimbra, Coimbra","Artigo 20.º, n.º 1, alínea a) do Código dos Contratos Públicos",06-11-2017,"713,00 €",,necessidade do aumento das quantidades consumidas em virtude do número de doentes.,,Não aplicável.,Não aplicável.,FALSE
MATERIAL DESCARTÁVEL GERAL,Ajuste Direto Regime Geral,Aquisição de bens móveis,"33000000-0, Equipamento médico, medicamentos e produtos para cuidados pessoais","Instituto Português de Oncologia de Coimbra Francisco Gentil, E. P. E. (506361438)","PAUL HARTMANN, LDA (502271728)","4.301,36 €",05-09-2018,25-11-2016,365 dias,"Portugal, Coimbra, Coimbra","Artigo 20.º, n.º 1, alínea a) do Código dos Contratos Públicos",28-11-2017,"10.152,60 €",,necessidade do aumento das quantidades consumidas em virtude do número de doentes.,,Não aplicável.,Não aplicável.,FALSE
MATERIAL DESCARTÁVEL GERAL,Ajuste Direto Regime Geral,Aquisição de bens móveis,"33000000-0, Equipamento médico, medicamentos e produtos para cuidados pessoais","Instituto Português de Oncologia de Coimbra Francisco Gentil, E. P. E. (506361438)",AVIQUIMICA (500039720),"2.552,00 €",05-09-2018,25-11-2016,365 dias,"Portugal, Coimbra, Coimbra","Artigo 20.º, n.º 1, alínea a) do Código dos Contratos Públicos",27-11-2017,"959,80 €",,Diminuição das quantidades,,Não aplicável.,Não aplicável.,FALSE
MATERIAL DESCARTÁVEL GERAL,Ajuste Direto Regime Geral,Aquisição de bens móveis,"33000000-0, Equipamento médico, medicamentos e produtos para cuidados pessoais","Instituto Português de Oncologia de Coimbra Francisco Gentil, E. P. E. (506361438)",Albino Dias Andrade (500013810),"6.742,00 €",05-09-2018,25-11-2016,365 dias,"Portugal, Coimbra, Coimbra","Artigo 20.º, n.º 1, alínea a) do Código dos Contratos Públicos",27-12-2017,"6.634,45 €",,Diminuição das quantidades,,Não aplicável.,Não aplicável.,FALSE
MATERIAL DESCARTÁVEL GERAL,Ajuste Direto Regime Geral,Aquisição de bens móveis,"33000000-0, Equipamento médico, medicamentos e produtos para cuidados pessoais","Instituto Português de Oncologia de Coimbra Francisco Gentil, E. P. E. (506361438)","FACTOR PLUS, LDA. (502810645)","1.450,00 €",05-09-2018,25-11-2016,365 dias,"Portugal, Coimbra, Coimbra","Artigo 20.º, n.º 1, alínea a) do Código dos Contratos Públicos",12-12-2017,"8.120,00 €",,Diminuição das quantidades,,Não aplicável.,Não aplicável.,FALSE
MATERIAL DESCARTÁVEL GERAL,Ajuste Direto Regime Geral,Aquisição de bens móveis,"33000000-0, Equipamento médico, medicamentos e produtos para cuidados pessoais","Instituto Português de Oncologia de Coimbra Francisco Gentil, E. P. E. (506361438)",Manutan Unipessoal Lda (504779079),"16,65 €",05-09-2018,25-11-2016,365 dias,"Portugal, Coimbra, Coimbra","Artigo 20.º, n.º 1, alínea a) do Código dos Contratos Públicos",31-12-2017,"",,Sem fornecimento.,,Não aplicável.,Não aplicável.,FALSE
LUVAS PARA MANIPULAÇÃO DE CITOSTÁTICOS ESTERILIZADAS,Ajuste Direto Regime Geral,Aquisição de bens móveis,"33000000-0, Equipamento médico, medicamentos e produtos para cuidados pessoais","Instituto Português de Oncologia de Coimbra Francisco Gentil, E. P. E. (506361438)","MEDLINE INTERNATIONAL PORTUGAL, UNIPESSOAL,LDA (510533515)","4.002,00 €",05-09-2018,25-11-2016,365 dias,"Portugal, Coimbra, Coimbra","Artigo 20.º, n.º 1, alínea a) do Código dos Contratos Públicos",01-12-2017,"2.950,00 €",,Diminuição das quantidades,,Não aplicável.,Não aplicável.,FALSE
LUVAS DIVERSAS,Ajuste Direto Regime Geral,Aquisição de bens móveis,"33000000-0, Equipamento médico, medicamentos e produtos para cuidados pessoais","Instituto Português de Oncologia de Coimbra Francisco Gentil, E. P. E. (506361438)","MEDLINE INTERNATIONAL PORTUGAL, UNIPESSOAL,LDA (510533515)","2.180,05 €",05-09-2018,19-05-2017,365 dias,"Portugal, Coimbra, Coimbra","Artigo 20.º, n.º 1, alínea a) do Código dos Contratos Públicos",11-12-2017,"1.682,75 €",,Diminuição das quantidades,,Não aplicável.,Não aplicável.,FALSE
LUVAS DIVERSAS,Ajuste Direto Regime Geral,Aquisição de bens móveis,"33000000-0, Equipamento médico, medicamentos e produtos para cuidados pessoais","Instituto Português de Oncologia de Coimbra Francisco Gentil, E. P. E. (506361438)","DOCWORLD, LDA (508592909)","9.724,70 €",05-09-2018,19-05-2017,365 dias,"Portugal, Coimbra, Coimbra","Artigo 20.º, n.º 1, alínea a) do Código dos Contratos Públicos",13-12-2017,"12.378,90 €",,necessidade do aumento das quantidades consumidas em virtude do número de doentes.,,Não aplicável.,Não aplicável.,FALSE
LUVAS DIVERSAS,Ajuste Direto Regime Geral,Aquisição de bens móveis,"33000000-0, Equipamento médico, medicamentos e produtos para cuidados pessoais","Instituto Português de Oncologia de Coimbra Francisco Gentil, E. P. E. (506361438)",HR Hospitalar (501895558),"871,74 €",05-09-2018,19-05-2017,365 dias,"Portugal, Coimbra, Coimbra","Artigo 20.º, n.º 1, alínea a) do Código dos Contratos Públicos",13-12-2017,"1.267,76 €",,necessidade do aumento das quantidades consumidas em virtude do número de doentes.,,Não aplicável.,Não aplicável.,FALSE
LUVAS DIVERSAS,Ajuste Direto Regime Geral,Aquisição de bens móveis,"33000000-0, Equipamento médico, medicamentos e produtos para cuidados pessoais","Instituto Português de Oncologia de Coimbra Francisco Gentil, E. P. E. (506361438)",Eugénio Pereira (503989525),"734,70 €",05-09-2018,19-05-2017,365 dias,"Portugal, Coimbra, Coimbra","Artigo 20.º, n.º 1, alínea a) do Código dos Contratos Públicos",18-08-2017,"790,00 €",,necessidade do aumento das quantidades consumidas em virtude do número de doentes.,,Não aplicável.,Não aplicável.,FALSE
LUVAS DIVERSAS,Ajuste Direto Regime Geral,Aquisição de bens móveis,"33000000-0, Equipamento médico, medicamentos e produtos para cuidados pessoais","Instituto Português de Oncologia de Coimbra Francisco Gentil, E. P. E. (506361438)",MEDICINÁLIA CORMEDICA (500684324),"158,40 €",05-09-2018,19-05-2017,365 dias,"Portugal, Coimbra, Coimbra","Artigo 20.º, n.º 1, alínea a) do Código dos Contratos Públicos",27-11-2017,"118,78 €",,Diminuição das quantidades,,Não aplicável.,Não aplicável.,FALSE
"LÂMINAS, BISTURIS E ELÉCTRODOS",Ajuste Direto Regime Geral,Aquisição de bens móveis,"33000000-0, Equipamento médico, medicamentos e produtos para cuidados pessoais","Instituto Português de Oncologia de Coimbra Francisco Gentil, E. P. E. (506361438)","OXVITAL MASCARAS DE OXIGENIO OXVITAL, LDA (500187398)","400,00 €",05-09-2018,25-11-2016,365 dias,"Portugal, Coimbra, Coimbra","Artigo 20.º, n.º 1, alínea a) do Código dos Contratos Públicos",14-11-2017,"300,00 €",,Diminuição das quantidades,,Não aplicável.,Não aplicável.,FALSE
"LÂMINAS, BISTURIS E ELÉCTRODOS",Ajuste Direto Regime Geral,Aquisição de bens móveis,"33000000-0, Equipamento médico, medicamentos e produtos para cuidados pessoais","Instituto Português de Oncologia de Coimbra Francisco Gentil, E. P. E. (506361438)",MEDTRONIC  (504223933),"9.815,00 €",05-09-2018,25-11-2016,365 dias,"Portugal, Coimbra, Coimbra","Artigo 20.º, n.º 1, alínea a) do Código dos Contratos Públicos",13-12-2017,"12.156,00 €",,necessidade do aumento das quantidades consumidas em virtude do número de doentes.,,Não aplicável.,Não aplicável.,FALSE
"LÂMINAS, BISTURIS E ELÉCTRODOS",Ajuste Direto Regime Geral,Aquisição de bens móveis,"33000000-0, Equipamento médico, medicamentos e produtos para cuidados pessoais","Instituto Português de Oncologia de Coimbra Francisco Gentil, E. P. E. (506361438)","MUNDINTER INTERC. MUNDIAL COMERC., SA (500199906)","331,41 €",05-09-2018,25-11-2016,365 dias,"Portugal, Coimbra, Coimbra","Artigo 20.º, n.º 1, alínea a) do Código dos Contratos Públicos",31-12-2017,"",,Sem fornecimento.,,Não aplicável.,Não aplicável.,FALSE
"LÂMINAS, BISTURIS E ELÉCTRODOS",Ajuste Direto Regime Geral,Aquisição de bens móveis,"33000000-0, Equipamento médico, medicamentos e produtos para cuidados pessoais","Instituto Português de Oncologia de Coimbra Francisco Gentil, E. P. E. (506361438)",HR Hospitalar (501895558),"3.142,00 €",05-09-2018,25-11-2016,365 dias,"Portugal, Coimbra, Coimbra","Artigo 20.º, n.º 1, alínea a) do Código dos Contratos Públicos",13-12-2017,"2.749,00 €",,Diminuição das quantidades,,Não aplicável.,Não aplicável.,FALSE
"LÂMINAS, BISTURIS E ELÉCTRODOS",Ajuste Direto Regime Geral,Aquisição de bens móveis,"33000000-0, Equipamento médico, medicamentos e produtos para cuidados pessoais","Instituto Português de Oncologia de Coimbra Francisco Gentil, E. P. E. (506361438)","EMILIO DE AZEVEDO CAMPOS, S.A (500094853)","1.132,00 €",05-09-2018,25-11-2016,365 dias,"Portugal, Coimbra, Coimbra","Artigo 20.º, n.º 1, alínea a) do Código dos Contratos Públicos",11-12-2017,"1.075,36 €",,Diminuição das quantidades,,Não aplicável.,Não aplicável.,FALSE
"LÂMINAS, BISTURIS E ELÉCTRODOS",Ajuste Direto Regime Geral,Aquisição de bens móveis,"33000000-0, Equipamento médico, medicamentos e produtos para cuidados pessoais","Instituto Português de Oncologia de Coimbra Francisco Gentil, E. P. E. (506361438)","DISPOFARMA - PRODUTOS HOSPITALARES, LDA (503778699)","172,00 €",05-09-2018,25-11-2016,365 dias,"Portugal, Coimbra, Coimbra","Artigo 20.º, n.º 1, alínea a) do Código dos Contratos Públicos",20-03-2017,"43,00 €",,Diminuição das quantidades,,Não aplicável.,Não aplicável.,FALSE
"LÂMINAS, BISTURIS E ELÉCTRODOS",Ajuste Direto Regime Geral,Aquisição de bens móveis,"33000000-0, Equipamento médico, medicamentos e produtos para cuidados pessoais","Instituto Português de Oncologia de Coimbra Francisco Gentil, E. P. E. (506361438)","Bacelar & Irmão, Lda (500532818)","4.872,00 €",05-09-2018,25-11-2016,365 dias,"Portugal, Coimbra, Coimbra","Artigo 20.º, n.º 1, alínea a) do Código dos Contratos Públicos",07-11-2017,"4.176,00 €",,Diminuição das quantidades,,Não aplicável.,Não aplicável.,FALSE
"LÂMINAS, BISTURIS E ELÉCTRODOS",Ajuste Direto Regime Geral,Aquisição de bens móveis,"33000000-0, Equipamento médico, medicamentos e produtos para cuidados pessoais","Instituto Português de Oncologia de Coimbra Francisco Gentil, E. P. E. (506361438)",Speculum (502996323),"284,90 €",05-09-2018,25-11-2016,365 dias,"Portugal, Coimbra, Coimbra","Artigo 20.º, n.º 1, alínea a) do Código dos Contratos Públicos",31-12-2017,"",,Sem fornecimento.,,Não aplicável.,Não aplicável.,FALSE
"LÂMINAS, BISTURIS E ELÉCTRODOS",Ajuste Direto Regime Geral,Aquisição de bens móveis,"33000000-0, Equipamento médico, medicamentos e produtos para cuidados pessoais","Instituto Português de Oncologia de Coimbra Francisco Gentil, E. P. E. (506361438)",Clinifar (503281115),"195,00 €",05-09-2018,25-11-2016,365 dias,"Portugal, Coimbra, Coimbra","Artigo 20.º, n.º 1, alínea a) do Código dos Contratos Públicos",09-06-2017,"234,00 €",,necessidade do aumento das quantidades consumidas em virtude do número de doentes,,Não aplicável.,Não aplicável.,FALSE
AQUISIÇÃO KITS PARA PESQUISA DE CITOSTATICOS EM SUPERFICIES,Ajuste Direto Regime Geral,Aquisição de bens móveis,"33000000-0, Equipamento médico, medicamentos e produtos para cuidados pessoais","Instituto Português de Oncologia de Coimbra Francisco Gentil, E. P. E. (506361438)","Frilabo - Biotecnologia e Assitência Técnica, Ldª (507958861)","2.929,32 €",05-09-2018,29-05-2017,365 dias,"Portugal, Coimbra, Coimbra","Artigo 20.º, n.º 1, alínea a) do Código dos Contratos Públicos",21-11-2017,"1.464,66 €",,Diminuição das quantidades,,Não aplicável.,Não aplicável.,FALSE
INFUSORES PORTÁTEIS,Ajuste Direto Regime Geral,Aquisição de bens móveis,"33000000-0, Equipamento médico, medicamentos e produtos para cuidados pessoais","Instituto Português de Oncologia de Coimbra Francisco Gentil, E. P. E. (506361438)",MEDICINÁLIA CORMEDICA (500684324),"43.344,00 €",04-09-2018,12-07-2017,365 dias,"Portugal, Coimbra, Coimbra","Artigo 20.º, n.º 1, alínea a) do Código dos Contratos Públicos",13-12-2017,"11.993,00 €",,Diminuição das quantidades,,Não aplicável.,Não aplicável.,FALSE
FIOS DE SUTURA E OUTROS,Ajuste Direto Regime Geral,Aquisição de bens móveis,"33000000-0, Equipamento médico, medicamentos e produtos para cuidados pessoais","Instituto Português de Oncologia de Coimbra Francisco Gentil, E. P. E. (506361438)","MEDTRONIC PORTUGAL, LDA (504223933)","17.762,88 €",04-09-2018,10-01-2017,365 dias,"Portugal, Coimbra, Coimbra","Artigo 20.º, n.º 1, alínea a) do Código dos Contratos Públicos",12-12-2017,"16.378,55 €",,Diminuição das quantidades,,Não aplicável.,Não aplicável.,FALSE
FIOS DE SUTURA E OUTROS,Ajuste Direto Regime Geral,Aquisição de bens móveis,"33000000-0, Equipamento médico, medicamentos e produtos para cuidados pessoais","Instituto Português de Oncologia de Coimbra Francisco Gentil, E. P. E. (506361438)","PMH PRODUTOS MEDIC. HOSPITAL, SA (502376899)","48,00 €",04-09-2018,06-01-2017,365 dias,"Portugal, Coimbra, Coimbra","Artigo 20.º, n.º 1, alínea a) do Código dos Contratos Públicos",31-12-2017,"",,Sem fornecimento,,Não aplicável.,Não aplicável.,FALSE
FIOS DE SUTURA E OUTROS,Ajuste Direto Regime Geral,Aquisição de bens móveis,"33000000-0, Equipamento médico, medicamentos e produtos para cuidados pessoais","Instituto Português de Oncologia de Coimbra Francisco Gentil, E. P. E. (506361438)","Johnson & Johnson, Lda. (500153370)","7.614,00 €",04-09-2018,06-01-2017,365 dias,"Portugal, Coimbra, Coimbra","Artigo 20.º, n.º 1, alínea a) do Código dos Contratos Públicos",27-12-2017,"7.384,68 €",,Diminuição das quantidades,,Não aplicável.,Não aplicável.,FALSE
FIOS DE SUTURA E OUTROS,Ajuste Direto Regime Geral,Aquisição de bens móveis,"33000000-0, Equipamento médico, medicamentos e produtos para cuidados pessoais","Instituto Português de Oncologia de Coimbra Francisco Gentil, E. P. E. (506361438)",B BRAUN MEDICAL LDA (501506543),"7.830,24 €",04-09-2018,06-01-2017,365 dias,"Portugal, Coimbra, Coimbra","Artigo 20.º, n.º 1, alínea a) do Código dos Contratos Públicos",14-12-2017,"7.197,03 €",,Diminuição das quantidades,,Não aplicável.,Não aplicável.,FALSE
Electrodos para Eletrocircurgia,Ajuste Direto Regime Geral,Aquisição de bens móveis,"33000000-0, Equipamento médico, medicamentos e produtos para cuidados pessoais","Instituto Português de Oncologia de Coimbra Francisco Gentil, E. P. E. (506361438)","MARIO TARON OLIVEIRA, LDA (501348140)","4.057,10 €",04-09-2018,25-11-2016,365 dias,"Portugal, Coimbra, Coimbra","Artigo 20.º, n.º 1, alínea a) do Código dos Contratos Públicos",22-12-2017,"2.728,06 €",,Diminuição das quantidades,,Não aplicável.,Não aplicável.,FALSE
Electrodos para Eletrocircurgia,Ajuste Direto Regime Geral,Aquisição de bens móveis,"33000000-0, Equipamento médico, medicamentos e produtos para cuidados pessoais","Instituto Português de Oncologia de Coimbra Francisco Gentil, E. P. E. (506361438)","Johnson & Johnson, Lda. (500153370)","14.766,90 €",04-09-2018,29-11-2016,365 dias,"Portugal, Coimbra, Coimbra","Artigo 20.º, n.º 1, alínea a) do Código dos Contratos Públicos",15-12-2017,"18.958,50 €",,necessidade do aumento das quantidades consumidas em virtude do número de doentes.,,Não aplicável.,Não aplicável.,FALSE
DRENOS,Ajuste Direto Regime Geral,Aquisição de bens móveis,"33000000-0, Equipamento médico, medicamentos e produtos para cuidados pessoais","Instituto Português de Oncologia de Coimbra Francisco Gentil, E. P. E. (506361438)","MEDTRONIC PORTUGAL, LDA (504223933)","860,00 €",04-09-2018,25-11-2016,365 dias,"Portugal, Coimbra, Coimbra","Artigo 20.º, n.º 1, alínea a) do Código dos Contratos Públicos",12-12-2017,"841,51 €",,Diminuição das quantidades,,Não aplicável.,Não aplicável.,FALSE
DRENOS,Ajuste Direto Regime Geral,Aquisição de bens móveis,"33000000-0, Equipamento médico, medicamentos e produtos para cuidados pessoais","Instituto Português de Oncologia de Coimbra Francisco Gentil, E. P. E. (506361438)","COLOPLAST PORTUGAL SOC. UNIP., LDA (EX PORGES) (503989037)","104,00 €",04-09-2018,25-11-2016,365 dias,"Portugal, Coimbra, Coimbra","Artigo 20.º, n.º 1, alínea a) do Código dos Contratos Públicos",10-10-2017,"125,00 €",,necessidade do aumento das quantidades consumidas em virtude do número de doentes.,,Não aplicável.,Não aplicável.,FALSE
DRENOS,Ajuste Direto Regime Geral,Aquisição de bens móveis,"33000000-0, Equipamento médico, medicamentos e produtos para cuidados pessoais","Instituto Português de Oncologia de Coimbra Francisco Gentil, E. P. E. (506361438)",EPJMEDICA - ARTIGOS MÉDICOS HOSPITALARES (506820513),"18,30 €",04-09-2018,25-11-2016,365 dias,"Portugal, Coimbra, Coimbra","Artigo 20.º, n.º 1, alínea a) do Código dos Contratos Públicos",30-10-2017,"12,19 €",,Diminuição das quantidades,,Não aplicável.,Não aplicável.,FALSE
DRENOS,Ajuste Direto Regime Geral,Aquisição de bens móveis,"33000000-0, Equipamento médico, medicamentos e produtos para cuidados pessoais","Instituto Português de Oncologia de Coimbra Francisco Gentil, E. P. E. (506361438)",HR Hospitalar (501895558),"2.992,50 €",04-09-2018,25-11-2016,365 dias,"Portugal, Coimbra, Coimbra","Artigo 20.º, n.º 1, alínea a) do Código dos Contratos Públicos",13-12-2017,"3.236,59 €",,Necessidade do aumento das quantidades consumidas em virtude do número de doentes,,Não aplicável.,Não aplicável.,FALSE
DRENOS,Ajuste Direto Regime Geral,Aquisição de bens móveis,"33000000-0, Equipamento médico, medicamentos e produtos para cuidados pessoais","Instituto Português de Oncologia de Coimbra Francisco Gentil, E. P. E. (506361438)",Vygon Portugal (503232785),"14.145,60 €",04-09-2018,25-11-2016,365 dias,"Portugal, Coimbra, Coimbra","Artigo 20.º, n.º 1, alínea a) do Código dos Contratos Públicos",08-11-2017,"11.065,59 €",,Diminuição das quantidades,,Não aplicável.,Não aplicável.,FALSE
DRENOS,Ajuste Direto Regime Geral,Aquisição de bens móveis,"33000000-0, Equipamento médico, medicamentos e produtos para cuidados pessoais","Instituto Português de Oncologia de Coimbra Francisco Gentil, E. P. E. (506361438)","HOSPITEX - MATERIAL HOSPITALAR, LDA (501909842)","1.531,50 €",04-09-2018,25-11-2016,365 dias,"Portugal, Coimbra, Coimbra","Artigo 20.º, n.º 1, alínea a) do Código dos Contratos Públicos",12-12-2017,"1.493,80 €",,Diminuição das quantidades.,,Não aplicável.,Não aplicável.,FALSE
