Objeto do Contrato,Tipo de Procedimento,Tipo(s) de Contrato,CPVs,Entidade(s) Adjudicante(s),Entidade(s) Adjudicatária(s),Preço Contratual,Data de Publicação,Data de Celebração do Contrato,Prazo de Execução,Local de Execução,Fundamentação,Data de Fecho do Contrato,Preço Total Efetivo,Causas das Alterações ao Prazo,Causas das Alterações ao Preço,Estado,N.º registo do Acordo Quadro,Descrição do Acordo Quadro,Procedimento Centralizado
Aquisição de Prestação de serviços de Medicina Física e Reabilitação,Ajuste Direto Regime Geral,Aquisição de serviços,"85142100-7, Serviços de fisioterapia","Hospital do Espírito Santo de Évora, E. P. E. (508085888)",FISIRED - FISIOTERAPIA E MEDICINA UNIPES LDA (509133436),"5.414,67 €",20-08-2015,19-02-2015,300 dias,"Portugal, Évora, Évora","Artigo 20.º, n.º 1, alínea a) do Código dos Contratos Públicos",,,,,,Não aplicável.,Não aplicável.,FALSE
Prestação de Serviços de Medicina Física e Reabilitação,Ajuste Direto Regime Geral,Aquisição de serviços,"85140000-2, Serviços de saúde diversos","Hospital do Espírito Santo de Évora, E. P. E. (508085888)",CALENDARIO DO TEMPO LDA (508498376),"4.095,90 €",20-08-2015,30-01-2015,330 dias,"Portugal, Évora, Évora","Artigo 20.º, n.º 1, alínea a) do Código dos Contratos Públicos",,,,,,Não aplicável.,Não aplicável.,FALSE
aquisição de catéteres veia periférica,Ajuste Direto Regime Geral,Aquisição de bens móveis,"33141200-2, Cateteres","Hospital do Espírito Santo de Évora, E. P. E. (508085888)",SMITHS MEDICAL (PORTUGAL) UNIPESSOAL LDA (507445937),"5.819,00 €",18-08-2015,02-07-2015,8 dias,"Portugal, Évora, Évora","Artigo 20.º, n.º 1, alínea a) do Código dos Contratos Públicos",,,,,,Não aplicável.,Não aplicável.,FALSE
Aquisição de Cardioversor disfibrilhador,Ajuste Direto Regime Geral,Aquisição de bens móveis,"33184100-4, Implantes cirúrgicos","Hospital do Espírito Santo de Évora, E. P. E. (508085888)",MEDTRONIC PORTUGAL LDA (504223933),"11.800,00 €",18-08-2015,02-07-2015,8 dias,"Portugal, Évora, Évora","Artigo 20.º, n.º 1, alínea a) do Código dos Contratos Públicos",,,,,,Não aplicável.,Não aplicável.,FALSE
Aquisição de Electrodo Ponte Filamento,Ajuste Direto Regime Geral,Aquisição de bens móveis,"33140000-3, Material médico de consumo","Hospital do Espírito Santo de Évora, E. P. E. (508085888)",JOHNSON & JOHNSON LDA (500153370),"6.425,00 €",18-08-2015,02-07-2015,8 dias,"Portugal, Évora, Évora","Artigo 20.º, n.º 1, alínea a) do Código dos Contratos Públicos",,,,,,Não aplicável.,Não aplicável.,FALSE
Aquisição de compressas,Ajuste Direto Regime Geral,Aquisição de bens móveis,"33141119-7, Compressas","Hospital do Espírito Santo de Évora, E. P. E. (508085888)",ALBINO DIAS ANDRADE (500013810),"5.185,23 €",18-08-2015,02-07-2015,8 dias,"Portugal, Évora, Évora","Artigo 20.º, n.º 1, alínea a) do Código dos Contratos Públicos",,,,,,Não aplicável.,Não aplicável.,FALSE
AQUISIÇÃO DE ESFINCTER URINÁRIO,Ajuste Direto Regime Geral,Aquisição de bens móveis,"33184100-4, Implantes cirúrgicos","Hospital do Espírito Santo de Évora, E. P. E. (508085888)",AMERICAN MEDICAL SYSTEMS IBERICA SL (980223598),"7.600,00 €",18-08-2015,25-06-2015,8 dias,"Portugal, Évora, Évora","Artigo 20.º, n.º 1, alínea a) do Código dos Contratos Públicos",,,,,,Não aplicável.,Não aplicável.,FALSE
Dispositivos médicos de Colheita de Sangue,Concurso público,Aquisição de bens móveis,"33141613-0, Sacos para sangue","Hospital do Espírito Santo de Évora, E. P. E. (508085888)",FRESENIUS KABI PHARMA PORTUGAL (504293753),"107.948,84 €",18-08-2015,06-02-2015,330 dias,"Portugal, Évora, Évora","Artigo 20.º, n.º 1, alínea b) do Código dos Contratos Públicos",,,,,,Não aplicável.,Não aplicável.,FALSE
Aquisição de MCDT´s no exterior,Ajuste Direto Regime Geral,Aquisição de serviços,"85142100-7, Serviços de fisioterapia","Hospital do Espírito Santo de Évora, E. P. E. (508085888)",CRUZ VERMELHA PORTUGUESA ESTREMOZ (500745749),"6.878,83 €",14-08-2015,24-03-2015,280 dias,"Portugal, Évora, Évora","Artigo 20.º, n.º 1, alínea a) do Código dos Contratos Públicos",,,,,,Não aplicável.,Não aplicável.,FALSE
Aquisição de dispositivos médicos,Ajuste Direto Regime Geral,Aquisição de bens móveis,"33140000-3, Material médico de consumo","Hospital do Espírito Santo de Évora, E. P. E. (508085888)",JOHNSON & JOHNSON LDA (500153370),"2.910,00 €",13-08-2015,29-05-2015,220 dias,"Portugal, Évora, Évora","Artigo 20.º, n.º 1, alínea a) do Código dos Contratos Públicos",,,,,,Não aplicável.,Não aplicável.,FALSE
Aquisição de dispositivos médicos descartáveis,Ajuste Direto Regime Geral,Aquisição de bens móveis,"33190000-8, Dispositivos e produtos médicos variados","Hospital do Espírito Santo de Évora, E. P. E. (508085888)",Boston Scientific (504988964),"9.200,00 €",13-08-2015,19-05-2015,210 dias,"Portugal, Évora, Évora","Artigo 20.º, n.º 1, alínea a) do Código dos Contratos Públicos",,,,,,Não aplicável.,Não aplicável.,FALSE
Prestação de serviços médicos,Ajuste Direto Regime Geral,Aquisição de serviços,"85120000-6, Serviços de prática médica e serviços conexos","Hospital do Espírito Santo de Évora, E. P. E. (508085888)",MARCOS ROMERO CIOFFI (282870628),"8.100,00 €",13-08-2015,26-03-2015,300 dias,"Portugal, Évora, Évora","Artigo 20.º, n.º 1, alínea a) do Código dos Contratos Públicos",,,,,,Não aplicável.,Não aplicável.,FALSE
Obras de conceção e construção de sala da preparação de citostáticos,Ajuste Direto Regime Geral,Empreitadas de obras públicas,"45200000-9, Obras de construção total ou parcial e de engenharia civil","Hospital do Espírito Santo de Évora, E. P. E. (508085888)",IBERCONCEPT LDA (507212738),"146.670,00 €",13-08-2015,13-04-2015,100 dias,"Portugal, Évora, Évora","Artigo 19.º, alínea a) do Código dos Contratos Públicos",,,,,,Não aplicável.,Não aplicável.,FALSE
Prestação de serviços médicos,Ajuste Direto Regime Geral,Aquisição de serviços,"85121200-5, Serviços de medicina especializada","Hospital do Espírito Santo de Évora, E. P. E. (508085888)",TIAGO FRADIQUE PEREIRA RODRIGUES ALMEIDA (220761680),"43.200,00 €",13-08-2015,01-02-2015,330 dias,"Portugal, Évora, Évora","Artigo 20.º, n.º 1, alínea a) do Código dos Contratos Públicos",,,,,,Não aplicável.,Não aplicável.,FALSE
Fornecimento de refeições,Ajuste Direto Regime Geral,Aquisição de serviços,"55500000-5, Serviços de cantinas e de fornecimento de refeições (catering)","Hospital do Espírito Santo de Évora, E. P. E. (508085888)",GERTAL (500126623),"860.365,39 €",13-08-2015,29-12-2014,270 dias,"Portugal, Évora, Évora","Artigo 27.º, n.º 1, alínea a) do Código dos Contratos Públicos",,,,,,Não aplicável.,Não aplicável.,FALSE
Prestação de serviços de ambulancias,Ajuste Direto Regime Geral,Aquisição de serviços,"85143000-3, Serviços de ambulâncias","Hospital do Espírito Santo de Évora, E. P. E. (508085888)",FEDERAÇÃO DOS BOMBEIROS DO DISTRITO EVORA (507465016),"37.498,50 €",13-08-2015,17-04-2015,270 dias,"Portugal, Évora, Évora","Artigo 20.º, n.º 1, alínea a) do Código dos Contratos Públicos",,,,,,Não aplicável.,Não aplicável.,FALSE
Aquisição de mesa operatória,Ajuste Direto Regime Geral,Aquisição de bens móveis,"33100000-1, Equipamento médico","Hospital do Espírito Santo de Évora, E. P. E. (508085888)",OPTOMETRON (503793060),"9.452,00 €",13-08-2015,27-04-2015,8 dias,"Portugal, Évora, Évora","Artigo 20.º, n.º 1, alínea a) do Código dos Contratos Públicos",,,,,,Não aplicável.,Não aplicável.,FALSE
Prestação de serviços de medicina física e reabilitação,Ajuste Direto Regime Geral,Aquisição de serviços,"85140000-2, Serviços de saúde diversos","Hospital do Espírito Santo de Évora, E. P. E. (508085888)",SANTA CASA DA MISERICORDIA DE MORA (500848599),"2.749,70 €",13-08-2015,05-03-2015,300 dias,"Portugal, Évora, Évora","Artigo 20.º, n.º 1, alínea a) do Código dos Contratos Públicos",,,,,,Não aplicável.,Não aplicável.,FALSE
Preestação servoços,Ajuste Direto Regime Geral,Aquisição de serviços,"85140000-2, Serviços de saúde diversos","Hospital do Espírito Santo de Évora, E. P. E. (508085888)",CLINICA RECUPERAÇÃO M H VILA VIÇOSA LDA (502960639),"3.661,25 €",13-08-2015,13-03-2015,280 dias,"Portugal, Évora, Évora","Artigo 20.º, n.º 1, alínea a) do Código dos Contratos Públicos",,,,,,Não aplicável.,Não aplicável.,FALSE
Aquisição de MCDT´s no exterior,Ajuste Direto Regime Geral,Aquisição de serviços,"85110000-3, Serviços hospitalares e afins","Hospital do Espírito Santo de Évora, E. P. E. (508085888)",Fisionovas (230404685),"9.697,00 €",12-08-2015,27-02-2015,330 dias,"Portugal, Évora, Évora","Artigo 20.º, n.º 1, alínea a) do Código dos Contratos Públicos",,,,,,Não aplicável.,Não aplicável.,FALSE
Aquisição de MCDT´s no exterior,Ajuste Direto Regime Geral,Aquisição de serviços,"85110000-3, Serviços hospitalares e afins","Hospital do Espírito Santo de Évora, E. P. E. (508085888)",HOSPITAL  S JOAO DEUS (500927731),"5.411,55 €",12-08-2015,27-02-2015,330 dias,"Portugal, Évora, Évora","Artigo 20.º, n.º 1, alínea a) do Código dos Contratos Públicos",,,,,,Não aplicável.,Não aplicável.,FALSE
Prestação de serviços de enfermagem,Ajuste Direto Regime Geral,Aquisição de serviços,"85141200-1, Serviços prestados pelo pessoal de enfermagem","Hospital do Espírito Santo de Évora, E. P. E. (508085888)",RANDSTAD CLINICAL CUIDADOS DE SAUDE LDA (505121247),"26.547,60 €",12-08-2015,31-12-2014,150 dias,"Portugal, Évora, Évora","Artigo 20.º, n.º 1, alínea a) do Código dos Contratos Públicos",,,,,,Não aplicável.,Não aplicável.,FALSE
Aquisição de Sonda TransEsofagica,Ajuste Direto Regime Geral,Aquisição de bens móveis,"33120000-7, Sistemas de registo e dispositivos de exploração","Hospital do Espírito Santo de Évora, E. P. E. (508085888)",PHILIPS PORTUGUESA SA (500216843),"20.587,00 €",12-08-2015,03-03-2015,8 dias,"Portugal, Évora, Évora","Artigo 20.º, n.º 1, alínea a) do Código dos Contratos Públicos",,,,,,Não aplicável.,Não aplicável.,FALSE
Prestação de serviços médicos,Ajuste Direto Regime Geral,Aquisição de serviços,"85121000-3, Serviços de prática médica","Hospital do Espírito Santo de Évora, E. P. E. (508085888)",CARLA CRISTINA CLEMENTE PINTO RENTE (207806179),"14.400,00 €",11-08-2015,01-02-2015,240 dias,"Portugal, Évora, Évora","Artigo 20.º, n.º 1, alínea a) do Código dos Contratos Públicos",,,,,,Não aplicável.,Não aplicável.,FALSE
Prestação de serviços medicos,Ajuste Direto Regime Geral,Aquisição de serviços,"85121000-3, Serviços de prática médica","Hospital do Espírito Santo de Évora, E. P. E. (508085888)",Luramed (507129431),"28.800,00 €",11-08-2015,01-02-2015,330 dias,"Portugal, Évora, Évora","Artigo 20.º, n.º 1, alínea a) do Código dos Contratos Públicos",,,,,,Não aplicável.,Não aplicável.,FALSE
Dispensador de Senhas,Ajuste Direto Regime Geral,Aquisição de bens móveis,"30230000-0, Equipamento informático","Hospital do Espírito Santo de Évora, E. P. E. (508085888)",ATTENDSYS - SOL GLOBAIS ATENDIMENTO UN LDA (510306802),"9.713,00 €",11-08-2015,22-10-2014,8 dias,"Portugal, Évora, Évora","Artigo 24.º, n.º 1, alínea e) do Código dos Contratos Públicos",,,,,,Não aplicável.,Não aplicável.,FALSE
Prestação de serviços médicos,Ajuste Direto Regime Geral,Aquisição de serviços,"85121200-5, Serviços de medicina especializada","Hospital do Espírito Santo de Évora, E. P. E. (508085888)",TIAGO FRADIQUE PEREIRA RODRIGUES ALMEIDA (220761680),"35.100,00 €",11-08-2015,01-02-2015,330 dias,"Portugal, Évora, Évora","Artigo 20.º, n.º 1, alínea a) do Código dos Contratos Públicos",,,,,,Não aplicável.,Não aplicável.,FALSE
