Objeto do Contrato,Tipo de Procedimento,Tipo(s) de Contrato,CPVs,Entidade(s) Adjudicante(s),Entidade(s) Adjudicatária(s),Preço Contratual,Data de Publicação,Data de Celebração do Contrato,Prazo de Execução,Local de Execução,Fundamentação,Data de Fecho do Contrato,Preço Total Efetivo,Causas das Alterações ao Prazo,Causas das Alterações ao Preço,Estado,N.º registo do Acordo Quadro,Descrição do Acordo Quadro,Procedimento Centralizado
"Aquisição de Serviços para manutenção do Datacenter instalado na ARSAlentejo, referente ao ano 2013.",Ajuste Direto Regime Geral,Aquisição de serviços,"50000000-5, Serviços de reparação e manutenção","Administração Regional de Saúde do Alentejo, I. P. (503148768)","Hewlett- Packard Portugal, Ldª (502407697)","7.821,00 €",07-04-2014,12-02-2013,365 dias,"Portugal, Évora, Évora","Artigo 20.º, n.º 1, alínea a) do Código dos Contratos Públicos",05-09-2013,"7.821,00 €",,"",,Não aplicável.,Não aplicável.,FALSE
Aquisição de Papel para fotocópia e Impressão,Ao abrigo de acordo-quadro (art.º 259.º),Aquisição de bens móveis,"30197643-5, Papel para fotocópia","Hospital Santa Maria Maior, EPE (506361381), Centro Medicina de Reabilitação da Região Centro Rovisco Pais (503767336), Centro Hospitalar de Lisboa Ocidental, EPE (507618319), Centro Hospitalar do Oeste (510412009), Direção-Geral da Saúde (600037100), Centro Hospitalar Barreiro Montijo, EPE (509186998), Centro Hospitalar de Lisboa Norte, EPE (508481287), Hospital Dr. Francisco Zagalo (507846044), Administração Regional de Saúde de Lisboa e Vale do Tejo, IP (503148776), Centro Hospitalar Vila Nova de Gaia/Espinho, EPE (508142156), Inspeção-Geral das Atividades em Saúde (600018857), Unidade Local de Saúde de Castelo Branco, EPE (509309844), Centro Hospitalar e Universitário de Coimbra, EPE (510103448), Centro Hospitalar de S. João, EPE (509821197), Hospital de Magalhães Lemos, EPE (502828790), Centro Hospitalar do Médio Tejo, EPE (506361608), Instituto Português de Oncologia do Porto Francisco Gentil, EPE (506362299), Serviços Partilhados do Ministério da Saúde, EPE (509540716), Centro Hospitalar de Setúbal, EPE (507606787), Centro Hospitalar Cova da Beira, EPE (506361659), Instituto Português do Sangue e da Transplantação, IP (502423943), Centro Hospitalar do Alto Ave, EPE (508080827), Centro Hospitalar de Entre Douro e Vouga,  EPE (508878462), Unidade Local de Saúde do Nordeste, EPE (509932584), Centro Hospitalar Psiquiátrico de Lisboa (508338476), Administração Central do Sistema de Saúde, IP (508188423), Serviço de Intervenção nos Comportamentos Aditivos e nas Dependências (600084884), Administração Regional de Saúde do Alentejo, IP (503148768), Centro Hospitalar de Trás-os-Montes e Alto Douro, EPE (508100496), Unidade Local de saúde da Guarda, EPE (508752000), Hospital José Luciano de Castro (501613021), Unidade Local de Saúde de Matosinhos, EPE (506361390), Instituto Nacional de Saúde Dr. Ricardo Jorge, IP (501427511), Centro Hospitalar do Algarve, EPE (510745997), Instituto Nacional de Emergência Médica, IP (501356126), Administração Regional de Saúde do Centro, IP (503122165), Hospital Espírito Santo, EPE (508085888), Unidade Local de Saúde do Norte Alentejano, EPE (508094461), Administração Regional de Saúde do Norte, IP (503135593), Hospital Distrital Figueira da Foz, EPE (506361527), Secretaria-Geral do Ministério da Saúde (600080684), Centro Hospitalar de Leiria-Pombal, EPE (509822932), Hospital Arcebispo João Crisóstomo (501626123), Autoridade Nacional do Medicamento e Produtos de Saúde, IP (600037002), Unidade Local de Saúde do Alto Minho, EPE (508786193), Centro Hospitalar do Médio Ave, EPE (508093937), Centro Hospitalar do Porto, EPE (508331471), Administração Regional de Saúde do Algarve, IP (503148709), Hospital Garcia de Orta, EPE (506361470), Centro Hospitalar Tondela-Viseu, EPE (509822940), Instituto de Oftalmologia Dr. Gama Pinto (600000052), Centro Hospitalar Tâmega e Sousa, EPE (508318262), Unidade Local de Saúde do Baixo Alentejo, EPE (508754275), Instituto Português de Oncologia de Coimbra Francisco Gentil, EPE (506361438), Hospital Professor Doutor Fernando Fonseca, EPE (503035416), Centro Hospitalar Lisboa Central, EPE (508080142), Hospital de Santarém, EPE (506361462)","Staples Portugal, S.A. (503789372)","1.678.737,97 €",01-04-2014,02-01-2014,365 dias,Portugal,Artigo 259.º do Código dos Contratos Públicos,30-01-2014,"5.443,80 €",,O total efetivo corresponde apenas a este Centro Hospitalar.,,162548,"Concurso limitado por prévia qualificação para a celebração de Acordo Quadro para fornecimento de papel, economato e consumíveis de impressão.",TRUE
"Aquisição de eletricidade englobando BTE, MT, AT e MAT",Ao abrigo de acordo-quadro (art.º 259.º),Aquisição de bens móveis,"09310000-5, Electricidade","Instituto de Oftalmologia Dr. Gama Pinto (600000052), CHO - Centro Hospitalar do Oeste (510412009), Centro Hospitalar Vila Nova de Gaia - Espinho, E. P. E. (508142156), Unidade Local de Saúde de Castelo Branco, E.P.E. (509309844), Centro Hospitalar de Lisboa Ocidental, E.P.E. (507618319), Unidade Local de Saúde do Alto Minho, E. P. E. (508786193), Administração Regional de Saúde Algarve, I.P. (503148709), Centro Hospitalar de Leiria, E.P.E. (509822932), Unidade Local de Saúde do Baixo Alentejo, E.P.E. (508754275), Centro Hospitalar de Setúbal, E. P. E. (507606787), Centro Hospitalar Cova da Beira, EPE (506361659), Insituto Nacional de Saúde Dr. Ricardo Jorge, I.P. (501427511), INFARMED - Autoridade Nacional do Medicamento e Produtos de Saúde I.P. (600037002), Administração Regional de Saúde do Alentejo, I. P. (503148768), Centro Hospitalar do Porto, E.P.E. (508331471), Centro Hospitalar de Entre o Douro e Vouga, E.P.E. (508878462), Unidade Local de Saúde do Litoral Alentejano, E.P.E. (510445152), Hospital Professor Doutor Fernando Fonseca, E.P.E. (503035416), Centro Hospitalar do Médio Ave, E.P.E. (508093937), SUCH - Serviço de Utilização Comum dos Hospitais (500900469), Centro Hospitalar do Alto Ave, E.P.E. (508080827), Unidade Local de Saúde de Matosinhos, E.P.E. (506361390), Centro Hospitalar Psiquiátrico de Lisboa (508338476), Administração Regional de Saúde do Centro, I. P. (503122165), Centro Hospitalar do Tâmega e Sousa, E. P. E. (508318262), Instituto Português Oncologia do Porto Francisco Gentil, E.P.E. (506362299), Centro Hospitalar Tondela-Viseu, E.P.E. (509822940), Direcção-Geral da Saúde (600037100), Inspeção-Geral das Atividades em Saúde (600018857), Hospital do Espírito Santo de Évora, E. P. E. (508085888), Centro Hospitalar Póvoa de Varzim - Vila do Conde, E.P.E. (508741823), Centro Hospitalar de Trás-os-Montes e Alto Douro, E. P. E. (508100496), Hospital de Santarém, E.P.E. (506361462), Instituto Português Oncologia de Coimbra Francisco Gentil, E.P.E. (506361438), Instituto Português do sangue (502423943), Hospital Garcia de Orta, E.P.E. (506361470), Centro Hospitalar e Universitário de Coimbra, E. P. E. (510103448), Serviço Partilhados do Ministério da Saúde, E. P. E. (509540716), Centro Hospitalar de Lisboa Central, E. P. E. (508080142), Hospital Santa Maria Maior, E.P.E. - Barcelos (506361381), Centro Medicina de Reabilitação da Região Centro Rovisco Pais (503767336), Hospital de Magalhães Lemos, E. P. E. (502828790), Centro Hospitalar Barreiro Montijo, E.P.E. (509186998), CENTRO HOSPITALAR DO ALGARVE (508718872), Centro Hospitalar do Baixo Vouga, E.P.E. (510123210), Administração Regional de Saúde do Norte, I. P. (503135593), Centro Hospitalar do Médio Tejo, E. P. E. (506361608), Centro Hospitalar Lisboa Norte, E. P. E. (508481287), Administração Regional de Saúde de Lisboa e Vale do Tejo, I. P. (503148776), Unidade Local de Saúde da Guarda, E.P.E. (508752000), Hospital Dr. Francisco Zagalo - Ovar (501510150), Secretaria-Geral do Ministério da Saúde (600080684), Administração Central do Sistema de Saúde, I.P. (508188423), Instituto Nacional de Emergência Médica, I.P. (501356126), Unidade Local de Saúde do Nordeste, E. P. E (509932584), Hospital José Luciano de Castro - Anadia (501613021)","EDP Comercial, SA (503504564)","23.711.683,78 €",01-04-2014,01-03-2014,365 dias,Portugal,Artigo 259.º do Código dos Contratos Públicos,30-12-2014,"356.327,09 €",,diminuicao das necessidades,,314294,Acordo quadro para o fornecimento de electricidade em regime de mercado livre para Portugal Continental,TRUE
Aquisição de Economato,Ao abrigo de acordo-quadro (art.º 259.º),Aquisição de bens móveis,"30192000-1, Material de escritório","Inspeção-Geral das Atividades em Saúde (600018857), Administração Central do Sistema de Saúde, I.P. (508188423), Administração Regional de Saúde Lisboa e Vale do Tejo, IP (503148776), Autoridade Nacional do Medicamento e Produtos de Saúde (600037002), Inatituto Nacional de Emergência Médica, I.P. (501356126), Administração Regional de Saúde Alentejo, IP  (503148768), Instituto Português do Sangue e da Transplantação, I.P. (502423943), Administração Regional de Saúde Algarve, IP (503148709), Administração Regional de Saúde Centro, IP (503122165), Secretaria-Geral do Ministério da Saúde (600080684), Serviço de Intervenção nos Comportamentos Aditivos e nas Dependências (600084884), Instituto Nacional de Saúde Dr. Ricardo Jorge, IP (501427511), Direção-Geral da Saúde (600037100), Administração Regional de Saúde Norte, IP (503135593)","Olmar - Artigos de Papelaria, Lda. (508831989)","267.744,78 €",01-04-2014,22-02-2013,365 dias,Portugal,Artigo 259.º do Código dos Contratos Públicos,31-12-2013,"267.744,78 €",,"",,162548,"Concurso limitado por prévia qualificação para a celebração de Acordo Quadro para fornecimento de papel, economato e consumíveis de impressão.",TRUE
AQUISIÇÃO DE COMBUSTIVEL RODOVIÁRIO EM POSTOS DE ABASTECIMENTO PUBLICOS,Ao abrigo de acordo-quadro (art.º 259.º),Aquisição de bens móveis,"09100000-0, Combustíveis","Administração Central do Sistema de Saúde, I.P. (508188423), Administração Regional de Saúde Centro, I.P. (503122165), Gabinete do Secretário de Estado da Saúde  (600052290), Administração Regional de Saúde Norte, I.P. (503135593), Infarmed - Autoridade Nacional do Medicamento e Produtos de Saúde, I.P. (600037002), Secretaria-Geral do Ministério da Saúde (600080684), Instituto Nacional de Emergência Médica, I.P. (501356126), Inspeção-Geral das Atividades em Saúde (600018857), Instituto Português do Sangue e da Transplantação, I.P. (502423943), Administração Regional de Saúde Algarve, I.P. (503148709), Serviço de Intervenção nos Comportamentos Aditivos e nas Dependências (600084884), Administração Regional de Saúde Lisboa e Vale do Tejo, I.P. (503148776), Instituto Nacional de Saúde Dr. Ricardo Jorge, I.P. (501427511), Administração Regional de Saúde Alentejo, I.P. (503148768), Gabinete do Ministro da Saúde  (600052303), Gabinete do Secretário de Estado Adjunto do Ministro da Saúde  (600071006), Direção-Geral da Saúde (600037100)",Petroleos de Portugal SA (500697370),"3.483.417,76 €",01-04-2014,14-01-2013,365 dias,Portugal,Artigo 259.º do Código dos Contratos Públicos,14-01-2014,"3.483.417,76 €",,"",,1189847,FORNECIMENTO DE ENERGIA ELÉCTRICA PARA DIVERSAS INSTALAÇÕES OU INFRA-ESTRUTURAS DO MUNICÍPIO DE MATOSINHOS,TRUE
"Contratação de Serviços de Técnico de Diagnóstico Terapeuta - Ramo Ortóptica, para a Unidade de Recursos Assistenciais Partilhados, por um Período de Doze meses",Ajuste Direto Regime Geral,Aquisição de serviços,"85000000-9, Serviços de saúde e acção social","Administração Regional de Saúde do Alentejo, I. P. (503148768)",Hugo Alexandre Pereira Quental (210948299),"12.240,72 €",01-04-2014,21-03-2014,365 dias,"Portugal, Évora","Artigo 20.º, n.º 1, alínea a) do Código dos Contratos Públicos",13-04-2015,"12.240,72 €",,"",,Não aplicável.,Não aplicável.,FALSE
