Objeto do Contrato,Tipo de Procedimento,Tipo(s) de Contrato,CPVs,Entidade(s) Adjudicante(s),Entidade(s) Adjudicatária(s),Preço Contratual,Data de Publicação,Data de Celebração do Contrato,Prazo de Execução,Local de Execução,Fundamentação,Data de Fecho do Contrato,Preço Total Efetivo,Causas das Alterações ao Prazo,Causas das Alterações ao Preço,Estado,N.º registo do Acordo Quadro,Descrição do Acordo Quadro,Procedimento Centralizado
"Aquisição de serviços de desenvolvimento de uma solução de gestão logística, compras e imobilizado para a ARS Centro",Concurso público,Aquisição de serviços,"72232000-0, Desenvolvimento de software de processamento de transacções e de software à medida","SPMS - Serviços Partilhados do Ministério da Saúde, E. P. E. (509540716)","Glintt - Healthcare Solutions, S. A. (502479418)","97.170,00 €",19-11-2015,31-08-2015,1095 dias,Portugal,"Artigo 21.º, n.º 1, alínea b) do Código dos Contratos Públicos",,,,,,Não aplicável.,Não aplicável.,FALSE
Aquisição de serviços especializados de BI para a produção de DASHBOARDS em power BI para o centro de Innovation & Research,Ajuste Direto Regime Geral,Aquisição de serviços,"72500000-0, Serviços relacionados com a informática","SPMS - Serviços Partilhados do Ministério da Saúde, E. P. E. (509540716)","DevScope - Soluções de Sistemas e Tecnologias de Informação, SA (506694615)","9.750,00 €",19-11-2015,12-11-2015,49 dias,Portugal,"Artigo 20.º, n.º 1, alínea a) do Código dos Contratos Públicos",,,,,,Não aplicável.,Não aplicável.,FALSE
Serviços de consultoria e auditoria no âmbito dos projetos PRITIC,Ajuste Direto Regime Geral,Aquisição de serviços,"79411000-8, Serviços gerais de consultoria em matéria de gestão geral","SPMS- Serviços Partilhados do M. da Saúde, E.P.E. (509540716)","RFB - Microelectronica Avionicos e Computadores, Lda (502843330)","8.930,00 €",19-11-2015,30-10-2015,62 dias,Portugal,"Artigo 20.º, n.º 1, alínea a) do Código dos Contratos Públicos",,,,,,Não aplicável.,Não aplicável.,FALSE
AJUSTE DIRETO PARA AQUISIÇÃO DE UMA SOLUÇÃO DE WIFI NO AMBITO DOS SERVIÇOS PARTILHADOS,Ajuste Direto Regime Geral,Aquisição de bens móveis,"32420000-3, Equipamento de rede","SPMS - Serviços Partilhados do Ministério da Saúde, E. P. E. (509540716)","Informatem - Informática e Manutenção, Lda (503670693)","9.086,76 €",19-11-2015,28-10-2015,60 dias,Portugal,"Artigo 20.º, n.º 1, alínea a) do Código dos Contratos Públicos",,,,,,Não aplicável.,Não aplicável.,FALSE
AJUSTE DIRETO PARA AQUISIÇÃO DE SERVIÇOS DE CONSULTORIA PARA DESENVOLVIMENTO DE ARQUITETURA EMPRESARIAL DO SISTEMA DE INFORMAÇÃO DA SAÚDE (SIS),Ajuste Direto Regime Geral,Aquisição de serviços,"72512000-7, Serviços de gestão de documentos","SPMS - Serviços Partilhados do Ministério da Saúde, E. P. E. (509540716)","Carla Marques Pereira Unipessoal, Lda (510429980)","9.920,00 €",18-11-2015,11-11-2015,49 dias,Portugal,"Artigo 20.º, n.º 1, alínea a) do Código dos Contratos Públicos",,,,,,Não aplicável.,Não aplicável.,FALSE
Aquisição de serviços de manutenção corretiva e evolutiva do sistema SITAM,Ao abrigo de acordo-quadro (art.º 259.º),Aquisição de serviços,"72230000-6, Serviços de desenvolvimento de software à medida","SPMS - Serviços Partilhados do Ministério da Saúde, E. P. E. (509540716)","GFI Portugal - Tecnologias de Informação, S. A. (502726890)","130.996,80 €",18-11-2015,30-09-2015,273 dias,"Portugal, Porto, Porto",Artigo 259.º do Código dos Contratos Públicos,,,,,,494439,"CONCURSO PÚBLICO COM PUBLICAÇÃO NO JOUE PARA A CELEBRAÇÃO DE ACORDO QUADRO PARA A PRESTAÇÃO DE SERVIÇOS DE CONSULTADORIA, DESENVOLVIMENTO E MANUTENÇÃO DE SOFTWARE  ",FALSE
Aquisição de licenciamento Vmware,Ajuste Direto Regime Geral,Aquisição de bens móveis,"22456000-1, Licenças","SPMS- Serviços Partilhados do M. da Saúde, E.P.E. (509540716)","ITEN SOLUTIONS - SISTEMAS DE INFORMAÇÃO, S.A. (510728189)","7.939,75 €",12-11-2015,01-10-2015,365 dias,Portugal,"Artigo 20.º, n.º 1, alínea a) do Código dos Contratos Públicos",,,,,,Não aplicável.,Não aplicável.,FALSE
Serviços de gestão operacional das infraestruturas do datacenter,Ao abrigo de acordo-quadro (art.º 259.º),Aquisição de serviços,"72500000-0, Serviços relacionados com a informática","SPMS - Serviços Partilhados do Ministério da Saúde, E. P. E. (509540716)","Echiron, Gestão de aplicações de software, S.A. (505081318)","64.600,00 €",11-11-2015,04-08-2015,182 dias,Portugal,Artigo 259.º do Código dos Contratos Públicos,,,,,,425776,CONCURSO PÚBLICO n.º 20120117 -,FALSE
Serviços especializados na área de comunicação e relações públicas,Ajuste Direto Regime Geral,Aquisição de serviços,"79416100-4, Serviços de gestão em matéria de relações públicas","SPMS - Serviços Partilhados do Ministério da Saúde, E. P. E. (509540716)","RH Portugal - Consultores em Investimentos Humanos, Lda (503461245)","18.438,30 €",11-11-2015,30-09-2015,180 dias,Portugal,"Artigo 20.º, n.º 1, alínea a) do Código dos Contratos Públicos",,,,,,Não aplicável.,Não aplicável.,FALSE
Aquisição de licenças e de serviços conexos de assistência pós-venda de software,Ao abrigo de acordo-quadro (art.º 259.º),Aquisição de bens móveis,"22456000-1, Licenças","SPMS - Serviços Partilhados do Ministério da Saúde, E. P. E. (509540716)","ITEN SOLUTIONS - SISTEMAS DE INFORMAÇÃO, S.A. (510728189)","6.494.683,08 €",11-11-2015,03-08-2015,365 dias,Portugal,Artigo 259.º do Código dos Contratos Públicos,,,,,,610968,Acordo quadro de licenciamento de software e serviços conexos,FALSE
