Objeto do Contrato,Tipo de Procedimento,Tipo(s) de Contrato,CPVs,Entidade(s) Adjudicante(s),Entidade(s) Adjudicatária(s),Preço Contratual,Data de Publicação,Data de Celebração do Contrato,Prazo de Execução,Local de Execução,Fundamentação,Data de Fecho do Contrato,Preço Total Efetivo,Causas das Alterações ao Prazo,Causas das Alterações ao Preço,Estado,N.º registo do Acordo Quadro,Descrição do Acordo Quadro,Procedimento Centralizado
"Aquisição de prestação de serviços de reparação e manutenção periódica aos ascensores da ARSLVT,IP; - ACES Lisboa Ocidental e Oeiras; Loures/Odivelas; Sintra; Almada/Seixal; Arrábida; Oeste Sul; Médio Tejo; Estuário do Tejo (perido de 01/01 a 31/12/2013).",Ajuste Direto Regime Geral,Aquisição de serviços,"50000000-5, Serviços de reparação e manutenção","Administração Regional de Saúde de Lisboa e Vale do Tejo, I.P. (503148776)","ThyssenKrupp, S.A. (501445226)","28.662,82 €",09-05-2013,13-02-2013,365 dias,"Portugal, Lisboa, Lisboa<BR/>Portugal, Lisboa, Torres Vedras<BR/>Portugal, Setúbal, Seixal<BR/>Portugal, Lisboa, Sintra<BR/>Portugal, Lisboa, Azambuja<BR/>Portugal, Setúbal, Almada<BR/>Portugal, Setúbal, Palmela<BR/>Portugal, Lisboa, Odivelas<BR/>Portugal, Lisboa, Loures<BR/>Portugal, Lisboa, Oeiras<BR/>Portugal, Santarém, Mação","Artigo 24.º, n.º 1, alínea e) do Código dos Contratos Públicos",,,,,,Não aplicável.,Não aplicável.,
"Aquisição de prestação de serviços de reparação e manutenção periódica aos ascensores da ARSLVT,IP - ACES Lisboa Norte; Lisboa Central; Amadora e Cascais (período de 01/01 a 31/12/2013).",Ajuste Direto Regime Geral,Aquisição de serviços,"50000000-5, Serviços de reparação e manutenção","Administração Regional de Saúde de Lisboa e Vale do Tejo, I.P. (503148776)","Schmitt- Elevadores, Lda. (500230757)","9.263,44 €",09-05-2013,23-01-2013,365 dias,"Portugal, Lisboa, Lisboa<BR/>Portugal, Lisboa, Amadora<BR/>Portugal, Lisboa, Cascais","Artigo 24.º, n.º 1, alínea e) do Código dos Contratos Públicos",,,,,,Não aplicável.,Não aplicável.,
Aquisição de prestação de serviços de vigilância e segurança (serviços extraordinários) nas US Ramada e US Póvoa.,Ajuste Direto Regime Geral,Aquisição de serviços,"90910000-9, Serviços de limpeza","Administração Regional de Saúde de Lisboa e Vale do Tejo, I.P. (503148776)","Prestibel - Empresa de Segurança, SA (501326456)","8.741,14 €",09-05-2013,09-05-2013,31 dias,"Portugal, Lisboa, Odivelas",Artigo 258.º do Código dos Contratos Públicos,,,,,,1016997,Aquisição de prestação de serviços de vigilância e segurança (serviços extraordinários) nas US Ramada e US Póvoa.,
"Aquisição de prestação de serviços de reparação e manutenção periódica ao ascensor da ARSLVT,IP - ACES IV (periodo de 01/01/2013 e 31/12/2013).",Ajuste Direto Regime Geral,Aquisição de serviços,"50000000-5, Serviços de reparação e manutenção","Administração Regional de Saúde de Lisboa e Vale do Tejo, I.P. (503148776)",Kone Portugal - Elevadores Lda. (506682048),"876,96 €",09-05-2013,23-01-2013,365 dias,"Portugal, Lisboa, Oeiras","Artigo 24.º, n.º 1, alínea e) do Código dos Contratos Públicos",,,,,,Não aplicável.,Não aplicável.,
"Aquisição de prestação de serviços de reparação e manutenção periódica ao ascensor da ARSLVT,IP - USF Póvoa de Santo Adrião - ACES Loures/Odivelas (01/04/2013 a 31/12/2013).",Ajuste Direto Regime Geral,Aquisição de serviços,"50000000-5, Serviços de reparação e manutenção","Administração Regional de Saúde de Lisboa e Vale do Tejo, I.P. (503148776)","Grupnor - Grupo Português de Elevadores do Norte, Lda (500959579)","1.093,00 €",09-05-2013,28-03-2013,275 dias,"Portugal, Lisboa, Odivelas","Artigo 24.º, n.º 1, alínea e) do Código dos Contratos Públicos",,,,,,Não aplicável.,Não aplicável.,
Aquisição de uma prestação de serviços de higiene e limpeza (UCSP Azambuja). Periodo de 01/05/2013 a 30/06/2013,Ajuste Direto Regime Geral,Aquisição de serviços,"90910000-9, Serviços de limpeza","Administração Regional de Saúde de Lisboa e Vale do Tejo, I.P. (503148776)","Samsic Portugal, SA (504839748)","1.698,66 €",08-05-2013,06-05-2013,61 dias,"Portugal, Lisboa, Azambuja",Artigo 258.º do Código dos Contratos Públicos,,,,,,1015847,Aquisição de uma prestação de serviços de higiene e limpeza (UCSP Azambuja). Periodo de 01/05/2013 a 30/06/2013,
"Aquisição de gasóleo para aquecimento das Unidades sitas no edifício de C. Rainha (8750Litros) e USF Sta. Mª Benedita (5000Litros) do ACES Oeste Norte, para o ano de 2013",Ajuste Direto Regime Geral,Aquisição de bens móveis,"09000000-3, Produtos petrolíferos, combustíveis, electricidade e outras fontes de energia","Administração Regional de Saúde de Lisboa e Vale do Tejo, I.P. (503148776)","Auto Júlio, S.A. (501864768)","16.101,25 €",07-05-2013,18-02-2013,317 dias,"Portugal, Leiria, Alcobaça<BR/>Portugal, Leiria, Caldas da Rainha","Artigo 20.º, n.º 1, alínea a) do Código dos Contratos Públicos",,,,,,Não aplicável.,Não aplicável.,
Prestação de serviços de acompanhamento da atividade da entidade gestora do edifício no âmbito do contrato de gestão do Hospital de Vila Franca de Xira. Período de Janeiro a Abril de 2013.,Ajuste Direto Regime Geral,Aquisição de serviços,"71315200-1, Serviços de consultoria relacionados com edifícios","Administração Regional de Saúde de Lisboa e Vale do Tejo, I.P. (503148776)",W. S. ATKINS (501912290),"60.000,00 €",07-05-2013,30-04-2013,120 dias,"Portugal, Lisboa, Vila Franca de Xira","Artigo 27.º, n.º 1, alínea a) do Código dos Contratos Públicos",,,,,,Não aplicável.,Não aplicável.,
"Aquisição de Tiotropio (Brometo) Pó Inal. 0,0225mg",Ajuste Direto Regime Geral,Aquisição de bens móveis,"33690000-3, Medicamentos vários","Administração Regional de Saúde de Lisboa e Vale do Tejo, I.P. (503148776)",Sanofi (500134960),"1.900,00 €",07-05-2013,22-04-2013,20 dias,"Portugal, Lisboa, Lisboa","Artigo 26.º, n.º 1, alínea e) do Código dos Contratos Públicos",,,,,,Não aplicável.,Não aplicável.,
Aquisição de Sabão Fisiológico e Solução Alcoolica com Dermoprotector,Ajuste Direto Regime Geral,Aquisição de bens móveis,"33690000-3, Medicamentos vários","Administração Regional de Saúde de Lisboa e Vale do Tejo, I.P. (503148776)","B. Braun Medical, Lda (501506543)","1.154,00 €",07-05-2013,22-04-2013,20 dias,"Portugal, Lisboa, Lisboa","Artigo 26.º, n.º 1, alínea e) do Código dos Contratos Públicos",,,,,,Não aplicável.,Não aplicável.,
Aquisição de Carvão ativado Pó Susp. Oral - 50g,Ajuste Direto Regime Geral,Aquisição de bens móveis,"33690000-3, Medicamentos vários","Administração Regional de Saúde de Lisboa e Vale do Tejo, I.P. (503148776)",Laboratório Medinfar (500384045),"1.350,00 €",07-05-2013,22-04-2013,20 dias,"Portugal, Lisboa, Lisboa","Artigo 24.º, n.º 1, alínea e) do Código dos Contratos Públicos",,,,,,Não aplicável.,Não aplicável.,
Aquisição de Aminofilina 225mg AP,Ajuste Direto Regime Geral,Aquisição de bens móveis,"33690000-3, Medicamentos vários","Administração Regional de Saúde de Lisboa e Vale do Tejo, I.P. (503148776)",Meda Pharma  (500082090),"198,00 €",07-05-2013,22-04-2013,20 dias,"Portugal, Lisboa, Lisboa","Artigo 26.º, n.º 1, alínea e) do Código dos Contratos Públicos",,,,,,Não aplicável.,Não aplicável.,
Aquisição de Protamina Injectável 10mg/ml - 5ml,Ajuste Direto Regime Geral,Aquisição de bens móveis,"33690000-3, Medicamentos vários","Administração Regional de Saúde de Lisboa e Vale do Tejo, I.P. (503148776)",Distrifarma (502948663),"315,00 €",07-05-2013,24-04-2013,20 dias,"Portugal, Lisboa, Lisboa","Artigo 24.º, n.º 1, alínea e) do Código dos Contratos Públicos",,,,,,Não aplicável.,Não aplicável.,
Aquisição de Terbutalina Pó Inal 500mcg/dose,Ajuste Direto Regime Geral,Aquisição de bens móveis,"33690000-3, Medicamentos vários","Administração Regional de Saúde de Lisboa e Vale do Tejo, I.P. (503148776)",Astra Zeneca (502942240),"668,00 €",07-05-2013,22-04-2013,20 dias,"Portugal, Lisboa, Lisboa","Artigo 26.º, n.º 1, alínea e) do Código dos Contratos Públicos",,,,,,Não aplicável.,Não aplicável.,
Aquisição de Propranolol 40mg,Ajuste Direto Regime Geral,Aquisição de bens móveis,"33690000-3, Medicamentos vários","Administração Regional de Saúde de Lisboa e Vale do Tejo, I.P. (503148776)",Astra Zeneca (502942240),"120,00 €",07-05-2013,22-04-2013,20 dias,"Portugal, Lisboa, Lisboa","Artigo 24.º, n.º 1, alínea e) do Código dos Contratos Públicos",,,,,,Não aplicável.,Não aplicável.,
Aquisição de Vacina BCG - 1ml - Multidose,Ajuste Direto Regime Geral,Aquisição de bens móveis,"33690000-3, Medicamentos vários","Administração Regional de Saúde de Lisboa e Vale do Tejo, I.P. (503148776)",JM - Farmacêutica (503550558),"88.800,00 €",07-05-2013,26-04-2013,20 dias,"Portugal, Lisboa, Lisboa","Artigo 26.º, n.º 1, alínea e) do Código dos Contratos Públicos",,,,,,Não aplicável.,Não aplicável.,
Aquisição de Fluoreto na Solução Bucal - 1000ml,Ajuste Direto Regime Geral,Aquisição de bens móveis,"33690000-3, Medicamentos vários","Administração Regional de Saúde de Lisboa e Vale do Tejo, I.P. (503148776)",Labesfal (501169580),"62.160,00 €",07-05-2013,22-04-2013,20 dias,"Portugal, Lisboa, Lisboa","Artigo 26.º, n.º 1, alínea e) do Código dos Contratos Públicos",,,,,,Não aplicável.,Não aplicável.,
Aquisição de Citrato de Sódio Composto Microenema bebe,Ajuste Direto Regime Geral,Aquisição de bens móveis,"33690000-3, Medicamentos vários","Administração Regional de Saúde de Lisboa e Vale do Tejo, I.P. (503148776)",Overpharma (505792362),"3.456,00 €",07-05-2013,22-04-2013,20 dias,"Portugal, Lisboa, Lisboa","Artigo 24.º, n.º 1, alínea e) do Código dos Contratos Públicos",,,,,,Não aplicável.,Não aplicável.,
Aquisição de Lidocaina 20mg/ml - 2ml,Ajuste Direto Regime Geral,Aquisição de bens móveis,"33690000-3, Medicamentos vários","Administração Regional de Saúde de Lisboa e Vale do Tejo, I.P. (503148776)","Labesfal - Laboratórios Almiro,Lda (501169580)","14.580,00 €",07-05-2013,22-04-2013,20 dias,"Portugal, Lisboa, Lisboa","Artigo 26.º, n.º 1, alínea e) do Código dos Contratos Públicos",,,,,,Não aplicável.,Não aplicável.,
"Obras de Reparação e pintura das paredes do Piso 2, no Centro de Saúde de Santo António dos Cavaleiros",Ajuste Direto Regime Geral,Empreitadas de obras públicas,"45113000-2, Obras no local","Administração Regional de Saúde de Lisboa e Vale do Tejo, I.P. (503148776)",MD TO Concept (510127886),"5.986,25 €",07-05-2013,06-05-2013,30 dias,"Portugal, Lisboa, Loures","Artigo 19.º, alínea a) do Código dos Contratos Públicos",,,,,,Não aplicável.,Não aplicável.,
" Trabalhos a Mais na Empreitada de Reparação de Infiltrações na Unidade de Saúde Familiar Alba Saúde, no Centro de Saúde de Albarraque",Ajuste Direto Regime Geral,Empreitadas de obras públicas,"45113000-2, Obras no local","Administração Regional de Saúde de Lisboa e Vale do Tejo, I.P. (503148776)",MD TO Concept (510127886),"1.378,83 €",07-05-2013,06-05-2013,10 dias,"Portugal, Lisboa, Sintra","Artigo 19.º, alínea a) do Código dos Contratos Públicos",,,,,,Não aplicável.,Não aplicável.,
"Empreitada de Remodelação do Edifício no Antigo CDP Rainha Amélia, no Cais do Sodré, para a USF Luz Soriano",Ajuste Direto Regime Geral,Empreitadas de obras públicas,"45113000-2, Obras no local","Administração Regional de Saúde de Lisboa e Vale do Tejo, I.P. (503148776)","API - Construções, Lda (503411558)","32.462,50 €",06-05-2013,30-04-2013,30 dias,"Portugal, Lisboa, Lisboa","Artigo 19.º, alínea a) do Código dos Contratos Públicos",,,,,,Não aplicável.,Não aplicável.,
"Aquisição de formulários diversos - Certificados de Incapacidade Temporária (Mod 141.10), Meios Complementares de Diagnóstico (Mod 330.10) e Prescrição de Cuidados Respiratórios Domiciliários (Mod 1900)",Concurso público,Aquisição de bens móveis,"22820000-4, Formulários","Administração Regional de Saúde de Lisboa e Vale do Tejo, I.P. (503148776)","Copidata, S.A. (508225140)","93.295,00 €",06-05-2013,09-04-2013,240 dias,"Portugal, Lisboa","Artigo 155.º, alínea b) do Código dos Contratos Públicos",,,,,,Não aplicável.,Não aplicável.,
Fornecimento de água para 2013 - ACES Serra d'Aire (UCSP Alcanena),Ajuste Direto Regime Geral,Aquisição de serviços,"65100000-4, Serviços de distribuição de água e serviços conexos","Administração Regional de Saúde de Lisboa e Vale do Tejo, I.P. (503148776)",LUSAGUA ALCANENA GESTÃO ÁGUAS SA (501834273),"3.131,49 €",02-05-2013,02-05-2013,365 dias,"Portugal, Santarém, Alcanena","Artigo 24.º, n.º 1, alínea e) do Código dos Contratos Públicos",,,,,,Não aplicável.,Não aplicável.,
Renovação da Prestação de Serviços de Manutenção e Reparação Periódica dos Equipamentos de Ar Condicionado sitos na AV. EUA n.º 77 - Ano de 2013.,Ajuste Direto Regime Geral,Aquisição de serviços,"50000000-5, Serviços de reparação e manutenção","Administração Regional de Saúde de Lisboa e Vale do Tejo, I.P. (503148776)","Odiclima - Soc. Técnica de Ar Condicionado, Lda. (502835230)","1.562,01 €",02-05-2013,24-04-2013,275 dias,"Portugal, Lisboa, Lisboa","Artigo 24.º, n.º 1, alínea e) do Código dos Contratos Públicos",,,,,,Não aplicável.,Não aplicável.,
Aquisição de uma prestação de serviços de ligação a central de receção e monitorização de alarmes (USF Descobertas). Periodo de Março a Dezembro de 2013,Ajuste Direto Regime Geral,Aquisição de serviços,"79710000-4, Serviços de segurança","Administração Regional de Saúde de Lisboa e Vale do Tejo, I.P. (503148776)","Prestibel - Empresa de Segurança, SA (501326456)","1.080,18 €",02-05-2013,09-04-2013,245 dias,"Portugal, Lisboa, Lisboa",Artigo 258.º do Código dos Contratos Públicos,,,,,,Não aplicável.,Não aplicável.,
