Objeto do Contrato,Tipo de Procedimento,Tipo(s) de Contrato,CPVs,Entidade(s) Adjudicante(s),Entidade(s) Adjudicatária(s),Preço Contratual,Data de Publicação,Data de Celebração do Contrato,Prazo de Execução,Local de Execução,Fundamentação,Data de Fecho do Contrato,Preço Total Efetivo,Causas das Alterações ao Prazo,Causas das Alterações ao Preço,Estado,N.º registo do Acordo Quadro,Descrição do Acordo Quadro,Procedimento Centralizado
"Prestação de serviços de Manutençao e Consultoria para Equipamentos das areas medicas do CHLO, com peças, para 2013.",Concurso público,Aquisição de serviços,"50421000-2, Serviços de reparação e manutenção de equipamento médico","Centro Hospitalar de Lisboa Ocidental, EPE (507618319)",SUCH - Serviço de Utilização Comum dos Hospitais (500900469),"140.269,00 €",28-03-2013,27-03-2013,275 dias,"Portugal, Lisboa, Lisboa","Artigo 20.º, n.º 1, alínea b) do Código dos Contratos Públicos",,,,,,Não aplicável.,Não aplicável.,
"Prestação de serviços de Manutençao as Instalaçoes e Equipamentos das areas nao medicas do CHLO, sem peças, para 2013.",Concurso público,Aquisição de serviços,"50421000-2, Serviços de reparação e manutenção de equipamento médico","Centro Hospitalar de Lisboa Ocidental, EPE (507618319)",SUCH - Serviço de Utilização Comum dos Hospitais (500900469),"47.812,00 €",28-03-2013,27-03-2013,275 dias,"Portugal, Lisboa, Lisboa","Artigo 20.º, n.º 1, alínea b) do Código dos Contratos Públicos",,,,,,Não aplicável.,Não aplicável.,
"Aluguer de Licença para Funcionamento da Nova Aplicação Nefrus - Sistema de Gestão de Unidades de Diálise, para o Serviço de Nefrologia do CHLO, EPE",Ajuste Direto Regime Geral,Aquisição de serviços,"72000000-5, Serviços de TI: consultoria, desenvolvimento de software, Internet e apoio","Centro Hospitalar de Lisboa Ocidental, EPE (507618319)","ADMINSAÚDE, Lda (507243250)","9.750,00 €",25-03-2013,27-02-2013,308 dias,"Portugal, Lisboa, Oeiras<BR/>Portugal, Lisboa, Lisboa","Artigo 21.º, n.º 1, alínea a) do Código dos Contratos Públicos",,,,,,Não aplicável.,Não aplicável.,
