Objeto do Contrato,Tipo de Procedimento,Tipo(s) de Contrato,CPVs,Entidade(s) Adjudicante(s),Entidade(s) Adjudicatária(s),Preço Contratual,Data de Publicação,Data de Celebração do Contrato,Prazo de Execução,Local de Execução,Fundamentação,Data de Fecho do Contrato,Preço Total Efetivo,Causas das Alterações ao Prazo,Causas das Alterações ao Preço,Estado,N.º registo do Acordo Quadro,Descrição do Acordo Quadro,Procedimento Centralizado
Fornecimento de Frigorífico de medicação,Ajuste Direto Regime Geral,Aquisição de bens móveis,"33100000-1, Equipamento médico","Centro Hospitalar do Tâmega e Sousa, EPE (508318262)","Bacelar & Irmão, Lda (500532818)","686,13 €",13-09-2013,22-07-2013,30 dias,"Portugal, Porto, Amarante","Artigo 20.º, n.º 1, alínea a) do Código dos Contratos Públicos",12-09-2013,"686,13 €",,,,Não aplicável.,Não aplicável.,
Fornecimento de foco rodado para pequena cirurgia,Ajuste Direto Regime Geral,Aquisição de bens móveis,"33100000-1, Equipamento médico","Centro Hospitalar do Tâmega e Sousa, EPE (508318262)","Bacelar & Irmão, Lda. (500532818)","845,00 €",13-09-2013,22-07-2013,30 dias,"Portugal, Porto, Amarante","Artigo 20.º, n.º 1, alínea a) do Código dos Contratos Públicos",12-09-2013,"845,00 €",,,,Não aplicável.,Não aplicável.,
"Fornecimento de laringoscópio, otoscópio fixo e otoscópio portátil",Ajuste Direto Regime Geral,Aquisição de bens móveis,"33100000-1, Equipamento médico","Centro Hospitalar do Tâmega e Sousa, EPE (508318262)","Intercromo, S.A. (504058568)","2.092,00 €",13-09-2013,22-07-2013,30 dias,"Portugal, Porto, Amarante","Artigo 20.º, n.º 1, alínea a) do Código dos Contratos Públicos","","",,,,Não aplicável.,Não aplicável.,
"Fornecimento de carro de medicação, armério rodado, mesa de mayo e carro tipo zorra",Ajuste Direto Regime Geral,Aquisição de bens móveis,"33100000-1, Equipamento médico","Centro Hospitalar do Tâmega e Sousa, EPE (508318262)","Intercromo, S.A. (504058568)","7.997,00 €",13-09-2013,22-07-2013,30 dias,"Portugal, Porto, Amarante","Artigo 20.º, n.º 1, alínea a) do Código dos Contratos Públicos","","",,,,Não aplicável.,Não aplicável.,
Fornecimento de Instrumental Cirurgico,Ajuste Direto Regime Geral,Aquisição de bens móveis,"33100000-1, Equipamento médico","Centro Hospitalar do Tâmega e Sousa, EPE (508318262)","Eugénio Pereira, Lda (503989525)","341,00 €",13-09-2013,22-07-2013,30 dias,"Portugal, Porto, Amarante","Artigo 20.º, n.º 1, alínea a) do Código dos Contratos Públicos",11-10-2013,"341,00 €",,,,Não aplicável.,Não aplicável.,
Fornecimento de frigorífico tipo doméstico e balde para triagem de resíduos 50 litros,Ajuste Direto Regime Geral,Aquisição de bens móveis,"33100000-1, Equipamento médico","Centro Hospitalar do Tâmega e Sousa, EPE (508318262)","Vasconcelos & Freitas, Lda (501054006)","691,28 €",13-09-2013,22-07-2013,30 dias,"Portugal, Porto, Penafiel","Artigo 20.º, n.º 1, alínea a) do Código dos Contratos Públicos",21-08-2013,"691,28 €",,,,Não aplicável.,Não aplicável.,
"Fornecimento de maca hidraulica, mesa de refeições rodadas e cadeirão relax articulado",Ajuste Direto Regime Geral,Aquisição de bens móveis,"33100000-1, Equipamento médico","Centro Hospitalar do Tâmega e Sousa, EPE (508318262)","Vasconcelos & Freitas, Lda. (501054006)","15.198,85 €",13-09-2013,22-07-2013,30 dias,"Portugal, Porto, Amarante","Artigo 20.º, n.º 1, alínea a) do Código dos Contratos Públicos",15-10-2013,"15.198,85 €",,,,Não aplicável.,Não aplicável.,
Fornecimento de cadeira de rodas,Ajuste Direto Regime Geral,Aquisição de bens móveis,"33100000-1, Equipamento médico","Centro Hospitalar do Tâmega e Sousa, EPE (508318262)","Vasconcelos & Freitas, Lda. (501054006)","1.500,00 €",12-09-2013,22-07-2013,30 dias,"Portugal, Porto, Amarante","Artigo 20.º, n.º 1, alínea a) do Código dos Contratos Públicos",12-09-2013,"1.500,00 €",,,,Não aplicável.,Não aplicável.,
Fornecimento de plano duro,Ajuste Direto Regime Geral,Aquisição de bens móveis,"33100000-1, Equipamento médico","Centro Hospitalar do Tâmega e Sousa, EPE (508318262)","RMV – PRODUTOS HOSPITALARES UNIPESSOAL, LDA (507866347)","217,73 €",12-09-2013,22-07-2013,30 dias,"Portugal, Porto, Amarante","Artigo 20.º, n.º 1, alínea a) do Código dos Contratos Públicos",18-10-2013,"217,73 €",,,,Não aplicável.,Não aplicável.,
