Objeto do Contrato,Tipo de Procedimento,Tipo(s) de Contrato,CPVs,Entidade(s) Adjudicante(s),Entidade(s) Adjudicatária(s),Preço Contratual,Data de Publicação,Data de Celebração do Contrato,Prazo de Execução,Local de Execução,Fundamentação,Data de Fecho do Contrato,Preço Total Efetivo,Causas das Alterações ao Prazo,Causas das Alterações ao Preço,Estado,N.º registo do Acordo Quadro,Descrição do Acordo Quadro,Procedimento Centralizado
"Prestação de Serviços de Construção do Despósito de Inflamáveis do Serviço de Farmácia do HSLE - ULSNA, EPE",Ajuste Direto Regime Geral,Empreitadas de obras públicas,"45000000-7, Construção","Unidade Local de Saúde do Norte Alentejano, E. P. E. (508094461)",Seconfral (501415017),"10.488,78 €",14-11-2013,17-10-2013,1 dias,"Portugal, Portalegre, Portalegre","Artigo 19.º, alínea a) do Código dos Contratos Públicos","","10.488,78 €","Prestação de Serviços de Construção do Despósito de Inflamáveis do Serviço de Farmácia do HSLE - ULSNA, EPE","Prestação de Serviços de Construção do Despósito de Inflamáveis do Serviço de Farmácia do HSLE - ULSNA, EPE",,Não aplicável.,Não aplicável.,
Aquisição de Vinhetas Médicas,Ajuste Direto Regime Geral,Aquisição de bens móveis,"22000000-0, Material impresso e afins","Unidade Local de Saúde do Norte Alentejano, E. P. E. (508094461)",Imprensa Nacional Casa da Moeda (500792887),"336,00 €",13-11-2013,06-11-2013,5 dias,"Portugal, Portalegre, Portalegre","Artigo 24.º, n.º 1, alínea e) do Código dos Contratos Públicos",31-12-2013,"336,00 €","","",,Não aplicável.,Não aplicável.,
MATERIAL DE CONSUMO CLINICO LUVAS NITRILO (DOCWORLD),Ajuste Direto Regime Geral,Aquisição de bens móveis,"33140000-3, Material médico de consumo","Unidade Local de Saúde do Norte Alentejano, E. P. E. (508094461)","Docworld, Lda (508592909)","21.280,00 €",11-11-2013,18-09-2013,362 dias,"Portugal, Portalegre, Portalegre","Artigo 20.º, n.º 1, alínea a) do Código dos Contratos Públicos",31-12-2013,"21.280,00 €","","",,Não aplicável.,Não aplicável.,
"Prestação de Serviços Médicos, na Especialidade de Anestesiologia, na ULSNA, EPE (1 de Novembro a 31 de Dezembro de 2013)",Ajuste Direto Regime Geral,Aquisição de serviços,"85100000-0, Serviços de saúde","Unidade Local de Saúde do Norte Alentejano, E. P. E. (508094461)","Marden Romero, Sociedade Unipessoal, Lda (510821049)","15.048,00 €",11-11-2013,10-10-2013,61 dias,"Portugal, Portalegre, Portalegre","Artigo 24.º, n.º 1, alínea c) do Código dos Contratos Públicos",31-12-2013,"15.048,00 €","","",,Não aplicável.,Não aplicável.,
Material de Consumo Clínica - Aquisição de Pinças Ligasure (Covidien),Ajuste Direto Regime Geral,Aquisição de bens móveis,"33140000-3, Material médico de consumo","Unidade Local de Saúde do Norte Alentejano, E. P. E. (508094461)",COVIDIEN PORTUGAL (503413410),"5.148,00 €",11-11-2013,26-09-2013,180 dias,"Portugal, Portalegre, Portalegre","Artigo 24.º, n.º 1, alínea e) do Código dos Contratos Públicos",31-12-2013,"5.148,00 €","","",,Não aplicável.,Não aplicável.,
