Objeto do Contrato,Tipo de Procedimento,Tipo(s) de Contrato,CPVs,Entidade(s) Adjudicante(s),Entidade(s) Adjudicatária(s),Preço Contratual,Data de Publicação,Data de Celebração do Contrato,Prazo de Execução,Local de Execução,Fundamentação,Data de Fecho do Contrato,Preço Total Efetivo,Causas das Alterações ao Prazo,Causas das Alterações ao Preço,Estado,N.º registo do Acordo Quadro,Descrição do Acordo Quadro,Procedimento Centralizado
Aquisição de reagentes para os Laboratórios de Saúde Pública para o ano de 2017,Concurso público,Aquisição de bens móveis,"33696500-0, Reagentes de laboratório","Administração Regional de Saúde do Centro, I. P. (503122165)","ALERE, LDA. (502518863)","636,00 €",10-11-2017,15-09-2017,230 dias,"Portugal, Leiria, Leiria<BR/>Portugal, Aveiro, Aveiro","Artigo 20.º, n.º 1, alínea b) do Código dos Contratos Públicos",07-12-2017,"636,00 €",,"",,Não aplicável.,Não aplicável.,FALSE
Aquisição de reagentes para os Laboratórios de Saúde Pública para o ano de 2017,Concurso público,Aquisição de bens móveis,"33696500-0, Reagentes de laboratório","Administração Regional de Saúde do Centro, I. P. (503122165)","Fischer Scientific, Ldª (506429210)","3.752,37 €",10-11-2017,19-06-2017,230 dias,"Portugal, Leiria, Leiria<BR/>Portugal, Aveiro, Aveiro","Artigo 20.º, n.º 1, alínea b) do Código dos Contratos Públicos",21-12-2017,"3.636,10 €",,A diferença é referente a reagentes que o fornecedor não tinha previsão de entrega para 2017,,Não aplicável.,Não aplicável.,FALSE
Aquisição de reagentes para os Laboratórios de Saúde Pública para o ano de 2017,Concurso público,Aquisição de bens móveis,"33696500-0, Reagentes de laboratório","Administração Regional de Saúde do Centro, I. P. (503122165)","PVL - Produtos para Laboratório, Lda (501411852)","2.886,00 €",10-11-2017,31-05-2017,230 dias,"Portugal, Aveiro, Aveiro<BR/>Portugal, Leiria, Leiria","Artigo 20.º, n.º 1, alínea b) do Código dos Contratos Públicos",19-12-2017,"2.886,00 €",,"",,Não aplicável.,Não aplicável.,FALSE
Aquisição de reagentes para os Laboratórios de Saúde Pública para o ano de 2017,Concurso público,Aquisição de bens móveis,"33696500-0, Reagentes de laboratório","Administração Regional de Saúde do Centro, I. P. (503122165)","Frilabo II, Lda (507958861)","1.131,11 €",10-11-2017,31-05-2017,230 dias,"Portugal, Aveiro, Aveiro<BR/>Portugal, Leiria, Leiria","Artigo 20.º, n.º 1, alínea b) do Código dos Contratos Públicos",28-12-2017,"1.131,11 €",,"",,Não aplicável.,Não aplicável.,FALSE
Aquisição de reagentes para os Laboratórios de Saúde Pública para o ano de 2017,Concurso público,Aquisição de bens móveis,"33696500-0, Reagentes de laboratório","Administração Regional de Saúde do Centro, I. P. (503122165)","QUILABAN,LDA. (500399670)","1.244,38 €",10-11-2017,30-05-2017,230 dias,"Portugal, Aveiro, Aveiro<BR/>Portugal, Leiria, Leiria","Artigo 20.º, n.º 1, alínea b) do Código dos Contratos Públicos",06-12-2017,"1.244,38 €",,"",,Não aplicável.,Não aplicável.,FALSE
Aquisição de reagentes para os Laboratórios de Saúde Pública para o ano de 2017,Concurso público,Aquisição de bens móveis,"33696500-0, Reagentes de laboratório","Administração Regional de Saúde do Centro, I. P. (503122165)","Type Solution, SA (508400317)","160,30 €",10-11-2017,30-05-2017,230 dias,"Portugal, Leiria, Leiria<BR/>Portugal, Aveiro, Aveiro","Artigo 20.º, n.º 1, alínea b) do Código dos Contratos Públicos",20-10-2017,"160,30 €",,"",,Não aplicável.,Não aplicável.,FALSE
Aquisição de reagentes para os Laboratórios de Saúde Pública para o ano de 2017,Concurso público,Aquisição de bens móveis,"33696500-0, Reagentes de laboratório","Administração Regional de Saúde do Centro, I. P. (503122165)",VWR INTERNATIONAL - MATERIAL DE LABORATÓRIO LDA (503842770),"4.637,80 €",10-11-2017,30-05-2017,230 dias,"Portugal, Leiria, Leiria<BR/>Portugal, Aveiro, Aveiro","Artigo 20.º, n.º 1, alínea b) do Código dos Contratos Públicos",12-12-2017,"3.797,80 €",,A diferença é referente a reagentes que o fornecedor não tinha previsão de entrega para 2017,,Não aplicável.,Não aplicável.,FALSE
Aquisição de reagentes para os Laboratórios de Saúde Pública para o ano de 2017,Concurso público,Aquisição de bens móveis,"33696500-0, Reagentes de laboratório","Administração Regional de Saúde do Centro, I. P. (503122165)","Laborspirit, Ldª (507485149)","1.881,35 €",10-11-2017,30-05-2017,230 dias,"Portugal, Aveiro, Aveiro<BR/>Portugal, Leiria, Leiria","Artigo 20.º, n.º 1, alínea b) do Código dos Contratos Públicos",26-12-2017,"1.881,35 €",,"",,Não aplicável.,Não aplicável.,FALSE
Aquisição de reagentes para os Laboratórios de Saúde Pública para o ano de 2017,Concurso público,Aquisição de bens móveis,"33696500-0, Reagentes de laboratório","Administração Regional de Saúde do Centro, I. P. (503122165)","Biogerm, SA (503265390)","5.591,10 €",10-11-2017,30-05-2017,230 dias,"Portugal, Leiria, Leiria<BR/>Portugal, Aveiro, Aveiro","Artigo 20.º, n.º 1, alínea b) do Código dos Contratos Públicos",12-12-2017,"5.591,10 €",,"",,Não aplicável.,Não aplicável.,FALSE
Aquisição de reagentes para os Laboratórios de Saúde Pública para o ano de 2017,Concurso público,Aquisição de bens móveis,"33696500-0, Reagentes de laboratório","Administração Regional de Saúde do Centro, I. P. (503122165)",Enzymatic SA (510662625),"4.489,16 €",10-11-2017,30-05-2017,230 dias,"Portugal, Leiria, Leiria<BR/>Portugal, Aveiro, Aveiro","Artigo 20.º, n.º 1, alínea b) do Código dos Contratos Públicos",26-10-2018,"4.489,16 €",,"",,Não aplicável.,Não aplicável.,FALSE
Aquisição de reagentes para os Laboratórios de Saúde Pública para o ano de 2017,Concurso público,Aquisição de bens móveis,"33696500-0, Reagentes de laboratório","Administração Regional de Saúde do Centro, I. P. (503122165)",BIO-RAD Laboratories Ldª (501301321),"5.821,40 €",10-11-2017,30-05-2017,230 dias,"Portugal, Leiria, Leiria<BR/>Portugal, Aveiro, Aveiro","Artigo 20.º, n.º 1, alínea b) do Código dos Contratos Públicos",10-10-2018,"5.821,40 €",,"",,Não aplicável.,Não aplicável.,FALSE
Aquisição de reagentes para os Laboratórios de Saúde Pública para o ano de 2017,Concurso público,Aquisição de bens móveis,"33696500-0, Reagentes de laboratório","Administração Regional de Saúde do Centro, I. P. (503122165)","BIOMERIEUX PORTUGAL,LDA. (501524177)","9.105,30 €",10-11-2017,30-05-2017,230 dias,"Portugal, Leiria, Leiria<BR/>Portugal, Aveiro, Aveiro","Artigo 20.º, n.º 1, alínea b) do Código dos Contratos Públicos",12-12-2017,"9.105,30 €",,"",,Não aplicável.,Não aplicável.,FALSE
"Aquisição de material de saúde oral e de medicina dentária, para a ARSC, IP",Ajuste Direto Regime Geral,Aquisição de bens móveis,"33711700-4, Artigos e preparações para higiene oral ou dentária","Administração Regional de Saúde do Centro,IP(ARSC) (503122165)",Grupo Vitalino (513083162),"4.884,60 €",09-11-2017,04-05-2017,334 dias,"Portugal, Coimbra, Lousã<BR/>Portugal, Viseu, Viseu<BR/>Portugal, Leiria, Leiria<BR/>Portugal, Aveiro, Aveiro<BR/>Portugal, Castelo Branco, Covilhã<BR/>Portugal, Coimbra, Coimbra","Artigo 20.º, n.º 1, alínea a) do Código dos Contratos Públicos",25-07-2017,"4.884,60 €",,"",,Não aplicável.,Não aplicável.,FALSE
"Aquisição de material de saúde oral e de medicina dentária, para a ARSC, IP",Ajuste Direto Regime Geral,Aquisição de bens móveis,"33711700-4, Artigos e preparações para higiene oral ou dentária","Administração Regional de Saúde do Centro,IP(ARSC) (503122165)","BASTOS VIEGAS, SA (500042772)","906,62 €",09-11-2017,04-05-2017,334 dias,"Portugal, Castelo Branco, Covilhã<BR/>Portugal, Aveiro, Aveiro<BR/>Portugal, Coimbra, Coimbra<BR/>Portugal, Leiria, Leiria<BR/>Portugal, Viseu, Viseu<BR/>Portugal, Coimbra, Lousã","Artigo 20.º, n.º 1, alínea a) do Código dos Contratos Públicos",31-05-2017,"784,67 €",,A diferença é referente a 16 brocas diamantadas (3 artigos dif.) q ñ se encomendaram nem foram faturados,,Não aplicável.,Não aplicável.,FALSE
"Aquisição de material de saúde oral e de medicina dentária, para a ARSC, IP",Ajuste Direto Regime Geral,Aquisição de bens móveis,"33711700-4, Artigos e preparações para higiene oral ou dentária","Administração Regional de Saúde do Centro,IP(ARSC) (503122165)","ANASTACIO SALDANHA,  UNIPESSOAL  LDA (505804441)","839,20 €",09-11-2017,04-05-2017,334 dias,"Portugal, Viseu, Viseu<BR/>Portugal, Coimbra, Lousã<BR/>Portugal, Aveiro, Aveiro<BR/>Portugal, Leiria, Leiria<BR/>Portugal, Castelo Branco, Covilhã<BR/>Portugal, Coimbra, Coimbra","Artigo 20.º, n.º 1, alínea a) do Código dos Contratos Públicos",04-08-2017,"839,20 €",,"",,Não aplicável.,Não aplicável.,FALSE
"Aquisição de material de saúde oral e de medicina dentária, para a ARSC, IP",Ajuste Direto Regime Geral,Aquisição de bens móveis,"33711700-4, Artigos e preparações para higiene oral ou dentária","Administração Regional de Saúde do Centro,IP(ARSC) (503122165)",EME ELECTROMEDICA - EZEQUIEL PANAO JORGE (501412727),"117,15 €",09-11-2017,04-05-2017,334 dias,"Portugal, Castelo Branco, Covilhã<BR/>Portugal, Coimbra, Coimbra<BR/>Portugal, Aveiro, Aveiro<BR/>Portugal, Coimbra, Lousã<BR/>Portugal, Viseu, Viseu<BR/>Portugal, Leiria, Leiria","Artigo 20.º, n.º 1, alínea a) do Código dos Contratos Públicos",06-10-2017,"108,30 €",,A diferença é referente às 3 unidades de curetas não foram entregues nem faturadas,,Não aplicável.,Não aplicável.,FALSE
"Aquisição de material de saúde oral e de medicina dentária, para a ARSC, IP",Ajuste Direto Regime Geral,Aquisição de bens móveis,"33711700-4, Artigos e preparações para higiene oral ou dentária","Administração Regional de Saúde do Centro,IP(ARSC) (503122165)","B.BRAUN MEDICAL, LDA (501506543)","444,89 €",09-11-2017,04-05-2017,334 dias,"Portugal, Coimbra, Coimbra<BR/>Portugal, Coimbra, Lousã<BR/>Portugal, Leiria, Leiria<BR/>Portugal, Viseu, Viseu<BR/>Portugal, Castelo Branco, Covilhã<BR/>Portugal, Aveiro, Aveiro","Artigo 20.º, n.º 1, alínea a) do Código dos Contratos Públicos",04-10-2017,"429,24 €",,A diferença é referente às correntes porta babetes que foram devolvidas,,Não aplicável.,Não aplicável.,FALSE
"Aquisição de material de saúde oral e de medicina dentária, para a ARSC, IP",Ajuste Direto Regime Geral,Aquisição de bens móveis,"33711700-4, Artigos e preparações para higiene oral ou dentária","Administração Regional de Saúde do Centro,IP(ARSC) (503122165)","Speculum - Artigos Médicos, S.A. (502996323)","14,20 €",09-11-2017,04-05-2017,334 dias,"Portugal, Leiria, Leiria<BR/>Portugal, Coimbra, Lousã<BR/>Portugal, Castelo Branco, Covilhã<BR/>Portugal, Viseu, Viseu<BR/>Portugal, Coimbra, Coimbra<BR/>Portugal, Aveiro, Aveiro","Artigo 20.º, n.º 1, alínea a) do Código dos Contratos Públicos",12-05-2017,"14,20 €",,"",,Não aplicável.,Não aplicável.,FALSE
"Aquisição de material de saúde oral e de medicina dentária, para a ARSC, IP",Ajuste Direto Regime Geral,Aquisição de bens móveis,"33711700-4, Artigos e preparações para higiene oral ou dentária","Administração Regional de Saúde do Centro,IP(ARSC) (503122165)","LABORATORIOS INIBSA, SA (500139571)","1.886,55 €",09-11-2017,04-05-2017,334 dias,"Portugal, Coimbra, Coimbra<BR/>Portugal, Leiria, Leiria<BR/>Portugal, Aveiro, Aveiro<BR/>Portugal, Castelo Branco, Covilhã<BR/>Portugal, Coimbra, Lousã","Artigo 20.º, n.º 1, alínea a) do Código dos Contratos Públicos",04-05-2017,"1.886,55 €",,"",,Não aplicável.,Não aplicável.,FALSE
"Aquisição de material de saúde oral e de medicina dentária, posições desertas no AD 17200156",Ajuste Direto Regime Geral,Aquisição de bens móveis,"33711700-4, Artigos e preparações para higiene oral ou dentária","Administração Regional de Saúde do Centro,IP(ARSC) (503122165)","MONTELLANO,LDA (500196494)","8.493,97 €",09-11-2017,24-07-2017,220 dias,"Portugal, Aveiro, Aveiro<BR/>Portugal, Leiria, Leiria<BR/>Portugal, Coimbra, Lousã<BR/>Portugal, Coimbra, Coimbra<BR/>Portugal, Castelo Branco, Covilhã<BR/>Portugal, Viseu, Viseu","Artigo 20.º, n.º 1, alínea a) do Código dos Contratos Públicos",04-12-2017,"8.493,97 €",,"",,Não aplicável.,Não aplicável.,FALSE
PROCESSO 17150109,Ao abrigo de acordo-quadro (art.º 259.º),Aquisição de bens móveis,"33690000-3, Medicamentos vários","Administração Regional de Saúde do Centro, I. P. (503122165)","B.BRAUN MEDICAL, LDA (501506543)","2.495,00 €",09-11-2017,29-04-2017,365 dias,"Portugal, Coimbra, Coimbra",Artigo 259.º do Código dos Contratos Públicos,21-11-2017,"2.495,00 €",,"",,1315192,Acordo Quadro para fornecimento de material de penso de efeito terapêutico às Instituições e Serviços do Serviço Nacional de Saúde,FALSE
PROCESSO 17150109,Ao abrigo de acordo-quadro (art.º 259.º),Aquisição de bens móveis,"33690000-3, Medicamentos vários","Administração Regional de Saúde do Centro, I. P. (503122165)","SMITH & NEPHEW, LDA (503552461)","21.036,00 €",09-11-2017,29-04-2017,365 dias,"Portugal, Coimbra, Coimbra",Artigo 259.º do Código dos Contratos Públicos,21-11-2017,"21.036,00 €",,"",,1315192,Acordo Quadro para fornecimento de material de penso de efeito terapêutico às Instituições e Serviços do Serviço Nacional de Saúde,FALSE
PROCESSO 17150109,Ao abrigo de acordo-quadro (art.º 259.º),Aquisição de bens móveis,"33690000-3, Medicamentos vários","Administração Regional de Saúde do Centro, I. P. (503122165)","CLINIFAR, SA (503281115)","11.975,00 €",09-11-2017,29-04-2017,365 dias,"Portugal, Coimbra, Coimbra",Artigo 259.º do Código dos Contratos Públicos,21-11-2017,"11.975,00 €",,"",,1315192,Acordo Quadro para fornecimento de material de penso de efeito terapêutico às Instituições e Serviços do Serviço Nacional de Saúde,FALSE
Aquisição de testes para doseamento de Hemograma completo e testes de Hemoglobina Glicadas por HPLC para o Lab. Arganil,Ajuste Direto Regime Geral,Aquisição de bens móveis,"33696500-0, Reagentes de laboratório","Administração Regional de Saúde do Centro,IP(ARSC) (503122165)",Menarini diagnosticos Lda. (502610069),"8.100,00 €",09-11-2017,22-08-2017,160 dias,"Portugal, Coimbra, Arganil","Artigo 20.º, n.º 1, alínea a) do Código dos Contratos Públicos",31-10-2017,"8.100,00 €",,"",,Não aplicável.,Não aplicável.,FALSE
Aquisição de estilete botonado e sonda cânula - C.P. 2017036,Ao abrigo de acordo-quadro (art.º 259.º),Aquisição de bens móveis,"33000000-0, Equipamento médico, medicamentos e produtos para cuidados pessoais","Administração Regional de Saúde do Centro, I. P. (503122165)","B BRAUN MEDICAL, LDA.                              (501506543)","227,60 €",09-11-2017,11-10-2017,124 dias,"Portugal, Coimbra, Coimbra",Artigo 259.º do Código dos Contratos Públicos,13-10-2017,"227,60 €",,"",,2414255,CP 2017/36 - Acordo Quadro para fornecimento de material de dispositivos médicos diversos às Instituições e Serviços do Serviço Nacional de Saúde,FALSE
Aquisição de teste de Imunologia para o Lab. Arganil,Ajuste Direto Regime Geral,Aquisição de bens móveis,"33696500-0, Reagentes de laboratório","Administração Regional de Saúde do Centro,IP(ARSC) (503122165)","Siemens Healthcare, Lda (507925173)","52.500,00 €",09-11-2017,22-05-2017,256 dias,"Portugal, Coimbra, Arganil","Artigo 20.º, n.º 1, alínea a) do Código dos Contratos Públicos",12-12-2017,"52.500,00 €",,"",,Não aplicável.,Não aplicável.,FALSE
Aquisição de material de consumo clínico para os Laboratórios de Saúde Pública para o ano de 2017,Concurso público,Aquisição de bens móveis,"33140000-3, Material médico de consumo","Administração Regional de Saúde do Centro, I. P. (503122165)","VWR International-Material de Laboratório, Lda. (503842770)","10.452,20 €",08-11-2017,17-05-2017,258 dias,"Portugal, Leiria, Leiria<BR/>Portugal, Aveiro, Aveiro","Artigo 20.º, n.º 1, alínea b) do Código dos Contratos Públicos",28-12-2017,"10.452,20 €",,"",,Não aplicável.,Não aplicável.,FALSE
Aquisição de material de consumo clínico para os Laboratórios de Saúde Pública para o ano de 2017,Concurso público,Aquisição de bens móveis,"33140000-3, Material médico de consumo","Administração Regional de Saúde do Centro, I. P. (503122165)","Frilabo II, Lda (507958861)","2.457,25 €",08-11-2017,15-05-2017,258 dias,"Portugal, Aveiro, Aveiro<BR/>Portugal, Leiria, Leiria<BR/>Portugal","Artigo 20.º, n.º 1, alínea b) do Código dos Contratos Públicos",07-11-2017,"2.457,25 €",,"",,Não aplicável.,Não aplicável.,FALSE
Aquisição de material de consumo clínico para os Laboratórios de Saúde Pública para o ano de 2017,Concurso público,Aquisição de bens móveis,"33140000-3, Material médico de consumo","Administração Regional de Saúde do Centro, I. P. (503122165)","Type Solution, SA (508400317)","5.314,14 €",08-11-2017,17-05-2017,258 dias,"Portugal, Leiria, Leiria<BR/>Portugal, Aveiro, Aveiro","Artigo 20.º, n.º 1, alínea b) do Código dos Contratos Públicos",30-11-2017,"5.314,14 €",,"",,Não aplicável.,Não aplicável.,FALSE
Aquisição de material de consumo clínico para os Laboratórios de Saúde Pública para o ano de 2017,Concurso público,Aquisição de bens móveis,"33140000-3, Material médico de consumo","Administração Regional de Saúde do Centro, I. P. (503122165)","Laborspirit, Ldª (507485149)","2.593,60 €",08-11-2017,17-05-2017,258 dias,"Portugal, Aveiro, Aveiro<BR/>Portugal, Leiria, Leiria","Artigo 20.º, n.º 1, alínea b) do Código dos Contratos Públicos",20-12-2017,"2.593,60 €",,"",,Não aplicável.,Não aplicável.,FALSE
Proc. 17210232 - Aquisição de material de consumo clínico para os Laboratórios de Saúde Pública para o ano de 2017,Concurso público,Aquisição de bens móveis,"33140000-3, Material médico de consumo","Administração Regional de Saúde do Centro, I. P. (503122165)","NORMAX-FABRICA VIDROS CIENTIFICOS, LDA (500203130)","242,20 €",08-11-2017,15-05-2017,258 dias,"Portugal, Leiria, Leiria<BR/>Portugal, Aveiro, Aveiro","Artigo 20.º, n.º 1, alínea b) do Código dos Contratos Públicos",19-05-2017,"242,20 €",,"",,Não aplicável.,Não aplicável.,FALSE
Aquisição de material de consumo clínico para os Laboratórios de Saúde Pública para o ano de 2017,Concurso público,Aquisição de bens móveis,"33140000-3, Material médico de consumo","Administração Regional de Saúde do Centro, I. P. (503122165)","ESTERIPLAS, LDA. (502020776)","295,44 €",08-11-2017,22-05-2017,258 dias,"Portugal, Leiria, Leiria<BR/>Portugal, Aveiro, Aveiro","Artigo 20.º, n.º 1, alínea b) do Código dos Contratos Públicos",21-12-2017,"295,44 €",,"",,Não aplicável.,Não aplicável.,FALSE
Aquisição de material de consumo clínico para os Laboratórios de Saúde Pública para o ano de 2017,Concurso público,Aquisição de bens móveis,"33140000-3, Material médico de consumo","Administração Regional de Saúde do Centro, I. P. (503122165)","H.R. -  HOSPITALAR, LDA (501895558)","3,80 €",08-11-2017,15-09-2017,258 dias,"Portugal, Leiria, Leiria<BR/>Portugal, Aveiro, Aveiro","Artigo 20.º, n.º 1, alínea b) do Código dos Contratos Públicos",18-09-2017,"3,80 €",,"",,Não aplicável.,Não aplicável.,FALSE
Aquisição de material de consumo clínico para os Laboratórios de Saúde Pública para o ano de 2017,Concurso público,Aquisição de bens móveis,"33140000-3, Material médico de consumo","Administração Regional de Saúde do Centro, I. P. (503122165)","Sarstedt - Tecnologia de Laboratório, Lda.	 (503019461)","23,00 €",08-11-2017,17-05-2017,258 dias,"Portugal, Aveiro, Aveiro<BR/>Portugal, Leiria, Leiria","Artigo 20.º, n.º 1, alínea b) do Código dos Contratos Públicos",19-05-2017,"23,00 €",,"",,Não aplicável.,Não aplicável.,FALSE
Aquisição de material de consumo clínico para os Laboratórios de Saúde Pública para o ano de 2017,Concurso público,Aquisição de bens móveis,"33140000-3, Material médico de consumo","Administração Regional de Saúde do Centro, I. P. (503122165)","Z-Med, Lda (508531535)","2.745,97 €",08-11-2017,17-05-2017,258 dias,"Portugal, Leiria, Leiria<BR/>Portugal, Aveiro, Aveiro","Artigo 20.º, n.º 1, alínea b) do Código dos Contratos Públicos",11-12-2017,"2.729,00 €",,A diferença é referente a 30 frascos que o fornecedor não conseguiu fornecer e deu como completa a nota de encomenda.,,Não aplicável.,Não aplicável.,FALSE
Aquisição de material de consumo clínico para os Laboratórios de Saúde Pública para o ano de 2017,Concurso público,Aquisição de bens móveis,"33140000-3, Material médico de consumo","Administração Regional de Saúde do Centro, I. P. (503122165)","LABINOX - EQUIPAMENTOS E ASSISTÊNCIA TÉCNICA, LDA (503067890)","3.168,00 €",08-11-2017,17-05-2017,258 dias,"Portugal, Leiria, Leiria<BR/>Portugal, Aveiro, Aveiro","Artigo 20.º, n.º 1, alínea b) do Código dos Contratos Públicos",22-12-2017,"3.168,00 €",,"",,Não aplicável.,Não aplicável.,FALSE
Proc. n.º 16810424. Conclusão da empreitada do Centro de Saúde de Sever do Vouga - USF - Ampliação e Remodelação - Módulo Norte,Concurso público,Empreitadas de obras públicas,"45000000-7, Construção","Administração Regional de Saúde do Centro, I. P. (503122165)",Sisfoz (502680814),"209.867,88 €",08-11-2017,01-09-2016,120 dias,"Portugal, Aveiro, Sever do Vouga","Artigo 19.º, alínea b) do Código dos Contratos Públicos","","",,"",,Não aplicável.,Não aplicável.,FALSE
PROCESSO 17150110,Ao abrigo de acordo-quadro (art.º 259.º),Aquisição de bens móveis,"33690000-3, Medicamentos vários","Administração Regional de Saúde do Centro, I. P. (503122165)","LABORATORIOS PFIZER, LDA (500162166)","1.833,09 €",08-11-2017,11-05-2017,365 dias,"Portugal, Coimbra, Coimbra",Artigo 259.º do Código dos Contratos Públicos,03-01-2018,"1.833,09 €",,"",,611389,"CONCURSO PÚBLICO PARA A CELEBRAÇÃO DE CONTRATOS PÚBLICOS DE APROVISIONAMENTO PARA A ÁREA DA SAÚDE, COM VISTA AO FORNECIMENTO DE MEDICAMENTOS ANTI-INFECIOSOS: EXCETO ANTIVÍRICOS E ANTIFÚNGICOS, ÀS INSTITUIÇÕES E SERVIÇOS DO SERVIÇO NACIONAL DE SAÚDE",FALSE
PROCESSO 17150110,Ao abrigo de acordo-quadro (art.º 259.º),Aquisição de bens móveis,"33690000-3, Medicamentos vários","Administração Regional de Saúde do Centro, I. P. (503122165)","FARMOZ, SA (501505334)","398,00 €",08-11-2017,11-05-2017,365 dias,"Portugal, Coimbra, Coimbra",Artigo 259.º do Código dos Contratos Públicos,03-01-2018,"398,00 €",,"",,611389,"CONCURSO PÚBLICO PARA A CELEBRAÇÃO DE CONTRATOS PÚBLICOS DE APROVISIONAMENTO PARA A ÁREA DA SAÚDE, COM VISTA AO FORNECIMENTO DE MEDICAMENTOS ANTI-INFECIOSOS: EXCETO ANTIVÍRICOS E ANTIFÚNGICOS, ÀS INSTITUIÇÕES E SERVIÇOS DO SERVIÇO NACIONAL DE SAÚDE",FALSE
PROCESSO 17150110,Ao abrigo de acordo-quadro (art.º 259.º),Aquisição de bens móveis,"33690000-3, Medicamentos vários","Administração Regional de Saúde do Centro, I. P. (503122165)","SANOFI PRODUTOS FARMACEUTICOS, LDA (500134960)","4.276,50 €",08-11-2017,11-05-2017,365 dias,"Portugal, Coimbra, Coimbra",Artigo 259.º do Código dos Contratos Públicos,03-01-2018,"4.276,50 €",,"",,611389,"CONCURSO PÚBLICO PARA A CELEBRAÇÃO DE CONTRATOS PÚBLICOS DE APROVISIONAMENTO PARA A ÁREA DA SAÚDE, COM VISTA AO FORNECIMENTO DE MEDICAMENTOS ANTI-INFECIOSOS: EXCETO ANTIVÍRICOS E ANTIFÚNGICOS, ÀS INSTITUIÇÕES E SERVIÇOS DO SERVIÇO NACIONAL DE SAÚDE",FALSE
PROCESSO 17150110,Ao abrigo de acordo-quadro (art.º 259.º),Aquisição de bens móveis,"33690000-3, Medicamentos vários","Administração Regional de Saúde do Centro, I. P. (503122165)","SANDOZ  FARMACEUTICA, LDA (506985261)","1.389,60 €",08-11-2017,11-05-2017,365 dias,"Portugal, Coimbra, Coimbra",Artigo 259.º do Código dos Contratos Públicos,03-01-2018,"1.389,60 €",,"",,611389,"CONCURSO PÚBLICO PARA A CELEBRAÇÃO DE CONTRATOS PÚBLICOS DE APROVISIONAMENTO PARA A ÁREA DA SAÚDE, COM VISTA AO FORNECIMENTO DE MEDICAMENTOS ANTI-INFECIOSOS: EXCETO ANTIVÍRICOS E ANTIFÚNGICOS, ÀS INSTITUIÇÕES E SERVIÇOS DO SERVIÇO NACIONAL DE SAÚDE",FALSE
PROCESSO 17150110,Ao abrigo de acordo-quadro (art.º 259.º),Aquisição de bens móveis,"33690000-3, Medicamentos vários","Administração Regional de Saúde do Centro, I. P. (503122165)","Generis, sa (508107997)","54,83 €",08-11-2017,11-05-2017,365 dias,"Portugal, Coimbra, Coimbra",Artigo 259.º do Código dos Contratos Públicos,03-01-2018,"54,83 €",,"",,611389,"CONCURSO PÚBLICO PARA A CELEBRAÇÃO DE CONTRATOS PÚBLICOS DE APROVISIONAMENTO PARA A ÁREA DA SAÚDE, COM VISTA AO FORNECIMENTO DE MEDICAMENTOS ANTI-INFECIOSOS: EXCETO ANTIVÍRICOS E ANTIFÚNGICOS, ÀS INSTITUIÇÕES E SERVIÇOS DO SERVIÇO NACIONAL DE SAÚDE",FALSE
- Aquisição de material clínico para o Laboratório de Microbactérias do CDPC,Ajuste Direto Regime Geral,Aquisição de bens móveis,"33140000-3, Material médico de consumo","Administração Regional de Saúde do Centro,IP(ARSC) (503122165)","BIOPORTUGAL - Químico Farmacêutica, LDA. (502380543)","422,40 €",07-11-2017,21-08-2017,132 dias,"Portugal, Coimbra, Coimbra","Artigo 20.º, n.º 1, alínea a) do Código dos Contratos Públicos",22-08-2017,"422,40 €",,"",,Não aplicável.,Não aplicável.,FALSE
Aquisição de material clínico para o Laboratório de Microbactérias do CDPC,Ajuste Direto Regime Geral,Aquisição de bens móveis,"33140000-3, Material médico de consumo","Administração Regional de Saúde do Centro,IP(ARSC) (503122165)","NORMAX - Fábrica de Vidros Científicos, Ldª (500203130)","136,80 €",07-11-2017,25-07-2017,158 dias,"Portugal, Coimbra, Coimbra","Artigo 20.º, n.º 1, alínea a) do Código dos Contratos Públicos",28-07-2017,"136,80 €",,"",,Não aplicável.,Não aplicável.,FALSE
Aquisição de material clínico para o Laboratório de Microbactérias do CDPC,Ajuste Direto Regime Geral,Aquisição de bens móveis,"33140000-3, Material médico de consumo","Administração Regional de Saúde do Centro,IP(ARSC) (503122165)","VWR INTERNACIONAL - MATERIAL DE LABORATÓRIO, LDA. (503842770)","38,60 €",07-11-2017,25-07-2017,158 dias,"Portugal, Coimbra, Coimbra","Artigo 20.º, n.º 1, alínea a) do Código dos Contratos Públicos",27-07-2017,"38,60 €",,"",,Não aplicável.,Não aplicável.,FALSE
Aquisição de material clínico para o Laboratório de Microbactérias do CDPC,Ajuste Direto Regime Geral,Aquisição de bens móveis,"33140000-3, Material médico de consumo","Administração Regional de Saúde do Centro,IP(ARSC) (503122165)","Frilabo II, Lda (507958861)","27,50 €",07-11-2017,25-07-2017,158 dias,"Portugal, Coimbra, Coimbra","Artigo 20.º, n.º 1, alínea a) do Código dos Contratos Públicos",18-10-2017,"27,50 €",,"",,Não aplicável.,Não aplicável.,FALSE
Aquisição de material clínico para o Laboratório de Microbactérias do CDPC,Ajuste Direto Regime Geral,Aquisição de bens móveis,"33140000-3, Material médico de consumo","Administração Regional de Saúde do Centro,IP(ARSC) (503122165)","Z-Med, Lda (508531535)","47,97 €",07-11-2017,25-07-2017,158 dias,"Portugal, Coimbra, Coimbra","Artigo 20.º, n.º 1, alínea a) do Código dos Contratos Públicos",25-07-2017,"47,97 €",,"",,Não aplicável.,Não aplicável.,FALSE
Aquisição de material clínico para o Laboratório de Microbactérias do CDPC,Ajuste Direto Regime Geral,Aquisição de bens móveis,"33140000-3, Material médico de consumo","Administração Regional de Saúde do Centro,IP(ARSC) (503122165)","EZEQUIEL PANAO JORGE, LDA (501412727)","383,80 €",07-11-2017,25-07-2017,158 dias,"Portugal, Coimbra, Coimbra","Artigo 20.º, n.º 1, alínea a) do Código dos Contratos Públicos",04-10-2017,"383,80 €",,"",,Não aplicável.,Não aplicável.,FALSE
Aquisição de material clínico para o Laboratório de Microbactérias do CDPC,Ajuste Direto Regime Geral,Aquisição de bens móveis,"33140000-3, Material médico de consumo","Administração Regional de Saúde do Centro,IP(ARSC) (503122165)","Sarstedt - Tecnologia de Laboratório, Lda.	 (503019461)","230,00 €",07-11-2017,25-07-2017,158 dias,"Portugal, Coimbra, Coimbra","Artigo 20.º, n.º 1, alínea a) do Código dos Contratos Públicos",09-08-2017,"230,00 €",,"",,Não aplicável.,Não aplicável.,FALSE
PROCESSO 17150108,Ao abrigo de acordo-quadro (art.º 259.º),Aquisição de bens móveis,"33690000-3, Medicamentos vários","Administração Regional de Saúde do Centro, I. P. (503122165)","bayer portugal, lda (500043256)","81,00 €",07-11-2017,07-04-2017,365 dias,"Portugal, Coimbra, Coimbra",Artigo 259.º do Código dos Contratos Públicos,20-11-2017,"81,00 €",,"",,1179915,"CONCURSO PÚBLICO PARA A CELEBRAÇÃO DE CONTRATOS PÚBLICOS DE APROVISIONAMENTO PARA A ÁREA DA SAÚDE, COM VISTA AO FORNECIMENTO DE MEDICAMENTOS DO APARELHO CARDIOVASCULAR, ÀS INSTITUIÇÕES E SERVIÇOS DO SERVIÇO NACIONAL DE SAÚDE",FALSE
PROCESSO 17150108,Ao abrigo de acordo-quadro (art.º 259.º),Aquisição de bens móveis,"33690000-3, Medicamentos vários","Administração Regional de Saúde do Centro, I. P. (503122165)","b.braun medical, lda (501506543)","166,80 €",07-11-2017,07-04-2017,365 dias,"Portugal, Coimbra, Coimbra",Artigo 259.º do Código dos Contratos Públicos,20-11-2017,"166,80 €",,"",,1179915,"CONCURSO PÚBLICO PARA A CELEBRAÇÃO DE CONTRATOS PÚBLICOS DE APROVISIONAMENTO PARA A ÁREA DA SAÚDE, COM VISTA AO FORNECIMENTO DE MEDICAMENTOS DO APARELHO CARDIOVASCULAR, ÀS INSTITUIÇÕES E SERVIÇOS DO SERVIÇO NACIONAL DE SAÚDE",FALSE
PROCESSO 17150108,Ao abrigo de acordo-quadro (art.º 259.º),Aquisição de bens móveis,"33690000-3, Medicamentos vários","Administração Regional de Saúde do Centro, I. P. (503122165)","unilfarma, lda (500293023)","257,40 €",07-11-2017,07-04-2017,355 dias,"Portugal, Coimbra, Coimbra",Artigo 259.º do Código dos Contratos Públicos,20-11-2017,"257,40 €",,"",,1179915,"CONCURSO PÚBLICO PARA A CELEBRAÇÃO DE CONTRATOS PÚBLICOS DE APROVISIONAMENTO PARA A ÁREA DA SAÚDE, COM VISTA AO FORNECIMENTO DE MEDICAMENTOS DO APARELHO CARDIOVASCULAR, ÀS INSTITUIÇÕES E SERVIÇOS DO SERVIÇO NACIONAL DE SAÚDE",FALSE
PROCESSO 17150108,Ao abrigo de acordo-quadro (art.º 259.º),Aquisição de bens móveis,"33690000-3, Medicamentos vários","Administração Regional de Saúde do Centro, I. P. (503122165)","overpharma,lda (505792362)","194,02 €",07-11-2017,07-04-2017,365 dias,"Portugal, Coimbra, Coimbra",Artigo 259.º do Código dos Contratos Públicos,20-11-2017,"90,00 €",,A FIRMA DEIXOU DE COMERCIALIZAR O E521,,1179915,"CONCURSO PÚBLICO PARA A CELEBRAÇÃO DE CONTRATOS PÚBLICOS DE APROVISIONAMENTO PARA A ÁREA DA SAÚDE, COM VISTA AO FORNECIMENTO DE MEDICAMENTOS DO APARELHO CARDIOVASCULAR, ÀS INSTITUIÇÕES E SERVIÇOS DO SERVIÇO NACIONAL DE SAÚDE",FALSE
PROCESSO 17150108,Ao abrigo de acordo-quadro (art.º 259.º),Aquisição de bens móveis,"33690000-3, Medicamentos vários","Administração Regional de Saúde do Centro, I. P. (503122165)","generis, sa (505625520)","156,00 €",07-11-2017,07-04-2017,365 dias,"Portugal, Coimbra, Coimbra",Artigo 259.º do Código dos Contratos Públicos,20-11-2017,"156,00 €",,"",,1179915,"CONCURSO PÚBLICO PARA A CELEBRAÇÃO DE CONTRATOS PÚBLICOS DE APROVISIONAMENTO PARA A ÁREA DA SAÚDE, COM VISTA AO FORNECIMENTO DE MEDICAMENTOS DO APARELHO CARDIOVASCULAR, ÀS INSTITUIÇÕES E SERVIÇOS DO SERVIÇO NACIONAL DE SAÚDE",FALSE
PROCESSO 17150108,Ao abrigo de acordo-quadro (art.º 259.º),Aquisição de bens móveis,"33690000-3, Medicamentos vários","Administração Regional de Saúde do Centro, I. P. (503122165)","labesfal, sa (501169580)","3.060,40 €",07-11-2017,07-04-2017,365 dias,"Portugal, Coimbra, Coimbra",Artigo 259.º do Código dos Contratos Públicos,20-11-2017,"3.060,40 €",,"",,1179915,"CONCURSO PÚBLICO PARA A CELEBRAÇÃO DE CONTRATOS PÚBLICOS DE APROVISIONAMENTO PARA A ÁREA DA SAÚDE, COM VISTA AO FORNECIMENTO DE MEDICAMENTOS DO APARELHO CARDIOVASCULAR, ÀS INSTITUIÇÕES E SERVIÇOS DO SERVIÇO NACIONAL DE SAÚDE",FALSE
PROCESSO 17150108,Ao abrigo de acordo-quadro (art.º 259.º),Aquisição de bens móveis,"33690000-3, Medicamentos vários","Administração Regional de Saúde do Centro, I. P. (503122165)","sanofi prod.farmaceuticos, lda (500134960)","131,73 €",07-11-2017,07-04-2017,365 dias,"Portugal, Coimbra, Coimbra",Artigo 259.º do Código dos Contratos Públicos,20-11-2017,"131,73 €",,"",,1179915,"CONCURSO PÚBLICO PARA A CELEBRAÇÃO DE CONTRATOS PÚBLICOS DE APROVISIONAMENTO PARA A ÁREA DA SAÚDE, COM VISTA AO FORNECIMENTO DE MEDICAMENTOS DO APARELHO CARDIOVASCULAR, ÀS INSTITUIÇÕES E SERVIÇOS DO SERVIÇO NACIONAL DE SAÚDE",FALSE
PROCESSO 17150106,Ao abrigo de acordo-quadro (art.º 259.º),Aquisição de bens móveis,"33600000-6, Produtos farmacêuticos","Administração Regional de Saúde do Centro, I. P. (503122165)","B.BRAUN MEDICAL, LDA (501506543)","18.643,05 €",07-11-2017,30-03-2017,365 dias,"Portugal, Coimbra, Coimbra",Artigo 259.º do Código dos Contratos Públicos,21-11-2017,"18.643,05 €",,"",,1331181,Acordo Quadro para fornecimento de corretivos da volémia e outras soluções estéreis às Instituições e Serviços do Serviço Nacional de Saúde,FALSE
PROCESSO 17150106,Ao abrigo de acordo-quadro (art.º 259.º),Aquisição de bens móveis,"33600000-6, Produtos farmacêuticos","Administração Regional de Saúde do Centro, I. P. (503122165)","LABESFAL, SA (501169580)","44.427,10 €",07-11-2017,30-03-2017,365 dias,"Portugal, Coimbra, Coimbra",Artigo 259.º do Código dos Contratos Públicos,21-11-2017,"44.427,10 €",,"",,1331181,Acordo Quadro para fornecimento de corretivos da volémia e outras soluções estéreis às Instituições e Serviços do Serviço Nacional de Saúde,FALSE
Proc. 17250188 - Aquisição de dispositivos médicos - C.P. 2015076,Ao abrigo de acordo-quadro (art.º 259.º),Aquisição de bens móveis,"33000000-0, Equipamento médico, medicamentos e produtos para cuidados pessoais","Administração Regional de Saúde do Centro, I. P. (503122165)","Paul Hartmann, Lda (502271728)","953,52 €",07-11-2017,18-04-2017,275 dias,"Portugal, Coimbra, Coimbra",Artigo 259.º do Código dos Contratos Públicos,29-09-2017,"953,52 €",,"",,1587913,Acordo Quadro para fornecimento de Equipamentos e Dispositivos Médicos de uso comum em internamento e ambulatório - Parte I às instituições e serviços do Serviço Nacional de Saúde.,FALSE
Proc. 17250188 - Aquisição de dispositivos médicos - C.P. 2015076,Ao abrigo de acordo-quadro (art.º 259.º),Aquisição de bens móveis,"33000000-0, Equipamento médico, medicamentos e produtos para cuidados pessoais","Administração Regional de Saúde do Centro, I. P. (503122165)",Brámedica (508560152),"867,00 €",07-11-2017,18-04-2017,275 dias,"Portugal, Coimbra, Coimbra",Artigo 259.º do Código dos Contratos Públicos,09-05-2017,"867,00 €",,"",,1587913,Acordo Quadro para fornecimento de Equipamentos e Dispositivos Médicos de uso comum em internamento e ambulatório - Parte I às instituições e serviços do Serviço Nacional de Saúde.,FALSE
Aquisição de fraldas e resguardos p/ incontinência - C.P. 2014025,Ao abrigo de acordo-quadro (art.º 259.º),Aquisição de bens móveis,"33000000-0, Equipamento médico, medicamentos e produtos para cuidados pessoais","Administração Regional de Saúde do Centro, I. P. (503122165)","ALBINO DIAS ANDRADE, LDA (500013810)","4.300,50 €",07-11-2017,04-04-2017,275 dias,"Portugal, Coimbra, Coimbra",Artigo 259.º do Código dos Contratos Públicos,26-09-2017,"4.300,50 €",,"",,389355,"CONCURSO PÚBLICO PARA A CELEBRAÇÃO DE CONTRATOS PÚBLICOS DE APROVISIONAMENTO PARA AQUISIÇÃO DE MATERIAL DE INCONTINÊNCIA, PROTECÇÃO CUTÂNEA E ALIVIO DE PRESSÃO",FALSE
PROCESSO 17150101,Ao abrigo de acordo-quadro (art.º 259.º),Aquisição de bens móveis,"33690000-3, Medicamentos vários","Administração Regional de Saúde do Centro, I. P. (503122165)","FARMOZ, SA (501505334)","305,10 €",07-11-2017,04-04-2017,365 dias,"Portugal, Coimbra, Coimbra",Artigo 259.º do Código dos Contratos Públicos,13-11-2017,"305,10 €",,"",,1179911,"CONCURSO PÚBLICO PARA A CELEBRAÇÃO DE CONTRATOS PÚBLICOS DE APROVISIONAMENTO PARA A ÁREA DA SAÚDE, MEDICAMENTOS DO SISTEMA NERVOSO CEREBROSPINAL, EXCETO: ANESTÉSICOS, RELAXANTES MUSCULARES, ANALGÉSICOS, ANTIPIRÉTICOS, ANTIDEPRESSORES E ANTIPSICÓTICOS, ÀS INSTITUIÇÕES E SERVIÇOS DO SERVIÇO NACIONAL DE SAÚDE",FALSE
PROCESSO 17150101,Ao abrigo de acordo-quadro (art.º 259.º),Aquisição de bens móveis,"33690000-3, Medicamentos vários","Administração Regional de Saúde do Centro, I. P. (503122165)","PROSPA LAB. FARM., SA (500130248)","262,20 €",07-11-2017,04-04-2017,365 dias,"Portugal, Coimbra, Coimbra",Artigo 259.º do Código dos Contratos Públicos,13-11-2017,"262,20 €",,"",,1179911,"CONCURSO PÚBLICO PARA A CELEBRAÇÃO DE CONTRATOS PÚBLICOS DE APROVISIONAMENTO PARA A ÁREA DA SAÚDE, MEDICAMENTOS DO SISTEMA NERVOSO CEREBROSPINAL, EXCETO: ANESTÉSICOS, RELAXANTES MUSCULARES, ANALGÉSICOS, ANTIPIRÉTICOS, ANTIDEPRESSORES E ANTIPSICÓTICOS, ÀS INSTITUIÇÕES E SERVIÇOS DO SERVIÇO NACIONAL DE SAÚDE",FALSE
PROCESSO 17150101,Ao abrigo de acordo-quadro (art.º 259.º),Aquisição de bens móveis,"33690000-3, Medicamentos vários","Administração Regional de Saúde do Centro, I. P. (503122165)","AUROVITAS, LDA (513053239)","109,44 €",07-11-2017,04-04-2017,365 dias,"Portugal, Coimbra, Coimbra",Artigo 259.º do Código dos Contratos Públicos,13-11-2017,"109,44 €",,"",,1179911,"CONCURSO PÚBLICO PARA A CELEBRAÇÃO DE CONTRATOS PÚBLICOS DE APROVISIONAMENTO PARA A ÁREA DA SAÚDE, MEDICAMENTOS DO SISTEMA NERVOSO CEREBROSPINAL, EXCETO: ANESTÉSICOS, RELAXANTES MUSCULARES, ANALGÉSICOS, ANTIPIRÉTICOS, ANTIDEPRESSORES E ANTIPSICÓTICOS, ÀS INSTITUIÇÕES E SERVIÇOS DO SERVIÇO NACIONAL DE SAÚDE",FALSE
PROCESSO 17150101,Ao abrigo de acordo-quadro (art.º 259.º),Aquisição de bens móveis,"33690000-3, Medicamentos vários","Administração Regional de Saúde do Centro, I. P. (503122165)","LABESFAL, SA (501169580)","481,20 €",07-11-2017,04-04-2017,365 dias,"Portugal, Coimbra, Coimbra",Artigo 259.º do Código dos Contratos Públicos,13-11-2017,"481,20 €",,"",,1179911,"CONCURSO PÚBLICO PARA A CELEBRAÇÃO DE CONTRATOS PÚBLICOS DE APROVISIONAMENTO PARA A ÁREA DA SAÚDE, MEDICAMENTOS DO SISTEMA NERVOSO CEREBROSPINAL, EXCETO: ANESTÉSICOS, RELAXANTES MUSCULARES, ANALGÉSICOS, ANTIPIRÉTICOS, ANTIDEPRESSORES E ANTIPSICÓTICOS, ÀS INSTITUIÇÕES E SERVIÇOS DO SERVIÇO NACIONAL DE SAÚDE",FALSE
Aquisição de cateteres,Ao abrigo de acordo-quadro (art.º 259.º),Aquisição de bens móveis,"33600000-6, Produtos farmacêuticos","Administração Regional de Saúde do Centro, I. P. (503122165)","OVERPHARMA-PRODUTOS MÉDICOS E FARMACÉUTICOS,LDA (505792362)","8.843,00 €",06-11-2017,21-09-2017,120 dias,"Portugal, Coimbra, Coimbra",Artigo 259.º do Código dos Contratos Públicos,19-10-2017,"8.843,00 €",,"",,1212278,"CONCURSO PÚBLICO PARA A CELEBRAÇÃO DE CONTRATOS PÚBLICOS DE APROVISIONAMENTO PARA A ÁREA DA SAÚDE, COM VISTA AO FORNECIMENTO DE CATETERES, ÀS INSTITUIÇÕES E SERVIÇOS DO SERVIÇO NACIONAL DE SAÚDE",FALSE
Serviços de enfermagem,Ajuste Direto Regime Geral,Aquisição de serviços,"85000000-9, Serviços de saúde e acção social","Administração Regional de Saúde do Centro, I. P. (503122165)",Vera Lúcia Ferreira Azinheiro (219782059),"7.326,60 €",03-11-2017,01-07-2017,184 dias,"Portugal, Leiria, Pombal","Artigo 20.º, n.º 1, alínea a) do Código dos Contratos Públicos",31-12-2017,"6.733,34 €",,Realização de número de horas inferior ao contratado.,,Não aplicável.,Não aplicável.,FALSE
PROCESSO 17100335,Ajuste Direto Regime Geral,Aquisição de bens móveis,"33690000-3, Medicamentos vários","Administração Regional de Saúde do Centro, I. P. (503122165)","MERCK, SA (500650870)","2.536,44 €",03-11-2017,04-05-2017,270 dias,"Portugal, Coimbra, Coimbra","Artigo 24.º, n.º 1, alínea e) do Código dos Contratos Públicos",07-12-2017,"2.536,44 €",,"",,Não aplicável.,Não aplicável.,FALSE
PROCESSO 17110434,Concurso público,Aquisição de bens móveis,"33000000-0, Equipamento médico, medicamentos e produtos para cuidados pessoais","Administração Regional de Saúde do Centro, I. P. (503122165)","ROCHE SISTEMAS DE DIAGNOSTICO, LDA (504282921)","225.492,00 €",03-11-2017,06-09-2017,210 dias,"Portugal, Coimbra, Coimbra","Artigo 20.º, n.º 1, alínea b) do Código dos Contratos Públicos",22-12-2017,"225.492,00 €",,"",,Não aplicável.,Não aplicável.,FALSE
PROCESSO 17100145,Ajuste Direto Regime Geral,Aquisição de bens móveis,"33690000-3, Medicamentos vários","Administração Regional de Saúde do Centro, I. P. (503122165)","LABESFAL, SA (501169580)","41.440,00 €",03-11-2017,16-03-2017,365 dias,"Portugal, Coimbra, Coimbra","Artigo 24.º, n.º 1, alínea e) do Código dos Contratos Públicos",07-12-2017,"34.105,12 €",,A FIRMA NÃO TINHA PARA ENTREGA PARTE DO PRODUTOS EM 2017,,Não aplicável.,Não aplicável.,FALSE
PROCESSO 17150487,Ao abrigo de acordo-quadro (art.º 259.º),Aquisição de bens móveis,"33690000-3, Medicamentos vários","Administração Regional de Saúde do Centro, I. P. (503122165)","LABESFAL,SA (501169580)","54,42 €",02-11-2017,11-08-2017,270 dias,"Portugal, Coimbra, Coimbra",Artigo 259.º do Código dos Contratos Públicos,18-10-2017,"54,42 €",,"",,1974985,"Medicamentos Analgésicos, Antipiréticos e Antidepressivos",FALSE
PROCESSO 17250206,Ao abrigo de acordo-quadro (art.º 259.º),Aquisição de bens móveis,"33690000-3, Medicamentos vários","Administração Regional de Saúde do Centro, I. P. (503122165)","IBERLAB & IMUNOREAGE, LDA (503406694)","8.985,60 €",02-11-2017,11-05-2017,270 dias,"Portugal, Coimbra, Coimbra",Artigo 259.º do Código dos Contratos Públicos,31-10-2017,"8.985,60 €",,"",,611510,"CONCURSO PÚBLICO PARA A CELEBRAÇÃO DE CONTRATOS PÚBLICOS DE APROVISIONAMENTO PARA A ÁREA DA SAÚDE, COM VISTA AO FORNECIMENTO DE MATERIAL DE PREVENÇÃO E DETEÇÃO HIV ÀS INSTITUIÇÕES E SERVIÇOS DO SERVIÇO NACIONAL DE SAÚDE",FALSE
PROCESSO 17150486,Ao abrigo de acordo-quadro (art.º 259.º),Aquisição de bens móveis,"33690000-3, Medicamentos vários","Administração Regional de Saúde do Centro, I. P. (503122165)","SANOFI PRODUTOS FARMACÊUTICOS, LDA (500134960)","2.286,00 €",02-11-2017,21-08-2017,270 dias,"Portugal, Coimbra, Coimbra",Artigo 259.º do Código dos Contratos Públicos,31-10-2017,"2.286,00 €",,"",,611389,"CONCURSO PÚBLICO PARA A CELEBRAÇÃO DE CONTRATOS PÚBLICOS DE APROVISIONAMENTO PARA A ÁREA DA SAÚDE, COM VISTA AO FORNECIMENTO DE MEDICAMENTOS ANTI-INFECIOSOS: EXCETO ANTIVÍRICOS E ANTIFÚNGICOS, ÀS INSTITUIÇÕES E SERVIÇOS DO SERVIÇO NACIONAL DE SAÚDE",FALSE
PROCESSO 17100150,Ajuste Direto Regime Geral,Aquisição de bens móveis,"33690000-3, Medicamentos vários","Administração Regional de Saúde do Centro,IP(ARSC) (503122165)","AGA,SA (500727457)","3.000,00 €",02-11-2017,24-03-2017,270 dias,"Portugal, Coimbra, Coimbra","Artigo 20.º, n.º 1, alínea a) do Código dos Contratos Públicos",31-10-2017,"3.000,00 €",,"",,Não aplicável.,Não aplicável.,FALSE
PROCESSO 17100149,Ajuste Direto Regime Geral,Aquisição de bens móveis,"33690000-3, Medicamentos vários","Administração Regional de Saúde do Centro, I. P. (503122165)","AGA, SA (500727457)","1.200,00 €",02-11-2017,29-08-2017,270 dias,"Portugal, Coimbra, Coimbra","Artigo 24.º, n.º 1, alínea e) do Código dos Contratos Públicos",31-10-2017,"1.200,00 €",,"",,Não aplicável.,Não aplicável.,FALSE
