Objeto do Contrato,Tipo de Procedimento,Tipo(s) de Contrato,CPVs,Entidade(s) Adjudicante(s),Entidade(s) Adjudicatária(s),Preço Contratual,Data de Publicação,Data de Celebração do Contrato,Prazo de Execução,Local de Execução,Fundamentação,Data de Fecho do Contrato,Preço Total Efetivo,Causas das Alterações ao Prazo,Causas das Alterações ao Preço,Estado,N.º registo do Acordo Quadro,Descrição do Acordo Quadro,Procedimento Centralizado
"Aquisição de higiene  e limpeza para as instalações da SPMS, EPE",Ajuste Direto Regime Geral,Aquisição de serviços,"85142300-9, Serviços de higiene","SPMS - Serviços Partilhados do Ministério da Saúde, E. P. E. (509540716)","Garnica Facility Services, Lda. (509909515)","5.235,31 €",19-02-2015,09-01-2015,30 dias,"Portugal, Lisboa, Lisboa<BR/>Portugal, Porto, Porto","Artigo 20.º, n.º 1, alínea a) do Código dos Contratos Públicos","","",,,,Não aplicável.,Não aplicável.,FALSE
Aquisição de serviços de fornecimento e montagem de quadros elétricos para Lisboa e Porto,Ajuste Direto Regime Geral,Aquisição de bens móveis,"31214500-4, Quadros eléctricos","SPMS - Serviços Partilhados do Ministério da Saúde, E. P. E. (509540716)","Iberlógica, Equipamentos Eléctricos, Lda. (503939501)","63.434,00 €",19-02-2015,03-02-2015,30 dias,"Portugal, Lisboa, Lisboa<BR/>Portugal, Porto, Porto","Artigo 20.º, n.º 1, alínea a) do Código dos Contratos Públicos",31-03-2015,"63.434,00 €",,,,Não aplicável.,Não aplicável.,FALSE
"Aquisição de segurança e vigilância para as instalações de Lisboa da SPMS, EPE",Ajuste Direto Regime Geral,Aquisição de serviços,"79710000-4, Serviços de segurança","SPMS - Serviços Partilhados do Ministério da Saúde, E. P. E. (509540716)","COMANSEGUR - Segurança Privada, S. A. (503586579)","5.885,96 €",19-02-2015,09-01-2015,30 dias,"Portugal, Lisboa, Lisboa","Artigo 20.º, n.º 1, alínea a) do Código dos Contratos Públicos","","",,,,Não aplicável.,Não aplicável.,FALSE
"Aquisição de segurança e vigilância para as instalações do Porto da SPMS, EPE",Ajuste Direto Regime Geral,Aquisição de serviços,"79710000-4, Serviços de segurança","SPMS - Serviços Partilhados do Ministério da Saúde, E. P. E. (509540716)","Prosegur - Companhia de Segurança, Lda. (501290567)","5.980,00 €",19-02-2015,09-01-2015,30 dias,"Portugal, Porto, Porto","Artigo 20.º, n.º 1, alínea a) do Código dos Contratos Públicos","","",,,,Não aplicável.,Não aplicável.,FALSE
Aquisição de serviços de sistema biométrico de assiduidade,Ajuste Direto Regime Geral,Aquisição de serviços,"72212000-4, Serviços de programação de software de aplicação","SPMS - Serviços Partilhados do Ministério da Saúde, E. P. E. (509540716)","Infocontrol - Electrónica e Automatismo, Lda. (501395784)","5.368,00 €",18-02-2015,05-02-2015,365 dias,"Portugal, Portugal Continental","Artigo 20.º, n.º 1, alínea a) do Código dos Contratos Públicos","","",,,,Não aplicável.,Não aplicável.,FALSE
"aquisição de serviços de armazenamento, produção e distribuição de kits no âmbito do programa de troca de seringas para prevenção de VIH/sida, no âmbito do Programa Troca de Seringas ",Concurso público,Aquisição de serviços,"79824000-6, Serviços de impressão e distribuição","SPMS - Serviços Partilhados do Ministério da Saúde, E. P. E. (509540716)",Efervescente - Design e Comunicação (506738400),"116.569,89 €",17-02-2015,13-02-2015,365 dias,Portugal,"Artigo 20.º, n.º 1, alínea b) do Código dos Contratos Públicos","","",,,,Não aplicável.,Não aplicável.,FALSE
"Aquisição de serviços de desenvolvimento de novo sítio de internet e intranet para a SPMS, EPE",Ajuste Direto Regime Geral,Aquisição de serviços,"72212220-7, Serviços de desenvolvimento de software para Internet e intranet","SPMS - Serviços Partilhados do Ministério da Saúde, E. P. E. (509540716)","We Mean Business, Lda. (510480454)","46.690,00 €",13-02-2015,22-12-2014,100 dias,Portugal,"Artigo 20.º, n.º 1, alínea a) do Código dos Contratos Públicos",31-05-2015,"46.690,00 €",,,,Não aplicável.,Não aplicável.,FALSE
