Objeto do Contrato,Tipo de Procedimento,Tipo(s) de Contrato,CPVs,Entidade(s) Adjudicante(s),Entidade(s) Adjudicatária(s),Preço Contratual,Data de Publicação,Data de Celebração do Contrato,Prazo de Execução,Local de Execução,Fundamentação,Data de Fecho do Contrato,Preço Total Efetivo,Causas das Alterações ao Prazo,Causas das Alterações ao Preço,Estado,N.º registo do Acordo Quadro,Descrição do Acordo Quadro,Procedimento Centralizado
Aquisição de Mobiliário,Ajuste Direto Regime Geral,Aquisição de bens móveis,"39100000-3, Mobiliário","Unidade Local de Saúde do Alto Minho, EPE (ULSAM) (508786193)","Decitrel Inovação - Tecnologias para Educação, S. A. (507883594)","1.617,10 €",28-11-2014,26-11-2014,30 dias,"Portugal, Viana do Castelo, Arcos de Valdevez","Artigo 20.º, n.º 1, alínea a) do Código dos Contratos Públicos",,,,,,Não aplicável.,Não aplicável.,FALSE
Aquisição de Aspiradores de Secreções,Ajuste Direto Regime Geral,Aquisição de bens móveis,"33180000-5, Apoio funcional","Unidade Local de Saúde do Alto Minho, EPE (ULSAM) (508786193)","Prhofame - Prod Hosp Farmacêuticos e Médicos, Lda. (501891145)","1.534,00 €",28-11-2014,26-11-2014,30 dias,"Portugal, Viana do Castelo","Artigo 20.º, n.º 1, alínea a) do Código dos Contratos Públicos",,,,,,Não aplicável.,Não aplicável.,FALSE
Aquisição Equipamento Fisioterapia,Ajuste Direto Regime Geral,Aquisição de bens móveis,"33155000-1, Aparelhos para fisioterapia","Unidade Local de Saúde do Alto Minho, EPE (ULSAM) (508786193)",Grupo Vitalino (513083162),"1.778,96 €",28-11-2014,26-11-2014,30 dias,"Portugal, Viana do Castelo, Viana do Castelo","Artigo 20.º, n.º 1, alínea a) do Código dos Contratos Públicos",,,,,,Não aplicável.,Não aplicável.,FALSE
"Confecção, Fornecimento e distribuição de Alimentação aos doentes e funcionários da ULSAM",Ao abrigo de acordo-quadro (art.º 259.º),Aquisição de serviços,"55000000-0, Serviços de hotelaria, restauração e comércio a retalho","Unidade Local de Saúde do Alto Minho, E. P. E. (508786193)","SOCIGESTE (504215965), GERTAL (500126623), ITAU (500142858)","1.326.944,16 €",27-11-2014,11-11-2014,365 dias,"Portugal, Viana do Castelo",Artigo 259.º do Código dos Contratos Públicos,,,,,,119741,Concurso limitado por prévia qualificação para a celebração de acordo quadro para o fornecimento de refeições confeccionadas.,FALSE
Aquisição de Monitor Desfibrilhador de Transporte,Ajuste Direto Regime Geral,Aquisição de bens móveis,"33182100-0, Desfibrilhador","Unidade Local de Saúde do Alto Minho, EPE (ULSAM) (508786193)","Clinifar, S. A. (503281115)","12.000,00 €",26-11-2014,24-11-2014,30 dias,"Portugal, Viana do Castelo, Viana do Castelo","Artigo 20.º, n.º 1, alínea a) do Código dos Contratos Públicos",,,,,,Não aplicável.,Não aplicável.,FALSE
