Objeto do Contrato,Tipo de Procedimento,Tipo(s) de Contrato,CPVs,Entidade(s) Adjudicante(s),Entidade(s) Adjudicatária(s),Preço Contratual,Data de Publicação,Data de Celebração do Contrato,Prazo de Execução,Local de Execução,Fundamentação,Data de Fecho do Contrato,Preço Total Efetivo,Causas das Alterações ao Prazo,Causas das Alterações ao Preço,Estado,N.º registo do Acordo Quadro,Descrição do Acordo Quadro,Procedimento Centralizado
Aquisição de Daclatasvir 60mg comp,Ajuste Direto Regime Geral,Aquisição de bens móveis,"33000000-0, Equipamento médico, medicamentos e produtos para cuidados pessoais","Centro Hospitalar de Lisboa Central, E. P. E. (508080142)","Bristol-Myers Squibb Farmacêutica, Lda. (500048193)","62.078,12 €",11-07-2015,06-07-2015,168 dias,"Portugal, Lisboa, Lisboa","Artigo 24.º, n.º 1, alínea e) do Código dos Contratos Públicos","","","","",,Não aplicável.,Não aplicável.,FALSE
Aquisição de Daclatasvir 60mg comp,Ajuste Direto Regime Geral,Aquisição de bens móveis,"33000000-0, Equipamento médico, medicamentos e produtos para cuidados pessoais","Centro Hospitalar de Lisboa Central, E. P. E. (508080142)","Bristol-Myers Squibb Farmacêutica, Lda. (500048193)","31.039,06 €",11-07-2015,02-07-2015,84 dias,"Portugal, Lisboa, Lisboa","Artigo 24.º, n.º 1, alínea e) do Código dos Contratos Públicos","","","","",,Não aplicável.,Não aplicável.,FALSE
Aquisição de Daclatasvir 60mg comp,Ajuste Direto Regime Geral,Aquisição de bens móveis,"33000000-0, Equipamento médico, medicamentos e produtos para cuidados pessoais","Centro Hospitalar de Lisboa Central, E. P. E. (508080142)","Bristol-Myers Squibb Farmacêutica, Lda. (500048193)","62.078,12 €",11-07-2015,02-07-2015,168 dias,"Portugal, Lisboa, Lisboa","Artigo 24.º, n.º 1, alínea e) do Código dos Contratos Públicos","","","","",,Não aplicável.,Não aplicável.,FALSE
Aquisição de Daclatasvir 60mg comp,Ajuste Direto Regime Geral,Aquisição de bens móveis,"33000000-0, Equipamento médico, medicamentos e produtos para cuidados pessoais","Centro Hospitalar de Lisboa Central, E. P. E. (508080142)","Bristol-Myers Squibb Farmacêutica, Lda. (500048193)","124.156,24 €",11-07-2015,02-07-2015,336 dias,"Portugal, Lisboa, Lisboa","Artigo 24.º, n.º 1, alínea e) do Código dos Contratos Públicos","","","","",,Não aplicável.,Não aplicável.,FALSE
Aquisição de Daclatasvir 60mg comp,Ajuste Direto Regime Geral,Aquisição de bens móveis,"33000000-0, Equipamento médico, medicamentos e produtos para cuidados pessoais","Centro Hospitalar de Lisboa Central, E. P. E. (508080142)","Bristol-Myers Squibb Farmacêutica, Lda. (500048193)","62.078,12 €",11-07-2015,02-07-2015,180 dias,"Portugal, Lisboa, Lisboa","Artigo 24.º, n.º 1, alínea e) do Código dos Contratos Públicos","","","","",,Não aplicável.,Não aplicável.,FALSE
Aquisição de Daclatasvir 60mg comp,Ajuste Direto Regime Geral,Aquisição de bens móveis,"33000000-0, Equipamento médico, medicamentos e produtos para cuidados pessoais","Centro Hospitalar de Lisboa Central, E. P. E. (508080142)","Bristol-Myers Squibb Farmacêutica, Lda. (500048193)","62.078,12 €",11-07-2015,06-07-2015,180 dias,"Portugal, Lisboa, Lisboa","Artigo 24.º, n.º 1, alínea e) do Código dos Contratos Públicos","","","","",,Não aplicável.,Não aplicável.,FALSE
Infliximab 100mg pó conc sol inj fr IV,Ajuste Direto Regime Geral,Aquisição de bens móveis,"33000000-0, Equipamento médico, medicamentos e produtos para cuidados pessoais","Centro Hospitalar de Lisboa Central, E. P. E. (508080142)","Merck Sharp & Dohme, Lda (500191360)","110.246,50 €",11-07-2015,02-07-2015,30 dias,"Portugal, Lisboa, Lisboa","Artigo 24.º, n.º 1, alínea e) do Código dos Contratos Públicos","","","","",,Não aplicável.,Não aplicável.,FALSE
Fumarato de Dimetilo 240mg cáps GR,Ajuste Direto Regime Geral,Aquisição de bens móveis,"33000000-0, Equipamento médico, medicamentos e produtos para cuidados pessoais","Centro Hospitalar de Lisboa Central, E. P. E. (508080142)","Biogen Portugal Sociedade Farmacêutica, Lda (506415740)","17.551,60 €",11-07-2015,03-07-2015,174 dias,"Portugal, Lisboa, Lisboa","Artigo 24.º, n.º 1, alínea e) do Código dos Contratos Públicos","","","","",,Não aplicável.,Não aplicável.,FALSE
410458/15 - Aquisição de Daclatasvir 60 mg comp. (doente CLVMR: Proc. 20154958) - tratamento p/ 24 semanas,Ajuste Direto Regime Geral,Aquisição de bens móveis,"33600000-6, Produtos farmacêuticos","Centro Hospitalar de Lisboa Central, E. P. E. (508080142)","Bristol-Myers Squibb Farmacêutica Portuguesa, S. A. (500048193)","62.078,12 €",10-07-2015,02-07-2015,180 dias,"Portugal, Lisboa, Lisboa","Artigo 24.º, n.º 1, alínea e) do Código dos Contratos Públicos","","","","",,Não aplicável.,Não aplicável.,FALSE
510649/15 - Aquisição de Corretivos da Volémia e Outras Soluções Estéreis,Ao abrigo de acordo-quadro (art.º 259.º),Aquisição de bens móveis,"33600000-6, Produtos farmacêuticos","Centro Hospitalar de Lisboa Central, E. P. E. (508080142)","Overpharma - Prod. Med. Farm., Lda. (505792362), Grifols Portugal Prod. Farm. e Hosp., Lda. (502041285), Baxter Médico Farmacêutica, Lda. (503347345), Labesfal - Laboratórios Almiro, S. A. (501169580), B. Braun Medical, Lda. (501506543)","151.237,45 €",10-07-2015,03-07-2015,180 dias,"Portugal, Lisboa, Lisboa",Artigo 259.º do Código dos Contratos Públicos,"","","","",,1331181,Acordo Quadro para fornecimento de corretivos da volémia e outras soluções estéreis às Instituições e Serviços do Serviço Nacional de Saúde,FALSE
Material para ligamentoplastia e dispositivo para sutura tendão de aquiles,Ajuste Direto Regime Geral,Aquisição de bens móveis,"33000000-0, Equipamento médico, medicamentos e produtos para cuidados pessoais","Centro Hospitalar de Lisboa Central, E. P. E. (508080142)",Medicinália Cormédica (500684324),"9.405,00 €",10-07-2015,17-04-2015,1 dias,"Portugal, Lisboa, Lisboa","Artigo 20.º, n.º 1, alínea a) do Código dos Contratos Públicos","","","","",,Não aplicável.,Não aplicável.,FALSE
"Obras para Instalação de Porta Automática nas Consultas Externas de Ortopedia do CHLC, EPE - Hospital Curry Cabral",Ajuste Direto Regime Geral,Concessão de obras públicas,"45200000-9, Obras de construção total ou parcial e de engenharia civil","Centro Hospitalar de Lisboa Central, E. P. E. (508080142)",OMEP (502022469),"7.950,00 €",10-07-2015,26-02-2015,20 dias,"Portugal, Lisboa, Lisboa","Artigo 19.º, alínea a) do Código dos Contratos Públicos","","","","",,Não aplicável.,Não aplicável.,FALSE
410476/15 - Aquisição de Ombitasvir 12.5 mg + Paritaprevir 75 mg + Ritonavir 50 mg comp. e Dasabuvir 250 mg comp. (doente autorizado pela CNFT: NZCJS (Proc. n.º 20155051),Ajuste Direto Regime Geral,Aquisição de bens móveis,"33600000-6, Produtos farmacêuticos","Centro Hospitalar de Lisboa Central, E. P. E. (508080142)","Abbvie, Lda. (510229050)","30.500,00 €",10-07-2015,08-07-2015,90 dias,"Portugal, Lisboa, Lisboa","Artigo 24.º, n.º 1, alínea e) do Código dos Contratos Públicos","","","","",,Não aplicável.,Não aplicável.,FALSE
5-2.0055/15 - Aquisição de sistemas de administração de soros,Ao abrigo de acordo-quadro (art.º 259.º),Aquisição de bens móveis,"33100000-1, Equipamento médico","Centro Hospitalar de Lisboa Central, E. P. E. (508080142)",PMH (502376899),"46.200,00 €",09-07-2015,09-07-2015,150 dias,"Portugal, Lisboa, Lisboa",Artigo 259.º do Código dos Contratos Públicos,"","","","",,1212278,"CONCURSO PÚBLICO PARA A CELEBRAÇÃO DE CONTRATOS PÚBLICOS DE APROVISIONAMENTO PARA A ÁREA DA SAÚDE, COM VISTA AO FORNECIMENTO DE CATETERES, ÀS INSTITUIÇÕES E SERVIÇOS DO SERVIÇO NACIONAL DE SAÚDE",FALSE
4-2.1355/15 - Aquisição de Kit de Raquianestesia,Ajuste Direto Regime Geral,Aquisição de bens móveis,"33140000-3, Material médico de consumo","Centro Hospitalar de Lisboa Central, E.P.E. (CHLC) (508080142)","Bastos Viegas, SA (500042772)","12.640,27 €",09-07-2015,02-07-2015,175 dias,"Portugal, Lisboa, Lisboa","Artigo 20.º, n.º 1, alínea a) do Código dos Contratos Públicos","","","","",,Não aplicável.,Não aplicável.,FALSE
GASIMETRIA CASSTE MEDIDA,Ajuste Direto Regime Geral,Aquisição de bens móveis,"33696000-5, Reagentes e meios de contraste","Centro Hospitalar de Lisboa Central, E. P. E. (508080142)",SIEMENS HEALTHECARE (507925173),"55.800,00 €",09-07-2015,30-06-2015,90 dias,"Portugal, Lisboa, Lisboa","Artigo 26.º, n.º 1, alínea a) do Código dos Contratos Públicos","","","","",,Não aplicável.,Não aplicável.,FALSE
Economato,Ao abrigo de acordo-quadro (art.º 259.º),Aquisição de bens móveis,"30192000-1, Material de escritório","Instituto Português de Oncologia de Coimbra Francisco Gentil, E. P. E. (506361438), CENTRO HOSPITALAR DE LEIRIA, E.P.E. (509822932), Secretaria-Geral do Ministério da Saúde - SNCP (600080684), Instituto Português de Oncologia do Porto Francisco Gentil, E.P.E. (506362299), CHO - Centro Hospitalar do Oeste (510412009), Hospital do Espírito Santo de Évora, E. P. E. (508085888), Hospital Arcebispo João Crisóstomo (501626123), Hospital Distrital de Santarém, E. P. E. (506361462), Centro Hospitalar Vila Nova de Gaia - Espinho, E. P. E. (508142156), Hospital Figueira da Foz, EPE (506361527), Centro Hospitalar de Trás-os-Montes e Alto Douro, EPE (508100496), Serviço de Intervenção nos Comportamentos Aditivos e nas Dependências (600084884), Unidade Local de Saúde de Matosinhos, EPE (ULSM) (506361390), Centro Hospitalar e Universitário de Coimbra, E. P. E. (510103448), Hospital Dr. Francisco Zagalo (501510150), SPMS - Serviços Partilhados do Ministério da Saúde, E. P. E. (509540716), Centro Hospitalar Barreiro Montijo, E. P. E. (509186998), Direcção-Geral da Saúde (600037100), Centro Hospitalar do Porto, E.P.E. (CHP) (508331471), INFARMED - Autoridade Nacional do Medicamento e Produtos de Saúde I.P. (600037002), Centro Hospitalar de Lisboa Central, E. P. E. (508080142), Administração Regional de Saúde do Norte, I. P. (503135593), Centro Hospitalar Tondela-Viseu, E. P. E. (509822940), Administração Regional de Saúde do Centro, I. P. (503122165), Centro Hospitalar do Baixo Vouga, E.P.E. (510123210), Centro Hospitalar do Algarve, E. P. E. (510745997), Instituto Nacional de Emergência Médica, I. P. (501356126), Hospital de Santa Maria Maior, EPE (506361381), Centro Hospitalar de Setúbal, E. P. E. (507606787), Hospital Professor Doutor Fernando Fonseca, E. P. E. (503035416), Centro de Medicina e Reabilitação da Região Centro - Rovisco Pais (503767336), Administração Regional de Saúde de Lisboa e Vale do Tejo, I. P. (503148776), Centro Hospitalar Entre Douro e Vouga, EPE (508878462), Administração Regional de Saúde do Algarve, I. P. (503148709), Centro Hospitalar de São João, E. P. E. (509821197), Unidade Local de Saúde do Nordeste, E. P. E (509932584), Unidade Local de Saúde da Guarda, E. P. E. (508752000), Administração Regional de Saúde do Alentejo (ARSA) (503148768), Hospital José Luciano de Castro (501613021), Centro Hospitalar Psiquiátrico de Lisboa (508338476), Unidade Local de Saúde do Baixo Alentejo, E. P. E. (508754275), Unidade Local de Saúde de Castelo Branco, EPE (509309844), CENTRO HOSPITALAR LISBOA NORTE, EPE (508481287), SUCH (500900469), Hospital Garcia de Orta, E. P. E. (506361470), Instituto Português de Oncologia de Lisboa Francisco Gentil, E. P. E. (506361616), Centro Hospitalar do Médio Ave, E. P. E. (508093937), ACSS-Administração Central do Sistema de Saúde,IP (508188423), Instituto Português do Sangue e da Transplantação, I. P. (502423943), Unidade Local de saúde do Litoral Alentejano, EPE (510445152), Instituto Nacional de Saúde Doutor Ricardo Jorge, I.P. (501427511), Centro Hospitalar do Médio Tejo, E. P. E. (506361608), Inspeção-Geral das Atividades em Saúde (600018857), Instituto de Oftalmologia Dr. Gama Pinto (600000052), Unidade Local de Saúde do Norte Alentejano, E. P. E. (508094461), Centro Hospitalar do Tâmega e Sousa, E. P. E. (508318262)","OLMAR - Artigos de Papelaria, Lda. (508831989)","17.216,38 €",08-07-2015,07-04-2015,300 dias,"Portugal, Coimbra, Coimbra",Artigo 259.º do Código dos Contratos Públicos,"","","","",,162548,"Concurso limitado por prévia qualificação para a celebração de Acordo Quadro para fornecimento de papel, economato e consumíveis de impressão.",TRUE
Papel para Fotocópia e Impressão,Ao abrigo de acordo-quadro (art.º 259.º),Aquisição de bens móveis,"30197643-5, Papel para fotocópia","Administração Central do Sistema de Saúde, I. P. (508188423), Centro Hospitalar e Universitário de Coimbra, E. P. E. (510103448), Unidade Local de Saúde da Guarda, E. P. E. (508752000), Unidade Local de Saúde do Alto Minho, E. P. E. (508786193), Centro Hospitalar de Trás os Montes e Alto Douro, EPE (508100496), Centro Hospitalar do Oeste (510412009), Hospital Garcia de Orta, EPE (506361470), Hospital de Magalhães Lemos, E. P. E. (502828790), Administração Regional de Saúde do Norte, I. P. (503135593), Centro Hospitalar Médio Ave, E.P.E.. (508093937), Instituto Português de Oncologia de Coimbra - Francisco Gentil E.P.E. (506361438), Centro Hospitalar do Alto Ave, EPE (508080827), Centro Hospitalar Cova da Beira, EPE (506361659), Centro Hospitalar de Setúbal, E. P. E. (507606787), Centro Hospitalar Tondela-Viseu, E. P. E. (509822940), Instituto Português do Sangue e da Transplantação, I. P. (502423943), Instituto Português de Oncologia do Porto Francisco Gentil, E. P. E. (506362299), Hospital Dr. Francisco Zagalo (501510150), CENTRO HOSPITALAR LISBOA NORTE, EPE (508481287), Inspeção-Geral das Atividades em Saúde (600018857), Centro Hospitalar de Lisboa Central, E. P. E. (508080142), Secretaria-Geral do Ministério da Saúde - SNCP (600080684), Direção-Geral da Saúde (600037100), Centro Hospitalar de Leiria, E. P. E. (509822932), Centro Hospitalar de Entre o Douro e Vouga, E.P.E. (508878462), Centro Hospitalar do Algarve, E. P. E. (510745997), Unidade Local de Saúde de Matosinhos, EPE (506361390), Centro Hospitalar do Tâmega e Sousa, E. P. E. (508318262), Centro Hospitalar Vila Nova de Gaia - Espinho, E. P. E. (508142156), SICAD  - Serviço de Intervenção nos Comportamentos Aditivos e nas Dependências (600084884), Instituto Nacional de Emergência Médica, I. P. (501356126), Hospital Prof. Doutor Fernando Fonseca E.P.E. (503035416), INFARMED - Autoridade Nacional do Medicamento e Produtos de Saúde, I. P. (600037002), Hospital do Espírito Santo de Évora, E. P. E. (508085888), Hospital Arcebispo João Crisóstomo (501626123), Hospital Santa Maria Maior, E. P. E. (506361381), Unidade Local de Saúde do Norte Alentejano, E. P. E. (508094461), SUCH - Serviço de Utilização Comum dos Hospitais (500900469), Centro Hospitalar Psiquiátrico de Lisboa (508338476), Centro de medicina e Reabilitação da Região Centro Rovisco Pais (503767336), Instituto de Oftalmologia Dr. Gama Pinto (600000052), Hospital de José Luciano de Castro (501613021), Centro Hospitalar do Médio Tejo, E.P.E. (CHMT) (506361608), Administração Regional de Saúde do Centro, I. P. (503122165), Centro Hospitalar de São João, E. P. E. (509821197), CHBM - Centro Hospital Barreiro Montijo, EPE (509186998), Administração Regional de Saúde do Alentejo, I. P. (503148768), Centro Hospitalar do Baixo Vouga, E. P. E (CHBV, E. P. E.) (510123210), Administração Regional de Saúde de Lisboa e Vale do Tejo, I. P. (503148776), Unidade Local de Saúde do Nordeste, E. P. E (509932584), Hospital Distrital de Santarém, E. P. E. (506361462), Administração Regional de Saúde do Algarve, I. P. (503148709), Centro Hospitalar Póvoa de Varzim - Vila do Conde, E. P. E. (508741823), Unidade Local de Saúde do Litoral Alentejano, E. P. E. (510445152), Hospital Distrital da Figueira da Foz, EPE (506361527), Instituto Português de Oncologia de Lisboa Francisco Gentil, E. P. E. (506361616), Unidade Local de Saude do Baixo Alentejo, EPE (508754275), Centro Hospitalar de Lisboa Ocidental, E. P. E. (507618319), SPMS - Serviços Partilhados do Ministério da Saúde, E. P. E. (509540716), Unidade Local de Saúde de Castelo Branco, E. P. E. (509309844), Centro Hospitalar do Porto, E.P.E. (CHP) (508331471)","STAPLES PORTUGAL - EQUIP. ESCRITORIO, SA (503789372)","95.332,74 €",08-07-2015,30-01-2015,300 dias,"Portugal, Coimbra, Coimbra",Artigo 259.º do Código dos Contratos Públicos,31-12-2015,"80.000,00 €",NÃO APLICÁVEL,NÃO APLICÁVEL,,162548,"Concurso limitado por prévia qualificação para a celebração de Acordo Quadro para fornecimento de papel, economato e consumíveis de impressão.",TRUE
410477/15 - Aquisição de Ombitasvir 12.5 mg + Paritaprevir 75 mg + Ritonavir 50 mg comp. e Dasabuvir 250 mg comp. (Doente autorizado pela CNFT: DRTJS Proc. 20155229),Ajuste Direto Regime Geral,Aquisição de bens móveis,"33600000-6, Produtos farmacêuticos","Centro Hospitalar de Lisboa Central, E. P. E. (508080142)","Abbvie, Lda. (510229050)","30.500,00 €",08-07-2015,02-07-2015,90 dias,"Portugal, Lisboa, Lisboa","Artigo 24.º, n.º 1, alínea e) do Código dos Contratos Públicos","","","","",,Não aplicável.,Não aplicável.,FALSE
Sistemas de débito cardiaco,Ajuste Direto Regime Geral,Aquisição de bens móveis,"33140000-3, Material médico de consumo","Centro Hospitalar de Lisboa Central, E.P.E. (CHLC) (508080142)",Edwards Lifescience (508014832),"16.870,00 €",08-07-2015,30-06-2015,184 dias,"Portugal, Lisboa, Lisboa","Artigo 20.º, n.º 1, alínea a) do Código dos Contratos Públicos","","","","",,Não aplicável.,Não aplicável.,FALSE
4-2.0085/15 - Aquisição de Pac's e Kit's Cirurgicos,Ajuste Direto Regime Geral,Aquisição de bens móveis,"33140000-3, Material médico de consumo","Centro Hospitalar de Lisboa Central, E.P.E. (CHLC) (508080142)",Molnlycke Health Care (511101066),"15.360,00 €",08-07-2015,02-07-2015,150 dias,"Portugal, Lisboa, Lisboa","Artigo 20.º, n.º 1, alínea a) do Código dos Contratos Públicos","","","","",,Não aplicável.,Não aplicável.,FALSE
Aquisição de Dieta  Compl. Modifi Enr. Fib. Sol Fr 500ml,Ajuste Direto Regime Geral,Aquisição de bens móveis,"33000000-0, Equipamento médico, medicamentos e produtos para cuidados pessoais","Centro Hospitalar de Lisboa Central, E. P. E. (508080142)",Nestlé Portugal Lda (500201307),"13.747,20 €",03-07-2015,17-06-2015,180 dias,"Portugal, Lisboa, Lisboa","Artigo 20.º, n.º 1, alínea a) do Código dos Contratos Públicos","","","","",,Não aplicável.,Não aplicável.,FALSE
Aquisição de Factor VIII de Coagulaão Humana 500UI Pó Sol Inj,Ajuste Direto Regime Geral,Aquisição de bens móveis,"33000000-0, Equipamento médico, medicamentos e produtos para cuidados pessoais","Centro Hospitalar de Lisboa Central, E. P. E. (508080142)",Octapharma Prod farmacêuticos (502820780),"40.000,00 €",03-07-2015,17-06-2015,170 dias,"Portugal, Lisboa, Lisboa","Artigo 24.º, n.º 1, alínea e) do Código dos Contratos Públicos","","","","",,Não aplicável.,Não aplicável.,FALSE
"Aquisição de """"Glutamato desidrogenase (GDH) de clostridium difficile - reag. pesquisa-screening""""",Ajuste Direto Regime Geral,Aquisição de bens móveis,"33696500-0, Reagentes de laboratório","Centro Hospitalar de Lisboa Central, E.P.E. (CHLC) (508080142)",Baptista Marques (501439110),"3.840,00 €",03-07-2015,02-07-2015,182 dias,"Portugal, Lisboa, Lisboa","Artigo 20.º, n.º 1, alínea a) do Código dos Contratos Públicos","","","","",,Não aplicável.,Não aplicável.,FALSE
"Aquisição de """"Tiras de E-teste Levofloxacina""""",Ajuste Direto Regime Geral,Aquisição de bens móveis,"33696500-0, Reagentes de laboratório","Centro Hospitalar de Lisboa Central, E.P.E. (CHLC) (508080142)","Werfen Portugal, Lda. (501086110)","260,00 €",03-07-2015,11-06-2015,213 dias,"Portugal, Lisboa, Lisboa","Artigo 20.º, n.º 1, alínea a) do Código dos Contratos Públicos","","","","",,Não aplicável.,Não aplicável.,FALSE
Diverso material para eletrofisiologia e outros,Concurso público,Aquisição de bens móveis,"33140000-3, Material médico de consumo","Centro Hospitalar de Lisboa Central, E. P. E. (508080142)",st jude (504180746),"77.389,80 €",02-07-2015,01-07-2015,184 dias,"Portugal, Lisboa, Lisboa","Artigo 20.º, n.º 1, alínea b) do Código dos Contratos Públicos","","","","",,Não aplicável.,Não aplicável.,FALSE
Diverso material para eletrofisiologia e outros,Concurso público,Aquisição de bens móveis,"33140000-3, Material médico de consumo","Centro Hospitalar de Lisboa Central, E. P. E. (508080142)",Medtronic (504223933),"56.126,30 €",02-07-2015,01-07-2015,184 dias,"Portugal, Lisboa, Lisboa","Artigo 20.º, n.º 1, alínea b) do Código dos Contratos Públicos","","","","",,Não aplicável.,Não aplicável.,FALSE
Diverso material para eletrofisiologia e outros,Concurso público,Aquisição de bens móveis,"33140000-3, Material médico de consumo","Centro Hospitalar de Lisboa Central, E. P. E. (508080142)",Johnson (500153370),"45.711,00 €",02-07-2015,01-07-2015,184 dias,"Portugal, Lisboa, Lisboa","Artigo 20.º, n.º 1, alínea b) do Código dos Contratos Públicos","","","","",,Não aplicável.,Não aplicável.,FALSE
Diverso material para eletrofisiologia e outros,Concurso público,Aquisição de bens móveis,"33140000-3, Material médico de consumo","Centro Hospitalar de Lisboa Central, E. P. E. (508080142)",Boston Scientific (504988964),"6.641,00 €",02-07-2015,01-07-2015,184 dias,"Portugal, Lisboa, Lisboa","Artigo 20.º, n.º 1, alínea b) do Código dos Contratos Públicos","","","","",,Não aplicável.,Não aplicável.,FALSE
Diverso material eletrofisiologia e outros,Concurso público,Aquisição de bens móveis,"33140000-3, Material médico de consumo","Centro Hospitalar de Lisboa Central, E. P. E. (508080142)",Biotronik (510726941),"4.150,00 €",02-07-2015,01-07-2015,184 dias,"Portugal, Lisboa, Lisboa","Artigo 20.º, n.º 1, alínea b) do Código dos Contratos Públicos","","","","",,Não aplicável.,Não aplicável.,FALSE
4-2.0048/15 - Substitutos Ósseos,Ajuste Direto Regime Geral,Aquisição de bens móveis,"33140000-3, Material médico de consumo","Centro Hospitalar de Lisboa Central, E. P. E. (508080142)","Overpharma, Lda (505792362)","22.110,00 €",02-07-2015,25-06-2015,150 dias,"Portugal, Lisboa, Lisboa","Artigo 20.º, n.º 1, alínea a) do Código dos Contratos Públicos","","","","",,Não aplicável.,Não aplicável.,FALSE
4-2.0535/15 - Aquisição de Diversos Conectores,Ajuste Direto Regime Geral,Aquisição de bens móveis,"33140000-3, Material médico de consumo","Centro Hospitalar de Lisboa Central, E. P. E. (508080142)","Medtronic Portugal, Lda (504223933)","930,00 €",02-07-2015,02-07-2015,150 dias,"Portugal, Lisboa, Lisboa","Artigo 20.º, n.º 1, alínea a) do Código dos Contratos Públicos","","","","",,Não aplicável.,Não aplicável.,FALSE
4-2.0535/15 - Aquisição de Diversos Conectores,Ajuste Direto Regime Geral,Aquisição de bens móveis,"33140000-3, Material médico de consumo","Centro Hospitalar de Lisboa Central, E. P. E. (508080142)",Lusopalex (503531588),"637,00 €",02-07-2015,02-07-2015,150 dias,"Portugal, Lisboa, Lisboa","Artigo 20.º, n.º 1, alínea a) do Código dos Contratos Públicos","","","","",,Não aplicável.,Não aplicável.,FALSE
4-2.0535/15 - Aquisição de Diversos Conectores,Ajuste Direto Regime Geral,Aquisição de bens móveis,"33140000-3, Material médico de consumo","Centro Hospitalar de Lisboa Central, E. P. E. (508080142)",Coloplast (503989037),"102,00 €",02-07-2015,02-07-2015,150 dias,"Portugal, Lisboa, Lisboa","Artigo 20.º, n.º 1, alínea a) do Código dos Contratos Públicos","","","","",,Não aplicável.,Não aplicável.,FALSE
4-2.0535/15 - Aquisição de Diversos Conectores,Ajuste Direto Regime Geral,Aquisição de bens móveis,"33140000-3, Material médico de consumo","Centro Hospitalar de Lisboa Central, E. P. E. (508080142)",B. Braun Medical (501506543),"823,50 €",02-07-2015,02-07-2015,150 dias,"Portugal, Lisboa, Lisboa","Artigo 20.º, n.º 1, alínea a) do Código dos Contratos Públicos","","","","",,Não aplicável.,Não aplicável.,FALSE
4-2.0535/15 - Aquisição de Diversos Conectores,Ajuste Direto Regime Geral,Aquisição de bens móveis,"33140000-3, Material médico de consumo","Centro Hospitalar de Lisboa Central, E. P. E. (508080142)",Aviquimica (500039720),"6.806,00 €",02-07-2015,02-07-2015,150 dias,"Portugal, Lisboa, Lisboa","Artigo 20.º, n.º 1, alínea a) do Código dos Contratos Públicos","","","","",,Não aplicável.,Não aplicável.,FALSE
510668/15 - Aquisição de Adalimumab 40 mg / 0.8 ml sol. inj. fr. 0.8 ml SC,Ao abrigo de acordo-quadro (art.º 259.º),Aquisição de bens móveis,"33600000-6, Produtos farmacêuticos","Centro Hospitalar de Lisboa Central, E. P. E. (508080142)","Abbvie, Lda. (510229050)","10.830,72 €",01-07-2015,01-07-2015,180 dias,"Portugal, Lisboa, Lisboa",Artigo 259.º do Código dos Contratos Públicos,"","","","",,345900,CONCURSO PÚBLICO PARA A CELEBRAÇÃO DE CONTRATOS PÚBLICOS DE APROVISIONAMENTO PARA AQUISIÇÃO MEDICAMENTOS DO FORO ONCOLÓGICO,FALSE
Aquisição de Rituximab 500mg/50ml Sol Inj Fr 50ml IV,Ao abrigo de acordo-quadro (art.º 259.º),Aquisição de bens móveis,"33000000-0, Equipamento médico, medicamentos e produtos para cuidados pessoais","Centro Hospitalar de Lisboa Central, E. P. E. (508080142)",Roche Farmacêutica Quimica Lda (500233810),"569.465,00 €",01-07-2015,01-07-2015,180 dias,"Portugal, Lisboa, Lisboa",Artigo 259.º do Código dos Contratos Públicos,"","","","",,345900,CONCURSO PÚBLICO PARA A CELEBRAÇÃO DE CONTRATOS PÚBLICOS DE APROVISIONAMENTO PARA AQUISIÇÃO MEDICAMENTOS DO FORO ONCOLÓGICO,FALSE
Diverso Material de Intervenção,Ajuste Direto Regime Geral,Aquisição de bens móveis,"33140000-3, Material médico de consumo","Centro Hospitalar de Lisboa Central, E. P. E. (508080142)",Volcano Europe BAVA (BE859842345),"80.580,00 €",01-07-2015,25-06-2015,176 dias,"Portugal, Lisboa, Lisboa","Artigo 20.º, n.º 1, alínea a) do Código dos Contratos Públicos","","","","",,Não aplicável.,Não aplicável.,FALSE
"4-2.1171/15 - Material para o Serviço de Medicina Física, Lotes desertos do AD 42049215",Ajuste Direto Regime Geral,Aquisição de bens móveis,"33140000-3, Material médico de consumo","Centro Hospitalar de Lisboa Central, E.P.E. (CHLC) (508080142)","Salutec, Lda (506380408)","923,44 €",01-07-2015,01-07-2015,150 dias,"Portugal, Lisboa, Lisboa","Artigo 20.º, n.º 1, alínea a) do Código dos Contratos Públicos","","","","",,Não aplicável.,Não aplicável.,FALSE
"4-2.1171/15 - Material para o Serviço de Medicina Física, Lotes desertos do AD 42049215",Ajuste Direto Regime Geral,Aquisição de bens móveis,"33140000-3, Material médico de consumo","Centro Hospitalar de Lisboa Central, E.P.E. (CHLC) (508080142)","JMV, Lda (501887148)","1.225,00 €",01-07-2015,01-07-2015,150 dias,"Portugal, Lisboa, Lisboa","Artigo 20.º, n.º 1, alínea a) do Código dos Contratos Públicos","","","","",,Não aplicável.,Não aplicável.,FALSE
"4-2.1171/15 - Material para o Serviço de Medicina Física, Lotes desertos do AD 42049215",Ajuste Direto Regime Geral,Aquisição de bens móveis,"33140000-3, Material médico de consumo","Centro Hospitalar de Lisboa Central, E.P.E. (CHLC) (508080142)","Grupo Vitalino, S.A. (513083162)","1.827,05 €",01-07-2015,01-07-2015,150 dias,"Portugal, Lisboa, Lisboa","Artigo 20.º, n.º 1, alínea a) do Código dos Contratos Públicos","","","","",,Não aplicável.,Não aplicável.,FALSE
"4-2.1171/15 - Material para o Serviço de Medicina Física, Lotes desertos do AD 42049215",Ajuste Direto Regime Geral,Aquisição de bens móveis,"33140000-3, Material médico de consumo","Centro Hospitalar de Lisboa Central, E.P.E. (CHLC) (508080142)",António Manuel Alves de Carvalho (144745038),"464,50 €",01-07-2015,01-07-2015,150 dias,"Portugal, Lisboa, Lisboa","Artigo 20.º, n.º 1, alínea a) do Código dos Contratos Públicos","","","","",,Não aplicável.,Não aplicável.,FALSE
Sensores O2 Cerebrais,Concurso público,Aquisição de bens móveis,"33140000-3, Material médico de consumo","Centro Hospitalar de Lisboa Central, E. P. E. (508080142)","Covidien Portugal, Unipessoal Lda. (503413410)","72.060,00 €",01-07-2015,24-06-2015,175 dias,"Portugal, Lisboa, Lisboa","Artigo 20.º, n.º 1, alínea b) do Código dos Contratos Públicos","","","","",,Não aplicável.,Não aplicável.,FALSE
