Objeto do Contrato,Tipo de Procedimento,Tipo(s) de Contrato,CPVs,Entidade(s) Adjudicante(s),Entidade(s) Adjudicatária(s),Preço Contratual,Data de Publicação,Data de Celebração do Contrato,Prazo de Execução,Local de Execução,Fundamentação,Data de Fecho do Contrato,Preço Total Efetivo,Causas das Alterações ao Prazo,Causas das Alterações ao Preço,Estado,N.º registo do Acordo Quadro,Descrição do Acordo Quadro,Procedimento Centralizado
"Aquisição de Contentores e Caixotes p/ Lixo p/ o CHLO, EPE",Ajuste Direto Regime Geral,Aquisição de bens móveis,"34928480-6, Contentores e baldes para lixo e resíduos","Centro Hospitalar de Lisboa Ocidental, E. P. E. (507618319)","João Antunes Amaro, Lda (500149003)","12.915,47 €",31-10-2017,31-10-2017,15 dias,"Portugal, Lisboa, Lisboa","Artigo 20.º, n.º 1, alínea a) do Código dos Contratos Públicos","","","","",,Não aplicável.,Não aplicável.,FALSE
Aquisição de Aneís e Próteses Valvulares Cardíacas para o CHLO,Concurso público,Aquisição de bens móveis,"33140000-3, Material médico de consumo","Centro Hospitalar de Lisboa Ocidental, E. P. E. (507618319)","LUSOPALEX, LDA (503531588)","19.500,00 €",30-10-2017,11-10-2017,365 dias,"Portugal, Lisboa, Lisboa","Artigo 20.º, n.º 1, alínea b) do Código dos Contratos Públicos","","","","",,Não aplicável.,Não aplicável.,FALSE
Aquisição de Stent's para o CHLO para o ano de 2017,Ajuste Direto Regime Geral,Aquisição de bens móveis,"33140000-3, Material médico de consumo","Centro Hospitalar de Lisboa Ocidental, EPE (CHLO) (507618319)","ABBOTT LABORATORIOS, LDA (500006148)","38.440,00 €",27-10-2017,12-10-2017,365 dias,"Portugal, Lisboa, Lisboa","Artigo 20.º, n.º 1, alínea a) do Código dos Contratos Públicos","","","","",,Não aplicável.,Não aplicável.,FALSE
IMPLEMENTAÇÃO DO MÓDULO DA TRIAGEM DE MENCHESTER NA URGÊNCIA DE OBSTETRICIA E GINECOLOGIA,Ajuste Direto Regime Geral,Aquisição de serviços,"72500000-0, Serviços relacionados com a informática","Centro Hospitalar de Lisboa Ocidental, E. P. E. (507618319)","EIT Services Co. Portugal, Lda (501570691)","6.750,00 €",25-10-2017,11-09-2017,5 dias,"Portugal, Lisboa, Lisboa","Artigo 24.º, n.º 1, alínea e) do Código dos Contratos Públicos","","","","",,Não aplicável.,Não aplicável.,FALSE
CP800097-AQUISIÇÃO DE 1 MESA TELECOMANDADA COM ARCO EM C - RADIOLOGIA DO HEM,Concurso público,Aquisição de bens móveis,"33000000-0, Equipamento médico, medicamentos e produtos para cuidados pessoais","Centro Hospitalar de Lisboa Ocidental, E. P. E. (507618319)",TOSHIBVA MEDICAL SYSTEM SA  (980023700),"330.000,00 €",25-10-2017,13-09-2017,66 dias,"Portugal, Lisboa, Lisboa","Artigo 20.º, n.º 1, alínea b) do Código dos Contratos Públicos",15-09-2017,"330.000,00 €",.,.,,Não aplicável.,Não aplicável.,FALSE
CP700017 - Aquisição de serviços para interrupção voluntária da gravidez durante o ano de 2017,Concurso público,Aquisição de serviços,"85100000-0, Serviços de saúde","Centro Hospitalar de Lisboa Ocidental, EPE (CHLO) (507618319)","Samer Ames, SA (507740343)","578.540,00 €",25-10-2017,03-04-2017,272 dias,"Portugal, Lisboa, Lisboa<BR/>Portugal, Lisboa, Amadora","Artigo 20.º, n.º 1, alínea b) do Código dos Contratos Públicos","","","","",,Não aplicável.,Não aplicável.,FALSE
Aquisição de Endopróteses para o CHLO,Concurso público,Aquisição de bens móveis,"33140000-3, Material médico de consumo","Centro Hospitalar de Lisboa Ocidental, E. P. E. (507618319)","DERMIS PRODUTOS DE SAUDE, SA (507988990)","50.500,00 €",23-10-2017,15-09-2017,365 dias,"Portugal, Lisboa, Lisboa","Artigo 20.º, n.º 1, alínea b) do Código dos Contratos Públicos","","","","",,Não aplicável.,Não aplicável.,FALSE
Aquisição de Anéis e Próteses Valvulares Cardíacas para o CHLO,Concurso público,Aquisição de bens móveis,"33140000-3, Material médico de consumo","Centro Hospitalar de Lisboa Ocidental, E. P. E. (507618319)",ST. JUDE MEDICAL PORTUGAL (504180746),"141.912,50 €",23-10-2017,11-10-2017,365 dias,"Portugal, Lisboa, Lisboa","Artigo 20.º, n.º 1, alínea b) do Código dos Contratos Públicos","","","","",,Não aplicável.,Não aplicável.,FALSE
Aquisição de Anéis e Próteses Valvulares Cardíacas para o CHLO,Concurso público,Aquisição de bens móveis,"33140000-3, Material médico de consumo","Centro Hospitalar de Lisboa Ocidental, E. P. E. (507618319)","EDWARDS LIFESCIENCES , LDA (508014832)","13.500,00 €",23-10-2017,12-10-2017,365 dias,"Portugal, Lisboa, Lisboa","Artigo 20.º, n.º 1, alínea b) do Código dos Contratos Públicos","","","","",,Não aplicável.,Não aplicável.,FALSE
