Objeto do Contrato,Tipo de Procedimento,Tipo(s) de Contrato,CPVs,Entidade(s) Adjudicante(s),Entidade(s) Adjudicatária(s),Preço Contratual,Data de Publicação,Data de Celebração do Contrato,Prazo de Execução,Local de Execução,Fundamentação,Data de Fecho do Contrato,Preço Total Efetivo,Causas das Alterações ao Prazo,Causas das Alterações ao Preço,Estado,N.º registo do Acordo Quadro,Descrição do Acordo Quadro,Procedimento Centralizado
Aquisição de duas estações de diagnóstico de imagem médica,Ajuste Direto Regime Geral,Aquisição de bens móveis,"30200000-1, Equipamento e material informático","Centro Hospitalar de Lisboa Ocidental, EPE (CHLO) (507618319)","Normática, SA (501782230)","5.542,08 €",10-11-2015,10-11-2015,15 dias,"Portugal, Lisboa, Lisboa","Artigo 20.º, n.º 1, alínea a) do Código dos Contratos Públicos",,,,,,Não aplicável.,Não aplicável.,FALSE
Aquisição de desfibrilhador para a UCIP do HEM,Ajuste Direto Regime Geral,Aquisição de bens móveis,"33100000-1, Equipamento médico","Centro Hospitalar de Lisboa Ocidental, EPE (CHLO) (507618319)","Remeditec, SA (505086344)","8.060,00 €",10-11-2015,25-06-2015,28 dias,"Portugal, Lisboa, Lisboa","Artigo 20.º, n.º 1, alínea a) do Código dos Contratos Públicos",,,,,,Não aplicável.,Não aplicável.,FALSE
Aquisição de dois servidores Blade,Ajuste Direto Regime Geral,Aquisição de bens móveis,"48800000-6, Sistemas de informação e servidores","Centro Hospitalar de Lisboa Ocidental, EPE (CHLO) (507618319)","ITEN Solutions, SA (510728189)","9.860,02 €",06-11-2015,27-10-2015,8 dias,"Portugal, Lisboa, Lisboa","Artigo 20.º, n.º 1, alínea a) do Código dos Contratos Públicos",,,,,,Não aplicável.,Não aplicável.,FALSE
"Aquisição de Serviços de MCDT's para a Área de Imagiologia do CHLO, EPE no ano de 2015",Concurso público,Aquisição de serviços,"85100000-0, Serviços de saúde","Centro Hospitalar de Lisboa Ocidental, E. P. E. (507618319)",Quadrantes (504148850),"68.541,50 €",06-11-2015,29-10-2015,182 dias,"Portugal, Lisboa, Lisboa","Artigo 20.º, n.º 1, alínea b) do Código dos Contratos Públicos",,,,,,Não aplicável.,Não aplicável.,FALSE
Remodelação da sala de espera da receção do Hospital Santa Cruz,Ajuste Direto Regime Geral,Empreitadas de obras públicas,"50000000-5, Serviços de reparação e manutenção","Centro Hospitalar de Lisboa Ocidental, E. P. E. (507618319)","Newname, Lda (510769403)","21.355,00 €",06-11-2015,03-11-2015,20 dias,"Portugal, Lisboa, Oeiras","Artigo 19.º, alínea a) do Código dos Contratos Públicos",,,,,,Não aplicável.,Não aplicável.,FALSE
"Aquisição de Serviços de MCDT's para a Área de Imagiologia do CHLO, EPE no ano de 2015",Concurso público,Aquisição de serviços,"85100000-0, Serviços de saúde","Centro Hospitalar de Lisboa Ocidental, E. P. E. (507618319)",Imadiagnosis (502401176),"43.548,04 €",06-11-2015,29-10-2015,182 dias,"Portugal, Lisboa, Lisboa","Artigo 20.º, n.º 1, alínea b) do Código dos Contratos Públicos",,,,,,Não aplicável.,Não aplicável.,FALSE
"Aquisição de Serviços de MCDT's para a Área de Imagiologia do CHLO, EPE no ano de 2015",Concurso público,Aquisição de serviços,"85100000-0, Serviços de saúde","Centro Hospitalar de Lisboa Ocidental, E. P. E. (507618319)",Sucesso 24 Premium (510663117),"49.790,02 €",06-11-2015,29-10-2015,182 dias,"Portugal, Lisboa, Lisboa","Artigo 20.º, n.º 1, alínea b) do Código dos Contratos Públicos",,,,,,Não aplicável.,Não aplicável.,FALSE
"Serviços de Higiene e Limpeza, incluíndo consumíveis, às instalações do CHLO",Ajuste Direto Regime Geral,Aquisição de serviços,"90000000-7, Serviços relativos a águas residuais, resíduos, limpeza e ambiente","Centro Hospitalar de Lisboa Ocidental, E. P. E. (507618319)","Neovalor, SA (505488400)","162.210,36 €",06-11-2015,24-09-2015,30 dias,"Portugal, Lisboa, Oeiras<BR/>Portugal, Lisboa, Lisboa","Artigo 24.º, n.º 1, alínea c) do Código dos Contratos Públicos",,,,,,Não aplicável.,Não aplicável.,FALSE
Fornecimento e montagem de baterias e quadro de inversão de UPS da UCIC,Ajuste Direto Regime Geral,Aquisição de serviços,"51000000-9, Serviços de instalação (excepto software)","Centro Hospitalar de Lisboa Ocidental, E. P. E. (507618319)","Custódio António Cardoso - UNipessoal, Lda (513252452)","7.450,00 €",06-11-2015,01-10-2015,5 dias,"Portugal, Lisboa, Lisboa","Artigo 20.º, n.º 1, alínea a) do Código dos Contratos Públicos",,,,,,Não aplicável.,Não aplicável.,FALSE
Instalação do sistema de exaustão no BOC do HSFX - Ativo,Ajuste Direto Regime Geral,Aquisição de serviços,"51000000-9, Serviços de instalação (excepto software)","Centro Hospitalar de Lisboa Ocidental, E. P. E. (507618319)","Vedolis, Lda (501260170)","9.028,00 €",06-11-2015,25-09-2015,30 dias,"Portugal, Lisboa, Lisboa","Artigo 20.º, n.º 1, alínea a) do Código dos Contratos Públicos",,,,,,Não aplicável.,Não aplicável.,FALSE
AD900265 - Remodelação da zona de apoio à cozinha no piso 0 do HEM,Ajuste Direto Regime Geral,Outros Tipos (Concessão de exploração de bens do domínio público),"71500000-3, Serviços relacionados com a construção","Centro Hospitalar de Lisboa Ocidental, E. P. E. (507618319)","Lourenda, Lda (509284140)","49.720,00 €",04-11-2015,11-09-2015,90 dias,"Portugal, Lisboa, Lisboa","Artigo 21.º, n.º 1, alínea a) do Código dos Contratos Públicos",,,,,,Não aplicável.,Não aplicável.,FALSE
AQUISIÇÃO DE SERVIÇOS DE IMPLEMENTAÇAO DE PROJECTO DE FATURAÇAO ELETRONICA NO CHLO,Ajuste Direto Regime Geral,Aquisição de serviços,"72200000-7, Serviços de consultoria e de programação de software","Centro Hospitalar de Lisboa Ocidental, EPE (CHLO) (507618319)",SAPHETY LEVEL TRUST SERVICES SA (507957547),"25.000,00 €",02-11-2015,16-10-2015,90 dias,"Portugal, Lisboa, Lisboa","Artigo 20.º, n.º 1, alínea a) do Código dos Contratos Públicos",,,,,,Não aplicável.,Não aplicável.,FALSE
FORNECIMENTO E MONTAGEM DE ROUPEIROS NA CIRURGIA GERAL DO HSFX,Ajuste Direto Regime Geral,Aquisição de bens móveis,"39100000-3, Mobiliário","Centro Hospitalar de Lisboa Ocidental, EPE (CHLO) (507618319)",METAL CUBICO  (503852880),"12.190,00 €",02-11-2015,21-10-2015,30 dias,"Portugal, Lisboa, Lisboa","Artigo 20.º, n.º 1, alínea a) do Código dos Contratos Públicos",,,,,,Não aplicável.,Não aplicável.,FALSE
AD900275 – Remodelação da zona de técnicas urológicas no 4.º piso do Hospital Egas Moniz,Ajuste Direto Regime Geral,Outros Tipos (Concessão de exploração de bens do domínio público),"71500000-3, Serviços relacionados com a construção","Centro Hospitalar de Lisboa Ocidental, E. P. E. (507618319)","Lourenda, Lda (509284140)","34.240,00 €",02-11-2015,06-10-2015,30 dias,"Portugal, Lisboa, Lisboa","Artigo 20.º, n.º 1, alínea a) do Código dos Contratos Públicos",,,,,,Não aplicável.,Não aplicável.,FALSE
