Objeto do Contrato,Tipo de Procedimento,Tipo(s) de Contrato,CPVs,Entidade(s) Adjudicante(s),Entidade(s) Adjudicatária(s),Preço Contratual,Data de Publicação,Data de Celebração do Contrato,Prazo de Execução,Local de Execução,Fundamentação,Data de Fecho do Contrato,Preço Total Efetivo,Causas das Alterações ao Prazo,Causas das Alterações ao Preço,Estado,N.º registo do Acordo Quadro,Descrição do Acordo Quadro,Procedimento Centralizado
Deslocação em serviço a Paris; Preclinical Assessors Meeting; 1 Participante.,Ajuste Direto Regime Geral,Aquisição de serviços,"63510000-7, Serviços de agências de viagens e serviços similares","INFARMED - Autoridade Nacional do Medicamento e Produtos de Saúde, I.P. (600037002)","BCD TRAVEL PORTUGAL – Agência de Viagens, Lda. (500291110)","1.203,37 €",21-02-2011,14-02-2011,5 dias,"Portugal, Lisboa, Lisboa","Artigo 27.º, n.º 1, alínea h) do Código dos Contratos Públicos",,,,,,Não aplicável.,Não aplicável.,
Deslocação em serviço a Londres; Seminário Gratner; 1Participante.,Ajuste Direto Regime Geral,Aquisição de serviços,"63510000-7, Serviços de agências de viagens e serviços similares","INFARMED - Autoridade Nacional do Medicamento e Produtos de Saúde, I.P. (600037002)","BCD TRAVEL PORTUGAL – Agência de Viagens, Lda. (500291110)","838,15 €",21-02-2011,14-02-2011,4 dias,"Portugal, Lisboa, Lisboa","Artigo 27.º, n.º 1, alínea h) do Código dos Contratos Públicos",,,,,,Não aplicável.,Não aplicável.,
Deslocação em serviço a Paris; Preclinical Assessors Meeting; 2 Participantes.,Ajuste Direto Regime Geral,Aquisição de serviços,"63510000-7, Serviços de agências de viagens e serviços similares","INFARMED - Autoridade Nacional do Medicamento e Produtos de Saúde, I.P. (600037002)","BCD TRAVEL PORTUGAL – Agência de Viagens, Lda. (500291110)","1.923,00 €",21-02-2011,14-02-2011,4 dias,"Portugal, Lisboa, Lisboa","Artigo 27.º, n.º 1, alínea e) do Código dos Contratos Públicos",,,,,,Não aplicável.,Não aplicável.,
Deslocação em serviço a Praga; Drugs for Newborns; 1 Participante.,Ajuste Direto Regime Geral,Aquisição de serviços,"63510000-7, Serviços de agências de viagens e serviços similares","INFARMED - Autoridade Nacional do Medicamento e Produtos de Saúde, I.P. (600037002)","BCD TRAVEL PORTUGAL – Agência de Viagens, Lda. (500291110)","655,68 €",21-02-2011,14-02-2011,5 dias,"Portugal, Lisboa, Lisboa","Artigo 27.º, n.º 1, alínea h) do Código dos Contratos Públicos",,,,,,Não aplicável.,Não aplicável.,
Deslocação em serviço a Bruxelas; Notified Body Operations; 2 Participantes.,Ajuste Direto Regime Geral,Aquisição de serviços,"63510000-7, Serviços de agências de viagens e serviços similares","INFARMED - Autoridade Nacional do Medicamento e Produtos de Saúde, I.P. (600037002)","BCD TRAVEL PORTUGAL – Agência de Viagens, Lda. (500291110)","1.732,82 €",21-02-2011,14-02-2011,2 dias,"Portugal, Lisboa, Lisboa","Artigo 27.º, n.º 1, alínea h) do Código dos Contratos Públicos",,,,,,Não aplicável.,Não aplicável.,
Deslocação em serviço a londres; QWR ; 1 Participante.,Ajuste Direto Regime Geral,Aquisição de serviços,"63510000-7, Serviços de agências de viagens e serviços similares","INFARMED - Autoridade Nacional do Medicamento e Produtos de Saúde, I.P. (600037002)","RASO - Viagens e Turismo, S.A. (500886113)","954,45 €",21-02-2011,14-02-2011,5 dias,"Portugal, Lisboa, Lisboa","Artigo 27.º, n.º 1, alínea h) do Código dos Contratos Públicos",,,,,,Não aplicável.,Não aplicável.,
Deslocação em serviço a Londres; SWP; 1 Participante,Ajuste Direto Regime Geral,Aquisição de serviços,"63510000-7, Serviços de agências de viagens e serviços similares","INFARMED - Autoridade Nacional do Medicamento e Produtos de Saúde, I.P. (600037002)","RASO - Viagens e Turismo, S.A. (500886113)","687,78 €",18-02-2011,14-02-2011,3 dias,"Portugal, Lisboa, Lisboa","Artigo 27.º, n.º 1, alínea h) do Código dos Contratos Públicos",,,,,,Não aplicável.,Não aplicável.,
Deslocação em serviço a Estrasburgo; Participação Group of experts 7; 1 Participante.,Ajuste Direto Regime Geral,Aquisição de serviços,"63510000-7, Serviços de agências de viagens e serviços similares","INFARMED - Autoridade Nacional do Medicamento e Produtos de Saúde, I.P. (600037002)","RASO - Viagens e Turismo, S.A. (500886113)","689,30 €",18-02-2011,14-02-2011,4 dias,"Portugal, Lisboa, Lisboa","Artigo 27.º, n.º 1, alínea h) do Código dos Contratos Públicos",,,,,,Não aplicável.,Não aplicável.,
Deslocação em serviço a Londres Participação CFFG; 1 Participante.,Ajuste Direto Regime Geral,Aquisição de serviços,"63510000-7, Serviços de agências de viagens e serviços similares","INFARMED - Autoridade Nacional do Medicamento e Produtos de Saúde, I.P. (600037002)","RASO - Viagens e Turismo, S.A. (500886113)","621,39 €",18-02-2011,15-02-2011,3 dias,"Portugal, Lisboa, Lisboa","Artigo 27.º, n.º 1, alínea h) do Código dos Contratos Públicos",,,,,,Não aplicável.,Não aplicável.,
Deslocação em serviço a Luxemburgo; participação Workshop; 1 Participante.,Ajuste Direto Regime Geral,Aquisição de serviços,"63510000-7, Serviços de agências de viagens e serviços similares","INFARMED - Autoridade Nacional do Medicamento e Produtos de Saúde, I.P. (600037002)","OSIRIS - Viagens e Turismo, Lda. (505259397)","1.395,28 €",18-02-2011,14-02-2011,2 dias,"Portugal, Lisboa, Lisboa","Artigo 27.º, n.º 1, alínea h) do Código dos Contratos Públicos",,,,,,Não aplicável.,Não aplicável.,
Aquisição Licenciamento ORACLE.,Ajuste Direto Regime Geral,Aquisição de serviços,"50312310-1, Manutenção de equipamento para redes de dados","INFARMED - Autoridade Nacional do Medicamento e Produtos de Saúde, I.P. (600037002)","TIMESTAMP - Sistemas de Informação, S.A. (506360237)","297.508,00 €",17-02-2011,07-02-2011,365 dias,"Portugal, Lisboa, Lisboa","Artigo 27.º, n.º 1, alínea h) do Código dos Contratos Públicos",,,,,,Não aplicável.,Não aplicável.,
aquisição de Arca Congeladora para o Laboratorio.,Ajuste Direto Regime Geral,Aquisição de serviços,"39711121-3, Arcas frigoríficas","INFARMED - Autoridade Nacional do Medicamento e Produtos de Saúde, I.P. (600037002)","CONCESSUS, S.A. (500070040)","6.999,00 €",11-02-2011,11-02-2011,30 dias,"Portugal, Lisboa, Lisboa","Artigo 20.º, n.º 1, alínea a) do Código dos Contratos Públicos",,,,,,Não aplicável.,Não aplicável.,
Fornecimento e colocação de produtos (contentores) de recolha selectiva (e respectiva impressão do logótipo de INFARMED e do lettering) para o interior dos 4 edifícios do INFARMED,Ajuste Direto Regime Geral,Aquisição de serviços,"34928480-6, Contentores e baldes para lixo e resíduos","INFARMED - Autoridade Nacional do Medicamento e Produtos de Saúde, I.P. (600037002)","AROXAMBIENTE - Construções Metálicas, S.A. (507970993)","8.525,04 €",11-02-2011,11-02-2011,30 dias,"Portugal, Lisboa, Lisboa","Artigo 20.º, n.º 1, alínea a) do Código dos Contratos Públicos",,,,,,Não aplicável.,Não aplicável.,
