Objeto do Contrato,Tipo de Procedimento,Tipo(s) de Contrato,CPVs,Entidade(s) Adjudicante(s),Entidade(s) Adjudicatária(s),Preço Contratual,Data de Publicação,Data de Celebração do Contrato,Prazo de Execução,Local de Execução,Fundamentação,Data de Fecho do Contrato,Preço Total Efetivo,Causas das Alterações ao Prazo,Causas das Alterações ao Preço,Estado,N.º registo do Acordo Quadro,Descrição do Acordo Quadro,Procedimento Centralizado
MEIOS P/ REALIZAÇÃO ANÁL CLÍN. URINA (CARACT.GERAIS E SEDIMENTOS)_AQ_2R/01220/18 (1º ano  contrato),Ajuste Direto Regime Geral,Aquisição de bens móveis,"33696500-0, Reagentes de laboratório","Centro Hospitalar Tondela-Viseu, E. P. E. (509822940)","Beckman Coulter Portugal Unipessoal, Lda (509035167)","29.200,00 €",06-02-2019,30-11-2018,365 dias,"Portugal, Viseu, Viseu","Artigo 26.º, n.º 1, alínea e) do Código dos Contratos Públicos",,,,,,Não aplicável.,Não aplicável.,FALSE
AQUISIÇÃO DE AZACITIDINA 100MG INJ AMP,Ajuste Direto Regime Geral,Aquisição de bens móveis,"33600000-6, Produtos farmacêuticos","Centro Hospitalar Tondela-Viseu, E. P. E. (509822940)","CELGENE SOCIEDADE UNIP., LDA (507791690)","349.752,00 €",06-02-2019,17-01-2019,365 dias,"Portugal, Viseu, Viseu","Artigo 24.º, n.º 1, alínea e), subalínea iii) do Código dos Contratos Públicos",,,,,,Não aplicável.,Não aplicável.,FALSE
REAGENTES PARA ELETROFORESE,Ajuste Direto Regime Geral,Aquisição de bens móveis,"33696600-1, Reagentes para electroforese","Centro Hospitalar Tondela-Viseu, E. P. E. (509822940)","Thermo Fisher Diagnostics, Soc.Unip., Lda (506916243)","8.601,48 €",05-02-2019,07-12-2018,60 dias,"Portugal, Viseu, Viseu","Artigo 26.º, n.º 1, alínea a) do Código dos Contratos Públicos",,,,,,Não aplicável.,Não aplicável.,FALSE
SERVIÇOS DE SEGURANÇA (JANEIRO/2019),Ajuste Direto Regime Geral,Aquisição de serviços,"79710000-4, Serviços de segurança","Centro Hospitalar Tondela-Viseu, E. P. E. (509822940)","COMANSEGUR-SEGURANÇA PRIVADA, SA (503586579)","46.912,29 €",05-02-2019,28-12-2018,31 dias,"Portugal, Viseu, Viseu","Artigo 24.º, n.º 1, alínea c) do Código dos Contratos Públicos",,,,,,Não aplicável.,Não aplicável.,FALSE
KIT (PACK) PARA CIRURGIA DA CATARATA COM CASSETE INCLUIDA,Ajuste Direto Regime Geral,Aquisição de bens móveis,"33141620-2, Kits médicos","Centro Hospitalar Tondela-Viseu, E. P. E. (509822940)",ALCON PORTUGAL-PROD.EQUIP.OFTL (501251685),"40.800,00 €",04-02-2019,24-10-2018,90 dias,"Portugal, Viseu, Viseu","Artigo 24.º, n.º 1, alínea e), subalínea ii) do Código dos Contratos Públicos",,,,,,Não aplicável.,Não aplicável.,FALSE
VEDOLIZUMAB 300MG INJ,Ajuste Direto Regime Geral,Aquisição de bens móveis,"33600000-6, Produtos farmacêuticos","Centro Hospitalar Tondela-Viseu, E. P. E. (509822940)",TAKEDA - FARMACÊUTICOS PORTUGAL LDA (502801204),"307.024,00 €",01-02-2019,24-01-2019,360 dias,"Portugal, Viseu, Viseu","Artigo 24.º, n.º 1, alínea e), subalínea iii) do Código dos Contratos Públicos",,,,,,Não aplicável.,Não aplicável.,FALSE
FORNEC.DIV.PROT.ORTOP.-PROTESE TOTAL ANCA CERÂMICA(AQ00034/16),Ajuste Direto Regime Geral,Aquisição de bens móveis,"33183200-8, Próteses ortopédicas","Centro Hospitalar Tondela-Viseu, E. P. E. (509822940)","STRYKER PORTUGAL PRODUTOS MÉDICOS, LDA. (504594214)","15.000,00 €",31-01-2019,15-11-2018,365 dias,"Portugal, Viseu, Viseu",Artigo 258.º do Código dos Contratos Públicos,,,,,,Não aplicável.,Não aplicável.,FALSE
FORN.DIV.PROT.ORTOPEDICAS-PROTESE ANCA NÃO CIMENTADA REVISÃO(AQ00034/16),Ajuste Direto Regime Geral,Aquisição de bens móveis,"33183200-8, Próteses ortopédicas","Centro Hospitalar Tondela-Viseu, E. P. E. (509822940)","LIMA IMPLANTES PORTUGAL s.u., LDA (508634784)","69.000,00 €",31-01-2019,03-09-2018,365 dias,"Portugal, Viseu, Viseu",Artigo 258.º do Código dos Contratos Públicos,,,,,,Não aplicável.,Não aplicável.,FALSE
DIVERSO MATERIAL CLINICO - PROTESE DO UMERO,Ajuste Direto Regime Geral,Aquisição de bens móveis,"33183200-8, Próteses ortopédicas","Centro Hospitalar Tondela-Viseu, E. P. E. (509822940)","LIMA IMPLANTES PORTUGAL s.u., LDA (508634784)","16.930,00 €",31-01-2019,29-06-2018,365 dias,"Portugal, Viseu, Viseu","Artigo 20.º, n.º 1, alínea d) do Código dos Contratos Públicos",,,,,,Não aplicável.,Não aplicável.,FALSE
DIVERSO MATERIAL CLINICO-PROTESE TOTAL UMERO INVERTIDO E ANATÓMICA (SNDC),Ajuste Direto Regime Geral,Aquisição de bens móveis,"33183200-8, Próteses ortopédicas","Centro Hospitalar Tondela-Viseu, E. P. E. (509822940)","LIMA IMPLANTES PORTUGAL s.u., LDA (508634784)","20.000,00 €",31-01-2019,15-11-2018,90 dias,"Portugal, Viseu, Viseu","Artigo 26.º, n.º 1, alínea a) do Código dos Contratos Públicos",,,,,,Não aplicável.,Não aplicável.,FALSE
