Objeto do Contrato,Tipo de Procedimento,Tipo(s) de Contrato,CPVs,Entidade(s) Adjudicante(s),Entidade(s) Adjudicatária(s),Preço Contratual,Data de Publicação,Data de Celebração do Contrato,Prazo de Execução,Local de Execução,Fundamentação,Data de Fecho do Contrato,Preço Total Efetivo,Causas das Alterações ao Prazo,Causas das Alterações ao Preço,Estado,N.º registo do Acordo Quadro,Descrição do Acordo Quadro,Procedimento Centralizado
Aquisição de serviços relativa aos ensaios de avaliação externa do Laboratório Regional de Saúde Pública de Braga da ARS Norte I.P.,Ajuste Direto Regime Geral,Aquisição de serviços,"72225000-8, Serviços de análise e avaliação em matéria de garantias da qualidade dos sistemas","Administração Regional de Saúde do Norte, I. P. (503135593)","LGC Standards, S.L.U. (B62362041)","3.855,00 €",19-05-2017,11-04-2017,220 dias,"Portugal, Braga, Braga","Artigo 20.º, n.º 1, alínea a) do Código dos Contratos Públicos",19-12-2017,"3.855,00 €",,"",,Não aplicável.,Não aplicável.,FALSE
Aquisição de serviços técnicos de psicologia para o CRI de Braga adstrito à DICAD - 35 horas semanais - Psicóloga Maria Cândida Martins de Castro Ribeiro,Ajuste Direto Regime Geral,Aquisição de serviços,"85140000-2, Serviços de saúde diversos","Administração Regional de Saúde do Norte, I. P. (503135593)",Maria Cândida Martins de Castro Ribeiro (215433580),"9.983,75 €",19-05-2017,19-04-2017,243 dias,"Portugal, Braga, Braga","Artigo 20.º, n.º 1, alínea a) do Código dos Contratos Públicos",31-12-2017,"9.474,38 €",,Numero de horas realizadas inferiores ao numero de horas contratadas,,Não aplicável.,Não aplicável.,FALSE
Aquisição de serviços médicos para várias UF'S adstritas ao ACES Douro Sul (40 horas semanais) - Dr.ª Ana Filipa Brás César Teixeira,Ajuste Direto Regime Geral,Aquisição de serviços,"85121000-3, Serviços de prática médica","Administração Regional de Saúde do Norte, I. P. (503135593)",Ana Filipa Brás César Teixeira (229198414),"36.800,00 €",19-05-2017,23-03-2017,279 dias,"Portugal, Distrito não determinado, Concelho não determinado","Artigo 20.º, n.º 1, alínea a) do Código dos Contratos Públicos",27-12-2017,"30.268,00 €",,Não foram executadas a totalidade das horas contratualizadas,,Não aplicável.,Não aplicável.,FALSE
Aquisição de serviços de transporte e mudanças para a ARS Norte - Processo 17000741,Ajuste Direto Regime Geral,Aquisição de serviços,"60100000-9, Serviços de transporte rodoviário","Administração Regional de Saúde do Norte, I. P. (503135593)","Joaquim Martins da Silva, Lda (501070001)","15.000,00 €",18-05-2017,27-03-2017,274 dias,"Portugal, Braga<BR/>Portugal, Porto<BR/>Portugal, Vila Real","Artigo 20.º, n.º 1, alínea a) do Código dos Contratos Públicos",29-12-2017,"14.057,33 €",,Não foram necessários a totalidade dos serviços contratualizados,,Não aplicável.,Não aplicável.,FALSE
Aquisição de serviços médicos com especialidade em Ginecologia/Obstetrícia para o Centro de Acolhimento de Braga - Programa Auto Estima (4h semanais) Procedimento n.º 131/2016/ARSN - Dr.ª Maria Judite de Macedo Sá Barros Sarmento Teixeira,Ajuste Direto Regime Geral,Aquisição de serviços,"85121210-8, Serviços de ginecologia ou obstetrícia","Administração Regional de Saúde do Norte, I. P. (503135593)",Maria Judite Sá Barros Sarmento Teixeira (143690582),"6.240,00 €",18-05-2017,20-01-2017,365 dias,"Portugal, Braga, Braga","Artigo 20.º, n.º 1, alínea a) do Código dos Contratos Públicos",21-12-2017,"5.280,00 €",,Não foram executadas a totalidade das horas contratualizadas,,Não aplicável.,Não aplicável.,FALSE
Aquisição de serviços de vigilância extraordinário  - Plano de Contingência da Gripe (APROV PRT 17000821) - ACES Gondomar; ACES Maia-Valongo; ACES Espinho-Gaia; ACES Santo Tirso - Trofa e ACES Aveiro Norte,Ajuste Direto Regime Geral,Aquisição de serviços,"79714000-2, Serviços de vigilância","Administração Regional de Saúde do Norte, I. P. (503135593)","Securitas - Serviços e Tecnologia de Segurança, S.A. (500243719)","3.976,86 €",17-05-2017,03-01-2017,30 dias,"Portugal, Distrito não determinado, Concelho não determinado","Artigo 24.º, n.º 1, alínea e) do Código dos Contratos Públicos",26-04-2017,"3.976,86 €",,"",,Não aplicável.,Não aplicável.,FALSE
Aquisição de serviços médicos com especialidade em MGF para o ACES Vale Sousa Sul - USF Nova Era /Sobreira (Procedimento n.º 25/2017) - Dr.ª Ana Catarina Duarte Marques e Silva (35 horas semanais),Ajuste Direto Regime Geral,Aquisição de serviços,"85121000-3, Serviços de prática médica","Administração Regional de Saúde do Norte, I. P. (503135593)",Ana Catarina Duarte Marques e Silva (244038503),"33.075,00 €",17-05-2017,28-04-2017,247 dias,"Portugal, Distrito não determinado, Concelho não determinado","Artigo 20.º, n.º 1, alínea a) do Código dos Contratos Públicos","","",,"",,Não aplicável.,Não aplicável.,FALSE
"AP 75 Aquisição 6.900 copos Copos esterilizados rampa filtração 100 ml; 1 Kit de Cafeína, 2.000 gr Perfringens Agar; 70 Unid. Lenticula Clostridium; 70 Lenticula Enterococcus; 70Lenticula Escherichia; 70 Lenticula Klebsiella; 10 Lentícula Legionella; 70 Lenticula Pseudomonas; 10 Lenticula Salmonella; 70 Lenticula Staphylococcus; 70 Lenticula Staphylococcus epidermidis; 10 Lentícula Bacillus; 1 Kit de glifosato; 10 Clostridium;4 Enterobacter; 4 PORTES",Ajuste Direto Regime Geral,Aquisição de bens móveis,"33600000-6, Produtos farmacêuticos","Administração Regional de Saúde do Norte,IP (ARSN) (503135593)","Type Solution, S.A.         (508400317)","12.393,56 €",17-05-2017,16-03-2017,270 dias,"Portugal, Porto, Maia<BR/>Portugal, Vila Real, Vila Real","Artigo 20.º, n.º 1, alínea a) do Código dos Contratos Públicos",30-11-2017,"12.313,56 €",,O fornecedor não aplicou o valor dos portes,,Não aplicável.,Não aplicável.,FALSE
"AP 1010 - Aquisição de 90 unid Agente crioterapêutico, aerossol (60aplic 2 mm) spray e 70 ampolas de Etomidato 2 mg/ml Emul inj Fr 10 ml IV",Ajuste Direto Regime Geral,Aquisição de bens móveis,"33140000-3, Material médico de consumo","Administração Regional de Saúde do Norte,IP (ARSN) (503135593)","B Braun Medical, Lda (501506543)","5.184,20 €",17-05-2017,17-05-2017,240 dias,"Portugal, Vila Real, Vila Real<BR/>Portugal, Porto, Maia","Artigo 24.º, n.º 1, alínea e) do Código dos Contratos Públicos",28-09-2017,"5.184,20 €",,"",,Não aplicável.,Não aplicável.,FALSE
AP 18 Aquisição de 2.016 Unidades Penso absorvente anatómico feminino extra,Concurso público,Aquisição de bens móveis,"33140000-3, Material médico de consumo","Administração Regional de Saúde do Norte, I. P. (503135593)",SERVISAN PRODUTOS HIGIENE SA         (500246530),"129,02 €",17-05-2017,16-05-2017,210 dias,"Portugal, Porto, Maia<BR/>Portugal, Vila Real, Vila Real",Artigo 155.º do Código dos Contratos Públicos,10-11-2017,"129,02 €",,"",,Não aplicável.,Não aplicável.,FALSE
AP 18 Aquisição de 97.200 unidades Espátula de plástico,Concurso público,Aquisição de bens móveis,"33140000-3, Material médico de consumo","Administração Regional de Saúde do Norte, I. P. (503135593)",BASTOS VIEGAS S A - BESLEASING E FACTORING           (500042772),"2.041,20 €",17-05-2017,16-05-2017,210 dias,"Portugal, Porto, Porto<BR/>Portugal, Vila Real, Vila Real",Artigo 155.º do Código dos Contratos Públicos,26-10-2017,"2.041,20 €",,"",,Não aplicável.,Não aplicável.,FALSE
AP 18 Aquisição de 10 unidades Estadiómetro portátil; 120 Unidades Pera de borracha completa para tensiometro,Concurso público,Aquisição de bens móveis,"33140000-3, Material médico de consumo","Administração Regional de Saúde do Norte, I. P. (503135593)",GRUPO VITALINO SA           (513083162),"276,00 €",17-05-2017,16-05-2017,210 dias,"Portugal, Vila Real, Vila Real<BR/>Portugal, Porto, Maia",Artigo 155.º do Código dos Contratos Públicos,19-09-2017,"276,00 €",,"",,Não aplicável.,Não aplicável.,FALSE
AP 18 Aquisição de 20 unidades Cápsula inox diâmetro 6 cm,Concurso público,Aquisição de bens móveis,"33140000-3, Material médico de consumo","Administração Regional de Saúde do Norte, I. P. (503135593)","EPJMEDICA -  ARTIGOS MEDICOS E  HOSPITALARES,LDA (506820513)","25,00 €",17-05-2017,16-05-2017,210 dias,"Portugal, Vila Real, Vila Real<BR/>Portugal, Porto, Maia",Artigo 155.º do Código dos Contratos Públicos,18-09-2017,"25,00 €",,"",,Não aplicável.,Não aplicável.,FALSE
AP 18 Aquisição de 50.000  unidades Escova p/ colpocitologia esterilizada (Cervex),Concurso público,Aquisição de bens móveis,"33140000-3, Material médico de consumo","Administração Regional de Saúde do Norte, I. P. (503135593)",ESTERIPLAS          (502020776),"4.850,00 €",17-05-2017,16-05-2017,210 dias,"Portugal, Vila Real, Vila Real<BR/>Portugal, Porto, Maia",Artigo 155.º do Código dos Contratos Públicos,07-11-2017,"4.850,00 €",,"",,Não aplicável.,Não aplicável.,FALSE
AP 18 Aquisição de 20 unidades Estetofonendoscópios; 110 unidades Garrote C/Blocagem Automática,Concurso público,Aquisição de bens móveis,"33140000-3, Material médico de consumo","Administração Regional de Saúde do Norte, I. P. (503135593)","BRAMEDICAFISIO, PRODUTOS DE SAUDE, LDA             (508560152)","192,10 €",17-05-2017,16-05-2017,210 dias,"Portugal, Porto, Maia<BR/>Portugal, Vila Real, Vila Real",Artigo 155.º do Código dos Contratos Públicos,25-10-2017,"192,10 €",,"",,Não aplicável.,Não aplicável.,FALSE
AP 18 Aquisição de 13.920 unidades Espéculo vaginal grande irrecuperável,Concurso público,Aquisição de bens móveis,"33140000-3, Material médico de consumo","Administração Regional de Saúde do Norte, I. P. (503135593)","SPECULUM - ARTIGOS MÉDICOS, LDA - BESLEASING E FACTORIN  (502996323)","2.018,40 €",17-05-2017,16-05-2017,210 dias,"Portugal, Vila Real, Vila Real<BR/>Portugal, Porto, Maia",Artigo 155.º do Código dos Contratos Públicos,25-10-2017,"2.018,40 €",,"",,Não aplicável.,Não aplicável.,FALSE
Aquisição de serviços técnicos de psicologia para o CRI de Braga adstrito à DICAD - 35 horas semanais - Psicóloga Natália Sofia Campos de Andrade,Ajuste Direto Regime Geral,Aquisição de serviços,"85140000-2, Serviços de saúde diversos","Administração Regional de Saúde do Norte, I. P. (503135593)",Natália Sofia Campos de Andrade (249920182),"9.983,75 €",16-05-2017,18-04-2017,244 dias,"Portugal, Braga, Braga","Artigo 20.º, n.º 1, alínea a) do Código dos Contratos Públicos",31-12-2017,"9.474,38 €",,Número de horas realizadas inferiores ao numero de horas contratadas,,Não aplicável.,Não aplicável.,FALSE
A.P. 343 APROV - VR 17000613 - Aquisição de Envelope D/L(220mmx110mm)Economato Geral-s/j tx pg,Ajuste Direto Regime Geral,Aquisição de bens móveis,"30192000-1, Material de escritório","Administração Regional de Saúde do Norte, I. P. (503135593)",PAPELMUNDE SOC MAT GRAFICO LD  (501555315),"3.100,00 €",11-05-2017,11-05-2017,365 dias,"Portugal, Vila Real, Vila Real<BR/>Portugal, Porto, Maia","Artigo 20.º, n.º 1, alínea a) do Código dos Contratos Públicos",18-12-2017,"3.100,00 €",,"",,Não aplicável.,Não aplicável.,FALSE
"Aquisição Equipamento Hoteleiro (frigorifico, arca congeladora, porta paletes) - APROV-PRT 17001387/8 (AP1038)",Ajuste Direto Regime Geral,Aquisição de bens móveis,"39000000-2, Mobiliário (incl. de escritório), acessórios, aparelhos domésticos (excl. iluminação) e produtos de limpeza","Administração Regional de Saúde do Norte, I. P. (503135593)",A. Oliveira Costa (123964849),"1.495,98 €",11-05-2017,10-05-2017,240 dias,"Portugal, Porto, Maia<BR/>Portugal, Distrito não determinado, Concelho não determinado<BR/>Portugal, Vila Real, Vila Real","Artigo 20.º, n.º 1, alínea a) do Código dos Contratos Públicos",23-05-2017,"1.495,98 €",,"",,Não aplicável.,Não aplicável.,FALSE
Aquisição 3 Colchões articulados (Unidade Desabituação do Norte - DICAD) - APROV-PRT 17001276 (AP949),Ajuste Direto Regime Geral,Aquisição de bens móveis,"33100000-1, Equipamento médico","Administração Regional de Saúde do Norte, I. P. (503135593)","FLEX2000-PRODUTOS FLEXIVEIS,SA (504663232)","192,00 €",11-05-2017,05-04-2017,270 dias,"Portugal, Porto, Matosinhos","Artigo 20.º, n.º 1, alínea a) do Código dos Contratos Públicos",16-05-2017,"192,00 €",,"",,Não aplicável.,Não aplicável.,FALSE
Aquisição de serviços médicos sem especialidade para SAP Resende adstrito ao ACES Baixo Tâmega - Dr.ª Maria Margarida Correia Marinho de Faria - 6h semanais,Ajuste Direto Regime Geral,Aquisição de serviços,"85121000-3, Serviços de prática médica","Administração Regional de Saúde do Norte, I. P. (503135593)",Maria Margarida Correia Marinho de Faria (139745289),"5.850,00 €",11-05-2017,11-04-2017,267 dias,"Portugal, Viseu, Resende","Artigo 20.º, n.º 1, alínea a) do Código dos Contratos Públicos","","",,"",,Não aplicável.,Não aplicável.,FALSE
Procedimento 30/2016/ACES Douro Sul/Serviços Médicos - Processo 17000121,Ajuste Direto Regime Geral,Aquisição de serviços,"85121000-3, Serviços de prática médica","Administração Regional de Saúde do Norte, I. P. (503135593)","Oleksandr Dotsenko Unipessoal, Lda. (235615463)","43.056,00 €",11-05-2017,15-02-2017,365 dias,"Portugal, Viseu, Moimenta da Beira","Artigo 20.º, n.º 1, alínea a) do Código dos Contratos Públicos",22-12-2017,"36.984,00 €",,Não foram executadas a totalidade das horas contratualizadas,,Não aplicável.,Não aplicável.,FALSE
AP 2670 - Aquisição de  3000 bisnagas de Heparinóide 3 mg/g creme 40 g,Ajuste Direto Regime Geral,Aquisição de bens móveis,"33600000-6, Produtos farmacêuticos","Administração Regional de Saúde do Norte, I. P. (503135593)","CICLUM FARMA UNIPESSOAL, LDA (504362674)","10.890,00 €",11-05-2017,09-02-2017,330 dias,"Portugal, Vila Real, Vila Real<BR/>Portugal, Porto, Maia","Artigo 20.º, n.º 1, alínea a) do Código dos Contratos Públicos",20-12-2017,"10.890,00 €",,"",,Não aplicável.,Não aplicável.,FALSE
