Objeto do Contrato,Tipo de Procedimento,Tipo(s) de Contrato,CPVs,Entidade(s) Adjudicante(s),Entidade(s) Adjudicatária(s),Preço Contratual,Data de Publicação,Data de Celebração do Contrato,Prazo de Execução,Local de Execução,Fundamentação,Data de Fecho do Contrato,Preço Total Efetivo,Causas das Alterações ao Prazo,Causas das Alterações ao Preço,Estado,N.º registo do Acordo Quadro,Descrição do Acordo Quadro,Procedimento Centralizado
Aquisição de medicamentos,Ajuste Direto Regime Geral,Aquisição de bens móveis,"33690000-3, Medicamentos vários","Hospital do Espírito Santo de Évora, E. P. E. (508085888)","GILEAD SCIENCES, LDA. (503604704)","51.257,43 €",21-03-2018,23-02-2018,365 dias,"Portugal, Évora, Évora","Artigo 24.º, n.º 1, alínea e), subalínea iii) do Código dos Contratos Públicos",,,,,,Não aplicável.,Não aplicável.,FALSE
Aquisição de medicamentos oncológicos,Ao abrigo de acordo-quadro (art.º 259.º),Aquisição de bens móveis,"33650000-1, Anti-infecciosos gerais de uso sistémico, vacinas, antineoplásicos e imunomoduladores","Hospital do Espírito Santo de Évora, E. P. E. (508085888)","ASTELLAS FARMA, LDA (502540249)","194.804,40 €",20-03-2018,05-02-2018,330 dias,"Portugal, Évora, Évora",Artigo 259.º do Código dos Contratos Públicos,,,,,,1771819,CP 2015/6 - Acordo quadro para o fornecimento de Medicamentos do Foro Oncológico,FALSE
MCDT's de Radiologia no Exterior,Concurso público,Aquisição de serviços,"85150000-5, Serviços de imagiologia médica","Hospital do Espírito Santo de Évora, EPE (508085888)","CRX Centro Radiodiagnóstico de Évora, Lda. (501706097)","75.503,09 €",19-03-2018,07-02-2018,300 dias,"Portugal, Évora, Évora","Artigo 20.º, n.º 1, alínea b) do Código dos Contratos Públicos",,,,,,Não aplicável.,Não aplicável.,FALSE
MCDT's de Radiologia no Exterior,Concurso público,Aquisição de serviços,"85150000-5, Serviços de imagiologia médica","Hospital do Espírito Santo de Évora, EPE (508085888)",CDI - CLINICA DIAGNOSTICO POR IMAGEM (502830654),"289.152,01 €",19-03-2018,07-02-2018,300 dias,"Portugal, Évora, Évora","Artigo 20.º, n.º 1, alínea b) do Código dos Contratos Públicos",,,,,,Não aplicável.,Não aplicável.,FALSE
Aquisição de medicamentos antirretrovíricos,Ao abrigo de acordo-quadro (art.º 259.º),Aquisição de bens móveis,"33600000-6, Produtos farmacêuticos","Hospital do Espírito Santo de Évora, E. P. E. (508085888)","ABBVIE, LDA (510229050), VIIVHIV HEALTHCARE UNIPESSOAL, LDA (509117961), UNILFARMA (500293023)","82.172,38 €",16-03-2018,24-01-2018,365 dias,"Portugal, Évora, Évora",Artigo 259.º do Código dos Contratos Públicos,,,,,,2183729,Medicamentos antirretrovíricos para o tratamento da infeção por VIH,FALSE
Aquisição de medicamentos do aparelho cardiovascular,Ao abrigo de acordo-quadro (art.º 259.º),Aquisição de bens móveis,"33690000-3, Medicamentos vários","Hospital do Espírito Santo de Évora, E. P. E. (508085888)","B. BRAUN MEDICAL, LDA (501506543), Overpharma - Prod. Medicos e Farmaceuticos Lda (505792362), Farmoz  - Sociedade Técnico Medicinal, SA (501505334), Labesfal Laboratorios Almiro SA (501169580), Hikma Farmacêutica (Portugal), SA. (502266791)","90.641,10 €",15-03-2018,21-02-2018,300 dias,"Portugal, Évora, Évora",Artigo 259.º do Código dos Contratos Públicos,,,,,,2335591,CP 2016/01 - Acordo Quadro para fornecimento de Medicamentos do Aparelho Cardiovascular   às Instituições e Serviços do Serviço Nacional de Saúde,FALSE
Aquisição de suturas cirúrgicas,Ao abrigo de acordo-quadro (art.º 259.º),Aquisição de bens móveis,"33140000-3, Material médico de consumo","Hospital do Espírito Santo de Évora, E. P. E. (508085888)","B. BRAUN MEDICAL, LDA (501506543)","8.487,72 €",13-03-2018,01-03-2018,365 dias,"Portugal, Évora, Évora",Artigo 259.º do Código dos Contratos Públicos,,,,,,1830807,Acordo quadro para fornecimento de Suturas Cirúrgicas - Parte I   às Instituições e Serviços do Serviço Nacional de Saúde,FALSE
Prestação de serviços de enfermagem,Ajuste Direto Regime Geral,Aquisição de serviços,"85100000-0, Serviços de saúde","Hospital do Espírito Santo de Évora, E. P. E. (508085888)",Ana Rita Bento Letras (222931817),"11.700,00 €",12-03-2018,17-01-2018,180 dias,"Portugal, Évora, Évora","Artigo 20.º, n.º 1, alínea a) do Código dos Contratos Públicos",,,,,,Não aplicável.,Não aplicável.,FALSE
Prestação de serviços de enfermagem,Ajuste Direto Regime Geral,Aquisição de serviços,"85100000-0, Serviços de saúde","Hospital do Espírito Santo de Évora, E. P. E. (508085888)",Ana Rita Coelho Silva (238652335),"11.700,00 €",12-03-2018,17-01-2018,180 dias,"Portugal, Évora, Évora","Artigo 20.º, n.º 1, alínea a) do Código dos Contratos Públicos",,,,,,Não aplicável.,Não aplicável.,FALSE
Prestação de serviços de enfermagem,Ajuste Direto Regime Geral,Aquisição de serviços,"85100000-0, Serviços de saúde","Hospital do Espírito Santo de Évora, E. P. E. (508085888)",Ana Sofia Ferro Roque (231701292),"11.700,00 €",12-03-2018,17-01-2018,180 dias,"Portugal, Évora, Évora","Artigo 20.º, n.º 1, alínea a) do Código dos Contratos Públicos",,,,,,Não aplicável.,Não aplicável.,FALSE
Aquisição de medicamentos vários,Ao abrigo de acordo-quadro (art.º 259.º),Aquisição de bens móveis,"33690000-3, Medicamentos vários","Hospital do Espírito Santo de Évora, E. P. E. (508085888)","BIOGEN IDEC PORTUGAL - SOC. FARM. UNIPESSOAL, LDA. (506415740)","105.365,71 €",12-03-2018,18-12-2017,365 dias,"Portugal, Évora, Évora",Artigo 259.º do Código dos Contratos Públicos,,,,,,2124520,CP 2016/55 - Medicamentos Diversos,FALSE
