Objeto do Contrato,Tipo de Procedimento,Tipo(s) de Contrato,CPVs,Entidade(s) Adjudicante(s),Entidade(s) Adjudicatária(s),Preço Contratual,Data de Publicação,Data de Celebração do Contrato,Prazo de Execução,Local de Execução,Fundamentação,Data de Fecho do Contrato,Preço Total Efetivo,Causas das Alterações ao Prazo,Causas das Alterações ao Preço,Estado,N.º registo do Acordo Quadro,Descrição do Acordo Quadro,Procedimento Centralizado
Kit Determinação Carga Viral do HIV - Alergologia,Ajuste Direto Regime Geral,Aquisição de bens móveis,"33696500-0, Reagentes de laboratório",Centro Hospitalar de Setúbal E.P.E. (507606787),Roche Sistema Diagnostico (504282921),"4.416,00 €",11-03-2013,27-02-2013,8 dias,"Portugal, Setúbal, Setúbal","Artigo 24.º, n.º 1, alínea e) do Código dos Contratos Públicos",,,,,,Não aplicável.,Não aplicável.,
Sistemas Monoclonais - Populações Linfocitárias - 6 cores,Ajuste Direto Regime Geral,Aquisição de bens móveis,"33696500-0, Reagentes de laboratório",Centro Hospitalar de Setúbal E.P.E. (507606787),Enzifarma (503636975),"22.200,00 €",11-03-2013,20-02-2013,365 dias,"Portugal, Setúbal, Setúbal","Artigo 24.º, n.º 1, alínea e) do Código dos Contratos Públicos",,,,,,Não aplicável.,Não aplicável.,
Reagentes para Hematologia,Ajuste Direto Regime Geral,Aquisição de bens móveis,"33696500-0, Reagentes de laboratório",Centro Hospitalar de Setúbal E.P.E. (507606787),Bioportugal (502380543),"1.800,00 €",11-03-2013,08-02-2013,365 dias,"Portugal, Setúbal, Setúbal","Artigo 24.º, n.º 1, alínea e) do Código dos Contratos Públicos",,,,,,Não aplicável.,Não aplicável.,
Zaragatoa com meio transporte para isolamento de virus Adultos e Pediatricas,Ajuste Direto Regime Geral,Aquisição de bens móveis,"33696500-0, Reagentes de laboratório",Centro Hospitalar de Setúbal E.P.E. (507606787),Iberlab (503406694),"119,32 €",11-03-2013,08-02-2013,15 dias,"Portugal, Setúbal, Setúbal","Artigo 24.º, n.º 1, alínea e) do Código dos Contratos Públicos",,,,,,Não aplicável.,Não aplicável.,
Controlo de Electroforese Hemoglobinas - Hematologia,Ajuste Direto Regime Geral,Aquisição de bens móveis,"33696500-0, Reagentes de laboratório",Centro Hospitalar de Setúbal E.P.E. (507606787),Batista Marques (501439110),"540,00 €",11-03-2013,08-02-2013,365 dias,"Portugal, Setúbal, Setúbal","Artigo 24.º, n.º 1, alínea e) do Código dos Contratos Públicos",,,,,,Não aplicável.,Não aplicável.,
Reagentes para Microbiologia,Ajuste Direto Regime Geral,Aquisição de bens móveis,"33696500-0, Reagentes de laboratório",Centro Hospitalar de Setúbal E.P.E. (507606787),Izasa Portugal (501086110),"3.501,52 €",11-03-2013,23-01-2013,365 dias,"Portugal, Setúbal, Setúbal","Artigo 24.º, n.º 1, alínea e) do Código dos Contratos Públicos",,,,,,Não aplicável.,Não aplicável.,
Avaliação Externa da Qualidade - Imunologia,Ajuste Direto Regime Geral,Aquisição de bens móveis,"33696500-0, Reagentes de laboratório",Centro Hospitalar de Setúbal E.P.E. (507606787),"Biognóstica (504441256), Irlandox (502515619)","1.558,00 €",11-03-2013,31-01-2013,365 dias,"Portugal, Setúbal, Setúbal","Artigo 24.º, n.º 1, alínea e) do Código dos Contratos Públicos",,,,,,Não aplicável.,Não aplicável.,
Reagentes Vários de Autoimunidade - Imunologia,Ajuste Direto Regime Geral,Aquisição de bens móveis,"33696500-0, Reagentes de laboratório",Centro Hospitalar de Setúbal E.P.E. (507606787),Isoder (502241594),"1.145,10 €",11-03-2013,31-01-2013,365 dias,"Portugal, Setúbal, Setúbal","Artigo 24.º, n.º 1, alínea e) do Código dos Contratos Públicos",,,,,,Não aplicável.,Não aplicável.,
Teste Rápido para Helicobacter Pylori - Gastro,Ajuste Direto Regime Geral,Aquisição de bens móveis,"33696500-0, Reagentes de laboratório",Centro Hospitalar de Setúbal E.P.E. (507606787),Laboratório Medinfar (501197052),"750,00 €",11-03-2013,23-01-2013,365 dias,"Portugal, Setúbal, Setúbal","Artigo 24.º, n.º 1, alínea e) do Código dos Contratos Públicos",,,,,,Não aplicável.,Não aplicável.,
Hematoxilina Harris,Ajuste Direto Regime Geral,Aquisição de bens móveis,"33696500-0, Reagentes de laboratório",Centro Hospitalar de Setúbal E.P.E. (507606787),Inopat SA (503294420),"310,00 €",11-03-2013,22-01-2013,15 dias,"Portugal, Setúbal, Setúbal","Artigo 24.º, n.º 1, alínea e) do Código dos Contratos Públicos",,,,,,Não aplicável.,Não aplicável.,
Reagentes de Infecciologia - Imunologia,Ajuste Direto Regime Geral,Aquisição de bens móveis,"33696500-0, Reagentes de laboratório",Centro Hospitalar de Setúbal E.P.E. (507606787),"Diasorin Iberia (980379563), Biomerieux Portuguesa Lda (501524177)","69.919,40 €",08-03-2013,09-01-2013,365 dias,"Portugal, Setúbal, Setúbal","Artigo 24.º, n.º 1, alínea e) do Código dos Contratos Públicos",,,,,,Não aplicável.,Não aplicável.,
Reagentes de Autoimunidade e Hemoglobina A1c - Imunologia,Ajuste Direto Regime Geral,Aquisição de bens móveis,"33696500-0, Reagentes de laboratório",Centro Hospitalar de Setúbal E.P.E. (507606787),"Isoder (502241594), Izasa Portugal (501086110), Bio-Rad (501301321)","42.777,41 €",08-03-2013,23-01-2013,365 dias,"Portugal, Setúbal, Setúbal","Artigo 24.º, n.º 1, alínea e) do Código dos Contratos Públicos",,,,,,Não aplicável.,Não aplicável.,
"Reagentes de Autoimunidade, Tecnologia EIA e Imunofixação - Imunologia",Ajuste Direto Regime Geral,Aquisição de bens móveis,"33696500-0, Reagentes de laboratório",Centro Hospitalar de Setúbal E.P.E. (507606787),Phadia - Sociedade Unipessoal (506916243),"67.289,82 €",08-03-2013,23-01-2013,365 dias,"Portugal, Setúbal, Setúbal","Artigo 24.º, n.º 1, alínea e) do Código dos Contratos Públicos",,,,,,Não aplicável.,Não aplicável.,
Reagentes para Bacteriologia - Corantes e Reagentes,Ajuste Direto Regime Geral,Aquisição de bens móveis,"33696500-0, Reagentes de laboratório",Centro Hospitalar de Setúbal E.P.E. (507606787),"Vidrolab 2 (501450629), Quilaban (500399670), Fisher Scientific Lda (506429210), Iberlab&Iberlab (503406694)","23.682,72 €",08-03-2013,23-01-2013,365 dias,"Portugal, Setúbal, Setúbal","Artigo 24.º, n.º 1, alínea e) do Código dos Contratos Públicos",,,,,,Não aplicável.,Não aplicável.,
Células para Hemoterapia,Ajuste Direto Regime Geral,Aquisição de bens móveis,"33696500-0, Reagentes de laboratório",Centro Hospitalar de Setúbal E.P.E. (507606787),Diamed Portuguesa Diagnostica S.A. (501675809),"4.265,83 €",08-03-2013,02-01-2013,365 dias,"Portugal, Setúbal, Setúbal","Artigo 24.º, n.º 1, alínea e) do Código dos Contratos Públicos",,,,,,Não aplicável.,Não aplicável.,
Determinações para Hemoterapia,Ajuste Direto Regime Geral,Aquisição de bens móveis,"33696500-0, Reagentes de laboratório",Centro Hospitalar de Setúbal E.P.E. (507606787),Bio-Rad Laboratories Lda (501301321),"9.302,98 €",08-03-2013,19-12-2012,365 dias,"Portugal, Setúbal, Setúbal","Artigo 24.º, n.º 1, alínea e) do Código dos Contratos Públicos",,,,,,Não aplicável.,Não aplicável.,
Reagentes para Execução de Sedimentos Urinários - Bioquimica,Ajuste Direto Regime Geral,Aquisição de bens móveis,"33696500-0, Reagentes de laboratório",Centro Hospitalar de Setúbal E.P.E. (507606787),Menarini Diagnosticos (502610069),"25.200,00 €",08-03-2013,02-01-2013,365 dias,"Portugal, Setúbal, Setúbal","Artigo 24.º, n.º 1, alínea e) do Código dos Contratos Públicos",,,,,,Não aplicável.,Não aplicável.,
Reagentes para Aparelho de Hematologia,Ajuste Direto Regime Geral,Aquisição de bens móveis,"33696500-0, Reagentes de laboratório",Centro Hospitalar de Setúbal E.P.E. (507606787),Izasa Portugal Lda (501086110),"67.553,00 €",08-03-2013,09-01-2013,365 dias,"Portugal, Setúbal, Setúbal","Artigo 24.º, n.º 1, alínea e) do Código dos Contratos Públicos",,,,,,Não aplicável.,Não aplicável.,
Hemograma para Contador de Células Hematológicas - Outão,Ajuste Direto Regime Geral,Aquisição de bens móveis,"33696500-0, Reagentes de laboratório",Centro Hospitalar de Setúbal E.P.E. (507606787),Abbott Laboratórios (500006148),"13.626,00 €",08-03-2013,02-01-2013,365 dias,"Portugal, Setúbal, Setúbal","Artigo 24.º, n.º 1, alínea e) do Código dos Contratos Públicos",,,,,,Não aplicável.,Não aplicável.,
Reagentes para Coagulómetria - Laboratório de Urgência,Ajuste Direto Regime Geral,Aquisição de bens móveis,"33696500-0, Reagentes de laboratório",Centro Hospitalar de Setúbal E.P.E. (507606787),Izasa Portugal (501086110),"67.033,43 €",08-03-2013,09-01-2013,365 dias,"Portugal, Setúbal, Setúbal","Artigo 24.º, n.º 1, alínea e) do Código dos Contratos Públicos",,,,,,Não aplicável.,Não aplicável.,
K-PE e Lambda PE - Hematologia,Ajuste Direto Regime Geral,Aquisição de bens móveis,"33696500-0, Reagentes de laboratório",Centro Hospitalar de Setúbal E.P.E. (507606787),"Lusopalex, Lda (503531588)","2.080,00 €",08-03-2013,09-01-2013,365 dias,"Portugal, Setúbal, Setúbal","Artigo 24.º, n.º 1, alínea e) do Código dos Contratos Públicos",,,,,,Não aplicável.,Não aplicável.,
Reagentes para tratamento de Água da Hemodialise,Ajuste Direto Regime Geral,Aquisição de bens móveis,"33696500-0, Reagentes de laboratório",Centro Hospitalar de Setúbal E.P.E. (507606787),"Fresenius Medical care (503070220), VWR Internacional (503842770)","636,43 €",08-03-2013,17-01-2013,365 dias,"Portugal, Setúbal, Setúbal","Artigo 24.º, n.º 1, alínea e) do Código dos Contratos Públicos",,,,,,Não aplicável.,Não aplicável.,
Reagentes de Imunologia - Fertilidade e Marcadores Tumorais,Ajuste Direto Regime Geral,Aquisição de bens móveis,"33696500-0, Reagentes de laboratório",Centro Hospitalar de Setúbal E.P.E. (507606787),"Roche Sistemas Diagnostico,Lda (504282921)","26.943,04 €",08-03-2013,09-01-2013,365 dias,"Portugal, Setúbal, Setúbal","Artigo 24.º, n.º 1, alínea e) do Código dos Contratos Públicos",,,,,,Não aplicável.,Não aplicável.,
Cadeias Leve e Subclasses - Imunologia,Ajuste Direto Regime Geral,Aquisição de bens móveis,"33696500-0, Reagentes de laboratório",Centro Hospitalar de Setúbal E.P.E. (507606787),Batista Marques (501439110),"43.992,00 €",08-03-2013,09-01-2013,365 dias,"Portugal, Setúbal, Setúbal","Artigo 24.º, n.º 1, alínea e) do Código dos Contratos Públicos",,,,,,Não aplicável.,Não aplicável.,
Controlos de Qualidade Externo para Imunologia,Ajuste Direto Regime Geral,Aquisição de bens móveis,"33696500-0, Reagentes de laboratório",Centro Hospitalar de Setúbal E.P.E. (507606787),Biognóstica (504441256),"13.418,00 €",08-03-2013,09-01-2013,365 dias,"Portugal, Setúbal, Setúbal","Artigo 24.º, n.º 1, alínea e) do Código dos Contratos Públicos",,,,,,Não aplicável.,Não aplicável.,
Reagentes para Técnica de Quimioluminiscência - Imunologia,Ajuste Direto Regime Geral,Aquisição de bens móveis,"33696500-0, Reagentes de laboratório",Centro Hospitalar de Setúbal E.P.E. (507606787),"Abbott Laboratorios, Lda (500006148)","193.536,50 €",08-03-2013,09-01-2013,365 dias,"Portugal, Setúbal, Setúbal","Artigo 24.º, n.º 1, alínea e) do Código dos Contratos Públicos",,,,,,Não aplicável.,Não aplicável.,
Kit´s para Genotipagem do HCV e Controlo de Qualidade - Alergologia,Ajuste Direto Regime Geral,Aquisição de bens móveis,"33696500-0, Reagentes de laboratório",Centro Hospitalar de Setúbal E.P.E. (507606787),Siemens Healthcare Diagnostics (507925173),"22.000,00 €",08-03-2013,08-03-2013,365 dias,"Portugal, Setúbal, Setúbal","Artigo 24.º, n.º 1, alínea e) do Código dos Contratos Públicos",,,,,,Não aplicável.,Não aplicável.,
Kit´s para Genotipagem do HCV e Controlo de Qualidade - Alergologia,Ajuste Direto Regime Geral,Aquisição de bens móveis,"33696500-0, Reagentes de laboratório",Centro Hospitalar de Setúbal E.P.E. (507606787),Roche Sistema Diagnostica (504282921),"901,82 €",08-03-2013,08-03-2013,365 dias,"Portugal, Setúbal, Setúbal","Artigo 24.º, n.º 1, alínea e) do Código dos Contratos Públicos",,,,,,Não aplicável.,Não aplicável.,
Kit´s para Genotipagem do HCV e Controlo de Qualidade - Alergologia,Ajuste Direto Regime Geral,Aquisição de bens móveis,"33696500-0, Reagentes de laboratório",Centro Hospitalar de Setúbal E.P.E. (507606787),Bioportugal (502380543),"700,00 €",08-03-2013,08-03-2013,365 dias,"Portugal, Setúbal, Setúbal","Artigo 24.º, n.º 1, alínea e) do Código dos Contratos Públicos",,,,,,Não aplicável.,Não aplicável.,
Kit Pesquisa HLA B.27 com Esferas Calibração - Alergologia,Ajuste Direto Regime Geral,Aquisição de bens móveis,"33696500-0, Reagentes de laboratório",Centro Hospitalar de Setúbal E.P.E. (507606787),Enzifarma (503636975),"673,50 €",06-03-2013,05-03-2013,15 dias,"Portugal, Setúbal, Setúbal","Artigo 24.º, n.º 1, alínea e) do Código dos Contratos Públicos",,,,,,Não aplicável.,Não aplicável.,
Kit Detecção de Vírus - Alergologia,Ajuste Direto Regime Geral,Aquisição de bens móveis,"33696500-0, Reagentes de laboratório",Centro Hospitalar de Setúbal E.P.E. (507606787),Biomerieux (501524177),"31.968,00 €",04-03-2013,17-01-2013,365 dias,"Portugal, Setúbal, Setúbal","Artigo 20.º, n.º 1, alínea a) do Código dos Contratos Públicos",,,,,,Não aplicável.,Não aplicável.,
Reagentes para Nefelómetria - Imunologia,Ajuste Direto Regime Geral,Aquisição de bens móveis,"33696500-0, Reagentes de laboratório",Centro Hospitalar de Setúbal E.P.E. (507606787),Siemens Healthcare Diagnostics (507925173),"78.988,54 €",04-03-2013,02-01-2013,365 dias,"Portugal, Setúbal, Setúbal","Artigo 24.º, n.º 1, alínea e) do Código dos Contratos Públicos",,,,,,Não aplicável.,Não aplicável.,
