Objeto do Contrato,Tipo de Procedimento,Tipo(s) de Contrato,CPVs,Entidade(s) Adjudicante(s),Entidade(s) Adjudicatária(s),Preço Contratual,Data de Publicação,Data de Celebração do Contrato,Prazo de Execução,Local de Execução,Fundamentação,Data de Fecho do Contrato,Preço Total Efetivo,Causas das Alterações ao Prazo,Causas das Alterações ao Preço,Estado,N.º registo do Acordo Quadro,Descrição do Acordo Quadro,Procedimento Centralizado
Fornecimento de Combustíveis,Concurso público,Aquisição de bens móveis,"09100000-0, Combustíveis","Administração Regional de Saúde do Algarve, I. P. (503148709)","Petróleos de Portugal - Petrogal, SA (500697370)","147.235,52 €",20-04-2018,22-02-2018,334 dias,"Portugal, Faro, Faro","Artigo 20.º, n.º 1, alínea b) do Código dos Contratos Públicos","","","","",,Não aplicável.,Não aplicável.,TRUE
Manutenção Corretiva e Evolutiva do Software Medicineone,Ajuste Direto Regime Geral,Aquisição de serviços,"72261000-2, Serviços de assistência em matéria de software","Administração Regional de Saúde do Algarve, I. P. (503148709)",MedicineOne Life Sciences Computing S.A. (504799541),"11.500,00 €",18-04-2018,09-04-2018,365 dias,"Portugal, Faro, Faro","Artigo 24.º, n.º 1, alínea e), subalínea ii) do Código dos Contratos Públicos",31-12-2018,"11.500,00 €","","",,Não aplicável.,Não aplicável.,FALSE
Manutenção e Evolutiva e Corretiva do Software,Ajuste Direto Regime Geral,Aquisição de serviços,"72261000-2, Serviços de assistência em matéria de software","Administração Regional de Saúde do Algarve, I. P. (503148709)","Serviços Técnicos de Informática, Uni-pessoal, LDa (502246995)","12.000,00 €",18-04-2018,09-04-2018,365 dias,"Portugal, Faro, Faro","Artigo 24.º, n.º 1, alínea e), subalínea ii) do Código dos Contratos Públicos",31-12-2018,"12.000,00 €","","",,Não aplicável.,Não aplicável.,FALSE
SC/140/2018 - Aquisição de Lidocaína,Ao abrigo de acordo-quadro (art.º 259.º),Aquisição de bens móveis,"33661000-1, Medicamentos para o sistema nervoso","Administração Regional de Saúde do Algarve, I. P. (503148709)","Labesfal - Laboratórios Almiro, S.A. (501169580)","364,50 €",18-04-2018,18-04-2018,250 dias,"Portugal, Faro, Faro",Artigo 259.º do Código dos Contratos Públicos,"","","","",,2211341,Medicamentos anestésicos e relaxantes musculares,FALSE
AM 87/2018 - Aquisição de reagentes para pesquisa de BK,Ajuste Direto Regime Geral,Aquisição de bens móveis,"33696500-0, Reagentes de laboratório","Administração Regional de Saúde do Algarve, I. P. (503148709)","Quilaban - Quimica Laboratorial Analitica, SA (500399670)","51.180,98 €",16-04-2018,16-04-2018,259 dias,"Portugal, Faro, Faro","Artigo 24.º, n.º 1, alínea e), subalínea iii) do Código dos Contratos Públicos","","","","",,Não aplicável.,Não aplicável.,FALSE
Aquisição de Papel de Fotocópia,Ao abrigo de acordo-quadro (art.º 259.º),Aquisição de bens móveis,"30199000-0, Artigos de papelaria e outros artigos de papel","Administração Regional de Saúde do Algarve, I. P. (503148709)","Max One - Material de Escritório, Lda (507052609)","21.966,52 €",12-04-2018,23-03-2018,283 dias,"Portugal, Faro, Faro",Artigo 259.º do Código dos Contratos Públicos,31-12-2018,"20.943,20 €",...,Quantidades não foram todas satisfeitas,,1351201,Acordo quadro de fornecimento de papel e economato,FALSE
SC/120/2018 - Aquisição de Medicamentos Gerais CPA502017,Ao abrigo de acordo-quadro (art.º 259.º),Aquisição de bens móveis,"33600000-6, Produtos farmacêuticos","Administração Regional de Saúde do Algarve, I. P. (503148709)","B.Braun Medical, Lda. (501506543)","369,00 €",12-04-2018,12-04-2018,260 dias,"Portugal, Faro, Faro",Artigo 259.º do Código dos Contratos Públicos,12-11-2018,"307,50 €","",Quantidades encomendadas.,,2556987,"CP 2017/65 - Acordo Quadro para fornecimento de Medicamentos de Várias áreas Terapêuticas, às Instituições e Serviços do Serviço Nacional de Saúde",FALSE
