Objeto do Contrato,Tipo de Procedimento,Tipo(s) de Contrato,CPVs,Entidade(s) Adjudicante(s),Entidade(s) Adjudicatária(s),Preço Contratual,Data de Publicação,Data de Celebração do Contrato,Prazo de Execução,Local de Execução,Fundamentação,Data de Fecho do Contrato,Preço Total Efetivo,Causas das Alterações ao Prazo,Causas das Alterações ao Preço,Estado,N.º registo do Acordo Quadro,Descrição do Acordo Quadro,Procedimento Centralizado
Aquisição de Artigos Hoteleiros,Consulta Prévia,Aquisição de bens móveis,"33700000-7, Produtos para cuidados pessoais","Centro Hospitalar Cova da Beira, E. P. E. (506361659)","EZEQUIEL PANAO JORGE, LDA (501412727)","704,70 €",13-06-2018,21-05-2018,240 dias,"Portugal, Castelo Branco, Covilhã","Artigo 20.º, n.º 1, alínea c) do Código dos Contratos Públicos",,,,,,Não aplicável.,Não aplicável.,FALSE
Aquisição de Artigos Hoteleiros,Consulta Prévia,Aquisição de bens móveis,"33700000-7, Produtos para cuidados pessoais","Centro Hospitalar Cova da Beira, E. P. E. (506361659)","VISIPAPEL - PAPEL E CARTÃO, LDA (502020733)","2.164,00 €",13-06-2018,21-05-2018,240 dias,"Portugal, Castelo Branco, Covilhã","Artigo 20.º, n.º 1, alínea c) do Código dos Contratos Públicos",,,,,,Não aplicável.,Não aplicável.,FALSE
Aquisição de Artigos Hoteleiros,Consulta Prévia,Aquisição de bens móveis,"33700000-7, Produtos para cuidados pessoais","Centro Hospitalar Cova da Beira, E. P. E. (506361659)","MEILEX, LDA (501759441)","14.784,00 €",13-06-2018,18-05-2018,240 dias,"Portugal, Castelo Branco, Covilhã","Artigo 20.º, n.º 1, alínea c) do Código dos Contratos Públicos",,,,,,Não aplicável.,Não aplicável.,FALSE
Aquisição de Artigos Hoteleiros,Consulta Prévia,Aquisição de bens móveis,"33700000-7, Produtos para cuidados pessoais","Centro Hospitalar Cova da Beira, E. P. E. (506361659)","Servisan - Produtos de Higiéne, SA  (500246530)","3.145,20 €",13-06-2018,16-05-2018,240 dias,"Portugal, Castelo Branco, Covilhã","Artigo 20.º, n.º 1, alínea c) do Código dos Contratos Públicos",,,,,,Não aplicável.,Não aplicável.,FALSE
"Aquisição de Medicamentos do Foro Oncológico, ao abrigo do CP 2015/6",Ao abrigo de acordo-quadro (art.º 259.º),Aquisição de bens móveis,"33600000-6, Produtos farmacêuticos","Centro Hospitalar Cova da Beira, E. P. E. (506361659)","Laboratórios Pfizer, Lda. (500162166)","393,04 €",11-06-2018,16-05-2018,220 dias,"Portugal, Castelo Branco, Covilhã",Artigo 259.º do Código dos Contratos Públicos,,,,,,1771819,CP 2015/6 - Acordo quadro para o fornecimento de Medicamentos do Foro Oncológico,FALSE
"Aquisição de Medicamentos do Foro Oncológico, ao abrigo do CP 2015/6",Ao abrigo de acordo-quadro (art.º 259.º),Aquisição de bens móveis,"33600000-6, Produtos farmacêuticos","Centro Hospitalar Cova da Beira, E. P. E. (506361659)",Bayer Portugal (147086922),"42.302,40 €",11-06-2018,18-05-2018,243 dias,"Portugal, Castelo Branco, Covilhã",Artigo 259.º do Código dos Contratos Públicos,,,,,,1771819,CP 2015/6 - Acordo quadro para o fornecimento de Medicamentos do Foro Oncológico,FALSE
"Aquisição de Medicamentos do Foro Oncológico, ao abrigo do CP 2015/6",Ao abrigo de acordo-quadro (art.º 259.º),Aquisição de bens móveis,"33600000-6, Produtos farmacêuticos","Centro Hospitalar Cova da Beira, E. P. E. (506361659)"," Pfizer Biofarmacêutica, Lda. (513300376)","873,10 €",11-06-2018,16-05-2018,220 dias,"Portugal, Castelo Branco, Covilhã",Artigo 259.º do Código dos Contratos Públicos,,,,,,1771819,CP 2015/6 - Acordo quadro para o fornecimento de Medicamentos do Foro Oncológico,FALSE
"Aquisição de Medicamentos do Foro Oncológico, ao abrigo do CP 2015/6",Ao abrigo de acordo-quadro (art.º 259.º),Aquisição de bens móveis,"33600000-6, Produtos farmacêuticos","Centro Hospitalar Cova da Beira, E. P. E. (506361659)",Fresenius Kabi (504293753),"731,25 €",11-06-2018,15-05-2018,220 dias,"Portugal, Castelo Branco, Covilhã",Artigo 259.º do Código dos Contratos Públicos,,,,,,1771819,CP 2015/6 - Acordo quadro para o fornecimento de Medicamentos do Foro Oncológico,FALSE
"Aquisição de Medicamentos do Foro Oncológico, ao abrigo do CP 2015/6",Ao abrigo de acordo-quadro (art.º 259.º),Aquisição de bens móveis,"33600000-6, Produtos farmacêuticos","Centro Hospitalar Cova da Beira, E. P. E. (506361659)","Abbvie, Lda. (190409193)","10.469,79 €",11-06-2018,15-05-2018,220 dias,"Portugal, Castelo Branco, Covilhã",Artigo 259.º do Código dos Contratos Públicos,,,,,,1771819,CP 2015/6 - Acordo quadro para o fornecimento de Medicamentos do Foro Oncológico,FALSE
"Aquisição de Medicamentos do Foro Oncológico, ao abrigo do CP 2015/6",Ao abrigo de acordo-quadro (art.º 259.º),Aquisição de bens móveis,"33600000-6, Produtos farmacêuticos","Centro Hospitalar Cova da Beira, E. P. E. (506361659)","Roche Farmacêutica Química, Lda. (500233810)","69.226,90 €",11-06-2018,28-05-2018,220 dias,"Portugal, Castelo Branco, Covilhã",Artigo 259.º do Código dos Contratos Públicos,,,,,,1771819,CP 2015/6 - Acordo quadro para o fornecimento de Medicamentos do Foro Oncológico,FALSE
"Aquisição de Medicamentos do Foro Oncológico, ao abrigo do CP 2015/6",Ao abrigo de acordo-quadro (art.º 259.º),Aquisição de bens móveis,"33600000-6, Produtos farmacêuticos","Centro Hospitalar Cova da Beira, E. P. E. (506361659)","ASTRAZENECA PRODUTOS FARMACEUTICOS, LDA. (502942240)","1.977,90 €",11-06-2018,17-05-2018,220 dias,"Portugal, Castelo Branco, Covilhã",Artigo 259.º do Código dos Contratos Públicos,,,,,,1771819,CP 2015/6 - Acordo quadro para o fornecimento de Medicamentos do Foro Oncológico,FALSE
"Aquisição de Medicamentos do Foro Oncológico, ao abrigo do CP 2015/6",Ao abrigo de acordo-quadro (art.º 259.º),Aquisição de bens móveis,"33600000-6, Produtos farmacêuticos","Centro Hospitalar Cova da Beira, E. P. E. (506361659)","Accord Healthcare, Unipessoal, Lda. (508622263)","2.786,38 €",11-06-2018,17-05-2018,220 dias,"Portugal, Castelo Branco, Covilhã",Artigo 259.º do Código dos Contratos Públicos,,,,,,1771819,CP 2015/6 - Acordo quadro para o fornecimento de Medicamentos do Foro Oncológico,FALSE
"Aquisição de Medicamentos do Foro Oncológico, ao abrigo do CP 2015/6",Ao abrigo de acordo-quadro (art.º 259.º),Aquisição de bens móveis,"33600000-6, Produtos farmacêuticos","Centro Hospitalar Cova da Beira, E. P. E. (506361659)",Medac Sucursal em Portugal (980369959),"397,15 €",11-06-2018,15-05-2018,220 dias,"Portugal, Castelo Branco, Covilhã",Artigo 259.º do Código dos Contratos Públicos,,,,,,1771819,CP 2015/6 - Acordo quadro para o fornecimento de Medicamentos do Foro Oncológico,FALSE
"Aquisição de Medicamentos do Foro Oncológico, ao abrigo do CP 2015/6",Ao abrigo de acordo-quadro (art.º 259.º),Aquisição de bens móveis,"33600000-6, Produtos farmacêuticos","Centro Hospitalar Cova da Beira, E. P. E. (506361659)","Shire Pharmaceuticals Portugal, Lda. (509264662)","4.982,60 €",11-06-2018,18-05-2018,243 dias,"Portugal, Castelo Branco, Covilhã",Artigo 259.º do Código dos Contratos Públicos,,,,,,1771819,CP 2015/6 - Acordo quadro para o fornecimento de Medicamentos do Foro Oncológico,FALSE
Aquisição de Bombas Infusoras,Ajuste Direto Regime Geral,Aquisição de bens móveis,"33100000-1, Equipamento médico","Centro Hospitalar Cova da Beira, E. P. E. (506361659)","B. BRAUN MEDICAL, LDA. (501506543)","19.980,00 €",11-06-2018,17-05-2018,30 dias,"Portugal, Castelo Branco, Covilhã","Artigo 20.º, n.º 1, alínea a) do Código dos Contratos Públicos",,,,,,Não aplicável.,Não aplicável.,FALSE
Aquisição de Hardware para o Serviço de Sistemas e Tecnologias de Informação,Consulta Prévia,Aquisição de bens móveis,"30200000-1, Equipamento e material informático","Centro Hospitalar Cova da Beira, E. P. E. (506361659)","ITEN - SOLUTIONS - SISTEMA DE INFORMAÇÃO, SA (510728189)","4.977,23 €",11-06-2018,07-05-2018,1080 dias,"Portugal, Castelo Branco, Covilhã","Artigo 20.º, n.º 1, alínea c) do Código dos Contratos Públicos",,,,,,Não aplicável.,Não aplicável.,FALSE
