Objeto do Contrato,Tipo de Procedimento,Tipo(s) de Contrato,CPVs,Entidade(s) Adjudicante(s),Entidade(s) Adjudicatária(s),Preço Contratual,Data de Publicação,Data de Celebração do Contrato,Prazo de Execução,Local de Execução,Fundamentação,Data de Fecho do Contrato,Preço Total Efetivo,Causas das Alterações ao Prazo,Causas das Alterações ao Preço,Estado,N.º registo do Acordo Quadro,Descrição do Acordo Quadro,Procedimento Centralizado
Rep.Impressora térmica v 6,Ajuste Direto Regime Geral,Aquisição de serviços,"50000000-5, Serviços de reparação e manutenção","Instituto Português de Oncologia de Lisboa Francisco Gentil, E. P. E. (506361616)",RESOPRE-SOC.REVENDEDORA APARELHOS PRECISÃO (500231206),"690,00 €",06-02-2014,15-01-2014,10 dias,"Portugal, Lisboa, Lisboa","Artigo 20.º, n.º 1, alínea a) do Código dos Contratos Públicos",13-02-2014,"690,00 €",,,,Não aplicável.,Não aplicável.,FALSE
Rep. selector de moedas,Ajuste Direto Regime Geral,Aquisição de serviços,"50000000-5, Serviços de reparação e manutenção","Instituto Português de Oncologia de Lisboa Francisco Gentil, E. P. E. (506361616)",RESOPRE-SOC.REVENDEDORA APARELHOS PRECISÃO (500231206),"70,00 €",06-02-2014,15-01-2014,10 dias,"Portugal, Lisboa, Lisboa","Artigo 20.º, n.º 1, alínea a) do Código dos Contratos Públicos","","",,,,Não aplicável.,Não aplicável.,FALSE
Master  Pca  +,Ajuste Direto Regime Geral,Aquisição de serviços,"50000000-5, Serviços de reparação e manutenção","Instituto Português de Oncologia de Lisboa Francisco Gentil, E. P. E. (506361616)","FRESENIUS KABI PHARMA PORTUGAL, LDA (504293753)","196,89 €",06-02-2014,30-01-2014,10 dias,"Portugal, Lisboa, Lisboa","Artigo 20.º, n.º 1, alínea a) do Código dos Contratos Públicos",07-02-2014,"196,89 €",,,,Não aplicável.,Não aplicável.,FALSE
Reparação de ar condicionado de apoio,Ajuste Direto Regime Geral,Aquisição de serviços,"50000000-5, Serviços de reparação e manutenção","Instituto Português de Oncologia de Lisboa Francisco Gentil, E. P. E. (506361616)","PHILIPS PORTUGUESA, S.A (500216843)","803,00 €",06-02-2014,30-01-2014,10 dias,"Portugal, Lisboa, Lisboa","Artigo 20.º, n.º 1, alínea a) do Código dos Contratos Públicos",27-02-2014,"803,00 €",,,,Não aplicável.,Não aplicável.,FALSE
Rep. dermatono e bateria,Ajuste Direto Regime Geral,Aquisição de serviços,"50000000-5, Serviços de reparação e manutenção","Instituto Português de Oncologia de Lisboa Francisco Gentil, E. P. E. (506361616)",B BRAUN MEDICAL LDA (501506543),"1.740,90 €",05-02-2014,30-01-2014,10 dias,"Portugal, Lisboa, Lisboa","Artigo 20.º, n.º 1, alínea a) do Código dos Contratos Públicos",14-02-2014,"1.740,90 €",,,,Não aplicável.,Não aplicável.,FALSE
Reparação de óptica,Ajuste Direto Regime Geral,Aquisição de serviços,"50000000-5, Serviços de reparação e manutenção","Instituto Português de Oncologia de Lisboa Francisco Gentil, E. P. E. (506361616)","ANGOSAUDE-EQUIPAMENTOS SAUDE, SA (507016882)","700,00 €",05-02-2014,30-01-2014,10 dias,"Portugal, Lisboa, Lisboa","Artigo 20.º, n.º 1, alínea a) do Código dos Contratos Públicos",10-04-2014,"700,00 €",,,,Não aplicável.,Não aplicável.,FALSE
Reparação de óptica storz,Ajuste Direto Regime Geral,Aquisição de serviços,"50000000-5, Serviços de reparação e manutenção","Instituto Português de Oncologia de Lisboa Francisco Gentil, E. P. E. (506361616)","ANGOSAUDE-EQUIPAMENTOS SAUDE, SA (507016882)","700,00 €",05-02-2014,30-01-2014,10 dias,"Portugal, Lisboa, Lisboa","Artigo 20.º, n.º 1, alínea a) do Código dos Contratos Públicos",09-04-2014,"700,00 €",,,,Não aplicável.,Não aplicável.,FALSE
Rep. Somatom  emotion duo,Ajuste Direto Regime Geral,Aquisição de serviços,"50000000-5, Serviços de reparação e manutenção","Instituto Português de Oncologia de Lisboa Francisco Gentil, E. P. E. (506361616)",SUIEMENS S.A. (500247480),"362,00 €",05-02-2014,13-01-2014,10 dias,"Portugal, Lisboa, Lisboa","Artigo 20.º, n.º 1, alínea a) do Código dos Contratos Públicos","","",,,,Não aplicável.,Não aplicável.,FALSE
Rep. somaton emotioin,Ajuste Direto Regime Geral,Aquisição de serviços,"50000000-5, Serviços de reparação e manutenção","Instituto Português de Oncologia de Lisboa Francisco Gentil, E. P. E. (506361616)","SIEMENS, S.A. (500247480)","1.682,00 €",05-02-2014,13-01-2014,10 dias,"Portugal, Lisboa, Lisboa","Artigo 20.º, n.º 1, alínea a) do Código dos Contratos Públicos",31-01-2014,"1.682,00 €",,,,Não aplicável.,Não aplicável.,FALSE
Prestação de serviços de técnica de braquiterapia prostatica,Ajuste Direto Regime Geral,Aquisição de serviços,"85100000-0, Serviços de saúde","Instituto Português de Oncologia de Lisboa FG, E.P.E. (506361616)",C.R. BARD PORTUGAL LDA (502438274),"8.800,00 €",05-02-2014,04-02-2014,24 dias,"Portugal, Lisboa, Lisboa","Artigo 27.º, n.º 1, alínea a) do Código dos Contratos Públicos","","",,,,Não aplicável.,Não aplicável.,FALSE
Reparação de PCA IS,Ajuste Direto Regime Geral,Aquisição de serviços,"50000000-5, Serviços de reparação e manutenção","Instituto Português de Oncologia de Lisboa Francisco Gentil, E. P. E. (506361616)",FRESENIUS KABI PHARMA PORTUGAL LDA (504293753),"293,98 €",04-02-2014,30-01-2014,10 dias,"Portugal, Lisboa, Lisboa","Artigo 20.º, n.º 1, alínea a) do Código dos Contratos Públicos",07-02-2014,"293,98 €",,,,Não aplicável.,Não aplicável.,FALSE
Rep. tesoura c.p.r.,Ajuste Direto Regime Geral,Aquisição de serviços,"50000000-5, Serviços de reparação e manutenção","Instituto Português de Oncologia de Lisboa Francisco Gentil, E. P. E. (506361616)",EUGÉNIO PEREIRA (503989525),"6,50 €",04-02-2014,30-01-2014,10 dias,"Portugal, Lisboa, Lisboa","Artigo 20.º, n.º 1, alínea a) do Código dos Contratos Públicos",14-02-2014,"6,50 €",,,,Não aplicável.,Não aplicável.,FALSE
Rep. Fotocopiadora,Ajuste Direto Regime Geral,Aquisição de serviços,"50000000-5, Serviços de reparação e manutenção","Instituto Português de Oncologia de Lisboa Francisco Gentil, E. P. E. (506361616)","BELTÃO COELHO -SISTEMAS DE ESCRITÓRIO, LDA (504654748)","61,90 €",04-02-2014,30-01-2014,10 dias,"Portugal, Lisboa, Lisboa","Artigo 20.º, n.º 1, alínea a) do Código dos Contratos Públicos",26-03-2014,"61,90 €",,,,Não aplicável.,Não aplicável.,FALSE
Cabo PCA  IS,Ajuste Direto Regime Geral,Aquisição de serviços,"50000000-5, Serviços de reparação e manutenção","Instituto Português de Oncologia de Lisboa Francisco Gentil, E. P. E. (506361616)","FRESENIUS KABI PHARMA PORTUGAL ,LDA (504293753)","196,89 €",04-02-2014,30-01-2014,10 dias,"Portugal, Lisboa, Lisboa","Artigo 20.º, n.º 1, alínea a) do Código dos Contratos Públicos",07-02-2014,"196,89 €",,,,Não aplicável.,Não aplicável.,FALSE
tesoura com placas,Ajuste Direto Regime Geral,Aquisição de serviços,"50000000-5, Serviços de reparação e manutenção","Instituto Português de Oncologia de Lisboa Francisco Gentil, E. P. E. (506361616)",M.M.CUNHA LDA (507374843),"13,50 €",04-02-2014,30-01-2014,10 dias,"Portugal, Lisboa, Lisboa","Artigo 20.º, n.º 1, alínea a) do Código dos Contratos Públicos",14-02-2014,"13,50 €",,,,Não aplicável.,Não aplicável.,FALSE
Substituição de filtros de incubadora,Ajuste Direto Regime Geral,Aquisição de serviços,"50000000-5, Serviços de reparação e manutenção","Instituto Português de Oncologia de Lisboa Francisco Gentil, E. P. E. (506361616)",LABOCONTROLE-EQ.CIENT. LABORAT. LDA (501872329),"320,00 €",04-02-2014,30-01-2014,10 dias,"Portugal, Lisboa, Lisboa","Artigo 20.º, n.º 1, alínea a) do Código dos Contratos Públicos",13-03-2014,"320,00 €",,,,Não aplicável.,Não aplicável.,FALSE
Reparação de acessório,Ajuste Direto Regime Geral,Aquisição de serviços,"50000000-5, Serviços de reparação e manutenção","Instituto Português de Oncologia de Lisboa Francisco Gentil, E. P. E. (506361616)","MAQUET PORTUGAL, COM. EQUIP. UNIP, LDA (506819698)","190,00 €",04-02-2014,30-01-2014,10 dias,"Portugal, Lisboa, Lisboa","Artigo 20.º, n.º 1, alínea a) do Código dos Contratos Públicos",24-04-2014,"190,00 €",,,,Não aplicável.,Não aplicável.,FALSE
tesoura com placas,Ajuste Direto Regime Geral,Aquisição de serviços,"50000000-5, Serviços de reparação e manutenção","Instituto Português de Oncologia de Lisboa Francisco Gentil, E. P. E. (506361616)",M.M.CUNHA LDA (507374843),"13,50 €",03-02-2014,30-01-2014,10 dias,"Portugal, Lisboa, Lisboa","Artigo 20.º, n.º 1, alínea a) do Código dos Contratos Públicos",14-02-2014,"13,50 €",,,,Não aplicável.,Não aplicável.,FALSE
pinça mosquito,Ajuste Direto Regime Geral,Aquisição de serviços,"50000000-5, Serviços de reparação e manutenção","Instituto Português de Oncologia de Lisboa Francisco Gentil, E. P. E. (506361616)",M.M.CUNHA LDA (507374843),"11,31 €",03-02-2014,30-01-2014,10 dias,"Portugal<BR/>Portugal, Lisboa, Lisboa","Artigo 20.º, n.º 1, alínea a) do Código dos Contratos Públicos",14-02-2014,"11,31 €",,,,Não aplicável.,Não aplicável.,FALSE
Reparação de tesoura,Ajuste Direto Regime Geral,Aquisição de serviços,"50000000-5, Serviços de reparação e manutenção","Instituto Português de Oncologia de Lisboa Francisco Gentil, E. P. E. (506361616)","M.M. CUNHA, LDA (507374843)","8,73 €",03-02-2014,30-01-2014,10 dias,"Portugal, Lisboa, Lisboa","Artigo 20.º, n.º 1, alínea a) do Código dos Contratos Públicos",14-02-2014,"8,73 €",,,,Não aplicável.,Não aplicável.,FALSE
Monitor -electroválvulas,Ajuste Direto Regime Geral,Aquisição de serviços,"50000000-5, Serviços de reparação e manutenção","Instituto Português de Oncologia de Lisboa Francisco Gentil, E. P. E. (506361616)",PARAMÉCICA EQUIPAMENTOS MEDICOS LDA (501393005),"438,50 €",03-02-2014,30-01-2014,10 dias,"Portugal, Lisboa, Lisboa","Artigo 20.º, n.º 1, alínea a) do Código dos Contratos Públicos",05-02-2014,"438,50 €",,,,Não aplicável.,Não aplicável.,FALSE
Monitor de sinais vitais,Ajuste Direto Regime Geral,Aquisição de serviços,"50000000-5, Serviços de reparação e manutenção","Instituto Português de Oncologia de Lisboa Francisco Gentil, E. P. E. (506361616)",PARAMÉDICA EQUIPAMENTOS MÉDICOS  LDA (501393005),"103,00 €",03-02-2014,30-01-2014,10 dias,"Portugal, Lisboa, Lisboa","Artigo 20.º, n.º 1, alínea a) do Código dos Contratos Públicos",05-02-2014,"103,00 €",,,,Não aplicável.,Não aplicável.,FALSE
máquina de selar  ms6,Ajuste Direto Regime Geral,Aquisição de serviços,"50000000-5, Serviços de reparação e manutenção","Instituto Português de Oncologia de Lisboa Francisco Gentil, E. P. E. (506361616)","REDECIL-REP.EQUIP.DENTÁRIO CURURGI, LDA (500484074)","47,50 €",03-02-2014,30-01-2014,10 dias,"Portugal, Lisboa, Lisboa","Artigo 20.º, n.º 1, alínea a) do Código dos Contratos Públicos",28-02-2014,"47,50 €",,,,Não aplicável.,Não aplicável.,FALSE
Carregador de punhos,Ajuste Direto Regime Geral,Aquisição de serviços,"50000000-5, Serviços de reparação e manutenção","Instituto Português de Oncologia de Lisboa Francisco Gentil, E. P. E. (506361616)",PARAMÉDICA EQUIPAMENTOS MEDICOS LDA (501393005),"55,00 €",03-02-2014,30-01-2014,10 dias,"Portugal, Lisboa, Lisboa","Artigo 20.º, n.º 1, alínea a) do Código dos Contratos Públicos",05-02-2014,"55,00 €",,,,Não aplicável.,Não aplicável.,FALSE
Reparação de ditado digital,Ajuste Direto Regime Geral,Aquisição de serviços,"50000000-5, Serviços de reparação e manutenção","Instituto Português de Oncologia de Lisboa Francisco Gentil, E. P. E. (506361616)",TETRÓNICA (500282978),"63,00 €",03-02-2014,30-01-2014,10 dias,"Portugal, Lisboa, Lisboa","Artigo 20.º, n.º 1, alínea a) do Código dos Contratos Públicos","","",,,,Não aplicável.,Não aplicável.,FALSE
Reparações,Ajuste Direto Regime Geral,Aquisição de serviços,"50000000-5, Serviços de reparação e manutenção","Instituto Português de Oncologia de Lisboa Francisco Gentil, E. P. E. (506361616)","VEISIL-A. MENDES DA SILVA , LDA (502064080)","6,00 €",31-01-2014,21-01-2014,10 dias,"Portugal, Lisboa, Lisboa","Artigo 20.º, n.º 1, alínea a) do Código dos Contratos Públicos",28-02-2014,"6,00 €",,,,Não aplicável.,Não aplicável.,FALSE
