Objeto do Contrato,Tipo de Procedimento,Tipo(s) de Contrato,CPVs,Entidade(s) Adjudicante(s),Entidade(s) Adjudicatária(s),Preço Contratual,Data de Publicação,Data de Celebração do Contrato,Prazo de Execução,Local de Execução,Fundamentação,Data de Fecho do Contrato,Preço Total Efetivo,Causas das Alterações ao Prazo,Causas das Alterações ao Preço,Estado,N.º registo do Acordo Quadro,Descrição do Acordo Quadro,Procedimento Centralizado
Aquisição de vacina tetra DTPA/VIP,Ajuste Direto Regime Geral,Aquisição de bens móveis,"33651600-4, Vacinas","Administração Regional de Saúde de Lisboa e Vale do Tejo, I.P. (503148776)","Sanofi Pasteur MSD, S.A. (507632796)","79.740,00 €",10-04-2013,27-03-2013,20 dias,"Portugal, Lisboa","Artigo 26.º, n.º 1, alínea e) do Código dos Contratos Públicos",,,,,,Não aplicável.,Não aplicável.,
"Aquisição de Lidocaina 2%, Adrenalina 0,001%",Ajuste Direto Regime Geral,Aquisição de bens móveis,"33661100-2, Anestésicos","Administração Regional de Saúde de Lisboa e Vale do Tejo, I.P. (503148776)","Labesfal - Laboratórios Almiro, S.A. (501169580)","9.600,00 €",10-04-2013,28-03-2013,20 dias,"Portugal, Lisboa","Artigo 26.º, n.º 1, alínea e) do Código dos Contratos Públicos",,,,,,Não aplicável.,Não aplicável.,
Aquisição de Citrato Sódio Composto,Ajuste Direto Regime Geral,Aquisição de bens móveis,"33613000-0, Laxantes","Administração Regional de Saúde de Lisboa e Vale do Tejo, I.P. (503148776)","Overpharma - Produtos Médicos Farmacêuticos, Lda (505792362)","4.680,00 €",10-04-2013,28-03-2013,20 dias,"Portugal, Lisboa","Artigo 26.º, n.º 1, alínea e) do Código dos Contratos Públicos",,,,,,Não aplicável.,Não aplicável.,
Aquisição de Acido Fusídico (pomada),Ajuste Direto Regime Geral,Aquisição de bens móveis,"33631400-6, Antibióticos e quimioterápicos usados em dermatologia","Administração Regional de Saúde de Lisboa e Vale do Tejo, I.P. (503148776)","Laboratório Medinfar - Produtos farmacêuticos, S.A. (500384045)","11.300,00 €",10-04-2013,28-03-2013,20 dias,"Portugal, Lisboa","Artigo 26.º, n.º 1, alínea e) do Código dos Contratos Públicos",,,,,,Não aplicável.,Não aplicável.,
Aquisiçao de Etonogestrel implante 68MG,Ajuste Direto Regime Geral,Aquisição de bens móveis,"33641400-9, Contraceptivos","Administração Regional de Saúde de Lisboa e Vale do Tejo, I.P. (503148776)","Merck, Sharp & Dohme, Lda (500191360)","61.070,80 €",10-04-2013,28-03-2013,20 dias,"Portugal, Lisboa","Artigo 26.º, n.º 1, alínea e) do Código dos Contratos Públicos",,,,,,Não aplicável.,Não aplicável.,
Aquisição de Hidroxizina 25 MG,Ajuste Direto Regime Geral,Aquisição de bens móveis,"33675000-2, Anti-histamínicos de uso sistémico","Administração Regional de Saúde de Lisboa e Vale do Tejo, I.P. (503148776)","UCB Pharma, Lda (500291322)","275,40 €",10-04-2013,27-03-2013,20 dias,"Portugal, Lisboa","Artigo 24.º, n.º 1, alínea e) do Código dos Contratos Públicos",,,,,,Não aplicável.,Não aplicável.,
"Aquisição de Desogestrel 0,075MG",Ajuste Direto Regime Geral,Aquisição de bens móveis,"33641400-9, Contraceptivos","Administração Regional de Saúde de Lisboa e Vale do Tejo, I.P. (503148776)","Merck, Sharp & Dohme, Lda (500191360)","40.800,00 €",10-04-2013,28-03-2013,20 dias,"Portugal, Lisboa","Artigo 26.º, n.º 1, alínea e) do Código dos Contratos Públicos",,,,,,Não aplicável.,Não aplicável.,
Aquisição de Vacina Triplice,Ajuste Direto Regime Geral,Aquisição de bens móveis,"33651600-4, Vacinas","Administração Regional de Saúde de Lisboa e Vale do Tejo, I.P. (503148776)","GlaxoSmithKline, Lda. (500139962)","4.295,00 €",10-04-2013,08-04-2013,20 dias,"Portugal, Lisboa","Artigo 26.º, n.º 1, alínea e) do Código dos Contratos Públicos",,,,,,Não aplicável.,Não aplicável.,
Aquisição de Hidroxizina Xarope 2MG/ML,Ajuste Direto Regime Geral,Aquisição de bens móveis,"33675000-2, Anti-histamínicos de uso sistémico","Administração Regional de Saúde de Lisboa e Vale do Tejo, I.P. (503148776)","UCB Pharma, Lda (500291322)","410,00 €",10-04-2013,25-03-2013,20 dias,"Portugal, Lisboa","Artigo 24.º, n.º 1, alínea e) do Código dos Contratos Públicos",,,,,,Não aplicável.,Não aplicável.,
"Prestação de Serviços de Fiscalização para a Empreitada de Construção do Edifício da Extensão de Saúde de Carnide, no Centro de Saúde de Benfica",Ajuste Direto Regime Geral,Aquisição de serviços,"71000000-8, Serviços de arquitectura, construção, engenharia e inspecção","Administração Regional de Saúde de Lisboa e Vale do Tejo, I.P. (503148776)","Estabil - Engenheiros e Associados, Lda (502522798)","25.500,00 €",10-04-2013,05-04-2013,270 dias,"Portugal, Lisboa, Lisboa","Artigo 20.º, n.º 1, alínea a) do Código dos Contratos Públicos",,,,,,Não aplicável.,Não aplicável.,
"Remodelação e Beneficiação dos pisos 1 e 2 no Edificio nº 77 da Av. EUA - ARSLVT,IP",Ajuste Direto Regime Geral,Empreitadas de obras públicas,"45453100-8, Obras de recuperação","Administração Regional de Saúde de Lisboa e Vale do Tejo, I.P. (503148776)","GEFIS - Const., Gestão e Fsic. de Obras, Lda (502018801)","12.450,00 €",05-04-2013,22-03-2013,20 dias,"Portugal, Lisboa, Lisboa","Artigo 19.º, alínea a) do Código dos Contratos Públicos",,,,,,Não aplicável.,Não aplicável.,
"Manutenção dos edifícios nº 77 e 75 da ARSLVT, IP",Ajuste Direto Regime Geral,Aquisição de serviços,"50000000-5, Serviços de reparação e manutenção","Administração Regional de Saúde de Lisboa e Vale do Tejo, I.P. (503148776)","Metal Cúbico, Lda. (503852880)","6.977,04 €",04-04-2013,02-04-2013,20 dias,"Portugal, Lisboa, Lisboa","Artigo 20.º, n.º 1, alínea a) do Código dos Contratos Públicos",,,,,,Não aplicável.,Não aplicável.,
Vinhetas médicas e de locais para o CRICAD,Ajuste Direto Regime Geral,Aquisição de bens móveis,"22100000-1, Livros, brochuras e folhetos impressos","Administração Regional de Saúde de Lisboa e Vale do Tejo, I.P. (503148776)","Imprensa Nacional-Casa da Moeda, S.A. (500792887)","301,00 €",03-04-2013,25-03-2013,5 dias,"Portugal, Lisboa","Artigo 24.º, n.º 1, alínea e) do Código dos Contratos Públicos",,,,,,Não aplicável.,Não aplicável.,
Aquisição de Permetrina 10MG/G (1%),Ajuste Direto Regime Geral,Aquisição de bens móveis,"33690000-3, Medicamentos vários","Administração Regional de Saúde de Lisboa e Vale do Tejo, I.P. (503148776)","Omega Pharma Portuguesa, Lda. (506112233)","17.985,00 €",02-04-2013,22-03-2013,22 dias,"Portugal, Lisboa","Artigo 26.º, n.º 1, alínea e) do Código dos Contratos Públicos",,,,,,Não aplicável.,Não aplicável.,
Aquisição de Vacinas HIB,Ajuste Direto Regime Geral,Aquisição de bens móveis,"33651600-4, Vacinas","Administração Regional de Saúde de Lisboa e Vale do Tejo, I.P. (503148776)","GlaxoSmithKline, Lda. (500139962)","2.310,00 €",01-04-2013,22-03-2013,20 dias,"Portugal, Lisboa","Artigo 26.º, n.º 1, alínea e) do Código dos Contratos Públicos",,,,,,Não aplicável.,Não aplicável.,
"Aquisição de prestação de serviços de vgilância para os serviços da dependência da Administração Regional de Saúde de Lisboa e Vale do Tejo, IP (USF Ribeiro Sanches)",Ajuste Direto Regime Geral,Aquisição de serviços,"79710000-4, Serviços de segurança","Administração Regional de Saúde de Lisboa e Vale do Tejo, I.P. (503148776)","Prestibel - Empresa de Segurança, SA (501326456)","6.720,00 €",01-04-2013,20-03-2013,90 dias,"Portugal, Lisboa, Amadora",Artigo 258.º do Código dos Contratos Públicos,,,,,,1002480,"Aquisição de prestação de serviços de vigilância para os serviços da dependência da Administração Regional de Saúde de Lisboa e Vale do tejo, IP (USF Ribeiro sanches)",
