Objeto do Contrato,Tipo de Procedimento,Tipo(s) de Contrato,CPVs,Entidade(s) Adjudicante(s),Entidade(s) Adjudicatária(s),Preço Contratual,Data de Publicação,Data de Celebração do Contrato,Prazo de Execução,Local de Execução,Fundamentação,Data de Fecho do Contrato,Preço Total Efetivo,Causas das Alterações ao Prazo,Causas das Alterações ao Preço,Estado,N.º registo do Acordo Quadro,Descrição do Acordo Quadro,Procedimento Centralizado
Serviços Médicos no Serviço U.C.I.,Ajuste Direto Regime Geral,Aquisição de serviços,"85000000-9, Serviços de saúde e acção social","Centro Hospitalar de Setúbal, E. P. E. (507606787)",Jorge Miguel de Oliveira Dantas (243961057),"15.600,00 €",08-10-2018,25-09-2018,365 dias,"Portugal, Setúbal, Setúbal","Artigo 20.º, n.º 1, alínea a) do Código dos Contratos Públicos",,,,,,Não aplicável.,Não aplicável.,FALSE
61000418 - MEDICAMENTOS SANGUE_SPMS,Ao abrigo de acordo-quadro (art.º 259.º),Aquisição de bens móveis,"33600000-6, Produtos farmacêuticos","Centro Hospitalar de Setúbal, E. P. E. (507606787)","LABORATÓRIO MEDINFAR, S.A. (500384045), Laboratórios  Pfizer, Lda. (500162166), Roche - Farmacêutica, Lda. (500233810), B. Braun Medical, Lda. (501506543), Accord Healthcare, Unipessoal, Lda (508622263), OM Pharma, S.A. (500207410), Bial - Portela & Companhia S.A. (500220913), Bayer Portugal S.A. (500043256), Generis Farmacêutica, S.A. (508107997), Unilfarma - União Internacional de Laboratórios Farmaceuticos, Lda (500293023)","239.996,36 €",04-10-2018,22-02-2018,365 dias,"Portugal, Setúbal, Setúbal",Artigo 259.º do Código dos Contratos Públicos,,,,,,2489595,CP 2016/18 - Acordo quadro para fornecimento de Medicamentos do Grupo 4: Sangue às Instituições e Serviços do Serviço Nacional de Saúde,FALSE
61000518 - MEDICAMENTOS ANTINEOPLASICOS_SPMS,Ao abrigo de acordo-quadro (art.º 259.º),Aquisição de bens móveis,"33600000-6, Produtos farmacêuticos","Centro Hospitalar de Setúbal, E. P. E. (507606787)","HIKMA FARMACEUTICA, (PORTUGAL) S.A (502266791), Accord Healthcare, Unipessoal, Lda (508622263), FRESENIUS KABI PHARMA PORTUGAL,LDA (504293753), TECNIMEDE - SOC. TECNICO MEDICINAL (500626413), Generis Farmacêutica, S.A. (508107997), MEDAC SUCURSAL EM PORTUGAL (980369959), Astellas Farma, Lda (502540249), Laboratórios  Pfizer, Lda. (500162166)","29.079,35 €",04-10-2018,15-02-2018,365 dias,"Portugal, Setúbal, Setúbal",Artigo 259.º do Código dos Contratos Públicos,,,,,,1771819,CP 2015/6 - Acordo quadro para o fornecimento de Medicamentos do Foro Oncológico,FALSE
Implementação da filosofia Lean - follow up e sustentabilidade,Ajuste Direto Regime Geral,Aquisição de serviços,"72000000-5, Serviços de TI: consultoria, desenvolvimento de software, Internet e apoio","Centro Hospitalar de Setúbal, E. P. E. (507606787)","Pensamento Inesperado, Lda (510310591)","6.750,00 €",03-10-2018,02-10-2018,30 dias,"Portugal, Setúbal, Setúbal","Artigo 26.º, n.º 1, alínea a) do Código dos Contratos Públicos",,,,,,Não aplicável.,Não aplicável.,FALSE
61002018 - NUTRIÇAO PARENTÉRICA_SPMS,Ao abrigo de acordo-quadro (art.º 259.º),Aquisição de bens móveis,"33600000-6, Produtos farmacêuticos","Centro Hospitalar de Setúbal, E. P. E. (507606787)","Baxter (503347345), B BRAUN MEDICAL, LDA (501506543), FRESENIUS KABI PHARMA PORTUGAL,LDA (504293753)","104.052,80 €",03-10-2018,18-04-2018,365 dias,"Portugal, Setúbal, Setúbal",Artigo 259.º do Código dos Contratos Públicos,,,,,,1377429,Acordo Quadro para fornecimento de medicamentos para Nutrição Parentérica às Instituições e Serviços do Serviço Nacional de Saúde,FALSE
61001318 - MEDICAMENTOS RELAXANTES MUSCULARES_SPMS,Ao abrigo de acordo-quadro (art.º 259.º),Aquisição de bens móveis,"33600000-6, Produtos farmacêuticos","Centro Hospitalar de Setúbal, E. P. E. (507606787)","Overpharma, Lda. (505792362), FRESENIUS KABI PHARMA PORTUGAL,LDA (504293753), Labesfal - Laboratórios Almiro, S.A. (501169580), GENERIS - FARMACEUTICA SA (508107997), Ipsen Portugal (502609800), Korangi Produtos Farmaceuticos SA (505322307), Novartis Farma - Produtos Farmacêuticos, S.A. (500063524)","45.671,93 €",03-10-2018,19-02-2018,365 dias,"Portugal, Setúbal, Setúbal",Artigo 259.º do Código dos Contratos Públicos,,,,,,2211341,Medicamentos anestésicos e relaxantes musculares,FALSE
61001418 - MEDICAMENTOS TRATAMENTO INTOXICAÇOES_SPMS,Ao abrigo de acordo-quadro (art.º 259.º),Aquisição de bens móveis,"33600000-6, Produtos farmacêuticos","Centro Hospitalar de Setúbal, E. P. E. (507606787)","Novartis Farma - Produtos Farmacêuticos, S.A. (500063524), Accord Healthcare, Unipessoal, Lda (508622263), Medac - Sucursal Portugal (980369959), LABORATÓRIO MEDINFAR, S.A. (500384045), Labesfal - Laboratórios Almiro, S.A. (501169580), Hikma Farmaceutica Portugal (502266791)","29.669,08 €",03-10-2018,31-01-2018,365 dias,"Portugal, Setúbal, Setúbal",Artigo 259.º do Código dos Contratos Públicos,,,,,,1338581,"Acordo quadro para fornecimento de Medicação antialérgica, medicamentos usados no tratamento de intoxicações, vitaminas e sais minerais e grupo 20.9 - outros produtos às instituições e serviços do serviço nacional de saúde",FALSE
61001518 - MEDICAMENTOS APARELHO RESPIRATORIO_SPMS,Ao abrigo de acordo-quadro (art.º 259.º),Aquisição de bens móveis,"33600000-6, Produtos farmacêuticos","Centro Hospitalar de Setúbal, E. P. E. (507606787)","RATIOPHARM LDA (502414910), D.L.A. FARMACÊUTICA, S.A. (503894427), Laboratorios Pfizer Lda (500162166), Angelini Farmaceutica Lda (500583650), GENERIS - FARMACEUTICA SA (508107997), Labesfal - Laboratórios Almiro, S.A. (501169580), SANOFI - PRODUTOS FARMACÊUTICOS, LDA. (500134960), LABORATÓRIO MEDINFAR, S.A. (500384045)","41.616,77 €",02-10-2018,16-03-2018,365 dias,"Portugal, Setúbal, Setúbal",Artigo 259.º do Código dos Contratos Públicos,,,,,,2222779,Medicamentos do aparelho digestivo,FALSE
61001718 - MEDICAMENTOS APARELHO RESPIRATORIO_SPMS,Ao abrigo de acordo-quadro (art.º 259.º),Aquisição de bens móveis,"33600000-6, Produtos farmacêuticos","Centro Hospitalar de Setúbal, E. P. E. (507606787)","SANOFI - PRODUTOS FARMACÊUTICOS, LDA. (500134960), Novartis Farma - Produtos Farmacêuticos, S.A. (500063524), Teva Pharma, Prod Farmaceuticos Lda (507045491), Glaxo Smith Kline Produtos Farmaceuticos (500139962), FERRAZ, LYNCE, SA (500113270), Angelini Farmaceutica Lda (500583650), Labesfal - Laboratórios Almiro, S.A. (501169580), Unilfarma- União  Int. de Lab. Farmacêuticos, Lda. (500293023)","418.772,19 €",02-10-2018,22-02-2018,365 dias,"Portugal, Setúbal, Setúbal",Artigo 259.º do Código dos Contratos Públicos,,,,,,1638654,CP 2015/12 - Acordo quadro para fornecimento de Medicamentos do Aparelho Respiratório às Instituições e Serviços do Serviço Nacional de Saúde,FALSE
61001918 - MEDICAMENTOS ESTIMULANTES ERITROPOIESE_SPMS,Ao abrigo de acordo-quadro (art.º 259.º),Aquisição de bens móveis,"33600000-6, Produtos farmacêuticos","Centro Hospitalar de Setúbal, E. P. E. (507606787)","Sandoz Farmaceutica Lda (506985261), Roche Farmaceutica Quimica Lda (500233810)","130.307,85 €",02-10-2018,22-02-2018,365 dias,"Portugal, Setúbal, Setúbal",Artigo 259.º do Código dos Contratos Públicos,,,,,,2749216,CP 2017/11 - Acordo quadro para fornecimento de Medicamentos Estimulantes da eritropoiese às Instituições e Serviços do Serviço Nacional de Saúde,FALSE
CLADRIBINA 10 MG,Ajuste Direto Regime Geral,Aquisição de bens móveis,"33600000-6, Produtos farmacêuticos","Centro Hospitalar de Setúbal, E. P. E. (507606787)","MERCK, SA (500650870)","64.035,00 €",02-10-2018,23-08-2018,365 dias,"Portugal, Setúbal, Setúbal","Artigo 24.º, n.º 1, alínea c) do Código dos Contratos Públicos",,,,,,Não aplicável.,Não aplicável.,FALSE
61002118 - SOROS ONCOLOGIA/CARDIOLOGIA( SACOS MOLES)_SPMS,Ao abrigo de acordo-quadro (art.º 259.º),Aquisição de bens móveis,"33600000-6, Produtos farmacêuticos","Centro Hospitalar de Setúbal, E. P. E. (507606787)","BAXTER MEDICO FARMACEUTICA LDA (503347345), GRIFOLS PORTUGAL - PROD. FARMAC. E HOSP., LDA. (502041285), FRESENIUS KABI PHARMA PORTUGAL,LDA (504293753)","17.573,90 €",02-10-2018,01-02-2018,365 dias,"Portugal, Setúbal, Setúbal",Artigo 259.º do Código dos Contratos Públicos,,,,,,2528675,CP 2017/3 - Acordo Quadro para fornecimento de corretivos da volémia e outras soluções estéreis,FALSE
Viatura de sete lugares,Consulta Prévia,Aquisição de bens móveis,"34100000-8, Veículos a motor","Centro Hospitalar de Setúbal, E. P. E. (507606787)",SGS-Car (505204118),"23.990,29 €",01-10-2018,13-09-2018,30 dias,"Portugal, Setúbal, Setúbal","Artigo 19.º, alínea c) do Código dos Contratos Públicos",,,,,,Não aplicável.,Não aplicável.,FALSE
