Objeto do Contrato,Tipo de Procedimento,Tipo(s) de Contrato,CPVs,Entidade(s) Adjudicante(s),Entidade(s) Adjudicatária(s),Preço Contratual,Data de Publicação,Data de Celebração do Contrato,Prazo de Execução,Local de Execução,Fundamentação,Data de Fecho do Contrato,Preço Total Efetivo,Causas das Alterações ao Prazo,Causas das Alterações ao Preço,Estado,N.º registo do Acordo Quadro,Descrição do Acordo Quadro,Procedimento Centralizado
Fornecimento de 5 (cinco) Electrobisturis p/ o Departamento de Cirurgia,Consulta Prévia,Aquisição de bens móveis,"33100000-1, Equipamento médico","Unidade Local de Saúde de Matosinhos, E. P. E. (506361390)","Bacelar & Irmão, Lda (500532818)","21.251,65 €",04-02-2019,04-02-2019,365 dias,"Portugal<BR/>Portugal, Porto, Matosinhos","Artigo 20.º, n.º 1, alínea c) do Código dos Contratos Públicos",,,,,,Não aplicável.,Não aplicável.,FALSE
Empreitada de Execução da Obra p/ Deslocação da Barreira na Rampa de Acesso ao Parque de Pessoal do HPH,Consulta Prévia,Empreitadas de obras públicas,"45454000-4, Obras de reestruturação","Unidade Local de Saúde de Matosinhos, E. P. E. (506361390)","Tecnifeira - Engenharia e Construção, Sociedade Anónima (502933755)","14.038,50 €",04-02-2019,29-01-2019,30 dias,"Portugal<BR/>Portugal, Porto, Matosinhos","Artigo 19.º, alínea c) do Código dos Contratos Públicos",,,,,,Não aplicável.,Não aplicável.,FALSE
