Objeto do Contrato,Tipo de Procedimento,Tipo(s) de Contrato,CPVs,Entidade(s) Adjudicante(s),Entidade(s) Adjudicatária(s),Preço Contratual,Data de Publicação,Data de Celebração do Contrato,Prazo de Execução,Local de Execução,Fundamentação,Data de Fecho do Contrato,Preço Total Efetivo,Causas das Alterações ao Prazo,Causas das Alterações ao Preço,Estado,N.º registo do Acordo Quadro,Descrição do Acordo Quadro,Procedimento Centralizado
"Aquisição e Instalação de 3 Electrocardiógrafos de 12 canais, para o Serviço de Cardiologia do Hospital Amato Lusitano",Ajuste Direto Regime Geral,Aquisição de bens móveis,"33112000-8, Equipamento de imagiologia por ecos, ultra-sons e doppler","Unidade Local de Saúde de Castelo Branco, E. P. E. (509309844)","SPACE MEDICAL - EQUIPAMENTOS MEDICOS, LDA (507662407)","7.820,50 €",13-03-2017,13-03-2017,22 dias,"Portugal, Castelo Branco, Castelo Branco","Artigo 20.º, n.º 1, alínea a) do Código dos Contratos Públicos",,,,,,Não aplicável.,Não aplicável.,FALSE
Prestação de Serviços de Manutenção e Assistência Técnica Preventiva e Correctiva a Equipamentos de Oftalmologia do Hospital Amato Lusitano,Ajuste Direto Regime Geral,Aquisição de serviços,"71356200-0, Serviços de assistência técnica","UNIDADE LOCAL DE SAÚDE DE CASTELO BRANCO, E.P.E. (509309844)","Iberdata Equipamentos, SA (501904921)","5.850,00 €",13-03-2017,08-03-2017,305 dias,"Portugal, Castelo Branco, Castelo Branco","Artigo 20.º, n.º 1, alínea a) do Código dos Contratos Públicos",,,,,,Não aplicável.,Não aplicável.,FALSE
Prestação de Serviços de Manutenção e Assistência Técnica Preventiva e Correctiva a Seringas e Bombas Infusoras do Hospital Amato Lusitano,Ajuste Direto Regime Geral,Aquisição de serviços,"71356200-0, Serviços de assistência técnica","Unidade Local de Saúde de Castelo Branco, E. P. E. (509309844)","Iberdata Equipamentos, SA (501904921)","9.788,80 €",13-03-2017,09-03-2017,305 dias,"Portugal, Castelo Branco, Castelo Branco","Artigo 20.º, n.º 1, alínea a) do Código dos Contratos Públicos",,,,,,Não aplicável.,Não aplicável.,FALSE
"Prestação de Serviços para o Fornecimento, Substituição e Manutenção de Filtros Absolutos do Bloco Ambulatório e do Bloco Operatório Central do Hospital Amato Lusitano",Ajuste Direto Regime Geral,Aquisição de serviços,"50730000-1, Serviços de reparação e manutenção de grupos de refrigeração","UNIDADE LOCAL DE SAÚDE DE CASTELO BRANCO, E.P.E. (509309844)","ENÉRGICO BALANÇO, UNIPESSOAL, LDA (510152961)","9.349,00 €",13-03-2017,09-03-2017,305 dias,"Portugal, Castelo Branco, Castelo Branco","Artigo 20.º, n.º 1, alínea a) do Código dos Contratos Públicos",,,,,,Não aplicável.,Não aplicável.,FALSE
Prestação de Serviços de Manutenção e Assistência Técnica Preventiva e Correctiva de Equipamentos de Esterilização e Máquinas de Selar do Hospital Amato Lusitano,Ajuste Direto Regime Geral,Aquisição de serviços,"71356200-0, Serviços de assistência técnica","UNIDADE LOCAL DE SAÚDE DE CASTELO BRANCO, E.P.E. (509309844)",PromeiCentro Lda (506470113),"7.650,00 €",13-03-2017,07-03-2017,305 dias,"Portugal, Castelo Branco, Castelo Branco","Artigo 20.º, n.º 1, alínea a) do Código dos Contratos Públicos",,,,,,Não aplicável.,Não aplicável.,FALSE
Prestação de Serviços de Manutenção e Assistência Técnica Preventiva e Correctiva de Equipamentos de Esterilização dos Centros de Saúde,Ajuste Direto Regime Geral,Aquisição de serviços,"71356200-0, Serviços de assistência técnica","Unidade Local de Saúde de Castelo Branco, E. P. E. (509309844)",PromeiCentro Lda (506470113),"4.900,00 €",13-03-2017,07-03-2017,305 dias,"Portugal, Castelo Branco, Castelo Branco","Artigo 20.º, n.º 1, alínea a) do Código dos Contratos Públicos",,,,,,Não aplicável.,Não aplicável.,FALSE
"AQUISIÇÃO DE MEDICAMENTOS DESENCADEADA PELA SPMS, EPE NO ÂMBITO DO DESPACHO 1571/B DE 2016 AO ABRIGO DO ACORDO QUADRO 2015/7 – HORMONAS E OUTROS MEDICAMENTOS USADOS NO TRATAMENTO DAS DOENÇAS ENDÓCRINAS_P259-AC-2016-229",Ao abrigo de acordo-quadro (art.º 259.º),Aquisição de bens móveis,"33600000-6, Produtos farmacêuticos","Unidade Local de Saúde de Castelo Branco, E. P. E. (509309844)","Novartis Farma - Produtos Farmacêuticos, SA (500063524)","25.135,68 €",09-03-2017,23-02-2017,365 dias,"Portugal, Castelo Branco, Castelo Branco",Artigo 259.º do Código dos Contratos Públicos,,,,,,1415640,CP 2015/7 - ACORDO QUADRO PARA FORNECIMENTO DE HORMONAS E OUTROS MEDICAMENTOS USADOS NO TRATAMENTO DAS DOENÇAS ENDÓCRINAS ÀS INSTITUIÇÕES E SERVIÇOS DO SERVIÇO NACIONAL DE SAÚDE,FALSE
