Objeto do Contrato,Tipo de Procedimento,Tipo(s) de Contrato,CPVs,Entidade(s) Adjudicante(s),Entidade(s) Adjudicatária(s),Preço Contratual,Data de Publicação,Data de Celebração do Contrato,Prazo de Execução,Local de Execução,Fundamentação,Data de Fecho do Contrato,Preço Total Efetivo,Causas das Alterações ao Prazo,Causas das Alterações ao Preço,Estado,N.º registo do Acordo Quadro,Descrição do Acordo Quadro,Procedimento Centralizado
AQ URGENTE MEDICAMENTOS,Ao abrigo de acordo-quadro (art.º 259.º),Aquisição de bens móveis,"33600000-6, Produtos farmacêuticos","Centro Hospitalar de Setúbal, E. P. E. (507606787)","BAXTER MEDICO-FARMACEUTICA, LDA (503347345), Lilly Portugal - Produtos Farmacêuticos Lda. (500165602), CELGENE - SOCIEDADE UNIPESSOAL LDA (507791690), JANSSEN-CILAG FARMACEUTICA,LDA (500189412)","42.876,20 €",19-12-2017,05-12-2017,10 dias,"Portugal, Setúbal, Setúbal",Artigo 259.º do Código dos Contratos Públicos,,,,,,1771819,CP 2015/6 - Acordo quadro para o fornecimento de Medicamentos do Foro Oncológico,FALSE
AQ URGENTE: BORTEZOMIB 3.5 MG PÓ SOL INJ FR,Ao abrigo de acordo-quadro (art.º 259.º),Aquisição de bens móveis,"33600000-6, Produtos farmacêuticos","Centro Hospitalar de Setúbal, E. P. E. (507606787)","JANSSEN-CILAG FARMACEUTICA,LDA (500189412)","40.191,30 €",19-12-2017,05-12-2017,10 dias,"Portugal, Setúbal, Setúbal",Artigo 259.º do Código dos Contratos Públicos,,,,,,1771819,CP 2015/6 - Acordo quadro para o fornecimento de Medicamentos do Foro Oncológico,FALSE
AQ URGENTE MEDICAMENTOS,Ajuste Direto Regime Geral,Aquisição de bens móveis,"33600000-6, Produtos farmacêuticos","Centro Hospitalar de Setúbal, E. P. E. (507606787)","GRUNENTHAL SA (500101965), JANSSEN CILAG (500189412)","8.126,93 €",19-12-2017,05-12-2017,10 dias,"Portugal, Setúbal, Setúbal","Artigo 24.º, n.º 1, alínea e) do Código dos Contratos Públicos",,,,,,Não aplicável.,Não aplicável.,FALSE
AQ URGENTE MEDICAMENTOS,Ajuste Direto Regime Geral,Aquisição de bens móveis,"33600000-6, Produtos farmacêuticos","Centro Hospitalar de Setúbal, E. P. E. (507606787)","CELGENE - SOCIEDADE UNIPESSOAL LDA (507791690), Servier Portugal (502177420), NOVARTIS FARMA-PROD.FARMACÊUTICOS,SA.              (500063524), ALIMERA SCIENCES LIMITED (980523192)","70.327,03 €",19-12-2017,14-12-2017,10 dias,"Portugal, Setúbal, Setúbal","Artigo 20.º, n.º 1, alínea a) do Código dos Contratos Públicos",,,,,,Não aplicável.,Não aplicável.,FALSE
AQ URGENTE MEDICAMENTOS,Ajuste Direto Regime Geral,Aquisição de bens móveis,"33600000-6, Produtos farmacêuticos","Centro Hospitalar de Setúbal, E. P. E. (507606787)","JANSSEN CILAG (500189412), AMGEN BIOFARMACÊUTICA, LDA. (502942959), Lilly Portugal - Produtos Farmacêuticos Lda. (500165602), CELGENE - SOCIEDADE UNIPESSOAL LDA (507791690)","51.221,95 €",19-12-2017,14-12-2017,10 dias,"Portugal, Setúbal, Setúbal","Artigo 20.º, n.º 1, alínea a) do Código dos Contratos Públicos",,,,,,Não aplicável.,Não aplicável.,FALSE
"AQ URGENTE RITUXIMAB 1400 MG SOL. INJ. FR. 11,7ML SC",Ajuste Direto Regime Geral,Aquisição de bens móveis,"33600000-6, Produtos farmacêuticos","Centro Hospitalar de Setúbal, E. P. E. (507606787)","ROCHE FARMACEUTICA QUIMICA, LDA (500233810)","29.555,20 €",19-12-2017,14-12-2017,10 dias,"Portugal, Setúbal, Setúbal","Artigo 24.º, n.º 1, alínea e) do Código dos Contratos Públicos",,,,,,Não aplicável.,Não aplicável.,FALSE
"45000518 - Impresso da INCM, para o Ano de 2018",Ajuste Direto Regime Geral,Aquisição de bens móveis,"22000000-0, Material impresso e afins","Centro Hospitalar de Setúbal, E. P. E. (507606787)",Super Centro Anaisa (175543003),"5.275,80 €",12-12-2017,05-12-2017,365 dias,"Portugal, Setúbal, Setúbal","Artigo 24.º, n.º 1, alínea e) do Código dos Contratos Públicos",,,,,,Não aplicável.,Não aplicável.,FALSE
