Objeto do Contrato,Tipo de Procedimento,Tipo(s) de Contrato,CPVs,Entidade(s) Adjudicante(s),Entidade(s) Adjudicatária(s),Preço Contratual,Data de Publicação,Data de Celebração do Contrato,Prazo de Execução,Local de Execução,Fundamentação,Data de Fecho do Contrato,Preço Total Efetivo,Causas das Alterações ao Prazo,Causas das Alterações ao Preço,Estado,N.º registo do Acordo Quadro,Descrição do Acordo Quadro,Procedimento Centralizado
40014/2013 - Aquisição de Reagentes para Bioquímica/Urgência,Ajuste Direto Regime Geral,Aquisição de bens móveis,"33600000-6, Produtos farmacêuticos","Centro Hospitalar Barreiro Montijo, E. P. E. (509186998)","VIDROLAB 2 - VID MAT LABORAT, SA (501450629)","36,92 €",21-03-2014,29-01-2013,90 dias,"Portugal, Setúbal, Barreiro","Artigo 24.º, n.º 1, alínea c) do Código dos Contratos Públicos",14-03-2013,"36,92 €","","",,Não aplicável.,Não aplicável.,FALSE
4DS0053/2013 - Serviços Médicos de Medicina,Ajuste Direto Regime Geral,Aquisição de serviços,"85141000-9, Serviços prestados pelo pessoal médico","Centro Hospitalar Barreiro Montijo, E. P. E. (509186998)",Urgimédica - Assistencia de Saude (501663878),"1.800,00 €",21-03-2014,21-12-2012,31 dias,"Portugal, Setúbal, Barreiro","Artigo 24.º, n.º 1, alínea c) do Código dos Contratos Públicos",31-12-2013,"1.800,00 €","","",,Não aplicável.,Não aplicável.,FALSE
40014/2013 - Aquisição de Reagentes para Bioquímica/Urgência,Ajuste Direto Regime Geral,Aquisição de bens móveis,"33600000-6, Produtos farmacêuticos","Centro Hospitalar Barreiro Montijo, E. P. E. (509186998)","SIEMENS HEALTHCARE DIAGNOSTICS, LDA. (507925173)","287,50 €",21-03-2014,29-01-2013,90 dias,"Portugal, Setúbal, Barreiro","Artigo 24.º, n.º 1, alínea c) do Código dos Contratos Públicos",14-03-2013,"287,50 €","","",,Não aplicável.,Não aplicável.,FALSE
4DS0053/2013 - Serviços Médicos de Medicina,Ajuste Direto Regime Geral,Aquisição de serviços,"85141000-9, Serviços prestados pelo pessoal médico","Centro Hospitalar Barreiro Montijo, E. P. E. (509186998)","Randstad Clinical Cuidados de Saude, Lda (505121247)","2.145,00 €",21-03-2014,21-12-2012,31 dias,"Portugal, Setúbal, Barreiro","Artigo 24.º, n.º 1, alínea c) do Código dos Contratos Públicos",31-12-2013,"2.145,00 €","","",,Não aplicável.,Não aplicável.,FALSE
40014/2013 - Aquisição de Reagentes para Bioquímica/Urgência,Ajuste Direto Regime Geral,Aquisição de bens móveis,"33600000-6, Produtos farmacêuticos","Centro Hospitalar Barreiro Montijo, E. P. E. (509186998)","ROCHE SISTEMAS DE DIAGNOSTICO-SOC. UNIPESSOAL, Lda (504282921)","46.111,04 €",21-03-2014,06-02-2013,90 dias,"Portugal, Setúbal, Barreiro","Artigo 24.º, n.º 1, alínea c) do Código dos Contratos Públicos",14-03-2013,"46.111,04 €","","",,Não aplicável.,Não aplicável.,FALSE
4DS0053/2013 - Serviços Médicos de Medicina,Ajuste Direto Regime Geral,Aquisição de serviços,"85141000-9, Serviços prestados pelo pessoal médico","Centro Hospitalar Barreiro Montijo, E. P. E. (509186998)","Helped - Prestação de Serviços De Saude, Lda. (506069010)","5.025,00 €",21-03-2014,21-12-2012,31 dias,"Portugal, Setúbal, Barreiro","Artigo 24.º, n.º 1, alínea c) do Código dos Contratos Públicos",31-12-2013,"5.025,00 €","","",,Não aplicável.,Não aplicável.,FALSE
40014/2013 - Aquisição de Reagentes para Bioquímica/Urgência,Ajuste Direto Regime Geral,Aquisição de bens móveis,"33600000-6, Produtos farmacêuticos","Centro Hospitalar Barreiro Montijo, E. P. E. (509186998)","MENARINI DIAGNOSTICOS, LDA. (502610069)","1.710,00 €",21-03-2014,29-01-2013,90 dias,"Portugal, Setúbal, Barreiro","Artigo 24.º, n.º 1, alínea c) do Código dos Contratos Públicos",14-03-2013,"1.710,00 €","","",,Não aplicável.,Não aplicável.,FALSE
40014/2013 - Aquisição de Reagentes para Bioquímica/Urgência,Ajuste Direto Regime Geral,Aquisição de bens móveis,"33600000-6, Produtos farmacêuticos","Centro Hospitalar Barreiro Montijo, E. P. E. (509186998)","PHADIA, SOCIEDADE UNIPESSOAL, LDA. (506916243)","2.193,84 €",21-03-2014,29-01-2013,90 dias,"Portugal, Setúbal, Barreiro","Artigo 24.º, n.º 1, alínea c) do Código dos Contratos Públicos",14-03-2013,"2.193,84 €","","",,Não aplicável.,Não aplicável.,FALSE
40014/2013 - Aquisição de Reagentes para Bioquímica/Urgência,Ajuste Direto Regime Geral,Aquisição de bens móveis,"33600000-6, Produtos farmacêuticos","Centro Hospitalar Barreiro Montijo, E. P. E. (509186998)","IZASA PORTUGAL - DIST. TEC., L (501086110)","2.941,18 €",21-03-2014,29-01-2013,90 dias,"Portugal, Setúbal, Barreiro","Artigo 24.º, n.º 1, alínea c) do Código dos Contratos Públicos",14-03-2013,"2.941,18 €","","",,Não aplicável.,Não aplicável.,FALSE
Aquisição de Medicamentos,Concurso público,Aquisição de bens móveis,"33600000-6, Produtos farmacêuticos","Centro Hospitalar Barreiro Montijo, E. P. E. (509186998)","DNA Pharma, Lda (508917654)","90.750,00 €",21-03-2014,16-01-2013,360 dias,"Portugal, Setúbal, Barreiro","Artigo 20.º, n.º 1, alínea b) do Código dos Contratos Públicos",31-12-2013,"64.640,00 €","",Redução de Consumo,,Não aplicável.,Não aplicável.,FALSE
Tiras Determinação Glicemia e Determinação Corpos Cetonicos,Concurso público,Aquisição de bens móveis,"33692000-7, Soluções medicinais","Centro Hospitalar Barreiro Montijo, E. P. E. (509186998)","Abbott Laboratorios, Lda (500006148)","34.000,00 €",21-03-2014,02-01-2013,360 dias,"Portugal, Setúbal, Barreiro","Artigo 20.º, n.º 1, alínea b) do Código dos Contratos Públicos",31-12-2013,"31.500,00 €","",Redução de Consumo,,Não aplicável.,Não aplicável.,FALSE
110014/2013 FORNECIMENTO DE SACOS DE SANGUE,Concurso público,Aquisição de bens móveis,"33141613-0, Sacos para sangue","Centro Hospitalar Barreiro Montijo, E. P. E. (509186998)",FENWAL EUROPE SPRL (980362679),"65.001,96 €",21-03-2014,14-02-2013,360 dias,"Portugal, Setúbal, Barreiro","Artigo 20.º, n.º 1, alínea b) do Código dos Contratos Públicos",31-12-2013,"65.001,96 €","","",,Não aplicável.,Não aplicável.,FALSE
Aquisição de Medicamentos,Ajuste Direto Regime Geral,Aquisição de bens móveis,"33000000-0, Equipamento médico, medicamentos e produtos para cuidados pessoais","Centro Hospitalar Barreiro Montijo, E. P. E. (509186998)",Astra Zeneca (502942240),"10.500,00 €",21-03-2014,09-04-2013,20 dias,"Portugal, Setúbal, Barreiro","Artigo 24.º, n.º 1, alínea e) do Código dos Contratos Públicos",29-04-2013,"10.500,00 €","","",,Não aplicável.,Não aplicável.,FALSE
Aquisição de Medicamentos,Ajuste Direto Regime Geral,Aquisição de bens móveis,"33000000-0, Equipamento médico, medicamentos e produtos para cuidados pessoais","Centro Hospitalar Barreiro Montijo, E. P. E. (509186998)",Bristol-Myers Squibb (500048193),"21.250,00 €",21-03-2014,15-04-2013,20 dias,"Portugal, Setúbal, Barreiro","Artigo 24.º, n.º 1, alínea e) do Código dos Contratos Públicos",03-05-2013,"21.250,00 €","","",,Não aplicável.,Não aplicável.,FALSE
Aquisição de Medicamentos,Ajuste Direto Regime Geral,Aquisição de bens móveis,"33000000-0, Equipamento médico, medicamentos e produtos para cuidados pessoais","Centro Hospitalar Barreiro Montijo, E. P. E. (509186998)",Merck (500650870),"35.542,00 €",21-03-2014,31-05-2013,360 dias,"Portugal, Setúbal, Barreiro","Artigo 24.º, n.º 1, alínea e) do Código dos Contratos Públicos",13-06-2013,"35.542,00 €","","",,Não aplicável.,Não aplicável.,FALSE
Aquisição de Medicamentos,Ajuste Direto Regime Geral,Aquisição de bens móveis,"33000000-0, Equipamento médico, medicamentos e produtos para cuidados pessoais","Centro Hospitalar Barreiro Montijo, E. P. E. (509186998)",Celgene (507791690),"5.417,14 €",21-03-2014,30-05-2013,360 dias,"Portugal, Setúbal, Barreiro","Artigo 24.º, n.º 1, alínea e) do Código dos Contratos Públicos",31-12-2013,"5.417,14 €","","",,Não aplicável.,Não aplicável.,FALSE
Aquisição de Medicamentos,Ajuste Direto Regime Geral,Aquisição de bens móveis,"33000000-0, Equipamento médico, medicamentos e produtos para cuidados pessoais","Centro Hospitalar Barreiro Montijo, E. P. E. (509186998)",Bristol-Myers Squibb (500048193),"21.250,00 €",21-03-2014,06-05-2013,360 dias,"Portugal, Setúbal, Barreiro","Artigo 24.º, n.º 1, alínea e) do Código dos Contratos Públicos",31-12-2013,"21.250,00 €","","",,Não aplicável.,Não aplicável.,FALSE
Aquisição de Medicamentos,Ajuste Direto Regime Geral,Aquisição de bens móveis,"33000000-0, Equipamento médico, medicamentos e produtos para cuidados pessoais","Centro Hospitalar Barreiro Montijo, E. P. E. (509186998)",Bristol-Myers Squibb (500048193),"17.000,00 €",21-03-2014,12-06-2013,20 dias,"Portugal, Setúbal, Barreiro","Artigo 24.º, n.º 1, alínea e) do Código dos Contratos Públicos",02-07-2013,"17.000,00 €","","",,Não aplicável.,Não aplicável.,FALSE
Aquisição de Medicamentos,Ajuste Direto Regime Geral,Aquisição de bens móveis,"33000000-0, Equipamento médico, medicamentos e produtos para cuidados pessoais","Centro Hospitalar Barreiro Montijo, E. P. E. (509186998)",Merck Farma (500650870),"5.194,28 €",21-03-2014,12-06-2013,360 dias,"Portugal, Setúbal, Barreiro","Artigo 24.º, n.º 1, alínea e) do Código dos Contratos Públicos",31-12-2013,"5.194,28 €","","",,Não aplicável.,Não aplicável.,FALSE
Aquisição de Medicamentos,Ajuste Direto Regime Geral,Aquisição de bens móveis,"33000000-0, Equipamento médico, medicamentos e produtos para cuidados pessoais","Centro Hospitalar Barreiro Montijo, E. P. E. (509186998)","Celgene, Lda (507791690)","24.000,00 €",21-03-2014,16-09-2013,360 dias,"Portugal, Setúbal, Barreiro","Artigo 24.º, n.º 1, alínea e) do Código dos Contratos Públicos",31-12-2013,"24.000,00 €","","",,Não aplicável.,Não aplicável.,FALSE
Aquisição de Medicamentos,Ajuste Direto Regime Geral,Aquisição de bens móveis,"33000000-0, Equipamento médico, medicamentos e produtos para cuidados pessoais","Centro Hospitalar Barreiro Montijo, E. P. E. (509186998)","Unilfarma, Lda (500293023)","5.661,35 €",21-03-2014,06-08-2013,360 dias,"Portugal, Setúbal, Barreiro","Artigo 24.º, n.º 1, alínea e) do Código dos Contratos Públicos",31-12-2013,"5.531,15 €","",Diminuição de Consumo,,Não aplicável.,Não aplicável.,FALSE
Aquisição de Medicamentos,Ajuste Direto Regime Geral,Aquisição de bens móveis,"33000000-0, Equipamento médico, medicamentos e produtos para cuidados pessoais","Centro Hospitalar Barreiro Montijo, E. P. E. (509186998)",Novartis Farma (500063524),"21.287,55 €",21-03-2014,30-07-2013,360 dias,"Portugal, Setúbal, Barreiro","Artigo 24.º, n.º 1, alínea e) do Código dos Contratos Públicos",31-12-2013,"21.287,55 €","","",,Não aplicável.,Não aplicável.,FALSE
Aquisição de Medicamentos,Ajuste Direto Regime Geral,Aquisição de bens móveis,"33000000-0, Equipamento médico, medicamentos e produtos para cuidados pessoais","Centro Hospitalar Barreiro Montijo, E. P. E. (509186998)",Amgen (502942959),"17.492,40 €",21-03-2014,24-06-2013,360 dias,"Portugal, Setúbal, Barreiro","Artigo 24.º, n.º 1, alínea e) do Código dos Contratos Públicos",31-12-2013,"17.492,40 €","","",,Não aplicável.,Não aplicável.,FALSE
Aquisição de Medicamentos,Ajuste Direto Regime Geral,Aquisição de bens móveis,"33000000-0, Equipamento médico, medicamentos e produtos para cuidados pessoais","Centro Hospitalar Barreiro Montijo, E. P. E. (509186998)",Gambro (980367751),"25.400,00 €",21-03-2014,28-08-2013,360 dias,"Portugal, Setúbal, Barreiro","Artigo 24.º, n.º 1, alínea e) do Código dos Contratos Públicos",31-12-2013,"25.400,00 €","","",,Não aplicável.,Não aplicável.,FALSE
Aquisição de Medicamentos,Ajuste Direto Regime Geral,Aquisição de bens móveis,"33000000-0, Equipamento médico, medicamentos e produtos para cuidados pessoais","Centro Hospitalar Barreiro Montijo, E. P. E. (509186998)","Medirex Pharma, Lda (507026004)","11.360,00 €",21-03-2014,24-06-2013,360 dias,"Portugal, Setúbal, Barreiro","Artigo 24.º, n.º 1, alínea e) do Código dos Contratos Públicos",31-12-2013,"11.360,00 €","","",,Não aplicável.,Não aplicável.,FALSE
Aquisição de Medicamentos,Ajuste Direto Regime Geral,Aquisição de bens móveis,"33000000-0, Equipamento médico, medicamentos e produtos para cuidados pessoais","Centro Hospitalar Barreiro Montijo, E. P. E. (509186998)",Celgene (507791690),"5.015,60 €",21-03-2014,14-03-2013,20 dias,"Portugal, Setúbal, Barreiro","Artigo 24.º, n.º 1, alínea e) do Código dos Contratos Públicos",29-03-2013,"5.015,60 €","","",,Não aplicável.,Não aplicável.,FALSE
Aquisição de medicamentos,Ajuste Direto Regime Geral,Aquisição de bens móveis,"33000000-0, Equipamento médico, medicamentos e produtos para cuidados pessoais","Centro Hospitalar Barreiro Montijo, E. P. E. (509186998)",Bristol-Myers Squibb (500048193),"21.250,00 €",21-03-2014,08-03-2013,20 dias,"Portugal, Setúbal, Barreiro","Artigo 24.º, n.º 1, alínea e) do Código dos Contratos Públicos",28-03-2013,"21.250,00 €","","",,Não aplicável.,Não aplicável.,FALSE
Aquisição de Medicamentos,Ajuste Direto Regime Geral,Aquisição de bens móveis,"33000000-0, Equipamento médico, medicamentos e produtos para cuidados pessoais","Centro Hospitalar Barreiro Montijo, E. P. E. (509186998)",Bristol-Myers Squibb (500048193),"21.250,00 €",21-03-2014,25-02-2013,20 dias,"Portugal, Setúbal, Barreiro","Artigo 24.º, n.º 1, alínea e) do Código dos Contratos Públicos",15-03-2013,"21.250,00 €","","",,Não aplicável.,Não aplicável.,FALSE
Aquisição de Medicamentos,Ajuste Direto Regime Geral,Aquisição de bens móveis,"33000000-0, Equipamento médico, medicamentos e produtos para cuidados pessoais","Centro Hospitalar Barreiro Montijo, E. P. E. (509186998)",Janssen (500189412),"22.194,48 €",21-03-2014,14-02-2013,20 dias,"Portugal, Setúbal, Barreiro","Artigo 24.º, n.º 1, alínea e) do Código dos Contratos Públicos",28-02-2013,"22.194,48 €","","",,Não aplicável.,Não aplicável.,FALSE
4SEX0016/2013 - RENOVAÇÃO DA ASSINATURA ONLINE MD CONSULT + FIRST CONSULT,Ajuste Direto Regime Geral,Aquisição de serviços,"72410000-7, Serviços de fornecimento","Centro Hospitalar Barreiro Montijo, E. P. E. (509186998)",LUSODOC (502609982),"10.813,50 €",21-03-2014,19-02-2013,365 dias,"Portugal, Setúbal, Barreiro","Artigo 24.º, n.º 1, alínea e) do Código dos Contratos Públicos",31-12-2013,"10.813,50 €","","",,Não aplicável.,Não aplicável.,FALSE
Aquisição de Medicamentos,Ajuste Direto Regime Geral,Aquisição de bens móveis,"33000000-0, Equipamento médico, medicamentos e produtos para cuidados pessoais","Centro Hospitalar Barreiro Montijo, E. P. E. (509186998)",Janssen (500189412),"6.670,92 €",21-03-2014,12-02-2013,360 dias,"Portugal, Setúbal, Barreiro","Artigo 24.º, n.º 1, alínea e) do Código dos Contratos Públicos",31-12-2013,"6.670,92 €","","",,Não aplicável.,Não aplicável.,FALSE
Aquisição de Medicamentos,Ajuste Direto Regime Geral,Aquisição de bens móveis,"33000000-0, Equipamento médico, medicamentos e produtos para cuidados pessoais","Centro Hospitalar Barreiro Montijo, E. P. E. (509186998)",Merck Farma (500650870),"5.194,77 €",21-03-2014,11-02-2013,360 dias,"Portugal, Setúbal, Barreiro","Artigo 24.º, n.º 1, alínea e) do Código dos Contratos Públicos",31-12-2013,"5.194,77 €","","",,Não aplicável.,Não aplicável.,FALSE
Aquisição de Medicamentos,Ajuste Direto Regime Geral,Aquisição de bens móveis,"33000000-0, Equipamento médico, medicamentos e produtos para cuidados pessoais","Centro Hospitalar Barreiro Montijo, E. P. E. (509186998)",Bristol-Myers Squibb (500048193),"47.289,00 €",21-03-2014,07-02-2013,20 dias,"Portugal, Setúbal, Barreiro","Artigo 24.º, n.º 1, alínea e) do Código dos Contratos Públicos",28-02-2013,"47.289,00 €","","",,Não aplicável.,Não aplicável.,FALSE
Aquisição de Medicamentos,Ajuste Direto Regime Geral,Aquisição de bens móveis,"33000000-0, Equipamento médico, medicamentos e produtos para cuidados pessoais","Centro Hospitalar Barreiro Montijo, E. P. E. (509186998)",Biogen (506415740),"6.199,44 €",21-03-2014,11-02-2013,10 dias,"Portugal, Setúbal, Barreiro","Artigo 24.º, n.º 1, alínea e) do Código dos Contratos Públicos",26-02-2013,"6.199,44 €","","",,Não aplicável.,Não aplicável.,FALSE
4SEX0027/2013 - REPARAÇÃO DE COLONOSCOPIO,Ajuste Direto Regime Geral,Aquisição de serviços,"50000000-5, Serviços de reparação e manutenção","Centro Hospitalar Barreiro Montijo, E. P. E. (509186998)",OLYMPUS IBERIA S.A.U. (980474710),"5.238,35 €",21-03-2014,08-08-2013,30 dias,"Portugal, Setúbal, Barreiro","Artigo 24.º, n.º 1, alínea e) do Código dos Contratos Públicos",29-08-2013,"5.238,35 €","","",,Não aplicável.,Não aplicável.,FALSE
Aquisição de Medicamentos,Ajuste Direto Regime Geral,Aquisição de bens móveis,"33000000-0, Equipamento médico, medicamentos e produtos para cuidados pessoais","Centro Hospitalar Barreiro Montijo, E. P. E. (509186998)","Gilead Sciences, Lda (503604704)","40.946,10 €",21-03-2014,22-01-2013,360 dias,"Portugal, Setúbal, Barreiro","Artigo 24.º, n.º 1, alínea e) do Código dos Contratos Públicos",31-12-2013,"40.946,10 €","","",,Não aplicável.,Não aplicável.,FALSE
Aquisição de Medicamentos,Ajuste Direto Regime Geral,Aquisição de bens móveis,"33000000-0, Equipamento médico, medicamentos e produtos para cuidados pessoais","Centro Hospitalar Barreiro Montijo, E. P. E. (509186998)","Gilead Sciences, Lda (503604704)","14.060,16 €",21-03-2014,22-01-2013,360 dias,"Portugal, Setúbal, Barreiro","Artigo 24.º, n.º 1, alínea e) do Código dos Contratos Públicos",31-12-2013,"14.060,16 €","","",,Não aplicável.,Não aplicável.,FALSE
4SEX0028/2013 - REPARAÇÃO DE DUODENOSCOPIO,Ajuste Direto Regime Geral,Aquisição de serviços,"50000000-5, Serviços de reparação e manutenção","Centro Hospitalar Barreiro Montijo, E. P. E. (509186998)",OLYMPUS IBERIA S.A.U. (980474710),"6.852,62 €",21-03-2014,10-09-2013,60 dias,"Portugal, Setúbal, Barreiro","Artigo 24.º, n.º 1, alínea e) do Código dos Contratos Públicos",29-11-2013,"6.852,62 €","","",,Não aplicável.,Não aplicável.,FALSE
Aquisição de Medicamentos,Ajuste Direto Regime Geral,Aquisição de bens móveis,"33000000-0, Equipamento médico, medicamentos e produtos para cuidados pessoais","Centro Hospitalar Barreiro Montijo, E. P. E. (509186998)",Gambro (980367751),"15.228,00 €",21-03-2014,09-04-2013,360 dias,"Portugal, Setúbal, Barreiro","Artigo 24.º, n.º 1, alínea e) do Código dos Contratos Públicos",31-12-2013,"15.228,00 €","","",,Não aplicável.,Não aplicável.,FALSE
4DS0395/2013 - REPARAÇÃO SCHILLER N.º 2 - RADIOTERAPIA,Ajuste Direto Regime Geral,Aquisição de serviços,"50000000-5, Serviços de reparação e manutenção","Centro Hospitalar Barreiro Montijo, E. P. E. (509186998)",JOHNSON CONTROLS (505206790),"8.243,50 €",20-03-2014,02-09-2013,30 dias,"Portugal, Setúbal, Barreiro","Artigo 24.º, n.º 1, alínea e) do Código dos Contratos Públicos",25-09-2013,"8.243,50 €","","",,Não aplicável.,Não aplicável.,FALSE
40019/2013 - Aquisição de Reagentes para Bioquímica/Urgência,Ajuste Direto Regime Geral,Aquisição de bens móveis,"33600000-6, Produtos farmacêuticos","Centro Hospitalar Barreiro Montijo, E. P. E. (509186998)","PHADIA, SOCIEDADE UNIPESSOAL, LDA. (506916243)","4.423,55 €",20-03-2014,19-03-2013,150 dias,"Portugal, Setúbal, Barreiro","Artigo 24.º, n.º 1, alínea c) do Código dos Contratos Públicos",02-08-2013,"4.423,55 €","","",,Não aplicável.,Não aplicável.,FALSE
40019/2013 - Aquisição de Reagentes para Bioquimica/Urgência,Ajuste Direto Regime Geral,Aquisição de bens móveis,"33600000-6, Produtos farmacêuticos","Centro Hospitalar Barreiro Montijo, E. P. E. (509186998)","MENARINI DIAGNOSTICOS, LDA. (502610069)","2.280,00 €",20-03-2014,19-03-2013,150 dias,"Portugal, Setúbal, Barreiro","Artigo 24.º, n.º 1, alínea c) do Código dos Contratos Públicos",02-08-2013,"2.280,00 €","","",,Não aplicável.,Não aplicável.,FALSE
4DS0230/2013 - REPARAÇÃO HISTEROSCOPIO,Ajuste Direto Regime Geral,Aquisição de serviços,"50000000-5, Serviços de reparação e manutenção","Centro Hospitalar Barreiro Montijo, E. P. E. (509186998)",OLYMPUS IBERIA S.A.U. (980474710),"5.102,22 €",20-03-2014,14-06-2013,30 dias,"Portugal, Setúbal, Barreiro","Artigo 24.º, n.º 1, alínea e) do Código dos Contratos Públicos",16-07-2013,"5.102,22 €","","",,Não aplicável.,Não aplicável.,FALSE
40019/2013 - Aquisição de Reagentes para Bioquímica/Urgência,Ajuste Direto Regime Geral,Aquisição de bens móveis,"33600000-6, Produtos farmacêuticos","Centro Hospitalar Barreiro Montijo, E. P. E. (509186998)","VIDROLAB 2 - VID MAT LABORAT, SA (501450629)","46,15 €",20-03-2014,19-03-2013,150 dias,"Portugal, Setúbal, Barreiro","Artigo 24.º, n.º 1, alínea c) do Código dos Contratos Públicos",02-08-2013,"46,15 €","","",,Não aplicável.,Não aplicável.,FALSE
40019/2013 - Aquisição de Reagentes para Bioquímica/Urgência,Ajuste Direto Regime Geral,Aquisição de bens móveis,"33600000-6, Produtos farmacêuticos","Centro Hospitalar Barreiro Montijo, E. P. E. (509186998)","ROCHE SISTEMAS DE DIAGNOSTICO-SOC. UNIPESSOAL, Lda (504282921)","58.887,03 €",20-03-2014,19-03-2013,150 dias,"Portugal, Setúbal, Barreiro","Artigo 24.º, n.º 1, alínea c) do Código dos Contratos Públicos",02-08-2013,"58.887,03 €","","",,Não aplicável.,Não aplicável.,FALSE
Aquisição de Medicamentos,Ajuste Direto Regime Geral,Aquisição de bens móveis,"33000000-0, Equipamento médico, medicamentos e produtos para cuidados pessoais","Centro Hospitalar Barreiro Montijo, E. P. E. (509186998)",Octapharma (502820780),"68.400,00 €",20-03-2014,28-03-2013,360 dias,"Portugal, Setúbal, Barreiro","Artigo 24.º, n.º 1, alínea e) do Código dos Contratos Públicos",31-12-2013,"67.942,50 €","",Redução de consumo,,Não aplicável.,Não aplicável.,FALSE
40019/2013 - Aquisição de Reagentes para Bioquimica/Urgência,Ajuste Direto Regime Geral,Aquisição de bens móveis,"33600000-6, Produtos farmacêuticos","Centro Hospitalar Barreiro Montijo, E. P. E. (509186998)","BDPL CIENTIFICA-REAGENT INSTRUMENT P/LAB., LDª (504527584)","147,69 €",20-03-2014,19-03-2013,150 dias,"Portugal, Setúbal, Barreiro","Artigo 24.º, n.º 1, alínea c) do Código dos Contratos Públicos",02-08-2013,"147,69 €","","",,Não aplicável.,Não aplicável.,FALSE
Aquisição de reagentes para Bioquímica/Urgência,Ajuste Direto Regime Geral,Aquisição de bens móveis,"33600000-6, Produtos farmacêuticos","Centro Hospitalar Barreiro Montijo, E. P. E. (509186998)",Siemens Healthcare (507925173),"345,00 €",20-03-2014,19-03-2013,150 dias,"Portugal, Setúbal, Barreiro","Artigo 24.º, n.º 1, alínea c) do Código dos Contratos Públicos",05-04-2013,"115,00 €","",previsão superior à necessidade,,Não aplicável.,Não aplicável.,FALSE
40019/2013 - Aquisição de Reagentes para Bioquímica/Urgência,Ajuste Direto Regime Geral,Aquisição de bens móveis,"33600000-6, Produtos farmacêuticos","Centro Hospitalar Barreiro Montijo, E. P. E. (509186998)",IZASA PORTUGAL (501086110),"4.242,73 €",20-03-2014,19-03-2013,150 dias,"Portugal, Setúbal, Barreiro","Artigo 24.º, n.º 1, alínea c) do Código dos Contratos Públicos",02-08-2013,"4.242,73 €","","",,Não aplicável.,Não aplicável.,FALSE
"4SEX0018/2013 - CONTRATO E MANUTENÇÃO DE SOFTWARE APLICACIONAL - HS-ANAPAT, HS-TRIAGEM, HS-GIH",Ajuste Direto Regime Geral,Aquisição de serviços,"50000000-5, Serviços de reparação e manutenção","Centro Hospitalar Barreiro Montijo, E. P. E. (509186998)",GLINTT HEALTHCARE SOLUTIONS SA (502479418),"6.947,35 €",20-03-2014,04-02-2013,365 dias,"Portugal, Setúbal, Barreiro","Artigo 24.º, n.º 1, alínea e) do Código dos Contratos Públicos",31-12-2013,"6.947,35 €","","",,Não aplicável.,Não aplicável.,FALSE
Aquisição de medicamentos,Ajuste Direto Regime Geral,Aquisição de bens móveis,"33000000-0, Equipamento médico, medicamentos e produtos para cuidados pessoais","Centro Hospitalar Barreiro Montijo, E. P. E. (509186998)",DLA Farmaceutica (503894427),"5.015,60 €",20-03-2014,20-03-2013,360 dias,"Portugal, Setúbal, Barreiro","Artigo 24.º, n.º 1, alínea e) do Código dos Contratos Públicos",31-12-2013,"5.015,60 €","","",,Não aplicável.,Não aplicável.,FALSE
40016/2013 - Aquisição de Reagentes para Biologia Molecular,Ajuste Direto Regime Geral,Aquisição de bens móveis,"33600000-6, Produtos farmacêuticos","Centro Hospitalar Barreiro Montijo, E. P. E. (509186998)",Roche Sistemas de Diagnóstico - Sociedade Unipessoal (504282921),"28.224,00 €",20-03-2014,06-02-2013,60 dias,"Portugal, Setúbal, Barreiro","Artigo 24.º, n.º 1, alínea c) do Código dos Contratos Públicos",28-03-2013,"35.568,00 €","",Quantidades necessarias superiores às quantidades previstas,,Não aplicável.,Não aplicável.,FALSE
Aquisição de medicamentos,Ajuste Direto Regime Geral,Aquisição de bens móveis,"33000000-0, Equipamento médico, medicamentos e produtos para cuidados pessoais","Centro Hospitalar Barreiro Montijo, E. P. E. (509186998)",Gilead Sciences (503604704),"77.430,88 €",20-03-2014,25-03-2013,360 dias,"Portugal, Setúbal, Barreiro","Artigo 24.º, n.º 1, alínea e) do Código dos Contratos Públicos",31-12-2013,"47.618,04 €","",Redução de consumo,,Não aplicável.,Não aplicável.,FALSE
Aquisição de medicamentos,Ajuste Direto Regime Geral,Aquisição de bens móveis,"33000000-0, Equipamento médico, medicamentos e produtos para cuidados pessoais","Centro Hospitalar Barreiro Montijo, E. P. E. (509186998)",Laboratorios Pfizer (500162166),"18.139,40 €",20-03-2014,25-03-2013,360 dias,"Portugal, Setúbal, Barreiro","Artigo 24.º, n.º 1, alínea e) do Código dos Contratos Públicos",31-12-2013,"17.112,00 €","",Redução consumos,,Não aplicável.,Não aplicável.,FALSE
Aquisição de medicamentos,Ajuste Direto Regime Geral,Aquisição de bens móveis,"33000000-0, Equipamento médico, medicamentos e produtos para cuidados pessoais","Centro Hospitalar Barreiro Montijo, E. P. E. (509186998)",Eusa Pharma SA (980376580),"13.750,00 €",20-03-2014,30-05-2013,360 dias,"Portugal, Setúbal, Barreiro","Artigo 24.º, n.º 1, alínea e) do Código dos Contratos Públicos",31-12-2013,"13.750,00 €","","",,Não aplicável.,Não aplicável.,FALSE
Aquisição de medicamentos,Ajuste Direto Regime Geral,Aquisição de bens móveis,"33000000-0, Equipamento médico, medicamentos e produtos para cuidados pessoais","Centro Hospitalar Barreiro Montijo, E. P. E. (509186998)",Nycomed (502801204),"8.466,00 €",20-03-2014,22-01-2013,306 dias,"Portugal, Setúbal, Barreiro","Artigo 24.º, n.º 1, alínea e) do Código dos Contratos Públicos",31-12-2013,"8.462,80 €","",Redução de consumo,,Não aplicável.,Não aplicável.,FALSE
Aquisição de Medicamentos,Ajuste Direto Regime Geral,Aquisição de bens móveis,"33000000-0, Equipamento médico, medicamentos e produtos para cuidados pessoais","Centro Hospitalar Barreiro Montijo, E. P. E. (509186998)",Gilead (503604704),"238.820,69 €",20-03-2014,24-01-2013,360 dias,"Portugal, Setúbal, Barreiro","Artigo 24.º, n.º 1, alínea e) do Código dos Contratos Públicos",31-12-2013,"238.820,69 €","","",,Não aplicável.,Não aplicável.,FALSE
40002/2013 - Controlos de Qualidade externo,Ajuste Direto Regime Geral,Aquisição de bens móveis,"33600000-6, Produtos farmacêuticos","Centro Hospitalar Barreiro Montijo, E. P. E. (509186998)",Inst. Nac. Dr. Ricardo Jorge (501427511),"2.799,00 €",20-03-2014,20-02-2013,360 dias,"Portugal, Setúbal, Barreiro","Artigo 20.º, n.º 1, alínea a) do Código dos Contratos Públicos",31-12-2013,"2.799,00 €","","",,Não aplicável.,Não aplicável.,FALSE
40002/2013 - Controlos de Qualidade Externo,Ajuste Direto Regime Geral,Aquisição de bens móveis,"33600000-6, Produtos farmacêuticos","Centro Hospitalar Barreiro Montijo, E. P. E. (509186998)",Bio-Rad (501301321),"770,00 €",20-03-2014,20-02-2013,360 dias,"Portugal, Setúbal, Barreiro","Artigo 20.º, n.º 1, alínea a) do Código dos Contratos Públicos",31-12-2013,"770,00 €","","",,Não aplicável.,Não aplicável.,FALSE
40002/2013 - Controlos de Qualidade Externo,Ajuste Direto Regime Geral,Aquisição de bens móveis,"33600000-6, Produtos farmacêuticos","Centro Hospitalar Barreiro Montijo, E. P. E. (509186998)",Irlandox (502515619),"769,70 €",20-03-2014,20-02-2013,360 dias,"Portugal, Setúbal, Barreiro","Artigo 20.º, n.º 1, alínea a) do Código dos Contratos Públicos",31-12-2013,"769,70 €","","",,Não aplicável.,Não aplicável.,FALSE
40002/2013 - controlos de Qualidade Externo,Ajuste Direto Regime Geral,Aquisição de bens móveis,"33600000-6, Produtos farmacêuticos","Centro Hospitalar Barreiro Montijo, E. P. E. (509186998)",Biognostica  (504441256),"5.368,00 €",20-03-2014,20-02-2013,360 dias,"Portugal, Setúbal, Barreiro","Artigo 20.º, n.º 1, alínea a) do Código dos Contratos Públicos",31-12-2013,"5.368,00 €","","",,Não aplicável.,Não aplicável.,FALSE
Aquisição de Medicamentos,Ajuste Direto Regime Geral,Aquisição de bens móveis,"33000000-0, Equipamento médico, medicamentos e produtos para cuidados pessoais","Centro Hospitalar Barreiro Montijo, E. P. E. (509186998)",Johnson & Johnson (500153370),"5.209,65 €",20-03-2014,22-01-2013,360 dias,"Portugal, Setúbal, Barreiro","Artigo 24.º, n.º 1, alínea e) do Código dos Contratos Públicos",31-12-2013,"5.209,65 €","","",,Não aplicável.,Não aplicável.,FALSE
Aquisição de Medicamentos,Ajuste Direto Regime Geral,Aquisição de bens móveis,"33000000-0, Equipamento médico, medicamentos e produtos para cuidados pessoais","Centro Hospitalar Barreiro Montijo, E. P. E. (509186998)","Etiopharma, SA (509393357)","8.808,00 €",20-03-2014,18-01-2013,360 dias,"Portugal, Setúbal, Barreiro","Artigo 24.º, n.º 1, alínea e) do Código dos Contratos Públicos",31-12-2013,"6.180,00 €","",Diminuição de consumo,,Não aplicável.,Não aplicável.,FALSE
4SEX0015/2013 - Aquisição de Gás Natural,Ajuste Direto Regime Geral,Aquisição de bens móveis,"09123000-7, Gás natural","Centro Hospitalar Barreiro Montijo, E. P. E. (509186998)","Galp Gás Natural, S.A. (503103616)","342.000,00 €",20-03-2014,04-01-2013,365 dias,"Portugal, Setúbal, Barreiro","Artigo 24.º, n.º 1, alínea e) do Código dos Contratos Públicos",31-12-2013,"364.482,23 €","",Consumo real superior ao valor estimado,,Não aplicável.,Não aplicável.,FALSE
Aquisição de medicamentos,Ajuste Direto Regime Geral,Aquisição de bens móveis,"33000000-0, Equipamento médico, medicamentos e produtos para cuidados pessoais","Centro Hospitalar Barreiro Montijo, E. P. E. (509186998)",B.Braun Medical (501506543),"5.894,40 €",20-03-2014,16-01-2013,360 dias,"Portugal, Setúbal, Barreiro","Artigo 24.º, n.º 1, alínea e) do Código dos Contratos Públicos",31-12-2013,"5.894,40 €","","",,Não aplicável.,Não aplicável.,FALSE
Aquisição de medicamentos,Ajuste Direto Regime Geral,Aquisição de bens móveis,"33000000-0, Equipamento médico, medicamentos e produtos para cuidados pessoais","Centro Hospitalar Barreiro Montijo, E. P. E. (509186998)",laboratorios Casen (508538521),"7.000,00 €",20-03-2014,16-01-2013,360 dias,"Portugal, Setúbal, Barreiro","Artigo 24.º, n.º 1, alínea e) do Código dos Contratos Públicos",31-12-2013,"6.992,53 €","",Diminuição de consumo,,Não aplicável.,Não aplicável.,FALSE
Aquisição de medicamentos,Ajuste Direto Regime Geral,Aquisição de bens móveis,"33000000-0, Equipamento médico, medicamentos e produtos para cuidados pessoais","Centro Hospitalar Barreiro Montijo, E. P. E. (509186998)",Ferring Produtos Farmaceuticos (502034831),"7.345,40 €",20-03-2014,16-01-2013,360 dias,"Portugal, Setúbal, Barreiro","Artigo 24.º, n.º 1, alínea e) do Código dos Contratos Públicos",31-12-2013,"7.345,40 €","","",,Não aplicável.,Não aplicável.,FALSE
Aquisição de medicamentos,Ajuste Direto Regime Geral,Aquisição de bens móveis,"33000000-0, Equipamento médico, medicamentos e produtos para cuidados pessoais","Centro Hospitalar Barreiro Montijo, E. P. E. (509186998)","Orionfin Unipessoal, Lda (508907365)","7.396,00 €",20-03-2014,16-01-2013,360 dias,"Portugal, Setúbal, Barreiro","Artigo 24.º, n.º 1, alínea e) do Código dos Contratos Públicos",31-12-2013,"11.625,53 €","",Aumento de consumo,,Não aplicável.,Não aplicável.,FALSE
Aquisição de medicamentos,Ajuste Direto Regime Geral,Aquisição de bens móveis,"33000000-0, Equipamento médico, medicamentos e produtos para cuidados pessoais","Centro Hospitalar Barreiro Montijo, E. P. E. (509186998)",Labesfal (501169580),"7.625,50 €",20-03-2014,16-01-2014,360 dias,"Portugal, Setúbal, Barreiro","Artigo 24.º, n.º 1, alínea e) do Código dos Contratos Públicos",31-12-2013,"7.567,00 €","",Baixa de consumo,,Não aplicável.,Não aplicável.,FALSE
Aquisição de Medicamentos,Ajuste Direto Regime Geral,Aquisição de bens móveis,"33000000-0, Equipamento médico, medicamentos e produtos para cuidados pessoais","Centro Hospitalar Barreiro Montijo, E. P. E. (509186998)","Laboratorios Atral, SA (500162085)","12.828,00 €",20-03-2014,22-01-2013,360 dias,"Portugal, Setúbal, Barreiro","Artigo 24.º, n.º 1, alínea e) do Código dos Contratos Públicos",31-12-2013,"17.859,00 €","",Aumento de consumo,,Não aplicável.,Não aplicável.,FALSE
Fornecimento de medicamentos,Ajuste Direto Regime Geral,Aquisição de bens móveis,"33000000-0, Equipamento médico, medicamentos e produtos para cuidados pessoais","Centro Hospitalar Barreiro Montijo, E. P. E. (509186998)",Imexclinic (980426863),"12.950,00 €",20-03-2014,23-01-2013,360 dias,"Portugal, Setúbal, Barreiro","Artigo 24.º, n.º 1, alínea e) do Código dos Contratos Públicos",31-12-2013,"12.950,00 €","","",,Não aplicável.,Não aplicável.,FALSE
4S0009/2013 - Fornecimento de energia electrica de Janeiro a Março de 2013,Ajuste Direto Regime Geral,Aquisição de bens móveis,"09310000-5, Electricidade","Centro Hospitalar Barreiro Montijo, E. P. E. (509186998)","EDP Comercial - Comercialização de energia, S.A. (503504564)","94.087,21 €",19-03-2014,11-01-2013,90 dias,"Portugal, Setúbal, Barreiro","Artigo 24.º, n.º 1, alínea c) do Código dos Contratos Públicos",31-03-2013,"131.920,88 €","",Necessidade de reforçar o mes de Março,,Não aplicável.,Não aplicável.,FALSE
Fornecimento de energia electrica,Ao abrigo de acordo-quadro (art.º 259.º),Aquisição de bens móveis,"09310000-5, Electricidade","Centro Hospitalar Barreiro Montijo, E. P. E. (509186998)",EDP Comercial  (503504564),"585.804,10 €",19-03-2014,14-03-2013,275 dias,"Portugal, Setúbal, Barreiro",Artigo 259.º do Código dos Contratos Públicos,31-12-2013,"409.424,78 €","",Estimativa para 12 meses mas apenas se adjudicou 9 meses,,314294,Acordo quadro para o fornecimento de electricidade em regime de mercado livre para Portugal Continental,FALSE
IMPERMEABILIZAÇAO ZONA POSTO TRANSFORMAÇAO E OFICINAS,Ajuste Direto Regime Geral,Concessão de obras públicas,"45320000-6, Obras de isolamento","Centro Hospitalar Barreiro Montijo, E. P. E. (509186998)",PSIDELTA SERVIÇOS TECNICOS ENGENHARIA UNIP LDA (506283674),"6.385,00 €",19-03-2014,29-01-2014,8 dias,"Portugal, Setúbal, Barreiro","Artigo 25.º, n.º 1, alínea c) do Código dos Contratos Públicos","","6.385,00 €",ATRASOS NA CONCLUSAO DA OBRA,"",,Não aplicável.,Não aplicável.,FALSE
TAMPO P MESA PACIENTE,Ajuste Direto Regime Geral,Aquisição de bens móveis,"33000000-0, Equipamento médico, medicamentos e produtos para cuidados pessoais","Centro Hospitalar Barreiro Montijo, E. P. E. (509186998)",VARIAN MEDICAL SYSTEMS IBERICA SL (980236436),"71.286,39 €",19-03-2014,17-03-2014,10 dias,"Portugal, Setúbal, Barreiro","Artigo 26.º, n.º 1, alínea e) do Código dos Contratos Públicos",17-03-2014,"71.286,39 €","","",,Não aplicável.,Não aplicável.,FALSE
4EXC0022/2013 - BAINHA ACESSO URETRAL 38CM; BAINHA ACESSO URETRAL 54CM; FIBRA 270 MICROS DESCART P/LITOTRICIA,Ajuste Direto Regime Geral,Aquisição de bens móveis,"33000000-0, Equipamento médico, medicamentos e produtos para cuidados pessoais","Centro Hospitalar Barreiro Montijo, E. P. E. (509186998)",OLYMPUS IBERIA (980474710),"26.672,80 €",19-03-2014,24-04-2013,360 dias,"Portugal, Setúbal, Barreiro","Artigo 24.º, n.º 1, alínea e) do Código dos Contratos Públicos",31-12-2013,"9.403,68 €","",ALTERAÇÃO DE QUANTIDADES,,Não aplicável.,Não aplicável.,FALSE
BLOCO UNIDADE DE FOLE P MESA ANESTESIA,Ajuste Direto Regime Geral,Aquisição de bens móveis,"33000000-0, Equipamento médico, medicamentos e produtos para cuidados pessoais","Centro Hospitalar Barreiro Montijo, E. P. E. (509186998)",IBERDATA EQUIPAMENTOS LDA (501904921),"11.000,00 €",19-03-2014,12-03-2014,10 dias,"Portugal, Setúbal, Barreiro","Artigo 26.º, n.º 1, alínea e) do Código dos Contratos Públicos",30-09-2014,"11.000,00 €","","",,Não aplicável.,Não aplicável.,FALSE
4EXC0015/2013 - MEDICAMENTOS MERCK SA,Ajuste Direto Regime Geral,Aquisição de bens móveis,"33000000-0, Equipamento médico, medicamentos e produtos para cuidados pessoais","Centro Hospitalar Barreiro Montijo, E. P. E. (509186998)",MERCK FARMA QUIMICA (500650870),"15.622,30 €",19-03-2014,04-03-2013,360 dias,"Portugal, Setúbal, Barreiro","Artigo 24.º, n.º 1, alínea e) do Código dos Contratos Públicos",31-12-2013,"17.344,30 €","",ALTERAÇÃO DE QUANTIDADES,,Não aplicável.,Não aplicável.,FALSE
4EXC0013/2013 - MEDICAMENTOS DERMIS,Ajuste Direto Regime Geral,Aquisição de bens móveis,"33000000-0, Equipamento médico, medicamentos e produtos para cuidados pessoais","Centro Hospitalar Barreiro Montijo, E. P. E. (509186998)",DERMIS  (507988990),"17.092,40 €",19-03-2014,23-01-2013,360 dias,"Portugal, Setúbal, Barreiro","Artigo 24.º, n.º 1, alínea e) do Código dos Contratos Públicos",31-12-2013,"1.972,19 €","",ALTERAÇÃO DE QUANTIDADES,,Não aplicável.,Não aplicável.,FALSE
4EXC0011/2013 - MEDICAMENTOS OLYMPUS,Ajuste Direto Regime Geral,Aquisição de bens móveis,"33000000-0, Equipamento médico, medicamentos e produtos para cuidados pessoais","Centro Hospitalar Barreiro Montijo, E. P. E. (509186998)","OLYMPUSIBERIA, SAU (980474710)","24.257,25 €",19-03-2014,04-04-2013,360 dias,"Portugal, Setúbal, Barreiro","Artigo 24.º, n.º 1, alínea e) do Código dos Contratos Públicos",31-12-2013,"13.787,56 €","",ALTERAÇÃO DE QUANTIDADES,,Não aplicável.,Não aplicável.,FALSE
4EXC0010/2013 - MEDICAMENTOS MERCK SHARP & DOHME,Ajuste Direto Regime Geral,Aquisição de bens móveis,"33000000-0, Equipamento médico, medicamentos e produtos para cuidados pessoais","Centro Hospitalar Barreiro Montijo, E. P. E. (509186998)",MERCK SHARP & DOHME (500191360),"25.826,60 €",19-03-2014,30-01-2013,360 dias,"Portugal, Setúbal, Barreiro","Artigo 24.º, n.º 1, alínea e) do Código dos Contratos Públicos",31-12-2013,"15.893,26 €","",ALTERAÇÃO DE QUANTIDADES,,Não aplicável.,Não aplicável.,FALSE
4EXC0009/2013 - MEDICAMENTOS  PHARMIS BIOFARMACEUTICA,Ajuste Direto Regime Geral,Aquisição de bens móveis,"33000000-0, Equipamento médico, medicamentos e produtos para cuidados pessoais","Centro Hospitalar Barreiro Montijo, E. P. E. (509186998)",PHARMIS BIOFARMACEUTICA (502595442),"14.351,00 €",19-03-2014,23-01-2013,360 dias,"Portugal, Setúbal, Barreiro","Artigo 24.º, n.º 1, alínea e) do Código dos Contratos Públicos",31-12-2013,"10.518,75 €","",ALTERAÇÃO DE QUANTIDADES,,Não aplicável.,Não aplicável.,FALSE
4EXC0008/2013 - MEDICAMENTOS EISAI FARMACEUTICA,Ajuste Direto Regime Geral,Aquisição de bens móveis,"33000000-0, Equipamento médico, medicamentos e produtos para cuidados pessoais","Centro Hospitalar Barreiro Montijo, E. P. E. (509186998)",EISAI FARMACEUTICA (507847660),"26.808,00 €",19-03-2014,25-01-2013,360 dias,"Portugal, Setúbal, Barreiro","Artigo 24.º, n.º 1, alínea e) do Código dos Contratos Públicos",31-12-2013,"17.090,95 €","",ALTERAÇÃO DE QUANTIDADES,,Não aplicável.,Não aplicável.,FALSE
410003/2013 Material para ginecologia e obstetricia,Ajuste Direto Regime Geral,Aquisição de bens móveis,"33160000-9, Técnicas cirúrgicas","Centro Hospitalar Barreiro Montijo, E. P. E. (509186998)",Medicinalia-Cormedica (500684324),"118,00 €",19-03-2014,23-04-2013,365 dias,"Portugal, Setúbal, Barreiro","Artigo 20.º, n.º 1, alínea a) do Código dos Contratos Públicos",31-12-2013,"236,00 €","",Aumento de consumo,,Não aplicável.,Não aplicável.,FALSE
410003/2013 Material para ginecologia e obstetricia,Ajuste Direto Regime Geral,Aquisição de bens móveis,"33160000-9, Técnicas cirúrgicas","Centro Hospitalar Barreiro Montijo, E. P. E. (509186998)",Speculum (502996323),"7.273,95 €",19-03-2014,23-04-2013,365 dias,"Portugal, Setúbal, Barreiro","Artigo 20.º, n.º 1, alínea a) do Código dos Contratos Públicos",31-12-2013,"7.628,10 €","",aumento de consumo,,Não aplicável.,Não aplicável.,FALSE
410003/2013 Material ginecologia e obstetricia,Ajuste Direto Regime Geral,Aquisição de bens móveis,"33160000-9, Técnicas cirúrgicas","Centro Hospitalar Barreiro Montijo, E. P. E. (509186998)",Expomedica (501886621),"262,50 €",19-03-2014,03-12-2013,365 dias,"Portugal, Setúbal, Barreiro","Artigo 20.º, n.º 1, alínea a) do Código dos Contratos Públicos",31-12-2013,"236,00 €","",Diminuição de consumo,,Não aplicável.,Não aplicável.,FALSE
4EXC0007/2013 - MEDICAMENTOS GAMBRO,Ajuste Direto Regime Geral,Aquisição de bens móveis,"33000000-0, Equipamento médico, medicamentos e produtos para cuidados pessoais","Centro Hospitalar Barreiro Montijo, E. P. E. (509186998)",GAMBRO (980367751),"33.613,00 €",19-03-2014,13-03-2013,360 dias,"Portugal, Setúbal, Barreiro","Artigo 24.º, n.º 1, alínea e) do Código dos Contratos Públicos",31-12-2013,"15.988,00 €","",ALTERAÇÃO DE QUANTIDADES,,Não aplicável.,Não aplicável.,FALSE
DIVERSO MATERIAL INFORMATICO,Ajuste Direto Regime Geral,Aquisição de bens móveis,"30000000-9, Máquinas, equipamento e material de escritório e de informática, excepto mobiliário e pacotes de programas (software)","Centro Hospitalar Barreiro Montijo, E. P. E. (509186998)",ATM INFORMATICA (504062859),"261,66 €",19-03-2014,08-04-2013,10 dias,"Portugal, Setúbal, Barreiro","Artigo 20.º, n.º 1, alínea a) do Código dos Contratos Públicos",15-04-2013,"261,66 €","","",,Não aplicável.,Não aplicável.,FALSE
4EXC0006/2013 - MEDICAMENTOS PIERRE FABRE,Ajuste Direto Regime Geral,Aquisição de bens móveis,"33000000-0, Equipamento médico, medicamentos e produtos para cuidados pessoais","Centro Hospitalar Barreiro Montijo, E. P. E. (509186998)",PIERRE FABRE MEDICAMENT (500230366),"51.675,00 €",19-03-2014,28-01-2013,360 dias,"Portugal, Setúbal, Barreiro","Artigo 24.º, n.º 1, alínea e) do Código dos Contratos Públicos",31-12-2013,"39.552,50 €","",ALTERAÇÃO DE QUANTIDADES,,Não aplicável.,Não aplicável.,FALSE
DIVERSO MATERIAL INFORMATICO,Ajuste Direto Regime Geral,Aquisição de bens móveis,"30000000-9, Máquinas, equipamento e material de escritório e de informática, excepto mobiliário e pacotes de programas (software)","Centro Hospitalar Barreiro Montijo, E. P. E. (509186998)",CPCIS COMP PORT COMP INF SIST (501267255),"4.177,69 €",19-03-2014,08-04-2013,417769 dias,"Portugal, Setúbal, Barreiro","Artigo 20.º, n.º 1, alínea a) do Código dos Contratos Públicos",14-05-2013,"4.177,69 €","","",,Não aplicável.,Não aplicável.,FALSE
DIVERSO MATERIAL INFORMATICA,Ajuste Direto Regime Geral,Aquisição de bens móveis,"30000000-9, Máquinas, equipamento e material de escritório e de informática, excepto mobiliário e pacotes de programas (software)","Centro Hospitalar Barreiro Montijo, E. P. E. (509186998)",PROLOGICA SISTEMA INFORMATICOS S.A (501432507),"1.007,83 €",19-03-2014,08-04-2013,10 dias,"Portugal, Setúbal, Barreiro","Artigo 20.º, n.º 1, alínea a) do Código dos Contratos Públicos",19-04-2013,"1.007,83 €","","",,Não aplicável.,Não aplicável.,FALSE
4EXC0005/2013 - UNILFARMA,Ajuste Direto Regime Geral,Aquisição de bens móveis,"33000000-0, Equipamento médico, medicamentos e produtos para cuidados pessoais","Centro Hospitalar Barreiro Montijo, E. P. E. (509186998)",UNILFARMA (500293023),"31.964,51 €",18-03-2014,28-01-2013,360 dias,"Portugal, Setúbal, Barreiro","Artigo 24.º, n.º 1, alínea e) do Código dos Contratos Públicos",31-12-2013,"44.890,80 €","",ALTERAÇÃO DE QUANTIDADES,,Não aplicável.,Não aplicável.,FALSE
4EXC0004/2013 - MEDICAMENTOS ACTELION,Ajuste Direto Regime Geral,Aquisição de bens móveis,"33000000-0, Equipamento médico, medicamentos e produtos para cuidados pessoais","Centro Hospitalar Barreiro Montijo, E. P. E. (509186998)",ACTELION PHARMACEUTICALS (507336488),"61.740,50 €",18-03-2014,29-01-2013,360 dias,"Portugal, Setúbal, Barreiro","Artigo 24.º, n.º 1, alínea e) do Código dos Contratos Públicos",31-12-2013,"59.208,79 €","",ALTERAÇÃO DE QUANTIDADES,,Não aplicável.,Não aplicável.,FALSE
"Contratação de Gestão Integrada de Recolha e Tratamento de Resíduos Hospitalares no Centro Hospitalar Barreiro-Montijo, EPE",Concurso público,Aquisição de serviços,"90000000-7, Serviços relativos a águas residuais, resíduos, limpeza e ambiente","Centro Hospitalar Barreiro Montijo, E. P. E. (509186998)",Ambimed - Gestão Ambiental Ldª (503593427),"215.000,00 €",18-03-2014,01-03-2013,360 dias,"Portugal, Setúbal, Barreiro","Artigo 20.º, n.º 1, alínea b) do Código dos Contratos Públicos",31-12-2013,"162.693,13 €","","O período inicial estava previsto para 12 meses, na realidade a adjudicação recaíu apenas em 10 meses. ",,Não aplicável.,Não aplicável.,FALSE
"Fornecimento de Serviços de Gestão Integrada de Resíduos Hospitalares no CHBM, EPE",Ajuste Direto Regime Geral,Aquisição de serviços,"90000000-7, Serviços relativos a águas residuais, resíduos, limpeza e ambiente","Centro Hospitalar Barreiro Montijo, E. P. E. (509186998)","Ambimed - Gestão Ambiental, Lda.  (503593427)","45.000,00 €",18-03-2014,16-01-2013,60 dias,"Portugal, Setúbal, Barreiro","Artigo 24.º, n.º 1, alínea c) do Código dos Contratos Públicos",28-02-2013,"30.543,70 €","",A quantidade de resíduos recolhidos foi inferior à quantidade prevista,,Não aplicável.,Não aplicável.,FALSE
4EXC0003/2013 - MEDICAMENTOS OCTAPHARMA,Ajuste Direto Regime Geral,Aquisição de bens móveis,"33000000-0, Equipamento médico, medicamentos e produtos para cuidados pessoais","Centro Hospitalar Barreiro Montijo, E. P. E. (509186998)",OCTAPHARMA (502820780),"11.250,00 €",18-03-2014,28-03-2013,360 dias,"Portugal, Setúbal, Barreiro","Artigo 24.º, n.º 1, alínea e) do Código dos Contratos Públicos",31-12-2013,"2.700,00 €","",ALTERAÇÃO DE QUANTIDADES,,Não aplicável.,Não aplicável.,FALSE
"Fornecimento de Serviços de Lavagem e Tratamento de Roupa ao CHBM, EPE",Ajuste Direto Regime Geral,Aquisição de serviços,"55000000-0, Serviços de hotelaria, restauração e comércio a retalho","Centro Hospitalar Barreiro Montijo, E. P. E. (509186998)",SUCH - Serviço de Utilidade Comum dos Hospitais (500900469),"81.488,73 €",18-03-2014,11-01-2013,90 dias,"Portugal, Setúbal, Barreiro","Artigo 24.º, n.º 1, alínea c) do Código dos Contratos Públicos",31-03-2013,"59.310,21 €","",A quantidade de roupa enviada para tratamento foi inferior à quantidade estimada,,Não aplicável.,Não aplicável.,FALSE
4EXC0002/2013 - DARUNAVIR 600 MG E 400 MG COMP,Ajuste Direto Regime Geral,Aquisição de bens móveis,"33000000-0, Equipamento médico, medicamentos e produtos para cuidados pessoais","Centro Hospitalar Barreiro Montijo, E. P. E. (509186998)",JANSSEN CILAG (500189412),"78.732,00 €",18-03-2014,12-03-2013,360 dias,"Portugal, Setúbal, Barreiro","Artigo 24.º, n.º 1, alínea e) do Código dos Contratos Públicos",31-12-2013,"85.564,92 €","",ALTERAÇÃO DE QUANTIDADES,,Não aplicável.,Não aplicável.,FALSE
4EXC0001/2013 - VARIOS MEDICAMENTOS,Ajuste Direto Regime Geral,Aquisição de bens móveis,"33000000-0, Equipamento médico, medicamentos e produtos para cuidados pessoais","Centro Hospitalar Barreiro Montijo, E. P. E. (509186998)",GILEAD SCIENCES (503604704),"301.168,65 €",18-03-2014,31-01-2013,360 dias,"Portugal, Setúbal, Barreiro","Artigo 24.º, n.º 1, alínea e) do Código dos Contratos Públicos",31-12-2013,"300.106,16 €","",ALTERAÇÃO DE QUANTIDADES,,Não aplicável.,Não aplicável.,FALSE
MATERIAL DE CONSUMO GERAL,Ajuste Direto Regime Geral,Aquisição de bens móveis,"33190000-8, Dispositivos e produtos médicos variados","CHBM - Centro Hospital Barreiro Montijo, EPE (509186998)",INTERPHYSIX (509187030),"358,56 €",18-03-2014,18-02-2014,360 dias,"Portugal, Setúbal, Barreiro","Artigo 20.º, n.º 1, alínea a) do Código dos Contratos Públicos",31-12-2014,"","",NÃO HOUVE NECESSIDADE DE ADQUIRIR,,Não aplicável.,Não aplicável.,FALSE
MATERIAL DE CONSUMO GERAL,Ajuste Direto Regime Geral,Aquisição de bens móveis,"33190000-8, Dispositivos e produtos médicos variados","CHBM - Centro Hospital Barreiro Montijo, EPE (509186998)",B. BRAUN MEDICAL (501506543),"300,00 €",18-03-2014,18-02-2014,360 dias,"Portugal, Setúbal, Barreiro","Artigo 20.º, n.º 1, alínea a) do Código dos Contratos Públicos",31-12-2014,"221,40 €","",ALTERAÇÃO DE QUANTIDADES,,Não aplicável.,Não aplicável.,FALSE
MATERIAL DE CONSUMO GERAL,Ajuste Direto Regime Geral,Aquisição de bens móveis,"33190000-8, Dispositivos e produtos médicos variados","CHBM - Centro Hospital Barreiro Montijo, EPE (509186998)",ANASTACIO SALDANHA UNIPESSOAL (505804441),"6.582,34 €",18-03-2014,18-02-2014,360 dias,"Portugal, Setúbal, Barreiro","Artigo 20.º, n.º 1, alínea a) do Código dos Contratos Públicos",31-12-2014,"4.499,20 €","",ALTERAÇÃO DE QUANTIDADES,,Não aplicável.,Não aplicável.,FALSE
MATERIAL DE CONSUMO GERAL,Ajuste Direto Regime Geral,Aquisição de bens móveis,"33190000-8, Dispositivos e produtos médicos variados","CHBM - Centro Hospital Barreiro Montijo, EPE (509186998)",MICRO-MEDICA (501904956),"2.391,50 €",18-03-2014,18-02-2014,360 dias,"Portugal, Setúbal, Barreiro","Artigo 20.º, n.º 1, alínea a) do Código dos Contratos Públicos",31-12-2014,"1.606,00 €","",ALTERAÇÃO DE QUANTIDADES,,Não aplicável.,Não aplicável.,FALSE
MATERIAL DE CONSUMO GERAL,Ajuste Direto Regime Geral,Aquisição de bens móveis,"33190000-8, Dispositivos e produtos médicos variados","CHBM - Centro Hospital Barreiro Montijo, EPE (509186998)",JMV (501887148),"706,00 €",18-03-2014,18-02-2014,360 dias,"Portugal, Setúbal, Barreiro","Artigo 20.º, n.º 1, alínea a) do Código dos Contratos Públicos",31-12-2014,"220,00 €","",ALTERAÇÃO DE QUANTIDADES,,Não aplicável.,Não aplicável.,FALSE
Ressonâncias - Magnéticas Mamárias,Ajuste Direto Regime Geral,Aquisição de serviços,"65000000-3, Serviços públicos","Centro Hospitalar Barreiro Montijo, E. P. E. (509186998)",IRE - Centro de Senologia (501972463),"38.100,00 €",17-03-2014,17-05-2013,360 dias,"Portugal, Setúbal, Barreiro","Artigo 20.º, n.º 1, alínea a) do Código dos Contratos Públicos",31-12-2013,"38.100,00 €","","",,Não aplicável.,Não aplicável.,FALSE
Fornecimento de Serviços de Lavagem e Tratamento de Roupa - 2º trimestre,Ajuste Direto Regime Geral,Aquisição de serviços,"55000000-0, Serviços de hotelaria, restauração e comércio a retalho","Centro Hospitalar Barreiro Montijo, E. P. E. (509186998)",SUCH - Serviço de Utilização Comum dos Hospitais (500900469),"81.570,42 €",17-03-2014,11-03-2013,90 dias,"Portugal, Setúbal, Barreiro","Artigo 20.º, n.º 1, alínea a) do Código dos Contratos Públicos",31-07-2013,"75.555,45 €","",A quantidade de roupa tratada foi inferior à quantidade prevista,,Não aplicável.,Não aplicável.,FALSE
Prestação de Serviços de Lavagem e Tratamento de Roupa Hospitalar,Concurso público,Aquisição de serviços,"55000000-0, Serviços de hotelaria, restauração e comércio a retalho","Centro Hospitalar Barreiro Montijo, E. P. E. (509186998)",SUCH - Serviço de Utilização Comum dos Hospitais (500900469),"101.235,91 €",17-03-2014,31-07-2013,150 dias,"Portugal, Setúbal, Barreiro","Artigo 20.º, n.º 1, alínea b) do Código dos Contratos Públicos",31-12-2013,"99.343,06 €","",A quantidade de roupa tratada foi menor que a previsão,,Não aplicável.,Não aplicável.,FALSE
Renovação dos Serviços da plataforma eletronica,Ajuste Direto Regime Geral,Aquisição de serviços,"72000000-5, Serviços de TI: consultoria, desenvolvimento de software, Internet e apoio","Centro Hospitalar Barreiro Montijo, E. P. E. (509186998)","Vortal - Comercio Electrónico Consultoria e Multimédia, S.A. (505141019)","9.990,00 €",17-03-2014,21-02-2013,360 dias,"Portugal, Setúbal, Barreiro","Artigo 20.º, n.º 1, alínea a) do Código dos Contratos Públicos",31-12-2013,"9.990,00 €","","",,Não aplicável.,Não aplicável.,FALSE
Prestação de Serviços Jurídicos,Ajuste Direto Regime Geral,Aquisição de serviços,"72000000-5, Serviços de TI: consultoria, desenvolvimento de software, Internet e apoio","Centro Hospitalar Barreiro Montijo, E. P. E. (509186998)",José Manuel de Carvalho Santana Carlos (103423893),"22.727,50 €",17-03-2014,25-03-2013,360 dias,"Portugal, Setúbal, Barreiro","Artigo 20.º, n.º 1, alínea a) do Código dos Contratos Públicos",31-12-2013,"22.727,50 €","","",,Não aplicável.,Não aplicável.,FALSE
4I0024/2014 - DETERGENTES - 2010/008,Ajuste Direto Regime Geral,Aquisição de bens móveis,"24000000-4, Produtos químicos","Centro Hospitalar Barreiro Montijo, E. P. E. (509186998)",JOHNSON & JOHNSON MEDICAL (500153370),"240,00 €",17-03-2014,24-02-2014,360 dias,"Portugal, Setúbal, Barreiro","Artigo 20.º, n.º 1, alínea a) do Código dos Contratos Públicos",31-12-2014,"364,88 €","",alteração de quantidade,,Não aplicável.,Não aplicável.,FALSE
4I0024/2014 - DETERGENTES 2010/008,Ajuste Direto Regime Geral,Aquisição de bens móveis,"24000000-4, Produtos químicos","Centro Hospitalar Barreiro Montijo, E. P. E. (509186998)",B. BRAUN MEDICAL (501506543),"69,48 €",17-03-2014,24-02-2014,360 dias,"Portugal, Setúbal, Barreiro","Artigo 20.º, n.º 1, alínea a) do Código dos Contratos Públicos",31-12-2014,"69,48 €","","",,Não aplicável.,Não aplicável.,FALSE
4I0024/24 - DETERGENTE 2010/008,Ajuste Direto Regime Geral,Aquisição de bens móveis,"24000000-4, Produtos químicos","Centro Hospitalar Barreiro Montijo, E. P. E. (509186998)",FRANKLAB (506058654),"1.249,05 €",17-03-2014,24-02-2014,360 dias,"Portugal, Setúbal, Barreiro","Artigo 20.º, n.º 1, alínea a) do Código dos Contratos Públicos",31-12-2014,"2.030,26 €","",alteração da quantidade,,Não aplicável.,Não aplicável.,FALSE
4I0024/2014 - DETERGENTES 2010/008,Ajuste Direto Regime Geral,Aquisição de bens móveis,"24000000-4, Produtos químicos","Centro Hospitalar Barreiro Montijo, E. P. E. (509186998)",INIBSA PORTUGUESA (500139571),"2.450,00 €",17-03-2014,24-02-2014,360 dias,"Portugal, Setúbal, Barreiro","Artigo 20.º, n.º 1, alínea a) do Código dos Contratos Públicos",31-12-2014,"1.969,79 €","",alteração de quantidade,,Não aplicável.,Não aplicável.,FALSE
AMPOLA P RX,Ajuste Direto Regime Geral,Aquisição de bens móveis,"33000000-0, Equipamento médico, medicamentos e produtos para cuidados pessoais","Centro Hospitalar Barreiro Montijo, E. P. E. (509186998)",PHILIPS PORTUGUESA S.A (500216843),"11.622,46 €",17-03-2014,19-12-2013,10 dias,"Portugal, Setúbal, Barreiro","Artigo 20.º, n.º 1, alínea a) do Código dos Contratos Públicos",23-12-2013,"11.622,46 €","","",,Não aplicável.,Não aplicável.,FALSE
41AQ0001/2014 - PAPEL FOTOCOPIA - CONTRATO 04/2014 CHBM - 446/2014-DSGIRPA/DGR/COMPRAS - ACORDO QUADRO N.º 3,Ajuste Direto Regime Geral,Aquisição de bens móveis,"30000000-9, Máquinas, equipamento e material de escritório e de informática, excepto mobiliário e pacotes de programas (software)","Centro Hospitalar Barreiro Montijo, E. P. E. (509186998)",STAPLES PORTUGAL (503789372),"22.348,25 €",17-03-2014,10-01-2014,360 dias,"Portugal, Setúbal, Barreiro",Artigo 258.º do Código dos Contratos Públicos,31-12-2014,"14.041,25 €","",alteração de quantidade,,1180945,41AQ0001/2014 - PAPEL FOTOCOPIA,FALSE
UNIDADE DE CLIMATIZAÇAO,Ajuste Direto Regime Geral,Aquisição de bens móveis,"39300000-5, Equipamento diverso","Centro Hospitalar Barreiro Montijo, E. P. E. (509186998)",HEPAFILTRA AR CONDICIONADO (503615072),"24.990,00 €",17-03-2014,10-12-2013,10 dias,"Portugal<BR/>Portugal, Setúbal, Barreiro","Artigo 20.º, n.º 1, alínea a) do Código dos Contratos Públicos",31-12-2013,"24.990,00 €","","",,Não aplicável.,Não aplicável.,FALSE
40041/2013 - AMPOLA P TC E PROCESSADOR IMAGEM,Ajuste Direto Regime Geral,Aquisição de bens móveis,"33000000-0, Equipamento médico, medicamentos e produtos para cuidados pessoais","Centro Hospitalar Barreiro Montijo, E. P. E. (509186998)",SUCH SERV UTIL COMUM HOSPITA (500900469),"27.545,00 €",14-03-2014,27-11-2013,30 dias,"Portugal, Setúbal, Barreiro","Artigo 20.º, n.º 1, alínea a) do Código dos Contratos Públicos",20-12-2013,"27.545,00 €","","",,Não aplicável.,Não aplicável.,FALSE
"Seguros de acidentes de trabalho aos colaboradores em CIT do Centro Hospitalar Barreiro-Montijo, EPE",Ajuste Direto Regime Geral,Aquisição de serviços,"66000000-0, Serviços de finanças e seguros","Centro Hospitalar Barreiro Montijo, E. P. E. (509186998)",Sá Pereira do Lago ldª (500899703),"56.057,02 €",14-03-2014,21-11-2012,360 dias,"Portugal, Setúbal, Barreiro","Artigo 20.º, n.º 1, alínea a) do Código dos Contratos Públicos",31-12-2013,"56.057,02 €","","",,Não aplicável.,Não aplicável.,FALSE
"4S0001/2013 Fornecimento de Serviços de Jardinagem ao CHBM, contrato nº66/2013 ",Ajuste Direto Regime Geral,Aquisição de serviços,"50000000-5, Serviços de reparação e manutenção","Centro Hospitalar Barreiro Montijo, E. P. E. (509186998)",Decoverdi - Plantas e Jardins S.A. (502438878),"9.625,00 €",14-03-2014,30-01-2013,360 dias,"Portugal, Setúbal, Barreiro","Artigo 20.º, n.º 1, alínea a) do Código dos Contratos Públicos",31-12-2013,"9.625,00 €","","",,Não aplicável.,Não aplicável.,FALSE
8O0001/2013 - OBRA SERVÇO URGENCIA GERAL,Ajuste Direto Regime Geral,Empreitadas de obras públicas,"45000000-7, Construção","Centro Hospitalar Barreiro Montijo, E. P. E. (509186998)",PSIDELTA SERVIÇOS TECNICOS ENGENHARIA UNIP LDA (506283674),"7.490,00 €",14-03-2014,26-07-2013,90 dias,"Portugal, Setúbal, Barreiro","Artigo 19.º, alínea a) do Código dos Contratos Públicos","","7.490,00 €",OBRA DE CARACTER URGENTE,"",,Não aplicável.,Não aplicável.,FALSE
4exc0003/2013 Impressos,Ajuste Direto Regime Geral,Aquisição de bens móveis,"22000000-0, Material impresso e afins","Centro Hospitalar Barreiro Montijo, E. P. E. (509186998)",A.R.S.L.V.T. (503148776),"5.841,60 €",14-03-2014,09-01-2013,360 dias,"Portugal, Setúbal, Barreiro","Artigo 20.º, n.º 1, alínea a) do Código dos Contratos Públicos",31-12-2013,"4.778,70 €","",quantidades fornecidas,,Não aplicável.,Não aplicável.,FALSE
