Objeto do Contrato,Tipo de Procedimento,Tipo(s) de Contrato,CPVs,Entidade(s) Adjudicante(s),Entidade(s) Adjudicatária(s),Preço Contratual,Data de Publicação,Data de Celebração do Contrato,Prazo de Execução,Local de Execução,Fundamentação,Data de Fecho do Contrato,Preço Total Efetivo,Causas das Alterações ao Prazo,Causas das Alterações ao Preço,Estado,N.º registo do Acordo Quadro,Descrição do Acordo Quadro,Procedimento Centralizado
Revisão de Prótese do Joelho,Ajuste Direto Regime Geral,Aquisição de bens móveis,"33183100-7, Implantes ortopédicos","Centro Hospitalar do Algarve, E. P. E. (510745997)",Smith & Nephew Lda. (503552461),"8.034,05 €",31-12-2013,20-12-2013,2 dias,"Portugal, Faro, Portimão","Artigo 24.º, n.º 1, alínea e) do Código dos Contratos Públicos",,,,,,Não aplicável.,Não aplicável.,
Reagentes para gases no sangue,Ajuste Direto Regime Geral,Aquisição de bens móveis,"33696500-0, Reagentes de laboratório","Centro Hospitalar do Algarve, E. P. E. (510745997)","RADIOMETER IBERICA,S.A. (980201667)","39.120,55 €",30-12-2013,22-08-2013,132 dias,"Portugal, Faro, Faro","Artigo 24.º, n.º 1, alínea e) do Código dos Contratos Públicos",,,,,,Não aplicável.,Não aplicável.,
Medicamentos Emtricitabina + Rilpirina + Tenofovir,Ao abrigo de acordo-quadro (art.º 258.º),Aquisição de bens móveis,"33690000-3, Medicamentos vários","Centro Hospitalar do Algarve, E. P. E. (510745997)","Gilead Sciences, Lda. (503604704)","5.900,00 €",30-12-2013,27-12-2013,5 dias,"Portugal, Faro, Faro",Artigo 258.º do Código dos Contratos Públicos,,,,,,1128316,AD3490/2013 - Medicamentos Emtricitabina + rilpirina + Tenofovir,
Medicamentos Bosentano,Ajuste Direto Regime Geral,Aquisição de bens móveis,"33690000-3, Medicamentos vários","Centro Hospitalar do Algarve, E. P. E. (510745997)","Actelion Pharmaceuticals Portugal, Lda. (507336488)","49.385,00 €",30-12-2013,26-06-2013,191 dias,"Portugal, Faro, Faro","Artigo 24.º, n.º 1, alínea e) do Código dos Contratos Públicos",,,,,,Não aplicável.,Não aplicável.,
Medicamentos Etravirina 200 mg e Telaprevir 375 mg,Ajuste Direto Regime Geral,Aquisição de bens móveis,"33690000-3, Medicamentos vários","Centro Hospitalar do Algarve, E. P. E. (510745997)",JANSSEN CILAG FARMACEUTICA (500189412),"26.185,68 €",27-12-2013,20-12-2013,12 dias,"Portugal, Faro, Faro","Artigo 24.º, n.º 1, alínea e) do Código dos Contratos Públicos",,,,,,Não aplicável.,Não aplicável.,
Medicamentos Voriconazol,Ao abrigo de acordo-quadro (art.º 258.º),Aquisição de bens móveis,"33690000-3, Medicamentos vários","Centro Hospitalar do Algarve, E. P. E. (510745997)","LABORATÓRIOS PFIZER, LDA. (500162166)","3.881,65 €",26-12-2013,26-12-2013,6 dias,"Portugal, Faro, Faro",Artigo 258.º do Código dos Contratos Públicos,,,,,,1126376,AD2713/2013 - Medicamentos Voriconazol,
Prótese revisão Joelho,Ajuste Direto Regime Geral,Aquisição de bens móveis,"33183100-7, Implantes ortopédicos","Centro Hospitalar do Algarve, E. P. E. (510745997)",Smith & Nephew Lda. (503552461),"8.594,05 €",26-12-2013,18-11-2013,2 dias,"Portugal, Faro, Portimão","Artigo 24.º, n.º 1, alínea e) do Código dos Contratos Públicos",,,,,,Não aplicável.,Não aplicável.,
Medicamentos Interferão Beta,Ao abrigo de acordo-quadro (art.º 258.º),Aquisição de bens móveis,"33690000-3, Medicamentos vários","Centro Hospitalar do Algarve, E. P. E. (510745997)",MERCK  S.A. (500650870),"4.328,57 €",23-12-2013,20-12-2013,12 dias,"Portugal, Faro, Faro",Artigo 258.º do Código dos Contratos Públicos,,,,,,1125094,AD3481/2013 - Medicamentos Interferão Beta,
Medicamentos Lodopovidona,Ao abrigo de acordo-quadro (art.º 259.º),Aquisição de bens móveis,"33690000-3, Medicamentos vários","Centro Hospitalar do Algarve, E. P. E. (510745997)","PROCLINICA-EQUIP.PROD.CLIN.,LD (500222665)","142,80 €",23-12-2013,20-12-2013,12 dias,"Portugal, Faro, Faro",Artigo 259.º do Código dos Contratos Públicos,,,,,,1125079,AQ3197/2013 - Medicamentos Lodopovidona,
dispositivo intra uterino de cobre em U375,Ao abrigo de acordo-quadro (art.º 259.º),Aquisição de bens móveis,"33690000-3, Medicamentos vários","Centro Hospitalar do Algarve, E. P. E. (510745997)",CLINIFAR-PROD.CLINIC.E FARMAC. (503281115),"49,80 €",23-12-2013,20-12-2013,12 dias,"Portugal, Faro, Faro",Artigo 259.º do Código dos Contratos Públicos,,,,,,1125064,AQ3181/2013 - Dispositivo intra uterino de cobre em U 375,
Medicamentos Fentanilo,Ao abrigo de acordo-quadro (art.º 259.º),Aquisição de bens móveis,"33690000-3, Medicamentos vários","Centro Hospitalar do Algarve, E. P. E. (510745997)",Actavis A/S Sucursal (980334934),"347,70 €",23-12-2013,20-12-2013,12 dias,"Portugal, Faro, Faro",Artigo 259.º do Código dos Contratos Públicos,,,,,,1125055,AQ3177/2013 - Medicamentos Fentanilo,
Medicamentos Transtuzumab,Ao abrigo de acordo-quadro (art.º 258.º),Aquisição de bens móveis,"33690000-3, Medicamentos vários","Centro Hospitalar do Algarve, E. P. E. (510745997)","ROCHE FARMACÊUTICA E QUÍMICA, LDA. (500233810)","81.462,40 €",23-12-2013,20-12-2013,12 dias,"Portugal, Faro, Faro",Artigo 258.º do Código dos Contratos Públicos,,,,,,1125041,AD2745/2013 - Medicamentos Trabstuzumab,
