Objeto do Contrato,Tipo de Procedimento,Tipo(s) de Contrato,CPVs,Entidade(s) Adjudicante(s),Entidade(s) Adjudicatária(s),Preço Contratual,Data de Publicação,Data de Celebração do Contrato,Prazo de Execução,Local de Execução,Fundamentação,Data de Fecho do Contrato,Preço Total Efetivo,Causas das Alterações ao Prazo,Causas das Alterações ao Preço,Estado,N.º registo do Acordo Quadro,Descrição do Acordo Quadro,Procedimento Centralizado
AD552-2016-CERTINIB 150 CP,Ajuste Direto Regime Geral,Aquisição de bens móveis,"33000000-0, Equipamento médico, medicamentos e produtos para cuidados pessoais","Instituto Português de Oncologia de Lisboa Francisco Gentil, E. P. E. (506361616)",NOVARTIS FARMA-PRODUTOS FARMACEUTICOS (500063524),"17.490,02 €",31-10-2016,07-04-2016,118 dias,"Portugal, Lisboa, Lisboa","Artigo 20.º, n.º 1, alínea a) do Código dos Contratos Públicos",,,,,,Não aplicável.,Não aplicável.,FALSE
AD2376-16 BOLSA DE HORAS ADICIONAIS PARA OS SERVIÇOS DE SUPORTE APLICACIONAL HOSIX,Ajuste Direto Regime Geral,Aquisição de serviços,"72500000-0, Serviços relacionados com a informática","Instituto Português de Oncologia de Lisboa Francisco Gentil, E. P. E. (506361616)","SIVASA SOLUCIONES INFORMÁTICAS, SAU (A36646685)","18.000,00 €",31-10-2016,03-10-2016,180 dias,"Portugal, Lisboa, Lisboa","Artigo 24.º, n.º 1, alínea e) do Código dos Contratos Públicos",,,,,,Não aplicável.,Não aplicável.,FALSE
AD537-2015-PEIDIOD DE AUTORIZAÇÃO PARA A  1 RENOVAÇÃO DO AD 537/2215 PARA 2016,Ajuste Direto Regime Geral,Aquisição de bens móveis,"33600000-6, Produtos farmacêuticos","Instituto Português de Oncologia de Lisboa Francisco Gentil, E. P. E. (506361616)","SANOFI-PRODUTOS FARMACEUTICOS, LDA (504293753)","34.845,20 €",31-10-2016,10-12-2015,365 dias,"Portugal, Lisboa, Lisboa","Artigo 20.º, n.º 1, alínea a) do Código dos Contratos Públicos",,,,,,Não aplicável.,Não aplicável.,FALSE
AD530-2016 SALBUTAMOL 0.5 MG/ML INJ+SALBUTAMOL 5 MG/MLSOL NEB 10 ML+BECOMETASONA 250MCG/DOSE SOL PRESS INAL,Ao abrigo de acordo-quadro (art.º 259.º),Aquisição de bens móveis,"33600000-6, Produtos farmacêuticos","Instituto Português de Oncologia de Lisboa Francisco Gentil, E. P. E. (506361616)","GLAXOSMITHKLINE-PRODUTOS FARMACEUTICOS, LDA (500139962)","2.135,43 €",28-10-2016,11-10-2016,5 dias,"Portugal, Lisboa, Lisboa",Artigo 259.º do Código dos Contratos Públicos,,,,,,1638654,CP 2015/12 - Acordo quadro para fornecimento de Medicamentos do Aparelho Respiratório às Instituições e Serviços do Serviço Nacional de Saúde,FALSE
AD3039-2016 BEVACIZUMAB 400 MG INJ-,Ao abrigo de acordo-quadro (art.º 259.º),Aquisição de bens móveis,"33600000-6, Produtos farmacêuticos","Instituto Português de Oncologia de Lisboa Francisco Gentil, E. P. E. (506361616)","ROCHE FARMACEUTICA QUIMICA, LDA (500233810)","18.947,00 €",28-10-2016,19-10-2016,5 dias,"Portugal, Lisboa, Lisboa",Artigo 259.º do Código dos Contratos Públicos,,,,,,1771819,CP 2015/6 - Acordo quadro para o fornecimento de Medicamentos do Foro Oncológico,FALSE
AD528-16DICLOFENAC 25 MG/ML INJ-3ML IV -NIMESULIDE 100 MG PO ORAL,Ao abrigo de acordo-quadro (art.º 259.º),Aquisição de bens móveis,"33600000-6, Produtos farmacêuticos","Instituto Português de Oncologia de Lisboa Francisco Gentil, E. P. E. (506361616)","LABESFAL-LAB. ESP. FARMACEUT.ALMIRO, S.A (501169580)","392,00 €",28-10-2016,19-10-2016,5 dias,"Portugal, Lisboa, Lisboa",Artigo 259.º do Código dos Contratos Públicos,,,,,,1410779,CP 2015/47 - Acordo quadro para fornecimento de medicamentos do aparelho locomotor às instituições e serviços do serviço nacional de saúde,FALSE
AD528-2016CETOROLAC 10 MG CP,Ao abrigo de acordo-quadro (art.º 259.º),Aquisição de bens móveis,"33600000-6, Produtos farmacêuticos","Instituto Português de Oncologia de Lisboa Francisco Gentil, E. P. E. (506361616)",DILOFAR- DISTRIBUIÇÃO TRANS. E LOGIST. LDA (500563004),"9.867,00 €",27-10-2016,18-10-2016,5 dias,"Portugal, Lisboa, Lisboa",Artigo 259.º do Código dos Contratos Públicos,,,,,,1410779,CP 2015/47 - Acordo quadro para fornecimento de medicamentos do aparelho locomotor às instituições e serviços do serviço nacional de saúde,FALSE
AD528-2016-CINACALCET 30 MG CP,Ao abrigo de acordo-quadro (art.º 259.º),Aquisição de bens móveis,"33600000-6, Produtos farmacêuticos","Instituto Português de Oncologia de Lisboa Francisco Gentil, E. P. E. (506361616)","AMGEN BIOFARMACEUTICA, LDA (502942959)","3.005,76 €",27-10-2016,22-04-2016,5 dias,"Portugal, Lisboa, Lisboa",Artigo 259.º do Código dos Contratos Públicos,,,,,,1410779,CP 2015/47 - Acordo quadro para fornecimento de medicamentos do aparelho locomotor às instituições e serviços do serviço nacional de saúde,FALSE
AD2899-2016 POMALIDOMIDA 4 MG,Ajuste Direto Regime Geral,Aquisição de bens móveis,"33600000-6, Produtos farmacêuticos","Instituto Português de Oncologia de Lisboa Francisco Gentil, E. P. E. (506361616)","CELGENE SOCIEDADE UNIPESSOAL, LDA (507791690)","71.685,60 €",27-10-2016,20-10-2016,5 dias,"Portugal, Lisboa, Lisboa","Artigo 24.º, n.º 1, alínea e) do Código dos Contratos Públicos",,,,,,Não aplicável.,Não aplicável.,FALSE
AD2414-16VINORELBINA 20 MG CP,Ajuste Direto Regime Geral,Aquisição de bens móveis,"33600000-6, Produtos farmacêuticos","Instituto Português de Oncologia de Lisboa Francisco Gentil, E. P. E. (506361616)","PIERRE FABRE MEDICAMENT PORTUGAL, LDA (500230366)","8.782,40 €",27-10-2016,17-10-2016,5 dias,"Portugal, Lisboa, Lisboa","Artigo 24.º, n.º 1, alínea e) do Código dos Contratos Públicos",,,,,,Não aplicável.,Não aplicável.,FALSE
AD2941-16 IDELALISIB 100  MG CP,Ajuste Direto Regime Geral,Aquisição de bens móveis,"33600000-6, Produtos farmacêuticos","Instituto Português de Oncologia de Lisboa Francisco Gentil, E. P. E. (506361616)","GILEAD SCIENCES, LDA (503604704)","11.399,94 €",27-10-2016,17-10-2016,5 dias,"Portugal, Lisboa, Lisboa","Artigo 24.º, n.º 1, alínea e) do Código dos Contratos Públicos",,,,,,Não aplicável.,Não aplicável.,FALSE
AD3054-2016-VORICONAZOL 40 MG/ML SUSP.ORAL,Ao abrigo de acordo-quadro (art.º 259.º),Aquisição de bens móveis,"33600000-6, Produtos farmacêuticos","Instituto Português de Oncologia de Lisboa Francisco Gentil, E. P. E. (506361616)","LABORATÓRIOS PFIZER, LDA (500162166)","7.066,00 €",27-10-2016,21-10-2016,5 dias,"Portugal, Lisboa, Lisboa",Artigo 259.º do Código dos Contratos Públicos,,,,,,1422736,CP 2015/41 - ACORDO QUADRO PARA FORNECIMENTO DE MEDICAMENTOS ANTI-INFECIOSOS: ANTIVÍRICOS E ANTIFÚNGICOS ÀS INSTITUIÇÕES E SERVIÇOS DO SERVIÇO NACIONAL DE SAÚDE,FALSE
AD2923-2016 ESTREPTOZOCINA 1G INJ,Ajuste Direto Regime Geral,Aquisição de bens móveis,"33600000-6, Produtos farmacêuticos","Instituto Português de Oncologia de Lisboa Francisco Gentil, E. P. E. (506361616)",IDIS LIMITED (504030298787),"25.652,00 €",26-10-2016,11-10-2016,5 dias,"Portugal, Lisboa, Lisboa","Artigo 20.º, n.º 1, alínea a) do Código dos Contratos Públicos",,,,,,Não aplicável.,Não aplicável.,FALSE
AD2896-2016 IDEALISIB 150 MG CP,Ajuste Direto Regime Geral,Aquisição de bens móveis,"33600000-6, Produtos farmacêuticos","Instituto Português de Oncologia de Lisboa Francisco Gentil, E. P. E. (506361616)","GILEAD SCIENCES, LDA. (503604704)","11.399,94 €",26-10-2016,12-10-2016,5 dias,"Portugal, Lisboa, Lisboa","Artigo 24.º, n.º 1, alínea e) do Código dos Contratos Públicos",,,,,,Não aplicável.,Não aplicável.,FALSE
AD3095-2016-DECITABINA 50 MG,Ajuste Direto Regime Geral,Aquisição de bens móveis,"33600000-6, Produtos farmacêuticos","Instituto Português de Oncologia de Lisboa Francisco Gentil, E. P. E. (506361616)",JANSSEN CILAG FARMACEUTICA LDA (500189412),"5.905,00 €",26-10-2016,24-10-2016,5 dias,"Portugal, Lisboa, Lisboa","Artigo 24.º, n.º 1, alínea e) do Código dos Contratos Públicos",,,,,,Não aplicável.,Não aplicável.,FALSE
AD286-2016-DEFLAZACORTE 6 MG CP,Ao abrigo de acordo-quadro (art.º 259.º),Aquisição de bens móveis,"33600000-6, Produtos farmacêuticos","Instituto Português de Oncologia de Lisboa Francisco Gentil, E. P. E. (506361616)",LABORATÓRIO MEDINFAR (500384045),"563,00 €",26-10-2016,17-02-2016,5 dias,"Portugal, Lisboa, Lisboa",Artigo 259.º do Código dos Contratos Públicos,,,,,,1415640,CP 2015/7 - ACORDO QUADRO PARA FORNECIMENTO DE HORMONAS E OUTROS MEDICAMENTOS USADOS NO TRATAMENTO DAS DOENÇAS ENDÓCRINAS ÀS INSTITUIÇÕES E SERVIÇOS DO SERVIÇO NACIONAL DE SAÚDE,FALSE
"AD286-2016OCTREOTIDA 20MG  20MG INJ, 10MG INJ0,",Ao abrigo de acordo-quadro (art.º 259.º),Aquisição de bens móveis,"33600000-6, Produtos farmacêuticos","Instituto Português de Oncologia de Lisboa Francisco Gentil, E. P. E. (506361616)",NOVARTIS FARMA PRODTOS FARMACEUTICOS SA (500063524),"223.343,90 €",26-10-2016,26-09-2016,5 dias,"Portugal, Lisboa, Lisboa",Artigo 259.º do Código dos Contratos Públicos,,,,,,1415640,CP 2015/7 - ACORDO QUADRO PARA FORNECIMENTO DE HORMONAS E OUTROS MEDICAMENTOS USADOS NO TRATAMENTO DAS DOENÇAS ENDÓCRINAS ÀS INSTITUIÇÕES E SERVIÇOS DO SERVIÇO NACIONAL DE SAÚDE,FALSE
AD286-2016PEGVISOMANT 40 MG INJ LM,Ao abrigo de acordo-quadro (art.º 259.º),Aquisição de bens móveis,"33600000-6, Produtos farmacêuticos","Instituto Português de Oncologia de Lisboa Francisco Gentil, E. P. E. (506361616)","PFIZER BIOFARMACEUTICA, SOCIEDADE UNIPESSOAL, LDA (513300376)","74.787,77 €",25-10-2016,20-10-2016,5 dias,"Portugal, Lisboa, Lisboa",Artigo 259.º do Código dos Contratos Públicos,,,,,,1415640,CP 2015/7 - ACORDO QUADRO PARA FORNECIMENTO DE HORMONAS E OUTROS MEDICAMENTOS USADOS NO TRATAMENTO DAS DOENÇAS ENDÓCRINAS ÀS INSTITUIÇÕES E SERVIÇOS DO SERVIÇO NACIONAL DE SAÚDE,FALSE
AD286-2016 MECASERMIN 40 MG INJ,Ao abrigo de acordo-quadro (art.º 259.º),Aquisição de bens móveis,"33600000-6, Produtos farmacêuticos","Instituto Português de Oncologia de Lisboa Francisco Gentil, E. P. E. (506361616)",IPSEN-PRODUTOS FARMACEUTICOS (502609800),"29.500,00 €",25-10-2016,17-10-2016,5 dias,"Portugal, Lisboa, Lisboa",Artigo 259.º do Código dos Contratos Públicos,,,,,,1415640,CP 2015/7 - ACORDO QUADRO PARA FORNECIMENTO DE HORMONAS E OUTROS MEDICAMENTOS USADOS NO TRATAMENTO DAS DOENÇAS ENDÓCRINAS ÀS INSTITUIÇÕES E SERVIÇOS DO SERVIÇO NACIONAL DE SAÚDE,FALSE
AD275-2016 ANTITROMBINA III 500 UI INJ+PLASMA HUMANO INACTIVADO,Ao abrigo de acordo-quadro (art.º 259.º),Aquisição de bens móveis,"33600000-6, Produtos farmacêuticos","Instituto Português de Oncologia de Lisboa Francisco Gentil, E. P. E. (506361616)","OCTAPHARMA-PRODUTOS FARMACEUTICOS, LDA (502820780)","259.661,00 €",25-10-2016,06-05-2016,5 dias,"Portugal, Lisboa, Lisboa",Artigo 259.º do Código dos Contratos Públicos,,,,,,1423488,ACORDO QUADRO PARA FORNECIMENTO DE DERIVADOS DO PLASMA HUMANO ÀS INSTITUIÇÕES E SERVIÇOS DO SERVIÇO NACIONAL DE SAÚDE CP 2015/9,FALSE
"AD267-2016 ENTECAVIR 0,5 MG+ POSACONAZOL 100 MG",Ao abrigo de acordo-quadro (art.º 259.º),Aquisição de bens móveis,"33600000-6, Produtos farmacêuticos","Instituto Português de Oncologia de Lisboa Francisco Gentil, E. P. E. (506361616)",BRISTOL-MYERS SQUIBB FARM. PORTUGUESA S.A. (500048193),"349.722,91 €",25-10-2016,09-08-2016,5 dias,"Portugal, Lisboa, Lisboa",Artigo 259.º do Código dos Contratos Públicos,,,,,,1422736,CP 2015/41 - ACORDO QUADRO PARA FORNECIMENTO DE MEDICAMENTOS ANTI-INFECIOSOS: ANTIVÍRICOS E ANTIFÚNGICOS ÀS INSTITUIÇÕES E SERVIÇOS DO SERVIÇO NACIONAL DE SAÚDE,FALSE
AD2717-2016 REGORAFENIB 40 MG CP,Ajuste Direto Regime Geral,Aquisição de bens móveis,"33600000-6, Produtos farmacêuticos","Instituto Português de Oncologia de Lisboa Francisco Gentil, E. P. E. (506361616)",BAYER PORTUGAL 40 MG CP (500043256),"9.530,64 €",25-10-2016,14-09-2016,5 dias,"Portugal, Lisboa, Lisboa","Artigo 24.º, n.º 1, alínea e) do Código dos Contratos Públicos",,,,,,Não aplicável.,Não aplicável.,FALSE
AD2715-16LANREOTIDA 120 MG INJ LM,Ao abrigo de acordo-quadro (art.º 259.º),Aquisição de bens móveis,"33600000-6, Produtos farmacêuticos","Instituto Português de Oncologia de Lisboa Francisco Gentil, E. P. E. (506361616)","IPSEN-PRODUTOS FARMACEUTICOS, S.A. (502609800)","71.706,00 €",25-10-2016,19-10-2016,5 dias,"Portugal, Lisboa, Lisboa",Artigo 259.º do Código dos Contratos Públicos,,,,,,1415640,CP 2015/7 - ACORDO QUADRO PARA FORNECIMENTO DE HORMONAS E OUTROS MEDICAMENTOS USADOS NO TRATAMENTO DAS DOENÇAS ENDÓCRINAS ÀS INSTITUIÇÕES E SERVIÇOS DO SERVIÇO NACIONAL DE SAÚDE,FALSE
AD2702- 6LEDISPAVI´+SOFOSBIVIRLEDISPAVIR +SOFOSBUVIR 910MG+400 MG,Ajuste Direto Regime Geral,Aquisição de bens móveis,"33600000-6, Produtos farmacêuticos","Instituto Português de Oncologia de Lisboa Francisco Gentil, E. P. E. (506361616)",GILEAD SCIENCES. LDA (503604704),"92.367,66 €",25-10-2016,13-09-2016,5 dias,"Portugal, Lisboa, Lisboa","Artigo 24.º, n.º 1, alínea e) do Código dos Contratos Públicos",,,,,,Não aplicável.,Não aplicável.,FALSE
AD2703-16 LEDISPAVIR+SOFOSBUVIR (90MG +400 MG,Ajuste Direto Regime Geral,Aquisição de bens móveis,"33600000-6, Produtos farmacêuticos","Instituto Português de Oncologia de Lisboa Francisco Gentil, E. P. E. (506361616)",GILEAD SCIENCES. LDA (503604704),"133.532,49 €",25-10-2016,13-09-2016,5 dias,"Portugal, Lisboa, Lisboa","Artigo 24.º, n.º 1, alínea e) do Código dos Contratos Públicos",,,,,,Não aplicável.,Não aplicável.,FALSE
AD2658-2016,Ao abrigo de acordo-quadro (art.º 259.º),Aquisição de bens móveis,"33600000-6, Produtos farmacêuticos","Instituto Português de Oncologia de Lisboa Francisco Gentil, E. P. E. (506361616)",JANSSEN CILAG FARMACEUTICA LDA (500189412),"15.071,58 €",24-10-2016,05-09-2016,5 dias,"Portugal, Lisboa, Lisboa",Artigo 259.º do Código dos Contratos Públicos,,,,,,1771819,CP 2015/6 - Acordo quadro para o fornecimento de Medicamentos do Foro Oncológico,FALSE
AD2643-16ABIRATERONA 250 MG,Ao abrigo de acordo-quadro (art.º 259.º),Aquisição de bens móveis,"33600000-6, Produtos farmacêuticos","Instituto Português de Oncologia de Lisboa Francisco Gentil, E. P. E. (506361616)",JANSSEN-CILAG FARMACEUTICA LDA (500189412),"47.694,14 €",24-10-2016,12-09-2016,5 dias,"Portugal, Lisboa, Lisboa",Artigo 259.º do Código dos Contratos Públicos,,,,,,1771819,CP 2015/6 - Acordo quadro para o fornecimento de Medicamentos do Foro Oncológico,FALSE
AD2587-16 PERTUZUMAB 420 MG/14 ML INJ IV,Ao abrigo de acordo-quadro (art.º 259.º),Aquisição de bens móveis,"33600000-6, Produtos farmacêuticos","Instituto Português de Oncologia de Lisboa Francisco Gentil, E. P. E. (506361616)",ROCHE FARMACEUTICA QUIMICA LDA (500233810),"276.165,00 €",24-10-2016,25-08-2016,5 dias,"Portugal, Lisboa, Lisboa",Artigo 259.º do Código dos Contratos Públicos,,,,,,1771819,CP 2015/6 - Acordo quadro para o fornecimento de Medicamentos do Foro Oncológico,FALSE
AD2604-16,Ao abrigo de acordo-quadro (art.º 259.º),Aquisição de bens móveis,"33600000-6, Produtos farmacêuticos","Instituto Português de Oncologia de Lisboa Francisco Gentil, E. P. E. (506361616)","ROCHE FARMACEUTICA QUIMICA, LDA (500233810)","167.565,00 €",24-10-2016,17-10-2016,5 dias,"Portugal, Lisboa, Lisboa",Artigo 259.º do Código dos Contratos Públicos,,,,,,1771819,CP 2015/6 - Acordo quadro para o fornecimento de Medicamentos do Foro Oncológico,FALSE
AD2572-2016 PEMETREXEDO 500 MG INJ,Ao abrigo de acordo-quadro (art.º 259.º),Aquisição de bens móveis,"33600000-6, Produtos farmacêuticos","Instituto Português de Oncologia de Lisboa Francisco Gentil, E. P. E. (506361616)","LILLY FARMA PRODUTOS FARMACEUTICOS, LDA (500165602)","43.978,05 €",24-10-2016,23-08-2016,5 dias,"Portugal, Lisboa, Lisboa",Artigo 259.º do Código dos Contratos Públicos,,,,,,1771819,CP 2015/6 - Acordo quadro para o fornecimento de Medicamentos do Foro Oncológico,FALSE
AD2678-16 CRIZOTINIB 250 MG CP,Ao abrigo de acordo-quadro (art.º 259.º),Aquisição de bens móveis,"33600000-6, Produtos farmacêuticos","Instituto Português de Oncologia de Lisboa Francisco Gentil, E. P. E. (506361616)","PFIZER BIOFARMACEUTICA, SOCIEDADE UNIPESSOAL, LDA (513300376)","63.229,46 €",24-10-2016,28-09-2016,5 dias,"Portugal, Lisboa, Lisboa",Artigo 259.º do Código dos Contratos Públicos,,,,,,1771819,CP 2015/6 - Acordo quadro para o fornecimento de Medicamentos do Foro Oncológico,FALSE
AD2564-16-ARSENICO TRIOXIDO 1 MG /ML INJ-10 ML,Ao abrigo de acordo-quadro (art.º 259.º),Aquisição de bens móveis,"33600000-6, Produtos farmacêuticos","Instituto Português de Oncologia de Lisboa Francisco Gentil, E. P. E. (506361616)","TEVA PHARMA PRODUTOS FARMACEUTICOS,LDA (507045491)","13.897,64 €",21-10-2016,13-09-2016,5 dias,"Portugal, Lisboa, Lisboa",Artigo 259.º do Código dos Contratos Públicos,,,,,,1771819,CP 2015/6 - Acordo quadro para o fornecimento de Medicamentos do Foro Oncológico,FALSE
AD2521-2016TEMOZOLOMIDA 20MG CP,Ao abrigo de acordo-quadro (art.º 259.º),Aquisição de bens móveis,"33600000-6, Produtos farmacêuticos","Instituto Português de Oncologia de Lisboa Francisco Gentil, E. P. E. (506361616)","ACCORD HEALTHCARE UNIPESSOAL, LDA (508622263)","10.080,00 €",21-10-2016,11-10-2016,5 dias,"Portugal, Lisboa, Lisboa",Artigo 259.º do Código dos Contratos Públicos,,,,,,2371297,CP 2016/10 - Acordo Quadro para fornecimento de Material de Penso de Efeito Terapêutico às Instituições e Serviços do Serviço Nacional de Saúde,FALSE
AD2523-2016 SUNITINIB 25 MG CP,Ao abrigo de acordo-quadro (art.º 259.º),Aquisição de bens móveis,"33600000-6, Produtos farmacêuticos","Instituto Português de Oncologia de Lisboa Francisco Gentil, E. P. E. (506361616)","PFIZER BIOFARMACEUTICA, SOCIEDADE UNIPESSOAL (513300376)","56.406,00 €",21-10-2016,29-09-2016,5 dias,"Portugal, Lisboa, Lisboa",Artigo 259.º do Código dos Contratos Públicos,,,,,,1771819,CP 2015/6 - Acordo quadro para o fornecimento de Medicamentos do Foro Oncológico,FALSE
"Rituximab 120MG/ML, 11.7ML INJ SC",Ao abrigo de acordo-quadro (art.º 259.º),Aquisição de bens móveis,"33600000-6, Produtos farmacêuticos","Instituto Português de Oncologia de Lisboa Francisco Gentil, E. P. E. (506361616)","ROCHE FARMACEUTICA QUIMICA, LDA. (500233810)","1.477.760,00 €",21-10-2016,20-09-2016,90 dias,"Portugal, Lisboa, Lisboa",Artigo 259.º do Código dos Contratos Públicos,,,,,,1771819,CP 2015/6 - Acordo quadro para o fornecimento de Medicamentos do Foro Oncológico,FALSE
AD2520-2016 EVEROLIMUS 5 MG CP,Ao abrigo de acordo-quadro (art.º 259.º),Aquisição de bens móveis,"33600000-6, Produtos farmacêuticos","Instituto Português de Oncologia de Lisboa Francisco Gentil, E. P. E. (506361616)",NOVARTIS FARMA PRODUTOS FARMACEUTICOS SA (500063524),"7.572,35 €",21-10-2016,12-10-2016,5 dias,"Portugal, Lisboa, Lisboa",Artigo 259.º do Código dos Contratos Públicos,,,,,,1771819,CP 2015/6 - Acordo quadro para o fornecimento de Medicamentos do Foro Oncológico,FALSE
AD2516-2016 PAZOPANIB 400 CP,Ao abrigo de acordo-quadro (art.º 259.º),Aquisição de bens móveis,"33600000-6, Produtos farmacêuticos","Instituto Português de Oncologia de Lisboa Francisco Gentil, E. P. E. (506361616)",NOVARTIS FARMA PRODUTOS FARMACEUTICOS SA (500063524),"51.453,00 €",21-10-2016,29-09-2016,5 dias,"Portugal, Lisboa, Lisboa",Artigo 259.º do Código dos Contratos Públicos,,,,,,1771819,CP 2015/6 - Acordo quadro para o fornecimento de Medicamentos do Foro Oncológico,FALSE
AD2327-2016-METOTREXATO 100 MG/ML INJ-10ML,Ao abrigo de acordo-quadro (art.º 259.º),Aquisição de bens móveis,"33600000-6, Produtos farmacêuticos","Instituto Português de Oncologia de Lisboa Francisco Gentil, E. P. E. (506361616)",TEVA PHARMA -PRODUTOS FARMACEUTICOS 100 MG/ML INJ -10 ML (507045491),"45.000,00 €",21-10-2016,12-09-2016,5 dias,"Portugal, Lisboa, Lisboa",Artigo 259.º do Código dos Contratos Públicos,,,,,,1771819,CP 2015/6 - Acordo quadro para o fornecimento de Medicamentos do Foro Oncológico,FALSE
