Objeto do Contrato,Tipo de Procedimento,Tipo(s) de Contrato,CPVs,Entidade(s) Adjudicante(s),Entidade(s) Adjudicatária(s),Preço Contratual,Data de Publicação,Data de Celebração do Contrato,Prazo de Execução,Local de Execução,Fundamentação,Data de Fecho do Contrato,Preço Total Efetivo,Causas das Alterações ao Prazo,Causas das Alterações ao Preço,Estado,N.º registo do Acordo Quadro,Descrição do Acordo Quadro,Procedimento Centralizado
2600 bisnagas heparinóide 3 mg/g creme 40 g,Ajuste Direto Regime Geral,Aquisição de bens móveis,"33600000-6, Produtos farmacêuticos","Administração Regional de Saúde do Norte, I. P. (503135593)","Ciclum Farma unipessoal, Lda (504362674)","9.100,00 €",20-12-2016,11-11-2016,365 dias,"Portugal, Porto, Maia<BR/>Portugal, Vila Real, Vila Real","Artigo 20.º, n.º 1, alínea a) do Código dos Contratos Públicos",16-12-2016,"9.100,00 €","",,,Não aplicável.,Não aplicável.,FALSE
70 Haloperidol 5 mg/ml sol inj IM IV,Ajuste Direto Regime Geral,Aquisição de bens móveis,"33600000-6, Produtos farmacêuticos","Administração Regional de Saúde do Norte, I. P. (503135593)",Ratiopharm (502414910),"32,90 €",20-12-2016,18-05-2016,365 dias,"Portugal, Vila Real, Vila Real<BR/>Portugal, Porto, Maia","Artigo 24.º, n.º 1, alínea e) do Código dos Contratos Públicos",16-08-2016,"32,90 €","",,,Não aplicável.,Não aplicável.,FALSE
"300 sistema fechado colheita aspiração plasma 2,6 ml 1000 Sistema fechado colheita aspiração plasma 4/4.5 ml 800 sistema fechado colheita aspiração hemograma 3 ml",Ao abrigo de acordo-quadro (art.º 259.º),Aquisição de bens móveis,"33600000-6, Produtos farmacêuticos","Administração Regional de Saúde do Norte,IP (ARSN) (503135593)","Sarsted, Lda (503019461)","237,40 €",20-12-2016,14-06-2016,365 dias,"Portugal, Porto, Maia<BR/>Portugal, Vila Real, Vila Real",Artigo 259.º do Código dos Contratos Públicos,11-10-2016,"237,40 €","",,,1350003,Acordo Quadro para fornecimento de sistemas fechados e material diverso de recolha de sangue às instituições do SNS,FALSE
1200 Borboletas extração múltipla por vácuo 23 G,Ao abrigo de acordo-quadro (art.º 259.º),Aquisição de bens móveis,"33600000-6, Produtos farmacêuticos","Administração Regional de Saúde do Norte,IP (ARSN) (503135593)","Vacuete Portugal, SA (505348470)","426,00 €",20-12-2016,14-06-2016,365 dias,"Portugal, Porto, Maia<BR/>Portugal, Vila Real, Vila Real",Artigo 259.º do Código dos Contratos Públicos,03-08-2016,"426,00 €","",,,1350003,Acordo Quadro para fornecimento de sistemas fechados e material diverso de recolha de sangue às instituições do SNS,FALSE
5 malas termicas de 30 lts,Ajuste Direto Regime Geral,Aquisição de bens móveis,"18921000-1, Malas","Administração Regional de Saúde do Norte, I. P. (503135593)",A. de Oliveira Costa - Oliva (123964849),"317,07 €",20-12-2016,08-07-2016,365 dias,"Portugal, Vila Real, Vila Real<BR/>Portugal, Porto, Maia","Artigo 20.º, n.º 1, alínea a) do Código dos Contratos Públicos",09-08-2016,"317,07 €","",,,Não aplicável.,Não aplicável.,FALSE
600 Kg detergente alcalino em pó 50 sacos de sal,Ajuste Direto Regime Geral,Aquisição de bens móveis,"39831200-8, Detergentes","Administração Regional de Saúde do Norte, I. P. (503135593)","Toxitel comercio de quimicos, Lda (507121414)","3.568,00 €",20-12-2016,23-06-2016,365 dias,"Portugal, Vila Real, Vila Real<BR/>Portugal, Porto, Maia","Artigo 20.º, n.º 1, alínea a) do Código dos Contratos Públicos",14-11-2016,"3.568,00 €","",,,Não aplicável.,Não aplicável.,FALSE
Serviços de plataforma eletrónica para contratação pública. Processo 16000502,Ajuste Direto Regime Geral,Aquisição de serviços,"72416000-9, Fornecedores de aplicações","Administração Regional de Saúde do Norte, I. P. (503135593)","Vortal - Comércio Electrónico Consultadoria e Multimédia, SA (505141019)","14.634,14 €",20-12-2016,03-03-2016,365 dias,"Portugal, Porto, Porto","Artigo 20.º, n.º 1, alínea a) do Código dos Contratos Públicos",15-11-2016,"14.634,14 €","",,,Não aplicável.,Não aplicável.,FALSE
"Aquisição de Extintores para os ACES, DICAD e Serviços Centrais da ARS - APROV-PRT 16001998",Ajuste Direto Regime Geral,Aquisição de bens móveis,"35111300-8, Extintores","Administração Regional de Saúde do Norte, I. P. (503135593)","Flaviprotec, Proteção e Segurança (508951844)","3.590,00 €",19-12-2016,07-10-2016,57 dias,"Portugal, Distrito não determinado, Concelho não determinado<BR/>Portugal, Porto, Porto","Artigo 20.º, n.º 1, alínea a) do Código dos Contratos Públicos",22-11-2016,"3.590,00 €","",,,Não aplicável.,Não aplicável.,FALSE
5000 Mod. 1320 - Ficha de identificação (CDP) 4000 Mod. 1430 - Ficha de consulta (CDP) 1000 Cartão hipertenso,Ajuste Direto Regime Geral,Aquisição de bens móveis,"22100000-1, Livros, brochuras e folhetos impressos","Administração Regional de Saúde do Norte, I. P. (503135593)","Gráfica RMS - Raul Manuel de Sousa, Lda (500675287)","206,00 €",16-12-2016,18-10-2016,365 dias,"Portugal, Porto, Maia<BR/>Portugal, Vila Real, Vila Real","Artigo 20.º, n.º 1, alínea a) do Código dos Contratos Públicos",30-12-2016,"206,00 €","",,,Não aplicável.,Não aplicável.,FALSE
8000 cartão de consulta 5000 mod 2720 envelope de processo clinico 3000 mod 6095 envelope saco 28x12 cm 50000 oficio economato geral 25000 oficio A5 100000 saco para mediação,Ajuste Direto Regime Geral,Aquisição de bens móveis,"22100000-1, Livros, brochuras e folhetos impressos","Administração Regional de Saúde do Norte, I. P. (503135593)","Tipografia Central Tirsense, Lda (501068902)","3.447,50 €",16-12-2016,18-10-2016,365 dias,"Portugal, Porto, Maia<BR/>Portugal, Vila Real, Vila Real","Artigo 20.º, n.º 1, alínea a) do Código dos Contratos Públicos",30-12-2016,"3.447,50 €","",,,Não aplicável.,Não aplicável.,FALSE
22 Toalhas brancas 140x70 cm 22 Toalhas brancas 100x50 cm,Ajuste Direto Regime Geral,Aquisição de bens móveis,"39513100-2, Toalhas de mesa","Administração Regional de Saúde do Norte, I. P. (503135593)","Paulo Caldeireiro, Lda (506429830)","165,54 €",16-12-2016,11-10-2016,365 dias,"Portugal, Porto, Maia<BR/>Portugal, Vila Real, Vila Real","Artigo 20.º, n.º 1, alínea a) do Código dos Contratos Públicos",18-10-2016,"165,54 €","",,,Não aplicável.,Não aplicável.,FALSE
1620 comprimidos tradazona 150 mg,Ao abrigo de acordo-quadro (art.º 259.º),Aquisição de bens móveis,"33600000-6, Produtos farmacêuticos","Administração Regional de Saúde do Norte,IP (ARSN) (503135593)","Generis Farmacêutica, SA (508107997)","129,60 €",16-12-2016,09-11-2016,365 dias,"Portugal, Vila Real, Vila Real<BR/>Portugal, Porto, Maia",Artigo 259.º do Código dos Contratos Públicos,11-11-2016,"129,60 €","",,,1974985,"Medicamentos Analgésicos, Antipiréticos e Antidepressivos",FALSE
500 gramas Brain heart 2000 gramas meio de cultura columbia agar 2000 gramas perfringens agar,Ajuste Direto Regime Geral,Aquisição de bens móveis,"33696500-0, Reagentes de laboratório","Administração Regional de Saúde do Norte,IP (ARSN) (503135593)","Type Solution, SA (508400317)","685,91 €",15-12-2016,13-05-2016,365 dias,"Portugal, Vila Real, Vila Real<BR/>Portugal, Porto, Maia","Artigo 20.º, n.º 1, alínea a) do Código dos Contratos Públicos",13-05-2016,"685,91 €","",,,Não aplicável.,Não aplicável.,FALSE
900 Carteiras Sais rehidratação oral pó sol oral,Ajuste Direto Regime Geral,Aquisição de bens móveis,"33600000-6, Produtos farmacêuticos","Administração Regional de Saúde do Norte,IP (ARSN) (503135593)","Sanofi - Produtos Farmacêuticos, Lda (500134960)","135,00 €",15-12-2016,14-11-2016,365 dias,"Portugal, Vila Real, Vila Real<BR/>Portugal, Porto, Maia","Artigo 20.º, n.º 1, alínea a) do Código dos Contratos Públicos",14-11-2016,"135,00 €","",,,Não aplicável.,Não aplicável.,FALSE
100 Unidades Máscara de O2 alto débito pediatrica 4000 unidades Penso oftálmico esterilizado adulto,Ajuste Direto Regime Geral,Aquisição de bens móveis,"33140000-3, Material médico de consumo","Administração Regional de Saúde do Norte,IP (ARSN) (503135593)","Ezequiel Panão Jorge, Lda (501412727)","490,00 €",15-12-2016,10-11-2016,365 dias,"Portugal, Vila Real, Vila Real<BR/>Portugal, Porto, Maia","Artigo 20.º, n.º 1, alínea a) do Código dos Contratos Públicos",10-11-2016,"490,00 €","",,,Não aplicável.,Não aplicável.,FALSE
10000 unidades de Frasco plástico p/colheita 50 ml 2500 unidades de Frasco plástico p/colheita biópsia 120 ml,Ajuste Direto Regime Geral,Aquisição de bens móveis,"33140000-3, Material médico de consumo","Administração Regional de Saúde do Norte,IP (ARSN) (503135593)","CSP Saude, SA (508440246)","565,00 €",15-12-2016,09-11-2016,365 dias,"Portugal, Porto, Maia<BR/>Portugal, Vila Real, Vila Real","Artigo 20.º, n.º 1, alínea a) do Código dos Contratos Públicos",09-11-2016,"565,00 €","",,,Não aplicável.,Não aplicável.,FALSE
10 Teste Igra 2 Plate Kit Elisa,Ajuste Direto Regime Geral,Aquisição de bens móveis,"33600000-6, Produtos farmacêuticos","Administração Regional de Saúde do Norte,IP (ARSN) (503135593)","Quilaban - Qum. Lab. Analitica, Lda (500399670)","9.131,40 €",15-12-2016,03-11-2016,365 dias,"Portugal, Vila Real, Vila Real<BR/>Portugal, Porto, Maia","Artigo 24.º, n.º 1, alínea e) do Código dos Contratos Públicos","","","",,,Não aplicável.,Não aplicável.,FALSE
120 talas p/dedos 1/2 100 talas p/dedos 3/4,Ajuste Direto Regime Geral,Aquisição de bens móveis,"33140000-3, Material médico de consumo","Administração Regional de Saúde do Norte, I. P. (503135593)",Anastácio Saldanha Unip. Lda (505804441),"168,86 €",15-12-2016,05-07-2016,365 dias,"Portugal, Vila Real, Vila Real<BR/>Portugal, Porto, Maia","Artigo 20.º, n.º 1, alínea a) do Código dos Contratos Públicos",05-07-2016,"168,86 €","",,,Não aplicável.,Não aplicável.,FALSE
50 fita impressora refletron epson ERC - 09 black,Ajuste Direto Regime Geral,Aquisição de bens móveis,"30192320-0, Fita impressora","Administração Regional de Saúde do Norte,IP (ARSN) (503135593)","Roche Sietemas de diagnóstico, Lda (504282921)","338,25 €",15-12-2016,07-06-2016,365 dias,"Portugal, Porto, Maia<BR/>Portugal, Vila Real, Vila Real","Artigo 20.º, n.º 1, alínea a) do Código dos Contratos Públicos",07-06-2016,"338,25 €","",,,Não aplicável.,Não aplicável.,FALSE
3000 Sonda nelaton CH18 feminina 6000 sonda nelaton CH10 masculina 10000 sonda nelaton CH 10 femimina,Ajuste Direto Regime Geral,Aquisição de bens móveis,"33140000-3, Material médico de consumo","Administração Regional de Saúde do Norte,IP (ARSN) (503135593)",Mundinter (500199906),"3.381,51 €",15-12-2016,08-07-2016,365 dias,"Portugal, Porto, Maia<BR/>Portugal, Vila Real, Vila Real","Artigo 20.º, n.º 1, alínea a) do Código dos Contratos Públicos",08-07-2016,"3.381,51 €","",,,Não aplicável.,Não aplicável.,FALSE
35000 pulseiras de identificação amarela 15000 pulseiras de identificação verde,Ajuste Direto Regime Geral,Aquisição de bens móveis,"22455100-5, Pulseiras de identificação","Administração Regional de Saúde do Norte,IP (ARSN) (503135593)",Ezequiel Panão Jorge (501412727),"899,50 €",15-12-2016,25-08-2016,365 dias,"Portugal, Vila Real, Vila Real<BR/>Portugal, Porto, Maia","Artigo 20.º, n.º 1, alínea a) do Código dos Contratos Públicos",25-08-2016,"899,50 €","",,,Não aplicável.,Não aplicável.,FALSE
Aquisição de fixador para citologia APROV-PRT 16001381 - AP 1128,Ajuste Direto Regime Geral,Aquisição de bens móveis,"33140000-3, Material médico de consumo","Administração Regional de Saúde do Norte,IP (ARSN) (503135593)",Bastos Viegas (500042772),"762,00 €",15-12-2016,20-06-2016,92 dias,"Portugal, Vila Real, Vila Real<BR/>Portugal, Distrito não determinado, Concelho não determinado<BR/>Portugal, Porto, Porto","Artigo 20.º, n.º 1, alínea a) do Código dos Contratos Públicos",02-09-2016,"762,00 €","",,,Não aplicável.,Não aplicável.,FALSE
Adaptação para sala de tratamentos - USF Régua,Ajuste Direto Regime Geral,Empreitadas de obras públicas,"45259900-6, Modernização de instalações","Administração Regional de Saúde do Norte, I. P. (503135593)","Ferteimetal, Lda  (510146058)","4.959,76 €",15-12-2016,12-12-2016,10 dias,"Portugal, Vila Real, Peso da Régua","Artigo 19.º, alínea a) do Código dos Contratos Públicos","","4.959,76 €",Verificou-se um ligeiro avanço.,,,Não aplicável.,Não aplicável.,FALSE
Remodelação da zona de espera - USF Régua,Ajuste Direto Regime Geral,Empreitadas de obras públicas,"45259000-7, Reparação e manutenção de instalações","Administração Regional de Saúde do Norte, I. P. (503135593)","Ferteimetal, Lda  (510146058)","4.963,68 €",13-12-2016,12-12-2016,10 dias,"Portugal, Vila Real, Peso da Régua","Artigo 19.º, alínea a) do Código dos Contratos Públicos","","4.963,68 €",Verificou-se um ligeiro avanço.,,,Não aplicável.,Não aplicável.,FALSE
Aquisição do Lote 6,Concurso público,Aquisição de bens móveis,"33140000-3, Material médico de consumo","Administração Regional de Saúde do Norte, I. P. (503135593)",Paul Hartmann (502271728),"18.017,88 €",13-12-2016,12-07-2016,180 dias,"Portugal, Vila Real, Vila Real<BR/>Portugal, Porto, Maia",Artigo 155.º do Código dos Contratos Públicos,21-07-2016,"18.017,88 €","",,,Não aplicável.,Não aplicável.,FALSE
Aquisição do Lote 2,Concurso público,Aquisição de bens móveis,"33140000-3, Material médico de consumo","Administração Regional de Saúde do Norte, I. P. (503135593)","Smith & Nephew, Lda (503552461)","44.550,00 €",13-12-2016,12-07-2016,180 dias,"Portugal, Porto, Maia<BR/>Portugal, Vila Real, Vila Real",Artigo 155.º do Código dos Contratos Públicos,14-07-2016,"44.550,00 €","",,,Não aplicável.,Não aplicável.,FALSE
Aquisição do Lote 1,Concurso público,Aquisição de bens móveis,"33140000-3, Material médico de consumo","Administração Regional de Saúde do Norte, I. P. (503135593)",Molnlycke Health Care (511101066),"45.240,00 €",13-12-2016,12-07-2016,180 dias,"Portugal, Vila Real, Vila Real<BR/>Portugal, Porto, Maia",Artigo 155.º do Código dos Contratos Públicos,31-08-2016,"45.240,00 €","",,,Não aplicável.,Não aplicável.,FALSE
Aquisição de 2 Retinógrafos APROV-PRT 16002306,Ajuste Direto Regime Geral,Aquisição de bens móveis,"33122000-1, Equipamento oftalmológico","Administração Regional de Saúde do Norte, I. P. (503135593)","PM Equipamentos e Serviços, Lda. (508299900)","58.730,00 €",13-12-2016,26-10-2016,66 dias,"Portugal, Porto, Porto","Artigo 24.º, n.º 1, alínea e) do Código dos Contratos Públicos",29-10-2016,"58.730,00 €","",,,Não aplicável.,Não aplicável.,FALSE
Aquisição  dos Lotes 1 e 2,Ajuste Direto Regime Geral,Aquisição de bens móveis,"33100000-1, Equipamento médico","Administração Regional de Saúde do Norte,IP (ARSN) (503135593)",Ezequiel Panão Jorge. Lda (501412727),"197,25 €",13-12-2016,29-08-2016,120 dias,"Portugal, Vila Real, Vila Real<BR/>Portugal, Porto, Maia","Artigo 20.º, n.º 1, alínea a) do Código dos Contratos Públicos",17-11-2016,"197,25 €","",,,Não aplicável.,Não aplicável.,FALSE
AP 1484 - Aquisição de 1000 ampolas de iamina 100 mg/2 ml Sol inj 2 ml IM IV SC,Ao abrigo de acordo-quadro (art.º 258.º),Aquisição de bens móveis,"33600000-6, Produtos farmacêuticos","Administração Regional de Saúde do Norte, I. P. (503135593)","Labesfal - Laboratórios Almiro, S.A. (501169580)","1.781,20 €",13-12-2016,15-11-2016,60 dias,"Portugal, Vila Real, Vila Real<BR/>Portugal, Porto, Maia",Artigo 258.º do Código dos Contratos Públicos,14-12-2016,"1.781,20 €","",,,1377429,Acordo Quadro para fornecimento de medicamentos para Nutrição Parentérica às Instituições e Serviços do Serviço Nacional de Saúde,FALSE
"Aquisição de 300 unid de teste rápido Anfetaminas e 4980 comprimidos de nitroglicerina 0,5 mg",Ajuste Direto Regime Geral,Aquisição de bens móveis,"33600000-6, Produtos farmacêuticos","Administração Regional de Saúde do Norte,IP (ARSN) (503135593)","Quilaban - Quimica Lab. Analítica, Lda (500399670)","566,87 €",13-12-2016,15-11-2016,60 dias,"Portugal, Porto, Maia<BR/>Portugal, Vila Real, Vila Real","Artigo 20.º, n.º 1, alínea a) do Código dos Contratos Públicos",12-12-2016,"566,87 €","",,,Não aplicável.,Não aplicável.,FALSE
Aquisição de 40 unid colares cervical Adulto,Ajuste Direto Regime Geral,Aquisição de bens móveis,"33140000-3, Material médico de consumo","Administração Regional de Saúde do Norte,IP (ARSN) (503135593)","Bastos Viegas, S.A. (500042772)","872,00 €",13-12-2016,15-11-2016,60 dias,"Portugal, Porto, Maia<BR/>Portugal, Vila Real, Vila Real","Artigo 20.º, n.º 1, alínea a) do Código dos Contratos Públicos",13-12-2016,"872,00 €","",,,Não aplicável.,Não aplicável.,FALSE
Aquisição de 8500 bisnagas de betametasona 1 mg/g creme,Ao abrigo de acordo-quadro (art.º 258.º),Aquisição de bens móveis,"33600000-6, Produtos farmacêuticos","Administração Regional de Saúde do Norte, I. P. (503135593)","Merck Sharp & Dohme, Lda (500191360)","15.725,00 €",13-12-2016,06-10-2016,90 dias,"Portugal, Vila Real, Vila Real",Artigo 258.º do Código dos Contratos Públicos,12-10-2016,"15.725,00 €","",,,1513257,Acordo quadro para fornecimento de Medicamentos diversos II   às Instituições e Serviços do Serviço Nacional de Saúde,FALSE
Aquisição de reagentes e produtos de diagnóstico - 3 caixas de reflotron Clean+Check,Ajuste Direto Regime Geral,Aquisição de bens móveis,"33694000-1, Meios de diagnóstico","Administração Regional de Saúde do Norte, I. P. (503135593)","Roche Sistemas de diagnósticos, Lda (504282921)","52,86 €",13-12-2016,17-11-2016,60 dias,"Portugal, Porto, Maia<BR/>Portugal, Vila Real, Vila Real","Artigo 24.º, n.º 1, alínea e) do Código dos Contratos Públicos",17-11-2016,"52,86 €","",,,Não aplicável.,Não aplicável.,FALSE
AP 1644 - Aquisição de produtos farmacêuticos,Ao abrigo de acordo-quadro (art.º 258.º),Aquisição de bens móveis,"33600000-6, Produtos farmacêuticos","Administração Regional de Saúde do Norte, I. P. (503135593)",UNILFARMA (500293023),"6,62 €",13-12-2016,17-10-2016,90 dias,"Portugal, Vila Real, Vila Real<BR/>Portugal, Porto, Maia",Artigo 258.º do Código dos Contratos Públicos,24-10-2016,"6,62 €","",,,1179915,"CONCURSO PÚBLICO PARA A CELEBRAÇÃO DE CONTRATOS PÚBLICOS DE APROVISIONAMENTO PARA A ÁREA DA SAÚDE, COM VISTA AO FORNECIMENTO DE MEDICAMENTOS DO APARELHO CARDIOVASCULAR, ÀS INSTITUIÇÕES E SERVIÇOS DO SERVIÇO NACIONAL DE SAÚDE",FALSE
Execução de Instalação Sanitária (Incentivos) - USF Amanhecer,Ajuste Direto Regime Geral,Empreitadas de obras públicas,"45259000-7, Reparação e manutenção de instalações","Administração Regional de Saúde do Norte, I. P. (503135593)",Evaristo Vieira & Filho Lda  (501125892),"3.685,28 €",13-12-2016,27-09-2016,15 dias,"Portugal, Porto, Gondomar","Artigo 19.º, alínea a) do Código dos Contratos Públicos","","3.685,28 €","",,,Não aplicável.,Não aplicável.,FALSE
Adaptação de um Gabinete para o SNIPI - UCSP Paramos,Ajuste Direto Regime Geral,Empreitadas de obras públicas,"45454000-4, Obras de reestruturação","Administração Regional de Saúde do Norte, I. P. (503135593)",Surpreender & Seduzir - Construções Unipessoal Lda  (509621457),"3.255,45 €",13-12-2016,05-12-2016,15 dias,"Portugal, Aveiro, Espinho","Artigo 19.º, alínea a) do Código dos Contratos Públicos","","3.255,45 €",Verificou-se um avanço na execução dos trabalhos.,,,Não aplicável.,Não aplicável.,FALSE
Trabalhos de pichelaria - USF Alto da Maia,Ajuste Direto Regime Geral,Empreitadas de obras públicas,"45330000-9, Instalação de canalizações","Administração Regional de Saúde do Norte, I. P. (503135593)",Evaristo Vieira & Filho Lda  (501125892),"4.445,29 €",13-12-2016,06-12-2016,15 dias,"Portugal, Porto, Maia","Artigo 19.º, alínea a) do Código dos Contratos Públicos","","4.445,29 €",Verificou-se um avanço na execução dos trabalhos.,,,Não aplicável.,Não aplicável.,FALSE
AP1472 - Aquisição de 250 delimitador descartável esteril e  1000gr de meio de cultura BX Agar,Ajuste Direto Regime Geral,Aquisição de bens móveis,"33694000-1, Meios de diagnóstico","Administração Regional de Saúde do Norte,IP (ARSN) (503135593)","PVL - Produtos para laboratório, Lda (501411852)","828,00 €",12-12-2016,11-10-2016,90 dias,"Portugal, Porto, Maia<BR/>Portugal, Vila Real, Vila Real","Artigo 20.º, n.º 1, alínea a) do Código dos Contratos Públicos",13-12-2016,"828,00 €","",,,Não aplicável.,Não aplicável.,FALSE
AP 1695 - Aquisição de 700 unidades de batas de transferência irrecuperável (CDP),Ajuste Direto Regime Geral,Aquisição de bens móveis,"33140000-3, Material médico de consumo","Administração Regional de Saúde do Norte, I. P. (503135593)","HR Hospitalar, Unipessoal, Lda (501895558)","304,50 €",12-12-2016,15-11-2016,60 dias,"Portugal, Porto, Maia<BR/>Portugal, Vila Real, Vila Real","Artigo 20.º, n.º 1, alínea a) do Código dos Contratos Públicos",18-11-2016,"304,50 €","",,,Não aplicável.,Não aplicável.,FALSE
"AP 1486 - Aquisição de reagente determinação VIH 1,2 no sangue",Ao abrigo de acordo-quadro (art.º 258.º),Aquisição de bens móveis,"33694000-1, Meios de diagnóstico","Administração Regional de Saúde do Norte, I. P. (503135593)","ALERE, Lda (502518863)","44.550,00 €",12-12-2016,15-11-2016,60 dias,"Portugal, Porto, Maia<BR/>Portugal, Vila Real, Vila Real",Artigo 258.º do Código dos Contratos Públicos,12-12-2016,"44.550,00 €","",,,611510,"CONCURSO PÚBLICO PARA A CELEBRAÇÃO DE CONTRATOS PÚBLICOS DE APROVISIONAMENTO PARA A ÁREA DA SAÚDE, COM VISTA AO FORNECIMENTO DE MATERIAL DE PREVENÇÃO E DETEÇÃO HIV ÀS INSTITUIÇÕES E SERVIÇOS DO SERVIÇO NACIONAL DE SAÚDE",FALSE
AP 1647 - Aquisição de produtos farmacêuticos - 20 frascos de Ipecacuanha,Ajuste Direto Regime Geral,Aquisição de bens móveis,"33600000-6, Produtos farmacêuticos","Administração Regional de Saúde do Norte, I. P. (503135593)",Laboratório Militar (600019675),"88,40 €",12-12-2016,15-11-2016,60 dias,"Portugal, Vila Real, Vila Real<BR/>Portugal, Porto, Maia","Artigo 24.º, n.º 1, alínea e) do Código dos Contratos Públicos",18-11-2016,"88,40 €","",,,Não aplicável.,Não aplicável.,FALSE
" 1692 - Aquisição de rolamina6,7 mg/g Emul cut Bisnaga 100 ml",Ao abrigo de acordo-quadro (art.º 258.º),Aquisição de bens móveis,"33600000-6, Produtos farmacêuticos","Administração Regional de Saúde do Norte, I. P. (503135593)","Johnson & Johnson, Lda (500153370)","33.307,20 €",12-12-2016,07-10-2016,90 dias,"Portugal, Vila Real, Vila Real<BR/>Portugal, Porto, Maia",Artigo 258.º do Código dos Contratos Públicos,03-11-2016,"33.307,20 €","",,,1315192,Acordo Quadro para fornecimento de material de penso de efeito terapêutico às Instituições e Serviços do Serviço Nacional de Saúde,FALSE
AP 1704 - Aquisição de 1848 comprimidos de Moxifloxacina,Ao abrigo de acordo-quadro (art.º 259.º),Aquisição de bens móveis,"33600000-6, Produtos farmacêuticos","Administração Regional de Saúde do Norte, I. P. (503135593)","Bayer Portugal, S.A. (500043256)","3.769,92 €",12-12-2016,11-10-2016,90 dias,"Portugal, Porto, Maia<BR/>Portugal, Vila Real, Vila Real",Artigo 259.º do Código dos Contratos Públicos,17-10-2016,"3.769,92 €","",,,1326195,ACORDO QUADRO PARA FORNECIMENTO DE MEDICAMENTOS ANTI-INFECIOSOS: EXCETO ANTIVÍRICOS E ANTIFÚNGICOS ÀS INSTITUIÇÕES E SERVIÇOS DO SERVIÇO NACIONAL DE SAÚDE,FALSE
AP 1483 - Aquisição de 13 020 unidades de teste rápido de cocaína,Ao abrigo de acordo-quadro (art.º 259.º),Aquisição de bens móveis,"33694000-1, Meios de diagnóstico","Administração Regional de Saúde do Norte, I. P. (503135593)","Normax - Fábrica de Vidros Científicos, Lda (500203130)","11.067,00 €",12-12-2016,22-11-2016,60 dias,"Portugal, Porto, Maia<BR/>Portugal, Vila Real, Vila Real",Artigo 259.º do Código dos Contratos Públicos,29-12-2016,"11.067,00 €","",,,1555404,CP 2015/73 - Acordo quadro para fornecimento de Reagentes - Testes Rápidos às Instituições e Serviços do Serviço Nacional de Saúde,FALSE
AP 1483 - Aquisição  de 500 unid de teste Rápido Benzodiazepinas,Ao abrigo de acordo-quadro (art.º 259.º),Aquisição de bens móveis,"33694000-1, Meios de diagnóstico","Administração Regional de Saúde do Norte, I. P. (503135593)","Quilaban - Quimica lab. Analítica, Lda (500399670)","82,60 €",12-12-2016,22-11-2016,60 dias,"Portugal, Vila Real, Vila Real<BR/>Portugal, Porto, Maia",Artigo 259.º do Código dos Contratos Públicos,23-12-2016,"82,60 €","",,,1555404,CP 2015/73 - Acordo quadro para fornecimento de Reagentes - Testes Rápidos às Instituições e Serviços do Serviço Nacional de Saúde,FALSE
AP 1483 - Aquisição de reagentes e produtos de diagnóstico 80 .000 unidades de reagente determinação microalbuminúria,Ao abrigo de acordo-quadro (art.º 259.º),Aquisição de bens móveis,"33694000-1, Meios de diagnóstico","Administração Regional de Saúde do Norte, I. P. (503135593)","Siemens Healthcare Diagnóstico, Lda (507925173)","72.800,00 €",12-12-2016,22-11-2016,60 dias,"Portugal, Porto, Maia<BR/>Portugal, Vila Real, Vila Real",Artigo 259.º do Código dos Contratos Públicos,23-12-2016,"72.800,00 €","",,,1555404,CP 2015/73 - Acordo quadro para fornecimento de Reagentes - Testes Rápidos às Instituições e Serviços do Serviço Nacional de Saúde,FALSE
AP 1482 - Aquisição de 2550 comprimidos de Multivitaminas + Sais minerais,Ao abrigo de acordo-quadro (art.º 258.º),Aquisição de bens móveis,"33600000-6, Produtos farmacêuticos","Administração Regional de Saúde do Norte, I. P. (503135593)","MEDA PHARMA - PRODUTOS FARMACÊUTICOS, SA.          (500082090)","127,50 €",12-12-2016,22-11-2016,60 dias,"Portugal, Porto, Maia<BR/>Portugal, Vila Real, Vila Real",Artigo 258.º do Código dos Contratos Públicos,25-11-2016,"127,50 €","",,,1338581,"Acordo quadro para fornecimento de Medicação antialérgica, medicamentos usados no tratamento de intoxicações, vitaminas e sais minerais e grupo 20.9 - outros produtos às instituições e serviços do serviço nacional de saúde",FALSE
