Objeto do Contrato,Tipo de Procedimento,Tipo(s) de Contrato,CPVs,Entidade(s) Adjudicante(s),Entidade(s) Adjudicatária(s),Preço Contratual,Data de Publicação,Data de Celebração do Contrato,Prazo de Execução,Local de Execução,Fundamentação,Data de Fecho do Contrato,Preço Total Efetivo,Causas das Alterações ao Prazo,Causas das Alterações ao Preço,Estado,N.º registo do Acordo Quadro,Descrição do Acordo Quadro,Procedimento Centralizado
Computador portátil,Ao abrigo de acordo-quadro (art.º 258.º),Aquisição de bens móveis,"30200000-1, Equipamento e material informático","Unidade Local de Saúde de Matosinhos, E. P. E. (506361390)",Informática El Corte Inglês (980079659),"383,79 €",18-09-2015,31-08-2015,30 dias,"Portugal, Porto, Matosinhos",Artigo 258.º do Código dos Contratos Públicos,,,,,,1196657,Acordo Quadro para aquisição e aluguer operacional de equipamento informático,FALSE
Fornecimento de gases medicinais a granel e em garrafa,Ajuste Direto Regime Geral,Aquisição de bens móveis,"24100000-5, Gases","Unidade Local de Saúde de Matosinhos, EPE (ULSM) (506361390)",Air Liquide S.A. (501576436),"270.844,02 €",15-09-2015,11-06-2015,365 dias,"Portugal, Porto, Matosinhos",Artigo 258.º do Código dos Contratos Públicos,,,,,,Não aplicável.,Não aplicável.,FALSE
"Aquisição de reagentes e colocação, contra consumo, de equipamentos (por um período de 3 anos) que permitam a instalação de um """"core lab"""" Serviço de Patologia Clínica da ULSM, E.P.E. ",Concurso público,Aquisição de bens móveis,"33696500-0, Reagentes de laboratório","Unidade Local de Saúde de Matosinhos, E. P. E. (506361390)","ABBOTT LABORATÓRIOS, LDA (500006148)","1.742.928,63 €",11-09-2015,24-08-2015,1095 dias,"Portugal, Porto, Matosinhos","Artigo 20.º, n.º 1, alínea b) do Código dos Contratos Públicos",,,,,,Não aplicável.,Não aplicável.,FALSE
