Objeto do Contrato,Tipo de Procedimento,Tipo(s) de Contrato,CPVs,Entidade(s) Adjudicante(s),Entidade(s) Adjudicatária(s),Preço Contratual,Data de Publicação,Data de Celebração do Contrato,Prazo de Execução,Local de Execução,Fundamentação,Data de Fecho do Contrato,Preço Total Efetivo,Causas das Alterações ao Prazo,Causas das Alterações ao Preço,Estado,N.º registo do Acordo Quadro,Descrição do Acordo Quadro,Procedimento Centralizado
Factor VIII Octocog Alfa 2000U.I.- pó sol. inj. IV,Ajuste Direto Regime Geral,Aquisição de bens móveis,"33600000-6, Produtos farmacêuticos","Unidade Local de Saúde de Castelo Branco, E. P. E. (509309844)","BAXTER MEDICO-FARMACEUTICA,L (503347345)","13.380,00 €",17-01-2014,18-12-2013,30 dias,"Portugal, Castelo Branco, Castelo Branco","Artigo 26.º, n.º 1, alínea e) do Código dos Contratos Públicos",07-01-2014,"13.380,00 €",,,,Não aplicável.,Não aplicável.,FALSE
"Infliximab 100 mg, IV - Amp.",Ajuste Direto Regime Geral,Aquisição de bens móveis,"33600000-6, Produtos farmacêuticos","Unidade Local de Saúde de Castelo Branco, E. P. E. (509309844)","MERCK SHARP & DOHME,LDA (500191360)","11.807,36 €",17-01-2014,29-11-2013,30 dias,"Portugal, Castelo Branco, Castelo Branco","Artigo 24.º, n.º 1, alínea e) do Código dos Contratos Públicos",03-12-2013,"11.807,36 €",,,,Não aplicável.,Não aplicável.,FALSE
ETANERCEPT 50 MG/1 ML( caneta ),Ajuste Direto Regime Geral,Aquisição de bens móveis,"33600000-6, Produtos farmacêuticos","Unidade Local de Saúde de Castelo Branco, E. P. E. (509309844)","LABORATORIOS PFIZER,LDA (500162166)","17.523,40 €",16-01-2014,29-11-2013,30 dias,"Portugal, Castelo Branco, Castelo Branco","Artigo 24.º, n.º 1, alínea e) do Código dos Contratos Públicos",03-12-2013,"17.523,40 €",,,,Não aplicável.,Não aplicável.,FALSE
"Interferão Beta - 1A 36 MUI, Cartucho (44 mcg) Interferão Beta - 1A 18 MUI Cartucho (22 mcg)",Ajuste Direto Regime Geral,Aquisição de bens móveis,"33600000-6, Produtos farmacêuticos","Unidade Local de Saúde de Castelo Branco, E. P. E. (509309844)",MERCK S.A. (500650870),"14.346,68 €",16-01-2014,29-11-2013,30 dias,"Portugal, Castelo Branco, Castelo Branco","Artigo 26.º, n.º 1, alínea e) do Código dos Contratos Públicos",03-12-2013,"14.346,68 €",,,,Não aplicável.,Não aplicável.,FALSE
"Adalimumab 40 mg/0,8ml - Caneta",Ajuste Direto Regime Geral,Aquisição de bens móveis,"33600000-6, Produtos farmacêuticos","Unidade Local de Saúde de Castelo Branco, E. P. E. (509309844)","ABBVIE, LDA (510229050)","18.780,00 €",16-01-2014,29-11-2013,30 dias,"Portugal, Castelo Branco, Castelo Branco","Artigo 26.º, n.º 1, alínea e) do Código dos Contratos Públicos",04-12-2013,"18.780,00 €",,,,Não aplicável.,Não aplicável.,FALSE
Factor Anti hemofi. 1000 u. (factor Vlll) Factor VIII Octocog Alfa 2000U.I.- pó sol. inj. IV,Ajuste Direto Regime Geral,Aquisição de bens móveis,"33600000-6, Produtos farmacêuticos","Unidade Local de Saúde de Castelo Branco, E. P. E. (509309844)","BAXTER MEDICO-FARMACEUTICA,L (503347345)","20.070,00 €",16-01-2014,21-11-2013,30 dias,"Portugal, Castelo Branco, Castelo Branco","Artigo 26.º, n.º 1, alínea e) do Código dos Contratos Públicos",26-11-2013,"20.070,00 €",,,,Não aplicável.,Não aplicável.,FALSE
"Cloreto Sodio 0,9 -100 ml -frs/saco",Ajuste Direto Regime Geral,Aquisição de bens móveis,"33600000-6, Produtos farmacêuticos","Unidade Local de Saúde de Castelo Branco, E. P. E. (509309844)","LABESFAL LAB.DE ALMIRO,SA (501169580)","5.202,00 €",14-01-2014,11-12-2013,30 dias,"Portugal, Castelo Branco, Castelo Branco","Artigo 26.º, n.º 1, alínea e) do Código dos Contratos Públicos",26-12-2013,"5.202,00 €",,,,Não aplicável.,Não aplicável.,FALSE
"Antitripsina Alfa-1 - 1000mg, sol. inj.",Ajuste Direto Regime Geral,Aquisição de bens móveis,"33600000-6, Produtos farmacêuticos","Unidade Local de Saúde de Castelo Branco, E. P. E. (509309844)","GRIFOLS PORTUGAL,LDA. (502041285)","6.400,00 €",14-01-2014,21-11-2013,90 dias,"Portugal, Castelo Branco, Castelo Branco","Artigo 26.º, n.º 1, alínea e) do Código dos Contratos Públicos",25-11-2013,"6.400,00 €",,,,Não aplicável.,Não aplicável.,FALSE
"Adalimumab 40 mg/0,8ml - Caneta",Ajuste Direto Regime Geral,Aquisição de bens móveis,"33600000-6, Produtos farmacêuticos","Unidade Local de Saúde de Castelo Branco, E. P. E. (509309844)","ABBVIE, LDA (510229050)","14.085,00 €",14-01-2014,08-11-2013,90 dias,"Portugal, Castelo Branco, Castelo Branco","Artigo 24.º, n.º 1, alínea e) do Código dos Contratos Públicos",12-11-2013,"14.085,00 €",,,,Não aplicável.,Não aplicável.,FALSE
"Infliximab 100 mg, IV - Amp.",Ajuste Direto Regime Geral,Aquisição de bens móveis,"33600000-6, Produtos farmacêuticos","Unidade Local de Saúde de Castelo Branco, E. P. E. (509309844)","MERCK SHARP & DOHME,LDA (500191360)","14.759,20 €",14-01-2014,01-11-2013,90 dias,"Portugal, Castelo Branco, Castelo Branco","Artigo 24.º, n.º 1, alínea e) do Código dos Contratos Públicos",05-11-2013,"14.759,20 €",,,,Não aplicável.,Não aplicável.,FALSE
Interferão Beta - 1A 18 MUI Cartucho (22 mcg),Ajuste Direto Regime Geral,Aquisição de bens móveis,"33600000-6, Produtos farmacêuticos","Unidade Local de Saúde de Castelo Branco, E. P. E. (509309844)",MERCK S.A. (500650870),"7.421,00 €",14-01-2014,30-10-2013,90 dias,"Portugal, Castelo Branco, Castelo Branco","Artigo 26.º, n.º 1, alínea e) do Código dos Contratos Públicos",01-11-2013,"7.421,00 €",,,,Não aplicável.,Não aplicável.,FALSE
Factor Anti hemofi. 1000 u. (factor Vlll),Ajuste Direto Regime Geral,Aquisição de bens móveis,"33600000-6, Produtos farmacêuticos","Unidade Local de Saúde de Castelo Branco, E. P. E. (509309844)","BAXTER MEDICO-FARMACEUTICA,L (503347345)","6.690,00 €",14-01-2014,30-10-2013,90 dias,"Portugal, Castelo Branco, Castelo Branco","Artigo 26.º, n.º 1, alínea e) do Código dos Contratos Públicos",01-11-2013,"6.690,00 €",,,,Não aplicável.,Não aplicável.,FALSE
Sugamadex 100 mg/ml sol. inj Fr de 2ml,Ajuste Direto Regime Geral,Aquisição de bens móveis,"33600000-6, Produtos farmacêuticos","Unidade Local de Saúde de Castelo Branco, E. P. E. (509309844)","MERCK SHARP & DOHME,LDA (500191360)","8.682,48 €",14-01-2014,03-10-2013,90 dias,"Portugal, Castelo Branco, Castelo Branco","Artigo 26.º, n.º 1, alínea e) do Código dos Contratos Públicos",08-11-2013,"8.682,48 €",,,,Não aplicável.,Não aplicável.,FALSE
"Ertapenem 1000 mg, Iv -Frs.",Ajuste Direto Regime Geral,Aquisição de bens móveis,"33600000-6, Produtos farmacêuticos","Unidade Local de Saúde de Castelo Branco, E. P. E. (509309844)","MERCK SHARP & DOHME,LDA (500191360)","7.842,00 €",14-01-2014,03-10-2013,90 dias,"Portugal, Castelo Branco, Castelo Branco","Artigo 26.º, n.º 1, alínea e) do Código dos Contratos Públicos",01-11-2013,"7.842,00 €",,,,Não aplicável.,Não aplicável.,FALSE
"Metronidazol 5 mg/ml, 100 Ml -Frs. Paracetamol 1 Gr. IV. -Amp.",Ajuste Direto Regime Geral,Aquisição de bens móveis,"33600000-6, Produtos farmacêuticos","Unidade Local de Saúde de Castelo Branco, E. P. E. (509309844)","B.BRAUN MEDICAL,LDA. (501506543)","5.310,55 €",14-01-2014,03-10-2013,90 dias,"Portugal, Castelo Branco, Castelo Branco","Artigo 26.º, n.º 1, alínea e) do Código dos Contratos Públicos",27-12-2013,"5.310,55 €",,,,Não aplicável.,Não aplicável.,FALSE
