Objeto do Contrato,Tipo de Procedimento,Tipo(s) de Contrato,CPVs,Entidade(s) Adjudicante(s),Entidade(s) Adjudicatária(s),Preço Contratual,Data de Publicação,Data de Celebração do Contrato,Prazo de Execução,Local de Execução,Fundamentação,Data de Fecho do Contrato,Preço Total Efetivo,Causas das Alterações ao Prazo,Causas das Alterações ao Preço,Estado,N.º registo do Acordo Quadro,Descrição do Acordo Quadro,Procedimento Centralizado
"Manutenção e assistência técnica aos elevadores do Centro de Saúde de Viseu III, Centro de Saúde de Belmonte e Centro de Saúde de Vagos",Ajuste Direto Regime Geral,Aquisição de serviços,"50000000-5, Serviços de reparação e manutenção","Administração Regional de Saúde do Centro, I. P. (503122165)","Grupnor - Grupo Português de Elevadores n,Lda (500959579)","306,00 €",07-08-2015,29-06-2015,180 dias,"Portugal, Viseu, Viseu","Artigo 20.º, n.º 1, alínea a) do Código dos Contratos Públicos",28-12-2015,"306,00 €",,,,Não aplicável.,Não aplicável.,FALSE
Aquisição de adesivo,Ao abrigo de acordo-quadro (art.º 259.º),Aquisição de bens móveis,"33000000-0, Equipamento médico, medicamentos e produtos para cuidados pessoais","Administração Regional de Saúde do Centro, I. P. (503122165)",BSN MEDICAL (505385058),"8.782,56 €",04-08-2015,30-07-2015,180 dias,"Portugal, Coimbra, Coimbra",Artigo 259.º do Código dos Contratos Públicos,27-01-2016,"8.782,56 €",,,,534953,"CONCURSO PÚBLICO PARA A CELEBRAÇÃO DE CONTRATOS PÚBLICOS DE APROVISIONAMENTO PARA A ÁREA DA SAÚDE, COM VISTA AO FORNECIMENTO DE MATERIAL DE PENSO TRADICIONAL/CLASSICO - PARTE 1 - ÀS INSTITUIÇÕES E SERVIÇOS DO SERVIÇO NACIONAL DE SAÚDE  ",FALSE
AQUISIÇÃO DE MEDICAMENTOS,Ao abrigo de acordo-quadro (art.º 259.º),Aquisição de bens móveis,"33000000-0, Equipamento médico, medicamentos e produtos para cuidados pessoais","Administração Regional de Saúde do Centro, I. P. (503122165)",LABESFAL (501169580),"6.400,00 €",04-08-2015,29-07-2015,180 dias,"Portugal, Coimbra, Coimbra",Artigo 259.º do Código dos Contratos Públicos,12-01-2016,"6.400,00 €",,,,600392,"CONCURSO PÚBLICO PARA A CELEBRAÇÃO DE CONTRATOS PÚBLICOS DE APROVISIONAMENTO PARA A ÁREA DA SAÚDE, COM VISTA AO FORNECIMENTO DE MEDICAMENTOS DE CONSUMO GERAL - APARELHO LOCOMOTOR ÀS INSTITUIÇÕES E SERVIÇOS DO SERVIÇO NACIONAL DE SAÚDE",FALSE
