Objeto do Contrato,Tipo de Procedimento,Tipo(s) de Contrato,CPVs,Entidade(s) Adjudicante(s),Entidade(s) Adjudicatária(s),Preço Contratual,Data de Publicação,Data de Celebração do Contrato,Prazo de Execução,Local de Execução,Fundamentação,Data de Fecho do Contrato,Preço Total Efetivo,Causas das Alterações ao Prazo,Causas das Alterações ao Preço,Estado,N.º registo do Acordo Quadro,Descrição do Acordo Quadro,Procedimento Centralizado
"Aquisição de Serviços para apoio à URJ da Administração Central do Sistema de Saúde, I.P. ",Ajuste Direto Regime Geral,Aquisição de serviços,"71356300-1, Serviços de apoio técnico","Administração Central do Sistema de Saúde, I. P. (508188423)",Rita Lourenço Ferreira (263730166),"14.417,76 €",07-07-2017,03-07-2017,365 dias,"Portugal, Lisboa, Lisboa","Artigo 20.º, n.º 1, alínea a) do Código dos Contratos Públicos",30-06-2018,"14.417,76 €",,"",,Não aplicável.,Não aplicável.,FALSE
"Aquisição de Serviços para apoio à URJ da Administração Central do Sistema de Saúde, I.P. ",Ajuste Direto Regime Geral,Aquisição de serviços,"71356300-1, Serviços de apoio técnico","Administração Central do Sistema de Saúde, I. P. (508188423)",Ana Sofia de Oliveira Rodrigues (220749523),"14.417,76 €",07-07-2017,03-07-2017,365 dias,"Portugal, Lisboa, Lisboa","Artigo 20.º, n.º 1, alínea a) do Código dos Contratos Públicos",30-06-2018,"14.417,76 €",,"",,Não aplicável.,Não aplicável.,FALSE
Aquisição para fornecimento e montagem de estores rolo black out no Edf. 16 da ACSS.,Ajuste Direto Regime Geral,Aquisição de bens móveis,"39515410-2, Estores interiores","Administração Central do Sistema de Saúde, I. P. (508188423)",Manuel C.Amorim (506940918),"7.680,01 €",05-07-2017,16-06-2017,30 dias,"Portugal, Lisboa, Lisboa","Artigo 20.º, n.º 1, alínea a) do Código dos Contratos Públicos",14-07-2017,"7.680,01 €",,"",,Não aplicável.,Não aplicável.,FALSE
"Aquisição de serviços de manutenção ao sistema de aquecimento, ventilação e ar condicionado (AVAC) ao abrigo do lote 3 Acordo Quadro da ESPAP.",Ao abrigo de acordo-quadro (art.º 259.º),Aquisição de serviços,"50700000-2, Serviços de reparação e manutenção de equipamento em edifícios","Administração Central do Sistema de Saúde, I. P. (508188423)","Openline Facility Services, SA (508622069)","5.615,61 €",05-07-2017,27-06-2017,188 dias,"Portugal, Lisboa, Lisboa",Artigo 259.º do Código dos Contratos Públicos,31-12-2018,"15.242,37 €",,"De acordo com a cláusula  do contrato, prazo de vigência. ",,1439884,Acordo quadro de serviços de manutenção de sistemas de AVAC,FALSE
