Objeto do Contrato,Tipo de Procedimento,Tipo(s) de Contrato,CPVs,Entidade(s) Adjudicante(s),Entidade(s) Adjudicatária(s),Preço Contratual,Data de Publicação,Data de Celebração do Contrato,Prazo de Execução,Local de Execução,Fundamentação,Data de Fecho do Contrato,Preço Total Efetivo,Causas das Alterações ao Prazo,Causas das Alterações ao Preço,Estado,N.º registo do Acordo Quadro,Descrição do Acordo Quadro,Procedimento Centralizado
Reparação e Conservação de Ajudas Técnicas,Ajuste Direto Regime Geral,Aquisição de bens móveis,"33000000-0, Equipamento médico, medicamentos e produtos para cuidados pessoais","Administração Regional de Saúde do Algarve, I. P. (503148709)","Mobilitec - Comp. Assist. Material Ortop. Hosp., Lda (506343910)","505,48 €",10-10-2016,18-05-2016,2 dias,"Portugal, Faro, São Brás de Alportel","Artigo 20.º, n.º 1, alínea a) do Código dos Contratos Públicos","","",,,,Não aplicável.,Não aplicável.,FALSE
Aquisição de Urinol Masculino para o CMRSul,Ao abrigo de acordo-quadro (art.º 258.º),Aquisição de bens móveis,"33000000-0, Equipamento médico, medicamentos e produtos para cuidados pessoais","Administração Regional de Saúde do Algarve, I. P. (503148709)","Ezequiel Panão Jorge, Lda (501412727)","88,50 €",06-10-2016,23-09-2016,90 dias,"Portugal, Faro, São Brás de Alportel",Artigo 258.º do Código dos Contratos Públicos,"","",,,,1210117,"CONCURSO PÚBLICO PARA A CELEBRAÇÃO DE CONTRATOS PÚBLICOS DE APROVISIONAMENTO PARA A ÁREA DA SAÚDE, COM VISTA AO FORNECIMENTO DE MATERIAL DE INCONTINENCIA E ALIVIO DE PRESSÃO, ÀS INSTITUIÇÕES E SERVIÇOS DO SERVIÇO NACIONAL DE SAÚDE",FALSE
Aquisição de KIT de Reenchimento de Baclofeno,Ajuste Direto Regime Geral,Aquisição de bens móveis,"33000000-0, Equipamento médico, medicamentos e produtos para cuidados pessoais","Administração Regional de Saúde do Algarve, I. P. (503148709)","Medtronic Portugal, Lda (504223933)","2.520,00 €",06-10-2016,04-07-2016,176 dias,"Portugal, Faro, São Brás de Alportel","Artigo 24.º, n.º 1, alínea e) do Código dos Contratos Públicos","","",,,,Não aplicável.,Não aplicável.,FALSE
AD 270/2016 - Prestação de Serviços em Regime de Avença de Técnico Superior na Área da Economia para o Departamento de Contratualização,Ajuste Direto Regime Geral,Aquisição de serviços,"79400000-8, Serviços de consultoria em matéria comercial e de gestão e serviços conexos","Administração Regional de Saúde do Algarve, I. P. (503148709)",Rachel Santos Wanderley Caiado (221880542),"18.022,20 €",04-10-2016,03-10-2016,90 dias,"Portugal, Faro, Faro","Artigo 20.º, n.º 1, alínea a) do Código dos Contratos Públicos","","",,,,Não aplicável.,Não aplicável.,FALSE
AM 264/2016 - Aquisição de reagentes e consumiveis para o setor quimica das águas,Ajuste Direto Regime Geral,Aquisição de bens móveis,"33696500-0, Reagentes de laboratório","Administração Regional de Saúde do Algarve, I. P. (503148709)","M.T.Brandão, Lda (501548084)","1.413,00 €",03-10-2016,03-10-2016,89 dias,"Portugal, Faro, Faro","Artigo 24.º, n.º 1, alínea e) do Código dos Contratos Públicos",23-12-2016,"1.413,00 €",,,,Não aplicável.,Não aplicável.,FALSE
