Objeto do Contrato,Tipo de Procedimento,Tipo(s) de Contrato,CPVs,Entidade(s) Adjudicante(s),Entidade(s) Adjudicatária(s),Preço Contratual,Data de Publicação,Data de Celebração do Contrato,Prazo de Execução,Local de Execução,Fundamentação,Data de Fecho do Contrato,Preço Total Efetivo,Causas das Alterações ao Prazo,Causas das Alterações ao Preço,Estado,N.º registo do Acordo Quadro,Descrição do Acordo Quadro,Procedimento Centralizado
Aquisição Armário Vertical de Congelação,Ajuste Direto Regime Geral,Aquisição de bens móveis,"39711123-7, Congeladores verticais","Unidade Local de Saúde do Alto Minho, EPE (ULSAM) (508786193)","Frilabo II, Lda. (507958861)","3.290,00 €",31-10-2014,24-10-2014,30 dias,"Portugal, Viana do Castelo, Viana do Castelo","Artigo 20.º, n.º 1, alínea a) do Código dos Contratos Públicos",,,,,,Não aplicável.,Não aplicável.,FALSE
Aquisição de Monitores de Sinais Vitais e Monitor Multiparâmetros,Ajuste Direto Regime Geral,Aquisição de bens móveis,"33180000-5, Apoio funcional","Unidade Local de Saúde do Alto Minho, EPE (ULSAM) (508786193)","Clinifar, S. A. (503281115)","12.023,25 €",24-10-2014,24-10-2014,30 dias,"Portugal, Viana do Castelo, Viana do Castelo","Artigo 20.º, n.º 1, alínea a) do Código dos Contratos Públicos",,,,,,Não aplicável.,Não aplicável.,FALSE
Aquisição de Fraldários,Ajuste Direto Regime Geral,Aquisição de bens móveis,"33180000-5, Apoio funcional","Unidade Local de Saúde do Alto Minho, EPE (ULSAM) (508786193)","Mundinter, Intercâmbio Mundial de Comércio, S. A.  (500199906)","2.261,63 €",22-10-2014,16-10-2014,30 dias,"Portugal, Viana do Castelo","Artigo 20.º, n.º 1, alínea a) do Código dos Contratos Públicos",,,,,,Não aplicável.,Não aplicável.,FALSE
