Objeto do Contrato,Tipo de Procedimento,Tipo(s) de Contrato,CPVs,Entidade(s) Adjudicante(s),Entidade(s) Adjudicatária(s),Preço Contratual,Data de Publicação,Data de Celebração do Contrato,Prazo de Execução,Local de Execução,Fundamentação,Data de Fecho do Contrato,Preço Total Efetivo,Causas das Alterações ao Prazo,Causas das Alterações ao Preço,Estado,N.º registo do Acordo Quadro,Descrição do Acordo Quadro,Procedimento Centralizado
Rolo de Papel p/ Impressora de autoclave,Ajuste Direto Regime Geral,Aquisição de bens móveis,"33190000-8, Dispositivos e produtos médicos variados",Instituto de Oftalmologia do Dr. Gama Pinto (600000052),A.J. COSTA (500002576),"40,00 €",04-07-2017,02-03-2017,122 dias,"Portugal, Lisboa, Lisboa","Artigo 20.º, n.º 1, alínea a) do Código dos Contratos Públicos",04-07-2017,"40,00 €",,,,Não aplicável.,Não aplicável.,FALSE
Sistema Injeção e Extração Óleo de Silicone,Ajuste Direto Regime Geral,Aquisição de bens móveis,"33160000-9, Técnicas cirúrgicas",Instituto de Oftalmologia Doutor Gama Pinto (IOGP) (600000052),"BAUSCH  & LOMB, S.A. (980218764)","660,00 €",03-07-2017,22-11-2016,39 dias,"Portugal, Lisboa, Lisboa","Artigo 24.º, n.º 1, alínea e) do Código dos Contratos Públicos",22-11-2016,"660,00 €",,,,Não aplicável.,Não aplicável.,FALSE
Sistema VFC,Ajuste Direto Regime Geral,Aquisição de bens móveis,"33160000-9, Técnicas cirúrgicas",Instituto de Oftalmologia Doutor Gama Pinto (IOGP) (600000052),"ALCON PORTUGAL-PROD.EQUIP.OFTALM., LDA (501251685)","180,00 €",03-07-2017,22-11-2016,37 dias,"Portugal, Lisboa, Lisboa","Artigo 24.º, n.º 1, alínea e) do Código dos Contratos Públicos",22-11-2016,"180,00 €",,,,Não aplicável.,Não aplicável.,FALSE
Bevacizumab 100 mg/ 4 ml Sol inj  IV,Ao abrigo de acordo-quadro (art.º 258.º),Aquisição de bens móveis,"33600000-6, Produtos farmacêuticos",Instituto de Oftalmologia do Dr. Gama Pinto (600000052),"ROCHE FARMACEUTICA QUIMICA, LDA (500233810)","6.232,50 €",03-07-2017,09-06-2017,170 dias,"Portugal, Lisboa, Lisboa",Artigo 258.º do Código dos Contratos Públicos,20-09-2017,"6.232,50 €",,,,1771819,CP 2015/6 - Acordo quadro para o fornecimento de Medicamentos do Foro Oncológico,FALSE
Electrodos de Cúpula ELE12,Ajuste Direto Regime Geral,Aquisição de bens móveis,"33140000-3, Material médico de consumo",Instituto de Oftalmologia Doutor Gama Pinto (IOGP) (600000052),Jose Cotta (500155739),"108,00 €",03-07-2017,24-11-2016,37 dias,"Portugal, Lisboa, Lisboa","Artigo 20.º, n.º 1, alínea a) do Código dos Contratos Públicos",28-11-2016,"108,00 €",,,,Não aplicável.,Não aplicável.,FALSE
Rolo Papel Impressora UPP-110HD,Ajuste Direto Regime Geral,Aquisição de bens móveis,"33190000-8, Dispositivos e produtos médicos variados",Instituto de Oftalmologia Doutor Gama Pinto (IOGP) (600000052),"MEDTRONIC PORTUGAL, LDA. (504223933)","114,00 €",03-07-2017,13-12-2016,16 dias,"Portugal, Lisboa, Lisboa","Artigo 20.º, n.º 1, alínea a) do Código dos Contratos Públicos",22-12-2016,"114,00 €",,,,Não aplicável.,Não aplicável.,FALSE
Lentes de Contacto,Ajuste Direto Regime Geral,Aquisição de bens móveis,"33731000-3, Lentes de contacto",Instituto de Oftalmologia Doutor Gama Pinto (IOGP) (600000052),"ALCON PORTUGAL-PROD.EQUIP.OFTALM., LDA (501251685)","189,60 €",03-07-2017,24-11-2016,37 dias,"Portugal, Lisboa, Lisboa","Artigo 20.º, n.º 1, alínea a) do Código dos Contratos Públicos",15-12-2016,"189,60 €",,,,Não aplicável.,Não aplicável.,FALSE
"Prolongamentos de 15 cm, Sistema de Soro Simples, Perfurador Soro",Ajuste Direto Regime Geral,Aquisição de bens móveis,"33140000-3, Material médico de consumo",Instituto de Oftalmologia Doutor Gama Pinto (IOGP) (600000052),PMH  (502376899),"153,00 €",03-07-2017,05-12-2016,26 dias,"Portugal, Lisboa, Lisboa","Artigo 20.º, n.º 1, alínea a) do Código dos Contratos Públicos",16-12-2016,"153,00 €",,,,Não aplicável.,Não aplicável.,FALSE
Facas 45º,Ajuste Direto Regime Geral,Aquisição de bens móveis,"33141411-4, Bisturis e lâminas",Instituto de Oftalmologia do Dr. Gama Pinto (600000052),"OFTALDATA - PROD. P/OFTALM., LDA. (504887459)","19,00 €",03-07-2017,14-12-2016,15 dias,"Portugal, Lisboa, Lisboa","Artigo 20.º, n.º 1, alínea a) do Código dos Contratos Públicos",14-12-2016,"19,00 €",,,,Não aplicável.,Não aplicável.,FALSE
