Objeto do Contrato,Tipo de Procedimento,Tipo(s) de Contrato,CPVs,Entidade(s) Adjudicante(s),Entidade(s) Adjudicatária(s),Preço Contratual,Data de Publicação,Data de Celebração do Contrato,Prazo de Execução,Local de Execução,Fundamentação,Data de Fecho do Contrato,Preço Total Efetivo,Causas das Alterações ao Prazo,Causas das Alterações ao Preço,Estado,N.º registo do Acordo Quadro,Descrição do Acordo Quadro,Procedimento Centralizado
Aquisição de medicamentos oncológicos: Tensirolimus 25mg,Ao abrigo de acordo-quadro (art.º 259.º),Aquisição de bens móveis,"33652100-6, Antineoplásicos","Hospital do Espírito Santo de Évora, E. P. E. (508085888)",PFIZER BIOFARMACEUTICA SOC UNIPESSOAL LDA (513300376),"9.221,37 €",10-02-2017,06-01-2017,360 dias,"Portugal, Évora, Évora",Artigo 259.º do Código dos Contratos Públicos,,,,,,1771819,CP 2015/6 - Acordo quadro para o fornecimento de Medicamentos do Foro Oncológico,FALSE
Aquisição de medicamentos: Secucinumab 150mg,Ajuste Direto Regime Geral,Aquisição de bens móveis,"33652000-5, Antineoplásicos e imunomoduladores","Hospital do Espírito Santo de Évora, E. P. E. (508085888)","Novartis Farma - Produtos Farmacêuticos, SA (500063524)","2.013,48 €",10-02-2017,24-01-2017,330 dias,"Portugal, Évora, Évora","Artigo 20.º, n.º 1, alínea a) do Código dos Contratos Públicos",,,,,,Não aplicável.,Não aplicável.,FALSE
Aquisição de medicamentos oncológicos: Metotrexato 25mg,Ao abrigo de acordo-quadro (art.º 259.º),Aquisição de bens móveis,"33650000-1, Anti-infecciosos gerais de uso sistémico, vacinas, antineoplásicos e imunomoduladores","Hospital do Espírito Santo de Évora, E. P. E. (508085888)",TEVA Pharma - Produtos Farmacêuticos (507045491),"380,40 €",10-02-2017,06-01-2017,360 dias,"Portugal, Évora, Évora",Artigo 259.º do Código dos Contratos Públicos,,,,,,1771819,CP 2015/6 - Acordo quadro para o fornecimento de Medicamentos do Foro Oncológico,FALSE
Aquisição de medicamentos foro oncológico,Ao abrigo de acordo-quadro (art.º 259.º),Aquisição de bens móveis,"33650000-1, Anti-infecciosos gerais de uso sistémico, vacinas, antineoplásicos e imunomoduladores","Hospital do Espírito Santo de Évora, E. P. E. (508085888)","Novartis Farma - Produtos Farmacêuticos, SA (500063524)","454.006,40 €",10-02-2017,29-12-2016,365 dias,"Portugal, Évora, Évora",Artigo 259.º do Código dos Contratos Públicos,,,,,,1415640,CP 2015/7 - ACORDO QUADRO PARA FORNECIMENTO DE HORMONAS E OUTROS MEDICAMENTOS USADOS NO TRATAMENTO DAS DOENÇAS ENDÓCRINAS ÀS INSTITUIÇÕES E SERVIÇOS DO SERVIÇO NACIONAL DE SAÚDE,FALSE
Aquisição de medicamentos: Abacavir+Lamivudina,Ao abrigo de acordo-quadro (art.º 259.º),Aquisição de bens móveis,"33651400-2, Antivíricos de uso sistémico","Hospital do Espírito Santo de Évora, E. P. E. (508085888)",ViiV Healthcare (509117961),"13.248,00 €",10-02-2017,27-01-2017,330 dias,"Portugal, Évora, Évora",Artigo 259.º do Código dos Contratos Públicos,,,,,,2183729,Medicamentos antirretrovíricos para o tratamento da infeção por VIH,FALSE
Aquisição de medicamentos Ciclofosfamida 50mg,Ao abrigo de acordo-quadro (art.º 259.º),Aquisição de bens móveis,"33652100-6, Antineoplásicos","Hospital do Espírito Santo de Évora, E. P. E. (508085888)",BAXTER MEDICO FARMACEUTICA LDA (503347345),"203,84 €",10-02-2017,28-12-2016,365 dias,"Portugal, Évora, Évora",Artigo 259.º do Código dos Contratos Públicos,,,,,,1771819,CP 2015/6 - Acordo quadro para o fornecimento de Medicamentos do Foro Oncológico,FALSE
Aquisição de medicamentos: Vinorrelbina 30mg,Ao abrigo de acordo-quadro (art.º 259.º),Aquisição de bens móveis,"33690000-3, Medicamentos vários","Hospital do Espírito Santo de Évora, E. P. E. (508085888)",Pierre Fabre (500230366),"877,40 €",10-02-2017,18-01-2017,350 dias,"Portugal, Évora, Évora",Artigo 259.º do Código dos Contratos Públicos,,,,,,2124520,CP 2016/55 - Medicamentos Diversos,FALSE
Aquisição de medicamentos: Vonorrelbina 20mg,Ajuste Direto Regime Geral,Aquisição de bens móveis,"33690000-3, Medicamentos vários","Hospital do Espírito Santo de Évora, E. P. E. (508085888)",Pierre Fabre (500230366),"159,68 €",10-02-2017,22-12-2016,30 dias,"Portugal, Évora, Évora","Artigo 20.º, n.º 1, alínea a) do Código dos Contratos Públicos",,,,,,Não aplicável.,Não aplicável.,FALSE
Aquisição de medicamentos do foro oncológico,Ao abrigo de acordo-quadro (art.º 259.º),Aquisição de bens móveis,"33652100-6, Antineoplásicos","Hospital do Espírito Santo de Évora, E. P. E. (508085888)",Bayer (500043256),"597.443,95 €",10-02-2017,29-12-2016,365 dias,"Portugal, Évora, Évora",Artigo 259.º do Código dos Contratos Públicos,,,,,,1771819,CP 2015/6 - Acordo quadro para o fornecimento de Medicamentos do Foro Oncológico,FALSE
Aquisição de medicamentos do foro oncológico,Ao abrigo de acordo-quadro (art.º 259.º),Aquisição de bens móveis,"33652100-6, Antineoplásicos","Hospital do Espírito Santo de Évora, E. P. E. (508085888)",Novartis (500063524),"343.913,89 €",10-02-2017,10-01-2017,350 dias,"Portugal, Évora, Évora",Artigo 259.º do Código dos Contratos Públicos,,,,,,1771819,CP 2015/6 - Acordo quadro para o fornecimento de Medicamentos do Foro Oncológico,FALSE
Aquisição de medicamentos do foro oncológico,Ao abrigo de acordo-quadro (art.º 259.º),Aquisição de bens móveis,"33652000-5, Antineoplásicos e imunomoduladores","Hospital do Espírito Santo de Évora, E. P. E. (508085888)","ABBVIE, LDA (510229050)","126.082,62 €",10-02-2017,27-12-2016,365 dias,"Portugal, Évora, Évora",Artigo 259.º do Código dos Contratos Públicos,,,,,,1771819,CP 2015/6 - Acordo quadro para o fornecimento de Medicamentos do Foro Oncológico,FALSE
Aquisição de medicamentos: Atazanavir 300mg,Ao abrigo de acordo-quadro (art.º 259.º),Aquisição de bens móveis,"33600000-6, Produtos farmacêuticos","Hospital do Espírito Santo de Évora, E. P. E. (508085888)",BRISTOL-MYERS SQUIB FARMAC PORTUGUESA SA (500048193),"40.901,76 €",09-02-2017,19-01-2017,340 dias,"Portugal, Évora, Évora",Artigo 259.º do Código dos Contratos Públicos,,,,,,461371,CP 2012/40 - MEDICAMENTOS ANTI-RETROVIRAIS,FALSE
Aquisição de reagentes -testes rápidos,Ao abrigo de acordo-quadro (art.º 259.º),Aquisição de bens móveis,"33696200-7, Reagentes para análises ao sangue","Hospital do Espírito Santo de Évora, E. P. E. (508085888)","IBERLAB & IMUNOREAGE-SOL. LABORAT., LDA (503406694), QUILABAN (500399670)","1.914,85 €",09-02-2017,06-02-2017,330 dias,"Portugal, Évora, Évora",Artigo 259.º do Código dos Contratos Públicos,,,,,,1555404,CP 2015/73 - Acordo quadro para fornecimento de Reagentes - Testes Rápidos às Instituições e Serviços do Serviço Nacional de Saúde,FALSE
Aquisição de medicamentos: Peginterferão alfa,Ajuste Direto Regime Geral,Aquisição de bens móveis,"33690000-3, Medicamentos vários","Hospital do Espírito Santo de Évora, E. P. E. (508085888)","ROCHE Farmacêutica Quimica, Lda (500233810)","5.006,04 €",09-02-2017,27-01-2017,8 dias,"Portugal, Évora, Évora","Artigo 26.º, n.º 1, alínea e) do Código dos Contratos Públicos",,,,,,Não aplicável.,Não aplicável.,FALSE
Aquisição de medicamentos: Antitripsina alfa,Ajuste Direto Regime Geral,Aquisição de bens móveis,"33690000-3, Medicamentos vários","Hospital do Espírito Santo de Évora, E. P. E. (508085888)",Grifols (502041285),"5.064,00 €",09-02-2017,05-01-2017,8 dias,"Portugal, Évora, Évora","Artigo 26.º, n.º 1, alínea e) do Código dos Contratos Públicos",,,,,,Não aplicável.,Não aplicável.,FALSE
Aquisição de medicamentos: Azacitidina 100mg,Ajuste Direto Regime Geral,Aquisição de bens móveis,"33690000-3, Medicamentos vários","Hospital do Espírito Santo de Évora, E. P. E. (508085888)","CELGENE SOCIEDADE UNIP., LDA (507791690)","5.310,00 €",09-02-2017,03-01-2017,8 dias,"Portugal, Évora, Évora","Artigo 24.º, n.º 1, alínea e) do Código dos Contratos Públicos",,,,,,Não aplicável.,Não aplicável.,FALSE
Aquisição de medicamentos: Fosaprepitant,Ajuste Direto Regime Geral,Aquisição de bens móveis,"33690000-3, Medicamentos vários","Hospital do Espírito Santo de Évora, E. P. E. (508085888)",MERCK SHARP & DHOME LDA. (500191360),"5.846,00 €",09-02-2017,24-01-2017,8 dias,"Portugal, Évora, Évora","Artigo 26.º, n.º 1, alínea e) do Código dos Contratos Públicos",,,,,,Não aplicável.,Não aplicável.,FALSE
Aquisição de medicamentos: Fosaprepitant,Ajuste Direto Regime Geral,Aquisição de bens móveis,"33690000-3, Medicamentos vários","Hospital do Espírito Santo de Évora, E. P. E. (508085888)",MERCK SHARP & DHOME LDA. (500191360),"5.846,00 €",09-02-2017,05-01-2017,8 dias,"Portugal, Évora, Évora","Artigo 26.º, n.º 1, alínea e) do Código dos Contratos Públicos",,,,,,Não aplicável.,Não aplicável.,FALSE
Aquisição de medicamentos: Omalizumab 150mg,Ajuste Direto Regime Geral,Aquisição de bens móveis,"33690000-3, Medicamentos vários","Hospital do Espírito Santo de Évora, E. P. E. (508085888)",Novartis (500063524),"6.161,80 €",09-02-2017,11-01-2017,8 dias,"Portugal, Évora, Évora","Artigo 26.º, n.º 1, alínea e) do Código dos Contratos Públicos",,,,,,Não aplicável.,Não aplicável.,FALSE
Aquisição de medicamentos: Azacitidina 100mg,Ajuste Direto Regime Geral,Aquisição de bens móveis,"33690000-3, Medicamentos vários","Hospital do Espírito Santo de Évora, E. P. E. (508085888)","CELGENE SOCIEDADE UNIP., LDA (507791690)","7.080,00 €",09-02-2017,20-01-2017,8 dias,"Portugal, Évora, Évora","Artigo 24.º, n.º 1, alínea e) do Código dos Contratos Públicos",,,,,,Não aplicável.,Não aplicável.,FALSE
Aquisição de medicamentos: Azacitidina 100mg,Ajuste Direto Regime Geral,Aquisição de bens móveis,"33690000-3, Medicamentos vários","Hospital do Espírito Santo de Évora, E. P. E. (508085888)","CELGENE SOCIEDADE UNIP., LDA (507791690)","7.080,00 €",09-02-2017,09-01-2017,8 dias,"Portugal, Évora, Évora","Artigo 24.º, n.º 1, alínea e) do Código dos Contratos Públicos",,,,,,Não aplicável.,Não aplicável.,FALSE
Aquisição de medicamentos: Vinorelbina 20mg,Ajuste Direto Regime Geral,Aquisição de bens móveis,"33690000-3, Medicamentos vários","Hospital do Espírito Santo de Évora, E. P. E. (508085888)",Pierre Fabre (500230366),"7.719,60 €",09-02-2017,02-01-2017,8 dias,"Portugal, Évora, Évora","Artigo 26.º, n.º 1, alínea e) do Código dos Contratos Públicos",,,,,,Não aplicável.,Não aplicável.,FALSE
Aquisição de medicamentos,Ajuste Direto Regime Geral,Aquisição de bens móveis,"33650000-1, Anti-infecciosos gerais de uso sistémico, vacinas, antineoplásicos e imunomoduladores","Hospital do Espírito Santo de Évora, E. P. E. (508085888)",SYSMEX ESPANÃ S.L. (B64928948e),"8.393,20 €",08-02-2017,25-01-2017,8 dias,"Portugal, Évora, Évora","Artigo 24.º, n.º 1, alínea e) do Código dos Contratos Públicos",,,,,,Não aplicável.,Não aplicável.,FALSE
Aquisição de medicamentos: Brentuximab 50mg,Ajuste Direto Regime Geral,Aquisição de bens móveis,"33650000-1, Anti-infecciosos gerais de uso sistémico, vacinas, antineoplásicos e imunomoduladores","Hospital do Espírito Santo de Évora, E. P. E. (508085888)",TAKEDA-FARMACEUTICOS PORTUGAL LDA (502801204),"8.400,00 €",08-02-2017,27-01-2017,8 dias,"Portugal, Évora, Évora","Artigo 24.º, n.º 1, alínea e) do Código dos Contratos Públicos",,,,,,Não aplicável.,Não aplicável.,FALSE
Aquisição de medicamentos: Trastuzumab 100mg,Ajuste Direto Regime Geral,Aquisição de bens móveis,"33650000-1, Anti-infecciosos gerais de uso sistémico, vacinas, antineoplásicos e imunomoduladores","Hospital do Espírito Santo de Évora, E. P. E. (508085888)","ROCHE Farmacêutica Quimica, Lda (500233810)","8.442,50 €",08-02-2017,25-01-2017,8 dias,"Portugal, Évora, Évora","Artigo 24.º, n.º 1, alínea e) do Código dos Contratos Públicos",,,,,,Não aplicável.,Não aplicável.,FALSE
Aquisição de medicamentos: Trastuzumab100mg,Ajuste Direto Regime Geral,Aquisição de bens móveis,"33650000-1, Anti-infecciosos gerais de uso sistémico, vacinas, antineoplásicos e imunomoduladores","Hospital do Espírito Santo de Évora, E. P. E. (508085888)","ROCHE Farmacêutica Quimica, Lda (500233810)","8.442,50 €",08-02-2017,10-01-2017,8 dias,"Portugal, Évora, Évora","Artigo 24.º, n.º 1, alínea e) do Código dos Contratos Públicos",,,,,,Não aplicável.,Não aplicável.,FALSE
Aquisição de medicamentos vários,Ajuste Direto Regime Geral,Aquisição de bens móveis,"33690000-3, Medicamentos vários","Hospital do Espírito Santo de Évora, E. P. E. (508085888)","OVERPHARMA - PROD. MÉDICOS E FARMACÊUTICOS,  (505792362)","9.400,42 €",08-02-2017,05-01-2017,8 dias,"Portugal, Évora, Évora","Artigo 26.º, n.º 1, alínea e) do Código dos Contratos Públicos",,,,,,Não aplicável.,Não aplicável.,FALSE
Aquisição de medicamentos: Brentuximab 50mg,Ajuste Direto Regime Geral,Aquisição de bens móveis,"33690000-3, Medicamentos vários","Hospital do Espírito Santo de Évora, E. P. E. (508085888)",TAKEDA-FARMACEUTICOS PORTUGAL LDA (502801204),"9.487,80 €",08-02-2017,11-01-2017,8 dias,"Portugal, Évora, Évora","Artigo 24.º, n.º 1, alínea e) do Código dos Contratos Públicos",,,,,,Não aplicável.,Não aplicável.,FALSE
Aquisição de medicamentos: Brentuximab 50mg,Ajuste Direto Regime Geral,Aquisição de bens móveis,"33690000-3, Medicamentos vários","Hospital do Espírito Santo de Évora, E. P. E. (508085888)",TAKEDA-FARMACEUTICOS PORTUGAL LDA (502801204),"9.487,80 €",08-02-2017,03-01-2017,8 dias,"Portugal, Évora, Évora","Artigo 24.º, n.º 1, alínea e) do Código dos Contratos Públicos",,,,,,Não aplicável.,Não aplicável.,FALSE
Aquisição de medicamentos: Pegfilgastrim 6mg,Ajuste Direto Regime Geral,Aquisição de bens móveis,"33650000-1, Anti-infecciosos gerais de uso sistémico, vacinas, antineoplásicos e imunomoduladores","Hospital do Espírito Santo de Évora, E. P. E. (508085888)","AMGEN - BIOFARMACÊUTICA, LDA (502942959)","9.600,00 €",08-02-2017,03-01-2017,8 dias,"Portugal, Évora, Évora","Artigo 26.º, n.º 1, alínea e) do Código dos Contratos Públicos",,,,,,Não aplicável.,Não aplicável.,FALSE
Aquisição de medicamentos do aparelho digestivo,Ao abrigo de acordo-quadro (art.º 259.º),Aquisição de bens móveis,"33610000-9, Medicamentos para o tracto digestivo e o metabolismo","Hospital do Espírito Santo de Évora, E. P. E. (508085888)","AstraZeneca (502942240), IPSEN-PRODUTOS FARMACEUTICOS, S.A. (502609800), Hikma (502266791), MEDA-PHARMA PROD.FARMACEUTICOS (500082090), D.L.A. FARMACÊUTICA, S.A. (503894427), PROSPA - LABORATÓRIOS FARMACÊUTICOS, S.A. (500130248), Sandoz (506985261), Overpharma (505792362)","30.975,48 €",08-02-2017,19-01-2017,340 dias,"Portugal, Évora, Évora",Artigo 259.º do Código dos Contratos Públicos,,,,,,2222779,Medicamentos do aparelho digestivo,FALSE
Aquisição de medicamentos: Ustecinumab 45mg,Ajuste Direto Regime Geral,Aquisição de bens móveis,"33650000-1, Anti-infecciosos gerais de uso sistémico, vacinas, antineoplásicos e imunomoduladores","Hospital do Espírito Santo de Évora, E. P. E. (508085888)","JANSSEN-CILAG FARMACEUTICA, LDA (500189412)","19.860,12 €",08-02-2017,04-01-2017,8 dias,"Portugal, Évora, Évora","Artigo 26.º, n.º 1, alínea e) do Código dos Contratos Públicos",,,,,,Não aplicável.,Não aplicável.,FALSE
Aquisição de medicamentos: Atazanavir 300mg,Ajuste Direto Regime Geral,Aquisição de bens móveis,"33650000-1, Anti-infecciosos gerais de uso sistémico, vacinas, antineoplásicos e imunomoduladores","Hospital do Espírito Santo de Évora, E. P. E. (508085888)",BRISTOL-MYERS SQUIB FARMAC PORTUGUESA SA (500048193),"20.449,80 €",08-02-2017,24-01-2017,8 dias,"Portugal, Évora, Évora","Artigo 26.º, n.º 1, alínea e) do Código dos Contratos Públicos",,,,,,Não aplicável.,Não aplicável.,FALSE
Aquisição de medicamentos : Nivolumab 10mg,Ajuste Direto Regime Geral,Aquisição de bens móveis,"33650000-1, Anti-infecciosos gerais de uso sistémico, vacinas, antineoplásicos e imunomoduladores","Hospital do Espírito Santo de Évora, E. P. E. (508085888)",BRISTOL-MYERS SQUIB FARMAC PORTUGUESA SA (500048193),"21.120,00 €",08-02-2017,23-01-2017,8 dias,"Portugal, Évora, Évora","Artigo 24.º, n.º 1, alínea e) do Código dos Contratos Públicos",,,,,,Não aplicável.,Não aplicável.,FALSE
Aquisição de medicamentos: Acetato de Glatirâmero 40mg,Ajuste Direto Regime Geral,Aquisição de bens móveis,"33650000-1, Anti-infecciosos gerais de uso sistémico, vacinas, antineoplásicos e imunomoduladores","Hospital do Espírito Santo de Évora, E. P. E. (508085888)",Teva (507045491),"24.977,16 €",08-02-2017,03-01-2017,8 dias,"Portugal, Évora, Évora","Artigo 26.º, n.º 1, alínea e) do Código dos Contratos Públicos",,,,,,Não aplicável.,Não aplicável.,FALSE
Aquisição de medicamentos :Emtricitabina 200mg,Ajuste Direto Regime Geral,Aquisição de bens móveis,"33650000-1, Anti-infecciosos gerais de uso sistémico, vacinas, antineoplásicos e imunomoduladores","Hospital do Espírito Santo de Évora, E. P. E. (508085888)","GILEAD SCIENCES, LDA (503604704)","25.957,14 €",07-02-2017,02-01-2017,8 dias,"Portugal, Évora, Évora","Artigo 26.º, n.º 1, alínea e) do Código dos Contratos Públicos",,,,,,Não aplicável.,Não aplicável.,FALSE
Aquisição de medicamentos: Trastuzumab 600mg,Ajuste Direto Regime Geral,Aquisição de bens móveis,"33650000-1, Anti-infecciosos gerais de uso sistémico, vacinas, antineoplásicos e imunomoduladores","Hospital do Espírito Santo de Évora, E. P. E. (508085888)","ROCHE Farmacêutica Quimica, Lda (500233810)","27.190,80 €",07-02-2017,02-01-2017,8 dias,"Portugal, Évora, Évora","Artigo 26.º, n.º 1, alínea e) do Código dos Contratos Públicos",,,,,,Não aplicável.,Não aplicável.,FALSE
Aquisição de medicamentos : Imunomoglobina,Ajuste Direto Regime Geral,Aquisição de bens móveis,"33651520-9, Imunoglobulinas","Hospital do Espírito Santo de Évora, E. P. E. (508085888)","CSL Behring, Lda                                (503047201)","31.184,00 €",07-02-2017,06-01-2017,8 dias,"Portugal, Évora, Évora","Artigo 26.º, n.º 1, alínea e) do Código dos Contratos Públicos",,,,,,Não aplicável.,Não aplicável.,FALSE
Aquisição de medicamentos: Fumarato Demetilo,Ajuste Direto Regime Geral,Aquisição de bens móveis,"33650000-1, Anti-infecciosos gerais de uso sistémico, vacinas, antineoplásicos e imunomoduladores","Hospital do Espírito Santo de Évora, E. P. E. (508085888)","Biogen Idec Portugal, Lda (506415740)","5.451,48 €",07-02-2017,07-12-2016,8 dias,"Portugal, Évora, Évora","Artigo 24.º, n.º 1, alínea e) do Código dos Contratos Públicos",,,,,,Não aplicável.,Não aplicável.,FALSE
Aquisição de medicamentos: Ibrutinib 140mg,Ajuste Direto Regime Geral,Aquisição de bens móveis,"33690000-3, Medicamentos vários","Hospital do Espírito Santo de Évora, E. P. E. (508085888)","JANSSEN-CILAG FARMACEUTICA, LDA (500189412)","5.496,57 €",07-02-2017,07-12-2016,8 dias,"Portugal, Évora, Évora","Artigo 24.º, n.º 1, alínea e) do Código dos Contratos Públicos",,,,,,Não aplicável.,Não aplicável.,FALSE
Aquisição de medicamentos: Pembrolizumab 50mg,Ajuste Direto Regime Geral,Aquisição de bens móveis,"33690000-3, Medicamentos vários","Hospital do Espírito Santo de Évora, E. P. E. (508085888)",MERCK SHARP & DHOME LDA. (500191360),"7.024,00 €",07-02-2017,06-12-2016,8 dias,"Portugal, Évora, Évora","Artigo 24.º, n.º 1, alínea e) do Código dos Contratos Públicos",,,,,,Não aplicável.,Não aplicável.,FALSE
Aquisição de medicamentos: Enzalutamida 40mg,Ajuste Direto Regime Geral,Aquisição de bens móveis,"33690000-3, Medicamentos vários","Hospital do Espírito Santo de Évora, E. P. E. (508085888)",Astellas Farma (502540249),"8.348,76 €",07-02-2017,21-12-2016,8 dias,"Portugal, Évora, Évora","Artigo 26.º, n.º 1, alínea e) do Código dos Contratos Públicos",,,,,,Não aplicável.,Não aplicável.,FALSE
Aquisição de medicamentos: Nivolumab 10 mg,Ajuste Direto Regime Geral,Aquisição de bens móveis,"33650000-1, Anti-infecciosos gerais de uso sistémico, vacinas, antineoplásicos e imunomoduladores","Hospital do Espírito Santo de Évora, E. P. E. (508085888)",BRISTOL-MYERS SQUIB FARMAC PORTUGUESA SA (500048193),"11.616,00 €",06-02-2017,09-12-2016,8 dias,"Portugal, Évora, Évora","Artigo 24.º, n.º 1, alínea e) do Código dos Contratos Públicos",,,,,,Não aplicável.,Não aplicável.,FALSE
Aquisição de medicamentos: Nivolumab 10mg,Ajuste Direto Regime Geral,Aquisição de bens móveis,"33631000-2, Medicamentos usados em dermatologia","Hospital do Espírito Santo de Évora, E. P. E. (508085888)",BRISTOL-MYERS SQUIB FARMAC PORTUGUESA SA (500048193),"11.616,00 €",06-02-2017,06-12-2016,8 dias,"Portugal, Évora, Évora","Artigo 24.º, n.º 1, alínea e) do Código dos Contratos Públicos",,,,,,Não aplicável.,Não aplicável.,FALSE
Aquisição de medicamentos: Pembrolizumab,Ajuste Direto Regime Geral,Aquisição de bens móveis,"33650000-1, Anti-infecciosos gerais de uso sistémico, vacinas, antineoplásicos e imunomoduladores","Hospital do Espírito Santo de Évora, E. P. E. (508085888)",MERCK SHARP & DHOME LDA. (500191360),"12.292,00 €",06-02-2017,09-12-2016,8 dias,"Portugal, Évora, Évora","Artigo 24.º, n.º 1, alínea e) do Código dos Contratos Públicos",,,,,,Não aplicável.,Não aplicável.,FALSE
Aquisição de medicamentos: Trstuzumab,Ajuste Direto Regime Geral,Aquisição de bens móveis,"33650000-1, Anti-infecciosos gerais de uso sistémico, vacinas, antineoplásicos e imunomoduladores","Hospital do Espírito Santo de Évora, E. P. E. (508085888)","ROCHE Farmacêutica Quimica, Lda (500233810)","13.595,40 €",06-02-2017,12-12-2016,8 dias,"Portugal, Évora, Évora","Artigo 26.º, n.º 1, alínea f) do Código dos Contratos Públicos",,,,,,Não aplicável.,Não aplicável.,FALSE
Aquisição de medicamentos: Pertuzumab,Ajuste Direto Regime Geral,Aquisição de bens móveis,"33650000-1, Anti-infecciosos gerais de uso sistémico, vacinas, antineoplásicos e imunomoduladores","Hospital do Espírito Santo de Évora, E. P. E. (508085888)","ROCHE Farmacêutica Quimica, Lda (500233810)","13.808,25 €",06-02-2017,09-12-2016,8 dias,"Portugal, Évora, Évora","Artigo 24.º, n.º 1, alínea e) do Código dos Contratos Públicos",,,,,,Não aplicável.,Não aplicável.,FALSE
" Medicamentos usados no tratamento de intoxicações, vitaminas, sais minerais e do grupo 20.9",Ao abrigo de acordo-quadro (art.º 259.º),Aquisição de bens móveis,"33690000-3, Medicamentos vários","Hospital do Espírito Santo de Évora, E. P. E. (508085888)","Novartis Farma - Produtos Farmacêuticos, S (500063524), ACCORD HEALTHCARE, UNIPESSOAL, LDA (508622263), FARMOZ - SOCIEDADE TÉCNICO MEDICINAL S.A. (501505334), LABESFAL-LABORATORIOS ALMIRO, SA (501169580)","42.219,12 €",06-02-2017,18-01-2017,350 dias,"Portugal, Évora, Évora",Artigo 259.º do Código dos Contratos Públicos,,,,,,1338581,"Acordo quadro para fornecimento de Medicação antialérgica, medicamentos usados no tratamento de intoxicações, vitaminas e sais minerais e grupo 20.9 - outros produtos às instituições e serviços do serviço nacional de saúde",FALSE
Aquisição de Hornmonas e outros medicamentos para tratamento doenças endócrinas,Ao abrigo de acordo-quadro (art.º 259.º),Aquisição de bens móveis,"33690000-3, Medicamentos vários","Hospital do Espírito Santo de Évora, E. P. E. (508085888)","PFIZER BIOFARMACEUTICA SOC UNIPESSOAL LDA (513300376), LABESFAL - LABORATÓRIOS ALMIRO, SA (501169580)","3.282,30 €",06-02-2017,18-01-2017,350 dias,"Portugal, Évora, Évora",Artigo 259.º do Código dos Contratos Públicos,,,,,,1415640,CP 2015/7 - ACORDO QUADRO PARA FORNECIMENTO DE HORMONAS E OUTROS MEDICAMENTOS USADOS NO TRATAMENTO DAS DOENÇAS ENDÓCRINAS ÀS INSTITUIÇÕES E SERVIÇOS DO SERVIÇO NACIONAL DE SAÚDE,FALSE
