Objeto do Contrato,Tipo de Procedimento,Tipo(s) de Contrato,CPVs,Entidade(s) Adjudicante(s),Entidade(s) Adjudicatária(s),Preço Contratual,Data de Publicação,Data de Celebração do Contrato,Prazo de Execução,Local de Execução,Fundamentação,Data de Fecho do Contrato,Preço Total Efetivo,Causas das Alterações ao Prazo,Causas das Alterações ao Preço,Estado,N.º registo do Acordo Quadro,Descrição do Acordo Quadro,Procedimento Centralizado
CATETERES - TORNEIRAS,Ao abrigo de acordo-quadro (art.º 259.º),Aquisição de bens móveis,"33141200-2, Cateteres","Unidade Local de Saúde do Nordeste, E. P. E (509932584)",PERGUT PORTUGAL (501799729),"1.559,00 €",11-09-2014,06-05-2014,240 dias,"Portugal, Braganca, Bragança",Artigo 259.º do Código dos Contratos Públicos,31-12-2014,"1.559,00 €",,,,1212278,"CONCURSO PÚBLICO PARA A CELEBRAÇÃO DE CONTRATOS PÚBLICOS DE APROVISIONAMENTO PARA A ÁREA DA SAÚDE, COM VISTA AO FORNECIMENTO DE CATETERES, ÀS INSTITUIÇÕES E SERVIÇOS DO SERVIÇO NACIONAL DE SAÚDE",FALSE
CATETERES - BIOCONETORES,Ao abrigo de acordo-quadro (art.º 259.º),Aquisição de bens móveis,"33141200-2, Cateteres","Unidade Local de Saúde do Nordeste, E. P. E (509932584)",VYGON (503232785),"32.065,00 €",11-09-2014,06-05-2014,240 dias,"Portugal, Braganca, Bragança",Artigo 259.º do Código dos Contratos Públicos,31-12-2014,"32.065,00 €",,,,1212278,"CONCURSO PÚBLICO PARA A CELEBRAÇÃO DE CONTRATOS PÚBLICOS DE APROVISIONAMENTO PARA A ÁREA DA SAÚDE, COM VISTA AO FORNECIMENTO DE CATETERES, ÀS INSTITUIÇÕES E SERVIÇOS DO SERVIÇO NACIONAL DE SAÚDE",FALSE
CATETERES,Ao abrigo de acordo-quadro (art.º 259.º),Aquisição de bens móveis,"33141200-2, Cateteres","Unidade Local de Saúde do Nordeste, E. P. E (509932584)","P.M.H.-PRODUTOS MÉDICOS HOSPITALARES, LDA (502376899)","5.590,00 €",11-09-2014,06-05-2014,140 dias,"Portugal, Braganca, Bragança",Artigo 259.º do Código dos Contratos Públicos,31-12-2014,"5.590,00 €",,,,1212278,"CONCURSO PÚBLICO PARA A CELEBRAÇÃO DE CONTRATOS PÚBLICOS DE APROVISIONAMENTO PARA A ÁREA DA SAÚDE, COM VISTA AO FORNECIMENTO DE CATETERES, ÀS INSTITUIÇÕES E SERVIÇOS DO SERVIÇO NACIONAL DE SAÚDE",FALSE
CATETERES,Ao abrigo de acordo-quadro (art.º 259.º),Aquisição de bens móveis,"33141200-2, Cateteres","Unidade Local de Saúde do Nordeste, E. P. E (509932584)","SMITHS MEDICAL PORTUGAL, LDA. (507445937)","41.225,00 €",11-09-2014,06-05-2014,240 dias,"Portugal, Braganca, Bragança",Artigo 259.º do Código dos Contratos Públicos,31-12-2014,"41.225,00 €",,,,1212278,"CONCURSO PÚBLICO PARA A CELEBRAÇÃO DE CONTRATOS PÚBLICOS DE APROVISIONAMENTO PARA A ÁREA DA SAÚDE, COM VISTA AO FORNECIMENTO DE CATETERES, ÀS INSTITUIÇÕES E SERVIÇOS DO SERVIÇO NACIONAL DE SAÚDE",FALSE
SISTEMAS FECHADOS DE COLHEITA POR ASPIRAÇÃO,Ao abrigo de acordo-quadro (art.º 259.º),Aquisição de bens móveis,"33141300-3, Aparelhos para punção venosa e recolha de sangue","Unidade Local de Saúde do Nordeste, E. P. E (509932584)",SARSTEDT (503019461),"28.986,00 €",11-09-2014,10-07-2014,175 dias,"Portugal, Braganca, Bragança",Artigo 259.º do Código dos Contratos Públicos,31-12-2014,"28.986,00 €",,,,448705,"CONCURSO PÚBLICO PARA A CELEBRAÇÃO DE CONTRATOS PÚBLICOS DE APROVISIONAMENTO PARA A ÁREA DA SAÚDE, COM VISTA AO FORNECIMENTO DE SERINGAS, AGULHAS, CONTENTORES E SISTEMAS FECHADOS DE COLHEITA,  ÀS INSTITUIÇÕES E SERVIÇOS DO SERVIÇO NACIONAL DE SAÚDE",FALSE
MEDICAMENTOS ANTI-INFECCIOSOS: ANTIVÍRICOS E ANTIFÚNGICOS,Ao abrigo de acordo-quadro (art.º 259.º),Aquisição de bens móveis,"33600000-6, Produtos farmacêuticos","Unidade Local de Saúde do Nordeste, E. P. E (509932584)",LABORATORIOS PFIZER (500162166),"5.047,66 €",10-09-2014,11-04-2014,265 dias,"Portugal, Braganca, Bragança",Artigo 259.º do Código dos Contratos Públicos,31-12-2014,"5.047,66 €",,,,455180,"CONCURSO PÚBLICO PARA A CELEBRAÇÃO DE CONTRATOS PÚBLICOS DE APROVISIONAMENTO PARA A ÁREA DA SAÚDE, COM VISTA AO FORNECIMENTO DE MEDICAMENTOS ANTI-INFECIOSOS: ANTIVÍRICOS E ANTIFÚNGICOS, ÀS INSTITUIÇÕES E SERVIÇOS DO SERVIÇO NACIONAL DE SAÚDE  ",FALSE
MEDICAMENTOS ANTI-INFECCIOSOS: ANTIVÍRICOS E ANTIFÚNGICOS,Ao abrigo de acordo-quadro (art.º 259.º),Aquisição de bens móveis,"33600000-6, Produtos farmacêuticos","Unidade Local de Saúde do Nordeste, E. P. E (509932584)",ROCHE (500233810),"310,68 €",10-09-2014,11-04-2014,265 dias,"Portugal, Braganca, Bragança",Artigo 259.º do Código dos Contratos Públicos,31-12-2014,"310,68 €",,,,455180,"CONCURSO PÚBLICO PARA A CELEBRAÇÃO DE CONTRATOS PÚBLICOS DE APROVISIONAMENTO PARA A ÁREA DA SAÚDE, COM VISTA AO FORNECIMENTO DE MEDICAMENTOS ANTI-INFECIOSOS: ANTIVÍRICOS E ANTIFÚNGICOS, ÀS INSTITUIÇÕES E SERVIÇOS DO SERVIÇO NACIONAL DE SAÚDE  ",FALSE
MEDICAMENTOS ANTI-INFECCIOSOS: ANTIVÍRICOS E ANTIFÚNGICOS,Ao abrigo de acordo-quadro (art.º 259.º),Aquisição de bens móveis,"33600000-6, Produtos farmacêuticos","Unidade Local de Saúde do Nordeste, E. P. E (509932584)",BRISTOL MYERS (500048193),"1.690,00 €",10-09-2014,11-04-2014,265 dias,"Portugal, Braganca, Bragança",Artigo 259.º do Código dos Contratos Públicos,31-12-2014,"1.690,00 €",,,,455180,"CONCURSO PÚBLICO PARA A CELEBRAÇÃO DE CONTRATOS PÚBLICOS DE APROVISIONAMENTO PARA A ÁREA DA SAÚDE, COM VISTA AO FORNECIMENTO DE MEDICAMENTOS ANTI-INFECIOSOS: ANTIVÍRICOS E ANTIFÚNGICOS, ÀS INSTITUIÇÕES E SERVIÇOS DO SERVIÇO NACIONAL DE SAÚDE  ",FALSE
MEDICAMENTOS ANTI-INFECCIOSOS: ANTIVÍRICOS E ANTIFÚNGICOS,Ao abrigo de acordo-quadro (art.º 259.º),Aquisição de bens móveis,"33600000-6, Produtos farmacêuticos","Unidade Local de Saúde do Nordeste, E. P. E (509932584)",MERCK SHARP DOME (500191360),"10.876,78 €",10-09-2014,11-04-2014,265 dias,"Portugal, Braganca, Bragança",Artigo 259.º do Código dos Contratos Públicos,31-12-2014,"10.876,78 €",,,,455180,"CONCURSO PÚBLICO PARA A CELEBRAÇÃO DE CONTRATOS PÚBLICOS DE APROVISIONAMENTO PARA A ÁREA DA SAÚDE, COM VISTA AO FORNECIMENTO DE MEDICAMENTOS ANTI-INFECIOSOS: ANTIVÍRICOS E ANTIFÚNGICOS, ÀS INSTITUIÇÕES E SERVIÇOS DO SERVIÇO NACIONAL DE SAÚDE  ",FALSE
MEDICAMENTOS ANTI-INFECCIOSOS: ANTIVÍRICOS E ANTIFÚNGICOS,Ao abrigo de acordo-quadro (art.º 259.º),Aquisição de bens móveis,"33600000-6, Produtos farmacêuticos","Unidade Local de Saúde do Nordeste, E. P. E (509932584)",FARMOZ (501505334),"192,00 €",10-09-2014,11-04-2014,235 dias,"Portugal, Braganca, Bragança",Artigo 259.º do Código dos Contratos Públicos,31-12-2014,"192,00 €",,,,455180,"CONCURSO PÚBLICO PARA A CELEBRAÇÃO DE CONTRATOS PÚBLICOS DE APROVISIONAMENTO PARA A ÁREA DA SAÚDE, COM VISTA AO FORNECIMENTO DE MEDICAMENTOS ANTI-INFECIOSOS: ANTIVÍRICOS E ANTIFÚNGICOS, ÀS INSTITUIÇÕES E SERVIÇOS DO SERVIÇO NACIONAL DE SAÚDE  ",FALSE
MEDICAMENTOS ANTI-INFECCIOSOS: ANTIVÍRICOS E ANTIFÚNGICOS,Ao abrigo de acordo-quadro (art.º 259.º),Aquisição de bens móveis,"33600000-6, Produtos farmacêuticos","Unidade Local de Saúde do Nordeste, E. P. E (509932584)",HIKMA (502266791),"1.302,10 €",10-09-2014,11-04-2014,265 dias,"Portugal, Braganca, Bragança",Artigo 259.º do Código dos Contratos Públicos,31-12-2014,"1.302,10 €",,,,455180,"CONCURSO PÚBLICO PARA A CELEBRAÇÃO DE CONTRATOS PÚBLICOS DE APROVISIONAMENTO PARA A ÁREA DA SAÚDE, COM VISTA AO FORNECIMENTO DE MEDICAMENTOS ANTI-INFECIOSOS: ANTIVÍRICOS E ANTIFÚNGICOS, ÀS INSTITUIÇÕES E SERVIÇOS DO SERVIÇO NACIONAL DE SAÚDE  ",FALSE
MEDICAMENTOS ANTI-INFECCIOSOS: ANTIVÍRICOS E ANTIFÚNGICOS,Ao abrigo de acordo-quadro (art.º 259.º),Aquisição de bens móveis,"33600000-6, Produtos farmacêuticos","Unidade Local de Saúde do Nordeste, E. P. E (509932584)",GENERIS (508107997),"43,20 €",10-09-2014,11-04-2014,265 dias,"Portugal, Braganca, Bragança",Artigo 259.º do Código dos Contratos Públicos,31-12-2014,"43,20 €",,,,455180,"CONCURSO PÚBLICO PARA A CELEBRAÇÃO DE CONTRATOS PÚBLICOS DE APROVISIONAMENTO PARA A ÁREA DA SAÚDE, COM VISTA AO FORNECIMENTO DE MEDICAMENTOS ANTI-INFECIOSOS: ANTIVÍRICOS E ANTIFÚNGICOS, ÀS INSTITUIÇÕES E SERVIÇOS DO SERVIÇO NACIONAL DE SAÚDE  ",FALSE
MEDICAMENTOS ANTI-INFECCIOSOS: ANTIVÍRICOS E ANTIFÚNGICOS,Ao abrigo de acordo-quadro (art.º 259.º),Aquisição de bens móveis,"33600000-6, Produtos farmacêuticos","Unidade Local de Saúde do Nordeste, E. P. E (509932584)",SIDEFARMA-SOC.IND.EXP.FARM.SA (500717419),"990,00 €",10-09-2014,11-04-2014,265 dias,"Portugal, Braganca, Bragança",Artigo 259.º do Código dos Contratos Públicos,31-12-2014,"990,00 €",,,,455180,"CONCURSO PÚBLICO PARA A CELEBRAÇÃO DE CONTRATOS PÚBLICOS DE APROVISIONAMENTO PARA A ÁREA DA SAÚDE, COM VISTA AO FORNECIMENTO DE MEDICAMENTOS ANTI-INFECIOSOS: ANTIVÍRICOS E ANTIFÚNGICOS, ÀS INSTITUIÇÕES E SERVIÇOS DO SERVIÇO NACIONAL DE SAÚDE  ",FALSE
MEDICAMENTOS ANTI-INFECCIOSOS: ANTI-VÍRICOS E ANTIFUNGICOS,Ao abrigo de acordo-quadro (art.º 259.º),Aquisição de bens móveis,"33600000-6, Produtos farmacêuticos","Unidade Local de Saúde do Nordeste, E. P. E (509932584)","GLAXO SMITH KLINE,LDA (500139962)","39.516,00 €",10-09-2014,11-04-2014,265 dias,"Portugal, Braganca, Bragança",Artigo 259.º do Código dos Contratos Públicos,31-12-2014,"39.516,00 €",,,,455180,"CONCURSO PÚBLICO PARA A CELEBRAÇÃO DE CONTRATOS PÚBLICOS DE APROVISIONAMENTO PARA A ÁREA DA SAÚDE, COM VISTA AO FORNECIMENTO DE MEDICAMENTOS ANTI-INFECIOSOS: ANTIVÍRICOS E ANTIFÚNGICOS, ÀS INSTITUIÇÕES E SERVIÇOS DO SERVIÇO NACIONAL DE SAÚDE  ",FALSE
Lentes Intraoculares e Material para Cirurgia da Catarata e Vitrectomia Posterior e Anterior,Concurso público,Aquisição de bens móveis,"33731110-7, Lentes intraoculares","Unidade Local de Saúde do Nordeste, E. P. E (509932584)","Alcon Portugal - Produtos e Equipamentos Oftalmológicos, Lda. (501251685)","191.730,00 €",03-09-2014,04-08-2014,150 dias,"Portugal, Braganca, Bragança","Artigo 20.º, n.º 1, alínea b) do Código dos Contratos Públicos",31-12-2014,"191.730,00 €",,,,Não aplicável.,Não aplicável.,FALSE
Frascos para Citologia Liquida,Ajuste Direto Regime Geral,Aquisição de bens móveis,"33124100-6, Aparelhos para diagnóstico","Unidade Local de Saúde do Nordeste, E. P. E (509932584)","BioPortugal, lda. (502380543)","6.000,00 €",03-09-2014,17-07-2014,169 dias,"Portugal, Braganca, Bragança","Artigo 20.º, n.º 1, alínea a) do Código dos Contratos Públicos",31-12-2014,"6.000,00 €",,,,Não aplicável.,Não aplicável.,FALSE
Aquisição de Material de Osteossintese,Concurso público,Aquisição de bens móveis,"33183100-7, Implantes ortopédicos","Unidade Local de Saúde do Nordeste, E. P. E (509932584)","Biomet Portugal Unipessoal, Lda (500254990)","87.075,00 €",02-09-2014,04-08-2014,150 dias,"Portugal, Braganca, Bragança","Artigo 20.º, n.º 1, alínea b) do Código dos Contratos Públicos",31-12-2014,"87.075,00 €",,,,Não aplicável.,Não aplicável.,FALSE
