Objeto do Contrato,Tipo de Procedimento,Tipo(s) de Contrato,CPVs,Entidade(s) Adjudicante(s),Entidade(s) Adjudicatária(s),Preço Contratual,Data de Publicação,Data de Celebração do Contrato,Prazo de Execução,Local de Execução,Fundamentação,Data de Fecho do Contrato,Preço Total Efetivo,Causas das Alterações ao Prazo,Causas das Alterações ao Preço,Estado,N.º registo do Acordo Quadro,Descrição do Acordo Quadro,Procedimento Centralizado
"AD800973-Aquisição de Servidor para Registo Clinico nas Uci's, Blocos e Neonatologia do CHL,EPE",Ajuste Direto Regime Geral,Aquisição de bens móveis,"48820000-2, Servidores","Centro Hospitalar de Lisboa Ocidental, EPE (CHLO) (507618319)",ITEN Solutions SA (510728189),"8.305,49 €",10-01-2014,07-01-2014,66 dias,"Portugal, Lisboa, Lisboa","Artigo 20.º, n.º 1, alínea a) do Código dos Contratos Públicos",,,,,,Não aplicável.,Não aplicável.,FALSE
AD100224 AQUISIÇÃO DE MEDICAMENTOS EXCLUSIVOS DA EMPRESA CPH PARA 2014,Ajuste Direto Regime Geral,Aquisição de bens móveis,"33661000-1, Medicamentos para o sistema nervoso","Centro Hospitalar de Lisboa Ocidental, E. P. E. (507618319)",CPH COMPANHIA PORTUGUESA DE HIGIENE PHARMA PRODUTOS FARMACEUTICOS (500069190),"12.234,91 €",09-01-2014,12-11-2013,365 dias,"Portugal, Lisboa, Lisboa","Artigo 24.º, n.º 1, alínea e) do Código dos Contratos Públicos",,,,,,Não aplicável.,Não aplicável.,FALSE
AD100214 AQUISIÇÃO DE MEDICAMENTOS EXCLUSIVOS EMPRESA NOVO NORDISK PARA 2014,Ajuste Direto Regime Geral,Aquisição de bens móveis,"33620000-2, Medicamentos para o sangue, para os órgãos hematopoiéticos e para o aparelho cardiovascular","Centro Hospitalar de Lisboa Ocidental, E. P. E. (507618319)",NOVO NORDISK COMERCIO DE PRODUTOS FARMACEUTICOS LDA (501485210),"35.050,24 €",09-01-2014,20-11-2013,365 dias,"Portugal, Lisboa, Lisboa","Artigo 24.º, n.º 1, alínea e) do Código dos Contratos Públicos",,,,,,Não aplicável.,Não aplicável.,FALSE
AD100184 FORNECIMENTO DE MEDICAMENTOS EXCLUSIVOS EMPRESA PFIZER PARA 2014,Ajuste Direto Regime Geral,Aquisição de bens móveis,"33650000-1, Anti-infecciosos gerais de uso sistémico, vacinas, antineoplásicos e imunomoduladores","Centro Hospitalar de Lisboa Ocidental, E. P. E. (507618319)","LABORATORIOS PFIZER, LDA (500162166)","190.599,89 €",09-01-2014,13-11-2013,365 dias,"Portugal, Lisboa, Lisboa","Artigo 24.º, n.º 1, alínea e) do Código dos Contratos Públicos",,,,,,Não aplicável.,Não aplicável.,FALSE
AD100244 AQUISIÇÃO DE MEDICAMENTOS EXCLUSIVOS DA EMPRESA PIERRE FABRE PARA 2014,Ajuste Direto Regime Geral,Aquisição de bens móveis,"33650000-1, Anti-infecciosos gerais de uso sistémico, vacinas, antineoplásicos e imunomoduladores","Centro Hospitalar de Lisboa Ocidental, E. P. E. (507618319)","PIERRE FABRE MEDICAMENT PORTUGAL, LDA (500230366)","161.450,00 €",09-01-2014,13-11-2013,365 dias,"Portugal, Lisboa, Lisboa","Artigo 24.º, n.º 1, alínea e) do Código dos Contratos Públicos",,,,,,Não aplicável.,Não aplicável.,FALSE
AD100034 AQUISIÇÃO DE REAGENTE PARA DETERMINAÇÃO DO TEMPO DE PROTROMBINA PARA O ANO DE 2014,Ajuste Direto Regime Geral,Aquisição de bens móveis,"33694000-1, Meios de diagnóstico","Centro Hospitalar de Lisboa Ocidental, E. P. E. (507618319)","IZASA PORTUGAL, LDA (501086110)","42.080,00 €",09-01-2014,13-11-2013,365 dias,"Portugal, Lisboa, Lisboa","Artigo 24.º, n.º 1, alínea e) do Código dos Contratos Públicos",,,,,,Não aplicável.,Não aplicável.,FALSE
AD100164 AQUISIÇÃO DE MEDICAMENTOS EXCLUSIVOS EMPRESA IPSEN PARA 2014,Ajuste Direto Regime Geral,Aquisição de bens móveis,"33650000-1, Anti-infecciosos gerais de uso sistémico, vacinas, antineoplásicos e imunomoduladores","Centro Hospitalar de Lisboa Ocidental, E. P. E. (507618319)",IPSEN PORTUGAL PRODUTOS FARMACEUTICOS S.A. (502609800),"71.809,40 €",09-01-2014,10-12-2013,365 dias,"Portugal, Lisboa, Lisboa","Artigo 24.º, n.º 1, alínea e) do Código dos Contratos Públicos",,,,,,Não aplicável.,Não aplicável.,FALSE
C1100353 AQUISIÇÃO DE GASES MEDICINAIS AO ABRIGO AQ CP100023 PARA 2013,Ajuste Direto Regime Geral,Aquisição de bens móveis,"33170000-2, Anestesia e reanimação","Centro Hospitalar de Lisboa Ocidental, E. P. E. (507618319)","LINDE SOGÁS, LDA (500266344)","206.536,60 €",09-01-2014,27-09-2013,365 dias,"Portugal, Lisboa, Lisboa",Artigo 258.º do Código dos Contratos Públicos,,,,,,1134841,C1100353 AQUISIÇÃO DE GASES MEDICINAIS AO ABRIGO AQ CP100023 PARA 2013,FALSE
Prestação Serviços de manutenção e Assistência Técnica ás Portas Automáticas do CHLO durante 2014,Ajuste Direto Regime Geral,Aquisição de serviços,"50000000-5, Serviços de reparação e manutenção","Centro Hospitalar de Lisboa Ocidental, E. P. E. (507618319)","Entredoor, Lda (509282547)","9.407,00 €",08-01-2014,02-01-2014,365 dias,"Portugal, Lisboa, Lisboa<BR/>Portugal, Lisboa, Oeiras","Artigo 21.º, n.º 1, alínea a) do Código dos Contratos Públicos",,,,,,Não aplicável.,Não aplicável.,FALSE
Prestação de serviços de Dosimetria para o CHLO durante 2014,Ajuste Direto Regime Geral,Aquisição de serviços,"85000000-9, Serviços de saúde e acção social","Centro Hospitalar de Lisboa Ocidental, E. P. E. (507618319)",Cendosim (510685307),"7.878,00 €",08-01-2014,02-01-2014,365 dias,"Portugal, Lisboa, Lisboa<BR/>Portugal, Lisboa, Oeiras","Artigo 21.º, n.º 1, alínea a) do Código dos Contratos Públicos",,,,,,Não aplicável.,Não aplicável.,FALSE
"Prestação de Serviços de Manutenção e AT à aplicação Nefrus em 2014 no CHLO, EPE",Ajuste Direto Regime Geral,Aquisição de serviços,"72267000-4, Serviços de manutenção e reparação de software","Centro Hospitalar de Lisboa Ocidental, EPE (CHLO) (507618319)","Adminsaúde, Lda (507243250)","9.262,50 €",08-01-2014,08-01-2014,365 dias,"Portugal, Lisboa, Lisboa","Artigo 21.º, n.º 1, alínea a) do Código dos Contratos Públicos",,,,,,Não aplicável.,Não aplicável.,FALSE
"Fornecimento, instalaçõa e manutenção da solução B-ICU na UCIP do CHLO, EPE",Ajuste Direto Regime Geral,Aquisição de serviços,"72000000-5, Serviços de TI: consultoria, desenvolvimento de software, Internet e apoio","Centro Hospitalar de Lisboa Ocidental, E. P. E. (507618319)","B-Simple, Lda (506188841)","8.000,00 €",07-01-2014,07-01-2014,30 dias,"Portugal, Lisboa, Lisboa","Artigo 21.º, n.º 1, alínea a) do Código dos Contratos Públicos",,,,,,Não aplicável.,Não aplicável.,FALSE
Beneficiação da Morgue e criação de espaço para a Córnea no Hospital Egas Moniz,Ajuste Direto Regime Geral,Empreitadas de obras públicas,"45000000-7, Construção","Centro Hospitalar de Lisboa Ocidental, E. P. E. (507618319)","Cintilantexito, Lda (510619240)","12.790,00 €",07-01-2014,04-11-2013,60 dias,"Portugal, Lisboa, Lisboa","Artigo 19.º, alínea a) do Código dos Contratos Públicos",,,,,,Não aplicável.,Não aplicável.,FALSE
Prestação de serviços de formação de curso de suporte avançado de vida,Ajuste Direto Regime Geral,Aquisição de serviços,"80000000-4, Serviços de ensino e formação","Centro Hospitalar de Lisboa Ocidental, E. P. E. (507618319)",Alento - Associação (504497790),"7.500,00 €",07-01-2014,08-10-2013,5 dias,"Portugal, Lisboa, Lisboa","Artigo 21.º, n.º 1, alínea a) do Código dos Contratos Públicos",,,,,,Não aplicável.,Não aplicável.,FALSE
Expansão da aplicação da plataforma SIIMA para a área de Oftalmologia do CHLO,Ajuste Direto Regime Geral,Aquisição de serviços,"72000000-5, Serviços de TI: consultoria, desenvolvimento de software, Internet e apoio","Centro Hospitalar de Lisboa Ocidental, E. P. E. (507618319)","First Solutions, SA (507987349)","9.985,00 €",07-01-2014,05-12-2013,30 dias,"Portugal, Lisboa, Lisboa","Artigo 21.º, n.º 1, alínea a) do Código dos Contratos Públicos",,,,,,Não aplicável.,Não aplicável.,FALSE
"Aquisição de seguros para as viaturas do CHLO, EPE para o periodo de 01/01 a 31/12/2014",Ajuste Direto Regime Geral,Aquisição de serviços,"66000000-0, Serviços de finanças e seguros","Centro Hospitalar de Lisboa Ocidental, E. P. E. (507618319)","AVS - Corretores de Seguros, SA (503830267)","7.487,00 €",06-01-2014,16-12-2013,365 dias,"Portugal, Lisboa","Artigo 21.º, n.º 1, alínea a) do Código dos Contratos Públicos",,,,,,Não aplicável.,Não aplicável.,FALSE
