Objeto do Contrato,Tipo de Procedimento,Tipo(s) de Contrato,CPVs,Entidade(s) Adjudicante(s),Entidade(s) Adjudicatária(s),Preço Contratual,Data de Publicação,Data de Celebração do Contrato,Prazo de Execução,Local de Execução,Fundamentação,Data de Fecho do Contrato,Preço Total Efetivo,Causas das Alterações ao Prazo,Causas das Alterações ao Preço,Estado,N.º registo do Acordo Quadro,Descrição do Acordo Quadro,Procedimento Centralizado
Aquisição de medicamentos de foro oncológico,Ao abrigo de acordo-quadro (art.º 259.º),Aquisição de bens móveis,"33600000-6, Produtos farmacêuticos","Centro Hospitalar do Médio Ave, E. P. E. (508093937)",ROCHE FARMACEUTICA QUIMICA LDA (500233810),"566.991,80 €",15-09-2015,31-03-2015,260 dias,"Portugal, Braga, Vila Nova de Famalicão<BR/>Portugal, Porto, Santo Tirso",Artigo 259.º do Código dos Contratos Públicos,,,,,,345900,CONCURSO PÚBLICO PARA A CELEBRAÇÃO DE CONTRATOS PÚBLICOS DE APROVISIONAMENTO PARA AQUISIÇÃO MEDICAMENTOS DO FORO ONCOLÓGICO,FALSE
Aquisição de medicamentos de foro oncológico,Ao abrigo de acordo-quadro (art.º 259.º),Aquisição de bens móveis,"33600000-6, Produtos farmacêuticos","Centro Hospitalar do Médio Ave, E. P. E. (508093937)",PHARMAKERN PORTUGAL PRODUTOS FARMACÊUTICOS SOCIEDADE UNIPESSOAL (507002571),"3.540,00 €",15-09-2015,31-03-2015,260 dias,"Portugal, Braga, Vila Nova de Famalicão<BR/>Portugal, Porto, Santo Tirso",Artigo 259.º do Código dos Contratos Públicos,,,,,,345900,CONCURSO PÚBLICO PARA A CELEBRAÇÃO DE CONTRATOS PÚBLICOS DE APROVISIONAMENTO PARA AQUISIÇÃO MEDICAMENTOS DO FORO ONCOLÓGICO,FALSE
Aquisição de medicamentos do foro oncológico,Ao abrigo de acordo-quadro (art.º 259.º),Aquisição de bens móveis,"33600000-6, Produtos farmacêuticos","Centro Hospitalar do Médio Ave, E. P. E. (508093937)",LABORATÓRIOS PFIZER LDA (500162166),"19.159,20 €",15-09-2015,31-03-2015,260 dias,"Portugal, Braga, Vila Nova de Famalicão<BR/>Portugal, Porto, Santo Tirso",Artigo 259.º do Código dos Contratos Públicos,,,,,,345900,CONCURSO PÚBLICO PARA A CELEBRAÇÃO DE CONTRATOS PÚBLICOS DE APROVISIONAMENTO PARA AQUISIÇÃO MEDICAMENTOS DO FORO ONCOLÓGICO,FALSE
Aquisição de medicamentos do foro oncológico,Ao abrigo de acordo-quadro (art.º 259.º),Aquisição de bens móveis,"33600000-6, Produtos farmacêuticos","Centro Hospitalar do Médio Ave, E. P. E. (508093937)","MERCK SHARPE & DOHME, LDA (500191360)","17.397,84 €",15-09-2015,31-03-2015,260 dias,"Portugal, Braga, Vila Nova de Famalicão<BR/>Portugal, Porto, Santo Tirso",Artigo 259.º do Código dos Contratos Públicos,,,,,,345900,CONCURSO PÚBLICO PARA A CELEBRAÇÃO DE CONTRATOS PÚBLICOS DE APROVISIONAMENTO PARA AQUISIÇÃO MEDICAMENTOS DO FORO ONCOLÓGICO,FALSE
Aquisição de medicamentos de foro oncológico,Ao abrigo de acordo-quadro (art.º 259.º),Aquisição de bens móveis,"33600000-6, Produtos farmacêuticos","Centro Hospitalar do Médio Ave, E. P. E. (508093937)",MEDAC GESELLSCHAFT FUR KLINISCHE SPEZIALPRAPARATE M B H - SUCURSAL EM PORTUGAL (980369959),"780,96 €",15-09-2015,31-03-2015,260 dias,"Portugal, Porto, Santo Tirso<BR/>Portugal, Braga, Vila Nova de Famalicão",Artigo 259.º do Código dos Contratos Públicos,,,,,,345900,CONCURSO PÚBLICO PARA A CELEBRAÇÃO DE CONTRATOS PÚBLICOS DE APROVISIONAMENTO PARA AQUISIÇÃO MEDICAMENTOS DO FORO ONCOLÓGICO,FALSE
Aquisição de medicamentos de foro oncológico,Ao abrigo de acordo-quadro (art.º 259.º),Aquisição de bens móveis,"33600000-6, Produtos farmacêuticos","Centro Hospitalar do Médio Ave, E. P. E. (508093937)",IPSEN PORTUGAL PRODUTOS FARMACEUTICOS SA (502609800),"2.184,00 €",15-09-2015,31-03-2015,260 dias,"Portugal, Porto, Santo Tirso<BR/>Portugal, Braga, Vila Nova de Famalicão",Artigo 259.º do Código dos Contratos Públicos,,,,,,345900,CONCURSO PÚBLICO PARA A CELEBRAÇÃO DE CONTRATOS PÚBLICOS DE APROVISIONAMENTO PARA AQUISIÇÃO MEDICAMENTOS DO FORO ONCOLÓGICO,FALSE
Aquisição de medicamentos do foro oncológico,Ao abrigo de acordo-quadro (art.º 259.º),Aquisição de bens móveis,"33600000-6, Produtos farmacêuticos","Centro Hospitalar do Médio Ave, E. P. E. (508093937)",HIKMA FARMACEUTICA PORTUGAL S A (502266791),"2.400,50 €",15-09-2015,31-03-2015,260 dias,"Portugal, Porto, Santo Tirso<BR/>Portugal, Braga, Vila Nova de Famalicão",Artigo 259.º do Código dos Contratos Públicos,,,,,,345900,CONCURSO PÚBLICO PARA A CELEBRAÇÃO DE CONTRATOS PÚBLICOS DE APROVISIONAMENTO PARA AQUISIÇÃO MEDICAMENTOS DO FORO ONCOLÓGICO,FALSE
Aquisição de medicamentos de foro oncológico,Ao abrigo de acordo-quadro (art.º 259.º),Aquisição de bens móveis,"33600000-6, Produtos farmacêuticos","Centro Hospitalar do Médio Ave, E. P. E. (508093937)","GENERIS FARMACÊUTICA, SA (508107997)","326,43 €",15-09-2015,31-03-2015,260 dias,"Portugal, Porto, Santo Tirso<BR/>Portugal, Braga, Vila Nova de Famalicão",Artigo 259.º do Código dos Contratos Públicos,,,,,,345900,CONCURSO PÚBLICO PARA A CELEBRAÇÃO DE CONTRATOS PÚBLICOS DE APROVISIONAMENTO PARA AQUISIÇÃO MEDICAMENTOS DO FORO ONCOLÓGICO,FALSE
Aquisição de medicamentos do foro oncológico,Ao abrigo de acordo-quadro (art.º 259.º),Aquisição de bens móveis,"33600000-6, Produtos farmacêuticos","Centro Hospitalar do Médio Ave, E. P. E. (508093937)",FARMOZ - SOCIEDADE TECNICO MEDICINAL S A (501505334),"3.019,20 €",15-09-2015,31-03-2015,260 dias,"Portugal, Braga, Vila Nova de Famalicão<BR/>Portugal, Porto, Santo Tirso",Artigo 259.º do Código dos Contratos Públicos,,,,,,345900,CONCURSO PÚBLICO PARA A CELEBRAÇÃO DE CONTRATOS PÚBLICOS DE APROVISIONAMENTO PARA AQUISIÇÃO MEDICAMENTOS DO FORO ONCOLÓGICO,FALSE
Aquisição de medicamentos do foro oncológico,Ao abrigo de acordo-quadro (art.º 259.º),Aquisição de bens móveis,"33600000-6, Produtos farmacêuticos","Centro Hospitalar do Médio Ave, E. P. E. (508093937)","AUROVITAS UNIPESSOAL, LDA (513053239)","9.968,46 €",15-09-2015,31-03-2015,260 dias,"Portugal, Braga, Vila Nova de Famalicão<BR/>Portugal, Porto, Santo Tirso",Artigo 259.º do Código dos Contratos Públicos,,,,,,345900,CONCURSO PÚBLICO PARA A CELEBRAÇÃO DE CONTRATOS PÚBLICOS DE APROVISIONAMENTO PARA AQUISIÇÃO MEDICAMENTOS DO FORO ONCOLÓGICO,FALSE
Aquisição de medicamentos do foro oncológico,Ao abrigo de acordo-quadro (art.º 259.º),Aquisição de bens móveis,"33600000-6, Produtos farmacêuticos","Centro Hospitalar do Médio Ave, E. P. E. (508093937)",Astrazeneca - Produtos Farmaceuticos Lda (502942240),"25.415,55 €",15-09-2015,31-03-2015,260 dias,"Portugal, Porto, Santo Tirso<BR/>Portugal, Braga, Vila Nova de Famalicão",Artigo 259.º do Código dos Contratos Públicos,,,,,,345900,CONCURSO PÚBLICO PARA A CELEBRAÇÃO DE CONTRATOS PÚBLICOS DE APROVISIONAMENTO PARA AQUISIÇÃO MEDICAMENTOS DO FORO ONCOLÓGICO,FALSE
Aquisição de medicamentos do foro oncológico,Ao abrigo de acordo-quadro (art.º 259.º),Aquisição de bens móveis,"33600000-6, Produtos farmacêuticos","Centro Hospitalar do Médio Ave, E. P. E. (508093937)",ACCORD HEALTHCARE LTD - SUCURSAL EM PORTUGAL (980508789),"11.685,08 €",15-09-2015,31-03-2015,260 dias,"Portugal, Braga, Vila Nova de Famalicão<BR/>Portugal, Porto, Santo Tirso",Artigo 259.º do Código dos Contratos Públicos,,,,,,345900,CONCURSO PÚBLICO PARA A CELEBRAÇÃO DE CONTRATOS PÚBLICOS DE APROVISIONAMENTO PARA AQUISIÇÃO MEDICAMENTOS DO FORO ONCOLÓGICO,FALSE
Aquisição de medicamentos do foro oncológico,Ao abrigo de acordo-quadro (art.º 259.º),Aquisição de bens móveis,"33600000-6, Produtos farmacêuticos","Centro Hospitalar do Médio Ave, E. P. E. (508093937)",ABBVIE LDA (510229050),"35.743,06 €",15-09-2015,31-03-2015,260 dias,"Portugal, Braga, Vila Nova de Famalicão<BR/>Portugal, Porto, Santo Tirso",Artigo 259.º do Código dos Contratos Públicos,,,,,,345900,CONCURSO PÚBLICO PARA A CELEBRAÇÃO DE CONTRATOS PÚBLICOS DE APROVISIONAMENTO PARA AQUISIÇÃO MEDICAMENTOS DO FORO ONCOLÓGICO,FALSE
