Objeto do Contrato,Tipo de Procedimento,Tipo(s) de Contrato,CPVs,Entidade(s) Adjudicante(s),Entidade(s) Adjudicatária(s),Preço Contratual,Data de Publicação,Data de Celebração do Contrato,Prazo de Execução,Local de Execução,Fundamentação,Data de Fecho do Contrato,Preço Total Efetivo,Causas das Alterações ao Prazo,Causas das Alterações ao Preço,Estado,N.º registo do Acordo Quadro,Descrição do Acordo Quadro,Procedimento Centralizado
PC 514/2016 SACOS DE ASPIRAÇÃO DE SECREÇÕES,Ajuste Direto Regime Geral,Aquisição de bens móveis,"33141610-9, Sacos de drenagem","Unidade Local de Saúde do Nordeste, E. P. E. (509932584)",MEDICINÁLIA-CORMÉDICA (500684324),"8.775,00 €",29-03-2016,10-03-2016,295 dias,"Portugal, Braganca, Bragança","Artigo 20.º, n.º 1, alínea a) do Código dos Contratos Públicos",31-12-2016,"8.775,00 €",,,,Não aplicável.,Não aplicável.,FALSE
PC 203/2016 ACETATO GLATIRAMERO 40MG/ML,Ajuste Direto Regime Geral,Aquisição de bens móveis,"33600000-6, Produtos farmacêuticos","Unidade Local de Saúde do Nordeste, EPE (509932584)",TEVA (502919639),"57.817,50 €",23-03-2016,08-03-2016,300 dias,"Portugal, Braganca, Bragança","Artigo 20.º, n.º 1, alínea a) do Código dos Contratos Públicos",31-12-2016,"57.817,50 €",,,,Não aplicável.,Não aplicável.,FALSE
PC 285/2015 LINEZOLIDA,Ajuste Direto Regime Geral,Aquisição de bens móveis,"33600000-6, Produtos farmacêuticos","Unidade Local de Saúde do Nordeste, EPE (509932584)",TEVA (502919639),"2.781,00 €",23-03-2016,08-03-2016,300 dias,"Portugal, Braganca, Bragança","Artigo 20.º, n.º 1, alínea a) do Código dos Contratos Públicos",31-12-2016,"2.781,00 €",,,,Não aplicável.,Não aplicável.,FALSE
