Objeto do Contrato,Tipo de Procedimento,Tipo(s) de Contrato,CPVs,Entidade(s) Adjudicante(s),Entidade(s) Adjudicatária(s),Preço Contratual,Data de Publicação,Data de Celebração do Contrato,Prazo de Execução,Local de Execução,Fundamentação,Data de Fecho do Contrato,Preço Total Efetivo,Causas das Alterações ao Prazo,Causas das Alterações ao Preço,Estado,N.º registo do Acordo Quadro,Descrição do Acordo Quadro,Procedimento Centralizado
Aquisição de Sistema CDI VDD,Ajuste Direto Regime Geral,Aquisição de bens móveis,"33182100-0, Desfibrilhador","Centro Hospitalar Lisboa Norte, E. P. E. (508481287)","Farmimpex, SA (503061506)","9.775,00 €",21-02-2014,21-02-2014,1 dias,"Portugal, Lisboa, Lisboa","Artigo 20.º, n.º 1, alínea a) do Código dos Contratos Públicos",,,,,,Não aplicável.,Não aplicável.,FALSE
Aquisição de Imunofixação em gel Conj,Ajuste Direto Regime Geral,Aquisição de bens móveis,"33696500-0, Reagentes de laboratório","Centro Hospitalar Lisboa Norte, E. P. E. (508481287)","Phadia, Lda. (506916243)","9.419,20 €",21-02-2014,21-02-2014,1 dias,"Portugal, Lisboa, Lisboa","Artigo 24.º, n.º 1, alínea e) do Código dos Contratos Públicos",,,,,,Não aplicável.,Não aplicável.,FALSE
Aquisição de Paclitaxel 5 Mg/Ml Inj,Ajuste Direto Regime Geral,Aquisição de bens móveis,"33690000-3, Medicamentos vários","Centro Hospitalar Lisboa Norte, E. P. E. (508481287)","Celgene, Lda (507791690)","5.760,00 €",21-02-2014,21-02-2014,1 dias,"Portugal, Lisboa, Lisboa","Artigo 24.º, n.º 1, alínea e) do Código dos Contratos Públicos",,,,,,Não aplicável.,Não aplicável.,FALSE
Aquisição de Endoprótese Aórtica,Ajuste Direto Regime Geral,Aquisição de bens móveis,"33184500-8, Endopróteses coronárias","Centro Hospitalar Lisboa Norte, E. P. E. (508481287)","Medtronic Portugal, Lda. (504223933)","8.500,00 €",21-02-2014,21-02-2014,1 dias,"Portugal, Lisboa, Lisboa","Artigo 20.º, n.º 1, alínea a) do Código dos Contratos Públicos",,,,,,Não aplicável.,Não aplicável.,FALSE
Aquisição de Ioxaglato Sol. Inj. 32% Frs 50 Ml,Ajuste Direto Regime Geral,Aquisição de bens móveis,"33690000-3, Medicamentos vários","Centro Hospitalar Lisboa Norte, E. P. E. (508481287)","A. Martins & Fernandes, SA (501172114)","6.375,00 €",21-02-2014,21-02-2014,1 dias,"Portugal, Lisboa, Lisboa","Artigo 24.º, n.º 1, alínea e) do Código dos Contratos Públicos",,,,,,Não aplicável.,Não aplicável.,FALSE
Aquisição de cola biologica com aplicador de 5 Ml,Ajuste Direto Regime Geral,Aquisição de bens móveis,"33190000-8, Dispositivos e produtos médicos variados","Centro Hospitalar Lisboa Norte, E. P. E. (508481287)","Lusopalex, Lda. (503531588)","7.650,00 €",20-02-2014,20-02-2014,1 dias,"Portugal, Lisboa, Lisboa","Artigo 20.º, n.º 1, alínea a) do Código dos Contratos Públicos",,,,,,Não aplicável.,Não aplicável.,FALSE
Aquisição de Dasatinib 140 Mg Comp,Ajuste Direto Regime Geral,Aquisição de bens móveis,"33690000-3, Medicamentos vários","Centro Hospitalar Lisboa Norte, E. P. E. (508481287)","Bristol Myers Squibb, SA (500048193)","9.354,72 €",20-02-2014,20-02-2014,1 dias,"Portugal, Lisboa, Lisboa","Artigo 24.º, n.º 1, alínea e) do Código dos Contratos Públicos",,,,,,Não aplicável.,Não aplicável.,FALSE
Aquisição de Lidocaina 2% Gel Bisn 30 G,Ajuste Direto Regime Geral,Aquisição de bens móveis,"33690000-3, Medicamentos vários","Centro Hospitalar Lisboa Norte, E. P. E. (508481287)","Sidefarma, SA (500717419)","2.160,00 €",20-02-2014,20-02-2014,1 dias,"Portugal, Lisboa, Lisboa","Artigo 20.º, n.º 1, alínea a) do Código dos Contratos Públicos",,,,,,Não aplicável.,Não aplicável.,FALSE
Aquisição de Cotrimoxazol Sol. Inj. 480 Mg Amp. 5 Ml,Ajuste Direto Regime Geral,Aquisição de bens móveis,"33690000-3, Medicamentos vários","Centro Hospitalar Lisboa Norte, E. P. E. (508481287)","Radiopharm, Lda. (502414910)","5.583,60 €",20-02-2014,20-02-2014,1 dias,"Portugal, Lisboa, Lisboa","Artigo 20.º, n.º 1, alínea a) do Código dos Contratos Públicos",,,,,,Não aplicável.,Não aplicável.,FALSE
Aquisição de Hilano GF-20 Seringa 6 Ml,Ajuste Direto Regime Geral,Aquisição de bens móveis,"33690000-3, Medicamentos vários","Centro Hospitalar Lisboa Norte, E. P. E. (508481287)","Sanofi, Lda. (500134960)","9.048,00 €",20-02-2014,20-02-2014,1 dias,"Portugal, Lisboa, Lisboa","Artigo 24.º, n.º 1, alínea e) do Código dos Contratos Públicos",,,,,,Não aplicável.,Não aplicável.,FALSE
Aquisição de Tamponamento Nasal Biodegradável Forte,Ajuste Direto Regime Geral,Aquisição de bens móveis,"33690000-3, Medicamentos vários","Centro Hospitalar Lisboa Norte, E. P. E. (508481287)","Atos Medical Spain, SL (980435978)","6.304,32 €",19-02-2014,19-02-2014,1 dias,"Portugal, Lisboa, Lisboa","Artigo 24.º, n.º 1, alínea e) do Código dos Contratos Públicos",,,,,,Não aplicável.,Não aplicável.,FALSE
Aquisição de Venlafaxina Caps AP 75 Mg,Ajuste Direto Regime Geral,Aquisição de bens móveis,"33690000-3, Medicamentos vários","Centro Hospitalar Lisboa Norte, E. P. E. (508481287)","Generis, SA (508107997)","28,98 €",19-02-2014,19-02-2014,1 dias,"Portugal, Lisboa, Lisboa","Artigo 20.º, n.º 1, alínea a) do Código dos Contratos Públicos",,,,,,Não aplicável.,Não aplicável.,FALSE
Aquisição de Perfluorodecalin Sol. Estéril Frs/Amp 5 M,Ajuste Direto Regime Geral,Aquisição de bens móveis,"33690000-3, Medicamentos vários","Centro Hospitalar Lisboa Norte, E. P. E. (508481287)","Oftaldata, Lda. (504887459)","5.800,00 €",19-02-2014,19-02-2014,1 dias,"Portugal, Lisboa, Lisboa","Artigo 24.º, n.º 1, alínea e) do Código dos Contratos Públicos",,,,,,Não aplicável.,Não aplicável.,FALSE
Aquisição de MAterial para Cirurgia Pediátrica,Ajuste Direto Regime Geral,Aquisição de bens móveis,"33141700-7, Material ortopédico","Centro Hospitalar Lisboa Norte, E. P. E. (508481287)","Johnson & Johnson, Lda. (500153370)","9.109,00 €",18-02-2014,18-02-2014,1 dias,"Portugal, Lisboa, Lisboa","Artigo 20.º, n.º 1, alínea a) do Código dos Contratos Públicos",,,,,,Não aplicável.,Não aplicável.,FALSE
Aquisição de Irinotecano Sol. Inj. 20 Mg/ML Amp. 15 Ml,Ajuste Direto Regime Geral,Aquisição de bens móveis,"33652000-5, Antineoplásicos e imunomoduladores","Centro Hospitalar Lisboa Norte, E. P. E. (508481287)",Fresenius Kabi Pharma Portugal (504293753),"5.937,00 €",18-02-2014,18-02-2014,1 dias,"Portugal, Lisboa, Lisboa","Artigo 20.º, n.º 1, alínea a) do Código dos Contratos Públicos",,,,,,Não aplicável.,Não aplicável.,FALSE
Aquisição de Diverso material para Cardiologia,Ajuste Direto Regime Geral,Aquisição de bens móveis,"33141200-2, Cateteres","Centro Hospitalar Lisboa Norte, E. P. E. (508481287)","St. Jude Medical, Lda. (504180746)","6.091,00 €",18-02-2014,18-02-2014,1 dias,"Portugal, Lisboa, Lisboa","Artigo 20.º, n.º 1, alínea a) do Código dos Contratos Públicos",,,,,,Não aplicável.,Não aplicável.,FALSE
Aquisição de Espironolactona Comp. 100 Mg,Ajuste Direto Regime Geral,Aquisição de bens móveis,"33622300-9, Diuréticos","Centro Hospitalar Lisboa Norte, E. P. E. (508481287)","Alter, SA (500017387)","156,75 €",18-02-2014,18-02-2014,1 dias,"Portugal, Lisboa, Lisboa","Artigo 20.º, n.º 1, alínea a) do Código dos Contratos Públicos",,,,,,Não aplicável.,Não aplicável.,FALSE
Reparação de 4 cortinados para o Serviço de Pneumologia,Ajuste Direto Regime Geral,Aquisição de serviços,"50000000-5, Serviços de reparação e manutenção","Centro Hospitalar Lisboa Norte, E. P. E. (508481287)","Vedolis, Lda. (501260170)","250,00 €",18-02-2014,18-02-2014,30 dias,"Portugal, Lisboa, Lisboa","Artigo 20.º, n.º 1, alínea a) do Código dos Contratos Públicos",,,,,,Não aplicável.,Não aplicável.,FALSE
Aquisição de jaeger Software,Ajuste Direto Regime Geral,Aquisição de bens móveis,"30210000-4, Máquinas de processamento de dados (hardware)","Centro Hospitalar Lisboa Norte, E. P. E. (508481287)","Pulmocor,SA (501402578)","9.200,00 €",18-02-2014,18-02-2014,30 dias,"Portugal, Lisboa, Lisboa","Artigo 20.º, n.º 1, alínea a) do Código dos Contratos Públicos",,,,,,Não aplicável.,Não aplicável.,FALSE
Aquisição de Helicobacter Pylori Teste Respiratório 50 T,Ajuste Direto Regime Geral,Aquisição de bens móveis,"33696500-0, Reagentes de laboratório","Centro Hospitalar Lisboa Norte, E. P. E. (508481287)","Queenlabs, Lda. (503984485)","8.592,00 €",17-02-2014,17-02-2014,1 dias,"Portugal, Lisboa, Lisboa","Artigo 24.º, n.º 1, alínea e) do Código dos Contratos Públicos",,,,,,Não aplicável.,Não aplicável.,FALSE
Aquisição de Vemutafenib 240 Mg Comp.,Ajuste Direto Regime Geral,Aquisição de bens móveis,"33690000-3, Medicamentos vários","Centro Hospitalar Lisboa Norte, E. P. E. (508481287)","Roche, Lda (500233810)","8.308,15 €",17-02-2014,17-02-2014,1 dias,"Portugal, Lisboa, Lisboa","Artigo 24.º, n.º 1, alínea e) do Código dos Contratos Públicos",,,,,,Não aplicável.,Não aplicável.,FALSE
Aquisição de Vancomicina Conj. DET,Ajuste Direto Regime Geral,Aquisição de bens móveis,"33696500-0, Reagentes de laboratório","Centro Hospitalar Lisboa Norte, E. P. E. (508481287)","Siemens Healthcare Diagnostics, Lda. (507925173)","6.048,00 €",17-02-2014,17-02-2014,1 dias,"Portugal, Lisboa, Lisboa","Artigo 24.º, n.º 1, alínea e) do Código dos Contratos Públicos",,,,,,Não aplicável.,Não aplicável.,FALSE
Aquisição de Ciclofosfamida Inj. 1 Gr.,Ajuste Direto Regime Geral,Aquisição de bens móveis,"33652000-5, Antineoplásicos e imunomoduladores","Centro Hospitalar Lisboa Norte, E. P. E. (508481287)","Baxter, Lda. (503347345)","6.885,00 €",14-02-2014,14-02-2014,1 dias,"Portugal, Lisboa, Lisboa","Artigo 24.º, n.º 1, alínea e) do Código dos Contratos Públicos",,,,,,Não aplicável.,Não aplicável.,FALSE
Aquisição de Consumíveis de Cardiologia,Ajuste Direto Regime Geral,Aquisição de bens móveis,"33141200-2, Cateteres","Centro Hospitalar Lisboa Norte, E. P. E. (508481287)","World Medica, SL (B82612599)","9.932,50 €",14-02-2014,14-02-2014,1 dias,"Portugal, Lisboa, Lisboa","Artigo 20.º, n.º 1, alínea a) do Código dos Contratos Públicos",,,,,,Não aplicável.,Não aplicável.,FALSE
Aquisição de Consumíveis de Cardiologia,Ajuste Direto Regime Geral,Aquisição de bens móveis,"33141200-2, Cateteres","Centro Hospitalar Lisboa Norte, E. P. E. (508481287)","Johnson & Johnson, Lda. (500153370)","7.500,00 €",14-02-2014,14-02-2014,1 dias,"Portugal, Lisboa, Lisboa","Artigo 20.º, n.º 1, alínea a) do Código dos Contratos Públicos",,,,,,Não aplicável.,Não aplicável.,FALSE
"Aquisição de Somatropina Sol. Inj. 10 Mg/1,5 Ml",Ajuste Direto Regime Geral,Aquisição de bens móveis,"33642100-3, Hormonas hipofisárias, hipotalâmicas e semelhantes","Centro Hospitalar Lisboa Norte, E. P. E. (508481287)","Novo Nordisk, Lda. (501485210)","7.671,60 €",14-02-2014,14-02-2014,1 dias,"Portugal, Lisboa, Lisboa","Artigo 24.º, n.º 1, alínea e) do Código dos Contratos Públicos",,,,,,Não aplicável.,Não aplicável.,FALSE
Ajuste Directo n.º 141G000391,Ajuste Direto Regime Geral,Aquisição de bens móveis,"33696500-0, Reagentes de laboratório","CENTRO HOSPITALAR LISBOA NORTE, EPE (508481287)","Izasa, Lda (501086110)","5.600,00 €",11-02-2014,11-02-2014,1 dias,"Portugal, Lisboa, Lisboa","Artigo 24.º, n.º 1, alínea e) do Código dos Contratos Públicos",,,,,,Não aplicável.,Não aplicável.,FALSE
"Aquisição de Iomeprol Sol. Inj. 714,4 MG/Ml Fr 200 Ml",Ajuste Direto Regime Geral,Aquisição de bens móveis,"33696800-3, Meios de contraste para raios X","CENTRO HOSPITALAR LISBOA NORTE, EPE (508481287)","Rovi, SA (980166705)","6.936,00 €",11-02-2014,11-02-2014,1 dias,"Portugal, Lisboa, Lisboa","Artigo 24.º, n.º 1, alínea e) do Código dos Contratos Públicos",,,,,,Não aplicável.,Não aplicável.,FALSE
Aquisição de mesna 400 Mg/4Ml Inj.,Ajuste Direto Regime Geral,Aquisição de bens móveis,"33690000-3, Medicamentos vários","CENTRO HOSPITALAR LISBOA NORTE, EPE (508481287)","Baxter, Lda. (503347345)","6.426,00 €",11-02-2014,11-02-2014,1 dias,"Portugal, Lisboa, Lisboa","Artigo 24.º, n.º 1, alínea e) do Código dos Contratos Públicos",,,,,,Não aplicável.,Não aplicável.,FALSE
"Fornecimento de equipamentos para adequação da infra-estrutura do Serviço ocupacional do Centro hospitalar Lisboa Norte, EPE",Ajuste Direto Regime Geral,Aquisição de bens móveis,"33100000-1, Equipamento médico","CENTRO HOSPITALAR LISBOA NORTE, EPE (508481287)","Isinet, Lda. (503255777)","8.284,31 €",11-02-2014,11-02-2014,30 dias,"Portugal, Lisboa, Lisboa","Artigo 20.º, n.º 1, alínea a) do Código dos Contratos Públicos",,,,,,Não aplicável.,Não aplicável.,FALSE
Aquisição de Esfincterometro,Ajuste Direto Regime Geral,Aquisição de bens móveis,"33140000-3, Material médico de consumo","Centro Hospitalar Lisboa Norte, E. P. E. (508481287)","Alves & CA (irmãos)., Lda. (500310068)","6.000,00 €",11-02-2014,11-02-2014,1 dias,"Portugal, Lisboa, Lisboa","Artigo 20.º, n.º 1, alínea a) do Código dos Contratos Públicos",,,,,,Não aplicável.,Não aplicável.,FALSE
Aquisição de Cadeiras de Rodas de Banho,Ajuste Direto Regime Geral,Aquisição de bens móveis,"33193120-6, Cadeiras de rodas","Centro Hospitalar Lisboa Norte, E. P. E. (508481287)","Duekipa, Lda. (508690102)","360,00 €",11-02-2014,11-02-2014,30 dias,"Portugal, Lisboa, Lisboa","Artigo 20.º, n.º 1, alínea a) do Código dos Contratos Públicos",,,,,,Não aplicável.,Não aplicável.,FALSE
"Prestação de serviços no âmbito da disponibilização e Utilização da Platafoma Electtronica de contratação publica para o Centro Hospitalar Lisboa Norte, EPE",Ajuste Direto Regime Geral,Aquisição de serviços,"79970000-4, Serviços de publicação","Centro Hospitalar Lisboa Norte, E. P. E. (508481287)","Saphety Level, SA (507957547)","7.000,00 €",11-02-2014,11-02-2014,365 dias,"Portugal, Lisboa, Lisboa","Artigo 20.º, n.º 1, alínea a) do Código dos Contratos Públicos",,,,,,Não aplicável.,Não aplicável.,FALSE
