Objeto do Contrato,Tipo de Procedimento,Tipo(s) de Contrato,CPVs,Entidade(s) Adjudicante(s),Entidade(s) Adjudicatária(s),Preço Contratual,Data de Publicação,Data de Celebração do Contrato,Prazo de Execução,Local de Execução,Fundamentação,Data de Fecho do Contrato,Preço Total Efetivo,Causas das Alterações ao Prazo,Causas das Alterações ao Preço,Estado,N.º registo do Acordo Quadro,Descrição do Acordo Quadro,Procedimento Centralizado
Aquisição de serviços de manutenção e assistência técnica para o equipamento SOMATOM Emotion 16 (TAC),Ajuste Direto Regime Geral,Aquisição de serviços,"50421000-2, Serviços de reparação e manutenção de equipamento médico","Centro Hospitalar do Médio Ave, E. P. E. (508093937)",SIEMENS HEALTHCARE LDA (507925173),"22.682,00 €",06-04-2018,05-01-2018,365 dias,"Portugal, Braga, Vila Nova de Famalicão","Artigo 20.º, n.º 1, alínea a) do Código dos Contratos Públicos",,,,,,Não aplicável.,Não aplicável.,FALSE
Aquisição de serviços de assistência técnica ao equipamento de imagiologia Essenta DR,Ajuste Direto Regime Geral,Aquisição de serviços,"50421000-2, Serviços de reparação e manutenção de equipamento médico","Centro Hospitalar do Médio Ave, E. P. E. (508093937)",PHILIPS PORTUGUESA S A (500216843),"11.208,00 €",05-04-2018,23-01-2018,365 dias,"Portugal, Braga, Vila Nova de Famalicão","Artigo 20.º, n.º 1, alínea a) do Código dos Contratos Públicos",,,,,,Não aplicável.,Não aplicável.,FALSE
