Objeto do Contrato,Tipo de Procedimento,Tipo(s) de Contrato,CPVs,Entidade(s) Adjudicante(s),Entidade(s) Adjudicatária(s),Preço Contratual,Data de Publicação,Data de Celebração do Contrato,Prazo de Execução,Local de Execução,Fundamentação,Data de Fecho do Contrato,Preço Total Efetivo,Causas das Alterações ao Prazo,Causas das Alterações ao Preço,Estado,N.º registo do Acordo Quadro,Descrição do Acordo Quadro,Procedimento Centralizado
"Aquisição de dois stents intracranianos com """"flow diverter""""",Ajuste Direto Regime Geral,Aquisição de bens móveis,"33140000-3, Material médico de consumo","Centro Hospitalar de Lisboa Ocidental, EPE (CHLO) (507618319)",Biomédica (501745459),"19.000,00 €",30-05-2017,05-07-2016,10 dias,"Portugal, Lisboa, Lisboa","Artigo 24.º, n.º 1, alínea e) do Código dos Contratos Públicos",,,,,,Não aplicável.,Não aplicável.,FALSE
Aquisição de Serviços de Manutenção Corretiva e Evolutiva da solução HCIS do ano de 2017,Ajuste Direto Regime Geral,Aquisição de serviços,"50000000-5, Serviços de reparação e manutenção","Centro Hospitalar de Lisboa Ocidental, E. P. E. (507618319)",Eit Services Co Portugal Lda (501570691),"98.646,05 €",29-05-2017,03-04-2017,365 dias,"Portugal, Lisboa, Lisboa","Artigo 24.º, n.º 1, alínea e) do Código dos Contratos Públicos",,,,,,Não aplicável.,Não aplicável.,FALSE
"Aquisição de serviços de tratamento de residuos hospitalares no CHLO, nos meses de março a abril de 2017",Ajuste Direto Regime Geral,Aquisição de serviços,"90524400-0, Recolha, transporte e eliminação de resíduos hospitalares","Centro Hospitalar de Lisboa Ocidental, EPE (CHLO) (507618319)",Such (500900469),"103.467,38 €",29-05-2017,27-04-2017,61 dias,"Portugal, Lisboa, Lisboa","Artigo 27.º, n.º 1, alínea a) do Código dos Contratos Públicos",,,,,,Não aplicável.,Não aplicável.,FALSE
"Aquisição de serviços de assistência técnica aos equipamentos não médicos, sem peças, nos meses de março a abril de 2017",Ajuste Direto Regime Geral,Aquisição de serviços,"50400000-9, Serviços de reparação e manutenção de equipamento médico e de precisão","Centro Hospitalar de Lisboa Ocidental, EPE (CHLO) (507618319)",Such (500900469),"88.324,00 €",29-05-2017,27-04-2017,61 dias,"Portugal, Lisboa, Lisboa","Artigo 27.º, n.º 1, alínea a) do Código dos Contratos Públicos",,,,,,Não aplicável.,Não aplicável.,FALSE
Aquisição de prolongadores para o CHLO,Ajuste Direto Regime Geral,Aquisição de bens móveis,"33140000-3, Material médico de consumo","Centro Hospitalar de Lisboa Ocidental, EPE (CHLO) (507618319)","PMH PRODUTOS MEDIC. HOSPITAL, SA (502376899)","14.675,25 €",26-05-2017,22-05-2017,365 dias,"Portugal, Lisboa, Lisboa","Artigo 20.º, n.º 1, alínea a) do Código dos Contratos Públicos",,,,,,Não aplicável.,Não aplicável.,FALSE
Aquisição de assistência Ventricular,Ajuste Direto Regime Geral,Aquisição de bens móveis,"33140000-3, Material médico de consumo","Centro Hospitalar de Lisboa Ocidental, EPE (CHLO) (507618319)","Schnell Medical, S.A. (513919147)","19.992,00 €",22-05-2017,08-05-2017,365 dias,"Portugal, Lisboa, Lisboa","Artigo 20.º, n.º 1, alínea a) do Código dos Contratos Públicos",,,,,,Não aplicável.,Não aplicável.,FALSE
Aquisição de Cardioversores Desfibrilhadores Implantáveis para o CHLO,Ajuste Direto Regime Geral,Aquisição de bens móveis,"33140000-3, Material médico de consumo","Centro Hospitalar de Lisboa Ocidental, EPE (CHLO) (507618319)",ST. JUDE MEDICAL PORTUGAL (504180746),"30.600,00 €",22-05-2017,03-05-2017,365 dias,"Portugal, Lisboa, Lisboa","Artigo 20.º, n.º 1, alínea a) do Código dos Contratos Públicos",,,,,,Não aplicável.,Não aplicável.,FALSE
Aquisição de Stent's para o CHLO,Ajuste Direto Regime Geral,Aquisição de bens móveis,"33140000-3, Material médico de consumo","Centro Hospitalar de Lisboa Ocidental, EPE (CHLO) (507618319)","B. Braun Medical, Lda (501506543)","9.400,00 €",22-05-2017,02-05-2017,365 dias,"Portugal, Lisboa, Lisboa","Artigo 20.º, n.º 1, alínea a) do Código dos Contratos Públicos",,,,,,Não aplicável.,Não aplicável.,FALSE
Aquisição de Stent's para o CHLO,Ajuste Direto Regime Geral,Aquisição de bens móveis,"33140000-3, Material médico de consumo","Centro Hospitalar de Lisboa Ocidental, EPE (CHLO) (507618319)","ABBOTT LABORATORIOS, LDA (500006148)","23.960,00 €",22-05-2017,02-05-2017,365 dias,"Portugal, Lisboa, Lisboa","Artigo 20.º, n.º 1, alínea a) do Código dos Contratos Públicos",,,,,,Não aplicável.,Não aplicável.,FALSE
Aquisição de Pacemaker's para o CHLO,Ajuste Direto Regime Geral,Aquisição de bens móveis,"33140000-3, Material médico de consumo","Centro Hospitalar de Lisboa Ocidental, EPE (CHLO) (507618319)",ST. JUDE MEDICAL PORTUGAL (504180746),"5.935,00 €",22-05-2017,03-05-2017,365 dias,"Portugal, Lisboa, Lisboa","Artigo 20.º, n.º 1, alínea a) do Código dos Contratos Públicos",,,,,,Não aplicável.,Não aplicável.,FALSE
Aquisição de Sistemas de Pacemaker para o CHLO,Ajuste Direto Regime Geral,Aquisição de bens móveis,"33140000-3, Material médico de consumo","Centro Hospitalar de Lisboa Ocidental, EPE (CHLO) (507618319)","MEDTRONIC PORTUGAL, LDA (504223933)","56.525,00 €",22-05-2017,28-04-2017,365 dias,"Portugal, Lisboa, Lisboa","Artigo 20.º, n.º 1, alínea a) do Código dos Contratos Públicos",,,,,,Não aplicável.,Não aplicável.,FALSE
