Objeto do Contrato,Tipo de Procedimento,Tipo(s) de Contrato,CPVs,Entidade(s) Adjudicante(s),Entidade(s) Adjudicatária(s),Preço Contratual,Data de Publicação,Data de Celebração do Contrato,Prazo de Execução,Local de Execução,Fundamentação,Data de Fecho do Contrato,Preço Total Efetivo,Causas das Alterações ao Prazo,Causas das Alterações ao Preço,Estado,N.º registo do Acordo Quadro,Descrição do Acordo Quadro,Procedimento Centralizado
"FI0416/2016 - HIDROMORFONA 16 MG COMP LP,HIDROMORFONA 4 MG COMP LP",Ao abrigo de acordo-quadro (art.º 259.º),Aquisição de bens móveis,"33600000-6, Produtos farmacêuticos","Centro Hospitalar Barreiro Montijo, E. P. E. (509186998)","JANSSEN CILAG FARMACEUTICA, LD (500189412)","133,30 €",29-12-2016,21-11-2016,20 dias,"Portugal, Setúbal, Barreiro",Artigo 259.º do Código dos Contratos Públicos,30-11-2016,"133,30 €",,"",,461370,"CP 2012/44 - MEDICAMENTOS ANALGÉSICOS, ANTIPIRÉTICOS E ANTIDEPRESSIVOS",FALSE
FI0412/2016 - ARIPIPRAZOL 15 MG COMP,Ao abrigo de acordo-quadro (art.º 259.º),Aquisição de bens móveis,"33600000-6, Produtos farmacêuticos","Centro Hospitalar Barreiro Montijo, E. P. E. (509186998)","LUNDBECK PORTUGAL - PRODUTOS FARMACÊUTICOS, LDA. (503573922)","441,44 €",29-12-2016,21-11-2016,20 dias,"Portugal, Setúbal, Barreiro",Artigo 259.º do Código dos Contratos Públicos,24-11-2016,"441,44 €",,"",,389354,CONCURSO PÚBLICO PARA A CELEBRAÇÃO DE CONTRATOS PÚBLICOS DE APROVISIONAMENTO PARA AQUISIÇÃO MEDICAMENTOS ANTI-PSICÓTICOS,FALSE
FI0414/2016 - RANITIDINA 150 MG COMP,Ao abrigo de acordo-quadro (art.º 259.º),Aquisição de bens móveis,"33600000-6, Produtos farmacêuticos","Centro Hospitalar Barreiro Montijo, E. P. E. (509186998)","SANDOZ FARMACEUTICA, LDA (506985261)","55,92 €",29-12-2016,17-11-2016,20 dias,"Portugal, Setúbal, Barreiro",Artigo 259.º do Código dos Contratos Públicos,22-11-2016,"55,92 €",,"",,520788,CONCURSO PUBLICO PARA A CELEBRAÇÃO DE CONTRATOS PUBLICOS DE APROVISIONAMENTO PARA A AREA DA SAUDE  COM VISTA AO FORNECIMENTO DE MEDICAMENTOS PARA O APARELHO DIGESTIVO  AS INSITUIÇÕES DO SERVIÇO NACIONAL DE SAÚDE,FALSE
FEXC0186/2016 - NIVOLUMAB 40MG (10MG/ML FR 4ML) SOL INJ,Ajuste Direto Regime Geral,Aquisição de bens móveis,"33600000-6, Produtos farmacêuticos","Centro Hospitalar Barreiro Montijo, E. P. E. (509186998)",BRISTOL MYERS SQUIBB-FARM. POR (500048193),"570,00 €",29-12-2016,21-11-2016,20 dias,"Portugal, Setúbal, Barreiro","Artigo 24.º, n.º 1, alínea e) do Código dos Contratos Públicos",24-11-2016,"570,00 €",,"",,Não aplicável.,Não aplicável.,FALSE
FIEX0071/2016 - DESFERRASIROX 125 MG,Ao abrigo de acordo-quadro (art.º 258.º),Aquisição de bens móveis,"33600000-6, Produtos farmacêuticos","Centro Hospitalar Barreiro Montijo, E. P. E. (509186998)",NOVARTIS FARMACEUTICA (500063524),"149,24 €",29-12-2016,24-11-2016,20 dias,"Portugal, Setúbal, Barreiro",Artigo 258.º do Código dos Contratos Públicos,28-11-2016,"149,24 €",,"",,602067,"ONCURSO PÚBLICO PARA A CELEBRAÇÃO DE CONTRATOS PÚBLICOS DE APROVISIONAMENTO PARA A ÁREA DA SAÚDE, COM VISTA AO FORNECIMENTO DE MEDICAMENTOS DE CONSUMO GERAL - MEDICAÇÃO ANTIALÉRGICA, MEDICAMENTOS USADOS NO TRATAMENTO DE INTOXICAÇÕES, VITAMINAS E SAIS MINERAIS  E GRUPO 20.9 - OUTROS PRODUTOS, ÀS INSTITUIÇÕES E SERVIÇOS DO SERVIÇO NACIONAL DE SAÚDE",FALSE
FI0418/2016 - VALPROATO DE SODIO 300 MG (100 MG/ML FRS/AMP 3 ML) SOL INJ,Ao abrigo de acordo-quadro (art.º 259.º),Aquisição de bens móveis,"33600000-6, Produtos farmacêuticos","Centro Hospitalar Barreiro Montijo, E. P. E. (509186998)","TECNIFAR - IND TECN FARMAC, SA (500280436)","996,00 €",29-12-2016,25-11-2016,20 dias,"Portugal, Setúbal, Barreiro",Artigo 259.º do Código dos Contratos Públicos,29-11-2016,"996,00 €",,"",,463786,"P 2012/2 - Medicamentos do Sistema Nervoso Cerebrospinal: exceto anestésicos, relaxantes musculares, analgésicos, antipiréticos, antidepressores e anti-psicóticos",FALSE
FEXC0188/2016 - NIVOLUMAB 40MG (10MG/ML FR 4ML) SOL INJ,Ajuste Direto Regime Geral,Aquisição de bens móveis,"33600000-6, Produtos farmacêuticos","Centro Hospitalar Barreiro Montijo, E. P. E. (509186998)",BRISTOL MYERS SQUIBB-FARM. POR (500048193),"2.850,00 €",29-12-2016,25-11-2016,20 dias,"Portugal, Setúbal, Barreiro","Artigo 24.º, n.º 1, alínea e) do Código dos Contratos Públicos",29-11-2016,"2.850,00 €",,"",,Não aplicável.,Não aplicável.,FALSE
FEXC0187/2016 - VINFLUNINA 250 MG (25 MG/ML SOL INJ FRS 10 ML) SOL INJ,Ajuste Direto Regime Geral,Aquisição de bens móveis,"33600000-6, Produtos farmacêuticos","Centro Hospitalar Barreiro Montijo, E. P. E. (509186998)","PIERRE FABRE MEDICAMENT PORT,L (500230366)","7.050,00 €",29-12-2016,28-12-2016,20 dias,"Portugal, Setúbal, Barreiro","Artigo 24.º, n.º 1, alínea e) do Código dos Contratos Públicos",29-12-2016,"7.050,00 €",,"",,Não aplicável.,Não aplicável.,FALSE
FEXC0191/2016 - DEXMEDETOMIDINA 200 MCG (100MCG/ML AMP 2ML) SOL INJ,Ajuste Direto Regime Geral,Aquisição de bens móveis,"33600000-6, Produtos farmacêuticos","Centro Hospitalar Barreiro Montijo, E. P. E. (509186998)","ORIONFIN UNIPESSOAL, LDA (508907365)","900,00 €",29-12-2016,09-12-2016,20 dias,"Portugal, Setúbal, Barreiro","Artigo 24.º, n.º 1, alínea e) do Código dos Contratos Públicos",14-12-2016,"900,00 €",,"",,Não aplicável.,Não aplicável.,FALSE
F40029/2016 - ALBUMINA HUMANA 10 GR (200 MG/ML FRS 50 ML) SOL INJ,Ajuste Direto Regime Geral,Aquisição de bens móveis,"33600000-6, Produtos farmacêuticos","Centro Hospitalar Barreiro Montijo, E. P. E. (509186998)","GRIFOLS PORTUGAL - PROD. FARMAC. E HOSP., LDA. (502041285)","6.555,00 €",29-12-2016,05-12-2016,20 dias,"Portugal, Setúbal, Barreiro","Artigo 24.º, n.º 1, alínea a) do Código dos Contratos Públicos",06-12-2016,"6.555,00 €",,"",,Não aplicável.,Não aplicável.,FALSE
FIEX0070/2016 - GLATIRAMERO ACETATO 40 MG (40 MG/ML SER PRÉ-CHEIA 1 ML) SOL INJ,Ao abrigo de acordo-quadro (art.º 258.º),Aquisição de bens móveis,"33600000-6, Produtos farmacêuticos","Centro Hospitalar Barreiro Montijo, E. P. E. (509186998)","TEVA-PHARMA - PRODUTOS FARMACÊUTICOS, LDA. (507045491)","12.488,58 €",29-12-2016,21-11-2016,20 dias,"Portugal, Setúbal, Barreiro",Artigo 258.º do Código dos Contratos Públicos,09-12-2016,"12.488,58 €",,"",,383205,CONCURSO PÚBLICO PARA A CELEBRAÇÃO DE CONTRATOS PÚBLICOS DE APROVISIONAMENTO PARA AQUISIÇÃO MEDICAMENTOS DO FORO ONCOLÓGICO II,FALSE
"FEXC0194/2016 - DASABUVIR 250 MG COMP REVES,OMBITASVIR 12,5 MG + PARITAPREVIR 75 MG + RITONAVIR 50 MG COMP REVES",Ajuste Direto Regime Geral,Aquisição de bens móveis,"33600000-6, Produtos farmacêuticos","Centro Hospitalar Barreiro Montijo, E. P. E. (509186998)","AbbVie, LDA (510229050)","16.064,01 €",29-12-2016,20-12-2016,20 dias,"Portugal, Setúbal, Barreiro","Artigo 24.º, n.º 1, alínea e) do Código dos Contratos Públicos",22-12-2016,"16.064,01 €",,"",,Não aplicável.,Não aplicável.,FALSE
FEXC0102/2016 - CLORO-HEXIDINA COLUTÓRIO 2MG/ML,Ajuste Direto Regime Geral,Aquisição de bens móveis,"33600000-6, Produtos farmacêuticos","Centro Hospitalar Barreiro Montijo, E. P. E. (509186998)",GLAXOSMITHKLINE CONSUMER HEALTHCARE (500276994),"825,00 €",29-12-2016,04-02-2016,20 dias,"Portugal, Setúbal, Barreiro","Artigo 24.º, n.º 1, alínea e) do Código dos Contratos Públicos",11-02-2016,"825,00 €",,"",,Não aplicável.,Não aplicável.,FALSE
"FEXC0193/2016 - SOFOSBUVIR 400 MG COMP REVES,LEDIPASVIR 90MG + SOFOSBUVIR 400MG COMP",Ajuste Direto Regime Geral,Aquisição de bens móveis,"33600000-6, Produtos farmacêuticos","Centro Hospitalar Barreiro Montijo, E. P. E. (509186998)","GILEAD SCIENCES, LDA (503604704)","174.697,32 €",29-12-2016,16-12-2016,20 dias,"Portugal, Setúbal, Barreiro","Artigo 24.º, n.º 1, alínea e) do Código dos Contratos Públicos",27-12-2016,"174.697,32 €",,"",,Não aplicável.,Não aplicável.,FALSE
FIEX0072/2016 - VORICONAZOL 200 MG CAPS,Ao abrigo de acordo-quadro (art.º 258.º),Aquisição de bens móveis,"33600000-6, Produtos farmacêuticos","Centro Hospitalar Barreiro Montijo, E. P. E. (509186998)","LABORATORIOS PFIZER, S.A. (500162166)","3.647,92 €",29-12-2016,30-11-2016,20 dias,"Portugal, Setúbal, Barreiro",Artigo 258.º do Código dos Contratos Públicos,02-12-2016,"3.647,92 €",,"",,455180,"CONCURSO PÚBLICO PARA A CELEBRAÇÃO DE CONTRATOS PÚBLICOS DE APROVISIONAMENTO PARA A ÁREA DA SAÚDE, COM VISTA AO FORNECIMENTO DE MEDICAMENTOS ANTI-INFECIOSOS: ANTIVÍRICOS E ANTIFÚNGICOS, ÀS INSTITUIÇÕES E SERVIÇOS DO SERVIÇO NACIONAL DE SAÚDE  ",FALSE
"FEXC0192/2016 - SOFOSBUVIR 400 MG COMP REVES,LEDIPASVIR 90MG + SOFOSBUVIR 400MG COMP",Ajuste Direto Regime Geral,Aquisição de bens móveis,"33600000-6, Produtos farmacêuticos","Centro Hospitalar Barreiro Montijo, E. P. E. (509186998)","GILEAD SCIENCES, LDA. (503604704)","631.516,62 €",29-12-2016,22-12-2016,20 dias,"Portugal, Setúbal, Barreiro","Artigo 24.º, n.º 1, alínea e) do Código dos Contratos Públicos",28-12-2016,"631.516,62 €",,"",,Não aplicável.,Não aplicável.,FALSE
4IEX0006/2016 Consumíveis para Bomba de Perfusão,Ao abrigo de acordo-quadro (art.º 258.º),Aquisição de bens móveis,"33000000-0, Equipamento médico, medicamentos e produtos para cuidados pessoais","Centro Hospitalar Barreiro Montijo, E. P. E. (509186998)","Roche S. Diagnóstico, Lda (504282921)","11.250,00 €",27-12-2016,12-09-2016,365 dias,"Portugal, Setúbal, Barreiro","Artigo 20.º, n.º 1, alínea a) do Código dos Contratos Públicos",01-11-2016,"11.250,00 €",,"",,1442148,ACORDO QUADRO PARA FORNECIMENTO DE BOMBAS DE PERFUSÃO SUBCUTANEA CONTINUA DE INSULINA E RESPETIVOS CONSUMÍVEIS ÀS INSTITUIÇÕES E SERVIÇOS DO SERVIÇO NACIONAL DE SAÚDE. CP 2015/29,FALSE
4S0106/2016 SERV. MÉD. ORTOPEDIA - DR. FRANCISCO CAEIRO,Ajuste Direto Regime Geral,Aquisição de serviços,"79625000-1, Serviços de fornecimento de pessoal médico","Centro Hospitalar Barreiro Montijo, E. P. E. (509186998)","FRANCISCO CAEIRO - SERVIÇOS MÉDICOS, UNIPESSOAL, LDA. (507413210)","1.400,00 €",23-12-2016,12-12-2016,30 dias,"Portugal, Setúbal, Barreiro","Artigo 20.º, n.º 1, alínea a) do Código dos Contratos Públicos",31-12-2016,"3.780,00 €",,Consumo efetivo superior ao inicialmente estimado,,Não aplicável.,Não aplicável.,FALSE
4S0105/2016 SERV. MÉD. OBSTETRICIA - DRA.  MARGARIDA ENES,Ajuste Direto Regime Geral,Aquisição de serviços,"79625000-1, Serviços de fornecimento de pessoal médico","Centro Hospitalar Barreiro Montijo, E. P. E. (509186998)","MARGARIDA ENES - SERVIÇOS MÉDICOS, UNIPESSOAL, LDA. (514071117)","2.880,00 €",23-12-2016,05-12-2016,30 dias,"Portugal, Setúbal, Barreiro","Artigo 20.º, n.º 1, alínea a) do Código dos Contratos Públicos",31-12-2016,"2.880,00 €",,"",,Não aplicável.,Não aplicável.,FALSE
40086/2016 APARELHO FOTOTERAPIA,Ajuste Direto Regime Geral,Aquisição de bens móveis,"33000000-0, Equipamento médico, medicamentos e produtos para cuidados pessoais","Centro Hospitalar Barreiro Montijo, E. P. E. (509186998)","SANO-TECNICA, LDA (500239819)","4.990,00 €",22-12-2016,22-12-2016,60 dias,"Portugal, Setúbal, Barreiro","Artigo 20.º, n.º 1, alínea a) do Código dos Contratos Públicos",22-12-2016,"4.990,00 €",,"",,Não aplicável.,Não aplicável.,FALSE
