Objeto do Contrato,Tipo de Procedimento,Tipo(s) de Contrato,CPVs,Entidade(s) Adjudicante(s),Entidade(s) Adjudicatária(s),Preço Contratual,Data de Publicação,Data de Celebração do Contrato,Prazo de Execução,Local de Execução,Fundamentação,Data de Fecho do Contrato,Preço Total Efetivo,Causas das Alterações ao Prazo,Causas das Alterações ao Preço,Estado,N.º registo do Acordo Quadro,Descrição do Acordo Quadro,Procedimento Centralizado
Aquisição de Luvas de exame em nitrilo,Ajuste Direto Regime Geral,Aquisição de bens móveis,"18424300-0, Luvas descartáveis","Centro Hospitalar Lisboa Norte, EPE (508481287)","Medicinália Cormédica, Lda. (500684324)","41.250,00 €",10-05-2013,10-05-2013,1 dias,"Portugal, Lisboa, Lisboa","Artigo 20.º, n.º 1, alínea a) do Código dos Contratos Públicos",,,,,,Não aplicável.,Não aplicável.,
Empreitada para execução da obra de um corredor prioritário entre o heliporto e a urgência central do CHLN - HSM.,Ajuste Direto Regime Geral,Empreitadas de obras públicas,"45233200-1, Obras diversas de pavimentação","Centro Hospitalar Lisboa Norte, EPE (508481287)","Fernando L. Gaspar, S.A. (502042044)","7.366,38 €",09-05-2013,09-05-2013,2 dias,"Portugal, Lisboa, Lisboa","Artigo 19.º, alínea a) do Código dos Contratos Públicos",,,,,,Não aplicável.,Não aplicável.,
"   Assistência Técnica ao equipamento de branquiterapia, representado pela empresa Nucletron.",Ajuste Direto Regime Geral,Aquisição de serviços,"71356200-0, Serviços de assistência técnica","Centro Hospitalar Lisboa Norte, EPE (508481287)","Elekta Medical, SA. (A81886731)","100.440,00 €",09-05-2013,04-04-2013,365 dias,"Portugal, Lisboa, Lisboa","Artigo 24.º, n.º 1, alínea e) do Código dos Contratos Públicos",,,,,,Não aplicável.,Não aplicável.,
"   Aquisição de Plerixafor inj. 20 mg/ml amp. 1,2 ml.",Ajuste Direto Regime Geral,Aquisição de bens móveis,"33621300-2, Antianémicos","Centro Hospitalar Lisboa Norte, EPE (508481287)","Sanofi - Produtos Farmacêuticos, Lda. (500134960)","135.561,36 €",09-05-2013,03-05-2013,1 dias,"Portugal, Lisboa, Lisboa","Artigo 24.º, n.º 1, alínea e) do Código dos Contratos Públicos",,,,,,Não aplicável.,Não aplicável.,
Aquisição de Hibridação DN4 lâminas 24 amostras,Ajuste Direto Regime Geral,Aquisição de bens móveis,"33696500-0, Reagentes de laboratório","Centro Hospitalar Lisboa Norte, EPE (508481287)","I.L.C. Instrumentos de Laboratório e Cientificos, Lda. (500948208)","16.744,00 €",09-05-2013,02-05-2013,3 dias,"Portugal, Lisboa, Lisboa","Artigo 24.º, n.º 1, alínea e) do Código dos Contratos Públicos",,,,,,Não aplicável.,Não aplicável.,
"   Prestação de Serviços de alimentação a doentes e colaboradores do CHLN, EPE""""",Ajuste Direto Regime Geral,Aquisição de serviços,"55520000-1, Serviços de fornecimento de refeições (catering)","Centro Hospitalar Lisboa Norte, EPE (508481287)","Eurest, Lda. (500347506)","1.380.000,00 €",09-05-2013,24-04-2013,120 dias,"Portugal, Lisboa, Lisboa","Artigo 27.º, n.º 1, alínea a) do Código dos Contratos Públicos",,,,,,Não aplicável.,Não aplicável.,
Aquisição de Aztreonam 75 mg. solução p/ inalação por,Ajuste Direto Regime Geral,Aquisição de bens móveis,"33651100-9, Antibacterianos de uso sistémico","Centro Hospitalar Lisboa Norte, EPE (508481287)","Gilead Sciences, Lda. (503604704)","40.543,20 €",09-05-2013,09-05-2013,2 dias,"Portugal, Lisboa, Lisboa","Artigo 24.º, n.º 1, alínea e) do Código dos Contratos Públicos",,,,,,Não aplicável.,Não aplicável.,
"   Reparação do Edíficio das Consultas do Ambulatório no CHLN, EPE  (devido ao mau tempo).",Ajuste Direto Regime Geral,Aquisição de serviços,"50000000-5, Serviços de reparação e manutenção","Centro Hospitalar Lisboa Norte, EPE (508481287)","CCivil, Construção Civil, Lda. (502207337)","6.132,48 €",09-05-2013,09-05-2013,5 dias,"Portugal, Lisboa, Lisboa","Artigo 20.º, n.º 1, alínea a) do Código dos Contratos Públicos",,,,,,Não aplicável.,Não aplicável.,
Aquisição de Factor VII recombinante,Ajuste Direto Regime Geral,Aquisição de bens móveis,"33621200-1, Anti-hemorrágicos","Centro Hospitalar Lisboa Norte, EPE (508481287)","Novo Nordisk, Lda. (501485210)","49.650,00 €",09-05-2013,09-05-2013,1 dias,"Portugal, Lisboa, Lisboa","Artigo 24.º, n.º 1, alínea e) do Código dos Contratos Públicos",,,,,,Não aplicável.,Não aplicável.,
Aquisição de Bosentan comp. 125 mg.,Ajuste Direto Regime Geral,Aquisição de bens móveis,"33622200-8, Anti-hipertensores","Centro Hospitalar Lisboa Norte, EPE (508481287)","Actelion Portugal, Lda. (507336488)","217.294,00 €",09-05-2013,09-05-2013,1 dias,"Portugal, Lisboa, Lisboa","Artigo 24.º, n.º 1, alínea e) do Código dos Contratos Públicos",,,,,,Não aplicável.,Não aplicável.,
Aquisição de Treprostinil 20 mg/20 ml inj.,Ajuste Direto Regime Geral,Aquisição de bens móveis,"33622000-6, Medicamentos para o aparelho cardiovascular","Centro Hospitalar Lisboa Norte, EPE (508481287)","DLA Farmacêutica, S.A. (503894427)","23.200,83 €",08-05-2013,24-04-2013,1 dias,"Portugal, Lisboa, Lisboa","Artigo 24.º, n.º 1, alínea e) do Código dos Contratos Públicos",,,,,,Não aplicável.,Não aplicável.,
Aquisição de Bisoprolol comp. 5 mg.,Ajuste Direto Regime Geral,Aquisição de bens móveis,"33622200-8, Anti-hipertensores","Centro Hospitalar Lisboa Norte, EPE (508481287)","Generis Farmacêutica, S.A. (508107997)","83,72 €",08-05-2013,08-05-2013,1 dias,"Portugal, Lisboa, Lisboa","Artigo 20.º, n.º 1, alínea a) do Código dos Contratos Públicos",,,,,,Não aplicável.,Não aplicável.,
Aquisição de Factor VIII 1000 UI + Factor Von Willebr,Ajuste Direto Regime Geral,Aquisição de bens móveis,"33621200-1, Anti-hemorrágicos","Centro Hospitalar Lisboa Norte, EPE (508481287)","Octapharma, Lda. (502820780)","36.000,00 €",08-05-2013,03-05-2013,2 dias,"Portugal, Lisboa, Lisboa","Artigo 24.º, n.º 1, alínea e) do Código dos Contratos Públicos",,,,,,Não aplicável.,Não aplicável.,
Aquisição de Tretinoina caps. 10 mg.,Ajuste Direto Regime Geral,Aquisição de bens móveis,"33652000-5, Antineoplásicos e imunomoduladores","Centro Hospitalar Lisboa Norte, EPE (508481287)","Roche Farmacêutica Química, Lda. (500233810)","6.610,08 €",08-05-2013,08-05-2013,1 dias,"Portugal, Lisboa, Lisboa","Artigo 24.º, n.º 1, alínea e) do Código dos Contratos Públicos",,,,,,Não aplicável.,Não aplicável.,
Aquisição de Amlodipina comp. 5 mg.,Ajuste Direto Regime Geral,Aquisição de bens móveis,"33622200-8, Anti-hipertensores","Centro Hospitalar Lisboa Norte, EPE (508481287)","Generis Farmacêutica, S.A. (508107997)","218,40 €",08-05-2013,08-05-2013,1 dias,"Portugal, Lisboa, Lisboa","Artigo 20.º, n.º 1, alínea a) do Código dos Contratos Públicos",,,,,,Não aplicável.,Não aplicável.,
Aquisição de Dispensadora de senhas,Ajuste Direto Regime Geral,Aquisição de bens móveis,"30210000-4, Máquinas de processamento de dados (hardware)","Centro Hospitalar Lisboa Norte, EPE (508481287)","NewVision, S.A. (504983474)","5.807,54 €",08-05-2013,08-05-2013,15 dias,"Portugal, Lisboa, Lisboa","Artigo 20.º, n.º 1, alínea a) do Código dos Contratos Públicos",,,,,,Não aplicável.,Não aplicável.,
Aquisição de Darbepoetina Alfa inj. 100 MCG e 80 MCG,Ajuste Direto Regime Geral,Aquisição de bens móveis,"33621300-2, Antianémicos","Centro Hospitalar Lisboa Norte, EPE (508481287)","Amgen Bio Farmacêutica, Lda. (502942959)","58.752,00 €",08-05-2013,08-05-2013,2 dias,"Portugal, Lisboa, Lisboa","Artigo 20.º, n.º 1, alínea a) do Código dos Contratos Públicos",,,,,,Não aplicável.,Não aplicável.,
Aquisição de água destilada sol. p/ injectaveis frs 50 ml,Ajuste Direto Regime Geral,Aquisição de bens móveis,"24316000-2, Água destilada","Centro Hospitalar Lisboa Norte, EPE (508481287)","Labesfal, S.A. (501169580)","33.750,00 €",07-05-2013,07-05-2013,1 dias,"Portugal, Lisboa, Lisboa","Artigo 24.º, n.º 1, alínea e) do Código dos Contratos Públicos",,,,,,Não aplicável.,Não aplicável.,
Aquisição de Kit´s tabuleiros para práticas em Imagiologia,Ajuste Direto Regime Geral,Aquisição de bens móveis,"33141620-2, Kits médicos","Centro Hospitalar Lisboa Norte, EPE (508481287)","B. Braun Medical, Lda. (501506543)","55.700,00 €",07-05-2013,29-04-2013,1 dias,"Portugal, Lisboa, Lisboa","Artigo 20.º, n.º 1, alínea a) do Código dos Contratos Públicos",,,,,,Não aplicável.,Não aplicável.,
Aquisição de Factor VIII d/ dupla inactivação viral,Ajuste Direto Regime Geral,Aquisição de bens móveis,"33621200-1, Anti-hemorrágicos","Centro Hospitalar Lisboa Norte, EPE (508481287)","Octapharma, Lda. (502820780)","74.290,00 €",07-05-2013,07-05-2013,2 dias,"Portugal, Lisboa, Lisboa","Artigo 20.º, n.º 1, alínea a) do Código dos Contratos Públicos",,,,,,Não aplicável.,Não aplicável.,
Aquisição de Complexo anti-inibidores de coagulação I,Ajuste Direto Regime Geral,Aquisição de bens móveis,"33621200-1, Anti-hemorrágicos","Centro Hospitalar Lisboa Norte, EPE (508481287)","Baxter Médico Farmacêutica, Lda. (503347345)","18.810,00 €",07-05-2013,03-05-2013,1 dias,"Portugal, Lisboa, Lisboa","Artigo 24.º, n.º 1, alínea e) do Código dos Contratos Públicos",,,,,,Não aplicável.,Não aplicável.,
"   Aquisição de Anagrelide caps. 0,5 mg",Ajuste Direto Regime Geral,Aquisição de bens móveis,"33652000-5, Antineoplásicos e imunomoduladores","Centro Hospitalar Lisboa Norte, EPE (508481287)","Shire Pharmaceuticals Portugal, Lda. (509264662)","43.854,30 €",07-05-2013,24-04-2013,2 dias,"Portugal, Lisboa, Lisboa","Artigo 24.º, n.º 1, alínea e) do Código dos Contratos Públicos",,,,,,Não aplicável.,Não aplicável.,
Aquisição de interferão alfa 2 A peguilado 180 mcg/0,Ajuste Direto Regime Geral,Aquisição de bens móveis,"33652000-5, Antineoplásicos e imunomoduladores","Centro Hospitalar Lisboa Norte, EPE (508481287)","Roche Farmacêutica Quimica, Lda. (500233810)","101.010,00 €",07-05-2013,03-05-2013,1 dias,"Portugal, Lisboa, Lisboa","Artigo 24.º, n.º 1, alínea e) do Código dos Contratos Públicos",,,,,,Não aplicável.,Não aplicável.,
Aquisição de Imiglucerase inj. 400 UI,Ajuste Direto Regime Geral,Aquisição de bens móveis,"33690000-3, Medicamentos vários","Centro Hospitalar Lisboa Norte, EPE (508481287)","Sanofi, Lda. (500134960)","552.532,40 €",07-05-2013,06-05-2013,1 dias,"Portugal, Lisboa, Lisboa","Artigo 24.º, n.º 1, alínea e) do Código dos Contratos Públicos",,,,,,Não aplicável.,Não aplicável.,
Aquisição de gelatina modificada sol. inj. frs 500 ml,Ajuste Direto Regime Geral,Aquisição de bens móveis,"33621400-3, Substitutos do plasma e soluções para perfusão","Centro Hospitalar Lisboa Norte, EPE (508481287)","B. Braun Medical, Lda. (501506543)","51.150,00 €",07-05-2013,17-04-2013,1 dias,"Portugal, Lisboa, Lisboa","Artigo 24.º, n.º 1, alínea e) do Código dos Contratos Públicos",,,,,,Não aplicável.,Não aplicável.,
Aquisição de polielectrolitico sol. p/ hemofiltração 2 e 4 meq/l saco,Ajuste Direto Regime Geral,Aquisição de bens móveis,"33692800-5, Soluções para diálise","Centro Hospitalar Lisboa Norte, EPE (508481287)",Gambro Lundia AB Sucursal em Portugal (980367751),"50.400,00 €",07-05-2013,07-05-2013,1 dias,"Portugal, Lisboa, Lisboa","Artigo 24.º, n.º 1, alínea e) do Código dos Contratos Públicos",,,,,,Não aplicável.,Não aplicável.,
Aquisição de CDI VR,Ajuste Direto Regime Geral,Aquisição de bens móveis,"33182100-0, Desfibrilhador","Centro Hospitalar Lisboa Norte, EPE (508481287)","ST Jude Medical, Lda. (504180746)","10.320,00 €",06-05-2013,06-05-2013,1 dias,"Portugal, Lisboa, Lisboa","Artigo 20.º, n.º 1, alínea a) do Código dos Contratos Públicos",,,,,,Não aplicável.,Não aplicável.,
"  Aquisição de cloreto de sódio 0,9% sol. inj. saco plástico",Ajuste Direto Regime Geral,Aquisição de bens móveis,"33692500-2, Soluções injectáveis","Centro Hospitalar Lisboa Norte, EPE (508481287)","Baxter, Lda. (503347345)","7.416,00 €",06-05-2013,06-05-2013,1 dias,"Portugal, Lisboa, Lisboa","Artigo 20.º, n.º 1, alínea a) do Código dos Contratos Públicos",,,,,,Não aplicável.,Não aplicável.,
Aquisição de Plasma congelado vírus inactivado,Ajuste Direto Regime Geral,Aquisição de bens móveis,"33692500-2, Soluções injectáveis","Centro Hospitalar Lisboa Norte, EPE (508481287)","Octapharma, Lda. (502820780)","81.000,00 €",06-05-2013,02-05-2013,2 dias,"Portugal, Lisboa, Lisboa","Artigo 24.º, n.º 1, alínea e) do Código dos Contratos Públicos",,,,,,Não aplicável.,Não aplicável.,
Aquisição de Prótese endovascular,Ajuste Direto Regime Geral,Aquisição de bens móveis,"33184200-5, Próteses vasculares","Centro Hospitalar Lisboa Norte, EPE (508481287)","Biosonda, Lda. (501463313)","32.500,00 €",06-05-2013,06-05-2013,5 dias,"Portugal, Lisboa, Lisboa","Artigo 20.º, n.º 1, alínea a) do Código dos Contratos Públicos",,,,,,Não aplicável.,Não aplicável.,
Aquisição de Endoprotese aortica e proteses endovasculares,Ajuste Direto Regime Geral,Aquisição de bens móveis,"33184500-8, Endopróteses coronárias","Centro Hospitalar Lisboa Norte, EPE (508481287)","Biosonda, Lda. (501463313)","15.000,00 €",06-05-2013,06-05-2013,5 dias,"Portugal, Lisboa, Lisboa","Artigo 20.º, n.º 1, alínea a) do Código dos Contratos Públicos",,,,,,Não aplicável.,Não aplicável.,
"  Aquisição de Gadobutrol inj. 604,72 mg/ml frascos 15 ml.",Ajuste Direto Regime Geral,Aquisição de bens móveis,"33696800-3, Meios de contraste para raios X","Centro Hospitalar Lisboa Norte, EPE (508481287)","Bayer Portugal, S.A. (500043256)","11.186,00 €",06-05-2013,02-05-2013,1 dias,"Portugal, Lisboa, Lisboa","Artigo 24.º, n.º 1, alínea e) do Código dos Contratos Públicos",,,,,,Não aplicável.,Não aplicável.,
Aquisição de CDI VR,Ajuste Direto Regime Geral,Aquisição de bens móveis,"33182100-0, Desfibrilhador","Centro Hospitalar Lisboa Norte, EPE (508481287)","Farmimpex, S.A. (503061506)","10.320,00 €",06-05-2013,06-05-2013,1 dias,"Portugal, Lisboa, Lisboa","Artigo 20.º, n.º 1, alínea a) do Código dos Contratos Públicos",,,,,,Não aplicável.,Não aplicável.,
Reparação de arruamentos com execução de remendos.,Ajuste Direto Regime Geral,Aquisição de serviços,"50000000-5, Serviços de reparação e manutenção","Centro Hospitalar Lisboa Norte, EPE (508481287)","COPI Construções, Lda. (501536760)","18.474,72 €",06-05-2013,06-05-2013,30 dias,"Portugal, Lisboa, Lisboa","Artigo 20.º, n.º 1, alínea a) do Código dos Contratos Públicos",,,,,,Não aplicável.,Não aplicável.,
Aquisição de material para neurocirurgia,Ajuste Direto Regime Geral,Aquisição de bens móveis,"33182000-9, Material de assistência à função cardíaca","CENTRO HOSPITALAR LISBOA NORTE, EPE (508481287)","Medtronic, Lda. (504223933)","6.080,00 €",03-05-2013,03-05-2013,1 dias,"Portugal, Lisboa, Lisboa","Artigo 20.º, n.º 1, alínea a) do Código dos Contratos Públicos",,,,,,Não aplicável.,Não aplicável.,
Aquisição de carbonato cálcio caps. 500 mg.,Ajuste Direto Regime Geral,Aquisição de bens móveis,"33692800-5, Soluções para diálise","CENTRO HOSPITALAR LISBOA NORTE, EPE (508481287)","Labesfal, S.A. (501169580)","1.750,00 €",03-05-2013,03-05-2013,2 dias,"Portugal, Lisboa, Lisboa","Artigo 20.º, n.º 1, alínea a) do Código dos Contratos Públicos",,,,,,Não aplicável.,Não aplicável.,
Aquisição de Paclitaxel sol. inj. 300 mg. e 100 mg.,Ajuste Direto Regime Geral,Aquisição de bens móveis,"33652000-5, Antineoplásicos e imunomoduladores","CENTRO HOSPITALAR LISBOA NORTE, EPE (508481287)","Fresenius Kabi, Lda. (504293753)","5.383,20 €",03-05-2013,03-05-2013,1 dias,"Portugal, Lisboa, Lisboa","Artigo 20.º, n.º 1, alínea a) do Código dos Contratos Públicos",,,,,,Não aplicável.,Não aplicável.,
Aquisição de Pantoprazol sol. inj. 40 mg. frs/amp.,Ajuste Direto Regime Geral,Aquisição de bens móveis,"33610000-9, Medicamentos para o tracto digestivo e o metabolismo","CENTRO HOSPITALAR LISBOA NORTE, EPE (508481287)","Laboratórios Normon, S.A. (505654156)","4.620,00 €",03-05-2013,03-05-2013,1 dias,"Portugal, Lisboa, Lisboa","Artigo 20.º, n.º 1, alínea a) do Código dos Contratos Públicos",,,,,,Não aplicável.,Não aplicável.,
"  Aquisição de Sistemas aspiração, dispositivos Y e cateteres guia.",Ajuste Direto Regime Geral,Aquisição de bens móveis,"33141200-2, Cateteres","CENTRO HOSPITALAR LISBOA NORTE, EPE (508481287)","Medtronic Portugal, Lda. (504223933)","17.510,00 €",03-05-2013,03-05-2013,3 dias,"Portugal, Lisboa, Lisboa","Artigo 20.º, n.º 1, alínea a) do Código dos Contratos Públicos",,,,,,Não aplicável.,Não aplicável.,
Aquisição ABL 800 solução lavagem 600 ml.,Ajuste Direto Regime Geral,Aquisição de bens móveis,"33696500-0, Reagentes de laboratório","CENTRO HOSPITALAR LISBOA NORTE, EPE (508481287)",Radiometer Iberica SL (980201667),"11.057,76 €",03-05-2013,03-05-2013,1 dias,"Portugal, Lisboa, Lisboa","Artigo 24.º, n.º 1, alínea e) do Código dos Contratos Públicos",,,,,,Não aplicável.,Não aplicável.,
Aquisição de Ranibizumab sol. inj. 10 mg/ml,Ajuste Direto Regime Geral,Aquisição de bens móveis,"33690000-3, Medicamentos vários","Centro Hospitalar Lisboa Norte, EPE (508481287)","Novartis Farma, S.A. (500063524)","231.381,60 €",03-05-2013,15-04-2013,1 dias,"Portugal, Lisboa, Lisboa","Artigo 24.º, n.º 1, alínea e) do Código dos Contratos Públicos",,,,,,Não aplicável.,Não aplicável.,
Aquisição de parafusos e barras,Ajuste Direto Regime Geral,Aquisição de bens móveis,"33141700-7, Material ortopédico","Centro Hospitalar Lisboa Norte, EPE (508481287)","Medtronic Portugal, Lda. (504223933)","11.240,00 €",02-05-2013,02-05-2013,3 dias,"Portugal, Lisboa, Lisboa","Artigo 20.º, n.º 1, alínea a) do Código dos Contratos Públicos",,,,,,Não aplicável.,Não aplicável.,
Aquisição de Prótese vascular aórtica percutanea,Ajuste Direto Regime Geral,Aquisição de bens móveis,"33184200-5, Próteses vasculares","Centro Hospitalar Lisboa Norte, EPE (508481287)","Edwards Lifesciences Portugal, Lda. (508014832)","54.000,00 €",02-05-2013,02-05-2013,2 dias,"Portugal, Lisboa, Lisboa","Artigo 20.º, n.º 1, alínea a) do Código dos Contratos Públicos",,,,,,Não aplicável.,Não aplicável.,
Aquisição de Lenalidomida cápsulas 25 mg.,Ajuste Direto Regime Geral,Aquisição de bens móveis,"33652000-5, Antineoplásicos e imunomoduladores","Centro Hospitalar Lisboa Norte, EPE (508481287)","Celgene, Lda. (507791690)","130.011,34 €",02-05-2013,19-04-2013,4 dias,"Portugal, Lisboa, Lisboa","Artigo 24.º, n.º 1, alínea e) do Código dos Contratos Públicos",,,,,,Não aplicável.,Não aplicável.,
Aquisição de Endoprótese torácica,Ajuste Direto Regime Geral,Aquisição de bens móveis,"33184200-5, Próteses vasculares","Centro Hospitalar Lisboa Norte, EPE (508481287)","Medicinália Cormédica, Lda. (500684324)","14.475,00 €",02-05-2013,02-05-2013,1 dias,"Portugal, Lisboa, Lisboa","Artigo 20.º, n.º 1, alínea a) do Código dos Contratos Públicos",,,,,,Não aplicável.,Não aplicável.,
Aquisição de Hidropolímeros médios c/ silicone penso,Ajuste Direto Regime Geral,Aquisição de bens móveis,"33141110-4, Pensos","Centro Hospitalar Lisboa Norte, EPE (508481287)","Molnlycke Health Care, Lda. (511101066)","5.103,00 €",02-05-2013,02-05-2013,3 dias,"Portugal, Lisboa, Lisboa","Artigo 24.º, n.º 1, alínea e) do Código dos Contratos Públicos",,,,,,Não aplicável.,Não aplicável.,
Aquisição de Ciclofosfamida inj. 1 gr.,Ajuste Direto Regime Geral,Aquisição de bens móveis,"33652000-5, Antineoplásicos e imunomoduladores","Centro Hospitalar Lisboa Norte, EPE (508481287)","Baxter - Médico Farmacêutica, Lda. (503347345)","6.885,00 €",02-05-2013,02-05-2013,1 dias,"Portugal, Lisboa, Lisboa","Artigo 24.º, n.º 1, alínea e) do Código dos Contratos Públicos",,,,,,Não aplicável.,Não aplicável.,
