Objeto do Contrato,Tipo de Procedimento,Tipo(s) de Contrato,CPVs,Entidade(s) Adjudicante(s),Entidade(s) Adjudicatária(s),Preço Contratual,Data de Publicação,Data de Celebração do Contrato,Prazo de Execução,Local de Execução,Fundamentação,Data de Fecho do Contrato,Preço Total Efetivo,Causas das Alterações ao Prazo,Causas das Alterações ao Preço,Estado,N.º registo do Acordo Quadro,Descrição do Acordo Quadro,Procedimento Centralizado
62/4135/2018 - Aquisição de fio ORTHOCORD,Ajuste Direto Regime Geral,Aquisição de bens móveis,"33183200-8, Próteses ortopédicas","Centro Hospitalar Universitário do Algarve, E.P.E. (510745997)","JOHNSON & JOHNSON, LDA (500153370)","448,80 €",21-12-2018,19-12-2018,12 dias,"Portugal, Faro, Faro","Artigo 24.º, n.º 1, alínea e), subalínea ii) do Código dos Contratos Públicos",,,,,,Não aplicável.,Não aplicável.,FALSE
92/4128/2018 - Aquisição de Próteses Bipolares (Haste Cimentada e N/Cimentada),Ajuste Direto Regime Geral,Aquisição de bens móveis,"33140000-3, Material médico de consumo","Centro Hospitalar Universitário do Algarve, E.P.E. (510745997)","ORTOIMPLANTE - SOC. DE ORTOPEDIA, LDA. (502654414)","6.525,00 €",21-12-2018,17-12-2018,13 dias,"Portugal, Faro, Faro","Artigo 24.º, n.º 1, alínea c) do Código dos Contratos Públicos",,,,,,Não aplicável.,Não aplicável.,FALSE
92/4138/2018 - Aquisição de Lentes Contacto Terapeuticas,Ajuste Direto Regime Geral,Aquisição de bens móveis,"33140000-3, Material médico de consumo","Centro Hospitalar Universitário do Algarve, E. P. E. (510745997)",Bausch & Lomb (980218764),"74,40 €",21-12-2018,12-12-2018,20 dias,"Portugal, Faro, Faro","Artigo 24.º, n.º 1, alínea c) do Código dos Contratos Públicos",,,,,,Não aplicável.,Não aplicável.,FALSE
92/4071/2018 - Aquisição Prótese Total do Ombro Cimentada e N/Cimentada,Ajuste Direto Regime Geral,Aquisição de bens móveis,"33140000-3, Material médico de consumo","Centro Hospitalar Universitário do Algarve, E. P. E. (510745997)","JOHNSON & JOHNSON, LDA (500153370)","11.920,00 €",21-12-2018,05-12-2018,25 dias,"Portugal, Faro, Faro","Artigo 24.º, n.º 1, alínea c) do Código dos Contratos Públicos",,,,,,Não aplicável.,Não aplicável.,FALSE
62/3938/2018 - Aquisição de sistema de Pace Bi-Ventricular (CRT-D),Ajuste Direto Regime Geral,Aquisição de bens móveis,"33123210-3, Aparelhos para monitorização cardíaca","Centro Hospitalar Universitário do Algarve, E. P. E. (510745997)","MICROPORT CRM PORTUGAL, LDA. (505514010)","12.650,00 €",21-12-2018,10-12-2018,13 dias,"Portugal, Faro, Faro","Artigo 24.º, n.º 1, alínea e), subalínea ii) do Código dos Contratos Públicos",,,,,,Não aplicável.,Não aplicável.,FALSE
62/3839/2018 - Aquisição de Cardioversores Desfibrilhadores - 1 Câmara (DF1),Ajuste Direto Regime Geral,Aquisição de bens móveis,"33123210-3, Aparelhos para monitorização cardíaca","Centro Hospitalar Universitário do Algarve, E. P. E. (510745997)","Biotronik Portugal, Unipessoal Lda. (510726941)","7.000,00 €",21-12-2018,29-11-2018,28 dias,"Portugal, Faro, Faro","Artigo 24.º, n.º 1, alínea e), subalínea ii) do Código dos Contratos Públicos",,,,,,Não aplicável.,Não aplicável.,FALSE
92/3808/2018 - Aquisição de Cavilha Longa TFN,Ajuste Direto Regime Geral,Aquisição de bens móveis,"33183200-8, Próteses ortopédicas","Centro Hospitalar Universitário do Algarve, E. P. E. (510745997)",JOHNSON & JOHNSON PROD.PROF. (500153370),"1.317,00 €",21-12-2018,16-11-2018,45 dias,"Portugal, Faro, Faro","Artigo 24.º, n.º 1, alínea c) do Código dos Contratos Públicos",,,,,,Não aplicável.,Não aplicável.,FALSE
Candeeiros Observação 77/4077/18,Ajuste Direto Regime Geral,Aquisição de bens móveis,"33167000-8, Luzes para blocos operatórios","Centro Hospitalar Universitário do Algarve, E. P. E. (510745997)","LINEAMEDICA-DISPOSITIVOS MEDICOS-CIRUGICOS, SA (505148676)","5.300,00 €",21-12-2018,19-12-2018,5 dias,"Portugal, Faro, Faro","Artigo 20.º, n.º 1, alínea d) do Código dos Contratos Públicos",,,,,,Não aplicável.,Não aplicável.,FALSE
92/3778/2018 - Aquisição de Pacemakers 2 Câmaras VDD Sistema,Ajuste Direto Regime Geral,Aquisição de bens móveis,"33182000-9, Material de assistência à função cardíaca","Centro Hospitalar Universitário do Algarve, E. P. E. (510745997)",ABBOTT MEDICAL (EX. ST. JUDE) (504180746),"14.000,00 €",21-12-2018,15-11-2018,45 dias,"Portugal, Faro, Faro","Artigo 24.º, n.º 1, alínea c) do Código dos Contratos Públicos",,,,,,Não aplicável.,Não aplicável.,FALSE
62/3732/2018 - Cardioversor Desfibrilhador - 2 Câmaras (CDI- VR),Ajuste Direto Regime Geral,Aquisição de bens móveis,"33123210-3, Aparelhos para monitorização cardíaca","Centro Hospitalar Universitário do Algarve, E. P. E. (510745997)",ABBOTT MEDICAL (EX. ST. JUDE) (504180746),"12.350,00 €",21-12-2018,15-11-2018,45 dias,"Portugal, Faro, Faro","Artigo 24.º, n.º 1, alínea e), subalínea ii) do Código dos Contratos Públicos",,,,,,Não aplicável.,Não aplicável.,FALSE
92/4050/2018- Aquisição de Fixadores Externos,Ajuste Direto Regime Geral,Aquisição de bens móveis,"33140000-3, Material médico de consumo","Centro Hospitalar Universitário do Algarve, E. P. E. (510745997)",JOHNSON & JOHNSON PROD.PROF. (500153370),"12.000,00 €",21-12-2018,12-12-2018,25 dias,"Portugal, Faro, Portimão<BR/>Portugal, Faro, Faro","Artigo 24.º, n.º 1, alínea c) do Código dos Contratos Públicos",,,,,,Não aplicável.,Não aplicável.,FALSE
92/3943/2018- Aquisição de Cabos Cerclage,Ajuste Direto Regime Geral,Aquisição de bens móveis,"33140000-3, Material médico de consumo","Centro Hospitalar Universitário do Algarve, E. P. E. (510745997)",JOHNSON & JOHNSON PROD.PROF. (500153370),"2.400,00 €",21-12-2018,04-12-2018,27 dias,"Portugal, Faro, Faro<BR/>Portugal, Faro, Portimão","Artigo 24.º, n.º 1, alínea c) do Código dos Contratos Públicos",,,,,,Não aplicável.,Não aplicável.,FALSE
92/3699/2018 - Aquisição Próteses Bipolares,Ajuste Direto Regime Geral,Aquisição de bens móveis,"33183200-8, Próteses ortopédicas","Centro Hospitalar Universitário do Algarve, E. P. E. (510745997)","ORTOIMPLANTE - SOC. DE ORTOPEDIA, LDA. (502654414)","11.500,00 €",21-12-2018,23-11-2018,30 dias,"Portugal, Faro, Faro","Artigo 24.º, n.º 1, alínea e), subalínea ii) do Código dos Contratos Públicos",,,,,,Não aplicável.,Não aplicável.,FALSE
92/3982/2018- Aquisição de Material de Encavilhamento,Ajuste Direto Regime Geral,Aquisição de bens móveis,"33140000-3, Material médico de consumo","Centro Hospitalar Universitário do Algarve, E. P. E. (510745997)","STRYKER PORTUGAL PRODUTOS MEDICOS, LDA (504594214)","1.500,00 €",20-12-2018,05-12-2018,26 dias,"Portugal, Faro, Portimão<BR/>Portugal, Faro, Faro","Artigo 24.º, n.º 1, alínea c) do Código dos Contratos Públicos",,,,,,Não aplicável.,Não aplicável.,FALSE
92/3959/2018- Aquisição de Material p/ Cirurgia da Coluna Cervical,Ajuste Direto Regime Geral,Aquisição de bens móveis,"33140000-3, Material médico de consumo","Centro Hospitalar Universitário do Algarve, E. P. E. (510745997)","NEUROWAVE, LDA (508537150)","10.000,00 €",19-12-2018,04-12-2018,27 dias,"Portugal, Faro, Faro","Artigo 24.º, n.º 1, alínea c) do Código dos Contratos Públicos",,,,,,Não aplicável.,Não aplicável.,FALSE
92/4131/2018- Aquisição de Material de Osteossíntese,Ajuste Direto Regime Geral,Aquisição de bens móveis,"33140000-3, Material médico de consumo","Centro Hospitalar Universitário do Algarve, E. P. E. (510745997)",JOHNSON & JOHNSON PROD.PROF. (500153370),"4.500,00 €",18-12-2018,17-12-2018,14 dias,"Portugal, Faro, Faro<BR/>Portugal, Faro, Portimão","Artigo 24.º, n.º 1, alínea c) do Código dos Contratos Públicos",,,,,,Não aplicável.,Não aplicável.,FALSE
92-4106-2018 AQUISIÇÃO DE MATERIAL CLÍNICO,Ajuste Direto Regime Geral,Aquisição de bens móveis,"33140000-3, Material médico de consumo","Centro Hospitalar Universitário do Algarve, E. P. E. (510745997)","MEDTRONIC PORTUGAL, LDA. (504223933)","4.629,40 €",17-12-2018,13-12-2018,18 dias,"Portugal, Faro","Artigo 24.º, n.º 1, alínea c) do Código dos Contratos Públicos",,,,,,Não aplicável.,Não aplicável.,FALSE
Máquina de manipulação de citotóxicos,Consulta Prévia,Aquisição de bens móveis,"33100000-1, Equipamento médico","Centro Hospitalar Universitário do Algarve, E.P.E. (510745997)","GRIFOLS PORTUGAL - PROD. FARMAC. E HOSP., LDA. (502041285)","25.750,00 €",17-12-2018,14-12-2018,17 dias,"Portugal, Faro, Faro<BR/>Portugal","Artigo 20.º, n.º 1, alínea c) do Código dos Contratos Públicos",,,,,,Não aplicável.,Não aplicável.,FALSE
31/1806/2018-Peginterferao beta,Ao abrigo de acordo-quadro (art.º 258.º),Aquisição de bens móveis,"33600000-6, Produtos farmacêuticos","Centro Hospitalar Universitário do Algarve, E. P. E. (510745997)",Biogen (506415740),"2.336,32 €",14-12-2018,10-04-2018,150 dias,"Portugal, Faro, Faro","Artigo 26.º, n.º 1, alínea e) do Código dos Contratos Públicos",,,,,,1771819,CP 2015/6 - Acordo quadro para o fornecimento de Medicamentos do Foro Oncológico,FALSE
31/1858/2018-Ertapenem 1000 mg,Ao abrigo de acordo-quadro (art.º 258.º),Aquisição de bens móveis,"33600000-6, Produtos farmacêuticos","Centro Hospitalar Universitário do Algarve, E. P. E. (510745997)",msd (500191360),"15.492,60 €",14-12-2018,16-04-2018,150 dias,"Portugal, Faro, Faro","Artigo 26.º, n.º 1, alínea e) do Código dos Contratos Públicos",,,,,,2775691,CP 2017/5 - Acordo Quadro para fornecimento de Medicamentos anti-infeciosos: exceto antivíricos e antifúngicos,FALSE
31/1860/2018-Efedrina 50 mg,Ao abrigo de acordo-quadro (art.º 258.º),Aquisição de bens móveis,"33600000-6, Produtos farmacêuticos","Centro Hospitalar Universitário do Algarve, E. P. E. (510745997)",lab.almiro (501169580),"3.548,30 €",14-12-2018,10-04-2018,150 dias,"Portugal, Faro, Faro","Artigo 26.º, n.º 1, alínea e) do Código dos Contratos Públicos",,,,,,1638654,CP 2015/12 - Acordo quadro para fornecimento de Medicamentos do Aparelho Respiratório às Instituições e Serviços do Serviço Nacional de Saúde,FALSE
31/1861/2018-Sitagliptina e insulinas,Ao abrigo de acordo-quadro (art.º 258.º),Aquisição de bens móveis,"33600000-6, Produtos farmacêuticos","Centro Hospitalar Universitário do Algarve, E. P. E. (510745997)","msd (500191360), sanfi (500134960)","557,79 €",14-12-2018,11-04-2018,120 dias,"Portugal, Faro, Faro","Artigo 26.º, n.º 1, alínea e) do Código dos Contratos Públicos",,,,,,1415640,CP 2015/7 - ACORDO QUADRO PARA FORNECIMENTO DE HORMONAS E OUTROS MEDICAMENTOS USADOS NO TRATAMENTO DAS DOENÇAS ENDÓCRINAS ÀS INSTITUIÇÕES E SERVIÇOS DO SERVIÇO NACIONAL DE SAÚDE,FALSE
31/1863/2018-Glucose 50 mg,Ao abrigo de acordo-quadro (art.º 258.º),Aquisição de bens móveis,"33600000-6, Produtos farmacêuticos","Centro Hospitalar Universitário do Algarve, E. P. E. (510745997)",B.Braun (501506543),"204,00 €",14-12-2018,13-04-2018,120 dias,"Portugal, Faro, Faro","Artigo 26.º, n.º 1, alínea e) do Código dos Contratos Públicos",,,,,,2528675,CP 2017/3 - Acordo Quadro para fornecimento de corretivos da volémia e outras soluções estéreis,FALSE
31/1864/2018-Anagrelida 0.5 mg,Ao abrigo de acordo-quadro (art.º 258.º),Aquisição de bens móveis,"33600000-6, Produtos farmacêuticos","Centro Hospitalar Universitário do Algarve, E.P.E. (510745997)",shire (509264662),"9.609,30 €",14-12-2018,11-04-2018,120 dias,"Portugal, Faro, Faro","Artigo 26.º, n.º 1, alínea e) do Código dos Contratos Públicos",,,,,,1771819,CP 2015/6 - Acordo quadro para o fornecimento de Medicamentos do Foro Oncológico,FALSE
31/1865/2018-Cadexomero de Iodo pó,Ao abrigo de acordo-quadro (art.º 258.º),Aquisição de bens móveis,"33600000-6, Produtos farmacêuticos","Centro Hospitalar Universitário do Algarve, E.P.E. (510745997)",smith (503552461),"527,24 €",14-12-2018,18-04-2018,120 dias,"Portugal, Faro, Faro","Artigo 26.º, n.º 1, alínea e) do Código dos Contratos Públicos",,,,,,1315192,Acordo Quadro para fornecimento de material de penso de efeito terapêutico às Instituições e Serviços do Serviço Nacional de Saúde,FALSE
31/1867/2018-Multivitaminas hidrossoluveis+acido folico,Ao abrigo de acordo-quadro (art.º 258.º),Aquisição de bens móveis,"33600000-6, Produtos farmacêuticos","Centro Hospitalar Universitário do Algarve, E.P.E. (510745997)",baxter (503347345),"5.040,00 €",14-12-2018,13-04-2018,120 dias,"Portugal, Faro, Faro","Artigo 26.º, n.º 1, alínea e) do Código dos Contratos Públicos",,,,,,1377429,Acordo Quadro para fornecimento de medicamentos para Nutrição Parentérica às Instituições e Serviços do Serviço Nacional de Saúde,FALSE
31/1870/2018-Pembrolizumab 50 mg,Ao abrigo de acordo-quadro (art.º 258.º),Aquisição de bens móveis,"33600000-6, Produtos farmacêuticos","Centro Hospitalar Universitário do Algarve, E. P. E. (510745997)",msd (500191360),"94.500,00 €",14-12-2018,11-04-2018,120 dias,"Portugal, Faro, Faro","Artigo 26.º, n.º 1, alínea e) do Código dos Contratos Públicos",,,,,,2545980,CP 2017/61 - Acordo quadro para fornecimento de Medicamentos Diversos   às Instituições e Serviços do Serviço Nacional de Saúde,FALSE
31/1871/2018-Amitriptilina 25 mg,Ao abrigo de acordo-quadro (art.º 258.º),Aquisição de bens móveis,"33600000-6, Produtos farmacêuticos","Centro Hospitalar Universitário do Algarve, E. P. E. (510745997)",generis (508107997),"136,74 €",14-12-2018,13-04-2018,120 dias,"Portugal, Faro, Faro","Artigo 26.º, n.º 1, alínea e) do Código dos Contratos Públicos",,,,,,1974985,"Medicamentos Analgésicos, Antipiréticos e Antidepressivos",FALSE
31/1872/2018-Medicamentos picossulfato de sodio e gelatina+glicerol,Ao abrigo de acordo-quadro (art.º 258.º),Aquisição de bens móveis,"33600000-6, Produtos farmacêuticos","Centro Hospitalar Universitário do Algarve, E. P. E. (510745997)",sanofi (500134960),"237,15 €",14-12-2018,18-04-2018,120 dias,"Portugal, Faro, Faro","Artigo 26.º, n.º 1, alínea e) do Código dos Contratos Públicos",,,,,,2222779,Medicamentos do aparelho digestivo,FALSE
31/1873/2018-Haloperidol decanoato 100 mg,Ao abrigo de acordo-quadro (art.º 258.º),Aquisição de bens móveis,"33600000-6, Produtos farmacêuticos","Centro Hospitalar Universitário do Algarve, E. P. E. (510745997)",janssen cilag (500189412),"2.148,75 €",14-12-2018,13-04-2018,120 dias,"Portugal, Faro, Faro","Artigo 26.º, n.º 1, alínea e) do Código dos Contratos Públicos",,,,,,2356543,CP 2016/19 - Medicamentos Antipsicóticos,FALSE
31/1874/2018-Levedopa 100 + carbidopa 25 mg,Ao abrigo de acordo-quadro (art.º 258.º),Aquisição de bens móveis,"33600000-6, Produtos farmacêuticos","Centro Hospitalar Universitário do Algarve, E. P. E. (510745997)",msd (500191360),"284,63 €",13-12-2018,13-04-2018,120 dias,"Portugal, Faro, Faro","Artigo 26.º, n.º 1, alínea e) do Código dos Contratos Públicos",,,,,,2528670,"CP 2017/2 - Acordo Quadro para fornecimento de Medicamentos do Sistema Nervoso Cerebrospinal, exceto: anestésicos, relaxantes musculares, analgésicos, antipiréticos, antidepressivos e antipsicóticos  às Instituições e Serviços do Serviço Nacional de Saúde",FALSE
Proc.21 3133/2018- Medicamentos Emtricitabina+Tenofovir,Concurso público,Aquisição de bens móveis,"33690000-3, Medicamentos vários","Centro Hospitalar Universitário do Algarve, E. P. E. (510745997)","Teva Pharma, Lda (507045491)","75.319,50 €",13-12-2018,06-09-2018,30 dias,"Portugal, Faro, Faro","Artigo 155.º, alínea b) do Código dos Contratos Públicos",,,,,,Não aplicável.,Não aplicável.,FALSE
31/1587/2017-Brometo de ipratrópio 0.5 mg,Ao abrigo de acordo-quadro (art.º 258.º),Aquisição de bens móveis,"33600000-6, Produtos farmacêuticos","Centro Hospitalar Universitário do Algarve, E. P. E. (510745997)",teva (507045491),"3.400,00 €",13-12-2018,14-06-2018,120 dias,"Portugal, Faro, Faro","Artigo 26.º, n.º 1, alínea e) do Código dos Contratos Públicos",,,,,,2124520,CP 2016/55 - Medicamentos Diversos,FALSE
31/1601/2018-Insulinas e Vidagliptina,Ao abrigo de acordo-quadro (art.º 258.º),Aquisição de bens móveis,"33600000-6, Produtos farmacêuticos","Centro Hospitalar Universitário do Algarve, E. P. E. (510745997)","novartis (500063524), sanofi (500134960)","3.137,89 €",13-12-2018,29-03-2018,180 dias,"Portugal, Faro, Faro","Artigo 26.º, n.º 1, alínea e) do Código dos Contratos Públicos",,,,,,1415640,CP 2015/7 - ACORDO QUADRO PARA FORNECIMENTO DE HORMONAS E OUTROS MEDICAMENTOS USADOS NO TRATAMENTO DAS DOENÇAS ENDÓCRINAS ÀS INSTITUIÇÕES E SERVIÇOS DO SERVIÇO NACIONAL DE SAÚDE,FALSE
31/1602/2018-Enoxaparina 40 e 100 mg,Ao abrigo de acordo-quadro (art.º 258.º),Aquisição de bens móveis,"33600000-6, Produtos farmacêuticos","Centro Hospitalar Universitário do Algarve, E. P. E. (510745997)",sanofi (500134960),"44.551,44 €",13-12-2018,19-03-2018,180 dias,"Portugal, Faro, Faro","Artigo 26.º, n.º 1, alínea e) do Código dos Contratos Públicos",,,,,,2489595,CP 2016/18 - Acordo quadro para fornecimento de Medicamentos do Grupo 4: Sangue às Instituições e Serviços do Serviço Nacional de Saúde,FALSE
Reagentes para Determinação da Glucose no Sangue,Concurso público,Aquisição de bens móveis,"33694000-1, Meios de diagnóstico","Centro Hospitalar Universitário do Algarve, E.P.E. (510745997)","Know-How, Lda (509884296)","30.720,00 €",13-12-2018,14-09-2018,183 dias,"Portugal, Faro, Faro","Artigo 20.º, n.º 1, alínea a) do Código dos Contratos Públicos",,,,,,Não aplicável.,Não aplicável.,FALSE
31/1603/2018-Glanciclovir 500 mg,Ao abrigo de acordo-quadro (art.º 258.º),Aquisição de bens móveis,"33600000-6, Produtos farmacêuticos","Centro Hospitalar Universitário do Algarve, E. P. E. (510745997)",roche (500233810),"788,80 €",13-12-2018,11-04-2018,180 dias,"Portugal, Faro, Faro","Artigo 26.º, n.º 1, alínea e) do Código dos Contratos Públicos",,,,,,1422736,CP 2015/41 - ACORDO QUADRO PARA FORNECIMENTO DE MEDICAMENTOS ANTI-INFECIOSOS: ANTIVÍRICOS E ANTIFÚNGICOS ÀS INSTITUIÇÕES E SERVIÇOS DO SERVIÇO NACIONAL DE SAÚDE,FALSE
31/1605/2018-Bisacodilo 10 mg,Ao abrigo de acordo-quadro (art.º 258.º),Aquisição de bens móveis,"33600000-6, Produtos farmacêuticos","Centro Hospitalar Universitário do Algarve, E. P. E. (510745997)",sanofi (500134960),"881,57 €",13-12-2018,13-04-2018,180 dias,"Portugal, Faro, Faro","Artigo 26.º, n.º 1, alínea e) do Código dos Contratos Públicos",,,,,,2222779,Medicamentos do aparelho digestivo,FALSE
31/1606/2018-Carbamazepina 20 mg,Ao abrigo de acordo-quadro (art.º 258.º),Aquisição de bens móveis,"33600000-6, Produtos farmacêuticos","Centro Hospitalar Universitário do Algarve, E. P. E. (510745997)",novartis (500063524),"111,77 €",13-12-2018,04-04-2018,180 dias,"Portugal, Faro, Faro","Artigo 26.º, n.º 1, alínea e) do Código dos Contratos Públicos",,,,,,2528670,"CP 2017/2 - Acordo Quadro para fornecimento de Medicamentos do Sistema Nervoso Cerebrospinal, exceto: anestésicos, relaxantes musculares, analgésicos, antipiréticos, antidepressivos e antipsicóticos  às Instituições e Serviços do Serviço Nacional de Saúde",FALSE
31/1618/2018-Voriconazol 200 mg,Ao abrigo de acordo-quadro (art.º 258.º),Aquisição de bens móveis,"33600000-6, Produtos farmacêuticos","Centro Hospitalar Universitário do Algarve, E. P. E. (510745997)",Pfizer (500162166),"9.180,00 €",13-12-2018,13-03-2018,180 dias,"Portugal, Faro, Faro","Artigo 26.º, n.º 1, alínea e) do Código dos Contratos Públicos",,,,,,1422736,CP 2015/41 - ACORDO QUADRO PARA FORNECIMENTO DE MEDICAMENTOS ANTI-INFECIOSOS: ANTIVÍRICOS E ANTIFÚNGICOS ÀS INSTITUIÇÕES E SERVIÇOS DO SERVIÇO NACIONAL DE SAÚDE,FALSE
Ragentes para o HPV,Concurso público,Aquisição de bens móveis,"33696500-0, Reagentes de laboratório","Centro Hospitalar Universitário do Algarve, E.P.E. (510745997)",ROCHE SISTEMA DE DIAGNOSTICOS (504282921),"187.000,00 €",13-12-2018,12-04-2018,274 dias,"Portugal, Faro, Faro","Artigo 20.º, n.º 1, alínea a) do Código dos Contratos Públicos",,,,,,Não aplicável.,Não aplicável.,FALSE
31/1619/2018-Ropivacaína 40 mg,Ao abrigo de acordo-quadro (art.º 258.º),Aquisição de bens móveis,"33600000-6, Produtos farmacêuticos","Centro Hospitalar Universitário do Algarve, E. P. E. (510745997)",fresenius (504293753),"5.869,60 €",13-12-2018,21-03-2018,180 dias,"Portugal, Faro, Faro","Artigo 26.º, n.º 1, alínea e) do Código dos Contratos Públicos",,,,,,2211341,Medicamentos anestésicos e relaxantes musculares,FALSE
31/1620/2018-Risperidona 37.5 mg,Ao abrigo de acordo-quadro (art.º 258.º),Aquisição de bens móveis,"33600000-6, Produtos farmacêuticos","Centro Hospitalar Universitário do Algarve, E. P. E. (510745997)",Janssen cilag (500189412),"1.736,89 €",13-12-2018,05-04-2018,180 dias,"Portugal, Faro, Faro","Artigo 26.º, n.º 1, alínea e) do Código dos Contratos Públicos",,,,,,2356543,CP 2016/19 - Medicamentos Antipsicóticos,FALSE
31/1622/2018-Insulina glargina 100,Ao abrigo de acordo-quadro (art.º 258.º),Aquisição de bens móveis,"33600000-6, Produtos farmacêuticos","Centro Hospitalar Universitário do Algarve, E. P. E. (510745997)",sanofi (500134960),"4.199,00 €",13-12-2018,27-03-2018,180 dias,"Portugal, Faro, Faro","Artigo 26.º, n.º 1, alínea e) do Código dos Contratos Públicos",,,,,,1415640,CP 2015/7 - ACORDO QUADRO PARA FORNECIMENTO DE HORMONAS E OUTROS MEDICAMENTOS USADOS NO TRATAMENTO DAS DOENÇAS ENDÓCRINAS ÀS INSTITUIÇÕES E SERVIÇOS DO SERVIÇO NACIONAL DE SAÚDE,FALSE
31/1623/2018-Sulfato de magnesio e glucose,Ao abrigo de acordo-quadro (art.º 258.º),Aquisição de bens móveis,"33600000-6, Produtos farmacêuticos","Centro Hospitalar Universitário do Algarve, E. P. E. (510745997)",Lab. Almiro (501169580),"499,68 €",13-12-2018,23-03-2018,180 dias,"Portugal, Faro, Faro","Artigo 26.º, n.º 1, alínea e) do Código dos Contratos Públicos",,,,,,2528675,CP 2017/3 - Acordo Quadro para fornecimento de corretivos da volémia e outras soluções estéreis,FALSE
31/1624/2018-Enoxaparina sódica 60 mg,Ao abrigo de acordo-quadro (art.º 258.º),Aquisição de bens móveis,"33600000-6, Produtos farmacêuticos","Centro Hospitalar Universitário do Algarve, E. P. E. (510745997)",sanofi (500134960),"21.228,84 €",13-12-2018,19-03-2018,180 dias,"Portugal, Faro, Faro","Artigo 26.º, n.º 1, alínea e) do Código dos Contratos Públicos",,,,,,2489595,CP 2016/18 - Acordo quadro para fornecimento de Medicamentos do Grupo 4: Sangue às Instituições e Serviços do Serviço Nacional de Saúde,FALSE
Reagentes para Hemoculturas e Micobacteriologia Sistema Automatico para a unidade de Faro,Concurso público,Aquisição de bens móveis,"33696500-0, Reagentes de laboratório","Centro Hospitalar Universitário do Algarve, E.P.E. (510745997)",BIOMERIEUX PORTUGAL (501524177),"43.040,00 €",13-12-2018,29-05-2018,183 dias,"Portugal, Faro, Faro","Artigo 20.º, n.º 1, alínea a) do Código dos Contratos Públicos",,,,,,Não aplicável.,Não aplicável.,FALSE
Reagentes para Hemostase para Portimão e Lagos,Concurso público,Aquisição de bens móveis,"33696500-0, Reagentes de laboratório","Centro Hospitalar Universitário do Algarve, E.P.E. (510745997)",WERFEN PORTUGAL LDA (501086110),"94.355,25 €",13-12-2018,15-03-2018,304 dias,"Portugal, Faro, Faro","Artigo 20.º, n.º 1, alínea a) do Código dos Contratos Públicos",,,,,,Não aplicável.,Não aplicável.,FALSE
Remodelação da Cozinha da Unidade Hospitalar de Portimão,Consulta Prévia,Empreitadas de obras públicas,"45259000-7, Reparação e manutenção de instalações","Centro Hospitalar Universitário do Algarve, E.P.E. (510745997)","Rui & Candeias, Lda. (505173212)","47.305,76 €",12-12-2018,10-12-2018,90 dias,"Portugal, Faro, Portimão","Artigo 19.º, alínea c) do Código dos Contratos Públicos",,,,,,Não aplicável.,Não aplicável.,FALSE
31/2928-2018-Ibrutinib 140 mg,Ao abrigo de acordo-quadro (art.º 258.º),Aquisição de bens móveis,"33600000-6, Produtos farmacêuticos","Centro Hospitalar Universitário do Algarve, E. P. E. (510745997)",janssen (500189412),"197.876,52 €",12-12-2018,05-09-2018,120 dias,"Portugal, Faro, Faro","Artigo 26.º, n.º 1, alínea e) do Código dos Contratos Públicos",,,,,,2556987,"CP 2017/65 - Acordo Quadro para fornecimento de Medicamentos de Várias áreas Terapêuticas, às Instituições e Serviços do Serviço Nacional de Saúde",FALSE
31/2910/2018-Metilprednisolona 125 mg,Ao abrigo de acordo-quadro (art.º 258.º),Aquisição de bens móveis,"33600000-6, Produtos farmacêuticos","Centro Hospitalar Universitário do Algarve, E. P. E. (510745997)",pfizer (500162166),"3.984,00 €",12-12-2018,29-08-2018,120 dias,"Portugal, Faro, Faro","Artigo 26.º, n.º 1, alínea e) do Código dos Contratos Públicos",,,,,,3379938,Hormonas e outros medicamentos usados no tratamento de doenças endócrinas,FALSE
31/2864/2018-Trastuzumab 600 mg,Ao abrigo de acordo-quadro (art.º 258.º),Aquisição de bens móveis,"33600000-6, Produtos farmacêuticos","Centro Hospitalar Universitário do Algarve, E. P. E. (510745997)",roche (500233810),"339.885,00 €",12-12-2018,09-10-2018,120 dias,"Portugal, Faro, Faro","Artigo 26.º, n.º 1, alínea e) do Código dos Contratos Públicos",,,,,,2969238,"CP 2017/6 - Acordo Quadro para fornecimento de Medicamentos do Foro Oncológico e Imunomoduladores, às Instituições e Serviços do Serviço Nacional de Saúde",FALSE
31/2863/2018-Triptorrelina 11.25 mg,Ao abrigo de acordo-quadro (art.º 258.º),Aquisição de bens móveis,"33600000-6, Produtos farmacêuticos","Centro Hospitalar Universitário do Algarve, E. P. E. (510745997)",ipsen (502609800),"494,48 €",12-12-2018,23-08-2018,120 dias,"Portugal, Faro, Faro","Artigo 26.º, n.º 1, alínea e) do Código dos Contratos Públicos",,,,,,2969238,"CP 2017/6 - Acordo Quadro para fornecimento de Medicamentos do Foro Oncológico e Imunomoduladores, às Instituições e Serviços do Serviço Nacional de Saúde",FALSE
31/2854/2018-Brinzolamida 10 mg,Ao abrigo de acordo-quadro (art.º 258.º),Locação de bens móveis,"33600000-6, Produtos farmacêuticos","Centro Hospitalar Universitário do Algarve, E. P. E. (510745997)",novartis (500063524),"48,88 €",12-12-2018,02-08-2018,120 dias,"Portugal, Faro, Faro","Artigo 26.º, n.º 1, alínea e) do Código dos Contratos Públicos",,,,,,3358998,CP 2018/49 - Medicamentos usados nas afeções oculares e otorrinolaringológicas,FALSE
31/2835/2018-Interferão beta 1a 24 M.U.I.,Ao abrigo de acordo-quadro (art.º 258.º),Aquisição de bens móveis,"33600000-6, Produtos farmacêuticos","Centro Hospitalar Universitário do Algarve, E.P.E. (510745997)",merck (500650870),"19.044,96 €",12-12-2018,23-08-2018,120 dias,"Portugal, Faro, Faro","Artigo 26.º, n.º 1, alínea e) do Código dos Contratos Públicos",,,,,,2969238,"CP 2017/6 - Acordo Quadro para fornecimento de Medicamentos do Foro Oncológico e Imunomoduladores, às Instituições e Serviços do Serviço Nacional de Saúde",FALSE
31/2834/2018-Certolizumab pegol 200 mg,Ao abrigo de acordo-quadro (art.º 258.º),Aquisição de bens móveis,"33600000-6, Produtos farmacêuticos","Centro Hospitalar Universitário do Algarve, E.P.E. (510745997)",ucb (500291322),"8.869,12 €",12-12-2018,31-08-2018,120 dias,"Portugal, Faro, Faro","Artigo 26.º, n.º 1, alínea e) do Código dos Contratos Públicos",,,,,,2545980,CP 2017/61 - Acordo quadro para fornecimento de Medicamentos Diversos   às Instituições e Serviços do Serviço Nacional de Saúde,FALSE
31/2829/2018-Tizanidina 6 mg,Ao abrigo de acordo-quadro (art.º 258.º),Aquisição de bens móveis,"33600000-6, Produtos farmacêuticos","Centro Hospitalar Universitário do Algarve, E. P. E. (510745997)",sandoz (506985261),"188,96 €",12-12-2018,27-07-2018,120 dias,"Portugal, Faro, Faro","Artigo 26.º, n.º 1, alínea e) do Código dos Contratos Públicos",,,,,,2545980,CP 2017/61 - Acordo quadro para fornecimento de Medicamentos Diversos   às Instituições e Serviços do Serviço Nacional de Saúde,FALSE
31/2828/2018-Indometacina 25 mg,Ao abrigo de acordo-quadro (art.º 258.º),Aquisição de bens móveis,"33600000-6, Produtos farmacêuticos","Centro Hospitalar Universitário do Algarve, E. P. E. (510745997)",angelini (500583650),"48,32 €",12-12-2018,23-07-2018,120 dias,"Portugal, Faro, Faro","Artigo 26.º, n.º 1, alínea e) do Código dos Contratos Públicos",,,,,,2124520,CP 2016/55 - Medicamentos Diversos,FALSE
31/2827/2018-Fenobarbital 200 mg,Ao abrigo de acordo-quadro (art.º 258.º),Aquisição de bens móveis,"33600000-6, Produtos farmacêuticos","Centro Hospitalar Universitário do Algarve, E. P. E. (510745997)",labesfal almiro (501169580),"770,00 €",12-12-2018,23-08-2018,120 dias,"Portugal, Faro, Faro","Artigo 26.º, n.º 1, alínea e) do Código dos Contratos Públicos",,,,,,2528670,"CP 2017/2 - Acordo Quadro para fornecimento de Medicamentos do Sistema Nervoso Cerebrospinal, exceto: anestésicos, relaxantes musculares, analgésicos, antipiréticos, antidepressivos e antipsicóticos  às Instituições e Serviços do Serviço Nacional de Saúde",FALSE
31/2826/2018-Amissulprida 200 mg,Ao abrigo de acordo-quadro (art.º 258.º),Aquisição de bens móveis,"33600000-6, Produtos farmacêuticos","Centro Hospitalar Universitário do Algarve, E. P. E. (510745997)",generis (508107997),"68,40 €",12-12-2018,26-07-2018,120 dias,"Portugal, Faro, Faro","Artigo 26.º, n.º 1, alínea e) do Código dos Contratos Públicos",,,,,,2356543,CP 2016/19 - Medicamentos Antipsicóticos,FALSE
31/2825/2018-Belimumab 400 mg e 120 mg,Ao abrigo de acordo-quadro (art.º 258.º),Aquisição de bens móveis,"33600000-6, Produtos farmacêuticos","Centro Hospitalar Universitário do Algarve, E. P. E. (510745997)",glaxo (500139962),"2.396,51 €",12-12-2018,23-08-2018,120 dias,"Portugal, Faro, Faro","Artigo 26.º, n.º 1, alínea e) do Código dos Contratos Públicos",,,,,,2969238,"CP 2017/6 - Acordo Quadro para fornecimento de Medicamentos do Foro Oncológico e Imunomoduladores, às Instituições e Serviços do Serviço Nacional de Saúde",FALSE
31/2824/2018-glucose 50 mg e 100 mg,Ao abrigo de acordo-quadro (art.º 258.º),Aquisição de bens móveis,"33600000-6, Produtos farmacêuticos","Centro Hospitalar Universitário do Algarve, E. P. E. (510745997)",labesfal (501169580),"6.304,80 €",12-12-2018,02-08-2018,120 dias,"Portugal, Faro, Faro","Artigo 26.º, n.º 1, alínea e) do Código dos Contratos Públicos",,,,,,2528675,CP 2017/3 - Acordo Quadro para fornecimento de corretivos da volémia e outras soluções estéreis,FALSE
Reagentes para Hematologia para Portimão e Lagos,Concurso público,Aquisição de bens móveis,"33696500-0, Reagentes de laboratório","Centro Hospitalar Universitário do Algarve, E.P.E. (510745997)",Beckman Coulter Portugal (509035167),"84.351,90 €",11-12-2018,28-03-2018,304 dias,"Portugal, Faro, Faro","Artigo 20.º, n.º 1, alínea a) do Código dos Contratos Públicos",,,,,,Não aplicável.,Não aplicável.,FALSE
31/3476/2018-Eltrombopag 25 mg,Ao abrigo de acordo-quadro (art.º 258.º),Aquisição de bens móveis,"33600000-6, Produtos farmacêuticos","Centro Hospitalar Universitário do Algarve, E. P. E. (510745997)",novartis (500063524),"60.682,25 €",11-12-2018,19-10-2018,60 dias,"Portugal, Faro, Faro","Artigo 26.º, n.º 1, alínea e) do Código dos Contratos Públicos",,,,,,2489595,CP 2016/18 - Acordo quadro para fornecimento de Medicamentos do Grupo 4: Sangue às Instituições e Serviços do Serviço Nacional de Saúde,FALSE
31/3475/2018-Atazanavir 200 mg,Ao abrigo de acordo-quadro (art.º 258.º),Aquisição de bens móveis,"33600000-6, Produtos farmacêuticos","Centro Hospitalar Universitário do Algarve, E. P. E. (510745997)",bristol (500048193),"11.926,13 €",11-12-2018,05-12-2018,30 dias,"Portugal, Faro, Faro","Artigo 26.º, n.º 1, alínea e) do Código dos Contratos Públicos",,,,,,2183729,Medicamentos antirretrovíricos para o tratamento da infeção por VIH,FALSE
31/3464/2018-Lactulose 10 mg/15 ml,Ao abrigo de acordo-quadro (art.º 258.º),Aquisição de bens móveis,"33600000-6, Produtos farmacêuticos","Centro Hospitalar Universitário do Algarve, E. P. E. (510745997)",ferraz lynce (500113270),"6.163,90 €",11-12-2018,17-10-2018,60 dias,"Portugal, Faro, Faro","Artigo 26.º, n.º 1, alínea e) do Código dos Contratos Públicos",,,,,,2222779,Medicamentos do aparelho digestivo,FALSE
31/3445/2018-Dabrafenib 75 mg,Ao abrigo de acordo-quadro (art.º 258.º),Aquisição de bens móveis,"33600000-6, Produtos farmacêuticos","Centro Hospitalar Universitário do Algarve, E. P. E. (510745997)",Novartis (500063524),"11.044,01 €",11-12-2018,17-10-2018,60 dias,"Portugal, Faro, Faro","Artigo 26.º, n.º 1, alínea e) do Código dos Contratos Públicos",,,,,,2545980,CP 2017/61 - Acordo quadro para fornecimento de Medicamentos Diversos   às Instituições e Serviços do Serviço Nacional de Saúde,FALSE
31/3416/2018-Trametinib 2 mg,Ao abrigo de acordo-quadro (art.º 258.º),Aquisição de bens móveis,"33600000-6, Produtos farmacêuticos","Centro Hospitalar Universitário do Algarve, E. P. E. (510745997)",Novartis (500063524),"13.941,24 €",11-12-2018,19-10-2018,60 dias,"Portugal, Faro, Faro","Artigo 26.º, n.º 1, alínea e) do Código dos Contratos Públicos",,,,,,2969238,"CP 2017/6 - Acordo Quadro para fornecimento de Medicamentos do Foro Oncológico e Imunomoduladores, às Instituições e Serviços do Serviço Nacional de Saúde",FALSE
31/3412/2018-Tizanidina 2 mg,Ao abrigo de acordo-quadro (art.º 258.º),Aquisição de bens móveis,"33600000-6, Produtos farmacêuticos","Centro Hospitalar Universitário do Algarve, E. P. E. (510745997)",teva (507045491),"33,30 €",11-12-2018,19-10-2018,60 dias,"Portugal, Faro, Faro","Artigo 26.º, n.º 1, alínea e) do Código dos Contratos Públicos",,,,,,2211341,Medicamentos anestésicos e relaxantes musculares,FALSE
31/3411/2018-Iopromida 769 mg/ml,Ao abrigo de acordo-quadro (art.º 258.º),Aquisição de bens móveis,"33600000-6, Produtos farmacêuticos","Centro Hospitalar Universitário do Algarve, E. P. E. (510745997)",bayer (500043256),"23.100,00 €",11-12-2018,30-11-2018,30 dias,"Portugal, Faro, Faro","Artigo 26.º, n.º 1, alínea e) do Código dos Contratos Públicos",,,,,,1473614,CP 2015/56 - Acordo quadro para fornecimento de medicamentos usados como meios de diagnóstico em Imagiologia às Instituições e Serviços do Serviço Nacional de Saúde,FALSE
31/3351/2018-Tiaprida 100 mg,Ao abrigo de acordo-quadro (art.º 258.º),Aquisição de bens móveis,"33600000-6, Produtos farmacêuticos","Centro Hospitalar Universitário do Algarve, E. P. E. (510745997)",sanofi (500134960),"413,40 €",11-12-2018,19-10-2018,60 dias,"Portugal, Faro, Faro","Artigo 26.º, n.º 1, alínea e) do Código dos Contratos Públicos",,,,,,2356543,CP 2016/19 - Medicamentos Antipsicóticos,FALSE
31/3053/2018-Morfina 30 mg,Ao abrigo de acordo-quadro (art.º 258.º),Aquisição de bens móveis,"33600000-6, Produtos farmacêuticos","Centro Hospitalar Universitário do Algarve, E.P.E. (510745997)",Mundipharma (506760014),"105,04 €",11-12-2018,05-09-2018,120 dias,"Portugal, Faro, Faro","Artigo 26.º, n.º 1, alínea e) do Código dos Contratos Públicos",,,,,,1974985,"Medicamentos Analgésicos, Antipiréticos e Antidepressivos",FALSE
31/3052/2018-Multivitaminas hidrossóluveis + acido fólico,Ao abrigo de acordo-quadro (art.º 258.º),Aquisição de bens móveis,"33600000-6, Produtos farmacêuticos","Centro Hospitalar Universitário do Algarve, E.P.E. (510745997)",fresenius kabi (504293753),"1.592,00 €",11-12-2018,11-09-2018,120 dias,"Portugal, Faro, Faro","Artigo 26.º, n.º 1, alínea e) do Código dos Contratos Públicos",,,,,,3359042,Medicamentos para Nutrição Parentérica,FALSE
31/3034/2018-Emtricitabina 200 +Rilpivirina 25+Tenofovir 245,Ao abrigo de acordo-quadro (art.º 258.º),Aquisição de bens móveis,"33600000-6, Produtos farmacêuticos","Centro Hospitalar Universitário do Algarve, E. P. E. (510745997)",gilead (503604704),"11.800,02 €",11-12-2018,11-09-2018,120 dias,"Portugal, Faro, Faro","Artigo 26.º, n.º 1, alínea e) do Código dos Contratos Públicos",,,,,,2545980,CP 2017/61 - Acordo quadro para fornecimento de Medicamentos Diversos   às Instituições e Serviços do Serviço Nacional de Saúde,FALSE
31/2996/2018-Nimodipina 30 mg,Ao abrigo de acordo-quadro (art.º 258.º),Aquisição de bens móveis,"33600000-6, Produtos farmacêuticos","Centro Hospitalar Universitário do Algarve, E. P. E. (510745997)",Lab. Almiro (501169580),"149,90 €",11-12-2018,23-08-2018,120 dias,"Portugal, Faro, Faro","Artigo 26.º, n.º 1, alínea e) do Código dos Contratos Públicos",,,,,,2335591,CP 2016/01 - Acordo Quadro para fornecimento de Medicamentos do Aparelho Cardiovascular   às Instituições e Serviços do Serviço Nacional de Saúde,FALSE
31/2995/2018-Pamidronato de sódio 30 mg,Ao abrigo de acordo-quadro (art.º 258.º),Aquisição de bens móveis,"33600000-6, Produtos farmacêuticos","Centro Hospitalar Universitário do Algarve, E. P. E. (510745997)",pfizer (500162166),"67,20 €",11-12-2018,29-08-2018,120 dias,"Portugal, Faro, Faro","Artigo 26.º, n.º 1, alínea e) do Código dos Contratos Públicos",,,,,,1410779,CP 2015/47 - Acordo quadro para fornecimento de medicamentos do aparelho locomotor às instituições e serviços do serviço nacional de saúde,FALSE
31/2994/2018-Agalsidade alfa 3.5 mg,Ao abrigo de acordo-quadro (art.º 258.º),Aquisição de bens móveis,"33600000-6, Produtos farmacêuticos","Centro Hospitalar Universitário do Algarve, E. P. E. (510745997)",shire (509264662),"43.260,00 €",11-12-2018,11-09-2018,120 dias,"Portugal, Faro, Faro","Artigo 26.º, n.º 1, alínea e) do Código dos Contratos Públicos",,,,,,2658382,CP 2017/58 - Acordo Quadro para fornecimento de Medicamentos para Doenças Lisossomais de Sobrecarga às Instituições e Serviços do Serviço Nacional de Saúde,FALSE
31/2993/2018-Maraviroc 300 mg,Ao abrigo de acordo-quadro (art.º 258.º),Aquisição de bens móveis,"33600000-6, Produtos farmacêuticos","Centro Hospitalar Universitário do Algarve, E. P. E. (510745997)",viivhiv (509117961),"3.053,38 €",11-12-2018,29-08-2018,120 dias,"Portugal, Faro, Faro","Artigo 26.º, n.º 1, alínea e) do Código dos Contratos Públicos",,,,,,2183729,Medicamentos antirretrovíricos para o tratamento da infeção por VIH,FALSE
31/2992/2018-Clindamicina 20 mg,Ao abrigo de acordo-quadro (art.º 258.º),Aquisição de bens móveis,"33600000-6, Produtos farmacêuticos","Centro Hospitalar Universitário do Algarve, E. P. E. (510745997)",Pfizer (500162166),"73,70 €",11-12-2018,29-08-2018,120 dias,"Portugal, Faro, Faro","Artigo 26.º, n.º 1, alínea e) do Código dos Contratos Públicos",,,,,,3016206,"CP 2017/48 - Acordo Quadro para fornecimento de Medicamentos do aparelho geniturinário, às Instituições e Serviços do Serviço Nacional de Saúde",FALSE
31/2991/2018-Acido acetilsalicilico 500 mg,Ao abrigo de acordo-quadro (art.º 258.º),Aquisição de bens móveis,"33600000-6, Produtos farmacêuticos","Centro Hospitalar Universitário do Algarve, E. P. E. (510745997)",sanofi (500134960),"50,40 €",11-12-2018,29-08-2018,120 dias,"Portugal, Faro, Faro","Artigo 26.º, n.º 1, alínea e) do Código dos Contratos Públicos",,,,,,1974985,"Medicamentos Analgésicos, Antipiréticos e Antidepressivos",FALSE
31/2989/2018-Flucloxacilina 2000 mg,Ao abrigo de acordo-quadro (art.º 258.º),Aquisição de bens móveis,"33600000-6, Produtos farmacêuticos","Centro Hospitalar Universitário do Algarve, E. P. E. (510745997)",generis (508107997),"3.900,00 €",11-12-2018,29-08-2018,120 dias,"Portugal, Faro, Faro","Artigo 26.º, n.º 1, alínea e) do Código dos Contratos Públicos",,,,,,2775691,CP 2017/5 - Acordo Quadro para fornecimento de Medicamentos anti-infeciosos: exceto antivíricos e antifúngicos,FALSE
31/2969/2018- Sulpirida 50 mg,Ao abrigo de acordo-quadro (art.º 258.º),Aquisição de bens móveis,"33600000-6, Produtos farmacêuticos","Centro Hospitalar Universitário do Algarve, E. P. E. (510745997)",sanofi (500134960),"49,81 €",11-12-2018,24-08-2018,120 dias,"Portugal, Faro, Faro","Artigo 26.º, n.º 1, alínea e) do Código dos Contratos Públicos",,,,,,2356543,CP 2016/19 - Medicamentos Antipsicóticos,FALSE
