Objeto do Contrato,Tipo de Procedimento,Tipo(s) de Contrato,CPVs,Entidade(s) Adjudicante(s),Entidade(s) Adjudicatária(s),Preço Contratual,Data de Publicação,Data de Celebração do Contrato,Prazo de Execução,Local de Execução,Fundamentação,Data de Fecho do Contrato,Preço Total Efetivo,Causas das Alterações ao Prazo,Causas das Alterações ao Preço,Estado,N.º registo do Acordo Quadro,Descrição do Acordo Quadro,Procedimento Centralizado
AD para Aquisição de Material Osteossintese p/Coluna Dorso-Lombar-Anterior,Ajuste Direto Regime Geral,Aquisição de bens móveis,"33140000-3, Material médico de consumo","Centro Hospitalar Vila Nova de Gaia - Espinho, E. P. E. (508142156)","MCTPOR, Unipessoal, Lda (510020569)","3.900,00 €",10-07-2017,10-07-2017,1 dias,"Portugal, Porto, Vila Nova de Gaia","Artigo 24.º, n.º 1, alínea e) do Código dos Contratos Públicos",,,,,,Não aplicável.,Não aplicável.,FALSE
AD para Aquisição de Material Stenting Carotideo,Ajuste Direto Regime Geral,Aquisição de bens móveis,"33140000-3, Material médico de consumo","Centro Hospitalar Vila Nova de Gaia - Espinho, E. P. E. (508142156)","Boston Scientific Portugal - Disp. Médicos, Lda (504988964)","1.175,00 €",10-07-2017,10-07-2017,1 dias,"Portugal, Porto, Vila Nova de Gaia","Artigo 24.º, n.º 1, alínea e) do Código dos Contratos Públicos",,,,,,Não aplicável.,Não aplicável.,FALSE
AD para Aquisição de Material Fixação da Coluna Lombar,Ajuste Direto Regime Geral,Aquisição de bens móveis,"33140000-3, Material médico de consumo","Centro Hospitalar Vila Nova de Gaia - Espinho, E. P. E. (508142156)",Johnson & Johnson Medical (500153370),"3.500,00 €",10-07-2017,10-07-2017,1 dias,"Portugal, Porto, Vila Nova de Gaia","Artigo 24.º, n.º 1, alínea e) do Código dos Contratos Públicos",,,,,,Não aplicável.,Não aplicável.,FALSE
Aquisição de Serviços de Desenvolvimento e Implementação de Solução de Suporte à Atividade Clínica - Hemodiálide,Concurso público,Aquisição de serviços,"72212180-4, Serviços de desenvolvimento de software para medicina","Centro Hospitalar Vila Nova de Gaia - Espinho, E. P. E. (508142156)",ADMINSAÚDE (507243250),"35.000,00 €",10-07-2017,14-10-2016,365 dias,"Portugal, Porto, Vila Nova de Gaia","Artigo 20.º, n.º 1, alínea b) do Código dos Contratos Públicos",,,,,,Não aplicável.,Não aplicável.,FALSE
Nintedanib (2 dosagens),Ajuste Direto Regime Geral,Aquisição de bens móveis,"33600000-6, Produtos farmacêuticos","Centro Hospitalar Vila Nova de Gaia - Espinho, E. P. E. (508142156)",UNILFARMA       (500293023),"85.000,00 €",07-07-2017,07-07-2017,20 dias,"Portugal, Porto, Vila Nova de Gaia","Artigo 24.º, n.º 1, alínea e) do Código dos Contratos Públicos",,,,,,Não aplicável.,Não aplicável.,FALSE
Aquisição de Medicamentos - P259-AC-2016-251,Ao abrigo de acordo-quadro (art.º 259.º),Aquisição de bens móveis,"33000000-0, Equipamento médico, medicamentos e produtos para cuidados pessoais","Centro Hospitalar Vila Nova de Gaia - Espinho, E. P. E. (508142156)","BRISTOL MYERS SQUIBB FARM.PORTUGUESA, SA (500048193)","86.978,88 €",07-07-2017,08-05-2017,210 dias,"Portugal, Porto, Vila Nova de Gaia",Artigo 259.º do Código dos Contratos Públicos,,,,,,1771819,CP 2015/6 - Acordo quadro para o fornecimento de Medicamentos do Foro Oncológico,FALSE
Aquisição de Medicamentos - AD-AC-2017-49,Ajuste Direto Regime Geral,Aquisição de bens móveis,"33000000-0, Equipamento médico, medicamentos e produtos para cuidados pessoais","Centro Hospitalar Vila Nova de Gaia - Espinho, E. P. E. (508142156)",CELGENE (507791690),"27.300,00 €",07-07-2017,16-05-2017,210 dias,"Portugal, Porto, Vila Nova de Gaia","Artigo 24.º, n.º 1, alínea e) do Código dos Contratos Públicos",,,,,,Não aplicável.,Não aplicável.,FALSE
Reagente (Kit de Deteção Multimero DAB),Ajuste Direto Regime Geral,Aquisição de bens móveis,"33696000-5, Reagentes e meios de contraste","Centro Hospitalar Vila Nova de Gaia - Espinho, E. P. E. (508142156)",Roche Diagnostics (504282921),"4.237,50 €",07-07-2017,07-07-2017,10 dias,"Portugal, Porto, Vila Nova de Gaia","Artigo 24.º, n.º 1, alínea e) do Código dos Contratos Públicos",,,,,,Não aplicável.,Não aplicável.,FALSE
Reagente (Hydrasys 4 Bence Jones),Ajuste Direto Regime Geral,Aquisição de bens móveis,"33696000-5, Reagentes e meios de contraste","Centro Hospitalar Vila Nova de Gaia - Espinho, E. P. E. (508142156)","Thermo Fisher Diagnostics, Soc. Unip., Lda (506916243)","4.611,54 €",07-07-2017,07-07-2017,10 dias,"Portugal, Porto, Vila Nova de Gaia","Artigo 24.º, n.º 1, alínea e) do Código dos Contratos Públicos",,,,,,Não aplicável.,Não aplicável.,FALSE
Lauromacrogol 400 20mg/ml Sol inj Fr 2ml IV,Ajuste Direto Regime Geral,Aquisição de bens móveis,"33600000-6, Produtos farmacêuticos","Centro Hospitalar Vila Nova de Gaia - Espinho, E. P. E. (508142156)","Rubeaspharma - Com. Imp. e Exp., Lda (510664040)","401,52 €",07-07-2017,07-07-2017,10 dias,"Portugal, Porto, Vila Nova de Gaia","Artigo 24.º, n.º 1, alínea e) do Código dos Contratos Públicos",,,,,,Não aplicável.,Não aplicável.,FALSE
Espiras p/ Embolização,Ajuste Direto Regime Geral,Aquisição de bens móveis,"33100000-1, Equipamento médico","Centro Hospitalar Vila Nova de Gaia - Espinho, E. P. E. (508142156)",Johnson & Johnson Medical (500153370),"16.235,00 €",07-07-2017,07-07-2017,10 dias,"Portugal, Porto, Vila Nova de Gaia","Artigo 20.º, n.º 1, alínea a) do Código dos Contratos Públicos",,,,,,Não aplicável.,Não aplicável.,FALSE
Daclatasvir 60 MG Comp. (ACSS 6121),Ajuste Direto Regime Geral,Aquisição de bens móveis,"33600000-6, Produtos farmacêuticos","Centro Hospitalar Vila Nova de Gaia - Espinho, E. P. E. (508142156)","BRISTOL MYERS SQUIBB FARM.PORTUGUESA, SA (500048193)","25.601,97 €",07-07-2017,07-07-2017,10 dias,"Portugal, Porto, Vila Nova de Gaia","Artigo 24.º, n.º 1, alínea e) do Código dos Contratos Públicos",,,,,,Não aplicável.,Não aplicável.,FALSE
Sofosbuvir 400 MG Comp.(ACSS 6279),Ao abrigo de acordo-quadro (art.º 259.º),Aquisição de bens móveis,"33600000-6, Produtos farmacêuticos","Centro Hospitalar Vila Nova de Gaia - Espinho, E. P. E. (508142156)","GILEAD SCIENCES, LDA (503604704)","41.164,84 €",07-07-2017,07-07-2017,180 dias,"Portugal, Porto, Vila Nova de Gaia",Artigo 259.º do Código dos Contratos Públicos,,,,,,1422736,CP 2015/41 - ACORDO QUADRO PARA FORNECIMENTO DE MEDICAMENTOS ANTI-INFECIOSOS: ANTIVÍRICOS E ANTIFÚNGICOS ÀS INSTITUIÇÕES E SERVIÇOS DO SERVIÇO NACIONAL DE SAÚDE,FALSE
Sofosbuvir 400 MG Comp.(ACSS 6280),Ao abrigo de acordo-quadro (art.º 259.º),Aquisição de bens móveis,"33600000-6, Produtos farmacêuticos","Centro Hospitalar Vila Nova de Gaia - Espinho, E. P. E. (508142156)","GILEAD SCIENCES, LDA (503604704)","41.164,84 €",07-07-2017,07-07-2017,180 dias,"Portugal, Porto, Vila Nova de Gaia",Artigo 259.º do Código dos Contratos Públicos,,,,,,1422736,CP 2015/41 - ACORDO QUADRO PARA FORNECIMENTO DE MEDICAMENTOS ANTI-INFECIOSOS: ANTIVÍRICOS E ANTIFÚNGICOS ÀS INSTITUIÇÕES E SERVIÇOS DO SERVIÇO NACIONAL DE SAÚDE,FALSE
Sofosbuvir 400 MG Comp.(ACSS 6278),Ao abrigo de acordo-quadro (art.º 259.º),Aquisição de bens móveis,"33600000-6, Produtos farmacêuticos","Centro Hospitalar Vila Nova de Gaia - Espinho, E. P. E. (508142156)","GILEAD SCIENCES, LDA (503604704)","41.164,84 €",07-07-2017,07-07-2017,180 dias,"Portugal, Porto, Vila Nova de Gaia",Artigo 259.º do Código dos Contratos Públicos,,,,,,1422736,CP 2015/41 - ACORDO QUADRO PARA FORNECIMENTO DE MEDICAMENTOS ANTI-INFECIOSOS: ANTIVÍRICOS E ANTIFÚNGICOS ÀS INSTITUIÇÕES E SERVIÇOS DO SERVIÇO NACIONAL DE SAÚDE,FALSE
Sofosbuvir 400 MG Comp.(ACSS 6277),Ao abrigo de acordo-quadro (art.º 259.º),Aquisição de bens móveis,"33600000-6, Produtos farmacêuticos","Centro Hospitalar Vila Nova de Gaia - Espinho, E. P. E. (508142156)","GILEAD SCIENCES, LDA (503604704)","41.164,84 €",07-07-2017,07-07-2017,180 dias,"Portugal, Porto, Vila Nova de Gaia",Artigo 259.º do Código dos Contratos Públicos,,,,,,1422736,CP 2015/41 - ACORDO QUADRO PARA FORNECIMENTO DE MEDICAMENTOS ANTI-INFECIOSOS: ANTIVÍRICOS E ANTIFÚNGICOS ÀS INSTITUIÇÕES E SERVIÇOS DO SERVIÇO NACIONAL DE SAÚDE,FALSE
Sofosbuvir 400 MG Comp.(ACSS 6276),Ao abrigo de acordo-quadro (art.º 259.º),Aquisição de bens móveis,"33600000-6, Produtos farmacêuticos","Centro Hospitalar Vila Nova de Gaia - Espinho, E. P. E. (508142156)","GILEAD SCIENCES, LDA (503604704)","41.164,84 €",07-07-2017,07-07-2017,180 dias,"Portugal, Porto, Vila Nova de Gaia",Artigo 259.º do Código dos Contratos Públicos,,,,,,1422736,CP 2015/41 - ACORDO QUADRO PARA FORNECIMENTO DE MEDICAMENTOS ANTI-INFECIOSOS: ANTIVÍRICOS E ANTIFÚNGICOS ÀS INSTITUIÇÕES E SERVIÇOS DO SERVIÇO NACIONAL DE SAÚDE,FALSE
AQUISIÇÃO DE PACEMAKERS - P259-AC-2016-238,Ao abrigo de acordo-quadro (art.º 259.º),Aquisição de bens móveis,"33000000-0, Equipamento médico, medicamentos e produtos para cuidados pessoais","Centro Hospitalar Vila Nova de Gaia - Espinho, E. P. E. (508142156)",BIOTRONIK Portugal (Unipessoal Lda. (510726941),"49.300,00 €",07-07-2017,10-04-2017,210 dias,"Portugal, Porto, Vila Nova de Gaia",Artigo 259.º do Código dos Contratos Públicos,,,,,,600105,"CONCURSO PÚBLICO PARA A CELEBRAÇÃO DE CONTRATOS PÚBLICOS DE APROVISIONAMENTO PARA A ÁREA DA SAÚDE, COM VISTA AO FORNECIMENTO SISTEMAS DE PACEMAKERS ÀS INSTITUIÇÕES E SERVIÇOS DO SERVIÇO NACIONAL DE SAÚDE",FALSE
Sofosbuvir 400 MG Comp.(ACSS 6275),Ao abrigo de acordo-quadro (art.º 259.º),Aquisição de bens móveis,"33600000-6, Produtos farmacêuticos","Centro Hospitalar Vila Nova de Gaia - Espinho, E. P. E. (508142156)","GILEAD SCIENCES, LDA (503604704)","41.164,84 €",07-07-2017,07-07-2017,180 dias,"Portugal, Porto, Vila Nova de Gaia",Artigo 259.º do Código dos Contratos Públicos,,,,,,1422736,CP 2015/41 - ACORDO QUADRO PARA FORNECIMENTO DE MEDICAMENTOS ANTI-INFECIOSOS: ANTIVÍRICOS E ANTIFÚNGICOS ÀS INSTITUIÇÕES E SERVIÇOS DO SERVIÇO NACIONAL DE SAÚDE,FALSE
Ledipasvir 90 mg + Sofosbuvir 400 mg Comp (ACSS 6313),Ao abrigo de acordo-quadro (art.º 259.º),Aquisição de bens móveis,"33600000-6, Produtos farmacêuticos","Centro Hospitalar Vila Nova de Gaia - Espinho, E. P. E. (508142156)","GILEAD SCIENCES, LDA (503604704)","46.183,83 €",07-07-2017,07-07-2017,10 dias,"Portugal, Porto, Vila Nova de Gaia",Artigo 259.º do Código dos Contratos Públicos,,,,,,1422736,CP 2015/41 - ACORDO QUADRO PARA FORNECIMENTO DE MEDICAMENTOS ANTI-INFECIOSOS: ANTIVÍRICOS E ANTIFÚNGICOS ÀS INSTITUIÇÕES E SERVIÇOS DO SERVIÇO NACIONAL DE SAÚDE,FALSE
Ledipasvir 90 mg + Sofosbuvir 400 mg Comp (ACSS 6312),Ao abrigo de acordo-quadro (art.º 259.º),Aquisição de bens móveis,"33600000-6, Produtos farmacêuticos",Centro Hospitalar Vila Nova de Gaia (CHNVG) (508142156),"GILEAD SCIENCES, LDA (503604704)","30.789,23 €",07-07-2017,07-07-2017,180 dias,"Portugal, Porto, Vila Nova de Gaia",Artigo 259.º do Código dos Contratos Públicos,,,,,,1422736,CP 2015/41 - ACORDO QUADRO PARA FORNECIMENTO DE MEDICAMENTOS ANTI-INFECIOSOS: ANTIVÍRICOS E ANTIFÚNGICOS ÀS INSTITUIÇÕES E SERVIÇOS DO SERVIÇO NACIONAL DE SAÚDE,FALSE
Ledipasvir 90 mg + Sofosbuvir 400 mg Comp (ACSS 6311),Ao abrigo de acordo-quadro (art.º 259.º),Aquisição de bens móveis,"33600000-6, Produtos farmacêuticos",Centro Hospitalar Vila Nova de Gaia (CHNVG) (508142156),"GILEAD SCIENCES, LDA (503604704)","46.183,83 €",07-07-2017,07-07-2017,180 dias,"Portugal, Porto, Vila Nova de Gaia",Artigo 259.º do Código dos Contratos Públicos,,,,,,1422736,CP 2015/41 - ACORDO QUADRO PARA FORNECIMENTO DE MEDICAMENTOS ANTI-INFECIOSOS: ANTIVÍRICOS E ANTIFÚNGICOS ÀS INSTITUIÇÕES E SERVIÇOS DO SERVIÇO NACIONAL DE SAÚDE,FALSE
Ledipasvir 90 mg + Sofosbuvir 400 mg Comp (ACSS 6307),Ao abrigo de acordo-quadro (art.º 259.º),Aquisição de bens móveis,"33600000-6, Produtos farmacêuticos",Centro Hospitalar Vila Nova de Gaia (CHNVG) (508142156),"GILEAD SCIENCES, LDA (503604704)","46.183,83 €",07-07-2017,07-07-2017,180 dias,"Portugal, Porto, Vila Nova de Gaia",Artigo 259.º do Código dos Contratos Públicos,,,,,,1422736,CP 2015/41 - ACORDO QUADRO PARA FORNECIMENTO DE MEDICAMENTOS ANTI-INFECIOSOS: ANTIVÍRICOS E ANTIFÚNGICOS ÀS INSTITUIÇÕES E SERVIÇOS DO SERVIÇO NACIONAL DE SAÚDE,FALSE
Daclatasvir 60 MG Comp. (ACSS 6129),Ajuste Direto Regime Geral,Aquisição de bens móveis,"33600000-6, Produtos farmacêuticos","Centro Hospitalar Vila Nova de Gaia - Espinho, E. P. E. (508142156)","BRISTOL MYERS SQUIBB FARM.PORTUGUESA, SA (500048193)","25.601,97 €",07-07-2017,07-07-2017,10 dias,"Portugal, Porto, Vila Nova de Gaia","Artigo 24.º, n.º 1, alínea e) do Código dos Contratos Públicos",,,,,,Não aplicável.,Não aplicável.,FALSE
Aquisição de medicamentos - P259-AC-2017-101,Ao abrigo de acordo-quadro (art.º 259.º),Aquisição de bens móveis,"33000000-0, Equipamento médico, medicamentos e produtos para cuidados pessoais","Centro Hospitalar Vila Nova de Gaia - Espinho, E. P. E. (508142156)","BRISTOL MYERS SQUIBB FARM.PORTUGUESA, SA (500048193)","70.267,34 €",07-07-2017,23-06-2017,210 dias,"Portugal, Porto, Vila Nova de Gaia",Artigo 259.º do Código dos Contratos Públicos,,,,,,1422736,CP 2015/41 - ACORDO QUADRO PARA FORNECIMENTO DE MEDICAMENTOS ANTI-INFECIOSOS: ANTIVÍRICOS E ANTIFÚNGICOS ÀS INSTITUIÇÕES E SERVIÇOS DO SERVIÇO NACIONAL DE SAÚDE,FALSE
Soluções Dialisantes CICA (exclusivo),Ajuste Direto Regime Geral,Aquisição de bens móveis,"33600000-6, Produtos farmacêuticos","Centro Hospitalar Vila Nova de Gaia - Espinho, E. P. E. (508142156)","FRESENIUS MEDICAL CARE PORTUGAL, SA (503070220)","18.360,00 €",07-07-2017,07-07-2017,30 dias,"Portugal, Porto, Vila Nova de Gaia","Artigo 24.º, n.º 1, alínea e) do Código dos Contratos Públicos",,,,,,Não aplicável.,Não aplicável.,FALSE
Aquisição de medicamentos - AD-AC-2017-48,Ajuste Direto Regime Geral,Aquisição de bens móveis,"33000000-0, Equipamento médico, medicamentos e produtos para cuidados pessoais","Centro Hospitalar Vila Nova de Gaia - Espinho, E. P. E. (508142156)",CELGENE (507791690),"18.749,20 €",07-07-2017,16-05-2017,210 dias,"Portugal, Porto, Vila Nova de Gaia","Artigo 24.º, n.º 1, alínea e) do Código dos Contratos Públicos",,,,,,Não aplicável.,Não aplicável.,FALSE
Ledipasvir 90 mg + Sofosbuvir 400 mg Comp (ACSS 6305),Ao abrigo de acordo-quadro (art.º 259.º),Aquisição de bens móveis,"33600000-6, Produtos farmacêuticos","Centro Hospitalar Vila Nova de Gaia - Espinho, E. P. E. (508142156)","GILEAD SCIENCES, LDA (503604704)","46.183,83 €",07-07-2017,07-07-2017,180 dias,"Portugal, Porto, Vila Nova de Gaia",Artigo 259.º do Código dos Contratos Públicos,,,,,,1422736,CP 2015/41 - ACORDO QUADRO PARA FORNECIMENTO DE MEDICAMENTOS ANTI-INFECIOSOS: ANTIVÍRICOS E ANTIFÚNGICOS ÀS INSTITUIÇÕES E SERVIÇOS DO SERVIÇO NACIONAL DE SAÚDE,FALSE
Darunavir 800 mg comp.(AQ 2016/40),Ao abrigo de acordo-quadro (art.º 259.º),Aquisição de bens móveis,"33600000-6, Produtos farmacêuticos","Centro Hospitalar Vila Nova de Gaia - Espinho, E. P. E. (508142156)","Janssen Cilag Farmacêutica, Lda (500189412)","70.458,00 €",07-07-2017,07-07-2017,180 dias,"Portugal, Porto, Vila Nova de Gaia",Artigo 259.º do Código dos Contratos Públicos,,,,,,2183729,Medicamentos antirretrovíricos para o tratamento da infeção por VIH,FALSE
Ledipasvir 90 mg + Sofosbuvir 400 mg Comp (ACSS 6308),Ao abrigo de acordo-quadro (art.º 259.º),Aquisição de bens móveis,"33600000-6, Produtos farmacêuticos","Centro Hospitalar Vila Nova de Gaia - Espinho, E. P. E. (508142156)","GILEAD SCIENCES, LDA (503604704)","46.183,83 €",07-07-2017,07-07-2017,180 dias,"Portugal, Porto, Vila Nova de Gaia",Artigo 259.º do Código dos Contratos Públicos,,,,,,1422736,CP 2015/41 - ACORDO QUADRO PARA FORNECIMENTO DE MEDICAMENTOS ANTI-INFECIOSOS: ANTIVÍRICOS E ANTIFÚNGICOS ÀS INSTITUIÇÕES E SERVIÇOS DO SERVIÇO NACIONAL DE SAÚDE,FALSE
Ledipasvir 90 mg + Sofosbuvir 400 mg Comp (ACSS 6309),Ao abrigo de acordo-quadro (art.º 259.º),Aquisição de bens móveis,"33600000-6, Produtos farmacêuticos","Centro Hospitalar Vila Nova de Gaia - Espinho, E. P. E. (508142156)","GILEAD SCIENCES,LDA (503604704)","46.183,83 €",07-07-2017,07-07-2017,180 dias,"Portugal, Porto, Vila Nova de Gaia",Artigo 259.º do Código dos Contratos Públicos,,,,,,1422736,CP 2015/41 - ACORDO QUADRO PARA FORNECIMENTO DE MEDICAMENTOS ANTI-INFECIOSOS: ANTIVÍRICOS E ANTIFÚNGICOS ÀS INSTITUIÇÕES E SERVIÇOS DO SERVIÇO NACIONAL DE SAÚDE,FALSE
Ledipasvir 90 mg + Sofosbuvir 400 mg Comp (ACSS 6310),Ao abrigo de acordo-quadro (art.º 259.º),Aquisição de bens móveis,"33600000-6, Produtos farmacêuticos","Centro Hospitalar Vila Nova de Gaia - Espinho, E. P. E. (508142156)","GILEAD SCIENCES,LDA (503604704)","46.183,83 €",07-07-2017,07-07-2017,180 dias,"Portugal, Porto, Vila Nova de Gaia",Artigo 259.º do Código dos Contratos Públicos,,,,,,1422736,CP 2015/41 - ACORDO QUADRO PARA FORNECIMENTO DE MEDICAMENTOS ANTI-INFECIOSOS: ANTIVÍRICOS E ANTIFÚNGICOS ÀS INSTITUIÇÕES E SERVIÇOS DO SERVIÇO NACIONAL DE SAÚDE,FALSE
Aquisição de Medicamentos - AD-AC-2017-45,Ajuste Direto Regime Geral,Aquisição de bens móveis,"33000000-0, Equipamento médico, medicamentos e produtos para cuidados pessoais","Centro Hospitalar Vila Nova de Gaia - Espinho, E. P. E. (508142156)",CELGENE (507791690),"86.674,22 €",06-07-2017,15-05-2017,210 dias,"Portugal, Porto, Vila Nova de Gaia","Artigo 24.º, n.º 1, alínea e) do Código dos Contratos Públicos",,,,,,Não aplicável.,Não aplicável.,FALSE
Material de Neurorradiologia,Ajuste Direto Regime Geral,Aquisição de bens móveis,"33100000-1, Equipamento médico","Centro Hospitalar Vila Nova de Gaia - Espinho, E. P. E. (508142156)","JOHNSON & JOHNSON, LDA (500153370)","10.565,00 €",06-07-2017,06-07-2017,10 dias,"Portugal, Porto, Vila Nova de Gaia","Artigo 20.º, n.º 1, alínea a) do Código dos Contratos Públicos",,,,,,Não aplicável.,Não aplicável.,FALSE
Aquisição de Medicamentos - P259-AC-2017-65,Ao abrigo de acordo-quadro (art.º 259.º),Aquisição de bens móveis,"33000000-0, Equipamento médico, medicamentos e produtos para cuidados pessoais","Centro Hospitalar Vila Nova de Gaia - Espinho, E. P. E. (508142156)","BRISTOL MYERS SQUIBB FARM.PORTUGUESA, SA (500048193)","148.971,12 €",06-07-2017,18-05-2017,210 dias,"Portugal, Porto, Vila Nova de Gaia",Artigo 259.º do Código dos Contratos Públicos,,,,,,1771819,CP 2015/6 - Acordo quadro para o fornecimento de Medicamentos do Foro Oncológico,FALSE
Material de Neurorradiologia,Ajuste Direto Regime Geral,Aquisição de bens móveis,"33100000-1, Equipamento médico","Centro Hospitalar Vila Nova de Gaia - Espinho, E. P. E. (508142156)",MEDICINÁLIA CORMEDICA (500684324),"8.180,00 €",06-07-2017,06-07-2017,10 dias,"Portugal, Porto, Vila Nova de Gaia","Artigo 20.º, n.º 1, alínea a) do Código dos Contratos Públicos",,,,,,Não aplicável.,Não aplicável.,FALSE
Material de Neurorradiologia,Ajuste Direto Regime Geral,Aquisição de bens móveis,"33100000-1, Equipamento médico","Centro Hospitalar Vila Nova de Gaia - Espinho, E. P. E. (508142156)","BIOSONDA,LDA. (501463313)","200,00 €",06-07-2017,06-07-2017,10 dias,"Portugal, Porto, Vila Nova de Gaia","Artigo 20.º, n.º 1, alínea a) do Código dos Contratos Públicos",,,,,,Não aplicável.,Não aplicável.,FALSE
Aquisição de Medicamentos - AD-AC-2017-47,Ajuste Direto Regime Geral,Aquisição de bens móveis,"33000000-0, Equipamento médico, medicamentos e produtos para cuidados pessoais","Centro Hospitalar Vila Nova de Gaia - Espinho, E. P. E. (508142156)",CELGENE (507791690),"57.888,07 €",06-07-2017,24-05-2017,210 dias,"Portugal, Porto, Vila Nova de Gaia","Artigo 24.º, n.º 1, alínea e) do Código dos Contratos Públicos",,,,,,Não aplicável.,Não aplicável.,FALSE
Manutenção da Solução Sorian Sheduler,Ajuste Direto Regime Geral,Aquisição de serviços,"50300000-8, Serviços de reparação e manutenção e serviços conexos relacionados com computadores pessoais e com equipamento burótico, audiovisual e para telecomunicações","Centro Hospitalar Vila Nova de Gaia - Espinho, E. P. E. (508142156)","Cerner Portugal, Unipessoal Lda. (513269843)","9.875,00 €",06-07-2017,06-07-2017,180 dias,"Portugal, Porto, Vila Nova de Gaia","Artigo 24.º, n.º 1, alínea e) do Código dos Contratos Públicos",,,,,,Não aplicável.,Não aplicável.,FALSE
AD para Aquisição de Abacavir 600 mg + Lamivudina 300 mg Comp.,Ajuste Direto Regime Geral,Aquisição de bens móveis,"33600000-6, Produtos farmacêuticos","Centro Hospitalar Vila Nova de Gaia - Espinho, E. P. E. (508142156)","Mylan, Lda (502248793)","15.075,00 €",05-07-2017,04-07-2017,5 dias,"Portugal, Porto, Vila Nova de Gaia","Artigo 24.º, n.º 1, alínea c) do Código dos Contratos Públicos",,,,,,Não aplicável.,Não aplicável.,FALSE
Aquisição de medicamentos - P259-AC-2017-104,Ao abrigo de acordo-quadro (art.º 259.º),Aquisição de bens móveis,"33000000-0, Equipamento médico, medicamentos e produtos para cuidados pessoais","Centro Hospitalar Vila Nova de Gaia - Espinho, E. P. E. (508142156)","LILLY PORTUGAL-PROD.FARMACEUTICOS, LDA (500165602)","27.442,24 €",05-07-2017,29-06-2017,210 dias,"Portugal, Porto, Vila Nova de Gaia",Artigo 259.º do Código dos Contratos Públicos,,,,,,1771819,CP 2015/6 - Acordo quadro para o fornecimento de Medicamentos do Foro Oncológico,FALSE
Aquisição de medicamentos - P259-AC-2017-46,Ao abrigo de acordo-quadro (art.º 259.º),Aquisição de bens móveis,"33000000-0, Equipamento médico, medicamentos e produtos para cuidados pessoais","Centro Hospitalar Vila Nova de Gaia - Espinho, E. P. E. (508142156)","LILLY PORTUGAL-PROD.FARMACEUTICOS, LDA (500165602)","34.302,80 €",05-07-2017,30-06-2017,210 dias,"Portugal, Porto, Vila Nova de Gaia",Artigo 259.º do Código dos Contratos Públicos,,,,,,1771819,CP 2015/6 - Acordo quadro para o fornecimento de Medicamentos do Foro Oncológico,FALSE
Serviços Alert necessários na solução de BI em desenvolvimento,Ajuste Direto Regime Geral,Aquisição de serviços,"72000000-5, Serviços de TI: consultoria, desenvolvimento de software, Internet e apoio","Centro Hospitalar Vila Nova de Gaia - Espinho, E. P. E. (508142156)","ALERT - LIFE SCIENCES COMPUTING, S.A. (507567455)","5.800,00 €",05-07-2017,05-07-2017,180 dias,"Portugal, Porto, Vila Nova de Gaia","Artigo 24.º, n.º 1, alínea e) do Código dos Contratos Públicos",,,,,,Não aplicável.,Não aplicável.,FALSE
Transporte de doentes (bombeiros),Ajuste Direto Regime Geral,Aquisição de serviços,"60100000-9, Serviços de transporte rodoviário","Centro Hospitalar Vila Nova de Gaia - Espinho, E. P. E. (508142156)",Associação Humanitária dos Bombeiros Voluntários de Carvalhos (501328009),"1.038,12 €",05-07-2017,04-07-2017,4 dias,"Portugal, Porto, Vila Nova de Gaia","Artigo 24.º, n.º 1, alínea c) do Código dos Contratos Públicos",,,,,,Não aplicável.,Não aplicável.,FALSE
Válvulas Aórticas de Introdução por Via Percutânea,Concurso público,Aquisição de bens móveis,"33182220-7, Válvulas cardíacas","Centro Hospitalar Vila Nova de Gaia - Espinho, E. P. E. (508142156)","Endovascular, Lda. (505537494)","148.500,00 €",05-07-2017,05-07-2017,180 dias,"Portugal, Porto, Vila Nova de Gaia","Artigo 20.º, n.º 1, alínea b) do Código dos Contratos Públicos",,,,,,Não aplicável.,Não aplicável.,FALSE
Aquisição de Válvulas Aórticas de Introdução por Via Percutânea,Concurso público,Aquisição de bens móveis,"33182220-7, Válvulas cardíacas","Centro Hospitalar Vila Nova de Gaia - Espinho, E. P. E. (508142156)","St. Jude Medical Portugal, Lda. (504180746)","144.000,00 €",05-07-2017,05-07-2017,180 dias,"Portugal, Porto, Vila Nova de Gaia","Artigo 20.º, n.º 1, alínea b) do Código dos Contratos Públicos",,,,,,Não aplicável.,Não aplicável.,FALSE
Válvulas Aórticas de Introdução por Via Percutânea,Concurso público,Aquisição de bens móveis,"33182220-7, Válvulas cardíacas","Centro Hospitalar Vila Nova de Gaia - Espinho, E. P. E. (508142156)","Edwards Lifesciences (Portugal), Lda. (508014832)","513.000,00 €",05-07-2017,05-07-2017,180 dias,"Portugal, Porto, Vila Nova de Gaia","Artigo 20.º, n.º 1, alínea b) do Código dos Contratos Públicos",,,,,,Não aplicável.,Não aplicável.,FALSE
Aquisição de Válvulas Aórticas de Introdução por Via Percutânea,Concurso público,Aquisição de bens móveis,"33182220-7, Válvulas cardíacas","Centro Hospitalar Vila Nova de Gaia - Espinho, E. P. E. (508142156)","Medtronic Portugal, Lda. (504223933)","264.000,00 €",05-07-2017,05-07-2017,180 dias,"Portugal, Porto, Vila Nova de Gaia","Artigo 20.º, n.º 1, alínea b) do Código dos Contratos Públicos",,,,,,Não aplicável.,Não aplicável.,FALSE
Aquisição de material de encavilhamento,Ajuste Direto Regime Geral,Aquisição de bens móveis,"33000000-0, Equipamento médico, medicamentos e produtos para cuidados pessoais","Centro Hospitalar Vila Nova de Gaia - Espinho, E. P. E. (508142156)",Stryker Portugal (504594214),"30.000,00 €",05-07-2017,29-06-2017,210 dias,"Portugal, Porto, Vila Nova de Gaia","Artigo 24.º, n.º 1, alínea e) do Código dos Contratos Públicos",,,,,,Não aplicável.,Não aplicável.,FALSE
carga p/ maq univ sut linear c/ corte e anast e haste artic 45 mm ponta curva,Ajuste Direto Regime Geral,Aquisição de bens móveis,"33100000-1, Equipamento médico","Centro Hospitalar Vila Nova de Gaia - Espinho, E. P. E. (508142156)",Medtronic (504223933),"9.240,00 €",05-07-2017,05-07-2017,180 dias,"Portugal, Porto, Vila Nova de Gaia","Artigo 24.º, n.º 1, alínea e) do Código dos Contratos Públicos",,,,,,Não aplicável.,Não aplicável.,FALSE
Aquisição de Medicamentos - AD-AC-2017-55,Ajuste Direto Regime Geral,Aquisição de bens móveis,"33000000-0, Equipamento médico, medicamentos e produtos para cuidados pessoais","Centro Hospitalar Vila Nova de Gaia - Espinho, E. P. E. (508142156)","VIIV HEALTHCARE, UNIPESSOAL LDA (509117961)","562.419,00 €",04-07-2017,16-05-2017,210 dias,"Portugal, Porto, Vila Nova de Gaia","Artigo 24.º, n.º 1, alínea e) do Código dos Contratos Públicos",,,,,,Não aplicável.,Não aplicável.,FALSE
Doxorrubicina 2 mg/ml Sol inj Fr 25 ml IV,Ajuste Direto Regime Geral,Aquisição de bens móveis,"33600000-6, Produtos farmacêuticos","Centro Hospitalar Vila Nova de Gaia - Espinho, E. P. E. (508142156)","Accord Healthcare, Unipessoal, Lda. (508622263)","211,60 €",04-07-2017,04-07-2017,10 dias,"Portugal, Porto, Vila Nova de Gaia","Artigo 24.º, n.º 1, alínea c) do Código dos Contratos Públicos",,,,,,Não aplicável.,Não aplicável.,FALSE
CABO DE EXTENSÃO P/CATETER P/MAPPING TRIDIMENSIONAL E CABO ECO INTERFAZ,Ajuste Direto Regime Geral,Aquisição de bens móveis,"31300000-9, Fios e cabos isolados","Centro Hospitalar Vila Nova de Gaia - Espinho, E. P. E. (508142156)",JOHNSON & JOHNSON PROD.PROF. (500153370),"700,00 €",04-07-2017,04-07-2017,10 dias,"Portugal, Porto, Vila Nova de Gaia","Artigo 24.º, n.º 1, alínea e) do Código dos Contratos Públicos",,,,,,Não aplicável.,Não aplicável.,FALSE
EXTENSÃO P/ CATETER DECAPOLAR,Ajuste Direto Regime Geral,Aquisição de bens móveis,"33100000-1, Equipamento médico","Centro Hospitalar Vila Nova de Gaia - Espinho, E. P. E. (508142156)",St. Jude Medical Portugal (504180746),"300,00 €",04-07-2017,04-07-2017,10 dias,"Portugal, Porto, Vila Nova de Gaia","Artigo 24.º, n.º 1, alínea e) do Código dos Contratos Públicos",,,,,,Não aplicável.,Não aplicável.,FALSE
"Analgésicos, Antipiréticos e Antidepressores, AQ 2016/44",Ao abrigo de acordo-quadro (art.º 259.º),Aquisição de bens móveis,"33600000-6, Produtos farmacêuticos",Centro Hospitalar Vila Nova de Gaia (CHNVG) (508142156),"SANDOZ FARMACEUTICA, LDA (506985261)","1.698,34 €",04-07-2017,29-06-2017,185 dias,"Portugal, Porto, Vila Nova de Gaia",Artigo 259.º do Código dos Contratos Públicos,,,,,,1974985,"Medicamentos Analgésicos, Antipiréticos e Antidepressivos",FALSE
"Analgésicos, Antipiréticos e Antidepressores, AQ 2016/44",Ao abrigo de acordo-quadro (art.º 259.º),Aquisição de bens móveis,"33600000-6, Produtos farmacêuticos",Centro Hospitalar Vila Nova de Gaia (CHNVG) (508142156),PHARMAKERN PORTUGAL (507002571),"214,74 €",04-07-2017,29-06-2017,185 dias,"Portugal, Porto, Vila Nova de Gaia",Artigo 259.º do Código dos Contratos Públicos,,,,,,1974985,"Medicamentos Analgésicos, Antipiréticos e Antidepressivos",FALSE
"Analgésicos, Antipiréticos e Antidepressores, AQ 2016/44",Ao abrigo de acordo-quadro (art.º 259.º),Aquisição de bens móveis,"33600000-6, Produtos farmacêuticos",Centro Hospitalar Vila Nova de Gaia (CHNVG) (508142156),"OVERPHARMA, PROD. MED. FARMAC., LDA. (505792362)","29.948,68 €",04-07-2017,29-06-2017,185 dias,"Portugal, Porto, Vila Nova de Gaia",Artigo 259.º do Código dos Contratos Públicos,,,,,,1974985,"Medicamentos Analgésicos, Antipiréticos e Antidepressivos",FALSE
"Analgésicos, Antipiréticos e Antidepressores, AQ 2016/44",Ao abrigo de acordo-quadro (art.º 259.º),Aquisição de bens móveis,"33600000-6, Produtos farmacêuticos",Centro Hospitalar Vila Nova de Gaia (CHNVG) (508142156),"Merck Sharp & Dohme, Lda (500191360)","49,64 €",04-07-2017,29-06-2017,185 dias,"Portugal, Porto, Vila Nova de Gaia",Artigo 259.º do Código dos Contratos Públicos,,,,,,1974985,"Medicamentos Analgésicos, Antipiréticos e Antidepressivos",FALSE
"Analgésicos, Antipiréticos e Antidepressores, AQ 2016/44",Ao abrigo de acordo-quadro (art.º 259.º),Aquisição de bens móveis,"33600000-6, Produtos farmacêuticos",Centro Hospitalar Vila Nova de Gaia (CHNVG) (508142156),"LUSOMEDICAMENTA, SA (507150473)","63,07 €",04-07-2017,29-06-2017,185 dias,"Portugal, Porto, Vila Nova de Gaia",Artigo 259.º do Código dos Contratos Públicos,,,,,,1974985,"Medicamentos Analgésicos, Antipiréticos e Antidepressivos",FALSE
"Analgésicos, Antipiréticos e Antidepressores, AQ 2016/44",Ao abrigo de acordo-quadro (art.º 259.º),Aquisição de bens móveis,"33600000-6, Produtos farmacêuticos",Centro Hospitalar Vila Nova de Gaia (CHNVG) (508142156),"Labesfal - Laboratórios Almiro, S.A. (501169580)","17.434,40 €",04-07-2017,29-06-2017,185 dias,"Portugal, Porto, Vila Nova de Gaia",Artigo 259.º do Código dos Contratos Públicos,,,,,,1974985,"Medicamentos Analgésicos, Antipiréticos e Antidepressivos",FALSE
Antena Termo Esfera,Ajuste Direto Regime Geral,Aquisição de bens móveis,"33100000-1, Equipamento médico","Centro Hospitalar Vila Nova de Gaia - Espinho, E. P. E. (508142156)","MEDTRONIC PORTUGAL, LDA. (504223933)","6.000,00 €",04-07-2017,03-07-2017,10 dias,"Portugal, Porto, Vila Nova de Gaia","Artigo 20.º, n.º 1, alínea a) do Código dos Contratos Públicos",,,,,,Não aplicável.,Não aplicável.,FALSE
"Analgésicos, Antipiréticos e Antidepressores, AQ 2016/44",Ao abrigo de acordo-quadro (art.º 259.º),Aquisição de bens móveis,"33600000-6, Produtos farmacêuticos",Centro Hospitalar Vila Nova de Gaia (CHNVG) (508142156),"LABORATORIOS MEDINFAR, S.A.     (500384045)","58,36 €",04-07-2017,29-06-2017,185 dias,"Portugal, Porto, Vila Nova de Gaia",Artigo 259.º do Código dos Contratos Públicos,,,,,,1974985,"Medicamentos Analgésicos, Antipiréticos e Antidepressivos",FALSE
"Analgésicos, Antipiréticos e Antidepressores, AQ 2016/44",Ao abrigo de acordo-quadro (art.º 259.º),Aquisição de bens móveis,"33600000-6, Produtos farmacêuticos",Centro Hospitalar Vila Nova de Gaia (CHNVG) (508142156),"Janssen Cilag Farmacêutica, Lda (500189412)","4.554,99 €",04-07-2017,29-06-2017,185 dias,"Portugal, Porto, Vila Nova de Gaia",Artigo 259.º do Código dos Contratos Públicos,,,,,,1974985,"Medicamentos Analgésicos, Antipiréticos e Antidepressivos",FALSE
"Analgésicos, Antipiréticos e Antidepressores, AQ 2016/44",Ao abrigo de acordo-quadro (art.º 259.º),Aquisição de bens móveis,"33600000-6, Produtos farmacêuticos",Centro Hospitalar Vila Nova de Gaia (CHNVG) (508142156),Hikma Farmacêutica ( Portugal) S.A (502266791),"5.960,45 €",04-07-2017,29-06-2017,185 dias,"Portugal, Porto, Vila Nova de Gaia",Artigo 259.º do Código dos Contratos Públicos,,,,,,1974985,"Medicamentos Analgésicos, Antipiréticos e Antidepressivos",FALSE
"Analgésicos, Antipiréticos e Antidepressores, AQ 2016/44",Ao abrigo de acordo-quadro (art.º 259.º),Aquisição de bens móveis,"33600000-6, Produtos farmacêuticos",Centro Hospitalar Vila Nova de Gaia (CHNVG) (508142156),GlaxoSmithKline - Produtos Farmacêuticos Lda. (500139962),"213,99 €",04-07-2017,29-06-2017,185 dias,"Portugal, Porto, Vila Nova de Gaia",Artigo 259.º do Código dos Contratos Públicos,,,,,,1974985,"Medicamentos Analgésicos, Antipiréticos e Antidepressivos",FALSE
"Analgésicos, Antipiréticos e Antidepressores, AQ 2016/44",Ao abrigo de acordo-quadro (art.º 259.º),Aquisição de bens móveis,"33600000-6, Produtos farmacêuticos",Centro Hospitalar Vila Nova de Gaia (CHNVG) (508142156),"Generis - Farmacêutica, S.A. (508107997)","467,86 €",04-07-2017,29-06-2017,185 dias,"Portugal, Porto, Vila Nova de Gaia",Artigo 259.º do Código dos Contratos Públicos,,,,,,1974985,"Medicamentos Analgésicos, Antipiréticos e Antidepressivos",FALSE
"Analgésicos, Antipiréticos e Antidepressores, AQ 2016/44",Ao abrigo de acordo-quadro (art.º 259.º),Aquisição de bens móveis,"33600000-6, Produtos farmacêuticos",Centro Hospitalar Vila Nova de Gaia (CHNVG) (508142156),Ferrer Portugal S.A. (500069190),"991,33 €",04-07-2017,29-06-2017,185 dias,"Portugal, Porto, Vila Nova de Gaia",Artigo 259.º do Código dos Contratos Públicos,,,,,,1974985,"Medicamentos Analgésicos, Antipiréticos e Antidepressivos",FALSE
"Analgésicos, Antipiréticos e Antidepressores, AQ 2016/44",Ao abrigo de acordo-quadro (art.º 259.º),Aquisição de bens móveis,"33600000-6, Produtos farmacêuticos",Centro Hospitalar Vila Nova de Gaia (CHNVG) (508142156),"Farmoz - Soc. Técnico Medical, S.A. (501505334)","71,80 €",04-07-2017,29-06-2017,185 dias,"Portugal, Porto, Vila Nova de Gaia",Artigo 259.º do Código dos Contratos Públicos,,,,,,1974985,"Medicamentos Analgésicos, Antipiréticos e Antidepressivos",FALSE
"Analgésicos, Antipiréticos e Antidepressores, AQ 2016/44",Ao abrigo de acordo-quadro (art.º 259.º),Aquisição de bens móveis,"33600000-6, Produtos farmacêuticos",Centro Hospitalar Vila Nova de Gaia (CHNVG) (508142156),B BRAUN MEDICAL LDA (501506543),"53.611,76 €",04-07-2017,29-06-2017,185 dias,"Portugal, Porto, Vila Nova de Gaia",Artigo 259.º do Código dos Contratos Públicos,,,,,,1974985,"Medicamentos Analgésicos, Antipiréticos e Antidepressivos",FALSE
"Analgésicos, Antipiréticos e Antidepressores, AQ 2016/44",Ao abrigo de acordo-quadro (art.º 259.º),Aquisição de bens móveis,"33600000-6, Produtos farmacêuticos",Centro Hospitalar Vila Nova de Gaia (CHNVG) (508142156),"AUROVITAS UNIPESSOAL, LDA (513053239)","1.416,74 €",04-07-2017,29-06-2017,185 dias,"Portugal, Porto, Vila Nova de Gaia",Artigo 259.º do Código dos Contratos Públicos,,,,,,1974985,"Medicamentos Analgésicos, Antipiréticos e Antidepressivos",FALSE
"Analgésicos, Antipiréticos e Antidepressores, AQ 2016/44",Ao abrigo de acordo-quadro (art.º 259.º),Aquisição de bens móveis,"33600000-6, Produtos farmacêuticos",Centro Hospitalar Vila Nova de Gaia (CHNVG) (508142156),"Aurobindo Pharma (Portugal) Unipessoal, Lda. (508527465)","660,84 €",04-07-2017,29-06-2017,185 dias,"Portugal, Porto, Vila Nova de Gaia",Artigo 259.º do Código dos Contratos Públicos,,,,,,1974985,"Medicamentos Analgésicos, Antipiréticos e Antidepressivos",FALSE
"Analgésicos, Antipiréticos e Antidepressores, AQ 2016/44",Ao abrigo de acordo-quadro (art.º 259.º),Aquisição de bens móveis,"33600000-6, Produtos farmacêuticos",Centro Hospitalar Vila Nova de Gaia (CHNVG) (508142156),"ANGELINI FARMACÊUTICA,LDA. (500583650)","521,50 €",04-07-2017,29-06-2017,185 dias,"Portugal, Porto, Vila Nova de Gaia",Artigo 259.º do Código dos Contratos Públicos,,,,,,1974985,"Medicamentos Analgésicos, Antipiréticos e Antidepressivos",FALSE
AD para Aquisição de Pemetrexedo 3 dosagens,Ajuste Direto Regime Geral,Aquisição de bens móveis,"33600000-6, Produtos farmacêuticos","Centro Hospitalar Vila Nova de Gaia - Espinho, E. P. E. (508142156)",TEVA Pharma - Produtos Farmacêuticos (507045491),"62.900,00 €",04-07-2017,14-06-2017,5 dias,"Portugal, Porto, Vila Nova de Gaia","Artigo 24.º, n.º 1, alínea c) do Código dos Contratos Públicos",,,,,,Não aplicável.,Não aplicável.,FALSE
Aquisição de Medicamentos - AD-AC-2017-37,Ajuste Direto Regime Geral,Aquisição de bens móveis,"33000000-0, Equipamento médico, medicamentos e produtos para cuidados pessoais","Centro Hospitalar Vila Nova de Gaia - Espinho, E. P. E. (508142156)","ACTELION PHARMACEUTICALS PORTUGAL, LDA. (507336488)","103.152,00 €",03-07-2017,09-06-2017,210 dias,"Portugal, Porto, Vila Nova de Gaia","Artigo 24.º, n.º 1, alínea e) do Código dos Contratos Públicos",,,,,,Não aplicável.,Não aplicável.,FALSE
Máq. Sutura Linear c/ Corte e Anastomose e Haste Articulada,Ajuste Direto Regime Geral,Aquisição de bens móveis,"33600000-6, Produtos farmacêuticos","Centro Hospitalar Vila Nova de Gaia - Espinho, E. P. E. (508142156)","MEDTRONIC PORTUGAL, LDA. (504223933)","9.240,00 €",03-07-2017,03-07-2017,30 dias,"Portugal, Porto, Vila Nova de Gaia","Artigo 24.º, n.º 1, alínea e) do Código dos Contratos Públicos",,,,,,Não aplicável.,Não aplicável.,FALSE
Parafina Líquida Compost Emulsão Frs 500 ml (CPA 2015/08),Ajuste Direto Regime Geral,Aquisição de bens móveis,"33600000-6, Produtos farmacêuticos","Centro Hospitalar Vila Nova de Gaia - Espinho, E. P. E. (508142156)",PAUL HARTMANN (502271728),"2.900,00 €",03-07-2017,03-07-2017,10 dias,"Portugal, Porto, Vila Nova de Gaia","Artigo 24.º, n.º 1, alínea c) do Código dos Contratos Públicos",,,,,,Não aplicável.,Não aplicável.,FALSE
Dosemanto de Dimeros D,Ajuste Direto Regime Geral,Aquisição de bens móveis,"33696000-5, Reagentes e meios de contraste","Centro Hospitalar Vila Nova de Gaia - Espinho, E. P. E. (508142156)","Stago Portugal Unipessoal, Lda (509952976)","4.132,44 €",03-07-2017,03-07-2017,10 dias,"Portugal, Porto, Vila Nova de Gaia","Artigo 24.º, n.º 1, alínea e) do Código dos Contratos Públicos",,,,,,Não aplicável.,Não aplicável.,FALSE
