Objeto do Contrato,Tipo de Procedimento,Tipo(s) de Contrato,CPVs,Entidade(s) Adjudicante(s),Entidade(s) Adjudicatária(s),Preço Contratual,Data de Publicação,Data de Celebração do Contrato,Prazo de Execução,Local de Execução,Fundamentação,Data de Fecho do Contrato,Preço Total Efetivo,Causas das Alterações ao Prazo,Causas das Alterações ao Preço,Estado,N.º registo do Acordo Quadro,Descrição do Acordo Quadro,Procedimento Centralizado
Fornecimento de carros de emergência normalizados para a Unidade de Gestão do Bloco Operatório do CHCB.,Ajuste Direto Regime Geral,Aquisição de bens móveis,"33100000-1, Equipamento médico","Centro Hospitalar Cova da Beira, EPE (506361659)","Iberdata Equipamentos, S.A. (501904921)","10.001,69 €",17-01-2018,13-11-2017,730 dias,"Portugal, Castelo Branco, Covilhã","Artigo 20.º, n.º 1, alínea a) do Código dos Contratos Públicos",,,,,,Não aplicável.,Não aplicável.,FALSE
Aquisição de Serviços de Dosimetria Individual,Ajuste Direto Regime Geral,Aquisição de bens móveis,"38547000-1, Sistema de dosimetria","Centro Hospitalar Cova da Beira, E. P. E. (506361659)","MEDICALCONSULT, SOCIEDADE UNIPESSOAL, LDA (504092138)","2.394,60 €",12-01-2018,03-01-2018,365 dias,"Portugal, Castelo Branco, Covilhã","Artigo 20.º, n.º 1, alínea a) do Código dos Contratos Públicos",,,,,,Não aplicável.,Não aplicável.,FALSE
Prestação de serviços de assistência técnica ao Osteodensitómetro para substituição do detetor de RX,Ajuste Direto Regime Geral,Aquisição de serviços,"50400000-9, Serviços de reparação e manutenção de equipamento médico e de precisão","Centro Hospitalar Cova da Beira, EPE (506361659)","IBERDATA - Equipamentos, SA (501904921)","14.380,73 €",12-01-2018,22-12-2017,30 dias,"Portugal, Castelo Branco, Covilhã","Artigo 20.º, n.º 1, alínea a) do Código dos Contratos Públicos",,,,,,Não aplicável.,Não aplicável.,FALSE
