Objeto do Contrato,Tipo de Procedimento,Tipo(s) de Contrato,CPVs,Entidade(s) Adjudicante(s),Entidade(s) Adjudicatária(s),Preço Contratual,Data de Publicação,Data de Celebração do Contrato,Prazo de Execução,Local de Execução,Fundamentação,Data de Fecho do Contrato,Preço Total Efetivo,Causas das Alterações ao Prazo,Causas das Alterações ao Preço,Estado,N.º registo do Acordo Quadro,Descrição do Acordo Quadro,Procedimento Centralizado
Fornecimento e Instalação de Equipamentos Ativos de Dados,Ajuste Direto Regime Geral,Aquisição de serviços,"51611100-9, Serviços de instalação de hardware","Hospital de Santa Maria Maior, E. P. E. (506361381)","Sixforce - Enterprise Communications,Lda. (513462546)","5.900,00 €",10-02-2016,23-12-2015,90 dias,"Portugal, Braga, Barcelos","Artigo 20.º, n.º 1, alínea a) do Código dos Contratos Públicos","","",,,,Não aplicável.,Não aplicável.,FALSE
Prestação de Serviços de Instalação de Dados Segura e Serviços de Acesso VPN.IP,Ajuste Direto Regime Geral,Aquisição de serviços,"72400000-4, Serviços de Internet","Hospital de Santa Maria Maior, E. P. E. (506361381)","MEO - SERVIÇOS DE COMUNICAÇÕES E MULTIMÉDIA ,S.A. (504615947)","3.656,76 €",08-02-2016,01-01-2016,365 dias,"Portugal, Braga, Barcelos","Artigo 20.º, n.º 1, alínea a) do Código dos Contratos Públicos",31-12-2016,"3.656,76 €",,,,Não aplicável.,Não aplicável.,FALSE
"Prestação de Serviços de """" Serviço de Voz Empresarial"""" e """" Serviço de VPN""""",Ajuste Direto Regime Geral,Aquisição de serviços,"64200000-8, Serviços de telecomunicações","Hospital de Santa Maria Maior, E. P. E. (506361381)","MEO - SERVIÇOS DE COMUNICAÇÕES E MULTIMÉDIA,S.A (504615947)","13.000,00 €",08-02-2016,01-01-2016,365 dias,"Portugal, Braga, Barcelos","Artigo 20.º, n.º 1, alínea a) do Código dos Contratos Públicos",31-12-2016,"13.000,00 €",,,,Não aplicável.,Não aplicável.,FALSE
