Objeto do Contrato,Tipo de Procedimento,Tipo(s) de Contrato,CPVs,Entidade(s) Adjudicante(s),Entidade(s) Adjudicatária(s),Preço Contratual,Data de Publicação,Data de Celebração do Contrato,Prazo de Execução,Local de Execução,Fundamentação,Data de Fecho do Contrato,Preço Total Efetivo,Causas das Alterações ao Prazo,Causas das Alterações ao Preço,Estado,N.º registo do Acordo Quadro,Descrição do Acordo Quadro,Procedimento Centralizado
"3 computadores para a Unidade de Desenvolvimento Software para CHSJ, EPE",Ajuste Direto Regime Geral,Aquisição de bens móveis,"30200000-1, Equipamento e material informático","Centro Hospitalar São João, EPE (509821197)","Informática El Corte Inglês, SA (980079659)","6.640,89 €",30-08-2013,23-08-2013,30 dias,"Portugal, Porto, Porto","Artigo 20.º, n.º 1, alínea a) do Código dos Contratos Públicos",,,,,,Não aplicável.,Não aplicável.,
"Broncofibroscópio para Serviço Broncofibroscopia do CHSJ, EPE",Ajuste Direto Regime Geral,Aquisição de bens móveis,"33000000-0, Equipamento médico, medicamentos e produtos para cuidados pessoais","Centro Hospitalar de São João, E. P. E. (509821197)",Simmedica Sa (980488842),"8.200,00 €",30-08-2013,30-07-2013,30 dias,"Portugal, Porto, Porto","Artigo 20.º, n.º 1, alínea a) do Código dos Contratos Públicos",,,,,,Não aplicável.,Não aplicável.,
Fonte de luz fluorescente para microscópio do Lab. Histomorfometria Óssea do CHSJ,Ajuste Direto Regime Geral,Aquisição de bens móveis,"38000000-5, Equipamento laboratorial, óptico e de precisão (exc. óculos)","Centro Hospitalar de São João, E. P. E. (509821197)",Leica Microsistemas Lda. (500301921),"7.411,95 €",27-08-2013,26-07-2013,60 dias,"Portugal, Porto, Porto","Artigo 20.º, n.º 1, alínea a) do Código dos Contratos Públicos",,,,,,Não aplicável.,Não aplicável.,
