Objeto do Contrato,Tipo de Procedimento,Tipo(s) de Contrato,CPVs,Entidade(s) Adjudicante(s),Entidade(s) Adjudicatária(s),Preço Contratual,Data de Publicação,Data de Celebração do Contrato,Prazo de Execução,Local de Execução,Fundamentação,Data de Fecho do Contrato,Preço Total Efetivo,Causas das Alterações ao Prazo,Causas das Alterações ao Preço,Estado,N.º registo do Acordo Quadro,Descrição do Acordo Quadro,Procedimento Centralizado
Aquisição de serviços de upgrade e manutenção de software antivírus -Trend Micro OfficeScan.,Ajuste Direto Regime Geral,Aquisição de serviços,"72267100-0, Manutenção de software para as tecnologias da infomação","INFARMED - Autoridade Nacional do Medicamento e Produtos de Saúde, I.P. (600037002)","SHIELD DOMAIN, S.A. (509985211)","6.328,96 €",08-03-2013,07-03-2013,365 dias,Portugal,"Artigo 20.º, n.º 1, alínea a) do Código dos Contratos Públicos",,,,,,Não aplicável.,Não aplicável.,
Serviços de alojamento no âmbito de inspecções em Fátima - 3 Participantes/ 1 dia,Ajuste Direto Regime Geral,Aquisição de serviços,"63510000-7, Serviços de agências de viagens e serviços similares","INFARMED - Autoridade Nacional do Medicamento e Produtos de Saúde, I.P. (600037002)","Topatlantico - Viagens e Turismo, SA (501061126)","210,00 €",08-03-2013,06-03-2013,1 dias,Portugal,"Artigo 27.º, n.º 1, alínea h) do Código dos Contratos Públicos",,,,,,Não aplicável.,Não aplicável.,
Serviços de alojamento no âmbito de inspecções em Viseu - 3 Participantes/2 dias,Ajuste Direto Regime Geral,Aquisição de serviços,"63510000-7, Serviços de agências de viagens e serviços similares","INFARMED - Autoridade Nacional do Medicamento e Produtos de Saúde, I.P. (600037002)","Topatlantico - Viagens e Turismo, SA (501061126)","390,00 €",08-03-2013,06-03-2013,2 dias,Portugal,"Artigo 27.º, n.º 1, alínea h) do Código dos Contratos Públicos",,,,,,Não aplicável.,Não aplicável.,
Serviços de alojamento no âmbito de inspecções no Porto - 5 Participantes/1 dia,Ajuste Direto Regime Geral,Aquisição de serviços,"63510000-7, Serviços de agências de viagens e serviços similares","INFARMED - Autoridade Nacional do Medicamento e Produtos de Saúde, I.P. (600037002)","Topatlantico - Viagens e Turismo, SA (501061126)","310,00 €",08-03-2013,06-03-2013,1 dias,Portugal,"Artigo 27.º, n.º 1, alínea h) do Código dos Contratos Públicos",,,,,,Não aplicável.,Não aplicável.,
Serviços de alojamento no âmbito de inspecções em Beja - 3 Participantes/ 1 dia,Ajuste Direto Regime Geral,Aquisição de serviços,"63510000-7, Serviços de agências de viagens e serviços similares","INFARMED - Autoridade Nacional do Medicamento e Produtos de Saúde, I.P. (600037002)","Topatlantico - Viagens e Turismo, SA (501061126)","222,00 €",08-03-2013,06-03-2013,1 dias,Portugal,"Artigo 27.º, n.º 1, alínea h) do Código dos Contratos Públicos",,,,,,Não aplicável.,Não aplicável.,
Serviços de alojamento no âmbito de Inspecções no Porto - 3 Participantes/1 dia,Ajuste Direto Regime Geral,Aquisição de serviços,"63510000-7, Serviços de agências de viagens e serviços similares","INFARMED - Autoridade Nacional do Medicamento e Produtos de Saúde, I.P. (600037002)","Topatlantico - Viagens e Turismo, SA (501061126)","180,00 €",08-03-2013,06-03-2013,1 dias,Portugal,"Artigo 27.º, n.º 1, alínea h) do Código dos Contratos Públicos",,,,,,Não aplicável.,Não aplicável.,
Serviços de alojamento no âmbito de inspecções no Porto - 3 Participantes/1 dia,Ajuste Direto Regime Geral,Aquisição de serviços,"63510000-7, Serviços de agências de viagens e serviços similares","INFARMED - Autoridade Nacional do Medicamento e Produtos de Saúde, I.P. (600037002)","Topatlantico - Viagens e Turismo,SA (501061126)","180,00 €",08-03-2013,06-03-2013,1 dias,Portugal,"Artigo 27.º, n.º 1, alínea h) do Código dos Contratos Públicos",,,,,,Não aplicável.,Não aplicável.,
"Serviços de viagem e alojamento para participação na reunião do Grupo Europeu de Normalização CEN/TC392  WG1 (Metodos Analíticos), em Paris- 1 Participante/3 dias",Ajuste Direto Regime Geral,Aquisição de serviços,"63510000-7, Serviços de agências de viagens e serviços similares","INFARMED - Autoridade Nacional do Medicamento e Produtos de Saúde, I.P. (600037002)","Raso- Viagens e Turismo, SA (500886113)","701,52 €",08-03-2013,20-02-2013,3 dias,França,"Artigo 27.º, n.º 1, alínea h) do Código dos Contratos Públicos",,,,,,Não aplicável.,Não aplicável.,
Serviços de viagem e alojamento para participação na reunião do Grupo de Peritos em Questões Técnico-regulamentares relacionadas com IVDs (IVD_Technical group)  em Bruxelas - 1 Participante/2 dias,Ajuste Direto Regime Geral,Aquisição de serviços,"63510000-7, Serviços de agências de viagens e serviços similares","INFARMED - Autoridade Nacional do Medicamento e Produtos de Saúde, I.P. (600037002)","Topatlantico- Viagens e Turismo, SA (501061126)","900,15 €",08-03-2013,27-02-2013,2 dias,Bélgica,"Artigo 27.º, n.º 1, alínea h) do Código dos Contratos Públicos",,,,,,Não aplicável.,Não aplicável.,
Serviços de alojamento no âmbito de inspecções na Figueira da Foz - 3 participantes/1 dia,Ajuste Direto Regime Geral,Aquisição de serviços,"63510000-7, Serviços de agências de viagens e serviços similares","INFARMED - Autoridade Nacional do Medicamento e Produtos de Saúde, I.P. (600037002)","Topatlantico - Viagens e Turismo, SA (501061126)","210,00 €",07-03-2013,06-03-2013,1 dias,Portugal,"Artigo 27.º, n.º 1, alínea h) do Código dos Contratos Públicos",,,,,,Não aplicável.,Não aplicável.,
Serviço de alojamento no âmbito de Inspecções na Figueira da Foz - 3 Participantes/1 dia,Ajuste Direto Regime Geral,Aquisição de serviços,"63510000-7, Serviços de agências de viagens e serviços similares","INFARMED - Autoridade Nacional do Medicamento e Produtos de Saúde, I.P. (600037002)","Topatlantico- Viagens e Turismo, SA (501061126)","240,00 €",07-03-2013,06-03-2013,1 dias,Portugal,"Artigo 27.º, n.º 1, alínea h) do Código dos Contratos Públicos",,,,,,Não aplicável.,Não aplicável.,
Serviços de alojamento no âmbito de inspecções no Porto - 3 Participantes/2 dias,Ajuste Direto Regime Geral,Aquisição de serviços,"63510000-7, Serviços de agências de viagens e serviços similares","INFARMED - Autoridade Nacional do Medicamento e Produtos de Saúde, I.P. (600037002)","Topatlantico - Viagens e Turismo, SA (501061126)","360,00 €",07-03-2013,06-03-2013,2 dias,Portugal,"Artigo 27.º, n.º 1, alínea h) do Código dos Contratos Públicos",,,,,,Não aplicável.,Não aplicável.,
Serviços de alojamento no ambito de inspecções em Albufeira - 3 Participantes/1 dia,Ajuste Direto Regime Geral,Aquisição de serviços,"63510000-7, Serviços de agências de viagens e serviços similares","INFARMED - Autoridade Nacional do Medicamento e Produtos de Saúde, I.P. (600037002)","Topatlantico - Viagens e Turismo, SA (501061126)","174,00 €",07-03-2013,06-03-2013,1 dias,Portugal,"Artigo 27.º, n.º 1, alínea h) do Código dos Contratos Públicos",,,,,,Não aplicável.,Não aplicável.,
Serviços de viagem e alojamento para participação na reunião Scientific Advice Working Party em Londres - 1 Participante/3 dias,Ajuste Direto Regime Geral,Aquisição de serviços,"63510000-7, Serviços de agências de viagens e serviços similares","INFARMED - Autoridade Nacional do Medicamento e Produtos de Saúde, I.P. (600037002)","Topatlântico - Viagens e Turismo, SA (501061126)","696,19 €",04-03-2013,01-03-2013,3 dias,Reino Unido,"Artigo 27.º, n.º 1, alínea h) do Código dos Contratos Públicos",,,,,,Não aplicável.,Não aplicável.,
Serviços de viagem e alojamento para participação na 146ª reunião do grupo da Farmacopeia Europeia em Estrasburgo - 1 Participante/4 dias,Ajuste Direto Regime Geral,Aquisição de serviços,"63510000-7, Serviços de agências de viagens e serviços similares","INFARMED - Autoridade Nacional do Medicamento e Produtos de Saúde, I.P. (600037002)","Topatlantico - Viagens e Turismo, SA (501061126)","913,82 €",04-03-2013,01-03-2013,4 dias,França,"Artigo 27.º, n.º 1, alínea h) do Código dos Contratos Públicos",,,,,,Não aplicável.,Não aplicável.,
Serviço de viagem e alojamento para participação na reunião do Grupo de peritos 10B (Quimica Organica-Produtos sintéticos) em Estrasburgo - 1 Participante/4 dias,Ajuste Direto Regime Geral,Aquisição de serviços,"63510000-7, Serviços de agências de viagens e serviços similares","INFARMED - Autoridade Nacional do Medicamento e Produtos de Saúde, I.P. (600037002)","Raso - Viagens e Turismo, SA (500886113)","977,82 €",01-03-2013,17-01-2013,4 dias,França,"Artigo 27.º, n.º 1, alínea h) do Código dos Contratos Públicos",,,,,,Não aplicável.,Não aplicável.,
Serviços de viagem e alojamento para participação na reunião do Grupo Internacional MEDEV (Medicine Evaluation Committee) em Bruxels - 1 Participante/2 dias,Ajuste Direto Regime Geral,Aquisição de serviços,"63510000-7, Serviços de agências de viagens e serviços similares","INFARMED - Autoridade Nacional do Medicamento e Produtos de Saúde, I.P. (600037002)","Raso - Viagens e Turismo, SA (500886113)","660,38 €",01-03-2013,22-02-2013,2 dias,Bélgica,"Artigo 27.º, n.º 1, alínea h) do Código dos Contratos Públicos",,,,,,Não aplicável.,Não aplicável.,
"Serviços de viagem e alojamento para participação na formação Kaizen Office Live, no Porto - 2 Participantes/2 dias",Ajuste Direto Regime Geral,Aquisição de serviços,"63510000-7, Serviços de agências de viagens e serviços similares","INFARMED - Autoridade Nacional do Medicamento e Produtos de Saúde, I.P. (600037002)","Topatlantico- Viagens e Turismo,SA (501061126)","250,00 €",01-03-2013,24-01-2013,2 dias,Portugal,"Artigo 27.º, n.º 1, alínea h) do Código dos Contratos Públicos",,,,,,Não aplicável.,Não aplicável.,
