Objeto do Contrato,Tipo de Procedimento,Tipo(s) de Contrato,CPVs,Entidade(s) Adjudicante(s),Entidade(s) Adjudicatária(s),Preço Contratual,Data de Publicação,Data de Celebração do Contrato,Prazo de Execução,Local de Execução,Fundamentação,Data de Fecho do Contrato,Preço Total Efetivo,Causas das Alterações ao Prazo,Causas das Alterações ao Preço,Estado,N.º registo do Acordo Quadro,Descrição do Acordo Quadro,Procedimento Centralizado
1 Cardiodesfibrilhador Biventricular com Electrodo,Ajuste Direto Regime Geral,Aquisição de bens móveis,"33000000-0, Equipamento médico, medicamentos e produtos para cuidados pessoais","Centro Hospitalar e Universitário de Coimbra, E.P.E. (510103448)",Boston Scientific Portugal (504988964),"21.000,00 €",09-05-2013,21-04-2013,20 dias,"Portugal, Coimbra, Coimbra","Artigo 24.º, n.º 1, alínea e) do Código dos Contratos Públicos",,,,,,Não aplicável.,Não aplicável.,
Assinatura anual de publicações diversas,Ajuste Direto Regime Geral,Aquisição de bens móveis,"22000000-0, Material impresso e afins","Centro Hospitalar e Universitário de Coimbra, E.P.E. (510103448)","Porbooks Unipessoal, Lda. (510491200)","43.183,96 €",09-05-2013,30-04-2013,365 dias,"Portugal, Coimbra, Coimbra","Artigo 20.º, n.º 1, alínea a) do Código dos Contratos Públicos",,,,,,Não aplicável.,Não aplicável.,
Assinatura anual de publicações diversas,Ajuste Direto Regime Geral,Aquisição de bens móveis,"22000000-0, Material impresso e afins","Centro Hospitalar e Universitário de Coimbra, E.P.E. (510103448)","AVRL Consultores, Lda. (501900640)","43.086,92 €",09-05-2013,30-04-2013,365 dias,"Portugal, Coimbra, Coimbra","Artigo 20.º, n.º 1, alínea a) do Código dos Contratos Públicos",,,,,,Não aplicável.,Não aplicável.,
"Assinatura anual de acesso às plataformas OvidSP e ClinicalKey, para acesso a publicações diversas.",Ajuste Direto Regime Geral,Aquisição de bens móveis,"22000000-0, Material impresso e afins","Centro Hospitalar e Universitário de Coimbra, E.P.E. (510103448)","Lusodoc, Documentação Técnico-Científica,Lda. (502609982)","103.231,00 €",09-05-2013,30-04-2013,365 dias,"Portugal, Coimbra, Coimbra","Artigo 24.º, n.º 1, alínea e) do Código dos Contratos Públicos",,,,,,Não aplicável.,Não aplicável.,
Cd's e bolsas para a Hemodinâmica,Ajuste Direto Regime Geral,Aquisição de bens móveis,"30000000-9, Máquinas, equipamento e material de escritório e de informática, excepto mobiliário e pacotes de programas (software)","Centro Hospitalar e Universitário de Coimbra, E.P.E. (510103448)","Olmar - Artigos de Papelaria, Lda. (108042952)","3.612,60 €",08-05-2013,02-05-2013,30 dias,"Portugal, Coimbra, Coimbra","Artigo 20.º, n.º 1, alínea a) do Código dos Contratos Públicos",,,,,,Não aplicável.,Não aplicável.,
"Tiras desmagnetizáveis para colocação entre páginas 12,5cm",Ajuste Direto Regime Geral,Aquisição de bens móveis,"30000000-9, Máquinas, equipamento e material de escritório e de informática, excepto mobiliário e pacotes de programas (software)","Centro Hospitalar e Universitário de Coimbra, E.P.E. (510103448)","Sensormatic - Protecção Contra Furto, Lda. (502226145)","520,00 €",08-05-2013,02-05-2013,30 dias,"Portugal, Coimbra, Coimbra","Artigo 20.º, n.º 1, alínea a) do Código dos Contratos Públicos",,,,,,Não aplicável.,Não aplicável.,
"FORNECIMENTO DE ALIMENTAÇÃO AO HG/HP/MBB DO CHUC, EPE, 2013 (1º REPETIÇÃO DO C.P. 01/70000001/2012)",Ajuste Direto Regime Geral,Aquisição de serviços,"55000000-0, Serviços de hotelaria, restauração e comércio a retalho","Centro Hospitalar e Universitário de Coimbra, E.P.E. (510103448)","EUREST (PORTUGAL), LDA (500347506)","1.762.750,20 €",08-05-2013,18-12-2012,365 dias,"Portugal, Coimbra, Coimbra","Artigo 27.º, n.º 1, alínea a) do Código dos Contratos Públicos",,,,,,Não aplicável.,Não aplicável.,
Papel Celofane e Papel Térmico,Ajuste Direto Regime Geral,Aquisição de bens móveis,"30000000-9, Máquinas, equipamento e material de escritório e de informática, excepto mobiliário e pacotes de programas (software)","Centro Hospitalar e Universitário de Coimbra, E.P.E. (510103448)","Grifols Portugal, Produtos Farmacêuticos e Hospitalares, Lda. (502041285)","29.574,00 €",08-05-2013,21-04-2013,228 dias,"Portugal, Coimbra, Coimbra","Artigo 24.º, n.º 1, alínea e) do Código dos Contratos Públicos",,,,,,Não aplicável.,Não aplicável.,
1 - Cardioversor Camara Dupla com Electrodo  1 - Cardioversor Camara Unica sem Electrodo  1 - Pacemaker Biventricular sem Electrodo,Ajuste Direto Regime Geral,Aquisição de bens móveis,"33000000-0, Equipamento médico, medicamentos e produtos para cuidados pessoais","Centro Hospitalar e Universitário de Coimbra, E.P.E. (510103448)",Boston Scientific portugal dispositivos médicos lda (504988964),"35.270,00 €",07-05-2013,21-04-2013,20 dias,"Portugal, Coimbra, Coimbra","Artigo 24.º, n.º 1, alínea e) do Código dos Contratos Públicos",,,,,,Não aplicável.,Não aplicável.,
1 PAR DE BOTAS ORTOPEDICAS,Ajuste Direto Regime Geral,Aquisição de bens móveis,"33000000-0, Equipamento médico, medicamentos e produtos para cuidados pessoais","Centro Hospitalar e Universitário de Coimbra, E.P.E. (510103448)","ORTODUQUE - INDUSTRIAS DE OROTESES E ORTOTESES, LDª (504022199)","150,00 €",03-05-2013,22-04-2013,60 dias,"Portugal, Coimbra, Coimbra","Artigo 20.º, n.º 1, alínea a) do Código dos Contratos Públicos",,,,,,Não aplicável.,Não aplicável.,
"Cardiodesfibrilhador CDI camara unica sem electrodo, 1 unidade",Ajuste Direto Regime Geral,Aquisição de bens móveis,"33000000-0, Equipamento médico, medicamentos e produtos para cuidados pessoais","Centro Hospitalar e Universitário de Coimbra, E.P.E. (510103448)","Medtronic Portugal - Comércio e Distribuição de Aparelhos Médicos, Lda (504223933)","14.000,00 €",02-05-2013,26-04-2013,20 dias,"Portugal, Coimbra, Coimbra","Artigo 24.º, n.º 1, alínea e) do Código dos Contratos Públicos",,,,,,Não aplicável.,Não aplicável.,
"Cardiodesfibrilhador CDI biventricular com electrodos, 1 unidade; Pacemaker boiventricular com electrodos, 1 unidade",Ajuste Direto Regime Geral,Aquisição de bens móveis,"33000000-0, Equipamento médico, medicamentos e produtos para cuidados pessoais","Centro Hospitalar e Universitário de Coimbra, E.P.E. (510103448)","Medtronic Portugal - Comércio e Distribuição de Aparelhos Médicos, Lda (504223933)","26.500,00 €",02-05-2013,24-04-2013,20 dias,"Portugal, Coimbra, Coimbra","Artigo 24.º, n.º 1, alínea e) do Código dos Contratos Públicos",,,,,,Não aplicável.,Não aplicável.,
"Cardiodesfibrilhador CDI biventricular sem electrodo,  1 unidade",Ajuste Direto Regime Geral,Aquisição de bens móveis,"33000000-0, Equipamento médico, medicamentos e produtos para cuidados pessoais","Centro Hospitalar e Universitário de Coimbra, E.P.E. (510103448)","Medtronic Portugal - Comércio e Distribuição de Aparelhos Médicos, Lda (504223933)","21.000,00 €",02-05-2013,26-04-2013,20 dias,"Portugal, Coimbra, Coimbra","Artigo 24.º, n.º 1, alínea e) do Código dos Contratos Públicos",,,,,,Não aplicável.,Não aplicável.,
"Cardiodesfibrilhador CDI camara unica sem electrodo, 1 unidade",Ajuste Direto Regime Geral,Aquisição de bens móveis,"33000000-0, Equipamento médico, medicamentos e produtos para cuidados pessoais","Centro Hospitalar e Universitário de Coimbra, E.P.E. (510103448)","Medtronic Portugal - Comércio e Distribuição de Aparelhos Médicos, Lda (504223933)","14.000,00 €",02-05-2013,24-04-2013,20 dias,"Portugal, Coimbra, Coimbra","Artigo 24.º, n.º 1, alínea e) do Código dos Contratos Públicos",,,,,,Não aplicável.,Não aplicável.,
