Objeto do Contrato,Tipo de Procedimento,Tipo(s) de Contrato,CPVs,Entidade(s) Adjudicante(s),Entidade(s) Adjudicatária(s),Preço Contratual,Data de Publicação,Data de Celebração do Contrato,Prazo de Execução,Local de Execução,Fundamentação,Data de Fecho do Contrato,Preço Total Efetivo,Causas das Alterações ao Prazo,Causas das Alterações ao Preço,Estado,N.º registo do Acordo Quadro,Descrição do Acordo Quadro,Procedimento Centralizado
"Aquisição de serviços de consultadoria jurídica para apoio à ACSS, IP na Preparação do lançamento de processo de parceria público-privado para os hospitais Cascais e Braga.",Ajuste Direto Regime Geral,Aquisição de serviços,"79111000-5, Serviços de assessoria jurídica","Administração Central do Sistema de Saúde, I. P. (508188423)",Cláudia Sofia Oliveira Dias Monge (217262147),"72.494,00 €",17-11-2016,07-11-2016,420 dias,"Portugal, Lisboa, Lisboa","Artigo 27.º, n.º 1, alínea b) do Código dos Contratos Públicos",29-12-2017,"23.529,54 €","",Valor executado.,,Não aplicável.,Não aplicável.,FALSE
"Avaliação da reforma dos cuidados de saúde primários centrada nos ganhos de economia, eficiência e eficácia resultantes da transformação de Unidades de Cuidados de Saúde Primários em Unidades de Saúde Familiares",Ajuste Direto Regime Geral,Aquisição de serviços,"72000000-5, Serviços de TI: consultoria, desenvolvimento de software, Internet e apoio","Administração Central do Sistema de Saúde, I. P. (508188423)",Escola Nacional  de Saúde  Pública (501399003),"25.100,00 €",15-11-2016,27-10-2016,180 dias,"Portugal, Lisboa, Lisboa","Artigo 20.º, n.º 1, alínea a) do Código dos Contratos Públicos",28-06-2018,"25.100,00 €",Prorrogação da execução do contrato.,"",,Não aplicável.,Não aplicável.,FALSE
