Objeto do Contrato,Tipo de Procedimento,Tipo(s) de Contrato,CPVs,Entidade(s) Adjudicante(s),Entidade(s) Adjudicatária(s),Preço Contratual,Data de Publicação,Data de Celebração do Contrato,Prazo de Execução,Local de Execução,Fundamentação,Data de Fecho do Contrato,Preço Total Efetivo,Causas das Alterações ao Prazo,Causas das Alterações ao Preço,Estado,N.º registo do Acordo Quadro,Descrição do Acordo Quadro,Procedimento Centralizado
Prestação serviços,Ajuste Direto Regime Geral,Aquisição de serviços,"85000000-9, Serviços de saúde e acção social",Centro Hospitalar Psiquiátrico de Lisboa (508338476),Vasco Manuel Inglez Marques Silva (163753610),"1.715,84 €",10-08-2017,09-06-2017,30 dias,"Portugal, Lisboa, Lisboa","Artigo 24.º, n.º 1, alínea c) do Código dos Contratos Públicos",30-06-2017,"1.715,84 €",,,,Não aplicável.,Não aplicável.,FALSE
Prestação Serviços,Ajuste Direto Regime Geral,Aquisição de serviços,"85000000-9, Serviços de saúde e acção social",Centro Hospitalar Psiquiátrico de Lisboa (508338476),Nuno Miguel Cruz Simão (213477963),"1.601,36 €",10-08-2017,09-06-2017,30 dias,"Portugal, Lisboa, Lisboa","Artigo 24.º, n.º 1, alínea c) do Código dos Contratos Públicos",30-06-2017,"1.601,36 €",,,,Não aplicável.,Não aplicável.,FALSE
Prestação Serviços,Ajuste Direto Regime Geral,Aquisição de serviços,"85000000-9, Serviços de saúde e acção social",Centro Hospitalar Psiquiátrico de Lisboa (508338476),Carla Sousa Coutinho (212670948),"650,59 €",10-08-2017,26-07-2017,30 dias,"Portugal, Lisboa, Lisboa","Artigo 24.º, n.º 1, alínea c) do Código dos Contratos Públicos",31-07-2017,"650,59 €",,,,Não aplicável.,Não aplicável.,FALSE
Prestação Serviços,Ajuste Direto Regime Geral,Aquisição de serviços,"85000000-9, Serviços de saúde e acção social",Centro Hospitalar Psiquiátrico de Lisboa (508338476),Nuno Miguel Cruz Simão (213477963),"1.601,36 €",10-08-2017,12-07-2017,30 dias,"Portugal, Lisboa, Lisboa","Artigo 24.º, n.º 1, alínea c) do Código dos Contratos Públicos",31-07-2017,"1.601,36 €",,,,Não aplicável.,Não aplicável.,FALSE
Prestação Serviços,Ajuste Direto Regime Geral,Aquisição de serviços,"85000000-9, Serviços de saúde e acção social",Centro Hospitalar Psiquiátrico de Lisboa (508338476),Vânia Fátima Ferreira Cardoso (230616615),"1.501,36 €",10-08-2017,12-07-2017,30 dias,"Portugal, Lisboa, Lisboa","Artigo 24.º, n.º 1, alínea c) do Código dos Contratos Públicos",31-07-2017,"1.501,36 €",,,,Não aplicável.,Não aplicável.,FALSE
Prestação Serviços,Ajuste Direto Regime Geral,Aquisição de serviços,"85000000-9, Serviços de saúde e acção social",Centro Hospitalar Psiquiátrico de Lisboa (508338476),Vasco Manuel Inglez Marques Silva (163753610),"1.715,84 €",10-08-2017,12-07-2017,30 dias,"Portugal, Lisboa, Lisboa","Artigo 24.º, n.º 1, alínea c) do Código dos Contratos Públicos",31-07-2017,"1.715,84 €",,,,Não aplicável.,Não aplicável.,FALSE
Prestação Serviços,Ajuste Direto Regime Geral,Aquisição de serviços,"85000000-9, Serviços de saúde e acção social",Centro Hospitalar Psiquiátrico de Lisboa (508338476),"GS24 - Healthcare Solutions, Lda (507824652)","1.424,14 €",10-08-2017,12-07-2017,30 dias,"Portugal, Lisboa, Lisboa","Artigo 24.º, n.º 1, alínea c) do Código dos Contratos Públicos",31-07-2017,"1.424,14 €",,,,Não aplicável.,Não aplicável.,FALSE
Prestação Serviços,Ajuste Direto Regime Geral,Aquisição de serviços,"85000000-9, Serviços de saúde e acção social",Centro Hospitalar Psiquiátrico de Lisboa (508338476),Bruno Manuel Romão Silva (216653037),"1.276,58 €",10-08-2017,12-07-2017,30 dias,"Portugal, Lisboa, Lisboa","Artigo 24.º, n.º 1, alínea c) do Código dos Contratos Públicos",31-07-2017,"1.276,58 €",,,,Não aplicável.,Não aplicável.,FALSE
Prestação Serviços,Ajuste Direto Regime Geral,Aquisição de serviços,"85000000-9, Serviços de saúde e acção social",Centro Hospitalar Psiquiátrico de Lisboa (508338476),David José Lucas Varela (244370176),"1.276,58 €",10-08-2017,12-07-2017,30 dias,"Portugal, Lisboa, Lisboa","Artigo 24.º, n.º 1, alínea c) do Código dos Contratos Públicos",31-07-2017,"1.276,58 €",,,,Não aplicável.,Não aplicável.,FALSE
Prestação Serviços,Ajuste Direto Regime Geral,Aquisição de serviços,"85000000-9, Serviços de saúde e acção social",Centro Hospitalar Psiquiátrico de Lisboa (508338476),Tânia Filipa Matos (226132730),"1.276,58 €",10-08-2017,12-07-2017,30 dias,"Portugal, Lisboa, Lisboa","Artigo 24.º, n.º 1, alínea c) do Código dos Contratos Públicos",31-07-2017,"1.276,58 €",,,,Não aplicável.,Não aplicável.,FALSE
Prestação Serviços,Ajuste Direto Regime Geral,Aquisição de serviços,"85000000-9, Serviços de saúde e acção social",Centro Hospitalar Psiquiátrico de Lisboa (508338476),Ana Rita Faustino da Silva Bonito (267148976),"1.276,58 €",09-08-2017,12-07-2017,30 dias,"Portugal, Lisboa, Lisboa","Artigo 24.º, n.º 1, alínea c) do Código dos Contratos Públicos",12-07-2017,"1.276,58 €",,,,Não aplicável.,Não aplicável.,FALSE
Prestação Serviços,Ajuste Direto Regime Geral,Aquisição de serviços,"85000000-9, Serviços de saúde e acção social",Centro Hospitalar Psiquiátrico de Lisboa (508338476),Ana Rita Teodoro Lourenço (211753335),"1.276,58 €",09-08-2017,12-07-2017,30 dias,"Portugal, Lisboa, Lisboa","Artigo 24.º, n.º 1, alínea c) do Código dos Contratos Públicos",31-07-2017,"1.276,58 €",,,,Não aplicável.,Não aplicável.,FALSE
Prestação Serviços,Ajuste Direto Regime Geral,Aquisição de serviços,"85000000-9, Serviços de saúde e acção social",Centro Hospitalar Psiquiátrico de Lisboa (508338476),Filipa Monteiro (245894004),"1.276,58 €",09-08-2017,12-07-2017,30 dias,"Portugal, Lisboa, Lisboa","Artigo 24.º, n.º 1, alínea c) do Código dos Contratos Públicos",31-07-2017,"1.276,58 €",,,,Não aplicável.,Não aplicável.,FALSE
Prestação serviços,Ajuste Direto Regime Geral,Aquisição de serviços,"85000000-9, Serviços de saúde e acção social",Centro Hospitalar Psiquiátrico de Lisboa (508338476),Carina Rodrigues (250126931),"1.276,58 €",09-08-2017,12-07-2017,30 dias,"Portugal, Lisboa, Lisboa","Artigo 24.º, n.º 1, alínea c) do Código dos Contratos Públicos",31-07-2017,"1.276,58 €",,,,Não aplicável.,Não aplicável.,FALSE
Prestação Serviços,Ajuste Direto Regime Geral,Aquisição de serviços,"85000000-9, Serviços de saúde e acção social",Centro Hospitalar Psiquiátrico de Lisboa (508338476),Tiago Miguel Oliveira (239186958),"1.276,58 €",09-08-2017,12-07-2017,30 dias,"Portugal, Lisboa, Lisboa","Artigo 24.º, n.º 1, alínea c) do Código dos Contratos Públicos",31-07-2017,"1.276,58 €",,,,Não aplicável.,Não aplicável.,FALSE
Prestação Serviços,Ajuste Direto Regime Geral,Aquisição de serviços,"85000000-9, Serviços de saúde e acção social",Centro Hospitalar Psiquiátrico de Lisboa (508338476),Ângela Maria Fernandes Calção (214112128),"1.276,58 €",09-08-2017,12-07-2017,30 dias,"Portugal, Lisboa, Lisboa","Artigo 24.º, n.º 1, alínea c) do Código dos Contratos Públicos",31-07-2017,"1.276,58 €",,,,Não aplicável.,Não aplicável.,FALSE
Prestação Serviços,Ajuste Direto Regime Geral,Aquisição de serviços,"85000000-9, Serviços de saúde e acção social",Centro Hospitalar Psiquiátrico de Lisboa (508338476),Patriicia Custodio Costa Pereira (214646548),"1.276,58 €",09-08-2017,12-07-2017,30 dias,"Portugal, Lisboa, Lisboa","Artigo 24.º, n.º 1, alínea c) do Código dos Contratos Públicos",31-07-2017,"1.276,58 €",,,,Não aplicável.,Não aplicável.,FALSE
Prestação Serviços,Ajuste Direto Regime Geral,Aquisição de serviços,"85000000-9, Serviços de saúde e acção social",Centro Hospitalar Psiquiátrico de Lisboa (508338476),Ana Raquel Mirinha Gila (245434674),"1.276,58 €",09-08-2017,12-07-2017,30 dias,"Portugal, Lisboa, Lisboa","Artigo 24.º, n.º 1, alínea c) do Código dos Contratos Públicos",31-07-2017,"1.276,58 €",,,,Não aplicável.,Não aplicável.,FALSE
Prestação Serviços,Ajuste Direto Regime Geral,Aquisição de serviços,"85000000-9, Serviços de saúde e acção social",Centro Hospitalar Psiquiátrico de Lisboa (508338476),Andreia Filipa Neves Barreto (268427437),"1.276,58 €",09-08-2017,12-07-2017,30 dias,"Portugal, Lisboa, Lisboa","Artigo 24.º, n.º 1, alínea c) do Código dos Contratos Públicos",31-07-2017,"1.276,58 €",,,,Não aplicável.,Não aplicável.,FALSE
Prestação Serviços,Ajuste Direto Regime Geral,Aquisição de serviços,"85000000-9, Serviços de saúde e acção social",Centro Hospitalar Psiquiátrico de Lisboa (508338476),Ana Sofia Monteiro Mendes (267152213),"1.276,58 €",09-08-2017,12-07-2017,30 dias,"Portugal, Lisboa, Lisboa","Artigo 24.º, n.º 1, alínea c) do Código dos Contratos Públicos",31-07-2017,"1.276,58 €",,,,Não aplicável.,Não aplicável.,FALSE
Prestação Serviços,Ajuste Direto Regime Geral,Aquisição de serviços,"85000000-9, Serviços de saúde e acção social",Centro Hospitalar Psiquiátrico de Lisboa (508338476),Andreia Catarina Pereira de Sousa (226859541),"1.276,58 €",08-08-2017,12-07-2017,30 dias,"Portugal, Lisboa, Lisboa","Artigo 24.º, n.º 1, alínea c) do Código dos Contratos Públicos",31-07-2017,"1.276,58 €",,,,Não aplicável.,Não aplicável.,FALSE
Prestação serviços,Ajuste Direto Regime Geral,Aquisição de serviços,"85000000-9, Serviços de saúde e acção social",Centro Hospitalar Psiquiátrico de Lisboa (508338476),Ana Raquel Lopes Costa (211600504),"1.276,58 €",08-08-2017,12-07-2017,30 dias,"Portugal, Lisboa, Lisboa","Artigo 24.º, n.º 1, alínea c) do Código dos Contratos Públicos",31-07-2017,"1.276,58 €",,,,Não aplicável.,Não aplicável.,FALSE
Prestação Serviços,Ajuste Direto Regime Geral,Aquisição de serviços,"85000000-9, Serviços de saúde e acção social",Centro Hospitalar Psiquiátrico de Lisboa (508338476),Sara Isabel Ribeiro Amaral (219733104),"1.422,47 €",08-08-2017,12-07-2017,30 dias,"Portugal, Lisboa, Lisboa","Artigo 24.º, n.º 1, alínea c) do Código dos Contratos Públicos",31-07-2017,"1.422,47 €",,,,Não aplicável.,Não aplicável.,FALSE
Prestação Serviços,Ajuste Direto Regime Geral,Aquisição de serviços,"85000000-9, Serviços de saúde e acção social",Centro Hospitalar Psiquiátrico de Lisboa (508338476),Ana Maria Morais Sarmento Augusto (225840022),"1.166,10 €",07-08-2017,05-04-2017,30 dias,"Portugal, Lisboa, Lisboa","Artigo 24.º, n.º 1, alínea c) do Código dos Contratos Públicos",30-04-2017,"1.166,10 €",,,,Não aplicável.,Não aplicável.,FALSE
Prestação serviços,Ajuste Direto Regime Geral,Aquisição de serviços,"85000000-9, Serviços de saúde e acção social",Centro Hospitalar Psiquiátrico de Lisboa (508338476),Claudia Batista (229060722),"1.166,10 €",07-08-2017,05-04-2017,30 dias,"Portugal, Lisboa, Lisboa","Artigo 24.º, n.º 1, alínea c) do Código dos Contratos Públicos",30-04-2017,"1.166,10 €",,,,Não aplicável.,Não aplicável.,FALSE
Prestação serviços,Ajuste Direto Regime Geral,Aquisição de serviços,"85000000-9, Serviços de saúde e acção social",Centro Hospitalar Psiquiátrico de Lisboa (508338476),Claudia Sofia Ferraz Soares (254299202),"1.166,10 €",07-08-2017,05-04-2017,30 dias,"Portugal, Lisboa, Lisboa","Artigo 24.º, n.º 1, alínea c) do Código dos Contratos Públicos",30-04-2017,"1.166,10 €",,,,Não aplicável.,Não aplicável.,FALSE
Prestação serviços,Ajuste Direto Regime Geral,Aquisição de serviços,"85000000-9, Serviços de saúde e acção social",Centro Hospitalar Psiquiátrico de Lisboa (508338476),Ana Lídia Franganito (269009400),"1.166,10 €",07-08-2017,05-04-2017,30 dias,"Portugal, Lisboa, Lisboa","Artigo 24.º, n.º 1, alínea c) do Código dos Contratos Públicos",30-04-2017,"1.166,10 €",,,,Não aplicável.,Não aplicável.,FALSE
Prestação serviços,Ajuste Direto Regime Geral,Aquisição de serviços,"85000000-9, Serviços de saúde e acção social",Centro Hospitalar Psiquiátrico de Lisboa (508338476),Ana Maria Morais Sarmento Augusto (225840022),"1.166,10 €",07-08-2017,09-05-2017,30 dias,"Portugal, Lisboa, Lisboa","Artigo 24.º, n.º 1, alínea c) do Código dos Contratos Públicos",31-05-2017,"1.166,10 €",,,,Não aplicável.,Não aplicável.,FALSE
Prestação Serviços,Ajuste Direto Regime Geral,Aquisição de serviços,"85000000-9, Serviços de saúde e acção social",Centro Hospitalar Psiquiátrico de Lisboa (508338476),Claudia Batista (229060722),"1.166,10 €",07-08-2017,09-05-2017,30 dias,"Portugal, Lisboa, Lisboa","Artigo 24.º, n.º 1, alínea c) do Código dos Contratos Públicos",31-05-2017,"1.166,10 €",,,,Não aplicável.,Não aplicável.,FALSE
Prestação Serviços,Ajuste Direto Regime Geral,Aquisição de serviços,"85000000-9, Serviços de saúde e acção social",Centro Hospitalar Psiquiátrico de Lisboa (508338476),Claudia Sofia Ferraz Soares (254299202),"1.166,10 €",07-08-2017,09-05-2017,30 dias,"Portugal, Lisboa, Lisboa","Artigo 24.º, n.º 1, alínea c) do Código dos Contratos Públicos",31-05-2017,"1.166,10 €",,,,Não aplicável.,Não aplicável.,FALSE
Prestação serviços,Ajuste Direto Regime Geral,Aquisição de serviços,"85000000-9, Serviços de saúde e acção social",Centro Hospitalar Psiquiátrico de Lisboa (508338476),Ana Lídia Franganito (269009400),"1.166,10 €",07-08-2017,09-05-2017,30 dias,"Portugal, Lisboa, Lisboa","Artigo 24.º, n.º 1, alínea c) do Código dos Contratos Públicos",31-05-2017,"1.166,10 €",,,,Não aplicável.,Não aplicável.,FALSE
Prestação Serviços,Ajuste Direto Regime Geral,Aquisição de serviços,"85000000-9, Serviços de saúde e acção social",Centro Hospitalar Psiquiátrico de Lisboa (508338476),Ana Lídia Franganito (269009400),"1.166,10 €",07-08-2017,09-06-2017,30 dias,"Portugal, Lisboa, Lisboa","Artigo 24.º, n.º 1, alínea c) do Código dos Contratos Públicos",30-06-2017,"1.166,10 €",,,,Não aplicável.,Não aplicável.,FALSE
Prestação Serviços,Ajuste Direto Regime Geral,Aquisição de serviços,"85000000-9, Serviços de saúde e acção social",Centro Hospitalar Psiquiátrico de Lisboa (508338476),Claudia Batista (229060722),"1.166,10 €",07-08-2017,09-06-2017,30 dias,"Portugal, Lisboa, Lisboa","Artigo 24.º, n.º 1, alínea c) do Código dos Contratos Públicos",30-06-2017,"1.166,10 €",,,,Não aplicável.,Não aplicável.,FALSE
Prestação serviços,Ajuste Direto Regime Geral,Aquisição de serviços,"85000000-9, Serviços de saúde e acção social",Centro Hospitalar Psiquiátrico de Lisboa (508338476),Claudia Sofia Ferraz Soares (254299202),"1.166,10 €",07-08-2017,09-06-2017,30 dias,"Portugal, Lisboa, Lisboa","Artigo 24.º, n.º 1, alínea c) do Código dos Contratos Públicos",30-06-2017,"1.166,10 €",,,,Não aplicável.,Não aplicável.,FALSE
Prestação Serviços,Ajuste Direto Regime Geral,Aquisição de serviços,"85000000-9, Serviços de saúde e acção social",Centro Hospitalar Psiquiátrico de Lisboa (508338476),Ana Maria Morais Sarmento Augusto (225840022),"1.166,10 €",07-08-2017,09-06-2017,30 dias,"Portugal, Lisboa, Lisboa","Artigo 24.º, n.º 1, alínea c) do Código dos Contratos Públicos",09-06-2017,"1.166,10 €",,,,Não aplicável.,Não aplicável.,FALSE
Prestação serviços,Ajuste Direto Regime Geral,Aquisição de serviços,"85000000-9, Serviços de saúde e acção social",Centro Hospitalar Psiquiátrico de Lisboa (508338476),Ana Maria Morais Sarmento Augusto (225840022),"1.166,10 €",07-08-2017,12-07-2017,30 dias,"Portugal, Lisboa, Lisboa","Artigo 24.º, n.º 1, alínea c) do Código dos Contratos Públicos",31-07-2017,"1.166,10 €",,,,Não aplicável.,Não aplicável.,FALSE
Prestação Serviços,Ajuste Direto Regime Geral,Aquisição de serviços,"85000000-9, Serviços de saúde e acção social",Centro Hospitalar Psiquiátrico de Lisboa (508338476),Claudia Batista (229060722),"1.166,10 €",07-08-2017,12-07-2017,30 dias,"Portugal, Lisboa, Lisboa","Artigo 24.º, n.º 1, alínea c) do Código dos Contratos Públicos",31-07-2017,"1.166,10 €",,,,Não aplicável.,Não aplicável.,FALSE
Prestação Serviços,Ajuste Direto Regime Geral,Aquisição de serviços,"85000000-9, Serviços de saúde e acção social",Centro Hospitalar Psiquiátrico de Lisboa (508338476),Claudia Sofia Ferraz Soares (254299202),"1.166,10 €",07-08-2017,12-07-2017,30 dias,"Portugal, Lisboa, Lisboa","Artigo 24.º, n.º 1, alínea c) do Código dos Contratos Públicos",31-07-2017,"1.166,10 €",,,,Não aplicável.,Não aplicável.,FALSE
Prestação Serviços,Ajuste Direto Regime Geral,Aquisição de serviços,"85000000-9, Serviços de saúde e acção social",Centro Hospitalar Psiquiátrico de Lisboa (508338476),Ana Lídia Franganito (269009400),"1.166,10 €",07-08-2017,12-07-2017,30 dias,"Portugal, Lisboa, Lisboa","Artigo 24.º, n.º 1, alínea c) do Código dos Contratos Públicos",31-07-2017,"1.166,10 €",,,,Não aplicável.,Não aplicável.,FALSE
Prestação Serviços,Ajuste Direto Regime Geral,Aquisição de serviços,"85000000-9, Serviços de saúde e acção social",Centro Hospitalar Psiquiátrico de Lisboa (508338476),Ana Maria Morais Sarmento Augusto (225840022),"1.166,10 €",07-08-2017,30-12-2016,30 dias,"Portugal, Lisboa, Lisboa","Artigo 24.º, n.º 1, alínea c) do Código dos Contratos Públicos",31-01-2017,"1.166,10 €",,,,Não aplicável.,Não aplicável.,FALSE
Prestação Serviços,Ajuste Direto Regime Geral,Aquisição de serviços,"85000000-9, Serviços de saúde e acção social",Centro Hospitalar Psiquiátrico de Lisboa (508338476),Claudia Batista (229060722),"1.166,10 €",07-08-2017,30-12-2016,30 dias,"Portugal, Lisboa, Lisboa","Artigo 24.º, n.º 1, alínea d) do Código dos Contratos Públicos",31-01-2017,"1.166,10 €",,,,Não aplicável.,Não aplicável.,FALSE
Prestação Serviços,Ajuste Direto Regime Geral,Aquisição de serviços,"85000000-9, Serviços de saúde e acção social",Centro Hospitalar Psiquiátrico de Lisboa (508338476),Claudia Sofia Ferraz Soares (254299202),"1.166,10 €",07-08-2017,30-12-2016,30 dias,"Portugal, Lisboa, Lisboa","Artigo 24.º, n.º 1, alínea c) do Código dos Contratos Públicos",31-01-2017,"1.166,10 €",,,,Não aplicável.,Não aplicável.,FALSE
Prestação Serviços,Ajuste Direto Regime Geral,Aquisição de serviços,"85000000-9, Serviços de saúde e acção social",Centro Hospitalar Psiquiátrico de Lisboa (508338476),Filipa Ferreira Fachina (235176320),"1.166,10 €",07-08-2017,30-12-2016,30 dias,"Portugal, Lisboa, Lisboa","Artigo 24.º, n.º 1, alínea c) do Código dos Contratos Públicos",31-01-2017,"1.166,10 €",,,,Não aplicável.,Não aplicável.,FALSE
Prestação serviços,Ajuste Direto Regime Geral,Aquisição de serviços,"85000000-9, Serviços de saúde e acção social",Centro Hospitalar Psiquiátrico de Lisboa (508338476),Ana Maria Morais Sarmento Augusto (225840022),"1.166,10 €",04-08-2017,21-02-2017,30 dias,"Portugal, Lisboa, Lisboa","Artigo 24.º, n.º 1, alínea c) do Código dos Contratos Públicos",28-02-2017,"1.166,10 €",,,,Não aplicável.,Não aplicável.,FALSE
Prestação serviços,Ajuste Direto Regime Geral,Aquisição de serviços,"85000000-9, Serviços de saúde e acção social",Centro Hospitalar Psiquiátrico de Lisboa (508338476),Claudia Batista (229060722),"1.166,10 €",04-08-2017,21-02-2017,30 dias,"Portugal, Lisboa, Lisboa","Artigo 24.º, n.º 1, alínea c) do Código dos Contratos Públicos",28-02-2017,"1.166,10 €",,,,Não aplicável.,Não aplicável.,FALSE
Prestação serviços,Ajuste Direto Regime Geral,Aquisição de serviços,"85000000-9, Serviços de saúde e acção social",Centro Hospitalar Psiquiátrico de Lisboa (508338476),Claudia Sofia Ferraz Soares (254299202),"1.166,10 €",04-08-2017,21-02-2017,30 dias,"Portugal, Lisboa, Lisboa","Artigo 24.º, n.º 1, alínea c) do Código dos Contratos Públicos",21-02-2017,"1.166,10 €",,,,Não aplicável.,Não aplicável.,FALSE
Prestação serviços,Ajuste Direto Regime Geral,Aquisição de serviços,"85000000-9, Serviços de saúde e acção social",Centro Hospitalar Psiquiátrico de Lisboa (508338476),Filipa Ferreira Fachina (235176320),"1.166,10 €",04-08-2017,21-02-2017,30 dias,"Portugal, Lisboa, Lisboa","Artigo 24.º, n.º 1, alínea c) do Código dos Contratos Públicos",21-02-2017,"1.166,10 €",,,,Não aplicável.,Não aplicável.,FALSE
Prestação Serviços,Ajuste Direto Regime Geral,Aquisição de serviços,"85000000-9, Serviços de saúde e acção social",Centro Hospitalar Psiquiátrico de Lisboa (508338476),Ana Lídia Franganito (269009400),"1.166,10 €",04-08-2017,07-03-2017,30 dias,"Portugal, Lisboa, Lisboa","Artigo 24.º, n.º 1, alínea c) do Código dos Contratos Públicos",31-03-2017,"1.166,10 €",,,,Não aplicável.,Não aplicável.,FALSE
Prestação Serviços,Ajuste Direto Regime Geral,Aquisição de serviços,"85000000-9, Serviços de saúde e acção social",Centro Hospitalar Psiquiátrico de Lisboa (508338476),Claudia Sofia Ferraz Soares (254299202),"1.166,10 €",04-08-2017,07-03-2017,30 dias,"Portugal, Lisboa, Lisboa","Artigo 24.º, n.º 1, alínea c) do Código dos Contratos Públicos",31-03-2017,"1.166,10 €",,,,Não aplicável.,Não aplicável.,FALSE
Prestação serviços,Ajuste Direto Regime Geral,Aquisição de serviços,"85000000-9, Serviços de saúde e acção social",Centro Hospitalar Psiquiátrico de Lisboa (508338476),Claudia Batista (229060722),"1.166,10 €",04-08-2017,07-03-2017,30 dias,"Portugal, Lisboa, Lisboa","Artigo 24.º, n.º 1, alínea c) do Código dos Contratos Públicos",31-03-2017,"1.166,10 €",,,,Não aplicável.,Não aplicável.,FALSE
Prestação Serviços,Ajuste Direto Regime Geral,Aquisição de serviços,"85000000-9, Serviços de saúde e acção social",Centro Hospitalar Psiquiátrico de Lisboa (508338476),Ana Maria Morais Sarmento Augusto (225840022),"1.166,10 €",04-08-2017,07-03-2017,30 dias,"Portugal, Lisboa, Lisboa","Artigo 24.º, n.º 1, alínea c) do Código dos Contratos Públicos",31-03-2017,"1.166,10 €",,,,Não aplicável.,Não aplicável.,FALSE
Prestação Serviços,Ajuste Direto Regime Geral,Aquisição de serviços,"85000000-9, Serviços de saúde e acção social",Centro Hospitalar Psiquiátrico de Lisboa (508338476),Carla Sousa Coutinho (212670948),"1.501,36 €",04-08-2017,30-12-2016,30 dias,"Portugal, Lisboa, Lisboa","Artigo 24.º, n.º 1, alínea c) do Código dos Contratos Públicos",31-01-2017,"1.501,36 €",,,,Não aplicável.,Não aplicável.,FALSE
Prestação Serviços,Ajuste Direto Regime Geral,Aquisição de serviços,"85000000-9, Serviços de saúde e acção social",Centro Hospitalar Psiquiátrico de Lisboa (508338476),Nuno Miguel Cruz Simão (213477963),"1.601,36 €",03-08-2017,30-12-2016,30 dias,"Portugal, Lisboa, Lisboa","Artigo 24.º, n.º 1, alínea c) do Código dos Contratos Públicos",31-01-2017,"1.601,36 €",,,,Não aplicável.,Não aplicável.,FALSE
Prestação Serviços,Ajuste Direto Regime Geral,Aquisição de serviços,"85000000-9, Serviços de saúde e acção social",Centro Hospitalar Psiquiátrico de Lisboa (508338476),Vânia Fátima Ferreira Cardoso (230616615),"1.501,36 €",03-08-2017,30-12-2016,30 dias,"Portugal, Lisboa, Lisboa","Artigo 24.º, n.º 1, alínea c) do Código dos Contratos Públicos",31-01-2017,"1.501,36 €",,,,Não aplicável.,Não aplicável.,FALSE
Prestação serviços,Ajuste Direto Regime Geral,Aquisição de serviços,"85000000-9, Serviços de saúde e acção social",Centro Hospitalar Psiquiátrico de Lisboa (508338476),Vasco Manuel Inglez Marques Silva (163753610),"1.801,63 €",03-08-2017,30-12-2016,30 dias,"Portugal, Lisboa, Lisboa","Artigo 24.º, n.º 1, alínea c) do Código dos Contratos Públicos",31-01-2017,"1.801,63 €",,,,Não aplicável.,Não aplicável.,FALSE
Prestação serviços,Ajuste Direto Regime Geral,Aquisição de serviços,"85000000-9, Serviços de saúde e acção social",Centro Hospitalar Psiquiátrico de Lisboa (508338476),Carla Sousa Coutinho (212670948),"1.501,36 €",03-08-2017,21-02-2017,30 dias,"Portugal, Lisboa, Lisboa","Artigo 24.º, n.º 1, alínea c) do Código dos Contratos Públicos",28-02-2017,"1.501,36 €",,,,Não aplicável.,Não aplicável.,FALSE
Prestação Serviços,Ajuste Direto Regime Geral,Aquisição de serviços,"85000000-9, Serviços de saúde e acção social",Centro Hospitalar Psiquiátrico de Lisboa (508338476),Nuno Miguel Cruz Simão (213477963),"1.601,36 €",03-08-2017,21-02-2017,30 dias,"Portugal, Lisboa, Lisboa","Artigo 24.º, n.º 1, alínea c) do Código dos Contratos Públicos",28-02-2017,"1.601,36 €",,,,Não aplicável.,Não aplicável.,FALSE
Prestação Serviços,Ajuste Direto Regime Geral,Aquisição de serviços,"85000000-9, Serviços de saúde e acção social",Centro Hospitalar Psiquiátrico de Lisboa (508338476),Vânia Fátima Ferreira Cardoso (230616615),"1.501,36 €",01-08-2017,21-02-2017,30 dias,"Portugal, Lisboa, Lisboa","Artigo 24.º, n.º 1, alínea c) do Código dos Contratos Públicos",28-02-2017,"1.501,36 €",,,,Não aplicável.,Não aplicável.,FALSE
Prestação Serviços,Ajuste Direto Regime Geral,Aquisição de serviços,"85000000-9, Serviços de saúde e acção social",Centro Hospitalar Psiquiátrico de Lisboa (508338476),Vasco Manuel Inglez Marques Silva (163753610),"1.801,63 €",01-08-2017,21-02-2017,30 dias,"Portugal, Lisboa, Lisboa","Artigo 24.º, n.º 1, alínea c) do Código dos Contratos Públicos",28-02-2017,"1.801,63 €",,,,Não aplicável.,Não aplicável.,FALSE
Prestação Serviços,Ajuste Direto Regime Geral,Aquisição de serviços,"85000000-9, Serviços de saúde e acção social",Centro Hospitalar Psiquiátrico de Lisboa (508338476),Carla Sousa Coutinho (212670948),"1.501,36 €",01-08-2017,07-03-2017,30 dias,"Portugal, Lisboa, Lisboa","Artigo 24.º, n.º 1, alínea c) do Código dos Contratos Públicos",31-03-2017,"1.501,36 €",,,,Não aplicável.,Não aplicável.,FALSE
Prestação serviços,Ajuste Direto Regime Geral,Aquisição de serviços,"85000000-9, Serviços de saúde e acção social",Centro Hospitalar Psiquiátrico de Lisboa (508338476),Nuno Miguel Cruz Simão (213477963),"1.601,36 €",01-08-2017,07-03-2017,30 dias,"Portugal, Lisboa, Lisboa","Artigo 24.º, n.º 1, alínea c) do Código dos Contratos Públicos",31-03-2017,"1.601,36 €",,,,Não aplicável.,Não aplicável.,FALSE
Prestação Serviços,Ajuste Direto Regime Geral,Aquisição de serviços,"85000000-9, Serviços de saúde e acção social",Centro Hospitalar Psiquiátrico de Lisboa (508338476),Vânia Fátima Ferreira Cardoso (230616615),"1.501,36 €",01-08-2017,07-03-2017,30 dias,"Portugal, Lisboa, Lisboa","Artigo 24.º, n.º 1, alínea c) do Código dos Contratos Públicos",31-03-2017,"1.501,36 €",,,,Não aplicável.,Não aplicável.,FALSE
Prestação Serviços,Ajuste Direto Regime Geral,Aquisição de serviços,"85000000-9, Serviços de saúde e acção social",Centro Hospitalar Psiquiátrico de Lisboa (508338476),Vasco Manuel Inglez Marques Silva (163753610),"1.801,63 €",01-08-2017,07-03-2017,30 dias,"Portugal, Lisboa, Lisboa","Artigo 24.º, n.º 1, alínea c) do Código dos Contratos Públicos",31-03-2017,"1.801,63 €",,,,Não aplicável.,Não aplicável.,FALSE
