Objeto do Contrato,Tipo de Procedimento,Tipo(s) de Contrato,CPVs,Entidade(s) Adjudicante(s),Entidade(s) Adjudicatária(s),Preço Contratual,Data de Publicação,Data de Celebração do Contrato,Prazo de Execução,Local de Execução,Fundamentação,Data de Fecho do Contrato,Preço Total Efetivo,Causas das Alterações ao Prazo,Causas das Alterações ao Preço,Estado,N.º registo do Acordo Quadro,Descrição do Acordo Quadro,Procedimento Centralizado
"Aquisição de Periféricos e Componentes ( Memorias, UPs's e Switchs) ",Ajuste Direto Regime Geral,Aquisição de bens móveis,"30232000-4, Equipamento periférico","Administração Regional de Saúde do Norte, I. P. (503135593)","ITEN Solutions - Sistemas de Informação, SA (510728189)","45.874,50 €",08-07-2016,19-05-2016,30 dias,"Portugal, Porto, Porto","Artigo 20.º, n.º 1, alínea a) do Código dos Contratos Públicos",07-06-2016,"45.874,50 €",,,,Não aplicável.,Não aplicável.,FALSE
"Intervenção arbórea - abate de palmeiras - Avenida da Boavista, 2483-2521  ",Ajuste Direto Regime Geral,Aquisição de serviços,"77211400-6, Serviços de abate de árvores","Administração Regional de Saúde do Norte, I. P. (503135593)","Abílio Jorge Carvalho dos Santos, Unipessoal Lda  (513812083)","6.125,00 €",05-07-2016,23-05-2016,30 dias,"Portugal, Porto, Porto","Artigo 20.º, n.º 1, alínea a) do Código dos Contratos Públicos",23-06-2016,"6.125,00 €",,,,Não aplicável.,Não aplicável.,FALSE
AP1144 - Aquisição de 70 ampolas de Brometo de rocurónio 10 mg/ml Sol inj Fr 5 ml IV,Ao abrigo de acordo-quadro (art.º 259.º),Aquisição de bens móveis,"33600000-6, Produtos farmacêuticos","Administração Regional de Saúde do Norte, I. P. (503135593)",FRESENIUS K.P. PORTUGAL (504293753),"129,50 €",05-07-2016,04-07-2016,180 dias,"Portugal, Porto, Maia<BR/>Portugal, Vila Real, Vila Real",Artigo 259.º do Código dos Contratos Públicos,06-07-2016,"129,50 €",,,,1179911,"CONCURSO PÚBLICO PARA A CELEBRAÇÃO DE CONTRATOS PÚBLICOS DE APROVISIONAMENTO PARA A ÁREA DA SAÚDE, MEDICAMENTOS DO SISTEMA NERVOSO CEREBROSPINAL, EXCETO: ANESTÉSICOS, RELAXANTES MUSCULARES, ANALGÉSICOS, ANTIPIRÉTICOS, ANTIDEPRESSORES E ANTIPSICÓTICOS, ÀS INSTITUIÇÕES E SERVIÇOS DO SERVIÇO NACIONAL DE SAÚDE",FALSE
AP 489 - Aquisição de 3 000 Envelope D/L (220mmX110mm) - CIMGF s/janela c/ tx paga;  3 000 Envelope C4 (324mmx229mm) - CIMGF c/ taxa paga; 70 000 Envelope C4 (324mmX229mm) - Economato Geral; 150 000 Envelope C5 (162mmX229mm) - Economato geral; 200 000 Envelope D/L(220mmx110mm) Economato Geral - c/ Tx pg; 3 000 Envelope C5(162mmx229mm) - CIMGF taxa paga e 2 000 Envelope D/L(220mmx110mm) - CIMGF - c/j Tx pg,Ajuste Direto Regime Geral,Aquisição de bens móveis,"30199000-0, Artigos de papelaria e outros artigos de papel","Administração Regional de Saúde do Norte, I. P. (503135593)","PAPELMUNDE SOC MAT GRAFICO, LDA (501555315)","18.511,50 €",05-07-2016,16-05-2016,180 dias,"Portugal, Porto, Maia<BR/>Portugal, Vila Real, Vila Real","Artigo 20.º, n.º 1, alínea a) do Código dos Contratos Públicos",30-09-2016,"18.511,50 €",,,,Não aplicável.,Não aplicável.,FALSE
"Aquisição de 429 600 lancetas automática punção capilar, irrecuperável (Diabético)",Ao abrigo de acordo-quadro (art.º 259.º),Aquisição de bens móveis,"33600000-6, Produtos farmacêuticos","Administração Regional de Saúde do Norte,IP (ARSN) (503135593)","SARSTED, LDA (503019461)","18.021,72 €",05-07-2016,24-06-2016,180 dias,"Portugal, Porto, Maia<BR/>Portugal, Vila Real, Vila Real",Artigo 259.º do Código dos Contratos Públicos,15-11-2016,"18.021,72 €",,,,611510,"CONCURSO PÚBLICO PARA A CELEBRAÇÃO DE CONTRATOS PÚBLICOS DE APROVISIONAMENTO PARA A ÁREA DA SAÚDE, COM VISTA AO FORNECIMENTO DE MATERIAL DE PREVENÇÃO E DETEÇÃO HIV ÀS INSTITUIÇÕES E SERVIÇOS DO SERVIÇO NACIONAL DE SAÚDE",FALSE
Aquisição do Lote nº 4,Ajuste Direto Regime Geral,Aquisição de bens móveis,"33600000-6, Produtos farmacêuticos","Administração Regional de Saúde do Norte,IP (ARSN) (503135593)",O M PHARMA (500207410),"26,46 €",05-07-2016,30-06-2016,180 dias,"Portugal, Vila Real, Vila Real<BR/>Portugal, Porto, Maia","Artigo 20.º, n.º 1, alínea a) do Código dos Contratos Públicos",08-07-2016,"26,46 €",,,,Não aplicável.,Não aplicável.,FALSE
Aquisição do Lote nº 2,Ajuste Direto Regime Geral,Aquisição de bens móveis,"33600000-6, Produtos farmacêuticos","Administração Regional de Saúde do Norte,IP (ARSN) (503135593)","Lusomedicamenta, Soc. Técnica (507150473)","84,10 €",05-07-2016,29-06-2016,180 dias,"Portugal, Porto, Maia<BR/>Portugal, Vila Real, Vila Real","Artigo 20.º, n.º 1, alínea a) do Código dos Contratos Públicos",07-10-2016,"84,10 €",,,,Não aplicável.,Não aplicável.,FALSE
Aquisição do Lote nº 1,Ajuste Direto Regime Geral,Aquisição de bens móveis,"33600000-6, Produtos farmacêuticos","Administração Regional de Saúde do Norte,IP (ARSN) (503135593)","UCB PHARMA, LDA (500291322)","56,96 €",05-07-2016,30-06-2016,180 dias,"Portugal, Vila Real, Vila Real<BR/>Portugal, Porto, Maia","Artigo 20.º, n.º 1, alínea a) do Código dos Contratos Públicos",06-10-2016,"56,96 €",,,,Não aplicável.,Não aplicável.,FALSE
Aquisição do Lote 1,Concurso público,Aquisição de bens móveis,"33140000-3, Material médico de consumo","Administração Regional de Saúde do Norte, I. P. (503135593)","VIRTUOSO, Lda (510113923)","136.800,00 €",04-07-2016,30-05-2016,180 dias,"Portugal, Vila Real, Vila Real<BR/>Portugal, Porto, Maia",Artigo 155.º do Código dos Contratos Públicos,26-12-2016,"136.800,00 €",,,,Não aplicável.,Não aplicável.,FALSE
Aquisição do Lote 4,Concurso público,Aquisição de bens móveis,"33140000-3, Material médico de consumo","Administração Regional de Saúde do Norte, I. P. (503135593)","PROFAME - P- Hosp. F. Medic, Lda (501891145)","903,00 €",04-07-2016,31-05-2016,180 dias,"Portugal, Vila Real, Vila Real<BR/>Portugal, Porto, Maia",Artigo 155.º do Código dos Contratos Públicos,22-08-2016,"903,00 €",,,,Não aplicável.,Não aplicável.,FALSE
AP 2906 - 15007166 -,Concurso público,Aquisição de bens móveis,"33140000-3, Material médico de consumo","Administração Regional de Saúde do Norte, I. P. (503135593)","BRAMEDICAFISIO, Lda (508560152)","2.303,00 €",04-07-2016,30-05-2016,180 dias,"Portugal, Porto, Maia<BR/>Portugal, Vila Real, Vila Real",Artigo 155.º do Código dos Contratos Públicos,29-09-2016,"2.303,00 €",,,,Não aplicável.,Não aplicável.,FALSE
