Objeto do Contrato,Tipo de Procedimento,Tipo(s) de Contrato,CPVs,Entidade(s) Adjudicante(s),Entidade(s) Adjudicatária(s),Preço Contratual,Data de Publicação,Data de Celebração do Contrato,Prazo de Execução,Local de Execução,Fundamentação,Data de Fecho do Contrato,Preço Total Efetivo,Causas das Alterações ao Prazo,Causas das Alterações ao Preço,Estado,N.º registo do Acordo Quadro,Descrição do Acordo Quadro,Procedimento Centralizado
Aquisição de equipamento informático periféricos e acessórios ao abrigo do Lote 29 AQ P259-2017UMC026,Ao abrigo de acordo-quadro (art.º 259.º),Aquisição de bens móveis,"30232000-4, Equipamento periférico","Instituto Nacional de Saúde Doutor Ricardo Jorge, I. P. (501427511)","EDNI - EMPRESA DISTRIBUIDORA DE MATERIAL INFORMÁTICO, LDA (503258121)","138,39 €",21-09-2017,18-08-2017,30 dias,"Portugal, Lisboa, Lisboa",Artigo 259.º do Código dos Contratos Públicos,"","",Não entrega do material no prazo estipulado,Não entrega do material no prazo estipulado,,1196657,Acordo Quadro para aquisição e aluguer operacional de equipamento informático,FALSE
20170591 - Aquisição de lamelas circulares,Ajuste Direto Regime Geral,Aquisição de bens móveis,"33140000-3, Material médico de consumo","Instituto Nacional de Saúde Doutor Ricardo Jorge, I. P. (501427511)",KC Denmark (DK 29619662),"295,00 €",20-09-2017,11-09-2017,60 dias,"Portugal, Lisboa, Lisboa","Artigo 24.º, n.º 1, alínea e) do Código dos Contratos Públicos",18-09-2017,"295,00 €","","",,Não aplicável.,Não aplicável.,FALSE
"FORNECIMENTO DE CONSUMÍVEIS DE CASA DE BANHO, AO ABRIGO DO LOTE 3 PARA O INSTITUTO NACIONAL DE SAÚDE DR. RICARDO JORGE, I.P. - P259_2017UMC013",Ao abrigo de acordo-quadro (art.º 259.º),Aquisição de bens móveis,"33760000-5, Papel higiénico, lenços, toalhas de mão e guardanapos","Instituto Nacional de Saúde Doutor Ricardo Jorge, I. P. (501427511)",Servisan (500246530),"3.213,83 €",16-09-2017,18-07-2017,107 dias,"Portugal, Lisboa, Lisboa<BR/>Portugal, Porto, Porto",Artigo 259.º do Código dos Contratos Públicos,24-11-2017,"3.213,83 €","","",,614429,Acordo quadro para higiene e limpeza,FALSE
CP 36-2017,Concurso público,Aquisição de bens móveis,"33140000-3, Material médico de consumo","Instituto Nacional de Saúde Doutor Ricardo Jorge, I. P. (501427511)","MALDRAL, S.A (503315869)","1.220,00 €",15-09-2017,23-08-2017,160 dias,"Portugal, Lisboa, Lisboa","Artigo 20.º, n.º 1, alínea b) do Código dos Contratos Públicos",16-11-2017,"1.220,00 €","","",,Não aplicável.,Não aplicável.,FALSE
20170656 - Serviço reparação equipamento UPLC,Ajuste Direto Regime Geral,Aquisição de serviços,"50400000-9, Serviços de reparação e manutenção de equipamento médico e de precisão",Instituto Nacional de Saúde Dr.Ricardo Jorge(INSA) (501427511),"Waters Technologies LC-MS Portugal, Lda (510433669)","5.855,20 €",14-09-2017,14-09-2017,108 dias,"Portugal, Lisboa, Lisboa","Artigo 20.º, n.º 1, alínea a) do Código dos Contratos Públicos",14-12-2017,"3.046,40 €","","A natureza do contrato em causa não é compatível com determinação antecipada de um valor exacto, contudo a execução contratual obedeceu ao previsto nas peças processuais, na proposta adjudicada e no contrato, apesar de não ter sido atingido o valor estimado",,Não aplicável.,Não aplicável.,FALSE
20170626 - Serviços de Consultoria para implementação de um estudo piloto para rastreio das trissomias comuns,Ajuste Direto Regime Geral,Aquisição de serviços,"72000000-5, Serviços de TI: consultoria, desenvolvimento de software, Internet e apoio","Instituto Nacional de Saúde Doutor Ricardo Jorge, I. P. (501427511)",Ana Rita Abrantes Tarelho (224178768),"9.650,00 €",14-09-2017,11-09-2017,109 dias,"Portugal, Lisboa, Lisboa","Artigo 20.º, n.º 1, alínea a) do Código dos Contratos Públicos",10-10-2017,"9.650,00 €","","",,Não aplicável.,Não aplicável.,FALSE
20170483 - Aquisição de Material para Equipamentos Automatizados,Ajuste Direto Regime Geral,Aquisição de bens móveis,"33140000-3, Material médico de consumo","Instituto Nacional de Saúde Doutor Ricardo Jorge, I. P. (501427511)","ALFAGENE - NOVAS TECNOLOGIAS DAS C DA VIDA, LDA (503387398)","894,36 €",12-09-2017,10-07-2017,110 dias,"Portugal, Lisboa, Lisboa","Artigo 24.º, n.º 1, alínea a) do Código dos Contratos Públicos",11-08-2017,"894,36 €","","",,Não aplicável.,Não aplicável.,FALSE
20170557 - Aquisição de Material de Plástico,Ajuste Direto Regime Geral,Aquisição de bens móveis,"33140000-3, Material médico de consumo","Instituto Nacional de Saúde Doutor Ricardo Jorge, I. P. (501427511)","ALFAGENE - NOVAS TECNOLOGIAS DAS C DA VIDA, LDA (503387398)","207,90 €",12-09-2017,25-07-2017,110 dias,"Portugal, Porto, Porto","Artigo 26.º, n.º 1, alínea a) do Código dos Contratos Públicos",04-08-2017,"207,90 €","","",,Não aplicável.,Não aplicável.,FALSE
20170429 - Aquisição de Reagentes para diagnóstico do Sarampo,Ajuste Direto Regime Geral,Aquisição de bens móveis,"33696500-0, Reagentes de laboratório","Instituto Nacional de Saúde Doutor Ricardo Jorge, I. P. (501427511)",QUILABAN (500399670),"3.633,00 €",12-09-2017,20-06-2017,110 dias,"Portugal, Lisboa, Lisboa","Artigo 24.º, n.º 1, alínea a) do Código dos Contratos Públicos",13-07-2017,"3.633,00 €","","",,Não aplicável.,Não aplicável.,FALSE
20170484 - Aquisição de Serviços de Consultoria,Ajuste Direto Regime Geral,Aquisição de serviços,"72000000-5, Serviços de TI: consultoria, desenvolvimento de software, Internet e apoio","Instituto Nacional de Saúde Doutor Ricardo Jorge, I. P. (501427511)",Andreia Sofia Pinto Pereira (234741449),"4.470,00 €",12-09-2017,21-06-2017,110 dias,"Portugal, Lisboa, Lisboa","Artigo 20.º, n.º 1, alínea a) do Código dos Contratos Públicos",05-07-2017,"4.470,00 €",.,.,,Não aplicável.,Não aplicável.,FALSE
20170438 - Aquisição de Material de Plástico,Ajuste Direto Regime Geral,Aquisição de bens móveis,"33696500-0, Reagentes de laboratório","Instituto Nacional de Saúde Doutor Ricardo Jorge, I. P. (501427511)","LABORSPIRIT, LDA. (507485149)","184,00 €",12-09-2017,30-08-2017,110 dias,"Portugal, Lisboa, Lisboa","Artigo 26.º, n.º 1, alínea a) do Código dos Contratos Públicos",19-09-2017,"184,00 €","","",,Não aplicável.,Não aplicável.,FALSE
20170589 - Serviços de Segurança,Ajuste Direto Regime Geral,Aquisição de serviços,"79700000-1, Serviços de investigação e segurança","Instituto Nacional de Saúde Doutor Ricardo Jorge, I. P. (501427511)","Prestibel, Empresa de Segurança, S.A. (501326456)","60.000,00 €",12-09-2017,09-08-2017,153 dias,"Portugal, Lisboa, Lisboa","Artigo 24.º, n.º 1, alínea c) do Código dos Contratos Públicos",23-08-2017,"60.000,00 €","","",,Não aplicável.,Não aplicável.,FALSE
20170612 - Aquisição Reagentes p/ Projeto,Ajuste Direto Regime Geral,Aquisição de bens móveis,"33696500-0, Reagentes de laboratório",Instituto Nacional de Saúde Dr.Ricardo Jorge(INSA) (501427511),VWR International - Material de Laboratório Lda (503842770),"5.307,20 €",11-09-2017,08-09-2017,90 dias,"Portugal, Porto, Porto","Artigo 26.º, n.º 1, alínea b) do Código dos Contratos Públicos",12-09-2017,"5.307,20 €","","",,Não aplicável.,Não aplicável.,FALSE
20170613 - Aquisição Mat. Cons. Clinico p/ Projeto,Ajuste Direto Regime Geral,Aquisição de bens móveis,"33140000-3, Material médico de consumo",Instituto Nacional de Saúde Dr.Ricardo Jorge(INSA) (501427511),VWR International - Material de Laboratório Lda (503842770),"1.376,80 €",11-09-2017,08-09-2017,90 dias,"Portugal, Porto, Porto","Artigo 26.º, n.º 1, alínea b) do Código dos Contratos Públicos",12-09-2017,"1.376,80 €","","",,Não aplicável.,Não aplicável.,FALSE
20170549 - Aquisição de serviços de calibração de sondas,Ajuste Direto Regime Geral,Aquisição de serviços,"50433000-9, Serviços de calibragem","Instituto Nacional de Saúde Doutor Ricardo Jorge, I. P. (501427511)",Young Calibration (673900720),"1.200,00 €",11-09-2017,07-09-2017,90 dias,"Portugal, Porto, Porto","Artigo 20.º, n.º 1, alínea a) do Código dos Contratos Públicos",18-10-2017,"1.200,00 €","","",,Não aplicável.,Não aplicável.,FALSE
