Objeto do Contrato,Tipo de Procedimento,Tipo(s) de Contrato,CPVs,Entidade(s) Adjudicante(s),Entidade(s) Adjudicatária(s),Preço Contratual,Data de Publicação,Data de Celebração do Contrato,Prazo de Execução,Local de Execução,Fundamentação,Data de Fecho do Contrato,Preço Total Efetivo,Causas das Alterações ao Prazo,Causas das Alterações ao Preço,Estado,N.º registo do Acordo Quadro,Descrição do Acordo Quadro,Procedimento Centralizado
Fornecimento de Próteses do Joelho (Artur Salgado),Ajuste Direto Regime Geral,Aquisição de bens móveis,"33180000-5, Apoio funcional","Centro Hospitalar do Tâmega e Sousa, E.P.E. (508318262)","ARTUR SALGADO, S.A. (503612600)","46.200,00 €",11-08-2016,03-08-2016,151 dias,"Portugal, Porto, Penafiel<BR/>Portugal, Porto, Amarante","Artigo 20.º, n.º 1, alínea a) do Código dos Contratos Públicos",,,,,,Não aplicável.,Não aplicável.,FALSE
Fornecimento de Próteses de Joelho (Medicinália Cormédica),Ajuste Direto Regime Geral,Aquisição de bens móveis,"33180000-5, Apoio funcional","Centro Hospitalar do Tâmega e Sousa, E.P.E. (508318262)","MEDICINÁLIA CORMÉDICA - MCMEDICAL, LDA (500684324)","26.880,00 €",11-08-2016,03-08-2016,151 dias,"Portugal, Porto, Amarante<BR/>Portugal, Porto, Penafiel","Artigo 20.º, n.º 1, alínea a) do Código dos Contratos Públicos",,,,,,Não aplicável.,Não aplicável.,FALSE
"Tubos Endotraqueais, endobronqueais, microlaríngeos e orofaríngeos",Ajuste Direto Regime Geral,Aquisição de bens móveis,"33100000-1, Equipamento médico","Centro Hospitalar do Tâmega e Sousa, E.P.E. (508318262)","VYGON (PORTUGAL) - PRODUTOS MÉDICOS E FARMACÊUTICOS, LDA (503232785)","58,00 €",11-08-2016,11-07-2016,174 dias,"Portugal, Porto, Penafiel<BR/>Portugal, Porto, Amarante","Artigo 20.º, n.º 1, alínea a) do Código dos Contratos Públicos",,,,,,Não aplicável.,Não aplicável.,FALSE
AQUISIÇÃO DE DIVERSAS BATERIAS,Ajuste Direto Regime Geral,Aquisição de bens móveis,"31440000-2, Baterias","Centro Hospitalar do Tâmega e Sousa, E. P. E. (508318262)"," WTEC - EQUIPAMENTOS INDUSTRIAIS, LABORATORIAIS E HOSPITALARES, LDA (504022172)","14.489,80 €",11-08-2016,01-08-2016,153 dias,"Portugal, Porto, Amarante<BR/>Portugal, Porto, Penafiel","Artigo 20.º, n.º 1, alínea a) do Código dos Contratos Públicos",,,,,,Não aplicável.,Não aplicável.,FALSE
AQUISIÇÃO DE DIVERSAS BATERIAS,Ajuste Direto Regime Geral,Aquisição de bens móveis,"31440000-2, Baterias","Centro Hospitalar do Tâmega e Sousa, E. P. E. (508318262)","CHL - J2, LDA (509038603)","17.394,00 €",11-08-2016,01-08-2016,153 dias,"Portugal, Porto, Amarante<BR/>Portugal, Porto, Penafiel","Artigo 20.º, n.º 1, alínea a) do Código dos Contratos Públicos",,,,,,Não aplicável.,Não aplicável.,FALSE
AQUISIÇÃO DE DIVERSAS BATERIAS,Ajuste Direto Regime Geral,Aquisição de bens móveis,"31440000-2, Baterias","Centro Hospitalar do Tâmega e Sousa, E. P. E. (508318262)",RUI JORGE GARCIA DA COSTA (170292258),"1.306,08 €",11-08-2016,01-08-2016,153 dias,"Portugal, Porto, Penafiel<BR/>Portugal, Porto, Amarante","Artigo 20.º, n.º 1, alínea a) do Código dos Contratos Públicos",,,,,,Não aplicável.,Não aplicável.,FALSE
AQUISIÇÃO DE DIVERSAS BATERIAS,Ajuste Direto Regime Geral,Aquisição de bens móveis,"31440000-2, Baterias","Centro Hospitalar do Tâmega e Sousa, E. P. E. (508318262)","B.BRAUN MEDICAL, LDA (501506543)","1.614,47 €",11-08-2016,01-08-2016,153 dias,"Portugal, Porto, Amarante<BR/>Portugal, Porto, Penafiel","Artigo 20.º, n.º 1, alínea a) do Código dos Contratos Públicos",,,,,,Não aplicável.,Não aplicável.,FALSE
Fornecimento de Prótese Biliar Pré-Montada (Boston),Ajuste Direto Regime Geral,Aquisição de bens móveis,"33100000-1, Equipamento médico","Centro Hospitalar do Tâmega e Sousa, E.P.E. (508318262)","BOSTON SCIENTIFIC PORTUGAL - DISPOSITIVOS MÉDICOS, LDA (504988964)","6.300,00 €",11-08-2016,01-08-2016,153 dias,"Portugal, Porto, Penafiel<BR/>Portugal, Porto, Amarante","Artigo 20.º, n.º 1, alínea a) do Código dos Contratos Públicos",,,,,,Não aplicável.,Não aplicável.,FALSE
Fornecimento de Medicamentos Diversos II (Glaxo),Ao abrigo de acordo-quadro (art.º 259.º),Aquisição de bens móveis,"33600000-6, Produtos farmacêuticos","Centro Hospitalar do Tâmega e Sousa, E. P. E. (508318262)","GLAXOSMITHKLINE - PRODUTOS FARMACÊUTICOS, LDA (500139962)","56,58 €",11-08-2016,01-08-2016,153 dias,"Portugal, Porto, Penafiel<BR/>Portugal, Porto, Amarante",Artigo 259.º do Código dos Contratos Públicos,,,,,,1513257,Acordo quadro para fornecimento de Medicamentos diversos II   às Instituições e Serviços do Serviço Nacional de Saúde,FALSE
Fornecimento de Medicamentos Diversos II (Generis),Ao abrigo de acordo-quadro (art.º 259.º),Aquisição de bens móveis,"33600000-6, Produtos farmacêuticos","Centro Hospitalar do Tâmega e Sousa, E. P. E. (508318262)","GENERIS - FARMACÊUTICA, S.A (508107997)","15,60 €",11-08-2016,01-08-2016,153 dias,"Portugal, Porto, Amarante<BR/>Portugal, Porto, Penafiel",Artigo 259.º do Código dos Contratos Públicos,,,,,,1513257,Acordo quadro para fornecimento de Medicamentos diversos II   às Instituições e Serviços do Serviço Nacional de Saúde,FALSE
Fornecimento de Medicamentos Diversos II (Edol),Ao abrigo de acordo-quadro (art.º 259.º),Aquisição de bens móveis,"33600000-6, Produtos farmacêuticos","Centro Hospitalar do Tâmega e Sousa, E. P. E. (508318262)","LABORATÓRIO EDOL - PRODUTOS FARMACÊUTICOS, S.A. (507072642)","95,00 €",11-08-2016,01-08-2016,153 dias,"Portugal, Porto, Amarante<BR/>Portugal, Porto, Penafiel",Artigo 259.º do Código dos Contratos Públicos,,,,,,1513257,Acordo quadro para fornecimento de Medicamentos diversos II   às Instituições e Serviços do Serviço Nacional de Saúde,FALSE
Fornecimento de Medicamentos Diversos II (Astrazeneca),Ao abrigo de acordo-quadro (art.º 259.º),Aquisição de bens móveis,"33600000-6, Produtos farmacêuticos","Centro Hospitalar do Tâmega e Sousa, E. P. E. (508318262)","ASTRAZENECA - PRODUTOS FARMACÊUTICOS, LDA (502942240)","338,00 €",11-08-2016,01-08-2016,153 dias,"Portugal, Porto, Amarante<BR/>Portugal, Porto, Penafiel",Artigo 259.º do Código dos Contratos Públicos,,,,,,1513257,Acordo quadro para fornecimento de Medicamentos diversos II   às Instituições e Serviços do Serviço Nacional de Saúde,FALSE
Fornecimento de Medicamentos Diversos II (Angelini),Ao abrigo de acordo-quadro (art.º 259.º),Aquisição de bens móveis,"33600000-6, Produtos farmacêuticos","Centro Hospitalar do Tâmega e Sousa, E. P. E. (508318262)","ANGELINI FARMACÊUTICA, LDA. (500583650)","149,70 €",11-08-2016,01-08-2016,153 dias,"Portugal, Porto, Penafiel<BR/>Portugal, Porto, Amarante",Artigo 259.º do Código dos Contratos Públicos,,,,,,1513257,Acordo quadro para fornecimento de Medicamentos diversos II   às Instituições e Serviços do Serviço Nacional de Saúde,FALSE
