Objeto do Contrato,Tipo de Procedimento,Tipo(s) de Contrato,CPVs,Entidade(s) Adjudicante(s),Entidade(s) Adjudicatária(s),Preço Contratual,Data de Publicação,Data de Celebração do Contrato,Prazo de Execução,Local de Execução,Fundamentação,Data de Fecho do Contrato,Preço Total Efetivo,Causas das Alterações ao Prazo,Causas das Alterações ao Preço,Estado,N.º registo do Acordo Quadro,Descrição do Acordo Quadro,Procedimento Centralizado
ad1141-2017VINORELBINA 20 MG,Ao abrigo de acordo-quadro (art.º 259.º),Aquisição de bens móveis,"33600000-6, Produtos farmacêuticos","Instituto Português de Oncologia de Lisboa Francisco Gentil, E. P. E. (506361616)",PIERRE FABRE MEDICAMENT PORTUGAL LDA (500230366),"53.445,60 €",10-04-2017,21-03-2017,365 dias,"Portugal, Lisboa, Lisboa",Artigo 259.º do Código dos Contratos Públicos,,,,,,2124520,CP 2016/55 - Medicamentos Diversos,FALSE
AD 603-2017 PRESTAÇAO  DE SERVIÇOS DE TRANSPORTE DE DOENTES E ACOMPANHANTES EM VEICULO DEDICADO A DOENTES EM  AMBULANCIA,Ajuste Direto Regime Geral,Aquisição de serviços,"85143000-3, Serviços de ambulâncias","Instituto Português de Oncologia de Lisboa Francisco Gentil, E. P. E. (506361616)","CONSORCIO HELPED EMERGENCY, LDA., ASSOCIACÃO HUMANITÁRIA DOS BOMBEIROS VILUNTÁRIOS DO SUL E SUESTE EASSOCIAÇÃO HUMANITÁRIA DOS BOMBEIROS VOLUNTÁRIOS DO DAFUNDO (509388906)","100.000,00 €",06-04-2017,23-03-2017,365 dias,"Portugal, Lisboa, Lisboa","Artigo 24.º, n.º 1, alínea c) do Código dos Contratos Públicos",,,,,,Não aplicável.,Não aplicável.,FALSE
AD119-2017SACOS TRANSPARENTES E OUTROS DE COR,Ajuste Direto Regime Geral,Aquisição de bens móveis,"19640000-4, Sacos de polietileno para recolha de lixo e resíduos","Instituto Português de Oncologia de Lisboa Francisco Gentil, E. P. E. (506361616)","BIZPACK-UNIPESSOAL, LDA. (509704514)","17.907,20 €",06-04-2017,18-01-2017,10 dias,"Portugal, Lisboa, Lisboa","Artigo 20.º, n.º 1, alínea a) do Código dos Contratos Públicos",,,,,,Não aplicável.,Não aplicável.,FALSE
AD160-2017-PRESTAÇÃO DE SERVIÇOS DE COMUNICAÇÕES FIXAS,Ajuste Direto Regime Geral,Aquisição de bens móveis,"33600000-6, Produtos farmacêuticos","Instituto Português de Oncologia de Lisboa Francisco Gentil, E. P. E. (506361616)","MEO-SERVIÇOS DE COMUNICAÇÕES E MULTIMÉDIA, S.A. (502600268)","12.302,76 €",06-04-2017,23-01-2017,365 dias,"Portugal, Lisboa, Lisboa","Artigo 20.º, n.º 1, alínea a) do Código dos Contratos Públicos",,,,,,Não aplicável.,Não aplicável.,FALSE
AD736-2017-VISMODEGIB 150 MG CP,Ajuste Direto Regime Geral,Aquisição de bens móveis,"33600000-6, Produtos farmacêuticos","Instituto Português de Oncologia de Lisboa Francisco Gentil, E. P. E. (506361616)","ROCHE FARMACEUTICA QUÍMICA,LDA (500233810)","224.671,32 €",06-04-2017,10-03-2017,365 dias,"Portugal, Lisboa, Lisboa","Artigo 24.º, n.º 1, alínea e) do Código dos Contratos Públicos",,,,,,Não aplicável.,Não aplicável.,FALSE
AD1024-2017-IPILIMUMAB 5 MG /ML INJ 10 ML,Ajuste Direto Regime Geral,Aquisição de bens móveis,"33600000-6, Produtos farmacêuticos","Instituto Português de Oncologia de Lisboa Francisco Gentil, E. P. E. (506361616)",BRISTOL-MYERS SQUIBB FARM PORTUGUESA SA. (500048193),"71.400,00 €",06-04-2017,08-03-2017,365 dias,"Portugal, Lisboa, Lisboa","Artigo 24.º, n.º 1, alínea e) do Código dos Contratos Públicos",,,,,,Não aplicável.,Não aplicável.,FALSE
ADTRATUZUMAB EMTANSINA 100 MG INJ 160 MG INJ,Ajuste Direto Regime Geral,Aquisição de bens móveis,"33600000-6, Produtos farmacêuticos","Instituto Português de Oncologia de Lisboa Francisco Gentil, E. P. E. (506361616)","ROCHE FARMACEUTICA QUÍMICA, LDA (500233810)","105.362,16 €",05-04-2017,27-02-2017,365 dias,"Portugal, Lisboa, Lisboa","Artigo 24.º, n.º 1, alínea e) do Código dos Contratos Públicos",,,,,,Não aplicável.,Não aplicável.,FALSE
AD1296-2017BEVACIZUMAB 400MG INJ,Ao abrigo de acordo-quadro (art.º 259.º),Aquisição de bens móveis,"33600000-6, Produtos farmacêuticos","Instituto Português de Oncologia de Lisboa Francisco Gentil, E. P. E. (506361616)","ROCHE FARMACEUTICA  QUIMICA, LDA (500233810)","18.947,00 €",05-04-2017,03-04-2017,30 dias,"Portugal, Lisboa, Lisboa",Artigo 259.º do Código dos Contratos Públicos,,,,,,1771819,CP 2015/6 - Acordo quadro para o fornecimento de Medicamentos do Foro Oncológico,FALSE
AD879-2017 MEDICAMENTOS DO FORO ONCOLOGICO,Ao abrigo de acordo-quadro (art.º 259.º),Aquisição de bens móveis,"33600000-6, Produtos farmacêuticos","Instituto Português de Oncologia de Lisboa Francisco Gentil, E. P. E. (506361616)","ROCHE FARMACEUTICA QUIMICA, LDA (500233810)","3.051.319,15 €",05-04-2017,09-03-2017,3365 dias,"Portugal, Lisboa, Lisboa",Artigo 259.º do Código dos Contratos Públicos,,,,,,1771819,CP 2015/6 - Acordo quadro para o fornecimento de Medicamentos do Foro Oncológico,FALSE
"AD1140-2017DENOSUMAB 120 MG, SOL INJ FRES, PEGFILGRATIM 10 MG/ML",Ao abrigo de acordo-quadro (art.º 259.º),Aquisição de bens móveis,"33600000-6, Produtos farmacêuticos","Instituto Português de Oncologia de Lisboa Francisco Gentil, E. P. E. (506361616)",AMGEN BIOFARMACEUTICA LDA (502942959),"79.056,00 €",05-04-2017,22-03-2017,365 dias,"Portugal, Lisboa, Lisboa",Artigo 259.º do Código dos Contratos Públicos,,,,,,1771819,CP 2015/6 - Acordo quadro para o fornecimento de Medicamentos do Foro Oncológico,FALSE
AD79+5-2017 MEDICAMENTOS DO FORO ONCOLÓGICO,Ao abrigo de acordo-quadro (art.º 259.º),Aquisição de bens móveis,"33600000-6, Produtos farmacêuticos","Instituto Português de Oncologia de Lisboa Francisco Gentil, E. P. E. (506361616)",ABBVIE LDA (510229050),"90.865,20 €",04-04-2017,23-02-2017,365 dias,"Portugal, Lisboa, Lisboa",Artigo 259.º do Código dos Contratos Públicos,,,,,,1771819,CP 2015/6 - Acordo quadro para o fornecimento de Medicamentos do Foro Oncológico,FALSE
"AD1132-2017SERVIÇOS DE MANUTENÇÃO DOS SISTEMAS SGCIM, RADIO, SISLAB,SIBAS,ANAPAT E EPR-OR INSTALADOS NAS ENTI.DADES DO MINISTÉRIO DA SAÚDE",Ajuste Direto Regime Geral,Aquisição de serviços,"50324100-3, Serviços de manutenção de sistemas","Instituto Português de Oncologia de Lisboa Francisco Gentil, E. P. E. (506361616)","GLINT-HEALTHCARE SOLUTIONS, S.A. (502479418)","14.047,60 €",04-04-2017,20-03-2017,365 dias,"Portugal, Lisboa, Lisboa","Artigo 24.º, n.º 1, alínea e) do Código dos Contratos Públicos",,,,,,Não aplicável.,Não aplicável.,FALSE
AD307-2017BEXAROTENO 75 MG CP,Ajuste Direto Regime Geral,Aquisição de bens móveis,"33600000-6, Produtos farmacêuticos","Instituto Português de Oncologia de Lisboa Francisco Gentil, E. P. E. (506361616)","EISAI FARMACEUTICA, UNIPESSOAL (507847660)","10.907,40 €",04-04-2017,13-03-2017,365 dias,"Portugal, Lisboa, Lisboa","Artigo 24.º, n.º 1, alínea e) do Código dos Contratos Públicos",,,,,,Não aplicável.,Não aplicável.,FALSE
AD70 2017-ASPARAGINASE E. COLI 10000,Ajuste Direto Regime Geral,Aquisição de bens móveis,"33600000-6, Produtos farmacêuticos","Instituto Português de Oncologia de Lisboa Francisco Gentil, E. P. E. (506361616)",MEDAC SUCURSAL EM PORTUGAL (980369959),"25.200,00 €",04-04-2017,27-02-2017,365 dias,"Portugal, Lisboa, Lisboa","Artigo 20.º, n.º 1, alínea a) do Código dos Contratos Públicos",,,,,,Não aplicável.,Não aplicável.,FALSE
AD70-2017-DAUNORRUBICINA 20 MG INJ+AMSACRINA 75 MG INJ,Ajuste Direto Regime Geral,Aquisição de bens móveis,"33600000-6, Produtos farmacêuticos","Instituto Português de Oncologia de Lisboa Francisco Gentil, E. P. E. (506361616)",DUXPHARMA - UNIPESSOAL LDA (510803679),"17.385,00 €",03-04-2017,20-02-2017,365 dias,"Portugal, Lisboa, Lisboa","Artigo 20.º, n.º 1, alínea a) do Código dos Contratos Públicos",,,,,,Não aplicável.,Não aplicável.,FALSE
AD161-2017REESTRUTURAÇÃO DO AMBIENTE DE SERVIDORES DE VIRTUALIZAÇÃO FASE 2,Ajuste Direto Regime Geral,Aquisição de bens móveis,"30200000-1, Equipamento e material informático","Instituto Português de Oncologia de Lisboa Francisco Gentil, E. P. E. (506361616)","PROSIDE.CONCEPÇÃO E IMPLEMENTAÇÃO DE SOLUÇÕES INFORMÁTICAS, LDA (506951405)","198.821,00 €",31-03-2017,15-03-2017,365 dias,"Portugal, Lisboa, Lisboa","Artigo 26.º, n.º 1, alínea a) do Código dos Contratos Públicos",,,,,,Não aplicável.,Não aplicável.,FALSE
