Objeto do Contrato,Tipo de Procedimento,Tipo(s) de Contrato,CPVs,Entidade(s) Adjudicante(s),Entidade(s) Adjudicatária(s),Preço Contratual,Data de Publicação,Data de Celebração do Contrato,Prazo de Execução,Local de Execução,Fundamentação,Data de Fecho do Contrato,Preço Total Efetivo,Causas das Alterações ao Prazo,Causas das Alterações ao Preço,Estado,N.º registo do Acordo Quadro,Descrição do Acordo Quadro,Procedimento Centralizado
Aquisição de kit toracocentese KS 10990,Ajuste Direto Regime Geral,Aquisição de serviços,"72410000-7, Serviços de fornecimento","CENTRO HOSPITALAR LISBOA NORTE, EPE (508481287)","Teprel, SA (502262184)","1.134,00 €",11-03-2016,11-03-2016,30 dias,"Portugal, Lisboa, Lisboa","Artigo 20.º, n.º 1, alínea a) do Código dos Contratos Públicos","","",,"",,Não aplicável.,Não aplicável.,FALSE
Aquisição de prod. enterico compl. normalizado,Ajuste Direto Regime Geral,Aquisição de bens móveis,"33690000-3, Medicamentos vários","Centro Hospitalar Lisboa Norte, E. P. E. (508481287)","Fresenius kabi, Lda. (504293753)","6.600,00 €",11-03-2016,11-03-2016,1 dias,"Portugal, Lisboa, Lisboa","Artigo 24.º, n.º 1, alínea e) do Código dos Contratos Públicos","","",,"",,Não aplicável.,Não aplicável.,FALSE
Seguros de Acidentes de Trabalho,Ajuste Direto Regime Geral,Aquisição de serviços,"66512000-2, Serviços de seguros de acidentes e de saúde","Centro Hospitalar Lisboa Norte, E. P. E. (508481287)","Companhia de Seguros Açoreana, SA (512004048)","75.811,57 €",10-03-2016,10-03-2016,30 dias,"Portugal, Lisboa, Lisboa","Artigo 20.º, n.º 1, alínea a) do Código dos Contratos Públicos","","",,"",,Não aplicável.,Não aplicável.,FALSE
Seguro de Acidentes de trabalho,Ajuste Direto Regime Geral,Aquisição de serviços,"66512100-3, Serviços de seguros de acidentes","Centro Hospitalar Lisboa Norte, E. P. E. (508481287)","Companhia de Seguros Açoreana, SA (512004048)","39.488,48 €",10-03-2016,10-03-2016,30 dias,"Portugal, Lisboa, Lisboa","Artigo 20.º, n.º 1, alínea a) do Código dos Contratos Públicos","","",,"",,Não aplicável.,Não aplicável.,FALSE
Aquisição de glucose no sangue,Ajuste Direto Regime Geral,Aquisição de bens móveis,"33690000-3, Medicamentos vários","CENTRO HOSPITALAR LISBOA NORTE, EPE (508481287)","Abbott, lda. (500006148)","5.850,00 €",10-03-2016,08-03-2016,1 dias,"Portugal, Lisboa, Lisboa","Artigo 24.º, n.º 1, alínea e) do Código dos Contratos Públicos","","",,"",,Não aplicável.,Não aplicável.,FALSE
Aquisição de regentes,Ajuste Direto Regime Geral,Aquisição de bens móveis,"33690000-3, Medicamentos vários","CENTRO HOSPITALAR LISBOA NORTE, EPE (508481287)","Roche, Lda. (504282921)","5.060,00 €",10-03-2016,10-03-2016,1 dias,"Portugal, Lisboa, Lisboa","Artigo 24.º, n.º 1, alínea e) do Código dos Contratos Públicos","","",,"",,Não aplicável.,Não aplicável.,FALSE
Aquisição de hidropolimeros,Ajuste Direto Regime Geral,Aquisição de bens móveis,"33690000-3, Medicamentos vários","CENTRO HOSPITALAR LISBOA NORTE, EPE (508481287)","Molnlycke, Lda. (511101066)","9.540,00 €",10-03-2016,10-03-2016,1 dias,"Portugal, Lisboa, Lisboa","Artigo 24.º, n.º 1, alínea e) do Código dos Contratos Públicos","","",,"",,Não aplicável.,Não aplicável.,FALSE
Aquisição de Linezolide comp. 600 mg,Concurso público,Aquisição de bens móveis,"33651000-8, Anti-infecciosos gerais de uso sistémico","Centro Hospitalar Lisboa Norte, E. P. E. (508481287)","Teva Pharma, lda. (507045491)","42.594,00 €",10-03-2016,22-02-2016,313 dias,"Portugal, Lisboa, Lisboa","Artigo 20.º, n.º 1, alínea b) do Código dos Contratos Públicos","","",,"",,Não aplicável.,Não aplicável.,FALSE
Aquisição de bexaroteno,Ajuste Direto Regime Geral,Aquisição de bens móveis,"33690000-3, Medicamentos vários","Centro Hospitalar Lisboa Norte, E. P. E. (508481287)","Eisai, lda. (507847660)","5.689,98 €",10-03-2016,09-03-2016,1 dias,"Portugal, Lisboa, Lisboa","Artigo 24.º, n.º 1, alínea e) do Código dos Contratos Públicos","","",,"",,Não aplicável.,Não aplicável.,FALSE
Aquisição de ligadura elástica,Ajuste Direto Regime Geral,Aquisição de bens móveis,"33140000-3, Material médico de consumo","Centro Hospitalar Lisboa Norte, E. P. E. (508481287)",Albino Dias de Andrade (500013810),"930,00 €",10-03-2016,10-03-2016,1 dias,"Portugal, Lisboa, Lisboa","Artigo 20.º, n.º 1, alínea a) do Código dos Contratos Públicos","","",,"",,Não aplicável.,Não aplicável.,FALSE
Aquisição de ligadura elástica,Ajuste Direto Regime Geral,Aquisição de bens móveis,"33140000-3, Material médico de consumo","Centro Hospitalar Lisboa Norte, E. P. E. (508481287)","Docworld, Lda. (508592909)","1.991,60 €",10-03-2016,10-03-2016,1 dias,"Portugal, Lisboa, Lisboa","Artigo 20.º, n.º 1, alínea a) do Código dos Contratos Públicos","","",,"",,Não aplicável.,Não aplicável.,FALSE
Aquisição de esmolol,Ajuste Direto Regime Geral,Aquisição de bens móveis,"33690000-3, Medicamentos vários","CENTRO HOSPITALAR LISBOA NORTE, EPE (508481287)","Baxter, lda. (503347345)","6.000,00 €",10-03-2016,10-03-2016,1 dias,"Portugal, Lisboa, Lisboa","Artigo 24.º, n.º 1, alínea e) do Código dos Contratos Públicos","","",,"",,Não aplicável.,Não aplicável.,FALSE
Aquisição de bicarbonato de sodio + cloreto,Ajuste Direto Regime Geral,Aquisição de bens móveis,"33690000-3, Medicamentos vários","CENTRO HOSPITALAR LISBOA NORTE, EPE (508481287)","Baxter, Lda. (503347345)","8.460,00 €",10-03-2016,10-03-2016,1 dias,"Portugal, Lisboa, Lisboa","Artigo 24.º, n.º 1, alínea e) do Código dos Contratos Públicos","","",,"",,Não aplicável.,Não aplicável.,FALSE
Aquisição de sistema CDI DR,Ajuste Direto Regime Geral,Aquisição de bens móveis,"33190000-8, Dispositivos e produtos médicos variados","CENTRO HOSPITALAR LISBOA NORTE, EPE (508481287)","Biotronik, Lda. (510726941)","11.478,40 €",10-03-2016,10-03-2016,1 dias,"Portugal, Lisboa, Lisboa","Artigo 20.º, n.º 1, alínea a) do Código dos Contratos Públicos","","",,"",,Não aplicável.,Não aplicável.,FALSE
Aquisição de tampão gaze,Ajuste Direto Regime Geral,Aquisição de bens móveis,"33190000-8, Dispositivos e produtos médicos variados","CENTRO HOSPITALAR LISBOA NORTE, EPE (508481287)","Docwordl, Lda. (508592909)","79,25 €",10-03-2016,10-03-2016,1 dias,"Portugal, Lisboa, Lisboa","Artigo 20.º, n.º 1, alínea a) do Código dos Contratos Públicos","","",,"",,Não aplicável.,Não aplicável.,FALSE
Aquisição de produtos de apoio,Ajuste Direto Regime Geral,Aquisição de serviços,"85000000-9, Serviços de saúde e acção social","CENTRO HOSPITALAR LISBOA NORTE, EPE (508481287)",Mário Paulo Ferreira (197118372),"188,68 €",10-03-2016,10-03-2016,10 dias,"Portugal, Lisboa, Lisboa","Artigo 20.º, n.º 1, alínea a) do Código dos Contratos Públicos","","",,"",,Não aplicável.,Não aplicável.,FALSE
Aquisição de diversos tapetes para pavimento,Ajuste Direto Regime Geral,Aquisição de bens móveis,"39533000-7, Tapetes","CENTRO HOSPITALAR LISBOA NORTE, EPE (508481287)","Amadeu pereira Cardoso, Lda. (506348989)","1.308,00 €",10-03-2016,10-03-2016,5 dias,"Portugal, Lisboa, Lisboa","Artigo 20.º, n.º 1, alínea a) do Código dos Contratos Públicos","","",,"",,Não aplicável.,Não aplicável.,FALSE
Aquisição de CDI DR,Ajuste Direto Regime Geral,Aquisição de bens móveis,"33190000-8, Dispositivos e produtos médicos variados","Centro Hospitalar Lisboa Norte, E. P. E. (508481287)","Livanova, Lda (505514010)","22.640,00 €",09-03-2016,09-03-2016,1 dias,"Portugal, Lisboa, Lisboa","Artigo 20.º, n.º 1, alínea a) do Código dos Contratos Públicos","","",,"",,Não aplicável.,Não aplicável.,FALSE
Reparação de microscopio cirurgico,Ajuste Direto Regime Geral,Aquisição de serviços,"50420000-5, Serviços de reparação e manutenção de equipamento médico e cirúrgico","Centro Hospitalar Lisboa Norte, E. P. E. (508481287)",Grupo Taper (506886336),"5.329,83 €",09-03-2016,09-03-2016,30 dias,"Portugal, Lisboa, Lisboa","Artigo 20.º, n.º 1, alínea a) do Código dos Contratos Públicos","","",,"",,Não aplicável.,Não aplicável.,FALSE
Aquisição de cloreto de sódio,Ajuste Direto Regime Geral,Aquisição de bens móveis,"33690000-3, Medicamentos vários","Centro Hospitalar Lisboa Norte, E. P. E. (508481287)","Baxter, Lda. (503347345)","9.024,00 €",09-03-2016,09-03-2016,1 dias,"Portugal, Lisboa, Lisboa","Artigo 24.º, n.º 1, alínea e) do Código dos Contratos Públicos","","",,"",,Não aplicável.,Não aplicável.,FALSE
Aquisição de vitamina A composta pomada bisnaga,Ajuste Direto Regime Geral,Aquisição de bens móveis,"33690000-3, Medicamentos vários","Centro Hospitalar Lisboa Norte, E. P. E. (508481287)","Lab. Medinfar, SA (500384045)","1.800,00 €",09-03-2016,09-03-2016,1 dias,"Portugal, Lisboa, Lisboa","Artigo 20.º, n.º 1, alínea a) do Código dos Contratos Públicos","","",,"",,Não aplicável.,Não aplicável.,FALSE
Aquisição de polos para os colaboradores do SIE,Ajuste Direto Regime Geral,Aquisição de bens móveis,"18110000-3, Vestuário profissional","Centro Hospitalar Lisboa Norte, E. P. E. (508481287)","VP Dois, Lda. (502641878)","1.421,47 €",09-03-2016,09-03-2016,297 dias,"Portugal, Lisboa, Lisboa","Artigo 20.º, n.º 1, alínea a) do Código dos Contratos Públicos","","",,"",,Não aplicável.,Não aplicável.,FALSE
Aquisição de fios de sutura,Ajuste Direto Regime Geral,Aquisição de bens móveis,"33141121-4, Suturas cirúrgicas","Centro Hospitalar Lisboa Norte, E. P. E. (508481287)","HR Hospitalar, Lda. (501895558)","5.624,76 €",09-03-2016,09-03-2016,297 dias,"Portugal, Lisboa, Lisboa","Artigo 20.º, n.º 1, alínea a) do Código dos Contratos Públicos","","",,"",,Não aplicável.,Não aplicável.,FALSE
Aquisição de fios de seda,Ajuste Direto Regime Geral,Aquisição de bens móveis,"33141121-4, Suturas cirúrgicas","Centro Hospitalar Lisboa Norte, E. P. E. (508481287)","B. Braun Medical, Lda. (501506543)","1.343,52 €",09-03-2016,09-03-2016,297 dias,"Portugal, Lisboa, Lisboa","Artigo 20.º, n.º 1, alínea a) do Código dos Contratos Públicos","","",,"",,Não aplicável.,Não aplicável.,FALSE
Aquisição de fios de seda,Ajuste Direto Regime Geral,Aquisição de bens móveis,"33141121-4, Suturas cirúrgicas","Centro Hospitalar Lisboa Norte, E. P. E. (508481287)",Covidien (503413410),"999,00 €",09-03-2016,09-03-2016,297 dias,"Portugal, Lisboa, Lisboa","Artigo 20.º, n.º 1, alínea a) do Código dos Contratos Públicos","","",,"",,Não aplicável.,Não aplicável.,FALSE
Aquisição de material para Cardiologia,Ajuste Direto Regime Geral,Aquisição de bens móveis,"33190000-8, Dispositivos e produtos médicos variados","Centro Hospitalar Lisboa Norte, E. P. E. (508481287)","Medtronic Portugal, Lda. (504223933)","11.500,00 €",08-03-2016,08-03-2016,1 dias,"Portugal, Lisboa, Lisboa","Artigo 20.º, n.º 1, alínea a) do Código dos Contratos Públicos","","",,"",,Não aplicável.,Não aplicável.,FALSE
Aquisição de CDI VR,Ajuste Direto Regime Geral,Aquisição de bens móveis,"33190000-8, Dispositivos e produtos médicos variados","Centro Hospitalar Lisboa Norte, E. P. E. (508481287)","LineaNova, lda. (505514010)","9.550,00 €",08-03-2016,08-03-2016,1 dias,"Portugal, Lisboa, Lisboa","Artigo 20.º, n.º 1, alínea a) do Código dos Contratos Públicos","","",,"",,Não aplicável.,Não aplicável.,FALSE
Aquisição de CDI VR,Ajuste Direto Regime Geral,Aquisição de bens móveis,"33190000-8, Dispositivos e produtos médicos variados","Centro Hospitalar Lisboa Norte, E. P. E. (508481287)","Biotronik Portugal, Lda. (510726941)","8.772,00 €",08-03-2016,08-03-2016,1 dias,"Portugal, Lisboa, Lisboa","Artigo 20.º, n.º 1, alínea a) do Código dos Contratos Públicos","","",,"",,Não aplicável.,Não aplicável.,FALSE
Aquisição de esfincter urinário artificial,Ajuste Direto Regime Geral,Aquisição de bens móveis,"33190000-8, Dispositivos e produtos médicos variados","Centro Hospitalar Lisboa Norte, E. P. E. (508481287)",American Medical Systems (980223598),"7.600,00 €",08-03-2016,08-03-2016,1 dias,"Portugal, Lisboa, Lisboa","Artigo 20.º, n.º 1, alínea a) do Código dos Contratos Públicos","","",,"",,Não aplicável.,Não aplicável.,FALSE
Aquisições de etiquetas,Ajuste Direto Regime Geral,Aquisição de bens móveis,"30199760-5, Etiquetas","Centro Hospitalar Lisboa Norte, E. P. E. (508481287)",Jorge Soares (120983800),"993,75 €",08-03-2016,08-03-2016,298 dias,"Portugal, Lisboa, Lisboa","Artigo 20.º, n.º 1, alínea a) do Código dos Contratos Públicos","","",,"",,Não aplicável.,Não aplicável.,FALSE
Aquisição de protese endovascular,Ajuste Direto Regime Geral,Aquisição de bens móveis,"33190000-8, Dispositivos e produtos médicos variados","Centro Hospitalar Lisboa Norte, E. P. E. (508481287)","Biosonda, Lda. (501463313)","8.500,00 €",07-03-2016,07-03-2016,1 dias,"Portugal, Lisboa, Lisboa","Artigo 20.º, n.º 1, alínea a) do Código dos Contratos Públicos","","",,"",,Não aplicável.,Não aplicável.,FALSE
Aquisição de Gas Natural para o CHPL Ano 2015-(UMC-SG),Concurso público,Aquisição de bens móveis,"09123000-7, Gás natural","Direcção-Geral da Saúde (600037100), Unidade Local de Saúde de Castelo Branco, E. P. E. (509309844), Instituto Português de Oncologia do Porto Francisco Gentil, E. P. E. (506362299), Hospital Dr. Francisco Zagalo (501510150), Instituto Nacional de Saúde Dr. Ricardo Jorge, I. P. (501427511), Instituto Nacional de Emergência Médica, I. P. (501356126), Centro Hospitalar de Setúbal, E. P. E. (507606787), Hospital de Magalhães Lemos, E. P. E. (502828790), Instituto Português de Oncologia de Coimbra Francisco Gentil, E. P. E. (506361438), Instituto Português de Oncologia de Lisboa Francisco Gentil, E. P. E. (506361616), Centro Hospitalar de Leiria, E. P. E. (509822932), Centro Hospitalar Tondela-Viseu, E. P. E. (509822940), Unidade Local de Saúde da Guarda, E. P. E. (508752000), Unidade Local de Saúde do Nordeste, E. P. E (509932584), Centro Hospitalar do Baixo Vouga, E. P. E (CHBV, E. P. E.) (510123210), Secretaria-Geral do Ministério da Saúde (600080684), Centro Hospitalar de Lisboa Ocidental, E. P. E. (507618319), Centro Hospitalar do Oeste (510412009), Instituto de Oftalmologia Dr. Gama Pinto (600000052), Centro Hospitalar de Lisboa Central, E. P. E. (508080142), Unidade Local de Saúde do Alto Minho, E. P. E. (508786193), Centro Hospitalar Psiquiátrico de Lisboa (508338476), Centro Hospitalar Porto, E. P. E. (508331471), Centro Hospitalar do Médio Tejo, E. P. E. (506361608), Hospital Santa Maria Maior, E. P. E. (506361381), Centro Hospitalar de Entre o Douro e Vouga, E.P.E. (508878462), Centro Hospitalar Lisboa Norte, E. P. E. (508481287), Hospital Distrital de Santarém, E. P. E. (506361462), Centro Hospitalar do Alto Ave, E. P. E. (508080827), Serviço de Intervenção nos Comportamentos Aditivos e nas Dependências (600084884), Hospital do Espírito Santo de Évora, E. P. E. (508085888), Instituto Português do Sangue e da Transplantação, I. P. (502423943), Hospital de José Luciano de Castro (501613021), Centro Hospitalar Vila Nova de Gaia - Espinho, E. P. E. (508142156), Administração Regional de Saúde do Centro, I. P. (503122165), Centro Hospitalar do Algarve, E. P. E. (510745997), Administração Regional de Saúde de Lisboa e Vale do Tejo, I. P. (503148776), Centro Hospitalar do Tâmega e Sousa, E. P. E. (508318262), Hospital Garcia de Orta, E. P. E. (506361470), Centro Hospitalar Cova da Beira, E. P. E. (506361659), Hospital Arcebispo João Crisóstomo (501626123), Centro Hospitalar de Trás-os-Montes e Alto Douro, E. P. E. (508100496), Centro Hospitalar Barreiro Montijo, E. P. E. (509186998), Centro Hospitalar de São João, E. P. E. (509821197), Centro Hospitalar e Universitário de Coimbra, E. P. E. (510103448), SUCH - Serviço de Utilização Comum dos Hospitais (500900469), Administração Regional de Saúde do Norte, I. P. (503135593), Centro Hospitalar Póvoa de Varzim - Vila do Conde, E. P. E. (508741823), Centro Hospitalar do Médio Ave, E. P. E. (508093937)","EDP Comercial, S.A (503504564)","579.733,88 €",07-03-2016,30-01-2015,365 dias,"Portugal, Lisboa, Lisboa",Artigo 259.º do Código dos Contratos Públicos,31-12-2015,"525.715,02 €",,Valor corresponde ao Faturado (inferior ao estimado),,Não aplicável.,Não aplicável.,TRUE
Aquisição de serviços de manutenção aos equipamentos e sistemas de prevenção e combate contra incêndips,Ajuste Direto Regime Geral,Aquisição de serviços,"50413200-5, Serviços de reparação e manutenção de equipamento de combate a incêndios","CENTRO HOSPITALAR LISBOA NORTE, EPE (508481287)","Safety àgueda, SA (508607990)","2.496,90 €",07-03-2016,07-03-2016,399 dias,"Portugal, Lisboa, Lisboa","Artigo 20.º, n.º 1, alínea a) do Código dos Contratos Públicos","","",,"",,Não aplicável.,Não aplicável.,FALSE
Aquisição de somatropina,Ajuste Direto Regime Geral,Aquisição de bens móveis,"33690000-3, Medicamentos vários","Centro Hospitalar Lisboa Norte, E. P. E. (508481287)","Lilly Portugal, Lda. (500165602)","6.314,40 €",07-03-2016,01-03-2016,1 dias,"Portugal, Lisboa, Lisboa","Artigo 24.º, n.º 1, alínea e) do Código dos Contratos Públicos","","",,"",,Não aplicável.,Não aplicável.,FALSE
Aquisição de actividade VWF,Ajuste Direto Regime Geral,Aquisição de bens móveis,"33690000-3, Medicamentos vários","Centro Hospitalar Lisboa Norte, E. P. E. (508481287)","Werfen, Lda. (501086110)","9.600,00 €",07-03-2016,02-03-2016,1 dias,"Portugal, Lisboa, Lisboa","Artigo 24.º, n.º 1, alínea e) do Código dos Contratos Públicos","","",,"",,Não aplicável.,Não aplicável.,FALSE
Aquisição de fibrinogenio,Ajuste Direto Regime Geral,Aquisição de bens móveis,"33690000-3, Medicamentos vários","Centro Hospitalar Lisboa Norte, E. P. E. (508481287)","Werfen Portugal, Lda. (501086110)","8.750,00 €",07-03-2016,03-03-2016,1 dias,"Portugal, Lisboa, Lisboa","Artigo 24.º, n.º 1, alínea e) do Código dos Contratos Públicos","","",,"",,Não aplicável.,Não aplicável.,FALSE
Aquisição de imunoglobulina,Ajuste Direto Regime Geral,Aquisição de bens móveis,"33690000-3, Medicamentos vários","Centro Hospitalar Lisboa Norte, E. P. E. (508481287)","CSL Behring, Lda. (503047201)","90.385,50 €",07-03-2016,04-03-2016,1 dias,"Portugal, Lisboa, Lisboa","Artigo 24.º, n.º 1, alínea e) do Código dos Contratos Públicos","","",,"",,Não aplicável.,Não aplicável.,FALSE
AT manutenção aos equipamentos de distribuição automática de medicação Glintt,Ajuste Direto Regime Geral,Aquisição de serviços,"50430000-8, Serviços de reparação e manutenção de equipamento de precisão","CENTRO HOSPITALAR LISBOA NORTE, EPE (508481287)","Glintt, lda. (503502537)","2.640,00 €",04-03-2016,04-03-2016,365 dias,"Portugal, Lisboa, Lisboa","Artigo 24.º, n.º 1, alínea e) do Código dos Contratos Públicos","","",,"",,Não aplicável.,Não aplicável.,FALSE
Aquisição de protector de sapatos,Ajuste Direto Regime Geral,Aquisição de bens móveis,"33140000-3, Material médico de consumo","CENTRO HOSPITALAR LISBOA NORTE, EPE (508481287)","Docworld, Lda. (508592909)","8.303,00 €",04-03-2016,04-03-2016,303 dias,"Portugal, Lisboa, Lisboa","Artigo 20.º, n.º 1, alínea a) do Código dos Contratos Públicos","","",,"",,Não aplicável.,Não aplicável.,FALSE
Aquisição de factor VIII dupla,Ajuste Direto Regime Geral,Aquisição de bens móveis,"33690000-3, Medicamentos vários","Centro Hospitalar Lisboa Norte, E. P. E. (508481287)","Octapharma, Lda. (502820780)","8.640,00 €",04-03-2016,04-03-2016,1 dias,"Portugal, Lisboa, Lisboa","Artigo 24.º, n.º 1, alínea e) do Código dos Contratos Públicos","","",,"",,Não aplicável.,Não aplicável.,FALSE
Aquisição de lipidos 20 % emulsão,Ajuste Direto Regime Geral,Aquisição de bens móveis,"33690000-3, Medicamentos vários","Centro Hospitalar Lisboa Norte, E. P. E. (508481287)","Fresenius Kabi, Lda. (504293753)","5.600,00 €",04-03-2016,04-03-2016,1 dias,"Portugal, Lisboa, Lisboa","Artigo 24.º, n.º 1, alínea e) do Código dos Contratos Públicos","","",,"",,Não aplicável.,Não aplicável.,FALSE
Aquisição de factor VIII,Ajuste Direto Regime Geral,Aquisição de bens móveis,"33690000-3, Medicamentos vários","Centro Hospitalar Lisboa Norte, E. P. E. (508481287)","Octapharma, Lda. (502820780)","118.962,00 €",04-03-2016,04-03-2016,1 dias,"Portugal, Lisboa, Lisboa","Artigo 24.º, n.º 1, alínea e) do Código dos Contratos Públicos","","",,"",,Não aplicável.,Não aplicável.,FALSE
Aquisição de sevoflurano,Ajuste Direto Regime Geral,Aquisição de bens móveis,"33690000-3, Medicamentos vários","Centro Hospitalar Lisboa Norte, E. P. E. (508481287)","Abbvie, Lda. (510229050)","48.664,80 €",04-03-2016,04-03-2016,1 dias,"Portugal, Lisboa, Lisboa","Artigo 24.º, n.º 1, alínea e) do Código dos Contratos Públicos","","",,"",,Não aplicável.,Não aplicável.,FALSE
Aquisição de suplemento multivitaminico,Ajuste Direto Regime Geral,Aquisição de bens móveis,"33690000-3, Medicamentos vários","Centro Hospitalar Lisboa Norte, E. P. E. (508481287)","Dux Pharma, Lda. (510803679)","5.775,21 €",04-03-2016,04-03-2016,1 dias,"Portugal, Lisboa, Lisboa","Artigo 24.º, n.º 1, alínea e) do Código dos Contratos Públicos","","",,"",,Não aplicável.,Não aplicável.,FALSE
Aquisição de consumíveis informáticos,Concurso público,Aquisição de bens móveis,"30125110-5, Tóner para impressoras laser e aparelhos de fax","CENTRO HOSPITALAR LISBOA NORTE, EPE (508481287)","Printreutil, Lda. (506102866)","432,10 €",04-03-2016,04-03-2016,302 dias,"Portugal, Lisboa, Lisboa","Artigo 20.º, n.º 1, alínea b) do Código dos Contratos Públicos","","",,"",,Não aplicável.,Não aplicável.,FALSE
Aquisição de valvula aortica,Ajuste Direto Regime Geral,Aquisição de bens móveis,"33190000-8, Dispositivos e produtos médicos variados","CENTRO HOSPITALAR LISBOA NORTE, EPE (508481287)","Edwards Lifesciences, Lda. (508014832)","12.400,00 €",03-03-2016,03-03-2016,1 dias,"Portugal, Lisboa, Lisboa","Artigo 20.º, n.º 1, alínea a) do Código dos Contratos Públicos","","",,"",,Não aplicável.,Não aplicável.,FALSE
Aquisição de endoproteses,Ajuste Direto Regime Geral,Aquisição de bens móveis,"33190000-8, Dispositivos e produtos médicos variados","CENTRO HOSPITALAR LISBOA NORTE, EPE (508481287)","Biosonda, Lda. (501463313)","17.000,00 €",03-03-2016,03-03-2016,1 dias,"Portugal, Lisboa, Lisboa","Artigo 20.º, n.º 1, alínea a) do Código dos Contratos Públicos","","",,"",,Não aplicável.,Não aplicável.,FALSE
Aquisição de valvular aortica,Ajuste Direto Regime Geral,Aquisição de bens móveis,"33190000-8, Dispositivos e produtos médicos variados","CENTRO HOSPITALAR LISBOA NORTE, EPE (508481287)","Medtronic, Lda. (504223933)","49.500,00 €",03-03-2016,03-03-2016,1 dias,"Portugal, Lisboa, Lisboa","Artigo 20.º, n.º 1, alínea a) do Código dos Contratos Públicos","","",,"",,Não aplicável.,Não aplicável.,FALSE
Aquisição de CDI BIV,Ajuste Direto Regime Geral,Aquisição de bens móveis,"33190000-8, Dispositivos e produtos médicos variados","CENTRO HOSPITALAR LISBOA NORTE, EPE (508481287)","Medtronic, Lda. (504223933)","15.518,00 €",03-03-2016,03-03-2016,1 dias,"Portugal, Lisboa, Lisboa","Artigo 20.º, n.º 1, alínea a) do Código dos Contratos Públicos","","",,"",,Não aplicável.,Não aplicável.,FALSE
Aquisição de vitamina,Ajuste Direto Regime Geral,Aquisição de bens móveis,"33190000-8, Dispositivos e produtos médicos variados","Centro Hospitalar Lisboa Norte, E. P. E. (508481287)","Abbott, Lda. (500006148)","11.330,00 €",03-03-2016,03-03-2016,1 dias,"Portugal, Lisboa, Lisboa","Artigo 24.º, n.º 1, alínea e) do Código dos Contratos Públicos","","",,"",,Não aplicável.,Não aplicável.,FALSE
Reparação de Videobroncoscopio,Ajuste Direto Regime Geral,Aquisição de serviços,"50420000-5, Serviços de reparação e manutenção de equipamento médico e cirúrgico","CENTRO HOSPITALAR LISBOA NORTE, EPE (508481287)",Olympus Iberia (980474710),"6.947,51 €",03-03-2016,03-03-2016,30 dias,"Portugal, Lisboa, Lisboa","Artigo 20.º, n.º 1, alínea a) do Código dos Contratos Públicos","","",,"",,Não aplicável.,Não aplicável.,FALSE
Aquisição de acetilcolina,Ajuste Direto Regime Geral,Aquisição de bens móveis,"33690000-3, Medicamentos vários","Centro Hospitalar Lisboa Norte, E. P. E. (508481287)","Bausch & Lomb, SA (980218764)","8.688,40 €",03-03-2016,25-01-2016,303 dias,"Portugal, Lisboa, Lisboa","Artigo 24.º, n.º 1, alínea e) do Código dos Contratos Públicos","","",,"",,Não aplicável.,Não aplicável.,FALSE
Aquisição de consumiveis para cirurgia de parkinson,Ajuste Direto Regime Geral,Aquisição de bens móveis,"33190000-8, Dispositivos e produtos médicos variados","Centro Hospitalar Lisboa Norte, E. P. E. (508481287)","Medtronic Portugal, Lda. (504223933)","15.375,18 €",03-03-2016,03-03-2016,1 dias,"Portugal, Lisboa, Lisboa","Artigo 20.º, n.º 1, alínea a) do Código dos Contratos Públicos","","",,"",,Não aplicável.,Não aplicável.,FALSE
Aquisição de protese peniana,Ajuste Direto Regime Geral,Aquisição de bens móveis,"33190000-8, Dispositivos e produtos médicos variados","Centro Hospitalar Lisboa Norte, E. P. E. (508481287)","American Medical Systems, SAU (980223598)","6.200,00 €",03-03-2016,03-03-2016,1 dias,"Portugal, Lisboa, Lisboa","Artigo 20.º, n.º 1, alínea a) do Código dos Contratos Públicos","","",,"",,Não aplicável.,Não aplicável.,FALSE
Aquisição de pinça de dissecção,Ajuste Direto Regime Geral,Aquisição de bens móveis,"33190000-8, Dispositivos e produtos médicos variados","Centro Hospitalar Lisboa Norte, E. P. E. (508481287)","Eugenio Pereira, Lda. (503989525)","53,10 €",03-03-2016,03-03-2016,1 dias,"Portugal, Lisboa, Lisboa","Artigo 20.º, n.º 1, alínea a) do Código dos Contratos Públicos","","",,"",,Não aplicável.,Não aplicável.,FALSE
Aquisição de valvula aortica,Ajuste Direto Regime Geral,Aquisição de bens móveis,"33190000-8, Dispositivos e produtos médicos variados","Centro Hospitalar Lisboa Norte, E. P. E. (508481287)","Edwards Lifesciences, Lda. (508014832)","6.200,00 €",03-03-2016,03-03-2016,1 dias,"Portugal, Lisboa, Lisboa","Artigo 20.º, n.º 1, alínea a) do Código dos Contratos Públicos","","",,"",,Não aplicável.,Não aplicável.,FALSE
Reparação de Nasofibroscopio,Ajuste Direto Regime Geral,Aquisição de serviços,"50420000-5, Serviços de reparação e manutenção de equipamento médico e cirúrgico","CENTRO HOSPITALAR LISBOA NORTE, EPE (508481287)","Teprel, SA (502262184)","5.100,00 €",03-03-2016,03-03-2016,30 dias,"Portugal, Lisboa, Lisboa","Artigo 20.º, n.º 1, alínea a) do Código dos Contratos Públicos","","",,"",,Não aplicável.,Não aplicável.,FALSE
Reparação de Ecocardiógrafo,Ajuste Direto Regime Geral,Aquisição de serviços,"50420000-5, Serviços de reparação e manutenção de equipamento médico e cirúrgico","CENTRO HOSPITALAR LISBOA NORTE, EPE (508481287)","GE, SA (500357129)","18.000,00 €",03-03-2016,03-03-2016,30 dias,"Portugal, Lisboa, Lisboa","Artigo 20.º, n.º 1, alínea a) do Código dos Contratos Públicos","","",,"",,Não aplicável.,Não aplicável.,FALSE
Aquisição de cinco fotopolimerizadores,Ajuste Direto Regime Geral,Aquisição de bens móveis,"33100000-1, Equipamento médico","CENTRO HOSPITALAR LISBOA NORTE, EPE (508481287)","Montellano, Lda. (500196494)","3.350,00 €",03-03-2016,03-03-2016,60 dias,"Portugal, Lisboa, Lisboa","Artigo 20.º, n.º 1, alínea a) do Código dos Contratos Públicos","","",,"",,Não aplicável.,Não aplicável.,FALSE
Aquisição de material cirurgico para o Serviço de Cardiologia,Ajuste Direto Regime Geral,Aquisição de bens móveis,"33190000-8, Dispositivos e produtos médicos variados","Centro Hospitalar Lisboa Norte, E. P. E. (508481287)","B. Braun Medical, lda. (501506543)","551,78 €",02-03-2016,02-03-2016,1 dias,"Portugal, Lisboa, Lisboa","Artigo 20.º, n.º 1, alínea a) do Código dos Contratos Públicos","","",,"",,Não aplicável.,Não aplicável.,FALSE
Aquisição de protese valvular,Ajuste Direto Regime Geral,Aquisição de bens móveis,"33190000-8, Dispositivos e produtos médicos variados","Centro Hospitalar Lisboa Norte, E. P. E. (508481287)","Edwards Lifesciences, Lda. (508014832)","54.000,00 €",02-03-2016,25-02-2016,1 dias,"Portugal, Lisboa, Lisboa","Artigo 20.º, n.º 1, alínea a) do Código dos Contratos Públicos","","",,"",,Não aplicável.,Não aplicável.,FALSE
Aquisição de consumiveis para o Serviço de Cardiologia,Ajuste Direto Regime Geral,Aquisição de bens móveis,"33190000-8, Dispositivos e produtos médicos variados","Centro Hospitalar Lisboa Norte, E. P. E. (508481287)","St Jude Medical, Lda. (504180746)","16.133,00 €",02-03-2016,02-03-2016,1 dias,"Portugal, Lisboa, Lisboa","Artigo 20.º, n.º 1, alínea a) do Código dos Contratos Públicos","","",,"",,Não aplicável.,Não aplicável.,FALSE
Aquisição de CDI BIV,Ajuste Direto Regime Geral,Aquisição de bens móveis,"33190000-8, Dispositivos e produtos médicos variados","Centro Hospitalar Lisboa Norte, E. P. E. (508481287)","Medtronic Portugal, Lda. (504223933)","13.308,00 €",02-03-2016,02-03-2016,1 dias,"Portugal, Lisboa, Lisboa","Artigo 20.º, n.º 1, alínea a) do Código dos Contratos Públicos","","",,"",,Não aplicável.,Não aplicável.,FALSE
Aquisição de tampa p/ torneiro 3 vias,Ajuste Direto Regime Geral,Aquisição de bens móveis,"33190000-8, Dispositivos e produtos médicos variados","Centro Hospitalar Lisboa Norte, E. P. E. (508481287)","Vygon, Lda. (503232785)","427,50 €",02-03-2016,02-03-2016,1 dias,"Portugal, Lisboa, Lisboa","Artigo 24.º, n.º 1, alínea c) do Código dos Contratos Públicos","","",,"",,Não aplicável.,Não aplicável.,FALSE
