Objeto do Contrato,Tipo de Procedimento,Tipo(s) de Contrato,CPVs,Entidade(s) Adjudicante(s),Entidade(s) Adjudicatária(s),Preço Contratual,Data de Publicação,Data de Celebração do Contrato,Prazo de Execução,Local de Execução,Fundamentação,Data de Fecho do Contrato,Preço Total Efetivo,Causas das Alterações ao Prazo,Causas das Alterações ao Preço,Estado,N.º registo do Acordo Quadro,Descrição do Acordo Quadro,Procedimento Centralizado
Aquisição de pensos agulhas e seringas,Ao abrigo de acordo-quadro (art.º 259.º),Aquisição de bens móveis,"33140000-3, Material médico de consumo","Hospital do Espírito Santo de Évora, E. P. E. (508085888)","PERGUT PORTUGAL (501799729), Becton Diskinson, S.A.-Suc. em Portugal (980245214)","3.957,08 €",30-09-2016,16-09-2016,100 dias,"Portugal, Évora, Évora",Artigo 259.º do Código dos Contratos Públicos,,,,,,1341769,"ACORDO QUADRO PARA FORNECIMENTO DE SERINGAS, AGULHAS E CONTENTORES ÀS INSTITUIÇÕES E SERVIÇOS DO SERVIÇO NACIONAL DE SAÚDE PROGRAMA DE CONCURSO",FALSE
Aquisição de Equipamento Médico - Ortopantomógrafo,Ajuste Direto Regime Geral,Aquisição de bens móveis,"33100000-1, Equipamento médico","Hospital do Espírito Santo de Évora, E. P. E. (508085888)",MONTELLANO LDA (500196494),"24.944,00 €",22-09-2016,12-08-2016,8 dias,"Portugal, Évora, Évora","Artigo 20.º, n.º 1, alínea a) do Código dos Contratos Públicos",,,,,,Não aplicável.,Não aplicável.,FALSE
