Objeto do Contrato,Tipo de Procedimento,Tipo(s) de Contrato,CPVs,Entidade(s) Adjudicante(s),Entidade(s) Adjudicatária(s),Preço Contratual,Data de Publicação,Data de Celebração do Contrato,Prazo de Execução,Local de Execução,Fundamentação,Data de Fecho do Contrato,Preço Total Efetivo,Causas das Alterações ao Prazo,Causas das Alterações ao Preço,Estado,N.º registo do Acordo Quadro,Descrição do Acordo Quadro,Procedimento Centralizado
Aquisição de material de laboratório p/projeto,Ajuste Direto Regime Geral,Aquisição de bens móveis,"33140000-3, Material médico de consumo","Instituto Nacional de Saúde Doutor Ricardo Jorge, I. P. (501427511)",Normax (500203130),"86,56 €",11-12-2015,26-11-2015,30 dias,"Portugal, Lisboa, Lisboa","Artigo 26.º, n.º 1, alínea b) do Código dos Contratos Públicos",,,,,,Não aplicável.,Não aplicável.,FALSE
20150624 - Aquisição serviços reparação da centrifuga Thermo-Heraeus,Ajuste Direto Regime Geral,Aquisição de serviços,"50000000-5, Serviços de reparação e manutenção",INSTITUTO NACIONAL DE SAUDE DR. RICARDO JORGE (501427511),"Certilab - Serviços de Assistência Técnica a Equipamentos de Laboratórioe Industria, Ldª (505403013)","283,10 €",10-12-2015,05-11-2015,15 dias,"Portugal, Lisboa, Lisboa<BR/>Portugal, Porto, Porto","Artigo 20.º, n.º 1, alínea a) do Código dos Contratos Públicos",,,,,,Não aplicável.,Não aplicável.,FALSE
Aquisição  e colocação de aparelhos de ar condicionado,Ajuste Direto Regime Geral,Aquisição de bens móveis,"39717200-3, Aparelhos de ar condicionado",Instituto Nacional de Saúde Dr.Ricardo Jorge(INSA) (501427511),EUROMA 21 (508888972),"2.440,00 €",10-12-2015,23-11-2015,15 dias,"Portugal, Lisboa, Lisboa","Artigo 20.º, n.º 1, alínea a) do Código dos Contratos Públicos",,,,,,Não aplicável.,Não aplicável.,FALSE
20150495 - Aquisição de serviços para reparação de microscópio,Ajuste Direto Regime Geral,Aquisição de serviços,"50400000-9, Serviços de reparação e manutenção de equipamento médico e de precisão","Instituto Nacional de Saúde Doutor Ricardo Jorge, I. P. (501427511)",Duarte Nuno Lopes Clara (902055755),"599,80 €",10-12-2015,04-11-2015,15 dias,"Portugal, Lisboa, Lisboa","Artigo 20.º, n.º 1, alínea a) do Código dos Contratos Públicos",,,,,,Não aplicável.,Não aplicável.,FALSE
Aquisição  e colocação de aparelhos de ar condicionado,Ajuste Direto Regime Geral,Aquisição de bens móveis,"39717200-3, Aparelhos de ar condicionado",Instituto Nacional de Saúde Dr.Ricardo Jorge(INSA) (501427511),EUROMA 21 (508888972),"3.943,00 €",10-12-2015,23-11-2015,10 dias,"Portugal, Porto, Porto","Artigo 20.º, n.º 1, alínea a) do Código dos Contratos Públicos",,,,,,Não aplicável.,Não aplicável.,FALSE
Aquisição e colocação de acessórios para reparação de luminárias,Ajuste Direto Regime Geral,Aquisição de bens móveis,"31527200-8, Dispositivos de iluminação exterior",Instituto Nacional de Saúde Dr.Ricardo Jorge(INSA) (501427511),"MANVIA, S.A. (503171565)","1.264,52 €",10-12-2015,02-11-2015,3 dias,"Portugal, Lisboa, Lisboa","Artigo 20.º, n.º 1, alínea a) do Código dos Contratos Públicos",,,,,,Não aplicável.,Não aplicável.,FALSE
Aquisição de acessórios/peças com colocação no HPLC 7,Ajuste Direto Regime Geral,Aquisição de bens móveis,"38430000-8, Aparelhos de detecção e análise",Instituto Nacional de Saúde Dr.Ricardo Jorge(INSA) (501427511),Waters (510433669),"1.879,30 €",10-12-2015,30-10-2015,15 dias,"Portugal, Lisboa, Lisboa","Artigo 24.º, n.º 1, alínea e) do Código dos Contratos Públicos",,,,,,Não aplicável.,Não aplicável.,FALSE
Aquisição de Upgrade para Workstation,Ajuste Direto Regime Geral,Aquisição de bens móveis,"48100000-9, Pacote de software para sectores específicos",Instituto Nacional de Saúde Dr.Ricardo Jorge(INSA) (501427511),AB Sciex (510460771),"4.316,54 €",10-12-2015,30-10-2015,30 dias,"Portugal, Porto, Porto","Artigo 24.º, n.º 1, alínea e) do Código dos Contratos Públicos",,,,,,Não aplicável.,Não aplicável.,FALSE
Aquisição de serviços para reparação Central Gas,Ajuste Direto Regime Geral,Aquisição de serviços,"50700000-2, Serviços de reparação e manutenção de equipamento em edifícios","Instituto Nacional de Saúde Doutor Ricardo Jorge, I. P. (501427511)",Segur-Fogo (501508732),"79,00 €",10-12-2015,22-10-2015,15 dias,"Portugal, Lisboa, Lisboa","Artigo 20.º, n.º 1, alínea a) do Código dos Contratos Públicos",,,,,,Não aplicável.,Não aplicável.,FALSE
Aquisição de serviços para reparação de equipamentos,Ajuste Direto Regime Geral,Aquisição de serviços,"50800000-3, Serviços de reparação e manutenção diversos","Instituto Nacional de Saúde Doutor Ricardo Jorge, I. P. (501427511)","Alberto Rafael Ferreira Unipessoal, Lda (509842852)","577,00 €",10-12-2015,22-10-2015,20 dias,"Portugal, Lisboa, Lisboa","Artigo 20.º, n.º 1, alínea a) do Código dos Contratos Públicos",,,,,,Não aplicável.,Não aplicável.,FALSE
Aquisição de peças para videoprojetor,Ajuste Direto Regime Geral,Aquisição de bens móveis,"31700000-3, Material electrónico, electromecânico e electrotécnico","Instituto Nacional de Saúde Doutor Ricardo Jorge, I. P. (501427511)","NLS  NEW LINK SOLUTIONS - Consultoria e Engenharia, S.A. (505248948)","430,00 €",10-12-2015,27-11-2015,15 dias,"Portugal, Lisboa, Lisboa","Artigo 20.º, n.º 1, alínea a) do Código dos Contratos Públicos",,,,,,Não aplicável.,Não aplicável.,FALSE
20150406 - Aquisição serviços reparação de bomba colheita,Ajuste Direto Regime Geral,Aquisição de serviços,"50412000-6, Serviços de reparação e manutenção de aparelhos de ensaio","Instituto Nacional de Saúde Doutor Ricardo Jorge, I. P. (501427511)","AMBICONTROL - Controlo de Poluição, Ldª (502715464)","236,00 €",09-12-2015,01-06-2015,15 dias,"Portugal, Lisboa, Lisboa","Artigo 20.º, n.º 1, alínea a) do Código dos Contratos Públicos",,,,,,Não aplicável.,Não aplicável.,FALSE
"20150490 - Aquisição de serviços para descontaminação, fumigação e limpeza de condutas do Sistema AVAC",Ajuste Direto Regime Geral,Aquisição de serviços,"90900000-6, Serviços de limpeza e saneamento",Instituto Nacional de Saúde Dr.Ricardo Jorge(INSA) (501427511),"SISTAVAC, S.A. (502808004)","2.090,55 €",07-12-2015,27-08-2015,20 dias,"Portugal, Lisboa, Lisboa","Artigo 20.º, n.º 1, alínea a) do Código dos Contratos Públicos",,,,,,Não aplicável.,Não aplicável.,FALSE
20150518-Aquisição de serviços para reparação de diversos equipamentos de laboratório,Ajuste Direto Regime Geral,Aquisição de serviços,"50800000-3, Serviços de reparação e manutenção diversos",Instituto Nacional de Saúde Dr.Ricardo Jorge(INSA) (501427511),"Unicam - Sistemas Analíticos, Ldª (502614625)","4.152,00 €",07-12-2015,25-11-2015,15 dias,"Portugal, Lisboa, Lisboa","Artigo 24.º, n.º 1, alínea e) do Código dos Contratos Públicos",,,,,,Não aplicável.,Não aplicável.,FALSE
20150537-Aquisição de serviços para reparação dos sitemas ar condicionado e tratamento ar biotérios piso 3 e 4,Ajuste Direto Regime Geral,Aquisição de serviços,"50800000-3, Serviços de reparação e manutenção diversos",Instituto Nacional de Saúde Dr.Ricardo Jorge(INSA) (501427511),"Certifiltra - Manutenção de Ar Condicionado, Lda (504185861)","1.470,00 €",07-12-2015,03-12-2015,7 dias,"Portugal, Lisboa, Lisboa","Artigo 20.º, n.º 1, alínea a) do Código dos Contratos Públicos",,,,,,Não aplicável.,Não aplicável.,FALSE
20150562 - Aquisição serviços para reparação de um cromatografo e de um HPLC,Ajuste Direto Regime Geral,Aquisição de serviços,"50412000-6, Serviços de reparação e manutenção de aparelhos de ensaio",Instituto Nacional de Saúde Dr.Ricardo Jorge(INSA) (501427511),"Soquimica - Sociedade de Representações de Química, lda (500274231)","2.219,80 €",04-12-2015,01-12-2015,29 dias,"Portugal, Lisboa, Lisboa","Artigo 20.º, n.º 1, alínea a) do Código dos Contratos Públicos",,,,,,Não aplicável.,Não aplicável.,FALSE
20150534 - Aquisição de serviços para rparação de balanças de precisão,Ajuste Direto Regime Geral,Aquisição de serviços,"50430000-8, Serviços de reparação e manutenção de equipamento de precisão",Instituto Nacional de Saúde Dr.Ricardo Jorge(INSA) (501427511),"Qlabo Equipamentos Laboratório e Serviços, Ldª (503829994)","1.042,00 €",04-12-2015,24-11-2015,5 dias,"Portugal, Lisboa, Lisboa","Artigo 20.º, n.º 1, alínea a) do Código dos Contratos Públicos",,,,,,Não aplicável.,Não aplicável.,FALSE
20150366 - Aquisição de um sistema de digestão,Ajuste Direto Regime Geral,Aquisição de bens móveis,"38424000-3, Equipamento para medição e controlo",Instituto Nacional de Saúde Dr.Ricardo Jorge(INSA) (501427511),"Specanalítica Equipamentos Científicos, Ldª (507350871)","6.544,40 €",04-12-2015,19-08-2015,122 dias,"Portugal, Lisboa, Lisboa","Artigo 20.º, n.º 1, alínea a) do Código dos Contratos Públicos",,,,,,Não aplicável.,Não aplicável.,FALSE
Aquisição de acessórios de carga para equipamentos de esterilização,Ajuste Direto Regime Geral,Aquisição de bens móveis,"33191110-9, Autoclaves","Instituto Nacional de Saúde Doutor Ricardo Jorge, I. P. (501427511)",A.J.Costa Irmãos (500002576),"18.980,00 €",01-12-2015,03-11-2015,60 dias,"Portugal, Lisboa, Lisboa","Artigo 24.º, n.º 1, alínea e) do Código dos Contratos Públicos",,,,,,Não aplicável.,Não aplicável.,FALSE
