Objeto do Contrato,Tipo de Procedimento,Tipo(s) de Contrato,CPVs,Entidade(s) Adjudicante(s),Entidade(s) Adjudicatária(s),Preço Contratual,Data de Publicação,Data de Celebração do Contrato,Prazo de Execução,Local de Execução,Fundamentação,Data de Fecho do Contrato,Preço Total Efetivo,Causas das Alterações ao Prazo,Causas das Alterações ao Preço,Estado,N.º registo do Acordo Quadro,Descrição do Acordo Quadro,Procedimento Centralizado
Implantes Cocleares,Ao abrigo de acordo-quadro (art.º 259.º),Aquisição de bens móveis,"33000000-0, Equipamento médico, medicamentos e produtos para cuidados pessoais","Centro Hospitalar e Universitário de Coimbra, E. P. E. (510103448)","MED-EL PORTUGAL (980362539), COSELGI PORTUGAL, SA (509230598)","318.750,00 €",08-01-2016,20-08-2015,360 dias,"Portugal, Coimbra, Coimbra",Artigo 259.º do Código dos Contratos Públicos,"","","","",,344349,01/20000063/2011-Concurso Público para a Celebração de Acordo-Quadro para Celebração de Contratos de Fornecimento de Implantes Cocleares,FALSE
Central de Monitorização para a Transplantação Hepática,Ajuste Direto Regime Geral,Aquisição de bens móveis,"33000000-0, Equipamento médico, medicamentos e produtos para cuidados pessoais","Centro Hospitalar e Universitário de Coimbra, E. P. E. (510103448)","Drager Portugal, Lda. (508771323)","21.525,00 €",08-01-2016,19-11-2015,30 dias,"Portugal, Coimbra, Coimbra","Artigo 20.º, n.º 1, alínea a) do Código dos Contratos Públicos","","","","",,Não aplicável.,Não aplicável.,FALSE
Aquisição de Seguro AT para o CHUC-Janeiro2016,Ajuste Direto Regime Geral,Aquisição de serviços,"66510000-8, Serviços de seguros","Centro Hospitalar e Universitário de Coimbra, E. P. E. (510103448)",Publissegur (505100436),"54.308,94 €",08-01-2016,29-12-2015,31 dias,"Portugal, Coimbra, Coimbra","Artigo 24.º, n.º 1, alínea c) do Código dos Contratos Públicos",31-12-2016,"664.980,13 €","O contrato terá a duração de 1 mês, contado a partir de 01.01.2016, eventualmente renovável por iguais períodos, até que seja possível inscrever o compromisso pela totalidade do valor do contrato a celebrar para os restantes meses de 2016 no âmbito do Concurso Público nº 10900012016 e a obtenção do respectivo Visto prévio do Tribunal de Contas","O contrato terá a duração de 1 mês, contado a partir de 01.01.2016, eventualmente renovável por iguais períodos, até que seja possível inscrever o compromisso pela totalidade do valor do contrato a celebrar para os restantes meses de 2016 no âmbito do Concurso Público nº 10900012016 e a obtenção do respectivo Visto prévio do Tribunal de Contas",,Não aplicável.,Não aplicável.,FALSE
Aquisição de Material de Consumo Clinico,Ajuste Direto Regime Geral,Aquisição de bens móveis,"33000000-0, Equipamento médico, medicamentos e produtos para cuidados pessoais","Centro Hospitalar e Universitário de Coimbra, E. P. E. (510103448)","COVIDIEN PORTUGAL - PRODUTOS SAUDE, UNIPESSOAL LDA (503413410)","7.789,68 €",06-01-2016,29-12-2015,20 dias,"Portugal, Coimbra, Coimbra","Artigo 24.º, n.º 1, alínea e) do Código dos Contratos Públicos","","","","",,Não aplicável.,Não aplicável.,FALSE
Aquisição de Material de Consumo Clinico,Ajuste Direto Regime Geral,Aquisição de bens móveis,"33000000-0, Equipamento médico, medicamentos e produtos para cuidados pessoais","Centro Hospitalar e Universitário de Coimbra, E. P. E. (510103448)","COVIDIEN PORTUGAL - PRODUTOS SAUDE, UNIPESSOAL LDA (503413410)","5.760,00 €",06-01-2016,29-12-2015,20 dias,"Portugal, Coimbra, Coimbra","Artigo 24.º, n.º 1, alínea e) do Código dos Contratos Públicos","","","","",,Não aplicável.,Não aplicável.,FALSE
Serviços para expansão aos pólos HG/HP/MBB do Software SIBAS-Glintt,Ajuste Direto Regime Geral,Aquisição de serviços,"72000000-5, Serviços de TI: consultoria, desenvolvimento de software, Internet e apoio","Centro Hospitalar e Universitário de Coimbra, E. P. E. (510103448)",Glintt (502479418),"21.970,00 €",06-01-2016,14-12-2015,82 dias,"Portugal, Coimbra, Coimbra","Artigo 24.º, n.º 1, alínea e) do Código dos Contratos Públicos","","","","",,Não aplicável.,Não aplicável.,FALSE
130/99/2015-Upgrade da solução magic.web p/ Syngo.plaza(pacs/ris)-S.Radiologia polo HUC,Ajuste Direto Regime Geral,Aquisição de bens móveis,"48000000-8, Pacotes de software e sistemas de informação","Centro Hospitalar e Universitário de Coimbra, E.P. (510103448)","Siemens, SA (500247480)","57.992,81 €",05-01-2016,21-12-2015,30 dias,"Portugal, Coimbra, Coimbra","Artigo 24.º, n.º 1, alínea e) do Código dos Contratos Públicos","","","","",,Não aplicável.,Não aplicável.,FALSE
"Licenciamento anti-virus symantec, 2016",Ajuste Direto Regime Geral,Aquisição de serviços,"72000000-5, Serviços de TI: consultoria, desenvolvimento de software, Internet e apoio","Centro Hospitalar e Universitário de Coimbra, E. P. E. (510103448)",ITEN (510728189),"8.890,00 €",05-01-2016,30-12-2015,366 dias,"Portugal, Coimbra, Coimbra","Artigo 20.º, n.º 1, alínea a) do Código dos Contratos Públicos","","","","",,Não aplicável.,Não aplicável.,FALSE
"Contrato manutenção aplicações GLINTT do CHUC, 2015",Ajuste Direto Regime Geral,Aquisição de serviços,"72000000-5, Serviços de TI: consultoria, desenvolvimento de software, Internet e apoio","Centro Hospitalar e Universitário de Coimbra, E. P. E. (510103448)",Glintt (502479418),"257.750,00 €",05-01-2016,21-12-2015,365 dias,"Portugal, Coimbra, Coimbra","Artigo 24.º, n.º 1, alínea e) do Código dos Contratos Públicos","","","","",,Não aplicável.,Não aplicável.,FALSE
