Objeto do Contrato,Tipo de Procedimento,Tipo(s) de Contrato,CPVs,Entidade(s) Adjudicante(s),Entidade(s) Adjudicatária(s),Preço Contratual,Data de Publicação,Data de Celebração do Contrato,Prazo de Execução,Local de Execução,Fundamentação,Data de Fecho do Contrato,Preço Total Efetivo,Causas das Alterações ao Prazo,Causas das Alterações ao Preço,Estado,N.º registo do Acordo Quadro,Descrição do Acordo Quadro,Procedimento Centralizado
MAQUINA SUTURA CIRCULAR ANATOMICA N. 28/29 REF EEA28 - 115 UNIDADES  MAQUINA SUTURA CIRCULAR ANATOMICA N. 28/29 REF EEA2835 - 115 UNIDADES,Ajuste Direto Regime Geral,Aquisição de bens móveis,"33000000-0, Equipamento médico, medicamentos e produtos para cuidados pessoais","Centro Hospitalar e Universitário de Coimbra, E. P. E. (510103448)","COVIDIEN PORTUGAL - PRODUTOS SAUDE, UNIPESSOAL LDA (503413410)","73.025,00 €",31-10-2014,09-10-2014,60 dias,"Portugal, Coimbra, Coimbra","Artigo 24.º, n.º 1, alínea e) do Código dos Contratos Públicos",,,,,,Não aplicável.,Não aplicável.,FALSE
OXIGENADOR MENBRANA PARA ADULTO COM SETS - 200 UNIDADES,Ajuste Direto Regime Geral,Aquisição de bens móveis,"33000000-0, Equipamento médico, medicamentos e produtos para cuidados pessoais","Centro Hospitalar e Universitário de Coimbra, E. P. E. (510103448)","MEDTRONIC PORTUGAL, LDA (504223933)","39.440,00 €",31-10-2014,30-09-2014,60 dias,"Portugal, Coimbra, Coimbra","Artigo 26.º, n.º 1, alínea a) do Código dos Contratos Públicos",,,,,,Não aplicável.,Não aplicável.,FALSE
PINÇA ATLAS SHORT T/P REF LS4318 - 120 UNIDADES  PINÇA ATLAS SHORT T/P REF LS1020 - 60 UNIDADE,Ajuste Direto Regime Geral,Aquisição de bens móveis,"33000000-0, Equipamento médico, medicamentos e produtos para cuidados pessoais","Centro Hospitalar e Universitário de Coimbra, E. P. E. (510103448)","COVIDIEN PORTUGAL - PRODUTOS SAUDE, UNIPESSOAL LDA (503413410)","68.100,00 €",31-10-2014,09-10-2014,60 dias,"Portugal, Coimbra, Coimbra","Artigo 20.º, n.º 1, alínea a) do Código dos Contratos Públicos",,,,,,Não aplicável.,Não aplicável.,FALSE
Aquisição de um candeeiro de observação para o serviço de urgência- UGI Materno Fetal,Ajuste Direto Regime Geral,Aquisição de bens móveis,"39000000-2, Mobiliário (incl. de escritório), acessórios, aparelhos domésticos (excl. iluminação) e produtos de limpeza","Centro Hospitalar e Universitário de Coimbra, E. P. E. (510103448)","IBERDATA, SA (501904921)","686,00 €",30-10-2014,30-10-2014,28 dias,"Portugal, Coimbra, Coimbra","Artigo 20.º, n.º 1, alínea a) do Código dos Contratos Públicos",,,,,,Não aplicável.,Não aplicável.,FALSE
Aquisição de 2 apoios de cabeça Mayfield Doro para o BOC (230),Ajuste Direto Regime Geral,Aquisição de bens móveis,"33000000-0, Equipamento médico, medicamentos e produtos para cuidados pessoais","Centro Hospitalar e Universitário de Coimbra, E. P. E. (510103448)",Maquet (506819698),"17.000,00 €",30-10-2014,16-10-2014,19 dias,"Portugal, Coimbra, Coimbra","Artigo 20.º, n.º 1, alínea a) do Código dos Contratos Públicos",,,,,,Não aplicável.,Não aplicável.,FALSE
Aquisição de 2 televisores para o serviço de Urologia e Transplantação Renal (492),Ajuste Direto Regime Geral,Aquisição de bens móveis,"30000000-9, Máquinas, equipamento e material de escritório e de informática, excepto mobiliário e pacotes de programas (software)","Centro Hospitalar e Universitário de Coimbra, E. P. E. (510103448)","MARIO MIRANDA DE ALMEIDA, SA (501469044)","800,00 €",30-10-2014,16-10-2014,15 dias,"Portugal, Coimbra, Coimbra","Artigo 20.º, n.º 1, alínea a) do Código dos Contratos Públicos",,,,,,Não aplicável.,Não aplicável.,FALSE
"Aquisição de 2 insufladores de Co2, um para o BO do HG (25001) e outro para o BO da MBB (25003)",Ajuste Direto Regime Geral,Aquisição de bens móveis,"33000000-0, Equipamento médico, medicamentos e produtos para cuidados pessoais","Centro Hospitalar e Universitário de Coimbra, E. P. E. (510103448)",olympus iberia (980474710),"10.645,82 €",30-10-2014,22-10-2014,19 dias,"Portugal, Coimbra, Coimbra","Artigo 20.º, n.º 1, alínea a) do Código dos Contratos Públicos",,,,,,Não aplicável.,Não aplicável.,FALSE
Aquisição de 1 ventilador Neonatal para a unidade de recém nascidos (723),Ajuste Direto Regime Geral,Aquisição de bens móveis,"33000000-0, Equipamento médico, medicamentos e produtos para cuidados pessoais","Centro Hospitalar e Universitário de Coimbra, E. P. E. (510103448)",Pulmocor (501402578),"37.265,00 €",30-10-2014,27-10-2014,19 dias,"Portugal, Coimbra, Coimbra","Artigo 20.º, n.º 1, alínea a) do Código dos Contratos Públicos",,,,,,Não aplicável.,Não aplicável.,FALSE
Aquisição de 1 candeeiro hospitalar em suporte rodado- Urgência (570),Ajuste Direto Regime Geral,Aquisição de bens móveis,"31000000-6, Maquinaria, aparelhagem, equipamento e consumíveis eléctricos; iluminação","Centro Hospitalar e Universitário de Coimbra, E. P. E. (510103448)",EPJMédica (506820513),"235,75 €",30-10-2014,29-10-2014,8 dias,"Portugal, Coimbra, Coimbra","Artigo 20.º, n.º 1, alínea a) do Código dos Contratos Públicos",,,,,,Não aplicável.,Não aplicável.,FALSE
Aquisição de serviços para transporte de doentes em ambulância medicalizada de doentes do HP para cateterismos no HUC (out./dez.).,Ajuste Direto Regime Geral,Aquisição de serviços,"60000000-8, Serviços de transporte (excl. transporte de resíduos)","Centro Hospitalar e Universitário de Coimbra, E. P. E. (510103448)",BOMBEIROS VOLUNTÁRIOS DE CONDEIXA (501120033),"1.800,00 €",29-10-2014,28-10-2014,64 dias,"Portugal, Coimbra, Coimbra","Artigo 20.º, n.º 1, alínea a) do Código dos Contratos Públicos",,,,,,Não aplicável.,Não aplicável.,FALSE
Aquisição de serviços para execução projeto p/substituição chiller p/ sistema arrefecimento-edificios Cardiaca e S.Jeronimo,Ajuste Direto Regime Geral,Aquisição de serviços,"71000000-8, Serviços de arquitectura, construção, engenharia e inspecção","Centro Hospitalar e Universitário de Coimbra, E. P. E. (510103448)","HEATERMEC, LDA (509913288)","8.550,00 €",29-10-2014,27-10-2014,60 dias,"Portugal, Coimbra, Coimbra","Artigo 20.º, n.º 1, alínea a) do Código dos Contratos Públicos",,,,,,Não aplicável.,Não aplicável.,FALSE
FIO POLYGL.8/0 AG.D/ESPAT.(MICROPOINT)6MM(VIOLETA) - 84 UNIDADE  FIO POLYGL.7/0 AG.D/ESPAT.(MICROPOINT)6MM(VIOLETA) - 564 UNIDADES  FIO SUT.POLYGL.N.5/0 AG.DUPLA ESPAT.8MM(VIOLETA) - 228 UNIDADES,Ajuste Direto Regime Geral,Aquisição de bens móveis,"33000000-0, Equipamento médico, medicamentos e produtos para cuidados pessoais","Centro Hospitalar e Universitário de Coimbra, E. P. E. (510103448)","JOHNSON & JOHNSON, LDA (500153370)","9.948,36 €",28-10-2014,28-10-2014,60 dias,"Portugal, Coimbra, Coimbra","Artigo 24.º, n.º 1, alínea e) do Código dos Contratos Públicos",,,,,,Não aplicável.,Não aplicável.,FALSE
Consumíveis de Papelaria,Ajuste Direto Regime Geral,Aquisição de bens móveis,"30100000-0, Máquinas, equipamento e material de escritório, excepto computadores, impressoras e mobiliário","Centro Hospitalar e Universitário de Coimbra, E.P. (510103448)","OLMAR - ARTIGOS DE PAPELARIA, LDA (508831989), ECOFLOAT-SOLUÇÕES PARA ESCRITÓRIO,LDA (506628051), OHM TÉCNICA-REPRESENTAÇÕES DE MARCAS,LDA (504059521)","789,21 €",24-10-2014,06-08-2014,120 dias,"Portugal, Coimbra, Coimbra","Artigo 20.º, n.º 1, alínea a) do Código dos Contratos Públicos",,,,,,Não aplicável.,Não aplicável.,FALSE
Aquisição de serviços para a manutenção extintores/bocas incendio - HUC,Ajuste Direto Regime Geral,Aquisição de serviços,"50000000-5, Serviços de reparação e manutenção","Centro Hospitalar e Universitário de Coimbra, E. P. E. (510103448)",EXTINTEL (501391460),"3.000,41 €",21-10-2014,21-10-2014,30 dias,"Portugal, Coimbra, Coimbra","Artigo 20.º, n.º 1, alínea a) do Código dos Contratos Públicos",,,,,,Não aplicável.,Não aplicável.,FALSE
