Objeto do Contrato,Tipo de Procedimento,Tipo(s) de Contrato,CPVs,Entidade(s) Adjudicante(s),Entidade(s) Adjudicatária(s),Preço Contratual,Data de Publicação,Data de Celebração do Contrato,Prazo de Execução,Local de Execução,Fundamentação,Data de Fecho do Contrato,Preço Total Efetivo,Causas das Alterações ao Prazo,Causas das Alterações ao Preço,Estado,N.º registo do Acordo Quadro,Descrição do Acordo Quadro,Procedimento Centralizado
"Aquisição de material de manutenção e conservação para o Serviço de Instalações e Equipamentos do CHSJ,EPE, para o ano de 2014.",Ajuste Direto Regime Geral,Aquisição de bens móveis,"44000000-0, Estruturas e materiais de construção; produtos auxiliares de construção (excepto aparelhos eléctricos)","Centro Hospitalar de São João, E. P. E. (509821197)",Mavisan (502769203),"1.005,39 €",14-11-2014,17-07-2014,30 dias,"Portugal, Porto, Porto","Artigo 20.º, n.º 1, alínea a) do Código dos Contratos Públicos",,,,,,Não aplicável.,Não aplicável.,FALSE
"Aquisição de material de manutenção e conservação para o Serviço de Instalações e Equipamentos do CHSJ,EPE, para o ano de 2014.",Ajuste Direto Regime Geral,Aquisição de bens móveis,"39000000-2, Mobiliário (incl. de escritório), acessórios, aparelhos domésticos (excl. iluminação) e produtos de limpeza","Centro Hospitalar de São João, E. P. E. (509821197)","Rocha & Leitão, Lda (501270396)","78,80 €",14-11-2014,17-07-2014,30 dias,"Portugal, Porto, Porto","Artigo 20.º, n.º 1, alínea a) do Código dos Contratos Públicos",,,,,,Não aplicável.,Não aplicável.,FALSE
"Aquisição de material de manutenção e conservação para o Serviço de Instalações e Equipamentos do CHSJ,EPE, para o ano de 2014.",Ajuste Direto Regime Geral,Aquisição de bens móveis,"44000000-0, Estruturas e materiais de construção; produtos auxiliares de construção (excepto aparelhos eléctricos)","Centro Hospitalar de São João, E. P. E. (509821197)","A.Pinto & Filhos, Lda (502359757)","957,00 €",14-11-2014,17-07-2014,30 dias,"Portugal, Porto, Porto","Artigo 20.º, n.º 1, alínea a) do Código dos Contratos Públicos",,,,,,Não aplicável.,Não aplicável.,FALSE
"Aquisição de material de manutenção e conservação para o Serviço de Instalações e Equipamentos do CHSJ,EPE, para o ano de 2014.",Ajuste Direto Regime Geral,Aquisição de bens móveis,"44000000-0, Estruturas e materiais de construção; produtos auxiliares de construção (excepto aparelhos eléctricos)","Centro Hospitalar de São João, E. P. E. (509821197)","Carvalho, Batista & Companhia S.A. (500056773)","584,46 €",14-11-2014,17-07-2014,30 dias,"Portugal, Porto, Porto","Artigo 20.º, n.º 1, alínea a) do Código dos Contratos Públicos",,,,,,Não aplicável.,Não aplicável.,FALSE
"Aquisição de 18 lâmpadas xenon, 6 da marca Karl Storz e 12 da Olympus para vários serviços do CHSJ,EPE",Ajuste Direto Regime Geral,Aquisição de bens móveis,"31519100-8, Lâmpadas incandescentes","Centro Hospitalar de São João, E. P. E. (509821197)","Olympus Iberia, S.A.U. - Sucursal Portugal (980474710)","7.918,29 €",13-11-2014,08-10-2014,15 dias,"Portugal, Porto, Porto","Artigo 24.º, n.º 1, alínea e) do Código dos Contratos Públicos",,,,,,Não aplicável.,Não aplicável.,FALSE
"Aquisição de 18 lâmpadas xenon, 6 da marca Karl Storz e 12 da Olympus para vários serviços do CHSJ,EPE",Ajuste Direto Regime Geral,Aquisição de bens móveis,"31519100-8, Lâmpadas incandescentes","Centro Hospitalar de São João, E. P. E. (509821197)","Teprel - Equipamentos Médicos, S.A. (502262184)","6.300,00 €",13-11-2014,08-10-2014,90 dias,"Portugal, Porto, Porto","Artigo 24.º, n.º 1, alínea e) do Código dos Contratos Públicos",,,,,,Não aplicável.,Não aplicável.,FALSE
