Objeto do Contrato,Tipo de Procedimento,Tipo(s) de Contrato,CPVs,Entidade(s) Adjudicante(s),Entidade(s) Adjudicatária(s),Preço Contratual,Data de Publicação,Data de Celebração do Contrato,Prazo de Execução,Local de Execução,Fundamentação,Data de Fecho do Contrato,Preço Total Efetivo,Causas das Alterações ao Prazo,Causas das Alterações ao Preço,Estado,N.º registo do Acordo Quadro,Descrição do Acordo Quadro,Procedimento Centralizado
Fornecimento de Combustíveis,Ajuste Direto Regime Geral,Aquisição de bens móveis,"09100000-0, Combustíveis","Administração Regional de Saúde do Algarve, I. P. (503148709)","Petroleos de Portugal - Petrogal, SA (500697370)","12.700,13 €",10-02-2017,19-01-2017,60 dias,"Portugal, Faro, Faro","Artigo 24.º, n.º 1, alínea c) do Código dos Contratos Públicos",31-03-2017,"11.904,47 €",...,...,,Não aplicável.,Não aplicável.,FALSE
Fornecimento de Refeições Confecionadas,Ajuste Direto Regime Geral,Aquisição de serviços,"55520000-1, Serviços de fornecimento de refeições (catering)","Administração Regional de Saúde do Algarve, I. P. (503148709)","ITAU - Instituto de Alimentação Humana, SA (500142858)","50.286,33 €",07-02-2017,31-01-2017,59 dias,"Portugal, Faro, Faro","Artigo 24.º, n.º 1, alínea c) do Código dos Contratos Públicos","","","","",,Não aplicável.,Não aplicável.,FALSE
AD/62/2017 - Aquisição de seguro automóvel para viaturas da ARS Algarve e ACeS,Ajuste Direto Regime Geral,Aquisição de serviços,"66514110-0, Serviços de seguro automóvel","Administração Regional de Saúde do Algarve, I. P. (503148709)",Corbroker - Corretores de Seguros SA (503239470),"8.539,38 €",07-02-2017,07-02-2017,365 dias,"Portugal, Faro","Artigo 20.º, n.º 1, alínea a) do Código dos Contratos Públicos",17-02-2018,"8.539,38 €","","",,Não aplicável.,Não aplicável.,FALSE
Prestação de Serviços de Limpeza,Ajuste Direto Regime Geral,Aquisição de serviços,"90910000-9, Serviços de limpeza","Administração Regional de Saúde do Algarve, I. P. (503148709)","Operandus - Limpeza Profissional, Lda (502771496)","95.070,50 €",03-02-2017,30-01-2017,59 dias,"Portugal, Faro, Faro","Artigo 24.º, n.º 1, alínea c) do Código dos Contratos Públicos",01-06-2017,"74.326,02 €",.,.,,Não aplicável.,Não aplicável.,FALSE
SP/20/2017 - Aquisição de vacinas para PNV 2017,Ajuste Direto Regime Geral,Aquisição de bens móveis,"33651600-4, Vacinas","Administração Regional de Saúde do Algarve, I. P. (503148709)","GlaxoSmithKline - Produtos Farmacêuticos, Lda. (500139962)","155,70 €",02-02-2017,02-02-2017,328 dias,"Portugal, Faro, Faro","Artigo 24.º, n.º 1, alínea e) do Código dos Contratos Públicos","","","","",,Não aplicável.,Não aplicável.,FALSE
SP 9/2017 - Aquisição de mobiliário - referencia 2016UMC418,Ao abrigo de acordo-quadro (art.º 259.º),Aquisição de bens móveis,"39000000-2, Mobiliário (incl. de escritório), acessórios, aparelhos domésticos (excl. iluminação) e produtos de limpeza",ARSALGARVE (503148709),"Tripolo-soluções de escritório e armazenagem, Lda (501264124)","23.771,00 €",02-02-2017,18-01-2017,313 dias,"Portugal, Faro, Faro",Artigo 259.º do Código dos Contratos Públicos,07-08-2017,"23.771,00 €","","",,1260651,Acordo quadro de fornecimento de mobiliário,TRUE
SP 9/2017 - Aquisição de mobiliário - referencia 2016UMC418,Ao abrigo de acordo-quadro (art.º 259.º),Aquisição de bens móveis,"39000000-2, Mobiliário (incl. de escritório), acessórios, aparelhos domésticos (excl. iluminação) e produtos de limpeza",ARSALGARVE (503148709),"Julcar Mobiliário Integrado, SA (501140263)","2.325,00 €",02-02-2017,18-01-2017,313 dias,"Portugal, Faro, Faro",Artigo 259.º do Código dos Contratos Públicos,23-05-2017,"2.325,00 €","","",,1260651,Acordo quadro de fornecimento de mobiliário,TRUE
SP 9/2017 - Aquisição de mobiliário - referencia 2016UMC418,Ao abrigo de acordo-quadro (art.º 259.º),Aquisição de bens móveis,"39000000-2, Mobiliário (incl. de escritório), acessórios, aparelhos domésticos (excl. iluminação) e produtos de limpeza",ARSALGARVE (503148709),"Nautilus, SA (503653179)","20.028,00 €",02-02-2017,18-01-2017,313 dias,"Portugal, Faro, Faro",Artigo 259.º do Código dos Contratos Públicos,07-11-2017,"20.028,00 €","","",,1260651,Acordo quadro de fornecimento de mobiliário,TRUE
Prestação de serviços combinados de vigilância e segurança humana e de ligação a central de receção e monitorização de alarmes - janeiro e fevereiro 2017.,Ajuste Direto Regime Geral,Aquisição de serviços,"79714000-2, Serviços de vigilância","Administração Regional de Saúde do Algarve, I. P. (503148709)","COMANSEGUR - Segurança Privada, SA (503586579)","108.617,95 €",01-02-2017,23-01-2017,59 dias,"Portugal, Faro, Lagos<BR/>Portugal, Faro, Tavira<BR/>Portugal, Faro, Silves<BR/>Portugal, Faro, Olhão<BR/>Portugal, Faro, Loulé<BR/>Portugal, Faro, Albufeira<BR/>Portugal, Faro, Lagoa<BR/>Portugal, Faro, Faro<BR/>Portugal, Faro, Vila Real Sto Antonio<BR/>Portugal, Faro, Portimão","Artigo 24.º, n.º 1, alínea c) do Código dos Contratos Públicos",28-02-2017,"107.262,21 €","",Serviços efectivamente realizados.,,Não aplicável.,Não aplicável.,FALSE
