Objeto do Contrato,Tipo de Procedimento,Tipo(s) de Contrato,CPVs,Entidade(s) Adjudicante(s),Entidade(s) Adjudicatária(s),Preço Contratual,Data de Publicação,Data de Celebração do Contrato,Prazo de Execução,Local de Execução,Fundamentação,Data de Fecho do Contrato,Preço Total Efetivo,Causas das Alterações ao Prazo,Causas das Alterações ao Preço,Estado,N.º registo do Acordo Quadro,Descrição do Acordo Quadro,Procedimento Centralizado
"MCDT's ao Centro Hospitalar de Lisboa Ocidental, EPE, de Março a Dezembro de 2015",Ajuste Direto Regime Geral,Aquisição de serviços,"85000000-9, Serviços de saúde e acção social","Centro Hospitalar de Setúbal, E. P. E. (507606787)","Centro Hospitalar de Lisboa Ocidental, EPE (507618319)","37.742,76 €",31-03-2015,06-03-2015,301 dias,"Portugal, Lisboa, Lisboa","Artigo 20.º, n.º 1, alínea a) do Código dos Contratos Públicos","","",,"",,Não aplicável.,Não aplicável.,FALSE
"calcitriol 0,25mg, cetorolac 10mg",Ajuste Direto Regime Geral,Aquisição de bens móveis,"33690000-3, Medicamentos vários","Centro Hospitalar de Setúbal, E. P. E. (507606787)",Roche Farmaceutica quimica  (500233810),"11.694,63 €",27-03-2015,28-01-2015,365 dias,"Portugal, Setúbal, Setúbal","Artigo 21.º, n.º 1, alínea a) do Código dos Contratos Públicos","","",,"",,Não aplicável.,Não aplicável.,FALSE
PRODUTOS HEMOFILTRAÇAÕ,Ajuste Direto Regime Geral,Aquisição de bens móveis,"33690000-3, Medicamentos vários","Centro Hospitalar de Setúbal, E. P. E. (507606787)",FRESENIUS MEDICAL CARE (503070220),"34.858,18 €",26-03-2015,14-03-2015,365 dias,"Portugal, Setúbal, Setúbal","Artigo 26.º, n.º 1, alínea e) do Código dos Contratos Públicos","","",,"",,Não aplicável.,Não aplicável.,FALSE
Dialise peritoneal,Ajuste Direto Regime Geral,Aquisição de bens móveis,"33690000-3, Medicamentos vários","Centro Hospitalar de Setúbal, E. P. E. (507606787)",FRESENIUS MEDICAL CARE (503070220),"188.588,36 €",26-03-2015,21-01-2015,365 dias,"Portugal, Setúbal, Setúbal","Artigo 24.º, n.º 1, alínea e) do Código dos Contratos Públicos","","",,"",,Não aplicável.,Não aplicável.,FALSE
Produtos Dialise Peritoneal,Ajuste Direto Regime Geral,Aquisição de bens móveis,"33000000-0, Equipamento médico, medicamentos e produtos para cuidados pessoais","Centro Hospitalar de Setúbal, E. P. E. (507606787)",Baxter Medico Farmaceutica (503347345),"266.730,00 €",26-03-2015,07-01-2015,365 dias,"Portugal, Setúbal, Setúbal","Artigo 24.º, n.º 1, alínea e) do Código dos Contratos Públicos","","",,"",,Não aplicável.,Não aplicável.,FALSE
"MCDT's de Análises Genéticas, de Janeiro a Dezembro de 2015",Ajuste Direto Regime Geral,Aquisição de serviços,"85000000-9, Serviços de saúde e acção social","Centro Hospitalar de Setúbal, E. P. E. (507606787)","CGC - Centro Genético Cliníca e Patologia, SA (501410961)","20.265,90 €",26-03-2015,03-03-2015,304 dias,"Portugal, Lisboa, Lisboa","Artigo 20.º, n.º 1, alínea a) do Código dos Contratos Públicos","","",,"",,Não aplicável.,Não aplicável.,FALSE
"S10007/2015 Fornecimento de Serviços de Telerradiologia aos Doentes dos CHBM EPE, CHS EPE e HGO EPE",Concurso público,Aquisição de serviços,"85150000-5, Serviços de imagiologia médica","Centro Hospitalar de Setúbal, E. P. E. (507606787), Centro Hospitalar Barreiro Montijo, E. P. E. (509186998), Hospital Garcia de Orta, EPE (506361470)","ITM - Instituto de Telemedicina, Lda (506705641)","74.732,63 €",26-03-2015,11-09-2014,122 dias,"Portugal, Setúbal, Barreiro","Artigo 20.º, n.º 1, alínea b) do Código dos Contratos Públicos",31-12-2014,"34.984,50 €",,"O procedimento foi realizado para 3 entidades (valor do preço base), sendo apenas uma parte adjudicada ao CHBM.",,Não aplicável.,Não aplicável.,TRUE
Assistentes Operacionais de janeiro a março 2015,Ajuste Direto Regime Geral,Aquisição de serviços,"98000000-3, Outros serviços comunitários, sociais e pessoais","Centro Hospitalar de Setúbal, E. P. E. (507606787)",Randstad Recursos Humanos (503299006),"53.456,00 €",26-03-2015,26-02-2015,90 dias,"Portugal, Setúbal, Setúbal","Artigo 20.º, n.º 1, alínea a) do Código dos Contratos Públicos","","",,"",,Não aplicável.,Não aplicável.,FALSE
Renovação da assinatura anual - Clinicalkey,Ajuste Direto Regime Geral,Aquisição de bens móveis,"48000000-8, Pacotes de software e sistemas de informação","Centro Hospitalar de Setúbal, E. P. E. (507606787)",Lusodoc (502609982),"25.357,19 €",25-03-2015,06-03-2015,301 dias,"Portugal, Setúbal, Setúbal","Artigo 20.º, n.º 1, alínea a) do Código dos Contratos Públicos","","",,"",,Não aplicável.,Não aplicável.,FALSE
