Objeto do Contrato,Tipo de Procedimento,Tipo(s) de Contrato,CPVs,Entidade(s) Adjudicante(s),Entidade(s) Adjudicatária(s),Preço Contratual,Data de Publicação,Data de Celebração do Contrato,Prazo de Execução,Local de Execução,Fundamentação,Data de Fecho do Contrato,Preço Total Efetivo,Causas das Alterações ao Prazo,Causas das Alterações ao Preço,Estado,N.º registo do Acordo Quadro,Descrição do Acordo Quadro,Procedimento Centralizado
"Prestação de Serviços Médicos, na Especialidade de Ortopedia, na ULSNA, EPE (Maio a Junho/2016)",Ajuste Direto Regime Geral,Aquisição de serviços,"85100000-0, Serviços de saúde","Unidade Local de Saúde do Norte Alentejano, E. P. E. (508094461)","Corevalue Healthcare Solutions, Lda (513654577)","12.480,00 €",07-07-2016,16-06-2016,61 dias,"Portugal, Portalegre, Portalegre","Artigo 24.º, n.º 1, alínea b) do Código dos Contratos Públicos",16-06-2016,"12.480,00 €",,"",,Não aplicável.,Não aplicável.,FALSE
"Prestação de Serviços Médicos, na Especialidade de Anestesiologia, na ULSNA, EPE (Julho a Agosto/2016)",Ajuste Direto Regime Geral,Aquisição de serviços,"85100000-0, Serviços de saúde","Unidade Local de Saúde do Norte Alentejano, E. P. E. (508094461)","Ciclipolis Serviços Médicos, Lda (508320526)","82.275,00 €",07-07-2016,27-06-2016,62 dias,"Portugal, Portalegre, Portalegre","Artigo 24.º, n.º 1, alínea c) do Código dos Contratos Públicos",27-06-2016,"82.275,00 €",,"",,Não aplicável.,Não aplicável.,FALSE
"Prestação de Serviços Médicos, na Especialidade de Cardiologia, na ULSNA, EPE (Março/2016)",Ajuste Direto Regime Geral,Aquisição de serviços,"85100000-0, Serviços de saúde","Unidade Local de Saúde do Norte Alentejano, E. P. E. (508094461)","Hamad Hamad, Serviços Médicos, Lda (510671853)","5.370,68 €",07-07-2016,22-06-2016,31 dias,"Portugal, Portalegre, Portalegre","Artigo 24.º, n.º 1, alínea c) do Código dos Contratos Públicos",22-06-2016,"5.370,68 €",,"",,Não aplicável.,Não aplicável.,FALSE
FORNECIMENTO DE MATERIAL DE PENSO DE EFEITO TERAPEUTICO,Ao abrigo de acordo-quadro (art.º 259.º),Aquisição de bens móveis,"33000000-0, Equipamento médico, medicamentos e produtos para cuidados pessoais","Unidade Local de Saúde do Norte Alentejano, E. P. E. (508094461)",LABORATORIOS URGO SL (B83608604),"1.655,30 €",07-07-2016,07-07-2016,240 dias,"Portugal, Portalegre, Portalegre<BR/>Portugal, Portalegre, Elvas",Artigo 259.º do Código dos Contratos Públicos,31-12-2016,"941,40 €",,Não foram adquiridas as quantidades estimadas,,1315192,Acordo Quadro para fornecimento de material de penso de efeito terapêutico às Instituições e Serviços do Serviço Nacional de Saúde,FALSE
FORNECIMENTO DE MATERIAL DE PENSO DE EFEITO TERAPÊUTICO,Ao abrigo de acordo-quadro (art.º 259.º),Aquisição de bens móveis,"33000000-0, Equipamento médico, medicamentos e produtos para cuidados pessoais","Unidade Local de Saúde do Norte Alentejano, E. P. E. (508094461)",OVERPHARMA (505792362),"2.080,00 €",07-07-2016,07-07-2016,240 dias,"Portugal, Portalegre, Elvas<BR/>Portugal, Portalegre, Portalegre",Artigo 259.º do Código dos Contratos Públicos,31-12-2016,"1.152,00 €",,Não foram adquiridas as quantidades estimadas,,1315192,Acordo Quadro para fornecimento de material de penso de efeito terapêutico às Instituições e Serviços do Serviço Nacional de Saúde,FALSE
FORNECIMENTO DE MATERIAL DE PENSO DE EFEITO TERAPÊUTICO,Ao abrigo de acordo-quadro (art.º 259.º),Aquisição de bens móveis,"33000000-0, Equipamento médico, medicamentos e produtos para cuidados pessoais","Unidade Local de Saúde do Norte Alentejano, E. P. E. (508094461)",CLINIFAR (503281115),"6.386,00 €",07-07-2016,07-07-2016,240 dias,"Portugal, Portalegre, Elvas<BR/>Portugal, Portalegre, Portalegre",Artigo 259.º do Código dos Contratos Públicos,31-12-2016,"2.817,00 €",,Não foram adquiridas as quantidades estimadas,,1315192,Acordo Quadro para fornecimento de material de penso de efeito terapêutico às Instituições e Serviços do Serviço Nacional de Saúde,FALSE
FORNECIMENTO DE MATERIAL DE PENSO DE EFEITO TERAPÊUTICO,Ao abrigo de acordo-quadro (art.º 259.º),Aquisição de bens móveis,"33000000-0, Equipamento médico, medicamentos e produtos para cuidados pessoais","Unidade Local de Saúde do Norte Alentejano, E. P. E. (508094461)",SMITH & NEPHEW (503552461),"1.367,40 €",07-07-2016,07-07-2016,240 dias,"Portugal, Portalegre, Portalegre<BR/>Portugal, Portalegre, Elvas",Artigo 259.º do Código dos Contratos Públicos,31-12-2016,"327,00 €",,Não foram adquiridas as quantidades estimadas,,1315192,Acordo Quadro para fornecimento de material de penso de efeito terapêutico às Instituições e Serviços do Serviço Nacional de Saúde,FALSE
FORNECIMENTO DE MATERIAL DE PENSO DE EFEITO TERAPÊUTICO,Ao abrigo de acordo-quadro (art.º 259.º),Aquisição de bens móveis,"33000000-0, Equipamento médico, medicamentos e produtos para cuidados pessoais","Unidade Local de Saúde do Norte Alentejano, E. P. E. (508094461)",B.BRAUN (501506543),"2.171,40 €",07-07-2016,07-07-2016,240 dias,"Portugal, Portalegre, Portalegre<BR/>Portugal, Portalegre, Elvas",Artigo 259.º do Código dos Contratos Públicos,31-12-2016,"831,60 €",,Não foram adquiridas as quantidades estimadas,,1315192,Acordo Quadro para fornecimento de material de penso de efeito terapêutico às Instituições e Serviços do Serviço Nacional de Saúde,FALSE
FORNECIMENTO DE MATERIAL DE PENSO DE EFEITO TERAPÊUTICO,Ao abrigo de acordo-quadro (art.º 259.º),Aquisição de bens móveis,"33000000-0, Equipamento médico, medicamentos e produtos para cuidados pessoais","Unidade Local de Saúde do Norte Alentejano, E. P. E. (508094461)",MOLNLYCKE (511101066),"5.032,20 €",07-07-2016,07-07-2016,240 dias,"Portugal, Portalegre, Portalegre<BR/>Portugal, Portalegre, Elvas",Artigo 259.º do Código dos Contratos Públicos,31-12-2016,"5.032,20 €",,"",,1315192,Acordo Quadro para fornecimento de material de penso de efeito terapêutico às Instituições e Serviços do Serviço Nacional de Saúde,FALSE
Fornecimento de material de penso de efeito terapêutico.,Ao abrigo de acordo-quadro (art.º 259.º),Aquisição de bens móveis,"33000000-0, Equipamento médico, medicamentos e produtos para cuidados pessoais","Unidade Local de Saúde do Norte Alentejano, E. P. E. (508094461)",KVTECH (508671531),"4.966,80 €",07-07-2016,07-07-2016,240 dias,"Portugal, Portalegre, Portalegre<BR/>Portugal, Portalegre, Elvas",Artigo 259.º do Código dos Contratos Públicos,31-12-2016,"1.793,00 €",,Não foram adquiridas as quantidades estimadas,,1315192,Acordo Quadro para fornecimento de material de penso de efeito terapêutico às Instituições e Serviços do Serviço Nacional de Saúde,FALSE
