Objeto do Contrato,Tipo de Procedimento,Tipo(s) de Contrato,CPVs,Entidade(s) Adjudicante(s),Entidade(s) Adjudicatária(s),Preço Contratual,Data de Publicação,Data de Celebração do Contrato,Prazo de Execução,Local de Execução,Fundamentação,Data de Fecho do Contrato,Preço Total Efetivo,Causas das Alterações ao Prazo,Causas das Alterações ao Preço,Estado,N.º registo do Acordo Quadro,Descrição do Acordo Quadro,Procedimento Centralizado
31103018 - OSIMERTINIB 80 MG COMP - 2018,Consulta Prévia,Aquisição de bens móveis,"33600000-6, Produtos farmacêuticos","Hospital Distrital de Santarém, EPE (506361462)",ASTRAZENECA PRODUTOS FARMACEUTICOS LDA (502942240),"66.435,96 €",07-02-2019,02-02-2018,332 dias,"Portugal, Santarém, Santarém","Artigo 20.º, n.º 1, alínea c) do Código dos Contratos Públicos",,,,,,Não aplicável.,Não aplicável.,FALSE
31101818 - MEDICAMENTOS F.U. ASTRAZENECA 2018,Consulta Prévia,Aquisição de bens móveis,"33600000-6, Produtos farmacêuticos","Hospital Distrital de Santarém, EPE (506361462)",Astrazeneca Produtos Farmacêuticos Lda (502942240),"23.521,38 €",07-02-2019,31-01-2018,334 dias,"Portugal, Santarém, Santarém","Artigo 20.º, n.º 1, alínea c) do Código dos Contratos Públicos",,,,,,Não aplicável.,Não aplicável.,FALSE
Concurso Publico 180005/2019,Concurso público,Aquisição de serviços,"55520000-1, Serviços de fornecimento de refeições (catering)","Hospital Distrital de Santarém, E. P. E. (506361462)",ITAU SA (500142858),"1.080.746,52 €",07-02-2019,05-02-2019,335 dias,"Portugal, Santarém, Santarém","Artigo 20.º, n.º 1, alínea a) do Código dos Contratos Públicos",,,,,,Não aplicável.,Não aplicável.,FALSE
CP 140001/2019-Aquisição de Artigos de Papel para Higiene e Limpeza,Concurso público,Aquisição de bens móveis,"33760000-5, Papel higiénico, lenços, toalhas de mão e guardanapos","Hospital Distrital de Santarém, E. P. E. (506361462)","Rei&Rei, Lda (502897970)","120.745,50 €",05-02-2019,10-01-2019,1095 dias,"Portugal, Santarém, Santarém","Artigo 20.º, n.º 1, alínea a) do Código dos Contratos Públicos",,,,,,Não aplicável.,Não aplicável.,FALSE
CP 140001/2019-Aquisição de Artigos de Papel para Higiene e Limpeza,Concurso público,Aquisição de bens móveis,"33760000-5, Papel higiénico, lenços, toalhas de mão e guardanapos","Hospital Distrital de Santarém, E. P. E. (506361462)","Visipapel, Lda (502020733)","85.261,14 €",05-02-2019,10-01-2019,1095 dias,"Portugal, Santarém, Santarém","Artigo 20.º, n.º 1, alínea a) do Código dos Contratos Públicos",,,,,,Não aplicável.,Não aplicável.,FALSE
