Objeto do Contrato,Tipo de Procedimento,Tipo(s) de Contrato,CPVs,Entidade(s) Adjudicante(s),Entidade(s) Adjudicatária(s),Preço Contratual,Data de Publicação,Data de Celebração do Contrato,Prazo de Execução,Local de Execução,Fundamentação,Data de Fecho do Contrato,Preço Total Efetivo,Causas das Alterações ao Prazo,Causas das Alterações ao Preço,Estado,N.º registo do Acordo Quadro,Descrição do Acordo Quadro,Procedimento Centralizado
FEXC0180/2016 - SOFOSBUVIR 400 MG COMP REVES,Ajuste Direto Regime Geral,Aquisição de bens móveis,"33600000-6, Produtos farmacêuticos","Centro Hospitalar Barreiro Montijo, E. P. E. (509186998)","GILEAD SCIENCES, LDA. (503604704)","41.164,83 €",28-09-2016,27-09-2016,5 dias,"Portugal, Setúbal, Barreiro","Artigo 24.º, n.º 1, alínea e) do Código dos Contratos Públicos",28-09-2016,"41.164,83 €",,,,Não aplicável.,Não aplicável.,FALSE
FEXC0179/2016 - NIVOLUMAB 100MG (10MG/ML FR 10ML) SOL INJ,Ajuste Direto Regime Geral,Aquisição de bens móveis,"33600000-6, Produtos farmacêuticos","Centro Hospitalar Barreiro Montijo, E. P. E. (509186998)",BRISTOL MYERS SQUIBB-FARM. POR (500048193),"5.700,00 €",26-09-2016,23-09-2016,20 dias,"Portugal, Setúbal, Barreiro","Artigo 24.º, n.º 1, alínea e) do Código dos Contratos Públicos",26-09-2016,"5.700,00 €",,,,Não aplicável.,Não aplicável.,FALSE
FI0409/2016 - CETIRIZINA 1MG/ML SOL ORAL FRS 150 ML,Ao abrigo de acordo-quadro (art.º 259.º),Aquisição de bens móveis,"33600000-6, Produtos farmacêuticos","Centro Hospitalar Barreiro Montijo, E. P. E. (509186998)","LABESFAL-L. ESP. FARM. ALMIRO, (501169580)","18,90 €",22-09-2016,21-09-2016,100 dias,"Portugal, Setúbal, Barreiro",Artigo 259.º do Código dos Contratos Públicos,30-12-2016,"18,90 €",,,,602067,"ONCURSO PÚBLICO PARA A CELEBRAÇÃO DE CONTRATOS PÚBLICOS DE APROVISIONAMENTO PARA A ÁREA DA SAÚDE, COM VISTA AO FORNECIMENTO DE MEDICAMENTOS DE CONSUMO GERAL - MEDICAÇÃO ANTIALÉRGICA, MEDICAMENTOS USADOS NO TRATAMENTO DE INTOXICAÇÕES, VITAMINAS E SAIS MINERAIS  E GRUPO 20.9 - OUTROS PRODUTOS, ÀS INSTITUIÇÕES E SERVIÇOS DO SERVIÇO NACIONAL DE SAÚDE",FALSE
