Objeto do Contrato,Tipo de Procedimento,Tipo(s) de Contrato,CPVs,Entidade(s) Adjudicante(s),Entidade(s) Adjudicatária(s),Preço Contratual,Data de Publicação,Data de Celebração do Contrato,Prazo de Execução,Local de Execução,Fundamentação,Data de Fecho do Contrato,Preço Total Efetivo,Causas das Alterações ao Prazo,Causas das Alterações ao Preço,Estado,N.º registo do Acordo Quadro,Descrição do Acordo Quadro,Procedimento Centralizado
Aquisição de um Monitor Desfibrilhador,Ajuste Direto Regime Geral,Aquisição de bens móveis,"33000000-0, Equipamento médico, medicamentos e produtos para cuidados pessoais","Centro Hospitalar e Universitário de Coimbra, E. P. E. (510103448)","Clinifar, S.A. (503281115)","4.900,00 €",10-12-2015,10-12-2015,30 dias,"Portugal, Coimbra, Coimbra","Artigo 20.º, n.º 1, alínea a) do Código dos Contratos Públicos",,,,,,Não aplicável.,Não aplicável.,FALSE
Aquisição e montagem de 7 Intercomunicadores,Ajuste Direto Regime Geral,Aquisição de bens móveis,"32000000-3, Equipamento de rádio, televisão, comunicação, telecomunicações e afins","Centro Hospitalar e Universitário de Coimbra, E. P. E. (510103448)",Licínio Nobre - Victor Ferreira da Silva (187709831),"1.446,36 €",10-12-2015,09-12-2015,3 dias,"Portugal, Coimbra, Coimbra","Artigo 20.º, n.º 1, alínea a) do Código dos Contratos Públicos",,,,,,Não aplicável.,Não aplicável.,FALSE
Aquisição de Material de Consumo Clinico,Ajuste Direto Regime Geral,Aquisição de bens móveis,"33000000-0, Equipamento médico, medicamentos e produtos para cuidados pessoais","Centro Hospitalar e Universitário de Coimbra, E. P. E. (510103448)","COVIDIEN PORTUGAL - PRODUTOS SAUDE, UNIPESSOAL LDA (503413410)","8.085,00 €",10-12-2015,10-12-2015,20 dias,"Portugal, Coimbra, Coimbra","Artigo 24.º, n.º 1, alínea e) do Código dos Contratos Públicos",,,,,,Não aplicável.,Não aplicável.,FALSE
Valvulas mecanicas; Valvulas biologicas  c/stent,Ajuste Direto Regime Geral,Aquisição de bens móveis,"33182220-7, Válvulas cardíacas","Centro Hospitalar e Universitário de Coimbra, E. P. E. (510103448)",ST. JUDE MEDICAL PORTUGAL (504180746),"86.965,00 €",09-12-2015,03-12-2015,10 dias,"Portugal, Coimbra, Coimbra","Artigo 24.º, n.º 1, alínea e) do Código dos Contratos Públicos",,,,,,Não aplicável.,Não aplicável.,FALSE
Kit AC Sprit flex  08/60 para bomba insulina; Reservatorios / cartuchos p/ bomba insulina,Ao abrigo de acordo-quadro (art.º 259.º),Aquisição de bens móveis,"33000000-0, Equipamento médico, medicamentos e produtos para cuidados pessoais","Centro Hospitalar e Universitário de Coimbra, E. P. E. (510103448)","ROCHE SISTEMAS DIAGNOSTICO, SOC. UNIPESSOAL, LDA (504282921)","97.008,24 €",09-12-2015,26-11-2015,10 dias,"Portugal, Coimbra, Coimbra",Artigo 259.º do Código dos Contratos Públicos,,,,,,1442148,ACORDO QUADRO PARA FORNECIMENTO DE BOMBAS DE PERFUSÃO SUBCUTANEA CONTINUA DE INSULINA E RESPETIVOS CONSUMÍVEIS ÀS INSTITUIÇÕES E SERVIÇOS DO SERVIÇO NACIONAL DE SAÚDE. CP 2015/29,FALSE
Bomba perfusão continua insulina;A aplicador para bomba perfusão  insulina; Reservatorio/ cartucho p/ bomba insulina,Ao abrigo de acordo-quadro (art.º 259.º),Aquisição de bens móveis,"33000000-0, Equipamento médico, medicamentos e produtos para cuidados pessoais","Centro Hospitalar e Universitário de Coimbra, E. P. E. (510103448)","ROCHE SISTEMAS DIAGNOSTICO, SOC. UNIPESSOAL, LDA (504282921)","66.575,51 €",09-12-2015,25-11-2015,10 dias,"Portugal, Coimbra, Coimbra",Artigo 259.º do Código dos Contratos Públicos,,,,,,1442148,ACORDO QUADRO PARA FORNECIMENTO DE BOMBAS DE PERFUSÃO SUBCUTANEA CONTINUA DE INSULINA E RESPETIVOS CONSUMÍVEIS ÀS INSTITUIÇÕES E SERVIÇOS DO SERVIÇO NACIONAL DE SAÚDE. CP 2015/29,FALSE
Reservatorios para bombas infusora insulina; ~Cateteres para bomba infusora de insulna,Ao abrigo de acordo-quadro (art.º 259.º),Aquisição de bens móveis,"33000000-0, Equipamento médico, medicamentos e produtos para cuidados pessoais","Centro Hospitalar e Universitário de Coimbra, E. P. E. (510103448)","PMH PRODUTOS MEDIC. HOSPITAL, SA (502376899)","20.361,70 €",09-12-2015,27-11-2015,10 dias,"Portugal, Coimbra, Coimbra",Artigo 259.º do Código dos Contratos Públicos,,,,,,1442148,ACORDO QUADRO PARA FORNECIMENTO DE BOMBAS DE PERFUSÃO SUBCUTANEA CONTINUA DE INSULINA E RESPETIVOS CONSUMÍVEIS ÀS INSTITUIÇÕES E SERVIÇOS DO SERVIÇO NACIONAL DE SAÚDE. CP 2015/29,FALSE
Cateteres para bombas de insulina; Reservatórios para bombas de insulina,Ajuste Direto Regime Geral,Aquisição de bens móveis,"33000000-0, Equipamento médico, medicamentos e produtos para cuidados pessoais","Centro Hospitalar e Universitário de Coimbra, E. P. E. (510103448)","MEDTRONIC PORTUGAL, LDA (504223933)","90.492,00 €",09-12-2015,26-11-2015,10 dias,"Portugal, Coimbra, Coimbra","Artigo 24.º, n.º 1, alínea e) do Código dos Contratos Públicos",,,,,,Não aplicável.,Não aplicável.,FALSE
Material para Cirurgia Cranio Facial(Req. 337),Ajuste Direto Regime Geral,Aquisição de bens móveis,"33000000-0, Equipamento médico, medicamentos e produtos para cuidados pessoais","Centro Hospitalar e Universitário de Coimbra, E. P. E. (510103448)","OSTEOPLAC, SL (B20595989)","9.303,80 €",07-12-2015,07-12-2015,20 dias,"Portugal, Coimbra, Coimbra","Artigo 24.º, n.º 1, alínea e) do Código dos Contratos Públicos",,,,,,Não aplicável.,Não aplicável.,FALSE
Kit Simples cateterismo Adulto,Ajuste Direto Regime Geral,Aquisição de bens móveis,"33000000-0, Equipamento médico, medicamentos e produtos para cuidados pessoais","Centro Hospitalar e Universitário de Coimbra, E. P. E. (510103448)","BASTOS VIEGAS, SA (500042772)","31.232,00 €",07-12-2015,30-11-2015,20 dias,"Portugal, Coimbra, Coimbra","Artigo 24.º, n.º 1, alínea e) do Código dos Contratos Públicos",,,,,,Não aplicável.,Não aplicável.,FALSE
040236672015 - COLUNA,Ajuste Direto Regime Geral,Aquisição de bens móveis,"33000000-0, Equipamento médico, medicamentos e produtos para cuidados pessoais","Centro Hospitalar e Universitário de Coimbra, E.P. (510103448)",MEDTRONIC (504223933),"10.870,00 €",07-12-2015,30-11-2015,2 dias,"Portugal, Coimbra, Coimbra","Artigo 24.º, n.º 1, alínea e) do Código dos Contratos Públicos",,,,,,Não aplicável.,Não aplicável.,FALSE
040229222015 - OUTRO MATERIAL DE CONSUMO,Ajuste Direto Regime Geral,Aquisição de bens móveis,"33000000-0, Equipamento médico, medicamentos e produtos para cuidados pessoais","Centro Hospitalar e Universitário de Coimbra, E.P. (510103448)",MEDICINALIA (500684324),"7.150,00 €",07-12-2015,22-09-2015,60 dias,"Portugal, Coimbra, Coimbra","Artigo 24.º, n.º 1, alínea e) do Código dos Contratos Públicos",,,,,,Não aplicável.,Não aplicável.,FALSE
040219692015 - OSTEOSSINTESE,Ajuste Direto Regime Geral,Aquisição de bens móveis,"33000000-0, Equipamento médico, medicamentos e produtos para cuidados pessoais","Centro Hospitalar e Universitário de Coimbra, E. P. E. (510103448)",EXPOMEDICA (501886621),"9.595,00 €",07-12-2015,07-07-2015,60 dias,"Portugal, Coimbra, Coimbra","Artigo 24.º, n.º 1, alínea e) do Código dos Contratos Públicos",,,,,,Não aplicável.,Não aplicável.,FALSE
040219052015 - OUTRO MATERIAL DE CONSUMO,Ajuste Direto Regime Geral,Aquisição de bens móveis,"33000000-0, Equipamento médico, medicamentos e produtos para cuidados pessoais","Centro Hospitalar e Universitário de Coimbra, E. P. E. (510103448)",NEUROWAVE (508537150),"8.270,00 €",07-12-2015,06-07-2015,60 dias,"Portugal, Coimbra, Coimbra","Artigo 24.º, n.º 1, alínea e) do Código dos Contratos Públicos",,,,,,Não aplicável.,Não aplicável.,FALSE
040217062015 - OSTEOSSINTESE,Ajuste Direto Regime Geral,Aquisição de bens móveis,"33000000-0, Equipamento médico, medicamentos e produtos para cuidados pessoais","Centro Hospitalar e Universitário de Coimbra, E. P. E. (510103448)",JOHNSON (503153370),"11.214,63 €",07-12-2015,18-06-2015,2 dias,"Portugal, Coimbra, Coimbra","Artigo 24.º, n.º 1, alínea e) do Código dos Contratos Públicos",,,,,,Não aplicável.,Não aplicável.,FALSE
040237442015 - craneofix,Ajuste Direto Regime Geral,Aquisição de bens móveis,"33000000-0, Equipamento médico, medicamentos e produtos para cuidados pessoais","Centro Hospitalar e Universitário de Coimbra, E. P. E. (510103448)",b braun medical (501506543),"6.450,00 €",07-12-2015,30-11-2015,30 dias,"Portugal, Coimbra, Coimbra","Artigo 24.º, n.º 1, alínea e) do Código dos Contratos Públicos",,,,,,Não aplicável.,Não aplicável.,FALSE
040237412015 - OSTEOSSINTESE,Ajuste Direto Regime Geral,Aquisição de bens móveis,"33000000-0, Equipamento médico, medicamentos e produtos para cuidados pessoais","Centro Hospitalar e Universitário de Coimbra, E. P. E. (510103448)",JOHNSON (503153370),"13.269,41 €",07-12-2015,01-12-2015,2 dias,"Portugal, Coimbra, Coimbra","Artigo 24.º, n.º 1, alínea e) do Código dos Contratos Públicos",,,,,,Não aplicável.,Não aplicável.,FALSE
040236542015 - PROTESES,Ajuste Direto Regime Geral,Aquisição de bens móveis,"33000000-0, Equipamento médico, medicamentos e produtos para cuidados pessoais","Centro Hospitalar e Universitário de Coimbra, E. P. E. (510103448)",MEDICINALIA (500684324),"7.067,00 €",07-12-2015,30-11-2015,2 dias,"Portugal, Coimbra, Coimbra","Artigo 24.º, n.º 1, alínea e) do Código dos Contratos Públicos",,,,,,Não aplicável.,Não aplicável.,FALSE
040237252015 - PROTESE DA ANCA,Ajuste Direto Regime Geral,Aquisição de bens móveis,"33000000-0, Equipamento médico, medicamentos e produtos para cuidados pessoais","Centro Hospitalar e Universitário de Coimbra, E. P. E. (510103448)",MEDICINALIA (500684324),"24.079,10 €",05-12-2015,30-11-2015,30 dias,"Portugal, Coimbra, Coimbra","Artigo 24.º, n.º 1, alínea e) do Código dos Contratos Públicos",,,,,,Não aplicável.,Não aplicável.,FALSE
040237042015 - CRANIOFIX,Ajuste Direto Regime Geral,Aquisição de bens móveis,"33000000-0, Equipamento médico, medicamentos e produtos para cuidados pessoais","Centro Hospitalar e Universitário de Coimbra, E. P. E. (510103448)",B BRAUN (501506543),"9.097,20 €",05-12-2015,30-11-2015,30 dias,"Portugal, Coimbra, Coimbra","Artigo 24.º, n.º 1, alínea e) do Código dos Contratos Públicos",,,,,,Não aplicável.,Não aplicável.,FALSE
040209522015 - OSTEOSSINTESE,Ajuste Direto Regime Geral,Aquisição de bens móveis,"33000000-0, Equipamento médico, medicamentos e produtos para cuidados pessoais","Centro Hospitalar e Universitário de Coimbra, E. P. E. (510103448)",JOHNSON (503153370),"8.380,94 €",05-12-2015,25-06-2015,2 dias,"Portugal, Coimbra, Coimbra","Artigo 24.º, n.º 1, alínea e) do Código dos Contratos Públicos",,,,,,Não aplicável.,Não aplicável.,FALSE
040216122015 - COLUNA,Ajuste Direto Regime Geral,Aquisição de bens móveis,"33000000-0, Equipamento médico, medicamentos e produtos para cuidados pessoais","Centro Hospitalar e Universitário de Coimbra, E. P. E. (510103448)",MEDTRONIC (504223933),"2.274,00 €",05-12-2015,08-06-2015,2 dias,"Portugal, Coimbra, Coimbra","Artigo 24.º, n.º 1, alínea e) do Código dos Contratos Públicos",,,,,,Não aplicável.,Não aplicável.,FALSE
040222902015 - OUTRO MATERIAL DE CONSUMO,Ajuste Direto Regime Geral,Aquisição de bens móveis,"33000000-0, Equipamento médico, medicamentos e produtos para cuidados pessoais","Centro Hospitalar e Universitário de Coimbra, E. P. E. (510103448)",3 M (500193940),"9.860,00 €",05-12-2015,29-07-2015,30 dias,"Portugal, Coimbra, Coimbra","Artigo 24.º, n.º 1, alínea e) do Código dos Contratos Públicos",,,,,,Não aplicável.,Não aplicável.,FALSE
040220412015 - OUTRO MATERIAL DE CONSUMO,Ajuste Direto Regime Geral,Aquisição de bens móveis,"33000000-0, Equipamento médico, medicamentos e produtos para cuidados pessoais","Centro Hospitalar e Universitário de Coimbra, E. P. E. (510103448)",INDAS (503505196),"8.811,84 €",05-12-2015,14-07-2015,20 dias,"Portugal, Coimbra, Coimbra","Artigo 24.º, n.º 1, alínea e) do Código dos Contratos Públicos",,,,,,Não aplicável.,Não aplicável.,FALSE
040216702015 - PROTESES,Ajuste Direto Regime Geral,Aquisição de bens móveis,"33000000-0, Equipamento médico, medicamentos e produtos para cuidados pessoais","Centro Hospitalar e Universitário de Coimbra, E. P. E. (510103448)",SMITH (503552461),"8.379,00 €",05-12-2015,08-06-2015,20 dias,"Portugal, Coimbra, Coimbra","Artigo 24.º, n.º 1, alínea e) do Código dos Contratos Públicos",,,,,,Não aplicável.,Não aplicável.,FALSE
040220212015 - OUTRO MATERIAL DE CONSUMO,Ajuste Direto Regime Geral,Aquisição de bens móveis,"33000000-0, Equipamento médico, medicamentos e produtos para cuidados pessoais","Centro Hospitalar e Universitário de Coimbra, E. P. E. (510103448)",EPJ (506820513),"7.782,00 €",05-12-2015,14-07-2015,20 dias,"Portugal, Coimbra, Coimbra","Artigo 24.º, n.º 1, alínea e) do Código dos Contratos Públicos",,,,,,Não aplicável.,Não aplicável.,FALSE
040223232015 - OUTRO MATERIAL DE CONSUMO,Ajuste Direto Regime Geral,Aquisição de bens móveis,"33000000-0, Equipamento médico, medicamentos e produtos para cuidados pessoais","Centro Hospitalar e Universitário de Coimbra, E. P. E. (510103448)",OLYMPUS (980474710),"9.545,28 €",05-12-2015,01-10-2015,30 dias,"Portugal, Coimbra, Coimbra","Artigo 24.º, n.º 1, alínea e) do Código dos Contratos Públicos",,,,,,Não aplicável.,Não aplicável.,FALSE
040231302015 - AGRAFES,Ajuste Direto Regime Geral,Aquisição de bens móveis,"33000000-0, Equipamento médico, medicamentos e produtos para cuidados pessoais","Centro Hospitalar e Universitário de Coimbra, E. P. E. (510103448)",EXPOMEDICA (501886621),"8.960,00 €",05-12-2015,01-10-2015,30 dias,"Portugal, Coimbra, Coimbra","Artigo 24.º, n.º 1, alínea e) do Código dos Contratos Públicos",,,,,,Não aplicável.,Não aplicável.,FALSE
040230342015 - outro material de consumo,Ajuste Direto Regime Geral,Aquisição de bens móveis,"33000000-0, Equipamento médico, medicamentos e produtos para cuidados pessoais","Centro Hospitalar e Universitário de Coimbra, E. P. E. (510103448)",COVIDIEN (503413410),"8.442,80 €",05-12-2015,01-10-2015,30 dias,"Portugal, Coimbra, Coimbra","Artigo 24.º, n.º 1, alínea e) do Código dos Contratos Públicos",,,,,,Não aplicável.,Não aplicável.,FALSE
0402224232015 - OSTEOSSINTESE,Ajuste Direto Regime Geral,Aquisição de bens móveis,"33000000-0, Equipamento médico, medicamentos e produtos para cuidados pessoais","Centro Hospitalar e Universitário de Coimbra, E. P. E. (510103448)",JOHNSON (503153370),"12.787,98 €",05-12-2015,10-08-2015,5 dias,"Portugal, Coimbra, Coimbra","Artigo 24.º, n.º 1, alínea e) do Código dos Contratos Públicos",,,,,,Não aplicável.,Não aplicável.,FALSE
040220562015 - OUTRO MATERIAL DE CONSUMO,Ajuste Direto Regime Geral,Aquisição de bens móveis,"33000000-0, Equipamento médico, medicamentos e produtos para cuidados pessoais","Centro Hospitalar e Universitário de Coimbra, E. P. E. (510103448)",INDAS (503505196),"6.743,52 €",05-12-2015,14-07-2015,20 dias,"Portugal, Coimbra, Coimbra","Artigo 24.º, n.º 1, alínea e) do Código dos Contratos Públicos",,,,,,Não aplicável.,Não aplicável.,FALSE
040220552015 - OUTRO MATERIAL DE CONSUMO,Ajuste Direto Regime Geral,Aquisição de bens móveis,"33000000-0, Equipamento médico, medicamentos e produtos para cuidados pessoais","Centro Hospitalar e Universitário de Coimbra, E. P. E. (510103448)",INDAS (503505196),"9.576,00 €",05-12-2015,13-07-2015,20 dias,"Portugal, Coimbra, Coimbra","Artigo 24.º, n.º 1, alínea e) do Código dos Contratos Públicos",,,,,,Não aplicável.,Não aplicável.,FALSE
040222882015 - OUTRO MATERIAL DE CONSUMO,Ajuste Direto Regime Geral,Aquisição de bens móveis,"33000000-0, Equipamento médico, medicamentos e produtos para cuidados pessoais","Centro Hospitalar e Universitário de Coimbra, E. P. E. (510103448)",HELDER GONÇALVES (503855421),"9.900,00 €",05-12-2015,29-07-2015,30 dias,"Portugal, Coimbra, Coimbra","Artigo 24.º, n.º 1, alínea e) do Código dos Contratos Públicos",,,,,,Não aplicável.,Não aplicável.,FALSE
040222932015 - OUTRO MATERIAL DE CONSUMO,Ajuste Direto Regime Geral,Aquisição de bens móveis,"33000000-0, Equipamento médico, medicamentos e produtos para cuidados pessoais","Centro Hospitalar e Universitário de Coimbra, E. P. E. (510103448)",EPJ (506820513),"9.079,00 €",05-12-2015,28-07-2015,30 dias,"Portugal, Coimbra, Coimbra","Artigo 24.º, n.º 1, alínea e) do Código dos Contratos Públicos",,,,,,Não aplicável.,Não aplicável.,FALSE
040230292015 - OUTRO MATERIAL DE CONSUMO,Ajuste Direto Regime Geral,Aquisição de bens móveis,"33000000-0, Equipamento médico, medicamentos e produtos para cuidados pessoais","Centro Hospitalar e Universitário de Coimbra, E. P. E. (510103448)",NEUROWAVE (508537150),"8.750,00 €",05-12-2015,01-10-2015,30 dias,"Portugal, Coimbra, Coimbra","Artigo 24.º, n.º 1, alínea e) do Código dos Contratos Públicos",,,,,,Não aplicável.,Não aplicável.,FALSE
040222722015 - BROCAS,Ajuste Direto Regime Geral,Aquisição de bens móveis,"33000000-0, Equipamento médico, medicamentos e produtos para cuidados pessoais","Centro Hospitalar e Universitário de Coimbra, E. P. E. (510103448)",MEDTRONIC (504223933),"6.426,60 €",05-12-2015,28-07-2015,30 dias,"Portugal, Coimbra, Coimbra","Artigo 24.º, n.º 1, alínea e) do Código dos Contratos Públicos",,,,,,Não aplicável.,Não aplicável.,FALSE
040223532015 - OUTRO MATERIAL DE CONSUMO,Ajuste Direto Regime Geral,Aquisição de bens móveis,"33000000-0, Equipamento médico, medicamentos e produtos para cuidados pessoais","Centro Hospitalar e Universitário de Coimbra, E. P. E. (510103448)",3M (500193940),"9.328,00 €",05-12-2015,15-09-2015,30 dias,"Portugal, Coimbra, Coimbra","Artigo 24.º, n.º 1, alínea e) do Código dos Contratos Públicos",,,,,,Não aplicável.,Não aplicável.,FALSE
040220792015 - OUTRO MATERIAL DE CONSUMO,Ajuste Direto Regime Geral,Aquisição de bens móveis,"33000000-0, Equipamento médico, medicamentos e produtos para cuidados pessoais","Centro Hospitalar e Universitário de Coimbra, E. P. E. (510103448)",HELDER GONÇALVES (503855421),"9.000,00 €",05-12-2015,15-09-2015,60 dias,"Portugal, Coimbra, Coimbra","Artigo 24.º, n.º 1, alínea e) do Código dos Contratos Públicos",,,,,,Não aplicável.,Não aplicável.,FALSE
040228932015 - OUTRO MATERIAL DE CONSUMO,Ajuste Direto Regime Geral,Aquisição de bens móveis,"33000000-0, Equipamento médico, medicamentos e produtos para cuidados pessoais","Centro Hospitalar e Universitário de Coimbra, E. P. E. (510103448)",B BRAUN  (501506543),"7.848,36 €",05-12-2015,16-09-2015,30 dias,"Portugal, Coimbra, Coimbra","Artigo 24.º, n.º 1, alínea e) do Código dos Contratos Públicos",,,,,,Não aplicável.,Não aplicável.,FALSE
040230382015 - OUTRO MATERIAL DE CONSUMO,Ajuste Direto Regime Geral,Aquisição de bens móveis,"33000000-0, Equipamento médico, medicamentos e produtos para cuidados pessoais","Centro Hospitalar e Universitário de Coimbra, E. P. E. (510103448)",3 M (500193940),"9.328,00 €",05-12-2015,01-10-2015,30 dias,"Portugal, Coimbra, Coimbra","Artigo 24.º, n.º 1, alínea e) do Código dos Contratos Públicos",,,,,,Não aplicável.,Não aplicável.,FALSE
040230332015 - OUTRO MATERIAL DE CONSUMO,Ajuste Direto Regime Geral,Aquisição de bens móveis,"33000000-0, Equipamento médico, medicamentos e produtos para cuidados pessoais","Centro Hospitalar e Universitário de Coimbra, E. P. E. (510103448)",VWR (503842770),"9.240,00 €",05-12-2015,01-10-2015,30 dias,"Portugal, Coimbra, Coimbra","Artigo 24.º, n.º 1, alínea e) do Código dos Contratos Públicos",,,,,,Não aplicável.,Não aplicável.,FALSE
040233992015 - OUTRO MATERIAL DE CONSUMO,Ajuste Direto Regime Geral,Aquisição de bens móveis,"33000000-0, Equipamento médico, medicamentos e produtos para cuidados pessoais","Centro Hospitalar e Universitário de Coimbra, E. P. E. (510103448)",SPECULUM (502996323),"6.748,47 €",05-12-2015,21-11-2015,30 dias,"Portugal, Coimbra, Coimbra","Artigo 24.º, n.º 1, alínea e) do Código dos Contratos Públicos",,,,,,Não aplicável.,Não aplicável.,FALSE
040217072015 - COLUNA,Ajuste Direto Regime Geral,Aquisição de bens móveis,"33000000-0, Equipamento médico, medicamentos e produtos para cuidados pessoais","Centro Hospitalar e Universitário de Coimbra, E. P. E. (510103448)",MEDTRONIC (504223933),"3.854,00 €",05-12-2015,25-06-2015,1 dias,"Portugal, Coimbra, Coimbra","Artigo 24.º, n.º 1, alínea e) do Código dos Contratos Públicos",,,,,,Não aplicável.,Não aplicável.,FALSE
040233912015 - OUTRO MATERIAL DE CONSUMO,Ajuste Direto Regime Geral,Aquisição de bens móveis,"33000000-0, Equipamento médico, medicamentos e produtos para cuidados pessoais","Centro Hospitalar e Universitário de Coimbra, E. P. E. (510103448)",SPECULUM (502996323),"9.686,00 €",05-12-2015,11-11-2015,30 dias,"Portugal, Coimbra, Coimbra","Artigo 24.º, n.º 1, alínea e) do Código dos Contratos Públicos",,,,,,Não aplicável.,Não aplicável.,FALSE
040220532015 - OUTRO MATERIAL DE CONSUMO,Ajuste Direto Regime Geral,Aquisição de bens móveis,"33000000-0, Equipamento médico, medicamentos e produtos para cuidados pessoais","Centro Hospitalar e Universitário de Coimbra, E. P. E. (510103448)",INDAS (503505196),"9.520,35 €",05-12-2015,14-07-2015,10 dias,"Portugal, Coimbra, Coimbra","Artigo 24.º, n.º 1, alínea e) do Código dos Contratos Públicos",,,,,,Não aplicável.,Não aplicável.,FALSE
040220902015 - OUTRO MATERIAL CONSUMO,Ajuste Direto Regime Geral,Aquisição de bens móveis,"33000000-0, Equipamento médico, medicamentos e produtos para cuidados pessoais","Centro Hospitalar e Universitário de Coimbra, E. P. E. (510103448)",INTERSURGICAL (503480045),"9.678,60 €",05-12-2015,17-07-2015,30 dias,"Portugal, Coimbra, Coimbra","Artigo 24.º, n.º 1, alínea e) do Código dos Contratos Públicos",,,,,,Não aplicável.,Não aplicável.,FALSE
040220602015- OUTRO MATERIAL DE CONSUMO,Ajuste Direto Regime Geral,Aquisição de bens móveis,"33000000-0, Equipamento médico, medicamentos e produtos para cuidados pessoais","Centro Hospitalar e Universitário de Coimbra, E. P. E. (510103448)",PAUL HARTMANN (502271728),"9.000,00 €",05-12-2015,14-07-2015,30 dias,"Portugal, Coimbra, Coimbra","Artigo 24.º, n.º 1, alínea e) do Código dos Contratos Públicos",,,,,,Não aplicável.,Não aplicável.,FALSE
040223222015 - OUTRO MATERIAL DE CONSUMO,Ajuste Direto Regime Geral,Aquisição de bens móveis,"33000000-0, Equipamento médico, medicamentos e produtos para cuidados pessoais","Centro Hospitalar e Universitário de Coimbra, E. P. E. (510103448)",MACHADO MALCHER (500174245),"6.158,30 €",05-12-2015,05-08-2015,30 dias,"Portugal, Coimbra, Coimbra","Artigo 24.º, n.º 1, alínea e) do Código dos Contratos Públicos",,,,,,Não aplicável.,Não aplicável.,FALSE
040220622015 - OUTRO MATERIAL DE CONSUMO,Ajuste Direto Regime Geral,Aquisição de bens móveis,"33000000-0, Equipamento médico, medicamentos e produtos para cuidados pessoais","Centro Hospitalar e Universitário de Coimbra, E. P. E. (510103448)",SMITHS (507445937),"9.600,00 €",05-12-2015,17-07-2015,30 dias,"Portugal, Coimbra, Coimbra","Artigo 24.º, n.º 1, alínea e) do Código dos Contratos Públicos",,,,,,Não aplicável.,Não aplicável.,FALSE
040229062015 - OUTRO MATERIAL DE CONSUMO,Ajuste Direto Regime Geral,Aquisição de bens móveis,"33000000-0, Equipamento médico, medicamentos e produtos para cuidados pessoais","Centro Hospitalar e Universitário de Coimbra, E. P. E. (510103448)",MEDTRONIC (504223933),"9.441,00 €",05-12-2015,15-09-2015,30 dias,"Portugal, Coimbra, Coimbra","Artigo 24.º, n.º 1, alínea e) do Código dos Contratos Públicos",,,,,,Não aplicável.,Não aplicável.,FALSE
040219902015 - OUTRO MATERIAL DE CONSUMO,Ajuste Direto Regime Geral,Aquisição de bens móveis,"33000000-0, Equipamento médico, medicamentos e produtos para cuidados pessoais","Centro Hospitalar e Universitário de Coimbra, E. P. E. (510103448)",EZEQUIEL PANAO JORGE (501412727),"9.960,00 €",05-12-2015,06-07-2015,30 dias,"Portugal, Coimbra, Coimbra","Artigo 24.º, n.º 1, alínea e) do Código dos Contratos Públicos",,,,,,Não aplicável.,Não aplicável.,FALSE
040219722015 - LUVAS,Ajuste Direto Regime Geral,Aquisição de bens móveis,"33000000-0, Equipamento médico, medicamentos e produtos para cuidados pessoais","Centro Hospitalar e Universitário de Coimbra, E. P. E. (510103448)",EZEQUIEL PANAO JORGE (501412727),"9.960,00 €",05-12-2015,03-07-2015,30 dias,"Portugal, Coimbra, Coimbra","Artigo 24.º, n.º 1, alínea e) do Código dos Contratos Públicos",,,,,,Não aplicável.,Não aplicável.,FALSE
040219712015 - LUVAS,Ajuste Direto Regime Geral,Aquisição de bens móveis,"33000000-0, Equipamento médico, medicamentos e produtos para cuidados pessoais","Centro Hospitalar e Universitário de Coimbra, E. P. E. (510103448)",EPJ (506820513),"8.517,00 €",05-12-2015,10-07-2015,30 dias,"Portugal, Coimbra, Coimbra","Artigo 24.º, n.º 1, alínea e) do Código dos Contratos Públicos",,,,,,Não aplicável.,Não aplicável.,FALSE
040222992015 - OUTRO MATERIAL DE CONSUMO,Ajuste Direto Regime Geral,Aquisição de bens móveis,"33000000-0, Equipamento médico, medicamentos e produtos para cuidados pessoais","Centro Hospitalar e Universitário de Coimbra, E. P. E. (510103448)",EZEQUIEL PANAO JORGE (501412727),"6.570,00 €",05-12-2015,29-07-2015,30 dias,"Portugal, Coimbra, Coimbra","Artigo 24.º, n.º 1, alínea e) do Código dos Contratos Públicos",,,,,,Não aplicável.,Não aplicável.,FALSE
040219872015 - LUVAS,Ajuste Direto Regime Geral,Aquisição de bens móveis,"33000000-0, Equipamento médico, medicamentos e produtos para cuidados pessoais","Centro Hospitalar e Universitário de Coimbra, E. P. E. (510103448)",EPJ (506820513),"8.517,00 €",05-12-2015,03-07-2015,30 dias,"Portugal, Coimbra, Coimbra","Artigo 24.º, n.º 1, alínea e) do Código dos Contratos Públicos",,,,,,Não aplicável.,Não aplicável.,FALSE
040222982015 - OUTRO MATERIAL DE CONSUMO,Ajuste Direto Regime Geral,Aquisição de bens móveis,"33000000-0, Equipamento médico, medicamentos e produtos para cuidados pessoais","Centro Hospitalar e Universitário de Coimbra, E. P. E. (510103448)",EPJ (506820513),"9.936,50 €",05-12-2015,28-07-2015,30 dias,"Portugal, Coimbra, Coimbra","Artigo 24.º, n.º 1, alínea e) do Código dos Contratos Públicos",,,,,,Não aplicável.,Não aplicável.,FALSE
040219882015 - LUVAS,Ajuste Direto Regime Geral,Aquisição de bens móveis,"33000000-0, Equipamento médico, medicamentos e produtos para cuidados pessoais","Centro Hospitalar e Universitário de Coimbra, E. P. E. (510103448)",EPJMEDICA (506820513),"8.517,00 €",05-12-2015,03-07-2015,30 dias,"Portugal, Coimbra, Coimbra","Artigo 24.º, n.º 1, alínea e) do Código dos Contratos Públicos",,,,,,Não aplicável.,Não aplicável.,FALSE
040219892015 - LUVAS,Ajuste Direto Regime Geral,Aquisição de bens móveis,"33000000-0, Equipamento médico, medicamentos e produtos para cuidados pessoais","Centro Hospitalar e Universitário de Coimbra, E. P. E. (510103448)",EPJ (506820513),"2.594,00 €",05-12-2015,06-07-2015,10 dias,"Portugal, Coimbra, Coimbra","Artigo 24.º, n.º 1, alínea e) do Código dos Contratos Públicos",,,,,,Não aplicável.,Não aplicável.,FALSE
040245532015 - PROTESE DA ANCA,Ajuste Direto Regime Geral,Aquisição de bens móveis,"33000000-0, Equipamento médico, medicamentos e produtos para cuidados pessoais","Centro Hospitalar e Universitário de Coimbra, E. P. E. (510103448)",STRYKER (504594214),"7.195,08 €",05-12-2015,26-06-2015,2 dias,"Portugal, Coimbra, Coimbra","Artigo 24.º, n.º 1, alínea e) do Código dos Contratos Públicos",,,,,,Não aplicável.,Não aplicável.,FALSE
serviço de Instalação de colimador em acelerador linear-radioterapia HUC,Ajuste Direto Regime Geral,Aquisição de serviços,"51400000-6, Serviços de instalação de equipamento médico e cirúrgico","Centro Hospitalar e Universitário de Coimbra, E. P. E. (510103448)",Varian (980236436),"46.995,00 €",04-12-2015,01-12-2015,5 dias,"Portugal, Coimbra, Coimbra","Artigo 24.º, n.º 1, alínea e) do Código dos Contratos Públicos",,,,,,Não aplicável.,Não aplicável.,FALSE
116992015-Serviços de telemonitorização da doença pulmonar obstrutiva crónica-(SPMS-2015UMC061),Ajuste Direto Regime Geral,Aquisição de serviços,"85100000-0, Serviços de saúde","Centro Hospitalar e Universitário de Coimbra, E. P. E. (510103448)",Hopecare (510108288),"30.000,00 €",04-12-2015,12-11-2015,365 dias,"Portugal, Coimbra, Coimbra","Artigo 20.º, n.º 1, alínea a) do Código dos Contratos Públicos",,,,,,Não aplicável.,Não aplicável.,FALSE
"KIT INTRODUTOR, ELECTRODO, GERADOR E NEUROESTIMULADOR",Ajuste Direto Regime Geral,Aquisição de bens móveis,"33000000-0, Equipamento médico, medicamentos e produtos para cuidados pessoais","Centro Hospitalar e Universitário de Coimbra, E. P. E. (510103448)","Medtronic Portugal, Lda (504223933)","25.718,14 €",04-12-2015,27-11-2015,20 dias,"Portugal, Coimbra, Coimbra","Artigo 24.º, n.º 1, alínea e) do Código dos Contratos Públicos",,,,,,Não aplicável.,Não aplicável.,FALSE
040500012016 Caixas e Pastas de Arquivo (Serviços Financeiros),Ajuste Direto Regime Geral,Aquisição de bens móveis,"30100000-0, Máquinas, equipamento e material de escritório, excepto computadores, impressoras e mobiliário","Centro Hospitalar e Universitário de Coimbra, E.P. (510103448)","ENVELOPRINTER,LDA (508469830), STAPLES PORTUGAL - EQUIP. ESCRITORIO, SA (503789372)","1.423,00 €",04-12-2015,01-12-2015,365 dias,"Portugal, Coimbra, Coimbra","Artigo 20.º, n.º 1, alínea a) do Código dos Contratos Públicos",,,,,,Não aplicável.,Não aplicável.,FALSE
Aquisição de Material de Consumo Clinico,Ajuste Direto Regime Geral,Aquisição de bens móveis,"33000000-0, Equipamento médico, medicamentos e produtos para cuidados pessoais","Centro Hospitalar e Universitário de Coimbra, E. P. E. (510103448)","COVIDIEN PORTUGAL - PRODUTOS SAUDE, UNIPESSOAL LDA (503413410)","5.985,00 €",03-12-2015,03-12-2015,20 dias,"Portugal, Coimbra, Coimbra","Artigo 24.º, n.º 1, alínea e) do Código dos Contratos Públicos",,,,,,Não aplicável.,Não aplicável.,FALSE
Aquisição de Material de Consumo Clinico,Ajuste Direto Regime Geral,Aquisição de bens móveis,"33000000-0, Equipamento médico, medicamentos e produtos para cuidados pessoais","Centro Hospitalar e Universitário de Coimbra, E. P. E. (510103448)","COVIDIEN PORTUGAL - PRODUTOS SAUDE, UNIPESSOAL LDA (503413410)","6.960,00 €",03-12-2015,03-12-2015,20 dias,"Portugal, Coimbra, Coimbra","Artigo 24.º, n.º 1, alínea e) do Código dos Contratos Públicos",,,,,,Não aplicável.,Não aplicável.,FALSE
Aquisição de Material de Consumo Clinico,Ajuste Direto Regime Geral,Aquisição de bens móveis,"33000000-0, Equipamento médico, medicamentos e produtos para cuidados pessoais","Centro Hospitalar e Universitário de Coimbra, E. P. E. (510103448)","COVIDIEN PORTUGAL - PRODUTOS SAUDE, UNIPESSOAL LDA (503413410)","6.960,00 €",03-12-2015,03-12-2015,20 dias,"Portugal, Coimbra, Coimbra","Artigo 24.º, n.º 1, alínea e) do Código dos Contratos Públicos",,,,,,Não aplicável.,Não aplicável.,FALSE
Cama para Cuidados Intensivos para a Medicina Intensiva,Ajuste Direto Regime Geral,Aquisição de bens móveis,"39000000-2, Mobiliário (incl. de escritório), acessórios, aparelhos domésticos (excl. iluminação) e produtos de limpeza","Centro Hospitalar e Universitário de Coimbra, E. P. E. (510103448)","Sano Técnica, Lda. (500239819)","8.300,00 €",03-12-2015,03-12-2015,30 dias,"Portugal, Coimbra, Coimbra","Artigo 20.º, n.º 1, alínea a) do Código dos Contratos Públicos",,,,,,Não aplicável.,Não aplicável.,FALSE
Cadeira de rodas com funções de posicionamento para a Neurocirurgia,Ajuste Direto Regime Geral,Aquisição de bens móveis,"39000000-2, Mobiliário (incl. de escritório), acessórios, aparelhos domésticos (excl. iluminação) e produtos de limpeza","Centro Hospitalar e Universitário de Coimbra, E. P. E. (510103448)","RMV, SA (507866347)","795,60 €",03-12-2015,03-12-2015,15 dias,"Portugal, Coimbra, Coimbra","Artigo 20.º, n.º 1, alínea a) do Código dos Contratos Públicos",,,,,,Não aplicável.,Não aplicável.,FALSE
Tesoura de Metzenbaunm para o BOC,Ajuste Direto Regime Geral,Aquisição de bens móveis,"33000000-0, Equipamento médico, medicamentos e produtos para cuidados pessoais","Centro Hospitalar e Universitário de Coimbra, E. P. E. (510103448)","B. Braun Medical, Lda. (501506543)","118,55 €",02-12-2015,02-12-2015,5 dias,"Portugal, Coimbra, Coimbra","Artigo 20.º, n.º 1, alínea a) do Código dos Contratos Públicos",,,,,,Não aplicável.,Não aplicável.,FALSE
Material de Consumo Clinico,Ajuste Direto Regime Geral,Aquisição de bens móveis,"33000000-0, Equipamento médico, medicamentos e produtos para cuidados pessoais","Centro Hospitalar e Universitário de Coimbra, E. P. E. (510103448)","COVIDIEN PORTUGAL - PRODUTOS SAUDE, UNIPESSOAL LDA (503413410)","20.088,00 €",02-12-2015,01-12-2015,20 dias,"Portugal, Coimbra, Coimbra","Artigo 24.º, n.º 1, alínea e) do Código dos Contratos Públicos",,,,,,Não aplicável.,Não aplicável.,FALSE
Manutenção de Extintores,Ajuste Direto Regime Geral,Aquisição de serviços,"50000000-5, Serviços de reparação e manutenção","Centro Hospitalar e Universitário de Coimbra, E. P. E. (510103448)","Extintel, Lda. (501391460)","113,19 €",01-12-2015,01-12-2015,2016 dias,"Portugal, Coimbra, Coimbra","Artigo 20.º, n.º 1, alínea a) do Código dos Contratos Públicos",,,,,,Não aplicável.,Não aplicável.,FALSE
Aquisição de Material de Consumo Clinico,Ajuste Direto Regime Geral,Aquisição de bens móveis,"33000000-0, Equipamento médico, medicamentos e produtos para cuidados pessoais","Centro Hospitalar e Universitário de Coimbra, E. P. E. (510103448)",ENDOTECNICA MATERIAL CIRURGICO (503818348),"23.920,00 €",01-12-2015,01-12-2015,20 dias,"Portugal, Coimbra, Coimbra","Artigo 24.º, n.º 1, alínea e) do Código dos Contratos Públicos",,,,,,Não aplicável.,Não aplicável.,FALSE
040236122015,Ajuste Direto Regime Geral,Aquisição de bens móveis,"33000000-0, Equipamento médico, medicamentos e produtos para cuidados pessoais","Centro Hospitalar e Universitário de Coimbra, E. P. E. (510103448)","VYGON (PORTUGAL), LDA (503232785)","25.388,00 €",01-12-2015,30-11-2015,20 dias,"Portugal, Coimbra, Coimbra","Artigo 24.º, n.º 1, alínea e) do Código dos Contratos Públicos",,,,,,Não aplicável.,Não aplicável.,FALSE
Conjunto Aferese troca Plasmatica T/P 10220F,Ajuste Direto Regime Geral,Aquisição de bens móveis,"33000000-0, Equipamento médico, medicamentos e produtos para cuidados pessoais","Centro Hospitalar e Universitário de Coimbra, E. P. E. (510103448)",TERUMO BCT PORTUGAL UNIPESSOAL LDA (510627048),"27.412,50 €",01-12-2015,24-11-2015,20 dias,"Portugal, Coimbra, Coimbra","Artigo 24.º, n.º 1, alínea e) do Código dos Contratos Públicos",,,,,,Não aplicável.,Não aplicável.,FALSE
