Objeto do Contrato,Tipo de Procedimento,Tipo(s) de Contrato,CPVs,Entidade(s) Adjudicante(s),Entidade(s) Adjudicatária(s),Preço Contratual,Data de Publicação,Data de Celebração do Contrato,Prazo de Execução,Local de Execução,Fundamentação,Data de Fecho do Contrato,Preço Total Efetivo,Causas das Alterações ao Prazo,Causas das Alterações ao Preço,Estado,N.º registo do Acordo Quadro,Descrição do Acordo Quadro,Procedimento Centralizado
92/2821/2018 - Aquisição de Pacemakers 2 câmara,Ajuste Direto Regime Geral,Aquisição de bens móveis,"33182000-9, Material de assistência à função cardíaca","Centro Hospitalar Universitário do Algarve, E. P. E. (510745997)","LIVANOVA PORTUGAL, Lda (505514010)","16.150,00 €",30-07-2018,25-07-2018,30 dias,"Portugal, Faro, Portimão<BR/>Portugal, Faro, Faro","Artigo 24.º, n.º 1, alínea c) do Código dos Contratos Públicos",,,,,,Não aplicável.,Não aplicável.,FALSE
61/545/2018 Medicamento Centela 10 mg/g Pom Bisn 30 g,Ajuste Direto Regime Geral,Aquisição de bens móveis,"33690000-3, Medicamentos vários","Centro Hospitalar Universitário do Algarve, E. P. E. (510745997)",CONFAR-CONSORCIO FARMACEUTICO (500070229),"632,40 €",27-07-2018,12-01-2018,346 dias,"Portugal, Faro, Faro","Artigo 24.º, n.º 1, alínea e) do Código dos Contratos Públicos",,,,,,Não aplicável.,Não aplicável.,FALSE
61/544/2018 Medicamentos Citicolina 1000 mg/4 ml Sol inj Fr 4 ml IM IV,Ajuste Direto Regime Geral,Aquisição de bens móveis,"33690000-3, Medicamentos vários","Centro Hospitalar Universitário do Algarve, E. P. E. (510745997)",Ferrer Portugal S.A. (500069190),"2.113,44 €",27-07-2018,05-01-2018,360 dias,"Portugal, Faro, Faro","Artigo 24.º, n.º 1, alínea e) do Código dos Contratos Públicos",,,,,,Não aplicável.,Não aplicável.,FALSE
61/542/2018 Medicamentos Insulina humana (isofânica) 100 U.I/ml,Ajuste Direto Regime Geral,Aquisição de bens móveis,"33690000-3, Medicamentos vários","Centro Hospitalar Universitário do Algarve, E. P. E. (510745997)","Novo Nordisk - Comércio Produtos Farmacêuticos, Lda. (501485210)","1.761,51 €",27-07-2018,12-01-2018,346 dias,"Portugal, Faro, Faro","Artigo 24.º, n.º 1, alínea e) do Código dos Contratos Públicos",,,,,,Não aplicável.,Não aplicável.,FALSE
61/541/2018 Medicamentos Brometo de ipratrópio 0.25 mg/2 ml Sol inal neb Fr 2 ml,Ajuste Direto Regime Geral,Aquisição de bens móveis,"33690000-3, Medicamentos vários","Centro Hospitalar Universitário do Algarve, E. P. E. (510745997)","Unilfarma - União Intern. de Lab. Farmac.,Lda. (500293023)","6.375,00 €",27-07-2018,05-01-2018,180 dias,"Portugal, Faro, Faro","Artigo 24.º, n.º 1, alínea e) do Código dos Contratos Públicos",,,,,,Não aplicável.,Não aplicável.,FALSE
61/539/2018 Medicamentos Cloro-hexidina 2 mg/ml Sol lav boca Fr 300 ml,Ajuste Direto Regime Geral,Aquisição de bens móveis,"33690000-3, Medicamentos vários","Centro Hospitalar Universitário do Algarve, E. P. E. (510745997)",Glaxo Smithkline Consumer Healthcare (500276994),"1.921,85 €",27-07-2018,05-01-2018,360 dias,"Portugal, Faro, Faro","Artigo 24.º, n.º 1, alínea e) do Código dos Contratos Públicos",,,,,,Não aplicável.,Não aplicável.,FALSE
61/540/2018 Medicamentos Colecalciferol 0.5 mg/ml Sol oral Fr 10 ml,Ajuste Direto Regime Geral,Aquisição de bens móveis,"33690000-3, Medicamentos vários","Centro Hospitalar Universitário do Algarve, E. P. E. (510745997)",MERCK  S.A. (500650870),"587,88 €",27-07-2018,31-01-2018,334 dias,"Portugal, Faro, Faro","Artigo 24.º, n.º 1, alínea e) do Código dos Contratos Públicos",,,,,,Não aplicável.,Não aplicável.,FALSE
61/538/2018 Medicamento Hidrocortisona 100 mg Pó sol inj Fr IM IV,Ajuste Direto Regime Geral,Aquisição de bens móveis,"33690000-3, Medicamentos vários","Centro Hospitalar Universitário do Algarve, E. P. E. (510745997)","Laboratório Pfizer, Lda. (500162166)","13.800,00 €",27-07-2018,08-01-2018,357 dias,"Portugal, Faro, Faro","Artigo 24.º, n.º 1, alínea e) do Código dos Contratos Públicos",,,,,,Não aplicável.,Não aplicável.,FALSE
61/537/2018 Medicamento Acetilcisteína 300 mg/3 ml Sol inj Fr 3 ml IM IV Inalatória,Ajuste Direto Regime Geral,Aquisição de bens móveis,"33690000-3, Medicamentos vários","Centro Hospitalar Universitário do Algarve, E. P. E. (510745997)",Zambon Produtos Farmacêuticos Lda. (502155930),"2.409,75 €",27-07-2018,05-01-2018,360 dias,"Portugal, Faro, Faro","Artigo 24.º, n.º 1, alínea e) do Código dos Contratos Públicos",,,,,,Não aplicável.,Não aplicável.,FALSE
61/536/2018 Medicamento Mesna 400 mg/4 ml Sol inj Fr 4 ml IV,Ajuste Direto Regime Geral,Aquisição de bens móveis,"33690000-3, Medicamentos vários","Centro Hospitalar Universitário do Algarve, E. P. E. (510745997)","Baxter Médico Farmacêutica, Lda. (503347345)","1.834,80 €",27-07-2018,05-01-2018,360 dias,"Portugal, Faro, Faro","Artigo 24.º, n.º 1, alínea e) do Código dos Contratos Públicos",,,,,,Não aplicável.,Não aplicável.,FALSE
"61/389/2018 Med. Eptacog alfa (activado) 50 K.U.I,  Eptacog alfa (activado) 100 K.U.I.",Ajuste Direto Regime Geral,Aquisição de bens móveis,"33690000-3, Medicamentos vários","Centro Hospitalar Universitário do Algarve, E. P. E. (510745997)","Novo Nordisk - Comércio Produtos Farmacêuticos, Lda. (501485210)","3.349,97 €",27-07-2018,05-01-2018,60 dias,"Portugal, Faro, Faro","Artigo 24.º, n.º 1, alínea e) do Código dos Contratos Públicos",,,,,,Não aplicável.,Não aplicável.,FALSE
61/388/2018 Medicamento Factor IX da coagulação humana 1000,Ajuste Direto Regime Geral,Aquisição de bens móveis,"33690000-3, Medicamentos vários","Centro Hospitalar Universitário do Algarve, E. P. E. (510745997)",OCTAFHARMA- PROD. FARMACEUTICO (502820780),"18.752,72 €",27-07-2018,05-01-2018,60 dias,"Portugal, Faro, Faro","Artigo 24.º, n.º 1, alínea e) do Código dos Contratos Públicos",,,,,,Não aplicável.,Não aplicável.,FALSE
61/387/2018 Medicamento Ibrutinib 140 mg,Ajuste Direto Regime Geral,Aquisição de bens móveis,"33690000-3, Medicamentos vários","Centro Hospitalar Universitário do Algarve, E. P. E. (510745997)","Janssen-Cilag Farmacêutica, Lda. (500189412)","21.986,28 €",27-07-2018,05-01-2018,60 dias,"Portugal, Faro, Faro","Artigo 24.º, n.º 1, alínea e) do Código dos Contratos Públicos",,,,,,Não aplicável.,Não aplicável.,FALSE
61/386/2018 Medicamento Talidomida 50 mg,Ajuste Direto Regime Geral,Aquisição de bens móveis,"33690000-3, Medicamentos vários","Centro Hospitalar Universitário do Algarve, E. P. E. (510745997)","CELGENE - SOCIEDADE UNIPESSOAL, LDA (507791690)","7.800,00 €",27-07-2018,05-01-2018,60 dias,"Portugal, Faro, Faro","Artigo 24.º, n.º 1, alínea e) do Código dos Contratos Públicos",,,,,,Não aplicável.,Não aplicável.,FALSE
"Medicamentos Lenalidomidas 5mg, 10mg, 15mg, 25mg",Ajuste Direto Regime Geral,Aquisição de bens móveis,"33690000-3, Medicamentos vários","Centro Hospitalar Universitário do Algarve, E. P. E. (510745997)","CELGENE - SOCIEDADE UNIPESSOAL, LDA (507791690)","90.450,49 €",27-07-2018,05-01-2018,60 dias,"Portugal, Faro, Faro","Artigo 24.º, n.º 1, alínea e) do Código dos Contratos Públicos",,,,,,Não aplicável.,Não aplicável.,FALSE
61/384/2018 Medicamentos Nanacog alfa 1000,Ajuste Direto Regime Geral,Aquisição de bens móveis,"33690000-3, Medicamentos vários","Centro Hospitalar Universitário do Algarve, E. P. E. (510745997)","Pfizer Biofarmacêutica, Sociedade Unipessoal Lda. (513300376)","12.567,40 €",27-07-2018,05-01-2018,60 dias,"Portugal, Faro, Faro","Artigo 24.º, n.º 1, alínea e) do Código dos Contratos Públicos",,,,,,Não aplicável.,Não aplicável.,FALSE
92/2774/2018-Aquisição de Material de Neurocirurgia,Ajuste Direto Regime Geral,Aquisição de bens móveis,"33140000-3, Material médico de consumo","Centro Hospitalar Universitário do Algarve, E. P. E. (510745997)","NEUROWAVE, LDA (508537150)","4.623,00 €",26-07-2018,24-07-2018,161 dias,"Portugal, Faro, Faro","Artigo 24.º, n.º 1, alínea e), subalínea ii) do Código dos Contratos Públicos",,,,,,Não aplicável.,Não aplicável.,FALSE
Aquisição de Stents Coronários,Ao abrigo de acordo-quadro (art.º 259.º),Aquisição de bens móveis,"33182000-9, Material de assistência à função cardíaca","Centro Hospitalar Universitário do Algarve, E. P. E. (510745997)",MEDICAL VALUE S.A (509776531),"122.175,00 €",25-07-2018,24-07-2018,180 dias,"Portugal, Faro, Faro",Artigo 259.º do Código dos Contratos Públicos,,,,,,2771022,CP 2017/34 - Acordo quadro para fornecimento de Stents Coronários às Instituições e Serviços do Serviço Nacional de Saúde,FALSE
