Objeto do Contrato,Tipo de Procedimento,Tipo(s) de Contrato,CPVs,Entidade(s) Adjudicante(s),Entidade(s) Adjudicatária(s),Preço Contratual,Data de Publicação,Data de Celebração do Contrato,Prazo de Execução,Local de Execução,Fundamentação,Data de Fecho do Contrato,Preço Total Efetivo,Causas das Alterações ao Prazo,Causas das Alterações ao Preço,Estado,N.º registo do Acordo Quadro,Descrição do Acordo Quadro,Procedimento Centralizado
Aquisição de Gases Medicinais em Garrafa,Consulta Prévia,Aquisição de bens móveis,"24100000-5, Gases","Administração Regional de Saúde do Algarve, I. P. (503148709)","Linde - Portugal, Lda. (500266344)","2.226,00 €",29-05-2018,29-05-2018,216 dias,"Portugal, Faro, Faro","Artigo 20.º, n.º 1, alínea c) do Código dos Contratos Públicos",17-12-2018,"1.061,78 €",,Quantidades encomendadas.,,Não aplicável.,Não aplicável.,FALSE
Aquisição de transporte aéreo - Lisboa/Havana/Lisboa,Ajuste Direto Regime Geral,Aquisição de serviços,"60400000-2, Serviços de transporte aéreo","Administração Regional de Saúde do Algarve, I. P. (503148709)","Clube Viajar - Viagens e Turismo, Lda. (503542016)","6.548,05 €",28-05-2018,24-05-2018,201 dias,"Portugal, Faro","Artigo 20.º, n.º 1, alínea d) do Código dos Contratos Públicos","","",,"",,Não aplicável.,Não aplicável.,FALSE
Sondas Nasogástricas,Ao abrigo de acordo-quadro (art.º 259.º),Aquisição de bens móveis,"33100000-1, Equipamento médico","Administração Regional de Saúde do Algarve, I. P. (503148709)",H.R.-PRODUTOS QUIMICOS LDA (501895558),"1,99 €",25-05-2018,25-05-2018,220 dias,"Portugal, Faro, Faro",Artigo 259.º do Código dos Contratos Públicos,"","",,"",,2858426,CP 2017/212 - Acordo quadro para fornecimento de Dispositivos para Neonatologia e Pediatria às Instituições e Serviços do Serviço Nacional de Saúde,FALSE
Sondas Nasogástricas,Ao abrigo de acordo-quadro (art.º 259.º),Aquisição de bens móveis,"33100000-1, Equipamento médico","Administração Regional de Saúde do Algarve, I. P. (503148709)",H.R.-PRODUTOS QUIMICOS LDA (501895558),"4,40 €",25-05-2018,25-05-2018,220 dias,"Portugal, Faro, Faro",Artigo 259.º do Código dos Contratos Públicos,"","",,"",,2858426,CP 2017/212 - Acordo quadro para fornecimento de Dispositivos para Neonatologia e Pediatria às Instituições e Serviços do Serviço Nacional de Saúde,FALSE
Manutenção Equipamento LRSPA - Sistema de Deteção Bacterial MGIT960,Ajuste Direto Regime Geral,Aquisição de serviços,"50000000-5, Serviços de reparação e manutenção","Administração Regional de Saúde do Algarve, I. P. (503148709)",Quilaban - Quimica Lab. Analitica (500399670),"1.363,48 €",24-05-2018,24-05-2018,221 dias,"Portugal, Faro, Faro","Artigo 24.º, n.º 1, alínea e), subalínea iii) do Código dos Contratos Públicos",31-12-2018,"1.363,48 €",,"",,Não aplicável.,Não aplicável.,FALSE
Prestação de Serviços de Limpeza para Maio e Junho de 2018,Concurso público,Aquisição de serviços,"90910000-9, Serviços de limpeza","Administração Regional de Saúde do Algarve, I. P. (503148709)","Samsic,SA (504839748)","99.939,11 €",23-05-2018,30-04-2018,61 dias,"Portugal, Faro, Faro",Artigo 155.º do Código dos Contratos Públicos,30-06-2018,"97.775,24 €",,Horas contratadas não foram todas executadas,,Não aplicável.,Não aplicável.,FALSE
AM 150/2018 - Aquisição de reagentes para microbiologia de alimentos,Ajuste Direto Regime Geral,Aquisição de bens móveis,"33696500-0, Reagentes de laboratório","Administração Regional de Saúde do Algarve, I. P. (503148709)","Biomerieux Portugal - Aparelhos e Reagentes de Laboratório, Lda (501524177)","11.533,20 €",23-05-2018,10-05-2018,240 dias,"Portugal, Faro, Faro","Artigo 24.º, n.º 1, alínea e), subalínea iii) do Código dos Contratos Públicos","","",,"",,Não aplicável.,Não aplicável.,FALSE
CP 119/2018 - Aquisição de testes de Hemoglobina A1C e Microalbuminúria,Concurso público,Aquisição de bens móveis,"33696500-0, Reagentes de laboratório","Administração Regional de Saúde do Algarve, I. P. (503148709)","Alere, Lda (502518863)","199.754,10 €",22-05-2018,17-05-2018,274 dias,"Portugal, Faro, Faro","Artigo 20.º, n.º 1, alínea b) do Código dos Contratos Públicos","","",,"",,Não aplicável.,Não aplicável.,FALSE
