Objeto do Contrato,Tipo de Procedimento,Tipo(s) de Contrato,CPVs,Entidade(s) Adjudicante(s),Entidade(s) Adjudicatária(s),Preço Contratual,Data de Publicação,Data de Celebração do Contrato,Prazo de Execução,Local de Execução,Fundamentação,Data de Fecho do Contrato,Preço Total Efetivo,Causas das Alterações ao Prazo,Causas das Alterações ao Preço,Estado,N.º registo do Acordo Quadro,Descrição do Acordo Quadro,Procedimento Centralizado
"Convite ao abrigo do acordo-quadro - Serviços de manutenção, desenvolvimento e suporte ao Sistema de Faturação do Contrato-Programa Hospitalar e Auditorias GDH",Ao abrigo de acordo-quadro (art.º 259.º),Aquisição de serviços,"72500000-0, Serviços relacionados com a informática","SPMS - Serviços Partilhados do Ministério da Saúde, E. P. E. (509540716)","ALTRANPORTUGAL, S. A. (504272179)","50.160,00 €",30-08-2018,24-07-2018,91 dias,Portugal,Artigo 259.º do Código dos Contratos Públicos,,,,,,1423482,CELEBRAÇÃO DE ACORDO QUADRO PARA PRESTAÇÃO DE SERVIÇOS TIC E INTEROPERABILIDADE NA ÁREA DA SAÚDE,FALSE
"Convite ao abrigo do acordo-quadro - Serviços de manutenção, desenvolvimento e suporte ao módulo de faturação da aplicação SONHO",Ao abrigo de acordo-quadro (art.º 259.º),Aquisição de serviços,"72500000-0, Serviços relacionados com a informática","SPMS - Serviços Partilhados do Ministério da Saúde, E. P. E. (509540716)","ALTRANPORTUGAL, S. A. (504272179)","73.920,00 €",30-08-2018,24-07-2018,183 dias,Portugal,Artigo 259.º do Código dos Contratos Públicos,,,,,,1423482,CELEBRAÇÃO DE ACORDO QUADRO PARA PRESTAÇÃO DE SERVIÇOS TIC E INTEROPERABILIDADE NA ÁREA DA SAÚDE,FALSE
Serviços de Desenvolvimento e Manutenção para evolução do RCU2 (Resumo Clínico Único do Utente),Concurso público,Aquisição de serviços,"72500000-0, Serviços relacionados com a informática","SPMS- Serviços Partilhados do M. da Saúde, E.P.E. (509540716)","BABEL IBÉRICA, S.A. (507025229)","126.403,20 €",29-08-2018,31-07-2018,426 dias,Portugal,"Artigo 20.º, n.º 1, alínea a) do Código dos Contratos Públicos",,,,,,Não aplicável.,Não aplicável.,FALSE
Aquisição de serviços para manutenção evolutiva e corretiva dos portais do SNS - Lote 4 - Serviços para manutenção evolutiva e corretiva do portal do profissional,Concurso público,Aquisição de serviços,"72500000-0, Serviços relacionados com a informática","SPMS - Serviços Partilhados do Ministério da Saúde, E. P. E. (509540716)","ALTRANPORTUGAL, S.A. (504272179)","176.369,60 €",28-08-2018,16-07-2018,243 dias,Portugal,"Artigo 20.º, n.º 1, alínea a) do Código dos Contratos Públicos",,,,,,Não aplicável.,Não aplicável.,FALSE
Aquisição de serviços para manutenção evolutiva e corretiva dos portais do SNS - Lote 3 - Serviços para desenvolvimento e manutenção evolutiva e corretiva do portal institucional,Concurso público,Aquisição de serviços,"72500000-0, Serviços relacionados com a informática","SPMS - Serviços Partilhados do Ministério da Saúde, E. P. E. (509540716)","ALTRANPORTUGAL, S.A. (504272179)","151.515,26 €",28-08-2018,16-07-2018,243 dias,Portugal,"Artigo 20.º, n.º 1, alínea a) do Código dos Contratos Públicos",,,,,,Não aplicável.,Não aplicável.,FALSE
Aquisição de serviços para manutenção evolutiva e corretiva dos portais do SNS - Lote 2 - Desenvolvimento e manutenção evolutiva e corretiva do portal administrativo,Concurso público,Aquisição de serviços,"72500000-0, Serviços relacionados com a informática","SPMS - Serviços Partilhados do Ministério da Saúde, E. P. E. (509540716)","ALTRANPORTUGAL, S.A. (504272179)","134.745,60 €",28-08-2018,16-07-2018,243 dias,Portugal,"Artigo 20.º, n.º 1, alínea a) do Código dos Contratos Públicos",,,,,,Não aplicável.,Não aplicável.,FALSE
Serviços de mudanças para as áreas metropolitanas do Porto e de Lisboa - Lote 2,Consulta Prévia,Aquisição de serviços,"60100000-9, Serviços de transporte rodoviário","SPMS - Serviços Partilhados do Ministério da Saúde, E. P. E. (509540716)","URBANOS SOLUÇÕES, S.A. (502392290)","20.350,00 €",27-08-2018,19-07-2018,153 dias,Portugal,"Artigo 20.º, n.º 1, alínea c) do Código dos Contratos Públicos",,,,,,Não aplicável.,Não aplicável.,FALSE
Convite ao abrigo do acordo quadro  - Serviços para manutenção corretiva e evolutiva do SClinico dos Cuidados de Saúde Primário,Ao abrigo de acordo-quadro (art.º 259.º),Aquisição de serviços,"72500000-0, Serviços relacionados com a informática","SPMS - Serviços Partilhados do Ministério da Saúde, E. P. E. (509540716)","ALTRANPORTUGAL, S.A. (504272179)","43.296,00 €",27-08-2018,18-07-2018,122 dias,Portugal,Artigo 259.º do Código dos Contratos Públicos,,,,,,1423482,CELEBRAÇÃO DE ACORDO QUADRO PARA PRESTAÇÃO DE SERVIÇOS TIC E INTEROPERABILIDADE NA ÁREA DA SAÚDE,FALSE
(DCPI) Aquisição de Serviços de Segurança e Vigilância (CCM-SNS)    ( 20180440),Concurso público,Aquisição de serviços,"79710000-4, Serviços de segurança","SPMS- Serviços Partilhados do M. da Saúde, E.P.E. (509540716)","Ronsegur, Rondas e Segurança, Lda. (507011724)","12.900,00 €",27-08-2018,01-08-2018,183 dias,"Portugal, Porto","Artigo 155.º, alínea a) do Código dos Contratos Públicos",,,,,,Não aplicável.,Não aplicável.,FALSE
Licenciamento para a solução de gestão de presenças,Ajuste Direto Regime Geral,Aquisição de bens móveis,"48100000-9, Pacote de software para sectores específicos","SPMS - Serviços Partilhados do Ministério da Saúde, E. P. E. (509540716)","Sysnovare Innovative Solutions, S.A. (508959152)","12.640,00 €",23-08-2018,30-07-2018,884 dias,Portugal,"Artigo 24.º, n.º 1, alínea e), subalínea iii) do Código dos Contratos Públicos",,,,,,Não aplicável.,Não aplicável.,FALSE
