Objeto do Contrato,Tipo de Procedimento,Tipo(s) de Contrato,CPVs,Entidade(s) Adjudicante(s),Entidade(s) Adjudicatária(s),Preço Contratual,Data de Publicação,Data de Celebração do Contrato,Prazo de Execução,Local de Execução,Fundamentação,Data de Fecho do Contrato,Preço Total Efetivo,Causas das Alterações ao Prazo,Causas das Alterações ao Preço,Estado,N.º registo do Acordo Quadro,Descrição do Acordo Quadro,Procedimento Centralizado
DIPENSADOR DE ROLOS DE ALGODAO,Ajuste Direto Regime Geral,Aquisição de bens móveis,"33000000-0, Equipamento médico, medicamentos e produtos para cuidados pessoais","Administração Regional de Saúde do Alentejo, IP (503148768)","VITALCARE - DENTÁRIA, PODOLOGIA E ESTÉTICA, LDA. (505381206)","6,46 €",22-08-2013,01-07-2013,30 dias,"Portugal, Évora","Artigo 20.º, n.º 1, alínea a) do Código dos Contratos Públicos",31-12-2013,"6,46 €",,,,Não aplicável.,Não aplicável.,
DISPENSADOR DE COPOS DE PLASTICO FOTOPOLIMERIZADOR,Ajuste Direto Regime Geral,Aquisição de bens móveis,"33000000-0, Equipamento médico, medicamentos e produtos para cuidados pessoais","Administração Regional de Saúde do Alentejo, IP (503148768)","DVD - CIA DENTAL DE VENDA DIRECTA, S.A. (980187036)","222,95 €",22-08-2013,26-06-2013,30 dias,"Portugal, Évora","Artigo 20.º, n.º 1, alínea a) do Código dos Contratos Públicos",31-12-2013,"222,95 €",,,,Não aplicável.,Não aplicável.,
Testes VIH,Ao abrigo de acordo-quadro (art.º 258.º),Aquisição de bens móveis,"33000000-0, Equipamento médico, medicamentos e produtos para cuidados pessoais","Administração Regional de Saúde do Alentejo, IP (503148768)","BIOMERIEUX PORTUGAL, LDA (501524177)","442,20 €",22-08-2013,31-07-2013,30 dias,"Portugal, Évora",Artigo 258.º do Código dos Contratos Públicos,31-12-2013,"737,00 €",,,,464738,"Concurso público para a celebração de contratos públicos de aprovisionamento para a área da saúde, com vista ao fornecimento de material de prevenção e deteção do HIV.",
