Objeto do Contrato,Tipo de Procedimento,Tipo(s) de Contrato,CPVs,Entidade(s) Adjudicante(s),Entidade(s) Adjudicatária(s),Preço Contratual,Data de Publicação,Data de Celebração do Contrato,Prazo de Execução,Local de Execução,Fundamentação,Data de Fecho do Contrato,Preço Total Efetivo,Causas das Alterações ao Prazo,Causas das Alterações ao Preço,Estado,N.º registo do Acordo Quadro,Descrição do Acordo Quadro,Procedimento Centralizado
40077/2017- COLCHÃO VISCOELÁSTICO E CAPAS P/COLCHÃO P/SERV. ORTOPEDIA E SPUFO,Ajuste Direto Regime Geral,Aquisição de bens móveis,"33700000-7, Produtos para cuidados pessoais","Centro Hospitalar Barreiro Montijo, E. P. E. (509186998)","Flex 2000 - Produtos Flexiveis, S.A. (504663232)","3.536,80 €",19-09-2017,30-05-2017,120 dias,"Portugal, Setúbal, Barreiro","Artigo 20.º, n.º 1, alínea a) do Código dos Contratos Públicos",05-07-2017,"3.536,80 €",,,,Não aplicável.,Não aplicável.,FALSE
"4S0073/2017 - LIGAÇÃO P/ SUPORTE DADOS, CIRC. E BANDA LARGA, INTERNET, WI-FI P/ 2.º TRIM 2017",Ajuste Direto Regime Geral,Aquisição de serviços,"50000000-5, Serviços de reparação e manutenção","CHBM - Centro Hospital Barreiro Montijo, EPE (509186998)",MEO - Serviços de Comunicações e Multimédia S.A. (504615947),"8.941,50 €",15-09-2017,22-03-2017,90 dias,"Portugal, Setúbal, Barreiro","Artigo 20.º, n.º 1, alínea a) do Código dos Contratos Públicos",05-07-2017,"8.941,50 €",,,,Não aplicável.,Não aplicável.,FALSE
"4S0021/2017 - LIGAÇÃO P/ SUPORTE DADOS, CIRC. E BANDA LARGA, FORNECIMENTO DE CIRCUITO DEDICADO DE INTERNET, WI-FI",Ajuste Direto Regime Geral,Aquisição de serviços,"50000000-5, Serviços de reparação e manutenção","CHBM - Centro Hospital Barreiro Montijo, EPE (509186998)",MEO - Serviços de Comunicações e Multimédia S.A. (504615947),"8.941,50 €",15-09-2017,10-01-2017,90 dias,"Portugal, Setúbal, Barreiro","Artigo 20.º, n.º 1, alínea a) do Código dos Contratos Públicos",01-04-2017,"8.941,50 €",,,,Não aplicável.,Não aplicável.,FALSE
4S0054/2017 - ESTOFAGEM DE MOBILIÁRIO DIVERSO,Ajuste Direto Regime Geral,Aquisição de serviços,"50000000-5, Serviços de reparação e manutenção","Centro Hospitalar Barreiro Montijo, E. P. E. (509186998)",CARLOS A. C. SERRALHA (117612928),"6.503,00 €",15-09-2017,30-05-2017,150 dias,"Portugal, Setúbal, Barreiro","Artigo 20.º, n.º 1, alínea a) do Código dos Contratos Públicos",26-10-2017,"6.503,00 €",,,,Não aplicável.,Não aplicável.,FALSE
4SEX0032/2017 - REP COMPRESSOR DO SISTEMA 2 DO CHILLER 1 DA RADIOTERAPIA,Ajuste Direto Regime Geral,Aquisição de serviços,"50000000-5, Serviços de reparação e manutenção","Centro Hospitalar Barreiro Montijo, E. P. E. (509186998)","Johson Controls Portugal BE, Lda. (505206790)","8.460,00 €",15-09-2017,03-07-2017,90 dias,"Portugal, Setúbal, Barreiro","Artigo 24.º, n.º 1, alínea e) do Código dos Contratos Públicos",24-08-2017,"8.460,00 €",,,,Não aplicável.,Não aplicável.,FALSE
40089/2017 CAMAS DE PARTO,Ajuste Direto Regime Geral,Aquisição de bens móveis,"33100000-1, Equipamento médico","CHBM - Centro Hospital Barreiro Montijo, EPE (509186998)","MEDICINÁLIA-CORMÉDICA, LDA            (500684324)","23.000,00 €",11-09-2017,24-08-2017,90 dias,"Portugal, Setúbal, Barreiro","Artigo 20.º, n.º 1, alínea a) do Código dos Contratos Públicos",09-10-2017,"23.000,00 €",,,,Não aplicável.,Não aplicável.,FALSE
