Objeto do Contrato,Tipo de Procedimento,Tipo(s) de Contrato,CPVs,Entidade(s) Adjudicante(s),Entidade(s) Adjudicatária(s),Preço Contratual,Data de Publicação,Data de Celebração do Contrato,Prazo de Execução,Local de Execução,Fundamentação,Data de Fecho do Contrato,Preço Total Efetivo,Causas das Alterações ao Prazo,Causas das Alterações ao Preço,Estado,N.º registo do Acordo Quadro,Descrição do Acordo Quadro,Procedimento Centralizado
"Aquisição de Gastrovideoscópios e Colonovideoscópios para a Unidade de Endoscopia do Hospital Santa Luzia de Elvas – Unidade Local de Saúde do Norte Alentejano, EPE",Ajuste Direto Regime Geral,Aquisição de bens móveis,"33100000-1, Equipamento médico","Unidade Local de Saúde do Norte Alentejano, E. P. E. (508094461)",Sistemas Integrales De La Medicina (980488842),"41.336,56 €",02-03-2016,11-02-2016,30 dias,"Portugal, Portalegre, Elvas","Artigo 20.º, n.º 1, alínea a) do Código dos Contratos Públicos","","",,,,Não aplicável.,Não aplicável.,FALSE
MEDICAMENTOS CAPS,Ajuste Direto Regime Geral,Aquisição de bens móveis,"33000000-0, Equipamento médico, medicamentos e produtos para cuidados pessoais","Unidade Local de Saúde do Norte Alentejano, E. P. E. (508094461)","ROCHE FARMACÊUTICA QUIMICA, LDA.                   (500233810)","11.110,84 €",01-03-2016,15-01-2016,30 dias,"Portugal, Portalegre, Elvas<BR/>Portugal, Portalegre, Portalegre","Artigo 20.º, n.º 1, alínea a) do Código dos Contratos Públicos",15-01-2016,"11.110,84 €",,,,Não aplicável.,Não aplicável.,FALSE
Medicamentos,Ajuste Direto Regime Geral,Aquisição de bens móveis,"33000000-0, Equipamento médico, medicamentos e produtos para cuidados pessoais","Unidade Local de Saúde do Norte Alentejano, E. P. E. (508094461)","ACTELION PHARMACEUTICALS PORTUGAL, LDA (507336488)","7.501,40 €",01-03-2016,02-02-2016,30 dias,"Portugal, Portalegre, Elvas<BR/>Portugal, Portalegre, Portalegre","Artigo 24.º, n.º 1, alínea e) do Código dos Contratos Públicos",02-02-2016,"7.501,40 €",,,,Não aplicável.,Não aplicável.,FALSE
REAGENTES,Ajuste Direto Regime Geral,Aquisição de bens móveis,"33000000-0, Equipamento médico, medicamentos e produtos para cuidados pessoais","Unidade Local de Saúde do Norte Alentejano, E. P. E. (508094461)",THERMO FISHER DIAGNOSTICS (506916243),"6.019,11 €",01-03-2016,26-01-2016,30 dias,"Portugal, Portalegre, Portalegre<BR/>Portugal, Portalegre, Elvas","Artigo 24.º, n.º 1, alínea e) do Código dos Contratos Públicos",26-01-2016,"6.019,11 €",,,,Não aplicável.,Não aplicável.,FALSE
REAGENTES,Ajuste Direto Regime Geral,Aquisição de bens móveis,"33000000-0, Equipamento médico, medicamentos e produtos para cuidados pessoais","Unidade Local de Saúde do Norte Alentejano, E. P. E. (508094461)",BIO-RAD LABORATORIES                               (501301321),"5.951,10 €",01-03-2016,26-01-2016,30 dias,"Portugal, Portalegre, Elvas<BR/>Portugal, Portalegre, Portalegre","Artigo 24.º, n.º 1, alínea e) do Código dos Contratos Públicos",26-01-2016,"5.951,10 €",,,,Não aplicável.,Não aplicável.,FALSE
Prestação de Serviços Médicos na Triagem do SU do HDJMG,Concurso público,Aquisição de serviços,"85100000-0, Serviços de saúde","Unidade Local de Saúde do Norte Alentejano, E. P. E. (508094461)","Zamudio, Ariza e Gonzalez, Lda. (513071229)","122.000,00 €",29-02-2016,26-02-2016,306 dias,"Portugal, Portalegre, Portalegre","Artigo 20.º, n.º 1, alínea b) do Código dos Contratos Públicos",29-02-2016,"122.000,00 €",,,,Não aplicável.,Não aplicável.,FALSE
"Aquisição de Modelos Exclusivos da INCM, para a ULSNA, EPE - Ano ",Ajuste Direto Regime Geral,Aquisição de bens móveis,"22300000-3, Postais ilustrados, cartões impressos com votos ou mensagens pessoais e outro material impresso","Unidade Local de Saúde do Norte Alentejano, E. P. E. (508094461)",IMPRENSA NACIONAL - CASA DA MOEDA SA (500792887),"2.729,34 €",29-02-2016,18-02-2016,365 dias,"Portugal, Portalegre, Portalegre","Artigo 24.º, n.º 1, alínea a) do Código dos Contratos Públicos",29-02-2016,"2.729,34 €",,,,Não aplicável.,Não aplicável.,FALSE
Aquisição de 170 Blocos do MOD. 330.10-MCDT,Ajuste Direto Regime Geral,Aquisição de bens móveis,"22900000-9, Material impresso diverso","Unidade Local de Saúde do Norte Alentejano, E. P. E. (508094461)",Adm. Regional Saude do Alentejo (503148768),"229,50 €",29-02-2016,03-02-2016,330 dias,"Portugal, Portalegre, Portalegre","Artigo 24.º, n.º 1, alínea a) do Código dos Contratos Públicos",29-02-2016,"229,50 €",,,,Não aplicável.,Não aplicável.,FALSE
AQUISIÇÃO DE RESERVATÓRIOS DE PRESSÃO NEGATIVA,Ajuste Direto Regime Geral,Aquisição de bens móveis,"33140000-3, Material médico de consumo","Unidade Local de Saúde do Norte Alentejano, E. P. E. (508094461)",EXPOMEDICA (501886621),"5.650,00 €",26-02-2016,30-01-2015,1 dias,"Portugal, Portalegre, Portalegre","Artigo 20.º, n.º 1, alínea a) do Código dos Contratos Públicos",30-01-2015,"5.650,00 €",,,,Não aplicável.,Não aplicável.,FALSE
AQUISIÇÃO DE SISTEMAS DE SOROS UIRGENTES,Ao abrigo de acordo-quadro (art.º 259.º),Aquisição de bens móveis,"33140000-3, Material médico de consumo","Unidade Local de Saúde do Norte Alentejano, E. P. E. (508094461)",QUILABAN QUIMICA LAB ANALITICA (500399670),"1.812,20 €",26-02-2016,29-05-2015,1 dias,"Portugal, Portalegre, Portalegre","Artigo 20.º, n.º 1, alínea b) do Código dos Contratos Públicos",29-05-2015,"1.812,20 €",,,,552526,"CONCURSO PÚBLICO PARA A CELEBRAÇÃO DE CONTRATOS PÚBLICOS DE APROVISIONAMENTO PARA A ÁREA DA SAÚDE, COM VISTA AO FORNECIMENTO DE DISPOSITIVOS MÉDICOS DIVERSOS",FALSE
"ALUGUER OPERACIONAL DE UM VEÍCULO DA ULSNA,EPE",Ao abrigo de acordo-quadro (art.º 259.º),Aquisição de serviços,"60170000-0, Aluguer de veículos para transporte de passageiros com condutor","Unidade Local de Saúde do Norte Alentejano, E. P. E. (508094461)","Finlog - Aluguer e Comércio de Automóveis, SA (502584866)","16.008,00 €",26-02-2016,02-07-2015,730 dias,"Portugal, Portalegre, Portalegre","Artigo 20.º, n.º 1, alínea b) do Código dos Contratos Públicos",02-07-2015,"16.008,00 €",,,,273644,Acordo quadro para o fornecimento e aluguer operacional de veículos automóveis e motociclos eléctricos,FALSE
aluguer de viaturas em regime de renting para o c.a da ulsna epe,Ajuste Direto Regime Geral,Aquisição de serviços,"60100000-9, Serviços de transporte rodoviário","Unidade Local de Saúde do Norte Alentejano, E. P. E. (508094461)",SGALD AUTOMOTIVE SA (503188620),"5.150,16 €",25-02-2016,25-11-2015,365 dias,"Portugal, Portalegre, Portalegre","Artigo 20.º, n.º 1, alínea a) do Código dos Contratos Públicos",25-02-2016,"5.150,16 €",,,,Não aplicável.,Não aplicável.,FALSE
Medicamentos,Ajuste Direto Regime Geral,Aquisição de bens móveis,"33000000-0, Equipamento médico, medicamentos e produtos para cuidados pessoais","Unidade Local de Saúde do Norte Alentejano, E. P. E. (508094461)",ROCHE SISTEMA DE DIAGNOSTICOS (504282921),"8.111,60 €",25-02-2016,02-02-2016,30 dias,"Portugal, Portalegre, Elvas<BR/>Portugal, Portalegre, Portalegre","Artigo 24.º, n.º 1, alínea e) do Código dos Contratos Públicos",02-02-2016,"8.111,60 €",,,,Não aplicável.,Não aplicável.,FALSE
PRESTAÇÃO DE SERVIÇOS DE APOIO MEDICO NA ÁREA DA CARDIOLOGIA,Ajuste Direto Regime Geral,Aquisição de serviços,"85100000-0, Serviços de saúde","Unidade Local de Saúde do Norte Alentejano, E. P. E. (508094461)","Isabel Duque, Lda (510596878)","15.600,00 €",25-02-2016,27-11-2015,365 dias,"Portugal, Portalegre, Portalegre","Artigo 20.º, n.º 1, alínea a) do Código dos Contratos Públicos","","",,,,Não aplicável.,Não aplicável.,FALSE
Prestação de Serviços Médico no SUB de Ponte de Sôr (Período de 01 de Julho de 2016 a 30 de Junho de 2017),Ajuste Direto Regime Geral,Aquisição de serviços,"85100000-0, Serviços de saúde","Unidade Local de Saúde do Norte Alentejano, E. P. E. (508094461)","Honorismédica, Lda. (509799191)","207.324,00 €",24-02-2016,18-02-2016,365 dias,"Portugal, Portalegre, Ponte de Sor","Artigo 27.º, n.º 1, alínea a) do Código dos Contratos Públicos","","",,,,Não aplicável.,Não aplicável.,FALSE
"Aquisição de um Pletismógrafo para a Unidade Funcional de Pneumologia da ULSNA, EPE",Ajuste Direto Regime Geral,Aquisição de bens móveis,"33100000-1, Equipamento médico","Unidade Local de Saúde do Norte Alentejano, E. P. E. (508094461)",Pulmocor (501402578),"43.300,00 €",24-02-2016,04-01-2016,30 dias,"Portugal, Portalegre, Portalegre","Artigo 20.º, n.º 1, alínea a) do Código dos Contratos Públicos","","",,,,Não aplicável.,Não aplicável.,FALSE
Medicamentos,Ajuste Direto Regime Geral,Aquisição de bens móveis,"33000000-0, Equipamento médico, medicamentos e produtos para cuidados pessoais","Unidade Local de Saúde do Norte Alentejano, E. P. E. (508094461)","VIIVHIV HEALTHCARE, UNIPESSOAL. LDA (509117961)","9.668,07 €",22-02-2016,10-02-2016,30 dias,"Portugal, Portalegre, Elvas<BR/>Portugal, Portalegre, Portalegre","Artigo 20.º, n.º 1, alínea a) do Código dos Contratos Públicos",10-02-2016,"9.668,07 €",,,,Não aplicável.,Não aplicável.,FALSE
Medicamentos,Ajuste Direto Regime Geral,Aquisição de bens móveis,"33000000-0, Equipamento médico, medicamentos e produtos para cuidados pessoais","Unidade Local de Saúde do Norte Alentejano, E. P. E. (508094461)","ROCHE FARMACÊUTICA QUIMICA, LDA. (500233810)","5.027,94 €",22-02-2016,10-02-2016,30 dias,"Portugal, Portalegre, Portalegre<BR/>Portugal, Portalegre, Elvas","Artigo 20.º, n.º 1, alínea a) do Código dos Contratos Públicos",10-02-2016,"5.027,94 €",,,,Não aplicável.,Não aplicável.,FALSE
Medicamentos,Ajuste Direto Regime Geral,Aquisição de bens móveis,"33000000-0, Equipamento médico, medicamentos e produtos para cuidados pessoais","Unidade Local de Saúde do Norte Alentejano, E. P. E. (508094461)","JANSSEN CILAG FARMACEUTICA, LDA. (500189412)","14.909,40 €",22-02-2016,10-02-2016,30 dias,"Portugal, Portalegre, Portalegre<BR/>Portugal, Portalegre, Elvas","Artigo 20.º, n.º 1, alínea a) do Código dos Contratos Públicos",10-02-2016,"14.909,40 €",,,,Não aplicável.,Não aplicável.,FALSE
Medicamentos,Ajuste Direto Regime Geral,Aquisição de bens móveis,"33000000-0, Equipamento médico, medicamentos e produtos para cuidados pessoais","Unidade Local de Saúde do Norte Alentejano, E. P. E. (508094461)",BRISTOL - MYERS SQUIBB SA. (500048193),"10.577,70 €",22-02-2016,10-02-2016,30 dias,"Portugal, Portalegre, Elvas<BR/>Portugal, Portalegre, Portalegre","Artigo 20.º, n.º 1, alínea a) do Código dos Contratos Públicos",10-02-2016,"10.577,70 €",,,,Não aplicável.,Não aplicável.,FALSE
Medicamentos,Ajuste Direto Regime Geral,Aquisição de bens móveis,"33000000-0, Equipamento médico, medicamentos e produtos para cuidados pessoais","Unidade Local de Saúde do Norte Alentejano, E. P. E. (508094461)","Pfizer Biofarmaceutica, Sociedade Unipessoal, Lda (513300376)","7.896,00 €",22-02-2016,10-02-2016,30 dias,"Portugal, Portalegre, Portalegre<BR/>Portugal, Portalegre, Elvas","Artigo 20.º, n.º 1, alínea a) do Código dos Contratos Públicos",10-02-2016,"7.896,00 €",,,,Não aplicável.,Não aplicável.,FALSE
Medicamentos,Ajuste Direto Regime Geral,Aquisição de bens móveis,"33000000-0, Equipamento médico, medicamentos e produtos para cuidados pessoais","Unidade Local de Saúde do Norte Alentejano, E. P. E. (508094461)","JANSSEN CILAG FARMACEUTICA, LDA. (500189412)","5.289,30 €",22-02-2016,10-02-2016,30 dias,"Portugal, Portalegre, Elvas<BR/>Portugal, Portalegre, Portalegre","Artigo 20.º, n.º 1, alínea a) do Código dos Contratos Públicos",10-02-2016,"5.289,30 €",,,,Não aplicável.,Não aplicável.,FALSE
Medicamentos,Ajuste Direto Regime Geral,Aquisição de bens móveis,"33000000-0, Equipamento médico, medicamentos e produtos para cuidados pessoais","Unidade Local de Saúde do Norte Alentejano, E. P. E. (508094461)","ABBVIE,LDA (510229050)","5.206,72 €",22-02-2016,10-02-2016,30 dias,"Portugal, Portalegre, Portalegre<BR/>Portugal, Portalegre, Elvas","Artigo 20.º, n.º 1, alínea a) do Código dos Contratos Públicos",10-02-2016,"5.206,72 €",,,,Não aplicável.,Não aplicável.,FALSE
Medicamentos,Ajuste Direto Regime Geral,Aquisição de bens móveis,"33000000-0, Equipamento médico, medicamentos e produtos para cuidados pessoais","Unidade Local de Saúde do Norte Alentejano, E. P. E. (508094461)","ASTELLAS FARMA, LDA. (502540249)","11.131,68 €",22-02-2016,02-02-2016,30 dias,"Portugal, Portalegre, Portalegre<BR/>Portugal, Portalegre, Elvas","Artigo 20.º, n.º 1, alínea a) do Código dos Contratos Públicos",02-02-2016,"11.131,68 €",,,,Não aplicável.,Não aplicável.,FALSE
Medicamentos,Ajuste Direto Regime Geral,Aquisição de bens móveis,"33000000-0, Equipamento médico, medicamentos e produtos para cuidados pessoais","Unidade Local de Saúde do Norte Alentejano, E. P. E. (508094461)","SANOFI- PRODUTOS FARMACÊUTICOS,LDA. (500134960)","5.019,48 €",22-02-2016,02-02-2016,30 dias,"Portugal, Portalegre, Portalegre<BR/>Portugal, Portalegre, Elvas","Artigo 20.º, n.º 1, alínea a) do Código dos Contratos Públicos",02-02-2016,"5.019,48 €",,,,Não aplicável.,Não aplicável.,FALSE
Medicamentos,Ajuste Direto Regime Geral,Aquisição de bens móveis,"33000000-0, Equipamento médico, medicamentos e produtos para cuidados pessoais","Unidade Local de Saúde do Norte Alentejano, E. P. E. (508094461)","Pfizer Biofarmaceutica, Sociedade Unipessoal, Lda (513300376)","7.896,00 €",22-02-2016,02-02-2016,30 dias,"Portugal, Portalegre, Elvas<BR/>Portugal, Portalegre, Portalegre","Artigo 20.º, n.º 1, alínea a) do Código dos Contratos Públicos",02-02-2016,"7.896,00 €",,,,Não aplicável.,Não aplicável.,FALSE
Medicamentos,Ajuste Direto Regime Geral,Aquisição de bens móveis,"33000000-0, Equipamento médico, medicamentos e produtos para cuidados pessoais","Unidade Local de Saúde do Norte Alentejano, E. P. E. (508094461)","NOVARTIS FARMA-PROD.FARMACÊUTICOS,SA. (500063524)","20.988,87 €",22-02-2016,02-02-2016,30 dias,"Portugal, Portalegre, Portalegre<BR/>Portugal, Portalegre, Elvas","Artigo 20.º, n.º 1, alínea a) do Código dos Contratos Públicos",02-02-2016,"20.988,87 €",,,,Não aplicável.,Não aplicável.,FALSE
"Serviço de dados, tabletes, acessos de banda larga móvel e sistema de envio de SMS por Webservice para a ULSNA, Epe",Ajuste Direto Regime Geral,Aquisição de serviços,"72300000-8, Serviços relacionados com dados","Unidade Local de Saúde do Norte Alentejano, E. P. E. (508094461)",Nos (502604751),"7.457,40 €",22-02-2016,28-10-2015,365 dias,"Portugal, Portalegre","Artigo 20.º, n.º 1, alínea a) do Código dos Contratos Públicos","","",,,,Não aplicável.,Não aplicável.,FALSE
Aquisição de reagentes de microbiologia  -Meios de Cultivo,Ajuste Direto Regime Geral,Aquisição de bens móveis,"33696500-0, Reagentes de laboratório","Unidade Local de Saúde do N. Alentejano,EPE(ULSNA) (508094461)",Biomerieux (501524177),"12.972,06 €",22-02-2016,05-02-2016,365 dias,"Portugal, Portalegre, Portalegre<BR/>Portugal, Portalegre, Elvas","Artigo 20.º, n.º 1, alínea a) do Código dos Contratos Públicos","","",,,,Não aplicável.,Não aplicável.,FALSE
