Objeto do Contrato,Tipo de Procedimento,Tipo(s) de Contrato,CPVs,Entidade(s) Adjudicante(s),Entidade(s) Adjudicatária(s),Preço Contratual,Data de Publicação,Data de Celebração do Contrato,Prazo de Execução,Local de Execução,Fundamentação,Data de Fecho do Contrato,Preço Total Efetivo,Causas das Alterações ao Prazo,Causas das Alterações ao Preço,Estado,N.º registo do Acordo Quadro,Descrição do Acordo Quadro,Procedimento Centralizado
Aquisição de Lidocaína 400 mg / 20 ml sol. inj. fr. 20 ml IV SC,Ao abrigo de acordo-quadro (art.º 259.º),Aquisição de bens móveis,"33600000-6, Produtos farmacêuticos","Centro Hospitalar de Lisboa Central, E. P. E. (508080142)","Labesfal (501169580), B. Braun Medical, Lda. (501506543)","1.880,00 €",10-01-2014,27-12-2013,10 dias,"Portugal, Lisboa, Lisboa",Artigo 259.º do Código dos Contratos Públicos,,,,,,461372,CP 2012/45 - MEDICAMENTOS ANESTÉSICOS E RELAXANTES MUSCULARES,FALSE
Aquisição de Pamidronato de sódio 9 mg/ml sol. inj. fr. 10 ml IV,Ajuste Direto Regime Geral,Aquisição de bens móveis,"33600000-6, Produtos farmacêuticos","Centro Hospitalar de Lisboa Central, E. P. E. (508080142)","Hikma Farmacêutica (Portugal), Lda. (502266791)","420,00 €",10-01-2014,26-12-2013,5 dias,"Portugal, Lisboa, Lisboa","Artigo 20.º, n.º 1, alínea a) do Código dos Contratos Públicos",,,,,,Não aplicável.,Não aplicável.,FALSE
Aquisição de Paricalcitol 5 ug/ml sol. inj. fr. 1 ml IV,Ajuste Direto Regime Geral,Aquisição de bens móveis,"33600000-6, Produtos farmacêuticos","Centro Hospitalar de Lisboa Central, E. P. E. (508080142)","Abbvie, Lda. (510229050)","7.866,00 €",10-01-2014,10-01-2014,365 dias,"Portugal, Lisboa, Lisboa","Artigo 20.º, n.º 1, alínea a) do Código dos Contratos Públicos",,,,,,Não aplicável.,Não aplicável.,FALSE
Aquisição de Levotiroxina sódica 0.025 mg comp.,Ajuste Direto Regime Geral,Aquisição de bens móveis,"33600000-6, Produtos farmacêuticos","Centro Hospitalar de Lisboa Central, E. P. E. (508080142)","Merck Sharp & Dohme, Lda. (500191360)","335,82 €",10-01-2014,10-01-2014,365 dias,"Portugal, Lisboa, Lisboa","Artigo 20.º, n.º 1, alínea a) do Código dos Contratos Públicos",,,,,,Não aplicável.,Não aplicável.,FALSE
51081713 - aquisicao de Docetaxel,Ao abrigo de acordo-quadro (art.º 259.º),Locação de bens móveis,"33000000-0, Equipamento médico, medicamentos e produtos para cuidados pessoais","Centro Hospitalar de Lisboa Central, E. P. E. (508080142)",Hospira Portugal Ld. (502918098),"2.728,00 €",09-01-2014,10-12-2013,21 dias,"Portugal, Lisboa, Lisboa",Artigo 259.º do Código dos Contratos Públicos,,,,,,1119467,"CONCURSO PÚBLICO PARA A CELEBRAÇÃO DE CONTRATOS PÚBLICOS DE APROVISIONAMENTO PARA A ÁREA DA SAÚDE, COM VISTA AO FORNECIMENTO DE MEDICAMENTOS DO FORO ONCOLÓGICO, ÀS INSTITUIÇÕES E SERVIÇOS DO SERVIÇO NACIONAL DE SAÚDE",FALSE
"aquisicao de poliuretano esp. c/ prata, carvao, silicone penso 10x10",Ao abrigo de acordo-quadro (art.º 259.º),Aquisição de bens móveis,"33000000-0, Equipamento médico, medicamentos e produtos para cuidados pessoais","Centro Hospitalar de Lisboa Central, E. P. E. (508080142)",Molnycke healthcare (511101066),"5.432,70 €",09-01-2014,09-12-2013,22 dias,"Portugal, Lisboa, Lisboa",Artigo 259.º do Código dos Contratos Públicos,,,,,,490160,"CONCURSO PÚBLICO PARA A CELEBRAÇÃO DE CONTRATOS PÚBLICOS DE APROVISIONAMENTO PARA A ÁREA DA SAÚDE, COM VISTA AO FORNECIMENTO DE MATERIAL PENSO DE EFEITO TERAPÊUTICO - ÀS INSTITUIÇÕES E SERVIÇOS DO SERVIÇO NACIONAL DE SAÚDE",FALSE
"51076113 - aquisicao de poliuretano esp. c/ prata, carvao, silicone penso 15x15",Ao abrigo de acordo-quadro (art.º 259.º),Aquisição de bens móveis,"33000000-0, Equipamento médico, medicamentos e produtos para cuidados pessoais","Centro Hospitalar de Lisboa Central, E. P. E. (508080142)",Molnlycke health care (511101066),"2.940,00 €",09-01-2014,10-12-2013,21 dias,"Portugal, Lisboa, Lisboa",Artigo 259.º do Código dos Contratos Públicos,,,,,,490160,"CONCURSO PÚBLICO PARA A CELEBRAÇÃO DE CONTRATOS PÚBLICOS DE APROVISIONAMENTO PARA A ÁREA DA SAÚDE, COM VISTA AO FORNECIMENTO DE MATERIAL PENSO DE EFEITO TERAPÊUTICO - ÀS INSTITUIÇÕES E SERVIÇOS DO SERVIÇO NACIONAL DE SAÚDE",FALSE
51080713 - aquisicao de Iloprost,Ao abrigo de acordo-quadro (art.º 259.º),Aquisição de bens móveis,"33000000-0, Equipamento médico, medicamentos e produtos para cuidados pessoais","Centro Hospitalar de Lisboa Central, E. P. E. (508080142)",Bayer Portugal (500043256),"17.145,00 €",09-01-2014,09-12-2013,22 dias,"Portugal, Lisboa, Lisboa",Artigo 259.º do Código dos Contratos Públicos,,,,,,599473,"CONCURSO PÚBLICO PARA A CELEBRAÇÃO DE CONTRATOS PÚBLICOS DE APROVISIONAMENTO PARA A ÁREA DA SAÚDE, COM VISTA AO FORNECIMENTO DE MEDICAMENTOS DE CONSUMO GERAL, GRUPO 4: SANGUE ÀS INSTITUIÇÕES E SERVIÇOS DO SERVIÇO NACIONAL DE SAÚDE",FALSE
51076413 - aquisicao de Trocloseno Sodico,Ao abrigo de acordo-quadro (art.º 259.º),Aquisição de bens móveis,"33000000-0, Equipamento médico, medicamentos e produtos para cuidados pessoais","Centro Hospitalar de Lisboa Central, E. P. E. (508080142)",Johnson & Johnson Lda. (500153370),"3.504,00 €",09-01-2014,10-12-2013,21 dias,"Portugal, Lisboa, Lisboa",Artigo 259.º do Código dos Contratos Públicos,,,,,,178089,"CONCURSO PÚBLICO PARA A CELEBRAÇÃO DE CONTRATOS PÚBLICOS DE APROVISIONAMENTO PARA AQUISIÇÃO DE ANTISSÉPTICOS, DESINFECTANTES E OUTROS ",FALSE
51084713 - aquisicao de Dasatinib,Ao abrigo de acordo-quadro (art.º 259.º),Aquisição de bens móveis,"33000000-0, Equipamento médico, medicamentos e produtos para cuidados pessoais","Centro Hospitalar de Lisboa Central, E. P. E. (508080142)","Bristol-Myers Squibb Farmaceutica Portuguesa, S.A. (500048193)","3.118,24 €",09-01-2014,26-12-2013,5 dias,"Portugal, Lisboa, Lisboa",Artigo 259.º do Código dos Contratos Públicos,,,,,,383205,CONCURSO PÚBLICO PARA A CELEBRAÇÃO DE CONTRATOS PÚBLICOS DE APROVISIONAMENTO PARA AQUISIÇÃO MEDICAMENTOS DO FORO ONCOLÓGICO II,FALSE
aquisição de 990 unidades de clorohexidina,Ao abrigo de acordo-quadro (art.º 259.º),Aquisição de bens móveis,"33000000-0, Equipamento médico, medicamentos e produtos para cuidados pessoais","Centro Hospitalar de Lisboa Central, E. P. E. (508080142)",Vygon Portugal (503232785),"1.881,00 €",09-01-2014,26-12-2013,5 dias,"Portugal, Lisboa, Lisboa",Artigo 259.º do Código dos Contratos Públicos,,,,,,178089,"CONCURSO PÚBLICO PARA A CELEBRAÇÃO DE CONTRATOS PÚBLICOS DE APROVISIONAMENTO PARA AQUISIÇÃO DE ANTISSÉPTICOS, DESINFECTANTES E OUTROS ",FALSE
"Aquisição de serviços referente á  reparação de óptica do Bloco de Padiatria do CHLC,EPE  ",Ajuste Direto Regime Geral,Aquisição de serviços,"50000000-5, Serviços de reparação e manutenção","Centro Hospitalar de Lisboa Central, E. P. E. (508080142)","CareWill, Lda (507484851)","640,00 €",08-01-2014,16-12-2013,20 dias,"Portugal, Porto, Porto","Artigo 24.º, n.º 1, alínea c) do Código dos Contratos Públicos",,,,,,Não aplicável.,Não aplicável.,FALSE
"Aquisição de serviços referente á avaliação das salas do BOC e UUM no âmbito do plano de auditoria e controlo técnico de instalações AVAC do CHLC,EPE",Ajuste Direto Regime Geral,Aquisição de serviços,"98300000-6, Serviços diversos","Centro Hospitalar de Lisboa Central, E. P. E. (508080142)",Such - Serv. Util. Comum dos Hospitais (500900469),"630,00 €",08-01-2014,06-01-2014,3 dias,"Portugal, Lisboa, Lisboa","Artigo 24.º, n.º 1, alínea c) do Código dos Contratos Públicos",,,,,,Não aplicável.,Não aplicável.,FALSE
"Aquisição de serviços de reparação de Duodenoscópio Olympus do Bloco de Exames de Gastro do CHLC,EPE - HSAC",Ajuste Direto Regime Geral,Aquisição de serviços,"50000000-5, Serviços de reparação e manutenção","Centro Hospitalar de Lisboa Central, E. P. E. (508080142)","Olympus Iberia, S.A.U. (980474710)","1.105,47 €",08-01-2014,06-01-2014,8 dias,"Portugal, Lisboa, Lisboa","Artigo 24.º, n.º 1, alínea c) do Código dos Contratos Públicos",,,,,,Não aplicável.,Não aplicável.,FALSE
"Aquisição de Morfina 10 mg / 1 ml sol. inj. fr. 1 ml epidural IM IT IV SC, Morfina 40 mg / 2 ml sol. inj. fr. 2 ml epidural IM IT IV SC, Fentanilo 0,05 mg/ml sol. inj. fr. 5 ml IV e Sufentanilo 0,005 mg/ml sol. inj. fr. 2 ml epidural IV",Ao abrigo de acordo-quadro (art.º 259.º),Aquisição de bens móveis,"33600000-6, Produtos farmacêuticos","Centro Hospitalar de Lisboa Central, E. P. E. (508080142)","Labesfal (501169580), B. Braun Medical, Lda. (501506543), Hikma Farmacêutica (Portugal) S.A. (502266791)","173.045,00 €",08-01-2014,08-01-2014,365 dias,"Portugal, Lisboa, Lisboa",Artigo 259.º do Código dos Contratos Públicos,,,,,,613285,"CONCURSO PÚBLICO PARA A CELEBRAÇÃO DE CONTRATOS PÚBLICOS DE APROVISIONAMENTO PARA A ÁREA DA SAÚDE, COM VISTA AO FORNECIMENTO DE MEDICAMENTOS ANALGÉSICOS, ANTIPIRÉTICOS E ANTIDEPRESSORES, ÀS INSTITUIÇÕES E SERVIÇOS DO SERVIÇO NACIONAL DE SAÚDE",FALSE
"Aquisição de consumiveis que se adaptem aos equipamentos da marca ligasure existentes nos blocos operatórios, da propriedade do Centro Hospital de Lisboa Central, E.P.E.",Concurso público,Aquisição de bens móveis,"33140000-3, Material médico de consumo",Centro Hospitalar de Lisboa Central E.P.E. (508080142),"Covidien Portugal, Unipessoal, Lda (503413410)","161.340,00 €",07-01-2014,03-01-2014,362 dias,"Portugal, Lisboa, Lisboa","Artigo 20.º, n.º 1, alínea b) do Código dos Contratos Públicos",,,,,,Não aplicável.,Não aplicável.,FALSE
"Férrico Sacarosado 100 mg / 5 ml sol. inj. fr. 5 ml IV, Clopidogrel 75 mg comp. e Ticlopidina 250 mg comp.",Ao abrigo de acordo-quadro (art.º 259.º),Aquisição de bens móveis,"33600000-6, Produtos farmacêuticos","Centro Hospitalar de Lisboa Central, E. P. E. (508080142)","Actavis AS Sucursal (980334934), Generis Farmacêutica S. A. (508107997)","29.655,46 €",07-01-2014,07-01-2014,365 dias,"Portugal, Lisboa, Lisboa",Artigo 259.º do Código dos Contratos Públicos,,,,,,599473,"CONCURSO PÚBLICO PARA A CELEBRAÇÃO DE CONTRATOS PÚBLICOS DE APROVISIONAMENTO PARA A ÁREA DA SAÚDE, COM VISTA AO FORNECIMENTO DE MEDICAMENTOS DE CONSUMO GERAL, GRUPO 4: SANGUE ÀS INSTITUIÇÕES E SERVIÇOS DO SERVIÇO NACIONAL DE SAÚDE",FALSE
Aquisição de Piperacilina 4000 mg + Tazobactam 500 mg pó sol. inj. fr. IV e Piperacilina 2000 mg + Tazobactam 250 mg pó sol. inj. fr. IM IV,Ao abrigo de acordo-quadro (art.º 259.º),Aquisição de bens móveis,"33600000-6, Produtos farmacêuticos","Centro Hospitalar de Lisboa Central, E. P. E. (508080142)","Fresenius Kabi Pharma Portugal (504293753), Combino Pharm portugal Unipessoal, Lda. (508622263)","201.710,00 €",07-01-2014,07-01-2014,365 dias,"Portugal, Lisboa, Lisboa",Artigo 259.º do Código dos Contratos Públicos,,,,,,611389,"CONCURSO PÚBLICO PARA A CELEBRAÇÃO DE CONTRATOS PÚBLICOS DE APROVISIONAMENTO PARA A ÁREA DA SAÚDE, COM VISTA AO FORNECIMENTO DE MEDICAMENTOS ANTI-INFECIOSOS: EXCETO ANTIVÍRICOS E ANTIFÚNGICOS, ÀS INSTITUIÇÕES E SERVIÇOS DO SERVIÇO NACIONAL DE SAÚDE",FALSE
Aquisição de Material de Encavilhamento,Concurso público,Aquisição de bens móveis,"33183100-7, Implantes ortopédicos",Centro Hospitalar de Lisboa Central E.P.E. (508080142),"Stryker Portugal Produtos Médicos, Lda (504594214)","419.235,00 €",06-01-2014,03-01-2014,365 dias,"Portugal, Lisboa, Lisboa","Artigo 20.º, n.º 1, alínea b) do Código dos Contratos Públicos",,,,,,Não aplicável.,Não aplicável.,FALSE
Kits para Ligamentoplastia,Concurso público,Aquisição de bens móveis,"33183100-7, Implantes ortopédicos",Centro Hospitalar de Lisboa Central E.P.E. (508080142),"Biomet Portugal, Lda (500254990)","161.867,55 €",06-01-2014,27-12-2013,365 dias,"Portugal, Lisboa, Lisboa","Artigo 20.º, n.º 1, alínea b) do Código dos Contratos Públicos",,,,,,Não aplicável.,Não aplicável.,FALSE
Kits para Ligamentoplastia,Concurso público,Aquisição de bens móveis,"33183100-7, Implantes ortopédicos",Centro Hospitalar de Lisboa Central E.P.E. (508080142),"Johnson & Johnson, Lda (500153370)","51.600,00 €",06-01-2014,20-12-2013,365 dias,"Portugal, Lisboa, Lisboa","Artigo 20.º, n.º 1, alínea b) do Código dos Contratos Públicos",,,,,,Não aplicável.,Não aplicável.,FALSE
Osteossintese para cirurgia crânio-maxilo-facial,Concurso público,Aquisição de bens móveis,"33184100-4, Implantes cirúrgicos",Centro Hospitalar de Lisboa Central E.P.E. (508080142),"Socime II - Produtos Médicos, Lda (504453939)","258.194,10 €",06-01-2014,31-12-2013,365 dias,"Portugal, Lisboa, Lisboa","Artigo 20.º, n.º 1, alínea b) do Código dos Contratos Públicos",,,,,,Não aplicável.,Não aplicável.,FALSE
Material Osteossintese para Cirurgia Crânio-Maxilo-Facial,Concurso público,Aquisição de bens móveis,"33184100-4, Implantes cirúrgicos",Centro Hospitalar de Lisboa Central E.P.E. (508080142),Synthes - Comercialização de Dispositivos Médico Lda (501212191),"32.952,00 €",06-01-2014,31-12-2013,365 dias,"Portugal, Lisboa, Lisboa","Artigo 20.º, n.º 1, alínea b) do Código dos Contratos Públicos",,,,,,Não aplicável.,Não aplicável.,FALSE
4-2.2023/13,Ajuste Direto Regime Geral,Aquisição de bens móveis,"33000000-0, Equipamento médico, medicamentos e produtos para cuidados pessoais","Centro Hospitalar de Lisboa Central, E. P. E. (508080142)",Medicinália-Cormédica (500684324),"9.933,00 €",06-01-2014,26-11-2013,45 dias,"Portugal, Lisboa, Lisboa","Artigo 20.º, n.º 1, alínea a) do Código dos Contratos Públicos",,,,,,Não aplicável.,Não aplicável.,FALSE
4-2.2020/13,Ajuste Direto Regime Geral,Aquisição de bens móveis,"33000000-0, Equipamento médico, medicamentos e produtos para cuidados pessoais","Centro Hospitalar de Lisboa Central, E. P. E. (508080142)",EXPOMEDICA (501886621),"7.326,00 €",06-01-2014,25-11-2013,45 dias,"Portugal, Lisboa, Lisboa","Artigo 20.º, n.º 1, alínea a) do Código dos Contratos Públicos",,,,,,Não aplicável.,Não aplicável.,FALSE
4-2.2071/13 - Material de Diagnóstico,Ajuste Direto Regime Geral,Aquisição de bens móveis,"33000000-0, Equipamento médico, medicamentos e produtos para cuidados pessoais","Centro Hospitalar de Lisboa Central, E. P. E. (508080142)",Johnson & Johnson (500153370),"8.221,50 €",06-01-2014,23-12-2013,30 dias,"Portugal, Lisboa, Lisboa","Artigo 20.º, n.º 1, alínea a) do Código dos Contratos Públicos",,,,,,Não aplicável.,Não aplicável.,FALSE
4-2.2071/13 - Material de Diagnóstico,Ajuste Direto Regime Geral,Aquisição de bens móveis,"33000000-0, Equipamento médico, medicamentos e produtos para cuidados pessoais","Centro Hospitalar de Lisboa Central, E. P. E. (508080142)",Boston (504988964),"3.622,50 €",06-01-2014,23-12-2013,30 dias,"Portugal, Lisboa, Lisboa","Artigo 20.º, n.º 1, alínea a) do Código dos Contratos Públicos",,,,,,Não aplicável.,Não aplicável.,FALSE
Aquisição de Medicamentos FF OSI - aparelho cardiovascular,Ao abrigo de acordo-quadro (art.º 259.º),Aquisição de bens móveis,"33600000-6, Produtos farmacêuticos","Centro Hospitalar de Lisboa Central, E. P. E. (508080142)","Overpharma Produtos Médicos e Farmacêuticos, Lda. (505792362)","100.654,74 €",03-01-2014,02-01-2014,365 dias,"Portugal, Lisboa, Lisboa",Artigo 259.º do Código dos Contratos Públicos,,,,,,513025,"CONCURSO PÚBLICO PARA A CELEBRAÇÃO DE CONTRATOS PÚBLICOS DE APROVISIONAMENTO PARA A ÁREA DA SAÚDE, COM VISTA AO FORNECIMENTO DE MEDICAMENTOS DE CONSUMO GERAL  (FFOSI)- APARELHO CARDIOVASCULAR., ÀS INSTITUIÇÕES E SERVIÇOS DO SERVIÇO NACIONAL DE SAÚDE",FALSE
Aquisição de Oxazepam 15 mg comp. e Oxazepam 50 mg comp.,Ao abrigo de acordo-quadro (art.º 259.º),Aquisição de bens móveis,"33600000-6, Produtos farmacêuticos","Centro Hospitalar de Lisboa Central, E. P. E. (508080142)",Meda Pharma Produtos Farmacêuticos S.A. (500082090),"1.327,20 €",03-01-2014,02-01-2014,365 dias,"Portugal, Lisboa, Lisboa",Artigo 259.º do Código dos Contratos Públicos,,,,,,463786,"P 2012/2 - Medicamentos do Sistema Nervoso Cerebrospinal: exceto anestésicos, relaxantes musculares, analgésicos, antipiréticos, antidepressores e anti-psicóticos",FALSE
Medicamentos do Sistema Nervoso Cerebrospinal,Ao abrigo de acordo-quadro (art.º 259.º),Aquisição de bens móveis,"33600000-6, Produtos farmacêuticos","Centro Hospitalar de Lisboa Central, E. P. E. (508080142)","Laboratórios Pfizer, Lda. (500162166)","1.061,92 €",03-01-2014,02-01-2014,365 dias,"Portugal, Lisboa, Lisboa",Artigo 259.º do Código dos Contratos Públicos,,,,,,463786,"P 2012/2 - Medicamentos do Sistema Nervoso Cerebrospinal: exceto anestésicos, relaxantes musculares, analgésicos, antipiréticos, antidepressores e anti-psicóticos",FALSE
Aquisição de Neostigmina 0.5 mg / 1 ml sol. inj. fr. 1 ml IM IV SC,Ao abrigo de acordo-quadro (art.º 259.º),Aquisição de bens móveis,"33600000-6, Produtos farmacêuticos","Centro Hospitalar de Lisboa Central, E. P. E. (508080142)","B. Braun Medical, Lda. (501506543)","6.821,75 €",03-01-2014,02-01-2014,365 dias,"Portugal, Lisboa, Lisboa",Artigo 259.º do Código dos Contratos Públicos,,,,,,463786,"P 2012/2 - Medicamentos do Sistema Nervoso Cerebrospinal: exceto anestésicos, relaxantes musculares, analgésicos, antipiréticos, antidepressores e anti-psicóticos",FALSE
Aquisição de próteses tumorais,Ajuste Direto Regime Geral,Aquisição de bens móveis,"33000000-0, Equipamento médico, medicamentos e produtos para cuidados pessoais","Centro Hospitalar de Lisboa Central, E. P. E. (508080142)",MBA (504445960),"44.670,54 €",03-01-2014,26-12-2013,1 dias,"Portugal, Lisboa, Lisboa","Artigo 24.º, n.º 1, alínea c) do Código dos Contratos Públicos",,,,,,Não aplicável.,Não aplicável.,FALSE
Aquisição de próteses de revisão,Ajuste Direto Regime Geral,Aquisição de bens móveis,"33000000-0, Equipamento médico, medicamentos e produtos para cuidados pessoais","Centro Hospitalar de Lisboa Central, E. P. E. (508080142)",Biomet (500254990),"16.916,00 €",03-01-2014,30-12-2013,1 dias,"Portugal, Lisboa, Lisboa","Artigo 24.º, n.º 1, alínea e) do Código dos Contratos Públicos",,,,,,Não aplicável.,Não aplicável.,FALSE
Aquisição de Medicamentos do Foro Oncológico II,Ao abrigo de acordo-quadro (art.º 259.º),Aquisição de bens móveis,"33600000-6, Produtos farmacêuticos","Centro Hospitalar de Lisboa Central, E. P. E. (508080142)","Teva Pharma - Produtos Farmacêuticos, Lda. (507045491)","7.432,80 €",03-01-2014,02-01-2014,365 dias,"Portugal, Lisboa, Lisboa",Artigo 259.º do Código dos Contratos Públicos,,,,,,383205,CONCURSO PÚBLICO PARA A CELEBRAÇÃO DE CONTRATOS PÚBLICOS DE APROVISIONAMENTO PARA AQUISIÇÃO MEDICAMENTOS DO FORO ONCOLÓGICO II,FALSE
Aquisição de espaçadores e fixador lombar,Ajuste Direto Regime Geral,Aquisição de bens móveis,"33000000-0, Equipamento médico, medicamentos e produtos para cuidados pessoais","Centro Hospitalar de Lisboa Central, E. P. E. (508080142)",Eurossintese (503491403),"5.653,00 €",03-01-2014,27-12-2013,1 dias,"Portugal, Lisboa, Lisboa","Artigo 24.º, n.º 1, alínea c) do Código dos Contratos Públicos",,,,,,Não aplicável.,Não aplicável.,FALSE
Aquisição de Hidroxicarbamida 500 mg cáps.,Ao abrigo de acordo-quadro (art.º 259.º),Aquisição de bens móveis,"33600000-6, Produtos farmacêuticos","Centro Hospitalar de Lisboa Central, E. P. E. (508080142)",MEDAC (980369959),"83.673,00 €",03-01-2014,02-01-2014,365 dias,"Portugal, Lisboa, Lisboa",Artigo 259.º do Código dos Contratos Públicos,,,,,,383205,CONCURSO PÚBLICO PARA A CELEBRAÇÃO DE CONTRATOS PÚBLICOS DE APROVISIONAMENTO PARA AQUISIÇÃO MEDICAMENTOS DO FORO ONCOLÓGICO II,FALSE
Aquisição de Alteplase 2 mg pó sol. inj. fr. IV e Dipiridamol 75 mg comp.,Ao abrigo de acordo-quadro (art.º 259.º),Aquisição de bens móveis,"33600000-6, Produtos farmacêuticos","Centro Hospitalar de Lisboa Central, E. P. E. (508080142)","Unilfarma - União Inter. de Lab. Farmacêuticos, Lda. (500293023)","8.294,97 €",03-01-2014,02-01-2014,365 dias,"Portugal, Lisboa, Lisboa",Artigo 259.º do Código dos Contratos Públicos,,,,,,599473,"CONCURSO PÚBLICO PARA A CELEBRAÇÃO DE CONTRATOS PÚBLICOS DE APROVISIONAMENTO PARA A ÁREA DA SAÚDE, COM VISTA AO FORNECIMENTO DE MEDICAMENTOS DE CONSUMO GERAL, GRUPO 4: SANGUE ÀS INSTITUIÇÕES E SERVIÇOS DO SERVIÇO NACIONAL DE SAÚDE",FALSE
Aquisição de Medicamentos Anti-psicóticos,Ao abrigo de acordo-quadro (art.º 259.º),Aquisição de bens móveis,"33600000-6, Produtos farmacêuticos","Centro Hospitalar de Lisboa Central, E. P. E. (508080142)","Janssen-Cilag Farmacêutica, Lda. (500189412)","762,18 €",03-01-2014,02-01-2014,365 dias,"Portugal, Lisboa, Lisboa",Artigo 259.º do Código dos Contratos Públicos,,,,,,389354,CONCURSO PÚBLICO PARA A CELEBRAÇÃO DE CONTRATOS PÚBLICOS DE APROVISIONAMENTO PARA AQUISIÇÃO MEDICAMENTOS ANTI-PSICÓTICOS,FALSE
Aquisição de Quetiapina 25 mg comp.,Ao abrigo de acordo-quadro (art.º 259.º),Aquisição de bens móveis,"33600000-6, Produtos farmacêuticos","Centro Hospitalar de Lisboa Central, E. P. E. (508080142)",Generis Farmacêutica S.A. (508107997),"4.900,00 €",03-01-2014,02-01-2014,365 dias,"Portugal, Lisboa, Lisboa",Artigo 259.º do Código dos Contratos Públicos,,,,,,389354,CONCURSO PÚBLICO PARA A CELEBRAÇÃO DE CONTRATOS PÚBLICOS DE APROVISIONAMENTO PARA AQUISIÇÃO MEDICAMENTOS ANTI-PSICÓTICOS,FALSE
Aquisição de Zuclopentixol 50 mg / 1 ml sol. inj. fr. 1 ml IM,Ao abrigo de acordo-quadro (art.º 259.º),Aquisição de bens móveis,"33600000-6, Produtos farmacêuticos","Centro Hospitalar de Lisboa Central, E. P. E. (508080142)",Lundbeck Portugal (503573922),"993,60 €",03-01-2014,02-01-2014,365 dias,"Portugal, Lisboa, Lisboa",Artigo 259.º do Código dos Contratos Públicos,,,,,,389354,CONCURSO PÚBLICO PARA A CELEBRAÇÃO DE CONTRATOS PÚBLICOS DE APROVISIONAMENTO PARA AQUISIÇÃO MEDICAMENTOS ANTI-PSICÓTICOS,FALSE
Aquisição de Tiapida 100 mg / 2 ml sol. inj. fr. 2 ml IM IV e Sulpirida 50 mg cáps.,Ao abrigo de acordo-quadro (art.º 259.º),Aquisição de bens móveis,"33600000-6, Produtos farmacêuticos","Centro Hospitalar de Lisboa Central, E. P. E. (508080142)","Sanofi - Produtos Farmacêuticos, Lda. (500134960)","2.909,29 €",03-01-2014,02-01-2014,365 dias,"Portugal, Lisboa, Lisboa",Artigo 259.º do Código dos Contratos Públicos,,,,,,389354,CONCURSO PÚBLICO PARA A CELEBRAÇÃO DE CONTRATOS PÚBLICOS DE APROVISIONAMENTO PARA AQUISIÇÃO MEDICAMENTOS ANTI-PSICÓTICOS,FALSE
Aquisição de Sugamadex 100 mg/ml sol. inj. fr. 5 ml IV,Ao abrigo de acordo-quadro (art.º 259.º),Aquisição de bens móveis,"33600000-6, Produtos farmacêuticos","Centro Hospitalar de Lisboa Central, E. P. E. (508080142)",Merck Sharp & Dohme (500191360),"3.802,48 €",03-01-2014,02-01-2014,365 dias,"Portugal, Lisboa, Lisboa",Artigo 259.º do Código dos Contratos Públicos,,,,,,602067,"ONCURSO PÚBLICO PARA A CELEBRAÇÃO DE CONTRATOS PÚBLICOS DE APROVISIONAMENTO PARA A ÁREA DA SAÚDE, COM VISTA AO FORNECIMENTO DE MEDICAMENTOS DE CONSUMO GERAL - MEDICAÇÃO ANTIALÉRGICA, MEDICAMENTOS USADOS NO TRATAMENTO DE INTOXICAÇÕES, VITAMINAS E SAIS MINERAIS  E GRUPO 20.9 - OUTROS PRODUTOS, ÀS INSTITUIÇÕES E SERVIÇOS DO SERVIÇO NACIONAL DE SAÚDE",FALSE
Aquisição de Ambrisentano 5 mg comp.,Ao abrigo de acordo-quadro (art.º 259.º),Aquisição de bens móveis,"33600000-6, Produtos farmacêuticos","Centro Hospitalar de Lisboa Central, E. P. E. (508080142)","Glaxosmithkline - Produtos Farmacêuticos, Lda. (500139962)","55.300,14 €",03-01-2014,02-01-2014,365 dias,"Portugal, Lisboa, Lisboa",Artigo 259.º do Código dos Contratos Públicos,,,,,,1093903,Fornecimento de «Medicamentos FF OSI - Aparelho Cardiovascular»,FALSE
Aquisição de Darunavir 400 mg comp.,Ao abrigo de acordo-quadro (art.º 259.º),Aquisição de bens móveis,"33600000-6, Produtos farmacêuticos","Centro Hospitalar de Lisboa Central, E. P. E. (508080142)","Janssen-Cilag Farmacêutica, Lda. (500189412)","190.215,00 €",03-01-2014,06-12-2013,15 dias,"Portugal, Lisboa, Lisboa",Artigo 259.º do Código dos Contratos Públicos,,,,,,461371,CP 2012/40 - MEDICAMENTOS ANTI-RETROVIRAIS,FALSE
Aquisição de Imunoglobulina humana normal 100 mg/ml sol. inj. fr. 100 ml IV,Ao abrigo de acordo-quadro (art.º 259.º),Aquisição de bens móveis,"33600000-6, Produtos farmacêuticos","Centro Hospitalar de Lisboa Central, E. P. E. (508080142)","CSL Behring, Lda. (503047201)","4.800,00 €",03-01-2014,06-12-2013,15 dias,"Portugal, Lisboa, Lisboa",Artigo 259.º do Código dos Contratos Públicos,,,,,,535788,"CONCURSO PÚBLICO PARA A CELEBRAÇÃO DE CONTRATOSPÚBLICOS DE APROVISIONAMENTO PARA A ÁREA DA SAÚDE, COM VISTA AO FORNECIMENTO DE DERIVADOS DO PLASMA HUMANOÀS INSTITUIÇÕES E SERVIÇOS DO SERVIÇO NACIONAL DE SAÚDE",FALSE
Aquisição de Polimorfismos genéticos de interleucina de 28B (IL28B) e ag HBS quantificação - 41500314,Ajuste Direto Regime Geral,Aquisição de bens móveis,"33696500-0, Reagentes de laboratório","Centro Hospitalar de Lisboa Central, E.P.E. (CHLC) (508080142)",QUILABAN (500399670),"9.697,00 €",03-01-2014,02-01-2014,365 dias,"Portugal, Lisboa, Lisboa","Artigo 20.º, n.º 1, alínea a) do Código dos Contratos Públicos",,,,,,Não aplicável.,Não aplicável.,FALSE
Aquisição de Ciclofosfamida 50 mg comp.,Ao abrigo de acordo-quadro (art.º 259.º),Aquisição de bens móveis,"33600000-6, Produtos farmacêuticos","Centro Hospitalar de Lisboa Central, E. P. E. (508080142)","Baxter Médico-Farmacêutica, Lda. (503347345)","291,20 €",03-01-2014,18-12-2013,15 dias,"Portugal, Lisboa, Lisboa",Artigo 259.º do Código dos Contratos Públicos,,,,,,383205,CONCURSO PÚBLICO PARA A CELEBRAÇÃO DE CONTRATOS PÚBLICOS DE APROVISIONAMENTO PARA AQUISIÇÃO MEDICAMENTOS DO FORO ONCOLÓGICO II,FALSE
Aquisição de kit´s para autotransfusão,Ajuste Direto Regime Geral,Aquisição de bens móveis,"33140000-3, Material médico de consumo","Centro Hospitalar de Lisboa Central, E.P.E. (CHLC) (508080142)","Medicinália Cormédica, Lda (500684324)","6.750,00 €",02-01-2014,02-01-2014,90 dias,"Portugal, Lisboa, Lisboa","Artigo 20.º, n.º 1, alínea a) do Código dos Contratos Públicos",,,,,,Não aplicável.,Não aplicável.,FALSE
Aquisição de cateteres endovenosos veias periféricos com e sem protecção picada,Ao abrigo de acordo-quadro (art.º 259.º),Aquisição de bens móveis,"33140000-3, Material médico de consumo","Centro Hospitalar de Lisboa Central, E. P. E. (508080142)",PMH (502376899),"91.245,00 €",02-01-2014,27-12-2013,365 dias,"Portugal, Lisboa, Lisboa",Artigo 259.º do Código dos Contratos Públicos,,,,,,412727,CONCURSO PÚBLICO PARA A CELEBRAÇÃO DE CONTRATOS PÚBLICOS DE APROVISIONAMENTO PARA AQUISIÇÃO DE MATERIAL CATETERES,FALSE
Aquisição de cateteres endovenosos veias periféricos com e sem protecção picada,Ao abrigo de acordo-quadro (art.º 259.º),Aquisição de bens móveis,"33140000-3, Material médico de consumo","Centro Hospitalar de Lisboa Central, E. P. E. (508080142)","Smiths Medical, Lda (507445937)","90.618,40 €",02-01-2014,27-12-2013,365 dias,"Portugal, Lisboa, Lisboa",Artigo 259.º do Código dos Contratos Públicos,,,,,,412727,CONCURSO PÚBLICO PARA A CELEBRAÇÃO DE CONTRATOS PÚBLICOS DE APROVISIONAMENTO PARA AQUISIÇÃO DE MATERIAL CATETERES,FALSE
Aquisição de cateteres endovenosos veias periféricos com e sem protecção picada,Ao abrigo de acordo-quadro (art.º 259.º),Aquisição de bens móveis,"33140000-3, Material médico de consumo","Centro Hospitalar de Lisboa Central, E. P. E. (508080142)","B Braun Medical, Lda (501506543)","54.048,80 €",02-01-2014,27-12-2013,365 dias,"Portugal, Lisboa, Lisboa",Artigo 259.º do Código dos Contratos Públicos,,,,,,412727,CONCURSO PÚBLICO PARA A CELEBRAÇÃO DE CONTRATOS PÚBLICOS DE APROVISIONAMENTO PARA AQUISIÇÃO DE MATERIAL CATETERES,FALSE
Aquisição de fraldas descartaveis,Ao abrigo de acordo-quadro (art.º 259.º),Aquisição de bens móveis,"33140000-3, Material médico de consumo","Centro Hospitalar de Lisboa Central, E. P. E. (508080142)",Procter & Gamble (503037753),"22.078,08 €",02-01-2014,27-12-2013,365 dias,"Portugal, Lisboa, Lisboa",Artigo 259.º do Código dos Contratos Públicos,,,,,,598830,"CONCURSO PÚBLICO PARA A CELEBRAÇÃO DE CONTRATOS PÚBLICOS DE APROVISIONAMENTO PARA A ÁREA DA SAÚDE, COM VISTA AO FORNECIMENTO DE MATERIAL DE INCONTINÊNCIA, PROTEÇÃO CUTÂNEA E ALÍVIO DE PRESSÃO, ÀS INSTITUIÇÕES E SERVIÇOS DO SERVIÇO NACIONAL DE SAÚDE",FALSE
Aquisição de fraldas descartaveis,Ao abrigo de acordo-quadro (art.º 259.º),Aquisição de bens móveis,"33140000-3, Material médico de consumo","Centro Hospitalar de Lisboa Central, E. P. E. (508080142)","Quilaban, S.A. (500399670)","220.855,82 €",02-01-2014,27-12-2013,365 dias,"Portugal, Lisboa, Lisboa",Artigo 259.º do Código dos Contratos Públicos,,,,,,598830,"CONCURSO PÚBLICO PARA A CELEBRAÇÃO DE CONTRATOS PÚBLICOS DE APROVISIONAMENTO PARA A ÁREA DA SAÚDE, COM VISTA AO FORNECIMENTO DE MATERIAL DE INCONTINÊNCIA, PROTEÇÃO CUTÂNEA E ALÍVIO DE PRESSÃO, ÀS INSTITUIÇÕES E SERVIÇOS DO SERVIÇO NACIONAL DE SAÚDE",FALSE
Aquisição de fraldas descartaveis para 2014,Ao abrigo de acordo-quadro (art.º 259.º),Aquisição de bens móveis,"33140000-3, Material médico de consumo","Centro Hospitalar de Lisboa Central, E. P. E. (508080142)","Indas Portugal, Lda (503505196)","27.110,98 €",02-01-2014,27-12-2013,365 dias,"Portugal, Lisboa, Lisboa",Artigo 259.º do Código dos Contratos Públicos,,,,,,598830,"CONCURSO PÚBLICO PARA A CELEBRAÇÃO DE CONTRATOS PÚBLICOS DE APROVISIONAMENTO PARA A ÁREA DA SAÚDE, COM VISTA AO FORNECIMENTO DE MATERIAL DE INCONTINÊNCIA, PROTEÇÃO CUTÂNEA E ALÍVIO DE PRESSÃO, ÀS INSTITUIÇÕES E SERVIÇOS DO SERVIÇO NACIONAL DE SAÚDE",FALSE
Aquisição de Enoxaparina sódica 100 mg / 1 ml sol. inj. ser. 1 ml SC,Ao abrigo de acordo-quadro (art.º 259.º),Aquisição de bens móveis,"33600000-6, Produtos farmacêuticos","Centro Hospitalar de Lisboa Central, E. P. E. (508080142)","Sanofi - Produtos farmacêuticos, Lda. (500134960)","386,88 €",02-01-2014,09-12-2013,15 dias,"Portugal, Lisboa, Lisboa",Artigo 259.º do Código dos Contratos Públicos,,,,,,599473,"CONCURSO PÚBLICO PARA A CELEBRAÇÃO DE CONTRATOS PÚBLICOS DE APROVISIONAMENTO PARA A ÁREA DA SAÚDE, COM VISTA AO FORNECIMENTO DE MEDICAMENTOS DE CONSUMO GERAL, GRUPO 4: SANGUE ÀS INSTITUIÇÕES E SERVIÇOS DO SERVIÇO NACIONAL DE SAÚDE",FALSE
Aquisição de Octreotido 30 mg pó susp. inj. fr. IM,Ajuste Direto Regime Geral,Aquisição de bens móveis,"33600000-6, Produtos farmacêuticos","Centro Hospitalar de Lisboa Central, E.P.E. (CHLC) (508080142)",Novartis Farma S. A. (500063524),"21.163,40 €",02-01-2014,23-12-2013,5 dias,"Portugal, Lisboa, Lisboa","Artigo 24.º, n.º 1, alínea e) do Código dos Contratos Públicos",,,,,,Não aplicável.,Não aplicável.,FALSE
Aquisição Ifosfamida 2000 mg pó sol. inj. fr. IV,Ajuste Direto Regime Geral,Aquisição de bens móveis,"33600000-6, Produtos farmacêuticos","Centro Hospitalar de Lisboa Central, E.P.E. (CHLC) (508080142)","Baxter Médico Farmacêutica, Lda. (503347345)","1.499,40 €",02-01-2014,18-12-2013,5 dias,"Portugal, Lisboa, Lisboa","Artigo 24.º, n.º 1, alínea e) do Código dos Contratos Públicos",,,,,,Não aplicável.,Não aplicável.,FALSE
DIVERSO MATERIAL DE HIGIENE E PROTECÇÃO,Ajuste Direto Regime Geral,Aquisição de bens móveis,"33000000-0, Equipamento médico, medicamentos e produtos para cuidados pessoais","Centro Hospitalar de Lisboa Central, E. P. E. (508080142)",MUNDINTER (500199906),"13.317,45 €",02-01-2014,27-12-2013,369 dias,"Portugal, Lisboa, Lisboa","Artigo 20.º, n.º 1, alínea a) do Código dos Contratos Públicos",,,,,,Não aplicável.,Não aplicável.,
DIVERSOS CONECTORES,Ajuste Direto Regime Geral,Aquisição de bens móveis,"33000000-0, Equipamento médico, medicamentos e produtos para cuidados pessoais","Centro Hospitalar de Lisboa Central, E. P. E. (508080142)","INTERSURGICAL PORTUGAL, LDA (503480045)","6.276,90 €",02-01-2014,02-01-2014,363 dias,"Portugal, Lisboa, Lisboa","Artigo 20.º, n.º 1, alínea a) do Código dos Contratos Públicos",,,,,,Não aplicável.,Não aplicável.,FALSE
DIVERSOS CONECTORES,Ajuste Direto Regime Geral,Aquisição de bens móveis,"33000000-0, Equipamento médico, medicamentos e produtos para cuidados pessoais","Centro Hospitalar de Lisboa Central, E. P. E. (508080142)",AVIQUIMICA - IMPORT. MANUF. LDA (500039720),"695,00 €",02-01-2014,02-01-2014,363 dias,"Portugal, Lisboa, Lisboa","Artigo 20.º, n.º 1, alínea a) do Código dos Contratos Públicos",,,,,,Não aplicável.,Não aplicável.,FALSE
Aquisição de luvas de exame,Ajuste Direto Regime Geral,Aquisição de bens móveis,"33140000-3, Material médico de consumo","Centro Hospitalar de Lisboa Central, E. P. E. (508080142)","Medicinalia Cormédica, Lda (500684324)","6.405,00 €",02-01-2014,02-01-2014,365 dias,"Portugal, Lisboa, Lisboa","Artigo 20.º, n.º 1, alínea a) do Código dos Contratos Públicos",,,,,,Não aplicável.,Não aplicável.,FALSE
Aquisição de pensos e adesivos,Ao abrigo de acordo-quadro (art.º 259.º),Aquisição de bens móveis,"33140000-3, Material médico de consumo","Centro Hospitalar de Lisboa Central, E. P. E. (508080142)","Smith & Nephew, Lda (503552461)","9.476,20 €",02-01-2014,27-12-2013,365 dias,"Portugal, Lisboa, Lisboa",Artigo 259.º do Código dos Contratos Públicos,,,,,,534953,"CONCURSO PÚBLICO PARA A CELEBRAÇÃO DE CONTRATOS PÚBLICOS DE APROVISIONAMENTO PARA A ÁREA DA SAÚDE, COM VISTA AO FORNECIMENTO DE MATERIAL DE PENSO TRADICIONAL/CLASSICO - PARTE 1 - ÀS INSTITUIÇÕES E SERVIÇOS DO SERVIÇO NACIONAL DE SAÚDE  ",FALSE
Aquisição de pensos e adesivos,Ao abrigo de acordo-quadro (art.º 259.º),Aquisição de bens móveis,"33140000-3, Material médico de consumo","Centro Hospitalar de Lisboa Central, E. P. E. (508080142)","Overpharma, Lda (505792362)","21.224,85 €",02-01-2014,27-12-2013,365 dias,"Portugal, Lisboa, Lisboa",Artigo 259.º do Código dos Contratos Públicos,,,,,,534953,"CONCURSO PÚBLICO PARA A CELEBRAÇÃO DE CONTRATOS PÚBLICOS DE APROVISIONAMENTO PARA A ÁREA DA SAÚDE, COM VISTA AO FORNECIMENTO DE MATERIAL DE PENSO TRADICIONAL/CLASSICO - PARTE 1 - ÀS INSTITUIÇÕES E SERVIÇOS DO SERVIÇO NACIONAL DE SAÚDE  ",FALSE
Aquisição de pensos e adesivos,Ao abrigo de acordo-quadro (art.º 259.º),Aquisição de bens móveis,"33140000-3, Material médico de consumo","Centro Hospitalar de Lisboa Central, E. P. E. (508080142)","Bastos Viegas, S.A. (500042772)","25.032,96 €",02-01-2014,27-12-2013,365 dias,"Portugal, Lisboa, Lisboa",Artigo 259.º do Código dos Contratos Públicos,,,,,,534953,"CONCURSO PÚBLICO PARA A CELEBRAÇÃO DE CONTRATOS PÚBLICOS DE APROVISIONAMENTO PARA A ÁREA DA SAÚDE, COM VISTA AO FORNECIMENTO DE MATERIAL DE PENSO TRADICIONAL/CLASSICO - PARTE 1 - ÀS INSTITUIÇÕES E SERVIÇOS DO SERVIÇO NACIONAL DE SAÚDE  ",FALSE
"Material Osteossintese da Coluna Dorsal, Lombar e Sagrada",Ao abrigo de acordo-quadro (art.º 259.º),Aquisição de bens móveis,"33184100-4, Implantes cirúrgicos","Centro Hospitalar de Lisboa Central, E. P. E. (508080142)","Medtronic Portugal, Lda (504223933)","62.769,00 €",02-01-2014,20-12-2013,11 dias,"Portugal, Lisboa, Lisboa",Artigo 259.º do Código dos Contratos Públicos,,,,,,424406,"1-2.0001/2012-Concurso Público Internacional Tendente à Celebração de Acordo Quadro para Selecção de Fornecedores de Material de Osteossintese de Coluna Dorsal, Lombar e Sagrada.",FALSE
Aquisição de Sensor Bis Bilateral,Ajuste Direto Regime Geral,Aquisição de bens móveis,"33000000-0, Equipamento médico, medicamentos e produtos para cuidados pessoais","Centro Hospitalar de Lisboa Central, E. P. E. (508080142)",IBERDATA-EQUIPAMENTOS SA (501904921),"1.170,00 €",02-01-2014,02-01-2014,30 dias,"Portugal, Lisboa, Lisboa","Artigo 20.º, n.º 1, alínea a) do Código dos Contratos Públicos",,,,,,Não aplicável.,Não aplicável.,FALSE
Aquisição de Anel para Anuloplastia Tricuspide,Ajuste Direto Regime Geral,Aquisição de bens móveis,"33000000-0, Equipamento médico, medicamentos e produtos para cuidados pessoais","Centro Hospitalar de Lisboa Central, E. P. E. (508080142)",EDWARDS LIFESCIENCES (PORTUGAL) (508014832),"10.400,00 €",02-01-2014,18-12-2013,60 dias,"Portugal, Lisboa, Lisboa","Artigo 20.º, n.º 1, alínea a) do Código dos Contratos Públicos",,,,,,Não aplicável.,Não aplicável.,FALSE
ÓCULOS DE PROTECÇÃO PARA FOTOTERAPIA,Ajuste Direto Regime Geral,Aquisição de bens móveis,"33000000-0, Equipamento médico, medicamentos e produtos para cuidados pessoais","Centro Hospitalar de Lisboa Central, E. P. E. (508080142)","SANO-TECNICA, LDA (500239819)","702,00 €",02-01-2014,18-12-2013,363 dias,"Portugal, Lisboa, Lisboa","Artigo 20.º, n.º 1, alínea a) do Código dos Contratos Públicos",,,,,,Não aplicável.,Não aplicável.,FALSE
ÓCULO DE PROTECÇÃO PARA FOTOTERAPIA,Ajuste Direto Regime Geral,Aquisição de bens móveis,"33000000-0, Equipamento médico, medicamentos e produtos para cuidados pessoais","Centro Hospitalar de Lisboa Central, E. P. E. (508080142)",COVIDIEN PORTUGAL (503413410),"537,50 €",02-01-2014,18-12-2013,363 dias,"Portugal, Lisboa, Lisboa","Artigo 20.º, n.º 1, alínea a) do Código dos Contratos Públicos",,,,,,Não aplicável.,Não aplicável.,FALSE
Aquisição de mascaras e respiradores,Ao abrigo de acordo-quadro (art.º 259.º),Aquisição de bens móveis,"33140000-3, Material médico de consumo","Centro Hospitalar de Lisboa Central, E. P. E. (508080142)","Normax, LDa (500203130)","8.804,40 €",02-01-2014,27-12-2013,365 dias,"Portugal, Lisboa, Lisboa",Artigo 259.º do Código dos Contratos Públicos,,,,,,537931,"CONCURSO PÚBLICO PARA A CELEBRAÇÃO DE CONTRATOS PÚBLICOS DE APROVISIONAMENTO PARA A ÁREA DA SAÚDE, COM VISTA AO FORNECIMENTO DE MATERIAL DISPOSABLE DE BLOCO OPERATÓRIO - PARTE 2, ÀS INSTITUIÇÕES E SERVIÇOS DO SERVIÇO NACIONAL DE SAÚDE  ",FALSE
Aquisição de mascaras e respiradores,Ao abrigo de acordo-quadro (art.º 259.º),Aquisição de bens móveis,"33140000-3, Material médico de consumo","Centro Hospitalar de Lisboa Central, E. P. E. (508080142)","Pergut Portugal, Lda (501799729)","15.300,00 €",02-01-2014,27-12-2013,365 dias,"Portugal, Lisboa, Lisboa",Artigo 259.º do Código dos Contratos Públicos,,,,,,537931,"CONCURSO PÚBLICO PARA A CELEBRAÇÃO DE CONTRATOS PÚBLICOS DE APROVISIONAMENTO PARA A ÁREA DA SAÚDE, COM VISTA AO FORNECIMENTO DE MATERIAL DISPOSABLE DE BLOCO OPERATÓRIO - PARTE 2, ÀS INSTITUIÇÕES E SERVIÇOS DO SERVIÇO NACIONAL DE SAÚDE  ",FALSE
Aquisição de mascaras e respiradores,Ao abrigo de acordo-quadro (art.º 259.º),Aquisição de bens móveis,"33140000-3, Material médico de consumo","Centro Hospitalar de Lisboa Central, E. P. E. (508080142)",Anastácio Saldanha (505804441),"13.657,50 €",02-01-2014,27-12-2013,365 dias,"Portugal, Lisboa, Lisboa",Artigo 259.º do Código dos Contratos Públicos,,,,,,537931,"CONCURSO PÚBLICO PARA A CELEBRAÇÃO DE CONTRATOS PÚBLICOS DE APROVISIONAMENTO PARA A ÁREA DA SAÚDE, COM VISTA AO FORNECIMENTO DE MATERIAL DISPOSABLE DE BLOCO OPERATÓRIO - PARTE 2, ÀS INSTITUIÇÕES E SERVIÇOS DO SERVIÇO NACIONAL DE SAÚDE  ",FALSE
Aquisição de mascaras e respiradores,Ao abrigo de acordo-quadro (art.º 259.º),Aquisição de bens móveis,"33140000-3, Material médico de consumo","Centro Hospitalar de Lisboa Central, E. P. E. (508080142)","Bastos Viegas, S.A. (500042772)","17.493,00 €",02-01-2014,27-12-2013,365 dias,"Portugal, Lisboa, Lisboa",Artigo 259.º do Código dos Contratos Públicos,,,,,,537931,"CONCURSO PÚBLICO PARA A CELEBRAÇÃO DE CONTRATOS PÚBLICOS DE APROVISIONAMENTO PARA A ÁREA DA SAÚDE, COM VISTA AO FORNECIMENTO DE MATERIAL DISPOSABLE DE BLOCO OPERATÓRIO - PARTE 2, ÀS INSTITUIÇÕES E SERVIÇOS DO SERVIÇO NACIONAL DE SAÚDE  ",FALSE
COLARES CERVICAIS E TALAS PARA DEDOS,Ajuste Direto Regime Geral,Aquisição de bens móveis,"33000000-0, Equipamento médico, medicamentos e produtos para cuidados pessoais","Centro Hospitalar de Lisboa Central, E. P. E. (508080142)",SMITH & NEPHEW (503552461),"4.500,00 €",02-01-2014,19-12-2013,363 dias,"Portugal, Lisboa, Lisboa","Artigo 20.º, n.º 1, alínea a) do Código dos Contratos Públicos",,,,,,Não aplicável.,Não aplicável.,FALSE
COLARES CERVICAIS E TALAS PARA DEDOS,Ajuste Direto Regime Geral,Aquisição de bens móveis,"33000000-0, Equipamento médico, medicamentos e produtos para cuidados pessoais","Centro Hospitalar de Lisboa Central, E. P. E. (508080142)",EXPOMEDICA (501886621),"5.850,00 €",02-01-2014,19-12-2013,363 dias,"Portugal, Lisboa, Lisboa","Artigo 20.º, n.º 1, alínea a) do Código dos Contratos Públicos",,,,,,Não aplicável.,Não aplicável.,FALSE
COLARES CERVICAIS E TALAS PARA DEDOS,Ajuste Direto Regime Geral,Aquisição de bens móveis,"33000000-0, Equipamento médico, medicamentos e produtos para cuidados pessoais","Centro Hospitalar de Lisboa Central, E. P. E. (508080142)",ANASTACIO SALDANHA UNIPESSOAL (505804441),"629,81 €",02-01-2014,19-12-2013,363 dias,"Portugal, Lisboa, Lisboa","Artigo 20.º, n.º 1, alínea a) do Código dos Contratos Públicos",,,,,,Não aplicável.,Não aplicável.,FALSE
Aquisição de material de protecção e higiene,Ao abrigo de acordo-quadro (art.º 259.º),Aquisição de bens móveis,"33140000-3, Material médico de consumo","Centro Hospitalar de Lisboa Central, E. P. E. (508080142)","Indas Portugal, Lda (503505196)","548,10 €",02-01-2014,27-12-2013,365 dias,"Portugal, Lisboa, Lisboa",Artigo 259.º do Código dos Contratos Públicos,,,,,,537931,"CONCURSO PÚBLICO PARA A CELEBRAÇÃO DE CONTRATOS PÚBLICOS DE APROVISIONAMENTO PARA A ÁREA DA SAÚDE, COM VISTA AO FORNECIMENTO DE MATERIAL DISPOSABLE DE BLOCO OPERATÓRIO - PARTE 2, ÀS INSTITUIÇÕES E SERVIÇOS DO SERVIÇO NACIONAL DE SAÚDE  ",FALSE
Aquisição de material de protecção e higiene,Ao abrigo de acordo-quadro (art.º 259.º),Aquisição de bens móveis,"33140000-3, Material médico de consumo","Centro Hospitalar de Lisboa Central, E. P. E. (508080142)","Ezequiel Panão Jorge, Lda (501412727)","78.848,10 €",02-01-2014,27-12-2013,365 dias,"Portugal, Lisboa, Lisboa",Artigo 259.º do Código dos Contratos Públicos,,,,,,537931,"CONCURSO PÚBLICO PARA A CELEBRAÇÃO DE CONTRATOS PÚBLICOS DE APROVISIONAMENTO PARA A ÁREA DA SAÚDE, COM VISTA AO FORNECIMENTO DE MATERIAL DISPOSABLE DE BLOCO OPERATÓRIO - PARTE 2, ÀS INSTITUIÇÕES E SERVIÇOS DO SERVIÇO NACIONAL DE SAÚDE  ",FALSE
Aquisição de material de protecção e higiene,Ao abrigo de acordo-quadro (art.º 259.º),Aquisição de bens móveis,"33140000-3, Material médico de consumo","Centro Hospitalar de Lisboa Central, E. P. E. (508080142)","LineaMedica, S.A. (505148676)","24.242,00 €",02-01-2014,27-12-2013,365 dias,"Portugal, Lisboa, Lisboa",Artigo 259.º do Código dos Contratos Públicos,,,,,,537931,"CONCURSO PÚBLICO PARA A CELEBRAÇÃO DE CONTRATOS PÚBLICOS DE APROVISIONAMENTO PARA A ÁREA DA SAÚDE, COM VISTA AO FORNECIMENTO DE MATERIAL DISPOSABLE DE BLOCO OPERATÓRIO - PARTE 2, ÀS INSTITUIÇÕES E SERVIÇOS DO SERVIÇO NACIONAL DE SAÚDE  ",FALSE
Aquisição de material de protecção e higiene,Ao abrigo de acordo-quadro (art.º 259.º),Aquisição de bens móveis,"33140000-3, Material médico de consumo","Centro Hospitalar de Lisboa Central, E. P. E. (508080142)","Anastácio Saldanha, Lda (505804441)","9.635,00 €",02-01-2014,27-12-2013,365 dias,"Portugal, Lisboa, Lisboa",Artigo 259.º do Código dos Contratos Públicos,,,,,,537931,"CONCURSO PÚBLICO PARA A CELEBRAÇÃO DE CONTRATOS PÚBLICOS DE APROVISIONAMENTO PARA A ÁREA DA SAÚDE, COM VISTA AO FORNECIMENTO DE MATERIAL DISPOSABLE DE BLOCO OPERATÓRIO - PARTE 2, ÀS INSTITUIÇÕES E SERVIÇOS DO SERVIÇO NACIONAL DE SAÚDE  ",FALSE
Aquisição de material de protecção e higiene,Ao abrigo de acordo-quadro (art.º 259.º),Aquisição de bens móveis,"33140000-3, Material médico de consumo","Centro Hospitalar de Lisboa Central, E. P. E. (508080142)","Bastos Viegas, S.A. (500042772)","37.126,84 €",02-01-2014,27-12-2013,365 dias,"Portugal, Lisboa, Lisboa",Artigo 259.º do Código dos Contratos Públicos,,,,,,537931,"CONCURSO PÚBLICO PARA A CELEBRAÇÃO DE CONTRATOS PÚBLICOS DE APROVISIONAMENTO PARA A ÁREA DA SAÚDE, COM VISTA AO FORNECIMENTO DE MATERIAL DISPOSABLE DE BLOCO OPERATÓRIO - PARTE 2, ÀS INSTITUIÇÕES E SERVIÇOS DO SERVIÇO NACIONAL DE SAÚDE  ",FALSE
Aquisição de material de protecção e higiene,Ao abrigo de acordo-quadro (art.º 259.º),Aquisição de bens móveis,"33140000-3, Material médico de consumo","Centro Hospitalar de Lisboa Central, E. P. E. (508080142)","Quilaban, S.A. (500399670)","59.255,30 €",02-01-2014,27-12-2013,365 dias,"Portugal, Lisboa, Lisboa",Artigo 259.º do Código dos Contratos Públicos,,,,,,537931,"CONCURSO PÚBLICO PARA A CELEBRAÇÃO DE CONTRATOS PÚBLICOS DE APROVISIONAMENTO PARA A ÁREA DA SAÚDE, COM VISTA AO FORNECIMENTO DE MATERIAL DISPOSABLE DE BLOCO OPERATÓRIO - PARTE 2, ÀS INSTITUIÇÕES E SERVIÇOS DO SERVIÇO NACIONAL DE SAÚDE  ",FALSE
SUTURAS CUTANEAS,Ajuste Direto Regime Geral,Aquisição de bens móveis,"33000000-0, Equipamento médico, medicamentos e produtos para cuidados pessoais","Centro Hospitalar de Lisboa Central, E. P. E. (508080142)","BASTOS VIEGAS, S.A. (500042772)","244,35 €",02-01-2014,18-12-2013,363 dias,"Portugal, Lisboa, Lisboa","Artigo 20.º, n.º 1, alínea a) do Código dos Contratos Públicos",,,,,,Não aplicável.,Não aplicável.,FALSE
Aquisição de escovas descartaveis impregnadas de iodopovidona e cloro-hexidina,Ao abrigo de acordo-quadro (art.º 259.º),Aquisição de bens móveis,"33140000-3, Material médico de consumo","Centro Hospitalar de Lisboa Central, E. P. E. (508080142)","Covidien Portugal, Lda (503413410)","26.112,00 €",02-01-2014,27-12-2013,365 dias,"Portugal, Lisboa, Lisboa",Artigo 259.º do Código dos Contratos Públicos,,,,,,537931,"CONCURSO PÚBLICO PARA A CELEBRAÇÃO DE CONTRATOS PÚBLICOS DE APROVISIONAMENTO PARA A ÁREA DA SAÚDE, COM VISTA AO FORNECIMENTO DE MATERIAL DISPOSABLE DE BLOCO OPERATÓRIO - PARTE 2, ÀS INSTITUIÇÕES E SERVIÇOS DO SERVIÇO NACIONAL DE SAÚDE  ",FALSE
Aquisição de luvas para o ano de 2014,Ao abrigo de acordo-quadro (art.º 259.º),Aquisição de bens móveis,"33140000-3, Material médico de consumo","Centro Hospitalar de Lisboa Central, E. P. E. (508080142)",Anastácio Saldanha (505804441),"8.306,70 €",02-01-2014,27-12-2013,365 dias,"Portugal, Lisboa, Lisboa",Artigo 259.º do Código dos Contratos Públicos,,,,,,544071,"CONCURSO PÚBLICO PARA A CELEBRAÇÃO DE CONTRATOS PÚBLICOS DE APROVISIONAMENTO PARA A ÁREA DA SAÚDE, COM VISTA AO FORNECIMENTO DE LUVAS PARA USO MÉDICO, ÀS INSTITUIÇÕES E SERVIÇOS DO SERVIÇO NACIONAL DE SAÚDE",
Aquisição de luvas para o ano de 2014,Ao abrigo de acordo-quadro (art.º 259.º),Aquisição de bens móveis,"33140000-3, Material médico de consumo","Centro Hospitalar de Lisboa Central, E. P. E. (508080142)","HR-Hospitalar, Lda (501895558)","9.625,00 €",02-01-2014,27-12-2013,365 dias,"Portugal, Lisboa, Lisboa",Artigo 259.º do Código dos Contratos Públicos,,,,,,544071,"CONCURSO PÚBLICO PARA A CELEBRAÇÃO DE CONTRATOS PÚBLICOS DE APROVISIONAMENTO PARA A ÁREA DA SAÚDE, COM VISTA AO FORNECIMENTO DE LUVAS PARA USO MÉDICO, ÀS INSTITUIÇÕES E SERVIÇOS DO SERVIÇO NACIONAL DE SAÚDE",
Aquisição de luvas para o ano de 2014,Ao abrigo de acordo-quadro (art.º 259.º),Aquisição de bens móveis,"33140000-3, Material médico de consumo","Centro Hospitalar de Lisboa Central, E. P. E. (508080142)",Molnlycke Health Care (511101066),"14.356,00 €",02-01-2014,27-12-2013,365 dias,"Portugal, Lisboa, Lisboa",Artigo 259.º do Código dos Contratos Públicos,,,,,,544071,"CONCURSO PÚBLICO PARA A CELEBRAÇÃO DE CONTRATOS PÚBLICOS DE APROVISIONAMENTO PARA A ÁREA DA SAÚDE, COM VISTA AO FORNECIMENTO DE LUVAS PARA USO MÉDICO, ÀS INSTITUIÇÕES E SERVIÇOS DO SERVIÇO NACIONAL DE SAÚDE",
RESSUSCITADORES,Ajuste Direto Regime Geral,Aquisição de bens móveis,"33000000-0, Equipamento médico, medicamentos e produtos para cuidados pessoais","Centro Hospitalar de Lisboa Central, E. P. E. (508080142)","EZEQUIEL PANÃO JORGE, LDA. (501412727)","5.015,10 €",02-01-2014,10-12-2013,363 dias,"Portugal, Lisboa, Lisboa","Artigo 20.º, n.º 1, alínea a) do Código dos Contratos Públicos",,,,,,Não aplicável.,Não aplicável.,
Aquisição de luvas para o ano de 2014,Ao abrigo de acordo-quadro (art.º 259.º),Aquisição de bens móveis,"33140000-3, Material médico de consumo","Centro Hospitalar de Lisboa Central, E. P. E. (508080142)","Pergut Portugal, Lda (501799729)","197.704,00 €",02-01-2014,27-12-2013,365 dias,"Portugal, Lisboa, Lisboa",Artigo 259.º do Código dos Contratos Públicos,,,,,,544071,"CONCURSO PÚBLICO PARA A CELEBRAÇÃO DE CONTRATOS PÚBLICOS DE APROVISIONAMENTO PARA A ÁREA DA SAÚDE, COM VISTA AO FORNECIMENTO DE LUVAS PARA USO MÉDICO, ÀS INSTITUIÇÕES E SERVIÇOS DO SERVIÇO NACIONAL DE SAÚDE",
Aquisição de luvas para o ano de 2014,Ao abrigo de acordo-quadro (art.º 259.º),Aquisição de bens móveis,"33140000-3, Material médico de consumo","Centro Hospitalar de Lisboa Central, E. P. E. (508080142)","Ezequiel Panão Jorge, Lda (501412727)","10.962,94 €",02-01-2014,27-12-2013,365 dias,"Portugal, Lisboa, Lisboa",Artigo 259.º do Código dos Contratos Públicos,,,,,,544071,"CONCURSO PÚBLICO PARA A CELEBRAÇÃO DE CONTRATOS PÚBLICOS DE APROVISIONAMENTO PARA A ÁREA DA SAÚDE, COM VISTA AO FORNECIMENTO DE LUVAS PARA USO MÉDICO, ÀS INSTITUIÇÕES E SERVIÇOS DO SERVIÇO NACIONAL DE SAÚDE",
REAGENTES,Ajuste Direto Regime Geral,Aquisição de bens móveis,"33696500-0, Reagentes de laboratório","Centro Hospitalar de Lisboa Central, E. P. E. (508080142)",DIAMED PORTUGUESA  (501675809),"4.014,20 €",02-01-2014,10-12-2013,21 dias,"Portugal, Lisboa, Lisboa","Artigo 26.º, n.º 1, alínea a) do Código dos Contratos Públicos",,,,,,Não aplicável.,Não aplicável.,
"Aquisição de prolongamentos, torneiras e sistemas de administração de soros",Ao abrigo de acordo-quadro (art.º 259.º),Aquisição de bens móveis,"33140000-3, Material médico de consumo","Centro Hospitalar de Lisboa Central, E. P. E. (508080142)","Pergut Portugal, Lda (501799729)","168.357,00 €",02-01-2014,27-12-2013,365 dias,"Portugal, Lisboa, Lisboa",Artigo 259.º do Código dos Contratos Públicos,,,,,,412727,CONCURSO PÚBLICO PARA A CELEBRAÇÃO DE CONTRATOS PÚBLICOS DE APROVISIONAMENTO PARA AQUISIÇÃO DE MATERIAL CATETERES,
"Aquisição de prolongamentos, torneiras e sistemas de administração de soros",Ao abrigo de acordo-quadro (art.º 259.º),Aquisição de bens móveis,"33140000-3, Material médico de consumo","Centro Hospitalar de Lisboa Central, E. P. E. (508080142)",PMH (502376899),"144.788,00 €",02-01-2014,27-12-2013,365 dias,"Portugal, Lisboa, Lisboa",Artigo 259.º do Código dos Contratos Públicos,,,,,,412727,CONCURSO PÚBLICO PARA A CELEBRAÇÃO DE CONTRATOS PÚBLICOS DE APROVISIONAMENTO PARA AQUISIÇÃO DE MATERIAL CATETERES,
