Objeto do Contrato,Tipo de Procedimento,Tipo(s) de Contrato,CPVs,Entidade(s) Adjudicante(s),Entidade(s) Adjudicatária(s),Preço Contratual,Data de Publicação,Data de Celebração do Contrato,Prazo de Execução,Local de Execução,Fundamentação,Data de Fecho do Contrato,Preço Total Efetivo,Causas das Alterações ao Prazo,Causas das Alterações ao Preço,Estado,N.º registo do Acordo Quadro,Descrição do Acordo Quadro,Procedimento Centralizado
AD para Transporte de Doentes à SALVAVIDA,Ajuste Direto Regime Geral,Aquisição de serviços,"85143000-3, Serviços de ambulâncias","Centro Hospitalar Vila Nova de Gaia - Espinho, E. P. E. (508142156)",SALVAVIDA (506532160),"70,00 €",10-04-2014,17-01-2014,1 dias,"Portugal, Porto, Vila Nova de Gaia","Artigo 24.º, n.º 1, alínea c) do Código dos Contratos Públicos","","",,"",,Não aplicável.,Não aplicável.,FALSE
AD para Reparação de Cama e Maca,Ajuste Direto Regime Geral,Aquisição de serviços,"50800000-3, Serviços de reparação e manutenção diversos","Centro Hospitalar Vila Nova de Gaia - Espinho, E. P. E. (508142156)",Mundinter (500199906),"86,51 €",10-04-2014,17-01-2014,5 dias,"Portugal, Porto, Vila Nova de Gaia","Artigo 24.º, n.º 1, alínea c) do Código dos Contratos Públicos","","",,"",,Não aplicável.,Não aplicável.,FALSE
AD para Reparação de Balança Cadeira,Ajuste Direto Regime Geral,Aquisição de serviços,"50800000-3, Serviços de reparação e manutenção diversos","Centro Hospitalar Vila Nova de Gaia - Espinho, E. P. E. (508142156)",BACELAR & IRMÃO (500532818),"196,80 €",10-04-2014,17-01-2014,5 dias,"Portugal, Porto, Vila Nova de Gaia","Artigo 24.º, n.º 1, alínea c) do Código dos Contratos Públicos","","",,"",,Não aplicável.,Não aplicável.,FALSE
AD para Reparação de Lavador de Aparadeiras,Ajuste Direto Regime Geral,Aquisição de serviços,"50800000-3, Serviços de reparação e manutenção diversos","Centro Hospitalar Vila Nova de Gaia - Espinho, E. P. E. (508142156)","Prohs-Equip. Hospitalar e Serviços Associados, SA (505005468)","423,70 €",10-04-2014,17-01-2014,5 dias,"Portugal, Porto, Vila Nova de Gaia","Artigo 24.º, n.º 1, alínea c) do Código dos Contratos Públicos","","",,"",,Não aplicável.,Não aplicável.,FALSE
AD para Aquisição de Diverso Material de Consumo Clinico,Ajuste Direto Regime Geral,Aquisição de bens móveis,"33140000-3, Material médico de consumo","Centro Hospitalar Vila Nova de Gaia - Espinho, E. P. E. (508142156)",Overpharma (505792362),"16.629,88 €",10-04-2014,17-01-2014,90 dias,"Portugal, Porto, Vila Nova de Gaia","Artigo 24.º, n.º 1, alínea c) do Código dos Contratos Públicos","","",,"",,Não aplicável.,Não aplicável.,FALSE
AD para Aquisição de Medicamentos do Aparelho Respiratório,Ajuste Direto Regime Geral,Aquisição de bens móveis,"33670000-7, Medicamentos para o aparelho respiratório","Centro Hospitalar Vila Nova de Gaia - Espinho, E. P. E. (508142156)",UNILFARMA (500293023),"20.109,90 €",10-04-2014,17-01-2014,90 dias,"Portugal, Porto, Vila Nova de Gaia","Artigo 24.º, n.º 1, alínea c) do Código dos Contratos Públicos","","",,"",,Não aplicável.,Não aplicável.,FALSE
AD para Aquisição de Medicamentos do Aparelho Respiratório,Ajuste Direto Regime Geral,Aquisição de bens móveis,"33670000-7, Medicamentos para o aparelho respiratório","Centro Hospitalar Vila Nova de Gaia - Espinho, E. P. E. (508142156)",TEVA Pharma - Produtos Farmacêuticos (507045491),"16.840,00 €",10-04-2014,17-01-2014,16840 dias,"Portugal, Porto, Vila Nova de Gaia","Artigo 24.º, n.º 1, alínea c) do Código dos Contratos Públicos","","",,"",,Não aplicável.,Não aplicável.,FALSE
AD para Aquisição de Medicamentos do Aparelho Respiratório,Ajuste Direto Regime Geral,Aquisição de bens móveis,"33670000-7, Medicamentos para o aparelho respiratório","Centro Hospitalar Vila Nova de Gaia - Espinho, E. P. E. (508142156)",Sandoz Farmacêutica (506985261),"708,00 €",10-04-2014,17-01-2014,90 dias,"Portugal, Porto, Vila Nova de Gaia","Artigo 24.º, n.º 1, alínea c) do Código dos Contratos Públicos","","",,"",,Não aplicável.,Não aplicável.,FALSE
AD para Aquisição de Medicamentos do Aparelho Respiratório,Ajuste Direto Regime Geral,Aquisição de bens móveis,"33670000-7, Medicamentos para o aparelho respiratório","Centro Hospitalar Vila Nova de Gaia - Espinho, E. P. E. (508142156)","ANGELINI FARMACÊUTICA, LDA (500583650)","5.103,00 €",10-04-2014,17-01-2014,90 dias,"Portugal, Porto, Vila Nova de Gaia","Artigo 24.º, n.º 1, alínea c) do Código dos Contratos Públicos","","",,"",,Não aplicável.,Não aplicável.,FALSE
AD para Aquisição de Medicamentos do Aparelho Respiratório,Ajuste Direto Regime Geral,Aquisição de bens móveis,"33670000-7, Medicamentos para o aparelho respiratório","Centro Hospitalar Vila Nova de Gaia - Espinho, E. P. E. (508142156)","Novartis Farma - Produtos Farmacêuticos, SA (500063524)","62.780,84 €",10-04-2014,17-01-2014,90 dias,"Portugal, Porto, Vila Nova de Gaia","Artigo 24.º, n.º 1, alínea c) do Código dos Contratos Públicos","","",,"",,Não aplicável.,Não aplicável.,FALSE
AD para Aquisição de Medicamentos do Aparelho Respiratório,Ajuste Direto Regime Geral,Aquisição de bens móveis,"33670000-7, Medicamentos para o aparelho respiratório","Centro Hospitalar Vila Nova de Gaia - Espinho, E. P. E. (508142156)","B BRAUN MEDICAL, LDA (501506543)","71,90 €",10-04-2014,17-01-2014,90 dias,"Portugal, Porto, Vila Nova de Gaia","Artigo 24.º, n.º 1, alínea c) do Código dos Contratos Públicos","","",,"",,Não aplicável.,Não aplicável.,FALSE
AD para Aquisição de Medicamentos do Aparelho Respiratório,Ajuste Direto Regime Geral,Aquisição de bens móveis,"33670000-7, Medicamentos para o aparelho respiratório","Centro Hospitalar Vila Nova de Gaia - Espinho, E. P. E. (508142156)","LABESFAL - LABORATÓRIOS ALMIRO, SA (501169580)","4.562,10 €",10-04-2014,17-01-2014,90 dias,"Portugal, Porto, Vila Nova de Gaia","Artigo 24.º, n.º 1, alínea c) do Código dos Contratos Públicos","","",,"",,Não aplicável.,Não aplicável.,FALSE
AD para Aquisição de Medicamentos do Aparelho Respiratório,Ajuste Direto Regime Geral,Aquisição de bens móveis,"33670000-7, Medicamentos para o aparelho respiratório","Centro Hospitalar Vila Nova de Gaia - Espinho, E. P. E. (508142156)","GLAXOSMITHKLINE Produtos Farmacêuticos, Lda (500139962)","620,80 €",10-04-2014,17-01-2014,90 dias,"Portugal, Porto, Vila Nova de Gaia","Artigo 24.º, n.º 1, alínea c) do Código dos Contratos Públicos","","",,"",,Não aplicável.,Não aplicável.,FALSE
AD para Aquisição de Medicamentos do Aparelho Respiratório,Ajuste Direto Regime Geral,Aquisição de bens móveis,"33670000-7, Medicamentos para o aparelho respiratório","Centro Hospitalar Vila Nova de Gaia - Espinho, E. P. E. (508142156)","Farmoz, Lda (501505334)","230,40 €",10-04-2014,17-01-2014,90 dias,"Portugal, Porto, Vila Nova de Gaia","Artigo 24.º, n.º 1, alínea c) do Código dos Contratos Públicos","","",,"",,Não aplicável.,Não aplicável.,FALSE
AD para Aquisição de Medicamentos do Aparelho Respiratório,Ajuste Direto Regime Geral,Aquisição de bens móveis,"33670000-7, Medicamentos para o aparelho respiratório","Centro Hospitalar Vila Nova de Gaia - Espinho, E. P. E. (508142156)","BIAL - PORTELA & COMPANHIA, SA (500220913)","283,50 €",10-04-2014,17-01-2014,90 dias,"Portugal, Porto, Vila Nova de Gaia","Artigo 24.º, n.º 1, alínea c) do Código dos Contratos Públicos","","",,"",,Não aplicável.,Não aplicável.,FALSE
AD para Aquisição de Medicamentos do Aparelho Respiratório,Ajuste Direto Regime Geral,Aquisição de bens móveis,"33670000-7, Medicamentos para o aparelho respiratório","Centro Hospitalar Vila Nova de Gaia - Espinho, E. P. E. (508142156)","MEDA PHARMA - PRODUTOS FARMACÊUTICOS, S.A. (500082090)","118,80 €",10-04-2014,17-01-2014,90 dias,"Portugal, Porto, Vila Nova de Gaia","Artigo 24.º, n.º 1, alínea c) do Código dos Contratos Públicos","","",,"",,Não aplicável.,Não aplicável.,FALSE
AD para Aquisição de Material de Penso Efeito Terapêutico Farmácia,Ajuste Direto Regime Geral,Aquisição de bens móveis,"33600000-6, Produtos farmacêuticos","Centro Hospitalar Vila Nova de Gaia - Espinho, E. P. E. (508142156)",SPCare (508284872),"910,00 €",10-04-2014,17-01-2014,30 dias,"Portugal, Porto, Vila Nova de Gaia","Artigo 24.º, n.º 1, alínea c) do Código dos Contratos Públicos","","",,"",,Não aplicável.,Não aplicável.,FALSE
AD para Aquisição de Material de Penso Efeito Terapêutico Farmácia,Ajuste Direto Regime Geral,Aquisição de bens móveis,"33600000-6, Produtos farmacêuticos","Centro Hospitalar Vila Nova de Gaia - Espinho, E. P. E. (508142156)",Smith & Nephew (503552461),"11.183,59 €",10-04-2014,17-01-2014,30 dias,"Portugal, Porto, Vila Nova de Gaia","Artigo 24.º, n.º 1, alínea c) do Código dos Contratos Públicos","","",,"",,Não aplicável.,Não aplicável.,FALSE
AD para Aquisição de Material de Penso Efeito Terapêutico Farmácia,Ajuste Direto Regime Geral,Aquisição de bens móveis,"33600000-6, Produtos farmacêuticos","Centro Hospitalar Vila Nova de Gaia - Espinho, E. P. E. (508142156)","QUEENLABS - Especialidades Farmacêuticas, Lda (503984485)","43,80 €",10-04-2014,17-01-2014,30 dias,"Portugal, Porto, Vila Nova de Gaia","Artigo 24.º, n.º 1, alínea c) do Código dos Contratos Públicos","","",,"",,Não aplicável.,Não aplicável.,FALSE
AD para Aquisição de Material de Penso Efeito Terapêutico Farmácia,Ajuste Direto Regime Geral,Aquisição de bens móveis,"33600000-6, Produtos farmacêuticos","Centro Hospitalar Vila Nova de Gaia - Espinho, E. P. E. (508142156)",PAUL HARTMANN LDA (502271728),"102,00 €",10-04-2014,17-01-2014,30 dias,"Portugal, Porto, Vila Nova de Gaia","Artigo 24.º, n.º 1, alínea c) do Código dos Contratos Públicos","","",,"",,Não aplicável.,Não aplicável.,FALSE
AD para Aquisição de Material de Penso Efeito Terapêutico Farmácia,Ajuste Direto Regime Geral,Aquisição de bens móveis,"33600000-6, Produtos farmacêuticos","Centro Hospitalar Vila Nova de Gaia - Espinho, E. P. E. (508142156)","COVIDIEN PORTUGAL-Produtos de Saúde,Unipessoal,Lda (503413410)","4.450,00 €",10-04-2014,17-01-2014,30 dias,"Portugal, Porto, Vila Nova de Gaia","Artigo 24.º, n.º 1, alínea c) do Código dos Contratos Públicos","","",,"",,Não aplicável.,Não aplicável.,FALSE
AD para Aquisição de Material de Penso Efeito Terapêutico Farmácia,Ajuste Direto Regime Geral,Aquisição de bens móveis,"33600000-6, Produtos farmacêuticos","Centro Hospitalar Vila Nova de Gaia - Espinho, E. P. E. (508142156)","B BRAUN MEDICAL, LDA. (501506543)","221,70 €",10-04-2014,17-01-2014,30 dias,"Portugal, Porto, Vila Nova de Gaia","Artigo 24.º, n.º 1, alínea c) do Código dos Contratos Públicos","","",,"",,Não aplicável.,Não aplicável.,FALSE
AD para Aquisição de Material de Penso Efeito Terapêutico Farmácia,Ajuste Direto Regime Geral,Aquisição de bens móveis,"33600000-6, Produtos farmacêuticos","Centro Hospitalar Vila Nova de Gaia - Espinho, E. P. E. (508142156)",LINEAMÉDICA (505148676),"576,00 €",10-04-2014,17-01-2014,30 dias,"Portugal, Porto, Vila Nova de Gaia","Artigo 24.º, n.º 1, alínea c) do Código dos Contratos Públicos","","",,"",,Não aplicável.,Não aplicável.,FALSE
AD para Aquisição de Material de Penso Efeito Terapêutico Farmácia,Ajuste Direto Regime Geral,Aquisição de bens móveis,"33600000-6, Produtos farmacêuticos","Centro Hospitalar Vila Nova de Gaia - Espinho, E. P. E. (508142156)",KVTech Portugal (508671531),"4.012,80 €",10-04-2014,17-01-2014,30 dias,"Portugal, Porto, Vila Nova de Gaia","Artigo 24.º, n.º 1, alínea c) do Código dos Contratos Públicos","","",,"",,Não aplicável.,Não aplicável.,FALSE
AD para Aquisição de Material de Penso Efeito Terapêutico Farmácia,Ajuste Direto Regime Geral,Aquisição de bens móveis,"33600000-6, Produtos farmacêuticos","Centro Hospitalar Vila Nova de Gaia - Espinho, E. P. E. (508142156)",CLINIFAR-PRO.CLI.FARMACEUTICOS (503281115),"78,00 €",10-04-2014,17-01-2014,30 dias,"Portugal, Porto, Vila Nova de Gaia","Artigo 24.º, n.º 1, alínea c) do Código dos Contratos Públicos","","",,"",,Não aplicável.,Não aplicável.,FALSE
AD para Aquisição de Material de Penso Efeito Terapêutico Farmácia,Ajuste Direto Regime Geral,Aquisição de bens móveis,"33600000-6, Produtos farmacêuticos","Centro Hospitalar Vila Nova de Gaia - Espinho, E. P. E. (508142156)","MEDA PHARMA - PRODUTOS FARMACÊUTICOS, S.A. (500082090)","950,00 €",10-04-2014,17-01-2014,30 dias,"Portugal, Porto, Vila Nova de Gaia","Artigo 24.º, n.º 1, alínea c) do Código dos Contratos Públicos","","",,"",,Não aplicável.,Não aplicável.,FALSE
AD para Aquisição de Efavirenz 600mg Comp (CPA2012/40),Ajuste Direto Regime Geral,Aquisição de bens móveis,"33600000-6, Produtos farmacêuticos","Centro Hospitalar Vila Nova de Gaia - Espinho, E. P. E. (508142156)",MERCK SHARP & DHOME LDA. (500191360),"26.609,40 €",09-04-2014,17-01-2014,5 dias,"Portugal, Porto, Vila Nova de Gaia","Artigo 24.º, n.º 1, alínea c) do Código dos Contratos Públicos","","",,"",,Não aplicável.,Não aplicável.,FALSE
AD para Aquisição de Diverso Instrumental,Ajuste Direto Regime Geral,Aquisição de bens móveis,"33140000-3, Material médico de consumo","Centro Hospitalar Vila Nova de Gaia - Espinho, E. P. E. (508142156)",Synthes (501212191),"2.648,54 €",09-04-2014,22-01-2014,2 dias,"Portugal, Porto, Vila Nova de Gaia","Artigo 24.º, n.º 1, alínea c) do Código dos Contratos Públicos","","",,"",,Não aplicável.,Não aplicável.,FALSE
AD para Aquisição de Diverso Instrumental,Ajuste Direto Regime Geral,Aquisição de bens móveis,"33140000-3, Material médico de consumo","Centro Hospitalar Vila Nova de Gaia - Espinho, E. P. E. (508142156)",STRYKER PORTUGAL (504594214),"1.050,00 €",09-04-2014,22-01-2014,2 dias,"Portugal, Porto, Vila Nova de Gaia","Artigo 24.º, n.º 1, alínea c) do Código dos Contratos Públicos","","",,"",,Não aplicável.,Não aplicável.,FALSE
AD para Aquisição de Diverso Instrumental,Ajuste Direto Regime Geral,Aquisição de bens móveis,"33140000-3, Material médico de consumo","Centro Hospitalar Vila Nova de Gaia - Espinho, E. P. E. (508142156)","OLYMPUS IBÉRIA, S.A.U. - SUCURSAL EM PORTUGAL (980474710)","437,25 €",09-04-2014,22-01-2014,2 dias,"Portugal, Porto, Vila Nova de Gaia","Artigo 24.º, n.º 1, alínea c) do Código dos Contratos Públicos","","",,"",,Não aplicável.,Não aplicável.,FALSE
AD para Aquisição de Diverso Instrumental,Ajuste Direto Regime Geral,Aquisição de bens móveis,"33140000-3, Material médico de consumo","Centro Hospitalar Vila Nova de Gaia - Espinho, E. P. E. (508142156)",ARTUR SALGADO LDA. (503612600),"813,00 €",09-04-2014,22-01-2014,2 dias,"Portugal, Porto, Vila Nova de Gaia","Artigo 24.º, n.º 1, alínea c) do Código dos Contratos Públicos","","",,"",,Não aplicável.,Não aplicável.,FALSE
AD para Aquisição de Diverso Instrumental,Ajuste Direto Regime Geral,Aquisição de bens móveis,"33140000-3, Material médico de consumo","Centro Hospitalar Vila Nova de Gaia - Espinho, E. P. E. (508142156)",Manuel Nunes Antão (500179905),"635,00 €",09-04-2014,22-01-2014,2 dias,"Portugal, Porto, Vila Nova de Gaia","Artigo 24.º, n.º 1, alínea c) do Código dos Contratos Públicos","","",,"",,Não aplicável.,Não aplicável.,FALSE
AD para Aquisição de Material de Laboratório,Ajuste Direto Regime Geral,Aquisição de bens móveis,"33140000-3, Material médico de consumo","Centro Hospitalar Vila Nova de Gaia - Espinho, E. P. E. (508142156)",vidrolab 2 (501450629),"2.820,00 €",09-04-2014,17-01-2014,90 dias,"Portugal, Porto, Vila Nova de Gaia","Artigo 24.º, n.º 1, alínea c) do Código dos Contratos Públicos","","",,"",,Não aplicável.,Não aplicável.,FALSE
AD para Aquisição de Medicamentos do Foro Oncológico III,Ajuste Direto Regime Geral,Aquisição de bens móveis,"33600000-6, Produtos farmacêuticos","Centro Hospitalar Vila Nova de Gaia - Espinho, E. P. E. (508142156)","MERCK, S.A. (500650870)","60.738,95 €",09-04-2014,17-01-2014,60 dias,"Portugal, Porto, Vila Nova de Gaia","Artigo 24.º, n.º 1, alínea c) do Código dos Contratos Públicos","","",,"",,Não aplicável.,Não aplicável.,FALSE
AD para Aquisição de Reagente (Kit de Deteção Multimero DAB),Ajuste Direto Regime Geral,Aquisição de bens móveis,"33696000-5, Reagentes e meios de contraste","Centro Hospitalar Vila Nova de Gaia - Espinho, E. P. E. (508142156)","ROCHE SISTEMAS DE DIAGNÓSTICO, LDA (504282921)","22.600,00 €",09-04-2014,17-01-2014,10 dias,"Portugal, Porto, Vila Nova de Gaia","Artigo 24.º, n.º 1, alínea e) do Código dos Contratos Públicos","","",,"",,Não aplicável.,Não aplicável.,FALSE
AD para Aquisição de Serviços de Manutenção da Solução dos Sistemas Gestão de Horários (SPMS20140099),Ajuste Direto Regime Geral,Aquisição de serviços,"72511000-0, Serviços de software de gestão de rede","Centro Hospitalar Vila Nova de Gaia - Espinho, E. P. E. (508142156)",RIS Informática - Rec. Ideias e Soluc.Inform. Ldª (503754803),"3.980,52 €",07-04-2014,27-03-2014,365 dias,"Portugal, Porto, Vila Nova de Gaia","Artigo 20.º, n.º 1, alínea a) do Código dos Contratos Públicos","","",,"",,Não aplicável.,Não aplicável.,FALSE
"Aquisição de Serviços de Mão-de-Obra de Manutenção e Assistência Técnica nas Áreas Funcionais de Construção Civil, Carpintaria,Pichelaria e Serralharia para as três Unidades do CHVNGaia/E,EPE",Ajuste Direto Regime Geral,Aquisição de serviços,"50000000-5, Serviços de reparação e manutenção","Centro Hospitalar Vila Nova de Gaia - Espinho, E. P. E. (508142156)","JJ Construções,Lda (509254934)","85.908,00 €",04-04-2014,03-04-2014,365 dias,"Portugal, Porto, Vila Nova de Gaia","Artigo 27.º, n.º 1, alínea a) do Código dos Contratos Públicos","","",,"",,Não aplicável.,Não aplicável.,FALSE
Aquisição de Papel para fotocópia e Impressão,Ao abrigo de acordo-quadro (art.º 259.º),Aquisição de bens móveis,"30197643-5, Papel para fotocópia","Hospital de Magalhães Lemos, EPE (502828790), Centro Hospitalar de Entre Douro e Vouga,  EPE (508878462), Centro Hospitalar Vila Nova de Gaia/Espinho, EPE (508142156), Centro Hospitalar do Médio Tejo, EPE (506361608), Unidade Local de Saúde de Castelo Branco, EPE (509309844), Hospital Professor Doutor Fernando Fonseca, EPE (503035416), Centro Hospitalar Cova da Beira, EPE (506361659), Administração Central do Sistema de Saúde, IP (508188423), Hospital Espírito Santo, EPE (508085888), Centro Medicina de Reabilitação da Região Centro Rovisco Pais (503767336), Centro Hospitalar Tâmega e Sousa, EPE (508318262), Centro Hospitalar do Porto, EPE (508331471), Administração Regional de Saúde do Alentejo, IP (503148768), Administração Regional de Saúde do Centro, IP (503122165), Instituto Português de Oncologia de Coimbra Francisco Gentil, EPE (506361438), Hospital Arcebispo João Crisóstomo (501626123), Administração Regional de Saúde do Norte, IP (503135593), Centro Hospitalar Lisboa Central, EPE (508080142), Unidade Local de Saúde do Nordeste, EPE (509932584), Centro Hospitalar Tondela-Viseu, EPE (509822940), Centro Hospitalar de Leiria-Pombal, EPE (509822932), Centro Hospitalar Barreiro Montijo, EPE (509186998), Serviço de Intervenção nos Comportamentos Aditivos e nas Dependências (600084884), Administração Regional de Saúde de Lisboa e Vale do Tejo, IP (503148776), Centro Hospitalar de Trás-os-Montes e Alto Douro, EPE (508100496), Instituto Nacional de Emergência Médica, IP (501356126), Autoridade Nacional do Medicamento e Produtos de Saúde, IP (600037002), Secretaria-Geral do Ministério da Saúde (600080684), Instituto Português do Sangue e da Transplantação, IP (502423943), Centro Hospitalar de Lisboa Norte, EPE (508481287), Unidade Local de Saúde do Norte Alentejano, EPE (508094461), Centro Hospitalar do Médio Ave, EPE (508093937), Unidade Local de Saúde do Baixo Alentejo, EPE (508754275), Centro Hospitalar de S. João, EPE (509821197), Centro Hospitalar do Alto Ave, EPE (508080827), Unidade Local de Saúde do Alto Minho, EPE (508786193), Centro Hospitalar de Setúbal, EPE (507606787), Hospital Santa Maria Maior, EPE (506361381), Hospital Garcia de Orta, EPE (506361470), Hospital Distrital Figueira da Foz, EPE (506361527), Instituto Nacional de Saúde Dr. Ricardo Jorge, IP (501427511), Hospital José Luciano de Castro (501613021), Hospital Dr. Francisco Zagalo (507846044), Direção-Geral da Saúde (600037100), Centro Hospitalar e Universitário de Coimbra, EPE (510103448), Centro Hospitalar do Oeste (510412009), Centro Hospitalar do Algarve, EPE (510745997), Centro Hospitalar Psiquiátrico de Lisboa (508338476), Instituto Português de Oncologia do Porto Francisco Gentil, EPE (506362299), Centro Hospitalar de Lisboa Ocidental, EPE (507618319), Serviços Partilhados do Ministério da Saúde, EPE (509540716), Inspeção-Geral das Atividades em Saúde (600018857), Unidade Local de Saúde de Matosinhos, EPE (506361390), Instituto de Oftalmologia Dr. Gama Pinto (600000052), Administração Regional de Saúde do Algarve, IP (503148709), Hospital de Santarém, EPE (506361462), Unidade Local de saúde da Guarda, EPE (508752000)","Staples Portugal, S.A. (503789372)","1.678.737,97 €",01-04-2014,02-01-2014,365 dias,Portugal,Artigo 259.º do Código dos Contratos Públicos,30-01-2014,"5.443,80 €",,O total efetivo corresponde apenas a este Centro Hospitalar.,,162548,"Concurso limitado por prévia qualificação para a celebração de Acordo Quadro para fornecimento de papel, economato e consumíveis de impressão.",TRUE
"Aquisição de eletricidade englobando BTE, MT, AT e MAT",Ao abrigo de acordo-quadro (art.º 259.º),Aquisição de bens móveis,"09310000-5, Electricidade","Unidade Local de Saúde da Guarda, E.P.E. (508752000), Centro Hospitalar de Leiria, E.P.E. (509822932), Centro Hospitalar Póvoa de Varzim - Vila do Conde, E.P.E. (508741823), Centro Hospitalar do Porto, E.P.E. (508331471), Centro Hospitalar Tondela-Viseu, E.P.E. (509822940), Unidade Local de Saúde de Castelo Branco, E.P.E. (509309844), Administração Central do Sistema de Saúde, I.P. (508188423), Unidade Local de Saúde do Litoral Alentejano, E.P.E. (510445152), SUCH - Serviço de Utilização Comum dos Hospitais (500900469), Centro Hospitalar do Alto Ave, E.P.E. (508080827), Unidade Local de Saúde de Matosinhos, E.P.E. (506361390), Hospital do Espírito Santo de Évora, E. P. E. (508085888), Centro Hospitalar Barreiro Montijo, E.P.E. (509186998), Administração Regional de Saúde Algarve, I.P. (503148709), Instituto Português Oncologia do Porto Francisco Gentil, E.P.E. (506362299), Centro Hospitalar Cova da Beira, EPE (506361659), Secretaria-Geral do Ministério da Saúde (600080684), Centro Hospitalar de Trás-os-Montes e Alto Douro, E. P. E. (508100496), Hospital José Luciano de Castro - Anadia (501613021), Hospital Dr. Francisco Zagalo - Ovar (501510150), Centro Hospitalar do Baixo Vouga, E.P.E. (510123210), Centro Hospitalar do Médio Ave, E.P.E. (508093937), Serviço Partilhados do Ministério da Saúde, E. P. E. (509540716), Administração Regional de Saúde de Lisboa e Vale do Tejo, I. P. (503148776), Centro Hospitalar Lisboa Norte, E. P. E. (508481287), Centro Hospitalar de Setúbal, E. P. E. (507606787), Instituto Português Oncologia de Coimbra Francisco Gentil, E.P.E. (506361438), Hospital Santa Maria Maior, E.P.E. - Barcelos (506361381), Inspeção-Geral das Atividades em Saúde (600018857), Instituto de Oftalmologia Dr. Gama Pinto (600000052), Unidade Local de Saúde do Baixo Alentejo, E.P.E. (508754275), Hospital Garcia de Orta, E.P.E. (506361470), Centro Hospitalar de Entre o Douro e Vouga, E.P.E. (508878462), Hospital de Santarém, E.P.E. (506361462), Unidade Local de Saúde do Nordeste, E. P. E (509932584), Centro Hospitalar e Universitário de Coimbra, E. P. E. (510103448), Hospital de Magalhães Lemos, E. P. E. (502828790), INFARMED - Autoridade Nacional do Medicamento e Produtos de Saúde I.P. (600037002), Insituto Nacional de Saúde Dr. Ricardo Jorge, I.P. (501427511), Administração Regional de Saúde do Norte, I. P. (503135593), CHO - Centro Hospitalar do Oeste (510412009), Hospital Professor Doutor Fernando Fonseca, E.P.E. (503035416), Instituto Português do sangue (502423943), Centro Hospitalar do Médio Tejo, E. P. E. (506361608), Centro Hospitalar de Lisboa Ocidental, E.P.E. (507618319), Centro Medicina de Reabilitação da Região Centro Rovisco Pais (503767336), Unidade Local de Saúde do Alto Minho, E. P. E. (508786193), Centro Hospitalar do Tâmega e Sousa, E. P. E. (508318262), Centro Hospitalar de Lisboa Central, E. P. E. (508080142), Direcção-Geral da Saúde (600037100), Administração Regional de Saúde do Centro, I. P. (503122165), Centro Hospitalar Psiquiátrico de Lisboa (508338476), Administração Regional de Saúde do Alentejo, I. P. (503148768), CENTRO HOSPITALAR DO ALGARVE (508718872), Instituto Nacional de Emergência Médica, I.P. (501356126), Centro Hospitalar Vila Nova de Gaia - Espinho, E. P. E. (508142156)","EDP Comercial, SA (503504564)","23.711.683,78 €",01-04-2014,01-03-2014,365 dias,Portugal,Artigo 259.º do Código dos Contratos Públicos,30-12-2014,"356.327,09 €",,diminuicao das necessidades,,314294,Acordo quadro para o fornecimento de electricidade em regime de mercado livre para Portugal Continental,TRUE
