Objeto do Contrato,Tipo de Procedimento,Tipo(s) de Contrato,CPVs,Entidade(s) Adjudicante(s),Entidade(s) Adjudicatária(s),Preço Contratual,Data de Publicação,Data de Celebração do Contrato,Prazo de Execução,Local de Execução,Fundamentação,Data de Fecho do Contrato,Preço Total Efetivo,Causas das Alterações ao Prazo,Causas das Alterações ao Preço,Estado,N.º registo do Acordo Quadro,Descrição do Acordo Quadro,Procedimento Centralizado
AD 41000417 -MEDICAMENTOS,Ajuste Direto Regime Geral,Aquisição de bens móveis,"33600000-6, Produtos farmacêuticos",Hospital Dr. Francisco Zagalo (501510150),"TAKEDA - FARMACÊUTICOS, LDA. (EX-NYCOMED) (502801204)","552,20 €",10-08-2017,11-01-2017,30 dias,"Portugal, Aveiro, Ovar","Artigo 20.º, n.º 1, alínea a) do Código dos Contratos Públicos",10-02-2017,"552,20 €",,"",,Não aplicável.,Não aplicável.,FALSE
AD 41000417 -MEDICAMENTOS,Ajuste Direto Regime Geral,Aquisição de bens móveis,"33600000-6, Produtos farmacêuticos",Hospital Dr. Francisco Zagalo (501510150),"PharmaKern Portugal - Produtos Farmacêuticos, Lda (507002571)","5,40 €",10-08-2017,11-01-2017,30 dias,"Portugal, Aveiro, Ovar","Artigo 20.º, n.º 1, alínea a) do Código dos Contratos Públicos",10-02-2017,"5,40 €",,"",,Não aplicável.,Não aplicável.,FALSE
AD 41000417 -MEDICAMENTOS,Ajuste Direto Regime Geral,Aquisição de bens móveis,"33600000-6, Produtos farmacêuticos",Hospital Dr. Francisco Zagalo (501510150),"BDRPHARMA, LDA (513077332)","108,42 €",10-08-2017,11-01-2017,30 dias,"Portugal, Aveiro, Ovar","Artigo 20.º, n.º 1, alínea a) do Código dos Contratos Públicos",10-02-2017,"108,42 €",,"",,Não aplicável.,Não aplicável.,FALSE
AD 41000417 -MEDICAMENTOS,Ajuste Direto Regime Geral,Aquisição de bens móveis,"33600000-6, Produtos farmacêuticos",Hospital Dr. Francisco Zagalo (501510150),"R2MC - Rangel, Produtos Farmacêuticos, S.A. (510599818)","61,15 €",10-08-2017,11-01-2017,30 dias,"Portugal, Aveiro, Ovar","Artigo 20.º, n.º 1, alínea a) do Código dos Contratos Públicos",10-02-2017,"61,15 €",,"",,Não aplicável.,Não aplicável.,FALSE
AD 41000417 -MEDICAMENTOS,Ajuste Direto Regime Geral,Aquisição de bens móveis,"33600000-6, Produtos farmacêuticos",Hospital Dr. Francisco Zagalo (501510150),"Laboratórios Normon, S.A. (505654156)","150,00 €",10-08-2017,11-01-2017,30 dias,"Portugal, Aveiro, Ovar","Artigo 20.º, n.º 1, alínea a) do Código dos Contratos Públicos",10-02-2017,"150,00 €",,"",,Não aplicável.,Não aplicável.,FALSE
AD 41000417 -MEDICAMENTOS,Ajuste Direto Regime Geral,Aquisição de bens móveis,"33600000-6, Produtos farmacêuticos",Hospital Dr. Francisco Zagalo (501510150),"CICLUM FARMA UNIPESSOAL, LDA (504362674)","72,60 €",10-08-2017,11-01-2017,30 dias,"Portugal, Aveiro, Ovar","Artigo 20.º, n.º 1, alínea a) do Código dos Contratos Públicos",10-02-2017,"72,60 €",,"",,Não aplicável.,Não aplicável.,FALSE
AD 41000417 -MEDICAMENTOS,Ajuste Direto Regime Geral,Aquisição de bens móveis,"33600000-6, Produtos farmacêuticos",Hospital Dr. Francisco Zagalo (501510150),"GENERIS-FARMACEUTICA,SA (508107997)","30,32 €",10-08-2017,11-01-2017,30 dias,"Portugal, Aveiro, Ovar","Artigo 20.º, n.º 1, alínea a) do Código dos Contratos Públicos",10-02-2017,"30,32 €",,"",,Não aplicável.,Não aplicável.,FALSE
AD 41000417 -MEDICAMENTOS,Ajuste Direto Regime Geral,Aquisição de bens móveis,"33600000-6, Produtos farmacêuticos",Hospital Dr. Francisco Zagalo (501510150),OVERPHARMA-PROD.MEDICOS FARMACEUTICOS (505792362),"286,80 €",10-08-2017,11-01-2017,30 dias,"Portugal, Aveiro, Ovar","Artigo 20.º, n.º 1, alínea a) do Código dos Contratos Públicos",10-02-2017,"286,80 €",,"",,Não aplicável.,Não aplicável.,FALSE
AD 41000417 -MEDICAMENTOS,Ajuste Direto Regime Geral,Aquisição de bens móveis,"33600000-6, Produtos farmacêuticos",Hospital Dr. Francisco Zagalo (501510150),"Ratiopharm - Comércio e Industria de Produtos Farmacêuticos, Lda. (502414910)","25,90 €",10-08-2017,11-01-2017,30 dias,"Portugal, Aveiro, Ovar","Artigo 20.º, n.º 1, alínea a) do Código dos Contratos Públicos",10-02-2017,"25,90 €",,"",,Não aplicável.,Não aplicável.,FALSE
AD 41000417 - MEDICAMENTOS,Ajuste Direto Regime Geral,Aquisição de bens móveis,"33600000-6, Produtos farmacêuticos",Hospital Dr. Francisco Zagalo (501510150),FRESENIUS KABI (504293753),"110,40 €",10-08-2017,11-01-2017,30 dias,"Portugal, Aveiro, Ovar","Artigo 20.º, n.º 1, alínea a) do Código dos Contratos Públicos",10-02-2017,"110,40 €",,"",,Não aplicável.,Não aplicável.,FALSE
AD 41000417 - MEDICAMENTOS,Ajuste Direto Regime Geral,Aquisição de bens móveis,"33600000-6, Produtos farmacêuticos",Hospital Dr. Francisco Zagalo (501510150),"SANOFI - PRODUTOS FARMACÊUTICOS, LDA. (500134960)","64,48 €",10-08-2017,11-01-2017,30 dias,"Portugal, Aveiro, Ovar","Artigo 20.º, n.º 1, alínea a) do Código dos Contratos Públicos",10-02-2017,"64,48 €",,"",,Não aplicável.,Não aplicável.,FALSE
AD 41000417 - MEDICAMENTOS,Ajuste Direto Regime Geral,Aquisição de bens móveis,"33600000-6, Produtos farmacêuticos",Hospital Dr. Francisco Zagalo (501510150),"B. Braun Medical, Lda. (501506543)","30,00 €",10-08-2017,11-01-2017,30 dias,"Portugal, Aveiro, Ovar","Artigo 20.º, n.º 1, alínea a) do Código dos Contratos Públicos",10-02-2017,"30,00 €",,"",,Não aplicável.,Não aplicável.,FALSE
AD 41000417 - MEDICAMENTOS,Ajuste Direto Regime Geral,Aquisição de bens móveis,"33600000-6, Produtos farmacêuticos",Hospital Dr. Francisco Zagalo (501510150),"Roche Farmacêutica Química, Lda. (500233810)","50,88 €",10-08-2017,11-01-2017,30 dias,"Portugal, Aveiro, Ovar","Artigo 20.º, n.º 1, alínea a) do Código dos Contratos Públicos",10-02-2017,"50,88 €",,"",,Não aplicável.,Não aplicável.,FALSE
AD 41000417 - MEDICAMENTOS,Ajuste Direto Regime Geral,Aquisição de bens móveis,"33600000-6, Produtos farmacêuticos",Hospital Dr. Francisco Zagalo (501510150),"Merck Sharp & Dohme, Lda. (500191360)","390,30 €",10-08-2017,11-01-2017,30 dias,"Portugal, Aveiro, Ovar","Artigo 20.º, n.º 1, alínea a) do Código dos Contratos Públicos",10-02-2017,"390,30 €",,"",,Não aplicável.,Não aplicável.,FALSE
AD 41000417 - MEDICAMENTOS,Ajuste Direto Regime Geral,Aquisição de bens móveis,"33600000-6, Produtos farmacêuticos",Hospital Dr. Francisco Zagalo (501510150),"LABESFAL-LABORATORIOS ALMIRO, SA (501169580)","55,50 €",10-08-2017,17-01-2017,30 dias,"Portugal, Aveiro, Ovar","Artigo 20.º, n.º 1, alínea a) do Código dos Contratos Públicos",10-02-2017,"55,50 €",,"",,Não aplicável.,Não aplicável.,FALSE
AD 43000217 - AQUISIÇÃO DE REAGENTES,Ajuste Direto Regime Geral,Aquisição de bens móveis,"33696500-0, Reagentes de laboratório",Hospital Dr. Francisco Zagalo (501510150),"WERFEN PORTUGAL, LDA. (501086110)","300,00 €",09-08-2017,06-01-2017,30 dias,"Portugal, Aveiro, Ovar","Artigo 20.º, n.º 1, alínea a) do Código dos Contratos Públicos",01-02-2017,"300,00 €",,"",,Não aplicável.,Não aplicável.,FALSE
AD 43000217 - AQUISIÇÃO DE REAGENTES,Ajuste Direto Regime Geral,Aquisição de bens móveis,"33696500-0, Reagentes de laboratório",Hospital Dr. Francisco Zagalo (501510150),"BIOMERIEUX PORTUGAL,LDA. (501524177)","206,38 €",09-08-2017,06-01-2017,30 dias,"Portugal, Aveiro, Ovar","Artigo 20.º, n.º 1, alínea a) do Código dos Contratos Públicos",01-02-2017,"206,38 €",,"",,Não aplicável.,Não aplicável.,FALSE
AD 43000217 - AQUISIÇÃO DE REAGENTES,Ajuste Direto Regime Geral,Aquisição de bens móveis,"33696500-0, Reagentes de laboratório",Hospital Dr. Francisco Zagalo (501510150),Bio-Rad (501301321),"14,00 €",09-08-2017,06-01-2017,30 dias,"Portugal, Aveiro, Ovar","Artigo 20.º, n.º 1, alínea a) do Código dos Contratos Públicos",01-02-2017,"14,00 €",,"",,Não aplicável.,Não aplicável.,FALSE
AD 43000217 - AQUISIÇÃO DE REAGENTES,Ajuste Direto Regime Geral,Aquisição de bens móveis,"33696500-0, Reagentes de laboratório",Hospital Dr. Francisco Zagalo (501510150),Bio-Rad (501301321),"8,00 €",09-08-2017,06-01-2017,30 dias,"Portugal, Aveiro, Ovar","Artigo 20.º, n.º 1, alínea a) do Código dos Contratos Públicos",01-02-2017,"8,00 €",,"",,Não aplicável.,Não aplicável.,FALSE
AD 51000817 - MEDICAMENTOS GRUPO 4 .. SANGUE,Ao abrigo de acordo-quadro (art.º 259.º),Aquisição de bens móveis,"33600000-6, Produtos farmacêuticos",Hospital Dr. Francisco Zagalo (501510150),"SANOFI - PRODUTOS FARMACÊUTICOS, LDA. (500134960)","1.432,26 €",09-08-2017,28-06-2017,200 dias,"Portugal, Aveiro, Ovar",Artigo 259.º do Código dos Contratos Públicos,29-12-2017,"1.079,10 €",,valor da previsão superior a necessidade,,1210107,"CONCURSO PÚBLICO PARA A CELEBRAÇÃO DE CONTRATOS PÚBLICOS DE APROVISIONAMENTO PARA A ÁREA DA SAÚDE, COM VISTA AO FORNECIMENTO DE MEDICAMENTOS DO GRUPO 4: SANGUE, ÀS INSTITUIÇÕES E SERVIÇOS DO SERVIÇO NACIONAL DE SAÚDE",FALSE
AD 51000817 - MEDICAMENTOS GRUPO 4 .. SANGUE,Ao abrigo de acordo-quadro (art.º 259.º),Aquisição de bens móveis,"33600000-6, Produtos farmacêuticos",Hospital Dr. Francisco Zagalo (501510150),"SANOFI - PRODUTOS FARMACÊUTICOS, LDA. (500134960)","7.721,46 €",09-08-2017,28-06-2017,200 dias,"Portugal, Aveiro, Ovar",Artigo 259.º do Código dos Contratos Públicos,29-12-2017,"7.536,80 €",,valor superior a previsao,,1210107,"CONCURSO PÚBLICO PARA A CELEBRAÇÃO DE CONTRATOS PÚBLICOS DE APROVISIONAMENTO PARA A ÁREA DA SAÚDE, COM VISTA AO FORNECIMENTO DE MEDICAMENTOS DO GRUPO 4: SANGUE, ÀS INSTITUIÇÕES E SERVIÇOS DO SERVIÇO NACIONAL DE SAÚDE",FALSE
AD 51000817 - MEDICAMENTOS GRUPO 4 .. SANGUE,Ao abrigo de acordo-quadro (art.º 259.º),Aquisição de bens móveis,"33600000-6, Produtos farmacêuticos",Hospital Dr. Francisco Zagalo (501510150),"SANOFI - PRODUTOS FARMACÊUTICOS, LDA. (500134960)","624,96 €",09-08-2017,28-06-2017,200 dias,"Portugal, Aveiro, Ovar",Artigo 259.º do Código dos Contratos Públicos,29-12-2017,"446,40 €",,valor da previsão superior a necessidade,,1210107,"CONCURSO PÚBLICO PARA A CELEBRAÇÃO DE CONTRATOS PÚBLICOS DE APROVISIONAMENTO PARA A ÁREA DA SAÚDE, COM VISTA AO FORNECIMENTO DE MEDICAMENTOS DO GRUPO 4: SANGUE, ÀS INSTITUIÇÕES E SERVIÇOS DO SERVIÇO NACIONAL DE SAÚDE",FALSE
AD 51000817 - MEDICAMENTOS GRUPO 4 .. SANGUE,Ao abrigo de acordo-quadro (art.º 259.º),Aquisição de bens móveis,"33600000-6, Produtos farmacêuticos",Hospital Dr. Francisco Zagalo (501510150),"UNILFARMA, LDA. (500293023)","338,33 €",09-08-2017,28-06-2017,200 dias,"Portugal, Aveiro, Ovar",Artigo 259.º do Código dos Contratos Públicos,29-12-2017,"56,39 €",,valor da previsão superior a necessidade,,1210107,"CONCURSO PÚBLICO PARA A CELEBRAÇÃO DE CONTRATOS PÚBLICOS DE APROVISIONAMENTO PARA A ÁREA DA SAÚDE, COM VISTA AO FORNECIMENTO DE MEDICAMENTOS DO GRUPO 4: SANGUE, ÀS INSTITUIÇÕES E SERVIÇOS DO SERVIÇO NACIONAL DE SAÚDE",FALSE
AD 51000817 - MEDICAMENTOS GRUPO 4 .. SANGUE,Ao abrigo de acordo-quadro (art.º 259.º),Aquisição de bens móveis,"33600000-6, Produtos farmacêuticos",Hospital Dr. Francisco Zagalo (501510150),"UNILFARMA, LDA. (500293023)","505,17 €",09-08-2017,28-06-2017,200 dias,"Portugal, Aveiro, Ovar",Artigo 259.º do Código dos Contratos Públicos,29-12-2017,"112,26 €",,valor da previsão superior a necessidade,,1210107,"CONCURSO PÚBLICO PARA A CELEBRAÇÃO DE CONTRATOS PÚBLICOS DE APROVISIONAMENTO PARA A ÁREA DA SAÚDE, COM VISTA AO FORNECIMENTO DE MEDICAMENTOS DO GRUPO 4: SANGUE, ÀS INSTITUIÇÕES E SERVIÇOS DO SERVIÇO NACIONAL DE SAÚDE",FALSE
AD 51000817 - MEDICAMENTOS GRUPO 4 .. SANGUE,Ao abrigo de acordo-quadro (art.º 259.º),Aquisição de bens móveis,"33600000-6, Produtos farmacêuticos",Hospital Dr. Francisco Zagalo (501510150),"SANOFI - PRODUTOS FARMACÊUTICOS, LDA. (500134960)","27,44 €",09-08-2017,28-06-2017,200 dias,"Portugal, Aveiro, Ovar",Artigo 259.º do Código dos Contratos Públicos,29-12-2017,"11,76 €",,valor da previsão superior a necessidade,,1210107,"CONCURSO PÚBLICO PARA A CELEBRAÇÃO DE CONTRATOS PÚBLICOS DE APROVISIONAMENTO PARA A ÁREA DA SAÚDE, COM VISTA AO FORNECIMENTO DE MEDICAMENTOS DO GRUPO 4: SANGUE, ÀS INSTITUIÇÕES E SERVIÇOS DO SERVIÇO NACIONAL DE SAÚDE",FALSE
AD 51000817 - MEDICAMENTOS GRUPO 4 .. SANGUE,Ao abrigo de acordo-quadro (art.º 259.º),Aquisição de bens móveis,"33600000-6, Produtos farmacêuticos",Hospital Dr. Francisco Zagalo (501510150),"GENERIS-FARMACEUTICA,SA (508107997)","23,52 €",09-08-2017,28-06-2017,200 dias,"Portugal, Aveiro, Ovar",Artigo 259.º do Código dos Contratos Públicos,29-12-2017,"",,valor da previsão superior a necessidade,,1210107,"CONCURSO PÚBLICO PARA A CELEBRAÇÃO DE CONTRATOS PÚBLICOS DE APROVISIONAMENTO PARA A ÁREA DA SAÚDE, COM VISTA AO FORNECIMENTO DE MEDICAMENTOS DO GRUPO 4: SANGUE, ÀS INSTITUIÇÕES E SERVIÇOS DO SERVIÇO NACIONAL DE SAÚDE",FALSE
AD 51000817 - MEDICAMENTOS GRUPO 4 .. SANGUE,Ao abrigo de acordo-quadro (art.º 259.º),Aquisição de bens móveis,"33600000-6, Produtos farmacêuticos",Hospital Dr. Francisco Zagalo (501510150),"GENERIS-FARMACEUTICA,SA (508107997)","2,94 €",09-08-2017,28-06-2017,200 dias,"Portugal, Aveiro, Ovar",Artigo 259.º do Código dos Contratos Públicos,29-12-2017,"",,valor da previsão superior a necessidade,,1210107,"CONCURSO PÚBLICO PARA A CELEBRAÇÃO DE CONTRATOS PÚBLICOS DE APROVISIONAMENTO PARA A ÁREA DA SAÚDE, COM VISTA AO FORNECIMENTO DE MEDICAMENTOS DO GRUPO 4: SANGUE, ÀS INSTITUIÇÕES E SERVIÇOS DO SERVIÇO NACIONAL DE SAÚDE",FALSE
AD 51000817 - MEDICAMENTOS GRUPO 4 .. SANGUE,Ao abrigo de acordo-quadro (art.º 259.º),Aquisição de bens móveis,"33600000-6, Produtos farmacêuticos",Hospital Dr. Francisco Zagalo (501510150),"GENERIS-FARMACEUTICA,SA (508107997)","5,58 €",09-08-2017,28-06-2017,200 dias,"Portugal, Aveiro, Ovar",Artigo 259.º do Código dos Contratos Públicos,29-12-2017,"",,valor da previsão superior a necessidade,,1210107,"CONCURSO PÚBLICO PARA A CELEBRAÇÃO DE CONTRATOS PÚBLICOS DE APROVISIONAMENTO PARA A ÁREA DA SAÚDE, COM VISTA AO FORNECIMENTO DE MEDICAMENTOS DO GRUPO 4: SANGUE, ÀS INSTITUIÇÕES E SERVIÇOS DO SERVIÇO NACIONAL DE SAÚDE",FALSE
AD 51000817 - MEDICAMENTOS GRUPO 4 .. SANGUE,Ao abrigo de acordo-quadro (art.º 259.º),Aquisição de bens móveis,"33600000-6, Produtos farmacêuticos",Hospital Dr. Francisco Zagalo (501510150),OM Pharma (500207410),"190,00 €",09-08-2017,28-06-2017,200 dias,"Portugal, Aveiro, Ovar",Artigo 259.º do Código dos Contratos Públicos,29-12-2017,"180,00 €",,valor da previsão superior a necessidade,,1210107,"CONCURSO PÚBLICO PARA A CELEBRAÇÃO DE CONTRATOS PÚBLICOS DE APROVISIONAMENTO PARA A ÁREA DA SAÚDE, COM VISTA AO FORNECIMENTO DE MEDICAMENTOS DO GRUPO 4: SANGUE, ÀS INSTITUIÇÕES E SERVIÇOS DO SERVIÇO NACIONAL DE SAÚDE",FALSE
AD 51000817 - MEDICAMENTOS GRUPO 4 .. SANGUE,Ao abrigo de acordo-quadro (art.º 259.º),Aquisição de bens móveis,"33600000-6, Produtos farmacêuticos",Hospital Dr. Francisco Zagalo (501510150),"B. Braun Medical, Lda. (501506543)","14,00 €",09-08-2017,28-06-2017,200 dias,"Portugal, Aveiro, Ovar",Artigo 259.º do Código dos Contratos Públicos,29-12-2017,"",,valor da previsão superior a necessidade,,1210107,"CONCURSO PÚBLICO PARA A CELEBRAÇÃO DE CONTRATOS PÚBLICOS DE APROVISIONAMENTO PARA A ÁREA DA SAÚDE, COM VISTA AO FORNECIMENTO DE MEDICAMENTOS DO GRUPO 4: SANGUE, ÀS INSTITUIÇÕES E SERVIÇOS DO SERVIÇO NACIONAL DE SAÚDE",FALSE
AD 51000817 - MEDICAMENTOS GRUPO 4 .. SANGUE,Ao abrigo de acordo-quadro (art.º 259.º),Aquisição de bens móveis,"33600000-6, Produtos farmacêuticos",Hospital Dr. Francisco Zagalo (501510150),ROCHE FARMACÊUTICA (500233810),"70,00 €",09-08-2017,28-06-2017,300 dias,"Portugal, Aveiro, Ovar",Artigo 259.º do Código dos Contratos Públicos,29-12-2017,"15,00 €",,valor da previsão superior a necessidade,,1210107,"CONCURSO PÚBLICO PARA A CELEBRAÇÃO DE CONTRATOS PÚBLICOS DE APROVISIONAMENTO PARA A ÁREA DA SAÚDE, COM VISTA AO FORNECIMENTO DE MEDICAMENTOS DO GRUPO 4: SANGUE, ÀS INSTITUIÇÕES E SERVIÇOS DO SERVIÇO NACIONAL DE SAÚDE",FALSE
AD 51000817 - MEDICAMENTOS GRUPO 4 .. SANGUE,Ao abrigo de acordo-quadro (art.º 259.º),Aquisição de bens móveis,"33600000-6, Produtos farmacêuticos",Hospital Dr. Francisco Zagalo (501510150),"SANOFI - PRODUTOS FARMACÊUTICOS, LDA. (500134960)","148,80 €",09-08-2017,28-06-2017,300 dias,"Portugal, Aveiro, Ovar",Artigo 259.º do Código dos Contratos Públicos,29-12-2017,"",,valor da previsão superior a necessidade,,1210107,"CONCURSO PÚBLICO PARA A CELEBRAÇÃO DE CONTRATOS PÚBLICOS DE APROVISIONAMENTO PARA A ÁREA DA SAÚDE, COM VISTA AO FORNECIMENTO DE MEDICAMENTOS DO GRUPO 4: SANGUE, ÀS INSTITUIÇÕES E SERVIÇOS DO SERVIÇO NACIONAL DE SAÚDE",FALSE
AD 51000817 - MEDICAMENTOS GRUPO 4 .. SANGUE,Ao abrigo de acordo-quadro (art.º 259.º),Aquisição de bens móveis,"33600000-6, Produtos farmacêuticos",Hospital Dr. Francisco Zagalo (501510150),"SANOFI - PRODUTOS FARMACÊUTICOS, LDA. (500134960)","250,80 €",09-08-2017,28-06-2017,200 dias,"Portugal, Aveiro, Ovar",Artigo 259.º do Código dos Contratos Públicos,29-12-2017,"1.304,16 €",,valor superior a previsão,,1210107,"CONCURSO PÚBLICO PARA A CELEBRAÇÃO DE CONTRATOS PÚBLICOS DE APROVISIONAMENTO PARA A ÁREA DA SAÚDE, COM VISTA AO FORNECIMENTO DE MEDICAMENTOS DO GRUPO 4: SANGUE, ÀS INSTITUIÇÕES E SERVIÇOS DO SERVIÇO NACIONAL DE SAÚDE",FALSE
AD 41001317 - DIETAS E SUPLEMENTOS ALIMENTARES,Ajuste Direto Regime Geral,Aquisição de bens móveis,"33692300-0, Alimentos enterais",Hospital Dr. Francisco Zagalo (501510150),Nestle Portugal (500201307),"1.066,00 €",09-08-2017,24-05-2017,210 dias,"Portugal, Aveiro, Ovar","Artigo 20.º, n.º 1, alínea a) do Código dos Contratos Públicos",29-12-2017,"255,00 €",,valor da previsão superior as necessidades,,Não aplicável.,Não aplicável.,FALSE
AD 41001317 - DIETAS E SUPLEMENTOS ALIMENTARES,Ajuste Direto Regime Geral,Aquisição de bens móveis,"33692300-0, Alimentos enterais",Hospital Dr. Francisco Zagalo (501510150),Nestle Portugal (500201307),"518,94 €",09-08-2017,24-05-2017,210 dias,"Portugal, Aveiro, Ovar","Artigo 20.º, n.º 1, alínea a) do Código dos Contratos Públicos",29-12-2017,"401,76 €",,valor da previsão superior as necessidades,,Não aplicável.,Não aplicável.,FALSE
AD 41001317 - DIETAS E SUPLEMENTOS ALIMENTARES,Ajuste Direto Regime Geral,Aquisição de bens móveis,"33692300-0, Alimentos enterais",Hospital Dr. Francisco Zagalo (501510150),Nestle Portugal (500201307),"689,18 €",09-08-2017,24-05-2017,210 dias,"Portugal, Aveiro, Ovar","Artigo 20.º, n.º 1, alínea a) do Código dos Contratos Públicos",29-12-2017,"241,21 €",,valor da previsão superior as necessidades,,Não aplicável.,Não aplicável.,FALSE
AD 41001317 - DIETAS E SUPLEMENTOS ALIMENTARES,Ajuste Direto Regime Geral,Aquisição de bens móveis,"33692300-0, Alimentos enterais",Hospital Dr. Francisco Zagalo (501510150),"Nutricia Advanced Medical Nutrition Unipessoal, Lda (507558286)","530,40 €",09-08-2017,24-05-2017,210 dias,"Portugal, Aveiro, Ovar","Artigo 20.º, n.º 1, alínea a) do Código dos Contratos Públicos",29-12-2017,"326,40 €",,valor da previsão superior as necessidades,,Não aplicável.,Não aplicável.,FALSE
AD 41001317 - DIETAS E SUPLEMENTOS ALIMENTARES,Ajuste Direto Regime Geral,Aquisição de bens móveis,"33692300-0, Alimentos enterais",Hospital Dr. Francisco Zagalo (501510150),FRESENIUS KABI (504293753),"510,72 €",09-08-2017,24-05-2017,210 dias,"Portugal, Aveiro, Ovar","Artigo 20.º, n.º 1, alínea a) do Código dos Contratos Públicos",29-12-2017,"241,92 €",,valor da previsão superior as necessidades,,Não aplicável.,Não aplicável.,FALSE
AD 41001317 - DIETAS E SUPLEMENTOS ALIMENTARES,Ajuste Direto Regime Geral,Aquisição de bens móveis,"33692300-0, Alimentos enterais",Hospital Dr. Francisco Zagalo (501510150),"Nutricia Advanced Medical Nutrition Unipessoal, Lda (507558286)","176,40 €",09-08-2017,24-05-2017,210 dias,"Portugal, Aveiro, Ovar","Artigo 20.º, n.º 1, alínea a) do Código dos Contratos Públicos",29-12-2017,"75,60 €",,valor da previsão superior as necessidades,,Não aplicável.,Não aplicável.,FALSE
AD 41001317 - DIETAS E SUPLEMENTOS ALIMENTARES,Ajuste Direto Regime Geral,Aquisição de bens móveis,"33692300-0, Alimentos enterais",Hospital Dr. Francisco Zagalo (501510150),"FRESENIUS KABI PHARMA PORTUGAL, LDA (504293753)","729,12 €",09-08-2017,24-05-2017,210 dias,"Portugal, Aveiro, Ovar","Artigo 20.º, n.º 1, alínea a) do Código dos Contratos Públicos",29-12-2017,"117,60 €",,valor da previsão superior as necessidades,,Não aplicável.,Não aplicável.,FALSE
AD 41001317 - DIETAS E SUPLEMENTOS ALIMENTARES,Ajuste Direto Regime Geral,Aquisição de bens móveis,"33692300-0, Alimentos enterais",Hospital Dr. Francisco Zagalo (501510150),"Nutricia Advanced Medical Nutrition Unipessoal, Lda (507558286)","367,20 €",09-08-2017,24-05-2017,210 dias,"Portugal, Aveiro, Ovar","Artigo 20.º, n.º 1, alínea a) do Código dos Contratos Públicos",29-12-2017,"64,80 €",,valor da previsão superior as necessidades,,Não aplicável.,Não aplicável.,FALSE
AD 41001317 - DIETAS E SUPLEMENTOS ALIMENTARES,Ajuste Direto Regime Geral,Aquisição de bens móveis,"33692300-0, Alimentos enterais",Hospital Dr. Francisco Zagalo (501510150),"Nutricia Advanced Medical Nutrition Unipessoal, Lda (507558286)","21,60 €",09-08-2017,24-05-2017,210 dias,"Portugal, Aveiro, Ovar","Artigo 20.º, n.º 1, alínea a) do Código dos Contratos Públicos",29-12-2017,"43,20 €",,valor superior a previsão,,Não aplicável.,Não aplicável.,FALSE
AD 41001317 - DIETAS E SUPLEMENTOS ALIMENTARES,Ajuste Direto Regime Geral,Aquisição de bens móveis,"33692300-0, Alimentos enterais",Hospital Dr. Francisco Zagalo (501510150),"FRESENIUS KABI PHARMA PORTUGAL, LDA (504293753)","363,00 €",09-08-2017,24-05-2017,210 dias,"Portugal, Aveiro, Ovar","Artigo 20.º, n.º 1, alínea a) do Código dos Contratos Públicos",29-12-2017,"",,valor da previsão superior as necessidades,,Não aplicável.,Não aplicável.,FALSE
AD 41001317 - DIETAS E SUPLEMENTOS ALIMENTARES,Ajuste Direto Regime Geral,Aquisição de bens móveis,"33692300-0, Alimentos enterais",Hospital Dr. Francisco Zagalo (501510150),"Nutricia Advanced Medical Nutrition Unipessoal, Lda (507558286)","1.716,00 €",09-08-2017,24-05-2017,210 dias,"Portugal, Aveiro, Ovar","Artigo 20.º, n.º 1, alínea a) do Código dos Contratos Públicos",29-12-2017,"3.432,00 €",,valor da necessidade superior a previsão,,Não aplicável.,Não aplicável.,FALSE
AD 41001317 - DIETAS E SUPLEMENTOS ALIMENTARES,Ajuste Direto Regime Geral,Aquisição de bens móveis,"33692300-0, Alimentos enterais",Hospital Dr. Francisco Zagalo (501510150),Nestle Portugal (500201307),"153,60 €",09-08-2017,24-05-2017,210 dias,"Portugal, Aveiro, Ovar","Artigo 20.º, n.º 1, alínea a) do Código dos Contratos Públicos",29-12-2017,"",,valor da previsão superior as necessidades,,Não aplicável.,Não aplicável.,FALSE
AD 41001317 - DIETAS E SUPLEMENTOS ALIMENTARES,Ajuste Direto Regime Geral,Aquisição de bens móveis,"33692300-0, Alimentos enterais",Hospital Dr. Francisco Zagalo (501510150),"Nutricia Advanced Medical Nutrition Unipessoal, Lda (507558286)","1.200,00 €",09-08-2017,24-05-2017,210 dias,"Portugal, Aveiro, Ovar","Artigo 20.º, n.º 1, alínea a) do Código dos Contratos Públicos",29-12-2017,"120,00 €",,valor da previsão superior as necessidades,,Não aplicável.,Não aplicável.,FALSE
AD 41001317 - DIETAS E SUPLEMENTOS ALIMENTARES,Ajuste Direto Regime Geral,Aquisição de bens móveis,"33692300-0, Alimentos enterais",Hospital Dr. Francisco Zagalo (501510150),"FRESENIUS KABI PHARMA PORTUGAL, LDA (504293753)","52,80 €",09-08-2017,24-05-2017,210 dias,"Portugal, Aveiro, Ovar","Artigo 20.º, n.º 1, alínea a) do Código dos Contratos Públicos",29-12-2017,"",,valor da previsão superior as necessidades,,Não aplicável.,Não aplicável.,FALSE
AD 52000616 Aquisição material penso - 21,Ao abrigo de acordo-quadro (art.º 259.º),Aquisição de bens móveis,"33141100-1, Pensos; clipes, suturas, ligaduras",Hospital Dr. Francisco Zagalo (501510150),"ALBINO DIAS DE ANDRADE, LDA (500013810)","9.774,20 €",08-08-2017,01-01-2017,360 dias,"Portugal, Aveiro, Ovar",Artigo 259.º do Código dos Contratos Públicos,29-12-2017,"3.580,80 €",,Previsão superior às necessidades,,1315192,Acordo Quadro para fornecimento de material de penso de efeito terapêutico às Instituições e Serviços do Serviço Nacional de Saúde,FALSE
AD 42001816 Aquisição de luvas,Ajuste Direto Regime Geral,Aquisição de bens móveis,"33141420-0, Luvas para cirurgia",Hospital Dr. Francisco Zagalo (501510150),MEDICINÁLIA CORMEDICA (500684324),"9.614,00 €",08-08-2017,15-11-2016,1080 dias,"Portugal, Aveiro, Ovar","Artigo 20.º, n.º 1, alínea a) do Código dos Contratos Públicos",27-12-2017,"4.370,00 €",,Previsão superior às necessidades,,Não aplicável.,Não aplicável.,FALSE
AD 42001117 Aquisição material tratamento,Ajuste Direto Regime Geral,Aquisição de bens móveis,"33141000-0, Material médico não químico descartável e produtos hematológicos",Hospital Dr. Francisco Zagalo (501510150),"SARSTEDT, SA (503019461)","767,50 €",07-08-2017,23-01-2017,350 dias,"Portugal, Aveiro, Ovar","Artigo 20.º, n.º 1, alínea a) do Código dos Contratos Públicos",29-12-2017,"307,00 €",,Previsão superior às necessidades,,Não aplicável.,Não aplicável.,FALSE
AD 42001117 Aquisição material tratamento,Ajuste Direto Regime Geral,Aquisição de bens móveis,"33141000-0, Material médico não químico descartável e produtos hematológicos",Hospital Dr. Francisco Zagalo (501510150),"SARSTEDT, SA (503019461)","313,50 €",07-08-2017,23-01-2017,350 dias,"Portugal, Aveiro, Ovar","Artigo 20.º, n.º 1, alínea a) do Código dos Contratos Públicos",29-12-2017,"104,50 €",,Previsão superior às necessidades,,Não aplicável.,Não aplicável.,FALSE
AD 42001117 Aquisição material tratamento,Ajuste Direto Regime Geral,Aquisição de bens móveis,"33141000-0, Material médico não químico descartável e produtos hematológicos",Hospital Dr. Francisco Zagalo (501510150),"SARSTEDT, SA (503019461)","66,50 €",07-08-2017,23-01-2017,350 dias,"Portugal, Aveiro, Ovar","Artigo 20.º, n.º 1, alínea a) do Código dos Contratos Públicos",29-12-2017,"26,60 €",,Previsão superior às necessidades,,Não aplicável.,Não aplicável.,FALSE
AD 42001117 Aquisição material tratamento,Ajuste Direto Regime Geral,Aquisição de bens móveis,"33141000-0, Material médico não químico descartável e produtos hematológicos",Hospital Dr. Francisco Zagalo (501510150),B. BRAUN  (501506543),"160,00 €",07-08-2017,23-01-2017,350 dias,"Portugal, Aveiro, Ovar","Artigo 20.º, n.º 1, alínea a) do Código dos Contratos Públicos",29-12-2017,"240,00 €",,Previsão inferior às necessidades,,Não aplicável.,Não aplicável.,FALSE
AD 42001117 Aquisição material tratamento,Ajuste Direto Regime Geral,Aquisição de bens móveis,"33141000-0, Material médico não químico descartável e produtos hematológicos",Hospital Dr. Francisco Zagalo (501510150),"SARSTEDT, SA (503019461)","273,60 €",07-08-2017,23-01-2017,350 dias,"Portugal, Aveiro, Ovar","Artigo 20.º, n.º 1, alínea a) do Código dos Contratos Públicos",29-12-2017,"136,80 €",,Previsão superior às necessidades,,Não aplicável.,Não aplicável.,FALSE
AD 42001117 Aquisição material tratamento,Ajuste Direto Regime Geral,Aquisição de bens móveis,"33141000-0, Material médico não químico descartável e produtos hematológicos",Hospital Dr. Francisco Zagalo (501510150),"SARSTEDT, SA (503019461)","2.520,00 €",07-08-2017,23-01-2017,350 dias,"Portugal, Aveiro, Ovar","Artigo 20.º, n.º 1, alínea a) do Código dos Contratos Públicos",29-12-2017,"840,00 €",,Previsão superior às necessidades,,Não aplicável.,Não aplicável.,FALSE
AD 42001117 Aquisição material tratamento,Ajuste Direto Regime Geral,Aquisição de bens móveis,"33141000-0, Material médico não químico descartável e produtos hematológicos",Hospital Dr. Francisco Zagalo (501510150),"SARSTEDT, SA (503019461)","59,60 €",07-08-2017,23-01-2017,350 dias,"Portugal, Aveiro, Ovar","Artigo 20.º, n.º 1, alínea a) do Código dos Contratos Públicos",29-12-2017,"119,20 €",,Previsão inferior às necessidades,,Não aplicável.,Não aplicável.,FALSE
AD 42001117 Aquisição material tratamento,Ajuste Direto Regime Geral,Aquisição de bens móveis,"33141000-0, Material médico não químico descartável e produtos hematológicos",Hospital Dr. Francisco Zagalo (501510150),"SARSTEDT, SA (503019461)","64,50 €",07-08-2017,23-01-2017,350 dias,"Portugal, Aveiro, Ovar","Artigo 20.º, n.º 1, alínea a) do Código dos Contratos Públicos",29-12-2017,"77,40 €",,Previsão inferior às necessidades,,Não aplicável.,Não aplicável.,FALSE
AD 42001117 Aquisição material tratamento,Ajuste Direto Regime Geral,Aquisição de bens móveis,"33141000-0, Material médico não químico descartável e produtos hematológicos",Hospital Dr. Francisco Zagalo (501510150),"SARSTEDT, SA (503019461)","209,00 €",07-08-2017,23-01-2017,350 dias,"Portugal, Aveiro, Ovar","Artigo 20.º, n.º 1, alínea a) do Código dos Contratos Públicos",29-12-2017,"271,70 €",,Previsão inferior às necessidades,,Não aplicável.,Não aplicável.,FALSE
AD 42001117 Aquisição material tratamento,Ajuste Direto Regime Geral,Aquisição de bens móveis,"33141000-0, Material médico não químico descartável e produtos hematológicos",Hospital Dr. Francisco Zagalo (501510150),"SARSTEDT, SA (503019461)","337,50 €",07-08-2017,23-01-2017,350 dias,"Portugal, Aveiro, Ovar","Artigo 20.º, n.º 1, alínea a) do Código dos Contratos Públicos",29-12-2017,"450,00 €",,Previsão inferior às necessidades,,Não aplicável.,Não aplicável.,FALSE
AD 42001117 Aquisição material tratamento,Ajuste Direto Regime Geral,Aquisição de bens móveis,"33141000-0, Material médico não químico descartável e produtos hematológicos",Hospital Dr. Francisco Zagalo (501510150),"SARSTEDT, SA (503019461)","1.422,90 €",07-08-2017,23-01-2017,350 dias,"Portugal, Aveiro, Ovar","Artigo 20.º, n.º 1, alínea a) do Código dos Contratos Públicos",29-12-2017,"1.106,70 €",,Previsão superior às necessidades,,Não aplicável.,Não aplicável.,FALSE
AD 42001117 Aquisição material tratamento,Ajuste Direto Regime Geral,Aquisição de bens móveis,"33141000-0, Material médico não químico descartável e produtos hematológicos",Hospital Dr. Francisco Zagalo (501510150),"SARSTEDT, SA (503019461)","4.896,00 €",07-08-2017,23-01-2017,350 dias,"Portugal, Aveiro, Ovar","Artigo 20.º, n.º 1, alínea a) do Código dos Contratos Públicos",29-12-2017,"4.406,40 €",,Previsão superior às necessidades,,Não aplicável.,Não aplicável.,FALSE
AD 42001117 Aquisição material tratamento,Ajuste Direto Regime Geral,Aquisição de bens móveis,"33141000-0, Material médico não químico descartável e produtos hematológicos",Hospital Dr. Francisco Zagalo (501510150),"SARSTEDT, SA (503019461)","299,00 €",07-08-2017,23-01-2017,350 dias,"Portugal, Aveiro, Ovar","Artigo 20.º, n.º 1, alínea a) do Código dos Contratos Públicos",29-12-2017,"299,00 €",,"",,Não aplicável.,Não aplicável.,FALSE
AD 42001117 Aquisição material tratamento,Ajuste Direto Regime Geral,Aquisição de bens móveis,"33141000-0, Material médico não químico descartável e produtos hematológicos",Hospital Dr. Francisco Zagalo (501510150),B. BRAUN  (501506543),"179,57 €",07-08-2017,23-01-2017,350 dias,"Portugal, Aveiro, Ovar","Artigo 20.º, n.º 1, alínea a) do Código dos Contratos Públicos",29-12-2017,"538,70 €",,Previsão inferior às necessidades,,Não aplicável.,Não aplicável.,FALSE
AD 42001117 Aquisição material tratamento,Ajuste Direto Regime Geral,Aquisição de bens móveis,"33141000-0, Material médico não químico descartável e produtos hematológicos",Hospital Dr. Francisco Zagalo (501510150),B. BRAUN  (501506543),"238,00 €",07-08-2017,23-01-2017,350 dias,"Portugal, Aveiro, Ovar","Artigo 20.º, n.º 1, alínea a) do Código dos Contratos Públicos",29-12-2017,"476,00 €",,Previsão inferior às necessidades,,Não aplicável.,Não aplicável.,FALSE
AD 42001117 Aquisição material tratamento,Ajuste Direto Regime Geral,Aquisição de bens móveis,"33141000-0, Material médico não químico descartável e produtos hematológicos",Hospital Dr. Francisco Zagalo (501510150),"B. Braun Medical, Lda. (501506543)","44,40 €",07-08-2017,23-01-2017,350 dias,"Portugal, Aveiro, Ovar","Artigo 20.º, n.º 1, alínea a) do Código dos Contratos Públicos",29-12-2017,"44,40 €",,"",,Não aplicável.,Não aplicável.,FALSE
AD 42001117 Aquisição material tratamento,Ajuste Direto Regime Geral,Aquisição de bens móveis,"33141000-0, Material médico não químico descartável e produtos hematológicos",Hospital Dr. Francisco Zagalo (501510150),"B. Braun Medical, Lda. (501506543)","111,00 €",07-08-2017,23-01-2017,350 dias,"Portugal, Aveiro, Ovar","Artigo 20.º, n.º 1, alínea a) do Código dos Contratos Públicos",29-12-2017,"44,40 €",,Previsão superior às necessidades,,Não aplicável.,Não aplicável.,FALSE
AD 42001117 Aquisição material tratamento,Ajuste Direto Regime Geral,Aquisição de bens móveis,"33141000-0, Material médico não químico descartável e produtos hematológicos",Hospital Dr. Francisco Zagalo (501510150),"B. Braun Medical, Lda. (501506543)","301,00 €",07-08-2017,23-01-2017,350 dias,"Portugal, Aveiro, Ovar","Artigo 20.º, n.º 1, alínea a) do Código dos Contratos Públicos",29-12-2017,"602,00 €",,Previsão inferior às necessidades,,Não aplicável.,Não aplicável.,FALSE
AD 42001117 Aquisição material tratamento,Ajuste Direto Regime Geral,Aquisição de bens móveis,"33141000-0, Material médico não químico descartável e produtos hematológicos",Hospital Dr. Francisco Zagalo (501510150),"B. Braun Medical, Lda. (501506543)","800,00 €",07-08-2017,23-01-2017,350 dias,"Portugal, Aveiro, Ovar","Artigo 20.º, n.º 1, alínea a) do Código dos Contratos Públicos",29-12-2017,"480,00 €",,Previsão superior às necessidades,,Não aplicável.,Não aplicável.,FALSE
AD 42001117 Aquisição material tratamento,Ajuste Direto Regime Geral,Aquisição de bens móveis,"33141000-0, Material médico não químico descartável e produtos hematológicos",Hospital Dr. Francisco Zagalo (501510150),"B. Braun Medical, Lda. (501506543)","190,00 €",07-08-2017,23-01-2017,350 dias,"Portugal, Aveiro, Ovar","Artigo 20.º, n.º 1, alínea a) do Código dos Contratos Públicos",29-12-2017,"380,00 €",,Previsão inferior4 às necessidades,,Não aplicável.,Não aplicável.,FALSE
AD 42001117 Aquisição material tratamento,Ajuste Direto Regime Geral,Aquisição de bens móveis,"33141000-0, Material médico não químico descartável e produtos hematológicos",Hospital Dr. Francisco Zagalo (501510150),"B. Braun Medical, Lda. (501506543)","105,00 €",07-08-2017,23-01-2017,350 dias,"Portugal, Aveiro, Ovar","Artigo 20.º, n.º 1, alínea a) do Código dos Contratos Públicos",29-12-2017,"105,00 €",,"",,Não aplicável.,Não aplicável.,FALSE
AD 42001117 Aquisição material tratamento,Ajuste Direto Regime Geral,Aquisição de bens móveis,"33141000-0, Material médico não químico descartável e produtos hematológicos",Hospital Dr. Francisco Zagalo (501510150),"B. Braun Medical, Lda. (501506543)","588,00 €",07-08-2017,23-01-2017,350 dias,"Portugal, Aveiro, Ovar","Artigo 20.º, n.º 1, alínea a) do Código dos Contratos Públicos",29-12-2017,"84,00 €",,Previsão superior às necessidades,,Não aplicável.,Não aplicável.,FALSE
AD 42001117 Aquisição material tratamento,Ajuste Direto Regime Geral,Aquisição de bens móveis,"33141000-0, Material médico não químico descartável e produtos hematológicos",Hospital Dr. Francisco Zagalo (501510150),"B. Braun Medical, Lda. (501506543)","105,00 €",07-08-2017,23-01-2017,350 dias,"Portugal, Aveiro, Ovar","Artigo 20.º, n.º 1, alínea a) do Código dos Contratos Públicos",29-12-2017,"262,50 €",,Previsão inferior às necessidades,,Não aplicável.,Não aplicável.,FALSE
AD 42001117 Aquisição material tratamento,Ajuste Direto Regime Geral,Aquisição de bens móveis,"33141000-0, Material médico não químico descartável e produtos hematológicos",Hospital Dr. Francisco Zagalo (501510150),"B. Braun Medical, Lda. (501506543)","20,00 €",07-08-2017,23-01-2017,350 dias,"Portugal, Aveiro, Ovar","Artigo 20.º, n.º 1, alínea a) do Código dos Contratos Públicos",29-12-2017,"",,Montante total do lote não adquirido,,Não aplicável.,Não aplicável.,FALSE
AD 42001117 Aquisição material tratamento,Ajuste Direto Regime Geral,Aquisição de bens móveis,"33140000-3, Material médico de consumo",Hospital Dr. Francisco Zagalo (501510150),"B. Braun Medical, Lda. (501506543)","195,00 €",07-08-2017,23-01-2017,350 dias,"Portugal, Aveiro, Ovar","Artigo 20.º, n.º 1, alínea a) do Código dos Contratos Públicos",29-12-2017,"214,50 €",,Previsão inferior às necessidades,,Não aplicável.,Não aplicável.,FALSE
AD 52001317 Aquisição de laminas bisturi,Ao abrigo de acordo-quadro (art.º 259.º),Aquisição de bens móveis,"33141411-4, Bisturis e lâminas",Hospital Dr. Francisco Zagalo (501510150),Hr Hospitalar (501895558),"107,80 €",04-08-2017,17-04-2017,240 dias,"Portugal, Aveiro, Ovar",Artigo 259.º do Código dos Contratos Públicos,27-12-2017,"92,40 €",,Previsão superior às necessidades,,2102851,CP 2016/74 - Acordo quadro para fornecimento de Material disposable de bloco operatório - Parte I-B às Instituições e Serviços do Serviço Nacional de Saúde,FALSE
AD 42003217 Aquisição material p/ cirurgias,Ajuste Direto Regime Geral,Aquisição de bens móveis,"33140000-3, Material médico de consumo",Hospital Dr. Francisco Zagalo (501510150),"MEDTRONIC PORTUGAL, LDA (504223933)","9.384,00 €",03-08-2017,31-07-2017,160 dias,"Portugal, Aveiro, Ovar","Artigo 20.º, n.º 1, alínea a) do Código dos Contratos Públicos",29-12-2017,"7.038,00 €",,Previsão superior às necessidades,,Não aplicável.,Não aplicável.,FALSE
AD 42003017 Aquisição luvas para bloco,Ajuste Direto Regime Geral,Aquisição de bens móveis,"33141420-0, Luvas para cirurgia",Hospital Dr. Francisco Zagalo (501510150),"DOCWORLD, Lda (508592909)","378,00 €",03-08-2017,19-07-2017,160 dias,"Portugal, Aveiro, Ovar","Artigo 20.º, n.º 1, alínea a) do Código dos Contratos Públicos",29-12-2017,"94,50 €",,Previsão superior às necessidades,,Não aplicável.,Não aplicável.,FALSE
49004517-Contrato Plataforma VORTAL,Ajuste Direto Regime Geral,Aquisição de serviços,"50000000-5, Serviços de reparação e manutenção",Hospital Dr. Francisco Zagalo (501510150),VORTAL COMP ELECTRONICO CONSULTA E MULTIMEDIA SA (505141019),"2.237,50 €",31-07-2017,02-06-2017,180 dias,"Portugal, Aveiro, Ovar","Artigo 20.º, n.º 1, alínea a) do Código dos Contratos Públicos",11-09-2017,"2.237,00 €",,Acerto no arredondamento,,Não aplicável.,Não aplicável.,FALSE
