Objeto do Contrato,Tipo de Procedimento,Tipo(s) de Contrato,CPVs,Entidade(s) Adjudicante(s),Entidade(s) Adjudicatária(s),Preço Contratual,Data de Publicação,Data de Celebração do Contrato,Prazo de Execução,Local de Execução,Fundamentação,Data de Fecho do Contrato,Preço Total Efetivo,Causas das Alterações ao Prazo,Causas das Alterações ao Preço,Estado,N.º registo do Acordo Quadro,Descrição do Acordo Quadro,Procedimento Centralizado
SERVIÇOS DE LAVAGEM DE ROUPA PARA O CHLO EPE  NO MES DE MARÇO 2015,Ajuste Direto Regime Geral,Aquisição de serviços,"98310000-9, Serviços de lavagem e de limpeza a seco","Centro Hospitalar de Lisboa Ocidental, EPE (CHLO) (507618319)",LAVAPOR (508313422),"45.962,28 €",08-04-2015,12-03-2015,31 dias,"Portugal, Lisboa, Lisboa","Artigo 27.º, n.º 1, alínea a) do Código dos Contratos Públicos",,,,,,Não aplicável.,Não aplicável.,FALSE
"Prestação de serviços de suporte e manutenção da rede de dados do CHLO, EPE para o ano de 2015",Ajuste Direto Regime Geral,Aquisição de serviços,"72000000-5, Serviços de TI: consultoria, desenvolvimento de software, Internet e apoio","Centro Hospitalar de Lisboa Ocidental, E. P. E. (507618319)","Convex, Lda (502145838)","20.352,35 €",01-04-2015,16-01-2015,365 dias,"Portugal, Lisboa, Lisboa","Artigo 20.º, n.º 1, alínea a) do Código dos Contratos Públicos",,,,,,Não aplicável.,Não aplicável.,FALSE
