Objeto do Contrato,Tipo de Procedimento,Tipo(s) de Contrato,CPVs,Entidade(s) Adjudicante(s),Entidade(s) Adjudicatária(s),Preço Contratual,Data de Publicação,Data de Celebração do Contrato,Prazo de Execução,Local de Execução,Fundamentação,Data de Fecho do Contrato,Preço Total Efetivo,Causas das Alterações ao Prazo,Causas das Alterações ao Preço,Estado,N.º registo do Acordo Quadro,Descrição do Acordo Quadro,Procedimento Centralizado
Papel para fotocópia e impressão,Concurso público,Aquisição de bens móveis,"22900000-9, Material impresso diverso","Administração Regional de Saúde do Centro, I. P. (503122165)","Max One - Material de Escritório, Lda (507052609)","96.955,00 €",10-09-2015,19-08-2015,134 dias,"Portugal, Distrito não determinado, Concelho não determinado","Artigo 20.º, n.º 1, alínea b) do Código dos Contratos Públicos",15-12-2015,"96.568,00 €","",Não foram entregues todas as resmas de papel adjudicadas.,,Não aplicável.,Não aplicável.,FALSE
Manutenção e Assistencia Técnica aos elevadores dos Centros de Saude de Cantanhede e Penela,Ajuste Direto Regime Geral,Aquisição de serviços,"50750000-7, Serviços de manutenção de elevadores","Administração Regional de Saúde do Centro, I. P. (503122165)",Grupnor - Grupo Portugues de Elevadores do Norte Lda (500959579),"504,00 €",10-09-2015,01-09-2015,120 dias,"Portugal, Coimbra, Cantanhede","Artigo 20.º, n.º 1, alínea a) do Código dos Contratos Públicos",17-12-2015,"88,56 €","",Contrato terminou a 31 de dezembro e não foi renovado,,Não aplicável.,Não aplicável.,FALSE
Aquisição de produtos farmaceuticos,Ao abrigo de acordo-quadro (art.º 259.º),Aquisição de bens móveis,"33600000-6, Produtos farmacêuticos","Administração Regional de Saúde do Centro, I. P. (503122165)",B.BRAUN (501506543),"138,40 €",10-09-2015,10-09-2015,180 dias,"Portugal, Coimbra, Coimbra",Artigo 259.º do Código dos Contratos Públicos,22-02-2016,"138,40 €","","",,1331181,Acordo Quadro para fornecimento de corretivos da volémia e outras soluções estéreis às Instituições e Serviços do Serviço Nacional de Saúde,FALSE
Material de economato,Ajuste Direto Regime Geral,Aquisição de bens móveis,"30192000-1, Material de escritório","Administração Regional de Saúde do Centro, I. P. (503122165)","Staples Portugal - Equipamento de Escritório, Lda (503789372)","1.133,50 €",10-09-2015,09-09-2015,90 dias,"Portugal, Distrito não determinado, Concelho não determinado","Artigo 20.º, n.º 1, alínea a) do Código dos Contratos Públicos","","","","",,Não aplicável.,Não aplicável.,FALSE
Material de economato,Ajuste Direto Regime Geral,Aquisição de bens móveis,"30192000-1, Material de escritório","Administração Regional de Saúde do Centro, I. P. (503122165)","Olmar - Artigos de Papelaria, Lda (508831989)","7.480,20 €",10-09-2015,09-09-2015,90 dias,"Portugal, Distrito não determinado, Concelho não determinado","Artigo 20.º, n.º 1, alínea a) do Código dos Contratos Públicos","","","","",,Não aplicável.,Não aplicável.,FALSE
Material de economato,Ajuste Direto Regime Geral,Aquisição de bens móveis,"30192000-1, Material de escritório","Administração Regional de Saúde do Centro, I. P. (503122165)","Americana, SA (500379327)","202,80 €",10-09-2015,09-09-2015,90 dias,"Portugal, Distrito não determinado, Concelho não determinado","Artigo 20.º, n.º 1, alínea a) do Código dos Contratos Públicos","","","","",,Não aplicável.,Não aplicável.,FALSE
Aquisição de material de penso,Ao abrigo de acordo-quadro (art.º 259.º),Aquisição de bens móveis,"33600000-6, Produtos farmacêuticos","Administração Regional de Saúde do Centro, I. P. (503122165)",B.BRAUN MEDICAL (501506543),"9.808,00 €",09-09-2015,08-09-2015,180 dias,"Portugal, Coimbra, Coimbra",Artigo 259.º do Código dos Contratos Públicos,12-01-2016,"9.808,00 €","","",,552526,"CONCURSO PÚBLICO PARA A CELEBRAÇÃO DE CONTRATOS PÚBLICOS DE APROVISIONAMENTO PARA A ÁREA DA SAÚDE, COM VISTA AO FORNECIMENTO DE DISPOSITIVOS MÉDICOS DIVERSOS",FALSE
Aquisição de material de penso,Ao abrigo de acordo-quadro (art.º 259.º),Aquisição de bens móveis,"33600000-6, Produtos farmacêuticos","Administração Regional de Saúde do Centro, I. P. (503122165)",KVTECH PORTUGAL (508671531),"56.970,00 €",09-09-2015,08-09-2015,180 dias,"Portugal, Coimbra, Coimbra",Artigo 259.º do Código dos Contratos Públicos,12-01-2016,"56.970,00 €","","",,552526,"CONCURSO PÚBLICO PARA A CELEBRAÇÃO DE CONTRATOS PÚBLICOS DE APROVISIONAMENTO PARA A ÁREA DA SAÚDE, COM VISTA AO FORNECIMENTO DE DISPOSITIVOS MÉDICOS DIVERSOS",FALSE
Aquisição de material de penso,Ao abrigo de acordo-quadro (art.º 259.º),Aquisição de bens móveis,"33600000-6, Produtos farmacêuticos","Administração Regional de Saúde do Centro, I. P. (503122165)",PERGUT PORTUGAL (501799729),"4.590,00 €",09-09-2015,08-09-2015,180 dias,"Portugal, Coimbra, Coimbra",Artigo 259.º do Código dos Contratos Públicos,30-09-2016,"1.445,00 €","",A firma descontinuou o produto,,534953,"CONCURSO PÚBLICO PARA A CELEBRAÇÃO DE CONTRATOS PÚBLICOS DE APROVISIONAMENTO PARA A ÁREA DA SAÚDE, COM VISTA AO FORNECIMENTO DE MATERIAL DE PENSO TRADICIONAL/CLASSICO - PARTE 1 - ÀS INSTITUIÇÕES E SERVIÇOS DO SERVIÇO NACIONAL DE SAÚDE  ",FALSE
Processo 15150689-Aquisição de material de penso,Ao abrigo de acordo-quadro (art.º 259.º),Aquisição de bens móveis,"33600000-6, Produtos farmacêuticos","Administração Regional de Saúde do Centro, I. P. (503122165)",CLINIFAR (503281115),"381,00 €",09-09-2015,08-09-2015,180 dias,"Portugal, Coimbra, Coimbra",Artigo 259.º do Código dos Contratos Públicos,29-10-2015,"381,00 €","","",,490160,"CONCURSO PÚBLICO PARA A CELEBRAÇÃO DE CONTRATOS PÚBLICOS DE APROVISIONAMENTO PARA A ÁREA DA SAÚDE, COM VISTA AO FORNECIMENTO DE MATERIAL PENSO DE EFEITO TERAPÊUTICO - ÀS INSTITUIÇÕES E SERVIÇOS DO SERVIÇO NACIONAL DE SAÚDE",FALSE
Aquisição de material de penso,Ao abrigo de acordo-quadro (art.º 259.º),Aquisição de bens móveis,"33600000-6, Produtos farmacêuticos","Administração Regional de Saúde do Centro, I. P. (503122165)",SMITH&NEPHEW LDA (503552461),"312,12 €",09-09-2015,08-09-2015,180 dias,"Portugal, Coimbra, Coimbra",Artigo 259.º do Código dos Contratos Públicos,23-10-2015,"312,12 €","","",,490160,"CONCURSO PÚBLICO PARA A CELEBRAÇÃO DE CONTRATOS PÚBLICOS DE APROVISIONAMENTO PARA A ÁREA DA SAÚDE, COM VISTA AO FORNECIMENTO DE MATERIAL PENSO DE EFEITO TERAPÊUTICO - ÀS INSTITUIÇÕES E SERVIÇOS DO SERVIÇO NACIONAL DE SAÚDE",FALSE
Aquisição de  medicamentos,Ao abrigo de acordo-quadro (art.º 259.º),Aquisição de bens móveis,"33000000-0, Equipamento médico, medicamentos e produtos para cuidados pessoais","Administração Regional de Saúde do Centro, I. P. (503122165)",GENERIS FARMACEUTICA (508107997),"257,50 €",08-09-2015,08-09-2015,180 dias,"Portugal, Coimbra, Coimbra",Artigo 259.º do Código dos Contratos Públicos,"","","","",,600392,"CONCURSO PÚBLICO PARA A CELEBRAÇÃO DE CONTRATOS PÚBLICOS DE APROVISIONAMENTO PARA A ÁREA DA SAÚDE, COM VISTA AO FORNECIMENTO DE MEDICAMENTOS DE CONSUMO GERAL - APARELHO LOCOMOTOR ÀS INSTITUIÇÕES E SERVIÇOS DO SERVIÇO NACIONAL DE SAÚDE",FALSE
Aquisição de  medicamentos,Ao abrigo de acordo-quadro (art.º 259.º),Aquisição de bens móveis,"33000000-0, Equipamento médico, medicamentos e produtos para cuidados pessoais","Administração Regional de Saúde do Centro, I. P. (503122165)",LABORATORIO EDOL (507072642),"510,00 €",08-09-2015,08-09-2015,180 dias,"Portugal, Coimbra, Coimbra",Artigo 259.º do Código dos Contratos Públicos,04-11-2015,"510,00 €","","",,1377420,Acordo quadro para fornecimento de medicamentos usados nas afecções oculares e otorrinolaringologias às instituições e serviços do serviço nacional de saúde,FALSE
Aquisição de  medicamentos,Ao abrigo de acordo-quadro (art.º 259.º),Aquisição de bens móveis,"33000000-0, Equipamento médico, medicamentos e produtos para cuidados pessoais","Administração Regional de Saúde do Centro, I. P. (503122165)",GENERIS FARMACEUTICA (508107997),"502,50 €",08-09-2015,08-09-2015,180 dias,"Portugal, Coimbra, Coimbra",Artigo 259.º do Código dos Contratos Públicos,09-11-2016,"469,00 €","",Acerto de embalagem,,603979,"CONCURSO PÚBLICO PARA A CELEBRAÇÃO DE CONTRATOS PÚBLICOS DE APROVISIONAMENTO PARA A ÁREA DA SAÚDE, COM VISTA AO FORNECIMENTO DE HORMONAS E OUTROS MEDICAMENTOS USADOS NO TRATAMENTO DAS DOENÇAS ENDÓCRINAS, ÀS INSTITUIÇÕES E SERVIÇOS DO SERVIÇO NACIONAL DE SAÚDE",FALSE
Manutenção dos grupos eletrogéneos de socorro da ARSC,Ajuste Direto Regime Geral,Aquisição de serviços,"50532300-6, Serviços de reparação e manutenção de geradores","Administração Regional de Saúde do Centro, I. P. (503122165)","Manvia - Manutenção e Exploração de Instalações e Construção, SA (503171565)","1.966,72 €",04-09-2015,01-09-2015,122 dias,"Portugal, Coimbra, Coimbra","Artigo 20.º, n.º 1, alínea a) do Código dos Contratos Públicos",15-01-2016,"1.966,72 €","","",,Não aplicável.,Não aplicável.,FALSE
Manutenção dos grupos eletrogéneos de socorro ARSC,Ajuste Direto Regime Geral,Aquisição de serviços,"50532300-6, Serviços de reparação e manutenção de geradores","Administração Regional de Saúde do Centro, I. P. (503122165)",Rioboco - Serviços Gerais Engenharia e Manutenção SA (513246002),"7.410,00 €",04-09-2015,01-09-2015,122 dias,"Portugal, Coimbra, Coimbra","Artigo 20.º, n.º 1, alínea a) do Código dos Contratos Públicos",15-01-2016,"7.410,00 €","","",,Não aplicável.,Não aplicável.,FALSE
Equipamento,Ajuste Direto Regime Geral,Aquisição de bens móveis,"33000000-0, Equipamento médico, medicamentos e produtos para cuidados pessoais","Administração Regional de Saúde do Centro, I. P. (503122165)","Speculum - Artigos Médicos, SA (502996323)","1.544,58 €",04-09-2015,15-07-2015,30 dias,"Portugal, Coimbra, Condeixa-a-Nova","Artigo 20.º, n.º 1, alínea a) do Código dos Contratos Públicos",12-08-2015,"1.544,58 €","","",,Não aplicável.,Não aplicável.,FALSE
Equipamento,Ajuste Direto Regime Geral,Aquisição de bens móveis,"33000000-0, Equipamento médico, medicamentos e produtos para cuidados pessoais","Administração Regional de Saúde do Centro, I. P. (503122165)","Sorisa - Estética e Fisioterapia, SA (500990441)","4.634,64 €",04-09-2015,15-07-2015,30 dias,"Portugal, Coimbra, Condeixa-a-Nova","Artigo 20.º, n.º 1, alínea a) do Código dos Contratos Públicos",19-11-2015,"4.634,64 €","","",,Não aplicável.,Não aplicável.,FALSE
Equipamento,Ajuste Direto Regime Geral,Aquisição de bens móveis,"33000000-0, Equipamento médico, medicamentos e produtos para cuidados pessoais","Administração Regional de Saúde do Centro, I. P. (503122165)","Medical Plus - Produtos Médicos e Hospitalares, Lda (506658066)","558,00 €",04-09-2015,15-07-2015,30 dias,"Portugal, Coimbra, Condeixa-a-Nova","Artigo 20.º, n.º 1, alínea a) do Código dos Contratos Públicos",24-07-2015,"558,00 €","","",,Não aplicável.,Não aplicável.,FALSE
Equipamento,Ajuste Direto Regime Geral,Aquisição de bens móveis,"33000000-0, Equipamento médico, medicamentos e produtos para cuidados pessoais","Administração Regional de Saúde do Centro, I. P. (503122165)","Bacelar & Irmão, Lda (500532818)","906,00 €",04-09-2015,15-07-2015,30 dias,"Portugal, Coimbra, Condeixa-a-Nova","Artigo 20.º, n.º 1, alínea a) do Código dos Contratos Públicos",25-09-2015,"906,00 €","","",,Não aplicável.,Não aplicável.,FALSE
"Remodelação na USF e Apoios Comuns, ao abrigo do PAII",Ajuste Direto Regime Geral,Empreitadas de obras públicas,"50000000-5, Serviços de reparação e manutenção","ADMINISTRAÇÃO REGIONAL DE SAÚDE DO CENTRO, I. P. (503122165)","Conimbriga, Lda. (500800740)","3.338,00 €",02-09-2015,22-04-2015,14 dias,"Portugal, Coimbra, Coimbra","Artigo 19.º, alínea a) do Código dos Contratos Públicos","","3.338,00 €",Não houve,Não houve,,Não aplicável.,Não aplicável.,FALSE
Equipamento médico,Ajuste Direto Regime Geral,Aquisição de bens móveis,"33100000-1, Equipamento médico","Administração Regional de Saúde do Centro, I. P. (503122165)","Sorisa - Estética e Fisioterapia, SA (500990441)","3.448,00 €",31-08-2015,05-08-2015,30 dias,"Portugal, Aveiro, Vagos","Artigo 20.º, n.º 1, alínea a) do Código dos Contratos Públicos",29-09-2015,"2.825,86 €","",Fornecedor não irá entregar um nebulizador ultrassónico.,,Não aplicável.,Não aplicável.,FALSE
Equipamento médico,Ajuste Direto Regime Geral,Aquisição de bens móveis,"33100000-1, Equipamento médico","Administração Regional de Saúde do Centro, I. P. (503122165)","Bacelar & Irmão, Lda (500532818)","1.983,59 €",31-08-2015,05-08-2015,30 dias,"Portugal, Aveiro, Vagos","Artigo 20.º, n.º 1, alínea a) do Código dos Contratos Públicos",08-10-2015,"1.983,59 €","","",,Não aplicável.,Não aplicável.,FALSE
