Objeto do Contrato,Tipo de Procedimento,Tipo(s) de Contrato,CPVs,Entidade(s) Adjudicante(s),Entidade(s) Adjudicatária(s),Preço Contratual,Data de Publicação,Data de Celebração do Contrato,Prazo de Execução,Local de Execução,Fundamentação,Data de Fecho do Contrato,Preço Total Efetivo,Causas das Alterações ao Prazo,Causas das Alterações ao Preço,Estado,N.º registo do Acordo Quadro,Descrição do Acordo Quadro,Procedimento Centralizado
Aquisição de material clínico,Ajuste Direto Regime Geral,Aquisição de bens móveis,"33140000-3, Material médico de consumo","Administração Regional de Saúde do Centro, I. P. (503122165)","Speculum, SA (502996323)","698,49 €",21-02-2014,21-02-2014,180 dias,"Portugal, Coimbra, Coimbra","Artigo 20.º, n.º 1, alínea a) do Código dos Contratos Públicos",30-04-2014,"181,00 €",,"Relativamente aos artigos especulo nasal e tala zimmer 2x45cm, não foram encomendados na sua totalidade, pela razão de não existir previsão de necessidades de consumo. ",,Não aplicável.,Não aplicável.,FALSE
Aquisição de material clínico,Ajuste Direto Regime Geral,Aquisição de bens móveis,"33140000-3, Material médico de consumo","Administração Regional de Saúde do Centro, I. P. (503122165)","Paul Hatmann, Lda (502271728)","2.880,00 €",21-02-2014,21-02-2014,180 dias,"Portugal, Coimbra, Coimbra","Artigo 20.º, n.º 1, alínea a) do Código dos Contratos Públicos",24-11-2014,"2.880,00 €",,"",,Não aplicável.,Não aplicável.,FALSE
Aquisição de material clínico,Ajuste Direto Regime Geral,Aquisição de bens móveis,"33140000-3, Material médico de consumo","Administração Regional de Saúde do Centro, I. P. (503122165)","Ezequiel Panão Jorge, Lda (501412727)","270,00 €",21-02-2014,21-02-2014,180 dias,"Portugal, Coimbra, Coimbra","Artigo 20.º, n.º 1, alínea a) do Código dos Contratos Públicos",07-10-2014,"270,00 €",,"",,Não aplicável.,Não aplicável.,FALSE
Aquisição de material clínico,Ajuste Direto Regime Geral,Aquisição de bens móveis,"33140000-3, Material médico de consumo","Administração Regional de Saúde do Centro, I. P. (503122165)","Covidien Portugal, Lda (503413410)","1.740,00 €",21-02-2014,21-02-2014,180 dias,"Portugal, Coimbra, Coimbra","Artigo 20.º, n.º 1, alínea a) do Código dos Contratos Públicos",04-11-2014,"1.530,00 €",,"Relativamente aos artigos tubos endotraqueal com CUFF – CH 8 e 7, não foram encomendado na sua totalidade, por não existir previsão de necessidades para 2015.",,Não aplicável.,Não aplicável.,FALSE
Aquisição de material clínico,Ajuste Direto Regime Geral,Aquisição de bens móveis,"33140000-3, Material médico de consumo","Administração Regional de Saúde do Centro, I. P. (503122165)","Bastos Viegas, SA (500042772)","2.875,96 €",21-02-2014,21-02-2014,180 dias,"Portugal, Coimbra, Coimbra","Artigo 20.º, n.º 1, alínea a) do Código dos Contratos Públicos",04-11-2014,"2.875,96 €",,"",,Não aplicável.,Não aplicável.,FALSE
Aquisição de material clínico,Ajuste Direto Regime Geral,Aquisição de bens móveis,"33140000-3, Material médico de consumo","Administração Regional de Saúde do Centro, I. P. (503122165)","Anastácio Saldanha, Lda (505804441)","1.290,60 €",21-02-2014,21-02-2014,180 dias,"Portugal, Coimbra, Coimbra","Artigo 20.º, n.º 1, alínea a) do Código dos Contratos Públicos",05-12-2014,"1.290,60 €",,"",,Não aplicável.,Não aplicável.,FALSE
Aquisição de medicamentos,Ao abrigo de acordo-quadro (art.º 259.º),Aquisição de bens móveis,"33610000-9, Medicamentos para o tracto digestivo e o metabolismo","Administração Regional de Saúde do Centro, I. P. (503122165)",Unilfarma União Int Lab Farmaceuticos Lda (500293023),"598,50 €",20-02-2014,19-02-2014,90 dias,"Portugal, Coimbra, Coimbra",Artigo 259.º do Código dos Contratos Públicos,"","",,"",,520788,CONCURSO PUBLICO PARA A CELEBRAÇÃO DE CONTRATOS PUBLICOS DE APROVISIONAMENTO PARA A AREA DA SAUDE  COM VISTA AO FORNECIMENTO DE MEDICAMENTOS PARA O APARELHO DIGESTIVO  AS INSITUIÇÕES DO SERVIÇO NACIONAL DE SAÚDE,FALSE
Aquisição de medicamentos,Ao abrigo de acordo-quadro (art.º 259.º),Aquisição de bens móveis,"33610000-9, Medicamentos para o tracto digestivo e o metabolismo","Administração Regional de Saúde do Centro, I. P. (503122165)",Labesfal Laboratorios Almiro (501169580),"214,20 €",20-02-2014,19-02-2014,90 dias,"Portugal, Coimbra, Coimbra",Artigo 259.º do Código dos Contratos Públicos,"","",,"",,520788,CONCURSO PUBLICO PARA A CELEBRAÇÃO DE CONTRATOS PUBLICOS DE APROVISIONAMENTO PARA A AREA DA SAUDE  COM VISTA AO FORNECIMENTO DE MEDICAMENTOS PARA O APARELHO DIGESTIVO  AS INSITUIÇÕES DO SERVIÇO NACIONAL DE SAÚDE,FALSE
Aquisição de medicamentos,Ajuste Direto Regime Geral,Aquisição de bens móveis,"33690000-3, Medicamentos vários","Administração Regional de Saúde do Centro, I. P. (503122165)","Novartis consumer health, lda (500268215)","1.668,60 €",20-02-2014,12-02-2014,90 dias,"Portugal, Coimbra, Coimbra","Artigo 24.º, n.º 1, alínea e) do Código dos Contratos Públicos","","",,"",,Não aplicável.,Não aplicável.,FALSE
Aquisição de medicamentos,Ao abrigo de acordo-quadro (art.º 259.º),Aquisição de bens móveis,"33690000-3, Medicamentos vários","Administração Regional de Saúde do Centro, I. P. (503122165)",Labesfal Laboratorios Almiro SA (501169580),"1.436,50 €",20-02-2014,12-02-2014,90 dias,"Portugal, Coimbra, Coimbra",Artigo 259.º do Código dos Contratos Públicos,"","",,"",,463786,"P 2012/2 - Medicamentos do Sistema Nervoso Cerebrospinal: exceto anestésicos, relaxantes musculares, analgésicos, antipiréticos, antidepressores e anti-psicóticos",FALSE
Aquisição de isoniazida,Ajuste Direto Regime Geral,Aquisição de bens móveis,"33690000-3, Medicamentos vários","Administração Regional de Saúde do Centro, I. P. (503122165)",Laboratorio Militar  (600019675),"3.600,00 €",20-02-2014,20-02-2014,90 dias,"Portugal, Coimbra, Cantanhede","Artigo 24.º, n.º 1, alínea e) do Código dos Contratos Públicos","","",,"",,Não aplicável.,Não aplicável.,FALSE
Aquisição de material de vácuo para Laboratório de Arganil,Ajuste Direto Regime Geral,Aquisição de bens móveis,"33140000-3, Material médico de consumo","Administração Regional de Saúde do Centro, I. P. (503122165)","Becton Dickinson, SA (980245214)","8.969,00 €",17-02-2014,17-02-2014,365 dias,"Portugal, Coimbra, Arganil","Artigo 20.º, n.º 1, alínea a) do Código dos Contratos Públicos",06-12-2014,"8.969,00 €",,"",,Não aplicável.,Não aplicável.,FALSE
Prestação de serviços de coordenação de segurança e fiscalização das obras Novo Hospital Pediátrico,Ajuste Direto Regime Geral,Aquisição de serviços,"71000000-8, Serviços de arquitectura, construção, engenharia e inspecção","Administração Regional de Saúde do Centro, I. P. (503122165)","Luís Monsanto, Unipessoal, Lda (505841126)","14.000,00 €",12-02-2014,03-02-2014,90 dias,"Portugal, Coimbra, Coimbra","Artigo 20.º, n.º 1, alínea a) do Código dos Contratos Públicos",02-05-2014,"14.000,00 €",,"",,Não aplicável.,Não aplicável.,FALSE
Aquisição de equipamento diverso para a UCC Laços Mar e Ria,Ajuste Direto Regime Geral,Aquisição de bens móveis,"33100000-1, Equipamento médico","Administração Regional de Saúde do Centro, I. P. (503122165)","Promeicentro, Lda (506470113)","266,00 €",12-02-2014,12-02-2014,15 dias,"Portugal, Aveiro, Vagos","Artigo 20.º, n.º 1, alínea a) do Código dos Contratos Públicos","","",,"",,Não aplicável.,Não aplicável.,FALSE
Aquisição de medicamentos,Ajuste Direto Regime Geral,Aquisição de bens móveis,"33690000-3, Medicamentos vários","Administração Regional de Saúde do Centro, I. P. (503122165)",Proclinica-Equip e Produtos Clinicos Lda (500222665),"3.390,20 €",11-02-2014,10-02-2014,90 dias,"Portugal, Coimbra, Coimbra","Artigo 20.º, n.º 1, alínea a) do Código dos Contratos Públicos","","",,"",,Não aplicável.,Não aplicável.,FALSE
Aquisição de serviços com vista à produção de indicadores hospitalares,Ajuste Direto Regime Geral,Aquisição de serviços,"72000000-5, Serviços de TI: consultoria, desenvolvimento de software, Internet e apoio","Administração Regional de Saúde do Centro, I. P. (503122165)",Universidade do Porto - Faculdade de Medicina (501413197),"9.500,00 €",11-02-2014,04-02-2014,365 dias,"Portugal, Coimbra, Coimbra","Artigo 20.º, n.º 1, alínea a) do Código dos Contratos Públicos","","",,"",,Não aplicável.,Não aplicável.,FALSE
