Objeto do Contrato,Tipo de Procedimento,Tipo(s) de Contrato,CPVs,Entidade(s) Adjudicante(s),Entidade(s) Adjudicatária(s),Preço Contratual,Data de Publicação,Data de Celebração do Contrato,Prazo de Execução,Local de Execução,Fundamentação,Data de Fecho do Contrato,Preço Total Efetivo,Causas das Alterações ao Prazo,Causas das Alterações ao Preço,Estado,N.º registo do Acordo Quadro,Descrição do Acordo Quadro,Procedimento Centralizado
Serviços prestados por Tec. Diagnosticos e Terapeuticos,Ajuste Direto Regime Geral,Aquisição de serviços,"79600000-0, Serviços de recrutamento",Hospital Dr. Francisco Zagalo (501510150),"Tonus Global, Unipessoal, Lda. (509622976)","6.752,48 €",29-04-2014,10-04-2014,30 dias,"Portugal, Aveiro, Ovar","Artigo 20.º, n.º 1, alínea a) do Código dos Contratos Públicos",10-04-2014,"6.752,48 €",,,,Não aplicável.,Não aplicável.,FALSE
Trabalho temporario de assistentes tecnicos,Ajuste Direto Regime Geral,Aquisição de serviços,"79600000-0, Serviços de recrutamento",Hospital Dr. Francisco Zagalo (501510150),"Tonus-Trabalho Temporario, Lda.  (508986460)","12.146,86 €",29-04-2014,10-04-2014,30 dias,"Portugal, Aveiro, Ovar","Artigo 20.º, n.º 1, alínea a) do Código dos Contratos Públicos",10-04-2014,"12.146,86 €",,,,Não aplicável.,Não aplicável.,FALSE
Trabalho temporario de assistentes operacionais,Ajuste Direto Regime Geral,Aquisição de serviços,"79600000-0, Serviços de recrutamento",Hospital Dr. Francisco Zagalo (501510150),"Tonus-Trabalho Temporario, Lda. (508986460)","15.909,90 €",29-04-2014,10-04-2014,30 dias,"Portugal, Aveiro, Ovar","Artigo 20.º, n.º 1, alínea a) do Código dos Contratos Públicos",10-04-2014,"15.909,90 €",,,,Não aplicável.,Não aplicável.,FALSE
Fornecimento de gás natural,Ajuste Direto Regime Geral,Aquisição de serviços,"76100000-4, Serviços profissionais para a indústria do gás",Hospital Dr. Francisco Zagalo (501510150),"Galp Power, S.A. (504723456)","5.809,79 €",29-04-2014,21-04-2014,30 dias,"Portugal, Aveiro, Ovar","Artigo 20.º, n.º 1, alínea a) do Código dos Contratos Públicos",21-04-2014,"5.809,79 €",,,,Não aplicável.,Não aplicável.,FALSE
Aquisição de unidades de sangue,Ajuste Direto Regime Geral,Aquisição de serviços,"85100000-0, Serviços de saúde",Hospital Dr. Francisco Zagalo (501510150),Centro Hospitalar de S. João E.P.E. (509821197),"5.624,80 €",29-04-2014,10-04-2014,30 dias,"Portugal, Aveiro, Ovar","Artigo 20.º, n.º 1, alínea a) do Código dos Contratos Públicos",10-04-2014,"5.624,80 €",,,,Não aplicável.,Não aplicável.,FALSE
Serviço de internamentos cirurgicos a utentes sistema SIGIC,Ajuste Direto Regime Geral,Aquisição de serviços,"85100000-0, Serviços de saúde",Hospital Dr. Francisco Zagalo (501510150),"ARSC-Administração Regional de Saude do Centro, I.P. (503122165)","14.789,58 €",29-04-2014,10-04-2014,30 dias,"Portugal, Aveiro, Ovar","Artigo 20.º, n.º 1, alínea a) do Código dos Contratos Públicos",10-04-2014,"14.789,58 €",,,,Não aplicável.,Não aplicável.,FALSE
Renda/Aluguer do edificio hospitalar,Ajuste Direto Regime Geral,Aquisição de serviços,"70200000-3, Serviços de arrendamento ou locação de bens imóveis próprios",Hospital Dr. Francisco Zagalo (501510150),Santa Casa da Misericordia de Ovar (500834610),"9.000,00 €",29-04-2014,04-04-2014,30 dias,"Portugal, Aveiro, Ovar","Artigo 20.º, n.º 1, alínea a) do Código dos Contratos Públicos",29-04-2014,"9.000,00 €",,,,Não aplicável.,Não aplicável.,FALSE
Renda/Aluguer do edificio hospitalar,Ajuste Direto Regime Geral,Aquisição de serviços,"70200000-3, Serviços de arrendamento ou locação de bens imóveis próprios",Hospital Dr. Francisco Zagalo (501510150),Santa Casa da Misericordia de Ovar (500834610),"9.000,00 €",29-04-2014,07-03-2014,30 dias,"Portugal, Aveiro, Ovar","Artigo 20.º, n.º 1, alínea a) do Código dos Contratos Públicos",31-03-2014,"9.000,00 €",,,,Não aplicável.,Não aplicável.,FALSE
Renda/aluguer do edificio,Ajuste Direto Regime Geral,Aquisição de serviços,"70000000-1, Serviços imobiliários",Hospital Dr. Francisco Zagalo (501510150),Santa Casa da Misericordia de Ovar (500834610),"5.132,00 €",29-04-2014,04-02-2014,30 dias,"Portugal, Aveiro, Ovar","Artigo 20.º, n.º 1, alínea a) do Código dos Contratos Públicos",04-02-2014,"5.132,00 €",,,,Não aplicável.,Não aplicável.,FALSE
Serviços medicos de OTORRINOLARINGOLOGIA,Ajuste Direto Regime Geral,Aquisição de serviços,"85100000-0, Serviços de saúde",Hospital Dr. Francisco Zagalo (501510150),"Clinica Medica Cirurgica Dr. Rui Pratas, Lda. (505914832)","11.041,00 €",29-04-2014,21-04-2014,30 dias,"Portugal, Aveiro, Ovar","Artigo 20.º, n.º 1, alínea a) do Código dos Contratos Públicos",21-04-2014,"11.041,00 €",,,,Não aplicável.,Não aplicável.,FALSE
Serviços medicos Otorrinolaringologia,Ajuste Direto Regime Geral,Aquisição de serviços,"85100000-0, Serviços de saúde",Hospital Dr. Francisco Zagalo (501510150),"Clinica Medica Cirurgica Dr. Rui Pratas, Lda. (505914832)","13.114,00 €",28-04-2014,25-03-2014,30 dias,"Portugal, Aveiro, Ovar","Artigo 20.º, n.º 1, alínea a) do Código dos Contratos Públicos",25-03-2014,"13.114,00 €",,,,Não aplicável.,Não aplicável.,FALSE
Serviços medicos de Otorrinolaringologia,Ajuste Direto Regime Geral,Aquisição de serviços,"85100000-0, Serviços de saúde",Hospital Dr. Francisco Zagalo (501510150),"Clinica Medica Cirurgica Dr. Rui Pratas, Lda. (505914832)","10.697,00 €",28-04-2014,13-03-2014,30 dias,"Portugal, Aveiro, Ovar","Artigo 20.º, n.º 1, alínea a) do Código dos Contratos Públicos",13-03-2014,"10.697,00 €",,,,Não aplicável.,Não aplicável.,FALSE
