Objeto do Contrato,Tipo de Procedimento,Tipo(s) de Contrato,CPVs,Entidade(s) Adjudicante(s),Entidade(s) Adjudicatária(s),Preço Contratual,Data de Publicação,Data de Celebração do Contrato,Prazo de Execução,Local de Execução,Fundamentação,Data de Fecho do Contrato,Preço Total Efetivo,Causas das Alterações ao Prazo,Causas das Alterações ao Preço,Estado,N.º registo do Acordo Quadro,Descrição do Acordo Quadro,Procedimento Centralizado
Acetato de glatirâmero 40mg/ml sol inj ser 1 ml sc,Ajuste Direto Regime Geral,Aquisição de bens móveis,"33690000-3, Medicamentos vários","Centro Hospitalar de Setúbal, E. P. E. (507606787)","Teva pharma, prod. farmaceuticos,lda (507045491)","266.423,04 €",19-05-2016,18-04-2016,365 dias,"Portugal, Setúbal, Setúbal","Artigo 24.º, n.º 1, alínea e) do Código dos Contratos Públicos",,,,,,Não aplicável.,Não aplicável.,FALSE
Material Artroscopia,Ajuste Direto Regime Geral,Aquisição de bens móveis,"33000000-0, Equipamento médico, medicamentos e produtos para cuidados pessoais","Centro Hospitalar de Setúbal, E. P. E. (507606787)",Biomet Portugal Unipessoal lda (500254990),"15.064,00 €",19-05-2016,06-05-2016,365 dias,"Portugal, Setúbal, Setúbal","Artigo 26.º, n.º 1, alínea a) do Código dos Contratos Públicos",,,,,,Não aplicável.,Não aplicável.,FALSE
Diverso Material p/Ortopedia,Ajuste Direto Regime Geral,Aquisição de bens móveis,"33000000-0, Equipamento médico, medicamentos e produtos para cuidados pessoais","Centro Hospitalar de Setúbal, E. P. E. (507606787)","BoneCare, Lda (505899914)","40.653,50 €",13-05-2016,14-04-2016,365 dias,"Portugal, Setúbal, Setúbal","Artigo 20.º, n.º 1, alínea a) do Código dos Contratos Públicos",,,,,,Não aplicável.,Não aplicável.,FALSE
Diverso Material Hoffmann,Ajuste Direto Regime Geral,Aquisição de bens móveis,"33000000-0, Equipamento médico, medicamentos e produtos para cuidados pessoais","Centro Hospitalar de Setúbal, E. P. E. (507606787)",Stryker Portugal (504594214),"50.000,00 €",13-05-2016,02-02-2016,365 dias,"Portugal, Setúbal, Setúbal","Artigo 20.º, n.º 1, alínea a) do Código dos Contratos Públicos",,,,,,Não aplicável.,Não aplicável.,FALSE
Material p/Cirurgia Coluna,Ajuste Direto Regime Geral,Aquisição de bens móveis,"33000000-0, Equipamento médico, medicamentos e produtos para cuidados pessoais","Centro Hospitalar de Setúbal, E. P. E. (507606787)",Medtronic Portugal; Lda (504223933),"70.000,00 €",13-05-2016,10-03-2016,365 dias,"Portugal, Setúbal, Setúbal","Artigo 26.º, n.º 1, alínea a) do Código dos Contratos Públicos",,,,,,Não aplicável.,Não aplicável.,FALSE
Fatores de Crescimento Para Ortopedia,Ajuste Direto Regime Geral,Aquisição de bens móveis,"33000000-0, Equipamento médico, medicamentos e produtos para cuidados pessoais","Centro Hospitalar de Setúbal, E. P. E. (507606787)","Surgyline-Dispositivos Médicos Cirurgicos,Lda (509811663)","12.550,00 €",13-05-2016,23-03-2016,365 dias,"Portugal, Setúbal, Setúbal","Artigo 20.º, n.º 1, alínea a) do Código dos Contratos Públicos",,,,,,Não aplicável.,Não aplicável.,FALSE
Plasma Rico em Fatores de Crescimento,Ajuste Direto Regime Geral,Aquisição de bens móveis,"33000000-0, Equipamento médico, medicamentos e produtos para cuidados pessoais","Centro Hospitalar de Setúbal, E. P. E. (507606787)",ASC - Addanced Skin Care (508182387),"20.580,00 €",13-05-2016,29-04-2016,365 dias,"Portugal, Setúbal, Setúbal","Artigo 20.º, n.º 1, alínea a) do Código dos Contratos Públicos",,,,,,Não aplicável.,Não aplicável.,FALSE
Material Artroscopia / Ligamentoplastia,Ajuste Direto Regime Geral,Aquisição de bens móveis,"33000000-0, Equipamento médico, medicamentos e produtos para cuidados pessoais","Centro Hospitalar de Setúbal, E. P. E. (507606787)",Smith & Nehew (503552461),"89.485,50 €",13-05-2016,23-03-2016,365 dias,"Portugal, Setúbal, Setúbal","Artigo 26.º, n.º 1, alínea a) do Código dos Contratos Públicos",,,,,,Não aplicável.,Não aplicável.,FALSE
Material Osteossíntese - Pequenos e Grandes Fragmentos,Ajuste Direto Regime Geral,Aquisição de bens móveis,"33000000-0, Equipamento médico, medicamentos e produtos para cuidados pessoais","Centro Hospitalar de Setúbal, E. P. E. (507606787)",Stryker Portugal (504594214),"70.000,00 €",13-05-2016,17-02-2016,365 dias,"Portugal, Setúbal, Setúbal","Artigo 26.º, n.º 1, alínea a) do Código dos Contratos Públicos",,,,,,Não aplicável.,Não aplicável.,FALSE
Esterilizador Sterrad NX,Ajuste Direto Regime Geral,Aquisição de serviços,"50000000-5, Serviços de reparação e manutenção","Centro Hospitalar de Setúbal, E. P. E. (507606787)","Johnson & Johnson, Lda. (500153370)","10.200,00 €",13-05-2016,02-05-2016,366 dias,"Portugal, Setúbal, Setúbal","Artigo 24.º, n.º 1, alínea e) do Código dos Contratos Públicos",,,,,,Não aplicável.,Não aplicável.,FALSE
Material Artroscopia - Ponteiras,Ajuste Direto Regime Geral,Aquisição de bens móveis,"33000000-0, Equipamento médico, medicamentos e produtos para cuidados pessoais","Centro Hospitalar de Setúbal, E. P. E. (507606787)",Stryker Portugal (504594214),"24.050,00 €",13-05-2016,09-03-2016,365 dias,"Portugal, Setúbal, Setúbal","Artigo 26.º, n.º 1, alínea a) do Código dos Contratos Públicos",,,,,,Não aplicável.,Não aplicável.,FALSE
Diversas Cavilhas,Ajuste Direto Regime Geral,Aquisição de bens móveis,"33000000-0, Equipamento médico, medicamentos e produtos para cuidados pessoais","Centro Hospitalar de Setúbal, E. P. E. (507606787)",Stryker Portugal (504594214),"90.000,00 €",13-05-2016,02-02-2016,365 dias,"Portugal, Setúbal, Setúbal","Artigo 26.º, n.º 1, alínea a) do Código dos Contratos Públicos",,,,,,Não aplicável.,Não aplicável.,FALSE
Material Traumatologia,Ajuste Direto Regime Geral,Aquisição de bens móveis,"33000000-0, Equipamento médico, medicamentos e produtos para cuidados pessoais","Centro Hospitalar de Setúbal, E. P. E. (507606787)",Stryker Portugal (504594214),"90.000,00 €",13-05-2016,02-02-2016,365 dias,"Portugal, Setúbal, Setúbal","Artigo 26.º, n.º 1, alínea a) do Código dos Contratos Públicos",,,,,,Não aplicável.,Não aplicável.,FALSE
contrato regime prestação serviços - médico infeciologia (02 maio a dezembro 2016),Ajuste Direto Regime Geral,Aquisição de serviços,"98000000-3, Outros serviços comunitários, sociais e pessoais","Centro Hospitalar de Setúbal, E. P. E. (507606787)",maria manuela da silva doroana (117562912),"8.400,00 €",13-05-2016,29-04-2016,245 dias,"Portugal, Setúbal, Setúbal","Artigo 20.º, n.º 1, alínea a) do Código dos Contratos Públicos",,,,,,Não aplicável.,Não aplicável.,FALSE
Parafusos Canulados,Ajuste Direto Regime Geral,Aquisição de bens móveis,"33000000-0, Equipamento médico, medicamentos e produtos para cuidados pessoais","Centro Hospitalar de Setúbal, E. P. E. (507606787)",Biomet Portugal Unipessoal (500254990),"10.406,10 €",13-05-2016,18-03-2016,365 dias,"Portugal, Setúbal, Setúbal","Artigo 24.º, n.º 1, alínea e) do Código dos Contratos Públicos",,,,,,Não aplicável.,Não aplicável.,FALSE
"Serviços de Fisioterapia, de abril a dezembro 2016",Ajuste Direto Regime Geral,Aquisição de serviços,"98000000-3, Outros serviços comunitários, sociais e pessoais","Centro Hospitalar de Setúbal, E. P. E. (507606787)",Randstad (503298999),"13.009,02 €",12-05-2016,22-04-2016,275 dias,"Portugal, Setúbal, Setúbal","Artigo 20.º, n.º 1, alínea a) do Código dos Contratos Públicos",,,,,,Não aplicável.,Não aplicável.,FALSE
Gentamicina 130mg implante saq,Ajuste Direto Regime Geral,Aquisição de bens móveis,"33690000-3, Medicamentos vários","Centro Hospitalar de Setúbal, E. P. E. (507606787)",Biomet Portugal (500254990),"17.850,00 €",12-05-2016,30-03-2016,365 dias,"Portugal, Setúbal, Setúbal","Artigo 20.º, n.º 1, alínea a) do Código dos Contratos Públicos",,,,,,Não aplicável.,Não aplicável.,FALSE
DARUNAVIR 800 MG,Ajuste Direto Regime Geral,Aquisição de bens móveis,"33690000-3, Medicamentos vários","Centro Hospitalar de Setúbal, E. P. E. (507606787)",JANSSEN CILAG (500189412),"1.014.595,20 €",12-05-2016,02-05-2016,365 dias,"Portugal, Setúbal, Setúbal","Artigo 24.º, n.º 1, alínea e) do Código dos Contratos Públicos",,,,,,Não aplicável.,Não aplicável.,FALSE
"Nutrição Enterica, Suplentos e outros",Ajuste Direto Regime Geral,Aquisição de bens móveis,"33690000-3, Medicamentos vários","Centro Hospitalar de Setúbal, E. P. E. (507606787)","Fresenius Kabi (504293753), Nutricia Advanced medical Nutrition (507558286), Nestle Portugal (500201307)","22.779,46 €",11-05-2016,11-04-2016,365 dias,"Portugal, Setúbal, Setúbal","Artigo 20.º, n.º 1, alínea a) do Código dos Contratos Públicos",,,,,,Não aplicável.,Não aplicável.,FALSE
MEDICAMENTOS DIVERSOS GERAL,Ajuste Direto Regime Geral,Aquisição de bens móveis,"33690000-3, Medicamentos vários","Centro Hospitalar de Setúbal, E. P. E. (507606787)","Meda pharma (500082090), Aurovitas (513053239), Ferraz lince (500113270), Bbraun medical (501506543), Alcon Portugal (501251685), Glaxosmithkline (500139962), Dr Falk pharma (506171612), Laboratorio Vitoria (500162220), Roche Farmaceutica (500233810), Ratiopharma (502414910), Sanofi (500134960), Ferrer Portugal (500069190), Labesfal (501169580), Lundbeck (503573922), Angelini (500583650)","16.682,71 €",11-05-2016,11-04-2016,365 dias,"Portugal, Setúbal, Setúbal","Artigo 20.º, n.º 1, alínea a) do Código dos Contratos Públicos",,,,,,Não aplicável.,Não aplicável.,FALSE
