Objeto do Contrato,Tipo de Procedimento,Tipo(s) de Contrato,CPVs,Entidade(s) Adjudicante(s),Entidade(s) Adjudicatária(s),Preço Contratual,Data de Publicação,Data de Celebração do Contrato,Prazo de Execução,Local de Execução,Fundamentação,Data de Fecho do Contrato,Preço Total Efetivo,Causas das Alterações ao Prazo,Causas das Alterações ao Preço,Estado,N.º registo do Acordo Quadro,Descrição do Acordo Quadro,Procedimento Centralizado
Fornecimento e Instalação de Bladderscan para o Serviço de Medicina Física e Reabilitação,Ajuste Direto Regime Geral,Aquisição de bens móveis,"33112300-1, Scanners de ultra-sons","Centro Hospitalar do Baixo Vouga, E. P. E. (510123210)","FILSAT EQUIPAMENTOS MÉDICO-CIENTIFICOS, LDA (506708616)","5.500,00 €",13-03-2018,14-02-2018,21 dias,"Portugal, Aveiro, Aveiro","Artigo 20.º, n.º 1, alínea a) do Código dos Contratos Públicos",,,,,,Não aplicável.,Não aplicável.,FALSE
"AQUISIÇÃO DE COLEDOCO-FIBROSCÓPIO 3,6FR. (R.E.)- REPARAÇÃO POR SUBSTITUIÇÃO",Ajuste Direto Regime Geral,Aquisição de bens móveis,"33100000-1, Equipamento médico","Centro Hospitalar do Baixo Vouga, E. P. E. (510123210)","TEPREL - EQUIPAMENTO MÉDICOS, S.A. (502262184)","4.950,00 €",13-03-2018,14-02-2018,5 dias,"Portugal, Aveiro, Aveiro","Artigo 24.º, n.º 1, alínea e), subalínea ii) do Código dos Contratos Públicos",,,,,,Não aplicável.,Não aplicável.,FALSE
AQUISIÇÃO DE BAINHA METÁLICA EXTERIOR ROBI 5MM 36CM (REPARAÇÃO POR SUBSTITUIÇÃO)-BO GINECOLOGIA,Ajuste Direto Regime Geral,Aquisição de bens móveis,"33162200-5, Instrumentos para blocos operatórios","Centro Hospitalar do Baixo Vouga, E. P. E. (510123210)","TEPREL - EQUIPAMENTO MÉDICOS, S.A. (502262184)","145,80 €",13-03-2018,14-02-2018,6 dias,"Portugal, Aveiro, Aveiro","Artigo 24.º, n.º 1, alínea e), subalínea ii) do Código dos Contratos Públicos",,,,,,Não aplicável.,Não aplicável.,FALSE
