Objeto do Contrato,Tipo de Procedimento,Tipo(s) de Contrato,CPVs,Entidade(s) Adjudicante(s),Entidade(s) Adjudicatária(s),Preço Contratual,Data de Publicação,Data de Celebração do Contrato,Prazo de Execução,Local de Execução,Fundamentação,Data de Fecho do Contrato,Preço Total Efetivo,Causas das Alterações ao Prazo,Causas das Alterações ao Preço,Estado,N.º registo do Acordo Quadro,Descrição do Acordo Quadro,Procedimento Centralizado
Prestação de Serviços Médicos no SUB de Ponte de Sôr,Concurso público,Aquisição de serviços,"85100000-0, Serviços de saúde","Unidade Local de Saúde do Norte Alentejano, E. P. E. (508094461)","Honorismédica, Lda. (509799191)","194.034,00 €",18-06-2015,11-06-2015,365 dias,"Portugal, Portalegre, Ponte de Sor","Artigo 20.º, n.º 1, alínea b) do Código dos Contratos Públicos",18-06-2015,"194.034,00 €",,"",,Não aplicável.,Não aplicável.,FALSE
PRESTAÇÃO DE SERVIÇOS RIS E PACS SETEMBRO A DEZEMBRO DE 2014,Ajuste Direto Regime Geral,Aquisição de serviços,"72000000-5, Serviços de TI: consultoria, desenvolvimento de software, Internet e apoio","Unidade Local de Saúde do Norte Alentejano, E. P. E. (508094461)",GENERAL ELECTRIC PORTUGUESA SA (500357129),"29.000,00 €",18-06-2015,10-12-2014,120 dias,"Portugal, Portalegre, Portalegre","Artigo 24.º, n.º 1, alínea c) do Código dos Contratos Públicos",10-12-2014,"29.000,00 €",,"",,Não aplicável.,Não aplicável.,FALSE
"PRESTAÇÃO DE SERVIÇOS DE MANUTENÇÃO E SUPORTE DOS SISTEMAS DE INFORMAÇÃO RIS E PACS EM PRODUÇÃO NA ULSNA, JULHO A AGOSTO DE 2014",Ajuste Direto Regime Geral,Aquisição de serviços,"72000000-5, Serviços de TI: consultoria, desenvolvimento de software, Internet e apoio","Unidade Local de Saúde do Norte Alentejano, E. P. E. (508094461)",GENERAL ELECTRIC PORTUGUESA SA (500357129),"14.500,00 €",17-06-2015,23-07-2014,60 dias,"Portugal, Portalegre, Portalegre","Artigo 20.º, n.º 1, alínea a) do Código dos Contratos Públicos",23-07-2014,"14.500,00 €",,"",,Não aplicável.,Não aplicável.,FALSE
Aquisição de 7 bombas infusoras,Ajuste Direto Regime Geral,Aquisição de bens móveis,"33000000-0, Equipamento médico, medicamentos e produtos para cuidados pessoais","Unidade Local de Saúde do Norte Alentejano, E. P. E. (508094461)",B Braun (501506543),"7.000,00 €",17-06-2015,21-01-2015,30 dias,"Portugal, Portalegre, Portalegre","Artigo 20.º, n.º 1, alínea a) do Código dos Contratos Públicos","","",,"",,Não aplicável.,Não aplicável.,FALSE
PRESTAÇÃO DE SERVIÇOS DE MANUTENÇÃO E SUPORTE DOS SISTEMAS DE INFORMAÇÃO RIS E PACS EM PRODUÇÃO NA ULSNA DE JANEIRO A JUNHO 2014,Ajuste Direto Regime Geral,Aquisição de serviços,"72000000-5, Serviços de TI: consultoria, desenvolvimento de software, Internet e apoio","Unidade Local de Saúde do Norte Alentejano, E. P. E. (508094461)",GENERAL ELECTRIC PORTUGUESA SA (500357129),"43.500,00 €",17-06-2015,25-03-2014,181 dias,"Portugal, Portalegre, Portalegre","Artigo 20.º, n.º 1, alínea a) do Código dos Contratos Públicos",25-03-2014,"43.500,00 €",,"",,Não aplicável.,Não aplicável.,FALSE
Aquisição de reagentes,Ajuste Direto Regime Geral,Aquisição de bens móveis,"33000000-0, Equipamento médico, medicamentos e produtos para cuidados pessoais","Unidade Local de Saúde do Norte Alentejano, E. P. E. (508094461)",Roche Sistemas de Diagnostico (504282921),"8.703,49 €",17-06-2015,31-10-2014,30 dias,"Portugal, Portalegre, Elvas<BR/>Portugal, Portalegre, Portalegre","Artigo 24.º, n.º 1, alínea e) do Código dos Contratos Públicos",28-11-2014,"8.703,49 €",,"",,Não aplicável.,Não aplicável.,FALSE
"Prestação de Serviços de Manutenção para 21 Portas Automáticas e 5 Portas Mecânicas de Mola da ULSNA, EPE (ano 2015)",Ajuste Direto Regime Geral,Aquisição de serviços,"50000000-5, Serviços de reparação e manutenção","Unidade Local de Saúde do Norte Alentejano, E. P. E. (508094461)","ThyssentKrupp Elevadores, S.A. (501445226)","4.667,52 €",16-06-2015,25-02-2015,365 dias,"Portugal, Portalegre, Portalegre","Artigo 20.º, n.º 1, alínea a) do Código dos Contratos Públicos",25-02-2015,"4.667,52 €",,"",,Não aplicável.,Não aplicável.,FALSE
Prestação de Serviços de Manutenção do Equipamento SOMATON Emotion 16 (TAC) do Hospital de Portalegre (Ano 2015),Ajuste Direto Regime Geral,Aquisição de serviços,"50000000-5, Serviços de reparação e manutenção","Unidade Local de Saúde do Norte Alentejano, E. P. E. (508094461)",SIEMENS (500247480),"43.650,00 €",15-06-2015,03-03-2015,365 dias,"Portugal, Portalegre, Portalegre","Artigo 24.º, n.º 1, alínea e) do Código dos Contratos Públicos",03-03-2015,"43.650,00 €",,"",,Não aplicável.,Não aplicável.,FALSE
"Prestação de Serviços de Manutenção dos Quadros Eléctricos, Postos de Transformação e Três UPS´S do Hospital de Portalegre (Ano 2015)",Ajuste Direto Regime Geral,Aquisição de serviços,"50000000-5, Serviços de reparação e manutenção","Unidade Local de Saúde do Norte Alentejano, E. P. E. (508094461)",SCHNEIDER (500281858),"10.530,00 €",15-06-2015,09-04-2015,365 dias,"Portugal, Portalegre, Portalegre","Artigo 24.º, n.º 1, alínea e) do Código dos Contratos Públicos",09-04-2015,"10.530,00 €",,"",,Não aplicável.,Não aplicável.,FALSE
"Prestação de Serviços de Manutenção de Dispositivos Médicos (sete ventiladores) da ULSNA, EPE - Ano 2015",Ajuste Direto Regime Geral,Aquisição de serviços,"50000000-5, Serviços de reparação e manutenção","Unidade Local de Saúde do Norte Alentejano, E. P. E. (508094461)",PULMOCOR (501402578),"6.600,96 €",15-06-2015,18-03-2015,365 dias,"Portugal, Portalegre, Portalegre","Artigo 24.º, n.º 1, alínea e) do Código dos Contratos Públicos",18-03-2015,"6.600,96 €",,"",,Não aplicável.,Não aplicável.,FALSE
"Prestação de Serviços de Manutenção dos Equipamentos Horizontal Diagnost H, Diagnost 96 e Essenta DR da ULSNA, EPE (Ano 2015)",Ajuste Direto Regime Geral,Aquisição de serviços,"50000000-5, Serviços de reparação e manutenção","Unidade Local de Saúde do Norte Alentejano, E. P. E. (508094461)","Philips Portuguesa, S.A. (500216843)","16.760,04 €",15-06-2015,28-05-2015,365 dias,"Portugal, Portalegre, Portalegre","Artigo 24.º, n.º 1, alínea e) do Código dos Contratos Públicos",28-05-2015,"16.760,04 €",,"",,Não aplicável.,Não aplicável.,FALSE
Prestação de Serviços de Manutenção de 4 Elevadores do Hospital de Portalegre,Ajuste Direto Regime Geral,Aquisição de serviços,"50000000-5, Serviços de reparação e manutenção","Unidade Local de Saúde do Norte Alentejano, E. P. E. (508094461)",Otis (500069824),"11.788,20 €",15-06-2015,18-02-2015,365 dias,"Portugal, Portalegre, Portalegre","Artigo 20.º, n.º 1, alínea a) do Código dos Contratos Públicos",18-02-2015,"11.788,20 €",,"",,Não aplicável.,Não aplicável.,FALSE
Prestação de Serviços de Manutenção de 3 Lasers afetos ao Serviço de C. Externa de Oftalmologia do Hospital de Portalegre,Ajuste Direto Regime Geral,Aquisição de serviços,"50000000-5, Serviços de reparação e manutenção","Unidade Local de Saúde do Norte Alentejano, E. P. E. (508094461)",José Cotta (500155739),"4.610,12 €",15-06-2015,10-03-2015,365 dias,"Portugal, Portalegre, Portalegre","Artigo 24.º, n.º 1, alínea e) do Código dos Contratos Públicos",10-03-2015,"4.610,12 €",,"",,Não aplicável.,Não aplicável.,FALSE
MEDICAMENTOS DO FORO ONCOLÓGICO,Ao abrigo de acordo-quadro (art.º 259.º),Aquisição de bens móveis,"33000000-0, Equipamento médico, medicamentos e produtos para cuidados pessoais","Unidade Local de Saúde do Norte Alentejano, E. P. E. (508094461)",ROCHE FARMACEUTICA E QUIMICA LDA (500233810),"342.952,04 €",15-06-2015,15-06-2015,365 dias,"Portugal, Portalegre, Elvas<BR/>Portugal, Portalegre, Portalegre",Artigo 259.º do Código dos Contratos Públicos,31-12-2015,"306.634,63 €",,Não foram adquiridas as quantidades totais estimadas.,,345900,CONCURSO PÚBLICO PARA A CELEBRAÇÃO DE CONTRATOS PÚBLICOS DE APROVISIONAMENTO PARA AQUISIÇÃO MEDICAMENTOS DO FORO ONCOLÓGICO,FALSE
"Prestação de Serviços de Manutenção Preventiva e Corretiva aos Equipamentos Kardex, Embaladores e Pyxis da ULSNA, EPE (Ano 2015)",Ajuste Direto Regime Geral,Aquisição de serviços,"50000000-5, Serviços de reparação e manutenção","Unidade Local de Saúde do Norte Alentejano, E. P. E. (508094461)",Grifols (502041285),"24.703,74 €",15-06-2015,25-05-2015,365 dias,"Portugal, Portalegre, Portalegre","Artigo 24.º, n.º 1, alínea e) do Código dos Contratos Públicos",25-05-2015,"24.703,74 €",,"",,Não aplicável.,Não aplicável.,FALSE
"Prestação de Serviços de Manutenção Preventiva e Corretiva de UPS´S da ULSNA, EPE (Ano 2015)",Ajuste Direto Regime Geral,Aquisição de serviços,"50000000-5, Serviços de reparação e manutenção","Unidade Local de Saúde do Norte Alentejano, E. P. E. (508094461)",Emerson (503322520),"9.616,43 €",15-06-2015,01-04-2015,365 dias,"Portugal, Portalegre, Portalegre","Artigo 24.º, n.º 1, alínea e) do Código dos Contratos Públicos",01-04-2015,"9.616,43 €",,"",,Não aplicável.,Não aplicável.,FALSE
"Prestação de Serviços de Manutenção aos Monitores Delta, Gamma XL e Centrais de Monotorização da ULSNA, EPE (Ano 2015)",Ajuste Direto Regime Geral,Aquisição de serviços,"50000000-5, Serviços de reparação e manutenção","Unidade Local de Saúde do Norte Alentejano, E. P. E. (508094461)",Drager (508771323),"4.900,37 €",15-06-2015,18-03-2015,365 dias,"Portugal, Portalegre, Portalegre","Artigo 24.º, n.º 1, alínea e) do Código dos Contratos Públicos",18-03-2015,"4.900,37 €",,"",,Não aplicável.,Não aplicável.,FALSE
"Prestação de Serviços de Manutenção de 4 Aparelhos de Digitalização de Imagem e 2 Extralongos da ULSNA, EPE Ano 2015",Ajuste Direto Regime Geral,Aquisição de serviços,"50000000-5, Serviços de reparação e manutenção","Unidade Local de Saúde do Norte Alentejano, E. P. E. (508094461)",Carestream (508054320),"16.140,50 €",15-06-2015,04-03-2015,365 dias,"Portugal, Portalegre, Portalegre","Artigo 24.º, n.º 1, alínea e) do Código dos Contratos Públicos",04-03-2015,"16.140,50 €",,"",,Não aplicável.,Não aplicável.,FALSE
"Prestação de Serviços de Manutenção aos Equipamentos Medgraphics e Mortara da ULSNA, EPE Ano 2015",Ajuste Direto Regime Geral,Aquisição de serviços,"50000000-5, Serviços de reparação e manutenção","Unidade Local de Saúde do Norte Alentejano, E. P. E. (508094461)",Cardio Solutions (507158865),"14.149,29 €",15-06-2015,19-05-2015,365 dias,"Portugal, Portalegre, Portalegre","Artigo 24.º, n.º 1, alínea e) do Código dos Contratos Públicos",19-05-2015,"14.149,29 €",,"",,Não aplicável.,Não aplicável.,FALSE
"Prestação de Serviços Técnicos para Gestão da Rede de Gases Medicinais da ULSNA, EPE (janeiro a abril de 2015)",Ajuste Direto Regime Geral,Aquisição de serviços,"50000000-5, Serviços de reparação e manutenção","Unidade Local de Saúde do Norte Alentejano, E. P. E. (508094461)","Air Liquide Medicinal, SA (501576436)","18.149,59 €",15-06-2015,09-04-2015,365 dias,"Portugal, Portalegre, Portalegre","Artigo 24.º, n.º 1, alínea e) do Código dos Contratos Públicos",30-04-2015,"18.149,59 €",,"",,Não aplicável.,Não aplicável.,FALSE
