Objeto do Contrato,Tipo de Procedimento,Tipo(s) de Contrato,CPVs,Entidade(s) Adjudicante(s),Entidade(s) Adjudicatária(s),Preço Contratual,Data de Publicação,Data de Celebração do Contrato,Prazo de Execução,Local de Execução,Fundamentação,Data de Fecho do Contrato,Preço Total Efetivo,Causas das Alterações ao Prazo,Causas das Alterações ao Preço,Estado,N.º registo do Acordo Quadro,Descrição do Acordo Quadro,Procedimento Centralizado
RUXOLITINIB 15 MG,Ajuste Direto Regime Geral,Aquisição de bens móveis,"33652100-6, Antineoplásicos","Centro Hospitalar do Baixo Vouga, E.P.E. (510123210)","NOVARTIS FARMA-PROD.FARMAC,LDA (500063524)","38.080,00 €",02-07-2014,25-03-2014,281 dias,"Portugal, Aveiro","Artigo 24.º, n.º 1, alínea e) do Código dos Contratos Públicos","","",,,,Não aplicável.,Não aplicável.,FALSE
"ANACINRA 100MG/0,67ML AMP",Ajuste Direto Regime Geral,Aquisição de bens móveis,"33652000-5, Antineoplásicos e imunomoduladores","Centro Hospitalar do Baixo Vouga, E.P.E. (510123210)","DILOFAR - DISTRI., TRANSP. E LOGÍSTICA, LDA (500563004)","6.818,99 €",02-07-2014,06-03-2014,302 dias,"Portugal, Aveiro","Artigo 24.º, n.º 1, alínea e) do Código dos Contratos Públicos","","",,,,Não aplicável.,Não aplicável.,FALSE
"BOSENTANO 62,5MG E 125MG COMP.",Ajuste Direto Regime Geral,Aquisição de bens móveis,"33622200-8, Anti-hipertensores","Centro Hospitalar do Baixo Vouga, E.P.E. (510123210)","SANOFI - PRODUTOS FARMACÊUTICOS, LDA (500134960)","6.727,28 €",02-07-2014,14-04-2014,23 dias,"Portugal, Aveiro","Artigo 20.º, n.º 1, alínea a) do Código dos Contratos Públicos",07-05-2014,"6.727,28 €",,,,Não aplicável.,Não aplicável.,FALSE
"REAG. P/ DET GLICOSE NO SANGUE (CAPILAR, VENOSO, ARTERIAL, NEONATAL)",Ajuste Direto Regime Geral,Aquisição de bens móveis,"33696000-5, Reagentes e meios de contraste","Centro Hospitalar do Baixo Vouga, E.P.E. (510123210)","ROCHE SISTEMAS DE DIAGNOSTICOS, LDA (504282921)","28.000,00 €",01-07-2014,10-04-2014,265 dias,"Portugal, Aveiro","Artigo 20.º, n.º 1, alínea a) do Código dos Contratos Públicos","","",,,,Não aplicável.,Não aplicável.,FALSE
ULIPRISTAL 5MG COMP,Ajuste Direto Regime Geral,Aquisição de bens móveis,"33641400-9, Contraceptivos","Centro Hospitalar do Baixo Vouga, E.P.E. (510123210)","LOGIFARMA - LOGISTICA FARMACEUTICA, SA (503934640)","9.799,16 €",01-07-2014,18-02-2014,316 dias,"Portugal, Aveiro","Artigo 24.º, n.º 1, alínea e) do Código dos Contratos Públicos","","",,,,Não aplicável.,Não aplicável.,FALSE
"TESTES, REAGENTES DE ANÁLISE E DETERMINAÇÃO E OUTROS",Ajuste Direto Regime Geral,Aquisição de bens móveis,"33696000-5, Reagentes e meios de contraste","Centro Hospitalar do Baixo Vouga, E.P.E. (510123210)","ALERE, LDA (502518863), MENARINI DIAGNOSTICOS, LDA (502610069), VIDROLAB 2 - EQ. MAT. LABORATORIO, ANAL., DIAG. SAUDE, S.A. (501450629), QUILABAN, LDA (500399670), ABBOTT LABORATORIOS, LDA (500006148), PROCLINICA,LDA (500222665)","14.543,58 €",01-07-2014,30-01-2014,335 dias,"Portugal, Aveiro","Artigo 20.º, n.º 1, alínea a) do Código dos Contratos Públicos","","",,,,Não aplicável.,Não aplicável.,FALSE
OUTROS PRODUTOS FARMACÊUTICOS,Ajuste Direto Regime Geral,Aquisição de bens móveis,"33695000-8, Todos os outros produtos não terapêuticos","Centro Hospitalar do Baixo Vouga, E.P.E. (510123210)","OVERPHARMA - PROD. MED. FARMACÊUTICOS, LDA (505792362), PAUL HARTMAN,LDA (502271728), SMITH & NEPHEW, LDA (503552461), ALCON PORTUGAL - PROD. EQ. OFTALMOLOGICOS, LDA (501251685), COVIDIEN PORTUGAL - PROD.SAUDE, UNIP. LDA (503413410), CLINIFAR - PROD. CLINICOS E FARMACEUTICOS, S.A. (503281115), PROCLINICA,LDA (500222665), VIDROLAB 2 - EQ. MAT. LABORATORIO, ANAL., DIAG. SAUDE, S.A. (501450629)","9.305,79 €",01-07-2014,05-05-2014,240 dias,"Portugal, Aveiro","Artigo 20.º, n.º 1, alínea a) do Código dos Contratos Públicos","","",,,,Não aplicável.,Não aplicável.,FALSE
