Objeto do Contrato,Tipo de Procedimento,Tipo(s) de Contrato,CPVs,Entidade(s) Adjudicante(s),Entidade(s) Adjudicatária(s),Preço Contratual,Data de Publicação,Data de Celebração do Contrato,Prazo de Execução,Local de Execução,Fundamentação,Data de Fecho do Contrato,Preço Total Efetivo,Causas das Alterações ao Prazo,Causas das Alterações ao Preço,Estado,N.º registo do Acordo Quadro,Descrição do Acordo Quadro,Procedimento Centralizado
AD2564-16-ARSENICO TRIOXIDO 1 MG /ML INJ-10 ML,Ao abrigo de acordo-quadro (art.º 259.º),Aquisição de bens móveis,"33600000-6, Produtos farmacêuticos","Instituto Português de Oncologia de Lisboa Francisco Gentil, E. P. E. (506361616)","TEVA PHARMA PRODUTOS FARMACEUTICOS,LDA (507045491)","13.897,64 €",21-10-2016,13-09-2016,5 dias,"Portugal, Lisboa, Lisboa",Artigo 259.º do Código dos Contratos Públicos,,,,,,1771819,CP 2015/6 - Acordo quadro para o fornecimento de Medicamentos do Foro Oncológico,FALSE
AD2521-2016TEMOZOLOMIDA 20MG CP,Ao abrigo de acordo-quadro (art.º 259.º),Aquisição de bens móveis,"33600000-6, Produtos farmacêuticos","Instituto Português de Oncologia de Lisboa Francisco Gentil, E. P. E. (506361616)","ACCORD HEALTHCARE UNIPESSOAL, LDA (508622263)","10.080,00 €",21-10-2016,11-10-2016,5 dias,"Portugal, Lisboa, Lisboa",Artigo 259.º do Código dos Contratos Públicos,,,,,,2371297,CP 2016/10 - Acordo Quadro para fornecimento de Material de Penso de Efeito Terapêutico às Instituições e Serviços do Serviço Nacional de Saúde,FALSE
AD2523-2016 SUNITINIB 25 MG CP,Ao abrigo de acordo-quadro (art.º 259.º),Aquisição de bens móveis,"33600000-6, Produtos farmacêuticos","Instituto Português de Oncologia de Lisboa Francisco Gentil, E. P. E. (506361616)","PFIZER BIOFARMACEUTICA, SOCIEDADE UNIPESSOAL (513300376)","56.406,00 €",21-10-2016,29-09-2016,5 dias,"Portugal, Lisboa, Lisboa",Artigo 259.º do Código dos Contratos Públicos,,,,,,1771819,CP 2015/6 - Acordo quadro para o fornecimento de Medicamentos do Foro Oncológico,FALSE
"Rituximab 120MG/ML, 11.7ML INJ SC",Ao abrigo de acordo-quadro (art.º 259.º),Aquisição de bens móveis,"33600000-6, Produtos farmacêuticos","Instituto Português de Oncologia de Lisboa Francisco Gentil, E. P. E. (506361616)","ROCHE FARMACEUTICA QUIMICA, LDA. (500233810)","1.477.760,00 €",21-10-2016,20-09-2016,90 dias,"Portugal, Lisboa, Lisboa",Artigo 259.º do Código dos Contratos Públicos,,,,,,1771819,CP 2015/6 - Acordo quadro para o fornecimento de Medicamentos do Foro Oncológico,FALSE
AD2520-2016 EVEROLIMUS 5 MG CP,Ao abrigo de acordo-quadro (art.º 259.º),Aquisição de bens móveis,"33600000-6, Produtos farmacêuticos","Instituto Português de Oncologia de Lisboa Francisco Gentil, E. P. E. (506361616)",NOVARTIS FARMA PRODUTOS FARMACEUTICOS SA (500063524),"7.572,35 €",21-10-2016,12-10-2016,5 dias,"Portugal, Lisboa, Lisboa",Artigo 259.º do Código dos Contratos Públicos,,,,,,1771819,CP 2015/6 - Acordo quadro para o fornecimento de Medicamentos do Foro Oncológico,FALSE
AD2516-2016 PAZOPANIB 400 CP,Ao abrigo de acordo-quadro (art.º 259.º),Aquisição de bens móveis,"33600000-6, Produtos farmacêuticos","Instituto Português de Oncologia de Lisboa Francisco Gentil, E. P. E. (506361616)",NOVARTIS FARMA PRODUTOS FARMACEUTICOS SA (500063524),"51.453,00 €",21-10-2016,29-09-2016,5 dias,"Portugal, Lisboa, Lisboa",Artigo 259.º do Código dos Contratos Públicos,,,,,,1771819,CP 2015/6 - Acordo quadro para o fornecimento de Medicamentos do Foro Oncológico,FALSE
AD2327-2016-METOTREXATO 100 MG/ML INJ-10ML,Ao abrigo de acordo-quadro (art.º 259.º),Aquisição de bens móveis,"33600000-6, Produtos farmacêuticos","Instituto Português de Oncologia de Lisboa Francisco Gentil, E. P. E. (506361616)",TEVA PHARMA -PRODUTOS FARMACEUTICOS 100 MG/ML INJ -10 ML (507045491),"45.000,00 €",21-10-2016,12-09-2016,5 dias,"Portugal, Lisboa, Lisboa",Artigo 259.º do Código dos Contratos Públicos,,,,,,1771819,CP 2015/6 - Acordo quadro para o fornecimento de Medicamentos do Foro Oncológico,FALSE
AD2320-2016-POSACONASOL 100 MG CP,Ao abrigo de acordo-quadro (art.º 259.º),Aquisição de bens móveis,"33600000-6, Produtos farmacêuticos","Instituto Português de Oncologia de Lisboa Francisco Gentil, E. P. E. (506361616)",MERCK SHARP & DOHME LDA (500191360),"238.984,96 €",20-10-2016,18-10-2016,5 dias,"Portugal, Lisboa, Lisboa",Artigo 259.º do Código dos Contratos Públicos,,,,,,1422736,CP 2015/41 - ACORDO QUADRO PARA FORNECIMENTO DE MEDICAMENTOS ANTI-INFECIOSOS: ANTIVÍRICOS E ANTIFÚNGICOS ÀS INSTITUIÇÕES E SERVIÇOS DO SERVIÇO NACIONAL DE SAÚDE,FALSE
AD2305-16 PERTUZUMAB 420 MG- 14 ML INJ,Ao abrigo de acordo-quadro (art.º 259.º),Aquisição de bens móveis,"33600000-6, Produtos farmacêuticos","Instituto Português de Oncologia de Lisboa Francisco Gentil, E. P. E. (506361616)","ROCHE FARMACEUTICA QUIMICA, LDA (500233810)","27.616,50 €",20-10-2016,10-08-2016,5 dias,"Portugal, Lisboa, Lisboa",Artigo 259.º do Código dos Contratos Públicos,,,,,,1771819,CP 2015/6 - Acordo quadro para o fornecimento de Medicamentos do Foro Oncológico,FALSE
AD2304-2016 CITARABINA 100 MG INJ- 20ML,Ao abrigo de acordo-quadro (art.º 259.º),Aquisição de bens móveis,"33600000-6, Produtos farmacêuticos","Instituto Português de Oncologia de Lisboa Francisco Gentil, E. P. E. (506361616)","ACCORD HEALTHCARE UNIPESSOAL, LDA  (508622263)","2.508,00 €",20-10-2016,04-08-2016,5 dias,"Portugal, Lisboa, Lisboa",Artigo 259.º do Código dos Contratos Públicos,,,,,,1771819,CP 2015/6 - Acordo quadro para o fornecimento de Medicamentos do Foro Oncológico,FALSE
AD2289-2016 TEMOZOLOMIDA 5 MG CP,Ao abrigo de acordo-quadro (art.º 259.º),Aquisição de bens móveis,"33600000-6, Produtos farmacêuticos","Instituto Português de Oncologia de Lisboa Francisco Gentil, E. P. E. (506361616)",ACCORD HEALTHCARE UNIPESSOAL LDA (508622263),"1.552,40 €",20-10-2016,11-10-2016,5 dias,"Portugal, Lisboa, Lisboa",Artigo 259.º do Código dos Contratos Públicos,,,,,,1771819,CP 2015/6 - Acordo quadro para o fornecimento de Medicamentos do Foro Oncológico,FALSE
AD2186-2016,Ao abrigo de acordo-quadro (art.º 259.º),Aquisição de bens móveis,"33600000-6, Produtos farmacêuticos","Instituto Português de Oncologia de Lisboa Francisco Gentil, E. P. E. (506361616)",MEDAC SUCURSAL EM PORTUGAL (980369959),"36.000,00 €",20-10-2016,17-10-2016,1 dias,"Portugal, Lisboa, Lisboa",Artigo 259.º do Código dos Contratos Públicos,,,,,,1771819,CP 2015/6 - Acordo quadro para o fornecimento de Medicamentos do Foro Oncológico,FALSE
AD2178-2016 ARSÉNICO  TRIOXIDO 1 MG/ML INJ 10 ML,Ao abrigo de acordo-quadro (art.º 259.º),Aquisição de bens móveis,"33600000-6, Produtos farmacêuticos","Instituto Português de Oncologia de Lisboa Francisco Gentil, E. P. E. (506361616)","TEVA PHARMA-PRODUTOS FARMACEUTICOS, LDA (507045491)","10.423,23 €",20-10-2016,21-07-2016,5 dias,"Portugal, Lisboa, Lisboa",Artigo 259.º do Código dos Contratos Públicos,,,,,,1771819,CP 2015/6 - Acordo quadro para o fornecimento de Medicamentos do Foro Oncológico,FALSE
AD2116-2016 RUXOLITINIB 5 MG CP,Ao abrigo de acordo-quadro (art.º 259.º),Aquisição de bens móveis,"33600000-6, Produtos farmacêuticos","Instituto Português de Oncologia de Lisboa Francisco Gentil, E. P. E. (506361616)",NOVARTIS FARMA PRODUTOS FARMACEUTICOS SA (500063524),"35.976,64 €",20-10-2016,19-09-2016,5 dias,"Portugal, Lisboa, Lisboa",Artigo 259.º do Código dos Contratos Públicos,,,,,,1771819,CP 2015/6 - Acordo quadro para o fornecimento de Medicamentos do Foro Oncológico,FALSE
AD2894-16 EVEROLIMUS CP 10 MG,Ao abrigo de acordo-quadro (art.º 259.º),Aquisição de bens móveis,"33600000-6, Produtos farmacêuticos","Instituto Português de Oncologia de Lisboa Francisco Gentil, E. P. E. (506361616)","NOVARTIS FARMA-Produtosd farmaceuticos, S.A. (500063524)","18.027,00 €",19-10-2016,30-09-2016,5 dias,"Portugal, Lisboa, Lisboa",Artigo 259.º do Código dos Contratos Públicos,,,,,,1771819,CP 2015/6 - Acordo quadro para o fornecimento de Medicamentos do Foro Oncológico,FALSE
AD2045-2016 CARFILZOMIB 60 MG INJ,Ajuste Direto Regime Geral,Aquisição de bens móveis,"33600000-6, Produtos farmacêuticos","Instituto Português de Oncologia de Lisboa FG, E.P.E. (506361616)",AMGEN BIOFARMACEUTICA LDA (502942959),"10.120,32 €",19-10-2016,24-06-2016,5 dias,"Portugal, Lisboa, Lisboa","Artigo 24.º, n.º 1, alínea c) do Código dos Contratos Públicos",,,,,,Não aplicável.,Não aplicável.,FALSE
AD2043-2016 ANFOTERICINA B LIPOS 50 MG INJ,Ao abrigo de acordo-quadro (art.º 259.º),Aquisição de bens móveis,"33600000-6, Produtos farmacêuticos","Instituto Português de Oncologia de Lisboa Francisco Gentil, E. P. E. (506361616)","GILEAD SCIENCES, LDA (503604704)","208.097,60 €",19-10-2016,06-10-2016,5 dias,"Portugal, Lisboa, Lisboa",Artigo 259.º do Código dos Contratos Públicos,,,,,,1422736,CP 2015/41 - ACORDO QUADRO PARA FORNECIMENTO DE MEDICAMENTOS ANTI-INFECIOSOS: ANTIVÍRICOS E ANTIFÚNGICOS ÀS INSTITUIÇÕES E SERVIÇOS DO SERVIÇO NACIONAL DE SAÚDE,FALSE
AD1991-2016 AQUISIÇÃO DE RAEGENTES,Ajuste Direto Regime Geral,Aquisição de bens móveis,"33696500-0, Reagentes de laboratório","Instituto Português de Oncologia de Lisboa Francisco Gentil, E. P. E. (506361616)","GRUPO TAPER-EQUIPAMENTOS DE PRECISÃO CIENTIFICA, LDA (506886336)","6.384,00 €",19-10-2016,18-10-2016,5 dias,"Portugal, Lisboa, Lisboa","Artigo 20.º, n.º 1, alínea a) do Código dos Contratos Públicos",,,,,,Não aplicável.,Não aplicável.,FALSE
AD1990-2016 AQUISIÇÃO DE REAGENTES,Ajuste Direto Regime Geral,Aquisição de bens móveis,"33696500-0, Reagentes de laboratório","Instituto Português de Oncologia de Lisboa Francisco Gentil, E. P. E. (506361616)","Werfen Portugal, lda (501086110)","5.170,00 €",19-10-2016,15-09-2016,5 dias,"Portugal, Lisboa, Lisboa","Artigo 20.º, n.º 1, alínea a) do Código dos Contratos Públicos",,,,,,Não aplicável.,Não aplicável.,FALSE
AD1989-16 AQUISIÇÃO  DE REAGENTES,Ajuste Direto Regime Geral,Aquisição de bens móveis,"33696500-0, Reagentes de laboratório","Instituto Português de Oncologia de Lisboa Francisco Gentil, E. P. E. (506361616)",ALFAFENE (503387398),"6.875,00 €",19-10-2016,01-07-2016,5 dias,"Portugal, Lisboa, Lisboa","Artigo 24.º, n.º 1, alínea e) do Código dos Contratos Públicos",,,,,,Não aplicável.,Não aplicável.,FALSE
AD1939-2016 PAZOPANIB 200 MG E PAZOPANIB 400 MG,Ao abrigo de acordo-quadro (art.º 259.º),Aquisição de bens móveis,"33600000-6, Produtos farmacêuticos","Instituto Português de Oncologia de Lisboa Francisco Gentil, E. P. E. (506361616)",NOVARTIS FARMA PRODUTOS FARMACEUTICOS SA (500063524),"36.068,76 €",19-10-2016,19-07-2016,1 dias,"Portugal, Lisboa, Lisboa",Artigo 259.º do Código dos Contratos Públicos,,,,,,1771819,CP 2015/6 - Acordo quadro para o fornecimento de Medicamentos do Foro Oncológico,FALSE
AD3030-2016 DINUTUXIMAB 3.5 MG INJ 5ML,Ajuste Direto Regime Geral,Aquisição de bens móveis,"33600000-6, Produtos farmacêuticos","Instituto Português de Oncologia de Lisboa Francisco Gentil, E. P. E. (506361616)","A Ferrer Portugal, s.a. (500069190)","180.000,00 €",18-10-2016,13-10-2016,5 dias,"Portugal, Lisboa, Lisboa","Artigo 24.º, n.º 1, alínea e) do Código dos Contratos Públicos",,,,,,Não aplicável.,Não aplicável.,FALSE
AD1838-2016 FULVESTRANT 50 MG ML INJ,Ao abrigo de acordo-quadro (art.º 259.º),Aquisição de bens móveis,"33600000-6, Produtos farmacêuticos","Instituto Português de Oncologia de Lisboa Francisco Gentil, E. P. E. (506361616)",ASTRA ZENECA PRODUTOS FARMACEUTICOS (502942240),"118.672,50 €",18-10-2016,23-09-2016,5 dias,"Portugal, Lisboa, Lisboa",Artigo 259.º do Código dos Contratos Públicos,,,,,,1771819,CP 2015/6 - Acordo quadro para o fornecimento de Medicamentos do Foro Oncológico,FALSE
AD1815-2015 PEDIDO DE AUTORIZAÇÃO PARA A 1 ªRENOVAÇÃO DO AD1815-2015 PARA 2016,Ajuste Direto Regime Geral,Aquisição de bens móveis,"33600000-6, Produtos farmacêuticos","Instituto Português de Oncologia de Lisboa Francisco Gentil, E. P. E. (506361616)",FRESENIUS KABI PHARMA PORTUGAL LDA (504293753),"13.950,00 €",18-10-2016,30-10-2015,5 dias,"Portugal, Lisboa, Lisboa","Artigo 20.º, n.º 1, alínea a) do Código dos Contratos Públicos",,,,,,Não aplicável.,Não aplicável.,FALSE
AD1815-2015 PEDIDO DE AUTORIZAÇÃO PARA A 1ª RENOVAÇÃO DO AD1815-2015 PARA 2016,Ajuste Direto Regime Geral,Aquisição de bens móveis,"33600000-6, Produtos farmacêuticos","Instituto Português de Oncologia de Lisboa Francisco Gentil, E. P. E. (506361616)","VYGON Portugal-Pridutos médicos e Farmacêuticos, lda (503232785)","13.950,00 €",18-10-2016,30-10-2015,365 dias,"Portugal, Lisboa, Lisboa","Artigo 20.º, n.º 1, alínea a) do Código dos Contratos Públicos",,,,,,Não aplicável.,Não aplicável.,FALSE
"AD2797-16 IMATINIB, MESILATO 100 MG CP",Ao abrigo de acordo-quadro (art.º 259.º),Aquisição de bens móveis,"33600000-6, Produtos farmacêuticos","Instituto Português de Oncologia de Lisboa Francisco Gentil, E. P. E. (506361616)",NOVARTIS FARMA-Produtos Farmaceuticos (500063524),"86.060,16 €",18-10-2016,11-10-2016,5 dias,"Portugal, Lisboa, Lisboa",Artigo 259.º do Código dos Contratos Públicos,,,,,,1771819,CP 2015/6 - Acordo quadro para o fornecimento de Medicamentos do Foro Oncológico,FALSE
AD1482-16-medicamentos,Ajuste Direto Regime Geral,Aquisição de bens móveis,"33600000-6, Produtos farmacêuticos","Instituto Português de Oncologia de Lisboa Francisco Gentil, E. P. E. (506361616)",JANSSEN-CILAG FARMACEUTICA (500189412),"97.214,40 €",18-10-2016,26-04-2016,2 dias,"Portugal, Lisboa, Lisboa","Artigo 24.º, n.º 1, alínea c) do Código dos Contratos Públicos",,,,,,Não aplicável.,Não aplicável.,FALSE
AD2353-16VINORELBINA 30 MG CP,Ajuste Direto Regime Geral,Aquisição de bens móveis,"33600000-6, Produtos farmacêuticos","Instituto Português de Oncologia de Lisboa Francisco Gentil, E. P. E. (506361616)",PIERRE FABRE MEDICAMENT PORTUGAL LDA (500230366),"14.790,00 €",17-10-2016,27-09-2016,5 dias,"Portugal, Lisboa, Lisboa","Artigo 24.º, n.º 1, alínea e) do Código dos Contratos Públicos",,,,,,Não aplicável.,Não aplicável.,FALSE
AD2644-16PEMBROLIZUMAB 50 MG,Ajuste Direto Regime Geral,Aquisição de bens móveis,"33600000-6, Produtos farmacêuticos","Instituto Português de Oncologia de Lisboa Francisco Gentil, E. P. E. (506361616)",MERCK SHARP & DOME LIMITADA (500191360),"26.340,00 €",17-10-2016,30-09-2016,2 dias,"Portugal, Lisboa, Lisboa","Artigo 24.º, n.º 1, alínea e) do Código dos Contratos Públicos",,,,,,Não aplicável.,Não aplicável.,FALSE
AD2525-16 VISMODEGIB 150 MG,Ajuste Direto Regime Geral,Aquisição de bens móveis,"33600000-6, Produtos farmacêuticos","Instituto Português de Oncologia de Lisboa FG, E.P.E. (506361616)",ROCHE FARMACEUTICA QUÍMICA (500233810),"66.569,28 €",17-10-2016,21-09-2016,125 dias,"Portugal, Lisboa, Lisboa","Artigo 24.º, n.º 1, alínea e) do Código dos Contratos Públicos",,,,,,Não aplicável.,Não aplicável.,FALSE
AD105-2015PEDIDO DE AUTORIZAÇÃO PARA  A 2º RENOVAÇÃOP DO AD72-2014-PARA 2016,Ajuste Direto Regime Geral,Aquisição de bens móveis,"33600000-6, Produtos farmacêuticos","Instituto Português de Oncologia de Lisboa Francisco Gentil, E. P. E. (506361616)","CELGENE SOCIEDADE UNIPESSOAL, LDA (507791690)","78.000,00 €",17-10-2016,19-11-2015,365 dias,"Portugal, Lisboa, Lisboa","Artigo 24.º, n.º 1, alínea e) do Código dos Contratos Públicos",,,,,,Não aplicável.,Não aplicável.,FALSE
AD105-2015PEDIDO DE AUTORIZAÇÃO PARA 2ª RENOVAÇÃO DO AD 72-2014-PARA 2016,Ajuste Direto Regime Geral,Aquisição de bens móveis,"33600000-6, Produtos farmacêuticos","Instituto Português de Oncologia de Lisboa Francisco Gentil, E. P. E. (506361616)",UNILFARMA (500293023),"22.652,75 €",17-10-2016,19-11-2015,365 dias,"Portugal, Lisboa, Lisboa","Artigo 24.º, n.º 1, alínea e) do Código dos Contratos Públicos",,,,,,Não aplicável.,Não aplicável.,FALSE
AD914-2015 TRABECTADINA 1 MG INJ,Ajuste Direto Regime Geral,Aquisição de bens móveis,"33600000-6, Produtos farmacêuticos","Instituto Português de Oncologia de Lisboa Francisco Gentil, E. P. E. (506361616)","LOGIFARMA-LOGISTICA FARMACEUTICA, S.A. (503934640)","325.413,00 €",14-10-2016,29-10-2015,365 dias,"Portugal, Lisboa, Lisboa","Artigo 24.º, n.º 1, alínea c) do Código dos Contratos Públicos",,,,,,Não aplicável.,Não aplicável.,FALSE
AD2700-2016MICAFUNFINA 100 MG,Ao abrigo de acordo-quadro (art.º 259.º),Aquisição de bens móveis,"33600000-6, Produtos farmacêuticos","Instituto Português de Oncologia de Lisboa Francisco Gentil, E. P. E. (506361616)","ASTELLAS FARMA ,LDA (502540249)","39.996,80 €",14-10-2016,12-10-2016,15 dias,"Portugal, Lisboa, Lisboa",Artigo 259.º do Código dos Contratos Públicos,,,,,,1422736,CP 2015/41 - ACORDO QUADRO PARA FORNECIMENTO DE MEDICAMENTOS ANTI-INFECIOSOS: ANTIVÍRICOS E ANTIFÚNGICOS ÀS INSTITUIÇÕES E SERVIÇOS DO SERVIÇO NACIONAL DE SAÚDE,FALSE
AD2900-2016Rituximab 500 mg inj,Ao abrigo de acordo-quadro (art.º 259.º),Aquisição de bens móveis,"33600000-6, Produtos farmacêuticos","Instituto Português de Oncologia de Lisboa Francisco Gentil, E. P. E. (506361616)","ROCHE FARMACEUTICA 5QUIMICA, LDA (500233810)","307.164,00 €",14-10-2016,07-10-2016,365 dias,"Portugal, Lisboa, Lisboa",Artigo 259.º do Código dos Contratos Públicos,,,,,,1771819,CP 2015/6 - Acordo quadro para o fornecimento de Medicamentos do Foro Oncológico,FALSE
AD1678-2015PEDIDO DE AUTORIZAÇÃO PARA A 1ª RENOVAÇÃO DO AD1678-2015-PARA 2016,Ajuste Direto Regime Geral,Aquisição de bens móveis,"33600000-6, Produtos farmacêuticos","Instituto Português de Oncologia de Lisboa Francisco Gentil, E. P. E. (506361616)",Merck S.A. (500650870),"55.413,58 €",13-10-2016,10-12-2015,365 dias,"Portugal, Lisboa, Lisboa","Artigo 24.º, n.º 1, alínea e) do Código dos Contratos Públicos",,,,,,Não aplicável.,Não aplicável.,FALSE
AD1676-2015 1ª RENOVAÇÃO DO AD1676-2015-PARA 2016,Ajuste Direto Regime Geral,Aquisição de bens móveis,"33600000-6, Produtos farmacêuticos","Instituto Português de Oncologia de Lisboa Francisco Gentil, E. P. E. (506361616)","BIAL -PORTELA & Cª, S.A. (500220913)","9.660,00 €",13-10-2016,29-05-2015,5 dias,"Portugal, Lisboa, Lisboa","Artigo 24.º, n.º 1, alínea e) do Código dos Contratos Públicos",,,,,,Não aplicável.,Não aplicável.,FALSE
AD1672-2015 PEDIDO DE AUTORIZAÇÃO PARA 1 ª RENOVAÇÃO DO AD1672-2015-PARA 2016,Ajuste Direto Regime Geral,Aquisição de bens móveis,"33600000-6, Produtos farmacêuticos","Instituto Português de Oncologia de Lisboa Francisco Gentil, E. P. E. (506361616)","JOHNSON &JOHNSON, LDA (500153370)","14.433,12 €",13-10-2016,09-12-2015,3 dias,"Portugal, Lisboa, Lisboa","Artigo 24.º, n.º 1, alínea e) do Código dos Contratos Públicos",,,,,,Não aplicável.,Não aplicável.,FALSE
AD1630-2016-DAUNORRUBICINA 20 MG INJ,Ajuste Direto Regime Geral,Aquisição de bens móveis,"33600000-6, Produtos farmacêuticos","Instituto Português de Oncologia de Lisboa Francisco Gentil, E. P. E. (506361616)","DUXPHARMA UNIPESSOAL, LDA (510803679)","17.640,00 €",13-10-2016,12-05-2016,10 dias,"Portugal, Lisboa, Lisboa","Artigo 20.º, n.º 1, alínea a) do Código dos Contratos Públicos",,,,,,Não aplicável.,Não aplicável.,FALSE
AD1784-2016,Ajuste Direto Regime Geral,Aquisição de serviços<br/>Aquisição de bens móveis,"33696500-0, Reagentes de laboratório","Instituto Português de Oncologia de Lisboa Francisco Gentil, E. P. E. (506361616)","ABBOTT LABORATÓRIOS, LDA (500006148)","40.000,00 €",13-10-2016,29-09-2016,112 dias,"Portugal, Lisboa, Lisboa","Artigo 26.º, n.º 1, alínea a) do Código dos Contratos Públicos",,,,,,Não aplicável.,Não aplicável.,FALSE
AD1497-16 PRESTAÇAÕ DE SERVIÇOS DE ASSISTENCIA TÉCNICA E MANUTENÇÃO DAS INSTALAÇÕES E EQUIPAMENTOS DA CENTRAL TÉRMICA,Ajuste Direto Regime Geral,Aquisição de serviços,"50000000-5, Serviços de reparação e manutenção","Instituto Português de Oncologia de Lisboa Francisco Gentil, E. P. E. (506361616)","WORKFORCE MEDICAL-Prestação de cuidados de saúde, lda (509248152)","19.000,00 €",12-10-2016,01-06-2016,365 dias,"Portugal, Lisboa, Lisboa","Artigo 20.º, n.º 1, alínea a) do Código dos Contratos Públicos",,,,,,Não aplicável.,Não aplicável.,FALSE
AD1492--16POSTOS DE TRABALHO VIRTUAIS,Ajuste Direto Regime Geral,Aquisição de bens móveis,"30200000-1, Equipamento e material informático","Instituto Português de Oncologia de Lisboa FG, E.P.E. (506361616)",OZONA CONSULTING.S.L.-SUCURSAL EM PORTUGAL (980315921),"6.550,05 €",12-10-2016,06-05-2016,21 dias,"Portugal, Lisboa, Lisboa","Artigo 20.º, n.º 1, alínea a) do Código dos Contratos Públicos",,,,,,Não aplicável.,Não aplicável.,FALSE
AD1339-2016REGORAFENIB 40 MG CP,Ajuste Direto Regime Geral,Aquisição de bens móveis,"33600000-6, Produtos farmacêuticos","Instituto Português de Oncologia de Lisboa Francisco Gentil, E. P. E. (506361616)","BAYER PORTUGAL, LDA (500043256)","9.530,64 €",12-10-2016,26-04-2016,365 dias,"Portugal, Lisboa, Lisboa","Artigo 24.º, n.º 1, alínea e) do Código dos Contratos Públicos",,,,,,Não aplicável.,Não aplicável.,FALSE
AD1219-2015PEDIDO DE AUTORIZAÇÃO PARA A 1ª RENOVAÇÃO DO AD1219-2015-PARA 2016,Ajuste Direto Regime Geral,Aquisição de bens móveis,"33600000-6, Produtos farmacêuticos","Instituto Português de Oncologia de Lisboa Francisco Gentil, E. P. E. (506361616)","A. MARTINS & FERNANDES, SA (501172114)","30.000,00 €",12-10-2016,08-10-2015,365 dias,"Portugal, Lisboa, Lisboa","Artigo 20.º, n.º 1, alínea a) do Código dos Contratos Públicos",,,,,,Não aplicável.,Não aplicável.,FALSE
AD59-2016 CARMUSRINA 100 MG INJ,Ajuste Direto Regime Geral,Aquisição de bens móveis,"33600000-6, Produtos farmacêuticos","Instituto Português de Oncologia de Lisboa Francisco Gentil, E. P. E. (506361616)","RB-PRODUTOS FARMACEUTICOS, INIPESSOAL LDA (510784429)","61.875,00 €",12-10-2016,30-05-2016,365 dias,"Portugal, Lisboa, Lisboa","Artigo 20.º, n.º 1, alínea a) do Código dos Contratos Públicos",,,,,,Não aplicável.,Não aplicável.,FALSE
AD57-2016IMUNOGLOB CAVALO ANTI-TIMOC,Ajuste Direto Regime Geral,Aquisição de bens móveis,"33600000-6, Produtos farmacêuticos","Instituto Português de Oncologia de Lisboa Francisco Gentil, E. P. E. (506361616)","LABORATÓRIOS PFIZER, LDA (500162166)","27.000,00 €",11-10-2016,24-05-2016,365 dias,"Portugal, Lisboa, Lisboa","Artigo 20.º, n.º 1, alínea a) do Código dos Contratos Públicos",,,,,,Não aplicável.,Não aplicável.,FALSE
AD143-2015-PEDIDO DE AUTORIZAÇÃO PARA 2 ª RENOVAÇÃO DO AD61-2014-PARA 2016,Ajuste Direto Regime Geral,Aquisição de bens móveis,"33600000-6, Produtos farmacêuticos","Instituto Português de Oncologia de Lisboa Francisco Gentil, E. P. E. (506361616)","NOVO NORDISK, LDA (501485210)","9.457,04 €",11-10-2016,28-10-2015,365 dias,"Portugal, Lisboa, Lisboa","Artigo 20.º, n.º 1, alínea a) do Código dos Contratos Públicos",,,,,,Não aplicável.,Não aplicável.,FALSE
AD80-2015-PEDIDO DE AUTORIZAÇÃO PARA A 2 ª RENOVAÇÃO DO AD69-2014 PARA 2016,Ajuste Direto Regime Geral,Aquisição de bens móveis,"33600000-6, Produtos farmacêuticos","Instituto Português de Oncologia de Lisboa Francisco Gentil, E. P. E. (506361616)","CELGENE SOCIEDADE UNIPESSOAL, LDA (507791690)","1.137.599,19 €",11-10-2016,19-11-2015,365 dias,"Portugal, Lisboa, Lisboa","Artigo 24.º, n.º 1, alínea e) do Código dos Contratos Públicos",,,,,,Não aplicável.,Não aplicável.,FALSE
AD82-2015 PEDIDO DE AUTORIZAÇÃO PARA 2ª RENOVAÇÃO DO AD67-2014 PARA 2016,Ajuste Direto Regime Geral,Aquisição de bens móveis,"33600000-6, Produtos farmacêuticos","Instituto Português de Oncologia de Lisboa Francisco Gentil, E. P. E. (506361616)",CELGENE SOCIEDADE UNIPESSOAL LDA (507791690),"562.476,10 €",11-10-2016,07-01-2016,365 dias,"Portugal, Lisboa, Lisboa","Artigo 24.º, n.º 1, alínea e) do Código dos Contratos Públicos",,,,,,Não aplicável.,Não aplicável.,FALSE
AD84-2016RENOVAÇÃO DOS CONTRATOS AD66--2014PARA 2016,Ajuste Direto Regime Geral,Aquisição de bens móveis,"33600000-6, Produtos farmacêuticos","Instituto Português de Oncologia de Lisboa Francisco Gentil, E. P. E. (506361616)",CELGENE SOCIEDADE UNIPESSOAL LDA (507791690),"1.416.000,00 €",11-10-2016,15-01-2016,365 dias,"Portugal, Lisboa, Lisboa","Artigo 24.º, n.º 1, alínea e) do Código dos Contratos Públicos",,,,,,Não aplicável.,Não aplicável.,FALSE
AD143-2015 PEDIDO DE AUTORIZAÇÃO PARA 2ª RENOVAÇÃOAO AD61-2014 PARA 2016,Ajuste Direto Regime Geral,Aquisição de bens móveis,"33600000-6, Produtos farmacêuticos","Instituto Português de Oncologia de Lisboa Francisco Gentil, E. P. E. (506361616)","NOVO NORDISK, LDA (501485210)","9.487,04 €",11-10-2016,28-10-2015,365 dias,"Portugal, Lisboa, Lisboa","Artigo 24.º, n.º 1, alínea e) do Código dos Contratos Públicos",,,,,,Não aplicável.,Não aplicável.,FALSE
