Objeto do Contrato,Tipo de Procedimento,Tipo(s) de Contrato,CPVs,Entidade(s) Adjudicante(s),Entidade(s) Adjudicatária(s),Preço Contratual,Data de Publicação,Data de Celebração do Contrato,Prazo de Execução,Local de Execução,Fundamentação,Data de Fecho do Contrato,Preço Total Efetivo,Causas das Alterações ao Prazo,Causas das Alterações ao Preço,Estado,N.º registo do Acordo Quadro,Descrição do Acordo Quadro,Procedimento Centralizado
PRESTACAO DE SERVICOS DE MEDICINA DO TRABALHO MES JANEIRO 2012,Ajuste Direto Regime Geral,Aquisição de serviços,"85147000-1, Serviços de medicina do trabalho",Centro Hospitalar Psiquiatrico de Lisboa (508338476),MEDIPERITUS (509263020),"1.350,00 €",28-02-2013,03-01-2012,0 dias,"Portugal, Lisboa, Lisboa","Artigo 24.º, n.º 1, alínea c) do Código dos Contratos Públicos",31-01-2012,"1.350,00 €",,,,Não aplicável.,Não aplicável.,
MANUTENCAO DO APARELHO DE NEUROFISIOLOGIA,Ajuste Direto Regime Geral,Aquisição de serviços,"50000000-5, Serviços de reparação e manutenção",Centro Hospitalar Psiquiatrico de Lisboa (508338476),SANO-TECNICA (500239819),"1.737,00 €",28-02-2013,02-01-2012,365 dias,"Portugal, Lisboa, Lisboa","Artigo 27.º, n.º 1, alínea f) do Código dos Contratos Públicos",31-12-2012,"1.737,00 €",,,,Não aplicável.,Não aplicável.,
ASSISTENCIA TECNICA APARELHO DO ECT-ANO 2012,Ajuste Direto Regime Geral,Aquisição de serviços,"50000000-5, Serviços de reparação e manutenção",Centro Hospitalar Psiquiatrico de Lisboa (508338476),NEURAL (502911212),"1.500,00 €",27-02-2013,02-01-2012,365 dias,"Portugal, Lisboa, Lisboa","Artigo 27.º, n.º 1, alínea f) do Código dos Contratos Públicos",31-12-2012,"1.500,00 €",,,,Não aplicável.,Não aplicável.,
ASSISTENCIA TECNICA AO DOSIMETROS,Ajuste Direto Regime Geral,Aquisição de serviços,"50000000-5, Serviços de reparação e manutenção",Centro Hospitalar Psiquiatrico de Lisboa (508338476),MEDICAL CONSULT (504092138),"280,00 €",27-02-2013,30-08-2012,120 dias,"Portugal, Lisboa, Lisboa","Artigo 27.º, n.º 1, alínea f) do Código dos Contratos Públicos",31-12-2012,"280,00 €",,,,Não aplicável.,Não aplicável.,
CONTRATOS DE MANUTENCAO AO SISTEMAS DE SEGURANCA DIVERSOS SERVICOS,Ajuste Direto Regime Geral,Aquisição de serviços,"50000000-5, Serviços de reparação e manutenção",Centro Hospitalar Psiquiatrico de Lisboa (508338476),NISCAYAH (506313131),"846,00 €",27-02-2013,02-01-2012,365 dias,"Portugal, Lisboa, Lisboa","Artigo 27.º, n.º 1, alínea f) do Código dos Contratos Públicos",31-12-2012,"846,00 €",,,,Não aplicável.,Não aplicável.,
ASSISTENCIA TECNICA A MAQUINA EMBALAR COMPRIMIDOS,Ajuste Direto Regime Geral,Aquisição de serviços,"50000000-5, Serviços de reparação e manutenção",Centro Hospitalar Psiquiatrico de Lisboa (508338476),GRIFOLS (502041285),"2.311,00 €",27-02-2013,02-01-2012,365 dias,"Portugal, Lisboa, Lisboa","Artigo 27.º, n.º 1, alínea f) do Código dos Contratos Públicos",31-12-2012,"2.311,00 €",,,,Não aplicável.,Não aplicável.,
ASSISTENCIA TECNICA A MAQUINA KARDEX DA FARMACIA-ANO 2012,Ajuste Direto Regime Geral,Aquisição de serviços,"50000000-5, Serviços de reparação e manutenção",Centro Hospitalar Psiquiatrico de Lisboa (508338476),GRIFOLS (502041285),"1.864,00 €",26-02-2013,02-01-2012,365 dias,"Portugal, Lisboa, Lisboa","Artigo 27.º, n.º 1, alínea f) do Código dos Contratos Públicos",31-12-2012,"1.864,00 €",,,,Não aplicável.,Não aplicável.,
ASSISTENCIA TECNICA AO EQUIPAMENTO DE FRIO E ELECTRICO-ANO 2012,Ajuste Direto Regime Geral,Aquisição de serviços,"50000000-5, Serviços de reparação e manutenção",Centro Hospitalar Psiquiatrico de Lisboa (508338476),PINTO & CRUZ (500217904),"8.500,00 €",26-02-2013,02-01-2012,365 dias,"Portugal, Lisboa, Lisboa","Artigo 27.º, n.º 1, alínea f) do Código dos Contratos Públicos",31-12-2012,"8.500,00 €",,,,Não aplicável.,Não aplicável.,
aquisição de equipamento polissonografico,Ajuste Direto Regime Geral,Aquisição de bens móveis,"30236000-2, Equipamento informático diverso",Centro Hospitalar Psiquiatrico de Lisboa (508338476),Spacemedical (507662407),"24.582,50 €",26-02-2013,11-12-2012,12 dias,"Portugal, Lisboa, Lisboa","Artigo 24.º, n.º 1, alínea a) do Código dos Contratos Públicos",11-12-2012,"24.582,50 €",,,,Não aplicável.,Não aplicável.,
PACOTE  DE 6000 SMS/MENSAIS-ANO 2012,Ajuste Direto Regime Geral,Aquisição de serviços,"64212100-6, Serviço de Mensagens Curtas (SMS)",Centro Hospitalar Psiquiatrico de Lisboa (508338476),TMN (502600268),"4.320,00 €",25-02-2013,26-12-2012,365 dias,"Portugal, Lisboa, Lisboa","Artigo 26.º, n.º 2, alínea a) do Código dos Contratos Públicos",31-12-2012,"4.320,00 €",,,,Não aplicável.,Não aplicável.,
FORNECIMENTO E MONTAGEM ELECTRICA PARA O PAV. 40,Ajuste Direto Regime Geral,Aquisição de serviços,"51110000-6, Serviços de instalação de equipamento eléctrico",Centro Hospitalar Psiquiatrico de Lisboa (508338476),AMPERMAGO (508125871),"14.306,83 €",25-02-2013,19-03-2012,24 dias,"Portugal, Lisboa, Lisboa","Artigo 20.º, n.º 1, alínea a) do Código dos Contratos Públicos",19-03-2012,"14.306,83 €",,,,Não aplicável.,Não aplicável.,
SERVICOS POSTAIS-ANO 2012,Ajuste Direto Regime Geral,Aquisição de serviços,"98390000-3, Outros serviços",Centro Hospitalar Psiquiatrico de Lisboa (508338476),CTT-CORREIOS DE PORTUGAL (500077568),"18.000,00 €",25-02-2013,02-01-2012,365 dias,"Portugal, Lisboa, Lisboa","Artigo 24.º, n.º 1, alínea e) do Código dos Contratos Públicos",31-12-2012,"18.000,00 €",,,,Não aplicável.,Não aplicável.,
PUBLICACAO NºS TELEFONE DO CHPL NAS PAGINAS BRANCAS-ANO 2012,Ajuste Direto Regime Geral,Aquisição de serviços,"79970000-4, Serviços de publicação",Centro Hospitalar Psiquiatrico de Lisboa (508338476),PAGINAS AMARELAS (503103578),"4.400,00 €",25-02-2013,02-01-2012,365 dias,"Portugal, Lisboa, Lisboa","Artigo 27.º, n.º 1, alínea f) do Código dos Contratos Públicos",31-12-2012,"4.400,00 €",,,,Não aplicável.,Não aplicável.,
MANUTENCAO DAS FOTOCOPIADORAS NASHUATEC-1º TRIMESTRE,Ajuste Direto Regime Geral,Aquisição de serviços,"50000000-5, Serviços de reparação e manutenção",Centro Hospitalar Psiquiatrico de Lisboa (508338476),BELTRAO COELHO (504654748),"2.136,00 €",25-02-2013,20-01-2012,0 dias,"Portugal, Lisboa, Lisboa","Artigo 27.º, n.º 1, alínea f) do Código dos Contratos Públicos",31-03-2012,"2.136,00 €",,,,Não aplicável.,Não aplicável.,
VERIFICACAO E LIMPEZA DO TECTO FILTRANTE NO SERVICO DE ALIMENTACAO E DIETETICA,Ajuste Direto Regime Geral,Aquisição de serviços,"98390000-3, Outros serviços",Centro Hospitalar Psiquiatrico de Lisboa (508338476),"ARFRESCO, LDA. (501399135)","4.520,00 €",25-02-2013,30-01-2012,0 dias,"Portugal, Lisboa, Lisboa","Artigo 20.º, n.º 1, alínea a) do Código dos Contratos Públicos",27-03-2012,"4.520,00 €",,,,Não aplicável.,Não aplicável.,
TRABALHOS QUE PERMITAM A SAIDA DA BAIXA TENSAO DO PAVILHAO 28,Ajuste Direto Regime Geral,Aquisição de serviços,"98390000-3, Outros serviços",Centro Hospitalar Psiquiatrico de Lisboa (508338476),COLARINHA (500066540),"8.980,00 €",25-02-2013,07-02-2012,0 dias,"Portugal, Lisboa, Lisboa","Artigo 20.º, n.º 1, alínea a) do Código dos Contratos Públicos",07-02-2012,"8.980,00 €",,,,Não aplicável.,Não aplicável.,
INTALAÇÃO DE PONTOS DE REDE EM DIV. SERVIÇOS,Ajuste Direto Regime Geral,Aquisição de serviços,"51611000-8, Serviços de instalação de computadores",Centro Hospitalar Psiquiatrico de Lisboa (508338476),DEMOSI (508144396),"6.198,92 €",22-02-2013,03-08-2012,2 dias,"Portugal, Lisboa, Lisboa","Artigo 20.º, n.º 1, alínea a) do Código dos Contratos Públicos",03-08-2012,"6.198,92 €",,,,Não aplicável.,Não aplicável.,
REGULARIZACAO FATURA ONI,Ajuste Direto Regime Geral,Aquisição de serviços,"64200000-8, Serviços de telecomunicações",Centro Hospitalar Psiquiatrico de Lisboa (508338476),ONI (504073206),"1.903,00 €",22-02-2013,19-07-2012,0 dias,"Portugal, Lisboa, Lisboa","Artigo 20.º, n.º 1, alínea a) do Código dos Contratos Públicos",31-07-2012,"1.903,00 €",,,,Não aplicável.,Não aplicável.,
DESMONTAGEM E MONTAGEM DE AR CONDICIONADO,Ajuste Direto Regime Geral,Aquisição de serviços,"50000000-5, Serviços de reparação e manutenção",Centro Hospitalar Psiquiatrico de Lisboa (508338476),TECNIMOITA (502757949),"400,00 €",22-02-2013,03-08-2012,0 dias,"Portugal, Lisboa, Lisboa","Artigo 20.º, n.º 1, alínea a) do Código dos Contratos Públicos",03-08-2012,"400,00 €",,,,Não aplicável.,Não aplicável.,
REPARACAO DE DIVERSO EQUIPAMENTO DA COZINHA,Ajuste Direto Regime Geral,Aquisição de serviços,"50000000-5, Serviços de reparação e manutenção",Centro Hospitalar Psiquiatrico de Lisboa (508338476),SUCH (500900469),"7.621,00 €",22-02-2013,08-05-2012,0 dias,"Portugal, Lisboa, Lisboa","Artigo 20.º, n.º 1, alínea a) do Código dos Contratos Públicos",10-05-2012,"7.621,00 €",,,,Não aplicável.,Não aplicável.,
aquisição de detergentes,Ajuste Direto Regime Geral,Aquisição de bens móveis,"39831200-8, Detergentes",Centro Hospitalar Psiquiatrico de Lisboa (508338476),"Alvaro Henriques & Filhos, Lda (502031875), RIOQUIMICA - PROD.QUIMICOS DE MANUTENÇÃO (502388501), JODEL - Produtos Quimicos, SA (500618860)","3.465,16 €",21-02-2013,02-01-2013,365 dias,"Portugal, Lisboa, Lisboa","Artigo 20.º, n.º 1, alínea a) do Código dos Contratos Públicos",31-12-2013,"3.465,16 €",,,,Não aplicável.,Não aplicável.,
aquisição de sacos plasticos varios tamanhos,Ajuste Direto Regime Geral,Aquisição de bens móveis,"19640000-4, Sacos de polietileno para recolha de lixo e resíduos",Centro Hospitalar Psiquiatrico de Lisboa (508338476),"PLASTICOLORS - Transformação de Matérias Plásticas, Lda (504183346), JROSÁRIO, LDA. (502064838), Alvaro Henriques & Filhos, Lda (502031875)","16.735,75 €",21-02-2013,02-01-2013,365 dias,"Portugal, Lisboa, Lisboa","Artigo 20.º, n.º 1, alínea a) do Código dos Contratos Públicos",31-12-2013,"16.735,75 €",,,,Não aplicável.,Não aplicável.,
aquisição de varios produtos de higiène,Ajuste Direto Regime Geral,Aquisição de bens móveis,"39830000-9, Produtos de limpeza",Centro Hospitalar Psiquiatrico de Lisboa (508338476),"FITISAN, LDA. (506320073), Alvaro Henriques & Filhos, Lda (502031875)","6.067,39 €",21-02-2013,11-01-2013,365 dias,"Portugal, Lisboa, Lisboa","Artigo 20.º, n.º 1, alínea a) do Código dos Contratos Públicos",31-12-2013,"6.067,39 €",,,,Não aplicável.,Não aplicável.,
TAXA CONSERVACAO DE ESGOTOS,Ajuste Direto Regime Geral,Aquisição de serviços,"98390000-3, Outros serviços",Centro Hospitalar Psiquiatrico de Lisboa (508338476),CAMARA MUNICIPAL DE LISBOA (500051070),"14.595,00 €",21-02-2013,20-03-2012,365 dias,"Portugal, Lisboa, Lisboa","Artigo 24.º, n.º 1, alínea e) do Código dos Contratos Públicos",20-03-2012,"14.595,00 €",,,,Não aplicável.,Não aplicável.,
aquisição de varios materiais descartaveis,Ajuste Direto Regime Geral,Aquisição de bens móveis,"39222110-8, Pratos e talheres descartáveis",Centro Hospitalar Psiquiatrico de Lisboa (508338476),"Bastos Viegas, SA (500042772), MUNDISAN - Papeis e Produtos de Higiene, Lda (502729252), ARTUR E GUERREIRO, LDA (503897787)","4.221,11 €",21-02-2013,08-11-2012,365 dias,"Portugal, Lisboa, Lisboa","Artigo 20.º, n.º 1, alínea a) do Código dos Contratos Públicos",31-12-2013,"4.221,11 €",,,,Não aplicável.,Não aplicável.,
MANUTENCAO DOS SERVIDORES DE SUPORTES A APLICACAO SONHO,Ajuste Direto Regime Geral,Aquisição de serviços,"50312310-1, Manutenção de equipamento para redes de dados",Centro Hospitalar Psiquiatrico de Lisboa (508338476),ATMINFORMATICA2-SOLUCOES E SISTEMAS (504062859),"4.640,00 €",21-02-2013,30-03-2012,270 dias,"Portugal, Lisboa, Lisboa","Artigo 27.º, n.º 1, alínea f) do Código dos Contratos Públicos",31-12-2012,"4.640,00 €",,,,Não aplicável.,Não aplicável.,
aquisição de toalhetes e toalhas de papel,Ajuste Direto Regime Geral,Aquisição de bens móveis,"33763000-6, Toalhas de mão de papel",Centro Hospitalar Psiquiatrico de Lisboa (508338476),"HIGIENE PLUS, LDA. (503637530)","11.604,84 €",21-02-2013,14-12-2012,365 dias,"Portugal, Lisboa, Lisboa","Artigo 20.º, n.º 1, alínea a) do Código dos Contratos Públicos",31-12-2013,"11.604,84 €",,,,Não aplicável.,Não aplicável.,
REPARACAO DAS REDES DE AQUECIMENTO DAS AGUAS QUENTES E  VAPOR,Ajuste Direto Regime Geral,Aquisição de serviços,"50000000-5, Serviços de reparação e manutenção",Centro Hospitalar Psiquiatrico de Lisboa (508338476),SUCH (500900469),"7.285,00 €",21-02-2013,23-04-2012,0 dias,"Portugal, Lisboa, Lisboa","Artigo 20.º, n.º 1, alínea a) do Código dos Contratos Públicos",23-04-2012,"7.285,00 €",,,,Não aplicável.,Não aplicável.,
aquisição de papel higiènico,Ajuste Direto Regime Geral,Aquisição de bens móveis,"33761000-2, Papel higiénico",Centro Hospitalar Psiquiatrico de Lisboa (508338476),"MUNDISAN, LDA (502729252), ARTUR E GUERREIRO, LDA. (503897787)","8.226,00 €",21-02-2013,02-01-2013,365 dias,"Portugal, Lisboa, Lisboa","Artigo 20.º, n.º 1, alínea a) do Código dos Contratos Públicos",31-12-2013,"8.226,00 €",,,,Não aplicável.,Não aplicável.,
aquisição de varios materiais para electroconvulsivoterapia,Ajuste Direto Regime Geral,Aquisição de bens móveis,"33698000-9, Produtos para fins clínicos",Centro Hospitalar Psiquiatrico de Lisboa (508338476),"NEURAL, LDA. (502911212), INTERSURGICAL (503480045)","8.859,20 €",21-02-2013,09-11-2012,365 dias,"Portugal, Lisboa, Lisboa","Artigo 20.º, n.º 1, alínea a) do Código dos Contratos Públicos",31-12-2013,"8.859,20 €",,,,Não aplicável.,Não aplicável.,
