Objeto do Contrato,Tipo de Procedimento,Tipo(s) de Contrato,CPVs,Entidade(s) Adjudicante(s),Entidade(s) Adjudicatária(s),Preço Contratual,Data de Publicação,Data de Celebração do Contrato,Prazo de Execução,Local de Execução,Fundamentação,Data de Fecho do Contrato,Preço Total Efetivo,Causas das Alterações ao Prazo,Causas das Alterações ao Preço,Estado,N.º registo do Acordo Quadro,Descrição do Acordo Quadro,Procedimento Centralizado
"Contrato de aquisição de serviços de Manutenção do software CARDIO, SGICM-DIET e Integrações-Glintt existentes no CHSJ,EPE, para o ano de 2015",Ajuste Direto Regime Geral,Aquisição de serviços,"50000000-5, Serviços de reparação e manutenção","Centro Hospitalar de São João, E. P. E. (509821197)","Glintt - Healthcare Solutions, S.A. (502479418)","40.956,27 €",21-10-2015,12-06-2015,365 dias,"Portugal, Porto, Porto","Artigo 24.º, n.º 1, alínea e) do Código dos Contratos Públicos",,,,,,Não aplicável.,Não aplicável.,FALSE
"Contrato de Manutenção, Licenciamento, Atualização e Assistência Técnica do software CMS XIO bem como o suporte ao seu Hardware, existente no CHSJ,EPE para o ano de 2015",Ajuste Direto Regime Geral,Aquisição de serviços,"50000000-5, Serviços de reparação e manutenção","Centro Hospitalar de São João, E. P. E. (509821197)","Avanço, S.A. (500264236)","19.951,19 €",21-10-2015,02-02-2015,365 dias,"Portugal, Porto, Porto","Artigo 24.º, n.º 1, alínea e) do Código dos Contratos Públicos",,,,,,Não aplicável.,Não aplicável.,FALSE
"Contrato de Manutenção e Assistência Técnica aos Dispensadores Automáticos de Medicamentos PYXIS, instalados no CHSJ, EPE para o ano de 2015",Ajuste Direto Regime Geral,Aquisição de serviços,"50000000-5, Serviços de reparação e manutenção","Centro Hospitalar de São João, E. P. E. (509821197)","Grifols, Lda (502041285)","25.307,55 €",21-10-2015,25-06-2015,365 dias,"Portugal, Porto, Porto","Artigo 24.º, n.º 1, alínea e) do Código dos Contratos Públicos",,,,,,Não aplicável.,Não aplicável.,FALSE
"Contrato de Manutenção e Assistência Técnica à Rede Estruturada existente no CHSJ, EPE, para o ano de 2015.",Ajuste Direto Regime Geral,Aquisição de serviços,"50000000-5, Serviços de reparação e manutenção","Centro Hospitalar de São João, E. P. E. (509821197)","GONKSYS, S.A. (510874169)","50.878,00 €",21-10-2015,18-02-2015,365 dias,"Portugal, Porto, Porto","Artigo 20.º, n.º 1, alínea a) do Código dos Contratos Públicos",,,,,,Não aplicável.,Não aplicável.,FALSE
"Contrato de Licenciamento do Kofax Workstations e Volume e do Software CVision Trapeze instalados no CHSJ, EPE para o ano de 2015",Ajuste Direto Regime Geral,Aquisição de serviços,"50000000-5, Serviços de reparação e manutenção","Centro Hospitalar de São João, E. P. E. (509821197)",WeMake-Tecnologias de Informação Lda. (506097250),"7.096,56 €",21-10-2015,19-02-2015,365 dias,"Portugal, Porto, Porto","Artigo 24.º, n.º 1, alínea e) do Código dos Contratos Públicos",,,,,,Não aplicável.,Não aplicável.,FALSE
"Contrato de Manutenção e Assistência Técnica ao software Maxpro instalado no CHSJ, EPE para o ano de 2015",Ajuste Direto Regime Geral,Aquisição de serviços,"50000000-5, Serviços de reparação e manutenção","Centro Hospitalar de São João, E. P. E. (509821197)","SISQUAL - Empresa de I&D de Sistemas Informáticos, Lda. (502772298)","26.388,13 €",21-10-2015,13-08-2015,365 dias,"Portugal, Porto, Porto","Artigo 24.º, n.º 1, alínea e) do Código dos Contratos Públicos",,,,,,Não aplicável.,Não aplicável.,FALSE
"Contrato de Manutenção e Assistência Técnica ao software B-ICU-Care instalado no CHSJ,EPE para o ano de 2015.",Ajuste Direto Regime Geral,Aquisição de serviços,"50000000-5, Serviços de reparação e manutenção","Centro Hospitalar de São João, E. P. E. (509821197)","B-Simple Sistemas de Informação, Lda. (506188841)","63.722,74 €",21-10-2015,02-06-2015,365 dias,"Portugal, Porto, Porto","Artigo 24.º, n.º 1, alínea e) do Código dos Contratos Públicos",,,,,,Não aplicável.,Não aplicável.,FALSE
"Contrato de Manutenção e Assistência Técnica aos equipamentos ABBOTT do CHSJ,EPE para o ano de 2015.",Ajuste Direto Regime Geral,Aquisição de serviços,"50000000-5, Serviços de reparação e manutenção","Centro Hospitalar de São João, E. P. E. (509821197)","ABBOTT LABORATÓRIOS, Lda. (500006148)","85.968,00 €",21-10-2015,10-03-2015,365 dias,"Portugal, Porto, Porto","Artigo 24.º, n.º 1, alínea e) do Código dos Contratos Públicos",,,,,,Não aplicável.,Não aplicável.,FALSE
Aquisição de Sildenafil,Ajuste Direto Regime Geral,Aquisição de bens móveis,"33640000-8, Medicamentos para o aparelho geniturinário e hormonas","Centro Hospitalar de São João, E. P. E. (509821197)","Rathiopharm - Com. e Ind. de Prod.Farmacêutica, Lda (502414910)","37.640,00 €",21-10-2015,20-02-2015,314 dias,"Portugal, Porto, Porto","Artigo 20.º, n.º 1, alínea a) do Código dos Contratos Públicos",,,,,,Não aplicável.,Não aplicável.,FALSE
