Objeto do Contrato,Tipo de Procedimento,Tipo(s) de Contrato,CPVs,Entidade(s) Adjudicante(s),Entidade(s) Adjudicatária(s),Preço Contratual,Data de Publicação,Data de Celebração do Contrato,Prazo de Execução,Local de Execução,Fundamentação,Data de Fecho do Contrato,Preço Total Efetivo,Causas das Alterações ao Prazo,Causas das Alterações ao Preço,Estado,N.º registo do Acordo Quadro,Descrição do Acordo Quadro,Procedimento Centralizado
Aquisição de Testes de Rotina p/ o Lab. Imunohematologia do CST Porto,Ajuste Direto Regime Geral,Aquisição de bens móveis,"33696200-7, Reagentes para análises ao sangue","Instituto Português do Sangue e da Transplantação, I. P. (502423943)","Immucor (Portugal), Lda (503007358)","13.008,00 €",03-08-2016,20-07-2016,180 dias,"Portugal, Porto, Porto","Artigo 26.º, n.º 1, alínea a) do Código dos Contratos Públicos",,,,,,Não aplicável.,Não aplicável.,FALSE
5700616 Aquisição de três agitadores de plaquetas,Ajuste Direto Regime Geral,Aquisição de bens móveis,"42900000-5, Maquinaria diversa genérica ou de finalidade específica","Instituto Português do Sangue e da Transplantação, I. P. (502423943)","FRESENIUS KABI PHARMA PORTUGAL, LDA (504293753)","7.050,00 €",02-08-2016,14-07-2016,272 dias,"Portugal, Lisboa, Lisboa","Artigo 20.º, n.º 1, alínea a) do Código dos Contratos Públicos",,,,,,Não aplicável.,Não aplicável.,FALSE
