Objeto do Contrato,Tipo de Procedimento,Tipo(s) de Contrato,CPVs,Entidade(s) Adjudicante(s),Entidade(s) Adjudicatária(s),Preço Contratual,Data de Publicação,Data de Celebração do Contrato,Prazo de Execução,Local de Execução,Fundamentação,Data de Fecho do Contrato,Preço Total Efetivo,Causas das Alterações ao Prazo,Causas das Alterações ao Preço,Estado,N.º registo do Acordo Quadro,Descrição do Acordo Quadro,Procedimento Centralizado
Aquisição de Dispositivos de Perfusão Subcutânea de Insulina e respetivos Consumíveis no âmbito do Programa Nacional para a Prevenção e Controlo da Diabetes (PND),Ao abrigo de acordo-quadro (art.º 259.º),Aquisição de bens móveis,"33194110-0, Bombas para perfusão","Centro Hospitalar do Baixo Vouga, E. P. E. (510123210)",MEDTRONIC PORTUGAL LDA (504223933),"6.840,00 €",02-01-2019,13-12-2018,19 dias,"Portugal, Aveiro, Aveiro",Artigo 259.º do Código dos Contratos Públicos,,,,,,1442148,ACORDO QUADRO PARA FORNECIMENTO DE BOMBAS DE PERFUSÃO SUBCUTANEA CONTINUA DE INSULINA E RESPETIVOS CONSUMÍVEIS ÀS INSTITUIÇÕES E SERVIÇOS DO SERVIÇO NACIONAL DE SAÚDE. CP 2015/29,TRUE
P259-2018-64 - Aquisição de Dispositivos de Perfusão Subcutânea de Insulina e respetivos Consumíveis no âmbito do Programa Nacional para a Prevenção e Controlo da Diabetes (PND),Ao abrigo de acordo-quadro (art.º 259.º),Aquisição de bens móveis,"33600000-6, Produtos farmacêuticos","Centro Hospitalar do Baixo Vouga, E.P.E. (510123210)","ROCHE SISTEMAS DIAGNÓSTICOS, LDA (504282921)","11.976,00 €",02-01-2019,31-10-2018,62 dias,"Portugal, Aveiro, Aveiro",Artigo 259.º do Código dos Contratos Públicos,,,,,,1442148,ACORDO QUADRO PARA FORNECIMENTO DE BOMBAS DE PERFUSÃO SUBCUTANEA CONTINUA DE INSULINA E RESPETIVOS CONSUMÍVEIS ÀS INSTITUIÇÕES E SERVIÇOS DO SERVIÇO NACIONAL DE SAÚDE. CP 2015/29,TRUE
