Objeto do Contrato,Tipo de Procedimento,Tipo(s) de Contrato,CPVs,Entidade(s) Adjudicante(s),Entidade(s) Adjudicatária(s),Preço Contratual,Data de Publicação,Data de Celebração do Contrato,Prazo de Execução,Local de Execução,Fundamentação,Data de Fecho do Contrato,Preço Total Efetivo,Causas das Alterações ao Prazo,Causas das Alterações ao Preço,Estado,N.º registo do Acordo Quadro,Descrição do Acordo Quadro,Procedimento Centralizado
CP 170011/2018-Aquisição e Instalação Equipamento Laboratório para Anatomia Patológica,Concurso público,Aquisição de bens móveis,"38000000-5, Equipamento laboratorial, óptico e de precisão (exc. óculos)","Hospital Distrital de Santarém, EPE (506361462)","Leica Microsistemas, Lda (500301921)","66.840,67 €",31-10-2018,01-10-2018,30 dias,"Portugal, Santarém, Santarém","Artigo 20.º, n.º 1, alínea a) do Código dos Contratos Públicos",,,,,,Não aplicável.,Não aplicável.,FALSE
Aquisição de Tubos de Mayo - 3Meses,Ajuste Direto Regime Geral,Aquisição de bens móveis,"33140000-3, Material médico de consumo","Hospital Distrital de Santarém, EPE (506361462)","Intersurgical Portugal, Lda (503480045)","180,20 €",31-10-2018,05-02-2018,90 dias,"Portugal, Santarém, Santarém","Artigo 20.º, n.º 1, alínea d) do Código dos Contratos Públicos",,,,,,Não aplicável.,Não aplicável.,FALSE
Aquisição de Algálias para 3 meses,Ajuste Direto Regime Geral,Aquisição de bens móveis,"33140000-3, Material médico de consumo","Hospital Distrital de Santarém, E. P. E. (506361462)","Coloplast Portugal, Lda (503989037)","1.422,75 €",30-10-2018,01-03-2018,90 dias,"Portugal, Santarém, Santarém","Artigo 20.º, n.º 1, alínea d) do Código dos Contratos Públicos",,,,,,Não aplicável.,Não aplicável.,FALSE
Aquisição de Ligadura Algodão Sintético p/ 3 Meses,Ajuste Direto Regime Geral,Aquisição de bens móveis,"33140000-3, Material médico de consumo","Hospital Distrital de Santarém, EPE (506361462)","Abilio Freire, Lda (500432600)","744,32 €",30-10-2018,09-02-2018,90 dias,"Portugal, Santarém, Santarém","Artigo 20.º, n.º 1, alínea d) do Código dos Contratos Públicos",,,,,,Não aplicável.,Não aplicável.,FALSE
Aquisição de Válvulas de Sucção,Ajuste Direto Regime Geral,Aquisição de bens móveis,"33140000-3, Material médico de consumo","Hospital Distrital de Santarém, EPE (506361462)","Olympus Iberia, S.A.U (980474710)","2.224,95 €",30-10-2018,14-02-2018,365 dias,"Portugal, Santarém, Santarém","Artigo 26.º, n.º 1, alínea a) do Código dos Contratos Públicos",,,,,,Não aplicável.,Não aplicável.,FALSE
"Aquisição de Sistema Standart p/ Bomba Volumétrica e Sensor de Respiração p/ Monitor """"Graseby""""",Ajuste Direto Regime Geral,Aquisição de bens móveis,"33140000-3, Material médico de consumo","Hospital Distrital de Santarém, E. P. E. (506361462)","SMITHS MEDICAL (PORTUGAL) UNIPESSOAL, LDA (507445937)","2.618,92 €",30-10-2018,10-05-2018,240 dias,"Portugal, Santarém, Santarém","Artigo 26.º, n.º 1, alínea a) do Código dos Contratos Públicos",,,,,,Não aplicável.,Não aplicável.,FALSE
Aquisição de Recargas p/ Agrafador - 2 meses,Ajuste Direto Regime Geral,Aquisição de bens móveis,"33140000-3, Material médico de consumo","Hospital Distrital de Santarém, E. P. E. (506361462)","Johnson&Johnson, Lda (500153370)","19.440,00 €",30-10-2018,01-06-2018,60 dias,"Portugal, Santarém, Santarém","Artigo 26.º, n.º 1, alínea a) do Código dos Contratos Públicos",,,,,,Não aplicável.,Não aplicável.,FALSE
"LÂMINAS, TUBOS E MICROTUBOS P/ LABORATÓRIO",Ajuste Direto Regime Geral,Aquisição de bens móveis,"33694000-1, Meios de diagnóstico","Hospital Distrital de Santarém, E. P. E. (506361462)","NORMAX, LDA. (500203130)","3.893,60 €",30-10-2018,28-09-2018,90 dias,Portugal,"Artigo 20.º, n.º 1, alínea d) do Código dos Contratos Públicos",,,,,,Não aplicável.,Não aplicável.,FALSE
"Aquisição de Sistemas para Bomba Infusora """"Volumat MC Agilia""""",Ajuste Direto Regime Geral,Aquisição de bens móveis,"33140000-3, Material médico de consumo","Hospital Distrital de Santarém, E. P. E. (506361462)","Fresenius Kabi  Pharma Portugal, Lda (504293753)","9.150,00 €",30-10-2018,10-05-2018,240 dias,"Portugal, Santarém, Santarém","Artigo 26.º, n.º 1, alínea a) do Código dos Contratos Públicos",,,,,,Não aplicável.,Não aplicável.,FALSE
Aquisição de Cuvete CO2 Descartável,Ajuste Direto Regime Geral,Aquisição de bens móveis,"33140000-3, Material médico de consumo","Hospital Distrital de Santarém, EPE (506361462)","Drager Portugal, Lda (508771323)","3.996,00 €",30-10-2018,09-04-2018,270 dias,"Portugal, Santarém, Santarém","Artigo 26.º, n.º 1, alínea a) do Código dos Contratos Públicos",,,,,,Não aplicável.,Não aplicável.,FALSE
"Aquisição de Prolongadores e Cassetes p/ Bomba Infusora """"CADD LEGACY""""",Ajuste Direto Regime Geral,Aquisição de bens móveis,"33140000-3, Material médico de consumo","Hospital Distrital de Santarém, EPE (506361462)","Smiths Medical (Portugal) Unipessoal, Lda (507445937)","3.304,00 €",30-10-2018,11-04-2018,270 dias,"Portugal, Santarém, Santarém","Artigo 26.º, n.º 1, alínea a) do Código dos Contratos Públicos",,,,,,Não aplicável.,Não aplicável.,FALSE
Aquisição de Indicador Biológico para Esterilização,Ajuste Direto Regime Geral,Aquisição de bens móveis,"33140000-3, Material médico de consumo","Hospital Distrital de Santarém, E. P. E. (506361462)","Johnson&Johnson,Lda (500153370)","859,50 €",30-10-2018,28-09-2018,90 dias,"Portugal, Santarém, Santarém","Artigo 20.º, n.º 1, alínea d) do Código dos Contratos Públicos",,,,,,Não aplicável.,Não aplicável.,FALSE
Aquisição de Kit/Reservatório Pressão Negativa,Ajuste Direto Regime Geral,Aquisição de bens móveis,"33140000-3, Material médico de consumo","Hospital Distrital de Santarém, E. P. E. (506361462)","J.M.V. - Produtos Hospitalares, Lda (501887148)","1.932,00 €",30-10-2018,01-10-2018,90 dias,"Portugal, Santarém, Santarém","Artigo 20.º, n.º 1, alínea d) do Código dos Contratos Públicos",,,,,,Não aplicável.,Não aplicável.,FALSE
Aquisição de Pensos p/ Queimados Esterilizados 40x60,Ajuste Direto Regime Geral,Aquisição de bens móveis,"33140000-3, Material médico de consumo","Hospital Distrital de Santarém, E. P. E. (506361462)","Docworld, Lda (508592909)","800,00 €",29-10-2018,28-09-2018,90 dias,"Portugal, Santarém, Santarém","Artigo 20.º, n.º 1, alínea d) do Código dos Contratos Públicos",,,,,,Não aplicável.,Não aplicável.,FALSE
Aquisição de Câmaras Expansoras,Ajuste Direto Regime Geral,Aquisição de bens móveis,"33140000-3, Material médico de consumo","Hospital Distrital de Santarém, E. P. E. (506361462)","Pulmocor - Equipamento Médico, SA (501402578)","1.745,00 €",25-10-2018,28-09-2018,90 dias,"Portugal, Santarém, Santarém","Artigo 20.º, n.º 1, alínea d) do Código dos Contratos Públicos",,,,,,Não aplicável.,Não aplicável.,FALSE
Aquisição de Conjunto Completo p/ Anestesia Epidural 18G II,Ajuste Direto Regime Geral,Aquisição de bens móveis,"33140000-3, Material médico de consumo","Hospital Distrital de Santarém, E. P. E. (506361462)","B.Braun Medical, Lda (501506543)","3.620,00 €",25-10-2018,15-10-2018,70 dias,"Portugal, Santarém, Santarém","Artigo 20.º, n.º 1, alínea d) do Código dos Contratos Públicos",,,,,,Não aplicável.,Não aplicável.,FALSE
Aquisição de prolongador arterial em espiral 100cm,Ajuste Direto Regime Geral,Aquisição de bens móveis,"33140000-3, Material médico de consumo","Hospital Distrital de Santarém, EPE (506361462)",Vygon (503232785),"1.361,70 €",25-10-2018,15-10-2018,90 dias,"Portugal, Santarém, Santarém","Artigo 20.º, n.º 1, alínea d) do Código dos Contratos Públicos",,,,,,Não aplicável.,Não aplicável.,FALSE
Aquisição de material de artroscopia,Ajuste Direto Regime Geral,Aquisição de bens móveis,"33140000-3, Material médico de consumo","Hospital Distrital de Santarém, EPE (506361462)",Smith & Nephew (503552461),"1.028,00 €",25-10-2018,15-10-2018,90 dias,"Portugal, Santarém, Santarém","Artigo 20.º, n.º 1, alínea d) do Código dos Contratos Públicos",,,,,,Não aplicável.,Não aplicável.,FALSE
Aquisição de Saco Simples c/ CPDA p/ Flebotomia c/ Sistema Torneira e Luer Lock,Ajuste Direto Regime Geral,Aquisição de bens móveis,"33140000-3, Material médico de consumo","Hospital Distrital de Santarém, E. P. E. (506361462)","Fresenius Kabi Pharma Portugal, Lda (504293753)","616,00 €",25-10-2018,17-10-2018,70 dias,"Portugal, Santarém, Santarém","Artigo 20.º, n.º 1, alínea d) do Código dos Contratos Públicos",,,,,,Não aplicável.,Não aplicável.,FALSE
420119/2018 Cobertura Microscópio Zeiss,Ajuste Direto Regime Geral,Aquisição de bens móveis,"33000000-0, Equipamento médico, medicamentos e produtos para cuidados pessoais","Hospital Distrital de Santarém, E. P. E. (506361462)",Molnlycke (511101066),"176,40 €",25-10-2018,02-10-2018,90 dias,"Portugal, Santarém, Santarém","Artigo 20.º, n.º 1, alínea d) do Código dos Contratos Públicos",,,,,,Não aplicável.,Não aplicável.,FALSE
Proteses parciais em titanio p/ cirurgia ouvido pronta a aplicar,Ajuste Direto Regime Geral,Aquisição de bens móveis,"33140000-3, Material médico de consumo","Hospital Distrital de Santarém, EPE (506361462)",Atos Medical (980435978),"2.520,00 €",25-10-2018,04-10-2018,90 dias,"Portugal, Santarém, Santarém","Artigo 20.º, n.º 1, alínea d) do Código dos Contratos Públicos",,,,,,Não aplicável.,Não aplicável.,FALSE
Aquisição suspensores vasculares e conj. extirpação veia safena,Ajuste Direto Regime Geral,Aquisição de bens móveis,"33140000-3, Material médico de consumo","Hospital Distrital de Santarém, E. P. E. (506361462)",B.Braun (501506543),"1.164,00 €",24-10-2018,02-10-2018,90 dias,"Portugal, Santarém, Santarém","Artigo 20.º, n.º 1, alínea d) do Código dos Contratos Públicos",,,,,,Não aplicável.,Não aplicável.,FALSE
Aquisição enxerto ósseo cerâmica sintética,Ajuste Direto Regime Geral,Aquisição de bens móveis,"33140000-3, Material médico de consumo","Hospital Distrital de Santarém, EPE (506361462)",Overpharma (505792362),"1.410,00 €",24-10-2018,25-09-2018,90 dias,"Portugal, Santarém, Santarém","Artigo 20.º, n.º 1, alínea d) do Código dos Contratos Públicos",,,,,,Não aplicável.,Não aplicável.,FALSE
Aquisição cobertura estéril CIV FLEX p/ sonda Eco Wirelessgrafo,Ajuste Direto Regime Geral,Aquisição de bens móveis,"33140000-3, Material médico de consumo","Hospital Distrital de Santarém, E. P. E. (506361462)",Multi-Lumen (504594680),"1.371,84 €",24-10-2018,28-09-2018,90 dias,"Portugal, Santarém, Santarém<BR/>Portugal","Artigo 20.º, n.º 1, alínea d) do Código dos Contratos Públicos",,,,,,Não aplicável.,Não aplicável.,TRUE
Aquisiçãode misturador cimento ósseo em seringa,Ajuste Direto Regime Geral,Aquisição de bens móveis,"33140000-3, Material médico de consumo","Hospital Distrital de Santarém, EPE (506361462)",heraeus (508322227),"1.050,00 €",24-10-2018,25-09-2018,90 dias,"Portugal, Santarém, Santarém","Artigo 20.º, n.º 1, alínea d) do Código dos Contratos Públicos",,,,,,Não aplicável.,Não aplicável.,FALSE
"Aquisição placa descartável, formato circular p/ utilização em canivete elétrico",Ajuste Direto Regime Geral,Aquisição de bens móveis,"33140000-3, Material médico de consumo","Hospital Distrital de Santarém, E. P. E. (506361462)",3M Sucursal portugal (980560241),"720,00 €",24-10-2018,28-09-2018,90 dias,"Portugal, Santarém, Santarém<BR/>Portugal","Artigo 20.º, n.º 1, alínea d) do Código dos Contratos Públicos",,,,,,Não aplicável.,Não aplicável.,FALSE
"Aquisição de Sistema p/ Dren Torácica c/ 3 Camar., c/ Valv. Desc. Pressão Negativa c/ Filtro, 2300CC",Ajuste Direto Regime Geral,Aquisição de bens móveis,"33140000-3, Material médico de consumo","Hospital Distrital de Santarém, E. P. E. (506361462)","Teleflex Medical, S.A. (980249783)","970,20 €",24-10-2018,17-10-2018,70 dias,"Portugal, Santarém, Santarém","Artigo 20.º, n.º 1, alínea d) do Código dos Contratos Públicos",,,,,,Não aplicável.,Não aplicável.,FALSE
"Aquisição de Agulha Uso Único, Romba, para Asp. e Irrig. s/ Filtro 18Gx1 1/2"""" (1.20x40)",Ajuste Direto Regime Geral,Aquisição de bens móveis,"33140000-3, Material médico de consumo","Hospital Distrital de Santarém, E. P. E. (506361462)","Smiths Medical, Lda (507445937)","2.680,00 €",23-10-2018,22-10-2018,70 dias,"Portugal, Santarém, Santarém","Artigo 20.º, n.º 1, alínea d) do Código dos Contratos Públicos",,,,,,Não aplicável.,Não aplicável.,FALSE
Conjunto Monotorização Pressões Fisiol. c/ Transductor/Linha Arterial,Ajuste Direto Regime Geral,Aquisição de bens móveis,"33140000-3, Material médico de consumo","Hospital Distrital de Santarém, E. P. E. (506361462)",Medicinália Cormédica (500684324),"2.950,00 €",23-10-2018,22-10-2018,80 dias,"Portugal, Santarém, Santarém","Artigo 20.º, n.º 1, alínea d) do Código dos Contratos Públicos",,,,,,Não aplicável.,Não aplicável.,FALSE
