Objeto do Contrato,Tipo de Procedimento,Tipo(s) de Contrato,CPVs,Entidade(s) Adjudicante(s),Entidade(s) Adjudicatária(s),Preço Contratual,Data de Publicação,Data de Celebração do Contrato,Prazo de Execução,Local de Execução,Fundamentação,Data de Fecho do Contrato,Preço Total Efetivo,Causas das Alterações ao Prazo,Causas das Alterações ao Preço,Estado,N.º registo do Acordo Quadro,Descrição do Acordo Quadro,Procedimento Centralizado
PALBOCICLIB 100MG CAPS,Ajuste Direto Regime Geral,Aquisição de bens móveis,"33600000-6, Produtos farmacêuticos","Centro Hospitalar Tondela-Viseu, E. P. E. (509822940)","PFIZER BIOFARMACÊUTICA, SOCIEDADE UNIPESSOAL,LDA. (513300376)","28.000,01 €",21-05-2018,18-05-2018,25 dias,"Portugal, Viseu, Viseu","Artigo 24.º, n.º 1, alínea e), subalínea iii) do Código dos Contratos Públicos",,,,,,Não aplicável.,Não aplicável.,FALSE
FIBRA OTICA PARA LASER (LITOTRICIA),Ajuste Direto Regime Geral,Aquisição de bens móveis,"33140000-3, Material médico de consumo","Centro Hospitalar Tondela-Viseu, E. P. E. (509822940)",BOSTON  SCIENTIFIC  PORTUGAL -DISPOSITIVOS MÉDICOS (504988964),"12.900,00 €",21-05-2018,08-05-2018,150 dias,"Portugal, Viseu, Viseu","Artigo 24.º, n.º 1, alínea e), subalínea i) do Código dos Contratos Públicos",,,,,,Não aplicável.,Não aplicável.,FALSE
NAB-PACLITAXEL 100MG AMP,Ajuste Direto Regime Geral,Aquisição de bens móveis,"33600000-6, Produtos farmacêuticos","Centro Hospitalar Tondela-Viseu, E. P. E. (509822940)","CELGENE SOCIEDADE UNIP., LDA (507791690)","16.500,00 €",16-05-2018,15-05-2018,20 dias,"Portugal, Viseu, Viseu","Artigo 24.º, n.º 1, alínea e), subalínea iii) do Código dos Contratos Públicos",,,,,,Não aplicável.,Não aplicável.,FALSE
PROTESE FONATORIA DE IMPLANTAÇÃO POS-CIRURGICA 8MMX22.5FR,Ajuste Direto Regime Geral,Aquisição de bens móveis,"33184000-3, Próteses","Centro Hospitalar Tondela-Viseu, E. P. E. (509822940)",Atos Medical (980435978),"9.750,00 €",15-05-2018,28-03-2018,180 dias,"Portugal, Viseu, Viseu","Artigo 24.º, n.º 1, alínea e), subalínea iii) do Código dos Contratos Públicos",,,,,,Não aplicável.,Não aplicável.,FALSE
STENT CORONARIO COM FARMACO PRE MONTADO EM BALÃO PARA A C T P,Ajuste Direto Regime Geral,Aquisição de bens móveis,"33184300-6, Próteses cardíacas","Centro Hospitalar Tondela-Viseu, E. P. E. (509822940)","MEDTRONIC PORTUGAL, LDA (504223933)","99.200,00 €",15-05-2018,09-03-2018,150 dias,"Portugal, Viseu, Viseu","Artigo 24.º, n.º 1, alínea c) do Código dos Contratos Públicos",,,,,,Não aplicável.,Não aplicável.,FALSE
KIT IMPLANTE DO SPINEJACK,Ajuste Direto Regime Geral,Aquisição de bens móveis,"33183100-7, Implantes ortopédicos","Centro Hospitalar Tondela-Viseu, E. P. E. (509822940)",NEUROWAVE (508537150),"25.750,00 €",15-05-2018,19-10-2017,365 dias,"Portugal, Viseu, Viseu","Artigo 20.º, n.º 1, alínea a) do Código dos Contratos Públicos",,,,,,Não aplicável.,Não aplicável.,FALSE
DIVERSO MATERIAL DE CONSUMO CLINICO,Ajuste Direto Regime Geral,Aquisição de bens móveis,"33141300-3, Aparelhos para punção venosa e recolha de sangue","Centro Hospitalar Tondela-Viseu, E. P. E. (509822940)","INTERSURGICAL PORTUGAL, LDA (503480045)","10.208,75 €",15-05-2018,22-12-2017,365 dias,"Portugal, Viseu, Viseu","Artigo 20.º, n.º 1, alínea a) do Código dos Contratos Públicos",,,,,,Não aplicável.,Não aplicável.,FALSE
1R/00181/18_MEIOS P/ REAL.ANÁL.CLIN.HEMATOLOGIA (HEMOGRAMAS) (2) (AQ_3R/00130/17),Ajuste Direto Regime Geral,Aquisição de bens móveis,"33696500-0, Reagentes de laboratório","Centro Hospitalar Tondela-Viseu, E. P. E. (509822940)","Beckman Coulter Portugal Unip.,Lda (509035167)","66.721,55 €",15-05-2018,01-03-2018,365 dias,"Portugal, Viseu, Viseu","Artigo 26.º, n.º 1, alínea e) do Código dos Contratos Públicos",,,,,,Não aplicável.,Não aplicável.,FALSE
1R/00501/18 -Reagente: AG STREPTO PESQ URINA,Ajuste Direto Regime Geral,Aquisição de bens móveis,"33696500-0, Reagentes de laboratório","Centro Hospitalar Tondela-Viseu, E. P. E. (509822940)","ALERE, LDA (502518863)","12.192,40 €",15-05-2018,02-05-2018,365 dias,"Portugal, Viseu, Viseu","Artigo 24.º, n.º 1, alínea b) do Código dos Contratos Públicos",,,,,,Não aplicável.,Não aplicável.,FALSE
PRESTAÇÃO CUIDADOS DE SAUDE EM INTERNAMENTO DE DOENTES DO CHTV,Ajuste Direto Regime Geral,Aquisição de serviços,"85111000-0, Serviços hospitalares","Centro Hospitalar Tondela-Viseu, E. P. E. (509822940)",CASA DE SAUDE S. MATEUS (500329397),"116.265,60 €",11-05-2018,11-01-2018,55 dias,"Portugal, Viseu, Viseu","Artigo 24.º, n.º 1, alínea c) do Código dos Contratos Públicos",,,,,,Não aplicável.,Não aplicável.,FALSE
CALPROTECTINA - REAGENTE (CX 64 T) (Concurso Público 3R/00997/16),Ajuste Direto Regime Geral,Aquisição de bens móveis,"33696500-0, Reagentes de laboratório","Centro Hospitalar Tondela-Viseu, E. P. E. (509822940)","THERMO FISHER DIAGNOSTICS, SOC.UNIP.LDA. (506916243)","28.288,00 €",11-05-2018,14-03-2018,60 dias,"Portugal, Viseu, Viseu","Artigo 24.º, n.º 1, alínea e), subalínea ii) do Código dos Contratos Públicos",,,,,,Não aplicável.,Não aplicável.,FALSE
