Objeto do Contrato,Tipo de Procedimento,Tipo(s) de Contrato,CPVs,Entidade(s) Adjudicante(s),Entidade(s) Adjudicatária(s),Preço Contratual,Data de Publicação,Data de Celebração do Contrato,Prazo de Execução,Local de Execução,Fundamentação,Data de Fecho do Contrato,Preço Total Efetivo,Causas das Alterações ao Prazo,Causas das Alterações ao Preço,Estado,N.º registo do Acordo Quadro,Descrição do Acordo Quadro,Procedimento Centralizado
4I0019/2017 Contentores e seringas,Ao abrigo de acordo-quadro (art.º 259.º),Aquisição de bens móveis,"33000000-0, Equipamento médico, medicamentos e produtos para cuidados pessoais","Centro Hospitalar Barreiro Montijo, E. P. E. (509186998)","QUILABAN - QUIMICA LABORATORIAL ANALITICA, SA (500399670)","163,00 €",08-06-2017,26-01-2017,30 dias,"Portugal, Setúbal, Barreiro",Artigo 259.º do Código dos Contratos Públicos,26-01-2017,"163,00 €",,"",,1341769,"ACORDO QUADRO PARA FORNECIMENTO DE SERINGAS, AGULHAS E CONTENTORES ÀS INSTITUIÇÕES E SERVIÇOS DO SERVIÇO NACIONAL DE SAÚDE PROGRAMA DE CONCURSO",FALSE
4I0019/2017 Contentores e seringas,Ao abrigo de acordo-quadro (art.º 259.º),Aquisição de bens móveis,"33000000-0, Equipamento médico, medicamentos e produtos para cuidados pessoais","Centro Hospitalar Barreiro Montijo, E. P. E. (509186998)","Overpharma, Lda. (505792362)","356,00 €",08-06-2017,26-01-2017,30 dias,"Portugal, Setúbal, Barreiro",Artigo 259.º do Código dos Contratos Públicos,26-01-2017,"356,00 €",,"",,1341769,"ACORDO QUADRO PARA FORNECIMENTO DE SERINGAS, AGULHAS E CONTENTORES ÀS INSTITUIÇÕES E SERVIÇOS DO SERVIÇO NACIONAL DE SAÚDE PROGRAMA DE CONCURSO",FALSE
4S0010/2017 DOSIMETRIA INDIVIDUAL PARA ANO 2017,Ajuste Direto Regime Geral,Aquisição de serviços,"85000000-9, Serviços de saúde e acção social","Centro Hospitalar Barreiro Montijo, E. P. E. (509186998)","Medicalconsult, Sociedade Unipessoal, Lda. (504092138)","5.004,00 €",31-05-2017,23-12-2016,365 dias,"Portugal, Setúbal, Barreiro","Artigo 20.º, n.º 1, alínea a) do Código dos Contratos Públicos",31-12-2017,"4.041,58 €",,CONSUMO FETIVO INFERIOR AO ESTIMADO,,Não aplicável.,Não aplicável.,FALSE
"4CPS0002/2017 Fornecimento de Serviços de Telerradiologia ao CHBM, EPE",Ajuste Direto Regime Geral,Aquisição de serviços,"85150000-5, Serviços de imagiologia médica","CHBM - Centro Hospital Barreiro Montijo, EPE (509186998)","I.T.M. - Instituto de Telemedicina, Lda (506705641)","165.900,00 €",31-05-2017,04-01-2017,365 dias,"Portugal, Setúbal, Barreiro","Artigo 27.º, n.º 1, alínea a) do Código dos Contratos Públicos",31-12-2017,"162.989,00 €",,CONSUMO EFETIVO INFERIOR AO ESTIMADO,,Não aplicável.,Não aplicável.,FALSE
4EXC0020/2017 CAMARA DE IONIZAÇAO P A RADIOTERAPIA,Ajuste Direto Regime Geral,Locação de bens móveis<br/>Aquisição de bens móveis,"33000000-0, Equipamento médico, medicamentos e produtos para cuidados pessoais","Centro Hospitalar Barreiro Montijo, E. P. E. (509186998)","IBERVOXEL - EQUIP. MÉD. E DE LAB., UNIPESSOAL, LDA (506716899)","8.992,00 €",31-05-2017,09-03-2017,120 dias,"Portugal, Setúbal, Barreiro","Artigo 24.º, n.º 1, alínea e) do Código dos Contratos Públicos",16-05-2017,"8.992,00 €",,"",,Não aplicável.,Não aplicável.,FALSE
