Objeto do Contrato,Tipo de Procedimento,Tipo(s) de Contrato,CPVs,Entidade(s) Adjudicante(s),Entidade(s) Adjudicatária(s),Preço Contratual,Data de Publicação,Data de Celebração do Contrato,Prazo de Execução,Local de Execução,Fundamentação,Data de Fecho do Contrato,Preço Total Efetivo,Causas das Alterações ao Prazo,Causas das Alterações ao Preço,Estado,N.º registo do Acordo Quadro,Descrição do Acordo Quadro,Procedimento Centralizado
Aquisição de Gases Especiais de Laboratório_NPD5493002887.,Ajuste Direto Regime Geral,Aquisição de bens móveis,"24100000-5, Gases","INFARMED - Autoridade Nacional do Medicamento e Produtos de Saúde, I. P. (600037002)","PRAXAIR PORTUGAL GASES, S.A. (501738916)","18.968,71 €",17-07-2018,28-06-2018,730 dias,Portugal,"Artigo 20.º, n.º 1, alínea d) do Código dos Contratos Públicos",,,,,,Não aplicável.,Não aplicável.,FALSE
"Aquisição de Serviços de Manutenção de Equipamento e da Infraestrutura do Datacenter, do INFARMED, I.P. NPD_5493002854 Outorga de contrato, nos termos do procedimento refª 00136/2018, tramitado pela SPMS",Consulta Prévia,Aquisição de serviços,"72000000-5, Serviços de TI: consultoria, desenvolvimento de software, Internet e apoio","INFARMED - Autoridade Nacional do Medicamento e Produtos de Saúde, I. P. (600037002)","Warpcom Services, S.A. (505134195)","72.947,87 €",12-07-2018,27-06-2018,365 dias,Portugal,"Artigo 20.º, n.º 1, alínea c) do Código dos Contratos Públicos",,,,,,Não aplicável.,Não aplicável.,FALSE
