Objeto do Contrato,Tipo de Procedimento,Tipo(s) de Contrato,CPVs,Entidade(s) Adjudicante(s),Entidade(s) Adjudicatária(s),Preço Contratual,Data de Publicação,Data de Celebração do Contrato,Prazo de Execução,Local de Execução,Fundamentação,Data de Fecho do Contrato,Preço Total Efetivo,Causas das Alterações ao Prazo,Causas das Alterações ao Preço,Estado,N.º registo do Acordo Quadro,Descrição do Acordo Quadro,Procedimento Centralizado
S10001/2018-Seguros de Acidentes de Trabalho,Concurso público,Aquisição de serviços,"66510000-8, Serviços de seguros","Centro Hospitalar Barreiro Montijo, E. P. E. (509186998)","Willis Corretores de Seguros, S. A. (500188629)","301.001,83 €",16-08-2018,28-12-2017,365 dias,"Portugal, Setúbal, Barreiro","Artigo 20.º, n.º 1, alínea b) do Código dos Contratos Públicos","","",,,,Não aplicável.,Não aplicável.,FALSE
30019/2018 Ecógrafo para ginecologia,Consulta Prévia,Aquisição de bens móveis,"33000000-0, Equipamento médico, medicamentos e produtos para cuidados pessoais","Centro Hospitalar Barreiro Montijo, E. P. E. (509186998)",General Electric Portuguesa (500357129),"48.500,00 €",16-08-2018,06-08-2018,25 dias,"Portugal, Setúbal, Barreiro","Artigo 20.º, n.º 1, alínea c) do Código dos Contratos Públicos",14-09-2018,"48.500,00 €",,,,Não aplicável.,Não aplicável.,FALSE
