Objeto do Contrato,Tipo de Procedimento,Tipo(s) de Contrato,CPVs,Entidade(s) Adjudicante(s),Entidade(s) Adjudicatária(s),Preço Contratual,Data de Publicação,Data de Celebração do Contrato,Prazo de Execução,Local de Execução,Fundamentação,Data de Fecho do Contrato,Preço Total Efetivo,Causas das Alterações ao Prazo,Causas das Alterações ao Preço,Estado,N.º registo do Acordo Quadro,Descrição do Acordo Quadro,Procedimento Centralizado
"Aquisição de Serviços de Comunicações de Voz em Local fixo para a Administração Regional de Saúde do Centro,IP",Concurso público,Aquisição de serviços,"64000000-6, Serviços postais e de telecomunicações","Administração Regional de Saúde do Centro, I. P. (503122165)",Meo - Serviços de Comunicação e Multimédia SA (504615947),"9.099,65 €",07-05-2018,29-12-2017,365 dias,Portugal,"Artigo 20.º, n.º 1, alínea b) do Código dos Contratos Públicos",29-01-2019,"9.099,65 €",,"",,Não aplicável.,Não aplicável.,TRUE
Serviços médicos para o CS de Figueiró dos Vinhos,Ao abrigo de acordo-quadro (art.º 259.º),Aquisição de serviços,"85000000-9, Serviços de saúde e acção social","Administração Regional de Saúde do Centro, I. P. (503122165)","Randstad II - Prestação de Serviços, Lda. (503298999)","14.400,00 €",07-05-2018,12-06-2017,120 dias,"Portugal, Leiria, Figueiró dos Vinhos",Artigo 259.º do Código dos Contratos Públicos,30-11-2017,"14.000,00 €",,Horas prestadas inferiores às contratadas,,1490434,ACORDO QUADRO PARA PRESTAÇÃO DE SERVIÇOS MÉDICOS ÀS INSTITUIÇÕES E SERVIÇOS DO SERVIÇO NACIONAL DE SAÚDE,FALSE
