Objeto do Contrato,Tipo de Procedimento,Tipo(s) de Contrato,CPVs,Entidade(s) Adjudicante(s),Entidade(s) Adjudicatária(s),Preço Contratual,Data de Publicação,Data de Celebração do Contrato,Prazo de Execução,Local de Execução,Fundamentação,Data de Fecho do Contrato,Preço Total Efetivo,Causas das Alterações ao Prazo,Causas das Alterações ao Preço,Estado,N.º registo do Acordo Quadro,Descrição do Acordo Quadro,Procedimento Centralizado
Aquisição de Atosibano 37.5mg Sol Inj Fr IV e Atosibano 6.75mg,Ajuste Direto Regime Geral,Aquisição de bens móveis,"33641200-7, Outros medicamentos ginecológicos","Centro Hospitalar São João, EPE (509821197)",Laboratórios Normon S.A. (505654156),"5.835,30 €",28-12-2015,18-08-2015,135 dias,"Portugal, Porto, Porto","Artigo 20.º, n.º 1, alínea a) do Código dos Contratos Públicos",,,,,,Não aplicável.,Não aplicável.,FALSE
Aquisição de Levofloxacina 5 mg/ml,Ajuste Direto Regime Geral,Aquisição de bens móveis,"33662100-9, Medicamentos usados em oftalmologia","Centro Hospitalar de São João, E. P. E. (509821197)",SPCare Especialidades Farmacêuticas Lda (508284872),"5.151,60 €",28-12-2015,17-11-2015,66 dias,"Portugal, Porto, Porto","Artigo 20.º, n.º 1, alínea a) do Código dos Contratos Públicos",,,,,,Não aplicável.,Não aplicável.,FALSE
Aquisição de Válvulas Aórticas Percutâneas Reposicionáveis e Não-Reposicionáveis,Concurso público,Aquisição de bens móveis,"33182220-7, Válvulas cardíacas","Centro Hospitalar de São João, E. P. E. (509821197)",Medtronic Portugal Lda (504223933),"324.000,00 €",28-12-2015,30-09-2015,92 dias,"Portugal, Porto, Porto","Artigo 20.º, n.º 1, alínea b) do Código dos Contratos Públicos",,,,,,Não aplicável.,Não aplicável.,FALSE
Aquisição de Seringas de Gasimetria,Concurso público,Aquisição de bens móveis,"33141310-6, Seringas","Centro Hospitalar de São João, E. P. E. (509821197)",Smiths Medical Unipessoal Lda (507445937),"36.090,00 €",28-12-2015,07-07-2015,177 dias,"Portugal, Porto, Porto","Artigo 20.º, n.º 1, alínea b) do Código dos Contratos Públicos",,,,,,Não aplicável.,Não aplicável.,FALSE
Aquisição de Fardamento Hospitalar,Concurso público,Aquisição de bens móveis,"39518000-6, Roupa para uso hospitalar","Centro Hospitalar de São João, E. P. E. (509821197)",Torves Lda (504361287),"160.217,20 €",28-12-2015,23-03-2015,0 dias,"Portugal, Porto, Porto","Artigo 20.º, n.º 1, alínea b) do Código dos Contratos Públicos",,,,,,Não aplicável.,Não aplicável.,FALSE
"Aquisição de Serviços de Limpeza para o Centro Hospitalar de São João, E. P. E.",Concurso público,Aquisição de serviços,"90910000-9, Serviços de limpeza","Centro Hospitalar de São João, E. P. E. (509821197)",CLECE S.A. - Sucursal em Portugal (980359759),"1.098.785,80 €",28-12-2015,08-06-2015,206 dias,"Portugal, Porto, Porto","Artigo 20.º, n.º 1, alínea b) do Código dos Contratos Públicos",,,,,,Não aplicável.,Não aplicável.,FALSE
Aquisição de Válvulas Cardíacas e Condutas Valvulares,Concurso público,Aquisição de bens móveis,"33182220-7, Válvulas cardíacas","Centro Hospitalar de São João, E. P. E. (509821197)","St. Jude Medical Portugal Lda (504180746), Edwards Lifesciences Lda (508014832), Medtronic Portugal Lda (504223933)","749.830,00 €",23-12-2015,07-02-2014,327 dias,"Portugal, Porto, Porto","Artigo 20.º, n.º 1, alínea b) do Código dos Contratos Públicos",,,,,,Não aplicável.,Não aplicável.,FALSE
Aquisição de Serviços para Gestão de Riscos e Seguros,Ajuste Direto Regime Geral,Aquisição de serviços,"66517300-0, Serviços de seguros de gestão de riscos","Centro Hospitalar de São João, E. P. E. (509821197)",MDS - Corretor de Seguros SA (501469460),"75.000,00 €",22-12-2015,30-04-2015,0 dias,"Portugal, Porto, Porto","Artigo 20.º, n.º 1, alínea a) do Código dos Contratos Públicos",,,,,,Não aplicável.,Não aplicável.,FALSE
Aquisição De Serviços técnicos de Apoio ao Serviço de Certificação,Ajuste Direto Regime Geral,Aquisição de serviços,"79130000-4, Serviços de certificação e documentação legal","Centro Hospitalar de São João, E. P. E. (509821197)",AHP - Allied Healthcare Professionals Lda (510095135),"13.332,00 €",22-12-2015,10-08-2015,143 dias,"Portugal, Porto, Porto","Artigo 20.º, n.º 1, alínea a) do Código dos Contratos Públicos",,,,,,Não aplicável.,Não aplicável.,FALSE
Aquisição de Serviços Gerais,Concurso público,Aquisição de serviços,"98300000-6, Serviços diversos","Centro Hospitalar de São João, E. P. E. (509821197)",Aquisição de Serviços Gerais (510083226),"85.629,71 €",22-12-2015,28-04-2015,183 dias,"Portugal, Porto, Porto",Artigo 155.º do Código dos Contratos Públicos,,,,,,Não aplicável.,Não aplicável.,FALSE
