Objeto do Contrato,Tipo de Procedimento,Tipo(s) de Contrato,CPVs,Entidade(s) Adjudicante(s),Entidade(s) Adjudicatária(s),Preço Contratual,Data de Publicação,Data de Celebração do Contrato,Prazo de Execução,Local de Execução,Fundamentação,Data de Fecho do Contrato,Preço Total Efetivo,Causas das Alterações ao Prazo,Causas das Alterações ao Preço,Estado,N.º registo do Acordo Quadro,Descrição do Acordo Quadro,Procedimento Centralizado
Material Consumo Clinico,Concurso público,Aquisição de bens móveis,"33140000-3, Material médico de consumo",Instituto de Oftalmologia do Dr. Gama Pinto (600000052),Medical Mix (ant. DPSO) (513689818),"488,55 €",08-01-2019,22-02-2018,300 dias,"Portugal, Lisboa, Lisboa","Artigo 20.º, n.º 1, alínea b) do Código dos Contratos Públicos",08-01-2019,"488,55 €",,"",,Não aplicável.,Não aplicável.,FALSE
Material Consumo Clinico,Concurso público,Aquisição de bens móveis,"33140000-3, Material médico de consumo",Instituto de Oftalmologia do Dr. Gama Pinto (600000052),"HR Hospitalar, Lda. (501895558)","397,30 €",08-01-2019,22-02-2018,300 dias,"Portugal, Lisboa, Lisboa","Artigo 20.º, n.º 1, alínea b) do Código dos Contratos Públicos",08-01-2019,"397,30 €",,"",,Não aplicável.,Não aplicável.,FALSE
Dispositivos Médicos Implantaveis,Concurso público,Aquisição de bens móveis,"33184100-4, Implantes cirúrgicos",Instituto de Oftalmologia Doutor Gama Pinto (IOGP) (600000052),"JJ Surgical Vision Spain SL, Sucursal em Portugal (980262364)","79.020,00 €",07-01-2019,20-06-2018,213 dias,Portugal,"Artigo 20.º, n.º 1, alínea a) do Código dos Contratos Públicos",07-01-2019,"79.020,00 €",,"",,Não aplicável.,Não aplicável.,FALSE
Dispositivos Médicos Implantaveis,Concurso público,Aquisição de bens móveis,"33184100-4, Implantes cirúrgicos",Instituto de Oftalmologia Doutor Gama Pinto (IOGP) (600000052),Carl Zeiss (980503043),"63.450,00 €",07-01-2019,19-06-2018,213 dias,Portugal,"Artigo 20.º, n.º 1, alínea a) do Código dos Contratos Públicos","","",,"",,Não aplicável.,Não aplicável.,FALSE
Dispositivos Médicos Implantaveis,Concurso público,Aquisição de bens móveis,"33184100-4, Implantes cirúrgicos",Instituto de Oftalmologia Doutor Gama Pinto (IOGP) (600000052),"Overpharma, Lda. (505792362)","13.970,00 €",07-01-2019,20-06-2018,213 dias,Portugal,"Artigo 20.º, n.º 1, alínea a) do Código dos Contratos Públicos",07-01-2019,"13.970,00 €",,"",,Não aplicável.,Não aplicável.,FALSE
Packs p/ Cirurgia Vitrectomia,Ajuste Direto Regime Geral,Aquisição de bens móveis,"33160000-9, Técnicas cirúrgicas",Instituto de Oftalmologia Doutor Gama Pinto (IOGP) (600000052),Bausch & Lomb (980218764),"38.960,00 €",07-01-2019,30-07-2018,153 dias,Portugal,"Artigo 24.º, n.º 1, alínea e), subalínea ii) do Código dos Contratos Públicos",07-01-2019,"38.960,00 €",,"",,Não aplicável.,Não aplicável.,FALSE
Pack Cirurgia Catarata,Ajuste Direto Regime Geral,Aquisição de bens móveis,"33160000-9, Técnicas cirúrgicas",Instituto de Oftalmologia Doutor Gama Pinto (IOGP) (600000052),"JJ Surgical Vision Spain SL, Sucursal em Portugal (980262364)","68.949,36 €",07-01-2019,25-07-2018,155 dias,"Portugal, Lisboa, Lisboa","Artigo 24.º, n.º 1, alínea e), subalínea ii) do Código dos Contratos Públicos",07-01-2019,"68.949,36 €",,"",,Não aplicável.,Não aplicável.,FALSE
Packs de Vitrectomia,Ajuste Direto Regime Geral,Aquisição de bens móveis,"33160000-9, Técnicas cirúrgicas",Instituto de Oftalmologia Doutor Gama Pinto (IOGP) (600000052),ALCON PORTUGAL-PRODUTOS E EQUIP.OFTALMOL. LDA. (501251685),"48.806,40 €",07-01-2019,30-07-2018,152 dias,Portugal,"Artigo 24.º, n.º 1, alínea e), subalínea ii) do Código dos Contratos Públicos",07-01-2019,"47.065,70 €",,Devido as quantidades por caixa,,Não aplicável.,Não aplicável.,FALSE
Dispositivos Médicos Implantaveis,Consulta Prévia,Aquisição de bens móveis,"33184000-3, Próteses",Instituto de Oftalmologia Doutor Gama Pinto (IOGP) (600000052),Ophtec Portugal (510255086),"2.280,00 €",07-01-2019,18-04-2018,251 dias,"Portugal, Lisboa, Lisboa","Artigo 20.º, n.º 1, alínea c) do Código dos Contratos Públicos",07-01-2019,"2.280,00 €",,"",,Não aplicável.,Não aplicável.,FALSE
Pack Pequena Cirurgia,Ajuste Direto Regime Geral,Aquisição de bens móveis,"33140000-3, Material médico de consumo",Instituto de Oftalmologia do Dr. Gama Pinto (600000052),Oftaldata (504887459),"1.420,00 €",07-01-2019,20-11-2018,43 dias,"Portugal, Lisboa, Lisboa","Artigo 20.º, n.º 1, alínea d) do Código dos Contratos Públicos",07-01-2019,"1.420,00 €",,"",,Não aplicável.,Não aplicável.,FALSE
Lentes Fáquicas,Ajuste Direto Regime Geral,Aquisição de bens móveis,"33184000-3, Próteses",Instituto de Oftalmologia Doutor Gama Pinto (IOGP) (600000052),"JJ Surgical Vision Spain SL, Sucursal em Portugal (980262364)","4.960,00 €",07-01-2019,11-07-2018,172 dias,"Portugal, Lisboa, Lisboa","Artigo 24.º, n.º 1, alínea b) do Código dos Contratos Públicos",07-01-2019,"4.960,00 €",,"",,Não aplicável.,Não aplicável.,FALSE
Cateteres e Torneiras,Ao abrigo de acordo-quadro (art.º 259.º),Aquisição de bens móveis,"33141000-0, Material médico não químico descartável e produtos hematológicos",Instituto de Oftalmologia Doutor Gama Pinto (IOGP) (600000052),"B. Braun Medical, Lda (501506543)","880,00 €",07-01-2019,25-09-2018,93 dias,"Portugal, Lisboa, Lisboa",Artigo 259.º do Código dos Contratos Públicos,07-01-2019,"880,00 €",,"",,2622225,CP 2017/26 - Acordo Quadro para Fornecimento de Cateteres   às Instituições e Serviços do Serviço Nacional de Saúde,FALSE
Cateteres e Torneiras,Ao abrigo de acordo-quadro (art.º 259.º),Aquisição de bens móveis,"33141000-0, Material médico não químico descartável e produtos hematológicos",Instituto de Oftalmologia Doutor Gama Pinto (IOGP) (600000052),"P.M.H., S.A. (502376899)","567,00 €",04-01-2019,25-09-2018,96 dias,Portugal,Artigo 259.º do Código dos Contratos Públicos,07-01-2019,"567,00 €",,"",,2622225,CP 2017/26 - Acordo Quadro para Fornecimento de Cateteres   às Instituições e Serviços do Serviço Nacional de Saúde,FALSE
Sistemas Vitrectomia,Ajuste Direto Regime Geral,Aquisição de bens móveis,"33160000-9, Técnicas cirúrgicas",Instituto de Oftalmologia Doutor Gama Pinto (IOGP) (600000052),Bausch & Lomb (980218764),"6.840,00 €",04-01-2019,29-06-2018,182 dias,"Portugal, Lisboa, Lisboa","Artigo 24.º, n.º 1, alínea e), subalínea ii) do Código dos Contratos Públicos",04-01-2019,"6.840,00 €",,"",,Não aplicável.,Não aplicável.,FALSE
Material Consumo Clinico CA,Consulta Prévia,Aquisição de bens móveis,"33140000-3, Material médico de consumo",Instituto de Oftalmologia Doutor Gama Pinto (IOGP) (600000052),PAUL HARTMANN LDA (502271728),"3.360,00 €",04-01-2019,12-06-2018,203 dias,"Portugal, Lisboa, Lisboa","Artigo 20.º, n.º 1, alínea c) do Código dos Contratos Públicos","","",,"",,Não aplicável.,Não aplicável.,FALSE
Agulhas e Seringas,Ao abrigo de acordo-quadro (art.º 259.º),Aquisição de bens móveis,"33141320-9, Agulhas para fins médicos",Instituto de Oftalmologia do Dr. Gama Pinto (600000052),Docworld (508592909),"16,80 €",03-01-2019,06-06-2018,206 dias,"Portugal, Lisboa, Lisboa",Artigo 259.º do Código dos Contratos Públicos,03-01-2019,"16,80 €",,"",,3498461,CP 2018/22 - Acordo Quadro para fornecimento de Seringas,FALSE
Agulhas e Seringas,Ao abrigo de acordo-quadro (art.º 259.º),Aquisição de bens móveis,"33141310-6, Seringas",Instituto de Oftalmologia do Dr. Gama Pinto (600000052),B. Braun Medical (501506543),"39,00 €",03-01-2019,06-06-2018,200 dias,"Portugal, Lisboa, Lisboa",Artigo 259.º do Código dos Contratos Públicos,03-01-2019,"39,00 €",,"",,3498461,CP 2018/22 - Acordo Quadro para fornecimento de Seringas,FALSE
Agulhas Faco e Sistemas Vitrectomia,Consulta Prévia,Aquisição de bens móveis,"33140000-3, Material médico de consumo",Instituto de Oftalmologia Doutor Gama Pinto (IOGP) (600000052),"JJ Surgical Vision Spain SL, Sucursal em Portugal (980262364)","6.782,52 €",03-01-2019,16-11-2018,46 dias,"Portugal, Lisboa, Lisboa","Artigo 20.º, n.º 1, alínea c) do Código dos Contratos Públicos",03-01-2019,"6.782,52 €",,"",,Não aplicável.,Não aplicável.,FALSE
Teste p/ Máquina de lavar,Ajuste Direto Regime Geral,Aquisição de bens móveis,"33140000-3, Material médico de consumo",Instituto de Oftalmologia do Dr. Gama Pinto (600000052),Dimor Lusitania (500730741),"130,00 €",03-01-2019,19-12-2018,12 dias,"Portugal, Lisboa, Lisboa","Artigo 20.º, n.º 1, alínea d) do Código dos Contratos Públicos",03-01-2019,"130,00 €",,"",,Não aplicável.,Não aplicável.,FALSE
Kit de Almofadas,Ajuste Direto Regime Geral,Aquisição de bens móveis,"33140000-3, Material médico de consumo",Instituto de Oftalmologia do Dr. Gama Pinto (600000052),Dimor Lusitania (500730741),"40,00 €",03-01-2019,28-12-2018,1 dias,"Portugal, Lisboa, Lisboa","Artigo 20.º, n.º 1, alínea d) do Código dos Contratos Públicos",03-01-2019,"40,00 €",,"",,Não aplicável.,Não aplicável.,FALSE
Toalhetes Volk,Ajuste Direto Regime Geral,Aquisição de bens móveis,"33140000-3, Material médico de consumo",Instituto de Oftalmologia do Dr. Gama Pinto (600000052),José Cotta (500155739),"132,00 €",03-01-2019,19-12-2018,43 dias,"Portugal, Lisboa, Lisboa","Artigo 20.º, n.º 1, alínea d) do Código dos Contratos Públicos",03-01-2019,"132,00 €",,"",,Não aplicável.,Não aplicável.,FALSE
Fardamento Hospitalar,Ajuste Direto Regime Geral,Aquisição de bens móveis,"18110000-3, Vestuário profissional",Instituto de Oftalmologia do Dr. Gama Pinto (600000052),"Barrosa & Anjos, Lda. (509124615)","5.614,22 €",03-01-2019,14-12-2018,15 dias,"Portugal, Lisboa, Lisboa","Artigo 20.º, n.º 1, alínea d) do Código dos Contratos Públicos",03-01-2019,"5.614,22 €",,"",,Não aplicável.,Não aplicável.,FALSE
Lenços Maxi Faciais,Ajuste Direto Regime Geral,Aquisição de bens móveis,"33190000-8, Dispositivos e produtos médicos variados",Instituto de Oftalmologia do Dr. Gama Pinto (600000052),"Servisan - Produtos de Higiene, S.A. (500246530)","103,20 €",03-01-2019,28-11-2018,33 dias,"Portugal, Lisboa, Lisboa","Artigo 20.º, n.º 1, alínea d) do Código dos Contratos Públicos",03-01-2019,"103,20 €",,"",,Não aplicável.,Não aplicável.,FALSE
Algálias n.º 12,Ajuste Direto Regime Geral,Aquisição de bens móveis,"33140000-3, Material médico de consumo",Instituto de Oftalmologia do Dr. Gama Pinto (600000052),ANASTACIO SALDANHA UNIPESSOAL (505804441),"3,50 €",03-01-2019,19-12-2018,12 dias,"Portugal, Lisboa, Lisboa","Artigo 20.º, n.º 1, alínea d) do Código dos Contratos Públicos",03-01-2019,"3,50 €",,"",,Não aplicável.,Não aplicável.,FALSE
Implante de Colagénio,Ajuste Direto Regime Geral,Aquisição de bens móveis,"33184100-4, Implantes cirúrgicos",Instituto de Oftalmologia do Dr. Gama Pinto (600000052),Oftaltec (503197149),"600,00 €",03-01-2019,19-12-2018,13 dias,"Portugal, Lisboa, Lisboa","Artigo 20.º, n.º 1, alínea d) do Código dos Contratos Públicos",03-01-2019,"600,00 €",,"",,Não aplicável.,Não aplicável.,FALSE
Adesivo TNT,Ao abrigo de acordo-quadro (art.º 258.º),Aquisição de bens móveis,"33141111-1, Pensos adesivos",Instituto de Oftalmologia do Dr. Gama Pinto (600000052),Dimor Lusitania (500730741),"60,00 €",02-01-2019,19-12-2018,8 dias,"Portugal, Lisboa, Lisboa",Artigo 258.º do Código dos Contratos Públicos,02-01-2019,"60,00 €",,"",,2183753,CP 2016/82 - Acordo quadro para fornecimento de Nastros e Fitas Cirúrgicas às Instituições e Serviços do Serviço Nacional de Saúde,FALSE
