Objeto do Contrato,Tipo de Procedimento,Tipo(s) de Contrato,CPVs,Entidade(s) Adjudicante(s),Entidade(s) Adjudicatária(s),Preço Contratual,Data de Publicação,Data de Celebração do Contrato,Prazo de Execução,Local de Execução,Fundamentação,Data de Fecho do Contrato,Preço Total Efetivo,Causas das Alterações ao Prazo,Causas das Alterações ao Preço,Estado,N.º registo do Acordo Quadro,Descrição do Acordo Quadro,Procedimento Centralizado
61/1293/2017 Emtricitabina 200 mg + Rilpivirina 25 mg + Tenofovir 245 mg Comp,Ajuste Direto Regime Geral,Aquisição de bens móveis,"33690000-3, Medicamentos vários","Centro Hospitalar do Algarve, E. P. E. (510745997)","Gilead Sciences, Lda. (503604704)","179.950,31 €",11-07-2017,17-02-2017,30 dias,"Portugal, Faro, Faro","Artigo 24.º, n.º 1, alínea e) do Código dos Contratos Públicos","","",,"",,Não aplicável.,Não aplicável.,FALSE
"61/1292/2017 Medicamentos Moroctocog alfa 500, moroctocog alfa 1000 e moroctocog alfa 2000",Ajuste Direto Regime Geral,Aquisição de bens móveis,"33690000-3, Medicamentos vários","Centro Hospitalar do Algarve, E. P. E. (510745997)","Pfizer Biofarmacêutica, Sociedade Unipessoal Lda. (513300376)","64.033,57 €",11-07-2017,02-02-2017,30 dias,"Portugal, Faro, Faro","Artigo 24.º, n.º 1, alínea e) do Código dos Contratos Públicos","","",,"",,Não aplicável.,Não aplicável.,FALSE
61/1214/2017 Medicamento Dexametasona 4 mg Comp e Dexametasona 8 mg Comp,Ajuste Direto Regime Geral,Aquisição de bens móveis,"33690000-3, Medicamentos vários","Centro Hospitalar do Algarve, E. P. E. (510745997)","KrKa Farmacêutica, Sociedade Unipessoal Lda. (507981227)","11.437,00 €",11-07-2017,27-01-2017,340 dias,"Portugal, Faro, Faro","Artigo 24.º, n.º 1, alínea e) do Código dos Contratos Públicos","","",,"",,Não aplicável.,Não aplicável.,FALSE
"61/1186/2017 Reagentes para doseamento de hormonas, marcadores",Ajuste Direto Regime Geral,Aquisição de bens móveis,"33696500-0, Reagentes de laboratório","Centro Hospitalar do Algarve, E. P. E. (510745997)",ARIUM (502501880),"15.939,00 €",11-07-2017,03-02-2017,332 dias,"Portugal, Faro, Faro","Artigo 24.º, n.º 1, alínea e) do Código dos Contratos Públicos","","",,"",,Não aplicável.,Não aplicável.,FALSE
61/1182/2017 Reagentes para doseamento de hormonas na urina,Ajuste Direto Regime Geral,Aquisição de bens móveis,"33696500-0, Reagentes de laboratório","Centro Hospitalar do Algarve, E. P. E. (510745997)",BIOSYSTEM (504527584),"1.916,80 €",11-07-2017,30-01-2017,335 dias,"Portugal, Faro, Faro","Artigo 24.º, n.º 1, alínea e) do Código dos Contratos Públicos","","",,"",,Não aplicável.,Não aplicável.,FALSE
61/1170/2017 Medicamento Infliximab 100 mg Pó conc sol inj Fr IV,Ajuste Direto Regime Geral,Aquisição de bens móveis,"33690000-3, Medicamentos vários","Centro Hospitalar do Algarve, E. P. E. (510745997)","PharmaKern Portugal - Produtos Farmacêuticos, Lda (507002571)","17.355,00 €",11-07-2017,14-03-2017,30 dias,"Portugal, Faro, Faro","Artigo 24.º, n.º 1, alínea e) do Código dos Contratos Públicos","","",,"",,Não aplicável.,Não aplicável.,FALSE
61/1166/2017 Medicamento Palivizumab 50 mg/0.5 ml Sol inj Fr 0.5 ml IM,Ajuste Direto Regime Geral,Aquisição de bens móveis,"33690000-3, Medicamentos vários","Centro Hospitalar do Algarve, E. P. E. (510745997)","AbbVie, Lda. (510229050)","2.491,02 €",11-07-2017,14-02-2017,320 dias,"Portugal, Faro, Faro","Artigo 24.º, n.º 1, alínea e) do Código dos Contratos Públicos","","",,"",,Não aplicável.,Não aplicável.,FALSE
61/1162/2017 Reagentes para Bioquimica e Imunologia,Ajuste Direto Regime Geral,Aquisição de bens móveis,"33696500-0, Reagentes de laboratório","Centro Hospitalar do Algarve, E. P. E. (510745997)","ROCHE SISTEMAS DIAGNOSTICO,LDA (504282921)","60.723,57 €",11-07-2017,26-01-2017,90 dias,"Portugal, Faro, Faro","Artigo 24.º, n.º 1, alínea e) do Código dos Contratos Públicos","","",,"",,Não aplicável.,Não aplicável.,FALSE
Proc. 68/3171/2017-Fornecimento de materiais para remodelação de Gabinetes-Unidade de Faro,Ajuste Direto Regime Geral,Aquisição de serviços,"50800000-3, Serviços de reparação e manutenção diversos","Centro Hospitalar do Algarve, E. P. E. (510745997)",Acciona Facility Services SA (503431397),"4.989,48 €",11-07-2017,10-07-2017,60 dias,"Portugal, Faro, Faro","Artigo 24.º, n.º 1, alínea e) do Código dos Contratos Públicos","","",,"",,Não aplicável.,Não aplicável.,FALSE
61/1157/2017 Vários medicamentos,Ajuste Direto Regime Geral,Aquisição de bens móveis,"33690000-3, Medicamentos vários","Centro Hospitalar do Algarve, E. P. E. (510745997)","BGP Products, Unipessoal, Lda (513263268)","549,01 €",11-07-2017,06-03-2017,300 dias,"Portugal, Faro, Faro","Artigo 24.º, n.º 1, alínea e) do Código dos Contratos Públicos","","",,"",,Não aplicável.,Não aplicável.,FALSE
61/1156/2017 Factor VIII da coagulação humana 500 UI + Factor de Von Willebrand humano 500 UI Pó sol inj Fr IV (Wilate 500),Ajuste Direto Regime Geral,Aquisição de bens móveis,"33690000-3, Medicamentos vários","Centro Hospitalar do Algarve, E. P. E. (510745997)",OCTAFHARMA- PROD. FARMACEUTICO (502820780),"9.913,50 €",11-07-2017,20-01-2017,345 dias,"Portugal, Faro, Faro","Artigo 24.º, n.º 1, alínea e) do Código dos Contratos Públicos","","",,"",,Não aplicável.,Não aplicável.,FALSE
61/1154/2017 Medicamento Dolutegravir 50 mg Comp,Ajuste Direto Regime Geral,Aquisição de bens móveis,"33690000-3, Medicamentos vários","Centro Hospitalar do Algarve, E. P. E. (510745997)","ViiV Healthcare, Unipessoal Lda (509117961)","52.433,45 €",11-07-2017,27-01-2017,30 dias,"Portugal, Faro, Faro","Artigo 24.º, n.º 1, alínea e) do Código dos Contratos Públicos","","",,"",,Não aplicável.,Não aplicável.,FALSE
61/1141/2017 Medicamento Etanercept 50 mg/ml Sol inj Caneta 1 ml SC,Ajuste Direto Regime Geral,Aquisição de bens móveis,"33690000-3, Medicamentos vários","Centro Hospitalar do Algarve, E. P. E. (510745997)","Pfizer Biofarmacêutica, Sociedade Unipessoal Lda. (513300376)","123.177,54 €",11-07-2017,24-01-2017,30 dias,"Portugal, Faro, Faro","Artigo 24.º, n.º 1, alínea e) do Código dos Contratos Públicos","","",,"",,Não aplicável.,Não aplicável.,FALSE
Proc. 67/3209/2017-Reparação Porta Automatica-Unid.Portimão,Ajuste Direto Regime Geral,Aquisição de serviços,"50711000-2, Serviços de reparação e manutenção de equipamento eléctrico em edifícios","Centro Hospitalar do Algarve, E. P. E. (510745997)","ASSA ABLOY - Entrance Systems Portugal, S.A (503858803)","342,55 €",11-07-2017,06-07-2017,60 dias,"Portugal, Faro, Portimão","Artigo 24.º, n.º 1, alínea e) do Código dos Contratos Públicos","","",,"",,Não aplicável.,Não aplicável.,FALSE
31/462/2017,Ao abrigo de acordo-quadro (art.º 258.º),Aquisição de bens móveis,"33690000-3, Medicamentos vários","Centro Hospitalar do Algarve, E. P. E. (510745997)","Bayer Portugal, Lda (500043256)","92.497,40 €",11-07-2017,27-02-2017,307 dias,"Portugal, Faro, Faro","Artigo 26.º, n.º 1, alínea e) do Código dos Contratos Públicos","","",,"",,1473614,CP 2015/56 - Acordo quadro para fornecimento de medicamentos usados como meios de diagnóstico em Imagiologia às Instituições e Serviços do Serviço Nacional de Saúde,FALSE
Proc. 68/3205/2017-Fornecimento fechaduras para cacifos e canhões-Edif.Ambulatorio-Unid.Faro,Ajuste Direto Regime Geral,Aquisição de serviços,"50800000-3, Serviços de reparação e manutenção diversos","Centro Hospitalar do Algarve, E. P. E. (510745997)",Acciona Facility Services SA (503431397),"105,00 €",11-07-2017,06-07-2017,60 dias,"Portugal, Faro, Faro","Artigo 24.º, n.º 1, alínea e) do Código dos Contratos Públicos","","",,"",,Não aplicável.,Não aplicável.,FALSE
31/467/2017,Ao abrigo de acordo-quadro (art.º 258.º),Aquisição de bens móveis,"33690000-3, Medicamentos vários","Centro Hospitalar do Algarve, E. P. E. (510745997)","Fresenius Kabi Pharma Portugal, Lda. (504293753)","50.081,30 €",11-07-2017,06-01-2017,359 dias,"Portugal, Faro, Faro","Artigo 26.º, n.º 1, alínea e) do Código dos Contratos Públicos","","",,"",,1377429,Acordo Quadro para fornecimento de medicamentos para Nutrição Parentérica às Instituições e Serviços do Serviço Nacional de Saúde,FALSE
31/468/2017,Ao abrigo de acordo-quadro (art.º 258.º),Aquisição de bens móveis,"33690000-3, Medicamentos vários","Centro Hospitalar do Algarve, E. P. E. (510745997)","Baxter Médico Farmacêutica, Lda. (503347345)","10.400,00 €",11-07-2017,11-01-2017,354 dias,"Portugal, Faro, Faro","Artigo 26.º, n.º 1, alínea e) do Código dos Contratos Públicos","","",,"",,1377429,Acordo Quadro para fornecimento de medicamentos para Nutrição Parentérica às Instituições e Serviços do Serviço Nacional de Saúde,FALSE
31/469/2017,Ao abrigo de acordo-quadro (art.º 258.º),Aquisição de bens móveis,"33690000-3, Medicamentos vários","Centro Hospitalar do Algarve, E. P. E. (510745997)","B. Braun Medical, Lda. (501506543)","3.780,00 €",11-07-2017,11-01-2017,354 dias,"Portugal, Faro, Faro","Artigo 26.º, n.º 1, alínea e) do Código dos Contratos Públicos","","",,"",,1377429,Acordo Quadro para fornecimento de medicamentos para Nutrição Parentérica às Instituições e Serviços do Serviço Nacional de Saúde,FALSE
31/566/2017,Ao abrigo de acordo-quadro (art.º 258.º),Aquisição de bens móveis,"33690000-3, Medicamentos vários","Centro Hospitalar do Algarve, E. P. E. (510745997)","SANOFI - PRODUTOS FARMACÊUTICOS, LDA. (500134960)","25,08 €",11-07-2017,03-01-2017,363 dias,"Portugal, Faro, Faro","Artigo 26.º, n.º 1, alínea e) do Código dos Contratos Públicos","","",,"",,1179911,"CONCURSO PÚBLICO PARA A CELEBRAÇÃO DE CONTRATOS PÚBLICOS DE APROVISIONAMENTO PARA A ÁREA DA SAÚDE, MEDICAMENTOS DO SISTEMA NERVOSO CEREBROSPINAL, EXCETO: ANESTÉSICOS, RELAXANTES MUSCULARES, ANALGÉSICOS, ANTIPIRÉTICOS, ANTIDEPRESSORES E ANTIPSICÓTICOS, ÀS INSTITUIÇÕES E SERVIÇOS DO SERVIÇO NACIONAL DE SAÚDE",FALSE
31/567/2017,Ao abrigo de acordo-quadro (art.º 258.º),Aquisição de bens móveis,"33690000-3, Medicamentos vários","Centro Hospitalar do Algarve, E. P. E. (510745997)","Merck Sharp & Dohme, Lda. (500191360)","1.269,46 €",11-07-2017,04-01-2017,363 dias,"Portugal, Faro, Faro","Artigo 26.º, n.º 1, alínea e) do Código dos Contratos Públicos","","",,"",,1179911,"CONCURSO PÚBLICO PARA A CELEBRAÇÃO DE CONTRATOS PÚBLICOS DE APROVISIONAMENTO PARA A ÁREA DA SAÚDE, MEDICAMENTOS DO SISTEMA NERVOSO CEREBROSPINAL, EXCETO: ANESTÉSICOS, RELAXANTES MUSCULARES, ANALGÉSICOS, ANTIPIRÉTICOS, ANTIDEPRESSORES E ANTIPSICÓTICOS, ÀS INSTITUIÇÕES E SERVIÇOS DO SERVIÇO NACIONAL DE SAÚDE",FALSE
31/568/2017,Ao abrigo de acordo-quadro (art.º 258.º),Aquisição de bens móveis,"33690000-3, Medicamentos vários","Centro Hospitalar do Algarve, E. P. E. (510745997)","Logifarma - Logística Farmacêutica, S.A. (503934640)","133,50 €",11-07-2017,09-01-2017,356 dias,"Portugal, Faro, Faro","Artigo 26.º, n.º 1, alínea e) do Código dos Contratos Públicos","","",,"",,530535,"CONCURSO PÚBLICO PARA A CELEBRAÇÃO DE CONTRATOS PÚBLICOS DE APROVISIONAMENTO PARA A ÁREA DA SAÚDE, COM VISTA AO FORNECIMENTO DE CONTRACETIVOS ORAIS, PROFILÁTICOS E MECÂNICOS ÀS INSTITUIÇÕES E SERVIÇOS DO SERVIÇO NACIONAL DE SAÚDE  ",FALSE
31/570/2017,Ao abrigo de acordo-quadro (art.º 258.º),Aquisição de bens móveis,"33690000-3, Medicamentos vários","Centro Hospitalar do Algarve, E. P. E. (510745997)","LABESFAL, Laboratório Almiro S.A. (501169580)","1.458,00 €",11-07-2017,03-01-2017,362 dias,"Portugal, Faro, Faro","Artigo 26.º, n.º 1, alínea e) do Código dos Contratos Públicos","","",,"",,2211341,Medicamentos anestésicos e relaxantes musculares,FALSE
31/571/2017,Ao abrigo de acordo-quadro (art.º 258.º),Aquisição de bens móveis,"33690000-3, Medicamentos vários","Centro Hospitalar do Algarve, E. P. E. (510745997)","B. Braun Medical, Lda. (501506543)","189,84 €",11-07-2017,09-01-2017,356 dias,"Portugal, Faro, Faro","Artigo 26.º, n.º 1, alínea e) do Código dos Contratos Públicos","","",,"",,2211341,Medicamentos anestésicos e relaxantes musculares,FALSE
31/573/2017,Ao abrigo de acordo-quadro (art.º 258.º),Aquisição de bens móveis,"33690000-3, Medicamentos vários","Centro Hospitalar do Algarve, E. P. E. (510745997)","LABORATÓRIOS PFIZER, LDA. (500162166)","113.000,00 €",11-07-2017,04-01-2017,362 dias,"Portugal, Faro, Faro","Artigo 26.º, n.º 1, alínea e) do Código dos Contratos Públicos","","",,"",,1326195,ACORDO QUADRO PARA FORNECIMENTO DE MEDICAMENTOS ANTI-INFECIOSOS: EXCETO ANTIVÍRICOS E ANTIFÚNGICOS ÀS INSTITUIÇÕES E SERVIÇOS DO SERVIÇO NACIONAL DE SAÚDE,FALSE
61/1140/2017 Medicamento Ipilimumab 200 mg,Ajuste Direto Regime Geral,Aquisição de bens móveis,"33690000-3, Medicamentos vários","Centro Hospitalar do Algarve, E. P. E. (510745997)","BRISTOL-MYERS SQUIBB FARMACÊUTICA PORTUGUESA, S.A. (500048193)","13.353,20 €",10-07-2017,01-03-2017,30 dias,"Portugal, Faro, Faro","Artigo 24.º, n.º 1, alínea e) do Código dos Contratos Públicos","","",,"",,Não aplicável.,Não aplicável.,FALSE
Serviços Médicos de Ginecologia/Obstetrícia,Ajuste Direto Regime Geral,Aquisição de serviços,"85121210-8, Serviços de ginecologia ou obstetrícia","Centro Hospitalar do Algarve, E. P. E. (510745997)","Feminis, Lda (508413648)","600,00 €",10-07-2017,01-06-2017,1 dias,"Portugal, Faro, Faro","Artigo 24.º, n.º 1, alínea e) do Código dos Contratos Públicos",01-06-2017,"600,00 €",,"",,Não aplicável.,Não aplicável.,FALSE
61/1138/2017 Medicamento Lenalidomida 10 mg cáps,Ajuste Direto Regime Geral,Aquisição de bens móveis,"33690000-3, Medicamentos vários","Centro Hospitalar do Algarve, E. P. E. (510745997)","CELGENE - SOCIEDADE UNIPESSOAL, LDA (507791690)","21.427,66 €",10-07-2017,24-01-2017,341 dias,"Portugal, Faro, Faro","Artigo 24.º, n.º 1, alínea e) do Código dos Contratos Públicos","","",,"",,Não aplicável.,Não aplicável.,FALSE
Serviços médicos neurocirurgia,Ajuste Direto Regime Geral,Aquisição de serviços,"85100000-0, Serviços de saúde","Centro Hospitalar do Algarve, E. P. E. (510745997)",HOSPITAL LUSIADAS (505962403),"6.384,00 €",10-07-2017,06-06-2017,0 dias,"Portugal, Faro, Faro","Artigo 24.º, n.º 1, alínea e) do Código dos Contratos Públicos","","",,"",,Não aplicável.,Não aplicável.,FALSE
61/1122/2017 Reagentes cadeias leves livres k (doseamento soroa) e cadeias leves livres L,Ajuste Direto Regime Geral,Aquisição de bens móveis,"33696500-0, Reagentes de laboratório","Centro Hospitalar do Algarve, E. P. E. (510745997)",The Binding site group Ltd - Sucursal em Portugal (980525136),"2.000,00 €",10-07-2017,30-01-2017,335 dias,"Portugal, Faro, Faro","Artigo 24.º, n.º 1, alínea e) do Código dos Contratos Públicos","","",,"",,Não aplicável.,Não aplicável.,FALSE
61/1120/2017 Reagentes para técnicas por imunoensaio enzimático em microplacas,Ajuste Direto Regime Geral,Aquisição de bens móveis,"33696500-0, Reagentes de laboratório","Centro Hospitalar do Algarve, E. P. E. (510745997)","GRIFOLS PORTUGAL, LDA. (502041285)","5.930,00 €",10-07-2017,24-01-2017,341 dias,"Portugal, Faro, Faro","Artigo 24.º, n.º 1, alínea e) do Código dos Contratos Públicos","","",,"",,Não aplicável.,Não aplicável.,FALSE
Serviços médicos urgência geral,Ajuste Direto Regime Geral,Aquisição de serviços,"85140000-2, Serviços de saúde diversos","Centro Hospitalar do Algarve, E. P. E. (510745997)","Brigantia Saúde, Lda (514062037)","1.800,00 €",10-07-2017,25-05-2017,180 dias,"Portugal, Faro, Faro","Artigo 24.º, n.º 1, alínea e) do Código dos Contratos Públicos","","",,"",,Não aplicável.,Não aplicável.,FALSE
"61/1118/2017 HIV 1 RNA quantificação, reagentes",Ajuste Direto Regime Geral,Aquisição de bens móveis,"33696500-0, Reagentes de laboratório","Centro Hospitalar do Algarve, E. P. E. (510745997)","ROCHE SISTEMAS DIAGNOSTICO,LDA (504282921)","23.520,00 €",10-07-2017,27-01-2017,338 dias,"Portugal, Faro, Faro","Artigo 24.º, n.º 1, alínea e) do Código dos Contratos Públicos","","",,"",,Não aplicável.,Não aplicável.,FALSE
Aquisição de Sist. Pace Bi-ventricular – CRT D DF,Ajuste Direto Regime Geral,Aquisição de bens móveis,"33140000-3, Material médico de consumo","Centro Hospitalar do Algarve, E. P. E. (510745997)","MEDTRONIC PORTUGAL, LDA. (504223933)","13.300,00 €",10-07-2017,22-06-2017,6 dias,"Portugal, Faro, Portimão<BR/>Portugal, Faro, Faro<BR/>Portugal, Faro, Lagos","Artigo 20.º, n.º 1, alínea a) do Código dos Contratos Públicos","","",,"",,Não aplicável.,Não aplicável.,FALSE
31/293/2017,Ao abrigo de acordo-quadro (art.º 258.º),Aquisição de bens móveis,"33690000-3, Medicamentos vários","Centro Hospitalar do Algarve, E. P. E. (510745997)",LABORATORIO EDOL-PROD.FARM.S.A. (507072642),"10.031,56 €",10-07-2017,03-01-2017,363 dias,"Portugal, Faro, Faro","Artigo 26.º, n.º 1, alínea e) do Código dos Contratos Públicos","","",,"",,1377420,Acordo quadro para fornecimento de medicamentos usados nas afecções oculares e otorrinolaringologias às instituições e serviços do serviço nacional de saúde,FALSE
31/294/2017,Ao abrigo de acordo-quadro (art.º 258.º),Aquisição de bens móveis,"33690000-3, Medicamentos vários","Centro Hospitalar do Algarve, E. P. E. (510745997)",Tecnifar - Industria Técnica Farmacêutica S.A (500280436),"386,00 €",10-07-2017,09-01-2017,356 dias,"Portugal, Faro, Faro","Artigo 26.º, n.º 1, alínea e) do Código dos Contratos Públicos","","",,"",,1377420,Acordo quadro para fornecimento de medicamentos usados nas afecções oculares e otorrinolaringologias às instituições e serviços do serviço nacional de saúde,FALSE
Serviços Médicos Ginecologia/Obstetrícia,Ajuste Direto Regime Geral,Aquisição de serviços,"85121210-8, Serviços de ginecologia ou obstetrícia","Centro Hospitalar do Algarve, E. P. E. (510745997)","Pedro Sereno - Prestação de Cuidados Médicos, Lda (500420289)","31.200,00 €",10-07-2017,09-06-2017,180 dias,"Portugal, Faro, Portimão<BR/>Portugal, Faro, Faro","Artigo 24.º, n.º 1, alínea e) do Código dos Contratos Públicos","","",,"",,Não aplicável.,Não aplicável.,FALSE
31/295/2017,Ao abrigo de acordo-quadro (art.º 258.º),Aquisição de bens móveis,"33690000-3, Medicamentos vários","Centro Hospitalar do Algarve, E. P. E. (510745997)",Bausch & Lomb (980218764),"3.745,00 €",10-07-2017,01-02-2017,333 dias,"Portugal, Faro, Faro","Artigo 26.º, n.º 1, alínea e) do Código dos Contratos Públicos","","",,"",,1377420,Acordo quadro para fornecimento de medicamentos usados nas afecções oculares e otorrinolaringologias às instituições e serviços do serviço nacional de saúde,FALSE
61/1113/2017 Medicamentos Hidroxicloroquina 400 mg Comp e Rifaximina 200 mg Comp,Ajuste Direto Regime Geral,Aquisição de bens móveis,"33690000-3, Medicamentos vários","Centro Hospitalar do Algarve, E. P. E. (510745997)","Alfa Wassermann - Produtos Farmacêuticos, Lda. (502857722)","1.490,70 €",10-07-2017,27-02-2017,307 dias,"Portugal, Faro, Faro","Artigo 24.º, n.º 1, alínea e) do Código dos Contratos Públicos","","",,"",,Não aplicável.,Não aplicável.,FALSE
31/296/2017,Ao abrigo de acordo-quadro (art.º 258.º),Aquisição de bens móveis,"33690000-3, Medicamentos vários","Centro Hospitalar do Algarve, E. P. E. (510745997)","Teva Pharma - Produtos Farmacêuticos, Lda (507045491)","33.420,00 €",10-07-2017,01-02-2017,333 dias,"Portugal, Faro, Faro","Artigo 26.º, n.º 1, alínea e) do Código dos Contratos Públicos","","",,"",,1338581,"Acordo quadro para fornecimento de Medicação antialérgica, medicamentos usados no tratamento de intoxicações, vitaminas e sais minerais e grupo 20.9 - outros produtos às instituições e serviços do serviço nacional de saúde",FALSE
31/297/2017,Ao abrigo de acordo-quadro (art.º 258.º),Aquisição de bens móveis,"33690000-3, Medicamentos vários","Centro Hospitalar do Algarve, E. P. E. (510745997)","LABORATÓRIO MEDINFAR - PRODUTOS FARMACÊUTICOS, SA (500384045)","1.548,50 €",10-07-2017,03-02-2017,331 dias,"Portugal, Faro, Faro","Artigo 26.º, n.º 1, alínea e) do Código dos Contratos Públicos","","",,"",,1338581,"Acordo quadro para fornecimento de Medicação antialérgica, medicamentos usados no tratamento de intoxicações, vitaminas e sais minerais e grupo 20.9 - outros produtos às instituições e serviços do serviço nacional de saúde",FALSE
31/298/2017,Ao abrigo de acordo-quadro (art.º 258.º),Aquisição de bens móveis,"33690000-3, Medicamentos vários","Centro Hospitalar do Algarve, E. P. E. (510745997)","Novartis Farma - Produtos Farmacêuticos, S.A. (500063524)","2.014,60 €",10-07-2017,07-03-2017,299 dias,"Portugal, Faro, Faro","Artigo 26.º, n.º 1, alínea e) do Código dos Contratos Públicos","","",,"",,1338581,"Acordo quadro para fornecimento de Medicação antialérgica, medicamentos usados no tratamento de intoxicações, vitaminas e sais minerais e grupo 20.9 - outros produtos às instituições e serviços do serviço nacional de saúde",FALSE
61/1112/2017 Medicamento Fumarato de dimetilo 240 mg Cáps GR,Ajuste Direto Regime Geral,Aquisição de bens móveis,"33690000-3, Medicamentos vários","Centro Hospitalar do Algarve, E. P. E. (510745997)",BIOGEN IDEC PORTUGAL (506415740),"1.817,16 €",10-07-2017,24-01-2017,341 dias,"Portugal, Faro, Faro","Artigo 24.º, n.º 1, alínea e) do Código dos Contratos Públicos","","",,"",,Não aplicável.,Não aplicável.,FALSE
Serviços Médicos Nefrologia,Ajuste Direto Regime Geral,Aquisição de serviços,"85121220-1, Serviços especializados de nefrologia ou do sistema nervoso","Centro Hospitalar do Algarve, E. P. E. (510745997)","Guerra Pauthier, Lda (506309134)","4.800,00 €",10-07-2017,26-06-2017,90 dias,"Portugal, Faro, Faro","Artigo 24.º, n.º 1, alínea e) do Código dos Contratos Públicos","","",,"",,Não aplicável.,Não aplicável.,FALSE
31/299/2017,Ao abrigo de acordo-quadro (art.º 258.º),Aquisição de bens móveis,"33690000-3, Medicamentos vários","Centro Hospitalar do Algarve, E. P. E. (510745997)","Bayer Portugal, Lda (500043256)","7.347,00 €",10-07-2017,01-02-2017,333 dias,"Portugal, Faro, Faro","Artigo 26.º, n.º 1, alínea e) do Código dos Contratos Públicos","","",,"",,1338581,"Acordo quadro para fornecimento de Medicação antialérgica, medicamentos usados no tratamento de intoxicações, vitaminas e sais minerais e grupo 20.9 - outros produtos às instituições e serviços do serviço nacional de saúde",FALSE
31/460/2017,Ao abrigo de acordo-quadro (art.º 258.º),Aquisição de bens móveis,"33690000-3, Medicamentos vários","Centro Hospitalar do Algarve, E. P. E. (510745997)","Laboratório Farmacêuticos Rovi, S.A. (980166705)","7.000,00 €",10-07-2017,05-01-2017,361 dias,"Portugal, Faro, Faro","Artigo 26.º, n.º 1, alínea e) do Código dos Contratos Públicos","","",,"",,1473614,CP 2015/56 - Acordo quadro para fornecimento de medicamentos usados como meios de diagnóstico em Imagiologia às Instituições e Serviços do Serviço Nacional de Saúde,FALSE
31/461/2017,Ao abrigo de acordo-quadro (art.º 258.º),Aquisição de bens móveis,"33690000-3, Medicamentos vários","Centro Hospitalar do Algarve, E. P. E. (510745997)","A.MARTINS & FERNANDES,SA (501172114)","8.100,00 €",10-07-2017,04-01-2017,362 dias,"Portugal, Faro, Faro","Artigo 26.º, n.º 1, alínea e) do Código dos Contratos Públicos","","",,"",,1473614,CP 2015/56 - Acordo quadro para fornecimento de medicamentos usados como meios de diagnóstico em Imagiologia às Instituições e Serviços do Serviço Nacional de Saúde,FALSE
61/1111/2017 Medicamento Moroctocog alfa 250 U.I./4 ml Pó sol inj Ser 4 ml IV,Ajuste Direto Regime Geral,Aquisição de bens móveis,"33690000-3, Medicamentos vários","Centro Hospitalar do Algarve, E. P. E. (510745997)","Pfizer Biofarmacêutica, Sociedade Unipessoal Lda. (513300376)","4.415,59 €",10-07-2017,24-01-2017,30 dias,"Portugal, Faro, Faro","Artigo 24.º, n.º 1, alínea e) do Código dos Contratos Públicos","","",,"",,Não aplicável.,Não aplicável.,FALSE
61/1100/2017 Medicamento Certolizumab pegol 200 mg/1 ml Sol inj Ser 1 ml SC,Ajuste Direto Regime Geral,Aquisição de bens móveis,"33690000-3, Medicamentos vários","Centro Hospitalar do Algarve, E. P. E. (510745997)","UCB Pharma (Produtos Farmacêuticos), Lda (500291322)","3.973,60 €",10-07-2017,25-01-2017,340 dias,"Portugal, Faro, Faro","Artigo 24.º, n.º 1, alínea e) do Código dos Contratos Públicos","","",,"",,Não aplicável.,Não aplicável.,FALSE
61/1110/2017 Medicamento Emtricitabina 200 mg + Rilpivirina 25 mg + Tenofovir 245 mg Comp,Ajuste Direto Regime Geral,Aquisição de bens móveis,"33690000-3, Medicamentos vários","Centro Hospitalar do Algarve, E. P. E. (510745997)","Gilead Sciences, Lda. (503604704)","180.540,31 €",10-07-2017,30-01-2017,30 dias,"Portugal, Faro, Faro","Artigo 24.º, n.º 1, alínea e) do Código dos Contratos Públicos","","",,"",,Não aplicável.,Não aplicável.,FALSE
Aquisição de Filtro e Circuito Respiratório para Ventilador SLE 6000,Ajuste Direto Regime Geral,Aquisição de bens móveis,"33140000-3, Material médico de consumo","Centro Hospitalar do Algarve, E.P.E. (510745997)","SANO-TECNICA, LDA. (500239819)","697,90 €",10-07-2017,06-07-2017,160 dias,"Portugal, Faro, Portimão<BR/>Portugal, Faro, Lagos<BR/>Portugal, Faro, Faro","Artigo 20.º, n.º 1, alínea a) do Código dos Contratos Públicos","","",,"",,Não aplicável.,Não aplicável.,FALSE
31/284/2017,Ao abrigo de acordo-quadro (art.º 258.º),Aquisição de bens móveis,"33690000-3, Medicamentos vários","Centro Hospitalar do Algarve, E. P. E. (510745997)","GRUNENTHAL, S.A. (500101965)","16.650,00 €",10-07-2017,01-03-2017,305 dias,"Portugal, Faro, Faro","Artigo 26.º, n.º 1, alínea e) do Código dos Contratos Públicos","","",,"",,1410779,CP 2015/47 - Acordo quadro para fornecimento de medicamentos do aparelho locomotor às instituições e serviços do serviço nacional de saúde,FALSE
61/1080/2017 Reagente HPV,Ajuste Direto Regime Geral,Aquisição de bens móveis,"33696500-0, Reagentes de laboratório","Centro Hospitalar do Algarve, E.P.E. (510745997)","ROCHE SISTEMAS DIAGNOSTICO,LDA (504282921)","12.480,00 €",10-07-2017,17-01-2017,348 dias,"Portugal, Faro, Faro","Artigo 24.º, n.º 1, alínea e) do Código dos Contratos Públicos","","",,"",,Não aplicável.,Não aplicável.,FALSE
31/285/2017,Ao abrigo de acordo-quadro (art.º 258.º),Aquisição de bens móveis,"33790000-4, Artigos de vidro para laboratório, higiene ou farmácia","Centro Hospitalar do Algarve, E. P. E. (510745997)","R2MC - Rangel, Produtos Farmacêuticos, S.A. (510599818)","1.220,68 €",10-07-2017,04-01-2017,362 dias,"Portugal, Faro, Faro","Artigo 26.º, n.º 1, alínea e) do Código dos Contratos Públicos","","",,"",,1410779,CP 2015/47 - Acordo quadro para fornecimento de medicamentos do aparelho locomotor às instituições e serviços do serviço nacional de saúde,FALSE
61/1075/2016 Medicamentos Ramucirumab 10 mg/ml,Ajuste Direto Regime Geral,Aquisição de bens móveis,"33690000-3, Medicamentos vários","Centro Hospitalar do Algarve, E. P. E. (510745997)",LILLY PORTUGAL-PROD.FARMAC.LDA (500165602),"119.600,00 €",10-07-2017,01-03-2017,305 dias,"Portugal, Faro, Faro","Artigo 24.º, n.º 1, alínea e) do Código dos Contratos Públicos","","",,"",,Não aplicável.,Não aplicável.,FALSE
61/1069/2017 Reagentes RPR 500t e Teste aglutinação Staphylococcus aureus colónias,Ajuste Direto Regime Geral,Aquisição de bens móveis,"33696500-0, Reagentes de laboratório","Centro Hospitalar do Algarve, E. P. E. (510745997)","CSP Saúde - Centro Serviços Partilhados, SA  (508440246)","188,48 €",10-07-2017,26-01-2017,339 dias,"Portugal, Faro, Faro","Artigo 24.º, n.º 1, alínea e) do Código dos Contratos Públicos","","",,"",,Não aplicável.,Não aplicável.,FALSE
61/1068/2017 Reagentes Diversos,Ajuste Direto Regime Geral,Aquisição de bens móveis,"33696500-0, Reagentes de laboratório","Centro Hospitalar do Algarve, E. P. E. (510745997)","NORMAX,LDA. (500203130)","262,40 €",10-07-2017,01-02-2017,333 dias,"Portugal, Faro, Faro","Artigo 24.º, n.º 1, alínea e) do Código dos Contratos Públicos","","",,"",,Não aplicável.,Não aplicável.,FALSE
61/1067/2017 Reagente detecção ag. legionella pneumophila,Ajuste Direto Regime Geral,Aquisição de bens móveis,"33696500-0, Reagentes de laboratório","Centro Hospitalar do Algarve, E. P. E. (510745997)","IBCL, Lda. (507001664)","405,00 €",10-07-2017,25-01-2017,340 dias,"Portugal, Faro, Faro","Artigo 24.º, n.º 1, alínea e) do Código dos Contratos Públicos","","",,"",,Não aplicável.,Não aplicável.,FALSE
31/286/2017,Ao abrigo de acordo-quadro (art.º 258.º),Aquisição de bens móveis,"33690000-3, Medicamentos vários","Centro Hospitalar do Algarve, E. P. E. (510745997)","Roche Farmacêutica Química, Lda. (500233810)","7.203,75 €",10-07-2017,01-02-2017,333 dias,"Portugal, Faro, Faro","Artigo 26.º, n.º 1, alínea e) do Código dos Contratos Públicos","","",,"",,1410779,CP 2015/47 - Acordo quadro para fornecimento de medicamentos do aparelho locomotor às instituições e serviços do serviço nacional de saúde,FALSE
31/287/2017,Ao abrigo de acordo-quadro (art.º 258.º),Aquisição de bens móveis,"33690000-3, Medicamentos vários","Centro Hospitalar do Algarve, E. P. E. (510745997)",MEDA PHARMA - PROD.FARMAC. SA (500082090),"1.500,00 €",10-07-2017,03-02-2017,332 dias,"Portugal, Faro, Faro","Artigo 26.º, n.º 1, alínea e) do Código dos Contratos Públicos","","",,"",,1404918,CP 2015/48 - Acordo Quadro para fornecimento de Medicamentos de Consumo Geral - Aparelho Geniturinário às Instituições e Serviços do Serviço Nacional de Saúde,FALSE
31/288/2017,Ao abrigo de acordo-quadro (art.º 258.º),Aquisição de bens móveis,"33690000-3, Medicamentos vários","Centro Hospitalar do Algarve, E. P. E. (510745997)",Jaba Recordati (500492867),"1.069,17 €",10-07-2017,08-02-2017,326 dias,"Portugal, Faro, Faro","Artigo 26.º, n.º 1, alínea e) do Código dos Contratos Públicos","","",,"",,1404918,CP 2015/48 - Acordo Quadro para fornecimento de Medicamentos de Consumo Geral - Aparelho Geniturinário às Instituições e Serviços do Serviço Nacional de Saúde,FALSE
"61/1064/2017 Medicamentos Dexametasona 5mg, Digoxina 0,125 mg, 0,25 mg comp e Nandrolona 50 mg",Ajuste Direto Regime Geral,Aquisição de bens móveis,"33690000-3, Medicamentos vários","Centro Hospitalar do Algarve, E. P. E. (510745997)","BDRPHARMA, LDA (513077332)","104.012,37 €",10-07-2017,24-04-2017,251 dias,"Portugal, Faro, Faro","Artigo 24.º, n.º 1, alínea e) do Código dos Contratos Públicos","","",,"",,Não aplicável.,Não aplicável.,FALSE
31/289/2017,Ao abrigo de acordo-quadro (art.º 258.º),Aquisição de bens móveis,"33690000-3, Medicamentos vários","Centro Hospitalar do Algarve, E. P. E. (510745997)",FERRING PORTUG.-PROD.FARMAC. (502034831),"63.220,32 €",10-07-2017,07-02-2017,327 dias,"Portugal, Faro, Faro","Artigo 26.º, n.º 1, alínea e) do Código dos Contratos Públicos","","",,"",,1404918,CP 2015/48 - Acordo Quadro para fornecimento de Medicamentos de Consumo Geral - Aparelho Geniturinário às Instituições e Serviços do Serviço Nacional de Saúde,FALSE
31/290/2017,Ao abrigo de acordo-quadro (art.º 258.º),Aquisição de bens móveis,"33690000-3, Medicamentos vários","Centro Hospitalar do Algarve, E. P. E. (510745997)","LABORATÓRIOS PFIZER, LDA. (500162166)","73,70 €",10-07-2017,03-01-2017,362 dias,"Portugal, Faro, Faro","Artigo 26.º, n.º 1, alínea e) do Código dos Contratos Públicos","","",,"",,1404918,CP 2015/48 - Acordo Quadro para fornecimento de Medicamentos de Consumo Geral - Aparelho Geniturinário às Instituições e Serviços do Serviço Nacional de Saúde,FALSE
31/291/2017,Ao abrigo de acordo-quadro (art.º 258.º),Aquisição de bens móveis,"33690000-3, Medicamentos vários","Centro Hospitalar do Algarve, E. P. E. (510745997)","OVERPHARMA,LDA. (505792362)","105,49 €",10-07-2017,04-01-2017,361 dias,"Portugal, Faro, Faro","Artigo 26.º, n.º 1, alínea e) do Código dos Contratos Públicos","","",,"",,1404918,CP 2015/48 - Acordo Quadro para fornecimento de Medicamentos de Consumo Geral - Aparelho Geniturinário às Instituições e Serviços do Serviço Nacional de Saúde,FALSE
31/292/2017,Ao abrigo de acordo-quadro (art.º 258.º),Aquisição de bens móveis,"33690000-3, Medicamentos vários","Centro Hospitalar do Algarve, E. P. E. (510745997)","DAVI II - FARMACÊUTICA, S.A. (508309450)","1.360,00 €",10-07-2017,03-02-2017,331 dias,"Portugal, Faro, Faro","Artigo 26.º, n.º 1, alínea e) do Código dos Contratos Públicos","","",,"",,1377420,Acordo quadro para fornecimento de medicamentos usados nas afecções oculares e otorrinolaringologias às instituições e serviços do serviço nacional de saúde,FALSE
"61/1061/2017 Risperidona 25mg, 50 mg, Haloperidol 2mg/ml e Etomidato 20 mg",Ajuste Direto Regime Geral,Aquisição de bens móveis,"33690000-3, Medicamentos vários","Centro Hospitalar do Algarve, E. P. E. (510745997)","Janssen-Cilag Farmacêutica, Lda. (500189412)","13.920,40 €",10-07-2017,17-02-2017,317 dias,"Portugal, Faro, Faro","Artigo 24.º, n.º 1, alínea e) do Código dos Contratos Públicos","","",,"",,Não aplicável.,Não aplicável.,FALSE
61/1047/2017 Gelatina 54 mg/4.5 g + Glicerol 3830 mg/4.5 g Gel rect Bisn 4.5 g (Bebegel),Ajuste Direto Regime Geral,Aquisição de bens móveis,"33690000-3, Medicamentos vários","Centro Hospitalar do Algarve, E. P. E. (510745997)",MEDA PHARMA - PROD.FARMAC. SA (500082090),"1.457,94 €",10-07-2017,26-01-2017,339 dias,"Portugal, Faro, Faro","Artigo 24.º, n.º 1, alínea e) do Código dos Contratos Públicos","","",,"",,Não aplicável.,Não aplicável.,FALSE
61/997/2017 Reagentes Anticorpo ALK clone (D5F3) e CINtec Plus,Ajuste Direto Regime Geral,Aquisição de bens móveis,"33696500-0, Reagentes de laboratório","Centro Hospitalar do Algarve, E. P. E. (510745997)","ROCHE SISTEMAS DIAGNOSTICO,LDA (504282921)","10.500,00 €",10-07-2017,27-01-2017,338 dias,"Portugal, Faro, Faro","Artigo 24.º, n.º 1, alínea e) do Código dos Contratos Públicos","","",,"",,Não aplicável.,Não aplicável.,FALSE
61/994/2017 Medicamentos vários,Ajuste Direto Regime Geral,Aquisição de bens móveis,"33690000-3, Medicamentos vários","Centro Hospitalar do Algarve, E. P. E. (510745997)","LABESFAL, Laboratório Almiro S.A. (501169580)","11.960,44 €",07-07-2017,30-01-2017,335 dias,"Portugal, Faro, Faro","Artigo 24.º, n.º 1, alínea e) do Código dos Contratos Públicos","","",,"",,Não aplicável.,Não aplicável.,FALSE
61/993/2017 Medicamentos Fumarato de demitilo 120 mg,Ajuste Direto Regime Geral,Aquisição de bens móveis,"33690000-3, Medicamentos vários","Centro Hospitalar do Algarve, E. P. E. (510745997)",BIOGEN IDEC PORTUGAL (506415740),"3.395,61 €",07-07-2017,30-01-2017,335 dias,"Portugal, Faro, Faro","Artigo 24.º, n.º 1, alínea e) do Código dos Contratos Públicos","","",,"",,Não aplicável.,Não aplicável.,FALSE
61/938/2017 Medicamentos,Ajuste Direto Regime Geral,Aquisição de bens móveis,"33690000-3, Medicamentos vários","Centro Hospitalar do Algarve, E. P. E. (510745997)",LABORATORIOS ATRAL S.A (500162085),"12.783,78 €",07-07-2017,22-02-2017,312 dias,"Portugal, Faro, Faro","Artigo 24.º, n.º 1, alínea e) do Código dos Contratos Públicos","","",,"",,Não aplicável.,Não aplicável.,FALSE
61/937/2017 Medicamentos diversos,Ajuste Direto Regime Geral,Aquisição de bens móveis,"33690000-3, Medicamentos vários","Centro Hospitalar do Algarve, E. P. E. (510745997)","Laboratórios Vitória, S.A. (500162220)","2.835,54 €",07-07-2017,07-02-2017,327 dias,"Portugal, Faro, Faro","Artigo 24.º, n.º 1, alínea e) do Código dos Contratos Públicos","","",,"",,Não aplicável.,Não aplicável.,FALSE
"61/936/2017 Medicamentos Acamprosato, Colecalciferol",Ajuste Direto Regime Geral,Aquisição de bens móveis,"33690000-3, Medicamentos vários","Centro Hospitalar do Algarve, E. P. E. (510745997)",MERCK  S.A. (500650870),"529,82 €",07-07-2017,14-03-2017,292 dias,"Portugal, Faro, Faro","Artigo 24.º, n.º 1, alínea e) do Código dos Contratos Públicos","","",,"",,Não aplicável.,Não aplicável.,FALSE
"61/934/2017 Medicamentos Etinilestradiol + Etonosgestrel, Sitaglitina",Ajuste Direto Regime Geral,Aquisição de bens móveis,"33690000-3, Medicamentos vários","Centro Hospitalar do Algarve, E. P. E. (510745997)","Merck Sharp & Dohme, Lda. (500191360)","29.700,10 €",07-07-2017,30-01-2017,335 dias,"Portugal, Faro, Faro","Artigo 24.º, n.º 1, alínea e) do Código dos Contratos Públicos","","",,"",,Não aplicável.,Não aplicável.,FALSE
61/933/2017 Medicamentos Insulina Humana,Ajuste Direto Regime Geral,Aquisição de bens móveis,"33690000-3, Medicamentos vários","Centro Hospitalar do Algarve, E. P. E. (510745997)","Novo Nordisk - Comércio Produtos Farmacêuticos, Lda. (501485210)","2.067,50 €",07-07-2017,10-02-2017,324 dias,"Portugal, Faro, Faro","Artigo 24.º, n.º 1, alínea e) do Código dos Contratos Públicos","","",,"",,Não aplicável.,Não aplicável.,FALSE
61/932/2017 Medicamentos Semitecone,Ajuste Direto Regime Geral,Aquisição de bens móveis,"33690000-3, Medicamentos vários","Centro Hospitalar do Algarve, E. P. E. (510745997)","OM PHARMA, S.A. (500207410)","892,00 €",07-07-2017,07-02-2017,327 dias,"Portugal, Faro, Faro","Artigo 24.º, n.º 1, alínea e) do Código dos Contratos Públicos","","",,"",,Não aplicável.,Não aplicável.,FALSE
31/283/2017,Ao abrigo de acordo-quadro (art.º 258.º),Aquisição de bens móveis,"33690000-3, Medicamentos vários","Centro Hospitalar do Algarve, E. P. E. (510745997)","Dermis - Produtos de Saúde, S.A. (507988990)","986,10 €",07-07-2017,01-02-2017,333 dias,"Portugal, Faro, Faro","Artigo 26.º, n.º 1, alínea e) do Código dos Contratos Públicos","","",,"",,1410779,CP 2015/47 - Acordo quadro para fornecimento de medicamentos do aparelho locomotor às instituições e serviços do serviço nacional de saúde,FALSE
31/270/2017,Ao abrigo de acordo-quadro (art.º 258.º),Aquisição de bens móveis,"33690000-3, Medicamentos vários","Centro Hospitalar do Algarve, E. P. E. (510745997)","Generis Farmacêutica, S.A. (508107997)","753,86 €",07-07-2017,06-01-2017,359 dias,"Portugal, Faro, Faro","Artigo 26.º, n.º 1, alínea e) do Código dos Contratos Públicos","","",,"",,1974985,"Medicamentos Analgésicos, Antipiréticos e Antidepressivos",FALSE
31/274/2017,Ao abrigo de acordo-quadro (art.º 258.º),Aquisição de bens móveis,"33690000-3, Medicamentos vários","Centro Hospitalar do Algarve, E. P. E. (510745997)","Baxter Médico Farmacêutica, Lda. (503347345)","58.939,92 €",07-07-2017,12-01-2017,353 dias,"Portugal, Faro, Faro","Artigo 26.º, n.º 1, alínea e) do Código dos Contratos Públicos","","",,"",,2211341,Medicamentos anestésicos e relaxantes musculares,FALSE
31/275/2017,Ao abrigo de acordo-quadro (art.º 258.º),Aquisição de bens móveis,"33690000-3, Medicamentos vários","Centro Hospitalar do Algarve, E. P. E. (510745997)","Astellas Farma, Lda. (502540249)","6.143,10 €",07-07-2017,06-01-2017,359 dias,"Portugal, Faro, Faro","Artigo 26.º, n.º 1, alínea e) do Código dos Contratos Públicos","","",,"",,2211341,Medicamentos anestésicos e relaxantes musculares,FALSE
31/276/2017,Ao abrigo de acordo-quadro (art.º 258.º),Aquisição de bens móveis,"33690000-3, Medicamentos vários","Centro Hospitalar do Algarve, E. P. E. (510745997)","Generis Farmacêutica, S.A. (508107997)","661,20 €",07-07-2017,27-01-2017,338 dias,"Portugal, Faro, Faro","Artigo 26.º, n.º 1, alínea e) do Código dos Contratos Públicos","","",,"",,2211341,Medicamentos anestésicos e relaxantes musculares,FALSE
31/278/2017,Ao abrigo de acordo-quadro (art.º 258.º),Aquisição de bens móveis,"33690000-3, Medicamentos vários","Centro Hospitalar do Algarve, E. P. E. (510745997)",BIAL -  PORTELA & Cª S.A. (500220913),"3.391,28 €",07-07-2017,27-03-2017,279 dias,"Portugal, Faro, Faro","Artigo 26.º, n.º 1, alínea e) do Código dos Contratos Públicos","","",,"",,1410779,CP 2015/47 - Acordo quadro para fornecimento de medicamentos do aparelho locomotor às instituições e serviços do serviço nacional de saúde,FALSE
31/279/2017,Ao abrigo de acordo-quadro (art.º 258.º),Aquisição de bens móveis,"33690000-3, Medicamentos vários","Centro Hospitalar do Algarve, E. P. E. (510745997)","LABESFAL, Laboratório Almiro S.A. (501169580)","5.216,00 €",07-07-2017,03-01-2017,362 dias,"Portugal, Faro, Faro","Artigo 26.º, n.º 1, alínea e) do Código dos Contratos Públicos","","",,"",,1410779,CP 2015/47 - Acordo quadro para fornecimento de medicamentos do aparelho locomotor às instituições e serviços do serviço nacional de saúde,FALSE
31/280/2017,Ao abrigo de acordo-quadro (art.º 258.º),Aquisição de bens móveis,"33690000-3, Medicamentos vários","Centro Hospitalar do Algarve, E. P. E. (510745997)",Jaba Recordati (500492867),"260,80 €",07-07-2017,28-03-2017,278 dias,"Portugal, Faro, Faro","Artigo 26.º, n.º 1, alínea e) do Código dos Contratos Públicos","","",,"",,1410779,CP 2015/47 - Acordo quadro para fornecimento de medicamentos do aparelho locomotor às instituições e serviços do serviço nacional de saúde,FALSE
31/282/2017,Ao abrigo de acordo-quadro (art.º 258.º),Aquisição de bens móveis,"33690000-3, Medicamentos vários","Centro Hospitalar do Algarve, E. P. E. (510745997)","OVERPHARMA,LDA. (505792362)","5.096,00 €",07-07-2017,02-02-2017,332 dias,"Portugal, Faro, Faro","Artigo 26.º, n.º 1, alínea e) do Código dos Contratos Públicos","","",,"",,1410779,CP 2015/47 - Acordo quadro para fornecimento de medicamentos do aparelho locomotor às instituições e serviços do serviço nacional de saúde,FALSE
substituição controladores GTC ( 67/1550/17),Ajuste Direto Regime Geral,Aquisição de bens móveis,"39715210-2, Equipamento para aquecimento central","Centro Hospitalar do Algarve, E. P. E. (510745997)",Honeywell SA (500908680),"31.432,10 €",06-07-2017,12-06-2017,15 dias,"Portugal, Faro, Portimão","Artigo 24.º, n.º 1, alínea e) do Código dos Contratos Públicos","","",,"",,Não aplicável.,Não aplicável.,FALSE
helio ( 78/3156/17),Ajuste Direto Regime Geral,Aquisição de bens móveis,"24111300-8, Hélio","Centro Hospitalar do Algarve, E. P. E. (510745997)",AIR LIQUIDE MEDICINAL SA                           (501576436),"8.892,00 €",06-07-2017,29-06-2017,5 dias,"Portugal, Faro, Portimão","Artigo 20.º, n.º 1, alínea a) do Código dos Contratos Públicos","","",,"",,Não aplicável.,Não aplicável.,FALSE
interface ( 77/1911/17),Ajuste Direto Regime Geral,Aquisição de bens móveis,"48180000-3, Pacote de software para medicina","Centro Hospitalar do Algarve, E. P. E. (510745997)","ALERT - LIFE SCIENCES COMPUTING, S.A. (507567455)","8.800,00 €",06-07-2017,03-07-2017,15 dias,"Portugal, Faro, Faro<BR/>Portugal, Faro, Portimão","Artigo 20.º, n.º 1, alínea a) do Código dos Contratos Públicos",31-12-2017,"",,interface não concluido em 2017 e não faturado,,Não aplicável.,Não aplicável.,FALSE
Aquisição de Desfibrilhadores,Concurso público,Aquisição de bens móveis,"33182100-0, Desfibrilhador","Centro Hospitalar do Algarve, E. P. E. (510745997)","Clínifar - Produtos Clínicos e Farmacêuticos, S.A. (503281115)","43.500,00 €",06-07-2017,06-07-2017,179 dias,"Portugal, Faro, Portimão<BR/>Portugal, Faro, Faro","Artigo 20.º, n.º 1, alínea b) do Código dos Contratos Públicos","","",,"",,Não aplicável.,Não aplicável.,FALSE
Proc. 68/3088/2017- Inspecção Periodica Elevadores-Edif.Ambulatorio-Unid.Faro,Ajuste Direto Regime Geral,Aquisição de serviços,"50750000-7, Serviços de manutenção de elevadores","Centro Hospitalar do Algarve, E. P. E. (510745997)",Município de Faro (506579425),"292,60 €",06-07-2017,29-06-2017,60 dias,"Portugal, Faro, Faro","Artigo 24.º, n.º 1, alínea e) do Código dos Contratos Públicos","","",,"",,Não aplicável.,Não aplicável.,FALSE
Proc.68.2965.2017 - Cat Garantia e Assistência Técnica a Equipamentos Multifunções Unid. Faro Expediente par 2º Semestre,Ajuste Direto Regime Geral,Aquisição de serviços,"50000000-5, Serviços de reparação e manutenção","Centro Hospitalar do Algarve, E. P. E. (510745997)","JRJ - Comércio de Equipamentos de Escritório, Ld.ª (505111500)","1.917,00 €",05-07-2017,29-06-2017,184 dias,"Portugal, Faro, Faro","Artigo 24.º, n.º 1, alínea e) do Código dos Contratos Públicos","","",,"",,Não aplicável.,Não aplicável.,FALSE
Aquisição de Cardioversor Desfibrilhador - 1 Camara - Utente: Joaquim Baioa,Ajuste Direto Regime Geral,Aquisição de bens móveis,"33182000-9, Material de assistência à função cardíaca","Centro Hospitalar do Algarve, E. P. E. (510745997)",BIOTRONIK Portugal (Unipessoal Lda. (510726941),"7.000,00 €",04-07-2017,08-06-2017,9 dias,"Portugal, Faro, Faro","Artigo 20.º, n.º 1, alínea a) do Código dos Contratos Públicos","","",,"",,Não aplicável.,Não aplicável.,FALSE
AQUISIÇÃO DE PACEMAKER BIVENTRICULAR,Ajuste Direto Regime Geral,Aquisição de bens móveis,"33182000-9, Material de assistência à função cardíaca","Centro Hospitalar do Algarve, E. P. E. (510745997)",BIOTRONIK Portugal (Unipessoal Lda. (510726941),"3.920,00 €",04-07-2017,16-06-2017,19 dias,"Portugal, Faro, Faro","Artigo 20.º, n.º 1, alínea a) do Código dos Contratos Públicos","","",,"",,Não aplicável.,Não aplicável.,FALSE
Aquisição de Cardioversor Desfibrilhador - 1 Camara - Utente: Noemia Guerreiro,Ajuste Direto Regime Geral,Aquisição de bens móveis,"33182000-9, Material de assistência à função cardíaca","Centro Hospitalar do Algarve, E. P. E. (510745997)","MEDTRONIC PORTUGAL, LDA. (504223933)","9.000,00 €",04-07-2017,08-06-2017,14 dias,"Portugal, Faro, Faro","Artigo 20.º, n.º 1, alínea a) do Código dos Contratos Públicos","","",,"",,Não aplicável.,Não aplicável.,FALSE
Material de Neurocirurgia,Concurso público,Aquisição de bens móveis,"33140000-3, Material médico de consumo","Centro Hospitalar do Algarve, E. P. E. (510745997)",B BRAUN MEDICAL LDA (501506543),"51.583,28 €",04-07-2017,06-02-2017,328 dias,"Portugal, Faro, Portimão<BR/>Portugal, Faro, Faro","Artigo 20.º, n.º 1, alínea b) do Código dos Contratos Públicos","","",,"",,Não aplicável.,Não aplicável.,FALSE
Luvas de Exame e Cirurgicas,Concurso público,Aquisição de bens móveis,"33000000-0, Equipamento médico, medicamentos e produtos para cuidados pessoais","Centro Hospitalar do Algarve, E. P. E. (510745997)","Medline (510533515), EZEQUIEL PANÄO JORGE (501412727), MEDICINÁLIA CORMEDICA (500684324), M. U. C. - MATERIAL UTILIDADE CLÍNICA, LDA. (502379308)","158.446,64 €",04-07-2017,27-06-2017,180 dias,"Portugal, Faro, Lagos<BR/>Portugal, Faro, Faro<BR/>Portugal, Faro, Portimão","Artigo 20.º, n.º 1, alínea b) do Código dos Contratos Públicos","","",,"",,Não aplicável.,Não aplicável.,FALSE
72/2926/2017- Aquisição Sensor Bis XP Adulto,Ajuste Direto Regime Geral,Aquisição de bens móveis,"33140000-3, Material médico de consumo","Centro Hospitalar do Algarve, E. P. E. (510745997)","MEDTRONIC PORTUGAL, LDA. (504223933)","12.592,50 €",04-07-2017,04-07-2017,182 dias,"Portugal, Faro, Faro<BR/>Portugal, Faro, Portimão","Artigo 20.º, n.º 1, alínea a) do Código dos Contratos Públicos","","",,"",,Não aplicável.,Não aplicável.,FALSE
62/2885/17-  Aquisição de Válvula de Limpeza p/ endoscópio,Ajuste Direto Regime Geral,Aquisição de bens móveis,"33140000-3, Material médico de consumo","Centro Hospitalar do Algarve, E. P. E. (510745997)","OLYMPUS IBERIA, s.a.u. (980474710)","164,00 €",04-07-2017,02-06-2017,182 dias,"Portugal, Faro, Portimão<BR/>Portugal, Faro, Lagos<BR/>Portugal, Faro, Faro","Artigo 20.º, n.º 1, alínea a) do Código dos Contratos Públicos","","",,"",,Não aplicável.,Não aplicável.,FALSE
Instrumental de Histeroscopia,Ajuste Direto Regime Geral,Aquisição de bens móveis,"33162200-5, Instrumentos para blocos operatórios","Centro Hospitalar do Algarve, E.P.E. (510745997)",Eurocasmédica (503322105),"14.695,00 €",04-07-2017,04-07-2017,181 dias,"Portugal, Faro, Faro<BR/>Portugal, Faro, Portimão","Artigo 20.º, n.º 1, alínea a) do Código dos Contratos Públicos","","",,"",,Não aplicável.,Não aplicável.,FALSE
