Objeto do Contrato,Tipo de Procedimento,Tipo(s) de Contrato,CPVs,Entidade(s) Adjudicante(s),Entidade(s) Adjudicatária(s),Preço Contratual,Data de Publicação,Data de Celebração do Contrato,Prazo de Execução,Local de Execução,Fundamentação,Data de Fecho do Contrato,Preço Total Efetivo,Causas das Alterações ao Prazo,Causas das Alterações ao Preço,Estado,N.º registo do Acordo Quadro,Descrição do Acordo Quadro,Procedimento Centralizado
Lâminas para máquina de tricotomia para o ano 2014,Ajuste Direto Regime Geral,Aquisição de bens móveis,"33000000-0, Equipamento médico, medicamentos e produtos para cuidados pessoais","Centro Hospitalar de Setúbal, E. P. E. (507606787)"," 3 M Portugal, Lda (500193940)","13.284,00 €",11-12-2013,19-11-2013,365 dias,"Portugal, Setúbal, Setúbal","Artigo 20.º, n.º 1, alínea a) do Código dos Contratos Públicos",,,,,,Não aplicável.,Não aplicável.,
"Etiquetas e Fitas Zebra, para o Ano de 2014",Ajuste Direto Regime Geral,Aquisição de bens móveis,"30000000-9, Máquinas, equipamento e material de escritório e de informática, excepto mobiliário e pacotes de programas (software)","Centro Hospitalar de Setúbal, E. P. E. (507606787)",Burótica (501178503),"15.369,23 €",03-12-2013,21-11-2013,365 dias,"Portugal, Setúbal, Setúbal","Artigo 20.º, n.º 1, alínea a) do Código dos Contratos Públicos",,,,,,Não aplicável.,Não aplicável.,
