Objeto do Contrato,Tipo de Procedimento,Tipo(s) de Contrato,CPVs,Entidade(s) Adjudicante(s),Entidade(s) Adjudicatária(s),Preço Contratual,Data de Publicação,Data de Celebração do Contrato,Prazo de Execução,Local de Execução,Fundamentação,Data de Fecho do Contrato,Preço Total Efetivo,Causas das Alterações ao Prazo,Causas das Alterações ao Preço,Estado,N.º registo do Acordo Quadro,Descrição do Acordo Quadro,Procedimento Centralizado
"Prestação de serviços de vigilância e segurança para os serviços da dependência da ARSLVT, IP",Ao abrigo de acordo-quadro (art.º 258.º),Aquisição de serviços,"79710000-4, Serviços de segurança","Administração Regional de Saúde de Lisboa e Vale do Tejo, I.P. (503148776)","Prestibel - Empresa de Segurança, SA (501326456)","3.019.439,84 €",08-08-2012,27-07-2012,153 dias,"Portugal, Lisboa<BR/>Portugal, Santarém<BR/>Portugal, Setúbal<BR/>Portugal, Leiria",Artigo 258.º do Código dos Contratos Públicos,,,,,,Não definido.,Não definido.,
Aquisição de Equipamento Informático - Projectores para a Unidade Móvel do Arco Ribeirinho e USF S. Filipe,Ajuste Direto Regime Geral,Aquisição de bens móveis,"32321200-1, Equipamento audiovisual","Administração Regional de Saúde de Lisboa e Vale do Tejo, I.P. (503148776)","BaseDois - Informática e Telecomunicações, Lda. (501333401)","484,00 €",08-08-2012,07-08-2012,30 dias,"Portugal, Setúbal, Setúbal",Artigo 258.º do Código dos Contratos Públicos,,,,,,Não aplicável.,Não aplicável.,
"Prestação de serviços de gestão dos resíduos hospitalares, sólidos e líquidos perigosos com risco biológico e com risco químico no ACES Oeste I - Oeste Norte (ACES 17) no período de 01/07/2012 a 31/12/2012",Ajuste Direto Regime Geral,Aquisição de serviços,"98390000-3, Outros serviços","Administração Regional de Saúde de Lisboa e Vale do Tejo, I.P. (503148776)",Such - Serviços de Utilização Comuns Hospitais (500900469),"10.353,00 €",08-08-2012,06-08-2012,183 dias,"Portugal, Leiria, Nazaré<BR/>Portugal, Leiria, Bombarral<BR/>Portugal, Leiria, Óbidos<BR/>Portugal, Leiria, Alcobaça<BR/>Portugal, Leiria, Peniche<BR/>Portugal, Leiria, Caldas da Rainha","Artigo 24.º, n.º 1, alínea e) do Código dos Contratos Públicos",,,,,,Não aplicável.,Não aplicável.,
"Prestação de serviços de gestão dos resíduos hospitalares, sólidos e líquidos perigosos com risco biológico e com risco químico da ARSLVT, IP – ACES 13; 14; 15; 16; 19; 20; 21 e 22 no período de 01/07/2012 a 31/12/2012.",Ajuste Direto Regime Geral,Aquisição de serviços,"98390000-3, Outros serviços","Administração Regional de Saúde de Lisboa e Vale do Tejo, I.P. (503148776)",Such - Serviços de Utilização Comuns Hospitais (500900469),"78.177,30 €",08-08-2012,08-08-2012,183 dias,"Portugal, Setúbal, Barreiro<BR/>Portugal, Setúbal, Sesimbra<BR/>Portugal, Setúbal, Seixal<BR/>Portugal, Setúbal, Setúbal<BR/>Portugal, Setúbal, Palmela<BR/>Portugal, Setúbal, Almada<BR/>Portugal, Santarém","Artigo 24.º, n.º 1, alínea e) do Código dos Contratos Públicos",,,,,,Não aplicável.,Não aplicável.,
Penso rápido seco 19x72,Ajuste Direto Regime Geral,Aquisição de bens móveis,"33141110-4, Pensos","Administração Regional de Saúde de Lisboa e Vale do Tejo, I.P. (503148776)",Paul Hartmann (502271728),"4.860,00 €",08-08-2012,06-08-2012,20 dias,"Portugal, Lisboa","Artigo 26.º, n.º 1, alínea e) do Código dos Contratos Públicos",,,,,,Não aplicável.,Não aplicável.,
"Fornecimento faseado de gás para aquecimento, mediante a necessidade, para os Concelhos de Alcobaça (UCSP D. Nuno-Aljubarrota) de 18 botijas e de C. Rainha de 79 botijas (USF Bordalo-Vidais e USF Tornada) para o ano 2012.",Ajuste Direto Regime Geral,Aquisição de bens móveis,"09122100-1, Gás propano","Administração Regional de Saúde de Lisboa e Vale do Tejo, I.P. (503148776)","Marques & Sousa, SA (502507713), S.A. Cruz de Cristo, Lda (500264228)","7.655,24 €",07-08-2012,20-03-2012,365 dias,"Portugal, Leiria, Caldas da Rainha<BR/>Portugal, Leiria, Alcobaça","Artigo 20.º, n.º 1, alínea a) do Código dos Contratos Públicos",,,,,,Não aplicável.,Não aplicável.,
"Serviços de conferência de facturas dos MCDTs de Lisboa, Santarém e Setúbal para prescrição no ambito dos serviços da ARSLVt, IP. Periodo de 01/01/2012 a 30/06/2012.",Ajuste Direto Regime Geral,Aquisição de serviços,"98390000-3, Outros serviços","Administração Regional de Saúde de Lisboa e Vale do Tejo, I.P. (503148776)","Confact, SA (504271733)","36.000,00 €",07-08-2012,02-08-2012,182 dias,"Portugal, Lisboa<BR/>Portugal, Setúbal<BR/>Portugal, Santarém","Artigo 20.º, n.º 1, alínea a) do Código dos Contratos Públicos",,,,,,Não aplicável.,Não aplicável.,
"Aquisição de serviços médicos (ACES 5, ACES 11, ACES 15, ACES 18 e ACES 22)",Ajuste Direto Regime Geral,Aquisição de serviços,"85000000-9, Serviços de saúde e acção social","Administração Regional de Saúde de Lisboa e Vale do Tejo, I.P. (503148776)","Randstad clinical - Cuidados de Saúde, Lda (505121247)","127.623,60 €",07-08-2012,27-07-2012,60 dias,Portugal,"Artigo 24.º, n.º 1, alínea e) do Código dos Contratos Públicos",,,,,,Não aplicável.,Não aplicável.,
PRESTAÇÃO DE SERVIÇOS DE RE-INSTALAÇÃO DE EQUIPAMENTO DE PURIFICAÇÃO DE ÁGUA ELIX 5 + DEPOSITO DE 30L - LSP ARSLVT - OEIRAS.,Ajuste Direto Regime Geral,Aquisição de serviços,"98390000-3, Outros serviços","Administração Regional de Saúde de Lisboa e Vale do Tejo, I.P. (503148776)",Interface (501379860),"499,00 €",07-08-2012,06-08-2012,30 dias,"Portugal, Lisboa, Oeiras","Artigo 24.º, n.º 1, alínea e) do Código dos Contratos Públicos",,,,,,Não aplicável.,Não aplicável.,
Aquisição de Prednisolona 20mg e Lidocaina 20mg/g,Ajuste Direto Regime Geral,Aquisição de bens móveis,"33690000-3, Medicamentos vários","Administração Regional de Saúde de Lisboa e Vale do Tejo, I.P. (503148776)","Labesfal, SA (501169580)","3.148,50 €",06-08-2012,20-07-2012,20 dias,"Portugal, Lisboa","Artigo 26.º, n.º 1, alínea e) do Código dos Contratos Públicos",,,,,,Não aplicável.,Não aplicável.,
Aquisição de Vacina BCG Liofilizada,Ajuste Direto Regime Geral,Aquisição de bens móveis,"33651600-4, Vacinas","Administração Regional de Saúde de Lisboa e Vale do Tejo, I.P. (503148776)","JM Farmaceutica, Lda. (503550558)","35.600,00 €",06-08-2012,30-07-2012,20 dias,"Portugal, Lisboa","Artigo 26.º, n.º 1, alínea e) do Código dos Contratos Públicos",,,,,,Não aplicável.,Não aplicável.,
Aquisição de Isoniazida comprimidos,Ajuste Direto Regime Geral,Aquisição de bens móveis,"33690000-3, Medicamentos vários","Administração Regional de Saúde de Lisboa e Vale do Tejo, I.P. (503148776)","Merck, SA. (500650870)","2.960,58 €",06-08-2012,01-08-2012,20 dias,"Portugal, Lisboa","Artigo 24.º, n.º 1, alínea e) do Código dos Contratos Públicos",,,,,,Não aplicável.,Não aplicável.,
Aquisição de pensos adesivo não tecido e penso rápido seco,Ajuste Direto Regime Geral,Aquisição de bens móveis,"33141110-4, Pensos","Administração Regional de Saúde de Lisboa e Vale do Tejo, I.P. (503148776)","Paul Hartmann, Lda. (502271728)","31.630,00 €",06-08-2012,03-08-2012,20 dias,"Portugal, Lisboa","Artigo 26.º, n.º 1, alínea e) do Código dos Contratos Públicos",,,,,,Não aplicável.,Não aplicável.,
Aquisição de testes rapidos para detecção de infecção VIH/Sida,Ajuste Direto Regime Geral,Aquisição de bens móveis,"33690000-3, Medicamentos vários","Administração Regional de Saúde de Lisboa e Vale do Tejo, I.P. (503148776)","Iberlab e Imunoreage, Lda (503406694)","3.247,20 €",06-08-2012,02-08-2012,20 dias,"Portugal, Lisboa","Artigo 26.º, n.º 1, alínea e) do Código dos Contratos Públicos",,,,,,Não aplicável.,Não aplicável.,
Aquisição de Heparinoide Pomada,Ajuste Direto Regime Geral,Aquisição de bens móveis,"33690000-3, Medicamentos vários","Administração Regional de Saúde de Lisboa e Vale do Tejo, I.P. (503148776)","Bene Farmaceutica,  Lda. (508735696)","3.390,00 €",06-08-2012,02-08-2012,20 dias,"Portugal, Lisboa","Artigo 24.º, n.º 1, alínea e) do Código dos Contratos Públicos",,,,,,Não aplicável.,Não aplicável.,
"Prestação de serviços de manutenção adicional na parametrização da atual solução de voz da Central Telefónica da ARSLVT, IP.",Ajuste Direto Regime Geral,Aquisição de serviços,"98390000-3, Outros serviços","Administração Regional de Saúde de Lisboa e Vale do Tejo, I.P. (503148776)","Nec Portugal - Telecomunicações e Sistemas , S.A. (501676309)","375,00 €",02-08-2012,31-07-2012,183 dias,"Portugal, Lisboa, Lisboa","Artigo 24.º, n.º 1, alínea e) do Código dos Contratos Públicos",,,,,,Não aplicável.,Não aplicável.,
Aquisição de etinilestradiol + levonorgestrel,Ajuste Direto Regime Geral,Aquisição de bens móveis,"33651600-4, Vacinas","Administração Regional de Saúde de Lisboa e Vale do Tejo, I.P. (503148776)",Generis (508107997),"28.600,00 €",31-07-2012,19-07-2012,20 dias,"Portugal, Lisboa","Artigo 26.º, n.º 1, alínea e) do Código dos Contratos Públicos",,,,,,Não aplicável.,Não aplicável.,
Aquisição de vacinas contra a febre amarela e febre tifoide,Ajuste Direto Regime Geral,Aquisição de bens móveis,"33651600-4, Vacinas","Administração Regional de Saúde de Lisboa e Vale do Tejo, I.P. (503148776)","Sanofi Pasteur MSD, S.A. (507632796)","29.050,00 €",31-07-2012,11-07-2012,20 dias,"Portugal, Lisboa","Artigo 26.º, n.º 1, alínea e) do Código dos Contratos Públicos",,,,,,Não aplicável.,Não aplicável.,
Aquisição de vacina contra meningococos ACW135Y,Ajuste Direto Regime Geral,Aquisição de bens móveis,"33651600-4, Vacinas","Administração Regional de Saúde de Lisboa e Vale do Tejo, I.P. (503148776)",GLAXOSMITHKLINE. (500139962),"6.435,00 €",31-07-2012,10-07-2012,20 dias,"Portugal, Lisboa","Artigo 26.º, n.º 1, alínea e) do Código dos Contratos Públicos",,,,,,Não aplicável.,Não aplicável.,
Aquisição de material descartavel para uso do laboratorio de Alcantara.,Ajuste Direto Regime Geral,Aquisição de bens móveis,"33696500-0, Reagentes de laboratório","Administração Regional de Saúde de Lisboa e Vale do Tejo, I.P. (503148776)","JCM - Representações, Lda. (502099330)","2.739,11 €",31-07-2012,14-06-2012,183 dias,"Portugal, Lisboa, Lisboa","Artigo 20.º, n.º 1, alínea a) do Código dos Contratos Públicos",,,,,,Não aplicável.,Não aplicável.,
Aquisição de Cicloserina e Pas-sodico,Ajuste Direto Regime Geral,Aquisição de bens móveis,"33690000-3, Medicamentos vários","Administração Regional de Saúde de Lisboa e Vale do Tejo, I.P. (503148776)",Etiopharma S.A. (509393357),"116.082,00 €",31-07-2012,14-06-2012,183 dias,"Portugal, Lisboa","Artigo 24.º, n.º 1, alínea e) do Código dos Contratos Públicos",,,,,,Não aplicável.,Não aplicável.,
Aquisição de Eter,Ajuste Direto Regime Geral,Aquisição de bens móveis,"33140000-3, Material médico de consumo","Administração Regional de Saúde de Lisboa e Vale do Tejo, I.P. (503148776)","Proclinica Equipamentos e Produtos Clinicos, Lda. (500222665)","31.970,00 €",31-07-2012,18-06-2012,183 dias,"Portugal, Lisboa","Artigo 20.º, n.º 1, alínea a) do Código dos Contratos Públicos",,,,,,Não aplicável.,Não aplicável.,
Aquisição de Tuberculina Injectavel,Ajuste Direto Regime Geral,Aquisição de bens móveis,"33690000-3, Medicamentos vários","Administração Regional de Saúde de Lisboa e Vale do Tejo, I.P. (503148776)","J. M. Farmaceutica, S.A. (503550558)","28.700,00 €",31-07-2012,06-06-2012,20 dias,"Portugal, Lisboa","Artigo 26.º, n.º 1, alínea e) do Código dos Contratos Públicos",,,,,,Não aplicável.,Não aplicável.,
Aquisição de Capreomicina injectável 1g,Ajuste Direto Regime Geral,Aquisição de bens móveis,"33690000-3, Medicamentos vários","Administração Regional de Saúde de Lisboa e Vale do Tejo, I.P. (503148776)",Etiopharma S.A. (509393357),"23.075,00 €",31-07-2012,24-05-2012,20 dias,"Portugal, Lisboa","Artigo 24.º, n.º 1, alínea e) do Código dos Contratos Públicos",,,,,,Não aplicável.,Não aplicável.,
Empreitada de Remodelação e Adaptação dos Elevadores da USCP Francisco Xavier de Noronha - Aces 13 - Almada,Ajuste Direto Regime Geral,Empreitadas de obras públicas,"45453100-8, Obras de recuperação","Administração Regional de Saúde de Lisboa e Vale do Tejo, I.P. (503148776)","Otis - Elevadores, Lda (500069824)","20.944,65 €",31-07-2012,30-07-2012,75 dias,"Portugal, Setúbal, Almada","Artigo 19.º, alínea a) do Código dos Contratos Públicos",,,,,,Não aplicável.,Não aplicável.,
