Objeto do Contrato,Tipo de Procedimento,Tipo(s) de Contrato,CPVs,Entidade(s) Adjudicante(s),Entidade(s) Adjudicatária(s),Preço Contratual,Data de Publicação,Data de Celebração do Contrato,Prazo de Execução,Local de Execução,Fundamentação,Data de Fecho do Contrato,Preço Total Efetivo,Causas das Alterações ao Prazo,Causas das Alterações ao Preço,Estado,N.º registo do Acordo Quadro,Descrição do Acordo Quadro,Procedimento Centralizado
Medicamentos Usados como Meio de Diagnóstico em Imagiologia 21001218,Ao abrigo de acordo-quadro (art.º 259.º),Aquisição de bens móveis,"33600000-6, Produtos farmacêuticos","Centro Hospitalar do Médio Tejo, E. P. E. (506361608)",A. MARTINS FERNANDES (501172114),"3.350,45 €",10-09-2018,08-03-2018,365 dias,"Portugal, Santarém, Torres Novas",Artigo 259.º do Código dos Contratos Públicos,,,,,,1473614,CP 2015/56 - Acordo quadro para fornecimento de medicamentos usados como meios de diagnóstico em Imagiologia às Instituições e Serviços do Serviço Nacional de Saúde,FALSE
"Contracetivos Orais, Profiláticos e Mecânicos 21002318",Ao abrigo de acordo-quadro (art.º 259.º),Aquisição de bens móveis,"33600000-6, Produtos farmacêuticos","Centro Hospitalar do Médio Tejo, E. P. E. (506361608)",Bayer Portugal S.A. (500043256),"15.451,10 €",10-09-2018,08-03-2018,365 dias,"Portugal, Santarém, Torres Novas",Artigo 259.º do Código dos Contratos Públicos,,,,,,1459323,CP 2015/20,FALSE
Medicamentos Diversos 21000118,Ao abrigo de acordo-quadro (art.º 259.º),Aquisição de bens móveis,"33600000-6, Produtos farmacêuticos","Centro Hospitalar do Médio Tejo, E.P.E. (CHMT) (506361608)","CSL Behring, Lda (503047201)","14.745,15 €",07-09-2018,17-04-2018,365 dias,"Portugal, Santarém, Torres Novas",Artigo 259.º do Código dos Contratos Públicos,,,,,,2124520,CP 2016/55 - Medicamentos Diversos,FALSE
Medicamentos Diversos I 21001018,Ao abrigo de acordo-quadro (art.º 259.º),Aquisição de bens móveis,"33600000-6, Produtos farmacêuticos","Centro Hospitalar do Médio Tejo, E. P. E. (506361608)",KEDRION PORTUGAL (508472830),"181.371,00 €",07-09-2018,08-02-2018,365 dias,"Portugal, Santarém, Torres Novas",Artigo 259.º do Código dos Contratos Públicos,,,,,,1394106,CP 2015/64 - Medicamentos Diversos,FALSE
Dispositivos Médicos Diversos 21003018,Ao abrigo de acordo-quadro (art.º 259.º),Aquisição de bens móveis,"33100000-1, Equipamento médico","Centro Hospitalar do Médio Tejo, E.P.E. (CHMT) (506361608)","JOHNSON & JOHNSON, LDA (500153370)","8.316,00 €",07-09-2018,28-11-2017,365 dias,"Portugal, Santarém, Torres Novas",Artigo 259.º do Código dos Contratos Públicos,,,,,,2414255,CP 2017/36 - Acordo Quadro para fornecimento de material de dispositivos médicos diversos às Instituições e Serviços do Serviço Nacional de Saúde,FALSE
Medicamentos Aparelho Geniturinário 21001918,Ao abrigo de acordo-quadro (art.º 259.º),Aquisição de bens móveis,"33600000-6, Produtos farmacêuticos","Centro Hospitalar do Médio Tejo, E.P.E. (CHMT) (506361608)","FERRING PORTUGUESA-PROD. FARMAC.SOC.UNIP.,LDA. (502034831)","14.137,11 €",07-09-2018,09-03-2018,365 dias,"Portugal, Santarém, Torres Novas",Artigo 259.º do Código dos Contratos Públicos,,,,,,1404918,CP 2015/48 - Acordo Quadro para fornecimento de Medicamentos de Consumo Geral - Aparelho Geniturinário às Instituições e Serviços do Serviço Nacional de Saúde,FALSE
Medicamentos Aparelho Cardiovascular 21000818,Ao abrigo de acordo-quadro (art.º 259.º),Aquisição de bens móveis,"33600000-6, Produtos farmacêuticos","Centro Hospitalar do Médio Tejo, E.P.E. (CHMT) (506361608)","B. Braun Medical, Lda (501506543)","53.379,96 €",07-09-2018,31-08-2018,365 dias,"Portugal, Santarém, Torres Novas",Artigo 259.º do Código dos Contratos Públicos,,,,,,2335591,CP 2016/01 - Acordo Quadro para fornecimento de Medicamentos do Aparelho Cardiovascular   às Instituições e Serviços do Serviço Nacional de Saúde,FALSE
Serviços Controlo de Qualidade - Biologia Molecular,Ajuste Direto Regime Geral,Aquisição de serviços,"85100000-0, Serviços de saúde","Centro Hospitalar do Médio Tejo, E. P. E. (506361608)",BIOGNÓSTICA (504441256),"8.281,00 €",06-09-2018,19-07-2018,180 dias,"Portugal, Santarém, Tomar","Artigo 20.º, n.º 1, alínea d) do Código dos Contratos Públicos",,,,,,Não aplicável.,Não aplicável.,FALSE
Trientina 250MG CÁPS 31033817,Ajuste Direto Regime Geral,Aquisição de bens móveis,"33600000-6, Produtos farmacêuticos","Centro Hospitalar do Médio Tejo, E.P.E. (CHMT) (506361608)",Wepharma UK (GB944893866),"27.490,00 €",06-09-2018,04-12-2017,365 dias,"Portugal, Santarém, Torres Novas","Artigo 24.º, n.º 1, alínea e) do Código dos Contratos Públicos",,,,,,Não aplicável.,Não aplicável.,FALSE
Dietas 2018 - 31002418,Ajuste Direto Regime Geral,Aquisição de bens móveis,"33600000-6, Produtos farmacêuticos","Centro Hospitalar do Médio Tejo, E.P.E. (CHMT) (506361608)","Nutricia Advanced Medical Nutrition Unupessoal, Lda. (507558286)","26.299,80 €",06-09-2018,18-05-2018,365 dias,"Portugal, Santarém, Torres Novas","Artigo 20.º, n.º 1, alínea a) do Código dos Contratos Públicos",,,,,,Não aplicável.,Não aplicável.,FALSE
Diálise Peritoneal 21001318,Ao abrigo de acordo-quadro (art.º 259.º),Aquisição de bens móveis,"33600000-6, Produtos farmacêuticos","Centro Hospitalar do Médio Tejo, E. P. E. (506361608)","FRESENIUS MEDICAL CARE PORTUGAL, SA (503070220)","479.570,40 €",06-09-2018,14-03-2018,365 dias,"Portugal, Santarém, Torres Novas",Artigo 259.º do Código dos Contratos Públicos,,,,,,1481309,CP 2015/35 - Acordo quadro para fornecimento de bens e prestação de serviços de Diálise Peritoneal às Instituições e Serviços do Serviço Nacional de Saúde,FALSE
Serviços de Anatomia Patológica,Ajuste Direto Regime Geral,Aquisição de serviços,"85100000-0, Serviços de saúde","Centro Hospitalar do Médio Tejo, E. P. E. (506361608)","Laboratório de Anatomia Patológica Dr. Rodrigues Pereira, Lda (500919712)","53.675,00 €",05-09-2018,13-07-2018,300 dias,"Portugal, Santarém, Tomar","Artigo 24.º, n.º 1, alínea b) do Código dos Contratos Públicos",,,,,,Não aplicável.,Não aplicável.,FALSE
Serviços Médicos - Triagem Geral,Ajuste Direto Regime Geral,Aquisição de serviços,"85100000-0, Serviços de saúde","Centro Hospitalar do Médio Tejo, E. P. E. (506361608)",Rafaela Cardoso Gomes Coelho (231064667),"6.600,00 €",05-09-2018,01-06-2018,300 dias,"Portugal, Santarém, Abrantes","Artigo 20.º, n.º 1, alínea d) do Código dos Contratos Públicos",,,,,,Não aplicável.,Não aplicável.,FALSE
Serviços Médicos - Cuidados Paliativos,Ajuste Direto Regime Geral,Aquisição de serviços,"85100000-0, Serviços de saúde","Centro Hospitalar do Médio Tejo, E. P. E. (506361608)","Medimatias, Lda (510888291)","12.600,00 €",05-09-2018,13-07-2018,215 dias,"Portugal, Santarém, Tomar","Artigo 27.º, n.º 1, alínea b) do Código dos Contratos Públicos",,,,,,Não aplicável.,Não aplicável.,FALSE
