Objeto do Contrato,Tipo de Procedimento,Tipo(s) de Contrato,CPVs,Entidade(s) Adjudicante(s),Entidade(s) Adjudicatária(s),Preço Contratual,Data de Publicação,Data de Celebração do Contrato,Prazo de Execução,Local de Execução,Fundamentação,Data de Fecho do Contrato,Preço Total Efetivo,Causas das Alterações ao Prazo,Causas das Alterações ao Preço,Estado,N.º registo do Acordo Quadro,Descrição do Acordo Quadro,Procedimento Centralizado
Aquisição de 12.000 unidades de Poliuretano Espuma sem Rebordo 10x10cm,Ajuste Direto Regime Geral,Aquisição de bens móveis,"33690000-3, Medicamentos vários","Administração Regional de Saúde de Lisboa e Vale do Tejo, I. P. (503148776)",B. Braun Medical Lda  (501506543),"10.200,00 €",31-03-2016,31-03-2016,275 dias,"Portugal, Lisboa, Lisboa","Artigo 24.º, n.º 1, alínea c) do Código dos Contratos Públicos",,,,,,Não aplicável.,Não aplicável.,FALSE
"Prestação de serviços médicos com especialidade em psiquiatria para a Unidade de Alcoologia, para o período de 01/042016 a 31/12/2016",Ao abrigo de acordo-quadro (art.º 259.º),Aquisição de serviços,"85100000-0, Serviços de saúde","Administração Regional de Saúde de Lisboa e Vale do Tejo, I. P. (503148776)","Helped - Prestação Serviços Saúde, Lda (506069010)","45.903,60 €",31-03-2016,31-03-2016,275 dias,"Portugal, Lisboa, Lisboa",Artigo 259.º do Código dos Contratos Públicos,,,,,,1490434,ACORDO QUADRO PARA PRESTAÇÃO DE SERVIÇOS MÉDICOS ÀS INSTITUIÇÕES E SERVIÇOS DO SERVIÇO NACIONAL DE SAÚDE,FALSE
Aquisição de Vacina do BCG,Ajuste Direto Regime Geral,Aquisição de bens móveis,"33651600-4, Vacinas","Administração Regional de Saúde de Lisboa e Vale do Tejo, I. P. (503148776)","JM - Farmacêutica, Lda (503550558)","80.000,00 €",31-03-2016,31-03-2016,275 dias,"Portugal, Lisboa, Lisboa",Artigo 258.º do Código dos Contratos Públicos,,,,,,Não aplicável.,Não aplicável.,FALSE
Aquisição de 150 ampolas de Glucagom 1mg Pó Sol. Inj. IM IV SC,Ajuste Direto Regime Geral,Aquisição de bens móveis,"33690000-3, Medicamentos vários","Administração Regional de Saúde de Lisboa e Vale do Tejo, I. P. (503148776)",Novo Nordisk Comércio Produtos Farmacêuticos Lda  (501485210),"2.047,50 €",31-03-2016,30-03-2016,276 dias,"Portugal, Lisboa, Lisboa",Artigo 258.º do Código dos Contratos Públicos,,,,,,Não aplicável.,Não aplicável.,FALSE
Aquisição de 70.000 ampolas de Cloreto de Sódio 9mg/ml Sol. Inj. 10ml IV,Ao abrigo de acordo-quadro (art.º 259.º),Aquisição de bens móveis,"33690000-3, Medicamentos vários","Administração Regional de Saúde de Lisboa e Vale do Tejo, I. P. (503148776)",Labesfal - Laboratórios Almiro S.A. (501169580),"11.186,00 €",31-03-2016,30-03-2016,276 dias,"Portugal, Lisboa, Lisboa",Artigo 259.º do Código dos Contratos Públicos,,,,,,1331181,Acordo Quadro para fornecimento de corretivos da volémia e outras soluções estéreis às Instituições e Serviços do Serviço Nacional de Saúde,FALSE
Aquisição de vacina Tuberculina,Ajuste Direto Regime Geral,Aquisição de bens móveis,"33651600-4, Vacinas","Administração Regional de Saúde de Lisboa e Vale do Tejo, I. P. (503148776)","JM - Farmacêutica, Lda (503550558)","9.407,00 €",31-03-2016,31-03-2016,275 dias,"Portugal, Lisboa, Lisboa",Artigo 258.º do Código dos Contratos Públicos,,,,,,Não aplicável.,Não aplicável.,FALSE
Aquisição de material de esterilização e desinfeção,Ajuste Direto Regime Geral,Aquisição de bens móveis,"33140000-3, Material médico de consumo","Administração Regional de Saúde de Lisboa e Vale do Tejo, I. P. (503148776)","Veisil - A. Mendes da Silva, Lda (502064080)","7.041,58 €",30-03-2016,30-03-2016,276 dias,"Portugal, Lisboa, Lisboa","Artigo 24.º, n.º 1, alínea e) do Código dos Contratos Públicos",,,,,,Não aplicável.,Não aplicável.,FALSE
Aquisição de 250 ampolas de Insulina Humana 100 UI/ML Ação Curta,Ajuste Direto Regime Geral,Aquisição de bens móveis,"33690000-3, Medicamentos vários","Administração Regional de Saúde de Lisboa e Vale do Tejo, I. P. (503148776)",Novo Nordisk Comércio Produtos Farmacêuticos Lda (501485210),"2.067,50 €",30-03-2016,30-03-2016,276 dias,"Portugal, Lisboa, Lisboa",Artigo 258.º do Código dos Contratos Públicos,,,,,,Não aplicável.,Não aplicável.,FALSE
Aquisição de Compressas TNT,Ao abrigo de acordo-quadro (art.º 259.º),Aquisição de bens móveis,"33140000-3, Material médico de consumo","Administração Regional de Saúde de Lisboa e Vale do Tejo, I. P. (503148776)","Albino Dias de Andrade, Lda (500013810)","52.214,00 €",30-03-2016,30-03-2016,2 dias,"Portugal, Lisboa, Lisboa",Artigo 259.º do Código dos Contratos Públicos,,,,,,194000,CONCURSO PÚBLICO PARA A CELEBRAÇÃO DE CONTRATOS PÚBLICOS DE APROVISIONAMENTO PARA AQUISIÇÃO DE PENSO TRADICIONAL OU CLÁSSICO,FALSE
Aquisição de resguardo p/incontinência,Ao abrigo de acordo-quadro (art.º 259.º),Aquisição de bens móveis,"33140000-3, Material médico de consumo","Administração Regional de Saúde de Lisboa e Vale do Tejo, I. P. (503148776)","Albino Dias de Andrade, Lda (500013810)","202,50 €",30-03-2016,30-03-2016,276 dias,"Portugal, Lisboa, Lisboa",Artigo 259.º do Código dos Contratos Públicos,,,,,,598830,"CONCURSO PÚBLICO PARA A CELEBRAÇÃO DE CONTRATOS PÚBLICOS DE APROVISIONAMENTO PARA A ÁREA DA SAÚDE, COM VISTA AO FORNECIMENTO DE MATERIAL DE INCONTINÊNCIA, PROTEÇÃO CUTÂNEA E ALÍVIO DE PRESSÃO, ÀS INSTITUIÇÕES E SERVIÇOS DO SERVIÇO NACIONAL DE SAÚDE",FALSE
Aquisição de 18.000 ampolas de Lidocaína 40mg/2ml Sol. Inj. IV SC,Ajuste Direto Regime Geral,Aquisição de bens móveis,"33690000-3, Medicamentos vários","Administração Regional de Saúde de Lisboa e Vale do Tejo, I. P. (503148776)",Labesfal - Laboratórios Almiro S.A. (501169580),"13.122,00 €",29-03-2016,29-03-2016,277 dias,"Portugal, Lisboa, Lisboa",Artigo 258.º do Código dos Contratos Públicos,,,,,,Não aplicável.,Não aplicável.,FALSE
Aquisição de 1.000 frascos de Polieletrolítico Sol. Inj. 500ml IV,Ao abrigo de acordo-quadro (art.º 259.º),Aquisição de bens móveis,"33690000-3, Medicamentos vários","Administração Regional de Saúde de Lisboa e Vale do Tejo, I. P. (503148776)",Labesfal - Laboratórios Almiro S.A. (501169580),"1.267,00 €",29-03-2016,28-03-2016,278 dias,"Portugal, Lisboa, Lisboa",Artigo 259.º do Código dos Contratos Públicos,,,,,,1331181,Acordo Quadro para fornecimento de corretivos da volémia e outras soluções estéreis às Instituições e Serviços do Serviço Nacional de Saúde,FALSE
Aquisição de penso,Ao abrigo de acordo-quadro (art.º 259.º),Aquisição de bens móveis,"33140000-3, Material médico de consumo","Administração Regional de Saúde de Lisboa e Vale do Tejo, I. P. (503148776)","Molnlycke Health Care, Lda (511101066)","3.600,00 €",29-03-2016,29-03-2016,277 dias,"Portugal, Lisboa, Lisboa",Artigo 259.º do Código dos Contratos Públicos,,,,,,534953,"CONCURSO PÚBLICO PARA A CELEBRAÇÃO DE CONTRATOS PÚBLICOS DE APROVISIONAMENTO PARA A ÁREA DA SAÚDE, COM VISTA AO FORNECIMENTO DE MATERIAL DE PENSO TRADICIONAL/CLASSICO - PARTE 1 - ÀS INSTITUIÇÕES E SERVIÇOS DO SERVIÇO NACIONAL DE SAÚDE  ",FALSE
Aquisição de penso,Ao abrigo de acordo-quadro (art.º 259.º),Aquisição de bens móveis,"33140000-3, Material médico de consumo","Administração Regional de Saúde de Lisboa e Vale do Tejo, I. P. (503148776)","Dimor Lusitana, Lda (500730741)","6.160,00 €",29-03-2016,29-03-2016,277 dias,"Portugal, Lisboa, Lisboa",Artigo 259.º do Código dos Contratos Públicos,,,,,,534953,"CONCURSO PÚBLICO PARA A CELEBRAÇÃO DE CONTRATOS PÚBLICOS DE APROVISIONAMENTO PARA A ÁREA DA SAÚDE, COM VISTA AO FORNECIMENTO DE MATERIAL DE PENSO TRADICIONAL/CLASSICO - PARTE 1 - ÀS INSTITUIÇÕES E SERVIÇOS DO SERVIÇO NACIONAL DE SAÚDE  ",FALSE
Aquisição de babete descartável,Ao abrigo de acordo-quadro (art.º 259.º),Aquisição de bens móveis,"33140000-3, Material médico de consumo","Administração Regional de Saúde de Lisboa e Vale do Tejo, I. P. (503148776)","Quilaban, S.A. - Química Laboratorial Analítica, S.A. (500399670)","516,00 €",29-03-2016,28-03-2016,277 dias,"Portugal, Lisboa, Lisboa",Artigo 259.º do Código dos Contratos Públicos,,,,,,389355,"CONCURSO PÚBLICO PARA A CELEBRAÇÃO DE CONTRATOS PÚBLICOS DE APROVISIONAMENTO PARA AQUISIÇÃO DE MATERIAL DE INCONTINÊNCIA, PROTECÇÃO CUTÂNEA E ALIVIO DE PRESSÃO",FALSE
Aquisição de Agulha Irrecuperável,Ao abrigo de acordo-quadro (art.º 259.º),Aquisição de bens móveis,"33140000-3, Material médico de consumo","Administração Regional de Saúde de Lisboa e Vale do Tejo, I. P. (503148776)","Docworld, Lda (508592909)","4.537,50 €",29-03-2016,29-03-2016,277 dias,"Portugal, Lisboa, Lisboa",Artigo 259.º do Código dos Contratos Públicos,,,,,,1341769,"ACORDO QUADRO PARA FORNECIMENTO DE SERINGAS, AGULHAS E CONTENTORES ÀS INSTITUIÇÕES E SERVIÇOS DO SERVIÇO NACIONAL DE SAÚDE PROGRAMA DE CONCURSO",FALSE
Aquisição de gás natural,Concurso público,Aquisição de bens móveis,"09123000-7, Gás natural","Administração Regional de Saúde de Lisboa e Vale do Tejo, I. P. (503148776)","Galp Power, SA (504723456)","17.732,63 €",29-03-2016,25-02-2016,335 dias,"Portugal, Lisboa","Artigo 20.º, n.º 1, alínea b) do Código dos Contratos Públicos",,,,,,Não aplicável.,Não aplicável.,TRUE
"MANUTENÇÃO/REPARAÇÃO DA VIATURA 05-63-DC PC Nº 3400007891, NPD Nº 15E00283 E COMPROMISSO Nº 5015036864",Ajuste Direto Regime Geral,Aquisição de serviços,"50000000-5, Serviços de reparação e manutenção","Administração Regional de Saúde de Lisboa e Vale do Tejo, I. P. (503148776)","A. H. ALMEIDA, LDA (500303525)","406,50 €",28-03-2016,22-06-2015,5 dias,"Portugal, Lisboa, Loures","Artigo 20.º, n.º 1, alínea a) do Código dos Contratos Públicos",,,,,,Não aplicável.,Não aplicável.,FALSE
"MANUTENÇÃO/REPARAÇÃO DA VIATURA 14-IO-60 PC Nº 3400007144, NPD Nº 4015010449 E COMPROMISSO Nº 5015009893",Ajuste Direto Regime Geral,Aquisição de serviços,"50000000-5, Serviços de reparação e manutenção","Administração Regional de Saúde de Lisboa e Vale do Tejo, I. P. (503148776)","A. H. ALMEIDA, LDA (500303525)","620,00 €",28-03-2016,26-02-2015,5 dias,"Portugal, Lisboa, Loures","Artigo 20.º, n.º 1, alínea a) do Código dos Contratos Públicos",,,,,,Não aplicável.,Não aplicável.,FALSE
"MANUTENÇÃO/REPARAÇÃO DA VIATURA 98-CQ-53 PC Nº 3400007127, NPD Nº 15E00119 E COMPROMISSO Nº 5015005766",Ajuste Direto Regime Geral,Aquisição de serviços,"50000000-5, Serviços de reparação e manutenção","Administração Regional de Saúde de Lisboa e Vale do Tejo, I. P. (503148776)","A. H. ALMEIDA, LDA  (500303525)","4.100,00 €",28-03-2016,25-02-2015,5 dias,"Portugal, Lisboa, Loures","Artigo 20.º, n.º 1, alínea a) do Código dos Contratos Públicos",,,,,,Não aplicável.,Não aplicável.,FALSE
"PC Nº 3400007189, NPD Nº 15E00130 E COMPROMISSO Nº 5015006637 MANUTENÇÃO/REPARAÇÃO DA VIATURA 98-CQ-47",Ajuste Direto Regime Geral,Aquisição de serviços,"50000000-5, Serviços de reparação e manutenção","Administração Regional de Saúde de Lisboa e Vale do Tejo, I. P. (503148776)","A. H. ALMEIDA, LDA (500303525)","1.405,00 €",28-03-2016,03-03-2015,5 dias,"Portugal, Lisboa, Loures","Artigo 20.º, n.º 1, alínea a) do Código dos Contratos Públicos",,,,,,Não aplicável.,Não aplicável.,FALSE
AQUISIÇÃO DE VINHETAS MÉDICAS,Ajuste Direto Regime Geral,Aquisição de bens móveis,"22000000-0, Material impresso e afins","Administração Regional de Saúde de Lisboa e Vale do Tejo, I. P. (503148776)",IMPRENSA NACIONAL CASA DA MOEDA  (500792887),"10,00 €",28-03-2016,17-03-2016,5 dias,"Portugal, Lisboa, Loures","Artigo 24.º, n.º 1, alínea c) do Código dos Contratos Públicos",,,,,,Não aplicável.,Não aplicável.,FALSE
"AQUISIÇÃO DE CARIMBOS  PC Nº 3400009187, NPD Nº 16E00109 E COMPROMISSO Nº 5016006220",Ajuste Direto Regime Geral,Aquisição de bens móveis,"19000000-6, Materiais têxteis, de couro, de plástico e de borracha","Administração Regional de Saúde de Lisboa e Vale do Tejo, I. P. (503148776)",A UM - EQUIPAMENTO MATERIAL DE ESCRITÓRIO (502129425),"68,10 €",28-03-2016,22-02-2016,5 dias,"Portugal, Lisboa, Loures","Artigo 20.º, n.º 1, alínea a) do Código dos Contratos Públicos",,,,,,Não aplicável.,Não aplicável.,FALSE
"AQUISIÇÃO DE CARIMBOS  PC Nº 3400009328, NPD Nº 16E00140 E COMPROMISSO Nº 5016011839",Ajuste Direto Regime Geral,Aquisição de bens móveis,"19000000-6, Materiais têxteis, de couro, de plástico e de borracha","Administração Regional de Saúde de Lisboa e Vale do Tejo, I. P. (503148776)",A UM - EQUIPAMENTO MATERIAL DE ESCRITÓRIO (502129425),"12,04 €",28-03-2016,04-03-2016,5 dias,"Portugal, Lisboa, Loures","Artigo 20.º, n.º 1, alínea a) do Código dos Contratos Públicos",,,,,,Não aplicável.,Não aplicável.,FALSE
Aquisição de Máscara Cirúrgica de Proteção Individual anti salpico com viseira,Ao abrigo de acordo-quadro (art.º 259.º),Aquisição de bens móveis,"33140000-3, Material médico de consumo","Administração Regional de Saúde de Lisboa e Vale do Tejo, I. P. (503148776)","Medline Internacional Portugal Unipessoal, Lda (510533515)","4.875,00 €",28-03-2016,28-03-2016,278 dias,"Portugal, Lisboa, Lisboa",Artigo 259.º do Código dos Contratos Públicos,,,,,,1727893,CP 2015/74 - Acordo quadro para fornecimento de Material disposable de bloco operatório - Parte I-B às Instituições e Serviços do Serviço Nacional de Saúde,FALSE
Prestação de serviços de Ortoptistas no âmbito do Programa de rastreio Retinopatia Diabética.,Ajuste Direto Regime Geral,Aquisição de serviços,"85100000-0, Serviços de saúde","Administração Regional de Saúde de Lisboa e Vale do Tejo, I. P. (503148776)","Eyesonyou - Promoção e proteção da Saúde da Visão, lda (510516564)","2.498,40 €",24-03-2016,24-03-2016,280 dias,"Portugal, Lisboa, Lisboa","Artigo 20.º, n.º 1, alínea a) do Código dos Contratos Públicos",,,,,,Não aplicável.,Não aplicável.,FALSE
prestação de serviços de Ortoptistas no âmbito do Programa de rastreio Retinopatia Diabética.,Ajuste Direto Regime Geral,Aquisição de serviços,"85100000-0, Serviços de saúde","Administração Regional de Saúde de Lisboa e Vale do Tejo, I. P. (503148776)",Pedro Manuel Cunha Diz (235589438),"2.498,40 €",24-03-2016,24-03-2016,280 dias,"Portugal, Lisboa, Lisboa","Artigo 21.º, n.º 1, alínea a) do Código dos Contratos Públicos",,,,,,Não aplicável.,Não aplicável.,FALSE
Aquisição de 3.000 unidades de Poliuretano Espuma Sacro Rebordo 18-22x18-22cm,Ajuste Direto Regime Geral,Aquisição de bens móveis,"33690000-3, Medicamentos vários","Administração Regional de Saúde de Lisboa e Vale do Tejo, I. P. (503148776)",Clinifar - Produtos Clínicos e Farmaceuticos S.A. (503281115),"6.417,00 €",24-03-2016,22-03-2016,284 dias,"Portugal, Lisboa, Lisboa","Artigo 24.º, n.º 1, alínea c) do Código dos Contratos Públicos",,,,,,Não aplicável.,Não aplicável.,FALSE
Aquisição de 20.000 unidades de Poliuretano Espuma c/ Rebordo (10-11) 2cm / (6-7) 2cm,Ajuste Direto Regime Geral,Aquisição de bens móveis,"33690000-3, Medicamentos vários","Administração Regional de Saúde de Lisboa e Vale do Tejo, I. P. (503148776)","Medicinália Cormédica - Mcmedical, Limitada  (500684324)","28.800,00 €",24-03-2016,23-03-2016,283 dias,"Portugal, Lisboa, Lisboa","Artigo 24.º, n.º 1, alínea c) do Código dos Contratos Públicos",,,,,,Não aplicável.,Não aplicável.,FALSE
Aquisição de 10.000 unidades de Poliuretano Espuma c/ Rebordo (14-15) 2cm / (10-11) 2cm,Ajuste Direto Regime Geral,Aquisição de bens móveis,"33690000-3, Medicamentos vários","Administração Regional de Saúde de Lisboa e Vale do Tejo, I. P. (503148776)","Medicinália Cormédica - Mcmedical, Limitada  (500684324)","23.000,00 €",24-03-2016,23-03-2016,283 dias,"Portugal, Lisboa, Lisboa","Artigo 24.º, n.º 1, alínea c) do Código dos Contratos Públicos",,,,,,Não aplicável.,Não aplicável.,FALSE
Aquisição de 20.000 unidades de Reagente Det. 10 Parâmetros na Urina - Tira,Ajuste Direto Regime Geral,Aquisição de bens móveis,"33690000-3, Medicamentos vários","Administração Regional de Saúde de Lisboa e Vale do Tejo, I. P. (503148776)",Siemens Healthcare Lda  (507925173),"4.600,00 €",24-03-2016,22-03-2016,284 dias,"Portugal, Lisboa, Lisboa","Artigo 24.º, n.º 1, alínea e) do Código dos Contratos Públicos",,,,,,Não aplicável.,Não aplicável.,FALSE
"Aquisição de 300 ampolas de Naloxona 0,4mg/1ml Sol. Inj. IM IV SC",Ao abrigo de acordo-quadro (art.º 259.º),Aquisição de bens móveis,"33690000-3, Medicamentos vários","Administração Regional de Saúde de Lisboa e Vale do Tejo, I. P. (503148776)","Hospira Portugal, Lda  (502918098)","1.962,00 €",24-03-2016,23-03-2016,283 dias,"Portugal, Lisboa, Lisboa",Artigo 259.º do Código dos Contratos Públicos,,,,,,1338581,"Acordo quadro para fornecimento de Medicação antialérgica, medicamentos usados no tratamento de intoxicações, vitaminas e sais minerais e grupo 20.9 - outros produtos às instituições e serviços do serviço nacional de saúde",FALSE
Aquisição de 1.000 ampolas de Glucose 300mg/ml Sol. Inj. 20ml,Ao abrigo de acordo-quadro (art.º 259.º),Aquisição de bens móveis,"33690000-3, Medicamentos vários","Administração Regional de Saúde de Lisboa e Vale do Tejo, I. P. (503148776)",Labesfal - Laboratórios Almiro S.A. (501169580),"497,30 €",24-03-2016,23-03-2016,283 dias,"Portugal, Lisboa, Lisboa",Artigo 259.º do Código dos Contratos Públicos,,,,,,1331181,Acordo Quadro para fornecimento de corretivos da volémia e outras soluções estéreis às Instituições e Serviços do Serviço Nacional de Saúde,FALSE
Aquisição de seguros de acidentes pessoais para os dois contratos de emprego-inserção,Ajuste Direto Regime Geral,Aquisição de serviços,"66510000-8, Serviços de seguros","Administração Regional de Saúde de Lisboa e Vale do Tejo, I. P. (503148776)","AXA Portugal - Companhia de Seguros, SA (503454109)","484,78 €",23-03-2016,17-03-2016,365 dias,"Portugal, Lisboa, Lisboa","Artigo 20.º, n.º 1, alínea a) do Código dos Contratos Públicos",,,,,,Não aplicável.,Não aplicável.,FALSE
Aquisição de 40.000 frascos de Cloreto de de Sódio 9mg/ml Sol. Inj. 100ml IV,Ao abrigo de acordo-quadro (art.º 259.º),Aquisição de bens móveis,"33690000-3, Medicamentos vários","Administração Regional de Saúde de Lisboa e Vale do Tejo, I. P. (503148776)",Labesfal - Laboratórios Almiro S.A. (501169580),"20.320,00 €",23-03-2016,23-03-2016,283 dias,"Portugal, Lisboa, Lisboa",Artigo 259.º do Código dos Contratos Públicos,,,,,,1331181,Acordo Quadro para fornecimento de corretivos da volémia e outras soluções estéreis às Instituições e Serviços do Serviço Nacional de Saúde,FALSE
"Aquisição de Desogestrel 0,075MG Comprimidos (D255)",Ajuste Direto Regime Geral,Aquisição de bens móveis,"33641400-9, Contraceptivos","Administração Regional de Saúde de Lisboa e Vale do Tejo, I. P. (503148776)","Logifarma - Logistica Farmacêutica, S.A. (503934640)","213.400,00 €",22-03-2016,22-03-2016,280 dias,"Portugal, Lisboa, Lisboa",Artigo 258.º do Código dos Contratos Públicos,,,,,,Não aplicável.,Não aplicável.,FALSE
Serviços de acreditação/certificação de gestão clinica com o Programa Nacional de acreditação em Saúde - USF Vale Sorraia,Ajuste Direto Regime Geral,Aquisição de serviços,"79132000-8, Serviços de certificação","Administração Regional de Saúde de Lisboa e Vale do Tejo, I. P. (503148776)",DGS (600037100),"4.950,00 €",22-03-2016,22-03-2016,365 dias,"Portugal, Santarém, Coruche","Artigo 24.º, n.º 1, alínea e) do Código dos Contratos Públicos",,,,,,Não aplicável.,Não aplicável.,FALSE
Aquisição de aluguer de plataforma Point Of care Dynamed- ano 2016,Ajuste Direto Regime Geral,Aquisição de serviços,"98000000-3, Outros serviços comunitários, sociais e pessoais","Administração Regional de Saúde de Lisboa e Vale do Tejo, I. P. (503148776)",EBSCO- Subscription services ES SL (ESB85765766),"7.943,25 €",22-03-2016,21-03-2016,290 dias,"Portugal, Lisboa, Lisboa","Artigo 20.º, n.º 1, alínea a) do Código dos Contratos Públicos",,,,,,Não aplicável.,Não aplicável.,FALSE
Aquisição de 1.000 comprimidos de Metronidazol 250mg,Ajuste Direto Regime Geral,Aquisição de bens móveis,"33690000-3, Medicamentos vários","Administração Regional de Saúde de Lisboa e Vale do Tejo, I. P. (503148776)",Laboratorios Vitoria S.A. (500162220),"39,00 €",21-03-2016,21-03-2016,285 dias,"Portugal, Lisboa, Lisboa","Artigo 24.º, n.º 1, alínea e) do Código dos Contratos Públicos",,,,,,Não aplicável.,Não aplicável.,FALSE
