Objeto do Contrato,Tipo de Procedimento,Tipo(s) de Contrato,CPVs,Entidade(s) Adjudicante(s),Entidade(s) Adjudicatária(s),Preço Contratual,Data de Publicação,Data de Celebração do Contrato,Prazo de Execução,Local de Execução,Fundamentação,Data de Fecho do Contrato,Preço Total Efetivo,Causas das Alterações ao Prazo,Causas das Alterações ao Preço,Estado,N.º registo do Acordo Quadro,Descrição do Acordo Quadro,Procedimento Centralizado
Torre de Imagem e dois Broncovideoscópios,Ajuste Direto Regime Geral,Aquisição de bens móveis,"33100000-1, Equipamento médico",Hospital Prof. Doutor Fernando Fonseca E.P.E. (503035416),"Olympus Iberia S.A.U, Sucursal em Portugal  (980474710)","57.150,00 €",08-10-2015,09-06-2015,90 dias,"Portugal, Lisboa, Amadora","Artigo 20.º, n.º 1, alínea a) do Código dos Contratos Públicos",,,,,,Não aplicável.,Não aplicável.,FALSE
Reparação de máquina de lavar nº 2 da Esterilização,Ajuste Direto Regime Geral,Aquisição de bens móveis,"31230000-7, Peças para aparelhos de controlo ou distribuição de electricidade",Hospital Prof. Doutor Fernando Fonseca E.P.E. (503035416),"Efacec-Manvia, Manutenção Hospitalar - ACE (509801510)","5.878,20 €",08-10-2015,07-07-2015,90 dias,"Portugal, Lisboa, Amadora","Artigo 20.º, n.º 1, alínea a) do Código dos Contratos Públicos",,,,,,Não aplicável.,Não aplicável.,FALSE
Requalificação do Internamento de Ortopedia B,Ajuste Direto Regime Geral,Empreitadas de obras públicas,"45113000-2, Obras no local","Hospital Professor Doutor Fernando Fonseca, E. P. E. (503035416)",Amadeu da Silva Miranda (501838376),"61.979,77 €",08-10-2015,08-09-2015,20 dias,"Portugal, Lisboa, Amadora","Artigo 19.º, alínea a) do Código dos Contratos Públicos",,,,,,Não aplicável.,Não aplicável.,FALSE
Fardamento,Ajuste Direto Regime Geral,Aquisição de bens móveis,"39518000-6, Roupa para uso hospitalar",Hospital Prof. Doutor Fernando Fonseca E.P.E. (503035416),Manuel António Barbas Calheiros Leitão (102810133),"74.831,00 €",08-10-2015,16-07-2015,30 dias,"Portugal, Lisboa, Amadora","Artigo 20.º, n.º 1, alínea a) do Código dos Contratos Públicos",,,,,,Não aplicável.,Não aplicável.,FALSE
Unidade Eco para UTG,Ajuste Direto Regime Geral,Aquisição de bens móveis,"33100000-1, Equipamento médico",Hospital Prof. Doutor Fernando Fonseca E.P.E. (503035416),Olympus Ibéria S.A.U. (980474710),"69.720,00 €",08-10-2015,13-08-2015,30 dias,"Portugal, Lisboa, Amadora","Artigo 20.º, n.º 1, alínea a) do Código dos Contratos Públicos",,,,,,Não aplicável.,Não aplicável.,FALSE
Sistema de Videolaringoscópio,Ajuste Direto Regime Geral,Aquisição de bens móveis,"33100000-1, Equipamento médico",Hospital Prof. Doutor Fernando Fonseca E.P.E. (503035416),Teprel - Equipamentos Médicos S.A. (502262184),"13.085,00 €",06-10-2015,22-05-2015,90 dias,"Portugal, Lisboa, Amadora","Artigo 20.º, n.º 1, alínea a) do Código dos Contratos Públicos",,,,,,Não aplicável.,Não aplicável.,FALSE
Serviço de Manutenção à Siemens,Ajuste Direto Regime Geral,Aquisição de serviços,"50000000-5, Serviços de reparação e manutenção",Hospital Prof. Doutor Fernando Fonseca E.P.E. (503035416),"Siemens,S.A. (500247480)","12.181,83 €",06-10-2015,21-09-2015,90 dias,"Portugal, Lisboa, Amadora","Artigo 20.º, n.º 1, alínea a) do Código dos Contratos Públicos",,,,,,Não aplicável.,Não aplicável.,FALSE
SERVIÇOS DE ASSISTÊNCIA TÉCNICA E MANUTENÇÃO,Ajuste Direto Regime Geral,Aquisição de serviços,"50312310-1, Manutenção de equipamento para redes de dados",Hospital Prof. Doutor Fernando Fonseca E.P.E. (503035416),"Maxiglobal – Equipamentos e Serviços de Informática, SA (504320882)","5.625,00 €",06-10-2015,22-05-2015,270 dias,"Portugal, Lisboa, Amadora","Artigo 20.º, n.º 1, alínea a) do Código dos Contratos Públicos",,,,,,Não aplicável.,Não aplicável.,FALSE
SERVIÇOS DE SUPORTE E MANUTENÇÃO DO SISTEMA ERP-SAP,Ajuste Direto Regime Geral,Aquisição de serviços,"72267100-0, Manutenção de software para as tecnologias da infomação",Hospital Prof. Doutor Fernando Fonseca E.P.E. (503035416),"Altran, Portugal S.A (504272179)","48.276,00 €",06-10-2015,14-07-2015,270 dias,"Portugal, Lisboa, Amadora","Artigo 20.º, n.º 1, alínea a) do Código dos Contratos Públicos",,,,,,Não aplicável.,Não aplicável.,FALSE
Criação de dois gabinetes de consulta no HD Oncologia,Ajuste Direto Regime Geral,Empreitadas de obras públicas,"45113000-2, Obras no local",Hospital Prof. Doutor Fernando Fonseca E.P.E. (503035416),Jorge & Lico Lda (506883965),"8.500,00 €",06-10-2015,21-08-2015,20 dias,"Portugal, Lisboa, Amadora","Artigo 19.º, alínea a) do Código dos Contratos Públicos",,,,,,Não aplicável.,Não aplicável.,FALSE
Empreitada de Remodelação,Ajuste Direto Regime Geral,Empreitadas de obras públicas,"45113000-2, Obras no local",Hospital Prof. Doutor Fernando Fonseca E.P.E. (503035416),"Tanagra, Lda. (500278679)","19.972,28 €",06-10-2015,15-07-2015,12 dias,"Portugal, Lisboa, Amadora","Artigo 19.º, alínea a) do Código dos Contratos Públicos",,,,,,Não aplicável.,Não aplicável.,FALSE
INSTALAÇÃO DE TOMADAS DE GASES MEDICINAIS (O2 E VÁCUO) NO INTERNAMENTO DE ORTOPEDIA (ALAS A/B).,Ajuste Direto Regime Geral,Aquisição de serviços,"51410000-9, Serviços de instalação de equipamento médico","Hospital Professor Doutor Fernando Fonseca, E. P. E. (503035416)",M. Nunes – Projetos e Instalações Eléctricas S.A. (502227702),"13.689,60 €",06-10-2015,28-09-2015,14 dias,"Portugal, Lisboa, Amadora","Artigo 20.º, n.º 1, alínea a) do Código dos Contratos Públicos",,,,,,Não aplicável.,Não aplicável.,FALSE
Sistema EBUS para a UTP,Ajuste Direto Regime Geral,Aquisição de bens móveis,"33100000-1, Equipamento médico",Hospital Prof. Doutor Fernando Fonseca E.P.E. (503035416),Olympus Ibéria S.A.U. (980474710),"51.140,25 €",05-10-2015,13-08-2015,30 dias,"Portugal, Lisboa, Amadora","Artigo 20.º, n.º 1, alínea a) do Código dos Contratos Públicos",,,,,,Não aplicável.,Não aplicável.,FALSE
Kits para ventiladores,Ajuste Direto Regime Geral,Aquisição de bens móveis,"33141620-2, Kits médicos",Hospital Prof. Doutor Fernando Fonseca E.P.E. (503035416),Efacec - Manvia Manutenção Hospitalar ACE. (509801510),"16.775,40 €",05-10-2015,12-06-2015,90 dias,"Portugal, Lisboa, Amadora","Artigo 20.º, n.º 1, alínea a) do Código dos Contratos Públicos",,,,,,Não aplicável.,Não aplicável.,FALSE
Aquisição Câmaras Expansoras,Ajuste Direto Regime Geral,Aquisição de bens móveis,"33157400-9, Respiradores para fins médicos",Hospital Prof. Doutor Fernando Fonseca E.P.E. (503035416),"Teprel - Equipamentos Médicos, S.A. (502262184)","7.140,00 €",02-10-2015,16-09-2015,90 dias,"Portugal, Lisboa, Amadora","Artigo 20.º, n.º 1, alínea a) do Código dos Contratos Públicos",,,,,,Não aplicável.,Não aplicável.,FALSE
Aluguer mensal de servidor,Ajuste Direto Regime Geral,Outros Tipos (Concessão de exploração de bens do domínio público),"72222300-0, Serviços relacionados com as tecnologias da informação",Hospital Prof. Doutor Fernando Fonseca E.P.E. (503035416),"ITEN SOLUTIONS - Sistemas de Informação, S.A (510728189)","6.000,00 €",01-10-2015,27-08-2015,120 dias,"Portugal, Lisboa, Amadora","Artigo 20.º, n.º 1, alínea a) do Código dos Contratos Públicos",,,,,,Não aplicável.,Não aplicável.,FALSE
Assistência Técnica e Evolução de Software,Ajuste Direto Regime Geral,Aquisição de serviços,"72261000-2, Serviços de assistência em matéria de software",Hospital Prof. Doutor Fernando Fonseca E.P.E. (503035416),"Confidentia, Lda. (504654128)","6.036,59 €",01-10-2015,14-07-2015,270 dias,"Portugal, Lisboa, Amadora","Artigo 20.º, n.º 1, alínea a) do Código dos Contratos Públicos",,,,,,Não aplicável.,Não aplicável.,FALSE
