Objeto do Contrato,Tipo de Procedimento,Tipo(s) de Contrato,CPVs,Entidade(s) Adjudicante(s),Entidade(s) Adjudicatária(s),Preço Contratual,Data de Publicação,Data de Celebração do Contrato,Prazo de Execução,Local de Execução,Fundamentação,Data de Fecho do Contrato,Preço Total Efetivo,Causas das Alterações ao Prazo,Causas das Alterações ao Preço,Estado,N.º registo do Acordo Quadro,Descrição do Acordo Quadro,Procedimento Centralizado
8102E17-REPARAÇÃO DE APARELHO DE RX,Ajuste Direto Regime Geral,Aquisição de serviços,"50000000-5, Serviços de reparação e manutenção","Centro Hospitalar de Leiria, E. P. E. (509822932)","MED X-RAY SISTEMAS MÉDICOS, LDA. (506187071)","14.320,56 €",30-05-2017,24-04-2017,5 dias,"Portugal, Leiria, Leiria","Artigo 20.º, n.º 1, alínea a) do Código dos Contratos Públicos",24-04-2017,"14.320,56 €",,,,Não aplicável.,Não aplicável.,FALSE
8116E17-REPARAÇÃ DE ANGIÓGRAFO DIGITAL,Ajuste Direto Regime Geral,Aquisição de serviços,"50000000-5, Serviços de reparação e manutenção","Centro Hospitalar de Leiria, E. P. E. (509822932)","PHILIPS PORTUGUESA, SA (500216843)","9.960,00 €",30-05-2017,19-05-2017,5 dias,"Portugal, Leiria, Leiria","Artigo 20.º, n.º 1, alínea a) do Código dos Contratos Públicos",19-05-2017,"9.960,00 €",,,,Não aplicável.,Não aplicável.,FALSE
Circuito ventilação,Ajuste Direto Regime Geral,Aquisição de bens móveis,"33140000-3, Material médico de consumo","CENTRO HOSPITALAR DE LEIRIA, E.P.E. (509822932)","INTERSURGICAL PORTUGAL, LDA (503480045)","2.135,00 €",26-05-2017,07-03-2017,365 dias,"Portugal, Leiria, Leiria","Artigo 20.º, n.º 1, alínea a) do Código dos Contratos Públicos","","",,,,Não aplicável.,Não aplicável.,FALSE
Bolsa nutrição,Concurso público,Aquisição de bens móveis,"33140000-3, Material médico de consumo","Centro Hospitalar de Leiria, E. P. E. (509822932)","IBERVOXEL-EQUIP.MEDICOS E LABO.-UNIPESSOAL,LDA (506716899)","214,00 €",26-05-2017,10-03-2017,365 dias,"Portugal, Leiria, Leiria","Artigo 20.º, n.º 1, alínea b) do Código dos Contratos Públicos","","",,,,Não aplicável.,Não aplicável.,FALSE
Sistemas fechados,Concurso público,Aquisição de bens móveis,"33140000-3, Material médico de consumo","Centro Hospitalar de Leiria, E. P. E. (509822932)","B.BRAUN MEDICAL, LDA (501506543)","16.950,00 €",26-05-2017,31-03-2017,365 dias,"Portugal, Leiria, Leiria","Artigo 20.º, n.º 1, alínea b) do Código dos Contratos Públicos","","",,,,Não aplicável.,Não aplicável.,FALSE
Infusores,Concurso público,Aquisição de bens móveis,"33140000-3, Material médico de consumo","Centro Hospitalar de Leiria, E. P. E. (509822932)",MEDICINALIA CORMEDICA-C.PROD.MEDICO HOSP.LDA. (500684324),"60.220,00 €",26-05-2017,10-03-2017,365 dias,"Portugal, Leiria, Leiria","Artigo 20.º, n.º 1, alínea b) do Código dos Contratos Públicos","","",,,,Não aplicável.,Não aplicável.,FALSE
Cateter implantável,Concurso público,Aquisição de bens móveis,"33140000-3, Material médico de consumo","Centro Hospitalar de Leiria, E. P. E. (509822932)","VYGON (PORTUGAL), LDA (503232785)","14.310,00 €",26-05-2017,31-03-2017,365 dias,"Portugal, Leiria, Leiria","Artigo 20.º, n.º 1, alínea b) do Código dos Contratos Públicos","","",,,,Não aplicável.,Não aplicável.,FALSE
Filtros particulas,Concurso público,Aquisição de bens móveis,"33140000-3, Material médico de consumo","Centro Hospitalar de Leiria, E. P. E. (509822932)","CODAN 11-VEND.DISTRIB.INST.MED.ACES., SA (504923471)","2.180,00 €",26-05-2017,10-03-2017,365 dias,"Portugal, Leiria, Leiria","Artigo 20.º, n.º 1, alínea b) do Código dos Contratos Públicos","","",,,,Não aplicável.,Não aplicável.,FALSE
Material administração citostáticos e analgésicos,Concurso público,Aquisição de bens móveis,"33140000-3, Material médico de consumo","Centro Hospitalar de Leiria, E. P. E. (509822932)","SMITHS MEDICAL (PORTUGAL),UNIPESSOAL,LDA (507445937)","11.368,80 €",26-05-2017,31-03-2017,365 dias,"Portugal, Leiria, Leiria","Artigo 20.º, n.º 1, alínea b) do Código dos Contratos Públicos","","",,,,Não aplicável.,Não aplicável.,FALSE
1009O17 Medicamentos do Foro Oncológico,Ao abrigo de acordo-quadro (art.º 259.º),Aquisição de bens móveis,"33600000-6, Produtos farmacêuticos","CENTRO HOSPITALAR DE LEIRIA, E.P.E. (509822932)","TECNIMEDE-SOC.TECNICO MEDICINAL, LDA (500626413)","226,80 €",25-05-2017,04-01-2017,365 dias,"Portugal, Leiria, Leiria",Artigo 259.º do Código dos Contratos Públicos,"","",,,,1771819,CP 2015/6 - Acordo quadro para o fornecimento de Medicamentos do Foro Oncológico,FALSE
1009O17 Medicamentos do Foro Oncológico,Ao abrigo de acordo-quadro (art.º 259.º),Aquisição de bens móveis,"33600000-6, Produtos farmacêuticos","CENTRO HOSPITALAR DE LEIRIA, E.P.E. (509822932)","TEVA PHARMA-PRODUTOS FARMACEUTICOS, LDA (507045491)","32,50 €",25-05-2017,04-01-2017,365 dias,"Portugal, Leiria, Leiria",Artigo 259.º do Código dos Contratos Públicos,"","",,,,1771819,CP 2015/6 - Acordo quadro para o fornecimento de Medicamentos do Foro Oncológico,FALSE
1009O17 Medicamentos do Foro Oncológico,Ao abrigo de acordo-quadro (art.º 259.º),Aquisição de bens móveis,"33600000-6, Produtos farmacêuticos","CENTRO HOSPITALAR DE LEIRIA, E.P.E. (509822932)","SHIRE PHARMACEUTICALS PORTUGAL, LDA. (509264662)","5.338,50 €",25-05-2017,04-01-2017,365 dias,"Portugal, Leiria, Leiria",Artigo 259.º do Código dos Contratos Públicos,"","",,,,1771819,CP 2015/6 - Acordo quadro para o fornecimento de Medicamentos do Foro Oncológico,FALSE
1009O17 Medicamentos do Foro Oncológico,Ao abrigo de acordo-quadro (art.º 259.º),Aquisição de bens móveis,"33600000-6, Produtos farmacêuticos","CENTRO HOSPITALAR DE LEIRIA, E.P.E. (509822932)","LABORATORIOS PFIZER, LDA (500162166)","2.611,20 €",25-05-2017,04-01-2017,365 dias,"Portugal, Leiria, Leiria",Artigo 259.º do Código dos Contratos Públicos,"","",,,,1771819,CP 2015/6 - Acordo quadro para o fornecimento de Medicamentos do Foro Oncológico,FALSE
1009O17 Medicamentos do Foro Oncológico,Ao abrigo de acordo-quadro (art.º 259.º),Aquisição de bens móveis,"33600000-6, Produtos farmacêuticos","CENTRO HOSPITALAR DE LEIRIA, E.P.E. (509822932)","ACCORD HEALTHCARE, UNIPESSOAL LDA (508622263)","3.072,80 €",25-05-2017,04-01-2017,365 dias,"Portugal, Leiria, Leiria",Artigo 259.º do Código dos Contratos Públicos,"","",,,,1771819,CP 2015/6 - Acordo quadro para o fornecimento de Medicamentos do Foro Oncológico,FALSE
1009O17 Medicamentos do Foro Oncológico,Ao abrigo de acordo-quadro (art.º 259.º),Aquisição de bens móveis,"33600000-6, Produtos farmacêuticos","CENTRO HOSPITALAR DE LEIRIA, E.P.E. (509822932)","ABBVIE, LDA (510229050)","46.121,40 €",25-05-2017,04-01-2017,365 dias,"Portugal, Leiria, Leiria",Artigo 259.º do Código dos Contratos Públicos,"","",,,,1771819,CP 2015/6 - Acordo quadro para o fornecimento de Medicamentos do Foro Oncológico,FALSE
1007O17 Medicamentos anti-infecciosos: exceto antivíricos e antifúngicos,Ao abrigo de acordo-quadro (art.º 259.º),Aquisição de bens móveis,"33600000-6, Produtos farmacêuticos","CENTRO HOSPITALAR DE LEIRIA, E.P.E. (509822932)","TEVA PHARMA-PRODUTOS FARMACEUTICOS, LDA (507045491)","100,00 €",24-05-2017,24-11-2016,365 dias,"Portugal, Leiria, Leiria",Artigo 259.º do Código dos Contratos Públicos,"","",,,,1326195,ACORDO QUADRO PARA FORNECIMENTO DE MEDICAMENTOS ANTI-INFECIOSOS: EXCETO ANTIVÍRICOS E ANTIFÚNGICOS ÀS INSTITUIÇÕES E SERVIÇOS DO SERVIÇO NACIONAL DE SAÚDE,FALSE
1007O17 Medicamentos anti-infecciosos: exceto antivíricos e antifúngicos,Ao abrigo de acordo-quadro (art.º 259.º),Aquisição de bens móveis,"33600000-6, Produtos farmacêuticos","CENTRO HOSPITALAR DE LEIRIA, E.P.E. (509822932)","SANOFI-PRODUTOS FARMACEUTICOS,LDA (500134960)","290,22 €",24-05-2017,24-11-2016,365 dias,"Portugal, Leiria, Leiria",Artigo 259.º do Código dos Contratos Públicos,"","",,,,1326195,ACORDO QUADRO PARA FORNECIMENTO DE MEDICAMENTOS ANTI-INFECIOSOS: EXCETO ANTIVÍRICOS E ANTIFÚNGICOS ÀS INSTITUIÇÕES E SERVIÇOS DO SERVIÇO NACIONAL DE SAÚDE,FALSE
1007O17 Medicamentos anti-infecciosos: exceto antivíricos e antifúngicos,Ao abrigo de acordo-quadro (art.º 259.º),Aquisição de bens móveis,"33600000-6, Produtos farmacêuticos","CENTRO HOSPITALAR DE LEIRIA, E.P.E. (509822932)","ROCHE FARMACEUTICA QUIMICA, LDA (500233810)","5,95 €",24-05-2017,24-11-2016,365 dias,"Portugal, Leiria, Leiria",Artigo 259.º do Código dos Contratos Públicos,"","",,,,1326195,ACORDO QUADRO PARA FORNECIMENTO DE MEDICAMENTOS ANTI-INFECIOSOS: EXCETO ANTIVÍRICOS E ANTIFÚNGICOS ÀS INSTITUIÇÕES E SERVIÇOS DO SERVIÇO NACIONAL DE SAÚDE,FALSE
1007O17 Medicamentos anti-infecciosos: exceto antivíricos e antifúngicos,Ao abrigo de acordo-quadro (art.º 259.º),Aquisição de bens móveis,"33600000-6, Produtos farmacêuticos","CENTRO HOSPITALAR DE LEIRIA, E.P.E. (509822932)","RATIOPHARM-COM.IND.PROD.FARMACEUT., LDA (502414910)","288,00 €",24-05-2017,24-11-2016,365 dias,"Portugal, Leiria, Leiria",Artigo 259.º do Código dos Contratos Públicos,"","",,,,1326195,ACORDO QUADRO PARA FORNECIMENTO DE MEDICAMENTOS ANTI-INFECIOSOS: EXCETO ANTIVÍRICOS E ANTIFÚNGICOS ÀS INSTITUIÇÕES E SERVIÇOS DO SERVIÇO NACIONAL DE SAÚDE,FALSE
1007O17 Medicamentos anti-infecciosos: exceto antivíricos e antifúngicos,Ao abrigo de acordo-quadro (art.º 259.º),Aquisição de bens móveis,"33600000-6, Produtos farmacêuticos","CENTRO HOSPITALAR DE LEIRIA, E.P.E. (509822932)","R2MC - RANGEL, PRODUTOS FARMACEUTICOS, S.A. (510599818)","2.212,35 €",24-05-2017,24-11-2016,365 dias,"Portugal, Leiria, Leiria",Artigo 259.º do Código dos Contratos Públicos,"","",,,,1326195,ACORDO QUADRO PARA FORNECIMENTO DE MEDICAMENTOS ANTI-INFECIOSOS: EXCETO ANTIVÍRICOS E ANTIFÚNGICOS ÀS INSTITUIÇÕES E SERVIÇOS DO SERVIÇO NACIONAL DE SAÚDE,FALSE
1007O17 Medicamentos anti-infecciosos: exceto antivíricos e antifúngicos,Ao abrigo de acordo-quadro (art.º 259.º),Aquisição de bens móveis,"33600000-6, Produtos farmacêuticos","CENTRO HOSPITALAR DE LEIRIA, E.P.E. (509822932)","LABORATORIOS PFIZER, LDA (500162166)","1.796,84 €",24-05-2017,24-11-2016,365 dias,"Portugal, Leiria, Leiria",Artigo 259.º do Código dos Contratos Públicos,"","",,,,1326195,ACORDO QUADRO PARA FORNECIMENTO DE MEDICAMENTOS ANTI-INFECIOSOS: EXCETO ANTIVÍRICOS E ANTIFÚNGICOS ÀS INSTITUIÇÕES E SERVIÇOS DO SERVIÇO NACIONAL DE SAÚDE,FALSE
1007O17 Medicamentos anti-infecciosos: exceto antivíricos e antifúngicos,Ao abrigo de acordo-quadro (art.º 259.º),Aquisição de bens móveis,"33600000-6, Produtos farmacêuticos","CENTRO HOSPITALAR DE LEIRIA, E.P.E. (509822932)","LABORATORIOS ATRAL, SA (500162085)","653,60 €",24-05-2017,24-11-2016,365 dias,"Portugal, Leiria, Leiria",Artigo 259.º do Código dos Contratos Públicos,"","",,,,1326195,ACORDO QUADRO PARA FORNECIMENTO DE MEDICAMENTOS ANTI-INFECIOSOS: EXCETO ANTIVÍRICOS E ANTIFÚNGICOS ÀS INSTITUIÇÕES E SERVIÇOS DO SERVIÇO NACIONAL DE SAÚDE,FALSE
1007O17 Medicamentos anti-infecciosos: exceto antivíricos e antifúngicos,Ao abrigo de acordo-quadro (art.º 259.º),Aquisição de bens móveis,"33600000-6, Produtos farmacêuticos","CENTRO HOSPITALAR DE LEIRIA, E.P.E. (509822932)","LABESFAL-LABORATORIOS ALMIRO, SA (501169580)","52.510,90 €",24-05-2017,24-11-2016,365 dias,"Portugal, Leiria, Leiria",Artigo 259.º do Código dos Contratos Públicos,"","",,,,1326195,ACORDO QUADRO PARA FORNECIMENTO DE MEDICAMENTOS ANTI-INFECIOSOS: EXCETO ANTIVÍRICOS E ANTIFÚNGICOS ÀS INSTITUIÇÕES E SERVIÇOS DO SERVIÇO NACIONAL DE SAÚDE,FALSE
1007O17 Medicamentos anti-infecciosos: exceto antivíricos e antifúngicos,Ao abrigo de acordo-quadro (art.º 259.º),Aquisição de bens móveis,"33600000-6, Produtos farmacêuticos","CENTRO HOSPITALAR DE LEIRIA, E.P.E. (509822932)","HIKMA FARMACEUTICA (PORTUGAL), SA (502266791)","121.518,70 €",24-05-2017,24-11-2016,365 dias,"Portugal, Leiria, Leiria",Artigo 259.º do Código dos Contratos Públicos,"","",,,,1326195,ACORDO QUADRO PARA FORNECIMENTO DE MEDICAMENTOS ANTI-INFECIOSOS: EXCETO ANTIVÍRICOS E ANTIFÚNGICOS ÀS INSTITUIÇÕES E SERVIÇOS DO SERVIÇO NACIONAL DE SAÚDE,FALSE
1007O17 Medicamentos anti-infecciosos: exceto antivíricos e antifúngicos,Ao abrigo de acordo-quadro (art.º 259.º),Aquisição de bens móveis,"33600000-6, Produtos farmacêuticos","CENTRO HOSPITALAR DE LEIRIA, E.P.E. (509822932)","GENERIS-FARMACEUTICA,SA (508107997)","44.660,80 €",24-05-2017,24-11-2016,365 dias,"Portugal, Leiria, Leiria",Artigo 259.º do Código dos Contratos Públicos,"","",,,,1326195,ACORDO QUADRO PARA FORNECIMENTO DE MEDICAMENTOS ANTI-INFECIOSOS: EXCETO ANTIVÍRICOS E ANTIFÚNGICOS ÀS INSTITUIÇÕES E SERVIÇOS DO SERVIÇO NACIONAL DE SAÚDE,FALSE
1007O17 Medicamentos anti-infecciosos: exceto antivíricos e antifúngicos,Ao abrigo de acordo-quadro (art.º 259.º),Aquisição de bens móveis,"33600000-6, Produtos farmacêuticos","CENTRO HOSPITALAR DE LEIRIA, E.P.E. (509822932)","FRESENIUS KABI PHARMA PORTUGAL, LDA (504293753)","62.772,50 €",24-05-2017,24-11-2016,365 dias,"Portugal, Leiria, Leiria",Artigo 259.º do Código dos Contratos Públicos,"","",,,,1326195,ACORDO QUADRO PARA FORNECIMENTO DE MEDICAMENTOS ANTI-INFECIOSOS: EXCETO ANTIVÍRICOS E ANTIFÚNGICOS ÀS INSTITUIÇÕES E SERVIÇOS DO SERVIÇO NACIONAL DE SAÚDE,FALSE
1007O17 Medicamentos anti-infecciosos: exceto antivíricos e antifúngicos,Ao abrigo de acordo-quadro (art.º 259.º),Aquisição de bens móveis,"33600000-6, Produtos farmacêuticos","CENTRO HOSPITALAR DE LEIRIA, E.P.E. (509822932)","BRISTOL MYERS SQUIBB-FARM.PORTUGUESA, SA (500048193)","1.001,00 €",24-05-2017,24-11-2016,365 dias,"Portugal, Leiria, Leiria",Artigo 259.º do Código dos Contratos Públicos,"","",,,,1326195,ACORDO QUADRO PARA FORNECIMENTO DE MEDICAMENTOS ANTI-INFECIOSOS: EXCETO ANTIVÍRICOS E ANTIFÚNGICOS ÀS INSTITUIÇÕES E SERVIÇOS DO SERVIÇO NACIONAL DE SAÚDE,FALSE
1007O17 Medicamentos anti-infecciosos: exceto antivíricos e antifúngicos,Ao abrigo de acordo-quadro (art.º 259.º),Aquisição de bens móveis,"33600000-6, Produtos farmacêuticos","CENTRO HOSPITALAR DE LEIRIA, E.P.E. (509822932)","B.BRAUN MEDICAL, LDA (501506543)","6.051,50 €",24-05-2017,24-11-2016,365 dias,"Portugal, Leiria, Leiria",Artigo 259.º do Código dos Contratos Públicos,"","",,,,1326195,ACORDO QUADRO PARA FORNECIMENTO DE MEDICAMENTOS ANTI-INFECIOSOS: EXCETO ANTIVÍRICOS E ANTIFÚNGICOS ÀS INSTITUIÇÕES E SERVIÇOS DO SERVIÇO NACIONAL DE SAÚDE,FALSE
1007O17 Medicamentos anti-infecciosos: exceto antivíricos e antifúngicos,Ao abrigo de acordo-quadro (art.º 259.º),Aquisição de bens móveis,"33600000-6, Produtos farmacêuticos","CENTRO HOSPITALAR DE LEIRIA, E.P.E. (509822932)","AUROVITAS UNIPESSOAL, LDA. (513053239)","126,00 €",24-05-2017,24-11-2016,365 dias,"Portugal, Leiria, Leiria",Artigo 259.º do Código dos Contratos Públicos,"","",,,,1326195,ACORDO QUADRO PARA FORNECIMENTO DE MEDICAMENTOS ANTI-INFECIOSOS: EXCETO ANTIVÍRICOS E ANTIFÚNGICOS ÀS INSTITUIÇÕES E SERVIÇOS DO SERVIÇO NACIONAL DE SAÚDE,FALSE
1007O17 Medicamentos anti-infecciosos: exceto antivíricos e antifúngicos,Ao abrigo de acordo-quadro (art.º 259.º),Aquisição de bens móveis,"33600000-6, Produtos farmacêuticos","CENTRO HOSPITALAR DE LEIRIA, E.P.E. (509822932)","ACCORD HEALTHCARE, UNIPESSOAL LDA (508622263)","17.276,00 €",24-05-2017,24-11-2016,365 dias,"Portugal, Leiria, Leiria",Artigo 259.º do Código dos Contratos Públicos,"","",,,,1326195,ACORDO QUADRO PARA FORNECIMENTO DE MEDICAMENTOS ANTI-INFECIOSOS: EXCETO ANTIVÍRICOS E ANTIFÚNGICOS ÀS INSTITUIÇÕES E SERVIÇOS DO SERVIÇO NACIONAL DE SAÚDE,FALSE
1006O17 Medicamentos do Aparelho Digestivo,Ao abrigo de acordo-quadro (art.º 259.º),Aquisição de bens móveis,"33600000-6, Produtos farmacêuticos","CENTRO HOSPITALAR DE LEIRIA, E.P.E. (509822932)","UNILFARMA-UNIAO INTERN.LABOR.FARM., LDA (500293023)","2.697,28 €",24-05-2017,17-10-2016,365 dias,"Portugal, Leiria, Leiria",Artigo 259.º do Código dos Contratos Públicos,"","",,,,1194708,"CONCURSO PÚBLICO PARA A CELEBRAÇÃO DE CONTRATOS PÚBLICOS DE APROVISIONAMENTO PARA A ÁREA DA SAÚDE, MEDICAMENTOS DO APARELHO DIGESTIVO, ÀS INSTITUIÇÕES E SERVIÇOS DO SERVIÇO NACIONAL DE SAÚDE",FALSE
1006O17 Medicamentos do Aparelho Digestivo,Ao abrigo de acordo-quadro (art.º 259.º),Aquisição de bens móveis,"33600000-6, Produtos farmacêuticos","CENTRO HOSPITALAR DE LEIRIA, E.P.E. (509822932)","RATIOPHARM-COM.IND.PROD.FARMACEUT., LDA (502414910)","156,00 €",24-05-2017,17-10-2016,365 dias,"Portugal, Leiria, Leiria",Artigo 259.º do Código dos Contratos Públicos,"","",,,,1194708,"CONCURSO PÚBLICO PARA A CELEBRAÇÃO DE CONTRATOS PÚBLICOS DE APROVISIONAMENTO PARA A ÁREA DA SAÚDE, MEDICAMENTOS DO APARELHO DIGESTIVO, ÀS INSTITUIÇÕES E SERVIÇOS DO SERVIÇO NACIONAL DE SAÚDE",FALSE
Servidor para instalação de aplicação Xcelera,Ajuste Direto Regime Geral,Aquisição de bens móveis,"48800000-6, Sistemas de informação e servidores","Centro Hospitalar de Leiria, E. P. E. (509822932)","Iten Solutions - Sistemas de Informação, SA (510728189)","4.311,13 €",23-05-2017,23-05-2017,60 dias,"Portugal, Leiria, Leiria","Artigo 20.º, n.º 1, alínea a) do Código dos Contratos Públicos",23-05-2017,"4.311,13 €",,,,Não aplicável.,Não aplicável.,FALSE
1006O17 Medicamentos do Aparelho Digestivo,Ao abrigo de acordo-quadro (art.º 259.º),Aquisição de bens móveis,"33600000-6, Produtos farmacêuticos","CENTRO HOSPITALAR DE LEIRIA, E.P.E. (509822932)","PROSPA LABORATORIOS FARMACEUTICOS, SA (500130248)","3.372,00 €",23-05-2017,17-10-2016,365 dias,"Portugal, Leiria, Leiria",Artigo 259.º do Código dos Contratos Públicos,"","",,,,1194708,"CONCURSO PÚBLICO PARA A CELEBRAÇÃO DE CONTRATOS PÚBLICOS DE APROVISIONAMENTO PARA A ÁREA DA SAÚDE, MEDICAMENTOS DO APARELHO DIGESTIVO, ÀS INSTITUIÇÕES E SERVIÇOS DO SERVIÇO NACIONAL DE SAÚDE",FALSE
1006O17 Medicamentos do Aparelho Digestivo,Ao abrigo de acordo-quadro (art.º 259.º),Aquisição de bens móveis,"33600000-6, Produtos farmacêuticos","CENTRO HOSPITALAR DE LEIRIA, E.P.E. (509822932)",MEDA-PHARMA PROD.FARMACEUTICOS (500082090),"10.323,90 €",23-05-2017,17-10-2016,365 dias,"Portugal, Leiria, Leiria",Artigo 259.º do Código dos Contratos Públicos,"","",,,,1194708,"CONCURSO PÚBLICO PARA A CELEBRAÇÃO DE CONTRATOS PÚBLICOS DE APROVISIONAMENTO PARA A ÁREA DA SAÚDE, MEDICAMENTOS DO APARELHO DIGESTIVO, ÀS INSTITUIÇÕES E SERVIÇOS DO SERVIÇO NACIONAL DE SAÚDE",FALSE
1006O17 Medicamentos do Aparelho Digestivo,Ao abrigo de acordo-quadro (art.º 259.º),Aquisição de bens móveis,"33600000-6, Produtos farmacêuticos","CENTRO HOSPITALAR DE LEIRIA, E.P.E. (509822932)","LABORATORIOS PFIZER, LDA (500162166)","1.252,50 €",23-05-2017,17-10-2016,365 dias,"Portugal, Leiria, Leiria",Artigo 259.º do Código dos Contratos Públicos,"","",,,,1194708,"CONCURSO PÚBLICO PARA A CELEBRAÇÃO DE CONTRATOS PÚBLICOS DE APROVISIONAMENTO PARA A ÁREA DA SAÚDE, MEDICAMENTOS DO APARELHO DIGESTIVO, ÀS INSTITUIÇÕES E SERVIÇOS DO SERVIÇO NACIONAL DE SAÚDE",FALSE
1006O17 Medicamentos do Aparelho Digestivo,Ao abrigo de acordo-quadro (art.º 259.º),Aquisição de bens móveis,"33600000-6, Produtos farmacêuticos","CENTRO HOSPITALAR DE LEIRIA, E.P.E. (509822932)","LABORATORIO MEDINFAR, SA (500384045)","4.081,65 €",23-05-2017,17-10-2016,365 dias,"Portugal, Leiria, Leiria",Artigo 259.º do Código dos Contratos Públicos,"","",,,,1194708,"CONCURSO PÚBLICO PARA A CELEBRAÇÃO DE CONTRATOS PÚBLICOS DE APROVISIONAMENTO PARA A ÁREA DA SAÚDE, MEDICAMENTOS DO APARELHO DIGESTIVO, ÀS INSTITUIÇÕES E SERVIÇOS DO SERVIÇO NACIONAL DE SAÚDE",FALSE
1006O17 Medicamentos do Aparelho Digestivo,Ao abrigo de acordo-quadro (art.º 259.º),Aquisição de bens móveis,"33600000-6, Produtos farmacêuticos","CENTRO HOSPITALAR DE LEIRIA, E.P.E. (509822932)","LABESFAL-LABORATORIOS ALMIRO, SA (501169580)","266,49 €",23-05-2017,17-10-2016,365 dias,"Portugal, Leiria, Leiria",Artigo 259.º do Código dos Contratos Públicos,"","",,,,1194708,"CONCURSO PÚBLICO PARA A CELEBRAÇÃO DE CONTRATOS PÚBLICOS DE APROVISIONAMENTO PARA A ÁREA DA SAÚDE, MEDICAMENTOS DO APARELHO DIGESTIVO, ÀS INSTITUIÇÕES E SERVIÇOS DO SERVIÇO NACIONAL DE SAÚDE",FALSE
1006O17 Medicamentos do Aparelho Digestivo,Ao abrigo de acordo-quadro (art.º 259.º),Aquisição de bens móveis,"33600000-6, Produtos farmacêuticos","CENTRO HOSPITALAR DE LEIRIA, E.P.E. (509822932)","HIKMA FARMACEUTICA (PORTUGAL), SA (502266791)","1.765,50 €",23-05-2017,17-10-2016,365 dias,"Portugal, Leiria, Leiria",Artigo 259.º do Código dos Contratos Públicos,"","",,,,1194708,"CONCURSO PÚBLICO PARA A CELEBRAÇÃO DE CONTRATOS PÚBLICOS DE APROVISIONAMENTO PARA A ÁREA DA SAÚDE, MEDICAMENTOS DO APARELHO DIGESTIVO, ÀS INSTITUIÇÕES E SERVIÇOS DO SERVIÇO NACIONAL DE SAÚDE",FALSE
1006O17 Medicamentos do Aparelho Digestivo,Ao abrigo de acordo-quadro (art.º 259.º),Aquisição de bens móveis,"33600000-6, Produtos farmacêuticos","CENTRO HOSPITALAR DE LEIRIA, E.P.E. (509822932)","GENERIS-FARMACEUTICA,SA (508107997)","3.678,50 €",23-05-2017,17-10-2016,365 dias,"Portugal, Leiria, Leiria",Artigo 259.º do Código dos Contratos Públicos,"","",,,,1194708,"CONCURSO PÚBLICO PARA A CELEBRAÇÃO DE CONTRATOS PÚBLICOS DE APROVISIONAMENTO PARA A ÁREA DA SAÚDE, MEDICAMENTOS DO APARELHO DIGESTIVO, ÀS INSTITUIÇÕES E SERVIÇOS DO SERVIÇO NACIONAL DE SAÚDE",FALSE
1006O17 Medicamentos do Aparelho Digestivo,Ao abrigo de acordo-quadro (art.º 259.º),Aquisição de bens móveis,"33600000-6, Produtos farmacêuticos","CENTRO HOSPITALAR DE LEIRIA, E.P.E. (509822932)","DLA FARMACEUTICA, SA (503894427)","38.000,00 €",23-05-2017,17-10-2016,365 dias,"Portugal, Leiria, Leiria",Artigo 259.º do Código dos Contratos Públicos,"","",,,,1194708,"CONCURSO PÚBLICO PARA A CELEBRAÇÃO DE CONTRATOS PÚBLICOS DE APROVISIONAMENTO PARA A ÁREA DA SAÚDE, MEDICAMENTOS DO APARELHO DIGESTIVO, ÀS INSTITUIÇÕES E SERVIÇOS DO SERVIÇO NACIONAL DE SAÚDE",FALSE
1006O17 Medicamentos do Aparelho Digestivo,Ao abrigo de acordo-quadro (art.º 259.º),Aquisição de bens móveis,"33600000-6, Produtos farmacêuticos","CENTRO HOSPITALAR DE LEIRIA, E.P.E. (509822932)","BAYER PORTUGAL, LDA (500043256)","592,00 €",23-05-2017,17-10-2016,365 dias,"Portugal, Leiria, Leiria",Artigo 259.º do Código dos Contratos Públicos,"","",,,,1194708,"CONCURSO PÚBLICO PARA A CELEBRAÇÃO DE CONTRATOS PÚBLICOS DE APROVISIONAMENTO PARA A ÁREA DA SAÚDE, MEDICAMENTOS DO APARELHO DIGESTIVO, ÀS INSTITUIÇÕES E SERVIÇOS DO SERVIÇO NACIONAL DE SAÚDE",FALSE
1006O17 Medicamentos do Aparelho Digestivo,Ao abrigo de acordo-quadro (art.º 259.º),Aquisição de bens móveis,"33600000-6, Produtos farmacêuticos","CENTRO HOSPITALAR DE LEIRIA, E.P.E. (509822932)","ANGELINI FARMACEUTICA, LDA (500583650)","3.927,00 €",23-05-2017,17-10-2016,365 dias,"Portugal, Leiria, Leiria",Artigo 259.º do Código dos Contratos Públicos,"","",,,,1194708,"CONCURSO PÚBLICO PARA A CELEBRAÇÃO DE CONTRATOS PÚBLICOS DE APROVISIONAMENTO PARA A ÁREA DA SAÚDE, MEDICAMENTOS DO APARELHO DIGESTIVO, ÀS INSTITUIÇÕES E SERVIÇOS DO SERVIÇO NACIONAL DE SAÚDE",FALSE
"1005O17 MED. SN CEREBROSPINAL : EXCETO ANEST, R MUSC, ANALG, ANTIPIR, ANTIDEP E ANTI-PSI",Ao abrigo de acordo-quadro (art.º 259.º),Aquisição de bens móveis,"33600000-6, Produtos farmacêuticos","CENTRO HOSPITALAR DE LEIRIA, E.P.E. (509822932)","UCB PHARMA (PRODUTOS FARMACEUTICOS), LDA (500291322)","43,38 €",23-05-2017,06-12-2016,365 dias,"Portugal, Leiria, Leiria",Artigo 259.º do Código dos Contratos Públicos,"","",,,,1179911,"CONCURSO PÚBLICO PARA A CELEBRAÇÃO DE CONTRATOS PÚBLICOS DE APROVISIONAMENTO PARA A ÁREA DA SAÚDE, MEDICAMENTOS DO SISTEMA NERVOSO CEREBROSPINAL, EXCETO: ANESTÉSICOS, RELAXANTES MUSCULARES, ANALGÉSICOS, ANTIPIRÉTICOS, ANTIDEPRESSORES E ANTIPSICÓTICOS, ÀS INSTITUIÇÕES E SERVIÇOS DO SERVIÇO NACIONAL DE SAÚDE",FALSE
"1005O17 MED. SN CEREBROSPINAL : EXCETO ANEST, R MUSC, ANALG, ANTIPIR, ANTIDEP E ANTI-PSI",Ao abrigo de acordo-quadro (art.º 259.º),Aquisição de bens móveis,"33600000-6, Produtos farmacêuticos","CENTRO HOSPITALAR DE LEIRIA, E.P.E. (509822932)","TEVA PHARMA-PRODUTOS FARMACEUTICOS, LDA (507045491)","20,22 €",23-05-2017,06-12-2016,365 dias,"Portugal, Leiria, Leiria",Artigo 259.º do Código dos Contratos Públicos,"","",,,,1179911,"CONCURSO PÚBLICO PARA A CELEBRAÇÃO DE CONTRATOS PÚBLICOS DE APROVISIONAMENTO PARA A ÁREA DA SAÚDE, MEDICAMENTOS DO SISTEMA NERVOSO CEREBROSPINAL, EXCETO: ANESTÉSICOS, RELAXANTES MUSCULARES, ANALGÉSICOS, ANTIPIRÉTICOS, ANTIDEPRESSORES E ANTIPSICÓTICOS, ÀS INSTITUIÇÕES E SERVIÇOS DO SERVIÇO NACIONAL DE SAÚDE",FALSE
"1005O17 MED. SN CEREBROSPINAL : EXCETO ANEST, R MUSC, ANALG, ANTIPIR, ANTIDEP E ANTI-PSI",Ao abrigo de acordo-quadro (art.º 259.º),Aquisição de bens móveis,"33600000-6, Produtos farmacêuticos","CENTRO HOSPITALAR DE LEIRIA, E.P.E. (509822932)","TECNIMEDE-SOC.TECNICO MEDICINAL, LDA (500626413)","693,00 €",23-05-2017,06-12-2016,365 dias,"Portugal, Leiria, Leiria",Artigo 259.º do Código dos Contratos Públicos,"","",,,,1179911,"CONCURSO PÚBLICO PARA A CELEBRAÇÃO DE CONTRATOS PÚBLICOS DE APROVISIONAMENTO PARA A ÁREA DA SAÚDE, MEDICAMENTOS DO SISTEMA NERVOSO CEREBROSPINAL, EXCETO: ANESTÉSICOS, RELAXANTES MUSCULARES, ANALGÉSICOS, ANTIPIRÉTICOS, ANTIDEPRESSORES E ANTIPSICÓTICOS, ÀS INSTITUIÇÕES E SERVIÇOS DO SERVIÇO NACIONAL DE SAÚDE",FALSE
"1005O17 MED. SN CEREBROSPINAL : EXCETO ANEST, R MUSC, ANALG, ANTIPIR, ANTIDEP E ANTI-PSI",Ao abrigo de acordo-quadro (art.º 259.º),Aquisição de bens móveis,"33600000-6, Produtos farmacêuticos","CENTRO HOSPITALAR DE LEIRIA, E.P.E. (509822932)","TECNIFAR-IND.TECNICA FARMACEUTICA, SA (500280436)","3.003,14 €",23-05-2017,06-12-2016,365 dias,"Portugal, Leiria, Leiria",Artigo 259.º do Código dos Contratos Públicos,"","",,,,1179911,"CONCURSO PÚBLICO PARA A CELEBRAÇÃO DE CONTRATOS PÚBLICOS DE APROVISIONAMENTO PARA A ÁREA DA SAÚDE, MEDICAMENTOS DO SISTEMA NERVOSO CEREBROSPINAL, EXCETO: ANESTÉSICOS, RELAXANTES MUSCULARES, ANALGÉSICOS, ANTIPIRÉTICOS, ANTIDEPRESSORES E ANTIPSICÓTICOS, ÀS INSTITUIÇÕES E SERVIÇOS DO SERVIÇO NACIONAL DE SAÚDE",FALSE
"1005O17 MED. SN CEREBROSPINAL : EXCETO ANEST, R MUSC, ANALG, ANTIPIR, ANTIDEP E ANTI-PSI",Ao abrigo de acordo-quadro (art.º 259.º),Aquisição de bens móveis,"33600000-6, Produtos farmacêuticos","CENTRO HOSPITALAR DE LEIRIA, E.P.E. (509822932)","SANOFI-PRODUTOS FARMACEUTICOS,LDA (500134960)","30,01 €",23-05-2017,06-12-2016,365 dias,"Portugal, Leiria, Leiria",Artigo 259.º do Código dos Contratos Públicos,"","",,,,1179911,"CONCURSO PÚBLICO PARA A CELEBRAÇÃO DE CONTRATOS PÚBLICOS DE APROVISIONAMENTO PARA A ÁREA DA SAÚDE, MEDICAMENTOS DO SISTEMA NERVOSO CEREBROSPINAL, EXCETO: ANESTÉSICOS, RELAXANTES MUSCULARES, ANALGÉSICOS, ANTIPIRÉTICOS, ANTIDEPRESSORES E ANTIPSICÓTICOS, ÀS INSTITUIÇÕES E SERVIÇOS DO SERVIÇO NACIONAL DE SAÚDE",FALSE
"1005O17 MED. SN CEREBROSPINAL : EXCETO ANEST, R MUSC, ANALG, ANTIPIR, ANTIDEP E ANTI-PSI",Ao abrigo de acordo-quadro (art.º 259.º),Aquisição de bens móveis,"33600000-6, Produtos farmacêuticos","CENTRO HOSPITALAR DE LEIRIA, E.P.E. (509822932)","RATIOPHARM-COM.IND.PROD.FARMACEUT., LDA (502414910)","201,00 €",23-05-2017,06-12-2016,365 dias,"Portugal, Leiria, Leiria",Artigo 259.º do Código dos Contratos Públicos,"","",,,,1179911,"CONCURSO PÚBLICO PARA A CELEBRAÇÃO DE CONTRATOS PÚBLICOS DE APROVISIONAMENTO PARA A ÁREA DA SAÚDE, MEDICAMENTOS DO SISTEMA NERVOSO CEREBROSPINAL, EXCETO: ANESTÉSICOS, RELAXANTES MUSCULARES, ANALGÉSICOS, ANTIPIRÉTICOS, ANTIDEPRESSORES E ANTIPSICÓTICOS, ÀS INSTITUIÇÕES E SERVIÇOS DO SERVIÇO NACIONAL DE SAÚDE",FALSE
"1005O17 MED. SN CEREBROSPINAL : EXCETO ANEST, R MUSC, ANALG, ANTIPIR, ANTIDEP E ANTI-PSI",Ao abrigo de acordo-quadro (art.º 259.º),Aquisição de bens móveis,"33600000-6, Produtos farmacêuticos","CENTRO HOSPITALAR DE LEIRIA, E.P.E. (509822932)","PHARMAKERN PORTUGAL-PROD.FARMACEUT, LDA (507002571)","42,08 €",23-05-2017,06-12-2016,365 dias,"Portugal, Leiria, Leiria",Artigo 259.º do Código dos Contratos Públicos,"","",,,,1179911,"CONCURSO PÚBLICO PARA A CELEBRAÇÃO DE CONTRATOS PÚBLICOS DE APROVISIONAMENTO PARA A ÁREA DA SAÚDE, MEDICAMENTOS DO SISTEMA NERVOSO CEREBROSPINAL, EXCETO: ANESTÉSICOS, RELAXANTES MUSCULARES, ANALGÉSICOS, ANTIPIRÉTICOS, ANTIDEPRESSORES E ANTIPSICÓTICOS, ÀS INSTITUIÇÕES E SERVIÇOS DO SERVIÇO NACIONAL DE SAÚDE",FALSE
"1005O17 MED. SN CEREBROSPINAL : EXCETO ANEST, R MUSC, ANALG, ANTIPIR, ANTIDEP E ANTI-PSI",Ao abrigo de acordo-quadro (art.º 259.º),Aquisição de bens móveis,"33600000-6, Produtos farmacêuticos","CENTRO HOSPITALAR DE LEIRIA, E.P.E. (509822932)","NOVARTIS FARMA-PRODUT.FARMACEUTICOS, SA (500063524)","1.272,30 €",23-05-2017,06-12-2016,365 dias,"Portugal, Leiria, Leiria",Artigo 259.º do Código dos Contratos Públicos,"","",,,,1179911,"CONCURSO PÚBLICO PARA A CELEBRAÇÃO DE CONTRATOS PÚBLICOS DE APROVISIONAMENTO PARA A ÁREA DA SAÚDE, MEDICAMENTOS DO SISTEMA NERVOSO CEREBROSPINAL, EXCETO: ANESTÉSICOS, RELAXANTES MUSCULARES, ANALGÉSICOS, ANTIPIRÉTICOS, ANTIDEPRESSORES E ANTIPSICÓTICOS, ÀS INSTITUIÇÕES E SERVIÇOS DO SERVIÇO NACIONAL DE SAÚDE",FALSE
"1005O17 MED. SN CEREBROSPINAL : EXCETO ANEST, R MUSC, ANALG, ANTIPIR, ANTIDEP E ANTI-PSI  ",Ao abrigo de acordo-quadro (art.º 259.º),Aquisição de bens móveis,"33600000-6, Produtos farmacêuticos","CENTRO HOSPITALAR DE LEIRIA, E.P.E. (509822932)","MERCK SHARP E DOHME, LDA (500191360)","8.609,69 €",23-05-2017,06-12-2016,365 dias,"Portugal, Leiria, Leiria",Artigo 259.º do Código dos Contratos Públicos,"","",,,,1179911,"CONCURSO PÚBLICO PARA A CELEBRAÇÃO DE CONTRATOS PÚBLICOS DE APROVISIONAMENTO PARA A ÁREA DA SAÚDE, MEDICAMENTOS DO SISTEMA NERVOSO CEREBROSPINAL, EXCETO: ANESTÉSICOS, RELAXANTES MUSCULARES, ANALGÉSICOS, ANTIPIRÉTICOS, ANTIDEPRESSORES E ANTIPSICÓTICOS, ÀS INSTITUIÇÕES E SERVIÇOS DO SERVIÇO NACIONAL DE SAÚDE",FALSE
"1005O17 MED. SN CEREBROSPINAL : EXCETO ANEST, R MUSC, ANALG, ANTIPIR, ANTIDEP E ANTI-PSI",Ao abrigo de acordo-quadro (art.º 259.º),Aquisição de bens móveis,"33600000-6, Produtos farmacêuticos","CENTRO HOSPITALAR DE LEIRIA, E.P.E. (509822932)",MEDA-PHARMA PROD.FARMACEUTICOS (500082090),"471,60 €",23-05-2017,06-12-2016,365 dias,"Portugal, Leiria, Leiria",Artigo 259.º do Código dos Contratos Públicos,"","",,,,1179911,"CONCURSO PÚBLICO PARA A CELEBRAÇÃO DE CONTRATOS PÚBLICOS DE APROVISIONAMENTO PARA A ÁREA DA SAÚDE, MEDICAMENTOS DO SISTEMA NERVOSO CEREBROSPINAL, EXCETO: ANESTÉSICOS, RELAXANTES MUSCULARES, ANALGÉSICOS, ANTIPIRÉTICOS, ANTIDEPRESSORES E ANTIPSICÓTICOS, ÀS INSTITUIÇÕES E SERVIÇOS DO SERVIÇO NACIONAL DE SAÚDE",FALSE
"1005O17 MED. SN CEREBROSPINAL : EXCETO ANEST, R MUSC, ANALG, ANTIPIR, ANTIDEP E ANTI-PSI",Ao abrigo de acordo-quadro (art.º 259.º),Aquisição de bens móveis,"33600000-6, Produtos farmacêuticos","CENTRO HOSPITALAR DE LEIRIA, E.P.E. (509822932)","LABORATORIOS NORMON, SA (505654156)","2.700,00 €",23-05-2017,06-12-2016,365 dias,"Portugal, Leiria, Leiria",Artigo 259.º do Código dos Contratos Públicos,"","",,,,1179911,"CONCURSO PÚBLICO PARA A CELEBRAÇÃO DE CONTRATOS PÚBLICOS DE APROVISIONAMENTO PARA A ÁREA DA SAÚDE, MEDICAMENTOS DO SISTEMA NERVOSO CEREBROSPINAL, EXCETO: ANESTÉSICOS, RELAXANTES MUSCULARES, ANALGÉSICOS, ANTIPIRÉTICOS, ANTIDEPRESSORES E ANTIPSICÓTICOS, ÀS INSTITUIÇÕES E SERVIÇOS DO SERVIÇO NACIONAL DE SAÚDE",FALSE
"1005O17 MED. SN CEREBROSPINAL : EXCETO ANEST, R MUSC, ANALG, ANTIPIR, ANTIDEP E ANTI-PSI",Ao abrigo de acordo-quadro (art.º 259.º),Aquisição de bens móveis,"33600000-6, Produtos farmacêuticos","CENTRO HOSPITALAR DE LEIRIA, E.P.E. (509822932)","LABESFAL-LABORATORIOS ALMIRO, SA (501169580)","21.892,80 €",23-05-2017,06-12-2016,365 dias,"Portugal, Leiria, Leiria",Artigo 259.º do Código dos Contratos Públicos,"","",,,,1179911,"CONCURSO PÚBLICO PARA A CELEBRAÇÃO DE CONTRATOS PÚBLICOS DE APROVISIONAMENTO PARA A ÁREA DA SAÚDE, MEDICAMENTOS DO SISTEMA NERVOSO CEREBROSPINAL, EXCETO: ANESTÉSICOS, RELAXANTES MUSCULARES, ANALGÉSICOS, ANTIPIRÉTICOS, ANTIDEPRESSORES E ANTIPSICÓTICOS, ÀS INSTITUIÇÕES E SERVIÇOS DO SERVIÇO NACIONAL DE SAÚDE",FALSE
"1005O17 MED. SN CEREBROSPINAL : EXCETO ANEST, R MUSC, ANALG, ANTIPIR, ANTIDEP E ANTI-PSI",Ao abrigo de acordo-quadro (art.º 259.º),Aquisição de bens móveis,"33600000-6, Produtos farmacêuticos","CENTRO HOSPITALAR DE LEIRIA, E.P.E. (509822932)","HIKMA FARMACEUTICA (PORTUGAL), SA (502266791)","7.226,90 €",23-05-2017,06-12-2016,365 dias,"Portugal, Leiria, Leiria",Artigo 259.º do Código dos Contratos Públicos,"","",,,,1179911,"CONCURSO PÚBLICO PARA A CELEBRAÇÃO DE CONTRATOS PÚBLICOS DE APROVISIONAMENTO PARA A ÁREA DA SAÚDE, MEDICAMENTOS DO SISTEMA NERVOSO CEREBROSPINAL, EXCETO: ANESTÉSICOS, RELAXANTES MUSCULARES, ANALGÉSICOS, ANTIPIRÉTICOS, ANTIDEPRESSORES E ANTIPSICÓTICOS, ÀS INSTITUIÇÕES E SERVIÇOS DO SERVIÇO NACIONAL DE SAÚDE",FALSE
"1005O17 MED. SN CEREBROSPINAL : EXCETO ANEST, R MUSC, ANALG, ANTIPIR, ANTIDEP E ANTI-PSI",Ao abrigo de acordo-quadro (art.º 259.º),Aquisição de bens móveis,"33600000-6, Produtos farmacêuticos","CENTRO HOSPITALAR DE LEIRIA, E.P.E. (509822932)","GENERIS-FARMACEUTICA,SA (508107997)","4.930,08 €",23-05-2017,06-12-2016,365 dias,"Portugal, Leiria, Leiria",Artigo 259.º do Código dos Contratos Públicos,"","",,,,1179911,"CONCURSO PÚBLICO PARA A CELEBRAÇÃO DE CONTRATOS PÚBLICOS DE APROVISIONAMENTO PARA A ÁREA DA SAÚDE, MEDICAMENTOS DO SISTEMA NERVOSO CEREBROSPINAL, EXCETO: ANESTÉSICOS, RELAXANTES MUSCULARES, ANALGÉSICOS, ANTIPIRÉTICOS, ANTIDEPRESSORES E ANTIPSICÓTICOS, ÀS INSTITUIÇÕES E SERVIÇOS DO SERVIÇO NACIONAL DE SAÚDE",FALSE
"1005O17 MED. SN CEREBROSPINAL : EXCETO ANEST, R MUSC, ANALG, ANTIPIR, ANTIDEP E ANTI-PSI",Ao abrigo de acordo-quadro (art.º 259.º),Aquisição de bens móveis,"33600000-6, Produtos farmacêuticos","CENTRO HOSPITALAR DE LEIRIA, E.P.E. (509822932)","AUROVITAS UNIPESSOAL, LDA. (513053239)","781,20 €",23-05-2017,06-12-2016,365 dias,"Portugal, Leiria, Leiria",Artigo 259.º do Código dos Contratos Públicos,"","",,,,1179911,"CONCURSO PÚBLICO PARA A CELEBRAÇÃO DE CONTRATOS PÚBLICOS DE APROVISIONAMENTO PARA A ÁREA DA SAÚDE, MEDICAMENTOS DO SISTEMA NERVOSO CEREBROSPINAL, EXCETO: ANESTÉSICOS, RELAXANTES MUSCULARES, ANALGÉSICOS, ANTIPIRÉTICOS, ANTIDEPRESSORES E ANTIPSICÓTICOS, ÀS INSTITUIÇÕES E SERVIÇOS DO SERVIÇO NACIONAL DE SAÚDE",FALSE
"1005O17 MED. SN CEREBROSPINAL : EXCETO ANEST, R MUSC, ANALG, ANTIPIR, ANTIDEP E ANTI-PSI",Ao abrigo de acordo-quadro (art.º 259.º),Aquisição de bens móveis,"33600000-6, Produtos farmacêuticos","CENTRO HOSPITALAR DE LEIRIA, E.P.E. (509822932)","ACCORD HEALTHCARE, UNIPESSOAL LDA (508622263)","249,50 €",23-05-2017,06-12-2016,365 dias,"Portugal, Leiria, Leiria",Artigo 259.º do Código dos Contratos Públicos,"","",,,,1179911,"CONCURSO PÚBLICO PARA A CELEBRAÇÃO DE CONTRATOS PÚBLICOS DE APROVISIONAMENTO PARA A ÁREA DA SAÚDE, MEDICAMENTOS DO SISTEMA NERVOSO CEREBROSPINAL, EXCETO: ANESTÉSICOS, RELAXANTES MUSCULARES, ANALGÉSICOS, ANTIPIRÉTICOS, ANTIDEPRESSORES E ANTIPSICÓTICOS, ÀS INSTITUIÇÕES E SERVIÇOS DO SERVIÇO NACIONAL DE SAÚDE",FALSE
1136O17 Agregação P259-AC-2017-97,Ao abrigo de acordo-quadro (art.º 259.º),Aquisição de bens móveis,"33600000-6, Produtos farmacêuticos","Centro Hospitalar de Leiria, E. P. E. (509822932)","TEVA PHARMA-PRODUTOS FARMACEUTICOS, LDA (507045491)","4.320,00 €",23-05-2017,19-05-2017,240 dias,"Portugal, Leiria, Leiria",Artigo 259.º do Código dos Contratos Públicos,"","",,,,1771819,CP 2015/6 - Acordo quadro para o fornecimento de Medicamentos do Foro Oncológico,FALSE
