Objeto do Contrato,Tipo de Procedimento,Tipo(s) de Contrato,CPVs,Entidade(s) Adjudicante(s),Entidade(s) Adjudicatária(s),Preço Contratual,Data de Publicação,Data de Celebração do Contrato,Prazo de Execução,Local de Execução,Fundamentação,Data de Fecho do Contrato,Preço Total Efetivo,Causas das Alterações ao Prazo,Causas das Alterações ao Preço,Estado,N.º registo do Acordo Quadro,Descrição do Acordo Quadro,Procedimento Centralizado
Sistema de Ecocardiografia de cabeceira,Ajuste Direto Regime Geral,Aquisição de bens móveis,"33000000-0, Equipamento médico, medicamentos e produtos para cuidados pessoais","Centro Hospitalar de Leiria, E. P. E. (509822932)","General Electric Portuguesa, SA (500357129)","7.400,00 €",03-03-2017,10-02-2017,60 dias,"Portugal, Leiria, Leiria","Artigo 20.º, n.º 1, alínea a) do Código dos Contratos Públicos",10-02-2017,"7.400,00 €",,"",,Não aplicável.,Não aplicável.,FALSE
TUBO INSUFLADOR  DE CO2 E CABO LUZ FRIA,Ajuste Direto Regime Geral,Aquisição de bens móveis,"33000000-0, Equipamento médico, medicamentos e produtos para cuidados pessoais","Centro Hospitalar de Leiria, E. P. E. (509822932)","STRYKER PORTUGAL PRODUTOS MÉDICOS, LDA (504594214)","9.240,00 €",02-03-2017,10-02-2017,365 dias,"Portugal, Leiria, Leiria","Artigo 24.º, n.º 1, alínea e) do Código dos Contratos Públicos",29-12-2017,"9.240,00 €",,"",,Não aplicável.,Não aplicável.,FALSE
Material Cateterismo Cardíaco e Intervenção Coronária,Concurso público,Aquisição de bens móveis,"33182000-9, Material de assistência à função cardíaca","Centro Hospitalar de Leiria, E. P. E. (509822932)",MEDICINALIA CORMEDICA-C.PROD.MEDICO HOSP.LDA. (500684324),"9.870,00 €",27-02-2017,08-02-2017,365 dias,"Portugal, Leiria, Leiria","Artigo 20.º, n.º 1, alínea b) do Código dos Contratos Públicos","","",,"",,Não aplicável.,Não aplicável.,FALSE
Material Cateterismo Cardíaco e Intervenção Coronária,Concurso público,Aquisição de bens móveis,"33182000-9, Material de assistência à função cardíaca","Centro Hospitalar de Leiria, E. P. E. (509822932)","B.BRAUN MEDICAL, LDA (501506543)","1.020,00 €",27-02-2017,08-02-2017,365 dias,"Portugal, Leiria, Leiria","Artigo 20.º, n.º 1, alínea b) do Código dos Contratos Públicos","","",,"",,Não aplicável.,Não aplicável.,FALSE
Material Cateterismo Cardíaco e Intervenção Coronária,Concurso público,Aquisição de bens móveis,"33182000-9, Material de assistência à função cardíaca","Centro Hospitalar de Leiria, E. P. E. (509822932)","CARDINAL HEALTH PORTUGAL 513 UNIPESSOAL, LDA. (513620834)","68.092,00 €",27-02-2017,08-02-2017,365 dias,"Portugal, Leiria, Leiria","Artigo 20.º, n.º 1, alínea b) do Código dos Contratos Públicos","","",,"",,Não aplicável.,Não aplicável.,FALSE
Material Cateterismo Cardíaco e Interveção Coronária,Concurso público,Aquisição de bens móveis,"33182000-9, Material de assistência à função cardíaca","Centro Hospitalar de Leiria, E. P. E. (509822932)","MEDTRONIC PORTUGAL, LDA (504223933)","28.804,00 €",27-02-2017,08-02-2017,365 dias,"Portugal, Leiria, Leiria","Artigo 20.º, n.º 1, alínea b) do Código dos Contratos Públicos","","",,"",,Não aplicável.,Não aplicável.,FALSE
Material Cateterismo Cardíaco e Intervenção Coronária,Concurso público,Aquisição de bens móveis,"33182000-9, Material de assistência à função cardíaca","Centro Hospitalar de Leiria, E. P. E. (509822932)","BOSTON SCIENTIFIC PORTUGAL-DISP.MEDICOS,LDA. (504988964)","168.438,00 €",27-02-2017,08-02-2017,365 dias,"Portugal, Leiria, Leiria","Artigo 20.º, n.º 1, alínea b) do Código dos Contratos Públicos","","",,"",,Não aplicável.,Não aplicável.,FALSE
Material Cateterismo Cardíaco e Intervenção Coronária,Concurso público,Aquisição de bens móveis,"33182000-9, Material de assistência à função cardíaca","Centro Hospitalar de Leiria, E. P. E. (509822932)","ABBOTT LABORATORIOS, LDA (500006148)","23.560,00 €",27-02-2017,08-02-2017,365 dias,"Portugal, Leiria, Leiria","Artigo 20.º, n.º 1, alínea b) do Código dos Contratos Públicos","","",,"",,Não aplicável.,Não aplicável.,FALSE
Material de Osteossintese,Concurso público,Aquisição de bens móveis,"33183100-7, Implantes ortopédicos","Centro Hospitalar de Leiria, E. P. E. (509822932)","STRYKER PORTUGAL PRODUTOS MEDICOS, LDA (504594214)","494.334,45 €",27-02-2017,31-01-2017,1095 dias,"Portugal, Leiria, Leiria","Artigo 20.º, n.º 1, alínea b) do Código dos Contratos Públicos","","",,"",,Não aplicável.,Não aplicável.,FALSE
Projeto AVAC,Ajuste Direto Regime Geral,Aquisição de bens móveis<br/>Aquisição de serviços,"71000000-8, Serviços de arquitectura, construção, engenharia e inspecção","Centro Hospitalar de Leiria, E. P. E. (509822932)","Classe verde - Engenharia, Lda. (509256295)","8.100,00 €",27-02-2017,06-02-2017,60 dias,"Portugal, Leiria, Leiria","Artigo 20.º, n.º 1, alínea a) do Código dos Contratos Públicos",06-02-2017,"8.100,00 €",,"",,Não aplicável.,Não aplicável.,FALSE
Honorários execução projecto remodelação serviço de urgência,Ajuste Direto Regime Geral,Aquisição de bens móveis<br/>Aquisição de serviços,"71000000-8, Serviços de arquitectura, construção, engenharia e inspecção","Centro Hospitalar de Leiria, E. P. E. (509822932)","Atelier Carlos Vinhas, Lda (502547740)","62.700,48 €",24-02-2017,17-02-2017,60 dias,"Portugal, Leiria, Leiria","Artigo 20.º, n.º 1, alínea a) do Código dos Contratos Públicos",17-02-2017,"62.700,48 €",,"",,Não aplicável.,Não aplicável.,FALSE
Honorários execução projecto alteração Bloco Operatório,Ajuste Direto Regime Geral,Aquisição de serviços<br/>Aquisição de bens móveis,"71000000-8, Serviços de arquitectura, construção, engenharia e inspecção","Centro Hospitalar de Leiria, E. P. E. (509822932)","Atelier Carlos Vinhas, Lda. (502547740)","24.720,60 €",24-02-2017,20-02-2017,60 dias,"Portugal, Leiria, Leiria","Artigo 20.º, n.º 1, alínea a) do Código dos Contratos Públicos",20-02-2017,"24.720,60 €",,"",,Não aplicável.,Não aplicável.,FALSE
Honorários projecto alteração do Bloco de Partos,Ajuste Direto Regime Geral,Aquisição de serviços<br/>Aquisição de bens móveis,"71000000-8, Serviços de arquitectura, construção, engenharia e inspecção","Centro Hospitalar de Leiria, E. P. E. (509822932)","Atelier Carlos Vinhas, Lda (502547740)","14.348,17 €",24-02-2017,20-02-2017,60 dias,"Portugal, Leiria, Leiria","Artigo 20.º, n.º 1, alínea a) do Código dos Contratos Públicos",20-02-2017,"14.348,17 €",,"",,Não aplicável.,Não aplicável.,FALSE
Honorários projecto alteração da sala citotóxicos,Ajuste Direto Regime Geral,Aquisição de bens móveis<br/>Aquisição de serviços,"71000000-8, Serviços de arquitectura, construção, engenharia e inspecção","Centro Hospitalar de Leiria, E. P. E. (509822932)","Atelier Carlos Vinhas, Lda (502547740)","5.194,66 €",24-02-2017,26-01-2017,60 dias,"Portugal, Leiria, Leiria","Artigo 20.º, n.º 1, alínea a) do Código dos Contratos Públicos",08-02-2017,"5.194,66 €",,"",,Não aplicável.,Não aplicável.,FALSE
Ventilador Pulmonar,Ajuste Direto Regime Geral,Aquisição de bens móveis,"33000000-0, Equipamento médico, medicamentos e produtos para cuidados pessoais","Centro Hospitalar de Leiria, E. P. E. (509822932)","Iberdata Equipamentos, SA (501904921)","14.000,00 €",24-02-2017,08-02-2017,60 dias,"Portugal, Leiria, Leiria","Artigo 20.º, n.º 1, alínea a) do Código dos Contratos Públicos",08-02-2017,"14.000,00 €",,"",,Não aplicável.,Não aplicável.,FALSE
Teste bowie dick,Ao abrigo de acordo-quadro (art.º 259.º),Aquisição de bens móveis,"33100000-1, Equipamento médico","Centro Hospitalar de Leiria, E. P. E. (509822932)","BASTOS VIEGAS, SA (500042772)","486,40 €",23-02-2017,16-02-2017,30 dias,"Portugal, Leiria, Leiria","Artigo 20.º, n.º 1, alínea b) do Código dos Contratos Públicos",23-02-2017,"486,40 €",,"",,540623,"CONCURSO PÚBLICO PARA A CELEBRAÇÃO DE CONTRATOS PÚBLICOS DE APROVISIONAMENTO PARA A ÁREA DA SAÚDE, COM VISTA AO FORNECIMENTO DE MATERIAL DISPOSABLE DE BLOCO OPERATÓRIO - PARTE 3, ÀS INSTITUIÇÕES E SERVIÇOS DO SERVIÇO NACIONAL DE SAÚDE",FALSE
Esficter uriário,Ajuste Direto Regime Geral,Aquisição de bens móveis,"33140000-3, Material médico de consumo","Centro Hospitalar de Leiria, E. P. E. (509822932)","BOSTON SCIENTIFIC PORTUGAL-DISP.MEDICOS,LDA. (504988964)","7.500,00 €",23-02-2017,23-02-2017,60 dias,"Portugal, Leiria, Leiria","Artigo 20.º, n.º 1, alínea a) do Código dos Contratos Públicos",23-02-2017,"7.500,00 €",,"",,Não aplicável.,Não aplicável.,FALSE
Produtos limpeza,Ajuste Direto Regime Geral,Aquisição de bens móveis,"39800000-0, Produtos de limpeza e polimento","CENTRO HOSPITALAR DE LEIRIA, E.P.E. (509822932)","HIGIGUIMA, LDA (505786516)","126,00 €",21-02-2017,08-02-2017,365 dias,"Portugal, Leiria, Leiria","Artigo 20.º, n.º 1, alínea a) do Código dos Contratos Públicos",29-12-2017,"126,00 €",,"",,Não aplicável.,Não aplicável.,FALSE
PRODUTOS LIMPEZA,Ajuste Direto Regime Geral,Aquisição de bens móveis,"39800000-0, Produtos de limpeza e polimento","CENTRO HOSPITALAR DE LEIRIA, E.P.E. (509822932)","SEPITRA, LDA (503851086)","5.665,00 €",21-02-2017,08-02-2017,365 dias,"Portugal, Leiria, Leiria","Artigo 20.º, n.º 1, alínea a) do Código dos Contratos Públicos",29-12-2017,"4.351,20 €",,estimativas sobrestimadas,,Não aplicável.,Não aplicável.,FALSE
PRODUTOS LIMPEZA,Ajuste Direto Regime Geral,Aquisição de bens móveis,"39800000-0, Produtos de limpeza e polimento","CENTRO HOSPITALAR DE LEIRIA, E.P.E. (509822932)","ARMÉNIO SALGADO COSTA, LDA. (505495414)","1.838,00 €",21-02-2017,08-02-2017,365 dias,"Portugal, Leiria, Leiria","Artigo 20.º, n.º 1, alínea a) do Código dos Contratos Públicos",29-12-2017,"974,64 €",,estimativas sobrestimadas,,Não aplicável.,Não aplicável.,FALSE
