Objeto do Contrato,Tipo de Procedimento,Tipo(s) de Contrato,CPVs,Entidade(s) Adjudicante(s),Entidade(s) Adjudicatária(s),Preço Contratual,Data de Publicação,Data de Celebração do Contrato,Prazo de Execução,Local de Execução,Fundamentação,Data de Fecho do Contrato,Preço Total Efetivo,Causas das Alterações ao Prazo,Causas das Alterações ao Preço,Estado,N.º registo do Acordo Quadro,Descrição do Acordo Quadro,Procedimento Centralizado
Aquisição e Montagem de 110 Cadeiras de Auditório para o novo Edifício do CRSCoimbra.,Ajuste Direto Regime Geral,Aquisição de bens móveis,"39153000-9, Mobiliário para salas de conferência","Instituto Português do Sangue, I.P. (502423943)","Epicentro - Distribuidores Mobiliário, Ld (503004448)","16.390,00 €",26-07-2011,05-07-2011,90 dias,"Portugal, Coimbra, Coimbra","Artigo 20.º, n.º 1, alínea a) do Código dos Contratos Públicos",,,,,,Não aplicável.,Não aplicável.,
Aquisição de Reagentes para Pesquisa de Ácidos Nucleicos Virais HIV/HCV/HBV para o Laboratório de Biologia Molecular do CRS Coimbra,Ajuste Direto Regime Geral,Aquisição de bens móveis,"33696200-7, Reagentes para análises ao sangue","Instituto Português do Sangue, I.P. (502423943)","Roche S. Diagnósticos, Lda (504282921)","112.095,36 €",25-07-2011,19-04-2011,30 dias,"Portugal, Coimbra, Coimbra","Artigo 26.º, n.º 1, alínea a) do Código dos Contratos Públicos",,,,,,Não aplicável.,Não aplicável.,
"Aquisição de Reagentes para o Laboratório de Imunologia Leucoplaquetária do CRS Porto, durante o ano 2011",Ajuste Direto Regime Geral,Aquisição de bens móveis,"33696200-7, Reagentes para análises ao sangue","Instituto Português do Sangue, I.P. (502423943)","Roche S. Diagnósticos, Lda (504282921)","6.821,00 €",25-07-2011,21-04-2011,240 dias,"Portugal, Porto, Porto","Artigo 26.º, n.º 1, alínea a) do Código dos Contratos Públicos",,,,,,Não aplicável.,Não aplicável.,
"Aquisição de Reagentes para o Laboratório de Imunologia Leucoplaquetária do CRS Porto, durante o ano 2011",Ajuste Direto Regime Geral,Aquisição de bens móveis,"33696200-7, Reagentes para análises ao sangue","Instituto Português do Sangue, I.P. (502423943)","Bioportugal, Lda (502380543)","3.073,01 €",25-07-2011,20-04-2011,240 dias,"Portugal, Porto, Porto","Artigo 26.º, n.º 1, alínea a) do Código dos Contratos Públicos",,,,,,Não aplicável.,Não aplicável.,
"Aquisição de Reagentes para os Laboratórios de Controlo de Qualidade dos CRS Lisboa, Coimbra e Porto, durante o ano 2011.",Ajuste Direto Regime Geral,Aquisição de bens móveis,"33696200-7, Reagentes para análises ao sangue","Instituto Português do Sangue, I.P. (502423943)","Biomerieux Portugal, Lda (501524177)","105.244,20 €",25-07-2011,07-06-2011,180 dias,"Portugal, Coimbra, Coimbra<BR/>Portugal, Lisboa, Lisboa<BR/>Portugal, Porto, Porto","Artigo 24.º, n.º 1, alínea e) do Código dos Contratos Públicos",,,,,,Não aplicável.,Não aplicável.,
"Aquisição de Reagentes para o Laboratório de Imunologia Leucoplaquetária do CRS Lisboa, durante o ano 2011",Ajuste Direto Regime Geral,Aquisição de bens móveis,"33696200-7, Reagentes para análises ao sangue","Instituto Português do Sangue, I.P. (502423943)","Inopat, S.A. (503294420)","5.395,00 €",25-07-2011,02-06-2011,190 dias,"Portugal, Lisboa, Lisboa","Artigo 26.º, n.º 1, alínea a) do Código dos Contratos Públicos",,,,,,Não aplicável.,Não aplicável.,
"Aquisição de Álcool Etilico a 70º para os Serviços de Armazém do IPS, IP, durante o ano 2011",Ajuste Direto Regime Geral,Aquisição de bens móveis,"24322510-5, Álcool etílico","Instituto Português do Sangue, I.P. (502423943)","AGA - Álcool e Géneros Alimentares, S.A. (500727457), Proclinica - Equip. e Produtos Clinicos, Lda (500222665)","2.784,00 €",25-07-2011,20-05-2011,210 dias,"Portugal, Coimbra, Coimbra<BR/>Portugal, Lisboa, Lisboa<BR/>Portugal, Porto, Porto","Artigo 20.º, n.º 1, alínea a) do Código dos Contratos Públicos",,,,,,Não aplicável.,Não aplicável.,
"Aquisição de Reagentes para os Laboratórios de Imunologia Leucoplaquetária dos CRS Lisboa e Porto, durante o ano 2011.",Ajuste Direto Regime Geral,Aquisição de bens móveis,"33696200-7, Reagentes para análises ao sangue","Instituto Português do Sangue, I.P. (502423943)","Alfredo Cavalheiro, Lda (500015392)","35.054,00 €",25-07-2011,29-06-2011,180 dias,"Portugal, Porto, Porto<BR/>Portugal, Lisboa, Lisboa","Artigo 20.º, n.º 1, alínea a) do Código dos Contratos Públicos",,,,,,Não aplicável.,Não aplicável.,
"Aquisição de Reagentes para o Laboratório de Imunologia Leucoplaquetária do CRS Porto, durante o ano 2011",Ajuste Direto Regime Geral,Aquisição de bens móveis,"33696200-7, Reagentes para análises ao sangue","Instituto Português do Sangue, I.P. (502423943)","Siemens H. Diagnóstics, Lda (507925173)","8.721,16 €",25-07-2011,21-04-2011,240 dias,"Portugal, Porto, Porto","Artigo 26.º, n.º 1, alínea a) do Código dos Contratos Públicos",,,,,,Não aplicável.,Não aplicável.,
Aquisição e Montagem de Estantes Metálicas para Armazenamento de Componentes Sanguíneos no novo Centro Regional Sangue de Coimbra.,Ajuste Direto Regime Geral,Aquisição de bens móveis,"39141100-3, Estantes","Instituto Português do Sangue, I.P. (502423943)","Esmena Portugal - Sistemas de Armazenagem, Ldª (503579319)","15.975,00 €",21-07-2011,04-07-2011,90 dias,"Portugal, Coimbra, Coimbra","Artigo 20.º, n.º 1, alínea a) do Código dos Contratos Públicos",,,,,,Não aplicável.,Não aplicável.,
