Objeto do Contrato,Tipo de Procedimento,Tipo(s) de Contrato,CPVs,Entidade(s) Adjudicante(s),Entidade(s) Adjudicatária(s),Preço Contratual,Data de Publicação,Data de Celebração do Contrato,Prazo de Execução,Local de Execução,Fundamentação,Data de Fecho do Contrato,Preço Total Efetivo,Causas das Alterações ao Prazo,Causas das Alterações ao Preço,Estado,N.º registo do Acordo Quadro,Descrição do Acordo Quadro,Procedimento Centralizado
Aquisição de serviços de um responsável técnico de instalação e manutenção de Edifícios e Sistemas - TIM-III,Ajuste Direto Regime Geral,Aquisição de serviços,"79000000-4, Serviços a empresas: direito, comercialização, consultoria, recrutamento, impressão e segurança",Direção-Geral da Saúde (600037100),Serviço de Utilização Comum dos Hospitais - SUCH (500900469),"9.750,00 €",21-12-2018,11-12-2018,365 dias,"Portugal, Lisboa, Lisboa","Artigo 20.º, n.º 1, alínea d) do Código dos Contratos Públicos",,,,,,Não aplicável.,Não aplicável.,FALSE
Aquisição de serviços para realização de ação de formação sobre prevenção de comportamentos suicidários na área da Infância e Adolescência,Ajuste Direto Regime Geral,Aquisição de serviços,"80300000-7, Serviços de ensino superior",Direção-Geral da Saúde (600037100),Escola Superior de Enfermagem de Coimbra (600081583),"18.088,83 €",21-12-2018,06-12-2018,25 dias,"Portugal, Lisboa, Lisboa","Artigo 20.º, n.º 1, alínea d) do Código dos Contratos Públicos",,,,,,Não aplicável.,Não aplicável.,FALSE
"Aquisição de serviços para divulgação da campanha “Inverno 2018/2019” no âmbito do Plano de Contingência Saúde Sazonal – Módulo Inverno da Direção-Geral da Saúde, nas redes MUPI, Autocarros (Laterais ",Consulta Prévia,Aquisição de serviços,"79341400-0, Serviços de campanhas publicitárias",Direcção-Geral da Saúde (DGS) (600037100),"MOP Multimédia Outdoors Portugal, SA (508249856)","72.029,50 €",20-12-2018,12-12-2018,19 dias,Portugal,"Artigo 20.º, n.º 1, alínea c) do Código dos Contratos Públicos",,,,,,Não aplicável.,Não aplicável.,FALSE
Aquisição de serviços para elaboração de projeto de literacia em Saúde Mental,Ajuste Direto Regime Geral,Aquisição de serviços,"80000000-4, Serviços de ensino e formação",Direção-Geral da Saúde (600037100),Universidade do Minho (502011378),"15.000,00 €",20-12-2018,07-12-2018,24 dias,"Portugal, Lisboa, Lisboa","Artigo 20.º, n.º 1, alínea d) do Código dos Contratos Públicos",,,,,,Não aplicável.,Não aplicável.,FALSE
"00206_2018_Concurso Público para aquisição de serviços para a realização de campanha """"Qual a sua atividade física?"""", para a Direção-Geral da Saúde",Concurso público,Aquisição de serviços,"64000000-6, Serviços postais e de telecomunicações",Direcção-Geral de Saúde (600037100),"Media Gate, Agência de Meios e Comunicação, SA (507247914)","98.302,13 €",19-12-2018,07-12-2018,30 dias,Portugal,"Artigo 20.º, n.º 1, alínea a) do Código dos Contratos Públicos",,,,,,Não aplicável.,Não aplicável.,TRUE
Aquisição de serviços de apoio à execução do Projeto ORPHANET do Departamento da Qualidade na Saúde,Ajuste Direto Regime Geral,Aquisição de serviços,"79000000-4, Serviços a empresas: direito, comercialização, consultoria, recrutamento, impressão e segurança",Direção-Geral da Saúde (600037100),Rui Miguel Lopes Gonçalves (222380756),"9.600,00 €",13-12-2018,03-12-2018,365 dias,"Portugal, Lisboa, Lisboa","Artigo 20.º, n.º 1, alínea d) do Código dos Contratos Públicos",,,,,,Não aplicável.,Não aplicável.,FALSE
