Objeto do Contrato,Tipo de Procedimento,Tipo(s) de Contrato,CPVs,Entidade(s) Adjudicante(s),Entidade(s) Adjudicatária(s),Preço Contratual,Data de Publicação,Data de Celebração do Contrato,Prazo de Execução,Local de Execução,Fundamentação,Data de Fecho do Contrato,Preço Total Efetivo,Causas das Alterações ao Prazo,Causas das Alterações ao Preço,Estado,N.º registo do Acordo Quadro,Descrição do Acordo Quadro,Procedimento Centralizado
"Serviços Médicos de Urgência Geral e Básica, Cuidados Inter, Sala de Rean, Deuci e Saúde Ocupacional",Ajuste Direto Regime Geral,Aquisição de serviços,"85121100-4, Serviços de médicos de clínica geral","Centro Hospitalar do Algarve, E. P. E. (510745997)","Camélia Amarela, Lda (509883303)","23.400,00 €",19-02-2016,12-02-2016,91 dias,"Portugal, Faro, Lagos<BR/>Portugal, Faro, Faro<BR/>Portugal, Faro, Portimão","Artigo 24.º, n.º 1, alínea c) do Código dos Contratos Públicos",30-06-2016,"45.175,00 €",,"O valor inicial do Contrato teve por base as necessidades estimadas para o período de 1 Janeiro de 2016 a 30 Junho de 2016, o valor final reflecte as necessidades efectivas.",,Não aplicável.,Não aplicável.,FALSE
Serviços Médicos de Ginecologia/Obstetrícia,Ajuste Direto Regime Geral,Aquisição de serviços,"85121210-8, Serviços de ginecologia ou obstetrícia","Centro Hospitalar do Algarve, E. P. E. (510745997)","Feminis, Lda (508413648)","12.480,00 €",19-02-2016,10-02-2016,91 dias,"Portugal, Faro, Portimão<BR/>Portugal, Faro, Faro","Artigo 24.º, n.º 1, alínea c) do Código dos Contratos Públicos",31-12-2016,"28.760,00 €",,"O valor inicial do Contrato teve por base as necessidades estimadas para o período de 1 Janeiro de 2016 a 31 Dezembro de 2016, o valor final reflecte as necessidades efectivas.",,Não aplicável.,Não aplicável.,FALSE
Material de Penso,Concurso público,Aquisição de bens móveis,"33140000-3, Material médico de consumo","Centro Hospitalar do Algarve, E. P. E. (510745997)","Virtuoso - Trading, Lda (510113923), Clínifar - Produtos Clínicos e Farmacêuticos, S.A. (503281115), B. Braun Medical, Lda. (501506543), MEDTRONIC PORTUGAL, LDA. (504223933), BSN Medical, S.A. (505385058), OVERPHARMA,LDA. (505792362), ALBINO DIAS ANDRADE LDA (500013810), ABILIO FREIRE, LDA. (500432600), 3M Portugal, Lda. (500193940), BASTOS VIEGAS,SA (500042772), PAUL HARTMANN, LDA. (502271728), SMITH & NEPHEW, LDª (503552461), Docworld – Dispositivos Médicos (508592909), JMV-PRODUTOS HOSPITALARES (501887148), EZEQUIEL PANAO JORGE,LDA (501412727), FACTOR PLUS,S.A. (502810645), ANASTACIO SALDANHA UNIPESSOAL, LDA. (505804441)","95.843,57 €",19-02-2016,19-02-2016,317 dias,"Portugal, Faro, Lagos<BR/>Portugal, Faro, Faro<BR/>Portugal, Faro, Portimão","Artigo 20.º, n.º 1, alínea b) do Código dos Contratos Públicos","","",,"",,Não aplicável.,Não aplicável.,FALSE
Material de Esterilização,Concurso público,Aquisição de bens móveis,"33140000-3, Material médico de consumo","Centro Hospitalar do Algarve, E. P. E. (510745997)","EZEQUIEL PANAO JORGE,LDA (501412727), HELDER GONÇALVES Assistência Técnica de Equipamentos, Lda. (503855421), HTMD - High Technology Medical Devices, Lda. (507654919), EUROCASMEDICA,S.A. (503322105), B. Braun Medical, Lda. (501506543), BASTOS VIEGAS,SA (500042772), 3M Portugal, Lda. (500193940), Docworld – Dispositivos Médicos (508592909)","21.758,95 €",19-02-2016,19-02-2016,317 dias,"Portugal, Faro, Faro<BR/>Portugal, Faro, Lagos<BR/>Portugal, Faro, Portimão","Artigo 20.º, n.º 1, alínea b) do Código dos Contratos Públicos","","",,"",,Não aplicável.,Não aplicável.,FALSE
Inspecção Periodica Elevadores-Unid.Lagos-NE 4939,Ajuste Direto Regime Geral,Aquisição de serviços,"50750000-7, Serviços de manutenção de elevadores","Centro Hospitalar do Algarve, E. P. E. (510745997)",Camara Municipal de Lagos (505170876),"411,98 €",19-02-2016,18-02-2016,15 dias,"Portugal, Faro, Lagos","Artigo 24.º, n.º 1, alínea e) do Código dos Contratos Públicos",23-02-2016,"411,98 €",,"",,Não aplicável.,Não aplicável.,FALSE
Proc.68/1227/2016-Serviço de Portagem,Ajuste Direto Regime Geral,Aquisição de serviços,"98300000-6, Serviços diversos","Centro Hospitalar do Algarve, E. P. E. (510745997)","ViaLivre,SA (509447058)","113,85 €",18-02-2016,10-02-2016,15 dias,"Portugal, Faro, Portimão","Artigo 24.º, n.º 1, alínea e) do Código dos Contratos Públicos",11-02-2016,"113,85 €",,"",,Não aplicável.,Não aplicável.,FALSE
Proc.67/1219/2016- Reparação de Instrumental Aesculap,Ajuste Direto Regime Geral,Aquisição de serviços,"50422000-9, Serviços de reparação e manutenção de equipamento cirúrgico","Centro Hospitalar do Algarve, E. P. E. (510745997)",B.Braun Medical (501506543),"2.629,49 €",18-02-2016,03-02-2016,30 dias,"Portugal, Faro, Faro","Artigo 24.º, n.º 1, alínea e) do Código dos Contratos Públicos","","",,"",,Não aplicável.,Não aplicável.,FALSE
Proc. 67/1323/2016- Reparação de Gancho de electrocoagulação Aesculap,Ajuste Direto Regime Geral,Aquisição de serviços,"50422000-9, Serviços de reparação e manutenção de equipamento cirúrgico","Centro Hospitalar do Algarve, E. P. E. (510745997)","B.Braun Medical,Lda (501506543)","53,66 €",18-02-2016,11-02-2016,30 dias,"Portugal, Faro, Portimão","Artigo 24.º, n.º 1, alínea e) do Código dos Contratos Públicos",11-03-2016,"53,66 €",,"",,Não aplicável.,Não aplicável.,FALSE
"Serviços Médicos Urgência Geral e Básica,Cuid Intensivos e Intermédios  e Sala Reanimação",Ajuste Direto Regime Geral,Aquisição de serviços,"85121100-4, Serviços de médicos de clínica geral","Centro Hospitalar do Algarve, E. P. E. (510745997)",Atlantic Melody-Lda (513353704),"11.700,00 €",18-02-2016,10-02-2016,91 dias,"Portugal, Faro, Portimão<BR/>Portugal, Faro, Lagos","Artigo 24.º, n.º 1, alínea c) do Código dos Contratos Públicos",30-06-2016,"34.920,00 €",,"O valor inicial do Contrato teve por base as necessidades estimadas para o período de 1 Janeiro de 2016 a 30 Junho de 2016, o valor final reflecte as necessidades efectivas.",,Não aplicável.,Não aplicável.,FALSE
"Serviços Médicos Urgência Geral e Básica, Medicina Interna, Cuid Intensivos e Sala Reanimação",Ajuste Direto Regime Geral,Aquisição de serviços,"85121200-5, Serviços de medicina especializada","Centro Hospitalar do Algarve, E. P. E. (510745997)","Rafael Munoz-Serviços Médicos Unipessoal, Lda (508607884)","9.360,00 €",18-02-2016,01-02-2016,91 dias,"Portugal, Faro, Faro","Artigo 24.º, n.º 1, alínea c) do Código dos Contratos Públicos",31-12-2016,"32.760,00 €",,"O valor inicial do Contrato teve por base as necessidades estimadas para o período de 1 Janeiro de 2016 a 31 Dezembro de 2016, o valor final reflecte as necessidades efectivas.",,Não aplicável.,Não aplicável.,FALSE
Proc.68/1179/2016- Quotização-Ano 2016,Ajuste Direto Regime Geral,Aquisição de serviços,"75110000-0, Serviços públicos gerais","Centro Hospitalar do Algarve, E. P. E. (510745997)",Serviço Utilização Comum dos Hospitais (500900469),"3.000,00 €",18-02-2016,02-02-2016,366 dias,"Portugal, Faro, Faro","Artigo 24.º, n.º 1, alínea e) do Código dos Contratos Públicos","","",,"",,Não aplicável.,Não aplicável.,FALSE
Proc. 68/0700/2016- Consumos de Electricidade-Edif.Apoio Administrativo-Unid.Faro e Apartamentos-Unid.Lagos,Ajuste Direto Regime Geral,Aquisição de serviços,"65310000-9, Distribuição de electricidade","Centro Hospitalar do Algarve, E. P. E. (510745997)","EDP-Serviço Universal,SA (507846044)","25.258,54 €",18-02-2016,12-02-2016,366 dias,"Portugal, Faro, Faro<BR/>Portugal, Faro, Lagos","Artigo 24.º, n.º 1, alínea e) do Código dos Contratos Públicos",31-12-2016,"19.266,06 €",,Valor efectivo inferior ao valor inicialmente estimado,,Não aplicável.,Não aplicável.,FALSE
Serviços Médicos Vmer,Ajuste Direto Regime Geral,Aquisição de serviços,"85121100-4, Serviços de médicos de clínica geral","Centro Hospitalar do Algarve, E. P. E. (510745997)","Coragem & Consciência-Serviços Médicos, Lda (513677585)","19.500,00 €",18-02-2016,04-02-2016,91 dias,"Portugal, Faro, Portimão<BR/>Portugal, Faro, Faro<BR/>Portugal, Faro, Albufeira","Artigo 24.º, n.º 1, alínea c) do Código dos Contratos Públicos",30-06-2016,"21.275,00 €",,"O valor inicial do Contrato teve por base as necessidades estimadas para o período de 1 Janeiro de 2016 a 30 Junho de 2016, o valor final reflecte as necessidades efectivas.",,Não aplicável.,Não aplicável.,FALSE
"Serviços Médicos de Urgência Geral e Básica, Cuidados Intensivos e Inter, Sala Rean, Dec Clinica, Dep Emergência",Ajuste Direto Regime Geral,Aquisição de serviços,"85121100-4, Serviços de médicos de clínica geral","Centro Hospitalar do Algarve, E. P. E. (510745997)","Harmonia Permanente, Lda (510291325)","27.950,00 €",18-02-2016,02-02-2016,91 dias,"Portugal, Faro, Faro","Artigo 24.º, n.º 1, alínea c) do Código dos Contratos Públicos",31-12-2016,"74.400,00 €",,"O valor inicial do Contrato teve por base as necessidades estimadas para o período de 1 Janeiro de 2016 a 31 Dezembro de 2016, o valor final reflecte as necessidades efectivas.",,Não aplicável.,Não aplicável.,FALSE
Serviços Médicos de Urgência Geral e Básica,Ajuste Direto Regime Geral,Aquisição de serviços,"85121100-4, Serviços de médicos de clínica geral","Centro Hospitalar do Algarve, E. P. E. (510745997)","Fielsaúde-Serviços Médicos Unipessoal, Lda (508751624)","23.400,00 €",18-02-2016,11-02-2016,91 dias,"Portugal, Faro, Portimão<BR/>Portugal, Faro, Lagos","Artigo 24.º, n.º 1, alínea c) do Código dos Contratos Públicos",31-12-2016,"78.240,00 €",,"O valor inicial do Contrato teve por base as necessidades estimadas para o período de 1 Janeiro de 2016 a 31 Dezembro de 2016, o valor final reflecte as necessidades efectivas.",,Não aplicável.,Não aplicável.,FALSE
" Serviços Médicos de Urgência Geral e Básica, Cuidados Inter, Sala Rean, Dec Clinica, Deuci",Ajuste Direto Regime Geral,Aquisição de serviços,"85121100-4, Serviços de médicos de clínica geral","Centro Hospitalar do Algarve, E. P. E. (510745997)","J. C. Fernandes - Cirurgia Maxilo-Facial, Lda (505515172)","23.400,00 €",18-02-2016,04-02-2016,91 dias,"Portugal, Faro, Loulé<BR/>Portugal, Faro, Lagos<BR/>Portugal, Faro, Faro<BR/>Portugal, Faro, Albufeira<BR/>Portugal, Faro, Portimão","Artigo 24.º, n.º 1, alínea c) do Código dos Contratos Públicos",30-06-2016,"27.360,00 €",,"O valor inicial do Contrato teve por base as necessidades estimadas para o período de 1 Janeiro de 2016 a 30 Junho de 2016, o valor final reflecte as necessidades efectivas.",,Não aplicável.,Não aplicável.,FALSE
Serviços médicos de Oftalmologia,Ajuste Direto Regime Geral,Aquisição de serviços,"85121280-9, Serviços de oftalmologia, dermatologia ou ortopedia","Centro Hospitalar do Algarve, E. P. E. (510745997)","Clínica Oftalmológica Dr. Aníbal Rodrigues, Lda    (500848050)","46.800,00 €",18-02-2016,04-02-2016,365 dias,"Portugal, Faro, Portimão<BR/>Portugal, Faro, Faro","Artigo 24.º, n.º 1, alínea c) do Código dos Contratos Públicos",31-12-2016,"36.900,00 €",,"O valor inicial do Contrato teve por base as necessidades estimadas para o período de 1 Janeiro de 2016 a 31 Dezembro de 2016, o valor final reflecte as necessidades efectivas.",,Não aplicável.,Não aplicável.,FALSE
Serviços Médicos de Anestesiologia,Ajuste Direto Regime Geral,Aquisição de serviços,"85121200-5, Serviços de medicina especializada","Centro Hospitalar do Algarve, E. P. E. (510745997)","Hidalgo & Palhares - Serviços de Saúde, Lda (513574077)","49.920,00 €",18-02-2016,10-02-2016,365 dias,"Portugal, Faro, Portimão<BR/>Portugal, Faro, Faro","Artigo 24.º, n.º 1, alínea c) do Código dos Contratos Públicos",31-12-2016,"71.920,00 €",,"O valor inicial do Contrato teve por base as necessidades estimadas para o período de 1 Janeiro de 2016 a 31 Dezembro de 2016, o valor final reflecte as necessidades efectivas.",,Não aplicável.,Não aplicável.,FALSE
	 SONDA ASPIRAÇÃO ADULTO CIRCUITO FECHADO,Ajuste Direto Regime Geral,Aquisição de bens móveis,"33140000-3, Material médico de consumo","Centro Hospitalar do Algarve, E. P. E. (510745997)","COVIDIEN PORTUGAL - PRODUTOS  DE SAUDE, UNIPESSOAL, LDA. (503413410)","180,00 €",18-02-2016,15-02-2016,30 dias,"Portugal, Faro, Lagos<BR/>Portugal, Faro, Faro<BR/>Portugal, Faro, Portimão","Artigo 20.º, n.º 1, alínea a) do Código dos Contratos Públicos","","",,"",,Não aplicável.,Não aplicável.,FALSE
VÁLVULA C.P.A.P. C/TUBO AR O2 E TUBO P/MANOMETRO,Ajuste Direto Regime Geral,Aquisição de bens móveis,"33140000-3, Material médico de consumo","Centro Hospitalar do Algarve, E. P. E. (510745997)","VYGON (PORTUGAL),LDA. (503232785)","226,50 €",18-02-2016,15-02-2016,30 dias,"Portugal, Faro, Portimão<BR/>Portugal, Faro, Lagos<BR/>Portugal, Faro, Faro","Artigo 20.º, n.º 1, alínea a) do Código dos Contratos Públicos","","",,"",,Não aplicável.,Não aplicável.,FALSE
AQUISIÇÃO DE MATERIAL DE OSTEOSINTESE,Ajuste Direto Regime Geral,Aquisição de bens móveis,"33140000-3, Material médico de consumo","Centro Hospitalar do Algarve, E. P. E. (510745997)",JOHNSON & JOHNSON PROD.PROF. (500153370),"142.135,00 €",17-02-2016,12-02-2016,323 dias,"Portugal, Faro, Portimão<BR/>Portugal, Faro, Faro<BR/>Portugal, Faro, Lagos","Artigo 20.º, n.º 1, alínea a) do Código dos Contratos Públicos","","",,"",,Não aplicável.,Não aplicável.,FALSE
72/1247/16 - Aquisição de Material de Oftalmologia,Ajuste Direto Regime Geral,Aquisição de bens móveis,"33140000-3, Material médico de consumo","Centro Hospitalar do Algarve, E. P. E. (510745997)",JOSE COTTA-EQUIP.MED.SERVICOS (500155739),"528,60 €",17-02-2016,12-02-2016,322 dias,"Portugal, Faro, Faro<BR/>Portugal, Faro, Portimão<BR/>Portugal, Faro, Lagos","Artigo 20.º, n.º 1, alínea a) do Código dos Contratos Públicos","","",,"",,Não aplicável.,Não aplicável.,FALSE
72/1247/16 - Aquisição de Material de Oftalmologia,Ajuste Direto Regime Geral,Aquisição de bens móveis,"33140000-3, Material médico de consumo","Centro Hospitalar do Algarve, E. P. E. (510745997)","EXCELENTETITULO, UNIPESSOAL, LDA (510255086)","872,00 €",17-02-2016,12-02-2016,322 dias,"Portugal, Faro, Lagos<BR/>Portugal, Faro, Portimão<BR/>Portugal, Faro, Faro","Artigo 20.º, n.º 1, alínea a) do Código dos Contratos Públicos","","",,"",,Não aplicável.,Não aplicável.,FALSE
72/1247/16 - Aquisição de Material de Oftalmologia,Ajuste Direto Regime Geral,Aquisição de bens móveis,"33140000-3, Material médico de consumo","Centro Hospitalar do Algarve, E. P. E. (510745997)",Bausch & Lomb (980218764),"1.429,60 €",17-02-2016,12-02-2016,322 dias,"Portugal, Faro, Lagos<BR/>Portugal, Faro, Portimão<BR/>Portugal, Faro, Faro","Artigo 20.º, n.º 1, alínea a) do Código dos Contratos Públicos","","",,"",,Não aplicável.,Não aplicável.,FALSE
72/1247/16 - Aquisição de Material de Oftalmologia,Ajuste Direto Regime Geral,Aquisição de bens móveis,"33140000-3, Material médico de consumo","Centro Hospitalar do Algarve, E. P. E. (510745997)",ALCON PORTUGAL (501251685),"510,00 €",17-02-2016,12-02-2016,322 dias,"Portugal, Faro, Portimão<BR/>Portugal, Faro, Lagos<BR/>Portugal, Faro, Faro","Artigo 20.º, n.º 1, alínea a) do Código dos Contratos Públicos","","",,"",,Não aplicável.,Não aplicável.,FALSE
72/1247/16 - Aquisição de Material de Oftalmologia,Ajuste Direto Regime Geral,Aquisição de bens móveis,"33140000-3, Material médico de consumo","Centro Hospitalar do Algarve, E. P. E. (510745997)",ABBOTT MEDICAL OPTICS SPAIN SL SUCURSAL EM PORTUGAL  (980262364),"9.440,00 €",17-02-2016,12-02-2016,322 dias,"Portugal, Faro, Lagos<BR/>Portugal, Faro, Faro<BR/>Portugal, Faro, Portimão","Artigo 20.º, n.º 1, alínea a) do Código dos Contratos Públicos","","",,"",,Não aplicável.,Não aplicável.,FALSE
assinatura Base Dados ( 68/0571/16),Ajuste Direto Regime Geral,Aquisição de serviços,"72320000-4, Serviços relacionados com bases de dados","Centro Hospitalar do Algarve, E. P. E. (510745997)",UpTo Date Inc  (043310941),"22.836,26 €",16-02-2016,01-12-2015,365 dias,"Portugal, Faro, Faro<BR/>Portugal, Faro, Portimão","Artigo 24.º, n.º 1, alínea e) do Código dos Contratos Públicos",19-10-2016,"26.768,46 €",,diferenças cambio,,Não aplicável.,Não aplicável.,FALSE
Assinatura Base Dados ( 68/2355/15),Ajuste Direto Regime Geral,Aquisição de serviços,"72320000-4, Serviços relacionados com bases de dados","Centro Hospitalar do Algarve, E. P. E. (510745997)",Up To Date Inc (043310941),"10.298,71 €",16-02-2016,23-06-2015,180 dias,"Portugal, Faro, Portimão<BR/>Portugal, Faro, Faro","Artigo 24.º, n.º 1, alínea e) do Código dos Contratos Públicos",31-12-2015,"10.298,71 €",,"",,Não aplicável.,Não aplicável.,FALSE
Realização de Análises Clínicas no INSA durante o ano de 2016,Ajuste Direto Regime Geral,Aquisição de serviços,"85100000-0, Serviços de saúde","Centro Hospitalar do Algarve, E. P. E. (510745997)",Instituto Nacional de Saúde Dr. Ricardo Jorge - INSA (501427511),"195.598,82 €",16-02-2016,15-02-2016,321 dias,"Portugal, Faro, Faro","Artigo 24.º, n.º 1, alínea e) do Código dos Contratos Públicos","","",,"",,Não aplicável.,Não aplicável.,FALSE
Proc.67/1174/2016-Extintores de Pó Quimico,Ajuste Direto Regime Geral,Aquisição de bens móveis,"35111300-8, Extintores","Centro Hospitalar do Algarve, E. P. E. (510745997)",Interfire (509033237),"163,50 €",15-02-2016,02-02-2016,30 dias,"Portugal, Faro, Portimão","Artigo 24.º, n.º 1, alínea e) do Código dos Contratos Públicos",31-03-2016,"163,50 €",,"",,Não aplicável.,Não aplicável.,FALSE
Proc.77/1132/2016- Manutenção Instalações e Equipamentos-Cozinhas e Cafetarias-CHA,Ajuste Direto Regime Geral,Aquisição de serviços,"50882000-1, Serviços de reparação e manutenção de equipamento para restauração","Centro Hospitalar do Algarve, E. P. E. (510745997)",Serviço Utilização Comum dos Hospitais (500900469),"14.185,83 €",15-02-2016,02-02-2016,365 dias,"Portugal, Faro, Lagos<BR/>Portugal, Faro, Faro<BR/>Portugal, Faro, Portimão","Artigo 20.º, n.º 1, alínea a) do Código dos Contratos Públicos",21-03-2016,"14.185,83 €",,"",,Não aplicável.,Não aplicável.,FALSE
Proc. 68/1105/2016- Serviço de Portagens-Fevereiro/2016,Ajuste Direto Regime Geral,Aquisição de serviços,"98390000-3, Outros serviços","Centro Hospitalar do Algarve, E. P. E. (510745997)",Petrogal (500697370),"3.332,00 €",15-02-2016,29-01-2016,29 dias,"Portugal, Faro, Faro","Artigo 24.º, n.º 1, alínea c) do Código dos Contratos Públicos",29-02-2016,"3.065,05 €",,Valor efectivo superior ao valor inicialmente estimado.,,Não aplicável.,Não aplicável.,FALSE
72/1221/2016 - Aquisição de Sensor BIS XP,Ajuste Direto Regime Geral,Aquisição de bens móveis,"33140000-3, Material médico de consumo","Centro Hospitalar do Algarve, E. P. E. (510745997)","COVIDIEN PORTUGAL - PRODUTOS  DE SAUDE, UNIPESSOAL, LDA. (503413410)","7.117,50 €",15-02-2016,02-02-2016,332 dias,"Portugal, Faro, Faro<BR/>Portugal, Faro, Portimão<BR/>Portugal, Faro, Lagos","Artigo 20.º, n.º 1, alínea a) do Código dos Contratos Públicos","","",,"",,Não aplicável.,Não aplicável.,FALSE
Proc. 67/3848/2015- Reparação de Equipamentos Medicos-Junho a Dezembro/2015,Ajuste Direto Regime Geral,Aquisição de serviços,"50421000-2, Serviços de reparação e manutenção de equipamento médico","Centro Hospitalar do Algarve, E. P. E. (510745997)",Serviço Utilização Comum dos Hospitais (500900469),"43.206,07 €",15-02-2016,31-12-2015,214 dias,"Portugal, Faro, Faro<BR/>Portugal, Faro, Portimão","Artigo 24.º, n.º 1, alínea e) do Código dos Contratos Públicos","","",,"",,Não aplicável.,Não aplicável.,FALSE
Proc.68/0635/2016- Fornecimento de Gás Natural-Janeiro 2016,Ajuste Direto Regime Geral,Aquisição de serviços,"65210000-8, Distribuição de gás","Centro Hospitalar do Algarve, E. P. E. (510745997)","EDP Comercial,SA (503504564)","93.973,56 €",12-02-2016,08-01-2016,31 dias,"Portugal, Faro, Portimão<BR/>Portugal, Faro, Faro","Artigo 24.º, n.º 1, alínea c) do Código dos Contratos Públicos",31-01-2016,"104.654,22 €",,Valor efectivo superior ao valor inicialmente estimado.,,Não aplicável.,Não aplicável.,FALSE
Proc.68/0870/2016-Serviços de Manutenção-Dezembro/2014,Ajuste Direto Regime Geral,Aquisição de serviços,"50400000-9, Serviços de reparação e manutenção de equipamento médico e de precisão","Centro Hospitalar do Algarve, E. P. E. (510745997)","Acciona Facility Services,SA (503431397)","3.868,12 €",12-02-2016,13-01-2016,31 dias,"Portugal, Faro, Faro<BR/>Portugal, Faro, Portimão","Artigo 24.º, n.º 1, alínea e) do Código dos Contratos Públicos",08-02-2016,"3.868,12 €",,"",,Não aplicável.,Não aplicável.,FALSE
Proc.680569/2016- Avenças de Estacionamento-2016,Ajuste Direto Regime Geral,Aquisição de serviços,"98300000-6, Serviços diversos","Centro Hospitalar do Algarve, E. P. E. (510745997)","Lagos em Forma,SA (507725077)","804,88 €",12-02-2016,06-01-2016,366 dias,"Portugal, Faro, Lagos","Artigo 24.º, n.º 1, alínea e) do Código dos Contratos Públicos",31-12-2016,"804,88 €",,"",,Não aplicável.,Não aplicável.,FALSE
72/0690/16 - Aquisição de Material de Consumo Clínico,Ajuste Direto Regime Geral,Aquisição de bens móveis,"33140000-3, Material médico de consumo","Centro Hospitalar do Algarve, E. P. E. (510745997)",CATETER-PROD.MEDICOS HOSP.LDA. (502914319),"2.256,00 €",12-02-2016,27-01-2016,338 dias,"Portugal, Faro, Faro<BR/>Portugal, Faro, Portimão<BR/>Portugal, Faro, Lagos","Artigo 20.º, n.º 1, alínea a) do Código dos Contratos Públicos","","",,"",,Não aplicável.,Não aplicável.,FALSE
72/0690/16 - Aquisição de Material de Consumo Clínico,Ajuste Direto Regime Geral,Aquisição de bens móveis,"33140000-3, Material médico de consumo","Centro Hospitalar do Algarve, E. P. E. (510745997)","TEPREL-EQUIPAMENTOS MEDICOS, LDA. (502262184)","286,00 €",12-02-2016,27-01-2016,338 dias,"Portugal, Faro, Lagos<BR/>Portugal, Faro, Faro<BR/>Portugal, Faro, Portimão","Artigo 20.º, n.º 1, alínea a) do Código dos Contratos Públicos","","",,"",,Não aplicável.,Não aplicável.,FALSE
Serviços Manutenção Tac ( 68/0584/16),Ajuste Direto Regime Geral,Aquisição de serviços,"50421200-4, Serviços de reparação e manutenção de equipamentos de raios X","Centro Hospitalar do Algarve, E. P. E. (510745997)",Siemens Healthcare Diagnostics Lda  (507925173),"67.999,92 €",12-02-2016,22-01-2016,365 dias,"Portugal, Faro, Portimão<BR/>Portugal, Faro, Faro","Artigo 24.º, n.º 1, alínea e) do Código dos Contratos Públicos",30-12-2016,"67.999,92 €",,"",,Não aplicável.,Não aplicável.,FALSE
Manutenção Ressonância ( 68/0585/16),Ajuste Direto Regime Geral,Aquisição de serviços,"50421200-4, Serviços de reparação e manutenção de equipamentos de raios X","Centro Hospitalar do Algarve, E. P. E. (510745997)",Siemens Healthcare Diagnostics Lda  (507925173),"130.000,00 €",12-02-2016,22-01-2016,365 dias,"Portugal, Faro, Portimão<BR/>Portugal, Faro, Faro","Artigo 24.º, n.º 1, alínea e) do Código dos Contratos Públicos",30-12-2016,"130.000,00 €",,"",,Não aplicável.,Não aplicável.,FALSE
CASSETES PARA BIÓPSIA AMARELA,Ajuste Direto Regime Geral,Aquisição de bens móveis,"33140000-3, Material médico de consumo","Centro Hospitalar do Algarve, E. P. E. (510745997)","NORMAX,LDA. (500203130)","127,50 €",12-02-2016,04-02-2016,331 dias,"Portugal, Faro, Portimão<BR/>Portugal, Faro, Lagos<BR/>Portugal, Faro, Faro","Artigo 20.º, n.º 1, alínea a) do Código dos Contratos Públicos","","",,"",,Não aplicável.,Não aplicável.,FALSE
CASSETE DE BIOPSIA COR AMARELA COM TAMPA Tipo Micromesh,Ajuste Direto Regime Geral,Aquisição de bens móveis,"33140000-3, Material médico de consumo","Centro Hospitalar do Algarve, E. P. E. (510745997)",GARAL GABINETE TECNICO COM. LD (500777314),"750,00 €",12-02-2016,04-02-2016,331 dias,"Portugal, Faro, Faro<BR/>Portugal, Faro, Portimão<BR/>Portugal, Faro, Lagos","Artigo 20.º, n.º 1, alínea a) do Código dos Contratos Públicos","","",,"",,Não aplicável.,Não aplicável.,FALSE
CASSETE BRANCA PARA PEÇAS,Ajuste Direto Regime Geral,Aquisição de bens móveis,"33140000-3, Material médico de consumo","Centro Hospitalar do Algarve, E. P. E. (510745997)","ZMWay,LDA. (508085349)","219,20 €",12-02-2016,04-02-2016,331 dias,"Portugal, Faro, Lagos<BR/>Portugal, Faro, Faro<BR/>Portugal, Faro, Portimão","Artigo 20.º, n.º 1, alínea a) do Código dos Contratos Públicos","","",,"",,Não aplicável.,Não aplicável.,FALSE
manutenção equipamento médico ( 68/583/16),Ajuste Direto Regime Geral,Aquisição de serviços,"50421000-2, Serviços de reparação e manutenção de equipamento médico","Centro Hospitalar do Algarve, E. P. E. (510745997)",Siemens Healthcare Diagnostics Lda  (507925173),"58.408,76 €",12-02-2016,14-01-2016,365 dias,"Portugal, Faro, Faro","Artigo 24.º, n.º 1, alínea e) do Código dos Contratos Públicos",30-12-2016,"58.408,76 €",,"",,Não aplicável.,Não aplicável.,FALSE
Manutenção Equip Informatico ( 68/542/16),Ajuste Direto Regime Geral,Aquisição de serviços,"72590000-7, Serviços de informática prestados por profissionais","Centro Hospitalar do Algarve, E. P. E. (510745997)",Decunify (504889893),"22.500,00 €",12-02-2016,12-01-2016,365 dias,"Portugal, Faro, Faro<BR/>Portugal, Faro, Portimão","Artigo 24.º, n.º 1, alínea e) do Código dos Contratos Públicos",25-11-2016,"22.500,00 €",,"",,Não aplicável.,Não aplicável.,FALSE
controlo qualidade ( 78/580/16),Ajuste Direto Regime Geral,Aquisição de serviços,"71600000-4, Serviços técnicos de ensaio, análise e consultoria","Centro Hospitalar do Algarve, E. P. E. (510745997)",Medical Consult (504092138),"10.858,50 €",11-02-2016,22-01-2016,365 dias,"Portugal, Faro, Portimão<BR/>Portugal, Faro, Faro","Artigo 20.º, n.º 1, alínea a) do Código dos Contratos Públicos",25-11-2016,"10.858,50 €",,"",,Não aplicável.,Não aplicável.,FALSE
Prestação de Serviços de Teleradiologia de 01/02/2016 a 29/02/2016,Ajuste Direto Regime Geral,Aquisição de serviços,"85100000-0, Serviços de saúde","Centro Hospitalar do Algarve, E. P. E. (510745997)",IMI - Imagens Médicas Integradas (501721037),"14.907,50 €",11-02-2016,01-02-2016,29 dias,"Portugal, Faro, Portimão<BR/>Portugal, Faro, Faro","Artigo 24.º, n.º 1, alínea c) do Código dos Contratos Públicos","","",,"",,Não aplicável.,Não aplicável.,FALSE
manutenção elevadores ( 68/0591/16),Ajuste Direto Regime Geral,Aquisição de serviços,"50750000-7, Serviços de manutenção de elevadores","Centro Hospitalar do Algarve, E. P. E. (510745997)",Thyssenkrupp Elevadores (501445226),"16.013,64 €",11-02-2016,26-01-2016,365 dias,"Portugal, Faro, Faro","Artigo 24.º, n.º 1, alínea e) do Código dos Contratos Públicos",17-01-2017,"16.013,64 €",,"",,Não aplicável.,Não aplicável.,FALSE
Cat Suporte Radio MCDT 24x7,Ajuste Direto Regime Geral,Aquisição de serviços,"72500000-0, Serviços relacionados com a informática","Centro Hospitalar do Algarve, E. P. E. (510745997)",Glintt  (502479418),"9.214,33 €",11-02-2016,03-02-2016,365 dias,"Portugal, Faro, Lagos<BR/>Portugal, Faro, Faro<BR/>Portugal, Faro, Portimão","Artigo 24.º, n.º 1, alínea e) do Código dos Contratos Públicos",24-08-2016,"9.214,33 €",,"",,Não aplicável.,Não aplicável.,FALSE
Cat Aplicação Omega(2º semestre 2015),Ajuste Direto Regime Geral,Aquisição de serviços,"72590000-7, Serviços de informática prestados por profissionais","Centro Hospitalar do Algarve, E. P. E. (510745997)",Roche Diagnosticos Lda  (504282921),"6.480,43 €",11-02-2016,21-01-2016,0 dias,"Portugal, Faro, Lagos<BR/>Portugal, Faro, Portimão<BR/>Portugal, Faro, Faro","Artigo 24.º, n.º 1, alínea e) do Código dos Contratos Públicos","","",,"",,Não aplicável.,Não aplicável.,FALSE
Computadores de secretária - 47/0748/2016,Ajuste Direto Regime Geral,Aquisição de bens móveis,"30213300-8, Computadores de secretária (desktop computers)","Centro Hospitalar do Algarve, E. P. E. (510745997)",Informática El Corte Inglês (980079659),"61.520,00 €",11-02-2016,18-01-2016,30 dias,"Portugal, Faro, Faro<BR/>Portugal, Faro, Lagos<BR/>Portugal, Faro, Portimão",Artigo 258.º do Código dos Contratos Públicos,24-08-2016,"61.520,00 €",,"",,Não aplicável.,Não aplicável.,FALSE
Adaptador Sistema de Vácuo,Ajuste Direto Regime Geral,Aquisição de bens móveis,"33000000-0, Equipamento médico, medicamentos e produtos para cuidados pessoais","Centro Hospitalar do Algarve, E. P. E. (510745997)","VACUETTE PORTUGAL, S.A. (505348470)","8.739,50 €",11-02-2016,11-02-2016,324 dias,"Portugal, Faro, Faro<BR/>Portugal, Faro, Lagos<BR/>Portugal, Faro, Portimão","Artigo 20.º, n.º 1, alínea a) do Código dos Contratos Públicos","","",,"",,Não aplicável.,Não aplicável.,FALSE
fornecimento de energia eléctrica no ano de 2016,Ao abrigo de acordo-quadro (art.º 259.º),Aquisição de bens móveis,"09310000-5, Electricidade","Centro Hospitalar do Algarve, E. P. E. (510745997)","EDP COMERCIAL, SA (503504564)","860.404,02 €",11-02-2016,01-01-2016,366 dias,"Portugal, Faro, Lagos<BR/>Portugal, Faro, Faro<BR/>Portugal, Faro, Portimão",Artigo 259.º do Código dos Contratos Públicos,"","",,"",,314294,Acordo quadro para o fornecimento de electricidade em regime de mercado livre para Portugal Continental,TRUE
CATETER PUNÇÃO VENOSA 24G PERIFERICA SEGURANÇA C/ ADAPTADOR Y 0.7X19MM,Ajuste Direto Regime Geral,Aquisição de bens móveis,"33140000-3, Material médico de consumo","Centro Hospitalar do Algarve, E. P. E. (510745997)","PLASTIMEDE,LDA. (501899820)","700,00 €",11-02-2016,05-02-2016,330 dias,"Portugal, Faro, Faro<BR/>Portugal, Faro, Lagos<BR/>Portugal, Faro, Portimão","Artigo 20.º, n.º 1, alínea a) do Código dos Contratos Públicos","","",,"",,Não aplicável.,Não aplicável.,FALSE
CATETER DE DRENAGEM ((DRENAGEM PERCUTANEA),Ajuste Direto Regime Geral,Aquisição de bens móveis,"33140000-3, Material médico de consumo","Centro Hospitalar do Algarve, E. P. E. (510745997)","BIOSONDA,LDA. (501463313)","360,00 €",11-02-2016,05-02-2016,330 dias,"Portugal, Faro, Lagos<BR/>Portugal, Faro, Portimão<BR/>Portugal, Faro, Faro","Artigo 20.º, n.º 1, alínea a) do Código dos Contratos Públicos","","",,"",,Não aplicável.,Não aplicável.,FALSE
SACO SIMPLES SEM LEUCOFILTRO INCORPORADO,Ajuste Direto Regime Geral,Aquisição de bens móveis,"33140000-3, Material médico de consumo","Centro Hospitalar do Algarve, E. P. E. (510745997)","GRIFOLS PORTUGAL, LDA. (502041285)","280,00 €",11-02-2016,05-02-2016,330 dias,"Portugal, Faro, Portimão<BR/>Portugal, Faro, Lagos<BR/>Portugal, Faro, Faro","Artigo 20.º, n.º 1, alínea a) do Código dos Contratos Públicos","","",,"",,Não aplicável.,Não aplicável.,FALSE
CATETER PEDIATRICO DUPLO LUMEN 4FRX30CM,Ajuste Direto Regime Geral,Aquisição de bens móveis,"33140000-3, Material médico de consumo","Centro Hospitalar do Algarve, E. P. E. (510745997)","Teleflex Medical, S.A. (980249783)","164,00 €",11-02-2016,05-02-2016,330 dias,"Portugal, Faro, Portimão<BR/>Portugal, Faro, Lagos<BR/>Portugal, Faro, Faro","Artigo 20.º, n.º 1, alínea a) do Código dos Contratos Públicos","","",,"",,Não aplicável.,Não aplicável.,FALSE
material de Gastro,Concurso público,Aquisição de bens móveis,"33140000-3, Material médico de consumo","Centro Hospitalar do Algarve, E. P. E. (510745997)","OLYMPUS PORTUGAL,S.A. (503581429), ENDOTÉCNICA - Soluções Hospitalares  (503818348), ALVES & CA(IRMAOS),LDA. (500310068), Fresenius Kabi Pharma Portugal, Lda. (504293753), AVIQUIMICA IMPORT E MANUFATURA (500039720), BIOSONDA,LDA. (501463313), HR  HOSPITALAR,Unipessoal, LDA (501895558), BOSTON SCIENTIFIC PORTUGAL-DISPOSITIVOS MÉDICOS, LDA. (504988964), Teleflex Medical, S.A. (980249783)","146.951,60 €",11-02-2016,11-02-2016,324 dias,"Portugal, Faro, Faro<BR/>Portugal, Faro, Portimão<BR/>Portugal, Faro, Lagos","Artigo 20.º, n.º 1, alínea b) do Código dos Contratos Públicos","","",,"",,Não aplicável.,Não aplicável.,FALSE
