Objeto do Contrato,Tipo de Procedimento,Tipo(s) de Contrato,CPVs,Entidade(s) Adjudicante(s),Entidade(s) Adjudicatária(s),Preço Contratual,Data de Publicação,Data de Celebração do Contrato,Prazo de Execução,Local de Execução,Fundamentação,Data de Fecho do Contrato,Preço Total Efetivo,Causas das Alterações ao Prazo,Causas das Alterações ao Preço,Estado,N.º registo do Acordo Quadro,Descrição do Acordo Quadro,Procedimento Centralizado
"Aquisição Centralizada de papel ao abrigo do acordo quadro """"papel, economato e consumíveis de impressão"""" celebrado pela ESPAP e conduzido pela SGMS",Ao abrigo de acordo-quadro (art.º 259.º),Aquisição de bens móveis,"30197643-5, Papel para fotocópia","SPMS - Serviços Partilhados do Ministério da Saúde, E. P. E. (509540716)",OHMTécnica - Representações de Marcas Lda (504059521),"3.817,80 €",20-05-2016,08-04-2016,227 dias,"Portugal, Lisboa, Lisboa",Artigo 259.º do Código dos Contratos Públicos,"","",,,,1351201,Acordo quadro de fornecimento de papel e economato,TRUE
Aquisição de Licenciamento de software e serviços conexos - lote 7,Ao abrigo de acordo-quadro (art.º 259.º),Aquisição de serviços,"72810000-1, Serviços de auditoria informática","SPMS - Serviços Partilhados do Ministério da Saúde, E. P. E. (509540716)","Timestamp - Sistemas de Informação, S. A. (506360237)","111.689,00 €",19-05-2016,29-04-2016,365 dias,Portugal,Artigo 259.º do Código dos Contratos Públicos,"","",,,,610968,Acordo quadro de licenciamento de software e serviços conexos,FALSE
Aquisição de serviços de manutenção corretiva e evolutiva do Registo Nacional de Utentes (RNU),Ao abrigo de acordo-quadro (art.º 259.º),Aquisição de serviços,"72500000-0, Serviços relacionados com a informática","SPMS - Serviços Partilhados do Ministério da Saúde, E. P. E. (509540716)","Altranportugal, S. A. (504272179)","53.349,12 €",18-05-2016,19-04-2016,365 dias,Portugal,Artigo 259.º do Código dos Contratos Públicos,"","",,,,425776,CONCURSO PÚBLICO n.º 20120117 -,FALSE
Aquisição de serviços de apoio aos processos da PDS,Ao abrigo de acordo-quadro (art.º 259.º),Aquisição de serviços,"72500000-0, Serviços relacionados com a informática","SPMS - Serviços Partilhados do Ministério da Saúde, E. P. E. (509540716)","Altranportugal, S. A. (504272179)","6.433,20 €",18-05-2016,02-05-2016,60 dias,Portugal,Artigo 259.º do Código dos Contratos Públicos,10-07-2016,"6.433,20 €",,,,425776,CONCURSO PÚBLICO n.º 20120117 -,FALSE
Aquisição de software de gestão documental,Ajuste Direto Regime Geral,Aquisição de bens móveis,"48311000-1, Pacote de software para gestão de documentos","SPMS - Serviços Partilhados do Ministério da Saúde, E. P. E. (509540716)","Infototal - Consultadoria Informática, Lda (506036391)","8.787,00 €",17-05-2016,26-04-2016,365 dias,Portugal,"Artigo 20.º, n.º 1, alínea a) do Código dos Contratos Públicos",10-06-2017,"8.787,00 €",,,,Não aplicável.,Não aplicável.,FALSE
Aquisição de serviços de data quality para o Registo Nacional de Utente (RNU),Ajuste Direto Regime Geral,Aquisição de serviços,"72500000-0, Serviços relacionados com a informática","SPMS - Serviços Partilhados do Ministério da Saúde, E. P. E. (509540716)","Optimizer, Serviços e Consultoria Informática, Lda. (504775936)","73.800,00 €",17-05-2016,17-12-2015,365 dias,Portugal,"Artigo 20.º, n.º 1, alínea a) do Código dos Contratos Públicos","","",,,,Não aplicável.,Não aplicável.,FALSE
Aquisição de PDA's para a ARS Centro,Ajuste Direto Regime Geral,Aquisição de bens móveis,"30236000-2, Equipamento informático diverso","SPMS- Serviços Partilhados do M. da Saúde, E.P.E. (509540716)","BURÓTICA – Sociedade de Estudos e Equipamentos Automáticos de Escritório, SA  (501178503)","5.293,00 €",13-05-2016,18-12-2015,60 dias,Portugal,"Artigo 20.º, n.º 1, alínea a) do Código dos Contratos Públicos",24-12-2015,"5.293,00 €",,,,Não aplicável.,Não aplicável.,FALSE
Aquisição de serviços de suporte e manutenção corretiva do SINUS/MARTA,Ao abrigo de acordo-quadro (art.º 259.º),Aquisição de serviços,"72500000-0, Serviços relacionados com a informática","SPMS - Serviços Partilhados do Ministério da Saúde, E. P. E. (509540716)","Olisipo - Formação e Consultoria em Tecnologias de Informação, S. A. (503169714)","107.078,40 €",12-05-2016,18-04-2016,621 dias,Portugal,Artigo 259.º do Código dos Contratos Públicos,"","",,,,425776,CONCURSO PÚBLICO n.º 20120117 -,FALSE
Aquisição de San Switch para a infraestrutura de dispobibilização de ambientes no Datacenter - Porto,Ajuste Direto Regime Geral,Aquisição de bens móveis,"30230000-0, Equipamento informático","SPMS- Serviços Partilhados do M. da Saúde, E.P.E. (509540716)","Informatem - Inform. E Manutenção, Lda (503670693)","21.987,00 €",11-05-2016,19-04-2016,30 dias,Portugal,"Artigo 20.º, n.º 1, alínea a) do Código dos Contratos Públicos","","",,,,Não aplicável.,Não aplicável.,FALSE
Aquisição de serviços de avaliação de beneficios da plataforma de dados,Ajuste Direto Regime Geral,Aquisição de serviços,"79311410-4, Avaliação do impacto económico","SPMS- Serviços Partilhados do M. da Saúde, E.P.E. (509540716)","Winning - Management Consulting, Lda (510098711)","40.000,00 €",11-05-2016,19-04-2016,90 dias,Portugal,"Artigo 20.º, n.º 1, alínea a) do Código dos Contratos Públicos","","",,,,Não aplicável.,Não aplicável.,FALSE
