Objeto do Contrato,Tipo de Procedimento,Tipo(s) de Contrato,CPVs,Entidade(s) Adjudicante(s),Entidade(s) Adjudicatária(s),Preço Contratual,Data de Publicação,Data de Celebração do Contrato,Prazo de Execução,Local de Execução,Fundamentação,Data de Fecho do Contrato,Preço Total Efetivo,Causas das Alterações ao Prazo,Causas das Alterações ao Preço,Estado,N.º registo do Acordo Quadro,Descrição do Acordo Quadro,Procedimento Centralizado
Renovação do contrato de prestação de serviços de manutenção e assistência técnica ao sistema de ar condicionado existente no edifício da DGS para 2014,Ajuste Direto Regime Geral,Aquisição de serviços,"50000000-5, Serviços de reparação e manutenção",Direcção-Geral da Saúde (600037100),"Luxarclima - Instalações Elétricas Ar Condicionado, Ldª (506339416)","9.399,84 €",19-11-2014,22-05-2014,365 dias,"Portugal, Lisboa, Lisboa","Artigo 20.º, n.º 1, alínea a) do Código dos Contratos Públicos",31-12-2014,"9.399,84 €",,,,Não aplicável.,Não aplicável.,FALSE
Aquisição de serviços para criação de uma campanha sobre Prevenção da exposição ao fumo ambiental do tabaco,Ajuste Direto Regime Geral,Aquisição de serviços,"79341400-0, Serviços de campanhas publicitárias",Direcção-Geral da Saúde (DGS) (600037100),"CorpCom - Comunicação Corporativa, Ldª (507941969)","73.982,00 €",14-11-2014,08-10-2014,270 dias,"Portugal, Lisboa, Lisboa","Artigo 20.º, n.º 1, alínea a) do Código dos Contratos Públicos",01-06-2015,"73.982,00 €",,,,Não aplicável.,Não aplicável.,FALSE
