Objeto do Contrato,Tipo de Procedimento,Tipo(s) de Contrato,CPVs,Entidade(s) Adjudicante(s),Entidade(s) Adjudicatária(s),Preço Contratual,Data de Publicação,Data de Celebração do Contrato,Prazo de Execução,Local de Execução,Fundamentação,Data de Fecho do Contrato,Preço Total Efetivo,Causas das Alterações ao Prazo,Causas das Alterações ao Preço,Estado,N.º registo do Acordo Quadro,Descrição do Acordo Quadro,Procedimento Centralizado
Prestação de serviços de TDT de Radiologia,Ajuste Direto Regime Geral,Aquisição de serviços,"85100000-0, Serviços de saúde","Hospital do Espírito Santo de Évora, E. P. E. (508085888)",Daniel Francisco Rainho Maneiras (229029086),"6.822,40 €",28-12-2018,06-09-2018,160 dias,"Portugal, Évora, Évora","Artigo 20.º, n.º 1, alínea d) do Código dos Contratos Públicos",,,,,,Não aplicável.,Não aplicável.,FALSE
Aquisição de medicamentos diversos,Ao abrigo de acordo-quadro (art.º 259.º),Aquisição de bens móveis,"33690000-3, Medicamentos vários","Hospital do Espírito Santo de Évora, E. P. E. (508085888)","LABESFAL  (501169580), GILEAD SCIENCES, LDA. (503604704)","46.195,76 €",27-12-2018,12-12-2018,365 dias,"Portugal, Évora, Évora",Artigo 259.º do Código dos Contratos Públicos,,,,,,3701406,CP 2018/64 - Medicamentos Diversos,FALSE
