Objeto do Contrato,Tipo de Procedimento,Tipo(s) de Contrato,CPVs,Entidade(s) Adjudicante(s),Entidade(s) Adjudicatária(s),Preço Contratual,Data de Publicação,Data de Celebração do Contrato,Prazo de Execução,Local de Execução,Fundamentação,Data de Fecho do Contrato,Preço Total Efetivo,Causas das Alterações ao Prazo,Causas das Alterações ao Preço,Estado,N.º registo do Acordo Quadro,Descrição do Acordo Quadro,Procedimento Centralizado
BOMBA DE PERFUSÃO IMPLANTÁVEL - 1 UNIDADE,Ajuste Direto Regime Geral,Aquisição de bens móveis,"33000000-0, Equipamento médico, medicamentos e produtos para cuidados pessoais","Centro Hospitalar e Universitário de Coimbra, E. P. E. (510103448)","MEDTRONIC PORTUGAL, LDA (504223933)","8.500,00 €",29-01-2015,28-01-2015,30 dias,"Portugal, Coimbra, Coimbra","Artigo 24.º, n.º 1, alínea e) do Código dos Contratos Públicos","","",,,,Não aplicável.,Não aplicável.,FALSE
Componentes Internos para Implante Coclear,Ajuste Direto Regime Geral,Aquisição de bens móveis,"33000000-0, Equipamento médico, medicamentos e produtos para cuidados pessoais","Centro Hospitalar e Universitário de Coimbra, E. P. E. (510103448)","MED-EL, PORTUGAL (980362539)","298.418,00 €",29-01-2015,22-12-2014,20 dias,"Portugal, Coimbra, Coimbra","Artigo 24.º, n.º 1, alínea e) do Código dos Contratos Públicos",31-12-2014,"298.418,00 €",,,,Não aplicável.,Não aplicável.,FALSE
040217112014 - COLUNA,Ajuste Direto Regime Geral,Aquisição de bens móveis,"33000000-0, Equipamento médico, medicamentos e produtos para cuidados pessoais","Centro Hospitalar e Universitário de Coimbra, E. P. E. (510103448)",JOHNSON (500153370),"7.735,05 €",28-01-2015,02-06-2014,10 dias,"Portugal, Coimbra, Coimbra","Artigo 24.º, n.º 1, alínea e) do Código dos Contratos Públicos","","",,,,Não aplicável.,Não aplicável.,FALSE
040211262014 - PARAFUSOS,Ajuste Direto Regime Geral,Aquisição de bens móveis,"33000000-0, Equipamento médico, medicamentos e produtos para cuidados pessoais","Centro Hospitalar e Universitário de Coimbra, E. P. E. (510103448)",JOHNSON (500153370),"867,00 €",28-01-2015,26-03-2014,10 dias,"Portugal, Coimbra, Coimbra","Artigo 24.º, n.º 1, alínea e) do Código dos Contratos Públicos","","",,,,Não aplicável.,Não aplicável.,FALSE
040211062014 - OSTEOSSINTESE,Ajuste Direto Regime Geral,Aquisição de bens móveis,"33000000-0, Equipamento médico, medicamentos e produtos para cuidados pessoais","Centro Hospitalar e Universitário de Coimbra, E. P. E. (510103448)",JOHNSON (500153370),"1.892,96 €",28-01-2015,26-03-2014,5 dias,"Portugal, Coimbra, Coimbra","Artigo 24.º, n.º 1, alínea e) do Código dos Contratos Públicos","","",,,,Não aplicável.,Não aplicável.,FALSE
040211072014 - COLUNA,Ajuste Direto Regime Geral,Aquisição de bens móveis,"33000000-0, Equipamento médico, medicamentos e produtos para cuidados pessoais","Centro Hospitalar e Universitário de Coimbra, E. P. E. (510103448)",JOHNSON (500153370),"2.230,14 €",28-01-2015,26-03-2014,10 dias,"Portugal, Coimbra, Coimbra","Artigo 24.º, n.º 1, alínea e) do Código dos Contratos Públicos","","",,,,Não aplicável.,Não aplicável.,FALSE
040207312014 - coluna,Ajuste Direto Regime Geral,Aquisição de bens móveis,"33000000-0, Equipamento médico, medicamentos e produtos para cuidados pessoais","Centro Hospitalar e Universitário de Coimbra, E. P. E. (510103448)",JOHNSON (500153370),"3.804,74 €",28-01-2015,26-03-2014,10 dias,"Portugal<BR/>Portugal, Coimbra, Coimbra","Artigo 24.º, n.º 1, alínea e) do Código dos Contratos Públicos","","",,,,Não aplicável.,Não aplicável.,FALSE
040208292014 - coluna,Ajuste Direto Regime Geral,Aquisição de bens móveis,"33000000-0, Equipamento médico, medicamentos e produtos para cuidados pessoais","Centro Hospitalar e Universitário de Coimbra, E. P. E. (510103448)",johnson (500153370),"3.603,50 €",28-01-2015,26-03-2014,10 dias,"Portugal, Coimbra, Coimbra","Artigo 24.º, n.º 1, alínea e) do Código dos Contratos Públicos","","",,,,Não aplicável.,Não aplicável.,FALSE
Aquisição de diverso material informático para diversos serviços,Ajuste Direto Regime Geral,Aquisição de bens móveis,"30000000-9, Máquinas, equipamento e material de escritório e de informática, excepto mobiliário e pacotes de programas (software)","Centro Hospitalar e Universitário de Coimbra, E. P. E. (510103448)","ITEN SOLUTIONS, LDA (510728189)","3.985,11 €",28-01-2015,22-01-2015,15 dias,"Portugal, Coimbra, Coimbra","Artigo 20.º, n.º 1, alínea a) do Código dos Contratos Públicos","","",,,,Não aplicável.,Não aplicável.,FALSE
Fornecimento e colocação de varão e cortinado em sala de tratamento- Radioterapia- Piso 1 (260),Ajuste Direto Regime Geral,Aquisição de bens móveis,"39000000-2, Mobiliário (incl. de escritório), acessórios, aparelhos domésticos (excl. iluminação) e produtos de limpeza","Centro Hospitalar e Universitário de Coimbra, E. P. E. (510103448)",PROMEI CENTRO LDA (506470113),"363,15 €",28-01-2015,12-01-2015,60 dias,"Portugal, Coimbra, Coimbra","Artigo 20.º, n.º 1, alínea a) do Código dos Contratos Públicos","","",,,,Não aplicável.,Não aplicável.,FALSE
Gradeamento de protecção em muro na entrada da urgência,Ajuste Direto Regime Geral,Empreitadas de obras públicas,"45000000-7, Construção","Centro Hospitalar e Universitário de Coimbra, E. P. E. (510103448)","Afonso Marques Engenharia, Lda (507611519)","3.120,00 €",28-01-2015,27-01-2015,20 dias,"Portugal, Coimbra, Coimbra","Artigo 19.º, alínea a) do Código dos Contratos Públicos","","",,,,Não aplicável.,Não aplicável.,FALSE
KIT DE SENSOR PARA MONITORIZAÇÃO PRESSÃO INTRA-OARENQUIMATOSA - 15 UNIDADES  CATETER DISTAL - 20 UNIDADES,Ajuste Direto Regime Geral,Aquisição de bens móveis,"33000000-0, Equipamento médico, medicamentos e produtos para cuidados pessoais","Centro Hospitalar e Universitário de Coimbra, E. P. E. (510103448)","SOCIME II - PRODUTOS MEDICOS, LDA (504453939)","8.603,00 €",28-01-2015,27-01-2015,90 dias,"Portugal, Coimbra, Coimbra","Artigo 26.º, n.º 1, alínea a) do Código dos Contratos Públicos","","",,,,Não aplicável.,Não aplicável.,FALSE
"Aquisição de serviços de transporte de doentes do HP, para cataterismos no HUC, em ambulância medicalizada, janeiro",Ajuste Direto Regime Geral,Aquisição de serviços,"60130000-8, Serviços de transporte rodoviário de passageiros com finalidade específica","Centro Hospitalar e Universitário de Coimbra, E. P. E. (510103448)",ASSOC. BOMB. VOL. CONDEIXA (501120033),"720,00 €",22-01-2015,13-01-2015,31 dias,"Portugal, Coimbra, Coimbra","Artigo 20.º, n.º 1, alínea a) do Código dos Contratos Públicos","","",,,,Não aplicável.,Não aplicável.,FALSE
"Aquisição de serviços de preparação, confecção e distribuição de alimentação a doentes e pessoal do Pólo MBB, do CHUC, E.P.E, Janeiro ",Ajuste Direto Regime Geral,Aquisição de serviços,"55500000-5, Serviços de cantinas e de fornecimento de refeições (catering)","Centro Hospitalar e Universitário de Coimbra, E. P. E. (510103448)",Eurest (500347506),"21.964,73 €",22-01-2015,08-01-2015,31 dias,"Portugal, Coimbra, Coimbra","Artigo 20.º, n.º 1, alínea a) do Código dos Contratos Públicos","","",,,,Não aplicável.,Não aplicável.,FALSE
"Aquisição de serviços de preparação, confecção e distribuição de alimentação a doentes e pessoal do Pólo Hospital Pediatrico, do CHUC, E.P.E, Janeiro ",Ajuste Direto Regime Geral,Aquisição de serviços,"55500000-5, Serviços de cantinas e de fornecimento de refeições (catering)","Centro Hospitalar e Universitário de Coimbra, E. P. E. (510103448)",Eurest (500347506),"33.076,78 €",22-01-2015,08-01-2015,31 dias,"Portugal, Coimbra, Coimbra","Artigo 20.º, n.º 1, alínea a) do Código dos Contratos Públicos","","",,,,Não aplicável.,Não aplicável.,FALSE
"Aquisição de serviços de preparação, confecção e distribuição de alimentação a doentes e pessoal do Pólo Hospital Geral, do CHUC, E.P.E, Janeiro ",Ajuste Direto Regime Geral,Aquisição de serviços,"55500000-5, Serviços de cantinas e de fornecimento de refeições (catering)","Centro Hospitalar e Universitário de Coimbra, E. P. E. (510103448)",Eurest (500347506),"68.959,98 €",22-01-2015,08-01-2015,31 dias,"Portugal, Coimbra, Coimbra","Artigo 20.º, n.º 1, alínea a) do Código dos Contratos Públicos","","",,,,Não aplicável.,Não aplicável.,FALSE
"Aquisição de serviços serviços para assegurar a Gestão Integrada de Resíduos necessária ao CHUC, EPE, Janeiro e Fevereiro",Ajuste Direto Regime Geral,Aquisição de serviços,"90510000-5, Tratamento e eliminação de resíduos","Centro Hospitalar e Universitário de Coimbra, E. P. E. (510103448)",Ambimed (503593427),"58.522,00 €",22-01-2015,09-01-2015,59 dias,"Portugal, Coimbra, Coimbra","Artigo 20.º, n.º 1, alínea a) do Código dos Contratos Públicos","","",,,,Não aplicável.,Não aplicável.,FALSE
Aquisição de 8 computadores para o serviço de Esterilização (240),Ajuste Direto Regime Geral,Aquisição de bens móveis,"30000000-9, Máquinas, equipamento e material de escritório e de informática, excepto mobiliário e pacotes de programas (software)","Centro Hospitalar e Universitário de Coimbra, E. P. E. (510103448)","ITEN SOLUTIONS, SA (510728189)","5.776,88 €",22-01-2015,12-01-2015,15 dias,"Portugal, Coimbra, Coimbra","Artigo 20.º, n.º 1, alínea a) do Código dos Contratos Públicos","","",,,,Não aplicável.,Não aplicável.,FALSE
Aquisição de 1 vídeo Projector LCD para o serviço de UCIRN/MDM (723),Ajuste Direto Regime Geral,Aquisição de bens móveis,"30000000-9, Máquinas, equipamento e material de escritório e de informática, excepto mobiliário e pacotes de programas (software)","Centro Hospitalar e Universitário de Coimbra, E. P. E. (510103448)","IRTEL, LDA (501583033)","482,35 €",22-01-2015,07-01-2015,15 dias,"Portugal, Coimbra, Coimbra","Artigo 20.º, n.º 1, alínea a) do Código dos Contratos Públicos","","",,,,Não aplicável.,Não aplicável.,FALSE
