Objeto do Contrato,Tipo de Procedimento,Tipo(s) de Contrato,CPVs,Entidade(s) Adjudicante(s),Entidade(s) Adjudicatária(s),Preço Contratual,Data de Publicação,Data de Celebração do Contrato,Prazo de Execução,Local de Execução,Fundamentação,Data de Fecho do Contrato,Preço Total Efetivo,Causas das Alterações ao Prazo,Causas das Alterações ao Preço,Estado,N.º registo do Acordo Quadro,Descrição do Acordo Quadro,Procedimento Centralizado
Substituição Central Hidropressora,Ajuste Direto Regime Geral,Aquisição de serviços,"50000000-5, Serviços de reparação e manutenção","Administração Regional de Saúde de Lisboa e Vale do Tejo, I. P. (503148776)",Soligasoso - Serviços de Manutenção Lda (509126855),"10.080,00 €",11-10-2016,11-10-2016,81 dias,"Portugal, Lisboa, Lisboa","Artigo 20.º, n.º 1, alínea a) do Código dos Contratos Públicos",,,,,,Não aplicável.,Não aplicável.,FALSE
Empreitada de construção de rampa exterior no centro de saúde de Peniche.,Ajuste Direto Regime Geral,Empreitadas de obras públicas,"45113000-2, Obras no local","Administração Regional de Saúde de Lisboa e Vale do Tejo, I. P. (503148776)",Demorvaur - Recolha e Tratamento de Resíduos Lda  (508541751),"24.895,80 €",11-10-2016,26-09-2016,97 dias,"Portugal, Lisboa, Lisboa","Artigo 19.º, alínea a) do Código dos Contratos Públicos",,,,,,Não aplicável.,Não aplicável.,FALSE
"Reparação e manutenção de equipamentos  Pedido de Compra nº 3400009089, NPD 16E00084 e Compromisso nº 5016005107",Ajuste Direto Regime Geral,Aquisição de serviços,"50000000-5, Serviços de reparação e manutenção","Administração Regional de Saúde de Lisboa e Vale do Tejo, I. P. (503148776)",Medical Import (506662055),"1.500,00 €",11-10-2016,04-02-2016,5 dias,"Portugal, Lisboa, Loures","Artigo 20.º, n.º 1, alínea a) do Código dos Contratos Públicos",,,,,,Não aplicável.,Não aplicável.,FALSE
Aquisição de 10.000 frascos de Fluoreto Sódio 2mg/2ml Sol Bucal 100ml,Ao abrigo de acordo-quadro (art.º 258.º),Aquisição de bens móveis,"33690000-3, Medicamentos vários","Administração Regional de Saúde de Lisboa e Vale do Tejo, I. P. (503148776)","Labesfal - Laboratórios Almiro, S.A. (501169580)","19.499,00 €",11-10-2016,11-10-2016,66 dias,"Portugal, Lisboa",Artigo 258.º do Código dos Contratos Públicos,,,,,,2222779,Medicamentos do aparelho digestivo,FALSE
Obras de adaptabilidade do antigo edifício do C.S. do Barreiro para transferência dos serviços do CRI de Setúbal e ET Barreiro.,Ajuste Direto Regime Geral,Empreitadas de obras públicas,"45113000-2, Obras no local","Administração Regional de Saúde de Lisboa e Vale do Tejo, I. P. (503148776)",Metal Cúbico Limitada  (503852880),"16.498,00 €",11-10-2016,22-09-2016,101 dias,"Portugal, Lisboa, Lisboa","Artigo 19.º, alínea a) do Código dos Contratos Públicos",,,,,,Não aplicável.,Não aplicável.,FALSE
"Reparação e manutenção de equipamento - Pedido de Compra 3400009987, NPD 16E00315 e Compromisso nº5016034819",Ajuste Direto Regime Geral,Aquisição de serviços,"50000000-5, Serviços de reparação e manutenção","Administração Regional de Saúde de Lisboa e Vale do Tejo, I. P. (503148776)",Augusto Silva (505738180),"137,00 €",11-10-2016,30-06-2016,5 dias,"Portugal, Lisboa, Loures","Artigo 20.º, n.º 1, alínea a) do Código dos Contratos Públicos",,,,,,Não aplicável.,Não aplicável.,FALSE
"Pedido de Compra nº3400010292, NPD 16E00415 e compromisso nº 5016053550",Ajuste Direto Regime Geral,Aquisição de serviços,"50000000-5, Serviços de reparação e manutenção","Administração Regional de Saúde de Lisboa e Vale do Tejo, I. P. (503148776)",IVECO POrtugal (501445927),"1.089,64 €",10-10-2016,23-09-2016,5 dias,"Portugal, Lisboa, Loures","Artigo 20.º, n.º 1, alínea a) do Código dos Contratos Públicos",,,,,,Não aplicável.,Não aplicável.,FALSE
"Pedido de compra nº3400010266, NPD 16J00431 e Compromisso nº5016052917 Reparação e manutenção de equipamentos",Ajuste Direto Regime Geral,Aquisição de serviços,"50000000-5, Serviços de reparação e manutenção","Administração Regional de Saúde de Lisboa e Vale do Tejo, I. P. (503148776)",Pinheiro de Melo & Salgado  (507441443),"316,81 €",10-10-2016,15-09-2016,5 dias,"Portugal, Lisboa, Loures","Artigo 24.º, n.º 1, alínea e) do Código dos Contratos Públicos",,,,,,Não aplicável.,Não aplicável.,FALSE
AQUISIÇÃO DE MOBILIÁRIO PAR A USF FORAL NOVO DO ACES LEZÍRIA E PARA O CRI LISBOA ORIENTAL,Ao abrigo de acordo-quadro (art.º 259.º),Aquisição de bens móveis,"39100000-3, Mobiliário","Administração Regional de Saúde de Lisboa e Vale do Tejo, I. P. (503148776)","Tripolo, Lda. (501264124)","1.024,00 €",10-10-2016,04-10-2016,60 dias,"Portugal, Lisboa, Lisboa",Artigo 259.º do Código dos Contratos Públicos,,,,,,1260651,Acordo quadro de fornecimento de mobiliário,FALSE
AQUISIÇÃO DE MOBILIÁRIO PAR A USF FORAL NOVO DO ACES LEZÍRIA E PARA O CRI LISBOA ORIENTAL,Ao abrigo de acordo-quadro (art.º 259.º),Aquisição de bens móveis,"39100000-3, Mobiliário","Administração Regional de Saúde de Lisboa e Vale do Tejo, I. P. (503148776)","Lemis Soc Industrial Moveis e Estruturas, Lda (500649995)","356,00 €",10-10-2016,04-10-2016,60 dias,"Portugal, Lisboa, Lisboa",Artigo 259.º do Código dos Contratos Públicos,,,,,,1260651,Acordo quadro de fornecimento de mobiliário,FALSE
AQUISIÇÃO DE MOBILIÁRIO PAR A USF FORAL NOVO DO ACES LEZÍRIA E PARA O CRI LISBOA ORIENTAL,Ao abrigo de acordo-quadro (art.º 259.º),Aquisição de bens móveis,"39100000-3, Mobiliário","Administração Regional de Saúde de Lisboa e Vale do Tejo, I. P. (503148776)","Lemis Soc Industrial Moveis e Estruturas, Lda (500649995)","2.888,00 €",10-10-2016,04-10-2016,60 dias,"Portugal, Lisboa, Lisboa",Artigo 259.º do Código dos Contratos Públicos,,,,,,1260651,Acordo quadro de fornecimento de mobiliário,FALSE
Aquisição de 20.000 ampolas de Tiocolquicosido Sol Inj 4mg/ 2ml IM,Ao abrigo de acordo-quadro (art.º 258.º),Aquisição de bens móveis,"33690000-3, Medicamentos vários","Administração Regional de Saúde de Lisboa e Vale do Tejo, I. P. (503148776)","Sanofi - Produtos Farmacêuticos, Lda (500134960)","8.400,00 €",06-10-2016,04-10-2016,66 dias,"Portugal, Lisboa",Artigo 258.º do Código dos Contratos Públicos,,,,,,2211341,Medicamentos anestésicos e relaxantes musculares,FALSE
Aquisição da vacina contra a Hepatite  B Adulto (V4).,Ao abrigo de acordo-quadro (art.º 258.º),Aquisição de bens móveis,"33651600-4, Vacinas","Administração Regional de Saúde de Lisboa e Vale do Tejo, I. P. (503148776)","Glaxosmithkline - Produtos Farmacêuticos, Lda (500139962)","12.840,00 €",03-10-2016,22-09-2016,90 dias,"Portugal, Lisboa, Lisboa",Artigo 258.º do Código dos Contratos Públicos,,,,,,1923518,CP 2016/13 - Acordo Quadro para fornecimento de Vacinas e Tuberculinas   às Instituições e Serviços do Serviço Nacional de Saúde,FALSE
