Objeto do Contrato,Tipo de Procedimento,Tipo(s) de Contrato,CPVs,Entidade(s) Adjudicante(s),Entidade(s) Adjudicatária(s),Preço Contratual,Data de Publicação,Data de Celebração do Contrato,Prazo de Execução,Local de Execução,Fundamentação,Data de Fecho do Contrato,Preço Total Efetivo,Causas das Alterações ao Prazo,Causas das Alterações ao Preço,Estado,N.º registo do Acordo Quadro,Descrição do Acordo Quadro,Procedimento Centralizado
040101702016 GENTAMICINA IMPLANTE,Ajuste Direto Regime Geral,Aquisição de bens móveis,"33600000-6, Produtos farmacêuticos","Centro Hospitalar e Universitário de Coimbra, E. P. E. (510103448)",EUSA PHARMA (980532981),"22.275,00 €",11-07-2018,29-01-2016,365 dias,"Portugal, Coimbra, Coimbra","Artigo 24.º, n.º 1, alínea e) do Código dos Contratos Públicos",31-12-2016,"22.275,00 €",,,,Não aplicável.,Não aplicável.,FALSE
"040101692016 SULFATO DE CONDROITINA 0,2% SOL. INTRAVESICAL",Ajuste Direto Regime Geral,Aquisição de bens móveis,"33690000-3, Medicamentos vários","Centro Hospitalar e Universitário de Coimbra, E. P. E. (510103448)","TECNIMEDE -SOC. TECNICO-MEDICINAL, S.A. (500626413)","721,08 €",11-07-2018,15-01-2016,365 dias,"Portugal, Coimbra, Coimbra","Artigo 24.º, n.º 1, alínea e) do Código dos Contratos Públicos",31-12-2016,"721,08 €",,,,Não aplicável.,Não aplicável.,FALSE
040101682016 Dolutegravir 50mg comp,Ajuste Direto Regime Geral,Aquisição de bens móveis,"33600000-6, Produtos farmacêuticos","Centro Hospitalar e Universitário de Coimbra, E. P. E. (510103448)",VIIVVHIV (509117961),"34.320,08 €",11-07-2018,20-01-2016,365 dias,"Portugal, Coimbra, Coimbra","Artigo 24.º, n.º 1, alínea e) do Código dos Contratos Públicos",31-12-2016,"34.320,08 €",,,,Não aplicável.,Não aplicável.,FALSE
040101722016-FLUORETO DE SODIO (18 F) 185 MBQ/ML SOL INJ,Ajuste Direto Regime Geral,Aquisição de bens móveis,"33698000-9, Produtos para fins clínicos","Centro Hospitalar e Universitário de Coimbra, E. P. E. (510103448)","ISODER ISOTOPOS E DERIVADOS, SA (502241594)","3.900,00 €",11-07-2018,19-01-2016,365 dias,"Portugal, Coimbra, Coimbra","Artigo 24.º, n.º 1, alínea e) do Código dos Contratos Públicos",31-12-2016,"3.900,00 €",,,,Não aplicável.,Não aplicável.,FALSE
040101662016INFLIXIMAB 100MG PÓ CONC. SOL INJ. FRS IV,Ajuste Direto Regime Geral,Aquisição de bens móveis,"33600000-6, Produtos farmacêuticos","Centro Hospitalar e Universitário de Coimbra, E. P. E. (510103448)","MERCK SHARP & DOHME, LDA (500191360)","70.000,00 €",11-07-2018,20-01-2016,365 dias,"Portugal, Coimbra, Coimbra","Artigo 24.º, n.º 1, alínea e) do Código dos Contratos Públicos",31-12-2016,"70.000,00 €",,,,Não aplicável.,Não aplicável.,FALSE
BALAO ANGIOPLASTIA,Ajuste Direto Regime Geral,Aquisição de bens móveis,"33000000-0, Equipamento médico, medicamentos e produtos para cuidados pessoais","Centro Hospitalar e Universitário de Coimbra, E. P. E. (510103448)","BIOSONDA - COMERCIO MAT. HOSPITALAR, LDA (501463313)","16.910,00 €",11-07-2018,25-05-2018,365 dias,"Portugal, Coimbra, Coimbra","Artigo 24.º, n.º 1, alínea e) do Código dos Contratos Públicos","","",,,,Não aplicável.,Não aplicável.,FALSE
 - Osteosintese * Miniplacas; Parafusos Corticais; Fios de Kirchener; Placas LCP; Placa Tibia Distal; Cabos Metálicos; Fios Cerclage; Anilhas; Parafusos de Bloqueio; Parafusos Maleolar; Cravos Steinnam.,Ajuste Direto Regime Geral,Aquisição de bens móveis,"33000000-0, Equipamento médico, medicamentos e produtos para cuidados pessoais","Centro Hospitalar e Universitário de Coimbra, E. P. E. (510103448)","Johnson & Johnson, Lda (500153370)","7.120,71 €",11-07-2018,05-07-2018,180 dias,"Portugal, Coimbra, Coimbra","Artigo 24.º, n.º 1, alínea e), subalínea ii) do Código dos Contratos Públicos","","",,,,Não aplicável.,Não aplicável.,FALSE
040101672016 MACITENTANO 10MG COMP,Ajuste Direto Regime Geral,Aquisição de bens móveis,"33698000-9, Produtos para fins clínicos","Centro Hospitalar e Universitário de Coimbra, E. P. E. (510103448)",Actelion Pharmaceuticals Portugal Lda (507336488),"71.838,00 €",11-07-2018,23-01-2016,365 dias,"Portugal, Coimbra, Coimbra","Artigo 24.º, n.º 1, alínea e) do Código dos Contratos Públicos",31-12-2016,"71.838,00 €",,,,Não aplicável.,Não aplicável.,FALSE
040104792016-PROCARBAZINA 50 MG CAPS,Ajuste Direto Regime Geral,Aquisição de bens móveis,"33698000-9, Produtos para fins clínicos","Centro Hospitalar e Universitário de Coimbra, E. P. E. (510103448)","IDIS THE WORLD MEDICINES, LMTD (700513982)","31.500,00 €",11-07-2018,24-02-2016,365 dias,"Portugal, Coimbra, Coimbra","Artigo 24.º, n.º 1, alínea e) do Código dos Contratos Públicos",31-12-2016,"31.500,00 €",,,,Não aplicável.,Não aplicável.,FALSE
"040104782016-TETRACOSACTIDO 0,25 MG/ML SOL INJ",Ajuste Direto Regime Geral,Aquisição de bens móveis,"33698000-9, Produtos para fins clínicos","Centro Hospitalar e Universitário de Coimbra, E. P. E. (510103448)","DUXPHARMA UNIPESSOAL, LDA (510803679)","3.735,00 €",11-07-2018,02-03-2016,365 dias,"Portugal, Coimbra, Coimbra","Artigo 24.º, n.º 1, alínea e) do Código dos Contratos Públicos",31-12-2016,"3.735,00 €",,,,Não aplicável.,Não aplicável.,FALSE
CAT e suporte para a rede informática HucNet-2018,Ajuste Direto Regime Geral,Aquisição de serviços,"72000000-5, Serviços de TI: consultoria, desenvolvimento de software, Internet e apoio","Centro Hospitalar e Universitário de Coimbra, E. P. E. (510103448)",Decunify (504889893),"20.424,00 €",11-07-2018,19-06-2018,365 dias,"Portugal, Coimbra, Coimbra","Artigo 24.º, n.º 1, alínea e), subalínea ii) do Código dos Contratos Públicos","","",,,,Não aplicável.,Não aplicável.,FALSE
"AGULHAS, CATETERES E SISTEMAS SOROS",Ajuste Direto Regime Geral,Aquisição de bens móveis,"33000000-0, Equipamento médico, medicamentos e produtos para cuidados pessoais","Centro Hospitalar e Universitário de Coimbra, E. P. E. (510103448)","B BRAUN MEDICAL, LDA (501506543)","138.332,40 €",10-07-2018,24-05-2018,365 dias,"Portugal, Coimbra, Coimbra","Artigo 24.º, n.º 1, alínea e) do Código dos Contratos Públicos","","",,,,Não aplicável.,Não aplicável.,FALSE
Consulta previa n.º 090900232018- Aquisição de 2 videoprojetores,Consulta Prévia,Aquisição de bens móveis,"30000000-9, Máquinas, equipamento e material de escritório e de informática, excepto mobiliário e pacotes de programas (software)","Centro Hospitalar e Universitário de Coimbra, E. P. E. (510103448)",NORMATICA (501782230),"964,46 €",10-07-2018,06-07-2018,30 dias,"Portugal, Coimbra, Coimbra","Artigo 20.º, n.º 1, alínea c) do Código dos Contratos Públicos","","",,,,Não aplicável.,Não aplicável.,FALSE
Aluguer equipamento Raio X Arco em C-Cirurgia Vascular-5 meses,Ajuste Direto Regime Geral,Aquisição de serviços,"79000000-4, Serviços a empresas: direito, comercialização, consultoria, recrutamento, impressão e segurança","Centro Hospitalar e Universitário de Coimbra, E. P. E. (510103448)",Iberdata (501904921),"18.750,00 €",10-07-2018,15-06-2018,150 dias,"Portugal, Coimbra, Coimbra","Artigo 20.º, n.º 1, alínea d) do Código dos Contratos Públicos","","",,,,Não aplicável.,Não aplicável.,FALSE
040101642016 MERCAPTOPURINA 20 MG/ML SUSP ORAL FR 100 ML,Ajuste Direto Regime Geral,Aquisição de bens móveis,"33600000-6, Produtos farmacêuticos","Centro Hospitalar e Universitário de Coimbra, E.P. (510103448)",BIOJAM S.A. (513642749),"31.600,00 €",10-07-2018,29-03-2016,365 dias,"Portugal, Coimbra, Coimbra","Artigo 24.º, n.º 1, alínea e) do Código dos Contratos Públicos",31-12-2016,"31.600,00 €",,,,Não aplicável.,Não aplicável.,FALSE
Fluoreto de sódio (18F) 185 MBQ/ml sol inj,Ajuste Direto Regime Geral,Aquisição de bens móveis,"33698000-9, Produtos para fins clínicos","Centro Hospitalar e Universitário de Coimbra, E. P. E. (510103448)",ISOTOPOS E DERIVADOS ISODER S.A. (502241594),"3.900,00 €",10-07-2018,19-01-2016,365 dias,"Portugal, Coimbra, Coimbra","Artigo 24.º, n.º 1, alínea e) do Código dos Contratos Públicos","","",,,,Não aplicável.,Não aplicável.,FALSE
Fornecimento de combustivel rodoviário-abril,Ajuste Direto Regime Geral,Aquisição de bens móveis,"09000000-3, Produtos petrolíferos, combustíveis, electricidade e outras fontes de energia","Centro Hospitalar e Universitário de Coimbra, E. P. E. (510103448)",Petrogal (500697370),"6.883,80 €",10-07-2018,03-07-2018,30 dias,"Portugal, Coimbra, Coimbra","Artigo 20.º, n.º 1, alínea d) do Código dos Contratos Públicos","","",,,,Não aplicável.,Não aplicável.,FALSE
Palivizumab 100 mg/ml fr 1 ml,Ajuste Direto Regime Geral,Aquisição de bens móveis,"33698000-9, Produtos para fins clínicos","Centro Hospitalar e Universitário de Coimbra, E. P. E. (510103448)","ABBVIE, LDA (510229050)","16.911,18 €",10-07-2018,29-01-2016,365 dias,"Portugal, Coimbra, Coimbra","Artigo 24.º, n.º 1, alínea e) do Código dos Contratos Públicos",31-12-2016,"16.911,18 €",,,,Não aplicável.,Não aplicável.,FALSE
040101552016 ECULIZUMAB 300MG SOL INJ FRS. 30ML IV,Ajuste Direto Regime Geral,Aquisição de bens móveis,"33698000-9, Produtos para fins clínicos","Centro Hospitalar e Universitário de Coimbra, E. P. E. (510103448)",ALEXION PHARMA (IE3191456UH),"69.878,40 €",10-07-2018,24-02-2016,365 dias,"Portugal, Coimbra, Coimbra","Artigo 24.º, n.º 1, alínea e) do Código dos Contratos Públicos",31-12-2016,"69.878,40 €",,,,Não aplicável.,Não aplicável.,FALSE
040101532016 HEPARINA SÓDICA 100 U.I./5 ML SOL FR 5 ML,Ajuste Direto Regime Geral,Aquisição de bens móveis,"33698000-9, Produtos para fins clínicos","Centro Hospitalar e Universitário de Coimbra, E.P. (510103448)","LABORATORIOS FARMACEUTICOS ROVI, SA (980166705)","12.255,00 €",10-07-2018,29-04-2016,365 dias,"Portugal, Coimbra, Coimbra","Artigo 20.º, n.º 1, alínea a) do Código dos Contratos Públicos",31-12-2016,"12.255,00 €",,,,Não aplicável.,Não aplicável.,FALSE
040101512016 SOLUÇÃO IÔES FOSFATO E CALCIO SUPERSATURADOS SOL TOP FRS,Ajuste Direto Regime Geral,Aquisição de bens móveis,"33698000-9, Produtos para fins clínicos","Centro Hospitalar e Universitário de Coimbra, E. P. E. (510103448)",EUSA PHARMA (UK) SUCURSAL EM PORTUGAL (980532981),"21.337,50 €",10-07-2018,29-01-2016,365 dias,"Portugal, Coimbra, Coimbra","Artigo 20.º, n.º 1, alínea a) do Código dos Contratos Públicos",31-12-2016,"21.337,50 €",,,,Não aplicável.,Não aplicável.,FALSE
040101482016 RIOCIGUAT COMPRIMIDOS,Ajuste Direto Regime Geral,Aquisição de bens móveis,"33600000-6, Produtos farmacêuticos","Centro Hospitalar e Universitário de Coimbra, E.P. (510103448)","MERCK SHARP & DOHME, LDA (500191360)","17.918,88 €",10-07-2018,03-02-2016,365 dias,"Portugal, Coimbra, Coimbra","Artigo 24.º, n.º 1, alínea e) do Código dos Contratos Públicos",31-12-2016,"17.918,88 €",,,,Não aplicável.,Não aplicável.,FALSE
Gaze celulose oxidada regenerada apósito,Ajuste Direto Regime Geral,Aquisição de bens móveis,"33698000-9, Produtos para fins clínicos","Centro Hospitalar e Universitário de Coimbra, E.P. (510103448)",Johnson & Jonhson (500153370),"35.551,00 €",06-07-2018,09-05-2016,365 dias,"Portugal, Coimbra, Coimbra","Artigo 20.º, n.º 1, alínea a) do Código dos Contratos Públicos",31-12-2016,"35.551,00 €",,,,Não aplicável.,Não aplicável.,FALSE
"- Material de Consumo Clínico * Canulas Aspiração Irrigação, Trocarts descartáveis; Trocarts Para Obesidade; Plataforma Acesso Transanal; Aplicadores de Clips",Ajuste Direto Regime Geral,Aquisição de bens móveis,"33000000-0, Equipamento médico, medicamentos e produtos para cuidados pessoais","Centro Hospitalar e Universitário de Coimbra, E. P. E. (510103448)",APPLIED MEDICAL  (980571111),"51.135,20 €",06-07-2018,12-03-2018,180 dias,"Portugal, Coimbra, Coimbra","Artigo 24.º, n.º 1, alínea e) do Código dos Contratos Públicos","","",,,,Não aplicável.,Não aplicável.,FALSE
040101472016 GAZE CELULOSE OXIDADA REGENERADA APÓSITO,Ajuste Direto Regime Geral,Aquisição de bens móveis,"33698000-9, Produtos para fins clínicos","Centro Hospitalar e Universitário de Coimbra, E.P. (510103448)","JOHNSON & JOHNSON, LDA (500153370)","13.572,50 €",06-07-2018,09-05-2016,365 dias,"Portugal, Coimbra, Coimbra","Artigo 20.º, n.º 1, alínea a) do Código dos Contratos Públicos",31-12-2016,"13.572,50 €",,,,Não aplicável.,Não aplicável.,FALSE
040101462016 DICLORETO DE RADIO (223RA) 1.000KBQ SOL. INJ. FRS. 6 ML IV,Ajuste Direto Regime Geral,Aquisição de bens móveis,"33600000-6, Produtos farmacêuticos","Centro Hospitalar e Universitário de Coimbra, E. P. E. (510103448)",BAYER PORTUGAL S A (500043256),"17.458,60 €",06-07-2018,18-02-2016,365 dias,"Portugal, Coimbra, Coimbra","Artigo 24.º, n.º 1, alínea e) do Código dos Contratos Públicos",31-12-2016,"17.458,60 €",,,,Não aplicável.,Não aplicável.,FALSE
040101382016 AGUA PARA PREPARAÇÕES INJECTÁVEIS SOL INJ FR 500 ML NESP,Ajuste Direto Regime Geral,Aquisição de bens móveis,"33698000-9, Produtos para fins clínicos","Centro Hospitalar e Universitário de Coimbra, E.P. (510103448)","Labesfal, S.A. (501169580)","20.582,88 €",06-07-2018,01-04-2016,365 dias,"Portugal, Coimbra, Coimbra","Artigo 20.º, n.º 1, alínea a) do Código dos Contratos Públicos",31-12-2016,"20.582,88 €",,,,Não aplicável.,Não aplicável.,FALSE
procedimento n.º 040128022017 - PEMBROLIZUMAB 50 MG PÓ CONC SOL INJ FR IV,Ajuste Direto Regime Geral,Aquisição de bens móveis,"33698000-9, Produtos para fins clínicos","Centro Hospitalar e Universitário de Coimbra, E. P. E. (510103448)","Merck Sharp & Dohme, Lda. (500191360)","40.950,00 €",06-07-2018,08-05-2017,365 dias,"Portugal, Coimbra, Coimbra","Artigo 24.º, n.º 1, alínea e) do Código dos Contratos Públicos",29-12-2017,"40.950,00 €",,,,Não aplicável.,Não aplicável.,FALSE
 - Material de Consumo Clínico * Tesouras Para Cirurgia Laparoscópica; Clips Hemostáticos e Maquinas de Sutura Cirúrgicas para Correcção Prolapso Hemorroidal,Ajuste Direto Regime Geral,Aquisição de bens móveis,"33000000-0, Equipamento médico, medicamentos e produtos para cuidados pessoais","Centro Hospitalar e Universitário de Coimbra, E. P. E. (510103448)",Endotécnica - Material Cirúrgico; Lda (503818348),"32.763,00 €",06-07-2018,08-03-2018,180 dias,"Portugal, Coimbra, Coimbra","Artigo 24.º, n.º 1, alínea e) do Código dos Contratos Públicos","","",,,,Não aplicável.,Não aplicável.,FALSE
"040101392016 TESTE PESQUISA HELICOBACTER PYLORI 100 MG C-UREIA, KIT",Ajuste Direto Regime Geral,Aquisição de bens móveis,"33698000-9, Produtos para fins clínicos","Centro Hospitalar e Universitário de Coimbra, E.P. (510103448)",QUEENLABS-ESPEC FARMACÊUTICAS LDA (503984485),"18.973,80 €",06-07-2018,12-04-2016,365 dias,"Portugal, Coimbra, Coimbra","Artigo 20.º, n.º 1, alínea a) do Código dos Contratos Públicos",31-12-2016,"18.973,80 €",,,,Não aplicável.,Não aplicável.,FALSE
procedimento n.º 040116772017 - PEMBROLIZUMAB 50 MG PÓ CONC SOL INJ FR IV,Ajuste Direto Regime Geral,Aquisição de bens móveis,"33698000-9, Produtos para fins clínicos","Centro Hospitalar e Universitário de Coimbra, E. P. E. (510103448)","Merck Sharp & Dohme, Lda. (500191360)","47.685,00 €",06-07-2018,16-03-2017,365 dias,"Portugal, Coimbra, Coimbra","Artigo 24.º, n.º 1, alínea e) do Código dos Contratos Públicos",29-12-2017,"47.685,00 €",,,,Não aplicável.,Não aplicável.,FALSE
040101402016 INDOCIANINA VERDE 25 MG PÓ SOL INJ,Ajuste Direto Regime Geral,Aquisição de bens móveis,"33698000-9, Produtos para fins clínicos","Centro Hospitalar e Universitário de Coimbra, E.P. (510103448)","CLINIFAR-PROD.CLINIC.FARMACEUTICOS, SA (503281115)","39.728,00 €",06-07-2018,12-04-2016,365 dias,"Portugal, Coimbra, Coimbra","Artigo 20.º, n.º 1, alínea a) do Código dos Contratos Públicos",31-12-2016,"39.728,00 €",,,,Não aplicável.,Não aplicável.,FALSE
procedimento n.º 040108042017 - PEMBROLIZUMAB 50 MG PÓ CONC SOL INJ FR IV,Ajuste Direto Regime Geral,Aquisição de bens móveis,"33600000-6, Produtos farmacêuticos","Centro Hospitalar e Universitário de Coimbra, E. P. E. (510103448)","Merck Sharp & Dohme, Lda. (500191360)","158.950,00 €",06-07-2018,18-02-2017,365 dias,"Portugal, Coimbra, Coimbra","Artigo 24.º, n.º 1, alínea e) do Código dos Contratos Públicos",29-12-2017,"158.950,00 €",,,,Não aplicável.,Não aplicável.,FALSE
040101412016 SULFADIAZINA PRATA 10 MG/G CR BISN 50 G,Ajuste Direto Regime Geral,Aquisição de bens móveis,"33698000-9, Produtos para fins clínicos","Centro Hospitalar e Universitário de Coimbra, E.P. (510103448)","EXPOMÉDICA - Sociedade Exportadora Importadora de Material Médico, Lda (501886621)","3.328,00 €",06-07-2018,09-03-2016,365 dias,"Portugal, Coimbra, Coimbra","Artigo 20.º, n.º 1, alínea a) do Código dos Contratos Públicos",31-12-2016,"3.328,00 €",,,,Não aplicável.,Não aplicável.,FALSE
- MATERIAL DE CONSUMO CLÍNICO * Pinças coagulação Bipolar ;Laminas serra; Cateteres Duplo J;  Clips de Aneurisma; Máquinas de Sutura da Pele,Ajuste Direto Regime Geral,Aquisição de bens móveis,"33000000-0, Equipamento médico, medicamentos e produtos para cuidados pessoais","Centro Hospitalar e Universitário de Coimbra, E. P. E. (510103448)",B. Braun Medical; Lda (501506543),"72.322,24 €",06-07-2018,09-03-2018,180 dias,"Portugal, Coimbra, Coimbra","Artigo 24.º, n.º 1, alínea e) do Código dos Contratos Públicos","","",,,,Não aplicável.,Não aplicável.,FALSE
Material de Consumo Clínico * Fios de Sutura * Pinças Coagulação Bipolar (Descartáveis),Ajuste Direto Regime Geral,Aquisição de bens móveis,"33000000-0, Equipamento médico, medicamentos e produtos para cuidados pessoais","Centro Hospitalar e Universitário de Coimbra, E. P. E. (510103448)",B Braun Medical; Lda (501506543),"61.353,36 €",06-07-2018,13-03-2018,180 dias,"Portugal, Coimbra, Coimbra","Artigo 24.º, n.º 1, alínea e) do Código dos Contratos Públicos","","",,,,Não aplicável.,Não aplicável.,FALSE
040101422016 TESTE P/COLHEITA CITOLOGICA DE ENDOCOLO E EXOCOLO,Ajuste Direto Regime Geral,Aquisição de bens móveis,"33600000-6, Produtos farmacêuticos","Centro Hospitalar e Universitário de Coimbra, E.P. (510103448)",BIOPORTUGAL-QUIMICO FARMACEUTICA LDA (502380543),"24.750,00 €",06-07-2018,17-02-2016,365 dias,"Portugal, Coimbra, Coimbra","Artigo 20.º, n.º 1, alínea a) do Código dos Contratos Públicos",17-02-2016,"24.750,00 €",,,,Não aplicável.,Não aplicável.,FALSE
040101452016 PRODUTOS PARA OFTALMOLOGIA,Ajuste Direto Regime Geral,Aquisição de bens móveis,"33662100-9, Medicamentos usados em oftalmologia","Centro Hospitalar e Universitário de Coimbra, E.P. (510103448)","ALCON PORTUGAL (501251685), DAVI II (508309450), Oftaldata - Produtos para Oftalmologia (504887459), BAUSCH & LOMB, SA (980218764), OFTALTEC, LDA (503197149)","48.581,39 €",06-07-2018,15-06-2016,365 dias,"Portugal, Coimbra, Coimbra","Artigo 20.º, n.º 1, alínea a) do Código dos Contratos Públicos",31-12-2016,"48.581,39 €",,,,Não aplicável.,Não aplicável.,FALSE
040104602016-SIROLIMUS 1 MG/ML SOL ORAL FR 60 ML,Ajuste Direto Regime Geral,Aquisição de bens móveis,"33698000-9, Produtos para fins clínicos","Centro Hospitalar e Universitário de Coimbra, E. P. E. (510103448)",PFIZER BIOFARMACEUTICA SOCIDADE UNIPESSOAL LDA (513300376),"7.437,24 €",06-07-2018,12-02-2016,365 dias,"Portugal, Coimbra, Coimbra","Artigo 24.º, n.º 1, alínea e) do Código dos Contratos Públicos",31-12-2016,"7.437,24 €",,,,Não aplicável.,Não aplicável.,FALSE
Aquisição de exames MCDT-Ecografias,Ajuste Direto Regime Geral,Aquisição de serviços,"85100000-0, Serviços de saúde","Centro Hospitalar e Universitário de Coimbra, E. P. E. (510103448)",Climag (500830240),"58.800,00 €",05-07-2018,04-06-2018,240 dias,"Portugal, Coimbra, Coimbra","Artigo 20.º, n.º 1, alínea a) do Código dos Contratos Públicos","","",,,,Não aplicável.,Não aplicável.,FALSE
"Aquisição de 2 aparelhos de anestesia, c/ monitorização p/  o Bloco Operatório de Obstetrícia do Pólo Maternidade Daniel de Matos do CHUC, EPE",Concurso público,Aquisição de bens móveis,"33172100-7, Aparelhos para anestesia","Centro Hospitalar e Universitário de Coimbra, E. P. E. (510103448)",General Electric (500357129),"58.000,00 €",05-07-2018,22-06-2018,30 dias,"Portugal, Coimbra, Coimbra","Artigo 20.º, n.º 1, alínea b) do Código dos Contratos Públicos","","",,,,Não aplicável.,Não aplicável.,FALSE
050100782017CP 2015/35 - Acordo quadro para fornecimento de bens e prestação de serviços de Diálise Peritoneal às Instituições e Serviços do Serviço Nacional de Saúde,Ao abrigo de acordo-quadro (art.º 258.º),Aquisição de bens móveis,"33600000-6, Produtos farmacêuticos","Centro Hospitalar e Universitário de Coimbra, E. P. E. (510103448)","BAXTER MEDICO - FARMACÊUTICA, LDA (503347345), Fresenius Medical Care Portugal, S.A. (503070220)","210.666,80 €",05-07-2018,26-01-2017,365 dias,"Portugal, Coimbra, Coimbra",Artigo 258.º do Código dos Contratos Públicos,31-12-2017,"210.666,80 €",,,,1481309,CP 2015/35 - Acordo quadro para fornecimento de bens e prestação de serviços de Diálise Peritoneal às Instituições e Serviços do Serviço Nacional de Saúde,FALSE
040103962016-Acido Quenodesoxicolico 250mg caps,Ajuste Direto Regime Geral,Aquisição de bens móveis,"33698000-9, Produtos para fins clínicos","Centro Hospitalar e Universitário de Coimbra, E. P. E. (510103448)",JUERS PHARMA (DE11246793),"87.000,00 €",05-07-2018,10-02-2016,365 dias,"Portugal, Coimbra, Coimbra","Artigo 24.º, n.º 1, alínea e) do Código dos Contratos Públicos",31-12-2016,"87.000,00 €",,,,Não aplicável.,Não aplicável.,FALSE
"040104312016-TOCILIZUMAB 162MG/0,9ML SOL INJ SER 0,9ML SC",Ajuste Direto Regime Geral,Aquisição de bens móveis,"33698000-9, Produtos para fins clínicos","Centro Hospitalar e Universitário de Coimbra, E. P. E. (510103448)","ROCHE FARMACEUTICA QUIMICA, LDA (500233810)","25.804,50 €",05-07-2018,25-02-2016,365 dias,"Portugal, Coimbra, Coimbra","Artigo 24.º, n.º 1, alínea e) do Código dos Contratos Públicos",31-12-2016,"25.804,50 €",,,,Não aplicável.,Não aplicável.,FALSE
"50106852017 Aquisição de Medicamentos desencadeada pela SPMS, no âmbito do Despacho 1571/B de 2016, ao abrigo do Acordo Quadro 2014/50, Ref.ª P259-AC-2017-73  ",Ao abrigo de acordo-quadro (art.º 259.º),Aquisição de bens móveis,"33698000-9, Produtos para fins clínicos","Centro Hospitalar e Universitário de Coimbra, E. P. E. (510103448)","Merck Sharp & Dohme, Lda. (500191360)","529.040,00 €",05-07-2018,18-05-2017,365 dias,"Portugal, Coimbra, Coimbra",Artigo 259.º do Código dos Contratos Públicos,31-12-2017,"529.040,00 €",,,,2766247,"Aquisição de Medicamentos desencadeada pela SPMS, no âmbito do Despacho 1571/B de 2016, ao abrigo do Acordo Quadro 2014/50, Ref.ª P259-AC-2017-73 ",FALSE
040104022016-LOMUSTINA 40 MG CAPS,Ajuste Direto Regime Geral,Aquisição de bens móveis,"33698000-9, Produtos para fins clínicos","Centro Hospitalar e Universitário de Coimbra, E. P. E. (510103448)",MEDAC GESELLSCHAFT FUR KLINISCHE SPEZIALPRAPARATE (980369959),"4.692,00 €",05-07-2018,12-02-2016,365 dias,"Portugal, Coimbra, Coimbra","Artigo 24.º, n.º 1, alínea e) do Código dos Contratos Públicos",31-12-2016,"4.692,00 €",,,,Não aplicável.,Não aplicável.,FALSE
050106812017 Compras Centralizadas SPMS -BIOGEN -AD-AC2017-33,Ajuste Direto Regime Geral,Aquisição de bens móveis,"33600000-6, Produtos farmacêuticos","Centro Hospitalar e Universitário de Coimbra, E. P. E. (510103448)","BIOGEN PORTUGAL, SOC FARMACÊUTICA, UNIPESSOAL (506415740)","583.306,82 €",03-07-2018,23-05-2017,365 dias,"Portugal, Coimbra, Coimbra","Artigo 24.º, n.º 1, alínea e) do Código dos Contratos Públicos",31-12-2017,"583.306,82 €",,,,Não aplicável.,Não aplicável.,FALSE
"050105292017 Aquisição de Medicamentos desencadeada pela SPMS, no âmbito do Despacho 1571/B de 2016, ao abrigo do Acordo Quadro 2015/6, Ref.ª P259-AC-2017-35  ",Ao abrigo de acordo-quadro (art.º 259.º),Aquisição de bens móveis,"33600000-6, Produtos farmacêuticos","Centro Hospitalar e Universitário de Coimbra, E. P. E. (510103448)","Teva Pharma, Lda. (507045491)","924.613,95 €",03-07-2018,18-05-2017,365 dias,"Portugal, Coimbra, Coimbra",Artigo 259.º do Código dos Contratos Públicos,31-12-2017,"924.613,95 €",,,,2765660,"Aquisição de Medicamentos desencadeada pela SPMS, no âmbito do Despacho 1571/B de 2016, ao abrigo do Acordo Quadro 2015/6, Ref.ª P259-AC-2017-35 ",FALSE
CATETER FOGARTY,Ajuste Direto Regime Geral,Aquisição de bens móveis,"33000000-0, Equipamento médico, medicamentos e produtos para cuidados pessoais","Centro Hospitalar e Universitário de Coimbra, E. P. E. (510103448)",ENDOTÉCNICA - MATERIAL CIRÚRGICO LDA (503818348),"19.274,00 €",03-07-2018,03-03-2018,180 dias,"Portugal, Coimbra, Coimbra","Artigo 24.º, n.º 1, alínea e) do Código dos Contratos Públicos","","",,,,Não aplicável.,Não aplicável.,FALSE
 -Outro Material de Consumo Clínico *Luva Protecção HIV; Máscaras Cirúrgicas para Procedimentos Laser; Protecção para Sonda Ecógrafo; Máscaras Cirúrgicas; Barretes ,Ajuste Direto Regime Geral,Aquisição de bens móveis,"33000000-0, Equipamento médico, medicamentos e produtos para cuidados pessoais","Centro Hospitalar e Universitário de Coimbra, E. P. E. (510103448)","MOLNLYCKE HEALTH CARE - COM. PROD. HOSPITALARES , LDA (511101066)","43.688,50 €",03-07-2018,22-01-2018,180 dias,"Portugal, Coimbra, Coimbra","Artigo 24.º, n.º 1, alínea e) do Código dos Contratos Públicos","","",,,,Não aplicável.,Não aplicável.,FALSE
 Outro Material de Consumo Clínico * Videos Laringoscópio  Descartáveis ; Contentores de Recolha de Residuos Cortantes / Perfurantes; Batas Descartáveis Não Esterilizadas,Ajuste Direto Regime Geral,Aquisição de bens móveis,"33000000-0, Equipamento médico, medicamentos e produtos para cuidados pessoais","Centro Hospitalar e Universitário de Coimbra, E. P. E. (510103448)",OVERPHARMA - Produtos Médicos e Farmacêuticos; Lda (505792362),"74.887,09 €",03-07-2018,25-01-2018,180 dias,"Portugal, Coimbra, Coimbra","Artigo 24.º, n.º 1, alínea e) do Código dos Contratos Públicos","","",,,,Não aplicável.,Não aplicável.,FALSE
 - Outro Material de Consumo Clínico * Termistor Reutilizável; Filtros Bacterianos; Mascaras descartáveis para VNI,Ajuste Direto Regime Geral,Aquisição de bens móveis,"33000000-0, Equipamento médico, medicamentos e produtos para cuidados pessoais","Centro Hospitalar e Universitário de Coimbra, E. P. E. (510103448)",Linde Saúde; Lda (500125546),"19.369,47 €",03-07-2018,07-02-2018,180 dias,"Portugal, Coimbra, Coimbra","Artigo 24.º, n.º 1, alínea e) do Código dos Contratos Públicos","","",,,,Não aplicável.,Não aplicável.,FALSE
040124492017LENALIDOMIDA 25 MG CÁPS,Ajuste Direto Regime Geral,Aquisição de bens móveis,"33698000-9, Produtos para fins clínicos","Centro Hospitalar e Universitário de Coimbra, E.P. (510103448)",CELGENE SOCIEDADE UNIPESSOAL LDA (507791690),"102.925,64 €",03-07-2018,08-05-2017,365 dias,"Portugal, Coimbra, Coimbra","Artigo 24.º, n.º 1, alínea e) do Código dos Contratos Públicos",31-12-2017,"102.925,64 €",,,,Não aplicável.,Não aplicável.,FALSE
Outro Material de Consumo Clínico * Cuvetes; Sacos  Aspiração Bronquica; Almofada adesiva Gel; Copo Condensado;  Filtro Ar para Incubadora; Proteção para Sonda Temperatura; Sensores ; Mangueira de Conexão,Ajuste Direto Regime Geral,Aquisição de bens móveis,"33000000-0, Equipamento médico, medicamentos e produtos para cuidados pessoais","Centro Hospitalar e Universitário de Coimbra, E. P. E. (510103448)",Drager Portugal;Lda (508771323),"36.935,00 €",03-07-2018,23-02-2018,180 dias,"Portugal, Coimbra, Coimbra","Artigo 24.º, n.º 1, alínea e) do Código dos Contratos Públicos","","",,,,Não aplicável.,Não aplicável.,FALSE
040122522017 lenalidomida 25mg caps.,Ajuste Direto Regime Geral,Aquisição de bens móveis,"33600000-6, Produtos farmacêuticos","Centro Hospitalar e Universitário de Coimbra, E. P. E. (510103448)",CELGENE SOCIEDADE UNIPESSOAL LDA (507791690),"200.434,14 €",02-07-2018,31-03-2017,365 dias,"Portugal, Coimbra, Coimbra","Artigo 24.º, n.º 1, alínea e) do Código dos Contratos Públicos",31-12-2017,"200.434,14 €",,,,Não aplicável.,Não aplicável.,FALSE
040122352017 LENALIDOMIDA 25MG CAPS,Ajuste Direto Regime Geral,Aquisição de bens móveis,"33600000-6, Produtos farmacêuticos","Centro Hospitalar e Universitário de Coimbra, E. P. E. (510103448)",CELGENE SOCIEDADE UNIPESSOAL LDA (507791690),"97.508,50 €",02-07-2018,28-03-2017,365 dias,"Portugal, Coimbra, Coimbra","Artigo 24.º, n.º 1, alínea e) do Código dos Contratos Públicos",31-12-2017,"97.508,50 €",,,,Não aplicável.,Não aplicável.,FALSE
040101342017 AQUISIÇÃO 3 MESES MEDICAMENTOS DESPACHO 1571-B/2016,Ajuste Direto Regime Geral,Aquisição de bens móveis,"33698000-9, Produtos para fins clínicos","Centro Hospitalar e Universitário de Coimbra, E.P. (510103448)",CELGENE SOCIEDADE UNIPESSOAL LDA (507791690),"195.017,00 €",02-07-2018,14-04-2017,365 dias,"Portugal, Coimbra, Coimbra","Artigo 24.º, n.º 1, alínea e) do Código dos Contratos Públicos",31-12-2017,"195.017,00 €",,,,Não aplicável.,Não aplicável.,FALSE
050106552017 COMPRAS CENTRALIZADAS SPMS-CELGENE- AD-AC-2017-45,Ajuste Direto Regime Geral,Aquisição de bens móveis,"33600000-6, Produtos farmacêuticos","Centro Hospitalar e Universitário de Coimbra, E. P. E. (510103448)",CELGENE SOCIEDADE UNIPESSOAL LDA (507791690),"953.416,46 €",02-07-2018,14-06-2017,365 dias,"Portugal, Coimbra, Coimbra","Artigo 24.º, n.º 1, alínea e) do Código dos Contratos Públicos",31-12-2017,"953.416,46 €",,,,Não aplicável.,Não aplicável.,FALSE
050106542017 Aquisição de Medicamentos desencadeada pela SPMS no âmbito do Despacho 1571-B/2016,Ajuste Direto Regime Geral,Aquisição de bens móveis,"33600000-6, Produtos farmacêuticos","Centro Hospitalar e Universitário de Coimbra, E. P. E. (510103448)",CELGENE SOCIEDADE UNIPESSOAL LDA (507791690),"748.549,86 €",02-07-2018,30-05-2017,365 dias,"Portugal, Coimbra, Coimbra","Artigo 24.º, n.º 1, alínea e) do Código dos Contratos Públicos",31-12-2017,"748.549,86 €",,,,Não aplicável.,Não aplicável.,FALSE
-Placas,Ajuste Direto Regime Geral,Aquisição de bens móveis,"33000000-0, Equipamento médico, medicamentos e produtos para cuidados pessoais","Centro Hospitalar e Universitário de Coimbra, E. P. E. (510103448)","ZIMMER BIOMET PORTUGAL, UNIPESSOAL LDA (500254990)","5.880,00 €",02-07-2018,04-06-2018,8 dias,"Portugal, Coimbra, Coimbra","Artigo 24.º, n.º 1, alínea e), subalínea ii) do Código dos Contratos Públicos","","",,,,Não aplicável.,Não aplicável.,FALSE
 Outro Material de Consumo Clínico *Cabo reutilizável para Placa de Bisturi; Ventosas Descartáveis; Silicone em Spray; Fato Terapêutico para Equipamento Foto Terapia; Sacos de Borracha para Gelo,Ajuste Direto Regime Geral,Aquisição de bens móveis,"33000000-0, Equipamento médico, medicamentos e produtos para cuidados pessoais","Centro Hospitalar e Universitário de Coimbra, E. P. E. (510103448)","Bacelar & Irmão, Lda (500532818)","9.072,60 €",02-07-2018,25-01-2018,180 dias,"Portugal, Coimbra, Coimbra","Artigo 24.º, n.º 1, alínea e) do Código dos Contratos Públicos","","",,,,Não aplicável.,Não aplicável.,FALSE
 OUTRO MATERIAL DE CONSUMO * Curetas; Laminas Dermátomo Manual; Anuscópios; Kits Nebulizadores ; Máscars Cirúrgicas; Barretes para Homem,Ajuste Direto Regime Geral,Aquisição de bens móveis,"33000000-0, Equipamento médico, medicamentos e produtos para cuidados pessoais","Centro Hospitalar e Universitário de Coimbra, E. P. E. (510103448)",HR Hospitalar; Lda (501895558),"4.141,00 €",02-07-2018,18-01-2018,180 dias,"Portugal, Coimbra, Coimbra","Artigo 24.º, n.º 1, alínea e) do Código dos Contratos Públicos","","",,,,Não aplicável.,Não aplicável.,FALSE
040000852017 Reagentes para o Serviço de Patologia Clinica - Urgência,Ajuste Direto Regime Geral,Aquisição de bens móveis,"33696500-0, Reagentes de laboratório","Centro Hospitalar e Universitário de Coimbra, E.P. (510103448)","SIEMENS  HEALTHCARE , LDA (507925173)","270.475,74 €",02-07-2018,07-02-2017,365 dias,"Portugal, Coimbra, Coimbra","Artigo 26.º, n.º 1, alínea a) do Código dos Contratos Públicos",31-12-2017,"270.475,74 €",,,,Não aplicável.,Não aplicável.,FALSE
"090500012018 - Bolsas, capas e cd's impressos",Consulta Prévia,Aquisição de bens móveis,"30000000-9, Máquinas, equipamento e material de escritório e de informática, excepto mobiliário e pacotes de programas (software)","Centro Hospitalar e Universitário de Coimbra, E. P. E. (510103448)","ENVELOPRINTER,LDA (508469830)","1.675,00 €",02-07-2018,11-06-2018,180 dias,"Portugal, Coimbra, Coimbra","Artigo 20.º, n.º 1, alínea c) do Código dos Contratos Públicos","","",,,,Não aplicável.,Não aplicável.,FALSE
