Objeto do Contrato,Tipo de Procedimento,Tipo(s) de Contrato,CPVs,Entidade(s) Adjudicante(s),Entidade(s) Adjudicatária(s),Preço Contratual,Data de Publicação,Data de Celebração do Contrato,Prazo de Execução,Local de Execução,Fundamentação,Data de Fecho do Contrato,Preço Total Efetivo,Causas das Alterações ao Prazo,Causas das Alterações ao Preço,Estado,N.º registo do Acordo Quadro,Descrição do Acordo Quadro,Procedimento Centralizado
040227162017,Ajuste Direto Regime Geral,Aquisição de bens móveis,"33000000-0, Equipamento médico, medicamentos e produtos para cuidados pessoais","Centro Hospitalar e Universitário de Coimbra, E. P. E. (510103448)","MEDTRONIC PORTUGAL, LDA (504223933)","49.447,20 €",30-10-2017,30-10-2017,30 dias,"Portugal, Coimbra, Coimbra","Artigo 24.º, n.º 1, alínea e) do Código dos Contratos Públicos","","",,"",,Não aplicável.,Não aplicável.,FALSE
procedimento n.º 04 00 0196 2016 - Programas de Avaliação Externa da Qualidade Analítica,Ajuste Direto Regime Geral,Aquisição de bens móveis,"33696500-0, Reagentes de laboratório","Centro Hospitalar e Universitário de Coimbra, E.P. (510103448)","Biognóstica (504441256), Irlandox, Laboratórios Química Analítica, Ldª (502515619), BIO-RAD LABORATORIES, LDA. (501301321), BioPortugal - Quimico farmaceutica, Lda. (502380543)","41.775,35 €",30-10-2017,11-03-2016,365 dias,"Portugal, Coimbra, Coimbra","Artigo 21.º, n.º 1, alínea a) do Código dos Contratos Públicos",30-12-2016,"41.775,35 €",,"",,Não aplicável.,Não aplicável.,FALSE
Empreitada de recuperação estrutural do corpo anexo do edifício da Pneumologia/Cinesiterapia no Hospital Geral do CHUC,Ajuste Direto Regime Geral,Empreitadas de obras públicas,"45000000-7, Construção","Centro Hospitalar e Universitário de Coimbra, E. P. E. (510103448)",popicel (504010735),"50.253,65 €",27-10-2017,28-06-2017,90 dias,"Portugal, Coimbra, Coimbra","Artigo 19.º, alínea a) do Código dos Contratos Públicos","","",,"",,Não aplicável.,Não aplicável.,FALSE
Instalação de grupo escultórico no exterior do Hospital Pediátrico,Ajuste Direto Regime Geral,Empreitadas de obras públicas,"45000000-7, Construção","Centro Hospitalar e Universitário de Coimbra, E. P. E. (510103448)",popicel (504010735),"12.920,00 €",27-10-2017,18-05-2017,15 dias,"Portugal, Coimbra, Coimbra","Artigo 19.º, alínea a) do Código dos Contratos Públicos","","",,"",,Não aplicável.,Não aplicável.,FALSE
Adaptação de instalações técnicas diversas - Serviços de Medicina Nuclear e Transplantação Hepática,Ajuste Direto Regime Geral,Empreitadas de obras públicas,"45000000-7, Construção","Centro Hospitalar e Universitário de Coimbra, E. P. E. (510103448)",popicel (504010735),"10.230,00 €",27-10-2017,09-03-2017,20 dias,"Portugal, Coimbra, Coimbra","Artigo 19.º, alínea a) do Código dos Contratos Públicos","","",,"",,Não aplicável.,Não aplicável.,FALSE
procedimento n.º 04 00 0114 2016 - reagentes citogenetica,Ajuste Direto Regime Geral,Aquisição de bens móveis,"33696500-0, Reagentes de laboratório","Centro Hospitalar e Universitário de Coimbra, E.P. (510103448)","Alfagene - Novas Tecnologias das Ciências da Vida, Lda.	 (503387398)","4.794,73 €",27-10-2017,13-01-2016,365 dias,"Portugal, Coimbra, Coimbra","Artigo 26.º, n.º 1, alínea a) do Código dos Contratos Públicos",13-01-2016,"4.794,73 €",,"",,Não aplicável.,Não aplicável.,FALSE
procedimento n.º 04 00 0113 2017 - reagentes citogenética,Ajuste Direto Regime Geral,Aquisição de bens móveis,"33696500-0, Reagentes de laboratório","Centro Hospitalar e Universitário de Coimbra, E. P. E. (510103448)","SIGMA - ALDRICH QUIMICA, S.L. (980148820)","284,10 €",27-10-2017,13-01-2016,365 dias,"Portugal, Coimbra, Coimbra","Artigo 26.º, n.º 1, alínea a) do Código dos Contratos Públicos",30-12-2016,"284,10 €",,"",,Não aplicável.,Não aplicável.,FALSE
procedimento n. º 04 00 0112 2016 -reagentes citogenetica - vwr,Ajuste Direto Regime Geral,Aquisição de bens móveis,"33696500-0, Reagentes de laboratório","Centro Hospitalar e Universitário de Coimbra, E.P. (510103448)","VWR INTERNATIONAL - MATERIAL DE LABORATÓRIO, LDA. (503842770)","298,20 €",27-10-2017,13-01-2016,365 dias,"Portugal, Coimbra, Coimbra","Artigo 26.º, n.º 1, alínea a) do Código dos Contratos Públicos",30-12-2016,"298,20 €",,"",,Não aplicável.,Não aplicável.,FALSE
procedimento n.º 04 00 0111 2016 - reagentes citogenetica - olympus,Ajuste Direto Regime Geral,Aquisição de bens móveis,"33696500-0, Reagentes de laboratório","Centro Hospitalar e Universitário de Coimbra, E.P. (510103448)",Olympus Ibéria SAU (980474710),"631,20 €",27-10-2017,13-01-2016,365 dias,"Portugal, Coimbra, Coimbra","Artigo 26.º, n.º 1, alínea a) do Código dos Contratos Públicos",30-12-2016,"631,20 €",,"",,Não aplicável.,Não aplicável.,FALSE
procedimento n.º 040000862017 - Reagentes p/Unidade Laboratorial Hematologia HPED / Hosp. Geral,Ajuste Direto Regime Geral,Aquisição de bens móveis,"33696500-0, Reagentes de laboratório","Centro Hospitalar e Universitário de Coimbra, E.P. (510103448)",Horiba ABX SAS - Portugal (980158583),"26.534,76 €",26-10-2017,24-02-2016,365 dias,"Portugal, Coimbra, Coimbra","Artigo 26.º, n.º 1, alínea a) do Código dos Contratos Públicos",30-12-2016,"26.534,76 €",,"",,Não aplicável.,Não aplicável.,FALSE
procedimento n.º 040000852016 - Reagentes p/Unidade Laboratorial Hematologia HPED / Hosp. Geral,Ajuste Direto Regime Geral,Aquisição de bens móveis,"33696500-0, Reagentes de laboratório","Centro Hospitalar e Universitário de Coimbra, E.P. (510103448)","ABBOTT LABORATORIOS, LDA (500006148)","51.530,15 €",26-10-2017,23-02-2016,365 dias,"Portugal, Coimbra, Coimbra","Artigo 26.º, n.º 1, alínea a) do Código dos Contratos Públicos",30-12-2016,"51.530,15 €",,"",,Não aplicável.,Não aplicável.,FALSE
040225932017,Ajuste Direto Regime Geral,Aquisição de bens móveis,"33000000-0, Equipamento médico, medicamentos e produtos para cuidados pessoais","Centro Hospitalar e Universitário de Coimbra, E. P. E. (510103448)","JOHNSON & JOHNSON, LDA (500153370)","13.050,00 €",25-10-2017,19-10-2017,30 dias,"Portugal, Coimbra, Coimbra","Artigo 24.º, n.º 1, alínea e) do Código dos Contratos Públicos","","",,"",,Não aplicável.,Não aplicável.,FALSE
Aquisição de 4 sistemas de aquecimento,Ajuste Direto Regime Geral,Aquisição de bens móveis,"31000000-6, Maquinaria, aparelhagem, equipamento e consumíveis eléctricos; iluminação","Centro Hospitalar e Universitário de Coimbra, E. P. E. (510103448)","IRTEL, LDA: (501583033)","300,00 €",25-10-2017,19-10-2017,5 dias,"Portugal, Coimbra, Coimbra","Artigo 20.º, n.º 1, alínea a) do Código dos Contratos Públicos","","",,"",,Não aplicável.,Não aplicável.,FALSE
procediento n.º 040000712016 - Reagentes Unidade Laboratorial Hematologia - Horiba,Ajuste Direto Regime Geral,Aquisição de bens móveis,"33696500-0, Reagentes de laboratório","Centro Hospitalar e Universitário de Coimbra, E.P. (510103448)",Horiba ABX SAS - Portugal (980158583),"28.721,10 €",24-10-2017,02-02-2016,365 dias,"Portugal, Coimbra, Coimbra","Artigo 26.º, n.º 1, alínea a) do Código dos Contratos Públicos",30-12-2016,"28.721,10 €",,"",,Não aplicável.,Não aplicável.,FALSE
MATERIAL PARA SERVIÇO CARDIOLOGIA,Ajuste Direto Regime Geral,Aquisição de bens móveis,"33000000-0, Equipamento médico, medicamentos e produtos para cuidados pessoais","Centro Hospitalar e Universitário de Coimbra, E. P. E. (510103448)","MEDTRONIC PORTUGAL, LDA (504223933)","41.600,00 €",24-10-2017,06-07-2017,20 dias,"Portugal, Coimbra, Coimbra","Artigo 24.º, n.º 1, alínea e) do Código dos Contratos Públicos",31-12-2017,"41.600,00 €",,"",,Não aplicável.,Não aplicável.,FALSE
CATETER ECO ENTRACORONARIO,Ajuste Direto Regime Geral,Aquisição de bens móveis,"33000000-0, Equipamento médico, medicamentos e produtos para cuidados pessoais","Centro Hospitalar e Universitário de Coimbra, E.P. (510103448)",VOLCANO EUROPE (BE59842345),"9.000,00 €",24-10-2017,11-07-2017,20 dias,"Portugal, Coimbra, Coimbra","Artigo 24.º, n.º 1, alínea e) do Código dos Contratos Públicos",31-12-2017,"9.000,00 €",,"",,Não aplicável.,Não aplicável.,FALSE
Fornecimento e montagem de barras laterais para o serviço de Hematologia B,Ajuste Direto Regime Geral,Aquisição de bens móveis,"39000000-2, Mobiliário (incl. de escritório), acessórios, aparelhos domésticos (excl. iluminação) e produtos de limpeza","Centro Hospitalar e Universitário de Coimbra, E.P. (510103448)",Promeicentro (506470113),"68,86 €",23-10-2017,09-10-2017,30 dias,"Portugal, Coimbra, Coimbra","Artigo 20.º, n.º 1, alínea a) do Código dos Contratos Públicos","","",,"",,Não aplicável.,Não aplicável.,FALSE
Aquisição de 10 computadores completos para o serviço de urgencia,Ajuste Direto Regime Geral,Aquisição de bens móveis,"30000000-9, Máquinas, equipamento e material de escritório e de informática, excepto mobiliário e pacotes de programas (software)","Centro Hospitalar e Universitário de Coimbra, E.P. (510103448)",Normatica (501782230),"7.429,55 €",23-10-2017,09-10-2017,20 dias,"Portugal, Coimbra, Coimbra","Artigo 20.º, n.º 1, alínea a) do Código dos Contratos Públicos","","",,"",,Não aplicável.,Não aplicável.,FALSE
Aquisição de 1 Rinolaringofibroscópio para o serviço de Otorrinolaringologia,Ajuste Direto Regime Geral,Aquisição de bens móveis,"33000000-0, Equipamento médico, medicamentos e produtos para cuidados pessoais","Centro Hospitalar e Universitário de Coimbra, E. P. E. (510103448)",Teprel- SA (502262184),"8.408,00 €",23-10-2017,10-10-2017,30 dias,"Portugal, Coimbra, Coimbra","Artigo 20.º, n.º 1, alínea a) do Código dos Contratos Públicos","","",,"",,Não aplicável.,Não aplicável.,FALSE
Aquisição de intensificador de imagem com arco em C para a UCA do HG,Ajuste Direto Regime Geral,Aquisição de bens móveis,"38000000-5, Equipamento laboratorial, óptico e de precisão (exc. óculos)","Centro Hospitalar e Universitário de Coimbra, E. P. E. (510103448)",siemens Healthcare (507925173),"60.000,00 €",23-10-2017,13-10-2017,19 dias,"Portugal, Coimbra, Coimbra","Artigo 20.º, n.º 1, alínea a) do Código dos Contratos Públicos","","",,"",,Não aplicável.,Não aplicável.,FALSE
Aquisição de 1 estufa de incubação - Unidade de Medicina Materno fetal,Ajuste Direto Regime Geral,Aquisição de bens móveis,"33000000-0, Equipamento médico, medicamentos e produtos para cuidados pessoais","Centro Hospitalar e Universitário de Coimbra, E. P. E. (510103448)",PROMEICENTRO (506470113),"995,40 €",23-10-2017,16-10-2017,30 dias,"Portugal, Coimbra, Coimbra","Artigo 20.º, n.º 1, alínea a) do Código dos Contratos Públicos","","",,"",,Não aplicável.,Não aplicável.,FALSE
Aquisição de diverso equipamento médico cirurgico,Ajuste Direto Regime Geral,Aquisição de bens móveis,"33000000-0, Equipamento médico, medicamentos e produtos para cuidados pessoais","Centro Hospitalar e Universitário de Coimbra, E.P. (510103448)",TEPREL SA (502262184),"13.185,53 €",23-10-2017,20-10-2017,19 dias,"Portugal, Coimbra, Coimbra","Artigo 20.º, n.º 1, alínea a) do Código dos Contratos Públicos","","",,"",,Não aplicável.,Não aplicável.,FALSE
MATERIAL TRATAMENTO,Ajuste Direto Regime Geral,Aquisição de bens móveis,"33000000-0, Equipamento médico, medicamentos e produtos para cuidados pessoais","Centro Hospitalar e Universitário de Coimbra, E.P. (510103448)",TERUMO BCT PORTUGAL UNIPESSOAL LDA (510627048),"67.392,00 €",23-10-2017,11-05-2017,365 dias,"Portugal, Coimbra, Coimbra","Artigo 24.º, n.º 1, alínea e) do Código dos Contratos Públicos",31-12-2017,"67.392,00 €",,"",,Não aplicável.,Não aplicável.,FALSE
MATERIAL TRATAMENTO,Ajuste Direto Regime Geral,Aquisição de bens móveis,"33000000-0, Equipamento médico, medicamentos e produtos para cuidados pessoais","Centro Hospitalar e Universitário de Coimbra, E.P. (510103448)","TELEFLEX MEDICAL, SAU (EX-ARROW IBÉRICA,  SA) (980249783)","8.080,90 €",23-10-2017,03-05-2017,365 dias,"Portugal, Coimbra, Coimbra","Artigo 24.º, n.º 1, alínea e) do Código dos Contratos Públicos",31-12-2017,"54.749,11 €",,AQUISIÇÃO PARCIAL,,Não aplicável.,Não aplicável.,FALSE
MATERIAL TRATAMENTO,Ajuste Direto Regime Geral,Aquisição de bens móveis,"33000000-0, Equipamento médico, medicamentos e produtos para cuidados pessoais","Centro Hospitalar e Universitário de Coimbra, E. P. E. (510103448)","ALVES & COMPANHIA (IRMÃOS), LDA (500310068)","20.828,00 €",23-10-2017,22-05-2017,365 dias,"Portugal, Coimbra, Coimbra","Artigo 24.º, n.º 1, alínea e) do Código dos Contratos Públicos",31-12-2017,"3.100,00 €",,AQUISIÇÃO PARCIAL,,Não aplicável.,Não aplicável.,FALSE
MATERIAL TRATAMENTO,Ajuste Direto Regime Geral,Aquisição de bens móveis,"33000000-0, Equipamento médico, medicamentos e produtos para cuidados pessoais","Centro Hospitalar e Universitário de Coimbra, E. P. E. (510103448)","B BRAUN MEDICAL, LDA (501506543)","7.583,00 €",23-10-2017,11-05-2017,365 dias,"Portugal, Coimbra, Coimbra","Artigo 24.º, n.º 1, alínea e) do Código dos Contratos Públicos",31-12-2017,"2.483,00 €",,AQUISIÇÃO PARCIAL,,Não aplicável.,Não aplicável.,FALSE
040227212017,Ajuste Direto Regime Geral,Aquisição de bens móveis,"33000000-0, Equipamento médico, medicamentos e produtos para cuidados pessoais","Centro Hospitalar e Universitário de Coimbra, E. P. E. (510103448)","MEDTRONIC PORTUGAL, LDA (504223933)","15.546,00 €",23-10-2017,23-10-2017,30 dias,"Portugal, Coimbra, Coimbra","Artigo 24.º, n.º 1, alínea e) do Código dos Contratos Públicos","","",,"",,Não aplicável.,Não aplicável.,FALSE
040225912017,Ajuste Direto Regime Geral,Aquisição de bens móveis,"33000000-0, Equipamento médico, medicamentos e produtos para cuidados pessoais","Centro Hospitalar e Universitário de Coimbra, E. P. E. (510103448)","MEDTRONIC PORTUGAL, LDA (504223933)","17.220,00 €",23-10-2017,23-10-2017,30 dias,"Portugal, Coimbra, Coimbra","Artigo 24.º, n.º 1, alínea e) do Código dos Contratos Públicos","","",,"",,Não aplicável.,Não aplicável.,FALSE
040225922017,Ajuste Direto Regime Geral,Aquisição de bens móveis,"33000000-0, Equipamento médico, medicamentos e produtos para cuidados pessoais","Centro Hospitalar e Universitário de Coimbra, E. P. E. (510103448)","MEDTRONIC PORTUGAL, LDA (504223933)","20.088,00 €",23-10-2017,23-10-2017,30 dias,"Portugal, Coimbra, Coimbra","Artigo 24.º, n.º 1, alínea e) do Código dos Contratos Públicos","","",,"",,Não aplicável.,Não aplicável.,FALSE
