Objeto do Contrato,Tipo de Procedimento,Tipo(s) de Contrato,CPVs,Entidade(s) Adjudicante(s),Entidade(s) Adjudicatária(s),Preço Contratual,Data de Publicação,Data de Celebração do Contrato,Prazo de Execução,Local de Execução,Fundamentação,Data de Fecho do Contrato,Preço Total Efetivo,Causas das Alterações ao Prazo,Causas das Alterações ao Preço,Estado,N.º registo do Acordo Quadro,Descrição do Acordo Quadro,Procedimento Centralizado
Aquisição de Seringas Infusoras p/ Medicamento para o Centro hospitalar de S. João E.P.E.,Ajuste Direto Regime Geral,Aquisição de bens móveis,"33140000-3, Material médico de consumo","Centro Hospitalar de São João, E. P. E. (509821197)","B. Braun Medical, Lda (501506543)","45.940,50 €",31-03-2016,13-01-2016,353 dias,"Portugal, Porto, Porto","Artigo 20.º, n.º 1, alínea a) do Código dos Contratos Públicos",,,,,,Não aplicável.,Não aplicável.,FALSE
Aquisição de Dispositivos para Embolização Periférica para o Centro Hospitalar do S. João,Ajuste Direto Regime Geral,Aquisição de bens móveis,"33140000-3, Material médico de consumo","Centro Hospitalar de São João, E. P. E. (509821197)","St. Jude Medical Portugal, Lda. (504180746)","47.500,00 €",31-03-2016,13-01-2016,353 dias,"Portugal, Porto, Porto","Artigo 20.º, n.º 1, alínea a) do Código dos Contratos Públicos",,,,,,Não aplicável.,Não aplicável.,FALSE
Aquisição de Óculos para o Centro Hospitalar de S. João E.P.E.,Ajuste Direto Regime Geral,Aquisição de bens móveis,"33734000-4, Óculos","Centro Hospitalar de São João, E. P. E. (509821197)","Imaginárioprisma - Óptica, Lda (510680593)","25.580,00 €",31-03-2016,04-02-2016,331 dias,"Portugal, Porto, Porto","Artigo 20.º, n.º 1, alínea a) do Código dos Contratos Públicos",,,,,,Não aplicável.,Não aplicável.,FALSE
"Aquisição de Esponjas Impregnadas com ≥ 20ml de Clorohexidina ≥ 2% para o Centro Hospitalar de S. João, E.P.E. ",Ajuste Direto Regime Geral,Aquisição de bens móveis,"33700000-7, Produtos para cuidados pessoais","Centro Hospitalar de São João, E. P. E. (509821197)","Factor Plus - Produtos Médicos e Hospitalares, Lda (502810645)","13.500,00 €",31-03-2016,04-01-2016,362 dias,"Portugal, Porto, Porto","Artigo 20.º, n.º 1, alínea a) do Código dos Contratos Públicos",,,,,,Não aplicável.,Não aplicável.,FALSE
Aquisição de Balões Coronários de Muito Alta Pressão,Ajuste Direto Regime Geral,Aquisição de bens móveis,"33141210-5, Cateteres de balão","Centro Hospitalar de São João, E. P. E. (509821197)","Socime II -  Produtos Médicos, Lda (504453939)","6.000,00 €",24-03-2016,12-01-2016,354 dias,"Portugal, Porto, Porto","Artigo 20.º, n.º 1, alínea a) do Código dos Contratos Públicos",,,,,,Não aplicável.,Não aplicável.,FALSE
Aquisição de Cages e Substituto Ósseo,Ajuste Direto Regime Geral,Aquisição de bens móveis,"33169000-2, Material cirúrgico","Centro Hospitalar de São João, E. P. E. (509821197)","Medtronic Portugal, Lda (504223933)","42.000,00 €",24-03-2016,15-01-2016,351 dias,"Portugal, Porto, Porto","Artigo 20.º, n.º 1, alínea a) do Código dos Contratos Públicos",,,,,,Não aplicável.,Não aplicável.,FALSE
Aquisição de Redes para Correção de Prolapso Genital Feminino,Ajuste Direto Regime Geral,Aquisição de bens móveis,"33190000-8, Dispositivos e produtos médicos variados","Centro Hospitalar de São João, E. P. E. (509821197)","American Medical Systems Ibérica, S.L. (980223598)","12.000,00 €",24-03-2016,12-01-2016,354 dias,"Portugal, Porto, Porto","Artigo 20.º, n.º 1, alínea a) do Código dos Contratos Públicos",,,,,,Não aplicável.,Não aplicável.,FALSE
Aquisição de Stents para Bifurcações Coronárias,Ajuste Direto Regime Geral,Aquisição de bens móveis,"33184300-6, Próteses cardíacas","Centro Hospitalar de São João, E. P. E. (509821197)","Lusopalex Unipessoal, Lda (503531588)","25.000,00 €",24-03-2016,22-01-2016,344 dias,"Portugal, Porto, Porto","Artigo 20.º, n.º 1, alínea a) do Código dos Contratos Públicos",,,,,,Não aplicável.,Não aplicável.,FALSE
Aquisição de Tubos Hemocron para o Serviço de Cirurgia Cardiotorácica,Ajuste Direto Regime Geral,Aquisição de bens móveis,"33141600-6, Tubos e sacos de drenagem e respectivos kits","Centro Hospitalar de São João, E. P. E. (509821197)","Medicinália Cormédica, Lda (500684324)","33.425,00 €",24-03-2016,12-01-2016,354 dias,"Portugal, Porto, Porto","Artigo 20.º, n.º 1, alínea a) do Código dos Contratos Públicos",,,,,,Não aplicável.,Não aplicável.,FALSE
Aquisição de Balões Predilatação Coronários tipo “Cutting Balloon”,Ajuste Direto Regime Geral,Aquisição de bens móveis,"33140000-3, Material médico de consumo","Centro Hospitalar de São João, E. P. E. (509821197)","Cardiva Portugal Unipessoal, Lda (508570514)","26.800,00 €",24-03-2016,12-01-2016,354 dias,"Portugal, Porto, Porto","Artigo 20.º, n.º 1, alínea a) do Código dos Contratos Públicos",,,,,,Não aplicável.,Não aplicável.,FALSE
Aquisição de Dispositivos de Contraceção Permanente,Ajuste Direto Regime Geral,Aquisição de bens móveis,"33000000-0, Equipamento médico, medicamentos e produtos para cuidados pessoais","Centro Hospitalar de São João, E. P. E. (509821197)","Bayer Portugal, S.A. (500043256)","33.750,00 €",23-03-2016,05-01-2016,361 dias,"Portugal, Porto, Porto","Artigo 20.º, n.º 1, alínea a) do Código dos Contratos Públicos",,,,,,Não aplicável.,Não aplicável.,FALSE
Aquisição de Geradores de Tecnécio (1500mCi à segunda-feira às 8:00),Ajuste Direto Regime Geral,Aquisição de bens móveis,"33698000-9, Produtos para fins clínicos","Centro Hospitalar de São João, E. P. E. (509821197)","Isótopos e Derivados (Isoder), S.A (502241594)","31.250,00 €",23-03-2016,19-01-2016,347 dias,"Portugal, Porto, Porto","Artigo 20.º, n.º 1, alínea a) do Código dos Contratos Públicos",,,,,,Não aplicável.,Não aplicável.,FALSE
Aquisição Lâminas Rim/Fígado/Estom. Pesquisa de Auto Anticorpos 8P,Ajuste Direto Regime Geral,Aquisição de bens móveis,"33696000-5, Reagentes e meios de contraste","Centro Hospitalar de São João, E. P. E. (509821197)","Isótopos e Derivados  (Isoder), S.A. (502241594)","13.020,00 €",23-03-2016,13-01-2016,353 dias,"Portugal, Porto, Porto","Artigo 20.º, n.º 1, alínea a) do Código dos Contratos Públicos",,,,,,Não aplicável.,Não aplicável.,FALSE
Aquisição de Testes Rápidos para Deteção na Urina de Antigénios da Legionella e de Antigénios de Strep. Pneumoniae,Ajuste Direto Regime Geral,Aquisição de bens móveis,"33696000-5, Reagentes e meios de contraste","Centro Hospitalar de São João, E. P. E. (509821197)","Alere, Lda (502518863)","52.650,00 €",23-03-2016,05-01-2016,361 dias,"Portugal, Porto, Porto","Artigo 20.º, n.º 1, alínea a) do Código dos Contratos Públicos",,,,,,Não aplicável.,Não aplicável.,FALSE
Aquisição de Testes de Serologia EBV+HSV e Rastreio de Hemoglobinas no Serviço de Patologia Clínica,Ajuste Direto Regime Geral,Aquisição de bens móveis,"33696000-5, Reagentes e meios de contraste","Centro Hospitalar de São João, E. P. E. (509821197)","Biorad Laboratories Portugal, Lda (501301321)","30.000,00 €",23-03-2016,13-01-2016,353 dias,"Portugal, Porto, Porto","Artigo 20.º, n.º 1, alínea a) do Código dos Contratos Públicos",,,,,,Não aplicável.,Não aplicável.,FALSE
"Aquisição de Sonda Fast para o Ecógrafo Philips CX50 para a UCIPU do CHSJ, EPE",Ajuste Direto Regime Geral,Aquisição de bens móveis,"33124120-2, Aparelhos de ultra-sons","Centro Hospitalar de São João, E. P. E. (509821197)","Philips Portuguesa, SA (500216843)","9.200,00 €",22-03-2016,22-12-2015,30 dias,"Portugal, Porto, Porto","Artigo 24.º, n.º 1, alínea e) do Código dos Contratos Públicos",,,,,,Não aplicável.,Não aplicável.,FALSE
" Reparação, por substituição de peças, do Microscópio Leica OHS1 do Bloco Neurocirurgia do CHSJ, EPE",Ajuste Direto Regime Geral,Aquisição de bens móveis,"38510000-3, Microscópios","Centro Hospitalar de São João, E. P. E. (509821197)","Leica Microsistemas, Lda. (500301921)","27.900,60 €",22-03-2016,02-09-2015,30 dias,"Portugal, Porto, Porto","Artigo 24.º, n.º 1, alínea e) do Código dos Contratos Públicos",,,,,,Não aplicável.,Não aplicável.,FALSE
"Aquisição de 2 Máquinas de Selar para a Central de Esterilização do CHSJ, EPE",Ajuste Direto Regime Geral,Aquisição de bens móveis,"33191000-5, Aparelhos para esterilização, desinfecção e higiene","Centro Hospitalar de São João, E. P. E. (509821197)",HG Helder Gonçalves Lda. (503855421),"5.713,00 €",21-03-2016,26-11-2015,30 dias,"Portugal, Porto, Porto","Artigo 20.º, n.º 1, alínea a) do Código dos Contratos Públicos",,,,,,Não aplicável.,Não aplicável.,FALSE
"Aquisição de 11 Sistemas de Anestesia com Ventilador para o CHSJ, EPE",Concurso público,Aquisição de bens móveis,"33172100-7, Aparelhos para anestesia","Centro Hospitalar de São João, E. P. E. (509821197)","General Electric Portuguesa, SA (500357129)","330.000,00 €",21-03-2016,20-10-2015,30 dias,"Portugal, Porto, Porto","Artigo 20.º, n.º 1, alínea b) do Código dos Contratos Públicos",,,,,,Não aplicável.,Não aplicável.,FALSE
