Objeto do Contrato,Tipo de Procedimento,Tipo(s) de Contrato,CPVs,Entidade(s) Adjudicante(s),Entidade(s) Adjudicatária(s),Preço Contratual,Data de Publicação,Data de Celebração do Contrato,Prazo de Execução,Local de Execução,Fundamentação,Data de Fecho do Contrato,Preço Total Efetivo,Causas das Alterações ao Prazo,Causas das Alterações ao Preço,Estado,N.º registo do Acordo Quadro,Descrição do Acordo Quadro,Procedimento Centralizado
"CABEÇA (CUPULA) ARTICULADA, FEMURAL E HASTE",Ajuste Direto Regime Geral,Aquisição de bens móveis,"33183200-8, Próteses ortopédicas","Centro Hospitalar Tondela-Viseu, E. P. E. (509822940)",P.H.O.-PROD.HOSPIT.P/ORTOPEDIA (504980580),"22.386,70 €",30-05-2016,28-04-2016,1 dias,"Portugal, Viseu, Viseu","Artigo 24.º, n.º 1, alínea c) do Código dos Contratos Públicos",,,,,,Não aplicável.,Não aplicável.,FALSE
DIVERSAS PULSEIRAS PARA IDENTIFICAÇÃO DE DOENTES,Ajuste Direto Regime Geral,Aquisição de bens móveis,"22455100-5, Pulseiras de identificação","Centro Hospitalar Tondela-Viseu, E. P. E. (509822940)","EZEQUIEL PANAO JORGE, LDA (501412727)","6.562,70 €",30-05-2016,12-05-2016,1 dias,"Portugal, Viseu, Viseu","Artigo 20.º, n.º 1, alínea a) do Código dos Contratos Públicos",,,,,,Não aplicável.,Não aplicável.,FALSE
KIT CATETER VENTRICULAR C/ MICROSENSOR,Ajuste Direto Regime Geral,Aquisição de bens móveis,"33141620-2, Kits médicos","Centro Hospitalar Tondela-Viseu, E. P. E. (509822940)","JOHNSON & JOHNSON, MEDICAL (500153370)","5.500,00 €",30-05-2016,13-04-2016,1 dias,"Portugal, Viseu, Viseu","Artigo 24.º, n.º 1, alínea c) do Código dos Contratos Públicos",,,,,,Não aplicável.,Não aplicável.,FALSE
BALÃO OTW ANGIOPLASTIA,Ajuste Direto Regime Geral,Aquisição de bens móveis,"33111730-7, Material para angioplastia","Centro Hospitalar Tondela-Viseu, E. P. E. (509822940)","MEDTRONIC PORTUGAL, LDA (504223933)","6.000,00 €",27-05-2016,12-04-2016,1 dias,"Portugal, Viseu, Viseu","Artigo 20.º, n.º 1, alínea a) do Código dos Contratos Públicos",,,,,,Não aplicável.,Não aplicável.,FALSE
BALÃO OTW ANGIOPLASTIA,Ajuste Direto Regime Geral,Aquisição de bens móveis,"33111730-7, Material para angioplastia","Centro Hospitalar Tondela-Viseu, E. P. E. (509822940)","CARDINAL HEALTH PORTUGAL 513 UNIPESSOAL, LDA. (513620834)","5.100,00 €",27-05-2016,12-04-2016,1 dias,"Portugal, Viseu, Viseu","Artigo 20.º, n.º 1, alínea a) do Código dos Contratos Públicos",,,,,,Não aplicável.,Não aplicável.,FALSE
DIVERSAS SONDAS (DRENAGEM/ALIMENTAÇÃO),Ajuste Direto Regime Geral,Aquisição de bens móveis,"33141641-5, Sondas","Centro Hospitalar Tondela-Viseu, E. P. E. (509822940)","H.R.- Hospitalar,Lda (501895558)","6.551,10 €",27-05-2016,29-04-2016,1 dias,"Portugal, Viseu, Viseu","Artigo 20.º, n.º 1, alínea a) do Código dos Contratos Públicos",,,,,,Não aplicável.,Não aplicável.,FALSE
MATERIAL APLICADO - COLUNA,Ajuste Direto Regime Geral,Aquisição de bens móveis,"33183100-7, Implantes ortopédicos","Centro Hospitalar Tondela-Viseu, E. P. E. (509822940)","MEDTRONIC PORTUGAL, LDA (504223933)","5.025,00 €",27-05-2016,12-04-2016,1 dias,"Portugal, Viseu, Viseu","Artigo 20.º, n.º 1, alínea a) do Código dos Contratos Públicos",,,,,,Não aplicável.,Não aplicável.,FALSE
BIOMATRIZ COLOGENIO PARA REGENERAÇÃO DA DURA-MAT,Ajuste Direto Regime Geral,Aquisição de bens móveis,"33140000-3, Material médico de consumo","Centro Hospitalar Tondela-Viseu, E. P. E. (509822940)","BAXTER MEDICO FARMACEUTICA,LD (503347345)","9.940,00 €",24-05-2016,13-04-2016,1 dias,"Portugal, Viseu, Viseu","Artigo 24.º, n.º 1, alínea c) do Código dos Contratos Públicos",,,,,,Não aplicável.,Não aplicável.,FALSE
PRÓTESE TOTAL DA ANCA NÃO CIMENTADA,Ajuste Direto Regime Geral,Aquisição de bens móveis,"33183200-8, Próteses ortopédicas","Centro Hospitalar Tondela-Viseu, E. P. E. (509822940)","LIMA IMPLANTES PORTUGAL s.u., Lda. (508634784)","50.000,00 €",24-05-2016,13-04-2016,1 dias,"Portugal, Viseu, Viseu","Artigo 24.º, n.º 1, alínea c) do Código dos Contratos Públicos",,,,,,Não aplicável.,Não aplicável.,FALSE
BATA IRRECUPERÁVEL ESTERILIZADA REFORÇADA COM PUNHO,Ajuste Direto Regime Geral,Aquisição de bens móveis,"33140000-3, Material médico de consumo","Centro Hospitalar Tondela-Viseu, E. P. E. (509822940)","ANASTACIO SALDANHA-UNIP.,LDA (505804441)","7.990,00 €",24-05-2016,18-04-2016,1 dias,"Portugal, Viseu, Viseu","Artigo 24.º, n.º 1, alínea c) do Código dos Contratos Públicos",,,,,,Não aplicável.,Não aplicável.,FALSE
PINÇA CORTE/SELAGEM VASOS (TIROIDE) TIPO MOSQUITO,Ajuste Direto Regime Geral,Aquisição de bens móveis,"33169000-2, Material cirúrgico","Centro Hospitalar Tondela-Viseu, E. P. E. (509822940)","COVIDIEN PORTUGAL-PRODUTOS DE SAÚDE UNIPESSOAL,LDA (503413410)","8.688,60 €",24-05-2016,21-04-2016,1 dias,"Portugal, Viseu, Viseu","Artigo 24.º, n.º 1, alínea c) do Código dos Contratos Públicos",,,,,,Não aplicável.,Não aplicável.,FALSE
