Objeto do Contrato,Tipo de Procedimento,Tipo(s) de Contrato,CPVs,Entidade(s) Adjudicante(s),Entidade(s) Adjudicatária(s),Preço Contratual,Data de Publicação,Data de Celebração do Contrato,Prazo de Execução,Local de Execução,Fundamentação,Data de Fecho do Contrato,Preço Total Efetivo,Causas das Alterações ao Prazo,Causas das Alterações ao Preço,Estado,N.º registo do Acordo Quadro,Descrição do Acordo Quadro,Procedimento Centralizado
CAT ao Sistema de Gestão Centralizada,Ajuste Direto Regime Geral,Aquisição de serviços,"50413000-3, Serviços de reparação e manutenção de aparelhos de controlo","Unidade Local de Saúde de Matosinhos, EPE (ULSM) (506361390)","HONEYWELL PORTUGAL, S.A (500908680)","6.013,73 €",17-06-2016,22-02-2016,365 dias,"Portugal, Porto, Matosinhos","Artigo 20.º, n.º 1, alínea a) do Código dos Contratos Públicos",,,,,,Não aplicável.,Não aplicável.,FALSE
CAT aos Sistemas Pendentes Gases do Bloco,Ajuste Direto Regime Geral,Aquisição de serviços,"50000000-5, Serviços de reparação e manutenção","Unidade Local de Saúde de Matosinhos, E. P. E. (506361390)","DRAEGER PORTUGAL, LDA (508771323)","6.796,00 €",17-06-2016,08-03-2016,365 dias,"Portugal, Porto, Matosinhos","Artigo 20.º, n.º 1, alínea a) do Código dos Contratos Públicos",,,,,,Não aplicável.,Não aplicável.,FALSE
Contrato de manutenção ao PACS Synapse,Ajuste Direto Regime Geral,Aquisição de serviços,"72000000-5, Serviços de TI: consultoria, desenvolvimento de software, Internet e apoio","Unidade Local de Saúde de Matosinhos, E. P. E. (506361390)",FUJIFILM EUROPE GMBH - SUCURSAL EM PORTUGAL (980456517),"36.000,00 €",17-06-2016,15-02-2016,365 dias,"Portugal, Porto, Matosinhos","Artigo 20.º, n.º 1, alínea a) do Código dos Contratos Públicos",,,,,,Não aplicável.,Não aplicável.,FALSE
Contratação Serviços Médicos Ortopedia para ULSM,Ajuste Direto Regime Geral,Aquisição de serviços,"85100000-0, Serviços de saúde","Unidade Local de Saúde de Matosinhos, E. P. E. (506361390)","GS24 HEALTHCARE SOLUTIONS, LDA (507824652)","29,98 €",17-06-2016,09-05-2016,365 dias,"Portugal, Porto, Matosinhos","Artigo 20.º, n.º 1, alínea a) do Código dos Contratos Públicos",,,,,,Não aplicável.,Não aplicável.,FALSE
Concessão de exploração de espaço comercial - Loja multi-vendas,Ajuste Direto Regime Geral,Aquisição de serviços,"55000000-0, Serviços de hotelaria, restauração e comércio a retalho","Unidade Local de Saúde de Matosinhos, E. P. E. (506361390)","SEJAQUALFLOR, LDA (507642767)","6.000,00 €",17-06-2016,15-03-2016,365 dias,"Portugal, Porto, Matosinhos","Artigo 20.º, n.º 1, alínea a) do Código dos Contratos Públicos",,,,,,Não aplicável.,Não aplicável.,FALSE
Fornecimento e colocação depavimento no MFR,Ajuste Direto Regime Geral,Aquisição de serviços,"50000000-5, Serviços de reparação e manutenção","Unidade Local de Saúde de Matosinhos, E. P. E. (506361390)",PLAN4PROJECT - CONSTRUÇAO E DESIGN LDA (513807586),"6.731,00 €",17-06-2016,19-04-2016,30 dias,"Portugal, Porto, Matosinhos","Artigo 20.º, n.º 1, alínea a) do Código dos Contratos Públicos",,,,,,Não aplicável.,Não aplicável.,FALSE
CAT equipamentos de perfusão e infusão,Ajuste Direto Regime Geral,Aquisição de serviços,"50000000-5, Serviços de reparação e manutenção","Unidade Local de Saúde de Matosinhos, E. P. E. (506361390)","B BRAUN MEDICAL, LDA. (501506543)","26.730,00 €",16-06-2016,16-06-2016,365 dias,"Portugal, Porto, Matosinhos","Artigo 20.º, n.º 1, alínea a) do Código dos Contratos Públicos",,,,,,Não aplicável.,Não aplicável.,FALSE
Serviços de calibração,Ajuste Direto Regime Geral,Aquisição de serviços,"50000000-5, Serviços de reparação e manutenção","Unidade Local de Saúde de Matosinhos, E. P. E. (506361390)",CATIM -CENTRO APOIO TECN. INDUSTRIA METALOMECANICA (501630473),"16.909,10 €",16-06-2016,10-02-2016,365 dias,"Portugal, Porto, Matosinhos","Artigo 20.º, n.º 1, alínea a) do Código dos Contratos Públicos",,,,,,Não aplicável.,Não aplicável.,FALSE
HORMONAS E OUTROS MEDICAMENTOS USADOS NO TRATAMENTO DAS DOENÇAS ENDÓCRINAS,Ao abrigo de acordo-quadro (art.º 259.º),Aquisição de bens móveis,"33640000-8, Medicamentos para o aparelho geniturinário e hormonas","Unidade Local de Saúde de Matosinhos, E. P. E. (506361390)","LABORATORIOS PFIZER, LDA. (500162166)","148.203,72 €",16-06-2016,22-12-2015,365 dias,"Portugal, Porto, Matosinhos",Artigo 259.º do Código dos Contratos Públicos,,,,,,603979,"CONCURSO PÚBLICO PARA A CELEBRAÇÃO DE CONTRATOS PÚBLICOS DE APROVISIONAMENTO PARA A ÁREA DA SAÚDE, COM VISTA AO FORNECIMENTO DE HORMONAS E OUTROS MEDICAMENTOS USADOS NO TRATAMENTO DAS DOENÇAS ENDÓCRINAS, ÀS INSTITUIÇÕES E SERVIÇOS DO SERVIÇO NACIONAL DE SAÚDE",FALSE
MEDICAMENTOS DE CONSUMO GERAL - MEDICAMENTOS USADOS NAS AFEÇÕES OCULARES E  OTORRINOLARINGOLÓGICAS,Ajuste Direto Regime Geral,Aquisição de bens móveis,"33600000-6, Produtos farmacêuticos","Unidade Local de Saúde de Matosinhos, E. P. E. (506361390)",ALCON PORTUGAL - PRODUTOS EQUIPAMENTOS OFTALMOLOGI (501251685),"117.634,42 €",16-06-2016,29-12-2015,365 dias,"Portugal, Porto, Matosinhos","Artigo 20.º, n.º 1, alínea a) do Código dos Contratos Públicos",,,,,,Não aplicável.,Não aplicável.,FALSE
Medicamentos de consumo geral - Grupo 4 sangue,Ao abrigo de acordo-quadro (art.º 259.º),Aquisição de bens móveis,"33621000-9, Medicamentos para o sangue e para os órgãos hematopoiéticos","Unidade Local de Saúde de Matosinhos, E. P. E. (506361390)","SANOFI - PRODUTOS FARMACEUTICOS, LDA (500134960)","218.588,07 €",16-06-2016,04-02-2016,365 dias,"Portugal, Porto, Matosinhos",Artigo 259.º do Código dos Contratos Públicos,,,,,,599473,"CONCURSO PÚBLICO PARA A CELEBRAÇÃO DE CONTRATOS PÚBLICOS DE APROVISIONAMENTO PARA A ÁREA DA SAÚDE, COM VISTA AO FORNECIMENTO DE MEDICAMENTOS DE CONSUMO GERAL, GRUPO 4: SANGUE ÀS INSTITUIÇÕES E SERVIÇOS DO SERVIÇO NACIONAL DE SAÚDE",FALSE
Aquisição de Unidade de Refração de Oftalmologia,Ajuste Direto Regime Geral,Aquisição de bens móveis,"33000000-0, Equipamento médico, medicamentos e produtos para cuidados pessoais","Unidade Local de Saúde de Matosinhos, E. P. E. (506361390)","GRUPO TAPER - EQ. DE PRECISÃO CIENTIFICA, LDA (506886336)","18.640,00 €",15-06-2016,11-05-2016,365 dias,"Portugal, Porto, Matosinhos","Artigo 20.º, n.º 1, alínea a) do Código dos Contratos Públicos",,,,,,Não aplicável.,Não aplicável.,FALSE
Roupa hospitalar,Ajuste Direto Regime Geral,Aquisição de bens móveis,"18100000-0, Vestuário profissional, vestuário de trabalho especial e acessórios","Unidade Local de Saúde de Matosinhos, EPE (ULSM) (506361390)","MUNDIFATO - RIBEIRO & CARLOS, LDA.(EUROGES) (502383542)","32.386,24 €",15-06-2016,01-02-2016,365 dias,"Portugal, Porto, Matosinhos","Artigo 20.º, n.º 1, alínea a) do Código dos Contratos Públicos",,,,,,Não aplicável.,Não aplicável.,FALSE
Pinças de laparoscopia,Ajuste Direto Regime Geral,Aquisição de bens móveis,"33100000-1, Equipamento médico","Unidade Local de Saúde de Matosinhos, EPE (ULSM) (506361390)","ENDOTECNICA - MATERIAL CIRURGICO, LDA. (503818348)","10.413,00 €",15-06-2016,07-03-2016,365 dias,"Portugal, Porto, Matosinhos","Artigo 20.º, n.º 1, alínea a) do Código dos Contratos Públicos",,,,,,Não aplicável.,Não aplicável.,FALSE
Nutrição Parentérica não negociada pelo SPMS,Ajuste Direto Regime Geral,Aquisição de bens móveis,"33600000-6, Produtos farmacêuticos","Unidade Local de Saúde de Matosinhos, EPE (ULSM) (506361390)","BAXTER MEDICO-FARMACEUTICA, LDA. (503347345)","6.204,00 €",15-06-2016,28-12-2015,365 dias,"Portugal, Porto, Matosinhos","Artigo 24.º, n.º 1, alínea e) do Código dos Contratos Públicos",,,,,,Não aplicável.,Não aplicável.,FALSE
