Objeto do Contrato,Tipo de Procedimento,Tipo(s) de Contrato,CPVs,Entidade(s) Adjudicante(s),Entidade(s) Adjudicatária(s),Preço Contratual,Data de Publicação,Data de Celebração do Contrato,Prazo de Execução,Local de Execução,Fundamentação,Data de Fecho do Contrato,Preço Total Efetivo,Causas das Alterações ao Prazo,Causas das Alterações ao Preço,Estado,N.º registo do Acordo Quadro,Descrição do Acordo Quadro,Procedimento Centralizado
Aquisição de Equipamento Diverso para a USF Trevim Sol,Ajuste Direto Regime Geral,Aquisição de bens móveis,"33100000-1, Equipamento médico<BR/>39224330-0, Baldes","Administração Regional de Saúde do Centro, I.P. (503122165)","MEDICALPLUS - Produtos Médicos e Hospitalares, Lda (506658066)","2.838,25 €",19-12-2011,19-12-2011,15 dias,"Portugal, Coimbra, Lousã","Artigo 20.º, n.º 1, alínea a) do Código dos Contratos Públicos",,,,,,Não aplicável.,Não aplicável.,
Aquisição de Equipamento Diverso para a USF Trevim Sol,Ajuste Direto Regime Geral,Aquisição de bens móveis,"33100000-1, Equipamento médico","Administração Regional de Saúde do Centro, I.P. (503122165)","SPECULUM - Artigos Médicos, SA (502996323)","1.116,28 €",19-12-2011,19-12-2011,15 dias,"Portugal, Coimbra, Lousã","Artigo 20.º, n.º 1, alínea a) do Código dos Contratos Públicos",,,,,,Não aplicável.,Não aplicável.,
Aquisição de Equipamento Diverso para a USF Trevim Sol,Ajuste Direto Regime Geral,Aquisição de bens móveis,"30000000-9, Máquinas, equipamento e material de escritório e de informática, excepto mobiliário e pacotes de programas (software)","Administração Regional de Saúde do Centro, I.P. (503122165)","Manutan - Unipessoal, Lda (504779079)","396,00 €",19-12-2011,19-12-2011,15 dias,"Portugal, Coimbra, Lousã","Artigo 20.º, n.º 1, alínea a) do Código dos Contratos Públicos",,,,,,Não aplicável.,Não aplicável.,
Aquisição de Equipamento Diverso para a USF Trevim Sol,Ajuste Direto Regime Geral,Aquisição de bens móveis,"33100000-1, Equipamento médico","Administração Regional de Saúde do Centro, I.P. (503122165)","Eugénio Pereira, Lda (503989525)","3.861,76 €",19-12-2011,19-12-2011,15 dias,"Portugal, Coimbra, Lousã","Artigo 20.º, n.º 1, alínea a) do Código dos Contratos Públicos",,,,,,Não aplicável.,Não aplicável.,
Aquisição de Equipamento Diverso para a USF Trevim Sol,Ajuste Direto Regime Geral,Aquisição de bens móveis,"33100000-1, Equipamento médico","Administração Regional de Saúde do Centro, I.P. (503122165)","ELNOR - Eq. Técnicos e de Laboratório, SA (500094403)","716,20 €",19-12-2011,19-12-2011,15 dias,"Portugal, Coimbra, Lousã","Artigo 20.º, n.º 1, alínea a) do Código dos Contratos Públicos",,,,,,Não aplicável.,Não aplicável.,
Aquisição de Mobiliário Diverso para a USF Trevim Sol,Ajuste Direto Regime Geral,Aquisição de bens móveis,"39100000-3, Mobiliário","Administração Regional de Saúde do Centro, I.P. (503122165)","RALL - Mobiliário e Soluções para Escritório, SA (500234191)","2.136,00 €",19-12-2011,19-12-2011,15 dias,"Portugal, Coimbra, Lousã","Artigo 20.º, n.º 1, alínea a) do Código dos Contratos Públicos",,,,,,Não aplicável.,Não aplicável.,
Aquisição de Mobiliário Diverso para a USF Trevim Sol,Ajuste Direto Regime Geral,Aquisição de bens móveis,"39112000-0, Cadeiras","Administração Regional de Saúde do Centro, I.P. (503122165)","HAWORTH - Mobiliário de Escritório, SA (500077622)","300,00 €",19-12-2011,19-12-2011,15 dias,"Portugal, Coimbra, Lousã","Artigo 20.º, n.º 1, alínea a) do Código dos Contratos Públicos",,,,,,Não aplicável.,Não aplicável.,
"Fornecimento e instalação/reparação de tomadas de rede e telefone p/ ARSC, IP",Concurso público,Aquisição de serviços,"50000000-5, Serviços de reparação e manutenção","Administração Regional de Saúde do Centro, I.P. (503122165)","2007 COM, Lda (508018030), Irtel - Instalações de Rádio Televisão e Electricidade, Lda (501583033), Fusicabo - Montagens Eléctricas, Lda (506758761)","225.000,00 €",16-12-2011,14-12-2011,365 dias,Portugal,"Artigo 20.º, n.º 1, alínea b) do Código dos Contratos Públicos",,,,,,Não aplicável.,Não aplicável.,
Aquisição de Equipamento Diverso para a USF Infante D. Henrique,Ajuste Direto Regime Geral,Aquisição de bens móveis,"33100000-1, Equipamento médico","Administração Regional de Saúde do Centro, I.P. (503122165)","Dignum Medical, Lda (509569188)","2.648,00 €",14-12-2011,12-12-2011,15 dias,"Portugal, Viseu, Viseu","Artigo 20.º, n.º 1, alínea a) do Código dos Contratos Públicos",,,,,,Não aplicável.,Não aplicável.,
Aquisição de Equipamento Diverso para a USF Infante D. Henrique,Ajuste Direto Regime Geral,Aquisição de bens móveis,"32552110-1, Telefones sem fio","Administração Regional de Saúde do Centro, I.P. (503122165)","Ibervoice - Telecomunicações, SA (505910322)","344,07 €",14-12-2011,12-12-2011,15 dias,"Portugal, Viseu, Viseu","Artigo 20.º, n.º 1, alínea a) do Código dos Contratos Públicos",,,,,,Não aplicável.,Não aplicável.,
Aquisição de Equipamento Diverso para a USF Infante D. Henrique,Ajuste Direto Regime Geral,Aquisição de bens móveis,"33100000-1, Equipamento médico","Administração Regional de Saúde do Centro, I.P. (503122165)","MEDICALPLUS - Produtos Médicos e Hospitalares, Lda (506658066)","1.920,00 €",14-12-2011,12-12-2011,15 dias,"Portugal, Viseu, Viseu","Artigo 20.º, n.º 1, alínea a) do Código dos Contratos Públicos",,,,,,Não aplicável.,Não aplicável.,
Aquisição de Equipamento Diverso para a USF Infante D. Henrique,Ajuste Direto Regime Geral,Aquisição de bens móveis,"39132100-7, Armários para classificação<BR/>44212313-6, Suportes","Administração Regional de Saúde do Centro, I.P. (503122165)","RALL - Mobiliário e Soluções para Escritório, SA (500234191)","3.043,50 €",14-12-2011,12-12-2011,30 dias,"Portugal, Viseu, Viseu","Artigo 20.º, n.º 1, alínea a) do Código dos Contratos Públicos",,,,,,Não aplicável.,Não aplicável.,
Aquisição de Equipamento Diverso para a USF Infante D. Henrique,Ajuste Direto Regime Geral,Aquisição de bens móveis,"44164310-3, Tubos e acessórios<BR/>39143200-8, Mobiliário para salas de jantar<BR/>39713100-4, Máquinas de lavar louça<BR/>44550000-0, Molas<BR/>30192170-3, Quadros para afixação de informações<BR/>39132100-7, Armários para classificação","Administração Regional de Saúde do Centro, I.P. (503122165)","Manutan - Unipessoal, Lda (504779079)","3.248,90 €",14-12-2011,12-12-2011,30 dias,"Portugal, Viseu, Viseu","Artigo 20.º, n.º 1, alínea a) do Código dos Contratos Públicos",,,,,,Não aplicável.,Não aplicável.,
