Objeto do Contrato,Tipo de Procedimento,Tipo(s) de Contrato,CPVs,Entidade(s) Adjudicante(s),Entidade(s) Adjudicatária(s),Preço Contratual,Data de Publicação,Data de Celebração do Contrato,Prazo de Execução,Local de Execução,Fundamentação,Data de Fecho do Contrato,Preço Total Efetivo,Causas das Alterações ao Prazo,Causas das Alterações ao Preço,Estado,N.º registo do Acordo Quadro,Descrição do Acordo Quadro,Procedimento Centralizado
Aquisição diverso material consumo clinico - APROV-PRT 16001584/85/86 (AP1311),Concurso público,Aquisição de bens móveis,"33140000-3, Material médico de consumo","Administração Regional de Saúde do Norte, I. P. (503135593)","Bastos Viegas, SA (500042772)","10.981,80 €",10-03-2017,17-01-2017,347 dias,"Portugal, Distrito não determinado, Concelho não determinado<BR/>Portugal, Porto, Maia<BR/>Portugal, Vila Real, Vila Real","Artigo 20.º, n.º 2 do Código dos Contratos Públicos",29-12-2017,"10.900,00 €","",Ajuste á embalagem,,Não aplicável.,Não aplicável.,FALSE
Aquisição diverso material consumo clinico - APROV-PRT 16001584/85/86 (AP1311),Concurso público,Aquisição de bens móveis,"33140000-3, Material médico de consumo","Administração Regional de Saúde do Norte, I. P. (503135593)","Speculum - Artigos Médicos, Lda. (502996323)","4.200,00 €",10-03-2017,17-01-2017,347 dias,"Portugal, Distrito não determinado, Concelho não determinado<BR/>Portugal, Porto, Maia<BR/>Portugal, Vila Real, Vila Real","Artigo 20.º, n.º 2 do Código dos Contratos Públicos",29-12-2017,"4.200,00 €","","",,Não aplicável.,Não aplicável.,FALSE
Aquisição diverso material consumo clinico - APROV-PRT 16001584/85/86 (AP1311),Concurso público,Aquisição de bens móveis,"33140000-3, Material médico de consumo","Administração Regional de Saúde do Norte, I. P. (503135593)",Filsat - Equipamento Médico Cientifico (506708616),"1.200,00 €",10-03-2017,17-01-2017,347 dias,"Portugal, Distrito não determinado, Concelho não determinado<BR/>Portugal, Porto, Maia<BR/>Portugal, Vila Real, Vila Real","Artigo 20.º, n.º 2 do Código dos Contratos Públicos",29-12-2017,"1.200,00 €","","",,Não aplicável.,Não aplicável.,FALSE
Aquisição diverso material consumo clinico - APROV-PRT 16001584/85/86 (AP1311),Concurso público,Aquisição de bens móveis,"33140000-3, Material médico de consumo","Administração Regional de Saúde do Norte, I. P. (503135593)","VWR - Internacional, Material Laboratorio (503842770)","640,00 €",10-03-2017,17-01-2017,347 dias,"Portugal, Vila Real, Vila Real<BR/>Portugal, Distrito não determinado, Concelho não determinado<BR/>Portugal, Porto, Maia","Artigo 20.º, n.º 2 do Código dos Contratos Públicos",29-12-2017,"640,00 €","","",,Não aplicável.,Não aplicável.,FALSE
Aquisição diverso material consumo clinico - APROV-PRT 16001584/85/86 (AP1311),Concurso público,Aquisição de bens móveis,"33140000-3, Material médico de consumo","Administração Regional de Saúde do Norte, I. P. (503135593)","DocWorld, Lda. (508592909)","6.825,00 €",10-03-2017,17-01-2017,347 dias,"Portugal, Porto, Maia<BR/>Portugal, Distrito não determinado, Concelho não determinado<BR/>Portugal, Vila Real, Vila Real","Artigo 20.º, n.º 2 do Código dos Contratos Públicos",29-12-2017,"6.825,00 €","","",,Não aplicável.,Não aplicável.,FALSE
Aquisição diverso material consumo clinico - APROV-PRT 16001584/85/86 (AP1311),Concurso público,Aquisição de bens móveis,"33140000-3, Material médico de consumo","Administração Regional de Saúde do Norte, I. P. (503135593)","Ezequiel Panão Jorge, Lda. (501412727)","1.057,50 €",10-03-2017,17-01-2017,347 dias,"Portugal, Porto, Maia<BR/>Portugal, Distrito não determinado, Concelho não determinado<BR/>Portugal, Vila Real, Vila Real","Artigo 20.º, n.º 2 do Código dos Contratos Públicos",29-12-2017,"1.057,50 €","","",,Não aplicável.,Não aplicável.,FALSE
Aquisição diverso material consumo clinico - APROV-PRT 16001584/85/86 (AP1311),Concurso público,Aquisição de bens móveis,"33140000-3, Material médico de consumo","Administração Regional de Saúde do Norte, I. P. (503135593)","Normax - Fabrica de Vidros Cientificos, Lda. (500203130)","3.006,60 €",10-03-2017,18-01-2017,347 dias,"Portugal, Distrito não determinado, Concelho não determinado<BR/>Portugal, Porto, Maia<BR/>Portugal, Vila Real, Vila Real","Artigo 20.º, n.º 2 do Código dos Contratos Públicos",29-12-2017,"2.984,00 €","",Ajustado as embalagens,,Não aplicável.,Não aplicável.,FALSE
Aquisição diverso material consumo clinico - APROV-PRT 16001584/85/86 (AP1311),Concurso público,Aquisição de bens móveis,"33140000-3, Material médico de consumo","Administração Regional de Saúde do Norte, I. P. (503135593)","Virtuoso, Lda. (510113923)","4.302,72 €",10-03-2017,18-01-2017,347 dias,"Portugal, Distrito não determinado, Concelho não determinado<BR/>Portugal, Porto, Maia<BR/>Portugal, Vila Real, Vila Real","Artigo 20.º, n.º 2 do Código dos Contratos Públicos",29-12-2017,"4.292,34 €","",Ajustado ao numero de embalagens,,Não aplicável.,Não aplicável.,FALSE
AP 1499 Aquisição de 900 frascos Rifampicina 20 mg/ml Susp oral  60 ml,Ao abrigo de acordo-quadro (art.º 258.º),Aquisição de bens móveis,"33600000-6, Produtos farmacêuticos","Administração Regional de Saúde do Norte, I. P. (503135593)","Sanofi - Produtos Farmacêuticos, Lda     (500134960)","1.710,00 €",10-03-2017,10-10-2016,80 dias,"Portugal, Porto, Maia<BR/>Portugal, Vila Real, Vila Real",Artigo 258.º do Código dos Contratos Públicos,31-10-2016,"1.710,00 €","","",,1326195,ACORDO QUADRO PARA FORNECIMENTO DE MEDICAMENTOS ANTI-INFECIOSOS: EXCETO ANTIVÍRICOS E ANTIFÚNGICOS ÀS INSTITUIÇÕES E SERVIÇOS DO SERVIÇO NACIONAL DE SAÚDE,FALSE
Aquisição diverso material consumo clinico - APROV-PRT 16001578 (AP1306),Concurso público,Aquisição de bens móveis,"33140000-3, Material médico de consumo","Administração Regional de Saúde do Norte, I. P. (503135593)",Coloplast Portugal (503989037),"1.010,00 €",10-03-2017,24-01-2017,327 dias,"Portugal, Distrito não determinado, Concelho não determinado<BR/>Portugal, Porto, Maia<BR/>Portugal, Vila Real, Vila Real","Artigo 20.º, n.º 2 do Código dos Contratos Públicos",29-12-2017,"1.010,00 €","","",,Não aplicável.,Não aplicável.,FALSE
Aquisição diverso material consumo clinico - APROV-PRT 16001578 (AP1306),Concurso público,Aquisição de bens móveis,"33140000-3, Material médico de consumo","Administração Regional de Saúde do Norte, I. P. (503135593)","HR Hospitalar, Unip. Lda. (501895558)","217,00 €",10-03-2017,24-01-2017,327 dias,"Portugal, Distrito não determinado, Concelho não determinado<BR/>Portugal, Porto, Maia<BR/>Portugal, Vila Real, Vila Real","Artigo 20.º, n.º 2 do Código dos Contratos Públicos",29-12-2017,"217,00 €","","",,Não aplicável.,Não aplicável.,FALSE
Aquisição diverso material consumo clinico - APROV-PRT 16001578 (AP1306),Concurso público,Aquisição de bens móveis,"33140000-3, Material médico de consumo","Administração Regional de Saúde do Norte, I. P. (503135593)","Anastácio Saldanha Unip., Lda. (505804441)","37,00 €",10-03-2017,24-01-2017,327 dias,"Portugal, Vila Real, Vila Real<BR/>Portugal, Porto, Maia<BR/>Portugal, Distrito não determinado, Concelho não determinado","Artigo 20.º, n.º 2 do Código dos Contratos Públicos",29-12-2017,"36,64 €","",Ajustado ao numero de unidades por embalagem,,Não aplicável.,Não aplicável.,FALSE
Aquisição diverso material consumo clinico - APROV-PRT 16001578 (AP1306),Concurso público,Aquisição de bens móveis,"33140000-3, Material médico de consumo","Administração Regional de Saúde do Norte, I. P. (503135593)","Bastos Viegas, SA (500042772)","405,00 €",10-03-2017,24-01-2017,327 dias,"Portugal, Porto, Maia<BR/>Portugal, Vila Real, Vila Real<BR/>Portugal, Distrito não determinado, Concelho não determinado","Artigo 20.º, n.º 2 do Código dos Contratos Públicos",29-12-2017,"405,00 €","","",,Não aplicável.,Não aplicável.,FALSE
Aquisição diverso material consumo clinico - APROV-PRT 16001578 (AP1306),Concurso público,Aquisição de bens móveis,"33140000-3, Material médico de consumo","Administração Regional de Saúde do Norte, I. P. (503135593)",Hospitex Mat. Hospitalar (501909842),"25.779,00 €",10-03-2017,24-01-2017,327 dias,"Portugal, Distrito não determinado, Concelho não determinado<BR/>Portugal, Porto, Maia<BR/>Portugal, Vila Real, Vila Real","Artigo 20.º, n.º 2 do Código dos Contratos Públicos",29-12-2017,"25.518,00 €","",Ajustado ao numero de unidades por embalagem,,Não aplicável.,Não aplicável.,FALSE
Aquisição diverso material consumo clinico - APROV-PRT 16001578 (AP1306),Concurso público,Aquisição de bens móveis,"33140000-3, Material médico de consumo","Administração Regional de Saúde do Norte, I. P. (503135593)","Medtronic Portugal, Lda. (504223933)","1.118,00 €",10-03-2017,24-01-2017,327 dias,"Portugal, Vila Real, Vila Real<BR/>Portugal, Porto, Maia","Artigo 20.º, n.º 2 do Código dos Contratos Públicos",29-12-2017,"1.118,00 €","","",,Não aplicável.,Não aplicável.,FALSE
AP Aquisição de 40 bisnagasClotrimazol 10 mg/g Cr Bisn 20 g,Ao abrigo de acordo-quadro (art.º 259.º),Aquisição de bens móveis,"33600000-6, Produtos farmacêuticos","Administração Regional de Saúde do Norte, I. P. (503135593)",OVERPHARMA- PRODUTOS MEDICOS FARMAC. LDA       (505792362),"19,20 €",10-03-2017,13-12-2016,15 dias,"Portugal, Vila Real, Vila Real<BR/>Portugal, Porto, Maia",Artigo 259.º do Código dos Contratos Públicos,13-12-2016,"19,20 €","","",,1370278,CP 2015/51 - Acordo quadro para fornecimento de medicamentos usados nas afeções cutâneas às instituições e serviços do serviço nacional de saúde,FALSE
Aquisição de Isoniazida 300mg + Cloreto de Obidoxima 250mg + Clofazimina 100mg + Cicloserina 250mg - APROV-PRT 17000058 (AP2731),Ajuste Direto Regime Geral,Aquisição de bens móveis,"33600000-6, Produtos farmacêuticos","Administração Regional de Saúde do Norte,IP (ARSN) (503135593)","DuxPharma, Unipessoal, Lda. (510803679)","48.187,05 €",10-03-2017,15-02-2017,319 dias,"Portugal, Porto, Maia<BR/>Portugal, Distrito não determinado, Concelho não determinado<BR/>Portugal, Vila Real, Vila Real","Artigo 20.º, n.º 1, alínea a) do Código dos Contratos Públicos",16-11-2017,"48.187,05 €","","",,Não aplicável.,Não aplicável.,FALSE
AP Aquisição de 320 Clonixina 300 mg Cáps,Ajuste Direto Regime Geral,Aquisição de bens móveis,"33600000-6, Produtos farmacêuticos","Administração Regional de Saúde do Norte,IP (ARSN) (503135593)","LUSOMEDICAMENTA , Sociedade Técnica Farmacêutica, SA     (507150473)","84,10 €",10-03-2017,07-10-2016,80 dias,"Portugal, Vila Real, Vila Real<BR/>Portugal, Porto, Maia","Artigo 20.º, n.º 1, alínea a) do Código dos Contratos Públicos",15-11-2016,"84,10 €","","",,Não aplicável.,Não aplicável.,FALSE
Aquisição de serviços médicos com especialidade em Psiquiatria para a unidade de Alcoologia do Porto adstrito à Divisão de Intervenção nos Comportamentos Aditivos e nas Dependências da Administração Regional de Saúde do Norte IP,Ajuste Direto Regime Geral,Aquisição de serviços,"85121000-3, Serviços de prática médica","Administração Regional de Saúde do Norte, I. P. (503135593)",Sandra Sabrina Ferreira Meireles Queirós (216829909),"14.040,00 €",10-03-2017,23-01-2017,365 dias,"Portugal, Porto, Porto","Artigo 20.º, n.º 1, alínea a) do Código dos Contratos Públicos",31-12-2017,"12.993,75 €","",Numero de horas realizadas inferior ao numero de horas contratadas.,,Não aplicável.,Não aplicável.,FALSE
AP 1579 - Aquisição de 19.980 ampolas Cianocobalamina 0.2 mg + Piridoxina 200 mg + Tiamina 100 mg,Ajuste Direto Regime Geral,Aquisição de bens móveis,"33600000-6, Produtos farmacêuticos","Administração Regional de Saúde do Norte, I. P. (503135593)","MERCK, SA     (500650870)","2.503,49 €",10-03-2017,10-10-2016,80 dias,"Portugal, Porto, Maia<BR/>Portugal, Vila Real, Vila Real","Artigo 20.º, n.º 1, alínea a) do Código dos Contratos Públicos",11-10-2016,"2.503,49 €","","",,Não aplicável.,Não aplicável.,FALSE
Aquisição de serviços médicos com especialidade em Medicina Geral Familiar para o CRI de Braga ET Guimarães adstrito à Divisão de Intervenção nos Comportamentos Aditivos e nas Dependências da Administração Regional de Saúde do Norte IP,Ajuste Direto Regime Geral,Aquisição de serviços,"85121000-3, Serviços de prática médica","Administração Regional de Saúde do Norte, I. P. (503135593)",Mafalda Maria Antunes Sousela (211955680),"28.080,00 €",10-03-2017,24-01-2017,365 dias,"Portugal, Braga, Guimarães","Artigo 20.º, n.º 1, alínea a) do Código dos Contratos Públicos",31-12-2017,"22.612,50 €","",Numero de horas realizadas inferiores ao numero de horas contratadas.,,Não aplicável.,Não aplicável.,FALSE
Aquisição de serviços médicos sem especialidade para a Unidade de Alcoologia do Porto adstrita à Divisão de Intervenção nos Comportamentos Aditivos e nas Dependências da Administração Regional de Saúde do Norte IP,Ajuste Direto Regime Geral,Aquisição de serviços,"85121000-3, Serviços de prática médica","Administração Regional de Saúde do Norte, I. P. (503135593)",Amujaci Fátima Alves de Moraes Guedes (228088046),"33.488,00 €",10-03-2017,02-02-2017,365 dias,"Portugal, Porto, Porto","Artigo 20.º, n.º 1, alínea a) do Código dos Contratos Públicos",31-12-2017,"33.304,00 €","",Numero de horas realizadas inferiores ao numero de horas contratadas.,,Não aplicável.,Não aplicável.,FALSE
Aquisição de Delamanide 50mg comp. - APROV-PRT 17000150 (AP2414),Ajuste Direto Regime Geral,Aquisição de bens móveis,"33600000-6, Produtos farmacêuticos","Administração Regional de Saúde do Norte, I. P. (503135593)",Otsuka Novel Products GmbH (DE275782318),"25.200,00 €",10-03-2017,24-01-2017,60 dias,"Portugal, Porto, Maia","Artigo 20.º, n.º 1, alínea a) do Código dos Contratos Públicos",24-01-2017,"25.200,00 €","","",,Não aplicável.,Não aplicável.,FALSE
Aquisição de serviços médicos sem especialidade no CRI Porto Central ET Vila Nova de Gaia adstrito à Divisão de Intervenção nos comportamentos aditivos e das dependências da Administração Regional de Saúde do Norte IP,Ajuste Direto Regime Geral,Aquisição de serviços,"85121000-3, Serviços de prática médica","Administração Regional de Saúde do Norte, I. P. (503135593)",José Magueta Unipessoal Lda (513815651),"19.500,00 €",10-03-2017,24-01-2017,365 dias,"Portugal, Porto, Vila Nova de Gaia","Artigo 20.º, n.º 1, alínea a) do Código dos Contratos Públicos",31-12-2017,"18.875,00 €","",Numero de horas realizadas inferior ao numero de horas contratadas.,,Não aplicável.,Não aplicável.,FALSE
A.P. 883 APROV - VR 16001096 - Aquisição de Bens - Outro material de consumo clínico,Ao abrigo de acordo-quadro (art.º 259.º),Aquisição de bens móveis,"33000000-0, Equipamento médico, medicamentos e produtos para cuidados pessoais","Administração Regional de Saúde do Norte, I. P. (503135593)","3M PORTUGAL, LDA     (500193940)","39.555,00 €",10-03-2017,27-09-2016,210 dias,"Portugal, Porto, Maia<BR/>Portugal, Vila Real, Vila Real",Artigo 259.º do Código dos Contratos Públicos,18-11-2016,"39.555,00 €","","",,1315192,Acordo Quadro para fornecimento de material de penso de efeito terapêutico às Instituições e Serviços do Serviço Nacional de Saúde,FALSE
A.P. 883 APROV - VR 16001096 - Aquisição de Bens - Outro material de consumo clínico,Ao abrigo de acordo-quadro (art.º 259.º),Aquisição de bens móveis,"33600000-6, Produtos farmacêuticos","Administração Regional de Saúde do Norte, I. P. (503135593)","Laboratórios Urgo, S.L.U.     (B-83608604)","19.732,48 €",10-03-2017,27-09-2016,210 dias,"Portugal, Porto, Maia<BR/>Portugal, Vila Real, Vila Real",Artigo 259.º do Código dos Contratos Públicos,07-10-2016,"19.732,48 €","","",,1315192,Acordo Quadro para fornecimento de material de penso de efeito terapêutico às Instituições e Serviços do Serviço Nacional de Saúde,FALSE
Aquisição de serviços médicos com especialidade em Psiquiatria para o CRI Bragança ET Bragança e para o CRI de Vila Real ET de Vila Real adstrito à Divisão de Intervenção nos Comportamentos Aditivos e nas dependências da Administração Regional de Saúde do Norte IP,Ajuste Direto Regime Geral,Aquisição de serviços,"85121000-3, Serviços de prática médica","Administração Regional de Saúde do Norte, I. P. (503135593)",José Angel Alvarez Cutrin (231829523),"71.604,00 €",10-03-2017,30-01-2017,365 dias,"Portugal, Braganca, Bragança<BR/>Portugal, Vila Real, Vila Real","Artigo 20.º, n.º 1, alínea a) do Código dos Contratos Públicos",29-12-2017,"60.912,00 €","",Numero de horas realizadas inferiores ao numero de horas previstas,,Não aplicável.,Não aplicável.,FALSE
AP 2632 Aquisição de 35.000 unidades Sistema administ.soro c/arejador incorp.e filtro câmara,Ao abrigo de acordo-quadro (art.º 259.º),Aquisição de bens móveis,"33140000-3, Material médico de consumo","Administração Regional de Saúde do Norte, I. P. (503135593)","P M H PRODUTOS MEDICO HOSPITALARES, S.A      (502376899)","7.175,00 €",10-03-2017,21-03-2016,250 dias,"Portugal, Porto, Maia<BR/>Portugal, Vila Real, Vila Real",Artigo 259.º do Código dos Contratos Públicos,19-07-2016,"7.175,00 €","","",,1212278,"CONCURSO PÚBLICO PARA A CELEBRAÇÃO DE CONTRATOS PÚBLICOS DE APROVISIONAMENTO PARA A ÁREA DA SAÚDE, COM VISTA AO FORNECIMENTO DE CATETERES, ÀS INSTITUIÇÕES E SERVIÇOS DO SERVIÇO NACIONAL DE SAÚDE",FALSE
A.P. 883 APROV - VR 16001096 - Aquisição de Bens - Outro material de consumo clínico,Ao abrigo de acordo-quadro (art.º 259.º),Aquisição de bens móveis,"33600000-6, Produtos farmacêuticos","Administração Regional de Saúde do Norte, I. P. (503135593)","MEDICINÁLIA-CORMÉDICA, LDA    (500684324)","341.140,00 €",10-03-2017,03-11-2016,240 dias,"Portugal, Vila Real, Vila Real<BR/>Portugal, Porto, Maia",Artigo 259.º do Código dos Contratos Públicos,07-11-2016,"341.140,00 €","","",,1315192,Acordo Quadro para fornecimento de material de penso de efeito terapêutico às Instituições e Serviços do Serviço Nacional de Saúde,FALSE
"Aquisição de serviços médicos para o Cri Porto Central ET Santa Maria da Feira adstrito à Divisão de Intervenção nos Comportamentos Aditivos e nas Dependências da Administração Regional de Saúde do Norte, IP  ",Ajuste Direto Regime Geral,Aquisição de serviços,"85121000-3, Serviços de prática médica","Administração Regional de Saúde do Norte, I. P. (503135593)",Maria Luísa Rodrigues da Silveira Leite (236906488),"28.600,00 €",10-03-2017,26-01-2017,365 dias,"Portugal, Aveiro, Santa Maria da Feira","Artigo 20.º, n.º 1, alínea a) do Código dos Contratos Públicos",31-12-2017,"26.887,50 €","",Numero de horas realizadas inferiores ao contratadas,,Não aplicável.,Não aplicável.,FALSE
Aquisição de serviços de   copia e impressão em regime de outsoursing  Refª. 20140131 - Aprov-Prt 17000172,Concurso público,Aquisição de serviços,"79800000-2, Serviços de impressão e afins","Administração Regional de Saúde do Norte, I. P. (503135593)","Canon Portugal, S.A. (507477740)","206.599,73 €",10-03-2017,22-06-2016,1095 dias,"Portugal, Porto, Porto","Artigo 20.º, n.º 1, alínea b) do Código dos Contratos Públicos","","","","",,Não aplicável.,Não aplicável.,FALSE
AP 1149 - Aquisição de 800 unidadesCopo p/ Nebulizador Fazzini,Ajuste Direto Regime Geral,Aquisição de bens móveis,"33140000-3, Material médico de consumo","Administração Regional de Saúde do Norte,IP (ARSN) (503135593)","BRAMEDICAFISIO, PRODUTOS DE SAUDE, LDA           (508560152)","183,92 €",10-03-2017,06-07-2016,150 dias,"Portugal, Porto, Maia<BR/>Portugal, Vila Real, Vila Real","Artigo 20.º, n.º 1, alínea a) do Código dos Contratos Públicos",09-12-2016,"183,92 €","","",,Não aplicável.,Não aplicável.,FALSE
Aquisição de serviços médicos para CRI de Bragança /ET Bragança adstrito à DICAD,Ajuste Direto Regime Geral,Aquisição de serviços,"85121000-3, Serviços de prática médica","Administração Regional de Saúde do Norte, I. P. (503135593)",Iva Patrícia Coelho Lopes (218641257),"10.400,00 €",10-03-2017,23-01-2017,365 dias,"Portugal, Braganca, Bragança","Artigo 20.º, n.º 1, alínea a) do Código dos Contratos Públicos",31-12-2017,"8.200,00 €","",Numero de horas realizadas inferior ao numero de horas contratadas.,,Não aplicável.,Não aplicável.,FALSE
"AP 1498 - Aquisição 1.000.000 Compressa em T.N.T. esterilizada/5unidades  10x10, 700.000 Compressa em T.N.T. esterilizada/5unidades  5x5cm",Ajuste Direto Regime Geral,Aquisição de bens móveis,"33140000-3, Material médico de consumo","Administração Regional de Saúde do Norte,IP (ARSN) (503135593)",ALBINO DIAS ANDRADE LDA - BESLEASING E FACTORING. (500013810),"20.380,00 €",10-03-2017,04-11-2016,35 dias,"Portugal, Vila Real, Vila Real<BR/>Portugal, Porto, Maia","Artigo 20.º, n.º 1, alínea a) do Código dos Contratos Públicos",23-12-2016,"20.380,00 €","","",,Não aplicável.,Não aplicável.,FALSE
Aquisição de serviços médicos para o SUB Arouca adstrito ao ACES Feira Arouca,Ajuste Direto Regime Geral,Aquisição de serviços,"85121000-3, Serviços de prática médica","Administração Regional de Saúde do Norte, I. P. (503135593)",Nuno Costa Unipessoal Lda (514227265),"33.696,00 €",09-03-2017,13-02-2017,365 dias,"Portugal, Aveiro, Arouca","Artigo 20.º, n.º 1, alínea a) do Código dos Contratos Públicos",31-12-2017,"33.696,00 €","","",,Não aplicável.,Não aplicável.,FALSE
Aquisição de serviços médicos para o SUB Arouca adstrito ao ACES Feira Arouca,Ajuste Direto Regime Geral,Aquisição de serviços,"85121000-3, Serviços de prática médica","Administração Regional de Saúde do Norte, I. P. (503135593)",Sílvia dos Anjos Pacheco Teixeira (123044804),"15.600,00 €",09-03-2017,20-01-2017,365 dias,"Portugal, Aveiro, Arouca","Artigo 20.º, n.º 1, alínea a) do Código dos Contratos Públicos",28-12-2017,"14.400,00 €","",Numero de horas realizadas inferior ao numero de horas previstas,,Não aplicável.,Não aplicável.,FALSE
Aquisição de serviços médicos para SUB Cinfães adstrito ao ACES Baixo Tâmega (48h semanais),Ajuste Direto Regime Geral,Aquisição de serviços,"85121000-3, Serviços de prática médica","Administração Regional de Saúde do Norte, I. P. (503135593)",Maria Cristina Gonçalves Giacomazzi (269647465),"57.600,00 €",09-03-2017,10-02-2017,342 dias,"Portugal, Viseu, Cinfães","Artigo 20.º, n.º 1, alínea a) do Código dos Contratos Públicos","","","","",,Não aplicável.,Não aplicável.,FALSE
Aquisição de serviços médicos sem especialidade para o SUB Arouca adstrito ao ACES Feira/Arouca,Ajuste Direto Regime Geral,Aquisição de serviços,"85121000-3, Serviços de prática médica","Administração Regional de Saúde do Norte, I. P. (503135593)",José António Magueta Benitez (233056475),"46.800,00 €",09-03-2017,31-01-2017,365 dias,"Portugal, Aveiro, Arouca","Artigo 20.º, n.º 1, alínea a) do Código dos Contratos Públicos",29-12-2017,"46.762,50 €","",Numero de horas realizadas inferior ao numero de horas previstas,,Não aplicável.,Não aplicável.,FALSE
Aquisição de serviços de manutenção de elevadores da ARS Norte IP,Ao abrigo de acordo-quadro (art.º 259.º),Aquisição de serviços,"50750000-7, Serviços de manutenção de elevadores","Administração Regional de Saúde do Norte, I. P. (503135593)","SCHMITT - Elevadores, Lda. (500230757)","16.097,28 €",09-03-2017,28-12-2016,365 dias,"Portugal, Distrito não determinado, Concelho não determinado",Artigo 259.º do Código dos Contratos Públicos,19-12-2017,"15.971,52 €","",Houve uma alteração relativamente ao preço contratual inicialmente determinado e o preço total efetivo devido ao facto de ter avido uma redução no número dos elevadores inicialmente registados.,,1351191,Acordo Quadro para a prestação de Serviços de Manutenção de Instalações de Elevação,FALSE
Aquisição de serviços médicos para o SAP Baião adstrito ao ACES Baixo Tâmega,Ajuste Direto Regime Geral,Aquisição de serviços,"85121000-3, Serviços de prática médica","Administração Regional de Saúde do Norte, I. P. (503135593)",Mihail Angheluta (228990289),"13.000,00 €",09-03-2017,26-01-2017,365 dias,"Portugal, Porto, Baião","Artigo 20.º, n.º 1, alínea a) do Código dos Contratos Públicos","","","","",,Não aplicável.,Não aplicável.,FALSE
Aquisição de serviços de manutenção de elevadores - APROV-PRT 16000050,Ao abrigo de acordo-quadro (art.º 259.º),Aquisição de serviços,"50750000-7, Serviços de manutenção de elevadores","Administração Regional de Saúde do Norte,IP (ARSN) (503135593)","SCHMITT - Elevadores, Lda. (500230757)","8.048,63 €",09-03-2017,01-07-2016,184 dias,"Portugal, Vila Real, Vila Real<BR/>Portugal, Braga, Braga<BR/>Portugal, Distrito não determinado, Concelho não determinado<BR/>Portugal, Porto, Porto<BR/>Portugal, Viseu, Viseu<BR/>Portugal, Aveiro, Aveiro",Artigo 259.º do Código dos Contratos Públicos,20-12-2016,"8.048,63 €","","",,1351191,Acordo Quadro para a prestação de Serviços de Manutenção de Instalações de Elevação,FALSE
Aquisição de serviços médicos para SAP Baião adstrito ao ACES Baixo Tâmega,Ajuste Direto Regime Geral,Aquisição de serviços,"85121000-3, Serviços de prática médica","Administração Regional de Saúde do Norte, I. P. (503135593)",Sílvio Frederico Anselmo Fortes  (220453497),"31.200,00 €",09-03-2017,25-01-2017,365 dias,"Portugal, Porto, Baião","Artigo 20.º, n.º 1, alínea a) do Código dos Contratos Públicos","","","","",,Não aplicável.,Não aplicável.,FALSE
Serviços de Apoio Técnico para UGF/ARSN,Ajuste Direto Regime Geral,Aquisição de serviços,"79410000-1, Serviços de consultoria em matéria comercial e de gestão","Administração Regional de Saúde do Norte, I. P. (503135593)","Carneiro & Monteiro, Lda. (513005250)","16.952,00 €",09-03-2017,26-01-2017,365 dias,"Portugal, Porto, Porto","Artigo 20.º, n.º 1, alínea a) do Código dos Contratos Públicos",29-12-2017,"16.104,40 €","",Não foram executadas a totalidade das horas contratualizadas,,Não aplicável.,Não aplicável.,FALSE
Aquisição de serviços médicos para o ACES Vale de Sousa Sul (CDP Penafiel) e ACES Maia Valongo (CDP Maia),Ajuste Direto Regime Geral,Aquisição de serviços,"85121000-3, Serviços de prática médica","Administração Regional de Saúde do Norte, I. P. (503135593)",Tânia Glória de Almeida Guimarães Pedro (216196248),"42.120,00 €",09-03-2017,23-01-2017,365 dias,"Portugal, Porto, Porto","Artigo 20.º, n.º 1, alínea a) do Código dos Contratos Públicos","","","","",,Não aplicável.,Não aplicável.,FALSE
1 aparelho de barras paralelas portátil; 1 pedaleira elétrica,Ajuste Direto Regime Geral,Aquisição de bens móveis,"33155000-1, Aparelhos para fisioterapia","Administração Regional de Saúde do Norte, I. P. (503135593)","Bastos Viegas, S.A. (500042772)","356,00 €",09-03-2017,06-10-2016,86 dias,"Portugal, Vila Real, Vila Real","Artigo 20.º, n.º 1, alínea a) do Código dos Contratos Públicos",11-10-2016,"356,00 €","","",,Não aplicável.,Não aplicável.,FALSE
Aquisição de serviços médicos para o ACES Baixo Tâmega (Cinfães e Amarante),Ajuste Direto Regime Geral,Aquisição de serviços,"85121000-3, Serviços de prática médica","Administração Regional de Saúde do Norte, I. P. (503135593)",José Jorge do Nascimento Dias (218166176),"45.500,00 €",09-03-2017,30-01-2017,365 dias,"Portugal, Porto, Amarante","Artigo 20.º, n.º 1, alínea a) do Código dos Contratos Públicos","","","","",,Não aplicável.,Não aplicável.,FALSE
Serviços de Apoio Técnico para UGF/ARSN,Ajuste Direto Regime Geral,Aquisição de serviços,"79411000-8, Serviços gerais de consultoria em matéria de gestão geral","Administração Regional de Saúde do Norte, I. P. (503135593)",Ana Soraia da Costa Queirós (242595855),"9.999,96 €",09-03-2017,24-01-2017,365 dias,"Portugal, Porto, Porto","Artigo 20.º, n.º 1, alínea a) do Código dos Contratos Públicos",31-12-2017,"9.924,20 €","",Não foram executadas a totalidade das horas contratualizadas,,Não aplicável.,Não aplicável.,FALSE
Aquisição de Serviços de Fornecimento e Distribuição de Refeições Confecionadas,Ao abrigo de acordo-quadro (art.º 259.º),Aquisição de serviços,"55520000-1, Serviços de fornecimento de refeições (catering)","Administração Regional de Saúde do Norte, I. P. (503135593)","SOCIGESTE - Serviços, Indústria e Comércio de Refeições, Lda. (504215965), ITAU - Instituto Tecnico de Alimentação Humana, SA (500142858)","18.075,22 €",09-03-2017,06-01-2017,60 dias,"Portugal, Porto",Artigo 259.º do Código dos Contratos Públicos,14-03-2017,"15.354,08 €","",Valor inicial seria o valor máximo que a entidade adjudicante estaria disposta a assimir.,,1125527,Acordo quadro para o fornecimento de refeições confecionadas,FALSE
Aquisição de serviços médicos para SUB Cinfães adstrito ao ACES Baixo Tâmega,Ajuste Direto Regime Geral,Aquisição de serviços,"85121000-3, Serviços de prática médica","Administração Regional de Saúde do Norte, I. P. (503135593)","Cosmopirâmide - Serviços Médicos, Unipessoal, Lda (510418716)","62.400,00 €",09-03-2017,25-01-2017,365 dias,"Portugal, Viseu, Cinfães","Artigo 20.º, n.º 1, alínea a) do Código dos Contratos Públicos","","","","",,Não aplicável.,Não aplicável.,FALSE
"1 conj. de 6 talas Úrias; 1 plataforma de balanço; 1 conj. de 3 faixas para fisioterapia; 1 sistema de corda e roldana para exercício de ombro; 1 conj. de 4 barras flexíveis (amarela, vermelha, verde e azul)",Ajuste Direto Regime Geral,Aquisição de bens móveis,"33155000-1, Aparelhos para fisioterapia","Administração Regional de Saúde do Norte, I. P. (503135593)","Grupo Vitalino, S.A. (513083162)","402,00 €",09-03-2017,06-10-2016,86 dias,"Portugal, Vila Real, Vila Real","Artigo 20.º, n.º 1, alínea a) do Código dos Contratos Públicos",17-11-2016,"402,00 €","","",,Não aplicável.,Não aplicável.,FALSE
Aquisição de serviços médicos para ACES Baixo Tâmega (Cinfães e Amarante),Ajuste Direto Regime Geral,Aquisição de serviços,"85121000-3, Serviços de prática médica","Administração Regional de Saúde do Norte, I. P. (503135593)","Avelino Marinho Brás Pinheiro Unipessoal, Lda (514212489)","52.000,00 €",09-03-2017,26-01-2017,365 dias,"Portugal, Porto, Amarante","Artigo 20.º, n.º 1, alínea a) do Código dos Contratos Públicos","","","","",,Não aplicável.,Não aplicável.,FALSE
Serviços de Apoio Técnico para DRH/ARSN,Ajuste Direto Regime Geral,Aquisição de serviços,"79414000-9, Serviços de consultoria em matéria de gestão de recursos humanos","Administração Regional de Saúde do Norte, I. P. (503135593)",Sofia Alexandra Gomes Fraga (238496724),"9.999,96 €",09-03-2017,20-01-2017,365 dias,"Portugal, Porto, Porto","Artigo 20.º, n.º 1, alínea a) do Código dos Contratos Públicos",29-12-2017,"9.924,20 €","",Não foram executadas a totalidade das horas contratualizadas,,Não aplicável.,Não aplicável.,FALSE
1 marquesa portátil com estrutura metálica,Ajuste Direto Regime Geral,Aquisição de bens móveis,"33192000-2, Mobiliário para fins médicos","Administração Regional de Saúde do Norte, I. P. (503135593)","Grupo Vitalino, S.A. (513083162)","198,00 €",09-03-2017,06-10-2016,86 dias,"Portugal, Vila Real, Vila Real","Artigo 20.º, n.º 1, alínea a) do Código dos Contratos Públicos",10-11-2016,"198,00 €","","",,Não aplicável.,Não aplicável.,FALSE
Aquisição de serviços médicos para o SAP Baião adstrito ao ACES Baixo Tâmega,Ajuste Direto Regime Geral,Aquisição de serviços,"79625000-1, Serviços de fornecimento de pessoal médico","Administração Regional de Saúde do Norte, I. P. (503135593)",José António Coelho Vedes (150522452),"18.200,00 €",09-03-2017,20-01-2017,365 dias,"Portugal, Porto, Baião","Artigo 20.º, n.º 1, alínea a) do Código dos Contratos Públicos",05-04-2017,"4.200,00 €",Resolução do contrato,Resolução do contrato,,Não aplicável.,Não aplicável.,FALSE
Aquisição de serviços médicos para o SAP Resende adstrito ao ACES Baixo Tâmega (APROV PRT 17000121) Procedimento n.º 54/2016/SAP Resende/ACES Baixo Tâmega/ARSN - Dr. José António Coelho Vedes,Ajuste Direto Regime Geral,Aquisição de serviços,"79625000-1, Serviços de fornecimento de pessoal médico","Administração Regional de Saúde do Norte, I. P. (503135593)",José António Coelho Vedes (150522452),"54.600,00 €",09-03-2017,20-01-2017,365 dias,"Portugal, Viseu, Resende","Artigo 20.º, n.º 1, alínea a) do Código dos Contratos Públicos",05-04-2017,"14.345,00 €",Resolução do contrato,Resolução do contrato,,Não aplicável.,Não aplicável.,FALSE
Contrato de aquisição de serviços de manutenção e suporte técnico dos equipamentos marca BULL Refª. AD/2016-71/ Aprov-Prt 17000236,Ajuste Direto Regime Geral,Aquisição de serviços,"72611000-6, Serviços de assistência técnica informática","Administração Regional de Saúde do Norte, I. P. (503135593)","GFI Portugal - Tecnologias de Informação , S.A. (502726890)","89.054,61 €",09-03-2017,14-02-2017,365 dias,"Portugal, Porto, Porto","Artigo 24.º, n.º 1, alínea e) do Código dos Contratos Públicos",28-02-2017,"89.054,61 €","","",,Não aplicável.,Não aplicável.,FALSE
"Contrato de aquisição de serviços de manutenção evolutiva e suporte aos sistemas de Logística, Compras e Faturação Refª. AD/2016-73",Ajuste Direto Regime Geral,Aquisição de serviços,"72261000-2, Serviços de assistência em matéria de software","Administração Regional de Saúde do Norte, I. P. (503135593)","Humanvision Consulting, Lda. (508695953)","182.880,00 €",09-03-2017,31-01-2017,365 dias,"Portugal, Porto, Porto","Artigo 24.º, n.º 1, alínea e) do Código dos Contratos Públicos",04-12-2017,"182.880,00 €","","",,Não aplicável.,Não aplicável.,FALSE
Aquisição de serviços médicos com especialidade em Medicina Geral e Familiar para o SAP Resende adstrito ao ACES Baixo Tâmega,Ajuste Direto Regime Geral,Aquisição de serviços,"79625000-1, Serviços de fornecimento de pessoal médico","Administração Regional de Saúde do Norte, I. P. (503135593)",Maria Margarida Correia Marinho de Faria (139745289),"58.968,00 €",09-03-2017,26-01-2017,365 dias,"Portugal, Viseu, Resende","Artigo 20.º, n.º 1, alínea a) do Código dos Contratos Públicos","","","","",,Não aplicável.,Não aplicável.,FALSE
Aquisição de prestação de serviços médicos para SAP Baião adstrito ao ACES Baixo Tâmega,Ajuste Direto Regime Geral,Aquisição de serviços,"79625000-1, Serviços de fornecimento de pessoal médico","Administração Regional de Saúde do Norte, I. P. (503135593)","Joalfa - Serviços Médicos Unipessoal, Lda (514222840)","54.600,00 €",09-03-2017,30-01-2017,365 dias,"Portugal, Porto, Baião","Artigo 20.º, n.º 1, alínea a) do Código dos Contratos Públicos","","","","",,Não aplicável.,Não aplicável.,FALSE
Aquisição de Serviços de reparação de elevadores da ARS Norte IP,Ajuste Direto Regime Geral,Aquisição de serviços,"50750000-7, Serviços de manutenção de elevadores","Administração Regional de Saúde do Norte, I. P. (503135593)",SCHMITT - Elevadores Lda (500230757),"36.585,27 €",09-03-2017,03-01-2017,365 dias,"Portugal, Distrito não determinado, Concelho não determinado","Artigo 24.º, n.º 1, alínea e) do Código dos Contratos Públicos",14-07-2017,"36.485,46 €","","Sendo o valor contratual o máximo que a entidade adjudicante se dispões a pagar, não se conseguiu utilizar o valor total.",,Não aplicável.,Não aplicável.,FALSE
Prestação serviços médicos/ACES Marão e Douro Norte,Ajuste Direto Regime Geral,Aquisição de serviços,"85121000-3, Serviços de prática médica","Administração Regional de Saúde do Norte, I. P. (503135593)",Justino José Sami (257404970),"14.352,00 €",09-03-2017,20-01-2017,365 dias,"Portugal, Vila Real, Vila Real","Artigo 20.º, n.º 1, alínea a) do Código dos Contratos Públicos",29-12-2017,"17.659,50 €","",Não foram executadas a totalidade das horas contratualizadas,,Não aplicável.,Não aplicável.,FALSE
Aquisição de serviços médicos para o SUB Arouca adstrito ao ACES Feira Arouca,Ajuste Direto Regime Geral,Aquisição de serviços,"79625000-1, Serviços de fornecimento de pessoal médico","Administração Regional de Saúde do Norte, I. P. (503135593)","Nuclishine - Serviços Médicos Unipessoal, Lda (508465737)","31.200,00 €",09-03-2017,13-02-2017,365 dias,"Portugal, Aveiro, Arouca","Artigo 20.º, n.º 1, alínea a) do Código dos Contratos Públicos",31-12-2017,"30.945,00 €","",Numero de horas realizadas inferior ao numero de horas previstas,,Não aplicável.,Não aplicável.,FALSE
Prestação serviços médicos/ACES Douro Sul,Ajuste Direto Regime Geral,Aquisição de serviços,"85121000-3, Serviços de prática médica","Administração Regional de Saúde do Norte, I. P. (503135593)",Joaquim Paulo Figueiredo Mariano Alves (200730401),"14.352,00 €",09-03-2017,02-02-2017,365 dias,"Portugal, Viseu, Moimenta da Beira","Artigo 20.º, n.º 1, alínea a) do Código dos Contratos Públicos","","","","",,Não aplicável.,Não aplicável.,FALSE
Aquisição de serviços médicos para o CRI de Viana de Castelo adstrito à DICAD,Ajuste Direto Regime Geral,Aquisição de serviços,"79625000-1, Serviços de fornecimento de pessoal médico","Administração Regional de Saúde do Norte, I. P. (503135593)",Teresa Maria da Silva Novo (188014179),"8.424,00 €",09-03-2017,25-01-2017,365 dias,"Portugal, Viana do Castelo, Viana do Castelo","Artigo 20.º, n.º 1, alínea a) do Código dos Contratos Públicos",31-12-2017,"6.763,50 €","",Numero de horas realizadas inferior ao numero de horas contratadas.,,Não aplicável.,Não aplicável.,FALSE
Prestação serviços médicos/ACES Douro Sul,Ajuste Direto Regime Geral,Aquisição de serviços,"85121000-3, Serviços de prática médica","Administração Regional de Saúde do Norte, I. P. (503135593)",Juan Carlos Ojeda Casanova (275750612),"50.232,00 €",09-03-2017,23-01-2017,362 dias,"Portugal, Viseu, Moimenta da Beira","Artigo 20.º, n.º 1, alínea a) do Código dos Contratos Públicos",29-12-2017,"43.677,00 €","",Não foram executadas a totalidade das horas contratualizadas,,Não aplicável.,Não aplicável.,FALSE
Aquisição de serviços médicos para o SUB Arouca adstrito ao ACES Feira Arouca,Ajuste Direto Regime Geral,Aquisição de serviços,"79625000-1, Serviços de fornecimento de pessoal médico","Administração Regional de Saúde do Norte, I. P. (503135593)",António Rui Marcelino Leal (180596918),"31.200,00 €",09-03-2017,26-01-2017,365 dias,"Portugal, Aveiro, Arouca","Artigo 20.º, n.º 1, alínea a) do Código dos Contratos Públicos",30-12-2017,"29.112,50 €","",Numero de horas realizadas inferior ao numero de horas previstas,,Não aplicável.,Não aplicável.,FALSE
Aquisição de serviços médicos sem especialidade para o SUB Arouca adstrito ao ACES Feira Arouca,Ajuste Direto Regime Geral,Aquisição de serviços,"79625000-1, Serviços de fornecimento de pessoal médico","Administração Regional de Saúde do Norte, I. P. (503135593)",Andriy Yatsynych (239424433),"31.200,00 €",09-03-2017,27-01-2017,365 dias,"Portugal, Aveiro, Arouca","Artigo 20.º, n.º 1, alínea a) do Código dos Contratos Públicos",27-12-2017,"31.162,50 €","",Numero de horas realizadas inferior ao numero de horas previstas,,Não aplicável.,Não aplicável.,FALSE
A.P. 2229 APROV - VR 17000166 - Aquisição de Bens - De Tratamento,Ajuste Direto Regime Geral,Aquisição de bens móveis,"33140000-3, Material médico de consumo","Administração Regional de Saúde do Norte, I. P. (503135593)","SPECULUM - ARTIGOS MÉDICOS, LDA - BESLEASING E FACTORIN  (502996323)","59,00 €",08-03-2017,06-03-2017,365 dias,"Portugal, Porto, Maia<BR/>Portugal, Vila Real, Vila Real","Artigo 20.º, n.º 1, alínea a) do Código dos Contratos Públicos",24-05-2017,"59,00 €","","",,Não aplicável.,Não aplicável.,FALSE
A.P. 2194 APROV - VR 17000165 - Aquisição de Bens - Medicamentos,Ajuste Direto Regime Geral,Aquisição de bens móveis,"33600000-6, Produtos farmacêuticos","Administração Regional de Saúde do Norte, I. P. (503135593)",B BRAUN MEDICAL LDA   (501506543),"41,20 €",08-03-2017,06-03-2017,365 dias,"Portugal, Porto, Maia<BR/>Portugal, Vila Real, Vila Real","Artigo 24.º, n.º 1, alínea e) do Código dos Contratos Públicos",09-03-2017,"41,20 €","","",,Não aplicável.,Não aplicável.,FALSE
AP 65 - Aquisição de 300 testes rápido pesquisa de Mycobacterium tuberculosis complex,Ao abrigo de acordo-quadro (art.º 259.º),Aquisição de bens móveis,"33694000-1, Meios de diagnóstico","Administração Regional de Saúde do Norte, I. P. (503135593)","Quilaban - Quimica Laboratorial Analítica, Lda (500399670)","990,00 €",07-03-2017,03-03-2017,350 dias,"Portugal, Vila Real, Vila Real<BR/>Portugal, Porto, Maia",Artigo 259.º do Código dos Contratos Públicos,31-05-2017,"990,00 €","","",,1555404,CP 2015/73 - Acordo quadro para fornecimento de Reagentes - Testes Rápidos às Instituições e Serviços do Serviço Nacional de Saúde,FALSE
Aquisição de Pipetadores - APROV-PRT 17000348,Ajuste Direto Regime Geral,Aquisição de bens móveis,"38340000-0, Instrumentos para medição de quantidades","Administração Regional de Saúde do Norte,IP (ARSN) (503135593)",VWR - Material Laboratório (503842770),"6.384,00 €",03-03-2017,03-03-2017,303 dias,"Portugal, Distrito não determinado, Concelho não determinado","Artigo 20.º, n.º 1, alínea a) do Código dos Contratos Públicos",27-03-2017,"6.384,00 €","","",,Não aplicável.,Não aplicável.,FALSE
A.P. 2791 APROV - VR 17000073 - Aquisição de Bens - Medicamentos,Ao abrigo de acordo-quadro (art.º 259.º),Aquisição de bens móveis,"33600000-6, Produtos farmacêuticos","Administração Regional de Saúde do Norte, I. P. (503135593)","LABORATORIOS MEDINFAR, S.A.      (500384045)","16.100,00 €",02-03-2017,02-03-2017,365 dias,"Portugal, Porto, Maia<BR/>Portugal, Vila Real, Vila Real",Artigo 259.º do Código dos Contratos Públicos,19-10-2017,"16.100,00 €","","",,1209176,"CONCURSO PÚBLICO PARA A CELEBRAÇÃO DE CONTRATOS PÚBLICOS DE APROVISIONAMENTO PARA A ÁREA DA SAÚDE, COM VISTA AO FORNECIMENTO DE MEDICAMENTOS DIVERSOS, ÀS INSTITUIÇÕES E SERVIÇOS DO SERVIÇO NACIONAL DE SAÚDE",FALSE
Aquisição de 900 copos esterilizados rampa filtração 250 ml,Ajuste Direto Regime Geral,Aquisição de bens móveis,"33695000-8, Todos os outros produtos não terapêuticos","Administração Regional de Saúde do Norte, I. P. (503135593)","Interface, Equipamento e Técnica, Lda (501379860)","2.007,00 €",02-03-2017,27-02-2017,350 dias,"Portugal, Porto, Maia<BR/>Portugal, Vila Real, Vila Real","Artigo 20.º, n.º 1, alínea a) do Código dos Contratos Públicos",20-03-2017,"2.007,00 €","","",,Não aplicável.,Não aplicável.,FALSE
AP 2513 - Aquisição de 2300 ampolas de Procaína 100 mg/5ml Sol inj 5 ml SC,Ajuste Direto Regime Geral,Aquisição de bens móveis,"33600000-6, Produtos farmacêuticos","Administração Regional de Saúde do Norte,IP (ARSN) (503135593)","Labesfal - Laboratórios Almiro, Lda (501169580)","4.370,00 €",02-03-2017,27-01-2017,350 dias,"Portugal, Vila Real, Vila Real","Artigo 24.º, n.º 1, alínea e) do Código dos Contratos Públicos",12-05-2017,"4.370,00 €","","",,Não aplicável.,Não aplicável.,FALSE
"Aquisição do Lote 1,2,3 e 4",Ajuste Direto Regime Geral,Aquisição de bens móveis,"30199000-0, Artigos de papelaria e outros artigos de papel","Administração Regional de Saúde do Norte,IP (ARSN) (503135593)","Olmar - Artigos de Papelaria, Lda (508831989)","2.378,00 €",02-03-2017,02-03-2017,360 dias,"Portugal, Vila Real, Vila Real<BR/>Portugal, Porto, Maia","Artigo 20.º, n.º 1, alínea a) do Código dos Contratos Públicos",27-07-2017,"2.378,00 €","","",,Não aplicável.,Não aplicável.,FALSE
AP 2807 - Aquisição de 7 000 ampolas de acetilsalicilato de lisina 900 mg Pó Sol inj IM IV,Ao abrigo de acordo-quadro (art.º 258.º),Aquisição de bens móveis,"33600000-6, Produtos farmacêuticos","Administração Regional de Saúde do Norte, I. P. (503135593)","Labesfal - laboratórios Almiro, Lda (501169580)","3.514,00 €",02-03-2017,30-01-2017,360 dias,"Portugal, Vila Real, Vila Real<BR/>Portugal, Porto, Maia",Artigo 258.º do Código dos Contratos Públicos,01-02-2017,"3.514,00 €","","",,613285,"CONCURSO PÚBLICO PARA A CELEBRAÇÃO DE CONTRATOS PÚBLICOS DE APROVISIONAMENTO PARA A ÁREA DA SAÚDE, COM VISTA AO FORNECIMENTO DE MEDICAMENTOS ANALGÉSICOS, ANTIPIRÉTICOS E ANTIDEPRESSORES, ÀS INSTITUIÇÕES E SERVIÇOS DO SERVIÇO NACIONAL DE SAÚDE",FALSE
AP 2140 - Aquisição de 1500 comprimidos Oxazepam 50 mg e 1500 comprimidos de Oxazepam 15 mg,Ao abrigo de acordo-quadro (art.º 259.º),Aquisição de bens móveis,"33600000-6, Produtos farmacêuticos","Administração Regional de Saúde do Norte, I. P. (503135593)",MEDAPHARMA (500082090),"157,05 €",02-03-2017,09-02-2017,360 dias,"Portugal, Vila Real, Vila Real<BR/>Portugal, Porto, Maia",Artigo 259.º do Código dos Contratos Públicos,16-11-2017,"157,05 €","","",,1179911,"CONCURSO PÚBLICO PARA A CELEBRAÇÃO DE CONTRATOS PÚBLICOS DE APROVISIONAMENTO PARA A ÁREA DA SAÚDE, MEDICAMENTOS DO SISTEMA NERVOSO CEREBROSPINAL, EXCETO: ANESTÉSICOS, RELAXANTES MUSCULARES, ANALGÉSICOS, ANTIPIRÉTICOS, ANTIDEPRESSORES E ANTIPSICÓTICOS, ÀS INSTITUIÇÕES E SERVIÇOS DO SERVIÇO NACIONAL DE SAÚDE",FALSE
1100 frascos de cloreto de etilo sol pulv cut,Ajuste Direto Regime Geral,Aquisição de bens móveis,"33600000-6, Produtos farmacêuticos","Administração Regional de Saúde do Norte, I. P. (503135593)","Overpharma Produtos Médicos Farmacêuticos, SA (505792362)","5.280,00 €",01-03-2017,26-01-2017,300 dias,"Portugal, Porto, Maia<BR/>Portugal, Vila Real, Vila Real","Artigo 20.º, n.º 1, alínea a) do Código dos Contratos Públicos",29-08-2017,"5.280,00 €","","",,Não aplicável.,Não aplicável.,FALSE
48 Bisnagas de mimetindeno 1 mg/g gel bisn 30 g,Ajuste Direto Regime Geral,Aquisição de bens móveis,"33600000-6, Produtos farmacêuticos","Administração Regional de Saúde do Norte,IP (ARSN) (503135593)",GlaxoSmithKline (500276994),"252,00 €",01-03-2017,15-02-2017,300 dias,"Portugal, Vila Real, Vila Real<BR/>Portugal, Porto, Maia","Artigo 24.º, n.º 1, alínea e) do Código dos Contratos Públicos",29-09-2017,"252,00 €","","",,Não aplicável.,Não aplicável.,FALSE
2600 carteiras de sais de rehidratação oral pó sol oral,Ajuste Direto Regime Geral,Aquisição de bens móveis,"33600000-6, Produtos farmacêuticos","Administração Regional de Saúde do Norte,IP (ARSN) (503135593)","Sanofi Produtos Farmacêuticos, Lda (500134960)","390,00 €",01-03-2017,15-02-2017,300 dias,"Portugal, Vila Real, Vila Real<BR/>Portugal, Porto, Maia","Artigo 20.º, n.º 1, alínea a) do Código dos Contratos Públicos",11-11-2017,"390,00 €","","",,Não aplicável.,Não aplicável.,FALSE
55 embalagens de budesonida 200 mcg/dose c/ câmara expansora,Ajuste Direto Regime Geral,Aquisição de bens móveis,"33600000-6, Produtos farmacêuticos","Administração Regional de Saúde do Norte,IP (ARSN) (503135593)","Angelini Farmacêutica, Lda (500583650)","717,75 €",01-03-2017,03-02-2017,300 dias,"Portugal, Porto, Maia<BR/>Portugal, Vila Real, Vila Real","Artigo 24.º, n.º 1, alínea e) do Código dos Contratos Públicos",27-09-2017,"717,75 €","","",,Não aplicável.,Não aplicável.,FALSE
15000 pulseiras de identificação amarelas 10000 pulseiras de identificação verdes,Ajuste Direto Regime Geral,Aquisição de bens móveis,"33140000-3, Material médico de consumo","Administração Regional de Saúde do Norte,IP (ARSN) (503135593)","Ezequiel Panão Jorge, Lda (501412727)","449,50 €",01-03-2017,03-02-2017,300 dias,"Portugal, Porto, Maia<BR/>Portugal, Vila Real, Vila Real","Artigo 20.º, n.º 1, alínea a) do Código dos Contratos Públicos",28-08-2017,"449,50 €","","",,Não aplicável.,Não aplicável.,FALSE
AP 2140 - Aquisição de 2520 comprimidos Diazepam 5 mg,Ao abrigo de acordo-quadro (art.º 259.º),Aquisição de bens móveis,"33600000-6, Produtos farmacêuticos","Administração Regional de Saúde do Norte, I. P. (503135593)","Labesfal - Laboratórios Almiro, Lda (501169580)","35,28 €",01-03-2017,09-02-2017,350 dias,"Portugal, Vila Real, Vila Real<BR/>Portugal, Porto, Maia",Artigo 259.º do Código dos Contratos Públicos,16-03-2017,"35,28 €","","",,1179911,"CONCURSO PÚBLICO PARA A CELEBRAÇÃO DE CONTRATOS PÚBLICOS DE APROVISIONAMENTO PARA A ÁREA DA SAÚDE, MEDICAMENTOS DO SISTEMA NERVOSO CEREBROSPINAL, EXCETO: ANESTÉSICOS, RELAXANTES MUSCULARES, ANALGÉSICOS, ANTIPIRÉTICOS, ANTIDEPRESSORES E ANTIPSICÓTICOS, ÀS INSTITUIÇÕES E SERVIÇOS DO SERVIÇO NACIONAL DE SAÚDE",FALSE
AP 2140 - Aquisição de 60 caixas de clorazepato dipotássico 10 mg,Ao abrigo de acordo-quadro (art.º 259.º),Aquisição de bens móveis,"33600000-6, Produtos farmacêuticos","Administração Regional de Saúde do Norte, I. P. (503135593)",Tecnifar Ind. Técnica farmacêutica (500280436),"3,39 €",01-03-2017,14-02-2017,360 dias,"Portugal, Porto, Maia<BR/>Portugal, Vila Real, Vila Real",Artigo 259.º do Código dos Contratos Públicos,29-12-2017,"","",O Contrato não cumpre a valor mínimo de encomenda,,1179911,"CONCURSO PÚBLICO PARA A CELEBRAÇÃO DE CONTRATOS PÚBLICOS DE APROVISIONAMENTO PARA A ÁREA DA SAÚDE, MEDICAMENTOS DO SISTEMA NERVOSO CEREBROSPINAL, EXCETO: ANESTÉSICOS, RELAXANTES MUSCULARES, ANALGÉSICOS, ANTIPIRÉTICOS, ANTIDEPRESSORES E ANTIPSICÓTICOS, ÀS INSTITUIÇÕES E SERVIÇOS DO SERVIÇO NACIONAL DE SAÚDE",FALSE
AP 2534 - Aquisição de 6500 ampolas de tiamina 100 mg/2ml Sol inj 2 ml IM IV SC,Ao abrigo de acordo-quadro (art.º 258.º),Aquisição de bens móveis,"33600000-6, Produtos farmacêuticos","Administração Regional de Saúde do Norte, I. P. (503135593)","Labesfal - laboratórios Almiro, S.A. (501169580)","11.577,80 €",01-03-2017,27-01-2017,350 dias,"Portugal, Porto, Maia<BR/>Portugal, Vila Real, Vila Real",Artigo 258.º do Código dos Contratos Públicos,03-11-2017,"11.577,80 €","","",,457058,"CONCURSO PÚBLICO PARA A CELEBRAÇÃO DE CONTRATOS PÚBLICOS DE APROVISIONAMENTO PARA A ÁREA DA SAÚDE, COM VISTA AO FORNECIMENTO DE MEDICAMENTOS PARA NUTRIÇÃO PARENTÉRICA, ÀS INSTITUIÇÕES E SERVIÇOS DO SERVIÇO NACIONAL DE SAÚDE",FALSE
Aquisição de 10 bisnagas de Policresaleno 50 mg/g+ Cinchocaína 10 mg/g Pom rect Bisna 30 g,Ajuste Direto Regime Geral,Aquisição de bens móveis,"33600000-6, Produtos farmacêuticos","Administração Regional de Saúde do Norte,IP (ARSN) (503135593)","Takeda - farmacêuticos Portugal, Lda (502801204)","75,00 €",01-03-2017,07-02-2017,360 dias,"Portugal, Vila Real, Vila Real<BR/>Portugal, Porto, Maia","Artigo 20.º, n.º 1, alínea a) do Código dos Contratos Públicos",29-12-2017,"75,00 €","","",,Não aplicável.,Não aplicável.,FALSE
Aquisição de 500 ampolas de procaína 100 mg/5ml Sol inj 5 ml SC,Ajuste Direto Regime Geral,Aquisição de bens móveis,"33600000-6, Produtos farmacêuticos","Administração Regional de Saúde do Norte,IP (ARSN) (503135593)","Labesfal - Laboratórios Almiro, S.A. (501169580)","950,00 €",01-03-2017,09-02-2017,360 dias,"Portugal, Vila Real, Vila Real<BR/>Portugal, Porto, Maia","Artigo 24.º, n.º 1, alínea e) do Código dos Contratos Públicos",11-07-2017,"950,00 €","","",,Não aplicável.,Não aplicável.,FALSE
AP 2536  - Aquisição de 2600 ampolas de Imunoglobulina Humana anti-D 1500 UI/ml IM,Ao abrigo de acordo-quadro (art.º 259.º),Aquisição de bens móveis,"33600000-6, Produtos farmacêuticos","Administração Regional de Saúde do Norte, I. P. (503135593)",CSL - BEHRING Lda (503047201),"95.368,00 €",01-03-2017,25-01-2017,360 dias,"Portugal, Porto, Maia<BR/>Portugal, Vila Real, Vila Real",Artigo 259.º do Código dos Contratos Públicos,18-10-2017,"95.368,00 €","","",,535788,"CONCURSO PÚBLICO PARA A CELEBRAÇÃO DE CONTRATOSPÚBLICOS DE APROVISIONAMENTO PARA A ÁREA DA SAÚDE, COM VISTA AO FORNECIMENTO DE DERIVADOS DO PLASMA HUMANOÀS INSTITUIÇÕES E SERVIÇOS DO SERVIÇO NACIONAL DE SAÚDE",FALSE
AP 2538 - Aquisição de 8 000 Bisnagas de Betametasona 1 mg/g creme,Ao abrigo de acordo-quadro (art.º 258.º),Aquisição de bens móveis,"33600000-6, Produtos farmacêuticos","Administração Regional de Saúde do Norte, I. P. (503135593)",Merck Sharp & Dohme (500191360),"14.800,00 €",01-03-2017,24-01-2017,360 dias,"Portugal, Vila Real, Vila Real<BR/>Portugal, Porto, Maia",Artigo 258.º do Código dos Contratos Públicos,21-12-2017,"14.800,00 €","","",,1513257,Acordo quadro para fornecimento de Medicamentos diversos II   às Instituições e Serviços do Serviço Nacional de Saúde,FALSE
AP 2543 - Aquisição de 2760 unidades de Esponja de gelatina 8 cm x 5 cm x 1 cm,Ao abrigo de acordo-quadro (art.º 259.º),Aquisição de bens móveis,"33140000-3, Material médico de consumo","Administração Regional de Saúde do Norte, I. P. (503135593)",Clinifar - Prod. Clinicos Farmacêuticos (503281115),"3.891,60 €",01-03-2017,07-02-2017,350 dias,"Portugal, Vila Real, Vila Real<BR/>Portugal, Porto, Maia",Artigo 259.º do Código dos Contratos Públicos,16-10-2017,"3.891,60 €","","",,1315192,Acordo Quadro para fornecimento de material de penso de efeito terapêutico às Instituições e Serviços do Serviço Nacional de Saúde,FALSE
"AP 2543 - Aquisição de 3 000 bisnagas de Trolamina 6,7 mg/g Emul cut Bisnagas 100 ml",Ao abrigo de acordo-quadro (art.º 259.º),Aquisição de bens móveis,"33140000-3, Material médico de consumo","Administração Regional de Saúde do Norte, I. P. (503135593)",Johnson & Johnson (500153370),"15.420,00 €",01-03-2017,06-02-2017,360 dias,"Portugal, Porto, Maia<BR/>Portugal, Vila Real, Vila Real",Artigo 259.º do Código dos Contratos Públicos,19-10-2017,"15.420,00 €","","",,1315192,Acordo Quadro para fornecimento de material de penso de efeito terapêutico às Instituições e Serviços do Serviço Nacional de Saúde,FALSE
"AP 2543 - Aquisição de 4 000 bisnagas de Colagenase 0,6 U/g Pom 30g",Ao abrigo de acordo-quadro (art.º 259.º),Aquisição de bens móveis,"33140000-3, Material médico de consumo","Administração Regional de Saúde do Norte, I. P. (503135593)","Smith & Nephew, Lda (503552461)","18.960,00 €",01-03-2017,06-02-2017,350 dias,"Portugal, Vila Real, Vila Real<BR/>Portugal, Porto, Maia",Artigo 259.º do Código dos Contratos Públicos,"","","","",,1315192,Acordo Quadro para fornecimento de material de penso de efeito terapêutico às Instituições e Serviços do Serviço Nacional de Saúde,FALSE
A.P. 1116 APROV - VR 16001355 - Aquisição de Bens de Tratamento,Ao abrigo de acordo-quadro (art.º 259.º),Aquisição de bens móveis,"33600000-6, Produtos farmacêuticos","Administração Regional de Saúde do Norte, I. P. (503135593)","LINEAMÉDICA- DISPOSITIVOS MÉDICOS-CIRÚRGICOS,SA (505148676)","20.965,00 €",01-03-2017,19-09-2016,240 dias,"Portugal, Vila Real, Vila Real<BR/>Portugal, Porto, Maia",Artigo 259.º do Código dos Contratos Públicos,07-12-2016,"20.965,00 €","","",,1341769,"ACORDO QUADRO PARA FORNECIMENTO DE SERINGAS, AGULHAS E CONTENTORES ÀS INSTITUIÇÕES E SERVIÇOS DO SERVIÇO NACIONAL DE SAÚDE PROGRAMA DE CONCURSO",FALSE
A.P. 1116 APROV - VR 16001355 - Aquisição de Bens de Tratamento,Ao abrigo de acordo-quadro (art.º 259.º),Aquisição de bens móveis,"33600000-6, Produtos farmacêuticos","Administração Regional de Saúde do Norte, I. P. (503135593)","PERGUT - HELLER FACTORING PORTUGUESA, S.A.   (501799729)","2.700,00 €",01-03-2017,15-09-2016,240 dias,"Portugal, Porto, Maia<BR/>Portugal, Vila Real, Vila Real",Artigo 259.º do Código dos Contratos Públicos,22-11-2016,"2.700,00 €","","",,1341769,"ACORDO QUADRO PARA FORNECIMENTO DE SERINGAS, AGULHAS E CONTENTORES ÀS INSTITUIÇÕES E SERVIÇOS DO SERVIÇO NACIONAL DE SAÚDE PROGRAMA DE CONCURSO",FALSE
A.P. 1116 APROV - VR 16001355 - Aquisição de Bens de Tratamento,Ao abrigo de acordo-quadro (art.º 259.º),Aquisição de bens móveis,"33600000-6, Produtos farmacêuticos","Administração Regional de Saúde do Norte, I. P. (503135593)","QUILABAN-QUIM. LAB. ANALITICA,LDA    (500399670)","22.128,00 €",01-03-2017,13-09-2016,240 dias,"Portugal, Porto, Maia<BR/>Portugal, Vila Real, Vila Real",Artigo 259.º do Código dos Contratos Públicos,21-10-2016,"22.128,00 €","","",,1341769,"ACORDO QUADRO PARA FORNECIMENTO DE SERINGAS, AGULHAS E CONTENTORES ÀS INSTITUIÇÕES E SERVIÇOS DO SERVIÇO NACIONAL DE SAÚDE PROGRAMA DE CONCURSO",FALSE
A.P. 1322 APROV - VR 16001595 - Aquisição de Poliuretano silicone e prata 10cmx10cm,Ao abrigo de acordo-quadro (art.º 259.º),Aquisição de bens móveis,"33600000-6, Produtos farmacêuticos","Administração Regional de Saúde do Norte, I. P. (503135593)","SMITH & NEPHEW, LDA       (503552461)","173.310,00 €",01-03-2017,12-08-2016,240 dias,"Portugal, Porto, Maia<BR/>Portugal, Vila Real, Vila Real",Artigo 259.º do Código dos Contratos Públicos,14-11-2016,"173.310,00 €","","",,1315192,Acordo Quadro para fornecimento de material de penso de efeito terapêutico às Instituições e Serviços do Serviço Nacional de Saúde,FALSE
A.P. 1506 APROV - VR 16001785 - Aquisição de Bens - Medicamentos,Ao abrigo de acordo-quadro (art.º 259.º),Aquisição de bens móveis,"33600000-6, Produtos farmacêuticos","Administração Regional de Saúde do Norte, I. P. (503135593)",LABORATORIO  PFIZER       (500162166),"1.361,43 €",01-03-2017,19-12-2016,180 dias,"Portugal, Porto, Maia<BR/>Portugal, Vila Real, Vila Real",Artigo 259.º do Código dos Contratos Públicos,28-12-2016,"1.361,43 €","","",,1415640,CP 2015/7 - ACORDO QUADRO PARA FORNECIMENTO DE HORMONAS E OUTROS MEDICAMENTOS USADOS NO TRATAMENTO DAS DOENÇAS ENDÓCRINAS ÀS INSTITUIÇÕES E SERVIÇOS DO SERVIÇO NACIONAL DE SAÚDE,FALSE
A.P. 1506 APROV - VR 16001785 - Aquisição de Bens - Medicamentos,Ao abrigo de acordo-quadro (art.º 259.º),Aquisição de bens móveis,"33600000-6, Produtos farmacêuticos","Administração Regional de Saúde do Norte, I. P. (503135593)","LILLY PORTUGAL  - PRODUTOS FARMACÊUTICOS, LDA  (500165602)","592,80 €",01-03-2017,19-12-2016,180 dias,"Portugal, Porto, Maia<BR/>Portugal, Vila Real, Vila Real",Artigo 259.º do Código dos Contratos Públicos,27-12-2016,"592,80 €","","",,1415640,CP 2015/7 - ACORDO QUADRO PARA FORNECIMENTO DE HORMONAS E OUTROS MEDICAMENTOS USADOS NO TRATAMENTO DAS DOENÇAS ENDÓCRINAS ÀS INSTITUIÇÕES E SERVIÇOS DO SERVIÇO NACIONAL DE SAÚDE,FALSE
