Objeto do Contrato,Tipo de Procedimento,Tipo(s) de Contrato,CPVs,Entidade(s) Adjudicante(s),Entidade(s) Adjudicatária(s),Preço Contratual,Data de Publicação,Data de Celebração do Contrato,Prazo de Execução,Local de Execução,Fundamentação,Data de Fecho do Contrato,Preço Total Efetivo,Causas das Alterações ao Prazo,Causas das Alterações ao Preço,Estado,N.º registo do Acordo Quadro,Descrição do Acordo Quadro,Procedimento Centralizado
Ventosas em látex,Concurso público,Aquisição de bens móveis,"33140000-3, Material médico de consumo","Centro Hospitalar de Lisboa Central, E. P. E. (508080142)","SPECULUM-ARTIGOS MEDICOS,S.A (502996323)","76.068,30 €",10-01-2017,02-01-2017,363 dias,"Portugal, Lisboa, Lisboa","Artigo 20.º, n.º 1, alínea b) do Código dos Contratos Públicos",,,,,,Não aplicável.,Não aplicável.,FALSE
Agulhas e conjuntos plexo e neuro estimulação,Ajuste Direto Regime Geral,Aquisição de bens móveis,"33140000-3, Material médico de consumo","Centro Hospitalar de Lisboa Central, E.P.E. (CHLC) (508080142)","B.BRAUN MEDICAL, LDA (501506543)","2.074,15 €",10-01-2017,22-12-2016,365 dias,"Portugal, Lisboa, Lisboa","Artigo 20.º, n.º 1, alínea a) do Código dos Contratos Públicos",,,,,,Não aplicável.,Não aplicável.,FALSE
Aquisição de agulhas e conjuntos plexo e neuro estimulação,Ajuste Direto Regime Geral,Aquisição de bens móveis,"33140000-3, Material médico de consumo","Centro Hospitalar de Lisboa Central, E.P.E. (CHLC) (508080142)","SPECULUM-ARTIGOS MEDICOS,S.A (502996323)","23.673,80 €",10-01-2017,02-01-2017,363 dias,"Portugal, Lisboa, Lisboa","Artigo 20.º, n.º 1, alínea a) do Código dos Contratos Públicos",,,,,,Não aplicável.,Não aplicável.,FALSE
Batas impermeáveis reforçadas,Concurso público,Aquisição de bens móveis,"33140000-3, Material médico de consumo","Centro Hospitalar de Lisboa Central, E. P. E. (508080142)","OASIPOR - IMP. EXP., LDA (502260750)","116.688,36 €",10-01-2017,02-01-2017,363 dias,"Portugal, Lisboa, Lisboa",Artigo 259.º do Código dos Contratos Públicos,,,,,,Não aplicável.,Não aplicável.,FALSE
"Prolongamentos, tampas e torneiras de três vias",Ao abrigo de acordo-quadro (art.º 259.º),Aquisição de bens móveis,"33000000-0, Equipamento médico, medicamentos e produtos para cuidados pessoais","Centro Hospitalar de Lisboa Central, E. P. E. (508080142)",SOCIME II - Produtos Medicos Lda (504453939),"23.257,80 €",10-01-2017,05-01-2017,360 dias,"Portugal, Lisboa, Lisboa",Artigo 259.º do Código dos Contratos Públicos,,,,,,2349386,Acordo Quadro para o fornecimento de Cateteres às Instituições e Serviços do Serviço Nacional de Saúde,FALSE
"Aquisição de prolongamentos, tampas e torneiras de três vias",Ao abrigo de acordo-quadro (art.º 259.º),Aquisição de bens móveis,"33000000-0, Equipamento médico, medicamentos e produtos para cuidados pessoais","Centro Hospitalar de Lisboa Central, E. P. E. (508080142)",PMH-PROD.MEDICO-HOSPITALARES (502376899),"32.475,06 €",10-01-2017,05-01-2017,360 dias,"Portugal, Lisboa, Lisboa",Artigo 259.º do Código dos Contratos Públicos,,,,,,2349386,Acordo Quadro para o fornecimento de Cateteres às Instituições e Serviços do Serviço Nacional de Saúde,FALSE
Compressas,Ao abrigo de acordo-quadro (art.º 259.º),Aquisição de bens móveis,"33000000-0, Equipamento médico, medicamentos e produtos para cuidados pessoais","Centro Hospitalar de Lisboa Central, E. P. E. (508080142)","Albino Dias de Andrade, Lda (500013810)","180.696,00 €",09-01-2017,03-01-2017,362 dias,"Portugal, Lisboa, Lisboa",Artigo 259.º do Código dos Contratos Públicos,,,,,,534953,"CONCURSO PÚBLICO PARA A CELEBRAÇÃO DE CONTRATOS PÚBLICOS DE APROVISIONAMENTO PARA A ÁREA DA SAÚDE, COM VISTA AO FORNECIMENTO DE MATERIAL DE PENSO TRADICIONAL/CLASSICO - PARTE 1 - ÀS INSTITUIÇÕES E SERVIÇOS DO SERVIÇO NACIONAL DE SAÚDE  ",FALSE
4-2.0051/17 - Talas e Ligaduras para 2017,Ajuste Direto Regime Geral,Aquisição de bens móveis,"33140000-3, Material médico de consumo","Centro Hospitalar de Lisboa Central, E.P.E. (CHLC) (508080142)","JMV - Produtos Hospitalares, Lda (501887148)","1.103,30 €",09-01-2017,09-01-2017,355 dias,"Portugal, Lisboa, Lisboa","Artigo 20.º, n.º 1, alínea a) do Código dos Contratos Públicos",,,,,,Não aplicável.,Não aplicável.,FALSE
Fraldas descartáveis,Ao abrigo de acordo-quadro (art.º 259.º),Aquisição de bens móveis,"33000000-0, Equipamento médico, medicamentos e produtos para cuidados pessoais","Centro Hospitalar de Lisboa Central, E. P. E. (508080142)","PAUL HARTMANN, LDA. (502271728)","5.181,21 €",09-01-2017,03-01-2017,362 dias,"Portugal, Lisboa, Lisboa",Artigo 259.º do Código dos Contratos Públicos,,,,,,389355,"CONCURSO PÚBLICO PARA A CELEBRAÇÃO DE CONTRATOS PÚBLICOS DE APROVISIONAMENTO PARA AQUISIÇÃO DE MATERIAL DE INCONTINÊNCIA, PROTECÇÃO CUTÂNEA E ALIVIO DE PRESSÃO",FALSE
4-2.0051/17 - Talas e Ligaduras para 2017,Ajuste Direto Regime Geral,Aquisição de bens móveis,"33140000-3, Material médico de consumo","Centro Hospitalar de Lisboa Central, E.P.E. (CHLC) (508080142)","BSN Medical, S. A. (505385058)","1.489,00 €",09-01-2017,09-01-2017,355 dias,"Portugal, Lisboa, Lisboa","Artigo 20.º, n.º 1, alínea a) do Código dos Contratos Públicos",,,,,,Não aplicável.,Não aplicável.,FALSE
Fraldas descartáveis,Ao abrigo de acordo-quadro (art.º 259.º),Aquisição de bens móveis,"33000000-0, Equipamento médico, medicamentos e produtos para cuidados pessoais","Centro Hospitalar de Lisboa Central, E. P. E. (508080142)","Albino Dias de Andrade, Lda (500013810)","170.127,93 €",09-01-2017,03-01-2017,362 dias,"Portugal, Lisboa, Lisboa",Artigo 259.º do Código dos Contratos Públicos,,,,,,389355,"CONCURSO PÚBLICO PARA A CELEBRAÇÃO DE CONTRATOS PÚBLICOS DE APROVISIONAMENTO PARA AQUISIÇÃO DE MATERIAL DE INCONTINÊNCIA, PROTECÇÃO CUTÂNEA E ALIVIO DE PRESSÃO",FALSE
Fraldas descartáveis,Ao abrigo de acordo-quadro (art.º 259.º),Aquisição de bens móveis,"33000000-0, Equipamento médico, medicamentos e produtos para cuidados pessoais","Centro Hospitalar de Lisboa Central, E. P. E. (508080142)","PROCTER & GAMBLE PORTUGALl - PRODUTOS de CCONSUMO, HIGIENE e SAÚDE (503037753)","31.459,79 €",09-01-2017,03-01-2017,362 dias,"Portugal, Lisboa, Lisboa",Artigo 259.º do Código dos Contratos Públicos,,,,,,389355,"CONCURSO PÚBLICO PARA A CELEBRAÇÃO DE CONTRATOS PÚBLICOS DE APROVISIONAMENTO PARA AQUISIÇÃO DE MATERIAL DE INCONTINÊNCIA, PROTECÇÃO CUTÂNEA E ALIVIO DE PRESSÃO",FALSE
"Esponjas, babetes, chinelos e conjuntos de calça e casaco",Ao abrigo de acordo-quadro (art.º 259.º),Aquisição de bens móveis,"33000000-0, Equipamento médico, medicamentos e produtos para cuidados pessoais","Centro Hospitalar de Lisboa Central, E. P. E. (508080142)","OASIPOR - IMP. EXP., LDA (502260750)","29.460,20 €",09-01-2017,04-01-2017,361 dias,"Portugal, Lisboa, Lisboa",Artigo 259.º do Código dos Contratos Públicos,,,,,,389355,"CONCURSO PÚBLICO PARA A CELEBRAÇÃO DE CONTRATOS PÚBLICOS DE APROVISIONAMENTO PARA AQUISIÇÃO DE MATERIAL DE INCONTINÊNCIA, PROTECÇÃO CUTÂNEA E ALIVIO DE PRESSÃO",FALSE
"Esponjas, babetes, chinelos e conjuntos de calça e casaco",Ao abrigo de acordo-quadro (art.º 259.º),Aquisição de bens móveis,"33000000-0, Equipamento médico, medicamentos e produtos para cuidados pessoais","Centro Hospitalar de Lisboa Central, E. P. E. (508080142)","Bastos Viegas, S.A. (500042772)","8.451,16 €",09-01-2017,04-01-2017,361 dias,"Portugal, Lisboa, Lisboa",Artigo 259.º do Código dos Contratos Públicos,,,,,,389355,"CONCURSO PÚBLICO PARA A CELEBRAÇÃO DE CONTRATOS PÚBLICOS DE APROVISIONAMENTO PARA AQUISIÇÃO DE MATERIAL DE INCONTINÊNCIA, PROTECÇÃO CUTÂNEA E ALIVIO DE PRESSÃO",FALSE
"Esponjas, babetes, chinelos e conjuntos de calça e casaco",Ao abrigo de acordo-quadro (art.º 259.º),Aquisição de bens móveis,"33000000-0, Equipamento médico, medicamentos e produtos para cuidados pessoais","Centro Hospitalar de Lisboa Central, E. P. E. (508080142)",QUILABAN QUIMICA LAB ANALITICA (500399670),"67,77 €",09-01-2017,04-01-2017,361 dias,"Portugal, Lisboa, Lisboa",Artigo 259.º do Código dos Contratos Públicos,,,,,,389355,"CONCURSO PÚBLICO PARA A CELEBRAÇÃO DE CONTRATOS PÚBLICOS DE APROVISIONAMENTO PARA AQUISIÇÃO DE MATERIAL DE INCONTINÊNCIA, PROTECÇÃO CUTÂNEA E ALIVIO DE PRESSÃO",FALSE
"Adesivos, pensos e suturas",Ao abrigo de acordo-quadro (art.º 259.º),Aquisição de bens móveis,"33000000-0, Equipamento médico, medicamentos e produtos para cuidados pessoais","Centro Hospitalar de Lisboa Central, E. P. E. (508080142)","PAUL HARTMANN, LDA. (502271728)","4.304,90 €",09-01-2017,02-01-2017,362 dias,"Portugal, Lisboa, Lisboa",Artigo 259.º do Código dos Contratos Públicos,,,,,,534953,"CONCURSO PÚBLICO PARA A CELEBRAÇÃO DE CONTRATOS PÚBLICOS DE APROVISIONAMENTO PARA A ÁREA DA SAÚDE, COM VISTA AO FORNECIMENTO DE MATERIAL DE PENSO TRADICIONAL/CLASSICO - PARTE 1 - ÀS INSTITUIÇÕES E SERVIÇOS DO SERVIÇO NACIONAL DE SAÚDE  ",FALSE
"Adesivos, pensos e suturas cutâneas",Ao abrigo de acordo-quadro (art.º 259.º),Aquisição de bens móveis,"33000000-0, Equipamento médico, medicamentos e produtos para cuidados pessoais","Centro Hospitalar de Lisboa Central, E. P. E. (508080142)",OVERPHARMA-PROD.MEDICOS FARMACEUTICOS (505792362),"23.521,29 €",09-01-2017,02-01-2017,362 dias,"Portugal, Lisboa, Lisboa",Artigo 259.º do Código dos Contratos Públicos,,,,,,534953,"CONCURSO PÚBLICO PARA A CELEBRAÇÃO DE CONTRATOS PÚBLICOS DE APROVISIONAMENTO PARA A ÁREA DA SAÚDE, COM VISTA AO FORNECIMENTO DE MATERIAL DE PENSO TRADICIONAL/CLASSICO - PARTE 1 - ÀS INSTITUIÇÕES E SERVIÇOS DO SERVIÇO NACIONAL DE SAÚDE  ",FALSE
"Adesivos, pensos e suturas cutâneas",Ao abrigo de acordo-quadro (art.º 259.º),Aquisição de bens móveis,"33000000-0, Equipamento médico, medicamentos e produtos para cuidados pessoais","Centro Hospitalar de Lisboa Central, E. P. E. (508080142)","Bastos Viegas, S.A. (500042772)","19.060,58 €",09-01-2017,02-01-2017,362 dias,"Portugal, Lisboa, Lisboa",Artigo 259.º do Código dos Contratos Públicos,,,,,,534953,"CONCURSO PÚBLICO PARA A CELEBRAÇÃO DE CONTRATOS PÚBLICOS DE APROVISIONAMENTO PARA A ÁREA DA SAÚDE, COM VISTA AO FORNECIMENTO DE MATERIAL DE PENSO TRADICIONAL/CLASSICO - PARTE 1 - ÀS INSTITUIÇÕES E SERVIÇOS DO SERVIÇO NACIONAL DE SAÚDE  ",FALSE
Aquisição de manápulas e resguardos,Ao abrigo de acordo-quadro (art.º 259.º),Aquisição de bens móveis,"33000000-0, Equipamento médico, medicamentos e produtos para cuidados pessoais","Centro Hospitalar de Lisboa Central, E. P. E. (508080142)","MEDLINE INTERNACIONAL PORTUGAL , UNIP, LDA (510533515)","48.390,61 €",09-01-2017,03-01-2017,362 dias,"Portugal, Lisboa, Lisboa",Artigo 259.º do Código dos Contratos Públicos,,,,,,389355,"CONCURSO PÚBLICO PARA A CELEBRAÇÃO DE CONTRATOS PÚBLICOS DE APROVISIONAMENTO PARA AQUISIÇÃO DE MATERIAL DE INCONTINÊNCIA, PROTECÇÃO CUTÂNEA E ALIVIO DE PRESSÃO",FALSE
Aquisição de manápulas e resguardos,Ao abrigo de acordo-quadro (art.º 259.º),Aquisição de bens móveis,"33000000-0, Equipamento médico, medicamentos e produtos para cuidados pessoais","Centro Hospitalar de Lisboa Central, E. P. E. (508080142)","PAUL HARTMANN, LDA. (502271728)","106.400,41 €",09-01-2017,03-01-2017,362 dias,"Portugal, Lisboa, Lisboa",Artigo 259.º do Código dos Contratos Públicos,,,,,,389355,"CONCURSO PÚBLICO PARA A CELEBRAÇÃO DE CONTRATOS PÚBLICOS DE APROVISIONAMENTO PARA AQUISIÇÃO DE MATERIAL DE INCONTINÊNCIA, PROTECÇÃO CUTÂNEA E ALIVIO DE PRESSÃO",FALSE
Manápulas e resguardos,Ao abrigo de acordo-quadro (art.º 259.º),Aquisição de bens móveis,"33000000-0, Equipamento médico, medicamentos e produtos para cuidados pessoais","Centro Hospitalar de Lisboa Central, E. P. E. (508080142)",QUILABAN QUIMICA LAB ANALITICA (500399670),"746,23 €",09-01-2017,03-01-2017,362 dias,"Portugal, Lisboa, Lisboa",Artigo 259.º do Código dos Contratos Públicos,,,,,,389355,"CONCURSO PÚBLICO PARA A CELEBRAÇÃO DE CONTRATOS PÚBLICOS DE APROVISIONAMENTO PARA AQUISIÇÃO DE MATERIAL DE INCONTINÊNCIA, PROTECÇÃO CUTÂNEA E ALIVIO DE PRESSÃO",FALSE
Manápulas e resguardos,Ao abrigo de acordo-quadro (art.º 259.º),Aquisição de bens móveis,"33000000-0, Equipamento médico, medicamentos e produtos para cuidados pessoais","Centro Hospitalar de Lisboa Central, E. P. E. (508080142)","Bastos Viegas, S.A. (500042772)","755,78 €",09-01-2017,03-01-2017,362 dias,"Portugal, Lisboa, Lisboa",Artigo 259.º do Código dos Contratos Públicos,,,,,,389355,"CONCURSO PÚBLICO PARA A CELEBRAÇÃO DE CONTRATOS PÚBLICOS DE APROVISIONAMENTO PARA AQUISIÇÃO DE MATERIAL DE INCONTINÊNCIA, PROTECÇÃO CUTÂNEA E ALIVIO DE PRESSÃO",FALSE
Contrecetivos,Ao abrigo de acordo-quadro (art.º 259.º),Aquisição de bens móveis,"33000000-0, Equipamento médico, medicamentos e produtos para cuidados pessoais","Centro Hospitalar de Lisboa Central, E. P. E. (508080142)","Clínifar - Produtos Clínicos e Farmacêuticos, S.A. (503281115)","1.603,46 €",09-01-2017,03-01-2017,363 dias,"Portugal, Lisboa, Lisboa",Artigo 259.º do Código dos Contratos Públicos,,,,,,530535,"CONCURSO PÚBLICO PARA A CELEBRAÇÃO DE CONTRATOS PÚBLICOS DE APROVISIONAMENTO PARA A ÁREA DA SAÚDE, COM VISTA AO FORNECIMENTO DE CONTRACETIVOS ORAIS, PROFILÁTICOS E MECÂNICOS ÀS INSTITUIÇÕES E SERVIÇOS DO SERVIÇO NACIONAL DE SAÚDE  ",FALSE
Aquisição de Pertuzumab 420mg /14ml  Sol Inj,Ao abrigo de acordo-quadro (art.º 259.º),Aquisição de bens móveis,"33000000-0, Equipamento médico, medicamentos e produtos para cuidados pessoais","Centro Hospitalar de Lisboa Central, E. P. E. (508080142)",Roche farmacêutica Quimica Lda (500233810),"55.233,00 €",09-01-2017,13-12-2016,30 dias,"Portugal, Lisboa, Lisboa",Artigo 259.º do Código dos Contratos Públicos,,,,,,1771819,CP 2015/6 - Acordo quadro para o fornecimento de Medicamentos do Foro Oncológico,FALSE
Aquisição de Etravirina 200mg comp,Ao abrigo de acordo-quadro (art.º 259.º),Aquisição de bens móveis,"33000000-0, Equipamento médico, medicamentos e produtos para cuidados pessoais","Centro Hospitalar de Lisboa Central, E. P. E. (508080142)",janssen Cilag farmacûrica Lda (500189412),"112.007,28 €",09-01-2017,19-12-2016,30 dias,"Portugal, Lisboa, Lisboa",Artigo 259.º do Código dos Contratos Públicos,,,,,,1120578,"CONCURSO PÚBLICO PARA A CELEBRAÇÃO DE CONTRATOS PÚBLICOS DE APROVISIONAMENTO PARA A ÁREA DA SAÚDE, COM VISTA AO FORNECIMENTO DE MEDICAMENTOS ANTI-RETROVIRAIS, ÀS INSTITUIÇÕES E SERVIÇOS DO SERVIÇO NACIONAL DE SAÚDE  ",FALSE
HORMONA ANTI-MULLERIANA,Ajuste Direto Regime Geral,Aquisição de bens móveis,"33696000-5, Reagentes e meios de contraste","Centro Hospitalar de Lisboa Central, E.P.E. (CHLC) (508080142)","BECKMAN COULTER PORTUGAL UNIPESSOAL, LDA (509035167)","31.080,00 €",07-01-2017,22-09-2016,365 dias,"Portugal, Lisboa, Lisboa","Artigo 20.º, n.º 1, alínea a) do Código dos Contratos Públicos",,,,,,Não aplicável.,Não aplicável.,FALSE
INFLUENZA A PCR,Ajuste Direto Regime Geral,Aquisição de bens móveis,"33694000-1, Meios de diagnóstico","Centro Hospitalar de Lisboa Central, E. P. E. (508080142)","Werfen Portugal, Lda (501086110)","6.300,00 €",07-01-2017,23-12-2016,30 dias,"Portugal, Lisboa, Lisboa","Artigo 20.º, n.º 1, alínea a) do Código dos Contratos Públicos",,,,,,Não aplicável.,Não aplicável.,FALSE
OSMOMETRO,Ajuste Direto Regime Geral,Aquisição de bens móveis,"33694000-1, Meios de diagnóstico","Centro Hospitalar de Lisboa Central, E. P. E. (508080142)","Grupo Taper-Equipamentos de Precisão Científica, Lda. (506886336)","381,00 €",07-01-2017,14-12-2016,30 dias,"Portugal, Lisboa, Lisboa","Artigo 20.º, n.º 1, alínea a) do Código dos Contratos Públicos",,,,,,Não aplicável.,Não aplicável.,FALSE
INFLUENZA A,Ajuste Direto Regime Geral,Aquisição de bens móveis,"33694000-1, Meios de diagnóstico","Centro Hospitalar de Lisboa Central, E. P. E. (508080142)","Werfen Portugal, Lda (501086110)","5.850,00 €",07-01-2017,06-12-2016,30 dias,"Portugal, Lisboa, Lisboa","Artigo 20.º, n.º 1, alínea a) do Código dos Contratos Públicos",,,,,,Não aplicável.,Não aplicável.,FALSE
REAGENTES PARA FERTILIZAÇÃO IN VITRO,Ajuste Direto Regime Geral,Aquisição de bens móveis,"33696300-8, Reagentes químicos","Centro Hospitalar de Lisboa Central, E.P.E. (CHLC) (508080142)",ORIGIO a/s (DK10975077),"12.577,06 €",07-01-2017,29-10-2016,60 dias,"Portugal, Lisboa, Lisboa","Artigo 20.º, n.º 1, alínea a) do Código dos Contratos Públicos",,,,,,Não aplicável.,Não aplicável.,FALSE
TRACOLIMUS II SEROLIMUS,Ajuste Direto Regime Geral,Aquisição de bens móveis,"33696000-5, Reagentes e meios de contraste","Centro Hospitalar de Lisboa Central, E. P. E. (508080142)","ABBOTT LABORATÓRIOS, LDA (500006148)","17.422,00 €",07-01-2017,12-12-2016,30 dias,"Portugal, Lisboa, Lisboa","Artigo 20.º, n.º 1, alínea a) do Código dos Contratos Públicos",,,,,,Não aplicável.,Não aplicável.,FALSE
Conjuntos swivel e diversos sistemas,Ajuste Direto Regime Geral,Aquisição de bens móveis,"33140000-3, Material médico de consumo","Centro Hospitalar de Lisboa Central, E.P.E. (CHLC) (508080142)","INTERSURGICAL PORTUGAL, LDA (503480045)","35.059,20 €",06-01-2017,02-01-2017,364 dias,"Portugal, Lisboa, Lisboa","Artigo 20.º, n.º 1, alínea a) do Código dos Contratos Públicos",,,,,,Não aplicável.,Não aplicável.,FALSE
Clamps e cateteres,Ajuste Direto Regime Geral,Aquisição de bens móveis,"33000000-0, Equipamento médico, medicamentos e produtos para cuidados pessoais","Centro Hospitalar de Lisboa Central, E. P. E. (508080142)",AVIQUIMICA-IMPORT.E MANUF.LDA (500039720),"267,50 €",06-01-2017,02-01-2017,365 dias,"Portugal, Lisboa, Lisboa","Artigo 20.º, n.º 1, alínea a) do Código dos Contratos Públicos",,,,,,Não aplicável.,Não aplicável.,FALSE
Clamps e cateteres,Ajuste Direto Regime Geral,Aquisição de bens móveis,"33000000-0, Equipamento médico, medicamentos e produtos para cuidados pessoais","Centro Hospitalar de Lisboa Central, E. P. E. (508080142)","TELEFLEX MEDICAL, S.A. (980249783)","1.182,23 €",06-01-2017,02-01-2017,365 dias,"Portugal, Lisboa, Lisboa","Artigo 20.º, n.º 1, alínea a) do Código dos Contratos Públicos",,,,,,Não aplicável.,Não aplicável.,FALSE
Cateteres epicutaneos e umbilicais,Ajuste Direto Regime Geral,Aquisição de bens móveis,"33000000-0, Equipamento médico, medicamentos e produtos para cuidados pessoais","Centro Hospitalar de Lisboa Central, E. P. E. (508080142)","VYGON (PORTUGAL) - PRODUTOS MEDICOS E FARMACÊUTICOS, LDA (503232785)","14.681,40 €",06-01-2017,02-01-2017,364 dias,"Portugal, Lisboa, Lisboa","Artigo 20.º, n.º 1, alínea a) do Código dos Contratos Públicos",,,,,,Não aplicável.,Não aplicável.,FALSE
5-2.0005/17 - Aquisição de Cateteres,Ao abrigo de acordo-quadro (art.º 259.º),Aquisição de bens móveis,"33140000-3, Material médico de consumo","Centro Hospitalar de Lisboa Central, E. P. E. (508080142)",Socime II Lda (504453939),"87.730,00 €",05-01-2017,05-01-2017,360 dias,"Portugal, Lisboa, Lisboa",Artigo 259.º do Código dos Contratos Públicos,,,,,,2349386,Acordo Quadro para o fornecimento de Cateteres às Instituições e Serviços do Serviço Nacional de Saúde,FALSE
5-2.0005/17 - Aquisição de Cateteres,Ao abrigo de acordo-quadro (art.º 259.º),Aquisição de bens móveis,"33140000-3, Material médico de consumo","Centro Hospitalar de Lisboa Central, E. P. E. (508080142)","Smiths Medical, Lda (507445937)","7.723,50 €",05-01-2017,05-01-2017,360 dias,"Portugal, Lisboa, Lisboa",Artigo 259.º do Código dos Contratos Públicos,,,,,,2349386,Acordo Quadro para o fornecimento de Cateteres às Instituições e Serviços do Serviço Nacional de Saúde,FALSE
5-2.0005/17 - Aquisição de Cateteres,Ao abrigo de acordo-quadro (art.º 259.º),Aquisição de bens móveis,"33140000-3, Material médico de consumo","Centro Hospitalar de Lisboa Central, E. P. E. (508080142)",PMH S. A. (502376899),"58.465,00 €",05-01-2017,05-01-2017,360 dias,"Portugal, Lisboa, Lisboa",Artigo 259.º do Código dos Contratos Públicos,,,,,,2349386,Acordo Quadro para o fornecimento de Cateteres às Instituições e Serviços do Serviço Nacional de Saúde,FALSE
5-2.0005/17 - Aquisição de Cateteres,Ao abrigo de acordo-quadro (art.º 259.º),Aquisição de bens móveis,"33140000-3, Material médico de consumo","Centro Hospitalar de Lisboa Central, E. P. E. (508080142)","B. Braun Medical, Lda (501506543)","1.660,50 €",05-01-2017,03-01-2017,360 dias,"Portugal, Lisboa, Lisboa",Artigo 259.º do Código dos Contratos Públicos,,,,,,2349386,Acordo Quadro para o fornecimento de Cateteres às Instituições e Serviços do Serviço Nacional de Saúde,FALSE
"Sacos de urostomia, colostomia e ileostomia",Ajuste Direto Regime Geral,Aquisição de bens móveis,"33140000-3, Material médico de consumo","Centro Hospitalar de Lisboa Central, E.P.E. (CHLC) (508080142)","B. BRAUN MEDICAL, LDA. (501506543)","7.818,55 €",05-01-2017,04-01-2017,364 dias,"Portugal, Lisboa, Lisboa","Artigo 20.º, n.º 1, alínea a) do Código dos Contratos Públicos",,,,,,Não aplicável.,Não aplicável.,FALSE
"Sacos de urostomia, colostomia e ileostomia",Ajuste Direto Regime Geral,Aquisição de bens móveis,"33140000-3, Material médico de consumo","Centro Hospitalar de Lisboa Central, E.P.E. (CHLC) (508080142)","MEDICINALIA-CORMEDICA, LDA (500684324)","3.243,52 €",05-01-2017,04-01-2017,364 dias,"Portugal, Lisboa, Lisboa","Artigo 20.º, n.º 1, alínea a) do Código dos Contratos Públicos",,,,,,Não aplicável.,Não aplicável.,FALSE
"Sacos de urostomia, colostomia e ileostomia",Ajuste Direto Regime Geral,Aquisição de bens móveis,"33140000-3, Material médico de consumo","Centro Hospitalar de Lisboa Central, E.P.E. (CHLC) (508080142)",SPCARE (508284872),"13.126,70 €",05-01-2017,02-01-2017,364 dias,"Portugal, Lisboa, Lisboa","Artigo 20.º, n.º 1, alínea a) do Código dos Contratos Públicos",,,,,,Não aplicável.,Não aplicável.,FALSE
Sistemas para administração de soros,Ao abrigo de acordo-quadro (art.º 259.º),Aquisição de bens móveis,"33000000-0, Equipamento médico, medicamentos e produtos para cuidados pessoais","Centro Hospitalar de Lisboa Central, E. P. E. (508080142)","QUILABAN,LDA. (500399670)","126.428,30 €",05-01-2017,03-01-2017,363 dias,"Portugal, Lisboa, Lisboa",Artigo 259.º do Código dos Contratos Públicos,,,,,,2349386,Acordo Quadro para o fornecimento de Cateteres às Instituições e Serviços do Serviço Nacional de Saúde,FALSE
Material para colheita de sangue,Ao abrigo de acordo-quadro (art.º 259.º),Aquisição de bens móveis,"33000000-0, Equipamento médico, medicamentos e produtos para cuidados pessoais","Centro Hospitalar de Lisboa Central, E. P. E. (508080142)","SARSTEDT TECNOL.DE LABORATORIO, LDA (503019461)","187.070,08 €",05-01-2017,04-01-2017,362 dias,"Portugal, Lisboa, Lisboa",Artigo 259.º do Código dos Contratos Públicos,,,,,,1350003,Acordo Quadro para fornecimento de sistemas fechados e material diverso de recolha de sangue às instituições do SNS,FALSE
Controlador de fluxo intravenoso,Ao abrigo de acordo-quadro (art.º 259.º),Aquisição de bens móveis,"33000000-0, Equipamento médico, medicamentos e produtos para cuidados pessoais","Centro Hospitalar de Lisboa Central, E. P. E. (508080142)","PMH PRODUTOS MEDIC. HOSPITAL, SA (502376899)","34.704,38 €",05-01-2017,03-01-2017,363 dias,"Portugal, Lisboa, Lisboa","Artigo 20.º, n.º 1, alínea b) do Código dos Contratos Públicos",,,,,,2349386,Acordo Quadro para o fornecimento de Cateteres às Instituições e Serviços do Serviço Nacional de Saúde,FALSE
Dispositivos para testes de glicémia,Ao abrigo de acordo-quadro (art.º 259.º),Aquisição de bens móveis,"33000000-0, Equipamento médico, medicamentos e produtos para cuidados pessoais","Centro Hospitalar de Lisboa Central, E. P. E. (508080142)","SARSTEDT TECNOL.DE LABORATORIO, LDA (503019461)","24.368,34 €",05-01-2017,04-01-2017,362 dias,"Portugal, Lisboa, Lisboa","Artigo 20.º, n.º 1, alínea b) do Código dos Contratos Públicos",,,,,,611510,"CONCURSO PÚBLICO PARA A CELEBRAÇÃO DE CONTRATOS PÚBLICOS DE APROVISIONAMENTO PARA A ÁREA DA SAÚDE, COM VISTA AO FORNECIMENTO DE MATERIAL DE PREVENÇÃO E DETEÇÃO HIV ÀS INSTITUIÇÕES E SERVIÇOS DO SERVIÇO NACIONAL DE SAÚDE",FALSE
Sacos de cadáver,Ajuste Direto Regime Geral,Aquisição de bens móveis,"33100000-1, Equipamento médico","Centro Hospitalar de Lisboa Central, E.P.E. (CHLC) (508080142)",M.U.C.-MATERIAL DE UTILIDADE CLINICA LDA (502379308),"9.005,00 €",05-01-2017,03-01-2017,363 dias,"Portugal, Lisboa, Lisboa","Artigo 20.º, n.º 1, alínea a) do Código dos Contratos Públicos",,,,,,Não aplicável.,Não aplicável.,FALSE
"1-2.0043/17 - Coil, Microcateter e Punho para Neuroradiologia para 2017",Concurso público,Aquisição de bens móveis,"33140000-3, Material médico de consumo","Centro Hospitalar de Lisboa Central, E. P. E. (508080142)",Pednumbra Europe GmbH (DE815054796),"108.154,00 €",05-01-2017,02-01-2017,365 dias,"Portugal, Lisboa, Lisboa","Artigo 20.º, n.º 1, alínea b) do Código dos Contratos Públicos",,,,,,Não aplicável.,Não aplicável.,FALSE
Sistemas de medição da diurese horária,Concurso público,Aquisição de bens móveis,"33140000-3, Material médico de consumo","Centro Hospitalar de Lisboa Central, E. P. E. (508080142)","AVIQUÍMICA IMPORT. E MANUFACTURAS, LDA. (500039720)","158.019,30 €",05-01-2017,02-01-2017,364 dias,"Portugal, Lisboa, Lisboa","Artigo 20.º, n.º 1, alínea b) do Código dos Contratos Públicos",,,,,,Não aplicável.,Não aplicável.,FALSE
5-2.0019/17 - Sistemas de Monitorização,Ao abrigo de acordo-quadro (art.º 259.º),Aquisição de bens móveis,"33140000-3, Material médico de consumo","Centro Hospitalar de Lisboa Central, E. P. E. (508080142)","Smiths Medical (Portugal), Unipessoal, Lda (507445937)","56.265,60 €",05-01-2017,05-01-2017,360 dias,"Portugal, Lisboa, Lisboa",Artigo 259.º do Código dos Contratos Públicos,,,,,,552526,"CONCURSO PÚBLICO PARA A CELEBRAÇÃO DE CONTRATOS PÚBLICOS DE APROVISIONAMENTO PARA A ÁREA DA SAÚDE, COM VISTA AO FORNECIMENTO DE DISPOSITIVOS MÉDICOS DIVERSOS",FALSE
Cavilhas e parafusos,Ajuste Direto Regime Geral,Aquisição de bens móveis,"33000000-0, Equipamento médico, medicamentos e produtos para cuidados pessoais","Centro Hospitalar de Lisboa Central, E. P. E. (508080142)","Stryker Portugal, Lda. (504594214)","15.555,00 €",04-01-2017,16-12-2016,15 dias,"Portugal, Lisboa, Lisboa","Artigo 20.º, n.º 1, alínea a) do Código dos Contratos Públicos",,,,,,Não aplicável.,Não aplicável.,FALSE
CATETER P/ ALGALIACAO INTERMITENTE C/ LUB. CH10,Ajuste Direto Regime Geral,Aquisição de bens móveis,"33140000-3, Material médico de consumo","Centro Hospitalar de Lisboa Central, E. P. E. (508080142)",B. Braun Medical (501506543),"337,50 €",04-01-2017,02-12-2016,90 dias,"Portugal, Lisboa, Lisboa","Artigo 24.º, n.º 1, alínea c) do Código dos Contratos Públicos",,,,,,Não aplicável.,Não aplicável.,FALSE
BOLSA GELO PERINEAL,Ajuste Direto Regime Geral,Aquisição de bens móveis,"33140000-3, Material médico de consumo","Centro Hospitalar de Lisboa Central, E. P. E. (508080142)",FACTOR PLUS (124581730),"4.375,00 €",04-01-2017,24-11-2016,30 dias,"Portugal, Lisboa, Lisboa","Artigo 24.º, n.º 1, alínea c) do Código dos Contratos Públicos",,,,,,Não aplicável.,Não aplicável.,FALSE
"MAQ.SUT.TERMINAL,MAQUINA SUTURA AUTOMATICA E OUTROS",Ajuste Direto Regime Geral,Aquisição de bens móveis,"33140000-3, Material médico de consumo","Centro Hospitalar de Lisboa Central, E. P. E. (508080142)",Medtronic Portugal (504223933),"35.416,05 €",03-01-2017,19-12-2016,90 dias,"Portugal, Lisboa, Lisboa","Artigo 20.º, n.º 1, alínea a) do Código dos Contratos Públicos",,,,,,Não aplicável.,Não aplicável.,FALSE
SACO ASPIRADOR DE SECRECOES C/VALVULA - 2 LITROS,Ajuste Direto Regime Geral,Aquisição de bens móveis,"33140000-3, Material médico de consumo","Centro Hospitalar de Lisboa Central, E. P. E. (508080142)",PMH (502376899),"19.246,50 €",02-01-2017,13-10-2016,90 dias,"Portugal, Lisboa, Lisboa","Artigo 20.º, n.º 1, alínea a) do Código dos Contratos Públicos",,,,,,Não aplicável.,Não aplicável.,FALSE
"CANULAS TRAQUEOSTOMIA  S/CUFF 3,5 PEDIATRICA E SENSOR BIS ADULTO (MED. GRAU HIPNOSE)",Ajuste Direto Regime Geral,Aquisição de bens móveis,"33140000-3, Material médico de consumo","Centro Hospitalar de Lisboa Central, E. P. E. (508080142)",Medtronic Portugal (504223933),"16.717,50 €",02-01-2017,25-10-2016,90 dias,"Portugal, Lisboa, Lisboa","Artigo 20.º, n.º 1, alínea a) do Código dos Contratos Públicos",,,,,,Não aplicável.,Não aplicável.,FALSE
BATA PAPEL TEXTILIZADO N/ESTERIL COM MANGA,Ajuste Direto Regime Geral,Aquisição de bens móveis,"33140000-3, Material médico de consumo","Centro Hospitalar de Lisboa Central, E. P. E. (508080142)",Medline International Portugal (510533515),"13.862,00 €",02-01-2017,03-11-2016,30 dias,"Portugal, Lisboa, Lisboa","Artigo 20.º, n.º 1, alínea a) do Código dos Contratos Públicos",,,,,,Não aplicável.,Não aplicável.,FALSE
Cateteres,Ao abrigo de acordo-quadro (art.º 259.º),Aquisição de bens móveis,"33000000-0, Equipamento médico, medicamentos e produtos para cuidados pessoais","Centro Hospitalar de Lisboa Central, E. P. E. (508080142)",Smiths Medical (507445937),"234,00 €",02-01-2017,23-12-2016,7 dias,"Portugal, Lisboa, Lisboa",Artigo 259.º do Código dos Contratos Públicos,,,,,,2349386,Acordo Quadro para o fornecimento de Cateteres às Instituições e Serviços do Serviço Nacional de Saúde,FALSE
Cateteres,Ao abrigo de acordo-quadro (art.º 259.º),Aquisição de bens móveis,"33000000-0, Equipamento médico, medicamentos e produtos para cuidados pessoais","Centro Hospitalar de Lisboa Central, E. P. E. (508080142)","SOCIME II - PRODUTOS MÉDICOS, LDA (504453939)","4.761,60 €",02-01-2017,23-12-2016,7 dias,"Portugal, Lisboa, Lisboa",Artigo 259.º do Código dos Contratos Públicos,,,,,,2349386,Acordo Quadro para o fornecimento de Cateteres às Instituições e Serviços do Serviço Nacional de Saúde,FALSE
Cateteres endovenosos,Ao abrigo de acordo-quadro (art.º 259.º),Aquisição de bens móveis,"33000000-0, Equipamento médico, medicamentos e produtos para cuidados pessoais","Centro Hospitalar de Lisboa Central, E. P. E. (508080142)","SOCIME II - PRODUTOS MÉDICOS, LDA (504453939)","1.843,20 €",02-01-2017,28-12-2016,2 dias,"Portugal, Lisboa, Lisboa",Artigo 259.º do Código dos Contratos Públicos,,,,,,2349386,Acordo Quadro para o fornecimento de Cateteres às Instituições e Serviços do Serviço Nacional de Saúde,FALSE
"MAQ.SUT.TERMINO-TERMIAL CAB. FIXA.21MM, PINCA PREENSAO ATRAUMAT.DESCART.P/ VIDEO CIRURGIA E OUTROS",Ajuste Direto Regime Geral,Aquisição de bens móveis,"33140000-3, Material médico de consumo","Centro Hospitalar de Lisboa Central, E. P. E. (508080142)",Endotécnica (503818348),"10.615,20 €",02-01-2017,19-12-2016,90 dias,"Portugal, Lisboa, Lisboa","Artigo 20.º, n.º 1, alínea a) do Código dos Contratos Públicos",,,,,,Não aplicável.,Não aplicável.,FALSE
"Aquisição de Serviços de Auditoria aos Sistemas de Informação, destinados ao CHLC - EPE.",Concurso público,Aquisição de serviços,"72810000-1, Serviços de auditoria informática","Centro Hospitalar de Lisboa Central, E. P. E. (508080142)","MEO - Serviços de Comunicações e Multimédia, S.A. (504615947)","67.860,00 €",02-01-2017,18-10-2016,60 dias,"Portugal, Lisboa, Lisboa","Artigo 20.º, n.º 1, alínea b) do Código dos Contratos Públicos",,,,,,Não aplicável.,Não aplicável.,FALSE
