Objeto do Contrato,Tipo de Procedimento,Tipo(s) de Contrato,CPVs,Entidade(s) Adjudicante(s),Entidade(s) Adjudicatária(s),Preço Contratual,Data de Publicação,Data de Celebração do Contrato,Prazo de Execução,Local de Execução,Fundamentação,Data de Fecho do Contrato,Preço Total Efetivo,Causas das Alterações ao Prazo,Causas das Alterações ao Preço,Estado,N.º registo do Acordo Quadro,Descrição do Acordo Quadro,Procedimento Centralizado
Serviços de Calibrações,Ajuste Direto Regime Geral,Aquisição de serviços,"50433000-9, Serviços de calibragem","Instituto Nacional de Saúde Dr. Ricardo Jorge, I.P. (501427511)",Instituto de Soldadura e Qualidade (500140022),"92.568,83 €",17-01-2013,31-12-2012,1 dias,"Portugal, Lisboa, Lisboa","Artigo 24.º, n.º 1, alínea c) do Código dos Contratos Públicos",,,,,,Não aplicável.,Não aplicável.,
Serviços de Transporte,Ajuste Direto Regime Geral,Aquisição de serviços,"60000000-8, Serviços de transporte (excl. transporte de resíduos)","Instituto Nacional de Saúde Dr. Ricardo Jorge, I.P. (501427511)",Alfa Lisbon (507586522),"144.852,76 €",17-01-2013,31-07-2012,153 dias,"Portugal, Lisboa, Lisboa","Artigo 24.º, n.º 1, alínea a) do Código dos Contratos Públicos",,,,,,Não aplicável.,Não aplicável.,
Aquisição de Serviços de gestão de Resíduos,Ajuste Direto Regime Geral,Aquisição de serviços,"90510000-5, Tratamento e eliminação de resíduos","Instituto Nacional de Saúde Dr. Ricardo Jorge, I.P. (501427511)",Such (500900469),"55.978,73 €",16-01-2013,31-12-2012,1 dias,"Portugal, Setúbal, Setúbal<BR/>Portugal, Lisboa, Lisboa<BR/>Portugal, Porto, Porto","Artigo 24.º, n.º 1, alínea c) do Código dos Contratos Públicos",,,,,,Não aplicável.,Não aplicável.,
