Objeto do Contrato,Tipo de Procedimento,Tipo(s) de Contrato,CPVs,Entidade(s) Adjudicante(s),Entidade(s) Adjudicatária(s),Preço Contratual,Data de Publicação,Data de Celebração do Contrato,Prazo de Execução,Local de Execução,Fundamentação,Data de Fecho do Contrato,Preço Total Efetivo,Causas das Alterações ao Prazo,Causas das Alterações ao Preço,Estado,N.º registo do Acordo Quadro,Descrição do Acordo Quadro,Procedimento Centralizado
Aquisição de abacavir 600 mg + lamivudina 300 mg comp.,Ajuste Direto Regime Geral,Aquisição de bens móveis,"33690000-3, Medicamentos vários","Centro Hospitalar Lisboa Norte, E. P. E. (508481287)",TEVA Pharma - Produtos Farmacêuticos (507045491),"63.990,00 €",09-06-2017,09-06-2017,1 dias,"Portugal, Lisboa, Lisboa","Artigo 20.º, n.º 1, alínea a) do Código dos Contratos Públicos",,,,,,Não aplicável.,Não aplicável.,FALSE
Aquisição de uma bomba de desentupimento para a Oficina de Canalização no H.P.V.,Ajuste Direto Regime Geral,Aquisição de bens móveis,"42120000-6, Bombas e compressores","CENTRO HOSPITALAR LISBOA NORTE, EPE (508481287)","Pólo Zero - Componentes para Refrigeração, Lda. (505246252)","257,25 €",09-06-2017,09-06-2017,7 dias,"Portugal, Lisboa, Lisboa","Artigo 20.º, n.º 1, alínea a) do Código dos Contratos Públicos",,,,,,Não aplicável.,Não aplicável.,FALSE
Aquisição de um monitor cardíaco para o Serviço de Oftalmologia  Bloco Operatório.,Ajuste Direto Regime Geral,Aquisição de bens móveis,"33100000-1, Equipamento médico","CENTRO HOSPITALAR LISBOA NORTE, EPE (508481287)",GENERAL ELECTRIC PORTUGUESA S.A. (500357129),"8.350,00 €",09-06-2017,09-06-2017,28 dias,"Portugal, Lisboa, Lisboa","Artigo 20.º, n.º 1, alínea a) do Código dos Contratos Públicos",,,,,,Não aplicável.,Não aplicável.,FALSE
Aquisição de um multímetro com pinça amperimétrica,Ajuste Direto Regime Geral,Aquisição de bens móveis,"44512000-2, Ferramentas manuais diversas","CENTRO HOSPITALAR LISBOA NORTE, EPE (508481287)","AIROFERRAGENS,LDA (503738301)","56,75 €",09-06-2017,09-06-2017,5 dias,"Portugal, Lisboa, Lisboa","Artigo 20.º, n.º 1, alínea a) do Código dos Contratos Públicos",,,,,,Não aplicável.,Não aplicável.,FALSE
Aquisição de três aparafusadoras para as oficinas do HPV,Ajuste Direto Regime Geral,Aquisição de bens móveis,"44512000-2, Ferramentas manuais diversas","CENTRO HOSPITALAR LISBOA NORTE, EPE (508481287)","AIROFERRAGENS,LDA (503738301)","389,76 €",09-06-2017,09-06-2017,7 dias,"Portugal, Lisboa, Lisboa","Artigo 20.º, n.º 1, alínea a) do Código dos Contratos Públicos",,,,,,Não aplicável.,Não aplicável.,FALSE
Aquisição de consumíveis para cardiologia,Ajuste Direto Regime Geral,Aquisição de bens móveis,"33190000-8, Dispositivos e produtos médicos variados","Centro Hospitalar Lisboa Norte, E. P. E. (508481287)",BOSTON SCIENTIFIC PORTUGAL LDA (504988964),"18.030,00 €",08-06-2017,08-06-2017,1 dias,"Portugal, Lisboa, Lisboa","Artigo 20.º, n.º 1, alínea a) do Código dos Contratos Públicos",,,,,,Não aplicável.,Não aplicável.,FALSE
Aquisição de material de ortopedia,Ajuste Direto Regime Geral,Aquisição de bens móveis,"33190000-8, Dispositivos e produtos médicos variados","Centro Hospitalar Lisboa Norte, E. P. E. (508481287)",JOHNSON E JOHNSON MEDICAL (500153370),"9.030,00 €",08-06-2017,08-06-2017,1 dias,"Portugal, Lisboa, Lisboa","Artigo 20.º, n.º 1, alínea a) do Código dos Contratos Públicos",,,,,,Não aplicável.,Não aplicável.,FALSE
Aquisição de diverso material de ortopedia,Ajuste Direto Regime Geral,Aquisição de bens móveis,"33190000-8, Dispositivos e produtos médicos variados","Centro Hospitalar Lisboa Norte, E. P. E. (508481287)",JOHNSON E JOHNSON MEDICAL (500153370),"8.786,00 €",08-06-2017,08-06-2017,1 dias,"Portugal, Lisboa, Lisboa","Artigo 20.º, n.º 1, alínea a) do Código dos Contratos Públicos",,,,,,Não aplicável.,Não aplicável.,FALSE
Aquisição de produtos de apoio,Ajuste Direto Regime Geral,Aquisição de serviços,"85000000-9, Serviços de saúde e acção social","Centro Hospitalar Lisboa Norte, E. P. E. (508481287)",Mário Paulo Ferreira (197118372),"184,90 €",08-06-2017,08-06-2017,10 dias,"Portugal, Lisboa, Lisboa","Artigo 20.º, n.º 1, alínea a) do Código dos Contratos Públicos",,,,,,Não aplicável.,Não aplicável.,FALSE
Aquisição de produtos de apoio,Ajuste Direto Regime Geral,Aquisição de serviços,"85000000-9, Serviços de saúde e acção social","Centro Hospitalar Lisboa Norte, E. P. E. (508481287)",Mário Paulo Ferreira (197118372),"184,90 €",08-06-2017,08-06-2017,10 dias,"Portugal, Lisboa, Lisboa","Artigo 20.º, n.º 1, alínea a) do Código dos Contratos Públicos",,,,,,Não aplicável.,Não aplicável.,FALSE
Aquisição de produtos de apoio,Ajuste Direto Regime Geral,Aquisição de serviços,"85000000-9, Serviços de saúde e acção social","Centro Hospitalar Lisboa Norte, E. P. E. (508481287)",Mário Paulo Ferreira (197118372),"163,20 €",08-06-2017,08-06-2017,10 dias,"Portugal, Lisboa, Lisboa","Artigo 20.º, n.º 1, alínea a) do Código dos Contratos Públicos",,,,,,Não aplicável.,Não aplicável.,FALSE
Aquisição de produtos de apoio,Ajuste Direto Regime Geral,Aquisição de serviços,"85000000-9, Serviços de saúde e acção social","Centro Hospitalar Lisboa Norte, E. P. E. (508481287)",Mário Paulo Ferreira (197118372),"103,77 €",08-06-2017,08-06-2017,10 dias,"Portugal, Lisboa, Lisboa","Artigo 20.º, n.º 1, alínea a) do Código dos Contratos Públicos",,,,,,Não aplicável.,Não aplicável.,FALSE
Aquisição de produtos de apoio,Ajuste Direto Regime Geral,Aquisição de serviços,"85000000-9, Serviços de saúde e acção social","Centro Hospitalar Lisboa Norte, E. P. E. (508481287)",Mário Paulo Ferreira (197118372),"122,64 €",08-06-2017,08-06-2017,10 dias,"Portugal, Lisboa, Lisboa","Artigo 20.º, n.º 1, alínea a) do Código dos Contratos Públicos",,,,,,Não aplicável.,Não aplicável.,FALSE
CP n.º 174A000004 - Aquisição de detergentes e desinfetantes de lavagem manual p/ o ano de 2017,Concurso público,Aquisição de bens móveis,"24455000-8, Desinfectantes","Centro Hospitalar Lisboa Norte, E. P. E. (508481287)",JOHNSON E JOHNSON MEDICAL (500153370),"28.374,00 €",08-06-2017,06-06-2017,208 dias,"Portugal, Lisboa, Lisboa","Artigo 20.º, n.º 1, alínea b) do Código dos Contratos Públicos",,,,,,Não aplicável.,Não aplicável.,FALSE
Aquisição de oxigena circul. extra. corp. longa durac. memb.,Ajuste Direto Regime Geral,Aquisição de bens móveis,"33190000-8, Dispositivos e produtos médicos variados","Centro Hospitalar Lisboa Norte, E. P. E. (508481287)","GETINGE GROUP PORTUGAL, UNIP, LDA. (506819698)","9.200,00 €",08-06-2017,08-06-2017,1 dias,"Portugal, Lisboa, Lisboa","Artigo 20.º, n.º 1, alínea a) do Código dos Contratos Públicos",,,,,,Não aplicável.,Não aplicável.,FALSE
Empreitada Para Execução da Obra de Fornecimento e Montagem de Bancadas e Equipamento para a Copa de Leites - Serviço de Neonatologia (UCIN) - CHLN - HSM,Ajuste Direto Regime Geral,Empreitadas de obras públicas,"45421000-4, Obras de marcenaria","CENTRO HOSPITALAR LISBOA NORTE, EPE (508481287)",MEDIDUTY IBERICA UNIPESSOAL LDA (513798544),"8.418,30 €",08-06-2017,08-06-2017,5 dias,"Portugal, Lisboa, Lisboa","Artigo 19.º, alínea a) do Código dos Contratos Públicos",,,,,,Não aplicável.,Não aplicável.,FALSE
Aquisição de ipilimumab 50 mg/10 ml inj.,Ajuste Direto Regime Geral,Aquisição de bens móveis,"33690000-3, Medicamentos vários","Centro Hospitalar Lisboa Norte, E. P. E. (508481287)",BRISTOL-MYERS SQUIB FARMAC PORTUGUESA SA (500048193),"20.825,00 €",08-06-2017,08-06-2017,1 dias,"Portugal, Lisboa, Lisboa","Artigo 24.º, n.º 1, alínea e) do Código dos Contratos Públicos",,,,,,Não aplicável.,Não aplicável.,FALSE
Aquisição de ipilimumab 200 mg,Ajuste Direto Regime Geral,Aquisição de bens móveis,"33690000-3, Medicamentos vários","Centro Hospitalar Lisboa Norte, E. P. E. (508481287)",BRISTOL-MYERS SQUIB FARMAC PORTUGUESA SA (500048193),"71.400,00 €",08-06-2017,08-06-2017,1 dias,"Portugal, Lisboa, Lisboa","Artigo 24.º, n.º 1, alínea e) do Código dos Contratos Públicos",,,,,,Não aplicável.,Não aplicável.,FALSE
Aquisição de ceftazidima 2000 mg + avibactam 500 mg,Ajuste Direto Regime Geral,Aquisição de bens móveis,"33690000-3, Medicamentos vários","Centro Hospitalar Lisboa Norte, E. P. E. (508481287)","LAB. PFIZER, LDA.                                  (500162166)","10.350,00 €",08-06-2017,08-06-2017,1 dias,"Portugal, Lisboa, Lisboa","Artigo 24.º, n.º 1, alínea e) do Código dos Contratos Públicos",,,,,,Não aplicável.,Não aplicável.,FALSE
Aquisição de anakinra sol. inj. 100 mg,Ajuste Direto Regime Geral,Aquisição de bens móveis,"33690000-3, Medicamentos vários","Centro Hospitalar Lisboa Norte, E. P. E. (508481287)",PROFARIN DISTRIBUIDORA DE PROD. FARM. INDUSTRIAIS  (500223238),"6.086,08 €",08-06-2017,08-06-2017,1 dias,"Portugal, Lisboa, Lisboa","Artigo 24.º, n.º 1, alínea e) do Código dos Contratos Públicos",,,,,,Não aplicável.,Não aplicável.,FALSE
Aquisição de um quadro flip chart com quatro blocos de papel.,Ajuste Direto Regime Geral,Aquisição de serviços,"72410000-7, Serviços de fornecimento","Centro Hospitalar Lisboa Norte, E. P. E. (508481287)","MAX ONE MATERIAL DE ESCRITÓRIO, LDA (507052609)","61,50 €",08-06-2017,08-06-2017,2 dias,"Portugal, Lisboa, Lisboa","Artigo 20.º, n.º 1, alínea a) do Código dos Contratos Públicos",,,,,,Não aplicável.,Não aplicável.,FALSE
Reparação de sombreador danificado por acidente contra a estrutura metálica,Ajuste Direto Regime Geral,Empreitadas de obras públicas,"45453000-7, Obras de revisão e recuperação","Centro Hospitalar Lisboa Norte, E. P. E. (508481287)",Francisco José Vieira Marques (128779799),"190,00 €",08-06-2017,08-06-2017,30 dias,"Portugal, Lisboa, Lisboa","Artigo 19.º, alínea a) do Código dos Contratos Públicos",,,,,,Não aplicável.,Não aplicável.,FALSE
171G001212 - Aquisição de Diversos Gases - Ano 2017,Ajuste Direto Regime Geral,Aquisição de bens móveis,"24111500-0, Gases médicos","CENTRO HOSPITALAR LISBOA NORTE, EPE (508481287)","GASIN II, GASES INDUSTRIAIS, UNIPESSOAL, LDA (510183751)","360,90 €",07-06-2017,07-06-2017,286 dias,"Portugal, Lisboa, Lisboa","Artigo 20.º, n.º 1, alínea a) do Código dos Contratos Públicos",,,,,,Não aplicável.,Não aplicável.,FALSE
Ajuste direto n.º 171G002504,Ajuste Direto Regime Geral,Aquisição de bens móveis,"33690000-3, Medicamentos vários","Centro Hospitalar Lisboa Norte, E. P. E. (508481287)"," BIOPORTUGAL QUIMICO, FARMACEUTICA, LDA (502380543)","6.456,00 €",07-06-2017,07-06-2017,1 dias,"Portugal, Lisboa, Lisboa","Artigo 24.º, n.º 1, alínea e) do Código dos Contratos Públicos",,,,,,Não aplicável.,Não aplicável.,FALSE
Aquisição de valvula aórtica sem sutura,Ajuste Direto Regime Geral,Aquisição de bens móveis,"33190000-8, Dispositivos e produtos médicos variados","Centro Hospitalar Lisboa Norte, E. P. E. (508481287)",Edwards Lifesciences (Portugal) (508014832),"5.900,00 €",07-06-2017,07-06-2017,1 dias,"Portugal, Lisboa, Lisboa","Artigo 20.º, n.º 1, alínea a) do Código dos Contratos Públicos",,,,,,Não aplicável.,Não aplicável.,FALSE
Aquisição de Serviços de Reparação de Ventilador - Serviço de Medicina Intensiva - Internamento - SMI - CHLN- HSM,Ajuste Direto Regime Geral,Aquisição de serviços,"50420000-5, Serviços de reparação e manutenção de equipamento médico e cirúrgico","CENTRO HOSPITALAR LISBOA NORTE, EPE (508481287)","GETINGE GROUP PORTUGAL, UNIP, LDA. (506819698)","6.502,19 €",07-06-2017,07-06-2017,30 dias,"Portugal, Lisboa, Lisboa","Artigo 24.º, n.º 1, alínea e) do Código dos Contratos Públicos",,,,,,Não aplicável.,Não aplicável.,FALSE
Aquisição de acetonido de fluocinolona 190 mcg,Ajuste Direto Regime Geral,Aquisição de bens móveis,"33690000-3, Medicamentos vários","Centro Hospitalar Lisboa Norte, E. P. E. (508481287)",ALIMERA SCIENCES LIMITED (980523192),"11.888,00 €",07-06-2017,07-06-2017,1 dias,"Portugal, Lisboa, Lisboa","Artigo 24.º, n.º 1, alínea e) do Código dos Contratos Públicos",,,,,,Não aplicável.,Não aplicável.,FALSE
Aquisição de fator VIII recombinante 250 Ui e 500 Ui,Ajuste Direto Regime Geral,Aquisição de bens móveis,"33690000-3, Medicamentos vários","Centro Hospitalar Lisboa Norte, E. P. E. (508481287)","Baxalta Portugal Unipessoal, Lda. (513252193)","66.989,70 €",07-06-2017,07-06-2017,1 dias,"Portugal, Lisboa, Lisboa","Artigo 24.º, n.º 1, alínea e) do Código dos Contratos Públicos",,,,,,Não aplicável.,Não aplicável.,FALSE
Aquisição de Serviços de Reparação de Marquesa - Serviço de Urgência Central - Urgência Central -CHLN - HSM,Ajuste Direto Regime Geral,Aquisição de serviços,"50420000-5, Serviços de reparação e manutenção de equipamento médico e cirúrgico","CENTRO HOSPITALAR LISBOA NORTE, EPE (508481287)","MEDICINÁLIA CORMÉDICA, LDA.                        (500684324)","5.905,38 €",07-06-2017,07-06-2017,30 dias,"Portugal, Lisboa, Lisboa","Artigo 24.º, n.º 1, alínea e) do Código dos Contratos Públicos",,,,,,Não aplicável.,Não aplicável.,FALSE
Aquisição de fator VIII recombinante 250 UI (octog alfa),Ajuste Direto Regime Geral,Aquisição de bens móveis,"33690000-3, Medicamentos vários","Centro Hospitalar Lisboa Norte, E. P. E. (508481287)","Baxalta Portugal Unipessoal, Lda. (513252193)","10.905,30 €",06-06-2017,06-06-2017,1 dias,"Portugal, Lisboa, Lisboa","Artigo 24.º, n.º 1, alínea e) do Código dos Contratos Públicos",,,,,,Não aplicável.,Não aplicável.,FALSE
Aquisição de stent intracraneano e microguia hybrid,Ajuste Direto Regime Geral,Sociedade<br/>Aquisição de bens móveis,"33190000-8, Dispositivos e produtos médicos variados","Centro Hospitalar Lisboa Norte, E. P. E. (508481287)",Biomédica (501745459),"19.350,00 €",05-06-2017,05-06-2017,1 dias,"Portugal, Lisboa, Lisboa","Artigo 20.º, n.º 1, alínea a) do Código dos Contratos Públicos",,,,,,Não aplicável.,Não aplicável.,FALSE
Aquisição de material de Cardiologia,Ajuste Direto Regime Geral,Aquisição de bens móveis,"33140000-3, Material médico de consumo","Centro Hospitalar Lisboa Norte, E. P. E. (508481287)",ST. JUDE MEDICAL PORTUGAL (504180746),"5.491,00 €",05-06-2017,05-06-2017,1 dias,"Portugal, Lisboa, Lisboa","Artigo 20.º, n.º 1, alínea a) do Código dos Contratos Públicos",,,,,,Não aplicável.,Não aplicável.,FALSE
Aquisição de infliximab 100 mg,Ajuste Direto Regime Geral,Aquisição de bens móveis,"33690000-3, Medicamentos vários","Centro Hospitalar Lisboa Norte, E. P. E. (508481287)",MERCK SHARP &DOHME LIMITADA (500191360),"194.250,00 €",05-06-2017,05-06-2017,1 dias,"Portugal, Lisboa, Lisboa","Artigo 24.º, n.º 1, alínea e) do Código dos Contratos Públicos",,,,,,Não aplicável.,Não aplicável.,FALSE
Obra urgente de transferência das Consultas de pediatria do HSM para o HPV,Ajuste Direto Regime Geral,Empreitadas de obras públicas,"45453000-7, Obras de revisão e recuperação","CENTRO HOSPITALAR LISBOA NORTE, EPE (508481287)","CE Gonçalves, Lda. (508657520)","13.694,15 €",05-06-2017,05-06-2017,10 dias,"Portugal, Lisboa, Lisboa","Artigo 19.º, alínea a) do Código dos Contratos Públicos",,,,,,Não aplicável.,Não aplicável.,FALSE
Aquisiçãi de material de cardiologia,Ajuste Direto Regime Geral,Aquisição de bens móveis,"33140000-3, Material médico de consumo","Centro Hospitalar Lisboa Norte, E. P. E. (508481287)",ST. JUDE MEDICAL PORTUGAL (504180746),"10.122,00 €",05-06-2017,05-06-2017,1 dias,"Portugal, Lisboa, Lisboa","Artigo 20.º, n.º 1, alínea a) do Código dos Contratos Públicos",,,,,,Não aplicável.,Não aplicável.,FALSE
Aquisição de valvula aortica s/ sutura,Ajuste Direto Regime Geral,Aquisição de bens móveis,"33190000-8, Dispositivos e produtos médicos variados","Centro Hospitalar Lisboa Norte, E. P. E. (508481287)",Edwards Lifesciences (Portugal) (508014832),"11.800,00 €",05-06-2017,05-06-2017,1 dias,"Portugal, Lisboa, Lisboa","Artigo 20.º, n.º 1, alínea a) do Código dos Contratos Públicos",,,,,,Não aplicável.,Não aplicável.,FALSE
Fornecimento de sinalética para espaço familiar Ronald McDonald.,Ajuste Direto Regime Geral,Empreitadas de obras públicas,"45454000-4, Obras de reestruturação","CENTRO HOSPITALAR LISBOA NORTE, EPE (508481287)","Infortipo - Serviços de Publicidade, Lda. (502964472)","344,00 €",05-06-2017,05-06-2017,5 dias,"Portugal, Lisboa, Lisboa","Artigo 19.º, alínea a) do Código dos Contratos Públicos",,,,,,Não aplicável.,Não aplicável.,FALSE
Aquisição de infliximab,Ajuste Direto Regime Geral,Aquisição de bens móveis,"33690000-3, Medicamentos vários","Centro Hospitalar Lisboa Norte, E. P. E. (508481287)","Arium - Sistemas de Diagnóstico, Lda (502501880)","5.400,00 €",05-06-2017,05-06-2017,1 dias,"Portugal, Lisboa, Lisboa","Artigo 24.º, n.º 1, alínea e) do Código dos Contratos Públicos",,,,,,Não aplicável.,Não aplicável.,FALSE
Aquisição de Serviços de Reparação de 1 (um) Aspirador Cirúrgico Ultrassónico - Serviço de Neurocirurgia - Bloco Operatório - CHLN - HSM,Ajuste Direto Regime Geral,Aquisição de serviços,"50420000-5, Serviços de reparação e manutenção de equipamento médico e cirúrgico","CENTRO HOSPITALAR LISBOA NORTE, EPE (508481287)","SOCIME MEDICAL, LDA. (504453939)","5.580,00 €",05-06-2017,05-06-2017,30 dias,"Portugal, Lisboa, Lisboa","Artigo 24.º, n.º 1, alínea e) do Código dos Contratos Públicos",,,,,,Não aplicável.,Não aplicável.,FALSE
Reparação de pavimento vinílico no Serviço de Cardiotorácica e Urgência de pediatria piso 2 e 8.,Ajuste Direto Regime Geral,Empreitadas de obras públicas,"45430000-0, Obras de revestimento de solos e paredes","Centro Hospitalar Lisboa Norte, E. P. E. (508481287)","CE Gonçalves, Lda. (508657520)","1.780,00 €",05-06-2017,05-06-2017,4 dias,"Portugal, Lisboa, Lisboa","Artigo 19.º, alínea a) do Código dos Contratos Públicos",,,,,,Não aplicável.,Não aplicável.,FALSE
Aquisição de processador de som baha e componentes,Ajuste Direto Regime Geral,Aquisição de bens móveis,"33190000-8, Dispositivos e produtos médicos variados","Centro Hospitalar Lisboa Norte, E. P. E. (508481287)","GAES, lda. (503134139)","7.000,00 €",05-06-2017,05-06-2017,1 dias,"Portugal, Lisboa, Lisboa","Artigo 20.º, n.º 1, alínea a) do Código dos Contratos Públicos",,,,,,Não aplicável.,Não aplicável.,FALSE
Aquisição de consumiveis para o serviço de ORL,Ajuste Direto Regime Geral,Aquisição de bens móveis,"33140000-3, Material médico de consumo","Centro Hospitalar Lisboa Norte, E. P. E. (508481287)","GAES, lda. (503134139)","7.000,00 €",05-06-2017,05-06-2017,1 dias,"Portugal, Lisboa, Lisboa","Artigo 20.º, n.º 1, alínea a) do Código dos Contratos Públicos",,,,,,Não aplicável.,Não aplicável.,FALSE
Aquisição de consumiveis para ORL,Ajuste Direto Regime Geral,Aquisição de bens móveis,"33190000-8, Dispositivos e produtos médicos variados","Centro Hospitalar Lisboa Norte, E. P. E. (508481287)","GAES, lda. (503134139)","7.000,00 €",05-06-2017,05-06-2017,1 dias,"Portugal, Lisboa, Lisboa","Artigo 20.º, n.º 1, alínea a) do Código dos Contratos Públicos",,,,,,Não aplicável.,Não aplicável.,FALSE
Aquisição de Serviços de Manutenção aos Equipamentos de Ecografia Siemens para o Ano de 2017,Ajuste Direto Regime Geral,Aquisição de serviços,"50421200-4, Serviços de reparação e manutenção de equipamentos de raios X","Centro Hospitalar Lisboa Norte, E. P. E. (508481287)","SIEMENS HEALTHCARE, LDA. (507925173)","28.417,32 €",05-06-2017,30-05-2017,215 dias,"Portugal, Lisboa, Lisboa","Artigo 24.º, n.º 1, alínea e) do Código dos Contratos Públicos",,,,,,Não aplicável.,Não aplicável.,FALSE
Aquisição de material de ortopedia,Ajuste Direto Regime Geral,Aquisição de bens móveis,"33190000-8, Dispositivos e produtos médicos variados","Centro Hospitalar Lisboa Norte, E. P. E. (508481287)",Johnson (500153370),"10.420,00 €",05-06-2017,05-06-2017,1 dias,"Portugal, Lisboa, Lisboa","Artigo 20.º, n.º 1, alínea a) do Código dos Contratos Públicos",,,,,,Não aplicável.,Não aplicável.,FALSE
Aquisição de adalimumab conj. det. 2x48 T,Ajuste Direto Regime Geral,Aquisição de bens móveis,"33690000-3, Medicamentos vários","Centro Hospitalar Lisboa Norte, E. P. E. (508481287)","Arium - Sistemas de Diagnóstico, Lda (502501880)","5.400,00 €",02-06-2017,02-06-2017,1 dias,"Portugal, Lisboa, Lisboa","Artigo 24.º, n.º 1, alínea e) do Código dos Contratos Públicos",,,,,,Não aplicável.,Não aplicável.,FALSE
Aquisição de produtos de apoio,Ajuste Direto Regime Geral,Aquisição de serviços,"85000000-9, Serviços de saúde e acção social","Centro Hospitalar Lisboa Norte, E. P. E. (508481287)","Coselgi Portugal, S.A. (509230598)","1.500,00 €",02-06-2017,02-06-2017,1 dias,"Portugal, Lisboa, Lisboa","Artigo 20.º, n.º 1, alínea a) do Código dos Contratos Públicos",,,,,,Não aplicável.,Não aplicável.,FALSE
Aquisição de seringas gas. sangue,Ajuste Direto Regime Geral,Aquisição de bens móveis,"33140000-3, Material médico de consumo","Centro Hospitalar Lisboa Norte, E. P. E. (508481287)","RADIOMETER IBERICA, SL (980201667)","13.600,00 €",02-06-2017,02-06-2017,1 dias,"Portugal, Lisboa, Lisboa","Artigo 20.º, n.º 1, alínea a) do Código dos Contratos Públicos",,,,,,Não aplicável.,Não aplicável.,FALSE
Aquisição de rapid point 500 cassete medida 400 T,Ajuste Direto Regime Geral,Aquisição de bens móveis,"33696000-5, Reagentes e meios de contraste","Centro Hospitalar Lisboa Norte, E. P. E. (508481287)","SIEMENS HEALTHCARE, LDA. (507925173)","9.503,36 €",02-06-2017,02-06-2017,1 dias,"Portugal, Lisboa, Lisboa","Artigo 24.º, n.º 1, alínea e) do Código dos Contratos Públicos",,,,,,Não aplicável.,Não aplicável.,FALSE
Aquisição de CDI BIV,Ajuste Direto Regime Geral,Aquisição de bens móveis,"33190000-8, Dispositivos e produtos médicos variados","Centro Hospitalar Lisboa Norte, E. P. E. (508481287)",Biotronik Portugal (510726941),"13.308,00 €",02-06-2017,02-06-2017,1 dias,"Portugal, Lisboa, Lisboa","Artigo 20.º, n.º 1, alínea a) do Código dos Contratos Públicos",,,,,,Não aplicável.,Não aplicável.,FALSE
Aquisição de produtos de apoio,Ajuste Direto Regime Geral,Aquisição de serviços,"85000000-9, Serviços de saúde e acção social","Centro Hospitalar Lisboa Norte, E. P. E. (508481287)","ORTOPEDIA MODERNA, LDA. (500481300)","1.118,55 €",02-06-2017,02-06-2017,20 dias,"Portugal, Lisboa, Lisboa","Artigo 20.º, n.º 1, alínea a) do Código dos Contratos Públicos",,,,,,Não aplicável.,Não aplicável.,FALSE
Aquisição de consumíveis para o serviço de neurocirurgia,Ajuste Direto Regime Geral,Aquisição de bens móveis,"33140000-3, Material médico de consumo","Centro Hospitalar Lisboa Norte, E. P. E. (508481287)",Medtronic (504223933),"5.300,00 €",02-06-2017,02-06-2017,1 dias,"Portugal, Lisboa, Lisboa","Artigo 20.º, n.º 1, alínea a) do Código dos Contratos Públicos",,,,,,Não aplicável.,Não aplicável.,FALSE
Aquisição de consumiveis para o Serviço de nuerocirurgia,Ajuste Direto Regime Geral,Aquisição de bens móveis,"33140000-3, Material médico de consumo","Centro Hospitalar Lisboa Norte, E. P. E. (508481287)",Medtronic (504223933),"11.275,00 €",02-06-2017,02-06-2017,1 dias,"Portugal, Lisboa, Lisboa","Artigo 20.º, n.º 1, alínea a) do Código dos Contratos Públicos",,,,,,Não aplicável.,Não aplicável.,FALSE
Aquisição de stent intracraneano + microguia hybrid,Ajuste Direto Regime Geral,Aquisição de bens móveis,"33190000-8, Dispositivos e produtos médicos variados","Centro Hospitalar Lisboa Norte, E. P. E. (508481287)",Biomédica (501745459),"10.800,00 €",02-06-2017,02-06-2017,1 dias,"Portugal, Lisboa, Lisboa","Artigo 20.º, n.º 1, alínea a) do Código dos Contratos Públicos",,,,,,Não aplicável.,Não aplicável.,FALSE
Aquisição de microguia hybrid,Ajuste Direto Regime Geral,Aquisição de bens móveis,"33190000-8, Dispositivos e produtos médicos variados","Centro Hospitalar Lisboa Norte, E. P. E. (508481287)",Biomédica (501745459),"10.050,00 €",02-06-2017,02-06-2017,1 dias,"Portugal, Lisboa, Lisboa","Artigo 20.º, n.º 1, alínea a) do Código dos Contratos Públicos",,,,,,Não aplicável.,Não aplicável.,FALSE
Aquisição de sistema de acesso intracra 4.2F,Ajuste Direto Regime Geral,Aquisição de bens móveis,"33190000-8, Dispositivos e produtos médicos variados","Centro Hospitalar Lisboa Norte, E. P. E. (508481287)",Biomédica (501745459),"6.600,00 €",02-06-2017,02-06-2017,1 dias,"Portugal, Lisboa, Lisboa","Artigo 20.º, n.º 1, alínea a) do Código dos Contratos Públicos",,,,,,Não aplicável.,Não aplicável.,FALSE
Aquisição de pinça de pontos e pinça para cirurgia da catarata,Ajuste Direto Regime Geral,Aquisição de bens móveis,"33190000-8, Dispositivos e produtos médicos variados","Centro Hospitalar Lisboa Norte, E. P. E. (508481287)",Oftaldata (504887459),"5.640,00 €",02-06-2017,02-06-2017,1 dias,"Portugal, Lisboa, Lisboa","Artigo 20.º, n.º 1, alínea a) do Código dos Contratos Públicos",,,,,,Não aplicável.,Não aplicável.,FALSE
Aquisição de CDI VR,Ajuste Direto Regime Geral,Aquisição de bens móveis,"33190000-8, Dispositivos e produtos médicos variados","Centro Hospitalar Lisboa Norte, E. P. E. (508481287)","LIVANOVA PORTUGAL LDA, (SORINCARDIO) (505514010)","9.550,00 €",02-06-2017,02-06-2017,1 dias,"Portugal, Lisboa, Lisboa","Artigo 20.º, n.º 1, alínea a) do Código dos Contratos Públicos",,,,,,Não aplicável.,Não aplicável.,FALSE
Aquisição de fio SNT ABS,Ajuste Direto Regime Geral,Aquisição de bens móveis,"33190000-8, Dispositivos e produtos médicos variados","Centro Hospitalar Lisboa Norte, E. P. E. (508481287)",JOHNSON & JOHNSON PROD.PROF. (500153370),"864,00 €",02-06-2017,02-06-2017,1 dias,"Portugal, Lisboa, Lisboa","Artigo 24.º, n.º 1, alínea c) do Código dos Contratos Públicos",,,,,,Não aplicável.,Não aplicável.,FALSE
Aquisição de CDI's e sistema CDI,Ajuste Direto Regime Geral,Aquisição de bens móveis,"33190000-8, Dispositivos e produtos médicos variados","Centro Hospitalar Lisboa Norte, E. P. E. (508481287)",MEDTRONIC PORTUGAL COMERCIO E DIST. APARELHOS MED. (504223933),"68.750,00 €",02-06-2017,02-06-2017,1 dias,"Portugal, Lisboa, Lisboa","Artigo 20.º, n.º 1, alínea a) do Código dos Contratos Públicos",,,,,,Não aplicável.,Não aplicável.,FALSE
Aquisição de sistema pacemaker,Ajuste Direto Regime Geral,Aquisição de bens móveis,"33190000-8, Dispositivos e produtos médicos variados","Centro Hospitalar Lisboa Norte, E. P. E. (508481287)",MEDTRONIC PORTUGAL COMERCIO E DIST. APARELHOS MED. (504223933),"8.333,00 €",02-06-2017,02-06-2017,1 dias,"Portugal, Lisboa, Lisboa","Artigo 20.º, n.º 1, alínea a) do Código dos Contratos Públicos",,,,,,Não aplicável.,Não aplicável.,FALSE
Compra centralizada de bussulfano inj. 6 mg/ml - P259-AC-2017-109,Ao abrigo de acordo-quadro (art.º 259.º),Aquisição de bens móveis,"33690000-3, Medicamentos vários","Centro Hospitalar Lisboa Norte, E. P. E. (508481287)",FRESENIUS KABI PHARMA PORTUGAL                     (504293753),"4.514,70 €",02-06-2017,02-06-2017,212 dias,"Portugal, Lisboa, Lisboa",Artigo 259.º do Código dos Contratos Públicos,,,,,,2556441,CP2015-06 Medicamentos do foro oncologico SPMS - P259-AC-2016-174,FALSE
Aquisição de edelalisib 150 mg,Ajuste Direto Regime Geral,Aquisição de bens móveis,"33690000-3, Medicamentos vários","Centro Hospitalar Lisboa Norte, E. P. E. (508481287)","GILEAD SCIENCES, LDA (503604704)","30.399,84 €",01-06-2017,01-06-2017,1 dias,"Portugal, Lisboa, Lisboa","Artigo 24.º, n.º 1, alínea e) do Código dos Contratos Públicos",,,,,,Não aplicável.,Não aplicável.,FALSE
Aquisição de produtos de apoio,Ajuste Direto Regime Geral,Aquisição de serviços,"85000000-9, Serviços de saúde e acção social","Centro Hospitalar Lisboa Norte, E. P. E. (508481287)",Mário Paulo Ferreira (197118372),"80,19 €",01-06-2017,01-06-2017,10 dias,"Portugal, Lisboa, Lisboa","Artigo 20.º, n.º 1, alínea a) do Código dos Contratos Públicos",,,,,,Não aplicável.,Não aplicável.,FALSE
Aquisição de reagentes,Ajuste Direto Regime Geral,Aquisição de bens móveis,"33696000-5, Reagentes e meios de contraste","Centro Hospitalar Lisboa Norte, E. P. E. (508481287)",PROCLINICA EQUIP E PRODUTOS CLINICOS LDA (500222665),"1.471,50 €",01-06-2017,01-06-2017,1 dias,"Portugal, Lisboa, Lisboa","Artigo 20.º, n.º 1, alínea a) do Código dos Contratos Públicos",,,,,,Não aplicável.,Não aplicável.,FALSE
Aquisição de emtricitabina 200 mg + rilpivirina 25 mg + tenofovir 245 mg,Ajuste Direto Regime Geral,Aquisição de bens móveis,"33690000-3, Medicamentos vários","Centro Hospitalar Lisboa Norte, E. P. E. (508481287)","GILEAD SCIENCES, LDA (503604704)","188.800,00 €",01-06-2017,01-06-2017,1 dias,"Portugal, Lisboa, Lisboa","Artigo 24.º, n.º 1, alínea e) do Código dos Contratos Públicos",,,,,,Não aplicável.,Não aplicável.,FALSE
Aquisição de aciclovir 800 mg comp,Ajuste Direto Regime Geral,Aquisição de bens móveis,"33690000-3, Medicamentos vários","Centro Hospitalar Lisboa Norte, E. P. E. (508481287)","GENERIS - FARMACEUTICA, S.A.                       (508107997)","1.462,50 €",01-06-2017,01-06-2017,1 dias,"Portugal, Lisboa, Lisboa","Artigo 20.º, n.º 1, alínea a) do Código dos Contratos Públicos",,,,,,Não aplicável.,Não aplicável.,FALSE
Aquisição de produtos de apoio,Ajuste Direto Regime Geral,Aquisição de serviços,"85000000-9, Serviços de saúde e acção social","Centro Hospitalar Lisboa Norte, E. P. E. (508481287)",Mário Paulo Ferreira (197118372),"152,83 €",01-06-2017,01-06-2017,10 dias,"Portugal, Lisboa, Lisboa","Artigo 20.º, n.º 1, alínea a) do Código dos Contratos Públicos",,,,,,Não aplicável.,Não aplicável.,FALSE
Aquisição de produtos de apoio,Ajuste Direto Regime Geral,Aquisição de serviços,"85000000-9, Serviços de saúde e acção social","Centro Hospitalar Lisboa Norte, E. P. E. (508481287)",Mário Paulo Ferreira (197118372),"169,80 €",01-06-2017,01-06-2017,10 dias,"Portugal, Lisboa, Lisboa","Artigo 20.º, n.º 1, alínea a) do Código dos Contratos Públicos",,,,,,Não aplicável.,Não aplicável.,FALSE
Aquisição de produtos de apoio,Ajuste Direto Regime Geral,Aquisição de serviços,"85000000-9, Serviços de saúde e acção social","Centro Hospitalar Lisboa Norte, E. P. E. (508481287)",Mário Paulo Ferreira (197118372),"209,43 €",01-06-2017,01-06-2017,10 dias,"Portugal, Lisboa, Lisboa","Artigo 20.º, n.º 1, alínea a) do Código dos Contratos Públicos",,,,,,Não aplicável.,Não aplicável.,FALSE
Aquisição de produtos de apoio,Ajuste Direto Regime Geral,Aquisição de serviços,"85000000-9, Serviços de saúde e acção social","Centro Hospitalar Lisboa Norte, E. P. E. (508481287)",Mário Paulo Ferreira (197118372),"207,54 €",01-06-2017,01-06-2017,10 dias,"Portugal, Lisboa, Lisboa","Artigo 20.º, n.º 1, alínea a) do Código dos Contratos Públicos",,,,,,Não aplicável.,Não aplicável.,FALSE
Aquisição de produtos de apoio,Ajuste Direto Regime Geral,Aquisição de serviços,"85000000-9, Serviços de saúde e acção social","Centro Hospitalar Lisboa Norte, E. P. E. (508481287)",Mário Paulo Ferreira (197118372),"184,90 €",01-06-2017,01-06-2017,10 dias,"Portugal, Lisboa, Lisboa","Artigo 20.º, n.º 1, alínea a) do Código dos Contratos Públicos",,,,,,Não aplicável.,Não aplicável.,FALSE
Aquisição de resistencia HIV 1 aos inibidores integrase teste DET 48 T,Ajuste Direto Regime Geral,Aquisição de bens móveis,"33696000-5, Reagentes e meios de contraste","Centro Hospitalar Lisboa Norte, E. P. E. (508481287)","Abbott Laboratórios, Lda (500006148)","7.200,00 €",01-06-2017,01-06-2017,1 dias,"Portugal, Lisboa, Lisboa","Artigo 24.º, n.º 1, alínea e) do Código dos Contratos Públicos",,,,,,Não aplicável.,Não aplicável.,FALSE
