Objeto do Contrato,Tipo de Procedimento,Tipo(s) de Contrato,CPVs,Entidade(s) Adjudicante(s),Entidade(s) Adjudicatária(s),Preço Contratual,Data de Publicação,Data de Celebração do Contrato,Prazo de Execução,Local de Execução,Fundamentação,Data de Fecho do Contrato,Preço Total Efetivo,Causas das Alterações ao Prazo,Causas das Alterações ao Preço,Estado,N.º registo do Acordo Quadro,Descrição do Acordo Quadro,Procedimento Centralizado
AQUISIÇÃO DE MATERIAL DE LABORATÓRIO,Ajuste Direto Regime Geral,Aquisição de bens móveis,"33140000-3, Material médico de consumo","Centro Hospitalar Universitário do Algarve, E. P. E. (510745997)","NORMAX FABRICA VIDROS CIENTIFICOS, LDA (500203130)","513,00 €",20-08-2018,18-07-2018,166 dias,"Portugal, Faro, Faro<BR/>Portugal, Faro, Portimão","Artigo 24.º, n.º 1, alínea b) do Código dos Contratos Públicos",,,,,,Não aplicável.,Não aplicável.,FALSE
Aquisição de Kit Consumiveis Clister Opaco,Ajuste Direto Regime Geral,Aquisição de bens móveis,"33140000-3, Material médico de consumo","Centro Hospitalar Universitário do Algarve, E. P. E. (510745997)",MED X - RAY SISTEMAS MEDICOS (506187071),"793,80 €",20-08-2018,11-07-2018,173 dias,"Portugal, Faro, Lagos<BR/>Portugal, Faro, Portimão<BR/>Portugal, Faro, Faro","Artigo 24.º, n.º 1, alínea e), subalínea ii) do Código dos Contratos Públicos",,,,,,Não aplicável.,Não aplicável.,FALSE
Aquisição de Fios de Sutura Barbado,Ajuste Direto Regime Geral,Aquisição de bens móveis,"33140000-3, Material médico de consumo","Centro Hospitalar Universitário do Algarve, E. P. E. (510745997)","JOHNSON & JOHNSON, LDA (500153370)","16.012,08 €",20-08-2018,10-07-2018,174 dias,"Portugal, Faro, Faro<BR/>Portugal, Faro, Lagos<BR/>Portugal, Faro, Portimão","Artigo 24.º, n.º 1, alínea e), subalínea ii) do Código dos Contratos Públicos",,,,,,Não aplicável.,Não aplicável.,FALSE
Aquisição de  Reservatório ACCU_FLO,Consulta Prévia,Aquisição de bens móveis,"33140000-3, Material médico de consumo","Centro Hospitalar Universitário do Algarve, E. P. E. (510745997)","JOHNSON & JOHNSON, LDA (500153370)","700,00 €",20-08-2018,01-08-2018,153 dias,"Portugal, Faro, Lagos<BR/>Portugal, Faro, Portimão<BR/>Portugal, Faro, Faro","Artigo 20.º, n.º 1, alínea c) do Código dos Contratos Públicos",,,,,,Não aplicável.,Não aplicável.,FALSE
Contrato de Assistência Técnica a Diversos Equipamentos Multifunções - 2.º Semestre de 2018,Ajuste Direto Regime Geral,Aquisição de serviços,"50800000-3, Serviços de reparação e manutenção diversos","Centro Hospitalar Universitário do Algarve, E. P. E. (510745997)","J.R.J. - Comércio de Equipamentos de Escritórios, Ldª. (505111500)","3.750,00 €",16-08-2018,13-08-2018,140 dias,"Portugal, Faro, Faro","Artigo 24.º, n.º 1, alínea e), subalínea ii) do Código dos Contratos Públicos",,,,,,Não aplicável.,Não aplicável.,FALSE
Contrato de Assistência Técnica a Diversos Equipamentos Multifunções - 2.º Semestre de 2018,Ajuste Direto Regime Geral,Aquisição de serviços,"50800000-3, Serviços de reparação e manutenção diversos","Centro Hospitalar Universitário do Algarve, E. P. E. (510745997)","J.R.J. - Comércio de Equipamentos de Escritórios, Ldª. (505111500)","8.014,33 €",16-08-2018,13-08-2018,140 dias,"Portugal, Faro, Portimão<BR/>Portugal, Faro, Loulé<BR/>Portugal, Faro, Faro<BR/>Portugal, Faro, Albufeira<BR/>Portugal, Faro, São Brás de Alportel<BR/>Portugal, Faro, Lagos<BR/>Portugal, Faro, Vila Real Sto Antonio","Artigo 20.º, n.º 1, alínea d) do Código dos Contratos Públicos",,,,,,Não aplicável.,Não aplicável.,FALSE
92/3033/2018 - Aquisição Material Cirurgico Fixador Externo Hoffmann 3,Ajuste Direto Regime Geral,Aquisição de bens móveis,"33183200-8, Próteses ortopédicas","Centro Hospitalar Universitário do Algarve, E. P. E. (510745997)","STRYKER PORTUGAL - PRODUTOS MEDICOS, UNIPESSOAL,LDA. (504594214)","2.860,95 €",14-08-2018,13-08-2018,5 dias,"Portugal, Faro, Faro","Artigo 24.º, n.º 1, alínea c) do Código dos Contratos Públicos",,,,,,Não aplicável.,Não aplicável.,FALSE
82/2911/2018 - Aquisição de Próteses Moore,Consulta Prévia,Aquisição de bens móveis,"33183200-8, Próteses ortopédicas","Centro Hospitalar Universitário do Algarve, E. P. E. (510745997)","EXPOMÉDICA - SOC. EXPORTAÇÃO IMPORTAÇÃO MATERIAL MÉDICO, LDA (501886621)","1.550,00 €",13-08-2018,10-08-2018,153 dias,"Portugal, Faro, Faro<BR/>Portugal, Faro, Portimão","Artigo 20.º, n.º 1, alínea c) do Código dos Contratos Públicos",,,,,,Não aplicável.,Não aplicável.,FALSE
