Objeto do Contrato,Tipo de Procedimento,Tipo(s) de Contrato,CPVs,Entidade(s) Adjudicante(s),Entidade(s) Adjudicatária(s),Preço Contratual,Data de Publicação,Data de Celebração do Contrato,Prazo de Execução,Local de Execução,Fundamentação,Data de Fecho do Contrato,Preço Total Efetivo,Causas das Alterações ao Prazo,Causas das Alterações ao Preço,Estado,N.º registo do Acordo Quadro,Descrição do Acordo Quadro,Procedimento Centralizado
Aquisição de material administrativo,Ajuste Direto Regime Geral,Aquisição de bens móveis,"30000000-9, Máquinas, equipamento e material de escritório e de informática, excepto mobiliário e pacotes de programas (software)","Centro Hospitalar de Entre o Douro e Vouga, E.P.E. (508878462)","Edicópia Sociedade de Equipamentos de Escritório, Lda (501991220)","104,00 €",30-07-2014,07-07-2014,180 dias,"Portugal, Aveiro, Santa Maria da Feira","Artigo 20.º, n.º 1, alínea a) do Código dos Contratos Públicos",,,,,,Não aplicável.,Não aplicável.,FALSE
Aquisição de material administrativo,Ajuste Direto Regime Geral,Aquisição de bens móveis,"30000000-9, Máquinas, equipamento e material de escritório e de informática, excepto mobiliário e pacotes de programas (software)","Centro Hospitalar de Entre o Douro e Vouga, E.P.E. (508878462)","Gotas Coloridas - Artes Gráficas e Encadernações, Unipessoal, Lda (508250692)","8.119,00 €",30-07-2014,07-07-2014,180 dias,"Portugal, Aveiro, Santa Maria da Feira","Artigo 20.º, n.º 1, alínea a) do Código dos Contratos Públicos",,,,,,Não aplicável.,Não aplicável.,FALSE
Aquisição de material administrativo,Ajuste Direto Regime Geral,Aquisição de bens móveis,"30000000-9, Máquinas, equipamento e material de escritório e de informática, excepto mobiliário e pacotes de programas (software)","Centro Hospitalar de Entre o Douro e Vouga, E.P.E. (508878462)","Tipografia Mota & Ferreira, Lda (500841608)","2.344,00 €",30-07-2014,07-07-2014,180 dias,"Portugal, Aveiro, Santa Maria da Feira","Artigo 20.º, n.º 1, alínea a) do Código dos Contratos Públicos",,,,,,Não aplicável.,Não aplicável.,FALSE
Aquisição de material administrativo,Ajuste Direto Regime Geral,Aquisição de bens móveis,"30000000-9, Máquinas, equipamento e material de escritório e de informática, excepto mobiliário e pacotes de programas (software)","Centro Hospitalar de Entre o Douro e Vouga, E.P.E. (508878462)","Burótica - Soc. de Estudos e Equipamentos Automáticos de Escritório, SA. (501178503)","2.410,29 €",30-07-2014,07-07-2014,180 dias,"Portugal, Aveiro, Santa Maria da Feira","Artigo 20.º, n.º 1, alínea a) do Código dos Contratos Públicos",,,,,,Não aplicável.,Não aplicável.,FALSE
Aquisição de material administrativo,Ajuste Direto Regime Geral,Aquisição de bens móveis,"30000000-9, Máquinas, equipamento e material de escritório e de informática, excepto mobiliário e pacotes de programas (software)","Centro Hospitalar de Entre o Douro e Vouga, E.P.E. (508878462)","Creativesystems - Sistemas e Serviços de Consultoria, S.A. (506168476)","13.642,56 €",30-07-2014,07-07-2014,180 dias,"Portugal, Aveiro, Santa Maria da Feira","Artigo 20.º, n.º 1, alínea a) do Código dos Contratos Públicos",,,,,,Não aplicável.,Não aplicável.,FALSE
Aquisição de material administrativo,Ajuste Direto Regime Geral,Aquisição de bens móveis,"30000000-9, Máquinas, equipamento e material de escritório e de informática, excepto mobiliário e pacotes de programas (software)","Centro Hospitalar de Entre o Douro e Vouga, E.P.E. (508878462)","Labeltronix Ibérica - Identificação e Marcação de Produtos Unipessoal, Lda (510245986)","728,56 €",30-07-2014,07-07-2014,180 dias,"Portugal, Aveiro, Santa Maria da Feira","Artigo 20.º, n.º 1, alínea a) do Código dos Contratos Públicos",,,,,,Não aplicável.,Não aplicável.,FALSE
Aquisição de material administrativo,Ajuste Direto Regime Geral,Aquisição de bens móveis,"30000000-9, Máquinas, equipamento e material de escritório e de informática, excepto mobiliário e pacotes de programas (software)","Centro Hospitalar de Entre o Douro e Vouga, E.P.E. (508878462)","Ofe7 - Artes Gráficas, Lda (504108735)","10,51 €",30-07-2014,07-07-2014,180 dias,"Portugal, Aveiro, Santa Maria da Feira","Artigo 20.º, n.º 1, alínea a) do Código dos Contratos Públicos",,,,,,Não aplicável.,Não aplicável.,FALSE
Aquisição de material administrativo,Ajuste Direto Regime Geral,Aquisição de bens móveis,"30000000-9, Máquinas, equipamento e material de escritório e de informática, excepto mobiliário e pacotes de programas (software)","Centro Hospitalar de Entre o Douro e Vouga, E.P.E. (508878462)","Enveloprinter, Lda (508469830)","11.009,20 €",30-07-2014,07-07-2014,180 dias,"Portugal, Aveiro, Santa Maria da Feira","Artigo 20.º, n.º 1, alínea a) do Código dos Contratos Públicos",,,,,,Não aplicável.,Não aplicável.,FALSE
Aquisição de material administrativo,Ajuste Direto Regime Geral,Aquisição de bens móveis,"30000000-9, Máquinas, equipamento e material de escritório e de informática, excepto mobiliário e pacotes de programas (software)","Centro Hospitalar de Entre o Douro e Vouga, E.P.E. (508878462)","JMV - Produtos Hospitalares, Lda (501887148)","720,00 €",30-07-2014,07-07-2014,180 dias,"Portugal, Aveiro, Santa Maria da Feira","Artigo 20.º, n.º 1, alínea a) do Código dos Contratos Públicos",,,,,,Não aplicável.,Não aplicável.,FALSE
