Objeto do Contrato,Tipo de Procedimento,Tipo(s) de Contrato,CPVs,Entidade(s) Adjudicante(s),Entidade(s) Adjudicatária(s),Preço Contratual,Data de Publicação,Data de Celebração do Contrato,Prazo de Execução,Local de Execução,Fundamentação,Data de Fecho do Contrato,Preço Total Efetivo,Causas das Alterações ao Prazo,Causas das Alterações ao Preço,Estado,N.º registo do Acordo Quadro,Descrição do Acordo Quadro,Procedimento Centralizado
"Aquisição de Serviços de Manutenção às máquinas “Míele” existentes no CHSJ, EPE., para o ano de 2018.",Consulta Prévia,Aquisição de serviços,"50000000-5, Serviços de reparação e manutenção","Centro Hospitalar de São João, E. P. E. (509821197)","Lablad Produtos e Serviços Técnicos, Lda (502629703)","9.498,60 €",07-06-2018,04-06-2018,365 dias,"Portugal, Porto, Porto","Artigo 20.º, n.º 1, alínea c) do Código dos Contratos Públicos",,,,,,Não aplicável.,Não aplicável.,FALSE
"Aquisição de Serviços de Manutenção, Licenciamento, Atualização e Assistência Técnica do Software CMS XIO bem como o suporte ao seu Hardware, para o ano de 2018.",Ajuste Direto Regime Geral,Aquisição de serviços,"50800000-3, Serviços de reparação e manutenção diversos","Centro Hospitalar São João, EPE (509821197)",RRTS (514185155),"19.951,19 €",06-06-2018,23-05-2018,365 dias,"Portugal, Porto, Porto","Artigo 24.º, n.º 1, alínea e) do Código dos Contratos Públicos",,,,,,Não aplicável.,Não aplicável.,FALSE
"Contrato de Manutenção e Assistência Técnica aos equipamentos “Leica” existentes em vários serviços do CHSJ, para o ano de 2018",Ajuste Direto Regime Geral,Aquisição de serviços,"50400000-9, Serviços de reparação e manutenção de equipamento médico e de precisão","Centro Hospitalar de São João, E. P. E. (509821197)",LEICA MICROSISTEMAS-INSTRUMENTOS DE PRECISÃO (500301921),"19.859,80 €",06-06-2018,23-05-2018,365 dias,"Portugal, Porto, Porto","Artigo 24.º, n.º 1, alínea e) do Código dos Contratos Públicos",,,,,,Não aplicável.,Não aplicável.,FALSE
