Objeto do Contrato,Tipo de Procedimento,Tipo(s) de Contrato,CPVs,Entidade(s) Adjudicante(s),Entidade(s) Adjudicatária(s),Preço Contratual,Data de Publicação,Data de Celebração do Contrato,Prazo de Execução,Local de Execução,Fundamentação,Data de Fecho do Contrato,Preço Total Efetivo,Causas das Alterações ao Prazo,Causas das Alterações ao Preço,Estado,N.º registo do Acordo Quadro,Descrição do Acordo Quadro,Procedimento Centralizado
Dossier p/proc.clinicos e etiquetas p/frigorifico,Ajuste Direto Regime Geral,Aquisição de bens móveis,"30190000-7, Equipamento e material de escritório diverso",Centro Hospitalar do Oeste (510412009),"Papelaria União,Lda (504368362)","36,00 €",08-04-2016,28-10-2015,1 dias,"Portugal, Leiria, Caldas da Rainha","Artigo 20.º, n.º 1, alínea a) do Código dos Contratos Públicos",29-10-2015,"36,00 €",,,,Não aplicável.,Não aplicável.,FALSE
Dossier p/proc.clinicos e etiquetas p/frigorifico,Ajuste Direto Regime Geral,Aquisição de bens móveis,"30190000-7, Equipamento e material de escritório diverso",Centro Hospitalar do Oeste (510412009),"Enveloprinter,Lda (508469830)","30,00 €",08-04-2016,28-10-2015,1 dias,"Portugal, Leiria, Caldas da Rainha","Artigo 20.º, n.º 1, alínea a) do Código dos Contratos Públicos",29-10-2015,"30,00 €",,,,Não aplicável.,Não aplicável.,FALSE
Tintas,Ajuste Direto Regime Geral,Aquisição de bens móveis,"44810000-1, Tintas",Centro Hospitalar do Oeste (510412009),José João Ribeiro Constantino (900288957),"69,54 €",06-04-2016,06-08-2015,1 dias,"Portugal, Leiria, Caldas da Rainha","Artigo 20.º, n.º 1, alínea a) do Código dos Contratos Públicos",07-08-2015,"69,54 €",,,,Não aplicável.,Não aplicável.,FALSE
Tintas,Ajuste Direto Regime Geral,Aquisição de bens móveis,"44810000-1, Tintas",Centro Hospitalar do Oeste (510412009),"HILTI  (Portugal) Produtos e Serviços,Lda (502926848)","93,17 €",06-04-2016,06-08-2015,1 dias,"Portugal, Leiria, Caldas da Rainha","Artigo 20.º, n.º 1, alínea a) do Código dos Contratos Públicos",07-08-2015,"93,17 €",,,,Não aplicável.,Não aplicável.,FALSE
Calhas/Cabos/Sinalizador,Ajuste Direto Regime Geral,Aquisição de bens móveis,"44115000-9, Acessórios para construção",Centro Hospitalar do Oeste (510412009),"Luxivo-Material Electrico, Lda (502400315)","5,76 €",06-04-2016,06-08-2015,1 dias,"Portugal, Leiria, Caldas da Rainha","Artigo 20.º, n.º 1, alínea a) do Código dos Contratos Públicos",07-08-2015,"5,76 €",,,,Não aplicável.,Não aplicável.,FALSE
Calhas/Cabos/Sinalizador,Ajuste Direto Regime Geral,Aquisição de bens móveis,"44115000-9, Acessórios para construção",Centro Hospitalar do Oeste (510412009),"Eugénio & Borga, Lda (502232072)","847,48 €",06-04-2016,06-08-2015,1 dias,"Portugal, Leiria, Caldas da Rainha","Artigo 20.º, n.º 1, alínea a) do Código dos Contratos Públicos",07-08-2015,"847,48 €",,,,Não aplicável.,Não aplicável.,FALSE
Anilhas/Porcas/Parafusos,Ajuste Direto Regime Geral,Aquisição de bens móveis,"44531520-2, Parafusos e parafusos de cabeça quadrada",Centro Hospitalar do Oeste (510412009),"Wurth-Portugal, Lda (504227114)","384,87 €",05-04-2016,06-08-2015,1 dias,"Portugal, Leiria, Caldas da Rainha","Artigo 20.º, n.º 1, alínea a) do Código dos Contratos Públicos",07-08-2015,"384,87 €",,,,Não aplicável.,Não aplicável.,FALSE
Anilhas/Porcas/Parafusos,Ajuste Direto Regime Geral,Aquisição de bens móveis,"44531520-2, Parafusos e parafusos de cabeça quadrada",Centro Hospitalar do Oeste (510412009),"A.Machado, Lda (501914420)","1.298,94 €",05-04-2016,06-08-2015,1 dias,"Portugal, Leiria, Caldas da Rainha","Artigo 20.º, n.º 1, alínea a) do Código dos Contratos Públicos",07-08-2015,"1.298,94 €",,,,Não aplicável.,Não aplicável.,FALSE
Produtos de manutenção,Ajuste Direto Regime Geral,Aquisição de bens móveis,"44100000-1, Materiais de construção e artigos afins",Centro Hospitalar do Oeste (510412009),Ribeiro & Marques (501943048),"19,35 €",04-04-2016,02-12-2015,1 dias,"Portugal, Leiria, Caldas da Rainha","Artigo 20.º, n.º 1, alínea a) do Código dos Contratos Públicos",02-12-2015,"19,35 €",,,,Não aplicável.,Não aplicável.,FALSE
Produtos de manutenção,Ajuste Direto Regime Geral,Aquisição de bens móveis,"44100000-1, Materiais de construção e artigos afins",Centro Hospitalar do Oeste (510412009),Joaquim Baptista (500151350),"25,37 €",04-04-2016,02-12-2015,1 dias,"Portugal, Leiria, Caldas da Rainha","Artigo 20.º, n.º 1, alínea a) do Código dos Contratos Públicos",02-12-2015,"25,37 €",,,,Não aplicável.,Não aplicável.,FALSE
Produtos manutenção,Ajuste Direto Regime Geral,Aquisição de bens móveis,"44400000-4, Produtos fabricados diversos e artigos afins",Centro Hospitalar do Oeste (510412009),Hilti (Portugal) (502926848),"51,40 €",04-04-2016,02-12-2015,1 dias,"Portugal, Leiria, Caldas da Rainha","Artigo 20.º, n.º 1, alínea a) do Código dos Contratos Públicos",02-12-2015,"51,40 €",,,,Não aplicável.,Não aplicável.,FALSE
Produtos de manutenção,Ajuste Direto Regime Geral,Aquisição de bens móveis,"44400000-4, Produtos fabricados diversos e artigos afins",Centro Hospitalar do Oeste (510412009),Ferragens Bacalhau (501150072),"36,86 €",04-04-2016,02-12-2015,1 dias,"Portugal, Leiria, Caldas da Rainha","Artigo 20.º, n.º 1, alínea a) do Código dos Contratos Públicos",02-12-2015,"36,86 €",,,,Não aplicável.,Não aplicável.,FALSE
Aquisição de reagentes de hematologia - AjD 80017316,Ajuste Direto Regime Geral,Aquisição de bens móveis,"33696500-0, Reagentes de laboratório",Centro Hospitalar do Oeste (510412009),Beckman Coulter Portugal (509035167),"5.062,24 €",04-04-2016,15-03-2016,1 dias,"Portugal, Leiria, Caldas da Rainha","Artigo 20.º, n.º 1, alínea a) do Código dos Contratos Públicos",15-03-2016,"5.062,24 €",,,,Não aplicável.,Não aplicável.,FALSE
Material Electrico,Ajuste Direto Regime Geral,Aquisição de bens móveis,"31320000-5, Cabos de distribuição de energia eléctrica",Centro Hospitalar do Oeste (510412009),"Miracaldas,Lda (503889075)","194,40 €",31-03-2016,06-08-2015,1 dias,"Portugal, Leiria, Caldas da Rainha","Artigo 20.º, n.º 1, alínea a) do Código dos Contratos Públicos",07-08-2015,"194,40 €",,,,Não aplicável.,Não aplicável.,FALSE
Material Electrico,Ajuste Direto Regime Geral,Aquisição de bens móveis,"31320000-5, Cabos de distribuição de energia eléctrica",Centro Hospitalar do Oeste (510412009),"Luxivo-Material Electrico,Lda (502400315)","300,63 €",31-03-2016,06-08-2015,1 dias,"Portugal, Leiria, Caldas da Rainha","Artigo 20.º, n.º 1, alínea a) do Código dos Contratos Públicos",07-08-2015,"300,63 €",,,,Não aplicável.,Não aplicável.,FALSE
Valvulas,Ajuste Direto Regime Geral,Aquisição de bens móveis,"31711400-7, Válvulas e tubos",Centro Hospitalar do Oeste (510412009),"Joaquim Baptista, Lda (500151350)","109,95 €",31-03-2016,04-08-2015,1 dias,"Portugal, Leiria, Caldas da Rainha","Artigo 20.º, n.º 1, alínea a) do Código dos Contratos Públicos",05-08-2015,"109,95 €",,,,Não aplicável.,Não aplicável.,FALSE
Valvulas,Ajuste Direto Regime Geral,Aquisição de bens móveis,"31711400-7, Válvulas e tubos",Centro Hospitalar do Oeste (510412009),"Chagas-Florencio Augusto Chagas,SA (500117152)","92,34 €",31-03-2016,04-08-2015,1 dias,"Portugal, Leiria, Caldas da Rainha","Artigo 20.º, n.º 1, alínea a) do Código dos Contratos Públicos",05-08-2015,"92,34 €",,,,Não aplicável.,Não aplicável.,FALSE
