Objeto do Contrato,Tipo de Procedimento,Tipo(s) de Contrato,CPVs,Entidade(s) Adjudicante(s),Entidade(s) Adjudicatária(s),Preço Contratual,Data de Publicação,Data de Celebração do Contrato,Prazo de Execução,Local de Execução,Fundamentação,Data de Fecho do Contrato,Preço Total Efetivo,Causas das Alterações ao Prazo,Causas das Alterações ao Preço,Estado,N.º registo do Acordo Quadro,Descrição do Acordo Quadro,Procedimento Centralizado
Serv. de Informática para o mês de Março a Dezembro 2015,Ajuste Direto Regime Geral,Aquisição de serviços,"72000000-5, Serviços de TI: consultoria, desenvolvimento de software, Internet e apoio",Centro Hospitalar Psiquiátrico de Lisboa (508338476),"Eposters - Sociedade Unipessoal,Lda (510771815)","12.960,00 €",08-04-2016,02-03-2015,300 dias,"Portugal, Lisboa, Lisboa","Artigo 24.º, n.º 1, alínea c) do Código dos Contratos Públicos",31-12-2015,"12.960,00 €",,"",,Não aplicável.,Não aplicável.,FALSE
Serv. Informática mês de Fevereiro,Ajuste Direto Regime Geral,Aquisição de serviços,"72000000-5, Serviços de TI: consultoria, desenvolvimento de software, Internet e apoio",Centro Hospitalar Psiquiátrico de Lisboa (508338476),Eposters (510771815),"1.408,59 €",08-04-2016,09-02-2015,28 dias,"Portugal, Lisboa, Lisboa","Artigo 24.º, n.º 1, alínea c) do Código dos Contratos Públicos",28-02-2015,"1.408,59 €",,"",,Não aplicável.,Não aplicável.,FALSE
Serviços de Informática para mês de Janeiro 2015,Ajuste Direto Regime Geral,Aquisição de serviços,"72000000-5, Serviços de TI: consultoria, desenvolvimento de software, Internet e apoio",Centro Hospitalar Psiquiátrico de Lisboa (508338476),Eposters (510771815),"1.408,59 €",08-04-2016,23-01-2015,31 dias,"Portugal, Lisboa, Lisboa","Artigo 24.º, n.º 1, alínea c) do Código dos Contratos Públicos",31-01-2015,"1.408,59 €",,"",,Não aplicável.,Não aplicável.,FALSE
"Renda do Imóvel na R. Ovar, Lot 549",Ajuste Direto Regime Geral,Aquisição de serviços,"70000000-1, Serviços imobiliários",Centro Hospitalar Psiquiátrico de Lisboa (508338476),Gebalis (503541567),"669,00 €",08-04-2016,02-02-2015,360 dias,"Portugal, Lisboa, Lisboa","Artigo 27.º, n.º 1, alínea c) do Código dos Contratos Públicos",31-12-2015,"669,00 €",,"",,Não aplicável.,Não aplicável.,FALSE
"Renda do Imovel no Largo Marques de Pombal, Nº2-7º Vila F. Xira",Ajuste Direto Regime Geral,Aquisição de serviços,"70000000-1, Serviços imobiliários",Centro Hospitalar Psiquiátrico de Lisboa (508338476),Joaquim Fernandes André (180968890),"18.798,36 €",08-04-2016,02-02-2015,360 dias,"Portugal, Lisboa, Lisboa","Artigo 27.º, n.º 1, alínea c) do Código dos Contratos Públicos",31-12-2015,"18.798,36 €",,"",,Não aplicável.,Não aplicável.,FALSE
"Renda do Imóvel da R. José Augusto Lopes Júnior, Nº5 Loja A - Torres Vedras",Ajuste Direto Regime Geral,Aquisição de serviços,"70000000-1, Serviços imobiliários",Centro Hospitalar Psiquiátrico de Lisboa (508338476),Jorge Manuel Silva Santos (109282566),"14.360,61 €",07-04-2016,02-02-2015,360 dias,"Portugal, Lisboa, Lisboa","Artigo 27.º, n.º 1, alínea c) do Código dos Contratos Públicos",31-12-2015,"14.360,61 €",,"",,Não aplicável.,Não aplicável.,FALSE
"Renda do Imóvel da R. Dr. Alfredo Costa, Nº62-1ºSintra",Ajuste Direto Regime Geral,Aquisição de serviços,"70000000-1, Serviços imobiliários",Centro Hospitalar Psiquiátrico de Lisboa (508338476),LIMOPOM (506171736),"9.723,26 €",07-04-2016,02-02-2015,360 dias,"Portugal, Lisboa, Lisboa","Artigo 27.º, n.º 1, alínea c) do Código dos Contratos Públicos",31-12-2015,"9.723,26 €",,"",,Não aplicável.,Não aplicável.,FALSE
"Renda do Imóvel da R. Dário Canas,4-Odivelas",Ajuste Direto Regime Geral,Aquisição de serviços,"70000000-1, Serviços imobiliários",Centro Hospitalar Psiquiátrico de Lisboa (508338476),MMZ (503754544),"37.422,84 €",07-04-2016,02-02-2015,360 dias,"Portugal, Lisboa, Lisboa","Artigo 27.º, n.º 1, alínea c) do Código dos Contratos Públicos",31-12-2015,"37.422,84 €",,"",,Não aplicável.,Não aplicável.,FALSE
"Renda do Imóvel R. António Patricio, 18-2ºEsq.",Ajuste Direto Regime Geral,Aquisição de serviços,"70000000-1, Serviços imobiliários",Centro Hospitalar Psiquiátrico de Lisboa (508338476),Segurança Social (500715505),"2.432,29 €",07-04-2016,02-02-2015,210 dias,"Portugal, Lisboa, Lisboa","Artigo 27.º, n.º 1, alínea c) do Código dos Contratos Públicos",31-07-2015,"2.432,29 €",,"",,Não aplicável.,Não aplicável.,FALSE
"Renda do Imóvel R. António Patricio,18-2ºEsq.",Ajuste Direto Regime Geral,Aquisição de serviços,"70000000-1, Serviços imobiliários",Centro Hospitalar Psiquiátrico de Lisboa (508338476),IHRU-Instituto da Habitação e da Reabilitação Urb. (501460888),"4.169,64 €",07-04-2016,07-08-2015,150 dias,"Portugal, Lisboa, Lisboa","Artigo 27.º, n.º 1, alínea c) do Código dos Contratos Públicos",31-12-2015,"1.737,35 €",,Valor relativo a Renda a partir de Agosto a Dezembro dado ter havido mudança de arrendatário,,Não aplicável.,Não aplicável.,FALSE
"Renda do Imóvel R. Camilo Pessanha, Nº3 - 2º Dto. , Alvalade",Ajuste Direto Regime Geral,Aquisição de serviços,"70000000-1, Serviços imobiliários",Centro Hospitalar Psiquiátrico de Lisboa (508338476),IHRU-Inst. da Habitação e da Reabilitação Urb. (501460888),"656,31 €",05-04-2016,01-08-2015,150 dias,"Portugal, Lisboa, Lisboa","Artigo 27.º, n.º 1, alínea c) do Código dos Contratos Públicos",31-12-2015,"656,31 €",,"",,Não aplicável.,Não aplicável.,FALSE
"Renda do Imóvel R. Camilo Pessanha, Nº3 - 2º Dto. , Alvalade",Ajuste Direto Regime Geral,Aquisição de serviços,"70000000-1, Serviços imobiliários",Centro Hospitalar Psiquiátrico de Lisboa (508338476),Segurança Social (500715505),"1.468,93 €",05-04-2016,02-02-2015,210 dias,"Portugal, Lisboa, Lisboa","Artigo 27.º, n.º 1, alínea b) e n.º 3 do Código dos Contratos Públicos",31-07-2015,"1.468,93 €",,"",,Não aplicável.,Não aplicável.,FALSE
Instalação Elétrica no PSL (Habitáculos),Ajuste Direto Regime Geral,Aquisição de serviços,"51000000-9, Serviços de instalação (excepto software)",Centro Hospitalar Psiquiátrico de Lisboa (508338476),"TERMOSUL, S.A (501255869)","20.651,17 €",05-04-2016,31-08-2015,45 dias,"Portugal, Lisboa, Lisboa","Artigo 20.º, n.º 1, alínea a) do Código dos Contratos Públicos",30-12-2015,"20.651,17 €",,"",,Não aplicável.,Não aplicável.,FALSE
Alimentação para o Mês de Setembro 2015,Ajuste Direto Regime Geral,Aquisição de serviços,"55000000-0, Serviços de hotelaria, restauração e comércio a retalho",Centro Hospitalar Psiquiátrico de Lisboa (508338476),GERTAL (500126623),"69.638,92 €",05-04-2016,09-09-2015,30 dias,"Portugal, Lisboa, Lisboa","Artigo 24.º, n.º 1, alínea c) do Código dos Contratos Públicos",30-09-2015,"69.638,92 €",,Valor efetivo corresponde ao valor Faturado,,Não aplicável.,Não aplicável.,FALSE
Alimentação para o mês de Agosto do CHPL,Ajuste Direto Regime Geral,Aquisição de serviços,"55000000-0, Serviços de hotelaria, restauração e comércio a retalho",Centro Hospitalar Psiquiátrico de Lisboa (508338476),GERTAL (500126623),"72.236,71 €",05-04-2016,20-08-2015,31 dias,"Portugal, Lisboa, Lisboa","Artigo 24.º, n.º 1, alínea c) do Código dos Contratos Públicos",31-08-2015,"68.609,21 €",,Valor efetivo corresponde ao valor faturado,,Não aplicável.,Não aplicável.,FALSE
Alimentação para mês Julho 2016,Ajuste Direto Regime Geral,Aquisição de serviços,"55000000-0, Serviços de hotelaria, restauração e comércio a retalho",Centro Hospitalar Psiquiátrico de Lisboa (508338476),GERTAL (500126623),"72.324,70 €",01-04-2016,20-07-2015,31 dias,"Portugal, Lisboa, Lisboa","Artigo 24.º, n.º 1, alínea c) do Código dos Contratos Públicos",31-07-2015,"71.821,16 €",,Valor efetivo corresponde ao valor Faturado,,Não aplicável.,Não aplicável.,FALSE
Aquisição de Serviços de alimentação para o mês de Junho 2015,Ajuste Direto Regime Geral,Aquisição de serviços,"55000000-0, Serviços de hotelaria, restauração e comércio a retalho",Centro Hospitalar Psiquiátrico de Lisboa (508338476),GERTAL  (500126623),"70.000,10 €",01-04-2016,19-06-2015,30 dias,"Portugal, Lisboa, Lisboa","Artigo 24.º, n.º 1, alínea c) do Código dos Contratos Públicos",30-06-2015,"66.748,69 €",,Valo efetivo corresponde ao valor Faturado,,Não aplicável.,Não aplicável.,FALSE
