Objeto do Contrato,Tipo de Procedimento,Tipo(s) de Contrato,CPVs,Entidade(s) Adjudicante(s),Entidade(s) Adjudicatária(s),Preço Contratual,Data de Publicação,Data de Celebração do Contrato,Prazo de Execução,Local de Execução,Fundamentação,Data de Fecho do Contrato,Preço Total Efetivo,Causas das Alterações ao Prazo,Causas das Alterações ao Preço,Estado,N.º registo do Acordo Quadro,Descrição do Acordo Quadro,Procedimento Centralizado
REPARAÇÃO DE VIATURA 34-51-XO (CAIXA DE VELOCIDADES),Ajuste Direto Regime Geral,Aquisição de bens móveis,"34300000-0, Peças e acessórios para veículos e seus motores","Instituto Nacional de Emergência Médica, I. P. (501356126)",B.C.L. CAR (503639494),"3.728,18 €",01-07-2014,13-03-2014,5 dias,"Portugal, Lisboa, Lisboa","Artigo 20.º, n.º 1, alínea a) do Código dos Contratos Públicos",,,,,,Não aplicável.,Não aplicável.,FALSE
REPARAÇÃO DE VIATURA 78-EP-27 (MOTOR),Ajuste Direto Regime Geral,Aquisição de bens móveis,"34300000-0, Peças e acessórios para veículos e seus motores","Instituto Nacional de Emergência Médica, I. P. (501356126)",TURBAUDÁCIA (510898637),"7.768,17 €",01-07-2014,13-03-2014,5 dias,"Portugal, Lisboa, Lisboa","Artigo 20.º, n.º 1, alínea a) do Código dos Contratos Públicos",,,,,,Não aplicável.,Não aplicável.,FALSE
Fornecimento de 70.000 sacos de risco biológico e 100 sacos para cadáver vulc. com fecho.,Ajuste Direto Regime Geral,Aquisição de bens móveis,"33000000-0, Equipamento médico, medicamentos e produtos para cuidados pessoais","Instituto Nacional de Emergência Médica, I. P. (501356126)",M.U.C.  (502379308),"3.745,00 €",01-07-2014,25-06-2014,20 dias,"Portugal, Lisboa, Lisboa","Artigo 20.º, n.º 1, alínea a) do Código dos Contratos Públicos",,,,,,Não aplicável.,Não aplicável.,FALSE
"Fornecimento de 1000 prolongamento venoso m/f c/ torneira 3vias, ligação Luer-Lock, 5 emb. c/ 1 kg sacos plástico saco transparente15x20, 5 emb. c/ 1 kg sacos plástico saco transparente 20x30 e 30 esfigmomanómetro aneroide s/estetoscópio adulto.  ",Ajuste Direto Regime Geral,Aquisição de bens móveis,"33000000-0, Equipamento médico, medicamentos e produtos para cuidados pessoais","Instituto Nacional de Emergência Médica, I. P. (501356126)",FACTORMED (506986918),"892,70 €",01-07-2014,23-06-2014,10 dias,"Portugal, Lisboa, Lisboa","Artigo 20.º, n.º 1, alínea a) do Código dos Contratos Públicos",,,,,,Não aplicável.,Não aplicável.,FALSE
Fornecimento de 1520 unidades de tubo aspiração de bolha 7mm.,Ajuste Direto Regime Geral,Aquisição de bens móveis,"33000000-0, Equipamento médico, medicamentos e produtos para cuidados pessoais","Instituto Nacional de Emergência Médica, I. P. (501356126)","PMH - PRODUTOS MÉDICOS - HOSPITALARES, SA (502376899)","1.094,40 €",01-07-2014,25-06-2014,8 dias,"Portugal, Lisboa, Lisboa","Artigo 20.º, n.º 1, alínea a) do Código dos Contratos Públicos",,,,,,Não aplicável.,Não aplicável.,FALSE
"Fornecimento de 1200 luva cirúrgica estéril nº 6,5 em latex, não empoada, 1200 luva cirúrgica estéril nº 7 em latex, não empoada, 1200 luva cirúrgica estéril nº 7,5 em latex, não empoada, 1200 luva cirúrgica estéril nº 8 em latex, não empoada e agulha hipoder. estéril 21g (0,8x40mm), c/ bisel normal.  ",Ajuste Direto Regime Geral,Aquisição de bens móveis,"33000000-0, Equipamento médico, medicamentos e produtos para cuidados pessoais","Instituto Nacional de Emergência Médica, I. P. (501356126)",PERGUT PORTUGAL (501799729),"0,00 €",01-07-2014,25-06-2014,5 dias,"Portugal, Lisboa, Lisboa","Artigo 26.º, n.º 1, alínea e) do Código dos Contratos Públicos",,,,,,1242732,AQUISIÇÃO DE LUVAS CIRURGICAS E AGULHAS HIPODER. ESTÉREIS C/ BISEL NORMAL,FALSE
Fornecimento de 108 conjuntos para parto súbito.,Ajuste Direto Regime Geral,Aquisição de bens móveis,"33000000-0, Equipamento médico, medicamentos e produtos para cuidados pessoais","Instituto Nacional de Emergência Médica, I. P. (501356126)",AMETTO MEDICAL (510969496),"1.497,96 €",01-07-2014,25-06-2014,21 dias,"Portugal, Lisboa, Lisboa","Artigo 20.º, n.º 1, alínea a) do Código dos Contratos Públicos",,,,,,Não aplicável.,Não aplicável.,FALSE
Reparação de um monitor MEK 700 SN 700-05g-0105,Ajuste Direto Regime Geral,Aquisição de serviços,"50000000-5, Serviços de reparação e manutenção","Instituto Nacional de Emergência Médica, I. P. (501356126)","SPACE, LDA. (507662407)","190,00 €",25-06-2014,13-05-2014,30 dias,"Portugal, Lisboa, Lisboa","Artigo 24.º, n.º 1, alínea e) do Código dos Contratos Públicos",,,,,,Não aplicável.,Não aplicável.,FALSE
"Aluguer de modulo para a base do Helicoptero de Emergencia Medica, para o Ano 2014",Ajuste Direto Regime Geral,Aquisição de serviços,"50000000-5, Serviços de reparação e manutenção","Instituto Nacional de Emergência Médica, I. P. (501356126)","FERNANDO H. R. NEVES UNIP, LDA (505528991)","4.500,00 €",25-06-2014,13-03-2014,365 dias,"Portugal, Lisboa, Lisboa","Artigo 20.º, n.º 1, alínea a) do Código dos Contratos Públicos",,,,,,Não aplicável.,Não aplicável.,FALSE
Serviços de transportes (CP),Ajuste Direto Regime Geral,Aquisição de serviços,"60000000-8, Serviços de transporte (excl. transporte de resíduos)","Instituto Nacional de Emergência Médica, I. P. (501356126)","CP - COMBOIOS DE PORTUGAL, EPE (500498601)","1.698,11 €",25-06-2014,09-04-2014,30 dias,"Portugal, Lisboa, Lisboa","Artigo 24.º, n.º 1, alínea e) do Código dos Contratos Públicos",,,,,,Não aplicável.,Não aplicável.,FALSE
Reparação de incubadora de transporte modelo TI500 sn WCO1152.,Ajuste Direto Regime Geral,Aquisição de serviços,"50000000-5, Serviços de reparação e manutenção","Instituto Nacional de Emergência Médica, I. P. (501356126)","SANO-TÉCNICA, LDA. (500239819)","1.196,35 €",25-06-2014,30-12-2013,30 dias,"Portugal, Lisboa, Lisboa","Artigo 24.º, n.º 1, alínea e) do Código dos Contratos Públicos",,,,,,Não aplicável.,Não aplicável.,FALSE
Reparação de um aspirador weinmann sn 17853,Ajuste Direto Regime Geral,Aquisição de serviços,"50000000-5, Serviços de reparação e manutenção","Instituto Nacional de Emergência Médica, I. P. (501356126)","FUTURVIDA, LDA. (504260510)","131,11 €",25-06-2014,30-12-2013,30 dias,"Portugal, Lisboa, Lisboa","Artigo 24.º, n.º 1, alínea e) do Código dos Contratos Públicos",,,,,,Não aplicável.,Não aplicável.,FALSE
Reparação de um aspirador weinmann sn 7428,Ajuste Direto Regime Geral,Aquisição de serviços,"50000000-5, Serviços de reparação e manutenção","Instituto Nacional de Emergência Médica, I. P. (501356126)","FUTURVIDA, LDA. (504260510)","205,71 €",25-06-2014,30-12-2013,30 dias,"Portugal, Lisboa, Lisboa","Artigo 24.º, n.º 1, alínea e) do Código dos Contratos Públicos",,,,,,Não aplicável.,Não aplicável.,FALSE
Reparação de um aspirador weinmann sn 5524,Ajuste Direto Regime Geral,Aquisição de serviços,"50000000-5, Serviços de reparação e manutenção","Instituto Nacional de Emergência Médica, I. P. (501356126)","FUTURVIDA, LDA. (504260510)","187,51 €",25-06-2014,30-12-2013,30 dias,"Portugal, Lisboa, Lisboa","Artigo 24.º, n.º 1, alínea e) do Código dos Contratos Públicos",,,,,,Não aplicável.,Não aplicável.,FALSE
Reparação de monitor modelo 2120 sn 500238993,Ajuste Direto Regime Geral,Aquisição de serviços,"50000000-5, Serviços de reparação e manutenção","Instituto Nacional de Emergência Médica, I. P. (501356126)","SPACE, LDA. (507662407)","575,67 €",25-06-2014,13-05-2014,30 dias,"Portugal, Lisboa, Lisboa","Artigo 24.º, n.º 1, alínea e) do Código dos Contratos Públicos",,,,,,Não aplicável.,Não aplicável.,FALSE
REPARAÇÃO DE INCUBADORA,Ajuste Direto Regime Geral,Aquisição de serviços,"50000000-5, Serviços de reparação e manutenção","Instituto Nacional de Emergência Médica, I. P. (501356126)","PULMOCOR-EQUIP.MÉDICO,Lª (501402578)","5.653,00 €",25-06-2014,19-05-2014,30 dias,"Portugal, Lisboa, Lisboa","Artigo 24.º, n.º 1, alínea e) do Código dos Contratos Públicos",,,,,,Não aplicável.,Não aplicável.,FALSE
Reparação de um aspirador laerdal sn 78370222771.,Ajuste Direto Regime Geral,Aquisição de serviços,"50000000-5, Serviços de reparação e manutenção","Instituto Nacional de Emergência Médica, I. P. (501356126)","MEDICINÁLIA CORMÉDICA, LDA. (500684324)","694,72 €",25-06-2014,30-05-2014,30 dias,"Portugal, Lisboa, Lisboa","Artigo 24.º, n.º 1, alínea e) do Código dos Contratos Públicos",,,,,,Não aplicável.,Não aplicável.,FALSE
Reparação de um aspirador laerdal sn 78220442450,Ajuste Direto Regime Geral,Aquisição de serviços,"50000000-5, Serviços de reparação e manutenção","Instituto Nacional de Emergência Médica, I. P. (501356126)","MEDICINÁLIA CORMÉDICA, LDA. (500684324)","758,03 €",25-06-2014,22-05-2014,30 dias,"Portugal, Lisboa, Lisboa","Artigo 24.º, n.º 1, alínea e) do Código dos Contratos Públicos",,,,,,Não aplicável.,Não aplicável.,FALSE
Reparação de um aspirador LSU sn 78160440957,Ajuste Direto Regime Geral,Aquisição de serviços,"50000000-5, Serviços de reparação e manutenção","Instituto Nacional de Emergência Médica, I. P. (501356126)","Medicinalia Cormedica, Lda (500684324)","1.006,98 €",25-06-2014,13-05-2014,30 dias,"Portugal, Lisboa, Lisboa","Artigo 24.º, n.º 1, alínea e) do Código dos Contratos Públicos",,,,,,Não aplicável.,Não aplicável.,FALSE
Reparação de um aspirador Laerdal sn 78170557599,Ajuste Direto Regime Geral,Aquisição de serviços,"50000000-5, Serviços de reparação e manutenção","Instituto Nacional de Emergência Médica, I. P. (501356126)","Medicinalia Cormedica, Lda (500684324)","694,72 €",25-06-2014,16-05-2014,30 dias,"Portugal, Lisboa, Lisboa","Artigo 24.º, n.º 1, alínea e) do Código dos Contratos Públicos",,,,,,Não aplicável.,Não aplicável.,FALSE
Reparação de um aspirador laerdal sn 78480225051,Ajuste Direto Regime Geral,Aquisição de serviços,"50000000-5, Serviços de reparação e manutenção","Instituto Nacional de Emergência Médica, I. P. (501356126)","Medicinalia Cormedica, Lda (500684324)","694,72 €",25-06-2014,22-05-2014,30 dias,"Portugal, Lisboa, Lisboa","Artigo 24.º, n.º 1, alínea e) do Código dos Contratos Públicos",,,,,,Não aplicável.,Não aplicável.,FALSE
Reparação de aspirador accuvac sn 17612/2007,Ajuste Direto Regime Geral,Aquisição de serviços,"50000000-5, Serviços de reparação e manutenção","Instituto Nacional de Emergência Médica, I. P. (501356126)","Futurvida, Lda (504260510)","228,48 €",25-06-2014,30-05-2014,30 dias,"Portugal, Lisboa, Lisboa","Artigo 24.º, n.º 1, alínea e) do Código dos Contratos Públicos",,,,,,Não aplicável.,Não aplicável.,FALSE
Reparação de incubadora sn QY04771,Ajuste Direto Regime Geral,Aquisição de serviços,"50000000-5, Serviços de reparação e manutenção","Instituto Nacional de Emergência Médica, I. P. (501356126)","Sano-Tecnica, Lda (500239819)","447,00 €",25-06-2014,12-06-2014,30 dias,"Portugal, Lisboa, Lisboa","Artigo 24.º, n.º 1, alínea e) do Código dos Contratos Públicos",,,,,,Não aplicável.,Não aplicável.,FALSE
Reparação de uma seringa bbraun sn 64567,Ajuste Direto Regime Geral,Aquisição de serviços,"50000000-5, Serviços de reparação e manutenção","Instituto Nacional de Emergência Médica, I. P. (501356126)","B.Braun Medical, Lda (501506543)","616,40 €",25-06-2014,08-05-2014,30 dias,"Portugal, Lisboa, Lisboa","Artigo 24.º, n.º 1, alínea e) do Código dos Contratos Públicos",,,,,,Não aplicável.,Não aplicável.,FALSE
REPARAÇÃO DE VIATURA 41-GZ-00,Ajuste Direto Regime Geral,Aquisição de serviços,"50100000-6, Serviços de reparação e manutenção de veículos e equipamento afim, e serviços conexos","Instituto Nacional de Emergência Médica, I. P. (501356126)","MYCARCENTER, LDA. (500286540)","6.483,57 €",21-06-2014,12-06-2014,5 dias,"Portugal, Lisboa, Lisboa","Artigo 20.º, n.º 1, alínea a) do Código dos Contratos Públicos",,,,,,Não aplicável.,Não aplicável.,FALSE
REPARAÇÃO DE VIATURA 40-HC-48 (MOTOR),Ajuste Direto Regime Geral,Aquisição de bens móveis,"34300000-0, Peças e acessórios para veículos e seus motores","Instituto Nacional de Emergência Médica, I. P. (501356126)","LEONEL MAGALHÃES & BAPTISTA SILVA, LDA. (513026371)","9.393,10 €",21-06-2014,12-06-2014,5 dias,"Portugal, Lisboa, Lisboa","Artigo 20.º, n.º 1, alínea a) do Código dos Contratos Públicos",,,,,,Não aplicável.,Não aplicável.,FALSE
REPARAÇÃO DE VIATURA 34-38-XO (CABEÇA DE MOTOR),Ajuste Direto Regime Geral,Aquisição de bens móveis,"34300000-0, Peças e acessórios para veículos e seus motores","Instituto Nacional de Emergência Médica, I. P. (501356126)","G. C. P. AUTO, LDA (503252743)","6.082,76 €",21-06-2014,23-05-2014,5 dias,"Portugal, Lisboa, Lisboa","Artigo 20.º, n.º 1, alínea a) do Código dos Contratos Públicos",,,,,,Não aplicável.,Não aplicável.,FALSE
REPARAÇÃO DE VIATURA 78-EP-31 (MOTOR),Ajuste Direto Regime Geral,Aquisição de bens móveis,"34300000-0, Peças e acessórios para veículos e seus motores","Instituto Nacional de Emergência Médica, I. P. (501356126)",JAPAUTOMOTIVE (505897210),"8.180,12 €",21-06-2014,10-05-2014,5 dias,"Portugal, Lisboa, Lisboa","Artigo 20.º, n.º 1, alínea a) do Código dos Contratos Públicos",,,,,,Não aplicável.,Não aplicável.,FALSE
REPARAÇÃO DE VIATURA 77-CC-49 (MOTOR),Ajuste Direto Regime Geral,Aquisição de bens móveis,"34300000-0, Peças e acessórios para veículos e seus motores","Instituto Nacional de Emergência Médica, I. P. (501356126)","G. C. P. AUTO, LDA. (503252743)","5.985,98 €",21-06-2014,30-04-2014,5 dias,"Portugal, Lisboa, Lisboa","Artigo 20.º, n.º 1, alínea a) do Código dos Contratos Públicos",,,,,,Não aplicável.,Não aplicável.,FALSE
REPARAÇÃO DE VIATURA 07-EJ-68,Ajuste Direto Regime Geral,Aquisição de serviços,"50100000-6, Serviços de reparação e manutenção de veículos e equipamento afim, e serviços conexos","Instituto Nacional de Emergência Médica, I. P. (501356126)",JAPAUTOMOTIVE (505897210),"5.526,53 €",21-06-2014,02-05-2014,5 dias,"Portugal, Lisboa, Lisboa","Artigo 20.º, n.º 1, alínea a) do Código dos Contratos Públicos",,,,,,Não aplicável.,Não aplicável.,FALSE
REPARAÇÃO DE VIATURA 40-HC-52 (MOTOR),Ajuste Direto Regime Geral,Aquisição de bens móveis,"34300000-0, Peças e acessórios para veículos e seus motores","Instituto Nacional de Emergência Médica, I. P. (501356126)","MELVAR, SA (500189862)","6.568,10 €",21-06-2014,08-05-2014,5 dias,"Portugal, Lisboa, Lisboa","Artigo 20.º, n.º 1, alínea a) do Código dos Contratos Públicos",,,,,,Não aplicável.,Não aplicável.,FALSE
REPARAÇÃO DE VIATURA 56-GR-03 (MOTOR),Ajuste Direto Regime Geral,Aquisição de bens móveis,"34300000-0, Peças e acessórios para veículos e seus motores","Instituto Nacional de Emergência Médica, I. P. (501356126)","AUTO LPM LAMY PINTO MARIO, LDA. (501373209)","8.331,30 €",21-06-2014,10-05-2014,5 dias,"Portugal, Lisboa, Lisboa","Artigo 20.º, n.º 1, alínea a) do Código dos Contratos Públicos",,,,,,Não aplicável.,Não aplicável.,FALSE
REPARAÇÃO DE VIATURA 34-60-XO (MOTOR),Ajuste Direto Regime Geral,Aquisição de bens móveis,"34300000-0, Peças e acessórios para veículos e seus motores","Instituto Nacional de Emergência Médica, I. P. (501356126)","LGA, SA (502004975)","7.419,30 €",21-06-2014,13-05-2014,5 dias,"Portugal, Lisboa, Lisboa","Artigo 20.º, n.º 1, alínea a) do Código dos Contratos Públicos",,,,,,Não aplicável.,Não aplicável.,FALSE
REPARAÇÃO DE VIATURA 04-GV-10 (MOTOR),Ajuste Direto Regime Geral,Aquisição de bens móveis,"34300000-0, Peças e acessórios para veículos e seus motores","Instituto Nacional de Emergência Médica, I. P. (501356126)",JAPAUTOMOTIVE (505897210),"10.695,06 €",21-06-2014,16-04-2014,5 dias,"Portugal, Lisboa, Lisboa","Artigo 20.º, n.º 1, alínea a) do Código dos Contratos Públicos",,,,,,Não aplicável.,Não aplicável.,FALSE
REPARAÇÃO DE VIATURA 44-FA-78,Ajuste Direto Regime Geral,Aquisição de serviços,"50100000-6, Serviços de reparação e manutenção de veículos e equipamento afim, e serviços conexos","Instituto Nacional de Emergência Médica, I. P. (501356126)","CAETANO AUTO, SA (505955342)","5.485,40 €",21-06-2014,27-03-2014,5 dias,"Portugal, Lisboa, Lisboa","Artigo 20.º, n.º 1, alínea a) do Código dos Contratos Públicos",,,,,,Não aplicável.,Não aplicável.,FALSE
REPARAÇÃO DE VIATURA 55-GR-94 (MOTOR),Ajuste Direto Regime Geral,Aquisição de bens móveis,"34300000-0, Peças e acessórios para veículos e seus motores","Instituto Nacional de Emergência Médica, I. P. (501356126)","TECAUTO, SA (500279861)","9.139,56 €",21-06-2014,05-05-2014,5 dias,"Portugal, Lisboa, Lisboa","Artigo 20.º, n.º 1, alínea a) do Código dos Contratos Públicos",,,,,,Não aplicável.,Não aplicável.,FALSE
REPARAÇÃO DE VIATURA 14-GZ-90 (MOTOR),Ajuste Direto Regime Geral,Aquisição de bens móveis,"34300000-0, Peças e acessórios para veículos e seus motores","Instituto Nacional de Emergência Médica, I. P. (501356126)","GAVIS, SA (500125996)","7.522,78 €",21-06-2014,21-05-2014,5 dias,"Portugal, Lisboa, Lisboa","Artigo 20.º, n.º 1, alínea a) do Código dos Contratos Públicos",,,,,,Não aplicável.,Não aplicável.,FALSE
REPARAÇÃO DE VIATURA 33-74-XR (CAIXA DE VELOCIDADES),Ajuste Direto Regime Geral,Aquisição de bens móveis,"34300000-0, Peças e acessórios para veículos e seus motores","Instituto Nacional de Emergência Médica, I. P. (501356126)","MELVAR, SA (500189862)","5.170,86 €",21-06-2014,21-03-2014,5 dias,"Portugal, Lisboa, Lisboa","Artigo 20.º, n.º 1, alínea a) do Código dos Contratos Públicos",,,,,,Não aplicável.,Não aplicável.,FALSE
REPARAÇÃO DE VIATURA 34-63-XO,Ajuste Direto Regime Geral,Aquisição de serviços,"50100000-6, Serviços de reparação e manutenção de veículos e equipamento afim, e serviços conexos","Instituto Nacional de Emergência Médica, I. P. (501356126)",JAPAUTOMOTIVE (505897210),"6.109,34 €",21-06-2014,27-03-2014,5 dias,"Portugal, Lisboa, Lisboa","Artigo 20.º, n.º 1, alínea a) do Código dos Contratos Públicos",,,,,,Não aplicável.,Não aplicável.,FALSE
REPARAÇÃO DE VIATURA 40-GZ-79,Ajuste Direto Regime Geral,Aquisição de serviços,"50100000-6, Serviços de reparação e manutenção de veículos e equipamento afim, e serviços conexos","Instituto Nacional de Emergência Médica, I. P. (501356126)","G.C.P. AUTO, LDA. (503252743)","5.344,53 €",21-06-2014,27-03-2014,5 dias,"Portugal, Lisboa, Lisboa","Artigo 20.º, n.º 1, alínea a) do Código dos Contratos Públicos",,,,,,Não aplicável.,Não aplicável.,FALSE
"Fornecimento de 1000 conector p/controlo digital de aspiração, 1000 máscara de inalação de o2 alta concentração – adulto, 240 máscara de bolso com estojo, 100 swivel c/traqueia p/doente ventilado e 3900 eléctrodo ecg aderente adulto.  ",Ajuste Direto Regime Geral,Aquisição de bens móveis,"33000000-0, Equipamento médico, medicamentos e produtos para cuidados pessoais","Instituto Nacional de Emergência Médica, I. P. (501356126)",H.R. LDA. (501895558),"2.008,10 €",21-06-2014,21-06-2014,1 dias,"Portugal, Lisboa, Lisboa","Artigo 20.º, n.º 1, alínea a) do Código dos Contratos Públicos",,,,,,Não aplicável.,Não aplicável.,FALSE
Fornecimento de 30 Kits de alteração para aspiradores de mucosidades Laerdal LSU.,Ajuste Direto Regime Geral,Aquisição de bens móveis,"33000000-0, Equipamento médico, medicamentos e produtos para cuidados pessoais","Instituto Nacional de Emergência Médica, I. P. (501356126)","MEDICINÁLIA CORMÉDICA, LDA. (500684324)","2.460,00 €",21-06-2014,18-06-2014,15 dias,"Portugal, Lisboa, Lisboa","Artigo 24.º, n.º 1, alínea e) do Código dos Contratos Públicos",,,,,,Não aplicável.,Não aplicável.,FALSE
"Fornecimento de 500 cateter endovenoso periférico c/ proteção - 14g, 500 cateter endovenoso periférico c/ proteção - 16g, 600 cateter endovenoso periférico c/ proteção - 18g, 1000 cateter endovenoso periférico c/ proteção - 20g, 1000 cateter endovenoso periférico 22g, 1000 cateter endovenoso periférico 24g, 1000 seringa irrecup. 2ml, 2000 seringa irrecup. 5ml, 4000 seringa irrecup. 10ml e 800 seringa irrecup. 20ml.  ",Ajuste Direto Regime Geral,Aquisição de bens móveis,"33000000-0, Equipamento médico, medicamentos e produtos para cuidados pessoais","Instituto Nacional de Emergência Médica, I. P. (501356126)","B. BRAUN MEDICAL, LDA. (501506543)","0,00 €",21-06-2014,20-06-2014,1 dias,"Portugal, Lisboa, Lisboa","Artigo 26.º, n.º 1, alínea e) do Código dos Contratos Públicos",,,,,,1237846,AQUISIÇÃO DE CATETERES E SERINGA IRRECUPERÁVEL,FALSE
"Fornecimento de 3000 sist. administ.soro c/arejador c/ ligação Luer Lock, 50 tubo endotraqueal s/cuff 3, 50 tubo endotraqueal s/cuff 4, 50 tubo endotraqueal s/cuff 4,5, 50 tubo endotraqueal c/cuff 5, 100 tubo endotraqueal c/cuff 7,5, 800 sonda aspiração tipo Yankauer.  ",Ajuste Direto Regime Geral,Aquisição de bens móveis,"33000000-0, Equipamento médico, medicamentos e produtos para cuidados pessoais","Instituto Nacional de Emergência Médica, I. P. (501356126)","ROCHA NEVES, LDA. (500233691)","1.382,00 €",21-06-2014,20-06-2014,10 dias,"Portugal, Lisboa, Lisboa","Artigo 20.º, n.º 1, alínea a) do Código dos Contratos Públicos",,,,,,Não aplicável.,Não aplicável.,FALSE
"Fornecimento de 40 noradrenalina, sol.inj. 10mg/10ml, amp.10ml.",Ajuste Direto Regime Geral,Aquisição de bens móveis,"33000000-0, Equipamento médico, medicamentos e produtos para cuidados pessoais","Instituto Nacional de Emergência Médica, I. P. (501356126)","LABESFAL, S.A. (501169580)","0,00 €",21-06-2014,20-06-2014,1 dias,"Portugal, Lisboa, Lisboa","Artigo 26.º, n.º 1, alínea e) do Código dos Contratos Públicos",,,,,,1237842,AQUISIÇÃO DE NORADRENALINA,FALSE
Fornecimento de 50 mantas isotérmicas não descartáveis e 20 estetoscópios adulto.,Ajuste Direto Regime Geral,Aquisição de bens móveis,"33000000-0, Equipamento médico, medicamentos e produtos para cuidados pessoais","Instituto Nacional de Emergência Médica, I. P. (501356126)","AMBEX, LDA. (507593111)","1.327,50 €",21-06-2014,20-06-2014,30 dias,"Portugal, Lisboa, Lisboa","Artigo 20.º, n.º 1, alínea a) do Código dos Contratos Públicos",,,,,,Não aplicável.,Não aplicável.,FALSE
Fornecimento de 420 rolos de adesivo comum 5cm x 5m.,Ajuste Direto Regime Geral,Aquisição de bens móveis,"33000000-0, Equipamento médico, medicamentos e produtos para cuidados pessoais","Instituto Nacional de Emergência Médica, I. P. (501356126)","BSN MEDICAL, S.A. (505385058)","504,00 €",21-06-2014,20-06-2014,2 dias,"Portugal, Lisboa, Lisboa","Artigo 20.º, n.º 1, alínea a) do Código dos Contratos Públicos",,,,,,Não aplicável.,Não aplicável.,FALSE
Fornecimento de 10 macas estabilizadoras de vácuo adulto.,Ajuste Direto Regime Geral,Aquisição de bens móveis,"33000000-0, Equipamento médico, medicamentos e produtos para cuidados pessoais","Instituto Nacional de Emergência Médica, I. P. (501356126)","SILVERSTAR, LDA. (510771904)","1.250,00 €",21-06-2014,20-06-2014,30 dias,"Portugal, Lisboa, Lisboa","Artigo 20.º, n.º 1, alínea a) do Código dos Contratos Públicos",,,,,,Não aplicável.,Não aplicável.,FALSE
Fornecimento de 1200 mantas isotérmicas dupla face descartável.,Ajuste Direto Regime Geral,Aquisição de bens móveis,"33000000-0, Equipamento médico, medicamentos e produtos para cuidados pessoais","Instituto Nacional de Emergência Médica, I. P. (501356126)","SANO-TÉCNICA, LDA (500239819)","2.388,00 €",21-06-2014,20-06-2014,1 dias,"Portugal, Lisboa, Lisboa","Artigo 20.º, n.º 1, alínea a) do Código dos Contratos Públicos",,,,,,Não aplicável.,Não aplicável.,FALSE
