Objeto do Contrato,Tipo de Procedimento,Tipo(s) de Contrato,CPVs,Entidade(s) Adjudicante(s),Entidade(s) Adjudicatária(s),Preço Contratual,Data de Publicação,Data de Celebração do Contrato,Prazo de Execução,Local de Execução,Fundamentação,Data de Fecho do Contrato,Preço Total Efetivo,Causas das Alterações ao Prazo,Causas das Alterações ao Preço,Estado,N.º registo do Acordo Quadro,Descrição do Acordo Quadro,Procedimento Centralizado
CHKS participação na certificação de 01-04-2018 a 31-03-2019,Ajuste Direto Regime Geral,Aquisição de serviços,"79000000-4, Serviços a empresas: direito, comercialização, consultoria, recrutamento, impressão e segurança","Hospital de Magalhães Lemos, E. P. E. (502828790)",CHKS (834852705),"22.973,09 €",21-11-2018,05-04-2018,365 dias,"Portugal, Porto, Porto","Artigo 21.º, n.º 1, alínea c) do Código dos Contratos Públicos",,,,,,Não aplicável.,Não aplicável.,FALSE
Prestação de Consultadoria no Âmbito do Regulamento de Protecção de Dados (RGPD),Ajuste Direto Regime Geral,Aquisição de serviços,"72000000-5, Serviços de TI: consultoria, desenvolvimento de software, Internet e apoio","Hospital de Magalhães Lemos, E. P. E. (502828790)",Claranet (503412031),"33.500,00 €",20-11-2018,14-05-2018,210 dias,"Portugal, Porto, Porto","Artigo 21.º, n.º 1, alínea c) do Código dos Contratos Públicos",,,,,,Não aplicável.,Não aplicável.,FALSE
Serviços de manutenção do software PREL ambulatório para o ano de 2018,Ajuste Direto Regime Geral,Aquisição de serviços,"50000000-5, Serviços de reparação e manutenção","Hospital de Magalhães Lemos, E. P. E. (502828790)",Serviços Técnicos de Informática (502246995),"14.000,00 €",20-11-2018,28-02-2018,365 dias,"Portugal, Porto, Porto","Artigo 21.º, n.º 1, alínea c) do Código dos Contratos Públicos",,,,,,Não aplicável.,Não aplicável.,FALSE
Análise às refeições confecionadas no SAD durante o ano de 2018,Ajuste Direto Regime Geral,Aquisição de serviços,"65000000-3, Serviços públicos","Hospital de Magalhães Lemos, E. P. E. (502828790)","INSTITUTO NACIONAL DE SAÚDE DR.RICARDO JORGE,IP (501427511)","5.300,00 €",19-11-2018,20-07-2018,365 dias,"Portugal, Porto, Porto","Artigo 21.º, n.º 1, alínea c) do Código dos Contratos Públicos",,,,,,Não aplicável.,Não aplicável.,FALSE
Obras de conservação e beneficiação no bar da Afua do HML,Consulta Prévia,Empreitadas de obras públicas,"50000000-5, Serviços de reparação e manutenção","Hospital de Magalhães Lemos, E. P. E. (502828790)","Consjardim Unipessoal, Lda. (509456111)","5.248,00 €",19-11-2018,17-05-2018,15 dias,"Portugal, Porto, Porto","Artigo 20.º, n.º 1, alínea c) do Código dos Contratos Públicos",,,,,,Não aplicável.,Não aplicável.,FALSE
Aquisição de Aripiprazol Ampolas,Ajuste Direto Regime Geral,Aquisição de bens móveis,"33660000-4, Medicamentos para o sistema nervoso e para os órgãos sensoriais","Hospital de Magalhães Lemos, E. P. E. (502828790)","Lundbeck Portugal - Produtos Farmacêuticos, Lda. (503573922)","9.242,23 €",19-11-2018,19-06-2018,90 dias,"Portugal, Porto, Porto","Artigo 20.º, n.º 1, alínea d) do Código dos Contratos Públicos",,,,,,Não aplicável.,Não aplicável.,FALSE
Aquisição de medicamentos urgentes a distribuidores grossistas até Dezembro de 2018,Consulta Prévia,Aquisição de bens móveis,"33600000-6, Produtos farmacêuticos","Hospital de Magalhães Lemos, E. P. E. (502828790)","Alliance Healthcare, S.A. (502693150)","20.000,00 €",19-11-2018,15-05-2018,180 dias,"Portugal, Porto, Porto","Artigo 20.º, n.º 1, alínea c) do Código dos Contratos Públicos",,,,,,Não aplicável.,Não aplicável.,FALSE
Aripiprazol 400mg/ml injetável até Dezembro de 2018,Ajuste Direto Regime Geral,Aquisição de bens móveis,"33662000-8, Medicamentos para os órgãos sensoriais","Hospital de Magalhães Lemos, E. P. E. (502828790)",Lundbeck Portugal (503573922),"7.993,28 €",19-11-2018,16-11-2018,30 dias,"Portugal, Porto, Porto","Artigo 20.º, n.º 1, alínea d) do Código dos Contratos Públicos",,,,,,Não aplicável.,Não aplicável.,FALSE
