Objeto do Contrato,Tipo de Procedimento,Tipo(s) de Contrato,CPVs,Entidade(s) Adjudicante(s),Entidade(s) Adjudicatária(s),Preço Contratual,Data de Publicação,Data de Celebração do Contrato,Prazo de Execução,Local de Execução,Fundamentação,Data de Fecho do Contrato,Preço Total Efetivo,Causas das Alterações ao Prazo,Causas das Alterações ao Preço,Estado,N.º registo do Acordo Quadro,Descrição do Acordo Quadro,Procedimento Centralizado
Fornecimento de Trouxas de Cesariana Descartáveis,Ajuste Direto Regime Geral,Aquisição de bens móveis,"33140000-3, Material médico de consumo","Centro Hospitalar do Tâmega e Sousa, EPE (508318262)","LineaMédica - Dispositivos Médico-Cirurgicos, S.A. (505148676)","11.394,00 €",26-07-2013,14-06-2013,365 dias,"Portugal, Porto, Penafiel","Artigo 20.º, n.º 1, alínea a) do Código dos Contratos Públicos","","",,"",,Não aplicável.,Não aplicável.,
Aquisição de Desfibrilhadores para o Novo Hospital de Amarante,Ajuste Direto Regime Geral,Aquisição de bens móveis,"33182100-0, Desfibrilhador","Centro Hospitalar do Tâmega e Sousa, E.P.E. (508318262)","CLINIFAR - PRODUTOS CLÍNICOS E FARMACÊUTICOS, S.A. (503281115)","31.740,00 €",24-07-2013,19-07-2013,15 dias,"Portugal, Porto, Amarante","Artigo 20.º, n.º 1, alínea a) do Código dos Contratos Públicos",14-10-2013,"31.740,00 €",,"",,Não aplicável.,Não aplicável.,
Unidade de consulta e tratamento para ORL para o NHA,Ajuste Direto Regime Geral,Aquisição de bens móveis,"33100000-1, Equipamento médico","Centro Hospitalar do Tâmega e Sousa, E.P.E. (508318262)","Manuel Nunes Antão, Lda (500179905)","73.217,90 €",24-07-2013,21-05-2013,45 dias,"Portugal, Porto, Amarante","Artigo 20.º, n.º 1, alínea a) do Código dos Contratos Públicos",01-07-2013,"73.217,90 €",,"",,Não aplicável.,Não aplicável.,
Caixas de Instrumental para Otorrinolaringologia para o Novo Hospital de Amarante,Ajuste Direto Regime Geral,Aquisição de bens móveis,"33160000-9, Técnicas cirúrgicas","Centro Hospitalar do Tâmega e Sousa, EPE (508318262)","TEPREL – Equipamentos Médicos, SA (502262184)","26.200,00 €",24-07-2013,11-07-2013,30 dias,"Portugal, Porto, Amarante","Artigo 20.º, n.º 1, alínea a) do Código dos Contratos Públicos","","",,"",,Não aplicável.,Não aplicável.,
Caixas de Instrumental para Otorrinolaringologia para o Novo Hospital de Amarante,Ajuste Direto Regime Geral,Aquisição de bens móveis,"33160000-9, Técnicas cirúrgicas","Centro Hospitalar do Tâmega e Sousa, EPE (508318262)","RMV – PRODUTOS HOSPITALARES UNIPESSOAL, LDA (507866347)","8.183,40 €",24-07-2013,11-07-2013,20 dias,"Portugal, Porto, Amarante","Artigo 20.º, n.º 1, alínea a) do Código dos Contratos Públicos",31-03-2014,"8.183,40 €",,"",,Não aplicável.,Não aplicável.,
Caixas de Instrumental para Otorrinolaringologia para o Novo Hospital de Amarante,Ajuste Direto Regime Geral,Aquisição de bens móveis,"33160000-9, Técnicas cirúrgicas","Centro Hospitalar do Tâmega e Sousa, EPE (508318262)",Manuel Nunes Antão Lda (500179905),"11.902,64 €",24-07-2013,12-07-2013,15 dias,"Portugal, Porto, Amarante","Artigo 20.º, n.º 1, alínea a) do Código dos Contratos Públicos",09-08-2013,"11.902,64 €",,"",,Não aplicável.,Não aplicável.,
Equipamento de Bloco Operatório para Otorrinolaringologia para o Novo Hospital de Amarante,Ajuste Direto Regime Geral,Aquisição de bens móveis,"33100000-1, Equipamento médico","Centro Hospitalar do Tâmega e Sousa, E.P.E. (508318262)","GRUPO TAPER - EQUIPAMENTOS DE PRECISÃO CIENTÍFICA, LDA (506886336)","70.700,00 €",24-07-2013,24-06-2013,20 dias,"Portugal, Porto, Amarante","Artigo 20.º, n.º 1, alínea a) do Código dos Contratos Públicos",23-08-2013,"70.700,00 €",,"",,Não aplicável.,Não aplicável.,
Ferros de Consulta para Otorrinolaringologia para o Novo Hospital de Amarante,Ajuste Direto Regime Geral,Aquisição de bens móveis,"33100000-1, Equipamento médico","Centro Hospitalar do Tâmega e Sousa, E.P.E. (508318262)","Manuel Nunes Antão, Lda (500179905)","5.055,95 €",24-07-2013,21-05-2013,20 dias,"Portugal, Porto, Amarante","Artigo 20.º, n.º 1, alínea a) do Código dos Contratos Públicos",01-07-2013,"5.055,95 €",,"",,Não aplicável.,Não aplicável.,
Material de Ostomia de Eliminação,Ao abrigo de acordo-quadro (art.º 259.º),Aquisição de bens móveis,"33100000-1, Equipamento médico","Centro Hospitalar do Tâmega e Sousa, EPE (508318262)","KVTECH Portugal - Produtos Médicos Unipessoal, Lda (508671531)","453,33 €",24-07-2013,12-03-2013,365 dias,"Portugal, Porto, Penafiel",Artigo 259.º do Código dos Contratos Públicos,"","",,"",,419168,CONCURSO PÚBLICO PARA A CELEBRAÇÃO DE CONTRATOS PÚBLICOS DE APROVISIONAMENTO PARA AQUISIÇÃO DE MATERIAL OSTOMIA DE ELIMINAÇÃO,
Material de Ostomia de Eliminação,Ao abrigo de acordo-quadro (art.º 259.º),Aquisição de bens móveis,"33100000-1, Equipamento médico","Centro Hospitalar do Tâmega e Sousa, EPE (508318262)","B. Braun Medical, Lda (501506543)","3.008,10 €",24-07-2013,12-03-2013,365 dias,"Portugal, Porto, Penafiel",Artigo 259.º do Código dos Contratos Públicos,"","",,"",,419168,CONCURSO PÚBLICO PARA A CELEBRAÇÃO DE CONTRATOS PÚBLICOS DE APROVISIONAMENTO PARA AQUISIÇÃO DE MATERIAL OSTOMIA DE ELIMINAÇÃO,
Caixas de Instrumental para Laparoscopia para o Novo Hospital de Amarante,Ajuste Direto Regime Geral,Aquisição de bens móveis,"33100000-1, Equipamento médico","Centro Hospitalar do Tâmega e Sousa, E.P.E. (508318262)","Teprel Equipamentos Médicos, S.A. (502262184)","25.068,80 €",24-07-2013,17-06-2013,30 dias,"Portugal, Porto, Amarante","Artigo 20.º, n.º 1, alínea a) do Código dos Contratos Públicos",19-03-2014,"25.068,80 €",,"",,Não aplicável.,Não aplicável.,
Aquisição de monitores de sinais vitais para o recobro do Bloco Operatório do Novo Hospital de Amarante,Ajuste Direto Regime Geral,Aquisição de bens móveis,"33195000-3, Sistema de monitorização dos doentes","Centro Hospitalar do Tâmega e Sousa, EPE (508318262)","Dimorasept - Higiene Médica-Hospitalar, Lda (510258786)","65.105,15 €",23-07-2013,21-05-2013,28 dias,"Portugal, Porto, Amarante","Artigo 20.º, n.º 1, alínea a) do Código dos Contratos Públicos",14-08-2013,"65.105,35 €",,Diferenças de arredondamentos nas faturas,,Não aplicável.,Não aplicável.,
"Serviços de Transferência (desmontagem e remontagem), da Unidade de São Gonçalo para o Novo Hospital de Amarante, de Sistema de Radiologia com upgradede estrutura torácica",Ajuste Direto Regime Geral,Aquisição de serviços,"51411000-6, Serviços de instalação de equipamento de formação de imagens","Centro Hospitalar do Tâmega e Sousa, EPE (508318262)","Philips Portuguesa, S.A. (500216843)","18.500,00 €",23-07-2013,26-04-2013,5 dias,"Portugal, Porto, Amarante","Artigo 24.º, n.º 1, alínea e) do Código dos Contratos Públicos",29-11-2013,"18.500,00 €",,"",,Não aplicável.,Não aplicável.,
Aquisição de diversos material para Gases Medicinais para o Novo Hospital de Amarante,Ajuste Direto Regime Geral,Aquisição de bens móveis,"38420000-5, Instrumentos para medição do caudal, do nível e da pressão de líquidos e gases","Centro Hospitalar do Tâmega e Sousa, EPE (508318262)","Air Liquide Medicinal, S.A. (501576436)","28.978,70 €",23-07-2013,07-06-2013,15 dias,"Portugal, Porto, Penafiel","Artigo 20.º, n.º 1, alínea a) do Código dos Contratos Públicos","","",,"",,Não aplicável.,Não aplicável.,
"Serviços de Transferência (desmontagem e remontagem), da Unidade Hospitalar São Gonçalo para o Novo Hospital de Amarante, de equipamento de TAC",Ajuste Direto Regime Geral,Aquisição de serviços,"51411000-6, Serviços de instalação de equipamento de formação de imagens","Centro Hospitalar do Tâmega e Sousa, EPE (508318262)","Philps Portuguesa, S.A. (500216843)","19.000,00 €",23-07-2013,07-06-2013,25 dias,"Portugal, Porto, Amarante","Artigo 24.º, n.º 1, alínea e) do Código dos Contratos Públicos",29-11-2013,"19.000,00 €",,"",,Não aplicável.,Não aplicável.,
Aquisição de Equipamento raio-X com imagem fluroscópica,Ajuste Direto Regime Geral,Aquisição de bens móveis,"33111400-5, Aparelhos de fluoroscopia","Centro Hospitalar do Tâmega e Sousa, E.P.E. (508318262)","Philips Portuguesa, S.A. (500216843)","69.300,00 €",23-07-2013,19-07-2013,29 dias,"Portugal, Porto, Amarante","Artigo 20.º, n.º 1, alínea a) do Código dos Contratos Públicos",23-08-2013,"69.300,00 €",,"",,Não aplicável.,Não aplicável.,
Fornecimento de Trouxas de Anestesia Loco-regional,Ajuste Direto Regime Geral,Aquisição de bens móveis,"33140000-3, Material médico de consumo","Centro Hospitalar do Tâmega e Sousa, E.P.E. (508318262)","LineaMédica, S.A. (505148676)","9.448,32 €",23-07-2013,14-06-2013,365 dias,"Portugal, Porto, Penafiel","Artigo 20.º, n.º 1, alínea a) do Código dos Contratos Públicos","","",,"",,Não aplicável.,Não aplicável.,
Contrato de aquisição de Punhos de Serra Oscilatória Pneumáticos e Mangueiras de Motores de Ortopedia,Ajuste Direto Regime Geral,Aquisição de bens móveis,"33162000-3, Aparelhos e instrumentos para blocos operatórios","Centro Hospitalar do Tâmega e Sousa, EPE (508318262)","MCTPOR, Unipessoal, Lda (510020569)","12.325,00 €",22-07-2013,11-07-2013,15 dias,"Portugal, Porto, Penafiel","Artigo 24.º, n.º 1, alínea e) do Código dos Contratos Públicos",29-07-2013,"12.325,00 €",,"",,Não aplicável.,Não aplicável.,
