Objeto do Contrato,Tipo de Procedimento,Tipo(s) de Contrato,CPVs,Entidade(s) Adjudicante(s),Entidade(s) Adjudicatária(s),Preço Contratual,Data de Publicação,Data de Celebração do Contrato,Prazo de Execução,Local de Execução,Fundamentação,Data de Fecho do Contrato,Preço Total Efetivo,Causas das Alterações ao Prazo,Causas das Alterações ao Preço,Estado,N.º registo do Acordo Quadro,Descrição do Acordo Quadro,Procedimento Centralizado
"Aquisição de Equipamentos Administrativos para o Serviço de Cirurgia do HDJMG - ULSNA, EPE",Ajuste Direto Regime Geral,Aquisição de bens móveis,"39000000-2, Mobiliário (incl. de escritório), acessórios, aparelhos domésticos (excl. iluminação) e produtos de limpeza","Unidade Local de Saúde do Norte Alentejano, E. P. E. (508094461)",Joaquim Espanhol (195969391),"4.142,00 €",13-03-2015,07-01-2015,5 dias,"Portugal, Portalegre, Portalegre","Artigo 20.º, n.º 1, alínea a) do Código dos Contratos Públicos","","",,"",,Não aplicável.,Não aplicável.,FALSE
"Aquisição de Equipamentos Administrativos para o Serviço de Cirurgia do HDJMG - ULSNA, EPE",Ajuste Direto Regime Geral,Aquisição de bens móveis,"39000000-2, Mobiliário (incl. de escritório), acessórios, aparelhos domésticos (excl. iluminação) e produtos de limpeza","Unidade Local de Saúde do Norte Alentejano, E. P. E. (508094461)",Decorpar (501517049),"8.217,00 €",13-03-2015,07-01-2015,15 dias,"Portugal, Portalegre, Portalegre","Artigo 20.º, n.º 1, alínea a) do Código dos Contratos Públicos","","",,"",,Não aplicável.,Não aplicável.,FALSE
Aquisição de Medicamentos Exclusivos,Ajuste Direto Regime Geral,Aquisição de bens móveis,"33000000-0, Equipamento médico, medicamentos e produtos para cuidados pessoais","Unidade Local de Saúde do Norte Alentejano, E. P. E. (508094461)","Amgen  Biofarmacêutica, Lda (502942959)","122.889,58 €",13-03-2015,05-03-2015,365 dias,"Portugal, Portalegre, Elvas<BR/>Portugal, Portalegre, Portalegre","Artigo 24.º, n.º 1, alínea e) do Código dos Contratos Públicos",31-12-2015,"60.240,41 €",,Não foram adquiridas as quantidades totais estimadas,,Não aplicável.,Não aplicável.,FALSE
"Aquisição de Equipamentos Médicos para o Serviço de Cirurgia do HDJMG - ULSNA, EPE",Ajuste Direto Regime Geral,Aquisição de bens móveis,"33000000-0, Equipamento médico, medicamentos e produtos para cuidados pessoais","Unidade Local de Saúde do Norte Alentejano, E. P. E. (508094461)",Clinifar (503281115),"60.000,00 €",13-03-2015,23-12-2014,30 dias,"Portugal, Portalegre, Portalegre","Artigo 20.º, n.º 1, alínea a) do Código dos Contratos Públicos","","",,"",,Não aplicável.,Não aplicável.,FALSE
"Aquisição deEquipamento Informático para o Serviço de Cirurgia do HDJMG - ULSNA, EPE",Ajuste Direto Regime Geral,Aquisição de bens móveis,"30000000-9, Máquinas, equipamento e material de escritório e de informática, excepto mobiliário e pacotes de programas (software)","Unidade Local de Saúde do Norte Alentejano, E. P. E. (508094461)",Informantem (503670693),"9.949,17 €",12-03-2015,27-11-2014,30 dias,"Portugal, Portalegre, Portalegre","Artigo 20.º, n.º 1, alínea a) do Código dos Contratos Públicos","","",,"",,Não aplicável.,Não aplicável.,FALSE
"Aquisição de Bombas e Seringas Infusoras para o Serviço de Cirurgia do HDJMG - ULSNA, EPE",Ajuste Direto Regime Geral,Aquisição de bens móveis,"33000000-0, Equipamento médico, medicamentos e produtos para cuidados pessoais","Unidade Local de Saúde do Norte Alentejano, E. P. E. (508094461)","B. Braun Medical, Lda (501506543)","20.000,00 €",12-03-2015,29-12-2014,15 dias,"Portugal, Portalegre, Portalegre","Artigo 20.º, n.º 1, alínea a) do Código dos Contratos Públicos",20-01-2015,"20.000,00 €",,"",,Não aplicável.,Não aplicável.,FALSE
Aquisição de Medicamentos Exclusivos,Ajuste Direto Regime Geral,Aquisição de bens móveis,"33000000-0, Equipamento médico, medicamentos e produtos para cuidados pessoais","Unidade Local de Saúde do Norte Alentejano, E. P. E. (508094461)","Celgene sociedade Unipessoal, Lda (507791690)","27.200,00 €",12-03-2015,04-03-2015,365 dias,"Portugal, Portalegre, Elvas<BR/>Portugal, Portalegre, Portalegre","Artigo 24.º, n.º 1, alínea e) do Código dos Contratos Públicos",31-12-2015,"3.200,00 €",,Não foram adquiridas as quantidades totais estimadas.,,Não aplicável.,Não aplicável.,FALSE
"Aquisição de Equipamentos para o Serviço de Cirurgia do HDJMG - ULSNA, EPE",Ajuste Direto Regime Geral,Aquisição de bens móveis,"39000000-2, Mobiliário (incl. de escritório), acessórios, aparelhos domésticos (excl. iluminação) e produtos de limpeza","Unidade Local de Saúde do Norte Alentejano, E. P. E. (508094461)",QUIMOVEIS DE JOAQUIM FERNANDO BAGINA ESPANHOL (195969391),"490,00 €",12-03-2015,11-02-2015,1 dias,"Portugal, Portalegre, Portalegre","Artigo 20.º, n.º 1, alínea a) do Código dos Contratos Públicos",11-02-2015,"490,00 €",,"",,Não aplicável.,Não aplicável.,FALSE
"Aquisição de Equipamentos para o Serviço de Cirurgia do HDJMG - ULSNA, EPE",Ajuste Direto Regime Geral,Aquisição de bens móveis,"39000000-2, Mobiliário (incl. de escritório), acessórios, aparelhos domésticos (excl. iluminação) e produtos de limpeza","Unidade Local de Saúde do Norte Alentejano, E. P. E. (508094461)",Bacelar (500532818),"2.132,12 €",12-03-2015,11-02-2015,1 dias,"Portugal, Portalegre, Portalegre","Artigo 20.º, n.º 1, alínea a) do Código dos Contratos Públicos",11-02-2015,"2.132,12 €",,"",,Não aplicável.,Não aplicável.,FALSE
"Aquisição de Equipamentos para o Serviço de Cirurgia do HDJMG - ULSNA, EPE",Ajuste Direto Regime Geral,Aquisição de bens móveis,"39000000-2, Mobiliário (incl. de escritório), acessórios, aparelhos domésticos (excl. iluminação) e produtos de limpeza","Unidade Local de Saúde do Norte Alentejano, E. P. E. (508094461)",Bacelar (500532818),"1.950,00 €",12-03-2015,11-02-2015,1 dias,"Portugal, Portalegre, Portalegre","Artigo 20.º, n.º 1, alínea a) do Código dos Contratos Públicos",11-02-2015,"1.950,00 €",,"",,Não aplicável.,Não aplicável.,FALSE
"Aquisição de Equipamentos para o Serviço de Cirurgia do HDJMG - ULSNA, EPE.",Ajuste Direto Regime Geral,Aquisição de bens móveis,"39100000-3, Mobiliário","Unidade Local de Saúde do Norte Alentejano, E. P. E. (508094461)",Bacelar (500532818),"5.738,00 €",12-03-2015,11-02-2015,1 dias,"Portugal, Portalegre, Portalegre","Artigo 20.º, n.º 1, alínea a) do Código dos Contratos Públicos",11-02-2015,"5.738,00 €",,"",,Não aplicável.,Não aplicável.,FALSE
"PRESTAÇÃO DE SERVIÇOS DE INSPEÇÃO SANITÁRIA DE GENEROS ALIMENTICIOS PARA A ULSNA, EPE",Ajuste Direto Regime Geral,Aquisição de serviços,"85200000-1, Serviços de veterinária","Unidade Local de Saúde do Norte Alentejano, E. P. E. (508094461)",VETAL- CLINICA VETERINARIA DO ALTO ALENTEJO LDA (506789357),"6.600,00 €",12-03-2015,21-01-2015,365 dias,"Portugal, Portalegre, Portalegre","Artigo 20.º, n.º 1, alínea a) do Código dos Contratos Públicos","","",,"",,Não aplicável.,Não aplicável.,FALSE
"Fornecimento de Luvas de Uso Médico, para a ULSNA, EPE, para 2015, no âmbito do AQ - CP 23/2012, da SPMS",Ao abrigo de acordo-quadro (art.º 259.º),Aquisição de bens móveis,"33140000-3, Material médico de consumo","Unidade Local de Saúde do Norte Alentejano, E. P. E. (508094461)",EME ELECTROMEDICA - EZEQUIEL PANAO JORGE (501412727),"225,00 €",11-03-2015,10-12-2014,365 dias,"Portugal, Portalegre",Artigo 259.º do Código dos Contratos Públicos,11-03-2015,"225,00 €",,"",,544071,"CONCURSO PÚBLICO PARA A CELEBRAÇÃO DE CONTRATOS PÚBLICOS DE APROVISIONAMENTO PARA A ÁREA DA SAÚDE, COM VISTA AO FORNECIMENTO DE LUVAS PARA USO MÉDICO, ÀS INSTITUIÇÕES E SERVIÇOS DO SERVIÇO NACIONAL DE SAÚDE",FALSE
"Fornecimento de Luvas de Uso Médico, para a ULSNA, EPE, para 2015, no âmbito do AQ - CP 23/2012, da SPMS",Ao abrigo de acordo-quadro (art.º 259.º),Aquisição de bens móveis,"33140000-3, Material médico de consumo","Unidade Local de Saúde do Norte Alentejano, E. P. E. (508094461)","Docworld, Lda (508592909)","63.749,60 €",11-03-2015,10-12-2014,365 dias,"Portugal, Portalegre",Artigo 259.º do Código dos Contratos Públicos,11-03-2015,"63.749,60 €",,"",,544071,"CONCURSO PÚBLICO PARA A CELEBRAÇÃO DE CONTRATOS PÚBLICOS DE APROVISIONAMENTO PARA A ÁREA DA SAÚDE, COM VISTA AO FORNECIMENTO DE LUVAS PARA USO MÉDICO, ÀS INSTITUIÇÕES E SERVIÇOS DO SERVIÇO NACIONAL DE SAÚDE",FALSE
"Fornecimento de Luvas de Uso Médico, para a ULSNA, EPE, para 2015, no âmbito do AQ - CP 23/2012, da SPMS",Ao abrigo de acordo-quadro (art.º 259.º),Aquisição de bens móveis,"33140000-3, Material médico de consumo","Unidade Local de Saúde do Norte Alentejano, E. P. E. (508094461)",COVIDIEN PORTUGAL (503413410),"1.344,00 €",11-03-2015,10-12-2014,365 dias,"Portugal, Portalegre",Artigo 259.º do Código dos Contratos Públicos,11-03-2015,"1.344,00 €",,"",,544071,"CONCURSO PÚBLICO PARA A CELEBRAÇÃO DE CONTRATOS PÚBLICOS DE APROVISIONAMENTO PARA A ÁREA DA SAÚDE, COM VISTA AO FORNECIMENTO DE LUVAS PARA USO MÉDICO, ÀS INSTITUIÇÕES E SERVIÇOS DO SERVIÇO NACIONAL DE SAÚDE",FALSE
"Fornecimento de luvas de uso médico para a ULSNA, EPE, para 2015, no âmbito do AQ - CP 23/2012, da SPMS",Ao abrigo de acordo-quadro (art.º 259.º),Aquisição de bens móveis,"33140000-3, Material médico de consumo","Unidade Local de Saúde do Norte Alentejano, E. P. E. (508094461)","HR - Hospitalar, Lda. (501895558)","1.644,00 €",11-03-2015,10-12-2014,365 dias,"Portugal, Portalegre",Artigo 259.º do Código dos Contratos Públicos,11-03-2015,"1.644,00 €",,"",,544071,"CONCURSO PÚBLICO PARA A CELEBRAÇÃO DE CONTRATOS PÚBLICOS DE APROVISIONAMENTO PARA A ÁREA DA SAÚDE, COM VISTA AO FORNECIMENTO DE LUVAS PARA USO MÉDICO, ÀS INSTITUIÇÕES E SERVIÇOS DO SERVIÇO NACIONAL DE SAÚDE",FALSE
"Fornecimento de Luvas de Uso Médico para a ULSNA, EPE, para 2015, no âmbito do AQ - CP 23/2012, da SPMS",Ao abrigo de acordo-quadro (art.º 259.º),Aquisição de bens móveis,"33140000-3, Material médico de consumo","Unidade Local de Saúde do Norte Alentejano, E. P. E. (508094461)","Medicinália Cormédica, Lda. (500684324)","13.899,80 €",11-03-2015,10-12-2014,365 dias,"Portugal, Portalegre",Artigo 259.º do Código dos Contratos Públicos,11-03-2015,"13.899,80 €",,"",,544071,"CONCURSO PÚBLICO PARA A CELEBRAÇÃO DE CONTRATOS PÚBLICOS DE APROVISIONAMENTO PARA A ÁREA DA SAÚDE, COM VISTA AO FORNECIMENTO DE LUVAS PARA USO MÉDICO, ÀS INSTITUIÇÕES E SERVIÇOS DO SERVIÇO NACIONAL DE SAÚDE",FALSE
Ajuste direto nº. 41000115 Aquisição de reagentes de Microbiologia - meios de cultivo,Ajuste Direto Regime Geral,Aquisição de bens móveis,"33000000-0, Equipamento médico, medicamentos e produtos para cuidados pessoais","Unidade Local de Saúde do Norte Alentejano, E. P. E. (508094461)",Bio Rad (501301321),"13.685,35 €",10-03-2015,20-02-2015,300 dias,"Portugal, Portalegre, Portalegre<BR/>Portugal, Portalegre, Elvas","Artigo 20.º, n.º 1, alínea a) do Código dos Contratos Públicos","","",,"",,Não aplicável.,Não aplicável.,FALSE
"Prestação de Serviços Médicos,na Especialidade de Ortopedia, na ULSNA, EPE (Janeiro a Junho de 2015)",Ajuste Direto Regime Geral,Aquisição de serviços,"85100000-0, Serviços de saúde","Unidade Local de Saúde do Norte Alentejano, E. P. E. (508094461)","C.C.P.- Centro Clinico das Picoas, Lda (501666796)","23.760,00 €",06-03-2015,26-02-2015,181 dias,"Portugal, Portalegre, Portalegre","Artigo 24.º, n.º 1, alínea c) do Código dos Contratos Públicos",26-02-2015,"23.760,00 €",,"",,Não aplicável.,Não aplicável.,FALSE
"Prestação de Serviços Médicos, na Especialidade de Psiquiatria, na ULSNA, EPE (Março a Dezembro de 2015)",Ajuste Direto Regime Geral,Aquisição de serviços,"85100000-0, Serviços de saúde","Unidade Local de Saúde do Norte Alentejano, E. P. E. (508094461)","GS24 - Healthcare Solutions, S.A (507824652)","21.300,00 €",06-03-2015,25-02-2015,3066 dias,"Portugal, Portalegre, Portalegre","Artigo 20.º, n.º 1, alínea a) do Código dos Contratos Públicos",25-02-2015,"21.300,00 €",,"",,Não aplicável.,Não aplicável.,FALSE
Fornecimento de medicamentos factores recombinantes da coagulação,Ao abrigo de acordo-quadro (art.º 259.º),Aquisição de bens móveis,"33000000-0, Equipamento médico, medicamentos e produtos para cuidados pessoais","Unidade Local de Saúde do Norte Alentejano, E. P. E. (508094461)","Laboratórios Pfizer, Lda (500162166)","103.498,50 €",04-03-2015,11-02-2015,365 dias,"Portugal, Portalegre, Elvas<BR/>Portugal, Portalegre, Portalegre",Artigo 259.º do Código dos Contratos Públicos,31-12-2015,"26.330,02 €",,Não foram adquiridas  as quantidades estimadas.,,381903,FACTORES RECOMBINANTES DA COAGULAÇÃO,FALSE
"Prestação de Serviços Médicos, na Especialidade de Oftalmologia, na ULSNA, EPE (Janeiro a Junho de 2015)",Ajuste Direto Regime Geral,Aquisição de serviços,"85100000-0, Serviços de saúde","Unidade Local de Saúde do Norte Alentejano, E. P. E. (508094461)","Clínica Oftalmológica Dr. Juan Jose Santos Martinez, SL (450637707)","25.682,82 €",04-03-2015,23-01-2015,181 dias,"Portugal, Portalegre, Portalegre","Artigo 24.º, n.º 1, alínea c) do Código dos Contratos Públicos",23-01-2015,"25.682,82 €",,"",,Não aplicável.,Não aplicável.,FALSE
"Prestação de Serviços Médicos, na Especialidade de Oftalmologia, na ULSNA, EPE (Janeiro a Junho de 2015)",Ajuste Direto Regime Geral,Aquisição de serviços,"85100000-0, Serviços de saúde","Unidade Local de Saúde do Norte Alentejano, E. P. E. (508094461)","Clínica de Oftalmologia Médica e Cirúrgica Dr. Spencer Unipessoal, Lda (504073370)","128.262,13 €",04-03-2015,23-01-2015,181 dias,"Portugal, Portalegre, Portalegre","Artigo 24.º, n.º 1, alínea c) do Código dos Contratos Públicos",23-01-2015,"128.262,13 €",,"",,Não aplicável.,Não aplicável.,FALSE
"Prestação de Serviços Médicos, na Especialidade de Oftalmologia, na ULSNA, EPE (Janeiro a Junho de 2015)",Ajuste Direto Regime Geral,Aquisição de serviços,"85100000-0, Serviços de saúde","Unidade Local de Saúde do Norte Alentejano, E. P. E. (508094461)","Martin e Sabugal, Lda (507720547)","64.557,20 €",04-03-2015,23-01-2015,181 dias,"Portugal, Portalegre, Portalegre","Artigo 24.º, n.º 1, alínea c) do Código dos Contratos Públicos",23-01-2015,"64.557,20 €",,"",,Não aplicável.,Não aplicável.,FALSE
"Prestação de Serviços Médicos, na Especialidade de Anestesiologia, na ULSNA, EPE (Janeiro a Junho de 2015)	",Ajuste Direto Regime Geral,Aquisição de serviços,"85100000-0, Serviços de saúde","Unidade Local de Saúde do Norte Alentejano, E. P. E. (508094461)","Isabel Eusébio, Lda (508498520)","25.334,00 €",03-03-2015,14-01-2015,181 dias,"Portugal, Portalegre, Portalegre","Artigo 24.º, n.º 1, alínea c) do Código dos Contratos Públicos",14-01-2015,"25.334,00 €",,"",,Não aplicável.,Não aplicável.,FALSE
"Prestação de Serviços Médicos, na Especialidade de Anestesiologia, na ULSNA, EPE (Janeiro a Junho de 2015)",Ajuste Direto Regime Geral,Aquisição de serviços,"85100000-0, Serviços de saúde","Unidade Local de Saúde do Norte Alentejano, E. P. E. (508094461)","Marden Romero, Sociedade Unipessoal, Lda (510821049)","48.936,00 €",03-03-2015,14-01-2015,181 dias,"Portugal, Portalegre, Portalegre","Artigo 24.º, n.º 1, alínea c) do Código dos Contratos Públicos",14-01-2015,"48.936,00 €",,"",,Não aplicável.,Não aplicável.,FALSE
"Prestação de Serviços Médicos, na Especialidade de Anestesiologia, na ULSNA, EPE (Janeiro a Junho de 2015)",Ajuste Direto Regime Geral,Aquisição de serviços,"85100000-0, Serviços de saúde","Unidade Local de Saúde do Norte Alentejano, E. P. E. (508094461)","Ciclipolis Serviços Médicos, Lda (508320526)","133.056,00 €",03-03-2015,14-01-2015,181 dias,"Portugal, Portalegre, Portalegre","Artigo 24.º, n.º 1, alínea c) do Código dos Contratos Públicos",14-01-2015,"133.056,00 €",,"",,Não aplicável.,Não aplicável.,FALSE
"Fornecimento de Combustiveis Rodoviários para a ULSNA, EPE ",Ao abrigo de acordo-quadro (art.º 259.º),Aquisição de bens móveis,"09130000-9, Petróleo e destilados","Unidade Local de Saúde do Norte Alentejano, E. P. E. (508094461)","Petróleos de Portugal - Petrogal, SA (500697370)","51.050,32 €",03-03-2015,01-01-2015,365 dias,"Portugal, Portalegre, Portalegre",Artigo 259.º do Código dos Contratos Públicos,03-03-2015,"51.050,32 €",,"",,400324,Acordo quadro de fornecimento de combustíveis rodoviários,FALSE
Aquisição de Produtos Farmacêuticos Exclusivos,Ajuste Direto Regime Geral,Aquisição de bens móveis,"33000000-0, Equipamento médico, medicamentos e produtos para cuidados pessoais","Unidade Local de Saúde do Norte Alentejano, E. P. E. (508094461)",Covidien Portugal (503413410),"10.324,80 €",03-03-2015,10-02-2015,365 dias,"Portugal, Portalegre, Elvas<BR/>Portugal, Portalegre, Portalegre","Artigo 24.º, n.º 1, alínea e) do Código dos Contratos Públicos",31-12-2015,"7.236,00 €",,Não foram adquiridas as quantidades estimadas.,,Não aplicável.,Não aplicável.,FALSE
Aquisição de reagentes para a realização de testes de Gasimetria para 36 meses,Concurso público,Aquisição de bens móveis,"33696500-0, Reagentes de laboratório","Unidade Local de Saúde do Norte Alentejano, E. P. E. (508094461)","Werfen Portugal, Lda (501086110)","103.515,00 €",03-03-2015,09-02-2015,13140 dias,"Portugal, Portalegre, Ponte de Sor<BR/>Portugal, Portalegre, Portalegre<BR/>Portugal, Portalegre, Elvas","Artigo 20.º, n.º 1, alínea b) do Código dos Contratos Públicos","","",,"",,Não aplicável.,Não aplicável.,FALSE
