Objeto do Contrato,Tipo de Procedimento,Tipo(s) de Contrato,CPVs,Entidade(s) Adjudicante(s),Entidade(s) Adjudicatária(s),Preço Contratual,Data de Publicação,Data de Celebração do Contrato,Prazo de Execução,Local de Execução,Fundamentação,Data de Fecho do Contrato,Preço Total Efetivo,Causas das Alterações ao Prazo,Causas das Alterações ao Preço,Estado,N.º registo do Acordo Quadro,Descrição do Acordo Quadro,Procedimento Centralizado
"Prestação de serviços médicos de medicina do trabalho no Centro Hospitalar Póvoa de Varzim/Vila do Conde, E.P.E.",Ajuste Direto Regime Geral,Aquisição de serviços,"85100000-0, Serviços de saúde","Centro Hospitalar Póvoa de Varzim - Vila do Conde, E. P. E. (508741823)","GUARDEIRAS - M.4.W., LDA (513325107)","14.400,00 €",10-08-2017,01-08-2017,122 dias,"Portugal, Porto, Póvoa de Varzim","Artigo 20.º, n.º 1, alínea a) do Código dos Contratos Públicos",,,,,,Não aplicável.,Não aplicável.,FALSE
"Prestação Serviços Médicos sem Especialidade/ Clínica Geral, no âmbito das actividades do serviço de urgência e outras actividades do CHPVVC, EPE",Ajuste Direto Regime Geral,Aquisição de serviços,"85121100-4, Serviços de médicos de clínica geral","Centro Hospitalar Póvoa de Varzim - Vila do Conde, E. P. E. (508741823)",TIAGO ALVES GOMES EUSEBIO (218617631),"8.352,00 €",10-08-2017,08-08-2017,146 dias,"Portugal, Porto, Póvoa de Varzim","Artigo 20.º, n.º 1, alínea a) do Código dos Contratos Públicos",,,,,,Não aplicável.,Não aplicável.,FALSE
"Aquisição de Sistemas de Próteses da Anca para o Centro Hospitalar Póvoa de Varzim/Vila do Conde, E.P.E. (CHPVVC, EPE), de acordo com o Anexo III e Especificações Técnicas do Caderno de Encargos, para o ano de 2017",Concurso público,Aquisição de bens móveis,"33183100-7, Implantes ortopédicos","Centro Hospitalar Póvoa de Varzim - Vila do Conde, E. P. E. (508741823)",BONECARE - PRODUTOS MÉDICO-CIRÚRGICOS LDA (505899914),"1.537,50 €",08-08-2017,20-06-2017,195 dias,"Portugal, Porto, Póvoa de Varzim","Artigo 20.º, n.º 1, alínea b) do Código dos Contratos Públicos",,,,,,Não aplicável.,Não aplicável.,FALSE
"Aquisição de Sistemas de Próteses da Anca para o Centro Hospitalar Póvoa de Varzim/Vila do Conde, E.P.E. (CHPVVC, EPE), de acordo com o Anexo III e Especificações Técnicas do Caderno de Encargos, para o ano de 2017",Concurso público,Aquisição de bens móveis,"33183100-7, Implantes ortopédicos","Centro Hospitalar Póvoa de Varzim - Vila do Conde, E. P. E. (508741823)","STRYKER PORTUGAL - PRODUTOS MEDICOS, UNIPESSOAL,LDA. (504594214)","597,00 €",08-08-2017,20-06-2017,195 dias,"Portugal, Porto, Póvoa de Varzim","Artigo 20.º, n.º 1, alínea b) do Código dos Contratos Públicos",,,,,,Não aplicável.,Não aplicável.,FALSE
"Aquisição de Sistemas de Próteses da Anca para o Centro Hospitalar Póvoa de Varzim/Vila do Conde, E.P.E. (CHPVVC, EPE), de acordo com o Anexo III e Especificações Técnicas do Caderno de Encargos, para o ano de 2017",Concurso público,Aquisição de bens móveis,"33183100-7, Implantes ortopédicos","Centro Hospitalar Póvoa de Varzim - Vila do Conde, E. P. E. (508741823)","JOHNSON & JOHNSON , LDA (500153370)","740,00 €",08-08-2017,20-06-2017,195 dias,"Portugal, Porto, Póvoa de Varzim","Artigo 20.º, n.º 1, alínea b) do Código dos Contratos Públicos",,,,,,Não aplicável.,Não aplicável.,FALSE
"Aquisição de Sistemas de Próteses da Anca para o Centro Hospitalar Póvoa de Varzim/Vila do Conde, E.P.E. (CHPVVC, EPE), de acordo com o Anexo III e Especificações Técnicas do Caderno de Encargos, para o ano de 2017",Concurso público,Aquisição de bens móveis,"33183100-7, Implantes ortopédicos","Centro Hospitalar Póvoa de Varzim - Vila do Conde, E. P. E. (508741823)","LIMA IMPLANTES PORTUGAL SOC. UNIPESSOAL, LDA (508634784)","50.921,00 €",08-08-2017,11-07-2017,174 dias,"Portugal, Porto, Póvoa de Varzim","Artigo 20.º, n.º 1, alínea b) do Código dos Contratos Públicos",,,,,,Não aplicável.,Não aplicável.,FALSE
"Aquisição de Sistemas de Próteses da Anca para o Centro Hospitalar Póvoa de Varzim/Vila do Conde, E.P.E. (CHPVVC, EPE), de acordo com o Anexo III e Especificações Técnicas do Caderno de Encargos, para o ano de 2017",Concurso público,Aquisição de bens móveis,"33183100-7, Implantes ortopédicos","Centro Hospitalar Póvoa de Varzim - Vila do Conde, E. P. E. (508741823)","ZIMMER BIOMET PORTUGAL, UNIPESSOAL LDA (500254990)","86.343,00 €",08-08-2017,11-07-2017,174 dias,"Portugal, Porto, Póvoa de Varzim","Artigo 20.º, n.º 1, alínea b) do Código dos Contratos Públicos",,,,,,Não aplicável.,Não aplicável.,FALSE
"Aquisição de Sistemas de Próteses da Anca para o Centro Hospitalar Póvoa de Varzim/Vila do Conde, E.P.E. (CHPVVC, EPE), de acordo com o Anexo III e Especificações Técnicas do Caderno de Encargos, para o ano de 2017",Concurso público,Aquisição de bens móveis,"33183100-7, Implantes ortopédicos","Centro Hospitalar Póvoa de Varzim - Vila do Conde, E. P. E. (508741823)","Expomédica, Soc. Exportadora e Importadora de Material Médico, Lda. (501886621)","1.800,00 €",08-08-2017,20-06-2017,195 dias,"Portugal, Porto, Póvoa de Varzim","Artigo 20.º, n.º 1, alínea b) do Código dos Contratos Públicos",,,,,,Não aplicável.,Não aplicável.,FALSE
"Aquisição de Material de Penso para o Centro Hospitalar Póvoa de Varzim/Vila do Conde, E.P.E. (CHPVVC, E.P.E.)",Concurso público,Aquisição de bens móveis,"33141111-1, Pensos adesivos","Centro Hospitalar Póvoa de Varzim - Vila do Conde, E. P. E. (508741823)","Clínifar - Produtos Clínicos e Farmacêuticos, S.A. (503281115)","360,00 €",07-08-2017,14-03-2017,293 dias,"Portugal, Porto, Póvoa de Varzim","Artigo 20.º, n.º 1, alínea b) do Código dos Contratos Públicos",,,,,,Não aplicável.,Não aplicável.,FALSE
"Aquisição de Material de Penso para o Centro Hospitalar Póvoa de Varzim/Vila do Conde, E.P.E. (CHPVVC, E.P.E.)",Concurso público,Aquisição de bens móveis,"33141111-1, Pensos adesivos","Centro Hospitalar Póvoa de Varzim - Vila do Conde, E. P. E. (508741823)","3M Portugal, Lda. (500193940)","2.603,00 €",07-08-2017,14-03-2017,293 dias,"Portugal, Porto, Póvoa de Varzim","Artigo 20.º, n.º 1, alínea b) do Código dos Contratos Públicos",,,,,,Não aplicável.,Não aplicável.,FALSE
"Aquisição de Material de Penso para o Centro Hospitalar Póvoa de Varzim/Vila do Conde, E.P.E. (CHPVVC, E.P.E.)",Concurso público,Aquisição de bens móveis,"33141111-1, Pensos adesivos","Centro Hospitalar Póvoa de Varzim - Vila do Conde, E. P. E. (508741823)","ANASTACIO SALDANHA UNIPESSOAL, LDA. (505804441)","62,21 €",07-08-2017,14-03-2017,293 dias,"Portugal, Porto, Póvoa de Varzim","Artigo 20.º, n.º 1, alínea b) do Código dos Contratos Públicos",,,,,,Não aplicável.,Não aplicável.,FALSE
"Aquisição de Material de Penso para o Centro Hospitalar Póvoa de Varzim/Vila do Conde, E.P.E. (CHPVVC, E.P.E.)",Concurso público,Aquisição de bens móveis,"33141111-1, Pensos adesivos","Centro Hospitalar Póvoa de Varzim - Vila do Conde, E. P. E. (508741823)",PAUL HARTMANN (502271728),"2.234,00 €",07-08-2017,14-03-2017,293 dias,"Portugal, Porto, Póvoa de Varzim","Artigo 20.º, n.º 1, alínea b) do Código dos Contratos Públicos",,,,,,Não aplicável.,Não aplicável.,FALSE
"Aquisição de Material de Penso para o Centro Hospitalar Póvoa de Varzim/Vila do Conde, E.P.E. (CHPVVC, E.P.E.)",Concurso público,Aquisição de bens móveis,"33141126-9, Ligaduras","Centro Hospitalar Póvoa de Varzim - Vila do Conde, E. P. E. (508741823)","QUILABAN - Quimica Laboratorial Analítica, SA (500399670)","207,87 €",07-08-2017,14-03-2017,293 dias,"Portugal, Porto, Póvoa de Varzim","Artigo 20.º, n.º 1, alínea b) do Código dos Contratos Públicos",,,,,,Não aplicável.,Não aplicável.,FALSE
"Aquisição de Material de Penso para o Centro Hospitalar Póvoa de Varzim/Vila do Conde, E.P.E. (CHPVVC, E.P.E.)",Concurso público,Aquisição de bens móveis,"33141126-9, Ligaduras","Centro Hospitalar Póvoa de Varzim - Vila do Conde, E. P. E. (508741823)","ALBINO DIAS DE ANDRADE, LDA (500013810)","2.006,00 €",07-08-2017,14-03-2017,293 dias,"Portugal, Porto, Póvoa de Varzim","Artigo 20.º, n.º 1, alínea b) do Código dos Contratos Públicos",,,,,,Não aplicável.,Não aplicável.,FALSE
"Aquisição de Material de Penso para o Centro Hospitalar Póvoa de Varzim/Vila do Conde, E.P.E. (CHPVVC, E.P.E.)",Concurso público,Aquisição de bens móveis,"33141119-7, Compressas","Centro Hospitalar Póvoa de Varzim - Vila do Conde, E. P. E. (508741823)","TEXTIL PLANAS OLIVEIRAS PORTUGAL, UNIP.LDA. (509211216)","9.803,00 €",07-08-2017,14-03-2017,293 dias,"Portugal, Porto, Póvoa de Varzim","Artigo 20.º, n.º 1, alínea b) do Código dos Contratos Públicos",,,,,,Não aplicável.,Não aplicável.,FALSE
"Aquisição de Material de Penso para o Centro Hospitalar Póvoa de Varzim/Vila do Conde, E.P.E. (CHPVVC, E.P.E.)",Concurso público,Aquisição de bens móveis,"33141115-9, Algodão para fins médicos","Centro Hospitalar Póvoa de Varzim - Vila do Conde, E. P. E. (508741823)","TEXTIL PLANAS OLIVEIRAS PORTUGAL, UNIP.LDA. (509211216)","328,56 €",07-08-2017,14-03-2017,293 dias,"Portugal, Porto, Póvoa de Varzim","Artigo 20.º, n.º 1, alínea b) do Código dos Contratos Públicos",,,,,,Não aplicável.,Não aplicável.,FALSE
"Aquisição de Material de Penso para o Centro Hospitalar Póvoa de Varzim/Vila do Conde, E.P.E. (CHPVVC, E.P.E.)",Concurso público,Aquisição de bens móveis,"33141111-1, Pensos adesivos","Centro Hospitalar Póvoa de Varzim - Vila do Conde, E. P. E. (508741823)",EZEQUIEL PANÄO JORGE (501412727),"37,80 €",07-08-2017,14-03-2017,293 dias,"Portugal, Porto, Póvoa de Varzim","Artigo 20.º, n.º 1, alínea b) do Código dos Contratos Públicos",,,,,,Não aplicável.,Não aplicável.,FALSE
"Aquisição de Material de Penso para o Centro Hospitalar Póvoa de Varzim/Vila do Conde, E.P.E. (CHPVVC, E.P.E.)",Concurso público,Aquisição de bens móveis,"33140000-3, Material médico de consumo","Centro Hospitalar Póvoa de Varzim - Vila do Conde, E. P. E. (508741823)","BASTOS VIEGAS,S.A. (500042772)","5.661,90 €",07-08-2017,14-03-2017,293 dias,"Portugal, Porto, Póvoa de Varzim","Artigo 20.º, n.º 1, alínea b) do Código dos Contratos Públicos",,,,,,Não aplicável.,Não aplicável.,FALSE
"Aquisição de Material de Penso para o Centro Hospitalar Póvoa de Varzim/Vila do Conde, E.P.E. (CHPVVC, E.P.E.)",Concurso público,Aquisição de bens móveis,"33100000-1, Equipamento médico","Centro Hospitalar Póvoa de Varzim - Vila do Conde, E. P. E. (508741823)","BSN Medical, Lda. (505385058)","3.927,20 €",07-08-2017,14-03-2017,293 dias,"Portugal, Porto, Póvoa de Varzim","Artigo 20.º, n.º 1, alínea b) do Código dos Contratos Públicos",,,,,,Não aplicável.,Não aplicável.,FALSE
"Aquisição de dispositivos médicos de sistema de prótese do ombro para o Centro Hospitalar Póvoa de Varzim/Vila do Conde, EPE, de acordo com o anexo III e especificações técnicas do caderno de encargos ",Ajuste Direto Regime Geral,Aquisição de bens móveis,"33183100-7, Implantes ortopédicos","Centro Hospitalar Póvoa de Varzim/Vila do Conde, EPE (508741823)","ZIMMER BIOMET PORTUGAL, UNIPESSOAL LDA (500254990)","22.000,00 €",07-08-2017,13-07-2017,168 dias,"Portugal, Porto, Póvoa de Varzim","Artigo 20.º, n.º 1, alínea a) do Código dos Contratos Públicos",,,,,,Não aplicável.,Não aplicável.,FALSE
"Aquisição de dispositivos médicos de sistema de prótese do ombro para o Centro Hospitalar Póvoa de Varzim/Vila do Conde, EPE, de acordo com o anexo III e especificações técnicas do caderno de encargos.",Ajuste Direto Regime Geral,Aquisição de bens móveis,"33183100-7, Implantes ortopédicos","Centro Hospitalar Póvoa de Varzim/Vila do Conde, EPE (508741823)",MBA PORTUGAL (504445960),"12.826,00 €",07-08-2017,17-07-2017,168 dias,"Portugal, Porto, Póvoa de Varzim","Artigo 20.º, n.º 1, alínea a) do Código dos Contratos Públicos",,,,,,Não aplicável.,Não aplicável.,FALSE
"Aquisição de Reagentes para Microbiologia Manual e Automatizada com colocação de Equipamento e Consumíveis, para o CENTRO HOSPITALAR Póvoa de Varzim / Vila do Conde, E.P.E, para o ano de 2017",Concurso público,Aquisição de bens móveis,"33696200-7, Reagentes para análises ao sangue","Centro Hospitalar Póvoa de Varzim - Vila do Conde, E. P. E. (508741823)","Biomerieux Portugal - Ap. Reag. Laboratório, Lda (501524177)","47.280,78 €",04-08-2017,08-06-2017,207 dias,"Portugal, Porto, Póvoa de Varzim","Artigo 20.º, n.º 1, alínea b) do Código dos Contratos Públicos",,,,,,Não aplicável.,Não aplicável.,FALSE
"aquisição de Serviços de Segurança de Informação e Serviços em Sistemas de Gestão de Informação – Gestão de Risco de Segurança da Informação, para o Centro Hospitalar Povoa de Varzim/Vila do Conde, E.P.E. (CHPVVC, E.P.E.). O contrato será executado no âmbito de uma candidatura ao Sistema de Apoios a Modernização Administrativa (SAMA) do Programa Operacional Competitividade de Internacionalização – COMPETE 2020, devidamente aprovada. ",Concurso público,Aquisição de serviços,"72910000-2, Serviços informáticos de segurança","Centro Hospitalar Póvoa de Varzim/Vila do Conde, EPE (508741823)","HLTSYS - HEALTHSYSTEMS, LDA (510552544)","125.210,00 €",03-08-2017,11-07-2017,174 dias,"Portugal, Porto, Póvoa de Varzim","Artigo 20.º, n.º 1, alínea b) do Código dos Contratos Públicos",,,,,,Não aplicável.,Não aplicável.,FALSE
"Fornecimento de Seringas , Agulhas e Contentores  , para o Centro Hospitalar Póvoa de Varzim/Vila do Conde, E.P.E., nos termos e condições previstas no caderno de Encargos do Concurso Público n.º 2014/22 da SPMS,E.P.E.",Ao abrigo de acordo-quadro (art.º 259.º),Aquisição de bens móveis,"33141310-6, Seringas","Centro Hospitalar Póvoa de Varzim/Vila do Conde, EPE (508741823)","Overpharma - Produtos Médicos Farmacêuticos, Lda. (505792362)","29,98 €",02-08-2017,24-08-2016,129 dias,"Portugal, Porto, Póvoa de Varzim",Artigo 259.º do Código dos Contratos Públicos,,,,,,1377429,Acordo Quadro para fornecimento de medicamentos para Nutrição Parentérica às Instituições e Serviços do Serviço Nacional de Saúde,FALSE
"Fornecimento de Seringas , Agulhas e Contentores , para o Centro Hospitalar Póvoa de Varzim/Vila do Conde, E.P.E., nos termos e condições previstas no caderno de Encargos do Concurso Público n.º 2014/22 da SPMS,E.P.E.",Ao abrigo de acordo-quadro (art.º 259.º),Aquisição de bens móveis,"33141310-6, Seringas","Centro Hospitalar Póvoa de Varzim/Vila do Conde, EPE (508741823)","LINEAMEDICA - DISP.MÉDICO-CIRURGICOS, SA (505148676)","602,56 €",02-08-2017,24-08-2016,129 dias,"Portugal, Porto, Póvoa de Varzim",Artigo 259.º do Código dos Contratos Públicos,,,,,,1377429,Acordo Quadro para fornecimento de medicamentos para Nutrição Parentérica às Instituições e Serviços do Serviço Nacional de Saúde,FALSE
"Fornecimento de Seringas , Agulhas e Contentores , para o Centro Hospitalar Póvoa de Varzim/Vila do Conde, E.P.E., nos termos e condições previstas no caderno de Encargos do Concurso Público n.º 2014/22 da SPMS,E.P.E.",Ao abrigo de acordo-quadro (art.º 259.º),Aquisição de bens móveis,"33141310-6, Seringas","Centro Hospitalar Póvoa de Varzim/Vila do Conde, EPE (508741823)",B BRAUN MEDICAL LDA (501506543),"7,90 €",02-08-2017,24-08-2016,129 dias,"Portugal, Porto, Póvoa de Varzim",Artigo 259.º do Código dos Contratos Públicos,,,,,,1377429,Acordo Quadro para fornecimento de medicamentos para Nutrição Parentérica às Instituições e Serviços do Serviço Nacional de Saúde,FALSE
"Fornecimento de Seringas , Agulhas e Contentores , para o Centro Hospitalar Póvoa de Varzim/Vila do Conde, E.P.E., nos termos e condições previstas no caderno de Encargos do Concurso Público n.º 2014/22 da SPMS,E.P.E.",Ao abrigo de acordo-quadro (art.º 259.º),Aquisição de bens móveis,"33141310-6, Seringas","Centro Hospitalar Póvoa de Varzim/Vila do Conde, EPE (508741823)","Becton Dickinson Unipessoal, Ldª (514239743)","6.603,70 €",02-08-2017,24-08-2016,129 dias,"Portugal, Porto, Póvoa de Varzim",Artigo 259.º do Código dos Contratos Públicos,,,,,,1377429,Acordo Quadro para fornecimento de medicamentos para Nutrição Parentérica às Instituições e Serviços do Serviço Nacional de Saúde,FALSE
"Fornecimento de Seringas , Agulhas e Contentores , para o Centro Hospitalar Póvoa de Varzim/Vila do Conde, E.P.E., nos termos e condições previstas no caderno de Encargos do Concurso Público n.º 2014/22 da SPMS,E.P.E.",Ao abrigo de acordo-quadro (art.º 259.º),Aquisição de bens móveis,"33141310-6, Seringas","Centro Hospitalar Póvoa de Varzim/Vila do Conde, EPE (508741823)","SARSTEDT, LDA (503019461)","21,00 €",02-08-2017,24-08-2016,129 dias,"Portugal, Porto, Póvoa de Varzim",Artigo 259.º do Código dos Contratos Públicos,,,,,,1377429,Acordo Quadro para fornecimento de medicamentos para Nutrição Parentérica às Instituições e Serviços do Serviço Nacional de Saúde,FALSE
"Fornecimento de Seringas , Agulhas e Contentores , para o Centro Hospitalar Póvoa de Varzim/Vila do Conde, E.P.E., nos termos e condições previstas no caderno de Encargos do Concurso Público n.º 2014/22 da SPMS,E.P.E.",Ao abrigo de acordo-quadro (art.º 259.º),Aquisição de bens móveis,"33141310-6, Seringas","Centro Hospitalar Póvoa de Varzim/Vila do Conde, EPE (508741823)","AMBIMED GESTÃO AMBIENTAL, LDA (503593427)","1.792,00 €",02-08-2017,24-08-2016,129 dias,"Portugal, Porto, Póvoa de Varzim",Artigo 259.º do Código dos Contratos Públicos,,,,,,1377429,Acordo Quadro para fornecimento de medicamentos para Nutrição Parentérica às Instituições e Serviços do Serviço Nacional de Saúde,FALSE
