Objeto do Contrato,Tipo de Procedimento,Tipo(s) de Contrato,CPVs,Entidade(s) Adjudicante(s),Entidade(s) Adjudicatária(s),Preço Contratual,Data de Publicação,Data de Celebração do Contrato,Prazo de Execução,Local de Execução,Fundamentação,Data de Fecho do Contrato,Preço Total Efetivo,Causas das Alterações ao Prazo,Causas das Alterações ao Preço,Estado,N.º registo do Acordo Quadro,Descrição do Acordo Quadro,Procedimento Centralizado
Processo 511/2012,Ajuste Direto Regime Geral,Aquisição de serviços,"65000000-3, Serviços públicos",Instituto de Oftalmologia Dr. Gama Pinto (600000052),Strong - Segurança (503257567),"22.185,00 €",10-11-2014,29-06-2012,365 dias,"Portugal, Lisboa, Lisboa","Artigo 20.º, n.º 1, alínea a) do Código dos Contratos Públicos",29-06-2012,"22.185,00 €",,,,Não aplicável.,Não aplicável.,FALSE
Processo 161/2012,Ajuste Direto Regime Geral,Aquisição de serviços,"65000000-3, Serviços públicos",Instituto de Oftalmologia Dr. Gama Pinto (600000052),Strong - Segurança (503257567),"45.043,32 €",10-11-2014,29-12-2012,365 dias,"Portugal, Lisboa, Lisboa","Artigo 20.º, n.º 1, alínea a) do Código dos Contratos Públicos",30-12-2012,"45.043,32 €",,,,Não aplicável.,Não aplicável.,FALSE
Processo 634/ 2012,Ajuste Direto Regime Geral,Concessão de serviços públicos,"55000000-0, Serviços de hotelaria, restauração e comércio a retalho",Instituto de Oftalmologia Dr. Gama Pinto (600000052),Operandus (502771496),"16.202,76 €",07-11-2014,27-09-2012,365 dias,"Portugal, Lisboa, Lisboa","Artigo 20.º, n.º 1, alínea a) do Código dos Contratos Públicos",25-10-2012,"16.202,76 €",,,,Não aplicável.,Não aplicável.,FALSE
Processo 635/2012,Ajuste Direto Regime Geral,Concessão de serviços públicos,"65000000-3, Serviços públicos",Instituto de Oftalmologia Dr. Gama Pinto (600000052),Strong - Segurança (503257567),"22.185,00 €",07-11-2014,27-09-2012,365 dias,"Portugal, Lisboa, Lisboa","Artigo 20.º, n.º 1, alínea a) do Código dos Contratos Públicos",26-12-2012,"22.185,00 €",,,,Não aplicável.,Não aplicável.,FALSE
