Objeto do Contrato,Tipo de Procedimento,Tipo(s) de Contrato,CPVs,Entidade(s) Adjudicante(s),Entidade(s) Adjudicatária(s),Preço Contratual,Data de Publicação,Data de Celebração do Contrato,Prazo de Execução,Local de Execução,Fundamentação,Data de Fecho do Contrato,Preço Total Efetivo,Causas das Alterações ao Prazo,Causas das Alterações ao Preço,Estado,N.º registo do Acordo Quadro,Descrição do Acordo Quadro,Procedimento Centralizado
"157004 - Aquisição de material de penso c/ efeito terapêutico constante do AQ2014/10 da SPMS, ao abrigo do 259º",Ajuste Direto Regime Geral,Aquisição de bens móveis,"33600000-6, Produtos farmacêuticos",Hospital do Arcebispo João Crisóstomo  Cantanhede (501626123),"MEDTRONIC PORTUGAL, LDA (504223933), OVERPHARMA - PRODUTOS MÉDICOS E FARMACÊUTICOS,LDA (505792362), SMITH & NEPHEW, LDA (503552461), Bastos Viegas, S.A. (500042772), KVTECH PORTUGAL - PRODUTOS MEDICOS UNIPESSOAL, LDA (508671531), CLINIFAR SA                                        (503281115), Laboratórios Urgo, S.L.U.     (B-83608604)","0,00 €",19-10-2017,17-01-2017,365 dias,"Portugal, Coimbra, Cantanhede",Artigo 258.º do Código dos Contratos Públicos,,,,,,2967011,"157004 - Aquisição de material de penso c/ efeito terapêutico constante do AQ2014/10, ao abrigo do 259º",FALSE
"157003 - Aquisição de Ácido Hialurónico p/ Oftalmologia constante do AQ2015_36, ao abrigo o 259º",Ajuste Direto Regime Geral,Aquisição de bens móveis,"33600000-6, Produtos farmacêuticos",Hospital do Arcebispo João Crisóstomo  Cantanhede (501626123),"OVERPHARMA - PRODUTOS MÉDICOS E FARMACÊUTICOS,LDA (505792362)","0,00 €",18-10-2017,17-01-2017,365 dias,"Portugal, Coimbra, Cantanhede",Artigo 258.º do Código dos Contratos Públicos,,,,,,2965888,"157003 - Aquisição de Ácido Hialurónico p/ Oftalmologia constante do AQ2015_36, ao abrigo o 259º",FALSE
157002 - Aquisição de medicamentosCHNM constantes do AQ2014_1 da SPMS Aparelho cardiovascular,Ajuste Direto Regime Geral,Aquisição de bens móveis,"33620000-2, Medicamentos para o sangue, para os órgãos hematopoiéticos e para o aparelho cardiovascular",Hospital do Arcebispo João Crisóstomo  Cantanhede (501626123),"PHARMAKERN PORTUGAL, LDA.                          (507002571), GENERIS - FARMACEUTICA, S.A.                       (508107997), Bayer Portugal S.A. (500043256), B BRAUN MEDICAL, LDA.                              (501506543), OVERPHARMA - PRODUTOS MEDICOS E FARM.              (505792362), LAB. PFIZER, LDA.                                  (500162166), SANOFI- PRODUTOS FARMACÊUTICOS,LDA.                (500134960), TECNIMEDE, S.A. (500626413), SANDOZ FARMACÊUTICA, LDA.                          (506985261), ASTRAZENECA- PRODUTOS FARMACEUTICOS LDA (502942240), LABESFAL-LABORATORIOS ALMIRO, SA (501169580), TEVA PHARMA - PRODUTOS FARMACEUTICOS,LDA           (507045491)","0,00 €",17-10-2017,16-01-2017,365 dias,"Portugal, Coimbra, Cantanhede",Artigo 258.º do Código dos Contratos Públicos,,,,,,2963585,157002 Medicamentos CHNM constantes do AQ2014_1 Aparelho Cardiovascular,FALSE
157001 - Gases medicinais constantes do AQ2013/30,Ajuste Direto Regime Geral,Aquisição de bens móveis,"24111000-5, Hidrogénio, árgon, gases raros, azoto e oxigénio",Hospital do Arcebispo João Crisóstomo  Cantanhede (501626123),Air Liquide Medicinal SA (501576436),"14.924,00 €",17-10-2017,06-01-2017,365 dias,"Portugal, Coimbra, Cantanhede",Artigo 258.º do Código dos Contratos Públicos,,,,,,Não aplicável.,Não aplicável.,FALSE
