Objeto do Contrato,Tipo de Procedimento,Tipo(s) de Contrato,CPVs,Entidade(s) Adjudicante(s),Entidade(s) Adjudicatária(s),Preço Contratual,Data de Publicação,Data de Celebração do Contrato,Prazo de Execução,Local de Execução,Fundamentação,Data de Fecho do Contrato,Preço Total Efetivo,Causas das Alterações ao Prazo,Causas das Alterações ao Preço,Estado,N.º registo do Acordo Quadro,Descrição do Acordo Quadro,Procedimento Centralizado
AD 3126/2013 - Prestação de Serviços Médicos Otorrinolaringologia (Julho a Dezembro/2013),Ajuste Direto Regime Geral,Aquisição de serviços,"85121240-7, Serviços de otorrinolaringologia ou audiologia","Centro Hospitalar do Algarve, E. P. E. (510745997)","Castelo Bravo, Lda. (509761461)","28.800,00 €",11-12-2013,03-12-2013,184 dias,"Portugal, Faro, Faro","Artigo 20.º, n.º 1, alínea a) do Código dos Contratos Públicos","","",,,,Não aplicável.,Não aplicável.,
Medicamentos Buprenorfina,Ao abrigo de acordo-quadro (art.º 259.º),Aquisição de bens móveis,"33690000-3, Medicamentos vários","Centro Hospitalar do Algarve, E. P. E. (510745997)","GRUNENTHAL, S.A. (500101965)","205,00 €",11-12-2013,04-11-2013,51 dias,"Portugal, Faro, Faro",Artigo 259.º do Código dos Contratos Públicos,"","",,,,1116623,AQ2837/2013 - Medicamentos Buprenorfina,
Medicamentos Ceftazidima,Ao abrigo de acordo-quadro (art.º 259.º),Aquisição de bens móveis,"33690000-3, Medicamentos vários","Centro Hospitalar do Algarve, E. P. E. (510745997)","LABESFAL-LABORAT.ALMIRO, S.A. (501169580)","1.297,80 €",11-12-2013,30-07-2013,155 dias,"Portugal, Faro, Faro",Artigo 259.º do Código dos Contratos Públicos,"","",,,,1116553,AQ2559/2013 - Medicamentos Ceftazidima,
Reagentes para Bioquimica,Ajuste Direto Regime Geral,Aquisição de bens móveis,"33696500-0, Reagentes de laboratório","Centro Hospitalar do Algarve, E. P. E. (510745997)","Abbott Laboratórios, Lda. (500006148)","7.495,80 €",11-12-2013,09-08-2013,145 dias,"Portugal, Faro, Faro","Artigo 24.º, n.º 1, alínea e) do Código dos Contratos Públicos","","",,,,Não aplicável.,Não aplicável.,
Medicamentos Morfina 40 mg,Ao abrigo de acordo-quadro (art.º 259.º),Aquisição de bens móveis,"33690000-3, Medicamentos vários","Centro Hospitalar do Algarve, E. P. E. (510745997)","LABESFAL-LABORAT.ALMIRO, S.A. (501169580), B. BRAUN MEDICAL,LDA. (501506543)","7.500,00 €",10-12-2013,09-12-2013,23 dias,"Portugal, Faro, Faro",Artigo 259.º do Código dos Contratos Públicos,"","",,,,1116281,AQ3155/2013 - Medicamentos Morfina 40 mg,
"aquisição de desinfectante """"soluscope A """", """" soluscope P"""" e """"soluscope C+"""" ",Ajuste Direto Regime Geral,Aquisição de bens móveis,"39000000-2, Mobiliário (incl. de escritório), acessórios, aparelhos domésticos (excl. iluminação) e produtos de limpeza","Centro Hospitalar do Algarve, E. P. E. (510745997)",MM-ENDOCARE (510093124),"742,04 €",10-12-2013,09-12-2013,22 dias,"Portugal, Faro, Faro","Artigo 24.º, n.º 1, alínea e) do Código dos Contratos Públicos","","",,,,Não aplicável.,Não aplicável.,
Reagentes de citologia não ginecológica,Ajuste Direto Regime Geral,Aquisição de bens móveis,"33696500-0, Reagentes de laboratório","Centro Hospitalar do Algarve, E. P. E. (510745997)","Hologic Ibérica, SL (980277230)","1.601,48 €",10-12-2013,10-12-2013,22 dias,"Portugal, Faro, Faro","Artigo 24.º, n.º 1, alínea e) do Código dos Contratos Públicos","","",,,,Não aplicável.,Não aplicável.,
Interferão beta 1A 24 MUI canetas,Ajuste Direto Regime Geral,Aquisição de bens móveis,"33690000-3, Medicamentos vários","Centro Hospitalar do Algarve, E. P. E. (510745997)",Merck SA (500650870),"6.925,71 €",10-12-2013,10-12-2013,22 dias,"Portugal, Faro, Faro","Artigo 24.º, n.º 1, alínea e) do Código dos Contratos Públicos","","",,,,Não aplicável.,Não aplicável.,
AQ3067/2013 - Mcc Tubos de Colheita,Ao abrigo de acordo-quadro (art.º 259.º),Aquisição de bens móveis,"33140000-3, Material médico de consumo","Centro Hospitalar do Algarve, E. P. E. (510745997)",Sarstedt (500203130),"652,05 €",10-12-2013,09-12-2013,22 dias,"Portugal, Faro, Faro",Artigo 259.º do Código dos Contratos Públicos,"","",,,,1115858,AQ3067/2013 - Mcc Tubos de Colheita,
AD 2972.2013 - Cat ao Vertical Financeiro Navision,Ajuste Direto Regime Geral,Aquisição de serviços,"50000000-5, Serviços de reparação e manutenção","Centro Hospitalar do Algarve, E. P. E. (510745997)","Glint Healthcare Solutions, SA (502479418)","6.752,00 €",09-12-2013,11-10-2013,162 dias,"Portugal, Faro, Faro","Artigo 24.º, n.º 1, alínea e) do Código dos Contratos Públicos","","",,,,Não aplicável.,Não aplicável.,
AD 3072.2013 - Contrato Manutenção Reconhecimento de Voz (Licenças Speechmagic),Ajuste Direto Regime Geral,Aquisição de serviços,"50000000-5, Serviços de reparação e manutenção","Centro Hospitalar do Algarve, E. P. E. (510745997)",Glint Healthcare Solucions SA (502479418),"4.831,97 €",06-12-2013,19-11-2013,43 dias,"Portugal, Faro, Faro","Artigo 24.º, n.º 1, alínea e) do Código dos Contratos Públicos","","",,,,Não aplicável.,Não aplicável.,
AD 3071.2013 - Contrato Manutenção Assistência Técnica ao Software Aplicacional,Ajuste Direto Regime Geral,Aquisição de serviços,"50000000-5, Serviços de reparação e manutenção","Centro Hospitalar do Algarve, E. P. E. (510745997)",Glint  Healthcare Solucions SA (502479418),"7.676,87 €",06-12-2013,19-11-2013,43 dias,"Portugal, Faro, Faro","Artigo 24.º, n.º 1, alínea e) do Código dos Contratos Públicos","","",,,,Não aplicável.,Não aplicável.,
Etravirina 100mg Comp. e Etravirina 200mg Comp.,Ao abrigo de acordo-quadro (art.º 258.º),Aquisição de bens móveis,"33600000-6, Produtos farmacêuticos","Centro Hospitalar do Algarve, E. P. E. (510745997)",JANSSEN-CILAG (500189412),"35.593,68 €",05-12-2013,03-12-2013,365 dias,"Portugal, Faro, Lagos<BR/>Portugal, Faro, Portimão<BR/>Portugal, Faro, Faro",Artigo 258.º do Código dos Contratos Públicos,"","",,,,461371,CP 2012/40 - MEDICAMENTOS ANTI-RETROVIRAIS,
"Medicamentos Velaglucerase, Idursulfase e Agalsidade",Ajuste Direto Regime Geral,Aquisição de bens móveis,"33690000-3, Medicamentos vários","Centro Hospitalar do Algarve, E. P. E. (510745997)","Shire Pharmaceuticals Portugal, Lda. (509264662)","333.853,95 €",05-12-2013,14-11-2013,134 dias,"Portugal, Faro, Faro","Artigo 24.º, n.º 1, alínea e) do Código dos Contratos Públicos","","",,,,Não aplicável.,Não aplicável.,
AD 281.2013 - Contrato Assistência  Tecnica para Faxes e Fotocopiadoras,Ajuste Direto Regime Geral,Aquisição de serviços,"50000000-5, Serviços de reparação e manutenção","Centro Hospitalar do Algarve, E. P. E. (510745997)","Canon Portugal, SA (507477740)","3.156,10 €",05-12-2013,28-11-2013,34 dias,"Portugal, Faro, Faro","Artigo 24.º, n.º 1, alínea e) do Código dos Contratos Públicos","","",,,,Não aplicável.,Não aplicável.,
AD 3132/2013 - Prestação de Serviços Médicos Cirurgia Geral (Julho a Dezembro/2013),Ajuste Direto Regime Geral,Aquisição de serviços,"85121200-5, Serviços de medicina especializada","Centro Hospitalar do Algarve, E. P. E. (510745997)","Rodilemarlusa - Serviços Médicos Unipessoal, Lda. (507344235)","28.800,00 €",05-12-2013,28-11-2013,184 dias,"Portugal, Faro, Faro","Artigo 20.º, n.º 1, alínea a) do Código dos Contratos Públicos","","",,,,Não aplicável.,Não aplicável.,
AD 301.2013 - Contrato Assistência Tecnica para Faxes e Fotocopiadoras,Ajuste Direto Regime Geral,Aquisição de serviços,"50000000-5, Serviços de reparação e manutenção","Centro Hospitalar do Algarve, E. P. E. (510745997)","Canon Portugal, SA (507477740)","2.100,00 €",05-12-2013,26-11-2013,23 dias,"Portugal, Faro, Faro","Artigo 24.º, n.º 1, alínea e) do Código dos Contratos Públicos","","",,,,Não aplicável.,Não aplicável.,
AD 1262.2013 - Contrato para Trabalhos Adicionais Aplicação Navision,Ajuste Direto Regime Geral,Aquisição de serviços,"50000000-5, Serviços de reparação e manutenção","Centro Hospitalar do Algarve, E. P. E. (510745997)","Glint Healthcare Solutions, SA (502479418)","9.370,00 €",05-12-2013,07-05-2013,239 dias,"Portugal, Faro, Faro","Artigo 24.º, n.º 1, alínea e) do Código dos Contratos Públicos","","",,,,Não aplicável.,Não aplicável.,
AD 380.2013 - Contrato Assistência Técnica Interface Radio ITM,Ajuste Direto Regime Geral,Aquisição de serviços,"50000000-5, Serviços de reparação e manutenção","Centro Hospitalar do Algarve, E. P. E. (510745997)","Glint Healthcare Solutions, SA (502479418)","1.800,00 €",05-12-2013,15-05-2013,232 dias,"Portugal, Faro, Faro","Artigo 24.º, n.º 1, alínea e) do Código dos Contratos Públicos","","",,,,Não aplicável.,Não aplicável.,
81006814 -  Medicação Anti-Alérgica,Ao abrigo de acordo-quadro (art.º 259.º),Aquisição de bens móveis,"33600000-6, Produtos farmacêuticos","Centro Hospitalar do Algarve, E. P. E. (510745997)",ACTAVIS (980334934),"43,30 €",05-12-2013,25-11-2013,365 dias,"Portugal, Faro, Faro<BR/>Portugal, Faro, Portimão<BR/>Portugal, Faro, Lagos",Artigo 259.º do Código dos Contratos Públicos,31-12-2014,"43,30 €",,,,602067,"ONCURSO PÚBLICO PARA A CELEBRAÇÃO DE CONTRATOS PÚBLICOS DE APROVISIONAMENTO PARA A ÁREA DA SAÚDE, COM VISTA AO FORNECIMENTO DE MEDICAMENTOS DE CONSUMO GERAL - MEDICAÇÃO ANTIALÉRGICA, MEDICAMENTOS USADOS NO TRATAMENTO DE INTOXICAÇÕES, VITAMINAS E SAIS MINERAIS  E GRUPO 20.9 - OUTROS PRODUTOS, ÀS INSTITUIÇÕES E SERVIÇOS DO SERVIÇO NACIONAL DE SAÚDE",
CP 2863/2013 - Prestação de Serviços Médicos de Unidade de Cuidados Intensivos (Dezembro/2013),Concurso público,Aquisição de serviços,"85100000-0, Serviços de saúde","Centro Hospitalar do Algarve, E. P. E. (510745997)","Urgev - Prestação Serviços Médicos, Lda. (507102533)","198.000,00 €",04-12-2013,01-12-2013,31 dias,"Portugal, Faro, Faro","Artigo 20.º, n.º 1, alínea b) do Código dos Contratos Públicos","","",,,,Não aplicável.,Não aplicável.,
AD 3119/2013 - Prestação de Serviços Médicos Anestesiologia (Julho a Dezembro/2013),Ajuste Direto Regime Geral,Aquisição de serviços,"85121200-5, Serviços de medicina especializada","Centro Hospitalar do Algarve, E. P. E. (510745997)","Baltar Torres, Anestesiologia Unipessoal, Lda. (507448219)","72.000,00 €",04-12-2013,28-11-2013,184 dias,"Portugal, Faro, Faro","Artigo 20.º, n.º 1, alínea a) do Código dos Contratos Públicos","","",,,,Não aplicável.,Não aplicável.,
AD 3146/2013 - Prestação de Serviços Médicos Anestesiologia (Julho a Dezembro/2013),Ajuste Direto Regime Geral,Aquisição de serviços,"85121200-5, Serviços de medicina especializada","Centro Hospitalar do Algarve, E. P. E. (510745997)","Consuelo Moya - Serviços Médicos Unipessoal, Lda. (509155502)","28.800,00 €",04-12-2013,29-11-2013,184 dias,"Portugal, Faro, Faro","Artigo 20.º, n.º 1, alínea a) do Código dos Contratos Públicos","","",,,,Não aplicável.,Não aplicável.,
Medicamentos cloreto Potassio e Polielectrolitico,Ao abrigo de acordo-quadro (art.º 259.º),Aquisição de bens móveis,"33690000-3, Medicamentos vários","Centro Hospitalar do Algarve, E. P. E. (510745997)","B. BRAUN MEDICAL,LDA. (501506543)","10.121,00 €",04-12-2013,02-12-2013,30 dias,"Portugal, Faro, Faro",Artigo 259.º do Código dos Contratos Públicos,"","",,,,1111521,AQ3161/2013 - Medicamentos cloreto potássio e Polielectrolitico,
Medicamentos Lidocaina,Ajuste Direto Regime Geral,Aquisição de bens móveis,"33690000-3, Medicamentos vários","Centro Hospitalar do Algarve, E. P. E. (510745997)","LABESFAL-LABORAT.ALMIRO, S.A. (501169580)","509,04 €",04-12-2013,02-12-2013,30 dias,"Portugal, Faro, Faro","Artigo 24.º, n.º 1, alínea e) do Código dos Contratos Públicos","","",,,,Não aplicável.,Não aplicável.,
Medicamentos Sulprostona,Ao abrigo de acordo-quadro (art.º 258.º),Aquisição de bens móveis,"33690000-3, Medicamentos vários","Centro Hospitalar do Algarve, E. P. E. (510745997)","BAYER PORTUGAL,SA (500043256)","715,50 €",04-12-2013,02-12-2013,30 dias,"Portugal, Faro, Faro",Artigo 258.º do Código dos Contratos Públicos,"","",,,,1111504,AD3221/2013 - Medicamentos Sulprostona,
Medicamentos Flucloxacilina,Ao abrigo de acordo-quadro (art.º 258.º),Aquisição de bens móveis,"33690000-3, Medicamentos vários","Centro Hospitalar do Algarve, E. P. E. (510745997)",Actavis A/S Sucursal (980334934),"41,95 €",04-12-2013,03-12-2013,29 dias,"Portugal, Faro, Faro",Artigo 258.º do Código dos Contratos Públicos,"","",,,,1111288,AD3123/2013 - Medicamentos Flucloxacilina,
Medicamentos Bisoprolol,Ao abrigo de acordo-quadro (art.º 259.º),Aquisição de bens móveis,"33690000-3, Medicamentos vários","Centro Hospitalar do Algarve, E. P. E. (510745997)","GENERIS FARMACEUTICA,SA (508107997)","16,38 €",04-12-2013,03-12-2013,29 dias,"Portugal, Faro, Faro",Artigo 259.º do Código dos Contratos Públicos,"","",,,,1111269,AQ3008/2013 - Medicamentos Bisoprolol,
Medicamentos Topiramato,Ao abrigo de acordo-quadro (art.º 259.º),Aquisição de bens móveis,"33690000-3, Medicamentos vários","Centro Hospitalar do Algarve, E. P. E. (510745997)",Actavis A/S Sucursal (980334934),"66,24 €",04-12-2013,03-12-2013,29 dias,"Portugal, Faro, Faro",Artigo 259.º do Código dos Contratos Públicos,"","",,,,1111258,AQ2651/2013 - Medicamentosw Topiramato,
Medicamentos Terlipressina,Ao abrigo de acordo-quadro (art.º 258.º),Aquisição de bens móveis,"33690000-3, Medicamentos vários","Centro Hospitalar do Algarve, E. P. E. (510745997)",D.L.A FARMACEUTICA (503894427),"1.407,00 €",04-12-2013,03-12-2013,29 dias,"Portugal, Faro, Faro",Artigo 258.º do Código dos Contratos Públicos,"","",,,,1111248,AD2789/2013 - Medicamentos Terlipressina,
Medicamentos - Ciprofloxacina,Ao abrigo de acordo-quadro (art.º 259.º),Aquisição de bens móveis,"33690000-3, Medicamentos vários","Centro Hospitalar do Algarve, E. P. E. (510745997)","LABESFAL-LABORAT.ALMIRO, S.A. (501169580)","35,58 €",04-12-2013,03-12-2013,29 dias,"Portugal, Faro, Faro",Artigo 259.º do Código dos Contratos Públicos,"","",,,,1111237,AQ2766/2013 - Medicamentos Ciprofloxacina,
AS 3293/2013 Neutralizador Ácido para Instrumentos,Ajuste Direto Regime Geral,Aquisição de bens móveis,"33000000-0, Equipamento médico, medicamentos e produtos para cuidados pessoais","Centro Hospitalar do Algarve, E. P. E. (510745997)","Franklab Portugal - Material de Lavagem, Desinfecção e Descontaminação, Lda (506058654)","78,00 €",04-12-2013,02-12-2013,29 dias,"Portugal, Faro, Faro","Artigo 24.º, n.º 1, alínea c) do Código dos Contratos Públicos","","",,,,Não aplicável.,Não aplicável.,
Medicamentos Oxitetraciclina,Ao abrigo de acordo-quadro (art.º 258.º),Aquisição de bens móveis,"33690000-3, Medicamentos vários","Centro Hospitalar do Algarve, E. P. E. (510745997)",LABORATORIO EDOL-PROD.FARM.S.A. (507072642),"42,60 €",04-12-2013,02-12-2013,30 dias,"Portugal, Faro, Faro",Artigo 258.º do Código dos Contratos Públicos,"","",,,,1111191,AD3192/2013 - Medicamentos Oxitetraciclina,
Medicamentos - Flurbiprofeno,Ao abrigo de acordo-quadro (art.º 258.º),Aquisição de bens móveis,"33690000-3, Medicamentos vários","Centro Hospitalar do Algarve, E. P. E. (510745997)",LABORATORIO EDOL-PROD.FARM.S.A. (507072642),"141,00 €",04-12-2013,02-12-2013,30 dias,"Portugal, Faro, Faro",Artigo 258.º do Código dos Contratos Públicos,"","",,,,1111182,AD3179/2013 - Medicamentos Flurbiprofeno,
Medicamentos Lidocaina,Ao abrigo de acordo-quadro (art.º 258.º),Aquisição de bens móveis,"33690000-3, Medicamentos vários","Centro Hospitalar do Algarve, E. P. E. (510745997)","LABESFAL-LABORAT.ALMIRO, S.A. (501169580)","36,45 €",04-12-2013,02-12-2013,30 dias,"Portugal, Faro, Faro",Artigo 258.º do Código dos Contratos Públicos,"","",,,,1111176,AD3194/2013 - Medicamentos Lidocaina,
Medicamentos - Bisacodil,Ao abrigo de acordo-quadro (art.º 258.º),Aquisição de bens móveis,"33690000-3, Medicamentos vários","Centro Hospitalar do Algarve, E. P. E. (510745997)","Unilfarma - União Intern. de Lab. Farmac.,Lda. (500293023)","57,28 €",04-12-2013,02-12-2013,30 dias,"Portugal, Faro, Faro",Artigo 258.º do Código dos Contratos Públicos,"","",,,,1111168,AD3215/2013 - Medicamentos Bisacodil,
Medicamentos Glucagom,Ajuste Direto Regime Geral,Aquisição de bens móveis,"33690000-3, Medicamentos vários","Centro Hospitalar do Algarve, E. P. E. (510745997)","NOVO NORDISK,LDA. (501485210)","273,00 €",04-12-2013,02-12-2013,30 dias,"Portugal, Faro, Faro","Artigo 24.º, n.º 1, alínea e) do Código dos Contratos Públicos","","",,,,Não aplicável.,Não aplicável.,
Medicamentos Glucose,Ao abrigo de acordo-quadro (art.º 258.º),Aquisição de bens móveis,"33690000-3, Medicamentos vários","Centro Hospitalar do Algarve, E. P. E. (510745997)","B. BRAUN MEDICAL,LDA. (501506543)","192,27 €",04-12-2013,02-12-2013,30 dias,"Portugal, Faro, Faro",Artigo 258.º do Código dos Contratos Públicos,"","",,,,1111154,AD3188/2013 - Medicamentos Glucose,
Medicamentos Doxiciclina,Ao abrigo de acordo-quadro (art.º 258.º),Aquisição de bens móveis,"33690000-3, Medicamentos vários","Centro Hospitalar do Algarve, E. P. E. (510745997)","Laboratórios Pfizer, Lda. (500162166)","29,29 €",04-12-2013,02-12-2013,30 dias,"Portugal, Faro, Faro",Artigo 258.º do Código dos Contratos Públicos,"","",,,,1111143,AD3180/2013 - Medicamentos Doxiciclina,
Medicamentos Flufenazina,Ao abrigo de acordo-quadro (art.º 258.º),Aquisição de bens móveis,"33690000-3, Medicamentos vários","Centro Hospitalar do Algarve, E. P. E. (510745997)","BRISTOL-MYERS SQUIBB FARMACÊUTICA PORTUGUESA, S.A (500048193)","215,00 €",03-12-2013,18-02-2013,317 dias,"Portugal, Faro, Faro",Artigo 258.º do Código dos Contratos Públicos,"","",,,,1110662,AD422/2013 - Medicamentos Flufenazina,
Medicamentos Haloperidol,Ao abrigo de acordo-quadro (art.º 258.º),Aquisição de bens móveis,"33690000-3, Medicamentos vários","Centro Hospitalar do Algarve, E. P. E. (510745997)","RATIOPHARM, LDA (502414910)","2.992,50 €",03-12-2013,18-02-2013,317 dias,"Portugal, Faro, Faro",Artigo 258.º do Código dos Contratos Públicos,"","",,,,1110626,AD423/2013 - Medicamentos Haloperidol,
Medicamentos Fluvoxamina,Ao abrigo de acordo-quadro (art.º 258.º),Aquisição de bens móveis,"33690000-3, Medicamentos vários","Centro Hospitalar do Algarve, E. P. E. (510745997)","GENERIS FARMACEUTICA,SA (508107997)","299,70 €",03-12-2013,18-02-2013,317 dias,"Portugal, Faro, Faro",Artigo 258.º do Código dos Contratos Públicos,"","",,,,1110599,AD432/2013 - Medicamentos Fluvoxamina,
"Medicamentos Carbamazepina, Rivastigmina",Ao abrigo de acordo-quadro (art.º 258.º),Aquisição de bens móveis,"33690000-3, Medicamentos vários","Centro Hospitalar do Algarve, E. P. E. (510745997)","Novartis Farma - Produtos Farmacêuticos, S.A. (500063524)","720,33 €",03-12-2013,11-02-2013,324 dias,"Portugal, Faro, Faro",Artigo 258.º do Código dos Contratos Públicos,"","",,,,1110585,AD433/2013 - Medicamentos Carbamazepina Rivastigmina,
"Medicamentos Amitriptilina + Perfenazina , felbamato, Mianserina",Ao abrigo de acordo-quadro (art.º 258.º),Aquisição de bens móveis,"33690000-3, Medicamentos vários","Centro Hospitalar do Algarve, E. P. E. (510745997)","MERCK SHARP & DHOME,LDA. (500191360)","3.011,16 €",03-12-2013,18-02-2013,317 dias,"Portugal, Faro, Faro",Artigo 258.º do Código dos Contratos Públicos,"","",,,,1110551,"AD434/2013 - Medicamentos Amtriptilina + Perfenazina, felbamato Mianserina",
Medicamentos Iodopovidona espuma,Ao abrigo de acordo-quadro (art.º 259.º),Aquisição de bens móveis,"33690000-3, Medicamentos vários","Centro Hospitalar do Algarve, E. P. E. (510745997)","Proclinica Equipamentos e Produtos clinicos, Lda. (500222665)","201,60 €",02-12-2013,02-12-2013,30 dias,"Portugal, Faro, Faro",Artigo 259.º do Código dos Contratos Públicos,"","",,,,1109393,AQ3154/2013 ; Medicamentos ; Iodopovidona espuma,
Medicamentos Amiodarona,Ao abrigo de acordo-quadro (art.º 259.º),Aquisição de bens móveis,"33690000-3, Medicamentos vários","Centro Hospitalar do Algarve, E. P. E. (510745997)","HIKMA FARMACEUTICA,LDA (502266791)","419,58 €",02-12-2013,02-12-2013,30 dias,"Portugal, Faro, Faro",Artigo 259.º do Código dos Contratos Públicos,"","",,,,1109384,AQ3149/2013 ; Medicamentos Amiodarona,
Medicamentos Buprenorfina,Ao abrigo de acordo-quadro (art.º 259.º),Aquisição de bens móveis,"33690000-3, Medicamentos vários","Centro Hospitalar do Algarve, E. P. E. (510745997)","GRUNENTHAL, S.A. (500101965)","231,20 €",02-12-2013,02-12-2013,30 dias,"Portugal, Faro, Faro",Artigo 259.º do Código dos Contratos Públicos,"","",,,,1109365,AQ3164/2013 ; Medicamentos Buprenorfina,
Medicamentos Meropenem 1000 mg,Ao abrigo de acordo-quadro (art.º 259.º),Aquisição de bens móveis,"33690000-3, Medicamentos vários","Centro Hospitalar do Algarve, E. P. E. (510745997)","HIKMA FARMACEUTICA,LDA (502266791)","12.270,00 €",02-12-2013,02-12-2013,30 dias,"Portugal, Faro, Faro",Artigo 259.º do Código dos Contratos Públicos,"","",,,,1109337,AQ3166/2013 - Medicamentos Meropenem 1000 mg,
Medicamentos Hidroxizina 25 mg,Ajuste Direto Regime Geral,Aquisição de bens móveis,"33690000-3, Medicamentos vários","Centro Hospitalar do Algarve, E. P. E. (510745997)","UCB Pharma Produtos Farmacêuticos, Lda. (500291322)","132,80 €",02-12-2013,02-12-2013,30 dias,"Portugal, Faro, Faro",Artigo 258.º do Código dos Contratos Públicos,"","",,,,Não aplicável.,Não aplicável.,
Medicamentos Amitriptilina (cloridrato),Ao abrigo de acordo-quadro (art.º 258.º),Aquisição de bens móveis,"33690000-3, Medicamentos vários","Centro Hospitalar do Algarve, E. P. E. (510745997)","WYNN Industrial Pharma, S.A (508957486)","104,02 €",02-12-2013,22-02-2013,313 dias,"Portugal, Faro, Faro",Artigo 258.º do Código dos Contratos Públicos,"","",,,,1109228,AD435/2013 - Medicamentos Amitriptilina (cloridrato),
Medicamentos Ácido Valproico,Ao abrigo de acordo-quadro (art.º 258.º),Aquisição de bens móveis,"33690000-3, Medicamentos vários","Centro Hospitalar do Algarve, E. P. E. (510745997)","Tecnifar Industria Técnica Farmacêutica, SA (500280436)","701,82 €",02-12-2013,22-02-2013,313 dias,"Portugal, Faro, Faro",Artigo 258.º do Código dos Contratos Públicos,"","",,,,1109201,AD436/2013 - Medicamentos Acido valproico,
Medicamentos Rivaroxabano 10 mg,Ao abrigo de acordo-quadro (art.º 258.º),Aquisição de bens móveis,"33690000-3, Medicamentos vários","Centro Hospitalar do Algarve, E. P. E. (510745997)","Bayer Portugal, SA (500043256)","245,00 €",02-12-2013,18-02-2013,317 dias,"Portugal, Faro, Faro",Artigo 258.º do Código dos Contratos Públicos,"","",,,,1109179,AD508/2013 - Medicamentos Rivaroxabano 10 mg,
Medicamentos Dabigatrano Etexilato,Ao abrigo de acordo-quadro (art.º 258.º),Aquisição de bens móveis,"33690000-3, Medicamentos vários","Centro Hospitalar do Algarve, E. P. E. (510745997)","Unilfarma União Internacional de Laboratório Farmacêutico, Lda. (500293023)","1.595,28 €",02-12-2013,11-02-2013,324 dias,"Portugal, Faro, Faro",Artigo 258.º do Código dos Contratos Públicos,"","",,,,1109141,AD509/2013 - Medicamentos Dabigatrano Etexilato,
Medicamentos Rivaroxabano,Ajuste Direto Regime Geral,Aquisição de bens móveis,"33690000-3, Medicamentos vários","Centro Hospitalar do Algarve, E. P. E. (510745997)",Bayer Portugal SA (500043256),"1.176,00 €",02-12-2013,11-02-2013,324 dias,"Portugal, Faro, Faro","Artigo 24.º, n.º 1, alínea e) do Código dos Contratos Públicos","","",,,,Não aplicável.,Não aplicável.,
Medicamentos Betametasona,Ao abrigo de acordo-quadro (art.º 258.º),Aquisição de bens móveis,"33690000-3, Medicamentos vários","Centro Hospitalar do Algarve, E. P. E. (510745997)",Merck Sharp & Dohme Lda (500191360),"2.289,00 €",02-12-2013,18-02-2013,317 dias,"Portugal, Faro, Faro",Artigo 258.º do Código dos Contratos Públicos,"","",,,,1109101,AD633/2013 - Medicamentos Betametasona,
Medicamentos Doxorrubicina,Ao abrigo de acordo-quadro (art.º 259.º),Aquisição de bens móveis,"33690000-3, Medicamentos vários","Centro Hospitalar do Algarve, E. P. E. (510745997)",Medac  Sucursal em Portugal (980369959),"1.755,00 €",02-12-2013,26-04-2013,250 dias,"Portugal, Faro, Faro",Artigo 259.º do Código dos Contratos Públicos,"","",,,,1109059,AQ739/2013 - Medicamentos Doxorrubicina,
Material a aplicar ao abrigo do Contrato de Manutenção,Ajuste Direto Regime Geral,Aquisição de bens móveis,"44423000-1, Artigos diversos","Centro Hospitalar do Algarve, E. P. E. (510745997)","Turbomar, Lda. (500290946)","2.656,77 €",02-12-2013,28-10-2013,30 dias,"Portugal, Faro, Portimão","Artigo 24.º, n.º 1, alínea e) do Código dos Contratos Públicos",31-12-2013,"2.656,77 €",,,,Não aplicável.,Não aplicável.,
AS 3157/2013 Medicamentos  - Fingolimod 0.5mg cáps.,Ajuste Direto Regime Geral,Aquisição de bens móveis,"33690000-3, Medicamentos vários","Centro Hospitalar do Algarve, E. P. E. (510745997)","Novartis Farma - Produtos Farmacêuticos, SA (500063524)","11.539,01 €",02-12-2013,29-11-2013,32 dias,"Portugal, Faro, Faro","Artigo 24.º, n.º 1, alínea e) do Código dos Contratos Públicos","","",,,,Não aplicável.,Não aplicável.,
