Objeto do Contrato,Tipo de Procedimento,Tipo(s) de Contrato,CPVs,Entidade(s) Adjudicante(s),Entidade(s) Adjudicatária(s),Preço Contratual,Data de Publicação,Data de Celebração do Contrato,Prazo de Execução,Local de Execução,Fundamentação,Data de Fecho do Contrato,Preço Total Efetivo,Causas das Alterações ao Prazo,Causas das Alterações ao Preço,Estado,N.º registo do Acordo Quadro,Descrição do Acordo Quadro,Procedimento Centralizado
Aquisição de serviços - CDP Lamego/ Re-instalação de rx de Castelo de Paiva,Ajuste Direto Regime Geral,Aquisição de serviços,"50421000-2, Serviços de reparação e manutenção de equipamento médico","Administração Regional de Saúde do Norte, I. P. (503135593)",Serviço de Utilização Comum dos Hospitais ( S.U.CH.)  (500900469),"20.985,00 €",30-09-2016,12-09-2016,90 dias,"Portugal, Viseu, Lamego","Artigo 20.º, n.º 1, alínea a) do Código dos Contratos Públicos",13-12-2017,"20.985,00 €",Não se verificaram atrasos.,,,Não aplicável.,Não aplicável.,FALSE
Aquisição de serviços - DATACENTER/ Reforço de instalação elétrica,Ajuste Direto Regime Geral,Aquisição de serviços,"50711000-2, Serviços de reparação e manutenção de equipamento eléctrico em edifícios","Administração Regional de Saúde do Norte, I. P. (503135593)","Iten Solutions - Sistemas de Informação, S.A. (510728189)","24.100,51 €",30-09-2016,03-06-2016,90 dias,"Portugal, Porto, Porto","Artigo 20.º, n.º 1, alínea a) do Código dos Contratos Públicos",29-12-2016,"24.100,51 €",O atraso ocorrido deveu-se à necessidade de reforçar o pavimento e conjugar a obra com a interrupção no serviço do Data Center.,,,Não aplicável.,Não aplicável.,FALSE
Obras de adaptação da casa das Macas - UCCI Peso da Régua,Ajuste Direto Regime Geral,Empreitadas de obras públicas,"45454000-4, Obras de reestruturação","Administração Regional de Saúde do Norte, I. P. (503135593)","Foris - Engenharia e Construção, Lda  (507603630)","4.798,00 €",22-09-2016,30-08-2016,20 dias,"Portugal, Vila Real, Peso da Régua","Artigo 19.º, alínea a) do Código dos Contratos Públicos","","4.798,00 €","Não se verificaram atrasos. Nos termos do n.º 2 do art.º 471.º do CCP, não se inclui na contagem o dia do evento.",,,Não aplicável.,Não aplicável.,FALSE
