Objeto do Contrato,Tipo de Procedimento,Tipo(s) de Contrato,CPVs,Entidade(s) Adjudicante(s),Entidade(s) Adjudicatária(s),Preço Contratual,Data de Publicação,Data de Celebração do Contrato,Prazo de Execução,Local de Execução,Fundamentação,Data de Fecho do Contrato,Preço Total Efetivo,Causas das Alterações ao Prazo,Causas das Alterações ao Preço,Estado,N.º registo do Acordo Quadro,Descrição do Acordo Quadro,Procedimento Centralizado
maca ( 77/2907/15),Ajuste Direto Regime Geral,Aquisição de bens móveis,"33192160-1, Macas","Centro Hospitalar do Algarve, E. P. E. (510745997)",Siemens SA  (500247480),"7.323,00 €",31-08-2015,26-08-2015,30 dias,"Portugal, Faro, Faro","Artigo 20.º, n.º 1, alínea a) do Código dos Contratos Públicos","","","","",,Não aplicável.,Não aplicável.,FALSE
Ajudas Tecnicas,Ajuste Direto Regime Geral,Aquisição de serviços,"98300000-6, Serviços diversos","Centro Hospitalar do Algarve, E. P. E. (510745997)",J.D.£M.J Opticas (501857893),"348,45 €",31-08-2015,05-09-2014,90 dias,"Portugal, Faro, Faro","Artigo 20.º, n.º 1, alínea a) do Código dos Contratos Públicos","","","","",,Não aplicável.,Não aplicável.,FALSE
Ajudas Tecnicas,Ajuste Direto Regime Geral,Aquisição de serviços,"85111400-4, Serviços hospitalares de reabilitação","Centro Hospitalar do Algarve, E. P. E. (510745997)",Variprot (510032923),"2.401,50 €",31-08-2015,05-09-2014,90 dias,"Portugal, Faro, Faro","Artigo 20.º, n.º 1, alínea a) do Código dos Contratos Públicos","","","","",,Não aplicável.,Não aplicável.,FALSE
Ajudas Tecnicas,Ajuste Direto Regime Geral,Aquisição de serviços,"85111400-4, Serviços hospitalares de reabilitação","Centro Hospitalar do Algarve, E. P. E. (510745997)",Portopedico (509829953),"6.833,79 €",31-08-2015,05-09-2014,90 dias,"Portugal, Faro, Faro","Artigo 20.º, n.º 1, alínea a) do Código dos Contratos Públicos","","","","",,Não aplicável.,Não aplicável.,FALSE
Ajudas Tecnicas,Ajuste Direto Regime Geral,Aquisição de serviços,"85111400-4, Serviços hospitalares de reabilitação","Centro Hospitalar do Algarve, E. P. E. (510745997)",Laboratorios Dentarios (502276878),"270,00 €",31-08-2015,05-09-2014,90 dias,"Portugal, Faro, Faro","Artigo 20.º, n.º 1, alínea a) do Código dos Contratos Públicos","","","","",,Não aplicável.,Não aplicável.,FALSE
Ajudas Tecnicas,Ajuste Direto Regime Geral,Aquisição de serviços,"85111400-4, Serviços hospitalares de reabilitação","Centro Hospitalar do Algarve, E. P. E. (510745997)",C.Ort.Phoenix (500061173),"7.888,31 €",31-08-2015,05-09-2014,90 dias,"Portugal, Faro, Faro","Artigo 20.º, n.º 1, alínea a) do Código dos Contratos Públicos","","","","",,Não aplicável.,Não aplicável.,FALSE
Ajudas Tecnicas,Ajuste Direto Regime Geral,Aquisição de serviços,"85111400-4, Serviços hospitalares de reabilitação","Centro Hospitalar do Algarve, E. P. E. (510745997)",C.Ort.Sul (504836641),"28.181,00 €",31-08-2015,13-06-2014,90 dias,"Portugal, Faro, Faro","Artigo 20.º, n.º 1, alínea a) do Código dos Contratos Públicos","","","","",,Não aplicável.,Não aplicável.,FALSE
Aquisição de campos Operatórios,Ao abrigo de acordo-quadro (art.º 259.º),Aquisição de bens móveis,"33140000-3, Material médico de consumo","Centro Hospitalar do Algarve, E. P. E. (510745997)","PERGUT PORTUGAL,LDA. (501799729)","26,82 €",31-08-2015,26-08-2015,127 dias,"Portugal, Faro, Lagos<BR/>Portugal, Faro, Faro<BR/>Portugal, Faro, Portimão","Artigo 20.º, n.º 1, alínea b) do Código dos Contratos Públicos","","","","",,537931,"CONCURSO PÚBLICO PARA A CELEBRAÇÃO DE CONTRATOS PÚBLICOS DE APROVISIONAMENTO PARA A ÁREA DA SAÚDE, COM VISTA AO FORNECIMENTO DE MATERIAL DISPOSABLE DE BLOCO OPERATÓRIO - PARTE 2, ÀS INSTITUIÇÕES E SERVIÇOS DO SERVIÇO NACIONAL DE SAÚDE  ",FALSE
Serviços médicos de urgência geral e básica,Ajuste Direto Regime Geral,Aquisição de serviços,"85121100-4, Serviços de médicos de clínica geral","Centro Hospitalar do Algarve, E. P. E. (510745997)","Acosta, Perilla & Pizon - Serviços de Saúde, Lda (513221034)","31.200,00 €",31-08-2015,21-08-2015,184 dias,"Portugal, Faro, Vila Real Sto Antonio<BR/>Portugal, Faro, Albufeira<BR/>Portugal, Faro, Portimão<BR/>Portugal, Faro, Faro<BR/>Portugal, Faro, Loulé<BR/>Portugal, Faro, Lagos","Artigo 24.º, n.º 1, alínea c) do Código dos Contratos Públicos",31-12-2015,"9.000,00 €","","O valor inicial do Contrato teve por base as necessidades estimadas para o período de 1 Julho de 2015 a 31 Dezembro de 2015, o valor final reflecte as necessidades efectivas.",,Não aplicável.,Não aplicável.,FALSE
Aquisição de campos Operatórios,Ao abrigo de acordo-quadro (art.º 259.º),Aquisição de bens móveis,"33140000-3, Material médico de consumo","Centro Hospitalar do Algarve, E. P. E. (510745997)","PAUL HARTMANN, LDA. (502271728)","191,40 €",31-08-2015,26-08-2015,127 dias,"Portugal, Faro, Faro<BR/>Portugal, Faro, Portimão<BR/>Portugal, Faro, Lagos","Artigo 20.º, n.º 1, alínea b) do Código dos Contratos Públicos","","","","",,537931,"CONCURSO PÚBLICO PARA A CELEBRAÇÃO DE CONTRATOS PÚBLICOS DE APROVISIONAMENTO PARA A ÁREA DA SAÚDE, COM VISTA AO FORNECIMENTO DE MATERIAL DISPOSABLE DE BLOCO OPERATÓRIO - PARTE 2, ÀS INSTITUIÇÕES E SERVIÇOS DO SERVIÇO NACIONAL DE SAÚDE  ",FALSE
21/400/2015 - Medicamentos,Concurso público,Aquisição de bens móveis,"33690000-3, Medicamentos vários","Centro Hospitalar do Algarve, E. P. E. (510745997)","Overpharma, Lda (505792362), Labesfal, SA (501169580), Profarin (500223238), Grünenthal, SA (500101965), Leo Farmacêutica, Lda (503932680), Fresenius Kabi Pharma (503070220), Lundbeck Portugal, Lda (503573922), Sidefarma (500717419)","102.372,00 €",31-08-2015,20-03-2015,285 dias,"Portugal, Faro, Faro","Artigo 20.º, n.º 1, alínea b) do Código dos Contratos Públicos","","","","",,Não aplicável.,Não aplicável.,FALSE
Ajudas Tecnicas,Ajuste Direto Regime Geral,Aquisição de serviços,"85111400-4, Serviços hospitalares de reabilitação","Centro Hospitalar do Algarve, E. P. E. (510745997)",C.Ort.Sul (504836641),"66.403,52 €",31-08-2015,28-02-2014,90 dias,"Portugal, Faro, Faro<BR/>Portugal","Artigo 20.º, n.º 1, alínea a) do Código dos Contratos Públicos","","","","",,Não aplicável.,Não aplicável.,FALSE
Ajudas Tecnicas,Ajuste Direto Regime Geral,Aquisição de serviços,"85111400-4, Serviços hospitalares de reabilitação","Centro Hospitalar do Algarve, E. P. E. (510745997)",Portopedico (509829953),"16.610,10 €",31-08-2015,27-02-2014,90 dias,"Portugal, Faro, Faro","Artigo 20.º, n.º 1, alínea a) do Código dos Contratos Públicos","","","","",,Não aplicável.,Não aplicável.,FALSE
Ajudas Tecnicas,Ajuste Direto Regime Geral,Aquisição de serviços,"85111400-4, Serviços hospitalares de reabilitação","Centro Hospitalar do Algarve, E. P. E. (510745997)",C.Ort.Phoenix (500061173),"7.348,47 €",31-08-2015,26-02-2014,90 dias,"Portugal, Faro, Faro","Artigo 20.º, n.º 1, alínea a) do Código dos Contratos Públicos","","","","",,Não aplicável.,Não aplicável.,FALSE
Ajudas Tecnicas,Ajuste Direto Regime Geral,Aquisição de serviços,"85111400-4, Serviços hospitalares de reabilitação","Centro Hospitalar do Algarve, E. P. E. (510745997)",Variprot (510032923),"18.016,45 €",31-08-2015,27-02-2014,90 dias,"Portugal, Faro, Faro","Artigo 20.º, n.º 1, alínea a) do Código dos Contratos Públicos","","","","",,Não aplicável.,Não aplicável.,FALSE
Aquisição de campos Operatórios,Ao abrigo de acordo-quadro (art.º 259.º),Aquisição de bens móveis,"33140000-3, Material médico de consumo","Centro Hospitalar do Algarve, E. P. E. (510745997)","PAUL HARTMANN, LDA. (502271728)","191,40 €",28-08-2015,26-08-2015,127 dias,"Portugal, Faro, Lagos<BR/>Portugal<BR/>Portugal, Faro, Faro<BR/>Portugal, Faro, Portimão","Artigo 20.º, n.º 1, alínea b) do Código dos Contratos Públicos","","","","",,537931,"CONCURSO PÚBLICO PARA A CELEBRAÇÃO DE CONTRATOS PÚBLICOS DE APROVISIONAMENTO PARA A ÁREA DA SAÚDE, COM VISTA AO FORNECIMENTO DE MATERIAL DISPOSABLE DE BLOCO OPERATÓRIO - PARTE 2, ÀS INSTITUIÇÕES E SERVIÇOS DO SERVIÇO NACIONAL DE SAÚDE  ",FALSE
Ajudas Tecnicas,Ajuste Direto Regime Geral,Aquisição de serviços,"85111400-4, Serviços hospitalares de reabilitação","Centro Hospitalar do Algarve, E. P. E. (510745997)",Portopedico (509829953),"10.957,40 €",28-08-2015,14-10-2014,90 dias,"Portugal, Faro, Faro","Artigo 20.º, n.º 1, alínea a) do Código dos Contratos Públicos","","","","",,Não aplicável.,Não aplicável.,FALSE
21/399/2015 - Vários Medicamentos,Concurso público,Aquisição de bens móveis,"33690000-3, Medicamentos vários","Centro Hospitalar do Algarve, E. P. E. (510745997)","Hospira Portugal, Lda (502918098), Labesfal,SA (501169580), Lundbeck Portugal, Lda (503573922), Novo Nordisk, Lda (501485210), Overpharma (505792362), Farmoz, SA (501505334), Alcon Portugal (501251685), Roche Farmacêutica & Química, Lda (500233810), Bayer Portugal, SA (500043256), B. Braun Medical, Lda (501506543), Meda Parma, SA (500082090)","27.891,30 €",28-08-2015,10-02-2015,353 dias,"Portugal, Faro, Faro","Artigo 20.º, n.º 1, alínea b) do Código dos Contratos Públicos","","","","",,Não aplicável.,Não aplicável.,FALSE
Ajudas Tecnicas,Ajuste Direto Regime Geral,Aquisição de serviços,"85111400-4, Serviços hospitalares de reabilitação","Centro Hospitalar do Algarve, E. P. E. (510745997)",C.ort.Phoenix (500061173),"7.769,43 €",28-08-2015,13-10-2014,90 dias,"Portugal, Faro, Faro","Artigo 20.º, n.º 1, alínea a) do Código dos Contratos Públicos","","","","",,Não aplicável.,Não aplicável.,FALSE
Proc. 67/2684/2015- Fornecimento de Ampola para RX Multix TOP,Ajuste Direto Regime Geral,Aquisição de bens móveis,"33111600-7, Aparelhos de radiografia","Centro Hospitalar do Algarve, E. P. E. (510745997)","Siemens,SA (500247480)","20.990,00 €",28-08-2015,22-07-2015,10 dias,"Portugal, Faro, Faro","Artigo 24.º, n.º 1, alínea e) do Código dos Contratos Públicos","","","","",,Não aplicável.,Não aplicável.,FALSE
Proc. 58/2573/2015 - Deslocações e Estadas ( Formação-Auditoria),Ajuste Direto Regime Geral,Aquisição de serviços,"60120000-5, Serviços de táxis","Centro Hospitalar do Algarve, E. P. E. (510745997)","Taxis Emilia & Guedes,Lda (505434997)","5,85 €",28-08-2015,17-07-2015,5 dias,"Portugal, Faro, Faro","Artigo 24.º, n.º 1, alínea e) do Código dos Contratos Públicos","","","","",,Não aplicável.,Não aplicável.,FALSE
Proc. 58/2573/2015 - Deslocações e Estadas ( Formação-Auditoria),Ajuste Direto Regime Geral,Aquisição de serviços,"55110000-4, Serviços de alojamento em hotéis","Centro Hospitalar do Algarve, E. P. E. (510745997)",Hotel D. Sancho I (500547599),"48,11 €",28-08-2015,17-07-2015,5 dias,"Portugal, Faro, Faro","Artigo 24.º, n.º 1, alínea e) do Código dos Contratos Públicos","","","","",,Não aplicável.,Não aplicável.,FALSE
Proc. 58/2573/2015 - Deslocações e Estadas ( Formação-Auditoria),Ajuste Direto Regime Geral,Aquisição de serviços,"60210000-3, Serviços de transporte público ferroviário","Centro Hospitalar do Algarve, E. P. E. (510745997)","Caminhos de Ferro Portugueses,EP (500498601)","37,26 €",28-08-2015,17-07-2015,5 dias,"Portugal, Faro, Faro","Artigo 24.º, n.º 1, alínea e) do Código dos Contratos Públicos","","","","",,Não aplicável.,Não aplicável.,FALSE
Proc. 58/2573/2015 - Deslocações e Estadas ( Formação-Auditoria),Ajuste Direto Regime Geral,Aquisição de serviços,"60120000-5, Serviços de táxis","Centro Hospitalar do Algarve, E. P. E. (510745997)","Auto Taxis O Salvador do Bairro,Lda (500516553)","5,66 €",28-08-2015,17-07-2015,5 dias,"Portugal, Faro, Faro","Artigo 24.º, n.º 1, alínea e) do Código dos Contratos Públicos","","","","",,Não aplicável.,Não aplicável.,FALSE
Ajudas Tecnicas,Ajuste Direto Regime Geral,Aquisição de serviços,"85111400-4, Serviços hospitalares de reabilitação","Centro Hospitalar do Algarve, E. P. E. (510745997)",Variprot (510032923),"18.021,60 €",28-08-2015,26-05-2014,90 dias,"Portugal, Faro, Faro","Artigo 20.º, n.º 1, alínea a) do Código dos Contratos Públicos","","","","",,Não aplicável.,Não aplicável.,FALSE
Ajudas Tecnicas,Ajuste Direto Regime Geral,Aquisição de serviços,"85121240-7, Serviços de otorrinolaringologia ou audiologia","Centro Hospitalar do Algarve, E. P. E. (510745997)",Amplifon (503325872),"5.100,00 €",28-08-2015,07-03-2014,90 dias,"Portugal, Faro, Faro","Artigo 20.º, n.º 1, alínea a) do Código dos Contratos Públicos","","","","",,Não aplicável.,Não aplicável.,FALSE
Ajudas Tecnicas,Ajuste Direto Regime Geral,Aquisição de serviços,"85111400-4, Serviços hospitalares de reabilitação","Centro Hospitalar do Algarve, E. P. E. (510745997)",Widex (501882766),"6.032,94 €",28-08-2015,07-03-2014,90 dias,"Portugal, Faro, Faro","Artigo 20.º, n.º 1, alínea a) do Código dos Contratos Públicos","","","","",,Não aplicável.,Não aplicável.,FALSE
Ajudas Tecnicas,Ajuste Direto Regime Geral,Aquisição de serviços,"85111400-4, Serviços hospitalares de reabilitação","Centro Hospitalar do Algarve, E. P. E. (510745997)",Rehactivar (513252967),"312,00 €",28-08-2015,14-07-2015,90 dias,"Portugal, Faro, Faro","Artigo 20.º, n.º 1, alínea a) do Código dos Contratos Públicos","","","","",,Não aplicável.,Não aplicável.,FALSE
Ajudas Tecnicas,Ajuste Direto Regime Geral,Aquisição de serviços,"85111400-4, Serviços hospitalares de reabilitação","Centro Hospitalar do Algarve, E. P. E. (510745997)",Portopedico (509829953),"5.215,00 €",28-08-2015,14-07-2015,90 dias,"Portugal, Faro, Faro","Artigo 20.º, n.º 1, alínea a) do Código dos Contratos Públicos","","","","",,Não aplicável.,Não aplicável.,FALSE
Ajudas Tecnicas,Ajuste Direto Regime Geral,Aquisição de serviços,"85111400-4, Serviços hospitalares de reabilitação","Centro Hospitalar do Algarve, E. P. E. (510745997)",Laboratorios Dentarios (502276878),"215,00 €",28-08-2015,14-07-2015,90 dias,"Portugal, Faro, Faro","Artigo 20.º, n.º 1, alínea a) do Código dos Contratos Públicos","","","","",,Não aplicável.,Não aplicável.,FALSE
Ajudas Tecnicas,Ajuste Direto Regime Geral,Aquisição de serviços,"85111400-4, Serviços hospitalares de reabilitação","Centro Hospitalar do Algarve, E. P. E. (510745997)",C.Ort.Sul (504836641),"13.044,00 €",28-08-2015,14-07-2015,90 dias,"Portugal<BR/>Portugal, Faro, Faro","Artigo 20.º, n.º 1, alínea a) do Código dos Contratos Públicos","","","","",,Não aplicável.,Não aplicável.,FALSE
Ajudas Tecnicas,Ajuste Direto Regime Geral,Aquisição de serviços,"85111400-4, Serviços hospitalares de reabilitação","Centro Hospitalar do Algarve, E. P. E. (510745997)",C.Ort.Phoenix (500061173),"430,00 €",28-08-2015,14-07-2015,90 dias,"Portugal, Faro, Faro","Artigo 20.º, n.º 1, alínea a) do Código dos Contratos Públicos","","","","",,Não aplicável.,Não aplicável.,FALSE
Ajudas Tecnicas,Ajuste Direto Regime Geral,Aquisição de serviços,"85111400-4, Serviços hospitalares de reabilitação","Centro Hospitalar do Algarve, E. P. E. (510745997)",Variprot (510032923),"26.286,15 €",28-08-2015,04-05-2015,90 dias,"Portugal, Faro, Faro","Artigo 20.º, n.º 1, alínea a) do Código dos Contratos Públicos","","","","",,Não aplicável.,Não aplicável.,FALSE
Ajudas Tecnicas,Ajuste Direto Regime Geral,Aquisição de serviços,"85111400-4, Serviços hospitalares de reabilitação","Centro Hospitalar do Algarve, E. P. E. (510745997)",Portopedico (509829953),"12.128,00 €",28-08-2015,04-05-2015,90 dias,"Portugal, Faro, Faro","Artigo 20.º, n.º 1, alínea a) do Código dos Contratos Públicos","","","","",,Não aplicável.,Não aplicável.,FALSE
Ajudas Tecnicas,Ajuste Direto Regime Geral,Aquisição de serviços,"85111400-4, Serviços hospitalares de reabilitação","Centro Hospitalar do Algarve, E. P. E. (510745997)",C.Ort.Sul (504836641),"7.439,00 €",28-08-2015,04-05-2015,90 dias,"Portugal, Faro, Faro","Artigo 20.º, n.º 1, alínea a) do Código dos Contratos Públicos","","","","",,Não aplicável.,Não aplicável.,FALSE
Ajudas Tecnicas,Ajuste Direto Regime Geral,Aquisição de serviços,"85111400-4, Serviços hospitalares de reabilitação","Centro Hospitalar do Algarve, E. P. E. (510745997)",C.Ort.Phoenix (500061173),"7.152,02 €",28-08-2015,04-05-2015,90 dias,"Portugal, Faro, Faro","Artigo 20.º, n.º 1, alínea a) do Código dos Contratos Públicos","","","","",,Não aplicável.,Não aplicável.,FALSE
Ajudas Tecnicas,Ajuste Direto Regime Geral,Aquisição de serviços,"85111400-4, Serviços hospitalares de reabilitação","Centro Hospitalar do Algarve, E. P. E. (510745997)",J.D.£M.J.Opticas (501857893),"44,20 €",28-08-2015,14-04-2015,90 dias,"Portugal, Faro, Faro","Artigo 20.º, n.º 1, alínea a) do Código dos Contratos Públicos","","","","",,Não aplicável.,Não aplicável.,FALSE
Macas ( 77/2773/15),Ajuste Direto Regime Geral,Aquisição de bens móveis,"33192160-1, Macas","Centro Hospitalar do Algarve, E. P. E. (510745997)",Imo - Ind Metalurgicas  (500136939),"13.900,00 €",28-08-2015,30-07-2015,30 dias,"Portugal, Faro, Portimão","Artigo 20.º, n.º 1, alínea a) do Código dos Contratos Públicos","","","","",,Não aplicável.,Não aplicável.,FALSE
Ajudas Tecnicas,Ajuste Direto Regime Geral,Aquisição de serviços,"85111400-4, Serviços hospitalares de reabilitação","Centro Hospitalar do Algarve, E. P. E. (510745997)",Variprot (510032923),"3.123,00 €",28-08-2015,14-04-2015,90 dias,"Portugal, Faro, Faro","Artigo 20.º, n.º 1, alínea a) do Código dos Contratos Públicos","","","","",,Não aplicável.,Não aplicável.,FALSE
Ajudas Tecnicas,Ajuste Direto Regime Geral,Aquisição de serviços,"85111400-4, Serviços hospitalares de reabilitação","Centro Hospitalar do Algarve, E. P. E. (510745997)",Portopedico (509829953),"50,00 €",28-08-2015,14-04-2015,90 dias,"Portugal, Faro, Faro","Artigo 20.º, n.º 1, alínea a) do Código dos Contratos Públicos","","","","",,Não aplicável.,Não aplicável.,FALSE
Ajudas tecnicas,Ajuste Direto Regime Geral,Aquisição de serviços,"85111400-4, Serviços hospitalares de reabilitação","Centro Hospitalar do Algarve, E. P. E. (510745997)",C.Ort.Sul (504836641),"6.469,00 €",28-08-2015,14-04-2015,90 dias,"Portugal, Faro, Faro","Artigo 20.º, n.º 1, alínea a) do Código dos Contratos Públicos","","","","",,Não aplicável.,Não aplicável.,FALSE
Ajudas Tecnicas,Ajuste Direto Regime Geral,Aquisição de serviços,"85111400-4, Serviços hospitalares de reabilitação","Centro Hospitalar do Algarve, E. P. E. (510745997)",C.Ort.Phoenix (500061173),"3.307,14 €",28-08-2015,15-04-2015,90 dias,"Portugal, Faro, Faro","Artigo 20.º, n.º 1, alínea a) do Código dos Contratos Públicos","","","","",,Não aplicável.,Não aplicável.,FALSE
72/2953/15 - Material p/Cirurgia de Protese Revisão Joelho,Ajuste Direto Regime Geral,Aquisição de bens móveis,"33183100-7, Implantes ortopédicos","Centro Hospitalar do Algarve, E. P. E. (510745997)",JOHNSON & JOHNSON PROD.PROF. (500153370),"8.350,00 €",28-08-2015,24-08-2015,5 dias,"Portugal, Faro, Faro<BR/>Portugal, Faro, Portimão","Artigo 20.º, n.º 1, alínea a) do Código dos Contratos Públicos","","","","",,Não aplicável.,Não aplicável.,FALSE
Videobroncofibroscopio ( 77/2789/15),Ajuste Direto Regime Geral,Aquisição de bens móveis,"33124100-6, Aparelhos para diagnóstico","Centro Hospitalar do Algarve, E. P. E. (510745997)",Olympus  Iberia  (980474710),"39.830,00 €",28-08-2015,11-08-2015,30 dias,"Portugal, Faro, Faro","Artigo 20.º, n.º 1, alínea a) do Código dos Contratos Públicos","","","","",,Não aplicável.,Não aplicável.,FALSE
Proc. 77/2979/15- Aquisição de Camara HD3 com Acoplador,Ajuste Direto Regime Geral,Aquisição de bens móveis,"33168000-5, Aparelhos para endoscopia e endocirurgia","Centro Hospitalar do Algarve, E. P. E. (510745997)","B.Braun Medical, Lda (501506543)","9.950,00 €",28-08-2015,26-08-2015,15 dias,"Portugal, Faro, Faro","Artigo 20.º, n.º 1, alínea a) do Código dos Contratos Públicos","","","","",,Não aplicável.,Não aplicável.,FALSE
Monitor desfibrilhador  ( 77/2844/15),Ajuste Direto Regime Geral,Aquisição de bens móveis,"33182100-0, Desfibrilhador","Centro Hospitalar do Algarve, E. P. E. (510745997)",Dimorasept (510258786),"10.385,00 €",28-08-2015,13-08-2015,30 dias,"Portugal, Faro, Faro","Artigo 20.º, n.º 1, alínea a) do Código dos Contratos Públicos","","","","",,Não aplicável.,Não aplicável.,FALSE
72/2974/15 - Material gastro,Ajuste Direto Regime Geral,Aquisição de bens móveis,"33190000-8, Dispositivos e produtos médicos variados","Centro Hospitalar do Algarve, E. P. E. (510745997)",ENDOTÉCNICA - Soluções Hospitalares  (503818348),"795,00 €",27-08-2015,27-08-2015,5 dias,"Portugal, Faro, Faro<BR/>Portugal, Faro, Portimão","Artigo 20.º, n.º 1, alínea a) do Código dos Contratos Públicos","","","","",,Não aplicável.,Não aplicável.,FALSE
72/2974/15 - Material Gastro,Ajuste Direto Regime Geral,Aquisição de bens móveis,"33190000-8, Dispositivos e produtos médicos variados","Centro Hospitalar do Algarve, E. P. E. (510745997)","ALVES & CA(IRMAOS),LDA. (500310068)","21,40 €",27-08-2015,27-08-2015,5 dias,"Portugal, Faro, Faro<BR/>Portugal, Faro, Portimão","Artigo 20.º, n.º 1, alínea a) do Código dos Contratos Públicos","","","","",,Não aplicável.,Não aplicável.,FALSE
Ajudas tecnicas,Ajuste Direto Regime Geral,Aquisição de serviços,"85111400-4, Serviços hospitalares de reabilitação","Centro Hospitalar do Algarve, E. P. E. (510745997)",Variprot (510032923),"3.797,00 €",27-08-2015,31-03-2015,90 dias,"Portugal, Faro, Faro","Artigo 20.º, n.º 1, alínea a) do Código dos Contratos Públicos","","","","",,Não aplicável.,Não aplicável.,FALSE
Ajudas tecnicas,Ajuste Direto Regime Geral,Aquisição de serviços,"85111400-4, Serviços hospitalares de reabilitação","Centro Hospitalar do Algarve, E. P. E. (510745997)",Portopedico (509829953),"4.078,00 €",27-08-2015,31-03-2015,90 dias,"Portugal, Faro, Faro","Artigo 20.º, n.º 1, alínea a) do Código dos Contratos Públicos","","","","",,Não aplicável.,Não aplicável.,FALSE
Ajudas tecnicas,Ajuste Direto Regime Geral,Aquisição de serviços,"85111400-4, Serviços hospitalares de reabilitação","Centro Hospitalar do Algarve, E. P. E. (510745997)",C.Ort.Sul (504836641),"7.894,65 €",27-08-2015,31-03-2015,90 dias,"Portugal, Faro, Faro","Artigo 20.º, n.º 1, alínea a) do Código dos Contratos Públicos","","","","",,Não aplicável.,Não aplicável.,FALSE
Ajudas tecnicas,Ajuste Direto Regime Geral,Aquisição de serviços,"85111400-4, Serviços hospitalares de reabilitação","Centro Hospitalar do Algarve, E. P. E. (510745997)",C.Ort.Phoenix (500061173),"7.340,00 €",27-08-2015,31-03-2015,90 dias,"Portugal, Faro, Faro","Artigo 20.º, n.º 1, alínea a) do Código dos Contratos Públicos","","","","",,Não aplicável.,Não aplicável.,FALSE
ajudas tecnicas,Ajuste Direto Regime Geral,Aquisição de serviços,"85111400-4, Serviços hospitalares de reabilitação","Centro Hospitalar do Algarve, E. P. E. (510745997)",Widex (501882766),"1.584,91 €",27-08-2015,13-03-2015,90 dias,"Portugal, Faro, Faro","Artigo 20.º, n.º 1, alínea a) do Código dos Contratos Públicos","","","","",,Não aplicável.,Não aplicável.,FALSE
ajudas tecnicas,Ajuste Direto Regime Geral,Aquisição de serviços,"85111400-4, Serviços hospitalares de reabilitação","Centro Hospitalar do Algarve, E. P. E. (510745997)",C.Ort. Sul (504836641),"4.320,00 €",27-08-2015,13-03-2015,90 dias,"Portugal, Faro, Faro","Artigo 20.º, n.º 1, alínea a) do Código dos Contratos Públicos","","","","",,Não aplicável.,Não aplicável.,FALSE
Ajudas Tecnicas,Ajuste Direto Regime Geral,Aquisição de serviços,"85111400-4, Serviços hospitalares de reabilitação","Centro Hospitalar do Algarve, E. P. E. (510745997)",C.Ort.Phoenix (500061173),"540,00 €",27-08-2015,13-03-2015,90 dias,"Portugal, Faro, Faro","Artigo 20.º, n.º 1, alínea a) do Código dos Contratos Públicos","","","","",,Não aplicável.,Não aplicável.,FALSE
Ajudas Tecnicas,Ajuste Direto Regime Geral,Aquisição de serviços,"85111400-4, Serviços hospitalares de reabilitação","Centro Hospitalar do Algarve, E. P. E. (510745997)",Variprot (510032923),"3.919,50 €",27-08-2015,18-03-2015,90 dias,"Portugal, Faro, Faro","Artigo 20.º, n.º 1, alínea a) do Código dos Contratos Públicos","","","","",,Não aplicável.,Não aplicável.,FALSE
Ajudas Tecnicas,Ajuste Direto Regime Geral,Aquisição de serviços,"85111400-4, Serviços hospitalares de reabilitação","Centro Hospitalar do Algarve, E. P. E. (510745997)",Portopédico (509829953),"1.180,00 €",27-08-2015,18-03-2015,90 dias,"Portugal, Faro, Faro","Artigo 20.º, n.º 1, alínea a) do Código dos Contratos Públicos","","","","",,Não aplicável.,Não aplicável.,FALSE
Ajudas Tecnicas,Ajuste Direto Regime Geral,Aquisição de serviços,"85111400-4, Serviços hospitalares de reabilitação","Centro Hospitalar do Algarve, E. P. E. (510745997)",C. Ort. Phoenix (500061173),"1.848,92 €",27-08-2015,18-03-2015,90 dias,"Portugal, Faro, Faro","Artigo 20.º, n.º 1, alínea a) do Código dos Contratos Públicos","","","","",,Não aplicável.,Não aplicável.,FALSE
Ajudas Tecnicas,Ajuste Direto Regime Geral,Aquisição de serviços,"85111400-4, Serviços hospitalares de reabilitação","Centro Hospitalar do Algarve, E. P. E. (510745997)",C. Ort. do Sul (504836641),"7.352,00 €",27-08-2015,18-08-2015,90 dias,"Portugal, Faro, Faro","Artigo 20.º, n.º 1, alínea a) do Código dos Contratos Públicos","","","","",,Não aplicável.,Não aplicável.,FALSE
21/204/2015 - Nutrição Artificial,Concurso público,Aquisição de bens móveis,"33690000-3, Medicamentos vários","Centro Hospitalar do Algarve, E. P. E. (510745997)","B Braun Medical, Lda (501506543), Baxter Médico Farmacêutica, Lda (503347345), Nestlé - Portugal, SA (500201307), Nutricia, Lda (507558286)","198.969,76 €",27-08-2015,30-01-2015,335 dias,"Portugal, Faro, Faro","Artigo 20.º, n.º 1, alínea b) do Código dos Contratos Públicos","","","","",,Não aplicável.,Não aplicável.,FALSE
Aquisição de Aventais de Plastico,Ao abrigo de acordo-quadro (art.º 259.º),Aquisição de bens móveis,"33140000-3, Material médico de consumo","Centro Hospitalar do Algarve, E. P. E. (510745997)","EZEQUIEL PANAO JORGE,LDA (501412727)","3.066,00 €",26-08-2015,26-08-2015,126 dias,"Portugal, Faro, Faro<BR/>Portugal, Faro, Lagos<BR/>Portugal, Faro, Portimão","Artigo 20.º, n.º 1, alínea b) do Código dos Contratos Públicos","","","","",,451780,CP 2012/24 - MATERAIL DISPOSABLE DE BLOCO OPERATORIO,FALSE
61/2612/2015 - Medicamentos - Peróxido de Hidrogénio 58%,Ajuste Direto Regime Geral,Aquisição de bens móveis,"33690000-3, Medicamentos vários","Centro Hospitalar do Algarve, E. P. E. (510745997)",johnson & Johnson (500153370),"9.848,00 €",26-08-2015,29-07-2015,157 dias,"Portugal, Faro, Faro","Artigo 24.º, n.º 1, alínea e) do Código dos Contratos Públicos","","","","",,Não aplicável.,Não aplicável.,FALSE
61/2928/2015 - Medicamentos Cetorolac 1 mg/1 ml,Ajuste Direto Regime Geral,Aquisição de bens móveis,"33690000-3, Medicamentos vários","Centro Hospitalar do Algarve, E. P. E. (510745997)","Roche farmacêutica, e Quimica, lda. (500233810)","425,50 €",26-08-2015,25-08-2015,128 dias,"Portugal, Faro, Faro","Artigo 24.º, n.º 1, alínea e) do Código dos Contratos Públicos","","","","",,Não aplicável.,Não aplicável.,FALSE
61/2930/2015 - Medicamentos - Sulpirida 200 mg,Ajuste Direto Regime Geral,Aquisição de bens móveis,"33690000-3, Medicamentos vários","Centro Hospitalar do Algarve, E. P. E. (510745997)","Sanofi-Produtos Farmacêuticos, Lda. (500134960)","91,08 €",26-08-2015,25-08-2015,128 dias,"Portugal, Faro, Faro","Artigo 24.º, n.º 1, alínea e) do Código dos Contratos Públicos","","","","",,Não aplicável.,Não aplicável.,FALSE
61/2931/2015 - Medicamentos - Toxina botulinica A 100 U,Ajuste Direto Regime Geral,Aquisição de bens móveis,"33690000-3, Medicamentos vários","Centro Hospitalar do Algarve, E. P. E. (510745997)",Profarin (500223238),"9.760,00 €",26-08-2015,25-08-2015,128 dias,"Portugal, Faro, Faro","Artigo 24.º, n.º 1, alínea e) do Código dos Contratos Públicos","","","","",,Não aplicável.,Não aplicável.,FALSE
"Serviços médicos Urgência Geral e Básica, Sala de Reanimação, Decisão Clínica e So/Obs, Departamento de emergência e cuidados intensivos-78/2714/15",Ajuste Direto Regime Geral,Aquisição de serviços,"85121100-4, Serviços de médicos de clínica geral","Centro Hospitalar do Algarve, E. P. E. (510745997)","Kelly Services - Healthcare, Unipessoal, Lda (510723691)","81.622,05 €",26-08-2015,30-07-2015,92 dias,"Portugal, Faro, Vila Real Sto Antonio<BR/>Portugal, Faro, Faro<BR/>Portugal, Faro, Albufeira<BR/>Portugal, Faro, Portimão<BR/>Portugal, Faro, Loulé<BR/>Portugal, Faro, Lagos","Artigo 24.º, n.º 1, alínea c) do Código dos Contratos Públicos",30-09-2015,"80.318,58 €","","O valor inicial do Contrato teve por base as necessidades estimadas para o período de 1 Julho de 2015 a 30 de Setembro de 2015, o valor final reflecte as necessidades efectivas.",,Não aplicável.,Não aplicável.,FALSE
Aquisição de energia eléctrica ao abrigo do AQ-PARA -2015,Ao abrigo de acordo-quadro (art.º 259.º),Aquisição de bens móveis,"09310000-5, Electricidade","Centro Hospitalar de Setúbal, E. P. E. (507606787), Administração Regional de Saúde do Centro, I. P. (503122165), Centro Hospitalar de Trás-os-Montes e Alto Douro, E. P. E. (508100496), Instituto Português de Oncologia de Lisboa Francisco Gentil, E. P. E. (506361616), Centro Hospitalar Barreiro Montijo, E. P. E. (509186998), Centro Hospitalar de São João, E. P. E. (509821197), Centro Hospitalar Vila Nova de Gaia - Espinho, E. P. E. (508142156), Centro Hospitalar Tondela-Viseu, E. P. E. (509822940), Administração Regional de Saúde Lisboa e Vale do Tejo, I.P. (503148776), Centro Hospitalar do Baixo Vouga, E. P. E (CHBV, E. P. E.) (510123210), Administração Regional de Saúde do Alentejo, I. P. (503148768), Instituto de Oftalmologia Dr. Gama Pinto (600000052), Hospital Garcia de Orta, E. P. E. (506361470), Centro Hospitalar de Lisboa Central, E. P. E. (508080142), CHO - Centro Hospitalar do Oeste (510412009), Secretaria-Geral do Ministério da Saúde - SNCP (600080684), Hospital Distrital da Figueira da Foz, EPE (506361527), Unidade Local de Saude do Baixo Alentejo, EPE (508754275), Centro Hospitalar Psiquiátrico de Lisboa (CHPL) (508338476), Administração Regional de Saúde Algarve, I.P. (503148709), Unidade Local de Saúde de Castelo Branco, E. P. E. (509309844), Centro Hospitalar de Lisboa Ocidental, E. P. E. (507618319), Unidade Local de Saúde do Alto Minho, E. P. E. (508786193), INFARMED - Autoridade Nacional do Medicamento e Produtos de Saúde I.P. (600037002), Administração Regional de Saúde Norte, I.P. (503135593), SUCH - Serviço Utilização Comum Hospitais (500900469), Hospital Dr. Francisco Zagalo (501510150), Unidade Local de Saúde Nordeste, EPE (509932584), Centro Hospitalar Cova da Beira, EPE (506361659), Instituto Nacional de Saúde Dr. Ricardo Jorge, I. P. (501427511), Centro Hospitalar e Universitário de Coimbra, E. P. E. (510103448), Unidade Local de Saúde do Norte Alentejano, E. P. E. (508094461), Unidade Local de Saúde da Guarda, E. P. E. (508752000), Instituto Nacional de Emergência Médica, I. P. (501356126), Direção-Geral da Saúde (600037100), CENTRO HOSPITALAR DE LEIRIA, E.P.E. (509822932), Centro Hospitalar do Tâmega e Sousa, E. P. E. (508318262), Hospital de José Luciano de Castro (501613021), Hospital Santa Maria Maior, E. P. E. (506361381), Centro Hospitalar Porto, E. P. E. (508331471), Centro Hospitalar do Médio Tejo, E. P. E. (506361608), Instituto Português de Oncologia do Porto Francisco Gentil, E. P. E. (506362299), Administração Central do Sistema de Saúde, I. P. (508188423), Centro Hospitalar de Entre o Douro e Vouga, E.P.E. (508878462), Inspeção-Geral das Atividades em Saúde (600018857), Centro Hospitalar Médio Ave, E.P.E.. (508093937), Hospital Arcebispo João Crisóstomo (501626123), SPMS - Serviços Partilhados do Ministério da Saúde, E. P. E. (509540716), Centro Hospitalar do Algarve, E. P. E. (510745997), Unidade Local de Saúde de Matosinhos, EPE (ULSM) (506361390), Hospital Prof. Doutor Fernando Fonseca E.P.E. (503035416), Instituto Português do Sangue e da Transplantação, I. P. (502423943), Hospital de Magalhães Lemos, E. P. E. (502828790), Centro Hospitalar Lisboa Norte, E. P. E. (508481287), Instituto Português de Oncologia de Coimbra - Francisco Gentil E.P.E. (506361438), Centro Hospitalar Póvoa de Varzim - Vila do Conde, E.P.E. (508741823), Centro de medicina e Reabilitação da Região Centro Rovisco Pais (503767336), Centro Hospitalar do Alto Ave, EPE (508080827), Hospital de Santarém, EPE (506361462), Unidade Local de Saúde do Litoral Alentejano, E. P. E. (510445152), Hospital do Espírito Santo de Évora, E. P. E. (508085888)","GALP POWER, S.A. (504723456)","807.437,59 €",26-08-2015,13-02-2015,305 dias,"Portugal, Lisboa, Lisboa",Artigo 259.º do Código dos Contratos Públicos,31-12-2015,"807.437,59 €",NÃO APLICÁVEL,NÃO APLICÁVEL,,314294,Acordo quadro para o fornecimento de electricidade em regime de mercado livre para Portugal Continental,TRUE
"Serviços médicos Urgência Geral e Básica, Sala de Reanimação, Decisão Clínica e So/Obs, Departamento de emergência e cuidados intensivos",Ajuste Direto Regime Geral,Aquisição de serviços,"85121100-4, Serviços de médicos de clínica geral","Centro Hospitalar do Algarve, E. P. E. (510745997)","Kelly Services-Healthcare, Unipessoal, Lda (510723691)","80.691,00 €",26-08-2015,30-07-2015,91 dias,"Portugal, Faro, Vila Real Sto Antonio<BR/>Portugal, Faro, Faro<BR/>Portugal, Faro, Loulé<BR/>Portugal, Faro, Portimão<BR/>Portugal, Faro, Lagos<BR/>Portugal, Faro, Albufeira","Artigo 24.º, n.º 1, alínea c) do Código dos Contratos Públicos",18-08-2015,"68.545,97 €","","O valor inicial do Contrato teve por base as necessidades estimadas para o período de 1 Abril de 2015 a 30 de Junho de 2015, o valor final reflecte as necessidades efectivas.",,Não aplicável.,Não aplicável.,FALSE
tabuas,Ajuste Direto Regime Geral,Aquisição de bens móveis,"39110000-6, Assentos, cadeiras e produtos afins e peças associadas","Centro Hospitalar do Algarve, E. P. E. (510745997)",Sano Tecnica  (500239819),"75,00 €",25-08-2015,21-08-2015,10 dias,"Portugal, Faro, Faro","Artigo 20.º, n.º 1, alínea a) do Código dos Contratos Públicos","","","","",,Não aplicável.,Não aplicável.,FALSE
tabuas,Ajuste Direto Regime Geral,Aquisição de bens móveis,"39110000-6, Assentos, cadeiras e produtos afins e peças associadas","Centro Hospitalar do Algarve, E. P. E. (510745997)",Portopedico (509829953),"293,00 €",25-08-2015,21-08-2015,10 dias,"Portugal, Faro, Faro","Artigo 20.º, n.º 1, alínea a) do Código dos Contratos Públicos","","","","",,Não aplicável.,Não aplicável.,FALSE
"Serviços médicos de urgência geral e básica, sala de reanimação, decisão clínica e So/Obs, Departamento de emergência e  Cuidados Intensivos",Ajuste Direto Regime Geral,Aquisição de serviços,"85121100-4, Serviços de médicos de clínica geral","Centro Hospitalar do Algarve, E. P. E. (510745997)","Kelly Services - Healthcare, Unipessoal, Lda (510723691)","27.497,01 €",25-08-2015,30-07-2015,31 dias,"Portugal, Faro, Vila Real Sto Antonio<BR/>Portugal, Faro, Lagos<BR/>Portugal, Faro, Portimão<BR/>Portugal, Faro, Albufeira<BR/>Portugal, Faro, Loulé<BR/>Portugal, Faro, Faro","Artigo 24.º, n.º 1, alínea c) do Código dos Contratos Públicos",30-07-2015,"21.827,95 €","","O valor inicial do Contrato teve por base as necessidades estimadas para o período de 1 Março de 2015 a 31 Março de 2015, o valor final reflecte as necessidades efectivas.",,Não aplicável.,Não aplicável.,FALSE
77/2896/15 - instrumental Bloco,Ajuste Direto Regime Geral,Aquisição de bens móveis,"33162000-3, Aparelhos e instrumentos para blocos operatórios","Centro Hospitalar do Algarve, E. P. E. (510745997)",Eurocasmedica (503322105),"5.880,00 €",25-08-2015,19-08-2015,15 dias,"Portugal, Faro, Portimão","Artigo 20.º, n.º 1, alínea a) do Código dos Contratos Públicos","","","","",,Não aplicável.,Não aplicável.,FALSE
72/00002943/15 - Aquisição de Material de Consumo Clínico,Ajuste Direto Regime Geral,Aquisição de bens móveis,"33140000-3, Material médico de consumo","Centro Hospitalar do Algarve, E. P. E. (510745997)",Euromédica - António Manuel Mendes Farlens (158887263),"69,00 €",25-08-2015,20-08-2015,122 dias,"Portugal, Faro, Lagos<BR/>Portugal, Faro, Portimão<BR/>Portugal, Faro, Faro","Artigo 20.º, n.º 1, alínea a) do Código dos Contratos Públicos","","","","",,Não aplicável.,Não aplicável.,FALSE
72/00002943/15 - Aquisição de Material de Consumo Clínico,Ajuste Direto Regime Geral,Aquisição de bens móveis,"33140000-3, Material médico de consumo","Centro Hospitalar do Algarve, E. P. E. (510745997)","EZEQUIEL PANAO JORGE,LDA (501412727)","260,00 €",25-08-2015,20-08-2015,122 dias,"Portugal, Faro, Lagos<BR/>Portugal, Faro, Faro<BR/>Portugal, Faro, Portimão","Artigo 20.º, n.º 1, alínea a) do Código dos Contratos Públicos","","","","",,Não aplicável.,Não aplicável.,FALSE
72/00002943/15 - Aquisição de Material de Consumo Clínico,Ajuste Direto Regime Geral,Aquisição de bens móveis,"33140000-3, Material médico de consumo","Centro Hospitalar do Algarve, E. P. E. (510745997)",ANASTACIO SALDANHA UNIPESSOAL (505804441),"309,60 €",25-08-2015,20-08-2015,122 dias,"Portugal, Faro, Portimão<BR/>Portugal, Faro, Faro<BR/>Portugal, Faro, Lagos","Artigo 20.º, n.º 1, alínea a) do Código dos Contratos Públicos","","","","",,Não aplicável.,Não aplicável.,FALSE
72/00002943/15 - Aquisição de Material de Consumo Clínico,Ajuste Direto Regime Geral,Aquisição de bens móveis,"33140000-3, Material médico de consumo","Centro Hospitalar do Algarve, E. P. E. (510745997)","VACUETTE PORTUGAL, S.A. (505348470)","10,13 €",25-08-2015,20-08-2015,122 dias,"Portugal, Faro, Portimão<BR/>Portugal, Faro, Lagos<BR/>Portugal, Faro, Faro","Artigo 20.º, n.º 1, alínea a) do Código dos Contratos Públicos","","","","",,Não aplicável.,Não aplicável.,FALSE
72/00002943/15 - Aquisição de Material de Consumo Clínico,Ajuste Direto Regime Geral,Aquisição de bens móveis,"33140000-3, Material médico de consumo","Centro Hospitalar do Algarve, E. P. E. (510745997)","TEPREL-EQUIPAMENTOS MEDICOS, LDA. (502262184)","15.190,00 €",25-08-2015,20-08-2015,122 dias,"Portugal, Faro, Portimão<BR/>Portugal, Faro, Faro<BR/>Portugal, Faro, Lagos","Artigo 20.º, n.º 1, alínea a) do Código dos Contratos Públicos","","","","",,Não aplicável.,Não aplicável.,FALSE
72/00002943/15 - Aquisição de Material de Consumo Clínico,Ajuste Direto Regime Geral,Aquisição de bens móveis,"33140000-3, Material médico de consumo","Centro Hospitalar do Algarve, E. P. E. (510745997)",PMH-PROD.MEDICO-HOSPITALARES (502376899),"612,00 €",25-08-2015,20-08-2015,122 dias,"Portugal, Faro, Portimão<BR/>Portugal, Faro, Faro<BR/>Portugal, Faro, Lagos","Artigo 20.º, n.º 1, alínea a) do Código dos Contratos Públicos","","","","",,Não aplicável.,Não aplicável.,FALSE
72/2943/15 - Aquisição de Material de Consumo clínico,Ajuste Direto Regime Geral,Aquisição de bens móveis,"33140000-3, Material médico de consumo","Centro Hospitalar do Algarve, E. P. E. (510745997)","COLOPLAST PORTUGAL, SOCIEDADE UNIPESSOAL LDA. (503989037)","177,16 €",25-08-2015,20-08-2015,122 dias,"Portugal, Faro, Portimão<BR/>Portugal, Faro, Lagos<BR/>Portugal, Faro, Faro","Artigo 20.º, n.º 1, alínea a) do Código dos Contratos Públicos","","","","",,Não aplicável.,Não aplicável.,FALSE
72/2943/15 - Aquisição de Material de Consumo Clínico,Ajuste Direto Regime Geral,Aquisição de bens móveis,"33140000-3, Material médico de consumo","Centro Hospitalar do Algarve, E. P. E. (510745997)","PAUL HARTMANN, LDA. (502271728)","81,00 €",25-08-2015,20-08-2015,122 dias,"Portugal, Faro, Lagos<BR/>Portugal, Faro, Portimão<BR/>Portugal, Faro, Faro","Artigo 20.º, n.º 1, alínea a) do Código dos Contratos Públicos","","","","",,Não aplicável.,Não aplicável.,FALSE
72/2943/15 - Aquisição de Material de Consumo Clínico,Ajuste Direto Regime Geral,Aquisição de bens móveis,"33140000-3, Material médico de consumo","Centro Hospitalar do Algarve, E. P. E. (510745997)","OVERPHARMA,LDA. (505792362)","15,00 €",25-08-2015,20-08-2015,122 dias,"Portugal, Faro, Lagos<BR/>Portugal, Faro, Portimão<BR/>Portugal, Faro, Faro","Artigo 20.º, n.º 1, alínea a) do Código dos Contratos Públicos","","","","",,Não aplicável.,Não aplicável.,FALSE
72/2943/15 - Aquisição de Material de Consumo Clínico,Ajuste Direto Regime Geral,Aquisição de bens móveis,"33140000-3, Material médico de consumo","Centro Hospitalar do Algarve, E. P. E. (510745997)","NORMAX,LDA. (500203130)","153,60 €",25-08-2015,20-08-2015,122 dias,"Portugal, Faro, Faro<BR/>Portugal, Faro, Portimão<BR/>Portugal, Faro, Lagos","Artigo 20.º, n.º 1, alínea a) do Código dos Contratos Públicos","","","","",,Não aplicável.,Não aplicável.,FALSE
72/2943/15 - Aquisição de Material de Consumo Clínico,Ajuste Direto Regime Geral,Aquisição de bens móveis,"33140000-3, Material médico de consumo","Centro Hospitalar do Algarve, E. P. E. (510745997)",JMV-PRODUTOS HOSPITALARES (501887148),"281,50 €",25-08-2015,20-08-2015,122 dias,"Portugal, Faro, Portimão<BR/>Portugal, Faro, Faro<BR/>Portugal, Faro, Lagos","Artigo 20.º, n.º 1, alínea a) do Código dos Contratos Públicos","","","","",,Não aplicável.,Não aplicável.,FALSE
72/2943/15 - Aquisição de Material de Consumo Clínico,Ajuste Direto Regime Geral,Aquisição de bens móveis,"33140000-3, Material médico de consumo","Centro Hospitalar do Algarve, E. P. E. (510745997)","BOSTON SCIENTIFIC PORTUGAL-DISPOSITIVOS MÉDICOS, LDA. (504988964)","1.200,00 €",25-08-2015,20-08-2015,122 dias,"Portugal, Faro, Lagos<BR/>Portugal, Faro, Faro<BR/>Portugal, Faro, Portimão","Artigo 20.º, n.º 1, alínea a) do Código dos Contratos Públicos","","","","",,Não aplicável.,Não aplicável.,FALSE
72/2943/15 - Aquisição de Material de Consumo Clínico,Ajuste Direto Regime Geral,Aquisição de bens móveis,"33140000-3, Material médico de consumo","Centro Hospitalar do Algarve, E. P. E. (510745997)","EXPOMEDICA,LDA. (501886621)","239,20 €",25-08-2015,20-08-2015,122 dias,"Portugal, Faro, Lagos<BR/>Portugal, Faro, Faro<BR/>Portugal, Faro, Portimão","Artigo 20.º, n.º 1, alínea a) do Código dos Contratos Públicos","","","","",,Não aplicável.,Não aplicável.,FALSE
72/2943/15 - Aquisição de Material de Consumo Clínico,Ajuste Direto Regime Geral,Aquisição de bens móveis,"33140000-3, Material médico de consumo","Centro Hospitalar do Algarve, E. P. E. (510745997)",ELNOR SA (500094403),"25,00 €",25-08-2015,20-08-2015,122 dias,"Portugal, Faro, Lagos<BR/>Portugal, Faro, Faro<BR/>Portugal, Faro, Portimão","Artigo 20.º, n.º 1, alínea a) do Código dos Contratos Públicos","","","","",,Não aplicável.,Não aplicável.,FALSE
72/2943/15 - Aquisição de Material de Consumo Clínico,Ajuste Direto Regime Geral,Aquisição de bens móveis,"33140000-3, Material médico de consumo","Centro Hospitalar do Algarve, E. P. E. (510745997)",BSN Medical (505385058),"120,00 €",25-08-2015,20-08-2015,122 dias,"Portugal, Faro, Portimão<BR/>Portugal, Faro, Faro<BR/>Portugal, Faro, Lagos","Artigo 20.º, n.º 1, alínea a) do Código dos Contratos Públicos","","","","",,Não aplicável.,Não aplicável.,FALSE
72/2943/15 - Aquisição de Material de Consumo Clínico,Ajuste Direto Regime Geral,Aquisição de bens móveis,"33140000-3, Material médico de consumo","Centro Hospitalar do Algarve, E. P. E. (510745997)",AVIQUIMICA IMPORT E MANUFATURA (500039720),"77,00 €",25-08-2015,20-08-2015,122 dias,"Portugal, Faro, Portimão<BR/>Portugal, Faro, Faro<BR/>Portugal, Faro, Lagos","Artigo 20.º, n.º 1, alínea a) do Código dos Contratos Públicos","","","","",,Não aplicável.,Não aplicável.,FALSE
72/2943/15 - Aquisição de Material de Consumo Clínico,Ajuste Direto Regime Geral,Aquisição de bens móveis,"33140000-3, Material médico de consumo","Centro Hospitalar do Algarve, E. P. E. (510745997)",TELEFLEX MEDICALL (980249783),"38,40 €",25-08-2015,20-08-2015,122 dias,"Portugal, Faro, Portimão<BR/>Portugal, Faro, Faro<BR/>Portugal, Faro, Lagos","Artigo 20.º, n.º 1, alínea a) do Código dos Contratos Públicos","","","","",,Não aplicável.,Não aplicável.,FALSE
Serviços médicos de urgência geral e básica,Ajuste Direto Regime Geral,Aquisição de serviços,"85121100-4, Serviços de médicos de clínica geral","Centro Hospitalar do Algarve, E. P. E. (510745997)","Pétalas D`Esperança, Lda (509540260)","46.800,00 €",24-08-2015,23-07-2015,180 dias,"Portugal, Faro, Faro<BR/>Portugal, Faro, Albufeira","Artigo 24.º, n.º 1, alínea c) do Código dos Contratos Públicos",31-12-2015,"12.900,00 €","","O valor inicial do Contrato teve por base as necessidades estimadas para o período de 1 Julho de 2015 a 31 Dezembro de 2015, o valor final reflecte as necessidades efectivas.",,Não aplicável.,Não aplicável.,FALSE
