Objeto do Contrato,Tipo de Procedimento,Tipo(s) de Contrato,CPVs,Entidade(s) Adjudicante(s),Entidade(s) Adjudicatária(s),Preço Contratual,Data de Publicação,Data de Celebração do Contrato,Prazo de Execução,Local de Execução,Fundamentação,Data de Fecho do Contrato,Preço Total Efetivo,Causas das Alterações ao Prazo,Causas das Alterações ao Preço,Estado,N.º registo do Acordo Quadro,Descrição do Acordo Quadro,Procedimento Centralizado
"Aquisição de modelos, impressos e envelopes de arquivo em tyvek, para a Unidade Local de Saúde do Norte Alentejano, EPE – Ano 2019",Concurso público,Aquisição de bens móveis,"22900000-9, Material impresso diverso","Unidade Local de Saúde do N. Alentejano,EPE(ULSNA) (508094461)","Copidata, SA (508225140)","13.830,55 €",05-02-2019,07-01-2019,365 dias,"Portugal, Portalegre","Artigo 20.º, n.º 1, alínea b) do Código dos Contratos Públicos",05-02-2019,"13.830,55 €",,,,Não aplicável.,Não aplicável.,FALSE
"Aquisição de modelos, impressos e envelopes de arquivo em tyvek, para a Unidade Local de Saúde do Norte Alentejano, EPE – Ano 2019",Concurso público,Aquisição de bens móveis,"22900000-9, Material impresso diverso","Unidade Local de Saúde do N. Alentejano,EPE(ULSNA) (508094461)","Enveloprinter, Lda (508469830)","6.209,41 €",05-02-2019,07-01-2019,365 dias,"Portugal, Portalegre","Artigo 20.º, n.º 1, alínea b) do Código dos Contratos Públicos",05-02-2019,"6.209,41 €",,,,Não aplicável.,Não aplicável.,FALSE
"Aquisição de Sacos e Cintas de Plástico para a ULSNA, EPE - Ano 2019",Consulta Prévia,Aquisição de bens móveis,"19520000-7, Produtos de plástico","Unidade Local de Saúde do N. Alentejano,EPE(ULSNA) (508094461)","Rei&Rei, Lda (502897970)","57.152,50 €",05-02-2019,14-01-2019,365 dias,"Portugal, Portalegre","Artigo 20.º, n.º 1, alínea c) do Código dos Contratos Públicos",05-02-2019,"57.152,50 €",,,,Não aplicável.,Não aplicável.,FALSE
Aquisição de Consumíveis para Equipamento STERRAD - 2019,Ajuste Direto Regime Geral,Aquisição de bens móveis,"33140000-3, Material médico de consumo","Unidade Local de Saúde do Norte Alentejano, E. P. E. (508094461)",JOHNSON JOHNSON MEDICAL (500153370),"6.861,54 €",05-02-2019,31-01-2019,334 dias,Portugal,"Artigo 24.º, n.º 1, alínea e), subalínea ii) do Código dos Contratos Públicos","","",,,,Não aplicável.,Não aplicável.,FALSE
Aquisição de Impressos Exclusivos da ARSA - Ano 2019,Ajuste Direto Regime Geral,Aquisição de bens móveis,"22900000-9, Material impresso diverso","Unidade Local de Saúde do Norte Alentejano, E. P. E. (508094461)","Administração Regional de Saúde do Alentejo, I. P. (503148768)","666,30 €",05-02-2019,11-01-2019,365 dias,"Portugal, Portalegre","Artigo 24.º, n.º 1, alínea e), subalínea iii) do Código dos Contratos Públicos",05-02-2019,"666,30 €",,,,Não aplicável.,Não aplicável.,FALSE
Aquisição de Impressos Exclusivos da INCM - Ano 2019,Ajuste Direto Regime Geral,Aquisição de bens móveis,"22900000-9, Material impresso diverso","Unidade Local de Saúde do Norte Alentejano, E. P. E. (508094461)","Imprensa Nacional - Casa da Moeda, S.A. (500792887)","2.698,82 €",05-02-2019,11-01-2019,365 dias,"Portugal, Portalegre","Artigo 24.º, n.º 1, alínea e), subalínea iii) do Código dos Contratos Públicos",05-02-2019,"2.698,82 €",,,,Não aplicável.,Não aplicável.,FALSE
"quisição de Vinheta e receituário médico para a ULSNA, EPE - Ano 2019",Ajuste Direto Regime Geral,Aquisição de bens móveis,"22900000-9, Material impresso diverso","Unidade Local de Saúde do Norte Alentejano, E. P. E. (508094461)","Imprensa Nacional - Casa da Moeda, S.A. (500792887)","1.609,00 €",05-02-2019,11-01-2019,365 dias,"Portugal, Portalegre","Artigo 24.º, n.º 1, alínea e), subalínea iii) do Código dos Contratos Públicos",05-02-2019,"1.609,00 €",,,,Não aplicável.,Não aplicável.,FALSE
"Aquisição de Cartões Magnéticos para Equipamentos de Sedimentação, para a ULSNA, EPE - 2019",Ajuste Direto Regime Geral,Aquisição de bens móveis,"33140000-3, Material médico de consumo","Unidade Local de Saúde do Norte Alentejano, E. P. E. (508094461)",BATISTA MARQUES DIAGNOSTICA E REAGENTES (501439110),"3.600,00 €",05-02-2019,24-01-2019,330 dias,"Portugal, Portalegre","Artigo 24.º, n.º 1, alínea e), subalínea ii) do Código dos Contratos Públicos","","",,,,Não aplicável.,Não aplicável.,FALSE
"Fornecimento de Material Disposable de Bloco Parte I-B, à ULSNA, EPE, para 2019",Ao abrigo de acordo-quadro (art.º 259.º),Aquisição de bens móveis,"33100000-1, Equipamento médico","Unidade Local de Saúde do N. Alentejano,EPE(ULSNA) (508094461)",FACTOR PLUS (502810645),"792,00 €",05-02-2019,24-01-2019,330 dias,Portugal,Artigo 259.º do Código dos Contratos Públicos,"","",,,,2102851,CP 2016/74 - Acordo quadro para fornecimento de Material disposable de bloco operatório - Parte I-B às Instituições e Serviços do Serviço Nacional de Saúde,FALSE
"Fornecimento de Material Disposable de Bloco Parte I-B, à ULSNA, EPE, para 2019",Ao abrigo de acordo-quadro (art.º 259.º),Aquisição de bens móveis,"33100000-1, Equipamento médico","Unidade Local de Saúde do N. Alentejano,EPE(ULSNA) (508094461)",ANASTACIO SALDANHA UNIPESSOAL LDA. (505804441),"1.482,00 €",04-02-2019,24-01-2019,331 dias,Portugal,Artigo 259.º do Código dos Contratos Públicos,"","",,,,2102851,CP 2016/74 - Acordo quadro para fornecimento de Material disposable de bloco operatório - Parte I-B às Instituições e Serviços do Serviço Nacional de Saúde,FALSE
Publicação de anúncio em DR (11000119),Ajuste Direto Regime Geral,Aquisição de serviços,"64000000-6, Serviços postais e de telecomunicações","Unidade Local de Saúde do Norte Alentejano, E. P. E. (508094461)",IMPRENSA NACIONAL - CASA DA MOEDA SA (500792887),"85,87 €",04-02-2019,14-01-2019,1 dias,"Portugal, Portalegre, Portalegre","Artigo 24.º, n.º 1, alínea e), subalínea ii) do Código dos Contratos Públicos","","",,,,Não aplicável.,Não aplicável.,FALSE
"Fornecimento de Material Disposable de Bloco Parte I-B, à ULSNA, EPE, para 2019",Ao abrigo de acordo-quadro (art.º 259.º),Aquisição de bens móveis,"33100000-1, Equipamento médico","Unidade Local de Saúde do N. Alentejano,EPE(ULSNA) (508094461)",QUILABAN QUIMICA LAB ANALITICA (500399670),"2.336,46 €",31-01-2019,24-01-2019,334 dias,Portugal,Artigo 259.º do Código dos Contratos Públicos,"","",,,,2102851,CP 2016/74 - Acordo quadro para fornecimento de Material disposable de bloco operatório - Parte I-B às Instituições e Serviços do Serviço Nacional de Saúde,FALSE
