Objeto do Contrato,Tipo de Procedimento,Tipo(s) de Contrato,CPVs,Entidade(s) Adjudicante(s),Entidade(s) Adjudicatária(s),Preço Contratual,Data de Publicação,Data de Celebração do Contrato,Prazo de Execução,Local de Execução,Fundamentação,Data de Fecho do Contrato,Preço Total Efetivo,Causas das Alterações ao Prazo,Causas das Alterações ao Preço,Estado,N.º registo do Acordo Quadro,Descrição do Acordo Quadro,Procedimento Centralizado
Aquisição de cardiotocógrafos,Ajuste Direto Regime Geral,Aquisição de bens móveis,"33100000-1, Equipamento médico","Unidade Local de Saúde de Matosinhos, E. P. E. (506361390)",SPECULUM (502996323),"24.999,00 €",10-03-2017,31-01-2017,20 dias,"Portugal, Porto, Matosinhos","Artigo 20.º, n.º 1, alínea a) do Código dos Contratos Públicos",31-01-2017,"24.999,00 €",,,,Não aplicável.,Não aplicável.,FALSE
Aquisição de material cirúrgico,Ajuste Direto Regime Geral,Aquisição de bens móveis,"33100000-1, Equipamento médico","Unidade Local de Saúde de Matosinhos, EPE (ULSM) (506361390)","B. Braun Medical, Lda (501506543)","22.808,98 €",10-03-2017,15-12-2016,20 dias,"Portugal, Porto, Matosinhos","Artigo 20.º, n.º 1, alínea a) do Código dos Contratos Públicos",18-01-2017,"22.808,98 €",,,,Não aplicável.,Não aplicável.,FALSE
"Manutenção e assistência técnica a esterilizadores, máquinas de lavar e selar e tina ultrassónica ",Ajuste Direto Regime Geral,Aquisição de serviços,"50530000-9, Serviços de reparação e manutenção de máquinas","Unidade Local de Saúde de Matosinhos, E. P. E. (506361390)","Prohs, SA (505005468)","9.300,00 €",10-03-2017,16-01-2017,365 dias,"Portugal, Porto, Matosinhos","Artigo 20.º, n.º 1, alínea a) do Código dos Contratos Públicos","","",,,,Não aplicável.,Não aplicável.,FALSE
"Manutenção e Assistência técnica aos equipamentos de anestesia, monitorização e osteodensitómetro",Ajuste Direto Regime Geral,Aquisição de serviços,"50420000-5, Serviços de reparação e manutenção de equipamento médico e cirúrgico","Unidade Local de Saúde de Matosinhos, EPE (ULSM) (506361390)","Iberdata Equipamentos, SA (501904921)","21.215,00 €",10-03-2017,19-12-2016,365 dias,"Portugal, Porto, Matosinhos","Artigo 20.º, n.º 1, alínea a) do Código dos Contratos Públicos","","",,,,Não aplicável.,Não aplicável.,FALSE
Serviços de ações evolutivas sobre o Portal do Utente,Ajuste Direto Regime Geral,Aquisição de serviços,"72000000-5, Serviços de TI: consultoria, desenvolvimento de software, Internet e apoio","Unidade Local de Saúde de Matosinhos, E. P. E. (506361390)","Optimizer- Serviços e Consultadoria Informática, Lda (504775936)","12.375,00 €",10-03-2017,23-01-2017,365 dias,"Portugal, Porto, Matosinhos","Artigo 24.º, n.º 1, alínea e) do Código dos Contratos Públicos","","",,,,Não aplicável.,Não aplicável.,FALSE
Manutenção e assistência técnica aos equipamentos de infusão e perfusão,Ajuste Direto Regime Geral,Aquisição de serviços,"50400000-9, Serviços de reparação e manutenção de equipamento médico e de precisão","Unidade Local de Saúde de Matosinhos, E. P. E. (506361390)","B BRAUN MEDICAL, LDA.                              (501506543)","26.730,00 €",10-03-2017,16-01-2017,365 dias,"Portugal, Porto, Matosinhos","Artigo 20.º, n.º 1, alínea a) do Código dos Contratos Públicos","","",,,,Não aplicável.,Não aplicável.,FALSE
Contratação de serviços de manutenção e assistência técnica às centrais telefónicas do HPH e ACES,Ajuste Direto Regime Geral,Aquisição de serviços,"50330000-7, Serviços de manutenção de equipamento para telecomunicações","Unidade Local de Saúde de Matosinhos, E. P. E. (506361390)","2007com , Lda. (508018030)","7.340,00 €",10-03-2017,02-01-2017,365 dias,"Portugal, Porto, Matosinhos","Artigo 20.º, n.º 1, alínea a) do Código dos Contratos Públicos","","",,,,Não aplicável.,Não aplicável.,FALSE
Execução de trabalhos de recuperação e beneficiação do transformador de 1000KVA/15KV,Ajuste Direto Regime Geral,Aquisição de bens móveis,"31100000-7, Motores, geradores e transformadores eléctricos","Unidade Local de Saúde de Matosinhos, EPE (ULSM) (506361390)","MANVIA - Manutenção e exploração de instalações e construções, SA (503171565)","7.350,26 €",09-03-2017,14-12-2016,20 dias,"Portugal, Porto, Matosinhos","Artigo 20.º, n.º 1, alínea a) do Código dos Contratos Públicos","","",,,,Não aplicável.,Não aplicável.,FALSE
Contratação de serviços de Depósito de Documentos para Arquivo,Ajuste Direto Regime Geral,Aquisição de serviços,"79995100-6, Serviços de arquivo","Unidade Local de Saúde de Matosinhos, EPE (ULSM) (506361390)","PAPIRO - EMPRESA DE GESTÃO DE ARQUIVO, S.A (505067064)","9.109,20 €",06-03-2017,31-01-2017,365 dias,"Portugal, Porto, Matosinhos","Artigo 20.º, n.º 1, alínea a) do Código dos Contratos Públicos","","",,,,Não aplicável.,Não aplicável.,FALSE
Prestação de serviços de seguro de frota,Ajuste Direto Regime Geral,Aquisição de serviços,"66510000-8, Serviços de seguros","Unidade Local de Saúde de Matosinhos, E. P. E. (506361390)",Luis Ferraz-Corretores de Seguros Lda. (502616326),"5.425,28 €",02-03-2017,30-11-2016,365 dias,"Portugal, Porto, Matosinhos","Artigo 20.º, n.º 1, alínea a) do Código dos Contratos Públicos","","",,,,Não aplicável.,Não aplicável.,FALSE
Contratação de veículo tipo Tuk Tuk à ULSM,Ajuste Direto Regime Geral,Aquisição de serviços,"60100000-9, Serviços de transporte rodoviário","Unidade Local de Saúde de Matosinhos, E. P. E. (506361390)",ECOLOTOURS-TURISMO LDA (510330096),"28.750,00 €",02-03-2017,01-01-2017,365 dias,"Portugal, Porto, Matosinhos","Artigo 20.º, n.º 1, alínea a) do Código dos Contratos Públicos","","",,,,Não aplicável.,Não aplicável.,FALSE
Crizotinib 200mg,Ajuste Direto Regime Geral,Aquisição de bens móveis,"33600000-6, Produtos farmacêuticos","Unidade Local de Saúde de Matosinhos, E. P. E. (506361390)",PFIZER BIOFARMACEUTICA SOC UNIPESSOAL LDA (513300376),"68.264,59 €",02-03-2017,16-02-2017,306 dias,"Portugal, Porto, Matosinhos","Artigo 24.º, n.º 1, alínea e) do Código dos Contratos Públicos","","",,,,Não aplicável.,Não aplicável.,FALSE
Aquisição de perneiras para cama de parto,Ajuste Direto Regime Geral,Aquisição de bens móveis,"33192120-9, Camas de hospital","Unidade Local de Saúde de Matosinhos, E. P. E. (506361390)","Iberdata Equipamentos, SA (501904921)","5.658,66 €",01-03-2017,18-01-2017,45 dias,"Portugal, Porto, Matosinhos","Artigo 20.º, n.º 1, alínea a) do Código dos Contratos Públicos",07-02-2017,"5.658,66 €",,,,Não aplicável.,Não aplicável.,FALSE
