Objeto do Contrato,Tipo de Procedimento,Tipo(s) de Contrato,CPVs,Entidade(s) Adjudicante(s),Entidade(s) Adjudicatária(s),Preço Contratual,Data de Publicação,Data de Celebração do Contrato,Prazo de Execução,Local de Execução,Fundamentação,Data de Fecho do Contrato,Preço Total Efetivo,Causas das Alterações ao Prazo,Causas das Alterações ao Preço,Estado,N.º registo do Acordo Quadro,Descrição do Acordo Quadro,Procedimento Centralizado
Aquisição de serviços médicos indiferenciados,Ajuste Direto Regime Geral,Aquisição de serviços,"85121000-3, Serviços de prática médica","Centro Hospitalar do Médio Ave, E. P. E. (508093937)",JOSE EDUARDO FERREIRA DA SILVA (234662026),"27.456,00 €",10-05-2018,30-01-2018,337 dias,"Portugal, Porto, Santo Tirso","Artigo 20.º, n.º 1, alínea a) do Código dos Contratos Públicos",,,,,,Não aplicável.,Não aplicável.,FALSE
"Aquisição medicamentos anti-infecciosos, exceto antivíricos e antifúngicos",Ao abrigo de acordo-quadro (art.º 259.º),Aquisição de bens móveis,"33600000-6, Produtos farmacêuticos","Centro Hospitalar Médio Ave, E.P.E.. (508093937)","LABESFAL - LABORATORIOS ALMIRO, S.A. (501169580)","575,00 €",09-05-2018,09-01-2018,340 dias,"Portugal, Braga, Vila Nova de Famalicão<BR/>Portugal, Porto, Santo Tirso",Artigo 259.º do Código dos Contratos Públicos,,,,,,1326195,ACORDO QUADRO PARA FORNECIMENTO DE MEDICAMENTOS ANTI-INFECIOSOS: EXCETO ANTIVÍRICOS E ANTIFÚNGICOS ÀS INSTITUIÇÕES E SERVIÇOS DO SERVIÇO NACIONAL DE SAÚDE,FALSE
"Aquisição medicamentos anti-infecciosos, exceto antivíricos e antifúngicos",Ao abrigo de acordo-quadro (art.º 259.º),Aquisição de bens móveis,"33600000-6, Produtos farmacêuticos","Centro Hospitalar Médio Ave, E.P.E.. (508093937)",GENERIS - FARMACEUTICA S A (508107997),"23.017,55 €",09-05-2018,09-01-2018,340 dias,"Portugal, Porto, Santo Tirso<BR/>Portugal, Braga, Vila Nova de Famalicão",Artigo 259.º do Código dos Contratos Públicos,,,,,,1326195,ACORDO QUADRO PARA FORNECIMENTO DE MEDICAMENTOS ANTI-INFECIOSOS: EXCETO ANTIVÍRICOS E ANTIFÚNGICOS ÀS INSTITUIÇÕES E SERVIÇOS DO SERVIÇO NACIONAL DE SAÚDE,FALSE
"Aquisição medicamentos anti-infecciosos, exceto antivíricos e antifúngicos",Ao abrigo de acordo-quadro (art.º 259.º),Aquisição de bens móveis,"33600000-6, Produtos farmacêuticos","Centro Hospitalar Médio Ave, E.P.E.. (508093937)","HIKMA FARMACEUTICA (PORTUGAL), SA (502266791)","37.651,00 €",09-05-2018,09-01-2018,340 dias,"Portugal, Braga, Vila Nova de Famalicão<BR/>Portugal, Porto, Santo Tirso",Artigo 259.º do Código dos Contratos Públicos,,,,,,1326195,ACORDO QUADRO PARA FORNECIMENTO DE MEDICAMENTOS ANTI-INFECIOSOS: EXCETO ANTIVÍRICOS E ANTIFÚNGICOS ÀS INSTITUIÇÕES E SERVIÇOS DO SERVIÇO NACIONAL DE SAÚDE,FALSE
"Aquisição medicamentos anti-infecciosos, exceto antivíricos e antifúngicos",Ao abrigo de acordo-quadro (art.º 259.º),Aquisição de bens móveis,"33600000-6, Produtos farmacêuticos","Centro Hospitalar Médio Ave, E.P.E.. (508093937)","SANOFI - PRODUTOS FARMACÊUTICOS, LDA (500134960)","95,82 €",09-05-2018,09-01-2018,340 dias,"Portugal, Porto, Santo Tirso<BR/>Portugal, Braga, Vila Nova de Famalicão",Artigo 259.º do Código dos Contratos Públicos,,,,,,1326195,ACORDO QUADRO PARA FORNECIMENTO DE MEDICAMENTOS ANTI-INFECIOSOS: EXCETO ANTIVÍRICOS E ANTIFÚNGICOS ÀS INSTITUIÇÕES E SERVIÇOS DO SERVIÇO NACIONAL DE SAÚDE,FALSE
"Aquisição medicamentos anti-infecciosos, exceto antivíricos e antifúngicos",Ao abrigo de acordo-quadro (art.º 259.º),Aquisição de bens móveis,"33600000-6, Produtos farmacêuticos","Centro Hospitalar Médio Ave, E.P.E.. (508093937)",SANDOZ FARMACEUTICA LDA (506985261),"204,00 €",09-05-2018,09-01-2018,340 dias,"Portugal, Porto, Santo Tirso<BR/>Portugal, Braga, Vila Nova de Famalicão",Artigo 259.º do Código dos Contratos Públicos,,,,,,1326195,ACORDO QUADRO PARA FORNECIMENTO DE MEDICAMENTOS ANTI-INFECIOSOS: EXCETO ANTIVÍRICOS E ANTIFÚNGICOS ÀS INSTITUIÇÕES E SERVIÇOS DO SERVIÇO NACIONAL DE SAÚDE,FALSE
"Aquisição medicamentos anti-infecciosos, exceto antivíricos e antifúngicos",Ao abrigo de acordo-quadro (art.º 259.º),Aquisição de bens móveis,"33600000-6, Produtos farmacêuticos","Centro Hospitalar Médio Ave, E.P.E.. (508093937)",Ratiopham Comercio e Industria Produtos Farmaceuticos Lda (502414910),"376,30 €",09-05-2018,09-01-2018,340 dias,"Portugal, Braga, Vila Nova de Famalicão<BR/>Portugal, Porto, Santo Tirso",Artigo 259.º do Código dos Contratos Públicos,,,,,,1326195,ACORDO QUADRO PARA FORNECIMENTO DE MEDICAMENTOS ANTI-INFECIOSOS: EXCETO ANTIVÍRICOS E ANTIFÚNGICOS ÀS INSTITUIÇÕES E SERVIÇOS DO SERVIÇO NACIONAL DE SAÚDE,FALSE
"Aquisição medicamentos anti-infecciosos, exceto antivíricos e antifúngicos",Ao abrigo de acordo-quadro (art.º 259.º),Aquisição de bens móveis,"33600000-6, Produtos farmacêuticos","Centro Hospitalar Médio Ave, E.P.E.. (508093937)",OVERPHARMA PRODUTOS MEDICOS E FARMACEUTICOS LDA (505792362),"11.032,00 €",09-05-2018,09-01-2018,340 dias,"Portugal, Porto, Santo Tirso<BR/>Portugal, Braga, Vila Nova de Famalicão",Artigo 259.º do Código dos Contratos Públicos,,,,,,1326195,ACORDO QUADRO PARA FORNECIMENTO DE MEDICAMENTOS ANTI-INFECIOSOS: EXCETO ANTIVÍRICOS E ANTIFÚNGICOS ÀS INSTITUIÇÕES E SERVIÇOS DO SERVIÇO NACIONAL DE SAÚDE,FALSE
"Aquisição medicamentos anti-infecciosos, exceto antivíricos e antifúngicos",Ao abrigo de acordo-quadro (art.º 259.º),Aquisição de bens móveis,"33600000-6, Produtos farmacêuticos","Centro Hospitalar Médio Ave, E.P.E.. (508093937)","LABESFAL - LABORATORIOS ALMIRO, S.A. (501169580)","18.114,44 €",09-05-2018,09-01-2018,340 dias,"Portugal, Braga, Vila Nova de Famalicão<BR/>Portugal, Porto, Santo Tirso",Artigo 259.º do Código dos Contratos Públicos,,,,,,1326195,ACORDO QUADRO PARA FORNECIMENTO DE MEDICAMENTOS ANTI-INFECIOSOS: EXCETO ANTIVÍRICOS E ANTIFÚNGICOS ÀS INSTITUIÇÕES E SERVIÇOS DO SERVIÇO NACIONAL DE SAÚDE,FALSE
"Aquisição medicamentos anti-infecciosos, exceto antivíricos e antifúngicos",Ao abrigo de acordo-quadro (art.º 259.º),Aquisição de bens móveis,"33600000-6, Produtos farmacêuticos","Centro Hospitalar Médio Ave, E.P.E.. (508093937)","HIKMA FARMACEUTICA (PORTUGAL), SA (502266791)","58.461,00 €",09-05-2018,09-01-2018,340 dias,"Portugal, Braga, Vila Nova de Famalicão<BR/>Portugal, Porto, Santo Tirso",Artigo 259.º do Código dos Contratos Públicos,,,,,,1326195,ACORDO QUADRO PARA FORNECIMENTO DE MEDICAMENTOS ANTI-INFECIOSOS: EXCETO ANTIVÍRICOS E ANTIFÚNGICOS ÀS INSTITUIÇÕES E SERVIÇOS DO SERVIÇO NACIONAL DE SAÚDE,FALSE
"Aquisição medicamentos anti-infecciosos, exceto antivíricos e antifúngicos",Ao abrigo de acordo-quadro (art.º 259.º),Aquisição de bens móveis,"33600000-6, Produtos farmacêuticos","Centro Hospitalar Médio Ave, E.P.E.. (508093937)",FRESENIUS KABI PHARMA PORTUGAL LDA (504293753),"35.557,40 €",09-05-2018,09-01-2018,340 dias,"Portugal, Porto, Santo Tirso<BR/>Portugal, Braga, Vila Nova de Famalicão",Artigo 259.º do Código dos Contratos Públicos,,,,,,1326195,ACORDO QUADRO PARA FORNECIMENTO DE MEDICAMENTOS ANTI-INFECIOSOS: EXCETO ANTIVÍRICOS E ANTIFÚNGICOS ÀS INSTITUIÇÕES E SERVIÇOS DO SERVIÇO NACIONAL DE SAÚDE,FALSE
"Aquisição medicamentos anti-infecciosos, exceto antivíricos e antifúngicos",Ao abrigo de acordo-quadro (art.º 259.º),Aquisição de bens móveis,"33600000-6, Produtos farmacêuticos","Centro Hospitalar Médio Ave, E.P.E.. (508093937)","Farmoz Soc Técnico Medicinal, SA (501505334)","49,50 €",09-05-2018,09-01-2018,340 dias,"Portugal, Braga, Vila Nova de Famalicão<BR/>Portugal, Porto, Santo Tirso",Artigo 259.º do Código dos Contratos Públicos,,,,,,1326195,ACORDO QUADRO PARA FORNECIMENTO DE MEDICAMENTOS ANTI-INFECIOSOS: EXCETO ANTIVÍRICOS E ANTIFÚNGICOS ÀS INSTITUIÇÕES E SERVIÇOS DO SERVIÇO NACIONAL DE SAÚDE,FALSE
"Aquisição medicamentos anti-infeciosos, exceto antivíricos e antifúngicos",Ao abrigo de acordo-quadro (art.º 259.º),Aquisição de bens móveis,"33600000-6, Produtos farmacêuticos","Centro Hospitalar Médio Ave, E.P.E.. (508093937)","DLA FARMACÊUTICA, SA (503894427)","5,67 €",09-05-2018,09-01-2018,340 dias,"Portugal, Porto, Santo Tirso<BR/>Portugal, Braga, Vila Nova de Famalicão",Artigo 259.º do Código dos Contratos Públicos,,,,,,1326195,ACORDO QUADRO PARA FORNECIMENTO DE MEDICAMENTOS ANTI-INFECIOSOS: EXCETO ANTIVÍRICOS E ANTIFÚNGICOS ÀS INSTITUIÇÕES E SERVIÇOS DO SERVIÇO NACIONAL DE SAÚDE,FALSE
"Aquisição medicamentos anti-infeciosos, exceto antivíricos e antifúngicos",Ao abrigo de acordo-quadro (art.º 259.º),Aquisição de bens móveis,"33600000-6, Produtos farmacêuticos","Centro Hospitalar Médio Ave, E.P.E.. (508093937)","BIAL - PORTELA & CA., S.A. (500220913)","52,00 €",09-05-2018,09-01-2018,340 dias,"Portugal, Porto, Santo Tirso<BR/>Portugal, Braga, Vila Nova de Famalicão",Artigo 259.º do Código dos Contratos Públicos,,,,,,1326195,ACORDO QUADRO PARA FORNECIMENTO DE MEDICAMENTOS ANTI-INFECIOSOS: EXCETO ANTIVÍRICOS E ANTIFÚNGICOS ÀS INSTITUIÇÕES E SERVIÇOS DO SERVIÇO NACIONAL DE SAÚDE,FALSE
Aquisição de serviço de assistência técnica preventiva para equipamentos de esterilização,Ajuste Direto Regime Geral,Aquisição de serviços,"50530000-9, Serviços de reparação e manutenção de máquinas","Centro Hospitalar Médio Ave, E.P.E.. (508093937)",STB SERVIÇOS TELEMATICOS E BIOMEDICOS UNIPESSOAL LDA (506989020),"13.623,00 €",07-05-2018,20-03-2018,365 dias,"Portugal, Porto, Santo Tirso<BR/>Portugal, Braga, Vila Nova de Famalicão","Artigo 20.º, n.º 1, alínea a) do Código dos Contratos Públicos",,,,,,Não aplicável.,Não aplicável.,FALSE
"Aquisição de serviços de advocacia, assessoria jurídica e mandato jurídico",Ajuste Direto Regime Geral,Aquisição de serviços,"79110000-8, Serviços de assessoria e representação jurídicas","Centro Hospitalar do Médio Ave, E. P. E. (508093937)",DURVAL TIAGO MOREIRA FONSECA E CASTRO FERREIRA (216835097),"18.000,00 €",03-05-2018,07-03-2018,365 dias,"Portugal, Porto, Santo Tirso<BR/>Portugal, Braga, Vila Nova de Famalicão","Artigo 20.º, n.º 1, alínea a) do Código dos Contratos Públicos",,,,,,Não aplicável.,Não aplicável.,FALSE
Aquisição de medicamentos do Grupo IV: Sangue,Ao abrigo de acordo-quadro (art.º 259.º),Aquisição de bens móveis,"33600000-6, Produtos farmacêuticos","Centro Hospitalar do Médio Ave, E. P. E. (508093937)",SANDOZ FARMACEUTICA LDA (506985261),"5,70 €",03-05-2018,23-04-2018,242 dias,"Portugal, Porto, Santo Tirso<BR/>Portugal, Braga, Vila Nova de Famalicão",Artigo 259.º do Código dos Contratos Públicos,,,,,,2489595,CP 2016/18 - Acordo quadro para fornecimento de Medicamentos do Grupo 4: Sangue às Instituições e Serviços do Serviço Nacional de Saúde,FALSE
Aquisição de medicamentos do Grupo IV: Sangue,Ao abrigo de acordo-quadro (art.º 259.º),Aquisição de bens móveis,"33600000-6, Produtos farmacêuticos","Centro Hospitalar do Médio Ave, E. P. E. (508093937)",ROCHE FARMACEUTICA QUIMICA LDA (500233810),"2,00 €",03-05-2018,23-04-2018,242 dias,"Portugal, Braga, Vila Nova de Famalicão<BR/>Portugal, Porto, Santo Tirso",Artigo 259.º do Código dos Contratos Públicos,,,,,,2489595,CP 2016/18 - Acordo quadro para fornecimento de Medicamentos do Grupo 4: Sangue às Instituições e Serviços do Serviço Nacional de Saúde,FALSE
Aquisição de medicamentos do Grupo IV: Sangue,Ao abrigo de acordo-quadro (art.º 259.º),Aquisição de bens móveis,"33600000-6, Produtos farmacêuticos","Centro Hospitalar do Médio Ave, E. P. E. (508093937)","LABORATORIOS MEDINFAR - PRODUTOS FARMACEUTICOS, S.A. (500384045)","0,01 €",03-05-2018,23-04-2018,242 dias,"Portugal, Braga, Vila Nova de Famalicão<BR/>Portugal, Porto, Santo Tirso",Artigo 259.º do Código dos Contratos Públicos,,,,,,2489595,CP 2016/18 - Acordo quadro para fornecimento de Medicamentos do Grupo 4: Sangue às Instituições e Serviços do Serviço Nacional de Saúde,FALSE
Aquisição de medicamentos do Grupo IV: Sangue,Ao abrigo de acordo-quadro (art.º 259.º),Aquisição de bens móveis,"33600000-6, Produtos farmacêuticos","Centro Hospitalar do Médio Ave, E. P. E. (508093937)",LABESFAL - LABORATORIOS ALMIRO S A (501169580),"2,66 €",03-05-2018,23-04-2018,242 dias,"Portugal, Braga, Vila Nova de Famalicão<BR/>Portugal, Porto, Santo Tirso",Artigo 259.º do Código dos Contratos Públicos,,,,,,2489595,CP 2016/18 - Acordo quadro para fornecimento de Medicamentos do Grupo 4: Sangue às Instituições e Serviços do Serviço Nacional de Saúde,FALSE
Aquisição de medicamentos do Grupo IV: Sangue,Ao abrigo de acordo-quadro (art.º 259.º),Aquisição de bens móveis,"33600000-6, Produtos farmacêuticos","Centro Hospitalar do Médio Ave, E. P. E. (508093937)",GENERIS - FARMACEUTICA S A (508107997),"2,86 €",03-05-2018,23-04-2018,242 dias,"Portugal, Porto, Santo Tirso<BR/>Portugal, Braga, Vila Nova de Famalicão",Artigo 259.º do Código dos Contratos Públicos,,,,,,2489595,CP 2016/18 - Acordo quadro para fornecimento de Medicamentos do Grupo 4: Sangue às Instituições e Serviços do Serviço Nacional de Saúde,FALSE
Aquisição de medicamentos do Grupo IV: Sangue,Ao abrigo de acordo-quadro (art.º 259.º),Aquisição de bens móveis,"33600000-6, Produtos farmacêuticos","Centro Hospitalar do Médio Ave, E. P. E. (508093937)","BIAL - PORTELA & CA., S.A. (500220913)","2,23 €",03-05-2018,23-04-2018,242 dias,"Portugal, Porto, Santo Tirso<BR/>Portugal, Braga, Vila Nova de Famalicão",Artigo 259.º do Código dos Contratos Públicos,,,,,,2489595,CP 2016/18 - Acordo quadro para fornecimento de Medicamentos do Grupo 4: Sangue às Instituições e Serviços do Serviço Nacional de Saúde,FALSE
Aquisição de medicamentos do Grupo IV: Sangue,Ao abrigo de acordo-quadro (art.º 259.º),Aquisição de bens móveis,"33600000-6, Produtos farmacêuticos","Centro Hospitalar do Médio Ave, E. P. E. (508093937)",B BRAUN MEDICAL LDA (501506543),"1,40 €",03-05-2018,23-04-2018,242 dias,"Portugal, Porto, Santo Tirso<BR/>Portugal, Braga, Vila Nova de Famalicão",Artigo 259.º do Código dos Contratos Públicos,,,,,,2489595,CP 2016/18 - Acordo quadro para fornecimento de Medicamentos do Grupo 4: Sangue às Instituições e Serviços do Serviço Nacional de Saúde,FALSE
