Objeto do Contrato,Tipo de Procedimento,Tipo(s) de Contrato,CPVs,Entidade(s) Adjudicante(s),Entidade(s) Adjudicatária(s),Preço Contratual,Data de Publicação,Data de Celebração do Contrato,Prazo de Execução,Local de Execução,Fundamentação,Data de Fecho do Contrato,Preço Total Efetivo,Causas das Alterações ao Prazo,Causas das Alterações ao Preço,Estado,N.º registo do Acordo Quadro,Descrição do Acordo Quadro,Procedimento Centralizado
Aquisição de CDI VR/Electrodo,Ajuste Direto Regime Geral,Aquisição de bens móveis,"33182100-0, Desfibrilhador","Centro Hospitalar Lisboa Norte, EPE (508481287)","Sorincardio, Lda. (505514010)","11.500,00 €",11-12-2012,11-12-2012,1 dias,"Portugal, Lisboa, Lisboa","Artigo 20.º, n.º 1, alínea a) do Código dos Contratos Públicos",,,,,,Não aplicável.,Não aplicável.,
Aquisição de HBV Genotipo Teste Det. 28T,Ajuste Direto Regime Geral,Aquisição de bens móveis,"33696500-0, Reagentes de laboratório","Centro Hospitalar Lisboa Norte, EPE (508481287)","Siemens Healthcare Diagnostics, Lda. (507925173)","5.600,00 €",11-12-2012,11-12-2012,3 dias,"Portugal, Lisboa, Lisboa","Artigo 24.º, n.º 1, alínea e) do Código dos Contratos Públicos",,,,,,Não aplicável.,Não aplicável.,
Aquisição de HIV1 Genotipo/Resistência Teste Det. 30T,Ajuste Direto Regime Geral,Aquisição de bens móveis,"33696500-0, Reagentes de laboratório","Centro Hospitalar Lisboa Norte, EPE (508481287)","Siemens Healthcare Diagnostics, Lda. (507925173)","7.179,00 €",11-12-2012,11-12-2012,3 dias,"Portugal, Lisboa, Lisboa","Artigo 20.º, n.º 1, alínea a) do Código dos Contratos Públicos",,,,,,Não aplicável.,Não aplicável.,
Aquisição de HCV Genotipo Teste Fet. 40 T.,Ajuste Direto Regime Geral,Aquisição de bens móveis,"33696500-0, Reagentes de laboratório","Centro Hospitalar Lisboa Norte, EPE (508481287)","Siemens Healthcare Diagnostics, Lda. (507925173)","5.078,40 €",11-12-2012,11-12-2012,3 dias,"Portugal, Lisboa, Lisboa","Artigo 24.º, n.º 1, alínea e) do Código dos Contratos Públicos",,,,,,Não aplicável.,Não aplicável.,
Aquisição de capsulas endoscopicas,Ajuste Direto Regime Geral,Aquisição de bens móveis,"33140000-3, Material médico de consumo","Centro Hospitalar Lisboa Norte, EPE (508481287)","Endotécnica, Lda. (503818348)","5.500,00 €",11-12-2012,11-12-2012,1 dias,"Portugal, Lisboa, Lisboa","Artigo 20.º, n.º 1, alínea a) do Código dos Contratos Públicos",,,,,,Não aplicável.,Não aplicável.,
Aquisição de Introdutor Vascular/ Cateter,Ajuste Direto Regime Geral,Aquisição de bens móveis,"33141200-2, Cateteres","Centro Hospitalar Lisboa Norte, EPE (508481287)","CR Bard Portugal, Lda. (502438274)","14.250,00 €",11-12-2012,11-12-2012,1 dias,"Portugal, Lisboa, Lisboa","Artigo 20.º, n.º 1, alínea a) do Código dos Contratos Públicos",,,,,,Não aplicável.,Não aplicável.,
Aquisição de Everolimus Comp. 10 Mg.,Ajuste Direto Regime Geral,Aquisição de bens móveis,"33652000-5, Antineoplásicos e imunomoduladores","Centro Hospitalar Lisboa Norte, EPE (508481287)","Novartis Farma, S.A. (500063524)","44.081,70 €",10-12-2012,20-11-2012,1 dias,"Portugal, Lisboa, Lisboa","Artigo 24.º, n.º 1, alínea e) do Código dos Contratos Públicos",,,,,,Não aplicável.,Não aplicável.,
Aquisição de Tobramicina 28 Mg. Pó Inalação Caps.,Ajuste Direto Regime Geral,Aquisição de bens móveis,"33651100-9, Antibacterianos de uso sistémico","Centro Hospitalar Lisboa Norte, EPE (508481287)","Novartis Farma, S.A. (500063524)","98.510,72 €",10-12-2012,20-11-2012,1 dias,"Portugal, Lisboa, Lisboa","Artigo 24.º, n.º 1, alínea e) do Código dos Contratos Públicos",,,,,,Não aplicável.,Não aplicável.,
"Aquisição de Fingolimod 0,5 Mg. Caps.",Ajuste Direto Regime Geral,Aquisição de bens móveis,"33652000-5, Antineoplásicos e imunomoduladores","Centro Hospitalar Lisboa Norte, EPE (508481287)","Novartis Farma, S.A. (500063524)","123.632,25 €",10-12-2012,20-11-2012,1 dias,"Portugal, Lisboa, Lisboa","Artigo 24.º, n.º 1, alínea e) do Código dos Contratos Públicos",,,,,,Não aplicável.,Não aplicável.,
Aquisição de Tamponamento Nasal Biodegradável Forte Plus,Ajuste Direto Regime Geral,Aquisição de bens móveis,"33621200-1, Anti-hemorrágicos","Centro Hospitalar Lisboa Norte, EPE (508481287)","Atos Medical Spain, SL (980435978)","7.416,00 €",10-12-2012,10-12-2012,1 dias,"Portugal, Lisboa, Lisboa","Artigo 24.º, n.º 1, alínea e) do Código dos Contratos Públicos",,,,,,Não aplicável.,Não aplicável.,
Aquisição de Glucose no sangue Tiras-Teste 50 Tiras,Ajuste Direto Regime Geral,Aquisição de bens móveis,"33696200-7, Reagentes para análises ao sangue","Centro Hospitalar Lisboa Norte, EPE (508481287)","Johson & Johnson, Lda. (500153370)","8.300,00 €",10-12-2012,10-12-2012,1 dias,"Portugal, Lisboa, Lisboa","Artigo 24.º, n.º 1, alínea e) do Código dos Contratos Públicos",,,,,,Não aplicável.,Não aplicável.,
Aquisição de Linezolide Comp. 600 Mg.,Ajuste Direto Regime Geral,Aquisição de bens móveis,"33651100-9, Antibacterianos de uso sistémico","Centro Hospitalar Lisboa Norte, EPE (508481287)","Laboratórios Pfizer, Lda. (500162166)","78.735,00 €",10-12-2012,05-12-2012,1 dias,"Portugal, Lisboa, Lisboa","Artigo 24.º, n.º 1, alínea e) do Código dos Contratos Públicos",,,,,,Não aplicável.,Não aplicável.,
Aquisição de Inibidor da Alfa 1 Proteinase Inj. 1000 M,Ajuste Direto Regime Geral,Aquisição de bens móveis,"33141520-1, Derivados do plasma","Centro Hospitalar Lisboa Norte, EPE (508481287)","Grifols Portugal, Lda. (502041285)","28.800,00 €",10-12-2012,06-12-2012,1 dias,"Portugal, Lisboa, Lisboa","Artigo 24.º, n.º 1, alínea e) do Código dos Contratos Públicos",,,,,,Não aplicável.,Não aplicável.,
Aquisição de Darbepoetina Alfa Inj. 150 Mcg.,Ajuste Direto Regime Geral,Aquisição de bens móveis,"33621300-2, Antianémicos","Centro Hospitalar Lisboa Norte, EPE (508481287)","Amgen Biofarmacêutica, Lda. (502942959)","51.408,00 €",10-12-2012,04-12-2012,1 dias,"Portugal, Lisboa, Lisboa","Artigo 24.º, n.º 1, alínea e) do Código dos Contratos Públicos",,,,,,Não aplicável.,Não aplicável.,
Aquisição de vários reagentes,Ajuste Direto Regime Geral,Aquisição de bens móveis,"33696500-0, Reagentes de laboratório","Centro Hospitalar Lisboa Norte, EPE (508481287)","Diamed Portuguesa Diagnóstica, Lda. (501675809)","13.878,40 €",10-12-2012,03-12-2012,1 dias,"Portugal, Lisboa, Lisboa","Artigo 24.º, n.º 1, alínea e) do Código dos Contratos Públicos",,,,,,Não aplicável.,Não aplicável.,
Aquisição de Darbepoetina Alfa Inj. 100 Mcg.,Ajuste Direto Regime Geral,Aquisição de bens móveis,"33621300-2, Antianémicos","Centro Hospitalar Lisboa Norte, EPE (508481287)","Amgen Biofarmacêutica, Lda. (502942959)","14.688,00 €",10-12-2012,03-12-2012,1 dias,"Portugal, Lisboa, Lisboa","Artigo 24.º, n.º 1, alínea e) do Código dos Contratos Públicos",,,,,,Não aplicável.,Não aplicável.,
"Aquisição de Iloprost Sol. Inj. Mcg./0,5 Ml.",Ajuste Direto Regime Geral,Aquisição de bens móveis,"33622000-6, Medicamentos para o aparelho cardiovascular","Centro Hospitalar Lisboa Norte, EPE (508481287)","Bayer Portugal, S.A. (500043256)","9.776,20 €",07-12-2012,07-12-2012,1 dias,"Portugal, Lisboa, Lisboa","Artigo 24.º, n.º 1, alínea e) do Código dos Contratos Públicos",,,,,,Não aplicável.,Não aplicável.,
Aquisição de Mcconkey Agar Meio Cultura 500 Gr.,Ajuste Direto Regime Geral,Aquisição de bens móveis,"33696500-0, Reagentes de laboratório","Centro Hospitalar Lisboa Norte, EPE (508481287)","Fisher Scientific, Lda. (506429210)","5.392,80 €",07-12-2012,07-12-2012,1 dias,"Portugal, Lisboa, Lisboa","Artigo 20.º, n.º 1, alínea a) do Código dos Contratos Públicos",,,,,,Não aplicável.,Não aplicável.,
Aquisição de Tempo Protrombina Tiras-Teste 48 Tiras,Ajuste Direto Regime Geral,Aquisição de bens móveis,"33696500-0, Reagentes de laboratório","Centro Hospitalar Lisboa Norte, EPE (508481287)","Roche Sistemas Diagnósticos, Lda. (504282921)","9.520,00 €",07-12-2012,07-12-2012,3 dias,"Portugal, Lisboa, Lisboa","Artigo 24.º, n.º 1, alínea e) do Código dos Contratos Públicos",,,,,,Não aplicável.,Não aplicável.,
Aquisição de Factor VIII 500 UI + Factor Von Willebra,Ajuste Direto Regime Geral,Aquisição de bens móveis,"33621200-1, Anti-hemorrágicos","Centro Hospitalar Lisboa Norte, EPE (508481287)","Octapharma, Lda. (502820780)","6.000,00 €",07-12-2012,07-12-2012,2 dias,"Portugal, Lisboa, Lisboa","Artigo 24.º, n.º 1, alínea e) do Código dos Contratos Públicos",,,,,,Não aplicável.,Não aplicável.,
Reparação de insensificador de imagem para o Bloco Central  Ortopedia I,Ajuste Direto Regime Geral,Aquisição de serviços,"50400000-9, Serviços de reparação e manutenção de equipamento médico e de precisão","Centro Hospitalar Lisboa Norte, EPE (508481287)","General Electric Portuguesa, S.A. (500357129)","14.854,38 €",07-12-2012,07-12-2012,30 dias,"Portugal, Lisboa, Lisboa","Artigo 20.º, n.º 1, alínea a) do Código dos Contratos Públicos",,,,,,Não aplicável.,Não aplicável.,
Aquisição de Decomplexo de Protrombina Humana 500 UI/20 Ml.,Ajuste Direto Regime Geral,Aquisição de bens móveis,"33621200-1, Anti-hemorrágicos","Centro Hospitalar Lisboa Norte, EPE (508481287)","Octapharma, Lda. (502820780)","18.000,00 €",06-12-2012,29-11-2012,2 dias,"Portugal, Lisboa, Lisboa","Artigo 24.º, n.º 1, alínea e) do Código dos Contratos Públicos",,,,,,Não aplicável.,Não aplicável.,
Aquisição de Stent Intracraneano,Ajuste Direto Regime Geral,Aquisição de bens móveis,"33184200-5, Próteses vasculares","Centro Hospitalar Lisboa Norte, EPE (508481287)","Biomedica, Lda. (501745459)","9.500,00 €",06-12-2012,06-12-2012,1 dias,"Portugal, Lisboa, Lisboa","Artigo 20.º, n.º 1, alínea a) do Código dos Contratos Públicos",,,,,,Não aplicável.,Não aplicável.,
"Aquisição de colagenio c/ Gentamicina 10X10X0,5 Cm (10 Impl).",Ajuste Direto Regime Geral,Aquisição de bens móveis,"33621200-1, Anti-hemorrágicos","Centro Hospitalar Lisboa Norte, EPE (508481287)","EUSA Pharma, SAS (980376580)","6.000,00 €",06-12-2012,06-12-2012,1 dias,"Portugal, Lisboa, Lisboa","Artigo 24.º, n.º 1, alínea e) do Código dos Contratos Públicos",,,,,,Não aplicável.,Não aplicável.,
Aquisição de Aztreonam 75 Mg. Solução p/ inalação,Ajuste Direto Regime Geral,Aquisição de bens móveis,"33651100-9, Antibacterianos de uso sistémico","Centro Hospitalar Lisboa Norte, EPE (508481287)","Gilead Sciences, Lda. (503604704)","6.757,20 €",06-12-2012,06-12-2012,2 dias,"Portugal, Lisboa, Lisboa","Artigo 24.º, n.º 1, alínea e) do Código dos Contratos Públicos",,,,,,Não aplicável.,Não aplicável.,
Aquisição de Imunoglobulina 100 Mg/Ml Inj. Fr. 20 Ml.,Ajuste Direto Regime Geral,Aquisição de bens móveis,"33651520-9, Imunoglobulinas","Centro Hospitalar Lisboa Norte, EPE (508481287)","Octapharma, Lda. (502820780)","6.400,00 €",05-12-2012,05-12-2012,2 dias,"Portugal, Lisboa, Lisboa","Artigo 24.º, n.º 1, alínea e) do Código dos Contratos Públicos",,,,,,Não aplicável.,Não aplicável.,
Aquisição de Fio Guia,Ajuste Direto Regime Geral,Aquisição de bens móveis,"33141200-2, Cateteres","Centro Hospitalar Lisboa Norte, EPE (508481287)","St. Jude Medical Portugal, Lda. (504180746)","6.900,00 €",05-12-2012,05-12-2012,1 dias,"Portugal, Lisboa, Lisboa","Artigo 20.º, n.º 1, alínea a) do Código dos Contratos Públicos",,,,,,Não aplicável.,Não aplicável.,
Aquisição de Entecavir Comp. 1 Mg.,Ajuste Direto Regime Geral,Aquisição de bens móveis,"33651400-2, Antivíricos de uso sistémico","Centro Hospitalar Lisboa Norte, EPE (508481287)","Bristol, S.A. (500048193)","27.000,00 €",05-12-2012,30-11-2012,1 dias,"Portugal, Lisboa, Lisboa","Artigo 24.º, n.º 1, alínea e) do Código dos Contratos Públicos",,,,,,Não aplicável.,Não aplicável.,
aquisição de Endoproteses Aorticas,Ajuste Direto Regime Geral,Aquisição de bens móveis,"33184500-8, Endopróteses coronárias","Centro Hospitalar Lisboa Norte, EPE (508481287)","Medicinália - Cormédica, Lda. (500684324)","26.240,00 €",05-12-2012,05-12-2012,1 dias,"Portugal, Lisboa, Lisboa","Artigo 20.º, n.º 1, alínea a) do Código dos Contratos Públicos",,,,,,Não aplicável.,Não aplicável.,
Aquisição de Endoprótese Aórtica Hibrida,Ajuste Direto Regime Geral,Aquisição de bens móveis,"33184500-8, Endopróteses coronárias","Centro Hospitalar Lisboa Norte, EPE (508481287)","Lusopalex, Lda. (503531588)","15.000,00 €",05-12-2012,05-12-2012,3 dias,"Portugal, Lisboa, Lisboa","Artigo 20.º, n.º 1, alínea a) do Código dos Contratos Públicos",,,,,,Não aplicável.,Não aplicável.,
"Aquisição de Somatropina Sol. Inj. 10 Mg./1,5 Ml.",Ajuste Direto Regime Geral,Aquisição de bens móveis,"33642100-3, Hormonas hipofisárias, hipotalâmicas e semelhantes","Centro Hospitalar Lisboa Norte, EPE (508481287)","Novo Nordisk, Lda. (501485210)","7.445,75 €",05-12-2012,05-12-2012,1 dias,"Portugal, Lisboa, Lisboa","Artigo 24.º, n.º 1, alínea e) do Código dos Contratos Públicos",,,,,,Não aplicável.,Não aplicável.,
Aquisição de Filgrastim Seringa,Ajuste Direto Regime Geral,Aquisição de bens móveis,"33621300-2, Antianémicos","Centro Hospitalar Lisboa Norte, EPE (508481287)","Amgen, Lda. (502942959)","12.190,50 €",05-12-2012,05-12-2012,1 dias,"Portugal, Lisboa, Lisboa","Artigo 24.º, n.º 1, alínea e) do Código dos Contratos Públicos",,,,,,Não aplicável.,Não aplicável.,
Aquisição de Lopinavir 200 Mg + Ritonavir 50 Mg. Comp.,Ajuste Direto Regime Geral,Aquisição de bens móveis,"33651400-2, Antivíricos de uso sistémico","Centro Hospitalar Lisboa Norte, EPE (508481287)","Abbvie, Lda. (510229050)","349.843,68 €",05-12-2012,28-11-2012,2 dias,"Portugal, Lisboa, Lisboa","Artigo 24.º, n.º 1, alínea e) do Código dos Contratos Públicos",,,,,,Não aplicável.,Não aplicável.,
Aquisição de Polielectrolítico Sol. p/ Hemofiltração 4,Ajuste Direto Regime Geral,Aquisição de bens móveis,"33692800-5, Soluções para diálise","Centro Hospitalar Lisboa Norte, EPE (508481287)",Gambro Lundia AB (980367751),"50.760,00 €",05-12-2012,04-10-2012,1 dias,"Portugal, Lisboa, Lisboa","Artigo 24.º, n.º 1, alínea e) do Código dos Contratos Públicos",,,,,,Não aplicável.,Não aplicável.,
Aquisição de Interferão Beta 1 A Inj. 30 Mcg.,Ajuste Direto Regime Geral,Aquisição de bens móveis,"33652000-5, Antineoplásicos e imunomoduladores","Centro Hospitalar Lisboa Norte, EPE (508481287)","Biogen Idec Portugal, Lda. (506415740)","232.479,00 €",04-12-2012,28-11-2012,2 dias,"Portugal, Lisboa, Lisboa","Artigo 24.º, n.º 1, alínea e) do Código dos Contratos Públicos",,,,,,Não aplicável.,Não aplicável.,
Aquisição de Somatropina 12 Mg. Inj. Caneta,Ajuste Direto Regime Geral,Aquisição de bens móveis,"33642100-3, Hormonas hipofisárias, hipotalâmicas e semelhantes","Centro Hospitalar Lisboa Norte, EPE (508481287)","Laboratórios Pfizer, Lda. (500162166)","96.964,80 €",04-12-2012,28-11-2012,1 dias,"Portugal, Lisboa, Lisboa","Artigo 24.º, n.º 1, alínea e) do Código dos Contratos Públicos",,,,,,Não aplicável.,Não aplicável.,
Aquisição de Natalizumab Inj. 20 Mg./Ml. Amp. 15 Ml.,Ajuste Direto Regime Geral,Aquisição de bens móveis,"33652000-5, Antineoplásicos e imunomoduladores","Centro Hospitalar Lisboa Norte, EPE (508481287)","Biogen Idec Portugal, Lda. (506415740)","272.250,00 €",04-12-2012,28-11-2012,2 dias,"Portugal, Lisboa, Lisboa","Artigo 24.º, n.º 1, alínea e) do Código dos Contratos Públicos",,,,,,Não aplicável.,Não aplicável.,
Reparação de um Litotritor para o Serviço de Urologia,Ajuste Direto Regime Geral,Aquisição de serviços,"50422000-9, Serviços de reparação e manutenção de equipamento cirúrgico","Centro Hospitalar Lisboa Norte, EPE (508481287)","Grupo Taper, Lda. (506886336)","17.586,40 €",04-12-2012,04-12-2012,30 dias,"Portugal, Lisboa, Lisboa","Artigo 20.º, n.º 1, alínea a) do Código dos Contratos Públicos",,,,,,Não aplicável.,Não aplicável.,
Aquisição de Fio Guia/Electrocateter,Ajuste Direto Regime Geral,Aquisição de bens móveis,"33141200-2, Cateteres","Centro Hospitalar Lisboa Norte, EPE (508481287)","Medtronic Portugal, Lda. (504223933)","21.921,55 €",04-12-2012,04-12-2012,1 dias,"Portugal, Lisboa, Lisboa","Artigo 20.º, n.º 1, alínea a) do Código dos Contratos Públicos",,,,,,Não aplicável.,Não aplicável.,
Reparação de um Citoscópio,Ajuste Direto Regime Geral,Aquisição de serviços,"50422000-9, Serviços de reparação e manutenção de equipamento cirúrgico","Centro Hospitalar Lisboa Norte, EPE (508481287)",Grupo Taper LDA (506886336),"5.640,00 €",04-12-2012,04-12-2012,15 dias,"Portugal, Lisboa, Lisboa","Artigo 20.º, n.º 1, alínea a) do Código dos Contratos Públicos",,,,,,Não aplicável.,Não aplicável.,
Aquisição de Iobitrinol Sol. Inj. 35% Iodo Frs. 200 Ml.,Ajuste Direto Regime Geral,Aquisição de bens móveis,"33692500-2, Soluções injectáveis","Centro Hospitalar Lisboa Norte, EPE (508481287)","A. Martins & Fernandes, S.A. (501172114)","9.500,00 €",03-12-2012,03-12-2012,1 dias,"Portugal, Lisboa, Lisboa","Artigo 24.º, n.º 1, alínea e) do Código dos Contratos Públicos",,,,,,Não aplicável.,Não aplicável.,
Aquisição de Tenofovir Comp. 300 Mg.,Ajuste Direto Regime Geral,Aquisição de bens móveis,"33651400-2, Antivíricos de uso sistémico","Centro Hospitalar Lisboa Norte, EPE (508481287)","Gilead Sciences, Lda. (503604704)","161.106,00 €",03-12-2012,30-11-2012,2 dias,"Portugal, Lisboa, Lisboa","Artigo 24.º, n.º 1, alínea e) do Código dos Contratos Públicos",,,,,,Não aplicável.,Não aplicável.,
Aquisição de Protese Vascular,Ajuste Direto Regime Geral,Aquisição de bens móveis,"33184200-5, Próteses vasculares","Centro Hospitalar Lisboa Norte, EPE (508481287)","Edwards Lifesciences Portugal, Lda. (508014832)","36.000,00 €",03-12-2012,03-12-2012,2 dias,"Portugal, Lisboa, Lisboa","Artigo 20.º, n.º 1, alínea a) do Código dos Contratos Públicos",,,,,,Não aplicável.,Não aplicável.,
Aaquisição de vários medicamentos,Ajuste Direto Regime Geral,Aquisição de bens móveis,"33621300-2, Antianémicos","Centro Hospitalar Lisboa Norte, EPE (508481287)","Amgen Biofarmacêutica, Lda. (502942959)","35.985,60 €",03-12-2012,28-11-2012,1 dias,"Portugal, Lisboa, Lisboa","Artigo 26.º, n.º 1, alínea e) do Código dos Contratos Públicos",,,,,,Não aplicável.,Não aplicável.,
Aquisição de 225 Seringas de Darbopoetina Alfa Inj. 500 Mcg.,Ajuste Direto Regime Geral,Aquisição de bens móveis,"33621300-2, Antianémicos","Centro Hospitalar Lisboa Norte, EPE (508481287)","Amgen Biofarmacêutica, Lda. (502942959)","123.930,00 €",03-12-2012,28-11-2012,1 dias,"Portugal, Lisboa, Lisboa","Artigo 24.º, n.º 1, alínea e) do Código dos Contratos Públicos",,,,,,Não aplicável.,Não aplicável.,
Aquisição de 30.000 Comp. Raltergravir Comp. 400 Mg.,Ajuste Direto Regime Geral,Aquisição de bens móveis,"33651400-2, Antivíricos de uso sistémico","Centro Hospitalar Lisboa Norte, EPE (508481287)","Merck Sharp & Dohme, Lda. (500191360)","345.000,00 €",03-12-2012,26-11-2012,3 dias,"Portugal, Lisboa, Lisboa","Artigo 24.º, n.º 1, alínea e) do Código dos Contratos Públicos",,,,,,Não aplicável.,Não aplicável.,
Aquisição de 9.000 caps. de  Bicarbonato Sódio Caps. 1 Gr.,Ajuste Direto Regime Geral,Aquisição de bens móveis,"33690000-3, Medicamentos vários","Centro Hospitalar Lisboa Norte, EPE (508481287)","Labesfal, S.A. (501169580)","5.004,00 €",03-12-2012,03-12-2012,1 dias,"Portugal, Lisboa, Lisboa","Artigo 24.º, n.º 1, alínea e) do Código dos Contratos Públicos",,,,,,Não aplicável.,Não aplicável.,
