Objeto do Contrato,Tipo de Procedimento,Tipo(s) de Contrato,CPVs,Entidade(s) Adjudicante(s),Entidade(s) Adjudicatária(s),Preço Contratual,Data de Publicação,Data de Celebração do Contrato,Prazo de Execução,Local de Execução,Fundamentação,Data de Fecho do Contrato,Preço Total Efetivo,Causas das Alterações ao Prazo,Causas das Alterações ao Preço,Estado,N.º registo do Acordo Quadro,Descrição do Acordo Quadro,Procedimento Centralizado
Aquisição de Aventais de Proteção de Radiologia p/ Saúde Oral,Ao abrigo de acordo-quadro (art.º 259.º),Aquisição de bens móveis,"33100000-1, Equipamento médico","Administração Regional de Saúde do Algarve, I. P. (503148709)","HR  HOSPITALAR, LDA (501895558)","1.050,00 €",11-10-2017,11-10-2017,81 dias,"Portugal, Faro, Faro",Artigo 259.º do Código dos Contratos Públicos,29-12-2017,"",,"Adjudicatário não conseguiu fornecer artigos encomendados até final do ano, pelo que a respetiva Encomenda foi cancelada.",,2727469,CP 2017/210 - Acordo Quadro para Fornecimento de Dispositivos Médicos de Saúde Oral às Instituições e Serviços do Serviço Nacional de Saúde,FALSE
SC/300/2017 - Aquisição de Medicamentos Gerais.16,Ao abrigo de acordo-quadro (art.º 259.º),Aquisição de bens móveis,"33690000-3, Medicamentos vários","Administração Regional de Saúde do Algarve, I. P. (503148709)","Generis - Farmacêutica, S.A. (508107997)","1.422,71 €",09-10-2017,09-10-2017,83 dias,"Portugal, Faro, Faro",Artigo 259.º do Código dos Contratos Públicos,19-12-2017,"1.252,18 €",,Quantidades encomendadas,,1179915,"CONCURSO PÚBLICO PARA A CELEBRAÇÃO DE CONTRATOS PÚBLICOS DE APROVISIONAMENTO PARA A ÁREA DA SAÚDE, COM VISTA AO FORNECIMENTO DE MEDICAMENTOS DO APARELHO CARDIOVASCULAR, ÀS INSTITUIÇÕES E SERVIÇOS DO SERVIÇO NACIONAL DE SAÚDE",FALSE
SC/300/2017 - Aquisição de Medicamentos Gerais.16,Ao abrigo de acordo-quadro (art.º 259.º),Aquisição de bens móveis,"33690000-3, Medicamentos vários","Administração Regional de Saúde do Algarve, I. P. (503148709)","Labesfal - Laboratórios Almiro, S.A. (501169580)","318,06 €",09-10-2017,09-10-2017,83 dias,"Portugal, Faro, Faro",Artigo 259.º do Código dos Contratos Públicos,11-12-2017,"25,25 €",,Quantidades encomendadas,,1179915,"CONCURSO PÚBLICO PARA A CELEBRAÇÃO DE CONTRATOS PÚBLICOS DE APROVISIONAMENTO PARA A ÁREA DA SAÚDE, COM VISTA AO FORNECIMENTO DE MEDICAMENTOS DO APARELHO CARDIOVASCULAR, ÀS INSTITUIÇÕES E SERVIÇOS DO SERVIÇO NACIONAL DE SAÚDE",FALSE
SC/300/2017 - Aquisição de Medicamentos Gerais.16,Ao abrigo de acordo-quadro (art.º 259.º),Aquisição de bens móveis,"33690000-3, Medicamentos vários","Administração Regional de Saúde do Algarve, I. P. (503148709)","Hikma - Farmacêutica, S.A. (502266791)","457,40 €",09-10-2017,09-10-2017,83 dias,"Portugal, Faro, Faro",Artigo 259.º do Código dos Contratos Públicos,13-12-2017,"56,90 €",,Quantidades encomendadas,,1179915,"CONCURSO PÚBLICO PARA A CELEBRAÇÃO DE CONTRATOS PÚBLICOS DE APROVISIONAMENTO PARA A ÁREA DA SAÚDE, COM VISTA AO FORNECIMENTO DE MEDICAMENTOS DO APARELHO CARDIOVASCULAR, ÀS INSTITUIÇÕES E SERVIÇOS DO SERVIÇO NACIONAL DE SAÚDE",FALSE
SC/300/2017 - Aquisição de Medicamentos Gerais.16,Ao abrigo de acordo-quadro (art.º 259.º),Aquisição de bens móveis,"33690000-3, Medicamentos vários","Administração Regional de Saúde do Algarve, I. P. (503148709)","Accord Healthcare, Unipessoal, Lda. (508622263)","78,50 €",06-10-2017,06-10-2017,84 dias,"Portugal, Faro, Faro",Artigo 259.º do Código dos Contratos Públicos,21-12-2017,"78,50 €",,"",,1179915,"CONCURSO PÚBLICO PARA A CELEBRAÇÃO DE CONTRATOS PÚBLICOS DE APROVISIONAMENTO PARA A ÁREA DA SAÚDE, COM VISTA AO FORNECIMENTO DE MEDICAMENTOS DO APARELHO CARDIOVASCULAR, ÀS INSTITUIÇÕES E SERVIÇOS DO SERVIÇO NACIONAL DE SAÚDE",FALSE
SC_315_2017 - Aquisição de Material Médico fisioterapia e geral,Ao abrigo de acordo-quadro (art.º 259.º),Aquisição de bens móveis,"33000000-0, Equipamento médico, medicamentos e produtos para cuidados pessoais","Administração Regional de Saúde do Algarve, I. P. (503148709)",Cenatolim (507397924),"188,10 €",04-10-2017,04-10-2017,15 dias,"Portugal, Faro",Artigo 259.º do Código dos Contratos Públicos,"","",,"",,1587913,Acordo Quadro para fornecimento de Equipamentos e Dispositivos Médicos de uso comum em internamento e ambulatório - Parte I às instituições e serviços do Serviço Nacional de Saúde.,FALSE
SC_315_2017 - Aquisição de Material Médico Fisioterapia e Geral,Ao abrigo de acordo-quadro (art.º 259.º),Aquisição de bens móveis,"33000000-0, Equipamento médico, medicamentos e produtos para cuidados pessoais","Administração Regional de Saúde do Algarve, I. P. (503148709)",Dimor Lusitana (500730741),"477,30 €",04-10-2017,27-09-2017,15 dias,"Portugal, Faro",Artigo 259.º do Código dos Contratos Públicos,"","",,"",,1587913,Acordo Quadro para fornecimento de Equipamentos e Dispositivos Médicos de uso comum em internamento e ambulatório - Parte I às instituições e serviços do Serviço Nacional de Saúde.,FALSE
"SC_315_2017 - Aquisição de Material Médico, Fisioterapia e Geral",Ao abrigo de acordo-quadro (art.º 259.º),Aquisição de bens móveis,"33000000-0, Equipamento médico, medicamentos e produtos para cuidados pessoais","Administração Regional de Saúde do Algarve, I. P. (503148709)","EPJ Médica, Lda (506820513)","306,10 €",04-10-2017,27-09-2017,15 dias,"Portugal, Faro",Artigo 259.º do Código dos Contratos Públicos,"","",,"",,1587913,Acordo Quadro para fornecimento de Equipamentos e Dispositivos Médicos de uso comum em internamento e ambulatório - Parte I às instituições e serviços do Serviço Nacional de Saúde.,FALSE
"SC_315_2017 - Aquisição de Material Médico, Fisioterapia e Geral",Ao abrigo de acordo-quadro (art.º 259.º),Aquisição de bens móveis,"33000000-0, Equipamento médico, medicamentos e produtos para cuidados pessoais","Administração Regional de Saúde do Algarve, I. P. (503148709)","Paul Hartmann, Lda (502271728)","65,74 €",04-10-2017,02-10-2017,15 dias,"Portugal, Faro, Faro",Artigo 259.º do Código dos Contratos Públicos,"","",,"",,1587913,Acordo Quadro para fornecimento de Equipamentos e Dispositivos Médicos de uso comum em internamento e ambulatório - Parte I às instituições e serviços do Serviço Nacional de Saúde.,FALSE
"SC_315_2017 - Aquisição de Material Médico, Fisioterapia e Geral",Ao abrigo de acordo-quadro (art.º 259.º),Aquisição de bens móveis,"33000000-0, Equipamento médico, medicamentos e produtos para cuidados pessoais","Administração Regional de Saúde do Algarve, I. P. (503148709)","Quilaban, S.A. (500399670)","464,10 €",04-10-2017,26-09-2017,15 dias,"Portugal, Faro",Artigo 259.º do Código dos Contratos Públicos,"","",,"",,1587913,Acordo Quadro para fornecimento de Equipamentos e Dispositivos Médicos de uso comum em internamento e ambulatório - Parte I às instituições e serviços do Serviço Nacional de Saúde.,FALSE
"SC_315_2017 - Aquisição de Material Médico, fisioterapia e Geral",Ao abrigo de acordo-quadro (art.º 259.º),Aquisição de bens móveis,"33000000-0, Equipamento médico, medicamentos e produtos para cuidados pessoais","Administração Regional de Saúde do Algarve, I. P. (503148709)",Bastos Viegas (500042772),"819,70 €",04-10-2017,03-10-2017,15 dias,"Portugal, Faro",Artigo 259.º do Código dos Contratos Públicos,"","",,"",,1587913,Acordo Quadro para fornecimento de Equipamentos e Dispositivos Médicos de uso comum em internamento e ambulatório - Parte I às instituições e serviços do Serviço Nacional de Saúde.,FALSE
SC/300/2017 - Aquisição de Medicamentos Gerais.16,Ao abrigo de acordo-quadro (art.º 259.º),Aquisição de bens móveis,"33690000-3, Medicamentos vários","Administração Regional de Saúde do Algarve, I. P. (503148709)","Aurovitas Unipessoal, Lda. (513053239)","244,40 €",04-10-2017,04-10-2017,86 dias,"Portugal, Faro, Faro",Artigo 259.º do Código dos Contratos Públicos,19-12-2017,"90,81 €",,Quantidades encomendadas,,1179915,"CONCURSO PÚBLICO PARA A CELEBRAÇÃO DE CONTRATOS PÚBLICOS DE APROVISIONAMENTO PARA A ÁREA DA SAÚDE, COM VISTA AO FORNECIMENTO DE MEDICAMENTOS DO APARELHO CARDIOVASCULAR, ÀS INSTITUIÇÕES E SERVIÇOS DO SERVIÇO NACIONAL DE SAÚDE",FALSE
SC/300/2017 - Aquisição de Medicamentos Gerais.16,Ao abrigo de acordo-quadro (art.º 259.º),Aquisição de bens móveis,"33690000-3, Medicamentos vários","Administração Regional de Saúde do Algarve, I. P. (503148709)","Sanofi - Produtos Farmacêuticos, Lda. (500134960)","81,61 €",04-10-2017,04-10-2017,86 dias,"Portugal, Faro, Faro",Artigo 259.º do Código dos Contratos Públicos,04-12-2017,"44,46 €",,Quantidades encomendadas,,1179915,"CONCURSO PÚBLICO PARA A CELEBRAÇÃO DE CONTRATOS PÚBLICOS DE APROVISIONAMENTO PARA A ÁREA DA SAÚDE, COM VISTA AO FORNECIMENTO DE MEDICAMENTOS DO APARELHO CARDIOVASCULAR, ÀS INSTITUIÇÕES E SERVIÇOS DO SERVIÇO NACIONAL DE SAÚDE",FALSE
Aquisição de Material Informático para a USF Farol,Ajuste Direto Regime Geral,Aquisição de bens móveis,"30230000-0, Equipamento informático","Administração Regional de Saúde do Algarve, I. P. (503148709)","ALGARDATA SISTEMAS INFORMÁTICOS , S.A. (502420227)","3.630,00 €",03-10-2017,03-10-2017,89 dias,"Portugal, Faro, Faro","Artigo 20.º, n.º 1, alínea a) do Código dos Contratos Públicos",15-12-2017,"3.630,00 €",,"",,Não aplicável.,Não aplicável.,FALSE
Aquisição de Algálias,Concurso público,Aquisição de bens móveis,"33000000-0, Equipamento médico, medicamentos e produtos para cuidados pessoais","Administração Regional de Saúde do Algarve, I. P. (503148709)",MEDTRONIC PORTUGAL LDA (504223933),"1.232,22 €",03-10-2017,03-10-2017,89 dias,"Portugal, Faro, Faro","Artigo 20.º, n.º 1, alínea b) do Código dos Contratos Públicos","","",,"",,Não aplicável.,Não aplicável.,FALSE
Aquisição de Algálias,Concurso público,Aquisição de bens móveis,"33000000-0, Equipamento médico, medicamentos e produtos para cuidados pessoais","Administração Regional de Saúde do Algarve, I. P. (503148709)",BIOSONDA-COMERC MATERIAL HOSPITALAR (501463313),"3.456,00 €",03-10-2017,03-10-2017,89 dias,"Portugal, Faro, Faro","Artigo 20.º, n.º 1, alínea b) do Código dos Contratos Públicos","","",,"",,Não aplicável.,Não aplicável.,FALSE
Aquisição de Algálias,Concurso público,Aquisição de bens móveis,"33000000-0, Equipamento médico, medicamentos e produtos para cuidados pessoais","Administração Regional de Saúde do Algarve, I. P. (503148709)","DOCWORLD, Lda (508592909)","128,00 €",03-10-2017,03-10-2017,89 dias,"Portugal, Faro, Faro","Artigo 20.º, n.º 1, alínea b) do Código dos Contratos Públicos","","",,"",,Não aplicável.,Não aplicável.,FALSE
SC/351/2017 - Aquisição de Medicamentos Gerais.20,Ao abrigo de acordo-quadro (art.º 259.º),Aquisição de bens móveis,"33600000-6, Produtos farmacêuticos","Administração Regional de Saúde do Algarve, I. P. (503148709)","Ratiopharm - Comércio, Industria de Produtos Farmacêuticos, Lda. (502414910)","48,00 €",02-10-2017,25-09-2017,90 dias,"Portugal, Faro, Faro",Artigo 259.º do Código dos Contratos Públicos,02-10-2017,"48,00 €",,"",,1326195,ACORDO QUADRO PARA FORNECIMENTO DE MEDICAMENTOS ANTI-INFECIOSOS: EXCETO ANTIVÍRICOS E ANTIFÚNGICOS ÀS INSTITUIÇÕES E SERVIÇOS DO SERVIÇO NACIONAL DE SAÚDE,FALSE
SC/356/2017 - Aquisição de Medicamentos Gerais.22,Ao abrigo de acordo-quadro (art.º 259.º),Aquisição de bens móveis,"33600000-6, Produtos farmacêuticos","Administração Regional de Saúde do Algarve, I. P. (503148709)","Laboratório Edol - Produtos Farmacêuticos, S.A. (507072642)","180,82 €",02-10-2017,02-10-2017,90 dias,"Portugal, Faro, Faro",Artigo 259.º do Código dos Contratos Públicos,02-10-2017,"158,08 €",,Quantidades encomendadas.,,1377420,Acordo quadro para fornecimento de medicamentos usados nas afecções oculares e otorrinolaringologias às instituições e serviços do serviço nacional de saúde,FALSE
