Objeto do Contrato,Tipo de Procedimento,Tipo(s) de Contrato,CPVs,Entidade(s) Adjudicante(s),Entidade(s) Adjudicatária(s),Preço Contratual,Data de Publicação,Data de Celebração do Contrato,Prazo de Execução,Local de Execução,Fundamentação,Data de Fecho do Contrato,Preço Total Efetivo,Causas das Alterações ao Prazo,Causas das Alterações ao Preço,Estado,N.º registo do Acordo Quadro,Descrição do Acordo Quadro,Procedimento Centralizado
72/1456/2018 - Aquisição de Próteses de Joelho,Ajuste Direto Regime Geral,Aquisição de bens móveis,"33183000-6, Material de assistência ortopédica","Centro Hospitalar Universitário do Algarve, E. P. E. (510745997)","ZIMMER BIOMET PORTUGAL, UNIPESSOAL LDA  (500254990)","18.000,00 €",09-04-2018,27-03-2018,80 dias,"Portugal, Faro, Faro","Artigo 20.º, n.º 1, alínea d) do Código dos Contratos Públicos",,,,,,Não aplicável.,Não aplicável.,FALSE
Prestação de Serviços Médicos de Ortopedia,Ajuste Direto Regime Geral,Aquisição de serviços,"85121283-0, Serviços de ortopedia","Centro Hospitalar Universitário do Algarve, E. P. E. (510745997)",Kelly Healthcare Resourses (510723691),"323.917,44 €",09-04-2018,04-04-2018,300 dias,"Portugal, Faro, Portimão<BR/>Portugal, Faro, Faro","Artigo 24.º, n.º 1, alínea b) do Código dos Contratos Públicos",,,,,,Não aplicável.,Não aplicável.,FALSE
62/1735/2018 - Aquisição Cardioversor Desf. 1 Câmara (CDI-VR) Gerador s/Elect. - PC7005410,Ajuste Direto Regime Geral,Aquisição de bens móveis,"33182240-3, Peças e acessórios para estimuladores cardíacos (pacemakers)","Centro Hospitalar Universitário do Algarve, E. P. E. (510745997)",ABBOTT MEDICAL (EX. ST. JUDE) (504180746),"8.500,00 €",09-04-2018,02-04-2018,240 dias,"Portugal, Faro, Faro<BR/>Portugal, Faro, Lagos<BR/>Portugal, Faro, Portimão","Artigo 24.º, n.º 1, alínea e), subalínea iii) do Código dos Contratos Públicos",,,,,,Não aplicável.,Não aplicável.,FALSE
62/1892/2018 Aquisição de Papel p/Empacotar Comprimidos Krz Multiblist,Ajuste Direto Regime Geral,Aquisição de bens móveis,"33140000-3, Material médico de consumo","Centro Hospitalar Universitário do Algarve, E. P. E. (510745997)",AVIQUIMICA IMPORT E MANUFATURA (500039720),"15.840,00 €",06-04-2018,03-04-2018,270 dias,"Portugal, Faro, Portimão<BR/>Portugal, Faro, Faro","Artigo 24.º, n.º 1, alínea e), subalínea i) do Código dos Contratos Públicos",,,,,,Não aplicável.,Não aplicável.,FALSE
82/0660/2018 - Aquisição de Material de Ortopedia (cimentos e taças),Consulta Prévia,Aquisição de bens móveis,"33183000-6, Material de assistência ortopédica","Centro Hospitalar Universitário do Algarve, E. P. E. (510745997)","ORTOIMPLANTE - SOC. DE ORTOPEDIA, LDA. (502654414), Biomet Portugal Unipessoal, Lda. (500254990)","28.740,00 €",04-04-2018,21-03-2018,270 dias,"Portugal, Faro, Faro<BR/>Portugal, Faro, Portimão<BR/>Portugal, Faro, Lagos","Artigo 20.º, n.º 1, alínea c) do Código dos Contratos Públicos",,,,,,Não aplicável.,Não aplicável.,FALSE
68/1834/2018 - Prestação de Serviços Seguros de Acidentes de trabalho Abril,Ajuste Direto Regime Geral,Aquisição de serviços,"66512100-3, Serviços de seguros de acidentes","Centro Hospitalar Universitário do Algarve, E. P. E. (510745997)","Corbroker, Corretores de Seguros, SA  (503239470)","29.744,05 €",03-04-2018,29-03-2018,30 dias,"Portugal, Faro, São Brás de Alportel<BR/>Portugal, Faro, Lagos<BR/>Portugal, Faro, Loulé<BR/>Portugal, Faro, Portimão<BR/>Portugal, Faro, Vila Real Sto Antonio<BR/>Portugal, Faro, Faro<BR/>Portugal, Faro, Albufeira","Artigo 24.º, n.º 1, alínea e), subalínea iii) do Código dos Contratos Públicos",,,,,,Não aplicável.,Não aplicável.,FALSE
68/1753/2018 - Seguros de Acidentes de Trabalho - Variação da Massa Salarial 2017,Ajuste Direto Regime Geral,Aquisição de serviços,"66512100-3, Serviços de seguros de acidentes","Centro Hospitalar Universitário do Algarve, E. P. E. (510745997)",João Manuel Falcão Marques (115084150),"10.910,00 €",03-04-2018,23-03-2018,1 dias,"Portugal, Faro, Faro<BR/>Portugal, Faro, Albufeira<BR/>Portugal, Faro, Lagos<BR/>Portugal, Faro, Portimão<BR/>Portugal, Faro, Loulé<BR/>Portugal, Faro, Vila Real Sto Antonio","Artigo 24.º, n.º 1, alínea e), subalínea iii) do Código dos Contratos Públicos",,,,,,Não aplicável.,Não aplicável.,FALSE
"CONTRATO PARA AQUISIÇÃO DE SERVIÇOS DE MANUTENÇÃO DOS SISTEMAS SGCIM, RADIO, SISLAB, SIBAS, ANAPAT E EPR-OR INSTALADOS NAS ENTIDADES DO MINISTÉRIO DA SAÚDE PARA O ANO 2018 ",Ajuste Direto Regime Geral,Aquisição de bens móveis<br/>Aquisição de serviços,"72610000-9, Serviços de assistência informática","Centro Hospitalar Universitário do Algarve, E. P. E. (510745997)","Glintt - Healthcare Solutions, S.  A. (502479418)","50.172,57 €",03-04-2018,29-03-2018,365 dias,"Portugal, Faro, Faro<BR/>Portugal, Faro, Portimão","Artigo 24.º, n.º 1, alínea e), subalínea iii) do Código dos Contratos Públicos",,,,,,Não aplicável.,Não aplicável.,FALSE
