Objeto do Contrato,Tipo de Procedimento,Tipo(s) de Contrato,CPVs,Entidade(s) Adjudicante(s),Entidade(s) Adjudicatária(s),Preço Contratual,Data de Publicação,Data de Celebração do Contrato,Prazo de Execução,Local de Execução,Fundamentação,Data de Fecho do Contrato,Preço Total Efetivo,Causas das Alterações ao Prazo,Causas das Alterações ao Preço,Estado,N.º registo do Acordo Quadro,Descrição do Acordo Quadro,Procedimento Centralizado
Equipamento para análise de electrocirurgia.,Ajuste Direto Regime Geral,Aquisição de bens móveis,"38540000-2, Máquinas e aparelhos para ensaios e medição",Serviço de Utilização Comum dos Hospitais (500900469),"INTERPHYSIX - EQUIP TÉCNICOS UNIPESOAL, LDA (509187030)","7.931,00 €",20-09-2017,20-09-2017,31 dias,"Portugal, Coimbra, Coimbra","Artigo 20.º, n.º 1, alínea a) do Código dos Contratos Públicos",,,,,,Não aplicável.,Não aplicável.,FALSE
Locação de Viaturas em Renting,Ao abrigo de acordo-quadro (art.º 258.º),Aquisição de serviços,"60170000-0, Aluguer de veículos para transporte de passageiros com condutor",Serviço de Utilização Comum dos Hospitais (500900469),"FINLOG - Aluguer e Comércio de Automóveis, S.A (502584866)","21.880,00 €",18-09-2017,31-08-2017,122 dias,Portugal,Artigo 258.º do Código dos Contratos Públicos,,,,,,2660288,Celebração de Acordo Quadro para Locação de Viaturas em Renting,FALSE
"Elab. Proj. Especialidades IEM, FeE e IEE para C.S. Ourique.",Ajuste Direto Regime Geral,Aquisição de serviços,"71245000-7, Planos para aprovação, peças desenhadas e especificações",Serviço de Utilização Comum dos Hospitais (500900469),"e3e - Machado, Trindade e Silva, Lda. (509046037)","5.350,00 €",15-09-2017,14-09-2017,10 dias,"Portugal, Lisboa, Lisboa","Artigo 20.º, n.º 1, alínea a) do Código dos Contratos Públicos",,,,,,Não aplicável.,Não aplicável.,FALSE
