Objeto do Contrato,Tipo de Procedimento,Tipo(s) de Contrato,CPVs,Entidade(s) Adjudicante(s),Entidade(s) Adjudicatária(s),Preço Contratual,Data de Publicação,Data de Celebração do Contrato,Prazo de Execução,Local de Execução,Fundamentação,Data de Fecho do Contrato,Preço Total Efetivo,Causas das Alterações ao Prazo,Causas das Alterações ao Preço,Estado,N.º registo do Acordo Quadro,Descrição do Acordo Quadro,Procedimento Centralizado
20160061 - Aquis. Serv. Rep. Equip. Ar Condicionado,Ajuste Direto Regime Geral,Aquisição de serviços,"50800000-3, Serviços de reparação e manutenção diversos",Instituto Nacional de Saúde Dr.Ricardo Jorge(INSA) (501427511),"SORJECLIMA - Montagens e Reparaçãos, Lda (508565839)","611,98 €",11-11-2016,22-03-2016,196 dias,"Portugal, Lisboa, Lisboa","Artigo 20.º, n.º 1, alínea a) do Código dos Contratos Públicos","","",,"",,Não aplicável.,Não aplicável.,FALSE
20160615 - Aquisição de bens para projeto de investigação,Ajuste Direto Regime Geral,Aquisição de bens móveis,"18200000-1, Vestuário exterior","Instituto Nacional de Saúde Doutor Ricardo Jorge, I. P. (501427511)",KORNIMPRIME TEXTEIS LDA (508958105),"337,00 €",11-11-2016,07-11-2016,30 dias,"Portugal, Lisboa, Lisboa","Artigo 26.º, n.º 1, alínea b) do Código dos Contratos Públicos",10-11-2016,"337,00 €",,"",,Não aplicável.,Não aplicável.,FALSE
20160056 - Aquisição de equipamento para fins exclusivos de investigação. Proj.  BIOFIG (Biosi/Biofig),Ajuste Direto Regime Geral,Aquisição de bens móveis,"42513000-5, Equipamento de refrigeração e congelação",Instituto Nacional de Saúde Dr.Ricardo Jorge(INSA) (501427511),FISHER SCIENTIFIC UNIPESSOAL LDA (506429210),"10.699,00 €",11-11-2016,19-04-2016,310 dias,"Portugal, Lisboa, Lisboa","Artigo 26.º, n.º 1, alínea b) do Código dos Contratos Públicos",18-07-2016,"10.699,00 €",,"",,Não aplicável.,Não aplicável.,FALSE
20160074 -Aquisição de amostras para o Programa de Avaliação Externa da Qualidade do INSA,Ajuste Direto Regime Geral,Aquisição de bens móveis,"33696500-0, Reagentes de laboratório",Instituto Nacional de Saúde Dr.Ricardo Jorge(INSA) (501427511),BIOGNÒSTICA (504441256),"34.995,00 €",11-11-2016,19-02-2016,330 dias,"Portugal, Lisboa, Lisboa","Artigo 24.º, n.º 1, alínea e) do Código dos Contratos Públicos",10-11-2016,"34.995,00 €",,"",,Não aplicável.,Não aplicável.,FALSE
20160654 - Aquisição de  acessórios para instalações eléctricas do INSA,Ajuste Direto Regime Geral,Aquisição de bens móveis,"31500000-1, Equipamento para iluminação e lâmpadas eléctricas","Instituto Nacional de Saúde Doutor Ricardo Jorge, I. P. (501427511)","Manvia - Manutenção e Exploração de Instalações e Construção, S.A. (503171565)","4.979,17 €",11-11-2016,23-08-2016,125 dias,"Portugal, Lisboa, Lisboa","Artigo 26.º, n.º 1, alínea a) do Código dos Contratos Públicos",30-11-2016,"4.979,17 €",,"",,Não aplicável.,Não aplicável.,FALSE
20160038 - Aquisição de Amostras para o Programa de Avaliação Externa da Qualidade do INSA,Ajuste Direto Regime Geral,Aquisição de bens móveis,"33696500-0, Reagentes de laboratório",Instituto Nacional de Saúde Dr.Ricardo Jorge(INSA) (501427511),"AMBIFOOD, Ldª. (505400057)","9.257,73 €",11-11-2016,22-04-2016,220 dias,"Portugal, Lisboa, Lisboa","Artigo 24.º, n.º 1, alínea e) do Código dos Contratos Públicos","","",,"",,Não aplicável.,Não aplicável.,FALSE
20160843 - Serviço Assistência Técnica - HPLC,Ajuste Direto Regime Geral,Aquisição de serviços,"50800000-3, Serviços de reparação e manutenção diversos",Instituto Nacional de Saúde Dr.Ricardo Jorge(INSA) (501427511),"Waters Technologies, Lda (510433669)","1.299,55 €",10-11-2016,28-10-2016,30 dias,"Portugal, Lisboa, Lisboa","Artigo 20.º, n.º 1, alínea a) do Código dos Contratos Públicos","","",,"",,Não aplicável.,Não aplicável.,FALSE
20160560- Aquisição padróes deuterados para o Rastreio Neonatal do INSA,Ajuste Direto Regime Geral,Aquisição de bens móveis,"33694000-1, Meios de diagnóstico","Instituto Nacional de Saúde Doutor Ricardo Jorge, I. P. (501427511)",TRACER TECNOLOGIAS (50432732B),"21.000,00 €",10-11-2016,12-09-2016,186 dias,"Portugal, Lisboa, Lisboa","Artigo 24.º, n.º 1, alínea e) do Código dos Contratos Públicos",07-12-2016,"21.000,00 €",,"",,Não aplicável.,Não aplicável.,FALSE
20160513-Aquisição de serviços de reparação de equipamentos de ar condicionado,Ajuste Direto Regime Geral,Aquisição de serviços,"50730000-1, Serviços de reparação e manutenção de grupos de refrigeração",Instituto Nacional de Saúde Dr.Ricardo Jorge(INSA) (501427511),"Airking, Instalações Técnicas, Lda (510729061)","6.790,50 €",10-11-2016,03-08-2016,180 dias,"Portugal, Lisboa, Lisboa","Artigo 20.º, n.º 1, alínea a) do Código dos Contratos Públicos","","",,"",,Não aplicável.,Não aplicável.,FALSE
20160663- Aquisição de um frigorífico e de uma  arca,Ajuste Direto Regime Geral,Aquisição de bens móveis,"39711100-0, Frigoríficos e congeladores",Instituto Nacional de Saúde Dr.Ricardo Jorge(INSA) (501427511),FRILABO II (507958861),"4.100,00 €",10-11-2016,29-09-2016,70 dias,"Portugal, Lisboa, Lisboa","Artigo 20.º, n.º 1, alínea a) do Código dos Contratos Públicos","","",,"",,Não aplicável.,Não aplicável.,FALSE
20160490 - aquisição de serviços de reparação de pequenos equipamentos de laboratório do INSA,Ajuste Direto Regime Geral,Aquisição de serviços,"50410000-2, Serviços de reparação e manutenção de aparelhos de medição, ensaio e controlo",Instituto Nacional de Saúde Dr.Ricardo Jorge(INSA) (501427511),"António Revez da Silva, unip. Lda. (505243202)","3.361,92 €",10-11-2016,16-08-2016,180 dias,"Portugal, Lisboa, Lisboa","Artigo 20.º, n.º 1, alínea a) do Código dos Contratos Públicos","","",,"",,Não aplicável.,Não aplicável.,FALSE
20160192 -Aquisição de serviços para reparação de equipamentos de frio do INSA,Ajuste Direto Regime Geral,Aquisição de serviços,"50730000-1, Serviços de reparação e manutenção de grupos de refrigeração",Instituto Nacional de Saúde Dr.Ricardo Jorge(INSA) (501427511),"Certilab, Lda. (505403013)","3.662,59 €",10-11-2016,03-03-2016,300 dias,"Portugal, Lisboa, Lisboa","Artigo 20.º, n.º 1, alínea a) do Código dos Contratos Públicos","","",,"",,Não aplicável.,Não aplicável.,FALSE
20160743- Aquisição de bens para fins exclusivos de investigação. Projecto  Desvendar: Norte 2020 (Norte 01-0246-FEDER-00014),Ajuste Direto Regime Geral,Aquisição de bens móveis,"48000000-8, Pacotes de software e sistemas de informação","Instituto Nacional de Saúde Doutor Ricardo Jorge, I. P. (501427511)","RIS2048 - Sistemas Informáticos e Comunicações, Lda. (504904493)","70,22 €",10-11-2016,08-11-2016,50 dias,"Portugal, Lisboa, Lisboa","Artigo 26.º, n.º 1, alínea b) do Código dos Contratos Públicos","","",,"",,Não aplicável.,Não aplicável.,FALSE
20160350 -20160350 -Aquisição de um reagente para estudos de microscopia electrónica do INSA,Ajuste Direto Regime Geral,Aquisição de bens móveis,"33696000-5, Reagentes e meios de contraste","Instituto Nacional de Saúde Doutor Ricardo Jorge, I. P. (501427511)",SCIENCE SERVICES (DE129456394),"148,00 €",10-11-2016,06-06-2016,190 dias,"Portugal, Lisboa, Lisboa","Artigo 24.º, n.º 1, alínea e) do Código dos Contratos Públicos",27-06-2016,"148,00 €",,"",,Não aplicável.,Não aplicável.,FALSE
20160317 -Aquisição de amostras para o Programa de Avaliação Externa da Qualidade,Ajuste Direto Regime Geral,Aquisição de bens móveis,"33696000-5, Reagentes e meios de contraste","Instituto Nacional de Saúde Doutor Ricardo Jorge, I. P. (501427511)",Indoor Biotechnologies (GB588808769),"2.360,00 €",10-11-2016,28-04-2016,256 dias,"Portugal, Lisboa, Lisboa","Artigo 24.º, n.º 1, alínea e) do Código dos Contratos Públicos",30-04-2016,"2.360,00 €",,"",,Não aplicável.,Não aplicável.,FALSE
20160076 -Aquisição de amostras para o Programa Avaliação Externa da Qualidade - Área Clínica,Ajuste Direto Regime Geral,Aquisição de bens móveis,"33696500-0, Reagentes de laboratório",Instituto Nacional de Saúde Dr.Ricardo Jorge(INSA) (501427511),IRLANDOX (502515619),"2.419,97 €",10-11-2016,24-02-2016,350 dias,"Portugal, Lisboa, Lisboa","Artigo 24.º, n.º 1, alínea e) do Código dos Contratos Públicos",09-03-2016,"2.419,97 €",,"",,Não aplicável.,Não aplicável.,FALSE
20160264 - Aquisição com Colocação de Acessórios em Geradores de Azoto,Ajuste Direto Regime Geral,Aquisição de bens móveis,"38400000-9, Instrumentos para controlo de propriedades físicas",Instituto Nacional de Saúde Dr.Ricardo Jorge(INSA) (501427511),"GASMAN, LDA. (505463776)","5.429,27 €",09-11-2016,26-04-2016,290 dias,"Portugal, Lisboa, Lisboa","Artigo 32.º, n.º 2, alínea a) do Código dos Contratos Públicos",25-07-2016,"5.429,27 €",,"",,Não aplicável.,Não aplicável.,FALSE
20160398 - Aquisição com colocação de acessórios / peças para equipamentos de Frio do INSA,Ajuste Direto Regime Geral,Aquisição de bens móveis,"39711100-0, Frigoríficos e congeladores","Instituto Nacional de Saúde Doutor Ricardo Jorge, I. P. (501427511)","Frilabo II, Lda (507958861)","7.004,30 €",09-11-2016,14-10-2016,90 dias,"Portugal, Lisboa, Lisboa","Artigo 32.º, n.º 2, alínea b) do Código dos Contratos Públicos","","",,"",,Não aplicável.,Não aplicável.,FALSE
20160331 - Aquisição de reagentes,Ajuste Direto Regime Geral,Aquisição de bens móveis,"33696000-5, Reagentes e meios de contraste","Instituto Nacional de Saúde Doutor Ricardo Jorge, I. P. (501427511)",GENE LINK (4099028JM1),"1.080,89 €",09-11-2016,16-05-2016,323 dias,"Portugal, Lisboa, Lisboa","Artigo 24.º, n.º 1, alínea e) do Código dos Contratos Públicos",16-05-2016,"1.080,89 €",,"",,Não aplicável.,Não aplicável.,FALSE
"20160578 - Aquisição de  peças/acessórios para colocação em microscópio eletrónico do Instituto Nacional de Saúde Dr. Ricardo Jorge, I.P.",Ajuste Direto Regime Geral,Aquisição de bens móveis,"38000000-5, Equipamento laboratorial, óptico e de precisão (exc. óculos)","Instituto Nacional de Saúde Doutor Ricardo Jorge, I. P. (501427511)",FEI EUROPE BV SUCURSAL EN ESPAÑA (ESW0032378B),"114,32 €",09-11-2016,05-09-2016,180 dias,"Portugal, Lisboa, Lisboa","Artigo 26.º, n.º 1, alínea a) do Código dos Contratos Públicos",09-09-2016,"114,32 €",,"",,Não aplicável.,Não aplicável.,FALSE
20160330 - Aquisição de reagentes para o Departamento de Genética do INSA,Ajuste Direto Regime Geral,Aquisição de bens móveis,"33696000-5, Reagentes e meios de contraste","Instituto Nacional de Saúde Doutor Ricardo Jorge, I. P. (501427511)",Biotech (1-800-935-0628),"2.027,75 €",09-11-2016,17-05-2016,195 dias,"Portugal, Lisboa, Lisboa","Artigo 24.º, n.º 1, alínea e) do Código dos Contratos Públicos",27-05-2016,"2.027,75 €",,"",,Não aplicável.,Não aplicável.,FALSE
20160091 - Aquisição de amostras para AEQ,Ajuste Direto Regime Geral,Aquisição de bens móveis,"33696500-0, Reagentes de laboratório",Instituto Nacional de Saúde Dr.Ricardo Jorge(INSA) (501427511),RELACRE-ASSOC. LAB. ACREDITADOS (502578874),"220,00 €",09-11-2016,07-06-2016,190 dias,"Portugal, Lisboa, Lisboa","Artigo 24.º, n.º 1, alínea e) do Código dos Contratos Públicos",17-06-2016,"220,00 €",,"",,Não aplicável.,Não aplicável.,FALSE
20160747- Aquisição de filtros e fonte de alimentação para câmaras de segurança biológica do INSA,Ajuste Direto Regime Geral,Aquisição de bens móveis,"31680000-6, Aparelhos e acessórios eléctricos","Instituto Nacional de Saúde Doutor Ricardo Jorge, I. P. (501427511)",Tradelabor (503069442),"705,00 €",09-11-2016,06-10-2016,82 dias,"Portugal, Lisboa, Lisboa","Artigo 20.º, n.º 1, alínea a) do Código dos Contratos Públicos","","",,"",,Não aplicável.,Não aplicável.,FALSE
20160332-Aquisição de reagentes para a área da Citogenómica para utilização nos Laboratórios do INSA,Ajuste Direto Regime Geral,Aquisição de bens móveis,"33696000-5, Reagentes e meios de contraste","Instituto Nacional de Saúde Doutor Ricardo Jorge, I. P. (501427511)",Affymetrix (NL81146808B01),"58.854,00 €",09-11-2016,17-05-2016,235 dias,"Portugal, Lisboa, Lisboa","Artigo 24.º, n.º 1, alínea e) do Código dos Contratos Públicos",19-10-2016,"55.254,00 €",,Fornecimento inferior ao inicialmente previsto.,,Não aplicável.,Não aplicável.,FALSE
20160773- Aquisição de reagentespara diagnóstico de Rubéloa nos Laboratórios do INSA,Ajuste Direto Regime Geral,Aquisição de bens móveis,"33696000-5, Reagentes e meios de contraste","Instituto Nacional de Saúde Doutor Ricardo Jorge, I. P. (501427511)","Quilaban - Quimica Lab Analitica, SA (500399670)","1.186,50 €",09-11-2016,27-10-2016,60 dias,"Portugal, Lisboa, Lisboa","Artigo 24.º, n.º 1, alínea e) do Código dos Contratos Públicos",07-12-2016,"1.186,50 €",,"",,Não aplicável.,Não aplicável.,FALSE
"20160771- Aquisição de reagentes a utilizar no diagnóstico da Rubéloa, em utilização nos laboratórios do INSA",Ajuste Direto Regime Geral,Aquisição de bens móveis,"33696500-0, Reagentes de laboratório",Instituto Nacional de Saúde Dr.Ricardo Jorge(INSA) (501427511),"Siemens Healthcare, Lda (507925173)","1.103,24 €",09-11-2016,27-10-2016,60 dias,"Portugal, Lisboa, Lisboa","Artigo 24.º, n.º 1, alínea e) do Código dos Contratos Públicos",02-11-2016,"1.103,24 €",,"",,Não aplicável.,Não aplicável.,FALSE
20160767- Aquisição de pontas para pipeta Rainin para utilização nos Laboratórios do INSA,Ajuste Direto Regime Geral,Aquisição de bens móveis,"33600000-6, Produtos farmacêuticos","Instituto Nacional de Saúde Doutor Ricardo Jorge, I. P. (501427511)","ALFAGENE - NOVAS TECNOLOGIAS DAS C DA VIDA, LDA (503387398)","321,00 €",09-11-2016,31-10-2016,60 dias,"Portugal, Lisboa, Lisboa","Artigo 24.º, n.º 1, alínea e) do Código dos Contratos Públicos",03-11-2016,"321,00 €",,"",,Não aplicável.,Não aplicável.,FALSE
20160768- Aquisição de reagentes de biologia molecular a utilizar nos laboratórios do INSA,Ajuste Direto Regime Geral,Aquisição de bens móveis,"33696000-5, Reagentes e meios de contraste","Instituto Nacional de Saúde Doutor Ricardo Jorge, I. P. (501427511)","BIOPORTUGAL QUIMICO, FARMACEUTICA, LDA (502380543)","500,00 €",08-11-2016,31-10-2016,60 dias,"Portugal, Lisboa, Lisboa","Artigo 20.º, n.º 1, alínea a) do Código dos Contratos Públicos",08-11-2016,"500,00 €",,"",,Não aplicável.,Não aplicável.,FALSE
20160769- Aquisição de um agente desinfetante a utilizar nos Laboratórios do INSA,Ajuste Direto Regime Geral,Aquisição de bens móveis,"24000000-4, Produtos químicos","Instituto Nacional de Saúde Doutor Ricardo Jorge, I. P. (501427511)","MedicalPlus - Produtos Médicos e Hospitalares, Lda (506658066)","72,00 €",08-11-2016,31-10-2016,65 dias,"Portugal, Lisboa, Lisboa","Artigo 20.º, n.º 1, alínea a) do Código dos Contratos Públicos",10-11-2016,"72,00 €",,"",,Não aplicável.,Não aplicável.,FALSE
20160772-Aquisição de material de laboratório a utilizar no INSA,Ajuste Direto Regime Geral,Aquisição de bens móveis,"38437110-1, Pontas de pipetas",Instituto Nacional de Saúde Dr.Ricardo Jorge(INSA) (501427511),VWR (503842770),"1.584,00 €",08-11-2016,31-10-2016,60 dias,"Portugal, Lisboa, Lisboa","Artigo 24.º, n.º 1, alínea c) do Código dos Contratos Públicos",10-11-2016,"1.584,00 €",,"",,Não aplicável.,Não aplicável.,FALSE
20160394- Aquisição e colocação de lâmpadas e outros acessórios em microscópios do INSA,Ajuste Direto Regime Geral,Aquisição de bens móveis,"31000000-6, Maquinaria, aparelhagem, equipamento e consumíveis eléctricos; iluminação","Instituto Nacional de Saúde Doutor Ricardo Jorge, I. P. (501427511)",Duarte Clara e Idalina Pisco  (902055755),"850,00 €",08-11-2016,25-05-2016,193 dias,"Portugal, Lisboa, Lisboa","Artigo 20.º, n.º 1, alínea a) do Código dos Contratos Públicos",25-08-2016,"850,00 €",,"",,Não aplicável.,Não aplicável.,FALSE
20160333-Aquisição de reagentes  para estudos de resistência no contexto da Gripe a utilizar no INSA,Ajuste Direto Regime Geral,Aquisição de bens móveis,"33696000-5, Reagentes e meios de contraste","Instituto Nacional de Saúde Doutor Ricardo Jorge, I. P. (501427511)",BIOSYNTH (113661648 MWST),"125,00 €",08-11-2016,23-05-2016,215 dias,"Portugal, Lisboa, Lisboa","Artigo 24.º, n.º 1, alínea e) do Código dos Contratos Públicos",04-08-2016,"125,00 €",,"",,Não aplicável.,Não aplicável.,FALSE
20160725 - Reagentes para Projeto Investigação,Ajuste Direto Regime Geral,Aquisição de bens móveis,"33696500-0, Reagentes de laboratório","Instituto Nacional de Saúde Doutor Ricardo Jorge, I. P. (501427511)",ROCHE SISTEMA DE DIAGNOSTICOS (504282921),"23.940,28 €",08-11-2016,21-10-2016,90 dias,"Portugal, Lisboa, Lisboa","Artigo 26.º, n.º 1, alínea b) do Código dos Contratos Públicos",21-11-2016,"23.940,28 €",,"",,Não aplicável.,Não aplicável.,FALSE
CP 34-2016 -  Aquisição de reagentes para o diagnóstico mulecular,Concurso público,Aquisição de bens móveis,"33696500-0, Reagentes de laboratório","Instituto Nacional de Saúde Doutor Ricardo Jorge, I. P. (501427511)","BIO-RAD LABORATORIES, LDA (501301321)","1.144,00 €",07-11-2016,28-07-2016,190 dias,"Portugal, Lisboa, Lisboa","Artigo 20.º, n.º 1, alínea b) do Código dos Contratos Públicos","","",,"",,Não aplicável.,Não aplicável.,FALSE
20160050 - Aquisição de peças com colocação para reparação de sequenciador,Ajuste Direto Regime Geral,Aquisição de bens móveis,"38500000-0, Aparelhos de controlo e ensaio",Instituto Nacional de Saúde Dr.Ricardo Jorge(INSA) (501427511),"ALFAGENE, LDA. (503387398)","12.000,00 €",07-11-2016,08-02-2016,365 dias,"Portugal, Lisboa, Lisboa","Artigo 20.º, n.º 1, alínea a) do Código dos Contratos Públicos",22-04-2016,"12.000,00 €",,"",,Não aplicável.,Não aplicável.,FALSE
20160818 - Reagentes,Ajuste Direto Regime Geral,Aquisição de bens móveis,"33696000-5, Reagentes e meios de contraste","Instituto Nacional de Saúde Doutor Ricardo Jorge, I. P. (501427511)","VWR INTERNATIONAL - MATERIAL DE LABORATÓRIO, LDA. (503842770)","37,42 €",07-11-2016,26-10-2016,90 dias,"Portugal, Lisboa, Oeiras","Artigo 20.º, n.º 1, alínea a) do Código dos Contratos Públicos",28-12-2016,"37,42 €",,"",,Não aplicável.,Não aplicável.,FALSE
"Aquisição de reagentes para o diagnóstico molecular, nomeadamente DNTP's enzimas de restrição, misturas para PCR, sondas e primers, membranas, marcadores, nucleótidos, reagentes e sondas para FISH e polimerases para o Instituto Nacional de Saúde Dr. Ricardo Jorge, I.P.",Concurso público,Aquisição de bens móveis,"33696500-0, Reagentes de laboratório","Instituto Nacional de Saúde Doutor Ricardo Jorge, I. P. (501427511)",VWR (503842770),"20.830,41 €",04-11-2016,28-07-2016,175 dias,"Portugal, Lisboa, Lisboa","Artigo 20.º, n.º 1, alínea b) do Código dos Contratos Públicos","","",,"",,Não aplicável.,Não aplicável.,FALSE
Aquisição de material de vidro e porcelana para os laboratórios do INSA,Concurso público,Aquisição de bens móveis,"33793000-5, Artigos de vidro para laboratório","Instituto Nacional de Saúde Doutor Ricardo Jorge, I. P. (501427511)",NORMAX (500203130),"5.197,78 €",04-11-2016,01-06-2016,195 dias,"Portugal, Lisboa, Lisboa","Artigo 20.º, n.º 1, alínea b) do Código dos Contratos Públicos","","",,"",,Não aplicável.,Não aplicável.,FALSE
Aquisição de material de vidro e porcelana para os laboratórios do INSA,Concurso público,Aquisição de bens móveis,"33793000-5, Artigos de vidro para laboratório","Instituto Nacional de Saúde Doutor Ricardo Jorge, I. P. (501427511)",VWR (503842770),"2.642,48 €",04-11-2016,01-06-2016,195 dias,"Portugal, Lisboa, Lisboa","Artigo 20.º, n.º 1, alínea b) do Código dos Contratos Públicos","","",,"",,Não aplicável.,Não aplicável.,FALSE
"Aquisição de Material de Consumo Clínico, na categoria de plásticos para consumo nos laboratórios do INSA",Concurso público,Aquisição de bens móveis,"33140000-3, Material médico de consumo","Instituto Nacional de Saúde Doutor Ricardo Jorge, I. P. (501427511)",BIOPORTUGAL (502380543),"996,00 €",04-11-2016,13-07-2016,183 dias,"Portugal, Lisboa, Lisboa","Artigo 20.º, n.º 1, alínea b) do Código dos Contratos Públicos","","",,"",,Não aplicável.,Não aplicável.,FALSE
"Aquisição de Material de Consumo Clínico, na categoria de plásticos para consumo nos laboratórios do INSA",Concurso público,Aquisição de bens móveis,"33140000-3, Material médico de consumo","Instituto Nacional de Saúde Doutor Ricardo Jorge, I. P. (501427511)",LABORSPIRIT (507485149),"380,22 €",04-11-2016,13-07-2016,183 dias,"Portugal, Lisboa, Lisboa","Artigo 20.º, n.º 1, alínea b) do Código dos Contratos Públicos","","",,"",,Não aplicável.,Não aplicável.,FALSE
"Aquisição de Material de Consumo Clínico, na categoria de plásticos para consumo nos laboratórios do INSA",Concurso público,Aquisição de bens móveis,"33140000-3, Material médico de consumo","Instituto Nacional de Saúde Doutor Ricardo Jorge, I. P. (501427511)",FRILABO (503315869),"1.886,00 €",04-11-2016,13-07-2016,183 dias,"Portugal, Lisboa, Lisboa","Artigo 20.º, n.º 1, alínea b) do Código dos Contratos Públicos","","",,"",,Não aplicável.,Não aplicável.,FALSE
"Aquisição de Material de Consumo Clínico, na categoria de plásticos para consumo nos laboratórios do INSA",Concurso público,Aquisição de bens móveis,"33140000-3, Material médico de consumo","Instituto Nacional de Saúde Doutor Ricardo Jorge, I. P. (501427511)",MALDRAL (503315869),"29,50 €",04-11-2016,13-07-2016,183 dias,"Portugal, Lisboa, Lisboa","Artigo 20.º, n.º 1, alínea b) do Código dos Contratos Públicos","","",,"",,Não aplicável.,Não aplicável.,FALSE
"Aquisição de Material de Consumo Clínico, na categoria de plásticos para consumo nos laboratórios do INSA",Concurso público,Aquisição de bens móveis,"33140000-3, Material médico de consumo","Instituto Nacional de Saúde Doutor Ricardo Jorge, I. P. (501427511)",PVL (501411852),"886,00 €",04-11-2016,13-07-2016,183 dias,"Portugal, Lisboa, Lisboa","Artigo 20.º, n.º 1, alínea b) do Código dos Contratos Públicos","","",,"",,Não aplicável.,Não aplicável.,FALSE
"Aquisição de Material de Consumo Clínico, na categoria de plásticos para consumo nos laboratórios do INSA",Concurso público,Aquisição de bens móveis,"33140000-3, Material médico de consumo","Instituto Nacional de Saúde Doutor Ricardo Jorge, I. P. (501427511)",NORMAX (505804441),"612,30 €",04-11-2016,13-07-2016,183 dias,"Portugal, Lisboa, Lisboa","Artigo 20.º, n.º 1, alínea b) do Código dos Contratos Públicos","","",,"",,Não aplicável.,Não aplicável.,FALSE
"Aquisição de Material de Consumo Clínico, na categoria de plásticos para consumo nos laboratórios do INSA",Concurso público,Aquisição de bens móveis,"33140000-3, Material médico de consumo","Instituto Nacional de Saúde Doutor Ricardo Jorge, I. P. (501427511)",Anastácio Saldanha (505804441),"40,00 €",04-11-2016,13-07-2016,183 dias,"Portugal, Lisboa, Lisboa","Artigo 20.º, n.º 1, alínea b) do Código dos Contratos Públicos","","",,"",,Não aplicável.,Não aplicável.,FALSE
"Aquisição de Material de Consumo Clínico, na categoria de plásticos para consumo nos laboratórios do INSA",Concurso público,Aquisição de bens móveis,"33140000-3, Material médico de consumo","Instituto Nacional de Saúde Doutor Ricardo Jorge, I. P. (501427511)",JCM (502099330),"33.148,54 €",04-11-2016,13-07-2016,183 dias,"Portugal, Lisboa, Lisboa","Artigo 20.º, n.º 1, alínea b) do Código dos Contratos Públicos","","",,"",,Não aplicável.,Não aplicável.,FALSE
"Aquisição de Material de Consumo Clínico, na categoria de plásticos para consumo nos laboratórios do INSA",Concurso público,Aquisição de bens móveis,"33140000-3, Material médico de consumo","Instituto Nacional de Saúde Doutor Ricardo Jorge, I. P. (501427511)",VWR (503842770),"15.269,10 €",04-11-2016,13-07-2016,183 dias,"Portugal, Lisboa, Lisboa","Artigo 20.º, n.º 1, alínea b) do Código dos Contratos Públicos","","",,"",,Não aplicável.,Não aplicável.,FALSE
"Aquisição de Material de Consumo Clínico, na categoria de plásticos para consumo nos laboratórios do INSA",Concurso público,Aquisição de bens móveis,"33140000-3, Material médico de consumo","Instituto Nacional de Saúde Doutor Ricardo Jorge, I. P. (501427511)",SOLITICA (510824641),"113,10 €",04-11-2016,13-07-2016,183 dias,"Portugal, Lisboa, Lisboa","Artigo 20.º, n.º 1, alínea b) do Código dos Contratos Públicos","","",,"",,Não aplicável.,Não aplicável.,FALSE
"Aquisição de Material de Consumo Clínico, na categoria de plásticos para consumo nos laboratórios do INSA",Concurso público,Aquisição de bens móveis,"33140000-3, Material médico de consumo","Instituto Nacional de Saúde Doutor Ricardo Jorge, I. P. (501427511)",ALFAGENE (503387398),"1.038,30 €",03-11-2016,13-07-2016,183 dias,"Portugal, Lisboa, Lisboa","Artigo 20.º, n.º 1, alínea b) do Código dos Contratos Públicos","","",,"",,Não aplicável.,Não aplicável.,FALSE
"Aquisição de Material de Consumo Clínico, na categoria de plasticos para consumo nos laboratórios de INSA",Concurso público,Aquisição de bens móveis,"33140000-3, Material médico de consumo","Instituto Nacional de Saúde Doutor Ricardo Jorge, I. P. (501427511)",SARSTEDT (503019461),"57.643,44 €",03-11-2016,13-07-2016,183 dias,"Portugal, Lisboa, Lisboa","Artigo 20.º, n.º 1, alínea b) do Código dos Contratos Públicos","","",,"",,Não aplicável.,Não aplicável.,FALSE
Aquisição de reagentes que ficaram desertos no CP31-2016,Ajuste Direto Regime Geral,Aquisição de bens móveis,"33696000-5, Reagentes e meios de contraste","Instituto Nacional de Saúde Doutor Ricardo Jorge, I. P. (501427511)",JCM (504855107),"68,00 €",02-11-2016,21-09-2016,189 dias,"Portugal, Lisboa, Lisboa","Artigo 24.º, n.º 1, alínea a) do Código dos Contratos Públicos",06-10-2016,"68,00 €",,"",,Não aplicável.,Não aplicável.,FALSE
20150617-Aquisição  de economato,Ajuste Direto Regime Geral,Aquisição de bens móveis,"30100000-0, Máquinas, equipamento e material de escritório, excepto computadores, impressoras e mobiliário",Instituto Nacional de Saúde Dr.Ricardo Jorge(INSA) (501427511),OHM (504059521),"442,12 €",02-11-2016,27-11-2015,30 dias,"Portugal, Lisboa, Lisboa","Artigo 20.º, n.º 1, alínea a) do Código dos Contratos Públicos","","",,"",,Não aplicável.,Não aplicável.,FALSE
20150617-Aquisição de material de economato para o INSA,Ajuste Direto Regime Geral,Aquisição de bens móveis,"30100000-0, Máquinas, equipamento e material de escritório, excepto computadores, impressoras e mobiliário",Instituto Nacional de Saúde Dr.Ricardo Jorge(INSA) (501427511),OLMAR (508831989),"1.244,15 €",02-11-2016,27-11-2015,30 dias,"Portugal, Lisboa, Lisboa","Artigo 20.º, n.º 1, alínea a) do Código dos Contratos Públicos","","",,"",,Não aplicável.,Não aplicável.,FALSE
Aquisição de viagens e alojamento para o INSA,Ajuste Direto Regime Geral,Aquisição de serviços,"65000000-3, Serviços públicos","Instituto Nacional de Saúde Doutor Ricardo Jorge, I. P. (501427511)",TUI PORTUGAL (501058400),"9.999,10 €",02-11-2016,19-02-2016,330 dias,"Portugal, Lisboa, Lisboa","Artigo 20.º, n.º 1, alínea a) do Código dos Contratos Públicos","","",,"",,Não aplicável.,Não aplicável.,FALSE
Aquisição de serviços de Produção gráfica/impressão e montagem - Museu da Saúde - designação do espaço-sede- Exposição Saúde 800,Ajuste Direto Regime Geral,Aquisição de serviços,"75000000-6, Serviços relacionados com a administração pública, a defesa e a segurança social","Instituto Nacional de Saúde Doutor Ricardo Jorge, I. P. (501427511)",FLAMINGO 44 (508725119),"1.900,00 €",02-11-2016,21-07-2016,190 dias,"Portugal, Lisboa, Lisboa","Artigo 20.º, n.º 1, alínea a) do Código dos Contratos Públicos","","",,"",,Não aplicável.,Não aplicável.,FALSE
Aquisição de publicações para fins exclusivos de investigação,Ajuste Direto Regime Geral,Aquisição de serviços,"73000000-2, Serviços de investigação e desenvolvimento e serviços de consultoria conexos","Instituto Nacional de Saúde Doutor Ricardo Jorge, I. P. (501427511)",MARKA (502317124),"370,45 €",02-11-2016,22-07-2016,182 dias,"Portugal, Lisboa, Lisboa","Artigo 26.º, n.º 1, alínea b) do Código dos Contratos Públicos","","",,"",,Não aplicável.,Não aplicável.,FALSE
