Objeto do Contrato,Tipo de Procedimento,Tipo(s) de Contrato,CPVs,Entidade(s) Adjudicante(s),Entidade(s) Adjudicatária(s),Preço Contratual,Data de Publicação,Data de Celebração do Contrato,Prazo de Execução,Local de Execução,Fundamentação,Data de Fecho do Contrato,Preço Total Efetivo,Causas das Alterações ao Prazo,Causas das Alterações ao Preço,Estado,N.º registo do Acordo Quadro,Descrição do Acordo Quadro,Procedimento Centralizado
"Pulseiras de Identificação, para o Ano de 2017",Ajuste Direto Regime Geral,Aquisição de bens móveis,"22000000-0, Material impresso e afins","Centro Hospitalar de Setúbal, E. P. E. (507606787)",Gisband - Identificação Sol. Unip. Lda (508573971),"11.497,40 €",20-12-2016,09-12-2016,365 dias,"Portugal, Setúbal, Setúbal","Artigo 20.º, n.º 1, alínea a) do Código dos Contratos Públicos",,,,,,Não aplicável.,Não aplicável.,FALSE
Cobertura do edifício original (Este),Ajuste Direto Regime Geral,Empreitadas de obras públicas,"45000000-7, Construção","Centro Hospitalar de Setúbal, E. P. E. (507606787)","Construções V. Repolho Cruz, Lda. (506286380)","53.360,00 €",15-12-2016,12-12-2016,45 dias,"Portugal, Setúbal, Setúbal","Artigo 19.º, alínea a) do Código dos Contratos Públicos",,,,,,Não aplicável.,Não aplicável.,FALSE
Gás propano para o ano de 2017,Ajuste Direto Regime Geral,Aquisição de bens móveis,"09000000-3, Produtos petrolíferos, combustíveis, electricidade e outras fontes de energia","Centro Hospitalar de Setúbal, E. P. E. (507606787)","Delta Gás - Sociedade de Representações, lda (501105611)","12.482,76 €",13-12-2016,06-12-2016,365 dias,"Portugal, Setúbal, Setúbal","Artigo 26.º, n.º 1, alínea f) do Código dos Contratos Públicos",,,,,,Não aplicável.,Não aplicável.,FALSE
"Impressos, para o Ano de 2017",Ajuste Direto Regime Geral,Aquisição de bens móveis,"22000000-0, Material impresso e afins","Centro Hospitalar de Setúbal, E. P. E. (507606787)",Gráfica Santa Maria (501899081),"30.168,52 €",12-12-2016,24-11-2016,365 dias,"Portugal, Setúbal, Setúbal","Artigo 20.º, n.º 1, alínea a) do Código dos Contratos Públicos",,,,,,Não aplicável.,Não aplicável.,FALSE
