Objeto do Contrato,Tipo de Procedimento,Tipo(s) de Contrato,CPVs,Entidade(s) Adjudicante(s),Entidade(s) Adjudicatária(s),Preço Contratual,Data de Publicação,Data de Celebração do Contrato,Prazo de Execução,Local de Execução,Fundamentação,Data de Fecho do Contrato,Preço Total Efetivo,Causas das Alterações ao Prazo,Causas das Alterações ao Preço,Estado,N.º registo do Acordo Quadro,Descrição do Acordo Quadro,Procedimento Centralizado
Aquisição de testes de diagnóstico rápido para a SUB São Pedro do Sul,Ajuste Direto Regime Geral,Aquisição de bens móveis,"33694000-1, Meios de diagnóstico","Administração Regional de Saúde do Centro,IP(ARSC) (503122165)",ROCHE SISTEMA DE DIAGNOSTICOS (504282921),"3.788,16 €",18-01-2019,18-01-2019,90 dias,"Portugal<BR/>Portugal, Viseu, São Pedro do Sul","Artigo 24.º, n.º 1, alínea e), subalínea iii) do Código dos Contratos Públicos","","","","",,Não aplicável.,Não aplicável.,FALSE
"Reparação do Chiller na Unidade de Saúde Familiar da Guia, Aces PL.",Ajuste Direto Regime Geral,Aquisição de serviços,"50000000-5, Serviços de reparação e manutenção","Administração Regional de Saúde do Centro, I. P. (503122165)","Sistclima - Sistemas de Climatização e Automação, Lda. (504541706)","6.670,00 €",18-01-2019,19-03-2018,15 dias,"Portugal, Leiria, Pombal","Artigo 20.º, n.º 1, alínea d) do Código dos Contratos Públicos",30-08-2018,"6.670,00 €","",Não Houve,,Não aplicável.,Não aplicável.,FALSE
PROCESSO 18150892,Ao abrigo de acordo-quadro (art.º 259.º),Aquisição de bens móveis,"33600000-6, Produtos farmacêuticos","Administração Regional de Saúde do Centro,IP(ARSC) (503122165)",mylan (502248793),"70,98 €",17-01-2019,30-11-2018,60 dias,"Portugal<BR/>Portugal, Coimbra, Coimbra",Artigo 259.º do Código dos Contratos Públicos,19-12-2018,"70,98 €","","",,2528670,"CP 2017/2 - Acordo Quadro para fornecimento de Medicamentos do Sistema Nervoso Cerebrospinal, exceto: anestésicos, relaxantes musculares, analgésicos, antipiréticos, antidepressivos e antipsicóticos  às Instituições e Serviços do Serviço Nacional de Saúde",FALSE
PROCESSO 18100842,Ajuste Direto Regime Geral,Aquisição de bens móveis,"33696000-5, Reagentes e meios de contraste","Administração Regional de Saúde do Centro,IP(ARSC) (503122165)",alere (502518863),"700,00 €",17-01-2019,10-12-2018,30 dias,"Portugal, Coimbra, Coimbra<BR/>Portugal","Artigo 20.º, n.º 1, alínea d) do Código dos Contratos Públicos",19-12-2018,"700,00 €","","",,Não aplicável.,Não aplicável.,FALSE
PROCESSO 18150894,Ao abrigo de acordo-quadro (art.º 259.º),Aquisição de bens móveis,"33600000-6, Produtos farmacêuticos","Administração Regional de Saúde do Centro,IP(ARSC) (503122165)",bayer portugal (500043256),"66,40 €",17-01-2019,10-12-2018,30 dias,"Portugal<BR/>Portugal, Coimbra, Coimbra",Artigo 259.º do Código dos Contratos Públicos,19-12-2018,"66,40 €","","",,2556987,"CP 2017/65 - Acordo Quadro para fornecimento de Medicamentos de Várias áreas Terapêuticas, às Instituições e Serviços do Serviço Nacional de Saúde",FALSE
PROCESSO 18150895,Ao abrigo de acordo-quadro (art.º 259.º),Aquisição de bens móveis,"33000000-0, Equipamento médico, medicamentos e produtos para cuidados pessoais","Administração Regional de Saúde do Centro, I. P. (503122165)",OVERPHARMA (505792362),"69,75 €",17-01-2019,10-12-2018,90 dias,"Portugal, Coimbra, Coimbra",Artigo 259.º do Código dos Contratos Públicos,19-12-2018,"69,75 €","","",,3361713,CP 2018/47 - Medicamentos do aparelho locomotor,FALSE
Proc. 19950006 - Prestação de serviços de medicina dentária para o ACES Baixo Vouga e assistentes dentista para o ACES Dão Lafões,Ao abrigo de acordo-quadro (art.º 259.º),Aquisição de serviços,"85000000-9, Serviços de saúde e acção social","Administração Regional de Saúde do Centro, I. P. (503122165)",Sara Cristina Albuquerque Costa Abrantes (201408619),"16.926,00 €",17-01-2019,02-01-2019,365 dias,"Portugal, Distrito não determinado, Concelho não determinado<BR/>Portugal, Aveiro",Artigo 259.º do Código dos Contratos Públicos,"","","","",,2660427,CP 2017/115 - Acordo Quadro para Prestação de Serviços de Medicina Dentária,FALSE
PROCESSO 18100836,Ajuste Direto Regime Geral,Aquisição de bens móveis,"33690000-3, Medicamentos vários","Administração Regional de Saúde do Centro,IP(ARSC) (503122165)",OVERPHARMA (505792362),"993,60 €",17-01-2019,10-12-2018,30 dias,"Portugal, Coimbra, Coimbra<BR/>Portugal","Artigo 24.º, n.º 1, alínea e), subalínea iii) do Código dos Contratos Públicos",19-12-2018,"993,60 €","","",,Não aplicável.,Não aplicável.,FALSE
PROCESSO 18100832,Ajuste Direto Regime Geral,Aquisição de bens móveis,"33140000-3, Material médico de consumo","Administração Regional de Saúde do Centro,IP(ARSC) (503122165)",MEDICINALIA CORMÉDICA (500684324),"10.235,00 €",17-01-2019,10-12-2018,30 dias,Portugal,"Artigo 24.º, n.º 1, alínea e), subalínea iii) do Código dos Contratos Públicos",19-12-2018,"10.235,00 €","","",,Não aplicável.,Não aplicável.,FALSE
"Empreitada para reparação de fachadas exteriores na Extensão de Saúde de S. Mamede, ACES PL",Consulta Prévia,Empreitadas de obras públicas,"45000000-7, Construção","Administração Regional de Saúde do Centro,IP(ARSC) (503122165)","Rosário & Cunha, Sociedade de Construção Civil, Lda. (502609893)","9.945,60 €",17-01-2019,22-10-2018,30 dias,"Portugal<BR/>Portugal, Leiria, Batalha","Artigo 19.º, alínea c) do Código dos Contratos Públicos",18-01-2019,"9.945,60 €",Não Houve,Não Houve,,Não aplicável.,Não aplicável.,FALSE
PROCESSO 18100831,Ajuste Direto Regime Geral,Aquisição de bens móveis,"33140000-3, Material médico de consumo","Administração Regional de Saúde do Centro,IP(ARSC) (503122165)",kvtech portugal (508671531),"13.482,00 €",17-01-2019,11-12-2018,30 dias,"Portugal<BR/>Portugal, Coimbra, Coimbra","Artigo 20.º, n.º 1, alínea d) do Código dos Contratos Públicos",19-12-2018,"13.482,00 €","","",,Não aplicável.,Não aplicável.,FALSE
Prestação de serviços médicos para o SAP da Marinha Grande para o ano 2019,Ao abrigo de acordo-quadro (art.º 259.º),Aquisição de serviços,"85000000-9, Serviços de saúde e acção social","Administração Regional de Saúde do Centro, I. P. (503122165)",TALENTER 24 SERVIÇOS PERMANENTES LDA (510359698),"65.114,40 €",16-01-2019,02-01-2019,365 dias,"Portugal, Leiria, Marinha Grande",Artigo 259.º do Código dos Contratos Públicos,"","","","",,1490434,ACORDO QUADRO PARA PRESTAÇÃO DE SERVIÇOS MÉDICOS ÀS INSTITUIÇÕES E SERVIÇOS DO SERVIÇO NACIONAL DE SAÚDE,FALSE
PROCESSO 18100830,Ajuste Direto Regime Geral,Aquisição de bens móveis,"33140000-3, Material médico de consumo","Administração Regional de Saúde do Centro, I. P. (503122165)",B.BRAUN MEDICAL (501506543),"30.748,00 €",16-01-2019,10-12-2018,30 dias,"Portugal, Coimbra, Coimbra<BR/>Portugal","Artigo 24.º, n.º 1, alínea e), subalínea iii) do Código dos Contratos Públicos",19-12-2018,"30.748,00 €","","",,Não aplicável.,Não aplicável.,FALSE
Prestação de serviços médicos para o CS Figueiró dos Vinhos,Ao abrigo de acordo-quadro (art.º 259.º),Aquisição de serviços,"85000000-9, Serviços de saúde e acção social","Administração Regional de Saúde do Centro, I. P. (503122165)",TALENTER 24 SERVICOS PERMANENTES LDA (510359698),"21.725,60 €",16-01-2019,02-01-2019,180 dias,"Portugal, Leiria, Figueiró dos Vinhos",Artigo 259.º do Código dos Contratos Públicos,"","","","",,1490434,ACORDO QUADRO PARA PRESTAÇÃO DE SERVIÇOS MÉDICOS ÀS INSTITUIÇÕES E SERVIÇOS DO SERVIÇO NACIONAL DE SAÚDE,FALSE
"AQUISIÇÃO DE PARACETAMOL 40ML/ML XAROPE, FRASCO 85ML",Ao abrigo de acordo-quadro (art.º 259.º),Aquisição de bens móveis,"33000000-0, Equipamento médico, medicamentos e produtos para cuidados pessoais","Administração Regional de Saúde do Centro, I. P. (503122165)",OVERPHARMA (505792362),"341,19 €",16-01-2019,28-08-2018,180 dias,"Portugal, Coimbra, Coimbra",Artigo 259.º do Código dos Contratos Públicos,08-10-2018,"341,19 €","","",,1974985,"Medicamentos Analgésicos, Antipiréticos e Antidepressivos",FALSE
"Empreitada para remodelação interior e reparação de gabinetes médicos, Centro de Saúde da Covilhã, ACES CB",Consulta Prévia,Empreitadas de obras públicas,"45000000-7, Construção","Administração Regional de Saúde do Centro,IP(ARSC) (503122165)",António Ascenção Coelho & Filhos (500022801),"35.800,00 €",16-01-2019,26-10-2018,45 dias,"Portugal<BR/>Portugal, Castelo Branco, Covilhã","Artigo 19.º, alínea c) do Código dos Contratos Públicos",21-12-2018,"35.800,00 €",Não houve,Não Houve,,Não aplicável.,Não aplicável.,FALSE
PROCESSO 18150286,Ao abrigo de acordo-quadro (art.º 259.º),Aquisição de bens móveis,"33600000-6, Produtos farmacêuticos","Administração Regional de Saúde do Centro, I. P. (503122165)",LAB.MEDINFAR (500384045),"13.190,00 €",16-01-2019,28-06-2018,180 dias,"Portugal, Coimbra, Coimbra",Artigo 259.º do Código dos Contratos Públicos,08-10-2018,"13.190,00 €","","",,2850371,"CP 2017/51 - Acordo Quadro para fornecimento de Medicamentos usados nas afeções cutâneas, às Instituições e Serviços do Serviço Nacional de Saúde",FALSE
PROCESSO 18150286,Ao abrigo de acordo-quadro (art.º 259.º),Aquisição de bens móveis,"33600000-6, Produtos farmacêuticos","Administração Regional de Saúde do Centro, I. P. (503122165)",SIDEFARMA (500717419),"3.619,60 €",16-01-2019,28-06-2018,180 dias,"Portugal, Coimbra, Coimbra",Artigo 259.º do Código dos Contratos Públicos,08-10-2018,"3.619,60 €","","",,2850371,"CP 2017/51 - Acordo Quadro para fornecimento de Medicamentos usados nas afeções cutâneas, às Instituições e Serviços do Serviço Nacional de Saúde",FALSE
PROCESSO 18150286,Ao abrigo de acordo-quadro (art.º 259.º),Aquisição de bens móveis,"33600000-6, Produtos farmacêuticos","Administração Regional de Saúde do Centro, I. P. (503122165)",gsk prod.farmaceuticos (500139962),"6.734,00 €",16-01-2019,28-06-2018,180 dias,"Portugal, Coimbra, Coimbra",Artigo 259.º do Código dos Contratos Públicos,08-10-2018,"6.734,00 €","","",,2850371,"CP 2017/51 - Acordo Quadro para fornecimento de Medicamentos usados nas afeções cutâneas, às Instituições e Serviços do Serviço Nacional de Saúde",FALSE
PROCESSO - 18150692,Ao abrigo de acordo-quadro (art.º 259.º),Aquisição de bens móveis,"33600000-6, Produtos farmacêuticos","Administração Regional de Saúde do Centro,IP(ARSC) (503122165)",OVERPHARMA (505792362),"7.245,00 €",15-01-2019,28-08-2018,150 dias,"Portugal<BR/>Portugal, Coimbra, Coimbra",Artigo 259.º do Código dos Contratos Públicos,"","","","",,1406003,CP 2015/8,FALSE
"Limpeza e desinfestação do sistema de tratamento de ar no Centro de Saúde de Mortágua, ACES BM",Consulta Prévia,Aquisição de serviços,"50000000-5, Serviços de reparação e manutenção","Administração Regional de Saúde do Centro,IP(ARSC) (503122165)",AC+Coger Sociedade Portuguesa de Cogeração (502539305),"9.780,00 €",15-01-2019,09-08-2018,15 dias,"Portugal, Viseu, Mortágua","Artigo 20.º, n.º 1, alínea c) do Código dos Contratos Públicos",26-12-2018,"9.780,00 €","",Não Houve,,Não aplicável.,Não aplicável.,FALSE
Serviços de assistência técnica total aos equipamentos RICOH,Consulta Prévia,Aquisição de serviços,"50000000-5, Serviços de reparação e manutenção","Administração Regional de Saúde do Centro, I. P. (503122165)",Ricópia Soluções de Impressão Lda (501769650),"5.990,00 €",14-01-2019,24-08-2018,129 dias,Portugal,"Artigo 20.º, n.º 1, alínea c) do Código dos Contratos Públicos e artigo 4.º, nº 1 do DLR nº 34/2008/M, de 14.08 (DLR n.º 6/2018/M)",31-12-2018,"2.623,64 €","",valor contratado com base em valores estimados,,Não aplicável.,Não aplicável.,FALSE
Aquisição de malas e sacos para domicílios para diversas unidades de saúde da ARSC,Consulta Prévia,Aquisição de bens móveis,"33100000-1, Equipamento médico","Administração Regional de Saúde do Centro,IP(ARSC) (503122165)","EPJ Medica – Artigos Médicos e Hospitalares, Lda.  (506820513)","4.674,95 €",14-01-2019,17-09-2018,30 dias,"Portugal, Viseu<BR/>Portugal, Coimbra<BR/>Portugal, Aveiro<BR/>Portugal, Leiria","Artigo 20.º, n.º 1, alínea c) do Código dos Contratos Públicos",31-12-2018,"4.674,95 €","","",,Não aplicável.,Não aplicável.,FALSE
Serviços de transporte e de montagem de instalações provisórias para a Unidade de Saúde Familiar CelaSaude,Concurso público,Aquisição de serviços,"71356300-1, Serviços de apoio técnico","Administração Regional de Saúde do Centro, I. P. (503122165)",Algeco - Construções Prefabricadas SA (502721871),"114.990,00 €",14-01-2019,26-11-2018,45 dias,"Portugal, Coimbra, Coimbra<BR/>Portugal",Artigo 155.º do Código dos Contratos Públicos,26-12-2018,"114.990,00 €","","",,Não aplicável.,Não aplicável.,FALSE
Serviços de auditoria externa ao revestimento cerâmico das paredes exteriores do Novo Hospital Pediátrico de Coimbra,Ajuste Direto Regime Geral,Aquisição de serviços,"79212000-3, Serviços de auditoria","Administração Regional de Saúde do Centro, I. P. (503122165)","Laboratório Nacional de Engenharia Civil, I. P. (501389660)","9.250,00 €",14-01-2019,26-10-2018,120 dias,"Portugal, Coimbra, Coimbra<BR/>Portugal","Artigo 20.º, n.º 1, alínea d) do Código dos Contratos Públicos",21-12-2018,"9.250,00 €","","",,Não aplicável.,Não aplicável.,FALSE
"Empreitada para reparação das anomalias da obra da USF Lousã, ACES PIN",Consulta Prévia,Empreitadas de obras públicas,"45000000-7, Construção","Administração Regional de Saúde do Centro,IP(ARSC) (503122165)",Domus Construções (502253622),"36.671,66 €",14-01-2019,20-08-2018,60 dias,"Portugal, Coimbra, Lousã","Artigo 20.º, n.º 1, alínea c) do Código dos Contratos Públicos",05-12-2018,"36.671,66 €",Não Houve,Não Houve,,Não aplicável.,Não aplicável.,FALSE
"Aquisição de material de consumo clínico para o Armazém Central da ARSC, IP",Concurso público,Aquisição de bens móveis,"33140000-3, Material médico de consumo","Administração Regional de Saúde do Centro,IP(ARSC) (503122165)",INTERSURGICAL (503480045),"9,02 €",14-01-2019,18-12-2018,45 dias,"Portugal<BR/>Portugal, Coimbra, Coimbra",Artigo 155.º do Código dos Contratos Públicos,"","","","",,Não aplicável.,Não aplicável.,FALSE
"Aquisição de material de consumo clínico para o Armazém Central da ARSC, IP",Concurso público,Aquisição de bens móveis,"33140000-3, Material médico de consumo","Administração Regional de Saúde do Centro,IP(ARSC) (503122165)",EUROCASMEDICA (503322105),"138,00 €",14-01-2019,18-12-2018,45 dias,"Portugal<BR/>Portugal, Coimbra, Coimbra",Artigo 155.º do Código dos Contratos Públicos,"","","","",,Não aplicável.,Não aplicável.,FALSE
"Aquisição de material de consumo clínico para o Armazém Central da ARSC, IP",Concurso público,Aquisição de bens móveis,"33140000-3, Material médico de consumo","Administração Regional de Saúde do Centro,IP(ARSC) (503122165)",ANASTÁCIO SALDANHA (505804441),"1.239,16 €",14-01-2019,18-12-2018,45 dias,Portugal,Artigo 155.º do Código dos Contratos Públicos,"","","","",,Não aplicável.,Não aplicável.,FALSE
"Aquisição de material de consumo clínico para o Armazém Central da ARSC, IP",Concurso público,Aquisição de bens móveis,"33140000-3, Material médico de consumo","Administração Regional de Saúde do Centro,IP(ARSC) (503122165)",OVERPHARMA (505792362),"17,00 €",14-01-2019,18-12-2018,45 dias,"Portugal<BR/>Portugal, Coimbra, Coimbra",Artigo 155.º do Código dos Contratos Públicos,"","","","",,Não aplicável.,Não aplicável.,FALSE
"Aquisição de material de consumo clínico para o Armazém Central da ARSC, IP",Concurso público,Aquisição de bens móveis,"33140000-3, Material médico de consumo","Administração Regional de Saúde do Centro,IP(ARSC) (503122165)",HOSPITEX (501909842),"1.067,50 €",14-01-2019,18-12-2018,45 dias,"Portugal<BR/>Portugal, Coimbra, Coimbra",Artigo 155.º do Código dos Contratos Públicos,"","","","",,Não aplicável.,Não aplicável.,FALSE
"Aquisição de material de consumo clínico para o Armazém Central da ARSC, IP",Concurso público,Aquisição de bens móveis,"33140000-3, Material médico de consumo","Administração Regional de Saúde do Centro,IP(ARSC) (503122165)",ESTERIPLAS (502020776),"3.051,00 €",14-01-2019,18-12-2018,45 dias,"Portugal<BR/>Portugal, Coimbra, Coimbra",Artigo 155.º do Código dos Contratos Públicos,"","","","",,Não aplicável.,Não aplicável.,FALSE
"Aquisição de material de consumo clínico para o Armazém Central da ARSC, IP",Concurso público,Aquisição de bens móveis,"33140000-3, Material médico de consumo","Administração Regional de Saúde do Centro,IP(ARSC) (503122165)",PMH (502376899),"291,00 €",14-01-2019,18-12-2018,45 dias,Portugal,Artigo 155.º do Código dos Contratos Públicos,"","","","",,Não aplicável.,Não aplicável.,FALSE
"Aquisição de material de consumo clínico para o Armazém Central da ARSC, IP",Concurso público,Aquisição de bens móveis,"33140000-3, Material médico de consumo","Administração Regional de Saúde do Centro,IP(ARSC) (503122165)",CLINIFAR (503281115),"319,00 €",14-01-2019,18-12-2018,45 dias,"Portugal, Coimbra, Coimbra<BR/>Portugal",Artigo 155.º do Código dos Contratos Públicos,"","","","",,Não aplicável.,Não aplicável.,FALSE
"Aquisição de material de consumo clínico para o Armazém Central da ARSC, IP",Concurso público,Aquisição de bens móveis,"33140000-3, Material médico de consumo","Administração Regional de Saúde do Centro,IP(ARSC) (503122165)",B BRAUN MEDICAL (501506543),"1.167,15 €",14-01-2019,18-12-2018,45 dias,"Portugal, Coimbra, Coimbra<BR/>Portugal",Artigo 155.º do Código dos Contratos Públicos,"","","","",,Não aplicável.,Não aplicável.,FALSE
"Aquisição de material de consumo clínico para o Armazém Central da ARSC, IP",Concurso público,Aquisição de bens móveis,"33140000-3, Material médico de consumo","Administração Regional de Saúde do Centro,IP(ARSC) (503122165)",QUILABAN (500399670),"357,53 €",14-01-2019,18-12-2018,45 dias,"Portugal<BR/>Portugal, Coimbra, Coimbra",Artigo 155.º do Código dos Contratos Públicos,"","","","",,Não aplicável.,Não aplicável.,FALSE
"Aquisição de material de consumo clínico para o Armazém Central da ARSC, IP",Concurso público,Aquisição de bens móveis,"33140000-3, Material médico de consumo","Administração Regional de Saúde do Centro,IP(ARSC) (503122165)",CARESTREAM HEALTH (508054320),"66,72 €",14-01-2019,18-12-2018,45 dias,"Portugal, Coimbra, Coimbra<BR/>Portugal",Artigo 155.º do Código dos Contratos Públicos,"","","","",,Não aplicável.,Não aplicável.,FALSE
"Aquisição de material de consumo clínico para o Armazém Central da ARSC, IP",Concurso público,Aquisição de bens móveis,"33140000-3, Material médico de consumo","Administração Regional de Saúde do Centro,IP(ARSC) (503122165)",BASTOS VIEGAS (500042772),"650,45 €",14-01-2019,18-12-2018,45 dias,"Portugal, Coimbra, Coimbra<BR/>Portugal",Artigo 155.º do Código dos Contratos Públicos,"","","","",,Não aplicável.,Não aplicável.,FALSE
"Aquisição de material de consumo clínico para o Armazém Central da ARSC, IP",Concurso público,Aquisição de bens móveis,"33140000-3, Material médico de consumo","Administração Regional de Saúde do Centro,IP(ARSC) (503122165)",CARDINAL HEALTH (513620834),"120,00 €",14-01-2019,18-12-2018,45 dias,"Portugal<BR/>Portugal, Coimbra, Coimbra",Artigo 155.º do Código dos Contratos Públicos,"","","","",,Não aplicável.,Não aplicável.,FALSE
"Aquisição de material de consumo clínico para o Armazém Central da ARSC, IP",Concurso público,Aquisição de bens móveis,"33140000-3, Material médico de consumo","Administração Regional de Saúde do Centro,IP(ARSC) (503122165)",VIRTUGAL (510113923),"302,40 €",14-01-2019,18-12-2018,45 dias,Portugal,Artigo 155.º do Código dos Contratos Públicos,"","","","",,Não aplicável.,Não aplicável.,FALSE
"Aquisição de diverso material de consumo clínico para o Armazém Central da ARSC, IP ",Concurso público,Aquisição de bens móveis,"33140000-3, Material médico de consumo","Administração Regional de Saúde do Centro, I. P. (503122165)",Salutec (506380408),"39,40 €",14-01-2019,20-11-2018,243 dias,"Portugal, Coimbra<BR/>Portugal","Artigo 20.º, n.º 1, alínea a) do Código dos Contratos Públicos",22-11-2018,"39,40 €","","",,Não aplicável.,Não aplicável.,FALSE
"Aquisição de material de consumo clínico para o Armazém Central da ARSC, IP",Concurso público,Aquisição de bens móveis,"33140000-3, Material médico de consumo","Administração Regional de Saúde do Centro,IP(ARSC) (503122165)",BSN MEDICAL (505385058),"2.940,00 €",14-01-2019,18-12-2018,45 dias,"Portugal<BR/>Portugal, Coimbra, Coimbra",Artigo 155.º do Código dos Contratos Públicos,"","","","",,Não aplicável.,Não aplicável.,FALSE
"Aquisição de material de consumo clínico para o Armazém Central da ARSC, IP",Concurso público,Aquisição de bens móveis,"33140000-3, Material médico de consumo","Administração Regional de Saúde do Centro,IP(ARSC) (503122165)",FACTORMED (506986918),"666,00 €",14-01-2019,18-12-2018,45 dias,"Portugal, Coimbra, Coimbra<BR/>Portugal",Artigo 155.º do Código dos Contratos Públicos,"","","","",,Não aplicável.,Não aplicável.,FALSE
"Aquisição de material de consumo clínico para o Armazém Central da ARSC, IP",Concurso público,Aquisição de bens móveis,"33140000-3, Material médico de consumo","Administração Regional de Saúde do Centro,IP(ARSC) (503122165)",MEDLINE (510533515),"104,00 €",14-01-2019,18-12-2018,45 dias,"Portugal<BR/>Portugal, Coimbra, Coimbra",Artigo 155.º do Código dos Contratos Públicos,"","","","",,Não aplicável.,Não aplicável.,FALSE
Aquisição e instalação de sinalética para diversas Unidades de Saúde do ACES Dão Lafões,Consulta Prévia,Aquisição de bens móveis,"44423400-5, Sinais e artigos afins","Administração Regional de Saúde do Centro,IP(ARSC) (503122165)","Desigm - Comunicações e Publicidade, Unipessoal, Lda. (508328845)","10.700,00 €",14-01-2019,12-12-2018,45 dias,"Portugal, Viseu","Artigo 20.º, n.º 1, alínea c) do Código dos Contratos Públicos","","","","",,Não aplicável.,Não aplicável.,FALSE
PROCESSO 18150282,Ao abrigo de acordo-quadro (art.º 259.º),Aquisição de bens móveis,"33600000-6, Produtos farmacêuticos","Administração Regional de Saúde do Centro, I. P. (503122165)",gsk prod. farmacêuticos (500139962),"2,43 €",14-01-2019,21-06-2018,210 dias,"Portugal, Coimbra, Coimbra",Artigo 259.º do Código dos Contratos Públicos,08-10-2018,"","",Ficou sem efeito devido ao valor reduzido,,2775691,CP 2017/5 - Acordo Quadro para fornecimento de Medicamentos anti-infeciosos: exceto antivíricos e antifúngicos,FALSE
PROCESSO 18150282,Ao abrigo de acordo-quadro (art.º 259.º),Aquisição de bens móveis,"33600000-6, Produtos farmacêuticos","Administração Regional de Saúde do Centro, I. P. (503122165)",DLA FARMACÊUTICA (503894427),"9,72 €",14-01-2019,21-06-2018,210 dias,"Portugal, Coimbra, Coimbra",Artigo 259.º do Código dos Contratos Públicos,08-10-2018,"9,72 €","","",,2775691,CP 2017/5 - Acordo Quadro para fornecimento de Medicamentos anti-infeciosos: exceto antivíricos e antifúngicos,FALSE
PROCESSO 18150282,Ao abrigo de acordo-quadro (art.º 259.º),Aquisição de bens móveis,"33600000-6, Produtos farmacêuticos","Administração Regional de Saúde do Centro, I. P. (503122165)",lab. pfizer (500162166),"2.085,93 €",14-01-2019,21-06-2018,210 dias,"Portugal, Coimbra, Coimbra",Artigo 259.º do Código dos Contratos Públicos,08-10-2018,"2.085,93 €","","",,2775691,CP 2017/5 - Acordo Quadro para fornecimento de Medicamentos anti-infeciosos: exceto antivíricos e antifúngicos,FALSE
PROCESSO 18150282,Ao abrigo de acordo-quadro (art.º 259.º),Aquisição de bens móveis,"33600000-6, Produtos farmacêuticos","Administração Regional de Saúde do Centro, I. P. (503122165)",sanofi prod. farmacêuticos (500134960),"943,00 €",14-01-2019,21-06-2018,210 dias,"Portugal, Coimbra, Coimbra",Artigo 259.º do Código dos Contratos Públicos,08-10-2018,"943,00 €","","",,2775691,CP 2017/5 - Acordo Quadro para fornecimento de Medicamentos anti-infeciosos: exceto antivíricos e antifúngicos,FALSE
PROCESSO 18150282,Ao abrigo de acordo-quadro (art.º 259.º),Aquisição de bens móveis,"33600000-6, Produtos farmacêuticos","Administração Regional de Saúde do Centro, I. P. (503122165)",hikma (502266791),"41,50 €",14-01-2019,21-06-2018,210 dias,"Portugal, Coimbra, Coimbra",Artigo 259.º do Código dos Contratos Públicos,08-10-2018,"41,50 €","","",,2775691,CP 2017/5 - Acordo Quadro para fornecimento de Medicamentos anti-infeciosos: exceto antivíricos e antifúngicos,FALSE
PROCESSO 18150282,Ao abrigo de acordo-quadro (art.º 259.º),Aquisição de bens móveis,"33600000-6, Produtos farmacêuticos","Administração Regional de Saúde do Centro, I. P. (503122165)",pharmakern (507002571),"147,78 €",14-01-2019,21-06-2018,210 dias,"Portugal, Coimbra, Coimbra",Artigo 259.º do Código dos Contratos Públicos,08-10-2018,"147,78 €","","",,2775691,CP 2017/5 - Acordo Quadro para fornecimento de Medicamentos anti-infeciosos: exceto antivíricos e antifúngicos,FALSE
PROCESSO 18150282,Ao abrigo de acordo-quadro (art.º 259.º),Aquisição de bens móveis,"33600000-6, Produtos farmacêuticos","Administração Regional de Saúde do Centro, I. P. (503122165)",generis (508107997),"132,64 €",14-01-2019,21-06-2018,210 dias,"Portugal, Coimbra, Coimbra",Artigo 259.º do Código dos Contratos Públicos,08-10-2018,"132,64 €","","",,2775691,CP 2017/5 - Acordo Quadro para fornecimento de Medicamentos anti-infeciosos: exceto antivíricos e antifúngicos,FALSE
"Aquisição,impressão de flyers, folhetos, guias e manuais de boas práticas-Acreditação USF CelaSaúde",Ajuste Direto Regime Geral,Aquisição de bens móveis,"22900000-9, Material impresso diverso","Administração Regional de Saúde do Centro,IP(ARSC) (503122165)","José Baptista-artes Gráficas Unipessoal, Lda (509797741)","10.530,00 €",11-01-2019,30-07-2018,20 dias,"Portugal, Coimbra, Coimbra","Artigo 20.º, n.º 1, alínea d) do Código dos Contratos Públicos",07-08-2018,"10.530,00 €","","",,Não aplicável.,Não aplicável.,FALSE
PROCESSO 18150281,Ao abrigo de acordo-quadro (art.º 259.º),Aquisição de bens móveis,"33600000-6, Produtos farmacêuticos","Administração Regional de Saúde do Centro, I. P. (503122165)",b.braun medical (501506543),"1.286,60 €",11-01-2019,21-06-2018,210 dias,"Portugal, Coimbra, Coimbra",Artigo 259.º do Código dos Contratos Públicos,08-10-2018,"1.286,60 €","","",,2528675,CP 2017/3 - Acordo Quadro para fornecimento de corretivos da volémia e outras soluções estéreis,FALSE
PROCESSO 18150281,Ao abrigo de acordo-quadro (art.º 259.º),Aquisição de bens móveis,"33600000-6, Produtos farmacêuticos","Administração Regional de Saúde do Centro, I. P. (503122165)",overpharma (505792362),"6.853,20 €",11-01-2019,21-06-2018,210 dias,"Portugal, Coimbra, Coimbra",Artigo 259.º do Código dos Contratos Públicos,08-10-2018,"6.853,20 €","","",,2528675,CP 2017/3 - Acordo Quadro para fornecimento de corretivos da volémia e outras soluções estéreis,FALSE
PROCESSO 18150281,Ao abrigo de acordo-quadro (art.º 259.º),Aquisição de bens móveis,"33600000-6, Produtos farmacêuticos","Administração Regional de Saúde do Centro, I. P. (503122165)",labesfal (501169580),"16.025,65 €",11-01-2019,21-06-2018,210 dias,"Portugal, Coimbra, Coimbra",Artigo 259.º do Código dos Contratos Públicos,08-10-2018,"16.025,65 €","","",,2528675,CP 2017/3 - Acordo Quadro para fornecimento de corretivos da volémia e outras soluções estéreis,FALSE
