Objeto do Contrato,Tipo de Procedimento,Tipo(s) de Contrato,CPVs,Entidade(s) Adjudicante(s),Entidade(s) Adjudicatária(s),Preço Contratual,Data de Publicação,Data de Celebração do Contrato,Prazo de Execução,Local de Execução,Fundamentação,Data de Fecho do Contrato,Preço Total Efetivo,Causas das Alterações ao Prazo,Causas das Alterações ao Preço,Estado,N.º registo do Acordo Quadro,Descrição do Acordo Quadro,Procedimento Centralizado
"Empreitada para a instalação de gás propano no laboratório, sito Av. Salvador Allende, Piso 1, Oeiras  ",Ajuste Direto Regime Geral,Empreitadas de obras públicas,"45113000-2, Obras no local","Administração Regional de Saúde de Lisboa e Vale do Tejo, I. P. (503148776)","Ventifor - Representações equipamentos e assistência técnica, Lda (501140751)","1.498,03 €",21-11-2013,21-11-2013,30 dias,"Portugal, Lisboa, Oeiras","Artigo 19.º, alínea a) do Código dos Contratos Públicos",,,,,,Não aplicável.,Não aplicável.,
Aquisição de Vacina contra o papiloma virus humano,Ajuste Direto Regime Geral,Aquisição de bens móveis,"33651600-4, Vacinas","Administração Regional de Saúde de Lisboa e Vale do Tejo, I. P. (503148776)","Sanofi Pasteur MSD, S.A. (507632796)","373.750,00 €",21-11-2013,14-11-2013,20 dias,"Portugal, Lisboa","Artigo 26.º, n.º 1, alínea e) do Código dos Contratos Públicos",,,,,,Não aplicável.,Não aplicável.,
Aquisição de 20.400 unidades de Babetes descartáveis,Ajuste Direto Regime Geral,Aquisição de bens móveis,"33140000-3, Material médico de consumo","Administração Regional de Saúde de Lisboa e Vale do Tejo, I. P. (503148776)","Bastos Viegas, S.A. (500042772)","401,88 €",21-11-2013,20-11-2013,20 dias,"Portugal, Lisboa","Artigo 26.º, n.º 1, alínea e) do Código dos Contratos Públicos",,,,,,Não aplicável.,Não aplicável.,
AQUISIÇÃO SONDA NELATON CH12 FEMININA ACES OESTE SUL,Ajuste Direto Regime Geral,Aquisição de bens móveis,"33181000-2, Material de assistência à função renal","Administração Regional de Saúde de Lisboa e Vale do Tejo, I. P. (503148776)",VYGON PORTUGAL (503232785),"385,20 €",20-11-2013,24-04-2013,20 dias,"Portugal, Lisboa, Torres Vedras","Artigo 20.º, n.º 1, alínea a) do Código dos Contratos Públicos",,,,,,Não aplicável.,Não aplicável.,
Ligação de Ramal para o fornecimento de água ao edifício da unidade de saúde de Foros de Salvaterra sita na Rua Imaculado Coração de Maria.,Ajuste Direto Regime Geral,Empreitadas de obras públicas,"45113000-2, Obras no local","Administração Regional de Saúde de Lisboa e Vale do Tejo, I. P. (503148776)","Ar. Águas do Ribatejo, EM, SA (508345464)","320,00 €",19-11-2013,13-11-2013,20 dias,"Portugal, Santarém, Salvaterra de Magos","Artigo 19.º, alínea a) do Código dos Contratos Públicos",,,,,,Não aplicável.,Não aplicável.,
Copos de plástico pequenos para bochecho da Saúde Oral e toma de metadona,Ajuste Direto Regime Geral,Aquisição de bens móveis,"19520000-7, Produtos de plástico","Administração Regional de Saúde de Lisboa e Vale do Tejo, I. P. (503148776)",Fitisan (506320073),"9.900,00 €",19-11-2013,15-11-2013,20 dias,"Portugal, Lisboa","Artigo 20.º, n.º 1, alínea a) do Código dos Contratos Públicos",,,,,,Não aplicável.,Não aplicável.,
Aquisição de Vacina Penta (DTP Acelular HIB/VIP),Ajuste Direto Regime Geral,Aquisição de bens móveis,"33651600-4, Vacinas","Administração Regional de Saúde de Lisboa e Vale do Tejo, I. P. (503148776)","Sanofi Pasteur MSD, S.A. (507632796)","196.950,00 €",19-11-2013,18-11-2013,20 dias,"Portugal, Lisboa","Artigo 26.º, n.º 1, alínea e) do Código dos Contratos Públicos",,,,,,Não aplicável.,Não aplicável.,
FORNECIMENTO REAGENTES RÁPIDOS,Ajuste Direto Regime Geral,Aquisição de bens móveis,"33696500-0, Reagentes de laboratório","Administração Regional de Saúde de Lisboa e Vale do Tejo, I. P. (503148776)",SIEMENS HEALTHCARE DIAGNOSTICS LDA. (507925173),"8.105,40 €",18-11-2013,26-03-2013,20 dias,"Portugal, Lisboa, Torres Vedras","Artigo 20.º, n.º 1, alínea a) do Código dos Contratos Públicos",,,,,,Não aplicável.,Não aplicável.,
PRESTAÇÃO SERV TELECOMUNICAÇÕES FIXAS DE VOX,Ajuste Direto Regime Geral,Aquisição de serviços,"64200000-8, Serviços de telecomunicações","Administração Regional de Saúde de Lisboa e Vale do Tejo, I. P. (503148776)","PT COMUNICAÇÕES, S.A. (504615947)","35.900,00 €",18-11-2013,11-03-2013,20 dias,"Portugal, Lisboa, Torres Vedras","Artigo 24.º, n.º 1, alínea e) do Código dos Contratos Públicos",,,,,,Não aplicável.,Não aplicável.,
Instalação de estrututa de suporte para o grupo gerador de rede de emergência no edificio nº75 da Av. EUA,Ajuste Direto Regime Geral,Empreitadas de obras públicas,"45113000-2, Obras no local","Administração Regional de Saúde de Lisboa e Vale do Tejo, I. P. (503148776)","Intertelha - Construções Metálicas e Autoportantes, S.A. (502656476)","17.000,00 €",18-11-2013,01-11-2013,45 dias,"Portugal, Lisboa, Lisboa","Artigo 19.º, alínea a) do Código dos Contratos Públicos",,,,,,Não aplicável.,Não aplicável.,
Execução da ligação à Rede Pública de drenagem de águas residuais domésticas da UCSP da Terrugem,Ajuste Direto Regime Geral,Empreitadas de obras públicas,"45400000-1, Obras de acabamento de edifícios","Administração Regional de Saúde de Lisboa e Vale do Tejo, I. P. (503148776)","Jodofer Empreiteiros, S.A. (500153264)","2.434,73 €",18-11-2013,12-11-2013,2 dias,"Portugal, Lisboa, Sintra","Artigo 19.º, alínea a) do Código dos Contratos Públicos",,,,,,Não aplicável.,Não aplicável.,
Aquisição de 5.000 Frascos de Iodopovidona - Sol Cut 100MG/ML - 125ML,Ajuste Direto Regime Geral,Aquisição de bens móveis,"33631600-8, Anti-sépticos e desinfectantes","Administração Regional de Saúde de Lisboa e Vale do Tejo, I. P. (503148776)","Overpharma - Produtos Médicos Farmacêuticos, Lda. (505792362)","3.500,00 €",15-11-2013,06-11-2013,20 dias,"Portugal, Lisboa","Artigo 26.º, n.º 1, alínea e) do Código dos Contratos Públicos",,,,,,Não aplicável.,Não aplicável.,
Aquisição de 100 Unidades de Ambroxol Xar 6MG/ML,Ajuste Direto Regime Geral,Aquisição de bens móveis,"33670000-7, Medicamentos para o aparelho respiratório","Administração Regional de Saúde de Lisboa e Vale do Tejo, I.P. (503148776)","Overpharma - Produtos Médicos Farmacêuticos, Lda. (505792362)","134,00 €",15-11-2013,06-11-2013,20 dias,"Portugal, Lisboa","Artigo 26.º, n.º 1, alínea e) do Código dos Contratos Públicos",,,,,,Não aplicável.,Não aplicável.,
Aquisição de Vacina Penta DTP Acelular HIB/VIP,Ajuste Direto Regime Geral,Aquisição de bens móveis,"33651600-4, Vacinas","Administração Regional de Saúde de Lisboa e Vale do Tejo, I. P. (503148776)","Sanofi MSD, S.A. (507632796)","196.950,00 €",15-11-2013,13-11-2013,20 dias,"Portugal, Lisboa","Artigo 26.º, n.º 1, alínea e) do Código dos Contratos Públicos",,,,,,Não aplicável.,Não aplicável.,
Aquisição de Vacina VASP,Ajuste Direto Regime Geral,Aquisição de bens móveis,"33651600-4, Vacinas","Administração Regional de Saúde de Lisboa e Vale do Tejo, I. P. (503148776)","Sanofi Pasteur MSD, S.A. (507632796)","189.000,00 €",15-11-2013,13-11-2013,20 dias,"Portugal, Lisboa","Artigo 26.º, n.º 1, alínea e) do Código dos Contratos Públicos",,,,,,Não aplicável.,Não aplicável.,
Aquisição de Penso de Carboximetilcelulose sodica com prata 10cm x 10cm (super absorvente),Ajuste Direto Regime Geral,Aquisição de bens móveis,"33651600-4, Vacinas","Administração Regional de Saúde de Lisboa e Vale do Tejo, I. P. (503148776)","Kvtech Portugal, Lda.  (508671531)","109.500,00 €",15-11-2013,13-11-2013,20 dias,"Portugal, Lisboa","Artigo 26.º, n.º 1, alínea e) do Código dos Contratos Públicos",,,,,,Não aplicável.,Não aplicável.,
Aquisição de 8.000 Unidades de Carvão Activado com Alginato e Carboximetilcelulose Sódica 10x10,Ajuste Direto Regime Geral,Aquisição de bens móveis,"33695000-8, Todos os outros produtos não terapêuticos","Administração Regional de Saúde de Lisboa e Vale do Tejo, I. P. (503148776)","Kvtech Portugal - Produtos Médicos Unipessoal, Lda. (508671531)","22.000,00 €",14-11-2013,13-11-2013,20 dias,"Portugal, Lisboa","Artigo 26.º, n.º 1, alínea e) do Código dos Contratos Públicos",,,,,,Não aplicável.,Não aplicável.,
Fornecimento de placas electrónicas recuperadas para o gerador de alta tensão do equipamento de raio X- SAP Mafra - UCSP Mafra - ACES Oeste Sul,Ajuste Direto Regime Geral,Aquisição de serviços,"50421200-4, Serviços de reparação e manutenção de equipamentos de raios X","Administração Regional de Saúde de Lisboa e Vale do Tejo, I. P. (503148776)",Such - Serviço de Utilização Comuns Hospitais (500900469),"4.945,00 €",14-11-2013,13-11-2013,30 dias,"Portugal, Lisboa, Mafra","Artigo 24.º, n.º 1, alínea e) do Código dos Contratos Públicos",,,,,,Não aplicável.,Não aplicável.,
Aqusisção de Piridoxina comprimido 40MG,Ajuste Direto Regime Geral,Aquisição de bens móveis,"33690000-3, Medicamentos vários","Administração Regional de Saúde de Lisboa e Vale do Tejo, I. P. (503148776)","Labesfal, S.A. (501169580)","16.120,00 €",13-11-2013,13-11-2013,20 dias,"Portugal, Lisboa","Artigo 24.º, n.º 1, alínea e) do Código dos Contratos Públicos",,,,,,Não aplicável.,Não aplicável.,
Aquisição de prestação de serviços de viagem e alojamento,Ajuste Direto Regime Geral,Aquisição de serviços,"60400000-2, Serviços de transporte aéreo","Administração Regional de Saúde de Lisboa e Vale do Tejo, I. P. (503148776)","Top Atlantico - Viagens e Turismo, SA (501061126)","246,87 €",13-11-2013,05-11-2013,2 dias,"Portugal, Lisboa, Lisboa",Artigo 258.º do Código dos Contratos Públicos,,,,,,1097635,Aquisição de prestação de serviços de viagem e alojamento,
Aqusição de prestação de serviços medicos para o ACES Lisboa Ocidental e Oeiras,Ajuste Direto Regime Geral,Aquisição de serviços,"85100000-0, Serviços de saúde","Administração Regional de Saúde de Lisboa e Vale do Tejo, I. P. (503148776)","Kelly services, Lda. (506434770)","7.639,80 €",12-11-2013,16-10-2013,60 dias,"Portugal, Lisboa","Artigo 24.º, n.º 1, alínea e) do Código dos Contratos Públicos",,,,,,Não aplicável.,Não aplicável.,
Aqusição de prestação de serviços medicos para o ACES Médio Tejo,Ajuste Direto Regime Geral,Aquisição de serviços,"85100000-0, Serviços de saúde","Administração Regional de Saúde de Lisboa e Vale do Tejo, I. P. (503148776)","Kelly Services, Lda. (506434770)","8.065,20 €",12-11-2013,22-10-2013,60 dias,"Portugal, Lisboa","Artigo 24.º, n.º 1, alínea e) do Código dos Contratos Públicos",,,,,,Não aplicável.,Não aplicável.,
Aquisição do Modelo 1741 Fatura / Recibo,Ajuste Direto Regime Geral,Aquisição de bens móveis,"22820000-4, Formulários","Administração Regional de Saúde de Lisboa e Vale do Tejo, I. P. (503148776)",Copidata S.A. (508225140),"7.112,50 €",12-11-2013,21-10-2013,20 dias,"Portugal, Lisboa","Artigo 20.º, n.º 1, alínea a) do Código dos Contratos Públicos",,,,,,Não aplicável.,Não aplicável.,
Aquisição Kit Penso III,Concurso público,Aquisição de bens móveis,"33141620-2, Kits médicos","Administração Regional de Saúde de Lisboa e Vale do Tejo, I.P. (503148776)",Bastos Viegas S.A. (500042772),"55.910,40 €",12-11-2013,27-09-2013,180 dias,"Portugal, Lisboa","Artigo 20.º, n.º 1, alínea b) do Código dos Contratos Públicos",,,,,,Não aplicável.,Não aplicável.,
Aquisição de Prestação de Serviços Medicos para o ACES Arco Ribeirinho,Ajuste Direto Regime Geral,Aquisição de serviços,"85100000-0, Serviços de saúde","Administração Regional de Saúde de Lisboa e Vale do Tejo, I. P. (503148776)","Kelly Services, Lda. (506434770)","4.582,50 €",12-11-2013,01-11-2013,90 dias,"Portugal, Setúbal","Artigo 24.º, n.º 1, alínea e) do Código dos Contratos Públicos",,,,,,Não aplicável.,Não aplicável.,
Aquisição de Peroxido de Hidrogénio 10Vol.,Ajuste Direto Regime Geral,Aquisição de bens móveis,"33690000-3, Medicamentos vários","Administração Regional de Saúde de Lisboa e Vale do Tejo, I. P. (503148776)",Overpharma (505792362),"280,00 €",11-11-2013,06-11-2013,20 dias,"Portugal, Lisboa","Artigo 26.º, n.º 1, alínea e) do Código dos Contratos Públicos",,,,,,Não aplicável.,Não aplicável.,
Aquisição de Penicilina G Benz 2400.000,Ajuste Direto Regime Geral,Aquisição de bens móveis,"33690000-3, Medicamentos vários","Administração Regional de Saúde de Lisboa e Vale do Tejo, I. P. (503148776)",Laboratório Atral (500162085),"3.510,00 €",11-11-2013,10-10-2013,20 dias,"Portugal, Lisboa","Artigo 24.º, n.º 1, alínea e) do Código dos Contratos Públicos",,,,,,Não aplicável.,Não aplicável.,
Compresas Tecido não tecido estereis e nao estereis 15x20 e 30x15,Ajuste Direto Regime Geral,Aquisição de bens móveis,"33140000-3, Material médico de consumo","Administração Regional de Saúde de Lisboa e Vale do Tejo, I. P. (503148776)",Albino Dias de Andrade (500013810),"45.800,00 €",11-11-2013,01-11-2013,20 dias,"Portugal, Lisboa","Artigo 26.º, n.º 1, alínea e) do Código dos Contratos Públicos",,,,,,Não aplicável.,Não aplicável.,
Desenvolvimento de aplicações acordos IPR e E125,Ajuste Direto Regime Geral,Aquisição de serviços,"72262000-9, Serviços de desenvolvimento de software","Administração Regional de Saúde de Lisboa e Vale do Tejo, I. P. (503148776)","Linkare TI - Tecnologias de informação, Lda (506863077)","6.142,50 €",11-11-2013,08-11-2013,105 dias,"Portugal, Lisboa, Lisboa","Artigo 20.º, n.º 1, alínea a) do Código dos Contratos Públicos",,,,,,Não aplicável.,Não aplicável.,
Aquisição de Hidroxizina Xarope,Ajuste Direto Regime Geral,Aquisição de bens móveis,"33690000-3, Medicamentos vários","Administração Regional de Saúde de Lisboa e Vale do Tejo, I. P. (503148776)",UCB Pharma (500291322),"644,00 €",11-11-2013,01-11-2013,20 dias,"Portugal, Lisboa","Artigo 24.º, n.º 1, alínea e) do Código dos Contratos Públicos",,,,,,Não aplicável.,Não aplicável.,
Aquisição de Metilprednisolona de 125MG e 500MG,Ajuste Direto Regime Geral,Aquisição de bens móveis,"33000000-0, Equipamento médico, medicamentos e produtos para cuidados pessoais","Administração Regional de Saúde de Lisboa e Vale do Tejo, I. P. (503148776)",Laboratorios Pfizer (500162166),"7.814,00 €",11-11-2013,04-11-2013,20 dias,"Portugal, Lisboa","Artigo 26.º, n.º 1, alínea e) do Código dos Contratos Públicos",,,,,,Não aplicável.,Não aplicável.,
Aquisição de Lidocaina 2% +Adrenalina,Ajuste Direto Regime Geral,Aquisição de bens móveis,"33690000-3, Medicamentos vários","Administração Regional de Saúde de Lisboa e Vale do Tejo, I. P. (503148776)",Laboratorios Inibsa (500139571),"940,40 €",11-11-2013,07-11-2013,20 dias,"Portugal, Lisboa","Artigo 24.º, n.º 1, alínea e) do Código dos Contratos Públicos",,,,,,Não aplicável.,Não aplicável.,
Aquisição de Fluoreto de Sodio - 1000ML,Ajuste Direto Regime Geral,Aquisição de bens móveis,"33690000-3, Medicamentos vários","Administração Regional de Saúde de Lisboa e Vale do Tejo, I. P. (503148776)",Labesfal (501169580),"20.720,00 €",11-11-2013,08-11-2013,20 dias,"Portugal, Lisboa","Artigo 26.º, n.º 1, alínea e) do Código dos Contratos Públicos",,,,,,Não aplicável.,Não aplicável.,
Aquisição de Vacina Pneumococica (PN13),Ajuste Direto Regime Geral,Aquisição de bens móveis,"33651600-4, Vacinas","Administração Regional de Saúde de Lisboa e Vale do Tejo, I. P. (503148776)",Laboratorios Pfizer (500162166),"914,80 €",11-11-2013,08-11-2013,20 dias,"Portugal, Lisboa","Artigo 24.º, n.º 1, alínea e) do Código dos Contratos Públicos",,,,,,Não aplicável.,Não aplicável.,
Aquisição de 500 Frascos de Polielectrolítico INJ - 500ML,Ajuste Direto Regime Geral,Aquisição de bens móveis,"33692400-1, Soluções para perfusão","Administração Regional de Saúde de Lisboa e Vale do Tejo, I.P. (503148776)","Labesfal - Laboratórios Almiro, S.A. (501169580)","520,00 €",11-11-2013,28-10-2013,20 dias,"Portugal, Lisboa","Artigo 26.º, n.º 1, alínea e) do Código dos Contratos Públicos",,,,,,Não aplicável.,Não aplicável.,
Aquisição de 70.000 Unidades de Vacina Dupla (TD),Ajuste Direto Regime Geral,Aquisição de bens móveis,"33651620-0, Vacinas contra a difteria e o tétano","Administração Regional de Saúde de Lisboa e Vale do Tejo, I. P. (503148776)","Sanofi Pasteur MSD, S.A. (507632796)","196.000,00 €",11-11-2013,24-10-2013,20 dias,"Portugal, Lisboa","Artigo 26.º, n.º 1, alínea e) do Código dos Contratos Públicos",,,,,,Não aplicável.,Não aplicável.,
"Aquisição de 6.480 Blísteres de Etinilestradiol 0,03 + Levonorgestrel 0,1",Ajuste Direto Regime Geral,Aquisição de bens móveis,"33641400-9, Contraceptivos","Administração Regional de Saúde de Lisboa e Vale do Tejo, I. P. (503148776)",Bayer Portugal S.A. (500043256),"5.184,00 €",11-11-2013,04-11-2013,20 dias,"Portugal, Lisboa","Artigo 26.º, n.º 1, alínea e) do Código dos Contratos Públicos",,,,,,Não aplicável.,Não aplicável.,
Aquisição de 400 Embalagens de Terbutalina Pó Inal 500MCG/Dose,Ajuste Direto Regime Geral,Aquisição de bens móveis,"33670000-7, Medicamentos para o aparelho respiratório","Administração Regional de Saúde de Lisboa e Vale do Tejo, I. P. (503148776)","Astra Zeneca - Produtos Farmacêuticos, Lda. (502942240)","1.356,00 €",11-11-2013,04-11-2013,20 dias,"Portugal, Lisboa","Artigo 24.º, n.º 1, alínea e) do Código dos Contratos Públicos",,,,,,Não aplicável.,Não aplicável.,
Aquisição de 100 Frascos de Salbutamol Sol Inal Neb 5MG/ML - 10ML,Ajuste Direto Regime Geral,Aquisição de bens móveis,"33670000-7, Medicamentos para o aparelho respiratório","Administração Regional de Saúde de Lisboa e Vale do Tejo, I. P. (503148776)","GlaxoSmithKline - Produtos Farmacêuticos, Lda. (500139962)","201,95 €",11-11-2013,06-11-2013,20 dias,"Portugal, Lisboa","Artigo 26.º, n.º 1, alínea e) do Código dos Contratos Públicos",,,,,,Não aplicável.,Não aplicável.,
Aquisição de 500 Unidades de Permetrina - CR 10MG/G (1%),Ajuste Direto Regime Geral,Aquisição de bens móveis,"33631400-6, Antibióticos e quimioterápicos usados em dermatologia","Administração Regional de Saúde de Lisboa e Vale do Tejo, I. P. (503148776)",Angelini Farmacêutica Lda. (500583650),"2.495,00 €",11-11-2013,06-11-2013,20 dias,"Portugal, Lisboa","Artigo 26.º, n.º 1, alínea e) do Código dos Contratos Públicos",,,,,,Não aplicável.,Não aplicável.,
Aquisição de 500 Unidades de Iodopovidona Pomada 100MG/G,Ajuste Direto Regime Geral,Aquisição de bens móveis,"33631600-8, Anti-sépticos e desinfectantes","Administração Regional de Saúde de Lisboa e Vale do Tejo, I. P. (503148776)","Meda Pharma Produtos Farmacêuticos, S.A. (500082090)","1.125,00 €",11-11-2013,06-11-2013,20 dias,"Portugal, Lisboa","Artigo 26.º, n.º 1, alínea e) do Código dos Contratos Públicos",,,,,,Não aplicável.,Não aplicável.,
