Objeto do Contrato,Tipo de Procedimento,Tipo(s) de Contrato,CPVs,Entidade(s) Adjudicante(s),Entidade(s) Adjudicatária(s),Preço Contratual,Data de Publicação,Data de Celebração do Contrato,Prazo de Execução,Local de Execução,Fundamentação,Data de Fecho do Contrato,Preço Total Efetivo,Causas das Alterações ao Prazo,Causas das Alterações ao Preço,Estado,N.º registo do Acordo Quadro,Descrição do Acordo Quadro,Procedimento Centralizado
"Aquisição de material de economato ao abrigo do acordo quadro n.104/2010, durante o ano de 2011",Ajuste Direto Regime Geral,Aquisição de bens móveis<br/>Aquisição de serviços<br/>Concessão de serviços públicos<br/>Locação de bens móveis,"39200000-4, Fornecimentos",HOSPITAL DR FRANCISCO ZAGALO (501510150),SAPEL (500242194),"849,30 €",02-03-2011,23-02-2011,300 dias,"Portugal, Aveiro, Ovar","Artigo 20.º, n.º 1, alínea a) do Código dos Contratos Públicos",22-12-2011,"675,41 €",,fornecimento abaixo do previsto,,Não aplicável.,Não aplicável.,
Aquisição de esponjas para higiene dos doentes durante o ano de 2011,Ajuste Direto Regime Geral,Locação de bens móveis<br/>Aquisição de serviços<br/>Aquisição de bens móveis<br/>Concessão de serviços públicos,"39200000-4, Fornecimentos",HOSPITAL DR FRANCISCO ZAGALO (501510150),Meilex (501759441),"576,00 €",02-03-2011,14-02-2011,300 dias,"Portugal, Aveiro, Ovar","Artigo 20.º, n.º 1, alínea a) do Código dos Contratos Públicos",31-12-2011,"576,00 €",,"",,Não aplicável.,Não aplicável.,
