Objeto do Contrato,Tipo de Procedimento,Tipo(s) de Contrato,CPVs,Entidade(s) Adjudicante(s),Entidade(s) Adjudicatária(s),Preço Contratual,Data de Publicação,Data de Celebração do Contrato,Prazo de Execução,Local de Execução,Fundamentação,Data de Fecho do Contrato,Preço Total Efetivo,Causas das Alterações ao Prazo,Causas das Alterações ao Preço,Estado,N.º registo do Acordo Quadro,Descrição do Acordo Quadro,Procedimento Centralizado
AQUISIÇÃO DIVERSOS REAGENTES,Concurso público,Aquisição de bens móveis,"33696000-5, Reagentes e meios de contraste","Unidade Local de Saúde do Baixo Alentejo, E. P. E. (508754275)",BAPTISTA MARQUES DIAGNOSTICA (501439110),"5.316,00 €",02-11-2018,01-08-2018,365 dias,"Portugal, Beja, Beja","Artigo 20.º, n.º 1, alínea b) do Código dos Contratos Públicos",,,,,,Não aplicável.,Não aplicável.,FALSE
AQUISIÇÃO DE DISPOSITIVOS MÉDICOS PARA ORTOPEDIA/OSTEOSSÍNTESE,Concurso público,Aquisição de bens móveis,"33183300-9, Aparelhos para osteossíntese","Unidade Local de Saúde do Baixo Alentejo, E. P. E. (508754275)","Stryker Portugal, Produtos Médicos, Unip., Lda. (504594214)","88.995,00 €",02-11-2018,27-03-2018,365 dias,"Portugal, Beja, Beja","Artigo 20.º, n.º 1, alínea b) do Código dos Contratos Públicos",,,,,,Não aplicável.,Não aplicável.,FALSE
