Objeto do Contrato,Tipo de Procedimento,Tipo(s) de Contrato,CPVs,Entidade(s) Adjudicante(s),Entidade(s) Adjudicatária(s),Preço Contratual,Data de Publicação,Data de Celebração do Contrato,Prazo de Execução,Local de Execução,Fundamentação,Data de Fecho do Contrato,Preço Total Efetivo,Causas das Alterações ao Prazo,Causas das Alterações ao Preço,Estado,N.º registo do Acordo Quadro,Descrição do Acordo Quadro,Procedimento Centralizado
Oxigenadores de membrana adulto,Concurso público,Aquisição de bens móveis,"33186100-8, Oxigenador","Centro Hospitalar de Lisboa Central, E. P. E. (508080142)",Medtronic Portugal (504223933),"187.200,00 €",21-03-2014,17-03-2014,280 dias,"Portugal, Lisboa, Lisboa","Artigo 20.º, n.º 1, alínea b) do Código dos Contratos Públicos",,,,,,Não aplicável.,Não aplicável.,FALSE
Fios guia para angioplastia,Ajuste Direto Regime Geral,Aquisição de bens móveis,"33000000-0, Equipamento médico, medicamentos e produtos para cuidados pessoais","Centro Hospitalar de Lisboa Central, E. P. E. (508080142)","World Medica, S.L. (B-82612599)","14.400,00 €",21-03-2014,14-03-2014,280 dias,"Portugal, Lisboa, Lisboa","Artigo 24.º, n.º 1, alínea b) do Código dos Contratos Públicos",,,,,,Não aplicável.,Não aplicável.,FALSE
GENTAMICINA E VANCOMICINA,Ajuste Direto Regime Geral,Aquisição de bens móveis,"33694000-1, Meios de diagnóstico","Centro Hospitalar de Lisboa Central, E. P. E. (508080142)",JOHNON & JOHNSON MEDICAL (500153370),"3.060,00 €",21-03-2014,14-03-2014,90 dias,"Portugal, Lisboa, Lisboa","Artigo 26.º, n.º 1, alínea a) do Código dos Contratos Públicos",,,,,,Não aplicável.,Não aplicável.,FALSE
INFLUENZA A VIRUS P/PCR,Ajuste Direto Regime Geral,Aquisição de bens móveis,"33696000-5, Reagentes e meios de contraste","Centro Hospitalar de Lisboa Central, E. P. E. (508080142)",LABORATORIOS LETI ( ESB78152725 ),"8.307,20 €",21-03-2014,29-01-2014,30 dias,"Portugal, Lisboa, Lisboa","Artigo 20.º, n.º 1, alínea a) do Código dos Contratos Públicos",,,,,,Não aplicável.,Não aplicável.,FALSE
510351/14 - Aquisição de Imunoglobulina humana contra o antigénio D 1500 U.I. /  2 ml sol. inj. ser. 2 ml IM IV,Ao abrigo de acordo-quadro (art.º 259.º),Aquisição de bens móveis,"33600000-6, Produtos farmacêuticos","Centro Hospitalar de Lisboa Central, E. P. E. (508080142)","CSL Behring Unipessoal, Lda. (503047201)","37.500,00 €",21-03-2014,21-03-2014,286 dias,"Portugal, Lisboa, Lisboa",Artigo 259.º do Código dos Contratos Públicos,,,,,,535788,"CONCURSO PÚBLICO PARA A CELEBRAÇÃO DE CONTRATOSPÚBLICOS DE APROVISIONAMENTO PARA A ÁREA DA SAÚDE, COM VISTA AO FORNECIMENTO DE DERIVADOS DO PLASMA HUMANOÀS INSTITUIÇÕES E SERVIÇOS DO SERVIÇO NACIONAL DE SAÚDE",FALSE
MARCADORES TUMORAIS,Ajuste Direto Regime Geral,Aquisição de bens móveis,"33696200-7, Reagentes para análises ao sangue","Centro Hospitalar de Lisboa Central, E.P.E. (CHLC) (508080142)",ROCHE SISTEMA DIAGNOSTICO (504282921),"8.878,00 €",21-03-2014,03-01-2014,90 dias,"Portugal, Lisboa, Lisboa","Artigo 26.º, n.º 1, alínea a) do Código dos Contratos Públicos",,,,,,Não aplicável.,Não aplicável.,FALSE
REAGENTES PRE-NATAL 1º TRIMESTRE DE GRAVIEZ,Ajuste Direto Regime Geral,Aquisição de bens móveis,"33696200-7, Reagentes para análises ao sangue","Centro Hospitalar de Lisboa Central, E.P.E. (CHLC) (508080142)",ROCHE SISTEMAS DE DIAGNOSTICO (504282921),"2.593,30 €",21-03-2014,10-01-2014,90 dias,"Portugal, Lisboa, Lisboa","Artigo 26.º, n.º 1, alínea a) do Código dos Contratos Públicos",,,,,,Não aplicável.,Não aplicável.,FALSE
ANTICORPOS PRIMARIOS PARA MORFOLOGIA RENAL,Ajuste Direto Regime Geral,Aquisição de bens móveis,"33694000-1, Meios de diagnóstico","Centro Hospitalar de Lisboa Central, E.P.E. (CHLC) (508080142)",LUSOPALEX (503531588),"7.237,38 €",21-03-2014,03-01-2014,365 dias,"Portugal, Lisboa, Lisboa","Artigo 20.º, n.º 1, alínea a) do Código dos Contratos Públicos",,,,,,Não aplicável.,Não aplicável.,FALSE
"Cateteres de drenagem abdominal, torácica e sistemas de punção",Ajuste Direto Regime Geral,Aquisição de bens móveis,"33000000-0, Equipamento médico, medicamentos e produtos para cuidados pessoais","Centro Hospitalar de Lisboa Central, E. P. E. (508080142)",Vygon (503232785),"160,80 €",21-03-2014,20-03-2014,284 dias,"Portugal, Lisboa, Lisboa","Artigo 20.º, n.º 1, alínea a) do Código dos Contratos Públicos",,,,,,Não aplicável.,Não aplicável.,FALSE
"Cateteres de drenagem abdominal, torácica e sistemas de punção",Ajuste Direto Regime Geral,Aquisição de bens móveis,"33000000-0, Equipamento médico, medicamentos e produtos para cuidados pessoais","Centro Hospitalar de Lisboa Central, E. P. E. (508080142)",P.M.H. (502376899),"6.528,00 €",21-03-2014,14-03-2014,285 dias,"Portugal, Lisboa, Lisboa","Artigo 20.º, n.º 1, alínea a) do Código dos Contratos Públicos",,,,,,Não aplicável.,Não aplicável.,FALSE
Diverso Material para Gastro,Concurso público,Aquisição de bens móveis,"33140000-3, Material médico de consumo",Centro Hospitalar de Lisboa Central E.P.E. (508080142),biosonda (501463313),"44.000,00 €",20-03-2014,04-03-2014,300 dias,"Portugal, Lisboa, Lisboa","Artigo 20.º, n.º 1, alínea b) do Código dos Contratos Públicos",,,,,,Não aplicável.,Não aplicável.,FALSE
Diverso Material para Gastro,Concurso público,Aquisição de bens móveis,"33140000-3, Material médico de consumo",Centro Hospitalar de Lisboa Central E.P.E. (508080142),Socime II (504453939),"55.049,60 €",20-03-2014,04-03-2014,300 dias,"Portugal, Lisboa, Lisboa","Artigo 20.º, n.º 1, alínea b) do Código dos Contratos Públicos",,,,,,Não aplicável.,Não aplicável.,FALSE
Diverso Material para Gastro,Concurso público,Aquisição de bens móveis,"33140000-3, Material médico de consumo",Centro Hospitalar de Lisboa Central E.P.E. (508080142),Alves &ca irmãos (500310068),"23.250,00 €",20-03-2014,04-03-2014,300 dias,"Portugal, Lisboa, Lisboa","Artigo 20.º, n.º 1, alínea b) do Código dos Contratos Públicos",,,,,,Não aplicável.,Não aplicável.,FALSE
Diverso Material para Gastro,Concurso público,Aquisição de bens móveis,"33140000-3, Material médico de consumo",Centro Hospitalar de Lisboa Central E.P.E. (508080142),endotecnica (503818348),"25.070,00 €",20-03-2014,04-03-2014,300 dias,"Portugal, Lisboa, Lisboa","Artigo 20.º, n.º 1, alínea b) do Código dos Contratos Públicos",,,,,,Não aplicável.,Não aplicável.,FALSE
Diverso Material para Gastro,Concurso público,Aquisição de bens móveis,"33140000-3, Material médico de consumo",Centro Hospitalar de Lisboa Central E.P.E. (508080142),Boston Scientific (504988964),"105.405,00 €",20-03-2014,04-03-2014,300 dias,"Portugal, Lisboa, Lisboa","Artigo 20.º, n.º 1, alínea b) do Código dos Contratos Públicos",,,,,,Não aplicável.,Não aplicável.,FALSE
Diverso Material para Gastro,Concurso público,Aquisição de bens móveis,"33140000-3, Material médico de consumo",Centro Hospitalar de Lisboa Central E.P.E. (508080142),olympus (980474710),"5.740,79 €",20-03-2014,04-03-2014,300 dias,"Portugal, Lisboa, Lisboa","Artigo 20.º, n.º 1, alínea b) do Código dos Contratos Públicos",,,,,,Não aplicável.,Não aplicável.,FALSE
Diverso Material para Gastro,Concurso público,Aquisição de bens móveis,"33140000-3, Material médico de consumo",Centro Hospitalar de Lisboa Central E.P.E. (508080142),Braun Medical (501506543),"260,00 €",20-03-2014,04-03-2014,300 dias,"Portugal, Lisboa, Lisboa","Artigo 20.º, n.º 1, alínea b) do Código dos Contratos Públicos",,,,,,Não aplicável.,Não aplicável.,FALSE
"PRESTAÇÃO DE SERVIÇOS PARA REPARAÇÃO DE AVARIA ELECTRICA DE RUPTOR-FUSIVEL DE MEDIA TENSÃO DO CHLC, EPE (MAC)",Ajuste Direto Regime Geral,Aquisição de serviços,"50000000-5, Serviços de reparação e manutenção","Centro Hospitalar de Lisboa Central, E. P. E. (508080142)",NOVA ENERGIA (502759909),"10.926,00 €",20-03-2014,18-03-2014,4 dias,"Portugal, Lisboa, Lisboa","Artigo 24.º, n.º 1, alínea c) do Código dos Contratos Públicos",,,,,,Não aplicável.,Não aplicável.,FALSE
escovilhoes e valvulas,Ajuste Direto Regime Geral,Aquisição de bens móveis,"33000000-0, Equipamento médico, medicamentos e produtos para cuidados pessoais","Centro Hospitalar de Lisboa Central, E. P. E. (508080142)",olympus (980474710),"4.346,00 €",20-03-2014,18-03-2014,290 dias,"Portugal, Lisboa, Lisboa","Artigo 20.º, n.º 1, alínea a) do Código dos Contratos Públicos",,,,,,Não aplicável.,Não aplicável.,FALSE
Escovilhoes e Valvulas p/ aparelhos endoscopios e Broncoscopios,Ajuste Direto Regime Geral,Aquisição de bens móveis,"33000000-0, Equipamento médico, medicamentos e produtos para cuidados pessoais","Centro Hospitalar de Lisboa Central, E. P. E. (508080142)",endotecnica (503818348),"1.958,40 €",20-03-2014,18-03-2014,290 dias,"Portugal, Lisboa, Lisboa","Artigo 20.º, n.º 1, alínea a) do Código dos Contratos Públicos",,,,,,Não aplicável.,Não aplicável.,FALSE
Diversos sistemas,Concurso público,Aquisição de bens móveis,"33140000-3, Material médico de consumo","Centro Hospitalar de Lisboa Central, E. P. E. (508080142)","B. Braun Medical, Lda. (501506543)","86.400,00 €",20-03-2014,07-03-2014,286 dias,"Portugal, Lisboa, Lisboa","Artigo 20.º, n.º 1, alínea b) do Código dos Contratos Públicos",,,,,,Não aplicável.,Não aplicável.,FALSE
"Material arsenal cirúrgico (Pinças, gancho e tesoura)",Ajuste Direto Regime Geral,Aquisição de bens móveis,"33000000-0, Equipamento médico, medicamentos e produtos para cuidados pessoais","Centro Hospitalar de Lisboa Central, E. P. E. (508080142)","Bausch & Lomb (980218764), José Cotta (500155739)","2.971,20 €",19-03-2014,19-03-2014,5 dias,"Portugal, Lisboa, Lisboa","Artigo 20.º, n.º 1, alínea a) do Código dos Contratos Públicos",,,,,,Não aplicável.,Não aplicável.,FALSE
"Aquisição de bosentano 62,5mg",Ajuste Direto Regime Geral,Aquisição de bens móveis,"33000000-0, Equipamento médico, medicamentos e produtos para cuidados pessoais","Centro Hospitalar de Lisboa Central, E. P. E. (508080142)","Actelion Pharmaceuticals Portugal, Lda (507336488)","11.852,40 €",19-03-2014,26-12-2013,5 dias,"Portugal, Lisboa, Lisboa","Artigo 24.º, n.º 1, alínea e) do Código dos Contratos Públicos",,,,,,Não aplicável.,Não aplicável.,FALSE
410341/14 - Aquisição de Dexametasona 700 uG impl. intravítreo aplic. intravítreo,Ajuste Direto Regime Geral,Aquisição de bens móveis,"33600000-6, Produtos farmacêuticos","Centro Hospitalar de Lisboa Central, E. P. E. (508080142)","Profarin - Distribuidora de Produtos Farmacêuticos Industriais, Lda. (500223238)","5.970,00 €",18-03-2014,27-02-2014,307 dias,"Portugal, Lisboa, Lisboa","Artigo 20.º, n.º 1, alínea a) do Código dos Contratos Públicos",,,,,,Não aplicável.,Não aplicável.,FALSE
Seringas para bomba perfusão,Concurso público,Aquisição de bens móveis,"33140000-3, Material médico de consumo","Centro Hospitalar de Lisboa Central, E. P. E. (508080142)","Carefusion Portugal 332, Lda. (503898554)","110.779,50 €",18-03-2014,14-03-2014,294 dias,"Portugal, Lisboa, Lisboa","Artigo 20.º, n.º 1, alínea b) do Código dos Contratos Públicos",,,,,,Não aplicável.,Não aplicável.,FALSE
510177/14CARBÓMERO 2 MG/G GEL/APRACLONIDINA 2.5/APRACLONIDINA 5/BRINZOLAMIDA 10 MG/ML /DEXAMETASONA 1 MG/ML,Ao abrigo de acordo-quadro (art.º 259.º),Aquisição de bens móveis,"33000000-0, Equipamento médico, medicamentos e produtos para cuidados pessoais","Centro Hospitalar de Lisboa Central, E. P. E. (508080142)",Alcon Portugal-Produtos e Equipamentos Oftalmologicos Lda (501251685),"4.998,20 €",17-03-2014,07-01-2014,359 dias,"Portugal, Lisboa, Lisboa",Artigo 259.º do Código dos Contratos Públicos,,,,,,602068,"CONCURSO PÚBLICO PARA A CELEBRAÇÃO DE CONTRATOS PÚBLICOS DE APROVISIONAMENTO PARA A ÁREA DA SAÚDE, COM VISTA AO FORNECIMENTO DE MEDICAMENTOS DE CONSUMO GERAL - MEDICAMENTOS USADOS NAS AFEÇÕES OCULARES E  OTORRINOLARINGOLÓGICAS, ÀS INSTITUIÇÕES E SERVIÇOS DO SERVIÇO NACIONAL DE SAÚDE",FALSE
Solução Alcoólica Desinf. Resifual fr 100ml,Ao abrigo de acordo-quadro (art.º 259.º),Aquisição de bens móveis,"33000000-0, Equipamento médico, medicamentos e produtos para cuidados pessoais","Centro Hospitalar de Lisboa Central, E. P. E. (508080142)",Air Liquide Medicinal (501576436),"1.755,00 €",17-03-2014,10-03-2014,301 dias,"Portugal, Lisboa, Lisboa",Artigo 259.º do Código dos Contratos Públicos,,,,,,178089,"CONCURSO PÚBLICO PARA A CELEBRAÇÃO DE CONTRATOS PÚBLICOS DE APROVISIONAMENTO PARA AQUISIÇÃO DE ANTISSÉPTICOS, DESINFECTANTES E OUTROS ",FALSE
410081/14MESSALAZINA 4 G/60 ML SUSP RECT FR 60 ML,Ajuste Direto Regime Geral,Aquisição de bens móveis,"33000000-0, Equipamento médico, medicamentos e produtos para cuidados pessoais","Centro Hospitalar de Lisboa Central, E. P. E. (508080142)",Dr.Falk Pharma Portugal- Sociedade Unipessoal (506171612),"1.548,58 €",17-03-2014,25-02-2014,313 dias,"Portugal, Lisboa, Lisboa","Artigo 24.º, n.º 1, alínea e) do Código dos Contratos Públicos",,,,,,Não aplicável.,Não aplicável.,FALSE
Aquisição de dispositivos para encerramento vascular da artéria femoral,Concurso público,Aquisição de bens móveis,"33140000-3, Material médico de consumo","Centro Hospitalar de Lisboa Central, E. P. E. (508080142)",Johnson & Johnson (500153370),"30.812,50 €",17-03-2014,05-03-2014,301 dias,"Portugal, Lisboa, Lisboa","Artigo 20.º, n.º 1, alínea b) do Código dos Contratos Públicos",,,,,,Não aplicável.,Não aplicável.,FALSE
Aquisição de dispositivos para encerramento vascular da artéria femoral,Concurso público,Aquisição de bens móveis,"33140000-3, Material médico de consumo","Centro Hospitalar de Lisboa Central, E. P. E. (508080142)",St. Jude Medical Portugal (504180746),"62.747,00 €",17-03-2014,05-03-2014,301 dias,"Portugal, Lisboa, Lisboa","Artigo 20.º, n.º 1, alínea b) do Código dos Contratos Públicos",,,,,,Não aplicável.,Não aplicável.,FALSE
510184/14AMPICILINA 500MG PÓ/AMOXICILINA 1000MG+ÁCIDO CLAV./AMPICILINA 1000MG PÓ/ISONIAZIDA 300/CLINDAMICINA,Ao abrigo de acordo-quadro (art.º 259.º),Aquisição de bens móveis,"33000000-0, Equipamento médico, medicamentos e produtos para cuidados pessoais","Centro Hospitalar de Lisboa Central, E. P. E. (508080142)",Labesfal Laboratorios Almiro S.A (501169580),"37.039,76 €",17-03-2014,08-01-2014,358 dias,"Portugal, Lisboa, Lisboa",Artigo 259.º do Código dos Contratos Públicos,,,,,,455180,"CONCURSO PÚBLICO PARA A CELEBRAÇÃO DE CONTRATOS PÚBLICOS DE APROVISIONAMENTO PARA A ÁREA DA SAÚDE, COM VISTA AO FORNECIMENTO DE MEDICAMENTOS ANTI-INFECIOSOS: ANTIVÍRICOS E ANTIFÚNGICOS, ÀS INSTITUIÇÕES E SERVIÇOS DO SERVIÇO NACIONAL DE SAÚDE  ",FALSE
Aquisição de dispositivos para encerramento vascular da artéria femoral,Concurso público,Aquisição de bens móveis,"33140000-3, Material médico de consumo","Centro Hospitalar de Lisboa Central, E. P. E. (508080142)","Abbott Laboratórios, Lda (500006148)","32.725,00 €",17-03-2014,05-03-2014,301 dias,"Portugal, Lisboa, Lisboa","Artigo 20.º, n.º 1, alínea b) do Código dos Contratos Públicos",,,,,,Não aplicável.,Não aplicável.,FALSE
"Aquisição de dializador hemodiálise área aprox. 0,6 cuf 33",Ajuste Direto Regime Geral,Aquisição de bens móveis,"33140000-3, Material médico de consumo","Centro Hospitalar de Lisboa Central, E. P. E. (508080142)",Gambro Lundia AB-Sucursal Em Portugal (980367751),"10.240,00 €",17-03-2014,13-01-2014,352 dias,"Portugal, Lisboa, Lisboa","Artigo 20.º, n.º 1, alínea a) do Código dos Contratos Públicos",,,,,,Não aplicável.,Não aplicável.,FALSE
Aquisição de 5500 ampolas de Bupivacaina  Hiperbárica 20mg/4ml Sol Inj,Ao abrigo de acordo-quadro (art.º 259.º),Aquisição de bens móveis,"33000000-0, Equipamento médico, medicamentos e produtos para cuidados pessoais","Centro Hospitalar de Lisboa Central, E. P. E. (508080142)",Astrazeneca (502942240),"55.000,00 €",17-03-2014,02-01-2014,363 dias,"Portugal, Lisboa, Lisboa",Artigo 259.º do Código dos Contratos Públicos,,,,,,611371,"CONCURSO PÚBLICO PARA A CELEBRAÇÃO DE CONTRATOS PÚBLICOS DE APROVISIONAMENTO PARA A ÁREA DA SAÚDE, COM VISTA AO FORNECIMENTO DE MEDICAMENTOS ANESTÉSICOS E RELAXANTES MUSCULARES, ÀS INSTITUIÇÕES E SERVIÇOS DO SERVIÇO NACIONAL DE SAÚDE    ",FALSE
Aquisição de saco efluente para hemofiltração,Ajuste Direto Regime Geral,Aquisição de bens móveis,"33140000-3, Material médico de consumo","Centro Hospitalar de Lisboa Central, E. P. E. (508080142)",Gambro Lundia AB - Sucursal em Portugal (980367751),"14.850,00 €",17-03-2014,25-02-2014,309 dias,"Portugal, Lisboa, Lisboa","Artigo 20.º, n.º 1, alínea a) do Código dos Contratos Públicos",,,,,,Não aplicável.,Não aplicável.,FALSE
410245/14CICLOSPORINA 100 MG/ML SOL ORAL FR 50 ML,Ajuste Direto Regime Geral,Aquisição de bens móveis,"33000000-0, Equipamento médico, medicamentos e produtos para cuidados pessoais","Centro Hospitalar de Lisboa Central, E. P. E. (508080142)",Novartis Farma S.A (500063524),"16.062,00 €",17-03-2014,14-02-2014,325 dias,"Portugal, Lisboa, Lisboa","Artigo 24.º, n.º 1, alínea e) do Código dos Contratos Públicos",,,,,,Não aplicável.,Não aplicável.,FALSE
Aquisição de kit suporte hepático extracorporal,Concurso público,Aquisição de bens móveis,"33140000-3, Material médico de consumo","Centro Hospitalar de Lisboa Central, E. P. E. (508080142)",Gambro Lundia AB-Sucursal em Portugal (980367751),"140.250,00 €",17-03-2014,21-02-2014,313 dias,"Portugal, Lisboa, Lisboa","Artigo 20.º, n.º 1, alínea b) do Código dos Contratos Públicos",,,,,,Não aplicável.,Não aplicável.,FALSE
Aquisição de Picossulfato de Sódio; Butilescopolamina; Bisacodilo e ,Ao abrigo de acordo-quadro (art.º 259.º),Aquisição de bens móveis,"33000000-0, Equipamento médico, medicamentos e produtos para cuidados pessoais","Centro Hospitalar de Lisboa Central, E. P. E. (508080142)",Unilfarma (500293023),"6.367,95 €",17-03-2014,02-01-2014,363 dias,"Portugal, Lisboa, Lisboa",Artigo 259.º do Código dos Contratos Públicos,,,,,,520788,CONCURSO PUBLICO PARA A CELEBRAÇÃO DE CONTRATOS PUBLICOS DE APROVISIONAMENTO PARA A AREA DA SAUDE  COM VISTA AO FORNECIMENTO DE MEDICAMENTOS PARA O APARELHO DIGESTIVO  AS INSITUIÇÕES DO SERVIÇO NACIONAL DE SAÚDE,FALSE
"Aquisição de  Ácido Paracético  0,15%; Ortoftaldeido  0,55%(OPA); Detergente Enzimático Liquido; Glutaldeido  2% fr",Ao abrigo de acordo-quadro (art.º 259.º),Aquisição de bens móveis,"33000000-0, Equipamento médico, medicamentos e produtos para cuidados pessoais","Centro Hospitalar de Lisboa Central, E. P. E. (508080142)",Air Liquide Medicinal (501576436),"16.518,88 €",17-03-2014,12-02-2014,322 dias,"Portugal, Lisboa, Lisboa",Artigo 259.º do Código dos Contratos Públicos,,,,,,549298,"Concurso Público para a celebração de Contratos Publicos de Aprovisionamento para a área da saúde com vista ao fornecimento de Antisepticos, Desinfetantes e Outros, às Instituições e Serviços do Serviço Nacional de Saúde.",FALSE
"Aquisição de Tubos Endobronquicos, Endotraqueais, Nasofaringeos e Orofaringeos",Concurso público,Locação de bens móveis,"33140000-3, Material médico de consumo","Centro Hospitalar de Lisboa Central, E. P. E. (508080142)",Teleflex Medical (980249783),"14.830,46 €",17-03-2014,03-03-2014,1080 dias,"Portugal, Lisboa, Lisboa","Artigo 20.º, n.º 1, alínea b) do Código dos Contratos Públicos",,,,,,Não aplicável.,Não aplicável.,FALSE
"Aquisição de Tubos Endobronquicos, Endotraqueais, Nasofaringeos e Orofaringeos",Concurso público,Locação de bens móveis,"33140000-3, Material médico de consumo","Centro Hospitalar de Lisboa Central, E. P. E. (508080142)",Intersurgical Portugal (503480045),"11.429,42 €",17-03-2014,11-03-2014,1080 dias,"Portugal, Lisboa, Lisboa","Artigo 20.º, n.º 1, alínea b) do Código dos Contratos Públicos",,,,,,Não aplicável.,Não aplicável.,FALSE
"Aquisição de Tubos Endobronquicos, Endotraqueais, Nasofaringeos e Orofaringeos.",Concurso público,Locação de bens móveis,"33140000-3, Material médico de consumo","Centro Hospitalar de Lisboa Central, E. P. E. (508080142)",Covidien Portugal (503413410),"91.429,40 €",17-03-2014,07-03-2014,1080 dias,"Portugal, Lisboa, Lisboa","Artigo 20.º, n.º 1, alínea b) do Código dos Contratos Públicos",,,,,,Não aplicável.,Não aplicável.,FALSE
Fios de kirschner,Ajuste Direto Regime Geral,Aquisição de bens móveis,"33000000-0, Equipamento médico, medicamentos e produtos para cuidados pessoais","Centro Hospitalar de Lisboa Central, E. P. E. (508080142)",Eurocasmédica (503322105),"1.720,00 €",17-03-2014,14-03-2014,289 dias,"Portugal, Lisboa, Lisboa","Artigo 20.º, n.º 1, alínea a) do Código dos Contratos Públicos",,,,,,Não aplicável.,Não aplicável.,FALSE
410204/14 - Aquisição de Tocofersolano 50 mg/ml sol. oral fr. 60 ml,Ajuste Direto Regime Geral,Aquisição de bens móveis,"33600000-6, Produtos farmacêuticos","Centro Hospitalar de Lisboa Central, E. P. E. (508080142)","Orphan Europe Portugal - Soc. Unipessoal, Lda. (507966953)","16.200,00 €",17-03-2014,17-02-2014,317 dias,"Portugal, Lisboa, Lisboa","Artigo 24.º, n.º 1, alínea e) do Código dos Contratos Públicos",,,,,,Não aplicável.,Não aplicável.,FALSE
Aquisição de  260 seringas de Solução de Substituição Çiquido Sinovial (Administr semestral),Ajuste Direto Regime Geral,Aquisição de bens móveis,"33000000-0, Equipamento médico, medicamentos e produtos para cuidados pessoais","Centro Hospitalar de Lisboa Central, E. P. E. (508080142)",Zambon Produtos Farmacêuticos Lda (502155930),"25.415,00 €",14-03-2014,18-02-2014,316 dias,"Portugal, Lisboa, Lisboa","Artigo 20.º, n.º 1, alínea a) do Código dos Contratos Públicos",,,,,,Não aplicável.,Não aplicável.,FALSE
aquisição de  7900 sacos de Solução Hemofiltração Lactato 3mmmol/l Saco 4750ml,Ajuste Direto Regime Geral,Aquisição de bens móveis,"33000000-0, Equipamento médico, medicamentos e produtos para cuidados pessoais","Centro Hospitalar de Lisboa Central, E. P. E. (508080142)",gambro Lundia (980367751),"110.600,00 €",14-03-2014,14-02-2014,320 dias,"Portugal, Lisboa, Lisboa","Artigo 24.º, n.º 1, alínea e) do Código dos Contratos Públicos",,,,,,Não aplicável.,Não aplicável.,FALSE
Aquisição de 240 frascos de Sulfato de Coindroitina 2% p/ Inst. Vesical,Ajuste Direto Regime Geral,Aquisição de bens móveis,"33000000-0, Equipamento médico, medicamentos e produtos para cuidados pessoais","Centro Hospitalar de Lisboa Central, E. P. E. (508080142)",Companhia Portuguesa de Higiene Pharma (500069190),"12.290,40 €",14-03-2014,18-02-2014,316 dias,"Portugal, Lisboa, Lisboa","Artigo 20.º, n.º 1, alínea a) do Código dos Contratos Públicos",,,,,,Não aplicável.,Não aplicável.,FALSE
Diverso material para CPAP e EEG,Ajuste Direto Regime Geral,Aquisição de bens móveis,"33000000-0, Equipamento médico, medicamentos e produtos para cuidados pessoais","Centro Hospitalar de Lisboa Central, E. P. E. (508080142)",Intersurgical (503480045),"12.657,55 €",14-03-2014,24-02-2014,306 dias,"Portugal, Lisboa, Lisboa","Artigo 20.º, n.º 1, alínea a) do Código dos Contratos Públicos",,,,,,Não aplicável.,Não aplicável.,FALSE
Diverso material para CPAP e EEG,Ajuste Direto Regime Geral,Aquisição de bens móveis,"33000000-0, Equipamento médico, medicamentos e produtos para cuidados pessoais","Centro Hospitalar de Lisboa Central, E. P. E. (508080142)",Sano-Tecnica (500239819),"2.998,80 €",14-03-2014,18-02-2014,306 dias,"Portugal, Lisboa, Lisboa","Artigo 20.º, n.º 1, alínea a) do Código dos Contratos Públicos",,,,,,Não aplicável.,Não aplicável.,FALSE
CIMENTO CIRURGICO PARA VERTEBROBLASTIA,Ajuste Direto Regime Geral,Aquisição de bens móveis,"33140000-3, Material médico de consumo","Centro Hospitalar de Lisboa Central, E. P. E. (508080142)",Johnson Medical (500153370),"12.474,00 €",14-03-2014,05-03-2014,306 dias,"Portugal, Lisboa, Lisboa","Artigo 20.º, n.º 1, alínea a) do Código dos Contratos Públicos",,,,,,Não aplicável.,Não aplicável.,FALSE
"Aquisição de cabos disposable bisturi electrico com lâmina de 25,4 mm e 150 mm",Concurso público,Aquisição de bens móveis,"33140000-3, Material médico de consumo",Centro Hospitalar de Lisboa Central E.P.E. (508080142),"Covidien Portugal, Unipessoal, Lda (503413410)","153.280,00 €",14-03-2014,05-03-2014,301 dias,"Portugal, Lisboa, Lisboa","Artigo 20.º, n.º 2 do Código dos Contratos Públicos",,,,,,Não aplicável.,Não aplicável.,FALSE
Aquisição de 6000 frascosÁlc.  Isoprop 450mg/g + Álc Prop 300mg/g + Etils Mecet,Ao abrigo de acordo-quadro (art.º 259.º),Aquisição de bens móveis,"33000000-0, Equipamento médico, medicamentos e produtos para cuidados pessoais","Centro Hospitalar de Lisboa Central, E. P. E. (508080142)",Paul Hrtmann Lda (502271728),"15.600,00 €",14-03-2014,17-02-2014,317 dias,"Portugal, Lisboa, Lisboa",Artigo 259.º do Código dos Contratos Públicos,,,,,,178089,"CONCURSO PÚBLICO PARA A CELEBRAÇÃO DE CONTRATOS PÚBLICOS DE APROVISIONAMENTO PARA AQUISIÇÃO DE ANTISSÉPTICOS, DESINFECTANTES E OUTROS ",FALSE
510063/14AQUISIÇÃO DE CARBOXIMALTOSE FÉRRICA 50 MG/ML E COMPLEXO HIDRÓXIDO FÉRRICO-POLIMALTOSE 178.6 E 357,Ao abrigo de acordo-quadro (art.º 259.º),Aquisição de bens móveis,"33000000-0, Equipamento médico, medicamentos e produtos para cuidados pessoais","Centro Hospitalar de Lisboa Central, E. P. E. (508080142)",OM Pharma S:A (500207410),"21.526,60 €",14-03-2014,02-01-2014,365 dias,"Portugal, Lisboa, Lisboa",Artigo 259.º do Código dos Contratos Públicos,,,,,,599473,"CONCURSO PÚBLICO PARA A CELEBRAÇÃO DE CONTRATOS PÚBLICOS DE APROVISIONAMENTO PARA A ÁREA DA SAÚDE, COM VISTA AO FORNECIMENTO DE MEDICAMENTOS DE CONSUMO GERAL, GRUPO 4: SANGUE ÀS INSTITUIÇÕES E SERVIÇOS DO SERVIÇO NACIONAL DE SAÚDE",FALSE
510281/14EPTACOG ALFA (ACTIVADO) 250KUI PÓ INJ,Ao abrigo de acordo-quadro (art.º 259.º),Aquisição de bens móveis,"33000000-0, Equipamento médico, medicamentos e produtos para cuidados pessoais","Centro Hospitalar de Lisboa Central, E. P. E. (508080142)",Novo Nordisk-Comercio Produtos Farmaceuticos Lda (501485210),"210.942,99 €",14-03-2014,28-01-2014,180 dias,"Portugal, Lisboa, Lisboa",Artigo 259.º do Código dos Contratos Públicos,,,,,,381903,FACTORES RECOMBINANTES DA COAGULAÇÃO,FALSE
Aquisição de  24996 frascos de Solução Alcoólica  Desinfectante  Mãos fr 500ml c/ Doseador,Ao abrigo de acordo-quadro (art.º 259.º),Aquisição de bens móveis,"33000000-0, Equipamento médico, medicamentos e produtos para cuidados pessoais","Centro Hospitalar de Lisboa Central, E. P. E. (508080142)",Air Liquide Medicinal (501576436),"36.494,16 €",14-03-2014,11-03-2014,295 dias,"Portugal, Lisboa, Lisboa",Artigo 259.º do Código dos Contratos Públicos,,,,,,178089,"CONCURSO PÚBLICO PARA A CELEBRAÇÃO DE CONTRATOS PÚBLICOS DE APROVISIONAMENTO PARA AQUISIÇÃO DE ANTISSÉPTICOS, DESINFECTANTES E OUTROS ",FALSE
510379/14INFLIXIMAB 100MG PÓ,Ao abrigo de acordo-quadro (art.º 259.º),Aquisição de bens móveis,"33000000-0, Equipamento médico, medicamentos e produtos para cuidados pessoais","Centro Hospitalar de Lisboa Central, E. P. E. (508080142)",Merck Sharp & Dohme (500191360),"128.914,29 €",14-03-2014,07-02-2014,30 dias,"Portugal, Lisboa, Lisboa",Artigo 259.º do Código dos Contratos Públicos,,,,,,383205,CONCURSO PÚBLICO PARA A CELEBRAÇÃO DE CONTRATOS PÚBLICOS DE APROVISIONAMENTO PARA AQUISIÇÃO MEDICAMENTOS DO FORO ONCOLÓGICO II,FALSE
510102/14AQUISIÇÃO DE GOLIMUMAB 50 MG/0.5 ML E INTERFERÃO ALFA-2B 25 M.U.I./ML,Ao abrigo de acordo-quadro (art.º 259.º),Aquisição de bens móveis,"33000000-0, Equipamento médico, medicamentos e produtos para cuidados pessoais","Centro Hospitalar de Lisboa Central, E. P. E. (508080142)",Merck Sharp & Dohme Lda (500191360),"54.766,80 €",14-03-2014,06-02-2014,365 dias,"Portugal, Lisboa, Lisboa",Artigo 259.º do Código dos Contratos Públicos,,,,,,383205,CONCURSO PÚBLICO PARA A CELEBRAÇÃO DE CONTRATOS PÚBLICOS DE APROVISIONAMENTO PARA AQUISIÇÃO MEDICAMENTOS DO FORO ONCOLÓGICO II,FALSE
Sistemas de drenagem,Concurso público,Aquisição de bens móveis,"33140000-3, Material médico de consumo","Centro Hospitalar de Lisboa Central, E. P. E. (508080142)","Maquet Portugal, Lda. (506819698)","75.306,00 €",14-03-2014,07-03-2014,296 dias,"Portugal, Lisboa, Lisboa","Artigo 20.º, n.º 1, alínea b) do Código dos Contratos Públicos",,,,,,Não aplicável.,Não aplicável.,FALSE
Aquisição de kit´s de mesa de cateterismo,Ajuste Direto Regime Geral,Aquisição de bens móveis,"33140000-3, Material médico de consumo","Centro Hospitalar de Lisboa Central, E.P.E. (CHLC) (508080142)",Molnlycke Health Care (511101066),"13.336,00 €",13-03-2014,05-03-2014,301 dias,"Portugal, Lisboa, Lisboa","Artigo 20.º, n.º 1, alínea a) do Código dos Contratos Públicos",,,,,,Não aplicável.,Não aplicável.,FALSE
510027/14AQUISIÇÃO DE ALTEPLASE 10 MG PÓ SOL INJ FR IV,Ao abrigo de acordo-quadro (art.º 259.º),Aquisição de bens móveis,"33000000-0, Equipamento médico, medicamentos e produtos para cuidados pessoais","Centro Hospitalar de Lisboa Central, E. P. E. (508080142)",Unilparma Uniao Internacional Laboratorios Farmaceutico Lda (500293023),"74.152,00 €",13-03-2014,01-01-2014,365 dias,"Portugal, Lisboa, Lisboa",Artigo 259.º do Código dos Contratos Públicos,,,,,,599473,"CONCURSO PÚBLICO PARA A CELEBRAÇÃO DE CONTRATOS PÚBLICOS DE APROVISIONAMENTO PARA A ÁREA DA SAÚDE, COM VISTA AO FORNECIMENTO DE MEDICAMENTOS DE CONSUMO GERAL, GRUPO 4: SANGUE ÀS INSTITUIÇÕES E SERVIÇOS DO SERVIÇO NACIONAL DE SAÚDE",FALSE
"Aquisição de barretes, toucas e bata de urologia",Ajuste Direto Regime Geral,Aquisição de bens móveis,"33140000-3, Material médico de consumo","Centro Hospitalar de Lisboa Central, E.P.E. (CHLC) (508080142)","Pergut Portugal, Lda (501799729)","2.318,40 €",13-03-2014,05-03-2014,301 dias,"Portugal, Lisboa, Lisboa","Artigo 20.º, n.º 1, alínea a) do Código dos Contratos Públicos",,,,,,Não aplicável.,Não aplicável.,FALSE
"Aquisição de barretes, toucas e bata de urologia",Ajuste Direto Regime Geral,Aquisição de bens móveis,"33140000-3, Material médico de consumo","Centro Hospitalar de Lisboa Central, E.P.E. (CHLC) (508080142)",Molnlycke Health Care (511101066),"7.804,50 €",13-03-2014,05-03-2014,301 dias,"Portugal, Lisboa, Lisboa","Artigo 20.º, n.º 1, alínea a) do Código dos Contratos Públicos",,,,,,Não aplicável.,Não aplicável.,FALSE
"Aquisição de barretes, toucas e bata de urologia",Ajuste Direto Regime Geral,Aquisição de bens móveis,"33140000-3, Material médico de consumo","Centro Hospitalar de Lisboa Central, E.P.E. (CHLC) (508080142)","Aviquimica - Importações e Manufacturas, Lda (500039720)","4.560,00 €",13-03-2014,05-03-2014,301 dias,"Portugal, Lisboa, Lisboa","Artigo 20.º, n.º 1, alínea a) do Código dos Contratos Públicos",,,,,,Não aplicável.,Não aplicável.,FALSE
Aquisição de trouxas cirúrgicos,Concurso público,Aquisição de bens móveis,"33140000-3, Material médico de consumo",Centro Hospitalar de Lisboa Central E.P.E. (508080142),Molnlycke Health Care (511101066),"82.526,40 €",13-03-2014,05-03-2014,301 dias,"Portugal, Lisboa, Lisboa","Artigo 20.º, n.º 1, alínea b) do Código dos Contratos Públicos",,,,,,Não aplicável.,Não aplicável.,FALSE
Aquisição de pack´s e kit´s cirúrgicos,Concurso público,Aquisição de bens móveis,"33140000-3, Material médico de consumo","Centro Hospitalar de Lisboa Central, E. P. E. (508080142)",Molnlycke Health Care (511101066),"112.113,07 €",13-03-2014,05-03-2014,301 dias,"Portugal, Lisboa, Lisboa","Artigo 20.º, n.º 2 do Código dos Contratos Públicos",,,,,,Não aplicável.,Não aplicável.,FALSE
"Aquisição de 40 seringas de Ustecinumab 45mg/0,5ml Sol Inj; 28 ampolas de Cladribina 1mg/ml Sol Inj 10ml IV",Ao abrigo de acordo-quadro (art.º 259.º),Aquisição de bens móveis,"33000000-0, Equipamento médico, medicamentos e produtos para cuidados pessoais","Centro Hospitalar de Lisboa Central, E. P. E. (508080142)",Janssen - Cilag Farmacêutica (500189412),"122.036,16 €",13-03-2014,02-01-2014,363 dias,"Portugal, Lisboa, Lisboa",Artigo 259.º do Código dos Contratos Públicos,,,,,,345900,CONCURSO PÚBLICO PARA A CELEBRAÇÃO DE CONTRATOS PÚBLICOS DE APROVISIONAMENTO PARA AQUISIÇÃO MEDICAMENTOS DO FORO ONCOLÓGICO,FALSE
510165/14POSACONAZOL 40 MG/ML SUSP ORAL FR 105 ML,Ao abrigo de acordo-quadro (art.º 259.º),Aquisição de bens móveis,"33000000-0, Equipamento médico, medicamentos e produtos para cuidados pessoais","Centro Hospitalar de Lisboa Central, E. P. E. (508080142)",merck sharp & dohme lda (500191360),"56.876,00 €",13-03-2014,07-01-2014,359 dias,"Portugal, Lisboa, Lisboa",Artigo 259.º do Código dos Contratos Públicos,,,,,,455180,"CONCURSO PÚBLICO PARA A CELEBRAÇÃO DE CONTRATOS PÚBLICOS DE APROVISIONAMENTO PARA A ÁREA DA SAÚDE, COM VISTA AO FORNECIMENTO DE MEDICAMENTOS ANTI-INFECIOSOS: ANTIVÍRICOS E ANTIFÚNGICOS, ÀS INSTITUIÇÕES E SERVIÇOS DO SERVIÇO NACIONAL DE SAÚDE  ",FALSE
aquisição de  Brometo de Ipatrópio; Bromexina 2mg/ml Sol Oral fr 40ml; Bromexina 8mg comp,Ao abrigo de acordo-quadro (art.º 259.º),Aquisição de bens móveis,"33000000-0, Equipamento médico, medicamentos e produtos para cuidados pessoais","Centro Hospitalar de Lisboa Central, E. P. E. (508080142)",Unilfarma (500293023),"34.296,69 €",13-03-2014,02-01-2014,363 dias,"Portugal, Lisboa, Lisboa",Artigo 259.º do Código dos Contratos Públicos,,,,,,602875,"CONCURSO PÚBLICO PARA A CELEBRAÇÃO DE CONTRATOS PÚBLICOS DE APROVISIONAMENTO PARA A ÁREA DA SAÚDE, COM VISTA AO FORNECIMENTO DE MEDICAMENTOS DE CONSUMO GERAL - USADOS NAS AFECÇÕES CUTÂNEAS, ÀS INSTITUIÇÕES E SERVIÇOS DO SERVIÇO NACIONAL DE SAÚDE",FALSE
Aquisição de 40992 frascos de Alcoól 70%,Ao abrigo de acordo-quadro (art.º 259.º),Aquisição de bens móveis,"33000000-0, Equipamento médico, medicamentos e produtos para cuidados pessoais","Centro Hospitalar de Lisboa Central, E. P. E. (508080142)",Proclinica (500222665),"53.289,60 €",13-03-2014,08-01-2014,357 dias,"Portugal, Lisboa, Lisboa",Artigo 259.º do Código dos Contratos Públicos,,,,,,178089,"CONCURSO PÚBLICO PARA A CELEBRAÇÃO DE CONTRATOS PÚBLICOS DE APROVISIONAMENTO PARA AQUISIÇÃO DE ANTISSÉPTICOS, DESINFECTANTES E OUTROS ",FALSE
"Carboxilmetilcelulose c/ prata 10x10cm; Carboxilmetilcelulose 15x15 penso,Carboxilmetilcelulose 2x45cm tiras",Ao abrigo de acordo-quadro (art.º 259.º),Aquisição de bens móveis,"33000000-0, Equipamento médico, medicamentos e produtos para cuidados pessoais","Centro Hospitalar de Lisboa Central, E. P. E. (508080142)",Convatec Kvetch Portugal (508671531),"29.966,00 €",13-03-2014,07-02-2014,38 dias,"Portugal, Lisboa, Lisboa",Artigo 259.º do Código dos Contratos Públicos,,,,,,490160,"CONCURSO PÚBLICO PARA A CELEBRAÇÃO DE CONTRATOS PÚBLICOS DE APROVISIONAMENTO PARA A ÁREA DA SAÚDE, COM VISTA AO FORNECIMENTO DE MATERIAL PENSO DE EFEITO TERAPÊUTICO - ÀS INSTITUIÇÕES E SERVIÇOS DO SERVIÇO NACIONAL DE SAÚDE",FALSE
410064/14 - Aquisição de Anacinra 100 mg / 0.67 ml sol. inj. ser. 0.67 ml SC,Ajuste Direto Regime Geral,Aquisição de bens móveis,"33600000-6, Produtos farmacêuticos","Centro Hospitalar de Lisboa Central, E. P. E. (508080142)","Dilofar - Distribuição Transportes e Logística, Lda. (500563004)","19.975,10 €",13-03-2014,05-02-2014,329 dias,"Portugal, Lisboa, Lisboa","Artigo 24.º, n.º 1, alínea e) do Código dos Contratos Públicos",,,,,,Não aplicável.,Não aplicável.,FALSE
410185/14 - Aquisição de Pancreatina 150 mg cáps. gr. e Pancreatina 300 mg cáps. gr.,Ajuste Direto Regime Geral,Aquisição de bens móveis,"33600000-6, Produtos farmacêuticos","Centro Hospitalar de Lisboa Central, E. P. E. (508080142)","Abbott Laboratórios, Lda. (500006148)","9.601,52 €",13-03-2014,12-02-2014,322 dias,"Portugal, Lisboa, Lisboa","Artigo 24.º, n.º 1, alínea e) do Código dos Contratos Públicos",,,,,,Não aplicável.,Não aplicável.,FALSE
"Aquisição de 210 ampolas de Bortezomib 3,5mg Pó Sol Inj Fr IV",Ao abrigo de acordo-quadro (art.º 259.º),Aquisição de bens móveis,"33000000-0, Equipamento médico, medicamentos e produtos para cuidados pessoais","Centro Hospitalar de Lisboa Central, E. P. E. (508080142)",Janssen CIlag (500189412),"205.291,80 €",13-03-2014,02-01-2014,363 dias,"Portugal, Lisboa, Lisboa",Artigo 259.º do Código dos Contratos Públicos,,,,,,383205,CONCURSO PÚBLICO PARA A CELEBRAÇÃO DE CONTRATOS PÚBLICOS DE APROVISIONAMENTO PARA AQUISIÇÃO MEDICAMENTOS DO FORO ONCOLÓGICO II,FALSE
410237/14 - Aquisição de Cladribina 2 mg/ml sol. inj. fr. 5 ml SC,Ajuste Direto Regime Geral,Aquisição de bens móveis,"33600000-6, Produtos farmacêuticos","Centro Hospitalar de Lisboa Central, E. P. E. (508080142)","Movianto Portugal, S.L.U. (509040411)","8.734,14 €",13-03-2014,17-02-2014,317 dias,"Portugal, Lisboa, Lisboa","Artigo 20.º, n.º 1, alínea a) do Código dos Contratos Públicos",,,,,,Não aplicável.,Não aplicável.,FALSE
Algálias com sensor de temperatura,Ajuste Direto Regime Geral,Aquisição de bens móveis,"33000000-0, Equipamento médico, medicamentos e produtos para cuidados pessoais","Centro Hospitalar de Lisboa Central, E. P. E. (508080142)","J.M.V., Lda. (501887148)","13.440,00 €",13-03-2014,06-03-2014,297 dias,"Portugal, Lisboa, Lisboa","Artigo 20.º, n.º 1, alínea a) do Código dos Contratos Públicos",,,,,,Não aplicável.,Não aplicável.,FALSE
510160/14PETIDINA 100 MG/2 ML SOL INJ FR 2 ML IM IV SC/ACETILSALICILATO DE LISINA 900 MG PÓ SOL INJ FR IM IV,Ao abrigo de acordo-quadro (art.º 259.º),Aquisição de bens móveis,"33000000-0, Equipamento médico, medicamentos e produtos para cuidados pessoais","Centro Hospitalar de Lisboa Central, E. P. E. (508080142)",Labesfal Laboratórios Almiro S.A (501169580),"4.653,66 €",13-03-2014,03-01-2014,365 dias,"Portugal, Lisboa, Lisboa",Artigo 259.º do Código dos Contratos Públicos,,,,,,461370,"CP 2012/44 - MEDICAMENTOS ANALGÉSICOS, ANTIPIRÉTICOS E ANTIDEPRESSIVOS",FALSE
510331/14 - Aquisição de Polielectroliticos,Ao abrigo de acordo-quadro (art.º 259.º),Aquisição de bens móveis,"33600000-6, Produtos farmacêuticos","Centro Hospitalar de Lisboa Central, E. P. E. (508080142)","Baxter Médico-Farmacêutica, Lda. (503347345), B. Braun Medical, Lda. (501506543), Labesfal - Laboratórios Almiro, S.A. (501169580), Overpharma Prod. Médicos e Farmacêuticos, Lda. (505792362)","96.643,60 €",13-03-2014,24-02-2014,311 dias,"Portugal, Lisboa, Lisboa",Artigo 259.º do Código dos Contratos Públicos,,,,,,405999,CONCURSO PÚBLICO PARA A CELEBRAÇÃO DE CONTRATOS PÚBLICOS DE APROVISIONAMENTO PARA AQUISIÇÃO CORRECTIVOS DA VOLÉMIA E OUTRAS SOLUÇÕES ESTÉREIS,FALSE
510020/14SIROLIMUS COMPRIMIDOS DE 1MG E 2MG,Ao abrigo de acordo-quadro (art.º 259.º),Aquisição de bens móveis,"33000000-0, Equipamento médico, medicamentos e produtos para cuidados pessoais","Centro Hospitalar de Lisboa Central, E. P. E. (508080142)",Laboratorios Pfizer (500162166),"374.594,67 €",13-03-2014,01-01-2014,365 dias,"Portugal, Lisboa, Lisboa",Artigo 259.º do Código dos Contratos Públicos,,,,,,383205,CONCURSO PÚBLICO PARA A CELEBRAÇÃO DE CONTRATOS PÚBLICOS DE APROVISIONAMENTO PARA AQUISIÇÃO MEDICAMENTOS DO FORO ONCOLÓGICO II,FALSE
510386/14 - Aquisição de Agalsidase Alfa 1 mg/ml sol. inj. fr. 3.5 ml IV,Ao abrigo de acordo-quadro (art.º 259.º),Aquisição de bens móveis,"33600000-6, Produtos farmacêuticos","Centro Hospitalar de Lisboa Central, E. P. E. (508080142)","Shire Pharmaceuticals Portugal, Lda. (509264662)","161.647,00 €",13-03-2014,24-02-2014,311 dias,"Portugal, Lisboa, Lisboa",Artigo 259.º do Código dos Contratos Públicos,,,,,,602067,"ONCURSO PÚBLICO PARA A CELEBRAÇÃO DE CONTRATOS PÚBLICOS DE APROVISIONAMENTO PARA A ÁREA DA SAÚDE, COM VISTA AO FORNECIMENTO DE MEDICAMENTOS DE CONSUMO GERAL - MEDICAÇÃO ANTIALÉRGICA, MEDICAMENTOS USADOS NO TRATAMENTO DE INTOXICAÇÕES, VITAMINAS E SAIS MINERAIS  E GRUPO 20.9 - OUTROS PRODUTOS, ÀS INSTITUIÇÕES E SERVIÇOS DO SERVIÇO NACIONAL DE SAÚDE",FALSE
"Aquisição dfe Bevacizumab. Tocilizumab,  Peginterferão Alfa 2-a  e Erlotinib",Ao abrigo de acordo-quadro (art.º 259.º),Aquisição de bens móveis,"33000000-0, Equipamento médico, medicamentos e produtos para cuidados pessoais","Centro Hospitalar de Lisboa Central, E. P. E. (508080142)",Roche farmacêtica Quimica (500233810),"415.280,47 €",13-03-2014,02-01-2014,363 dias,"Portugal, Lisboa, Lisboa",Artigo 259.º do Código dos Contratos Públicos,,,,,,383205,CONCURSO PÚBLICO PARA A CELEBRAÇÃO DE CONTRATOS PÚBLICOS DE APROVISIONAMENTO PARA AQUISIÇÃO MEDICAMENTOS DO FORO ONCOLÓGICO II,FALSE
510337/14ÁCIDO VALPRÓICO 400 MG PÓ SOL INJ FR IV,Ao abrigo de acordo-quadro (art.º 259.º),Aquisição de bens móveis,"33000000-0, Equipamento médico, medicamentos e produtos para cuidados pessoais","Centro Hospitalar de Lisboa Central, E. P. E. (508080142)",Generis- Farmaceutico S.A (508107997),"17.671,00 €",13-03-2014,12-02-2014,322 dias,"Portugal, Lisboa, Lisboa",Artigo 259.º do Código dos Contratos Públicos,,,,,,463786,"P 2012/2 - Medicamentos do Sistema Nervoso Cerebrospinal: exceto anestésicos, relaxantes musculares, analgésicos, antipiréticos, antidepressores e anti-psicóticos",FALSE
510113/14AQUISIÇÃO DE PORACTANTE ALFA 240 MG/3 ML SUSP INST ENDOTRAQ FR 3 ML,Ao abrigo de acordo-quadro (art.º 259.º),Aquisição de bens móveis,"33000000-0, Equipamento médico, medicamentos e produtos para cuidados pessoais","Centro Hospitalar de Lisboa Central, E. P. E. (508080142)",Angelini Farmaceutica Lda (500583650),"38.532,00 €",13-03-2014,02-01-2014,365 dias,"Portugal, Lisboa, Lisboa",Artigo 259.º do Código dos Contratos Públicos,,,,,,469931,CP 2012/12 - Medicamentos do Aparelho Respiratório,FALSE
Electrodos,Concurso público,Aquisição de bens móveis,"33140000-3, Material médico de consumo","Centro Hospitalar de Lisboa Central, E. P. E. (508080142)","Iberdata, S.A. (501904921)","1.728,00 €",13-03-2014,24-02-2014,297 dias,"Portugal, Lisboa, Lisboa","Artigo 20.º, n.º 1, alínea b) do Código dos Contratos Públicos",,,,,,Não aplicável.,Não aplicável.,FALSE
"Aquisição de  Oligoelementos  Adulto Sol Inj fr 10ml IV e A.A 15,4g/l n Sol Inj Fr 500ml",Ao abrigo de acordo-quadro (art.º 259.º),Aquisição de bens móveis,"33000000-0, Equipamento médico, medicamentos e produtos para cuidados pessoais","Centro Hospitalar de Lisboa Central, E. P. E. (508080142)",B. Braun Medical (501506543),"11.900,79 €",13-03-2014,02-01-2014,363 dias,"Portugal, Lisboa, Lisboa",Artigo 259.º do Código dos Contratos Públicos,,,,,,457058,"CONCURSO PÚBLICO PARA A CELEBRAÇÃO DE CONTRATOS PÚBLICOS DE APROVISIONAMENTO PARA A ÁREA DA SAÚDE, COM VISTA AO FORNECIMENTO DE MEDICAMENTOS PARA NUTRIÇÃO PARENTÉRICA, ÀS INSTITUIÇÕES E SERVIÇOS DO SERVIÇO NACIONAL DE SAÚDE",FALSE
Electrodos,Concurso público,Aquisição de bens móveis,"33140000-3, Material médico de consumo","Centro Hospitalar de Lisboa Central, E. P. E. (508080142)",H.R. Hospitalar (501895558),"522,00 €",13-03-2014,24-02-2014,297 dias,"Portugal, Lisboa, Lisboa","Artigo 20.º, n.º 1, alínea b) do Código dos Contratos Públicos",,,,,,Não aplicável.,Não aplicável.,FALSE
Eléctrodos,Concurso público,Aquisição de bens móveis,"33140000-3, Material médico de consumo","Centro Hospitalar de Lisboa Central, E. P. E. (508080142)","Ezequiel Panão Jorge, Lda. (501412727)","3.498,48 €",13-03-2014,24-02-2014,297 dias,"Portugal, Lisboa, Lisboa","Artigo 20.º, n.º 1, alínea b) do Código dos Contratos Públicos",,,,,,Não aplicável.,Não aplicável.,FALSE
Eléctrodos,Concurso público,Aquisição de bens móveis,"33140000-3, Material médico de consumo","Centro Hospitalar de Lisboa Central, E. P. E. (508080142)","Elnor, S.A. (500094403)","73.519,50 €",13-03-2014,07-03-2014,297 dias,"Portugal, Lisboa, Lisboa","Artigo 20.º, n.º 1, alínea b) do Código dos Contratos Públicos",,,,,,Não aplicável.,Não aplicável.,FALSE
Aquisição de 144 Canetas deInterferão  Beta 1-A(Rebif 44 Canetas) 21MUI/ml  SOL Inj,Ajuste Direto Regime Geral,Aquisição de bens móveis,"33000000-0, Equipamento médico, medicamentos e produtos para cuidados pessoais","Centro Hospitalar de Lisboa Central, E. P. E. (508080142)",Merck SA (500650870),"9.310,32 €",13-03-2014,05-02-2014,15 dias,"Portugal, Lisboa, Lisboa","Artigo 24.º, n.º 1, alínea e) do Código dos Contratos Públicos",,,,,,Não aplicável.,Não aplicável.,FALSE
510315/14 - Icodextrina 75 mg/ml sol. DP fr. 2000 ml,Ao abrigo de acordo-quadro (art.º 259.º),Aquisição de bens móveis,"33600000-6, Produtos farmacêuticos","Centro Hospitalar de Lisboa Central, E. P. E. (508080142)","Baxter Médico-Farmacêutica, Lda. (503347345)","51.168,00 €",13-03-2014,26-02-2014,309 dias,"Portugal, Lisboa, Lisboa",Artigo 259.º do Código dos Contratos Públicos,,,,,,601978,"CONCURSO PÚBLICO PARA A CELEBRAÇÃO DE CONTRATOS PÚBLICOS DE APROVISIONAMENTO PARA A ÁREA DA SAÚDE, COM VISTA AO FORNECIMENTO DE BENS DE DÁLISE PERITONEAL ÀS INSTITUIÇÕES E SERVIÇOS DO SERVIÇO NACIONAL DE SAÚDE",FALSE
510042/14AQUISIÇÃO DE CITARABINA 100 MG/ML SOL INJ FR 20 ML IV SC,Ao abrigo de acordo-quadro (art.º 259.º),Aquisição de bens móveis,"33000000-0, Equipamento médico, medicamentos e produtos para cuidados pessoais","Centro Hospitalar de Lisboa Central, E. P. E. (508080142)",Hospira Portugal Lda  (502918098),"56.865,00 €",13-03-2014,02-01-2014,365 dias,"Portugal, Lisboa, Lisboa",Artigo 259.º do Código dos Contratos Públicos,,,,,,383205,CONCURSO PÚBLICO PARA A CELEBRAÇÃO DE CONTRATOS PÚBLICOS DE APROVISIONAMENTO PARA AQUISIÇÃO MEDICAMENTOS DO FORO ONCOLÓGICO II,FALSE
Algálias e sacos de urina,Concurso público,Aquisição de bens móveis,"33140000-3, Material médico de consumo","Centro Hospitalar de Lisboa Central, E. P. E. (508080142)","Aviquimica - Importações e Manufacturas, Lda. (500039720)","32.347,00 €",13-03-2014,07-03-2014,297 dias,"Portugal, Lisboa, Lisboa","Artigo 20.º, n.º 1, alínea b) do Código dos Contratos Públicos",,,,,,Não aplicável.,Não aplicável.,FALSE
410118/14UREIA 75MG PÓ SOL ORAL FRS,Ajuste Direto Regime Geral,Aquisição de bens móveis,"33000000-0, Equipamento médico, medicamentos e produtos para cuidados pessoais","Centro Hospitalar de Lisboa Central, E. P. E. (508080142)",Isomed Portugal Laboratórios S.A (503877190),"11.250,00 €",13-03-2014,28-01-2014,348 dias,"Portugal, Lisboa, Lisboa","Artigo 20.º, n.º 1, alínea a) do Código dos Contratos Públicos",,,,,,Não aplicável.,Não aplicável.,FALSE
1-2.0078/14,Concurso público,Locação de bens móveis,"33140000-3, Material médico de consumo","Centro Hospitalar de Lisboa Central, E. P. E. (508080142)",Albino Dias de Andrade (500013810),"31.450,00 €",13-03-2014,19-02-2014,297 dias,"Portugal, Lisboa, Lisboa","Artigo 20.º, n.º 1, alínea b) do Código dos Contratos Públicos",,,,,,Não aplicável.,Não aplicável.,FALSE
410007/14LEVODOPA 20MG/ML+CARDIODOPA 5MG/ML GEL INTESTINAL - FRS 100ML,Ajuste Direto Regime Geral,Aquisição de bens móveis,"33000000-0, Equipamento médico, medicamentos e produtos para cuidados pessoais","Centro Hospitalar de Lisboa Central, E. P. E. (508080142)",Abbvie Lda (510229050),"37.395,90 €",13-03-2014,22-01-2014,365 dias,"Portugal, Lisboa, Lisboa","Artigo 24.º, n.º 1, alínea e) do Código dos Contratos Públicos",,,,,,Não aplicável.,Não aplicável.,FALSE
Adesivos e pensos,Concurso público,Locação de bens móveis,"33140000-3, Material médico de consumo","Centro Hospitalar de Lisboa Central, E. P. E. (508080142)",Dimor (500730741),"3.009,00 €",13-03-2014,29-01-2014,297 dias,"Portugal, Lisboa, Lisboa","Artigo 20.º, n.º 1, alínea b) do Código dos Contratos Públicos",,,,,,Não aplicável.,Não aplicável.,FALSE
Adesivos e pensos,Concurso público,Locação de bens móveis,"33140000-3, Material médico de consumo","Centro Hospitalar de Lisboa Central, E. P. E. (508080142)",Overpharma (505792362),"5.599,00 €",13-03-2014,29-01-2014,293 dias,"Portugal, Lisboa, Lisboa","Artigo 20.º, n.º 1, alínea b) do Código dos Contratos Públicos",,,,,,Não aplicável.,Não aplicável.,FALSE
410094/14MANITOL 200 MG/ML SOL INJ FR 250 ML IV,Ajuste Direto Regime Geral,Aquisição de bens móveis,"33000000-0, Equipamento médico, medicamentos e produtos para cuidados pessoais","Centro Hospitalar de Lisboa Central, E. P. E. (508080142)",Labesfal -Laboratórios Almiro S.A (501169580),"16.594,56 €",13-03-2014,20-01-2014,352 dias,"Portugal, Lisboa, Lisboa","Artigo 24.º, n.º 1, alínea e) do Código dos Contratos Públicos",,,,,,Não aplicável.,Não aplicável.,FALSE
510283/14ALBUMINA HUMANA 200G/L SOL INJ FRS 50ML,Ao abrigo de acordo-quadro (art.º 259.º),Aquisição de bens móveis,"33000000-0, Equipamento médico, medicamentos e produtos para cuidados pessoais","Centro Hospitalar de Lisboa Central, E. P. E. (508080142)","CSL BEHRING Unipessoal  Lda (503047201), Kedrion Portugal (508472830)","93.472,50 €",13-03-2014,14-01-2014,351 dias,"Portugal, Lisboa, Lisboa",Artigo 259.º do Código dos Contratos Públicos,,,,,,535788,"CONCURSO PÚBLICO PARA A CELEBRAÇÃO DE CONTRATOSPÚBLICOS DE APROVISIONAMENTO PARA A ÁREA DA SAÚDE, COM VISTA AO FORNECIMENTO DE DERIVADOS DO PLASMA HUMANOÀS INSTITUIÇÕES E SERVIÇOS DO SERVIÇO NACIONAL DE SAÚDE",FALSE
510074/14AQUISIÇÃO DE ESMOLOL 100 MG/10 ML SOL INJ FR 10 ML IV,Ao abrigo de acordo-quadro (art.º 259.º),Aquisição de bens móveis,"33000000-0, Equipamento médico, medicamentos e produtos para cuidados pessoais","Centro Hospitalar de Lisboa Central, E. P. E. (508080142)",Baxter Medico- Farmaceutico Lda (503347345),"20.400,00 €",13-03-2014,02-01-2014,365 dias,"Portugal, Lisboa, Lisboa",Artigo 259.º do Código dos Contratos Públicos,,,,,,513025,"CONCURSO PÚBLICO PARA A CELEBRAÇÃO DE CONTRATOS PÚBLICOS DE APROVISIONAMENTO PARA A ÁREA DA SAÚDE, COM VISTA AO FORNECIMENTO DE MEDICAMENTOS DE CONSUMO GERAL  (FFOSI)- APARELHO CARDIOVASCULAR., ÀS INSTITUIÇÕES E SERVIÇOS DO SERVIÇO NACIONAL DE SAÚDE",FALSE
510162/14METAMIZOL MAGNÉSICO 575 MG CÁPS,Ao abrigo de acordo-quadro (art.º 259.º),Aquisição de bens móveis,"33000000-0, Equipamento médico, medicamentos e produtos para cuidados pessoais","Centro Hospitalar de Lisboa Central, E. P. E. (508080142)",Unilfarma  Uniao Internacional Laboratorios Farmaceutico  Lda (500293023),"8.977,50 €",12-03-2014,07-01-2014,355 dias,"Portugal, Lisboa, Lisboa",Artigo 259.º do Código dos Contratos Públicos,,,,,,461370,"CP 2012/44 - MEDICAMENTOS ANALGÉSICOS, ANTIPIRÉTICOS E ANTIDEPRESSIVOS",FALSE
510164/14CLONIXINA 100 MG/2 ML SOL INJ FR 2 ML IM IV/CLONIXINA 125 MG COMP,Ao abrigo de acordo-quadro (art.º 259.º),Aquisição de bens móveis,"33000000-0, Equipamento médico, medicamentos e produtos para cuidados pessoais","Centro Hospitalar de Lisboa Central, E. P. E. (508080142)",Jaba Recordati S.A (500492867),"8.362,12 €",12-03-2014,08-01-2014,357 dias,"Portugal, Lisboa, Lisboa",Artigo 259.º do Código dos Contratos Públicos,,,,,,461370,"CP 2012/44 - MEDICAMENTOS ANALGÉSICOS, ANTIPIRÉTICOS E ANTIDEPRESSIVOS",FALSE
510290/14GLUCOSE 500/CLORETO DE CÁLCIO 100/SULFATO DE MAGNÉSIO 2000/SULFATO DE MAGNÉSIO 5000,Ao abrigo de acordo-quadro (art.º 259.º),Aquisição de bens móveis,"33000000-0, Equipamento médico, medicamentos e produtos para cuidados pessoais","Centro Hospitalar de Lisboa Central, E. P. E. (508080142)",Labesfal-Laboratórios Lamiro S.A (501169580),"44.714,71 €",12-03-2014,17-01-2014,349 dias,"Portugal, Lisboa, Lisboa",Artigo 259.º do Código dos Contratos Públicos,,,,,,405999,CONCURSO PÚBLICO PARA A CELEBRAÇÃO DE CONTRATOS PÚBLICOS DE APROVISIONAMENTO PARA AQUISIÇÃO CORRECTIVOS DA VOLÉMIA E OUTRAS SOLUÇÕES ESTÉREIS,FALSE
410287/14MANITOL 100 MG/ML SOL INJ FR 250 ML IV,Ajuste Direto Regime Geral,Aquisição de bens móveis,"33000000-0, Equipamento médico, medicamentos e produtos para cuidados pessoais","Centro Hospitalar de Lisboa Central, E. P. E. (508080142)",B.Braun Medical Lda (501506543),"3.545,80 €",12-03-2014,12-02-2014,323 dias,"Portugal, Lisboa, Lisboa","Artigo 20.º, n.º 1, alínea a) do Código dos Contratos Públicos",,,,,,Não aplicável.,Não aplicável.,FALSE
"410301/14SILICONE (OLEO DE) 1300 CTS, SERINGA 10ML",Ajuste Direto Regime Geral,Aquisição de bens móveis,"33000000-0, Equipamento médico, medicamentos e produtos para cuidados pessoais","Centro Hospitalar de Lisboa Central, E. P. E. (508080142)",Oftaldata- Produtos Oftalmologia Lda (504887459),"4.340,00 €",12-03-2014,12-02-2014,323 dias,"Portugal, Lisboa, Lisboa","Artigo 20.º, n.º 1, alínea a) do Código dos Contratos Públicos",,,,,,Não aplicável.,Não aplicável.,FALSE
410061/14CICLOFOSFAMIDA 500 MG PÓ SOL INJ FR IV,Ajuste Direto Regime Geral,Aquisição de bens móveis,"33000000-0, Equipamento médico, medicamentos e produtos para cuidados pessoais","Centro Hospitalar de Lisboa Central, E. P. E. (508080142)",Baxter- Medico Farmaceutica Lda (503347345),"765,00 €",12-03-2014,15-01-2014,351 dias,"Portugal, Lisboa, Lisboa","Artigo 24.º, n.º 1, alínea e) do Código dos Contratos Públicos",,,,,,Não aplicável.,Não aplicável.,FALSE
Aquisição de agulhas de fistula,Ajuste Direto Regime Geral,Aquisição de bens móveis,"33140000-3, Material médico de consumo","Centro Hospitalar de Lisboa Central, E.P.E. (CHLC) (508080142)","Medinfar - Sorológico - Produtos e Equipamentos, S.A. (501197052)","1.406,00 €",12-03-2014,12-03-2014,294 dias,"Portugal, Lisboa, Lisboa","Artigo 20.º, n.º 1, alínea a) do Código dos Contratos Públicos",,,,,,Não aplicável.,Não aplicável.,FALSE
Material para osteossintese externa,Ajuste Direto Regime Geral,Aquisição de bens móveis,"33000000-0, Equipamento médico, medicamentos e produtos para cuidados pessoais","Centro Hospitalar de Lisboa Central, E. P. E. (508080142)",Stryker (504594214),"16.438,00 €",11-03-2014,20-02-2014,1 dias,"Portugal, Lisboa, Lisboa","Artigo 20.º, n.º 1, alínea a) do Código dos Contratos Públicos",,,,,,Não aplicável.,Não aplicável.,FALSE
Electrodos para cardiotopografo,Ajuste Direto Regime Geral,Aquisição de bens móveis,"33000000-0, Equipamento médico, medicamentos e produtos para cuidados pessoais","Centro Hospitalar de Lisboa Central, E. P. E. (508080142)",Speculum (502996323),"906,00 €",11-03-2014,11-03-2014,295 dias,"Portugal, Lisboa, Lisboa","Artigo 20.º, n.º 1, alínea a) do Código dos Contratos Públicos",,,,,,Não aplicável.,Não aplicável.,FALSE
AQUISIÇÃO DE SILIBININA 350 MG PÓ SOL INJ FR IV,Ajuste Direto Regime Geral,Aquisição de bens móveis,"33000000-0, Equipamento médico, medicamentos e produtos para cuidados pessoais","Centro Hospitalar de Lisboa Central, E. P. E. (508080142)","Overpharma, Produtos Médicos e Farmacêuticos, Lda (505792362)","15.008,00 €",11-03-2014,25-02-2014,309 dias,"Portugal, Lisboa, Lisboa","Artigo 24.º, n.º 1, alínea e) do Código dos Contratos Públicos",,,,,,Não aplicável.,Não aplicável.,FALSE
AQUISIÇÃO DE MATRIZ HEMOSTATICA ESTERIL 5000 U/5 ML,Ajuste Direto Regime Geral,Aquisição de bens móveis,"33000000-0, Equipamento médico, medicamentos e produtos para cuidados pessoais","Centro Hospitalar de Lisboa Central, E. P. E. (508080142)","Baxter Médico - Farmacêutica, LDA (503347345)","61.200,00 €",11-03-2014,25-02-2014,309 dias,"Portugal, Lisboa, Lisboa","Artigo 24.º, n.º 1, alínea e) do Código dos Contratos Públicos",,,,,,Não aplicável.,Não aplicável.,FALSE
"AQUISIÇÃO DE POLIELECT. P/ DPCA PH NEUTRO 10 L, KIT",Ajuste Direto Regime Geral,Aquisição de bens móveis,"33000000-0, Equipamento médico, medicamentos e produtos para cuidados pessoais","Centro Hospitalar de Lisboa Central, E. P. E. (508080142)","Fresenius Medical Care Portugal, S.A (503070220)","36.480,00 €",11-03-2014,25-02-2014,309 dias,"Portugal, Lisboa, Lisboa","Artigo 24.º, n.º 1, alínea e) do Código dos Contratos Públicos",,,,,,Não aplicável.,Não aplicável.,FALSE
"OBRAS DE BENEFICIAÇÃO DO EDIFICIO DAS CONSULTAS EXTERNAS DA ORTOPEDIA DO CHLC, EPE - HOSPITAL CURRY CABRAL",Ajuste Direto Regime Geral,Empreitadas de obras públicas,"45000000-7, Construção","Centro Hospitalar de Lisboa Central, E. P. E. (508080142)",RAMIRO & DELGADO (501301704),"29.293,70 €",11-03-2014,19-02-2014,50 dias,"Portugal, Lisboa, Lisboa","Artigo 19.º, alínea a) do Código dos Contratos Públicos",,,,,,Não aplicável.,Não aplicável.,FALSE
"PRESTAÇÃO DE SERVIÇOS DE TRATAMENTO, CUSTODIA E GESTAO DOCUMENTAL DO CHLC, EPE",Ajuste Direto Regime Geral,Aquisição de serviços,"98300000-6, Serviços diversos","Centro Hospitalar de Lisboa Central, E. P. E. (508080142)",PAPIRO - EMPRESA DE GESTAO DE ARQUIVO (505067064),"22.917,03 €",11-03-2014,21-02-2014,180 dias,"Portugal, Lisboa, Lisboa","Artigo 20.º, n.º 1, alínea a) do Código dos Contratos Públicos",,,,,,Não aplicável.,Não aplicável.,FALSE
AQUISIÇÃO DE INTERFERÃO BETA-1B 8 M.U.I. PÓ SOL INJ FR SC,Ao abrigo de acordo-quadro (art.º 259.º),Aquisição de bens móveis,"33000000-0, Equipamento médico, medicamentos e produtos para cuidados pessoais","Centro Hospitalar de Lisboa Central, E. P. E. (508080142)","Novartis Farma - Produtos Farmacêuticos, SA (500063524)","480.900,00 €",11-03-2014,24-02-2014,310 dias,"Portugal, Lisboa, Lisboa",Artigo 259.º do Código dos Contratos Públicos,,,,,,383205,CONCURSO PÚBLICO PARA A CELEBRAÇÃO DE CONTRATOS PÚBLICOS DE APROVISIONAMENTO PARA AQUISIÇÃO MEDICAMENTOS DO FORO ONCOLÓGICO II,FALSE
