Objeto do Contrato,Tipo de Procedimento,Tipo(s) de Contrato,CPVs,Entidade(s) Adjudicante(s),Entidade(s) Adjudicatária(s),Preço Contratual,Data de Publicação,Data de Celebração do Contrato,Prazo de Execução,Local de Execução,Fundamentação,Data de Fecho do Contrato,Preço Total Efetivo,Causas das Alterações ao Prazo,Causas das Alterações ao Preço,Estado,N.º registo do Acordo Quadro,Descrição do Acordo Quadro,Procedimento Centralizado
Reparação Instalações Sanitárias Internamento Cirurgia Homens,Ajuste Direto Regime Geral,Empreitadas de obras públicas,"45453000-7, Obras de revisão e recuperação","Centro Hospitalar Vila Nova de Gaia - Espinho, E. P. E. (508142156)",Vaslopes Sociedade de Construções Lda (504684078),"16.485,00 €",30-04-2015,25-02-2015,30 dias,"Portugal, Porto, Vila Nova de Gaia","Artigo 24.º, n.º 1, alínea c) do Código dos Contratos Públicos",,,,,,Não aplicável.,Não aplicável.,FALSE
Prestação de Serviços de Vigilância e Segurança - Ano 2015,Ajuste Direto Regime Geral,Aquisição de serviços,"79710000-4, Serviços de segurança","Centro Hospitalar Vila Nova de Gaia - Espinho, E. P. E. (508142156)",STRONG - Segurança SA (503257567),"240.000,00 €",29-04-2015,05-03-2015,365 dias,"Portugal, Porto, Porto","Artigo 27.º, n.º 1, alínea a) do Código dos Contratos Públicos",,,,,,Não aplicável.,Não aplicável.,FALSE
"Aquisição de Serviços para  Elaboração do Projeto para Alterações ao Plano Funcional do Novo Edifício Hospitalar a Integrar no Plano de Reabilitação do CHVNGaia/espinho, EPE.",Ajuste Direto Regime Geral,Aquisição de serviços,"71000000-8, Serviços de arquitectura, construção, engenharia e inspecção","Centro Hospitalar Vila Nova de Gaia - Espinho, E. P. E. (508142156)",Luis Narciso - Arquitectos Lda (503413356),"291.750,00 €",29-04-2015,06-03-2015,270 dias,"Portugal, Porto, Vila Nova de Gaia","Artigo 24.º, n.º 1, alínea c) do Código dos Contratos Públicos",,,,,,Não aplicável.,Não aplicável.,FALSE
Aquisição de Cimento Ósseo,Concurso público,Aquisição de bens móveis,"33140000-3, Material médico de consumo","Centro Hospitalar Vila Nova de Gaia - Espinho, E. P. E. (508142156)","MBA Portugal, S.A. (504445960)","4.970,00 €",29-04-2015,17-03-2015,245 dias,"Portugal, Porto, Vila Nova de Gaia","Artigo 20.º, n.º 1, alínea b) do Código dos Contratos Públicos",,,,,,Não aplicável.,Não aplicável.,FALSE
Aquisição de Cimento Ósseo,Concurso público,Aquisição de bens móveis,"33140000-3, Material médico de consumo","Centro Hospitalar Vila Nova de Gaia - Espinho, E. P. E. (508142156)","Biomet Portugal Unipessoal, Lda. (500254990)","14.000,00 €",29-04-2015,17-03-2015,245 dias,"Portugal, Porto, Vila Nova de Gaia","Artigo 20.º, n.º 1, alínea b) do Código dos Contratos Públicos",,,,,,Não aplicável.,Não aplicável.,FALSE
Aquisição de Cimento Ósseo,Concurso público,Aquisição de bens móveis,"33140000-3, Material médico de consumo","Centro Hospitalar Vila Nova de Gaia - Espinho, E. P. E. (508142156)","Stryker Portugal Produtos Médicos Unipessoal, Lda. (504594214)","18.000,00 €",29-04-2015,17-03-2015,245 dias,"Portugal, Porto, Vila Nova de Gaia","Artigo 20.º, n.º 1, alínea b) do Código dos Contratos Públicos",,,,,,Não aplicável.,Não aplicável.,FALSE
Aquisição de Cimento Ósseo,Concurso público,Aquisição de bens móveis,"33140000-3, Material médico de consumo","Centro Hospitalar Vila Nova de Gaia - Espinho, E. P. E. (508142156)","Johnson & Johnson, Lda. (500153370)","3.000,00 €",29-04-2015,17-03-2015,245 dias,"Portugal, Porto, Vila Nova de Gaia","Artigo 20.º, n.º 1, alínea b) do Código dos Contratos Públicos",,,,,,Não aplicável.,Não aplicável.,FALSE
"Aquisição de Serviços de Comunicação de Voz (fixa) e móvel) e dados no CHVNGaia/Espinho, EPE - Ano 2015",Ajuste Direto Regime Geral,Aquisição de serviços,"64210000-1, Serviços telefónicos e de transmissão de dados","Centro Hospitalar Vila Nova de Gaia - Espinho, E. P. E. (508142156)","MEO - Serviços de Comunicaçãoe Multimédia, SA (504615947)","154.472,00 €",29-04-2015,05-03-2015,365 dias,"Portugal, Porto, Vila Nova de Gaia","Artigo 27.º, n.º 1, alínea a) do Código dos Contratos Públicos",,,,,,Não aplicável.,Não aplicável.,FALSE
"Prestação de Serviços de Mão de Obra de Manutenção e Assistência Técnica nas Áreas Funcionais de Construção Civil, Carpintaria,Pichelaria e Serralharia para as 3 Unidades do CHVNGaia/Espinho, EPE -Ano 2015",Ajuste Direto Regime Geral,Aquisição de serviços,"50000000-5, Serviços de reparação e manutenção","Centro Hospitalar Vila Nova de Gaia - Espinho, E. P. E. (508142156)",JJ Construções Lda (509254934),"85.908,00 €",29-04-2015,05-03-2015,365 dias,"Portugal, Porto, Vila Nova de Gaia","Artigo 27.º, n.º 1, alínea a) do Código dos Contratos Públicos",,,,,,Não aplicável.,Não aplicável.,FALSE
Aquisição de Storage Nearline para o Serviço de Cardiologia,Ajuste Direto Regime Geral,Aquisição de bens móveis,"48823000-3, Servidores de ficheiro","Centro Hospitalar Vila Nova de Gaia - Espinho, E. P. E. (508142156)","Pamafe  Informática, Lda (504099388)","5.456,76 €",29-04-2015,16-01-2015,20 dias,"Portugal, Porto, Vila Nova de Gaia","Artigo 20.º, n.º 1, alínea a) do Código dos Contratos Públicos",,,,,,Não aplicável.,Não aplicável.,FALSE
Empreitada par Operações de Desmatação/Aterro/Compactação e Infra Estruturas para Construção de Futuros Parques,Ajuste Direto Regime Geral,Empreitadas de obras públicas,"45100000-8, Preparação dos locais para construção","Centro Hospitalar Vila Nova de Gaia - Espinho, E. P. E. (508142156)","Edinorte - Edificações Nortenhas SA (504800701), Anorte Construções e Engenharia Lda (506891950)","69.791,38 €",29-04-2015,16-04-2015,90 dias,"Portugal, Porto, Vila Nova de Gaia","Artigo 19.º, alínea a) do Código dos Contratos Públicos",,,,,,Não aplicável.,Não aplicável.,FALSE
Empreitada de Execução de 2 Gabinetes de Consulta - Pavilhão Feminino,Ajuste Direto Regime Geral,Empreitadas de obras públicas,"45454000-4, Obras de reestruturação","Centro Hospitalar Vila Nova de Gaia - Espinho, E. P. E. (508142156)","Paliclousa,Lda (505712709)","14.940,90 €",29-04-2015,16-04-2015,45 dias,"Portugal, Porto, Vila Nova de Gaia","Artigo 19.º, alínea a) do Código dos Contratos Públicos",,,,,,Não aplicável.,Não aplicável.,FALSE
Aquisição de 84 Colchões Anti Escara com Coberturas,Ajuste Direto Regime Geral,Aquisição de bens móveis,"39143112-4, Colchões","Centro Hospitalar Vila Nova de Gaia - Espinho, E. P. E. (508142156)",Flex 2000 SA (504663232),"11.848,00 €",29-04-2015,23-12-2014,10 dias,"Portugal, Porto, Vila Nova de Gaia","Artigo 20.º, n.º 1, alínea a) do Código dos Contratos Públicos",,,,,,Não aplicável.,Não aplicável.,FALSE
Aquisição de Videolaringoscópios,Ajuste Direto Regime Geral,Aquisição de bens móveis,"33100000-1, Equipamento médico","Centro Hospitalar Vila Nova de Gaia - Espinho, E. P. E. (508142156)",Covidien Portugal Lda (503413410),"9.300,00 €",29-04-2015,29-01-2015,10 dias,"Portugal, Porto, Vila Nova de Gaia","Artigo 20.º, n.º 1, alínea a) do Código dos Contratos Públicos",,,,,,Não aplicável.,Não aplicável.,FALSE
Aquisição de Videolaringoscópios,Ajuste Direto Regime Geral,Aquisição de bens móveis,"33100000-1, Equipamento médico","Centro Hospitalar Vila Nova de Gaia - Espinho, E. P. E. (508142156)",Onmedical Lda (505655748),"9.950,00 €",29-04-2015,29-01-2015,10 dias,"Portugal, Porto, Vila Nova de Gaia","Artigo 20.º, n.º 1, alínea a) do Código dos Contratos Públicos",,,,,,Não aplicável.,Não aplicável.,FALSE
Aquisição de Serviços para Elaboração do Projeto de Ampliação do Serviço de Cardiologia e Remodelação da Unidade Coronária - Unidade I,Ajuste Direto Regime Geral,Aquisição de serviços,"71000000-8, Serviços de arquitectura, construção, engenharia e inspecção","Centro Hospitalar Vila Nova de Gaia - Espinho, E. P. E. (508142156)","Sopsec - Sociedade de Prestação de Serviços de Engenharia Civil, SA (501993339)","24.830,00 €",29-04-2015,22-01-2015,45 dias,"Portugal, Porto, Vila Nova de Gaia","Artigo 20.º, n.º 1, alínea a) do Código dos Contratos Públicos",,,,,,Não aplicável.,Não aplicável.,FALSE
"Aquisição de Serviços para Elaboração do Projeto de Reestruturação dos Pisos -1,0 e 1 do Pavilhão Masculino - Unidade I",Ajuste Direto Regime Geral,Aquisição de serviços,"71000000-8, Serviços de arquitectura, construção, engenharia e inspecção","Centro Hospitalar Vila Nova de Gaia - Espinho, E. P. E. (508142156)","Sopsec - Soc de Prestação de Serviços de Engenharia Civil, Lda (501993339)","23.900,00 €",29-04-2015,22-01-2015,45 dias,"Portugal, Porto, Vila Nova de Gaia","Artigo 20.º, n.º 1, alínea a) do Código dos Contratos Públicos",,,,,,Não aplicável.,Não aplicável.,FALSE
Execução de Melhoramentos no Internamento do Serviço de Cirurgia Vascular - Unidade I,Ajuste Direto Regime Geral,Empreitadas de obras públicas,"45454000-4, Obras de reestruturação","Centro Hospitalar Vila Nova de Gaia - Espinho, E. P. E. (508142156)","J. da Silva Faria, Lda (501600051)","79.875,58 €",29-04-2015,25-02-2015,90 dias,"Portugal, Porto, Vila Nova de Gaia","Artigo 19.º, alínea a) do Código dos Contratos Públicos",,,,,,Não aplicável.,Não aplicável.,FALSE
Prolongamento das Escadas para Acesso à Área Técnica do Bloco Operatório - Unidade III,Ajuste Direto Regime Geral,Empreitadas de obras públicas,"45223000-6, Construção de estruturas","Centro Hospitalar Vila Nova de Gaia - Espinho, E. P. E. (508142156)",Balcão de Obras Lda (513303111),"13.820,00 €",29-04-2015,10-04-2015,30 dias,"Portugal, Porto, Vila Nova de Gaia","Artigo 19.º, alínea a) do Código dos Contratos Públicos",,,,,,Não aplicável.,Não aplicável.,FALSE
"Prestação de Serviços de Assistência Técnica do Projeto do Novo Edifício Hospitalar a Integrara no Plano de Reabilitação do CHVNGaia/Espinho, EPE",Ajuste Direto Regime Geral,Aquisição de serviços,"71247000-1, Supervisão de trabalhos de construção","Centro Hospitalar Vila Nova de Gaia - Espinho, E. P. E. (508142156)",Luís Narciso -Arquitetos Lda (503413356),"71.000,00 €",28-04-2015,05-02-2015,365 dias,"Portugal, Porto, Vila Nova de Gaia","Artigo 24.º, n.º 1, alínea e) do Código dos Contratos Públicos",,,,,,Não aplicável.,Não aplicável.,FALSE
Aquisição de Micrótomo tipo Minot - Anatomia Patológica,Ajuste Direto Regime Geral,Aquisição de bens móveis,"38900000-4, Instrumentos diversos de avaliação ou ensaio","Centro Hospitalar Vila Nova de Gaia - Espinho, E. P. E. (508142156)",Leica Microsistemas Lda (500301921),"8.500,00 €",28-04-2015,06-04-2015,20 dias,"Portugal, Porto, Vila Nova de Gaia","Artigo 20.º, n.º 1, alínea a) do Código dos Contratos Públicos",,,,,,Não aplicável.,Não aplicável.,FALSE
"Aquisição de Servidor e Licença VMWARE para a Farm do CHVNGaia/E, EPE",Ajuste Direto Regime Geral,Aquisição de bens móveis,"48820000-2, Servidores","Centro Hospitalar Vila Nova de Gaia - Espinho, E. P. E. (508142156)","Normática Serviços de Informática e organização,SA (501782230)","7.981,53 €",28-04-2015,09-03-2015,20 dias,"Portugal, Porto, Vila do Conde","Artigo 20.º, n.º 1, alínea a) do Código dos Contratos Públicos",,,,,,Não aplicável.,Não aplicável.,FALSE
Aquisição de Vacinas e Tuberculinas,Ao abrigo de acordo-quadro (art.º 259.º),Aquisição de bens móveis,"33600000-6, Produtos farmacêuticos","Centro Hospitalar Vila Nova de Gaia - Espinho, E. P. E. (508142156)","GlaxoSmithKline - Produtos Farmacêuticos, Lda (500139962)","12.334,26 €",27-04-2015,27-04-2015,250 dias,"Portugal, Porto, Vila Nova de Gaia",Artigo 259.º do Código dos Contratos Públicos,,,,,,610556,"CONCURSO PÚBLICO PARA A CELEBRAÇÃO DE CONTRATOS PÚBLICOS DE APROVISIONAMENTO PARA A ÁREA DA SAÚDE, COM VISTA AO FORNECIMENTO DE VACINAS E TUBERCULINAS, ÀS INSTITUIÇÕES E SERVIÇOS DO SERVIÇO NACIONAL DE SAÚDE",FALSE
Prestação de Serviços Médicos de Medicina Interna,Ao abrigo de acordo-quadro (art.º 259.º),Aquisição de serviços,"85120000-6, Serviços de prática médica e serviços conexos","Centro Hospitalar Vila Nova de Gaia - Espinho, E. P. E. (508142156)","Randstad Clinical - Cuidados de Saúde, Lda (505121247)","91.696,80 €",27-04-2015,24-04-2015,250 dias,"Portugal, Porto, Vila Nova de Gaia",Artigo 259.º do Código dos Contratos Públicos,,,,,,454020,"CONCURSO PÚBLICO PARA A CELEBRAÇÃO DE CONTRATOS PÚBLICOS DE APROVISIONAMENTO PARA A ÁREA DA SAÚDE, COM VISTA À PRESTAÇÃO DE SERVIÇOS MÉDICOS ÀS INSTITUIÇÕES E SERVIÇOS DO SERVIÇO NACIONAL DE SAÚDE",FALSE
Prestação de Serviços Médicos de Pneumologia,Ajuste Direto Regime Geral,Aquisição de serviços,"85120000-6, Serviços de prática médica e serviços conexos","Centro Hospitalar Vila Nova de Gaia - Espinho, E. P. E. (508142156)","Semeno - Gestão Sanitária, Lda (506081052)","62.400,00 €",27-04-2015,01-04-2015,280 dias,"Portugal, Porto, Vila Nova de Gaia","Artigo 24.º, n.º 1, alínea c) do Código dos Contratos Públicos",,,,,,Não aplicável.,Não aplicável.,FALSE
Upgrade do Repositório HL7 das Soluções da GLINTT,Ajuste Direto Regime Geral,Aquisição de bens móveis,"48000000-8, Pacotes de software e sistemas de informação","Centro Hospitalar Vila Nova de Gaia - Espinho, E. P. E. (508142156)","Glintt HealthCare Solutions, SA (502479418)","5.400,00 €",24-04-2015,23-04-2015,20 dias,"Portugal, Porto, Vila Nova de Gaia","Artigo 20.º, n.º 1, alínea a) do Código dos Contratos Públicos",,,,,,Não aplicável.,Não aplicável.,FALSE
Aquisição de Penso Tradicional ou Clássico,Ao abrigo de acordo-quadro (art.º 259.º),Aquisição de bens móveis,"33100000-1, Equipamento médico","Centro Hospitalar Vila Nova de Gaia - Espinho, E. P. E. (508142156)","Smith & Nephew, Lda (503552461)","16.773,00 €",24-04-2015,24-04-2015,260 dias,"Portugal, Porto, Vila Nova de Gaia",Artigo 259.º do Código dos Contratos Públicos,,,,,,194000,CONCURSO PÚBLICO PARA A CELEBRAÇÃO DE CONTRATOS PÚBLICOS DE APROVISIONAMENTO PARA AQUISIÇÃO DE PENSO TRADICIONAL OU CLÁSSICO,FALSE
Aquisição de Penso Tradicional ou Clássico,Ao abrigo de acordo-quadro (art.º 259.º),Aquisição de bens móveis,"33100000-1, Equipamento médico","Centro Hospitalar Vila Nova de Gaia - Espinho, E. P. E. (508142156)","Paul Hartmann, Lda (502271728)","1.466,80 €",24-04-2015,24-04-2015,260 dias,"Portugal, Porto, Vila Nova de Gaia",Artigo 259.º do Código dos Contratos Públicos,,,,,,194000,CONCURSO PÚBLICO PARA A CELEBRAÇÃO DE CONTRATOS PÚBLICOS DE APROVISIONAMENTO PARA AQUISIÇÃO DE PENSO TRADICIONAL OU CLÁSSICO,FALSE
Aquisição de Penso Tradicional ou Clássico,Ao abrigo de acordo-quadro (art.º 259.º),Aquisição de bens móveis,"33100000-1, Equipamento médico","Centro Hospitalar Vila Nova de Gaia - Espinho, E. P. E. (508142156)","Overpharma - Produtos Médicos e Farmacêuticos, Lda (505792362)","1.564,70 €",24-04-2015,24-04-2015,260 dias,"Portugal, Porto, Vila Nova de Gaia",Artigo 259.º do Código dos Contratos Públicos,,,,,,194000,CONCURSO PÚBLICO PARA A CELEBRAÇÃO DE CONTRATOS PÚBLICOS DE APROVISIONAMENTO PARA AQUISIÇÃO DE PENSO TRADICIONAL OU CLÁSSICO,FALSE
Aquisição de Penso Tradicional ou Clássico,Ao abrigo de acordo-quadro (art.º 259.º),Aquisição de bens móveis,"33100000-1, Equipamento médico","Centro Hospitalar Vila Nova de Gaia - Espinho, E. P. E. (508142156)","Molnlycke Health Care Comercialização de Produtos Hospitalares, Lda (511101066)","8.160,00 €",24-04-2015,24-04-2015,260 dias,"Portugal, Porto, Vila Nova de Gaia",Artigo 259.º do Código dos Contratos Públicos,,,,,,194000,CONCURSO PÚBLICO PARA A CELEBRAÇÃO DE CONTRATOS PÚBLICOS DE APROVISIONAMENTO PARA AQUISIÇÃO DE PENSO TRADICIONAL OU CLÁSSICO,FALSE
Aquisição de Penso Tradicional ou Clássico,Ao abrigo de acordo-quadro (art.º 259.º),Aquisição de bens móveis,"33100000-1, Equipamento médico","Centro Hospitalar Vila Nova de Gaia - Espinho, E. P. E. (508142156)","Dimor Lusitana - Comércio de Produtos de Saúde e Higiene, Lda (500730741)","8.152,50 €",24-04-2015,24-04-2015,260 dias,"Portugal, Porto, Vila Nova de Gaia",Artigo 259.º do Código dos Contratos Públicos,,,,,,194000,CONCURSO PÚBLICO PARA A CELEBRAÇÃO DE CONTRATOS PÚBLICOS DE APROVISIONAMENTO PARA AQUISIÇÃO DE PENSO TRADICIONAL OU CLÁSSICO,FALSE
Aquisição de Penso Tradicional ou Clássico,Ao abrigo de acordo-quadro (art.º 259.º),Aquisição de bens móveis,"33100000-1, Equipamento médico","Centro Hospitalar Vila Nova de Gaia - Espinho, E. P. E. (508142156)",BSN Medical SA (505385058),"100,00 €",24-04-2015,24-04-2015,260 dias,"Portugal, Porto, Vila Nova de Gaia",Artigo 259.º do Código dos Contratos Públicos,,,,,,194000,CONCURSO PÚBLICO PARA A CELEBRAÇÃO DE CONTRATOS PÚBLICOS DE APROVISIONAMENTO PARA AQUISIÇÃO DE PENSO TRADICIONAL OU CLÁSSICO,FALSE
Aquisição de Penso Tradicional ou Clássico,Ao abrigo de acordo-quadro (art.º 259.º),Aquisição de bens móveis,"33100000-1, Equipamento médico","Centro Hospitalar Vila Nova de Gaia - Espinho, E. P. E. (508142156)",Bastos Viegas SA (500042772),"7.881,00 €",24-04-2015,24-04-2015,260 dias,"Portugal, Porto, Vila Nova de Gaia",Artigo 259.º do Código dos Contratos Públicos,,,,,,194000,CONCURSO PÚBLICO PARA A CELEBRAÇÃO DE CONTRATOS PÚBLICOS DE APROVISIONAMENTO PARA AQUISIÇÃO DE PENSO TRADICIONAL OU CLÁSSICO,FALSE
Aquisição de Medicamentos do Foro Oncológico II,Ao abrigo de acordo-quadro (art.º 259.º),Aquisição de bens móveis,"33600000-6, Produtos farmacêuticos","Centro Hospitalar Vila Nova de Gaia - Espinho, E. P. E. (508142156)","Novartis Farma - Produtos Farmacêuticos, SA (500063524)","53.312,00 €",24-04-2015,24-04-2015,260 dias,"Portugal, Porto, Vila Nova de Gaia",Artigo 259.º do Código dos Contratos Públicos,,,,,,1224054,"CONCURSO PÚBLICO PARA A CELEBRAÇÃO DE CONTRATOS PÚBLICOS DE APROVISIONAMENTO PARA A ÁREA DA SAÚDE, COM VISTA AO FORNECIMENTO DE MEDICAMENTOS DO FORO ONCOLÓGICO II, ÀS INSTITUIÇÕES E SERVIÇOS DO SERVIÇO NACIONAL DE SAÚDE  ",FALSE
AD para Assistência Técnica ao Equipamento de Hemodinâmica para 2014,Ajuste Direto Regime Geral,Aquisição de serviços,"71630000-3, Serviços técnicos de inspecção e ensaio","Centro Hospitalar Vila Nova de Gaia - Espinho, E. P. E. (508142156)",Siemens (500247480),"301.631,19 €",24-04-2015,16-04-2014,365 dias,"Portugal, Porto, Vila Nova de Gaia","Artigo 24.º, n.º 1, alínea e) do Código dos Contratos Públicos",,,,,,Não aplicável.,Não aplicável.,FALSE
Aquisição de Penso Tradicional ou Clássico,Ao abrigo de acordo-quadro (art.º 259.º),Aquisição de bens móveis,"33100000-1, Equipamento médico","Centro Hospitalar Vila Nova de Gaia - Espinho, E. P. E. (508142156)","Albino Dias Andrade, Lda (500013810)","72.372,60 €",24-04-2015,24-04-2015,260 dias,"Portugal, Porto, Vila Nova de Gaia",Artigo 259.º do Código dos Contratos Públicos,,,,,,194000,CONCURSO PÚBLICO PARA A CELEBRAÇÃO DE CONTRATOS PÚBLICOS DE APROVISIONAMENTO PARA AQUISIÇÃO DE PENSO TRADICIONAL OU CLÁSSICO,FALSE
Aquisição de Penso Tradicional ou Clássico,Ao abrigo de acordo-quadro (art.º 259.º),Aquisição de bens móveis,"33100000-1, Equipamento médico","Centro Hospitalar Vila Nova de Gaia - Espinho, E. P. E. (508142156)","3M Portugal, Lda (500193940)","1.297,17 €",24-04-2015,24-04-2015,260 dias,"Portugal, Porto, Vila Nova de Gaia",Artigo 259.º do Código dos Contratos Públicos,,,,,,194000,CONCURSO PÚBLICO PARA A CELEBRAÇÃO DE CONTRATOS PÚBLICOS DE APROVISIONAMENTO PARA AQUISIÇÃO DE PENSO TRADICIONAL OU CLÁSSICO,FALSE
Aquisição de Medicamentos do Foro Oncológico II,Ao abrigo de acordo-quadro (art.º 259.º),Aquisição de bens móveis,"33600000-6, Produtos farmacêuticos","Centro Hospitalar Vila Nova de Gaia - Espinho, E. P. E. (508142156)","Teva Pharma - Produtos Farmacêuticos, Lda (507045491)","21.382,70 €",24-04-2015,24-04-2015,260 dias,"Portugal, Porto, Vila Nova de Gaia",Artigo 259.º do Código dos Contratos Públicos,,,,,,1224054,"CONCURSO PÚBLICO PARA A CELEBRAÇÃO DE CONTRATOS PÚBLICOS DE APROVISIONAMENTO PARA A ÁREA DA SAÚDE, COM VISTA AO FORNECIMENTO DE MEDICAMENTOS DO FORO ONCOLÓGICO II, ÀS INSTITUIÇÕES E SERVIÇOS DO SERVIÇO NACIONAL DE SAÚDE  ",FALSE
Aquisição de Medicamentos do Foro Oncológico II,Ao abrigo de acordo-quadro (art.º 259.º),Aquisição de bens móveis,"33600000-6, Produtos farmacêuticos","Centro Hospitalar Vila Nova de Gaia - Espinho, E. P. E. (508142156)","Baxter - Médico - Farmacêutica, Lda (503347345)","9.964,76 €",24-04-2015,24-04-2015,260 dias,"Portugal, Porto, Vila Nova de Gaia",Artigo 259.º do Código dos Contratos Públicos,,,,,,1224054,"CONCURSO PÚBLICO PARA A CELEBRAÇÃO DE CONTRATOS PÚBLICOS DE APROVISIONAMENTO PARA A ÁREA DA SAÚDE, COM VISTA AO FORNECIMENTO DE MEDICAMENTOS DO FORO ONCOLÓGICO II, ÀS INSTITUIÇÕES E SERVIÇOS DO SERVIÇO NACIONAL DE SAÚDE  ",FALSE
Aquisição de Medicamentos do Foro Oncológico II,Ao abrigo de acordo-quadro (art.º 259.º),Aquisição de bens móveis,"33600000-6, Produtos farmacêuticos","Centro Hospitalar Vila Nova de Gaia - Espinho, E. P. E. (508142156)","Astrazeneca - Produtos Farmacêuticos, Lda (502942240)","215.999,78 €",24-04-2015,24-04-2015,260 dias,"Portugal, Porto, Vila Nova de Gaia",Artigo 259.º do Código dos Contratos Públicos,,,,,,1224054,"CONCURSO PÚBLICO PARA A CELEBRAÇÃO DE CONTRATOS PÚBLICOS DE APROVISIONAMENTO PARA A ÁREA DA SAÚDE, COM VISTA AO FORNECIMENTO DE MEDICAMENTOS DO FORO ONCOLÓGICO II, ÀS INSTITUIÇÕES E SERVIÇOS DO SERVIÇO NACIONAL DE SAÚDE  ",FALSE
Aquisição de Dispositivos de Colheita para Gasometrias,Concurso público,Aquisição de bens móveis,"33140000-3, Material médico de consumo","Centro Hospitalar Vila Nova de Gaia - Espinho, E. P. E. (508142156)","Smiths Medical (Portugal) Unipessoal, Lda. (507445937)","31.500,00 €",23-04-2015,13-03-2015,250 dias,"Portugal, Porto, Vila Nova de Gaia","Artigo 20.º, n.º 1, alínea b) do Código dos Contratos Públicos",,,,,,Não aplicável.,Não aplicável.,FALSE
Aquisição de Dispositivos de Colheita para Gasometrias,Concurso público,Aquisição de bens móveis,"33140000-3, Material médico de consumo","Centro Hospitalar Vila Nova de Gaia - Espinho, E. P. E. (508142156)",Radiometer Ibérica SL (980201667),"1.768,94 €",23-04-2015,03-03-2015,250 dias,"Portugal, Porto, Vila Nova de Gaia","Artigo 20.º, n.º 1, alínea b) do Código dos Contratos Públicos",,,,,,Não aplicável.,Não aplicável.,FALSE
Aquisição de Dispositivos de Colheita para Gasometrias,Concurso público,Aquisição de bens móveis,"33140000-3, Material médico de consumo","Centro Hospitalar Vila Nova de Gaia - Espinho, E. P. E. (508142156)","Sarstedt Tecnologia de Laboratório, Lda. (503019461)","888,75 €",23-04-2015,03-03-2015,250 dias,"Portugal, Porto, Vila Nova de Gaia","Artigo 20.º, n.º 1, alínea b) do Código dos Contratos Públicos",,,,,,Não aplicável.,Não aplicável.,FALSE
Aquisição de Material de Proteção,Concurso público,Aquisição de bens móveis,"33140000-3, Material médico de consumo","Centro Hospitalar Vila Nova de Gaia - Espinho, E. P. E. (508142156)","Speculum - Artigos Médicos, Lda. (502996323)","1.609,30 €",23-04-2015,13-04-2015,250 dias,"Portugal, Porto, Vila Nova de Gaia","Artigo 20.º, n.º 1, alínea b) do Código dos Contratos Públicos",,,,,,Não aplicável.,Não aplicável.,FALSE
AD para Aquisição de ABACAVIR 600 MG + LAMIVUDINA 300 MG COMP (CPA 2012/40),Ajuste Direto Regime Geral,Aquisição de bens móveis,"33600000-6, Produtos farmacêuticos","Centro Hospitalar Vila Nova de Gaia - Espinho, E. P. E. (508142156)","VIIV HEALTHCARE, UNIPESSOAL LDA (509117961)","70.185,60 €",23-04-2015,27-01-2014,10 dias,"Portugal, Porto, Vila Nova de Gaia","Artigo 24.º, n.º 1, alínea e) do Código dos Contratos Públicos",,,,,,Não aplicável.,Não aplicável.,FALSE
AD para Aquisição de Imatinib 400mg Comp (CPA2012/06),Ajuste Direto Regime Geral,Aquisição de bens móveis,"33600000-6, Produtos farmacêuticos","Centro Hospitalar Vila Nova de Gaia - Espinho, E. P. E. (508142156)","Novartis Farma - Produtos Farmacêuticos, SA (500063524)","43.512,18 €",23-04-2015,20-03-2014,10 dias,"Portugal, Porto, Vila Nova de Gaia","Artigo 24.º, n.º 1, alínea e) do Código dos Contratos Públicos",,,,,,Não aplicável.,Não aplicável.,FALSE
AD para Aquisição de Serviços de Alimentação - Julho a Dezembro,Ajuste Direto Regime Geral,Aquisição de serviços,"55512000-2, Serviços de gestão de cantinas","Centro Hospitalar Vila Nova de Gaia - Espinho, E. P. E. (508142156)",Uniself (501323325),"592.299,00 €",22-04-2015,30-10-2014,180 dias,"Portugal, Porto, Vila Nova de Gaia","Artigo 24.º, n.º 1, alínea c) do Código dos Contratos Públicos",,,,,,Não aplicável.,Não aplicável.,FALSE
AD para Aquisição de Serviços de MCDT'S para Assistência Ambulatória (Cuidados Respiratórios Domiciliários) - 3º Trimestre,Ajuste Direto Regime Geral,Aquisição de serviços,"85112200-9, Serviços de cuidados a doentes ambulatórios","Centro Hospitalar Vila Nova de Gaia - Espinho, E. P. E. (508142156)","Praxair Portugal Gases, S.A. (501738916)","215.000,00 €",22-04-2015,16-10-2014,90 dias,"Portugal, Porto, Vila Nova de Gaia","Artigo 24.º, n.º 1, alínea c) do Código dos Contratos Públicos",,,,,,Não aplicável.,Não aplicável.,FALSE
AD para Aquisição de Transtuzumab 150mg Pó conc sol inj Fr IV (CPA2013/06),Ajuste Direto Regime Geral,Aquisição de bens móveis,"33690000-3, Medicamentos vários","Centro Hospitalar Vila Nova de Gaia - Espinho, E. P. E. (508142156)","ROCHE Farmacêutica Quimica, Lda (500233810)","50.914,00 €",22-04-2015,03-10-2014,30 dias,"Portugal, Porto, Vila Nova de Gaia","Artigo 24.º, n.º 1, alínea e) do Código dos Contratos Públicos",,,,,,Não aplicável.,Não aplicável.,FALSE
AD para Aquisição de Material de Oclusão Crónica,Ajuste Direto Regime Geral,Aquisição de bens móveis,"33140000-3, Material médico de consumo","Centro Hospitalar Vila Nova de Gaia - Espinho, E. P. E. (508142156)","Abbott Laboratórios, Lda (500006148)","48.000,00 €",22-04-2015,16-05-2014,3 dias,"Portugal, Porto, Vila Nova de Gaia","Artigo 24.º, n.º 1, alínea c) do Código dos Contratos Públicos",,,,,,Não aplicável.,Não aplicável.,FALSE
AD para Aquisição de Medicamentos do Foro Oncológico (CPA2011/06),Ajuste Direto Regime Geral,Aquisição de bens móveis,"33690000-3, Medicamentos vários","Centro Hospitalar Vila Nova de Gaia - Espinho, E. P. E. (508142156)",Astellas Farma (502540249),"3.628,20 €",22-04-2015,15-05-2014,30 dias,"Portugal, Porto, Vila Nova de Gaia","Artigo 24.º, n.º 1, alínea c) do Código dos Contratos Públicos",,,,,,Não aplicável.,Não aplicável.,FALSE
AD para Aquisição de Medicamentos do Foro Oncológico (CPA2011/06),Ajuste Direto Regime Geral,Aquisição de bens móveis,"33690000-3, Medicamentos vários","Centro Hospitalar Vila Nova de Gaia - Espinho, E. P. E. (508142156)",TEVA Pharma - Produtos Farmacêuticos (507045491),"1.553,00 €",22-04-2015,15-05-2014,30 dias,"Portugal, Porto, Vila Nova de Gaia","Artigo 24.º, n.º 1, alínea c) do Código dos Contratos Públicos",,,,,,Não aplicável.,Não aplicável.,FALSE
AD para Aquisição de Medicamentos do Foro Oncológico (CPA2011/06),Ajuste Direto Regime Geral,Aquisição de bens móveis,"33690000-3, Medicamentos vários","Centro Hospitalar Vila Nova de Gaia - Espinho, E. P. E. (508142156)","Sanofi-Aventis - Prod. Farmacêuticos, Lda (500134960)","136,50 €",22-04-2015,15-05-2014,30 dias,"Portugal, Porto, Vila Nova de Gaia","Artigo 24.º, n.º 1, alínea c) do Código dos Contratos Públicos",,,,,,Não aplicável.,Não aplicável.,FALSE
AD para Aquisição de Medicamentos do Foro Oncológico (CPA2011/06),Ajuste Direto Regime Geral,Aquisição de bens móveis,"33690000-3, Medicamentos vários","Centro Hospitalar Vila Nova de Gaia - Espinho, E. P. E. (508142156)","ROCHE Farmacêutica Quimica, Lda (500233810)","112.342,99 €",22-04-2015,15-05-2014,30 dias,"Portugal, Porto, Vila Nova de Gaia","Artigo 24.º, n.º 1, alínea c) do Código dos Contratos Públicos",,,,,,Não aplicável.,Não aplicável.,FALSE
AD para Aquisição de Medicamentos do Foro Oncológico (CPA2011/06),Ajuste Direto Regime Geral,Aquisição de bens móveis,"33690000-3, Medicamentos vários","Centro Hospitalar Vila Nova de Gaia - Espinho, E. P. E. (508142156)","RES MEDICAL, LDA (502440163)","700,00 €",22-04-2015,15-05-2014,30 dias,"Portugal, Porto, Vila Nova de Gaia","Artigo 24.º, n.º 1, alínea c) do Código dos Contratos Públicos",,,,,,Não aplicável.,Não aplicável.,FALSE
AD para Aquisição de Medicamentos do Foro Oncológico (CPA2011/06),Ajuste Direto Regime Geral,Aquisição de bens móveis,"33690000-3, Medicamentos vários","Centro Hospitalar Vila Nova de Gaia - Espinho, E. P. E. (508142156)","Profarin - Distrib. Prod. Farmac. Industriais, Lda (500223238)","2.152,00 €",22-04-2015,15-05-2014,30 dias,"Portugal, Porto, Vila Nova de Gaia","Artigo 24.º, n.º 1, alínea c) do Código dos Contratos Públicos",,,,,,Não aplicável.,Não aplicável.,FALSE
AD para Aquisição de Medicamentos do Foro Oncológico (CPA2011/06),Ajuste Direto Regime Geral,Aquisição de bens móveis,"33690000-3, Medicamentos vários","Centro Hospitalar Vila Nova de Gaia - Espinho, E. P. E. (508142156)","Overpharma, Lda. (505792362)","1.550,00 €",22-04-2015,15-05-2014,30 dias,"Portugal, Porto, Vila Nova de Gaia","Artigo 24.º, n.º 1, alínea c) do Código dos Contratos Públicos",,,,,,Não aplicável.,Não aplicável.,FALSE
AD para Aquisição de Medicamentos do Foro Oncológico (CPA2011/06),Ajuste Direto Regime Geral,Aquisição de bens móveis,"33690000-3, Medicamentos vários","Centro Hospitalar Vila Nova de Gaia - Espinho, E. P. E. (508142156)","MERCK, S.A. (500650870)","37.045,02 €",22-04-2015,15-05-2014,30 dias,"Portugal, Porto, Vila Nova de Gaia","Artigo 24.º, n.º 1, alínea c) do Código dos Contratos Públicos",,,,,,Não aplicável.,Não aplicável.,FALSE
AD para Aquisição de Medicamentos do Foro Oncológico (CPA2011/06),Ajuste Direto Regime Geral,Aquisição de bens móveis,"33690000-3, Medicamentos vários","Centro Hospitalar Vila Nova de Gaia - Espinho, E. P. E. (508142156)",MERCK SHARP & DHOME LDA. (500191360),"33.452,36 €",22-04-2015,15-05-2014,30 dias,"Portugal, Porto, Vila Nova de Gaia","Artigo 24.º, n.º 1, alínea c) do Código dos Contratos Públicos",,,,,,Não aplicável.,Não aplicável.,FALSE
AD para Aquisição de Medicamentos do Foro Oncológico (CPA2011/06),Ajuste Direto Regime Geral,Aquisição de bens móveis,"33690000-3, Medicamentos vários","Centro Hospitalar Vila Nova de Gaia - Espinho, E. P. E. (508142156)",Medac (980369959),"337,50 €",22-04-2015,15-05-2014,30 dias,"Portugal, Porto, Vila Nova de Gaia","Artigo 24.º, n.º 1, alínea c) do Código dos Contratos Públicos",,,,,,Não aplicável.,Não aplicável.,FALSE
AD para Aquisição de Medicamentos do Foro Oncológico (CPA2011/06),Ajuste Direto Regime Geral,Aquisição de bens móveis,"33690000-3, Medicamentos vários","Centro Hospitalar Vila Nova de Gaia - Espinho, E. P. E. (508142156)","LILLY PORTUGAL - PROD. FARMACÊUTICOS, LDA (500165602)","3.518,20 €",22-04-2015,15-05-2014,30 dias,"Portugal, Porto, Vila Nova de Gaia","Artigo 24.º, n.º 1, alínea c) do Código dos Contratos Públicos",,,,,,Não aplicável.,Não aplicável.,FALSE
AD para Aquisição de Medicamentos do Foro Oncológico (CPA2011/06),Ajuste Direto Regime Geral,Aquisição de bens móveis,"33690000-3, Medicamentos vários","Centro Hospitalar Vila Nova de Gaia - Espinho, E. P. E. (508142156)","LABORATORIOS PFIZER, LDA (500162166)","64.034,29 €",22-04-2015,15-05-2014,30 dias,"Portugal, Porto, Vila Nova de Gaia","Artigo 24.º, n.º 1, alínea c) do Código dos Contratos Públicos",,,,,,Não aplicável.,Não aplicável.,FALSE
AD para Aquisição de Medicamentos do Foro Oncológico (CPA2011/06),Ajuste Direto Regime Geral,Aquisição de bens móveis,"33690000-3, Medicamentos vários","Centro Hospitalar Vila Nova de Gaia - Espinho, E. P. E. (508142156)","Janssen Cilag Farmacêutica, Lda (500189412)","67.901,30 €",22-04-2015,15-05-2014,30 dias,"Portugal, Porto, Vila Nova de Gaia","Artigo 24.º, n.º 1, alínea c) do Código dos Contratos Públicos",,,,,,Não aplicável.,Não aplicável.,FALSE
AD para Aquisição de Medicamentos do Foro Oncológico (CPA2011/06),Ajuste Direto Regime Geral,Aquisição de bens móveis,"33690000-3, Medicamentos vários","Centro Hospitalar Vila Nova de Gaia - Espinho, E. P. E. (508142156)",IPSEN PORTUGAL (502609800),"2.730,00 €",22-04-2015,15-05-2014,30 dias,"Portugal, Porto, Vila Nova de Gaia","Artigo 24.º, n.º 1, alínea c) do Código dos Contratos Públicos",,,,,,Não aplicável.,Não aplicável.,FALSE
AD para Aquisição de Medicamentos do Foro Oncológico (CPA2011/06),Ajuste Direto Regime Geral,Aquisição de bens móveis,"33690000-3, Medicamentos vários","Centro Hospitalar Vila Nova de Gaia - Espinho, E. P. E. (508142156)","GLAXOSMITHKLINE Produtos Farmacêuticos, Ld (500139962)","6.841,46 €",22-04-2015,15-05-2014,30 dias,"Portugal, Porto, Vila Nova de Gaia","Artigo 24.º, n.º 1, alínea c) do Código dos Contratos Públicos",,,,,,Não aplicável.,Não aplicável.,FALSE
AD para Aquisição de Medicamentos do Foro Oncológico (CPA2011/06),Ajuste Direto Regime Geral,Aquisição de bens móveis,"33690000-3, Medicamentos vários","Centro Hospitalar Vila Nova de Gaia - Espinho, E. P. E. (508142156)","Generis - Farmacêutica, SA (508107997)","908,70 €",22-04-2015,15-05-2014,30 dias,"Portugal, Porto, Vila Nova de Gaia","Artigo 24.º, n.º 1, alínea c) do Código dos Contratos Públicos",,,,,,Não aplicável.,Não aplicável.,FALSE
AD para Aquisição de Medicamentos do Foro Oncológico (CPA2011/06),Ajuste Direto Regime Geral,Aquisição de bens móveis,"33690000-3, Medicamentos vários","Centro Hospitalar Vila Nova de Gaia - Espinho, E. P. E. (508142156)","Fresenius Kabi Pharma Portugal, Lda (504293753)","292,00 €",22-04-2015,15-05-2014,30 dias,"Portugal, Porto, Porto","Artigo 24.º, n.º 1, alínea c) do Código dos Contratos Públicos",,,,,,Não aplicável.,Não aplicável.,FALSE
AD para Aquisição de Medicamentos do Foro Oncológico (CPA2011/06),Ajuste Direto Regime Geral,Aquisição de bens móveis,"33690000-3, Medicamentos vários","Centro Hospitalar Vila Nova de Gaia - Espinho, E. P. E. (508142156)","Farmoz, Lda (501505334)","559,20 €",22-04-2015,15-05-2014,30 dias,"Portugal, Porto, Vila Nova de Gaia","Artigo 24.º, n.º 1, alínea c) do Código dos Contratos Públicos",,,,,,Não aplicável.,Não aplicável.,FALSE
AD para Aquisição de Medicamentos do Foro Oncológico (CPA2011/06),Ajuste Direto Regime Geral,Aquisição de bens móveis,"33690000-3, Medicamentos vários","Centro Hospitalar Vila Nova de Gaia - Espinho, E. P. E. (508142156)",HOSPIRA (502918098),"212,26 €",22-04-2015,15-05-2014,30 dias,"Portugal, Porto, Vila Nova de Gaia","Artigo 24.º, n.º 1, alínea c) do Código dos Contratos Públicos",,,,,,Não aplicável.,Não aplicável.,FALSE
AD para Aquisição de Medicamentos do Foro Oncológico (CPA2011/06),Ajuste Direto Regime Geral,Aquisição de bens móveis,"33690000-3, Medicamentos vários","Centro Hospitalar Vila Nova de Gaia - Espinho, E. P. E. (508142156)","DNA PHARMA, LDA (508917654)","323,10 €",22-04-2015,15-05-2014,30 dias,"Portugal, Porto, Vila Nova de Gaia","Artigo 24.º, n.º 1, alínea c) do Código dos Contratos Públicos",,,,,,Não aplicável.,Não aplicável.,FALSE
AD para Aquisição de Medicamentos do Foro Oncológico (CPA2011/06),Ajuste Direto Regime Geral,Aquisição de bens móveis,"33690000-3, Medicamentos vários","Centro Hospitalar Vila Nova de Gaia - Espinho, E. P. E. (508142156)",Comp. Portuguesa Higiene Pharma - Prod. Farm. SA (500069190),"1.680,92 €",22-04-2015,15-05-2014,30 dias,"Portugal, Porto, Vila Nova de Gaia","Artigo 24.º, n.º 1, alínea c) do Código dos Contratos Públicos",,,,,,Não aplicável.,Não aplicável.,FALSE
AD para Aquisição de Medicamentos do Foro Oncológico (CPA2011/06),Ajuste Direto Regime Geral,Aquisição de bens móveis,"33690000-3, Medicamentos vários","Centro Hospitalar Vila Nova de Gaia - Espinho, E. P. E. (508142156)",Bayer Portugal S.A. (500043256),"9.683,52 €",22-04-2015,15-05-2014,30 dias,"Portugal, Porto, Vila Nova de Gaia","Artigo 24.º, n.º 1, alínea c) do Código dos Contratos Públicos",,,,,,Não aplicável.,Não aplicável.,FALSE
AD para Aquisição de Medicamentos do Foro Oncológico (CPA2011/06),Ajuste Direto Regime Geral,Aquisição de bens móveis,"33690000-3, Medicamentos vários","Centro Hospitalar Vila Nova de Gaia - Espinho, E. P. E. (508142156)","ASTRAZENECA Produtos Farmacêuticos, Lda (502942240)","36.823,05 €",22-04-2015,15-05-2014,30 dias,"Portugal, Porto, Vila Nova de Gaia","Artigo 24.º, n.º 1, alínea c) do Código dos Contratos Públicos",,,,,,Não aplicável.,Não aplicável.,FALSE
AD para Aquisição de Medicamentos do Foro Oncológico (CPA2011/06),Ajuste Direto Regime Geral,Aquisição de bens móveis,"33690000-3, Medicamentos vários","Centro Hospitalar Vila Nova de Gaia - Espinho, E. P. E. (508142156)",Actavis As Sucursal (980334934),"1.643,10 €",22-04-2015,15-05-2014,30 dias,"Portugal, Porto, Vila Nova de Gaia","Artigo 24.º, n.º 1, alínea c) do Código dos Contratos Públicos",,,,,,Não aplicável.,Não aplicável.,FALSE
AD para Aquisição de Medicamentos do Foro Oncológico (CPA2011/06),Ajuste Direto Regime Geral,Aquisição de bens móveis,"33690000-3, Medicamentos vários","Centro Hospitalar Vila Nova de Gaia - Espinho, E. P. E. (508142156)",Abbvie (510229050),"33.640,39 €",22-04-2015,15-05-2014,30 dias,"Portugal, Porto, Vila Nova de Gaia","Artigo 24.º, n.º 1, alínea c) do Código dos Contratos Públicos",,,,,,Não aplicável.,Não aplicável.,FALSE
AD para Aquisição de Medicação Antialérgica e para Tratamento de Intoxicações (SPMS 2013/50),Ajuste Direto Regime Geral,Aquisição de bens móveis,"33690000-3, Medicamentos vários","Centro Hospitalar Vila Nova de Gaia - Espinho, E. P. E. (508142156)","Shire Pharmaceuticals Portugal, Lda (509264662)","9.906,40 €",22-04-2015,15-05-2014,30 dias,"Portugal, Porto, Vila Nova de Gaia","Artigo 24.º, n.º 1, alínea c) do Código dos Contratos Públicos",,,,,,Não aplicável.,Não aplicável.,FALSE
AD para Aquisição de Medicação Antialérgica e para Tratamento de Intoxicações (SPMS 2013/50),Ajuste Direto Regime Geral,Aquisição de bens móveis,"33690000-3, Medicamentos vários","Centro Hospitalar Vila Nova de Gaia - Espinho, E. P. E. (508142156)","Sanofi-Aventis - Prod. Farmacêuticos, Lda (500134960)","62.472,84 €",22-04-2015,15-05-2014,30 dias,"Portugal, Porto, Vila Nova de Gaia","Artigo 24.º, n.º 1, alínea c) do Código dos Contratos Públicos",,,,,,Não aplicável.,Não aplicável.,FALSE
AD para Aquisição de Medicação Antialérgica e para Tratamento de Intoxicações (SPMS 2013/50),Ajuste Direto Regime Geral,Aquisição de bens móveis,"33690000-3, Medicamentos vários","Centro Hospitalar Vila Nova de Gaia - Espinho, E. P. E. (508142156)",Sandoz Farmacêutica (506985261),"15,60 €",22-04-2015,15-05-2014,30 dias,"Portugal, Porto, Vila Nova de Gaia","Artigo 24.º, n.º 1, alínea c) do Código dos Contratos Públicos",,,,,,Não aplicável.,Não aplicável.,FALSE
AD para Aquisição de Medicação Antialérgica e para Tratamento de Intoxicações (SPMS 2013/50),Ajuste Direto Regime Geral,Aquisição de bens móveis,"33690000-3, Medicamentos vários","Centro Hospitalar Vila Nova de Gaia - Espinho, E. P. E. (508142156)","Novartis Farma - Produtos Farmacêuticos, SA (500063524)","86,34 €",22-04-2015,15-05-2014,30 dias,"Portugal, Porto, Vila Nova de Gaia","Artigo 24.º, n.º 1, alínea c) do Código dos Contratos Públicos",,,,,,Não aplicável.,Não aplicável.,FALSE
AD para Aquisição de Medicação Antialérgica e para Tratamento de Intoxicações (SPMS 2013/50),Ajuste Direto Regime Geral,Aquisição de bens móveis,"33690000-3, Medicamentos vários","Centro Hospitalar Vila Nova de Gaia - Espinho, E. P. E. (508142156)",MERCK SHARP & DHOME LDA. (500191360),"7.780,00 €",22-04-2015,15-05-2014,30 dias,"Portugal, Porto, Vila Nova de Gaia","Artigo 24.º, n.º 1, alínea c) do Código dos Contratos Públicos",,,,,,Não aplicável.,Não aplicável.,FALSE
AD para Aquisição de Medicação Antialérgica e para Tratamento de Intoxicações (SPMS 2013/50),Ajuste Direto Regime Geral,Aquisição de bens móveis,"33690000-3, Medicamentos vários","Centro Hospitalar Vila Nova de Gaia - Espinho, E. P. E. (508142156)",LOGIFARMA - Logistica Farmacêutica SA (503934640),"65.892,00 €",22-04-2015,15-05-2014,30 dias,"Portugal, Porto, Vila Nova de Gaia","Artigo 24.º, n.º 1, alínea c) do Código dos Contratos Públicos",,,,,,Não aplicável.,Não aplicável.,FALSE
AD para Aquisição de Medicação Antialérgica e para Tratamento de Intoxicações (SPMS 2013/50),Ajuste Direto Regime Geral,Aquisição de bens móveis,"33690000-3, Medicamentos vários","Centro Hospitalar Vila Nova de Gaia - Espinho, E. P. E. (508142156)","LABESFAL - LABORATÓRIOS ALMIRO, SA (501169580)","426,00 €",22-04-2015,15-05-2014,30 dias,"Portugal, Porto, Vila Nova de Gaia","Artigo 24.º, n.º 1, alínea c) do Código dos Contratos Públicos",,,,,,Não aplicável.,Não aplicável.,FALSE
AD para Aquisição de Medicação Antialérgica e para Tratamento de Intoxicações (SPMS 2013/50),Ajuste Direto Regime Geral,Aquisição de bens móveis,"33690000-3, Medicamentos vários","Centro Hospitalar Vila Nova de Gaia - Espinho, E. P. E. (508142156)",HIKMA FARMACEUTICA (502266791),"495,00 €",22-04-2015,15-05-2014,30 dias,"Portugal, Porto, Vila Nova de Gaia","Artigo 24.º, n.º 1, alínea c) do Código dos Contratos Públicos",,,,,,Não aplicável.,Não aplicável.,FALSE
AD para Aquisição de Medicação Antialérgica e para Tratamento de Intoxicações (SPMS 2013/50),Ajuste Direto Regime Geral,Aquisição de bens móveis,"33690000-3, Medicamentos vários","Centro Hospitalar Vila Nova de Gaia - Espinho, E. P. E. (508142156)","Fresenius Kabi Pharma Portugal, Lda (504293753)","335,80 €",22-04-2015,15-05-2014,30 dias,"Portugal, Porto, Vila Nova de Gaia","Artigo 24.º, n.º 1, alínea c) do Código dos Contratos Públicos",,,,,,Não aplicável.,Não aplicável.,FALSE
AD para Aquisição de Medicação Antialérgica e para Tratamento de Intoxicações (SPMS 2013/50),Ajuste Direto Regime Geral,Aquisição de bens móveis,"33690000-3, Medicamentos vários","Centro Hospitalar Vila Nova de Gaia - Espinho, E. P. E. (508142156)",Farmoz (501505334),"2.604,00 €",22-04-2015,15-05-2014,30 dias,"Portugal, Porto, Vila Nova de Gaia","Artigo 24.º, n.º 1, alínea c) do Código dos Contratos Públicos",,,,,,Não aplicável.,Não aplicável.,FALSE
AD para Aquisição de Medicação Antialérgica e para Tratamento de Intoxicações (SPMS 2013/50),Ajuste Direto Regime Geral,Aquisição de bens móveis,"33690000-3, Medicamentos vários","Centro Hospitalar Vila Nova de Gaia - Espinho, E. P. E. (508142156)",Actavis (980334934),"5,80 €",22-04-2015,15-05-2014,30 dias,"Portugal, Porto, Vila Nova de Gaia","Artigo 24.º, n.º 1, alínea c) do Código dos Contratos Públicos",,,,,,Não aplicável.,Não aplicável.,FALSE
AD para Aquisição de Desfibrilhador Implantável de Uma Camara,Ajuste Direto Regime Geral,Aquisição de bens móveis,"33182100-0, Desfibrilhador","Centro Hospitalar Vila Nova de Gaia - Espinho, E. P. E. (508142156)",FARMIMPEX CARDIO (503061506),"11.550,00 €",22-04-2015,20-03-2014,10 dias,"Portugal, Porto, Vila Nova de Gaia","Artigo 24.º, n.º 1, alínea c) do Código dos Contratos Públicos",,,,,,Não aplicável.,Não aplicável.,FALSE
AD para Aquisição de Material Consignação - Boston,Ajuste Direto Regime Geral,Aquisição de bens móveis,"33140000-3, Material médico de consumo","Centro Hospitalar Vila Nova de Gaia - Espinho, E. P. E. (508142156)","Boston Scientific Portugal - Disp. Médicos, Lda (504988964)","124.165,00 €",22-04-2015,03-04-2014,10 dias,"Portugal, Porto, Vila Nova de Gaia","Artigo 24.º, n.º 1, alínea c) do Código dos Contratos Públicos",,,,,,Não aplicável.,Não aplicável.,FALSE
Manutenção de Diversos Equipamentos durante o ano 2014,Ajuste Direto Regime Geral,Aquisição de serviços,"50400000-9, Serviços de reparação e manutenção de equipamento médico e de precisão","Centro Hospitalar Vila Nova de Gaia - Espinho, E. P. E. (508142156)","Drager Portugal, Lda (508771323)","113.051,79 €",22-04-2015,26-06-2014,365 dias,"Portugal, Porto, Vila Nova de Gaia","Artigo 24.º, n.º 1, alínea e) do Código dos Contratos Públicos",,,,,,Não aplicável.,Não aplicável.,FALSE
AD para Aquisição de Serviços de MCDT Realizados ao Exterior-HPP-Medicina Molecular,Ajuste Direto Regime Geral,Aquisição de serviços,"85121000-3, Serviços de prática médica","Centro Hospitalar Vila Nova de Gaia - Espinho, E. P. E. (508142156)",HPP Medicina Molecular (506055787),"92.686,25 €",22-04-2015,14-04-2014,90 dias,"Portugal, Porto, Vila Nova de Gaia","Artigo 24.º, n.º 1, alínea c) do Código dos Contratos Públicos",,,,,,Não aplicável.,Não aplicável.,FALSE
AD para Aquisição de Serviços de MCDT Realizados ao Exterior-Dr Campos Costa,Ajuste Direto Regime Geral,Aquisição de serviços,"85121000-3, Serviços de prática médica","Centro Hospitalar Vila Nova de Gaia - Espinho, E. P. E. (508142156)",Dr Campos Costa (502082429),"96.800,00 €",22-04-2015,14-04-2014,90 dias,"Portugal, Porto, Vila Nova de Gaia","Artigo 24.º, n.º 1, alínea c) do Código dos Contratos Públicos",,,,,,Não aplicável.,Não aplicável.,FALSE
Aquisição de Consumíveis para Berlin Heart,Ajuste Direto Regime Geral,Aquisição de bens móveis,"33100000-1, Equipamento médico","Centro Hospitalar Vila Nova de Gaia - Espinho, E. P. E. (508142156)","Lusopalex, Lda (503531588)","59.770,85 €",22-04-2015,25-07-2014,10 dias,"Portugal, Porto, Vila Nova de Gaia","Artigo 24.º, n.º 1, alínea e) do Código dos Contratos Públicos",,,,,,Não aplicável.,Não aplicável.,FALSE
AD para Aquisição de Adalimumab 40 mg/0.8 ml Sol inj Caneta 0.8 ml SC (CPA2011/06),Ajuste Direto Regime Geral,Aquisição de bens móveis,"33600000-6, Produtos farmacêuticos","Centro Hospitalar Vila Nova de Gaia - Espinho, E. P. E. (508142156)",Abbvie (510229050),"42.900,98 €",22-04-2015,28-02-2014,60 dias,"Portugal, Porto, Vila Nova de Gaia","Artigo 24.º, n.º 1, alínea e) do Código dos Contratos Públicos",,,,,,Não aplicável.,Não aplicável.,FALSE
AD para Aquisição de Serviços de Segurança e Vigilância durante o mês de Fevereiro,Ajuste Direto Regime Geral,Aquisição de serviços,"79710000-4, Serviços de segurança","Centro Hospitalar Vila Nova de Gaia - Espinho, E. P. E. (508142156)",SSO Security (508375665),"23.625,00 €",22-04-2015,07-04-2015,3 dias,"Portugal, Porto, Vila Nova de Gaia","Artigo 24.º, n.º 1, alínea c) do Código dos Contratos Públicos",,,,,,Não aplicável.,Não aplicável.,FALSE
