Objeto do Contrato,Tipo de Procedimento,Tipo(s) de Contrato,CPVs,Entidade(s) Adjudicante(s),Entidade(s) Adjudicatária(s),Preço Contratual,Data de Publicação,Data de Celebração do Contrato,Prazo de Execução,Local de Execução,Fundamentação,Data de Fecho do Contrato,Preço Total Efetivo,Causas das Alterações ao Prazo,Causas das Alterações ao Preço,Estado,N.º registo do Acordo Quadro,Descrição do Acordo Quadro,Procedimento Centralizado
Fornecimento de Reagentes e Consumíveis de Coagulação,Concurso público,Aquisição de bens móveis,"33696500-0, Reagentes de laboratório","Unidade Local de Saúde do Nordeste, E. P. E. (509932584)","WERFEN PORTUGAL, LDA (501086110)","61.588,06 €",28-01-2016,11-01-2016,356 dias,"Portugal, Braganca, Bragança","Artigo 20.º, n.º 1, alínea b) do Código dos Contratos Públicos",31-12-2016,"61.588,06 €",,,,Não aplicável.,Não aplicável.,FALSE
PC 2764 - Prestação de Serviços de Limpeza,Ajuste Direto Regime Geral,Aquisição de serviços,"90910000-9, Serviços de limpeza","Unidade Local de Saúde do Nordeste, E. P. E. (509932584)","Sá Limpa - Sociedade Limpezas, Lda (504458086)","40.000,00 €",22-01-2016,30-12-2015,32 dias,"Portugal, Braganca, Bragança","Artigo 20.º, n.º 1, alínea a) do Código dos Contratos Públicos","","",,,,Não aplicável.,Não aplicável.,FALSE
