Objeto do Contrato,Tipo de Procedimento,Tipo(s) de Contrato,CPVs,Entidade(s) Adjudicante(s),Entidade(s) Adjudicatária(s),Preço Contratual,Data de Publicação,Data de Celebração do Contrato,Prazo de Execução,Local de Execução,Fundamentação,Data de Fecho do Contrato,Preço Total Efetivo,Causas das Alterações ao Prazo,Causas das Alterações ao Preço,Estado,N.º registo do Acordo Quadro,Descrição do Acordo Quadro,Procedimento Centralizado
LANREOTIDA,Ao abrigo de acordo-quadro (art.º 259.º),Aquisição de bens móveis,"33000000-0, Equipamento médico, medicamentos e produtos para cuidados pessoais","Centro Hospitalar de Lisboa Central, E. P. E. (508080142)",IPSEN PORTUGAL-PRODUTOS FARMACÊUTICOS SA.          (502609800),"20.077,68 €",11-05-2017,20-04-2017,234 dias,"Portugal, Lisboa, Lisboa",Artigo 259.º do Código dos Contratos Públicos,,,,,,1771819,CP 2015/6 - Acordo quadro para o fornecimento de Medicamentos do Foro Oncológico,FALSE
TRIPTORRELINA,Ao abrigo de acordo-quadro (art.º 259.º),Aquisição de bens móveis,"33000000-0, Equipamento médico, medicamentos e produtos para cuidados pessoais","Centro Hospitalar de Lisboa Central, E. P. E. (508080142)",Ipsen Portugal (502609800),"2.329,00 €",11-05-2017,20-04-2017,234 dias,"Portugal, Lisboa, Lisboa",Artigo 259.º do Código dos Contratos Públicos,,,,,,1771819,CP 2015/6 - Acordo quadro para o fornecimento de Medicamentos do Foro Oncológico,FALSE
Próteses do ombro,Ajuste Direto Regime Geral,Aquisição de bens móveis,"33000000-0, Equipamento médico, medicamentos e produtos para cuidados pessoais","Centro Hospitalar de Lisboa Central, E. P. E. (508080142)",Johnson & Johnson Medical (500153370),"13.604,50 €",11-05-2017,03-05-2017,245 dias,"Portugal, Lisboa, Lisboa","Artigo 20.º, n.º 1, alínea a) do Código dos Contratos Públicos",,,,,,Não aplicável.,Não aplicável.,FALSE
Material de osteossíntese para craniocinostese,Ajuste Direto Regime Geral,Aquisição de bens móveis,"33000000-0, Equipamento médico, medicamentos e produtos para cuidados pessoais","Centro Hospitalar de Lisboa Central, E. P. E. (508080142)",Osteoplac (B-20595989),"11.636,73 €",11-05-2017,28-04-2017,248 dias,"Portugal, Lisboa, Lisboa","Artigo 20.º, n.º 1, alínea a) do Código dos Contratos Públicos",,,,,,Não aplicável.,Não aplicável.,FALSE
"LANREOTIDA , TRIPTORRELINA ",Ao abrigo de acordo-quadro (art.º 259.º),Aquisição de bens móveis,"33000000-0, Equipamento médico, medicamentos e produtos para cuidados pessoais","Centro Hospitalar de Lisboa Central, E. P. E. (508080142)",Ipsen Portugal (502609800),"457.790,65 €",11-05-2017,20-04-2017,234 dias,"Portugal, Lisboa, Lisboa",Artigo 259.º do Código dos Contratos Públicos,,,,,,1771819,CP 2015/6 - Acordo quadro para o fornecimento de Medicamentos do Foro Oncológico,FALSE
"Aquisição de um Colonoscópio, destinado ao Bloco de Exames de Gastroentrologia do Centro Hospitalar de Lisboa Central, EPE - Hospital Curry Cabral",Ajuste Direto Regime Geral,Aquisição de bens móveis,"33100000-1, Equipamento médico","Centro Hospitalar de Lisboa Central, E. P. E. (508080142)","Olympus Ibéria, S.A.U. - Suc. em Portugal (980474710)","15.100,00 €",10-05-2017,04-08-2015,30 dias,"Portugal, Lisboa, Lisboa","Artigo 24.º, n.º 1, alínea e) do Código dos Contratos Públicos",,,,,,Não aplicável.,Não aplicável.,FALSE
"Aquisição de um Endoscópio Alto, destinado ao Bloco de Exames de Gastroentrologia do Centro Hospitalar de Lisboa Central, EPE - Hospital São José",Ajuste Direto Regime Geral,Aquisição de bens móveis,"33100000-1, Equipamento médico","Centro Hospitalar de Lisboa Central, E. P. E. (508080142)","Olympus Ibéria, S.A.U. - Suc. em Portugal (980474710)","14.600,00 €",10-05-2017,03-07-2015,30 dias,"Portugal, Lisboa, Lisboa","Artigo 24.º, n.º 1, alínea e) do Código dos Contratos Públicos",,,,,,Não aplicável.,Não aplicável.,FALSE
"Aquisição de um Endoscópio Alto, destinado ao Bloco de Exames de Gastroentrologia do Centro Hospitalar de Lisboa Central, EPE - Hospital Curry Cabral",Ajuste Direto Regime Geral,Aquisição de bens móveis,"33100000-1, Equipamento médico","Centro Hospitalar de Lisboa Central, E. P. E. (508080142)","Olympus Ibéria, S.A.U. - Suc. em Portugal (980474710)","14.600,00 €",10-05-2017,03-07-2015,30 dias,"Portugal, Lisboa, Lisboa","Artigo 24.º, n.º 1, alínea e) do Código dos Contratos Públicos",,,,,,Não aplicável.,Não aplicável.,FALSE
"Aquisição de um Endoscópio Alto, destinado ao Serviço de Gatroentrologia do Centro Hospitalar de Lisboa Central, EPE - Hospital Curry Cabral",Ajuste Direto Regime Geral,Aquisição de bens móveis,"33100000-1, Equipamento médico","Centro Hospitalar de Lisboa Central, E. P. E. (508080142)","Olympus Ibéria, S.A.U. - Suc. em Portugal (980474710)","14.600,00 €",10-05-2017,14-05-2015,30 dias,"Portugal, Lisboa, Lisboa","Artigo 24.º, n.º 1, alínea e) do Código dos Contratos Públicos",,,,,,Não aplicável.,Não aplicável.,FALSE
METOTREXATO,Ao abrigo de acordo-quadro (art.º 259.º),Aquisição de bens móveis,"33000000-0, Equipamento médico, medicamentos e produtos para cuidados pessoais","Centro Hospitalar de Lisboa Central, E. P. E. (508080142)","Teva Pharma Produtos Farmacêuticos, Lda (507045491)","498,50 €",10-05-2017,20-04-2017,235 dias,"Portugal, Lisboa, Lisboa",Artigo 259.º do Código dos Contratos Públicos,,,,,,1771819,CP 2015/6 - Acordo quadro para o fornecimento de Medicamentos do Foro Oncológico,FALSE
METOTREXATO,Ao abrigo de acordo-quadro (art.º 259.º),Aquisição de bens móveis,"33000000-0, Equipamento médico, medicamentos e produtos para cuidados pessoais","Centro Hospitalar de Lisboa Central, E. P. E. (508080142)","Teva Pharma Produtos Farmaceuticos, Lda (507045491)","598,20 €",10-05-2017,20-04-2017,235 dias,"Portugal, Lisboa, Lisboa",Artigo 259.º do Código dos Contratos Públicos,,,,,,1771819,CP 2015/6 - Acordo quadro para o fornecimento de Medicamentos do Foro Oncológico,FALSE
"4-2.0931/17 - Aquisição de Sistema de Remoção de Espiras e Cânula Oral-nasal, lotes desertos do CP 12002417, 12008217 e 42040517",Ajuste Direto Regime Geral,Aquisição de bens móveis,"33140000-3, Material médico de consumo","Centro Hospitalar de Lisboa Central, E.P.E. (CHLC) (508080142)","Intersurgical Portugal, Ldª (503480045)","700,00 €",10-05-2017,10-05-2017,234 dias,"Portugal, Lisboa, Lisboa","Artigo 20.º, n.º 1, alínea a) do Código dos Contratos Públicos",,,,,,Não aplicável.,Não aplicável.,FALSE
"Aquisição de um videoduodenoscópio destinado ao Bloco de Exames de Gastroentrologia do Centro Hospitalar de LisboaCentral, E.P.E. - Hospital Santo António dos Capuchos",Ajuste Direto Regime Geral,Aquisição de bens móveis,"33100000-1, Equipamento médico","Centro Hospitalar de Lisboa Central, E. P. E. (508080142)",OLYMPUS IBERIA (980474710),"14.725,00 €",09-05-2017,14-05-2015,30 dias,"Portugal, Lisboa, Lisboa","Artigo 24.º, n.º 1, alínea e) do Código dos Contratos Públicos",,,,,,Não aplicável.,Não aplicável.,FALSE
"Aquisição de um Sistema para quantificação não-invasiva da fibrose e esteatose hepática, destinado ao Serviço de Gastroentrologia do Centro Hospitalar de Lisboa Central, E.P.E. (CHLC) - Hospital dos Capuchos",Concurso público,Aquisição de bens móveis,"33100000-1, Equipamento médico","Centro Hospitalar de Lisboa Central, E. P. E. (508080142)","Ecodanusa, Lda (510625932)","108.544,00 €",09-05-2017,10-02-2017,30 dias,"Portugal, Lisboa, Lisboa","Artigo 20.º, n.º 1, alínea b) do Código dos Contratos Públicos",,,,,,Não aplicável.,Não aplicável.,FALSE
"ACETATO DE GLATIRÂMERO, METOTREXATO, TRIÓXIDO DE ARSÉNIO, VINCRISTINA ",Ao abrigo de acordo-quadro (art.º 259.º),Aquisição de bens móveis,"33000000-0, Equipamento médico, medicamentos e produtos para cuidados pessoais","Centro Hospitalar de Lisboa Central, E. P. E. (508080142)","Teva Pharma - Produtos Farmacêuticos, Lda. (507045491)","570.719,84 €",09-05-2017,20-04-2017,236 dias,"Portugal, Lisboa, Lisboa",Artigo 259.º do Código dos Contratos Públicos,,,,,,1771819,CP 2015/6 - Acordo quadro para o fornecimento de Medicamentos do Foro Oncológico,FALSE
Próteses de revisão,Ajuste Direto Regime Geral,Aquisição de bens móveis,"33000000-0, Equipamento médico, medicamentos e produtos para cuidados pessoais","Centro Hospitalar de Lisboa Central, E. P. E. (508080142)",Johnson & Johnson Medical (500153370),"19.808,00 €",09-05-2017,19-04-2017,257 dias,"Portugal, Lisboa, Lisboa","Artigo 24.º, n.º 1, alínea e) do Código dos Contratos Públicos",,,,,,Não aplicável.,Não aplicável.,FALSE
"4-2.0506/17 - Máscaras, pinças, sondas, circuitos respiratórios e sistemas para administração de aerossóis ",Ajuste Direto Regime Geral,Aquisição de bens móveis,"33140000-3, Material médico de consumo","Centro Hospitalar de Lisboa Central, E. P. E. (508080142)","Speculum, Ldª (502996323)","379,20 €",08-05-2017,27-04-2017,248 dias,"Portugal, Lisboa, Lisboa","Artigo 20.º, n.º 1, alínea a) do Código dos Contratos Públicos",,,,,,Não aplicável.,Não aplicável.,FALSE
"4-2.0506/17 - Máscaras, pinças, sondas, circuitos respiratórios e sistemas para administração de aerossóis",Ajuste Direto Regime Geral,Aquisição de bens móveis,"33140000-3, Material médico de consumo","Centro Hospitalar de Lisboa Central, E. P. E. (508080142)","OVERPHARMA,LDA. (505792362)","12.741,00 €",08-05-2017,27-04-2017,248 dias,"Portugal, Lisboa, Lisboa","Artigo 20.º, n.º 1, alínea a) do Código dos Contratos Públicos",,,,,,Não aplicável.,Não aplicável.,FALSE
"4-2.0506/17 - Máscaras, pinças, sondas, circuitos respiratórios e sistemas para administração de aerossóis",Ajuste Direto Regime Geral,Aquisição de bens móveis,"33140000-3, Material médico de consumo","Centro Hospitalar de Lisboa Central, E. P. E. (508080142)","Intersurgical Portugal, Ldª (503480045)","2.710,00 €",08-05-2017,27-04-2017,248 dias,"Portugal, Lisboa, Lisboa","Artigo 20.º, n.º 1, alínea a) do Código dos Contratos Públicos",,,,,,Não aplicável.,Não aplicável.,FALSE
"4-2.0506/17 - Máscaras, pinças, sondas, circuitos respiratórios e sistemas para administração de aerossóis",Ajuste Direto Regime Geral,Aquisição de bens móveis,"33140000-3, Material médico de consumo","Centro Hospitalar de Lisboa Central, E. P. E. (508080142)","FRESENIUS KABI PHARMA PORTUGAL,LDA (504293753)","440,00 €",08-05-2017,27-04-2017,248 dias,"Portugal, Lisboa, Lisboa","Artigo 20.º, n.º 1, alínea a) do Código dos Contratos Públicos",,,,,,Não aplicável.,Não aplicável.,FALSE
"4-2.0506/17 - Máscaras, pinças, sondas, circuitos respiratórios e sistemas para administração de aerossóis",Ajuste Direto Regime Geral,Aquisição de bens móveis,"33140000-3, Material médico de consumo","Centro Hospitalar de Lisboa Central, E. P. E. (508080142)",DOCWORLD - Dispositivos Médicos (508592909),"1.024,45 €",08-05-2017,27-04-2017,248 dias,"Portugal, Lisboa, Lisboa","Artigo 20.º, n.º 1, alínea a) do Código dos Contratos Públicos",,,,,,Não aplicável.,Não aplicável.,FALSE
4-2.0447/17 - Aquisição de Pack's de Angioplastia para Nefrologia,Ajuste Direto Regime Geral,Aquisição de bens móveis,"33140000-3, Material médico de consumo","Centro Hospitalar de Lisboa Central, E. P. E. (508080142)","Bastos Viegas, Ldª (500042772)","11.496,00 €",05-05-2017,17-04-2017,258 dias,"Portugal, Lisboa, Lisboa","Artigo 20.º, n.º 1, alínea a) do Código dos Contratos Públicos",,,,,,Não aplicável.,Não aplicável.,FALSE
Kit de Colheita de Células Periféricas IDL7,Ajuste Direto Regime Geral,Aquisição de bens móveis,"33000000-0, Equipamento médico, medicamentos e produtos para cuidados pessoais","Centro Hospitalar de Lisboa Central, E. P. E. (508080142)","Terumo BCT Portugal Unipessoal, Ldª (510627048)","45.900,00 €",05-05-2017,21-04-2017,254 dias,"Portugal, Lisboa, Lisboa","Artigo 20.º, n.º 1, alínea a) do Código dos Contratos Públicos",,,,,,Não aplicável.,Não aplicável.,FALSE
Diversos Toalhetes,Ajuste Direto Regime Geral,Aquisição de bens móveis,"33140000-3, Material médico de consumo","Centro Hospitalar de Lisboa Central, E.P.E. (CHLC) (508080142)","PMH - PRODUTOS MEDICO HOSPITALARES, S.A (502376899)","7.767,84 €",05-05-2017,02-05-2017,243 dias,"Portugal, Lisboa, Lisboa","Artigo 20.º, n.º 1, alínea a) do Código dos Contratos Públicos",,,,,,Não aplicável.,Não aplicável.,FALSE
Diversos Toalhetes,Ajuste Direto Regime Geral,Aquisição de bens móveis,"33140000-3, Material médico de consumo","Centro Hospitalar de Lisboa Central, E.P.E. (CHLC) (508080142)","MEDTRONIC PORTUGAL, LDA (504223933)","170,00 €",05-05-2017,02-05-2017,243 dias,"Portugal, Lisboa, Lisboa","Artigo 20.º, n.º 1, alínea a) do Código dos Contratos Públicos",,,,,,Não aplicável.,Não aplicável.,FALSE
Suspensão de Órgãos p/ Cirurgia Laparoscópica e Cânula retal descartável,Ajuste Direto Regime Geral,Aquisição de bens móveis,"33100000-1, Equipamento médico","Centro Hospitalar de Lisboa Central, E.P.E. (CHLC) (508080142)","MOONSURGE - IMPORT.  EXP. MATERIAL MEDICO,LDA (506657035)","280,00 €",05-05-2017,03-05-2017,242 dias,"Portugal, Lisboa, Lisboa","Artigo 20.º, n.º 1, alínea a) do Código dos Contratos Públicos",,,,,,Não aplicável.,Não aplicável.,FALSE
"1-2.0114/17 - Sondas, Seringas, Prolongamentos e Conectores para Administração de Medicamentos",Concurso público,Aquisição de bens móveis,"33140000-3, Material médico de consumo","Centro Hospitalar de Lisboa Central, E. P. E. (508080142)","VYGON PORTUGAL                                     (503232785), H.R. - HOSPITALAR, LDA (501895558)","68.595,95 €",04-05-2017,21-04-2017,254 dias,"Portugal, Lisboa, Lisboa","Artigo 20.º, n.º 1, alínea b) do Código dos Contratos Públicos",,,,,,Não aplicável.,Não aplicável.,FALSE
Reagentes HSAC - Lote 24,Ajuste Direto Regime Geral,Aquisição de bens móveis,"33696500-0, Reagentes de laboratório","Centro Hospitalar de Lisboa Central, E.P.E. (CHLC) (508080142)",BIO PORTUGAL - QUIMICO FARMACEUTICA                (502380543),"429,00 €",04-05-2017,02-05-2017,300 dias,"Portugal, Lisboa, Lisboa","Artigo 20.º, n.º 1, alínea a) do Código dos Contratos Públicos",,,,,,Não aplicável.,Não aplicável.,FALSE
Reagentes HSAC - Lote 17,Ajuste Direto Regime Geral,Aquisição de bens móveis,"33696500-0, Reagentes de laboratório","Centro Hospitalar de Lisboa Central, E.P.E. (CHLC) (508080142)"," ALFAGENE - NOVAS TECNOLOGIAS DAS C DA VIDA, LDA (503387398)","10.335,10 €",04-05-2017,03-03-2017,300 dias,"Portugal, Lisboa, Lisboa","Artigo 20.º, n.º 1, alínea a) do Código dos Contratos Públicos",,,,,,Não aplicável.,Não aplicável.,FALSE
"Reagentes HSAC - Lotes 4, 6, 7, 12, 14, 15, 16 e 21",Ajuste Direto Regime Geral,Aquisição de bens móveis,"33696500-0, Reagentes de laboratório","Centro Hospitalar de Lisboa Central, E.P.E. (CHLC) (508080142)","VWR International - Material de Laboratório, Lda. (503842770)","830,35 €",04-05-2017,24-02-2017,320 dias,"Portugal, Lisboa, Lisboa","Artigo 20.º, n.º 1, alínea a) do Código dos Contratos Públicos",,,,,,Não aplicável.,Não aplicável.,FALSE
Reagentes HSAC - Lotes 5 e 8,Ajuste Direto Regime Geral,Aquisição de bens móveis,"33696500-0, Reagentes de laboratório","Centro Hospitalar de Lisboa Central, E.P.E. (CHLC) (508080142)","Normax - Fábrica de Vidros Científicos, Lda (500203130)","23,42 €",04-05-2017,24-02-2017,320 dias,"Portugal, Lisboa, Lisboa","Artigo 20.º, n.º 1, alínea a) do Código dos Contratos Públicos",,,,,,Não aplicável.,Não aplicável.,FALSE
Reagentes HSAC - Lote 3,Ajuste Direto Regime Geral,Aquisição de bens móveis,"33696500-0, Reagentes de laboratório","Centro Hospitalar de Lisboa Central, E.P.E. (CHLC) (508080142)","Menarini Diagnósticos Material de Laboratório, Lda (502610069)","6.600,00 €",04-05-2017,24-02-2017,320 dias,"Portugal, Lisboa, Lisboa","Artigo 20.º, n.º 1, alínea a) do Código dos Contratos Públicos",,,,,,Não aplicável.,Não aplicável.,FALSE
Reagentes HSAC - Lote 9,Ajuste Direto Regime Geral,Aquisição de bens móveis,"33696500-0, Reagentes de laboratório","Centro Hospitalar de Lisboa Central, E.P.E. (CHLC) (508080142)","José Manuel Gomes dos Santos, Lda. (501399224)","12,60 €",04-05-2017,24-02-2017,320 dias,"Portugal, Lisboa, Lisboa","Artigo 20.º, n.º 1, alínea a) do Código dos Contratos Públicos",,,,,,Não aplicável.,Não aplicável.,FALSE
Reagentes HSAC - lOTES 10 E 11,Ajuste Direto Regime Geral,Aquisição de bens móveis,"33696500-0, Reagentes de laboratório","Centro Hospitalar de Lisboa Central, E.P.E. (CHLC) (508080142)","FRILABO II, LDA. (507958861)","23,60 €",04-05-2017,24-02-2017,320 dias,"Portugal, Lisboa, Lisboa","Artigo 20.º, n.º 1, alínea a) do Código dos Contratos Públicos",,,,,,Não aplicável.,Não aplicável.,FALSE
Reagentes HSAC - Lote 25,Ajuste Direto Regime Geral,Aquisição de bens móveis,"33696500-0, Reagentes de laboratório","Centro Hospitalar de Lisboa Central, E.P.E. (CHLC) (508080142)"," ENZIFARMA - DIAGNOSTICA E FARMACEUTICA, SA (503636975)","9,48 €",04-05-2017,24-02-2017,320 dias,"Portugal, Lisboa, Lisboa","Artigo 20.º, n.º 1, alínea a) do Código dos Contratos Públicos",,,,,,Não aplicável.,Não aplicável.,FALSE
"Reagentes HSAC - Lotes 1, 13 e 18",Ajuste Direto Regime Geral,Aquisição de bens móveis,"33696500-0, Reagentes de laboratório","Centro Hospitalar de Lisboa Central, E.P.E. (CHLC) (508080142)",BIO PORTUGAL - QUIMICO FARMACEUTICA                (502380543),"5.497,00 €",04-05-2017,24-02-2017,320 dias,"Portugal, Lisboa, Lisboa","Artigo 20.º, n.º 1, alínea a) do Código dos Contratos Públicos",,,,,,Não aplicável.,Não aplicável.,FALSE
Reagentes HSAC - Lote 20,Ajuste Direto Regime Geral,Aquisição de bens móveis,"33696500-0, Reagentes de laboratório","Centro Hospitalar de Lisboa Central, E.P.E. (CHLC) (508080142)","Baptista Marques, LDA. (501439110)","2.612,36 €",04-05-2017,24-02-2017,320 dias,"Portugal, Lisboa, Lisboa","Artigo 20.º, n.º 1, alínea a) do Código dos Contratos Públicos",,,,,,Não aplicável.,Não aplicável.,FALSE
5-2.0029/17 - Fraldas para adulto extra grande,Ao abrigo de acordo-quadro (art.º 259.º),Aquisição de bens móveis,"33140000-3, Material médico de consumo","Centro Hospitalar de Lisboa Central, E. P. E. (508080142)",PAUL HARTMANN                                      (502271728),"7.716,80 €",04-05-2017,04-05-2017,241 dias,"Portugal, Lisboa, Lisboa",Artigo 259.º do Código dos Contratos Públicos,,,,,,1210117,"CONCURSO PÚBLICO PARA A CELEBRAÇÃO DE CONTRATOS PÚBLICOS DE APROVISIONAMENTO PARA A ÁREA DA SAÚDE, COM VISTA AO FORNECIMENTO DE MATERIAL DE INCONTINENCIA E ALIVIO DE PRESSÃO, ÀS INSTITUIÇÕES E SERVIÇOS DO SERVIÇO NACIONAL DE SAÚDE",FALSE
5-2.0028/17 - Tampas e torneias de três vias,Ao abrigo de acordo-quadro (art.º 259.º),Aquisição de bens móveis,"33140000-3, Material médico de consumo","Centro Hospitalar de Lisboa Central, E. P. E. (508080142)","SOCIME MEDICAL, LDA. (504453939)","2.538,00 €",03-05-2017,22-03-2017,284 dias,"Portugal, Lisboa, Lisboa",Artigo 259.º do Código dos Contratos Públicos,,,,,,2349386,Acordo Quadro para o fornecimento de Cateteres às Instituições e Serviços do Serviço Nacional de Saúde,FALSE
5-2.0028/17 - Tampas e torneias de três vias,Ao abrigo de acordo-quadro (art.º 259.º),Aquisição de bens móveis,"33140000-3, Material médico de consumo","Centro Hospitalar de Lisboa Central, E. P. E. (508080142)",PERGUT PORTUGAL (501799729),"7.472,50 €",03-05-2017,22-03-2017,284 dias,"Portugal, Lisboa, Lisboa",Artigo 259.º do Código dos Contratos Públicos,,,,,,2349386,Acordo Quadro para o fornecimento de Cateteres às Instituições e Serviços do Serviço Nacional de Saúde,FALSE
Kits cateter dialise,Concurso público,Aquisição de bens móveis,"33140000-3, Material médico de consumo","Centro Hospitalar de Lisboa Central, E. P. E. (508080142)"," MEDINFAR SOROLÓGICO, S.A (501197052)","138.030,00 €",03-05-2017,07-03-2017,300 dias,"Portugal, Lisboa, Lisboa","Artigo 20.º, n.º 1, alínea b) do Código dos Contratos Públicos",,,,,,Não aplicável.,Não aplicável.,FALSE
CARGAS VIRAIS,Ajuste Direto Regime Geral,Aquisição de bens móveis,"33696500-0, Reagentes de laboratório","Centro Hospitalar de Lisboa Central, E.P.E. (CHLC) (508080142)","ROCHE SISTEMAS DE DIAGNOSTICOS, LDA        (504282921)","64.665,60 €",03-05-2017,12-04-2017,30 dias,"Portugal, Lisboa, Lisboa","Artigo 20.º, n.º 1, alínea a) do Código dos Contratos Públicos",,,,,,Não aplicável.,Não aplicável.,FALSE
"1-2.0092/17 - Tubos de aspiração para os blocos operatórios do CHLC, E.P.E., lotes desertos e não adjudicados do CP 1-2.0010/17",Concurso público,Aquisição de bens móveis,"33140000-3, Material médico de consumo","Centro Hospitalar de Lisboa Central, E. P. E. (508080142)","PMH - PRODUTOS MEDICO HOSPITALARES, S.A (502376899)","25.830,00 €",03-05-2017,21-04-2017,254 dias,"Portugal, Lisboa, Lisboa","Artigo 20.º, n.º 1, alínea b) do Código dos Contratos Públicos",,,,,,Não aplicável.,Não aplicável.,FALSE
SOROS,Ajuste Direto Regime Geral,Aquisição de bens móveis,"33696500-0, Reagentes de laboratório","Centro Hospitalar de Lisboa Central, E.P.E. (CHLC) (508080142)",CSPsaude (508440246),"858,00 €",03-05-2017,28-04-2017,365 dias,"Portugal, Lisboa, Lisboa","Artigo 20.º, n.º 1, alínea a) do Código dos Contratos Públicos",,,,,,Não aplicável.,Não aplicável.,FALSE
Soros,Ajuste Direto Regime Geral,Aquisição de bens móveis,"33696500-0, Reagentes de laboratório","Centro Hospitalar de Lisboa Central, E.P.E. (CHLC) (508080142)",QUILABAN  (500399670),"291,83 €",03-05-2017,28-04-2017,365 dias,"Portugal, Lisboa, Lisboa","Artigo 20.º, n.º 1, alínea a) do Código dos Contratos Públicos",,,,,,Não aplicável.,Não aplicável.,FALSE
