Objeto do Contrato,Tipo de Procedimento,Tipo(s) de Contrato,CPVs,Entidade(s) Adjudicante(s),Entidade(s) Adjudicatária(s),Preço Contratual,Data de Publicação,Data de Celebração do Contrato,Prazo de Execução,Local de Execução,Fundamentação,Data de Fecho do Contrato,Preço Total Efetivo,Causas das Alterações ao Prazo,Causas das Alterações ao Preço,Estado,N.º registo do Acordo Quadro,Descrição do Acordo Quadro,Procedimento Centralizado
Material para cirurgia epilepsia Stereo EEG,Concurso público,Aquisição de bens móveis,"33184100-4, Implantes cirúrgicos","Centro Hospitalar e Universitário de Coimbra, E. P. E. (510103448)","Neural - artigos e Equipamentos Médicos, Lda. (502911212)","39.981,60 €",11-10-2017,09-05-2017,360 dias,"Portugal, Coimbra, Coimbra","Artigo 20.º, n.º 1, alínea b) do Código dos Contratos Públicos","","","","",,Não aplicável.,Não aplicável.,FALSE
Material de corte para oftalmologia,Ajuste Direto Regime Geral,Aquisição de bens móveis,"33140000-3, Material médico de consumo","Centro Hospitalar e Universitário de Coimbra, E.P. (510103448)","OPTIFAR  IMPORTAÇAO  EXPORTAÇAO, LDA (501609377), OFTALTEC, LDA. (503197149), DPSO DISTRIBUIÇAO DE PROD. PARA SAUDE OCULAR, LDA (513689818), ALCON PORTUGAL-PROD.EQUIP.OFTALMOLOGICOS (501251685)","10.146,30 €",11-10-2017,27-04-2017,360 dias,"Portugal, Coimbra, Coimbra","Artigo 20.º, n.º 1, alínea a) do Código dos Contratos Públicos","","","","",,Não aplicável.,Não aplicável.,FALSE
040207482016,Ajuste Direto Regime Geral,Aquisição de bens móveis,"33000000-0, Equipamento médico, medicamentos e produtos para cuidados pessoais","Centro Hospitalar e Universitário de Coimbra, E.P. (510103448)","B BRAUN MEDICAL, LDA (501506543)","35.551,76 €",11-10-2017,04-04-2016,180 dias,"Portugal, Coimbra, Coimbra","Artigo 24.º, n.º 1, alínea e) do Código dos Contratos Públicos","","","","",,Não aplicável.,Não aplicável.,FALSE
040205752017,Ajuste Direto Regime Geral,Aquisição de bens móveis,"33000000-0, Equipamento médico, medicamentos e produtos para cuidados pessoais","Centro Hospitalar e Universitário de Coimbra, E. P. E. (510103448)","JOHNSON & JOHNSON, LDA (500153370)","70.738,32 €",11-10-2017,11-03-2016,180 dias,"Portugal, Coimbra, Coimbra","Artigo 24.º, n.º 1, alínea e) do Código dos Contratos Públicos","","","","",,Não aplicável.,Não aplicável.,FALSE
Material cirurgia da retina,Ajuste Direto Regime Geral,Aquisição de bens móveis,"33140000-3, Material médico de consumo","Centro Hospitalar e Universitário de Coimbra, E. P. E. (510103448)","Alcon Portugal - Produtos e Equipamentos Oftalmologicos, Lda (501251685)","275.400,00 €",11-10-2017,20-04-2017,360 dias,"Portugal, Coimbra, Coimbra","Artigo 24.º, n.º 1, alínea e) do Código dos Contratos Públicos","","","","",,Não aplicável.,Não aplicável.,FALSE
PLACA C/ENTALHE 14MM PLACA C/ENTALHE 18MM PLACA C/ENTALHE 20MM INSERT C/ENTALHE 14MM INSERT C/ENTALHE 18MM INSERT C/ENTALHE 20MM ANEL SIMULACAO C/ENTALHE 14MM ANEL SIMULACAO C/ENTALHE 18MM ANEL SIMULACAO C/ENTALHE 20MM,Ajuste Direto Regime Geral,Aquisição de bens móveis,"33140000-3, Material médico de consumo","Centro Hospitalar e Universitário de Coimbra, E. P. E. (510103448)","Ekrior, Lda (508115175)","16.512,67 €",11-10-2017,22-05-2017,360 dias,"Portugal, Coimbra, Coimbra","Artigo 24.º, n.º 1, alínea e) do Código dos Contratos Públicos","","","","",,Não aplicável.,Não aplicável.,FALSE
SET P/ECMO C/OXIGENADOR AD BE-PLUS 2050 CANULA VENOSA PERCUTANEA P/ECMO CANULA ARTERIAL P/ECMO BE-PAS 1715 KIT INSERCAO P/CANULA VENOSA PIK 150 KIT INSERCAO P/CANULA ARTERIAL PIK 100 SET P/ECMO C/OXIGENADOR AD BE-HLS 7050 SET P/ECMO C/OXIGENADOR PED BE-HMOD 3000,Ajuste Direto Regime Geral,Aquisição de bens móveis,"33186000-7, Unidade de circulação extracorporal","Centro Hospitalar e Universitário de Coimbra, E.P. (510103448)","Getinge Group Portugal Unipessoal, Lda, (506819698)","66.140,00 €",11-10-2017,06-04-2017,360 dias,"Portugal, Coimbra, Coimbra","Artigo 24.º, n.º 1, alínea e) do Código dos Contratos Públicos","","","","",,Não aplicável.,Não aplicável.,FALSE
procedimento n.º 040000152016 - reagentes hematologia clinica - sequenciador e PCR em tempo real,Ajuste Direto Regime Geral,Aquisição de bens móveis,"33696500-0, Reagentes de laboratório","Centro Hospitalar e Universitário de Coimbra, E.P. (510103448)","ALFAGENE - NOVAS TECNOLOGIAS DAS CIÊNCIAS DA VIDA, LDA (503387398)","86.329,17 €",11-10-2017,24-02-2016,365 dias,"Portugal, Coimbra, Coimbra","Artigo 26.º, n.º 1, alínea a) do Código dos Contratos Públicos",30-12-2016,"86.329,17 €","","",,Não aplicável.,Não aplicável.,FALSE
procedimento n.º 040000142016 - reagentes serviço hematologia clinica - hemostase,Ajuste Direto Regime Geral,Aquisição de bens móveis,"33696500-0, Reagentes de laboratório","Centro Hospitalar e Universitário de Coimbra, E.P. (510103448)",BIOPORTUGAL (502380543),"5.108,40 €",11-10-2017,13-01-2016,365 dias,"Portugal, Coimbra, Coimbra","Artigo 20.º, n.º 1, alínea a) do Código dos Contratos Públicos",30-12-2016,"5.108,40 €","","",,Não aplicável.,Não aplicável.,FALSE
procedimento n.º 040000132016 - reagentes serviço hematologia clinica,Ajuste Direto Regime Geral,Aquisição de bens móveis,"33696500-0, Reagentes de laboratório","Centro Hospitalar e Universitário de Coimbra, E.P. (510103448)","BioMeta Tecnologia Y Sistemas, SA (OA33553645)","18.981,80 €",11-10-2017,15-02-2016,365 dias,"Portugal, Coimbra, Coimbra","Artigo 26.º, n.º 1, alínea a) do Código dos Contratos Públicos",30-12-2016,"18.981,80 €","","",,Não aplicável.,Não aplicável.,FALSE
procedimento n.º 040000122016 - reagentes serviço hematologia clinica - hemostase,Ajuste Direto Regime Geral,Aquisição de bens móveis,"33696500-0, Reagentes de laboratório","Centro Hospitalar e Universitário de Coimbra, E.P. (510103448)","Stago Portugal Unipessoal, Lda. (509952976)","9.176,51 €",11-10-2017,15-02-2016,365 dias,"Portugal, Coimbra, Coimbra","Artigo 26.º, n.º 1, alínea a) do Código dos Contratos Públicos",30-12-2016,"9.176,51 €","","",,Não aplicável.,Não aplicável.,FALSE
040205102016,Ajuste Direto Regime Geral,Aquisição de bens móveis,"33000000-0, Equipamento médico, medicamentos e produtos para cuidados pessoais","Centro Hospitalar e Universitário de Coimbra, E.P. (510103448)","JOHNSON & JOHNSON, LDA (500153370)","73.080,00 €",11-10-2017,28-04-2016,180 dias,"Portugal, Coimbra, Coimbra","Artigo 24.º, n.º 1, alínea e) do Código dos Contratos Públicos","","","","",,Não aplicável.,Não aplicável.,FALSE
040209662016,Ajuste Direto Regime Geral,Aquisição de bens móveis,"33000000-0, Equipamento médico, medicamentos e produtos para cuidados pessoais","Centro Hospitalar e Universitário de Coimbra, E.P. (510103448)","COVIDIEN PORTUGAL - PRODUTOS SAUDE, UNIPESSOAL LDA (503413410)","62.764,00 €",11-10-2017,28-04-2016,180 dias,"Portugal, Coimbra, Coimbra","Artigo 24.º, n.º 1, alínea e) do Código dos Contratos Públicos","","","","",,Não aplicável.,Não aplicável.,FALSE
040209682016,Ajuste Direto Regime Geral,Aquisição de bens móveis,"33000000-0, Equipamento médico, medicamentos e produtos para cuidados pessoais","Centro Hospitalar e Universitário de Coimbra, E. P. E. (510103448)","COVIDIEN PORTUGAL - PRODUTOS SAUDE, UNIPESSOAL LDA (503413410)","10.200,00 €",11-10-2017,28-04-2016,180 dias,"Portugal, Coimbra, Coimbra","Artigo 24.º, n.º 1, alínea e) do Código dos Contratos Públicos","","","","",,Não aplicável.,Não aplicável.,FALSE
040208862016,Ajuste Direto Regime Geral,Aquisição de bens móveis,"33000000-0, Equipamento médico, medicamentos e produtos para cuidados pessoais","Centro Hospitalar e Universitário de Coimbra, E. P. E. (510103448)",ENDOTECNICA MATERIAL CIRURGICO (503818348),"58.460,25 €",11-10-2017,31-03-2016,180 dias,"Portugal, Coimbra, Coimbra","Artigo 24.º, n.º 1, alínea e) do Código dos Contratos Públicos","","","","",,Não aplicável.,Não aplicável.,FALSE
040205132016,Ajuste Direto Regime Geral,Aquisição de bens móveis,"33000000-0, Equipamento médico, medicamentos e produtos para cuidados pessoais","Centro Hospitalar e Universitário de Coimbra, E. P. E. (510103448)","JOHNSON & JOHNSON, LDA (500153370)","64.458,00 €",11-10-2017,28-04-2016,180 dias,"Portugal, Coimbra, Coimbra","Artigo 24.º, n.º 1, alínea e) do Código dos Contratos Públicos","","","","",,Não aplicável.,Não aplicável.,FALSE
Aquisição de um Manipulador Uterino,Ajuste Direto Regime Geral,Aquisição de bens móveis,"33000000-0, Equipamento médico, medicamentos e produtos para cuidados pessoais","Centro Hospitalar e Universitário de Coimbra, E. P. E. (510103448)","TEPREL - EQUIPAMENTOS MÉDICOS, S:A (502262184)","5.859,00 €",11-10-2017,10-10-2017,90 dias,"Portugal, Coimbra, Coimbra","Artigo 20.º, n.º 1, alínea a) do Código dos Contratos Públicos","","","","",,Não aplicável.,Não aplicável.,FALSE
040205672016,Ajuste Direto Regime Geral,Aquisição de bens móveis,"33000000-0, Equipamento médico, medicamentos e produtos para cuidados pessoais","Centro Hospitalar e Universitário de Coimbra, E. P. E. (510103448)","JOHNSON & JOHNSON, LDA (500153370)","74.651,16 €",11-10-2017,28-04-2016,180 dias,"Portugal, Coimbra, Coimbra","Artigo 24.º, n.º 1, alínea e) do Código dos Contratos Públicos","","","","",,Não aplicável.,Não aplicável.,FALSE
040208902016,Ajuste Direto Regime Geral,Aquisição de bens móveis,"33000000-0, Equipamento médico, medicamentos e produtos para cuidados pessoais","Centro Hospitalar e Universitário de Coimbra, E. P. E. (510103448)",ENDOTECNICA MATERIAL CIRURGICO (503818348),"62.893,20 €",11-10-2017,31-03-2016,180 dias,"Portugal, Coimbra, Coimbra","Artigo 24.º, n.º 1, alínea e) do Código dos Contratos Públicos","","","","",,Não aplicável.,Não aplicável.,FALSE
040205152016,Ajuste Direto Regime Geral,Aquisição de bens móveis,"33000000-0, Equipamento médico, medicamentos e produtos para cuidados pessoais","Centro Hospitalar e Universitário de Coimbra, E. P. E. (510103448)","JOHNSON & JOHNSON, LDA (500153370)","73.246,05 €",11-10-2017,28-04-2016,180 dias,"Portugal, Coimbra, Coimbra","Artigo 24.º, n.º 1, alínea e) do Código dos Contratos Públicos","","","","",,Não aplicável.,Não aplicável.,FALSE
040205112016,Ajuste Direto Regime Geral,Aquisição de bens móveis,"33000000-0, Equipamento médico, medicamentos e produtos para cuidados pessoais","Centro Hospitalar e Universitário de Coimbra, E. P. E. (510103448)","JOHNSON & JOHNSON, LDA (500153370)","73.080,00 €",11-10-2017,02-05-2016,180 dias,"Portugal, Coimbra, Coimbra","Artigo 24.º, n.º 1, alínea e) do Código dos Contratos Públicos","","","","",,Não aplicável.,Não aplicável.,FALSE
040208852016,Ajuste Direto Regime Geral,Aquisição de bens móveis,"33000000-0, Equipamento médico, medicamentos e produtos para cuidados pessoais","Centro Hospitalar e Universitário de Coimbra, E. P. E. (510103448)",ENDOTECNICA MATERIAL CIRURGICO (503818348),"63.745,40 €",11-10-2017,31-03-2016,180 dias,"Portugal, Coimbra, Coimbra","Artigo 24.º, n.º 1, alínea e) do Código dos Contratos Públicos","","","","",,Não aplicável.,Não aplicável.,FALSE
040207472016,Ajuste Direto Regime Geral,Aquisição de bens móveis,"33000000-0, Equipamento médico, medicamentos e produtos para cuidados pessoais","Centro Hospitalar e Universitário de Coimbra, E. P. E. (510103448)","B BRAUN MEDICAL, LDA (501506543)","48.755,28 €",11-10-2017,04-04-2016,180 dias,"Portugal, Coimbra, Coimbra","Artigo 24.º, n.º 1, alínea e) do Código dos Contratos Públicos","","","","",,Não aplicável.,Não aplicável.,FALSE
040204312017 . PRÓTESES TRANSTIBIAIS E TRANFEMURAIS,Ajuste Direto Regime Geral,Aquisição de bens móveis,"33000000-0, Equipamento médico, medicamentos e produtos para cuidados pessoais","Centro Hospitalar e Universitário de Coimbra, E. P. E. (510103448)","Ortopedia Universal, Lda (502367644)","11.156,00 €",09-10-2017,22-08-2017,180 dias,"Portugal, Coimbra, Coimbra","Artigo 20.º, n.º 1, alínea a) do Código dos Contratos Públicos",22-08-2017,"11.156,00 €",.,.,,Não aplicável.,Não aplicável.,FALSE
040202802017 - ORTOTESES TLSO,Ajuste Direto Regime Geral,Aquisição de bens móveis,"33000000-0, Equipamento médico, medicamentos e produtos para cuidados pessoais","Centro Hospitalar e Universitário de Coimbra, E. P. E. (510103448)",ORTOSTAR (505497328),"127,36 €",09-10-2017,15-09-2017,180 dias,"Portugal, Coimbra, Coimbra","Artigo 20.º, n.º 1, alínea a) do Código dos Contratos Públicos",15-09-2017,"127,36 €","","",,Não aplicável.,Não aplicável.,FALSE
Oxigenadores membranas para adulto,Ajuste Direto Regime Geral,Aquisição de bens móveis,"33186100-8, Oxigenador","Centro Hospitalar e Universitário de Coimbra, E. P. E. (510103448)","Medtronic Portugal, Lda. (504223933)","59.160,00 €",09-10-2017,04-05-2017,360 dias,"Portugal, Coimbra, Coimbra","Artigo 24.º, n.º 1, alínea e) do Código dos Contratos Públicos","","","","",,Não aplicável.,Não aplicável.,FALSE
Oxigenadores membranas para adulto,Ajuste Direto Regime Geral,Aquisição de bens móveis,"33186100-8, Oxigenador","Centro Hospitalar e Universitário de Coimbra, E. P. E. (510103448)","Dispromedi - Produtos e Equipamentos Médicos, Lda. (505684772)","19.700,00 €",09-10-2017,10-05-2017,360 dias,"Portugal, Coimbra, Coimbra","Artigo 24.º, n.º 1, alínea e) do Código dos Contratos Públicos","","","","",,Não aplicável.,Não aplicável.,FALSE
Oxigenadores de membranas para adulto,Ajuste Direto Regime Geral,Aquisição de bens móveis,"33186100-8, Oxigenador","Centro Hospitalar e Universitário de Coimbra, E. P. E. (510103448)","Lusopalex - Soc. Distribuidora  de Produtos Hospitalares Unipessoal, Lda (503531588)","39.928,00 €",09-10-2017,04-05-2017,360 dias,"Portugal, Coimbra, Coimbra","Artigo 24.º, n.º 1, alínea e) do Código dos Contratos Públicos","","","","",,Não aplicável.,Não aplicável.,FALSE
040214782017,Ajuste Direto Regime Geral,Aquisição de bens móveis,"33000000-0, Equipamento médico, medicamentos e produtos para cuidados pessoais","Centro Hospitalar e Universitário de Coimbra, E. P. E. (510103448)","MEDTRONIC PORTUGAL, LDA (504223933)","27.060,00 €",09-10-2017,14-06-2017,30 dias,"Portugal, Coimbra, Coimbra","Artigo 24.º, n.º 1, alínea e) do Código dos Contratos Públicos",14-06-2017,"27.060,00 €","","",,Não aplicável.,Não aplicável.,FALSE
040208632017,Ajuste Direto Regime Geral,Aquisição de bens móveis,"33000000-0, Equipamento médico, medicamentos e produtos para cuidados pessoais","Centro Hospitalar e Universitário de Coimbra, E. P. E. (510103448)","BOSTON SCIENTIFIC PORTUGAL, LDA (504988964)","14.400,00 €",09-10-2017,09-03-2017,30 dias,"Portugal, Coimbra, Coimbra","Artigo 24.º, n.º 1, alínea e) do Código dos Contratos Públicos","","","","",,Não aplicável.,Não aplicável.,FALSE
040222552017,Ajuste Direto Regime Geral,Aquisição de bens móveis,"33000000-0, Equipamento médico, medicamentos e produtos para cuidados pessoais","Centro Hospitalar e Universitário de Coimbra, E. P. E. (510103448)","MEDTRONIC PORTUGAL, LDA (504223933)","17.220,00 €",09-10-2017,22-09-2017,30 dias,"Portugal, Coimbra, Coimbra","Artigo 24.º, n.º 1, alínea e) do Código dos Contratos Públicos","","","","",,Não aplicável.,Não aplicável.,FALSE
040215052017,Ajuste Direto Regime Geral,Aquisição de bens móveis,"33000000-0, Equipamento médico, medicamentos e produtos para cuidados pessoais","Centro Hospitalar e Universitário de Coimbra, E. P. E. (510103448)",ENDOTECNICA MATERIAL CIRURGICO (503818348),"11.960,00 €",09-10-2017,16-06-2017,30 dias,"Portugal, Coimbra, Coimbra","Artigo 24.º, n.º 1, alínea e) do Código dos Contratos Públicos","","","","",,Não aplicável.,Não aplicável.,FALSE
040215282017,Ajuste Direto Regime Geral,Aquisição de bens móveis,"33000000-0, Equipamento médico, medicamentos e produtos para cuidados pessoais","Centro Hospitalar e Universitário de Coimbra, E. P. E. (510103448)","MOLNLYCKE HEALTH CARE COM PROD HOSPITALARES, LDA (511101066)","10.413,90 €",09-10-2017,19-06-2017,30 dias,"Portugal, Coimbra, Coimbra","Artigo 24.º, n.º 1, alínea e) do Código dos Contratos Públicos","","","","",,Não aplicável.,Não aplicável.,FALSE
040216142017,Ajuste Direto Regime Geral,Aquisição de bens móveis,"33000000-0, Equipamento médico, medicamentos e produtos para cuidados pessoais","Centro Hospitalar e Universitário de Coimbra, E. P. E. (510103448)","MEDTRONIC PORTUGAL, LDA (504223933)","12.052,80 €",09-10-2017,21-06-2017,30 dias,"Portugal, Coimbra, Coimbra","Artigo 24.º, n.º 1, alínea e) do Código dos Contratos Públicos","","","","",,Não aplicável.,Não aplicável.,FALSE
040216392017,Ajuste Direto Regime Geral,Aquisição de bens móveis,"33000000-0, Equipamento médico, medicamentos e produtos para cuidados pessoais","Centro Hospitalar e Universitário de Coimbra, E. P. E. (510103448)",ENDOTECNICA MATERIAL CIRURGICO (503818348),"11.960,00 €",09-10-2017,11-07-2017,30 dias,"Portugal, Coimbra, Coimbra","Artigo 24.º, n.º 1, alínea e) do Código dos Contratos Públicos","","","","",,Não aplicável.,Não aplicável.,FALSE
procedimento n.º 040000112016 - reagentes serviço hematologia clinica - hemostase - iberlab,Ajuste Direto Regime Geral,Aquisição de bens móveis,"33696500-0, Reagentes de laboratório","Centro Hospitalar e Universitário de Coimbra, E.P. (510103448)","Iberlab Imunoreage, Lda (503406694)","19.248,03 €",06-10-2017,15-02-2016,365 dias,"Portugal, Coimbra, Coimbra","Artigo 26.º, n.º 1, alínea a) do Código dos Contratos Públicos",30-12-2016,"19.248,03 €","","",,Não aplicável.,Não aplicável.,FALSE
procedimento n.º 040000102017 - reagentes serviço hematologia clinica - hemostase - grifols,Ajuste Direto Regime Geral,Aquisição de bens móveis,"33696500-0, Reagentes de laboratório","Centro Hospitalar e Universitário de Coimbra, E.P. (510103448)","GRIFOLS PORTUGAL - PROD. FARMAC. E HOSP., LDA. (502041285)","13.296,79 €",06-10-2017,15-02-2016,365 dias,"Portugal, Coimbra, Coimbra","Artigo 26.º, n.º 1, alínea a) do Código dos Contratos Públicos",30-12-2016,"13.296,79 €","","",,Não aplicável.,Não aplicável.,FALSE
040222542017,Ajuste Direto Regime Geral,Aquisição de bens móveis,"33000000-0, Equipamento médico, medicamentos e produtos para cuidados pessoais","Centro Hospitalar e Universitário de Coimbra, E. P. E. (510103448)","MEDTRONIC PORTUGAL, LDA (504223933)","23.938,20 €",06-10-2017,22-09-2017,30 dias,"Portugal, Coimbra, Coimbra","Artigo 24.º, n.º 1, alínea e) do Código dos Contratos Públicos","","","","",,Não aplicável.,Não aplicável.,FALSE
040217472017,Ajuste Direto Regime Geral,Aquisição de bens móveis,"33000000-0, Equipamento médico, medicamentos e produtos para cuidados pessoais","Centro Hospitalar e Universitário de Coimbra, E. P. E. (510103448)","JOHNSON & JOHNSON, LDA (500153370)","10.440,00 €",06-10-2017,11-07-2017,180 dias,"Portugal, Coimbra, Coimbra","Artigo 24.º, n.º 1, alínea e) do Código dos Contratos Públicos","","","","",,Não aplicável.,Não aplicável.,FALSE
040205672017,Ajuste Direto Regime Geral,Aquisição de bens móveis,"33000000-0, Equipamento médico, medicamentos e produtos para cuidados pessoais","Centro Hospitalar e Universitário de Coimbra, E. P. E. (510103448)","MEDTRONIC PORTUGAL, LDA (504223933)","24.156,00 €",06-10-2017,07-03-2017,180 dias,"Portugal, Coimbra, Coimbra","Artigo 24.º, n.º 1, alínea e) do Código dos Contratos Públicos","","","","",,Não aplicável.,Não aplicável.,FALSE
040218192017,Ajuste Direto Regime Geral,Aquisição de bens móveis,"33000000-0, Equipamento médico, medicamentos e produtos para cuidados pessoais","Centro Hospitalar e Universitário de Coimbra, E. P. E. (510103448)","TEPREL - EQUIPAMENTO MÉDICOS, S.A. (502262184)","7.450,00 €",06-10-2017,20-06-2017,180 dias,"Portugal, Coimbra, Coimbra","Artigo 24.º, n.º 1, alínea e) do Código dos Contratos Públicos","","","","",,Não aplicável.,Não aplicável.,FALSE
040213762017,Ajuste Direto Regime Geral,Aquisição de bens móveis,"33000000-0, Equipamento médico, medicamentos e produtos para cuidados pessoais","Centro Hospitalar e Universitário de Coimbra, E. P. E. (510103448)","JOHNSON & JOHNSON, LDA (500153370)","7.260,00 €",06-10-2017,11-05-2017,180 dias,"Portugal, Coimbra, Coimbra","Artigo 24.º, n.º 1, alínea e) do Código dos Contratos Públicos","","","","",,Não aplicável.,Não aplicável.,FALSE
040214772017,Ajuste Direto Regime Geral,Aquisição de bens móveis,"33000000-0, Equipamento médico, medicamentos e produtos para cuidados pessoais","Centro Hospitalar e Universitário de Coimbra, E. P. E. (510103448)","MEDTRONIC PORTUGAL, LDA (504223933)","8.406,00 €",06-10-2017,14-06-2017,180 dias,"Portugal, Coimbra, Coimbra","Artigo 24.º, n.º 1, alínea e) do Código dos Contratos Públicos","","","","",,Não aplicável.,Não aplicável.,FALSE
procedimento n.º 0000092016 - reagentes serviço hematologia clinica - hemostase - siemens,Ajuste Direto Regime Geral,Aquisição de bens móveis,"33696500-0, Reagentes de laboratório","Centro Hospitalar e Universitário de Coimbra, E.P. (510103448)","SIEMENS HEALTHCARE, LDA.  (507925173)","45.832,52 €",06-10-2017,18-01-2016,365 dias,"Portugal, Coimbra, Coimbra","Artigo 26.º, n.º 1, alínea a) do Código dos Contratos Públicos",30-12-2016,"45.832,52 €","","",,Não aplicável.,Não aplicável.,FALSE
procedimento n.º 040000082016 reagentes serviço hematologia clinica - hemostase - werfen,Ajuste Direto Regime Geral,Aquisição de bens móveis,"33696500-0, Reagentes de laboratório","Centro Hospitalar e Universitário de Coimbra, E.P. (510103448)","WERFEN PORTUGAL, LDA (501086110)","91.562,68 €",06-10-2017,25-02-2016,365 dias,"Portugal, Coimbra, Coimbra","Artigo 26.º, n.º 1, alínea a) do Código dos Contratos Públicos",30-12-2016,"91.562,68 €","","",,Não aplicável.,Não aplicável.,FALSE
procedimento n.º 040000072016 - reagentes unidade laboratorial hematologia - HP,Ajuste Direto Regime Geral,Aquisição de bens móveis,"33696500-0, Reagentes de laboratório","Centro Hospitalar e Universitário de Coimbra, E.P. (510103448)","Abbott Laboratórios, Lda. (500006148)","4.360,43 €",06-10-2017,14-01-2016,365 dias,"Portugal, Coimbra, Coimbra","Artigo 26.º, n.º 1, alínea a) do Código dos Contratos Públicos",30-12-2016,"4.360,43 €","","",,Não aplicável.,Não aplicável.,FALSE
040221262017,Ajuste Direto Regime Geral,Aquisição de bens móveis,"33000000-0, Equipamento médico, medicamentos e produtos para cuidados pessoais","Centro Hospitalar e Universitário de Coimbra, E. P. E. (510103448)","JOHNSON & JOHNSON, LDA (500153370)","9.263,04 €",06-10-2017,10-08-2017,180 dias,"Portugal, Coimbra, Coimbra","Artigo 24.º, n.º 1, alínea e) do Código dos Contratos Públicos","","","","",,Não aplicável.,Não aplicável.,FALSE
procedimento n.º 040000062016 - reagentes unidade laboratorial hematologia - HG,Ajuste Direto Regime Geral,Aquisição de bens móveis,"33696500-0, Reagentes de laboratório","Centro Hospitalar e Universitário de Coimbra, E.P. (510103448)","Iberlab Imunoreage, Lda (503406694)","242,00 €",06-10-2017,13-01-2016,365 dias,"Portugal, Coimbra, Coimbra","Artigo 26.º, n.º 1, alínea a) do Código dos Contratos Públicos",31-12-2016,"242,00 €","","",,Não aplicável.,Não aplicável.,FALSE
040218602017,Ajuste Direto Regime Geral,Aquisição de bens móveis,"33000000-0, Equipamento médico, medicamentos e produtos para cuidados pessoais","Centro Hospitalar e Universitário de Coimbra, E. P. E. (510103448)","JOHNSON & JOHNSON, LDA (500153370)","9.945,84 €",06-10-2017,06-07-2017,180 dias,"Portugal, Coimbra, Coimbra","Artigo 24.º, n.º 1, alínea e) do Código dos Contratos Públicos","","","","",,Não aplicável.,Não aplicável.,FALSE
040219552017,Ajuste Direto Regime Geral,Aquisição de bens móveis,"33000000-0, Equipamento médico, medicamentos e produtos para cuidados pessoais","Centro Hospitalar e Universitário de Coimbra, E. P. E. (510103448)","BASTOS VIEGAS, SA (500042772)","5.796,00 €",06-10-2017,10-08-2017,180 dias,"Portugal, Coimbra, Coimbra","Artigo 24.º, n.º 1, alínea e) do Código dos Contratos Públicos","","","","",,Não aplicável.,Não aplicável.,FALSE
040223682017,Ajuste Direto Regime Geral,Aquisição de bens móveis,"33000000-0, Equipamento médico, medicamentos e produtos para cuidados pessoais","Centro Hospitalar e Universitário de Coimbra, E. P. E. (510103448)","ALBINO DIAS ANDRADE, LDA (500013810)","7.623,00 €",06-10-2017,08-09-2017,180 dias,"Portugal, Coimbra, Coimbra","Artigo 24.º, n.º 1, alínea e) do Código dos Contratos Públicos","","","","",,Não aplicável.,Não aplicável.,FALSE
Sondas iluminação para equipamentos braquiterapia,Ajuste Direto Regime Geral,Aquisição de bens móveis,"33190000-8, Dispositivos e produtos médicos variados","Centro Hospitalar e Universitário de Coimbra, E. P. E. (510103448)","Alcon Portugal - Produtos e Equipamentos Oftalmologicos, Lda (501251685)","4.140,00 €",04-10-2017,10-05-2017,360 dias,"Portugal, Coimbra, Coimbra","Artigo 24.º, n.º 1, alínea e) do Código dos Contratos Públicos","","","","",,Não aplicável.,Não aplicável.,FALSE
0402179202017,Ajuste Direto Regime Geral,Aquisição de bens móveis,"33000000-0, Equipamento médico, medicamentos e produtos para cuidados pessoais","Centro Hospitalar e Universitário de Coimbra, E. P. E. (510103448)","MEDTRONIC PORTUGAL, LDA (504223933)","6.438,00 €",04-10-2017,07-07-2017,180 dias,"Portugal, Coimbra, Coimbra","Artigo 24.º, n.º 1, alínea e) do Código dos Contratos Públicos","","","","",,Não aplicável.,Não aplicável.,FALSE
Válvulas cardiacas,Ajuste Direto Regime Geral,Aquisição de bens móveis,"33184300-6, Próteses cardíacas","Centro Hospitalar e Universitário de Coimbra, E. P. E. (510103448)","St. Jude Medical Portugal - Distribuição de Produtos Médicos, Lda (504180746)","65.635,00 €",04-10-2017,31-05-2017,20 dias,"Portugal, Coimbra, Coimbra","Artigo 24.º, n.º 1, alínea e) do Código dos Contratos Públicos","","","","",,Não aplicável.,Não aplicável.,FALSE
040217872017,Ajuste Direto Regime Geral,Aquisição de bens móveis,"33000000-0, Equipamento médico, medicamentos e produtos para cuidados pessoais","Centro Hospitalar e Universitário de Coimbra, E. P. E. (510103448)","MEDTRONIC PORTUGAL, LDA (504223933)","5.310,69 €",04-10-2017,07-07-2017,180 dias,"Portugal, Coimbra, Coimbra","Artigo 24.º, n.º 1, alínea e) do Código dos Contratos Públicos","","","","",,Não aplicável.,Não aplicável.,FALSE
Válvulas cardiacas,Ajuste Direto Regime Geral,Aquisição de bens móveis,"33184300-6, Próteses cardíacas","Centro Hospitalar e Universitário de Coimbra, E. P. E. (510103448)","Edwards Lifesciences (Portugal) Comercio e Distribuição de Dispositivos Médicos, Lda (508014832)","53.268,00 €",04-10-2017,31-05-2017,20 dias,"Portugal, Coimbra, Coimbra","Artigo 24.º, n.º 1, alínea e) do Código dos Contratos Públicos","","","","",,Não aplicável.,Não aplicável.,FALSE
Válvulas cardiacas,Ajuste Direto Regime Geral,Aquisição de bens móveis,"33184300-6, Próteses cardíacas","Centro Hospitalar e Universitário de Coimbra, E. P. E. (510103448)","Medicinália Cormedica - Comercialização de Produtos Médico Hospitalares, Lda. (500684324)","1.248,00 €",04-10-2017,16-06-2017,180 dias,"Portugal, Coimbra, Coimbra","Artigo 24.º, n.º 1, alínea e) do Código dos Contratos Públicos","","","","",,Não aplicável.,Não aplicável.,FALSE
Válvulas cardiacas,Ajuste Direto Regime Geral,Aquisição de bens móveis,"33184300-6, Próteses cardíacas","Centro Hospitalar e Universitário de Coimbra, E. P. E. (510103448)","St. Jude Medical Portugal - Distribuição de Produtos Médicos, Lda (504180746)","90.065,00 €",04-10-2017,05-07-2017,20 dias,"Portugal, Coimbra, Coimbra","Artigo 24.º, n.º 1, alínea e) do Código dos Contratos Públicos","","","","",,Não aplicável.,Não aplicável.,FALSE
040106942016 foscarneto sodico 24mg/ml sol.inj. fr 250ml iv,Ajuste Direto Regime Geral,Aquisição de bens móveis,"33698000-9, Produtos para fins clínicos","Centro Hospitalar e Universitário de Coimbra, E. P. E. (510103448)",DUXPHARMA (510803679),"5.610,00 €",04-10-2017,30-03-2016,365 dias,"Portugal, Coimbra, Coimbra","Artigo 24.º, n.º 1, alínea e) do Código dos Contratos Públicos",31-12-2016,"5.610,00 €","","",,Não aplicável.,Não aplicável.,FALSE
040217582017 material consumo clinico,Ajuste Direto Regime Geral,Aquisição de bens móveis,"33000000-0, Equipamento médico, medicamentos e produtos para cuidados pessoais","Centro Hospitalar e Universitário de Coimbra, E. P. E. (510103448)","B BRAUN MEDICAL, LDA (501506543)","5.240,52 €",04-10-2017,29-06-2017,180 dias,"Portugal, Coimbra, Coimbra","Artigo 24.º, n.º 1, alínea e) do Código dos Contratos Públicos","","","","",,Não aplicável.,Não aplicável.,FALSE
040213812017,Ajuste Direto Regime Geral,Aquisição de bens móveis,"33000000-0, Equipamento médico, medicamentos e produtos para cuidados pessoais","Centro Hospitalar e Universitário de Coimbra, E. P. E. (510103448)","JOHNSON & JOHNSON, LDA (500153370)","7.200,00 €",04-10-2017,09-05-2017,180 dias,"Portugal, Coimbra, Coimbra","Artigo 24.º, n.º 1, alínea e) do Código dos Contratos Públicos","","","","",,Não aplicável.,Não aplicável.,FALSE
040215222017 material consumo clinico,Ajuste Direto Regime Geral,Aquisição de bens móveis,"33000000-0, Equipamento médico, medicamentos e produtos para cuidados pessoais","Centro Hospitalar e Universitário de Coimbra, E. P. E. (510103448)","JOHNSON & JOHNSON, LDA (500153370)","7.211,04 €",04-10-2017,14-06-2017,180 dias,"Portugal, Coimbra, Coimbra","Artigo 24.º, n.º 1, alínea e) do Código dos Contratos Públicos","","","","",,Não aplicável.,Não aplicável.,FALSE
Aquisição dos 3 candeeiros de observação para serviço de cardiologia e 1 para o serviço de medicina interna,Ajuste Direto Regime Geral,Aquisição de bens móveis,"33000000-0, Equipamento médico, medicamentos e produtos para cuidados pessoais","Centro Hospitalar e Universitário de Coimbra, E. P. E. (510103448)",CRTM (513738045),"1.536,00 €",04-10-2017,04-10-2017,30 dias,"Portugal, Coimbra, Coimbra","Artigo 20.º, n.º 1, alínea a) do Código dos Contratos Públicos","","","","",,Não aplicável.,Não aplicável.,FALSE
Contrato manutenção SW Alert-S.Urgencia-setembro-dezembro(autori.AMA),Ajuste Direto Regime Geral,Aquisição de serviços,"72000000-5, Serviços de TI: consultoria, desenvolvimento de software, Internet e apoio","Centro Hospitalar e Universitário de Coimbra, E. P. E. (510103448)",Alert (507567455),"20.762,00 €",04-10-2017,15-09-2017,122 dias,"Portugal, Coimbra, Coimbra","Artigo 24.º, n.º 1, alínea e) do Código dos Contratos Públicos","","","","",,Não aplicável.,Não aplicável.,FALSE
Contrato manutenção SW Alert-S.Urgencia-janeiro-agosto,Ajuste Direto Regime Geral,Aquisição de serviços,"72000000-5, Serviços de TI: consultoria, desenvolvimento de software, Internet e apoio","Centro Hospitalar e Universitário de Coimbra, E. P. E. (510103448)",Alert (507567455),"41.524,00 €",04-10-2017,15-09-2017,243 dias,"Portugal, Coimbra, Coimbra","Artigo 24.º, n.º 1, alínea e) do Código dos Contratos Públicos","","","","",,Não aplicável.,Não aplicável.,FALSE
Aquisição de discos storage,Ajuste Direto Regime Geral,Aquisição de bens móveis,"30000000-9, Máquinas, equipamento e material de escritório e de informática, excepto mobiliário e pacotes de programas (software)","Centro Hospitalar e Universitário de Coimbra, E.P. (510103448)",iten solutions (510728189),"9.943,15 €",03-10-2017,25-09-2017,30 dias,"Portugal, Coimbra, Coimbra","Artigo 20.º, n.º 1, alínea a) do Código dos Contratos Públicos","","","","",,Não aplicável.,Não aplicável.,FALSE
Aquisição de um manipulador uterino para o serviço de ginecologia A (458),Ajuste Direto Regime Geral,Aquisição de bens móveis,"33000000-0, Equipamento médico, medicamentos e produtos para cuidados pessoais","Centro Hospitalar e Universitário de Coimbra, E.P. (510103448)",Teprel (502262184),"5.209,50 €",03-10-2017,03-08-2017,30 dias,"Portugal, Coimbra, Coimbra","Artigo 20.º, n.º 1, alínea a) do Código dos Contratos Públicos","","","","",,Não aplicável.,Não aplicável.,FALSE
FOSFOMICINA 4GRAMAS PO SOL. INJ,Ajuste Direto Regime Geral,Aquisição de bens móveis,"33698000-9, Produtos para fins clínicos","Centro Hospitalar e Universitário de Coimbra, E.P. (510103448)",DUXPHARMA (510803679),"9.306,00 €",03-10-2017,01-04-2016,365 dias,"Portugal, Coimbra, Coimbra","Artigo 24.º, n.º 1, alínea e) do Código dos Contratos Públicos",31-12-2016,"9.306,00 €","","",,Não aplicável.,Não aplicável.,FALSE
MELFALANO 50MG PO SOL INJ.,Ajuste Direto Regime Geral,Aquisição de bens móveis,"33698000-9, Produtos para fins clínicos","Centro Hospitalar e Universitário de Coimbra, E.P. (510103448)",PHARMIS (502595442),"9.750,00 €",03-10-2017,28-04-2016,365 dias,"Portugal, Coimbra, Coimbra","Artigo 24.º, n.º 1, alínea e) do Código dos Contratos Públicos",31-12-2016,"9.750,00 €","","",,Não aplicável.,Não aplicável.,FALSE
Ajuste Directo nº040000022016-Reagentes para o Serviço de Medicina Nuclear,Ajuste Direto Regime Geral,Aquisição de bens móveis,"33696500-0, Reagentes de laboratório","Centro Hospitalar e Universitário de Coimbra, E.P. (510103448)","Isoder (502241594), Franklab (182335704)","40.288,90 €",03-10-2017,06-04-2016,365 dias,"Portugal, Coimbra, Coimbra","Artigo 20.º, n.º 1, alínea a) do Código dos Contratos Públicos",31-12-2016,"40.288,90 €","","",,Não aplicável.,Não aplicável.,FALSE
Ajuste Directo nº040000012-Reagentes para o Serviço de Medicina Nuclear,Ajuste Direto Regime Geral,Aquisição de bens móveis,"33696500-0, Reagentes de laboratório","Centro Hospitalar e Universitário de Coimbra, E.P. (510103448)","VWR (503842770), Reagente 5 (501194053)","479,46 €",03-10-2017,12-04-2016,365 dias,"Portugal, Coimbra, Coimbra","Artigo 20.º, n.º 1, alínea a) do Código dos Contratos Públicos",31-12-2016,"479,46 €","","",,Não aplicável.,Não aplicável.,FALSE
INFLIXIMAB 100MG PO,Ajuste Direto Regime Geral,Aquisição de bens móveis,"33698000-9, Produtos para fins clínicos","Centro Hospitalar e Universitário de Coimbra, E. P. E. (510103448)",MERCK SHARH (500191360),"70.000,00 €",03-10-2017,21-03-2016,365 dias,"Portugal, Coimbra, Coimbra","Artigo 24.º, n.º 1, alínea e) do Código dos Contratos Públicos",31-12-2016,"70.000,00 €","","",,Não aplicável.,Não aplicável.,FALSE
040106842016 ALERGENOS DIVERSOS,Ajuste Direto Regime Geral,Aquisição de bens móveis,"33698000-9, Produtos para fins clínicos","Centro Hospitalar e Universitário de Coimbra, E. P. E. (510103448)",BIAL (500220913),"14.248,35 €",03-10-2017,21-03-2016,365 dias,"Portugal, Coimbra, Coimbra","Artigo 24.º, n.º 1, alínea e) do Código dos Contratos Públicos",31-12-2016,"14.248,35 €","","",,Não aplicável.,Não aplicável.,FALSE
040106802016 BOSUTINIB 500MG COMP,Ajuste Direto Regime Geral,Aquisição de bens móveis,"33698000-9, Produtos para fins clínicos","Centro Hospitalar e Universitário de Coimbra, E. P. E. (510103448)",PFIZER BIOFARMACEUTICA (513300376),"23.097,92 €",03-10-2017,01-04-2016,365 dias,"Portugal, Coimbra, Coimbra","Artigo 24.º, n.º 1, alínea e) do Código dos Contratos Públicos",31-12-2016,"23.097,92 €","","",,Não aplicável.,Não aplicável.,FALSE
Cardioversores,Ajuste Direto Regime Geral,Aquisição de bens móveis,"33000000-0, Equipamento médico, medicamentos e produtos para cuidados pessoais","Centro Hospitalar e Universitário de Coimbra, E. P. E. (510103448)","Livanova Portugal, Lda. (505514010)","147.650,00 €",03-10-2017,10-07-2017,180 dias,"Portugal, Coimbra, Coimbra","Artigo 24.º, n.º 1, alínea c) do Código dos Contratos Públicos","","","","",,Não aplicável.,Não aplicável.,FALSE
Cardioversor,Ajuste Direto Regime Geral,Aquisição de bens móveis,"33000000-0, Equipamento médico, medicamentos e produtos para cuidados pessoais","Centro Hospitalar e Universitário de Coimbra, E. P. E. (510103448)","Medtronic Portugal, Lda. (504223933)","189.000,00 €",03-10-2017,27-04-2017,250 dias,"Portugal, Coimbra, Coimbra","Artigo 24.º, n.º 1, alínea c) do Código dos Contratos Públicos","","","","",,Não aplicável.,Não aplicável.,FALSE
Válvulas cardiacas,Ajuste Direto Regime Geral,Aquisição de bens móveis,"33184300-6, Próteses cardíacas","Centro Hospitalar e Universitário de Coimbra, E. P. E. (510103448)","St. Jude Medical Portugal - Distribuição de Produtos Medicos, Lda. (504180746)","43.635,00 €",03-10-2017,25-09-2017,20 dias,"Portugal, Coimbra, Coimbra","Artigo 24.º, n.º 1, alínea e) do Código dos Contratos Públicos","","","","",,Não aplicável.,Não aplicável.,FALSE
Cardioversores,Ajuste Direto Regime Geral,Aquisição de bens móveis,"33000000-0, Equipamento médico, medicamentos e produtos para cuidados pessoais","Centro Hospitalar e Universitário de Coimbra, E. P. E. (510103448)","Medtronic Portugal, Lda (504223933)","252.150,00 €",02-10-2017,16-05-2017,245 dias,"Portugal, Coimbra, Coimbra","Artigo 24.º, n.º 1, alínea c) do Código dos Contratos Públicos","","","","",,Não aplicável.,Não aplicável.,FALSE
Pacemakers,Ajuste Direto Regime Geral,Aquisição de bens móveis,"33000000-0, Equipamento médico, medicamentos e produtos para cuidados pessoais","Centro Hospitalar e Universitário de Coimbra, E. P. E. (510103448)","St. Jude Medical Portugal, Lda. (504180746)","90.000,00 €",02-10-2017,15-06-2017,210 dias,"Portugal, Coimbra, Coimbra","Artigo 24.º, n.º 1, alínea c) do Código dos Contratos Públicos","","","","",,Não aplicável.,Não aplicável.,FALSE
Pacemakers,Ajuste Direto Regime Geral,Aquisição de bens móveis,"33000000-0, Equipamento médico, medicamentos e produtos para cuidados pessoais","Centro Hospitalar e Universitário de Coimbra, E. P. E. (510103448)","Medtronic Portugal, Lda. (504223933)","173.600,00 €",02-10-2017,27-04-2017,260 dias,"Portugal, Coimbra, Coimbra","Artigo 24.º, n.º 1, alínea c) do Código dos Contratos Públicos","","","","",,Não aplicável.,Não aplicável.,FALSE
Pacemakers,Ajuste Direto Regime Geral,Aquisição de bens móveis,"33000000-0, Equipamento médico, medicamentos e produtos para cuidados pessoais","Centro Hospitalar e Universitário de Coimbra, E. P. E. (510103448)","Boston Scientific Portugal, Lda (504988964)","101.890,00 €",02-10-2017,19-06-2017,210 dias,"Portugal, Coimbra, Coimbra","Artigo 24.º, n.º 1, alínea c) do Código dos Contratos Públicos","","","","",,Não aplicável.,Não aplicável.,FALSE
Stents,Ajuste Direto Regime Geral,Aquisição de bens móveis,"33000000-0, Equipamento médico, medicamentos e produtos para cuidados pessoais","Centro Hospitalar e Universitário de Coimbra, E. P. E. (510103448)","Medtronic Portugal, Lda. (504223933)","19.800,00 €",02-10-2017,19-07-2017,165 dias,"Portugal, Coimbra, Coimbra","Artigo 24.º, n.º 1, alínea e) do Código dos Contratos Públicos","","","","",,Não aplicável.,Não aplicável.,FALSE
Válvulas cardiacas,Ajuste Direto Regime Geral,Aquisição de bens móveis,"33184300-6, Próteses cardíacas","Centro Hospitalar e Universitário de Coimbra, E. P. E. (510103448)","Medicinália Cormedica - Comercialização de Produtos Médico Hospitalares, Lda. (500684324)","3.744,00 €",02-10-2017,25-09-2017,20 dias,"Portugal, Coimbra, Coimbra","Artigo 24.º, n.º 1, alínea e) do Código dos Contratos Públicos","","","","",,Não aplicável.,Não aplicável.,FALSE
Válvulas cardiacas,Ajuste Direto Regime Geral,Aquisição de bens móveis,"33184300-6, Próteses cardíacas","Centro Hospitalar e Universitário de Coimbra, E. P. E. (510103448)","Edwards Lifesciences (Portugal) Comercio e Distribuição de Dispositivos Médicos, Lda. (508014832)","63.692,00 €",02-10-2017,25-09-2017,20 dias,"Portugal, Coimbra, Coimbra","Artigo 24.º, n.º 1, alínea e) do Código dos Contratos Públicos","","","","",,Não aplicável.,Não aplicável.,FALSE
