Objeto do Contrato,Tipo de Procedimento,Tipo(s) de Contrato,CPVs,Entidade(s) Adjudicante(s),Entidade(s) Adjudicatária(s),Preço Contratual,Data de Publicação,Data de Celebração do Contrato,Prazo de Execução,Local de Execução,Fundamentação,Data de Fecho do Contrato,Preço Total Efetivo,Causas das Alterações ao Prazo,Causas das Alterações ao Preço,Estado,N.º registo do Acordo Quadro,Descrição do Acordo Quadro,Procedimento Centralizado
Aquisição de serviços para desenvolvimento do Projeto Estado de Saúde em Portugal,Ajuste Direto Regime Geral,Aquisição de serviços,"73000000-2, Serviços de investigação e desenvolvimento e serviços de consultoria conexos",Direção-Geral da Saúde (600037100),Ana Margarida Febra Moita de Macedo (198575475),"19.900,00 €",12-11-2018,18-09-2018,103 dias,"Portugal, Lisboa, Lisboa","Artigo 20.º, n.º 1, alínea d) do Código dos Contratos Públicos",,,,,,Não aplicável.,Não aplicável.,FALSE
Aquisição de serviços para produção e edição de um conjunto de vídeos sobre a prática de uma alimentação saudável,Ajuste Direto Regime Geral,Aquisição de serviços,"79970000-4, Serviços de publicação",Direção-Geral da Saúde (600037100),Fábio Cristiano dos Santos Bernardino (217706150),"12.980,00 €",12-11-2018,22-10-2018,68 dias,"Portugal, Lisboa, Lisboa","Artigo 20.º, n.º 1, alínea d) do Código dos Contratos Públicos",,,,,,Não aplicável.,Não aplicável.,FALSE
"Aquisição de serviços de uma bolsa de 300 horas para manutenção corretiva, adaptativa e evolutiva bem como o suporte técnico na administração do sistema e apoio à gestão e aos utilizadores do SVIG-TB",Ajuste Direto Regime Geral,Aquisição de serviços,"72500000-0, Serviços relacionados com a informática",Direção-Geral da Saúde (600037100),"INTELIPRISE, Negócios Digitais - Sistemas de Informação, Lda (505136805)","9.375,00 €",12-11-2018,02-10-2018,88 dias,"Portugal, Lisboa, Lisboa","Artigo 20.º, n.º 1, alínea d) do Código dos Contratos Públicos",,,,,,Não aplicável.,Não aplicável.,FALSE
