Objeto do Contrato,Tipo de Procedimento,Tipo(s) de Contrato,CPVs,Entidade(s) Adjudicante(s),Entidade(s) Adjudicatária(s),Preço Contratual,Data de Publicação,Data de Celebração do Contrato,Prazo de Execução,Local de Execução,Fundamentação,Data de Fecho do Contrato,Preço Total Efetivo,Causas das Alterações ao Prazo,Causas das Alterações ao Preço,Estado,N.º registo do Acordo Quadro,Descrição do Acordo Quadro,Procedimento Centralizado
RITUXIMAB BIOSSIMILAR (DOENTES EM TRATAMENTO),Ao abrigo de acordo-quadro (art.º 258.º),Aquisição de bens móveis,"33600000-6, Produtos farmacêuticos","Hospital Distrital Figueira da Foz, E.P.E. (506361527)","PHARMAKERN PORTUGAL - PRODUTOS FARMACÊUTICOS, SOCIEDADE UNIPESSOAL, LDA (507002571)","13.140,00 €",10-12-2018,23-10-2018,69 dias,"Portugal, Coimbra, Figueira da Foz",Artigo 258.º do Código dos Contratos Públicos,,,,,,2969238,"CP 2017/6 - Acordo Quadro para fornecimento de Medicamentos do Foro Oncológico e Imunomoduladores, às Instituições e Serviços do Serviço Nacional de Saúde",FALSE
ETANERCEPT 50 MG BIOSSIMILAR (DOENTES EM TRATAMENTO),Ao abrigo de acordo-quadro (art.º 258.º),Aquisição de bens móveis,"33600000-6, Produtos farmacêuticos","Hospital Distrital Figueira da Foz, E.P.E. (506361527)","BIOGEN PORTUGAL, LDA. (506415740)","4.968,00 €",10-12-2018,23-10-2018,69 dias,"Portugal, Coimbra, Figueira da Foz",Artigo 258.º do Código dos Contratos Públicos,,,,,,2969238,"CP 2017/6 - Acordo Quadro para fornecimento de Medicamentos do Foro Oncológico e Imunomoduladores, às Instituições e Serviços do Serviço Nacional de Saúde",FALSE
"AQUISIÇÃO DE SORAFENIB 200 MG  AO ABRIGO DO ACORDO QUADRO 2017/6 DOS SPMS, EPE",Ao abrigo de acordo-quadro (art.º 258.º),Aquisição de bens móveis,"33600000-6, Produtos farmacêuticos","Hospital Distrital Figueira da Foz, E.P.E. (506361527)","BAYER PORTUGAL, S.A. (500043256)","25.381,44 €",10-12-2018,30-10-2018,67 dias,"Portugal, Coimbra, Figueira da Foz",Artigo 258.º do Código dos Contratos Públicos,,,,,,2969238,"CP 2017/6 - Acordo Quadro para fornecimento de Medicamentos do Foro Oncológico e Imunomoduladores, às Instituições e Serviços do Serviço Nacional de Saúde",FALSE
"AQUISIÇÃO DE ENZALUTAMIDA 40 MG AO ABRIGO DO ACORDO QUADRO 2017/6 DOS SPMS, EPE",Ao abrigo de acordo-quadro (art.º 258.º),Aquisição de bens móveis,"33600000-6, Produtos farmacêuticos","Hospital Distrital Figueira da Foz, E.P.E. (506361527)","ASTELLAS FARMA, LDA (502540249)","38.402,14 €",10-12-2018,30-10-2018,67 dias,"Portugal, Coimbra, Figueira da Foz",Artigo 258.º do Código dos Contratos Públicos,,,,,,2969238,"CP 2017/6 - Acordo Quadro para fornecimento de Medicamentos do Foro Oncológico e Imunomoduladores, às Instituições e Serviços do Serviço Nacional de Saúde",FALSE
P259-2018-156- Convite ao abrigo do AQ 2017/67 Hepatite C Crónica para as Instituições do SNS,Ao abrigo de acordo-quadro (art.º 259.º),Aquisição de bens móveis,"33600000-6, Produtos farmacêuticos","Hospital Distrital Figueira da Foz, E.P.E. (506361527)","ABBVIE, LDA. (510229050)","6.600,00 €",04-12-2018,29-10-2018,60 dias,"Portugal, Coimbra, Figueira da Foz",Artigo 259.º do Código dos Contratos Públicos,,,,,,3023927,CP 2017/67 - Medicamentos para a Hepatite C crónica,TRUE
DP21 - Imunoglobulina Humana Normal 100 Mg/Ml (G),Ao abrigo de acordo-quadro (art.º 259.º),Aquisição de bens móveis,"33600000-6, Produtos farmacêuticos","Hospital Distrital da Figueira da Foz, E. P. E. (506361527)","OCTAPHARMA - PRODUTOS FARMACÊUTICOS, LDA. (502820780)","2.338,80 €",01-12-2018,06-08-2018,153 dias,"Portugal, Coimbra, Figueira da Foz",Artigo 259.º do Código dos Contratos Públicos,,,,,,2800702,CP 2017/9 - Acordo quadro para fornecimento de Derivados do Plasma Humano às Instituições e Serviços do Serviço Nacional de Saúde,FALSE
E380 - ETANERCEPT (DOENTES EM TRATAMENTO),Ajuste Direto Regime Geral,Aquisição de bens móveis,"33652000-5, Antineoplásicos e imunomoduladores","Hospital Distrital da Figueira da Foz, E. P. E. (506361527)","Pfizer Biofarmaceutica, Sociedade Unipessoal Lda. (513300376)","57.640,77 €",01-12-2018,25-01-2018,365 dias,"Portugal, Coimbra, Figueira da Foz","Artigo 24.º, n.º 1, alínea e), subalínea iii) do Código dos Contratos Públicos",,,,,,Não aplicável.,Não aplicável.,FALSE
I287 - Infliximab doentes em tratamento,Ajuste Direto Regime Geral,Aquisição de bens móveis,"33652000-5, Antineoplásicos e imunomoduladores","Hospital Distrital da Figueira da Foz, E. P. E. (506361527)",LABORATORIOS PFIZER (500162166),"50.058,80 €",01-12-2018,29-08-2018,153 dias,"Portugal, Coimbra, Figueira da Foz","Artigo 24.º, n.º 1, alínea e), subalínea iii) do Código dos Contratos Públicos",,,,,,Não aplicável.,Não aplicável.,FALSE
I287 - INFLIXIMAB DOENTES EM TRATAMENTO,Ajuste Direto Regime Geral,Aquisição de bens móveis,"33652000-5, Antineoplásicos e imunomoduladores","Hospital Distrital da Figueira da Foz, E. P. E. (506361527)",MERCK SHARP & DOHME (500191360),"90.650,00 €",01-12-2018,19-02-2018,365 dias,"Portugal, Coimbra, Figueira da Foz","Artigo 24.º, n.º 1, alínea e), subalínea iii) do Código dos Contratos Públicos",,,,,,Não aplicável.,Não aplicável.,FALSE
Agregação Centralizada AD-AC-2017-146,Ajuste Direto Regime Geral,Aquisição de bens móveis,"33600000-6, Produtos farmacêuticos","Hospital Distrital da Figueira da Foz, E. P. E. (506361527)",LABORATORIOS PFIZER (500162166),"25.384,54 €",01-12-2018,01-01-2018,365 dias,"Portugal, Coimbra, Figueira da Foz","Artigo 24.º, n.º 1, alínea e), subalínea iii) do Código dos Contratos Públicos",,,,,,Não aplicável.,Não aplicável.,FALSE
AQUISIÇÃO DE MEDICAMENTOS PARA O APARELHO CARDIOVASCULAR,Consulta Prévia,Aquisição de bens móveis,"33622000-6, Medicamentos para o aparelho cardiovascular","Hospital Distrital Figueira da Foz, E.P.E. (506361527)","MYLAN, LDA (502248793)","719,31 €",01-12-2018,08-10-2018,154 dias,"Portugal, Coimbra, Figueira da Foz","Artigo 20.º, n.º 1, alínea c) do Código dos Contratos Públicos",,,,,,Não aplicável.,Não aplicável.,FALSE
AQUISIÇÃO DE PALIVIZUMAB 50 MG E 100 MG AO ABRIGO DO ACORDO QUADRO 2017/6 DOS SPMS,Ao abrigo de acordo-quadro (art.º 258.º),Aquisição de bens móveis,"33600000-6, Produtos farmacêuticos","Hospital Distrital Figueira da Foz, E.P.E. (506361527)","ABBVIE, LDA. (510229050)","9.762,75 €",01-12-2018,25-10-2018,76 dias,"Portugal, Coimbra, Figueira da Foz",Artigo 258.º do Código dos Contratos Públicos,,,,,,2969238,"CP 2017/6 - Acordo Quadro para fornecimento de Medicamentos do Foro Oncológico e Imunomoduladores, às Instituições e Serviços do Serviço Nacional de Saúde",FALSE
