Objeto do Contrato,Tipo de Procedimento,Tipo(s) de Contrato,CPVs,Entidade(s) Adjudicante(s),Entidade(s) Adjudicatária(s),Preço Contratual,Data de Publicação,Data de Celebração do Contrato,Prazo de Execução,Local de Execução,Fundamentação,Data de Fecho do Contrato,Preço Total Efetivo,Causas das Alterações ao Prazo,Causas das Alterações ao Preço,Estado,N.º registo do Acordo Quadro,Descrição do Acordo Quadro,Procedimento Centralizado
"Manutenção e Assistência Técnica aos Equipamentos Telefónicos do CHPL, Ano 2015",Ajuste Direto Regime Geral,Aquisição de serviços,"50000000-5, Serviços de reparação e manutenção",Centro Hospitalar Psiquiátrico de Lisboa (508338476),Fonotel (501397469),"7.833,36 €",17-03-2016,14-04-2015,365 dias,"Portugal, Lisboa, Lisboa","Artigo 20.º, n.º 1, alínea a) do Código dos Contratos Públicos",31-12-2015,"7.833,36 €",,,,Não aplicável.,Não aplicável.,FALSE
Serviços Prestados pela SINASE Ano 2015,Ajuste Direto Regime Geral,Aquisição de serviços,"73000000-2, Serviços de investigação e desenvolvimento e serviços de consultoria conexos",Centro Hospitalar Psiquiátrico de Lisboa (508338476),SINASE (502851791),"6.840,00 €",17-03-2016,18-03-2015,365 dias,"Portugal, Lisboa, Lisboa","Artigo 20.º, n.º 1, alínea a) do Código dos Contratos Públicos",31-12-2015,"6.840,00 €",,,,Não aplicável.,Não aplicável.,FALSE
