Objeto do Contrato,Tipo de Procedimento,Tipo(s) de Contrato,CPVs,Entidade(s) Adjudicante(s),Entidade(s) Adjudicatária(s),Preço Contratual,Data de Publicação,Data de Celebração do Contrato,Prazo de Execução,Local de Execução,Fundamentação,Data de Fecho do Contrato,Preço Total Efetivo,Causas das Alterações ao Prazo,Causas das Alterações ao Preço,Estado,N.º registo do Acordo Quadro,Descrição do Acordo Quadro,Procedimento Centralizado
Manutenção Preventiva e Assistência Técnica aos Fotocopiadores da ULSAM,Ajuste Direto Regime Geral,Aquisição de serviços,"50313200-4, Serviços de manutenção de fotocopiadoras","Unidade Local de Saúde do Alto Minho, EPE (ULSAM) (508786193)","Reprofax - Equipamentos de Escritório, Lda. (503475807)","12.920,00 €",01-03-2016,29-02-2016,365 dias,"Portugal, Viana do Castelo","Artigo 20.º, n.º 1, alínea a) do Código dos Contratos Públicos",,,,,,Não aplicável.,Não aplicável.,FALSE
"Manutenção Preventiva e Assistência Técnica para os Equipamentos de Lavagem, Desinfeção, Esterilização e Afins da ULSAM",Ajuste Direto Regime Geral,Aquisição de serviços,"50800000-3, Serviços de reparação e manutenção diversos","Unidade Local de Saúde do Alto Minho, EPE (ULSAM) (508786193)",Serviço de Utilização Comum dos Hospitais - SUCH (500900469),"13.349,00 €",24-02-2016,04-02-2016,365 dias,"Portugal, Viana do Castelo","Artigo 20.º, n.º 1, alínea a) do Código dos Contratos Públicos",,,,,,Não aplicável.,Não aplicável.,FALSE
