Objeto do Contrato,Tipo de Procedimento,Tipo(s) de Contrato,CPVs,Entidade(s) Adjudicante(s),Entidade(s) Adjudicatária(s),Preço Contratual,Data de Publicação,Data de Celebração do Contrato,Prazo de Execução,Local de Execução,Fundamentação,Data de Fecho do Contrato,Preço Total Efetivo,Causas das Alterações ao Prazo,Causas das Alterações ao Preço,Estado,N.º registo do Acordo Quadro,Descrição do Acordo Quadro,Procedimento Centralizado
Solução Aplicacional para Pneumologia,Concurso público,Aquisição de bens móveis,"48180000-3, Pacote de software para medicina","Hospital Distrital de Santarém, E. P. E. (506361462)","FIRST SOLUTION PARTNERS, SA (507987349)","24.870,00 €",24-11-2016,09-11-2016,30 dias,"Portugal, Santarém, Santarém","Artigo 20.º, n.º 1, alínea b) do Código dos Contratos Públicos",,,,,,Não aplicável.,Não aplicável.,FALSE
MEDICAMENTOS,Ajuste Direto Regime Geral,Aquisição de bens móveis,"33600000-6, Produtos farmacêuticos","Hospital Distrital de Santarém, EPE (506361462)","BRISTOL - MYERS SQUIBB FARMACEUTICA PORTUGUESA, SA (500048193)","499.115,79 €",23-11-2016,20-01-2016,345 dias,"Portugal, Santarém, Santarém","Artigo 24.º, n.º 1, alínea e) do Código dos Contratos Públicos",,,,,,Não aplicável.,Não aplicável.,FALSE
PRESTAÇÃO SERVIÇOS MÉDICOS ESPECIALIDADE DE ORTOPEDIA,Ajuste Direto Regime Geral,Aquisição de serviços,"85000000-9, Serviços de saúde e acção social","Hospital Distrital de Santarém, E. P. E. (506361462)",ANA PAULA PEREIRA- SERVIÇOS MEDICOS LDA (509841481),"7.560,00 €",21-11-2016,26-10-2016,180 dias,"Portugal, Santarém, Santarém","Artigo 20.º, n.º 1, alínea a) do Código dos Contratos Públicos",,,,,,Não aplicável.,Não aplicável.,FALSE
