Objeto do Contrato,Tipo de Procedimento,Tipo(s) de Contrato,CPVs,Entidade(s) Adjudicante(s),Entidade(s) Adjudicatária(s),Preço Contratual,Data de Publicação,Data de Celebração do Contrato,Prazo de Execução,Local de Execução,Fundamentação,Data de Fecho do Contrato,Preço Total Efetivo,Causas das Alterações ao Prazo,Causas das Alterações ao Preço,Estado,N.º registo do Acordo Quadro,Descrição do Acordo Quadro,Procedimento Centralizado
Aquisição de estudo para elaboração de estudo sobre os resíduos hospitalares em Portugal,Ajuste Direto Regime Geral,Aquisição de serviços,"98390000-3, Outros serviços",Entidade Reguladora da Saúde (507021266),Universidade do Minho (502011378),"12.000,00 €",01-04-2011,18-03-2011,60 dias,"Portugal, Porto, Porto","Artigo 20.º, n.º 1, alínea a) do Código dos Contratos Públicos",03-05-2011,"12.000,00 €",,,,Não aplicável.,Não aplicável.,
"Aquisição de dois automóveis ligeiros de passageiros (breack/station/carrinha), para os serviços gerais da ERS",Ajuste Direto Regime Geral,Aquisição de bens móveis,"34110000-1, Automóveis de passageiros",Entidade Reguladora da Saúde (507021266),"Renault Retail Group Boavista - Comércio e Reparação de Veículos, Lda. (503353892)","43.380,00 €",01-04-2011,04-03-2011,20 dias,"Portugal, Porto, Porto","Artigo 20.º, n.º 1, alínea a) do Código dos Contratos Públicos",05-04-2011,"43.380,00 €",,,,Não aplicável.,Não aplicável.,
