Objeto do Contrato,Tipo de Procedimento,Tipo(s) de Contrato,CPVs,Entidade(s) Adjudicante(s),Entidade(s) Adjudicatária(s),Preço Contratual,Data de Publicação,Data de Celebração do Contrato,Prazo de Execução,Local de Execução,Fundamentação,Data de Fecho do Contrato,Preço Total Efetivo,Causas das Alterações ao Prazo,Causas das Alterações ao Preço,Estado,N.º registo do Acordo Quadro,Descrição do Acordo Quadro,Procedimento Centralizado
"AQUISIÇÃO DA PRESTAÇÃO DE SERVIÇOS DE TRANSPORTE DE DOENTES EM AMBULÂNCIAS COM ORIGEM NO DOMICILIO, CONCELHO CALDAS DA RAINHA",Ajuste Direto Regime Geral,Aquisição de serviços,"63710000-9, Serviços auxiliares dos transportes terrestres",CHO - Centro Hospitalar do Oeste (510412009),"ABACINUS, AMBULÂNCIAS, LDA. (507435125)","45.000,00 €",19-09-2013,12-08-2013,120 dias,"Portugal, Leiria, Caldas da Rainha","Artigo 20.º, n.º 1, alínea a) do Código dos Contratos Públicos",12-08-2013,"45.000,00 €",,,,Não aplicável.,Não aplicável.,
Aquisição de um chilher para o Bloco Operatório,Ajuste Direto Regime Geral,Aquisição de bens móveis,"43000000-3, Maquinaria para extracção mineira e pedreiras, equipamento de construção",CHO - Centro Hospitalar do Oeste (510412009),"Hepafiltra, Lda (503615072)","38.495,00 €",19-09-2013,24-04-2013,30 dias,"Portugal, Leiria, Caldas da Rainha","Artigo 20.º, n.º 1, alínea a) do Código dos Contratos Públicos",04-06-2013,"38.495,00 €",,,,Não aplicável.,Não aplicável.,
PRESTAÇÃO DE SERVIÇOS DE ASSISTÊNCIA TÉCNICA PARA A INSTALAÇÃO DE GASES MEDICINAIS E OUTROS TRABALHOS DE SERRALHARIA MECÂNICA,Ajuste Direto Regime Geral,Aquisição de serviços,"71356200-0, Serviços de assistência técnica",CHO - Centro Hospitalar do Oeste (510412009),"Air Liquide Medicinal, S.A. (501576436)","8.500,00 €",19-09-2013,28-08-2013,150 dias,"Portugal, Leiria, Caldas da Rainha","Artigo 20.º, n.º 1, alínea a) do Código dos Contratos Públicos",28-08-2013,"8.500,00 €",,,,Não aplicável.,Não aplicável.,
Aquisição da Prestação de Serviços de Cuidados de Enfermagem,Concurso público,Aquisição de serviços,"85141200-1, Serviços prestados pelo pessoal de enfermagem",CHO - Centro Hospitalar do Oeste (510412009),"TONUS GLOBAL, UNIPESSOAL, LDA. (509622976)","290.240,86 €",19-09-2013,01-09-2013,60 dias,"Portugal, Leiria, Caldas da Rainha","Artigo 21.º, n.º 1, alínea b) do Código dos Contratos Públicos",01-09-2013,"290.240,86 €",,,,Não aplicável.,Não aplicável.,
