Objeto do Contrato,Tipo de Procedimento,Tipo(s) de Contrato,CPVs,Entidade(s) Adjudicante(s),Entidade(s) Adjudicatária(s),Preço Contratual,Data de Publicação,Data de Celebração do Contrato,Prazo de Execução,Local de Execução,Fundamentação,Data de Fecho do Contrato,Preço Total Efetivo,Causas das Alterações ao Prazo,Causas das Alterações ao Preço,Estado,N.º registo do Acordo Quadro,Descrição do Acordo Quadro,Procedimento Centralizado
AD1322-14 Aquisição medicamentos vemurafenid 240 mc cp,Ajuste Direto Regime Geral,Aquisição de bens móveis,"33690000-3, Medicamentos vários","Instituto Português de Oncologia de Lisboa Francisco Gentil, E. P. E. (506361616)","ROCHE FARMACÊUTICA QUÍMICA , LDA (500233810)","91.389,64 €",28-11-2014,12-06-2014,1 dias,"Portugal, Lisboa, Lisboa","Artigo 24.º, n.º 1, alínea e) do Código dos Contratos Públicos",,,,,,Não aplicável.,Não aplicável.,FALSE
AD1656-14Aquisição medicamentos azul mitileno 5 mg/ml inj-10ml,Ajuste Direto Regime Geral,Aquisição de bens móveis,"33690000-3, Medicamentos vários","Instituto Português de Oncologia de Lisboa Francisco Gentil, E. P. E. (506361616)","LABESFAL-LAB. ESP.FARMACEUT.ALMIRO, S.A (501169580)","6.300,00 €",26-11-2014,27-06-2014,43 dias,"Portugal, Lisboa, Lisboa","Artigo 24.º, n.º 1, alínea e) do Código dos Contratos Públicos",,,,,,Não aplicável.,Não aplicável.,FALSE
ad2096-14Aquisição medicamentos Bacilo Calmette,Ajuste Direto Regime Geral,Aquisição de bens móveis,"33690000-3, Medicamentos vários","Instituto Português de Oncologia de Lisboa Francisco Gentil, E. P. E. (506361616)",MERCK SHARP 6 DOME LDA (500191360),"8.599,20 €",26-11-2014,20-08-2014,2 dias,"Portugal, Lisboa, Lisboa","Artigo 24.º, n.º 1, alínea c) do Código dos Contratos Públicos",,,,,,Não aplicável.,Não aplicável.,FALSE
AD1181-Aquisição medicamentos everolimus cp 5g,Ajuste Direto Regime Geral,Aquisição de bens móveis,"33690000-3, Medicamentos vários","Instituto Português de Oncologia de Lisboa Francisco Gentil, E. P. E. (506361616)",NOVARTIS FARMA PRODUTOS FARMACEUTICOS SA (500063524),"6.850,02 €",21-11-2014,13-05-2014,1 dias,"Portugal, Lisboa, Lisboa","Artigo 24.º, n.º 1, alínea e) do Código dos Contratos Públicos",,,,,,Não aplicável.,Não aplicável.,FALSE
