Objeto do Contrato,Tipo de Procedimento,Tipo(s) de Contrato,CPVs,Entidade(s) Adjudicante(s),Entidade(s) Adjudicatária(s),Preço Contratual,Data de Publicação,Data de Celebração do Contrato,Prazo de Execução,Local de Execução,Fundamentação,Data de Fecho do Contrato,Preço Total Efetivo,Causas das Alterações ao Prazo,Causas das Alterações ao Preço,Estado,N.º registo do Acordo Quadro,Descrição do Acordo Quadro,Procedimento Centralizado
Aquisição de Instrumental Cirúrgico para o Bloco Cirurgia Carditorácica para o CHLO,Ajuste Direto Regime Geral,Aquisição de bens móveis,"33140000-3, Material médico de consumo","Centro Hospitalar de Lisboa Ocidental, E. P. E. (507618319)","MED XRAY - SISTEMAS MEDICOS, LDA (506187071)","1.132,08 €",08-03-2018,07-03-2018,365 dias,"Portugal, Lisboa, Lisboa","Artigo 20.º, n.º 1, alínea a) do Código dos Contratos Públicos",,,,,,Não aplicável.,Não aplicável.,FALSE
13100378 AQUISIÇÃO CENTRALIZADA  DE MEDICAMENTOS PELA SPMS-P159-AC-2018-18- NO ANO 2018,Ajuste Direto Regime Geral,Aquisição de bens móveis,"33600000-6, Produtos farmacêuticos","Centro Hospitalar de Lisboa Ocidental, E. P. E. (507618319)","BAXTER MEDICO FARMACEUTICA, LDA (503347345)","3.169,66 €",06-03-2018,27-02-2018,365 dias,"Portugal, Lisboa, Lisboa",Artigo 258.º do Código dos Contratos Públicos,,,,,,Não aplicável.,Não aplicável.,FALSE
