Objeto do Contrato,Tipo de Procedimento,Tipo(s) de Contrato,CPVs,Entidade(s) Adjudicante(s),Entidade(s) Adjudicatária(s),Preço Contratual,Data de Publicação,Data de Celebração do Contrato,Prazo de Execução,Local de Execução,Fundamentação,Data de Fecho do Contrato,Preço Total Efetivo,Causas das Alterações ao Prazo,Causas das Alterações ao Preço,Estado,N.º registo do Acordo Quadro,Descrição do Acordo Quadro,Procedimento Centralizado
Aquisição de cadeiras e vigas para a sala de espera do CS Barrancos,Ajuste Direto Regime Geral,Aquisição de bens móveis,"39112000-0, Cadeiras","Administração Regional de Saúde do Alentejo, IP (503148768)","Tripolo - Sol. Escritório Armazenagem, LDA (501264124)","510,00 €",10-01-2012,30-09-2011,15 dias,"Portugal, Beja, Barrancos","Artigo 26.º, n.º 1, alínea e) do Código dos Contratos Públicos",23-11-2011,"510,00 €",,,,Não aplicável.,Não aplicável.,
Aquisição de diverso mobiliário diverso para o Centro de Saúde de Barrancos,Ajuste Direto Regime Geral,Aquisição de bens móveis,"39100000-3, Mobiliário","Administração Regional de Saúde do Alentejo, IP (503148768)","Haworth Portugal Mob. Escritório, SA (500077622), Printalentejo - Reg. Consumíveis Inf., Lda (506662675), Speculum - Artigos Médicos, SA (502996323)","7.309,55 €",10-01-2012,20-09-2011,15 dias,"Portugal, Beja, Barrancos","Artigo 20.º, n.º 1, alínea a) do Código dos Contratos Públicos",26-10-2011,"7.309,55 €",,,,Não aplicável.,Não aplicável.,
Aquisição de Manuais  de suporte básico de vida,Ajuste Direto Regime Geral,Aquisição de bens móveis,"22100000-1, Livros, brochuras e folhetos impressos","Administração Regional de Saúde do Alentejo, IP (503148768)",Conselho Português de Ressuscitação (504020420),"360,00 €",10-01-2012,31-08-2011,66 dias,"Portugal, Évora, Évora",Artigo 258.º do Código dos Contratos Públicos,30-12-2011,"360,00 €",,,,Não aplicável.,Não aplicável.,
Aquisição de Selos Brancos,Ajuste Direto Regime Geral,Aquisição de bens móveis,"30000000-9, Máquinas, equipamento e material de escritório e de informática, excepto mobiliário e pacotes de programas (software)","Administração Regional de Saúde do Alentejo, IP (503148768)",I.N.C.M. (500792887),"6.480,00 €",10-01-2012,13-07-2011,66 dias,"Portugal, Évora, Évora",Artigo 258.º do Código dos Contratos Públicos,30-12-2011,"6.480,00 €",,,,Não aplicável.,Não aplicável.,
Aquisição de Consumiveis para as Unidades de saúde da ARSA,Ajuste Direto Regime Geral,Aquisição de bens móveis,"30000000-9, Máquinas, equipamento e material de escritório e de informática, excepto mobiliário e pacotes de programas (software)","Administração Regional de Saúde do Alentejo, IP (503148768)",maxone (507052609),"7.572,30 €",10-01-2012,25-05-2011,66 dias,"Portugal, Évora, Évora",Artigo 258.º do Código dos Contratos Públicos,30-12-2011,"7.572,30 €",,,,Não aplicável.,Não aplicável.,
"Aquisição de diverso equipamento básico para os novos Centros de Saúde Arraiolos, Vila Viçosa e Portel",Ajuste Direto Regime Geral,Aquisição de bens móveis,"33192000-2, Mobiliário para fins médicos","Administração Regional de Saúde do Alentejo, IP (503148768)","ELNOR (500094403), Speculum - Artigos Médicos, SA (502996323), Eugénio Pereira, Lda (503989525), Duekipa - Com. Equipamentos Hospitalares, Lda (508690102), Rocha Neves, Lda (500233691)","33.925,94 €",10-01-2012,21-12-2011,30 dias,"Portugal, Évora, Arraiolos<BR/>Portugal, Évora, Vila Viçosa<BR/>Portugal, Évora, Portel","Artigo 20.º, n.º 1, alínea a) do Código dos Contratos Públicos",26-01-2012,"33.925,94 €",,,,Não aplicável.,Não aplicável.,
"Aquisição de diverso mobiliário hospitalar para os novos Centros de Saúde de Arraiolos, Vila Viçosa e Portel",Ajuste Direto Regime Geral,Aquisição de bens móveis,"33192000-2, Mobiliário para fins médicos","Administração Regional de Saúde do Alentejo, IP (503148768)","Duekipa - Com. Equipamentos Hospitalares, Lda (508690102), SORISA - Estética e Fisioterapia, SA (500990441), Mundinter - Int. Mundial de Comércio, SA (500199906), EPJMédica - Art. Médicos e Hosp., Lda (506820513), Eugénio Pereira, Lda (503989525)","17.329,58 €",10-01-2012,21-12-2011,30 dias,"Portugal, Évora, Arraiolos<BR/>Portugal, Évora, Portel<BR/>Portugal, Évora, Vila Viçosa","Artigo 20.º, n.º 1, alínea a) do Código dos Contratos Públicos",26-01-2012,"17.329,58 €",,,,Não aplicável.,Não aplicável.,
Aquisição de Mobiliário Hospitalar para o novo Centro de Saúde de Redondo,Ajuste Direto Regime Geral,Aquisição de bens móveis,"33192000-2, Mobiliário para fins médicos","Administração Regional de Saúde do Alentejo, IP (503148768)","Eugénio Pereira (503989525), Mundinter (500199906), Anastácio Saldanha, Unipessoal, Ldª (505804441), Paramédica (501393005), Sorisa, S.A. (500990441)","12.352,55 €",10-01-2012,17-11-2011,15 dias,"Portugal, Évora, Redondo","Artigo 20.º, n.º 1, alínea a) do Código dos Contratos Públicos",26-12-2011,"12.352,55 €",,,,Não aplicável.,Não aplicável.,
Aquisição de Estantes,Ajuste Direto Regime Geral,Aquisição de bens móveis,"39000000-2, Mobiliário (incl. de escritório), acessórios, aparelhos domésticos (excl. iluminação) e produtos de limpeza","Administração Regional de Saúde do Alentejo, IP (503148768)",Tripolo (501264124),"3.350,00 €",10-01-2012,13-10-2011,66 dias,"Portugal, Évora, Évora",Artigo 258.º do Código dos Contratos Públicos,30-12-2011,"3.350,00 €",,,,Não aplicável.,Não aplicável.,
"Equipamento Médico para os Novos Centros de Saúde de Arraiolos, Portel e Vila Viçosa.",Ajuste Direto Regime Geral,Aquisição de bens móveis,"33100000-1, Equipamento médico","Administração Regional de Saúde do Alentejo, IP (503148768)","Sorisa (500990441), Mundinter, S.A (500199906), Medicinália (500189420), Eugénio Pereira (503989525), Paramédica (501393005), Bacelar & Irmão, Ldª (500532818), Anastácio Saldanha (505804441)","40.987,48 €",10-01-2012,17-11-2011,15 dias,"Portugal, Évora, Évora","Artigo 20.º, n.º 1, alínea a) do Código dos Contratos Públicos",26-12-2011,"40.987,48 €",,,,Não aplicável.,Não aplicável.,
Fornecimento e Instalação de Equipamento Médico para os Centros de Saúde de Barrancos e Redondo,Ajuste Direto Regime Geral,Aquisição de bens móveis,"33100000-1, Equipamento médico","Administração Regional de Saúde do Alentejo, IP (503148768)","Speculum, Ldª (502996323), Paramédica (501393005), Mundinter (500199906), Bacelar & Irmão, Ldª (500532818)","33.170,40 €",09-01-2012,07-12-2011,15 dias,"Portugal, Beja, Barrancos<BR/>Portugal, Évora, Redondo","Artigo 20.º, n.º 1, alínea a) do Código dos Contratos Públicos",26-02-2012,"33.170,40 €",,,,Não aplicável.,Não aplicável.,
Aquisição de Módulo Aplicacional para Gestão de Manutenção e Assistência Técnica - GHAF,Ajuste Direto Regime Geral,Aquisição de bens móveis,"48210000-3, Pacote de software para ligações em rede","Administração Regional de Saúde do Alentejo, IP (503148768)","ST+I - Serviços Técnicos de Informática, Ldª. (502246995)","23.257,00 €",06-01-2012,03-10-2011,5 dias,"Portugal, Évora, Évora","Artigo 20.º, n.º 1, alínea a) do Código dos Contratos Públicos",26-11-2011,"23.257,00 €",,,,Não aplicável.,Não aplicável.,
Contratação de Serviços para o Alojamento do Portal de Internet da ARSA,Ajuste Direto Regime Geral,Aquisição de serviços,"98341000-5, Serviços de alojamento","Administração Regional de Saúde do Alentejo, IP (503148768)","Agência de Desenvolvimento Regional do Alentejo, S.A. (504236091)","1.785,25 €",06-01-2012,06-12-2011,365 dias,"Portugal, Évora, Évora","Artigo 20.º, n.º 1, alínea a) do Código dos Contratos Públicos",26-01-2012,"1.785,25 €",,,,Não aplicável.,Não aplicável.,
Contrtação de Serviços para o Alojamento do Portal de Internet da ARSA.,Ajuste Direto Regime Geral,Aquisição de serviços,"98341000-5, Serviços de alojamento","Administração Regional de Saúde do Alentejo, IP (503148768)","Agência Desenvolvimento Regional do Alentejo, S.A. (504236091)","1.785,25 €",06-01-2012,06-12-2011,360 dias,"Portugal, Évora, Évora","Artigo 20.º, n.º 1, alínea a) do Código dos Contratos Públicos",26-01-2012,"1.785,25 €",,,,Não aplicável.,Não aplicável.,
Terminais de Voz para aplicativo Office Communicator,Ajuste Direto Regime Geral,Aquisição de bens móveis,"32250000-0, Telefones móveis","Administração Regional de Saúde do Alentejo, IP (503148768)",Novabit (503411302),"1.911,80 €",06-01-2012,24-11-2011,15 dias,"Portugal, Évora, Évora","Artigo 20.º, n.º 1, alínea a) do Código dos Contratos Públicos",26-12-2011,"1.911,80 €",,,,Não aplicável.,Não aplicável.,
