Objeto do Contrato,Tipo de Procedimento,Tipo(s) de Contrato,CPVs,Entidade(s) Adjudicante(s),Entidade(s) Adjudicatária(s),Preço Contratual,Data de Publicação,Data de Celebração do Contrato,Prazo de Execução,Local de Execução,Fundamentação,Data de Fecho do Contrato,Preço Total Efetivo,Causas das Alterações ao Prazo,Causas das Alterações ao Preço,Estado,N.º registo do Acordo Quadro,Descrição do Acordo Quadro,Procedimento Centralizado
Aquisição de serviços de coordenação para recolha de informação no âmbito do “Orphanet Standard Operating Procedures”,Ajuste Direto Regime Geral,Aquisição de serviços,"79900000-3, Serviços empresariais diversos e afins",Direção-Geral da Saúde (600037100),Rui Miguel Lopes Gonçalves (222380756),"9.600,00 €",03-03-2017,02-03-2017,365 dias,"Portugal, Lisboa","Artigo 20.º, n.º 1, alínea a) do Código dos Contratos Públicos",,,,,,Não aplicável.,Não aplicável.,FALSE
Aquisição de serviços de manutenção e assistência técnica para 3 impressoras multifuncionais a cores Ricoh para o ano 2017,Ajuste Direto Regime Geral,Aquisição de serviços,"72600000-6, Serviços de consultoria e assistência informáticas",Direção-Geral da Saúde (600037100),"RICOH PORTUGAL, Unipessoal, Lda. (508080975)","19.305,70 €",22-02-2017,13-02-2017,365 dias,"Portugal, Lisboa","Artigo 20.º, n.º 1, alínea a) do Código dos Contratos Públicos",,,,,,Não aplicável.,Não aplicável.,FALSE
