Objeto do Contrato,Tipo de Procedimento,Tipo(s) de Contrato,CPVs,Entidade(s) Adjudicante(s),Entidade(s) Adjudicatária(s),Preço Contratual,Data de Publicação,Data de Celebração do Contrato,Prazo de Execução,Local de Execução,Fundamentação,Data de Fecho do Contrato,Preço Total Efetivo,Causas das Alterações ao Prazo,Causas das Alterações ao Preço,Estado,N.º registo do Acordo Quadro,Descrição do Acordo Quadro,Procedimento Centralizado
Aluguer de máquinas de água,Ajuste Direto Regime Geral,Aquisição de serviços,"51510000-0, Serviços de instalação de máquinas e equipamento de uso geral",Serviço de Utilização Comum dos Hospitais (500900469),eden springs Portugal (501629190),"8.633,13 €",19-01-2018,19-01-2018,365 dias,Portugal,"Artigo 20.º, n.º 1, alínea a) do Código dos Contratos Públicos",,,,,,Não aplicável.,Não aplicável.,FALSE
elaboração de projeto de execução,Ajuste Direto Regime Geral,Aquisição de serviços,"71000000-8, Serviços de arquitectura, construção, engenharia e inspecção",Serviço de Utilização Comum dos Hospitais (500900469),"Ferraro Vaz - Engenharia,Lda (509712827)","5.800,00 €",15-01-2018,15-01-2018,30 dias,"Portugal, Lisboa, Lisboa","Artigo 20.º, n.º 1, alínea a) do Código dos Contratos Públicos",,,,,,Não aplicável.,Não aplicável.,FALSE
Serviços de engenharia e auditoria energética.,Ajuste Direto Regime Geral,Aquisição de serviços,"71314000-2, Serviços relacionados com a energia e afins",Serviço de Utilização Comum dos Hospitais (500900469),"CCenergia - Auditoria e Consultoria Energética, Lda (507144767)","69.000,00 €",11-01-2018,13-12-2017,16 dias,"Portugal, Região Autónoma da Madeira, Funchal","Artigo 20.º, n.º 1, alínea a) do Código dos Contratos Públicos",,,,,,Não aplicável.,Não aplicável.,FALSE
