Objeto do Contrato,Tipo de Procedimento,Tipo(s) de Contrato,CPVs,Entidade(s) Adjudicante(s),Entidade(s) Adjudicatária(s),Preço Contratual,Data de Publicação,Data de Celebração do Contrato,Prazo de Execução,Local de Execução,Fundamentação,Data de Fecho do Contrato,Preço Total Efetivo,Causas das Alterações ao Prazo,Causas das Alterações ao Preço,Estado,N.º registo do Acordo Quadro,Descrição do Acordo Quadro,Procedimento Centralizado
Aquisição de vacina contra pneumococo,Ao abrigo de acordo-quadro (art.º 259.º),Aquisição de bens móveis,"33650000-1, Anti-infecciosos gerais de uso sistémico, vacinas, antineoplásicos e imunomoduladores","Administração Regional de Saúde do Centro, I.P. (503122165)",Sanofi Pasteur MSD SA (507632796),"904,20 €",11-09-2013,08-08-2013,180 dias,"Portugal, Coimbra, Coimbra",Artigo 259.º do Código dos Contratos Públicos,"","",,"",,105573,"CP 2009/13 -Concurso Público para a celebração de contratos públicos de aprovisionamento para a área da saúde com vista ao  fornecimento de vacinas e tuberculinas às Instituições e Serviços do Serviço Nacional de Saúde, e Regiões Autónomas",
Aquisição de testes VIH1 e VIH2,Ao abrigo de acordo-quadro (art.º 259.º),Aquisição de bens móveis,"33694000-1, Meios de diagnóstico","Administração Regional de Saúde do Centro, I.P. (503122165)",BIO RAD (501301321),"9.152,73 €",11-09-2013,09-05-2013,180 dias,"Portugal, Coimbra, Coimbra",Artigo 259.º do Código dos Contratos Públicos,"","",,"",,601981,"CONCURSO PÚBLICO PARA A CELEBRAÇÃO DE CONTRATOS PÚBLICOS DE APROVISIONAMENTO PARA A ÁREA DA SAÚDE, COM VISTA AO FORNECIMENTO DE MEDICAMENTOS DE CONSUMO GERAL - APARELHO GENITURINÁRIO ÀS INSTITUIÇÕES E SERVIÇOS DO SERVIÇO NACIONAL DE SAÚDE",
Aquisição de medicamentos,Ao abrigo de acordo-quadro (art.º 259.º),Aquisição de bens móveis,"33690000-3, Medicamentos vários","Administração Regional de Saúde do Centro, I.P. (503122165)","Laboratorios Pfizer,Lda (500162166)","621,60 €",11-09-2013,19-06-2013,180 dias,"Portugal, Coimbra, Coimbra",Artigo 259.º do Código dos Contratos Públicos,"","",,"",,457668,"CONCURSO PÚBLICO PARA A CELEBRAÇÃO DE CONTRATOS PÚBLICOS DE APROVISIONAMENTO PARA A ÁREA DA SAÚDE, COM VISTA AO FORNECIMENTO DE MEDICAMENTOS ANTI-INFECIOSOS: EXCETO ANTIVÍRICOS E ANTUFÚNGICOS, ÀS INSTITUIÇÕES E SERVIÇOS DO SERVIÇO NACIONAL DE SAÚDE",
Aquisição de testes VIH1 e VIH2,Ao abrigo de acordo-quadro (art.º 259.º),Aquisição de bens móveis,"33640000-8, Medicamentos para o aparelho geniturinário e hormonas","Administração Regional de Saúde do Centro, I.P. (503122165)",Biomerieux (501524177),"1.842,50 €",11-09-2013,24-05-2013,180 dias,"Portugal, Coimbra, Coimbra",Artigo 259.º do Código dos Contratos Públicos,"","",,"",,601981,"CONCURSO PÚBLICO PARA A CELEBRAÇÃO DE CONTRATOS PÚBLICOS DE APROVISIONAMENTO PARA A ÁREA DA SAÚDE, COM VISTA AO FORNECIMENTO DE MEDICAMENTOS DE CONSUMO GERAL - APARELHO GENITURINÁRIO ÀS INSTITUIÇÕES E SERVIÇOS DO SERVIÇO NACIONAL DE SAÚDE",
Aquisição de vacina anti-meningococa,Ao abrigo de acordo-quadro (art.º 259.º),Aquisição de bens móveis,"33650000-1, Anti-infecciosos gerais de uso sistémico, vacinas, antineoplásicos e imunomoduladores","Administração Regional de Saúde do Centro, I.P. (503122165)",Novartis Farma (500063524),"11.226,00 €",11-09-2013,11-04-2013,180 dias,"Portugal, Coimbra, Coimbra",Artigo 259.º do Código dos Contratos Públicos,"","",,"",,105573,"CP 2009/13 -Concurso Público para a celebração de contratos públicos de aprovisionamento para a área da saúde com vista ao  fornecimento de vacinas e tuberculinas às Instituições e Serviços do Serviço Nacional de Saúde, e Regiões Autónomas",
Aquisição de medicamentos,Ao abrigo de acordo-quadro (art.º 259.º),Aquisição de bens móveis,"33670000-7, Medicamentos para o aparelho respiratório","Administração Regional de Saúde do Centro, I.P. (503122165)",Unilfarma União Internacional Laboratórios Farmaceuticos Lda (500293023),"1.800,00 €",11-09-2013,12-08-2013,180 dias,"Portugal, Coimbra, Coimbra",Artigo 259.º do Código dos Contratos Públicos,"","",,"",,469931,CP 2012/12 - Medicamentos do Aparelho Respiratório,
Aquisição de medicamentos,Ao abrigo de acordo-quadro (art.º 259.º),Aquisição de bens móveis,"33690000-3, Medicamentos vários","Administração Regional de Saúde do Centro, I.P. (503122165)","Laboratorios pfizer,Lda (500162166)","3.196,80 €",11-09-2013,12-08-2013,180 dias,"Portugal, Coimbra, Coimbra",Artigo 259.º do Código dos Contratos Públicos,"","",,"",,457668,"CONCURSO PÚBLICO PARA A CELEBRAÇÃO DE CONTRATOS PÚBLICOS DE APROVISIONAMENTO PARA A ÁREA DA SAÚDE, COM VISTA AO FORNECIMENTO DE MEDICAMENTOS ANTI-INFECIOSOS: EXCETO ANTIVÍRICOS E ANTUFÚNGICOS, ÀS INSTITUIÇÕES E SERVIÇOS DO SERVIÇO NACIONAL DE SAÚDE",
Aquisição de medicamentos,Ao abrigo de acordo-quadro (art.º 259.º),Aquisição de bens móveis,"33690000-3, Medicamentos vários","Administração Regional de Saúde do Centro, I.P. (503122165)",Sanofi-produtos farmaceuticos (500134960),"7.390,00 €",11-09-2013,08-08-2013,180 dias,"Portugal, Coimbra, Coimbra",Artigo 259.º do Código dos Contratos Públicos,"","",,"",,457668,"CONCURSO PÚBLICO PARA A CELEBRAÇÃO DE CONTRATOS PÚBLICOS DE APROVISIONAMENTO PARA A ÁREA DA SAÚDE, COM VISTA AO FORNECIMENTO DE MEDICAMENTOS ANTI-INFECIOSOS: EXCETO ANTIVÍRICOS E ANTUFÚNGICOS, ÀS INSTITUIÇÕES E SERVIÇOS DO SERVIÇO NACIONAL DE SAÚDE",
Aquisição de medicamentos,Ao abrigo de acordo-quadro (art.º 259.º),Aquisição de bens móveis,"33670000-7, Medicamentos para o aparelho respiratório","Administração Regional de Saúde do Centro, I.P. (503122165)",GlaxoSmithKline (500139962),"300,00 €",11-09-2013,11-09-2013,30 dias,"Portugal, Coimbra, Coimbra",Artigo 259.º do Código dos Contratos Públicos,"","",,"",,469931,CP 2012/12 - Medicamentos do Aparelho Respiratório,
Material de consumo clínico para ceder/fornecer a doentes portadores de paramiloidose,Ajuste Direto Regime Geral,Aquisição de bens móveis,"39512300-7, Resguardos para colchões","ADMINISTRAÇÃO REGIONAL DE SAÚDE DO CENTRO, I. P. (503122165)","Indas Portugal, Lda (503505196)","607,50 €",11-09-2013,10-09-2013,30 dias,"Portugal, Coimbra, Figueira da Foz","Artigo 20.º, n.º 1, alínea a) do Código dos Contratos Públicos",18-09-2013,"585,00 €",,Artigo fornecido em caixas com 150 unidades,,Não aplicável.,Não aplicável.,
Material de consumo clínico para ceder/fornecer a doentes portadores de paramiloidose,Ajuste Direto Regime Geral,Aquisição de bens móveis,"33751000-9, Fraldas descartáveis","ADMINISTRAÇÃO REGIONAL DE SAÚDE DO CENTRO, I. P. (503122165)","SCA - Higiene Products, Lda (503237612)","3.731,70 €",11-09-2013,10-09-2013,30 dias,"Portugal, Coimbra, Figueira da Foz","Artigo 20.º, n.º 1, alínea a) do Código dos Contratos Públicos",18-09-2013,"3.731,70 €",,"",,Não aplicável.,Não aplicável.,
Material de consumo clínico para ceder/fornecer a doentes portadores de paramiloidose,Ajuste Direto Regime Geral,Aquisição de bens móveis,"33141641-5, Sondas","ADMINISTRAÇÃO REGIONAL DE SAÚDE DO CENTRO, I. P. (503122165)","B. Braun Medical, Lda (501506543)","6.480,00 €",11-09-2013,10-09-2013,30 dias,"Portugal, Coimbra, Figueira da Foz","Artigo 20.º, n.º 1, alínea a) do Código dos Contratos Públicos",18-09-2013,"6.480,00 €",,"",,Não aplicável.,Não aplicável.,
Aquisição de reagente p/exame sumario de urina,Ajuste Direto Regime Geral,Aquisição de bens móveis,"33694000-1, Meios de diagnóstico","Administração Regional de Saúde do Centro, I.P. (503122165)",iberlab (503406694),"9.900,00 €",10-09-2013,08-08-2013,180 dias,"Portugal, Coimbra, Coimbra","Artigo 20.º, n.º 1, alínea a) do Código dos Contratos Públicos","","",,"",,Não aplicável.,Não aplicável.,
Aquisição de vacina pneumococica poliosidica conjugada,Ajuste Direto Regime Geral,Aquisição de bens móveis,"33650000-1, Anti-infecciosos gerais de uso sistémico, vacinas, antineoplásicos e imunomoduladores","Administração Regional de Saúde do Centro, I.P. (503122165)","Laboratorios Pfizer,Lda (500162166)","3.659,20 €",10-09-2013,24-06-2013,3 dias,"Portugal, Coimbra, Coimbra","Artigo 24.º, n.º 1, alínea e) do Código dos Contratos Públicos","","",,"",,Não aplicável.,Não aplicável.,
Remodelação das Instalações Sanitárias do Centro de Saúde de Vila Nova de Poiares,Ajuste Direto Regime Geral,Aquisição de serviços,"50000000-5, Serviços de reparação e manutenção","Administração Regional de Saúde do Centro, I.P. (503122165)","Construções A. Martins Rodrigues, Lda (501630910)","9.904,44 €",10-09-2013,10-09-2013,60 dias,"Portugal, Coimbra, Coimbra","Artigo 20.º, n.º 1, alínea a) do Código dos Contratos Públicos","","",,"",,Não aplicável.,Não aplicável.,
Aquisição de reagente para determinação do tempo de protrombina,Ajuste Direto Regime Geral,Aquisição de bens móveis,"33000000-0, Equipamento médico, medicamentos e produtos para cuidados pessoais","Administração Regional de Saúde do Centro, I.P. (503122165)","Roche Sistemas de Diagnóstico,Lda (504282921)","138.760,80 €",09-09-2013,09-08-2013,180 dias,"Portugal, Coimbra, Coimbra","Artigo 24.º, n.º 1, alínea e) do Código dos Contratos Públicos","","",,"",,Não aplicável.,Não aplicável.,
Proc. 12700136 - Aquisição de equipamento médico para doentes portadores de paramiloidose,Ajuste Direto Regime Geral,Aquisição de bens móveis,"33100000-1, Equipamento médico","ADMINISTRAÇÃO REGIONAL DE SAÚDE DO CENTRO, I. P. (503122165)","NeuroWave - Unipessoal, Lda (508537150)","688,46 €",06-09-2013,14-06-2013,30 dias,"Portugal, Coimbra, Figueira da Foz","Artigo 20.º, n.º 1, alínea a) do Código dos Contratos Públicos","","",,"",,Não aplicável.,Não aplicável.,
Proc. 12700136 - Aquisição de equipamento médico para doentes portadores de paramiloidose,Ajuste Direto Regime Geral,Aquisição de bens móveis,"33100000-1, Equipamento médico","ADMINISTRAÇÃO REGIONAL DE SAÚDE DO CENTRO, I. P. (503122165)","EPJMédica - Artigos Médicos e Hospitalares, Lda (506820513)","449,60 €",06-09-2013,18-06-2013,30 dias,"Portugal, Coimbra, Figueira da Foz","Artigo 20.º, n.º 1, alínea a) do Código dos Contratos Públicos","","",,"",,Não aplicável.,Não aplicável.,
Proc. 12700136 - Aquisição de equipamento médico para doentes portadores de paramiloidose,Ajuste Direto Regime Geral,Aquisição de bens móveis,"33100000-1, Equipamento médico","ADMINISTRAÇÃO REGIONAL DE SAÚDE DO CENTRO, I. P. (503122165)","Eugénio Pereira, Lda (503989525)","1.360,00 €",06-09-2013,18-06-2013,30 dias,"Portugal, Coimbra, Figueira da Foz","Artigo 20.º, n.º 1, alínea a) do Código dos Contratos Públicos","","",,"",,Não aplicável.,Não aplicável.,
Aquisição de medicamentos,Ao abrigo de acordo-quadro (art.º 259.º),Aquisição de bens móveis,"33000000-0, Equipamento médico, medicamentos e produtos para cuidados pessoais","Administração Regional de Saúde do Centro, I.P. (503122165)","FARMOZ-SOCIEDADE TÉCNICO MEDICINAL, SA (501505334)","790,40 €",05-09-2013,16-08-2013,120 dias,"Portugal, Coimbra, Coimbra",Artigo 259.º do Código dos Contratos Públicos,"","",,"",,457668,"CONCURSO PÚBLICO PARA A CELEBRAÇÃO DE CONTRATOS PÚBLICOS DE APROVISIONAMENTO PARA A ÁREA DA SAÚDE, COM VISTA AO FORNECIMENTO DE MEDICAMENTOS ANTI-INFECIOSOS: EXCETO ANTIVÍRICOS E ANTUFÚNGICOS, ÀS INSTITUIÇÕES E SERVIÇOS DO SERVIÇO NACIONAL DE SAÚDE",
Mobiliário de escritório para a USF Cidade do Lis,Ao abrigo de acordo-quadro (art.º 259.º),Aquisição de bens móveis,"39000000-2, Mobiliário (incl. de escritório), acessórios, aparelhos domésticos (excl. iluminação) e produtos de limpeza","Administração Regional de Saúde do Centro, I.P. (503122165)","Julcar Mobiliário Integrado, SA (501140263)","3.316,00 €",02-09-2013,02-09-2013,30 dias,"Portugal, Leiria, Leiria",Artigo 259.º do Código dos Contratos Públicos,"","",,"",,600257,Concurso limitado por prévia qualificação para a celebração de Acordo Quadro para o fornecimento de bens de  mobiliário.,
