Objeto do Contrato,Tipo de Procedimento,Tipo(s) de Contrato,CPVs,Entidade(s) Adjudicante(s),Entidade(s) Adjudicatária(s),Preço Contratual,Data de Publicação,Data de Celebração do Contrato,Prazo de Execução,Local de Execução,Fundamentação,Data de Fecho do Contrato,Preço Total Efetivo,Causas das Alterações ao Prazo,Causas das Alterações ao Preço,Estado,N.º registo do Acordo Quadro,Descrição do Acordo Quadro,Procedimento Centralizado
"Contrato de Manutenção do Irradiador de Componentes Sanguíneos do Serviço de Imunohemoterapia e aos equipamentos de marca """"Microm"""" da Unidade de Autópsias e Anatomia Patológica do CHSJ",Ajuste Direto Regime Geral,Aquisição de serviços,"50000000-5, Serviços de reparação e manutenção","Centro Hospitalar de São João, E. P. E. (509821197)",Grupo Taper (506886336),"9.513,94 €",20-09-2016,12-09-2016,365 dias,"Portugal, Porto, Porto","Artigo 24.º, n.º 1, alínea e) do Código dos Contratos Públicos",,,,,,Não aplicável.,Não aplicável.,FALSE
"Contrato de Assistência Técnica ao Software """"PACS-SECTRA"""" do CHSJ, EPE",Ajuste Direto Regime Geral,Aquisição de serviços,"50000000-5, Serviços de reparação e manutenção","Centro Hospitalar de São João, E. P. E. (509821197)","Art Ces Unipessoal, Lda (513270396)","150.046,00 €",15-09-2016,16-08-2016,365 dias,"Portugal, Porto, Porto","Artigo 24.º, n.º 1, alínea e) do Código dos Contratos Públicos",,,,,,Não aplicável.,Não aplicável.,FALSE
"Serviços de Limpeza para o Centro Hospitalar de S. João, E.P.E.",Ajuste Direto Regime Geral,Aquisição de serviços,"90910000-9, Serviços de limpeza","Centro Hospitalar de São João, E. P. E. (509821197)","CLECE, S.A. (513789995)","1.962.745,08 €",15-09-2016,06-07-2016,178 dias,"Portugal, Porto, Porto","Artigo 27.º, n.º 1, alínea a) do Código dos Contratos Públicos",,,,,,Não aplicável.,Não aplicável.,FALSE
"Adenda ao Contrato - Aquisição de Serviços de Vigilância para o Centro Hospitalar de S. João, E.P.E.",Ao abrigo de acordo-quadro (art.º 259.º),Aquisição de serviços,"79714000-2, Serviços de vigilância","Centro Hospitalar de São João, E. P. E. (509821197)","Strong - Segurança, S.A. (503257567)","220.454,54 €",15-09-2016,27-10-2015,132 dias,"Portugal, Porto, Porto",Artigo 259.º do Código dos Contratos Públicos,,,,,,613183,Acordo quadro para a prestação de serviços de vigilância e segurança,FALSE
"Aquisição de Serviços de Vigilância para o Centro Hospitalar de S. João, E.P.E.",Ao abrigo de acordo-quadro (art.º 259.º),Aquisição de serviços,"79714000-2, Serviços de vigilância","Centro Hospitalar de São João, E. P. E. (509821197)","Strong - Segurança, S.A. (503257567)","213.224,82 €",15-09-2016,21-08-2016,132 dias,"Portugal, Porto, Porto",Artigo 259.º do Código dos Contratos Públicos,,,,,,613183,Acordo quadro para a prestação de serviços de vigilância e segurança,FALSE
"Aquisição de Kits de Colheita de Componentes do Sangue por Aférese para o Centro Hospitalar de S. João, E.P.E.",Concurso público,Aquisição de bens móveis,"33141613-0, Sacos para sangue","Centro Hospitalar de São João, E. P. E. (509821197)","Fresenius Kabi Pharma Portugal, Lda (504293753)","189.795,00 €",15-09-2016,20-04-2016,255 dias,"Portugal, Porto, Porto","Artigo 20.º, n.º 1, alínea b) do Código dos Contratos Públicos",,,,,,Não aplicável.,Não aplicável.,FALSE
"Elétrodos Intracranianos para o Centro Hospitalar de S. João, E.P.E.",Concurso público,Aquisição de bens móveis,"33169000-2, Material cirúrgico","Centro Hospitalar de São João, E. P. E. (509821197)","Neural - Artigos e Equipamentos Médicos, Lda. (502911212)","27.909,80 €",14-09-2016,17-06-2016,197 dias,"Portugal, Porto, Porto","Artigo 20.º, n.º 1, alínea b) do Código dos Contratos Públicos",,,,,,Não aplicável.,Não aplicável.,FALSE
"Mantas de Aquecimento com Colocação de Equipamentos ao Centro Hospitalar de S. João, E.P.E. ",Ajuste Direto Regime Geral,Aquisição de bens móveis,"33140000-3, Material médico de consumo","Centro Hospitalar de São João, E. P. E. (509821197)","3M Portugal, Lda. (500193940)","25.262,67 €",14-09-2016,21-06-2016,193 dias,"Portugal, Porto, Porto","Artigo 20.º, n.º 1, alínea a) do Código dos Contratos Públicos",,,,,,Não aplicável.,Não aplicável.,FALSE
"Serviços de Controlos de Qualidade Externos para o Centro Hospitalar de S. João, E.P.E.",Concurso público,Aquisição de serviços,"71900000-7, Serviços laboratoriais","Centro Hospitalar de São João, E. P. E. (509821197)","Bioportugal - Químico Farmacêutica, Lda. (502380543), Biognóstica - Distribuíção de Produtos e Equipamentos Técnicos, Lda. (504441256)","46.457,00 €",14-09-2016,13-06-2016,201 dias,"Portugal, Porto, Porto","Artigo 20.º, n.º 1, alínea b) do Código dos Contratos Públicos",,,,,,Não aplicável.,Não aplicável.,FALSE
"Radiofármacos para o Serviço de Medicina Nuclear do Centro Hospitalar de S. João, E.P.E.",Concurso público,Aquisição de bens móveis,"24300000-7, Produtos químicos orgânicos e inorgânicos de base","Centro Hospitalar de São João, E. P. E. (509821197)","Ekrior,Lda. (508115175), Isótopos e Derivados (Isoder), S.A. (502241594)","501.007,23 €",14-09-2016,07-06-2016,207 dias,"Portugal, Porto, Porto","Artigo 20.º, n.º 1, alínea b) do Código dos Contratos Públicos",,,,,,Não aplicável.,Não aplicável.,FALSE
"Tiras de Glicemia para o Centro Hospitalar de S. João, E.PE.",Ajuste Direto Regime Geral,Aquisição de bens móveis,"33696200-7, Reagentes para análises ao sangue","Centro Hospitalar São João, EPE (509821197)","Abbot Laboratórios, Lda. (500006148)","66.820,00 €",14-09-2016,16-03-2016,290 dias,"Portugal, Porto, Porto","Artigo 20.º, n.º 1, alínea a) do Código dos Contratos Públicos",,,,,,Não aplicável.,Não aplicável.,FALSE
"Linezolida 600mg/300ml IV para o Centro Hospitalar de S. João, E.P.E.",Ajuste Direto Regime Geral,Aquisição de bens móveis,"33600000-6, Produtos farmacêuticos","Centro Hospitalar São João, EPE (509821197)","Laboratórios Pfizer, Lda. (500162166)","52.909,92 €",14-09-2016,21-03-2016,285 dias,"Portugal, Porto, Porto","Artigo 20.º, n.º 1, alínea a) do Código dos Contratos Públicos",,,,,,Não aplicável.,Não aplicável.,FALSE
"Packs para Injeções Intra Vítreas para o Centro Hospitalar de S. João, E.P.E.",Ajuste Direto Regime Geral,Aquisição de bens móveis,"33141000-0, Material médico não químico descartável e produtos hematológicos","Centro Hospitalar de São João, E. P. E. (509821197)","Lineamédica Dispositivos Médico Cirúrgicos, S.A. (505148676)","31.320,00 €",14-09-2016,12-01-2016,354 dias,"Portugal, Porto, Porto","Artigo 20.º, n.º 1, alínea a) do Código dos Contratos Públicos",,,,,,Não aplicável.,Não aplicável.,FALSE
"Oxigenadores para ECMO para o Centro Hospitalar de S. João, E.P.E.",Ajuste Direto Regime Geral,Aquisição de bens móveis,"33186100-8, Oxigenador","Centro Hospitalar de São João, E. P. E. (509821197)","Maquet Portugal, Lda. (506819698)","27.500,00 €",14-09-2016,06-01-2016,360 dias,"Portugal, Porto, Porto","Artigo 24.º, n.º 1, alínea e) do Código dos Contratos Públicos",,,,,,Não aplicável.,Não aplicável.,FALSE
"Serviços de Lavandaria para o Fardamento próprio dos Blocos Operatórios do Centro Hospitalar de S. João, E.P.E.",Ajuste Direto Regime Geral,Aquisição de serviços,"98311000-6, Serviços de recolha de roupa por lavandarias","Centro Hospitalar de São João, E. P. E. (509821197)","SNL Ibérica, Sociedade de Lavandarias, Lda. (509235689)","70.200,00 €",14-09-2016,12-01-2016,354 dias,"Portugal, Porto, Porto","Artigo 20.º, n.º 1, alínea a) do Código dos Contratos Públicos",,,,,,Não aplicável.,Não aplicável.,FALSE
"Colistimetato Sódio 1000000 U.I. Pó Sol. Inal. Neb. FR para o Centro Hospitalar de S. João, E.P.E. (CHSJ, E.P.E.)",Ajuste Direto Regime Geral,Aquisição de bens móveis,"33600000-6, Produtos farmacêuticos","Centro Hospitalar de São João, E. P. E. (509821197)","Zambon - Produtos Farmacêuticos, Lda. (502155930)","64.000,00 €",14-09-2016,11-01-2016,355 dias,"Portugal, Porto, Porto","Artigo 20.º, n.º 1, alínea a) do Código dos Contratos Públicos",,,,,,Não aplicável.,Não aplicável.,FALSE
Atosibano 37.5mg Sol Inj Fr IV e Atosibano 6.75mg Sol Inj Fr IV,Ajuste Direto Regime Geral,Aquisição de bens móveis,"33641200-7, Outros medicamentos ginecológicos","Centro Hospitalar de São João, E. P. E. (509821197)","Laboratórios Normon, S.A. (505654156)","15.816,00 €",13-09-2016,15-01-2016,351 dias,"Portugal, Porto, Porto","Artigo 20.º, n.º 1, alínea a) do Código dos Contratos Públicos",,,,,,Não aplicável.,Não aplicável.,FALSE
"aquisição de material de manutenção e conservação para a UGEM do CHSJ, EPE",Ajuste Direto Regime Geral,Aquisição de bens móveis,"39290000-1, Acessórios diversos","Centro Hospitalar de São João, E. P. E. (509821197)","SANO-TECNICA,LDA. (500239819)","23.823,00 €",13-09-2016,02-08-2016,30 dias,"Portugal, Porto, Porto","Artigo 24.º, n.º 1, alínea e) do Código dos Contratos Públicos",,,,,,Não aplicável.,Não aplicável.,FALSE
aquisição de material eletrico,Ajuste Direto Regime Geral,Aquisição de bens móveis,"31680000-6, Aparelhos e acessórios eléctricos","Centro Hospitalar de São João, E. P. E. (509821197)",A ELETRIFICADORA (500001529),"10.562,00 €",13-09-2016,03-08-2016,30 dias,"Portugal, Porto, Porto","Artigo 20.º, n.º 1, alínea a) do Código dos Contratos Públicos",,,,,,Não aplicável.,Não aplicável.,FALSE
"Aquisição de filtros tomada de vácuo e ar para o SIE  do CHSJ,EPE",Ajuste Direto Regime Geral,Aquisição de bens móveis,"42514310-8, Filtros de ar","Centro Hospitalar de São João, E. P. E. (509821197)",air liquide medicinal  (501576436),"17.850,00 €",12-09-2016,11-08-2016,30 dias,"Portugal, Porto, Porto","Artigo 20.º, n.º 1, alínea a) do Código dos Contratos Públicos",,,,,,Não aplicável.,Não aplicável.,FALSE
