Objeto do Contrato,Tipo de Procedimento,Tipo(s) de Contrato,CPVs,Entidade(s) Adjudicante(s),Entidade(s) Adjudicatária(s),Preço Contratual,Data de Publicação,Data de Celebração do Contrato,Prazo de Execução,Local de Execução,Fundamentação,Data de Fecho do Contrato,Preço Total Efetivo,Causas das Alterações ao Prazo,Causas das Alterações ao Preço,Estado,N.º registo do Acordo Quadro,Descrição do Acordo Quadro,Procedimento Centralizado
Aquisição de: ANAGRELIDA 0.5 MG CÁPS,Ajuste Direto Regime Geral,Aquisição de bens móveis,"33000000-0, Equipamento médico, medicamentos e produtos para cuidados pessoais","Centro Hospitalar e Universitário de Coimbra, E.P.E. (510103448)","Shire Pharmaceuticals Portugal, Lda (159316200)","22.971,30 €",21-08-2013,20-06-2013,365 dias,"Portugal, Coimbra, Coimbra","Artigo 24.º, n.º 1, alínea e) do Código dos Contratos Públicos",31-12-2013,"22.971,30 €",,"",,Não aplicável.,Não aplicável.,
Aquisição de: IOBENGUANO (123I) 111 MBQ SOL INJ,Ajuste Direto Regime Geral,Aquisição de bens móveis,"33698000-9, Produtos para fins clínicos","Centro Hospitalar e Universitário de Coimbra, E.P. (510103448)","Satis, Lda (500098140)","17.313,40 €",21-08-2013,28-06-2013,365 dias,"Portugal, Coimbra, Coimbra","Artigo 24.º, n.º 1, alínea e) do Código dos Contratos Públicos",31-12-2013,"17.313,40 €",,"",,Não aplicável.,Não aplicável.,
Aquisição de: TECNÉCIO (99MTC) EXAMETAZIMA ESTABILIZADA PÓ SOL INJ,Ajuste Direto Regime Geral,Aquisição de bens móveis,"33698000-9, Produtos para fins clínicos","Centro Hospitalar e Universitário de Coimbra, E.P. (510103448)","Satis, Lda (500098140)","54.450,00 €",21-08-2013,28-06-2013,365 dias,"Portugal, Coimbra, Coimbra","Artigo 24.º, n.º 1, alínea a) do Código dos Contratos Públicos",31-12-2013,"54.450,00 €",,"",,Não aplicável.,Não aplicável.,
Aquisição de: TERIPARATIDA 0.25 MG/ML SOL INJ CANETA 2.4 ML SC,Ajuste Direto Regime Geral,Aquisição de bens móveis,"33698000-9, Produtos para fins clínicos","Centro Hospitalar e Universitário de Coimbra, E.P. (510103448)","Lilly portugal, Produtos Farmacêuticos, Lda (500165602)","16.590,50 €",21-08-2013,07-06-2013,365 dias,"Portugal, Coimbra, Coimbra","Artigo 24.º, n.º 1, alínea e) do Código dos Contratos Públicos",31-12-2013,"16.590,50 €",,"",,Não aplicável.,Não aplicável.,
Aquisição de: CRISANTASPASE 10000 U.I. PÓ SOL INJ FR IM IV SC,Ajuste Direto Regime Geral,Aquisição de bens móveis,"33698000-9, Produtos para fins clínicos","Centro Hospitalar e Universitário de Coimbra, E.P. (510103448)",Eusapharma (980376580),"121.600,00 €",21-08-2013,30-05-2013,365 dias,"Portugal, Coimbra, Coimbra","Artigo 24.º, n.º 1, alínea e) do Código dos Contratos Públicos",31-12-2013,"155.800,00 €",,Devido ao acréscimo elevado do número de doentes,,Não aplicável.,Não aplicável.,
Aquisição de: SOLUCAO ISOTONICA EAGLE COM GENTAMICINA,Ajuste Direto Regime Geral,Aquisição de bens móveis,"33698000-9, Produtos para fins clínicos","Centro Hospitalar e Universitário de Coimbra, E.P. (510103448)",Oftaldata - Produtos para Oftalmologia (504887459),"11.040,00 €",21-08-2013,26-06-2013,365 dias,"Portugal, Coimbra, Coimbra","Artigo 20.º, n.º 1, alínea a) do Código dos Contratos Públicos",31-12-2013,"11.040,00 €",,"",,Não aplicável.,Não aplicável.,
Aquisição de: capsaina 179mg adesivo cut,Ajuste Direto Regime Geral,Aquisição de bens móveis,"33698000-9, Produtos para fins clínicos","Centro Hospitalar e Universitário de Coimbra, E.P. (510103448)","Astellas Farma, Lda (502540249)","13.256,40 €",21-08-2013,25-06-2013,365 dias,"Portugal, Coimbra, Coimbra","Artigo 24.º, n.º 1, alínea e) do Código dos Contratos Públicos",31-12-2013,"13.256,40 €",,"",,Não aplicável.,Não aplicável.,
5420604/2013 - OATEOSSINTESE,Ajuste Direto Regime Geral,Aquisição de bens móveis,"33000000-0, Equipamento médico, medicamentos e produtos para cuidados pessoais","Centro Hospitalar e Universitário de Coimbra, E.P.E. (510103448)",SYNTHES (501212191),"1.759,61 €",20-08-2013,25-07-2013,20 dias,"Portugal, Coimbra, Coimbra","Artigo 24.º, n.º 1, alínea e) do Código dos Contratos Públicos","","",,"",,Não aplicável.,Não aplicável.,
Aquisição de: Reagentes para controlode qualidade externo,Ajuste Direto Regime Geral,Aquisição de bens móveis,"33000000-0, Equipamento médico, medicamentos e produtos para cuidados pessoais","Centro Hospitalar e Universitário de Coimbra, E.P.E. (510103448)","Biognóstica - Distribuição de Produtos e Equipamentos Técnicos, Lda (504441256)","9.563,00 €",20-08-2013,23-04-2013,365 dias,"Portugal, Coimbra, Coimbra","Artigo 26.º, n.º 1, alínea a) do Código dos Contratos Públicos","","",,"",,Não aplicável.,Não aplicável.,
5420551/2013 - HASTE DE REVISAO,Ajuste Direto Regime Geral,Aquisição de bens móveis,"33000000-0, Equipamento médico, medicamentos e produtos para cuidados pessoais","Centro Hospitalar e Universitário de Coimbra, E.P.E. (510103448)",BIOMET (500254990),"2.400,00 €",20-08-2013,25-07-2013,20 dias,"Portugal, Coimbra, Coimbra","Artigo 24.º, n.º 1, alínea e) do Código dos Contratos Públicos","","",,"",,Não aplicável.,Não aplicável.,
Aquisição de: PALONOSSETROM 0.25 MG/5 ML SOL INJ FR 5 ML IV,Ajuste Direto Regime Geral,Aquisição de bens móveis,"33698000-9, Produtos para fins clínicos","Centro Hospitalar e Universitário de Coimbra, E.P. (510103448)",Lusomedicamenta (507150473),"39.318,00 €",20-08-2013,04-06-2013,365 dias,"Portugal, Coimbra, Coimbra","Artigo 24.º, n.º 1, alínea e) do Código dos Contratos Públicos",31-12-2013,"39.318,00 €",,"",,Não aplicável.,Não aplicável.,
5420603/2013 - OSTEOSSINTESE,Ajuste Direto Regime Geral,Aquisição de bens móveis,"33000000-0, Equipamento médico, medicamentos e produtos para cuidados pessoais","Centro Hospitalar e Universitário de Coimbra, E.P.E. (510103448)",SYNTHES (501212191),"2.693,63 €",20-08-2013,25-07-2013,10 dias,"Portugal, Coimbra, Coimbra","Artigo 24.º, n.º 1, alínea e) do Código dos Contratos Públicos","","",,"",,Não aplicável.,Não aplicável.,
5420597/2013 - PROTESES UNIPOLARES,Ajuste Direto Regime Geral,Aquisição de bens móveis,"33000000-0, Equipamento médico, medicamentos e produtos para cuidados pessoais","Centro Hospitalar e Universitário de Coimbra, E.P.E. (510103448)",SMITH & NEPHEW (503552461),"1.703,00 €",20-08-2013,25-07-2013,20 dias,"Portugal, Coimbra, Coimbra","Artigo 24.º, n.º 1, alínea e) do Código dos Contratos Públicos","","",,"",,Não aplicável.,Não aplicável.,
5420542/2013 - OSTEOSSINTESE,Ajuste Direto Regime Geral,Aquisição de bens móveis,"33000000-0, Equipamento médico, medicamentos e produtos para cuidados pessoais","Centro Hospitalar e Universitário de Coimbra, E.P.E. (510103448)",SYNTHES (501212191),"2.096,82 €",20-08-2013,14-07-2013,20 dias,"Portugal, Coimbra, Coimbra","Artigo 24.º, n.º 1, alínea e) do Código dos Contratos Públicos","","",,"",,Não aplicável.,Não aplicável.,
5420406/2013 - HASTE DE REVISAO,Ajuste Direto Regime Geral,Aquisição de bens móveis,"33000000-0, Equipamento médico, medicamentos e produtos para cuidados pessoais","Centro Hospitalar e Universitário de Coimbra, E.P.E. (510103448)",BIOMET (500254990),"3.600,00 €",20-08-2013,14-07-2013,20 dias,"Portugal, Coimbra, Coimbra","Artigo 24.º, n.º 1, alínea e) do Código dos Contratos Públicos","","",,"",,Não aplicável.,Não aplicável.,
5420506/2013 - SUTURA ANCORAGEM,Ajuste Direto Regime Geral,Aquisição de bens móveis,"33000000-0, Equipamento médico, medicamentos e produtos para cuidados pessoais","Centro Hospitalar e Universitário de Coimbra, E.P.E. (510103448)",JOHNSON & JOHNSON (500153370),"831,94 €",20-08-2013,14-07-2013,20 dias,"Portugal, Coimbra, Coimbra","Artigo 24.º, n.º 1, alínea e) do Código dos Contratos Públicos","","",,"",,Não aplicável.,Não aplicável.,
5420494/2013 - MATRIX,Ajuste Direto Regime Geral,Aquisição de bens móveis,"33000000-0, Equipamento médico, medicamentos e produtos para cuidados pessoais","Centro Hospitalar e Universitário de Coimbra, E.P.E. (510103448)",SYNTHES (501212191),"3.796,18 €",20-08-2013,14-07-2013,20 dias,"Portugal, Coimbra, Coimbra","Artigo 24.º, n.º 1, alínea e) do Código dos Contratos Públicos","","",,"",,Não aplicável.,Não aplicável.,
5420507/2013 - COLUNA,Ajuste Direto Regime Geral,Aquisição de bens móveis,"33000000-0, Equipamento médico, medicamentos e produtos para cuidados pessoais","Centro Hospitalar e Universitário de Coimbra, E.P.E. (510103448)",JOHNSON & JOHNSON (500153370),"2.456,00 €",20-08-2013,14-07-2013,10 dias,"Portugal, Coimbra, Coimbra","Artigo 24.º, n.º 1, alínea e) do Código dos Contratos Públicos","","",,"",,Não aplicável.,Não aplicável.,
5420542/2013 - CAGES,Ajuste Direto Regime Geral,Aquisição de bens móveis,"33000000-0, Equipamento médico, medicamentos e produtos para cuidados pessoais","Centro Hospitalar e Universitário de Coimbra, E.P.E. (510103448)",EUROSINTESE (503491403),"2.116,50 €",20-08-2013,14-07-2013,20 dias,"Portugal, Coimbra, Coimbra","Artigo 24.º, n.º 1, alínea e) do Código dos Contratos Públicos","","",,"",,Não aplicável.,Não aplicável.,
Aquisição de: Antitripsina alfa-1 1000mg pó sol inj fr IV,Ajuste Direto Regime Geral,Aquisição de bens móveis,"33698000-9, Produtos para fins clínicos","Centro Hospitalar e Universitário de Coimbra, E.P. (510103448)","Grifols Portugal, Lda (502041285)","192.000,00 €",19-08-2013,02-07-2013,365 dias,"Portugal, Coimbra, Coimbra","Artigo 24.º, n.º 1, alínea e) do Código dos Contratos Públicos",31-12-2013,"192.000,00 €",,"",,Não aplicável.,Não aplicável.,
"Aquisição de: Solução DPCA glucose 22,7mg/ml Ca 1,25mmol/l saco duplo c/ tampa iodopovidona",Ajuste Direto Regime Geral,Aquisição de bens móveis,"33698000-9, Produtos para fins clínicos","Centro Hospitalar e Universitário de Coimbra, E.P. (510103448)","Fresénius Medical Care Portugal, Lda (503070220)","46.200,00 €",19-08-2013,02-07-2013,365 dias,"Portugal, Coimbra, Coimbra","Artigo 26.º, n.º 1, alínea a) do Código dos Contratos Públicos",31-12-2013,"92.400,00 €",,"",,Não aplicável.,Não aplicável.,
Aquisição de: fidaxomicina 200mg,Ajuste Direto Regime Geral,Aquisição de bens móveis,"33698000-9, Produtos para fins clínicos","Centro Hospitalar e Universitário de Coimbra, E.P. (510103448)",Astellas Farma Lda. (502540249),"30.121,60 €",19-08-2013,28-06-2013,365 dias,"Portugal, Coimbra, Coimbra","Artigo 24.º, n.º 1, alínea e) do Código dos Contratos Públicos",31-12-2013,"30.121,60 €",,"",,Não aplicável.,Não aplicável.,
Aquisição de: galsulfase 1mg/ml sol inj fr 5ml IV,Ajuste Direto Regime Geral,Aquisição de bens móveis,"33000000-0, Equipamento médico, medicamentos e produtos para cuidados pessoais","Centro Hospitalar e Universitário de Coimbra, E.P.E. (510103448)","Logifarma, Logistica Farmacêutica, S.A. (503934640)","274.550,00 €",19-08-2013,26-06-2013,365 dias,"Portugal, Coimbra, Coimbra","Artigo 24.º, n.º 1, alínea e) do Código dos Contratos Públicos","","",,"",,Não aplicável.,Não aplicável.,
1 unidade  -  Cardioversor Desfibrilhador sem Electrodos,Ajuste Direto Regime Geral,Aquisição de bens móveis,"33000000-0, Equipamento médico, medicamentos e produtos para cuidados pessoais","Centro Hospitalar e Universitário de Coimbra, E.P.E. (510103448)","Farmimpex - Cardio-Equipamentos Médoco-Cirurgicos,SA (503061506)","21.000,00 €",16-08-2013,09-08-2013,30 dias,"Portugal, Coimbra, Coimbra","Artigo 24.º, n.º 1, alínea e) do Código dos Contratos Públicos","","",,"",,Não aplicável.,Não aplicável.,
AFINAÇÃO DE ORTOTESE - 1 UNIDADE  CINTA DE CONTEÇÃO TORACICO-LOMBAR - 1 UNIDADE  SAPATO ORTOPEDICO - 1 PAR  MANGA COMPRESSIVA - 1 UNIDADE  ORTOTESES TORNOZELO-PÉ AFO - 1 UNIDADE,Ajuste Direto Regime Geral,Aquisição de bens móveis,"33000000-0, Equipamento médico, medicamentos e produtos para cuidados pessoais","Centro Hospitalar e Universitário de Coimbra, E.P.E. (510103448)","ORTOPEDIA UNIVERSAL, LDA (502367644), CENTRO REABILITAÇÃO PROFISSIONAL DE GAIA (504791834), VITAE ORTHOS ORTOPEDIAS, LDA (507319672), ORTOMILENIO - INDUSTRIA DE PROTESES E ORTOTESES, LDA (510169627)","381,28 €",16-08-2013,30-06-2013,30 dias,"Portugal, Coimbra, Coimbra","Artigo 20.º, n.º 1, alínea a) do Código dos Contratos Públicos","","",,"",,Não aplicável.,Não aplicável.,
SLING- 2 UNIDADES  ORTOTESE TORNOZELO-PÉ - 1 UNIDADE  ORTOTESES TORNOZELO-PÉ AFO - 2 UNIDADES  MANGA COMPRESSIVA - 1 UNIDADE  ORTOTESE DO TRONCO - 1 UNIDADE  MEIA COMPRESSIVA ATÉ A COXA - 1 UNIDADE,Ajuste Direto Regime Geral,Aquisição de bens móveis,"33000000-0, Equipamento médico, medicamentos e produtos para cuidados pessoais","Centro Hospitalar e Universitário de Coimbra, E.P.E. (510103448)","ORTOPEDIA ALVALAN, LDA (500749060), NEUROWAVE UNIPESSOAL, LDA (508537150), CENTRO REABILITAÇÃO PROFISSIONAL DE GAIA (504791834), VITAE ORTHOS ORTOPEDIAS, LDA (507319672), ORTOPEDIA UNIVERSAL, LDA (502367644), QUANTUM ORTOPEDICOS, LDA (503197840)","577,30 €",16-08-2013,30-06-2013,30 dias,"Portugal, Coimbra, Coimbra","Artigo 20.º, n.º 1, alínea a) do Código dos Contratos Públicos","","",,"",,Não aplicável.,Não aplicável.,
ORTOTESE TORNOZELO-PÉ - 1 UNIDADE  MANGA COMPRESSIVA - 1 UNIDADE  ORTOTESES TORNOZELO-PÉ AFO - 2 UNIDADES  CINTA SACRO-LOMBAR ALTO TAMANHO L - 1 UNIDADE,Ajuste Direto Regime Geral,Aquisição de bens móveis,"33000000-0, Equipamento médico, medicamentos e produtos para cuidados pessoais","Centro Hospitalar e Universitário de Coimbra, E.P.E. (510103448)","CENTRO REABILITAÇÃO PROFISSIONAL GAIA (504791834), ORTODUQUE - INDUSTRIA DE PROTESES E ORTOTESES, LDA (504022199), ORTOMILENIO - INDUSTRIA DE PROTESES E ORTOTESES, LDA (510169627)","143,09 €",16-08-2013,30-06-2013,30 dias,"Portugal, Coimbra, Coimbra","Artigo 20.º, n.º 1, alínea a) do Código dos Contratos Públicos","","",,"",,Não aplicável.,Não aplicável.,
PROTESE PARA AMPUTAÇÃO TRANSTIBIAL - 1 UNIDADE  PROTESE PARA AMPUTAÇÃO DE CHOPART - 1 UNIDADE  SAPATO ORTOPEDICO  - 1 PAR  PROTESE ENDOESQUELETICA ENCAIXE CONTATO TOTAL - 1 UNIDADE  INTERFACE ICEROS PARA PROTESE DE AMPUTAÇÃO MEMBRO INFERIOR - 1 UNIDADE,Ajuste Direto Regime Geral,Aquisição de bens móveis,"33000000-0, Equipamento médico, medicamentos e produtos para cuidados pessoais","Centro Hospitalar e Universitário de Coimbra, E.P.E. (510103448)","CENTRO REABILITAÇÃO PROFISSIONAL DE GAIA (504791834), ORTOMILENIO - INDUSTRIA DE PROTESES E ORTOTESES (510169627), ORTODUQUE - INDUATRIA DE PROTESES E ORTOTESES, LDA (504022199), ORTOPEDIA UNIVERSAL, LDA (502367644)","6.903,20 €",16-08-2013,30-06-2013,60 dias,"Portugal, Coimbra, Coimbra","Artigo 20.º, n.º 1, alínea a) do Código dos Contratos Públicos","","",,"",,Não aplicável.,Não aplicável.,
COXEIRA ELASTICA - 2 UNIDADE  MEIA PARA COTO - 1 UNIDADE  ORTOTESES TORNOZELO-PÉ AFO - 1 UNIDADE  ORTOTESE TORNOZELO-PÉ - 1 UNIDADE,Ajuste Direto Regime Geral,Aquisição de bens móveis,"33000000-0, Equipamento médico, medicamentos e produtos para cuidados pessoais","Centro Hospitalar e Universitário de Coimbra, E.P.E. (510103448)","VITAE ORTHOS ORTOPEDIAS, LDA (507319672), CENTRO REABILITAÇÃO PROFISSIONAL DE GAIA (504791834), ORTODUQUE-INDUSTRIA DE PROTESES E ORTOTESES, LDA (504022199)","186,85 €",16-08-2013,30-06-2013,30 dias,"Portugal, Coimbra, Coimbra","Artigo 20.º, n.º 1, alínea a) do Código dos Contratos Públicos","","",,"",,Não aplicável.,Não aplicável.,
ORTOTESE TRONOZELO-PÉ AFO - 2 UNIDADES  ORTOTESE TORNOZELO-PÉ - 1 UNIDADE  MEIA PARA COTO - 1 UNIDADE,Ajuste Direto Regime Geral,Aquisição de bens móveis,"33000000-0, Equipamento médico, medicamentos e produtos para cuidados pessoais","Centro Hospitalar e Universitário de Coimbra, E.P.E. (510103448)","VITAE ORTHOS ORTOPEDIAS, LDA (507319672), ORTOPEDIA ALVALAN, LDA (500749060)","117,75 €",16-08-2013,30-06-2013,30 dias,"Portugal, Coimbra, Coimbra","Artigo 20.º, n.º 1, alínea a) do Código dos Contratos Públicos","","",,"",,Não aplicável.,Não aplicável.,
Aquisição de: Velaglucerase alfa 400U pó sol inj fr IV,Ajuste Direto Regime Geral,Aquisição de bens móveis,"33000000-0, Equipamento médico, medicamentos e produtos para cuidados pessoais","Centro Hospitalar e Universitário de Coimbra, E.P.E. (510103448)","Shire Pharmaceuticals Portugal, Lda (509264662)","91.524,60 €",16-08-2013,07-06-2013,365 dias,"Portugal, Coimbra, Coimbra","Artigo 24.º, n.º 1, alínea e) do Código dos Contratos Públicos",31-12-2013,"91.524,60 €",,"",,Não aplicável.,Não aplicável.,
"Aquisição de: Darbepoetina alfa 150ug/0,3ml sol inj caneta 0,3ml SC",Ajuste Direto Regime Geral,Aquisição de bens móveis,"33000000-0, Equipamento médico, medicamentos e produtos para cuidados pessoais","Centro Hospitalar e Universitário de Coimbra, E.P.E. (510103448)","Amgen Biofarmacêutica, S. A. (502942959)","11.016,00 €",14-08-2013,18-06-2013,365 dias,"Portugal, Coimbra, Coimbra","Artigo 24.º, n.º 1, alínea e) do Código dos Contratos Públicos",31-12-2013,"11.016,00 €",,"",,Não aplicável.,Não aplicável.,
Aquisição de: telaprevir 375mg,Ajuste Direto Regime Geral,Aquisição de bens móveis,"33000000-0, Equipamento médico, medicamentos e produtos para cuidados pessoais","Centro Hospitalar e Universitário de Coimbra, E.P.E. (510103448)","Janssen Cilag Farmacêutica, Lda (500189412)","149.997,96 €",14-08-2013,20-05-2013,365 dias,"Portugal, Coimbra, Coimbra","Artigo 24.º, n.º 1, alínea e) do Código dos Contratos Públicos",31-12-2013,"149.997,96 €",,"",,Não aplicável.,Não aplicável.,
Aquisição de: Boceprevir 200mg,Ajuste Direto Regime Geral,Aquisição de bens móveis,"33000000-0, Equipamento médico, medicamentos e produtos para cuidados pessoais","Centro Hospitalar e Universitário de Coimbra, E.P.E. (510103448)","Merck Sharp & Dohme, Lda (500191360)","57.040,37 €",14-08-2013,16-06-2013,365 dias,"Portugal, Coimbra, Coimbra","Artigo 24.º, n.º 1, alínea e) do Código dos Contratos Públicos",31-12-2013,"57.040,37 €",,"",,Não aplicável.,Não aplicável.,
5450161/2013 - Papel para Impressora Zebra - 3 rolos.,Ajuste Direto Regime Geral,Aquisição de bens móveis,"30000000-9, Máquinas, equipamento e material de escritório e de informática, excepto mobiliário e pacotes de programas (software)","Centro Hospitalar e Universitário de Coimbra, E.P.E. (510103448)","Grifols Portugal, Produtos Farmacêuticos e Hospitalares, Lda. (502041285)","63,00 €",14-08-2013,14-08-2013,30 dias,"Portugal, Coimbra, Coimbra","Artigo 24.º, n.º 1, alínea e) do Código dos Contratos Públicos","","",,"",,Não aplicável.,Não aplicável.,
Aquisição de: Dantroleno 20mg pó sol inj fr IV,Ajuste Direto Regime Geral,Aquisição de bens móveis,"33000000-0, Equipamento médico, medicamentos e produtos para cuidados pessoais","Centro Hospitalar e Universitário de Coimbra, E.P.E. (510103448)","HR Hospitalar, Lda (501895558)","21.000,00 €",14-08-2013,26-06-2013,365 dias,"Portugal, Coimbra, Coimbra","Artigo 24.º, n.º 1, alínea e) do Código dos Contratos Públicos",31-12-2013,"21.000,00 €",,"",,Não aplicável.,Não aplicável.,
Aquisição de: Gases Medicinais,Ajuste Direto Regime Geral,Aquisição de bens móveis,"24111500-0, Gases médicos","Centro Hospitalar e Universitário de Coimbra, E.P. (510103448)","Linde Sogás, Lda (500266344)","17.516,00 €",14-08-2013,02-07-2013,365 dias,"Portugal, Coimbra, Coimbra","Artigo 20.º, n.º 1, alínea a) do Código dos Contratos Públicos",31-12-2013,"17.516,00 €",,"",,Não aplicável.,Não aplicável.,
Aquisição de: TREPROSTINILO 1 MG/ML SOL INJ FR 20 ML SC,Ajuste Direto Regime Geral,Aquisição de bens móveis,"33000000-0, Equipamento médico, medicamentos e produtos para cuidados pessoais","Centro Hospitalar e Universitário de Coimbra, E.P.E. (510103448)",DLA Farmacêutica (503894427),"79.243,72 €",14-08-2013,26-06-2013,365 dias,"Portugal, Coimbra, Coimbra","Artigo 24.º, n.º 1, alínea e) do Código dos Contratos Públicos",31-12-2013,"79.243,72 €",,"",,Não aplicável.,Não aplicável.,
Aquisição de: Reagentes para Controlo de Qualidade para Imuno-Hematologia - Serviço de Sangue e Medicina Transfusional,Ajuste Direto Regime Geral,Aquisição de bens móveis,"33000000-0, Equipamento médico, medicamentos e produtos para cuidados pessoais","Centro Hospitalar e Universitário de Coimbra, E.P.E. (510103448)","Diamed Portuguesa, SA (501675809)","15.452,30 €",14-08-2013,18-06-2013,365 dias,"Portugal, Coimbra, Coimbra","Artigo 20.º, n.º 1, alínea a) do Código dos Contratos Públicos",31-12-2013,"15.452,30 €",,"",,Não aplicável.,Não aplicável.,
Cimento Osseo com Gentamicina 80g sistema fechado,Ajuste Direto Regime Geral,Aquisição de bens móveis,"33000000-0, Equipamento médico, medicamentos e produtos para cuidados pessoais","Centro Hospitalar e Universitário de Coimbra, E.P.E. (510103448)",Biomet Portugal Unipessoal Lda (500254990),"10.500,00 €",14-08-2013,16-04-2013,365 dias,"Portugal, Coimbra, Coimbra","Artigo 20.º, n.º 1, alínea a) do Código dos Contratos Públicos",31-12-2013,"10.500,00 €",,"",,Não aplicável.,Não aplicável.,
Aquisição de: Reagentes para Controlo de Qualidade para Imuno-Hematologia - Serviço de Sangue e Medicina Transfusional,Ajuste Direto Regime Geral,Aquisição de bens móveis,"33000000-0, Equipamento médico, medicamentos e produtos para cuidados pessoais","Centro Hospitalar e Universitário de Coimbra, E.P.E. (510103448)","Biognóstica, Lda (504441256)","1.000,00 €",14-08-2013,09-06-2013,365 dias,"Portugal, Coimbra, Coimbra","Artigo 20.º, n.º 1, alínea a) do Código dos Contratos Públicos","","",,"",,Não aplicável.,Não aplicável.,
5450017/2013 - Folhas de Papel para Plotter,Ajuste Direto Regime Geral,Aquisição de bens móveis,"30000000-9, Máquinas, equipamento e material de escritório e de informática, excepto mobiliário e pacotes de programas (software)","Centro Hospitalar e Universitário de Coimbra, E.P.E. (510103448)","Staples Portugal - Equipamento de Escritório, SA (503789372), OHM Técnica - Representações de Marcas, Lda. (504059521)","148,17 €",14-08-2013,12-08-2013,120 dias,"Portugal, Coimbra, Coimbra","Artigo 20.º, n.º 1, alínea a) do Código dos Contratos Públicos","","",,"",,Não aplicável.,Não aplicável.,
Aquisição de: Reagentes para Diagnóstico Molecular-Extração para o Serviço de Sangue e Medicina Transfusional,Ajuste Direto Regime Geral,Aquisição de bens móveis,"33000000-0, Equipamento médico, medicamentos e produtos para cuidados pessoais","Centro Hospitalar e Universitário de Coimbra, E.P.E. (510103448)","Biomerieux Portugal, Lda (501524177)","28.115,80 €",13-08-2013,07-06-2013,365 dias,"Portugal, Coimbra, Coimbra","Artigo 20.º, n.º 1, alínea a) do Código dos Contratos Públicos","","",,"",,Não aplicável.,Não aplicável.,
"Contrato nº 7/13/2012 - Prestação de serviços de seguro automóvel para as viaturas do CHUC, EPE (inicio em Outubro/2012 a Outubro/2013. ",Ajuste Direto Regime Geral,Aquisição de serviços,"66514110-0, Serviços de seguro automóvel","Centro Hospitalar e Universitário de Coimbra, E.P.E. (510103448)","Companhia seguros Açoreana, SA (512004048)","13.377,81 €",13-08-2013,12-10-2012,365 dias,"Portugal, Coimbra, Coimbra","Artigo 20.º, n.º 1, alínea a) do Código dos Contratos Públicos","","",,"",,Não aplicável.,Não aplicável.,
Reagentes para Controlo de Qualidade e de Suporte para Equipamento para o Serviço de Sangue e Medicina Transfusional,Ajuste Direto Regime Geral,Aquisição de bens móveis,"33000000-0, Equipamento médico, medicamentos e produtos para cuidados pessoais","Centro Hospitalar e Universitário de Coimbra, E.P.E. (510103448)","Vacuette Portugal, S. A. (505348470), Menarini Diagnósticos (502610069)","31.411,15 €",13-08-2013,21-06-2013,365 dias,"Portugal, Coimbra, Coimbra","Artigo 20.º, n.º 1, alínea a) do Código dos Contratos Públicos",31-12-2013,"31.411,15 €",,"",,Não aplicável.,Não aplicável.,
Ampliação da Unidade de AVC do HUC,Ajuste Direto Regime Geral,Empreitadas de obras públicas,"45000000-7, Construção","Centro Hospitalar e Universitário de Coimbra, E.P.E. (510103448)","AFONSO MARQUES ENGENHARIA, LDA (507611519)","51.500,00 €",13-08-2013,09-08-2013,45 dias,"Portugal, Coimbra, Coimbra","Artigo 19.º, alínea a) do Código dos Contratos Públicos","","",,"",,Não aplicável.,Não aplicável.,
1 Unidade  - Cardioversor desfibrilhador camara unica com Electrodo,Ajuste Direto Regime Geral,Aquisição de bens móveis,"33000000-0, Equipamento médico, medicamentos e produtos para cuidados pessoais","Centro Hospitalar e Universitário de Coimbra, E.P.E. (510103448)","Sorincardio - Comércio e Distribuição de Equipamentos Médicos, Lda (505514010)","13.500,00 €",13-08-2013,29-06-2013,90 dias,"Portugal, Coimbra, Coimbra","Artigo 24.º, n.º 1, alínea e) do Código dos Contratos Públicos","","",,"",,Não aplicável.,Não aplicável.,
1 Unidade - Pacemaker Biventricular sem Electrodos,Ajuste Direto Regime Geral,Aquisição de bens móveis,"33000000-0, Equipamento médico, medicamentos e produtos para cuidados pessoais","Centro Hospitalar e Universitário de Coimbra, E.P.E. (510103448)","Boston Scientific Portugal, Dispositivos Médicos,Lda (504988964)","4.270,00 €",13-08-2013,29-06-2013,90 dias,"Portugal, Coimbra, Coimbra","Artigo 24.º, n.º 1, alínea e) do Código dos Contratos Públicos","","",,"",,Não aplicável.,Não aplicável.,
1 Unidade - Cardioversor desfibrilhador Biventricular com  Electrodo  1 Unidade - Cardioversor desfibrilhador camara Dupla com Electrodo,Ajuste Direto Regime Geral,Aquisição de bens móveis,"33000000-0, Equipamento médico, medicamentos e produtos para cuidados pessoais","Centro Hospitalar e Universitário de Coimbra, E.P.E. (510103448)","Farmimpex - Equipamentos Médico- Cirurgicos, Lda (503061506)","36.500,00 €",13-08-2013,12-07-2013,90 dias,"Portugal, Coimbra, Coimbra","Artigo 24.º, n.º 1, alínea e) do Código dos Contratos Públicos","","",,"",,Não aplicável.,Não aplicável.,
1 Unidade  - Pacemaker Biventricular com Electrodo,Ajuste Direto Regime Geral,Aquisição de bens móveis,"33000000-0, Equipamento médico, medicamentos e produtos para cuidados pessoais","Centro Hospitalar e Universitário de Coimbra, E.P.E. (510103448)","Farmimpex -Equipamentos Médicos- Cirurgicos, SA (503061506)","5.500,00 €",13-08-2013,12-07-2013,90 dias,"Portugal, Coimbra, Coimbra","Artigo 24.º, n.º 1, alínea e) do Código dos Contratos Públicos","","",,"",,Não aplicável.,Não aplicável.,
1 UNIDADE  - CARDIODESFIBRILHADOR - CDI CAMARA UNICA SEM ELECTRODOS  1 UNIDADE -  CARDIODESFIBRILHADOR - CDI BIVENTRICULAR SEM ELECTRODO,Ajuste Direto Regime Geral,Aquisição de bens móveis,"33000000-0, Equipamento médico, medicamentos e produtos para cuidados pessoais","Centro Hospitalar e Universitário de Coimbra, E.P.E. (510103448)","ST JUDE MEDICAL PORTUGAL -DISTRIBUIÇÃO DE PRODUTOS MEDICOS,LDA (504180746)","32.700,00 €",12-08-2013,29-06-2013,90 dias,"Portugal, Coimbra, Coimbra","Artigo 24.º, n.º 1, alínea e) do Código dos Contratos Públicos","","",,"",,Não aplicável.,Não aplicável.,
1  Unidade  -  Cardioversor Desfibrilhador -CDI- Biventricular sem Electrodo  1 Unidade  -  Cardioversor Desfibrilhador - CDI  Biventricular com  Electrodo,Ajuste Direto Regime Geral,Aquisição de bens móveis,"33000000-0, Equipamento médico, medicamentos e produtos para cuidados pessoais","Centro Hospitalar e Universitário de Coimbra, E.P.E. (510103448)","Boston Scientif Portugal , dispositivos Médicos, Lda (504988964)","39.980,00 €",12-08-2013,29-06-2013,90 dias,"Portugal, Coimbra, Coimbra","Artigo 24.º, n.º 1, alínea e) do Código dos Contratos Públicos","","",,"",,Não aplicável.,Não aplicável.,
1 Unidade - Cardioversor Desfibrilhador com Electrodos,Ajuste Direto Regime Geral,Aquisição de bens móveis,"33000000-0, Equipamento médico, medicamentos e produtos para cuidados pessoais","Centro Hospitalar e Universitário de Coimbra, E.P.E. (510103448)","FARMIMPEX - EQUIPAMENTOS MÉDICO-CIRURGICOS,SA (503061506)","17.500,00 €",12-08-2013,12-07-2013,90 dias,"Portugal, Coimbra, Coimbra","Artigo 24.º, n.º 1, alínea e) do Código dos Contratos Públicos","","",,"",,Não aplicável.,Não aplicável.,
1 Unidade - Cardiodesfibrilhador Biventricular com Electrodos,Ajuste Direto Regime Geral,Aquisição de bens móveis,"33000000-0, Equipamento médico, medicamentos e produtos para cuidados pessoais","Centro Hospitalar e Universitário de Coimbra, E.P.E. (510103448)","BOSTON SCIENTIFIC PORTUGAL, DISPOSITIVOS MÉDICOS LDA (504988964)","21.000,00 €",12-08-2013,29-06-2013,90 dias,"Portugal, Coimbra, Coimbra","Artigo 24.º, n.º 1, alínea e) do Código dos Contratos Públicos","","",,"",,Não aplicável.,Não aplicável.,
1 Unidade - BOMBA PERFUSORA IMPLANTAVEL,Ajuste Direto Regime Geral,Aquisição de bens móveis,"33000000-0, Equipamento médico, medicamentos e produtos para cuidados pessoais","Centro Hospitalar e Universitário de Coimbra, E.P.E. (510103448)","MEDTRONIC PORTUGAL,  COMERCIO E DISTRIBUIÇÃO DE APARELHOS MEDICOS, LDA. (504223933)","7.905,00 €",12-08-2013,06-08-2013,90 dias,"Portugal, Coimbra, Coimbra","Artigo 24.º, n.º 1, alínea e) do Código dos Contratos Públicos","","",,"",,Não aplicável.,Não aplicável.,
28 UNIDADES -VALVULA MECANICA BILEAFLET AORTICA     8    UNIDADES- VALVULA MECANICA BILEAFLET MITRAL,Ajuste Direto Regime Geral,Aquisição de bens móveis,"33000000-0, Equipamento médico, medicamentos e produtos para cuidados pessoais","Centro Hospitalar e Universitário de Coimbra, E.P.E. (510103448)",ST JUDE MEDICAL (504180746),"58.422,60 €",12-08-2013,09-08-2013,90 dias,"Portugal, Coimbra, Coimbra","Artigo 24.º, n.º 1, alínea e) do Código dos Contratos Públicos","","",,"",,Não aplicável.,Não aplicável.,
1 unidade - Cardiodesfibrilhador -CDI camara unica com Electrodo  1 unidade - Cardiodesfibrilhador -CDI Biventricular sem Electroido  1 unidade - Pacemaker Biventricular com Electrodo,Ajuste Direto Regime Geral,Aquisição de bens móveis,"33000000-0, Equipamento médico, medicamentos e produtos para cuidados pessoais","Centro Hospitalar e Universitário de Coimbra, E.P.E. (510103448)",ST JUDE MEDICAL PORTUGAL (504180746),"39.000,00 €",12-08-2013,12-06-2013,90 dias,"Portugal, Coimbra, Coimbra","Artigo 24.º, n.º 1, alínea e) do Código dos Contratos Públicos","","",,"",,Não aplicável.,Não aplicável.,
