Objeto do Contrato,Tipo de Procedimento,Tipo(s) de Contrato,CPVs,Entidade(s) Adjudicante(s),Entidade(s) Adjudicatária(s),Preço Contratual,Data de Publicação,Data de Celebração do Contrato,Prazo de Execução,Local de Execução,Fundamentação,Data de Fecho do Contrato,Preço Total Efetivo,Causas das Alterações ao Prazo,Causas das Alterações ao Preço,Estado,N.º registo do Acordo Quadro,Descrição do Acordo Quadro,Procedimento Centralizado
Aquisição do serviço de plataforma eletrónica de contratação (PEC) para o ano de 2015,Ajuste Direto Regime Geral,Aquisição de serviços,"72416000-9, Fornecedores de aplicações","Administração Central do Sistema de Saúde, I. P. (508188423)",Vortal - Comercio Eletronico Consultadoria e Multimedia SA (505141019),"900,00 €",11-02-2015,19-01-2015,365 dias,"Portugal, Lisboa, Lisboa","Artigo 20.º, n.º 1, alínea a) do Código dos Contratos Públicos",31-12-2015,"675,00 €",,Valor faturado,,Não aplicável.,Não aplicável.,FALSE
"Aquisição de Serviços para o Programa Iniciativas em Saúde Pública, no âmbito dos EEA Grants - Vertente Doenças Transmissíveis",Ajuste Direto Regime Geral,Aquisição de serviços,"72224000-1, Serviços de consultoria em gestão de projectos","Administração Central do Sistema de Saúde, I. P. (508188423)",Susana Filipa Gonçalves Eusébio (230914047),"8.750,03 €",10-02-2015,27-01-2015,357 dias,"Portugal, Lisboa, Lisboa","Artigo 20.º, n.º 1, alínea a) do Código dos Contratos Públicos",28-12-2015,"8.750,03 €",,"",,Não aplicável.,Não aplicável.,FALSE
"Aquisição de serviços de auditoria financeira ao balanço, demonstração de resultados e mapas de fluxos  de caixa, bem como aos respetivos anexos, de acordo com as normas nacionais e internacionais de auditoria em vigor, aceites pela ordem dos Revisores Oficiais de Contas (OROC)",Ajuste Direto Regime Geral,Aquisição de serviços,"79212100-4, Serviços de auditoria financeira","Administração Central do Sistema de Saúde, I. P. (508188423)","BDO & Associados  Sociedade de Revisores Oficiais de Contas, Lda. (501340467)","14.480,00 €",09-02-2015,18-12-2014,60 dias,"Portugal, Lisboa, Lisboa","Artigo 20.º, n.º 1, alínea a) do Código dos Contratos Públicos",20-10-2015,"14.480,00 €",,"",,Não aplicável.,Não aplicável.,FALSE
"Aquisição de serviços para o programa iniciativas em saúde pública, no âmbito dos EEA Grants - Vertente Direito",Ajuste Direto Regime Geral,Aquisição de serviços,"79100000-5, Serviços jurídicos","Administração Central do Sistema de Saúde, I. P. (508188423)",Joana Rita da Silva Almeida (246262419),"11.571,42 €",06-02-2015,30-01-2015,352 dias,"Portugal, Lisboa, Lisboa","Artigo 20.º, n.º 1, alínea a) do Código dos Contratos Públicos",28-12-2015,"11.571,36 €",,"foi faturado menos 0,06 Cêntimos ",,Não aplicável.,Não aplicável.,FALSE
"Aquisição de serviços para o programa iniciativas em saúde pública, no âmbito das EEA Grants  - Vertente Gestão de informação nas plataformas informáticas do PT06",Ajuste Direto Regime Geral,Aquisição de serviços,"79420000-4, Serviços relacionados com a gestão","Administração Central do Sistema de Saúde, I. P. (508188423)",João Pedro Amado Ferreira Durão (216164150),"11.571,42 €",06-02-2015,30-01-2015,352 dias,"Portugal, Lisboa, Lisboa","Artigo 20.º, n.º 1, alínea a) do Código dos Contratos Públicos",28-12-2015,"11.571,42 €",,"",,Não aplicável.,Não aplicável.,FALSE
"Aquisição de serviços para o programa iniciativas em saúde pública, no âmbito dos EEA Grants - Vertente Despesa.",Ajuste Direto Regime Geral,Aquisição de serviços,"66171000-9, Serviços de consultoria financeira","Administração Central do Sistema de Saúde, I. P. (508188423)",Carmen Susana Morais Costa (223471801),"11.571,42 €",06-02-2015,30-01-2015,352 dias,"Portugal, Lisboa, Lisboa","Artigo 20.º, n.º 1, alínea a) do Código dos Contratos Públicos",09-09-2015,"7.571,42 €",,Revogação do contrato,,Não aplicável.,Não aplicável.,FALSE
"Aquisição da prestação de serviços de limpeza e fornecimento de produtos de higiene para a ACSS, durante o ano de 2015",Concurso público,Aquisição de serviços,"90910000-9, Serviços de limpeza","Administração Central do Sistema de Saúde, I. P. (508188423)","VADECA AMBIENTE - PRESERVAÇÃO E CONTROLE, S.A. (505356686)","121.312,20 €",02-02-2015,22-01-2015,356 dias,"Portugal, Lisboa, Lisboa","Artigo 20.º, n.º 1, alínea b) do Código dos Contratos Públicos",30-12-2015,"120.594,23 €",,foi faturado menos,,Não aplicável.,Não aplicável.,FALSE
