Objeto do Contrato,Tipo de Procedimento,Tipo(s) de Contrato,CPVs,Entidade(s) Adjudicante(s),Entidade(s) Adjudicatária(s),Preço Contratual,Data de Publicação,Data de Celebração do Contrato,Prazo de Execução,Local de Execução,Fundamentação,Data de Fecho do Contrato,Preço Total Efetivo,Causas das Alterações ao Prazo,Causas das Alterações ao Preço,Estado,N.º registo do Acordo Quadro,Descrição do Acordo Quadro,Procedimento Centralizado
Prestação de serviços médicos,Ajuste Direto Regime Geral,Aquisição de serviços,"85121000-3, Serviços de prática médica","Hospital do Espírito Santo de Évora, E. P. E. (508085888)",CARLA CRISTINA CLEMENTE PINTO RENTE (207806179),"14.400,00 €",11-08-2015,01-02-2015,240 dias,"Portugal, Évora, Évora","Artigo 20.º, n.º 1, alínea a) do Código dos Contratos Públicos",,,,,,Não aplicável.,Não aplicável.,FALSE
Prestação de serviços medicos,Ajuste Direto Regime Geral,Aquisição de serviços,"85121000-3, Serviços de prática médica","Hospital do Espírito Santo de Évora, E. P. E. (508085888)",Luramed (507129431),"28.800,00 €",11-08-2015,01-02-2015,330 dias,"Portugal, Évora, Évora","Artigo 20.º, n.º 1, alínea a) do Código dos Contratos Públicos",,,,,,Não aplicável.,Não aplicável.,FALSE
Dispensador de Senhas,Ajuste Direto Regime Geral,Aquisição de bens móveis,"30230000-0, Equipamento informático","Hospital do Espírito Santo de Évora, E. P. E. (508085888)",ATTENDSYS - SOL GLOBAIS ATENDIMENTO UN LDA (510306802),"9.713,00 €",11-08-2015,22-10-2014,8 dias,"Portugal, Évora, Évora","Artigo 24.º, n.º 1, alínea e) do Código dos Contratos Públicos",,,,,,Não aplicável.,Não aplicável.,FALSE
Prestação de serviços médicos,Ajuste Direto Regime Geral,Aquisição de serviços,"85121200-5, Serviços de medicina especializada","Hospital do Espírito Santo de Évora, E. P. E. (508085888)",TIAGO FRADIQUE PEREIRA RODRIGUES ALMEIDA (220761680),"35.100,00 €",11-08-2015,01-02-2015,330 dias,"Portugal, Évora, Évora","Artigo 20.º, n.º 1, alínea a) do Código dos Contratos Públicos",,,,,,Não aplicável.,Não aplicável.,FALSE
Aquisição de equipamento médico,Ajuste Direto Regime Geral,Aquisição de bens móveis,"33195100-4, Monitores","Hospital do Espírito Santo de Évora, E. P. E. (508085888)",PHILIPS PORTUGUESA SA (500216843),"16.000,00 €",10-08-2015,05-01-2015,8 dias,"Portugal, Évora, Évora","Artigo 20.º, n.º 1, alínea a) do Código dos Contratos Públicos",,,,,,Não aplicável.,Não aplicável.,FALSE
Prestação de serviços médicoa,Ajuste Direto Regime Geral,Aquisição de serviços,"85121300-6, Serviços de cirurgia especializada","Hospital do Espírito Santo de Évora, E. P. E. (508085888)",PROMISEBONUS UNIPESSOAL LDA (513190872),"34.560,00 €",10-08-2015,18-02-2015,335 dias,"Portugal, Évora, Évora","Artigo 20.º, n.º 1, alínea a) do Código dos Contratos Públicos",,,,,,Não aplicável.,Não aplicável.,FALSE
Prestação de serviços médicos,Ajuste Direto Regime Geral,Aquisição de serviços,"85121300-6, Serviços de cirurgia especializada","Hospital do Espírito Santo de Évora, E. P. E. (508085888)","HAMAD MAHMOUD HAMAD (259822833), ARTUR DUARTE SIMÕES LOPES (223100552), CARDIORITMO - SERVIÇOS MEDICOS LDA (513366881)","43.680,00 €",10-08-2015,16-04-2015,365 dias,"Portugal, Évora, Évora","Artigo 20.º, n.º 1, alínea a) do Código dos Contratos Públicos",,,,,,Não aplicável.,Não aplicável.,FALSE
Aquisição de material de ostomia de eliminação,Ao abrigo de acordo-quadro (art.º 259.º),Aquisição de bens móveis,"33140000-3, Material médico de consumo","Hospital do Espírito Santo de Évora, E. P. E. (508085888)","KVTECH PORTUGAL - PRODUTOS MEDICOS UNIP (508671531), B Braun Medical (501506543)","1.162,19 €",07-08-2015,06-07-2015,170 dias,"Portugal, Évora, Évora",Artigo 259.º do Código dos Contratos Públicos,,,,,,419168,CONCURSO PÚBLICO PARA A CELEBRAÇÃO DE CONTRATOS PÚBLICOS DE APROVISIONAMENTO PARA AQUISIÇÃO DE MATERIAL OSTOMIA DE ELIMINAÇÃO,FALSE
Dispositivos médicos para angioplastia coronária,Concurso público,Aquisição de bens móveis,"33111710-1, Material para angiografia","Hospital do Espírito Santo de Évora, E. P. E. (508085888)","Terumo (PT980472024), WORLD MEDICA SL (B-82612599), JOHNSON & JOHNSON LDA (500153370)","108.854,60 €",07-08-2015,29-05-2015,210 dias,"Portugal, Évora, Évora","Artigo 20.º, n.º 1, alínea b) do Código dos Contratos Públicos",,,,,,Não aplicável.,Não aplicável.,FALSE
Prestação de MCDT de Neurologia e Urologia,Concurso público,Aquisição de serviços,"85121220-1, Serviços especializados de nefrologia ou do sistema nervoso","Hospital do Espírito Santo de Évora, E. P. E. (508085888)",CDI - CLINICA DIAGNOSTICO POR IMAGEM (502830654),"66.950,00 €",07-08-2015,15-01-2015,350 dias,"Portugal, Évora, Évora","Artigo 20.º, n.º 1, alínea b) do Código dos Contratos Públicos",,,,,,Não aplicável.,Não aplicável.,FALSE
MCDT Gastroenterologia,Concurso público,Aquisição de serviços,"85121251-7, Serviços de gastroenterologia","Hospital do Espírito Santo de Évora, E. P. E. (508085888)","DR JOAQUIM CHAVES LAB ANAL CLINICAS SA (500753636), CDI - CLINICA DIAGNOSTICO POR IMAGEM (502830654)","33.035,00 €",07-08-2015,08-01-2015,365 dias,"Portugal, Évora, Évora","Artigo 20.º, n.º 1, alínea b) do Código dos Contratos Públicos",,,,,,Não aplicável.,Não aplicável.,FALSE
MCDT Análises no Exterior,Concurso público,Aquisição de serviços,"85148000-8, Serviços de análises clínicas","Hospital do Espírito Santo de Évora, E. P. E. (508085888)",DR JOAQUIM CHAVES LAB ANAL CLINICAS SA (500753636),"56.988,66 €",07-08-2015,02-01-2015,365 dias,"Portugal, Évora, Évora","Artigo 20.º, n.º 1, alínea b) do Código dos Contratos Públicos",,,,,,Não aplicável.,Não aplicável.,FALSE
Prestação de serviços médicos,Concurso público,Aquisição de serviços,"85121231-1, Serviços de cardiologia","Hospital do Espírito Santo de Évora, E. P. E. (508085888)",SERVSAD-SERVIÇOS AVANÇADOS SAÚDE SA (504260235),"149.760,00 €",07-08-2015,29-12-2014,362 dias,"Portugal, Évora, Évora","Artigo 20.º, n.º 1, alínea b) do Código dos Contratos Públicos",,,,,,Não aplicável.,Não aplicável.,FALSE
Prestação de serviços médicos,Concurso público,Aquisição de serviços,"85121300-6, Serviços de cirurgia especializada","Hospital do Espírito Santo de Évora, E. P. E. (508085888)",JORGE R A C PALACIOS SANTOS (197514839),"117.936,00 €",07-08-2015,29-12-2014,365 dias,"Portugal, Évora, Évora","Artigo 20.º, n.º 1, alínea b) do Código dos Contratos Públicos",,,,,,Não aplicável.,Não aplicável.,FALSE
Prestação de serviços de rediologia,Concurso público,Aquisição de serviços,"85150000-5, Serviços de imagiologia médica","Hospital do Espírito Santo de Évora, E. P. E. (508085888)",KELLY SERVICES - HEALTHCARE UNIPESSOAL LDA (510723691),"51.982,50 €",07-08-2015,15-06-2015,210 dias,"Portugal, Évora, Évora","Artigo 20.º, n.º 1, alínea b) do Código dos Contratos Públicos",,,,,,Não aplicável.,Não aplicável.,FALSE
Aquisição de equipamento médico para gastroenterologia,Ajuste Direto Regime Geral,Aquisição de bens móveis,"33100000-1, Equipamento médico","Hospital do Espírito Santo de Évora, E. P. E. (508085888)",Olympus Iberia (980474710),"74.999,48 €",07-08-2015,09-06-2015,8 dias,"Portugal, Évora, Évora","Artigo 20.º, n.º 1, alínea a) do Código dos Contratos Públicos",,,,,,Não aplicável.,Não aplicável.,FALSE
Prestação de serviços médicos,Ao abrigo de acordo-quadro (art.º 259.º),Aquisição de serviços,"79625000-1, Serviços de fornecimento de pessoal médico","Hospital do Espírito Santo de Évora, E. P. E. (508085888)","HELPED- (506069010), GS24 Healthcare (507824652)","867.266,40 €",06-08-2015,08-01-2015,365 dias,"Portugal, Évora, Évora","Artigo 20.º, n.º 1, alínea b) do Código dos Contratos Públicos",,,,,,1490434,ACORDO QUADRO PARA PRESTAÇÃO DE SERVIÇOS MÉDICOS ÀS INSTITUIÇÕES E SERVIÇOS DO SERVIÇO NACIONAL DE SAÚDE,FALSE
Prestação de serviços de vigilância,Concurso público,Aquisição de serviços,"79710000-4, Serviços de segurança","Hospital do Espírito Santo de Évora, E. P. E. (508085888)",Comansegur - segurança privada s.a. (503586579),"346.008,00 €",06-08-2015,30-01-2015,365 dias,"Portugal, Évora, Évora","Artigo 20.º, n.º 1, alínea b) do Código dos Contratos Públicos",,,,,,Não aplicável.,Não aplicável.,FALSE
Aquisição de meios de contrastes,Concurso público,Aquisição de bens móveis,"33696800-3, Meios de contraste para raios X","Hospital do Espírito Santo de Évora, E. P. E. (508085888)",A Martins & Fernandes (501172114),"11.337,30 €",06-08-2015,15-04-2015,365 dias,"Portugal, Évora, Évora","Artigo 20.º, n.º 1, alínea b) do Código dos Contratos Públicos",,,,,,Não aplicável.,Não aplicável.,FALSE
Aquisição de dispositivos médicos,Concurso público,Aquisição de bens móveis,"33111710-1, Material para angiografia","Hospital do Espírito Santo de Évora, E. P. E. (508085888)","Medicinália (500684324), Johnson (500153370), Terumo (PT980472024), Medtronic (504223933), Boston Scientific (504988964)","162.349,81 €",06-08-2015,01-06-2015,210 dias,"Portugal, Évora, Évora","Artigo 20.º, n.º 1, alínea b) do Código dos Contratos Públicos",,,,,,Não aplicável.,Não aplicável.,FALSE
Prestação de serviço de transporte de doentes,Concurso público,Aquisição de serviços,"85143000-3, Serviços de ambulâncias","Hospital do Espírito Santo de Évora, E. P. E. (508085888)",Federação Bombeiros de Évora (507465016),"100.000,00 €",06-08-2015,27-04-2015,270 dias,"Portugal, Évora, Évora","Artigo 20.º, n.º 1, alínea b) do Código dos Contratos Públicos",,,,,,Não aplicável.,Não aplicável.,FALSE
Aquisição de Dispositivos Médicos,Concurso público,Aquisição de bens móveis,"33111710-1, Material para angiografia","Hospital do Espírito Santo de Évora, E. P. E. (508085888)","Terumo (PT980472024), St Jude Medical (504180746)","98.763,40 €",06-08-2015,25-05-2015,240 dias,"Portugal, Évora, Évora","Artigo 20.º, n.º 1, alínea b) do Código dos Contratos Públicos",,,,,,Não aplicável.,Não aplicável.,FALSE
Aquisição sistemas de stents coronários,Ao abrigo de acordo-quadro (art.º 259.º),Aquisição de bens móveis,"33184300-6, Próteses cardíacas","Hospital do Espírito Santo de Évora, E. P. E. (508085888)","Abbott Laboratorios Ldª (500006148), Terumo (PT980472024), Medtronic (504223933), Lusopalex (503531588), Biotronik Portugal (510726941)","510.160,00 €",04-08-2015,02-07-2015,180 dias,"Portugal, Évora, Évora",Artigo 259.º do Código dos Contratos Públicos,,,,,,602205,"CONCURSO PÚBLICO PARA A CELEBRAÇÃO DE CONTRATOS PÚBLICOS DE APROVISIONAMENTO PARA A ÁREA DA SAÚDE, COM VISTA AO FORNECIMENTO SISTEMAS DE STENTS CORONÁRIOS ÀS INSTITUIÇÕES E SERVIÇOS DO SERVIÇO NACIONAL DE SAÚDE",FALSE
