Objeto do Contrato,Tipo de Procedimento,Tipo(s) de Contrato,CPVs,Entidade(s) Adjudicante(s),Entidade(s) Adjudicatária(s),Preço Contratual,Data de Publicação,Data de Celebração do Contrato,Prazo de Execução,Local de Execução,Fundamentação,Data de Fecho do Contrato,Preço Total Efetivo,Causas das Alterações ao Prazo,Causas das Alterações ao Preço,Estado,N.º registo do Acordo Quadro,Descrição do Acordo Quadro,Procedimento Centralizado
AQUISIÇÃO DE PUNHO DE SERRA OSCILATÓRIA PARA BLOCO OPERATÓRIO ORTOPEDIA,Ajuste Direto Regime Geral,Aquisição de bens móveis,"33100000-1, Equipamento médico","Centro Hospitalar do Baixo Vouga, E.P.E. (510123210)","B. BRAUN MEDICAL, LDA. (501506543)","4.304,05 €",10-12-2018,08-11-2018,30 dias,"Portugal, Aveiro, Aveiro","Artigo 24.º, n.º 1, alínea e), subalínea ii) do Código dos Contratos Públicos",,,,,,Não aplicável.,Não aplicável.,FALSE
AQUSIÇÃO DE DOIS MICROMOTORES PARA B.O. ORL (REPARAÇÃO POR SUBSTITUIÇÃO),Ajuste Direto Regime Geral,Aquisição de bens móveis,"33100000-1, Equipamento médico","Centro Hospitalar do Baixo Vouga, E. P. E. (SNCP) (510123210)","MICRO MEDICA EQUIPAMENTOS  MEDICOS HOSPIT., LDA (501904956)","3.150,80 €",07-12-2018,08-11-2018,45 dias,"Portugal, Aveiro, Aveiro","Artigo 24.º, n.º 1, alínea e), subalínea ii) do Código dos Contratos Públicos",,,,,,Não aplicável.,Não aplicável.,FALSE
Concurso Público para aquisição de Viaturas para várias Entidades do Ministério da Saúde,Concurso público,Aquisição de bens móveis,"34100000-8, Veículos a motor","Centro Hospitalar do Baixo Vouga, E.P.E. (510123210)","SIVA SOCIEDADE DE IMPORTAÇÃO DE VEICULOS AUTOMOVEIS, SA (500301522)","58.219,02 €",07-12-2018,26-11-2018,57 dias,"Portugal, Aveiro, Aveiro","Artigo 20.º, n.º 1, alínea a) do Código dos Contratos Públicos",,,,,,Não aplicável.,Não aplicável.,TRUE
Fornecimento de Sonda para Ecocardiógrafo,Ajuste Direto Regime Geral,Aquisição de bens móveis,"33110000-4, Equipamento de imagiologia para uso médico, dentário e veterinário","Centro Hospitalar do Baixo Vouga, E.P.E. (510123210)","General Electric Healthcare Portugal, Lda (500357129)","14.179,20 €",06-12-2018,04-12-2018,5 dias,"Portugal, Aveiro, Aveiro","Artigo 24.º, n.º 1, alínea e), subalínea ii) do Código dos Contratos Públicos",,,,,,Não aplicável.,Não aplicável.,FALSE
