Objeto do Contrato,Tipo de Procedimento,Tipo(s) de Contrato,CPVs,Entidade(s) Adjudicante(s),Entidade(s) Adjudicatária(s),Preço Contratual,Data de Publicação,Data de Celebração do Contrato,Prazo de Execução,Local de Execução,Fundamentação,Data de Fecho do Contrato,Preço Total Efetivo,Causas das Alterações ao Prazo,Causas das Alterações ao Preço,Estado,N.º registo do Acordo Quadro,Descrição do Acordo Quadro,Procedimento Centralizado
Aquisição de serviços de higiene e limpeza a nível nacional,Ajuste Direto Regime Geral,Aquisição de serviços,"90000000-7, Serviços relativos a águas residuais, resíduos, limpeza e ambiente","Instituto Nacional de Emergência Médica, I. P. (501356126)","INTERLIMPE - Facility Services, S.A. (502611057)","39.246,18 €",02-03-2016,15-02-2016,60 dias,"Portugal, Porto, Vila Nova de Gaia<BR/>Portugal, Lisboa, Lisboa<BR/>Portugal, Porto, Porto<BR/>Portugal, Coimbra, Coimbra","Artigo 24.º, n.º 1, alínea c) do Código dos Contratos Públicos",,,,,,Não aplicável.,Não aplicável.,FALSE
Caixas de transporte de dispositivos médicos,Ajuste Direto Regime Geral,Aquisição de bens móveis,"34900000-6, Equipamento e peças sobressalentes diversas para transportes","Instituto Nacional de Emergência Médica, I. P. (501356126)","Manutan Unipessoal, Lda (504779079)","7.083,75 €",02-03-2016,23-12-2015,1 dias,"Portugal, Lisboa, Lisboa","Artigo 20.º, n.º 1, alínea a) do Código dos Contratos Públicos",,,,,,Não aplicável.,Não aplicável.,FALSE
Aquisição de serviços de comunicações de voz,Ajuste Direto Regime Geral,Aquisição de serviços,"72000000-5, Serviços de TI: consultoria, desenvolvimento de software, Internet e apoio","Instituto Nacional de Emergência Médica, I. P. (501356126)","ONITELECOM - Infocomunicações, S.A.  (504073206)","118.733,02 €",01-03-2016,25-02-2016,182 dias,"Portugal, Portugal Continental","Artigo 24.º, n.º 1, alínea c) do Código dos Contratos Públicos",,,,,,Não aplicável.,Não aplicável.,FALSE
"Prestação de serviços de assistência técnica e manutenção ao sistema informático e de rede existente nos vários edifícios do INEM, I.P.",Ajuste Direto Regime Geral,Aquisição de serviços,"72000000-5, Serviços de TI: consultoria, desenvolvimento de software, Internet e apoio","Instituto Nacional de Emergência Médica, I. P. (501356126)","ATM - Sistemas de Informação e Serviços, S.A. (509784267)","11.774,12 €",25-02-2016,22-02-2016,60 dias,"Portugal, Portugal Continental","Artigo 20.º, n.º 1, alínea a) do Código dos Contratos Públicos",,,,,,Não aplicável.,Não aplicável.,FALSE
Reparação de ascensor,Ajuste Direto Regime Geral,Aquisição de serviços,"50700000-2, Serviços de reparação e manutenção de equipamento em edifícios","Instituto Nacional de Emergência Médica, I. P. (501356126)","ThyssenKrupp Elevadores, S.A. (501445226)","6.420,00 €",24-02-2016,22-02-2016,5 dias,"Portugal, Lisboa, Lisboa","Artigo 20.º, n.º 1, alínea a) do Código dos Contratos Públicos",,,,,,Não aplicável.,Não aplicável.,FALSE
Fornecimento de eletricidade - Instalações V.N.Gaia - 2016,Ajuste Direto Regime Geral,Aquisição de serviços,"65300000-6, Serviços de distribuição de electricidade e serviços conexos","Instituto Nacional de Emergência Médica, I. P. (501356126)","EDP Comercial, S.A. (503504564)","5.000,00 €",24-02-2016,22-02-2016,365 dias,"Portugal, Porto, Vila Nova de Gaia","Artigo 24.º, n.º 1, alínea e) do Código dos Contratos Públicos",,,,,,Não aplicável.,Não aplicável.,FALSE
Fornecimento de eletricidade - baixa tensão - 2016,Ajuste Direto Regime Geral,Aquisição de serviços,"65300000-6, Serviços de distribuição de electricidade e serviços conexos","Instituto Nacional de Emergência Médica, I. P. (501356126)","EDP Serviço Universal, S.A. (507846044)","32.875,24 €",24-02-2016,22-02-2016,365 dias,Portugal,"Artigo 24.º, n.º 1, alínea e) do Código dos Contratos Públicos",,,,,,Não aplicável.,Não aplicável.,FALSE
Reparação da viatura com a matricula 44-FA-79(motor),Ajuste Direto Regime Geral,Aquisição de bens móveis,"34300000-0, Peças e acessórios para veículos e seus motores","Instituto Nacional de Emergência Médica, I. P. (501356126)","Quadrantabsoluto,Lda (513537783)","7.871,99 €",22-02-2016,23-12-2015,30 dias,"Portugal, Lisboa, Lisboa","Artigo 20.º, n.º 1, alínea a) do Código dos Contratos Públicos",,,,,,Não aplicável.,Não aplicável.,FALSE
