Objeto do Contrato,Tipo de Procedimento,Tipo(s) de Contrato,CPVs,Entidade(s) Adjudicante(s),Entidade(s) Adjudicatária(s),Preço Contratual,Data de Publicação,Data de Celebração do Contrato,Prazo de Execução,Local de Execução,Fundamentação,Data de Fecho do Contrato,Preço Total Efetivo,Causas das Alterações ao Prazo,Causas das Alterações ao Preço,Estado,N.º registo do Acordo Quadro,Descrição do Acordo Quadro,Procedimento Centralizado
Aquisição de 4 Docking Stations ( Lote 10),Ao abrigo de acordo-quadro (art.º 259.º),Aquisição de bens móveis,"30212000-8, Hardware para minicomputador","Administração Central do Sistema de Saúde, I. P. (508188423)","BASEDOIS - Informática e Telecomunicações, Lda. (501333401)","700,00 €",29-03-2017,03-03-2017,10 dias,"Portugal, Lisboa, Lisboa",Artigo 259.º do Código dos Contratos Públicos,29-03-2017,"700,00 €",,"",,2475714,"AQ-EI-B-02/2016 Aquisição de Equipamento Informático 2016 (lotes 2,4 5, 16 e 29) ao abrigo AQ n.039-EI/2016",FALSE
"Aquisição de serviços para apoio a diversas áreas da Administração Central do Sistema de Saúde, I.P. - Lote 6 - Apoio à Unidade de Instalações e Equipamentos  - Vertente Engenharia de energia e ambiente.",Ajuste Direto Regime Geral,Aquisição de serviços,"71356300-1, Serviços de apoio técnico","Administração Central do Sistema de Saúde, I. P. (508188423)",Paulo Ricardo Mendonça Mil Homens (260436372),"7.208,88 €",28-03-2017,01-03-2017,306 dias,"Portugal, Lisboa, Lisboa","Artigo 20.º, n.º 1, alínea a) do Código dos Contratos Públicos",31-12-2017,"7.548,28 €",,Deslocações e estadas prevista no Caderno de Encargos.,,Não aplicável.,Não aplicável.,FALSE
"Aquisição de serviços para apoio a diversas áreas da Administração Central do Sistema de Saúde, I.P.  Lote 5 - Apoio à Unidade de Instalações e Equipamentos - Vertente Engenharia do Ambiente. ",Ajuste Direto Regime Geral,Aquisição de serviços,"71356300-1, Serviços de apoio técnico","Administração Central do Sistema de Saúde, I. P. (508188423)",Lúcia Patricia Alves Dantas  (218086571),"7.208,88 €",28-03-2017,09-03-2017,298 dias,"Portugal, Lisboa, Lisboa","Artigo 20.º, n.º 1, alínea a) do Código dos Contratos Públicos",31-12-2017,"7.289,27 €",,Deslocações e estadas prevista no Caderno de Encargos.,,Não aplicável.,Não aplicável.,FALSE
"Aquisição de serviços para apoio a diversas áreas da Administração Central do Sistema de Saúde, I.P.  - Lote 4 - Apoio ao Departamento de Gestão e Financiamento de Prestações de Saúde.",Ajuste Direto Regime Geral,Aquisição de serviços,"71356300-1, Serviços de apoio técnico","Administração Central do Sistema de Saúde, I. P. (508188423)",Tânia Marisa Maciel Morgado Almeida (206484267),"12.014,80 €",28-03-2017,02-03-2017,305 dias,"Portugal, Lisboa, Lisboa","Artigo 20.º, n.º 1, alínea a) do Código dos Contratos Públicos",31-12-2017,"12.014,80 €",,"",,Não aplicável.,Não aplicável.,FALSE
"Aquisição de serviços para apoio a diversas áreas da Administração Central do Sistema de Saúde, I.P. - Lote 3 - Apoio ao Departamento de Gestão e Planeamento de Recursos Humanos na Saúde.",Ajuste Direto Regime Geral,Aquisição de serviços,"71356300-1, Serviços de apoio técnico","Administração Central do Sistema de Saúde, I. P. (508188423)",Sara Elisabete Gonçalves da Silva (256750220),"12.014,80 €",28-03-2017,01-03-2017,306 dias,"Portugal, Lisboa, Lisboa","Artigo 20.º, n.º 1, alínea a) do Código dos Contratos Públicos",31-12-2017,"12.014,80 €",,"",,Não aplicável.,Não aplicável.,FALSE
"Aquisição de serviços para apoio a diversas áreas da Administração Central do Sistema de Saúde, I.P. Lote 2 - Apoio à Unidade de Orçamento e Controlo",Ajuste Direto Regime Geral,Aquisição de serviços,"71356300-1, Serviços de apoio técnico","Administração Central do Sistema de Saúde, I. P. (508188423)",Andreia Sofia Furtado de Almeida (238937046),"12.014,80 €",28-03-2017,07-03-2017,302 dias,"Portugal, Lisboa, Lisboa","Artigo 20.º, n.º 1, alínea a) do Código dos Contratos Públicos",31-12-2017,"12.014,80 €",,"",,Não aplicável.,Não aplicável.,FALSE
"Apoio ao Núcleo de Assessoria Executiva, de Comunicação e informação ",Ajuste Direto Regime Geral,Aquisição de serviços,"71356300-1, Serviços de apoio técnico","Administração Central do Sistema de Saúde, I. P. (508188423)",Ana Rita da Silva Almeida (212978004),"12.014,80 €",27-03-2017,02-03-2017,306 dias,"Portugal, Lisboa, Lisboa","Artigo 20.º, n.º 1, alínea a) do Código dos Contratos Públicos",31-12-2017,"12.014,80 €",,"",,Não aplicável.,Não aplicável.,FALSE
