Objeto do Contrato,Tipo de Procedimento,Tipo(s) de Contrato,CPVs,Entidade(s) Adjudicante(s),Entidade(s) Adjudicatária(s),Preço Contratual,Data de Publicação,Data de Celebração do Contrato,Prazo de Execução,Local de Execução,Fundamentação,Data de Fecho do Contrato,Preço Total Efetivo,Causas das Alterações ao Prazo,Causas das Alterações ao Preço,Estado,N.º registo do Acordo Quadro,Descrição do Acordo Quadro,Procedimento Centralizado
Aquisição de MAterial Informático ao abrigo do AQ da ESPAP,Ao abrigo de acordo-quadro (art.º 259.º),Aquisição de bens móveis,"30200000-1, Equipamento e material informático","Administração Regional de Saúde do Algarve, I. P. (503148709)","Basedois - Informática e Telecomunicações, Lda (501333401)","181.459,00 €",20-07-2018,24-05-2018,365 dias,"Portugal, Faro, Faro",Artigo 259.º do Código dos Contratos Públicos,31-12-2018,"181.459,00 €",,,,1196657,Acordo Quadro para aquisição e aluguer operacional de equipamento informático,FALSE
Aquisição de Material de Consumo Hoteleiro,Concurso público,Aquisição de bens móveis,"19640000-4, Sacos de polietileno para recolha de lixo e resíduos","Administração Regional de Saúde do Algarve, I.P. (503148709)","REI & REI, LDA (502897970)","14.031,50 €",16-07-2018,02-07-2018,227 dias,"Portugal, Faro, Faro","Artigo 20.º, n.º 1, alínea b) do Código dos Contratos Públicos","","",,,,Não aplicável.,Não aplicável.,FALSE
PV 155/2018 - Aquisição de reagentes/meios de cultura e consumiveis para o Laboratório,Consulta Prévia,Aquisição de bens móveis,"33696500-0, Reagentes de laboratório","Administração Regional de Saúde do Algarve, I. P. (503148709)","Frilabo II, Lda (507958861)","18.189,61 €",16-07-2018,16-07-2018,210 dias,"Portugal, Faro, Faro","Artigo 20.º, n.º 1, alínea c) do Código dos Contratos Públicos","","",,,,Não aplicável.,Não aplicável.,FALSE
Ajuste Direto,Ajuste Direto Regime Geral,Aquisição de bens móveis,"33122000-1, Equipamento oftalmológico","Administração Regional de Saúde do Algarve, I. P. (503148709)",JOSÉ COTTA - EQUIP. MÉDICO (500155739),"7.400,00 €",16-07-2018,16-07-2018,15 dias,"Portugal, Faro, Faro","Artigo 20.º, n.º 1, alínea d) do Código dos Contratos Públicos",02-08-2018,"7.400,00 €",,,,Não aplicável.,Não aplicável.,FALSE
AM/257/2018 - Aquisição de Medicamentos Diversos - Fluoreto de Sódio,Ajuste Direto Regime Geral,Aquisição de bens móveis,"33690000-3, Medicamentos vários","Administração Regional de Saúde do Algarve, I. P. (503148709)","Labesfal, S.A. (501169580)","6.734,00 €",13-07-2018,13-07-2018,170 dias,"Portugal, Faro, Faro","Artigo 24.º, n.º 1, alínea e), subalínea ii) do Código dos Contratos Públicos",03-09-2018,"6.734,00 €",,,,Não aplicável.,Não aplicável.,FALSE
