Objeto do Contrato,Tipo de Procedimento,Tipo(s) de Contrato,CPVs,Entidade(s) Adjudicante(s),Entidade(s) Adjudicatária(s),Preço Contratual,Data de Publicação,Data de Celebração do Contrato,Prazo de Execução,Local de Execução,Fundamentação,Data de Fecho do Contrato,Preço Total Efetivo,Causas das Alterações ao Prazo,Causas das Alterações ao Preço,Estado,N.º registo do Acordo Quadro,Descrição do Acordo Quadro,Procedimento Centralizado
CP 15-18  Aquisição reagentes e consumíveis para determinação do exame sumário de urina (urina tipo II) e sedimento urinário,Concurso público,Aquisição de bens móveis,"33696500-0, Reagentes de laboratório","Centro Hospitalar Cova da Beira, EPE (506361659)",A MENARINI (502610069),"16.220,00 €",01-02-2019,03-01-2019,365 dias,"Portugal<BR/>Portugal, Castelo Branco, Covilhã","Artigo 20.º, n.º 1, alínea b) do Código dos Contratos Públicos",,,,,,Não aplicável.,Não aplicável.,FALSE
AD 37/2018 Aquisição de serviços de manutenção e tratamento de áreas ajardinadas pertencentes ao CHCB,Ajuste Direto Regime Geral,Aquisição de serviços,"71421000-5, Serviços de jardinagem paisagística","Centro Hospitalar Cova da Beira, EPE (506361659)","Hidropaisagem - Espaços verdes, Lda. (504905899)","18.000,00 €",01-02-2019,07-01-2019,730 dias,"Portugal<BR/>Portugal, Castelo Branco, Covilhã","Artigo 20.º, n.º 1, alínea d) do Código dos Contratos Públicos",,,,,,Não aplicável.,Não aplicável.,FALSE
Aquisição de Equipamento para UCI,Ajuste Direto Regime Geral,Aquisição de bens móveis,"33100000-1, Equipamento médico","Centro Hospitalar Cova da Beira, E. P. E. (506361659)","B. Braun Medical, Lda. (501506543)","70.940,00 €",01-02-2019,18-01-2019,60 dias,"Portugal<BR/>Portugal, Castelo Branco, Covilhã","Artigo 24.º, n.º 1, alínea e), subalínea ii) do Código dos Contratos Públicos",,,,,,Não aplicável.,Não aplicável.,FALSE
