Objeto do Contrato,Tipo de Procedimento,Tipo(s) de Contrato,CPVs,Entidade(s) Adjudicante(s),Entidade(s) Adjudicatária(s),Preço Contratual,Data de Publicação,Data de Celebração do Contrato,Prazo de Execução,Local de Execução,Fundamentação,Data de Fecho do Contrato,Preço Total Efetivo,Causas das Alterações ao Prazo,Causas das Alterações ao Preço,Estado,N.º registo do Acordo Quadro,Descrição do Acordo Quadro,Procedimento Centralizado
Serviços para aplicação dos métodos de seleção de avaliação psicológica e entrevista de avaliação de competências no âmbito de procedimento de recrutamento de 27 técnicos superiores,Ajuste Direto Regime Geral,Aquisição de serviços,"79600000-0, Serviços de recrutamento","Administração Central do Sistema de Saúde, I. P. (508188423)",Direção Geral da Qualificação dos Trabalhadores em Funções Públicas (INA) (600084876),"22.860,00 €",31-07-2015,15-06-2015,94 dias,"Portugal, Lisboa, Lisboa","Artigo 24.º, n.º 1, alínea e) do Código dos Contratos Públicos",17-09-2015,"22.860,00 €",,"",,Não aplicável.,Não aplicável.,FALSE
Aquisição de serviços consultoria jurídica para apoio aos procedimentos concursais celebração contratos de gestão do CMFRS e do HLO,Ajuste Direto Regime Geral,Aquisição de serviços,"79111000-5, Serviços de assessoria jurídica","Administração Central do Sistema de Saúde, I. P. (508188423)",Cláudia Sofia Oliveira Dias Monge (217262147),"48.106,00 €",31-07-2015,07-07-2015,638 dias,"Portugal, Lisboa, Lisboa","Artigo 20.º, n.º 1, alínea a) do Código dos Contratos Públicos",29-12-2017,"48.103,00 €",,valor executado.,,Não aplicável.,Não aplicável.,FALSE
Aquisição de serviços vertente económico-financeira para apoio aos procedimentos concursais celebração contratos de gestão do HLO,Ajuste Direto Regime Geral,Aquisição de serviços,"66171000-9, Serviços de consultoria financeira","Administração Central do Sistema de Saúde, I. P. (508188423)","Banco BPI, SA (501214534)","59.500,00 €",31-07-2015,07-07-2015,638 dias,"Portugal, Lisboa, Lisboa","Artigo 20.º, n.º 1, alínea a) do Código dos Contratos Públicos",06-04-2017,"1.260,00 €",,Redução do objeto,,Não aplicável.,Não aplicável.,FALSE
Aquisição de serviços de consultoria na área médica e colaboração na definição de estratégia e planeamento,Ajuste Direto Regime Geral,Aquisição de serviços,"71317210-8, Serviços de consultoria em matéria de saúde e segurança","Administração Central do Sistema de Saúde, I. P. (508188423)","Multimedicina, Lda (503384887)","16.605,00 €",31-07-2015,29-07-2015,153 dias,"Portugal, Lisboa, Lisboa","Artigo 20.º, n.º 1, alínea a) do Código dos Contratos Públicos",28-12-2015,"16.605,00 €",,"",,Não aplicável.,Não aplicável.,FALSE
