Objeto do Contrato,Tipo de Procedimento,Tipo(s) de Contrato,CPVs,Entidade(s) Adjudicante(s),Entidade(s) Adjudicatária(s),Preço Contratual,Data de Publicação,Data de Celebração do Contrato,Prazo de Execução,Local de Execução,Fundamentação,Data de Fecho do Contrato,Preço Total Efetivo,Causas das Alterações ao Prazo,Causas das Alterações ao Preço,Estado,N.º registo do Acordo Quadro,Descrição do Acordo Quadro,Procedimento Centralizado
Aquisição de Relatórios de Exames Através de Telerradiologia,Ajuste Direto Regime Geral,Aquisição de serviços,"85141000-9, Serviços prestados pelo pessoal médico",Hospital Prof. Doutor Fernando Fonseca E.P.E. (503035416),DR CAMPOS COSTA CONSULTORIO TOMOG COMPUT SA (502082429),"68.850,00 €",19-05-2017,27-12-2016,122 dias,"Portugal, Lisboa, Amadora","Artigo 24.º, n.º 1, alínea c) do Código dos Contratos Públicos",,,,,,Não aplicável.,Não aplicável.,FALSE
Aquisição e Instalação de Central Automática para Quadro de Ar Medicinal e Quadro de Oxigénio,Ajuste Direto Regime Geral,Aquisição de serviços,"51000000-9, Serviços de instalação (excepto software)","Hospital Professor Doutor Fernando Fonseca, E. P. E. (503035416)","SEIXAS & SEIXAS, LDA (502714921)","18.025,50 €",18-05-2017,22-02-2017,20 dias,"Portugal, Lisboa, Amadora","Artigo 20.º, n.º 1, alínea a) do Código dos Contratos Públicos",,,,,,Não aplicável.,Não aplicável.,FALSE
10 Terminais Portáteis para o Sistema EKANBAN,Ajuste Direto Regime Geral,Aquisição de bens móveis,"31224500-7, Terminais",Hospital Prof. Doutor Fernando Fonseca E.P.E. (503035416),"BIQ, Health Solutions, Lda. (504105337)","7.021,00 €",18-05-2017,04-05-2017,15 dias,"Portugal, Lisboa, Amadora","Artigo 26.º, n.º 1, alínea a) do Código dos Contratos Públicos",,,,,,Não aplicável.,Não aplicável.,FALSE
21 Berços Com Suporte Rodado,Ajuste Direto Regime Geral,Aquisição de bens móveis,"39143116-2, Berços",Hospital Prof. Doutor Fernando Fonseca E.P.E. (503035416),"IBERDATA-EQUIPAMENTOS, SA (501904921)","7.293,00 €",18-05-2017,30-03-2017,30 dias,"Portugal, Lisboa, Amadora","Artigo 20.º, n.º 1, alínea a) do Código dos Contratos Públicos",,,,,,Não aplicável.,Não aplicável.,FALSE
Aquisição de serviços de manutenção da Olympus,Ajuste Direto Regime Geral,Aquisição de serviços,"50000000-5, Serviços de reparação e manutenção","Hospital Professor Doutor Fernando Fonseca, E. P. E. (503035416)",olympus iberia (980474710),"166.669,38 €",18-05-2017,23-12-2016,365 dias,"Portugal, Lisboa, Amadora","Artigo 24.º, n.º 1, alínea e) do Código dos Contratos Públicos",,,,,,Não aplicável.,Não aplicável.,FALSE
Aquisição de 4 ópticas e 6 Tesouras para a Ginecologia,Ajuste Direto Regime Geral,Aquisição de bens móveis,"33162200-5, Instrumentos para blocos operatórios","Hospital Professor Doutor Fernando Fonseca, E. P. E. (503035416)","ANGOSAÚDE - EQUIPAMENTOS DE SAÚDE, S.A. (507016882)","7.016,88 €",18-05-2017,18-05-2017,30 dias,"Portugal, Lisboa, Amadora","Artigo 20.º, n.º 1, alínea a) do Código dos Contratos Públicos",,,,,,Não aplicável.,Não aplicável.,FALSE
Aquisição de Serviços de Upgrade Infraestrutura de Virtualização,Concurso público,Aquisição de serviços,"72268000-1, Serviços de fornecimento de software",Hospital Prof. Doutor Fernando Fonseca E.P.E. (503035416),"GONKSYS, SA (510874169)","99.014,09 €",17-05-2017,27-04-2017,30 dias,"Portugal, Lisboa, Amadora","Artigo 20.º, n.º 1, alínea b) do Código dos Contratos Públicos",,,,,,Não aplicável.,Não aplicável.,FALSE
Aquisição de Sistema Coronário Biabsorvível Metálico,Ajuste Direto Regime Geral,Aquisição de bens móveis,"33698000-9, Produtos para fins clínicos","Hospital Professor Doutor Fernando Fonseca, E. P. E. (503035416)",Biotronik Portugal (510726941),"16.000,00 €",17-05-2017,05-05-2017,240 dias,"Portugal, Lisboa, Amadora","Artigo 26.º, n.º 1, alínea a) do Código dos Contratos Públicos",,,,,,Não aplicável.,Não aplicável.,FALSE
Aquisição de Sistema de Stents medicados com Zotarolimus e plataforma sinusoidal contínua,Ajuste Direto Regime Geral,Aquisição de bens móveis,"33698000-9, Produtos para fins clínicos","Hospital Professor Doutor Fernando Fonseca, E. P. E. (503035416)","MEDTRONIC PORTUGAL, LDA (504223933)","45.500,00 €",16-05-2017,28-04-2017,91 dias,"Portugal, Lisboa, Amadora","Artigo 24.º, n.º 1, alínea c) do Código dos Contratos Públicos",,,,,,Não aplicável.,Não aplicável.,FALSE
Assinatura de Revistas - Marka 2,Ajuste Direto Regime Geral,Aquisição de serviços,"79980000-7, Serviços de assinatura",Hospital Prof. Doutor Fernando Fonseca E.P.E. (503035416),"Marka Marketing Aplicado, lda. (502317124)","6.616,29 €",15-05-2017,09-05-2017,365 dias,"Portugal, Lisboa, Amadora","Artigo 20.º, n.º 1, alínea a) do Código dos Contratos Públicos",,,,,,Não aplicável.,Não aplicável.,FALSE
Aquisição de Consumíveis para Monitor de Nervos Cranianos,Ajuste Direto Regime Geral,Aquisição de bens móveis,"33698000-9, Produtos para fins clínicos","Hospital Professor Doutor Fernando Fonseca, E. P. E. (503035416)","MEDTRONIC PORTUGAL, LDA (504223933)","21.107,00 €",11-05-2017,26-04-2017,249 dias,"Portugal, Lisboa, Amadora","Artigo 20.º, n.º 1, alínea a) do Código dos Contratos Públicos",,,,,,Não aplicável.,Não aplicável.,FALSE
