Objeto do Contrato,Tipo de Procedimento,Tipo(s) de Contrato,CPVs,Entidade(s) Adjudicante(s),Entidade(s) Adjudicatária(s),Preço Contratual,Data de Publicação,Data de Celebração do Contrato,Prazo de Execução,Local de Execução,Fundamentação,Data de Fecho do Contrato,Preço Total Efetivo,Causas das Alterações ao Prazo,Causas das Alterações ao Preço,Estado,N.º registo do Acordo Quadro,Descrição do Acordo Quadro,Procedimento Centralizado
SERVIÇOS DE PROTEÇÃO E VIGILÂNCIA P/2017,Ajuste Direto Regime Geral,Aquisição de serviços,"79710000-4, Serviços de segurança","Centro Hospitalar Tondela-Viseu, E. P. E. (509822940)","COMANSEGUR- SEGURANÇA PRIVADA, SA (503586579)","456.962,80 €",10-02-2017,02-02-2017,1 dias,"Portugal, Viseu, Viseu","Artigo 27.º, n.º 1, alínea a) do Código dos Contratos Públicos",,,,,,Não aplicável.,Não aplicável.,FALSE
PROTESE PARA TRATAMENTO ANEURISMA DA AORTA,Ajuste Direto Regime Geral,Aquisição de bens móveis,"33184200-5, Próteses vasculares","Centro Hospitalar Tondela-Viseu, E. P. E. (509822940)","MEDTRONIC PORTUGAL, LDA (504223933)","7.650,00 €",10-02-2017,03-02-2017,1 dias,"Portugal, Viseu, Viseu","Artigo 20.º, n.º 1, alínea a) do Código dos Contratos Públicos",,,,,,Não aplicável.,Não aplicável.,FALSE
CONJUNTO DE TROCA PLASMÁTICA E ERITROCITARIA,Ajuste Direto Regime Geral,Aquisição de bens móveis,"33141613-0, Sacos para sangue","Centro Hospitalar Tondela-Viseu, E. P. E. (509822940)","TERUMO BCT PORTUGAL UNIPESSOAL, LDA  (510627048)","8.748,00 €",10-02-2017,02-02-2017,1 dias,"Portugal, Viseu, Viseu","Artigo 24.º, n.º 1, alínea e) do Código dos Contratos Públicos",,,,,,Não aplicável.,Não aplicável.,FALSE
DIVERSOS ENVELOPES,Ajuste Direto Regime Geral,Aquisição de bens móveis,"30199710-0, Sobrescritos impressos","Centro Hospitalar Tondela-Viseu, E. P. E. (509822940)","TOMPLA - INDUSTRIA INTERNACIONAL DO ENVELOPE, LDA (503248266)","13.384,75 €",10-02-2017,03-01-2017,1 dias,"Portugal, Viseu, Viseu","Artigo 20.º, n.º 1, alínea a) do Código dos Contratos Públicos",,,,,,Não aplicável.,Não aplicável.,FALSE
IBRUTINIB 140MG COMP,Ajuste Direto Regime Geral,Aquisição de bens móveis,"33600000-6, Produtos farmacêuticos","Centro Hospitalar Tondela-Viseu, E. P. E. (509822940)","JANSSEN-CILAG FARMACEUTICA, LDA (500189412)","38.475,99 €",07-02-2017,13-01-2017,1 dias,"Portugal, Viseu, Viseu","Artigo 24.º, n.º 1, alínea e) do Código dos Contratos Públicos",,,,,,Não aplicável.,Não aplicável.,FALSE
AQUISIÇÃO DE LENALIDOMIDA 10MG CAPS,Ajuste Direto Regime Geral,Aquisição de bens móveis,"33600000-6, Produtos farmacêuticos","Centro Hospitalar Tondela-Viseu, E. P. E. (509822940)","CELGENE SOCIEDADE UNIP., LDA (507791690)","18.749,20 €",06-02-2017,14-12-2016,1 dias,"Portugal, Viseu, Viseu","Artigo 24.º, n.º 1, alínea e) do Código dos Contratos Públicos",,,,,,Não aplicável.,Não aplicável.,FALSE
AQUISIÇÃO DE HIALURONATO SODIO 12MG/ML SERINGA,Ajuste Direto Regime Geral,Aquisição de bens móveis,"33600000-6, Produtos farmacêuticos","Centro Hospitalar Tondela-Viseu, E. P. E. (509822940)",ALCON PORTUGAL-PROD.EQUIP.OFTL (501251685),"7.200,00 €",06-02-2017,19-12-2016,1 dias,"Portugal, Viseu, Viseu","Artigo 20.º, n.º 1, alínea a) do Código dos Contratos Públicos",,,,,,Não aplicável.,Não aplicável.,FALSE
DIVERSAS PASTAS DE ARQUIVO,Ajuste Direto Regime Geral,Aquisição de bens móveis,"30199500-5, Arquivadores, classificadores de correspondência, caixas para armazenagem e artigos similares","Centro Hospitalar Tondela-Viseu, E. P. E. (509822940)","ECOFLOAT - SOLUÇÕES PARA ESCRITÓRIO, LDA (506628051)","16.620,50 €",03-02-2017,18-01-2017,1 dias,"Portugal, Viseu, Viseu","Artigo 20.º, n.º 1, alínea a) do Código dos Contratos Públicos",,,,,,Não aplicável.,Não aplicável.,FALSE
MEIOS DE DIAGNÓSTICO FARMACEUTICOS (AQ 3F/01174/2016),Ajuste Direto Regime Geral,Aquisição de bens móveis,"33600000-6, Produtos farmacêuticos","Centro Hospitalar Tondela-Viseu, E. P. E. (509822940)","WERFEN PORTUGAL, LDA (501086110)","5.093,20 €",01-02-2017,11-01-2017,1 dias,"Portugal, Viseu, Viseu","Artigo 26.º, n.º 1, alínea e) do Código dos Contratos Públicos",,,,,,Não aplicável.,Não aplicável.,FALSE
MEIOS DE DIAGNÓSTICO FARMACEUTICOS (AQ 3F/01174/2016),Ajuste Direto Regime Geral,Aquisição de bens móveis,"33600000-6, Produtos farmacêuticos","Centro Hospitalar Tondela-Viseu, E. P. E. (509822940)","ALERE, LDA (502518863)","26.156,25 €",01-02-2017,19-01-2017,1 dias,"Portugal, Viseu, Viseu","Artigo 26.º, n.º 1, alínea e) do Código dos Contratos Públicos",,,,,,Não aplicável.,Não aplicável.,FALSE
MEIOS DE DIAGNÓSTICO FARMACEUTICOS (AQ 3F/01174/2016),Ajuste Direto Regime Geral,Aquisição de bens móveis,"33600000-6, Produtos farmacêuticos","Centro Hospitalar Tondela-Viseu, E. P. E. (509822940)","BAYER PORTUGAL, LDA (500043256)","199.968,00 €",01-02-2017,11-01-2017,1 dias,"Portugal, Viseu, Viseu","Artigo 26.º, n.º 1, alínea e) do Código dos Contratos Públicos",,,,,,Não aplicável.,Não aplicável.,FALSE
COLA HEMOSTATICA ESTERIL 5ML,Ajuste Direto Regime Geral,Aquisição de bens móveis,"33600000-6, Produtos farmacêuticos","Centro Hospitalar Tondela-Viseu, E. P. E. (509822940)","BAXTER II MEDICO FARMACEUTICA, LDA (503347345)","43.200,00 €",01-02-2017,13-01-2017,1 dias,"Portugal, Viseu, Viseu","Artigo 26.º, n.º 1, alínea e) do Código dos Contratos Públicos",,,,,,Não aplicável.,Não aplicável.,FALSE
