Objeto do Contrato,Tipo de Procedimento,Tipo(s) de Contrato,CPVs,Entidade(s) Adjudicante(s),Entidade(s) Adjudicatária(s),Preço Contratual,Data de Publicação,Data de Celebração do Contrato,Prazo de Execução,Local de Execução,Fundamentação,Data de Fecho do Contrato,Preço Total Efetivo,Causas das Alterações ao Prazo,Causas das Alterações ao Preço,Estado,N.º registo do Acordo Quadro,Descrição do Acordo Quadro,Procedimento Centralizado
Armários para material clínico,Ajuste Direto Regime Geral,Aquisição de bens móveis,"33000000-0, Equipamento médico, medicamentos e produtos para cuidados pessoais","Administração Regional de Saúde do Centro, I. P. (503122165)","BIQ - Health Solutions, Lda (504105337)","5.700,00 €",11-05-2015,11-05-2015,30 dias,"Portugal, Coimbra, Condeixa-a-Nova","Artigo 20.º, n.º 1, alínea a) do Código dos Contratos Públicos",22-06-2015,"5.700,00 €",,,,Não aplicável.,Não aplicável.,FALSE
15250174-Aquisição de material de consumo clinico,Ao abrigo de acordo-quadro (art.º 259.º),Aquisição de bens móveis,"33000000-0, Equipamento médico, medicamentos e produtos para cuidados pessoais","Administração Regional de Saúde do Centro, I. P. (503122165)",OVERPHARMA (505792362),"1.144,00 €",08-05-2015,14-04-2015,120 dias,"Portugal, Coimbra, Coimbra",Artigo 259.º do Código dos Contratos Públicos,27-04-2015,"1.144,00 €",,,,448705,"CONCURSO PÚBLICO PARA A CELEBRAÇÃO DE CONTRATOS PÚBLICOS DE APROVISIONAMENTO PARA A ÁREA DA SAÚDE, COM VISTA AO FORNECIMENTO DE SERINGAS, AGULHAS, CONTENTORES E SISTEMAS FECHADOS DE COLHEITA,  ÀS INSTITUIÇÕES E SERVIÇOS DO SERVIÇO NACIONAL DE SAÚDE",FALSE
"Aquisição de equipamento de registo biométrico para diversas unidades funcionais da ARSC,IP ",Ajuste Direto Regime Geral,Aquisição de bens móveis,"31711310-9, Sistema de registo de presenças","Administração Regional de Saúde do Centro, I. P. (503122165)",NORMÁTICA (501782230),"8.040,00 €",07-05-2015,21-01-2015,10 dias,"Portugal, Coimbra","Artigo 20.º, n.º 1, alínea a) do Código dos Contratos Públicos","","",,,,Não aplicável.,Não aplicável.,FALSE
"Aquisição de equipamento de registo biométrico para diversas unidades funcionais da ARSC,IP ",Ajuste Direto Regime Geral,Aquisição de bens móveis,"31711310-9, Sistema de registo de presenças","Administração Regional de Saúde do Centro, I. P. (503122165)",NORMÁTICA (501782230),"360,00 €",07-05-2015,21-01-2015,10 dias,"Portugal, Coimbra<BR/>Portugal","Artigo 20.º, n.º 1, alínea a) do Código dos Contratos Públicos","","",,,,Não aplicável.,Não aplicável.,FALSE
"Aquisição de equipamento de registo biométrico para diversas unidades funcionais da ARSC,IP ",Ajuste Direto Regime Geral,Aquisição de bens móveis,"31711310-9, Sistema de registo de presenças","Administração Regional de Saúde do Centro, I. P. (503122165)",NORMÁTICA (501782230),"29,90 €",07-05-2015,21-01-2015,10 dias,"Portugal, Coimbra","Artigo 20.º, n.º 1, alínea a) do Código dos Contratos Públicos","","",,,,Não aplicável.,Não aplicável.,FALSE
"Aquisição de equipamento de registo biométrico para diversas unidades funcionais da ARSC,IP ",Ajuste Direto Regime Geral,Aquisição de bens móveis,"31711310-9, Sistema de registo de presenças","Administração Regional de Saúde do Centro, I. P. (503122165)",NORMÁTICA (501782230),"4.944,00 €",07-05-2015,21-01-2015,10 dias,"Portugal, Coimbra, Coimbra","Artigo 20.º, n.º 1, alínea a) do Código dos Contratos Públicos","","",,,,Não aplicável.,Não aplicável.,FALSE
Processo 15150343 - Aquisição de álcool 70º,Ao abrigo de acordo-quadro (art.º 259.º),Aquisição de bens móveis,"33600000-6, Produtos farmacêuticos","Administração Regional de Saúde do Centro, I. P. (503122165)","proclinica, lda (500222665)","8.704,80 €",04-05-2015,04-05-2015,280 dias,"Portugal, Coimbra, Coimbra<BR/>Portugal, Viseu, Viseu",Artigo 259.º do Código dos Contratos Públicos,05-10-2015,"8.704,80 €",,,,549298,"Concurso Público para a celebração de Contratos Publicos de Aprovisionamento para a área da saúde com vista ao fornecimento de Antisepticos, Desinfetantes e Outros, às Instituições e Serviços do Serviço Nacional de Saúde.",FALSE
