Objeto do Contrato,Tipo de Procedimento,Tipo(s) de Contrato,CPVs,Entidade(s) Adjudicante(s),Entidade(s) Adjudicatária(s),Preço Contratual,Data de Publicação,Data de Celebração do Contrato,Prazo de Execução,Local de Execução,Fundamentação,Data de Fecho do Contrato,Preço Total Efetivo,Causas das Alterações ao Prazo,Causas das Alterações ao Preço,Estado,N.º registo do Acordo Quadro,Descrição do Acordo Quadro,Procedimento Centralizado
CARDIOVERSORES,Ajuste Direto Regime Geral,Aquisição de bens móveis,"33000000-0, Equipamento médico, medicamentos e produtos para cuidados pessoais","Centro Hospitalar e Universitário de Coimbra, E. P. E. (510103448)",ST. JUDE MEDICAL PORTUGAL (504180746),"34.034,00 €",09-10-2015,26-08-2014,90 dias,"Portugal, Coimbra, Coimbra","Artigo 24.º, n.º 1, alínea e) do Código dos Contratos Públicos","","",,"",,Não aplicável.,Não aplicável.,FALSE
040105232014 - Cimento c/ gentamicina embal.,Ajuste Direto Regime Geral,Aquisição de bens móveis,"33698000-9, Produtos para fins clínicos","Centro Hospitalar e Universitário de Coimbra, E. P. E. (510103448)",Hetaues Kulzer Portugal Lda (508322227),"4.500,00 €",08-10-2015,26-08-2014,365 dias,"Portugal, Coimbra, Coimbra","Artigo 20.º, n.º 1, alínea a) do Código dos Contratos Públicos",31-12-2014,"4.500,00 €",,"",,Não aplicável.,Não aplicável.,FALSE
CPA 2012/10 - MEDICAMENTOS CPA 2012/10,Ao abrigo de acordo-quadro (art.º 259.º),Aquisição de bens móveis,"33698000-9, Produtos para fins clínicos","Centro Hospitalar e Universitário de Coimbra, E. P. E. (510103448)","QUEENLABS, LDA (503984485), SMITH & NEPHEW, LDA (503552461)","947,16 €",08-10-2015,24-02-2014,365 dias,"Portugal, Coimbra, Coimbra",Artigo 259.º do Código dos Contratos Públicos,31-12-2014,"947,16 €",,"",,1513257,Acordo quadro para fornecimento de Medicamentos diversos II   às Instituições e Serviços do Serviço Nacional de Saúde,FALSE
CPA 2012/44 - MEDICAMENTOS CPA 2012/44,Ao abrigo de acordo-quadro (art.º 259.º),Aquisição de bens móveis,"33698000-9, Produtos para fins clínicos","Centro Hospitalar e Universitário de Coimbra, E.P. (510103448)","LABESFAL LABORATORIO ALMIRO, SA (501169580), ACTAVIS AS (980334934)","3.370,00 €",08-10-2015,08-10-2014,365 dias,"Portugal, Coimbra, Coimbra",Artigo 259.º do Código dos Contratos Públicos,31-12-2014,"3.370,00 €",,"",,1513257,Acordo quadro para fornecimento de Medicamentos diversos II   às Instituições e Serviços do Serviço Nacional de Saúde,FALSE
CPA 2012/2 - MEDICAMENTOS CPA 2012/2,Ao abrigo de acordo-quadro (art.º 259.º),Aquisição de bens móveis,"33698000-9, Produtos para fins clínicos","Centro Hospitalar e Universitário de Coimbra, E.P. (510103448)","RATIOPHARM, LDA (502414910), GENERIS FARMACEUTICA, SA (505625520)","143,28 €",08-10-2015,24-02-2014,365 dias,"Portugal, Coimbra, Coimbra",Artigo 259.º do Código dos Contratos Públicos,31-12-2014,"143,28 €",,"",,1513257,Acordo quadro para fornecimento de Medicamentos diversos II   às Instituições e Serviços do Serviço Nacional de Saúde,FALSE
CPA 2012/36 - ESPONJA DE GELATINA 70x50x10 MM,Ao abrigo de acordo-quadro (art.º 258.º),Aquisição de bens móveis,"33698000-9, Produtos para fins clínicos","Centro Hospitalar e Universitário de Coimbra, E.P. (510103448)","CLINIFAR PRODUTOS  CLINICOS E FARMACEUTICOS, SA (503281115)","1.260,00 €",08-10-2015,24-02-2014,365 dias,"Portugal, Coimbra, Coimbra",Artigo 258.º do Código dos Contratos Públicos,31-12-2014,"1.260,00 €",,"",,1513257,Acordo quadro para fornecimento de Medicamentos diversos II   às Instituições e Serviços do Serviço Nacional de Saúde,FALSE
"CPA 2013/35 - SOL DPCA GLUCOSE 22,7 MG/ML BICARB E CA 1,75 MMOL/L SAC DUPLO 2500 ML",Ao abrigo de acordo-quadro (art.º 258.º),Aquisição de bens móveis,"33698000-9, Produtos para fins clínicos","Centro Hospitalar e Universitário de Coimbra, E. P. E. (510103448)","BAXTER MEDICO - FARMACEUTICO, LDA (503347345)","59.950,00 €",08-10-2015,19-06-2014,365 dias,"Portugal, Coimbra, Coimbra",Artigo 258.º do Código dos Contratos Públicos,31-12-2014,"59.950,00 €",,"",,1513257,Acordo quadro para fornecimento de Medicamentos diversos II   às Instituições e Serviços do Serviço Nacional de Saúde,FALSE
040105152014 - Mercaptopurina 20mg/ml susp oral fr 100ml,Ajuste Direto Regime Geral,Aquisição de bens móveis,"33698000-9, Produtos para fins clínicos","Centro Hospitalar e Universitário de Coimbra, E. P. E. (510103448)",Etiopharma SA (509393357),"8.400,00 €",08-10-2015,16-07-2014,365 dias,"Portugal, Coimbra, Coimbra","Artigo 24.º, n.º 1, alínea e) do Código dos Contratos Públicos",31-12-2014,"8.400,00 €",,"",,Não aplicável.,Não aplicável.,FALSE
040105142014 - Permaganato de potássio 500mg comp,Ajuste Direto Regime Geral,Aquisição de bens móveis,"33698000-9, Produtos para fins clínicos","Centro Hospitalar e Universitário de Coimbra, E. P. E. (510103448)",Overpharma Produtos Medico Farmaceuticos Lda (505792362),"175,00 €",08-10-2015,25-07-2014,365 dias,"Portugal, Coimbra, Coimbra","Artigo 20.º, n.º 1, alínea a) do Código dos Contratos Públicos",31-12-2014,"175,00 €",,"",,Não aplicável.,Não aplicável.,FALSE
040105132014 - Bendamustina pó con sol inj fr IV,Ajuste Direto Regime Geral,Aquisição de bens móveis,"33698000-9, Produtos para fins clínicos","Centro Hospitalar e Universitário de Coimbra, E. P. E. (510103448)",CPH Pharma Produtos Farmaceuticos SA (500069190),"3.969,02 €",08-10-2015,14-07-2014,365 dias,"Portugal, Coimbra, Coimbra","Artigo 24.º, n.º 1, alínea e) do Código dos Contratos Públicos",31-12-2014,"3.969,02 €",,"",,Não aplicável.,Não aplicável.,FALSE
CPA 2012/14 - MESSALAZINA 500 MG COMP LP,Ao abrigo de acordo-quadro (art.º 258.º),Aquisição de bens móveis,"33698000-9, Produtos para fins clínicos","Centro Hospitalar e Universitário de Coimbra, E. P. E. (510103448)","FERRING PORTUGUESA PROD. FARMACEUTICOS, LDA. (502034831)","1.020,60 €",08-10-2015,13-06-2014,365 dias,"Portugal, Coimbra, Coimbra",Artigo 258.º do Código dos Contratos Públicos,31-12-2014,"1.020,60 €",,"",,1513257,Acordo quadro para fornecimento de Medicamentos diversos II   às Instituições e Serviços do Serviço Nacional de Saúde,FALSE
CPA 211/6 - DOXORRUBICINA 2 MG/ML SOL INJ FR 5 ML IV IVESICAL,Ao abrigo de acordo-quadro (art.º 258.º),Aquisição de bens móveis,"33698000-9, Produtos para fins clínicos","Centro Hospitalar e Universitário de Coimbra, E. P. E. (510103448)","RES MEDICAL- PRESTAÇAO SERVIÇOS COMERCIAIS, SA (502440163)","92,00 €",08-10-2015,26-05-2014,365 dias,"Portugal, Coimbra, Coimbra",Artigo 258.º do Código dos Contratos Públicos,26-05-2014,"92,00 €",,"",,1513257,Acordo quadro para fornecimento de Medicamentos diversos II   às Instituições e Serviços do Serviço Nacional de Saúde,FALSE
040222952015 - OUTRO MATERIAL DE CONSUMO CLINICO,Ajuste Direto Regime Geral,Aquisição de bens móveis,"33000000-0, Equipamento médico, medicamentos e produtos para cuidados pessoais","Centro Hospitalar e Universitário de Coimbra, E. P. E. (510103448)",EPJ (506820513),"9.936,50 €",08-10-2015,28-07-2015,12 dias,"Portugal, Coimbra, Coimbra","Artigo 24.º, n.º 1, alínea e) do Código dos Contratos Públicos","","",,"",,Não aplicável.,Não aplicável.,FALSE
CPA 2012/14 - MESSALAZINA 500 MG COMP GR,Ao abrigo de acordo-quadro (art.º 258.º),Aquisição de bens móveis,"33698000-9, Produtos para fins clínicos","Centro Hospitalar e Universitário de Coimbra, E. P. E. (510103448)","FERRING PORTUGUESA PROD. FARMACEUTICOS, LDA. (502034831)","63,00 €",08-10-2015,27-05-2014,365 dias,"Portugal, Coimbra, Coimbra",Artigo 258.º do Código dos Contratos Públicos,31-12-2014,"63,00 €",,"",,1513257,Acordo quadro para fornecimento de Medicamentos diversos II   às Instituições e Serviços do Serviço Nacional de Saúde,FALSE
040105112014 - Acido Carglumico 200mg comp disp,Ajuste Direto Regime Geral,Aquisição de bens móveis,"33698000-9, Produtos para fins clínicos","Centro Hospitalar e Universitário de Coimbra, E. P. E. (510103448)",Orphan Europe Portugal (507966953),"4.568,69 €",08-10-2015,31-07-2014,365 dias,"Portugal, Coimbra, Coimbra","Artigo 24.º, n.º 1, alínea e) do Código dos Contratos Públicos",31-12-2014,"4.568,69 €",,"",,Não aplicável.,Não aplicável.,FALSE
CPA 2013/44 - FENTANILO 100 uG COMP SUBLING,Ao abrigo de acordo-quadro (art.º 258.º),Aquisição de bens móveis,"33698000-9, Produtos para fins clínicos","Centro Hospitalar e Universitário de Coimbra, E. P. E. (510103448)","LABORATORIOS VITORIA, SA (500162220)","3.377,82 €",08-10-2015,27-05-2014,365 dias,"Portugal, Coimbra, Coimbra",Artigo 258.º do Código dos Contratos Públicos,31-12-2014,"9.007,52 €",,AUMENTO DE CONSUMO,,1513257,Acordo quadro para fornecimento de Medicamentos diversos II   às Instituições e Serviços do Serviço Nacional de Saúde,FALSE
040222822015 - OUTRO MATERIAL DE CONSUMO,Ajuste Direto Regime Geral,Aquisição de bens móveis,"33000000-0, Equipamento médico, medicamentos e produtos para cuidados pessoais","Centro Hospitalar e Universitário de Coimbra, E. P. E. (510103448)",BASTOS E VIEGAS (500042772),"7.239,93 €",08-10-2015,28-07-2015,15 dias,"Portugal, Coimbra, Coimbra","Artigo 24.º, n.º 1, alínea e) do Código dos Contratos Públicos","","",,"",,Não aplicável.,Não aplicável.,FALSE
CPA 2013/44 - FENTANILO 300 uG COMP SUBLING,Ao abrigo de acordo-quadro (art.º 258.º),Aquisição de bens móveis,"33698000-9, Produtos para fins clínicos","Centro Hospitalar e Universitário de Coimbra, E. P. E. (510103448)","LABORATORIOS VITORIA, SA (500162220)","1.155,20 €",08-10-2015,27-05-2014,365 dias,"Portugal, Coimbra, Coimbra",Artigo 258.º do Código dos Contratos Públicos,31-12-2014,"1.155,20 €",,"",,1513257,Acordo quadro para fornecimento de Medicamentos diversos II   às Instituições e Serviços do Serviço Nacional de Saúde,FALSE
040222972015 - OUTRO MATERIAL DE CONSUMO,Ajuste Direto Regime Geral,Aquisição de bens móveis,"33000000-0, Equipamento médico, medicamentos e produtos para cuidados pessoais","Centro Hospitalar e Universitário de Coimbra, E. P. E. (510103448)",EPJ (506820513),"9.936,50 €",08-10-2015,28-07-2015,10 dias,"Portugal, Coimbra, Coimbra","Artigo 24.º, n.º 1, alínea e) do Código dos Contratos Públicos","","",,"",,Não aplicável.,Não aplicável.,FALSE
040222962015 - outro material de consumo,Ajuste Direto Regime Geral,Aquisição de bens móveis,"33000000-0, Equipamento médico, medicamentos e produtos para cuidados pessoais","Centro Hospitalar e Universitário de Coimbra, E. P. E. (510103448)",EPJ (506820513),"9.936,50 €",08-10-2015,28-07-2015,10 dias,"Portugal, Coimbra, Coimbra","Artigo 24.º, n.º 1, alínea e) do Código dos Contratos Públicos","","",,"",,Não aplicável.,Não aplicável.,FALSE
"CPA 2013/44 - FENTANILO 12,5 uG/H SIST TRANSD",Ao abrigo de acordo-quadro (art.º 258.º),Aquisição de bens móveis,"33698000-9, Produtos para fins clínicos","Centro Hospitalar e Universitário de Coimbra, E. P. E. (510103448)","SANDOZ FARMACÊUTICA, LDA (506985261)","472,50 €",08-10-2015,18-06-2014,365 dias,"Portugal, Coimbra, Coimbra",Artigo 258.º do Código dos Contratos Públicos,31-12-2014,"472,50 €",,"",,1513257,Acordo quadro para fornecimento de Medicamentos diversos II   às Instituições e Serviços do Serviço Nacional de Saúde,FALSE
040105102014 - Hemina 250mg/10ml sol inj fr 10ml IV,Ajuste Direto Regime Geral,Aquisição de bens móveis,"33698000-9, Produtos para fins clínicos","Centro Hospitalar e Universitário de Coimbra, E. P. E. (510103448)",Orphan Europe (507966953),"8.664,00 €",08-10-2015,31-07-2014,365 dias,"Portugal, Coimbra, Coimbra","Artigo 24.º, n.º 1, alínea e) do Código dos Contratos Públicos",31-12-2014,"8.664,00 €",,"",,Não aplicável.,Não aplicável.,FALSE
"CPA 2013/35 - SOL DPCA/DPA GLUCOSE 15 MG/ML BICARB E CA 1,75 MMOL/L SAC DUPLO 3000 ML",Ao abrigo de acordo-quadro (art.º 258.º),Aquisição de bens móveis,"33698000-9, Produtos para fins clínicos","Centro Hospitalar e Universitário de Coimbra, E. P. E. (510103448)","FRESENIUS MEDICAL CARE, SA (503070220)","75.900,00 €",08-10-2015,15-07-2014,365 dias,"Portugal, Coimbra, Coimbra",Artigo 258.º do Código dos Contratos Públicos,31-12-2014,"156.400,00 €",,AUMENTO DE CONSUMO,,1513257,Acordo quadro para fornecimento de Medicamentos diversos II   às Instituições e Serviços do Serviço Nacional de Saúde,FALSE
040105092014 - Rasburicase 1.5mg/1ml pó conc sol inj Fr IV,Ajuste Direto Regime Geral,Aquisição de bens móveis,"33698000-9, Produtos para fins clínicos","Centro Hospitalar e Universitário de Coimbra, E. P. E. (510103448)",Sanofi - Produtos Farmaceuticos Lda (500134960),"4.800,00 €",08-10-2015,16-07-2014,365 dias,"Portugal, Coimbra, Coimbra","Artigo 24.º, n.º 1, alínea e) do Código dos Contratos Públicos",31-12-2014,"4.800,00 €",,"",,Não aplicável.,Não aplicável.,FALSE
040208982015 - OSTEOSSINTESE,Ajuste Direto Regime Geral,Aquisição de bens móveis,"33000000-0, Equipamento médico, medicamentos e produtos para cuidados pessoais","Centro Hospitalar e Universitário de Coimbra, E. P. E. (510103448)",JOHNSON (500153370),"15.542,18 €",08-10-2015,26-05-2015,10 dias,"Portugal, Coimbra, Coimbra","Artigo 24.º, n.º 1, alínea e) do Código dos Contratos Públicos","","",,"",,Não aplicável.,Não aplicável.,FALSE
CPA 2012/14 - LIDOCAINA 20 MG/ML GEL BUCAL FR 125 ML,Ao abrigo de acordo-quadro (art.º 258.º),Aquisição de bens móveis,"33698000-9, Produtos para fins clínicos","Centro Hospitalar e Universitário de Coimbra, E. P. E. (510103448)","SIDEFARMA - SOCIEDADE  INDUSTR. EXPANS. FARM., LDA (500717419)","750,00 €",08-10-2015,18-06-2014,365 dias,"Portugal, Coimbra, Coimbra",Artigo 258.º do Código dos Contratos Públicos,31-12-2014,"750,00 €",,"",,1513257,Acordo quadro para fornecimento de Medicamentos diversos II   às Instituições e Serviços do Serviço Nacional de Saúde,FALSE
040222392015 - COLUNA,Ajuste Direto Regime Geral,Aquisição de bens móveis,"33000000-0, Equipamento médico, medicamentos e produtos para cuidados pessoais","Centro Hospitalar e Universitário de Coimbra, E. P. E. (510103448)",JOHNSON (500153370),"14.409,69 €",08-10-2015,28-07-2015,10 dias,"Portugal, Coimbra, Coimbra","Artigo 24.º, n.º 1, alínea e) do Código dos Contratos Públicos","","",,"",,Não aplicável.,Não aplicável.,FALSE
040219742015 - OUTRO MATERIAL DE CONSUMO,Ajuste Direto Regime Geral,Aquisição de bens móveis,"33000000-0, Equipamento médico, medicamentos e produtos para cuidados pessoais","Centro Hospitalar e Universitário de Coimbra, E. P. E. (510103448)",JOHNSON (500153370),"9.956,80 €",08-10-2015,10-07-2015,10 dias,"Portugal, Coimbra, Coimbra","Artigo 24.º, n.º 1, alínea e) do Código dos Contratos Públicos","","",,"",,Não aplicável.,Não aplicável.,FALSE
CPA 2013/16 - MOROCTOCOG ALFA 250 U.I. PO SOL INJ FR IV,Ao abrigo de acordo-quadro (art.º 258.º),Aquisição de bens móveis,"33698000-9, Produtos para fins clínicos","Centro Hospitalar e Universitário de Coimbra, E. P. E. (510103448)","LABORATORIOS PFIZER, LDA (500162166)","1.724,90 €",08-10-2015,18-06-2014,365 dias,"Portugal, Coimbra, Coimbra",Artigo 258.º do Código dos Contratos Públicos,31-12-2014,"1.724,90 €",,"",,1513257,Acordo quadro para fornecimento de Medicamentos diversos II   às Instituições e Serviços do Serviço Nacional de Saúde,FALSE
040210232015 - NEUROESTIMULADORES,Ajuste Direto Regime Geral,Aquisição de bens móveis,"33000000-0, Equipamento médico, medicamentos e produtos para cuidados pessoais","Centro Hospitalar e Universitário de Coimbra, E. P. E. (510103448)",MEDTRONIC (504223933),"70.600,00 €",08-10-2015,16-06-2015,30 dias,"Portugal, Coimbra, Coimbra","Artigo 20.º, n.º 1, alínea a) do Código dos Contratos Públicos","","",,"",,Não aplicável.,Não aplicável.,FALSE
CPA 2013/18 - RIVAROXABANO COMP,Ao abrigo de acordo-quadro (art.º 258.º),Aquisição de bens móveis,"33698000-9, Produtos para fins clínicos","Centro Hospitalar e Universitário de Coimbra, E. P. E. (510103448)","BAYER PORTUGAL, SA (500043256)","811,92 €",08-10-2015,18-06-2014,365 dias,"Portugal, Coimbra, Coimbra",Artigo 258.º do Código dos Contratos Públicos,31-12-2014,"2.096,77 €",,AUMENTO DE CONSUMO,,1513257,Acordo quadro para fornecimento de Medicamentos diversos II   às Instituições e Serviços do Serviço Nacional de Saúde,FALSE
040222362015 - OUTRO MATERIAL DE CONSUMO,Ajuste Direto Regime Geral,Aquisição de bens móveis,"33000000-0, Equipamento médico, medicamentos e produtos para cuidados pessoais","Centro Hospitalar e Universitário de Coimbra, E. P. E. (510103448)",JOHNSON (500153370),"19.480,40 €",08-10-2015,29-07-2015,10 dias,"Portugal, Coimbra, Coimbra","Artigo 24.º, n.º 1, alínea e) do Código dos Contratos Públicos","","",,"",,Não aplicável.,Não aplicável.,FALSE
CPA 2012/14 - ESOMEPRAZOL 10 MG GRAN GR SUSP ORAL SAQ ORAL,Ao abrigo de acordo-quadro (art.º 258.º),Aquisição de bens móveis,"33698000-9, Produtos para fins clínicos","Centro Hospitalar e Universitário de Coimbra, E. P. E. (510103448)","ASTRAZENECA PRODUTOS FARMACÊUTICOS, LDA (502942240)","160,89 €",08-10-2015,18-06-2014,365 dias,"Portugal, Coimbra, Coimbra",Artigo 258.º do Código dos Contratos Públicos,31-12-2014,"434,40 €",,AUMENTO DE CONSUMO,,1513257,Acordo quadro para fornecimento de Medicamentos diversos II   às Instituições e Serviços do Serviço Nacional de Saúde,FALSE
040222942015 - OUTRO MATERIAL DE CONSUMO CLINICO,Ajuste Direto Regime Geral,Aquisição de bens móveis,"33000000-0, Equipamento médico, medicamentos e produtos para cuidados pessoais","Centro Hospitalar e Universitário de Coimbra, E. P. E. (510103448)",EPJ (506820513),"9.079,00 €",08-10-2015,28-07-2015,20 dias,"Portugal, Coimbra, Coimbra","Artigo 24.º, n.º 1, alínea e) do Código dos Contratos Públicos","","",,"",,Não aplicável.,Não aplicável.,FALSE
040222812015 - OUTRO MATERIAL DE CONSUMO,Ajuste Direto Regime Geral,Aquisição de bens móveis,"33000000-0, Equipamento médico, medicamentos e produtos para cuidados pessoais","Centro Hospitalar e Universitário de Coimbra, E. P. E. (510103448)",MOLNLYCKE (511101066),"9.153,00 €",08-10-2015,03-08-2015,20 dias,"Portugal, Coimbra, Coimbra","Artigo 24.º, n.º 1, alínea e) do Código dos Contratos Públicos","","",,"",,Não aplicável.,Não aplicável.,FALSE
040222912015 - OUTRO MATERIAL DE CONSUMO,Ajuste Direto Regime Geral,Aquisição de bens móveis,"33000000-0, Equipamento médico, medicamentos e produtos para cuidados pessoais","Centro Hospitalar e Universitário de Coimbra, E. P. E. (510103448)",3M (500193940),"9.782,50 €",08-10-2015,29-07-2015,10 dias,"Portugal, Coimbra, Coimbra","Artigo 24.º, n.º 1, alínea e) do Código dos Contratos Públicos","","",,"",,Não aplicável.,Não aplicável.,FALSE
CPA 2013/6 - IDARRUBICINA CÁPS,Ao abrigo de acordo-quadro (art.º 258.º),Aquisição de bens móveis,"33698000-9, Produtos para fins clínicos","Centro Hospitalar e Universitário de Coimbra, E. P. E. (510103448)","LABORATORIOS PFIZER, LDA (500162166)","2.503,98 €",08-10-2015,27-06-2014,365 dias,"Portugal, Coimbra, Coimbra",Artigo 258.º do Código dos Contratos Públicos,31-12-2014,"2.503,98 €",,"",,1513257,Acordo quadro para fornecimento de Medicamentos diversos II   às Instituições e Serviços do Serviço Nacional de Saúde,FALSE
CPA 2013/6 - TACROLIMUS PÓ SUSP ORAL SAQ,Ao abrigo de acordo-quadro (art.º 258.º),Aquisição de bens móveis,"33698000-9, Produtos para fins clínicos","Centro Hospitalar e Universitário de Coimbra, E. P. E. (510103448)","ASTELLAS FARMA, LDA (502540249)","1.636,52 €",08-10-2015,23-07-2014,365 dias,"Portugal, Coimbra, Coimbra",Artigo 258.º do Código dos Contratos Públicos,31-12-2014,"10.491,80 €",,AUMENTO DE CONSUMO,,1513257,Acordo quadro para fornecimento de Medicamentos diversos II   às Instituições e Serviços do Serviço Nacional de Saúde,FALSE
040105082014 - Triamcinolona 40mg/ml susp inj,Ajuste Direto Regime Geral,Aquisição de bens móveis,"33698000-9, Produtos para fins clínicos","Centro Hospitalar e Universitário de Coimbra, E. P. E. (510103448)",Wepharma UK (944893866),"1.428,00 €",08-10-2015,09-07-2014,365 dias,"Portugal, Coimbra, Coimbra","Artigo 24.º, n.º 1, alínea e) do Código dos Contratos Públicos",09-07-2014,"1.428,00 €",,"",,Não aplicável.,Não aplicável.,FALSE
040224712015 - OUTRO MATERIAL DE CONSUMO,Ajuste Direto Regime Geral,Aquisição de bens móveis,"33000000-0, Equipamento médico, medicamentos e produtos para cuidados pessoais","Centro Hospitalar e Universitário de Coimbra, E. P. E. (510103448)",B BRAUN (501506543),"5.900,00 €",08-10-2015,10-08-2015,10 dias,"Portugal, Coimbra, Coimbra","Artigo 24.º, n.º 1, alínea e) do Código dos Contratos Públicos","","",,"",,Não aplicável.,Não aplicável.,FALSE
CPA 2013/45 - BUPIVACAINA HIPERBARICA 20 MG/4 ML SOL INJ FR 4 ML EPIDURAL,Ao abrigo de acordo-quadro (art.º 258.º),Aquisição de bens móveis,"33698000-9, Produtos para fins clínicos","Centro Hospitalar e Universitário de Coimbra, E. P. E. (510103448)","ASTRAZENECA PRODUTOS FARMACÊUTICOS, LDA (502942240)","600,00 €",08-10-2015,09-07-2014,365 dias,"Portugal, Coimbra, Coimbra",Artigo 258.º do Código dos Contratos Públicos,31-12-2014,"600,00 €",,"",,1513257,Acordo quadro para fornecimento de Medicamentos diversos II   às Instituições e Serviços do Serviço Nacional de Saúde,FALSE
040105062014 - Levocarnitina 1000mg/5ml IM IV,Ajuste Direto Regime Geral,Aquisição de bens móveis,"33698000-9, Produtos para fins clínicos","Centro Hospitalar e Universitário de Coimbra, E. P. E. (510103448)",Wepharma UK (944893866),"234,00 €",08-10-2015,09-07-2014,365 dias,"Portugal, Coimbra, Coimbra","Artigo 24.º, n.º 1, alínea e) do Código dos Contratos Públicos",31-12-2014,"234,00 €",,"",,Não aplicável.,Não aplicável.,FALSE
040224642015 - OUTRO MATERIAL DE CONSUMO,Ajuste Direto Regime Geral,Aquisição de bens móveis,"33000000-0, Equipamento médico, medicamentos e produtos para cuidados pessoais","Centro Hospitalar e Universitário de Coimbra, E. P. E. (510103448)",AVIQUIMICA (500039720),"6.150,00 €",08-10-2015,10-08-2015,20 dias,"Portugal, Coimbra, Coimbra","Artigo 24.º, n.º 1, alínea e) do Código dos Contratos Públicos","","",,"",,Não aplicável.,Não aplicável.,FALSE
CPA 2013/7 - OXITOCINA 5 U.I./1ML SOL INJ FR 1 ML IM IV,Ao abrigo de acordo-quadro (art.º 258.º),Aquisição de bens móveis,"33698000-9, Produtos para fins clínicos","Centro Hospitalar e Universitário de Coimbra, E. P. E. (510103448)","GENERIS FARMACEUTICA, SA (508107997)","1.500,00 €",08-10-2015,09-07-2014,365 dias,"Portugal, Coimbra, Coimbra",Artigo 258.º do Código dos Contratos Públicos,31-12-2014,"1.500,00 €",,"",,1513257,Acordo quadro para fornecimento de Medicamentos diversos II   às Instituições e Serviços do Serviço Nacional de Saúde,FALSE
PARACETAMOL 10 MG/ML SOL INJ FR 100 ML IV,Ao abrigo de acordo-quadro (art.º 258.º),Aquisição de bens móveis,"33698000-9, Produtos para fins clínicos","Centro Hospitalar e Universitário de Coimbra, E. P. E. (510103448)","FRESENIUS KABI PHARMA PORTUGAL, LDA (504293753)","50.283,70 €",08-10-2015,10-07-2014,365 dias,"Portugal, Coimbra, Coimbra",Artigo 258.º do Código dos Contratos Públicos,31-12-2014,"59.503,30 €",,AUMENTO DE CONSUMO,,1513257,Acordo quadro para fornecimento de Medicamentos diversos II   às Instituições e Serviços do Serviço Nacional de Saúde,FALSE
040224732015 - OUTRO MATERIAL DE CONSUMO,Ajuste Direto Regime Geral,Aquisição de bens móveis,"33000000-0, Equipamento médico, medicamentos e produtos para cuidados pessoais","Centro Hospitalar e Universitário de Coimbra, E. P. E. (510103448)",DISPOFARMA (503778699),"8.235,00 €",08-10-2015,11-09-2015,10 dias,"Portugal, Coimbra, Coimbra","Artigo 24.º, n.º 1, alínea e) do Código dos Contratos Públicos","","",,"",,Não aplicável.,Não aplicável.,FALSE
040217942015 - OSTEOSSINTESE,Ajuste Direto Regime Geral,Aquisição de bens móveis,"33000000-0, Equipamento médico, medicamentos e produtos para cuidados pessoais","Centro Hospitalar e Universitário de Coimbra, E. P. E. (510103448)",JOHNSON (500153370),"26.718,03 €",08-10-2015,09-07-2015,10 dias,"Portugal, Coimbra, Coimbra","Artigo 24.º, n.º 1, alínea e) do Código dos Contratos Públicos","","",,"",,Não aplicável.,Não aplicável.,FALSE
CPA 2013/6 - NILOTINIB 150 MG CÁPS,Ao abrigo de acordo-quadro (art.º 258.º),Aquisição de bens móveis,"33698000-9, Produtos para fins clínicos","Centro Hospitalar e Universitário de Coimbra, E. P. E. (510103448)","NOVARTIS FARMA - PROD. FARMACEUTICOS,  SA. (500063524)","19.896,49 €",08-10-2015,14-07-2014,365 dias,"Portugal, Coimbra, Coimbra",Artigo 258.º do Código dos Contratos Públicos,31-12-2014,"19.896,49 €",,"",,1513257,Acordo quadro para fornecimento de Medicamentos diversos II   às Instituições e Serviços do Serviço Nacional de Saúde,FALSE
CPA 2013/6 - MEGESTROL 40 MG/ML SUSP ORAL FR 240 ML,Ao abrigo de acordo-quadro (art.º 258.º),Aquisição de bens móveis,"33698000-9, Produtos para fins clínicos","Centro Hospitalar e Universitário de Coimbra, E. P. E. (510103448)","PROFARIN, LDA (500223238)","1.458,60 €",08-10-2015,14-07-2014,365 dias,"Portugal, Coimbra, Coimbra",Artigo 258.º do Código dos Contratos Públicos,31-12-2014,"1.458,60 €",,"",,1513257,Acordo quadro para fornecimento de Medicamentos diversos II   às Instituições e Serviços do Serviço Nacional de Saúde,FALSE
CPA 2013/44 - SERTRALINA 20 MG/ML SOL ORAL FR 60 ML,Ao abrigo de acordo-quadro (art.º 258.º),Aquisição de bens móveis,"33698000-9, Produtos para fins clínicos","Centro Hospitalar e Universitário de Coimbra, E. P. E. (510103448)","LABORATORIOS PFIZER, LDA (500162166)","47,95 €",08-10-2015,14-07-2014,365 dias,"Portugal, Coimbra, Coimbra",Artigo 258.º do Código dos Contratos Públicos,31-12-2014,"47,95 €",,"",,1513257,Acordo quadro para fornecimento de Medicamentos diversos II   às Instituições e Serviços do Serviço Nacional de Saúde,FALSE
040223822015 - OUTRO MATERIAL DE CONSUMO,Ajuste Direto Regime Geral,Aquisição de bens móveis,"33000000-0, Equipamento médico, medicamentos e produtos para cuidados pessoais","Centro Hospitalar e Universitário de Coimbra, E. P. E. (510103448)",HR (501895558),"8.030,00 €",08-10-2015,10-08-2015,10 dias,"Portugal, Coimbra, Coimbra","Artigo 24.º, n.º 1, alínea e) do Código dos Contratos Públicos","","",,"",,Não aplicável.,Não aplicável.,FALSE
CPA 2013/6 - CRIZOTINIB 250 MG CÁPS,Ao abrigo de acordo-quadro (art.º 258.º),Aquisição de bens móveis,"33698000-9, Produtos para fins clínicos","Centro Hospitalar e Universitário de Coimbra, E. P. E. (510103448)","LABORATORIOS PFIZER, LDA (500162166)","15.899,99 €",08-10-2015,23-07-2014,365 dias,"Portugal, Coimbra, Coimbra",Artigo 258.º do Código dos Contratos Públicos,31-12-2014,"105.999,96 €",,AUMENTO DE CONSUMO,,1513257,Acordo quadro para fornecimento de Medicamentos diversos II   às Instituições e Serviços do Serviço Nacional de Saúde,FALSE
040105012014 - Iodeto (131I) de sódio 296MBQ caps,Ajuste Direto Regime Geral,Aquisição de bens móveis,"33698000-9, Produtos para fins clínicos","Centro Hospitalar e Universitário de Coimbra, E. P. E. (510103448)",Isotopos e Derivados (Isoder) SA (502241594),"840,00 €",08-10-2015,26-08-2014,365 dias,"Portugal, Coimbra, Coimbra","Artigo 20.º, n.º 1, alínea a) do Código dos Contratos Públicos",31-12-2014,"840,00 €",,"",,Não aplicável.,Não aplicável.,FALSE
CPA 2013/6 - EVEROLIMUS 1.0 MG COMP,Ao abrigo de acordo-quadro (art.º 258.º),Aquisição de bens móveis,"33698000-9, Produtos para fins clínicos","Centro Hospitalar e Universitário de Coimbra, E. P. E. (510103448)","NOVARTIS FARMA - PROD. FARMACEUTICOS,  SA. (500063524)","5.912,82 €",08-10-2015,30-07-2014,365 dias,"Portugal, Coimbra, Coimbra",Artigo 258.º do Código dos Contratos Públicos,31-12-2014,"5.912,82 €",,"",,1513257,Acordo quadro para fornecimento de Medicamentos diversos II   às Instituições e Serviços do Serviço Nacional de Saúde,FALSE
"040104982014 - Colecalciferol 0,5mg/ml sol oral fr 10ml",Ajuste Direto Regime Geral,Aquisição de bens móveis,"33698000-9, Produtos para fins clínicos","Centro Hospitalar e Universitário de Coimbra, E. P. E. (510103448)",Merck SA (500650870),"552,00 €",08-10-2015,16-07-2014,365 dias,"Portugal, Coimbra, Coimbra","Artigo 24.º, n.º 1, alínea e) do Código dos Contratos Públicos",31-12-2014,"552,00 €",,"",,Não aplicável.,Não aplicável.,FALSE
CPA 2013/41 - VORICONAZOL 40 MG/ML PO SUSP ORAL FR,Ao abrigo de acordo-quadro (art.º 258.º),Aquisição de bens móveis,"33698000-9, Produtos para fins clínicos","Centro Hospitalar e Universitário de Coimbra, E. P. E. (510103448)","LABORATORIOS PFIZER, LDA (500162166)","16.169,70 €",08-10-2015,26-08-2014,365 dias,"Portugal, Coimbra, Coimbra",Artigo 258.º do Código dos Contratos Públicos,31-12-2014,"16.169,70 €",,"",,1513257,Acordo quadro para fornecimento de Medicamentos diversos II   às Instituições e Serviços do Serviço Nacional de Saúde,FALSE
CPA 2012/10 - ESPUMA DE POLIURETANO C/PRATA APÓSITO,Ao abrigo de acordo-quadro (art.º 258.º),Aquisição de bens móveis,"33698000-9, Produtos para fins clínicos","Centro Hospitalar e Universitário de Coimbra, E. P. E. (510103448)","SMITH & NEPHEW, LDA (503552461)","1.180,00 €",08-10-2015,17-10-2014,365 dias,"Portugal, Coimbra, Coimbra",Artigo 258.º do Código dos Contratos Públicos,31-12-2014,"1.180,00 €",,"",,1513257,Acordo quadro para fornecimento de Medicamentos diversos II   às Instituições e Serviços do Serviço Nacional de Saúde,FALSE
CPA 2014/6 - IFOSFAMIDA 2000 MG PO SOL INJ FR IV,Ao abrigo de acordo-quadro (art.º 258.º),Aquisição de bens móveis,"33698000-9, Produtos para fins clínicos","Centro Hospitalar e Universitário de Coimbra, E. P. E. (510103448)","BAXTER MEDICO - FARMACEUTICO, LDA (503347345)","32.487,00 €",08-10-2015,16-09-2014,365 dias,"Portugal, Coimbra, Coimbra",Artigo 258.º do Código dos Contratos Públicos,31-12-2014,"32.487,00 €",,"",,1513257,Acordo quadro para fornecimento de Medicamentos diversos II   às Instituições e Serviços do Serviço Nacional de Saúde,FALSE
CPA 2013/6 - FLUOROURACILO 50 MG/ML SOL INJ FR 100 ML IA IV,Ao abrigo de acordo-quadro (art.º 258.º),Aquisição de bens móveis,"33698000-9, Produtos para fins clínicos","Centro Hospitalar e Universitário de Coimbra, E. P. E. (510103448)","TEVA PHARMA - PRODUTOS FARMACÊUTICOS, LDA (507045491)","2.378,00 €",08-10-2015,16-09-2014,365 dias,"Portugal, Coimbra, Coimbra",Artigo 258.º do Código dos Contratos Públicos,31-12-2014,"2.378,00 €",,"",,1513257,Acordo quadro para fornecimento de Medicamentos diversos II   às Instituições e Serviços do Serviço Nacional de Saúde,FALSE
CPA 2012/4 - A.A..8 G/LN+GLUCOSE 144 G/L+LÍPIDOS 40 G/L+ELECTRÓLITOS EMUL INJ FR 625 ML IV,Ao abrigo de acordo-quadro (art.º 258.º),Aquisição de bens móveis,"33698000-9, Produtos para fins clínicos","Centro Hospitalar e Universitário de Coimbra, E. P. E. (510103448)","B BRAUN MEDICAL, LDA (501506543)","1.421,40 €",08-10-2015,17-09-2014,365 dias,"Portugal, Coimbra, Coimbra",Artigo 258.º do Código dos Contratos Públicos,31-12-2014,"5.685,60 €",,AUMENTO DE CONSUMO,,1513257,Acordo quadro para fornecimento de Medicamentos diversos II   às Instituições e Serviços do Serviço Nacional de Saúde,FALSE
CPA 2013/6 - Vemurafenib 240 mg comp,Ao abrigo de acordo-quadro (art.º 258.º),Aquisição de bens móveis,"33698000-9, Produtos para fins clínicos","Centro Hospitalar e Universitário de Coimbra, E. P. E. (510103448)","ROCHE FARMACEUTICA QUIMICA, LDA (500233810)","140.754,60 €",08-10-2015,07-11-2014,365 dias,"Portugal, Coimbra, Coimbra",Artigo 258.º do Código dos Contratos Públicos,31-12-2014,"140.754,60 €",,"",,1513257,Acordo quadro para fornecimento de Medicamentos diversos II   às Instituições e Serviços do Serviço Nacional de Saúde,FALSE
040104972014 - Glucose 50mg/ml sol inj fr 250/500ml IV,Ajuste Direto Regime Geral,Aquisição de bens móveis,"33698000-9, Produtos para fins clínicos","Centro Hospitalar e Universitário de Coimbra, E. P. E. (510103448)",Labesfal - Laboratórios Almiro SA (501169580),"1.815,00 €",08-10-2015,16-07-2014,365 dias,"Portugal, Coimbra, Coimbra","Artigo 24.º, n.º 1, alínea e) do Código dos Contratos Públicos",31-12-2014,"2.250,60 €",,"",,Não aplicável.,Não aplicável.,FALSE
CPA 2014/1 - Atropina 20 mg/ 20 ml sol inj fr 20 ml IV,Ao abrigo de acordo-quadro (art.º 258.º),Aquisição de bens móveis,"33698000-9, Produtos para fins clínicos","Centro Hospitalar e Universitário de Coimbra, E. P. E. (510103448)","LABESFAL LABORATORIO ALMIRO, SA (501169580)","2.200,00 €",08-10-2015,17-09-2014,365 dias,"Portugal, Coimbra, Coimbra",Artigo 258.º do Código dos Contratos Públicos,31-12-2014,"2.200,00 €",,"",,1513257,Acordo quadro para fornecimento de Medicamentos diversos II   às Instituições e Serviços do Serviço Nacional de Saúde,FALSE
CPA 2013/6 - Everolimus 5 mg comp,Ao abrigo de acordo-quadro (art.º 258.º),Aquisição de bens móveis,"33698000-9, Produtos para fins clínicos","Centro Hospitalar e Universitário de Coimbra, E. P. E. (510103448)","NOVARTIS FARMA - PROD. FARMACEUTICOS,  SA. (500063524)","9.133,36 €",08-10-2015,17-09-2014,365 dias,"Portugal, Coimbra, Coimbra",Artigo 258.º do Código dos Contratos Públicos,31-12-2014,"9.133,36 €",,"",,1513257,Acordo quadro para fornecimento de Medicamentos diversos II   às Instituições e Serviços do Serviço Nacional de Saúde,FALSE
CPA 2014/2 - Levetiracetam 100 mg/ml sol inj fr 5 ml IV,Ao abrigo de acordo-quadro (art.º 259.º),Aquisição de bens móveis,"33698000-9, Produtos para fins clínicos","Centro Hospitalar e Universitário de Coimbra, E. P. E. (510103448)",ACCORD HEALTHCARE UNIPESSOAL LDA (COMBINO PHARM) (508622263),"43.440,00 €",08-10-2015,06-11-2014,365 dias,"Portugal, Coimbra, Coimbra",Artigo 259.º do Código dos Contratos Públicos,31-12-2014,"43.440,00 €",,"",,1513257,Acordo quadro para fornecimento de Medicamentos diversos II   às Instituições e Serviços do Serviço Nacional de Saúde,FALSE
CPA 2014/2 - Levetiracetam 100 mg/ml sol inj fr 5 ml IV,Ao abrigo de acordo-quadro (art.º 258.º),Aquisição de bens móveis,"33698000-9, Produtos para fins clínicos","Centro Hospitalar e Universitário de Coimbra, E. P. E. (510103448)","GENERIS FARMACEUTICA, SA (508107997)","12.320,00 €",08-10-2015,03-10-2014,365 dias,"Portugal, Coimbra, Coimbra",Artigo 258.º do Código dos Contratos Públicos,31-12-2014,"12.320,00 €",,"",,1513257,Acordo quadro para fornecimento de Medicamentos diversos II   às Instituições e Serviços do Serviço Nacional de Saúde,FALSE
CPA 2013/16 - Eptacog Alfa (activado) 50 k.u.i. pó sol inj fr IV,Ao abrigo de acordo-quadro (art.º 258.º),Aquisição de bens móveis,"33698000-9, Produtos para fins clínicos","Centro Hospitalar e Universitário de Coimbra, E. P. E. (510103448)","NOVO NORDISK COMERCIO PRODUTOS FARMACEUT, LDA (501485210)","11.013,60 €",08-10-2015,20-10-2014,365 dias,"Portugal, Coimbra, Coimbra",Artigo 258.º do Código dos Contratos Públicos,31-12-2014,"33.040,80 €",,AUMENTO DE CONSUMO,,1513257,Acordo quadro para fornecimento de Medicamentos diversos II   às Instituições e Serviços do Serviço Nacional de Saúde,FALSE
"CPA 2013/20 - Levonorgestrel 1,5 mg comp",Ao abrigo de acordo-quadro (art.º 258.º),Aquisição de bens móveis,"33698000-9, Produtos para fins clínicos","Centro Hospitalar e Universitário de Coimbra, E. P. E. (510103448)",LOGIFARMA-LOGÍSTICA FARMACÊUTICA S.A. (503934640),"44,50 €",08-10-2015,28-10-2014,365 dias,"Portugal, Coimbra, Coimbra",Artigo 258.º do Código dos Contratos Públicos,31-12-2014,"62,30 €",,AUMENTO DE CONSUMO,,1513257,Acordo quadro para fornecimento de Medicamentos diversos II   às Instituições e Serviços do Serviço Nacional de Saúde,FALSE
CPA 2013/44 - Morfina 10 mg comp LP,Ao abrigo de acordo-quadro (art.º 258.º),Aquisição de bens móveis,"33698000-9, Produtos para fins clínicos","Centro Hospitalar e Universitário de Coimbra, E. P. E. (510103448)",FERRER PORTUGAL S.A. (500069190),"45,08 €",08-10-2015,06-11-2014,365 dias,"Portugal, Coimbra, Coimbra",Artigo 258.º do Código dos Contratos Públicos,31-12-2014,"45,08 €",,"",,1513257,Acordo quadro para fornecimento de Medicamentos diversos II   às Instituições e Serviços do Serviço Nacional de Saúde,FALSE
"040104962014 - Tampa de protecção c/ iodopovidona """"OPTICAP""""",Ajuste Direto Regime Geral,Aquisição de bens móveis,"33698000-9, Produtos para fins clínicos","Centro Hospitalar e Universitário de Coimbra, E. P. E. (510103448)",Baxter Medico Farmaceutica (503347345),"120,00 €",07-10-2015,16-07-2014,365 dias,"Portugal, Coimbra, Coimbra","Artigo 20.º, n.º 1, alínea a) do Código dos Contratos Públicos",31-12-2014,"180,00 €",,"",,Não aplicável.,Não aplicável.,FALSE
CPA 2014/2 - Buprenorfina 8 mg comp subling,Ao abrigo de acordo-quadro (art.º 258.º),Aquisição de bens móveis,"33698000-9, Produtos para fins clínicos","Centro Hospitalar e Universitário de Coimbra, E. P. E. (510103448)","GENERIS FARMACEUTICA, SA (508107997)","156,31 €",07-10-2015,29-10-2014,365 dias,"Portugal, Coimbra, Coimbra",Artigo 258.º do Código dos Contratos Públicos,31-12-2014,"156,31 €",,"",,1513257,Acordo quadro para fornecimento de Medicamentos diversos II   às Instituições e Serviços do Serviço Nacional de Saúde,FALSE
040104932014 - Kit ligadura de compressão DIAM 22-28cm,Ajuste Direto Regime Geral,Aquisição de bens móveis,"33698000-9, Produtos para fins clínicos","Centro Hospitalar e Universitário de Coimbra, E. P. E. (510103448)",Smith&Nephew Lda (503552461),"500,00 €",07-10-2015,26-08-2014,365 dias,"Portugal, Coimbra, Coimbra","Artigo 20.º, n.º 1, alínea a) do Código dos Contratos Públicos",31-12-2014,"500,00 €",,"",,Não aplicável.,Não aplicável.,FALSE
"CPA 2013/6 -  Fingolimod 0,5 mg cáps",Ao abrigo de acordo-quadro (art.º 258.º),Aquisição de bens móveis,"33698000-9, Produtos para fins clínicos","Centro Hospitalar e Universitário de Coimbra, E. P. E. (510103448)","NOVARTIS FARMA - PROD. FARMACEUTICOS,  SA. (500063524)","176.617,50 €",07-10-2015,17-12-2014,365 dias,"Portugal, Coimbra, Coimbra",Artigo 258.º do Código dos Contratos Públicos,31-12-2014,"260.451,94 €",,AUMENTO DE CONSUMO,,1513257,Acordo quadro para fornecimento de Medicamentos diversos II   às Instituições e Serviços do Serviço Nacional de Saúde,FALSE
040104912014 - Leite para lactentes hipoalergico monodose,Ajuste Direto Regime Geral,Aquisição de bens móveis,"33698000-9, Produtos para fins clínicos","Centro Hospitalar e Universitário de Coimbra, E. P. E. (510103448)",Milupa Comercial (502192828),"5.514,48 €",07-10-2015,16-07-2014,365 dias,"Portugal, Coimbra, Coimbra","Artigo 20.º, n.º 1, alínea a) do Código dos Contratos Públicos",31-12-2014,"5.514,48 €",,"",,Não aplicável.,Não aplicável.,FALSE
CPA 2013/5 - Atovaquona 250 mg + Proguanilo 100 mg comp,Ao abrigo de acordo-quadro (art.º 258.º),Aquisição de bens móveis,"33698000-9, Produtos para fins clínicos","Centro Hospitalar e Universitário de Coimbra, E. P. E. (510103448)","GLAXO SMITH KLINE PRODUTOS FARMACEUTICOS, LDA (500139962)","114,88 €",07-10-2015,05-05-2014,365 dias,"Portugal, Coimbra, Coimbra",Artigo 258.º do Código dos Contratos Públicos,31-12-2014,"459,51 €",,aumento de consumo,,1513257,Acordo quadro para fornecimento de Medicamentos diversos II   às Instituições e Serviços do Serviço Nacional de Saúde,FALSE
Aparelho de inclusão Histostar para o Serviço de Anatomia Patológica,Ajuste Direto Regime Geral,Aquisição de bens móveis,"33000000-0, Equipamento médico, medicamentos e produtos para cuidados pessoais","Centro Hospitalar e Universitário de Coimbra, E. P. E. (510103448)","Garal, Lda (500777314)","11.950,00 €",07-10-2015,07-10-2015,1 dias,"Portugal, Coimbra, Coimbra","Artigo 20.º, n.º 1, alínea a) do Código dos Contratos Públicos","","",,"",,Não aplicável.,Não aplicável.,FALSE
Aquisição de Material de Consumo Clinico,Ajuste Direto Regime Geral,Aquisição de bens móveis,"33000000-0, Equipamento médico, medicamentos e produtos para cuidados pessoais","Centro Hospitalar e Universitário de Coimbra, E. P. E. (510103448)","COVIDIEN PORTUGAL - PRODUTOS SAUDE, UNIPESSOAL LDA (503413410)","43.442,40 €",07-10-2015,07-10-2015,20 dias,"Portugal, Coimbra, Coimbra","Artigo 24.º, n.º 1, alínea e) do Código dos Contratos Públicos","","",,"",,Não aplicável.,Não aplicável.,FALSE
Aquisição de 10 quadros brancos magnéticos,Ajuste Direto Regime Geral,Aquisição de bens móveis,"30000000-9, Máquinas, equipamento e material de escritório e de informática, excepto mobiliário e pacotes de programas (software)","Centro Hospitalar e Universitário de Coimbra, E. P. E. (510103448)","Golden Chairs, Lda. (508619564)","348,15 €",07-10-2015,02-10-2015,25 dias,"Portugal, Coimbra, Coimbra","Artigo 20.º, n.º 1, alínea a) do Código dos Contratos Públicos","","",,"",,Não aplicável.,Não aplicável.,FALSE
CMAN Centrais Térmicas-Pólos HG/MBB/HP,Ajuste Direto Regime Geral,Aquisição de serviços,"50000000-5, Serviços de reparação e manutenção","Centro Hospitalar e Universitário de Coimbra, E. P. E. (510103448)",Ambitermo (502790326),"9.250,00 €",07-10-2015,07-10-2015,30 dias,"Portugal, Coimbra, Coimbra","Artigo 20.º, n.º 1, alínea a) do Código dos Contratos Públicos","","",,"",,Não aplicável.,Não aplicável.,FALSE
Ajuste Directo nº040004892014-Reagentes p/o Serviço de Sangue e Medicina Transfusional,Ajuste Direto Regime Geral,Aquisição de bens móveis,"33696500-0, Reagentes de laboratório","Centro Hospitalar e Universitário de Coimbra, E. P. E. (510103448)",Abbott Laboratórios (500006148),"1.064,00 €",07-10-2015,17-04-2014,365 dias,"Portugal, Coimbra, Coimbra","Artigo 26.º, n.º 1, alínea a) do Código dos Contratos Públicos",31-12-2014,"1.064,00 €",,"",,Não aplicável.,Não aplicável.,FALSE
040104862014 - Metirapona 250mg caps,Ajuste Direto Regime Geral,Aquisição de bens móveis,"33698000-9, Produtos para fins clínicos","Centro Hospitalar e Universitário de Coimbra, E. P. E. (510103448)",Wepharma UK (944893866),"12.900,00 €",07-10-2015,10-07-2014,365 dias,"Portugal, Coimbra, Coimbra","Artigo 24.º, n.º 1, alínea e) do Código dos Contratos Públicos",31-12-2014,"12.900,00 €",,"",,Não aplicável.,Não aplicável.,FALSE
Ajuste Directo nº040004872014-Reagentes p/o Serviço de Sangue e Medicina Transfusional,Ajuste Direto Regime Geral,Aquisição de bens móveis,"33696500-0, Reagentes de laboratório","Centro Hospitalar e Universitário de Coimbra, E. P. E. (510103448)",Sipaco (122592220),"5.373,20 €",07-10-2015,15-04-2014,365 dias,"Portugal, Coimbra, Coimbra","Artigo 26.º, n.º 1, alínea a) do Código dos Contratos Públicos",31-12-2014,"5.373,20 €",,"",,Não aplicável.,Não aplicável.,FALSE
CPA 2013/5 - Artemeter 20 mg+Lumefantrina 120 mg comp,Ao abrigo de acordo-quadro (art.º 258.º),Aquisição de bens móveis,"33698000-9, Produtos para fins clínicos","Centro Hospitalar e Universitário de Coimbra, E. P. E. (510103448)","DLA FARMACEUTICA, SA (503894427)","230,39 €",06-10-2015,06-05-2014,365 dias,"Portugal, Coimbra, Coimbra",Artigo 258.º do Código dos Contratos Públicos,31-12-2014,"230,39 €",,"",,1513257,Acordo quadro para fornecimento de Medicamentos diversos II   às Instituições e Serviços do Serviço Nacional de Saúde,FALSE
CPA 2013/44 - Fentanilo 200 ug comp subling,Ao abrigo de acordo-quadro (art.º 258.º),Aquisição de bens móveis,"33698000-9, Produtos para fins clínicos","Centro Hospitalar e Universitário de Coimbra, E. P. E. (510103448)","LABORATORIOS VITORIA, SA (500162220)","2.212,00 €",06-10-2015,08-05-2014,365 dias,"Portugal, Coimbra, Coimbra",Artigo 258.º do Código dos Contratos Públicos,31-12-2014,"5.530,00 €",,Aumento de consumo,,1513257,Acordo quadro para fornecimento de Medicamentos diversos II   às Instituições e Serviços do Serviço Nacional de Saúde,FALSE
5410540/2014 - Anestesicos e relaxantes musculares,Ajuste Direto Regime Geral,Aquisição de bens móveis,"33698000-9, Produtos para fins clínicos","Centro Hospitalar e Universitário de Coimbra, E. P. E. (510103448)","LABESFAL LABORATORIO ALMIRO, SA (501169580), ACTAVIS AS (980334934), FRESENIUS KABI PHARMA PORTUGAL, LDA (504293753), B BRAUN MEDICAL, LDA (501506543), GRUNENTHAL, SA (500101965), HIKMA FARMACEUTICA (PORTUGAL), LDA (502266791), MERCK SHARP E DOHME, LDA (500191360), NOVARTIS FARMA - PROD. FARMACEUTICOS,  SA. (500063524), ABBVIE, LDA (510229050), PROFARIN, LDA (500223238), ACCORD HEALTHCARE UNIPESSOAL LDA (COMBINO PHARM) (508622263), GENERIS FARMACEUTICA, SA (508107997), HOSPIRA PORTUGAL, LDA (502918098), SIDEFARMA - SOCIEDADE  INDUSTR. EXPANS. FARM., LDA (500717419)","524.573,73 €",06-10-2015,06-03-2014,365 dias,"Portugal, Coimbra, Coimbra",Artigo 258.º do Código dos Contratos Públicos,31-12-2014,"564.372,45 €",,aumento de consumo,,Não aplicável.,Não aplicável.,FALSE
040104832014 - Liotironina 0.025mg comp,Ajuste Direto Regime Geral,Aquisição de bens móveis,"33698000-9, Produtos para fins clínicos","Centro Hospitalar e Universitário de Coimbra, E.P. (510103448)",Wepharma UK (944893866),"5.200,00 €",06-10-2015,10-07-2014,365 dias,"Portugal, Coimbra, Coimbra","Artigo 24.º, n.º 1, alínea e) do Código dos Contratos Públicos",31-12-2014,"5.200,00 €",,"",,Não aplicável.,Não aplicável.,FALSE
"5410573/2014 - Analgésicos, antipireticos e antidepressores",Ajuste Direto Regime Geral,Aquisição de bens móveis,"33698000-9, Produtos para fins clínicos","Centro Hospitalar e Universitário de Coimbra, E. P. E. (510103448)","HIKMA FARMACEUTICA (PORTUGAL), LDA (502266791), OVERPHARMA-PRODUTOS MÉDICOS E FARMACÉUTICOS,LDA (505792362), HOSPIRA PORTUGAL, LDA (502918098), FARMOZ SOC. TECNICO MEDICINAL, SA (501505334), BIAL - PORTELA & Cª, SA (500220913), LABORATORIO MEDINFAR, SA (500384045), TECNIFAR INDUSTRIA TECNICA FARMACEUTICA, SA (500280436), GENERIS FARMACEUTICA, SA (508107997), LABESFAL LABORATORIO ALMIRO, SA (501169580)","64.670,71 €",06-10-2015,18-02-2014,365 dias,"Portugal, Coimbra, Coimbra",Artigo 258.º do Código dos Contratos Públicos,31-12-2014,"64.514,71 €",,aumento de consumo,,Não aplicável.,Não aplicável.,FALSE
5410530/2014 - Epoetinas,Ajuste Direto Regime Geral,Aquisição de bens móveis,"33698000-9, Produtos para fins clínicos","Centro Hospitalar e Universitário de Coimbra, E.P. (510103448)","JANSSEN CILAG FARMACEUTICA, LDA (500189412), HOSPIRA PORTUGAL, LDA (502918098)","144.857,60 €",06-10-2015,19-02-2014,365 dias,"Portugal, Coimbra, Coimbra",Artigo 258.º do Código dos Contratos Públicos,31-12-2014,"198.237,60 €",,aumento de consumo,,Não aplicável.,Não aplicável.,FALSE
5410531/2014 - Medicamentos do aparelho digestivo,Ajuste Direto Regime Geral,Aquisição de bens móveis,"33698000-9, Produtos para fins clínicos","Centro Hospitalar e Universitário de Coimbra, E. P. E. (510103448)","LABESFAL LABORATORIO ALMIRO, SA (501169580), ACTAVIS AS (980334934), GENERIS FARMACEUTICA, SA (508107997), SANOFI-AVENTIS  - PRODUTOS FARMACEUTICOS , LDA (500134960), LABORATORIOS NORMON, S.A. (505654156), OVERPHARMA-PRODUTOS MÉDICOS E FARMACÉUTICOS,LDA (505792362)","82.389,33 €",06-10-2015,19-02-2014,365 dias,"Portugal, Coimbra, Coimbra",Artigo 258.º do Código dos Contratos Públicos,31-12-2014,"75.471,23 €",,Diminuição de consumo,,Não aplicável.,Não aplicável.,FALSE
5410532/2014 - Medicamentos anti-psicoticos,Ajuste Direto Regime Geral,Aquisição de bens móveis,"33698000-9, Produtos para fins clínicos","Centro Hospitalar e Universitário de Coimbra, E. P. E. (510103448)","GENERIS FARMACEUTICA, SA (508107997), TEVA PHARMA - PRODUTOS FARMACÊUTICOS, LDA (507045491), RATIOPHARM, LDA (502414910), ACTAVIS AS (980334934), UCB PHARMA (PRODUTOS FARMACEUTICOS), LDA (500291322), SANOFI-AVENTIS  - PRODUTOS FARMACEUTICOS , LDA (500134960)","45.756,96 €",06-10-2015,04-02-2014,365 dias,"Portugal, Coimbra, Coimbra",Artigo 258.º do Código dos Contratos Públicos,31-12-2014,"46.200,92 €",,Aumento de consumo,,Não aplicável.,Não aplicável.,FALSE
"CPA n.º 2012/40 - Medicamentos Anti-Infecciosos, Anti-Retrovirais",Ajuste Direto Regime Geral,Aquisição de bens móveis,"33698000-9, Produtos para fins clínicos","Centro Hospitalar e Universitário de Coimbra, E. P. E. (510103448)","AUROBINDO PHARMA PORTUGAL (508527465), VIIVVHIV HEALTHCARE, UNIPESSOAL LDA (509117961), ACCORD HEALTHCARE UNIPESSOAL LDA (COMBINO PHARM) (508622263), UNILFARMA, LDA (500293023), GLAXO SMITH KLINE PRODUTOS FARMACEUTICOS, LDA (500139962)","163.443,34 €",06-10-2015,31-12-2014,365 dias,"Portugal, Coimbra, Coimbra",Artigo 258.º do Código dos Contratos Públicos,31-12-2014,"164.850,78 €",,Aumento de consumo,,Não aplicável.,Não aplicável.,FALSE
040104792014 - Minoxidil 5mg comp,Ajuste Direto Regime Geral,Aquisição de bens móveis,"33698000-9, Produtos para fins clínicos","Centro Hospitalar e Universitário de Coimbra, E. P. E. (510103448)",Laboratorios Pfizer Lda (500162166),"223,15 €",06-10-2015,07-07-2014,365 dias,"Portugal, Coimbra, Coimbra","Artigo 24.º, n.º 1, alínea e) do Código dos Contratos Públicos",31-12-2014,"223,15 €",,"",,Não aplicável.,Não aplicável.,FALSE
Stent  biliar  não coberto,Ajuste Direto Regime Geral,Aquisição de bens móveis,"33000000-0, Equipamento médico, medicamentos e produtos para cuidados pessoais","Centro Hospitalar e Universitário de Coimbra, E. P. E. (510103448)","C.R. BARD PORTUGAL, LDA (502438274)","1.400,00 €",06-10-2015,05-10-2015,10 dias,"Portugal, Coimbra, Coimbra","Artigo 24.º, n.º 1, alínea e) do Código dos Contratos Públicos","","",,"",,Não aplicável.,Não aplicável.,FALSE
Implantes Cocleares com Kit Completo,Ajuste Direto Regime Geral,Aquisição de bens móveis,"33000000-0, Equipamento médico, medicamentos e produtos para cuidados pessoais","Centro Hospitalar e Universitário de Coimbra, E. P. E. (510103448)",Medel (980362539),"49.200,00 €",06-10-2015,05-10-2015,20 dias,"Portugal, Coimbra, Coimbra","Artigo 24.º, n.º 1, alínea e) do Código dos Contratos Públicos","","",,"",,Não aplicável.,Não aplicável.,FALSE
CARDIOVERSOR,Ajuste Direto Regime Geral,Aquisição de bens móveis,"33000000-0, Equipamento médico, medicamentos e produtos para cuidados pessoais","Centro Hospitalar e Universitário de Coimbra, E. P. E. (510103448)","MEDTRONIC PORTUGAL, LDA (504223933)","56.450,00 €",06-10-2015,27-08-2014,90 dias,"Portugal, Coimbra, Coimbra","Artigo 24.º, n.º 1, alínea e) do Código dos Contratos Públicos","","",,"",,Não aplicável.,Não aplicável.,FALSE
CARDIOVERSORES C/ ELECTRODOS,Ajuste Direto Regime Geral,Aquisição de bens móveis,"33000000-0, Equipamento médico, medicamentos e produtos para cuidados pessoais","Centro Hospitalar e Universitário de Coimbra, E. P. E. (510103448)","MEDTRONIC PORTUGAL, LDA (504223933)","69.500,00 €",06-10-2015,28-08-2014,90 dias,"Portugal, Coimbra, Coimbra","Artigo 24.º, n.º 1, alínea e) do Código dos Contratos Públicos","","",,"",,Não aplicável.,Não aplicável.,FALSE
CARDIOVERSORES,Ajuste Direto Regime Geral,Aquisição de bens móveis,"33000000-0, Equipamento médico, medicamentos e produtos para cuidados pessoais","Centro Hospitalar e Universitário de Coimbra, E. P. E. (510103448)",ST. JUDE MEDICAL PORTUGAL (504180746),"61.600,00 €",06-10-2015,28-07-2014,90 dias,"Portugal, Coimbra, Coimbra","Artigo 24.º, n.º 1, alínea e) do Código dos Contratos Públicos","","",,"",,Não aplicável.,Não aplicável.,FALSE
CARDIOVERSORES,Ajuste Direto Regime Geral,Aquisição de bens móveis,"33000000-0, Equipamento médico, medicamentos e produtos para cuidados pessoais","Centro Hospitalar e Universitário de Coimbra, E. P. E. (510103448)",ST. JUDE MEDICAL PORTUGAL (504180746),"73.298,05 €",06-10-2015,31-07-2014,90 dias,"Portugal, Coimbra, Coimbra","Artigo 24.º, n.º 1, alínea e) do Código dos Contratos Públicos","","",,"",,Não aplicável.,Não aplicável.,FALSE
Material para artroscopia do ombro,Ajuste Direto Regime Geral,Aquisição de bens móveis,"33000000-0, Equipamento médico, medicamentos e produtos para cuidados pessoais","Centro Hospitalar e Universitário de Coimbra, E. P. E. (510103448)","BIOMET PORTUGAL UNIPESSOAL, LDA  (500254990)","14.140,00 €",05-10-2015,03-08-2015,30 dias,"Portugal, Coimbra, Coimbra","Artigo 24.º, n.º 1, alínea e) do Código dos Contratos Públicos","","",,"",,Não aplicável.,Não aplicável.,FALSE
Aquisição de Material de Consumo Clinico,Ajuste Direto Regime Geral,Aquisição de bens móveis,"33000000-0, Equipamento médico, medicamentos e produtos para cuidados pessoais","Centro Hospitalar e Universitário de Coimbra, E. P. E. (510103448)",BSN MEDICAL S.A (505385058),"10.476,82 €",05-10-2015,19-03-2015,365 dias,"Portugal, Coimbra, Coimbra","Artigo 20.º, n.º 1, alínea a) do Código dos Contratos Públicos","","",,"",,Não aplicável.,Não aplicável.,FALSE
Aquisição de Material de Consumo Clinico,Ajuste Direto Regime Geral,Aquisição de bens móveis,"33000000-0, Equipamento médico, medicamentos e produtos para cuidados pessoais","Centro Hospitalar e Universitário de Coimbra, E. P. E. (510103448)","VACUETTE PORTUGAL IMPORT. EXPORT. MAT. HOSP, LDA (505348470)","37.644,56 €",05-10-2015,18-03-2015,365 dias,"Portugal, Coimbra, Coimbra","Artigo 20.º, n.º 1, alínea a) do Código dos Contratos Públicos","","",,"",,Não aplicável.,Não aplicável.,FALSE
040216412015 - ENDOPROTESES,Ajuste Direto Regime Geral,Aquisição de bens móveis,"33000000-0, Equipamento médico, medicamentos e produtos para cuidados pessoais","Centro Hospitalar e Universitário de Coimbra, E. P. E. (510103448)",BIOSONDA (501463313),"8.500,00 €",05-10-2015,15-06-2015,10 dias,"Portugal, Coimbra, Coimbra","Artigo 24.º, n.º 1, alínea e) do Código dos Contratos Públicos","","",,"",,Não aplicável.,Não aplicável.,FALSE
Aquisição de Material de Consumo Clinico,Ajuste Direto Regime Geral,Aquisição de bens móveis,"33000000-0, Equipamento médico, medicamentos e produtos para cuidados pessoais","Centro Hospitalar e Universitário de Coimbra, E. P. E. (510103448)","BASTOS VIEGAS, SA (500042772)","34.319,53 €",05-10-2015,19-03-2015,365 dias,"Portugal, Coimbra, Coimbra","Artigo 20.º, n.º 1, alínea a) do Código dos Contratos Públicos","","",,"",,Não aplicável.,Não aplicável.,FALSE
Aquisição de Material de Consumo Clinico,Ajuste Direto Regime Geral,Aquisição de bens móveis,"33000000-0, Equipamento médico, medicamentos e produtos para cuidados pessoais","Centro Hospitalar e Universitário de Coimbra, E. P. E. (510103448)","SMITH & NEPHEW, LDA (503552461)","19.975,44 €",05-10-2015,18-03-2015,365 dias,"Portugal, Coimbra, Coimbra","Artigo 20.º, n.º 1, alínea a) do Código dos Contratos Públicos","","",,"",,Não aplicável.,Não aplicável.,FALSE
Aquisição de Material de Consumo Clinico,Ajuste Direto Regime Geral,Aquisição de bens móveis,"33000000-0, Equipamento médico, medicamentos e produtos para cuidados pessoais","Centro Hospitalar e Universitário de Coimbra, E. P. E. (510103448)","ALBINO DIAS ANDRADE, LDA (500013810)","7.555,71 €",05-10-2015,16-03-2015,365 dias,"Portugal, Coimbra, Coimbra","Artigo 20.º, n.º 1, alínea a) do Código dos Contratos Públicos","","",,"",,Não aplicável.,Não aplicável.,FALSE
Aquisição de Material de Consumo Clinico,Ajuste Direto Regime Geral,Aquisição de bens móveis,"33000000-0, Equipamento médico, medicamentos e produtos para cuidados pessoais","Centro Hospitalar e Universitário de Coimbra, E. P. E. (510103448)","ALBINO DIAS ANDRADE, LDA (500013810)","74.450,67 €",05-10-2015,18-03-2015,365 dias,"Portugal, Coimbra, Coimbra","Artigo 20.º, n.º 1, alínea a) do Código dos Contratos Públicos","","",,"",,Não aplicável.,Não aplicável.,FALSE
Aquisição de Material de Consumo Clinico,Ajuste Direto Regime Geral,Aquisição de bens móveis,"33000000-0, Equipamento médico, medicamentos e produtos para cuidados pessoais","Centro Hospitalar e Universitário de Coimbra, E. P. E. (510103448)","3M PORTUGAL, LDA (MINESOTA) (500193940)","24.737,06 €",05-10-2015,18-03-2015,365 dias,"Portugal, Coimbra, Coimbra","Artigo 20.º, n.º 1, alínea a) do Código dos Contratos Públicos","","",,"",,Não aplicável.,Não aplicável.,FALSE
Aquisição de Material de Consumo Clinico,Ajuste Direto Regime Geral,Aquisição de bens móveis,"33000000-0, Equipamento médico, medicamentos e produtos para cuidados pessoais","Centro Hospitalar e Universitário de Coimbra, E. P. E. (510103448)","AVIQUIMICA- IMPORTAÇÃO E MANUFACTURAS, LDA (500039720)","11.015,00 €",05-10-2015,18-03-2015,365 dias,"Portugal, Coimbra, Coimbra","Artigo 20.º, n.º 1, alínea a) do Código dos Contratos Públicos","","",,"",,Não aplicável.,Não aplicável.,FALSE
Aquisição de Material de Consumo Clinico,Ajuste Direto Regime Geral,Aquisição de bens móveis,"33000000-0, Equipamento médico, medicamentos e produtos para cuidados pessoais","Centro Hospitalar e Universitário de Coimbra, E. P. E. (510103448)","PAUL HARTMANN, LDA (502271728)","22.232,50 €",05-10-2015,18-03-2015,365 dias,"Portugal, Coimbra, Coimbra","Artigo 20.º, n.º 1, alínea a) do Código dos Contratos Públicos","","",,"",,Não aplicável.,Não aplicável.,FALSE
Aquisição de Material de Consumo Clinico,Ajuste Direto Regime Geral,Aquisição de bens móveis,"33000000-0, Equipamento médico, medicamentos e produtos para cuidados pessoais","Centro Hospitalar e Universitário de Coimbra, E. P. E. (510103448)","PAUL HARTMANN, LDA (502271728)","11.550,00 €",05-10-2015,18-03-2015,365 dias,"Portugal, Coimbra, Coimbra","Artigo 20.º, n.º 1, alínea a) do Código dos Contratos Públicos","","",,"",,Não aplicável.,Não aplicável.,FALSE
Aquisição de Material de Consumo Clinico,Ajuste Direto Regime Geral,Aquisição de bens móveis,"33000000-0, Equipamento médico, medicamentos e produtos para cuidados pessoais","Centro Hospitalar e Universitário de Coimbra, E. P. E. (510103448)","JOHNSON & JOHNSON, LDA (500153370)","23.236,00 €",05-10-2015,02-04-2015,365 dias,"Portugal, Coimbra, Coimbra","Artigo 20.º, n.º 1, alínea a) do Código dos Contratos Públicos","","",,"",,Não aplicável.,Não aplicável.,FALSE
Válvulas cardíacas biológicas,Ajuste Direto Regime Geral,Aquisição de bens móveis,"33184300-6, Próteses cardíacas","Centro Hospitalar e Universitário de Coimbra, E. P. E. (510103448)",ST. JUDE MEDICAL PORTUGAL (504180746),"115.275,00 €",05-10-2015,30-09-2015,20 dias,"Portugal, Coimbra, Coimbra","Artigo 24.º, n.º 1, alínea e) do Código dos Contratos Públicos","","",,"",,Não aplicável.,Não aplicável.,FALSE
040219912015 - OUTRO MATERIAL DE CONSUMO,Ajuste Direto Regime Geral,Aquisição de bens móveis,"33000000-0, Equipamento médico, medicamentos e produtos para cuidados pessoais","Centro Hospitalar e Universitário de Coimbra, E. P. E. (510103448)",3M (500193940),"9.987,50 €",05-10-2015,08-07-2015,10 dias,"Portugal, Coimbra, Coimbra","Artigo 24.º, n.º 1, alínea e) do Código dos Contratos Públicos","","",,"",,Não aplicável.,Não aplicável.,FALSE
Aquisição de Material de Consumo Clinico,Ajuste Direto Regime Geral,Aquisição de bens móveis,"33000000-0, Equipamento médico, medicamentos e produtos para cuidados pessoais","Centro Hospitalar e Universitário de Coimbra, E. P. E. (510103448)","MEDTRONIC PORTUGAL, LDA (504223933)","25.500,00 €",05-10-2015,01-04-2015,365 dias,"Portugal, Coimbra, Coimbra","Artigo 20.º, n.º 1, alínea a) do Código dos Contratos Públicos","","",,"",,Não aplicável.,Não aplicável.,FALSE
04218152015 - OSTEOSSINTESE,Ajuste Direto Regime Geral,Aquisição de bens móveis,"33000000-0, Equipamento médico, medicamentos e produtos para cuidados pessoais","Centro Hospitalar e Universitário de Coimbra, E. P. E. (510103448)",JOHNSON (500153370),"18.430,67 €",05-10-2015,08-07-2015,10 dias,"Portugal, Coimbra, Coimbra","Artigo 24.º, n.º 1, alínea e) do Código dos Contratos Públicos","","",,"",,Não aplicável.,Não aplicável.,FALSE
Aquisição de Material de Consumo Clinico,Ajuste Direto Regime Geral,Aquisição de bens móveis,"33000000-0, Equipamento médico, medicamentos e produtos para cuidados pessoais","Centro Hospitalar e Universitário de Coimbra, E. P. E. (510103448)",BSN MEDICAL S.A (505385058),"9.494,70 €",05-10-2015,18-03-2015,365 dias,"Portugal, Coimbra, Coimbra","Artigo 20.º, n.º 1, alínea a) do Código dos Contratos Públicos","","",,"",,Não aplicável.,Não aplicável.,FALSE
Aquisição de Material de Consumo Clinico,Ajuste Direto Regime Geral,Aquisição de bens móveis,"33000000-0, Equipamento médico, medicamentos e produtos para cuidados pessoais","Centro Hospitalar e Universitário de Coimbra, E. P. E. (510103448)","JOHNSON & JOHNSON, LDA (500153370)","37.485,00 €",05-10-2015,05-10-2015,20 dias,"Portugal, Coimbra, Coimbra","Artigo 24.º, n.º 1, alínea e) do Código dos Contratos Públicos","","",,"",,Não aplicável.,Não aplicável.,FALSE
Aquisição de Material de Consumo Clinico,Ajuste Direto Regime Geral,Aquisição de bens móveis,"33000000-0, Equipamento médico, medicamentos e produtos para cuidados pessoais","Centro Hospitalar e Universitário de Coimbra, E. P. E. (510103448)","JOHNSON & JOHNSON, LDA (500153370)","16.215,00 €",05-10-2015,05-10-2015,20 dias,"Portugal, Coimbra, Coimbra","Artigo 24.º, n.º 1, alínea e) do Código dos Contratos Públicos","","",,"",,Não aplicável.,Não aplicável.,FALSE
Aquisição de Material de Consumo Clinico,Ajuste Direto Regime Geral,Aquisição de bens móveis,"33000000-0, Equipamento médico, medicamentos e produtos para cuidados pessoais","Centro Hospitalar e Universitário de Coimbra, E. P. E. (510103448)","JOHNSON & JOHNSON, LDA (500153370)","11.520,00 €",02-10-2015,02-10-2015,20 dias,"Portugal, Coimbra, Coimbra","Artigo 24.º, n.º 1, alínea e) do Código dos Contratos Públicos","","",,"",,Não aplicável.,Não aplicável.,FALSE
SISTEMA CIRCULAR VENTILACAO C/BALAO RESERVATORIO,Ajuste Direto Regime Geral,Aquisição de bens móveis,"33000000-0, Equipamento médico, medicamentos e produtos para cuidados pessoais","Centro Hospitalar e Universitário de Coimbra, E. P. E. (510103448)","INTERSURGICAL PORTUGAL, LDA (503480045)","9.439,50 €",01-10-2015,24-07-2015,68 dias,"Portugal, Coimbra, Coimbra","Artigo 24.º, n.º 1, alínea e) do Código dos Contratos Públicos",01-10-2015,"9.439,50 €",,"",,Não aplicável.,Não aplicável.,FALSE
AGULHA HIPODERMICA 21G,Ajuste Direto Regime Geral,Aquisição de bens móveis,"33000000-0, Equipamento médico, medicamentos e produtos para cuidados pessoais","Centro Hospitalar e Universitário de Coimbra, E. P. E. (510103448)","BASTOS VIEGAS, SA (500042772)","9.672,00 €",01-10-2015,18-08-2015,44 dias,"Portugal, Coimbra, Coimbra","Artigo 24.º, n.º 1, alínea e) do Código dos Contratos Públicos","","",,"",,Não aplicável.,Não aplicável.,FALSE
AGULHA HIPODERMICA 20G,Ajuste Direto Regime Geral,Aquisição de bens móveis,"33000000-0, Equipamento médico, medicamentos e produtos para cuidados pessoais","Centro Hospitalar e Universitário de Coimbra, E. P. E. (510103448)","BASTOS VIEGAS, SA (500042772)","9.943,00 €",01-10-2015,23-07-2015,157 dias,"Portugal, Coimbra, Coimbra","Artigo 24.º, n.º 1, alínea e) do Código dos Contratos Públicos","","",,"",,Não aplicável.,Não aplicável.,FALSE
Agulha p/colheita de ovocitos e agulha de punção,Ajuste Direto Regime Geral,Aquisição de bens móveis,"33000000-0, Equipamento médico, medicamentos e produtos para cuidados pessoais","Centro Hospitalar e Universitário de Coimbra, E. P. E. (510103448)","EMB - EQUIPAMENTOS MÉDICOS BIOLÓGICOS, LDA (507364457)","9.820,00 €",01-10-2015,21-07-2015,160 dias,"Portugal, Coimbra, Coimbra","Artigo 24.º, n.º 1, alínea e) do Código dos Contratos Públicos","","",,"",,Não aplicável.,Não aplicável.,FALSE
