Objeto do Contrato,Tipo de Procedimento,Tipo(s) de Contrato,CPVs,Entidade(s) Adjudicante(s),Entidade(s) Adjudicatária(s),Preço Contratual,Data de Publicação,Data de Celebração do Contrato,Prazo de Execução,Local de Execução,Fundamentação,Data de Fecho do Contrato,Preço Total Efetivo,Causas das Alterações ao Prazo,Causas das Alterações ao Preço,Estado,N.º registo do Acordo Quadro,Descrição do Acordo Quadro,Procedimento Centralizado
Aquisição diverso material de Ostomia - APROV-PRT 15005416 (AP 1324),Ao abrigo de acordo-quadro (art.º 259.º),Aquisição de bens móveis,"33140000-3, Material médico de consumo","Administração Regional de Saúde do Norte, I. P. (503135593)","B Braun Medical, Lda. (501506543)","25.000,00 €",29-07-2016,13-08-2015,140 dias,"Portugal, Vila Real, Vila Real<BR/>Portugal, Distrito não determinado, Concelho não determinado<BR/>Portugal, Porto, Maia",Artigo 259.º do Código dos Contratos Públicos,31-12-2015,"25.000,00 €","",,,419168,CONCURSO PÚBLICO PARA A CELEBRAÇÃO DE CONTRATOS PÚBLICOS DE APROVISIONAMENTO PARA AQUISIÇÃO DE MATERIAL OSTOMIA DE ELIMINAÇÃO,FALSE
Aquisição diverso material de Ostomia - APROV-PRT 15005416 (AP 1324),Ao abrigo de acordo-quadro (art.º 259.º),Aquisição de bens móveis,"33140000-3, Material médico de consumo","Administração Regional de Saúde do Norte, I. P. (503135593)","B Braun Medical, Lda. (501506543)","12.500,00 €",29-07-2016,13-08-2015,140 dias,"Portugal, Distrito não determinado, Concelho não determinado<BR/>Portugal, Porto, Maia<BR/>Portugal, Vila Real, Vila Real",Artigo 259.º do Código dos Contratos Públicos,31-12-2015,"12.500,00 €","",,,419168,CONCURSO PÚBLICO PARA A CELEBRAÇÃO DE CONTRATOS PÚBLICOS DE APROVISIONAMENTO PARA AQUISIÇÃO DE MATERIAL OSTOMIA DE ELIMINAÇÃO,FALSE
Aquisição diverso material de Ostomia - APROV-PRT 15005416 (AP 1324),Ao abrigo de acordo-quadro (art.º 259.º),Aquisição de bens móveis,"33140000-3, Material médico de consumo","Administração Regional de Saúde do Norte, I. P. (503135593)","B Braun Medical, Lda. (501506543)","13.500,00 €",29-07-2016,13-08-2015,140 dias,"Portugal, Porto, Maia<BR/>Portugal, Vila Real, Vila Real<BR/>Portugal, Distrito não determinado, Concelho não determinado",Artigo 259.º do Código dos Contratos Públicos,31-12-2015,"13.500,00 €","",,,419168,CONCURSO PÚBLICO PARA A CELEBRAÇÃO DE CONTRATOS PÚBLICOS DE APROVISIONAMENTO PARA AQUISIÇÃO DE MATERIAL OSTOMIA DE ELIMINAÇÃO,FALSE
Aquisição diverso material de Ostomia - APROV-PRT 15005416 (AP 1324),Ao abrigo de acordo-quadro (art.º 259.º),Aquisição de bens móveis,"33140000-3, Material médico de consumo","Administração Regional de Saúde do Norte, I. P. (503135593)","B Braun Medical, Lda. (501506543)","42.400,00 €",29-07-2016,13-08-2015,140 dias,"Portugal, Distrito não determinado, Concelho não determinado<BR/>Portugal, Vila Real, Vila Real<BR/>Portugal, Porto, Maia",Artigo 259.º do Código dos Contratos Públicos,31-12-2015,"42.400,00 €","",,,419168,CONCURSO PÚBLICO PARA A CELEBRAÇÃO DE CONTRATOS PÚBLICOS DE APROVISIONAMENTO PARA AQUISIÇÃO DE MATERIAL OSTOMIA DE ELIMINAÇÃO,FALSE
Aquisição diverso material de Ostomia - APROV-PRT 15005416 (AP 1324),Ao abrigo de acordo-quadro (art.º 259.º),Aquisição de bens móveis,"33140000-3, Material médico de consumo","Administração Regional de Saúde do Norte, I. P. (503135593)","B Braun Medical, Lda. (501506543)","42.400,00 €",29-07-2016,13-08-2015,140 dias,"Portugal, Porto, Maia<BR/>Portugal, Distrito não determinado, Concelho não determinado<BR/>Portugal, Vila Real, Vila Real",Artigo 259.º do Código dos Contratos Públicos,31-12-2015,"42.400,00 €","",,,419168,CONCURSO PÚBLICO PARA A CELEBRAÇÃO DE CONTRATOS PÚBLICOS DE APROVISIONAMENTO PARA AQUISIÇÃO DE MATERIAL OSTOMIA DE ELIMINAÇÃO,FALSE
Aquisição diverso material de Ostomia - APROV-PRT 15005416 (AP 1324),Ao abrigo de acordo-quadro (art.º 259.º),Aquisição de bens móveis,"33140000-3, Material médico de consumo","Administração Regional de Saúde do Norte, I. P. (503135593)","Spcare, Lda. (508284872)","5.468,98 €",29-07-2016,13-08-2015,140 dias,"Portugal, Distrito não determinado, Concelho não determinado<BR/>Portugal, Vila Real, Vila Real<BR/>Portugal, Porto, Maia",Artigo 259.º do Código dos Contratos Públicos,31-12-2015,"5.468,98 €","",,,419168,CONCURSO PÚBLICO PARA A CELEBRAÇÃO DE CONTRATOS PÚBLICOS DE APROVISIONAMENTO PARA AQUISIÇÃO DE MATERIAL OSTOMIA DE ELIMINAÇÃO,FALSE
Aquisição diverso material de Ostomia - APROV-PRT 15005416 (AP 1324),Ao abrigo de acordo-quadro (art.º 259.º),Aquisição de bens móveis,"33140000-3, Material médico de consumo","Administração Regional de Saúde do Norte, I. P. (503135593)","Spcare, Lda (508284872)","12.031,60 €",29-07-2016,13-08-2015,140 dias,"Portugal, Porto, Maia<BR/>Portugal, Vila Real, Vila Real<BR/>Portugal, Distrito não determinado, Concelho não determinado",Artigo 259.º do Código dos Contratos Públicos,31-12-2015,"12.031,60 €","",,,419168,CONCURSO PÚBLICO PARA A CELEBRAÇÃO DE CONTRATOS PÚBLICOS DE APROVISIONAMENTO PARA AQUISIÇÃO DE MATERIAL OSTOMIA DE ELIMINAÇÃO,FALSE
Aquisição diverso material de Ostomia - APROV-PRT 15005416 (AP 1324),Ao abrigo de acordo-quadro (art.º 259.º),Aquisição de bens móveis,"33140000-3, Material médico de consumo","Administração Regional de Saúde do Norte, I. P. (503135593)","Medicinália-Cormédica, Lda. (500684324)","17.656,00 €",29-07-2016,13-08-2015,140 dias,"Portugal, Distrito não determinado, Concelho não determinado<BR/>Portugal, Vila Real, Vila Real<BR/>Portugal, Porto, Maia",Artigo 259.º do Código dos Contratos Públicos,31-12-2015,"17.656,00 €","",,,419168,CONCURSO PÚBLICO PARA A CELEBRAÇÃO DE CONTRATOS PÚBLICOS DE APROVISIONAMENTO PARA AQUISIÇÃO DE MATERIAL OSTOMIA DE ELIMINAÇÃO,FALSE
Aquisição diverso material de Ostomia - APROV-PRT 15005416 (AP 1324),Ao abrigo de acordo-quadro (art.º 259.º),Aquisição de bens móveis,"33140000-3, Material médico de consumo","Administração Regional de Saúde do Norte, I. P. (503135593)","B Braun Medical, Lda. (501506543)","5.426,00 €",29-07-2016,13-08-2015,140 dias,"Portugal, Distrito não determinado, Concelho não determinado<BR/>Portugal, Vila Real, Vila Real<BR/>Portugal, Porto, Maia",Artigo 259.º do Código dos Contratos Públicos,31-12-2015,"5.426,00 €","",,,419168,CONCURSO PÚBLICO PARA A CELEBRAÇÃO DE CONTRATOS PÚBLICOS DE APROVISIONAMENTO PARA AQUISIÇÃO DE MATERIAL OSTOMIA DE ELIMINAÇÃO,FALSE
Aquisição diverso material de Ostomia - APROV-PRT 15005416 (AP 1324),Ao abrigo de acordo-quadro (art.º 259.º),Aquisição de bens móveis,"33140000-3, Material médico de consumo","Administração Regional de Saúde do Norte, I. P. (503135593)","B Braun Medical, Lda. (501506543)","12.624,00 €",29-07-2016,13-08-2015,140 dias,"Portugal, Distrito não determinado, Concelho não determinado<BR/>Portugal, Vila Real, Vila Real<BR/>Portugal, Porto, Maia",Artigo 259.º do Código dos Contratos Públicos,31-12-2015,"12.624,00 €","",,,419168,CONCURSO PÚBLICO PARA A CELEBRAÇÃO DE CONTRATOS PÚBLICOS DE APROVISIONAMENTO PARA AQUISIÇÃO DE MATERIAL OSTOMIA DE ELIMINAÇÃO,FALSE
Aquisição diverso material de Ostomia - APROV-PRT 15005416 (AP 1324),Ao abrigo de acordo-quadro (art.º 259.º),Aquisição de bens móveis,"33140000-3, Material médico de consumo","Administração Regional de Saúde do Norte, I. P. (503135593)","B Braun Medical, Lda. (501506543)","10.224,00 €",29-07-2016,13-08-2015,140 dias,"Portugal, Vila Real, Vila Real<BR/>Portugal, Porto, Maia<BR/>Portugal, Distrito não determinado, Concelho não determinado",Artigo 259.º do Código dos Contratos Públicos,31-12-2015,"10.224,00 €","",,,419168,CONCURSO PÚBLICO PARA A CELEBRAÇÃO DE CONTRATOS PÚBLICOS DE APROVISIONAMENTO PARA AQUISIÇÃO DE MATERIAL OSTOMIA DE ELIMINAÇÃO,FALSE
Aquisição diverso material de Ostomia - APROV-PRT 15005416 (AP 1324),Ao abrigo de acordo-quadro (art.º 259.º),Aquisição de bens móveis,"33140000-3, Material médico de consumo","Administração Regional de Saúde do Norte, I. P. (503135593)","B Braun Medical, Lda. (501506543)","23.112,00 €",29-07-2016,13-08-2015,140 dias,"Portugal, Porto, Maia<BR/>Portugal, Vila Real, Vila Real<BR/>Portugal, Distrito não determinado, Concelho não determinado",Artigo 259.º do Código dos Contratos Públicos,31-12-2015,"23.112,00 €","",,,419168,CONCURSO PÚBLICO PARA A CELEBRAÇÃO DE CONTRATOS PÚBLICOS DE APROVISIONAMENTO PARA AQUISIÇÃO DE MATERIAL OSTOMIA DE ELIMINAÇÃO,FALSE
Aquisição diverso material de Ostomia - APROV-PRT 15005416 (AP 1324),Ao abrigo de acordo-quadro (art.º 259.º),Aquisição de bens móveis,"33140000-3, Material médico de consumo","Administração Regional de Saúde do Norte, I. P. (503135593)","B Braun Medical, Lda. (501506543)","21.912,00 €",29-07-2016,13-08-2015,140 dias,"Portugal, Vila Real, Vila Real<BR/>Portugal, Porto, Maia<BR/>Portugal, Distrito não determinado, Concelho não determinado",Artigo 259.º do Código dos Contratos Públicos,31-12-2015,"21.912,00 €","",,,419168,CONCURSO PÚBLICO PARA A CELEBRAÇÃO DE CONTRATOS PÚBLICOS DE APROVISIONAMENTO PARA AQUISIÇÃO DE MATERIAL OSTOMIA DE ELIMINAÇÃO,FALSE
Aquisição de material consumo clínico - Ostomias - APROV-PRT 15004134 (AP 162),Ao abrigo de acordo-quadro (art.º 259.º),Aquisição de bens móveis,"33140000-3, Material médico de consumo","Administração Regional de Saúde do Norte, I. P. (503135593)","B Braun Medical, Lda. (501506543)","5.520,00 €",28-07-2016,06-04-2015,269 dias,"Portugal, Distrito não determinado, Concelho não determinado<BR/>Portugal, Porto, Maia<BR/>Portugal, Vila Real, Vila Real",Artigo 259.º do Código dos Contratos Públicos,31-12-2015,"5.520,00 €","",,,1891543,CP 2015/27 Acordo quadro para fornecimento de Material de Ostomia e Eliminação às Instituições e Serviços do Serviço Nacional de Saúde,FALSE
Aquisição de material consumo clínico - Ostomias - APROV-PRT 15004134 (AP 162),Ao abrigo de acordo-quadro (art.º 259.º),Aquisição de bens móveis,"33140000-3, Material médico de consumo","Administração Regional de Saúde do Norte, I. P. (503135593)","B Braun Medical, Lda. (501506543)","4.760,00 €",28-07-2016,06-04-2015,269 dias,"Portugal, Porto, Maia<BR/>Portugal, Vila Real, Vila Real<BR/>Portugal, Distrito não determinado, Concelho não determinado",Artigo 259.º do Código dos Contratos Públicos,31-12-2015,"4.760,00 €","",,,1891543,CP 2015/27 Acordo quadro para fornecimento de Material de Ostomia e Eliminação às Instituições e Serviços do Serviço Nacional de Saúde,FALSE
Aquisição de material consumo clínico - Ostomias - APROV-PRT 15004134 (AP 162),Ao abrigo de acordo-quadro (art.º 259.º),Aquisição de bens móveis,"33140000-3, Material médico de consumo","Administração Regional de Saúde do Norte, I. P. (503135593)","B. Braun Medical, Lda. (501506543)","2.380,00 €",28-07-2016,06-04-2015,269 dias,"Portugal, Distrito não determinado, Concelho não determinado<BR/>Portugal, Porto, Maia<BR/>Portugal, Vila Real, Vila Real",Artigo 259.º do Código dos Contratos Públicos,31-12-2015,"2.380,00 €","",,,1891543,CP 2015/27 Acordo quadro para fornecimento de Material de Ostomia e Eliminação às Instituições e Serviços do Serviço Nacional de Saúde,FALSE
Aquisição de material consumo clínico - Ostomias - APROV-PRT 15004134 (AP 162),Ao abrigo de acordo-quadro (art.º 259.º),Aquisição de bens móveis,"33140000-3, Material médico de consumo","Administração Regional de Saúde do Norte, I. P. (503135593)",Kvtech Portugal (508671531),"2.940,00 €",28-07-2016,06-04-2015,269 dias,"Portugal, Vila Real, Vila Real<BR/>Portugal, Porto, Maia<BR/>Portugal, Distrito não determinado, Concelho não determinado",Artigo 259.º do Código dos Contratos Públicos,31-12-2015,"2.940,00 €","",,,1891543,CP 2015/27 Acordo quadro para fornecimento de Material de Ostomia e Eliminação às Instituições e Serviços do Serviço Nacional de Saúde,FALSE
Aquisição de material consumo clínico - Ostomias - APROV-PRT 15004134 (AP 162),Ao abrigo de acordo-quadro (art.º 259.º),Aquisição de bens móveis,"33140000-3, Material médico de consumo","Administração Regional de Saúde do Norte, I. P. (503135593)","B Braun Medical, Lda. (501506543)","7.000,00 €",28-07-2016,06-04-2015,269 dias,"Portugal, Porto, Maia<BR/>Portugal, Distrito não determinado, Concelho não determinado<BR/>Portugal, Vila Real, Vila Real",Artigo 259.º do Código dos Contratos Públicos,31-12-2015,"7.000,00 €","",,,1891543,CP 2015/27 Acordo quadro para fornecimento de Material de Ostomia e Eliminação às Instituições e Serviços do Serviço Nacional de Saúde,FALSE
Aquisição de material consumo clínico - Ostomias - APROV-PRT 15004134 (AP 162),Ao abrigo de acordo-quadro (art.º 259.º),Aquisição de bens móveis,"33140000-3, Material médico de consumo","Administração Regional de Saúde do Norte, I. P. (503135593)","B Braun Medical, Lda.  (501506543)","28.000,00 €",28-07-2016,06-04-2015,269 dias,"Portugal, Porto, Maia<BR/>Portugal, Distrito não determinado, Concelho não determinado<BR/>Portugal, Vila Real, Vila Real",Artigo 259.º do Código dos Contratos Públicos,31-12-2015,"28.000,00 €","",,,1891543,CP 2015/27 Acordo quadro para fornecimento de Material de Ostomia e Eliminação às Instituições e Serviços do Serviço Nacional de Saúde,FALSE
Aquisição de material consumo clínico - Ostomias - APROV-PRT 15004134 (AP 162),Ao abrigo de acordo-quadro (art.º 259.º),Aquisição de bens móveis,"33140000-3, Material médico de consumo","Administração Regional de Saúde do Norte, I. P. (503135593)","Spcare, Lda. (508284872)","5.649,58 €",28-07-2016,06-04-2015,269 dias,"Portugal, Distrito não determinado, Concelho não determinado<BR/>Portugal, Porto, Maia<BR/>Portugal, Vila Real, Vila Real",Artigo 259.º do Código dos Contratos Públicos,31-12-2015,"5.649,58 €","",,,1891543,CP 2015/27 Acordo quadro para fornecimento de Material de Ostomia e Eliminação às Instituições e Serviços do Serviço Nacional de Saúde,FALSE
Aquisição de material consumo clínico - Ostomias - APROV-PRT 15004134 (AP 162),Ao abrigo de acordo-quadro (art.º 259.º),Aquisição de bens móveis,"33140000-3, Material médico de consumo","Administração Regional de Saúde do Norte, I. P. (503135593)","Medicinália-Cormédica, Lda. (500684324)","5.760,00 €",28-07-2016,06-04-2015,269 dias,"Portugal, Vila Real, Vila Real<BR/>Portugal, Porto, Maia<BR/>Portugal, Distrito não determinado, Concelho não determinado",Artigo 259.º do Código dos Contratos Públicos,31-12-2015,"5.760,00 €","",,,1891543,CP 2015/27 Acordo quadro para fornecimento de Material de Ostomia e Eliminação às Instituições e Serviços do Serviço Nacional de Saúde,FALSE
Aquisição de material consumo clínico - Ostomias - APROV-PRT 15004134 (AP 162),Ao abrigo de acordo-quadro (art.º 259.º),Aquisição de bens móveis,"33140000-3, Material médico de consumo","Administração Regional de Saúde do Norte, I. P. (503135593)","Medicinália-Cormédica, Lda. (500684324)","8.428,00 €",28-07-2016,06-04-2015,269 dias,"Portugal, Distrito não determinado, Concelho não determinado<BR/>Portugal, Porto, Maia<BR/>Portugal, Vila Real, Vila Real",Artigo 259.º do Código dos Contratos Públicos,31-12-2015,"8.428,00 €","",,,1891543,CP 2015/27 Acordo quadro para fornecimento de Material de Ostomia e Eliminação às Instituições e Serviços do Serviço Nacional de Saúde,FALSE
Aquisição de material consumo clínico - Ostomias - APROV-PRT 15004134 (AP 162),Ao abrigo de acordo-quadro (art.º 259.º),Aquisição de bens móveis,"33140000-3, Material médico de consumo","Administração Regional de Saúde do Norte, I. P. (503135593)",Spcare (508284872),"5.599,16 €",28-07-2016,06-04-2015,269 dias,"Portugal, Vila Real, Vila Real<BR/>Portugal, Porto, Maia",Artigo 259.º do Código dos Contratos Públicos,31-12-2015,"5.599,16 €","",,,1891543,CP 2015/27 Acordo quadro para fornecimento de Material de Ostomia e Eliminação às Instituições e Serviços do Serviço Nacional de Saúde,FALSE
Aquisição de material consumo clínico - Ostomias - APROV-PRT 15004134 (AP 162),Ao abrigo de acordo-quadro (art.º 259.º),Aquisição de bens móveis,"33140000-3, Material médico de consumo","Administração Regional de Saúde do Norte, I. P. (503135593)","Spcare, Lda. (508284872)","5.599,16 €",28-07-2016,06-04-2015,269 dias,"Portugal, Vila Real, Vila Real",Artigo 259.º do Código dos Contratos Públicos,31-12-2015,"5.599,16 €","",,,1891543,CP 2015/27 Acordo quadro para fornecimento de Material de Ostomia e Eliminação às Instituições e Serviços do Serviço Nacional de Saúde,FALSE
Aquisição de material consumo clínico - Ostomias - APROV-PRT 15004134 (AP 162),Ao abrigo de acordo-quadro (art.º 259.º),Aquisição de bens móveis,"33140000-3, Material médico de consumo","Administração Regional de Saúde do Norte, I. P. (503135593)","B Braun Medical, Lda. (501506543)","3.265,60 €",28-07-2016,06-04-2015,269 dias,"Portugal, Vila Real, Vila Real<BR/>Portugal, Porto, Maia<BR/>Portugal, Distrito não determinado, Concelho não determinado",Artigo 259.º do Código dos Contratos Públicos,31-12-2015,"3.265,60 €","",,,1891543,CP 2015/27 Acordo quadro para fornecimento de Material de Ostomia e Eliminação às Instituições e Serviços do Serviço Nacional de Saúde,FALSE
Aquisição de material consumo clínico - Ostomias - APROV-PRT 15004134 (AP 162),Ao abrigo de acordo-quadro (art.º 259.º),Aquisição de bens móveis,"33140000-3, Material médico de consumo","Administração Regional de Saúde do Norte, I. P. (503135593)","B Braun Medical, Lda. (501506543)","10.208,00 €",28-07-2016,06-04-2015,269 dias,"Portugal, Distrito não determinado, Concelho não determinado<BR/>Portugal, Vila Real, Vila Real<BR/>Portugal, Porto, Maia",Artigo 259.º do Código dos Contratos Públicos,31-12-2015,"10.208,00 €","",,,1891543,CP 2015/27 Acordo quadro para fornecimento de Material de Ostomia e Eliminação às Instituições e Serviços do Serviço Nacional de Saúde,FALSE
Aquisição de material consumo clínico - Ostomias - APROV-PRT 15004134 (AP 162),Ao abrigo de acordo-quadro (art.º 259.º),Aquisição de bens móveis,"33140000-3, Material médico de consumo","Administração Regional de Saúde do Norte, I. P. (503135593)","B Braun Medical, Lda. (501506543)","4.184,00 €",28-07-2016,06-04-2015,269 dias,"Portugal, Vila Real, Vila Real<BR/>Portugal, Porto, Maia",Artigo 259.º do Código dos Contratos Públicos,31-12-2015,"4.184,00 €","",,,1891543,CP 2015/27 Acordo quadro para fornecimento de Material de Ostomia e Eliminação às Instituições e Serviços do Serviço Nacional de Saúde,FALSE
Aquisição de material consumo clínico - Ostomias - APROV-PRT 15004134 (AP 162),Ao abrigo de acordo-quadro (art.º 259.º),Aquisição de bens móveis,"33140000-3, Material médico de consumo","Administração Regional de Saúde do Norte, I. P. (503135593)","Spcare, Lda (508284872)","3.894,50 €",28-07-2016,06-04-2015,269 dias,"Portugal, Distrito não determinado, Concelho não determinado<BR/>Portugal, Porto, Maia<BR/>Portugal, Vila Real, Vila Real",Artigo 259.º do Código dos Contratos Públicos,31-12-2015,"3.894,50 €","",,,1891543,CP 2015/27 Acordo quadro para fornecimento de Material de Ostomia e Eliminação às Instituições e Serviços do Serviço Nacional de Saúde,FALSE
Aquisição Serviços Gráficos e Tipográficos para Campanha de divulgação/informação Rastreio de Saúde Infantil (APROV-16001342),Ajuste Direto Regime Geral,Aquisição de serviços,"79341000-6, Serviços de publicidade","Administração Regional de Saúde do Norte, I. P. (503135593)","Omdesign, Lda (505407051)","5.484,16 €",26-07-2016,03-06-2016,210 dias,"Portugal, Vila Real, Vila Real<BR/>Portugal, Porto, Maia<BR/>Portugal, Distrito não determinado, Concelho não determinado","Artigo 20.º, n.º 1, alínea a) do Código dos Contratos Públicos",01-07-2016,"5.484,16 €","",,,Não aplicável.,Não aplicável.,FALSE
Aquisição de serviço de reparação de 4 alcoolímetros,Ajuste Direto Regime Geral,Aquisição de serviços,"50400000-9, Serviços de reparação e manutenção de equipamento médico e de precisão","Administração Regional de Saúde do Norte, I. P. (503135593)","PRHOFAME - P. HOSP. F. MEDIC, LDA. (501891145)","208,00 €",25-07-2016,30-05-2016,214 dias,"Portugal, Porto, Porto","Artigo 20.º, n.º 1, alínea a) do Código dos Contratos Públicos",06-07-2016,"208,00 €","",,,Não aplicável.,Não aplicável.,FALSE
Aquisição diverso material de consumo clinico - 5.600 seringas insulina; 60.000 agulhas irrec. 0.8x40; 2.500 agulhas irrec. 0.45x12; 15.000 agulhas irrec. 0.6x25; 10.000 agulhas irrec. 0.8x40; 15.000 agulhas irrec. 0.9x25; 15.000 agulhas irrec. 0.7x40; 15.000 agulhas irrec. 0.9x40; 2.500 agulhas nº 21  - APROV-PRT 15006402 (AP 2206),Ao abrigo de acordo-quadro (art.º 259.º),Aquisição de bens móveis,"33600000-6, Produtos farmacêuticos","Administração Regional de Saúde do Norte, I. P. (503135593)","Pergut, SA (501799729)","825,00 €",25-07-2016,17-11-2015,44 dias,"Portugal, Vila Real, Vila Real<BR/>Portugal, Distrito não determinado, Concelho não determinado<BR/>Portugal, Porto, Maia",Artigo 259.º do Código dos Contratos Públicos,31-12-2015,"825,00 €","",,,1341769,"ACORDO QUADRO PARA FORNECIMENTO DE SERINGAS, AGULHAS E CONTENTORES ÀS INSTITUIÇÕES E SERVIÇOS DO SERVIÇO NACIONAL DE SAÚDE PROGRAMA DE CONCURSO",FALSE
Aquisição diverso material de consumo clinico - 5.600 seringas insulina; 60.000 agulhas irrec. 0.8x40; 2.500 agulhas irrec. 0.45x12; 15.000 agulhas irrec. 0.6x25; 10.000 agulhas irrec. 0.8x40; 15.000 agulhas irrec. 0.9x25; 15.000 agulhas irrec. 0.7x40; 15.000 agulhas irrec. 0.9x40; 2.500 agulhas nº 21  - APROV-PRT 15006402 (AP 2206),Ao abrigo de acordo-quadro (art.º 259.º),Aquisição de bens móveis,"33600000-6, Produtos farmacêuticos","Administração Regional de Saúde do Norte, I. P. (503135593)","Pergut, SA (501799729)","825,00 €",25-07-2016,17-11-2015,44 dias,"Portugal, Porto, Maia<BR/>Portugal, Vila Real, Vila Real<BR/>Portugal, Distrito não determinado, Concelho não determinado",Artigo 259.º do Código dos Contratos Públicos,31-12-2015,"825,00 €","",,,1341769,"ACORDO QUADRO PARA FORNECIMENTO DE SERINGAS, AGULHAS E CONTENTORES ÀS INSTITUIÇÕES E SERVIÇOS DO SERVIÇO NACIONAL DE SAÚDE PROGRAMA DE CONCURSO",FALSE
Aquisição diverso material de consumo clinico - 5.600 seringas insulina; 60.000 agulhas irrec. 0.8x40; 2.500 agulhas irrec. 0.45x12; 15.000 agulhas irrec. 0.6x25; 10.000 agulhas irrec. 0.8x40; 15.000 agulhas irrec. 0.9x25; 15.000 agulhas irrec. 0.7x40; 15.000 agulhas irrec. 0.9x40; 2.500 agulhas nº 21  - APROV-PRT 15006402 (AP 2206),Ao abrigo de acordo-quadro (art.º 259.º),Aquisição de bens móveis,"33600000-6, Produtos farmacêuticos","Administração Regional de Saúde do Norte, I. P. (503135593)","Pergut, SA (501799729)","250,00 €",25-07-2016,17-11-2015,44 dias,"Portugal, Porto, Maia<BR/>Portugal, Distrito não determinado, Concelho não determinado<BR/>Portugal, Vila Real, Vila Real",Artigo 259.º do Código dos Contratos Públicos,31-12-2015,"250,00 €","",,,1341769,"ACORDO QUADRO PARA FORNECIMENTO DE SERINGAS, AGULHAS E CONTENTORES ÀS INSTITUIÇÕES E SERVIÇOS DO SERVIÇO NACIONAL DE SAÚDE PROGRAMA DE CONCURSO",FALSE
Aquisição diverso material de consumo clinico - 5.600 seringas insulina; 60.000 agulhas irrec. 0.8x40; 2.500 agulhas irrec. 0.45x12; 15.000 agulhas irrec. 0.6x25; 10.000 agulhas irrec. 0.8x40; 15.000 agulhas irrec. 0.9x25; 15.000 agulhas irrec. 0.7x40; 15.000 agulhas irrec. 0.9x40; 2.500 agulhas nº 21  - APROV-PRT 15006402 (AP 2206),Ao abrigo de acordo-quadro (art.º 259.º),Aquisição de bens móveis,"33600000-6, Produtos farmacêuticos","Administração Regional de Saúde do Norte, I. P. (503135593)","Pergut, SA (501799729)","825,00 €",25-07-2016,17-11-2015,44 dias,"Portugal, Porto, Maia<BR/>Portugal, Distrito não determinado, Concelho não determinado<BR/>Portugal, Vila Real, Vila Real",Artigo 259.º do Código dos Contratos Públicos,31-12-2015,"825,00 €","",,,1341769,"ACORDO QUADRO PARA FORNECIMENTO DE SERINGAS, AGULHAS E CONTENTORES ÀS INSTITUIÇÕES E SERVIÇOS DO SERVIÇO NACIONAL DE SAÚDE PROGRAMA DE CONCURSO",FALSE
Aquisição diverso material de consumo clinico - 5.600 seringas insulina; 60.000 agulhas irrec. 0.8x40; 2.500 agulhas irrec. 0.45x12; 15.000 agulhas irrec. 0.6x25; 10.000 agulhas irrec. 0.8x40; 15.000 agulhas irrec. 0.9x25; 15.000 agulhas irrec. 0.7x40; 15.000 agulhas irrec. 0.9x40; 2.500 agulhas nº 21  - APROV-PRT 15006402 (AP 2206),Ao abrigo de acordo-quadro (art.º 259.º),Aquisição de bens móveis,"33600000-6, Produtos farmacêuticos","Administração Regional de Saúde do Norte, I. P. (503135593)","Pergut, SA (501799729)","550,00 €",25-07-2016,17-11-2015,44 dias,"Portugal, Distrito não determinado, Concelho não determinado<BR/>Portugal, Vila Real, Vila Real<BR/>Portugal, Porto, Maia",Artigo 259.º do Código dos Contratos Públicos,31-12-2015,"550,00 €","",,,1341769,"ACORDO QUADRO PARA FORNECIMENTO DE SERINGAS, AGULHAS E CONTENTORES ÀS INSTITUIÇÕES E SERVIÇOS DO SERVIÇO NACIONAL DE SAÚDE PROGRAMA DE CONCURSO",FALSE
Aquisição diverso material de consumo clinico - 5.600 seringas insulina; 60.000 agulhas irrec. 0.8x40; 2.500 agulhas irrec. 0.45x12; 15.000 agulhas irrec. 0.6x25; 10.000 agulhas irrec. 0.8x40; 15.000 agulhas irrec. 0.9x25; 15.000 agulhas irrec. 0.7x40; 15.000 agulhas irrec. 0.9x40; 2.500 agulhas nº 21  - APROV-PRT 15006402 (AP 2206),Ao abrigo de acordo-quadro (art.º 259.º),Aquisição de bens móveis,"33600000-6, Produtos farmacêuticos","Administração Regional de Saúde do Norte, I. P. (503135593)","Pergut, SA (501799729)","825,00 €",25-07-2016,17-11-2015,44 dias,"Portugal, Distrito não determinado, Concelho não determinado<BR/>Portugal, Vila Real, Vila Real<BR/>Portugal, Porto, Maia",Artigo 259.º do Código dos Contratos Públicos,31-12-2015,"825,00 €","",,,1341769,"ACORDO QUADRO PARA FORNECIMENTO DE SERINGAS, AGULHAS E CONTENTORES ÀS INSTITUIÇÕES E SERVIÇOS DO SERVIÇO NACIONAL DE SAÚDE PROGRAMA DE CONCURSO",FALSE
Aquisição diverso material de consumo clinico - 5.600 seringas insulina; 60.000 agulhas irrec. 0.8x40; 2.500 agulhas irrec. 0.45x12; 15.000 agulhas irrec. 0.6x25; 10.000 agulhas irrec. 0.8x40; 15.000 agulhas irrec. 0.9x25; 15.000 agulhas irrec. 0.7x40; 15.000 agulhas irrec. 0.9x40; 2.500 agulhas nº 21  - APROV-PRT 15006402 (AP 2206),Ao abrigo de acordo-quadro (art.º 259.º),Aquisição de bens móveis,"33600000-6, Produtos farmacêuticos","Administração Regional de Saúde do Norte, I. P. (503135593)","Anastacio Saldanha Unip., Lda. (505804441)","161,50 €",25-07-2016,17-11-2015,44 dias,"Portugal, Distrito não determinado, Concelho não determinado<BR/>Portugal, Porto, Maia<BR/>Portugal, Vila Real, Vila Real",Artigo 259.º do Código dos Contratos Públicos,31-12-2015,"161,50 €","",,,1341769,"ACORDO QUADRO PARA FORNECIMENTO DE SERINGAS, AGULHAS E CONTENTORES ÀS INSTITUIÇÕES E SERVIÇOS DO SERVIÇO NACIONAL DE SAÚDE PROGRAMA DE CONCURSO",FALSE
Aquisição diverso material de consumo clinico - 5.600 seringas insulina; 60.000 agulhas irrec. 0.8x40; 2.500 agulhas irrec. 0.45x12; 15.000 agulhas irrec. 0.6x25; 10.000 agulhas irrec. 0.8x40; 15.000 agulhas irrec. 0.9x25; 15.000 agulhas irrec. 0.7x40; 15.000 agulhas irrec. 0.9x40; 2.500 agulhas nº 21  - APROV-PRT 15006402 (AP 2206),Ao abrigo de acordo-quadro (art.º 259.º),Aquisição de bens móveis,"33600000-6, Produtos farmacêuticos","Administração Regional de Saúde do Norte, I. P. (503135593)","Docworl, Lda (508592909)","504,00 €",25-07-2016,17-11-2015,44 dias,"Portugal, Distrito não determinado, Concelho não determinado<BR/>Portugal, Porto, Maia<BR/>Portugal, Vila Real, Vila Real",Artigo 259.º do Código dos Contratos Públicos,31-12-2015,"504,00 €","",,,1341769,"ACORDO QUADRO PARA FORNECIMENTO DE SERINGAS, AGULHAS E CONTENTORES ÀS INSTITUIÇÕES E SERVIÇOS DO SERVIÇO NACIONAL DE SAÚDE PROGRAMA DE CONCURSO",FALSE
Aquisição diverso material de consumo clinico - 5.600 seringas insulina; 60.000 agulhas irrec. 0.8x40; 2.500 agulhas irrec. 0.45x12; 15.000 agulhas irrec. 0.6x25; 10.000 agulhas irrec. 0.8x40; 15.000 agulhas irrec. 0.9x25; 15.000 agulhas irrec. 0.7x40; 15.000 agulhas irrec. 0.9x40; 2.500 agulhas nº 21  - APROV-PRT 15006402 (AP 2206),Ao abrigo de acordo-quadro (art.º 259.º),Aquisição de bens móveis,"33600000-6, Produtos farmacêuticos","Administração Regional de Saúde do Norte, I. P. (503135593)","Pergut, SA (501799729)","145,60 €",25-07-2016,17-11-2015,44 dias,"Portugal, Porto, Maia<BR/>Portugal, Vila Real, Vila Real<BR/>Portugal, Distrito não determinado, Concelho não determinado",Artigo 259.º do Código dos Contratos Públicos,31-12-2015,"145,60 €","",,,1341769,"ACORDO QUADRO PARA FORNECIMENTO DE SERINGAS, AGULHAS E CONTENTORES ÀS INSTITUIÇÕES E SERVIÇOS DO SERVIÇO NACIONAL DE SAÚDE PROGRAMA DE CONCURSO",FALSE
"Aquisição de Medicamentos - 1.000 Metamizol 2000mg/5ml; 720 Venlafaxina 75mg; 4.300 Tramadol 50mg; 2.820 Trazodona 100mg; 750 Venlafaxina 37,5mg - APROV-PRT 15004661 (AP 613)",Ao abrigo de acordo-quadro (art.º 259.º),Aquisição de bens móveis,"33600000-6, Produtos farmacêuticos","Administração Regional de Saúde do Norte, I. P. (503135593)","Aurovitas Unipessoal, Lda. (513053239)","30,00 €",22-07-2016,20-04-2015,279 dias,"Portugal, Porto, Maia<BR/>Portugal, Vila Real, Vila Real<BR/>Portugal, Distrito não determinado, Concelho não determinado",Artigo 259.º do Código dos Contratos Públicos,31-12-2015,"30,00 €","",,,1179911,"CONCURSO PÚBLICO PARA A CELEBRAÇÃO DE CONTRATOS PÚBLICOS DE APROVISIONAMENTO PARA A ÁREA DA SAÚDE, MEDICAMENTOS DO SISTEMA NERVOSO CEREBROSPINAL, EXCETO: ANESTÉSICOS, RELAXANTES MUSCULARES, ANALGÉSICOS, ANTIPIRÉTICOS, ANTIDEPRESSORES E ANTIPSICÓTICOS, ÀS INSTITUIÇÕES E SERVIÇOS DO SERVIÇO NACIONAL DE SAÚDE",FALSE
"Aquisição de Medicamentos - 1.000 Metamizol 2000mg/5ml; 720 Venlafaxina 75mg; 4.300 Tramadol 50mg; 2.820 Trazodona 100mg; 750 Venlafaxina 37,5mg - APROV-PRT 15004661 (AP 613)",Ao abrigo de acordo-quadro (art.º 259.º),Aquisição de bens móveis,"33600000-6, Produtos farmacêuticos","Administração Regional de Saúde do Norte, I. P. (503135593)","Farmoz - Soc. Técnico Medicinal, SA (501505334)","169,20 €",22-07-2016,20-04-2015,279 dias,"Portugal, Porto, Maia<BR/>Portugal, Distrito não determinado, Concelho não determinado<BR/>Portugal, Vila Real, Vila Real",Artigo 259.º do Código dos Contratos Públicos,31-12-2015,"169,20 €","",,,1179911,"CONCURSO PÚBLICO PARA A CELEBRAÇÃO DE CONTRATOS PÚBLICOS DE APROVISIONAMENTO PARA A ÁREA DA SAÚDE, MEDICAMENTOS DO SISTEMA NERVOSO CEREBROSPINAL, EXCETO: ANESTÉSICOS, RELAXANTES MUSCULARES, ANALGÉSICOS, ANTIPIRÉTICOS, ANTIDEPRESSORES E ANTIPSICÓTICOS, ÀS INSTITUIÇÕES E SERVIÇOS DO SERVIÇO NACIONAL DE SAÚDE",FALSE
"Aquisição de Medicamentos - 1.000 Metamizol 2000mg/5ml; 720 Venlafaxina 75mg; 4.300 Tramadol 50mg; 2.820 Trazodona 100mg; 750 Venlafaxina 37,5mg - APROV-PRT 15004661 (AP 613)",Ao abrigo de acordo-quadro (art.º 259.º),Aquisição de bens móveis,"33600000-6, Produtos farmacêuticos","Administração Regional de Saúde do Norte, I. P. (503135593)","Aurovitas Unipessoal, Lda. (513053239)","180,60 €",22-07-2016,20-04-2015,279 dias,"Portugal, Vila Real, Vila Real<BR/>Portugal, Porto, Maia<BR/>Portugal, Distrito não determinado, Concelho não determinado",Artigo 259.º do Código dos Contratos Públicos,31-12-2015,"180,60 €","",,,1179911,"CONCURSO PÚBLICO PARA A CELEBRAÇÃO DE CONTRATOS PÚBLICOS DE APROVISIONAMENTO PARA A ÁREA DA SAÚDE, MEDICAMENTOS DO SISTEMA NERVOSO CEREBROSPINAL, EXCETO: ANESTÉSICOS, RELAXANTES MUSCULARES, ANALGÉSICOS, ANTIPIRÉTICOS, ANTIDEPRESSORES E ANTIPSICÓTICOS, ÀS INSTITUIÇÕES E SERVIÇOS DO SERVIÇO NACIONAL DE SAÚDE",FALSE
"Aquisição de Medicamentos - 1.000 Metamizol 2000mg/5ml; 720 Venlafaxina 75mg; 4.300 Tramadol 50mg; 2.820 Trazodona 100mg; 750 Venlafaxina 37,5mg - APROV-PRT 15004661 (AP 613)",Ao abrigo de acordo-quadro (art.º 259.º),Aquisição de bens móveis,"33600000-6, Produtos farmacêuticos","Administração Regional de Saúde do Norte, I. P. (503135593)","Aurovitas Unipessoal, Lda. (513053239)","43,20 €",22-07-2016,20-04-2015,279 dias,"Portugal, Porto, Maia<BR/>Portugal, Distrito não determinado, Concelho não determinado<BR/>Portugal, Vila Real, Vila Real",Artigo 259.º do Código dos Contratos Públicos,31-12-2015,"43,20 €","",,,1179911,"CONCURSO PÚBLICO PARA A CELEBRAÇÃO DE CONTRATOS PÚBLICOS DE APROVISIONAMENTO PARA A ÁREA DA SAÚDE, MEDICAMENTOS DO SISTEMA NERVOSO CEREBROSPINAL, EXCETO: ANESTÉSICOS, RELAXANTES MUSCULARES, ANALGÉSICOS, ANTIPIRÉTICOS, ANTIDEPRESSORES E ANTIPSICÓTICOS, ÀS INSTITUIÇÕES E SERVIÇOS DO SERVIÇO NACIONAL DE SAÚDE",FALSE
"Aquisição de Medicamentos - 1.000 Metamizol 2000mg/5ml; 720 Venlafaxina 75mg; 4.300 Tramadol 50mg; 2.820 Trazodona 100mg; 750 Venlafaxina 37,5mg - APROV-PRT 15004661 (AP 613)",Ao abrigo de acordo-quadro (art.º 259.º),Aquisição de bens móveis,"33600000-6, Produtos farmacêuticos","Administração Regional de Saúde do Norte, I. P. (503135593)",Unilfarma (500293023),"280,00 €",22-07-2016,20-04-2015,279 dias,"Portugal, Porto, Maia<BR/>Portugal, Vila Real, Vila Real<BR/>Portugal, Distrito não determinado, Concelho não determinado",Artigo 259.º do Código dos Contratos Públicos,31-12-2015,"280,00 €","",,,1179911,"CONCURSO PÚBLICO PARA A CELEBRAÇÃO DE CONTRATOS PÚBLICOS DE APROVISIONAMENTO PARA A ÁREA DA SAÚDE, MEDICAMENTOS DO SISTEMA NERVOSO CEREBROSPINAL, EXCETO: ANESTÉSICOS, RELAXANTES MUSCULARES, ANALGÉSICOS, ANTIPIRÉTICOS, ANTIDEPRESSORES E ANTIPSICÓTICOS, ÀS INSTITUIÇÕES E SERVIÇOS DO SERVIÇO NACIONAL DE SAÚDE",FALSE
Aquisição de 250.000 Lancetas automáticas de Punção Capilar (diabético) - APROV-PRT 150052211 (AP1139),Ao abrigo de acordo-quadro (art.º 259.º),Aquisição de bens móveis,"33140000-3, Material médico de consumo","Administração Regional de Saúde do Norte, I. P. (503135593)",Iberlab & Imunoreage (503406694),"11.450,00 €",21-07-2016,02-07-2015,181 dias,"Portugal, Vila Real, Vila Real<BR/>Portugal, Porto, Maia<BR/>Portugal, Distrito não determinado, Concelho não determinado",Artigo 259.º do Código dos Contratos Públicos,31-12-2015,"11.450,00 €","",,,611510,"CONCURSO PÚBLICO PARA A CELEBRAÇÃO DE CONTRATOS PÚBLICOS DE APROVISIONAMENTO PARA A ÁREA DA SAÚDE, COM VISTA AO FORNECIMENTO DE MATERIAL DE PREVENÇÃO E DETEÇÃO HIV ÀS INSTITUIÇÕES E SERVIÇOS DO SERVIÇO NACIONAL DE SAÚDE",FALSE
Aquisição de 50 frascos Lactulose 666 7mg/ml Xarope Fr. - APROV-PRT 15005909 (AP 1755),Ao abrigo de acordo-quadro (art.º 259.º),Aquisição de bens móveis,"33600000-6, Produtos farmacêuticos","Administração Regional de Saúde do Norte, I. P. (503135593)","Generis Farmaceutica, SA (508107997)","118,00 €",21-07-2016,21-08-2015,132 dias,"Portugal, Porto, Maia<BR/>Portugal, Vila Real, Vila Real<BR/>Portugal, Distrito não determinado, Concelho não determinado",Artigo 259.º do Código dos Contratos Públicos,31-12-2015,"118,00 €","",,,520788,CONCURSO PUBLICO PARA A CELEBRAÇÃO DE CONTRATOS PUBLICOS DE APROVISIONAMENTO PARA A AREA DA SAUDE  COM VISTA AO FORNECIMENTO DE MEDICAMENTOS PARA O APARELHO DIGESTIVO  AS INSITUIÇÕES DO SERVIÇO NACIONAL DE SAÚDE,FALSE
"Aquisição de 52.230 unidades de vacina adsorv pneumo polios conjug22µg/0,5mlSusp injSer IM",Ao abrigo de acordo-quadro (art.º 259.º),Aquisição de bens móveis,"33600000-6, Produtos farmacêuticos","Administração Regional de Saúde do Norte, I. P. (503135593)",LABORATORIO PFIZER (500162166),"2.193.660,00 €",21-07-2016,16-06-2015,199 dias,"Portugal, Vila Real, Vila Real<BR/>Portugal, Porto, Porto<BR/>Portugal, Porto, Maia","Artigo 20.º, n.º 1, alínea b) do Código dos Contratos Públicos",03-12-2015,"2.193.660,00 €","",,,1923518,CP 2016/13 - Acordo Quadro para fornecimento de Vacinas e Tuberculinas   às Instituições e Serviços do Serviço Nacional de Saúde,FALSE
Aquisição de 800 Sondas Nasogástricas (tipo Levine) CH 18 - APROV-PRT 15005208 (AP 1136),Ao abrigo de acordo-quadro (art.º 259.º),Aquisição de bens móveis,"33141641-5, Sondas","Administração Regional de Saúde do Norte, I. P. (503135593)",Bastos Viegas SA (500042772),"176,00 €",21-07-2016,13-07-2015,171 dias,"Portugal, Porto, Maia<BR/>Portugal, Vila Real, Vila Real<BR/>Portugal, Distrito não determinado, Concelho não determinado",Artigo 259.º do Código dos Contratos Públicos,31-12-2015,"176,00 €","",,,1587913,Acordo Quadro para fornecimento de Equipamentos e Dispositivos Médicos de uso comum em internamento e ambulatório - Parte I às instituições e serviços do Serviço Nacional de Saúde.,FALSE
"Aquisição de 294.000 Envelopes do RCM, 278.000 Folhas de Oficio do RCM, 40.000 Tríptico do RCM e 57.000 Tríptico do RCCU para a Liga Portuguesa Contra o Cancro - APROV-PRT 15005907 (AP 1754) ",Ajuste Direto Regime Geral,Aquisição de bens móveis,"30199230-1, Sobrescritos","Administração Regional de Saúde do Norte, I. P. (503135593)","Citygrafica, Lda. (510243410)","10.473,89 €",21-07-2016,04-09-2015,118 dias,"Portugal, Vila Real, Vila Real<BR/>Portugal, Distrito não determinado, Concelho não determinado<BR/>Portugal, Porto, Maia","Artigo 20.º, n.º 1, alínea a) do Código dos Contratos Públicos",31-12-2015,"10.473,89 €","",,,Não aplicável.,Não aplicável.,FALSE
"Aquisição de Material de Penso com Efeito Terapêutico: 140.000 pensos de poliuretano c/ silicone, superabsorvente, c/ rebordo, 15x15 (cm); 25.000 pensos impregnados c/ vaselina ou parafina, 7,5x20 (cm); 21.000 bisnagas de 15 g de hidrogel; 35.000 pensos de poliuretano c/ silicone, superabsorventes, c/ rebordo, 10x10 (cm); 18.000 pensos de poliuretano com silicone e prata, c/ rebordo, 10x10 (cm); 4.000 unidades de 28 ml de solução polimérica para reforço do estrato córneo; 2.300 rolos de película de poliuretano transparente adesiva (semioclusiva), 10 cm x 10 m",Ao abrigo de acordo-quadro (art.º 259.º),Aquisição de bens móveis,"33600000-6, Produtos farmacêuticos","Administração Regional de Saúde do Norte, I. P. (503135593)","SMITH & NEPHEW, LDA. (503552461)","652.568,04 €",21-07-2016,08-04-2015,268 dias,"Portugal, Porto, Maia<BR/>Portugal, Vila Real, Vila Real<BR/>Portugal, Porto, Porto","Artigo 20.º, n.º 1, alínea b) do Código dos Contratos Públicos",23-09-2015,"652.568,04 €","",,,1315192,Acordo Quadro para fornecimento de material de penso de efeito terapêutico às Instituições e Serviços do Serviço Nacional de Saúde,FALSE
Adaptação de casa de lixos - USF Douro,Ajuste Direto Regime Geral,Empreitadas de obras públicas,"45454000-4, Obras de reestruturação","Administração Regional de Saúde do Norte, I. P. (503135593)","Ferteimetal, Lda  (510146058)","3.574,16 €",21-07-2016,13-07-2016,15 dias,"Portugal, Vila Real, Vila Real","Artigo 19.º, alínea a) do Código dos Contratos Públicos","","3.574,16 €","Verificou-se que, face à natureza e quantidade  dos trabalhos a realizar, foi estimado um prazo para realização da empreitada superior ao realmente necessário.",,,Não aplicável.,Não aplicável.,FALSE
"Aquisição de 70.000 pensos de carboximetilcelulose sódica, 15x15 (cm)",Ao abrigo de acordo-quadro (art.º 259.º),Aquisição de bens móveis,"33600000-6, Produtos farmacêuticos","Administração Regional de Saúde do Norte, I. P. (503135593)","Kvtech Portugal – Produtos Médicos, Lda. (508671531)","275.100,00 €",21-07-2016,08-04-2015,268 dias,"Portugal, Porto, Porto<BR/>Portugal, Porto, Maia","Artigo 20.º, n.º 1, alínea b) do Código dos Contratos Públicos",21-09-2015,"275.100,00 €","",,,1315192,Acordo Quadro para fornecimento de material de penso de efeito terapêutico às Instituições e Serviços do Serviço Nacional de Saúde,FALSE
"Aquisição de Material de Penso com Efeito Terapêutico: 7.000 pensos de poliuretano com prata, com rebordo, 15x15 (cm); 6.000 pensos de carvão ativado, 10x10 (cm); 11.000 pensos de carvão ativado, 10x20 (cm)",Ao abrigo de acordo-quadro (art.º 259.º),Aquisição de bens móveis,"33600000-6, Produtos farmacêuticos","Administração Regional de Saúde do Norte, I. P. (503135593)","Clinifar – Produtos Clínicos e Farmacêuticos, S.A. (503281115)","71.870,00 €",21-07-2016,01-04-2015,275 dias,"Portugal, Porto, Maia<BR/>Portugal, Porto, Porto","Artigo 20.º, n.º 1, alínea b) do Código dos Contratos Públicos",29-05-2015,"71.870,00 €","",,,1315192,Acordo Quadro para fornecimento de material de penso de efeito terapêutico às Instituições e Serviços do Serviço Nacional de Saúde,FALSE
Adaptação de casa de lixos - USF Peso da Régua,Ajuste Direto Regime Geral,Empreitadas de obras públicas,"45454000-4, Obras de reestruturação","Administração Regional de Saúde do Norte, I. P. (503135593)","Ferteimetal, Lda  (510146058)","3.574,16 €",21-07-2016,13-07-2016,15 dias,"Portugal, Vila Real, Peso da Régua","Artigo 19.º, alínea a) do Código dos Contratos Públicos","","3.574,16 €","Verificou-se que, face à natureza e quantidade  dos trabalhos a realizar, foi estimado um prazo para realização da empreitada superior ao realmente necessário.",,,Não aplicável.,Não aplicável.,FALSE
"Aquisição de 20.000 pensos de poliuretano composto c/ rebordo, de 15x15 (cm)",Ao abrigo de acordo-quadro (art.º 259.º),Aquisição de bens móveis,"33600000-6, Produtos farmacêuticos","Administração Regional de Saúde do Norte, I. P. (503135593)","PAUL HARTMAN, LDA. (502271728)","43.795,62 €",21-07-2016,01-04-2015,275 dias,"Portugal, Porto, Porto<BR/>Portugal, Vila Real, Vila Real<BR/>Portugal, Porto, Maia","Artigo 20.º, n.º 1, alínea b) do Código dos Contratos Públicos",14-04-2015,"43.795,62 €","",,,1315192,Acordo Quadro para fornecimento de material de penso de efeito terapêutico às Instituições e Serviços do Serviço Nacional de Saúde,FALSE
"Aquisição de 27.000 pensos de poliuretano composto, com rebordo, 10x10 (cm)",Ao abrigo de acordo-quadro (art.º 259.º),Aquisição de bens móveis,"33600000-6, Produtos farmacêuticos","Administração Regional de Saúde do Norte, I. P. (503135593)","3M PORTUGAL, LDA. (500193940)","39.420,00 €",21-07-2016,01-04-2015,275 dias,"Portugal, Porto, Maia<BR/>Portugal, Porto, Porto<BR/>Portugal, Vila Real, Vila Real","Artigo 20.º, n.º 1, alínea b) do Código dos Contratos Públicos",16-06-2015,"39.420,00 €","",,,1315192,Acordo Quadro para fornecimento de material de penso de efeito terapêutico às Instituições e Serviços do Serviço Nacional de Saúde,FALSE
Obras de adaptação no Alçado Principal - USF Peso da Régua,Ajuste Direto Regime Geral,Empreitadas de obras públicas,"45454000-4, Obras de reestruturação","Administração Regional de Saúde do Norte, I. P. (503135593)","Foris - Engenharia e Construção, Lda  (507603630)","4.770,27 €",21-07-2016,07-07-2016,20 dias,"Portugal, Vila Real, Peso da Régua","Artigo 19.º, alínea a) do Código dos Contratos Públicos","","4.770,27 €","",,,Não aplicável.,Não aplicável.,FALSE
"Aquisição de Material de Penso com Efeito Terapêutico:60.000 pensos de poliuretano composto, sem rebordo, 15x15 (cm); de 500 bisnagas de 20 g de creme barreira com mel bactericida",Ao abrigo de acordo-quadro (art.º 259.º),Aquisição de bens móveis,"33600000-6, Produtos farmacêuticos","Administração Regional de Saúde do Norte, I. P. (503135593)","QUEENLABS – ESPECIALIALIDADES FARMACEUTICAS, LDA. (503984485)","85.146,60 €",21-07-2016,01-04-2015,275 dias,"Portugal, Vila Real, Vila Real<BR/>Portugal, Porto, Porto<BR/>Portugal, Porto, Maia","Artigo 20.º, n.º 1, alínea b) do Código dos Contratos Públicos",18-09-2015,"85.146,60 €","",,,1315192,Acordo Quadro para fornecimento de material de penso de efeito terapêutico às Instituições e Serviços do Serviço Nacional de Saúde,FALSE
"Aquisição de 38.000 pensos de carvão ativado com prata, de 10x10 (cm)",Ao abrigo de acordo-quadro (art.º 259.º),Aquisição de bens móveis,"33600000-6, Produtos farmacêuticos","Administração Regional de Saúde do Norte, I. P. (503135593)",OVERPHARMA- PRODUTOS MEDICOS FARMAC. LDA. (505792362),"79.040,00 €",21-07-2016,01-04-2015,275 dias,"Portugal, Vila Real, Vila Real<BR/>Portugal, Porto, Maia<BR/>Portugal, Porto, Porto","Artigo 20.º, n.º 1, alínea b) do Código dos Contratos Públicos",05-11-2015,"79.040,00 €","",,,1315192,Acordo Quadro para fornecimento de material de penso de efeito terapêutico às Instituições e Serviços do Serviço Nacional de Saúde,FALSE
Aquisição 450 testes Ecstasy - APROV-PRT 15005007 (AP 971),Ajuste Direto Regime Geral,Aquisição de bens móveis,"33696500-0, Reagentes de laboratório","Administração Regional de Saúde do Norte,IP (ARSN) (503135593)","Quilaban, Lda. (500399670)","74,34 €",21-07-2016,31-12-2015,220 dias,"Portugal, Distrito não determinado, Concelho não determinado<BR/>Portugal, Porto, Maia<BR/>Portugal, Vila Real, Vila Real","Artigo 20.º, n.º 1, alínea a) do Código dos Contratos Públicos",31-12-2015,"74,34 €","",,,Não aplicável.,Não aplicável.,FALSE
"Aquisição de Material de Penso com Efeito Terapêutico: 95.000 pensos de poliuretano composto, sem rebordo, 10x10 (cm); 30.000 apósitos de silicone transparente, com microaderência, 10x18 (cm); ",Ao abrigo de acordo-quadro (art.º 259.º),Aquisição de bens móveis,"33600000-6, Produtos farmacêuticos","Administração Regional de Saúde do Norte, I. P. (503135593)","B. Braun Medical, Lda. (501506543)","157.100,00 €",21-07-2016,01-04-2015,275 dias,"Portugal, Porto, Maia<BR/>Portugal, Porto, Porto<BR/>Portugal, Vila Real, Vila Real","Artigo 20.º, n.º 1, alínea b) do Código dos Contratos Públicos",09-10-2015,"157.100,00 €","",,,1315192,Acordo Quadro para fornecimento de material de penso de efeito terapêutico às Instituições e Serviços do Serviço Nacional de Saúde,FALSE
"Aquisição de Material de Penso com Efeito Terapêutico: 72.000 pensos de hidrocolóide extrafino, 10x10 (cm); 23.000 pensos de hidrocolóide s/ rebordo, 10x10 (cm); 28.000 pensos de alginato de cálcio com prata, 10x10 (cm)",Ao abrigo de acordo-quadro (art.º 259.º),Aquisição de bens móveis,"33600000-6, Produtos farmacêuticos","Administração Regional de Saúde do Norte, I. P. (503135593)","LINEAMÉDICA- DISPOSITIVOS MÉDICOS-CIRÚRGICOS,SA (505148676)","79.748,37 €",21-07-2016,01-04-2015,275 dias,"Portugal, Porto, Porto<BR/>Portugal, Porto, Maia<BR/>Portugal, Vila Real, Vila Real","Artigo 20.º, n.º 1, alínea b) do Código dos Contratos Públicos",05-10-2015,"79.748,37 €","",,,1315192,Acordo Quadro para fornecimento de material de penso de efeito terapêutico às Instituições e Serviços do Serviço Nacional de Saúde,FALSE
"Aquisição de Material de Penso com Efeito Terapêutico: 120.000 pensos impregnados com vaselina ou parafina, 7,5x7,5 (cm); 37.000 pensos de alginato de cálcio s/ rebordo, 10x10 (cm)",Ao abrigo de acordo-quadro (art.º 259.º),Aquisição de bens móveis,"33600000-6, Produtos farmacêuticos","Administração Regional de Saúde do Norte, I. P. (503135593)","Covidien Portugal – Produtos de Saúde, Lda. (503413410)","38.053,00 €",21-07-2016,01-04-2015,275 dias,"Portugal, Vila Real, Vila Real<BR/>Portugal, Porto, Porto<BR/>Portugal, Porto, Maia","Artigo 20.º, n.º 1, alínea b) do Código dos Contratos Públicos",28-09-2015,"38.053,00 €","",,,1315192,Acordo Quadro para fornecimento de material de penso de efeito terapêutico às Instituições e Serviços do Serviço Nacional de Saúde,FALSE
Aquisição de Vacina anti-difeteria Tetano V9 - APROV-PRT 15005505,Ao abrigo de acordo-quadro (art.º 259.º),Aquisição de bens móveis,"33651600-4, Vacinas","Administração Regional de Saúde do Norte, I. P. (503135593)",GlaxoSmithkline - Produtos Farmaceuticos (500139962),"1.720,00 €",21-07-2016,22-07-2015,162 dias,"Portugal, Distrito não determinado, Concelho não determinado<BR/>Portugal, Vila Real, Vila Real<BR/>Portugal, Porto, Maia",Artigo 259.º do Código dos Contratos Públicos,31-12-2015,"1.720,00 €","",,,610556,"CONCURSO PÚBLICO PARA A CELEBRAÇÃO DE CONTRATOS PÚBLICOS DE APROVISIONAMENTO PARA A ÁREA DA SAÚDE, COM VISTA AO FORNECIMENTO DE VACINAS E TUBERCULINAS, ÀS INSTITUIÇÕES E SERVIÇOS DO SERVIÇO NACIONAL DE SAÚDE",FALSE
Aquisição de Vacina contra o Sarampo V7 - APROV-PRT 15005505,Ao abrigo de acordo-quadro (art.º 259.º),Aquisição de bens móveis,"33651600-4, Vacinas","Administração Regional de Saúde do Norte, I. P. (503135593)",Sanofi Pasteur MSD (507632796),"75.600,00 €",21-07-2016,22-07-2015,162 dias,"Portugal, Porto, Maia<BR/>Portugal, Vila Real, Vila Real<BR/>Portugal, Distrito não determinado, Concelho não determinado",Artigo 259.º do Código dos Contratos Públicos,31-12-2015,"75.600,00 €","",,,610556,"CONCURSO PÚBLICO PARA A CELEBRAÇÃO DE CONTRATOS PÚBLICOS DE APROVISIONAMENTO PARA A ÁREA DA SAÚDE, COM VISTA AO FORNECIMENTO DE VACINAS E TUBERCULINAS, ÀS INSTITUIÇÕES E SERVIÇOS DO SERVIÇO NACIONAL DE SAÚDE",FALSE
