Objeto do Contrato,Tipo de Procedimento,Tipo(s) de Contrato,CPVs,Entidade(s) Adjudicante(s),Entidade(s) Adjudicatária(s),Preço Contratual,Data de Publicação,Data de Celebração do Contrato,Prazo de Execução,Local de Execução,Fundamentação,Data de Fecho do Contrato,Preço Total Efetivo,Causas das Alterações ao Prazo,Causas das Alterações ao Preço,Estado,N.º registo do Acordo Quadro,Descrição do Acordo Quadro,Procedimento Centralizado
"Prestação de Serviços Médicos na Especialidade de Cardiologia na ULSNA, EPE (Ano 2015)",Ajuste Direto Regime Geral,Aquisição de serviços,"85100000-0, Serviços de saúde","Unidade Local de Saúde do Norte Alentejano, E. P. E. (508094461)","Hamad Hamad - Serviços Médicos, Lda. (510671853)","47.448,36 €",08-05-2015,28-04-2015,365 dias,"Portugal, Portalegre, Portalegre","Artigo 24.º, n.º 1, alínea c) do Código dos Contratos Públicos",08-05-2015,"47.448,36 €",,,,Não aplicável.,Não aplicável.,FALSE
REAGENTES,Ajuste Direto Regime Geral,Aquisição de bens móveis,"33000000-0, Equipamento médico, medicamentos e produtos para cuidados pessoais","Unidade Local de Saúde do Norte Alentejano, E. P. E. (508094461)","STAGO PORTUGAL,UNIPESSOAL,LDA                      (509952976)","6.026,06 €",08-05-2015,16-07-2014,30 dias,"Portugal, Portalegre, Portalegre<BR/>Portugal, Portalegre, Elvas","Artigo 24.º, n.º 1, alínea e) do Código dos Contratos Públicos",16-07-2014,"6.026,06 €",,,,Não aplicável.,Não aplicável.,FALSE
REAGENTES,Ajuste Direto Regime Geral,Aquisição de bens móveis,"33000000-0, Equipamento médico, medicamentos e produtos para cuidados pessoais","Unidade Local de Saúde do Norte Alentejano, E. P. E. (508094461)",PHADIA SOCIEDADE UNIPESSOAL                        (506916243),"6.928,71 €",08-05-2015,10-07-2014,30 dias,"Portugal, Portalegre, Elvas<BR/>Portugal, Portalegre, Portalegre","Artigo 24.º, n.º 1, alínea e) do Código dos Contratos Públicos",10-07-2014,"6.928,71 €",,,,Não aplicável.,Não aplicável.,FALSE
"Aquisição de Consumíveis para Equipamento de Diálise """"Prismaflex"""", para a ULSNA, EPE",Ajuste Direto Regime Geral,Aquisição de bens móveis,"33140000-3, Material médico de consumo","Unidade Local de Saúde do Norte Alentejano, E. P. E. (508094461)",BAXTER MEDICO - FARMACEUTICA (503347345),"63.910,00 €",06-05-2015,10-04-2015,365 dias,"Portugal, Portalegre, Portalegre","Artigo 24.º, n.º 1, alínea e) do Código dos Contratos Públicos",06-05-2015,"63.910,00 €",,,,Não aplicável.,Não aplicável.,FALSE
"Substituição do Pavimento do Serviço de Consultas Externas do HDJMG - ULSNA, EPE.",Ajuste Direto Regime Geral,Aquisição de bens móveis,"44000000-0, Estruturas e materiais de construção; produtos auxiliares de construção (excepto aparelhos eléctricos)","Unidade Local de Saúde do Norte Alentejano, E. P. E. (508094461)",José Raposo (506058786),"10.984,70 €",05-05-2015,09-04-2015,30 dias,"Portugal, Portalegre, Portalegre","Artigo 20.º, n.º 1, alínea a) do Código dos Contratos Públicos","","",,,,Não aplicável.,Não aplicável.,FALSE
"Aquisição de Equipamentos Médicos para o Bloco Operatório do HDJMG - ULSNA, EPE.",Concurso público,Aquisição de bens móveis,"33100000-1, Equipamento médico","Unidade Local de Saúde do Norte Alentejano, E. P. E. (508094461)",Drager (508771323),"175.000,00 €",04-05-2015,14-04-2015,29 dias,"Portugal, Portalegre, Portalegre","Artigo 20.º, n.º 1, alínea b) do Código dos Contratos Públicos","","",,,,Não aplicável.,Não aplicável.,FALSE
"Aquisição de Sistema de Segurança Transfusional para a ULSNA, EPE.",Ajuste Direto Regime Geral,Aquisição de bens móveis,"48000000-8, Pacotes de software e sistemas de informação","Unidade Local de Saúde do Norte Alentejano, E. P. E. (508094461)",B.I.E Q. (504105337),"39.936,00 €",04-05-2015,03-02-2015,35 dias,"Portugal, Portalegre, Portalegre","Artigo 20.º, n.º 1, alínea a) do Código dos Contratos Públicos","","",,,,Não aplicável.,Não aplicável.,FALSE
"Aquisição de Sistema de Informação para Gestão do Património para a ULSNA, EPE.",Ajuste Direto Regime Geral,Aquisição de bens móveis,"48000000-8, Pacotes de software e sistemas de informação","Unidade Local de Saúde do Norte Alentejano, E. P. E. (508094461)",STI  (502246995),"9.990,00 €",04-05-2015,17-12-2014,1 dias,"Portugal, Portalegre, Portalegre","Artigo 20.º, n.º 1, alínea a) do Código dos Contratos Públicos","","",,,,Não aplicável.,Não aplicável.,FALSE
"Aquisição e Instalação de Sistemas de Chamadas para o Serviços de Consultas Externas e Urgência do HDJMG - ULSNA, EP",Ajuste Direto Regime Geral,Aquisição de bens móveis,"31000000-6, Maquinaria, aparelhagem, equipamento e consumíveis eléctricos; iluminação","Unidade Local de Saúde do Norte Alentejano, E. P. E. (508094461)",CCLagarto (505403480),"9.256,30 €",04-05-2015,27-11-2014,1 dias,"Portugal, Portalegre, Portalegre","Artigo 20.º, n.º 1, alínea a) do Código dos Contratos Públicos","","",,,,Não aplicável.,Não aplicável.,FALSE
"Prestação de Serviços Médicos na Especialidade de Otorrinolaringologia na ULSNA, EPE (Abril de 2015 a 31 de Março de 2016)",Concurso público,Aquisição de serviços,"85100000-0, Serviços de saúde","Unidade Local de Saúde do Norte Alentejano, E. P. E. (508094461)","Génese Dinâmica - Serviços Médicos, Lda. (510315186)","96.739,43 €",04-05-2015,09-03-2015,365 dias,"Portugal, Portalegre, Portalegre","Artigo 20.º, n.º 1, alínea b) do Código dos Contratos Públicos",04-05-2015,"96.739,43 €",,,,Não aplicável.,Não aplicável.,FALSE
