Objeto do Contrato,Tipo de Procedimento,Tipo(s) de Contrato,CPVs,Entidade(s) Adjudicante(s),Entidade(s) Adjudicatária(s),Preço Contratual,Data de Publicação,Data de Celebração do Contrato,Prazo de Execução,Local de Execução,Fundamentação,Data de Fecho do Contrato,Preço Total Efetivo,Causas das Alterações ao Prazo,Causas das Alterações ao Preço,Estado,N.º registo do Acordo Quadro,Descrição do Acordo Quadro,Procedimento Centralizado
Material de Electromedicina_Lote 13,Ajuste Direto Regime Geral,Aquisição de bens móveis,"33141000-0, Material médico não químico descartável e produtos hematológicos","Centro Hospitalar do Tâmega e Sousa, E. P. E. (508318262)","SPECULUM - ARTIGOS MÉDICOS, S.A. (502996323)","85,00 €",28-05-2015,30-04-2015,240 dias,"Portugal, Porto, Penafiel<BR/>Portugal, Porto, Amarante","Artigo 20.º, n.º 1, alínea a) do Código dos Contratos Públicos","","",,,,Não aplicável.,Não aplicável.,FALSE
Material de Electromedicina_Lote 6,Ajuste Direto Regime Geral,Aquisição de bens móveis,"33141000-0, Material médico não químico descartável e produtos hematológicos","Centro Hospitalar do Tâmega e Sousa, E. P. E. (508318262)","NORMAX - FÁBRICA DE VIDROS CIÊNTIFICOS, LDA. (500203130)","77,00 €",28-05-2015,30-04-2015,240 dias,"Portugal, Porto, Amarante","Artigo 20.º, n.º 1, alínea a) do Código dos Contratos Públicos","","",,,,Não aplicável.,Não aplicável.,FALSE
Material Disposable parte 1 - Lote 14,Ao abrigo de acordo-quadro (art.º 259.º),Aquisição de bens móveis,"33140000-3, Material médico de consumo","Centro Hospitalar do Tâmega e Sousa, E. P. E. (508318262)","QUILABAN - QUÍMICA LABORATORIAL ANALÍTICA, S.A. (500399670)","4.622,10 €",28-05-2015,05-03-2015,296 dias,"Portugal, Porto, Amarante<BR/>Portugal, Porto, Penafiel",Artigo 259.º do Código dos Contratos Públicos,"","",,,,451780,CP 2012/24 - MATERAIL DISPOSABLE DE BLOCO OPERATORIO,FALSE
" Material de Electromedicina_Lotes 1 a 4, 7 a 10",Ajuste Direto Regime Geral,Aquisição de bens móveis,"33141000-0, Material médico não químico descartável e produtos hematológicos","Centro Hospitalar do Tâmega e Sousa, E. P. E. (508318262)","MEDINFAR-SOROLÓGICO,S.A. (501197052)","2.313,35 €",28-05-2015,30-04-2015,240 dias,"Portugal, Porto, Amarante<BR/>Portugal, Porto, Penafiel","Artigo 20.º, n.º 1, alínea a) do Código dos Contratos Públicos","","",,,,Não aplicável.,Não aplicável.,FALSE
Material Disposable parte 1 - Lote 16,Ao abrigo de acordo-quadro (art.º 259.º),Aquisição de bens móveis,"33140000-3, Material médico de consumo","Centro Hospitalar do Tâmega e Sousa, E. P. E. (508318262)"," PAUL HARTMANN, LDA. (502271728)","325,50 €",28-05-2015,05-03-2015,296 dias,"Portugal, Porto, Amarante<BR/>Portugal, Porto, Penafiel",Artigo 259.º do Código dos Contratos Públicos,"","",,,,451780,CP 2012/24 - MATERAIL DISPOSABLE DE BLOCO OPERATORIO,FALSE
Material Disposable parte 1 - Lote 20,Ao abrigo de acordo-quadro (art.º 259.º),Aquisição de bens móveis,"33140000-3, Material médico de consumo","Centro Hospitalar do Tâmega e Sousa, E. P. E. (508318262)",Oasipor - Importação E Exportações S.a. (502260750),"8.160,00 €",28-05-2015,05-03-2015,296 dias,"Portugal, Porto, Amarante<BR/>Portugal, Porto, Penafiel",Artigo 259.º do Código dos Contratos Públicos,"","",,,,451780,CP 2012/24 - MATERAIL DISPOSABLE DE BLOCO OPERATORIO,FALSE
Material Disposable parte 1 - Lote4 e 5,Ao abrigo de acordo-quadro (art.º 259.º),Aquisição de bens móveis,"33140000-3, Material médico de consumo","Centro Hospitalar do Tâmega e Sousa, E. P. E. (508318262)","LINEAMÉDICA - DISPOSITIVOS MÉDICO-CIRÚRGICOS, S.A. (505148676)","7.545,00 €",28-05-2015,05-03-2015,296 dias,"Portugal, Porto, Penafiel<BR/>Portugal, Porto, Amarante",Artigo 259.º do Código dos Contratos Públicos,"","",,,,451780,CP 2012/24 - MATERAIL DISPOSABLE DE BLOCO OPERATORIO,FALSE
Material Disposable parte 1 - Lote 12,Ao abrigo de acordo-quadro (art.º 259.º),Aquisição de bens móveis,"33140000-3, Material médico de consumo","Centro Hospitalar do Tâmega e Sousa, E. P. E. (508318262)"," Ezequiel Panão Jorge, Lda.  (501412727)","937,18 €",28-05-2015,05-03-2015,296 dias,"Portugal, Porto, Penafiel<BR/>Portugal, Porto, Amarante",Artigo 259.º do Código dos Contratos Públicos,"","",,,,451780,CP 2012/24 - MATERAIL DISPOSABLE DE BLOCO OPERATORIO,FALSE
Material Disposable parte 1 - Lote 1,Ao abrigo de acordo-quadro (art.º 259.º),Aquisição de bens móveis,"33140000-3, Material médico de consumo","Centro Hospitalar do Tâmega e Sousa, E. P. E. (508318262)","EUROCASMÉDICA - PRODUTOS HOSPITALARES, S.A.. (503322105)","3.627,00 €",28-05-2015,05-03-2015,296 dias,"Portugal, Porto, Amarante<BR/>Portugal, Porto, Penafiel",Artigo 259.º do Código dos Contratos Públicos,"","",,,,451780,CP 2012/24 - MATERAIL DISPOSABLE DE BLOCO OPERATORIO,FALSE
Material Disposable parte 1 - Lote 6,Ao abrigo de acordo-quadro (art.º 259.º),Aquisição de bens móveis,"33140000-3, Material médico de consumo","Centro Hospitalar do Tâmega e Sousa, E. P. E. (508318262)","DOCWORLD, LDA (508592909)","1.349,40 €",28-05-2015,05-03-2015,296 dias,"Portugal, Porto, Amarante<BR/>Portugal, Porto, Penafiel",Artigo 259.º do Código dos Contratos Públicos,"","",,,,451780,CP 2012/24 - MATERAIL DISPOSABLE DE BLOCO OPERATORIO,FALSE
"Material Disposable - Parte1 - 3,15,17",Ao abrigo de acordo-quadro (art.º 259.º),Aquisição de bens móveis,"33140000-3, Material médico de consumo","Centro Hospitalar do Tâmega e Sousa, E. P. E. (508318262)","BASTOS VIEGAS, S.A.. (500042772)","5.872,58 €",28-05-2015,05-03-2015,296 dias,"Portugal, Porto, Amarante<BR/>Portugal, Porto, Penafiel",Artigo 259.º do Código dos Contratos Públicos,"","",,,,451780,CP 2012/24 - MATERAIL DISPOSABLE DE BLOCO OPERATORIO,FALSE
"Material Disposible - Parte 1_Lote 2,8,11,13,19",Ao abrigo de acordo-quadro (art.º 259.º),Aquisição de bens móveis,"33140000-3, Material médico de consumo","Centro Hospitalar do Tâmega e Sousa, E. P. E. (508318262)","ANASTÁCIO SALDANHA, UNIPESSOAL, LDA. (505804441)","60.924,19 €",28-05-2015,05-03-2015,296 dias,"Portugal, Porto, Amarante<BR/>Portugal, Porto, Penafiel",Artigo 259.º do Código dos Contratos Públicos,"","",,,,451780,CP 2012/24 - MATERAIL DISPOSABLE DE BLOCO OPERATORIO,FALSE
Fornecimento diverso Material,Ajuste Direto Regime Geral,Aquisição de bens móveis,"33140000-3, Material médico de consumo","Centro Hospitalar do Tâmega e Sousa, E. P. E. (508318262)",Artur Magalhães Loureiro de Oliveira (155810073),"22.698,00 €",28-05-2015,30-03-2015,270 dias,"Portugal, Porto, Penafiel<BR/>Portugal, Porto, Amarante","Artigo 24.º, n.º 1, alínea e) do Código dos Contratos Públicos","","",,,,Não aplicável.,Não aplicável.,FALSE
Prestação de Serviços para a realização de Maios complementares de diagnostico na area gastenterologia,Ajuste Direto Regime Geral,Aquisição de serviços,"85100000-0, Serviços de saúde","Centro Hospitalar do Tâmega e Sousa, E. P. E. (508318262)"," MANOPH - LABORATORIOS DE ENDOSCOPIA E MOTILIDADE DIGESTIVA, LDA. (505387603)","28.783,70 €",28-05-2015,01-04-2015,270 dias,"Portugal, Porto, Amarante<BR/>Portugal, Porto, Penafiel","Artigo 20.º, n.º 1, alínea a) do Código dos Contratos Públicos","","",,,,Não aplicável.,Não aplicável.,FALSE
Prestação de Serviços de Manutenção de Equipamentos Diversos de Electromedicina,Concurso público,Aquisição de serviços,"50420000-5, Serviços de reparação e manutenção de equipamento médico e cirúrgico","Centro Hospitalar do Tâmega e Sousa, E. P. E. (508318262)","PROHS - EQUIPAMENTO HOSPITALAR E SERVIÇOS ASSOCIADOS, S.A.. (505005468)","10.081,80 €",28-05-2015,09-01-2015,352 dias,"Portugal, Porto, Penafiel<BR/>Portugal, Porto, Amarante","Artigo 20.º, n.º 1, alínea b) do Código dos Contratos Públicos",31-12-2015,"10.081,80 €",,,,Não aplicável.,Não aplicável.,FALSE
Prestação de Serviços de Manutenção Preventiva e curativa da rede gases,Ajuste Direto Regime Geral,Aquisição de serviços,"50800000-3, Serviços de reparação e manutenção diversos","Centro Hospitalar do Tâmega e Sousa, E. P. E. (508318262)"," PRAXAIR - PORTUGAL GASES, S.A. (501738916)","9.780,00 €",28-05-2015,01-01-2015,365 dias,"Portugal, Porto, Penafiel<BR/>Portugal, Porto, Amarante","Artigo 20.º, n.º 1, alínea a) do Código dos Contratos Públicos","","",,,,Não aplicável.,Não aplicável.,FALSE
Fornecimento de refeições,Concurso público,Aquisição de serviços,"55322000-3, Serviços de confecção de refeições","Centro Hospitalar do Tâmega e Sousa, E. P. E. (508318262)","EUREST (PORTUGAL) - SOCIEDADE EUROPEIA DE RESTAURANTES, LDA. (500347506)","4.090.763,88 €",27-05-2015,24-12-2014,1096 dias,"Portugal, Porto, Amarante<BR/>Portugal, Porto, Penafiel","Artigo 20.º, n.º 1, alínea b) do Código dos Contratos Públicos","","",,,,Não aplicável.,Não aplicável.,FALSE
Aquisição de lancetas,Ajuste Direto Regime Geral,Aquisição de bens móveis,"33141000-0, Material médico não químico descartável e produtos hematológicos","Centro Hospitalar do Tâmega e Sousa, E. P. E. (508318262)",Becton Dickinson S.A. (980245214),"7.238,40 €",27-05-2015,04-05-2015,237 dias,"Portugal, Porto, Amarante<BR/>Portugal, Porto, Penafiel","Artigo 20.º, n.º 1, alínea a) do Código dos Contratos Públicos","","",,,,Não aplicável.,Não aplicável.,FALSE
Material Disposable Bloco Operatório_Lote 2,Ajuste Direto Regime Geral,Aquisição de bens móveis,"33141000-0, Material médico não químico descartável e produtos hematológicos","Centro Hospitalar do Tâmega e Sousa, E.P.E. (508318262)","PAUL HARTMANN, LDA. (502271728)","728,58 €",26-05-2015,30-04-2015,240 dias,"Portugal, Porto, Amarante<BR/>Portugal, Porto, Penafiel","Artigo 20.º, n.º 1, alínea a) do Código dos Contratos Públicos","","",,,,Não aplicável.,Não aplicável.,FALSE
"Material Disposable Bloco Operatório_Lote 7, 12",Ajuste Direto Regime Geral,Aquisição de bens móveis,"33141000-0, Material médico não químico descartável e produtos hematológicos","Centro Hospitalar do Tâmega e Sousa, E.P.E. (508318262)","Oasipor - Importação e Exportações, Lda. (502260750)","549,25 €",26-05-2015,30-04-2015,240 dias,"Portugal, Porto, Amarante<BR/>Portugal, Porto, Penafiel","Artigo 20.º, n.º 1, alínea a) do Código dos Contratos Públicos","","",,,,Não aplicável.,Não aplicável.,FALSE
Procedimento 127/15 - Material Disposable Bloco Operatório_Lote 6,Ajuste Direto Regime Geral,Aquisição de bens móveis,"33141000-0, Material médico não químico descartável e produtos hematológicos","Centro Hospitalar do Tâmega e Sousa, E.P.E. (508318262)","MOLNLYCKE HEALTH CARE - COMERCIALIZAÇÃO DE PRODUTOS HOSPITALARES, LDA. (511101066)","2.247,00 €",26-05-2015,30-04-2015,240 dias,"Portugal, Porto, Amarante<BR/>Portugal, Porto, Penafiel","Artigo 20.º, n.º 1, alínea a) do Código dos Contratos Públicos","","",,,,Não aplicável.,Não aplicável.,FALSE
"Material Disposable Bloco Operatório_Lote 3, 11",Ajuste Direto Regime Geral,Aquisição de bens móveis,"33141000-0, Material médico não químico descartável e produtos hematológicos","Centro Hospitalar do Tâmega e Sousa, E.P.E. (508318262)"," MEDLINE INTERNATIONAL PORTUGAL, UNIPESSOAL, LDA. (510533515)","514,90 €",26-05-2015,30-04-2015,240 dias,"Portugal, Porto, Penafiel<BR/>Portugal, Porto, Amarante","Artigo 20.º, n.º 1, alínea a) do Código dos Contratos Públicos","","",,,,Não aplicável.,Não aplicável.,FALSE
Material Disposable Bloco Operatório_Lote 9,Ajuste Direto Regime Geral,Aquisição de bens móveis,"33141000-0, Material médico não químico descartável e produtos hematológicos","Centro Hospitalar do Tâmega e Sousa, E.P.E. (508318262)","Bastos Viegas, S.A. (500042772)","638,25 €",26-05-2015,30-04-2015,240 dias,"Portugal, Porto, Amarante<BR/>Portugal, Porto, Penafiel","Artigo 20.º, n.º 1, alínea a) do Código dos Contratos Públicos","","",,,,Não aplicável.,Não aplicável.,FALSE
Material Disposable Bloco Operatório - Parte 1_Lote 4,Ao abrigo de acordo-quadro (art.º 259.º),Aquisição de bens móveis,"33600000-6, Produtos farmacêuticos","Centro Hospitalar do Tâmega e Sousa, E. P. E. (508318262)","PERGUT PORTUGAL,LDA. (501799729)","3.045,00 €",26-05-2015,26-05-2015,215 dias,"Portugal, Porto, Penafiel<BR/>Portugal, Porto, Amarante",Artigo 259.º do Código dos Contratos Públicos,"","",,,,451780,CP 2012/24 - MATERAIL DISPOSABLE DE BLOCO OPERATORIO,FALSE
Material Disposable Bloco Operatório - Parte 1_Lote 1 e 5,Ao abrigo de acordo-quadro (art.º 259.º),Aquisição de bens móveis,"33600000-6, Produtos farmacêuticos","Centro Hospitalar do Tâmega e Sousa, E. P. E. (508318262)","LINEAMÉDICA - DISPOSITIVOS MÉDICO-CIRÚRGICOS, S.A. (505148676)","446,90 €",26-05-2015,26-05-2015,215 dias,"Portugal, Porto, Amarante<BR/>Portugal, Porto, Penafiel",Artigo 259.º do Código dos Contratos Públicos,"","",,,,451780,CP 2012/24 - MATERAIL DISPOSABLE DE BLOCO OPERATORIO,FALSE
Material de Ostomia de Eliminação_Lote 5,Ao abrigo de acordo-quadro (art.º 259.º),Aquisição de bens móveis,"33600000-6, Produtos farmacêuticos","Centro Hospitalar do Tâmega e Sousa, E. P. E. (508318262)","Smith & Nephew, Lda. (503552461)","1.710,00 €",22-05-2015,30-04-2015,240 dias,"Portugal, Porto, Penafiel<BR/>Portugal, Porto, Amarante",Artigo 259.º do Código dos Contratos Públicos,"","",,,,419168,CONCURSO PÚBLICO PARA A CELEBRAÇÃO DE CONTRATOS PÚBLICOS DE APROVISIONAMENTO PARA AQUISIÇÃO DE MATERIAL OSTOMIA DE ELIMINAÇÃO,FALSE
Material de Ostomia de Eliminação_Lote 2,Ao abrigo de acordo-quadro (art.º 259.º),Aquisição de bens móveis,"33600000-6, Produtos farmacêuticos","Centro Hospitalar do Tâmega e Sousa, E. P. E. (508318262)","KVTECH PORTUGAL - PRODUTOS MÉDICOS, UNIPESSOAL, LDA. (508671531)","312,00 €",22-05-2015,30-04-2015,240 dias,"Portugal, Porto, Penafiel<BR/>Portugal, Porto, Amarante",Artigo 259.º do Código dos Contratos Públicos,"","",,,,419168,CONCURSO PÚBLICO PARA A CELEBRAÇÃO DE CONTRATOS PÚBLICOS DE APROVISIONAMENTO PARA AQUISIÇÃO DE MATERIAL OSTOMIA DE ELIMINAÇÃO,FALSE
"Material de Ostomia de Eliminação_Lote 1, 3 e 6",Ao abrigo de acordo-quadro (art.º 259.º),Aquisição de bens móveis,"33600000-6, Produtos farmacêuticos","Centro Hospitalar do Tâmega e Sousa, E. P. E. (508318262)","B.BRAUN MEDICAL, LDA. (501506543)","570,82 €",22-05-2015,30-04-2015,240 dias,"Portugal, Porto, Amarante<BR/>Portugal, Porto, Penafiel",Artigo 259.º do Código dos Contratos Públicos,"","",,,,419168,CONCURSO PÚBLICO PARA A CELEBRAÇÃO DE CONTRATOS PÚBLICOS DE APROVISIONAMENTO PARA AQUISIÇÃO DE MATERIAL OSTOMIA DE ELIMINAÇÃO,FALSE
Esomeprazol 20 mg caps,Ao abrigo de acordo-quadro (art.º 259.º),Aquisição de bens móveis,"33600000-6, Produtos farmacêuticos","Centro Hospitalar do Tâmega e Sousa, E. P. E. (508318262)","SANOFI - PRODUTOS FARMACÊUTICOS, LDA. (500134960)","4.800,00 €",21-05-2015,29-04-2015,241 dias,"Portugal, Porto, Penafiel<BR/>Portugal, Porto, Amarante",Artigo 259.º do Código dos Contratos Públicos,"","",,,,1194708,"CONCURSO PÚBLICO PARA A CELEBRAÇÃO DE CONTRATOS PÚBLICOS DE APROVISIONAMENTO PARA A ÁREA DA SAÚDE, MEDICAMENTOS DO APARELHO DIGESTIVO, ÀS INSTITUIÇÕES E SERVIÇOS DO SERVIÇO NACIONAL DE SAÚDE",FALSE
