Objeto do Contrato,Tipo de Procedimento,Tipo(s) de Contrato,CPVs,Entidade(s) Adjudicante(s),Entidade(s) Adjudicatária(s),Preço Contratual,Data de Publicação,Data de Celebração do Contrato,Prazo de Execução,Local de Execução,Fundamentação,Data de Fecho do Contrato,Preço Total Efetivo,Causas das Alterações ao Prazo,Causas das Alterações ao Preço,Estado,N.º registo do Acordo Quadro,Descrição do Acordo Quadro,Procedimento Centralizado
Fornecimento de medicamentos diversos,Ao abrigo de acordo-quadro (art.º 259.º),Aquisição de bens móveis,"33600000-6, Produtos farmacêuticos","Unidade Local de Saúde de Matosinhos, E. P. E. (506361390)",ANGELINI (500583650),"678,00 €",30-04-2018,13-04-2018,263 dias,"Portugal, Porto, Matosinhos",Artigo 259.º do Código dos Contratos Públicos,,,,,,2124520,CP 2016/55 - Medicamentos Diversos,FALSE
Fornecimento de medicamentos diversos,Ao abrigo de acordo-quadro (art.º 259.º),Aquisição de bens móveis,"33600000-6, Produtos farmacêuticos","Unidade Local de Saúde de Matosinhos, E. P. E. (506361390)","TEVA PHARMA - PRODUTOS FARMACEUTICOS,LDA (507045491)","10.000,00 €",30-04-2018,13-04-2018,263 dias,"Portugal, Porto, Matosinhos",Artigo 259.º do Código dos Contratos Públicos,,,,,,2124520,CP 2016/55 - Medicamentos Diversos,FALSE
"Fornecimento de substância ativa: Soro Antibotulínico (Tipo A,B,E) ",Ajuste Direto Regime Geral,Aquisição de bens móveis,"33600000-6, Produtos farmacêuticos","Unidade Local de Saúde de Matosinhos, EPE (ULSM) (506361390)",GLAXOSMITHKLINE (500139962),"8.250,00 €",30-04-2018,10-04-2018,266 dias,"Portugal, Porto, Matosinhos","Artigo 24.º, n.º 1, alínea c) do Código dos Contratos Públicos",,,,,,Não aplicável.,Não aplicável.,FALSE
Fornecimento de medicamentos do foro oncológico,Ao abrigo de acordo-quadro (art.º 259.º),Aquisição de bens móveis,"33600000-6, Produtos farmacêuticos","Unidade Local de Saúde de Matosinhos, E. P. E. (506361390)","Pfizer Biofarmaceutica, Sociedade Unipessoal Lda. (513300376)","26.574,02 €",30-04-2018,24-05-2017,217 dias,"Portugal, Porto, Matosinhos",Artigo 259.º do Código dos Contratos Públicos,,,,,,1771819,CP 2015/6 - Acordo quadro para o fornecimento de Medicamentos do Foro Oncológico,FALSE
Proc 570/2017 - Medicamentos diversos (excepto derivados do plasma) ao abrigo do CPA 2016/055,Ao abrigo de acordo-quadro (art.º 259.º),Aquisição de bens móveis,"33600000-6, Produtos farmacêuticos","Unidade Local de Saúde de Matosinhos, E. P. E. (506361390)","SPCARE ESPECIALIDADES FARMACEUTICAS, LDA (508284872)","850,50 €",28-04-2018,07-06-2017,14 dias,"Portugal, Porto, Matosinhos",Artigo 259.º do Código dos Contratos Públicos,,,,,,2124520,CP 2016/55 - Medicamentos Diversos,FALSE
Proc 570/2017 - Medicamentos diversos (excepto derivados do plasma) ao abrigo do CPA 2016/055,Ao abrigo de acordo-quadro (art.º 259.º),Aquisição de bens móveis,"33600000-6, Produtos farmacêuticos","Unidade Local de Saúde de Matosinhos, E. P. E. (506361390)",FRESENIUS MEDICAL CARE (503070220),"2.298,12 €",28-04-2018,07-06-2017,14 dias,"Portugal, Porto, Matosinhos",Artigo 259.º do Código dos Contratos Públicos,,,,,,2124520,CP 2016/55 - Medicamentos Diversos,FALSE
Proc 570/2017 - Medicamentos diversos (excepto derivados do plasma) ao abrigo do CPA 2016/055,Ao abrigo de acordo-quadro (art.º 259.º),Aquisição de bens móveis,"33600000-6, Produtos farmacêuticos","Unidade Local de Saúde de Matosinhos, E. P. E. (506361390)",Farmoz (507261097),"1.346,20 €",28-04-2018,07-06-2017,14 dias,"Portugal, Porto, Matosinhos",Artigo 259.º do Código dos Contratos Públicos,,,,,,2124520,CP 2016/55 - Medicamentos Diversos,FALSE
PROC. 514/2017 - MEDICAMENTOS USADOS NAS AFEÇÕES OCULARES E OTORRINOLARINGOLÓGICO AO ABRIGO CPA 2015/49,Ao abrigo de acordo-quadro (art.º 259.º),Aquisição de bens móveis,"33600000-6, Produtos farmacêuticos","Unidade Local de Saúde de Matosinhos, E. P. E. (506361390)","Profarin - Distrib. Prod. Farmac. Indust., Lda (500223238)","89.176,30 €",28-04-2018,24-04-2017,252 dias,"Portugal, Porto, Matosinhos",Artigo 259.º do Código dos Contratos Públicos,,,,,,602068,"CONCURSO PÚBLICO PARA A CELEBRAÇÃO DE CONTRATOS PÚBLICOS DE APROVISIONAMENTO PARA A ÁREA DA SAÚDE, COM VISTA AO FORNECIMENTO DE MEDICAMENTOS DE CONSUMO GERAL - MEDICAMENTOS USADOS NAS AFEÇÕES OCULARES E  OTORRINOLARINGOLÓGICAS, ÀS INSTITUIÇÕES E SERVIÇOS DO SERVIÇO NACIONAL DE SAÚDE",FALSE
Medicamentos diversos (exceto derivados do plasma) ao abrigo do CPA 2016/055,Ao abrigo de acordo-quadro (art.º 259.º),Aquisição de bens móveis,"33600000-6, Produtos farmacêuticos","Unidade Local de Saúde de Matosinhos, E. P. E. (506361390)","TEVA PHARMA - PRODUTOS FARMACÊUTICOS, LDA (507045491)","9.775,00 €",28-04-2018,07-06-2017,14 dias,"Portugal, Porto, Matosinhos",Artigo 259.º do Código dos Contratos Públicos,,,,,,2124520,CP 2016/55 - Medicamentos Diversos,FALSE
PROC. 514/2017-MEDICAMENTOS USADOS NAS AFEÇÕES OCULARES E OTORRINOLARINGOLÓGICO AO ABRIGO CPA 2015/49,Ao abrigo de acordo-quadro (art.º 259.º),Aquisição de bens móveis,"33600000-6, Produtos farmacêuticos","Unidade Local de Saúde de Matosinhos, E. P. E. (506361390)",Tecnifar Industria Tecnica Farmaceutica SA (500280436),"173,70 €",28-04-2018,24-04-2017,252 dias,"Portugal, Porto, Matosinhos",Artigo 259.º do Código dos Contratos Públicos,,,,,,602068,"CONCURSO PÚBLICO PARA A CELEBRAÇÃO DE CONTRATOS PÚBLICOS DE APROVISIONAMENTO PARA A ÁREA DA SAÚDE, COM VISTA AO FORNECIMENTO DE MEDICAMENTOS DE CONSUMO GERAL - MEDICAMENTOS USADOS NAS AFEÇÕES OCULARES E  OTORRINOLARINGOLÓGICAS, ÀS INSTITUIÇÕES E SERVIÇOS DO SERVIÇO NACIONAL DE SAÚDE",FALSE
PROC. 526/2017 - MEDICAMENTOS DO APARELHO DIGESTIVO CPA 2014/014,Ao abrigo de acordo-quadro (art.º 259.º),Aquisição de bens móveis,"33600000-6, Produtos farmacêuticos","Unidade Local de Saúde de Matosinhos, E. P. E. (506361390)","UNILFARMA, LDA (500293023)","3.461,50 €",28-04-2018,25-05-2017,709 dias,"Portugal, Porto, Matosinhos",Artigo 259.º do Código dos Contratos Públicos,,,,,,2222779,Medicamentos do aparelho digestivo,FALSE
PROC. 526/2017 - MEDICAMENTOS DO APARELHO DIGESTIVO CPA 2014/014,Ao abrigo de acordo-quadro (art.º 259.º),Aquisição de bens móveis,"33600000-6, Produtos farmacêuticos","Unidade Local de Saúde de Matosinhos, E. P. E. (506361390)","SANOFI - PRODUTOS FARMACÊUTICOS, LDA. (500134960)","356,16 €",28-04-2018,25-05-2017,709 dias,"Portugal, Porto, Matosinhos",Artigo 259.º do Código dos Contratos Públicos,,,,,,2222779,Medicamentos do aparelho digestivo,FALSE
PROC. 526/2017 - MEDICAMENTOS DO APARELHO DIGESTIVO CPA 2014/014,Ao abrigo de acordo-quadro (art.º 259.º),Aquisição de bens móveis,"33600000-6, Produtos farmacêuticos","Unidade Local de Saúde de Matosinhos, E. P. E. (506361390)",PROSPA (500130248),"11.653,07 €",28-04-2018,25-05-2017,709 dias,"Portugal, Porto, Matosinhos",Artigo 259.º do Código dos Contratos Públicos,,,,,,2222779,Medicamentos do aparelho digestivo,FALSE
PROC. 526/2017 - MEDICAMENTOS DO APARELHO DIGESTIVO CPA 2014/014,Ao abrigo de acordo-quadro (art.º 259.º),Aquisição de bens móveis,"33600000-6, Produtos farmacêuticos","Unidade Local de Saúde de Matosinhos, E. P. E. (506361390)","LABORATORIOS PFIZER, S.A. (500162166)","577,15 €",28-04-2018,25-05-2017,709 dias,"Portugal, Porto, Matosinhos",Artigo 259.º do Código dos Contratos Públicos,,,,,,2222779,Medicamentos do aparelho digestivo,FALSE
PROC. 514/2017 - MEDICAMENTOS USADOS NAS AFEÇÕES OCULARES E OTORRINOLARINGOLÓGICO  CPA 2015/49,Ao abrigo de acordo-quadro (art.º 259.º),Aquisição de bens móveis,"33600000-6, Produtos farmacêuticos","Unidade Local de Saúde de Matosinhos, E. P. E. (506361390)",GLAXOSMITHKLINE (500139962),"425,52 €",28-04-2018,24-04-2017,252 dias,"Portugal, Porto, Matosinhos",Artigo 259.º do Código dos Contratos Públicos,,,,,,602068,"CONCURSO PÚBLICO PARA A CELEBRAÇÃO DE CONTRATOS PÚBLICOS DE APROVISIONAMENTO PARA A ÁREA DA SAÚDE, COM VISTA AO FORNECIMENTO DE MEDICAMENTOS DE CONSUMO GERAL - MEDICAMENTOS USADOS NAS AFEÇÕES OCULARES E  OTORRINOLARINGOLÓGICAS, ÀS INSTITUIÇÕES E SERVIÇOS DO SERVIÇO NACIONAL DE SAÚDE",FALSE
PROC. 526/2017 - MEDICAMENTOS DO APARELHO DIGESTIVO CPA 2014/014,Ao abrigo de acordo-quadro (art.º 259.º),Aquisição de bens móveis,"33600000-6, Produtos farmacêuticos","Unidade Local de Saúde de Matosinhos, E. P. E. (506361390)",OverPharma (505792362),"55,27 €",28-04-2018,25-05-2017,709 dias,"Portugal, Porto, Matosinhos",Artigo 259.º do Código dos Contratos Públicos,,,,,,2222779,Medicamentos do aparelho digestivo,FALSE
PROC.514/2017-MEDICAMENTOS USADOS NAS AFEÇÕES OCULARES E OTORRINOLARINGOLÓGICO AO ABRIGO CPA 2015/49,Ao abrigo de acordo-quadro (art.º 259.º),Aquisição de bens móveis,"33600000-6, Produtos farmacêuticos","Unidade Local de Saúde de Matosinhos, E. P. E. (506361390)","GENERIS-FARMACEUTICA, S.A. (508107997)","418,18 €",28-04-2018,24-04-2017,252 dias,"Portugal, Porto, Matosinhos",Artigo 259.º do Código dos Contratos Públicos,,,,,,602068,"CONCURSO PÚBLICO PARA A CELEBRAÇÃO DE CONTRATOS PÚBLICOS DE APROVISIONAMENTO PARA A ÁREA DA SAÚDE, COM VISTA AO FORNECIMENTO DE MEDICAMENTOS DE CONSUMO GERAL - MEDICAMENTOS USADOS NAS AFEÇÕES OCULARES E  OTORRINOLARINGOLÓGICAS, ÀS INSTITUIÇÕES E SERVIÇOS DO SERVIÇO NACIONAL DE SAÚDE",FALSE
PROC. 526/2017 - MEDICAMENTOS DO APARELHO DIGESTIVO CPA 2014/014,Ao abrigo de acordo-quadro (art.º 259.º),Aquisição de bens móveis,"33600000-6, Produtos farmacêuticos","Unidade Local de Saúde de Matosinhos, E. P. E. (506361390)",MEDINFAR (500384045),"2.523,06 €",28-04-2018,25-05-2017,709 dias,"Portugal, Porto, Matosinhos",Artigo 259.º do Código dos Contratos Públicos,,,,,,2222779,Medicamentos do aparelho digestivo,FALSE
PROC. 514/2017 - MEDICAMENTOS USADOS NAS AFEÇÕES OCULARES E OTORRINOLARINGOLÓGICO  CPA 2015/49,Ao abrigo de acordo-quadro (art.º 259.º),Aquisição de bens móveis,"33600000-6, Produtos farmacêuticos","Unidade Local de Saúde de Matosinhos, E. P. E. (506361390)","Lab. Edol - Prod. Farmacêuticos, SA (507072642)","6.950,18 €",28-04-2018,24-04-2017,252 dias,"Portugal, Porto, Matosinhos",Artigo 259.º do Código dos Contratos Públicos,,,,,,602068,"CONCURSO PÚBLICO PARA A CELEBRAÇÃO DE CONTRATOS PÚBLICOS DE APROVISIONAMENTO PARA A ÁREA DA SAÚDE, COM VISTA AO FORNECIMENTO DE MEDICAMENTOS DE CONSUMO GERAL - MEDICAMENTOS USADOS NAS AFEÇÕES OCULARES E  OTORRINOLARINGOLÓGICAS, ÀS INSTITUIÇÕES E SERVIÇOS DO SERVIÇO NACIONAL DE SAÚDE",FALSE
PROC. 526/2017 - MEDICAMENTOS DO APARELHO DIGESTIVO CPA 2014/014,Ao abrigo de acordo-quadro (art.º 259.º),Aquisição de bens móveis,"33600000-6, Produtos farmacêuticos","Unidade Local de Saúde de Matosinhos, E. P. E. (506361390)",LABESFAL  (501169580),"828,71 €",28-04-2018,25-05-2017,709 dias,"Portugal, Porto, Matosinhos",Artigo 259.º do Código dos Contratos Públicos,,,,,,2222779,Medicamentos do aparelho digestivo,FALSE
PROC. 514/2017- MEDICAMENTOS USADOS NAS AFEÇÕES OCULARES E OTORRINOLARINGOLÓGICO AO ABRIGO CPA 2015/49,Ao abrigo de acordo-quadro (art.º 259.º),Aquisição de bens móveis,"33600000-6, Produtos farmacêuticos","Unidade Local de Saúde de Matosinhos, E. P. E. (506361390)","Dávi II - Farmacêutica, SA (508309450)","2.005,54 €",28-04-2018,24-04-2017,252 dias,"Portugal, Porto, Matosinhos",Artigo 259.º do Código dos Contratos Públicos,,,,,,602068,"CONCURSO PÚBLICO PARA A CELEBRAÇÃO DE CONTRATOS PÚBLICOS DE APROVISIONAMENTO PARA A ÁREA DA SAÚDE, COM VISTA AO FORNECIMENTO DE MEDICAMENTOS DE CONSUMO GERAL - MEDICAMENTOS USADOS NAS AFEÇÕES OCULARES E  OTORRINOLARINGOLÓGICAS, ÀS INSTITUIÇÕES E SERVIÇOS DO SERVIÇO NACIONAL DE SAÚDE",FALSE
PROC. 526/2017 - MEDICAMENTOS DO APARELHO DIGESTIVO CPA 2014/014,Ao abrigo de acordo-quadro (art.º 259.º),Aquisição de bens móveis,"33600000-6, Produtos farmacêuticos","Unidade Local de Saúde de Matosinhos, E. P. E. (506361390)",IPSEN PORTUGAL (502609800),"1.951,10 €",28-04-2018,25-05-2017,709 dias,"Portugal, Porto, Matosinhos",Artigo 259.º do Código dos Contratos Públicos,,,,,,2222779,Medicamentos do aparelho digestivo,FALSE
PROC. 526/2017 - MEDICAMENTOS DO APARELHO DIGESTIVO CPA 2014/014,Ao abrigo de acordo-quadro (art.º 259.º),Aquisição de bens móveis,"33600000-6, Produtos farmacêuticos","Unidade Local de Saúde de Matosinhos, E. P. E. (506361390)","HIKMA FARMACEUTICA (PORTUGAL),LDA (502266791)","12.266,64 €",28-04-2018,25-05-2017,709 dias,"Portugal, Porto, Matosinhos",Artigo 259.º do Código dos Contratos Públicos,,,,,,2222779,Medicamentos do aparelho digestivo,FALSE
PROC. 514/2017-MEDICAMENTOS USADOS NAS AFEÇÕES OCULARES E OTORRINOLARINGOLÓGICO AO ABRIGO CPA 2015/49,Ao abrigo de acordo-quadro (art.º 259.º),Aquisição de bens móveis,"33600000-6, Produtos farmacêuticos","Unidade Local de Saúde de Matosinhos, E. P. E. (506361390)",Bausch & Lomb (980218764),"12.583,20 €",28-04-2018,24-04-2017,252 dias,"Portugal, Porto, Matosinhos",Artigo 259.º do Código dos Contratos Públicos,,,,,,602068,"CONCURSO PÚBLICO PARA A CELEBRAÇÃO DE CONTRATOS PÚBLICOS DE APROVISIONAMENTO PARA A ÁREA DA SAÚDE, COM VISTA AO FORNECIMENTO DE MEDICAMENTOS DE CONSUMO GERAL - MEDICAMENTOS USADOS NAS AFEÇÕES OCULARES E  OTORRINOLARINGOLÓGICAS, ÀS INSTITUIÇÕES E SERVIÇOS DO SERVIÇO NACIONAL DE SAÚDE",FALSE
PROC. 526/2017 - MEDICAMENTOS DO APARELHO DIGESTIVO CPA 2014/014,Ao abrigo de acordo-quadro (art.º 259.º),Aquisição de bens móveis,"33600000-6, Produtos farmacêuticos","Unidade Local de Saúde de Matosinhos, E. P. E. (506361390)","GENERIS-FARMACEUTICA, S.A. (508107997)","1.207,87 €",28-04-2018,25-05-2017,709 dias,"Portugal, Porto, Matosinhos",Artigo 259.º do Código dos Contratos Públicos,,,,,,2222779,Medicamentos do aparelho digestivo,FALSE
PROC. 514/2017 - MEDICAMENTOS USADOS NAS AFEÇÕES OCULARES E OTORRINOLARINGOLÓGICO AO ABRIGO CPA 2015/49,Ao abrigo de acordo-quadro (art.º 259.º),Aquisição de bens móveis,"33600000-6, Produtos farmacêuticos","Unidade Local de Saúde de Matosinhos, E. P. E. (506361390)","AUROVITAS UNIPESSOAL, LDA (513053239)","169,45 €",28-04-2018,24-04-2017,252 dias,"Portugal, Porto, Matosinhos",Artigo 259.º do Código dos Contratos Públicos,,,,,,602068,"CONCURSO PÚBLICO PARA A CELEBRAÇÃO DE CONTRATOS PÚBLICOS DE APROVISIONAMENTO PARA A ÁREA DA SAÚDE, COM VISTA AO FORNECIMENTO DE MEDICAMENTOS DE CONSUMO GERAL - MEDICAMENTOS USADOS NAS AFEÇÕES OCULARES E  OTORRINOLARINGOLÓGICAS, ÀS INSTITUIÇÕES E SERVIÇOS DO SERVIÇO NACIONAL DE SAÚDE",FALSE
PROC. 526/2017 - MEDICAMENTOS DO APARELHO DIGESTIVO CPA 2014/014,Ao abrigo de acordo-quadro (art.º 259.º),Aquisição de bens móveis,"33600000-6, Produtos farmacêuticos","Unidade Local de Saúde de Matosinhos, E. P. E. (506361390)","D.L.A.FARMACEUTICA, SA. (503894427)","820,80 €",28-04-2018,25-05-2017,709 dias,"Portugal, Porto, Matosinhos",Artigo 259.º do Código dos Contratos Públicos,,,,,,2222779,Medicamentos do aparelho digestivo,FALSE
PROC. 526/2017 - MEDICAMENTOS DO APARELHO DIGESTIVO CPA 2014/014,Ao abrigo de acordo-quadro (art.º 259.º),Aquisição de bens móveis,"33600000-6, Produtos farmacêuticos","Unidade Local de Saúde de Matosinhos, E. P. E. (506361390)","AUROVITAS UNIPESSOAL, LDA (513053239)","1.250,39 €",28-04-2018,25-05-2017,709 dias,"Portugal, Porto, Matosinhos",Artigo 259.º do Código dos Contratos Públicos,,,,,,2222779,Medicamentos do aparelho digestivo,FALSE
PROC. 526/2017 - MEDICAMENTOS DO APARELHO DIGESTIVO CPA 2014/014,Ao abrigo de acordo-quadro (art.º 259.º),Aquisição de bens móveis,"33600000-6, Produtos farmacêuticos","Unidade Local de Saúde de Matosinhos, E. P. E. (506361390)","Astrazeneca - Produtos Farmacêuticos, Lda (502942240)","137,90 €",28-04-2018,25-05-2017,709 dias,"Portugal, Porto, Matosinhos",Artigo 259.º do Código dos Contratos Públicos,,,,,,2222779,Medicamentos do aparelho digestivo,FALSE
Proc. 549/2017 - Medicamentos anestésicos e relaxantes musculares ao abrigo do CPA 2016/045,Ao abrigo de acordo-quadro (art.º 259.º),Aquisição de bens móveis,"33600000-6, Produtos farmacêuticos","Unidade Local de Saúde de Matosinhos, E. P. E. (506361390)","ABBVIE, LDA (510229050)","51.467,50 €",28-04-2018,19-06-2017,196 dias,"Portugal, Porto, Matosinhos",Artigo 259.º do Código dos Contratos Públicos,,,,,,2211341,Medicamentos anestésicos e relaxantes musculares,FALSE
Proc. 549/2017 - Medicamentos anestésicos e relaxantes musculares ao abrigo do CPA 2016/045,Ao abrigo de acordo-quadro (art.º 259.º),Aquisição de bens móveis,"33600000-6, Produtos farmacêuticos","Unidade Local de Saúde de Matosinhos, E. P. E. (506361390)",LABESFAL  (501169580),"1.636,32 €",28-04-2018,19-06-2017,196 dias,"Portugal, Porto, Matosinhos",Artigo 259.º do Código dos Contratos Públicos,,,,,,2211341,Medicamentos anestésicos e relaxantes musculares,FALSE
Medicamentos antipsicóticos ao abrigo do CPA 2014/019,Ao abrigo de acordo-quadro (art.º 259.º),Aquisição de bens móveis,"33600000-6, Produtos farmacêuticos","Unidade Local de Saúde de Matosinhos, E. P. E. (506361390)","TEVA PHARMA - PRODUTOS FARMACÊUTICOS, LDA (507045491)","94,53 €",28-04-2018,19-06-2017,18 dias,"Portugal, Porto, Matosinhos",Artigo 259.º do Código dos Contratos Públicos,,,,,,389354,CONCURSO PÚBLICO PARA A CELEBRAÇÃO DE CONTRATOS PÚBLICOS DE APROVISIONAMENTO PARA AQUISIÇÃO MEDICAMENTOS ANTI-PSICÓTICOS,FALSE
Medicamentos antipsicóticos ao abrigo do CPA 2014/019,Ao abrigo de acordo-quadro (art.º 259.º),Aquisição de bens móveis,"33600000-6, Produtos farmacêuticos","Unidade Local de Saúde de Matosinhos, E. P. E. (506361390)","SANOFI - PRODUTOS FARMACÊUTICOS, LDA. (500134960)","124,80 €",28-04-2018,19-06-2017,18 dias,"Portugal, Porto, Matosinhos",Artigo 259.º do Código dos Contratos Públicos,,,,,,389354,CONCURSO PÚBLICO PARA A CELEBRAÇÃO DE CONTRATOS PÚBLICOS DE APROVISIONAMENTO PARA AQUISIÇÃO MEDICAMENTOS ANTI-PSICÓTICOS,FALSE
Procedimento 525/2017 - Medicamentos do grupo 4 sangue,Ao abrigo de acordo-quadro (art.º 259.º),Aquisição de bens móveis,"33600000-6, Produtos farmacêuticos","Unidade Local de Saúde de Matosinhos, E. P. E. (506361390)","SANOFI - PRODUTOS FARMACÊUTICOS, LDA. (500134960)","62,17 €",28-04-2018,26-05-2017,220 dias,"Portugal, Porto, Matosinhos",Artigo 259.º do Código dos Contratos Públicos,,,,,,1210107,"CONCURSO PÚBLICO PARA A CELEBRAÇÃO DE CONTRATOS PÚBLICOS DE APROVISIONAMENTO PARA A ÁREA DA SAÚDE, COM VISTA AO FORNECIMENTO DE MEDICAMENTOS DO GRUPO 4: SANGUE, ÀS INSTITUIÇÕES E SERVIÇOS DO SERVIÇO NACIONAL DE SAÚDE",FALSE
Proc. 549/2017 - Medicamentos anestésicos e relaxantes musculares ao abrigo do CPA 2016/045,Ao abrigo de acordo-quadro (art.º 259.º),Aquisição de bens móveis,"33600000-6, Produtos farmacêuticos","Unidade Local de Saúde de Matosinhos, E. P. E. (506361390)",FRESENIUS KABI (504293753),"48.964,98 €",28-04-2018,19-06-2017,196 dias,"Portugal, Porto, Matosinhos",Artigo 259.º do Código dos Contratos Públicos,,,,,,2211341,Medicamentos anestésicos e relaxantes musculares,FALSE
Proc. 549/2017 - Medicamentos anestésicos e relaxantes musculares ao abrigo do CPA 2016/045,Ao abrigo de acordo-quadro (art.º 259.º),Aquisição de bens móveis,"33600000-6, Produtos farmacêuticos","Unidade Local de Saúde de Matosinhos, E. P. E. (506361390)","PHARMIS BIOFARMACEUTICA, LDA. (502595442)","16.963,20 €",28-04-2018,19-06-2017,196 dias,"Portugal, Porto, Matosinhos",Artigo 259.º do Código dos Contratos Públicos,,,,,,2211341,Medicamentos anestésicos e relaxantes musculares,FALSE
Procedimento 525/2017 - Medicamentos do grupo 4 sangue,Ao abrigo de acordo-quadro (art.º 259.º),Aquisição de bens móveis,"33600000-6, Produtos farmacêuticos","Unidade Local de Saúde de Matosinhos, E. P. E. (506361390)",ROCHE FARMACEUTICA QUIMICA LDA (500233810),"4.092,00 €",28-04-2018,26-05-2017,220 dias,"Portugal, Porto, Matosinhos",Artigo 259.º do Código dos Contratos Públicos,,,,,,1210107,"CONCURSO PÚBLICO PARA A CELEBRAÇÃO DE CONTRATOS PÚBLICOS DE APROVISIONAMENTO PARA A ÁREA DA SAÚDE, COM VISTA AO FORNECIMENTO DE MEDICAMENTOS DO GRUPO 4: SANGUE, ÀS INSTITUIÇÕES E SERVIÇOS DO SERVIÇO NACIONAL DE SAÚDE",FALSE
Proc. 549/2017 - Medicamentos anestésicos e relaxantes musculares ao abrigo do CPA 2016/045,Ao abrigo de acordo-quadro (art.º 259.º),Aquisição de bens móveis,"33600000-6, Produtos farmacêuticos","Unidade Local de Saúde de Matosinhos, E. P. E. (506361390)","B. BRAUN MEDICAL, LDA (501506543)","19.822,36 €",28-04-2018,19-06-2017,196 dias,"Portugal, Porto, Matosinhos",Artigo 259.º do Código dos Contratos Públicos,,,,,,2211341,Medicamentos anestésicos e relaxantes musculares,FALSE
Procedimento 525/2017 - Medicamentos do grupo 4 sangue,Ao abrigo de acordo-quadro (art.º 259.º),Aquisição de bens móveis,"33600000-6, Produtos farmacêuticos","Unidade Local de Saúde de Matosinhos, E. P. E. (506361390)",OverPharma (505792362),"954,50 €",28-04-2018,26-05-2017,220 dias,"Portugal, Porto, Matosinhos",Artigo 259.º do Código dos Contratos Públicos,,,,,,1210107,"CONCURSO PÚBLICO PARA A CELEBRAÇÃO DE CONTRATOS PÚBLICOS DE APROVISIONAMENTO PARA A ÁREA DA SAÚDE, COM VISTA AO FORNECIMENTO DE MEDICAMENTOS DO GRUPO 4: SANGUE, ÀS INSTITUIÇÕES E SERVIÇOS DO SERVIÇO NACIONAL DE SAÚDE",FALSE
Medicamentos antipsicóticos ao abrigo do CPA 2014/019,Ao abrigo de acordo-quadro (art.º 259.º),Aquisição de bens móveis,"33600000-6, Produtos farmacêuticos","Unidade Local de Saúde de Matosinhos, E. P. E. (506361390)","Profarin - Distrib. Prod. Farmac. Indust., Lda (500223238)","38,69 €",28-04-2018,19-06-2017,18 dias,"Portugal, Porto, Matosinhos",Artigo 259.º do Código dos Contratos Públicos,,,,,,389354,CONCURSO PÚBLICO PARA A CELEBRAÇÃO DE CONTRATOS PÚBLICOS DE APROVISIONAMENTO PARA AQUISIÇÃO MEDICAMENTOS ANTI-PSICÓTICOS,FALSE
Proc. 549/2017 - Medicamentos anestésicos e relaxantes musculares ao abrigo do CPA 2016/045,Ao abrigo de acordo-quadro (art.º 259.º),Aquisição de bens móveis,"33600000-6, Produtos farmacêuticos","Unidade Local de Saúde de Matosinhos, E. P. E. (506361390)","BAXTER MEDICO - FARMACEUTICO, LDA (503347345)","87.486,32 €",28-04-2018,19-06-2017,196 dias,"Portugal, Porto, Matosinhos",Artigo 259.º do Código dos Contratos Públicos,,,,,,2211341,Medicamentos anestésicos e relaxantes musculares,FALSE
Procedimento 525/2017 - Medicamentos do grupo 4 sangue,Ao abrigo de acordo-quadro (art.º 259.º),Aquisição de bens móveis,"33600000-6, Produtos farmacêuticos","Unidade Local de Saúde de Matosinhos, E. P. E. (506361390)","OM PHARMA, SA (500207410)","15.559,56 €",28-04-2018,26-05-2017,220 dias,"Portugal, Porto, Matosinhos",Artigo 259.º do Código dos Contratos Públicos,,,,,,1210107,"CONCURSO PÚBLICO PARA A CELEBRAÇÃO DE CONTRATOS PÚBLICOS DE APROVISIONAMENTO PARA A ÁREA DA SAÚDE, COM VISTA AO FORNECIMENTO DE MEDICAMENTOS DO GRUPO 4: SANGUE, ÀS INSTITUIÇÕES E SERVIÇOS DO SERVIÇO NACIONAL DE SAÚDE",FALSE
Proc. 549/2017 - Medicamentos anestésicos e relaxantes musculares ao abrigo do CPA 2016/045,Ao abrigo de acordo-quadro (art.º 259.º),Aquisição de bens móveis,"33600000-6, Produtos farmacêuticos","Unidade Local de Saúde de Matosinhos, E. P. E. (506361390)","BLUEMED UNIPESSOAL, LDA (509912060)","3.772,08 €",28-04-2018,19-06-2017,196 dias,"Portugal, Porto, Matosinhos",Artigo 259.º do Código dos Contratos Públicos,,,,,,2211341,Medicamentos anestésicos e relaxantes musculares,FALSE
Medicamentos antipsicóticos ao abrigo do CPA 2014/019,Ao abrigo de acordo-quadro (art.º 259.º),Aquisição de bens móveis,"33600000-6, Produtos farmacêuticos","Unidade Local de Saúde de Matosinhos, E. P. E. (506361390)","Pharmakern, Lda. (507002571)","169,00 €",28-04-2018,19-06-2017,18 dias,"Portugal, Porto, Matosinhos",Artigo 259.º do Código dos Contratos Públicos,,,,,,389354,CONCURSO PÚBLICO PARA A CELEBRAÇÃO DE CONTRATOS PÚBLICOS DE APROVISIONAMENTO PARA AQUISIÇÃO MEDICAMENTOS ANTI-PSICÓTICOS,FALSE
Procedimento 525/2017 - Medicamentos do grupo 4 sangue,Ao abrigo de acordo-quadro (art.º 259.º),Aquisição de bens móveis,"33600000-6, Produtos farmacêuticos","Unidade Local de Saúde de Matosinhos, E. P. E. (506361390)",MEDINFAR (500384045),"208,66 €",28-04-2018,26-05-2017,220 dias,"Portugal, Porto, Matosinhos",Artigo 259.º do Código dos Contratos Públicos,,,,,,1210107,"CONCURSO PÚBLICO PARA A CELEBRAÇÃO DE CONTRATOS PÚBLICOS DE APROVISIONAMENTO PARA A ÁREA DA SAÚDE, COM VISTA AO FORNECIMENTO DE MEDICAMENTOS DO GRUPO 4: SANGUE, ÀS INSTITUIÇÕES E SERVIÇOS DO SERVIÇO NACIONAL DE SAÚDE",FALSE
Procedimento 525/2017 - Medicamentos do grupo 4 sangue,Ao abrigo de acordo-quadro (art.º 259.º),Aquisição de bens móveis,"33600000-6, Produtos farmacêuticos","Unidade Local de Saúde de Matosinhos, E. P. E. (506361390)","GENERIS-FARMACEUTICA, S.A. (508107997)","7.754,28 €",28-04-2018,26-05-2017,220 dias,"Portugal, Porto, Matosinhos",Artigo 259.º do Código dos Contratos Públicos,,,,,,1210107,"CONCURSO PÚBLICO PARA A CELEBRAÇÃO DE CONTRATOS PÚBLICOS DE APROVISIONAMENTO PARA A ÁREA DA SAÚDE, COM VISTA AO FORNECIMENTO DE MEDICAMENTOS DO GRUPO 4: SANGUE, ÀS INSTITUIÇÕES E SERVIÇOS DO SERVIÇO NACIONAL DE SAÚDE",FALSE
Medicamentos antipsicóticos ao abrigo do CPA 2014/019,Ao abrigo de acordo-quadro (art.º 259.º),Aquisição de bens móveis,"33600000-6, Produtos farmacêuticos","Unidade Local de Saúde de Matosinhos, E. P. E. (506361390)",FARMOZ - SOCIEDADE TÉCNICO MEDICINAL S.A. (501505334),"350,48 €",28-04-2018,19-06-2017,18 dias,"Portugal, Porto, Matosinhos",Artigo 259.º do Código dos Contratos Públicos,,,,,,389354,CONCURSO PÚBLICO PARA A CELEBRAÇÃO DE CONTRATOS PÚBLICOS DE APROVISIONAMENTO PARA AQUISIÇÃO MEDICAMENTOS ANTI-PSICÓTICOS,FALSE
Procedimento 525/2017 - Medicamentos do grupo 4 sangue,Ao abrigo de acordo-quadro (art.º 259.º),Aquisição de bens móveis,"33600000-6, Produtos farmacêuticos","Unidade Local de Saúde de Matosinhos, E. P. E. (506361390)","B. BRAUN MEDICAL, LDA (501506543)","4.587,00 €",28-04-2018,26-05-2017,220 dias,"Portugal, Porto, Matosinhos",Artigo 259.º do Código dos Contratos Públicos,,,,,,1210107,"CONCURSO PÚBLICO PARA A CELEBRAÇÃO DE CONTRATOS PÚBLICOS DE APROVISIONAMENTO PARA A ÁREA DA SAÚDE, COM VISTA AO FORNECIMENTO DE MEDICAMENTOS DO GRUPO 4: SANGUE, ÀS INSTITUIÇÕES E SERVIÇOS DO SERVIÇO NACIONAL DE SAÚDE",FALSE
Medicamentos antipsicóticos ao abrigo do CPA 2014/19,Ao abrigo de acordo-quadro (art.º 259.º),Aquisição de bens móveis,"33600000-6, Produtos farmacêuticos","Unidade Local de Saúde de Matosinhos, E. P. E. (506361390)",JANSSEN  (500189412),"59.566,67 €",28-04-2018,19-06-2017,18 dias,"Portugal, Porto, Matosinhos",Artigo 259.º do Código dos Contratos Públicos,,,,,,389354,CONCURSO PÚBLICO PARA A CELEBRAÇÃO DE CONTRATOS PÚBLICOS DE APROVISIONAMENTO PARA AQUISIÇÃO MEDICAMENTOS ANTI-PSICÓTICOS,FALSE
Procedimento 525/2017 - Medicamentos do grupo 4 sangue,Ao abrigo de acordo-quadro (art.º 259.º),Aquisição de bens móveis,"33600000-6, Produtos farmacêuticos","Unidade Local de Saúde de Matosinhos, E. P. E. (506361390)","AUROVITAS UNIPESSOAL, LDA (513053239)","171,84 €",28-04-2018,26-05-2017,220 dias,"Portugal, Porto, Matosinhos",Artigo 259.º do Código dos Contratos Públicos,,,,,,1210107,"CONCURSO PÚBLICO PARA A CELEBRAÇÃO DE CONTRATOS PÚBLICOS DE APROVISIONAMENTO PARA A ÁREA DA SAÚDE, COM VISTA AO FORNECIMENTO DE MEDICAMENTOS DO GRUPO 4: SANGUE, ÀS INSTITUIÇÕES E SERVIÇOS DO SERVIÇO NACIONAL DE SAÚDE",FALSE
Procedimento 525/2017 - Medicamentos do grupo 4 sangue,Ao abrigo de acordo-quadro (art.º 259.º),Aquisição de bens móveis,"33600000-6, Produtos farmacêuticos","Unidade Local de Saúde de Matosinhos, E. P. E. (506361390)","LABORATORIOS PFIZER, S.A. (500162166)","25.495,69 €",28-04-2018,26-05-2017,220 dias,"Portugal, Porto, Matosinhos",Artigo 259.º do Código dos Contratos Públicos,,,,,,1210107,"CONCURSO PÚBLICO PARA A CELEBRAÇÃO DE CONTRATOS PÚBLICOS DE APROVISIONAMENTO PARA A ÁREA DA SAÚDE, COM VISTA AO FORNECIMENTO DE MEDICAMENTOS DO GRUPO 4: SANGUE, ÀS INSTITUIÇÕES E SERVIÇOS DO SERVIÇO NACIONAL DE SAÚDE",FALSE
Proc. 517/2017-Medicamentos Antiviricos e Antifungicos,Ao abrigo de acordo-quadro (art.º 259.º),Aquisição de bens móveis,"33600000-6, Produtos farmacêuticos","Unidade Local de Saúde de Matosinhos, E. P. E. (506361390)",FRESENIUS KABI (504293753),"1.190,88 €",28-04-2018,22-12-2017,20 dias,"Portugal, Porto, Matosinhos",Artigo 259.º do Código dos Contratos Públicos,,,,,,1422736,CP 2015/41 - ACORDO QUADRO PARA FORNECIMENTO DE MEDICAMENTOS ANTI-INFECIOSOS: ANTIVÍRICOS E ANTIFÚNGICOS ÀS INSTITUIÇÕES E SERVIÇOS DO SERVIÇO NACIONAL DE SAÚDE,FALSE
PROC. 517/2017 - MEDICAMENTOS ANTIVÍRICOS E ANTIFÚNGICOS,Ao abrigo de acordo-quadro (art.º 259.º),Aquisição de bens móveis,"33600000-6, Produtos farmacêuticos","Unidade Local de Saúde de Matosinhos, E. P. E. (506361390)","GILEAD SCIENCES, LDA (503604704)","4.682,20 €",28-04-2018,22-12-2017,20 dias,"Portugal, Porto, Matosinhos",Artigo 259.º do Código dos Contratos Públicos,,,,,,1422736,CP 2015/41 - ACORDO QUADRO PARA FORNECIMENTO DE MEDICAMENTOS ANTI-INFECIOSOS: ANTIVÍRICOS E ANTIFÚNGICOS ÀS INSTITUIÇÕES E SERVIÇOS DO SERVIÇO NACIONAL DE SAÚDE,FALSE
Proc. 610/2017 - Medicamentos anti-infeciosos: exceto antivíricos e antifúngicos ao abrigo do CPA 2014/005 II,Ao abrigo de acordo-quadro (art.º 259.º),Aquisição de bens móveis,"33600000-6, Produtos farmacêuticos","Unidade Local de Saúde de Matosinhos, E. P. E. (506361390)",SIDEFARMA - SOCINDUSTEXPANSAO FARM (500717419),"75,95 €",28-04-2018,23-10-2017,70 dias,"Portugal, Porto, Matosinhos",Artigo 259.º do Código dos Contratos Públicos,,,,,,1326195,ACORDO QUADRO PARA FORNECIMENTO DE MEDICAMENTOS ANTI-INFECIOSOS: EXCETO ANTIVÍRICOS E ANTIFÚNGICOS ÀS INSTITUIÇÕES E SERVIÇOS DO SERVIÇO NACIONAL DE SAÚDE,FALSE
Proc. 610/2017 - Medicamentos anti-infeciosos: exceto antivíricos e antifúngicos ao abrigo do CPA 2014/005 II,Ao abrigo de acordo-quadro (art.º 259.º),Aquisição de bens móveis,"33600000-6, Produtos farmacêuticos","Unidade Local de Saúde de Matosinhos, E. P. E. (506361390)",MERCK SHARP  (500191360),"56.309,68 €",28-04-2018,23-10-2017,70 dias,"Portugal, Porto, Matosinhos",Artigo 259.º do Código dos Contratos Públicos,,,,,,1326195,ACORDO QUADRO PARA FORNECIMENTO DE MEDICAMENTOS ANTI-INFECIOSOS: EXCETO ANTIVÍRICOS E ANTIFÚNGICOS ÀS INSTITUIÇÕES E SERVIÇOS DO SERVIÇO NACIONAL DE SAÚDE,FALSE
Proc. 610/2017 - Medicamentos anti-infeciosos: exceto antivíricos e antifúngicos ao abrigo do CPA 2014/005 II,Ao abrigo de acordo-quadro (art.º 259.º),Aquisição de bens móveis,"33600000-6, Produtos farmacêuticos","Unidade Local de Saúde de Matosinhos, E. P. E. (506361390)",FRESENIUS KABI (504293753),"42,35 €",28-04-2018,23-10-2017,70 dias,"Portugal, Porto, Matosinhos",Artigo 259.º do Código dos Contratos Públicos,,,,,,1326195,ACORDO QUADRO PARA FORNECIMENTO DE MEDICAMENTOS ANTI-INFECIOSOS: EXCETO ANTIVÍRICOS E ANTIFÚNGICOS ÀS INSTITUIÇÕES E SERVIÇOS DO SERVIÇO NACIONAL DE SAÚDE,FALSE
Proc. 610/2017 - Medicamentos anti-infeciosos: exceto antivíricos e antifúngicos ao abrigo do CPA 2014/005 II,Ao abrigo de acordo-quadro (art.º 259.º),Aquisição de bens móveis,"33600000-6, Produtos farmacêuticos","Unidade Local de Saúde de Matosinhos, E. P. E. (506361390)",LABORATORIOS ATRAL-SA (500162085),"20.595,68 €",28-04-2018,23-10-2017,70 dias,"Portugal, Porto, Matosinhos",Artigo 259.º do Código dos Contratos Públicos,,,,,,1326195,ACORDO QUADRO PARA FORNECIMENTO DE MEDICAMENTOS ANTI-INFECIOSOS: EXCETO ANTIVÍRICOS E ANTIFÚNGICOS ÀS INSTITUIÇÕES E SERVIÇOS DO SERVIÇO NACIONAL DE SAÚDE,FALSE
Proc. 610/2017 - Medicamentos anti-infeciosos: exceto antivíricos e antifúngicos ao abrigo do CPA 2014/005 II,Ao abrigo de acordo-quadro (art.º 259.º),Aquisição de bens móveis,"33600000-6, Produtos farmacêuticos","Unidade Local de Saúde de Matosinhos, E. P. E. (506361390)","GENERIS-FARMACEUTICA, S.A. (508107997)","16.929,22 €",26-04-2018,25-10-2017,70 dias,"Portugal, Porto, Matosinhos",Artigo 259.º do Código dos Contratos Públicos,,,,,,1326195,ACORDO QUADRO PARA FORNECIMENTO DE MEDICAMENTOS ANTI-INFECIOSOS: EXCETO ANTIVÍRICOS E ANTIFÚNGICOS ÀS INSTITUIÇÕES E SERVIÇOS DO SERVIÇO NACIONAL DE SAÚDE,FALSE
Procedimento 593/2017 - Fornecimento de medicamentos do foro oncológico,Ao abrigo de acordo-quadro (art.º 259.º),Aquisição de bens móveis,"33600000-6, Produtos farmacêuticos","Unidade Local de Saúde de Matosinhos, E. P. E. (506361390)","Biogen Portugal, lda (506415740)","6.168,44 €",26-04-2018,24-05-2017,217 dias,"Portugal, Porto, Matosinhos",Artigo 259.º do Código dos Contratos Públicos,,,,,,1771819,CP 2015/6 - Acordo quadro para o fornecimento de Medicamentos do Foro Oncológico,FALSE
Estimulantes de eritropoiese ao abrigo do CPA2014/011,Ao abrigo de acordo-quadro (art.º 259.º),Aquisição de bens móveis,"33600000-6, Produtos farmacêuticos","Unidade Local de Saúde de Matosinhos, E. P. E. (506361390)","AMGEN BIOFARMACEUTICA, LDA. (502942959)","10.420,00 €",21-04-2018,02-11-2017,8 dias,"Portugal, Porto, Matosinhos",Artigo 259.º do Código dos Contratos Públicos,,,,,,1348990,Acordo quadro para fornecimento de Estimulantes da Eritropoiese às instituições e serviços do serviço nacional de saúde,FALSE
Estimulantes de eritropoiese ao abrigo do CPA2014/011,Ao abrigo de acordo-quadro (art.º 259.º),Aquisição de bens móveis,"33600000-6, Produtos farmacêuticos","Unidade Local de Saúde de Matosinhos, E. P. E. (506361390)","ROCHE FARMACEUTICA QUIMICA, LDA (500233810)","42.822,78 €",21-04-2018,06-11-2017,8 dias,"Portugal, Porto, Matosinhos",Artigo 259.º do Código dos Contratos Públicos,,,,,,1348990,Acordo quadro para fornecimento de Estimulantes da Eritropoiese às instituições e serviços do serviço nacional de saúde,FALSE
Medicamentos do grupo 4: sangue ao abrigo do CPA 2014/018,Ao abrigo de acordo-quadro (art.º 259.º),Aquisição de bens móveis,"33600000-6, Produtos farmacêuticos","Unidade Local de Saúde de Matosinhos, E. P. E. (506361390)",LABORATORIOS BIAL (500220913),"1.036,51 €",21-04-2018,31-12-2017,27 dias,"Portugal, Porto, Matosinhos",Artigo 259.º do Código dos Contratos Públicos,,,,,,599473,"CONCURSO PÚBLICO PARA A CELEBRAÇÃO DE CONTRATOS PÚBLICOS DE APROVISIONAMENTO PARA A ÁREA DA SAÚDE, COM VISTA AO FORNECIMENTO DE MEDICAMENTOS DE CONSUMO GERAL, GRUPO 4: SANGUE ÀS INSTITUIÇÕES E SERVIÇOS DO SERVIÇO NACIONAL DE SAÚDE",FALSE
Medicamentos do grupo 4: sangue ao abrigo do CPA 2014/018,Ao abrigo de acordo-quadro (art.º 259.º),Aquisição de bens móveis,"33600000-6, Produtos farmacêuticos","Unidade Local de Saúde de Matosinhos, E. P. E. (506361390)","UNILFARMA, LDA (500293023)","25.793,01 €",21-04-2018,31-12-2017,27 dias,"Portugal, Porto, Matosinhos",Artigo 259.º do Código dos Contratos Públicos,,,,,,599473,"CONCURSO PÚBLICO PARA A CELEBRAÇÃO DE CONTRATOS PÚBLICOS DE APROVISIONAMENTO PARA A ÁREA DA SAÚDE, COM VISTA AO FORNECIMENTO DE MEDICAMENTOS DE CONSUMO GERAL, GRUPO 4: SANGUE ÀS INSTITUIÇÕES E SERVIÇOS DO SERVIÇO NACIONAL DE SAÚDE",FALSE
Medicamentos do grupo 4: sangue ao abrigo do CPA 2014/018,Ao abrigo de acordo-quadro (art.º 259.º),Aquisição de bens móveis,"33600000-6, Produtos farmacêuticos","Unidade Local de Saúde de Matosinhos, E. P. E. (506361390)","SPCARE ESPECIALIDADES FARMACEUTICAS, LDA (508284872)","45,09 €",21-04-2018,31-12-2017,27 dias,"Portugal, Porto, Matosinhos",Artigo 259.º do Código dos Contratos Públicos,,,,,,599473,"CONCURSO PÚBLICO PARA A CELEBRAÇÃO DE CONTRATOS PÚBLICOS DE APROVISIONAMENTO PARA A ÁREA DA SAÚDE, COM VISTA AO FORNECIMENTO DE MEDICAMENTOS DE CONSUMO GERAL, GRUPO 4: SANGUE ÀS INSTITUIÇÕES E SERVIÇOS DO SERVIÇO NACIONAL DE SAÚDE",FALSE
" Medicação antialérgica vitaminas e sais minerais, medicamentos usados no tratamento de intoxicações e grupo 20.9 outros ao abrigo do CPA 2014/050II",Ao abrigo de acordo-quadro (art.º 259.º),Aquisição de bens móveis,"33600000-6, Produtos farmacêuticos","Unidade Local de Saúde de Matosinhos, E. P. E. (506361390)",SIDEFARMA - SOCINDUSTEXPANSAO FARM (500717419),"0,69 €",21-04-2018,31-12-2017,69 dias,"Portugal, Porto, Matosinhos",Artigo 259.º do Código dos Contratos Públicos,,,,,,1338581,"Acordo quadro para fornecimento de Medicação antialérgica, medicamentos usados no tratamento de intoxicações, vitaminas e sais minerais e grupo 20.9 - outros produtos às instituições e serviços do serviço nacional de saúde",FALSE
Medicamentos diversos ao abrigo do CPA 2014/055,Ao abrigo de acordo-quadro (art.º 259.º),Aquisição de bens móveis,"33600000-6, Produtos farmacêuticos","Unidade Local de Saúde de Matosinhos, E. P. E. (506361390)","Astrazeneca - Produtos Farmacêuticos, Lda (502942240)","85,00 €",21-04-2018,11-12-2017,21 dias,"Portugal, Porto, Matosinhos",Artigo 259.º do Código dos Contratos Públicos,,,,,,1209176,"CONCURSO PÚBLICO PARA A CELEBRAÇÃO DE CONTRATOS PÚBLICOS DE APROVISIONAMENTO PARA A ÁREA DA SAÚDE, COM VISTA AO FORNECIMENTO DE MEDICAMENTOS DIVERSOS, ÀS INSTITUIÇÕES E SERVIÇOS DO SERVIÇO NACIONAL DE SAÚDE",FALSE
" Medicação antialérgica vitaminas e sais minerais, medicamentos usados no tratamento de intoxicações e grupo 20.9 outros ao abrigo do CPA 2014/050II",Ao abrigo de acordo-quadro (art.º 259.º),Aquisição de bens móveis,"33600000-6, Produtos farmacêuticos","Unidade Local de Saúde de Matosinhos, E. P. E. (506361390)","Labesfal - Laboratórios Almiro, S.A. (501169580)","1.014,13 €",21-04-2018,24-10-2017,69 dias,"Portugal, Porto, Matosinhos",Artigo 259.º do Código dos Contratos Públicos,,,,,,1338581,"Acordo quadro para fornecimento de Medicação antialérgica, medicamentos usados no tratamento de intoxicações, vitaminas e sais minerais e grupo 20.9 - outros produtos às instituições e serviços do serviço nacional de saúde",FALSE
Procedimento 621/2017 - Medicamentos do aparelho digestivo ao abrigo CPA2016/14,Ao abrigo de acordo-quadro (art.º 259.º),Aquisição de bens móveis,"33600000-6, Produtos farmacêuticos","Unidade Local de Saúde de Matosinhos, E. P. E. (506361390)","HIKMA FARMACEUTICA (PORTUGAL),LDA (502266791)","297,00 €",21-04-2018,06-11-2017,67 dias,"Portugal, Porto, Matosinhos",Artigo 259.º do Código dos Contratos Públicos,,,,,,2222779,Medicamentos do aparelho digestivo,FALSE
Procedimento 621/2017 - Medicamentos do aparelho digestivo ao abrigo CPA2016/14,Ao abrigo de acordo-quadro (art.º 259.º),Aquisição de bens móveis,"33600000-6, Produtos farmacêuticos","Unidade Local de Saúde de Matosinhos, E. P. E. (506361390)","GENERIS-FARMACEUTICA, S.A. (508107997)","68,36 €",21-04-2018,06-11-2017,67 dias,"Portugal, Porto, Matosinhos",Artigo 259.º do Código dos Contratos Públicos,,,,,,2222779,Medicamentos do aparelho digestivo,FALSE
Procedimento 621/2017 - Medicamentos do aparelho digestivo ao abrigo CPA2016/14,Ao abrigo de acordo-quadro (art.º 259.º),Aquisição de bens móveis,"33600000-6, Produtos farmacêuticos","Unidade Local de Saúde de Matosinhos, E. P. E. (506361390)","Labesfal - Laboratórios Almiro, S.A. (501169580)","555,29 €",21-04-2018,06-11-2017,67 dias,"Portugal, Porto, Matosinhos",Artigo 259.º do Código dos Contratos Públicos,,,,,,2222779,Medicamentos do aparelho digestivo,FALSE
Procedimento 621/2017 - Medicamentos do aparelho digestivo ao abrigo CPA2016/14,Ao abrigo de acordo-quadro (art.º 259.º),Aquisição de bens móveis,"33600000-6, Produtos farmacêuticos","Unidade Local de Saúde de Matosinhos, E. P. E. (506361390)","Sanofi Produtos Farmaceuticos, Lda (500134960)","29,40 €",21-04-2018,06-11-2017,67 dias,"Portugal, Porto, Matosinhos",Artigo 259.º do Código dos Contratos Públicos,,,,,,2222779,Medicamentos do aparelho digestivo,FALSE
Medicamentos diversos ao abrigo do CPA 2015/64,Ao abrigo de acordo-quadro (art.º 259.º),Aquisição de bens móveis,"33600000-6, Produtos farmacêuticos","Unidade Local de Saúde de Matosinhos, E. P. E. (506361390)",PHARMAKERN PORTUGAL (507002571),"108,19 €",21-04-2018,30-05-2017,216 dias,"Portugal, Porto, Matosinhos",Artigo 259.º do Código dos Contratos Públicos,,,,,,1394106,CP 2015/64 - Medicamentos Diversos,FALSE
Procedimento 621/2017 - Medicamentos do aparelho digestivo ao abrigo CPA2016/14,Ao abrigo de acordo-quadro (art.º 259.º),Aquisição de bens móveis,"33600000-6, Produtos farmacêuticos","Unidade Local de Saúde de Matosinhos, E. P. E. (506361390)","Angelini Farmacêutica, Lda (500583650)","6,30 €",21-04-2018,06-11-2017,67 dias,"Portugal, Porto, Matosinhos",Artigo 259.º do Código dos Contratos Públicos,,,,,,2222779,Medicamentos do aparelho digestivo,FALSE
Medicamentos diversos ao abrigo do CPA 2015/64,Ao abrigo de acordo-quadro (art.º 259.º),Aquisição de bens móveis,"33600000-6, Produtos farmacêuticos","Unidade Local de Saúde de Matosinhos, E. P. E. (506361390)","HIKMA FARMACEUTICA (PORTUGAL),LDA (502266791)","1.422,72 €",21-04-2018,30-05-2017,216 dias,"Portugal, Porto, Matosinhos",Artigo 259.º do Código dos Contratos Públicos,,,,,,1394106,CP 2015/64 - Medicamentos Diversos,FALSE
Fornecimento de hormonas e outros medicamentos usados no tratamento de doenças endocrinas ao abrigo do CPA 2015/007,Ao abrigo de acordo-quadro (art.º 259.º),Aquisição de bens móveis,"33600000-6, Produtos farmacêuticos","Unidade Local de Saúde de Matosinhos, E. P. E. (506361390)","Sanofi Produtos Farmaceuticos, Lda (500134960)","11.237,76 €",21-04-2018,24-07-2017,332 dias,"Portugal, Porto, Matosinhos",Artigo 259.º do Código dos Contratos Públicos,,,,,,1415640,CP 2015/7 - ACORDO QUADRO PARA FORNECIMENTO DE HORMONAS E OUTROS MEDICAMENTOS USADOS NO TRATAMENTO DAS DOENÇAS ENDÓCRINAS ÀS INSTITUIÇÕES E SERVIÇOS DO SERVIÇO NACIONAL DE SAÚDE,FALSE
Procedimento 621/2017 - Medicamentos do aparelho digestivo ao abrigo CPA2016/14,Ao abrigo de acordo-quadro (art.º 259.º),Aquisição de bens móveis,"33600000-6, Produtos farmacêuticos","Unidade Local de Saúde de Matosinhos, E. P. E. (506361390)","LABORATORIOS VITORIA, SA (500162220)","125,41 €",21-04-2018,06-11-2017,67 dias,"Portugal, Porto, Matosinhos",Artigo 259.º do Código dos Contratos Públicos,,,,,,2222779,Medicamentos do aparelho digestivo,FALSE
Fornecimento de hormonas e outros medicamentos usados no tratamento de doenças endocrinas ao abrido do CPA 2015/007,Ao abrigo de acordo-quadro (art.º 259.º),Aquisição de bens móveis,"33600000-6, Produtos farmacêuticos","Unidade Local de Saúde de Matosinhos, E. P. E. (506361390)","Labesfal - Laboratórios Almiro, S.A. (501169580)","1.153,79 €",21-04-2018,24-07-2017,332 dias,"Portugal, Porto, Matosinhos",Artigo 259.º do Código dos Contratos Públicos,,,,,,1415640,CP 2015/7 - ACORDO QUADRO PARA FORNECIMENTO DE HORMONAS E OUTROS MEDICAMENTOS USADOS NO TRATAMENTO DAS DOENÇAS ENDÓCRINAS ÀS INSTITUIÇÕES E SERVIÇOS DO SERVIÇO NACIONAL DE SAÚDE,FALSE
Fornecimento de hormonas e outros medicamentos usados no tratamento de doenças endocrinas ao abrigo do CPA 2015/007,Ao abrigo de acordo-quadro (art.º 259.º),Aquisição de bens móveis,"33600000-6, Produtos farmacêuticos","Unidade Local de Saúde de Matosinhos, E. P. E. (506361390)","PHARMIS BIOFARMACEUTICA, LDA. (502595442)","2.500,68 €",21-04-2018,16-06-2017,23 dias,"Portugal, Porto, Matosinhos",Artigo 259.º do Código dos Contratos Públicos,,,,,,1415640,CP 2015/7 - ACORDO QUADRO PARA FORNECIMENTO DE HORMONAS E OUTROS MEDICAMENTOS USADOS NO TRATAMENTO DAS DOENÇAS ENDÓCRINAS ÀS INSTITUIÇÕES E SERVIÇOS DO SERVIÇO NACIONAL DE SAÚDE,FALSE
Fornecimento de hormonas e outros medicamentos usados no tratamento de doenças endócrinas ao abrigo do CPA 2015/007,Ao abrigo de acordo-quadro (art.º 259.º),Aquisição de bens móveis,"33600000-6, Produtos farmacêuticos","Unidade Local de Saúde de Matosinhos, E. P. E. (506361390)","SANDOZ FARMACÊUTICA, LDA. (506985261)","5,41 €",21-04-2018,19-06-2017,26 dias,"Portugal, Porto, Matosinhos",Artigo 259.º do Código dos Contratos Públicos,,,,,,1415640,CP 2015/7 - ACORDO QUADRO PARA FORNECIMENTO DE HORMONAS E OUTROS MEDICAMENTOS USADOS NO TRATAMENTO DAS DOENÇAS ENDÓCRINAS ÀS INSTITUIÇÕES E SERVIÇOS DO SERVIÇO NACIONAL DE SAÚDE,FALSE
Procedimento 630/2017 - Medicamentos antipsicóticos ao abrigo do CPA 2016/019,Ao abrigo de acordo-quadro (art.º 259.º),Aquisição de bens móveis,"33600000-6, Produtos farmacêuticos","Unidade Local de Saúde de Matosinhos, E. P. E. (506361390)","PHARMIS BIOFARMACEUTICA, LDA. (502595442)","3.091,11 €",21-04-2018,17-08-2017,153 dias,"Portugal, Porto, Matosinhos",Artigo 259.º do Código dos Contratos Públicos,,,,,,2356543,CP 2016/19 - Medicamentos Antipsicóticos,FALSE
Fornecimento de hormonas e outras medicamentos usados no tratamento de doenças endócrinas ao abrigo do CPA 2015/007,Ao abrigo de acordo-quadro (art.º 259.º),Aquisição de bens móveis,"33600000-6, Produtos farmacêuticos","Unidade Local de Saúde de Matosinhos, E. P. E. (506361390)","DLA  Farmacêutica, SA  (507474287)","10,44 €",21-04-2018,19-06-2017,26 dias,"Portugal, Porto, Matosinhos",Artigo 259.º do Código dos Contratos Públicos,,,,,,1415640,CP 2015/7 - ACORDO QUADRO PARA FORNECIMENTO DE HORMONAS E OUTROS MEDICAMENTOS USADOS NO TRATAMENTO DAS DOENÇAS ENDÓCRINAS ÀS INSTITUIÇÕES E SERVIÇOS DO SERVIÇO NACIONAL DE SAÚDE,FALSE
Fornecimento de hormonas e outros medicamentos usados no tratamento de doenças endócrinas ao abrigo do CPA 2015/007,Ao abrigo de acordo-quadro (art.º 259.º),Aquisição de bens móveis,"33600000-6, Produtos farmacêuticos","Unidade Local de Saúde de Matosinhos, E. P. E. (506361390)","LABORATORIOS PFIZER, S.A. (500162166)","16.802,89 €",21-04-2018,01-06-2017,8 dias,"Portugal, Porto, Matosinhos",Artigo 259.º do Código dos Contratos Públicos,,,,,,1415640,CP 2015/7 - ACORDO QUADRO PARA FORNECIMENTO DE HORMONAS E OUTROS MEDICAMENTOS USADOS NO TRATAMENTO DAS DOENÇAS ENDÓCRINAS ÀS INSTITUIÇÕES E SERVIÇOS DO SERVIÇO NACIONAL DE SAÚDE,FALSE
Fornecimento de hormonas e outros medicamentos usados no tratamento de doenças endócrinas ao abrigo do CPA 2015/007,Ao abrigo de acordo-quadro (art.º 259.º),Aquisição de bens móveis,"33600000-6, Produtos farmacêuticos","Unidade Local de Saúde de Matosinhos, E. P. E. (506361390)","RATIOPHARM,LDA (502414910)","212,84 €",21-04-2018,27-06-2017,34 dias,"Portugal, Porto, Matosinhos",Artigo 259.º do Código dos Contratos Públicos,,,,,,1415640,CP 2015/7 - ACORDO QUADRO PARA FORNECIMENTO DE HORMONAS E OUTROS MEDICAMENTOS USADOS NO TRATAMENTO DAS DOENÇAS ENDÓCRINAS ÀS INSTITUIÇÕES E SERVIÇOS DO SERVIÇO NACIONAL DE SAÚDE,FALSE
PROC.634/2017 - MED. ANESTESICOS E RELAXANTES MUSCULARES,Ao abrigo de acordo-quadro (art.º 259.º),Aquisição de bens móveis,"33600000-6, Produtos farmacêuticos","Unidade Local de Saúde de Matosinhos, E. P. E. (506361390)",Fresenius Kabi Pharma Portugal Lda  (504293753),"1.733,76 €",21-04-2018,16-11-2017,46 dias,"Portugal, Porto, Matosinhos",Artigo 259.º do Código dos Contratos Públicos,,,,,,2211341,Medicamentos anestésicos e relaxantes musculares,FALSE
"Medicamentos do sistema nervoso cerebrospinal, exceto: anestésicos, relaxantes musculares, analgésicos, antipiréticos, antidepressores e antipsicóticos",Ao abrigo de acordo-quadro (art.º 259.º),Aquisição de bens móveis,"33600000-6, Produtos farmacêuticos","Unidade Local de Saúde de Matosinhos, E. P. E. (506361390)",U C B PHARMA - PROD FARMACEUTICOS (500291322),"5,21 €",21-04-2018,31-05-2017,215 dias,"Portugal, Porto, Matosinhos",Artigo 259.º do Código dos Contratos Públicos,,,,,,1179911,"CONCURSO PÚBLICO PARA A CELEBRAÇÃO DE CONTRATOS PÚBLICOS DE APROVISIONAMENTO PARA A ÁREA DA SAÚDE, MEDICAMENTOS DO SISTEMA NERVOSO CEREBROSPINAL, EXCETO: ANESTÉSICOS, RELAXANTES MUSCULARES, ANALGÉSICOS, ANTIPIRÉTICOS, ANTIDEPRESSORES E ANTIPSICÓTICOS, ÀS INSTITUIÇÕES E SERVIÇOS DO SERVIÇO NACIONAL DE SAÚDE",FALSE
"Medicamentos do sistema nervoso cerebrospinal, exceto: anestésicos, relaxantes musculares, analgésicos, antipiréticos, antidepressores e antipsicóticos",Ao abrigo de acordo-quadro (art.º 259.º),Aquisição de bens móveis,"33600000-6, Produtos farmacêuticos","Unidade Local de Saúde de Matosinhos, E. P. E. (506361390)",Tecnifar Industria Tecnica Farmaceutica SA (500280436),"465,70 €",21-04-2018,31-05-2017,215 dias,"Portugal, Porto, Matosinhos",Artigo 259.º do Código dos Contratos Públicos,,,,,,1179911,"CONCURSO PÚBLICO PARA A CELEBRAÇÃO DE CONTRATOS PÚBLICOS DE APROVISIONAMENTO PARA A ÁREA DA SAÚDE, MEDICAMENTOS DO SISTEMA NERVOSO CEREBROSPINAL, EXCETO: ANESTÉSICOS, RELAXANTES MUSCULARES, ANALGÉSICOS, ANTIPIRÉTICOS, ANTIDEPRESSORES E ANTIPSICÓTICOS, ÀS INSTITUIÇÕES E SERVIÇOS DO SERVIÇO NACIONAL DE SAÚDE",FALSE
PROC.634/2017-MED. ANESTESICOS E RELAXANTES MUSCULARES,Ao abrigo de acordo-quadro (art.º 259.º),Aquisição de bens móveis,"33600000-6, Produtos farmacêuticos","Unidade Local de Saúde de Matosinhos, E. P. E. (506361390)","KORANGI-PRODUTOS FARMACEUTICOS,LDA. (505322307)","1.963,26 €",21-04-2018,16-11-2017,46 dias,"Portugal, Porto, Matosinhos",Artigo 259.º do Código dos Contratos Públicos,,,,,,2211341,Medicamentos anestésicos e relaxantes musculares,FALSE
"Medicamentos do sistema nervoso cerebrospinal, exceto: anestésicos, relaxantes musculares, analgésicos, antipiréticos, antidepressores e antipsicóticos",Ao abrigo de acordo-quadro (art.º 259.º),Aquisição de bens móveis,"33600000-6, Produtos farmacêuticos","Unidade Local de Saúde de Matosinhos, E. P. E. (506361390)","Sanofi Produtos Farmaceuticos, Lda (500134960)","11.418,01 €",21-04-2018,31-05-2017,215 dias,"Portugal, Porto, Matosinhos",Artigo 259.º do Código dos Contratos Públicos,,,,,,1179911,"CONCURSO PÚBLICO PARA A CELEBRAÇÃO DE CONTRATOS PÚBLICOS DE APROVISIONAMENTO PARA A ÁREA DA SAÚDE, MEDICAMENTOS DO SISTEMA NERVOSO CEREBROSPINAL, EXCETO: ANESTÉSICOS, RELAXANTES MUSCULARES, ANALGÉSICOS, ANTIPIRÉTICOS, ANTIDEPRESSORES E ANTIPSICÓTICOS, ÀS INSTITUIÇÕES E SERVIÇOS DO SERVIÇO NACIONAL DE SAÚDE",FALSE
"Medicamentos do sistema nervoso cerebrospinal, exceto: anestésicos, relaxantes musculares, analgésicos, antipiréticos, antidepressores e antipsicóticos",Ao abrigo de acordo-quadro (art.º 259.º),Aquisição de bens móveis,"33600000-6, Produtos farmacêuticos","Unidade Local de Saúde de Matosinhos, E. P. E. (506361390)","SANDOZ FARMACÊUTICA, LDA. (506985261)","181,87 €",21-04-2018,31-05-2017,215 dias,"Portugal, Porto, Matosinhos",Artigo 259.º do Código dos Contratos Públicos,,,,,,1179911,"CONCURSO PÚBLICO PARA A CELEBRAÇÃO DE CONTRATOS PÚBLICOS DE APROVISIONAMENTO PARA A ÁREA DA SAÚDE, MEDICAMENTOS DO SISTEMA NERVOSO CEREBROSPINAL, EXCETO: ANESTÉSICOS, RELAXANTES MUSCULARES, ANALGÉSICOS, ANTIPIRÉTICOS, ANTIDEPRESSORES E ANTIPSICÓTICOS, ÀS INSTITUIÇÕES E SERVIÇOS DO SERVIÇO NACIONAL DE SAÚDE",FALSE
PROC 634/2017-MED. ANESTESICOS E RELAXANTES MUSCULARES,Ao abrigo de acordo-quadro (art.º 259.º),Aquisição de bens móveis,"33600000-6, Produtos farmacêuticos","Unidade Local de Saúde de Matosinhos, E. P. E. (506361390)",IPSEN PORTUGAL (502609800),"7.785,36 €",21-04-2018,16-11-2017,46 dias,"Portugal, Porto, Matosinhos",Artigo 259.º do Código dos Contratos Públicos,,,,,,2211341,Medicamentos anestésicos e relaxantes musculares,FALSE
Fornecimento de hormonas e outros medicamentos usados no tratamento de doenças endócrinas ao abrigo do CPA 2015/007,Ao abrigo de acordo-quadro (art.º 259.º),Aquisição de bens móveis,"33600000-6, Produtos farmacêuticos","Unidade Local de Saúde de Matosinhos, E. P. E. (506361390)","Novo Nordisk Comercio Produtos Farmaceuticos, Lda.  (501485210)","10.023,24 €",21-04-2018,19-06-2017,26 dias,"Portugal, Porto, Matosinhos",Artigo 259.º do Código dos Contratos Públicos,,,,,,1415640,CP 2015/7 - ACORDO QUADRO PARA FORNECIMENTO DE HORMONAS E OUTROS MEDICAMENTOS USADOS NO TRATAMENTO DAS DOENÇAS ENDÓCRINAS ÀS INSTITUIÇÕES E SERVIÇOS DO SERVIÇO NACIONAL DE SAÚDE,FALSE
"Medicamentos do sistema nervoso cerebrospinal, exceto: anestésicos, relaxantes musculares, analgésicos, antipiréticos, antidepressores e antipsicóticos",Ao abrigo de acordo-quadro (art.º 259.º),Aquisição de bens móveis,"33600000-6, Produtos farmacêuticos","Unidade Local de Saúde de Matosinhos, E. P. E. (506361390)","RATIOPHARM,LDA (502414910)","9,65 €",21-04-2018,31-05-2017,215 dias,"Portugal, Porto, Matosinhos",Artigo 259.º do Código dos Contratos Públicos,,,,,,1179911,"CONCURSO PÚBLICO PARA A CELEBRAÇÃO DE CONTRATOS PÚBLICOS DE APROVISIONAMENTO PARA A ÁREA DA SAÚDE, MEDICAMENTOS DO SISTEMA NERVOSO CEREBROSPINAL, EXCETO: ANESTÉSICOS, RELAXANTES MUSCULARES, ANALGÉSICOS, ANTIPIRÉTICOS, ANTIDEPRESSORES E ANTIPSICÓTICOS, ÀS INSTITUIÇÕES E SERVIÇOS DO SERVIÇO NACIONAL DE SAÚDE",FALSE
PROC. 634/2017-MEDIC. ANESTESICOS E RELAXANTES MUSCULARES,Ao abrigo de acordo-quadro (art.º 259.º),Aquisição de bens móveis,"33600000-6, Produtos farmacêuticos","Unidade Local de Saúde de Matosinhos, E. P. E. (506361390)","HIKMA FARMACEUTICA (PORTUGAL),LDA (502266791)","561,60 €",21-04-2018,16-11-2017,46 dias,"Portugal, Porto, Matosinhos",Artigo 259.º do Código dos Contratos Públicos,,,,,,2211341,Medicamentos anestésicos e relaxantes musculares,FALSE
"Medicamentos do sistema nervoso cerebrospinal, exceto: anestésicos, relaxantes musculares, analgésicos, antipiréticos, antidepressores e antipsicóticos",Ao abrigo de acordo-quadro (art.º 259.º),Aquisição de bens móveis,"33600000-6, Produtos farmacêuticos","Unidade Local de Saúde de Matosinhos, E. P. E. (506361390)","NOVARTIS FARMA-PRODUTOS FARMACEUTICOS, S.A (500063524)","15,02 €",21-04-2018,31-05-2017,215 dias,"Portugal, Porto, Matosinhos",Artigo 259.º do Código dos Contratos Públicos,,,,,,1179911,"CONCURSO PÚBLICO PARA A CELEBRAÇÃO DE CONTRATOS PÚBLICOS DE APROVISIONAMENTO PARA A ÁREA DA SAÚDE, MEDICAMENTOS DO SISTEMA NERVOSO CEREBROSPINAL, EXCETO: ANESTÉSICOS, RELAXANTES MUSCULARES, ANALGÉSICOS, ANTIPIRÉTICOS, ANTIDEPRESSORES E ANTIPSICÓTICOS, ÀS INSTITUIÇÕES E SERVIÇOS DO SERVIÇO NACIONAL DE SAÚDE",FALSE
"Medicamentos do sistema nervoso cerebrospinal, exceto: anestésicos, relaxantes musculares, analgésicos, antipiréticos, antidepressores e antipsicóticos",Ao abrigo de acordo-quadro (art.º 259.º),Aquisição de bens móveis,"33600000-6, Produtos farmacêuticos","Unidade Local de Saúde de Matosinhos, E. P. E. (506361390)","Merck Sharp & Dohme, Lda (500191360)","1.206,61 €",21-04-2018,31-05-2017,215 dias,"Portugal, Porto, Matosinhos",Artigo 259.º do Código dos Contratos Públicos,,,,,,1179911,"CONCURSO PÚBLICO PARA A CELEBRAÇÃO DE CONTRATOS PÚBLICOS DE APROVISIONAMENTO PARA A ÁREA DA SAÚDE, MEDICAMENTOS DO SISTEMA NERVOSO CEREBROSPINAL, EXCETO: ANESTÉSICOS, RELAXANTES MUSCULARES, ANALGÉSICOS, ANTIPIRÉTICOS, ANTIDEPRESSORES E ANTIPSICÓTICOS, ÀS INSTITUIÇÕES E SERVIÇOS DO SERVIÇO NACIONAL DE SAÚDE",FALSE
"Medicamentos do sistema nervoso cerebrospinal, exceto: anestésicos, relaxantes musculares, analgésicos, antipiréticos, antidepressores e antipsicóticos",Ao abrigo de acordo-quadro (art.º 259.º),Aquisição de bens móveis,"33600000-6, Produtos farmacêuticos","Unidade Local de Saúde de Matosinhos, E. P. E. (506361390)","LAB. MEDINFAR, SA. (500384045)","73,73 €",21-04-2018,31-05-2017,215 dias,"Portugal, Porto, Matosinhos",Artigo 259.º do Código dos Contratos Públicos,,,,,,1179911,"CONCURSO PÚBLICO PARA A CELEBRAÇÃO DE CONTRATOS PÚBLICOS DE APROVISIONAMENTO PARA A ÁREA DA SAÚDE, MEDICAMENTOS DO SISTEMA NERVOSO CEREBROSPINAL, EXCETO: ANESTÉSICOS, RELAXANTES MUSCULARES, ANALGÉSICOS, ANTIPIRÉTICOS, ANTIDEPRESSORES E ANTIPSICÓTICOS, ÀS INSTITUIÇÕES E SERVIÇOS DO SERVIÇO NACIONAL DE SAÚDE",FALSE
PROC 634/2017-MEDICAMENTOS ANESTESICOS E RELAXANTES MUSCULARES,Ao abrigo de acordo-quadro (art.º 259.º),Aquisição de bens móveis,"33600000-6, Produtos farmacêuticos","Unidade Local de Saúde de Matosinhos, E. P. E. (506361390)","GENERIS-FARMACEUTICA, S.A. (508107997)","70,87 €",21-04-2018,16-11-2017,46 dias,"Portugal, Porto, Matosinhos",Artigo 259.º do Código dos Contratos Públicos,,,,,,2211341,Medicamentos anestésicos e relaxantes musculares,FALSE
"Medicamentos do sistema nervoso cerebrospinal, exceto: anestésicos, relaxantes musculares, analgésicos, antipiréticos, antidepressores e antipsicóticos",Ao abrigo de acordo-quadro (art.º 259.º),Aquisição de bens móveis,"33600000-6, Produtos farmacêuticos","Unidade Local de Saúde de Matosinhos, E. P. E. (506361390)",LUSOMEDICAMENTA (507150473),"2,21 €",21-04-2018,31-05-2017,215 dias,"Portugal, Porto, Matosinhos",Artigo 259.º do Código dos Contratos Públicos,,,,,,1179911,"CONCURSO PÚBLICO PARA A CELEBRAÇÃO DE CONTRATOS PÚBLICOS DE APROVISIONAMENTO PARA A ÁREA DA SAÚDE, MEDICAMENTOS DO SISTEMA NERVOSO CEREBROSPINAL, EXCETO: ANESTÉSICOS, RELAXANTES MUSCULARES, ANALGÉSICOS, ANTIPIRÉTICOS, ANTIDEPRESSORES E ANTIPSICÓTICOS, ÀS INSTITUIÇÕES E SERVIÇOS DO SERVIÇO NACIONAL DE SAÚDE",FALSE
Fornecimento de hormonas e outros medicamentos usados no tratamento de doenças endócrinas ao abrigo do CPA 2015/007,Ao abrigo de acordo-quadro (art.º 259.º),Aquisição de bens móveis,"33600000-6, Produtos farmacêuticos","Unidade Local de Saúde de Matosinhos, E. P. E. (506361390)","Merck Sharp & Dohme, Lda (500191360)","134,78 €",21-04-2018,13-12-2017,203 dias,"Portugal, Porto, Matosinhos",Artigo 259.º do Código dos Contratos Públicos,,,,,,1415640,CP 2015/7 - ACORDO QUADRO PARA FORNECIMENTO DE HORMONAS E OUTROS MEDICAMENTOS USADOS NO TRATAMENTO DAS DOENÇAS ENDÓCRINAS ÀS INSTITUIÇÕES E SERVIÇOS DO SERVIÇO NACIONAL DE SAÚDE,FALSE
"Medicamentos do sistema nervoso cerebrospinal, exceto: anestésicos, relaxantes musculares, analgésicos, antipiréticos, antidepressores e antipsicóticos",Ao abrigo de acordo-quadro (art.º 259.º),Aquisição de bens móveis,"33600000-6, Produtos farmacêuticos","Unidade Local de Saúde de Matosinhos, E. P. E. (506361390)","Labesfal - Laboratórios Almiro, S.A. (501169580)","2.153,83 €",21-04-2018,31-05-2017,215 dias,"Portugal, Porto, Matosinhos",Artigo 259.º do Código dos Contratos Públicos,,,,,,1179911,"CONCURSO PÚBLICO PARA A CELEBRAÇÃO DE CONTRATOS PÚBLICOS DE APROVISIONAMENTO PARA A ÁREA DA SAÚDE, MEDICAMENTOS DO SISTEMA NERVOSO CEREBROSPINAL, EXCETO: ANESTÉSICOS, RELAXANTES MUSCULARES, ANALGÉSICOS, ANTIPIRÉTICOS, ANTIDEPRESSORES E ANTIPSICÓTICOS, ÀS INSTITUIÇÕES E SERVIÇOS DO SERVIÇO NACIONAL DE SAÚDE",FALSE
"Medicamentos do sistema nervoso cerebrospinal, exceto: anestésicos, relaxantes musculares, analgésicos, antipiréticos, antidepressores e antipsicóticos",Ao abrigo de acordo-quadro (art.º 259.º),Aquisição de bens móveis,"33600000-6, Produtos farmacêuticos","Unidade Local de Saúde de Matosinhos, E. P. E. (506361390)","HIKMA FARMACEUTICA (PORTUGAL),LDA (502266791)","2.877,00 €",21-04-2018,31-05-2017,215 dias,"Portugal, Porto, Matosinhos",Artigo 259.º do Código dos Contratos Públicos,,,,,,1179911,"CONCURSO PÚBLICO PARA A CELEBRAÇÃO DE CONTRATOS PÚBLICOS DE APROVISIONAMENTO PARA A ÁREA DA SAÚDE, MEDICAMENTOS DO SISTEMA NERVOSO CEREBROSPINAL, EXCETO: ANESTÉSICOS, RELAXANTES MUSCULARES, ANALGÉSICOS, ANTIPIRÉTICOS, ANTIDEPRESSORES E ANTIPSICÓTICOS, ÀS INSTITUIÇÕES E SERVIÇOS DO SERVIÇO NACIONAL DE SAÚDE",FALSE
PROC.634/2017-MEDICAMENTOS ANESTESICOS E RELAXANTES MUSCULARES,Ao abrigo de acordo-quadro (art.º 259.º),Aquisição de bens móveis,"33600000-6, Produtos farmacêuticos","Unidade Local de Saúde de Matosinhos, E. P. E. (506361390)",OverPharma (505792362),"157,50 €",21-04-2018,16-11-2017,46 dias,"Portugal, Porto, Matosinhos",Artigo 259.º do Código dos Contratos Públicos,,,,,,2211341,Medicamentos anestésicos e relaxantes musculares,FALSE
"Medicamentos do sistema nervoso cerebrospinal, exceto: anestésicos, relaxantes musculares, analgésicos, antipiréticos, antidepressores e antipsicóticos",Ao abrigo de acordo-quadro (art.º 259.º),Aquisição de bens móveis,"33600000-6, Produtos farmacêuticos","Unidade Local de Saúde de Matosinhos, E. P. E. (506361390)","GLAXOSMITHKLINE PRODUTOS FARMACEUTICOS, LDA (500139962)","13,72 €",21-04-2018,31-05-2017,215 dias,"Portugal, Porto, Matosinhos",Artigo 259.º do Código dos Contratos Públicos,,,,,,1179911,"CONCURSO PÚBLICO PARA A CELEBRAÇÃO DE CONTRATOS PÚBLICOS DE APROVISIONAMENTO PARA A ÁREA DA SAÚDE, MEDICAMENTOS DO SISTEMA NERVOSO CEREBROSPINAL, EXCETO: ANESTÉSICOS, RELAXANTES MUSCULARES, ANALGÉSICOS, ANTIPIRÉTICOS, ANTIDEPRESSORES E ANTIPSICÓTICOS, ÀS INSTITUIÇÕES E SERVIÇOS DO SERVIÇO NACIONAL DE SAÚDE",FALSE
"Medicamentos do sistema nervoso cerebrospinal, exceto: anestésicos, relaxantes musculares, analgésicos, antipiréticos, antidepressores e antipsicóticos",Ao abrigo de acordo-quadro (art.º 259.º),Aquisição de bens móveis,"33600000-6, Produtos farmacêuticos","Unidade Local de Saúde de Matosinhos, E. P. E. (506361390)","GENERIS-FARMACEUTICA, S.A. (508107997)","561,16 €",21-04-2018,31-05-2017,215 dias,"Portugal, Porto, Matosinhos",Artigo 259.º do Código dos Contratos Públicos,,,,,,1179911,"CONCURSO PÚBLICO PARA A CELEBRAÇÃO DE CONTRATOS PÚBLICOS DE APROVISIONAMENTO PARA A ÁREA DA SAÚDE, MEDICAMENTOS DO SISTEMA NERVOSO CEREBROSPINAL, EXCETO: ANESTÉSICOS, RELAXANTES MUSCULARES, ANALGÉSICOS, ANTIPIRÉTICOS, ANTIDEPRESSORES E ANTIPSICÓTICOS, ÀS INSTITUIÇÕES E SERVIÇOS DO SERVIÇO NACIONAL DE SAÚDE",FALSE
"Medicamentos do sistema nervoso cerebrospinal, exceto: anestésicos, relaxantes musculares, analgésicos, antipiréticos, antidepressores e antipsicóticos",Ao abrigo de acordo-quadro (art.º 259.º),Aquisição de bens móveis,"33600000-6, Produtos farmacêuticos","Unidade Local de Saúde de Matosinhos, E. P. E. (506361390)",TECNIMED- SOCIEDADE TECNICO MEDICINAL S.A. (500626413),"449,06 €",21-04-2018,31-05-2017,215 dias,"Portugal, Porto, Matosinhos",Artigo 259.º do Código dos Contratos Públicos,,,,,,1179911,"CONCURSO PÚBLICO PARA A CELEBRAÇÃO DE CONTRATOS PÚBLICOS DE APROVISIONAMENTO PARA A ÁREA DA SAÚDE, MEDICAMENTOS DO SISTEMA NERVOSO CEREBROSPINAL, EXCETO: ANESTÉSICOS, RELAXANTES MUSCULARES, ANALGÉSICOS, ANTIPIRÉTICOS, ANTIDEPRESSORES E ANTIPSICÓTICOS, ÀS INSTITUIÇÕES E SERVIÇOS DO SERVIÇO NACIONAL DE SAÚDE",FALSE
Fornecimento de hormonas e outros medicamentos usados no tratamento de doenças endocrinas ao abrigo do CPA 2015/007,Ao abrigo de acordo-quadro (art.º 259.º),Aquisição de bens móveis,"33600000-6, Produtos farmacêuticos","Unidade Local de Saúde de Matosinhos, E. P. E. (506361390)","GENERIS-FARMACEUTICA, S.A. (508107997)","16.305,53 €",21-04-2018,25-05-2017,20 dias,"Portugal, Porto, Matosinhos",Artigo 259.º do Código dos Contratos Públicos,,,,,,1415640,CP 2015/7 - ACORDO QUADRO PARA FORNECIMENTO DE HORMONAS E OUTROS MEDICAMENTOS USADOS NO TRATAMENTO DAS DOENÇAS ENDÓCRINAS ÀS INSTITUIÇÕES E SERVIÇOS DO SERVIÇO NACIONAL DE SAÚDE,FALSE
"Medicamentos do sistema nervoso cerebrospinal, exceto: anestésicos, relaxantes musculares, analgésicos, antipiréticos, antidepressores e antipsicóticos",Ao abrigo de acordo-quadro (art.º 259.º),Aquisição de bens móveis,"33600000-6, Produtos farmacêuticos","Unidade Local de Saúde de Matosinhos, E. P. E. (506361390)","DLA  Farmacêutica, SA  (507474287)","1,94 €",21-04-2018,31-05-2017,215 dias,"Portugal, Porto, Matosinhos",Artigo 259.º do Código dos Contratos Públicos,,,,,,1179911,"CONCURSO PÚBLICO PARA A CELEBRAÇÃO DE CONTRATOS PÚBLICOS DE APROVISIONAMENTO PARA A ÁREA DA SAÚDE, MEDICAMENTOS DO SISTEMA NERVOSO CEREBROSPINAL, EXCETO: ANESTÉSICOS, RELAXANTES MUSCULARES, ANALGÉSICOS, ANTIPIRÉTICOS, ANTIDEPRESSORES E ANTIPSICÓTICOS, ÀS INSTITUIÇÕES E SERVIÇOS DO SERVIÇO NACIONAL DE SAÚDE",FALSE
"Medicamentos do sistema nervoso cerebrospinal, exceto: anestésicos, relaxantes musculares, analgésicos, antipiréticos, antidepressores e antipsicóticos",Ao abrigo de acordo-quadro (art.º 259.º),Aquisição de bens móveis,"33600000-6, Produtos farmacêuticos","Unidade Local de Saúde de Matosinhos, E. P. E. (506361390)",LABORATORIOS BIAL (500220913),"4,15 €",21-04-2018,31-05-2017,215 dias,"Portugal, Porto, Matosinhos",Artigo 259.º do Código dos Contratos Públicos,,,,,,1179911,"CONCURSO PÚBLICO PARA A CELEBRAÇÃO DE CONTRATOS PÚBLICOS DE APROVISIONAMENTO PARA A ÁREA DA SAÚDE, MEDICAMENTOS DO SISTEMA NERVOSO CEREBROSPINAL, EXCETO: ANESTÉSICOS, RELAXANTES MUSCULARES, ANALGÉSICOS, ANTIPIRÉTICOS, ANTIDEPRESSORES E ANTIPSICÓTICOS, ÀS INSTITUIÇÕES E SERVIÇOS DO SERVIÇO NACIONAL DE SAÚDE",FALSE
"Medicamentos do sistema nervoso cerebrospinal, exceto: anestésicos, relaxantes musculares, analgésicos, antipiréticos, antidepressores e antipsicóticos",Ao abrigo de acordo-quadro (art.º 259.º),Aquisição de bens móveis,"33600000-6, Produtos farmacêuticos","Unidade Local de Saúde de Matosinhos, E. P. E. (506361390)","AUROVITAS UNIPESSOAL, LDA (513053239)","46,80 €",21-04-2018,31-05-2017,215 dias,"Portugal, Porto, Matosinhos",Artigo 259.º do Código dos Contratos Públicos,,,,,,1179911,"CONCURSO PÚBLICO PARA A CELEBRAÇÃO DE CONTRATOS PÚBLICOS DE APROVISIONAMENTO PARA A ÁREA DA SAÚDE, MEDICAMENTOS DO SISTEMA NERVOSO CEREBROSPINAL, EXCETO: ANESTÉSICOS, RELAXANTES MUSCULARES, ANALGÉSICOS, ANTIPIRÉTICOS, ANTIDEPRESSORES E ANTIPSICÓTICOS, ÀS INSTITUIÇÕES E SERVIÇOS DO SERVIÇO NACIONAL DE SAÚDE",FALSE
"Medicamentos do sistema nervoso cerebrospinal, exceto: anestésicos, relaxantes musculares, analgésicos, antipiréticos, antidepressores e antipsicóticos",Ao abrigo de acordo-quadro (art.º 259.º),Aquisição de bens móveis,"33600000-6, Produtos farmacêuticos","Unidade Local de Saúde de Matosinhos, E. P. E. (506361390)","ACCORD HEALTHCARE, UNIPESSOAL, LDA (508622263)","4.521,00 €",21-04-2018,31-05-2017,215 dias,"Portugal, Porto, Matosinhos",Artigo 259.º do Código dos Contratos Públicos,,,,,,1179911,"CONCURSO PÚBLICO PARA A CELEBRAÇÃO DE CONTRATOS PÚBLICOS DE APROVISIONAMENTO PARA A ÁREA DA SAÚDE, MEDICAMENTOS DO SISTEMA NERVOSO CEREBROSPINAL, EXCETO: ANESTÉSICOS, RELAXANTES MUSCULARES, ANALGÉSICOS, ANTIPIRÉTICOS, ANTIDEPRESSORES E ANTIPSICÓTICOS, ÀS INSTITUIÇÕES E SERVIÇOS DO SERVIÇO NACIONAL DE SAÚDE",FALSE
