Objeto do Contrato,Tipo de Procedimento,Tipo(s) de Contrato,CPVs,Entidade(s) Adjudicante(s),Entidade(s) Adjudicatária(s),Preço Contratual,Data de Publicação,Data de Celebração do Contrato,Prazo de Execução,Local de Execução,Fundamentação,Data de Fecho do Contrato,Preço Total Efetivo,Causas das Alterações ao Prazo,Causas das Alterações ao Preço,Estado,N.º registo do Acordo Quadro,Descrição do Acordo Quadro,Procedimento Centralizado
"FORNECIMENTO DE ENERGIA ELETRICA EM BAIXA TENSÃO ESPECIAL, LOTE 1 DO AQ, À UNIDADE DE SAÚDE DE SÃO DOMINGOS DE RANA, ATÉ DEZEMBRO DE 2013.",Ajuste Direto Regime Geral,Aquisição de serviços,"65310000-9, Distribuição de electricidade","Administração Regional de Saúde de Lisboa e Vale do Tejo, I. P. (503148776)","EDP COMERCIAL - COMERCIALIZAÇÃO DE ENERGIA, SA (503504564)","18.255,20 €",11-10-2013,10-10-2013,214 dias,"Portugal, Lisboa, Cascais","Artigo 24.º, n.º 1, alínea e) do Código dos Contratos Públicos",,,,,,Não aplicável.,Não aplicável.,
Fornecimento de água para o ACES Médio Tejo.,Ajuste Direto Regime Geral,Aquisição de serviços,"65100000-4, Serviços de distribuição de água e serviços conexos","Administração Regional de Saúde de Lisboa e Vale do Tejo, I. P. (503148776)",MUNICIPIO DE FERREIRA DO ZEZERE (501216839),"1.938,13 €",11-10-2013,11-10-2013,180 dias,"Portugal, Santarém","Artigo 24.º, n.º 1, alínea e) do Código dos Contratos Públicos",,,,,,Não aplicável.,Não aplicável.,
Aquisição de Equipamento Clínico para o ACES Oeste Norte,Ajuste Direto Regime Geral,Aquisição de bens móveis,"33100000-1, Equipamento médico","Administração Regional de Saúde de Lisboa e Vale do Tejo, I. P. (503148776)",Paramédica (501393005),"13.430,00 €",10-10-2013,04-10-2013,30 dias,"Portugal, Leiria, Caldas da Rainha","Artigo 20.º, n.º 1, alínea a) do Código dos Contratos Públicos",,,,,,Não aplicável.,Não aplicável.,
Aquisição de 6.250 Vacinas Papilomavírus Humano,Ajuste Direto Regime Geral,Aquisição de bens móveis,"33651600-4, Vacinas","Administração Regional de Saúde de Lisboa e Vale do Tejo, I. P. (503148776)","Sanofi Pasteur MSD, S.A. (507632796)","186.875,00 €",10-10-2013,07-10-2013,20 dias,"Portugal, Lisboa","Artigo 26.º, n.º 1, alínea e) do Código dos Contratos Públicos",,,,,,Não aplicável.,Não aplicável.,
"Aluguer e Manutenção de Módulos Pré-Fabricados para as Unidades de Saúde Familiar da Administração Regional de Saúde de Lisboa e Vale do Tejo, IP ",Ajuste Direto Regime Geral,Aquisição de serviços,"65000000-3, Serviços públicos","Administração Regional de Saúde de Lisboa e Vale do Tejo, I. P. (503148776)","Algeco - Construção de Pré-Fabricados, S.A. (502721871)","343.564,62 €",10-10-2013,09-10-2013,365 dias,"Portugal, Lisboa","Artigo 24.º, n.º 1, alínea e) do Código dos Contratos Públicos",,,,,,Não aplicável.,Não aplicável.,
"Prestação de cuidados de técnicos de saúde para a área de influência da ARSLVT, IP por um período de 3 meses",Concurso público,Aquisição de serviços,"85100000-0, Serviços de saúde","Administração Regional de Saúde de Lisboa e Vale do Tejo, I.P. (503148776)","Medicsearch, S.A. (508080517)","52.279,50 €",09-10-2013,01-10-2013,90 dias,"Portugal, Lisboa","Artigo 155.º, alínea b) do Código dos Contratos Públicos",,,,,,Não aplicável.,Não aplicável.,
Aquisição de Gás a granel,Ajuste Direto Regime Geral,Aquisição de bens móveis,"09122100-1, Gás propano","Administração Regional de Saúde de Lisboa e Vale do Tejo, I. P. (503148776)","Petrogal - Petróleos de Portugal, S.A. (500697370)","8.126,16 €",08-10-2013,14-02-2013,320 dias,"Portugal, Leiria","Artigo 24.º, n.º 1, alínea e) do Código dos Contratos Públicos",,,,,,Não aplicável.,Não aplicável.,
Locação de garrafas e fornecimento de peças de oxigénio medicinal,Ajuste Direto Regime Geral,Locação de bens móveis,"24111900-4, Oxigénio","Administração Regional de Saúde de Lisboa e Vale do Tejo, I. P. (503148776)","Air Liquide Medicinal, S.A. (501576436)","14.526,96 €",08-10-2013,09-09-2013,139 dias,"Portugal, Leiria","Artigo 20.º, n.º 1, alínea a) do Código dos Contratos Públicos",,,,,,Não aplicável.,Não aplicável.,
Aquisição de Glutaraldeído para consulta do pé diabético do ACES Oeste Norte,Ajuste Direto Regime Geral,Aquisição de bens móveis,"24455000-8, Desinfectantes","Administração Regional de Saúde de Lisboa e Vale do Tejo, I. P. (503148776)","Air Liquide Medicinal, S.A. (501576436)","114,08 €",08-10-2013,03-07-2013,222 dias,"Portugal, Leiria","Artigo 26.º, n.º 1, alínea e) do Código dos Contratos Públicos",,,,,,Não aplicável.,Não aplicável.,
"Fornecimento de Energia Eléctrica para a Praceta Damião de Góis, nº8, em Santarém. CIL:0 068 395 275",Ajuste Direto Regime Geral,Aquisição de serviços,"65310000-9, Distribuição de electricidade","Administração Regional de Saúde de Lisboa e Vale do Tejo, I.P. (503148776)",EDP COMERCIAL  (503504564),"483,90 €",07-10-2013,01-10-2013,365 dias,"Portugal, Santarém","Artigo 24.º, n.º 1, alínea e) do Código dos Contratos Públicos",,,,,,Não aplicável.,Não aplicável.,
"FORNECIMENTO E INSTALAÇÃO DE SISTEMA DE AR CONDICIONADO E REMODELAÇÃO DOS QUADROS ELÉCTRICOS  DA USF ORIENTE, NO CENTRO DE SAÚDE DE ALTO DE S. JOÃO",Concurso público,Aquisição de bens móveis,"39717200-3, Aparelhos de ar condicionado","Administração Regional de Saúde de Lisboa e Vale do Tejo, I.P. (503148776)","TERMOSUL - Projectos E Instalações, S.A. (501255869)","82.498,80 €",07-10-2013,29-08-2013,75 dias,"Portugal, Lisboa, Lisboa","Artigo 20.º, n.º 1, alínea b) do Código dos Contratos Públicos",,,,,,Não aplicável.,Não aplicável.,
Empreitada de Adaptação do Edifício da Portaria do Centro de Saúde da Parede,Ajuste Direto Regime Geral,Empreitadas de obras públicas,"45113000-2, Obras no local","Administração Regional de Saúde de Lisboa e Vale do Tejo, I.P. (503148776)","API - Construções, S.A. (503411558)","19.031,00 €",04-10-2013,02-10-2013,30 dias,"Portugal, Lisboa, Cascais","Artigo 19.º, alínea a) do Código dos Contratos Públicos",,,,,,Não aplicável.,Não aplicável.,
Empreitada de Beneficiação do Piso 0 e da Cobertura da UCSP da Lapa,Ajuste Direto Regime Geral,Empreitadas de obras públicas,"45113000-2, Obras no local","Administração Regional de Saúde de Lisboa e Vale do Tejo, I.P. (503148776)","API - Construções, Lda (503411558)","48.999,05 €",04-10-2013,02-10-2013,60 dias,"Portugal, Lisboa, Lisboa","Artigo 19.º, alínea a) do Código dos Contratos Públicos",,,,,,Não aplicável.,Não aplicável.,
Aquisição de mobiliário de Escritório para a Unidade de Saúde Familiar Alma Mater,Ajuste Direto Regime Geral,Aquisição de bens móveis,"30190000-7, Equipamento e material de escritório diverso","Administração Regional de Saúde de Lisboa e Vale do Tejo, I.P. (503148776)","Julcar - Mobiliário Integrado, S.A. (501140263)","3.010,00 €",03-10-2013,03-10-2013,20 dias,"Portugal, Lisboa, Amadora",Artigo 258.º do Código dos Contratos Públicos,,,,,,1074255,Aquisição de mobiliário de Escritório para a Unidade de Saúde Familiar Alma Mater,
Aquisição Kits de detecção de droga na urina,Ajuste Direto Regime Geral,Aquisição de bens móveis,"33696000-5, Reagentes e meios de contraste","Administração Regional de Saúde de Lisboa e Vale do Tejo, I.P. (503148776)",Quilaban S.A. (500399670),"38.018,30 €",03-10-2013,12-09-2013,180 dias,"Portugal, Lisboa","Artigo 24.º, n.º 1, alínea b) do Código dos Contratos Públicos",,,,,,Não aplicável.,Não aplicável.,
INSCRIÇÃO DE PROFISSIONAIS NO CURSO DE ESPECIALIZAÇÃO DE SAÚDE PÚBLICA 2012/2013.,Ajuste Direto Regime Geral,Aquisição de serviços,"79632000-3, Serviços de formação de pessoal","Administração Regional de Saúde de Lisboa e Vale do Tejo, I.P. (503148776)",ESCOLA NACIONAL DE SAÚDE PÚBLICA (501399003),"22.250,00 €",02-10-2013,09-07-2013,380 dias,"Portugal, Lisboa, Lisboa","Artigo 20.º, n.º 1, alínea a) do Código dos Contratos Públicos",,,,,,Não aplicável.,Não aplicável.,
aquisição de pelicula transparente adesiva em poliuretano,Ajuste Direto Regime Geral,Aquisição de bens móveis,"33140000-3, Material médico de consumo","Administração Regional de Saúde de Lisboa e Vale do Tejo, I.P. (503148776)","Smith & Nephew, Lda. (503552461)","25.193,00 €",01-10-2013,27-09-2013,19 dias,"Portugal, Lisboa","Artigo 26.º, n.º 1, alínea e) do Código dos Contratos Públicos",,,,,,Não aplicável.,Não aplicável.,
AQUISIÇÃO DE EQUIPAMENTO MÉDICO PARA A USF FLÔR DE LOTUS,Ajuste Direto Regime Geral,Aquisição de bens móveis,"33100000-1, Equipamento médico","Administração Regional de Saúde de Lisboa e Vale do Tejo, I.P. (503148776)","ELNOR-EQUIPAMENTOS TECNICOS E DE LABORATORIO, S.A. (500094403)","9.246,00 €",01-10-2013,01-10-2013,30 dias,"Portugal, Lisboa, Sintra","Artigo 20.º, n.º 1, alínea a) do Código dos Contratos Públicos",,,,,,Não aplicável.,Não aplicável.,
Fornecimento de água para 2013.,Ajuste Direto Regime Geral,Aquisição de serviços,"65100000-4, Serviços de distribuição de água e serviços conexos","Administração Regional de Saúde de Lisboa e Vale do Tejo, I.P. (503148776)","AR - ÁGUAS DO RIBATEJO, EM, SA (508345464)","3.918,90 €",01-10-2013,01-10-2013,180 dias,"Portugal, Santarém","Artigo 24.º, n.º 1, alínea e) do Código dos Contratos Públicos",,,,,,Não aplicável.,Não aplicável.,
Fornecimento de água - ACES de Cascais e Eixo Oeiras/Cascais/Parede.,Ajuste Direto Regime Geral,Aquisição de serviços,"65100000-4, Serviços de distribuição de água e serviços conexos","Administração Regional de Saúde de Lisboa e Vale do Tejo, I.P. (503148776)",ÁGUAS DE CASCAIS (505124289),"554,88 €",01-10-2013,01-10-2013,180 dias,"Portugal, Lisboa","Artigo 24.º, n.º 1, alínea e) do Código dos Contratos Públicos",,,,,,Não aplicável.,Não aplicável.,
