Objeto do Contrato,Tipo de Procedimento,Tipo(s) de Contrato,CPVs,Entidade(s) Adjudicante(s),Entidade(s) Adjudicatária(s),Preço Contratual,Data de Publicação,Data de Celebração do Contrato,Prazo de Execução,Local de Execução,Fundamentação,Data de Fecho do Contrato,Preço Total Efetivo,Causas das Alterações ao Prazo,Causas das Alterações ao Preço,Estado,N.º registo do Acordo Quadro,Descrição do Acordo Quadro,Procedimento Centralizado
Aquisição de computadores. Processo 16000112,Ajuste Direto Regime Geral,Aquisição de bens móveis,"30213300-8, Computadores de secretária (desktop computers)","Administração Regional de Saúde do Norte,IP (ARSN) (503135593)","Iten Solutions, SA (510728189)","9.893,50 €",11-05-2016,15-03-2016,66 dias,"Portugal, Porto, Porto","Artigo 20.º, n.º 1, alínea a) do Código dos Contratos Públicos",31-03-2016,"9.893,50 €",,,,Não aplicável.,Não aplicável.,FALSE
Serviços de manutenção aos equipamentos de raios X,Ajuste Direto Regime Geral,Aquisição de serviços,"50421200-4, Serviços de reparação e manutenção de equipamentos de raios X","Administração Regional de Saúde do Norte,IP (ARSN) (503135593)","Philips Portuguesa, S.A. (500216843)","112.862,40 €",06-05-2016,16-04-2015,365 dias,"Portugal, Vila Real, Vila Pouca de Aguiar<BR/>Portugal, Braga, Braga<BR/>Portugal, Vila Real, Vila Real<BR/>Portugal, Porto, Vila Nova de Gaia<BR/>Portugal, Braga, Barcelos<BR/>Portugal, Porto, Porto<BR/>Portugal, Aveiro, Arouca","Artigo 24.º, n.º 1, alínea e) do Código dos Contratos Públicos",07-12-2015,"112.862,40 €",,,,Não aplicável.,Não aplicável.,FALSE
