Objeto do Contrato,Tipo de Procedimento,Tipo(s) de Contrato,CPVs,Entidade(s) Adjudicante(s),Entidade(s) Adjudicatária(s),Preço Contratual,Data de Publicação,Data de Celebração do Contrato,Prazo de Execução,Local de Execução,Fundamentação,Data de Fecho do Contrato,Preço Total Efetivo,Causas das Alterações ao Prazo,Causas das Alterações ao Preço,Estado,N.º registo do Acordo Quadro,Descrição do Acordo Quadro,Procedimento Centralizado
"CP 42-2018 - Aquisição de material de conservação e conservação de Cromatografia, Espetrometria, Potenciometria, Microscopia e outros acessórios e consumíveis de equipamento",Concurso público,Aquisição de bens móveis,"33140000-3, Material médico de consumo","Instituto Nacional de Saúde Doutor Ricardo Jorge, I. P. (501427511)","LABORSPIRIT, LDA. (507485149)","803,55 €",28-12-2018,10-08-2018,152 dias,Portugal,"Artigo 20.º, n.º 1, alínea a) do Código dos Contratos Públicos","","",,,,Não aplicável.,Não aplicável.,FALSE
"CP 42-2018 - Aquisição de material de conservação e conservação de Cromatografia, Espetrometria, Potenciometria, Microscopia e outros acessórios e consumíveis de equipamento",Concurso público,Aquisição de bens móveis,"33140000-3, Material médico de consumo","Instituto Nacional de Saúde Doutor Ricardo Jorge, I. P. (501427511)","ILC - INSTRUMENTOS DE LABORATÓRIOS E CIÊNTIFICOS, LDA. (500948208)","119,50 €",28-12-2018,10-08-2018,152 dias,Portugal,"Artigo 20.º, n.º 1, alínea a) do Código dos Contratos Públicos","","",,,,Não aplicável.,Não aplicável.,FALSE
"CP 42-2018 - Aquisição de material de conservação e conservação de Cromatografia, Espetrometria, Potenciometria, Microscopia e outros acessórios e consumíveis de equipamento",Concurso público,Aquisição de bens móveis,"33140000-3, Material médico de consumo","Instituto Nacional de Saúde Doutor Ricardo Jorge, I. P. (501427511)","IZASA  SCIENTIFIC, LDA (513252088)","1.114,05 €",28-12-2018,10-08-2018,152 dias,Portugal,"Artigo 20.º, n.º 1, alínea a) do Código dos Contratos Públicos","","",,,,Não aplicável.,Não aplicável.,FALSE
"CP 42-2018 - Aquisição de material de conservação e conservação de Cromatografia, Espetrometria, Potenciometria, Microscopia e outros acessórios e consumíveis de equipamento",Concurso público,Aquisição de bens móveis,"33140000-3, Material médico de consumo","Instituto Nacional de Saúde Doutor Ricardo Jorge, I. P. (501427511)","FRILABO, LDA           (507958861)","2.728,17 €",28-12-2018,10-08-2018,152 dias,Portugal,"Artigo 20.º, n.º 1, alínea a) do Código dos Contratos Públicos","","",,,,Não aplicável.,Não aplicável.,FALSE
"CP 42-2018 - Aquisição de material de conservação e conservação de Cromatografia, Espetrometria, Potenciometria, Microscopia e outros acessórios e consumíveis de equipamento",Concurso público,Aquisição de bens móveis,"33140000-3, Material médico de consumo","Instituto Nacional de Saúde Doutor Ricardo Jorge, I. P. (501427511)","Slategrey – Instrumentos de Controlo, Lda. (508507502)","818,00 €",28-12-2018,10-08-2018,152 dias,Portugal,"Artigo 20.º, n.º 1, alínea a) do Código dos Contratos Públicos","","",,,,Não aplicável.,Não aplicável.,FALSE
"CP 42-2018 - Aquisição de material de conservação e conservação de Cromatografia, Espetrometria, Potenciometria, Microscopia e outros acessórios e consumíveis de equipamento",Concurso público,Aquisição de bens móveis,"33140000-3, Material médico de consumo","Instituto Nacional de Saúde Doutor Ricardo Jorge, I. P. (501427511)","SOQUIMICA, LDA. (500274231)","483,10 €",28-12-2018,10-08-2018,152 dias,Portugal,"Artigo 20.º, n.º 1, alínea a) do Código dos Contratos Públicos","","",,,,Não aplicável.,Não aplicável.,FALSE
CP 43-2018 - Aquisição de Reagentes de NGS para a área de Microbiologia,Concurso público,Aquisição de bens móveis,"33696500-0, Reagentes de laboratório",Instituto Nacional de Saúde Dr.Ricardo Jorge(INSA) (501427511),PVL LDA. (501411852),"178,00 €",28-12-2018,23-08-2018,152 dias,Portugal,"Artigo 20.º, n.º 1, alínea a) do Código dos Contratos Públicos","","",,,,Não aplicável.,Não aplicável.,FALSE
CP 43-2018 - Aquisição de Reagentes de NGS para a área de Microbiologia,Concurso público,Aquisição de bens móveis,"33696500-0, Reagentes de laboratório",Instituto Nacional de Saúde Dr.Ricardo Jorge(INSA) (501427511),"VWR INTERNATIONAL, LDA. (503842770)","598,50 €",28-12-2018,23-08-2018,152 dias,Portugal,"Artigo 20.º, n.º 1, alínea a) do Código dos Contratos Públicos","","",,,,Não aplicável.,Não aplicável.,FALSE
CP 43-2018 - Aquisição de Reagentes de NGS para a área de Microbiologia,Concurso público,Aquisição de bens móveis,"33696500-0, Reagentes de laboratório",Instituto Nacional de Saúde Dr.Ricardo Jorge(INSA) (501427511),"ILC - INSTRUMENTOS DE LABORATÓRIOS E CIÊNTIFICOS, LDA. (500948208)","100.000,00 €",28-12-2018,03-09-2018,152 dias,Portugal,"Artigo 20.º, n.º 1, alínea a) do Código dos Contratos Públicos","","",,,,Não aplicável.,Não aplicável.,FALSE
CP 43-2018 - Aquisição de Reagentes de NGS para a área de Microbiologia,Concurso público,Aquisição de bens móveis,"33696500-0, Reagentes de laboratório",Instituto Nacional de Saúde Dr.Ricardo Jorge(INSA) (501427511),BIOPORTUGAL (502380543),"155,00 €",28-12-2018,23-08-2018,152 dias,Portugal,"Artigo 20.º, n.º 1, alínea a) do Código dos Contratos Públicos","","",,,,Não aplicável.,Não aplicável.,FALSE
"CP 41-2018 - Aquisição de material em Aço-Metal, Plástico e pequeno Equipamento",Concurso público,Aquisição de bens móveis,"33140000-3, Material médico de consumo","Instituto Nacional de Saúde Doutor Ricardo Jorge, I. P. (501427511)",Specanalitica - Equipamentos Científicos (507350871),"1.150,69 €",28-12-2018,09-11-2018,152 dias,Portugal,"Artigo 20.º, n.º 1, alínea a) do Código dos Contratos Públicos","","",,,,Não aplicável.,Não aplicável.,FALSE
"CP 41-2018 - Aquisição de material em Aço-Metal, Plástico e pequeno Equipamento",Concurso público,Aquisição de bens móveis,"33140000-3, Material médico de consumo","Instituto Nacional de Saúde Doutor Ricardo Jorge, I. P. (501427511)","SARSTEDT, SA (503019461)","4.823,70 €",28-12-2018,09-11-2018,152 dias,Portugal,"Artigo 20.º, n.º 1, alínea a) do Código dos Contratos Públicos","","",,,,Não aplicável.,Não aplicável.,FALSE
"CP 41-2018 - Aquisição de material em Aço-Metal, Plástico e pequeno Equipamento",Concurso público,Aquisição de bens móveis,"33140000-3, Material médico de consumo","Instituto Nacional de Saúde Doutor Ricardo Jorge, I. P. (501427511)","NORMAX - FÁBRICA DE VIDROS CIENTIFICOS, LDA         (500203130)","313,60 €",28-12-2018,09-11-2018,152 dias,Portugal,"Artigo 20.º, n.º 1, alínea a) do Código dos Contratos Públicos","","",,,,Não aplicável.,Não aplicável.,FALSE
"CP 41-2018 - Aquisição de material em Aço-Metal, Plástico e pequeno Equipamento",Concurso público,Aquisição de bens móveis,"33140000-3, Material médico de consumo","Instituto Nacional de Saúde Doutor Ricardo Jorge, I. P. (501427511)","VWR INTERNATIONAL, LDA. (503842770)","964,40 €",28-12-2018,09-11-2018,152 dias,Portugal,"Artigo 20.º, n.º 1, alínea a) do Código dos Contratos Públicos","","",,,,Não aplicável.,Não aplicável.,FALSE
"CP 41-2018 - Aquisição de material em Aço-Metal, Plástico e pequeno Equipamento",Concurso público,Aquisição de bens móveis,"33140000-3, Material médico de consumo","Instituto Nacional de Saúde Doutor Ricardo Jorge, I. P. (501427511)","FRILABO, LDA           (507958861)","5.783,92 €",28-12-2018,09-11-2018,152 dias,Portugal,"Artigo 20.º, n.º 1, alínea a) do Código dos Contratos Públicos","","",,,,Não aplicável.,Não aplicável.,FALSE
"20180026 - Aquisição de serviços para a área de comunicação, Imagem marketing e relações públicas",Consulta Prévia,Aquisição de serviços,"79416000-3, Serviços de relações públicas","Instituto Nacional de Saúde Doutor Ricardo Jorge, I. P. (501427511)","Narrativa Protagonista Unipessoal, Lda (510584594)","24.000,00 €",28-12-2018,16-03-2018,247 dias,"Portugal, Lisboa, Lisboa","Artigo 20.º, n.º 1, alínea c) do Código dos Contratos Públicos","","",,,,Não aplicável.,Não aplicável.,FALSE
20180630 - Aquisição de arcas verticais,Ajuste Direto Regime Geral,Aquisição de bens móveis,"39711121-3, Arcas frigoríficas","Instituto Nacional de Saúde Doutor Ricardo Jorge, I. P. (501427511)",DYNAMIC MR (510757774),"3.930,00 €",28-12-2018,17-12-2018,14 dias,Portugal,"Artigo 20.º, n.º 1, alínea d) do Código dos Contratos Públicos","","",,,,Não aplicável.,Não aplicável.,FALSE
Aquisição de reagentes - Extrator de DNA,Ajuste Direto Regime Geral,Locação de bens móveis,"33696500-0, Reagentes de laboratório","Instituto Nacional de Saúde Doutor Ricardo Jorge, IP (501427511)","Roche S. Diagnósticos, Lda (504282921)","27.700,00 €",28-12-2018,10-12-2018,21 dias,Portugal,"Artigo 24.º, n.º 1, alínea e), subalínea iii) do Código dos Contratos Públicos",26-12-2018,"27.700,00 €",,,,Não aplicável.,Não aplicável.,FALSE
20180201 - Aquisição de sondas,Consulta Prévia,Aquisição de bens móveis,"33696500-0, Reagentes de laboratório","Instituto Nacional de Saúde Doutor Ricardo Jorge, I. P. (501427511)","Roche S. Diagnósticos, Lda (504282921)","4.570,00 €",27-12-2018,22-05-2018,60 dias,"Portugal, Lisboa, Lisboa","Artigo 20.º, n.º 1, alínea c) do Código dos Contratos Públicos",16-10-2018,"4.570,00 €",,,,Não aplicável.,Não aplicável.,FALSE
CP 39-2018 Material de Colheitas,Concurso público,Aquisição de bens móveis,"33140000-3, Material médico de consumo",Instituto Nacional de Saúde Dr.Ricardo Jorge(INSA) (501427511),"BECTON DICKINSON PORTUGAL UNIPESSOAL, LDA (514239743)","2.016,00 €",27-12-2018,22-08-2018,183 dias,Portugal,"Artigo 20.º, n.º 1, alínea a) do Código dos Contratos Públicos","","",,,,Não aplicável.,Não aplicável.,FALSE
CP 39-2018 Material de Colheitas,Concurso público,Aquisição de bens móveis,"33140000-3, Material médico de consumo",Instituto Nacional de Saúde Dr.Ricardo Jorge(INSA) (501427511),FRILABO II LDA (507958861),"757,20 €",27-12-2018,22-08-2018,183 dias,Portugal,"Artigo 20.º, n.º 1, alínea a) do Código dos Contratos Públicos","","",,,,Não aplicável.,Não aplicável.,FALSE
CP 39-2018 Material de Colheitas,Concurso público,Aquisição de bens móveis,"33140000-3, Material médico de consumo",Instituto Nacional de Saúde Dr.Ricardo Jorge(INSA) (501427511),"SARSTEDT, SA (503019461)","13.455,20 €",27-12-2018,27-08-2018,183 dias,Portugal,"Artigo 20.º, n.º 1, alínea a) do Código dos Contratos Públicos","","",,,,Não aplicável.,Não aplicável.,FALSE
CP 50-2018 - Equipamento laboratorial diverso,Concurso público,Aquisição de bens móveis,"38000000-5, Equipamento laboratorial, óptico e de precisão (exc. óculos)","Instituto Nacional de Saúde Doutor Ricardo Jorge, IP (501427511)",Specanalitica - Equipamentos Científicos (507350871),"6.600,00 €",27-12-2018,19-12-2018,40 dias,Portugal,"Artigo 20.º, n.º 1, alínea b) do Código dos Contratos Públicos","","",,,,Não aplicável.,Não aplicável.,FALSE
CP 50-2018 - Equipamento laboratorial diverso,Concurso público,Aquisição de bens móveis,"38000000-5, Equipamento laboratorial, óptico e de precisão (exc. óculos)","Instituto Nacional de Saúde Doutor Ricardo Jorge, IP (501427511)",Leica Microsistemas (500301921),"9.008,62 €",27-12-2018,13-12-2018,40 dias,Portugal,"Artigo 20.º, n.º 1, alínea b) do Código dos Contratos Públicos","","",,,,Não aplicável.,Não aplicável.,FALSE
CP 50-2018 - Equipamento laboratorial diverso,Concurso público,Aquisição de bens móveis,"38000000-5, Equipamento laboratorial, óptico e de precisão (exc. óculos)","Instituto Nacional de Saúde Doutor Ricardo Jorge, IP (501427511)","VWR INTERNATIONAL, LDA. (503842770)","5.347,00 €",27-12-2018,13-12-2018,40 dias,Portugal,"Artigo 20.º, n.º 1, alínea b) do Código dos Contratos Públicos","","",,,,Não aplicável.,Não aplicável.,FALSE
CP 50-2018 - Equipamento laboratorial diverso,Concurso público,Aquisição de bens móveis,"38000000-5, Equipamento laboratorial, óptico e de precisão (exc. óculos)","Instituto Nacional de Saúde Doutor Ricardo Jorge, IP (501427511)","ILC - INSTRUMENTOS DE LABORATÓRIOS E CIÊNTIFICOS, LDA. (500948208)","5.681,00 €",27-12-2018,13-12-2018,40 dias,Portugal,"Artigo 20.º, n.º 1, alínea b) do Código dos Contratos Públicos","","",,,,Não aplicável.,Não aplicável.,FALSE
"Aquisição de 27 lotes de material de laboratório diverso, para utilização no Instituto Nacional de Saúde Doutor Ricardo Jorge, I.P.",Consulta Prévia,Aquisição de bens móveis,"33124130-5, Material para diagnóstico","Instituto Nacional de Saúde Doutor Ricardo Jorge, IP (501427511)",Ambergo Lda (503741353),"720,00 €",27-12-2018,28-11-2018,33 dias,Portugal,"Artigo 20.º, n.º 1, alínea c) do Código dos Contratos Públicos","","",,,,Não aplicável.,Não aplicável.,FALSE
"Aquisição de 27 lotes de material de laboratório diverso, para utilização no Instituto Nacional de Saúde Doutor Ricardo Jorge, I.P.",Consulta Prévia,Aquisição de bens móveis,"33124130-5, Material para diagnóstico","Instituto Nacional de Saúde Doutor Ricardo Jorge, IP (501427511)","LABORSPIRIT, LDA. (507485149)","723,80 €",27-12-2018,28-11-2018,33 dias,Portugal,"Artigo 20.º, n.º 1, alínea c) do Código dos Contratos Públicos","","",,,,Não aplicável.,Não aplicável.,FALSE
"Aquisição de 27 lotes de material de laboratório diverso, para utilização no Instituto Nacional de Saúde Doutor Ricardo Jorge, I.P.",Consulta Prévia,Aquisição de bens móveis,"33124130-5, Material para diagnóstico","Instituto Nacional de Saúde Doutor Ricardo Jorge, IP (501427511)","Ultragene, Lda (508797527)","1.491,95 €",27-12-2018,28-11-2018,33 dias,Portugal,"Artigo 20.º, n.º 1, alínea c) do Código dos Contratos Públicos","","",,,,Não aplicável.,Não aplicável.,FALSE
"Aquisição de 27 lotes de material de laboratório diverso, para utilização no Instituto Nacional de Saúde Doutor Ricardo Jorge, I.P.",Consulta Prévia,Aquisição de bens móveis,"33124130-5, Material para diagnóstico","Instituto Nacional de Saúde Doutor Ricardo Jorge, IP (501427511)","IBERLAB & IMUNOREAGE, LDA. (503406694)","1.228,50 €",27-12-2018,28-11-2018,33 dias,Portugal,"Artigo 20.º, n.º 1, alínea c) do Código dos Contratos Públicos","","",,,,Não aplicável.,Não aplicável.,FALSE
CP 50-2018 - Equipamento laboratorial diverso,Concurso público,Aquisição de bens móveis,"38000000-5, Equipamento laboratorial, óptico e de precisão (exc. óculos)","Instituto Nacional de Saúde Doutor Ricardo Jorge, IP (501427511)","Type Solution, SA (508400317)","12.693,10 €",27-12-2018,13-12-2018,40 dias,Portugal,"Artigo 20.º, n.º 1, alínea b) do Código dos Contratos Públicos","","",,,,Não aplicável.,Não aplicável.,FALSE
CP 50-2018 - Equipamento laboratorial diverso,Concurso público,Aquisição de bens móveis,"38000000-5, Equipamento laboratorial, óptico e de precisão (exc. óculos)","Instituto Nacional de Saúde Doutor Ricardo Jorge, IP (501427511)","IZASA  SCIENTIFIC, LDA (513252088)","48.850,00 €",27-12-2018,13-12-2018,40 dias,Portugal,"Artigo 20.º, n.º 1, alínea b) do Código dos Contratos Públicos","","",,,,Não aplicável.,Não aplicável.,FALSE
CP 50-2018 - Equipamento laboratorial diverso,Concurso público,Aquisição de bens móveis,"38000000-5, Equipamento laboratorial, óptico e de precisão (exc. óculos)","Instituto Nacional de Saúde Doutor Ricardo Jorge, IP (501427511)",FRILABO II LDA (507958861),"22.298,00 €",27-12-2018,13-12-2018,40 dias,Portugal,"Artigo 20.º, n.º 1, alínea b) do Código dos Contratos Públicos","","",,,,Não aplicável.,Não aplicável.,FALSE
"Aquisição de 27 lotes de material de laboratório diverso, para utilização no Instituto Nacional de Saúde Doutor Ricardo Jorge, I.P.",Consulta Prévia,Aquisição de bens móveis,"33124130-5, Material para diagnóstico","Instituto Nacional de Saúde Doutor Ricardo Jorge, IP (501427511)",FRILABO II LDA (507958861),"2.424,24 €",27-12-2018,28-11-2018,33 dias,Portugal,"Artigo 20.º, n.º 1, alínea c) do Código dos Contratos Públicos","","",,,,Não aplicável.,Não aplicável.,FALSE
CP 50-2018 - Equipamento laboratorial diverso,Concurso público,Aquisição de bens móveis,"38000000-5, Equipamento laboratorial, óptico e de precisão (exc. óculos)","Instituto Nacional de Saúde Doutor Ricardo Jorge, IP (501427511)",Supplylab (508453534),"13.269,01 €",27-12-2018,18-12-2018,40 dias,Portugal,"Artigo 20.º, n.º 1, alínea b) do Código dos Contratos Públicos","","",,,,Não aplicável.,Não aplicável.,FALSE
"Aquisição de 27 lotes de material de laboratório diverso, para utilização no Instituto Nacional de Saúde Doutor Ricardo Jorge, I.P.",Consulta Prévia,Aquisição de bens móveis,"33124130-5, Material para diagnóstico","Instituto Nacional de Saúde Doutor Ricardo Jorge, IP (501427511)","Type Solution, SA (508400317)","50,50 €",27-12-2018,28-11-2018,33 dias,Portugal,"Artigo 20.º, n.º 1, alínea c) do Código dos Contratos Públicos","","",,,,Não aplicável.,Não aplicável.,FALSE
"Aquisição de 27 lotes de material de laboratório diverso, para utilização no Instituto Nacional de Saúde Doutor Ricardo Jorge, I.P.",Consulta Prévia,Aquisição de bens móveis,"33124130-5, Material para diagnóstico","Instituto Nacional de Saúde Doutor Ricardo Jorge, IP (501427511)","QLABO-EQUIPAMENTOS DE LABORATÓRIO & SERVIÇOS, LDA (503829994)","2.973,00 €",27-12-2018,28-11-2018,33 dias,Portugal,"Artigo 20.º, n.º 1, alínea c) do Código dos Contratos Públicos","","",,,,Não aplicável.,Não aplicável.,FALSE
CP 50-2018 - Equipamento laboratorial diverso,Concurso público,Aquisição de bens móveis,"38000000-5, Equipamento laboratorial, óptico e de precisão (exc. óculos)","Instituto Nacional de Saúde Doutor Ricardo Jorge, IP (501427511)",A.J.COSTA IRMÃOS LDA (500002576),"77.590,00 €",27-12-2018,17-12-2018,40 dias,Portugal,"Artigo 20.º, n.º 1, alínea b) do Código dos Contratos Públicos","","",,,,Não aplicável.,Não aplicável.,FALSE
"Aquisição de 27 lotes de material de laboratório diverso, para utilização no Instituto Nacional de Saúde Doutor Ricardo Jorge, I.P.",Consulta Prévia,Aquisição de bens móveis,"33124130-5, Material para diagnóstico","Instituto Nacional de Saúde Doutor Ricardo Jorge, IP (501427511)","IZASA  SCIENTIFIC, LDA (513252088)","325,00 €",27-12-2018,28-11-2018,33 dias,Portugal,"Artigo 20.º, n.º 1, alínea c) do Código dos Contratos Públicos","","",,,,Não aplicável.,Não aplicável.,FALSE
Aquisição de 2 Analisadores Genéticos para sequenciação e análise de fragmentos,Ajuste Direto Regime Geral,Aquisição de bens móveis,"38434000-6, Analisadores","Instituto Nacional de Saúde Doutor Ricardo Jorge, I. P. (501427511)","ALFAGENE, LDA. (503387398)","219.200,00 €",27-12-2018,03-12-2018,27 dias,Portugal,"Artigo 24.º, n.º 1, alínea b) do Código dos Contratos Públicos",20-12-2018,"219.200,00 €",,,,Não aplicável.,Não aplicável.,FALSE
20180660 - Reparação de um digestor e um termociclador,Ajuste Direto Regime Geral,Aquisição de serviços,"50000000-5, Serviços de reparação e manutenção","Instituto Nacional de Saúde Doutor Ricardo Jorge, I. P. (501427511)",Specanalitica - Equipamentos Científicos (507350871),"2.060,48 €",26-12-2018,15-12-2018,10 dias,"Portugal, Lisboa, Lisboa","Artigo 20.º, n.º 1, alínea d) do Código dos Contratos Públicos","","",,,,Não aplicável.,Não aplicável.,FALSE
20180658 - reparação de um sistema PCR,Ajuste Direto Regime Geral,Aquisição de serviços,"50000000-5, Serviços de reparação e manutenção","Instituto Nacional de Saúde Doutor Ricardo Jorge, I. P. (501427511)","ALFAGENE, LDA. (503387398)","5.900,00 €",26-12-2018,11-12-2018,10 dias,"Portugal, Lisboa, Lisboa","Artigo 24.º, n.º 1, alínea e), subalínea iii) do Código dos Contratos Públicos","","",,,,Não aplicável.,Não aplicável.,FALSE
20180656 - Reparação de equipamentos de laboratório,Ajuste Direto Regime Geral,Aquisição de serviços,"50000000-5, Serviços de reparação e manutenção","Instituto Nacional de Saúde Doutor Ricardo Jorge, I. P. (501427511)","Micro Atomo, Lda. (504198882)","2.634,78 €",26-12-2018,11-12-2018,10 dias,"Portugal, Lisboa, Lisboa","Artigo 20.º, n.º 1, alínea d) do Código dos Contratos Públicos","","",,,,Não aplicável.,Não aplicável.,FALSE
20180653 - Peças para equipamentos Unicam,Ajuste Direto Regime Geral,Aquisição de bens móveis,"34913000-0, Peças sobressalentes diversas","Instituto Nacional de Saúde Doutor Ricardo Jorge, I. P. (501427511)",Unicam (502614625),"23.280,89 €",26-12-2018,18-12-2018,10 dias,"Portugal, Lisboa, Lisboa","Artigo 24.º, n.º 1, alínea e), subalínea iii) do Código dos Contratos Públicos",21-12-2018,"23.280,89 €",,,,Não aplicável.,Não aplicável.,FALSE
20180651 - peças para equipamentos diversos,Ajuste Direto Regime Geral,Aquisição de bens móveis,"34913000-0, Peças sobressalentes diversas","Instituto Nacional de Saúde Doutor Ricardo Jorge, I. P. (501427511)","SOQUIMICA, LDA. (500274231)","9.701,45 €",26-12-2018,13-12-2018,15 dias,"Portugal, Lisboa, Lisboa","Artigo 24.º, n.º 1, alínea e), subalínea iii) do Código dos Contratos Públicos","","",,,,Não aplicável.,Não aplicável.,FALSE
20180650 - Peças para reparação de cromatografo,Ajuste Direto Regime Geral,Aquisição de bens móveis,"38432200-4, Cromatógrafos","Instituto Nacional de Saúde Doutor Ricardo Jorge, I. P. (501427511)","ILC-Serviços Manutenção, assistência e controlo de equipamentos científicos, Lda. (504721410)","1.087,69 €",26-12-2018,12-12-2018,15 dias,"Portugal, Lisboa, Lisboa","Artigo 24.º, n.º 1, alínea e), subalínea iii) do Código dos Contratos Públicos","","",,,,Não aplicável.,Não aplicável.,FALSE
20180678 - Reagentes para doenças infeciosas,Consulta Prévia,Aquisição de bens móveis,"33696500-0, Reagentes de laboratório","Instituto Nacional de Saúde Doutor Ricardo Jorge, I. P. (501427511)","FISHER SCIENTIFIC, LDA. (506429210)","500,00 €",26-12-2018,10-12-2018,20 dias,"Portugal, Lisboa, Lisboa","Artigo 20.º, n.º 1, alínea c) do Código dos Contratos Públicos",26-12-2018,"500,00 €",,,,Não aplicável.,Não aplicável.,FALSE
20180678 - Reagentes para doenças infeciosas,Consulta Prévia,Aquisição de bens móveis,"33696500-0, Reagentes de laboratório","Instituto Nacional de Saúde Doutor Ricardo Jorge, I. P. (501427511)","Biomérieux Portugal, LDda. (501524177)","260,00 €",26-12-2018,10-12-2018,20 dias,"Portugal, Lisboa, Lisboa","Artigo 20.º, n.º 1, alínea c) do Código dos Contratos Públicos",26-12-2018,"260,00 €",,,,Não aplicável.,Não aplicável.,FALSE
20180680 - Peças para equipamentos Peak e Coda,Consulta Prévia,Aquisição de bens móveis,"34913000-0, Peças sobressalentes diversas","Instituto Nacional de Saúde Doutor Ricardo Jorge, I. P. (501427511)"," GASMAN, LDA (505463776)","8.639,75 €",26-12-2018,17-12-2018,15 dias,Portugal,"Artigo 20.º, n.º 1, alínea c) do Código dos Contratos Públicos","","",,,,Não aplicável.,Não aplicável.,FALSE
20180626 - Reparação de pavimento e ramal de esgotos do WC,Ajuste Direto Regime Geral,Aquisição de serviços,"50000000-5, Serviços de reparação e manutenção","Instituto Nacional de Saúde Doutor Ricardo Jorge, I. P. (501427511)",Actia- Engenharia e Construções Unip.Lda (509064930),"1.113,00 €",26-12-2018,05-12-2018,30 dias,"Portugal, Lisboa, Lisboa","Artigo 20.º, n.º 1, alínea d) do Código dos Contratos Públicos","","",,,,Não aplicável.,Não aplicável.,FALSE
20180625 - Aquisição de peça para microscópio eletrónico,Ajuste Direto Regime Geral,Aquisição de bens móveis,"38519000-6, Componentes diversos para microscópios","Instituto Nacional de Saúde Doutor Ricardo Jorge, I. P. (501427511)",FEI EUROPE BV SUCURSAL EN ESPAÑA (ESW0032378B),"1.932,80 €",26-12-2018,05-12-2018,30 dias,"Portugal, Lisboa, Lisboa","Artigo 20.º, n.º 1, alínea d) do Código dos Contratos Públicos","","",,,,Não aplicável.,Não aplicável.,FALSE
20180558 - Aluguer de equipamento audiovisual,Ajuste Direto Regime Geral,Aquisição de serviços,"92370000-5, Técnico de som","Instituto Nacional de Saúde Doutor Ricardo Jorge, I. P. (501427511)","HALOGÉNEO - EQUIPAMENTO AUDIOVISUAL UNIPESSOAL, LDA (506907783)","550,00 €",26-12-2018,06-11-2018,10 dias,"Portugal, Lisboa, Lisboa","Artigo 20.º, n.º 1, alínea d) do Código dos Contratos Públicos",13-12-2018,"550,00 €",,,,Não aplicável.,Não aplicável.,FALSE
Serviços de transportes de pessoas e bens,Consulta Prévia,Aquisição de serviços,"60000000-8, Serviços de transporte (excl. transporte de resíduos)","Instituto Nacional de Saúde Doutor Ricardo Jorge, I. P. (501427511)","Alfa Lisbon - Gestão de Processos de Expedição, Lda (507586522)","39.414,64 €",26-12-2018,13-12-2018,18 dias,Portugal,"Artigo 20.º, n.º 1, alínea c) do Código dos Contratos Públicos","","",,,,Não aplicável.,Não aplicável.,FALSE
20180687 - Aquisição de material para apoio ao diagnóstico de Sarampo,Ajuste Direto Regime Geral,Aquisição de bens móveis,"33140000-3, Material médico de consumo","Instituto Nacional de Saúde Doutor Ricardo Jorge, I. P. (501427511)","SARSTEDT, SA (503019461)","208,00 €",26-12-2018,13-12-2018,15 dias,"Portugal, Lisboa, Lisboa","Artigo 24.º, n.º 1, alínea c) do Código dos Contratos Públicos","","",,,,Não aplicável.,Não aplicável.,FALSE
20180508 -  Serviços de manutenção á câmara Bignet,Consulta Prévia,Aquisição de serviços,"50000000-5, Serviços de reparação e manutenção","Instituto Nacional de Saúde Doutor Ricardo Jorge, I. P. (501427511)",FRILABO II LDA (507958861),"130,00 €",21-12-2018,12-10-2018,30 dias,"Portugal, Lisboa, Lisboa","Artigo 20.º, n.º 1, alínea c) do Código dos Contratos Públicos","","",,,,Não aplicável.,Não aplicável.,FALSE
20180488 - Serviços de apoio á preparação de 2 exposições do museu da saúde,Consulta Prévia,Aquisição de serviços,"71356300-1, Serviços de apoio técnico","Instituto Nacional de Saúde Doutor Ricardo Jorge, I. P. (501427511)","Sea Ewe, Lda. (513929150)","10.000,00 €",21-12-2018,30-11-2018,45 dias,"Portugal, Lisboa, Lisboa","Artigo 20.º, n.º 1, alínea c) do Código dos Contratos Públicos",19-12-2018,"10.000,00 €",,,,Não aplicável.,Não aplicável.,FALSE
20180430 - Prestação serviços Ana Margarida Raposo,Ajuste Direto Regime Geral,Aquisição de serviços,"71900000-7, Serviços laboratoriais","Instituto Nacional de Saúde Doutor Ricardo Jorge, I. P. (501427511)",Ana Margarida Branco Raposo (247708275),"3.775,00 €",21-12-2018,01-10-2018,190 dias,"Portugal, Lisboa, Lisboa","Artigo 20.º, n.º 1, alínea d) do Código dos Contratos Públicos","","",,,,Não aplicável.,Não aplicável.,FALSE
20180698 - Aquisição de videoprojector,Ajuste Direto Regime Geral,Aquisição de bens móveis,"38652120-7, Videoprojectores","Instituto Nacional de Saúde Doutor Ricardo Jorge, I. P. (501427511)",NLS NEW LINK SOLUTIONS (505248948),"1.372,50 €",21-12-2018,21-12-2018,5 dias,"Portugal, Lisboa, Lisboa","Artigo 20.º, n.º 1, alínea d) do Código dos Contratos Públicos","","",,,,Não aplicável.,Não aplicável.,FALSE
20180222 - Reagentes para coagulação automatizada,Ajuste Direto Regime Geral,Aquisição de bens móveis,"33696500-0, Reagentes de laboratório","Instituto Nacional de Saúde Doutor Ricardo Jorge, I. P. (501427511)","STAGO PORTUGAL, UNIPESSOAL, LDA (509952976)","10.225,01 €",21-12-2018,19-04-2018,150 dias,"Portugal, Porto, Porto<BR/>Portugal, Lisboa, Lisboa","Artigo 24.º, n.º 1, alínea e), subalínea iii) do Código dos Contratos Públicos",24-10-2018,"10.225,01 €",,,,Não aplicável.,Não aplicável.,FALSE
