Objeto do Contrato,Tipo de Procedimento,Tipo(s) de Contrato,CPVs,Entidade(s) Adjudicante(s),Entidade(s) Adjudicatária(s),Preço Contratual,Data de Publicação,Data de Celebração do Contrato,Prazo de Execução,Local de Execução,Fundamentação,Data de Fecho do Contrato,Preço Total Efetivo,Causas das Alterações ao Prazo,Causas das Alterações ao Preço,Estado,N.º registo do Acordo Quadro,Descrição do Acordo Quadro,Procedimento Centralizado
AQUISIÇÃO DE MATERIAL APLICADO - COLUNA- ORTOPEDIA B,Ajuste Direto Regime Geral,Aquisição de bens móveis,"33183000-6, Material de assistência ortopédica","Centro Hospitalar Tondela-Viseu, E. P. E. (509822940)","MEDTRONIC PORTUGAL, LDA (504223933)","7.510,00 €",20-11-2014,28-10-2014,1 dias,"Portugal, Viseu, Viseu","Artigo 24.º, n.º 1, alínea c) do Código dos Contratos Públicos",,,,,,Não aplicável.,Não aplicável.,FALSE
AQUISIÇÃO DE MATERIAL APLICADO - NEURO,Ajuste Direto Regime Geral,Aquisição de bens móveis,"33183000-6, Material de assistência ortopédica","Centro Hospitalar Tondela-Viseu, E. P. E. (509822940)","JOHNSON & JOHNSON, MEDICAL (500153370)","6.156,23 €",20-11-2014,12-09-2014,1 dias,"Portugal, Viseu, Viseu","Artigo 24.º, n.º 1, alínea c) do Código dos Contratos Públicos",,,,,,Não aplicável.,Não aplicável.,FALSE
AQUISIÇÃO DE MATERIAL APLICADO - COLUNA- NEURO,Ajuste Direto Regime Geral,Aquisição de bens móveis,"33183000-6, Material de assistência ortopédica","Centro Hospitalar Tondela-Viseu, E. P. E. (509822940)","JOHNSON & JOHNSON, MEDICAL (500153370)","9.375,68 €",20-11-2014,15-10-2014,1 dias,"Portugal, Viseu, Viseu","Artigo 24.º, n.º 1, alínea c) do Código dos Contratos Públicos",,,,,,Não aplicável.,Não aplicável.,FALSE
AQUISIÇÃO DE DOXORRUBICINA LIPOSSOMICA PEGUILADA 20MG/10ML,Ajuste Direto Regime Geral,Aquisição de bens móveis,"33600000-6, Produtos farmacêuticos","Centro Hospitalar Tondela-Viseu, E. P. E. (509822940)","JANSSEN-CILAG FARMACEUTICA,LDA (500189412)","8.978,20 €",18-11-2014,08-10-2014,1 dias,"Portugal, Viseu, Viseu","Artigo 26.º, n.º 1, alínea e) do Código dos Contratos Públicos",,,,,,Não aplicável.,Não aplicável.,FALSE
AQUISIÇÃO DE REAGENTES NÃO DEPEND. EQUIPAMENTO ( CP/104/2013 ALERE ),Ajuste Direto Regime Geral,Aquisição de bens móveis,"33696500-0, Reagentes de laboratório","Centro Hospitalar Tondela-Viseu, E. P. E. (509822940)","ALERE, LDA (502518863)","17.616,14 €",18-11-2014,21-10-2014,1 dias,"Portugal, Viseu, Viseu","Artigo 20.º, n.º 1, alínea a) do Código dos Contratos Públicos",,,,,,Não aplicável.,Não aplicável.,FALSE
