Objeto do Contrato,Tipo de Procedimento,Tipo(s) de Contrato,CPVs,Entidade(s) Adjudicante(s),Entidade(s) Adjudicatária(s),Preço Contratual,Data de Publicação,Data de Celebração do Contrato,Prazo de Execução,Local de Execução,Fundamentação,Data de Fecho do Contrato,Preço Total Efetivo,Causas das Alterações ao Prazo,Causas das Alterações ao Preço,Estado,N.º registo do Acordo Quadro,Descrição do Acordo Quadro,Procedimento Centralizado
"Aquisição de Software de Reporting e de Suporte à Decisão para Sistema Integrado de Apoio à Contratualização da ARSLVT, IP.",Ajuste Direto Regime Geral,Aquisição de serviços,"72263000-6, Serviços de implementação de software","Administração Regional de Saúde de Lisboa e Vale do Tejo, I.P. (503148776)","Timestamp - Sistemas de Informação, S.A. (506360237)","97.500,00 €",11-09-2012,04-09-2012,105 dias,"Portugal, Lisboa, Lisboa",Artigo 258.º do Código dos Contratos Públicos,,,,,,Não aplicável.,Não aplicável.,
Aquisição de Películas,Ajuste Direto Regime Geral,Aquisição de bens móveis,"33140000-3, Material médico de consumo","Administração Regional de Saúde de Lisboa e Vale do Tejo, I.P. (503148776)",Carestream Health Portugal (508054320),"9.997,69 €",11-09-2012,11-09-2012,20 dias,"Portugal, Lisboa","Artigo 26.º, n.º 1, alínea e) do Código dos Contratos Públicos",,,,,,Não aplicável.,Não aplicável.,
"Aquisição de Impregnados Iodoforos 9,5x9,5",Ajuste Direto Regime Geral,Aquisição de bens móveis,"33690000-3, Medicamentos vários","Administração Regional de Saúde de Lisboa e Vale do Tejo, I.P. (503148776)",Systagenix Wound Management (980402298),"44.500,00 €",11-09-2012,11-09-2012,20 dias,"Portugal, Lisboa","Artigo 26.º, n.º 1, alínea e) do Código dos Contratos Públicos",,,,,,Não aplicável.,Não aplicável.,
Prestação de serviços de telecomunicações móveis - CDP Alameda,Ajuste Direto Regime Geral,Aquisição de serviços,"50000000-5, Serviços de reparação e manutenção","Administração Regional de Saúde de Lisboa e Vale do Tejo, I.P. (503148776)","EDP-Distribuição Energia, SA (504394029)","629,59 €",10-09-2012,23-08-2012,1 dias,"Portugal, Santarém, Ourém","Artigo 24.º, n.º 1, alínea e) do Código dos Contratos Públicos",,,,,,Não aplicável.,Não aplicável.,
Prestação de serviços de telecomunicações móveis - CDP Alameda,Ajuste Direto Regime Geral,Aquisição de serviços,"64200000-8, Serviços de telecomunicações","Administração Regional de Saúde de Lisboa e Vale do Tejo, I.P. (503148776)",Vodafone Portugal - Comunicações SA (502544180),"660,00 €",10-09-2012,07-09-2012,275 dias,"Portugal, Lisboa, Lisboa","Artigo 24.º, n.º 1, alínea e) do Código dos Contratos Públicos",,,,,,Não aplicável.,Não aplicável.,
Aquisição de Carvão Act. + Algina + Carboximetilc. 10x10,Ajuste Direto Regime Geral,Aquisição de bens móveis,"33690000-3, Medicamentos vários","Administração Regional de Saúde de Lisboa e Vale do Tejo, I.P. (503148776)","Kvtech Portugal - Produtos Med Unipessoal, Lda (508671531)","43.800,00 €",10-09-2012,10-09-2012,20 dias,"Portugal, Lisboa","Artigo 26.º, n.º 1, alínea e) do Código dos Contratos Públicos",,,,,,Não aplicável.,Não aplicável.,
Aquisição de Carboximetilcelulose NA C/Prata 10 x 10,Ajuste Direto Regime Geral,Aquisição de bens móveis,"33690000-3, Medicamentos vários","Administração Regional de Saúde de Lisboa e Vale do Tejo, I.P. (503148776)","Kvtech Portugal - Produtos Med. Unipessoal, Lda (508671531)","192.000,00 €",10-09-2012,10-09-2012,20 dias,"Portugal, Lisboa","Artigo 26.º, n.º 1, alínea e) do Código dos Contratos Públicos",,,,,,Não aplicável.,Não aplicável.,
"Aquisição de Poliuretano C/Rebordo 9,5 x 9,5",Ajuste Direto Regime Geral,Aquisição de bens móveis,"33690000-3, Medicamentos vários","Administração Regional de Saúde de Lisboa e Vale do Tejo, I.P. (503148776)","Paul Hartmann, Lda (502271728)","22.000,00 €",10-09-2012,10-09-2012,20 dias,"Portugal, Lisboa","Artigo 26.º, n.º 1, alínea e) do Código dos Contratos Públicos",,,,,,Não aplicável.,Não aplicável.,
Aquisição de Diclofenac Inj 25mg/ml - 3ml,Ajuste Direto Regime Geral,Aquisição de bens móveis,"33690000-3, Medicamentos vários","Administração Regional de Saúde de Lisboa e Vale do Tejo, I.P. (503148776)","Labesfal - Laboratórios Almiro, S.A. (501169580)","4.800,00 €",07-09-2012,07-09-2012,20 dias,"Portugal, Lisboa","Artigo 26.º, n.º 1, alínea e) do Código dos Contratos Públicos",,,,,,Não aplicável.,Não aplicável.,
"Aquisição de Rifampicina, Isoniazina, isoniazina+Pirazinamida+Rifampicina",Ajuste Direto Regime Geral,Aquisição de bens móveis,"33690000-3, Medicamentos vários","Administração Regional de Saúde de Lisboa e Vale do Tejo, I.P. (503148776)","Sanofi - Aventis - Produtos Farmacêuticos, SA (500134960)","25.242,00 €",07-09-2012,07-09-2012,20 dias,"Portugal, Lisboa","Artigo 26.º, n.º 1, alínea e) do Código dos Contratos Públicos",,,,,,Não aplicável.,Não aplicável.,
Aquisição de Infraestruturas Subterrâneas para passagem das redes de voz e dados,Ajuste Direto Regime Geral,Empreitadas de obras públicas,"45113000-2, Obras no local","Administração Regional de Saúde de Lisboa e Vale do Tejo, I.P. (503148776)","Pt Comunicações, S.A. (504615947)","2.005,09 €",06-09-2012,05-09-2012,20 dias,"Portugal, Lisboa","Artigo 19.º, alínea a) do Código dos Contratos Públicos",,,,,,Não aplicável.,Não aplicável.,
"Aquisição deNaloxona Inj 0,4mg/ml - 1ml",Ajuste Direto Regime Geral,Aquisição de bens móveis,"33690000-3, Medicamentos vários","Administração Regional de Saúde de Lisboa e Vale do Tejo, I.P. (503148776)","Hikma Farmacêutica (Portugal), S.A. (502266791)","1.635,00 €",05-09-2012,05-09-2012,20 dias,"Portugal, Lisboa","Artigo 26.º, n.º 1, alínea e) do Código dos Contratos Públicos",,,,,,Não aplicável.,Não aplicável.,
Aquisição de Vacinas Papilomavirus Humano,Ajuste Direto Regime Geral,Aquisição de bens móveis,"33690000-3, Medicamentos vários","Administração Regional de Saúde de Lisboa e Vale do Tejo, I.P. (503148776)","Sanofi Pasteur MSD, S.A. (507632796)","194.350,00 €",05-09-2012,05-09-2012,20 dias,"Portugal, Lisboa","Artigo 26.º, n.º 1, alínea e) do Código dos Contratos Públicos",,,,,,Não aplicável.,Não aplicável.,
"Prestação de serviços de apoio jurídico para a ARSLVT, IP/serviços de Santarém.Periodo de 02/12/2011 a 30/11/2012",Ajuste Direto Regime Geral,Aquisição de serviços,"79111000-5, Serviços de assessoria jurídica","Administração Regional de Saúde de Lisboa e Vale do Tejo, I.P. (503148776)","Ana Martinho do Rosário, Isabel Alves de Matos e Victor Batista-Soc.Advogados (502744669)","14.850,00 €",05-09-2012,07-08-2012,365 dias,"Portugal, Santarém, Santarém","Artigo 27.º, n.º 1, alínea b) do Código dos Contratos Públicos",,,,,,Não aplicável.,Não aplicável.,
Aquisição de Vacina contra Papilomavirus Humano,Ajuste Direto Regime Geral,Aquisição de bens móveis,"33690000-3, Medicamentos vários","Administração Regional de Saúde de Lisboa e Vale do Tejo, I.P. (503148776)","Sanofi Pasteur MSD, S.A. (507632796)","194.350,00 €",05-09-2012,21-08-2012,20 dias,"Portugal, Lisboa","Artigo 26.º, n.º 1, alínea e) do Código dos Contratos Públicos",,,,,,Não aplicável.,Não aplicável.,
Aquisição de Penicilina G Benz,Ajuste Direto Regime Geral,Aquisição de bens móveis,"33690000-3, Medicamentos vários","Administração Regional de Saúde de Lisboa e Vale do Tejo, I.P. (503148776)","Laboratórios Atral, S.A. (500162085)","9.930,00 €",05-09-2012,31-08-2012,20 dias,"Portugal, Lisboa","Artigo 24.º, n.º 1, alínea e) do Código dos Contratos Públicos",,,,,,Não aplicável.,Não aplicável.,
Aquisição de Glucagom Pó Sol Inj 1mg,Ajuste Direto Regime Geral,Aquisição de bens móveis,"33690000-3, Medicamentos vários","Administração Regional de Saúde de Lisboa e Vale do Tejo, I.P. (503148776)","Novo Nordisk - Comércio de Produtos Farmacêuticos, Lda (501485210)","2.730,00 €",05-09-2012,31-08-2012,20 dias,"Portugal, Lisboa","Artigo 24.º, n.º 1, alínea e) do Código dos Contratos Públicos",,,,,,Não aplicável.,Não aplicável.,
Aquisição de Hidroxizina 25mg em Comprimidos,Ajuste Direto Regime Geral,Aquisição de bens móveis,"33690000-3, Medicamentos vários","Administração Regional de Saúde de Lisboa e Vale do Tejo, I.P. (503148776)","UCB Pharma, Lda (500291322)","156,00 €",05-09-2012,31-08-2012,20 dias,"Portugal, Lisboa","Artigo 26.º, n.º 1, alínea e) do Código dos Contratos Públicos",,,,,,Não aplicável.,Não aplicável.,
Aquisição de Dexametasona Inj 5mg/ml - 1ml,Ajuste Direto Regime Geral,Aquisição de bens móveis,"33690000-3, Medicamentos vários","Administração Regional de Saúde de Lisboa e Vale do Tejo, I.P. (503148776)","Merck, Sharp & Dohme, Lda (500191360)","1.089,00 €",05-09-2012,03-09-2012,20 dias,"Portugal, Lisboa","Artigo 26.º, n.º 1, alínea e) do Código dos Contratos Públicos",,,,,,Não aplicável.,Não aplicável.,
