Objeto do Contrato,Tipo de Procedimento,Tipo(s) de Contrato,CPVs,Entidade(s) Adjudicante(s),Entidade(s) Adjudicatária(s),Preço Contratual,Data de Publicação,Data de Celebração do Contrato,Prazo de Execução,Local de Execução,Fundamentação,Data de Fecho do Contrato,Preço Total Efetivo,Causas das Alterações ao Prazo,Causas das Alterações ao Preço,Estado,N.º registo do Acordo Quadro,Descrição do Acordo Quadro,Procedimento Centralizado
51023116 - Aquisição de medicamentos,Ajuste Direto Regime Geral,Aquisição de bens móveis,"33000000-0, Equipamento médico, medicamentos e produtos para cuidados pessoais","Unidade Local de Saúde do Norte Alentejano, E. P. E. (508094461)","Gilead Sciences, Lda (503604704)","31.403,25 €",11-11-2016,02-11-2016,30 dias,"Portugal, Portalegre, Portalegre","Artigo 20.º, n.º 1, alínea a) do Código dos Contratos Públicos","","",,,,Não aplicável.,Não aplicável.,FALSE
MEDICAMENTOS,Ajuste Direto Regime Geral,Aquisição de bens móveis,"33000000-0, Equipamento médico, medicamentos e produtos para cuidados pessoais","Unidade Local de Saúde do Norte Alentejano, E. P. E. (508094461)",BRISTOL - MYERS SQUIBB SA.                         (500048193),"6.971,40 €",11-11-2016,27-09-2016,30 dias,"Portugal, Portalegre, Portalegre<BR/>Portugal, Portalegre, Elvas","Artigo 20.º, n.º 1, alínea a) do Código dos Contratos Públicos",27-09-2016,"6.971,40 €",,,,Não aplicável.,Não aplicável.,FALSE
MEDICAMENTOS,Ajuste Direto Regime Geral,Aquisição de bens móveis,"33000000-0, Equipamento médico, medicamentos e produtos para cuidados pessoais","Unidade Local de Saúde do Norte Alentejano, E. P. E. (508094461)","ROCHE FARMACÊUTICA QUIMICA, LDA.                   (500233810)","8.284,95 €",11-11-2016,11-10-2016,30 dias,"Portugal, Portalegre, Portalegre<BR/>Portugal, Portalegre, Elvas","Artigo 20.º, n.º 1, alínea a) do Código dos Contratos Públicos",11-10-2016,"8.284,95 €",,,,Não aplicável.,Não aplicável.,FALSE
MEDICAMENTOS,Ajuste Direto Regime Geral,Aquisição de bens móveis,"33000000-0, Equipamento médico, medicamentos e produtos para cuidados pessoais","Unidade Local de Saúde do Norte Alentejano, E. P. E. (508094461)","JANSSEN CILAG FARMACEUTICA, LDA.                   (500189412)","21.330,00 €",11-11-2016,11-10-2016,30 dias,"Portugal, Portalegre, Portalegre<BR/>Portugal, Portalegre, Elvas","Artigo 20.º, n.º 1, alínea a) do Código dos Contratos Públicos",11-10-2016,"21.330,00 €",,,,Não aplicável.,Não aplicável.,FALSE
MEDICAMENTOS,Ajuste Direto Regime Geral,Aquisição de bens móveis,"33000000-0, Equipamento médico, medicamentos e produtos para cuidados pessoais","Unidade Local de Saúde do Norte Alentejano, E. P. E. (508094461)",BRISTOL - MYERS SQUIBB SA.                         (500048193),"7.695,00 €",11-11-2016,11-10-2016,30 dias,"Portugal, Portalegre, Portalegre<BR/>Portugal, Portalegre, Elvas","Artigo 24.º, n.º 1, alínea e) do Código dos Contratos Públicos",11-10-2016,"7.695,00 €",,,,Não aplicável.,Não aplicável.,FALSE
MEDICAMENTOS,Ajuste Direto Regime Geral,Aquisição de bens móveis,"33000000-0, Equipamento médico, medicamentos e produtos para cuidados pessoais","Unidade Local de Saúde do Norte Alentejano, E. P. E. (508094461)",ROCHE SISTEMA DE DIAGNOSTICOS                      (504282921),"5.354,40 €",11-11-2016,11-10-2016,30 dias,"Portugal, Portalegre, Elvas<BR/>Portugal, Portalegre, Portalegre","Artigo 24.º, n.º 1, alínea e) do Código dos Contratos Públicos",11-10-2016,"5.354,40 €",,,,Não aplicável.,Não aplicável.,FALSE
MEDICAMENTOS,Ajuste Direto Regime Geral,Aquisição de bens móveis,"33000000-0, Equipamento médico, medicamentos e produtos para cuidados pessoais","Unidade Local de Saúde do Norte Alentejano, E. P. E. (508094461)",ROCHE SISTEMA DE DIAGNOSTICOS                      (504282921),"5.354,40 €",11-11-2016,11-10-2016,30 dias,"Portugal, Portalegre, Elvas<BR/>Portugal, Portalegre, Portalegre","Artigo 24.º, n.º 1, alínea e) do Código dos Contratos Públicos",11-10-2016,"5.354,40 €",,,,Não aplicável.,Não aplicável.,FALSE
MEDICAMENTOS,Ajuste Direto Regime Geral,Aquisição de bens móveis,"33000000-0, Equipamento médico, medicamentos e produtos para cuidados pessoais","Unidade Local de Saúde do Norte Alentejano, E. P. E. (508094461)","SANOFI- PRODUTOS FARMACÊUTICOS,LDA.                (500134960)","6.947,84 €",11-11-2016,25-10-2016,30 dias,"Portugal, Portalegre, Portalegre<BR/>Portugal, Portalegre, Elvas","Artigo 20.º, n.º 1, alínea a) do Código dos Contratos Públicos",25-10-2016,"6.947,84 €",,,,Não aplicável.,Não aplicável.,FALSE
MEDICAMENTOS,Ajuste Direto Regime Geral,Aquisição de bens móveis,"33000000-0, Equipamento médico, medicamentos e produtos para cuidados pessoais","Unidade Local de Saúde do Norte Alentejano, E. P. E. (508094461)","NOVARTIS FARMA-PROD.FARMACÊUTICOS,SA.              (500063524)","6.161,80 €",11-11-2016,25-10-2016,30 dias,"Portugal, Portalegre, Portalegre<BR/>Portugal, Portalegre, Elvas","Artigo 20.º, n.º 1, alínea a) do Código dos Contratos Públicos",25-10-2016,"6.161,80 €",,,,Não aplicável.,Não aplicável.,FALSE
51023016 - Aquisição de Medicamentos,Ajuste Direto Regime Geral,Aquisição de bens móveis,"33000000-0, Equipamento médico, medicamentos e produtos para cuidados pessoais","Unidade Local de Saúde do N. Alentejano,EPE(ULSNA) (508094461)","B.BRAUN MEDICAL, LDA (501506543)","6.300,00 €",11-11-2016,02-11-2016,30 dias,"Portugal, Portalegre, Portalegre","Artigo 20.º, n.º 1, alínea a) do Código dos Contratos Públicos","","",,,,Não aplicável.,Não aplicável.,FALSE
51022916 - Aquisição de Medicamentos,Ajuste Direto Regime Geral,Aquisição de bens móveis,"33000000-0, Equipamento médico, medicamentos e produtos para cuidados pessoais","Unidade Local de Saúde do Norte Alentejano, E. P. E. (508094461)","JANSSEN CILAG FARMACEUTICA, LDA. (500189412)","10.920,99 €",11-11-2016,11-11-2016,30 dias,"Portugal, Portalegre, Portalegre","Artigo 20.º, n.º 1, alínea a) do Código dos Contratos Públicos","","",,,,Não aplicável.,Não aplicável.,FALSE
51022916 - Aquisição de Medicamentos,Ajuste Direto Regime Geral,Aquisição de bens móveis,"33000000-0, Equipamento médico, medicamentos e produtos para cuidados pessoais","Unidade Local de Saúde do Norte Alentejano, E. P. E. (508094461)","PFIZER BIOFARMACEUTICA,SOCIEDADE  UNIPESSOAL, LDA (513300376)","12.633,59 €",11-11-2016,25-10-2016,30 dias,"Portugal, Portalegre, Portalegre","Artigo 20.º, n.º 1, alínea a) do Código dos Contratos Públicos","","",,,,Não aplicável.,Não aplicável.,FALSE
51022016 Aquisição de Medicamentos,Ajuste Direto Regime Geral,Aquisição de bens móveis,"33000000-0, Equipamento médico, medicamentos e produtos para cuidados pessoais","Unidade Local de Saúde do Norte Alentejano, E. P. E. (508094461)","NOVARTIS FARMA-PROD.FARMACÊUTICOS,SA. (500063524)","6.161,80 €",07-11-2016,18-10-2016,30 dias,"Portugal, Portalegre, Portalegre","Artigo 20.º, n.º 1, alínea a) do Código dos Contratos Públicos","","",,,,Não aplicável.,Não aplicável.,FALSE
51021916 - Aquisição de Medicamentos,Ajuste Direto Regime Geral,Aquisição de bens móveis,"33000000-0, Equipamento médico, medicamentos e produtos para cuidados pessoais","Unidade Local de Saúde do Norte Alentejano, E. P. E. (508094461)","LABORATORIOS PFIZER, LDA (500162166)","6.181,33 €",07-11-2016,18-10-2016,30 dias,"Portugal, Portalegre, Portalegre","Artigo 20.º, n.º 1, alínea a) do Código dos Contratos Públicos","","",,,,Não aplicável.,Não aplicável.,FALSE
Aquisição de Diversos Equipamentos para a USF Plátano,Ajuste Direto Regime Geral,Aquisição de bens móveis,"39100000-3, Mobiliário","Unidade Local de Saúde do N. Alentejano,EPE(ULSNA) (508094461)","JULCAR MOBILIÁRIO INTEGRADO, S.A. (501140263)","5.854,00 €",04-11-2016,12-01-2016,30 dias,"Portugal, Portalegre, Portalegre","Artigo 20.º, n.º 1, alínea a) do Código dos Contratos Públicos","","",,,,Não aplicável.,Não aplicável.,FALSE
Aquisição de Diversos Equipamentos para a USF Plátano,Ajuste Direto Regime Geral,Aquisição de bens móveis,"39100000-3, Mobiliário","Unidade Local de Saúde do N. Alentejano,EPE(ULSNA) (508094461)","Bacelar & Irmão, Lda (500532818)","2.140,83 €",04-11-2016,12-01-2016,30 dias,"Portugal, Portalegre, Portalegre","Artigo 20.º, n.º 1, alínea a) do Código dos Contratos Públicos","","",,,,Não aplicável.,Não aplicável.,FALSE
