Objeto do Contrato,Tipo de Procedimento,Tipo(s) de Contrato,CPVs,Entidade(s) Adjudicante(s),Entidade(s) Adjudicatária(s),Preço Contratual,Data de Publicação,Data de Celebração do Contrato,Prazo de Execução,Local de Execução,Fundamentação,Data de Fecho do Contrato,Preço Total Efetivo,Causas das Alterações ao Prazo,Causas das Alterações ao Preço,Estado,N.º registo do Acordo Quadro,Descrição do Acordo Quadro,Procedimento Centralizado
20170461 - Aquisição de material em aço-metal e pequeno equipamento,Ajuste Direto Regime Geral,Aquisição de bens móveis,"33124000-5, Aparelhos e material para diagnóstico e radiodiagnóstico","Instituto Nacional de Saúde Doutor Ricardo Jorge, I. P. (501427511)","Normax - Fábrica de vidros cientificos, da (500203130)","829,76 €",19-10-2017,21-09-2017,182 dias,"Portugal, Lisboa, Lisboa","Artigo 20.º, n.º 1, alínea a) do Código dos Contratos Públicos",20-11-2017,"803,41 €",Não foram adquiridas as quantidades inicialmente previstas,Não foram adquiridas as quantidades inicialmente previstas,,Não aplicável.,Não aplicável.,FALSE
20170461 - Aquisição de material em aço-metal e pequeno equipamento,Ajuste Direto Regime Geral,Aquisição de bens móveis,"33124000-5, Aparelhos e material para diagnóstico e radiodiagnóstico","Instituto Nacional de Saúde Doutor Ricardo Jorge, I. P. (501427511)","SARSTEDT - TECNOLOGIA DE LABORATORIO,LDA (503019461)","570,00 €",19-10-2017,21-09-2017,182 dias,"Portugal, Lisboa, Lisboa","Artigo 20.º, n.º 1, alínea a) do Código dos Contratos Públicos","","","","",,Não aplicável.,Não aplicável.,FALSE
"20170537-Aquisição de serviços de  Desalfandegamento do Instituto Nacional de Saude Dr. Ricardo Jorge, I.P.",Ajuste Direto Regime Geral,Aquisição de serviços,"63700000-6, Serviços de apoio a transportes por terra, água e ar","Instituto Nacional de Saúde Doutor Ricardo Jorge, I. P. (501427511)",ALFAPRATA. LDA (510871321),"63.350,00 €",18-10-2017,12-10-2017,70 dias,"Portugal, Lisboa, Lisboa","Artigo 20.º, n.º 1, alínea a) do Código dos Contratos Públicos",31-01-2018,"63.348,30 €","",arredondamentos,,Não aplicável.,Não aplicável.,FALSE
20170378 - Aquisição de amostras para Avaliação Externa da Qualidade,Ajuste Direto Regime Geral,Aquisição de bens móveis,"33696500-0, Reagentes de laboratório","Instituto Nacional de Saúde Doutor Ricardo Jorge, I. P. (501427511)",Labquality OY (F101100791),"26.360,81 €",12-10-2017,25-08-2017,180 dias,"Portugal, Lisboa, Lisboa<BR/>Portugal, Porto, Porto","Artigo 24.º, n.º 1, alínea e) do Código dos Contratos Públicos",12-12-2017,"25.924,46 €","",Não entrega de alguns produtos.,,Não aplicável.,Não aplicável.,FALSE
