Objeto do Contrato,Tipo de Procedimento,Tipo(s) de Contrato,CPVs,Entidade(s) Adjudicante(s),Entidade(s) Adjudicatária(s),Preço Contratual,Data de Publicação,Data de Celebração do Contrato,Prazo de Execução,Local de Execução,Fundamentação,Data de Fecho do Contrato,Preço Total Efetivo,Causas das Alterações ao Prazo,Causas das Alterações ao Preço,Estado,N.º registo do Acordo Quadro,Descrição do Acordo Quadro,Procedimento Centralizado
Mobiliário,Ao abrigo de acordo-quadro (art.º 259.º),Aquisição de bens móveis,"39000000-2, Mobiliário (incl. de escritório), acessórios, aparelhos domésticos (excl. iluminação) e produtos de limpeza","Administração Regional de Saúde do Centro, I. P. (503122165)","Lemis Ibérica, Lda (500649995)","18.604,08 €",18-01-2018,07-09-2017,30 dias,"Portugal, Distrito não determinado, Concelho não determinado",Artigo 259.º do Código dos Contratos Públicos,29-12-2017,"18.604,08 €","","",,1260651,Acordo quadro de fornecimento de mobiliário,FALSE
Mobiliário,Ao abrigo de acordo-quadro (art.º 259.º),Aquisição de bens móveis,"39000000-2, Mobiliário (incl. de escritório), acessórios, aparelhos domésticos (excl. iluminação) e produtos de limpeza","Administração Regional de Saúde do Centro, I. P. (503122165)","Julcar, Mobiliário Integrado, SA (501140263)","29.312,75 €",18-01-2018,06-09-2017,30 dias,"Portugal, Distrito não determinado, Concelho não determinado",Artigo 259.º do Código dos Contratos Públicos,26-12-2017,"29.312,75 €","","",,1260651,Acordo quadro de fornecimento de mobiliário,FALSE
PROCESSO 18120005,Ao abrigo de acordo-quadro (art.º 259.º),Aquisição de bens móveis,"33600000-6, Produtos farmacêuticos","Administração Regional de Saúde do Centro, I. P. (503122165)",CLINIFAR SA (503281115),"110,04 €",18-01-2018,05-01-2018,360 dias,"Portugal, Coimbra, Coimbra",Artigo 259.º do Código dos Contratos Públicos,"","","","",,1459323,CP 2015/20,TRUE
PROCESSO 18120005,Ao abrigo de acordo-quadro (art.º 259.º),Aquisição de bens móveis,"33600000-6, Produtos farmacêuticos","Administração Regional de Saúde do Centro, I. P. (503122165)",EZEQUIEL PANÄO JORGE (501412727),"1.207,90 €",18-01-2018,05-01-2018,360 dias,"Portugal, Coimbra, Coimbra",Artigo 259.º do Código dos Contratos Públicos,"","","","",,1459323,CP 2015/20,TRUE
PROCESSO 18120005,Ao abrigo de acordo-quadro (art.º 259.º),Aquisição de bens móveis,"33600000-6, Produtos farmacêuticos","Administração Regional de Saúde do Centro, I. P. (503122165)","GENERIS - FARMACEUTICA, S.A. (508107997)","7.896,20 €",18-01-2018,05-01-2018,360 dias,"Portugal, Coimbra, Coimbra",Artigo 259.º do Código dos Contratos Públicos,"","","","",,1459323,CP 2015/20,TRUE
PROCESSO 18120005,Ao abrigo de acordo-quadro (art.º 259.º),Aquisição de bens móveis,"33600000-6, Produtos farmacêuticos","Administração Regional de Saúde do Centro, I. P. (503122165)",LOGIFARMA - LOGISTICA FARMACÊUTICA S.A. (503934640),"19.518,92 €",18-01-2018,05-01-2018,360 dias,"Portugal, Coimbra, Coimbra",Artigo 259.º do Código dos Contratos Públicos,"","","","",,1459323,CP 2015/20,TRUE
PROCESSO 18120005,Ao abrigo de acordo-quadro (art.º 259.º),Aquisição de bens móveis,"33600000-6, Produtos farmacêuticos","Administração Regional de Saúde do Centro, I. P. (503122165)","BAYER PORTUGAL, SA. (500043256)","59.179,98 €",18-01-2018,05-01-2018,360 dias,"Portugal, Coimbra, Coimbra",Artigo 259.º do Código dos Contratos Públicos,"","","","",,1459323,CP 2015/20,TRUE
PROCESSO 18120005,Ao abrigo de acordo-quadro (art.º 259.º),Aquisição de bens móveis,"33600000-6, Produtos farmacêuticos","Administração Regional de Saúde do Centro, I. P. (503122165)","LAB. PFIZER, LDA. (500162166)","33,39 €",18-01-2018,05-01-2018,360 dias,"Portugal, Coimbra, Coimbra",Artigo 259.º do Código dos Contratos Públicos,"","","","",,1459323,CP 2015/20,TRUE
Processo 18120005,Ao abrigo de acordo-quadro (art.º 259.º),Aquisição de bens móveis,"33600000-6, Produtos farmacêuticos","Administração Regional de Saúde do Centro, I. P. (503122165)","MERCK SHARP & DOHME, LDA (500191360)","88.363,92 €",18-01-2018,05-01-2018,360 dias,"Portugal, Coimbra, Coimbra","Artigo 33.º, n.º 3 do Código dos Contratos Públicos","","","","",,1459323,CP 2015/20,TRUE
"Aquisição de material clínico diverso para o Armazém Central da ARSC, IP",Concurso público,Aquisição de bens móveis,"33140000-3, Material médico de consumo","Administração Regional de Saúde do Centro, I. P. (503122165)",Eurocasmédica (503322105),"195,00 €",16-01-2018,17-10-2017,365 dias,"Portugal, Coimbra, Coimbra","Artigo 20.º, n.º 1, alínea b) do Código dos Contratos Públicos",04-12-2017,"195,00 €","","",,Não aplicável.,Não aplicável.,FALSE
"Aquisição de material clínico diverso para o Armazém Central da ARSC, IP",Concurso público,Aquisição de bens móveis,"33140000-3, Material médico de consumo","Administração Regional de Saúde do Centro, I. P. (503122165)","INDAS PORTUGAL, LDA (503505196)","25,20 €",16-01-2018,17-10-2017,365 dias,"Portugal, Coimbra, Coimbra","Artigo 20.º, n.º 1, alínea b) do Código dos Contratos Públicos",25-10-2017,"16,80 €","",Não se encomendou a totalidade por causa da quantidade por embalagem,,Não aplicável.,Não aplicável.,FALSE
PROCESSO 17120384-AQUISIÇÃO DE VACINA V33,Ao abrigo de acordo-quadro (art.º 259.º),Aquisição de bens móveis,"33651600-4, Vacinas","Administração Regional de Saúde do Centro,IP(ARSC) (503122165)","PFIZER BIOFARMACEUTICA, SOCIEDADE UNIPESSOAL, LDA (513300376)","167,50 €",15-01-2018,05-06-2017,180 dias,"Portugal, Coimbra, Coimbra",Artigo 259.º do Código dos Contratos Públicos,21-12-2017,"167,50 €","","",,1923518,CP 2016/13 - Acordo Quadro para fornecimento de Vacinas e Tuberculinas   às Instituições e Serviços do Serviço Nacional de Saúde,TRUE
Material para o curso de preparação para o parto das UCC's dos ACES Baixo Mondego e Pinhal Litoral,Ajuste Direto Regime Geral,Aquisição de bens móveis,"33100000-1, Equipamento médico","Administração Regional de Saúde do Centro,IP(ARSC) (503122165)",Salutec - Serviços e Equipamentos de Saúde Lda (506380408),"11.558,02 €",15-01-2018,07-10-2017,30 dias,"Portugal, Distrito não determinado, Concelho não determinado","Artigo 20.º, n.º 1, alínea a) do Código dos Contratos Públicos",20-12-2017,"11.558,02 €","","",,Não aplicável.,Não aplicável.,FALSE
Prestação de serviços de assistente de médicos dentistas,Ajuste Direto Regime Geral,Aquisição de serviços,"85130000-9, Serviços de medicina dentária e serviços conexos","Administração Regional de Saúde do Centro, I. P. (503122165)",Medipeople (508543436),"14.305,20 €",12-01-2018,08-01-2018,365 dias,"Portugal, Viseu, Viseu<BR/>Portugal, Viseu, Carregal do Sal<BR/>Portugal, Viseu, Vouzela<BR/>Portugal, Viseu, Santa Comba Dão","Artigo 20.º, n.º 1, alínea a) do Código dos Contratos Públicos","","","","",,Não aplicável.,Não aplicável.,FALSE
Cadeiras,Ao abrigo de acordo-quadro (art.º 259.º),Aquisição de bens móveis,"39000000-2, Mobiliário (incl. de escritório), acessórios, aparelhos domésticos (excl. iluminação) e produtos de limpeza","Administração Regional de Saúde do Centro, I. P. (503122165)","Lemis Ibérica - Sociedade Industrial de Móveis e Estruturas, Lda. (500649995)","4.905,00 €",12-01-2018,30-05-2017,30 dias,"Portugal, Distrito não determinado, Concelho não determinado",Artigo 259.º do Código dos Contratos Públicos,29-12-2017,"4.905,00 €","","",,1260651,Acordo quadro de fornecimento de mobiliário,FALSE
Cadeiras,Ao abrigo de acordo-quadro (art.º 259.º),Aquisição de bens móveis,"39000000-2, Mobiliário (incl. de escritório), acessórios, aparelhos domésticos (excl. iluminação) e produtos de limpeza","Administração Regional de Saúde do Centro, I. P. (503122165)",Julcar (501140263),"6.552,00 €",12-01-2018,29-05-2017,30 dias,"Portugal, Distrito não determinado, Concelho não determinado",Artigo 259.º do Código dos Contratos Públicos,29-06-2017,"6.552,00 €","","",,1260651,Acordo quadro de fornecimento de mobiliário,FALSE
Cadeiras,Ao abrigo de acordo-quadro (art.º 259.º),Aquisição de bens móveis,"39000000-2, Mobiliário (incl. de escritório), acessórios, aparelhos domésticos (excl. iluminação) e produtos de limpeza","Administração Regional de Saúde do Centro, I. P. (503122165)","Nautilus, SA (503653179)","6.941,20 €",12-01-2018,31-05-2017,30 dias,"Portugal, Distrito não determinado, Concelho não determinado",Artigo 259.º do Código dos Contratos Públicos,13-07-2017,"6.941,20 €","","",,1260651,Acordo quadro de fornecimento de mobiliário,FALSE
"Proc. n.º 16800080 [15800938]. Empreitada de Recuperação e Manutenção da Envolvente EXterior do Centro de Saúde de Arganil, ACES PIN",Ajuste Direto Regime Geral,Empreitadas de obras públicas,"45453100-8, Obras de recuperação","Administração Regional de Saúde do Centro, I. P. (503122165)","Civibérica Obras Civis, SA (510520251)","25.427,33 €",12-01-2018,22-07-2016,150 dias,"Portugal, Coimbra, Arganil","Artigo 19.º, alínea a) do Código dos Contratos Públicos","","25.427,33 €",Não Houve,Não Houve,,Não aplicável.,Não aplicável.,FALSE
Papel e Economato,Ao abrigo de acordo-quadro (art.º 259.º),Aquisição de bens móveis,"30197630-1, Papel para impressão","Administração Regional de Saúde do Centro, I. P. (503122165)",Staples (503789372),"57.056,70 €",11-01-2018,15-02-2017,365 dias,"Portugal, Distrito não determinado, Concelho não determinado",Artigo 259.º do Código dos Contratos Públicos,22-12-2017,"57.056,70 €","","",,1351201,Acordo quadro de fornecimento de papel e economato,TRUE
