Objeto do Contrato,Tipo de Procedimento,Tipo(s) de Contrato,CPVs,Entidade(s) Adjudicante(s),Entidade(s) Adjudicatária(s),Preço Contratual,Data de Publicação,Data de Celebração do Contrato,Prazo de Execução,Local de Execução,Fundamentação,Data de Fecho do Contrato,Preço Total Efetivo,Causas das Alterações ao Prazo,Causas das Alterações ao Preço,Estado,N.º registo do Acordo Quadro,Descrição do Acordo Quadro,Procedimento Centralizado
"5-932214 - Aquisição de  diversos meios promocionais para utilização de flimes, gravações e imagens  """"Dador pela 1ª Vez"""" ",Ajuste Direto Regime Geral,Aquisição de serviços,"79341400-0, Serviços de campanhas publicitárias","Instituto Português do Sangue e da Transplantação, I. P. (502423943)",Mediagate (507247914),"74.479,32 €",05-11-2014,29-10-2014,90 dias,"Portugal, Lisboa, Lisboa","Artigo 20.º, n.º 1, alínea a) do Código dos Contratos Públicos",,,,,,Não aplicável.,Não aplicável.,FALSE
"Aquisição de Mat. Cons. Clínico - """"Agulha Borboleta p/Colheita c/Fixador e Adaptador Luer 19cm Agulha 21 3/4G e 23 3/4G",Ajuste Direto Regime Geral,Aquisição de bens móveis,"33141320-9, Agulhas para fins médicos","Instituto Português do Sangue e da Transplantação, I. P. (502423943)","Becton Dickinson, SA - Sucursal Portugal (980245214)","30.870,00 €",03-11-2014,08-05-2014,220 dias,"Portugal, Porto, Porto<BR/>Portugal, Coimbra, Coimbra","Artigo 20.º, n.º 1, alínea a) do Código dos Contratos Públicos",,,,,,Não aplicável.,Não aplicável.,FALSE
"Aquisição de Mat. Cons. Clínico - """"Sacos de Colheita de Sangue c/filtro RC TOP&BOTTOM, para o IPST, IP, durante o mês de Agosto de 2014.",Ajuste Direto Regime Geral,Aquisição de bens móveis,"33141613-0, Sacos para sangue","Instituto Português do Sangue e da Transplantação, I. P. (502423943)","Fresenius Kabi Pharma Portugal, Ldª (504293753)","183.120,00 €",03-11-2014,29-07-2014,20 dias,"Portugal, Lisboa, Lisboa<BR/>Portugal, Porto, Porto<BR/>Portugal, Coimbra, Coimbra","Artigo 24.º, n.º 1, alínea c) do Código dos Contratos Públicos",,,,,,Não aplicável.,Não aplicável.,FALSE
