Objeto do Contrato,Tipo de Procedimento,Tipo(s) de Contrato,CPVs,Entidade(s) Adjudicante(s),Entidade(s) Adjudicatária(s),Preço Contratual,Data de Publicação,Data de Celebração do Contrato,Prazo de Execução,Local de Execução,Fundamentação,Data de Fecho do Contrato,Preço Total Efetivo,Causas das Alterações ao Prazo,Causas das Alterações ao Preço,Estado,N.º registo do Acordo Quadro,Descrição do Acordo Quadro,Procedimento Centralizado
"Empreitada de Remodelação dos Pisos 3 e 4 referente à Beneficiação do Serviço de Psiquiatria, Cuidados Continuados e Acessos de Medicina Física do Pólo Valongo do CHSJ, EPE",Ajuste Direto Regime Geral,Empreitadas de obras públicas,"45200000-9, Obras de construção total ou parcial e de engenharia civil","Centro Hospitalar de São João, E. P. E. (509821197)","Jofilhos Soc. Construções, Lda. (500854386)","129.571,21 €",05-06-2015,12-05-2015,59 dias,"Portugal, Porto, Porto","Artigo 19.º, alínea a) do Código dos Contratos Públicos",,,,,,Não aplicável.,Não aplicável.,FALSE
"Aquisição de Serviços de Aluguer de Contentores para o CHSJ, EPE",Ajuste Direto Regime Geral,Aquisição de serviços,"51500000-7, Serviços de instalação de máquinas e equipamento","Centro Hospitalar de São João, E. P. E. (509821197)","Rebigran, Lda. (510891810)","65.774,16 €",05-06-2015,26-01-2015,90 dias,"Portugal, Porto, Porto","Artigo 20.º, n.º 1, alínea a) do Código dos Contratos Públicos",,,,,,Não aplicável.,Não aplicável.,FALSE
"Empreitada de Beneficiação da Sala 2 do Serviço de Radiologia do CHSJ, EPE",Ajuste Direto Regime Geral,Empreitadas de obras públicas,"45113000-2, Obras no local","Centro Hospitalar de São João, E. P. E. (509821197)","Vírgula Métrica Construções, Lda. (513285792)","9.623,77 €",05-06-2015,30-03-2015,60 dias,"Portugal, Porto, Porto","Artigo 19.º, alínea a) do Código dos Contratos Públicos",,,,,,Não aplicável.,Não aplicável.,FALSE
"Aquisição de Serviços de Alteração do Local das Instalações Provisórias da Farmácia do Ambulatório do CHSJ, EPE",Ajuste Direto Regime Geral,Aquisição de serviços,"50700000-2, Serviços de reparação e manutenção de equipamento em edifícios","Centro Hospitalar de São João, E. P. E. (509821197)","Jofilhos - Sociedade de Construções, Lda. (500854386)","11.684,12 €",05-06-2015,26-03-2015,45 dias,"Portugal, Porto, Porto","Artigo 24.º, n.º 1, alínea e) do Código dos Contratos Públicos",,,,,,Não aplicável.,Não aplicável.,FALSE
"Aquisição de 1 Dermátomo para a Unidade de Queimados do CHSJ, EPE",Ajuste Direto Regime Geral,Aquisição de bens móveis,"33100000-1, Equipamento médico","Centro Hospitalar São João, EPE (509821197)",B. Braun Medical Lda. (501506543),"8.774,82 €",05-06-2015,14-05-2015,10 dias,"Portugal, Porto, Porto","Artigo 20.º, n.º 1, alínea a) do Código dos Contratos Públicos",,,,,,Não aplicável.,Não aplicável.,FALSE
"Aquisição de um Analisador de Ventiladores para o CHSJ, EPE",Ajuste Direto Regime Geral,Aquisição de bens móveis,"38000000-5, Equipamento laboratorial, óptico e de precisão (exc. óculos)","Centro Hospitalar de São João, E. P. E. (509821197)",Multinfor Inform. e Electronica Lda. (501691278),"7.454,32 €",05-06-2015,25-05-2015,30 dias,"Portugal, Porto, Porto","Artigo 20.º, n.º 1, alínea a) do Código dos Contratos Públicos",,,,,,Não aplicável.,Não aplicável.,FALSE
"Aquisição de equipamento passivo para reformulação da rede estruturada do Corpo nº 3 do CAM do CHSJ, EPE",Ajuste Direto Regime Geral,Aquisição de bens móveis,"32420000-3, Equipamento de rede","Centro Hospitalar de São João, E. P. E. (509821197)","Maxiglobal - Equip. Serv. Informática, SA (504320882)","5.008,66 €",05-06-2015,25-05-2015,20 dias,"Portugal, Porto, Porto","Artigo 20.º, n.º 1, alínea a) do Código dos Contratos Públicos",,,,,,Não aplicável.,Não aplicável.,FALSE
"Empreitada de Beneficiação do Interior e Cobertura do Corpo nº 6 do CAM do CHSJ, EPE - Trabalhos a Mais",Ajuste Direto Regime Geral,Empreitadas de obras públicas,"45113000-2, Obras no local","Centro Hospitalar de São João, E. P. E. (509821197)","Construções Silva Lopes & Moreira, Lda. (504692461)","13.751,53 €",05-06-2015,01-04-2015,30 dias,"Portugal, Porto, Porto","Artigo 19.º, alínea a) do Código dos Contratos Públicos",,,,,,Não aplicável.,Não aplicável.,FALSE
