Objeto do Contrato,Tipo de Procedimento,Tipo(s) de Contrato,CPVs,Entidade(s) Adjudicante(s),Entidade(s) Adjudicatária(s),Preço Contratual,Data de Publicação,Data de Celebração do Contrato,Prazo de Execução,Local de Execução,Fundamentação,Data de Fecho do Contrato,Preço Total Efetivo,Causas das Alterações ao Prazo,Causas das Alterações ao Preço,Estado,N.º registo do Acordo Quadro,Descrição do Acordo Quadro,Procedimento Centralizado
Aquisição licenciamento Oracle Active Data Guard e serviços conexos de manutenção,Ao abrigo de acordo-quadro (art.º 259.º),Aquisição de bens móveis,"48218000-9, Pacote de software para gestão de licenças","SPMS - Serviços Partilhados do Ministério da Saúde, E. P. E. - SNCP (509540716)","NORMÁTICA - SERVIÇOS DE INFORMÁTICA E ORGANIZAÇÃO, S.A. (501782230)","323.988,00 €",21-12-2016,16-11-2016,365 dias,Portugal,Artigo 259.º do Código dos Contratos Públicos,29-11-2017,"323.988,00 €",,,,610968,Acordo quadro de licenciamento de software e serviços conexos,FALSE
Aquisição de serviços de definição de plano estratégico,Ajuste Direto Regime Geral,Aquisição de serviços,"72221000-0, Serviços de consultoria em matéria de análise de gestão","SPMS - Serviços Partilhados do Ministério da Saúde, E. P. E. (509540716)","CREATIVE LISBON LIGHT, UNIPESSOAL, LDA. (513761160)","29.600,00 €",21-12-2016,23-11-2016,90 dias,Portugal,"Artigo 20.º, n.º 1, alínea a) do Código dos Contratos Públicos",27-02-2017,"29.600,00 €",,,,Não aplicável.,Não aplicável.,FALSE
Aquisição de serviços de auditoria ao acesso e recolha de informação relativa aos CSP na ARS Algarve,Ajuste Direto Regime Geral,Aquisição de serviços,"72810000-1, Serviços de auditoria informática","SPMS- Serviços Partilhados do M. da Saúde, E.P.E. (509540716)","Integrity, S.A. (509072054)","5.100,00 €",21-12-2016,22-11-2016,30 dias,Portugal,"Artigo 20.º, n.º 1, alínea a) do Código dos Contratos Públicos",31-12-2016,"5.100,00 €",,,,Não aplicável.,Não aplicável.,FALSE
Aquisição de serviços de apoio de 1ª linha e de apoio no terreno para a Prescrição Eletrónica Médica (PEM) e Receita Sem Papel (RSP),Ao abrigo de acordo-quadro (art.º 259.º),Aquisição de serviços,"72500000-0, Serviços relacionados com a informática","SPMS- Serviços Partilhados do M. da Saúde, E.P.E. (509540716)","AltranPortugal, S.A. (504272179)","36.616,80 €",19-12-2016,21-11-2016,30 dias,Portugal,Artigo 259.º do Código dos Contratos Públicos,"","",,,,2096651,Acordo quadro para Prestação de Serviços de Consultadoria na área Jurídica às Instituições e Serviços do Serviço Nacional de Saúde e entidades do Ministério da Saúde,FALSE
Aquisição de serviços de auditoria aos processos de desenvolvimento na área de Sistemas de Prescrição e Dispensa (SPD),Ajuste Direto Regime Geral,Aquisição de serviços,"72810000-1, Serviços de auditoria informática","SPMS - Serviços Partilhados do Ministério da Saúde, E. P. E. (509540716)","Dognaedis, Lda. (509475779)","4.975,00 €",19-12-2016,25-11-2016,21 dias,Portugal,"Artigo 20.º, n.º 1, alínea a) do Código dos Contratos Públicos",27-12-2016,"4.975,00 €",,,,Não aplicável.,Não aplicável.,FALSE
Aquisição de serviços de vigilância e segurança humana,Ajuste Direto Regime Geral,Aquisição de serviços,"79000000-4, Serviços a empresas: direito, comercialização, consultoria, recrutamento, impressão e segurança","SPMS - Serviços Partilhados do Ministério da Saúde, E. P. E. (509540716)","STRONG - Segurança, S.A. (503257567)","21.000,00 €",19-12-2016,17-11-2016,60 dias,Portugal,"Artigo 20.º, n.º 1, alínea a) do Código dos Contratos Públicos",31-12-2016,"21.000,00 €",,,,Não aplicável.,Não aplicável.,FALSE
Aquisição de Serviços de Apoio ao Modelo de Avaliação de Propostas do CCSNS,Ajuste Direto Regime Geral,Aquisição de serviços,"71319000-7, Serviços de consultoria de peritos","SPMS- Serviços Partilhados do M. da Saúde, E.P.E. (509540716)","LCG - Consultoria, S.A. (509478832)","45.000,00 €",19-12-2016,02-12-2016,365 dias,"Portugal, Lisboa, Lisboa","Artigo 20.º, n.º 1, alínea a) do Código dos Contratos Públicos",19-12-2016,"45.000,00 €",,,,Não aplicável.,Não aplicável.,FALSE
Aquisição de equipamentos de comunicação com serviços de configuração e programação,Ajuste Direto Regime Geral,Aquisição de bens móveis,"32250000-0, Telefones móveis","SPMS - Serviços Partilhados do Ministério da Saúde, E. P. E. (509540716)","VODAFONE PORTUGAL, COMUNICAÇÕES PESSOAIS, S.A. (502544180)","70.000,00 €",15-12-2016,04-11-2016,419 dias,Portugal,"Artigo 20.º, n.º 1, alínea a) do Código dos Contratos Públicos",31-12-2017,"70.000,00 €",,,,Não aplicável.,Não aplicável.,FALSE
Aquisição de serviços de desenvolvimento de aplicação móvel,Concurso público,Aquisição de serviços,"72500000-0, Serviços relacionados com a informática","SPMS - Serviços Partilhados do Ministério da Saúde, E. P. E. (509540716)","GFI Portugal – Tecnologias de Informação, S.A. (502726890)","90.000,00 €",15-12-2016,15-11-2016,404 dias,Portugal,"Artigo 21.º, n.º 1, alínea b) do Código dos Contratos Públicos","","",,,,Não aplicável.,Não aplicável.,FALSE
"Empreitada para a readaptação/remodelação de espaços existentes nas instalações da SPMS, EPE em Lisboa ",Ajuste Direto Regime Geral,Empreitadas de obras públicas,"50000000-5, Serviços de reparação e manutenção","SPMS - Serviços Partilhados do Ministerio da Saude, E.P.E. (509540716)",Alberto Carlos Nogueira Travassos (208540156),"145.263,22 €",15-12-2016,15-11-2016,45 dias,"Portugal, Lisboa","Artigo 19.º, alínea a) do Código dos Contratos Públicos","","145.263,22 €",,,,Não aplicável.,Não aplicável.,FALSE
"Aquisição de serviços de migração de dados no Centro Hospitalar de Leiria, gestão de projeto e apoio pré e após Go Live ",Ajuste Direto Regime Geral,Aquisição de serviços,"72315200-8, Serviços de gestão de redes de dados","SPMS- Serviços Partilhados do M. da Saúde, E.P.E. (509540716)","Capgemini Portugal, Serviços de Consultoria e Informática, S.A. (502829257)","9.900,00 €",12-12-2016,07-11-2016,180 dias,Portugal,"Artigo 20.º, n.º 1, alínea a) do Código dos Contratos Públicos",04-06-2017,"9.900,00 €",,,,Não aplicável.,Não aplicável.,FALSE
Aquisição de serviços de desenvolvimento e conceção de conteúdos de audiovisuais,Ajuste Direto Regime Geral,Aquisição de serviços,"92112000-9, Serviços relacionados com a produção de filmes e videocassetes","SPMS - Serviços Partilhados do Ministério da Saúde, E. P. E. (509540716)","VGCF - Produções Unipessoal, Lda (510681999)","49.900,00 €",12-12-2016,15-11-2016,365 dias,Portugal,"Artigo 20.º, n.º 1, alínea a) do Código dos Contratos Públicos",14-11-2017,"49.900,00 €",,,,Não aplicável.,Não aplicável.,FALSE
