Objeto do Contrato,Tipo de Procedimento,Tipo(s) de Contrato,CPVs,Entidade(s) Adjudicante(s),Entidade(s) Adjudicatária(s),Preço Contratual,Data de Publicação,Data de Celebração do Contrato,Prazo de Execução,Local de Execução,Fundamentação,Data de Fecho do Contrato,Preço Total Efetivo,Causas das Alterações ao Prazo,Causas das Alterações ao Preço,Estado,N.º registo do Acordo Quadro,Descrição do Acordo Quadro,Procedimento Centralizado
Aquisição de serviços de consultoria na área médica e colaboração na definição de estratégia e planeamento.,Ajuste Direto Regime Geral,Aquisição de serviços,"71317210-8, Serviços de consultoria em matéria de saúde e segurança","Administração Central do Sistema de Saúde, I. P. (508188423)",Multimedicina (503384887),"21.660,00 €",31-01-2017,25-01-2017,365 dias,"Portugal, Lisboa, Lisboa","Artigo 20.º, n.º 1, alínea a) do Código dos Contratos Públicos",29-12-2017,"21.660,00 €","","",,Não aplicável.,Não aplicável.,FALSE
Aquisição de serviços para o programa iniciativas em Saúde Pública no âmbito dos EEA Gransts - Área de melhoria da prevenção e do tratamento de doenças transmissiveis,Ajuste Direto Regime Geral,Aquisição de serviços,"72246000-1, Serviços de consultoria em matéria de sistemas","Administração Central do Sistema de Saúde, I. P. (508188423)",Susana Filipa Gonçalves Eusébio (230914047),"13.084,08 €",30-01-2017,24-01-2017,365 dias,"Portugal, Lisboa, Lisboa","Artigo 20.º, n.º 1, alínea a) do Código dos Contratos Públicos",31-12-2017,"13.111,38 €","","Deslocações e estadas, previstas no Caderno de Encargos.  ",,Não aplicável.,Não aplicável.,FALSE
Aquisição de serviços para o programa iniciativas em Saúde Pública no âmbito dos EEA Gransts - Área de gestão de plataformas,Ajuste Direto Regime Geral,Aquisição de serviços,"72246000-1, Serviços de consultoria em matéria de sistemas","Administração Central do Sistema de Saúde, I. P. (508188423)",João Pedro Amado Ferreira Durão (216164150),"17.529,48 €",30-01-2017,24-01-2017,365 dias,"Portugal, Lisboa, Lisboa","Artigo 20.º, n.º 1, alínea a) do Código dos Contratos Públicos",31-12-2017,"17.529,48 €","","",,Não aplicável.,Não aplicável.,FALSE
Aquisição de serviços para o programa iniciativas em Saúde Pública no âmbito dos EEA Gransts - Área Jurídica,Ajuste Direto Regime Geral,Aquisição de serviços,"79100000-5, Serviços jurídicos","Administração Central do Sistema de Saúde, I. P. (508188423)",Joana Rita da Silva Almeida (246262419),"17.529,48 €",30-01-2017,24-01-2017,365 dias,"Portugal, Lisboa, Lisboa","Artigo 20.º, n.º 1, alínea a) do Código dos Contratos Públicos",31-12-2017,"18.731,11 €","","Deslocações e estadas, prevista no Caderno de Encargos. ",,Não aplicável.,Não aplicável.,FALSE
Aquisição de serviços para o programa iniciativas em Saúde Pública no âmbito dos EEA Gransts - Área Financeira Despesa,Ajuste Direto Regime Geral,Aquisição de serviços,"66171000-9, Serviços de consultoria financeira","Administração Central do Sistema de Saúde, I. P. (508188423)",Carmen Susana Costa (223471801),"17.529,48 €",30-01-2017,24-01-2017,365 dias,"Portugal, Lisboa, Lisboa","Artigo 20.º, n.º 1, alínea a) do Código dos Contratos Públicos",31-12-2017,"17.529,48 €","","",,Não aplicável.,Não aplicável.,FALSE
Aquisição de serviços para o programa iniciativas em Saúde Pública no âmbito dos EEA Gransts - Área Financeira,Ajuste Direto Regime Geral,Aquisição de serviços,"66171000-9, Serviços de consultoria financeira","Administração Central do Sistema de Saúde, I. P. (508188423)",Ariolda Duraj (279869487),"17.529,48 €",30-01-2017,24-01-2017,365 dias,"Portugal, Lisboa, Lisboa","Artigo 20.º, n.º 1, alínea a) do Código dos Contratos Públicos",03-07-2017,"8.767,74 €",Revogação do contrato,Revogação do contrato,,Não aplicável.,Não aplicável.,FALSE
