Objeto do Contrato,Tipo de Procedimento,Tipo(s) de Contrato,CPVs,Entidade(s) Adjudicante(s),Entidade(s) Adjudicatária(s),Preço Contratual,Data de Publicação,Data de Celebração do Contrato,Prazo de Execução,Local de Execução,Fundamentação,Data de Fecho do Contrato,Preço Total Efetivo,Causas das Alterações ao Prazo,Causas das Alterações ao Preço,Estado,N.º registo do Acordo Quadro,Descrição do Acordo Quadro,Procedimento Centralizado
PRESTAÇÃO SERVIÇOS MÉDICOS ANATOMIA PATOLÓGICA,Concurso público,Aquisição de serviços,"85121000-3, Serviços de prática médica","Hospital Distrital de Santarém, E. P. E. (506361462)",CEDAP - CENTRO DIAGNOSTICO ANATOMO-PATOLOGICO LDA (504494562),"12.921,50 €",07-10-2016,12-09-2016,180 dias,"Portugal, Santarém, Santarém","Artigo 20.º, n.º 1, alínea b) do Código dos Contratos Públicos",,,,,,Não aplicável.,Não aplicável.,FALSE
Ecógrafos de última geração para Obstetrícia e Ginecologia e ECÓGRAFO DE ÚLTIMA GERAÇÃO PARA ECOGRAF,Concurso público,Aquisição de bens móveis,"33100000-1, Equipamento médico","Hospital Distrital de Santarém, E. P. E. (506361462)","Toshiba Medical Systems, SA (980023700)","228.620,00 €",03-10-2016,23-09-2016,25 dias,"Portugal, Santarém, Santarém","Artigo 20.º, n.º 1, alínea b) do Código dos Contratos Públicos",,,,,,Não aplicável.,Não aplicável.,FALSE
