Objeto do Contrato,Tipo de Procedimento,Tipo(s) de Contrato,CPVs,Entidade(s) Adjudicante(s),Entidade(s) Adjudicatária(s),Preço Contratual,Data de Publicação,Data de Celebração do Contrato,Prazo de Execução,Local de Execução,Fundamentação,Data de Fecho do Contrato,Preço Total Efetivo,Causas das Alterações ao Prazo,Causas das Alterações ao Preço,Estado,N.º registo do Acordo Quadro,Descrição do Acordo Quadro,Procedimento Centralizado
Fornecimento de um Ecógrafo Gama Alta para o Serviço de Imagiologia,Concurso público,Aquisição de bens móveis,"33112000-8, Equipamento de imagiologia por ecos, ultra-sons e doppler","Unidade Local de Saúde de Castelo Branco, EPE (509309844)","TOSHIBA MEDICAL SYSTEMS,SA (980023700)","59.000,00 €",21-07-2015,30-06-2014,20 dias,"Portugal, Castelo Branco, Castelo Branco","Artigo 20.º, n.º 1, alínea b) do Código dos Contratos Públicos",18-07-2014,"59.000,00 €","",,,Não aplicável.,Não aplicável.,FALSE
Filtros para ventiloconvectores e unidades de tratamento de ar do HAL e Centros de Saúde_2015,Ajuste Direto Regime Geral,Aquisição de bens móveis,"42514310-8, Filtros de ar","Unidade Local de Saúde de Castelo Branco, E.P.E. (509309844)","IBERCONCEPT-CONSULT.PROJECTOS, LDA (507212738)","17.077,28 €",21-07-2015,29-04-2015,30 dias,"Portugal, Castelo Branco, Castelo Branco","Artigo 20.º, n.º 1, alínea a) do Código dos Contratos Públicos",16-06-2015,"17.077,28 €","",,,Não aplicável.,Não aplicável.,FALSE
Prótese de Thompson vários números [c/ material de aplicação],Ajuste Direto Regime Geral,Aquisição de bens móveis,"33183200-8, Próteses ortopédicas","Unidade Local de Saúde de Castelo Branco, E.P.E. (509309844)","EXPOMEDICA-SOC.EXPORT.IMP.MAT.MED., LDA (501886621)","13.750,00 €",21-07-2015,01-06-2015,730 dias,"Portugal, Castelo Branco, Castelo Branco","Artigo 20.º, n.º 1, alínea a) do Código dos Contratos Públicos","","","",,,Não aplicável.,Não aplicável.,FALSE
"Aquisição e instalação de 1 Chiller para o sistema de climatização do edifício do Centro de Saúde de Vila de Rei, com retoma do avariado",Ajuste Direto Regime Geral,Aquisição de bens móveis,"42513200-7, Equipamento de refrigeração","Unidade Local de Saúde de Castelo Branco, E. P. E. (509309844)","PEDRO RIBEIRO, LDA (504329944)","27.000,00 €",21-07-2015,06-07-2015,30 dias,"Portugal, Castelo Branco, Castelo Branco","Artigo 20.º, n.º 1, alínea a) do Código dos Contratos Públicos",06-11-2015,"27.000,00 €","",,,Não aplicável.,Não aplicável.,FALSE
Cavilhas Proximais do Fémur [c/ material de aplicação],Ajuste Direto Regime Geral,Aquisição de bens móveis,"33183200-8, Próteses ortopédicas","Unidade Local de Saúde de Castelo Branco, E. P. E. (509309844)","STRYKER PORTUGAL PROD.MEDICOS, UNIP., LDA (504594214)","9.300,00 €",21-07-2015,13-07-2015,730 dias,"Portugal, Castelo Branco, Castelo Branco","Artigo 20.º, n.º 1, alínea a) do Código dos Contratos Públicos","","","",,,Não aplicável.,Não aplicável.,FALSE
Cavilhas Proximais do Fémur [c/ material de aplicação],Ajuste Direto Regime Geral,Aquisição de bens móveis,"33183200-8, Próteses ortopédicas","Unidade Local de Saúde de Castelo Branco, E. P. E. (509309844)","BIOMET PORTUGAL UNIPESSOL, LDA (500254990)","11.125,00 €",21-07-2015,13-07-2015,730 dias,"Portugal, Castelo Branco, Castelo Branco","Artigo 20.º, n.º 1, alínea a) do Código dos Contratos Públicos","","","",,,Não aplicável.,Não aplicável.,FALSE
Prest.Serv.manutenção e assist.técnica preventiva e correctiva_Central Tratamento Água Hemodiálise,Ajuste Direto Regime Geral,Aquisição de serviços,"71356200-0, Serviços de assistência técnica","Unidade Local de Saúde de Castelo Branco, E. P. E. (509309844)","BAXTER MEDICO-FARMACEUTICA, LDA (503347345)","13.562,64 €",20-07-2015,06-07-2015,210 dias,"Portugal, Castelo Branco, Castelo Branco","Artigo 20.º, n.º 1, alínea a) do Código dos Contratos Públicos",31-12-2015,"13.562,64 €","",,,Não aplicável.,Não aplicável.,FALSE
Pintura Exterior da Extensão de Saúde de Cernache do Bonjardim,Ajuste Direto Regime Geral,Empreitadas de obras públicas,"45442120-4, Pintura e revestimentos protectores de estruturas","Unidade Local de Saúde de Castelo Branco, E. P. E. (509309844)","LUIS MARCELINO & IRMAOS, LDA (505646110)","7.805,20 €",16-07-2015,08-07-2015,30 dias,"Portugal, Castelo Branco, Sertã","Artigo 19.º, alínea a) do Código dos Contratos Públicos","","7.805,20 €",.,,,Não aplicável.,Não aplicável.,FALSE
