Objeto do Contrato,Tipo de Procedimento,Tipo(s) de Contrato,CPVs,Entidade(s) Adjudicante(s),Entidade(s) Adjudicatária(s),Preço Contratual,Data de Publicação,Data de Celebração do Contrato,Prazo de Execução,Local de Execução,Fundamentação,Data de Fecho do Contrato,Preço Total Efetivo,Causas das Alterações ao Prazo,Causas das Alterações ao Preço,Estado,N.º registo do Acordo Quadro,Descrição do Acordo Quadro,Procedimento Centralizado
MÁQUINA SUTURA LINEAR LAPAROSCOPICA C/ CORTE,Ajuste Direto Regime Geral,Aquisição de bens móveis,"33141121-4, Suturas cirúrgicas","Centro Hospitalar Tondela-Viseu, E. P. E. (509822940)","COVIDIEN PORTUGAL-PRODUTOS DE SAÚDE UNIPESSOAL,LDA (503413410)","8.925,00 €",02-03-2016,19-11-2015,1 dias,"Portugal, Viseu, Viseu","Artigo 20.º, n.º 1, alínea a) do Código dos Contratos Públicos",,,,,,Não aplicável.,Não aplicável.,FALSE
CLIP HEMOSTATICO PARA ENDOSCOPIA PONTA ABERTA,Ajuste Direto Regime Geral,Aquisição de bens móveis,"33141120-7, Clipes, suturas, ligaduras","Centro Hospitalar Tondela-Viseu, E. P. E. (509822940)","BIOSONDA-COM.MAT.HOSPITALAR, (501463313)","9.500,00 €",02-03-2016,19-11-2015,1 dias,"Portugal, Viseu, Viseu","Artigo 20.º, n.º 1, alínea a) do Código dos Contratos Públicos",,,,,,Não aplicável.,Não aplicável.,FALSE
CATETER PARA COLANGIOGRAFIA PARA LAPAROSCOPIA,Ajuste Direto Regime Geral,Aquisição de bens móveis,"33141200-2, Cateteres","Centro Hospitalar Tondela-Viseu, E. P. E. (509822940)",ENDOTECNICA-MATERIAL CIRURGICO (503818348),"5.400,00 €",02-03-2016,18-11-2015,1 dias,"Portugal, Viseu, Viseu","Artigo 20.º, n.º 1, alínea a) do Código dos Contratos Públicos",,,,,,Não aplicável.,Não aplicável.,FALSE
"CATETER """"PUR"""" ENDOVENOSO PARA VEIA PERIFERICA",Ajuste Direto Regime Geral,Aquisição de bens móveis,"33141200-2, Cateteres","Centro Hospitalar Tondela-Viseu, E. P. E. (509822940)","B.BRAUN MEDICAL, LDA (501506543)","8.820,00 €",02-03-2016,09-12-2015,1 dias,"Portugal, Viseu, Viseu","Artigo 24.º, n.º 1, alínea c) do Código dos Contratos Públicos",,,,,,Não aplicável.,Não aplicável.,FALSE
MATERIAL DE CIRURGIA PARA NEUROCIRURGIA,Ajuste Direto Regime Geral,Aquisição de bens móveis,"33162200-5, Instrumentos para blocos operatórios","Centro Hospitalar Tondela-Viseu, E. P. E. (509822940)","JOHNSON & JOHNSON, MEDICAL (500153370)","9.942,25 €",29-02-2016,10-12-2015,1 dias,"Portugal, Viseu, Viseu","Artigo 24.º, n.º 1, alínea e) do Código dos Contratos Públicos",,,,,,Não aplicável.,Não aplicável.,FALSE
LENTES INTRAOCULARES E KITS PARA CIRURGIA DA CATARATA,Ajuste Direto Regime Geral,Aquisição de bens móveis,"33731110-7, Lentes intraoculares","Centro Hospitalar Tondela-Viseu, E. P. E. (509822940)","ALCON PORTUGAL-PROD.EQUIP.OFTL,LDA (501251685)","187.820,00 €",24-02-2016,19-01-2016,1 dias,"Portugal, Viseu, Viseu","Artigo 24.º, n.º 1, alínea e) do Código dos Contratos Públicos",,,,,,Não aplicável.,Não aplicável.,FALSE
MATERIAL DE OSTEOSINTESE - DMS E EPIFISIODESIS,Ajuste Direto Regime Geral,Aquisição de bens móveis,"33183100-7, Implantes ortopédicos","Centro Hospitalar Tondela-Viseu, E. P. E. (509822940)","MBA PORTUGAL , S.A. (504445960)","19.740,00 €",24-02-2016,12-02-2016,1 dias,"Portugal, Viseu, Viseu","Artigo 24.º, n.º 1, alínea e) do Código dos Contratos Públicos",,,,,,Não aplicável.,Não aplicável.,FALSE
MATERIAL DE ORTOPEDIA,Ajuste Direto Regime Geral,Aquisição de bens móveis,"33140000-3, Material médico de consumo","Centro Hospitalar Tondela-Viseu, E. P. E. (509822940)","JOHNSON & JOHNSON, MEDICAL (500153370)","19.950,00 €",24-02-2016,20-11-2015,1 dias,"Portugal, Viseu, Viseu","Artigo 24.º, n.º 1, alínea e) do Código dos Contratos Públicos",,,,,,Não aplicável.,Não aplicável.,FALSE
MATERIAL DE ORTOPEDIA,Ajuste Direto Regime Geral,Aquisição de bens móveis,"33141770-8, Alfinetes, placas e material para fracturas","Centro Hospitalar Tondela-Viseu, E. P. E. (509822940)","JOHNSON & JOHNSON, MEDICAL (500153370)","20.067,15 €",24-02-2016,31-07-2015,1 dias,"Portugal, Viseu, Viseu","Artigo 20.º, n.º 1, alínea a) do Código dos Contratos Públicos",,,,,,Não aplicável.,Não aplicável.,FALSE
DIVERSOS FIOS DE SUTURA,Ajuste Direto Regime Geral,Aquisição de bens móveis,"33141121-4, Suturas cirúrgicas","Centro Hospitalar Tondela-Viseu, E. P. E. (509822940)","B.BRAUN MEDICAL, LDA (501506543)","112.132,68 €",23-02-2016,14-12-2015,1 dias,"Portugal, Viseu, Viseu","Artigo 24.º, n.º 1, alínea c) do Código dos Contratos Públicos",,,,,,Não aplicável.,Não aplicável.,FALSE
SUTURA LIQUIDA CUTÂNEA,Ajuste Direto Regime Geral,Aquisição de bens móveis,"33141121-4, Suturas cirúrgicas","Centro Hospitalar Tondela-Viseu, E. P. E. (509822940)","JOHNSON & JOHNSON, MEDICAL (500153370)","5.616,00 €",23-02-2016,14-12-2015,1 dias,"Portugal, Viseu, Viseu","Artigo 20.º, n.º 1, alínea a) do Código dos Contratos Públicos",,,,,,Não aplicável.,Não aplicável.,FALSE
CARGA PARA MÁQUINA DE SUTURA LINEAR,Ajuste Direto Regime Geral,Aquisição de bens móveis,"33141120-7, Clipes, suturas, ligaduras","Centro Hospitalar Tondela-Viseu, E. P. E. (509822940)","COVIDIEN PORTUGAL-PRODUTOS DE SAÚDE UNIPESSOAL,LDA (503413410)","6.120,00 €",23-02-2016,02-12-2015,1 dias,"Portugal, Viseu, Viseu","Artigo 24.º, n.º 1, alínea e) do Código dos Contratos Públicos",,,,,,Não aplicável.,Não aplicável.,FALSE
MATERIAL APLICADO - COLUNA,Ajuste Direto Regime Geral,Aquisição de bens móveis,"33183100-7, Implantes ortopédicos","Centro Hospitalar Tondela-Viseu, E. P. E. (509822940)","JOHNSON & JOHNSON, MEDICAL (500153370)","6.730,19 €",23-02-2016,10-09-2015,1 dias,"Portugal, Viseu, Viseu","Artigo 20.º, n.º 1, alínea a) do Código dos Contratos Públicos",,,,,,Não aplicável.,Não aplicável.,FALSE
MATERIAL APLICADO - COLUNA,Ajuste Direto Regime Geral,Aquisição de bens móveis,"33183100-7, Implantes ortopédicos","Centro Hospitalar Tondela-Viseu, E. P. E. (509822940)","JOHNSON & JOHNSON, MEDICAL (500153370)","9.839,56 €",23-02-2016,16-09-2015,1 dias,"Portugal, Viseu, Viseu","Artigo 20.º, n.º 1, alínea a) do Código dos Contratos Públicos",,,,,,Não aplicável.,Não aplicável.,FALSE
CARGA PARA MÁQUINA SUTURA LINEAR,Ajuste Direto Regime Geral,Aquisição de bens móveis,"33141120-7, Clipes, suturas, ligaduras","Centro Hospitalar Tondela-Viseu, E. P. E. (509822940)","COVIDIEN PORTUGAL-PRODUTOS DE SAÚDE UNIPESSOAL,LDA (503413410)","9.450,00 €",22-02-2016,03-12-2015,1 dias,"Portugal, Viseu, Viseu","Artigo 24.º, n.º 1, alínea e) do Código dos Contratos Públicos",,,,,,Não aplicável.,Não aplicável.,FALSE
ADAPTADOR DE MEMBRANA E TUBO SISTEMA FECHADO,Ajuste Direto Regime Geral,Aquisição de bens móveis,"33140000-3, Material médico de consumo","Centro Hospitalar Tondela-Viseu, E. P. E. (509822940)","SARSTEDT, S.A. (502659955)","9.157,50 €",22-02-2016,10-11-2015,1 dias,"Portugal, Viseu, Viseu","Artigo 24.º, n.º 1, alínea c) do Código dos Contratos Públicos",,,,,,Não aplicável.,Não aplicável.,FALSE
PONTA CUSA EXCEL STANDARD LONGA CURVA,Ajuste Direto Regime Geral,Aquisição de bens móveis,"33140000-3, Material médico de consumo","Centro Hospitalar Tondela-Viseu, E. P. E. (509822940)","SOCIME II - Produtos Médicos,Lda (504453939)","8.640,00 €",22-02-2016,13-10-2015,1 dias,"Portugal, Viseu, Viseu","Artigo 24.º, n.º 1, alínea e) do Código dos Contratos Públicos",,,,,,Não aplicável.,Não aplicável.,FALSE
REDE DUPLA FACE POLIPROPILENO/HIDROGEL COM BALÃO,Ajuste Direto Regime Geral,Aquisição de bens móveis,"33184100-4, Implantes cirúrgicos","Centro Hospitalar Tondela-Viseu, E. P. E. (509822940)","C.R. BARD PORTUGAL, LDA. (502438274)","7.680,00 €",22-02-2016,07-10-2015,1 dias,"Portugal, Viseu, Viseu","Artigo 24.º, n.º 1, alínea c) do Código dos Contratos Públicos",,,,,,Não aplicável.,Não aplicável.,FALSE
PINÇA LIGASURE TM PARA CIRURGIA ABERTA OU LAPAROTOMIA,Ajuste Direto Regime Geral,Aquisição de bens móveis,"33162200-5, Instrumentos para blocos operatórios","Centro Hospitalar Tondela-Viseu, E. P. E. (509822940)","COVIDIEN PORTUGAL-PRODUTOS DE SAÚDE UNIPESSOAL,LDA (503413410)","8.380,80 €",22-02-2016,14-12-2015,1 dias,"Portugal, Viseu, Viseu","Artigo 24.º, n.º 1, alínea c) do Código dos Contratos Públicos",,,,,,Não aplicável.,Não aplicável.,FALSE
