Objeto do Contrato,Tipo de Procedimento,Tipo(s) de Contrato,CPVs,Entidade(s) Adjudicante(s),Entidade(s) Adjudicatária(s),Preço Contratual,Data de Publicação,Data de Celebração do Contrato,Prazo de Execução,Local de Execução,Fundamentação,Data de Fecho do Contrato,Preço Total Efetivo,Causas das Alterações ao Prazo,Causas das Alterações ao Preço,Estado,N.º registo do Acordo Quadro,Descrição do Acordo Quadro,Procedimento Centralizado
6 Bombas infusoras,Ajuste Direto Regime Geral,Aquisição de bens móveis,"33194110-0, Bombas para perfusão","Unidade Local de Saúde de Castelo Branco, E. P. E. (509309844)","B.BRAUN MEDICAL, LDA. (501506543)","6.000,00 €",05-12-2014,18-11-2014,11 dias,"Portugal, Castelo Branco, Castelo Branco","Artigo 20.º, n.º 1, alínea a) do Código dos Contratos Públicos",29-11-2014,"6.000,00 €",,,,Não aplicável.,Não aplicável.,FALSE
2 Detectores digitais AERO com uma consola_Serviço de Imagiologia,Ajuste Direto Regime Geral,Aquisição de bens móveis,"33111000-1, Aparelhos para radiologia","Unidade Local de Saúde de Castelo Branco, E. P. E. (509309844)","GENERAL ELECTRIC PORTUGUESA, SA (500357129)","75.000,00 €",04-12-2014,11-09-2014,20 dias,"Portugal, Castelo Branco, Castelo Branco","Artigo 20.º, n.º 1, alínea a) do Código dos Contratos Públicos",26-09-2014,"75.000,00 €",,,,Não aplicável.,Não aplicável.,FALSE
8 Suportes para teclado/monitor em pendentes para UCIP,Ajuste Direto Regime Geral,Aquisição de bens móveis,"30237200-1, Acessórios para computadores","Unidade Local de Saúde de Castelo Branco, E. P. E. (509309844)","BURCIO & SANTOS, LDA (STORE IT) (503567540)","8.218,40 €",04-12-2014,03-12-2014,30 dias,"Portugal, Castelo Branco, Castelo Branco","Artigo 20.º, n.º 1, alínea a) do Código dos Contratos Públicos",22-12-2014,"8.218,40 €",,,,Não aplicável.,Não aplicável.,FALSE
