Objeto do Contrato,Tipo de Procedimento,Tipo(s) de Contrato,CPVs,Entidade(s) Adjudicante(s),Entidade(s) Adjudicatária(s),Preço Contratual,Data de Publicação,Data de Celebração do Contrato,Prazo de Execução,Local de Execução,Fundamentação,Data de Fecho do Contrato,Preço Total Efetivo,Causas das Alterações ao Prazo,Causas das Alterações ao Preço,Estado,N.º registo do Acordo Quadro,Descrição do Acordo Quadro,Procedimento Centralizado
Empreitada de Obras públicas para a Remodelação das Instalações do Edifício 16 do Parque da Saúde de Lisboa,Concurso público,Empreitadas de obras públicas,"45453000-7, Obras de revisão e recuperação","Administração Central do Sistema de Saúde, I. P. (508188423)","Habitamega Construções, S.A. (502220821)","1.055.212,00 €",08-10-2018,09-12-2014,120 dias,"Portugal, Lisboa, Lisboa","Artigo 19.º, alínea b) do Código dos Contratos Públicos",20-10-2015,"1.184.311,82 €",Trabalhos a mais,Trabalhos a mais,,Não aplicável.,Não aplicável.,FALSE
Empreitada de Remodelação do Edifício 18 do Parque da Saúde de Lisboa,Concurso público,Empreitadas de obras públicas,"45453000-7, Obras de revisão e recuperação","Administração Central do Sistema de Saúde, I. P. (508188423)","Veiga Lopes, S.A. (503079235)","586.089,67 €",01-10-2018,11-09-2015,233 dias,"Portugal, Lisboa, Lisboa","Artigo 19.º, alínea b) do Código dos Contratos Públicos",02-02-2017,"583.501,08 €",-,Derivado da supressão de alguns trabalhos previstos,,Não aplicável.,Não aplicável.,FALSE
