Objeto do Contrato,Tipo de Procedimento,Tipo(s) de Contrato,CPVs,Entidade(s) Adjudicante(s),Entidade(s) Adjudicatária(s),Preço Contratual,Data de Publicação,Data de Celebração do Contrato,Prazo de Execução,Local de Execução,Fundamentação,Data de Fecho do Contrato,Preço Total Efetivo,Causas das Alterações ao Prazo,Causas das Alterações ao Preço,Estado,N.º registo do Acordo Quadro,Descrição do Acordo Quadro,Procedimento Centralizado
Aquisição de Combustíveis Rodoviários,Ao abrigo de acordo-quadro (art.º 259.º),Aquisição de bens móveis,"09100000-0, Combustíveis","Hospital de Santa Maria Maior, E. P. E. (506361381)","Petróleos de Portugal- Petrogal,S.A. (500697370)","17.058,00 €",25-02-2016,12-02-2016,365 dias,"Portugal, Braga, Barcelos",Artigo 259.º do Código dos Contratos Públicos,31-12-2016,"17.058,00 €",,,,400324,Acordo quadro de fornecimento de combustíveis rodoviários,TRUE
Fornecimento de Eletricidade,Ao abrigo de acordo-quadro (art.º 259.º),Aquisição de bens móveis,"09310000-5, Electricidade","Hospital de Santa Maria Maior, E. P. E. (506361381)","EDP COMERCIAL - Comercialização de Energia,S.A. (503504564)","73.839,59 €",25-02-2016,01-01-2016,365 dias,"Portugal, Braga, Barcelos",Artigo 259.º do Código dos Contratos Públicos,31-12-2016,"73.839,59 €",,,,314294,Acordo quadro para o fornecimento de electricidade em regime de mercado livre para Portugal Continental,TRUE
Aquisição de Papel para Fotocópia e Impressão,Ao abrigo de acordo-quadro (art.º 259.º),Aquisição de bens móveis,"30197643-5, Papel para fotocópia","Hospital de Santa Maria Maior, E. P. E. (506361381)","OHMTécnica, Representações de marcas, Lda. (504059521)","6.615,00 €",25-02-2016,01-01-2016,365 dias,"Portugal, Braga, Barcelos",Artigo 259.º do Código dos Contratos Públicos,31-12-2016,"6.615,00 €",,,,1351201,Acordo quadro de fornecimento de papel e economato,TRUE
Aquisição de Economato,Ao abrigo de acordo-quadro (art.º 259.º),Aquisição de bens móveis,"30192000-1, Material de escritório","Hospital de Santa Maria Maior, E. P. E. (506361381)","OHMTécnica - Representações de Marcas, Lda. (504059521)","695,23 €",25-02-2016,01-01-2016,365 dias,"Portugal, Braga, Barcelos",Artigo 259.º do Código dos Contratos Públicos,31-12-2016,"695,23 €",,,,1351201,Acordo quadro de fornecimento de papel e economato,TRUE
