Objeto do Contrato,Tipo de Procedimento,Tipo(s) de Contrato,CPVs,Entidade(s) Adjudicante(s),Entidade(s) Adjudicatária(s),Preço Contratual,Data de Publicação,Data de Celebração do Contrato,Prazo de Execução,Local de Execução,Fundamentação,Data de Fecho do Contrato,Preço Total Efetivo,Causas das Alterações ao Prazo,Causas das Alterações ao Preço,Estado,N.º registo do Acordo Quadro,Descrição do Acordo Quadro,Procedimento Centralizado
Aquisição de Produtos Farmacêuticos: Hormonas e outros medicamentos usados em doenças endócrinas ao abrigo do AQ 2015/7,Ao abrigo de acordo-quadro (art.º 259.º),Aquisição de bens móveis,"33600000-6, Produtos farmacêuticos","Unidade Local de Saúde do Litoral Alentejano, E. P. E. (510445152)",Laboratorio Pfizer Lda  (500162166),"1.245,00 €",31-07-2018,24-07-2018,150 dias,"Portugal, Setúbal, Santiago do Cacém",Artigo 259.º do Código dos Contratos Públicos,,,,,,1415640,CP 2015/7 - ACORDO QUADRO PARA FORNECIMENTO DE HORMONAS E OUTROS MEDICAMENTOS USADOS NO TRATAMENTO DAS DOENÇAS ENDÓCRINAS ÀS INSTITUIÇÕES E SERVIÇOS DO SERVIÇO NACIONAL DE SAÚDE,FALSE
Aquisição de Produtos Farmacêuticos: Hormonas e outros medicamentos usados em doenças endócrinas ao abrigo do AQ 2015/7,Ao abrigo de acordo-quadro (art.º 259.º),Aquisição de bens móveis,"33600000-6, Produtos farmacêuticos","Unidade Local de Saúde do Litoral Alentejano, E. P. E. (510445152)",Hikma SA (502266791),"1.680,00 €",31-07-2018,24-07-2018,150 dias,"Portugal, Setúbal, Santiago do Cacém",Artigo 259.º do Código dos Contratos Públicos,,,,,,1415640,CP 2015/7 - ACORDO QUADRO PARA FORNECIMENTO DE HORMONAS E OUTROS MEDICAMENTOS USADOS NO TRATAMENTO DAS DOENÇAS ENDÓCRINAS ÀS INSTITUIÇÕES E SERVIÇOS DO SERVIÇO NACIONAL DE SAÚDE,FALSE
Aquisição de Produtos Farmacêuticos: Hormonas e outros medicamentos usados em doenças endócrinas ao abrigo do AQ 2015/7,Ao abrigo de acordo-quadro (art.º 259.º),Aquisição de bens móveis,"33600000-6, Produtos farmacêuticos","Unidade Local de Saúde do Litoral Alentejano, E. P. E. (510445152)",Merck SA (500650870),"21,96 €",31-07-2018,24-07-2018,150 dias,"Portugal, Setúbal, Santiago do Cacém",Artigo 259.º do Código dos Contratos Públicos,,,,,,1415640,CP 2015/7 - ACORDO QUADRO PARA FORNECIMENTO DE HORMONAS E OUTROS MEDICAMENTOS USADOS NO TRATAMENTO DAS DOENÇAS ENDÓCRINAS ÀS INSTITUIÇÕES E SERVIÇOS DO SERVIÇO NACIONAL DE SAÚDE,FALSE
Aquisição de Produtos Farmacêuticos: Hormonas e outros medicamentos usados em doenças endócrinas ao abrigo do AQ 2015/7,Ao abrigo de acordo-quadro (art.º 259.º),Aquisição de bens móveis,"33600000-6, Produtos farmacêuticos","Unidade Local de Saúde do Litoral Alentejano, E. P. E. (510445152)",Pharmis Lda (502595442),"7.805,00 €",31-07-2018,24-07-2018,150 dias,"Portugal, Setúbal, Santiago do Cacém",Artigo 259.º do Código dos Contratos Públicos,,,,,,1415640,CP 2015/7 - ACORDO QUADRO PARA FORNECIMENTO DE HORMONAS E OUTROS MEDICAMENTOS USADOS NO TRATAMENTO DAS DOENÇAS ENDÓCRINAS ÀS INSTITUIÇÕES E SERVIÇOS DO SERVIÇO NACIONAL DE SAÚDE,FALSE
Aquisição de Produtos Farmacêuticos: Hormonas e outros medicamentos usados em doenças endócrinas ao abrigo do AQ 2015/7,Ao abrigo de acordo-quadro (art.º 259.º),Aquisição de bens móveis,"33600000-6, Produtos farmacêuticos","Unidade Local de Saúde do Litoral Alentejano, E. P. E. (510445152)",Novo Nordisk Lda (501485210),"2.340,50 €",31-07-2018,24-07-2018,150 dias,"Portugal, Setúbal, Santiago do Cacém",Artigo 259.º do Código dos Contratos Públicos,,,,,,1415640,CP 2015/7 - ACORDO QUADRO PARA FORNECIMENTO DE HORMONAS E OUTROS MEDICAMENTOS USADOS NO TRATAMENTO DAS DOENÇAS ENDÓCRINAS ÀS INSTITUIÇÕES E SERVIÇOS DO SERVIÇO NACIONAL DE SAÚDE,FALSE
Aquisição de Produtos Farmacêuticos: Hormonas e outros medicamentos usados em doenças endócrinas ao abrigo do AQ 2015/7,Ao abrigo de acordo-quadro (art.º 259.º),Aquisição de bens móveis,"33600000-6, Produtos farmacêuticos","Unidade Local de Saúde do Litoral Alentejano, E. P. E. (510445152)",Merck Sharp & Dohme Lda (500191360),"1.447,40 €",31-07-2018,24-07-2018,150 dias,"Portugal, Setúbal, Santiago do Cacém",Artigo 259.º do Código dos Contratos Públicos,,,,,,1415640,CP 2015/7 - ACORDO QUADRO PARA FORNECIMENTO DE HORMONAS E OUTROS MEDICAMENTOS USADOS NO TRATAMENTO DAS DOENÇAS ENDÓCRINAS ÀS INSTITUIÇÕES E SERVIÇOS DO SERVIÇO NACIONAL DE SAÚDE,FALSE
Aquisição de Medicamentos do Aparelho Respiratório ao abrigo do AQ 2015/12,Ao abrigo de acordo-quadro (art.º 259.º),Aquisição de bens móveis,"33600000-6, Produtos farmacêuticos","Unidade Local de Saúde do Litoral Alentejano, E. P. E. (510445152)",Mylan Lda (502248793),"69,30 €",31-07-2018,24-07-2018,150 dias,"Portugal, Setúbal, Santiago do Cacém",Artigo 259.º do Código dos Contratos Públicos,,,,,,1638654,CP 2015/12 - Acordo quadro para fornecimento de Medicamentos do Aparelho Respiratório às Instituições e Serviços do Serviço Nacional de Saúde,FALSE
Aquisição de Medicamentos do Aparelho Respiratório ao abrigo do AQ 2015/12,Ao abrigo de acordo-quadro (art.º 259.º),Aquisição de bens móveis,"33600000-6, Produtos farmacêuticos","Unidade Local de Saúde do Litoral Alentejano, E. P. E. (510445152)",Novartis SA (500063524),"30.832,40 €",31-07-2018,24-07-2018,150 dias,"Portugal, Setúbal, Santiago do Cacém",Artigo 259.º do Código dos Contratos Públicos,,,,,,1638654,CP 2015/12 - Acordo quadro para fornecimento de Medicamentos do Aparelho Respiratório às Instituições e Serviços do Serviço Nacional de Saúde,FALSE
Aquisição de Medicamentos do Aparelho Respiratório ao abrigo do AQ 2015/12,Ao abrigo de acordo-quadro (art.º 259.º),Aquisição de bens móveis,"33600000-6, Produtos farmacêuticos","Unidade Local de Saúde do Litoral Alentejano, E. P. E. (510445152)",Unilfarma Lda (500293023),"2.848,00 €",31-07-2018,24-07-2018,150 dias,"Portugal, Setúbal, Santiago do Cacém",Artigo 259.º do Código dos Contratos Públicos,,,,,,1638654,CP 2015/12 - Acordo quadro para fornecimento de Medicamentos do Aparelho Respiratório às Instituições e Serviços do Serviço Nacional de Saúde,FALSE
Aquisição de Medicamentos do Aparelho Respiratório ao abrigo do AQ 2015/12,Ao abrigo de acordo-quadro (art.º 259.º),Aquisição de bens móveis,"33600000-6, Produtos farmacêuticos","Unidade Local de Saúde do Litoral Alentejano, E. P. E. (510445152)",GlaxoSmithKline Lda (500139962),"7.924,30 €",31-07-2018,24-07-2018,150 dias,"Portugal, Setúbal, Santiago do Cacém",Artigo 259.º do Código dos Contratos Públicos,,,,,,1638654,CP 2015/12 - Acordo quadro para fornecimento de Medicamentos do Aparelho Respiratório às Instituições e Serviços do Serviço Nacional de Saúde,FALSE
Aquisição de Medicamentos do Aparelho Respiratório ao abrigo do AQ 2015/12,Ao abrigo de acordo-quadro (art.º 259.º),Aquisição de bens móveis,"33600000-6, Produtos farmacêuticos","Unidade Local de Saúde do Litoral Alentejano, E. P. E. (510445152)",Labesfal SA (501169580),"3.703,30 €",31-07-2018,24-07-2018,120 dias,"Portugal, Setúbal, Santiago do Cacém",Artigo 259.º do Código dos Contratos Públicos,,,,,,1638654,CP 2015/12 - Acordo quadro para fornecimento de Medicamentos do Aparelho Respiratório às Instituições e Serviços do Serviço Nacional de Saúde,FALSE
Aquisição de Medicamentos Aparelho Locomotor ao abrigo do AQ 2015/47,Ao abrigo de acordo-quadro (art.º 259.º),Aquisição de bens móveis,"33600000-6, Produtos farmacêuticos","Unidade Local de Saúde do Litoral Alentejano, E. P. E. (510445152)",Pfizer Biofarmaceutica Lda (513300376),"10.338,50 €",30-07-2018,24-07-2018,150 dias,"Portugal, Setúbal, Santiago do Cacém",Artigo 259.º do Código dos Contratos Públicos,,,,,,1410779,CP 2015/47 - Acordo quadro para fornecimento de medicamentos do aparelho locomotor às instituições e serviços do serviço nacional de saúde,FALSE
Aquisição de Medicamentos Aparelho Locomotor ao abrigo do AQ 2015/47,Ao abrigo de acordo-quadro (art.º 259.º),Aquisição de bens móveis,"33600000-6, Produtos farmacêuticos","Unidade Local de Saúde do Litoral Alentejano, E. P. E. (510445152)",Laboratorios Pfizer Lda (500162166),"490,50 €",30-07-2018,24-07-2018,150 dias,"Portugal, Setúbal, Santiago do Cacém",Artigo 259.º do Código dos Contratos Públicos,,,,,,1410779,CP 2015/47 - Acordo quadro para fornecimento de medicamentos do aparelho locomotor às instituições e serviços do serviço nacional de saúde,FALSE
Aquisição de Medicamentos Aparelho Locomotor ao abrigo do AQ 2015/47,Ao abrigo de acordo-quadro (art.º 259.º),Aquisição de bens móveis,"33600000-6, Produtos farmacêuticos","Unidade Local de Saúde do Litoral Alentejano, E. P. E. (510445152)",Labesfal SA (501169580),"1.360,00 €",30-07-2018,24-07-2018,150 dias,"Portugal, Setúbal, Santiago do Cacém",Artigo 259.º do Código dos Contratos Públicos,,,,,,1410779,CP 2015/47 - Acordo quadro para fornecimento de medicamentos do aparelho locomotor às instituições e serviços do serviço nacional de saúde,FALSE
Aquisição de Medicamentos Aparelho Locomotor ao abrigo do AQ 2015/47,Ao abrigo de acordo-quadro (art.º 259.º),Aquisição de bens móveis,"33600000-6, Produtos farmacêuticos","Unidade Local de Saúde do Litoral Alentejano, E. P. E. (510445152)",Generis SA (508107997),"6.598,84 €",30-07-2018,24-07-2018,150 dias,"Portugal, Setúbal, Santiago do Cacém",Artigo 259.º do Código dos Contratos Públicos,,,,,,1410779,CP 2015/47 - Acordo quadro para fornecimento de medicamentos do aparelho locomotor às instituições e serviços do serviço nacional de saúde,FALSE
Aquisição de Medicamentos Aparelho Locomotor ao abrigo do AQ 2015/47,Ao abrigo de acordo-quadro (art.º 259.º),Aquisição de bens móveis,"33600000-6, Produtos farmacêuticos","Unidade Local de Saúde do Litoral Alentejano, E. P. E. (510445152)",Laboratorios Bial SA (500220913),"6,19 €",30-07-2018,24-07-2018,150 dias,"Portugal, Setúbal, Santiago do Cacém",Artigo 259.º do Código dos Contratos Públicos,,,,,,1410779,CP 2015/47 - Acordo quadro para fornecimento de medicamentos do aparelho locomotor às instituições e serviços do serviço nacional de saúde,FALSE
Aquisição de Medicamentos Diversos ao abrigo do AQ 2017/61,Ao abrigo de acordo-quadro (art.º 259.º),Aquisição de bens móveis,"33600000-6, Produtos farmacêuticos","Unidade Local de Saúde do Litoral Alentejano, E. P. E. (510445152)",Pierre Fabre Lda (500230366),"11.976,00 €",26-07-2018,04-07-2018,150 dias,"Portugal, Setúbal, Santiago do Cacém",Artigo 259.º do Código dos Contratos Públicos,,,,,,2545980,CP 2017/61 - Acordo quadro para fornecimento de Medicamentos Diversos   às Instituições e Serviços do Serviço Nacional de Saúde,FALSE
Aquisição de Medicamentos Diversos ao abrigo do AQ 2017/61,Ao abrigo de acordo-quadro (art.º 259.º),Aquisição de bens móveis,"33600000-6, Produtos farmacêuticos","Unidade Local de Saúde do Litoral Alentejano, E. P. E. (510445152)",UCB Lda (500291322),"42.981,12 €",26-07-2018,04-07-2018,150 dias,"Portugal, Setúbal, Santiago do Cacém",Artigo 259.º do Código dos Contratos Públicos,,,,,,2545980,CP 2017/61 - Acordo quadro para fornecimento de Medicamentos Diversos   às Instituições e Serviços do Serviço Nacional de Saúde,FALSE
Aquisição de Medicamentos Diversos ao abrigo do AQ 2017/61,Ao abrigo de acordo-quadro (art.º 259.º),Aquisição de bens móveis,"33600000-6, Produtos farmacêuticos","Unidade Local de Saúde do Litoral Alentejano, E. P. E. (510445152)",Baxter Lda (503347345),"1.852,25 €",26-07-2018,04-07-2018,150 dias,"Portugal, Setúbal, Santiago do Cacém",Artigo 259.º do Código dos Contratos Públicos,,,,,,2545980,CP 2017/61 - Acordo quadro para fornecimento de Medicamentos Diversos   às Instituições e Serviços do Serviço Nacional de Saúde,FALSE
Aquisição de Medicamentos Diversos ao abrigo do AQ 2017/61,Ao abrigo de acordo-quadro (art.º 259.º),Aquisição de bens móveis,"33600000-6, Produtos farmacêuticos","Unidade Local de Saúde do Litoral Alentejano, E. P. E. (510445152)","Bial, Portela e Companhia SA (500220913)","29,75 €",26-07-2018,04-07-2018,150 dias,"Portugal, Setúbal, Santiago do Cacém",Artigo 259.º do Código dos Contratos Públicos,,,,,,2545980,CP 2017/61 - Acordo quadro para fornecimento de Medicamentos Diversos   às Instituições e Serviços do Serviço Nacional de Saúde,FALSE
Aquisição de Medicamentos Antivíricos,Ao abrigo de acordo-quadro (art.º 259.º),Aquisição de bens móveis,"33600000-6, Produtos farmacêuticos","Unidade Local de Saúde do Litoral Alentejano, E. P. E. (510445152)",Roche Farmaceutica Lda (500233810),"345,20 €",26-07-2018,04-07-2018,150 dias,"Portugal, Setúbal, Santiago do Cacém","Artigo 20.º, n.º 1, alínea c) do Código dos Contratos Públicos",,,,,,1422736,CP 2015/41 - ACORDO QUADRO PARA FORNECIMENTO DE MEDICAMENTOS ANTI-INFECIOSOS: ANTIVÍRICOS E ANTIFÚNGICOS ÀS INSTITUIÇÕES E SERVIÇOS DO SERVIÇO NACIONAL DE SAÚDE,FALSE
Aquisição de Medicamentos Antivíricos,Ao abrigo de acordo-quadro (art.º 259.º),Aquisição de bens móveis,"33600000-6, Produtos farmacêuticos","Unidade Local de Saúde do Litoral Alentejano, E. P. E. (510445152)",Bristol SA (500048193),"696,80 €",26-07-2018,04-07-2018,150 dias,"Portugal, Setúbal, Santiago do Cacém","Artigo 20.º, n.º 1, alínea c) do Código dos Contratos Públicos",,,,,,1422736,CP 2015/41 - ACORDO QUADRO PARA FORNECIMENTO DE MEDICAMENTOS ANTI-INFECIOSOS: ANTIVÍRICOS E ANTIFÚNGICOS ÀS INSTITUIÇÕES E SERVIÇOS DO SERVIÇO NACIONAL DE SAÚDE,FALSE
Aquisição de Medicamentos Antivíricos,Ao abrigo de acordo-quadro (art.º 259.º),Aquisição de bens móveis,"33600000-6, Produtos farmacêuticos","Unidade Local de Saúde do Litoral Alentejano, E. P. E. (510445152)",Generis SA (508107997),"27,30 €",26-07-2018,04-07-2018,150 dias,"Portugal, Setúbal, Santiago do Cacém","Artigo 20.º, n.º 1, alínea c) do Código dos Contratos Públicos",,,,,,1422736,CP 2015/41 - ACORDO QUADRO PARA FORNECIMENTO DE MEDICAMENTOS ANTI-INFECIOSOS: ANTIVÍRICOS E ANTIFÚNGICOS ÀS INSTITUIÇÕES E SERVIÇOS DO SERVIÇO NACIONAL DE SAÚDE,FALSE
Aquisição de Medicamentos Antivíricos,Ao abrigo de acordo-quadro (art.º 259.º),Aquisição de bens móveis,"33600000-6, Produtos farmacêuticos","Unidade Local de Saúde do Litoral Alentejano, E. P. E. (510445152)",Fresenius Kabi Lda (504293753),"164,92 €",26-07-2018,04-07-2018,150 dias,"Portugal, Setúbal, Santiago do Cacém","Artigo 20.º, n.º 1, alínea c) do Código dos Contratos Públicos",,,,,,1422736,CP 2015/41 - ACORDO QUADRO PARA FORNECIMENTO DE MEDICAMENTOS ANTI-INFECIOSOS: ANTIVÍRICOS E ANTIFÚNGICOS ÀS INSTITUIÇÕES E SERVIÇOS DO SERVIÇO NACIONAL DE SAÚDE,FALSE
Aquisição de Medicamentos Antivíricos,Ao abrigo de acordo-quadro (art.º 259.º),Aquisição de bens móveis,"33600000-6, Produtos farmacêuticos","Unidade Local de Saúde do Litoral Alentejano, E. P. E. (510445152)",Laboratorio Pfizer Lda (500162166),"17.530,00 €",26-07-2018,04-07-2018,150 dias,"Portugal, Setúbal, Santiago do Cacém","Artigo 20.º, n.º 1, alínea c) do Código dos Contratos Públicos",,,,,,1422736,CP 2015/41 - ACORDO QUADRO PARA FORNECIMENTO DE MEDICAMENTOS ANTI-INFECIOSOS: ANTIVÍRICOS E ANTIFÚNGICOS ÀS INSTITUIÇÕES E SERVIÇOS DO SERVIÇO NACIONAL DE SAÚDE,FALSE
Aquisição de Medicamentos Antivíricos,Ao abrigo de acordo-quadro (art.º 259.º),Aquisição de bens móveis,"33600000-6, Produtos farmacêuticos","Unidade Local de Saúde do Litoral Alentejano, E. P. E. (510445152)",Sidefarma SA (500717419),"369,60 €",26-07-2018,04-07-2018,150 dias,"Portugal, Setúbal, Santiago do Cacém","Artigo 20.º, n.º 1, alínea c) do Código dos Contratos Públicos",,,,,,1422736,CP 2015/41 - ACORDO QUADRO PARA FORNECIMENTO DE MEDICAMENTOS ANTI-INFECIOSOS: ANTIVÍRICOS E ANTIFÚNGICOS ÀS INSTITUIÇÕES E SERVIÇOS DO SERVIÇO NACIONAL DE SAÚDE,FALSE
Aquisição de Serviços de Integração de Sistemas para o Datacenter da ULSLA,Ajuste Direto Regime Geral,Aquisição de serviços,"51611100-9, Serviços de instalação de hardware","Unidade Local de Saúde do Litoral Alentejano, E. P. E. (510445152)",Proef It SA (513717200),"60.000,00 €",24-07-2018,02-07-2018,180 dias,"Portugal, Setúbal, Santiago do Cacém","Artigo 20.º, n.º 1, alínea a) do Código dos Contratos Públicos",,,,,,Não aplicável.,Não aplicável.,FALSE
"Aquisição de Medicação antialérgica, vitaminas sais minerais, medicamentos usados no tratamento de intoxicações e grupo 20.9-outros produtos",Ao abrigo de acordo-quadro (art.º 259.º),Aquisição de bens móveis,"33600000-6, Produtos farmacêuticos","Unidade Local de Saúde do Litoral Alentejano, E. P. E. (510445152)",Labesfal SA (501169580),"5.132,36 €",24-07-2018,04-07-2018,180 dias,"Portugal, Setúbal, Santiago do Cacém",Artigo 259.º do Código dos Contratos Públicos,,,,,,2775699,"CP 2017/50 - Medicação antialérgica, vitaminas e sais minerais, medicamentos usados no tratamento de intoxicações e grupo 20.9",FALSE
"Aquisição de Medicação antialérgica, vitaminas sais minerais, medicamentos usados no tratamento de intoxicações e grupo 20.9-outros produtos",Ao abrigo de acordo-quadro (art.º 259.º),Aquisição de bens móveis,"33600000-6, Produtos farmacêuticos","Unidade Local de Saúde do Litoral Alentejano, E. P. E. (510445152)",Hikma SA (502266791),"1.770,00 €",24-07-2018,04-07-2018,180 dias,"Portugal, Setúbal, Santiago do Cacém",Artigo 259.º do Código dos Contratos Públicos,,,,,,2775699,"CP 2017/50 - Medicação antialérgica, vitaminas e sais minerais, medicamentos usados no tratamento de intoxicações e grupo 20.9",FALSE
"Aquisição de Medicação antialérgica, vitaminas sais minerais, medicamentos usados no tratamento de intoxicações e grupo 20.9-outros produtos",Ao abrigo de acordo-quadro (art.º 259.º),Aquisição de bens móveis,"33600000-6, Produtos farmacêuticos","Unidade Local de Saúde do Litoral Alentejano, E. P. E. (510445152)",Generis SA (508107997),"174,30 €",24-07-2018,04-07-2018,180 dias,"Portugal, Setúbal, Santiago do Cacém",Artigo 259.º do Código dos Contratos Públicos,,,,,,2775699,"CP 2017/50 - Medicação antialérgica, vitaminas e sais minerais, medicamentos usados no tratamento de intoxicações e grupo 20.9",FALSE
"Aquisição de Medicação antialérgica, vitaminas sais minerais, medicamentos usados no tratamento de intoxicações e grupo 20.9-outros produtos",Ao abrigo de acordo-quadro (art.º 259.º),Aquisição de bens móveis,"33600000-6, Produtos farmacêuticos","Unidade Local de Saúde do Litoral Alentejano, E. P. E. (510445152)",Accord Lda (508622263),"697,60 €",24-07-2018,04-07-2018,180 dias,"Portugal, Setúbal, Santiago do Cacém",Artigo 259.º do Código dos Contratos Públicos,,,,,,2775699,"CP 2017/50 - Medicação antialérgica, vitaminas e sais minerais, medicamentos usados no tratamento de intoxicações e grupo 20.9",FALSE
"Aquisição de Medicação antialérgica, vitaminas sais minerais, medicamentos usados no tratamento de intoxicações e grupo 20.9-outros produtos",Ao abrigo de acordo-quadro (art.º 259.º),Aquisição de bens móveis,"33600000-6, Produtos farmacêuticos","Unidade Local de Saúde do Litoral Alentejano, E. P. E. (510445152)",Novartis SA (500063524),"12.778,38 €",24-07-2018,04-07-2018,180 dias,"Portugal, Setúbal, Santiago do Cacém",Artigo 259.º do Código dos Contratos Públicos,,,,,,2775699,"CP 2017/50 - Medicação antialérgica, vitaminas e sais minerais, medicamentos usados no tratamento de intoxicações e grupo 20.9",FALSE
"Aquisição de Medicação antialérgica, vitaminas sais minerais, medicamentos usados no tratamento de intoxicações e grupo 20.9-outros produtos",Ao abrigo de acordo-quadro (art.º 259.º),Aquisição de bens móveis,"33600000-6, Produtos farmacêuticos","Unidade Local de Saúde do Litoral Alentejano, E. P. E. (510445152)",Sandoz Lda (506985261),"113,05 €",24-07-2018,04-07-2018,180 dias,"Portugal, Setúbal, Santiago do Cacém",Artigo 259.º do Código dos Contratos Públicos,,,,,,2775699,"CP 2017/50 - Medicação antialérgica, vitaminas e sais minerais, medicamentos usados no tratamento de intoxicações e grupo 20.9",FALSE
Aquisição de Medicamentos Aparelho Geniturinário,Ao abrigo de acordo-quadro (art.º 259.º),Aquisição de bens móveis,"33600000-6, Produtos farmacêuticos","Unidade Local de Saúde do Litoral Alentejano, E. P. E. (510445152)",Accord lda (508622263),"1.108,80 €",24-07-2018,26-06-2018,180 dias,"Portugal, Setúbal, Santiago do Cacém",Artigo 259.º do Código dos Contratos Públicos,,,,,,3016206,"CP 2017/48 - Acordo Quadro para fornecimento de Medicamentos do aparelho geniturinário, às Instituições e Serviços do Serviço Nacional de Saúde",FALSE
Aquisição de Medicamentos Aparelho Geniturinário,Ao abrigo de acordo-quadro (art.º 259.º),Aquisição de bens móveis,"33600000-6, Produtos farmacêuticos","Unidade Local de Saúde do Litoral Alentejano, E. P. E. (510445152)",Pharmakern Portugal (507002571),"20,36 €",24-07-2018,26-06-2018,180 dias,"Portugal, Setúbal, Santiago do Cacém",Artigo 259.º do Código dos Contratos Públicos,,,,,,3016206,"CP 2017/48 - Acordo Quadro para fornecimento de Medicamentos do aparelho geniturinário, às Instituições e Serviços do Serviço Nacional de Saúde",FALSE
Aquisição de Medicamentos Aparelho Geniturinário,Ao abrigo de acordo-quadro (art.º 259.º),Aquisição de bens móveis,"33600000-6, Produtos farmacêuticos","Unidade Local de Saúde do Litoral Alentejano, E. P. E. (510445152)",Overpharma Lda (505792362),"288,60 €",24-07-2018,26-06-2018,180 dias,"Portugal, Setúbal, Santiago do Cacém",Artigo 259.º do Código dos Contratos Públicos,,,,,,3016206,"CP 2017/48 - Acordo Quadro para fornecimento de Medicamentos do aparelho geniturinário, às Instituições e Serviços do Serviço Nacional de Saúde",FALSE
"Fornecimento de Energia Elétrica em Média Tensão, Baixa Tensão Especial e Baixa Tensão Normal",Concurso público,Aquisição de serviços,"65300000-6, Serviços de distribuição de electricidade e serviços conexos",Unidade Local de Saúde do Litoral Alentejano EPE (510445152),Endesa Energia SA (980245974),"25.847,14 €",23-07-2018,19-06-2018,365 dias,"Portugal, Setúbal, Santiago do Cacém","Artigo 20.º, n.º 1, alínea a) do Código dos Contratos Públicos",,,,,,Não aplicável.,Não aplicável.,FALSE
"Fornecimento de Energia Elétrica em Média Tensão, Baixa Tensão Especial e Baixa Tensão Normal",Concurso público,Aquisição de serviços,"65300000-6, Serviços de distribuição de electricidade e serviços conexos",Unidade Local de Saúde do Litoral Alentejano EPE (510445152),Ecochoice SA (508080991),"441.603,90 €",23-07-2018,19-06-2018,365 dias,"Portugal, Setúbal, Santiago do Cacém","Artigo 20.º, n.º 1, alínea a) do Código dos Contratos Públicos",,,,,,Não aplicável.,Não aplicável.,FALSE
