Objeto do Contrato,Tipo de Procedimento,Tipo(s) de Contrato,CPVs,Entidade(s) Adjudicante(s),Entidade(s) Adjudicatária(s),Preço Contratual,Data de Publicação,Data de Celebração do Contrato,Prazo de Execução,Local de Execução,Fundamentação,Data de Fecho do Contrato,Preço Total Efetivo,Causas das Alterações ao Prazo,Causas das Alterações ao Preço,Estado,N.º registo do Acordo Quadro,Descrição do Acordo Quadro,Procedimento Centralizado
Peças para Equipamento de laboratório - HPLC SPECTRA,Ajuste Direto Regime Geral,Aquisição de bens móveis,"34913000-0, Peças sobressalentes diversas","Instituto Nacional de Saúde Dr. Ricardo Jorge, I.P. (501427511)",Unicam Sistemas Analiticos Lda (502614625),"2.891,63 €",12-07-2012,11-05-2012,15 dias,"Portugal, Porto, Porto","Artigo 24.º, n.º 1, alínea e) do Código dos Contratos Públicos",,,,,,Não aplicável.,Não aplicável.,
Peças para equipamento de laboratório -  Espectrofotómetros de absorção atómica,Ajuste Direto Regime Geral,Aquisição de bens móveis,"34913000-0, Peças sobressalentes diversas","Instituto Nacional de Saúde Dr. Ricardo Jorge, I.P. (501427511)",Unicam Sistemas Analiticos Lda (502614625),"6.312,73 €",12-07-2012,27-01-2012,10 dias,"Portugal, Porto, Porto","Artigo 20.º, n.º 4 do Código dos Contratos Públicos",,,,,,Não aplicável.,Não aplicável.,
