Objeto do Contrato,Tipo de Procedimento,Tipo(s) de Contrato,CPVs,Entidade(s) Adjudicante(s),Entidade(s) Adjudicatária(s),Preço Contratual,Data de Publicação,Data de Celebração do Contrato,Prazo de Execução,Local de Execução,Fundamentação,Data de Fecho do Contrato,Preço Total Efetivo,Causas das Alterações ao Prazo,Causas das Alterações ao Preço,Estado,N.º registo do Acordo Quadro,Descrição do Acordo Quadro,Procedimento Centralizado
1R/01094/17- REAGENTES P/ MICROBIOLOGIA,Ajuste Direto Regime Geral,Aquisição de bens móveis,"33696500-0, Reagentes de laboratório","Centro Hospitalar Tondela-Viseu, E. P. E. (509822940)","Iberlab & Imunoreage, Lda (503406694)","13.500,00 €",29-06-2018,05-05-2017,365 dias,"Portugal, Viseu, Viseu","Artigo 24.º, n.º 1, alínea e) do Código dos Contratos Públicos",,,,,,Não aplicável.,Não aplicável.,FALSE
1R/00996/17 - MEIOS P/ REALIZAÇÃO DE ANÁLISES CLÍNICAS DE ELETROFORESE,Ajuste Direto Regime Geral,Aquisição de bens móveis,"33696600-1, Reagentes para electroforese","Centro Hospitalar Tondela-Viseu, E. P. E. (509822940)","Thermo Fisher Diagnostics, Soc.Unip.Lda (506916243)","19.224,00 €",29-06-2018,24-05-2017,365 dias,"Portugal, Viseu, Viseu","Artigo 24.º, n.º 1, alínea e) do Código dos Contratos Públicos",,,,,,Não aplicável.,Não aplicável.,FALSE
PIRFENIDONA 801 MG COMP,Ajuste Direto Regime Geral,Aquisição de bens móveis,"33600000-6, Produtos farmacêuticos","Centro Hospitalar Tondela-Viseu, E. P. E. (509822940)","ROCHE FARMACEUTICA QUIMICA, LDA (500233810)","17.304,84 €",27-06-2018,22-06-2018,90 dias,"Portugal, Viseu, Viseu","Artigo 24.º, n.º 1, alínea e), subalínea iii) do Código dos Contratos Públicos",,,,,,Não aplicável.,Não aplicável.,FALSE
