Objeto do Contrato,Tipo de Procedimento,Tipo(s) de Contrato,CPVs,Entidade(s) Adjudicante(s),Entidade(s) Adjudicatária(s),Preço Contratual,Data de Publicação,Data de Celebração do Contrato,Prazo de Execução,Local de Execução,Fundamentação,Data de Fecho do Contrato,Preço Total Efetivo,Causas das Alterações ao Prazo,Causas das Alterações ao Preço,Estado,N.º registo do Acordo Quadro,Descrição do Acordo Quadro,Procedimento Centralizado
Aquisição de prestação de serviços de plataforma eletrónica de Contratação pública,Ajuste Direto Regime Geral,Aquisição de serviços,"72000000-5, Serviços de TI: consultoria, desenvolvimento de software, Internet e apoio","Centro Hospitalar de Entre o Douro e Vouga, E.P.E. (508878462)","Vortal-Comércio Eletrónico Consultadoria e Multimédia, S.A. (505141019)","8.400,00 €",11-10-2016,07-10-2016,900 dias,"Portugal, Aveiro, Santa Maria da Feira","Artigo 20.º, n.º 1, alínea a) do Código dos Contratos Públicos","","",,,,Não aplicável.,Não aplicável.,FALSE
Aquisição de prestação de serviços para criação de uma bolsa para reserva de recrutamento de Assistentes Operacionais,Ajuste Direto Regime Geral,Aquisição de serviços,"79600000-0, Serviços de recrutamento","Centro Hospitalar de Entre o Douro e Vouga, E.P.E. (508878462)",SELECTVARIATION LDA (513226397),"5.830,00 €",03-10-2016,02-08-2016,20 dias,"Portugal, Aveiro, Santa Maria da Feira","Artigo 20.º, n.º 1, alínea a) do Código dos Contratos Públicos",07-12-2016,"5.830,00 €",,,,Não aplicável.,Não aplicável.,FALSE
