Objeto do Contrato,Tipo de Procedimento,Tipo(s) de Contrato,CPVs,Entidade(s) Adjudicante(s),Entidade(s) Adjudicatária(s),Preço Contratual,Data de Publicação,Data de Celebração do Contrato,Prazo de Execução,Local de Execução,Fundamentação,Data de Fecho do Contrato,Preço Total Efetivo,Causas das Alterações ao Prazo,Causas das Alterações ao Preço,Estado,N.º registo do Acordo Quadro,Descrição do Acordo Quadro,Procedimento Centralizado
"Substituição de sonda pediátrica Ecógrafo Xario Serviço Radiologia CHSJ, EPE",Ajuste Direto Regime Geral,Aquisição de bens móveis,"33110000-4, Equipamento de imagiologia para uso médico, dentário e veterinário","Centro Hospitalar de São João, E. P. E. (509821197)",Toshiba Medical Systems (980023700),"12.196,00 €",28-11-2012,26-11-2012,30 dias,"Portugal, Porto, Porto","Artigo 24.º, n.º 1, alínea e) do Código dos Contratos Públicos",,,,,,Não aplicável.,Não aplicável.,
"Reparação Equipamento Radiologia Coroskop Cardiologia Invasiva do CHSJ, EPE",Ajuste Direto Regime Geral,Aquisição de serviços,"50000000-5, Serviços de reparação e manutenção","Centro Hospitalar de São João, E. P. E. (509821197)",Siemens (500247480),"6.620,00 €",28-11-2012,17-09-2012,30 dias,"Portugal, Porto, Porto","Artigo 20.º, n.º 1, alínea a) do Código dos Contratos Públicos",,,,,,Não aplicável.,Não aplicável.,
"Aquisição de vário equipamento e mobiliário para apetrechar nova Unidade Cuidados Intermédios da Urgência CHSJ, EPE",Ajuste Direto Regime Geral,Aquisição de bens móveis,"33192000-2, Mobiliário para fins médicos","Centro Hospitalar de São João, E. P. E. (509821197)","Bacelar & Irmão (500532818), RMV (507866347), NovAciper (508564042), Mobimaque (502138564), Moldacril (501458514), Alfa Mar (500856583)","7.351,62 €",28-11-2012,29-10-2012,30 dias,"Portugal, Porto, Porto","Artigo 20.º, n.º 1, alínea a) do Código dos Contratos Públicos",,,,,,Não aplicável.,Não aplicável.,
"Reconversão dos sistemas de controlo de temperatura Central Alarmes CHSJ, EPE para o novo sistema online e centralizado no Datacenter",Ajuste Direto Regime Geral,Aquisição de bens móveis,"35000000-4, Equipamento de segurança, combate a incêndios, polícia e defesa","Centro Hospitalar de São João, E. P. E. (509821197)",Elnor SA (500094403),"5.535,00 €",28-11-2012,28-09-2012,30 dias,"Portugal, Porto, Porto","Artigo 20.º, n.º 1, alínea a) do Código dos Contratos Públicos",,,,,,Não aplicável.,Não aplicável.,
"Aquisição, por substituição, de micromotor para cirurgia do ouvido B.O. Otorrino CHSJ, EPE",Ajuste Direto Regime Geral,Aquisição de bens móveis,"33000000-0, Equipamento médico, medicamentos e produtos para cuidados pessoais","Centro Hospitalar de São João, E. P. E. (509821197)",B. Braun Medical Lda. (501506543),"11.087,10 €",28-11-2012,12-09-2012,30 dias,"Portugal, Porto, Porto","Artigo 20.º, n.º 1, alínea a) do Código dos Contratos Públicos",,,,,,Não aplicável.,Não aplicável.,
"Aquisição, por substituição, de Insuflador de CO2 para Laparoscopia B.O.Central do CHSJ, EPE",Ajuste Direto Regime Geral,Aquisição de bens móveis,"33000000-0, Equipamento médico, medicamentos e produtos para cuidados pessoais","Centro Hospitalar de São João, E. P. E. (509821197)","Eurocasmédica, SA (503322105)","7.900,00 €",28-11-2012,27-09-2012,30 dias,"Portugal, Porto, Porto","Artigo 20.º, n.º 1, alínea a) do Código dos Contratos Públicos",,,,,,Não aplicável.,Não aplicável.,
"Revisão e manutenção geral ao equipamento de frio Serviço Imunohemoterapia do CHSJ, EPE",Ajuste Direto Regime Geral,Aquisição de serviços,"50000000-5, Serviços de reparação e manutenção","Centro Hospitalar de São João, E. P. E. (509821197)",Elnor (500094403),"9.080,00 €",27-11-2012,22-11-2012,30 dias,"Portugal, Porto, Porto","Artigo 20.º, n.º 1, alínea a) do Código dos Contratos Públicos",,,,,,Não aplicável.,Não aplicável.,
"Reparação de Aspirador Ultrasónico B.O. Neurocirurgia do CHSJ, EPE, com substituição de componentes.",Ajuste Direto Regime Geral,Aquisição de serviços,"50000000-5, Serviços de reparação e manutenção","Centro Hospitalar de São João, E. P. E. (509821197)",Socime Medical Lda. (504453939),"11.086,00 €",27-11-2012,22-11-2012,30 dias,"Portugal, Porto, Porto","Artigo 20.º, n.º 1, alínea a) do Código dos Contratos Públicos",,,,,,Não aplicável.,Não aplicável.,
"Reparação de Ortopantomógrafo Consulta de Estomatologia do CHSJ, EPE, com substituição de sensor.",Ajuste Direto Regime Geral,Aquisição de serviços,"50000000-5, Serviços de reparação e manutenção","Centro Hospitalar de São João, E. P. E. (509821197)",Dentalnor Sirona (503818283),"10.102,00 €",27-11-2012,20-11-2012,30 dias,"Portugal, Porto, Porto","Artigo 20.º, n.º 1, alínea a) do Código dos Contratos Públicos",,,,,,Não aplicável.,Não aplicável.,
"Reparação de Fantoma de Água de Dosímetro do H.D.Radioterapia do CHSJ, EPE, com revisão geral do equipamento.",Ajuste Direto Regime Geral,Aquisição de serviços,"50000000-5, Serviços de reparação e manutenção","Centro Hospitalar de São João, E. P. E. (509821197)",Ibervoxel Lda (506716899),"9.620,00 €",27-11-2012,15-11-2012,30 dias,"Portugal, Porto, Porto","Artigo 20.º, n.º 1, alínea a) do Código dos Contratos Públicos",,,,,,Não aplicável.,Não aplicável.,
"Reparação com upgrade de Gama Camara da Medicina Nuclear do CHSJ, EPE",Ajuste Direto Regime Geral,Aquisição de serviços,"50000000-5, Serviços de reparação e manutenção","Centro Hospitalar de São João, E. P. E. (509821197)",General Electric Portuguesa (500357129),"14.939,63 €",27-11-2012,30-10-2012,30 dias,"Portugal, Porto, Porto","Artigo 20.º, n.º 1, alínea a) do Código dos Contratos Públicos",,,,,,Não aplicável.,Não aplicável.,
"Reparação de Máquina Desinfecção Técnicas de Gastro do CHSJ, EPE, por substituição de componentes.",Ajuste Direto Regime Geral,Aquisição de serviços,"50000000-5, Serviços de reparação e manutenção","Centro Hospitalar de São João, E. P. E. (509821197)",Alves & Ca (Irmãos) Lda. (500310068),"5.558,00 €",27-11-2012,15-10-2012,30 dias,"Portugal, Porto, Porto","Artigo 20.º, n.º 1, alínea a) do Código dos Contratos Públicos",,,,,,Não aplicável.,Não aplicável.,
"Reparação de Endoscópio do B.O.Central do CHSJ, EPE por substituição de componentes.",Ajuste Direto Regime Geral,Aquisição de serviços,"50000000-5, Serviços de reparação e manutenção","Centro Hospitalar de São João, E. P. E. (509821197)",Olympus Portugal (503581429),"6.561,95 €",27-11-2012,12-10-2012,30 dias,"Portugal, Porto, Porto","Artigo 20.º, n.º 1, alínea a) do Código dos Contratos Públicos",,,,,,Não aplicável.,Não aplicável.,
