Objeto do Contrato,Tipo de Procedimento,Tipo(s) de Contrato,CPVs,Entidade(s) Adjudicante(s),Entidade(s) Adjudicatária(s),Preço Contratual,Data de Publicação,Data de Celebração do Contrato,Prazo de Execução,Local de Execução,Fundamentação,Data de Fecho do Contrato,Preço Total Efetivo,Causas das Alterações ao Prazo,Causas das Alterações ao Preço,Estado,N.º registo do Acordo Quadro,Descrição do Acordo Quadro,Procedimento Centralizado
CP 30-18 Aquisição de DM´s para Sistema Fechado de Aspiração de Colheita de Sangue,Concurso público,Aquisição de bens móveis,"33140000-3, Material médico de consumo","Centro Hospitalar Cova da Beira, EPE (506361659)","SARSTEDT - TECNOLOGIA DE LABORATORIO, S.A. (503019461)","125.769,03 €",29-01-2019,18-01-2019,1095 dias,"Portugal, Castelo Branco, Covilhã<BR/>Portugal","Artigo 20.º, n.º 1, alínea b) do Código dos Contratos Públicos",,,,,,Não aplicável.,Não aplicável.,FALSE
Aquisição de Artigos para Empacotamento e para Esterilização,Concurso público,Aquisição de bens móveis,"33140000-3, Material médico de consumo","Centro Hospitalar Cova da Beira, E. P. E. (506361659)","3M ESPANHA, SL SUCURSAL EM PORTUGAL (980560241)","12.821,20 €",29-01-2019,28-05-2018,24 dias,"Portugal, Castelo Branco, Covilhã","Artigo 20.º, n.º 1, alínea b) do Código dos Contratos Públicos",,,,,,Não aplicável.,Não aplicável.,FALSE
CP 07/2018 - Fornecimento de Próteses da Anca,Concurso público,Aquisição de bens móveis,"33183200-8, Próteses ortopédicas","Centro Hospitalar Cova da Beira, EPE (506361659)",BIOMET PORTUGAL UNIPESSOAL LDA (500254990),"208.595,00 €",29-01-2019,22-11-2018,730 dias,"Portugal<BR/>Portugal, Castelo Branco, Covilhã","Artigo 20.º, n.º 1, alínea a) do Código dos Contratos Públicos",,,,,,Não aplicável.,Não aplicável.,FALSE
CPR 48-18 - Restruturação da Central de Esterilização,Consulta Prévia,Empreitadas de obras públicas,"45454000-4, Obras de reestruturação","Centro Hospitalar Cova da Beira, EPE (506361659)","Joao Tomé Saraiva - Sociedade de Construções, Lda (506887260)","29.275,94 €",29-01-2019,19-11-2018,30 dias,"Portugal, Castelo Branco, Covilhã<BR/>Portugal","Artigo 20.º, n.º 1, alínea c) do Código dos Contratos Públicos",,,,,,Não aplicável.,Não aplicável.,FALSE
AD 44/2018 Assistência Técnica e reparação do equipamento de RX,Ajuste Direto Regime Geral,Aquisição de serviços,"71356200-0, Serviços de assistência técnica","Centro Hospitalar Cova da Beira, EPE (506361659)","PHILIPS PORTUGUESA, SA. (500216843)","13.985,00 €",21-01-2019,19-11-2018,40 dias,"Portugal, Castelo Branco, Covilhã<BR/>Portugal","Artigo 24.º, n.º 1, alínea e), subalínea ii) do Código dos Contratos Públicos",,,,,,Não aplicável.,Não aplicável.,FALSE
CPR 18/2019 Aquisição de Corretivos da volémia e outras soluções estéreis (CP 2017/3),Ao abrigo de acordo-quadro (art.º 259.º),Aquisição de bens móveis,"33600000-6, Produtos farmacêuticos","Centro Hospitalar Cova da Beira, EPE (506361659)","Overpharma-Produtos Médicos e Farmacêuticos, Lda. (505792362)","11.745,92 €",21-01-2019,08-01-2019,365 dias,"Portugal<BR/>Portugal, Castelo Branco, Covilhã",Artigo 259.º do Código dos Contratos Públicos,,,,,,2528675,CP 2017/3 - Acordo Quadro para fornecimento de corretivos da volémia e outras soluções estéreis,FALSE
CPR 18/2019 Aquisição de Corretivos da volémia e outras soluções estéreis (CP 2017/3),Ao abrigo de acordo-quadro (art.º 259.º),Aquisição de bens móveis,"33600000-6, Produtos farmacêuticos","Centro Hospitalar Cova da Beira, EPE (506361659)","Labesfal - Laboratórios Almiro, S.A. (501169580)","79.841,12 €",21-01-2019,08-01-2019,365 dias,"Portugal, Castelo Branco, Covilhã<BR/>Portugal",Artigo 259.º do Código dos Contratos Públicos,,,,,,2528675,CP 2017/3 - Acordo Quadro para fornecimento de corretivos da volémia e outras soluções estéreis,FALSE
CPR 18/2019 Aquisição de Corretivos da volémia e outras soluções estéreis (CP 2017/3),Ao abrigo de acordo-quadro (art.º 259.º),Aquisição de bens móveis,"33600000-6, Produtos farmacêuticos","Centro Hospitalar Cova da Beira, EPE (506361659)",Grifols Portugal (502041285),"5.132,80 €",21-01-2019,09-01-2019,365 dias,"Portugal<BR/>Portugal, Castelo Branco, Covilhã",Artigo 259.º do Código dos Contratos Públicos,,,,,,2528675,CP 2017/3 - Acordo Quadro para fornecimento de corretivos da volémia e outras soluções estéreis,FALSE
CPR 18/2019 Aquisição de Corretivos da volémia e outras soluções estéreis (CP 2017/3),Ao abrigo de acordo-quadro (art.º 259.º),Aquisição de bens móveis,"33600000-6, Produtos farmacêuticos","Centro Hospitalar Cova da Beira, EPE (506361659)","B. Braun Medical, Lda. (501506543)","9.474,40 €",21-01-2019,14-01-2019,365 dias,"Portugal, Castelo Branco, Covilhã<BR/>Portugal",Artigo 259.º do Código dos Contratos Públicos,,,,,,2528675,CP 2017/3 - Acordo Quadro para fornecimento de corretivos da volémia e outras soluções estéreis,FALSE
