Objeto do Contrato,Tipo de Procedimento,Tipo(s) de Contrato,CPVs,Entidade(s) Adjudicante(s),Entidade(s) Adjudicatária(s),Preço Contratual,Data de Publicação,Data de Celebração do Contrato,Prazo de Execução,Local de Execução,Fundamentação,Data de Fecho do Contrato,Preço Total Efetivo,Causas das Alterações ao Prazo,Causas das Alterações ao Preço,Estado,N.º registo do Acordo Quadro,Descrição do Acordo Quadro,Procedimento Centralizado
Aquisição de terminais biométricos,Ajuste Direto Regime Geral,Aquisição de bens móveis,"35123000-2, Equipamento de identificação no local",Administração Regional de Saúde do Alentejo (ARSA) (503148768),"Projecttime - Dist. Equip. Electrónicos, Lda (506882918)","6.300,00 €",29-08-2014,19-12-2013,30 dias,"Portugal, Évora, Évora","Artigo 20.º, n.º 1, alínea a) do Código dos Contratos Públicos",30-12-2013,"6.300,00 €",,"",,Não aplicável.,Não aplicável.,FALSE
Contratação de serviços de desenvolvimento webtime,Ajuste Direto Regime Geral,Aquisição de serviços,"72500000-0, Serviços relacionados com a informática",Administração Regional de Saúde do Alentejo (ARSA) (503148768),"Projecttime - Dist. Equi. Electrónicos, Lda (506882918)","1.400,00 €",29-08-2014,05-09-2013,30 dias,"Portugal, Évora, Évora","Artigo 20.º, n.º 1, alínea a) do Código dos Contratos Públicos",10-09-2013,"1.400,00 €",,"",,Não aplicável.,Não aplicável.,FALSE
Contratação de serviços na área da gestão de resíduos hospitalares perigosos,Concurso público,Aquisição de serviços,"90500000-2, Serviços relativos a resíduos e lixos","Administração Regional de Saúde do Alentejo, IP (503148768)","Ambimed - Gestão Ambintal, Lda (503593427)","99.487,97 €",29-08-2014,01-10-2013,1095 dias,"Portugal, Évora","Artigo 20.º, n.º 1, alínea b) do Código dos Contratos Públicos","","",,"",,Não aplicável.,Não aplicável.,FALSE
Contratação de Serviços de Manutenção de Autoclaves do Laboratório de Saúde Pública de Évora,Ajuste Direto Regime Geral,Aquisição de serviços,"50410000-2, Serviços de reparação e manutenção de aparelhos de medição, ensaio e controlo","Administração Regional de Saúde do Alentejo, I. P. (503148768)","A.J. Costa (Irmãos), Lda (500002576)","960,00 €",29-08-2014,16-02-2012,180 dias,"Portugal, Évora, Évora","Artigo 20.º, n.º 1, alínea a) do Código dos Contratos Públicos",20-02-2012,"960,00 €",,"",,Não aplicável.,Não aplicável.,FALSE
Contratação de serviços para manutenção de autoclave do Laboratório de Saúde Pública de Évora,Ajuste Direto Regime Geral,Aquisição de serviços,"50410000-2, Serviços de reparação e manutenção de aparelhos de medição, ensaio e controlo","Administração Regional de Saúde do Alentejo, I. P. (503148768)","A.J. Costa (Irmãos), Lda (500002576)","960,00 €",29-08-2014,22-12-2011,180 dias,"Portugal, Évora, Évora","Artigo 20.º, n.º 1, alínea a) do Código dos Contratos Públicos",26-12-2011,"960,00 €",,"",,Não aplicável.,Não aplicável.,FALSE
Contratação de serviços de manutenção de autoclaves do Laboratório de Saúde Pública de Évora,Ajuste Direto Regime Geral,Aquisição de serviços,"50400000-9, Serviços de reparação e manutenção de equipamento médico e de precisão",Administração Regional de Saúde do Alentejo (ARSA) (503148768),"A. J. Costa (Irmãos), Lda (500002576)","960,00 €",29-08-2014,11-10-2013,180 dias,"Portugal, Évora, Évora","Artigo 20.º, n.º 1, alínea a) do Código dos Contratos Públicos",31-07-2014,"960,00 €",,"",,Não aplicável.,Não aplicável.,FALSE
Aluguer de garrafas para produção de gelo seco,Ajuste Direto Regime Geral,Aquisição de serviços,"71900000-7, Serviços laboratoriais","Administração Regional de Saúde do Alentejo, I. P. (503148768)",Gasin Grupo Air Products (510183751),"3.902,64 €",29-08-2014,13-05-2013,180 dias,"Portugal, Évora, Évora","Artigo 20.º, n.º 4 do Código dos Contratos Públicos",30-09-2013,"3.250,61 €",,O serviço não foi faturado na totalidade,,Não aplicável.,Não aplicável.,FALSE
Aquisição de papel,Ajuste Direto Regime Geral,Aquisição de bens móveis,"30000000-9, Máquinas, equipamento e material de escritório e de informática, excepto mobiliário e pacotes de programas (software)","Administração Regional de Saúde do Alentejo, IP (503148768)",Olmar (508831989),"5.587,20 €",28-08-2014,19-03-2010,365 dias,"Portugal, Évora","Artigo 20.º, n.º 1, alínea a) do Código dos Contratos Públicos",31-12-2010,"5.587,20 €",,"",,Não aplicável.,Não aplicável.,FALSE
Aquisição de papel Zig Zag,Ajuste Direto Regime Geral,Aquisição de bens móveis,"39000000-2, Mobiliário (incl. de escritório), acessórios, aparelhos domésticos (excl. iluminação) e produtos de limpeza","Administração Regional de Saúde do Alentejo, IP (503148768)",Iberclean (504288989),"1.242,00 €",28-08-2014,26-01-2010,365 dias,"Portugal, Évora","Artigo 20.º, n.º 1, alínea a) do Código dos Contratos Públicos",31-12-2010,"1.242,00 €",,"",,Não aplicável.,Não aplicável.,FALSE
Aquisição de toners,Ajuste Direto Regime Geral,Aquisição de bens móveis,"30100000-0, Máquinas, equipamento e material de escritório, excepto computadores, impressoras e mobiliário","Administração Regional de Saúde do Alentejo, IP (503148768)",Reproset (506448665),"702,60 €",28-08-2014,18-09-2009,365 dias,"Portugal, Évora","Artigo 20.º, n.º 1, alínea a) do Código dos Contratos Públicos",31-12-2009,"702,60 €",,"",,Não aplicável.,Não aplicável.,FALSE
Contratação de serviços de auditoria/consultoria na área da qualidade para o Laboratório de Saúde Pública de Évora,Ajuste Direto Regime Geral,Aquisição de serviços,"71900000-7, Serviços laboratoriais","Administração Regional de Saúde do Alentejo, I. P. (503148768)","Seabra e Frias - Consultoria e Qualidade, Lda (507995120)","1.300,00 €",27-08-2014,11-03-2011,60 dias,"Portugal, Évora, Évora","Artigo 20.º, n.º 1, alínea a) do Código dos Contratos Públicos",20-04-2011,"1.300,00 €",,"",,Não aplicável.,Não aplicável.,FALSE
Aquisição de reagentes da química de águas para o Laboratório de Saúde Pública de Évora,Ajuste Direto Regime Geral,Aquisição de bens móveis,"33696300-8, Reagentes químicos","Administração Regional de Saúde do Alentejo, I. P. (503148768)",VWR International - Material Laboratório Lda (503842770),"1.267,40 €",27-08-2014,14-03-2013,60 dias,"Portugal, Évora, Évora","Artigo 20.º, n.º 1, alínea a) do Código dos Contratos Públicos",06-11-2013,"1.267,40 €",,"",,Não aplicável.,Não aplicável.,FALSE
