Objeto do Contrato,Tipo de Procedimento,Tipo(s) de Contrato,CPVs,Entidade(s) Adjudicante(s),Entidade(s) Adjudicatária(s),Preço Contratual,Data de Publicação,Data de Celebração do Contrato,Prazo de Execução,Local de Execução,Fundamentação,Data de Fecho do Contrato,Preço Total Efetivo,Causas das Alterações ao Prazo,Causas das Alterações ao Preço,Estado,N.º registo do Acordo Quadro,Descrição do Acordo Quadro,Procedimento Centralizado
Prestação de serviços consultoria clínica no âmbito da Medicina física e Reabilitação,Ajuste Direto Regime Geral,Aquisição de serviços,"72000000-5, Serviços de TI: consultoria, desenvolvimento de software, Internet e apoio","Administração Central do Sistema de Saúde, I. P. (508188423)","Voltatrilho, Unipessoal, Lda. (508650453)","5.326,80 €",21-10-2016,07-10-2016,120 dias,"Portugal, Lisboa, Lisboa","Artigo 20.º, n.º 1, alínea a) do Código dos Contratos Públicos",03-01-2017,"5.326,80 €",,,,Não aplicável.,Não aplicável.,FALSE
"Aquisição de serviços de manutenção do software Qlikview para a ACSS, IP",Ajuste Direto Regime Geral,Aquisição de serviços,"72267000-4, Serviços de manutenção e reparação de software","Administração Central do Sistema de Saúde, I. P. (508188423)",Noesis (505128985),"16.880,00 €",21-10-2016,29-08-2016,130 dias,"Portugal, Lisboa, Lisboa","Artigo 24.º, n.º 1, alínea e) do Código dos Contratos Públicos",29-12-2016,"16.880,00 €",,,,Não aplicável.,Não aplicável.,FALSE
Aquisição de 4 portáteis híbridos,Ajuste Direto Regime Geral,Aquisição de bens móveis,"30213200-7, Computadores tabulares (tablet computers)","Administração Central do Sistema de Saúde, I. P. (508188423)","Norconnect-informática Profissional, Lda (504865005)","3.897,04 €",21-10-2016,26-08-2016,30 dias,"Portugal, Lisboa, Lisboa","Artigo 20.º, n.º 1, alínea a) do Código dos Contratos Públicos",21-10-2016,"3.897,04 €",,,,Não aplicável.,Não aplicável.,FALSE
"Aquisição de serviços de manutenção/reparação e outros trabalhos diferenciados nos edifícios da ACSS, I.P.",Ajuste Direto Regime Geral,Aquisição de serviços,"50000000-5, Serviços de reparação e manutenção","Administração Central do Sistema de Saúde, I. P. (508188423)","REWP - Renewable Energy Performance, Lda (513544194)","9.900,00 €",20-10-2016,30-09-2016,90 dias,"Portugal, Lisboa, Lisboa","Artigo 20.º, n.º 1, alínea a) do Código dos Contratos Públicos",21-10-2016,"9.900,00 €",,,,Não aplicável.,Não aplicável.,FALSE
