Objeto do Contrato,Tipo de Procedimento,Tipo(s) de Contrato,CPVs,Entidade(s) Adjudicante(s),Entidade(s) Adjudicatária(s),Preço Contratual,Data de Publicação,Data de Celebração do Contrato,Prazo de Execução,Local de Execução,Fundamentação,Data de Fecho do Contrato,Preço Total Efetivo,Causas das Alterações ao Prazo,Causas das Alterações ao Preço,Estado,N.º registo do Acordo Quadro,Descrição do Acordo Quadro,Procedimento Centralizado
Aquisição de equipamento MAPA,Ajuste Direto Regime Geral,Aquisição de bens móveis,"33000000-0, Equipamento médico, medicamentos e produtos para cuidados pessoais","Centro Hospitalar Vila Nova de Gaia - Espinho, E. P. E. (508142156)","Space Equipamentos Médicos, Lda (507662407)","2.981,80 €",21-01-2014,08-01-2014,15 dias,"Portugal, Porto, Vila Nova de Gaia","Artigo 24.º, n.º 1, alínea e) do Código dos Contratos Públicos",,,,,,Não aplicável.,Não aplicável.,FALSE
Aquisição de Laser Diodo para a Unidade de Broncologia do Serviço de Pneumologia,Ajuste Direto Regime Geral,Aquisição de bens móveis,"33000000-0, Equipamento médico, medicamentos e produtos para cuidados pessoais","Centro Hospitalar Vila Nova de Gaia - Espinho, E. P. E. (508142156)",Filsat - Equipamentos Médico Científicos Lda (506708616),"21.373,58 €",21-01-2014,16-01-2014,30 dias,"Portugal, Porto, Vila Nova de Gaia","Artigo 24.º, n.º 1, alínea c) do Código dos Contratos Públicos",,,,,,Não aplicável.,Não aplicável.,FALSE
Aquisição  de 8 Monitores Desfibriladores,Ajuste Direto Regime Geral,Aquisição de bens móveis,"33000000-0, Equipamento médico, medicamentos e produtos para cuidados pessoais","Centro Hospitalar Vila Nova de Gaia - Espinho, E. P. E. (508142156)",Remeditec S.A. (505086344),"48.300,00 €",21-01-2014,16-01-2014,30 dias,"Portugal, Porto, Vila Nova de Gaia","Artigo 24.º, n.º 1, alínea e) do Código dos Contratos Públicos",,,,,,Não aplicável.,Não aplicável.,FALSE
Aquisição de 8 Monitores Desfibriladores,Ajuste Direto Regime Geral,Aquisição de bens móveis,"33000000-0, Equipamento médico, medicamentos e produtos para cuidados pessoais","Centro Hospitalar Vila Nova de Gaia - Espinho, E. P. E. (508142156)",Medicinália Cormédica Lda (500684324),"7.000,00 €",21-01-2014,21-01-2014,30 dias,"Portugal, Porto, Vila Nova de Gaia","Artigo 24.º, n.º 1, alínea e) do Código dos Contratos Públicos",,,,,,Não aplicável.,Não aplicável.,FALSE
Aquisição de Sondas Vesicais,Ajuste Direto Regime Geral,Aquisição de bens móveis,"33141641-5, Sondas","Centro Hospitalar Vila Nova de Gaia - Espinho, E. P. E. (508142156)","B BRAUN MEDICAL, LDA. (501506543)","171,00 €",21-01-2014,10-01-2014,90 dias,"Portugal, Porto, Vila Nova de Gaia","Artigo 24.º, n.º 1, alínea c) do Código dos Contratos Públicos",,,,,,Não aplicável.,Não aplicável.,FALSE
Aquisição de Cabos Intermedios de SPO2,Ajuste Direto Regime Geral,Aquisição de bens móveis,"31320000-5, Cabos de distribuição de energia eléctrica","Centro Hospitalar Vila Nova de Gaia - Espinho, E. P. E. (508142156)","GERANSWERS, LDA (507683528)","84,00 €",21-01-2014,10-01-2014,10 dias,"Portugal, Porto, Vila Nova de Gaia","Artigo 24.º, n.º 1, alínea c) do Código dos Contratos Públicos",,,,,,Não aplicável.,Não aplicável.,FALSE
Aquisição de Baterias p/ Monitor Sinais Vitais,Ajuste Direto Regime Geral,Aquisição de bens móveis,"31440000-2, Baterias","Centro Hospitalar Vila Nova de Gaia - Espinho, E. P. E. (508142156)",SPECULUM (502996323),"260,00 €",21-01-2014,10-01-2014,10 dias,"Portugal, Porto, Vila Nova de Gaia","Artigo 24.º, n.º 1, alínea c) do Código dos Contratos Públicos",,,,,,Não aplicável.,Não aplicável.,FALSE
Aquisição de Comando p/ Projector Optotipos,Ajuste Direto Regime Geral,Aquisição de bens móveis,"31440000-2, Baterias","Centro Hospitalar Vila Nova de Gaia - Espinho, E. P. E. (508142156)",ANTÓNIO MOUTINHO & Cª. LDª. (500025550),"95,00 €",21-01-2014,10-01-2014,10 dias,"Portugal, Porto, Vila Nova de Gaia","Artigo 24.º, n.º 1, alínea e) do Código dos Contratos Públicos",,,,,,Não aplicável.,Não aplicável.,FALSE
Aquisição de Comando de Marquesa,Ajuste Direto Regime Geral,Aquisição de bens móveis,"39110000-6, Assentos, cadeiras e produtos afins e peças associadas","Centro Hospitalar Vila Nova de Gaia - Espinho, E. P. E. (508142156)",Maquet Portugal (506819698),"1.013,00 €",21-01-2014,10-01-2014,10 dias,"Portugal, Porto, Vila Nova de Gaia","Artigo 24.º, n.º 1, alínea e) do Código dos Contratos Públicos",,,,,,Não aplicável.,Não aplicável.,FALSE
Aquisição de Epirrubicina 2 mg/ml Sol inj Fr 25 ml IV IVesical,Ajuste Direto Regime Geral,Aquisição de bens móveis,"33600000-6, Produtos farmacêuticos","Centro Hospitalar Vila Nova de Gaia - Espinho, E. P. E. (508142156)",Actavis As Sucursal (980334934),"447,00 €",21-01-2014,10-01-2014,60 dias,"Portugal, Porto, Vila Nova de Gaia","Artigo 24.º, n.º 1, alínea c) do Código dos Contratos Públicos",,,,,,Não aplicável.,Não aplicável.,FALSE
Aquisição de PSA Modulo EE,Ajuste Direto Regime Geral,Aquisição de bens móveis,"33696000-5, Reagentes e meios de contraste","Centro Hospitalar Vila Nova de Gaia - Espinho, E. P. E. (508142156)","ROCHE SISTEMAS DE DIAGNÓSTICO, LDA (504282921)","514,56 €",21-01-2014,10-01-2014,30 dias,"Portugal, Porto, Vila Nova de Gaia","Artigo 24.º, n.º 1, alínea e) do Código dos Contratos Públicos",,,,,,Não aplicável.,Não aplicável.,FALSE
Aquisição de Sondas de aspiração,Ajuste Direto Regime Geral,Aquisição de bens móveis,"33141641-5, Sondas","Centro Hospitalar Vila Nova de Gaia - Espinho, E. P. E. (508142156)","COVIDIEN PORTUGAL-Produtos de Saúde,Unipessoal,Lda (503413410)","1.700,00 €",21-01-2014,10-01-2014,90 dias,"Portugal, Porto, Vila Nova de Gaia","Artigo 24.º, n.º 1, alínea c) do Código dos Contratos Públicos",,,,,,Não aplicável.,Não aplicável.,FALSE
Aquisição de Máscaras Cirúrgicas c/ Fixação por Elástico,Ajuste Direto Regime Geral,Aquisição de bens móveis,"33169000-2, Material cirúrgico","Centro Hospitalar Vila Nova de Gaia - Espinho, E. P. E. (508142156)",FACTOR PLUS (502810645),"4.300,00 €",21-01-2014,10-01-2014,90 dias,"Portugal, Porto, Vila Nova de Gaia","Artigo 24.º, n.º 1, alínea c) do Código dos Contratos Públicos",,,,,,Não aplicável.,Não aplicável.,FALSE
Aquisição de SISTEMA COMPLETO P/ AUTOTRANSFUSÃO ELECTA,Ajuste Direto Regime Geral,Aquisição de bens móveis,"33140000-3, Material médico de consumo","Centro Hospitalar Vila Nova de Gaia - Espinho, E. P. E. (508142156)","Lusopalex, Lda (503531588)","300,00 €",21-01-2014,09-01-2014,10 dias,"Portugal, Porto, Vila Nova de Gaia","Artigo 24.º, n.º 1, alínea e) do Código dos Contratos Públicos",,,,,,Não aplicável.,Não aplicável.,FALSE
Aquisição de Diversos Tinteiros e Toners,Ajuste Direto Regime Geral,Aquisição de bens móveis,"30125100-2, Cartuchos de tinta (toner)","Centro Hospitalar Vila Nova de Gaia - Espinho, E. P. E. (508142156)","LUIRAMA - Com. de Equip. de escritório e afins,Lda (502762381)","716,15 €",21-01-2014,09-01-2014,90 dias,"Portugal, Porto, Vila Nova de Gaia","Artigo 24.º, n.º 1, alínea c) do Código dos Contratos Públicos",,,,,,Não aplicável.,Não aplicável.,FALSE
Aquisição de Luvas de Menage,Ajuste Direto Regime Geral,Aquisição de bens móveis,"18424300-0, Luvas descartáveis","Centro Hospitalar Vila Nova de Gaia - Espinho, E. P. E. (508142156)","H.R. PRODUTOS QUIMICOS, LDA (501895558)","4.140,00 €",21-01-2014,09-01-2014,180 dias,"Portugal, Porto, Vila Nova de Gaia","Artigo 24.º, n.º 1, alínea c) do Código dos Contratos Públicos",,,,,,Não aplicável.,Não aplicável.,FALSE
"Aquisição de Medicamentos do Aparelho Digestivo, AQ 2012/14, até conclusão de procedimento",Ajuste Direto Regime Geral,Aquisição de bens móveis,"33600000-6, Produtos farmacêuticos","Centro Hospitalar Vila Nova de Gaia - Espinho, E. P. E. (508142156)",UNILFARMA (500293023),"740,69 €",20-01-2014,20-01-2014,80 dias,"Portugal, Porto, Vila Nova de Gaia","Artigo 24.º, n.º 1, alínea c) do Código dos Contratos Públicos",,,,,,Não aplicável.,Não aplicável.,FALSE
"Aquisição de Medicamentos do Aparelho Digestivo, AQ 2012/14, até conclusão de procedimento",Ajuste Direto Regime Geral,Aquisição de bens móveis,"33600000-6, Produtos farmacêuticos","Centro Hospitalar Vila Nova de Gaia - Espinho, E. P. E. (508142156)",SIDEFARMA (500717419),"909,00 €",20-01-2014,20-01-2014,80 dias,"Portugal, Porto, Vila Nova de Gaia","Artigo 24.º, n.º 1, alínea c) do Código dos Contratos Públicos",,,,,,Não aplicável.,Não aplicável.,FALSE
"Aquisição de Medicamentos do Aparelho Digestivo, AQ 2012/14, até conclusão de procedimento",Ajuste Direto Regime Geral,Aquisição de bens móveis,"33600000-6, Produtos farmacêuticos","Centro Hospitalar Vila Nova de Gaia - Espinho, E. P. E. (508142156)","Sanofi-Aventis - Prod. Farmacêuticos, Lda (500134960)","767,14 €",20-01-2014,20-01-2014,80 dias,"Portugal, Porto, Vila Nova de Gaia","Artigo 24.º, n.º 1, alínea c) do Código dos Contratos Públicos",,,,,,Não aplicável.,Não aplicável.,FALSE
"Aquisição de Medicamentos do Aparelho Digestivo, AQ 2012/14, até conclusão de procedimento",Ajuste Direto Regime Geral,Aquisição de bens móveis,"33600000-6, Produtos farmacêuticos","Centro Hospitalar Vila Nova de Gaia - Espinho, E. P. E. (508142156)","RATIOPHARM, LDA (502414910)","81,00 €",20-01-2014,20-01-2014,80 dias,"Portugal, Porto, Vila Nova de Gaia","Artigo 24.º, n.º 1, alínea c) do Código dos Contratos Públicos",,,,,,Não aplicável.,Não aplicável.,FALSE
"Aquisição de Medicamentos do Aparelho Digestivo, AQ 2012/14, até conclusão de procedimento",Ajuste Direto Regime Geral,Aquisição de bens móveis,"33600000-6, Produtos farmacêuticos","Centro Hospitalar Vila Nova de Gaia - Espinho, E. P. E. (508142156)","PROSPA - Laboratórios Farmacêuticos, SA (500130248)","4.230,00 €",20-01-2014,20-01-2014,80 dias,"Portugal, Porto, Vila Nova de Gaia","Artigo 24.º, n.º 1, alínea c) do Código dos Contratos Públicos",,,,,,Não aplicável.,Não aplicável.,FALSE
"Aquisição de Medicamentos do Aparelho Digestivo, AQ 2012/14, até conclusão de procedimento",Ajuste Direto Regime Geral,Aquisição de bens móveis,"33600000-6, Produtos farmacêuticos","Centro Hospitalar Vila Nova de Gaia - Espinho, E. P. E. (508142156)","PROSPA - Laboratórios Farmacêuticos, SA (500130248)","5.400,00 €",20-01-2014,20-01-2014,80 dias,"Portugal, Porto, Vila Nova de Gaia","Artigo 24.º, n.º 1, alínea c) do Código dos Contratos Públicos",,,,,,Não aplicável.,Não aplicável.,FALSE
"Aquisição de Medicamentos do Aparelho Digestivo, AQ 2012/14, até conclusão de procedimento",Ajuste Direto Regime Geral,Aquisição de bens móveis,"33600000-6, Produtos farmacêuticos","Centro Hospitalar Vila Nova de Gaia - Espinho, E. P. E. (508142156)","LABORATÓRIO MEDINFAR, S.A. (500384045)","1.008,60 €",20-01-2014,20-01-2014,80 dias,"Portugal, Porto, Vila Nova de Gaia","Artigo 24.º, n.º 1, alínea c) do Código dos Contratos Públicos",,,,,,Não aplicável.,Não aplicável.,FALSE
"Aquisição de Medicamentos do Aparelho Digestivo, AQ 2012/14, até conclusão de procedimento",Ajuste Direto Regime Geral,Aquisição de bens móveis,"33600000-6, Produtos farmacêuticos","Centro Hospitalar Vila Nova de Gaia - Espinho, E. P. E. (508142156)","MEDA PHARMA - PRODUTOS FARMACÊUTICOS, S.A. (500082090)","5.480,12 €",20-01-2014,20-01-2014,80 dias,"Portugal, Porto, Vila Nova de Gaia","Artigo 24.º, n.º 1, alínea c) do Código dos Contratos Públicos",,,,,,Não aplicável.,Não aplicável.,FALSE
"Aquisição de Medicamentos do Aparelho Digestivo, AQ 2012/14, até conclusão de procedimento",Ajuste Direto Regime Geral,Aquisição de bens móveis,"33600000-6, Produtos farmacêuticos","Centro Hospitalar Vila Nova de Gaia - Espinho, E. P. E. (508142156)","LABESFAL - LABORATÓRIOS ALMIRO, SA (501169580)","146,92 €",20-01-2014,20-01-2014,80 dias,"Portugal, Porto, Vila Nova de Gaia","Artigo 24.º, n.º 1, alínea c) do Código dos Contratos Públicos",,,,,,Não aplicável.,Não aplicável.,FALSE
"Aquisição de Medicamentos do Aparelho Digestivo, AQ 2012/14, até conclusão de procedimento",Ajuste Direto Regime Geral,Aquisição de bens móveis,"33600000-6, Produtos farmacêuticos","Centro Hospitalar Vila Nova de Gaia - Espinho, E. P. E. (508142156)","GLAXOSMITHKLINE Produtos Farmacêuticos, Lda (500139962)","930,00 €",20-01-2014,20-01-2014,80 dias,"Portugal, Porto, Vila Nova de Gaia","Artigo 24.º, n.º 1, alínea c) do Código dos Contratos Públicos",,,,,,Não aplicável.,Não aplicável.,FALSE
"Aquisição de Medicamentos do Aparelho Digestivo, AQ 2012/14, até conclusão de procedimento",Ajuste Direto Regime Geral,Aquisição de bens móveis,"33600000-6, Produtos farmacêuticos","Centro Hospitalar Vila Nova de Gaia - Espinho, E. P. E. (508142156)","Generis - Farmacêutica, SA (508107997)","559,92 €",20-01-2014,20-01-2014,80 dias,"Portugal, Porto, Vila Nova de Gaia","Artigo 24.º, n.º 1, alínea c) do Código dos Contratos Públicos",,,,,,Não aplicável.,Não aplicável.,FALSE
"Aquisição de Medicamentos do Aparelho Digestivo, AQ 2012/14, até conclusão de procedimento",Ajuste Direto Regime Geral,Aquisição de bens móveis,"33600000-6, Produtos farmacêuticos","Centro Hospitalar Vila Nova de Gaia - Espinho, E. P. E. (508142156)",BAYER PORTUGAL S.A. (500043256),"29,60 €",20-01-2014,20-01-2014,80 dias,"Portugal, Porto, Vila Nova de Gaia","Artigo 24.º, n.º 1, alínea c) do Código dos Contratos Públicos",,,,,,Não aplicável.,Não aplicável.,FALSE
Aquisição de Lidocaína 25mg/g+Prilocaína 25mg/g Creme e Pens impreg,Ajuste Direto Regime Geral,Aquisição de bens móveis,"33600000-6, Produtos farmacêuticos","Centro Hospitalar Vila Nova de Gaia - Espinho, E. P. E. (508142156)","ASTRAZENECA Produtos Farmacêuticos, Lda (502942240)","1.302,00 €",20-01-2014,10-01-2014,60 dias,"Portugal, Porto, Vila Nova de Gaia","Artigo 24.º, n.º 1, alínea c) do Código dos Contratos Públicos",,,,,,Não aplicável.,Não aplicável.,FALSE
"Aquisição de Diazepam 5 mg/2.5 ml Sol rect Cânula 2,5 ml",Ajuste Direto Regime Geral,Aquisição de bens móveis,"33600000-6, Produtos farmacêuticos","Centro Hospitalar Vila Nova de Gaia - Espinho, E. P. E. (508142156)",Actavis As Sucursal (980334934),"16,40 €",20-01-2014,09-01-2014,60 dias,"Portugal, Porto, Vila Nova de Gaia","Artigo 24.º, n.º 1, alínea c) do Código dos Contratos Públicos",,,,,,Não aplicável.,Não aplicável.,FALSE
Aquisição de Fluoxetina 20 mg Cáps,Ajuste Direto Regime Geral,Aquisição de bens móveis,"33600000-6, Produtos farmacêuticos","Centro Hospitalar Vila Nova de Gaia - Espinho, E. P. E. (508142156)",Actavis As Sucursal (980334934),"12,00 €",20-01-2014,09-01-2014,60 dias,"Portugal, Porto, Vila Nova de Gaia","Artigo 24.º, n.º 1, alínea c) do Código dos Contratos Públicos",,,,,,Não aplicável.,Não aplicável.,FALSE
Aquisição de Levonorgestrel 20 µg h disp lib iuteri,Ajuste Direto Regime Geral,Aquisição de bens móveis,"33600000-6, Produtos farmacêuticos","Centro Hospitalar Vila Nova de Gaia - Espinho, E. P. E. (508142156)",BAYER PORTUGAL S.A. (500043256),"3.676,00 €",20-01-2014,09-01-2014,60 dias,"Portugal, Porto, Vila Nova de Gaia","Artigo 24.º, n.º 1, alínea e) do Código dos Contratos Públicos",,,,,,Não aplicável.,Não aplicável.,FALSE
Aquisição de Interferão beta-1a 6 M.U.I./0.5 ml Sol inj Caneta 0.5 ml IM,Ajuste Direto Regime Geral,Aquisição de bens móveis,"33600000-6, Produtos farmacêuticos","Centro Hospitalar Vila Nova de Gaia - Espinho, E. P. E. (508142156)","BIOGEN IDEC PORTUGAL, LDA (506415740)","9.288,00 €",20-01-2014,09-01-2014,30 dias,"Portugal, Porto, Vila Nova de Gaia","Artigo 24.º, n.º 1, alínea e) do Código dos Contratos Públicos",,,,,,Não aplicável.,Não aplicável.,FALSE
aquisição de Diversos Medicamentos Actavis do CPA 2012/01,Ajuste Direto Regime Geral,Aquisição de bens móveis,"33600000-6, Produtos farmacêuticos","Centro Hospitalar Vila Nova de Gaia - Espinho, E. P. E. (508142156)",Actavis As Sucursal (980334934),"232,00 €",20-01-2014,09-01-2014,60 dias,"Portugal, Porto, Vila Nova de Gaia","Artigo 24.º, n.º 1, alínea c) do Código dos Contratos Públicos",,,,,,Não aplicável.,Não aplicável.,FALSE
Aquisição de Calcitriol 0.25 µg Cáps,Ajuste Direto Regime Geral,Aquisição de bens móveis,"33600000-6, Produtos farmacêuticos","Centro Hospitalar Vila Nova de Gaia - Espinho, E. P. E. (508142156)","ROCHE Farmacêutica Quimica, Lda (500233810)","339,00 €",20-01-2014,08-01-2014,60 dias,"Portugal, Porto, Vila Nova de Gaia","Artigo 24.º, n.º 1, alínea e) do Código dos Contratos Públicos",,,,,,Não aplicável.,Não aplicável.,FALSE
Aquisição de Filtro p/ Aparelho de montagem de Lâminas,Ajuste Direto Regime Geral,Aquisição de bens móveis,"42954000-8, Peças para máquinas laminadoras","Centro Hospitalar Vila Nova de Gaia - Espinho, E. P. E. (508142156)",GARAL (500777314),"150,00 €",20-01-2014,08-01-2014,10 dias,"Portugal, Porto, Vila Nova de Gaia","Artigo 24.º, n.º 1, alínea e) do Código dos Contratos Públicos",,,,,,Não aplicável.,Não aplicável.,FALSE
Aquisição de Filtro p/ Hotte de Extração,Ajuste Direto Regime Geral,Aquisição de bens móveis,"42419900-5, Peças para máquinas de extracção e outro equipamento de elevação ou movimentação","Centro Hospitalar Vila Nova de Gaia - Espinho, E. P. E. (508142156)",GARAL (500777314),"425,00 €",20-01-2014,08-01-2014,10 dias,"Portugal, Porto, Porto","Artigo 24.º, n.º 1, alínea e) do Código dos Contratos Públicos",,,,,,Não aplicável.,Não aplicável.,FALSE
Aquisição de Material p/ Reparação de Maca,Ajuste Direto Regime Geral,Aquisição de bens móveis,"33192000-2, Mobiliário para fins médicos","Centro Hospitalar Vila Nova de Gaia - Espinho, E. P. E. (508142156)",IBERDATA (501904921),"170,60 €",20-01-2014,08-01-2014,10 dias,"Portugal, Porto, Vila Nova de Gaia","Artigo 24.º, n.º 1, alínea e) do Código dos Contratos Públicos",,,,,,Não aplicável.,Não aplicável.,FALSE
Aquisição de Material p/ Reparação de Microscópio Cirúrgico,Ajuste Direto Regime Geral,Aquisição de bens móveis,"33122000-1, Equipamento oftalmológico","Centro Hospitalar Vila Nova de Gaia - Espinho, E. P. E. (508142156)","GRUPO TAPER-Equipamentos de precisão cient., Ldª (506886336)","5.924,20 €",20-01-2014,08-01-2014,10 dias,"Portugal, Porto, Vila Nova de Gaia","Artigo 24.º, n.º 1, alínea e) do Código dos Contratos Públicos",,,,,,Não aplicável.,Não aplicável.,FALSE
Aquisição de Cabo Neutro,Ajuste Direto Regime Geral,Aquisição de bens móveis,"31300000-9, Fios e cabos isolados","Centro Hospitalar Vila Nova de Gaia - Espinho, E. P. E. (508142156)",BACELAR & IRMÃO (500532818),"5.924,20 €",20-01-2014,08-01-2014,10 dias,"Portugal, Porto, Vila Nova de Gaia","Artigo 24.º, n.º 1, alínea e) do Código dos Contratos Públicos",,,,,,Não aplicável.,Não aplicável.,FALSE
Aquisição de Cabo Neutro,Ajuste Direto Regime Geral,Aquisição de bens móveis,"31320000-5, Cabos de distribuição de energia eléctrica","Centro Hospitalar Vila Nova de Gaia - Espinho, E. P. E. (508142156)",BACELAR & IRMÃO (500532818),"61,10 €",20-01-2014,08-01-2014,10 dias,"Portugal, Porto, Vila Nova de Gaia","Artigo 24.º, n.º 1, alínea c) do Código dos Contratos Públicos",,,,,,Não aplicável.,Não aplicável.,FALSE
Aquisição de Cabos de 3 derivações,Ajuste Direto Regime Geral,Aquisição de bens móveis,"31320000-5, Cabos de distribuição de energia eléctrica","Centro Hospitalar Vila Nova de Gaia - Espinho, E. P. E. (508142156)","GERANSWERS, LDA (507683528)","130,00 €",20-01-2014,09-01-2014,10 dias,"Portugal, Porto, Vila Nova de Gaia","Artigo 24.º, n.º 1, alínea c) do Código dos Contratos Públicos",,,,,,Não aplicável.,Não aplicável.,FALSE
Aquisição de Alfentanilo 1mg/2ML Sol. Inj. Fr 2 ML IV,Ajuste Direto Regime Geral,Aquisição de bens móveis,"33600000-6, Produtos farmacêuticos","Centro Hospitalar Vila Nova de Gaia - Espinho, E. P. E. (508142156)","Janssen Cilag Farmacêutica, Lda (500189412)","1.155,60 €",20-01-2014,08-01-2014,60 dias,"Portugal, Porto, Vila Nova de Gaia","Artigo 24.º, n.º 1, alínea c) do Código dos Contratos Públicos",,,,,,Não aplicável.,Não aplicável.,FALSE
Aquisição de Oxido Férrico Sacarosado 100MG/5ML Sol. Inj. Fr.5ML IV,Ajuste Direto Regime Geral,Aquisição de bens móveis,"33600000-6, Produtos farmacêuticos","Centro Hospitalar Vila Nova de Gaia - Espinho, E. P. E. (508142156)","COMBINO PHARM PORTUGAL, UNIPESSOAL, LDA (508622263)","3.180,00 €",20-01-2014,08-01-2014,60 dias,"Portugal, Porto, Vila Nova de Gaia","Artigo 24.º, n.º 1, alínea c) do Código dos Contratos Públicos",,,,,,Não aplicável.,Não aplicável.,FALSE
Aquisição de Reagentes para Serologia,Ajuste Direto Regime Geral,Aquisição de bens móveis,"33696000-5, Reagentes e meios de contraste","Centro Hospitalar Vila Nova de Gaia - Espinho, E. P. E. (508142156)","ISODER Isótopos e Derivados, SA (502241594)","300,00 €",20-01-2014,08-01-2014,60 dias,"Portugal, Porto, Vila Nova de Gaia","Artigo 24.º, n.º 1, alínea e) do Código dos Contratos Públicos",,,,,,Não aplicável.,Não aplicável.,FALSE
Aquisição Capecitabina 500 mg Comp,Ajuste Direto Regime Geral,Aquisição de bens móveis,"33600000-6, Produtos farmacêuticos","Centro Hospitalar Vila Nova de Gaia - Espinho, E. P. E. (508142156)","ROCHE Farmacêutica Quimica, Lda (500233810)","2.502,00 €",20-01-2014,08-01-2014,10 dias,"Portugal, Porto, Vila Nova de Gaia","Artigo 24.º, n.º 1, alínea c) do Código dos Contratos Públicos",,,,,,Não aplicável.,Não aplicável.,FALSE
Aquisição de Sondas Vesiscais,Ajuste Direto Regime Geral,Aquisição de bens móveis,"33141641-5, Sondas","Centro Hospitalar Vila Nova de Gaia - Espinho, E. P. E. (508142156)","Coloplast Portugal - Sociedade Unipessoal, Lda (503989037)","4.076,83 €",20-01-2014,08-01-2014,90 dias,"Portugal, Porto, Vila Nova de Gaia","Artigo 24.º, n.º 1, alínea c) do Código dos Contratos Públicos",,,,,,Não aplicável.,Não aplicável.,FALSE
Aquisição de Lentes e Armações - AAT 2014,Ajuste Direto Regime Geral,Aquisição de bens móveis,"33734000-4, Óculos","Centro Hospitalar Vila Nova de Gaia - Espinho, E. P. E. (508142156)","TERESA JORGE & FILHOS ¿ ÓPTICA, LDA (504760548)","5.398,60 €",20-01-2014,08-01-2014,365 dias,"Portugal, Porto, Vila Nova de Gaia","Artigo 24.º, n.º 1, alínea c) do Código dos Contratos Públicos",,,,,,Não aplicável.,Não aplicável.,FALSE
Aquisição de Próteses Oculares - AAT 2014,Ajuste Direto Regime Geral,Aquisição de bens móveis,"33184600-9, Olhos artificiais","Centro Hospitalar Vila Nova de Gaia - Espinho, E. P. E. (508142156)",ANTÓNIO MOUTINHO & Cª. LDª. (500025550),"9.132,07 €",20-01-2014,08-01-2014,365 dias,"Portugal, Porto, Vila Nova de Gaia","Artigo 24.º, n.º 1, alínea c) do Código dos Contratos Públicos",,,,,,Não aplicável.,Não aplicável.,FALSE
Aquisição de Clopidogrel 75 mg Comp,Ajuste Direto Regime Geral,Aquisição de bens móveis,"33600000-6, Produtos farmacêuticos","Centro Hospitalar Vila Nova de Gaia - Espinho, E. P. E. (508142156)",Actavis As Sucursal (980334934),"235,20 €",20-01-2014,08-01-2014,60 dias,"Portugal, Porto, Vila Nova de Gaia","Artigo 24.º, n.º 1, alínea c) do Código dos Contratos Públicos",,,,,,Não aplicável.,Não aplicável.,FALSE
Aquisição de Insulina isofânica 100 U.I./ml Acção interm Susp inj Fr 10 ml SC,Ajuste Direto Regime Geral,Aquisição de bens móveis,"33600000-6, Produtos farmacêuticos","Centro Hospitalar Vila Nova de Gaia - Espinho, E. P. E. (508142156)","NOVO NORDISK, LDA (501485210)","494,40 €",20-01-2014,08-01-2014,60 dias,"Portugal, Porto, Vila Nova de Gaia","Artigo 24.º, n.º 1, alínea c) do Código dos Contratos Públicos",,,,,,Não aplicável.,Não aplicável.,FALSE
Aquisição Levofloxacina 5mg/ml Sol inj Fr 100ml IV,Ajuste Direto Regime Geral,Aquisição de bens móveis,"33600000-6, Produtos farmacêuticos","Centro Hospitalar Vila Nova de Gaia - Espinho, E. P. E. (508142156)","Fresenius Kabi Pharma Portugal, Lda (504293753)","2.560,00 €",20-01-2014,08-01-2014,60 dias,"Portugal, Porto, Vila Nova de Gaia","Artigo 24.º, n.º 1, alínea c) do Código dos Contratos Públicos",,,,,,Não aplicável.,Não aplicável.,FALSE
Aquisição de Dieta Comp Normalizada Polimerica liq. Frs 500ML Sonda,Ajuste Direto Regime Geral,Aquisição de bens móveis,"33600000-6, Produtos farmacêuticos","Centro Hospitalar Vila Nova de Gaia - Espinho, E. P. E. (508142156)","Fresenius Kabi Pharma Portugal, Lda (504293753)","2.385,00 €",20-01-2014,08-01-2014,60 dias,"Portugal, Porto, Vila Nova de Gaia","Artigo 24.º, n.º 1, alínea c) do Código dos Contratos Públicos",,,,,,Não aplicável.,Não aplicável.,FALSE
Aquisição de Sulfametoxazol 400MG/5ML+Trimetropim 80 MG/5ML Sol. Inj. Fr 5ML IV,Ajuste Direto Regime Geral,Aquisição de bens móveis,"33600000-6, Produtos farmacêuticos","Centro Hospitalar Vila Nova de Gaia - Espinho, E. P. E. (508142156)","RATIOPHARM, LDA (502414910)","1.488,96 €",20-01-2014,08-01-2014,60 dias,"Portugal, Porto, Vila Nova de Gaia","Artigo 24.º, n.º 1, alínea c) do Código dos Contratos Públicos",,,,,,Não aplicável.,Não aplicável.,FALSE
" Aquisição de Levossimendano 2,5mg/ml Sol. Inj. Frscs 5ML IV ",Ajuste Direto Regime Geral,Aquisição de bens móveis,"33600000-6, Produtos farmacêuticos","Centro Hospitalar Vila Nova de Gaia - Espinho, E. P. E. (508142156)","ORIONFIN Unipessoal, Lda (508907365)","4.230,00 €",20-01-2014,08-01-2014,60 dias,"Portugal, Porto, Vila Nova de Gaia","Artigo 24.º, n.º 1, alínea e) do Código dos Contratos Públicos",,,,,,Não aplicável.,Não aplicável.,FALSE
Aquisição de 3 mMacas de transporte de doentes,Ajuste Direto Regime Geral,Aquisição de bens móveis,"34000000-7, Equipamento e produtos auxiliares de transporte","Centro Hospitalar Vila Nova de Gaia - Espinho, E. P. E. (508142156)",Mundinter- Intercambio de Comércio SA (500199906),"4.900,00 €",17-01-2014,23-12-2013,1 dias,"Portugal, Porto, Vila Nova de Gaia","Artigo 24.º, n.º 1, alínea c) do Código dos Contratos Públicos",,,,,,Não aplicável.,Não aplicável.,FALSE
Aquisição de Oxigenadores de Membrana,Concurso público,Aquisição de bens móveis,"33186100-8, Oxigenador","Centro Hospitalar Vila Nova de Gaia - Espinho, E.P.E. (508142156)","Maquet Portugal, Comércio de Equipamentos Hospitalares Unipessoal, Lda. (506819698)","141.210,00 €",17-01-2014,11-11-2013,51 dias,"Portugal, Porto, Vila Nova de Gaia","Artigo 20.º, n.º 1, alínea b) do Código dos Contratos Públicos",,,,,,Não aplicável.,Não aplicável.,FALSE
Aquisição de 22 Macas de Transporte de Doentes - Diversos Serviços,Ajuste Direto Regime Geral,Aquisição de bens móveis,"33192160-1, Macas",Centro Hospitalar Vila Nova de Gaia (CHNVG) (508142156),Mundinter SA (500199906),"39.470,00 €",16-01-2014,09-01-2014,45 dias,"Portugal, Porto, Vila Nova de Gaia","Artigo 20.º, n.º 1, alínea a) do Código dos Contratos Públicos",,,,,,Não aplicável.,Não aplicável.,FALSE
Aquisição de Diversos Cabos para Manutenção de Equipamento de Eletromedicina,Ajuste Direto Regime Geral,Aquisição de bens móveis,"32000000-3, Equipamento de rádio, televisão, comunicação, telecomunicações e afins","Centro Hospitalar Vila Nova de Gaia - Espinho, E. P. E. (508142156)",Iberdata- Equipamentos SA (501904921),"2.310,00 €",16-01-2014,09-01-2014,365 dias,"Portugal, Porto, Vila Nova de Gaia","Artigo 20.º, n.º 1, alínea a) do Código dos Contratos Públicos",,,,,,Não aplicável.,Não aplicável.,FALSE
Aquisição de Diversos Cabos para Manutenção de Equipamento de Eletromedicina,Ajuste Direto Regime Geral,Aquisição de bens móveis,"32000000-3, Equipamento de rádio, televisão, comunicação, telecomunicações e afins","Centro Hospitalar Vila Nova de Gaia - Espinho, E. P. E. (508142156)",Clinifar -Produtos Clinicos e Farmaceuticos SA (503281115),"336,00 €",16-01-2014,09-01-2014,365 dias,"Portugal, Porto, Vila Nova de Gaia","Artigo 20.º, n.º 1, alínea a) do Código dos Contratos Públicos",,,,,,Não aplicável.,Não aplicável.,FALSE
Aquisição de Diversos Cabos para Manutenção de Equipamento de Eletromedicina,Ajuste Direto Regime Geral,Aquisição de bens móveis,"32000000-3, Equipamento de rádio, televisão, comunicação, telecomunicações e afins","Centro Hospitalar Vila Nova de Gaia - Espinho, E. P. E. (508142156)",Geranswers Unipessoal Lda (507683528),"9.586,00 €",16-01-2014,09-01-2014,365 dias,"Portugal, Porto, Vila Nova de Gaia","Artigo 20.º, n.º 1, alínea a) do Código dos Contratos Públicos",,,,,,Não aplicável.,Não aplicável.,FALSE
Aquisição de Diversos Cabos para Manutenção de Equipamento de Eletromedicina,Ajuste Direto Regime Geral,Aquisição de bens móveis,"32000000-3, Equipamento de rádio, televisão, comunicação, telecomunicações e afins","Centro Hospitalar Vila Nova de Gaia - Espinho, E. P. E. (508142156)",Bacelar & Irmão Lda (500532818),"11.171,28 €",16-01-2014,09-01-2014,365 dias,"Portugal, Porto, Vila Nova de Gaia","Artigo 20.º, n.º 1, alínea a) do Código dos Contratos Públicos",,,,,,Não aplicável.,Não aplicável.,FALSE
Aquisição de Diversos Cabos para Manutenção de Equipamento de Eletromedicina,Ajuste Direto Regime Geral,Aquisição de bens móveis,"32000000-3, Equipamento de rádio, televisão, comunicação, telecomunicações e afins","Centro Hospitalar Vila Nova de Gaia - Espinho, E. P. E. (508142156)",Drager Portugal Lda (508771323),"18.347,00 €",16-01-2014,09-01-2014,365 dias,"Portugal, Porto, Vila Nova de Gaia","Artigo 20.º, n.º 1, alínea a) do Código dos Contratos Públicos",,,,,,Não aplicável.,Não aplicável.,FALSE
AD para Aquisição de Infliximab 100 mg pó conc sol inj Fr IV,Ajuste Direto Regime Geral,Aquisição de bens móveis,"33600000-6, Produtos farmacêuticos","Centro Hospitalar Vila Nova de Gaia - Espinho, E. P. E. (508142156)",MERCK SHARP & DHOME LDA. (500191360),"22.499,00 €",13-01-2014,10-01-2014,2 dias,"Portugal, Porto, Vila Nova de Gaia","Artigo 24.º, n.º 1, alínea e) do Código dos Contratos Públicos",,,,,,Não aplicável.,Não aplicável.,FALSE
AD para Aquisição Bevacizumab 2 dosagens (CPA2011/06),Ajuste Direto Regime Geral,Aquisição de bens móveis,"33600000-6, Produtos farmacêuticos","Centro Hospitalar Vila Nova de Gaia - Espinho, E. P. E. (508142156)","ROCHE Farmacêutica Quimica, Lda (500233810)","13.808,80 €",13-01-2014,10-01-2014,2 dias,"Portugal, Porto, Vila Nova de Gaia","Artigo 24.º, n.º 1, alínea e) do Código dos Contratos Públicos",,,,,,Não aplicável.,Não aplicável.,FALSE
AD para Aquisição de Raltegravir 400mg Comp,Ajuste Direto Regime Geral,Aquisição de bens móveis,"33600000-6, Produtos farmacêuticos","Centro Hospitalar Vila Nova de Gaia - Espinho, E. P. E. (508142156)",MERCK SHARP & DHOME LDA. (500191360),"37.800,00 €",13-01-2014,10-01-2014,2 dias,"Portugal, Porto, Vila Nova de Gaia","Artigo 24.º, n.º 1, alínea e) do Código dos Contratos Públicos",,,,,,Não aplicável.,Não aplicável.,FALSE
AD para Aquisição de Vários Medicamentos Roche,Ajuste Direto Regime Geral,Aquisição de bens móveis,"33600000-6, Produtos farmacêuticos","Centro Hospitalar Vila Nova de Gaia - Espinho, E. P. E. (508142156)","ROCHE Farmacêutica Quimica, Lda (500233810)","85.469,89 €",13-01-2014,10-01-2014,2 dias,"Portugal, Porto, Vila Nova de Gaia","Artigo 24.º, n.º 1, alínea e) do Código dos Contratos Públicos",,,,,,Não aplicável.,Não aplicável.,FALSE
AD para Aquisição de ETANERCEPT 50 MG/ML SERINGA E CANETA,Ajuste Direto Regime Geral,Aquisição de bens móveis,"33600000-6, Produtos farmacêuticos","Centro Hospitalar Vila Nova de Gaia - Espinho, E. P. E. (508142156)","LABORATORIOS PFIZER, LDA (500162166)","30.665,95 €",13-01-2014,10-01-2014,2 dias,"Portugal, Porto, Vila Nova de Gaia","Artigo 24.º, n.º 1, alínea e) do Código dos Contratos Públicos",,,,,,Não aplicável.,Não aplicável.,FALSE
AD para Aquisição de BORTEZOMIB 3.5 MG PÓ SOL INJ FR IV,Ajuste Direto Regime Geral,Aquisição de bens móveis,"33600000-6, Produtos farmacêuticos","Centro Hospitalar Vila Nova de Gaia - Espinho, E. P. E. (508142156)","Janssen Cilag Farmacêutica, Lda (500189412)","29.327,40 €",13-01-2014,09-01-2014,2 dias,"Portugal, Porto, Vila Nova de Gaia","Artigo 24.º, n.º 1, alínea e) do Código dos Contratos Públicos",,,,,,Não aplicável.,Não aplicável.,FALSE
AD para Aquisição de EFAVIRENZ 600 MG + EMTRICITABINA 200 MG + TENOFOVIR 245 MG COMP,Ajuste Direto Regime Geral,Aquisição de bens móveis,"33600000-6, Produtos farmacêuticos","Centro Hospitalar Vila Nova de Gaia - Espinho, E. P. E. (508142156)","GILEAD SCIENCES, LDA (503604704)","25.128,00 €",13-01-2014,06-01-2014,2 dias,"Portugal, Porto, Vila Nova de Gaia","Artigo 24.º, n.º 1, alínea e) do Código dos Contratos Públicos",,,,,,Não aplicável.,Não aplicável.,FALSE
AD para Aquisição de Tenofovir 245mg comp,Ajuste Direto Regime Geral,Aquisição de bens móveis,"33600000-6, Produtos farmacêuticos","Centro Hospitalar Vila Nova de Gaia - Espinho, E. P. E. (508142156)","GILEAD SCIENCES, LDA (503604704)","25.179,99 €",13-01-2014,06-01-2014,2 dias,"Portugal, Porto, Vila Nova de Gaia","Artigo 24.º, n.º 1, alínea e) do Código dos Contratos Públicos",,,,,,Não aplicável.,Não aplicável.,FALSE
AD para Aquisição de Darunavir 400mg comp,Ajuste Direto Regime Geral,Aquisição de bens móveis,"33600000-6, Produtos farmacêuticos","Centro Hospitalar Vila Nova de Gaia - Espinho, E. P. E. (508142156)","Janssen Cilag Farmacêutica, Lda (500189412)","26.630,10 €",13-01-2014,06-01-2014,2 dias,"Portugal, Porto, Vila Nova de Gaia","Artigo 24.º, n.º 1, alínea e) do Código dos Contratos Públicos",,,,,,Não aplicável.,Não aplicável.,FALSE
AD para Aquisição de Icodextrina 75 mg/ml Sol DP Fr 2000 ml,Ajuste Direto Regime Geral,Aquisição de bens móveis,"33600000-6, Produtos farmacêuticos","Centro Hospitalar Vila Nova de Gaia - Espinho, E. P. E. (508142156)","BAXTER MEDICO - FARMACÊUTICA, LDA (503347345)","1.440,00 €",13-01-2014,10-01-2014,60 dias,"Portugal, Porto, Vila Nova de Gaia","Artigo 24.º, n.º 1, alínea c) do Código dos Contratos Públicos",,,,,,Não aplicável.,Não aplicável.,FALSE
AD para Aquisição de Vários Medicamentos Baxter,Ajuste Direto Regime Geral,Aquisição de bens móveis,"33600000-6, Produtos farmacêuticos","Centro Hospitalar Vila Nova de Gaia - Espinho, E. P. E. (508142156)","BAXTER MEDICO - FARMACÊUTICA, LDA (503347345)","3.408,00 €",13-01-2014,10-01-2014,60 dias,"Portugal, Porto, Vila Nova de Gaia","Artigo 24.º, n.º 1, alínea c) do Código dos Contratos Públicos",,,,,,Não aplicável.,Não aplicável.,FALSE
AD para Aquisição de Consumiveis Urofluxómetro,Ajuste Direto Regime Geral,Aquisição de bens móveis,"33140000-3, Material médico de consumo","Centro Hospitalar Vila Nova de Gaia - Espinho, E. P. E. (508142156)",Teprel (502262184),"6.520,00 €",13-01-2014,10-01-2014,90 dias,"Portugal, Porto, Vila Nova de Gaia","Artigo 24.º, n.º 1, alínea e) do Código dos Contratos Públicos",,,,,,Não aplicável.,Não aplicável.,FALSE
AD para Aquisição de Filtro Anti-Bacteriano p/ Injeção,Ajuste Direto Regime Geral,Aquisição de bens móveis,"33140000-3, Material médico de consumo","Centro Hospitalar Vila Nova de Gaia - Espinho, E. P. E. (508142156)",CODAN 11 S.A. PORTUGAL (504923471),"2.200,00 €",13-01-2014,10-01-2014,90 dias,"Portugal, Porto, Vila Nova de Gaia","Artigo 24.º, n.º 1, alínea c) do Código dos Contratos Públicos",,,,,,Não aplicável.,Não aplicável.,FALSE
AD para Aquisição de Campo Transparente p/ Intensificador de Imagem 240x330,Ajuste Direto Regime Geral,Aquisição de bens móveis,"33140000-3, Material médico de consumo","Centro Hospitalar Vila Nova de Gaia - Espinho, E. P. E. (508142156)","3M PORTUGAL, LDA (500193940)","2.100,00 €",13-01-2014,10-01-2014,90 dias,"Portugal, Porto, Vila Nova de Gaia","Artigo 24.º, n.º 1, alínea c) do Código dos Contratos Públicos",,,,,,Não aplicável.,Não aplicável.,FALSE
AD para Aquisição de Sonda Hematurica Couvelaire,Ajuste Direto Regime Geral,Aquisição de bens móveis,"33140000-3, Material médico de consumo","Centro Hospitalar Vila Nova de Gaia - Espinho, E. P. E. (508142156)","Teleflex Medical, S.A.U. (980249783)","1.058,50 €",13-01-2014,10-01-2014,90 dias,"Portugal, Porto, Vila Nova de Gaia","Artigo 24.º, n.º 1, alínea c) do Código dos Contratos Públicos",,,,,,Não aplicável.,Não aplicável.,FALSE
AD para Aquisição de Seringa de Alimentação de 100ML - Adulto,Ajuste Direto Regime Geral,Aquisição de bens móveis,"33140000-3, Material médico de consumo","Centro Hospitalar Vila Nova de Gaia - Espinho, E. P. E. (508142156)","P.M.H. - PROD. MÉDICO-HOSPITALARES, LDA (502376899)","4.659,00 €",13-01-2014,10-01-2014,90 dias,"Portugal, Porto, Vila Nova de Gaia","Artigo 24.º, n.º 1, alínea c) do Código dos Contratos Públicos",,,,,,Não aplicável.,Não aplicável.,FALSE
AD para Aquisição de Balão p/ Infusão de Drogas 150ML - 2 dias,Ajuste Direto Regime Geral,Aquisição de bens móveis,"33140000-3, Material médico de consumo","Centro Hospitalar Vila Nova de Gaia - Espinho, E. P. E. (508142156)","Medicinália - Cormédica, Lda (500684324)","4.950,00 €",13-01-2014,10-01-2014,90 dias,"Portugal, Porto, Vila Nova de Gaia","Artigo 24.º, n.º 1, alínea c) do Código dos Contratos Públicos",,,,,,Não aplicável.,Não aplicável.,FALSE
AD para Aquisição de Agulha Punção Lombar 22G,Ajuste Direto Regime Geral,Aquisição de bens móveis,"33140000-3, Material médico de consumo","Centro Hospitalar Vila Nova de Gaia - Espinho, E. P. E. (508142156)",PLASTIMEDE (501899820),"93,75 €",13-01-2014,10-01-2014,90 dias,"Portugal, Porto, Vila Nova de Gaia","Artigo 24.º, n.º 1, alínea c) do Código dos Contratos Públicos",,,,,,Não aplicável.,Não aplicável.,FALSE
AD para Aquisição de PROTEÍNAS COAGULANTES COLA TECIDO SER 10 ML e 4ML,Ajuste Direto Regime Geral,Aquisição de bens móveis,"33600000-6, Produtos farmacêuticos","Centro Hospitalar Vila Nova de Gaia - Espinho, E. P. E. (508142156)","BAXTER MEDICO - FARMACÊUTICA, LDA (503347345)","8.316,00 €",13-01-2014,10-01-2014,60 dias,"Portugal, Porto, Vila Nova de Gaia","Artigo 24.º, n.º 1, alínea c) do Código dos Contratos Públicos",,,,,,Não aplicável.,Não aplicável.,FALSE
AD para Aquisição de RILPIVIRINA 25 MG COMP,Ajuste Direto Regime Geral,Aquisição de bens móveis,"33600000-6, Produtos farmacêuticos","Centro Hospitalar Vila Nova de Gaia - Espinho, E. P. E. (508142156)","Janssen Cilag Farmacêutica, Lda (500189412)","6.334,44 €",13-01-2014,10-01-2014,60 dias,"Portugal, Porto, Vila Nova de Gaia","Artigo 24.º, n.º 1, alínea e) do Código dos Contratos Públicos",,,,,,Não aplicável.,Não aplicável.,FALSE
AD para Reparação de Gastrovideoscópio,Ajuste Direto Regime Geral,Aquisição de serviços,"50800000-3, Serviços de reparação e manutenção diversos","Centro Hospitalar Vila Nova de Gaia - Espinho, E. P. E. (508142156)","OLYMPUS IBÉRIA, S.A.U. - SUCURSAL EM PORTUGAL (980474710)","1.420,21 €",13-01-2014,10-01-2014,5 dias,"Portugal, Porto, Vila Nova de Gaia","Artigo 24.º, n.º 1, alínea c) do Código dos Contratos Públicos",,,,,,Não aplicável.,Não aplicável.,FALSE
AD para Reparação de Optica,Ajuste Direto Regime Geral,Aquisição de serviços,"50800000-3, Serviços de reparação e manutenção diversos","Centro Hospitalar Vila Nova de Gaia - Espinho, E. P. E. (508142156)","Mário Rui Moita, Unipessoal, Lda (MM-ENDOCARE) (510093124)","575,00 €",13-01-2014,10-01-2014,5 dias,"Portugal, Porto, Vila Nova de Gaia","Artigo 24.º, n.º 1, alínea c) do Código dos Contratos Públicos",,,,,,Não aplicável.,Não aplicável.,FALSE
AD para Diagnóstico de Reparação de Ecocardiógrafo,Ajuste Direto Regime Geral,Aquisição de serviços,"50800000-3, Serviços de reparação e manutenção diversos","Centro Hospitalar Vila Nova de Gaia - Espinho, E. P. E. (508142156)","PHILIPS PORTUGUESA, S.A. - Sector Healthcare (500216843)","515,00 €",13-01-2014,10-01-2014,5 dias,"Portugal, Porto, Vila Nova de Gaia","Artigo 24.º, n.º 1, alínea e) do Código dos Contratos Públicos",,,,,,Não aplicável.,Não aplicável.,FALSE
AD para Diagnóstico de Reparação de Mesa,Ajuste Direto Regime Geral,Aquisição de serviços,"50800000-3, Serviços de reparação e manutenção diversos","Centro Hospitalar Vila Nova de Gaia - Espinho, E. P. E. (508142156)","PHILIPS PORTUGUESA, S.A. - Sector Healthcare (500216843)","578,00 €",13-01-2014,10-01-2014,5 dias,"Portugal, Porto, Vila Nova de Gaia","Artigo 24.º, n.º 1, alínea e) do Código dos Contratos Públicos",,,,,,Não aplicável.,Não aplicável.,FALSE
AD para Reparação de Ventilador de Anestesia,Ajuste Direto Regime Geral,Aquisição de serviços,"50800000-3, Serviços de reparação e manutenção diversos","Centro Hospitalar Vila Nova de Gaia - Espinho, E. P. E. (508142156)",IBERDATA (501904921),"577,11 €",13-01-2014,10-01-2014,5 dias,"Portugal, Porto, Vila Nova de Gaia","Artigo 24.º, n.º 1, alínea e) do Código dos Contratos Públicos",,,,,,Não aplicável.,Não aplicável.,FALSE
AD para Reparação de Caldeira a Vapor e Caldeira,Ajuste Direto Regime Geral,Aquisição de serviços,"50800000-3, Serviços de reparação e manutenção diversos","Centro Hospitalar Vila Nova de Gaia - Espinho, E. P. E. (508142156)",Such (500900469),"455,00 €",13-01-2014,10-01-2014,2 dias,"Portugal, Porto, Vila Nova de Gaia","Artigo 24.º, n.º 1, alínea c) do Código dos Contratos Públicos",,,,,,Não aplicável.,Não aplicável.,FALSE
AD para Reparação de Optica,Ajuste Direto Regime Geral,Aquisição de serviços,"50800000-3, Serviços de reparação e manutenção diversos","Centro Hospitalar Vila Nova de Gaia - Espinho, E. P. E. (508142156)","Mário Rui Moita, Unipessoal, Lda (MM-ENDOCARE) (510093124)","745,00 €",13-01-2014,10-01-2014,5 dias,"Portugal, Porto, Vila Nova de Gaia","Artigo 24.º, n.º 1, alínea c) do Código dos Contratos Públicos",,,,,,Não aplicável.,Não aplicável.,FALSE
AD para Reparação de Cama Elétrica,Ajuste Direto Regime Geral,Aquisição de serviços,"50800000-3, Serviços de reparação e manutenção diversos","Centro Hospitalar Vila Nova de Gaia - Espinho, E. P. E. (508142156)",Mundinter (500199906),"216,72 €",13-01-2014,10-01-2014,5 dias,"Portugal, Porto, Vila Nova de Gaia","Artigo 24.º, n.º 1, alínea e) do Código dos Contratos Públicos",,,,,,Não aplicável.,Não aplicável.,FALSE
AD para Reparação de Macas,Ajuste Direto Regime Geral,Aquisição de serviços,"50800000-3, Serviços de reparação e manutenção diversos","Centro Hospitalar Vila Nova de Gaia - Espinho, E. P. E. (508142156)",Mundinter (500199906),"509,25 €",13-01-2014,10-01-2014,5 dias,"Portugal, Porto, Vila Nova de Gaia","Artigo 24.º, n.º 1, alínea c) do Código dos Contratos Públicos",,,,,,Não aplicável.,Não aplicável.,FALSE
AD para Aquisição de Sondas Gastricas e de Aspiração,Ajuste Direto Regime Geral,Aquisição de bens móveis,"33140000-3, Material médico de consumo","Centro Hospitalar Vila Nova de Gaia - Espinho, E. P. E. (508142156)","VYGON (PORTUGAL), LDA. (503232785)","3.874,80 €",13-01-2014,10-01-2014,90 dias,"Portugal, Porto, Vila Nova de Gaia","Artigo 24.º, n.º 1, alínea c) do Código dos Contratos Públicos",,,,,,Não aplicável.,Não aplicável.,FALSE
AD para Aquisição de Levodopas + Carbidopas,Ajuste Direto Regime Geral,Aquisição de bens móveis,"33600000-6, Produtos farmacêuticos","Centro Hospitalar Vila Nova de Gaia - Espinho, E. P. E. (508142156)",MERCK SHARP & DHOME LDA. (500191360),"222,38 €",13-01-2014,10-01-2014,60 dias,"Portugal, Porto, Vila Nova de Gaia","Artigo 24.º, n.º 1, alínea c) do Código dos Contratos Públicos",,,,,,Não aplicável.,Não aplicável.,FALSE
AD para Aquisição de Desogestrel e Etinistradiol,Ajuste Direto Regime Geral,Aquisição de bens móveis,"33600000-6, Produtos farmacêuticos","Centro Hospitalar Vila Nova de Gaia - Espinho, E. P. E. (508142156)",MERCK SHARP & DHOME LDA. (500191360),"349,14 €",13-01-2014,10-01-2014,60 dias,"Portugal, Porto, Vila Nova de Gaia","Artigo 24.º, n.º 1, alínea c) do Código dos Contratos Públicos",,,,,,Não aplicável.,Não aplicável.,FALSE
AD para Aquisição de Testes de Biologia Molecular,Ajuste Direto Regime Geral,Aquisição de bens móveis,"33696000-5, Reagentes e meios de contraste","Centro Hospitalar Vila Nova de Gaia - Espinho, E. P. E. (508142156)",Izasa (501086110),"4.277,76 €",13-01-2014,10-01-2014,180 dias,"Portugal, Porto, Vila Nova de Gaia","Artigo 24.º, n.º 1, alínea e) do Código dos Contratos Públicos",,,,,,Não aplicável.,Não aplicável.,FALSE
AD para Aquisição de Sistema Completo p/ Autotransfusão,Ajuste Direto Regime Geral,Aquisição de bens móveis,"33140000-3, Material médico de consumo","Centro Hospitalar Vila Nova de Gaia - Espinho, E. P. E. (508142156)",Lusopalex (503531588),"9.900,00 €",13-01-2014,10-01-2014,90 dias,"Portugal, Porto, Vila Nova de Gaia","Artigo 24.º, n.º 1, alínea e) do Código dos Contratos Públicos",,,,,,Não aplicável.,Não aplicável.,FALSE
Fornecimento e MOntagem de Autoclave Horizontal de Vapor Saturado para a UCA - Unidade IIi,Ajuste Direto Regime Geral,Aquisição de bens móveis,"33191110-9, Autoclaves",Centro Hospitalar Vila Nova de Gaia (CHNVG) (508142156),"PROHS - Equipamento Hospitalar e Serviços Associados, S.A. (505005468)","26.695,35 €",13-01-2014,19-12-2013,45 dias,"Portugal, Porto, Vila Nova de Gaia","Artigo 20.º, n.º 1, alínea a) do Código dos Contratos Públicos",,,,,,Não aplicável.,Não aplicável.,FALSE
