Objeto do Contrato,Tipo de Procedimento,Tipo(s) de Contrato,CPVs,Entidade(s) Adjudicante(s),Entidade(s) Adjudicatária(s),Preço Contratual,Data de Publicação,Data de Celebração do Contrato,Prazo de Execução,Local de Execução,Fundamentação,Data de Fecho do Contrato,Preço Total Efetivo,Causas das Alterações ao Prazo,Causas das Alterações ao Preço,Estado,N.º registo do Acordo Quadro,Descrição do Acordo Quadro,Procedimento Centralizado
Desenvolvimento do Sistema SIR - Sistema de informação de Reembolsos para 2017.,Ajuste Direto Regime Geral,Aquisição de serviços,"72000000-5, Serviços de TI: consultoria, desenvolvimento de software, Internet e apoio","Instituto de Proteção e Assistência na Doença, I. P. (514247517)","ATOS IT SOLUTIONS AND SERVICES, UNIPESSOAL, LDA (509423647)","68.817,28 €",02-12-2017,09-03-2017,365 dias,"Portugal, Lisboa, Lisboa","Artigo 24.º, n.º 1, alínea e) do Código dos Contratos Públicos",09-03-2018,"68.817,28 €",,,,Não aplicável.,Não aplicável.,FALSE
"Manutenção dos edifícios da ADSE, sitos na Praça de Alvalade nºs 8 e 18, Pavilhão 31 do Centro Hospitalar Psiquiátrico de Lisboa e Av. Gomes Pereira 31-B Lisboa -  Pacote de 824 horas de Janeiro a Dezembro de 2017.",Ajuste Direto Regime Geral,Aquisição de serviços,"50000000-5, Serviços de reparação e manutenção","Instituto de Proteção e Assistência na Doença, I. P. (514247517)","N. Coimbra – Construções, Lda. (510055672)","8.157,60 €",02-12-2017,25-01-2017,365 dias,"Portugal, Lisboa, Lisboa","Artigo 20.º, n.º 1, alínea a) do Código dos Contratos Públicos","","",,,,Não aplicável.,Não aplicável.,FALSE
Aquisição de serviços de design de interiores,Ajuste Direto Regime Geral,Aquisição de serviços,"79931000-9, Serviços de decoração de interiores","Instituto de Proteção e Assistência na Doença, I. P. (514247517)","L3F Design de Interiores, Lda (505870835)","4.990,00 €",02-12-2017,26-07-2017,15 dias,"Portugal, Lisboa, Lisboa","Artigo 20.º, n.º 1, alínea a) do Código dos Contratos Públicos",07-08-2017,"4.990,00 €",,,,Não aplicável.,Não aplicável.,FALSE
Aquisição de Serviços de Comunicação Visual e Design.,Ajuste Direto Regime Geral,Aquisição de serviços,"98390000-3, Outros serviços","Instituto de Proteção e Assistência na Doença, I. P. (514247517)","Deriva Método, Lda. (513667288)","9.900,00 €",02-12-2017,29-06-2017,184 dias,"Portugal, Lisboa, Lisboa","Artigo 20.º, n.º 1, alínea a) do Código dos Contratos Públicos",31-12-2017,"9.900,00 €",,,,Não aplicável.,Não aplicável.,FALSE
