Objeto do Contrato,Tipo de Procedimento,Tipo(s) de Contrato,CPVs,Entidade(s) Adjudicante(s),Entidade(s) Adjudicatária(s),Preço Contratual,Data de Publicação,Data de Celebração do Contrato,Prazo de Execução,Local de Execução,Fundamentação,Data de Fecho do Contrato,Preço Total Efetivo,Causas das Alterações ao Prazo,Causas das Alterações ao Preço,Estado,N.º registo do Acordo Quadro,Descrição do Acordo Quadro,Procedimento Centralizado
"Fornecimento de comunicação fixo-móvel, para o ano de 2014",Ajuste Direto Regime Geral,Aquisição de serviços,"64200000-8, Serviços de telecomunicações","Centro Hospitalar Póvoa de Varzim - Vila do Conde, E.P.E. (508741823)","PT Comunicações, S.A. (504615947), Meo - Serviços de Comunicações e Multimédia, S.A. (502600268)","11.061,80 €",05-06-2014,03-04-2014,314 dias,"Portugal, Porto, Póvoa de Varzim<BR/>Portugal, Porto, Vila do Conde","Artigo 20.º, n.º 1, alínea a) do Código dos Contratos Públicos",,,,,,Não aplicável.,Não aplicável.,FALSE
"Aquisição de Sistemas de Próteses do Joelho para o Centro Hospitalar Póvoa de Varzim/Vila do Conde, E.P.E. (CHPVVC, EPE), de acordo com o Anexo III e Especificações Técnicas do Caderno de Encargos, durante o ano de 2014",Concurso público,Aquisição de bens móveis,"33183100-7, Implantes ortopédicos","Centro Hospitalar Póvoa de Varzim - Vila do Conde, E. P. E. (508741823)","MBA PORTUGAL, S.A. (504445960)","18.650,00 €",05-06-2014,30-04-2014,245 dias,"Portugal, Porto, Póvoa de Varzim","Artigo 20.º, n.º 1, alínea b) do Código dos Contratos Públicos",,,,,,Não aplicável.,Não aplicável.,FALSE
"Aquisição de Sistemas de Próteses do Joelho para o Centro Hospitalar Póvoa de Varzim/Vila do Conde, E.P.E. (CHPVVC, EPE), de acordo com o Anexo III e Especificações Técnicas do Caderno de Encargos, durante o ano de 2014",Concurso público,Aquisição de bens móveis,"33183100-7, Implantes ortopédicos","Centro Hospitalar Póvoa de Varzim - Vila do Conde, E. P. E. (508741823)","BIOMET PORTUGAL UNIPESSOAL,LDA (500254990)","10.555,00 €",05-06-2014,30-04-2014,245 dias,"Portugal, Porto, Póvoa de Varzim","Artigo 20.º, n.º 1, alínea b) do Código dos Contratos Públicos",,,,,,Não aplicável.,Não aplicável.,FALSE
"Aquisição de Sistemas de Próteses do Joelho para o Centro Hospitalar Póvoa de Varzim/Vila do Conde, E.P.E. (CHPVVC, EPE), de acordo com o Anexo III e Especificações Técnicas do Caderno de Encargos, durante o ano de 2014",Concurso público,Aquisição de bens móveis,"33183200-8, Próteses ortopédicas","Centro Hospitalar Póvoa de Varzim - Vila do Conde, E. P. E. (508741823)","BIOMET PORTUGAL UNIPESSOAL,LDA (500254990)","928,00 €",05-06-2014,30-04-2014,245 dias,"Portugal, Porto, Póvoa de Varzim","Artigo 20.º, n.º 1, alínea b) do Código dos Contratos Públicos",,,,,,Não aplicável.,Não aplicável.,FALSE
"Aquisição de Sistemas de Próteses do Joelho para o Centro Hospitalar Póvoa de Varzim/Vila do Conde, E.P.E. (CHPVVC, EPE), de acordo com o Anexo III e Especificações Técnicas do Caderno de Encargos, durante o ano de 2014",Concurso público,Aquisição de bens móveis,"33183200-8, Próteses ortopédicas","Centro Hospitalar Póvoa de Varzim - Vila do Conde, E. P. E. (508741823)","BIOMET PORTUGAL UNIPESSOAL,LDA (500254990)","18.238,00 €",05-06-2014,30-04-2014,245 dias,"Portugal, Porto, Póvoa de Varzim","Artigo 20.º, n.º 1, alínea b) do Código dos Contratos Públicos",,,,,,Não aplicável.,Não aplicável.,FALSE
"Aquisição de Sistemas de Próteses do Joelho para o Centro Hospitalar Póvoa de Varzim/Vila do Conde, E.P.E. (CHPVVC, EPE), de acordo com o Anexo III e Especificações Técnicas do Caderno de Encargos, durante o ano de 2014",Concurso público,Aquisição de bens móveis,"33183200-8, Próteses ortopédicas","Centro Hospitalar Póvoa de Varzim - Vila do Conde, E. P. E. (508741823)","BIOMET PORTUGAL UNIPESSOAL,LDA (500254990)","15.394,00 €",05-06-2014,30-04-2014,245 dias,"Portugal, Porto, Póvoa de Varzim","Artigo 20.º, n.º 1, alínea b) do Código dos Contratos Públicos",,,,,,Não aplicável.,Não aplicável.,FALSE
"Aquisição de Sistemas de Próteses do Joelho para o Centro Hospitalar Póvoa de Varzim/Vila do Conde, E.P.E. (CHPVVC, EPE), de acordo com o Anexo III e Especificações Técnicas do Caderno de Encargos, durante o ano de 2014",Concurso público,Aquisição de bens móveis,"33183200-8, Próteses ortopédicas","Centro Hospitalar Póvoa de Varzim - Vila do Conde, E. P. E. (508741823)","LIMA IMPLANTES PORTUGAL,S.U. LDA (508634784)","20.750,00 €",05-06-2014,30-04-2014,245 dias,"Portugal, Porto, Póvoa de Varzim","Artigo 20.º, n.º 1, alínea b) do Código dos Contratos Públicos",,,,,,Não aplicável.,Não aplicável.,FALSE
"Aquisição de Sistemas de Próteses do Joelho para o Centro Hospitalar Póvoa de Varzim/Vila do Conde, E.P.E. (CHPVVC, EPE), de acordo com o Anexo III e Especificações Técnicas do Caderno de Encargos, durante o ano de 2014",Concurso público,Aquisição de bens móveis,"33183200-8, Próteses ortopédicas","Centro Hospitalar Póvoa de Varzim - Vila do Conde, E. P. E. (508741823)","BIOMET PORTUGAL UNIPESSOAL,LDA (500254990)","123.035,00 €",05-06-2014,30-04-2014,245 dias,"Portugal, Porto, Póvoa de Varzim","Artigo 20.º, n.º 1, alínea b) do Código dos Contratos Públicos",,,,,,Não aplicável.,Não aplicável.,FALSE
"Aquisição de Sistemas de Próteses do Joelho para o Centro Hospitalar Póvoa de Varzim/Vila do Conde, E.P.E. (CHPVVC, EPE), de acordo com o Anexo III e Especificações Técnicas do Caderno de Encargos, durante o ano de 2014",Concurso público,Aquisição de bens móveis,"33183200-8, Próteses ortopédicas","Centro Hospitalar Póvoa de Varzim - Vila do Conde, E. P. E. (508741823)","SMITH & NEPHEW, LDA (503552461)","17.999,50 €",05-06-2014,30-04-2014,245 dias,"Portugal, Porto, Póvoa de Varzim<BR/>Portugal","Artigo 20.º, n.º 1, alínea b) do Código dos Contratos Públicos",,,,,,Não aplicável.,Não aplicável.,FALSE
