Objeto do Contrato,Tipo de Procedimento,Tipo(s) de Contrato,CPVs,Entidade(s) Adjudicante(s),Entidade(s) Adjudicatária(s),Preço Contratual,Data de Publicação,Data de Celebração do Contrato,Prazo de Execução,Local de Execução,Fundamentação,Data de Fecho do Contrato,Preço Total Efetivo,Causas das Alterações ao Prazo,Causas das Alterações ao Preço,Estado,N.º registo do Acordo Quadro,Descrição do Acordo Quadro,Procedimento Centralizado
Contrato de aquisição de Hidropolimeros Finos p/ Transparência de exsudado penso 15x20 cm,Ajuste Direto Regime Geral,Aquisição de bens móveis,"33000000-0, Equipamento médico, medicamentos e produtos para cuidados pessoais","Centro Hospitalar Lisboa Norte, EPE (508481287)","Molnlycke Health Care, Lda. (511101066)","6.120,00 €",27-03-2013,26-03-2013,1 dias,"Portugal, Lisboa, Lisboa","Artigo 24.º, n.º 1, alínea e) do Código dos Contratos Públicos",,,,,,Não aplicável.,Não aplicável.,
Aquisição de stemt e microcateter,Ajuste Direto Regime Geral,Aquisição de bens móveis,"33000000-0, Equipamento médico, medicamentos e produtos para cuidados pessoais","Centro Hospitalar Lisboa Norte, EPE (508481287)","Biomédica, Lda. (501745459)","10.950,00 €",27-03-2013,27-03-2013,1 dias,"Portugal, Lisboa, Lisboa","Artigo 20.º, n.º 1, alínea a) do Código dos Contratos Públicos",,,,,,Não aplicável.,Não aplicável.,
Aquisição de Carboplatina Sol. Inj. 450 Mg. Onco. Frs.,Ajuste Direto Regime Geral,Aquisição de bens móveis,"33652000-5, Antineoplásicos e imunomoduladores","Centro Hospitalar Lisboa Norte, EPE (508481287)","Hospira Portugal, Lda, (502918098)","5.280,00 €",26-03-2013,26-03-2013,1 dias,"Portugal, Lisboa, Lisboa","Artigo 24.º, n.º 1, alínea e) do Código dos Contratos Públicos",,,,,,Não aplicável.,Não aplicável.,
Aquisição de CDI BIV (CRT-D),Ajuste Direto Regime Geral,Aquisição de bens móveis,"33182100-0, Desfibrilhador","Centro Hospitalar Lisboa Norte, EPE (508481287)","Sorincardio, Lda. (505514010)","18.250,00 €",26-03-2013,26-03-2013,1 dias,"Portugal, Lisboa, Lisboa","Artigo 20.º, n.º 1, alínea a) do Código dos Contratos Públicos",,,,,,Não aplicável.,Não aplicável.,
Aquisição de Darbepoetina Alfa Inj. 80 Mcg,Ajuste Direto Regime Geral,Aquisição de bens móveis,"33621300-2, Antianémicos","Centro Hospitalar Lisboa Norte, EPE (508481287)","Amgen, Lda. (502942959)","23.500,80 €",26-03-2013,18-03-2013,1 dias,"Portugal, Lisboa, Lisboa","Artigo 24.º, n.º 1, alínea e) do Código dos Contratos Públicos",,,,,,Não aplicável.,Não aplicável.,
Aquisição de CDI BIV (CRT-D),Ajuste Direto Regime Geral,Aquisição de bens móveis,"33182100-0, Desfibrilhador","Centro Hospitalar Lisboa Norte, EPE (508481287)","Medtronic Portugal, Lda. (504223933)","15.657,00 €",26-03-2013,26-03-2013,1 dias,"Portugal, Lisboa, Lisboa","Artigo 20.º, n.º 1, alínea a) do Código dos Contratos Públicos",,,,,,Não aplicável.,Não aplicável.,
Aquisição de Consumíveis de Cardiologia,Ajuste Direto Regime Geral,Aquisição de bens móveis,"33141200-2, Cateteres","Centro Hospitalar Lisboa Norte, EPE (508481287)",BOSTON SCIENTIFIC PORTUGAL LDA                     (504988964),"10.076,00 €",26-03-2013,26-03-2013,1 dias,"Portugal, Lisboa, Lisboa","Artigo 20.º, n.º 1, alínea a) do Código dos Contratos Públicos",,,,,,Não aplicável.,Não aplicável.,
Aquisição de Vancomicina Conj. Det.,Ajuste Direto Regime Geral,Aquisição de bens móveis,"33696500-0, Reagentes de laboratório","Centro Hospitalar Lisboa Norte, EPE (508481287)","Siemens, Lda. (507925173)","6.048,00 €",26-03-2013,26-03-2013,5 dias,"Portugal, Lisboa, Lisboa","Artigo 24.º, n.º 1, alínea e) do Código dos Contratos Públicos",,,,,,Não aplicável.,Não aplicável.,
Aquisição de Agulhas para Amniocintese e Vilosidade Coriónica,Ajuste Direto Regime Geral,Aquisição de bens móveis,"33141329-2, Agulhas de amniocentese","Centro Hospitalar Lisboa Norte, EPE (508481287)","Biomédica, Lda. (501745459)","3.000,00 €",26-03-2013,26-03-2013,1 dias,"Portugal, Lisboa, Lisboa","Artigo 20.º, n.º 1, alínea a) do Código dos Contratos Públicos",,,,,,Não aplicável.,Não aplicável.,
Aquisição de implante auditivo coclear,Ajuste Direto Regime Geral,Aquisição de bens móveis,"33185200-2, Implante coclear","Centro Hospitalar Lisboa Norte, EPE (508481287)","Widex, Lda. (501882766)","8.430,00 €",26-03-2013,26-03-2013,3 dias,"Portugal, Lisboa, Lisboa","Artigo 20.º, n.º 1, alínea a) do Código dos Contratos Públicos",,,,,,Não aplicável.,Não aplicável.,
Aquisição de Implante Auditivo Coclear,Ajuste Direto Regime Geral,Aquisição de bens móveis,"33185200-2, Implante coclear","Centro Hospitalar Lisboa Norte, EPE (508481287)","Widex, Lda. (501882766)","8.430,00 €",26-03-2013,26-03-2013,3 dias,"Portugal, Lisboa, Lisboa","Artigo 20.º, n.º 1, alínea a) do Código dos Contratos Públicos",,,,,,Não aplicável.,Não aplicável.,
Aquisição de Neuroestimulador Vagal e Electrodo Bipolar,Ajuste Direto Regime Geral,Aquisição de bens móveis,"33184200-5, Próteses vasculares","Centro Hospitalar Lisboa Norte, EPE (508481287)","Socime Medical, Lda. (504453939)","11.499,00 €",26-03-2013,26-03-2013,5 dias,"Portugal, Lisboa, Lisboa","Artigo 20.º, n.º 1, alínea a) do Código dos Contratos Públicos",,,,,,Não aplicável.,Não aplicável.,
Aquisição de Tempo Protrombina Tiras-Teste 48 Tiras,Ajuste Direto Regime Geral,Aquisição de bens móveis,"33696500-0, Reagentes de laboratório","Centro Hospitalar Lisboa Norte, EPE (508481287)","Roche, Lda. (504282921)","14.280,00 €",26-03-2013,21-03-2013,1 dias,"Portugal, Lisboa, Lisboa","Artigo 24.º, n.º 1, alínea e) do Código dos Contratos Públicos",,,,,,Não aplicável.,Não aplicável.,
"Aquisição de Droperidol 2,5 Mg/1 Ml Inj.",Ajuste Direto Regime Geral,Aquisição de bens móveis,"33690000-3, Medicamentos vários","Centro Hospitalar Lisboa Norte, EPE (508481287)","Laboratórios Vitória, S.A. (500162220)","8.000,00 €",26-03-2013,26-03-2013,5 dias,"Portugal, Lisboa, Lisboa","Artigo 24.º, n.º 1, alínea e) do Código dos Contratos Públicos",,,,,,Não aplicável.,Não aplicável.,
Aquisição de diverso material para ORL,Ajuste Direto Regime Geral,Aquisição de bens móveis,"33698000-9, Produtos para fins clínicos","Centro Hospitalar Lisboa Norte, EPE (508481287)","Widex, Lda. (501882766)","8.896,48 €",26-03-2013,26-03-2013,2 dias,"Portugal, Lisboa, Lisboa","Artigo 20.º, n.º 1, alínea a) do Código dos Contratos Públicos",,,,,,Não aplicável.,Não aplicável.,
Aquisição de Cardioversor,Ajuste Direto Regime Geral,Aquisição de bens móveis,"33182100-0, Desfibrilhador","Centro Hospitalar Lisboa Norte, EPE (508481287)","Medtronic Portugal, Lda. (504223933)","18.257,00 €",26-03-2013,26-03-2013,1 dias,"Portugal, Lisboa, Lisboa","Artigo 20.º, n.º 1, alínea a) do Código dos Contratos Públicos",,,,,,Não aplicável.,Não aplicável.,
Aquisição de Cardioversor,Ajuste Direto Regime Geral,Aquisição de bens móveis,"33182100-0, Desfibrilhador","Centro Hospitalar Lisboa Norte, EPE (508481287)","Medtronic Portugal, Lda. (504223933)","11.500,00 €",26-03-2013,26-03-2013,1 dias,"Portugal, Lisboa, Lisboa","Artigo 20.º, n.º 1, alínea a) do Código dos Contratos Públicos",,,,,,Não aplicável.,Não aplicável.,
Aquisição de materiais para manutenção de equipamentos,Ajuste Direto Regime Geral,Aquisição de bens móveis,"33140000-3, Material médico de consumo","Centro Hospitalar Lisboa Norte, EPE (508481287)","Space Medical, Lda. (507662407)","6.789,50 €",26-03-2013,26-03-2013,5 dias,"Portugal, Lisboa, Lisboa","Artigo 24.º, n.º 1, alínea e) do Código dos Contratos Públicos",,,,,,Não aplicável.,Não aplicável.,
Aquisição de CDI e electrodos,Ajuste Direto Regime Geral,Aquisição de bens móveis,"33182100-0, Desfibrilhador","Centro Hospitalar Lisboa Norte, EPE (508481287)","Sorincardio, Lda. (505514010)","13.500,00 €",26-03-2013,26-03-2013,1 dias,"Portugal, Lisboa, Lisboa","Artigo 20.º, n.º 1, alínea a) do Código dos Contratos Públicos",,,,,,Não aplicável.,Não aplicável.,
Aquisição de Endoprótese Aórtica,Ajuste Direto Regime Geral,Aquisição de bens móveis,"33184500-8, Endopróteses coronárias","Centro Hospitalar Lisboa Norte, EPE (508481287)","Medtronic Portugal, Lda. (504223933)","9.500,00 €",26-03-2013,26-03-2013,1 dias,"Portugal, Lisboa, Lisboa","Artigo 20.º, n.º 1, alínea a) do Código dos Contratos Públicos",,,,,,Não aplicável.,Não aplicável.,
Aquisição de oxido nitrico,Ajuste Direto Regime Geral,Aquisição de bens móveis,"24111500-0, Gases médicos","Centro Hospitalar Lisboa Norte, EPE (508481287)","Airliquide Medicinal, S.A. (501576436)","8.430,00 €",25-03-2013,25-03-2013,1 dias,"Portugal, Lisboa, Lisboa","Artigo 24.º, n.º 1, alínea e) do Código dos Contratos Públicos",,,,,,Não aplicável.,Não aplicável.,
Aquisição de Consumíveis de Cardiologia,Ajuste Direto Regime Geral,Aquisição de bens móveis,"33141200-2, Cateteres","Centro Hospitalar Lisboa Norte, EPE (508481287)",Terumo Europe Espanã S.L. (980472024),"47.495,00 €",25-03-2013,25-03-2013,1 dias,"Portugal, Lisboa, Lisboa","Artigo 20.º, n.º 1, alínea a) do Código dos Contratos Públicos",,,,,,Não aplicável.,Não aplicável.,
Aquisição de consumíveis de hemodinâmica,Ajuste Direto Regime Geral,Aquisição de bens móveis,"33141200-2, Cateteres","Centro Hospitalar Lisboa Norte, EPE (508481287)","Abbott Laboratórios, Lda. (500006148)","24.970,00 €",25-03-2013,25-03-2013,1 dias,"Portugal, Lisboa, Lisboa","Artigo 20.º, n.º 1, alínea a) do Código dos Contratos Públicos",,,,,,Não aplicável.,Não aplicável.,
Aquisição de Pack Total Plus,Ajuste Direto Regime Geral,Aquisição de bens móveis,"33141620-2, Kits médicos","Centro Hospitalar Lisboa Norte, EPE (508481287)","Alcon Portugal, Lda. (501251685)","13.680,00 €",25-03-2013,25-03-2013,1 dias,"Portugal, Lisboa, Lisboa","Artigo 20.º, n.º 1, alínea a) do Código dos Contratos Públicos",,,,,,Não aplicável.,Não aplicável.,
Aquisição de AC Monoclonal Anti CD3/CD4/CD8/CD45 50 T,Ajuste Direto Regime Geral,Aquisição de bens móveis,"33696500-0, Reagentes de laboratório","Centro Hospitalar Lisboa Norte, EPE (508481287)","Beckman Coulter, Lda. (509035167)","46.150,00 €",22-03-2013,22-03-2013,1 dias,"Portugal, Lisboa, Lisboa","Artigo 24.º, n.º 1, alínea e) do Código dos Contratos Públicos",,,,,,Não aplicável.,Não aplicável.,
Aquisição de Factor VIII recombinante 2000 UI,Ajuste Direto Regime Geral,Aquisição de bens móveis,"33621200-1, Anti-hemorrágicos","Centro Hospitalar Lisboa Norte, EPE (508481287)","Baxter, Lda. (503347345)","120.420,00 €",22-03-2013,18-03-2013,1 dias,"Portugal, Lisboa, Lisboa","Artigo 24.º, n.º 1, alínea e) do Código dos Contratos Públicos",,,,,,Não aplicável.,Não aplicável.,
Aquisição de Polielectrlitico Sol. p/ Hemofil/Hemodi,Ajuste Direto Regime Geral,Aquisição de bens móveis,"33692800-5, Soluções para diálise","Centro Hospitalar Lisboa Norte, EPE (508481287)",Gambro Lundia AB (980367751),"13.680,00 €",22-03-2013,01-03-2013,1 dias,"Portugal, Lisboa, Lisboa","Artigo 24.º, n.º 1, alínea e) do Código dos Contratos Públicos",,,,,,Não aplicável.,Não aplicável.,
Aquisição de Vinorelbina Caps. 30 mg.,Ajuste Direto Regime Geral,Aquisição de bens móveis,"33652000-5, Antineoplásicos e imunomoduladores","Centro Hospitalar Lisboa Norte, EPE (508481287)","Pierre Fabre, Lda. (500230366)","22.750,00 €",22-03-2013,19-03-2013,1 dias,"Portugal, Lisboa, Lisboa","Artigo 24.º, n.º 1, alínea e) do Código dos Contratos Públicos",,,,,,Não aplicável.,Não aplicável.,
Aquisição de Cola Fibrina 4 Ml e 10 Ml,Ajuste Direto Regime Geral,Aquisição de bens móveis,"33141530-4, Coagulantes sanguíneos","Centro Hospitalar Lisboa Norte, EPE (508481287)","Baxter, Lda. (503347345)","45.825,00 €",22-03-2013,14-03-2013,1 dias,"Portugal, Lisboa, Lisboa","Artigo 24.º, n.º 1, alínea e) do Código dos Contratos Públicos",,,,,,Não aplicável.,Não aplicável.,
Aquisição de Darbepoetina Alfa Inj. 40 Mcg,Ajuste Direto Regime Geral,Aquisição de bens móveis,"33621300-2, Antianémicos","Centro Hospitalar Lisboa Norte, EPE (508481287)","Amgen, Lda. (502942959)","25.459,20 €",22-03-2013,22-03-2013,1 dias,"Portugal, Lisboa, Lisboa","Artigo 24.º, n.º 1, alínea e) do Código dos Contratos Públicos",,,,,,Não aplicável.,Não aplicável.,
Aquisição de Protoxido Azoto Liquido Medicinal,Ajuste Direto Regime Geral,Aquisição de bens móveis,"24111500-0, Gases médicos","Centro Hospitalar Lisboa Norte, EPE (508481287)","Gasin II, Lda. (510183751)","15.036,00 €",22-03-2013,22-03-2013,1 dias,"Portugal, Lisboa, Lisboa","Artigo 24.º, n.º 1, alínea e) do Código dos Contratos Públicos",,,,,,Não aplicável.,Não aplicável.,
Aquisição de Efavirenze 600 Mg + Entricitabina 200 Mg.,Ajuste Direto Regime Geral,Aquisição de bens móveis,"33651400-2, Antivíricos de uso sistémico","Centro Hospitalar Lisboa Norte, EPE (508481287)","Gielead Sciences, Lda. (503604704)","349.532,27 €",22-03-2013,22-03-2013,2 dias,"Portugal, Lisboa, Lisboa","Artigo 24.º, n.º 1, alínea e) do Código dos Contratos Públicos",,,,,,Não aplicável.,Não aplicável.,
Aquisição de  Factor VIII Recombinante S/ Albumina 500,Ajuste Direto Regime Geral,Aquisição de bens móveis,"33621200-1, Anti-hemorrágicos","Centro Hospitalar Lisboa Norte, EPE (508481287)","Laboratórios Pfizer, Lda. (500162166)","10.349,70 €",22-03-2013,22-03-2013,1 dias,"Portugal, Lisboa, Lisboa","Artigo 20.º, n.º 1, alínea a) do Código dos Contratos Públicos",,,,,,Não aplicável.,Não aplicável.,
"Aquisição de Rasburicase Inj. 1,5 Mg/Ml Amp. 5 Ml.",Ajuste Direto Regime Geral,Aquisição de bens móveis,"33690000-3, Medicamentos vários","Centro Hospitalar Lisboa Norte, EPE (508481287)","Sanofi, Lda. (500134960)","18.000,00 €",22-03-2013,22-03-2013,1 dias,"Portugal, Lisboa, Lisboa","Artigo 24.º, n.º 1, alínea e) do Código dos Contratos Públicos",,,,,,Não aplicável.,Não aplicável.,
Aquisição de Desferrasirox Comp. Disp. 250 Mg.,Ajuste Direto Regime Geral,Aquisição de bens móveis,"33690000-3, Medicamentos vários","Centro Hospitalar Lisboa Norte, EPE (508481287)","Novartis Farma, S.A. (500063524)","5.992,76 €",22-03-2013,22-03-2013,1 dias,"Portugal, Lisboa, Lisboa","Artigo 24.º, n.º 1, alínea e) do Código dos Contratos Públicos",,,,,,Não aplicável.,Não aplicável.,
Aquisição de Gem. Premier 3000 Cassete 600 T,Ajuste Direto Regime Geral,Aquisição de bens móveis,"33696500-0, Reagentes de laboratório","Centro Hospitalar Lisboa Norte, EPE (508481287)","Medicinália - Cormédica, Lda. (500684324)","19.750,00 €",22-03-2013,20-03-2013,1 dias,"Portugal, Lisboa, Lisboa","Artigo 24.º, n.º 1, alínea e) do Código dos Contratos Públicos",,,,,,Não aplicável.,Não aplicável.,
Substituição da fonte de Iridio do Serviço de Radioterapia,Ajuste Direto Regime Geral,Aquisição de serviços,"50000000-5, Serviços de reparação e manutenção","Centro Hospitalar Lisboa Norte, EPE (508481287)","Elekta Medical, S.A. (A818867631)","25.911,31 €",22-03-2013,22-03-2013,1 dias,"Portugal, Lisboa, Lisboa","Artigo 20.º, n.º 1, alínea a) do Código dos Contratos Públicos",,,,,,Não aplicável.,Não aplicável.,
Aquisição de Sugamadex Sol. Inj. 100 Mg/Ml Fr. 2 Ml,Ajuste Direto Regime Geral,Aquisição de bens móveis,"33690000-3, Medicamentos vários","Centro Hospitalar Lisboa Norte, EPE (508481287)","Merck Sharp & Dohme, Lda. (500191360)","41.234,00 €",21-03-2013,21-03-2013,1 dias,"Portugal, Lisboa, Lisboa","Artigo 24.º, n.º 1, alínea e) do Código dos Contratos Públicos",,,,,,Não aplicável.,Não aplicável.,
"Aquisição de Somatropina Sol. Inj. 15 Mg/1,5 Ml.",Ajuste Direto Regime Geral,Aquisição de bens móveis,"33642100-3, Hormonas hipofisárias, hipotalâmicas e semelhantes","Centro Hospitalar Lisboa Norte, EPE (508481287)","NovoNordisk, Lda. (501485210)","9.168,96 €",21-03-2013,21-03-2013,1 dias,"Portugal, Lisboa, Lisboa","Artigo 24.º, n.º 1, alínea e) do Código dos Contratos Públicos",,,,,,Não aplicável.,Não aplicável.,
Aquisição de Stents nitinol,Ajuste Direto Regime Geral,Aquisição de bens móveis,"33184200-5, Próteses vasculares","Centro Hospitalar Lisboa Norte, EPE (508481287)","Biomédica, Lda. (501745459)","19.000,00 €",21-03-2013,21-03-2013,1 dias,"Portugal, Lisboa, Lisboa","Artigo 20.º, n.º 1, alínea a) do Código dos Contratos Públicos",,,,,,Não aplicável.,Não aplicável.,
Aquisição de Stents e Balões,Ajuste Direto Regime Geral,Aquisição de bens móveis,"33184200-5, Próteses vasculares","Centro Hospitalar Lisboa Norte, EPE (508481287)","Setfarma, Lda. (506003221)","18.040,00 €",21-03-2013,21-03-2013,1 dias,"Portugal, Lisboa, Lisboa","Artigo 20.º, n.º 1, alínea a) do Código dos Contratos Públicos",,,,,,Não aplicável.,Não aplicável.,
Aquisição de CDI VR + Electro desfibrilhação,Ajuste Direto Regime Geral,Aquisição de bens móveis,"33182100-0, Desfibrilhador","Centro Hospitalar Lisboa Norte, EPE (508481287)","Farmimpex, S.A. (503061506)","11.500,00 €",21-03-2013,21-03-2013,1 dias,"Portugal, Lisboa, Lisboa","Artigo 20.º, n.º 1, alínea a) do Código dos Contratos Públicos",,,,,,Não aplicável.,Não aplicável.,
Aquisição de Sistema CDI BIV,Ajuste Direto Regime Geral,Aquisição de bens móveis,"33182100-0, Desfibrilhador","Centro Hospitalar Lisboa Norte, EPE (508481287)","Sorincardio, Lda. (505514010)","18.250,00 €",21-03-2013,21-03-2013,1 dias,"Portugal, Lisboa, Lisboa","Artigo 20.º, n.º 1, alínea a) do Código dos Contratos Públicos",,,,,,Não aplicável.,Não aplicável.,
