Objeto do Contrato,Tipo de Procedimento,Tipo(s) de Contrato,CPVs,Entidade(s) Adjudicante(s),Entidade(s) Adjudicatária(s),Preço Contratual,Data de Publicação,Data de Celebração do Contrato,Prazo de Execução,Local de Execução,Fundamentação,Data de Fecho do Contrato,Preço Total Efetivo,Causas das Alterações ao Prazo,Causas das Alterações ao Preço,Estado,N.º registo do Acordo Quadro,Descrição do Acordo Quadro,Procedimento Centralizado
- Eritromicina 20 mg sol cut fr 100 ml,Ajuste Direto Regime Geral,Aquisição de bens móveis,"33000000-0, Equipamento médico, medicamentos e produtos para cuidados pessoais",Centro Hospitalar Psiquiátrico de Lisboa (508338476),Edol (507072642),"60,20 €",08-08-2014,29-10-2013,22 dias,"Portugal, Lisboa, Lisboa","Artigo 24.º, n.º 1, alínea e) do Código dos Contratos Públicos",29-10-2013,"60,20 €",,,,Não aplicável.,Não aplicável.,FALSE
Engenharia para Mês de Março 2014,Ajuste Direto Regime Geral,Aquisição de serviços,"71000000-8, Serviços de arquitectura, construção, engenharia e inspecção",Centro Hospitalar Psiquiátrico de Lisboa (508338476),"Paulo Baptista Manuel, Unipessoal LDa (509889620)","675,00 €",08-08-2014,07-03-2014,31 dias,"Portugal, Lisboa, Lisboa","Artigo 24.º, n.º 1, alínea c) do Código dos Contratos Públicos",23-04-2014,"675,00 €",,,,Não aplicável.,Não aplicável.,FALSE
Engenharia para Mês de Fevereiro 2014,Ajuste Direto Regime Geral,Aquisição de serviços,"71000000-8, Serviços de arquitectura, construção, engenharia e inspecção",Centro Hospitalar Psiquiátrico de Lisboa (508338476),"Paulo Baptista Manuel, Unipessoal,Lda (509889620)","675,00 €",08-08-2014,07-02-2014,28 dias,"Portugal, Lisboa, Lisboa","Artigo 24.º, n.º 1, alínea c) do Código dos Contratos Públicos",28-02-2014,"675,00 €",,,,Não aplicável.,Não aplicável.,FALSE
- Tiamina 100 mg sol inj amp,Ajuste Direto Regime Geral,Aquisição de bens móveis,"33000000-0, Equipamento médico, medicamentos e produtos para cuidados pessoais",Centro Hospitalar Psiquiátrico de Lisboa (508338476),Labesfal (501169580),"810,00 €",08-08-2014,20-08-2013,8 dias,"Portugal, Lisboa, Lisboa","Artigo 24.º, n.º 1, alínea e) do Código dos Contratos Públicos",20-08-2013,"810,00 €",,,,Não aplicável.,Não aplicável.,FALSE
"Serviços de Consultadoria na Área de Engenharia, para SIE(S) - Janeiro 2014",Ajuste Direto Regime Geral,Aquisição de serviços,"71000000-8, Serviços de arquitectura, construção, engenharia e inspecção",Centro Hospitalar Psiquiátrico de Lisboa (508338476),"Paulo Baptista Manuel,Unipessoal Lda (509889620)","675,00 €",08-08-2014,27-01-2014,31 dias,"Portugal, Lisboa, Lisboa","Artigo 24.º, n.º 1, alínea c) do Código dos Contratos Públicos",31-01-2014,"675,00 €",,,,Não aplicável.,Não aplicável.,FALSE
Aquisição de Serviços Médicos de Clinica Geral - Março 2014,Ajuste Direto Regime Geral,Aquisição de serviços,"85000000-9, Serviços de saúde e acção social",Centro Hospitalar Psiquiátrico de Lisboa (508338476),"Cruz Cunha Ramos, Unipessoal, Lda. (509777520)","1.472,09 €",08-08-2014,27-02-2014,31 dias,"Portugal, Lisboa, Lisboa","Artigo 24.º, n.º 1, alínea c) do Código dos Contratos Públicos",28-03-2014,"1.472,09 €",,,,Não aplicável.,Não aplicável.,FALSE
Aquisição de Serviços Médicos de Clinica Geral - Fevereiro 2014,Ajuste Direto Regime Geral,Aquisição de serviços,"85000000-9, Serviços de saúde e acção social",Centro Hospitalar Psiquiátrico de Lisboa (508338476),"Cruz Cunha Ramos, Unipessoal, Lda. (509777520)","1.472,09 €",08-08-2014,07-02-2014,28 dias,"Portugal, Lisboa, Lisboa","Artigo 24.º, n.º 1, alínea c) do Código dos Contratos Públicos",28-02-2014,"1.472,09 €",,,,Não aplicável.,Não aplicável.,FALSE
Aquisição de Serviços Médicos de Clinica Geral - Janeiro 2014,Ajuste Direto Regime Geral,Aquisição de serviços,"85000000-9, Serviços de saúde e acção social",Centro Hospitalar Psiquiátrico de Lisboa (508338476),"Cruz Cunha Ramos, Unipessoal, Lda. (509777520)","1.472,09 €",08-08-2014,31-01-2014,31 dias,"Portugal, Lisboa, Lisboa","Artigo 24.º, n.º 1, alínea c) do Código dos Contratos Públicos",31-01-2014,"1.472,09 €",,,,Não aplicável.,Não aplicável.,FALSE
Consultadoria Juridica (Maio a Dezembro 2014),Ajuste Direto Regime Geral,Aquisição de serviços,"79000000-4, Serviços a empresas: direito, comercialização, consultoria, recrutamento, impressão e segurança",Centro Hospitalar Psiquiátrico de Lisboa (508338476),José Santana Carlos (103423893),"12.862,48 €",08-08-2014,19-05-2014,243 dias,"Portugal, Lisboa, Lisboa","Artigo 24.º, n.º 1, alínea c) do Código dos Contratos Públicos",31-12-2014,"12.862,48 €",,,,Não aplicável.,Não aplicável.,FALSE
Consultadoria Juridica Mês Abril 2014,Ajuste Direto Regime Geral,Aquisição de serviços,"79000000-4, Serviços a empresas: direito, comercialização, consultoria, recrutamento, impressão e segurança",Centro Hospitalar Psiquiátrico de Lisboa (508338476),José Santana Carlos (103423893),"1.607,81 €",08-08-2014,03-04-2014,30 dias,"Portugal, Lisboa, Lisboa","Artigo 24.º, n.º 1, alínea c) do Código dos Contratos Públicos",30-04-2014,"1.607,81 €",,,,Não aplicável.,Não aplicável.,FALSE
Consultadoria Juridica para Mês de Março 2014,Ajuste Direto Regime Geral,Aquisição de serviços,"79000000-4, Serviços a empresas: direito, comercialização, consultoria, recrutamento, impressão e segurança",Centro Hospitalar Psiquiátrico de Lisboa (508338476),José Santana Carlos (103423893),"1.607,81 €",08-08-2014,27-02-2014,31 dias,"Portugal, Lisboa, Lisboa","Artigo 24.º, n.º 1, alínea c) do Código dos Contratos Públicos",31-03-2014,"1.607,81 €",,,,Não aplicável.,Não aplicável.,FALSE
Serviços de Consultadoria Juridica Mês de Fevereiro 2014,Ajuste Direto Regime Geral,Aquisição de serviços,"79000000-4, Serviços a empresas: direito, comercialização, consultoria, recrutamento, impressão e segurança",Centro Hospitalar Psiquiátrico de Lisboa (508338476),José Santana Carlos (103423893),"1.607,81 €",08-08-2014,07-02-2014,28 dias,"Portugal, Lisboa, Lisboa","Artigo 24.º, n.º 1, alínea c) do Código dos Contratos Públicos",28-02-2014,"1.607,81 €",,,,Não aplicável.,Não aplicável.,FALSE
Serviços de Consultadoria Juridica Mês de Janeiro 2014,Ajuste Direto Regime Geral,Aquisição de serviços,"79000000-4, Serviços a empresas: direito, comercialização, consultoria, recrutamento, impressão e segurança",Centro Hospitalar Psiquiátrico de Lisboa (508338476),José Santana Carlos (103423893),"1.607,81 €",08-08-2014,24-01-2014,31 dias,"Portugal, Lisboa, Lisboa","Artigo 24.º, n.º 1, alínea c) do Código dos Contratos Públicos",31-01-2014,"1.607,81 €",,,,Não aplicável.,Não aplicável.,FALSE
Produção de Teatro para mês de Julho 2014,Ajuste Direto Regime Geral,Aquisição de serviços,"92000000-1, Serviços recreativos, culturais e desportivos",Centro Hospitalar Psiquiátrico de Lisboa (508338476),Carlos Alberto Gomes (Arquitetos Associados) (502793597),"676,42 €",08-08-2014,14-07-2014,31 dias,"Portugal, Lisboa, Lisboa","Artigo 24.º, n.º 1, alínea c) do Código dos Contratos Públicos",31-07-2014,"676,42 €",,,,Não aplicável.,Não aplicável.,FALSE
Produção de Teatro para mês de Junho 2014,Ajuste Direto Regime Geral,Aquisição de serviços,"92000000-1, Serviços recreativos, culturais e desportivos",Centro Hospitalar Psiquiátrico de Lisboa (508338476),Carlos Alberto Gomes (arquitetos Associados) (502793597),"676,42 €",08-08-2014,16-06-2014,30 dias,"Portugal, Lisboa, Lisboa","Artigo 24.º, n.º 1, alínea c) do Código dos Contratos Públicos",26-06-2014,"676,42 €",,,,Não aplicável.,Não aplicável.,FALSE
Produção de Teatro para Maio 2014,Ajuste Direto Regime Geral,Aquisição de serviços,"92000000-1, Serviços recreativos, culturais e desportivos",Centro Hospitalar Psiquiátrico de Lisboa (508338476),Carlos Alberto Gomes (Arquitetos Associados) (502793597),"676,42 €",08-08-2014,15-05-2014,31 dias,"Portugal, Lisboa, Lisboa","Artigo 24.º, n.º 1, alínea c) do Código dos Contratos Públicos",28-05-2014,"676,42 €",,,,Não aplicável.,Não aplicável.,FALSE
Produção de Teatro para Abril 2014,Ajuste Direto Regime Geral,Aquisição de serviços,"85000000-9, Serviços de saúde e acção social",Centro Hospitalar Psiquiátrico de Lisboa (508338476),Carlos Alberto Gomes (Arquitetos Associados) (502793597),"676,42 €",08-08-2014,03-04-2014,30 dias,"Portugal, Lisboa, Lisboa","Artigo 24.º, n.º 1, alínea c) do Código dos Contratos Públicos",30-04-2014,"676,42 €",,,,Não aplicável.,Não aplicável.,FALSE
Produção de Teatro para Março 2014,Ajuste Direto Regime Geral,Aquisição de serviços,"92000000-1, Serviços recreativos, culturais e desportivos",Centro Hospitalar Psiquiátrico de Lisboa (508338476),Carlos Alberto Gomes (Arquitetos Associados) (502793597),"676,42 €",07-08-2014,27-02-2014,31 dias,"Portugal, Lisboa, Lisboa","Artigo 24.º, n.º 1, alínea c) do Código dos Contratos Públicos",01-04-2014,"676,42 €",,,,Não aplicável.,Não aplicável.,FALSE
"Aquisição de Serviços de Produção de Teatro, para o Grupo de Teatro Terapêutico - Fevereiro 2014",Ajuste Direto Regime Geral,Aquisição de serviços,"92000000-1, Serviços recreativos, culturais e desportivos",Centro Hospitalar Psiquiátrico de Lisboa (508338476),Carlos Alberto Gomes (Arquitetos Associados) (502793597),"676,42 €",07-08-2014,17-02-2014,28 dias,"Portugal, Lisboa, Lisboa","Artigo 24.º, n.º 1, alínea c) do Código dos Contratos Públicos",28-02-2014,"676,42 €",,,,Não aplicável.,Não aplicável.,FALSE
"Aquisição de Serviços de Produção de Teatro, para o Grupo de Teatro Terapêutico - Janeiro 2014",Ajuste Direto Regime Geral,Aquisição de serviços,"92000000-1, Serviços recreativos, culturais e desportivos",Centro Hospitalar Psiquiátrico de Lisboa (508338476),"Aquisição de Serviços de Produção de Teatro, para o Grupo de Teatro Terapêutico - Janeiro 2014 (502793597)","676,42 €",07-08-2014,17-02-2014,31 dias,"Portugal, Lisboa, Lisboa","Artigo 24.º, n.º 1, alínea c) do Código dos Contratos Públicos",27-02-2014,"676,42 €",,,,Não aplicável.,Não aplicável.,FALSE
Aquisição de Serviços para Coordenação da Gestão de Manutenção dos espaços verdes Abril a Dez. 2014,Ajuste Direto Regime Geral,Aquisição de serviços,"71000000-8, Serviços de arquitectura, construção, engenharia e inspecção",Centro Hospitalar Psiquiátrico de Lisboa (508338476),"Regina Monteiro Batista, Unipessoal Lda. (509682570)","8.560,80 €",07-08-2014,03-04-2014,273 dias,"Portugal, Lisboa, Lisboa","Artigo 24.º, n.º 1, alínea c) do Código dos Contratos Públicos",31-12-2014,"8.560,80 €",,,,Não aplicável.,Não aplicável.,FALSE
Serviços de Arquitetura paisagista - Março 2014,Ajuste Direto Regime Geral,Aquisição de serviços,"71000000-8, Serviços de arquitectura, construção, engenharia e inspecção",Centro Hospitalar Psiquiátrico de Lisboa (508338476),"REGINA MONTEIRO BAPTISTA, UNIPESSOAL LDA. (509682570)","951,20 €",07-08-2014,27-02-2014,31 dias,"Portugal, Lisboa, Lisboa","Artigo 24.º, n.º 1, alínea c) do Código dos Contratos Públicos",31-03-2014,"951,20 €",,,,Não aplicável.,Não aplicável.,FALSE
Serviços de Arquiteta Paisagista para mês de Fevereiro 2014,Ajuste Direto Regime Geral,Aquisição de serviços,"71000000-8, Serviços de arquitectura, construção, engenharia e inspecção",Centro Hospitalar Psiquiátrico de Lisboa (508338476),"REGINA MONTEIRO BATISTA, UNIPESSOAL LDA. (509682570)","951,20 €",07-08-2014,07-02-2014,28 dias,"Portugal, Lisboa, Lisboa","Artigo 24.º, n.º 1, alínea c) do Código dos Contratos Públicos",28-02-2014,"951,20 €",,,,Não aplicável.,Não aplicável.,FALSE
Serviços de Arquiteta Paisagista para Mês Janeiro 2014,Ajuste Direto Regime Geral,Aquisição de serviços,"71000000-8, Serviços de arquitectura, construção, engenharia e inspecção",Centro Hospitalar Psiquiátrico de Lisboa (508338476),"REGINA MONTEIRO BAPTISTA, UNIPESSOAL LDA. (509682570)","951,20 €",07-08-2014,24-01-2014,31 dias,"Portugal, Lisboa, Lisboa","Artigo 24.º, n.º 1, alínea c) do Código dos Contratos Públicos",31-01-2014,"951,20 €",,,,Não aplicável.,Não aplicável.,FALSE
Serviços de Psiquiatria para o mês de Junho 2014,Ajuste Direto Regime Geral,Aquisição de serviços,"85000000-9, Serviços de saúde e acção social",Centro Hospitalar Psiquiátrico de Lisboa (508338476),"Omnipsi, Unipessoal Lda. (509523188)","640,00 €",07-08-2014,21-07-2014,31 dias,"Portugal, Lisboa, Lisboa","Artigo 24.º, n.º 1, alínea c) do Código dos Contratos Públicos",31-07-2014,"640,00 €",,,,Não aplicável.,Não aplicável.,FALSE
Serviços de Psiquiatria para Mês de Maio 2014,Ajuste Direto Regime Geral,Aquisição de serviços,"85000000-9, Serviços de saúde e acção social",Centro Hospitalar Psiquiátrico de Lisboa (508338476),"OMNIPSI, Unipessoal, Lda. (509523188)","400,00 €",07-08-2014,19-06-2014,31 dias,"Portugal, Lisboa, Lisboa","Artigo 24.º, n.º 1, alínea c) do Código dos Contratos Públicos",19-06-2014,"400,00 €",,,,Não aplicável.,Não aplicável.,FALSE
Aquisição de Serviços Médicos de Psiquiatria - Abril 2014,Ajuste Direto Regime Geral,Aquisição de serviços,"85000000-9, Serviços de saúde e acção social",Centro Hospitalar Psiquiátrico de Lisboa (508338476),"OMNIPSI, Unipessoal LDa. (509523188)","640,00 €",07-08-2014,09-06-2014,30 dias,"Portugal, Lisboa, Lisboa","Artigo 24.º, n.º 1, alínea c) do Código dos Contratos Públicos",30-04-2014,"640,00 €",,,,Não aplicável.,Não aplicável.,FALSE
Aquisição de Serviços Médicos de Psiquiatria - Março 2014,Ajuste Direto Regime Geral,Aquisição de serviços,"85000000-9, Serviços de saúde e acção social",Centro Hospitalar Psiquiátrico de Lisboa (508338476),"OMNIPSI, Unipessoal Lda. (509523188)","880,00 €",07-08-2014,03-03-2014,31 dias,"Portugal, Lisboa, Lisboa","Artigo 24.º, n.º 1, alínea c) do Código dos Contratos Públicos",31-03-2014,"880,00 €",,,,Não aplicável.,Não aplicável.,FALSE
Aquisição de Serviços Médicos de Psiquiatria Fevereiro 2014,Ajuste Direto Regime Geral,Aquisição de serviços,"85000000-9, Serviços de saúde e acção social",Centro Hospitalar Psiquiátrico de Lisboa (508338476),"OMNIPSI - Unipessoal, Lda. (509523188)","400,00 €",06-08-2014,06-02-2014,28 dias,"Portugal, Lisboa, Lisboa","Artigo 24.º, n.º 1, alínea c) do Código dos Contratos Públicos",28-02-2014,"400,00 €",,,,Não aplicável.,Não aplicável.,FALSE
Aquisição de Serviços Médicos de Psiquiatria - Janeiro 2014,Ajuste Direto Regime Geral,Aquisição de serviços,"85000000-9, Serviços de saúde e acção social",Centro Hospitalar Psiquiátrico de Lisboa (508338476),"OMNIPSI, UNIPESSOAL, LDA (509523188)","480,00 €",05-08-2014,23-01-2014,31 dias,"Portugal, Lisboa, Lisboa","Artigo 24.º, n.º 1, alínea c) do Código dos Contratos Públicos",31-01-2014,"480,00 €",,,,Não aplicável.,Não aplicável.,FALSE
Instalação de 22 Pontos de Rede duplos no Pav. 11,Ajuste Direto Regime Geral,Aquisição de serviços,"51000000-9, Serviços de instalação (excepto software)",Centro Hospitalar Psiquiátrico de Lisboa (508338476),DEMOSI (508144396),"2.317,52 €",04-08-2014,29-05-2014,32 dias,"Portugal, Lisboa, Lisboa","Artigo 20.º, n.º 1, alínea a) do Código dos Contratos Públicos",14-07-2014,"2.317,52 €",,,,Não aplicável.,Não aplicável.,FALSE
