Objeto do Contrato,Tipo de Procedimento,Tipo(s) de Contrato,CPVs,Entidade(s) Adjudicante(s),Entidade(s) Adjudicatária(s),Preço Contratual,Data de Publicação,Data de Celebração do Contrato,Prazo de Execução,Local de Execução,Fundamentação,Data de Fecho do Contrato,Preço Total Efetivo,Causas das Alterações ao Prazo,Causas das Alterações ao Preço,Estado,N.º registo do Acordo Quadro,Descrição do Acordo Quadro,Procedimento Centralizado
PROCESSO 18250730,Ao abrigo de acordo-quadro (art.º 259.º),Aquisição de bens móveis,"33000000-0, Equipamento médico, medicamentos e produtos para cuidados pessoais","Administração Regional de Saúde do Centro, I. P. (503122165)",INDAS (503505196),"3.246,00 €",27-12-2018,09-10-2018,120 dias,"Portugal, Coimbra, Coimbra",Artigo 259.º do Código dos Contratos Públicos,19-12-2018,"3.246,00 €",,"",,2771026,"CP 2017/25 - Acordo Quadro para Fornecimento de Material de Incontinência, Proteção Cutânea e Alívio de Pressão às Instituições e Serviços do Serviço Nacional de Saúde",FALSE
Projeto para remodelação do Centro de Saúde de Tondela - ACES Dão Lafões,Consulta Prévia,Aquisição de serviços,"71221000-3, Serviços de arquitectura para edifícios","Administração Regional de Saúde do Centro, I. P. (503122165)","ORANGE – ARQUITECTURA E GESTÃO DE PROJECTO, LDA (506212980)","19.750,00 €",27-12-2018,05-12-2018,40 dias,"Portugal<BR/>Portugal, Coimbra, Coimbra","Artigo 20.º, n.º 1, alínea c) do Código dos Contratos Públicos",27-12-2018,"19.750,00 €",,"",,Não aplicável.,Não aplicável.,FALSE
Proc. 18900034 - Aquisição de serviços de migração para a nova versão da ferramenta SISQUAL,Ajuste Direto Regime Geral,Aquisição de serviços,"72260000-5, Serviços relacionados com software","Administração Regional de Saúde do Centro, I. P. (503122165)",Sisqual - Emp. de Inv. e Desemv de Sist. Inf. SA (502772298),"16.320,00 €",27-12-2018,06-04-2018,60 dias,"Portugal, Coimbra, Coimbra","Artigo 24.º, n.º 1, alínea e), subalínea ii) do Código dos Contratos Públicos",27-12-2018,"16.320,00 €",,"",,Não aplicável.,Não aplicável.,FALSE
Aquisição de Sensor RVG para integração com equipamento de RX existente no CS de Santa Clara e Aquisição de Equipamentos de RX e Sensores RVG para o CS de Cantanhede; CS de Pombal e CS da Covilhã,Consulta Prévia,Aquisição de bens móveis,"33000000-0, Equipamento médico, medicamentos e produtos para cuidados pessoais","Administração Regional de Saúde do Centro,IP(ARSC) (503122165)",APEX MATERIAL E EQ MEDICO LDA            (501681086),"16.700,00 €",27-12-2018,12-11-2018,45 dias,"Portugal, Coimbra, Coimbra","Artigo 20.º, n.º 1, alínea c) do Código dos Contratos Públicos",17-12-2018,"16.700,00 €",,Não aplicável,,Não aplicável.,Não aplicável.,FALSE
