Objeto do Contrato,Tipo de Procedimento,Tipo(s) de Contrato,CPVs,Entidade(s) Adjudicante(s),Entidade(s) Adjudicatária(s),Preço Contratual,Data de Publicação,Data de Celebração do Contrato,Prazo de Execução,Local de Execução,Fundamentação,Data de Fecho do Contrato,Preço Total Efetivo,Causas das Alterações ao Prazo,Causas das Alterações ao Preço,Estado,N.º registo do Acordo Quadro,Descrição do Acordo Quadro,Procedimento Centralizado
Aquisição de etanercept sol. inj. 50 mg,Ajuste Direto Regime Geral,Aquisição de bens móveis,"33600000-6, Produtos farmacêuticos","Centro Hospitalar Lisboa Norte, E. P. E. (508481287)","PFIZER BIOFARMACÊUTICA, SOCIEDADE UNIPESSOAL,LDA. (513300376)","51.335,70 €",11-04-2017,11-04-2017,1 dias,"Portugal, Lisboa, Lisboa","Artigo 24.º, n.º 1, alínea e) do Código dos Contratos Públicos",,,,,,Não aplicável.,Não aplicável.,FALSE
Aquisição de produtos de apoio,Ajuste Direto Regime Geral,Aquisição de serviços,"85000000-9, Serviços de saúde e acção social","Centro Hospitalar Lisboa Norte, E. P. E. (508481287)","GAES – Gabinete de Audiopróteses, Electromedicina e Serviços, Unipessoal, Lda (503134139)","240,00 €",11-04-2017,11-04-2017,5 dias,"Portugal, Lisboa, Lisboa","Artigo 20.º, n.º 1, alínea a) do Código dos Contratos Públicos",,,,,,Não aplicável.,Não aplicável.,FALSE
Aquisição de consumíveis p/ hemodiálise/dispositivos médicos p/ o ano de 2017,Concurso público,Aquisição de bens móveis,"33190000-8, Dispositivos e produtos médicos variados","Centro Hospitalar Lisboa Norte, E. P. E. (508481287)","Teleflex Medical, S.A. (980249783)","9.204,00 €",10-04-2017,10-04-2017,265 dias,"Portugal, Lisboa, Lisboa","Artigo 20.º, n.º 1, alínea b) do Código dos Contratos Públicos",,,,,,Não aplicável.,Não aplicável.,FALSE
Aquisição de diverso material para Imagiologia,Ajuste Direto Regime Geral,Aquisição de bens móveis,"33140000-3, Material médico de consumo","Centro Hospitalar Lisboa Norte, E. P. E. (508481287)",Biomédica (501745459),"15.150,00 €",10-04-2017,10-04-2017,1 dias,"Portugal, Lisboa, Lisboa","Artigo 20.º, n.º 1, alínea a) do Código dos Contratos Públicos",,,,,,Não aplicável.,Não aplicável.,FALSE
Aquisição de diversas placas para BOC HPV,Ajuste Direto Regime Geral,Aquisição de bens móveis,"33140000-3, Material médico de consumo","Centro Hospitalar Lisboa Norte, E. P. E. (508481287)",JOHNSON & JOHNSON PROD.PROF. (500153370),"7.854,00 €",10-04-2017,10-04-2017,1 dias,"Portugal, Lisboa, Lisboa","Artigo 20.º, n.º 1, alínea a) do Código dos Contratos Públicos",,,,,,Não aplicável.,Não aplicável.,FALSE
Aquisição de consumiveis de ortopedia,Ajuste Direto Regime Geral,Aquisição de bens móveis,"33140000-3, Material médico de consumo","Centro Hospitalar Lisboa Norte, E. P. E. (508481287)",JOHNSON & JOHNSON PROD.PROF. (500153370),"9.592,75 €",10-04-2017,10-04-2017,1 dias,"Portugal, Lisboa, Lisboa","Artigo 20.º, n.º 1, alínea a) do Código dos Contratos Públicos",,,,,,Não aplicável.,Não aplicável.,FALSE
Aquisição de consumiveis de ortopedia,Ajuste Direto Regime Geral,Aquisição de bens móveis,"33140000-3, Material médico de consumo","Centro Hospitalar Lisboa Norte, E. P. E. (508481287)",JOHNSON & JOHNSON PROD.PROF. (500153370),"6.193,00 €",10-04-2017,10-04-2017,1 dias,"Portugal, Lisboa, Lisboa","Artigo 20.º, n.º 1, alínea a) do Código dos Contratos Públicos",,,,,,Não aplicável.,Não aplicável.,FALSE
Aquisição de agulha para equipamento AMO,Ajuste Direto Regime Geral,Aquisição de bens móveis,"33140000-3, Material médico de consumo","Centro Hospitalar Lisboa Norte, E. P. E. (508481287)",Abbott Medical Optics (980262364),"6.410,40 €",10-04-2017,10-04-2017,1 dias,"Portugal, Lisboa, Lisboa","Artigo 20.º, n.º 1, alínea a) do Código dos Contratos Públicos",,,,,,Não aplicável.,Não aplicável.,FALSE
Empreitada para Execução da Obra de Trabalhos de Beneficiação  na entrada da Central de Colheitas e Farmácia de Ambulatório do HSM,Ajuste Direto Regime Geral,Empreitadas de obras públicas,"45453000-7, Obras de revisão e recuperação","CENTRO HOSPITALAR LISBOA NORTE, EPE (508481287)","CE Gonçalves, Lda. (508657520)","4.810,74 €",10-04-2017,10-04-2017,3 dias,"Portugal, Lisboa, Lisboa","Artigo 19.º, alínea a) do Código dos Contratos Públicos",,,,,,Não aplicável.,Não aplicável.,FALSE
"Aquisição de fios, molas e barras",Ajuste Direto Regime Geral,Aquisição de bens móveis,"33190000-8, Dispositivos e produtos médicos variados","Centro Hospitalar Lisboa Norte, E. P. E. (508481287)",Johnson & Johnson Medical (500153370),"7.053,12 €",07-04-2017,07-04-2017,1 dias,"Portugal, Lisboa, Lisboa","Artigo 20.º, n.º 1, alínea a) do Código dos Contratos Públicos",,,,,,Não aplicável.,Não aplicável.,FALSE
Aquisição de reagentes,Ajuste Direto Regime Geral,Aquisição de bens móveis,"33696000-5, Reagentes e meios de contraste","Centro Hospitalar Lisboa Norte, E. P. E. (508481287)","PROCLINICA - EQUIPAMENTOS E PRODUTOS CLINICOS, LDA. (500222665)","6.989,10 €",07-04-2017,07-04-2017,1 dias,"Portugal, Lisboa, Lisboa","Artigo 20.º, n.º 1, alínea a) do Código dos Contratos Públicos",,,,,,Não aplicável.,Não aplicável.,FALSE
Aquisição de protese do joelho,Ajuste Direto Regime Geral,Aquisição de bens móveis,"33184000-3, Próteses","Centro Hospitalar Lisboa Norte, E. P. E. (508481287)",Johnson & Johnson Medical (500153370),"9.005,76 €",06-04-2017,06-04-2017,1 dias,"Portugal, Lisboa, Lisboa","Artigo 20.º, n.º 1, alínea a) do Código dos Contratos Públicos",,,,,,Não aplicável.,Não aplicável.,FALSE
Fornecimento e montagem de Sinalética Central de Colheitas no novo espaço exterior,Ajuste Direto Regime Geral,Empreitadas de obras públicas,"45454000-4, Obras de reestruturação","CENTRO HOSPITALAR LISBOA NORTE, EPE (508481287)",Infortipo (502964472),"231,25 €",06-04-2017,06-04-2017,5 dias,"Portugal, Lisboa, Lisboa","Artigo 19.º, alínea a) do Código dos Contratos Públicos",,,,,,Não aplicável.,Não aplicável.,FALSE
Fornecimento e montagem de Sinalética Central de Colheitas no novo espaço exterior,Ajuste Direto Regime Geral,Empreitadas de obras públicas,"45454000-4, Obras de reestruturação","CENTRO HOSPITALAR LISBOA NORTE, EPE (508481287)",Infortipo (502964472),"110,00 €",06-04-2017,06-04-2017,5 dias,"Portugal, Lisboa, Lisboa","Artigo 19.º, alínea a) do Código dos Contratos Públicos",,,,,,Não aplicável.,Não aplicável.,FALSE
Aquisição de protese do joelho,Ajuste Direto Regime Geral,Aquisição de bens móveis,"33184000-3, Próteses","Centro Hospitalar Lisboa Norte, E. P. E. (508481287)",JOHNSON & JOHNSON MEDICAL     (500153370),"11.112,66 €",06-04-2017,06-04-2017,1 dias,"Portugal, Lisboa, Lisboa","Artigo 20.º, n.º 1, alínea a) do Código dos Contratos Públicos",,,,,,Não aplicável.,Não aplicável.,FALSE
Aquisição de luva exame em nitrilo n/ esteril,Ajuste Direto Regime Geral,Aquisição de bens móveis,"33140000-3, Material médico de consumo","CENTRO HOSPITALAR LISBOA NORTE, EPE (508481287)","Docworld, Lda. (508592909)","9.480,00 €",06-04-2017,06-04-2017,1 dias,"Portugal, Lisboa, Lisboa","Artigo 20.º, n.º 1, alínea a) do Código dos Contratos Públicos",,,,,,Não aplicável.,Não aplicável.,FALSE
Aquisição de luva de exame em nitrilo,Ajuste Direto Regime Geral,Aquisição de bens móveis,"33140000-3, Material médico de consumo","CENTRO HOSPITALAR LISBOA NORTE, EPE (508481287)","Docworld, Lda. (508592909)","9.480,00 €",06-04-2017,06-04-2017,1 dias,"Portugal, Lisboa, Lisboa","Artigo 20.º, n.º 1, alínea a) do Código dos Contratos Públicos",,,,,,Não aplicável.,Não aplicável.,FALSE
Aquisição de abacavir 600 mg + lamivudina 300 mg comp.,Concurso público,Aquisição de bens móveis,"33651000-8, Anti-infecciosos gerais de uso sistémico","Centro Hospitalar Lisboa Norte, E. P. E. (508481287)","TEVA PHARMA - PRODUTOS FARMACEUTICOS,LDA           (507045491)","126.480,00 €",06-04-2017,24-02-2017,27 dias,"Portugal, Lisboa, Lisboa","Artigo 20.º, n.º 1, alínea b) do Código dos Contratos Públicos",,,,,,Não aplicável.,Não aplicável.,FALSE
"Fornecimento e colocação de janela em Alumínio, no quarto do médico da UCAPO CHLN - HPV.",Ajuste Direto Regime Geral,Empreitadas de obras públicas,"45453000-7, Obras de revisão e recuperação","CENTRO HOSPITALAR LISBOA NORTE, EPE (508481287)",Francisco José Vieira Marques (128779799),"300,00 €",06-04-2017,06-04-2017,5 dias,"Portugal, Lisboa, Lisboa","Artigo 19.º, alínea a) do Código dos Contratos Públicos",,,,,,Não aplicável.,Não aplicável.,FALSE
Reparações em prumadas de esgotos de diversos serviços.,Ajuste Direto Regime Geral,Empreitadas de obras públicas,"45453000-7, Obras de revisão e recuperação","Centro Hospitalar Lisboa Norte, E. P. E. (508481287)"," ENGITOM, ENGENHARIA E CONSTRUÇÕES, UNIPESSOAL, LDA (508250501)","4.882,80 €",06-04-2017,06-04-2017,10 dias,"Portugal, Lisboa, Lisboa","Artigo 19.º, alínea a) do Código dos Contratos Públicos",,,,,,Não aplicável.,Não aplicável.,FALSE
Aquisição de produtos de apoio,Ajuste Direto Regime Geral,Aquisição de serviços,"85000000-9, Serviços de saúde e acção social","Centro Hospitalar Lisboa Norte, E. P. E. (508481287)","Ortopedia Moderna, Lda (500481300)","3.011,24 €",06-04-2017,06-04-2017,21 dias,"Portugal, Lisboa, Lisboa","Artigo 20.º, n.º 1, alínea a) do Código dos Contratos Públicos",,,,,,Não aplicável.,Não aplicável.,FALSE
Aquisição de produtos de apoio,Ajuste Direto Regime Geral,Aquisição de serviços,"85000000-9, Serviços de saúde e acção social","Centro Hospitalar Lisboa Norte, E. P. E. (508481287)",Mário Paulo Ferreira (197118372),"215,09 €",06-04-2017,06-04-2017,10 dias,"Portugal, Lisboa, Lisboa","Artigo 20.º, n.º 1, alínea a) do Código dos Contratos Públicos",,,,,,Não aplicável.,Não aplicável.,FALSE
Aquisição de produtos de apoio,Ajuste Direto Regime Geral,Aquisição de serviços,"85000000-9, Serviços de saúde e acção social","Centro Hospitalar Lisboa Norte, E. P. E. (508481287)",Mário Paulo Ferreira (197118372),"182,07 €",06-04-2017,06-04-2017,10 dias,"Portugal, Lisboa, Lisboa","Artigo 20.º, n.º 1, alínea a) do Código dos Contratos Públicos",,,,,,Não aplicável.,Não aplicável.,FALSE
Aquisição de produtos de apoio,Ajuste Direto Regime Geral,Aquisição de serviços,"85000000-9, Serviços de saúde e acção social","Centro Hospitalar Lisboa Norte, E. P. E. (508481287)",Mário Paulo Ferreira (197118372),"122,64 €",06-04-2017,06-04-2017,10 dias,"Portugal, Lisboa, Lisboa","Artigo 20.º, n.º 1, alínea a) do Código dos Contratos Públicos",,,,,,Não aplicável.,Não aplicável.,FALSE
Aquisição de suturas mecânicas e recargas durante o ano de 2017,Concurso público,Aquisição de bens móveis,"33141125-2, Material de sutura cirúrgica","Centro Hospitalar Lisboa Norte, E. P. E. (508481287)","ENDOTÉCNICA, LDA. (503818348)","7.200,00 €",05-04-2017,05-04-2017,270 dias,"Portugal, Lisboa, Lisboa","Artigo 20.º, n.º 1, alínea b) do Código dos Contratos Públicos",,,,,,Não aplicável.,Não aplicável.,FALSE
Aquisição de consumíveis para alimentação parentérica e filtros infusão / Dispositivos Médicos para o ano 2017,Ajuste Direto Regime Geral,Aquisição de bens móveis,"33190000-8, Dispositivos e produtos médicos variados","Centro Hospitalar Lisboa Norte, E. P. E. (508481287)",B.Braun Medical (501506543),"2.167,20 €",05-04-2017,05-04-2017,270 dias,"Portugal, Lisboa, Lisboa","Artigo 20.º, n.º 1, alínea a) do Código dos Contratos Públicos",,,,,,Não aplicável.,Não aplicável.,FALSE
Aquisição de consumíveis para alimentação parentérica e filtros infusão / Dispositivos Médicos para o ano 2017,Ajuste Direto Regime Geral,Aquisição de bens móveis,"33190000-8, Dispositivos e produtos médicos variados","Centro Hospitalar Lisboa Norte, E. P. E. (508481287)","Nestlé Portugal, SA (500201307)","3.462,60 €",05-04-2017,05-04-2017,270 dias,"Portugal, Lisboa, Lisboa","Artigo 20.º, n.º 1, alínea a) do Código dos Contratos Públicos",,,,,,Não aplicável.,Não aplicável.,FALSE
Aquisição de luvas cirurgicas durante o ano de 2017,Concurso público,Aquisição de bens móveis,"33141420-0, Luvas para cirurgia","CENTRO HOSPITALAR LISBOA NORTE, EPE (508481287)","PAUL HARTMAN, LDA    (502271728)","660,00 €",05-04-2017,05-04-2017,270 dias,"Portugal, Lisboa, Lisboa","Artigo 20.º, n.º 1, alínea b) do Código dos Contratos Públicos",,,,,,Não aplicável.,Não aplicável.,FALSE
Aquisição de luvas cirúrgicas/dispositivos médicos p/ o ano de 2017,Concurso público,Aquisição de bens móveis,"33141420-0, Luvas para cirurgia","CENTRO HOSPITALAR LISBOA NORTE, EPE (508481287)","ANASTACIO SALDANHA, UNIPESSOAL, LDA (505804441)","846,40 €",05-04-2017,05-04-2017,270 dias,"Portugal, Lisboa, Lisboa","Artigo 20.º, n.º 1, alínea b) do Código dos Contratos Públicos",,,,,,Não aplicável.,Não aplicável.,FALSE
Aquisição de gás para equipamento de medição de CO2,Ajuste Direto Regime Geral,Aquisição de bens móveis,"24111500-0, Gases médicos","Centro Hospitalar Lisboa Norte, E. P. E. (508481287)","SPACE MEDICAL, LDA (507662407)","349,08 €",05-04-2017,05-04-2017,270 dias,"Portugal, Lisboa, Lisboa","Artigo 20.º, n.º 1, alínea a) do Código dos Contratos Públicos",,,,,,Não aplicável.,Não aplicável.,FALSE
Aquisição de heparina 5.000,Ajuste Direto Regime Geral,Aquisição de bens móveis,"33690000-3, Medicamentos vários","Centro Hospitalar Lisboa Norte, E. P. E. (508481287)","B. Braun Medical, Lda (501506543)","8.400,00 €",04-04-2017,04-04-2017,1 dias,"Portugal, Lisboa, Lisboa","Artigo 24.º, n.º 1, alínea e) do Código dos Contratos Públicos",,,,,,Não aplicável.,Não aplicável.,FALSE
Aquisição de processador de implante coclear,Ajuste Direto Regime Geral,Aquisição de bens móveis,"33190000-8, Dispositivos e produtos médicos variados","Centro Hospitalar Lisboa Norte, E. P. E. (508481287)","Lusitania Soluções, lda. (513611231)","8.200,00 €",04-04-2017,04-04-2017,10 dias,"Portugal, Lisboa, Lisboa","Artigo 20.º, n.º 1, alínea a) do Código dos Contratos Públicos",,,,,,Não aplicável.,Não aplicável.,FALSE
Aquisição de sondas diversas,Concurso público,Aquisição de bens móveis,"33141641-5, Sondas","CENTRO HOSPITALAR LISBOA NORTE, EPE (508481287)","INTERSURGICAL PORTUGAL, LDA (503480045)","22.698,00 €",04-04-2017,23-03-2017,283 dias,"Portugal, Lisboa, Lisboa","Artigo 20.º, n.º 1, alínea b) do Código dos Contratos Públicos",,,,,,Não aplicável.,Não aplicável.,FALSE
Aquisição de tamponamentos nasais e auriculares p/ o ano de 2017,Ajuste Direto Regime Geral,Aquisição de bens móveis,"33140000-3, Material médico de consumo","Centro Hospitalar Lisboa Norte, E. P. E. (508481287)",MEDTRONIC PORTUGAL LDA (504223933),"11.965,60 €",04-04-2017,28-03-2017,278 dias,"Portugal, Lisboa, Lisboa","Artigo 20.º, n.º 1, alínea a) do Código dos Contratos Públicos",,,,,,Não aplicável.,Não aplicável.,FALSE
Aquisição de produtos de apoio,Ajuste Direto Regime Geral,Aquisição de serviços,"85000000-9, Serviços de saúde e acção social","Centro Hospitalar Lisboa Norte, E. P. E. (508481287)","Ortopedia Moderna, Lda (500481300)","907,21 €",04-04-2017,04-04-2017,21 dias,"Portugal, Lisboa, Lisboa","Artigo 20.º, n.º 1, alínea a) do Código dos Contratos Públicos",,,,,,Não aplicável.,Não aplicável.,FALSE
Aquisição de produtos de apoio,Ajuste Direto Regime Geral,Aquisição de serviços,"85000000-9, Serviços de saúde e acção social","Centro Hospitalar Lisboa Norte, E. P. E. (508481287)","Ortopedia Moderna, Lda (500481300)","1.346,20 €",04-04-2017,04-04-2017,21 dias,"Portugal, Lisboa, Lisboa","Artigo 20.º, n.º 1, alínea a) do Código dos Contratos Públicos",,,,,,Não aplicável.,Não aplicável.,FALSE
Aquisição de produtos de apoio,Ajuste Direto Regime Geral,Aquisição de serviços,"85000000-9, Serviços de saúde e acção social","Centro Hospitalar Lisboa Norte, E. P. E. (508481287)",AMPLIFON (503325872),"566,04 €",04-04-2017,04-04-2017,4 dias,"Portugal, Lisboa, Lisboa","Artigo 20.º, n.º 1, alínea a) do Código dos Contratos Públicos",,,,,,Não aplicável.,Não aplicável.,FALSE
Aquisição de produtos de apoio,Ajuste Direto Regime Geral,Aquisição de serviços,"85000000-9, Serviços de saúde e acção social","Centro Hospitalar Lisboa Norte, E. P. E. (508481287)","Optocentro, Lda. (501472070)","89,93 €",04-04-2017,04-04-2017,30 dias,"Portugal, Lisboa, Lisboa","Artigo 20.º, n.º 1, alínea a) do Código dos Contratos Públicos",,,,,,Não aplicável.,Não aplicável.,FALSE
Aquisição de fator VIII recombinante 1000 UI,Ajuste Direto Regime Geral,Aquisição de bens móveis,"33690000-3, Medicamentos vários","Centro Hospitalar Lisboa Norte, E. P. E. (508481287)",BAXALTA pORTUGAL UNIPESSOAL lDA (513252193),"118.398,50 €",03-04-2017,03-04-2017,1 dias,"Portugal, Lisboa, Lisboa","Artigo 24.º, n.º 1, alínea c) do Código dos Contratos Públicos",,,,,,Não aplicável.,Não aplicável.,FALSE
Aquisição de produtos de apoio,Ajuste Direto Regime Geral,Aquisição de serviços,"85000000-9, Serviços de saúde e acção social","Centro Hospitalar Lisboa Norte, E. P. E. (508481287)",Ortomedicinal - Material Ortopédico e Hospitalar (501394605),"900,00 €",03-04-2017,03-04-2017,15 dias,"Portugal, Lisboa, Lisboa","Artigo 20.º, n.º 1, alínea a) do Código dos Contratos Públicos",,,,,,Não aplicável.,Não aplicável.,FALSE
Aquisição de produtos de apoio,Ajuste Direto Regime Geral,Aquisição de serviços,"85000000-9, Serviços de saúde e acção social","Centro Hospitalar Lisboa Norte, E. P. E. (508481287)",Mário Paulo Ferreira (197118372),"184,90 €",03-04-2017,03-04-2017,10 dias,"Portugal, Lisboa, Lisboa","Artigo 20.º, n.º 1, alínea a) do Código dos Contratos Públicos",,,,,,Não aplicável.,Não aplicável.,FALSE
Aquisição de produtos de apoio,Ajuste Direto Regime Geral,Aquisição de serviços,"85000000-9, Serviços de saúde e acção social","Centro Hospitalar Lisboa Norte, E. P. E. (508481287)",Mário Paulo Ferreira (197118372),"184,90 €",03-04-2017,03-04-2017,10 dias,"Portugal, Lisboa, Lisboa","Artigo 20.º, n.º 1, alínea a) do Código dos Contratos Públicos",,,,,,Não aplicável.,Não aplicável.,FALSE
Aquisição de produtos de apoio,Ajuste Direto Regime Geral,Aquisição de serviços,"85000000-9, Serviços de saúde e acção social","Centro Hospitalar Lisboa Norte, E. P. E. (508481287)",Mário Paulo Ferreira (197118372),"127,35 €",03-04-2017,03-04-2017,10 dias,"Portugal, Lisboa, Lisboa","Artigo 20.º, n.º 1, alínea a) do Código dos Contratos Públicos",,,,,,Não aplicável.,Não aplicável.,FALSE
Aquisição de produtos de apoio,Ajuste Direto Regime Geral,Aquisição de serviços,"85000000-9, Serviços de saúde e acção social","Centro Hospitalar Lisboa Norte, E. P. E. (508481287)","Ortopedia Moderna, Lda (500481300)","75,50 €",03-04-2017,03-04-2017,21 dias,"Portugal, Lisboa, Lisboa","Artigo 20.º, n.º 1, alínea a) do Código dos Contratos Públicos",,,,,,Não aplicável.,Não aplicável.,FALSE
Aquisição de produtos de apoio,Ajuste Direto Regime Geral,Aquisição de serviços,"85000000-9, Serviços de saúde e acção social","Centro Hospitalar Lisboa Norte, E. P. E. (508481287)","Ortopedia Moderna, Lda (500481300)","242,50 €",03-04-2017,03-04-2017,21 dias,"Portugal, Lisboa, Lisboa","Artigo 20.º, n.º 1, alínea a) do Código dos Contratos Públicos",,,,,,Não aplicável.,Não aplicável.,FALSE
Aquisição de produtos de apoio,Ajuste Direto Regime Geral,Aquisição de serviços,"85000000-9, Serviços de saúde e acção social","Centro Hospitalar Lisboa Norte, E. P. E. (508481287)","Coselgi Portugal, S.A  (509230598)","1.500,00 €",03-04-2017,03-04-2017,5 dias,"Portugal, Lisboa, Lisboa","Artigo 20.º, n.º 1, alínea a) do Código dos Contratos Públicos",,,,,,Não aplicável.,Não aplicável.,FALSE
Aquisição de produtos de apoio,Ajuste Direto Regime Geral,Aquisição de serviços,"85000000-9, Serviços de saúde e acção social","Centro Hospitalar Lisboa Norte, E. P. E. (508481287)","GAES – Gabinete de Audiopróteses, Electromedicina e Serviços, Unipessoal, Lda (503134139)","480,00 €",03-04-2017,03-04-2017,5 dias,"Portugal, Lisboa, Lisboa","Artigo 20.º, n.º 1, alínea a) do Código dos Contratos Públicos",,,,,,Não aplicável.,Não aplicável.,FALSE
Aquisição de CDI e diversos eletrodos,Ajuste Direto Regime Geral,Aquisição de bens móveis,"33190000-8, Dispositivos e produtos médicos variados","Centro Hospitalar Lisboa Norte, E. P. E. (508481287)",St. Jude Medical Portugal (504180746),"15.518,00 €",03-04-2017,03-04-2017,1 dias,"Portugal, Lisboa, Lisboa","Artigo 20.º, n.º 1, alínea a) do Código dos Contratos Públicos",,,,,,Não aplicável.,Não aplicável.,FALSE
Aquisição de protese dentaria,Ajuste Direto Regime Geral,Aquisição de bens móveis,"33184000-3, Próteses","Centro Hospitalar Lisboa Norte, E. P. E. (508481287)",Mário Paulo Ferreira (197118372),"92,45 €",03-04-2017,03-04-2017,10 dias,"Portugal, Lisboa, Lisboa","Artigo 20.º, n.º 1, alínea a) do Código dos Contratos Públicos",,,,,,Não aplicável.,Não aplicável.,FALSE
Aquisição de material para Ortopedia,Ajuste Direto Regime Geral,Aquisição de bens móveis,"33140000-3, Material médico de consumo","Centro Hospitalar Lisboa Norte, E. P. E. (508481287)",Johnson & Johnson Medical (500153370),"5.655,50 €",03-04-2017,03-04-2017,1 dias,"Portugal, Lisboa, Lisboa","Artigo 20.º, n.º 1, alínea a) do Código dos Contratos Públicos",,,,,,Não aplicável.,Não aplicável.,FALSE
Aquisição de material para Ortopedia,Ajuste Direto Regime Geral,Aquisição de bens móveis,"33140000-3, Material médico de consumo","Centro Hospitalar Lisboa Norte, E. P. E. (508481287)",Johnson & Johnson Medical (500153370),"5.650,28 €",03-04-2017,03-04-2017,1 dias,"Portugal, Lisboa, Lisboa","Artigo 20.º, n.º 1, alínea a) do Código dos Contratos Públicos",,,,,,Não aplicável.,Não aplicável.,FALSE
Aquisição de material de penso,Concurso público,Aquisição de bens móveis,"33140000-3, Material médico de consumo","Centro Hospitalar Lisboa Norte, E. P. E. (508481287)",BSN MEDICAL S.A (505385058),"49.941,60 €",03-04-2017,22-03-2017,284 dias,"Portugal, Lisboa, Lisboa","Artigo 20.º, n.º 1, alínea b) do Código dos Contratos Públicos",,,,,,Não aplicável.,Não aplicável.,FALSE
"Prestação de serviços de apoio ao reporte financeiro, conferência de faturas e tesouraria para o CHLN",Ajuste Direto Regime Geral,Aquisição de serviços,"79211000-6, Serviços de contabilidade","Centro Hospitalar Lisboa Norte, E. P. E. (508481287)","Manpower Solutions, Unipessoal, Lda (503626007)","58.277,88 €",03-04-2017,29-03-2017,275 dias,"Portugal, Lisboa, Lisboa","Artigo 20.º, n.º 1, alínea a) do Código dos Contratos Públicos",,,,,,Não aplicável.,Não aplicável.,FALSE
