Objeto do Contrato,Tipo de Procedimento,Tipo(s) de Contrato,CPVs,Entidade(s) Adjudicante(s),Entidade(s) Adjudicatária(s),Preço Contratual,Data de Publicação,Data de Celebração do Contrato,Prazo de Execução,Local de Execução,Fundamentação,Data de Fecho do Contrato,Preço Total Efetivo,Causas das Alterações ao Prazo,Causas das Alterações ao Preço,Estado,N.º registo do Acordo Quadro,Descrição do Acordo Quadro,Procedimento Centralizado
Aquisição de reagentes para laboratorio de Saude Publica,Ajuste Direto Regime Geral,Aquisição de bens móveis,"33696500-0, Reagentes de laboratório","Administração Regional de Saúde do Norte, I.P. (503135593)","Type Solution, SA (508400317)","574,00 €",27-07-2012,05-06-2012,37 dias,"Portugal, Braga, Braga","Artigo 24.º, n.º 1, alínea e) do Código dos Contratos Públicos","","",,,,Não aplicável.,Não aplicável.,
Aquisição reagentes,Ajuste Direto Regime Geral,Aquisição de bens móveis,"33696500-0, Reagentes de laboratório","Administração Regional de Saúde do Norte, I.P. (503135593)","Tecnilab, SA (500758158)","2.514,28 €",25-07-2012,24-07-2012,12 dias,"Portugal, Braga, Braga","Artigo 24.º, n.º 1, alínea e) do Código dos Contratos Públicos","","",,,,Não aplicável.,Não aplicável.,
Aquisição de medicamentos - Cianocobalamina + piridoxina + tiamina Sol. Inj. 3 ml IM,Ajuste Direto Regime Geral,Aquisição de bens móveis,"33140000-3, Material médico de consumo","Administração Regional de Saúde do Norte, I.P. (503135593)","Merck, S. A. (500650870)","57,12 €",24-07-2012,03-07-2012,365 dias,"Portugal, Vila Real, Vila Real","Artigo 24.º, n.º 1, alínea e) do Código dos Contratos Públicos",26-07-2012,"57,12 €",,,,Não aplicável.,Não aplicável.,
Aquisição de regantes determinação microalbuminúria - Tira,Ajuste Direto Regime Geral,Aquisição de bens móveis,"33140000-3, Material médico de consumo","Administração Regional de Saúde do Norte, I.P. (503135593)","Siemens Healthcare Diagnósticos, Lda (507925173)","23.600,00 €",24-07-2012,13-07-2012,365 dias,"Portugal, Vila Real, Vila Real","Artigo 20.º, n.º 1, alínea a) do Código dos Contratos Públicos",23-11-2012,"23.600,00 €",,,,Não aplicável.,Não aplicável.,
Aquisição de medicamentos - Piridoxina (vitamina B 6) 40 mg.,Ajuste Direto Regime Geral,Aquisição de bens móveis,"33140000-3, Material médico de consumo","Administração Regional de Saúde do Norte, I.P. (503135593)","Labesfal - Laboratórios Almiro, S.A. (501169580)","64.480,00 €",24-07-2012,13-07-2012,365 dias,"Portugal, Vila Real, Vila Real","Artigo 24.º, n.º 1, alínea e) do Código dos Contratos Públicos",19-12-2012,"64.480,00 €",,,,Não aplicável.,Não aplicável.,
Aquisição de consumiveis para LSP,Ajuste Direto Regime Geral,Aquisição de bens móveis,"33696500-0, Reagentes de laboratório","Administração Regional de Saúde do Norte, I.P. (503135593)","Type Solution, SA (508400317)","9.862,31 €",24-07-2012,06-07-2012,67 dias,"Portugal, Braga, Braga","Artigo 20.º, n.º 1, alínea a) do Código dos Contratos Públicos","","",,,,Não aplicável.,Não aplicável.,
Aquisição de lanceta automática punção capilar,Ajuste Direto Regime Geral,Aquisição de bens móveis,"33140000-3, Material médico de consumo","Administração Regional de Saúde do Norte, I.P. (503135593)",Iberlab & Imunorage (503406694),"3.234,00 €",23-07-2012,06-07-2012,365 dias,"Portugal, Vila Real, Vila Real","Artigo 20.º, n.º 1, alínea a) do Código dos Contratos Públicos",19-12-2012,"3.234,00 €",,,,Não aplicável.,Não aplicável.,
