Objeto do Contrato,Tipo de Procedimento,Tipo(s) de Contrato,CPVs,Entidade(s) Adjudicante(s),Entidade(s) Adjudicatária(s),Preço Contratual,Data de Publicação,Data de Celebração do Contrato,Prazo de Execução,Local de Execução,Fundamentação,Data de Fecho do Contrato,Preço Total Efetivo,Causas das Alterações ao Prazo,Causas das Alterações ao Preço,Estado,N.º registo do Acordo Quadro,Descrição do Acordo Quadro,Procedimento Centralizado
Consulta Previa n.º 189000007 - Aquisição de 10 estetoscópios e 2 pedaleiras,Ao abrigo de acordo-quadro (art.º 259.º),Aquisição de bens móveis,"33100000-1, Equipamento médico","Centro Hospitalar Lisboa Norte, E. P. E. (508481287)",HR - hOSPITALAR lDA (501895558),"4,89 €",11-08-2018,11-08-2018,1 dias,"Portugal, Lisboa, Lisboa",Artigo 259.º do Código dos Contratos Públicos,,,,,,1587913,Acordo Quadro para fornecimento de Equipamentos e Dispositivos Médicos de uso comum em internamento e ambulatório - Parte I às instituições e serviços do Serviço Nacional de Saúde.,FALSE
Consulta Previa n.º 189000007 - Aquisição de 10 estetoscópios e 2 pedaleiras,Ao abrigo de acordo-quadro (art.º 259.º),Aquisição de bens móveis,"33100000-1, Equipamento médico","Centro Hospitalar Lisboa Norte, E. P. E. (508481287)",Bastos e Viegas S.A. (500042772),"49,90 €",11-08-2018,11-08-2018,142 dias,"Portugal, Lisboa, Lisboa",Artigo 259.º do Código dos Contratos Públicos,,,,,,1587913,Acordo Quadro para fornecimento de Equipamentos e Dispositivos Médicos de uso comum em internamento e ambulatório - Parte I às instituições e serviços do Serviço Nacional de Saúde.,FALSE
Consulta Previa n.º 181001452 - Aquisição de Perindopril Comprimidos de 4 mg,Ao abrigo de acordo-quadro (art.º 259.º),Aquisição de bens móveis,"33622000-6, Medicamentos para o aparelho cardiovascular","Centro Hospitalar Lisboa Norte, E. P. E. (508481287)",Tecnimede - Sociedade Tecnico - Medicinal S.A. (500626413),"236,25 €",11-08-2018,11-08-2018,1 dias,"Portugal, Lisboa, Lisboa",Artigo 259.º do Código dos Contratos Públicos,,,,,,2335591,CP 2016/01 - Acordo Quadro para fornecimento de Medicamentos do Aparelho Cardiovascular   às Instituições e Serviços do Serviço Nacional de Saúde,FALSE
Ajuste direto n.º 181G002856 - Aquisição de RITUXIMAB 500 MG/50 ML SOL INJ ( BIOSSIM,Ajuste Direto Regime Geral,Aquisição de bens móveis,"33652000-5, Antineoplásicos e imunomoduladores","Centro Hospitalar Lisboa Norte, E. P. E. (508481287)",pharmakern (507002571),"69.000,00 €",11-08-2018,11-08-2018,2 dias,"Portugal, Lisboa, Lisboa","Artigo 24.º, n.º 1, alínea e), subalínea ii) do Código dos Contratos Públicos",,,,,,Não aplicável.,Não aplicável.,FALSE
Ajuste direto n.º 181G003043 - Aquisição de Propanol + etilsulfato de mecetonio solução de 500 ml,Ajuste Direto Regime Geral,Aquisição de bens móveis,"33741300-9, Desinfectante para as mãos","Centro Hospitalar Lisboa Norte, E. P. E. (508481287)",paul hartmann (502271728),"9.360,00 €",11-08-2018,11-08-2018,2 dias,"Portugal, Lisboa, Lisboa","Artigo 24.º, n.º 1, alínea e), subalínea iii) do Código dos Contratos Públicos",,,,,,Não aplicável.,Não aplicável.,FALSE
Ajuste direto n.º 181G003046 - Aquisição de celulas Liss/Coombs 48 T,Ajuste Direto Regime Geral,Aquisição de bens móveis,"33696000-5, Reagentes e meios de contraste","Centro Hospitalar Lisboa Norte, E. P. E. (508481287)",BIO-RAD LABORATORIES (501301321),"8.000,00 €",11-08-2018,11-08-2018,3 dias,"Portugal, Lisboa, Lisboa","Artigo 24.º, n.º 1, alínea e), subalínea iii) do Código dos Contratos Públicos",,,,,,Não aplicável.,Não aplicável.,FALSE
Ajuste direto n.º 181G003073 - Aquisição de Glutationa reduzida,Ajuste Direto Regime Geral,Aquisição de bens móveis,"33690000-3, Medicamentos vários","Centro Hospitalar Lisboa Norte, E. P. E. (508481287)",INSTITUT GEORGES LOPEZ (429526973),"8.192,64 €",11-08-2018,11-08-2018,1 dias,"Portugal, Lisboa, Lisboa","Artigo 24.º, n.º 1, alínea e), subalínea iii) do Código dos Contratos Públicos",,,,,,Não aplicável.,Não aplicável.,FALSE
Ajuste direto n.º 181G003014 -Aquisição de Concentradode factor XIII,Ajuste Direto Regime Geral,Aquisição de bens móveis,"33621200-1, Anti-hemorrágicos","Centro Hospitalar Lisboa Norte, E. P. E. (508481287)","CSL BEHRING, LDA (503047201)","6.777,20 €",11-08-2018,11-08-2018,1 dias,"Portugal, Lisboa, Lisboa","Artigo 24.º, n.º 1, alínea e), subalínea iii) do Código dos Contratos Públicos",,,,,,Não aplicável.,Não aplicável.,FALSE
Aquisição de medicamentos antirretroviricos para o tratamento da infeção por VIH,Ao abrigo de acordo-quadro (art.º 259.º),Aquisição de bens móveis,"33651520-9, Imunoglobulinas","Centro Hospitalar Lisboa Norte, E. P. E. (508481287)","Gilead Sciences, Lda. (503604704)","84.672,00 €",10-08-2018,10-08-2018,143 dias,"Portugal, Lisboa, Lisboa",Artigo 259.º do Código dos Contratos Públicos,,,,,,2183729,Medicamentos antirretrovíricos para o tratamento da infeção por VIH,FALSE
Aquisição de manga mista c/ fole (100mmx100 mt),Ao abrigo de acordo-quadro (art.º 259.º),Aquisição de bens móveis,"33190000-8, Dispositivos e produtos médicos variados","Centro Hospitalar Lisboa Norte, E. P. E. (508481287)","Docwordl, Lda. (508592909)","132,12 €",10-08-2018,10-08-2018,143 dias,"Portugal, Lisboa, Lisboa",Artigo 259.º do Código dos Contratos Públicos,,,,,,1974943,CP 2016/43 - Acordo quadro para fornecimento de Material para Empacotamento em Esterilização às Instituições e Serviços do Serviço Nacional de Saúde.,FALSE
Aquisição de seringa luer 50 cc desc.,Ao abrigo de acordo-quadro (art.º 259.º),Aquisição de bens móveis,"33190000-8, Dispositivos e produtos médicos variados","Centro Hospitalar Lisboa Norte, E. P. E. (508481287)","B, Braun Medical, Lda. (501506543)","1.077,00 €",10-08-2018,10-08-2018,143 dias,"Portugal, Lisboa, Lisboa",Artigo 259.º do Código dos Contratos Públicos,,,,,,1341769,"ACORDO QUADRO PARA FORNECIMENTO DE SERINGAS, AGULHAS E CONTENTORES ÀS INSTITUIÇÕES E SERVIÇOS DO SERVIÇO NACIONAL DE SAÚDE PROGRAMA DE CONCURSO",FALSE
Consulta Previa n.º 182000096 - Aquisição de stent´s coronários para o ano 2018  - AQ SPMS 2017/34 - P259-2018-66,Ao abrigo de acordo-quadro (art.º 259.º),Aquisição de bens móveis,"33111730-7, Material para angioplastia","Centro Hospitalar Lisboa Norte, E. P. E. (508481287)",Terumo Europe Espana SL (980472024),"157.500,00 €",10-08-2018,10-08-2018,143 dias,"Portugal, Lisboa, Lisboa",Artigo 259.º do Código dos Contratos Públicos,,,,,,2771022,CP 2017/34 - Acordo quadro para fornecimento de Stents Coronários às Instituições e Serviços do Serviço Nacional de Saúde,FALSE
Consulta Previa n.º 181001430 - Aquisição de LAMIVUDINA COMP 100 MG,Ao abrigo de acordo-quadro (art.º 259.º),Aquisição de bens móveis,"33690000-3, Medicamentos vários","Centro Hospitalar Lisboa Norte, E. P. E. (508481287)",Glaxosmithkline Produtos Farmacêuticos Lda (500139962),"854,00 €",10-08-2018,10-08-2018,2 dias,"Portugal, Lisboa, Lisboa",Artigo 259.º do Código dos Contratos Públicos,,,,,,2124520,CP 2016/55 - Medicamentos Diversos,FALSE
Consulta Previa n.º 181001448 - Aquisição de ALOPURINOL COMP 300 MG,Ao abrigo de acordo-quadro (art.º 259.º),Aquisição de bens móveis,"33632000-9, Medicamentos para o aparelho músculo-esquelético","Centro Hospitalar Lisboa Norte, E. P. E. (508481287)",Sidefarma - Sociedade Industrial de Expansão Farmaceutica S.A. (500717419),"64,05 €",10-08-2018,10-08-2018,2 dias,"Portugal, Lisboa, Lisboa",Artigo 259.º do Código dos Contratos Públicos,,,,,,600392,"CONCURSO PÚBLICO PARA A CELEBRAÇÃO DE CONTRATOS PÚBLICOS DE APROVISIONAMENTO PARA A ÁREA DA SAÚDE, COM VISTA AO FORNECIMENTO DE MEDICAMENTOS DE CONSUMO GERAL - APARELHO LOCOMOTOR ÀS INSTITUIÇÕES E SERVIÇOS DO SERVIÇO NACIONAL DE SAÚDE",FALSE
Consulta Previa n.º 181001402 - Aquisição de AMOXICILINA + ACIDO CLAVULANICO 457 MG/5,Ao abrigo de acordo-quadro (art.º 259.º),Aquisição de bens móveis,"33651000-8, Anti-infecciosos gerais de uso sistémico","Centro Hospitalar Lisboa Norte, E. P. E. (508481287)",Glaxo Mithkline Produtos Farmacêuticos Lda (500139962),"360,00 €",10-08-2018,10-08-2018,2 dias,"Portugal, Lisboa, Lisboa",Artigo 259.º do Código dos Contratos Públicos,,,,,,2775691,CP 2017/5 - Acordo Quadro para fornecimento de Medicamentos anti-infeciosos: exceto antivíricos e antifúngicos,FALSE
Consulta Previa n.º 181001336 - Aquisição de ACIDO FUSIDICO 2% POMADA BISN 15 G,Ao abrigo de acordo-quadro (art.º 259.º),Aquisição de bens móveis,"33631000-2, Medicamentos usados em dermatologia","Centro Hospitalar Lisboa Norte, E. P. E. (508481287)",Laboratórios Medinfar - Produtos Farmacêuticos S.A. (500384045),"834,30 €",10-08-2018,10-08-2018,3 dias,"Portugal, Lisboa, Lisboa",Artigo 259.º do Código dos Contratos Públicos,,,,,,2850371,"CP 2017/51 - Acordo Quadro para fornecimento de Medicamentos usados nas afeções cutâneas, às Instituições e Serviços do Serviço Nacional de Saúde",FALSE
Consulta Previa 181001337,Ao abrigo de acordo-quadro (art.º 259.º),Aquisição de bens móveis,"33661300-4, Antiepilépticos","Centro Hospitalar Lisboa Norte, E. P. E. (508481287)",Generis Farmaceutica S.A. (508107997),"698,40 €",10-08-2018,10-08-2018,1 dias,"Portugal, Lisboa, Lisboa",Artigo 259.º do Código dos Contratos Públicos,,,,,,2528670,"CP 2017/2 - Acordo Quadro para fornecimento de Medicamentos do Sistema Nervoso Cerebrospinal, exceto: anestésicos, relaxantes musculares, analgésicos, antipiréticos, antidepressivos e antipsicóticos  às Instituições e Serviços do Serviço Nacional de Saúde",FALSE
"Consulta previa 181001404 - Aquisição de GLUCOSE 5% CLORETO DE SÓDIO 0,9% SOL INJ",Ao abrigo de acordo-quadro (art.º 259.º),Aquisição de bens móveis,"33692500-2, Soluções injectáveis","Centro Hospitalar Lisboa Norte, E. P. E. (508481287)",Overpharma - Produtos Médicos Farmacêuticos Lda (505792362),"2.913,30 €",10-08-2018,10-08-2018,1 dias,"Portugal, Lisboa, Lisboa",Artigo 259.º do Código dos Contratos Públicos,,,,,,2528675,CP 2017/3 - Acordo Quadro para fornecimento de corretivos da volémia e outras soluções estéreis,FALSE
Consulta Previa 181001335 - Aquisição de CIPROTERONA(ACETATO) COMP 100 MG,Ao abrigo de acordo-quadro (art.º 259.º),Aquisição de bens móveis,"33652000-5, Antineoplásicos e imunomoduladores","Centro Hospitalar Lisboa Norte, E. P. E. (508481287)",Bayer  Portugal Lda (500043256),"1.224,00 €",10-08-2018,10-08-2018,1 dias,"Portugal, Lisboa, Lisboa",Artigo 259.º do Código dos Contratos Públicos,,,,,,2969238,"CP 2017/6 - Acordo Quadro para fornecimento de Medicamentos do Foro Oncológico e Imunomoduladores, às Instituições e Serviços do Serviço Nacional de Saúde",FALSE
Ajuste direto n.º 181G002992 - Aquisição de RESISTENCIA HIV1 AOS INIBIDORES INTEGRAS,Ajuste Direto Regime Geral,Aquisição de bens móveis,"33696200-7, Reagentes para análises ao sangue","Centro Hospitalar Lisboa Norte, E. P. E. (508481287)","ABBOTT LABORATORIOS, LDA (500006148)","14.400,00 €",10-08-2018,03-08-2018,3 dias,"Portugal, Lisboa, Lisboa","Artigo 24.º, n.º 1, alínea e), subalínea iii) do Código dos Contratos Públicos",,,,,,Não aplicável.,Não aplicável.,FALSE
Ajuste direto n.º 181G003005 - Aquisição de ESTREPTOCCUS PNEUMONIAE/URINA TESTE DET,Ajuste Direto Regime Geral,Aquisição de bens móveis,"33696200-7, Reagentes para análises ao sangue","Centro Hospitalar Lisboa Norte, E. P. E. (508481287)","Alere, Lda. (502518863)","8.712,00 €",10-08-2018,10-08-2018,2 dias,"Portugal, Lisboa, Lisboa","Artigo 24.º, n.º 1, alínea e), subalínea iii) do Código dos Contratos Públicos",,,,,,Não aplicável.,Não aplicável.,FALSE
Consulta previa n.º 181G002797 - Aquisição de XILOL PURO 1 L,Consulta Prévia,Aquisição de bens móveis,"33696000-5, Reagentes e meios de contraste","Centro Hospitalar Lisboa Norte, E. P. E. (508481287)",José Manuel Gomes dos Santos  (501399224),"1.107,00 €",10-08-2018,10-08-2018,1 dias,"Portugal, Lisboa, Lisboa",Artigo 27.º-A do Código dos Contratos Públicos,,,,,,Não aplicável.,Não aplicável.,FALSE
Consulta Previa n.º 181001434 - Aquisição de TRASTUZUMAB EMTANSINA 160 MG INJ,Ao abrigo de acordo-quadro (art.º 259.º),Aquisição de bens móveis,"33652000-5, Antineoplásicos e imunomoduladores","Centro Hospitalar Lisboa Norte, E. P. E. (508481287)",Roche Farmacêutica Quimica Lda (500233810),"48.628,62 €",09-08-2018,09-08-2018,1 dias,"Portugal, Lisboa, Lisboa",Artigo 259.º do Código dos Contratos Públicos,,,,,,2969238,"CP 2017/6 - Acordo Quadro para fornecimento de Medicamentos do Foro Oncológico e Imunomoduladores, às Instituições e Serviços do Serviço Nacional de Saúde",FALSE
Consulta Previa n.º 181001453 - Aquisição de RUXOLITINIB 20 MG COMP,Ao abrigo de acordo-quadro (art.º 259.º),Aquisição de bens móveis,"33652000-5, Antineoplásicos e imunomoduladores","Centro Hospitalar Lisboa Norte, E. P. E. (508481287)",Novartis Farma - Produtos Farmaceuticos S.A. (500063524),"71.503,06 €",09-08-2018,09-08-2018,1 dias,"Portugal, Lisboa, Lisboa",Artigo 259.º do Código dos Contratos Públicos,,,,,,2969238,"CP 2017/6 - Acordo Quadro para fornecimento de Medicamentos do Foro Oncológico e Imunomoduladores, às Instituições e Serviços do Serviço Nacional de Saúde",FALSE
Consulta Previa n.º 181001433 - Aquisição de Rilpivirina 25 mg comprimidos,Ao abrigo de acordo-quadro (art.º 259.º),Aquisição de bens móveis,"33651400-2, Antivíricos de uso sistémico","Centro Hospitalar Lisboa Norte, E. P. E. (508481287)",Jassen - Cilag Farmaceutica Lda (500189412),"47.975,40 €",09-08-2018,09-08-2018,2 dias,"Portugal, Lisboa, Lisboa",Artigo 259.º do Código dos Contratos Públicos,,,,,,2183729,Medicamentos antirretrovíricos para o tratamento da infeção por VIH,FALSE
Aquisição de material de ortopedia,Ajuste Direto Regime Geral,Aquisição de bens móveis,"33190000-8, Dispositivos e produtos médicos variados","Centro Hospitalar Lisboa Norte, E. P. E. (508481287)","Medtronic Portugla, Lda. (504223933)","5.792,75 €",09-08-2018,09-08-2018,1 dias,"Portugal, Lisboa, Lisboa","Artigo 24.º, n.º 1, alínea e), subalínea ii) do Código dos Contratos Públicos",,,,,,Não aplicável.,Não aplicável.,FALSE
Reparação de detetor de Carestream Serviço de Imagiologia,Ajuste Direto Regime Geral,Aquisição de serviços,"50421200-4, Serviços de reparação e manutenção de equipamentos de raios X","Centro Hospitalar Lisboa Norte, E. P. E. (508481287)",carestream health (508054320),"29.000,00 €",09-08-2018,08-08-2018,7 dias,"Portugal, Lisboa, Lisboa","Artigo 24.º, n.º 1, alínea e), subalínea iii) do Código dos Contratos Públicos",,,,,,Não aplicável.,Não aplicável.,FALSE
Ajuste direto n.º 181G003045 - Aquisição de hemoculturas,Ajuste Direto Regime Geral,Aquisição de bens móveis,"33696500-0, Reagentes de laboratório","Centro Hospitalar Lisboa Norte, E. P. E. (508481287)",Biomerieux Portugal . Aparelhos e Reagentes de Laboratório Lda (501524177),"8.625,00 €",09-08-2018,09-08-2018,2 dias,"Portugal, Lisboa, Lisboa","Artigo 24.º, n.º 1, alínea e), subalínea ii) do Código dos Contratos Públicos",,,,,,Não aplicável.,Não aplicável.,FALSE
Consulta Previa n.º 181001451 - Aquisição de Tocoferol comprimidos de 150 mg,Ao abrigo de acordo-quadro (art.º 259.º),Aquisição de bens móveis,"33616000-1, Vitaminas","Centro Hospitalar Lisboa Norte, E. P. E. (508481287)",Tecnifar - Industria Técnica e Farmacêutica S.A. (500280436),"60,00 €",09-08-2018,09-08-2018,1 dias,"Portugal, Lisboa, Lisboa",Artigo 259.º do Código dos Contratos Públicos,,,,,,2775699,"CP 2017/50 - Medicação antialérgica, vitaminas e sais minerais, medicamentos usados no tratamento de intoxicações e grupo 20.9",FALSE
Consulta Previa n.º 181001431 - Aquisição de SOL DIÁLISE  PERITONEAL C/ ICODEXTRINA 7,Ao abrigo de acordo-quadro (art.º 259.º),Aquisição de bens móveis,"33690000-3, Medicamentos vários","Centro Hospitalar Lisboa Norte, E. P. E. (508481287)",Baxter Medico Farmacêutica Lda  (503347345),"2.160,00 €",09-08-2018,09-08-2018,1 dias,"Portugal, Lisboa, Lisboa",Artigo 259.º do Código dos Contratos Públicos,,,,,,3035649,"CP 2017/35 - Acordo Quadro para fornecimento de bens e prestação de serviços de Diálise Peritoneal, às Instituições e Serviços do Serviço Nacional de Saúde",FALSE
Aquisição de um oximetro de pulso,Consulta Prévia,Aquisição de bens móveis,"33100000-1, Equipamento médico","Centro Hospitalar Lisboa Norte, E. P. E. (508481287)","SPACE MEDICAL - EQUIPAMENTOS MEDICOS, LDA (507662407)","1.348,80 €",09-08-2018,09-08-2018,60 dias,"Portugal, Lisboa, Lisboa","Artigo 20.º, n.º 1, alínea c) do Código dos Contratos Públicos",,,,,,Não aplicável.,Não aplicável.,FALSE
Aquisição de consumiveis para o Serviço de Imagiologia - Neurologia e Angiografia,Ajuste Direto Regime Geral,Aquisição de bens móveis,"33190000-8, Dispositivos e produtos médicos variados","Centro Hospitalar Lisboa Norte, E. P. E. (508481287)",PENUMBRA GMBH (DE815054796),"13.150,00 €",09-08-2018,09-08-2018,1 dias,"Portugal, Lisboa, Lisboa","Artigo 24.º, n.º 1, alínea c) do Código dos Contratos Públicos",,,,,,Não aplicável.,Não aplicável.,FALSE
Aquisição de serviços de assistência técnica à central de cloragem - ano de 2018,Consulta Prévia,Aquisição de serviços,"50514200-3, Serviços de reparação e manutenção de reservatórios","Centro Hospitalar Lisboa Norte, E. P. E. (508481287)","DPM-ANALISES DE AGUAS,SOLOS,AR EALIMENTOS, LDA (503322342)","1.540,00 €",07-08-2018,07-08-2018,146 dias,"Portugal, Lisboa, Lisboa","Artigo 20.º, n.º 1, alínea c) do Código dos Contratos Públicos",,,,,,Não aplicável.,Não aplicável.,FALSE
Aquisição de serviços de manutenção ao licenciamento IBM/Máximo para o ano de 2018,Consulta Prévia,Aquisição de serviços,"72212218-0, Serviços de desenvolvimento de software para gestão de licenças","Centro Hospitalar Lisboa Norte, E. P. E. (508481287)","Informatica El Corte Inglés, S.A. (980079659)","18.155,00 €",07-08-2018,24-07-2018,160 dias,"Portugal, Lisboa, Lisboa","Artigo 20.º, n.º 1, alínea c) do Código dos Contratos Públicos",,,,,,Não aplicável.,Não aplicável.,FALSE
Compra Centralizada de medicamentos - P259-2018-88,Ao abrigo de acordo-quadro (art.º 259.º),Aquisição de bens móveis,"33690000-3, Medicamentos vários","Centro Hospitalar Lisboa Norte, E. P. E. (508481287)","Astrazeneca, Lda. (502942240)","68.214,25 €",07-08-2018,07-08-2018,146 dias,"Portugal, Lisboa, Lisboa",Artigo 259.º do Código dos Contratos Públicos,,,,,,2969238,"CP 2017/6 - Acordo Quadro para fornecimento de Medicamentos do Foro Oncológico e Imunomoduladores, às Instituições e Serviços do Serviço Nacional de Saúde",FALSE
Compra Centralizada de medicamentos - P259-2018-88,Ao abrigo de acordo-quadro (art.º 259.º),Aquisição de bens móveis,"33690000-3, Medicamentos vários","Centro Hospitalar Lisboa Norte, E. P. E. (508481287)","Sanofi, Lda. (500134960)","12.259,62 €",07-08-2018,07-08-2018,146 dias,"Portugal, Lisboa, Lisboa",Artigo 259.º do Código dos Contratos Públicos,,,,,,2969238,"CP 2017/6 - Acordo Quadro para fornecimento de Medicamentos do Foro Oncológico e Imunomoduladores, às Instituições e Serviços do Serviço Nacional de Saúde",FALSE
"CP n.º 182A000019 - Aquisição de próteses valvulares aórticas de entrega rápida, sem sutura durante o ano de 2018",Concurso público,Aquisição de bens móveis,"33182220-7, Válvulas cardíacas","Centro Hospitalar Lisboa Norte, E. P. E. (508481287)","MEDICINALIA CORMEDICA - COMER. PROD. MED. HOSP.,LD (500684324)","99.800,00 €",07-08-2018,07-08-2018,146 dias,"Portugal, Lisboa, Lisboa","Artigo 20.º, n.º 1, alínea a) do Código dos Contratos Públicos",,,,,,Não aplicável.,Não aplicável.,FALSE
Aqusição de pacing e cardiologia de intervenção,Ajuste Direto Regime Geral,Aquisição de bens móveis,"33190000-8, Dispositivos e produtos médicos variados","Centro Hospitalar Lisboa Norte, E. P. E. (508481287)","Boston Scientific Portugal - Dispositivos Médicos, Lda. (504988964)","23.083,00 €",07-08-2018,07-08-2018,1 dias,"Portugal, Lisboa, Lisboa","Artigo 24.º, n.º 1, alínea e), subalínea ii) do Código dos Contratos Públicos",,,,,,Não aplicável.,Não aplicável.,FALSE
Aquisição de bombas de perfusão de insulina e consumiveis - P259-2018-64,Ao abrigo de acordo-quadro (art.º 259.º),Aquisição de bens móveis,"33194110-0, Bombas para perfusão","Centro Hospitalar Lisboa Norte, E. P. E. (508481287)","Roche, Sistemas de Diagnósticos, Sociedade Unipessoal, Lda. (504282921)","151.350,00 €",06-08-2018,06-08-2018,147 dias,"Portugal, Lisboa, Lisboa",Artigo 259.º do Código dos Contratos Públicos,,,,,,1442148,ACORDO QUADRO PARA FORNECIMENTO DE BOMBAS DE PERFUSÃO SUBCUTANEA CONTINUA DE INSULINA E RESPETIVOS CONSUMÍVEIS ÀS INSTITUIÇÕES E SERVIÇOS DO SERVIÇO NACIONAL DE SAÚDE. CP 2015/29,FALSE
Aquisição de bombas de perfusão de insulina e consumiveis - P259-2018-64,Ao abrigo de acordo-quadro (art.º 259.º),Aquisição de bens móveis,"33194110-0, Bombas para perfusão","Centro Hospitalar Lisboa Norte, E. P. E. (508481287)","Medtronic Portugal, Lda. (504223933)","48.450,00 €",06-08-2018,06-08-2018,147 dias,"Portugal, Lisboa, Lisboa",Artigo 259.º do Código dos Contratos Públicos,,,,,,1442148,ACORDO QUADRO PARA FORNECIMENTO DE BOMBAS DE PERFUSÃO SUBCUTANEA CONTINUA DE INSULINA E RESPETIVOS CONSUMÍVEIS ÀS INSTITUIÇÕES E SERVIÇOS DO SERVIÇO NACIONAL DE SAÚDE. CP 2015/29,FALSE
Aquisição de sirolimus architetct conj. det 100 det,Ajuste Direto Regime Geral,Aquisição de bens móveis,"33696000-5, Reagentes e meios de contraste","Centro Hospitalar Lisboa Norte, E. P. E. (508481287)","Abbott, Lda. (500006148)","5.143,62 €",06-08-2018,06-08-2018,1 dias,"Portugal, Lisboa, Lisboa","Artigo 24.º, n.º 1, alínea e), subalínea iii) do Código dos Contratos Públicos",,,,,,Não aplicável.,Não aplicável.,FALSE
Aquisição de material para manutenção de monitorização,Ajuste Direto Regime Geral,Aquisição de bens móveis,"39200000-4, Fornecimentos","Centro Hospitalar Lisboa Norte, E. P. E. (508481287)","MEDICINALIA CORMEDICA - COMER. PROD. MED. HOSP.,LD (500684324)","26.355,35 €",06-08-2018,01-08-2018,20 dias,"Portugal, Lisboa, Lisboa","Artigo 24.º, n.º 1, alínea e), subalínea iii) do Código dos Contratos Públicos",,,,,,Não aplicável.,Não aplicável.,FALSE
Execução de empreitada da obra de adaptação das instalações sanitárias - Serviço de Hematologia e Transplantação de Medula - Internamento - Unidade de Transplantes de Medula Óssea (UTMO) - HSM - CHLN,Ajuste Direto Regime Geral,Empreitadas de obras públicas,"45232460-4, Obras de saneamento","Centro Hospitalar Lisboa Norte, E. P. E. (508481287)",C.E Gonçalves.Lda (508657520),"15.366,50 €",06-08-2018,13-07-2018,15 dias,"Portugal, Lisboa, Lisboa","Artigo 19.º, alínea d) do Código dos Contratos Públicos",,,,,,Não aplicável.,Não aplicável.,FALSE
Aquisição de,Ajuste Direto Regime Geral,Aquisição de bens móveis,"33190000-8, Dispositivos e produtos médicos variados","Centro Hospitalar Lisboa Norte, E. P. E. (508481287)","Boston Scientific Portugal - Dispositivos Médicos, Lda. (504988964)","14.520,00 €",03-08-2018,07-06-2018,1 dias,"Portugal, Lisboa, Lisboa","Artigo 24.º, n.º 1, alínea e), subalínea ii) do Código dos Contratos Públicos",,,,,,Não aplicável.,Não aplicável.,FALSE
MATERIAL PARA CIRURGIA PEDIATRICA,Ajuste Direto Regime Geral,Aquisição de bens móveis,"33140000-3, Material médico de consumo","Centro Hospitalar Lisboa Norte, E. P. E. (508481287)","JOHNSON & JOHNSON, LDA (500153370)","13.637,13 €",03-08-2018,27-03-2018,1 dias,"Portugal, Lisboa, Lisboa","Artigo 24.º, n.º 1, alínea e), subalínea ii) do Código dos Contratos Públicos",,,,,,Não aplicável.,Não aplicável.,FALSE
Aquisição de alcool 70% frs. 1 l,Ajuste Direto Regime Geral,Aquisição de bens móveis,"33690000-3, Medicamentos vários","Centro Hospitalar Lisboa Norte, E. P. E. (508481287)",PROCLINICA EQUIP E PRODUTOS CLINICOS LDA (500222665),"5.040,00 €",03-08-2018,03-08-2018,1 dias,"Portugal, Lisboa, Lisboa","Artigo 24.º, n.º 1, alínea e), subalínea ii) do Código dos Contratos Públicos",,,,,,Não aplicável.,Não aplicável.,FALSE
Aquisição de budesonido 3 mg caps. LM,Consulta Prévia,Aquisição de bens móveis,"33690000-3, Medicamentos vários","Centro Hospitalar Lisboa Norte, E. P. E. (508481287)","Laboratórios Vitória, SA (500162220)","122,22 €",03-08-2018,03-08-2018,1 dias,"Portugal, Lisboa, Lisboa",Artigo 27.º-A do Código dos Contratos Públicos,,,,,,Não aplicável.,Não aplicável.,FALSE
Aquisição de valproato de sodio comp. Ap 500 mg,Ao abrigo de acordo-quadro (art.º 259.º),Aquisição de bens móveis,"33690000-3, Medicamentos vários","Centro Hospitalar Lisboa Norte, E. P. E. (508481287)","Generis, SA (508107997)","267,00 €",03-08-2018,03-08-2018,1 dias,"Portugal, Lisboa, Lisboa",Artigo 259.º do Código dos Contratos Públicos,,,,,,2528670,"CP 2017/2 - Acordo Quadro para fornecimento de Medicamentos do Sistema Nervoso Cerebrospinal, exceto: anestésicos, relaxantes musculares, analgésicos, antipiréticos, antidepressivos e antipsicóticos  às Instituições e Serviços do Serviço Nacional de Saúde",FALSE
TUROCTOCOG ALFA INJ,Ajuste Direto Regime Geral,Aquisição de bens móveis,"33690000-3, Medicamentos vários","Centro Hospitalar Lisboa Norte, E. P. E. (508481287)","NOVO NORDISK-COM.PROD.FARMACEUTICOS, LDA (501485210)","12.462,80 €",03-08-2018,19-03-2018,287 dias,"Portugal, Lisboa, Lisboa","Artigo 24.º, n.º 1, alínea e), subalínea iii) do Código dos Contratos Públicos",,,,,,Não aplicável.,Não aplicável.,FALSE
Aquisição de medicamentos pemetrexedo 500 mg inj e pemetrexedo 100 mg inj. para o ano de 2018 - Cp. centralizada n.º 2018-45,Ajuste Direto Regime Geral,Aquisição de bens móveis,"33690000-3, Medicamentos vários","Centro Hospitalar Lisboa Norte, E. P. E. (508481287)","LILLY PORTUGAL-PROD.FARMACEUTICOS, LDA (500165602)","363.257,28 €",03-08-2018,03-08-2018,181 dias,"Portugal, Lisboa, Lisboa","Artigo 24.º, n.º 1, alínea e), subalínea ii) do Código dos Contratos Públicos",,,,,,Não aplicável.,Não aplicável.,FALSE
VIRUS EPSTEIN BARR CARGA VIRAL TESTE DET,Ajuste Direto Regime Geral,Aquisição de bens móveis,"33696000-5, Reagentes e meios de contraste","Centro Hospitalar Lisboa Norte, E. P. E. (508481287)",WERFEN PORTUGAL LDA. (501086110),"6.132,00 €",03-08-2018,07-06-2018,3 dias,"Portugal, Lisboa, Lisboa","Artigo 24.º, n.º 1, alínea e), subalínea ii) do Código dos Contratos Públicos",,,,,,Não aplicável.,Não aplicável.,FALSE
PRÓTESE VALV.AORTICA PERC.EXPA.SUPRA ANU,Ajuste Direto Regime Geral,Aquisição de bens móveis,"33190000-8, Dispositivos e produtos médicos variados","Centro Hospitalar Lisboa Norte, E. P. E. (508481287)","MEDTRONIC PORTUGAL, LDA. (504223933)","66.000,00 €",03-08-2018,13-03-2018,1 dias,"Portugal, Lisboa, Lisboa","Artigo 24.º, n.º 1, alínea e), subalínea ii) do Código dos Contratos Públicos",,,,,,Não aplicável.,Não aplicável.,FALSE
Aquisição de ácidos gordos hiperoxigenados Spray,Ao abrigo de acordo-quadro (art.º 259.º),Aquisição de bens móveis,"33690000-3, Medicamentos vários","Centro Hospitalar Lisboa Norte, E. P. E. (508481287)","B. Braun Medical, Lda. (501506543)","291,00 €",03-08-2018,03-08-2018,1 dias,"Portugal, Lisboa, Lisboa",Artigo 259.º do Código dos Contratos Públicos,,,,,,1315192,Acordo Quadro para fornecimento de material de penso de efeito terapêutico às Instituições e Serviços do Serviço Nacional de Saúde,FALSE
Aquisição de folinato de cálcio inj. 300 mg/30 ml amp.,Ajuste Direto Regime Geral,Aquisição de bens móveis,"33690000-3, Medicamentos vários","Centro Hospitalar Lisboa Norte, E. P. E. (508481287)",TEVA Pharma - Produtos Farmacêuticos (507045491),"5.070,00 €",03-08-2018,03-08-2018,1 dias,"Portugal, Lisboa, Lisboa","Artigo 24.º, n.º 1, alínea e), subalínea ii) do Código dos Contratos Públicos",,,,,,Não aplicável.,Não aplicável.,FALSE
IMUNOGLOBULINA 50 MG/ML SOL INJ FR 200 M,Ajuste Direto Regime Geral,Aquisição de bens móveis,"33690000-3, Medicamentos vários","Centro Hospitalar Lisboa Norte, E. P. E. (508481287)",Kedrion Portugal (508472830),"50.400,00 €",02-08-2018,07-03-2018,2 dias,"Portugal, Lisboa, Lisboa","Artigo 24.º, n.º 1, alínea e), subalínea ii) do Código dos Contratos Públicos",,,,,,Não aplicável.,Não aplicável.,FALSE
Aquisição de serviços de reparação de 1 (um) videocolonoscópio - serviço de Gastrenterologia e hepatologia - MCDT's - Unidade de Técnicas de Gastrenterologia e Hepatologia - CHLN- HSM,Ajuste Direto Regime Geral,Aquisição de serviços,"50421000-2, Serviços de reparação e manutenção de equipamento médico","Centro Hospitalar Lisboa Norte, E. P. E. (508481287)",OLYMPUS IBERIA (980474710),"6.601,90 €",01-08-2018,01-08-2018,30 dias,"Portugal, Lisboa, Lisboa","Artigo 24.º, n.º 1, alínea e), subalínea iii) do Código dos Contratos Públicos",,,,,,Não aplicável.,Não aplicável.,FALSE
