Objeto do Contrato,Tipo de Procedimento,Tipo(s) de Contrato,CPVs,Entidade(s) Adjudicante(s),Entidade(s) Adjudicatária(s),Preço Contratual,Data de Publicação,Data de Celebração do Contrato,Prazo de Execução,Local de Execução,Fundamentação,Data de Fecho do Contrato,Preço Total Efetivo,Causas das Alterações ao Prazo,Causas das Alterações ao Preço,Estado,N.º registo do Acordo Quadro,Descrição do Acordo Quadro,Procedimento Centralizado
Aquisição de reagentes,Concurso público,Aquisição de bens móveis,"33696200-7, Reagentes para análises ao sangue","Hospital do Espírito Santo de Évora, E.P.E. (508085888)",Johnson & Johnson Lda (500153370),"327.958,00 €",29-01-2014,13-01-2014,365 dias,"Portugal, Évora, Évora","Artigo 20.º, n.º 1, alínea b) do Código dos Contratos Públicos",,,,,,Não aplicável.,Não aplicável.,FALSE
"Transporte doentes, Campus hospitalar",Concurso público,Aquisição de serviços,"85143000-3, Serviços de ambulâncias","Hospital do Espírito Santo de Évora, E. P. E. (508085888)","Salvavida, Transporte de Doentes, Lda (506532160)","49.998,00 €",28-01-2014,23-12-2013,365 dias,"Portugal, Évora, Évora","Artigo 20.º, n.º 1, alínea b) do Código dos Contratos Públicos",,,,,,Não aplicável.,Não aplicável.,FALSE
Aquisição de DM para colheita de sangue,Ajuste Direto Regime Geral,Aquisição de bens móveis,"33194000-6, Material para transfusão e perfusão","Hospital do Espírito Santo de Évora, E. P. E. (508085888)",MENARINI DIAGNOSTICOS LDA                          (502610069),"81.600,00 €",27-01-2014,23-01-2014,180 dias,"Portugal, Évora, Estremoz","Artigo 27.º, n.º 1, alínea a) do Código dos Contratos Públicos",,,,,,Não aplicável.,Não aplicável.,FALSE
Aquisição de próteses do joelho,Ajuste Direto Regime Geral,Aquisição de bens móveis,"33183200-8, Próteses ortopédicas","Hospital do Espírito Santo de Évora, E. P. E. (508085888)",BIOMET PORTUGAL UNIPESSOAL LDA                     (500254990),"68.800,00 €",27-01-2014,16-01-2014,180 dias,"Portugal, Évora, Évora","Artigo 27.º, n.º 1, alínea a) do Código dos Contratos Públicos",,,,,,Não aplicável.,Não aplicável.,FALSE
Aquisição de Próteses da Anca e Bipolares,Ajuste Direto Regime Geral,Aquisição de bens móveis,"33183200-8, Próteses ortopédicas","Hospital do Espírito Santo de Évora, E. P. E. (508085888)",BIOMET PORTUGAL UNIPESSOAL LDA                     (500254990),"35.175,00 €",27-01-2014,16-01-2014,180 dias,"Portugal, Évora, Évora","Artigo 27.º, n.º 1, alínea a) do Código dos Contratos Públicos",,,,,,Não aplicável.,Não aplicável.,FALSE
"Aquisição de MCDT, relatório de EEG",Ajuste Direto Regime Geral,Aquisição de serviços,"85121200-5, Serviços de medicina especializada","Hospital do Espírito Santo de Évora, E. P. E. (508085888)",LUIS GUERRA LDA                                    (501271635),"9.999,00 €",27-01-2014,14-01-2014,365 dias,"Portugal, Lisboa, Lisboa","Artigo 20.º, n.º 1, alínea a) do Código dos Contratos Públicos",,,,,,Não aplicável.,Não aplicável.,FALSE
"Aquisição de MCDT, estudos eletromiográficos",Ajuste Direto Regime Geral,Aquisição de serviços,"85121200-5, Serviços de medicina especializada","Hospital do Espírito Santo de Évora, E. P. E. (508085888)",FISIEVE - CENTRO MED FIS REAB DE ÉVORA LDA         (500991057),"21.125,00 €",27-01-2014,10-01-2014,365 dias,"Portugal, Évora, Évora","Artigo 20.º, n.º 1, alínea a) do Código dos Contratos Públicos",,,,,,Não aplicável.,Não aplicável.,FALSE
Aquisição de reagentes para rastreio pré natal,Concurso público,Aquisição de bens móveis,"33696200-7, Reagentes para análises ao sangue","Hospital do Espírito Santo de Évora, E.P.E. (508085888)",ROCHE SISTEMAS DIAGNOSTICOS LDA                    (504282921),"34.140,00 €",27-01-2014,15-01-2014,365 dias,"Portugal, Évora, Évora","Artigo 20.º, n.º 1, alínea b) do Código dos Contratos Públicos",,,,,,Não aplicável.,Não aplicável.,FALSE
