Objeto do Contrato,Tipo de Procedimento,Tipo(s) de Contrato,CPVs,Entidade(s) Adjudicante(s),Entidade(s) Adjudicatária(s),Preço Contratual,Data de Publicação,Data de Celebração do Contrato,Prazo de Execução,Local de Execução,Fundamentação,Data de Fecho do Contrato,Preço Total Efetivo,Causas das Alterações ao Prazo,Causas das Alterações ao Preço,Estado,N.º registo do Acordo Quadro,Descrição do Acordo Quadro,Procedimento Centralizado
"FORNECIMENTO, INSTALAÇÃO E CONFIGURAÇÃO DE SOLUÇÃO DE CORE DE REDE",Ajuste Direto Regime Geral,Aquisição de bens móveis,"32400000-7, Redes","Centro Hospitalar do Baixo Vouga, E. P. E. (510123210)","WARPCOM SERVICES, SA (505134195)","59.306,20 €",26-04-2017,31-03-2017,60 dias,"Portugal, Aveiro, Aveiro","Artigo 20.º, n.º 1, alínea a) do Código dos Contratos Públicos",30-06-2017,"59.306,20 €",,,,Não aplicável.,Não aplicável.,FALSE
AQUISIÇÃO CABEÇA DE CÂMARA P/TORRE LAPAROSCOPIA KARL STORZ -B.O. CIRURGIA,Ajuste Direto Regime Geral,Aquisição de bens móveis,"33160000-9, Técnicas cirúrgicas","Centro Hospitalar do Baixo Vouga, E.P.E. (510123210)","Teprel - Equipamentos Médicos, SA. (502262184)","586,00 €",26-04-2017,21-04-2017,45 dias,"Portugal, Aveiro, Aveiro","Artigo 24.º, n.º 1, alínea e) do Código dos Contratos Públicos",28-04-2017,"586,00 €",,,,Não aplicável.,Não aplicável.,FALSE
PERIFÉRICOS E ACESSÓRIOS,Ao abrigo de acordo-quadro (art.º 259.º),Aquisição de bens móveis,"30230000-0, Equipamento informático","Centro Hospitalar do Baixo Vouga, E.P.E. (510123210)","ITEN SOLUTIONS-Sistemas de Informação, S.A. (510728189)","277,90 €",21-04-2017,13-03-2017,30 dias,"Portugal, Aveiro, Aveiro",Artigo 259.º do Código dos Contratos Públicos,16-03-2017,"277,90 €",,,,1196657,Acordo Quadro para aquisição e aluguer operacional de equipamento informático,TRUE
COMPUTADORES PORTÁTEIS LEVE,Ao abrigo de acordo-quadro (art.º 259.º),Aquisição de bens móveis,"30230000-0, Equipamento informático","Centro Hospitalar do Baixo Vouga, E.P.E. (510123210)",Basedois Lda (501333401),"6.550,00 €",21-04-2017,13-03-2017,30 dias,"Portugal, Aveiro, Aveiro",Artigo 259.º do Código dos Contratos Públicos,23-06-2017,"6.550,00 €",,,,1196657,Acordo Quadro para aquisição e aluguer operacional de equipamento informático,TRUE
Computadores de secretária avançado,Ao abrigo de acordo-quadro (art.º 259.º),Aquisição de bens móveis,"30230000-0, Equipamento informático","Centro Hospitalar do Baixo Vouga, E.P.E. (510123210)",Basedois Lda (501333401),"37.770,00 €",21-04-2017,03-03-2017,30 dias,"Portugal, Aveiro, Aveiro",Artigo 259.º do Código dos Contratos Públicos,03-07-2017,"37.770,00 €",,,,1196657,Acordo Quadro para aquisição e aluguer operacional de equipamento informático,TRUE
