Objeto do Contrato,Tipo de Procedimento,Tipo(s) de Contrato,CPVs,Entidade(s) Adjudicante(s),Entidade(s) Adjudicatária(s),Preço Contratual,Data de Publicação,Data de Celebração do Contrato,Prazo de Execução,Local de Execução,Fundamentação,Data de Fecho do Contrato,Preço Total Efetivo,Causas das Alterações ao Prazo,Causas das Alterações ao Preço,Estado,N.º registo do Acordo Quadro,Descrição do Acordo Quadro,Procedimento Centralizado
Aquisição de fixadores e reveladores de RX para Satarem,Ajuste Direto Regime Geral,Aquisição de bens móveis,"24931230-0, Reveladores de raios X","Administração Regional de Saúde de Lisboa e Vale do Tejo, I.P. (503148776)",CARESTREAM HEALTH PORTUGAL (508054320),"632,25 €",21-06-2011,17-06-2011,180 dias,"Portugal, Lisboa, Lisboa","Artigo 24.º, n.º 1, alínea e) do Código dos Contratos Públicos","","",,,,Não aplicável.,Não aplicável.,
Aquisição de Manitol Injectavel 200mg/ml - 500ml,Ajuste Direto Regime Geral,Aquisição de bens móveis,"33690000-3, Medicamentos vários","Administração Regional de Saúde de Lisboa e Vale do Tejo, I.P. (503148776)","B Braun Medical, Lda (501506543)","1.654,56 €",20-06-2011,31-05-2011,5 dias,"Portugal, Lisboa, Lisboa","Artigo 26.º, n.º 1, alínea e) do Código dos Contratos Públicos","","",,,,Não aplicável.,Não aplicável.,
Aquisição de mobiliário médico para a USF Delta.,Ajuste Direto Regime Geral,Aquisição de serviços,"39100000-3, Mobiliário","Administração Regional de Saúde de Lisboa e Vale do Tejo, I.P. (503148776)","Julcar, SA (501140263)","6.404,00 €",20-06-2011,14-06-2011,30 dias,"Portugal, Lisboa, Oeiras","Artigo 1.º do Decreto-Lei n.º 48/2008, de 13.03","","",,,,Não aplicável.,Não aplicável.,
"Instalação, ligação e programação da central telefónica na UCSP do Entroncamento",Ajuste Direto Regime Geral,Aquisição de bens móveis,"48510000-6, Pacote de software para comunicações","Administração Regional de Saúde de Lisboa e Vale do Tejo, I.P. (503148776)","Ribatel - Equipamentos de telecomunicações, Lda (501927069)","5.100,38 €",20-06-2011,27-05-2011,5 dias,"Portugal, Santarém, Entroncamento","Artigo 20.º, n.º 1, alínea a) do Código dos Contratos Públicos",27-05-2011,"5.100,38 €",,,,Não aplicável.,Não aplicável.,
Aquisição de equipamento médico para a USF Cidadela,Ajuste Direto Regime Geral,Aquisição de serviços,"33100000-1, Equipamento médico","Administração Regional de Saúde de Lisboa e Vale do Tejo, I.P. (503148776)","Metalmédica, Lda (503358991)","1.154,30 €",20-06-2011,30-05-2011,30 dias,"Portugal, Lisboa, Cascais","Artigo 1.º do Decreto-Lei n.º 48/2008, de 13.03","","",,,,Não aplicável.,Não aplicável.,
Aquisição de equipamento hoteleiro para a USF Cidadela,Ajuste Direto Regime Geral,Aquisição de serviços,"39711100-0, Frigoríficos e congeladores","Administração Regional de Saúde de Lisboa e Vale do Tejo, I.P. (503148776)","Alves e Grilo, SA (500458014)","188,00 €",20-06-2011,07-06-2011,30 dias,"Portugal, Lisboa, Cascais","Artigo 1.º do Decreto-Lei n.º 48/2008, de 13.03","","",,,,Não aplicável.,Não aplicável.,
Aquisição de equipameno médico para a USF Arco-Iris,Ajuste Direto Regime Geral,Aquisição de serviços,"33100000-1, Equipamento médico","Administração Regional de Saúde de Lisboa e Vale do Tejo, I.P. (503148776)","APH, Lda (505847019)","6.488,49 €",20-06-2011,30-05-2011,30 dias,"Portugal, Lisboa, Amadora","Artigo 1.º do Decreto-Lei n.º 48/2008, de 13.03","","",,,,Não aplicável.,Não aplicável.,
Aquisição de equipmanto médico para a USF Cidadela,Ajuste Direto Regime Geral,Aquisição de serviços,"33100000-1, Equipamento médico","Administração Regional de Saúde de Lisboa e Vale do Tejo, I.P. (503148776)",Promei Centro (506470113),"1.895,50 €",20-06-2011,06-06-2011,30 dias,"Portugal, Lisboa, Cascais","Artigo 1.º do Decreto-Lei n.º 48/2008, de 13.03","","",,,,Não aplicável.,Não aplicável.,
Aquisição de equipamento médico para a USF Delta,Ajuste Direto Regime Geral,Aquisição de serviços,"33100000-1, Equipamento médico","Administração Regional de Saúde de Lisboa e Vale do Tejo, I.P. (503148776)",M.I. Medical Import (506662055),"3.025,00 €",20-06-2011,27-05-2011,30 dias,"Portugal, Lisboa, Oeiras","Artigo 1.º do Decreto-Lei n.º 48/2008, de 13.03","","",,,,Não aplicável.,Não aplicável.,
Aquisição de equipamento médico para a USF Delta,Ajuste Direto Regime Geral,Aquisição de serviços,"33100000-1, Equipamento médico","Administração Regional de Saúde de Lisboa e Vale do Tejo, I.P. (503148776)","Sano-Tecnica, Lda (500239819)","70,00 €",20-06-2011,30-05-2011,30 dias,"Portugal, Lisboa, Oeiras","Artigo 1.º do Decreto-Lei n.º 48/2008, de 13.03","","",,,,Não aplicável.,Não aplicável.,
Aquisição de equipamento médico para a USF Delta,Ajuste Direto Regime Geral,Aquisição de serviços,"33100000-1, Equipamento médico","Administração Regional de Saúde de Lisboa e Vale do Tejo, I.P. (503148776)","Meditrónica, Lda (506602214)","478,00 €",17-06-2011,27-05-2011,30 dias,"Portugal, Lisboa, Oeiras","Artigo 1.º do Decreto-Lei n.º 48/2008, de 13.03","","",,,,Não aplicável.,Não aplicável.,
Aquisição de equipamento médico para a USF Cidadela - Cascais,Ajuste Direto Regime Geral,Aquisição de serviços,"33100000-1, Equipamento médico","Administração Regional de Saúde de Lisboa e Vale do Tejo, I.P. (503148776)","Eugenio Pereira, Lda (503989525)","941,00 €",17-06-2011,27-05-2011,30 dias,"Portugal, Lisboa, Cascais","Artigo 1.º do Decreto-Lei n.º 48/2008, de 13.03","","",,,,Não aplicável.,Não aplicável.,
Aquisição de equipamento/mobilário médico para a USF Cidadela - ACES Cascais,Ajuste Direto Regime Geral,Aquisição de serviços,"33000000-0, Equipamento médico, medicamentos e produtos para cuidados pessoais","Administração Regional de Saúde de Lisboa e Vale do Tejo, I.P. (503148776)","Fluxograma, SA (500696667)","15.233,00 €",17-06-2011,27-05-2011,30 dias,"Portugal, Lisboa, Cascais","Artigo 1.º do Decreto-Lei n.º 48/2008, de 13.03","","",,,,Não aplicável.,Não aplicável.,
Aquisição de equipamento de laboratorio para a USF Cidadela - Cascais,Ajuste Direto Regime Geral,Aquisição de serviços,"33000000-0, Equipamento médico, medicamentos e produtos para cuidados pessoais","Administração Regional de Saúde de Lisboa e Vale do Tejo, I.P. (503148776)","Frilabo II, Lda (507958861)","1.100,00 €",17-06-2011,27-05-2011,30 dias,"Portugal, Lisboa, Cascais","Artigo 1.º do Decreto-Lei n.º 48/2008, de 13.03","","",,,,Não aplicável.,Não aplicável.,
Aquisição de equipamento de imagiologia para a USF ARS Médica,Ajuste Direto Regime Geral,Aquisição de serviços,"33000000-0, Equipamento médico, medicamentos e produtos para cuidados pessoais","Administração Regional de Saúde de Lisboa e Vale do Tejo, I.P. (503148776)",M.M.Cunha (507374843),"1.335,00 €",17-06-2011,14-06-2011,30 dias,"Portugal, Lisboa, Loures","Artigo 1.º do Decreto-Lei n.º 48/2008, de 13.03","","",,,,Não aplicável.,Não aplicável.,
Aquisição de equipamento médico para a USF Cidadela - ACES Cascais,Ajuste Direto Regime Geral,Aquisição de serviços,"33000000-0, Equipamento médico, medicamentos e produtos para cuidados pessoais","Administração Regional de Saúde de Lisboa e Vale do Tejo, I.P. (503148776)","Dignum Medical, Lda (509569188)","379,00 €",17-06-2011,01-06-2011,30 dias,"Portugal, Lisboa, Cascais","Artigo 1.º do Decreto-Lei n.º 48/2008, de 13.03","","",,,,Não aplicável.,Não aplicável.,
Aquisição de equipamento médico para a USF Cidadela - ACES Cascais,Ajuste Direto Regime Geral,Aquisição de serviços,"33000000-0, Equipamento médico, medicamentos e produtos para cuidados pessoais","Administração Regional de Saúde de Lisboa e Vale do Tejo, I.P. (503148776)","Eugenio Pereira, Lda (503989525)","2.015,30 €",17-06-2011,27-05-2011,30 dias,"Portugal, Lisboa, Cascais","Artigo 1.º do Decreto-Lei n.º 48/2008, de 13.03","","",,,,Não aplicável.,Não aplicável.,
Aquisição de equipamento médico para a USF Delta,Ajuste Direto Regime Geral,Aquisição de serviços,"33100000-1, Equipamento médico","Administração Regional de Saúde de Lisboa e Vale do Tejo, I.P. (503148776)","Emilio de Azevedo Campos, SA (500094853)","458,00 €",17-06-2011,27-05-2011,30 dias,"Portugal, Lisboa, Oeiras","Artigo 1.º do Decreto-Lei n.º 48/2008, de 13.03","","",,,,Não aplicável.,Não aplicável.,
Aquisiçãode Kit para citologia ginecologia em meio liquido,Ajuste Direto Regime Geral,Aquisição de bens móveis,"33690000-3, Medicamentos vários","Administração Regional de Saúde de Lisboa e Vale do Tejo, I.P. (503148776)",HOLOGIC IBERIA SL (980277230),"48.000,00 €",17-06-2011,07-06-2011,365 dias,"Portugal, Lisboa, Lisboa","Artigo 24.º, n.º 1, alínea e) do Código dos Contratos Públicos","","",,,,Não aplicável.,Não aplicável.,
Penso Rapido seco 10x36,Ajuste Direto Regime Geral,Aquisição de bens móveis,"33141110-4, Pensos","Administração Regional de Saúde de Lisboa e Vale do Tejo, I.P. (503148776)","Paul Hartmann, Lda (502271728)","5.920,00 €",17-06-2011,30-05-2011,365 dias,"Portugal, Lisboa, Lisboa","Artigo 26.º, n.º 1, alínea e) do Código dos Contratos Públicos","","",,,,Não aplicável.,Não aplicável.,
Aquisição de ofloxacina comp 200mg,Ajuste Direto Regime Geral,Aquisição de bens móveis,"33690000-3, Medicamentos vários","Administração Regional de Saúde de Lisboa e Vale do Tejo, I.P. (503148776)","Farmoz, SA (501505334)","228,80 €",17-06-2011,16-06-2011,2 dias,"Portugal, Lisboa, Lisboa","Artigo 26.º, n.º 1, alínea e) do Código dos Contratos Públicos","","",,,,Não aplicável.,Não aplicável.,
Aquisição de testes de qualidade e sensibilidade  - Laboratorio de Alcantara,Ajuste Direto Regime Geral,Aquisição de bens móveis,"33696500-0, Reagentes de laboratório","Administração Regional de Saúde de Lisboa e Vale do Tejo, I.P. (503148776)",Instituto Nacional de Saude Dr. Ricardo Jorge (501427511),"200,00 €",17-06-2011,16-06-2011,5 dias,"Portugal, Lisboa, Lisboa","Artigo 24.º, n.º 1, alínea e) do Código dos Contratos Públicos","","",,,,Não aplicável.,Não aplicável.,
Material de consumo hoteleiro - detergentes para ferros,Ajuste Direto Regime Geral,Aquisição de bens móveis,"39831200-8, Detergentes","Administração Regional de Saúde de Lisboa e Vale do Tejo, I.P. (503148776)","Veisil - A. Mendes da Silva, Lda. (502064080)","14.785,50 €",17-06-2011,16-05-2011,20 dias,"Portugal, Lisboa, Lisboa","Artigo 24.º, n.º 1, alínea e) do Código dos Contratos Públicos","","",,,,Não aplicável.,Não aplicável.,
"Assistência técnica aos elevadores sitos no ACES XV - Arco Ribeirinho, para o ano de 2011.",Ajuste Direto Regime Geral,Aquisição de serviços,"98390000-3, Outros serviços","Administração Regional de Saúde de Lisboa e Vale do Tejo, I.P. (503148776)","Otis- Elevadores, Lda (500069824)","10.921,15 €",17-06-2011,02-06-2011,365 dias,"Portugal, Lisboa, Sintra","Artigo 24.º, n.º 1, alínea e) do Código dos Contratos Públicos","","",,,,Não aplicável.,Não aplicável.,
Aquisição de material de consumo hoteleiro - consumíveis estomatologia,Ajuste Direto Regime Geral,Aquisição de bens móveis,"33131300-0, Material odontológico descartável","Administração Regional de Saúde de Lisboa e Vale do Tejo, I.P. (503148776)",Meilex Lda. (501759441),"11.445,10 €",17-06-2011,18-05-2011,20 dias,"Portugal, Lisboa, Lisboa","Artigo 20.º, n.º 1, alínea a) do Código dos Contratos Públicos","","",,,,Não aplicável.,Não aplicável.,
"Aquisição de Serviços de Mudanças e Distribuição para os Centros de Saúde do âmbito de influência da ARSLVT, IP e Serviços da Sede, para o mês de Janeiro a Junho de 2011.",Ajuste Direto Regime Geral,Aquisição de serviços,"98390000-3, Outros serviços","Administração Regional de Saúde de Lisboa e Vale do Tejo, I.P. (503148776)","Transportes Barata & Carvalho, Lda. (500425299)","172.200,00 €",16-06-2011,15-06-2011,180 dias,"Portugal, Lisboa, Lisboa","Artigo 24.º, n.º 1, alínea e) do Código dos Contratos Públicos","","",,,,Não aplicável.,Não aplicável.,
"Aluguer de empilhador e operador para as instalações da ARSLVT, IP  no período de Janeiro a Dezembro de 2011.",Ajuste Direto Regime Geral,Aquisição de serviços,"98390000-3, Outros serviços","Administração Regional de Saúde de Lisboa e Vale do Tejo, I.P. (503148776)","Transportes Barata & Carvalho, Lda. (500425299)","21.252,00 €",16-06-2011,15-06-2011,365 dias,"Portugal, Lisboa, Lisboa","Artigo 20.º, n.º 1, alínea a) do Código dos Contratos Públicos","","",,,,Não aplicável.,Não aplicável.,
Aquisição de Matriz River e Padrões para LSP Setúbal,Ajuste Direto Regime Geral,Aquisição de bens móveis,"33696500-0, Reagentes de laboratório","Administração Regional de Saúde de Lisboa e Vale do Tejo, I.P. (503148776)",ILC - Instrumentos de Laboratório Cientificos LDA. (500948208),"409,00 €",15-06-2011,25-05-2011,30 dias,"Portugal, Lisboa, Lisboa","Artigo 24.º, n.º 1, alínea e) do Código dos Contratos Públicos","","",,,,Não aplicável.,Não aplicável.,
Aquisição de serviços de vigilância e segurança - ACES XVII Oeste I - Oeste Norte. Periodo de 01/01/2011 a 31/12/2011,Ajuste Direto Regime Geral,Aquisição de serviços,"79714000-2, Serviços de vigilância","Administração Regional de Saúde de Lisboa e Vale do Tejo, I.P. (503148776)","Securitas, SA (500243719)","23.468,88 €",15-06-2011,30-05-2011,365 dias,"Portugal, Leiria, Bombarral","Artigo 24.º, n.º 1, alínea e) do Código dos Contratos Públicos","","",,,,Não aplicável.,Não aplicável.,
Aquisição de serviços de vigilância e segurança - ACES XV Peninsula de Setubal - Arco Ribeirinho. Periodo de 01/01/2011 a 31/12/2011,Ajuste Direto Regime Geral,Aquisição de serviços,"79714000-2, Serviços de vigilância","Administração Regional de Saúde de Lisboa e Vale do Tejo, I.P. (503148776)","Prestibel, SA (501326456)","35.760,00 €",15-06-2011,26-05-2011,365 dias,"Portugal, Setúbal, Setúbal","Artigo 24.º, n.º 1, alínea e) do Código dos Contratos Públicos","","",,,,Não aplicável.,Não aplicável.,
Aquisição de serviços de vigilância e segurança - ACES XV Peninsula de Setúbal III - Arco Ribeirinho. Periodo de 01/01/2011 a 31/12/2011,Ajuste Direto Regime Geral,Aquisição de serviços,"79714000-2, Serviços de vigilância","Administração Regional de Saúde de Lisboa e Vale do Tejo, I.P. (503148776)","Securitas, SA (500243719)","47.724,00 €",15-06-2011,30-05-2011,365 dias,"Portugal, Setúbal, Barreiro","Artigo 24.º, n.º 1, alínea e) do Código dos Contratos Públicos","","",,,,Não aplicável.,Não aplicável.,
Aquisição de serviços de higiene e limpeza - ACES XV Peninsula de Setubal III - Arco Ribeirinho. Periodo de 03/01/2011 a 30/06/2011,Ajuste Direto Regime Geral,Aquisição de serviços,"90910000-9, Serviços de limpeza","Administração Regional de Saúde de Lisboa e Vale do Tejo, I.P. (503148776)","Ambiente e Jardim, Lda (503245178)","30.900,00 €",15-06-2011,20-05-2011,178 dias,"Portugal, Setúbal, Barreiro","Artigo 24.º, n.º 1, alínea e) do Código dos Contratos Públicos","","",,,,Não aplicável.,Não aplicável.,
Aquisição de serviços de vigilância e segurança - ACES XVI Peninsula de Setúbal IV - Setúbal/Palmela. Periodo de 03/01/2011 a 31/12/2011.,Ajuste Direto Regime Geral,Aquisição de serviços,"79714000-2, Serviços de vigilância","Administração Regional de Saúde de Lisboa e Vale do Tejo, I.P. (503148776)","Securitas, S.A. (500243719)","32.540,40 €",15-06-2011,30-05-2011,362 dias,"Portugal, Setúbal, Setúbal","Artigo 24.º, n.º 1, alínea e) do Código dos Contratos Públicos","","",,,,Não aplicável.,Não aplicável.,
Aquisição de serviços de higiene e limpeza - ACES XIII Peninsula de Setúbal - Almada. Periodo de 01/01/2011 a 30/06/2011,Ajuste Direto Regime Geral,Aquisição de serviços,"90910000-9, Serviços de limpeza","Administração Regional de Saúde de Lisboa e Vale do Tejo, I.P. (503148776)","Ambiente e Jardim, Lda (503245178)","187.200,00 €",15-06-2011,20-05-2011,180 dias,"Portugal, Setúbal, Almada","Artigo 24.º, n.º 1, alínea e) do Código dos Contratos Públicos","","",,,,Não aplicável.,Não aplicável.,
"Assistência Técnica ao elevador sito na ARSLVT na Av. EUA n.º 77, para o ano de 2011.",Ajuste Direto Regime Geral,Aquisição de serviços,"98390000-3, Outros serviços","Administração Regional de Saúde de Lisboa e Vale do Tejo, I.P. (503148776)","Otis Elevadores, Lda. (500069824)","540,87 €",14-06-2011,02-06-2011,365 dias,"Portugal, Lisboa, Sintra","Artigo 24.º, n.º 1, alínea e) do Código dos Contratos Públicos","","",,,,Não aplicável.,Não aplicável.,
"Aumento de Potenção com subtituição da ligação existente, em Baixa Tensão na Extenção de Saúde das Mónicas - ACES 2",Ajuste Direto Regime Geral,Aquisição de serviços,"98390000-3, Outros serviços","Administração Regional de Saúde de Lisboa e Vale do Tejo, I.P. (503148776)","EDP - Distribuição de Energia, S.A (504394029)","524,64 €",14-06-2011,06-06-2011,60 dias,"Portugal, Lisboa, Lisboa","Artigo 24.º, n.º 1, alínea e) do Código dos Contratos Públicos","","",,,,Não aplicável.,Não aplicável.,
Aquisição de serviços de higiene e limpeza - ACES Grande Lisboa VII - Sintra/Mafra. Periodo de 01/01/2011 a 30/06/2011,Ajuste Direto Regime Geral,Aquisição de serviços,"90910000-9, Serviços de limpeza","Administração Regional de Saúde de Lisboa e Vale do Tejo, I.P. (503148776)","Conforlimpa, SA (503172588)","52.560,48 €",14-06-2011,26-05-2011,180 dias,"Portugal, Lisboa, Mafra","Artigo 24.º, n.º 1, alínea e) do Código dos Contratos Públicos","","",,,,Não aplicável.,Não aplicável.,
"Aquisição de serviços de higiene e limpeza - Serviços Desconcentrados da ARSLVT, IP em Setúbal. Periodo de 03/01/2011 a 30/06/2011",Ajuste Direto Regime Geral,Aquisição de serviços,"90910000-9, Serviços de limpeza","Administração Regional de Saúde de Lisboa e Vale do Tejo, I.P. (503148776)","Conforlimpa, SA (503172588)","5.346,00 €",14-06-2011,26-05-2011,178 dias,"Portugal, Setúbal, Setúbal","Artigo 24.º, n.º 1, alínea e) do Código dos Contratos Públicos","","",,,,Não aplicável.,Não aplicável.,
"Diversas Reparações no Edifício da Sede da ARSLVT,IP com fornecimento de material - Fevereiro 2011",Ajuste Direto Regime Geral,Aquisição de serviços,"98390000-3, Outros serviços","Administração Regional de Saúde de Lisboa e Vale do Tejo, I.P. (503148776)","Estores 2001, Lda (505281309)","16.461,59 €",14-06-2011,31-05-2011,30 dias,"Portugal, Setúbal, Seixal","Artigo 24.º, n.º 1, alínea e) do Código dos Contratos Públicos","","",,,,Não aplicável.,Não aplicável.,
"Aquisição de uma prestação de serviços de higiene e limpeza - ACES I Grande Lisboa-Lisboa Norte (UCSP Benfica, UCSP Gerações, USF Luz, USF Rodrigues Migueis e USF Carnide Quer). Periodo de 03/01/2011 a 30/06/2011.",Ajuste Direto Regime Geral,Aquisição de serviços,"90910000-9, Serviços de limpeza","Administração Regional de Saúde de Lisboa e Vale do Tejo, I.P. (503148776)","Vivalisa, SA (502388536)","68.184,00 €",14-06-2011,26-04-2011,178 dias,"Portugal, Lisboa, Lisboa","Artigo 24.º, n.º 1, alínea e) do Código dos Contratos Públicos","","",,,,Não aplicável.,Não aplicável.,
Aquisição de serviços de vigilância e seguraça - ACES XXI Leziria I - Ribatejo (CS Rio Maior). Periodod de 01/01/2011 a 31/12/2011,Ajuste Direto Regime Geral,Aquisição de serviços,"79714000-2, Serviços de vigilância","Administração Regional de Saúde de Lisboa e Vale do Tejo, I.P. (503148776)",Grupo 8 (500131210),"24.360,00 €",14-06-2011,10-05-2011,365 dias,"Portugal, Santarém, Rio Maior","Artigo 24.º, n.º 1, alínea e) do Código dos Contratos Públicos","","",,,,Não aplicável.,Não aplicável.,
Aquisição de Flurbiprofeno Colirio,Ajuste Direto Regime Geral,Aquisição de bens móveis,"33662100-9, Medicamentos usados em oftalmologia","Administração Regional de Saúde de Lisboa e Vale do Tejo, I.P. (503148776)",Laboratorio Edol - Produtos Farmaceuticos SA (507072642),"510,40 €",14-06-2011,23-05-2011,365 dias,"Portugal, Lisboa, Lisboa","Artigo 24.º, n.º 1, alínea e) do Código dos Contratos Públicos","","",,,,Não aplicável.,Não aplicável.,
