Objeto do Contrato,Tipo de Procedimento,Tipo(s) de Contrato,CPVs,Entidade(s) Adjudicante(s),Entidade(s) Adjudicatária(s),Preço Contratual,Data de Publicação,Data de Celebração do Contrato,Prazo de Execução,Local de Execução,Fundamentação,Data de Fecho do Contrato,Preço Total Efetivo,Causas das Alterações ao Prazo,Causas das Alterações ao Preço,Estado,N.º registo do Acordo Quadro,Descrição do Acordo Quadro,Procedimento Centralizado
Aquisição Peça de Mão para Motor Compact Air Drive II,Ajuste Direto Regime Geral,Aquisição de bens móveis,"33100000-1, Equipamento médico","Hospital Distrital de Santarém, E. P. E. (506361462)","Johnson&Johnson, Lda (500153370)","5.889,00 €",29-08-2017,18-08-2017,5 dias,"Portugal, Santarém, Santarém","Artigo 26.º, n.º 1, alínea a) do Código dos Contratos Públicos",,,,,,Não aplicável.,Não aplicável.,FALSE
Consumíveis p/ equipamentos de ventilação e tosse assistida,Ajuste Direto Regime Geral,Aquisição de bens móveis,"33140000-3, Material médico de consumo","Hospital Distrital de Santarém, EPE (506361462)","Linde Saúde, Lda. (500125546)","24.645,00 €",28-08-2017,08-08-2017,153 dias,"Portugal, Santarém, Santarém","Artigo 26.º, n.º 1, alínea e) do Código dos Contratos Públicos",,,,,,Não aplicável.,Não aplicável.,FALSE
Ligaduras gessadas,Ajuste Direto Regime Geral,Aquisição de bens móveis,"33141126-9, Ligaduras","Hospital Distrital de Santarém, E. P. E. (506361462)","Paul Hartmann, Lda. (502271728)","8.800,00 €",24-08-2017,22-08-2017,130 dias,"Portugal, Santarém, Santarém","Artigo 20.º, n.º 1, alínea a) do Código dos Contratos Públicos",,,,,,Não aplicável.,Não aplicável.,FALSE
Aquisição de Aplicadores e Clips,Concurso público,Aquisição de bens móveis,"33140000-3, Material médico de consumo","Hospital Distrital de Santarém, E. P. E. (506361462)",JMV (501887148),"6.408,00 €",24-08-2017,22-08-2017,120 dias,"Portugal, Santarém, Santarém","Artigo 20.º, n.º 1, alínea b) do Código dos Contratos Públicos",,,,,,Não aplicável.,Não aplicável.,FALSE
Aquisição de Aplicadores e Clips,Concurso público,Aquisição de bens móveis,"33140000-3, Material médico de consumo","Hospital Distrital de Santarém, E. P. E. (506361462)","MEDTRONIC PORTUGAL, LDA. (504223933)","6.336,00 €",24-08-2017,22-08-2017,120 dias,"Portugal, Santarém, Santarém","Artigo 20.º, n.º 1, alínea b) do Código dos Contratos Públicos",,,,,,Não aplicável.,Não aplicável.,FALSE
Aquisição de Aplicadores e Clips,Concurso público,Aquisição de bens móveis,"33140000-3, Material médico de consumo","Hospital Distrital de Santarém, E. P. E. (506361462)",B. Braun (501506543),"9.360,00 €",24-08-2017,22-08-2017,120 dias,"Portugal, Santarém, Santarém","Artigo 20.º, n.º 1, alínea b) do Código dos Contratos Públicos",,,,,,Não aplicável.,Não aplicável.,FALSE
Prestação de Serviços de aluguer de equipamentos de ventilação e tosse assistida,Concurso público,Locação de bens móveis,"33100000-1, Equipamento médico","Hospital Distrital de Santarém, E. P. E. (506361462)","Linde Saúde, Lda (500125546)","15.147,00 €",23-08-2017,01-08-2017,153 dias,"Portugal, Santarém, Santarém","Artigo 20.º, n.º 1, alínea b) do Código dos Contratos Públicos",,,,,,Não aplicável.,Não aplicável.,FALSE
Prestação Serviços Médicos MCDT Imagiologia,Ajuste Direto Regime Geral,Aquisição de serviços,"85150000-5, Serviços de imagiologia médica","Hospital Distrital de Santarém, E. P. E. (506361462)","Manuel Esteves & Luis Frazão, Lda (500692181)","1.482,76 €",22-08-2017,17-08-2017,30 dias,"Portugal, Santarém, Santarém","Artigo 20.º, n.º 1, alínea a) do Código dos Contratos Públicos",,,,,,Não aplicável.,Não aplicável.,FALSE
Revisão\Execução de Projeto de Beneficiação do Serviço Medicina Fisica,Ajuste Direto Regime Geral,Empreitadas de obras públicas,"71541000-2, Serviços de gestão de projectos de construção","Hospital Distrital de Santarém, EPE (506361462)","JERFI - Projectos e Consultoria, Lda (504970445)","4.100,00 €",22-08-2017,17-08-2017,50 dias,"Portugal, Santarém, Santarém","Artigo 19.º, alínea a) do Código dos Contratos Públicos",,,,,,Não aplicável.,Não aplicável.,FALSE
Aquisição de pensos para queimados,Ajuste Direto Regime Geral,Aquisição de bens móveis,"33141110-4, Pensos","Hospital Distrital de Santarém, EPE (506361462)",Docworld (508592909),"1.600,00 €",22-08-2017,03-08-2017,120 dias,"Portugal, Santarém, Santarém","Artigo 20.º, n.º 1, alínea a) do Código dos Contratos Públicos",,,,,,Não aplicável.,Não aplicável.,FALSE
Material para Gastrenterologia - CPRE,Concurso público,Aquisição de bens móveis,"33140000-3, Material médico de consumo","Hospital Distrital de Santarém, E. P. E. (506361462)",Alves & Irmãos (500310068),"6.100,00 €",22-08-2017,26-07-2017,182 dias,"Portugal, Santarém, Santarém","Artigo 20.º, n.º 1, alínea b) do Código dos Contratos Públicos",,,,,,Não aplicável.,Não aplicável.,FALSE
Material para Gastrenterologia - CPRE,Concurso público,Aquisição de bens móveis,"33140000-3, Material médico de consumo","Hospital Distrital de Santarém, E. P. E. (506361462)",Olympus  (980474710),"3.800,00 €",22-08-2017,26-06-2017,182 dias,"Portugal, Santarém, Santarém<BR/>Portugal","Artigo 20.º, n.º 1, alínea b) do Código dos Contratos Públicos",,,,,,Não aplicável.,Não aplicável.,FALSE
Material para Gastrenterologia - CPRE,Concurso público,Aquisição de bens móveis,"33140000-3, Material médico de consumo","Hospital Distrital de Santarém, E. P. E. (506361462)","Biosonda, Comércio de Material Hospitalar, Lda (501463313)","24.643,00 €",22-08-2017,11-07-2017,182 dias,"Portugal, Santarém, Santarém","Artigo 20.º, n.º 1, alínea b) do Código dos Contratos Públicos",,,,,,Não aplicável.,Não aplicável.,FALSE
Material para Gastrenterologia - CPRE,Concurso público,Aquisição de bens móveis,"33140000-3, Material médico de consumo","Hospital Distrital de Santarém, E. P. E. (506361462)","Boston Scientifc Portugal, Dispositivos Médicos, Lda (504988964)","35.350,00 €",22-08-2017,11-07-2017,182 dias,"Portugal, Santarém, Santarém","Artigo 20.º, n.º 1, alínea b) do Código dos Contratos Públicos",,,,,,Não aplicável.,Não aplicável.,FALSE
MEDICAMENTOS,Ajuste Direto Regime Geral,Aquisição de bens móveis,"33000000-0, Equipamento médico, medicamentos e produtos para cuidados pessoais","Hospital Distrital de Santarém, E. P. E. (506361462)",OVERPHARMA PRODUTOS MEDICOS E FARMACEUTICOS LDA (505792362),"15.480,80 €",22-08-2017,01-03-2017,300 dias,"Portugal, Santarém, Santarém","Artigo 20.º, n.º 1, alínea a) do Código dos Contratos Públicos",,,,,,Não aplicável.,Não aplicável.,FALSE
Recolha e tratamento de resíduos não incluídos concurso público,Ajuste Direto Regime Geral,Aquisição de serviços,"90511000-2, Serviços de recolha de resíduos","Hospital Distrital de Santarém, E. P. E. (506361462)","Ambimed, Gestão Ambiental, Lda (503593427)","501,44 €",22-08-2017,16-08-2017,30 dias,"Portugal, Santarém, Santarém","Artigo 20.º, n.º 1, alínea a) do Código dos Contratos Públicos",,,,,,Não aplicável.,Não aplicável.,FALSE
