Objeto do Contrato,Tipo de Procedimento,Tipo(s) de Contrato,CPVs,Entidade(s) Adjudicante(s),Entidade(s) Adjudicatária(s),Preço Contratual,Data de Publicação,Data de Celebração do Contrato,Prazo de Execução,Local de Execução,Fundamentação,Data de Fecho do Contrato,Preço Total Efetivo,Causas das Alterações ao Prazo,Causas das Alterações ao Preço,Estado,N.º registo do Acordo Quadro,Descrição do Acordo Quadro,Procedimento Centralizado
Fornecimento e Montagem de Central Telefónica,Ajuste Direto Regime Geral,Aquisição de bens móveis,"32551200-2, Centrais telefónicas","Administração Regional de Saúde do Algarve, I.P. (503148709)","TELE-SUL Comércio Equip. Telefónicos, Lda. (501560122)","8.900,00 €",11-12-2012,11-12-2012,30 dias,"Portugal, Faro, Loulé","Artigo 24.º, n.º 1, alínea c) do Código dos Contratos Públicos",,,,,,Não aplicável.,Não aplicável.,
"Prestação de serviços de controlo da qualidade no âmbito laboratorial, mediante inscrição do Laboratório Regional de Saúde Pública em ensaios específicos.",Ajuste Direto Regime Geral,Aquisição de serviços,"71900000-7, Serviços laboratoriais","Administração Regional de Saúde do Algarve, I.P. (503148709)","Instituto Nacional de Saúde Doutor Ricardo Jorge, I.P. (501427511)","2.765,00 €",11-12-2012,15-11-2012,46 dias,"Portugal, Faro","Artigo 24.º, n.º 1, alínea b) do Código dos Contratos Públicos",,,,,,Não aplicável.,Não aplicável.,
Equipamento médico para o novo CS de Portimão,Ajuste Direto Regime Geral,Aquisição de bens móveis,"33100000-1, Equipamento médico","Administração Regional de Saúde do Algarve, I.P. (503148709)",Remeditec Importação e Comercialização de Equipamentos de Saúde SA (505086344),"30.664,33 €",07-12-2012,05-12-2012,30 dias,"Portugal, Faro, Portimão","Artigo 20.º, n.º 1, alínea a) do Código dos Contratos Públicos",,,,,,Não aplicável.,Não aplicável.,
Empreitada de Trabalhos Complementares e Infraestruturas do Centro de Saúde de Portimão,Ajuste Direto Regime Geral,Concessão de obras públicas,"45450000-6, Outras obras de acabamento de edifícios","Administração Regional de Saúde do Algarve, I.P. (503148709)","CONSTROPE - CONGEVIA, ENGENHARIA E CONSTRUÇÃO, S.A. (502828110)","39.925,05 €",07-12-2012,07-12-2012,30 dias,"Portugal, Faro, Portimão","Artigo 19.º, alínea a) do Código dos Contratos Públicos",,,,,,Não aplicável.,Não aplicável.,
Mobiliário Hospitalar para o novo Centro de Saúde de Portimão,Ajuste Direto Regime Geral,Aquisição de bens móveis,"33192000-2, Mobiliário para fins médicos","Administração Regional de Saúde do Algarve, I.P. (503148709)",Iberdata Equipamentos SA (501904921),"40.745,50 €",06-12-2012,05-12-2012,30 dias,"Portugal, Faro, Portimão","Artigo 20.º, n.º 1, alínea a) do Código dos Contratos Públicos",,,,,,Não aplicável.,Não aplicável.,
