Objeto do Contrato,Tipo de Procedimento,Tipo(s) de Contrato,CPVs,Entidade(s) Adjudicante(s),Entidade(s) Adjudicatária(s),Preço Contratual,Data de Publicação,Data de Celebração do Contrato,Prazo de Execução,Local de Execução,Fundamentação,Data de Fecho do Contrato,Preço Total Efetivo,Causas das Alterações ao Prazo,Causas das Alterações ao Preço,Estado,N.º registo do Acordo Quadro,Descrição do Acordo Quadro,Procedimento Centralizado
Aquisição de material clinico,Ajuste Direto Regime Geral,Aquisição de bens móveis,"33000000-0, Equipamento médico, medicamentos e produtos para cuidados pessoais","Administração Regional de Saúde do Centro, I. P. (503122165)",Vitalcare-Dentaria lda (505381206),"2.421,13 €",27-01-2014,20-01-2014,60 dias,"Portugal, Leiria, Leiria","Artigo 20.º, n.º 1, alínea a) do Código dos Contratos Públicos","","",,,,Não aplicável.,Não aplicável.,FALSE
Aquisição de medicamentos,Ajuste Direto Regime Geral,Aquisição de bens móveis,"33000000-0, Equipamento médico, medicamentos e produtos para cuidados pessoais","Administração Regional de Saúde do Centro, I. P. (503122165)",Labesfal Laboratorios Almiro (501169580),"16.724,50 €",27-01-2014,13-01-2014,180 dias,"Portugal, Coimbra, Coimbra","Artigo 24.º, n.º 1, alínea e) do Código dos Contratos Públicos","","",,,,Não aplicável.,Não aplicável.,FALSE
Aquisição de medicamentos,Ao abrigo de acordo-quadro (art.º 259.º),Aquisição de bens móveis,"33000000-0, Equipamento médico, medicamentos e produtos para cuidados pessoais","Administração Regional de Saúde do Centro, I. P. (503122165)",Laboratório Medinfar (500384045),"6.325,00 €",27-01-2014,27-01-2014,120 dias,"Portugal, Coimbra, Coimbra",Artigo 259.º do Código dos Contratos Públicos,"","",,,,602875,"CONCURSO PÚBLICO PARA A CELEBRAÇÃO DE CONTRATOS PÚBLICOS DE APROVISIONAMENTO PARA A ÁREA DA SAÚDE, COM VISTA AO FORNECIMENTO DE MEDICAMENTOS DE CONSUMO GERAL - USADOS NAS AFECÇÕES CUTÂNEAS, ÀS INSTITUIÇÕES E SERVIÇOS DO SERVIÇO NACIONAL DE SAÚDE",FALSE
Aquisição de medicamentos,Ao abrigo de acordo-quadro (art.º 259.º),Aquisição de bens móveis,"33000000-0, Equipamento médico, medicamentos e produtos para cuidados pessoais","Administração Regional de Saúde do Centro, I. P. (503122165)",Sanofi -Produtos Farmaceuticos (500134960),"14.552,40 €",27-01-2014,21-01-2014,120 dias,"Portugal, Coimbra, Coimbra",Artigo 259.º do Código dos Contratos Públicos,"","",,,,455180,"CONCURSO PÚBLICO PARA A CELEBRAÇÃO DE CONTRATOS PÚBLICOS DE APROVISIONAMENTO PARA A ÁREA DA SAÚDE, COM VISTA AO FORNECIMENTO DE MEDICAMENTOS ANTI-INFECIOSOS: ANTIVÍRICOS E ANTIFÚNGICOS, ÀS INSTITUIÇÕES E SERVIÇOS DO SERVIÇO NACIONAL DE SAÚDE  ",FALSE
Aquisição de medicamentos,Ao abrigo de acordo-quadro (art.º 259.º),Aquisição de bens móveis,"33000000-0, Equipamento médico, medicamentos e produtos para cuidados pessoais","Administração Regional de Saúde do Centro, I. P. (503122165)",Kvtech Portugal (508671531),"116.490,00 €",27-01-2014,22-01-2014,120 dias,"Portugal, Coimbra, Coimbra",Artigo 259.º do Código dos Contratos Públicos,"","",,,,552526,"CONCURSO PÚBLICO PARA A CELEBRAÇÃO DE CONTRATOS PÚBLICOS DE APROVISIONAMENTO PARA A ÁREA DA SAÚDE, COM VISTA AO FORNECIMENTO DE DISPOSITIVOS MÉDICOS DIVERSOS",FALSE
Prestação de Serviços de Conferência de Faturas,Concurso limitado por prévia qualificação,Aquisição de serviços,"72512000-7, Serviços de gestão de documentos","Administração Regional de Saúde do Centro, I. P. (503122165)","Confact, SA (504271733)","175.001,40 €",22-01-2014,30-12-2013,365 dias,"Portugal, Coimbra, Coimbra","Artigo 20.º, n.º 1, alínea b) do Código dos Contratos Públicos",31-12-2014,"175.001,40 €",,,,Não aplicável.,Não aplicável.,FALSE
Aquisição de medicamentos,Ao abrigo de acordo-quadro (art.º 259.º),Aquisição de bens móveis,"33600000-6, Produtos farmacêuticos","Administração Regional de Saúde do Centro, I. P. (503122165)",Generis Farmaceutica sa (505625520),"268,00 €",21-01-2014,21-01-2014,120 dias,"Portugal, Coimbra, Coimbra",Artigo 259.º do Código dos Contratos Públicos,"","",,,,370804,CONCURSO PÚBLICO PARA A CELEBRAÇÃO DE CONTRATOS PÚBLICOS DE APROVISIONAMENTO PARA AQUISIÇÃO HORMONAS E OUTROS MEDICAMENTOS USADOS NO TRATAMENTO DAS DOENÇAS ENDÓCRINAS,FALSE
Prestação de Serviços de assistencia técnica e manutenção  do elevador instalado no CS de Pombal,Ajuste Direto Regime Geral,Aquisição de serviços,"50750000-7, Serviços de manutenção de elevadores","Administração Regional de Saúde do Centro, I.P. (503122165)",Grupnor Lda (500959579),"228,00 €",21-01-2014,19-12-2013,365 dias,"Portugal, Leiria, Pombal",Artigo 258.º do Código dos Contratos Públicos,"","",,,,Não aplicável.,Não aplicável.,FALSE
Processo n.º 13800018. ACES Baixo Mondego. Centro de Saúde de Fernão de Magalhães. Obras para instalação de plataforma elevatória.,Ajuste Direto Regime Geral,Empreitadas de obras públicas,"45000000-7, Construção","Administração Regional de Saúde do Centro, I. P. (503122165)","Construções A. Martins Rodrigues, Lda (501630910)","11.244,18 €",21-01-2014,24-10-2013,15 dias,"Portugal, Coimbra, Coimbra","Artigo 19.º, alínea a) do Código dos Contratos Públicos","","",,,,Não aplicável.,Não aplicável.,FALSE
Prestação de Serviços de manutenção e assistencia tecnica elevador no CS Marinha Grande,Ajuste Direto Regime Geral,Aquisição de serviços,"50700000-2, Serviços de reparação e manutenção de equipamento em edifícios","ADMINISTRAÇÃO REGIONAL DE SAÚDE DO CENTRO, I. P. (503122165)",Thyssenkrupp Elevadores SA (501445226),"22,19 €",21-01-2014,01-06-2013,365 dias,"Portugal, Leiria, Marinha Grande",Artigo 258.º do Código dos Contratos Públicos,"","",,,,Não aplicável.,Não aplicável.,FALSE
