Objeto do Contrato,Tipo de Procedimento,Tipo(s) de Contrato,CPVs,Entidade(s) Adjudicante(s),Entidade(s) Adjudicatária(s),Preço Contratual,Data de Publicação,Data de Celebração do Contrato,Prazo de Execução,Local de Execução,Fundamentação,Data de Fecho do Contrato,Preço Total Efetivo,Causas das Alterações ao Prazo,Causas das Alterações ao Preço,Estado,N.º registo do Acordo Quadro,Descrição do Acordo Quadro,Procedimento Centralizado
Serviço de viagem e alojamento para participação na reunião do Grupo de peritos 10B (Quimica Organica-Produtos sintéticos) em Estrasburgo - 1 Participante/4 dias,Ajuste Direto Regime Geral,Aquisição de serviços,"63510000-7, Serviços de agências de viagens e serviços similares","INFARMED - Autoridade Nacional do Medicamento e Produtos de Saúde, I.P. (600037002)","Raso - Viagens e Turismo, SA (500886113)","977,82 €",01-03-2013,17-01-2013,4 dias,França,"Artigo 27.º, n.º 1, alínea h) do Código dos Contratos Públicos",,,,,,Não aplicável.,Não aplicável.,
Serviços de viagem e alojamento para participação na reunião do Grupo Internacional MEDEV (Medicine Evaluation Committee) em Bruxels - 1 Participante/2 dias,Ajuste Direto Regime Geral,Aquisição de serviços,"63510000-7, Serviços de agências de viagens e serviços similares","INFARMED - Autoridade Nacional do Medicamento e Produtos de Saúde, I.P. (600037002)","Raso - Viagens e Turismo, SA (500886113)","660,38 €",01-03-2013,22-02-2013,2 dias,Bélgica,"Artigo 27.º, n.º 1, alínea h) do Código dos Contratos Públicos",,,,,,Não aplicável.,Não aplicável.,
"Serviços de viagem e alojamento para participação na formação Kaizen Office Live, no Porto - 2 Participantes/2 dias",Ajuste Direto Regime Geral,Aquisição de serviços,"63510000-7, Serviços de agências de viagens e serviços similares","INFARMED - Autoridade Nacional do Medicamento e Produtos de Saúde, I.P. (600037002)","Topatlantico- Viagens e Turismo,SA (501061126)","250,00 €",01-03-2013,24-01-2013,2 dias,Portugal,"Artigo 27.º, n.º 1, alínea h) do Código dos Contratos Públicos",,,,,,Não aplicável.,Não aplicável.,
Serviços de viagem e alojamento para participação na reunião Working Party on Pharmaceuticals and Medical Devices em Bruxelas - 1 Participante/2 dias,Ajuste Direto Regime Geral,Aquisição de serviços,"63510000-7, Serviços de agências de viagens e serviços similares","INFARMED - Autoridade Nacional do Medicamento e Produtos de Saúde, I.P. (600037002)","Raso - Viagens e Turismo, S.A. (500886113)","693,38 €",28-02-2013,27-02-2013,2 dias,Bélgica,"Artigo 27.º, n.º 1, alínea h) do Código dos Contratos Públicos",,,,,,Não aplicável.,Não aplicável.,
Serviços de viagem e alojamento para participação na reunião do Scientific Advice Working Party (SAWP) em Londres - 1 Participante/2 dias,Ajuste Direto Regime Geral,Aquisição de serviços,"63510000-7, Serviços de agências de viagens e serviços similares","INFARMED - Autoridade Nacional do Medicamento e Produtos de Saúde, I.P. (600037002)","Topatlantico - Viagens e Turismo, SA (501061126)","587,44 €",28-02-2013,27-02-2013,2 dias,Reino Unido,"Artigo 27.º, n.º 1, alínea h) do Código dos Contratos Públicos",,,,,,Não aplicável.,Não aplicável.,
Serviços de viagem e alojamento para participação na reunião do grupo MDEG e Working Party on Pharmaceuticals and Medical devices em Bruxelas - 1 Participante/5 dias,Ajuste Direto Regime Geral,Aquisição de serviços,"63510000-7, Serviços de agências de viagens e serviços similares","INFARMED - Autoridade Nacional do Medicamento e Produtos de Saúde, I.P. (600037002)","Topatlantico- Viagens e Turismo, SA (501061126)","1.000,38 €",28-02-2013,27-02-2013,5 dias,Bélgica,"Artigo 27.º, n.º 1, alínea h) do Código dos Contratos Públicos",,,,,,Não aplicável.,Não aplicável.,
Serviços de viagem e alojamento para participação na reunião do Grupo de Trabalho Qualidade dos Medicamentos de Uso Humano e Veterinário em Londres - 1 Participante/5 dias,Ajuste Direto Regime Geral,Aquisição de serviços,"63510000-7, Serviços de agências de viagens e serviços similares","INFARMED - Autoridade Nacional do Medicamento e Produtos de Saúde, I.P. (600037002)","Topatlantico - Viagens e Turismo, SA (501061126)","633,95 €",28-02-2013,27-02-2013,5 dias,Reino Unido,"Artigo 27.º, n.º 1, alínea h) do Código dos Contratos Públicos",,,,,,Não aplicável.,Não aplicável.,
Serviços de viagem e alojamento para participação na reunião do grupo 13A da farmacopeia Europeia em Estrasburgo - 1 Participante/4 dias,Ajuste Direto Regime Geral,Aquisição de serviços,"63510000-7, Serviços de agências de viagens e serviços similares","INFARMED - Autoridade Nacional do Medicamento e Produtos de Saúde, I.P. (600037002)","Topatlantico - Viagens e turismo, SA (501061126)","948,82 €",28-02-2013,27-02-2013,4 dias,Bélgica,"Artigo 27.º, n.º 1, alínea h) do Código dos Contratos Públicos",,,,,,Não aplicável.,Não aplicável.,
Serviços de viagem e alojamento para participação na reunião do grupo COEN Compliance and Enforcement Group em Bruxelas - 1 Participante/2 dias,Ajuste Direto Regime Geral,Aquisição de serviços,"63510000-7, Serviços de agências de viagens e serviços similares","INFARMED - Autoridade Nacional do Medicamento e Produtos de Saúde, I.P. (600037002)","Topatlantico - Viagens e Turismo, SA (501061126)","845,38 €",28-02-2013,27-02-2013,2 dias,Bélgica,"Artigo 27.º, n.º 1, alínea h) do Código dos Contratos Públicos",,,,,,Não aplicável.,Não aplicável.,
Serviços de viagem e alojamento para participação na reunião FP Working Party (Farmacopeia Europeia) em Estrasburgo - 1 Participante/4 dias,Ajuste Direto Regime Geral,Aquisição de serviços,"63510000-7, Serviços de agências de viagens e serviços similares","INFARMED - Autoridade Nacional do Medicamento e Produtos de Saúde, I.P. (600037002)","Topatlantico - Viagens e Turismo, SA (501061126)","878,28 €",28-02-2013,27-02-2013,4 dias,França,"Artigo 27.º, n.º 1, alínea h) do Código dos Contratos Públicos",,,,,,Não aplicável.,Não aplicável.,
Serviços de viagem  para participação da reunião de GMP/GDP Inspectors Working Group (GMDP IWG) em Londres - 1 Participante/3 dias,Ajuste Direto Regime Geral,Aquisição de serviços,"63510000-7, Serviços de agências de viagens e serviços similares","INFARMED - Autoridade Nacional do Medicamento e Produtos de Saúde, I.P. (600037002)","Raso- Viagens e Turismo, SA (500886113)","314,22 €",28-02-2013,22-02-2013,3 dias,Reino Unido,"Artigo 27.º, n.º 1, alínea h) do Código dos Contratos Públicos",,,,,,Não aplicável.,Não aplicável.,
Serviços de viagem e alojamento para participação na reunião Working party on Pharmaceuticals and Medical Devices( GMDM - Regulamento Ensaios Clínicos) em Bruxelas - 1 Participante/3 dias,Ajuste Direto Regime Geral,Aquisição de serviços,"63510000-7, Serviços de agências de viagens e serviços similares","INFARMED - Autoridade Nacional do Medicamento e Produtos de Saúde, I.P. (600037002)","Topatlantico - Viagens e Turismo, SA (501061126)","657,38 €",28-02-2013,27-02-2013,3 dias,Bélgica,"Artigo 27.º, n.º 1, alínea h) do Código dos Contratos Públicos",,,,,,Não aplicável.,Não aplicável.,
Serviços de viagem e alojamento para participação da reunião Anual de Directores de sistemas e tecnologias de informação (IT) em Dublin - 1 Participante/4 dias,Ajuste Direto Regime Geral,Aquisição de serviços,"63510000-7, Serviços de agências de viagens e serviços similares","INFARMED - Autoridade Nacional do Medicamento e Produtos de Saúde, I.P. (600037002)","Raso - Viagens e Turismo, SA (500886113)","1.016,95 €",28-02-2013,14-02-2013,4 dias,Irlanda,"Artigo 27.º, n.º 1, alínea h) do Código dos Contratos Públicos",,,,,,Não aplicável.,Não aplicável.,
Serviço de alojamento para participação na reunião da Sociedade Portuguesa de Farmacologia no Porto/1 Participante - 1 dia,Ajuste Direto Regime Geral,Aquisição de serviços,"63510000-7, Serviços de agências de viagens e serviços similares","INFARMED - Autoridade Nacional do Medicamento e Produtos de Saúde, I.P. (600037002)","TQ- Travel Quality- Viagens e Turismo, Lda (501313915)","46,00 €",28-02-2013,12-02-2013,1 dias,Portugal,"Artigo 27.º, n.º 1, alínea h) do Código dos Contratos Públicos",,,,,,Não aplicável.,Não aplicável.,
"Serviços de viagempara participação de uma auditoria da EDQMà agência croata HALMED, em Zagreb - 1Participante/5 dias",Ajuste Direto Regime Geral,Aquisição de serviços,"63510000-7, Serviços de agências de viagens e serviços similares","INFARMED - Autoridade Nacional do Medicamento e Produtos de Saúde, I.P. (600037002)","Topatlantico- Viagens e Turismo, SA (501061126)","412,59 €",27-02-2013,20-02-2013,5 dias,Croácia,"Artigo 27.º, n.º 1, alínea h) do Código dos Contratos Públicos",,,,,,Não aplicável.,Não aplicável.,
"Aquisição de produto para ensaios de coagulação em Hemoderivados, análise do Factor VIII.",Ajuste Direto Regime Geral,Aquisição de bens móveis,"33696200-7, Reagentes para análises ao sangue","INFARMED - Autoridade Nacional do Medicamento e Produtos de Saúde, I.P. (600037002)","IZASA PORTUGAL - Distribuições Tecnicas, Lda (501086110)","48.384,00 €",27-02-2013,20-02-2013,1095 dias,Portugal,"Artigo 20.º, n.º 1, alínea a) do Código dos Contratos Públicos",,,,,,Não aplicável.,Não aplicável.,
"Serviços de viagem e alojamento para participação na reunião PEMSAC-Analytical Methods, em Bruxelas - 1 Participante/3dias",Ajuste Direto Regime Geral,Aquisição de serviços,"63510000-7, Serviços de agências de viagens e serviços similares","INFARMED - Autoridade Nacional do Medicamento e Produtos de Saúde, I.P. (600037002)","Topatlantico - Turismo e Viagens, S.A. (501061126)","703,38 €",27-02-2013,19-02-2013,3 dias,Bélgica,"Artigo 27.º, n.º 1, alínea h) do Código dos Contratos Públicos",,,,,,Não aplicável.,Não aplicável.,
"Serviços de viagem e alojamento para participação na reunião PEMSAC-Platform of European Market Surveillance Authorities for Cosmetics, em Bruxelas - 1 Participante/2dias",Ajuste Direto Regime Geral,Aquisição de serviços,"63510000-7, Serviços de agências de viagens e serviços similares","INFARMED - Autoridade Nacional do Medicamento e Produtos de Saúde, I.P. (600037002)","Raso- Turismo e Turismo, S.A. (500886113)","738,38 €",27-02-2013,20-02-2013,2 dias,Bélgica,"Artigo 27.º, n.º 1, alínea h) do Código dos Contratos Públicos",,,,,,Não aplicável.,Não aplicável.,
"Serviços de viagem e alojamento para participação na Formação/Conferência The Medical Device Directives and the Revision, em Bruxelas - 1 Participante/3 dias",Ajuste Direto Regime Geral,Aquisição de serviços,"63510000-7, Serviços de agências de viagens e serviços similares","INFARMED - Autoridade Nacional do Medicamento e Produtos de Saúde, I.P. (600037002)","Topatlantico - Viagens e Turismo, S.A (501061126)","599,38 €",27-02-2013,30-01-2013,3 dias,Bélgica,"Artigo 27.º, n.º 1, alínea h) do Código dos Contratos Públicos",,,,,,Não aplicável.,Não aplicável.,
"Serviços de viagem e alojamento para participação na reunião do Grupo de Supervisão dos Organismos Notificados dos Dispositivos Médicos (NBOG) e Conferência Informa Life Sciences - the medical device Directives and the revision, em Bruxelas - 1 Participante/4 dias",Ajuste Direto Regime Geral,Aquisição de serviços,"63510000-7, Serviços de agências de viagens e serviços similares","INFARMED - Autoridade Nacional do Medicamento e Produtos de Saúde, I.P. (600037002)","Raso - Viagens e Turismo, S.A. (500886113)","532,38 €",26-02-2013,30-01-2013,4 dias,Bélgica,"Artigo 27.º, n.º 1, alínea h) do Código dos Contratos Públicos",,,,,,Não aplicável.,Não aplicável.,
"Serviços de viagem e alojamento para participação na reunião Notice to applicants (NTA) medicinal Products for Human and Veterinary use, em Bruxelas - 1 Participante/3 dias",Ajuste Direto Regime Geral,Aquisição de serviços,"63510000-7, Serviços de agências de viagens e serviços similares","INFARMED - Autoridade Nacional do Medicamento e Produtos de Saúde, I.P. (600037002)","Raso - Viagens e Turismo, S.A. (500886113)","598,38 €",26-02-2013,30-01-2013,3 dias,Bélgica,"Artigo 27.º, n.º 1, alínea h) do Código dos Contratos Públicos",,,,,,Não aplicável.,Não aplicável.,
"Serviços de viagem e alojamento para participação na reunião Committee for Advance Therapies (CAT), em Dublin - 1 Participante/4 dias",Ajuste Direto Regime Geral,Aquisição de serviços,"63510000-7, Serviços de agências de viagens e serviços similares","INFARMED - Autoridade Nacional do Medicamento e Produtos de Saúde, I.P. (600037002)","Topatlantico - Viagens e Turismo, S.A. (501061126)","1.061,70 €",26-02-2013,21-12-2012,4 dias,Irlanda,"Artigo 27.º, n.º 1, alínea h) do Código dos Contratos Públicos",,,,,,Não aplicável.,Não aplicável.,
"Serviços de viagem e alojamento para participação na reunião working party on pharmaceuticals and medical devices - (GMDM- Regulamento Ensaios Clinicos), em Bruxelas - 1 Participante/2 dias",Ajuste Direto Regime Geral,Aquisição de serviços,"63510000-7, Serviços de agências de viagens e serviços similares","INFARMED - Autoridade Nacional do Medicamento e Produtos de Saúde, I.P. (600037002)","Topatlantico - Viagens e Turismo, S.A. (501061126)","845,38 €",26-02-2013,30-01-2013,2 dias,Bélgica,"Artigo 27.º, n.º 1, alínea h) do Código dos Contratos Públicos",,,,,,Não aplicável.,Não aplicável.,
Serviços de viagem e alojamento para participação na 71ª reunião Heads of Medicines Agencies (HMA) em Dublin - 1 Participante/4 dias,Ajuste Direto Regime Geral,Aquisição de serviços,"63510000-7, Serviços de agências de viagens e serviços similares","INFARMED - Autoridade Nacional do Medicamento e Produtos de Saúde, I.P. (600037002)","TQ- Travel Quality, Viagens e Turismo,Lda (501313915)","1.867,32 €",26-02-2013,23-01-2013,4 dias,Irlanda,"Artigo 27.º, n.º 1, alínea h) do Código dos Contratos Públicos",,,,,,Não aplicável.,Não aplicável.,
"Serviços de viagem e alojamento para participação na 71ª reunião da Heads of Medivines agencies (HMA), em Dublin - 1 Participante/3 dias",Ajuste Direto Regime Geral,Aquisição de serviços,"63510000-7, Serviços de agências de viagens e serviços similares","INFARMED - Autoridade Nacional do Medicamento e Produtos de Saúde, I.P. (600037002)","TQ- Trvel Quality, Viagens e Turismo,Lda (501313915)","1.801,85 €",26-02-2013,24-01-2013,3 dias,Irlanda,"Artigo 27.º, n.º 1, alínea h) do Código dos Contratos Públicos",,,,,,Não aplicável.,Não aplicável.,
"Serviços de viagem e alojamento para participação na reunião Coordination Group for mutual recognition and decentralised procedures - human meeting (CMDH) e EGA Regulatory Affairs Conference, em Londres - 1 Participante/5 dias",Ajuste Direto Regime Geral,Aquisição de serviços,"63500000-4, Serviços de agências de viagens, de operadores turísticos e de assistência a turistas","INFARMED - Autoridade Nacional do Medicamento e Produtos de Saúde, I.P. (600037002)","Topatlantico - Viagens e Turismo, S.A. (501061126)","668,82 €",26-02-2013,28-12-2012,5 dias,Reino Unido,"Artigo 27.º, n.º 1, alínea h) do Código dos Contratos Públicos",,,,,,Não aplicável.,Não aplicável.,
"Serviços de viagem e alojamento para participação da 56ª sessão da Comissão de Estupefacientes das Nações Unidas, em Viena (Austria)- 1 Participante/6 dias",Ajuste Direto Regime Geral,Aquisição de serviços,"63510000-7, Serviços de agências de viagens e serviços similares","INFARMED - Autoridade Nacional do Medicamento e Produtos de Saúde, I.P. (600037002)","Topatlantico - Viagens e Turismo,SA (501061126)","1.059,72 €",26-02-2013,24-01-2013,6 dias,Áustria,"Artigo 27.º, n.º 1, alínea h) do Código dos Contratos Públicos",,,,,,Não aplicável.,Não aplicável.,
"Serviços de alojamento para participação na reunião do grupo de trabalho Platform on access to medicines in Europe - Project Group on promoting Good Governance for non-prescription drugs, em Bruxelas- 1 Participante/2 dias",Ajuste Direto Regime Geral,Aquisição de serviços,"63510000-7, Serviços de agências de viagens e serviços similares","INFARMED - Autoridade Nacional do Medicamento e Produtos de Saúde, I.P. (600037002)","Raso- Viagens e Turismo, S.A. (500886113)","238,00 €",26-02-2013,04-02-2013,2 dias,Bélgica,"Artigo 27.º, n.º 1, alínea h) do Código dos Contratos Públicos",,,,,,Não aplicável.,Não aplicável.,
Serviço de viagem e alojamento para a participação na 66ª reunião do grupo de peritos 10C da Farmacopeia Europeia em Estrasburgo - 1 Participante/4 dias,Ajuste Direto Regime Geral,Aquisição de serviços,"63510000-7, Serviços de agências de viagens e serviços similares","INFARMED - Autoridade Nacional do Medicamento e Produtos de Saúde, I.P. (600037002)","Raso - Viagens e Turismo, SA (500886113)","609,82 €",26-02-2013,05-02-2013,4 dias,França,"Artigo 27.º, n.º 1, alínea h) do Código dos Contratos Públicos",,,,,,Não aplicável.,Não aplicável.,
"Serviços de viagem e alojamento, para participação na reunião Standing Commitee on Cosmetic Products e Working Group on Cosmetic Products, em Bruxelas- 1 Participante/3 dias",Ajuste Direto Regime Geral,Aquisição de serviços,"63510000-7, Serviços de agências de viagens e serviços similares","INFARMED - Autoridade Nacional do Medicamento e Produtos de Saúde, I.P. (600037002)","Raso- Viagens e Turismo, SA (500886113)","720,38 €",26-02-2013,07-02-2013,3 dias,Bélgica,"Artigo 27.º, n.º 1, alínea h) do Código dos Contratos Públicos",,,,,,Não aplicável.,Não aplicável.,
"Serviços de viagem e alojamento, para participação na reunião working Party on Pharmaceuticals and Medical Devices(GMDM) - regulamento dos Ensaios Clinicos, em Bruxelas - 1 Participante/2 dias",Ajuste Direto Regime Geral,Aquisição de serviços,"63510000-7, Serviços de agências de viagens e serviços similares","INFARMED - Autoridade Nacional do Medicamento e Produtos de Saúde, I.P. (600037002)","Raso- Viagnes e Turismo, SA (500886113)","804,38 €",26-02-2013,08-02-2013,2 dias,Bélgica,"Artigo 27.º, n.º 1, alínea h) do Código dos Contratos Públicos",,,,,,Não aplicável.,Não aplicável.,
"Serviços de viagem e alojamento para participação da freunião do grupo Europeu EUNETHA W5, em Amesterdão - 1 Participante/2 dias",Ajuste Direto Regime Geral,Aquisição de serviços,"63510000-7, Serviços de agências de viagens e serviços similares","INFARMED - Autoridade Nacional do Medicamento e Produtos de Saúde, I.P. (600037002)","Raso- Viagens e Turismo, SA (500886113)","638,12 €",26-02-2013,08-02-2013,2 dias,Países Baixos,"Artigo 27.º, n.º 1, alínea h) do Código dos Contratos Públicos",,,,,,Não aplicável.,Não aplicável.,
"Serviços de viagem e alojamento para participação da reunião MDEG- Bordeline Classification, em Bruxelas- 1 Participante/2 dias",Ajuste Direto Regime Geral,Aquisição de serviços,"63510000-7, Serviços de agências de viagens e serviços similares","INFARMED - Autoridade Nacional do Medicamento e Produtos de Saúde, I.P. (600037002)","Raso - Viagens e Turismo, S.A. (500886113)","771,38 €",26-02-2013,08-02-2013,2 dias,Bélgica,"Artigo 27.º, n.º 1, alínea h) do Código dos Contratos Públicos",,,,,,Não aplicável.,Não aplicável.,
Serviços de viagem e alojamento para participação na formação Medication Errors Workshop em Londres - 1 Participante/4 dias,Ajuste Direto Regime Geral,Aquisição de serviços,"63510000-7, Serviços de agências de viagens e serviços similares","INFARMED - Autoridade Nacional do Medicamento e Produtos de Saúde, I.P. (600037002)","Topatlantico - Viagens e Turismo, SA (501061126)","510,35 €",26-02-2013,08-02-2013,4 dias,Reino Unido,"Artigo 27.º, n.º 1, alínea h) do Código dos Contratos Públicos",,,,,,Não aplicável.,Não aplicável.,
"Serviços de viagem e alojamento para participação na reunião Investigação e Avaliação Clínica de Dispositivos Médicos (CIE), em Bruxelas - 1 Participante/4 dias",Ajuste Direto Regime Geral,Aquisição de serviços,"63510000-7, Serviços de agências de viagens e serviços similares","INFARMED - Autoridade Nacional do Medicamento e Produtos de Saúde, I.P. (600037002)","Topatlantico - Viagens e Turismo,SA (501061126)","616,38 €",25-02-2013,08-02-2013,4 dias,Bélgica,"Artigo 27.º, n.º 1, alínea h) do Código dos Contratos Públicos",,,,,,Não aplicável.,Não aplicável.,
Serviços de viagem e alojamento para participação na reunião de Investigação e Avaliação Clínica de Dispositivos Médicos (CIE) em Bruxelas - 1 Participante/4 dias,Ajuste Direto Regime Geral,Aquisição de serviços,"63510000-7, Serviços de agências de viagens e serviços similares","INFARMED - Autoridade Nacional do Medicamento e Produtos de Saúde, I.P. (600037002)","Topatlantico - Viagens e Turismo, SA (501061126)","616,38 €",25-02-2013,07-02-2013,4 dias,Bélgica,"Artigo 27.º, n.º 1, alínea h) do Código dos Contratos Públicos",,,,,,Não aplicável.,Não aplicável.,
"Serviços de viagem e alojamento, para participação na reunião de Investigação e Avaliação Clínica de Dispositivos Médicos (CIE), em Bruxelas - 1 Participante/4 dias",Ajuste Direto Regime Geral,Aquisição de serviços,"63510000-7, Serviços de agências de viagens e serviços similares","INFARMED - Autoridade Nacional do Medicamento e Produtos de Saúde, I.P. (600037002)","Topatlântico - Viagens e Turismo, SA (501061126)","616,38 €",25-02-2013,08-02-2013,4 dias,Bélgica,"Artigo 27.º, n.º 1, alínea h) do Código dos Contratos Públicos",,,,,,Não aplicável.,Não aplicável.,
"Serviço de viagem e alojamento para participação na reunião Coordination Group for mutual recognition and decentralised procedures - human meeting (CMDH) e Heads of Medicines Agencies working group on Transparency , em Londres - 1 Participante/ 5 dias",Ajuste Direto Regime Geral,Aquisição de serviços,"63510000-7, Serviços de agências de viagens e serviços similares","INFARMED - Autoridade Nacional do Medicamento e Produtos de Saúde, I.P. (600037002)","Topatlantico - Viagens e Turismo, SA (501061126)","839,95 €",25-02-2013,09-02-2013,5 dias,Reino Unido,"Artigo 27.º, n.º 1, alínea h) do Código dos Contratos Públicos",,,,,,Não aplicável.,Não aplicável.,
"Serviço de viagem e alojamento para participação na reunião Working party on Pharmaceuticals and Medical Devices, em Bruxelas- 1 Participante/ 2 dias",Ajuste Direto Regime Geral,Aquisição de serviços,"63510000-7, Serviços de agências de viagens e serviços similares","INFARMED - Autoridade Nacional do Medicamento e Produtos de Saúde, I.P. (600037002)","Raso- Viagens e Turismo, SA (500886113)","811,38 €",25-02-2013,08-02-2013,2 dias,Bélgica,"Artigo 27.º, n.º 1, alínea h) do Código dos Contratos Públicos",,,,,,Não aplicável.,Não aplicável.,
"Serviço de viagem e alojamento para participação na reunião do Comité de Medicamentos de Uso Humano (CHMP), em Londres - 1 Participante/ 5 dias",Ajuste Direto Regime Geral,Aquisição de serviços,"63510000-7, Serviços de agências de viagens e serviços similares","INFARMED - Autoridade Nacional do Medicamento e Produtos de Saúde, I.P. (600037002)","Topatlantico- Viagens e Turismo, SA (501061126)","839,95 €",25-02-2013,08-02-2013,5 dias,Reino Unido,"Artigo 27.º, n.º 1, alínea h) do Código dos Contratos Públicos",,,,,,Não aplicável.,Não aplicável.,
"Serviços de viagem e alojamento, para participação na formação Safety Assessment of Cosmetics in the EU), em Bruxelas- 1 Participante/7 dias",Ajuste Direto Regime Geral,Aquisição de serviços,"63510000-7, Serviços de agências de viagens e serviços similares","INFARMED - Autoridade Nacional do Medicamento e Produtos de Saúde, I.P. (600037002)","TOPATLÂNTICO - VIAGENS E TURISMO, S.A. (501061126)","1.082,38 €",22-02-2013,18-02-2013,7 dias,Bélgica,"Artigo 27.º, n.º 1, alínea h) do Código dos Contratos Públicos",,,,,,Não aplicável.,Não aplicável.,
"Serviços de viagem e Alojamento, para participação na reunião Clinical Trials Facilitation Group Meeting (CTFG), em Londres - 1 Participante/3 dias",Ajuste Direto Regime Geral,Aquisição de serviços,"63510000-7, Serviços de agências de viagens e serviços similares","INFARMED - Autoridade Nacional do Medicamento e Produtos de Saúde, I.P. (600037002)","TOPATLÂNTICO - VIAGENS E TURISMO,SA (501061126)","771,44 €",22-02-2013,18-02-2013,3 dias,Reino Unido,"Artigo 27.º, n.º 1, alínea h) do Código dos Contratos Públicos",,,,,,Não aplicável.,Não aplicável.,
"Serviços de viagem e alojamento, para participação na reuniãodo grupo de trabalho europeu EUNETHTA em Paris - 1 Participante/2 dias.",Ajuste Direto Regime Geral,Aquisição de serviços,"63510000-7, Serviços de agências de viagens e serviços similares","INFARMED - Autoridade Nacional do Medicamento e Produtos de Saúde, I.P. (600037002)","RASO- VIAGENS E TURISMO,SA (500886113)","495,52 €",22-02-2013,18-02-2013,2 dias,França,"Artigo 27.º, n.º 1, alínea h) do Código dos Contratos Públicos",,,,,,Não aplicável.,Não aplicável.,
"Serviços de viagem, para participação na reunião do Comité de Medicamentos de Uso Humano (CHMP), em Londres - 1 Participante/5 dias.",Ajuste Direto Regime Geral,Aquisição de serviços,"63510000-7, Serviços de agências de viagens e serviços similares","INFARMED - Autoridade Nacional do Medicamento e Produtos de Saúde, I.P. (600037002)","RASO - VIAGENS E TURISMO, SA (500886113)","317,82 €",22-02-2013,18-02-2013,5 dias,Reino Unido,"Artigo 27.º, n.º 1, alínea h) do Código dos Contratos Públicos",,,,,,Não aplicável.,Não aplicável.,
