Objeto do Contrato,Tipo de Procedimento,Tipo(s) de Contrato,CPVs,Entidade(s) Adjudicante(s),Entidade(s) Adjudicatária(s),Preço Contratual,Data de Publicação,Data de Celebração do Contrato,Prazo de Execução,Local de Execução,Fundamentação,Data de Fecho do Contrato,Preço Total Efetivo,Causas das Alterações ao Prazo,Causas das Alterações ao Preço,Estado,N.º registo do Acordo Quadro,Descrição do Acordo Quadro,Procedimento Centralizado
UCSP da Carvalhosa - Obras de climatização,Ajuste Direto Regime Geral,Empreitadas de obras públicas,"45331220-4, Instalação de ar condicionado","Administração Regional de Saúde do Norte, I. P. (503135593)",Climave - Equipamentos Electromecanicos Lda  (503926140),"15.416,28 €",01-10-2014,17-09-2014,60 dias,"Portugal, Porto, Porto","Artigo 19.º, alínea a) do Código dos Contratos Públicos","","15.416,28 €","Verificou-se que, face à natureza e quantidade  dos trabalhos a realizar, foi estimado um prazo para realização da empreitada superior ao realmente necessário.  ","",,Não aplicável.,Não aplicável.,FALSE
UCSP Oliveira do Douro - Climatização,Ajuste Direto Regime Geral,Empreitadas de obras públicas,"45331220-4, Instalação de ar condicionado","Administração Regional de Saúde do Norte, I. P. (503135593)","Tempo de Retorno, Unipessoal, Lda (509691269)","26.976,20 €",01-10-2014,23-09-2014,80 dias,"Portugal, Porto, Vila Nova de Gaia","Artigo 19.º, alínea a) do Código dos Contratos Públicos","","26.976,20 €","","",,Não aplicável.,Não aplicável.,FALSE
USF Serpa Pinto - Obras de entrega ao senhorio,Ajuste Direto Regime Geral,Empreitadas de obras públicas,"45453000-7, Obras de revisão e recuperação","Administração Regional de Saúde do Norte, I. P. (503135593)","Yapi, Lda (509946283)","31.005,00 €",01-10-2014,08-09-2014,30 dias,"Portugal, Porto, Porto","Artigo 19.º, alínea a) do Código dos Contratos Públicos","","31.005,00 €",Verificou-se que foi estimado um prazo superior ao necessário para realização da empreitada superior ao realmente necessário.,"",,Não aplicável.,Não aplicável.,FALSE
Aquisição de serviços de plataforma eletrónica de contratação pública para os meses de julho e agosto.,Ajuste Direto Regime Geral,Aquisição de serviços,"72416000-9, Fornecedores de aplicações","Administração Regional de Saúde do Norte, I. P. (503135593)","Vortal - Comércio Eletrónico, Consultadoria e Multimédia, SA (505141019)","2.439,02 €",26-09-2014,13-01-2014,60 dias,"Portugal, Porto, Porto","Artigo 20.º, n.º 1, alínea a) do Código dos Contratos Públicos",29-08-2014,"2.439,02 €","","",,Não aplicável.,Não aplicável.,FALSE
Aquisição de serviços de plataforma eletrónica de contratação pública no mês de junho.,Ajuste Direto Regime Geral,Aquisição de serviços,"72416000-9, Fornecedores de aplicações","Administração Regional de Saúde do Norte, I. P. (503135593)","Vortal, Comércio Eletrónico, Consultadoria e Multimédia, SA (505141019)","1.219,51 €",26-09-2014,13-01-2014,30 dias,"Portugal, Porto, Porto","Artigo 20.º, n.º 1, alínea a) do Código dos Contratos Públicos",12-06-2014,"1.219,51 €","","",,Não aplicável.,Não aplicável.,FALSE
Aquisição de serviços de cópia e impressão do mês de junho,Ajuste Direto Regime Geral,Aquisição de serviços,"79800000-2, Serviços de impressão e afins","Administração Regional de Saúde do Norte, I. P. (503135593)","Kyocera Document Solutions Portugal, Lda. (500682127)","4.228,38 €",26-09-2014,03-01-2014,30 dias,"Portugal, Aveiro, Santa Maria da Feira<BR/>Portugal, Braga, Braga<BR/>Portugal, Braga, Guimarães<BR/>Portugal, Viana do Castelo, Viana do Castelo<BR/>Portugal, Vila Real, Chaves<BR/>Portugal, Porto<BR/>Portugal, Braganca, Bragança<BR/>Portugal, Vila Real, Vila Real","Artigo 24.º, n.º 1, alínea e) do Código dos Contratos Públicos",25-06-2014,"4.228,38 €","","",,Não aplicável.,Não aplicável.,FALSE
Prestação de serviços de Alarmes - Ligação à central de receção e monitorização de alarmes - S. Centrais e vários ACES,Ajuste Direto Regime Geral,Aquisição de serviços,"50610000-4, Serviços de reparação e manutenção de equipamento de segurança","Administração Regional de Saúde do Norte, I. P. (503135593)","Securitas - Serviços e Tecnologia de Segurança, S.A.  (500243719)","158.223,95 €",24-09-2014,19-02-2014,151 dias,"Portugal, Porto","Artigo 24.º, n.º 1, alínea e) do Código dos Contratos Públicos",31-05-2014,"158.223,95 €","","",,Não aplicável.,Não aplicável.,FALSE
Prestação de serviços de Alarmes - Ligação à central de receção e monitorização de alarmes - S. Centrais e ACES Porto Oriental,Ajuste Direto Regime Geral,Aquisição de serviços,"50610000-4, Serviços de reparação e manutenção de equipamento de segurança","Administração Regional de Saúde do Norte, I. P. (503135593)","Prosegur - Companhia de Segurança, Lda (501290567)","2.437,98 €",24-09-2014,19-02-2014,181 dias,"Portugal, Porto, Porto","Artigo 24.º, n.º 1, alínea e) do Código dos Contratos Públicos",30-06-2014,"2.437,98 €","","",,Não aplicável.,Não aplicável.,FALSE
Aquisição de 5 unidades de cardiac IQC p/COBAS h 232;  120 unid. de reagente determinação amilase;  450 unid. reagente determinação bilirrubina no sangue; 780 unid de reagente determinação creatinina;  660 unid. de reagente determinação da gama Gt; 750 unid. reagente determinação da glucose;  510 unidades de reagente determinação GPT; 510 unid. de Reflotron Hemoglobin;  450 unid. reagente determinação potássio no sangue; 855 unid. de reagente determinação da ureia; 250 testes de Roche Cobas H232 D-Dimer; 700 testes de Roche Cobas h232 Myoglobin 20; 120 testes de Roche Cobas h232 proBNP+ e 700 unid. de Roche Cobas h232 T Quantitative 10,Ajuste Direto Regime Geral,Aquisição de bens móveis,"33694000-1, Meios de diagnóstico","Administração Regional de Saúde do Norte, I. P. (503135593)",Roche Sistemas de Diagnósticos (504282921),"19.259,69 €",24-09-2014,18-08-2014,365 dias,"Portugal, Vila Real, Vila Real","Artigo 24.º, n.º 1, alínea e) do Código dos Contratos Públicos",03-11-2014,"19.259,69 €","","",,Não aplicável.,Não aplicável.,FALSE
Aquisição de 20 emb. de pipeta cardiac e 1000 pontas para micropipeta 200ul,Ajuste Direto Regime Geral,Aquisição de bens móveis,"33698000-9, Produtos para fins clínicos","Administração Regional de Saúde do Norte,IP (ARSN) (503135593)",Roche Sistemas de Diagnósticos (504282921),"628,34 €",24-09-2014,18-08-2014,365 dias,"Portugal, Vila Real, Vila Real","Artigo 24.º, n.º 1, alínea e) do Código dos Contratos Públicos",22-09-2014,"628,34 €","","",,Não aplicável.,Não aplicável.,FALSE
"Aquisição de 270.000 lanceta automática punção capilar, irrecuperável diabético e 25.000 lancetas automática punção capilar irrecuperável genética",Ajuste Direto Regime Geral,Aquisição de bens móveis,"33140000-3, Material médico de consumo","Administração Regional de Saúde do Norte,IP (ARSN) (503135593)","Iberlab & Imunorage, Lda (503406694)","0,00 €",24-09-2014,04-09-2014,365 dias,"Portugal, Vila Real, Vila Real",Artigo 258.º do Código dos Contratos Públicos,24-11-2014,"14.307,50 €","",Não houve alteração de valores,,1288160,"Aquisição de 270.000 lanceta automática punção capilar, irrecuperável diabético e 25.000 lancetas automática punção capilar irrecuperável genética",FALSE
Aquisição de 19.800 unidades de fita para sutura autoadesiva 100x6 mm,Ajuste Direto Regime Geral,Aquisição de bens móveis,"33140000-3, Material médico de consumo","Administração Regional de Saúde do Norte,IP (ARSN) (503135593)",Paul Hartmann (502271728),"0,00 €",24-09-2014,29-08-2014,365 dias,"Portugal, Vila Real, Vila Real",Artigo 258.º do Código dos Contratos Públicos,23-09-2014,"990,00 €","",Não houve alteração de valor,,1288154,Aquisição de 19.800 unidades de fita para sutura autoadesiva 100x6 mm,FALSE
Aquisição de 27.900 fitas para sutura autoadesiva 45x3 mm,Ajuste Direto Regime Geral,Aquisição de bens móveis,"33140000-3, Material médico de consumo","Administração Regional de Saúde do Norte, I. P. (503135593)",Smith & Nephew (503552461),"0,00 €",24-09-2014,03-09-2014,365 dias,"Portugal, Vila Real, Vila Real",Artigo 258.º do Código dos Contratos Públicos,17-11-2014,"1.088,10 €","",Não houve alteração de valores,,1287970,Aquisição de 27.900 fitas para sutura autoadesiva 45x3 mm,FALSE
Aquisição de 16.000 avental plástico irrecuperável,Ajuste Direto Regime Geral,Aquisição de bens móveis,"33140000-3, Material médico de consumo","Administração Regional de Saúde do Norte, I. P. (503135593)","Ezequiel Panão Jorge, Lda (501412727)","0,00 €",24-09-2014,29-08-2014,365 dias,"Portugal, Vila Real, Vila Real",Artigo 258.º do Código dos Contratos Públicos,07-11-2014,"350,40 €","",Não houve alteração de valores,,1287909,Aquisição de 16.000 aventais plástico irrecuperável,FALSE
600 unidades de máscara plana c/ viseira (visor descartável,Ajuste Direto Regime Geral,Aquisição de bens móveis,"33140000-3, Material médico de consumo","Administração Regional de Saúde do Norte, I. P. (503135593)","Bastos Viegas, S.A. (500042772)","0,00 €",24-09-2014,29-08-2014,365 dias,"Portugal, Vila Real, Vila Real",Artigo 258.º do Código dos Contratos Públicos,14-11-2014,"207,00 €","",NãO HOUVE ALTERAÇÃO DE VALORES,,1287904,Aquisição de 600 mascáras plana c/ viseira (visor descartável),FALSE
Aquisição de 20.000 batas de protecção irrecuperável,Ajuste Direto Regime Geral,Aquisição de bens móveis,"33140000-3, Material médico de consumo","Administração Regional de Saúde do Norte, I. P. (503135593)",OVERPHARMA - Produtos Médicos (505792362),"0,00 €",24-09-2014,01-09-2014,365 dias,"Portugal, Vila Real, Vila Real",Artigo 258.º do Código dos Contratos Públicos,21-11-2014,"4.200,00 €","",Não houve alteração de valor,,1287895,Aquisição de 20.000 batas de protecção irrecuperável,FALSE
Serviços de Parametrização do Modulo de Compras do PHC,Ajuste Direto Regime Geral,Concessão de serviços públicos,"72260000-5, Serviços relacionados com software","Administração Regional de Saúde do Norte, I.P. (503135593)","Logibérica Sistemas de Informação, Lda (503340022)","174.955,00 €",23-09-2014,27-12-2011,60 dias,"Portugal, Porto, Porto","Artigo 27.º, n.º 1, alínea f) do Código dos Contratos Públicos",30-12-2011,"174.955,00 €","","",,Não aplicável.,Não aplicável.,FALSE
Aquisição de 25 unidades de Saco p/aspirador de secreções 1 L Aspimed 2.3,Ajuste Direto Regime Geral,Aquisição de bens móveis,"33140000-3, Material médico de consumo","Administração Regional de Saúde do Norte, I. P. (503135593)","SPECULUM - ARTIGOS MÉDICOS, LDA - BESLEASING E FACTORIN (502996323)","61,50 €",23-09-2014,05-09-2014,365 dias,"Portugal, Vila Real, Vila Real","Artigo 20.º, n.º 1, alínea a) do Código dos Contratos Públicos",05-11-2014,"61,50 €","","",,Não aplicável.,Não aplicável.,FALSE
"Aquisição de 50 unidades de Braçal para tensiómetro 14x55 cm (adulto), 50 unidades de Braçal para tensiómetro 8/10x32 cm (criança),  50 unidades de Filtro Bacteriológico p/asp. secreções Fazzini e 50 unidades de Filtro Bacteriológico p/nebulizador Suchatzki",Ajuste Direto Regime Geral,Aquisição de bens móveis,"33140000-3, Material médico de consumo","Administração Regional de Saúde do Norte, I. P. (503135593)","FEIRAMEDICA, IMP.COM.EQUIP.HOSP., LDA  (503731900)","590,00 €",23-09-2014,05-09-2014,365 dias,"Portugal, Vila Real, Vila Real","Artigo 20.º, n.º 1, alínea a) do Código dos Contratos Públicos","","","","",,Não aplicável.,Não aplicável.,FALSE
Aquisição de 50 unidades de Conector p/aspirador secreções Fazzini e 25 tubos de Tubo p/aspirador secreções Fazzini,Ajuste Direto Regime Geral,Aquisição de bens móveis,"33140000-3, Material médico de consumo","Administração Regional de Saúde do Norte, I. P. (503135593)","FEIRAMEDICA, IMP.COM.EQUIP.HOSP., LDA (503731900)","104,25 €",23-09-2014,05-09-2014,365 dias,"Portugal, Vila Real, Vila Real","Artigo 20.º, n.º 1, alínea a) do Código dos Contratos Públicos",05-11-2014,"104,25 €","","",,Não aplicável.,Não aplicável.,FALSE
Aquisição de 7.600 testes de reagente det. Gonadotropina coriónica humana na urina,Ajuste Direto Regime Geral,Aquisição de bens móveis,"33694000-1, Meios de diagnóstico","Administração Regional de Saúde do Norte, I.P. (503135593)","Prestifarma, Lda (503474517)","2.394,00 €",23-09-2014,18-07-2012,365 dias,"Portugal, Vila Real, Vila Real","Artigo 20.º, n.º 1, alínea a) do Código dos Contratos Públicos",24-07-2012,"2.394,00 €","","",,Não aplicável.,Não aplicável.,FALSE
Aquisição de 20.000 unidades de reagente determinação microalbuminúria,Ajuste Direto Regime Geral,Aquisição de bens móveis,"33600000-6, Produtos farmacêuticos","Administração Regional de Saúde do Norte, I.P. (503135593)",Siemens Healtcare Diagnóstico (507925173),"2.360,00 €",23-09-2014,19-07-2013,365 dias,"Portugal, Vila Real, Vila Real","Artigo 20.º, n.º 1, alínea a) do Código dos Contratos Públicos",23-11-2012,"2.360,00 €","","",,Não aplicável.,Não aplicável.,FALSE
Serviços de Manutenção ao Sistema de logística,Ajuste Direto Regime Geral,Concessão de serviços públicos,"72260000-5, Serviços relacionados com software","Administração Regional de Saúde do Norte, I.P. (503135593)","Logiberica Sistemas de Informação, Lda (503340022)","126.000,00 €",23-09-2014,27-12-2011,60 dias,"Portugal, Porto, Porto","Artigo 27.º, n.º 1, alínea a) e n.º 2 do Código dos Contratos Públicos",30-12-2011,"126.000,00 €","","",,Não aplicável.,Não aplicável.,FALSE
Aquisição de 70 testes Roche Cobas h232 proBNP,Ajuste Direto Regime Geral,Aquisição de bens móveis,"33696000-5, Reagentes e meios de contraste","Administração Regional de Saúde do Norte, I.P. (503135593)","Roche Sistemas de Diagnósticos, Lda (504282921)","1.098,70 €",23-09-2014,26-09-2013,365 dias,"Portugal, Vila Real, Vila Real","Artigo 24.º, n.º 1, alínea e) do Código dos Contratos Públicos",30-09-2013,"470,88 €","",Não foi adquirido o produto na totalidade,,Não aplicável.,Não aplicável.,FALSE
Prestação de serviços de segurança e vigilância para o ACES Vale do Sousa Sul,Ajuste Direto Regime Geral,Aquisição de serviços,"79714000-2, Serviços de vigilância","Administração Regional de Saúde do Norte, I.P. (503135593)","Charon - Prestação de Serviços de Segurança e Vigilância, S.A. (501718540)","134.898,34 €",22-09-2014,01-08-2011,153 dias,"Portugal, Porto, Paredes",Artigo 258.º do Código dos Contratos Públicos,31-12-2011,"134.898,34 €","","",,Não aplicável.,Não aplicável.,FALSE
Prestação de serviço de segurança e vigilância para o ACES Espinho/Gaia,Ajuste Direto Regime Geral,Aquisição de serviços,"79714000-2, Serviços de vigilância","Administração Regional de Saúde do Norte, I.P. (503135593)","Strong - Segurança, S.A. (503257567)","51.989,58 €",22-09-2014,01-11-2011,61 dias,"Portugal, Porto, Vila Nova de Gaia",Artigo 258.º do Código dos Contratos Públicos,31-12-2011,"51.989,58 €","","",,Não aplicável.,Não aplicável.,FALSE
Aquisição de plataforma eletrónica avançada de contratação pública,Ajuste Direto Regime Geral,Aquisição de serviços,"72212312-9, Serviços de desenvolvimento de software para publicações electrónicas","Administração Regional de Saúde do Norte,IP (ARSN) (503135593)",Vortal (505141019),"30.000,00 €",22-09-2014,10-08-2010,191 dias,"Portugal, Porto, Porto",Artigo 258.º do Código dos Contratos Públicos,25-11-2010,"30.000,00 €","","",,Não aplicável.,Não aplicável.,FALSE
