Objeto do Contrato,Tipo de Procedimento,Tipo(s) de Contrato,CPVs,Entidade(s) Adjudicante(s),Entidade(s) Adjudicatária(s),Preço Contratual,Data de Publicação,Data de Celebração do Contrato,Prazo de Execução,Local de Execução,Fundamentação,Data de Fecho do Contrato,Preço Total Efetivo,Causas das Alterações ao Prazo,Causas das Alterações ao Preço,Estado,N.º registo do Acordo Quadro,Descrição do Acordo Quadro,Procedimento Centralizado
"Aquisição de Reagentes para deteção de ácidos nucleicos do HIV1, HVC e HBV (Multiplex) aplicável à triagem de Dadores de sangue (com colocação de equipamento)",Concurso público,Aquisição de bens móveis,"33696000-5, Reagentes e meios de contraste","Unidade Local de Saúde do Alto Minho, EPE (ULSAM) (508786193)","GRIFOLS PORTUGAL - PROD. FARMAC. E HOSP., LDA. (502041285)","102.000,00 €",12-03-2018,15-02-2018,365 dias,"Portugal, Viana do Castelo","Artigo 20.º, n.º 1, alínea b) do Código dos Contratos Públicos",,,,,,Não aplicável.,Não aplicável.,FALSE
Aquisição Bancada para Sala de Tratamentos e Armário Duplo de Coluna,Ajuste Direto Regime Geral,Aquisição de bens móveis,"33192000-2, Mobiliário para fins médicos","Unidade Local de Saúde do Alto Minho, E. P. E. (508786193)","Bacelar & Irmão, Lda (500532818)","7.246,22 €",09-03-2018,21-10-2016,20 dias,"Portugal, Viana do Castelo, Viana do Castelo","Artigo 20.º, n.º 1, alínea a) do Código dos Contratos Públicos",,,,,,Não aplicável.,Não aplicável.,FALSE
Serviços Profissionais de Consultoria em Gestão Patrimonial,Ajuste Direto Regime Geral,Aquisição de serviços,"79000000-4, Serviços a empresas: direito, comercialização, consultoria, recrutamento, impressão e segurança","Unidade Local de Saúde do Alto Minho, E. P. E. (508786193)",American Appraisal (501903402),"74.900,00 €",09-03-2018,04-12-2017,150 dias,"Portugal, Viana do Castelo","Artigo 20.º, n.º 1, alínea a) do Código dos Contratos Públicos",,,,,,Não aplicável.,Não aplicável.,FALSE
"Aquisição de Reagentes para determinação de carga viral para HIV1, HVC e HBV (com colocação de equipamento)",Concurso público,Aquisição de bens móveis,"33696000-5, Reagentes e meios de contraste","Unidade Local de Saúde do Alto Minho, EPE (ULSAM) (508786193)","ABBOTT LABORATORIOS, LDA.                          (500006148)","48.924,30 €",08-03-2018,05-02-2018,365 dias,"Portugal, Viana do Castelo","Artigo 20.º, n.º 1, alínea b) do Código dos Contratos Públicos",,,,,,Não aplicável.,Não aplicável.,FALSE
Concessão da Exploração e Prestação de Serviços de Imagiologia,Ajuste Direto Regime Geral,Aquisição de serviços,"85150000-5, Serviços de imagiologia médica","Unidade Local de Saúde do Alto Minho, E. P. E. (508786193)","IMI - Imagens Médicas Integradas, S.A. (501721037)","349.999,00 €",08-03-2018,18-01-2018,60 dias,"Portugal, Viana do Castelo","Artigo 24.º, n.º 1, alínea e), subalínea ii) do Código dos Contratos Públicos",,,,,,Não aplicável.,Não aplicável.,FALSE
Manutenção Preventiva e Assistência Técnica para os Sistemas de Deteção Automática de Incêndio e Intrusão da ULSAM,Ajuste Direto Regime Geral,Aquisição de serviços,"50410000-2, Serviços de reparação e manutenção de aparelhos de medição, ensaio e controlo","Unidade Local de Saúde do Alto Minho, E. P. E. (508786193)","Segurvez-comércio de Material de Segurança, Lda (506060845)","11.919,48 €",06-03-2018,15-02-2018,365 dias,"Portugal, Setúbal","Artigo 20.º, n.º 1, alínea a) do Código dos Contratos Públicos",,,,,,Não aplicável.,Não aplicável.,FALSE
