Objeto do Contrato,Tipo de Procedimento,Tipo(s) de Contrato,CPVs,Entidade(s) Adjudicante(s),Entidade(s) Adjudicatária(s),Preço Contratual,Data de Publicação,Data de Celebração do Contrato,Prazo de Execução,Local de Execução,Fundamentação,Data de Fecho do Contrato,Preço Total Efetivo,Causas das Alterações ao Prazo,Causas das Alterações ao Preço,Estado,N.º registo do Acordo Quadro,Descrição do Acordo Quadro,Procedimento Centralizado
Aquisição de 82 computadores para CS Lousã e CS S. Pedro Sul,Ajuste Direto Regime Geral,Aquisição de bens móveis,"30213300-8, Computadores de secretária (desktop computers)","Administração Regional de Saúde do Centro, I.P. (503122165)","CPCIS - Companhia Portuguesa de Computadores, Informática e Sistemas, SA (501267255)","20.336,00 €",20-05-2013,20-05-2013,60 dias,"Portugal, Coimbra, Lousã<BR/>Portugal, Viseu, São Pedro do Sul","Artigo 20.º, n.º 1, alínea a) do Código dos Contratos Públicos",,,,,,Não aplicável.,Não aplicável.,
Aquisição de servidor aplicacional para CS S. Pedro Sul,Ajuste Direto Regime Geral,Aquisição de bens móveis,"48820000-2, Servidores","Administração Regional de Saúde do Centro, I.P. (503122165)","Basedois - Informática e Telecomunicações, Lda (501333401)","2.280,00 €",20-05-2013,20-05-2013,15 dias,"Portugal, Viseu, São Pedro do Sul","Artigo 20.º, n.º 1, alínea a) do Código dos Contratos Públicos",,,,,,Não aplicável.,Não aplicável.,
Aquisição de servidor aplicacional para CS Lousã,Ajuste Direto Regime Geral,Aquisição de bens móveis,"48820000-2, Servidores","Administração Regional de Saúde do Centro, I.P. (503122165)","Basedois - Informática e Telecomunicações, Lda (501333401)","2.280,00 €",20-05-2013,20-05-2013,15 dias,"Portugal, Coimbra, Lousã","Artigo 20.º, n.º 1, alínea a) do Código dos Contratos Públicos",,,,,,Não aplicável.,Não aplicável.,
Aquisição de 2 projectores de vídeo para o CS Lousã e CS S. Pedro Sul,Ajuste Direto Regime Geral,Aquisição de bens móveis,"38652120-7, Videoprojectores","Administração Regional de Saúde do Centro, I.P. (503122165)","Basedois - Informática e Telecomunicações, Lda (501333401)","770,00 €",20-05-2013,20-05-2013,15 dias,"Portugal, Coimbra, Lousã<BR/>Portugal, Viseu, São Pedro do Sul","Artigo 20.º, n.º 1, alínea a) do Código dos Contratos Públicos",,,,,,Não aplicável.,Não aplicável.,
Aquisição de reagente para determinação do tempo de protrombina,Ajuste Direto Regime Geral,Aquisição de bens móveis,"33000000-0, Equipamento médico, medicamentos e produtos para cuidados pessoais","Administração Regional de Saúde do Centro, I.P. (503122165)",Roche sistemas de diagnóstico (504282921),"146.062,28 €",16-05-2013,14-05-2013,360 dias,"Portugal, Coimbra, Coimbra","Artigo 24.º, n.º 1, alínea e) do Código dos Contratos Públicos",,,,,,Não aplicável.,Não aplicável.,
Aquisição de material de consumo clinico,Ajuste Direto Regime Geral,Aquisição de bens móveis,"33140000-3, Material médico de consumo","ADMINISTRAÇÃO REGIONAL DE SAÚDE DO CENTRO, I. P. (503122165)",NKM (508930138),"2.659,89 €",16-05-2013,15-05-2013,90 dias,"Portugal, Coimbra, Coimbra","Artigo 20.º, n.º 1, alínea a) do Código dos Contratos Públicos",,,,,,Não aplicável.,Não aplicável.,
"AQUISIÇÃO DE PAPEL RUGOSO P/ ARSC, IP",Ajuste Direto Regime Geral,Aquisição de bens móveis,"33140000-3, Material médico de consumo","Administração Regional de Saúde do Centro, I.P. (503122165)","Bastos Viegas, SA (500042772)","1.971,80 €",14-05-2013,14-05-2013,90 dias,"Portugal, Coimbra, Coimbra","Artigo 20.º, n.º 1, alínea a) do Código dos Contratos Públicos",,,,,,Não aplicável.,Não aplicável.,
