Objeto do Contrato,Tipo de Procedimento,Tipo(s) de Contrato,CPVs,Entidade(s) Adjudicante(s),Entidade(s) Adjudicatária(s),Preço Contratual,Data de Publicação,Data de Celebração do Contrato,Prazo de Execução,Local de Execução,Fundamentação,Data de Fecho do Contrato,Preço Total Efetivo,Causas das Alterações ao Prazo,Causas das Alterações ao Preço,Estado,N.º registo do Acordo Quadro,Descrição do Acordo Quadro,Procedimento Centralizado
AD291-2018PRESTAÇÃO DE CUIDADOS DE SAUDE RADIOTERAPIA EXTERNA,Ajuste Direto Regime Geral,Aquisição de serviços,"85140000-2, Serviços de saúde diversos","Instituto Português de Oncologia de Lisboa Francisco Gentil, E. P. E. (506361616)",HOSPITAL CUF DESCOBERTAS (504872982),"50.000,00 €",02-03-2018,15-02-2018,320 dias,"Portugal, Lisboa, Lisboa","Artigo 24.º, n.º 1, alínea c) do Código dos Contratos Públicos",,,,,,Não aplicável.,Não aplicável.,FALSE
AD85-2018BRENTUXIMAB VEDOTIN 50 MG INJ,Ajuste Direto Regime Geral,Aquisição de bens móveis,"33600000-6, Produtos farmacêuticos","Instituto Português de Oncologia de Lisboa Francisco Gentil, E. P. E. (506361616)","TAKEDA FARMACEUTICOS PORTUGAL, LDA. (502801204)","543.610,80 €",02-03-2018,02-02-2018,333 dias,"Portugal, Lisboa, Lisboa","Artigo 24.º, n.º 1, alínea e) do Código dos Contratos Públicos",,,,,,Não aplicável.,Não aplicável.,FALSE
AD140-2018 P. DE SERVIIÇOS DE MANUTENÇÃO E ASSITENCIA TÉCNICA,Ajuste Direto Regime Geral,Aquisição de serviços,"50400000-9, Serviços de reparação e manutenção de equipamento médico e de precisão","Instituto Português de Oncologia de Lisboa Francisco Gentil, E. P. E. (506361616)",CARESTREAM HEALTH PORTUGAL LDA (508054320),"101.249,76 €",02-03-2018,22-02-2018,310 dias,"Portugal, Lisboa, Lisboa","Artigo 24.º, n.º 1, alínea e) do Código dos Contratos Públicos",,,,,,Não aplicável.,Não aplicável.,FALSE
AD24-2018 FORNECIMENTO E LEITURA DE DOSIMETROS,Ajuste Direto Regime Geral,Aquisição de serviços,"85147000-1, Serviços de medicina do trabalho","Instituto Português de Oncologia de Lisboa Francisco Gentil, E. P. E. (506361616)",CENDOSIM UNIPESSOAL LDA (510685307),"13.296,00 €",02-03-2018,06-02-2018,330 dias,"Portugal, Lisboa, Lisboa","Artigo 20.º, n.º 1, alínea a) do Código dos Contratos Públicos",,,,,,Não aplicável.,Não aplicável.,FALSE
"AD186-2018IODETO 5,10,15,20,30, 50-70 150,1110",Ajuste Direto Regime Geral,Aquisição de bens móveis,"33600000-6, Produtos farmacêuticos","Instituto Português de Oncologia de Lisboa Francisco Gentil, E. P. E. (506361616)",ISOTOPOS E DERIVADOS ISODER S.A. (502241594),"62.808,00 €",01-03-2018,25-01-2018,30 dias,"Portugal, Lisboa, Lisboa","Artigo 20.º, n.º 1, alínea a) do Código dos Contratos Públicos",,,,,,Não aplicável.,Não aplicável.,FALSE
AD78-2018ASDPARAGINASE PEGUILADA 750 UI/ML,Ajuste Direto Regime Geral,Aquisição de bens móveis,"33600000-6, Produtos farmacêuticos","Instituto Português de Oncologia de Lisboa Francisco Gentil, E. P. E. (506361616)","ALLOGA PORTUGAL-ARMAZENAGEM E DISTRIBUIÇÃO FARMACEUTICA, LDA (504507230)","702.000,00 €",01-03-2018,15-02-2018,320 dias,"Portugal, Lisboa, Lisboa","Artigo 24.º, n.º 1, alínea e) do Código dos Contratos Públicos",,,,,,Não aplicável.,Não aplicável.,FALSE
AD178-2018-TERCNÉCIO 99 MTC,Ajuste Direto Regime Geral,Aquisição de bens móveis,"33600000-6, Produtos farmacêuticos","Instituto Português de Oncologia de Lisboa Francisco Gentil, E. P. E. (506361616)",ISOTOPOS E DERIVADOS ISODER S.A. (502241594),"4.600,00 €",01-03-2018,12-01-2018,30 dias,"Portugal, Lisboa, Lisboa","Artigo 20.º, n.º 1, alínea a) do Código dos Contratos Públicos",,,,,,Não aplicável.,Não aplicável.,FALSE
AD96-2018 MEDICAMENTOS ANTI-INFECIOSOS,Ao abrigo de acordo-quadro (art.º 259.º),Aquisição de bens móveis,"33600000-6, Produtos farmacêuticos","Instituto Português de Oncologia de Lisboa Francisco Gentil, E. P. E. (506361616)","BRISTOL-MYERS SQUIBB FARM. PORTUGUESA S.A., (500048193)","7.800,00 €",01-03-2018,07-02-2018,30 dias,"Portugal, Lisboa, Lisboa",Artigo 259.º do Código dos Contratos Públicos,,,,,,1422736,CP 2015/41 - ACORDO QUADRO PARA FORNECIMENTO DE MEDICAMENTOS ANTI-INFECIOSOS: ANTIVÍRICOS E ANTIFÚNGICOS ÀS INSTITUIÇÕES E SERVIÇOS DO SERVIÇO NACIONAL DE SAÚDE,FALSE
AD96-2018MEDICAMENTOS ANTI-INFECIOSOS,Ao abrigo de acordo-quadro (art.º 259.º),Aquisição de bens móveis,"33600000-6, Produtos farmacêuticos","Instituto Português de Oncologia de Lisboa Francisco Gentil, E. P. E. (506361616)",LABORATÓRIOS PFIZER (500162166),"47.914,80 €",01-03-2018,08-02-2018,332 dias,"Portugal, Lisboa, Lisboa",Artigo 259.º do Código dos Contratos Públicos,,,,,,1422736,CP 2015/41 - ACORDO QUADRO PARA FORNECIMENTO DE MEDICAMENTOS ANTI-INFECIOSOS: ANTIVÍRICOS E ANTIFÚNGICOS ÀS INSTITUIÇÕES E SERVIÇOS DO SERVIÇO NACIONAL DE SAÚDE,FALSE
AD316-2018AQUISIÇÃO DE DETERGENTE E DESINFECTANTE ENDOHIGH,Ajuste Direto Regime Geral,Aquisição de bens móveis,"39831200-8, Detergentes","Instituto Português de Oncologia de Lisboa Francisco Gentil, E. P. E. (506361616)","SIMMÉDICA -SISTEMAS INTEGRALES DE LA MEDICINA, S.A SUCURSAL EM PORTUGAL (980488842)","26.006,00 €",01-03-2018,02-02-2018,334 dias,"Portugal, Lisboa, Lisboa","Artigo 24.º, n.º 1, alínea e) do Código dos Contratos Públicos",,,,,,Não aplicável.,Não aplicável.,FALSE
AD96-2018POSACONAZOL 40 MG-100 MG,Ao abrigo de acordo-quadro (art.º 259.º),Aquisição de bens móveis,"33600000-6, Produtos farmacêuticos","Instituto Português de Oncologia de Lisboa Francisco Gentil, E. P. E. (506361616)",MERCK SHARP  DOHME LDA (500191360),"41.988,93 €",28-02-2018,07-02-2018,332 dias,"Portugal, Lisboa, Lisboa",Artigo 259.º do Código dos Contratos Públicos,,,,,,1422736,CP 2015/41 - ACORDO QUADRO PARA FORNECIMENTO DE MEDICAMENTOS ANTI-INFECIOSOS: ANTIVÍRICOS E ANTIFÚNGICOS ÀS INSTITUIÇÕES E SERVIÇOS DO SERVIÇO NACIONAL DE SAÚDE,FALSE
Aquisição de Serviços de Análise do Risco e Qualidade dos Dados da Solução de MCDT’S,Ajuste Direto Regime Geral,Aquisição de serviços,"72000000-5, Serviços de TI: consultoria, desenvolvimento de software, Internet e apoio","Instituto Português de Oncologia de Lisboa Francisco Gentil, E. P. E. (506361616)","Cerner Portugal, Unipessoal, Lda (513269843)","21.080,00 €",28-02-2018,16-02-2018,90 dias,"Portugal, Lisboa, Lisboa","Artigo 24.º, n.º 1, alínea e) do Código dos Contratos Públicos",,,,,,Não aplicável.,Não aplicável.,FALSE
"AD6-2018-TACROLIMUS 1MG-0,5 -5MG",Ao abrigo de acordo-quadro (art.º 259.º),Aquisição de bens móveis,"33600000-6, Produtos farmacêuticos","Instituto Português de Oncologia de Lisboa Francisco Gentil, E. P. E. (506361616)","ASTELLAS FARMA, LDA (502540249)","1.189,53 €",28-02-2018,19-02-2018,30 dias,"Portugal, Lisboa, Lisboa",Artigo 259.º do Código dos Contratos Públicos,,,,,,1771819,CP 2015/6 - Acordo quadro para o fornecimento de Medicamentos do Foro Oncológico,FALSE
AD6-2018-SIRILIMUS 2 MG,Ao abrigo de acordo-quadro (art.º 259.º),Aquisição de bens móveis,"33600000-6, Produtos farmacêuticos","Instituto Português de Oncologia de Lisboa Francisco Gentil, E. P. E. (506361616)",PFIZER BIOFARMACEITICA SOCIEDADE UNIPESSOALO (513300376),"776,00 €",28-02-2018,26-02-2018,30 dias,"Portugal, Lisboa, Lisboa",Artigo 259.º do Código dos Contratos Públicos,,,,,,1771819,CP 2015/6 - Acordo quadro para o fornecimento de Medicamentos do Foro Oncológico,FALSE
AD6-2018-LETROZOL 2.5 MG,Ao abrigo de acordo-quadro (art.º 259.º),Aquisição de bens móveis,"33600000-6, Produtos farmacêuticos","Instituto Português de Oncologia de Lisboa Francisco Gentil, E. P. E. (506361616)","TECNIMEDE, SA (500626413)","3.150,00 €",28-02-2018,19-02-2018,30 dias,"Portugal, Lisboa, Lisboa",Artigo 259.º do Código dos Contratos Públicos,,,,,,1771819,CP 2015/6 - Acordo quadro para o fornecimento de Medicamentos do Foro Oncológico,FALSE
AD5-2018MEDICAMENTOS  ANTI-INFECIOSOS,Ao abrigo de acordo-quadro (art.º 259.º),Aquisição de bens móveis,"33600000-6, Produtos farmacêuticos","Instituto Português de Oncologia de Lisboa Francisco Gentil, E. P. E. (506361616)",HIKMA FARMACEUTICA PORTUGAL LDA (502266791),"732,00 €",28-02-2018,15-02-2018,365 dias,"Portugal, Lisboa, Lisboa",Artigo 259.º do Código dos Contratos Públicos,,,,,,1326195,ACORDO QUADRO PARA FORNECIMENTO DE MEDICAMENTOS ANTI-INFECIOSOS: EXCETO ANTIVÍRICOS E ANTIFÚNGICOS ÀS INSTITUIÇÕES E SERVIÇOS DO SERVIÇO NACIONAL DE SAÚDE,FALSE
AD88-2018 VISMODEGIB 150 MG CP,Ajuste Direto Regime Geral,Aquisição de bens móveis,"33600000-6, Produtos farmacêuticos","Instituto Português de Oncologia de Lisboa Francisco Gentil, E. P. E. (506361616)","ROCHE FARMACEUTICA QUIMICA, LDA (500233810)","416.057,99 €",27-02-2018,29-01-2018,336 dias,"Portugal, Lisboa, Lisboa","Artigo 24.º, n.º 1, alínea e) do Código dos Contratos Públicos",,,,,,Não aplicável.,Não aplicável.,FALSE
AD7-2018-HIDROCORTISONA 100 MG INJ,Ao abrigo de acordo-quadro (art.º 259.º),Aquisição de bens móveis,"33600000-6, Produtos farmacêuticos","Instituto Português de Oncologia de Lisboa Francisco Gentil, E. P. E. (506361616)","GENERIS FARMACEUTICA, S.A. (508107997)","2.340,00 €",27-02-2018,22-02-2018,362 dias,"Portugal, Lisboa, Lisboa",Artigo 259.º do Código dos Contratos Públicos,,,,,,1415640,CP 2015/7 - ACORDO QUADRO PARA FORNECIMENTO DE HORMONAS E OUTROS MEDICAMENTOS USADOS NO TRATAMENTO DAS DOENÇAS ENDÓCRINAS ÀS INSTITUIÇÕES E SERVIÇOS DO SERVIÇO NACIONAL DE SAÚDE,FALSE
AD7-2018PEGVOSOMANT10 MG INJ,Ao abrigo de acordo-quadro (art.º 259.º),Aquisição de bens móveis,"33600000-6, Produtos farmacêuticos","Instituto Português de Oncologia de Lisboa Francisco Gentil, E. P. E. (506361616)",PFIZER BIOFARMACEUTICA SOCIEDADE UNIPESSOAL (513300376),"6.798,88 €",27-02-2018,15-01-2018,3658 dias,"Portugal, Lisboa, Lisboa",Artigo 259.º do Código dos Contratos Públicos,,,,,,1415640,CP 2015/7 - ACORDO QUADRO PARA FORNECIMENTO DE HORMONAS E OUTROS MEDICAMENTOS USADOS NO TRATAMENTO DAS DOENÇAS ENDÓCRINAS ÀS INSTITUIÇÕES E SERVIÇOS DO SERVIÇO NACIONAL DE SAÚDE,FALSE
AD7-2018 MECA SERMIN,Ao abrigo de acordo-quadro (art.º 259.º),Aquisição de bens móveis,"33600000-6, Produtos farmacêuticos","Instituto Português de Oncologia de Lisboa Francisco Gentil, E. P. E. (506361616)",IPSEN-PRODUTOS FAREMACEUTICOS (502609800),"5.900,00 €",27-02-2018,15-01-2018,365 dias,"Portugal, Lisboa, Lisboa",Artigo 259.º do Código dos Contratos Públicos,,,,,,1415640,CP 2015/7 - ACORDO QUADRO PARA FORNECIMENTO DE HORMONAS E OUTROS MEDICAMENTOS USADOS NO TRATAMENTO DAS DOENÇAS ENDÓCRINAS ÀS INSTITUIÇÕES E SERVIÇOS DO SERVIÇO NACIONAL DE SAÚDE,FALSE
AD7-2018-LEVOTIROXINA INSULINA MISTA TOROTROFINA,Ao abrigo de acordo-quadro (art.º 259.º),Aquisição de bens móveis,"33600000-6, Produtos farmacêuticos","Instituto Português de Oncologia de Lisboa Francisco Gentil, E. P. E. (506361616)",SANOFI PRODUTOS FARMACEUTICOS (500134960),"103,95 €",27-02-2018,25-01-2018,365 dias,"Portugal, Lisboa, Lisboa",Artigo 259.º do Código dos Contratos Públicos,,,,,,1415640,CP 2015/7 - ACORDO QUADRO PARA FORNECIMENTO DE HORMONAS E OUTROS MEDICAMENTOS USADOS NO TRATAMENTO DAS DOENÇAS ENDÓCRINAS ÀS INSTITUIÇÕES E SERVIÇOS DO SERVIÇO NACIONAL DE SAÚDE,FALSE
AD117-2018LENALIDOMIDA 25 MG CP,Ajuste Direto Regime Geral,Aquisição de bens móveis,"33600000-6, Produtos farmacêuticos","Instituto Português de Oncologia de Lisboa FG, E.P.E. (506361616)","CELGENE SOCIEDADE UNIPESSOAL, LDA (507791690)","178.765,59 €",27-02-2018,05-01-2018,365 dias,"Portugal, Lisboa, Lisboa","Artigo 24.º, n.º 1, alínea c) do Código dos Contratos Públicos",,,,,,Não aplicável.,Não aplicável.,FALSE
AD154-2018 POMALIDOMIDA 2 MG,Ajuste Direto Regime Geral,Aquisição de bens móveis,"33600000-6, Produtos farmacêuticos","Instituto Português de Oncologia de Lisboa FG, E.P.E. (506361616)",CELGENE SOCIEDADE UNIPESSOAL (507791690),"107.528,40 €",27-02-2018,05-01-2018,360 dias,"Portugal, Lisboa, Lisboa","Artigo 24.º, n.º 1, alínea e) do Código dos Contratos Públicos",,,,,,Não aplicável.,Não aplicável.,FALSE
AD118-2018-LENALIDOMIDA,Ajuste Direto Regime Geral,Aquisição de bens móveis,"33600000-6, Produtos farmacêuticos","Instituto Português de Oncologia de Lisboa FG, E.P.E. (506361616)","CELGENE SOCIEDADE UNIPESSOAL, LDA (507791690)","49.246,70 €",27-02-2018,05-01-2018,365 dias,"Portugal, Lisboa, Lisboa","Artigo 24.º, n.º 1, alínea c) do Código dos Contratos Públicos",,,,,,Não aplicável.,Não aplicável.,FALSE
AD61-2018-SACOS DE PLÁSTICO,Ajuste Direto Regime Geral,Aquisição de bens móveis,"19640000-4, Sacos de polietileno para recolha de lixo e resíduos","Instituto Português de Oncologia de Lisboa Francisco Gentil, E. P. E. (506361616)","PLASAGAL-PRODUÇÃO DE EMBALAGENS, LDA (500219419)","69.617,00 €",26-02-2018,30-11-2017,365 dias,"Portugal, Lisboa, Lisboa","Artigo 24.º, n.º 1, alínea a) do Código dos Contratos Públicos",,,,,,Não aplicável.,Não aplicável.,FALSE
AD41-2018 AQUISIÇÃO DE ETIQUETA ESPECIFICA,Ajuste Direto Regime Geral,Aquisição de bens móveis,"30192000-1, Material de escritório","Instituto Português de Oncologia de Lisboa Francisco Gentil, E. P. E. (506361616)","ZMWAY, LDA (508085349)","13.560,00 €",23-02-2018,05-02-2018,30 dias,"Portugal, Lisboa, Lisboa","Artigo 24.º, n.º 1, alínea e) do Código dos Contratos Públicos",,,,,,Não aplicável.,Não aplicável.,FALSE
Obras de Remodelação e Ampliação do Bloco Operatório Central,Concurso público,Empreitadas de obras públicas,"45454000-4, Obras de reestruturação","Instituto Português de Oncologia de Lisboa Francisco Gentil, E. P. E. (506361616)","TEIXEIRA, PINTO & SOARES, S.A (503864960)","3.458.343,25 €",22-02-2018,31-01-2018,269 dias,"Portugal, Lisboa, Lisboa","Artigo 19.º, alínea b) do Código dos Contratos Públicos",,,,,,Não aplicável.,Não aplicável.,FALSE
AD882-2018TAMOXIFENO 20 MG CP,Ao abrigo de acordo-quadro (art.º 259.º),Aquisição de bens móveis,"33600000-6, Produtos farmacêuticos","Instituto Português de Oncologia de Lisboa Francisco Gentil, E. P. E. (506361616)","TECNIMEDE-SOCIEDADE TECNICO-MEDICINAL, S.A. (500626413)","4.249,88 €",21-02-2018,19-02-2018,30 dias,"Portugal, Lisboa, Lisboa",Artigo 259.º do Código dos Contratos Públicos,,,,,,1771819,CP 2015/6 - Acordo quadro para o fornecimento de Medicamentos do Foro Oncológico,FALSE
AD59-2018-PRESTAÇÃO DE SERVIÇOS  DE ARQUIVO NO EXTERIOR,Ajuste Direto Regime Geral,Aquisição de serviços,"79995100-6, Serviços de arquivo","Instituto Português de Oncologia de Lisboa Francisco Gentil, E. P. E. (506361616)",PAPIRO EMPRESA DE GESTÃO DE ARQUIVO S.A. (505067064),"19.690,68 €",21-02-2018,05-02-2018,365 dias,"Portugal, Lisboa, Lisboa","Artigo 20.º, n.º 1, alínea a) do Código dos Contratos Públicos",,,,,,Não aplicável.,Não aplicável.,FALSE
