Objeto do Contrato,Tipo de Procedimento,Tipo(s) de Contrato,CPVs,Entidade(s) Adjudicante(s),Entidade(s) Adjudicatária(s),Preço Contratual,Data de Publicação,Data de Celebração do Contrato,Prazo de Execução,Local de Execução,Fundamentação,Data de Fecho do Contrato,Preço Total Efetivo,Causas das Alterações ao Prazo,Causas das Alterações ao Preço,Estado,N.º registo do Acordo Quadro,Descrição do Acordo Quadro,Procedimento Centralizado
Aquisição de Serviços para Elaboração de Projeto para Instalação de Painéis Solares Fotovoltaicos e Instalação de Sistema Solar Térmico na ULSLA EPE,Consulta Prévia,Aquisição de serviços,"71240000-2, Serviços de arquitectura, engenharia e planeamento","Unidade Local de Saúde do Litoral Alentejano, E. P. E. (510445152)",SUCH (500900469),"27.200,00 €",11-05-2018,16-04-2018,90 dias,"Portugal, Setúbal, Santiago do Cacém",Artigo 27.º-A do Código dos Contratos Públicos,,,,,,Não aplicável.,Não aplicável.,FALSE
"Aquisição Serviços para Elaboração de Projeto Sistema Avac- substituição das unidades de tratamento de ar e grupos eletrobombas associadas à climatização, substituição de splits por bomba de calor e substituição das caldeiras por biomassa na ULSLA EPE",Consulta Prévia,Aquisição de serviços,"71240000-2, Serviços de arquitectura, engenharia e planeamento","Unidade Local de Saúde do Litoral Alentejano, E. P. E. (510445152)",SUCH (500900469),"71.000,00 €",11-05-2018,16-04-2018,120 dias,"Portugal, Setúbal, Santiago do Cacém",Artigo 27.º-A do Código dos Contratos Públicos,,,,,,Não aplicável.,Não aplicável.,FALSE
Aquisição Serviços para Elaboração de Projeto para Substituição de Lâmpadas Fluorescentes Compactas e Fluorescentes Tubulares com Balastro Electromagnetico pela nova gama Led`s para a ULSLA EPE,Consulta Prévia,Aquisição de serviços,"71240000-2, Serviços de arquitectura, engenharia e planeamento","Unidade Local de Saúde do Litoral Alentejano, E. P. E. (510445152)",Garcia Vazquez Lda (503036471),"4.200,00 €",10-05-2018,16-04-2018,60 dias,"Portugal, Setúbal, Santiago do Cacém",Artigo 27.º-A do Código dos Contratos Públicos,,,,,,Não aplicável.,Não aplicável.,FALSE
Aquisição de Serviços para Elaboração de Projeto para Isolamento Termico de Coberturas e Fachadas dos Edificios da ULSLA,Consulta Prévia,Aquisição de serviços,"71240000-2, Serviços de arquitectura, engenharia e planeamento","Unidade Local de Saúde do Litoral Alentejano, E. P. E. (510445152)",SUCH (500900469),"10.000,00 €",10-05-2018,16-04-2018,60 dias,"Portugal, Setúbal, Santiago do Cacém",Artigo 27.º-A do Código dos Contratos Públicos,,,,,,Não aplicável.,Não aplicável.,FALSE
