Objeto do Contrato,Tipo de Procedimento,Tipo(s) de Contrato,CPVs,Entidade(s) Adjudicante(s),Entidade(s) Adjudicatária(s),Preço Contratual,Data de Publicação,Data de Celebração do Contrato,Prazo de Execução,Local de Execução,Fundamentação,Data de Fecho do Contrato,Preço Total Efetivo,Causas das Alterações ao Prazo,Causas das Alterações ao Preço,Estado,N.º registo do Acordo Quadro,Descrição do Acordo Quadro,Procedimento Centralizado
1057E17 Medicament exclusivo Distrifarma - Cinchocaina,Ajuste Direto Regime Geral,Aquisição de bens móveis,"33600000-6, Produtos farmacêuticos","Centro Hospitalar de Leiria, E. P. E. (509822932)","DISTRIFARMA-COMP.DIST.FARMACEUTICA, SA (502948663)","103,75 €",21-11-2017,21-11-2017,60 dias,"Portugal, Leiria, Leiria","Artigo 24.º, n.º 1, alínea e) do Código dos Contratos Públicos","","",,,,Não aplicável.,Não aplicável.,FALSE
Fardamento Hospitalar,Ajuste Direto Regime Geral,Aquisição de bens móveis,"39518000-6, Roupa para uso hospitalar","Centro Hospitalar de Leiria, E. P. E. (509822932)","VTR JOBS, LDA (502124210)","5.600,00 €",21-11-2017,09-10-2017,60 dias,"Portugal, Leiria, Leiria","Artigo 20.º, n.º 1, alínea a) do Código dos Contratos Públicos",21-11-2017,"5.600,00 €",,,,Não aplicável.,Não aplicável.,FALSE
ROUPA HOSPITALAR,Ajuste Direto Regime Geral,Aquisição de bens móveis,"39518000-6, Roupa para uso hospitalar","Centro Hospitalar de Leiria, E. P. E. (509822932)","VTR JOBS, LDA (502124210)","3.660,00 €",21-11-2017,16-11-2017,60 dias,"Portugal, Leiria, Leiria","Artigo 20.º, n.º 1, alínea a) do Código dos Contratos Públicos",29-12-2017,"3.660,00 €",,,,Não aplicável.,Não aplicável.,FALSE
ROUPA HOSPITALAR,Ajuste Direto Regime Geral,Aquisição de bens móveis,"39518000-6, Roupa para uso hospitalar","Centro Hospitalar de Leiria, E. P. E. (509822932)","MEILEX,LDA (501759441)","12.733,50 €",21-11-2017,16-11-2017,60 dias,"Portugal, Leiria, Leiria","Artigo 20.º, n.º 1, alínea a) do Código dos Contratos Públicos",29-12-2017,"12.733,50 €",,,,Não aplicável.,Não aplicável.,FALSE
ROUPA HOSPITALAR,Ajuste Direto Regime Geral,Aquisição de bens móveis,"39518000-6, Roupa para uso hospitalar","Centro Hospitalar de Leiria, E. P. E. (509822932)","JULIANO SOARES E SANTOS, LDA (513160361)","1.416,00 €",21-11-2017,16-11-2017,60 dias,"Portugal, Leiria, Leiria","Artigo 20.º, n.º 1, alínea a) do Código dos Contratos Públicos",21-12-2017,"1.416,00 €",,,,Não aplicável.,Não aplicável.,FALSE
1235O15 Medicamento ILOPROST,Ao abrigo de acordo-quadro (art.º 259.º),Aquisição de bens móveis,"33600000-6, Produtos farmacêuticos","Centro Hospitalar de Leiria, E. P. E. (509822932)","BAYER PORTUGAL, LDA (500043256)","213,04 €",20-11-2017,17-11-2017,60 dias,"Portugal, Leiria, Leiria",Artigo 259.º do Código dos Contratos Públicos,"","",,,,2489595,CP 2016/18 - Acordo quadro para fornecimento de Medicamentos do Grupo 4: Sangue às Instituições e Serviços do Serviço Nacional de Saúde,FALSE
8225E17-REPARAÇÃO DE MÁQUINA DE LAVAR MATERIAL CIRÚRGICO,Ajuste Direto Regime Geral,Aquisição de serviços,"50000000-5, Serviços de reparação e manutenção","Centro Hospitalar de Leiria, E. P. E. (509822932)","MIELE PORTUGUESA, LDA. (500193100)","5.698,86 €",20-11-2017,14-11-2017,1 dias,"Portugal, Leiria, Leiria","Artigo 20.º, n.º 1, alínea a) do Código dos Contratos Públicos",14-11-2017,"5.698,86 €",,,,Não aplicável.,Não aplicável.,FALSE
1229O17 IMUNOGLOBULINA HUMANA CONTRA O ANTIGÉNIO D (1500UI),Ao abrigo de acordo-quadro (art.º 259.º),Aquisição de bens móveis,"33141520-1, Derivados do plasma","CENTRO HOSPITALAR DE LEIRIA, E.P.E. (509822932)","CSL BEHRING, LDA (503047201)","3.668,00 €",20-11-2017,09-11-2017,90 dias,"Portugal, Leiria, Leiria",Artigo 259.º do Código dos Contratos Públicos,"","",,,,1423488,ACORDO QUADRO PARA FORNECIMENTO DE DERIVADOS DO PLASMA HUMANO ÀS INSTITUIÇÕES E SERVIÇOS DO SERVIÇO NACIONAL DE SAÚDE CP 2015/9,FALSE
1212O17 Agregação P259-AC-2017-130,Ao abrigo de acordo-quadro (art.º 259.º),Aquisição de bens móveis,"33141520-1, Derivados do plasma","Centro Hospitalar de Leiria, E. P. E. (509822932)","TAKEDA-FARMACEUTICOS PORTUGAL,LDA. (502801204)","13.805,00 €",20-11-2017,23-10-2017,90 dias,"Portugal, Leiria, Leiria",Artigo 259.º do Código dos Contratos Públicos,"","",,,,1423488,ACORDO QUADRO PARA FORNECIMENTO DE DERIVADOS DO PLASMA HUMANO ÀS INSTITUIÇÕES E SERVIÇOS DO SERVIÇO NACIONAL DE SAÚDE CP 2015/9,FALSE
1212O17 Agregação P259-AC-2017-130,Ao abrigo de acordo-quadro (art.º 259.º),Aquisição de bens móveis,"33141520-1, Derivados do plasma","Centro Hospitalar de Leiria, E. P. E. (509822932)","GRIFOLS PORTUGAL-PROD.FARM.HOSPIT., LDA (502041285)","26.220,00 €",20-11-2017,23-10-2017,90 dias,"Portugal, Leiria, Leiria",Artigo 259.º do Código dos Contratos Públicos,"","",,,,1423488,ACORDO QUADRO PARA FORNECIMENTO DE DERIVADOS DO PLASMA HUMANO ÀS INSTITUIÇÕES E SERVIÇOS DO SERVIÇO NACIONAL DE SAÚDE CP 2015/9,FALSE
Bolsa Nutritiva 1435 KCAL,Ao abrigo de acordo-quadro (art.º 259.º),Aquisição de bens móveis,"33600000-6, Produtos farmacêuticos","Centro Hospitalar de Leiria, E. P. E. (509822932)","FRESENIUS KABI PHARMA PORTUGAL, LDA (504293753)","2.227,68 €",16-11-2017,15-11-2017,45 dias,"Portugal, Leiria, Leiria",Artigo 259.º do Código dos Contratos Públicos,"","",,,,1377429,Acordo Quadro para fornecimento de medicamentos para Nutrição Parentérica às Instituições e Serviços do Serviço Nacional de Saúde,FALSE
Material para Laparoscopia,Concurso público,Aquisição de bens móveis,"33169000-2, Material cirúrgico","Centro Hospitalar de Leiria, E. P. E. (509822932)","SFERAMED-MEDICAL SUPPLIER,LDA. (509762344)","14.172,00 €",15-11-2017,02-01-2017,365 dias,"Portugal, Leiria, Leiria","Artigo 20.º, n.º 1, alínea b) do Código dos Contratos Públicos","","",,,,Não aplicável.,Não aplicável.,FALSE
Material para Laparoscopia,Concurso público,Aquisição de bens móveis,"33169000-2, Material cirúrgico","Centro Hospitalar de Leiria, E. P. E. (509822932)","DIVISIONCARE HEALTH SERVICES, UNIP., LDA. (510616593)","23.480,00 €",15-11-2017,02-01-2017,365 dias,"Portugal, Leiria, Leiria","Artigo 20.º, n.º 1, alínea b) do Código dos Contratos Públicos","","",,,,Não aplicável.,Não aplicável.,FALSE
Material para Laparoscopia,Concurso público,Aquisição de bens móveis,"33169000-2, Material cirúrgico","Centro Hospitalar de Leiria, E. P. E. (509822932)","MEDTRONIC PORTUGAL, LDA (504223933)","7.435,00 €",15-11-2017,02-01-2017,365 dias,"Portugal, Leiria, Leiria","Artigo 20.º, n.º 1, alínea b) do Código dos Contratos Públicos","","",,,,Não aplicável.,Não aplicável.,FALSE
Material para Laparoscopia,Concurso público,Aquisição de bens móveis,"33169000-2, Material cirúrgico","Centro Hospitalar de Leiria, E. P. E. (509822932)","TELEFLEX MEDICAL, S.A.U. (980249783)","1.560,00 €",15-11-2017,02-01-2017,365 dias,"Portugal, Leiria, Leiria","Artigo 20.º, n.º 1, alínea b) do Código dos Contratos Públicos","","",,,,Não aplicável.,Não aplicável.,FALSE
Material para Laparoscopia,Concurso público,Aquisição de bens móveis,"33169000-2, Material cirúrgico","Centro Hospitalar de Leiria, E. P. E. (509822932)","MBA PORTUGAL, SA (504445960)","5.970,00 €",15-11-2017,02-01-2017,365 dias,"Portugal, Leiria, Leiria","Artigo 20.º, n.º 1, alínea b) do Código dos Contratos Públicos","","",,,,Não aplicável.,Não aplicável.,FALSE
Material para Laparoscopia,Concurso público,Aquisição de bens móveis,"33169000-2, Material cirúrgico","Centro Hospitalar de Leiria, E. P. E. (509822932)","ENDOTECNICA-MATERIAL CIRURGICO, LDA (503818348)","80.076,00 €",15-11-2017,02-01-2017,365 dias,"Portugal, Leiria, Leiria","Artigo 20.º, n.º 1, alínea b) do Código dos Contratos Públicos","","",,,,Não aplicável.,Não aplicável.,FALSE
GUIA ANGIOPLASTIA CORONÁRIA,Ajuste Direto Regime Geral,Aquisição de bens móveis,"33182000-9, Material de assistência à função cardíaca","Centro Hospitalar de Leiria, E. P. E. (509822932)","ABBOTT LABORATORIOS, LDA (500006148)","12.080,00 €",15-11-2017,24-10-2017,30 dias,"Portugal, Leiria, Leiria","Artigo 20.º, n.º 1, alínea a) do Código dos Contratos Públicos",10-11-2017,"12.080,00 €",,,,Não aplicável.,Não aplicável.,FALSE
Reagentes diversos para Imunologia,Ajuste Direto Regime Geral,Aquisição de bens móveis,"33696000-5, Reagentes e meios de contraste","Centro Hospitalar de Leiria, E. P. E. (509822932)","BAPTISTA MARQUES DIAG. E REAGENTES, LDA (501439110)","1.372,00 €",15-11-2017,15-11-2017,1372 dias,"Portugal, Leiria, Leiria","Artigo 26.º, n.º 1, alínea a) do Código dos Contratos Públicos","","",,,,Não aplicável.,Não aplicável.,FALSE
Reagentes diversos para Imunologia,Ajuste Direto Regime Geral,Aquisição de bens móveis,"33696000-5, Reagentes e meios de contraste","Centro Hospitalar de Leiria, E. P. E. (509822932)",THERMO FISHER DIAGNOSTICS (506916243),"162,95 €",15-11-2017,15-11-2017,45 dias,"Portugal, Leiria, Leiria","Artigo 26.º, n.º 1, alínea a) do Código dos Contratos Públicos","","",,,,Não aplicável.,Não aplicável.,FALSE
Reagentes diversos para Imunologia,Ajuste Direto Regime Geral,Aquisição de bens móveis,"33696000-5, Reagentes e meios de contraste","Centro Hospitalar de Leiria, E. P. E. (509822932)","DIASORIN IBERIA, SA - SUC. PORTUGAL (980379563)","244,00 €",15-11-2017,15-11-2017,45 dias,"Portugal, Leiria, Leiria","Artigo 26.º, n.º 1, alínea a) do Código dos Contratos Públicos","","",,,,Não aplicável.,Não aplicável.,FALSE
Reagentes Diversos para Imunoquímica,Ajuste Direto Regime Geral,Aquisição de bens móveis,"33696000-5, Reagentes e meios de contraste","Centro Hospitalar de Leiria, E. P. E. (509822932)","RADIOMETER IBERICA,S.A. (980201667)","4.000,00 €",15-11-2017,15-11-2017,45 dias,"Portugal, Leiria, Leiria","Artigo 26.º, n.º 1, alínea a) do Código dos Contratos Públicos","","",,,,Não aplicável.,Não aplicável.,FALSE
Reagentes Diversos para Imunohistoquímica,Ajuste Direto Regime Geral,Aquisição de bens móveis,"33696000-5, Reagentes e meios de contraste","Centro Hospitalar de Leiria, E. P. E. (509822932)","NORMAX-FABRICA VIDROS CIENTIFICOS, LDA (500203130)","38,40 €",15-11-2017,15-11-2017,45 dias,"Portugal, Leiria, Leiria","Artigo 26.º, n.º 1, alínea a) do Código dos Contratos Públicos","","",,,,Não aplicável.,Não aplicável.,FALSE
Reagentes Diversos para Imunohistoquímica,Ajuste Direto Regime Geral,Aquisição de bens móveis,"33696000-5, Reagentes e meios de contraste","Centro Hospitalar de Leiria, E. P. E. (509822932)","WERFEN PORTUGAL, LDA (501086110)","4.246,80 €",15-11-2017,15-11-2017,45 dias,"Portugal, Leiria, Leiria","Artigo 26.º, n.º 1, alínea a) do Código dos Contratos Públicos","","",,,,Não aplicável.,Não aplicável.,FALSE
TESOURA DE METZENBAUM DESCARTÁVEL ,Ajuste Direto Regime Geral,Aquisição de bens móveis,"33140000-3, Material médico de consumo","Centro Hospitalar de Leiria, E. P. E. (509822932)","MBA PORTUGAL, SA (504445960)","7.164,00 €",15-11-2017,13-09-2017,120 dias,"Portugal, Leiria, Leiria","Artigo 20.º, n.º 1, alínea a) do Código dos Contratos Públicos","","",,,,Não aplicável.,Não aplicável.,FALSE
MATERIAL PARA CIRURGIA PFNA ,Ajuste Direto Regime Geral,Aquisição de bens móveis,"33183100-7, Implantes ortopédicos","Centro Hospitalar de Leiria, E. P. E. (509822932)","JOHNSON E JOHNSON, LDA (500153370)","2.205,91 €",15-11-2017,25-08-2017,30 dias,"Portugal, Leiria, Leiria","Artigo 20.º, n.º 1, alínea a) do Código dos Contratos Públicos",25-09-2017,"2.205,91 €",,,,Não aplicável.,Não aplicável.,FALSE
Malhas cirúrgica com revestimento absorvível,Ajuste Direto Regime Geral,Aquisição de bens móveis,"33184100-4, Implantes cirúrgicos","Centro Hospitalar de Leiria, E. P. E. (509822932)","C.R.BARD PORTUGAL-PROD.ART.MED.FARM.,LDA (502438274)","8.060,00 €",14-11-2017,14-09-2017,120 dias,"Portugal, Leiria, Leiria","Artigo 20.º, n.º 1, alínea a) do Código dos Contratos Públicos","","",,,,Não aplicável.,Não aplicável.,FALSE
Saco recolha de orgãos,Ajuste Direto Regime Geral,Aquisição de bens móveis,"33140000-3, Material médico de consumo","Centro Hospitalar de Leiria, E. P. E. (509822932)",APPLIED MEDICAL DISTRIBUITION EUROPE B.V. - SUC.PORTUGAL (980571111),"16.000,00 €",14-11-2017,11-09-2017,365 dias,"Portugal, Leiria, Leiria","Artigo 20.º, n.º 1, alínea a) do Código dos Contratos Públicos","","",,,,Não aplicável.,Não aplicável.,FALSE
Sistemas Pacemaker,Ao abrigo de acordo-quadro (art.º 259.º),Aquisição de bens móveis,"33182000-9, Material de assistência à função cardíaca","Centro Hospitalar de Leiria, E. P. E. (509822932)","ST.JUDE MEDICAL PORTUGAL, LDA. (504180746)","42.500,00 €",14-11-2017,01-06-2017,180 dias,"Portugal, Leiria, Leiria",Artigo 259.º do Código dos Contratos Públicos,"","",,,,600105,"CONCURSO PÚBLICO PARA A CELEBRAÇÃO DE CONTRATOS PÚBLICOS DE APROVISIONAMENTO PARA A ÁREA DA SAÚDE, COM VISTA AO FORNECIMENTO SISTEMAS DE PACEMAKERS ÀS INSTITUIÇÕES E SERVIÇOS DO SERVIÇO NACIONAL DE SAÚDE",FALSE
Sistema Pacemaker,Ao abrigo de acordo-quadro (art.º 259.º),Aquisição de bens móveis,"33182000-9, Material de assistência à função cardíaca","Centro Hospitalar de Leiria, E. P. E. (509822932)",BIOTRONIK PORTUGAL (UNIPESSOAL) LDA (510726941),"79.875,00 €",14-11-2017,01-06-2017,180 dias,"Portugal, Leiria, Leiria",Artigo 259.º do Código dos Contratos Públicos,"","",,,,600105,"CONCURSO PÚBLICO PARA A CELEBRAÇÃO DE CONTRATOS PÚBLICOS DE APROVISIONAMENTO PARA A ÁREA DA SAÚDE, COM VISTA AO FORNECIMENTO SISTEMAS DE PACEMAKERS ÀS INSTITUIÇÕES E SERVIÇOS DO SERVIÇO NACIONAL DE SAÚDE",FALSE
Sistemas Pacemaker,Ao abrigo de acordo-quadro (art.º 259.º),Aquisição de bens móveis,"33182000-9, Material de assistência à função cardíaca","Centro Hospitalar de Leiria, E. P. E. (509822932)","MEDTRONIC PORTUGAL, LDA (504223933)","115.750,00 €",14-11-2017,01-06-2017,180 dias,"Portugal, Leiria, Leiria",Artigo 259.º do Código dos Contratos Públicos,"","",,,,600105,"CONCURSO PÚBLICO PARA A CELEBRAÇÃO DE CONTRATOS PÚBLICOS DE APROVISIONAMENTO PARA A ÁREA DA SAÚDE, COM VISTA AO FORNECIMENTO SISTEMAS DE PACEMAKERS ÀS INSTITUIÇÕES E SERVIÇOS DO SERVIÇO NACIONAL DE SAÚDE",FALSE
Sistemas Pacemaker,Ao abrigo de acordo-quadro (art.º 259.º),Aquisição de bens móveis,"33182000-9, Material de assistência à função cardíaca","Centro Hospitalar de Leiria, E. P. E. (509822932)","LIVANOVA PORTUGAL, LDA. (505514010)","44.900,00 €",14-11-2017,01-06-2017,180 dias,"Portugal, Leiria, Leiria",Artigo 259.º do Código dos Contratos Públicos,"","",,,,600105,"CONCURSO PÚBLICO PARA A CELEBRAÇÃO DE CONTRATOS PÚBLICOS DE APROVISIONAMENTO PARA A ÁREA DA SAÚDE, COM VISTA AO FORNECIMENTO SISTEMAS DE PACEMAKERS ÀS INSTITUIÇÕES E SERVIÇOS DO SERVIÇO NACIONAL DE SAÚDE",FALSE
8214E17-REPARAÇÃO DE APARELHO DE RX (SUBSTITUIÇÃO DE AMPOLA),Ajuste Direto Regime Geral,Aquisição de serviços,"50000000-5, Serviços de reparação e manutenção","Centro Hospitalar de Leiria, E. P. E. (509822932)","DIAS & DINIS, LDA. (502081198)","7.500,00 €",14-11-2017,23-10-2017,1 dias,"Portugal, Leiria, Leiria","Artigo 20.º, n.º 1, alínea a) do Código dos Contratos Públicos",24-10-2017,"7.500,00 €",,,,Não aplicável.,Não aplicável.,FALSE
Sistemas Pacemaker,Ao abrigo de acordo-quadro (art.º 259.º),Aquisição de bens móveis,"33182000-9, Material de assistência à função cardíaca","Centro Hospitalar de Leiria, E. P. E. (509822932)","ST.JUDE MEDICAL PORTUGAL, LDA. (504180746)","69.250,00 €",14-11-2017,05-04-2017,270 dias,"Portugal, Leiria, Leiria",Artigo 259.º do Código dos Contratos Públicos,"","",,,,600105,"CONCURSO PÚBLICO PARA A CELEBRAÇÃO DE CONTRATOS PÚBLICOS DE APROVISIONAMENTO PARA A ÁREA DA SAÚDE, COM VISTA AO FORNECIMENTO SISTEMAS DE PACEMAKERS ÀS INSTITUIÇÕES E SERVIÇOS DO SERVIÇO NACIONAL DE SAÚDE",FALSE
0474E17- SERVIÇOS DE SEGURANÇA E VIGILÂNCIA (OUTUBRO A DEZEMBRO 2017),Ajuste Direto Regime Geral,Aquisição de serviços,"79000000-4, Serviços a empresas: direito, comercialização, consultoria, recrutamento, impressão e segurança","Centro Hospitalar de Leiria, E. P. E. (509822932)","VIGIEXPERT, LDA. (506807266)","41.526,45 €",14-11-2017,29-09-2017,92 dias,"Portugal, Leiria, Leiria","Artigo 20.º, n.º 1, alínea a) do Código dos Contratos Públicos","","",,,,Não aplicável.,Não aplicável.,FALSE
Sistemas Pacemaker,Ao abrigo de acordo-quadro (art.º 259.º),Aquisição de bens móveis,"33182000-9, Material de assistência à função cardíaca","Centro Hospitalar de Leiria, E. P. E. (509822932)","LIVANOVA PORTUGAL, LDA. (505514010)","13.800,00 €",14-11-2017,05-04-2017,270 dias,"Portugal, Leiria, Leiria",Artigo 259.º do Código dos Contratos Públicos,"","",,,,600105,"CONCURSO PÚBLICO PARA A CELEBRAÇÃO DE CONTRATOS PÚBLICOS DE APROVISIONAMENTO PARA A ÁREA DA SAÚDE, COM VISTA AO FORNECIMENTO SISTEMAS DE PACEMAKERS ÀS INSTITUIÇÕES E SERVIÇOS DO SERVIÇO NACIONAL DE SAÚDE",FALSE
Agulha Hipodérmica,Ao abrigo de acordo-quadro (art.º 259.º),Aquisição de bens móveis,"33140000-3, Material médico de consumo","Centro Hospitalar de Leiria, E. P. E. (509822932)",OVERPHARMA-PROD.MEDICOS FARMACEUTICOS (505792362),"516,00 €",14-11-2017,20-02-2017,30 dias,"Portugal, Leiria, Leiria",Artigo 259.º do Código dos Contratos Públicos,20-03-2017,"516,00 €",,,,1341769,"ACORDO QUADRO PARA FORNECIMENTO DE SERINGAS, AGULHAS E CONTENTORES ÀS INSTITUIÇÕES E SERVIÇOS DO SERVIÇO NACIONAL DE SAÚDE PROGRAMA DE CONCURSO",FALSE
Fios de Sutura,Ao abrigo de acordo-quadro (art.º 259.º),Aquisição de bens móveis,"33140000-3, Material médico de consumo","Centro Hospitalar de Leiria, E. P. E. (509822932)","SOCIME II - PRODUTOS MEDICOS, LDA (504453939)","8.171,52 €",14-11-2017,14-07-2017,365 dias,"Portugal, Leiria, Leiria",Artigo 259.º do Código dos Contratos Públicos,"","",,,,1830807,Acordo quadro para fornecimento de Suturas Cirúrgicas - Parte I   às Instituições e Serviços do Serviço Nacional de Saúde,FALSE
Fios de Sutura,Ao abrigo de acordo-quadro (art.º 259.º),Aquisição de bens móveis,"33140000-3, Material médico de consumo","Centro Hospitalar de Leiria, E. P. E. (509822932)","MEDTRONIC PORTUGAL, LDA (504223933)","213,12 €",14-11-2017,14-07-2017,365 dias,"Portugal, Leiria, Leiria",Artigo 259.º do Código dos Contratos Públicos,"","",,,,1830807,Acordo quadro para fornecimento de Suturas Cirúrgicas - Parte I   às Instituições e Serviços do Serviço Nacional de Saúde,FALSE
Fios de Sutura,Ao abrigo de acordo-quadro (art.º 259.º),Aquisição de bens móveis,"33140000-3, Material médico de consumo","Centro Hospitalar de Leiria, E. P. E. (509822932)","B.BRAUN MEDICAL, LDA (501506543)","5.343,48 €",14-11-2017,14-07-2017,365 dias,"Portugal, Leiria, Leiria",Artigo 259.º do Código dos Contratos Públicos,"","",,,,1830807,Acordo quadro para fornecimento de Suturas Cirúrgicas - Parte I   às Instituições e Serviços do Serviço Nacional de Saúde,FALSE
"Seringas, Agulhas Contentores",Ao abrigo de acordo-quadro (art.º 259.º),Aquisição de bens móveis,"33140000-3, Material médico de consumo","Centro Hospitalar de Leiria, E. P. E. (509822932)","LINEAMEDICA-DISPOS.MEDICO-CIRURGICOS, SA (505148676)","10.752,00 €",14-11-2017,10-02-2017,365 dias,"Portugal, Leiria, Leiria",Artigo 259.º do Código dos Contratos Públicos,"","",,,,1341769,"ACORDO QUADRO PARA FORNECIMENTO DE SERINGAS, AGULHAS E CONTENTORES ÀS INSTITUIÇÕES E SERVIÇOS DO SERVIÇO NACIONAL DE SAÚDE PROGRAMA DE CONCURSO",FALSE
"Seringas, Agulhas Contentores",Ao abrigo de acordo-quadro (art.º 259.º),Aquisição de bens móveis,"33140000-3, Material médico de consumo","Centro Hospitalar de Leiria, E. P. E. (509822932)","BECTON DICKINSON UNIPESSOAL, LDA. (514239743)","29.520,00 €",14-11-2017,10-02-2017,365 dias,"Portugal, Leiria, Leiria",Artigo 259.º do Código dos Contratos Públicos,"","",,,,1341769,"ACORDO QUADRO PARA FORNECIMENTO DE SERINGAS, AGULHAS E CONTENTORES ÀS INSTITUIÇÕES E SERVIÇOS DO SERVIÇO NACIONAL DE SAÚDE PROGRAMA DE CONCURSO",FALSE
"Seringas, Agulhas Contentores ",Ao abrigo de acordo-quadro (art.º 259.º),Aquisição de bens móveis,"33140000-3, Material médico de consumo","Centro Hospitalar de Leiria, E. P. E. (509822932)","DOCWORLD, LDA (508592909)","14.128,10 €",14-11-2017,10-02-2017,365 dias,"Portugal, Leiria, Leiria",Artigo 259.º do Código dos Contratos Públicos,"","",,,,1341769,"ACORDO QUADRO PARA FORNECIMENTO DE SERINGAS, AGULHAS E CONTENTORES ÀS INSTITUIÇÕES E SERVIÇOS DO SERVIÇO NACIONAL DE SAÚDE PROGRAMA DE CONCURSO",FALSE
"Seringas, Agulhas Contentores",Ao abrigo de acordo-quadro (art.º 259.º),Aquisição de bens móveis,"33140000-3, Material médico de consumo","Centro Hospitalar de Leiria, E. P. E. (509822932)","AMBIMED - GESTAO AMBIENTAL, LDA. (503593427)","11.800,00 €",14-11-2017,10-11-2017,365 dias,"Portugal, Leiria, Leiria",Artigo 259.º do Código dos Contratos Públicos,"","",,,,1341769,"ACORDO QUADRO PARA FORNECIMENTO DE SERINGAS, AGULHAS E CONTENTORES ÀS INSTITUIÇÕES E SERVIÇOS DO SERVIÇO NACIONAL DE SAÚDE PROGRAMA DE CONCURSO",FALSE
"Seringas, Agulhas Contentores",Ao abrigo de acordo-quadro (art.º 259.º),Aquisição de bens móveis,"33140000-3, Material médico de consumo","Centro Hospitalar de Leiria, E. P. E. (509822932)","PERGUT PORTUGAL-COM.PROD.HOSP.MED., LDA (501799729)","11.026,15 €",14-11-2017,10-02-2017,365 dias,"Portugal, Leiria, Leiria",Artigo 259.º do Código dos Contratos Públicos,"","",,,,1341769,"ACORDO QUADRO PARA FORNECIMENTO DE SERINGAS, AGULHAS E CONTENTORES ÀS INSTITUIÇÕES E SERVIÇOS DO SERVIÇO NACIONAL DE SAÚDE PROGRAMA DE CONCURSO",FALSE
"Seringas, Agulhas Contentores",Ao abrigo de acordo-quadro (art.º 259.º),Aquisição de bens móveis,"33140000-3, Material médico de consumo","Centro Hospitalar de Leiria, E. P. E. (509822932)","NORMAX-FABRICA VIDROS CIENTIFICOS, LDA (500203130)","272,30 €",14-11-2017,10-02-2017,365 dias,"Portugal, Leiria, Leiria",Artigo 259.º do Código dos Contratos Públicos,"","",,,,1341769,"ACORDO QUADRO PARA FORNECIMENTO DE SERINGAS, AGULHAS E CONTENTORES ÀS INSTITUIÇÕES E SERVIÇOS DO SERVIÇO NACIONAL DE SAÚDE PROGRAMA DE CONCURSO",FALSE
"Seringas, Agulhas Contentores",Ao abrigo de acordo-quadro (art.º 259.º),Aquisição de bens móveis,"33140000-3, Material médico de consumo","Centro Hospitalar de Leiria, E. P. E. (509822932)",OVERPHARMA-PROD.MEDICOS FARMACEUTICOS (505792362),"14.113,00 €",14-11-2017,10-02-2017,365 dias,"Portugal, Leiria, Leiria",Artigo 259.º do Código dos Contratos Públicos,"","",,,,1341769,"ACORDO QUADRO PARA FORNECIMENTO DE SERINGAS, AGULHAS E CONTENTORES ÀS INSTITUIÇÕES E SERVIÇOS DO SERVIÇO NACIONAL DE SAÚDE PROGRAMA DE CONCURSO",FALSE
Material para Eletromedicina,Concurso público,Aquisição de bens móveis,"33140000-3, Material médico de consumo","Centro Hospitalar de Leiria, E. P. E. (509822932)","MEDTRONIC PORTUGAL, LDA (504223933)","25.200,00 €",13-11-2017,25-09-2017,365 dias,"Portugal, Leiria, Leiria","Artigo 20.º, n.º 1, alínea b) do Código dos Contratos Públicos","","",,,,Não aplicável.,Não aplicável.,FALSE
Material para Eletromedicina,Concurso público,Aquisição de bens móveis,"33140000-3, Material médico de consumo","Centro Hospitalar de Leiria, E. P. E. (509822932)","MUNDINTER INTERC.MUNDIAL COMERCIO, SA (500199906)","73,54 €",13-11-2017,25-09-2017,365 dias,"Portugal, Leiria, Leiria","Artigo 20.º, n.º 1, alínea b) do Código dos Contratos Públicos","","",,,,Não aplicável.,Não aplicável.,FALSE
Material para Eletromedicina,Concurso público,Aquisição de bens móveis,"33140000-3, Material médico de consumo","Centro Hospitalar de Leiria, E. P. E. (509822932)","SPECULUM-ARTIGOS MEDICOS, SA (502996323)","1.170,25 €",13-11-2017,25-09-2017,365 dias,"Portugal, Leiria, Leiria","Artigo 20.º, n.º 1, alínea b) do Código dos Contratos Públicos","","",,,,Não aplicável.,Não aplicável.,FALSE
Material para Eletromedicina,Concurso público,Aquisição de bens móveis,"33140000-3, Material médico de consumo","Centro Hospitalar de Leiria, E. P. E. (509822932)","BACELAR E IRMAO EQUIP. MEDICOS, LDA. (500532818)","23,50 €",13-11-2017,25-09-2017,365 dias,"Portugal, Leiria, Leiria","Artigo 20.º, n.º 1, alínea b) do Código dos Contratos Públicos","","",,,,Não aplicável.,Não aplicável.,FALSE
Material para Eletromedicina,Concurso público,Aquisição de bens móveis,"33140000-3, Material médico de consumo","Centro Hospitalar de Leiria, E. P. E. (509822932)","IBERDATA EQUIPAMENTOS, SA (501904921)","7.577,20 €",13-11-2017,25-09-2017,365 dias,"Portugal, Leiria, Leiria","Artigo 20.º, n.º 1, alínea b) do Código dos Contratos Públicos","","",,,,Não aplicável.,Não aplicável.,FALSE
Material para Eletromedicina,Concurso público,Aquisição de bens móveis,"33140000-3, Material médico de consumo","Centro Hospitalar de Leiria, E. P. E. (509822932)","EUROCASMEDICA, SA (503322105)","3.000,00 €",13-11-2017,25-09-2017,365 dias,"Portugal, Leiria, Leiria","Artigo 20.º, n.º 1, alínea b) do Código dos Contratos Públicos","","",,,,Não aplicável.,Não aplicável.,FALSE
Material para Eletromedicina,Concurso público,Aquisição de bens móveis,"33140000-3, Material médico de consumo","Centro Hospitalar de Leiria, E. P. E. (509822932)","MULTINFOR-EQUIPAMENTO MANUTENCAO HOSPITALAR, LDA. (501691278)","5.265,00 €",13-11-2017,25-09-2017,365 dias,"Portugal, Leiria, Leiria","Artigo 20.º, n.º 1, alínea b) do Código dos Contratos Públicos","","",,,,Não aplicável.,Não aplicável.,FALSE
Material para Eletromedicina,Concurso público,Aquisição de bens móveis,"33140000-3, Material médico de consumo","Centro Hospitalar de Leiria, E. P. E. (509822932)","EZEQUIEL PANAO JORGE, LDA (501412727)","3.788,56 €",13-11-2017,25-09-2017,365 dias,"Portugal, Leiria, Leiria","Artigo 20.º, n.º 1, alínea b) do Código dos Contratos Públicos","","",,,,Não aplicável.,Não aplicável.,FALSE
Material para Eletromedicina,Concurso público,Aquisição de bens móveis,"33140000-3, Material médico de consumo","Centro Hospitalar de Leiria, E. P. E. (509822932)","NOSBET-EQUIPAMENTOS, LDA. (513514872)","3.326,00 €",13-11-2017,25-09-2017,365 dias,"Portugal, Leiria, Leiria","Artigo 20.º, n.º 1, alínea b) do Código dos Contratos Públicos","","",,,,Não aplicável.,Não aplicável.,FALSE
Material para Eletromedicina,Concurso público,Aquisição de bens móveis,"33140000-3, Material médico de consumo","Centro Hospitalar de Leiria, E. P. E. (509822932)","PARAMEDICA-EQUIPAMENTOS MEDICOS, LDA (501393005)","900,00 €",13-11-2017,25-09-2017,365 dias,"Portugal, Leiria, Leiria","Artigo 20.º, n.º 1, alínea b) do Código dos Contratos Públicos","","",,,,Não aplicável.,Não aplicável.,FALSE
Material para Eletromedicina,Concurso público,Aquisição de bens móveis,"33140000-3, Material médico de consumo","Centro Hospitalar de Leiria, E. P. E. (509822932)","ANASTACIO SALDANHA UNIPESSOAL, LDA. (505804441)","2.267,60 €",13-11-2017,25-09-2017,365 dias,"Portugal, Leiria, Leiria","Artigo 20.º, n.º 1, alínea b) do Código dos Contratos Públicos","","",,,,Não aplicável.,Não aplicável.,FALSE
Material para Eletromedicina,Concurso público,Aquisição de bens móveis,"33140000-3, Material médico de consumo","Centro Hospitalar de Leiria, E. P. E. (509822932)","SENSORLIFE - UNIPESSOAL, LDA (509589715)","778,00 €",13-11-2017,25-09-2017,365 dias,"Portugal, Leiria, Leiria","Artigo 20.º, n.º 1, alínea b) do Código dos Contratos Públicos","","",,,,Não aplicável.,Não aplicável.,FALSE
Material para Eletromedicina,Concurso público,Aquisição de bens móveis,"33140000-3, Material médico de consumo","Centro Hospitalar de Leiria, E. P. E. (509822932)","SANO-TECNICA, LDA. (500239819)","630,00 €",13-11-2017,25-09-2017,365 dias,"Portugal, Leiria, Leiria","Artigo 20.º, n.º 1, alínea b) do Código dos Contratos Públicos","","",,,,Não aplicável.,Não aplicável.,FALSE
1008O17 Medicamento Hepatite C - Tratamento p/ 3 doentes,Ao abrigo de acordo-quadro (art.º 259.º),Aquisição de bens móveis,"33600000-6, Produtos farmacêuticos","Centro Hospitalar de Leiria, E. P. E. (509822932)","GILEAD SCIENCES, LDA (503604704)","138.551,52 €",13-11-2017,09-11-2017,20 dias,"Portugal, Leiria, Leiria",Artigo 259.º do Código dos Contratos Públicos,13-11-2017,"138.551,52 €",,,,1422736,CP 2015/41 - ACORDO QUADRO PARA FORNECIMENTO DE MEDICAMENTOS ANTI-INFECIOSOS: ANTIVÍRICOS E ANTIFÚNGICOS ÀS INSTITUIÇÕES E SERVIÇOS DO SERVIÇO NACIONAL DE SAÚDE,FALSE
