Objeto do Contrato,Tipo de Procedimento,Tipo(s) de Contrato,CPVs,Entidade(s) Adjudicante(s),Entidade(s) Adjudicatária(s),Preço Contratual,Data de Publicação,Data de Celebração do Contrato,Prazo de Execução,Local de Execução,Fundamentação,Data de Fecho do Contrato,Preço Total Efetivo,Causas das Alterações ao Prazo,Causas das Alterações ao Preço,Estado,N.º registo do Acordo Quadro,Descrição do Acordo Quadro,Procedimento Centralizado
Aquisição de produtos de apoio,Ajuste Direto Regime Geral,Aquisição de serviços,"85000000-9, Serviços de saúde e acção social","Centro Hospitalar Lisboa Norte, E. P. E. (508481287)","Optocentro, Lda. (501472070)","94,65 €",21-04-2016,21-04-2016,30 dias,"Portugal, Lisboa, Lisboa","Artigo 20.º, n.º 1, alínea a) do Código dos Contratos Públicos",,,,,,Não aplicável.,Não aplicável.,FALSE
Aquisição de produtos de apoio,Ajuste Direto Regime Geral,Aquisição de serviços,"85000000-9, Serviços de saúde e acção social","Centro Hospitalar Lisboa Norte, E. P. E. (508481287)","Optocentro, Lda. (501472070)","94,65 €",21-04-2016,21-04-2016,30 dias,"Portugal, Lisboa, Lisboa","Artigo 20.º, n.º 1, alínea a) do Código dos Contratos Públicos",,,,,,Não aplicável.,Não aplicável.,FALSE
Aquisição de produtos de apoio,Ajuste Direto Regime Geral,Aquisição de serviços,"85000000-9, Serviços de saúde e acção social","Centro Hospitalar Lisboa Norte, E. P. E. (508481287)","Coselgi, SA (509230598)","750,00 €",21-04-2016,21-04-2016,5 dias,"Portugal, Lisboa, Lisboa","Artigo 20.º, n.º 1, alínea a) do Código dos Contratos Públicos",,,,,,Não aplicável.,Não aplicável.,FALSE
Aquisição de produtos de apoio,Ajuste Direto Regime Geral,Aquisição de serviços,"85000000-9, Serviços de saúde e acção social","Centro Hospitalar Lisboa Norte, E. P. E. (508481287)",Mário Paulo Ferreira (197118372),"47,17 €",21-04-2016,21-04-2016,1 dias,"Portugal, Lisboa, Lisboa","Artigo 20.º, n.º 1, alínea a) do Código dos Contratos Públicos",,,,,,Não aplicável.,Não aplicável.,FALSE
Aquisição de produtos de apoio,Ajuste Direto Regime Geral,Aquisição de serviços,"85000000-9, Serviços de saúde e acção social","Centro Hospitalar Lisboa Norte, E. P. E. (508481287)","Ortopedia Moderna, Lda. (500481300)","620,00 €",21-04-2016,21-04-2016,15 dias,"Portugal, Lisboa, Lisboa","Artigo 20.º, n.º 1, alínea a) do Código dos Contratos Públicos",,,,,,Não aplicável.,Não aplicável.,FALSE
Aquisição de produtos de apoio,Ajuste Direto Regime Geral,Aquisição de serviços,"85000000-9, Serviços de saúde e acção social","Centro Hospitalar Lisboa Norte, E. P. E. (508481287)","Ortopedia Moderna, Lda. (500481300)","178,35 €",21-04-2016,21-04-2016,15 dias,"Portugal, Lisboa, Lisboa","Artigo 20.º, n.º 1, alínea a) do Código dos Contratos Públicos",,,,,,Não aplicável.,Não aplicável.,FALSE
Aquisição de produtos de apoio,Ajuste Direto Regime Geral,Aquisição de serviços,"85000000-9, Serviços de saúde e acção social","Centro Hospitalar Lisboa Norte, E. P. E. (508481287)","Ortopedia Moderna, Lda. (500481300)","1.390,00 €",21-04-2016,21-04-2016,15 dias,"Portugal, Lisboa, Lisboa","Artigo 20.º, n.º 1, alínea a) do Código dos Contratos Públicos",,,,,,Não aplicável.,Não aplicável.,FALSE
Aquisição de produtos de apoio,Ajuste Direto Regime Geral,Aquisição de serviços,"85000000-9, Serviços de saúde e acção social","Centro Hospitalar Lisboa Norte, E. P. E. (508481287)","Siorto, Lda. (500251177)","28,00 €",21-04-2016,21-04-2016,15 dias,"Portugal, Lisboa, Lisboa","Artigo 20.º, n.º 1, alínea a) do Código dos Contratos Públicos",,,,,,Não aplicável.,Não aplicável.,FALSE
Aquisição de cadeira sanitaria,Ajuste Direto Regime Geral,Aquisição de serviços,"85000000-9, Serviços de saúde e acção social","Centro Hospitalar Lisboa Norte, E. P. E. (508481287)","Ortopedia Moderna, lda. (500481300)","110,70 €",21-04-2016,21-04-2016,1 dias,"Portugal, Lisboa, Lisboa","Artigo 20.º, n.º 1, alínea a) do Código dos Contratos Públicos",,,,,,Não aplicável.,Não aplicável.,FALSE
Aquisição de protese transfemural,Ajuste Direto Regime Geral,Aquisição de serviços,"85000000-9, Serviços de saúde e acção social","Centro Hospitalar Lisboa Norte, E. P. E. (508481287)","Ortopedia Moderna, Lda. (500481300)","2.202,00 €",21-04-2016,21-04-2016,15 dias,"Portugal, Lisboa, Lisboa","Artigo 20.º, n.º 1, alínea a) do Código dos Contratos Públicos",,,,,,Não aplicável.,Não aplicável.,FALSE
Aquisição de produtos de apoio,Ajuste Direto Regime Geral,Aquisição de serviços,"85000000-9, Serviços de saúde e acção social","Centro Hospitalar Lisboa Norte, E. P. E. (508481287)",Mário Paulo Ferreira (197118372),"102,83 €",21-04-2016,21-04-2016,10 dias,"Portugal, Lisboa, Lisboa","Artigo 20.º, n.º 1, alínea a) do Código dos Contratos Públicos",,,,,,Não aplicável.,Não aplicável.,FALSE
Aquisição de esfincter urinario artificial,Ajuste Direto Regime Geral,Aquisição de bens móveis,"33190000-8, Dispositivos e produtos médicos variados","Centro Hospitalar Lisboa Norte, E. P. E. (508481287)",American Medical Systems (980223598),"7.600,00 €",20-04-2016,20-04-2016,1 dias,"Portugal, Lisboa, Lisboa","Artigo 20.º, n.º 1, alínea a) do Código dos Contratos Públicos",,,,,,Não aplicável.,Não aplicável.,FALSE
Aquisição de material diverso para Cardiologia,Ajuste Direto Regime Geral,Aquisição de bens móveis,"33190000-8, Dispositivos e produtos médicos variados","Centro Hospitalar Lisboa Norte, E. P. E. (508481287)",Volcano Europe BABV (BE859842345),"20.700,00 €",20-04-2016,20-04-2016,1 dias,"Portugal, Lisboa, Lisboa","Artigo 20.º, n.º 1, alínea a) do Código dos Contratos Públicos",,,,,,Não aplicável.,Não aplicável.,FALSE
Aquisição de cateter balão,Ajuste Direto Regime Geral,Aquisição de bens móveis,"33190000-8, Dispositivos e produtos médicos variados","Centro Hospitalar Lisboa Norte, E. P. E. (508481287)","Cocime II, Lda. (504453939)","6.195,00 €",20-04-2016,20-04-2016,1 dias,"Portugal, Lisboa, Lisboa","Artigo 20.º, n.º 1, alínea a) do Código dos Contratos Públicos",,,,,,Não aplicável.,Não aplicável.,FALSE
Aquisição de hidropolimeros,Ajuste Direto Regime Geral,Aquisição de bens móveis,"33690000-3, Medicamentos vários","Centro Hospitalar Lisboa Norte, E. P. E. (508481287)","Molnlycke, Lda. (511101066)","6.930,00 €",20-04-2016,20-04-2016,1 dias,"Portugal, Lisboa, Lisboa","Artigo 24.º, n.º 1, alínea e) do Código dos Contratos Públicos",,,,,,Não aplicável.,Não aplicável.,FALSE
Aquisição de infliximab,Ajuste Direto Regime Geral,Aquisição de bens móveis,"33690000-3, Medicamentos vários","Centro Hospitalar Lisboa Norte, E. P. E. (508481287)","Hospira Portugal, Lda. (502918098)","46.500,00 €",20-04-2016,20-04-2016,1 dias,"Portugal, Lisboa, Lisboa","Artigo 24.º, n.º 1, alínea e) do Código dos Contratos Públicos",,,,,,Não aplicável.,Não aplicável.,FALSE
Aquisição de cefuroxima axetil,Ajuste Direto Regime Geral,Aquisição de bens móveis,"33690000-3, Medicamentos vários","Centro Hospitalar Lisboa Norte, E. P. E. (508481287)","Mepha, Lda. (502919639)","1.080,00 €",20-04-2016,20-04-2016,1 dias,"Portugal, Lisboa, Lisboa","Artigo 20.º, n.º 1, alínea a) do Código dos Contratos Públicos",,,,,,Não aplicável.,Não aplicável.,FALSE
Aquisição de rapid lab 1200,Ajuste Direto Regime Geral,Aquisição de bens móveis,"33690000-3, Medicamentos vários","Centro Hospitalar Lisboa Norte, E. P. E. (508481287)","Siemens, Lda. (507925173)","5.874,90 €",20-04-2016,20-04-2016,1 dias,"Portugal, Lisboa, Lisboa","Artigo 24.º, n.º 1, alínea e) do Código dos Contratos Públicos",,,,,,Não aplicável.,Não aplicável.,FALSE
Aquisição de CDI Sub-cutaneo,Ajuste Direto Regime Geral,Aquisição de bens móveis,"33190000-8, Dispositivos e produtos médicos variados","Centro Hospitalar Lisboa Norte, E. P. E. (508481287)","Boston Scientific, Lda. (504988964)","18.000,00 €",20-04-2016,20-04-2016,1 dias,"Portugal, Lisboa, Lisboa","Artigo 20.º, n.º 1, alínea a) do Código dos Contratos Públicos",,,,,,Não aplicável.,Não aplicável.,FALSE
Aquisição de protese valvular aortica,Ajuste Direto Regime Geral,Aquisição de bens móveis,"33190000-8, Dispositivos e produtos médicos variados","Centro Hospitalar Lisboa Norte, E. P. E. (508481287)","Boston Scientific, lda. (504988964)","16.400,00 €",20-04-2016,20-04-2016,1 dias,"Portugal, Lisboa, Lisboa","Artigo 20.º, n.º 1, alínea a) do Código dos Contratos Públicos",,,,,,Não aplicável.,Não aplicável.,FALSE
Aquisição de consumiveis para biopsia mamária,Ajuste Direto Regime Geral,Aquisição de bens móveis,"33190000-8, Dispositivos e produtos médicos variados","Centro Hospitalar Lisboa Norte, E. P. E. (508481287)","CR Bard, Lda. (502438274)","18.300,00 €",20-04-2016,20-04-2016,1 dias,"Portugal, Lisboa, Lisboa","Artigo 20.º, n.º 1, alínea a) do Código dos Contratos Públicos",,,,,,Não aplicável.,Não aplicável.,FALSE
Aquisição de encaixe transtibial,Ajuste Direto Regime Geral,Aquisição de serviços,"85000000-9, Serviços de saúde e acção social","Centro Hospitalar Lisboa Norte, E. P. E. (508481287)","Siorto, Lda. (500251177)","860,00 €",20-04-2016,20-04-2016,15 dias,"Portugal, Lisboa, Lisboa","Artigo 20.º, n.º 1, alínea a) do Código dos Contratos Públicos",,,,,,Não aplicável.,Não aplicável.,FALSE
Aquisição de lentes,Ajuste Direto Regime Geral,Aquisição de serviços,"85000000-9, Serviços de saúde e acção social","Centro Hospitalar Lisboa Norte, E. P. E. (508481287)","Optocentro, Lda. (501472070)","132,08 €",20-04-2016,20-04-2016,30 dias,"Portugal, Lisboa, Lisboa","Artigo 20.º, n.º 1, alínea a) do Código dos Contratos Públicos",,,,,,Não aplicável.,Não aplicável.,FALSE
Aquisição de seguros de acidentes de trabalho,Ajuste Direto Regime Geral,Aquisição de serviços,"66512100-3, Serviços de seguros de acidentes","Centro Hospitalar Lisboa Norte, E. P. E. (508481287)","Açoreana Seguros, SA (512004048)","39.488,48 €",20-04-2016,20-04-2016,30 dias,"Portugal, Lisboa, Lisboa","Artigo 20.º, n.º 1, alínea a) do Código dos Contratos Públicos",,,,,,Não aplicável.,Não aplicável.,FALSE
Aquisição de acidentes de trabalho,Ajuste Direto Regime Geral,Aquisição de serviços,"66512100-3, Serviços de seguros de acidentes","Centro Hospitalar Lisboa Norte, E. P. E. (508481287)","Açoreana Seguros, SA (512004048)","75.811,57 €",20-04-2016,20-04-2016,30 dias,"Portugal, Lisboa, Lisboa","Artigo 20.º, n.º 1, alínea a) do Código dos Contratos Públicos",,,,,,Não aplicável.,Não aplicável.,FALSE
Aquisição de uma marquesa para ambulatorio,Ajuste Direto Regime Geral,Aquisição de bens móveis,"33192210-7, Mesas para exames","CENTRO HOSPITALAR LISBOA NORTE, EPE (508481287)","Speculum, SA (502996323)","3.010,36 €",20-04-2016,20-04-2016,30 dias,"Portugal, Lisboa, Lisboa","Artigo 20.º, n.º 1, alínea a) do Código dos Contratos Públicos",,,,,,Não aplicável.,Não aplicável.,FALSE
Aquisição de gene p53,Ajuste Direto Regime Geral,Aquisição de bens móveis,"33690000-3, Medicamentos vários","Centro Hospitalar Lisboa Norte, E. P. E. (508481287)","Werfen, Lda. (501086110)","6.525,78 €",19-04-2016,19-04-2016,1 dias,"Portugal, Lisboa, Lisboa","Artigo 24.º, n.º 1, alínea e) do Código dos Contratos Públicos",,,,,,Não aplicável.,Não aplicável.,FALSE
Aquisição de nivolumab,Ajuste Direto Regime Geral,Aquisição de bens móveis,"33690000-3, Medicamentos vários","Centro Hospitalar Lisboa Norte, E. P. E. (508481287)","Bristol Myers Squibb, SA (500048193)","9.000,00 €",19-04-2016,19-04-2016,1 dias,"Portugal, Lisboa, Lisboa","Artigo 24.º, n.º 1, alínea e) do Código dos Contratos Públicos",,,,,,Não aplicável.,Não aplicável.,FALSE
Aquisição de vaselina liquida,Ajuste Direto Regime Geral,Aquisição de bens móveis,"33680000-0, Artigos de farmácia","Centro Hospitalar Lisboa Norte, E. P. E. (508481287)","Proclinica, Lda. (500222665)","175,50 €",19-04-2016,19-04-2016,1 dias,"Portugal, Lisboa, Lisboa","Artigo 20.º, n.º 1, alínea a) do Código dos Contratos Públicos",,,,,,Não aplicável.,Não aplicável.,FALSE
Aquisição de material de penso,Concurso público,Aquisição de bens móveis,"33140000-3, Material médico de consumo","Centro Hospitalar Lisboa Norte, E. P. E. (508481287)","Bonecare, Lda. (505899914)","2.905,00 €",19-04-2016,19-04-2016,256 dias,"Portugal, Lisboa, Lisboa","Artigo 20.º, n.º 1, alínea b) do Código dos Contratos Públicos",,,,,,Não aplicável.,Não aplicável.,FALSE
Aquisição de material de penso,Concurso público,Aquisição de bens móveis,"33140000-3, Material médico de consumo","Centro Hospitalar Lisboa Norte, E. P. E. (508481287)","Smith & Nephew, Lda. (503552461)","2.562,00 €",19-04-2016,19-04-2016,256 dias,"Portugal, Lisboa, Lisboa","Artigo 20.º, n.º 1, alínea b) do Código dos Contratos Públicos",,,,,,Não aplicável.,Não aplicável.,FALSE
Aquisição de material de penso,Concurso público,Aquisição de bens móveis,"33140000-3, Material médico de consumo","Centro Hospitalar Lisboa Norte, E. P. E. (508481287)","Hr Hospitalar, lda. (501895558)","690,00 €",19-04-2016,19-04-2016,256 dias,"Portugal, Lisboa, Lisboa","Artigo 20.º, n.º 1, alínea b) do Código dos Contratos Públicos",,,,,,Não aplicável.,Não aplicável.,FALSE
Aquisição de 12 cortinados tecido,Ajuste Direto Regime Geral,Aquisição de serviços,"72410000-7, Serviços de fornecimento","Centro Hospitalar Lisboa Norte, E. P. E. (508481287)","IFHI, Lda. (502264543)","2.950,50 €",19-04-2016,19-04-2016,20 dias,"Portugal, Lisboa, Lisboa","Artigo 20.º, n.º 1, alínea a) do Código dos Contratos Públicos",,,,,,Não aplicável.,Não aplicável.,FALSE
"Aquisição de fontes de alimentação, discos e memórias",Ajuste Direto Regime Geral,Aquisição de bens móveis,"30200000-1, Equipamento e material informático","Centro Hospitalar Lisboa Norte, E. P. E. (508481287)","VTT Link, lda. (508888018)","9.996,80 €",19-04-2016,19-04-2016,10 dias,"Portugal, Lisboa, Lisboa","Artigo 20.º, n.º 1, alínea a) do Código dos Contratos Públicos",,,,,,Não aplicável.,Não aplicável.,FALSE
Execução de grade na escada/elevador n.º 4,Ajuste Direto Regime Geral,Empreitadas de obras públicas,"45454000-4, Obras de reestruturação","CENTRO HOSPITALAR LISBOA NORTE, EPE (508481287)","Manuel Esteves Moreira, Lda. (501169601)","1.189,00 €",19-04-2016,19-04-2016,3 dias,"Portugal, Lisboa, Lisboa","Artigo 19.º, alínea a) do Código dos Contratos Públicos",,,,,,Não aplicável.,Não aplicável.,FALSE
Aquisição de afastadores e pinças,Ajuste Direto Regime Geral,Aquisição de bens móveis,"33190000-8, Dispositivos e produtos médicos variados","Centro Hospitalar Lisboa Norte, E. P. E. (508481287)","Jose Cotta, lda. (500155739)","2.335,20 €",18-04-2016,18-04-2016,1 dias,"Portugal, Lisboa, Lisboa","Artigo 20.º, n.º 1, alínea a) do Código dos Contratos Públicos",,,,,,Não aplicável.,Não aplicável.,FALSE
Aquisição de factor VIII recombinante,Ajuste Direto Regime Geral,Aquisição de bens móveis,"33690000-3, Medicamentos vários","Centro Hospitalar Lisboa Norte, E. P. E. (508481287)","Pfizer, lda. (513300376)","23.159,07 €",18-04-2016,18-04-2016,1 dias,"Portugal, Lisboa, Lisboa","Artigo 24.º, n.º 1, alínea e) do Código dos Contratos Públicos",,,,,,Não aplicável.,Não aplicável.,FALSE
Aquisição de material diverso para o Serviço de Cardio,Ajuste Direto Regime Geral,Aquisição de bens móveis,"33190000-8, Dispositivos e produtos médicos variados","Centro Hospitalar Lisboa Norte, E. P. E. (508481287)","Maquet, Lda. (506819698)","6.705,00 €",18-04-2016,18-04-2016,1 dias,"Portugal, Lisboa, Lisboa","Artigo 20.º, n.º 1, alínea a) do Código dos Contratos Públicos",,,,,,Não aplicável.,Não aplicável.,FALSE
Aquisição de cateter balao,Ajuste Direto Regime Geral,Aquisição de bens móveis,"33190000-8, Dispositivos e produtos médicos variados","Centro Hospitalar Lisboa Norte, E. P. E. (508481287)","Maquet, Lda. (506819698)","2.796,00 €",18-04-2016,18-04-2016,1 dias,"Portugal, Lisboa, Lisboa","Artigo 20.º, n.º 1, alínea a) do Código dos Contratos Públicos",,,,,,Não aplicável.,Não aplicável.,FALSE
Aquisição de consumiveis p/ traqueostomia,Concurso público,Aquisição de bens móveis,"33190000-8, Dispositivos e produtos médicos variados","Centro Hospitalar Lisboa Norte, E. P. E. (508481287)","Smiths Medical, Lda. (507445937)","4.450,00 €",18-04-2016,18-04-2016,257 dias,"Portugal, Lisboa, Lisboa","Artigo 20.º, n.º 1, alínea b) do Código dos Contratos Públicos",,,,,,Não aplicável.,Não aplicável.,FALSE
Aquisição de CDI BIV,Ajuste Direto Regime Geral,Aquisição de bens móveis,"33190000-8, Dispositivos e produtos médicos variados","Centro Hospitalar Lisboa Norte, E. P. E. (508481287)","Medtronic Portugal, Lda. (504223933)","13.308,00 €",18-04-2016,18-04-2016,1 dias,"Portugal, Lisboa, Lisboa","Artigo 20.º, n.º 1, alínea a) do Código dos Contratos Públicos",,,,,,Não aplicável.,Não aplicável.,FALSE
Aquisição de sacos de urina,Concurso público,Aquisição de bens móveis,"33141615-4, Sacos para urina","CENTRO HOSPITALAR LISBOA NORTE, EPE (508481287)","Aviquimica, Lda. (500039720)","50.639,65 €",18-04-2016,13-04-2016,262 dias,"Portugal, Lisboa, Lisboa","Artigo 20.º, n.º 1, alínea b) do Código dos Contratos Públicos",,,,,,Não aplicável.,Não aplicável.,FALSE
Aquisição de produtos de apoio,Ajuste Direto Regime Geral,Aquisição de serviços,"85000000-9, Serviços de saúde e acção social","Centro Hospitalar Lisboa Norte, E. P. E. (508481287)",Mário Paulo Ferreira (197118372),"21,70 €",18-04-2016,18-04-2016,10 dias,"Portugal, Lisboa, Lisboa","Artigo 20.º, n.º 1, alínea a) do Código dos Contratos Públicos",,,,,,Não aplicável.,Não aplicável.,FALSE
Aquisição de produtos de apoio,Ajuste Direto Regime Geral,Aquisição de serviços,"85000000-9, Serviços de saúde e acção social","Centro Hospitalar Lisboa Norte, E. P. E. (508481287)",Mário Paulo Ferreira (197118372),"226,41 €",18-04-2016,14-04-2016,10 dias,"Portugal, Lisboa, Lisboa","Artigo 20.º, n.º 1, alínea a) do Código dos Contratos Públicos",,,,,,Não aplicável.,Não aplicável.,FALSE
Aquisição de produtos de apoio,Ajuste Direto Regime Geral,Aquisição de serviços,"85000000-9, Serviços de saúde e acção social","Centro Hospitalar Lisboa Norte, E. P. E. (508481287)",Mário Paulo Ferreira (197118372),"21,70 €",18-04-2016,18-04-2016,10 dias,"Portugal, Lisboa, Lisboa","Artigo 20.º, n.º 1, alínea a) do Código dos Contratos Públicos",,,,,,Não aplicável.,Não aplicável.,FALSE
Aquisição de protese esqueletica,Ajuste Direto Regime Geral,Aquisição de bens móveis,"33190000-8, Dispositivos e produtos médicos variados","Centro Hospitalar Lisboa Norte, E. P. E. (508481287)",Mario Paulo Ferreira (197118372),"339,62 €",18-04-2016,18-04-2016,10 dias,"Portugal, Lisboa, Lisboa","Artigo 20.º, n.º 1, alínea a) do Código dos Contratos Públicos",,,,,,Não aplicável.,Não aplicável.,FALSE
Aquisição de material diverso para cirurgia Vascular,Ajuste Direto Regime Geral,Aquisição de bens móveis,"33190000-8, Dispositivos e produtos médicos variados","Centro Hospitalar Lisboa Norte, E. P. E. (508481287)","Biosonda, Lda. (501463313)","6.175,75 €",18-04-2016,18-04-2016,1 dias,"Portugal, Lisboa, Lisboa","Artigo 20.º, n.º 1, alínea a) do Código dos Contratos Públicos",,,,,,Não aplicável.,Não aplicável.,FALSE
Aquisição de esfincter urinario,Ajuste Direto Regime Geral,Aquisição de bens móveis,"33190000-8, Dispositivos e produtos médicos variados","Centro Hospitalar Lisboa Norte, E. P. E. (508481287)","American Medical Systems, SA (980223598)","7.600,00 €",18-04-2016,18-04-2016,1 dias,"Portugal, Lisboa, Lisboa","Artigo 20.º, n.º 1, alínea a) do Código dos Contratos Públicos",,,,,,Não aplicável.,Não aplicável.,FALSE
Aquisição de material de ortopedia,Ajuste Direto Regime Geral,Aquisição de bens móveis,"33190000-8, Dispositivos e produtos médicos variados","Centro Hospitalar Lisboa Norte, E. P. E. (508481287)","Johnson & Johnson, Lda. (500153370)","7.102,31 €",18-04-2016,18-04-2016,1 dias,"Portugal, Lisboa, Lisboa","Artigo 20.º, n.º 1, alínea a) do Código dos Contratos Públicos",,,,,,Não aplicável.,Não aplicável.,FALSE
Aquisição de cateter Diagnóstico octopolar,Ajuste Direto Regime Geral,Aquisição de bens móveis,"33190000-8, Dispositivos e produtos médicos variados","Centro Hospitalar Lisboa Norte, E. P. E. (508481287)","Boston Scientific, Lda. (504988964)","16.500,00 €",18-04-2016,18-04-2016,1 dias,"Portugal, Lisboa, Lisboa","Artigo 20.º, n.º 1, alínea a) do Código dos Contratos Públicos",,,,,,Não aplicável.,Não aplicável.,FALSE
Aquisição de material de ortopedia,Ajuste Direto Regime Geral,Aquisição de bens móveis,"33190000-8, Dispositivos e produtos médicos variados","Centro Hospitalar Lisboa Norte, E. P. E. (508481287)","J & J, Lda. (500153370)","7.151,00 €",15-04-2016,15-04-2016,1 dias,"Portugal, Lisboa, Lisboa","Artigo 20.º, n.º 1, alínea a) do Código dos Contratos Públicos",,,,,,Não aplicável.,Não aplicável.,FALSE
Aquisição de ABD Teste,Ajuste Direto Regime Geral,Aquisição de bens móveis,"33690000-3, Medicamentos vários","Centro Hospitalar Lisboa Norte, E. P. E. (508481287)","OCD Clinical, Lda. (513032665)","9.242,55 €",15-04-2016,15-04-2016,1 dias,"Portugal, Lisboa, Lisboa","Artigo 24.º, n.º 1, alínea e) do Código dos Contratos Públicos",,,,,,Não aplicável.,Não aplicável.,FALSE
Aquisição de chambre e pijama para criança,Ajuste Direto Regime Geral,Aquisição de bens móveis,"39518000-6, Roupa para uso hospitalar","CENTRO HOSPITALAR LISBOA NORTE, EPE (508481287)","Meilex, Lda. (501759441)","2.950,00 €",15-04-2016,15-04-2016,260 dias,"Portugal, Lisboa, Lisboa","Artigo 20.º, n.º 1, alínea a) do Código dos Contratos Públicos",,,,,,Não aplicável.,Não aplicável.,FALSE
Aquisição de ABD Teste Confirmatorio,Ajuste Direto Regime Geral,Aquisição de bens móveis,"33690000-3, Medicamentos vários","Centro Hospitalar Lisboa Norte, E. P. E. (508481287)","Biorad, Lda. (501301321)","5.350,40 €",15-04-2016,15-04-2016,1 dias,"Portugal, Lisboa, Lisboa","Artigo 24.º, n.º 1, alínea e) do Código dos Contratos Públicos",,,,,,Não aplicável.,Não aplicável.,FALSE
Aquisição de dispositivo percutaeno,Ajuste Direto Regime Geral,Aquisição de bens móveis,"33190000-8, Dispositivos e produtos médicos variados","Centro Hospitalar Lisboa Norte, E. P. E. (508481287)","Abbott, Lda. (500006148)","20.000,00 €",15-04-2016,15-04-2016,1 dias,"Portugal, Lisboa, Lisboa","Artigo 20.º, n.º 1, alínea a) do Código dos Contratos Públicos",,,,,,Não aplicável.,Não aplicável.,FALSE
Aquisição de dispositivo percutaneo,Ajuste Direto Regime Geral,Aquisição de bens móveis,"33190000-8, Dispositivos e produtos médicos variados","Centro Hospitalar Lisboa Norte, E. P. E. (508481287)","Abbott, Lda. (500006148)","20.000,00 €",15-04-2016,14-04-2016,1 dias,"Portugal, Lisboa, Lisboa","Artigo 20.º, n.º 1, alínea a) do Código dos Contratos Públicos",,,,,,Não aplicável.,Não aplicável.,FALSE
Aquisição de varios reagentes,Ajuste Direto Regime Geral,Aquisição de bens móveis,"33690000-3, Medicamentos vários","Centro Hospitalar Lisboa Norte, E. P. E. (508481287)","Immucor, Lda. (503007358)","6.561,00 €",15-04-2016,15-04-2016,1 dias,"Portugal, Lisboa, Lisboa","Artigo 24.º, n.º 1, alínea e) do Código dos Contratos Públicos",,,,,,Não aplicável.,Não aplicável.,FALSE
Aquisição de anticorpos,Ajuste Direto Regime Geral,Aquisição de bens móveis,"33690000-3, Medicamentos vários","Centro Hospitalar Lisboa Norte, E. P. E. (508481287)","Immucor, Lda (503007358)","5.840,00 €",15-04-2016,15-04-2016,1 dias,"Portugal, Lisboa, Lisboa","Artigo 24.º, n.º 1, alínea e) do Código dos Contratos Públicos",,,,,,Não aplicável.,Não aplicável.,FALSE
Aquisição de azatioprina,Ajuste Direto Regime Geral,Aquisição de bens móveis,"33690000-3, Medicamentos vários","Centro Hospitalar Lisboa Norte, E. P. E. (508481287)","Medac, lda (980369959)","405,00 €",15-04-2016,15-04-2016,1 dias,"Portugal, Lisboa, Lisboa","Artigo 20.º, n.º 1, alínea a) do Código dos Contratos Públicos",,,,,,Não aplicável.,Não aplicável.,FALSE
Aquisição de penso com prata,Ajuste Direto Regime Geral,Aquisição de bens móveis,"33690000-3, Medicamentos vários","Centro Hospitalar Lisboa Norte, E. P. E. (508481287)","Smith & Nephew, Lda. (503552461)","6.739,20 €",15-04-2016,15-04-2016,1 dias,"Portugal, Lisboa, Lisboa","Artigo 24.º, n.º 1, alínea e) do Código dos Contratos Públicos",,,,,,Não aplicável.,Não aplicável.,FALSE
Aquisição de propanol + etilsulfato,Ajuste Direto Regime Geral,Aquisição de bens móveis,"33690000-3, Medicamentos vários","Centro Hospitalar Lisboa Norte, E. P. E. (508481287)","Paul Hartmman, lda. (502271728)","7.800,00 €",15-04-2016,15-04-2016,1 dias,"Portugal, Lisboa, Lisboa","Artigo 24.º, n.º 1, alínea e) do Código dos Contratos Públicos",,,,,,Não aplicável.,Não aplicável.,FALSE
Aquisição de silica clotting time,Ajuste Direto Regime Geral,Aquisição de bens móveis,"33690000-3, Medicamentos vários","Centro Hospitalar Lisboa Norte, E. P. E. (508481287)","Werfen Portugal, Lda. (501086110)","7.600,00 €",15-04-2016,15-04-2016,1 dias,"Portugal, Lisboa, Lisboa","Artigo 24.º, n.º 1, alínea e) do Código dos Contratos Públicos",,,,,,Não aplicável.,Não aplicável.,FALSE
Aquisição de agulha hipodermica,Ajuste Direto Regime Geral,Aquisição de bens móveis,"33190000-8, Dispositivos e produtos médicos variados","Centro Hospitalar Lisboa Norte, E. P. E. (508481287)","Quilaban, Lda. (500399670)","97,00 €",15-04-2016,15-04-2016,1 dias,"Portugal, Lisboa, Lisboa","Artigo 24.º, n.º 1, alínea e) do Código dos Contratos Públicos",,,,,,Não aplicável.,Não aplicável.,FALSE
Aquisição de dispositivo percutaneo,Ajuste Direto Regime Geral,Aquisição de bens móveis,"33190000-8, Dispositivos e produtos médicos variados","CENTRO HOSPITALAR LISBOA NORTE, EPE (508481287)","Abbott Laboratórios, Lda. (500006148)","40.000,00 €",14-04-2016,14-04-2016,1 dias,"Portugal, Lisboa, Lisboa","Artigo 20.º, n.º 1, alínea a) do Código dos Contratos Públicos",,,,,,Não aplicável.,Não aplicável.,FALSE
Aquisição de material de ortopedia,Ajuste Direto Regime Geral,Aquisição de bens móveis,"33190000-8, Dispositivos e produtos médicos variados","CENTRO HOSPITALAR LISBOA NORTE, EPE (508481287)","Johnson & Johnson, Lda. (500153370)","7.260,00 €",14-04-2016,14-04-2016,1 dias,"Portugal, Lisboa, Lisboa","Artigo 20.º, n.º 4 do Código dos Contratos Públicos",,,,,,Não aplicável.,Não aplicável.,FALSE
Aquisição de tampa para torneira 3 vias,Ajuste Direto Regime Geral,Aquisição de bens móveis,"33190000-8, Dispositivos e produtos médicos variados","CENTRO HOSPITALAR LISBOA NORTE, EPE (508481287)","Vygon, Lda. (503232785)","712,50 €",14-04-2016,14-04-2016,1 dias,"Portugal, Lisboa, Lisboa","Artigo 24.º, n.º 1, alínea c) do Código dos Contratos Públicos",,,,,,Não aplicável.,Não aplicável.,FALSE
reparação da tubagem de aspiração,Ajuste Direto Regime Geral,Aquisição de serviços,"50000000-5, Serviços de reparação e manutenção","Centro Hospitalar Lisboa Norte, E. P. E. (508481287)","Hidrowater, Lda (508844240)","6.494,20 €",14-04-2016,14-04-2016,35 dias,"Portugal, Lisboa, Lisboa","Artigo 20.º, n.º 1, alínea a) do Código dos Contratos Públicos",,,,,,Não aplicável.,Não aplicável.,FALSE
Aquisição de gluconato de clorohexidina,Ajuste Direto Regime Geral,Aquisição de bens móveis,"33690000-3, Medicamentos vários","Centro Hospitalar Lisboa Norte, E. P. E. (508481287)","Factor Plus, SA (502810645)","1.710,72 €",14-04-2016,14-04-2016,1 dias,"Portugal, Lisboa, Lisboa","Artigo 20.º, n.º 1, alínea a) do Código dos Contratos Públicos",,,,,,Não aplicável.,Não aplicável.,FALSE
Aquisição de produto enterico,Ajuste Direto Regime Geral,Aquisição de bens móveis,"33690000-3, Medicamentos vários","Centro Hospitalar Lisboa Norte, E. P. E. (508481287)","Nutricia, Lda. (507558286)","7.192,80 €",14-04-2016,14-04-2016,1 dias,"Portugal, Lisboa, Lisboa","Artigo 24.º, n.º 1, alínea e) do Código dos Contratos Públicos",,,,,,Não aplicável.,Não aplicável.,FALSE
Aquisição de endoprotese,Ajuste Direto Regime Geral,Aquisição de bens móveis,"33190000-8, Dispositivos e produtos médicos variados","Centro Hospitalar Lisboa Norte, E. P. E. (508481287)","Medtronic Portugal, Lda. (504223933)","8.500,00 €",14-04-2016,14-04-2016,1 dias,"Portugal, Lisboa, Lisboa","Artigo 20.º, n.º 1, alínea a) do Código dos Contratos Públicos",,,,,,Não aplicável.,Não aplicável.,FALSE
Aquisição de produtos de apoio,Ajuste Direto Regime Geral,Aquisição de serviços,"85000000-9, Serviços de saúde e acção social","Centro Hospitalar Lisboa Norte, E. P. E. (508481287)","Hemicare, Lda. (506517080)","1.422,00 €",14-04-2016,14-04-2016,10 dias,"Portugal, Lisboa, Lisboa","Artigo 20.º, n.º 1, alínea a) do Código dos Contratos Públicos",,,,,,Não aplicável.,Não aplicável.,FALSE
Aquisição de produtos de apoio,Ajuste Direto Regime Geral,Aquisição de serviços,"85000000-9, Serviços de saúde e acção social","Centro Hospitalar Lisboa Norte, E. P. E. (508481287)","Hemicare, Lda. (506517080)","600,00 €",14-04-2016,14-04-2016,10 dias,"Portugal, Lisboa, Lisboa","Artigo 20.º, n.º 1, alínea a) do Código dos Contratos Públicos",,,,,,Não aplicável.,Não aplicável.,FALSE
Aquisição de produtos de apoio,Ajuste Direto Regime Geral,Aquisição de serviços,"85000000-9, Serviços de saúde e acção social","Centro Hospitalar Lisboa Norte, E. P. E. (508481287)","Hemicare, Lda. (506517080)","600,00 €",14-04-2016,14-04-2016,10 dias,"Portugal, Lisboa, Lisboa","Artigo 20.º, n.º 1, alínea a) do Código dos Contratos Públicos",,,,,,Não aplicável.,Não aplicável.,FALSE
Aquisição de produtos de apoio,Ajuste Direto Regime Geral,Aquisição de serviços,"85000000-9, Serviços de saúde e acção social","Centro Hospitalar Lisboa Norte, E. P. E. (508481287)","Hemicare, lda. (506517080)","3.891,99 €",14-04-2016,14-04-2016,10 dias,"Portugal, Lisboa, Lisboa","Artigo 20.º, n.º 1, alínea a) do Código dos Contratos Públicos",,,,,,Não aplicável.,Não aplicável.,FALSE
Aquisição de CDI VR,Ajuste Direto Regime Geral,Aquisição de bens móveis,"33190000-8, Dispositivos e produtos médicos variados","Centro Hospitalar Lisboa Norte, E. P. E. (508481287)","St Jude Medical, Lda. (504180746)","8.772,00 €",14-04-2016,14-04-2016,1 dias,"Portugal, Lisboa, Lisboa","Artigo 20.º, n.º 1, alínea a) do Código dos Contratos Públicos",,,,,,Não aplicável.,Não aplicável.,FALSE
Aquisição de ácido zoledrónico,Ajuste Direto Regime Geral,Aquisição de bens móveis,"33690000-3, Medicamentos vários","Centro Hospitalar Lisboa Norte, E. P. E. (508481287)","Hospira portugal, Lda. (502918098)","1.836,00 €",14-04-2016,14-04-2016,1 dias,"Portugal, Lisboa, Lisboa","Artigo 20.º, n.º 1, alínea a) do Código dos Contratos Públicos",,,,,,Não aplicável.,Não aplicável.,FALSE
Aquisição de material de telemática para ampliação,Ajuste Direto Regime Geral,Aquisição de serviços,"50312000-5, Manutenção e reparação de equipamento informático","Centro Hospitalar Lisboa Norte, E. P. E. (508481287)","Clinet, SA (505267772)","9.683,25 €",14-04-2016,14-04-2016,30 dias,"Portugal, Lisboa, Lisboa","Artigo 20.º, n.º 1, alínea a) do Código dos Contratos Públicos",,,,,,Não aplicável.,Não aplicável.,FALSE
Colocação de porta em instalação sanitária de pessoal no Hospital de Dia Oncológico do Hospital Pulido Valente,Ajuste Direto Regime Geral,Empreitadas de obras públicas,"45421131-1, Instalação de portas","CENTRO HOSPITALAR LISBOA NORTE, EPE (508481287)","Copi, Lda. (501536760)","1.080,01 €",14-04-2016,14-04-2016,60 dias,"Portugal, Lisboa, Lisboa","Artigo 19.º, alínea a) do Código dos Contratos Públicos",,,,,,Não aplicável.,Não aplicável.,FALSE
Aquisição de zidovudina comp. 100 mg,Ajuste Direto Regime Geral,Aquisição de bens móveis,"33690000-3, Medicamentos vários","Centro Hospitalar Lisboa Norte, E. P. E. (508481287)","Aurobindo, Lda. (508527465)","160,00 €",14-04-2016,14-04-2016,1 dias,"Portugal, Lisboa, Lisboa","Artigo 20.º, n.º 1, alínea a) do Código dos Contratos Públicos",,,,,,Não aplicável.,Não aplicável.,FALSE
Aquisição de interferão beta,Ajuste Direto Regime Geral,Aquisição de bens móveis,"33690000-3, Medicamentos vários","Centro Hospitalar Lisboa Norte, E. P. E. (508481287)","Bayer Portugal, SA (500043256)","9.000,00 €",14-04-2016,14-04-2016,1 dias,"Portugal, Lisboa, Lisboa","Artigo 24.º, n.º 1, alínea e) do Código dos Contratos Públicos",,,,,,Não aplicável.,Não aplicável.,FALSE
Aquisição de troboplastina,Ajuste Direto Regime Geral,Aquisição de bens móveis,"33690000-3, Medicamentos vários","Centro Hospitalar Lisboa Norte, E. P. E. (508481287)","Werfen Portugal, Lda. (501086110)","6.000,00 €",14-04-2016,14-04-2016,1 dias,"Portugal, Lisboa, Lisboa","Artigo 24.º, n.º 1, alínea e) do Código dos Contratos Públicos",,,,,,Não aplicável.,Não aplicável.,FALSE
Reparação de angiogtafia biplanar,Ajuste Direto Regime Geral,Aquisição de serviços,"50421000-2, Serviços de reparação e manutenção de equipamento médico","Centro Hospitalar Lisboa Norte, E. P. E. (508481287)","Toshiba, SA (980023700)","8.978,29 €",13-04-2016,13-04-2016,30 dias,"Portugal, Lisboa, Lisboa","Artigo 20.º, n.º 1, alínea a) do Código dos Contratos Públicos",,,,,,Não aplicável.,Não aplicável.,FALSE
Aquisição de factor VIII recombinante,Ajuste Direto Regime Geral,Aquisição de bens móveis,"33690000-3, Medicamentos vários","Centro Hospitalar Lisboa Norte, E. P. E. (508481287)","Baxalta, Lda. (513252193)","57.642,30 €",13-04-2016,13-04-2016,1 dias,"Portugal, Lisboa, Lisboa","Artigo 24.º, n.º 1, alínea e) do Código dos Contratos Públicos",,,,,,Não aplicável.,Não aplicável.,FALSE
Aquisição de factor VIII recombinante,Ajuste Direto Regime Geral,Aquisição de bens móveis,"33690000-3, Medicamentos vários","Centro Hospitalar Lisboa Norte, E. P. E. (508481287)","Baxalta, Lda. (513252193)","186.945,00 €",13-04-2016,13-04-2016,1 dias,"Portugal, Lisboa, Lisboa","Artigo 24.º, n.º 1, alínea e) do Código dos Contratos Públicos",,,,,,Não aplicável.,Não aplicável.,FALSE
Aquisição de tocilizumab,Ajuste Direto Regime Geral,Aquisição de bens móveis,"33690000-3, Medicamentos vários","Centro Hospitalar Lisboa Norte, E. P. E. (508481287)","Roche, Lda. (500233810)","32.255,63 €",13-04-2016,13-04-2016,1 dias,"Portugal, Lisboa, Lisboa","Artigo 24.º, n.º 1, alínea e) do Código dos Contratos Públicos",,,,,,Não aplicável.,Não aplicável.,FALSE
Aquisição de serviços de manutenção ao software aplicacional cardiobase,Ajuste Direto Regime Geral,Aquisição de serviços,"50312310-1, Manutenção de equipamento para redes de dados","Centro Hospitalar Lisboa Norte, E. P. E. (508481287)","Infortucano Sistemas Informação, Lda. (503586293)","9.975,00 €",13-04-2016,13-04-2016,262 dias,"Portugal, Lisboa, Lisboa","Artigo 20.º, n.º 1, alínea a) do Código dos Contratos Públicos",,,,,,Não aplicável.,Não aplicável.,FALSE
Aquisição de produtos de apoio,Ajuste Direto Regime Geral,Aquisição de serviços,"85000000-9, Serviços de saúde e acção social","Centro Hospitalar Lisboa Norte, E. P. E. (508481287)",Mario Paulo Ferreira (197118372),"182,07 €",12-04-2016,12-04-2016,10 dias,"Portugal, Lisboa, Lisboa","Artigo 20.º, n.º 1, alínea a) do Código dos Contratos Públicos",,,,,,Não aplicável.,Não aplicável.,FALSE
Aquisição de produtos de apoio,Ajuste Direto Regime Geral,Aquisição de serviços,"85000000-9, Serviços de saúde e acção social","Centro Hospitalar Lisboa Norte, E. P. E. (508481287)",Mário Paulo Ferreira (197118372),"125,47 €",12-04-2016,12-04-2016,10 dias,"Portugal, Lisboa, Lisboa","Artigo 20.º, n.º 1, alínea a) do Código dos Contratos Públicos",,,,,,Não aplicável.,Não aplicável.,FALSE
Aquisição de produtos de apoio,Ajuste Direto Regime Geral,Aquisição de serviços,"85000000-9, Serviços de saúde e acção social","Centro Hospitalar Lisboa Norte, E. P. E. (508481287)",Mario Paulo Ferreira (197118372),"94,33 €",12-04-2016,12-04-2016,10 dias,"Portugal, Lisboa, Lisboa","Artigo 20.º, n.º 1, alínea a) do Código dos Contratos Públicos",,,,,,Não aplicável.,Não aplicável.,FALSE
Aquisição de produtos de apoio,Ajuste Direto Regime Geral,Aquisição de serviços,"85000000-9, Serviços de saúde e acção social","Centro Hospitalar Lisboa Norte, E. P. E. (508481287)",Mário Paulo Ferreira (197118372),"150,23 €",12-04-2016,12-04-2016,10 dias,"Portugal, Lisboa, Lisboa","Artigo 20.º, n.º 1, alínea a) do Código dos Contratos Públicos",,,,,,Não aplicável.,Não aplicável.,FALSE
Aquisição de produtos de apoio,Ajuste Direto Regime Geral,Aquisição de serviços,"85000000-9, Serviços de saúde e acção social","Centro Hospitalar Lisboa Norte, E. P. E. (508481287)",Mário Paulo Ferreira (197118372),"160,38 €",12-04-2016,12-04-2016,10 dias,"Portugal, Lisboa, Lisboa","Artigo 20.º, n.º 1, alínea a) do Código dos Contratos Públicos",,,,,,Não aplicável.,Não aplicável.,FALSE
Aquisição de produtos de apoio,Ajuste Direto Regime Geral,Aquisição de serviços,"85000000-9, Serviços de saúde e acção social","Centro Hospitalar Lisboa Norte, E. P. E. (508481287)",Mário Paulo Ferreira (197118372),"21,70 €",12-04-2016,12-04-2016,10 dias,"Portugal, Lisboa, Lisboa","Artigo 20.º, n.º 1, alínea a) do Código dos Contratos Públicos",,,,,,Não aplicável.,Não aplicável.,FALSE
Aquisição de consumiveis para o Serviço de Anestesia,Ajuste Direto Regime Geral,Aquisição de bens móveis,"33190000-8, Dispositivos e produtos médicos variados","Centro Hospitalar Lisboa Norte, E. P. E. (508481287)","Smiths Medical, Lda. (507445937)","5.032,00 €",12-04-2016,12-04-2016,1 dias,"Portugal, Lisboa, Lisboa","Artigo 20.º, n.º 1, alínea a) do Código dos Contratos Públicos",,,,,,Não aplicável.,Não aplicável.,FALSE
Empreitada de protecções em inox,Ajuste Direto Regime Geral,Empreitadas de obras públicas,"45453000-7, Obras de revisão e recuperação","CENTRO HOSPITALAR LISBOA NORTE, EPE (508481287)",Manuel Esteves Moreira (501169601),"2.880,00 €",12-04-2016,12-04-2016,21 dias,"Portugal, Lisboa, Lisboa","Artigo 19.º, alínea a) do Código dos Contratos Públicos",,,,,,Não aplicável.,Não aplicável.,FALSE
Aquisição de suplemento,Ajuste Direto Regime Geral,Aquisição de bens móveis,"33690000-3, Medicamentos vários","Centro Hospitalar Lisboa Norte, E. P. E. (508481287)","Dux Pharma, Lda. (510803679)","9.900,36 €",12-04-2016,12-04-2016,1 dias,"Portugal, Lisboa, Lisboa","Artigo 24.º, n.º 1, alínea e) do Código dos Contratos Públicos",,,,,,Não aplicável.,Não aplicável.,FALSE
Aquisição de basilos gram,Ajuste Direto Regime Geral,Aquisição de bens móveis,"33690000-3, Medicamentos vários","Centro Hospitalar Lisboa Norte, E. P. E. (508481287)","Beckman Coulter, Lda. (509035167)","7.800,00 €",12-04-2016,07-04-2016,1 dias,"Portugal, Lisboa, Lisboa","Artigo 24.º, n.º 1, alínea e) do Código dos Contratos Públicos",,,,,,Não aplicável.,Não aplicável.,FALSE
Aquisição de material de penso,Concurso público,Aquisição de bens móveis,"33140000-3, Material médico de consumo","Centro Hospitalar Lisboa Norte, E. P. E. (508481287)","Aviquimica, Lda. (500039720)","1.583,00 €",12-04-2016,12-04-2016,263 dias,"Portugal, Lisboa, Lisboa","Artigo 20.º, n.º 1, alínea b) do Código dos Contratos Públicos",,,,,,Não aplicável.,Não aplicável.,FALSE
Aquisição de diverso material de cardiologia,Ajuste Direto Regime Geral,Aquisição de bens móveis,"33190000-8, Dispositivos e produtos médicos variados","Centro Hospitalar Lisboa Norte, E. P. E. (508481287)","Boston Scientific, Lda. (504988964)","13.338,00 €",12-04-2016,12-04-2016,1 dias,"Portugal, Lisboa, Lisboa","Artigo 20.º, n.º 1, alínea a) do Código dos Contratos Públicos",,,,,,Não aplicável.,Não aplicável.,FALSE
Aquisição de ioversol,Ajuste Direto Regime Geral,Aquisição de bens móveis,"33690000-3, Medicamentos vários","Centro Hospitalar Lisboa Norte, E. P. E. (508481287)","Advanced A.A. Portugal, Lda. (509917267)","12.375,00 €",12-04-2016,12-04-2016,1 dias,"Portugal, Lisboa, Lisboa","Artigo 24.º, n.º 1, alínea e) do Código dos Contratos Públicos",,,,,,Não aplicável.,Não aplicável.,FALSE
Aquisição de produtos de apoio,Ajuste Direto Regime Geral,Aquisição de serviços,"85000000-9, Serviços de saúde e acção social","Centro Hospitalar Lisboa Norte, E. P. E. (508481287)","Magumbo, Lda. (500954291)","1.503,00 €",12-04-2016,12-04-2016,20 dias,"Portugal, Lisboa, Lisboa","Artigo 20.º, n.º 1, alínea a) do Código dos Contratos Públicos",,,,,,Não aplicável.,Não aplicável.,FALSE
Aquisição de produtos de apoio,Ajuste Direto Regime Geral,Aquisição de serviços,"85000000-9, Serviços de saúde e acção social","Centro Hospitalar Lisboa Norte, E. P. E. (508481287)","Ortopedia Moderna, Lda. (500481300)","1.446,30 €",12-04-2016,12-04-2016,10 dias,"Portugal, Lisboa, Lisboa","Artigo 20.º, n.º 1, alínea a) do Código dos Contratos Públicos",,,,,,Não aplicável.,Não aplicável.,FALSE
Aquisição de produtos de apoio,Ajuste Direto Regime Geral,Aquisição de serviços,"85000000-9, Serviços de saúde e acção social","Centro Hospitalar Lisboa Norte, E. P. E. (508481287)","Ortopedia Moderna, Lda. (500481300)","2.634,50 €",12-04-2016,12-04-2016,10 dias,"Portugal, Lisboa, Lisboa","Artigo 20.º, n.º 1, alínea a) do Código dos Contratos Públicos",,,,,,Não aplicável.,Não aplicável.,FALSE
Aquisição de diverso material de cardiologia,Ajuste Direto Regime Geral,Aquisição de bens móveis,"33190000-8, Dispositivos e produtos médicos variados","Centro Hospitalar Lisboa Norte, E. P. E. (508481287)","Abbott, Lda. (500006148)","16.850,00 €",11-04-2016,11-04-2016,1 dias,"Portugal, Lisboa, Lisboa","Artigo 20.º, n.º 1, alínea a) do Código dos Contratos Públicos",,,,,,Não aplicável.,Não aplicável.,FALSE
Aquisição de protese valvular,Ajuste Direto Regime Geral,Aquisição de bens móveis,"33190000-8, Dispositivos e produtos médicos variados","Centro Hospitalar Lisboa Norte, E. P. E. (508481287)","Medtronic, Lda. (504223933)","16.500,00 €",11-04-2016,11-04-2016,1 dias,"Portugal, Lisboa, Lisboa","Artigo 20.º, n.º 1, alínea a) do Código dos Contratos Públicos",,,,,,Não aplicável.,Não aplicável.,FALSE
Aquisição de instrumental cirurgica,Ajuste Direto Regime Geral,Aquisição de bens móveis,"33190000-8, Dispositivos e produtos médicos variados","Centro Hospitalar Lisboa Norte, E. P. E. (508481287)","B. Braun Medical, Lda. (501506543)","11.006,52 €",11-04-2016,11-04-2016,1 dias,"Portugal, Lisboa, Lisboa","Artigo 20.º, n.º 1, alínea a) do Código dos Contratos Públicos",,,,,,Não aplicável.,Não aplicável.,FALSE
Aquisição de ledipasvir + sofosbuvir,Ajuste Direto Regime Geral,Aquisição de bens móveis,"33690000-3, Medicamentos vários","Centro Hospitalar Lisboa Norte, E. P. E. (508481287)","Gilead Sciences, lda. (503604704)","0,00 €",11-04-2016,11-04-2016,48 dias,"Portugal, Lisboa, Lisboa","Artigo 24.º, n.º 1, alínea e) do Código dos Contratos Públicos",,,,,,Não aplicável.,Não aplicável.,FALSE
Aquisição de sofosbuvir e ledipasvir + sofosbuvir,Ajuste Direto Regime Geral,Aquisição de bens móveis,"33690000-3, Medicamentos vários","Centro Hospitalar Lisboa Norte, E. P. E. (508481287)","Gilead Sciences, lda. (503604704)","0,00 €",11-04-2016,11-04-2016,48 dias,"Portugal, Lisboa, Lisboa","Artigo 20.º, n.º 1, alínea a) do Código dos Contratos Públicos",,,,,,Não aplicável.,Não aplicável.,FALSE
Aquisição de material de penso,Concurso público,Aquisição de bens móveis,"33140000-3, Material médico de consumo","Centro Hospitalar Lisboa Norte, E. P. E. (508481287)","Bastos Viegas, SA (500042772)","1.971,36 €",11-04-2016,11-04-2016,264 dias,"Portugal, Lisboa, Lisboa","Artigo 20.º, n.º 1, alínea b) do Código dos Contratos Públicos",,,,,,Não aplicável.,Não aplicável.,FALSE
Aquisição de material de penso,Concurso público,Aquisição de bens móveis,"33140000-3, Material médico de consumo","Centro Hospitalar Lisboa Norte, E. P. E. (508481287)","Clinifar, SA (503281115)","1.548,36 €",11-04-2016,11-04-2016,264 dias,"Portugal, Lisboa, Lisboa","Artigo 20.º, n.º 1, alínea b) do Código dos Contratos Públicos",,,,,,Não aplicável.,Não aplicável.,FALSE
Aquisição de material de penso,Concurso público,Aquisição de bens móveis,"33140000-3, Material médico de consumo","Centro Hospitalar Lisboa Norte, E. P. E. (508481287)","Quilaban, lda. (500399670)","3,83 €",11-04-2016,11-04-2016,264 dias,"Portugal, Lisboa, Lisboa","Artigo 20.º, n.º 1, alínea b) do Código dos Contratos Públicos",,,,,,Não aplicável.,Não aplicável.,FALSE
Aquisição de material de penso,Concurso público,Aquisição de bens móveis,"33140000-3, Material médico de consumo","Centro Hospitalar Lisboa Norte, E. P. E. (508481287)","Virtuoso, Lda. (510113923)","272,25 €",11-04-2016,11-04-2016,264 dias,"Portugal, Lisboa, Lisboa","Artigo 20.º, n.º 1, alínea b) do Código dos Contratos Públicos",,,,,,Não aplicável.,Não aplicável.,FALSE
Aquisição de 60 impressoras,Ajuste Direto Regime Geral,Aquisição de bens móveis,"30232110-8, Impressoras laser","CENTRO HOSPITALAR LISBOA NORTE, EPE (508481287)","VTT link, Lda. (508888018)","9.999,60 €",11-04-2016,11-04-2016,14 dias,"Portugal, Lisboa, Lisboa","Artigo 20.º, n.º 1, alínea a) do Código dos Contratos Públicos",,,,,,Não aplicável.,Não aplicável.,FALSE
Reparação de tubagem com ruptura,Ajuste Direto Regime Geral,Empreitadas de obras públicas,"45453000-7, Obras de revisão e recuperação","Centro Hospitalar Lisboa Norte, E. P. E. (508481287)","Galintal, Lda. (504341987)","480,00 €",11-04-2016,11-04-2016,1 dias,"Portugal, Lisboa, Lisboa","Artigo 19.º, alínea a) do Código dos Contratos Públicos",,,,,,Não aplicável.,Não aplicável.,FALSE
Aquisição de CDI VR,Ajuste Direto Regime Geral,Aquisição de bens móveis,"33190000-8, Dispositivos e produtos médicos variados","Centro Hospitalar Lisboa Norte, E. P. E. (508481287)","Livanova, Lda. (505514010)","9.550,00 €",11-04-2016,11-04-2016,1 dias,"Portugal, Lisboa, Lisboa","Artigo 20.º, n.º 1, alínea a) do Código dos Contratos Públicos",,,,,,Não aplicável.,Não aplicável.,FALSE
Aquisição de CDI VR,Ajuste Direto Regime Geral,Aquisição de bens móveis,"33190000-8, Dispositivos e produtos médicos variados","Centro Hospitalar Lisboa Norte, E. P. E. (508481287)","Biotronik, Lda. (510726941)","9.775,00 €",11-04-2016,11-04-2016,1 dias,"Portugal, Lisboa, Lisboa","Artigo 20.º, n.º 1, alínea a) do Código dos Contratos Públicos",,,,,,Não aplicável.,Não aplicável.,FALSE
Aquisição de diverso material de cardiologia,Ajuste Direto Regime Geral,Aquisição de bens móveis,"33190000-8, Dispositivos e produtos médicos variados","Centro Hospitalar Lisboa Norte, E. P. E. (508481287)","Terumo Europe Espanha, SL (980472024)","25.870,00 €",11-04-2016,11-04-2016,1 dias,"Portugal, Lisboa, Lisboa","Artigo 20.º, n.º 1, alínea a) do Código dos Contratos Públicos",,,,,,Não aplicável.,Não aplicável.,FALSE
Aquisição de consumiveis para  traqueostomia e doentes laringectomizados durante o ano de 2016,Concurso público,Aquisição de bens móveis,"33190000-8, Dispositivos e produtos médicos variados","Centro Hospitalar Lisboa Norte, E. P. E. (508481287)","Teleflex Medical, SA (980249783)","5.262,40 €",11-04-2016,11-04-2016,264 dias,"Portugal, Lisboa, Lisboa","Artigo 20.º, n.º 1, alínea b) do Código dos Contratos Públicos",,,,,,Não aplicável.,Não aplicável.,FALSE
Aquisição de sistema entrega e dispositivo encerramento apêndice auricular,Ajuste Direto Regime Geral,Aquisição de bens móveis,"33190000-8, Dispositivos e produtos médicos variados","Centro Hospitalar Lisboa Norte, E. P. E. (508481287)","Boston Scientific, Lda. (504988964)","17.370,00 €",11-04-2016,11-04-2016,1 dias,"Portugal, Lisboa, Lisboa","Artigo 20.º, n.º 1, alínea a) do Código dos Contratos Públicos",,,,,,Não aplicável.,Não aplicável.,FALSE
Aquisição de CDI DR,Ajuste Direto Regime Geral,Aquisição de bens móveis,"33190000-8, Dispositivos e produtos médicos variados","Centro Hospitalar Lisboa Norte, E. P. E. (508481287)","Livanova, Lda. (505514010)","11.320,00 €",11-04-2016,11-04-2016,1 dias,"Portugal, Lisboa, Lisboa","Artigo 20.º, n.º 1, alínea a) do Código dos Contratos Públicos",,,,,,Não aplicável.,Não aplicável.,FALSE
Aquisição de produtos de apoio,Ajuste Direto Regime Geral,Aquisição de serviços,"85000000-9, Serviços de saúde e acção social","Centro Hospitalar Lisboa Norte, E. P. E. (508481287)",Mário Paulo Ferreira (197118372),"184,90 €",11-04-2016,11-04-2016,10 dias,"Portugal, Lisboa, Lisboa","Artigo 20.º, n.º 1, alínea a) do Código dos Contratos Públicos",,,,,,Não aplicável.,Não aplicável.,FALSE
Aquisição de produtos de apoio,Ajuste Direto Regime Geral,Aquisição de serviços,"85000000-9, Serviços de saúde e acção social","Centro Hospitalar Lisboa Norte, E. P. E. (508481287)",Mário Paulo Ferreira (197118372),"21,70 €",11-04-2016,11-04-2016,10 dias,"Portugal, Lisboa, Lisboa","Artigo 20.º, n.º 1, alínea a) do Código dos Contratos Públicos",,,,,,Não aplicável.,Não aplicável.,FALSE
Aquisição de produtos de apoio,Ajuste Direto Regime Geral,Aquisição de serviços,"85000000-9, Serviços de saúde e acção social","Centro Hospitalar Lisboa Norte, E. P. E. (508481287)",Mário Paulo Ferreira (197118372),"155,66 €",11-04-2016,11-04-2016,10 dias,"Portugal, Lisboa, Lisboa","Artigo 20.º, n.º 1, alínea a) do Código dos Contratos Públicos",,,,,,Não aplicável.,Não aplicável.,FALSE
Aquisição de produtos de apoio,Ajuste Direto Regime Geral,Aquisição de serviços,"85000000-9, Serviços de saúde e acção social","Centro Hospitalar Lisboa Norte, E. P. E. (508481287)",Mário Paulo Ferreira (197118372),"127,35 €",11-04-2016,11-04-2016,10 dias,"Portugal, Lisboa, Lisboa","Artigo 20.º, n.º 1, alínea a) do Código dos Contratos Públicos",,,,,,Não aplicável.,Não aplicável.,FALSE
Aquisição de produtos de apoio,Ajuste Direto Regime Geral,Aquisição de serviços,"85000000-9, Serviços de saúde e acção social","Centro Hospitalar Lisboa Norte, E. P. E. (508481287)",Mário Paulo Ferreira (197118372),"184,90 €",11-04-2016,11-04-2016,10 dias,"Portugal, Lisboa, Lisboa","Artigo 20.º, n.º 1, alínea a) do Código dos Contratos Públicos",,,,,,Não aplicável.,Não aplicável.,FALSE
