Objeto do Contrato,Tipo de Procedimento,Tipo(s) de Contrato,CPVs,Entidade(s) Adjudicante(s),Entidade(s) Adjudicatária(s),Preço Contratual,Data de Publicação,Data de Celebração do Contrato,Prazo de Execução,Local de Execução,Fundamentação,Data de Fecho do Contrato,Preço Total Efetivo,Causas das Alterações ao Prazo,Causas das Alterações ao Preço,Estado,N.º registo do Acordo Quadro,Descrição do Acordo Quadro,Procedimento Centralizado
E239 - ERLOTINIB [150 MG; CÁP/COMP] E367 - ERLOTINIB [100 MG; CÁP/COMP] E378 - ERLOTINIB [25 MG; CÁP/COMP] R61 - RITUXIMAB [100MG/10ML; FRS] R62 - RITUXIMAB [500MG/50ML; FRS] ,Ao abrigo de acordo-quadro (art.º 259.º),Aquisição de bens móveis,"33600000-6, Produtos farmacêuticos","Unidade Local de Saúde de Matosinhos, E. P. E. (506361390)","ROCHE Farmacêutica Quimica, Lda (500233810)","313.673,63 €",11-04-2017,06-02-2017,365 dias,"Portugal, Porto, Matosinhos",Artigo 259.º do Código dos Contratos Públicos,,,,,,1771819,CP 2015/6 - Acordo quadro para o fornecimento de Medicamentos do Foro Oncológico,FALSE
E517-EMTRICITABINA + RILPIVIRINA + TENOFOVIR [200 MG + 25 MG + 245 MG; CÁP/COMP],Ajuste Direto Regime Geral,Aquisição de bens móveis,"33600000-6, Produtos farmacêuticos","Unidade Local de Saúde de Matosinhos, E. P. E. (506361390)","GILEAD SCIENCES, LDA (503604704)","79.060,00 €",11-04-2017,22-03-2017,365 dias,"Portugal, Porto, Matosinhos","Artigo 24.º, n.º 1, alínea e) do Código dos Contratos Públicos",,,,,,Não aplicável.,Não aplicável.,FALSE
C976 - CETUXIMAB [5 MG/ML;20 ML; FRS],Ao abrigo de acordo-quadro (art.º 259.º),Aquisição de bens móveis,"33600000-6, Produtos farmacêuticos","Unidade Local de Saúde de Matosinhos, E. P. E. (506361390)","MERCK, SA (500650870)","99.264,00 €",11-04-2017,22-03-2017,365 dias,"Portugal, Porto, Matosinhos",Artigo 259.º do Código dos Contratos Públicos,,,,,,1771819,CP 2015/6 - Acordo quadro para o fornecimento de Medicamentos do Foro Oncológico,FALSE
D440 - DENOSUMAB [120 MG;SOL INJ; FRS] P747 - PANITUMUMAB [20 MG/ML;5 ML; FRS] P749 - PANITUMUMAB [20 MG/ML;20 ML; FRS] ,Ao abrigo de acordo-quadro (art.º 259.º),Aquisição de bens móveis,"33600000-6, Produtos farmacêuticos","Unidade Local de Saúde de Matosinhos, E. P. E. (506361390)",AMGEN BIOFARMACEUTICA LDA (502942959),"59.649,62 €",11-04-2017,17-03-2017,365 dias,"Portugal, Porto, Matosinhos",Artigo 259.º do Código dos Contratos Públicos,,,,,,1210107,"CONCURSO PÚBLICO PARA A CELEBRAÇÃO DE CONTRATOS PÚBLICOS DE APROVISIONAMENTO PARA A ÁREA DA SAÚDE, COM VISTA AO FORNECIMENTO DE MEDICAMENTOS DO GRUPO 4: SANGUE, ÀS INSTITUIÇÕES E SERVIÇOS DO SERVIÇO NACIONAL DE SAÚDE",FALSE
"F489 - Fingolimod 0,5mg L527 - Lapatinib 250mg O101 - Octreotida 20mg/2ml O99 - Octreotida 30mg/2ml V80 - Verteporfina 15mg",Ao abrigo de acordo-quadro (art.º 259.º),Aquisição de bens móveis,"33600000-6, Produtos farmacêuticos","Unidade Local de Saúde de Matosinhos, E. P. E. (506361390)",Novartis Farma - Produtos Farmacêuticos SA (500063524),"367.598,82 €",10-04-2017,08-03-2017,365 dias,"Portugal, Porto, Matosinhos",Artigo 259.º do Código dos Contratos Públicos,,,,,,1771819,CP 2015/6 - Acordo quadro para o fornecimento de Medicamentos do Foro Oncológico,FALSE
E220 - Emtricitabina+Tenofovir 200+245mg E365 - Efavirenz +Emtricitabina+Tenofovir 600+200+245mg T265 - Tenofovir 245mg,Ao abrigo de acordo-quadro (art.º 259.º),Aquisição de bens móveis,"33600000-6, Produtos farmacêuticos","Unidade Local de Saúde de Matosinhos, E. P. E. (506361390)","GILEAD SCIENCES, LDA (503604704)","843.972,36 €",10-04-2017,27-02-2017,365 dias,"Portugal, Porto, Matosinhos",Artigo 259.º do Código dos Contratos Públicos,,,,,,1326195,ACORDO QUADRO PARA FORNECIMENTO DE MEDICAMENTOS ANTI-INFECIOSOS: EXCETO ANTIVÍRICOS E ANTIFÚNGICOS ÀS INSTITUIÇÕES E SERVIÇOS DO SERVIÇO NACIONAL DE SAÚDE,FALSE
B325 - Bevacizumab 25mg/ml 100mg/4ml B326 - Bevacizumab 25mg/ml 400mg/16ml T1133 - Tocilizumab 20mg/ml 20ml T1238 - Trastuzumab 600mg/5ml T263 - Trastuzumab 150mg,Ao abrigo de acordo-quadro (art.º 259.º),Aquisição de bens móveis,"33600000-6, Produtos farmacêuticos","Unidade Local de Saúde de Matosinhos, E. P. E. (506361390)","ROCHE Farmacêutica Quimica, Lda (500233810)","766.637,13 €",10-04-2017,02-03-2017,365 dias,"Portugal, Porto, Matosinhos",Artigo 259.º do Código dos Contratos Públicos,,,,,,1771819,CP 2015/6 - Acordo quadro para o fornecimento de Medicamentos do Foro Oncológico,FALSE
"A5284 - Adalimumab 40mg/0,8ml",Ao abrigo de acordo-quadro (art.º 259.º),Aquisição de bens móveis,"33600000-6, Produtos farmacêuticos","Unidade Local de Saúde de Matosinhos, E. P. E. (506361390)","ABBVIE, LDA (510229050)","594.409,85 €",10-04-2017,06-03-2017,365 dias,"Portugal, Porto, Matosinhos",Artigo 259.º do Código dos Contratos Públicos,,,,,,1771819,CP 2015/6 - Acordo quadro para o fornecimento de Medicamentos do Foro Oncológico,FALSE
