Objeto do Contrato,Tipo de Procedimento,Tipo(s) de Contrato,CPVs,Entidade(s) Adjudicante(s),Entidade(s) Adjudicatária(s),Preço Contratual,Data de Publicação,Data de Celebração do Contrato,Prazo de Execução,Local de Execução,Fundamentação,Data de Fecho do Contrato,Preço Total Efetivo,Causas das Alterações ao Prazo,Causas das Alterações ao Preço,Estado,N.º registo do Acordo Quadro,Descrição do Acordo Quadro,Procedimento Centralizado
Prestação de Serviços :MCDT's de Radiologia,Ajuste Direto Regime Geral,Aquisição de serviços,"85150000-5, Serviços de imagiologia médica","Hospital do Espírito Santo de Évora, E. P. E. (508085888)",CDI - CLINICA DIAGNOSTICO POR IMAGEM (502830654),"33.661,30 €",16-02-2017,04-01-2017,360 dias,"Portugal, Évora, Évora","Artigo 20.º, n.º 1, alínea a) do Código dos Contratos Públicos",,,,,,Não aplicável.,Não aplicável.,FALSE
Prestação de serviços médicos em Ortopedia,Ajuste Direto Regime Geral,Aquisição de serviços,"85121000-3, Serviços de prática médica","Hospital do Espírito Santo de Évora, E. P. E. (508085888)",MARCELO ALVES (246153997),"31.395,00 €",16-02-2017,25-01-2017,90 dias,"Portugal, Évora, Évora","Artigo 20.º, n.º 1, alínea a) do Código dos Contratos Públicos",,,,,,Não aplicável.,Não aplicável.,FALSE
Dispositivos médicos de compressão,Concurso público,Aquisição de bens móveis,"33140000-3, Material médico de consumo","Hospital do Espírito Santo de Évora, E. P. E. (508085888)",MEDTRONIC PORTUGAL LDA (504223933),"12.950,00 €",16-02-2017,04-01-2017,365 dias,"Portugal, Évora, Évora","Artigo 20.º, n.º 1, alínea b) do Código dos Contratos Públicos",,,,,,Não aplicável.,Não aplicável.,FALSE
Prestação de Serviços de Telerradiologia,Concurso público,Aquisição de serviços,"85150000-5, Serviços de imagiologia médica","Hospital do Espírito Santo de Évora, E. P. E. (508085888)","Dr. Campos Costa - Consultório de Tomografia Computorizada, S.A. (502082429)","199.950,50 €",16-02-2017,20-01-2017,365 dias,"Portugal, Évora, Évora","Artigo 20.º, n.º 1, alínea b) do Código dos Contratos Públicos",,,,,,Não aplicável.,Não aplicável.,FALSE
Reagentes Serologia Automática,Concurso público,Aquisição de bens móveis,"33696200-7, Reagentes para análises ao sangue","Hospital do Espírito Santo de Évora, E. P. E. (508085888)","GRIFOLS PORTUGAL,LDA. (502041285)","546,00 €",16-02-2017,28-12-2016,365 dias,"Portugal, Évora, Évora","Artigo 20.º, n.º 1, alínea b) do Código dos Contratos Públicos",,,,,,Não aplicável.,Não aplicável.,FALSE
Reagentes para  Análise Urinária,Concurso público,Aquisição de bens móveis,"33696200-7, Reagentes para análises ao sangue","Hospital do Espírito Santo de Évora, E. P. E. (508085888)","MENARINI DIAGNOSTICOS, LDA (502610069)","20.225,00 €",16-02-2017,03-01-2017,365 dias,"Portugal, Évora, Évora","Artigo 20.º, n.º 1, alínea b) do Código dos Contratos Públicos",,,,,,Não aplicável.,Não aplicável.,FALSE
Transporte de Doentes entre os Hospitais do Edifício do Espirito Santo e do Edifício do Patrocínio,Concurso público,Aquisição de serviços,"85143000-3, Serviços de ambulâncias","Hospital do Espírito Santo de Évora, E. P. E. (508085888)",CONSORCIO FEDERAÇÃO BOMBEIROS DISTRITO EVORA (507465016),"16.666,00 €",16-02-2017,14-10-2016,120 dias,"Portugal, Évora, Évora","Artigo 20.º, n.º 1, alínea b) do Código dos Contratos Públicos",,,,,,Não aplicável.,Não aplicável.,FALSE
190031/17 - MCDT Cardiologia Pediátrica,Concurso público,Aquisição de serviços,"85150000-5, Serviços de imagiologia médica","Hospital do Espírito Santo de Évora, E. P. E. (508085888)",CLINICA DO CORAÇÃO DO ALENTEJO SA (502376457),"24.040,00 €",16-02-2017,25-01-2017,330 dias,"Portugal, Évora, Évora","Artigo 20.º, n.º 1, alínea b) do Código dos Contratos Públicos",,,,,,Não aplicável.,Não aplicável.,FALSE
Prestação de Serviços  de:Técnico Superior de Farmácia,Ajuste Direto Regime Geral,Aquisição de serviços,"71317200-5, Serviços de saúde e segurança","Hospital do Espírito Santo de Évora, E. P. E. (508085888)",Vera Lisa Santos Batista Pereira (225180561),"11.830,00 €",15-02-2017,04-01-2017,365 dias,"Portugal, Évora, Évora","Artigo 20.º, n.º 1, alínea a) do Código dos Contratos Públicos",,,,,,Não aplicável.,Não aplicável.,FALSE
Aquisição de medicamento oncológico : Imatinib,Ao abrigo de acordo-quadro (art.º 259.º),Aquisição de bens móveis,"33652000-5, Antineoplásicos e imunomoduladores","Hospital do Espírito Santo de Évora, E. P. E. (508085888)","Novartis Farma - Produtos Farmacêuticos, SA (500063524)","80.955,75 €",15-02-2017,25-01-2017,330 dias,"Portugal, Évora, Évora",Artigo 259.º do Código dos Contratos Públicos,,,,,,1771819,CP 2015/6 - Acordo quadro para o fornecimento de Medicamentos do Foro Oncológico,FALSE
Aquisição de dispositivos médicos - Sensor Bis,Ajuste Direto Regime Geral,Aquisição de bens móveis,"33140000-3, Material médico de consumo","Hospital do Espírito Santo de Évora, E. P. E. (508085888)",Medtronic (504223933),"38.325,00 €",15-02-2017,16-01-2017,350 dias,"Portugal, Évora, Évora","Artigo 24.º, n.º 1, alínea e) do Código dos Contratos Públicos",,,,,,Não aplicável.,Não aplicável.,FALSE
Prestação de serviços Técnico de Diagnóstico e Terapeutica,Ajuste Direto Regime Geral,Aquisição de serviços,"85140000-2, Serviços de saúde diversos","Hospital do Espírito Santo de Évora, E. P. E. (508085888)",Daniela Coelho da Rocha (224401165),"20.800,00 €",15-02-2017,02-02-2017,330 dias,"Portugal, Évora, Évora","Artigo 20.º, n.º 1, alínea a) do Código dos Contratos Públicos",,,,,,Não aplicável.,Não aplicável.,FALSE
Prestação de Serviços em Farmácia,Ajuste Direto Regime Geral,Aquisição de serviços,"85149000-5, Serviços farmacêuticos","Hospital do Espírito Santo de Évora, E. P. E. (508085888)",Maria Isabel Lopes Capoulas (251543730),"20.800,00 €",15-02-2017,04-01-2017,360 dias,"Portugal, Évora, Évora","Artigo 20.º, n.º 1, alínea a) do Código dos Contratos Públicos",,,,,,Não aplicável.,Não aplicável.,FALSE
Serviços técnicos de diagnostico e terapeutica,Ajuste Direto Regime Geral,Aquisição de serviços,"85149000-5, Serviços farmacêuticos","Hospital do Espírito Santo de Évora, E. P. E. (508085888)",Cristina Alexandra Santos Borlas (228895570),"20.800,00 €",15-02-2017,15-12-2016,365 dias,"Portugal, Évora, Évora","Artigo 20.º, n.º 1, alínea a) do Código dos Contratos Públicos",,,,,,Não aplicável.,Não aplicável.,FALSE
Serviços técnicos de diagnostico e terapeutica,Ajuste Direto Regime Geral,Aquisição de serviços,"85140000-2, Serviços de saúde diversos","Hospital do Espírito Santo de Évora, E. P. E. (508085888)",José Andre Baleizão Branquinho (247665541),"9.100,00 €",15-02-2017,15-12-2016,365 dias,"Portugal, Évora, Évora","Artigo 20.º, n.º 1, alínea a) do Código dos Contratos Públicos",,,,,,Não aplicável.,Não aplicável.,FALSE
MCDT' Medicina Nuclear,Concurso público,Aquisição de serviços,"85150000-5, Serviços de imagiologia médica","Hospital do Espírito Santo de Évora, E. P. E. (508085888)","Quadrantes, Clínica Médica e Diagnóstico (504148850), Fundação A.S.C.C.M. Champalimaud (507131827)","159.614,00 €",15-02-2017,04-01-2017,365 dias,"Portugal, Évora, Évora","Artigo 20.º, n.º 1, alínea b) do Código dos Contratos Públicos",,,,,,Não aplicável.,Não aplicável.,FALSE
Prestação de serviços de enfermagem,Ajuste Direto Regime Geral,Aquisição de serviços,"79624000-4, Serviços de fornecimento de pessoal de enfermagem","Hospital do Espírito Santo de Évora, E. P. E. (508085888)","Celso Miguel Lopes Ramalho (224755609), António Manuel Pinto Santos (180079549)","16.640,00 €",15-02-2017,02-01-2017,365 dias,"Portugal, Évora, Évora","Artigo 20.º, n.º 1, alínea a) do Código dos Contratos Públicos",,,,,,Não aplicável.,Não aplicável.,FALSE
Aquisição de sistema OSNA,Ajuste Direto Regime Geral,Aquisição de bens móveis,"33696000-5, Reagentes e meios de contraste","Hospital do Espírito Santo de Évora, E. P. E. (508085888)","Sysmex Espana, S.L. (B-64928948)","32.620,00 €",15-02-2017,30-12-2016,365 dias,"Portugal, Évora, Évora","Artigo 24.º, n.º 1, alínea e) do Código dos Contratos Públicos",,,,,,Não aplicável.,Não aplicável.,FALSE
Aquisição de MCDT´s Citogenética,Ajuste Direto Regime Geral,Aquisição de serviços,"85140000-2, Serviços de saúde diversos","Hospital do Espírito Santo de Évora, E. P. E. (508085888)","GDPN - Genética Médica e Diagnóstico Pré-natal, S.A (503622931)","8.578,60 €",15-02-2017,30-12-2016,360 dias,"Portugal, Évora, Évora","Artigo 20.º, n.º 1, alínea a) do Código dos Contratos Públicos",,,,,,Não aplicável.,Não aplicável.,FALSE
Prestação de Serviços - Limpeza de estores,Ajuste Direto Regime Geral,Aquisição de serviços,"90910000-9, Serviços de limpeza","Hospital do Espírito Santo de Évora, E. P. E. (508085888)",Miguel Ângelo Roque Carvalhinho Silva (229712525),"7.212,24 €",15-02-2017,15-12-2016,90 dias,"Portugal, Évora, Évora","Artigo 20.º, n.º 1, alínea a) do Código dos Contratos Públicos",,,,,,Não aplicável.,Não aplicável.,FALSE
Prestação de Serviços de Técnico de Diagnóstico em Cardiopneumologia,Ajuste Direto Regime Geral,Aquisição de serviços,"85140000-2, Serviços de saúde diversos","Hospital do Espírito Santo de Évora, E. P. E. (508085888)",Filipe Miguel Machado Alpalhão (214311830),"18.200,00 €",15-02-2017,02-01-2017,365 dias,"Portugal, Évora, Évora","Artigo 20.º, n.º 1, alínea a) do Código dos Contratos Públicos",,,,,,Não aplicável.,Não aplicável.,FALSE
Prestação de serviços em farmácia,Ajuste Direto Regime Geral,Aquisição de serviços,"85149000-5, Serviços farmacêuticos","Hospital do Espírito Santo de Évora, E. P. E. (508085888)",João Miguel Dias Cruz Maia (260611107),"20.800,00 €",15-02-2017,15-12-2016,365 dias,"Portugal, Évora, Évora","Artigo 20.º, n.º 1, alínea a) do Código dos Contratos Públicos",,,,,,Não aplicável.,Não aplicável.,FALSE
Reagentes para área de microbiologia,Ajuste Direto Regime Geral,Aquisição de bens móveis,"33696200-7, Reagentes para análises ao sangue","Hospital do Espírito Santo de Évora, E. P. E. (508085888)",Quilaban (500399670),"197,05 €",15-02-2017,24-01-2017,60 dias,"Portugal, Évora, Évora","Artigo 20.º, n.º 1, alínea a) do Código dos Contratos Públicos",,,,,,Não aplicável.,Não aplicável.,FALSE
Consumíveis para deteção do gânglio sentinela,Ajuste Direto Regime Geral,Aquisição de bens móveis,"33190000-8, Dispositivos e produtos médicos variados","Hospital do Espírito Santo de Évora, E. P. E. (508085888)","Sysmex Espana, S.L. (B-64928948)","29.376,20 €",15-02-2017,05-01-2017,360 dias,"Portugal, Évora, Évora","Artigo 24.º, n.º 1, alínea e) do Código dos Contratos Públicos",,,,,,Não aplicável.,Não aplicável.,FALSE
Prestação de Serviços . MCDT's de Eletromiografias no exterior,Ajuste Direto Regime Geral,Aquisição de serviços,"85141000-9, Serviços prestados pelo pessoal médico","Hospital do Espírito Santo de Évora, E. P. E. (508085888)",FISIEVE - CENTRO MED FIS REAB DE ÉVORA LDA (500991057),"30.000,00 €",15-02-2017,04-01-2017,360 dias,"Portugal, Évora, Évora","Artigo 20.º, n.º 1, alínea a) do Código dos Contratos Públicos",,,,,,Não aplicável.,Não aplicável.,FALSE
"Aquisição de Dispositivos Médicos - Cateteres, Sondas e Dilatadores Urinários",Ajuste Direto Regime Geral,Aquisição de bens móveis,"33140000-3, Material médico de consumo","Hospital do Espírito Santo de Évora, E. P. E. (508085888)",COLOPLAST A/S (503989037),"11.604,00 €",15-02-2017,16-01-2017,350 dias,"Portugal, Évora, Évora","Artigo 20.º, n.º 1, alínea a) do Código dos Contratos Públicos",,,,,,Não aplicável.,Não aplicável.,FALSE
Aquisição de dispositivos médicos: Suturas,Ajuste Direto Regime Geral,Aquisição de bens móveis,"33141121-4, Suturas cirúrgicas","Hospital do Espírito Santo de Évora, E. P. E. (508085888)",Johnson & Johnson Medical (500153370),"5.882,76 €",15-02-2017,12-01-2017,350 dias,"Portugal, Évora, Évora","Artigo 20.º, n.º 1, alínea a) do Código dos Contratos Públicos",,,,,,Não aplicável.,Não aplicável.,FALSE
Aquisição de Dispositivos Médicos: Suturas,Ajuste Direto Regime Geral,Aquisição de bens móveis,"33141121-4, Suturas cirúrgicas","Hospital do Espírito Santo de Évora, E. P. E. (508085888)","B. BRAUN MEDICAL, LDA (501506543)","7.149,45 €",14-02-2017,10-01-2017,350 dias,"Portugal, Évora, Évora","Artigo 20.º, n.º 1, alínea a) do Código dos Contratos Públicos",,,,,,Não aplicável.,Não aplicável.,FALSE
Reagentes par determinação de glucose no sangue,Ajuste Direto Regime Geral,Aquisição de bens móveis,"33696000-5, Reagentes e meios de contraste","Hospital do Espírito Santo de Évora, E. P. E. (508085888)","ABBOTT LABORATORIOS, LDA.                          (500006148)","17.325,00 €",14-02-2017,10-01-2017,365 dias,"Portugal, Évora, Évora","Artigo 20.º, n.º 1, alínea a) do Código dos Contratos Públicos",,,,,,Não aplicável.,Não aplicável.,FALSE
Dispositivos Médicos - Circuitos Respiratórios,Ajuste Direto Regime Geral,Aquisição de bens móveis,"33140000-3, Material médico de consumo","Hospital do Espírito Santo de Évora, E. P. E. (508085888)","INTERSURGICAL PORTUGAL, LDA (503480045)","9.340,10 €",14-02-2017,09-02-2017,350 dias,"Portugal, Évora, Évora","Artigo 20.º, n.º 1, alínea a) do Código dos Contratos Públicos",,,,,,Não aplicável.,Não aplicável.,FALSE
Aquisição de dispositivos médicos,Ajuste Direto Regime Geral,Aquisição de bens móveis,"33140000-3, Material médico de consumo","Hospital do Espírito Santo de Évora, E. P. E. (508085888)",Johnsonjohnson (500153370),"5.457,49 €",13-02-2017,31-01-2017,8 dias,"Portugal, Évora, Évora","Artigo 24.º, n.º 1, alínea e) do Código dos Contratos Públicos",,,,,,Não aplicável.,Não aplicável.,FALSE
Aquisição de dispositivos médicos,Ajuste Direto Regime Geral,Aquisição de bens móveis,"33190000-8, Dispositivos e produtos médicos variados","Hospital do Espírito Santo de Évora, E. P. E. (508085888)","OLYMPUS IBERIA, S.A.U. (980474710)","5.670,00 €",13-02-2017,06-01-2017,8 dias,"Portugal, Évora, Évora","Artigo 24.º, n.º 1, alínea e) do Código dos Contratos Públicos",,,,,,Não aplicável.,Não aplicável.,FALSE
Aquisição de dispositivos médicos: Protese  da anca,Ajuste Direto Regime Geral,Aquisição de bens móveis,"33183000-6, Material de assistência ortopédica","Hospital do Espírito Santo de Évora, E. P. E. (508085888)",Smith&nephew (503552461),"5.868,00 €",13-02-2017,10-01-2017,8 dias,"Portugal, Évora, Évora","Artigo 24.º, n.º 1, alínea e) do Código dos Contratos Públicos",,,,,,Não aplicável.,Não aplicável.,FALSE
Aquisição de dispositivos medicos,Ajuste Direto Regime Geral,Aquisição de bens móveis,"33140000-3, Material médico de consumo","Hospital do Espírito Santo de Évora, E. P. E. (508085888)","B. BRAUN MEDICAL, LDA (501506543)","6.122,10 €",13-02-2017,06-01-2017,8 dias,"Portugal, Évora, Évora","Artigo 20.º, n.º 1, alínea a) do Código dos Contratos Públicos",,,,,,Não aplicável.,Não aplicável.,FALSE
Aquisição de dispositivo médico - CRT-D,Ajuste Direto Regime Geral,Aquisição de bens móveis,"33182000-9, Material de assistência à função cardíaca","Hospital do Espírito Santo de Évora, E. P. E. (508085888)","LIVANOVA PORTUGAL, LDA. (505514010)","17.250,00 €",13-02-2017,24-01-2017,8 dias,"Portugal, Évora, Évora","Artigo 24.º, n.º 1, alínea e) do Código dos Contratos Públicos",,,,,,Não aplicável.,Não aplicável.,FALSE
Aquisição de derivados do plasma,Ao abrigo de acordo-quadro (art.º 259.º),Aquisição de bens móveis,"33141520-1, Derivados do plasma","Hospital do Espírito Santo de Évora, E. P. E. (508085888)","CSL Behring, Lda                                (503047201), TAKEDA-FARMACEUTICOS PORTUGAL LDA (502801204), GRIFOLS PORTUGAL - PROD. FARMAC. E HOSP., LDA. (502041285), OCTAPHARMA-PRODUTOS FARMACEUTICOS, LDA (502820780), Baxter Médico Farmacêutica, Lda (503347345)","169.799,50 €",13-02-2017,25-01-2017,340 dias,"Portugal, Évora, Évora",Artigo 259.º do Código dos Contratos Públicos,,,,,,1423488,ACORDO QUADRO PARA FORNECIMENTO DE DERIVADOS DO PLASMA HUMANO ÀS INSTITUIÇÕES E SERVIÇOS DO SERVIÇO NACIONAL DE SAÚDE CP 2015/9,FALSE
Medicamentos anestésicos e relaxantes musculares,Ao abrigo de acordo-quadro (art.º 259.º),Aquisição de bens móveis,"33660000-4, Medicamentos para o sistema nervoso e para os órgãos sensoriais","Hospital do Espírito Santo de Évora, E. P. E. (508085888)","ABBVIE, LDA (510229050), Hikma (502266791), Baxter Médico Farmacêutica, Lda (503347345), Bluemed Unipessoal, Lda (509912060), LABESFAL, S.A. (501169580), FRESENIUS KABI PHARMA PORTUGAL,LDA (504293753)","87.636,69 €",13-02-2017,04-01-2017,360 dias,"Portugal, Évora, Évora",Artigo 259.º do Código dos Contratos Públicos,,,,,,2211341,Medicamentos anestésicos e relaxantes musculares,FALSE
Aquisição de dispositivo médico : CRT-D,Ajuste Direto Regime Geral,Aquisição de bens móveis,"33182000-9, Material de assistência à função cardíaca","Hospital do Espírito Santo de Évora, E. P. E. (508085888)",St. Jude Medical Portugal (504180746),"18.000,00 €",13-02-2017,24-01-2017,8 dias,"Portugal, Évora, Évora","Artigo 24.º, n.º 1, alínea e) do Código dos Contratos Públicos",,,,,,Não aplicável.,Não aplicável.,FALSE
Aquisição de dispositivo médico - CRT-D,Ajuste Direto Regime Geral,Aquisição de bens móveis,"33182000-9, Material de assistência à função cardíaca","Hospital do Espírito Santo de Évora, E. P. E. (508085888)","MEDTRONIC PORTUGAL, LDA (504223933)","18.250,00 €",13-02-2017,24-01-2017,8 dias,"Portugal, Évora, Évora","Artigo 24.º, n.º 1, alínea e) do Código dos Contratos Públicos",,,,,,Não aplicável.,Não aplicável.,FALSE
Aquisição de dispositivos médicos: Sensor Bis,Ajuste Direto Regime Geral,Aquisição de bens móveis,"33140000-3, Material médico de consumo","Hospital do Espírito Santo de Évora, E. P. E. (508085888)","MEDTRONIC PORTUGAL, LDA (504223933)","4.927,50 €",13-02-2017,13-12-2016,8 dias,"Portugal, Évora, Évora","Artigo 24.º, n.º 1, alínea e) do Código dos Contratos Públicos",,,,,,Não aplicável.,Não aplicável.,FALSE
Aquisição de Dispositivo Médico - Cardioversor Desfibrilhador Implantável,Ajuste Direto Regime Geral,Aquisição de bens móveis,"33182200-1, Aparelhos para estimulação cardíaca","Hospital do Espírito Santo de Évora, E. P. E. (508085888)","MEDTRONIC PORTUGAL, LDA (504223933)","11.800,00 €",13-02-2017,19-12-2016,8 dias,"Portugal, Évora, Évora","Artigo 24.º, n.º 1, alínea e) do Código dos Contratos Públicos",,,,,,Não aplicável.,Não aplicável.,FALSE
Aquisição de Dispositivo Médico - Cardioversor Desfibrilhador Implantável,Ajuste Direto Regime Geral,Aquisição de bens móveis,"33182200-1, Aparelhos para estimulação cardíaca","Hospital do Espírito Santo de Évora, E. P. E. (508085888)","MEDTRONIC PORTUGAL, LDA (504223933)","11.800,00 €",13-02-2017,16-12-2016,8 dias,"Portugal, Évora, Évora","Artigo 24.º, n.º 1, alínea e) do Código dos Contratos Públicos",,,,,,Não aplicável.,Não aplicável.,FALSE
