Objeto do Contrato,Tipo de Procedimento,Tipo(s) de Contrato,CPVs,Entidade(s) Adjudicante(s),Entidade(s) Adjudicatária(s),Preço Contratual,Data de Publicação,Data de Celebração do Contrato,Prazo de Execução,Local de Execução,Fundamentação,Data de Fecho do Contrato,Preço Total Efetivo,Causas das Alterações ao Prazo,Causas das Alterações ao Preço,Estado,N.º registo do Acordo Quadro,Descrição do Acordo Quadro,Procedimento Centralizado
"Fornecimento de Endoscópios Rígidos e Equipamento para Ortopedia, Endoscópios Flexíveis, Lasers (Excepto os de Oftalmologia), Equipamento para Ginecologia/Obstetrícia e Cirurgia Vascular, Microscópios Operatórios, Equipamento para Pneumologia, Equipamento para Dermatologia e Equipamento para Laparoscopia para as novas Instalações do Hospital Sousa Martins da Unidade Local de Saúde da Guarda, E.P.E",Concurso público,Aquisição de bens móveis,"33100000-1, Equipamento médico","Unidade Local de Saúde da Guarda, E. P. E. (508752000)","Leica Microsistemas - Instrumentos de Precisão, S:U:Lda (500301921)","69.998,00 €",12-09-2014,23-12-2013,30 dias,"Portugal, Guarda, Guarda","Artigo 20.º, n.º 1, alínea b) do Código dos Contratos Públicos",,,,,,Não aplicável.,Não aplicável.,FALSE
"Fornecimento camas hospitalares e equipamentos complementares, para as novas instalações do Hospital de Sousa Martins da Unidade Local de Saúde da Guarda, E.P.E",Concurso público,Aquisição de bens móveis,"33192120-9, Camas de hospital","Unidade Local de Saúde da Guarda, E. P. E. (508752000)","Medicinália-Cormédica- Comercialização de Produtos Médicos Hospitalares, Lda (500684324)","458.069,81 €",12-09-2014,05-11-2013,30 dias,"Portugal, Guarda, Guarda","Artigo 20.º, n.º 1, alínea b) do Código dos Contratos Públicos",,,,,,Não aplicável.,Não aplicável.,FALSE
Fornecimento de equipamentos de Imagem para as novas instalações do Hospital de Sousa Martins.,Concurso público,Aquisição de bens móveis,"33115000-9, Aparelhos para tomografia","Unidade Local de Saúde da Guarda, E. P. E. (508752000)",Siemens Sa (500247480),"225.000,00 €",12-09-2014,02-05-2014,30 dias,"Portugal, Guarda, Guarda","Artigo 20.º, n.º 1, alínea b) do Código dos Contratos Públicos",,,,,,Não aplicável.,Não aplicável.,FALSE
"Fornecimento de equipamentos de Aparelhos de Anestesia e respetiva monitorização, Ventiladores Pulmonares e Equipamento de Emergência e Reanimação para as novas instalações do Hospital de Sousa Martins.",Concurso público,Aquisição de bens móveis,"33100000-1, Equipamento médico","Unidade Local de Saúde da Guarda, E. P. E. (508752000)","Medicinália- Cormedica - Comercialização de Produtos Médico Hospitalares, lda (500684324)","212.063,76 €",12-09-2014,05-05-2014,30 dias,"Portugal, Guarda, Guarda","Artigo 20.º, n.º 1, alínea b) do Código dos Contratos Públicos",,,,,,Não aplicável.,Não aplicável.,FALSE
"Fornecimento de equipamentos de Aparelhos de Anestesia e respetiva monitorização, Ventiladores Pulmonares e Equipamento de Emergência e Reanimação para as novas instalações do Hospital de Sousa Martins.",Concurso público,Aquisição de bens móveis,"33000000-0, Equipamento médico, medicamentos e produtos para cuidados pessoais","Unidade Local de Saúde da Guarda, E. P. E. (508752000)",Iberdata - Equipamentos SA (501904921),"464.007,28 €",12-09-2014,24-04-2014,30 dias,"Portugal, Guarda, Guarda","Artigo 20.º, n.º 1, alínea b) do Código dos Contratos Públicos",,,,,,Não aplicável.,Não aplicável.,FALSE
Construção da Unidade Saúde Familiar de Figueira de Castelo Rodrigo,Concurso público,Empreitadas de obras públicas,"45000000-7, Construção","Unidade Local de Saúde da Guarda, E.P.E (508752000)","Biosfera - Construções Unipessoal, Lda (508307880)","479.124,91 €",12-09-2014,24-03-2014,365 dias,"Portugal, Guarda, Fig. Castelo Rodrigo","Artigo 19.º, alínea b) do Código dos Contratos Públicos",,,,,,Não aplicável.,Não aplicável.,FALSE
"Prestação de Serviços de Lavandaria e Tratamento de Roupa para a Unidade Local de Saude da Guarda, E.P.E.",Concurso público,Aquisição de serviços,"98311000-6, Serviços de recolha de roupa por lavandarias","Unidade Local de Saúde da Guarda, E. P. E. (508752000)",SErviço de Utilização Comum dos Hospitais - SUCH (500900469),"60.000,00 €",12-09-2014,01-04-2014,30 dias,"Portugal, Guarda, Seia","Artigo 20.º, n.º 1, alínea b) do Código dos Contratos Públicos",,,,,,Não aplicável.,Não aplicável.,FALSE
"Prestação de Serviços de Lavandaria e Tratamento de Roupa para a Unidade Local de Saude da Guarda, E.P.E.",Concurso público,Aquisição de serviços,"98311000-6, Serviços de recolha de roupa por lavandarias","Unidade Local de Saúde da Guarda, E. P. E. (508752000)","LIN - LAVANDARIA INDUSTRIAL, LDA. (503240435)","275.000,00 €",12-09-2014,01-04-2014,30 dias,"Portugal, Guarda, Guarda","Artigo 20.º, n.º 1, alínea b) do Código dos Contratos Públicos",,,,,,Não aplicável.,Não aplicável.,FALSE
Equipamento para o Laboratório de Patologia Clinica,Concurso público,Aquisição de bens móveis,"33100000-1, Equipamento médico","Unidade Local de Saúde da Guarda, E. P. E. (508752000)",SupplyLab (508453534),"48.015,20 €",11-09-2014,20-05-2014,30 dias,"Portugal, Guarda, Guarda","Artigo 20.º, n.º 1, alínea b) do Código dos Contratos Públicos",,,,,,Não aplicável.,Não aplicável.,FALSE
Equipamento de Laboratório para o novo HSM,Concurso público,Aquisição de bens móveis,"33100000-1, Equipamento médico","Unidade Local de Saúde da Guarda, E. P. E. (508752000)","Supplylab, Lda (508453534)","46.125,00 €",11-09-2014,06-06-2014,30 dias,"Portugal, Guarda, Guarda","Artigo 21.º, n.º 1, alínea b) do Código dos Contratos Públicos",,,,,,Não aplicável.,Não aplicável.,FALSE
"Prestação de Serviços de Recolha, Transporte e Tratamento e Destino Final de Residuos",Concurso público,Aquisição de serviços,"90511000-2, Serviços de recolha de resíduos","Unidade Local de Saúde da Guarda, E.P.E (508752000)",SUCH-SERV. UTILIZACAO COMUM HOSPITAIS (500900469),"125.893,89 €",11-09-2014,01-04-2014,30 dias,"Portugal, Guarda","Artigo 20.º, n.º 1, alínea b) do Código dos Contratos Públicos",,,,,,Não aplicável.,Não aplicável.,FALSE
"Contentorização, Recolha e Transportes de residuos Sólidos Urbanos",Ajuste Direto Regime Geral,Aquisição de serviços,"90511100-3, Serviços de recolha de resíduos sólidos urbanos","Unidade Local de Saúde da Guarda, E. P. E. (508752000)","RRI-Recolha Resíduos Industriais, S.A. (504982010)","0,00 €",11-09-2014,04-06-2013,30 dias,"Portugal, Guarda, Guarda","Artigo 20.º, n.º 1, alínea a) do Código dos Contratos Públicos",,,,,,Não aplicável.,Não aplicável.,FALSE
Aquisição de Computadores para o projecto RIS,Ajuste Direto Regime Geral,Aquisição de bens móveis,"30000000-9, Máquinas, equipamento e material de escritório e de informática, excepto mobiliário e pacotes de programas (software)","Unidade Local de Saúde da Guarda, E.P.E (508752000)","ITEN SOLUTIONS - SISTEMAS DE INFORMAÇÃO, SA (510728189)","0,00 €",11-09-2014,24-10-2013,15 dias,"Portugal, Guarda, Guarda","Artigo 20.º, n.º 1, alínea a) do Código dos Contratos Públicos",,,,,,Não aplicável.,Não aplicável.,FALSE
Aquisição de Solução de Indicadores de Gestão,Ajuste Direto Regime Geral,Aquisição de bens móveis,"48000000-8, Pacotes de software e sistemas de informação","Unidade Local de Saúde da Guarda, E.P.E (508752000)","SIEMENS, S. A. (500247480)","0,00 €",11-09-2014,22-01-2014,45 dias,"Portugal, Guarda, Guarda","Artigo 20.º, n.º 1, alínea a) do Código dos Contratos Públicos",,,,,,Não aplicável.,Não aplicável.,FALSE
Tapete Rolante,Ajuste Direto Regime Geral,Aquisição de bens móveis,"33100000-1, Equipamento médico","Unidade Local de Saúde da Guarda, E.P.E (508752000)","mundinter, sa (500199906)","0,00 €",11-09-2014,21-11-2013,30 dias,"Portugal, Guarda, Guarda","Artigo 20.º, n.º 1, alínea a) do Código dos Contratos Públicos",,,,,,Não aplicável.,Não aplicável.,FALSE
Mural para o novo HSM,Ajuste Direto Regime Geral,Aquisição de bens móveis,"44000000-0, Estruturas e materiais de construção; produtos auxiliares de construção (excepto aparelhos eléctricos)","Unidade Local de Saúde da Guarda, E.P.E (508752000)","Cromogravura IRIS, Lda (500080704)","0,00 €",11-09-2014,19-12-2013,30 dias,"Portugal, Guarda, Guarda","Artigo 20.º, n.º 1, alínea a) do Código dos Contratos Públicos",,,,,,Não aplicável.,Não aplicável.,FALSE
Equipamento de Mobiliario Hospitalar para a novo HSM,Concurso público,Aquisição de bens móveis,"33000000-0, Equipamento médico, medicamentos e produtos para cuidados pessoais","Unidade Local de Saúde da Guarda, E.P.E (508752000)","IMO - Industrias Metalurgicas, SA (500136939)","95.579,25 €",11-09-2014,20-05-2014,60 dias,"Portugal, Guarda, Guarda","Artigo 21.º, n.º 1, alínea b) do Código dos Contratos Públicos",,,,,,Não aplicável.,Não aplicável.,FALSE
DEsfibrilhadores com carros de emergencia,Ajuste Direto Regime Geral,Aquisição de bens móveis,"33100000-1, Equipamento médico","Unidade Local de Saúde da Guarda, E. P. E. (508752000)","CLINIFAR-PROD.CLINICOS E FARMACEUTICOS,S.A (503281115)","15.480,00 €",11-09-2014,04-02-2014,8 dias,"Portugal, Guarda, Guarda","Artigo 20.º, n.º 1, alínea a) do Código dos Contratos Públicos",,,,,,Não aplicável.,Não aplicável.,FALSE
Sistema Informatico para Patologia Clinica,Ajuste Direto Regime Geral,Aquisição de bens móveis,"48100000-9, Pacote de software para sectores específicos","Unidade Local de Saúde da Guarda, E. P. E. (508752000)","IZASA PORTUGAL, LDA. (501086110)","26.891,55 €",11-09-2014,29-05-2014,75 dias,"Portugal, Guarda, Guarda","Artigo 20.º, n.º 1, alínea a) do Código dos Contratos Públicos",,,,,,Não aplicável.,Não aplicável.,FALSE
Intervenção Corretiva do Sistema Sonho,Ajuste Direto Regime Geral,Aquisição de serviços,"72810000-1, Serviços de auditoria informática","Unidade Local de Saúde da Guarda, E.P.E (508752000)",ORAMIX - SISTEMAS DE INFORMAÇÃO (504448382),"9.350,00 €",11-09-2014,01-07-2014,30 dias,"Portugal, Guarda, Guarda","Artigo 20.º, n.º 1, alínea a) do Código dos Contratos Públicos",,,,,,Não aplicável.,Não aplicável.,FALSE
Plataforma eletronica,Ajuste Direto Regime Geral,Aquisição de serviços,"72212211-1, Serviços de desenvolvimento de software para interconectividade de plataformas","Unidade Local de Saúde da Guarda, E.P.E (508752000)",Construlink (505091577),"10.500,00 €",11-09-2014,20-05-2014,20 dias,"Portugal, Guarda, Guarda","Artigo 20.º, n.º 1, alínea a) do Código dos Contratos Públicos",,,,,,Não aplicável.,Não aplicável.,FALSE
Àgua engarrafada,Ajuste Direto Regime Geral,Aquisição de bens móveis,"15000000-8, Produtos alimentares, bebidas, tabaco e produtos afins","Unidade Local de Saúde da Guarda, E.P.E (508752000)","LACTOGAL - PRODUTOS ALIMENTARES, SA (503183997)","6.728,00 €",11-09-2014,13-05-2014,8 dias,"Portugal, Guarda, Guarda","Artigo 20.º, n.º 1, alínea a) do Código dos Contratos Públicos",,,,,,Não aplicável.,Não aplicável.,FALSE
Mesas de Cabeceira,Ajuste Direto Regime Geral,Aquisição de bens móveis,"39143123-4, Mesas de cabeceira","Unidade Local de Saúde da Guarda, E.P.E (508752000)","MEDICINALIA-CORMEDICA, LDA. (500684324)","8.158,32 €",11-09-2014,11-06-2014,30 dias,"Portugal, Guarda, Guarda","Artigo 20.º, n.º 1, alínea a) do Código dos Contratos Públicos",,,,,,Não aplicável.,Não aplicável.,FALSE
