Objeto do Contrato,Tipo de Procedimento,Tipo(s) de Contrato,CPVs,Entidade(s) Adjudicante(s),Entidade(s) Adjudicatária(s),Preço Contratual,Data de Publicação,Data de Celebração do Contrato,Prazo de Execução,Local de Execução,Fundamentação,Data de Fecho do Contrato,Preço Total Efetivo,Causas das Alterações ao Prazo,Causas das Alterações ao Preço,Estado,N.º registo do Acordo Quadro,Descrição do Acordo Quadro,Procedimento Centralizado
"Reparação de paredes e tetos danificados na sequência de infiltração de água, incluindo revestimentos em gesso, em azulejo e pinturas.",Ajuste Direto Regime Geral,Empreitadas de obras públicas,"45259000-7, Reparação e manutenção de instalações","Administração Regional de Saúde do Norte, I. P. (503135593)","João Vinhas - Unipessoal, Lda. (507885902)","3.340,00 €",28-12-2018,04-06-2018,150 dias,"Portugal, Braga, Braga","Artigo 19.º, alínea d) do Código dos Contratos Públicos",28-12-2018,"3.340,00 €",Não houve,,,Não aplicável.,Não aplicável.,FALSE
USF Veiga do Leça - Reformulação da rede elétrica e ITED,Consulta Prévia,Empreitadas de obras públicas,"45315100-9, Instalação de material eléctrico e electrónico","Administração Regional de Saúde do Norte,IP (ARSN) (503135593)","José Ramiro & Alves, Lda. (505653800)","13.239,05 €",28-12-2018,16-11-2018,30 dias,"Portugal, Porto, Santo Tirso","Artigo 19.º, alínea c) do Código dos Contratos Públicos",27-12-2018,"13.239,05 €",Não aplicável,,,Não aplicável.,Não aplicável.,FALSE
Aprov-Prt 18002852 - AP 2397 - Aquisição da Vacina Contra Hepatite A,Ajuste Direto Regime Geral,Aquisição de bens móveis,"33651600-4, Vacinas","Administração Regional de Saúde do Norte, I. P. (503135593)",MERCK SHARP & DOHME LDA (500191360),"5.882,50 €",27-12-2018,27-12-2018,4 dias,"Portugal, Distrito não determinado, Concelho não determinado<BR/>Portugal, Vila Real, Vila Real<BR/>Portugal, Porto, Maia","Artigo 24.º, n.º 1, alínea e), subalínea ii) do Código dos Contratos Públicos","","","",,,Não aplicável.,Não aplicável.,FALSE
P259-2018-206 - Aquisição de vacinas em cumprimento do Programa Nacional de Vacinação 2018 para Instituições de Saúde,Ao abrigo de acordo-quadro (art.º 259.º),Aquisição de bens móveis,"33650000-1, Anti-infecciosos gerais de uso sistémico, vacinas, antineoplásicos e imunomoduladores","Administração Regional de Saúde do Norte, I. P. (503135593)","Sanofi Pasteur MSD, SA (507632796)","95.475,00 €",21-12-2018,12-12-2018,16 dias,"Portugal, Distrito não determinado, Concelho não determinado<BR/>Portugal, Porto, Maia<BR/>Portugal<BR/>Portugal, Vila Real, Vila Real",Artigo 259.º do Código dos Contratos Públicos,"","","",,,1923518,CP 2016/13 - Acordo Quadro para fornecimento de Vacinas e Tuberculinas   às Instituições e Serviços do Serviço Nacional de Saúde,TRUE
Aquisição de ratos e teclados Ref 00214_2018 - Aprov-Prt 18000111,Ao abrigo de acordo-quadro (art.º 259.º),Aquisição de bens móveis,"30200000-1, Equipamento e material informático","Administração Regional de Saúde do Norte, I. P. (503135593)","EDNI - Empresa Distribuidora de Material Informático, Lda (503258121)","4.894,00 €",21-12-2018,11-10-2018,15 dias,"Portugal, Vila Real, Vila Real",Artigo 259.º do Código dos Contratos Públicos,14-12-2018,"4.894,00 €","",,,1196657,Acordo Quadro para aquisição e aluguer operacional de equipamento informático,FALSE
Levantamentos topográficos e Arquitectura (plantas) edificios,Ajuste Direto Regime Geral,Aquisição de serviços,"71351810-4, Serviços de topografia","Administração Regional de Saúde do Norte, I. P. (503135593)","CS20, Lda  (513710477)","19.990,00 €",21-12-2018,14-12-2018,10 dias,Portugal,"Artigo 20.º, n.º 1, alínea d) do Código dos Contratos Públicos","","","",,,Não aplicável.,Não aplicável.,FALSE
