Objeto do Contrato,Tipo de Procedimento,Tipo(s) de Contrato,CPVs,Entidade(s) Adjudicante(s),Entidade(s) Adjudicatária(s),Preço Contratual,Data de Publicação,Data de Celebração do Contrato,Prazo de Execução,Local de Execução,Fundamentação,Data de Fecho do Contrato,Preço Total Efetivo,Causas das Alterações ao Prazo,Causas das Alterações ao Preço,Estado,N.º registo do Acordo Quadro,Descrição do Acordo Quadro,Procedimento Centralizado
Serviços Médicos Endocrinologia,Ajuste Direto Regime Geral,Aquisição de serviços,"85000000-9, Serviços de saúde e acção social","Centro Hospitalar de Setúbal, E. P. E. (507606787)",Ricardo Manuel Manteigas de Castro (219044295),"26.000,00 €",10-08-2018,28-05-2018,365 dias,"Portugal, Setúbal, Setúbal","Artigo 20.º, n.º 1, alínea a) do Código dos Contratos Públicos",,,,,,Não aplicável.,Não aplicável.,FALSE
Serviços Médcos Ginecologia/Obstetricia,Ajuste Direto Regime Geral,Aquisição de serviços,"85000000-9, Serviços de saúde e acção social","Centro Hospitalar de Setúbal, E. P. E. (507606787)","RUI FIALHO GOMES UNIPESSOAL, LDA (513009043)","17.280,00 €",08-08-2018,30-04-2018,365 dias,"Portugal, Setúbal, Setúbal","Artigo 20.º, n.º 1, alínea a) do Código dos Contratos Públicos",,,,,,Não aplicável.,Não aplicável.,FALSE
"Remodelação do Serviço de Cardiologia do HSB/CHS, E.P.,E.",Concurso público,Empreitadas de obras públicas,"45000000-7, Construção",CENTRO HOSPITALAR DE SETÚBAL E.P.E. (507606787),"Miguel A. Simões - Const. Civil e Inst. Técnicas Unipessoal, Lda (509663613)","321.695,24 €",08-08-2018,12-07-2018,60 dias,"Portugal, Setúbal, Setúbal","Artigo 19.º, alínea b) do Código dos Contratos Públicos",,,,,,Não aplicável.,Não aplicável.,FALSE
Serviços Médcos Ginecologia/Obstetricia,Ajuste Direto Regime Geral,Aquisição de serviços,"85000000-9, Serviços de saúde e acção social","Centro Hospitalar de Setúbal, E. P. E. (507606787)",Maria do Céu Santareno de Matos Ferreira (116521341),"18.720,00 €",08-08-2018,01-03-2018,365 dias,"Portugal, Setúbal, Setúbal","Artigo 20.º, n.º 1, alínea a) do Código dos Contratos Públicos",,,,,,Não aplicável.,Não aplicável.,FALSE
Nintedanib 100 mg Cáps,Ajuste Direto Regime Geral,Aquisição de bens móveis,"33600000-6, Produtos farmacêuticos","Centro Hospitalar de Setúbal, E. P. E. (507606787)","UNILFARMA,LDA (500293023)","10.200,02 €",07-08-2018,09-07-2018,365 dias,"Portugal, Setúbal, Setúbal","Artigo 24.º, n.º 1, alínea e), subalínea iii) do Código dos Contratos Públicos",,,,,,Não aplicável.,Não aplicável.,FALSE
61002318 - MEDICAMENTOS USADOS DOENÇAS ENDÓCRINAS_SPMS,Ao abrigo de acordo-quadro (art.º 259.º),Aquisição de bens móveis,"33600000-6, Produtos farmacêuticos","Centro Hospitalar de Setúbal, E. P. E. (507606787)","SANOFI - PRODUTOS FARMACÊUTICOS, LDA. (500134960), DLA FARMACEUTICA, SA (503894427), LABORATORIOS PFIZER, LDA (500162166), GENERIS - FARMACEUTICA SA (508107997), LABESFAL- LABORATÓRIOS ALMIRO LDA (501169580), Hikma (502266791), NOVO NORDISK-COM.PROD.FARMACEUTICOS, LDA (501485210), MERCK SHARP & DOHME, LDA (500191360)","66.723,05 €",02-08-2018,22-02-2018,365 dias,"Portugal, Setúbal, Setúbal",Artigo 259.º do Código dos Contratos Públicos,,,,,,1415640,CP 2015/7 - ACORDO QUADRO PARA FORNECIMENTO DE HORMONAS E OUTROS MEDICAMENTOS USADOS NO TRATAMENTO DAS DOENÇAS ENDÓCRINAS ÀS INSTITUIÇÕES E SERVIÇOS DO SERVIÇO NACIONAL DE SAÚDE,FALSE
61002818 - PARACETAMOL_SPMS,Ao abrigo de acordo-quadro (art.º 259.º),Aquisição de bens móveis,"33600000-6, Produtos farmacêuticos","Centro Hospitalar de Setúbal, E. P. E. (507606787)","Sanofi - Produtos Farmacêuticos, Lda (500134960), GENERIS - FARMACEUTICA SA (508107997), B. Braun Medical Lda. (501506543), Overpharma, Lda. (505792362)","38.403,18 €",02-08-2018,06-03-2018,365 dias,"Portugal, Setúbal, Setúbal",Artigo 259.º do Código dos Contratos Públicos,,,,,,1974985,"Medicamentos Analgésicos, Antipiréticos e Antidepressivos",FALSE
61003118 - DIVERSOS ANTIMICROBIANOS_SPMS,Ao abrigo de acordo-quadro (art.º 259.º),Aquisição de bens móveis,"33600000-6, Produtos farmacêuticos","Centro Hospitalar de Setúbal, E. P. E. (507606787)","BIAL - PORTELA & COMPANHIA, SA (500220913), MERCK SHARP & DOHME, LDA (500191360)","25.687,18 €",02-08-2018,18-01-2018,365 dias,"Portugal, Setúbal, Setúbal",Artigo 259.º do Código dos Contratos Públicos,,,,,,1326195,ACORDO QUADRO PARA FORNECIMENTO DE MEDICAMENTOS ANTI-INFECIOSOS: EXCETO ANTIVÍRICOS E ANTIFÚNGICOS ÀS INSTITUIÇÕES E SERVIÇOS DO SERVIÇO NACIONAL DE SAÚDE,FALSE
"41005418 - NUTRIÇÃO ENTERICA, SUPLEMENTOS E OUTROS",Ajuste Direto Regime Geral,Aquisição de bens móveis,"33600000-6, Produtos farmacêuticos","Centro Hospitalar de Setúbal, E. P. E. (507606787)","KORANGI (505322307), FRESENIUS KABI PHARMA PORTUGAL, LDA (504293753), Nestlé Portugal, S.A. (500201307), Nutricia Advanced Medical Nutrition - Unipessoal (507558286)","32.173,01 €",02-08-2018,08-02-2018,365 dias,"Portugal, Setúbal, Setúbal","Artigo 20.º, n.º 1, alínea a) do Código dos Contratos Públicos",,,,,,Não aplicável.,Não aplicável.,FALSE
41006618 - OUTROS ANTIMICROBIANOS,Ajuste Direto Regime Geral,Aquisição de bens móveis,"33600000-6, Produtos farmacêuticos","Centro Hospitalar de Setúbal, E. P. E. (507606787)","Laboratorios Atral, S.A. (500162085), DILOFAR - DISTRIBUIÇÃO TRANSPORTES LOGISTICA, LDA (500563004), ALFASIGMA PORT. LDA (EX-ALFA WASSERMANN) (502857722), BIAL - PORTELA & COMPANHIA, SA (500220913), JOHNSON & JOHNSON PROD.PROF (500153370), LABESFAL- LABORATÓRIOS ALMIRO LDA (501169580)","15.617,66 €",02-08-2018,08-02-2018,365 dias,"Portugal, Setúbal, Setúbal","Artigo 20.º, n.º 1, alínea a) do Código dos Contratos Públicos",,,,,,Não aplicável.,Não aplicável.,FALSE
Serviços Médicos UCI,Ajuste Direto Regime Geral,Aquisição de serviços,"85000000-9, Serviços de saúde e acção social","Centro Hospitalar de Setúbal, E. P. E. (507606787)",Altura Delicada - Actividades Médicas Lda (514465581),"37.440,00 €",02-08-2018,27-02-2018,365 dias,"Portugal, Setúbal, Setúbal","Artigo 20.º, n.º 1, alínea a) do Código dos Contratos Públicos",,,,,,Não aplicável.,Não aplicável.,FALSE
"ABACAVIR,300MG,CAP/COMP CAPECITABINA,500MG,COMP. Alfacalcidol 1 µg Cáps ANAGRELIDA  0,5MG CAPS Fentanilo 0.05 mg/ml Sol inj Fr 2 ml IM IV Fentanilo 200 µg Comp subling MIDAZOLAM (CLORIDRATO),50MG/10ML SOL INJ FR 10ML IV FUROSEMIDA 40MG COMP SORBITOL,ENEMA LEVOFLOXACINA,5MG/ML SOL INJ FR  100ML IV SULFAMETOXAZOL + TRIMETOPRIM  (800/160) COMP Entecavir 0.5 mg Comp Entecavir 1 mg Comp Abiraterona 500 mg Comp Deferasirox 360 mg Comp. Revestidos  CINACALCET, 60MG COMP Etanercept 50 mg/ml Sol inj Caneta 1 ml SC BICALUTAMIDA,150MG,COMP BICALUTAMIDA,50MG,COMP ",Ao abrigo de acordo-quadro (art.º 259.º),Aquisição de bens móveis,"33600000-6, Produtos farmacêuticos","Centro Hospitalar de Setúbal, E. P. E. (507606787)",JANSSEN CILAG FARMACEUTICA (500189412),"41.046,84 €",02-08-2018,08-02-2018,15 dias,"Portugal, Setúbal, Setúbal",Artigo 259.º do Código dos Contratos Públicos,,,,,,2969238,"CP 2017/6 - Acordo Quadro para fornecimento de Medicamentos do Foro Oncológico e Imunomoduladores, às Instituições e Serviços do Serviço Nacional de Saúde",FALSE
Serviços Médicos Pediatria,Ajuste Direto Regime Geral,Aquisição de serviços,"85000000-9, Serviços de saúde e acção social","Centro Hospitalar de Setúbal, E. P. E. (507606787)",Planeta das Meninices Lda (513715754),"23.040,00 €",02-08-2018,16-04-2018,365 dias,"Portugal, Setúbal, Setúbal","Artigo 20.º, n.º 1, alínea a) do Código dos Contratos Públicos",,,,,,Não aplicável.,Não aplicável.,FALSE
Serviços Médicos Pediatria,Ajuste Direto Regime Geral,Aquisição de serviços,"85000000-9, Serviços de saúde e acção social","Centro Hospitalar de Setúbal, E. P. E. (507606787)",Godinho e Crispim - Serviços Médicos Lda (510227899),"11.520,00 €",02-08-2018,19-02-2018,365 dias,"Portugal, Setúbal, Setúbal","Artigo 20.º, n.º 1, alínea a) do Código dos Contratos Públicos",,,,,,Não aplicável.,Não aplicável.,FALSE
Serviços Médicos Pediatria,Ajuste Direto Regime Geral,Aquisição de serviços,"85000000-9, Serviços de saúde e acção social","Centro Hospitalar de Setúbal, E. P. E. (507606787)",Miúdos Alegres Lda (509997228),"11.520,00 €",02-08-2018,16-04-2018,365 dias,"Portugal, Setúbal, Setúbal","Artigo 20.º, n.º 1, alínea a) do Código dos Contratos Públicos",,,,,,Não aplicável.,Não aplicável.,FALSE
Serviços Médicos UCI,Ajuste Direto Regime Geral,Aquisição de serviços,"85000000-9, Serviços de saúde e acção social","Centro Hospitalar de Setúbal, E. P. E. (507606787)",Maria Inês Peres  Claro (205711324),"37.440,00 €",02-08-2018,15-06-2018,365 dias,"Portugal, Setúbal, Setúbal","Artigo 20.º, n.º 1, alínea a) do Código dos Contratos Públicos",,,,,,Não aplicável.,Não aplicável.,FALSE
"GOSERELINA (ACETATO),10.8MG  IMPL   ,SERINGA",Ao abrigo de acordo-quadro (art.º 259.º),Aquisição de bens móveis,"33600000-6, Produtos farmacêuticos","Centro Hospitalar de Setúbal, E. P. E. (507606787)","AstraZeneca - PROD. FARM., LDA (502942240)","18.973,00 €",01-08-2018,31-07-2018,15 dias,"Portugal, Setúbal, Setúbal",Artigo 259.º do Código dos Contratos Públicos,,,,,,2969238,"CP 2017/6 - Acordo Quadro para fornecimento de Medicamentos do Foro Oncológico e Imunomoduladores, às Instituições e Serviços do Serviço Nacional de Saúde",FALSE
