Objeto do Contrato,Tipo de Procedimento,Tipo(s) de Contrato,CPVs,Entidade(s) Adjudicante(s),Entidade(s) Adjudicatária(s),Preço Contratual,Data de Publicação,Data de Celebração do Contrato,Prazo de Execução,Local de Execução,Fundamentação,Data de Fecho do Contrato,Preço Total Efetivo,Causas das Alterações ao Prazo,Causas das Alterações ao Preço,Estado,N.º registo do Acordo Quadro,Descrição do Acordo Quadro,Procedimento Centralizado
NP IDELALISIB 150 MG,Ajuste Direto Regime Geral,Aquisição de bens móveis,"33600000-6, Produtos farmacêuticos","Instituto Português de Oncologia de Coimbra Francisco Gentil, E. P. E. (506361438)","GILEAD SCIENCES, LDA (503604704)","37.999,80 €",07-07-2017,06-04-2017,365 dias,"Portugal, Coimbra, Coimbra","Artigo 24.º, n.º 1, alínea e) do Código dos Contratos Públicos",,,,,,Não aplicável.,Não aplicável.,FALSE
SPMS(2015/006) MED DO FORO ONCOL - P259-AC-2017-93 - ASTRA ZENECA,Ao abrigo de acordo-quadro (art.º 259.º),Aquisição de bens móveis,"33600000-6, Produtos farmacêuticos","Instituto Português de Oncologia de Coimbra Francisco Gentil, E. P. E. (506361438)",AstraZeneca (502942240),"106.321,80 €",07-07-2017,16-06-2017,365 dias,"Portugal, Coimbra, Coimbra",Artigo 259.º do Código dos Contratos Públicos,,,,,,1771819,CP 2015/6 - Acordo quadro para o fornecimento de Medicamentos do Foro Oncológico,FALSE
