Objeto do Contrato,Tipo de Procedimento,Tipo(s) de Contrato,CPVs,Entidade(s) Adjudicante(s),Entidade(s) Adjudicatária(s),Preço Contratual,Data de Publicação,Data de Celebração do Contrato,Prazo de Execução,Local de Execução,Fundamentação,Data de Fecho do Contrato,Preço Total Efetivo,Causas das Alterações ao Prazo,Causas das Alterações ao Preço,Estado,N.º registo do Acordo Quadro,Descrição do Acordo Quadro,Procedimento Centralizado
Medicamentos para Tratamento de Hepatite,Ao abrigo de acordo-quadro (art.º 259.º),Aquisição de bens móveis,"33600000-6, Produtos farmacêuticos","Centro Hospitalar do Tâmega e Sousa, E.P.E. (508318262)","GILEAD SCIENCES, LDA. (503604704)","13.800,00 €",06-04-2018,26-03-2018,60 dias,"Portugal, Porto, Penafiel",Artigo 259.º do Código dos Contratos Públicos,,,,,,3023927,CP 2017/67 - Medicamentos para a Hepatite C crónica,FALSE
Manutenção Rede de Gases,Ajuste Direto Regime Geral,Aquisição de serviços,"50700000-2, Serviços de reparação e manutenção de equipamento em edifícios","Centro Hospitalar do Tâmega e Sousa, E.P.E. (508318262)",Praxair Portugal Gases (501738916),"9.492,00 €",03-04-2018,22-03-2018,278 dias,"Portugal, Porto, Penafiel","Artigo 20.º, n.º 1, alínea a) do Código dos Contratos Públicos",,,,,,Não aplicável.,Não aplicável.,FALSE
serviços de cópia e impressão em regime de outsourcing,Ajuste Direto Regime Geral,Aquisição de serviços,"79800000-2, Serviços de impressão e afins","Centro Hospitalar do Tâmega e Sousa, E.P.E. (508318262)",CANON (507477740),"9.529,00 €",03-04-2018,29-03-2018,30 dias,"Portugal, Porto, Penafiel","Artigo 20.º, n.º 1, alínea a) do Código dos Contratos Públicos",,,,,,Não aplicável.,Não aplicável.,FALSE
"Serviços para a realização de Meios Complementares de Diagnóstico e Terapêutica na área de Anatomia Patológica/Genética ao Centro Hospitalar do Tâmega e Sousa, E.P.E.",Concurso público,Aquisição de serviços,"85145000-7, Serviços prestados por laboratórios médicos","Centro Hospitalar do Tâmega e Sousa, E. P. E. (508318262)","Centro de Genética Clínica e Patologia, S.A. (501410961)","243.175,90 €",03-04-2018,01-03-2018,306 dias,"Portugal, Porto, Penafiel","Artigo 20.º, n.º 1, alínea b) do Código dos Contratos Públicos",,,,,,Não aplicável.,Não aplicável.,FALSE
