Objeto do Contrato,Tipo de Procedimento,Tipo(s) de Contrato,CPVs,Entidade(s) Adjudicante(s),Entidade(s) Adjudicatária(s),Preço Contratual,Data de Publicação,Data de Celebração do Contrato,Prazo de Execução,Local de Execução,Fundamentação,Data de Fecho do Contrato,Preço Total Efetivo,Causas das Alterações ao Prazo,Causas das Alterações ao Preço,Estado,N.º registo do Acordo Quadro,Descrição do Acordo Quadro,Procedimento Centralizado
AQ - Combustíveis Rodoviários,Ao abrigo de acordo-quadro (art.º 259.º),Aquisição de bens móveis,"09100000-0, Combustíveis","Unidade Local de Saúde do Baixo Alentejo, E.P.E. (508754275), Insituto Nacional de Saúde Dr. Ricardo Jorge, I.P. (501427511), Hospital Distrital da Figueira da Foz, EPE (506361527), Instituto Português Oncologia de Coimbra Francisco Gentil, E.P.E. (506361438), Centro Hospitalar e Universitário de Coimbra, E. P. E. (510103448), Hospital Professor Doutor Fernando Fonseca, E.P.E. (503035416), Unidade Local de Saúde do Litoral Alentejano, E.P.E. (510445152), Centro Hospitalar Psiquiátrico de Lisboa (508338476), Centro Hospitalar do Algarve, E. P. E. (510745997), Inspeção-Geral das Atividades em Saúde (600018857), Hospital Garcia de Orta, E.P.E. (506361470), Centro Hospitalar do Alto Ave, E.P.E. (508080827), Hospital José Luciano de Castro - Anadia (501613021), Direcção-Geral da Saúde (600037100), Hospital de Magalhães Lemos, E. P. E. (502828790), Hospital Arcebispo João Crisóstomo - Cantanhede (501626123), Centro Medicina de Reabilitação da Região Centro Rovisco Pais (503767336), Serviço Partilhados do Ministério da Saúde, E. P. E. (509540716), Centro Hospitalar Vila Nova de Gaia - Espinho, E. P. E. (508142156), Centro Hospitalar Barreiro Montijo, E.P.E. (509186998), Administração Regional de Saúde Algarve, I.P. (503148709), Administração Regional de Saúde do Alentejo, I. P. (503148768), Centro Hospitalar do Porto, E.P.E. (508331471), Centro Hospitalar de Entre o Douro e Vouga, E.P.E. (508878462), Unidade Local de Saúde do Norte Alentejano, E. P. E. (508094461), Unidade Local de Saúde de Matosinhos, E.P.E. (506361390), Centro Hospitalar de Lisboa Ocidental, E.P.E. (507618319), Instituto Português do sangue (502423943), Unidade Local de Saúde do Alto Minho, E. P. E. (508786193), INFARMED - Autoridade Nacional do Medicamento e Produtos de Saúde I.P. (600037002), Gabinete do Ministro da Saúde (600052303), Hospital de Santarém, E.P.E. (506361462), Centro Hospitalar do Médio Ave, E.P.E. (508093937), Hospital do Espírito Santo de Évora, E. P. E. (508085888), Centro Hospitalar de São João, E. P. E. (509821197), Unidade Local de Saúde da Guarda, E.P.E. (508752000), Centro Hospitalar de Lisboa Central, E. P. E. (508080142), Centro Hospitalar do Tâmega e Sousa, E. P. E. (508318262), Administração Regional de Saúde de Lisboa e Vale do Tejo, I. P. (503148776), Centro Hospitalar de Leiria, E.P.E. (509822932), Gabinete do Secretário de Estado Adjunto do Ministro da Saúde (600071006), Administração Central do Sistema de Saúde, I.P. (508188423), Secretaria-Geral do Ministério da Saúde (600080684), Hospital Santa Maria Maior, E.P.E. - Barcelos (506361381), CHO - Centro Hospitalar do Oeste (510412009), Centro Hospitalar do Baixo Vouga, E.P.E. (510123210), Instituto Nacional de Emergência Médica, I.P. (501356126), Hospital Dr. Francisco Zagalo - Ovar (501510150), Centro Hospitalar Lisboa Norte, E. P. E. (508481287), Instituto Português Oncologia do Porto Francisco Gentil, E.P.E. (506362299), Gabinete do Secretátio de Estado da Saúde (600052290), Administração Regional de Saúde do Centro, I. P. (503122165), Administração Regional de Saúde do Norte, I. P. (503135593), Serviço de Intervenção nos Comportamentos Aditivos e nas Dependências (600084884), Unidade Local de Saúde do Nordeste, E. P. E (509932584), Centro Hospitalar Tondela-Viseu, E.P.E. (509822940), Centro Hospitalar de Trás-os-Montes e Alto Douro, E. P. E. (508100496)",Petróleos de Portugal - Petrogal SA (500697370),"20.031,90 €",17-04-2014,08-01-2014,335 dias,"Portugal, Évora, Évora",Artigo 259.º do Código dos Contratos Públicos,08-01-2014,"20.031,90 €",,,,400324,Acordo quadro de fornecimento de combustíveis rodoviários,TRUE
Aquisição de Nasolaringoscópios,Ajuste Direto Regime Geral,Aquisição de bens móveis,"33000000-0, Equipamento médico, medicamentos e produtos para cuidados pessoais","Hospital Garcia de Orta, E. P. E. (506361470)","MED OPORTUNITY, S.A. (509101496)","13.100,00 €",15-04-2014,15-04-2014,15 dias,"Portugal, Setúbal, Almada","Artigo 24.º, n.º 1, alínea c) do Código dos Contratos Públicos","","",,,,Não aplicável.,Não aplicável.,FALSE
