Objeto do Contrato,Tipo de Procedimento,Tipo(s) de Contrato,CPVs,Entidade(s) Adjudicante(s),Entidade(s) Adjudicatária(s),Preço Contratual,Data de Publicação,Data de Celebração do Contrato,Prazo de Execução,Local de Execução,Fundamentação,Data de Fecho do Contrato,Preço Total Efetivo,Causas das Alterações ao Prazo,Causas das Alterações ao Preço,Estado,N.º registo do Acordo Quadro,Descrição do Acordo Quadro,Procedimento Centralizado
Prestação de serviços de manutenção de jardins,Ajuste Direto Regime Geral,Aquisição de serviços,"90000000-7, Serviços relativos a águas residuais, resíduos, limpeza e ambiente","Centro Hospitalar do Alto Ave, E. P. E. (508080827)",Vadeca Ambiente - Preservação e Controlo - S.A. (505356686),"8.880,00 €",24-03-2015,13-03-2015,365 dias,"Portugal, Braga, Guimarães","Artigo 20.º, n.º 1, alínea a) do Código dos Contratos Públicos","","",,,,Não aplicável.,Não aplicável.,FALSE
Fornecimento de Equipamento Médico para o Serviço de Urologia,Ajuste Direto Regime Geral,Aquisição de bens móveis,"33000000-0, Equipamento médico, medicamentos e produtos para cuidados pessoais","Centro Hospitalar do Alto Ave, E. P. E. (508080827)","TEPREL - Equipamentos Médicos, S.A. (502262184)","45.158,00 €",24-03-2015,16-02-2015,60 dias,"Portugal, Braga, Guimarães","Artigo 24.º, n.º 1, alínea b) do Código dos Contratos Públicos",05-06-2015,"45.158,00 €",,,,Não aplicável.,Não aplicável.,FALSE
