Objeto do Contrato,Tipo de Procedimento,Tipo(s) de Contrato,CPVs,Entidade(s) Adjudicante(s),Entidade(s) Adjudicatária(s),Preço Contratual,Data de Publicação,Data de Celebração do Contrato,Prazo de Execução,Local de Execução,Fundamentação,Data de Fecho do Contrato,Preço Total Efetivo,Causas das Alterações ao Prazo,Causas das Alterações ao Preço,Estado,N.º registo do Acordo Quadro,Descrição do Acordo Quadro,Procedimento Centralizado
Pequenas obras de construção civil nos edifícios Nº75 e Nº77 da Av. EUA.,Ajuste Direto Regime Geral,Empreitadas de obras públicas,"45113000-2, Obras no local","Administração Regional de Saúde de Lisboa e Vale do Tejo, I. P. (503148776)","Ribaminho - Sociedade de Construções, Lda. (501848479)","840,00 €",20-05-2016,19-04-2016,10 dias,"Portugal, Lisboa, Lisboa","Artigo 19.º, alínea a) do Código dos Contratos Públicos","","",,,,Não aplicável.,Não aplicável.,FALSE
Aquisição de vinhetas e blocos de receituario - Aces Oeste Sul,Ajuste Direto Regime Geral,Aquisição de bens móveis,"30199761-2, Etiquetas com códigos de barras","Administração Regional de Saúde de Lisboa e Vale do Tejo, I. P. (503148776)",INCM - Imprensa Nacional - Casa da Moeda (500792887),"150,00 €",20-05-2016,22-03-2016,20 dias,"Portugal, Lisboa, Torres Vedras","Artigo 24.º, n.º 1, alínea e) do Código dos Contratos Públicos",22-03-2016,"150,00 €",,,,Não aplicável.,Não aplicável.,FALSE
Aquisição de vinhetas e blocos de receituario - Aces Oeste Sul,Ajuste Direto Regime Geral,Aquisição de bens móveis,"30199761-2, Etiquetas com códigos de barras","Administração Regional de Saúde de Lisboa e Vale do Tejo, I. P. (503148776)",INCM- Imprensa Nacional Casa da Moeda (500792887),"68,00 €",20-05-2016,19-04-2016,20 dias,"Portugal, Lisboa, Torres Vedras","Artigo 24.º, n.º 1, alínea e) do Código dos Contratos Públicos",19-04-2016,"68,00 €",,,,Não aplicável.,Não aplicável.,FALSE
Aquisição de 5.000 unidades de Permetrina 10mg/g Creme frasco 60ml,Ajuste Direto Regime Geral,Aquisição de bens móveis,"33690000-3, Medicamentos vários","Administração Regional de Saúde de Lisboa e Vale do Tejo, I. P. (503148776)","Omega Pharma Portuguesa, Lda (506112233)","37.000,00 €",20-05-2016,10-05-2016,66 dias,"Portugal, Lisboa","Artigo 24.º, n.º 1, alínea e) do Código dos Contratos Públicos","","",,,,Não aplicável.,Não aplicável.,FALSE
Aquisição de 50.000 unidades de Poliuretano Espuma Rebordo (14-15) 2cm (10-11) 2cm,Ao abrigo de acordo-quadro (art.º 259.º),Aquisição de bens móveis,"33690000-3, Medicamentos vários","Administração Regional de Saúde de Lisboa e Vale do Tejo, I. P. (503148776)","Clinifar, SA (503281115)","51.000,00 €",20-05-2016,18-05-2016,66 dias,"Portugal, Lisboa",Artigo 259.º do Código dos Contratos Públicos,"","",,,,1315192,Acordo Quadro para fornecimento de material de penso de efeito terapêutico às Instituições e Serviços do Serviço Nacional de Saúde,FALSE
Poliuretano Espuma sem Rebordo 10x10cm,Ao abrigo de acordo-quadro (art.º 259.º),Aquisição de bens móveis,"33690000-3, Medicamentos vários","Administração Regional de Saúde de Lisboa e Vale do Tejo, I. P. (503148776)","Clinifar, SA (503281115)","29.340,00 €",20-05-2016,18-05-2016,66 dias,"Portugal, Lisboa",Artigo 259.º do Código dos Contratos Públicos,"","",,,,1315192,Acordo Quadro para fornecimento de material de penso de efeito terapêutico às Instituições e Serviços do Serviço Nacional de Saúde,FALSE
Aquisição de 10.000 unidades de Reagente Determinante Tempo Protrombina,Ajuste Direto Regime Geral,Aquisição de bens móveis,"33690000-3, Medicamentos vários","Administração Regional de Saúde de Lisboa e Vale do Tejo, I. P. (503148776)","Werfen Portugal, Lda (501086110)","20.000,00 €",20-05-2016,16-05-2016,66 dias,"Portugal, Lisboa","Artigo 24.º, n.º 1, alínea e) do Código dos Contratos Públicos","","",,,,Não aplicável.,Não aplicável.,FALSE
Serviços de emissão de certificado pessoal,Ajuste Direto Regime Geral,Aquisição de serviços,"79130000-4, Serviços de certificação e documentação legal","Administração Regional de Saúde de Lisboa e Vale do Tejo, I. P. (503148776)",CEGER (600055639),"150,00 €",20-05-2016,17-05-2016,1095 dias,"Portugal, Lisboa, Lisboa","Artigo 24.º, n.º 1, alínea e) do Código dos Contratos Públicos","","",,,,Não aplicável.,Não aplicável.,FALSE
Aquisição de 30.000 unidades de Poliuretano Espuma Sacro Rebordo 23x23cm,Ao abrigo de acordo-quadro (art.º 259.º),Aquisição de bens móveis,"33690000-3, Medicamentos vários","Administração Regional de Saúde de Lisboa e Vale do Tejo, I. P. (503148776)","SPC - South Point Care - Especialidades Farmacêuticas, Lda (508284872)","60.900,00 €",20-05-2016,16-05-2016,66 dias,"Portugal, Lisboa",Artigo 259.º do Código dos Contratos Públicos,"","",,,,1315192,Acordo Quadro para fornecimento de material de penso de efeito terapêutico às Instituições e Serviços do Serviço Nacional de Saúde,FALSE
Aquisição de 10.000 unidades de Reagente Determinante 10 Parametros Na Urina - Tira,Ajuste Direto Regime Geral,Aquisição de bens móveis,"33690000-3, Medicamentos vários","Administração Regional de Saúde de Lisboa e Vale do Tejo, I. P. (503148776)",Siemens Healthcare Diagnostics Lda (507925173),"2.300,00 €",20-05-2016,12-05-2016,66 dias,"Portugal, Lisboa","Artigo 24.º, n.º 1, alínea e) do Código dos Contratos Públicos","","",,,,Não aplicável.,Não aplicável.,FALSE
"Aquisição de 200 ampolas de Flumazenilo 0,1mg/ml Solução Inj Frasco 5ml IV",Ao abrigo de acordo-quadro (art.º 259.º),Aquisição de bens móveis,"33690000-3, Medicamentos vários","Administração Regional de Saúde de Lisboa e Vale do Tejo, I. P. (503148776)","Accord Healthcare, Unipessoal Lda (508622263)","290,00 €",20-05-2016,18-05-2016,66 dias,"Portugal, Lisboa",Artigo 259.º do Código dos Contratos Públicos,"","",,,,1338581,"Acordo quadro para fornecimento de Medicação antialérgica, medicamentos usados no tratamento de intoxicações, vitaminas e sais minerais e grupo 20.9 - outros produtos às instituições e serviços do serviço nacional de saúde",FALSE
Aquisição de 5.000 unidades de Lidocaína 20mg/g gel Bisnaga 30g,Ao abrigo de acordo-quadro (art.º 259.º),Aquisição de bens móveis,"33690000-3, Medicamentos vários","Administração Regional de Saúde de Lisboa e Vale do Tejo, I. P. (503148776)","Labesfal - Laboratórios Almiro, SA (501169580)","4.005,00 €",19-05-2016,17-05-2016,66 dias,"Portugal, Lisboa",Artigo 259.º do Código dos Contratos Públicos,"","",,,,602875,"CONCURSO PÚBLICO PARA A CELEBRAÇÃO DE CONTRATOS PÚBLICOS DE APROVISIONAMENTO PARA A ÁREA DA SAÚDE, COM VISTA AO FORNECIMENTO DE MEDICAMENTOS DE CONSUMO GERAL - USADOS NAS AFECÇÕES CUTÂNEAS, ÀS INSTITUIÇÕES E SERVIÇOS DO SERVIÇO NACIONAL DE SAÚDE",FALSE
Aquisição de 30.000 ampolas de Tiocolquicosido Sol. Inj. 4mg/2ml IM,Ajuste Direto Regime Geral,Aquisição de bens móveis,"33690000-3, Medicamentos vários","Administração Regional de Saúde de Lisboa e Vale do Tejo, I. P. (503148776)","Sanofi - Produtos Farmacêuticos, Lda  (500134960)","12.600,00 €",19-05-2016,19-05-2016,226 dias,"Portugal, Lisboa, Lisboa",Artigo 258.º do Código dos Contratos Públicos,"","",,,,Não aplicável.,Não aplicável.,FALSE
Aquisição de Ligaduras Elásticas tipo crepe,Concurso público,Aquisição de bens móveis,"33141126-9, Ligaduras","Administração Regional de Saúde de Lisboa e Vale do Tejo, I. P. (503148776)","Albino Dias de Andrade, Lda (500013810)","120.350,00 €",18-05-2016,27-04-2016,228 dias,"Portugal, Lisboa, Lisboa","Artigo 20.º, n.º 1, alínea b) do Código dos Contratos Públicos","","",,,,Não aplicável.,Não aplicável.,FALSE
"Remodelação dos quadros elétricos da sede da ARSLVT, IP.",Ajuste Direto Regime Geral,Empreitadas de obras públicas,"45113000-2, Obras no local","Administração Regional de Saúde de Lisboa e Vale do Tejo, I. P. (503148776)","PRTANGLE - Engenharia e Serviços, Lda. (513103988)","52.000,00 €",17-05-2016,15-04-2016,60 dias,"Portugal, Lisboa, Lisboa","Artigo 19.º, alínea a) do Código dos Contratos Públicos","","",,,,Não aplicável.,Não aplicável.,FALSE
Aquisição de 8.000 comprimidos de Diazepam 5mg,Ao abrigo de acordo-quadro (art.º 259.º),Aquisição de bens móveis,"33690000-3, Medicamentos vários","Administração Regional de Saúde de Lisboa e Vale do Tejo, I. P. (503148776)",Labesfal - Laboratórios Almiro S.A. (501169580),"111,20 €",16-05-2016,12-05-2016,233 dias,"Portugal, Lisboa, Lisboa",Artigo 259.º do Código dos Contratos Públicos,"","",,,,1179911,"CONCURSO PÚBLICO PARA A CELEBRAÇÃO DE CONTRATOS PÚBLICOS DE APROVISIONAMENTO PARA A ÁREA DA SAÚDE, MEDICAMENTOS DO SISTEMA NERVOSO CEREBROSPINAL, EXCETO: ANESTÉSICOS, RELAXANTES MUSCULARES, ANALGÉSICOS, ANTIPIRÉTICOS, ANTIDEPRESSORES E ANTIPSICÓTICOS, ÀS INSTITUIÇÕES E SERVIÇOS DO SERVIÇO NACIONAL DE SAÚDE",FALSE
Aquisição de 4.200 saquestas de Ácido Para-Aminossalicilico 4G - Granulado,Ajuste Direto Regime Geral,Aquisição de bens móveis,"33690000-3, Medicamentos vários","Administração Regional de Saúde de Lisboa e Vale do Tejo, I. P. (503148776)","Overpharma - Produtos Médicos e Farmacêuticos, Lda (505792362)","56.070,00 €",16-05-2016,19-04-2016,66 dias,"Portugal, Lisboa","Artigo 24.º, n.º 1, alínea e) do Código dos Contratos Públicos","","",,,,Não aplicável.,Não aplicável.,FALSE
"MANUTENÇÃO/REPARAÇÃO DE EDIFICIOS  PC Nº 3400008987, NPD Nº16E00047 E COMPROMISSO Nº5016001326",Ajuste Direto Regime Geral,Aquisição de serviços,"50000000-5, Serviços de reparação e manutenção","Administração Regional de Saúde de Lisboa e Vale do Tejo, I. P. (503148776)","BLOCO ZERO, SOCIEDADE DE CONSTRUÇÕES, LDA. (502689730)","5.000,00 €",16-05-2016,26-01-2016,5 dias,"Portugal, Lisboa, Loures","Artigo 20.º, n.º 1, alínea a) do Código dos Contratos Públicos","","",,,,Não aplicável.,Não aplicável.,FALSE
Reparação das instalações elétricas e do sistema de iluminação do Centro de Saúde do Cadaval.,Ajuste Direto Regime Geral,Aquisição de serviços,"50700000-2, Serviços de reparação e manutenção de equipamento em edifícios","Administração Regional de Saúde de Lisboa e Vale do Tejo, I. P. (503148776)","Ampermago - Instalações Elétricas, Lda. (508125871)","4.455,74 €",16-05-2016,09-05-2016,10 dias,"Portugal, Lisboa, Cadaval","Artigo 20.º, n.º 1, alínea a) do Código dos Contratos Públicos","","",,,,Não aplicável.,Não aplicável.,FALSE
Fornecimento e montagem de bancadas para a USF Baixa.,Ajuste Direto Regime Geral,Aquisição de bens móveis,"39181000-4, Bancadas de laboratório","Administração Regional de Saúde de Lisboa e Vale do Tejo, I. P. (503148776)","Industrial Laborum Ibérica, SA (506692027)","3.120,00 €",16-05-2016,21-04-2016,15 dias,"Portugal, Lisboa, Lisboa","Artigo 20.º, n.º 1, alínea a) do Código dos Contratos Públicos","","",,,,Não aplicável.,Não aplicável.,FALSE
Aquisição de biombos para a USF Baixa,Ajuste Direto Regime Geral,Aquisição de bens móveis,"30190000-7, Equipamento e material de escritório diverso","Administração Regional de Saúde de Lisboa e Vale do Tejo, I. P. (503148776)","Ergotec - Equipamento para escritórios, Lda. (503455105)","5.684,80 €",16-05-2016,21-04-2016,30 dias,"Portugal, Lisboa, Lisboa","Artigo 20.º, n.º 1, alínea a) do Código dos Contratos Públicos","","",,,,Não aplicável.,Não aplicável.,FALSE
Aquisição de Papel de marquesa c/ face Impermeabilizada.,Concurso público,Aquisição de bens móveis,"33140000-3, Material médico de consumo","Administração Regional de Saúde de Lisboa e Vale do Tejo, I. P. (503148776)","Factormed - Comércio e Distribuição de Produtos Médicos, Lda (506986918)","67.500,00 €",16-05-2016,12-05-2016,229 dias,"Portugal, Lisboa, Lisboa","Artigo 20.º, n.º 1, alínea b) do Código dos Contratos Públicos","","",,,,Não aplicável.,Não aplicável.,FALSE
"REPARAÇÃO/MANUTENÇÃO EXTINTOR PÓ QUIMICO 6KG PC Nº3400009653, NPD Nº16J00273 E COMPROMISSO Nº5016020663",Ajuste Direto Regime Geral,Aquisição de serviços,"50000000-5, Serviços de reparação e manutenção","Administração Regional de Saúde de Lisboa e Vale do Tejo, I. P. (503148776)",AUGUSTO SILVA-VENDA E MANUT MATERIAL DE INCENDIO (505738180),"90,00 €",13-05-2016,21-04-2016,5 dias,"Portugal, Lisboa, Loures","Artigo 24.º, n.º 1, alínea e) do Código dos Contratos Públicos","","",,,,Não aplicável.,Não aplicável.,FALSE
"Prestação de serviços de Acompanhamento relacionada com a Atividade das Entidades Gestoras dos Edifícios no âmbito dos Contratos de Gestão dos Edifícios dos Hospitais de Cascais, Loures e Vila Franca de Xira.",Concurso público,Aquisição de serviços,"71315200-1, Serviços de consultoria relacionados com edifícios","Administração Regional de Saúde de Lisboa e Vale do Tejo, I. P. (503148776)","ESPACIALGRID CONSULTADORIA E ENGENHARIA, LDA. (505877821)","63.995,10 €",13-05-2016,28-04-2016,280 dias,"Portugal, Lisboa","Artigo 20.º, n.º 1, alínea b) do Código dos Contratos Públicos","","",,,,Não aplicável.,Não aplicável.,FALSE
"AQUISIÇÃO DE SINALÉTICA  PC Nº3400009458, NPD Nº16E00184 E COMPROMISSO Nº5016013977",Ajuste Direto Regime Geral,Aquisição de bens móveis,"19000000-6, Materiais têxteis, de couro, de plástico e de borracha","Administração Regional de Saúde de Lisboa e Vale do Tejo, I. P. (503148776)",INFORTIPO SERVIÇOS DE PUBLICIDADE (502964472),"1.436,70 €",12-05-2016,23-03-2016,5 dias,"Portugal, Lisboa, Loures","Artigo 20.º, n.º 1, alínea a) do Código dos Contratos Públicos","","",,,,Não aplicável.,Não aplicável.,FALSE
AQUISIÇÃO DE SINALÉTICA - TRABALHOS ESPECIALIZADOS,Ajuste Direto Regime Geral,Aquisição de bens móveis,"19000000-6, Materiais têxteis, de couro, de plástico e de borracha","Administração Regional de Saúde de Lisboa e Vale do Tejo, I. P. (503148776)",INFORTIPO SERVIÇOS DE PUBLICIDADE (502964472),"1.818,50 €",12-05-2016,23-03-2016,5 dias,"Portugal, Lisboa, Loures","Artigo 20.º, n.º 1, alínea a) do Código dos Contratos Públicos","","",,,,Não aplicável.,Não aplicável.,FALSE
"AQUISIÇÃO DE SINALÉTICA - TRABALHOS ESPECIALIZADOS  PC Nº3400009461, NPD Nº16E00183 E COMPROMISSO Nº5016013708",Ajuste Direto Regime Geral,Aquisição de bens móveis,"19000000-6, Materiais têxteis, de couro, de plástico e de borracha","Administração Regional de Saúde de Lisboa e Vale do Tejo, I. P. (503148776)",INFORTIPO SERVIÇOS DE PUBLICIDADE (502964472),"1.845,30 €",12-05-2016,23-03-2016,5 dias,"Portugal, Lisboa, Loures","Artigo 20.º, n.º 1, alínea a) do Código dos Contratos Públicos","","",,,,Não aplicável.,Não aplicável.,FALSE
"Aquisição de serviços de recolha de equipamentos de esterilização, material médico e outros.",Concurso público,Aquisição de serviços,"60000000-8, Serviços de transporte (excl. transporte de resíduos)","Administração Regional de Saúde de Lisboa e Vale do Tejo, I. P. (503148776)","ALFA LISBON - GESTÃO DE PROCESSOS DE EXPEDIÇÃO, LDA. (507586522)","77.699,00 €",12-05-2016,03-03-2016,300 dias,"Portugal, Setúbal, Sesimbra<BR/>Portugal, Lisboa","Artigo 20.º, n.º 1, alínea b) do Código dos Contratos Públicos","","",,,,Não aplicável.,Não aplicável.,FALSE
"Aquisição de serviços de recolha de equipamentos de esterilização, material médico e outros.",Concurso público,Aquisição de serviços,"60000000-8, Serviços de transporte (excl. transporte de resíduos)","Administração Regional de Saúde de Lisboa e Vale do Tejo, I. P. (503148776)","Transportes Barata & Carvalho, Lda. (500425299)","9.600,00 €",12-05-2016,02-03-2016,300 dias,"Portugal, Setúbal, Almada<BR/>Portugal, Setúbal, Seixal","Artigo 20.º, n.º 1, alínea b) do Código dos Contratos Públicos","","",,,,Não aplicável.,Não aplicável.,FALSE
"Aquisição de serviços de recolha de equipamentos de esterilização, material médico e outros.",Concurso público,Aquisição de serviços,"60000000-8, Serviços de transporte (excl. transporte de resíduos)","Administração Regional de Saúde de Lisboa e Vale do Tejo, I. P. (503148776)","CTM - Logística, Mudanças e Transportes, Lda. (507426479)","2.631,20 €",12-05-2016,02-03-2016,300 dias,"Portugal, Lisboa, Amadora","Artigo 20.º, n.º 1, alínea b) do Código dos Contratos Públicos","","",,,,Não aplicável.,Não aplicável.,FALSE
Aquisição de Solução Polimérica para reforço do Extrato Córneo – Lote II.,Concurso público,Aquisição de bens móveis,"33141100-1, Pensos; clipes, suturas, ligaduras","Administração Regional de Saúde de Lisboa e Vale do Tejo, I. P. (503148776)","Smith - Nephew, Lda (503552461)","25.440,00 €",11-05-2016,05-05-2016,234 dias,"Portugal, Lisboa, Lisboa","Artigo 20.º, n.º 1, alínea b) do Código dos Contratos Públicos","","",,,,Não aplicável.,Não aplicável.,FALSE
