Objeto do Contrato,Tipo de Procedimento,Tipo(s) de Contrato,CPVs,Entidade(s) Adjudicante(s),Entidade(s) Adjudicatária(s),Preço Contratual,Data de Publicação,Data de Celebração do Contrato,Prazo de Execução,Local de Execução,Fundamentação,Data de Fecho do Contrato,Preço Total Efetivo,Causas das Alterações ao Prazo,Causas das Alterações ao Preço,Estado,N.º registo do Acordo Quadro,Descrição do Acordo Quadro,Procedimento Centralizado
"Fornecimento de combustíveis rodoviários à ULSNA, EPE (maio e junho de 2013)",Ajuste Direto Regime Geral,Aquisição de serviços<br/>Aquisição de bens móveis,"09100000-0, Combustíveis","Unidade Local de Saúde do Norte Alentejano, E.P.E. (508094461)","Petróleos de Portugal - Petrogal, SA (500697370)","30.000,00 €",20-05-2013,02-05-2013,61 dias,"Portugal, Portalegre","Artigo 24.º, n.º 1, alínea c) do Código dos Contratos Públicos",30-06-2013,"30.000,00 €",,,,Não aplicável.,Não aplicável.,
"Fornecimento de gás natural à ULSNA, EPE (janeiro a maio de 2013)",Ajuste Direto Regime Geral,Aquisição de bens móveis<br/>Aquisição de serviços,"09100000-0, Combustíveis","Unidade Local de Saúde do Norte Alentejano, E.P.E. (508094461)","Galp Gás Natural, SA (503103616)","198.000,00 €",17-05-2013,15-02-2013,151 dias,"Portugal, Portalegre, Portalegre","Artigo 24.º, n.º 1, alínea c) do Código dos Contratos Públicos",31-05-2013,"198.000,00 €",,,,Não aplicável.,Não aplicável.,
"Prestação de Serviços Médicos, na Especialidade de Ortopedia, na ULSNA, EPE (de Abril a Junho de 2013)",Ajuste Direto Regime Geral,Aquisição de serviços,"85100000-0, Serviços de saúde","Unidade Local de Saúde do Norte Alentejano, E.P.E. (508094461)","C.C.P. - Centro Clinicos das Picoas, Lda (501666796)","12.600,00 €",16-05-2013,07-05-2013,91 dias,"Portugal, Portalegre, Portalegre","Artigo 24.º, n.º 1, alínea c) do Código dos Contratos Públicos",30-06-2013,"12.600,00 €",,,,Não aplicável.,Não aplicável.,
"Prestação de Serviços Médicos, na Especialidade de Ortopedia, na ULSNA, EPE (de Abril a Junho de 2013)",Ajuste Direto Regime Geral,Aquisição de serviços,"85100000-0, Serviços de saúde","Unidade Local de Saúde do Norte Alentejano, E.P.E. (508094461)","Bargão dos Santos, Serviços Médicos, Lda (507203895)","19.899,00 €",16-05-2013,08-05-2013,91 dias,"Portugal, Portalegre, Elvas","Artigo 24.º, n.º 1, alínea c) do Código dos Contratos Públicos",30-06-2013,"19.899,00 €",,,,Não aplicável.,Não aplicável.,
"Prestação de Serbiços Médicos, na Especialidade de Ortopedia, na ULSNA, EPE (de Abril a Junho de 2013)",Ajuste Direto Regime Geral,Aquisição de serviços,"85100000-0, Serviços de saúde","Unidade Local de Saúde do Norte Alentejano, E.P.E. (508094461)","César Morales, Lda (508550424)","39.360,00 €",16-05-2013,13-05-2013,91 dias,"Portugal, Portalegre, Elvas","Artigo 24.º, n.º 1, alínea c) do Código dos Contratos Públicos",30-06-2013,"39.360,00 €",,,,Não aplicável.,Não aplicável.,
"Prestação de Serviços Médicos, na Triagem Pediátrica, na ULSNA, EPE (de Abril a Junho de 2013)",Ajuste Direto Regime Geral,Aquisição de serviços,"85100000-0, Serviços de saúde","Unidade Local de Saúde do Norte Alentejano, E.P.E. (508094461)","Honorismédica, Lda (509799191)","36.400,00 €",16-05-2013,07-05-2013,91 dias,"Portugal, Portalegre, Portalegre","Artigo 24.º, n.º 1, alínea c) do Código dos Contratos Públicos",30-06-2013,"36.400,00 €",,,,Não aplicável.,Não aplicável.,
"Prestação de Serviços Médicos, na Unidade Básica do Centro de Saúde de Ponte de Sôr, na ULSNA, EPE (de Abril a Junho de 2013)",Ajuste Direto Regime Geral,Aquisição de serviços,"85100000-0, Serviços de saúde","Unidade Local de Saúde do Norte Alentejano, E.P.E. (508094461)","Honorismédica, Lda (509799191)","54.600,00 €",16-05-2013,07-05-2013,91 dias,"Portugal, Portalegre, Ponte de Sor","Artigo 24.º, n.º 1, alínea c) do Código dos Contratos Públicos",30-06-2013,"54.600,00 €",,,,Não aplicável.,Não aplicável.,
"Prestação de Serviços Médicos, na Especialidade de Medicina Interna, na ULSNA, EPE (de Abril a Junho de 2013)",Ajuste Direto Regime Geral,Aquisição de serviços,"85100000-0, Serviços de saúde","Unidade Local de Saúde do Norte Alentejano, E.P.E. (508094461)","Honorismédica, Lda (509799191)","45.498,00 €",16-05-2013,07-05-2013,91 dias,"Portugal, Portalegre, Portalegre","Artigo 24.º, n.º 1, alínea c) do Código dos Contratos Públicos",30-06-2013,"45.498,00 €",,,,Não aplicável.,Não aplicável.,
"Prestação de Serviços Médicos, na Especialidade de Medicina Interna, na ULSNA, EPE (de Abril a Junho de 2013)",Ajuste Direto Regime Geral,Aquisição de serviços,"85100000-0, Serviços de saúde","Unidade Local de Saúde do Norte Alentejano, E.P.E. (508094461)","RPSM - Serviços Médicos, Unipessoal, Lda (510160786)","12.951,36 €",16-05-2013,09-05-2013,91 dias,"Portugal, Portalegre, Portalegre","Artigo 24.º, n.º 1, alínea c) do Código dos Contratos Públicos",30-06-2013,"12.951,36 €",,,,Não aplicável.,Não aplicável.,
"Prestação de Serviços Médicos, na Unidade de Cuidados Intensivos, na ULSNA, EPE (de Abril a Junho de 2013)",Ajuste Direto Regime Geral,Aquisição de serviços,"85100000-0, Serviços de saúde","Unidade Local de Saúde do Norte Alentejano, E.P.E. (508094461)","Jorge Vila, Lda (504227190)","22.860,00 €",16-05-2013,08-05-2013,91 dias,"Portugal, Portalegre, Portalegre","Artigo 24.º, n.º 1, alínea c) do Código dos Contratos Públicos",30-06-2013,"22.860,00 €",,,,Não aplicável.,Não aplicável.,
"Prestação de Serviços Médicos, na Unidade de Cuidados Intensivos, na ULSNA, EPE (de Abril a Junho de 2013)",Ajuste Direto Regime Geral,Aquisição de serviços,"85100000-0, Serviços de saúde","Unidade Local de Saúde do Norte Alentejano, E.P.E. (508094461)","Honorismédica, Lda (509799191)","18.180,00 €",16-05-2013,07-05-2013,91 dias,"Portugal, Portalegre, Portalegre","Artigo 24.º, n.º 1, alínea c) do Código dos Contratos Públicos",30-06-2013,"18.180,00 €",,,,Não aplicável.,Não aplicável.,
"Prestação de Serviços Médicos, na Especialidade de Anestesiologia, na ULSNA, EPE (de Abril a Junho de 2013)",Ajuste Direto Regime Geral,Aquisição de serviços,"85100000-0, Serviços de saúde","Unidade Local de Saúde do Norte Alentejano, E.P.E. (508094461)","Isabel Oliveira Eusébio, Unipessoal, Lda (508498520)","33.359,04 €",15-05-2013,09-05-2013,91 dias,"Portugal, Portalegre, Portalegre","Artigo 24.º, n.º 1, alínea c) do Código dos Contratos Públicos",30-06-2013,"33.359,04 €",,,,Não aplicável.,Não aplicável.,
"Prestação de Serviços Médicos, na Especialidade de Ginecologia e Obstetrícia, na ULSNA, EPE (de Abril a Junho de 2013)",Ajuste Direto Regime Geral,Aquisição de serviços,"85100000-0, Serviços de saúde","Unidade Local de Saúde do Norte Alentejano, E.P.E. (508094461)","Dr. Cienfuegos Campini, SLU (B06599369)","24.227,70 €",15-05-2013,13-05-2013,91 dias,"Portugal, Portalegre, Portalegre","Artigo 24.º, n.º 1, alínea c) do Código dos Contratos Públicos",30-06-2013,"24.227,70 €",,,,Não aplicável.,Não aplicável.,
"Prestação de Serviços Médicos, na Especialidade de Ginecologia e Obstetrícia, na ULSNA, EPE (de Abril a Junho de 2013)",Ajuste Direto Regime Geral,Aquisição de serviços,"85100000-0, Serviços de saúde","Unidade Local de Saúde do Norte Alentejano, E.P.E. (508094461)","Sucesso24Horas, S.A. (507328310)","38.793,60 €",15-05-2013,07-05-2013,91 dias,"Portugal, Portalegre, Portalegre","Artigo 24.º, n.º 1, alínea c) do Código dos Contratos Públicos",30-06-2013,"38.793,60 €",,,,Não aplicável.,Não aplicável.,
"Prestação de Serviços Médicos, na Especialidade de Ginecologia e Obstetrícia, na ULSNA, EPE (de Abril a Junho de 2013)",Ajuste Direto Regime Geral,Aquisição de serviços,"85100000-0, Serviços de saúde","Unidade Local de Saúde do Norte Alentejano, E.P.E. (508094461)","Helped, Prestação de Serviços de Saúde, Lda (506069010)","13.564,80 €",14-05-2013,10-05-2013,91 dias,"Portugal, Portalegre, Portalegre","Artigo 24.º, n.º 1, alínea c) do Código dos Contratos Públicos",30-06-2013,"13.564,80 €",,,,Não aplicável.,Não aplicável.,
"Prestação de Serviços Médicos, na Especialidade de Ginecologia e Obstetricia, na ULSNA, EPE (de Abril a Junho de 2013)",Ajuste Direto Regime Geral,Aquisição de serviços,"85100000-0, Serviços de saúde","Unidade Local de Saúde do Norte Alentejano, E.P.E. (508094461)","Abushab Serviços Médicos, Lda (507436229)","11.844,00 €",14-05-2013,09-05-2013,91 dias,"Portugal, Portalegre, Portalegre","Artigo 24.º, n.º 1, alínea c) do Código dos Contratos Públicos",30-06-2013,"11.844,00 €",,,,Não aplicável.,Não aplicável.,
"Prestação de Serviços Médicos, na Especialidade de Ginecologia e Obstetrícia, na ULSNA, EPE (de Abril a Junho de 2013)",Ajuste Direto Regime Geral,Aquisição de serviços,"85100000-0, Serviços de saúde","Unidade Local de Saúde do Norte Alentejano, E.P.E. (508094461)","Policlinica Rainha Santa Isabel, Lda (503076031)","19.637,55 €",14-05-2013,09-05-2013,91 dias,"Portugal, Portalegre, Portalegre","Artigo 24.º, n.º 1, alínea c) do Código dos Contratos Públicos",30-06-2013,"19.637,55 €",,,,Não aplicável.,Não aplicável.,
"Prestação de Serviços Médicos, na Especialidade de Ginecologia e Obstetrícia, na ULSNA, EPE (de Abril a Junho)",Ajuste Direto Regime Geral,Aquisição de serviços,"85100000-0, Serviços de saúde","Unidade Local de Saúde do Norte Alentejano, E.P.E. (508094461)","Enrique Matallana, Lda (507839587)","12.821,94 €",14-05-2013,02-05-2013,91 dias,"Portugal, Portalegre, Elvas","Artigo 24.º, n.º 1, alínea c) do Código dos Contratos Públicos",30-06-2013,"12.821,94 €",,,,Não aplicável.,Não aplicável.,
"Prestação de Serviços Médicos, na Especialidade de Oftalmologia, na ULSNA, EPE (de Abril a Junho de 2013)",Ajuste Direto Regime Geral,Aquisição de serviços,"85100000-0, Serviços de saúde","Unidade Local de Saúde do Norte Alentejano, E.P.E. (508094461)","Martin e Sabugal Oftalmologistas, Lda. (507720547)","40.244,76 €",14-05-2013,06-05-2013,91 dias,"Portugal, Portalegre, Portalegre","Artigo 24.º, n.º 1, alínea c) do Código dos Contratos Públicos",30-06-2013,"40.244,76 €",,,,Não aplicável.,Não aplicável.,
