Objeto do Contrato,Tipo de Procedimento,Tipo(s) de Contrato,CPVs,Entidade(s) Adjudicante(s),Entidade(s) Adjudicatária(s),Preço Contratual,Data de Publicação,Data de Celebração do Contrato,Prazo de Execução,Local de Execução,Fundamentação,Data de Fecho do Contrato,Preço Total Efetivo,Causas das Alterações ao Prazo,Causas das Alterações ao Preço,Estado,N.º registo do Acordo Quadro,Descrição do Acordo Quadro,Procedimento Centralizado
AQUISIÇÃO DE CADEIRAS DE PODOLOGIA PARA VÁRIOS ACES,Concurso público,Aquisição de bens móveis,"33110000-4, Equipamento de imagiologia para uso médico, dentário e veterinário","Administração Regional de Saúde de Lisboa e Vale do Tejo, I. P. (503148776)","ALFRAPHAR - EQUIPAMENTOS E PRODUTOS FARMACÊUTICOS, LDA (504223895)","23.200,00 €",09-10-2015,29-09-2015,15 dias,"Portugal, Lisboa, Lisboa","Artigo 21.º, n.º 1, alínea b) do Código dos Contratos Públicos",,,,,,Não aplicável.,Não aplicável.,FALSE
AQUISIÇÃO DE MARQUESAS GINECOLÓGICAS PARA O ACES SINTRA,Ajuste Direto Regime Geral,Aquisição de bens móveis,"33192000-2, Mobiliário para fins médicos","Administração Regional de Saúde de Lisboa e Vale do Tejo, I. P. (503148776)","PARAMEDICA - EQUIPAMENTOS MÉDICOS, LDA (501393005)","4.185,00 €",09-10-2015,07-10-2015,30 dias,"Portugal, Lisboa, Lisboa","Artigo 20.º, n.º 1, alínea a) do Código dos Contratos Públicos",,,,,,Não aplicável.,Não aplicável.,FALSE
AQUISIÇÃO DE SERVIÇOS DE MANUTENÇÃO PREVENTIVA E EVOLUTIVA DA APLICAÇÃO SIGCM.,Ajuste Direto Regime Geral,Aquisição de serviços,"72267000-4, Serviços de manutenção e reparação de software","Administração Regional de Saúde de Lisboa e Vale do Tejo, I. P. (503148776)","GLINTT - HEALTHCARE SOLUTIONS, S.A. (502479418)","16.320,00 €",09-10-2015,23-09-2015,99 dias,"Portugal, Lisboa, Lisboa","Artigo 20.º, n.º 1, alínea a) do Código dos Contratos Públicos",,,,,,Não aplicável.,Não aplicável.,FALSE
SERVIÇOS DE MANUTENÇÃO EVOLUTIVA E CORRETIVA DO SOFTWARE MAXPRO- ANO 2015,Ajuste Direto Regime Geral,Aquisição de serviços,"72267000-4, Serviços de manutenção e reparação de software","Administração Regional de Saúde de Lisboa e Vale do Tejo, I. P. (503148776)",Sisqual - Empresa de Investigação e Desenvolvimento de Sistemas Informaticos Lda. (502772298),"16.255,94 €",09-10-2015,10-08-2015,365 dias,"Portugal, Lisboa, Lisboa","Artigo 24.º, n.º 1, alínea e) do Código dos Contratos Públicos",,,,,,Não aplicável.,Não aplicável.,FALSE
Aquisição de  Isoniazida 300 MG Comprimido.,Ajuste Direto Regime Geral,Aquisição de bens móveis,"33690000-3, Medicamentos vários","Administração Regional de Saúde de Lisboa e Vale do Tejo, I. P. (503148776)","Idis World Medicines, Ltd (GB700513982)","15.000,00 €",08-10-2015,08-10-2015,84 dias,"Portugal, Lisboa, Lisboa","Artigo 24.º, n.º 1, alínea e) do Código dos Contratos Públicos",,,,,,Não aplicável.,Não aplicável.,FALSE
Aquisição de  Reagentes para análise de campo.,Ajuste Direto Regime Geral,Aquisição de bens móveis,"33696000-5, Reagentes e meios de contraste","Administração Regional de Saúde de Lisboa e Vale do Tejo, I. P. (503148776)","Prominent Iberia, S.A. (ESA17225178)","2.297,96 €",07-10-2015,07-10-2015,92 dias,"Portugal, Lisboa, Lisboa","Artigo 24.º, n.º 1, alínea e) do Código dos Contratos Públicos",,,,,,Não aplicável.,Não aplicável.,FALSE
aquisição de  Estreptomicina 1 G Pó Sol. Inj IM IV,Ajuste Direto Regime Geral,Aquisição de bens móveis,"33690000-3, Medicamentos vários","Administração Regional de Saúde de Lisboa e Vale do Tejo, I. P. (503148776)","Dux Pharma - Unipessoal, Lda (510803679)","1.319,70 €",07-10-2015,07-10-2015,92 dias,"Portugal, Lisboa, Lisboa","Artigo 24.º, n.º 1, alínea e) do Código dos Contratos Públicos",,,,,,Não aplicável.,Não aplicável.,FALSE
CARROS P/TRANSPORTE MERCADORIAS ATÉ 80KG,Ajuste Direto Regime Geral,Aquisição de bens móveis,"34000000-7, Equipamento e produtos auxiliares de transporte","Administração Regional de Saúde de Lisboa e Vale do Tejo, I. P. (503148776)","ERGOAREA - MOBILIARIO ESCRITÓRIO, LDA (506705161)","153,98 €",07-10-2015,09-09-2015,5 dias,"Portugal, Lisboa, Loures","Artigo 20.º, n.º 1, alínea a) do Código dos Contratos Públicos",,,,,,Não aplicável.,Não aplicável.,FALSE
REPARAÇÃO DE PORTÃO ACESSO AO EDIFÍCIO TERRAÇOS DA PONTE,Ajuste Direto Regime Geral,Aquisição de serviços,"50000000-5, Serviços de reparação e manutenção","Administração Regional de Saúde de Lisboa e Vale do Tejo, I. P. (503148776)",PORTIGRADE - PORTAS E GRADES (502073381),"376,55 €",07-10-2015,28-08-2015,5 dias,"Portugal, Lisboa, Loures","Artigo 20.º, n.º 1, alínea a) do Código dos Contratos Públicos",,,,,,Não aplicável.,Não aplicável.,FALSE
Obras de reparação urgentes para as ET de Almada e Setúbal,Ajuste Direto Regime Geral,Empreitadas de obras públicas,"45113000-2, Obras no local","Administração Regional de Saúde de Lisboa e Vale do Tejo, I. P. (503148776)","Ramiro & Delgado - Construções Cívis e Obras Públicas, Lda (501301704)","440,00 €",07-10-2015,07-10-2015,5 dias,"Portugal, Setúbal, Almada","Artigo 19.º, alínea a) do Código dos Contratos Públicos",,,,,,Não aplicável.,Não aplicável.,FALSE
ALUGUER MÁQUINAS DE ÁGUA,Ajuste Direto Regime Geral,Locação de bens móveis,"41000000-9, Água captada e tratada","Administração Regional de Saúde de Lisboa e Vale do Tejo, I. P. (503148776)","PMS, SA (507441443)","2.534,40 €",07-10-2015,22-01-2015,5 dias,"Portugal, Lisboa, Loures","Artigo 20.º, n.º 1, alínea a) do Código dos Contratos Públicos",,,,,,Não aplicável.,Não aplicável.,FALSE
Aquisição da central do sistema automático de deteção de incêndios (SADI) para a Sede do Agrupamento de Sintra.,Ajuste Direto Regime Geral,Aquisição de bens móveis,"35000000-4, Equipamento de segurança, combate a incêndios, polícia e defesa","Administração Regional de Saúde de Lisboa e Vale do Tejo, I. P. (503148776)","Prestibel - Empresa de Segurança, SA (501326456)","1.450,01 €",06-10-2015,06-10-2015,30 dias,"Portugal, Lisboa, Sintra","Artigo 20.º, n.º 1, alínea a) do Código dos Contratos Públicos",,,,,,Não aplicável.,Não aplicável.,FALSE
Aquisição de reagentes para análise de campo,Ajuste Direto Regime Geral,Aquisição de bens móveis,"33696000-5, Reagentes e meios de contraste","Administração Regional de Saúde de Lisboa e Vale do Tejo, I. P. (503148776)","Hanna Instruments, Lda (502540141)","430,00 €",05-10-2015,05-10-2015,15 dias,"Portugal, Lisboa, Lisboa","Artigo 24.º, n.º 1, alínea e) do Código dos Contratos Públicos",,,,,,Não aplicável.,Não aplicável.,FALSE
Reparação Equipamentos Ar Condicionado,Ajuste Direto Regime Geral,Aquisição de serviços,"50000000-5, Serviços de reparação e manutenção","Administração Regional de Saúde de Lisboa e Vale do Tejo, I. P. (503148776)","ODICLIMA, LDA (502835230)","4.804,00 €",05-10-2015,10-08-2015,10 dias,"Portugal, Lisboa, Odivelas","Artigo 20.º, n.º 1, alínea a) do Código dos Contratos Públicos",,,,,,Não aplicável.,Não aplicável.,FALSE
"Aquisição de vacinas contra a febre tifoide 25MCG/0,5ML - V28",Ajuste Direto Regime Geral,Aquisição de bens móveis,"33651600-4, Vacinas","Administração Regional de Saúde de Lisboa e Vale do Tejo, I. P. (503148776)","Glaxosmithkline - Produtos Farmacêuticos, Lda (500139962)","33.210,00 €",01-10-2015,01-10-2015,91 dias,"Portugal, Lisboa, Lisboa",Artigo 258.º do Código dos Contratos Públicos,,,,,,Não aplicável.,Não aplicável.,FALSE
"Aquisição de fornecimento de energia elétrica para os serviços da dependência da ARSLVT, IP",Ajuste Direto Regime Geral,Aquisição de serviços,"65310000-9, Distribuição de electricidade","Administração Regional de Saúde de Lisboa e Vale do Tejo, I. P. (503148776)","EDP Comercial, SA (503504564)","634.875,51 €",01-10-2015,01-10-2015,275 dias,"Portugal, Setúbal<BR/>Portugal, Lisboa<BR/>Portugal, Santarém<BR/>Portugal, Leiria","Artigo 24.º, n.º 1, alínea e) do Código dos Contratos Públicos",,,,,,Não aplicável.,Não aplicável.,FALSE
"Obras de correção de várias patologias nos edifícios da ARSLVT, IP,., Av. 24 Julho, C.S. Samora Correia e Av. EUA, Nº 77",Ajuste Direto Regime Geral,Empreitadas de obras públicas,"45113000-2, Obras no local","Administração Regional de Saúde de Lisboa e Vale do Tejo, I. P. (503148776)","PRTANGLE - Engenharia e Serviços, Lda. (513103988)","4.610,00 €",01-10-2015,18-09-2015,10 dias,Portugal,"Artigo 19.º, alínea a) do Código dos Contratos Públicos",,,,,,Não aplicável.,Não aplicável.,FALSE
"Aquisição de peças para manutenção corretiva de ascensores da ARSLVT, IP., para o ano 2015",Ajuste Direto Regime Geral,Aquisição de bens móveis,"42419500-1, Peças para elevadores, guindastes de vagonetas ou escadas rolantes","Administração Regional de Saúde de Lisboa e Vale do Tejo, I. P. (503148776)","Grupnor - Grupo Português de Elevadores do Norte, Lda. (500959579)","49.201,11 €",01-10-2015,15-09-2015,107 dias,Portugal,"Artigo 24.º, n.º 1, alínea e) do Código dos Contratos Públicos",,,,,,Não aplicável.,Não aplicável.,FALSE
