Objeto do Contrato,Tipo de Procedimento,Tipo(s) de Contrato,CPVs,Entidade(s) Adjudicante(s),Entidade(s) Adjudicatária(s),Preço Contratual,Data de Publicação,Data de Celebração do Contrato,Prazo de Execução,Local de Execução,Fundamentação,Data de Fecho do Contrato,Preço Total Efetivo,Causas das Alterações ao Prazo,Causas das Alterações ao Preço,Estado,N.º registo do Acordo Quadro,Descrição do Acordo Quadro,Procedimento Centralizado
MATERIAL DE CONSUMO HOTELEIRO,Ajuste Direto Regime Geral,Aquisição de bens móveis,"39000000-2, Mobiliário (incl. de escritório), acessórios, aparelhos domésticos (excl. iluminação) e produtos de limpeza","Instituto Português de Oncologia de Coimbra Francisco Gentil, E. P. E. (506361438)","VISIPAPEL, PAPEL E CARTAO, LDA (502020733)","1.339,08 €",08-02-2016,29-12-2014,1095 dias,"Portugal, Coimbra, Coimbra","Artigo 20.º, n.º 1, alínea a) do Código dos Contratos Públicos",15-12-2017,"6.127,52 €",,fornecimento acima do valor previsto,,Não aplicável.,Não aplicável.,FALSE
MATERIAL DE CONSUMO HOTELEIRO,Ajuste Direto Regime Geral,Aquisição de bens móveis,"39000000-2, Mobiliário (incl. de escritório), acessórios, aparelhos domésticos (excl. iluminação) e produtos de limpeza","Instituto Português de Oncologia de Coimbra Francisco Gentil, E. P. E. (506361438)","MEILEX, LDA (501759441)","2.361,30 €",08-02-2016,29-12-2014,1095 dias,"Portugal, Coimbra, Coimbra","Artigo 20.º, n.º 1, alínea a) do Código dos Contratos Públicos",22-12-2017,"2.677,53 €",,fornecimento acima do valor previsto,,Não aplicável.,Não aplicável.,FALSE
MATERIAL DE CONSUMO HOTELEIRO,Ajuste Direto Regime Geral,Aquisição de bens móveis,"39000000-2, Mobiliário (incl. de escritório), acessórios, aparelhos domésticos (excl. iluminação) e produtos de limpeza","Instituto Português de Oncologia de Coimbra Francisco Gentil, E. P. E. (506361438)",MARIFISCO- COM. E SERVICOS UNIP.LDA (502292105),"9.285,24 €",08-02-2016,29-12-2014,1095 dias,"Portugal, Coimbra, Coimbra","Artigo 20.º, n.º 1, alínea a) do Código dos Contratos Públicos",21-12-2017,"4.957,86 €",,fornecimento ajustado ás necessidades reais,,Não aplicável.,Não aplicável.,FALSE
MATERIAL DE CONSUMO HOTELEIRO,Ajuste Direto Regime Geral,Aquisição de bens móveis,"39000000-2, Mobiliário (incl. de escritório), acessórios, aparelhos domésticos (excl. iluminação) e produtos de limpeza","Instituto Português de Oncologia de Coimbra Francisco Gentil, E. P. E. (506361438)","AJO-A.J.OLIVEIRA,LDA (502293748)","4.666,41 €",08-02-2016,29-12-2014,1095 dias,"Portugal, Coimbra, Coimbra","Artigo 20.º, n.º 1, alínea a) do Código dos Contratos Públicos",11-12-2017,"5.614,26 €",,fornecimento acima do valor previsto,,Não aplicável.,Não aplicável.,FALSE
MATERIAL DE CONSUMO HOTELEIRO,Ajuste Direto Regime Geral,Aquisição de bens móveis,"39000000-2, Mobiliário (incl. de escritório), acessórios, aparelhos domésticos (excl. iluminação) e produtos de limpeza","Instituto Português de Oncologia de Coimbra Francisco Gentil, E. P. E. (506361438)","CENTROQUIMICA, LDA (501863150)","5.146,41 €",08-02-2016,29-12-2014,1095 dias,"Portugal, Coimbra, Coimbra","Artigo 20.º, n.º 1, alínea a) do Código dos Contratos Públicos",21-12-2017,"4.907,95 €",,Fornecimento ajustado ás necessidades reais,,Não aplicável.,Não aplicável.,FALSE
LOUÇAS E TALHERES,Ajuste Direto Regime Geral,Aquisição de bens móveis,"39000000-2, Mobiliário (incl. de escritório), acessórios, aparelhos domésticos (excl. iluminação) e produtos de limpeza","Instituto Português de Oncologia de Coimbra Francisco Gentil, E. P. E. (506361438)","NOVOS IDEAIS DECORAÇÕES UNIPESSOAL, LDA (506382770)","5.511,27 €",08-02-2016,18-12-2014,1095 dias,"Portugal, Coimbra, Coimbra","Artigo 20.º, n.º 1, alínea a) do Código dos Contratos Públicos",13-12-2017,"3.187,27 €",,Fornecimento ajustado ás necessidades reais,,Não aplicável.,Não aplicável.,FALSE
AGENTE ESTERILIZANTE H2O2,Ajuste Direto Regime Geral,Aquisição de bens móveis,"39000000-2, Mobiliário (incl. de escritório), acessórios, aparelhos domésticos (excl. iluminação) e produtos de limpeza","Instituto Português de Oncologia de Coimbra Francisco Gentil, E. P. E. (506361438)",JOHNSON & JOHNSON (500153370),"46.285,60 €",08-02-2016,26-12-2014,365 dias,"Portugal, Coimbra, Coimbra","Artigo 24.º, n.º 1, alínea e) do Código dos Contratos Públicos",03-11-2015,"18.711,21 €",,diminuição das quantidades previstas,,Não aplicável.,Não aplicável.,FALSE
DETERGENTES HOSPITALARES,Ajuste Direto Regime Geral,Aquisição de bens móveis,"33000000-0, Equipamento médico, medicamentos e produtos para cuidados pessoais","Instituto Português de Oncologia de Coimbra Francisco Gentil, E. P. E. (506361438)","VEISIL - A. MENDES DA SILVA, LDA (502064080)","711,92 €",08-02-2016,18-12-2014,730 dias,"Portugal, Coimbra, Coimbra","Artigo 20.º, n.º 1, alínea a) do Código dos Contratos Públicos",14-12-2016,"940,84 €",,Fornecimento acima do valor previsto.,,Não aplicável.,Não aplicável.,FALSE
DETERGENTES HOSPITALARES,Ajuste Direto Regime Geral,Aquisição de bens móveis,"33000000-0, Equipamento médico, medicamentos e produtos para cuidados pessoais","Instituto Português de Oncologia de Coimbra Francisco Gentil, E. P. E. (506361438)","PAUL HARTMANN, LDA (502271728)","495,00 €",08-02-2016,18-12-2014,730 dias,"Portugal, Coimbra, Coimbra","Artigo 20.º, n.º 1, alínea a) do Código dos Contratos Públicos",08-09-2016,"247,50 €",,Fornecimento abaixo do valor previsto.,,Não aplicável.,Não aplicável.,FALSE
DETERGENTES HOSPITALARES,Ajuste Direto Regime Geral,Aquisição de bens móveis,"33000000-0, Equipamento médico, medicamentos e produtos para cuidados pessoais","Instituto Português de Oncologia de Coimbra Francisco Gentil, E. P. E. (506361438)","B.BRAUN MEDICAL,LDA (501506543)","579,80 €",08-02-2016,18-12-2014,730 dias,"Portugal, Coimbra, Coimbra","Artigo 20.º, n.º 1, alínea a) do Código dos Contratos Públicos",16-12-2016,"570,79 €",,Fornecimento abaixo do valor previsto.,,Não aplicável.,Não aplicável.,FALSE
DETERGENTES HOSPITALARES,Ajuste Direto Regime Geral,Aquisição de bens móveis,"33000000-0, Equipamento médico, medicamentos e produtos para cuidados pessoais","Instituto Português de Oncologia de Coimbra Francisco Gentil, E. P. E. (506361438)","FRANKLAB, LDA (506058654)","10.951,92 €",08-02-2016,16-01-2015,730 dias,"Portugal, Coimbra, Coimbra","Artigo 20.º, n.º 1, alínea a) do Código dos Contratos Públicos",16-12-2016,"7.654,14 €",,Fornecimento abaixo do valor previsto.,,Não aplicável.,Não aplicável.,FALSE
DETERGENTES HOSPITALARES,Ajuste Direto Regime Geral,Aquisição de bens móveis,"33000000-0, Equipamento médico, medicamentos e produtos para cuidados pessoais","Instituto Português de Oncologia de Coimbra Francisco Gentil, E. P. E. (506361438)","TITO & FIDALGOS, LDA (502629703)","618,96 €",08-02-2016,18-12-2014,730 dias,"Portugal, Coimbra, Coimbra","Artigo 20.º, n.º 1, alínea a) do Código dos Contratos Públicos",30-09-2016,"329,98 €",,Fornecimento abaixo do valor previsto.,,Não aplicável.,Não aplicável.,FALSE
DETERGENTES HOSPITALARES,Ajuste Direto Regime Geral,Aquisição de bens móveis,"33000000-0, Equipamento médico, medicamentos e produtos para cuidados pessoais","Instituto Português de Oncologia de Coimbra Francisco Gentil, E. P. E. (506361438)","LAB.INIBSA, SA (500139571)","492,00 €",08-02-2016,18-12-2014,730 dias,"Portugal, Coimbra, Coimbra","Artigo 20.º, n.º 1, alínea a) do Código dos Contratos Públicos",30-11-2016,"480,00 €",,Fornecimento abaixo do valor previsto.,,Não aplicável.,Não aplicável.,FALSE
DETERGENTES HOSPITALARES,Ajuste Direto Regime Geral,Aquisição de bens móveis,"33000000-0, Equipamento médico, medicamentos e produtos para cuidados pessoais","Instituto Português de Oncologia de Coimbra Francisco Gentil, E. P. E. (506361438)","OLYMPUS IBERIA, S.A.U.  SUCURSAL EM PORTUGAL (980474710)","43.936,40 €",08-02-2016,16-01-2015,730 dias,"Portugal, Coimbra, Coimbra","Artigo 20.º, n.º 1, alínea a) do Código dos Contratos Públicos",14-12-2016,"25.408,19 €",,Fornecimento abaixo do valor previsto.,,Não aplicável.,Não aplicável.,FALSE
DETERGENTES GERAIS,Ajuste Direto Regime Geral,Aquisição de bens móveis,"39000000-2, Mobiliário (incl. de escritório), acessórios, aparelhos domésticos (excl. iluminação) e produtos de limpeza","Instituto Português de Oncologia de Coimbra Francisco Gentil, E. P. E. (506361438)",JOHNSON & JOHNSON (500153370),"5.985,00 €",05-02-2016,29-12-2014,1095 dias,"Portugal, Coimbra, Coimbra","Artigo 20.º, n.º 1, alínea a) do Código dos Contratos Públicos",11-12-2017,"4.728,00 €",,fornecimento ajustado ás necessidades reais,,Não aplicável.,Não aplicável.,FALSE
DETERGENTES GERAIS,Ajuste Direto Regime Geral,Aquisição de bens móveis,"39000000-2, Mobiliário (incl. de escritório), acessórios, aparelhos domésticos (excl. iluminação) e produtos de limpeza","Instituto Português de Oncologia de Coimbra Francisco Gentil, E. P. E. (506361438)","TITO & FIDALGOS, LDA (502629703)","188,70 €",05-02-2016,29-12-2014,1095 dias,"Portugal, Coimbra, Coimbra","Artigo 20.º, n.º 1, alínea a) do Código dos Contratos Públicos",19-08-2016,"90,26 €",,fornecimento ajustado ás necessidades reais,,Não aplicável.,Não aplicável.,FALSE
DETERGENTES GERAIS,Ajuste Direto Regime Geral,Aquisição de bens móveis,"39000000-2, Mobiliário (incl. de escritório), acessórios, aparelhos domésticos (excl. iluminação) e produtos de limpeza","Instituto Português de Oncologia de Coimbra Francisco Gentil, E. P. E. (506361438)","AJO-A.J.OLIVEIRA,LDA (502293748)","8.584,50 €",05-02-2016,29-12-2014,1095 dias,"Portugal, Coimbra, Coimbra","Artigo 20.º, n.º 1, alínea a) do Código dos Contratos Públicos",11-12-2017,"7.350,82 €",,fornecimento ajustado ás necessidades reais,,Não aplicável.,Não aplicável.,FALSE
DETERGENTES GERAIS,Ajuste Direto Regime Geral,Aquisição de bens móveis,"39000000-2, Mobiliário (incl. de escritório), acessórios, aparelhos domésticos (excl. iluminação) e produtos de limpeza","Instituto Português de Oncologia de Coimbra Francisco Gentil, E. P. E. (506361438)","CENTROQUIMICA, LDA (501863150)","42.439,92 €",05-02-2016,16-01-2015,1095 dias,"Portugal, Coimbra, Coimbra","Artigo 20.º, n.º 1, alínea a) do Código dos Contratos Públicos",21-12-2017,"43.692,44 €",,fornecimento acima do valor previsto,,Não aplicável.,Não aplicável.,FALSE
DETERGENTES GERAIS,Ajuste Direto Regime Geral,Aquisição de bens móveis,"39000000-2, Mobiliário (incl. de escritório), acessórios, aparelhos domésticos (excl. iluminação) e produtos de limpeza","Instituto Português de Oncologia de Coimbra Francisco Gentil, E. P. E. (506361438)",HIGIMARTO (504512218),"6.195,00 €",05-02-2016,29-12-2014,1095 dias,"Portugal, Coimbra, Coimbra","Artigo 20.º, n.º 1, alínea a) do Código dos Contratos Públicos",06-11-2017,"7.522,51 €",,fornecimento ajustado ás necessidades reais,,Não aplicável.,Não aplicável.,FALSE
CAIXAS SUC,Ajuste Direto Regime Geral,Aquisição de bens móveis,"30000000-9, Máquinas, equipamento e material de escritório e de informática, excepto mobiliário e pacotes de programas (software)","Instituto Português de Oncologia de Coimbra Francisco Gentil, E. P. E. (506361438)","MOVELOBO - MOBILIARIO E EXPOSITORES, LDA (502786400)","1.650,00 €",05-02-2016,15-12-2014,1095 dias,"Portugal, Coimbra, Coimbra","Artigo 20.º, n.º 1, alínea a) do Código dos Contratos Públicos",02-11-2017,"599,23 €",,Fornecimento ajustado às necessidades reais,,Não aplicável.,Não aplicável.,FALSE
RADIOFARMACOS PARA TERAPEUTICA,Ajuste Direto Regime Geral,Aquisição de bens móveis,"33690000-3, Medicamentos vários","Instituto Português de Oncologia de Coimbra Francisco Gentil, E. P. E. (506361438)","SATIS- UNIPESSOAL, LDA (500098140)","56.371,00 €",02-02-2016,04-01-2016,363 dias,"Portugal, Coimbra, Coimbra","Artigo 20.º, n.º 1, alínea a) do Código dos Contratos Públicos","","",,"",,Não aplicável.,Não aplicável.,FALSE
GERADORES DE 99Mo-99mTc,Ajuste Direto Regime Geral,Aquisição de bens móveis,"33690000-3, Medicamentos vários","Instituto Português de Oncologia de Coimbra Francisco Gentil, E. P. E. (506361438)",ADVANCED ACCELARATOR APPLICATIONS PORT UNIP LDA (509917267),"53.999,58 €",02-02-2016,06-01-2016,361 dias,"Portugal, Coimbra, Coimbra","Artigo 20.º, n.º 1, alínea a) do Código dos Contratos Públicos","","",,"",,Não aplicável.,Não aplicável.,FALSE
Reagentes para o Serviço de Patologia Molecular,Ajuste Direto Regime Geral,Aquisição de bens móveis,"33000000-0, Equipamento médico, medicamentos e produtos para cuidados pessoais","Instituto Português de Oncologia de Coimbra Francisco Gentil, E. P. E. (506361438)","BIOTECNOMICA UNIPESSOAL, LDA. (509631789)","69,37 €",01-02-2016,04-01-2016,360 dias,"Portugal, Coimbra, Coimbra","Artigo 20.º, n.º 1, alínea a) do Código dos Contratos Públicos",22-03-2016,"38,00 €",,diminuição das quantidades previstas,,Não aplicável.,Não aplicável.,FALSE
Reagentes para o Serviço de Patologia Molecular,Ajuste Direto Regime Geral,Aquisição de bens móveis,"33000000-0, Equipamento médico, medicamentos e produtos para cuidados pessoais","Instituto Português de Oncologia de Coimbra Francisco Gentil, E. P. E. (506361438)",MENARINI - DIAGNOSTICS (502610069),"4.250,00 €",01-02-2016,04-01-2016,360 dias,"Portugal, Coimbra, Coimbra","Artigo 20.º, n.º 1, alínea a) do Código dos Contratos Públicos",15-12-2016,"4.250,00 €",,"",,Não aplicável.,Não aplicável.,FALSE
Reagentes para o Serviço de Patologia Molecular,Ajuste Direto Regime Geral,Aquisição de bens móveis,"33000000-0, Equipamento médico, medicamentos e produtos para cuidados pessoais","Instituto Português de Oncologia de Coimbra Francisco Gentil, E. P. E. (506361438)","FISHER SCIENTIFIC, LDA (506429210)","3.304,67 €",01-02-2016,04-01-2016,360 dias,"Portugal, Coimbra, Coimbra","Artigo 20.º, n.º 1, alínea a) do Código dos Contratos Públicos",27-04-2016,"759,20 €",,diminuição das quantidades previstas,,Não aplicável.,Não aplicável.,FALSE
Reagentes para o Serviço de Patologia Molecular,Ajuste Direto Regime Geral,Aquisição de bens móveis,"33000000-0, Equipamento médico, medicamentos e produtos para cuidados pessoais","Instituto Português de Oncologia de Coimbra Francisco Gentil, E. P. E. (506361438)","NZYTECH, LDA. (508432901)","3.514,00 €",01-02-2016,04-01-2016,360 dias,"Portugal, Coimbra, Coimbra","Artigo 20.º, n.º 1, alínea a) do Código dos Contratos Públicos",07-09-2016,"1.059,85 €",,diminuição das quantidades previstas,,Não aplicável.,Não aplicável.,FALSE
Reagentes para o Serviço de Patologia Molecular,Ajuste Direto Regime Geral,Aquisição de bens móveis,"33000000-0, Equipamento médico, medicamentos e produtos para cuidados pessoais","Instituto Português de Oncologia de Coimbra Francisco Gentil, E. P. E. (506361438)",BAPTISTA MARQUES DIAGN. REAG. LDA (501439110),"1.510,00 €",01-02-2016,04-01-2016,360 dias,"Portugal, Coimbra, Coimbra","Artigo 20.º, n.º 1, alínea a) do Código dos Contratos Públicos",07-03-2016,"250,00 €",,diminuição das quantidades previstas,,Não aplicável.,Não aplicável.,FALSE
Reagentes para o Serviço de Patologia Molecular,Ajuste Direto Regime Geral,Aquisição de bens móveis,"33000000-0, Equipamento médico, medicamentos e produtos para cuidados pessoais","Instituto Português de Oncologia de Coimbra Francisco Gentil, E. P. E. (506361438)",BIO-RAD LABORATORIES LDA (501301321),"731,00 €",01-02-2016,04-01-2016,360 dias,"Portugal, Coimbra, Coimbra","Artigo 20.º, n.º 1, alínea a) do Código dos Contratos Públicos",31-12-2016,"",,diminuição das quantidades previstas,,Não aplicável.,Não aplicável.,FALSE
Reagentes para o Serviço de Patologia Molecular,Ajuste Direto Regime Geral,Aquisição de bens móveis,"33000000-0, Equipamento médico, medicamentos e produtos para cuidados pessoais","Instituto Português de Oncologia de Coimbra Francisco Gentil, E. P. E. (506361438)",LABCLINICS (999999999),"464,72 €",01-02-2016,04-01-2016,360 dias,"Portugal, Coimbra, Coimbra","Artigo 20.º, n.º 1, alínea a) do Código dos Contratos Públicos",31-12-2016,"",,diminuição das quantidades previstas,,Não aplicável.,Não aplicável.,FALSE
Reagentes para o Serviço de Patologia Molecular,Ajuste Direto Regime Geral,Aquisição de bens móveis,"33000000-0, Equipamento médico, medicamentos e produtos para cuidados pessoais","Instituto Português de Oncologia de Coimbra Francisco Gentil, E. P. E. (506361438)",ALFAGENE (503387398),"1.309,16 €",01-02-2016,04-01-2016,360 dias,"Portugal, Coimbra, Coimbra","Artigo 20.º, n.º 1, alínea a) do Código dos Contratos Públicos",31-12-2016,"",,diminuição das quantidades previstas,,Não aplicável.,Não aplicável.,FALSE
Reagentes para o Serviço de Patologia Molecular,Ajuste Direto Regime Geral,Aquisição de bens móveis,"33000000-0, Equipamento médico, medicamentos e produtos para cuidados pessoais","Instituto Português de Oncologia de Coimbra Francisco Gentil, E. P. E. (506361438)",FRILABO  LDA (507958861),"3.650,23 €",01-02-2016,04-01-2016,360 dias,"Portugal, Coimbra, Coimbra","Artigo 20.º, n.º 1, alínea a) do Código dos Contratos Públicos",30-12-2016,"1.809,31 €",,diminuição das quantidades previstas,,Não aplicável.,Não aplicável.,FALSE
Reagentes para o Serviço de Patologia Molecular,Ajuste Direto Regime Geral,Aquisição de bens móveis,"33000000-0, Equipamento médico, medicamentos e produtos para cuidados pessoais","Instituto Português de Oncologia de Coimbra Francisco Gentil, E. P. E. (506361438)",ENZIFARMA SA (503636975),"3.170,20 €",01-02-2016,04-01-2016,360 dias,"Portugal, Coimbra, Coimbra","Artigo 20.º, n.º 1, alínea a) do Código dos Contratos Públicos",31-12-2016,"",,diminuição das quantidades previstas,,Não aplicável.,Não aplicável.,FALSE
Reagentes para o Serviço de Patologia Molecular,Ajuste Direto Regime Geral,Aquisição de bens móveis,"33000000-0, Equipamento médico, medicamentos e produtos para cuidados pessoais","Instituto Português de Oncologia de Coimbra Francisco Gentil, E. P. E. (506361438)","BIOGROOVE UNIPESSOAL, LDA. (508423953)","13.662,00 €",01-02-2016,13-01-2016,360 dias,"Portugal, Coimbra, Coimbra","Artigo 20.º, n.º 1, alínea a) do Código dos Contratos Públicos",15-12-2016,"12.420,00 €",,diminuição das quantidades previstas,,Não aplicável.,Não aplicável.,FALSE
Reagentes para o Serviço de Patologia Molecular,Ajuste Direto Regime Geral,Aquisição de bens móveis,"33000000-0, Equipamento médico, medicamentos e produtos para cuidados pessoais","Instituto Português de Oncologia de Coimbra Francisco Gentil, E. P. E. (506361438)","BIOPORTUGAL-QUIMICO FARMACEUTICA, LDª. (502380543)","2.868,00 €",01-02-2016,04-01-2016,360 dias,"Portugal, Coimbra, Coimbra","Artigo 20.º, n.º 1, alínea a) do Código dos Contratos Públicos",30-12-2016,"234,00 €",,diminuição das quantidades previstas,,Não aplicável.,Não aplicável.,FALSE
Reagentes para o Serviço de Patologia Molecular,Ajuste Direto Regime Geral,Aquisição de bens móveis,"33000000-0, Equipamento médico, medicamentos e produtos para cuidados pessoais","Instituto Português de Oncologia de Coimbra Francisco Gentil, E. P. E. (506361438)",VWR INTERNACIONAL - MAT. DE LABORATORIO (503842770),"4.634,03 €",01-02-2016,04-01-2016,360 dias,"Portugal, Coimbra, Coimbra","Artigo 20.º, n.º 1, alínea a) do Código dos Contratos Públicos",30-12-2016,"868,66 €",,diminuição das quantidades previstas,,Não aplicável.,Não aplicável.,FALSE
Reagentes para o Serviço de Patologia Molecular,Ajuste Direto Regime Geral,Aquisição de bens móveis,"33000000-0, Equipamento médico, medicamentos e produtos para cuidados pessoais","Instituto Português de Oncologia de Coimbra Francisco Gentil, E. P. E. (506361438)","ROCHE SIST.DIAG., SOC. UNIP. LDA (504282921)","30.600,00 €",01-02-2016,20-01-2016,346 dias,"Portugal, Coimbra, Coimbra","Artigo 20.º, n.º 1, alínea a) do Código dos Contratos Públicos",25-10-2016,"16.560,00 €",,diminuição das quantidades previstas,,Não aplicável.,Não aplicável.,FALSE
Reagentes para o Serviço de Patologia Molecular,Ajuste Direto Regime Geral,Aquisição de bens móveis,"33000000-0, Equipamento médico, medicamentos e produtos para cuidados pessoais","Instituto Português de Oncologia de Coimbra Francisco Gentil, E. P. E. (506361438)","REAGENTE 5 - QUIMICA E ELECTRONICA, LDA. (501194053)","300,00 €",01-02-2016,04-01-2016,365 dias,"Portugal, Coimbra, Coimbra","Artigo 20.º, n.º 1, alínea a) do Código dos Contratos Públicos",13-05-2016,"60,00 €",,diminuição das quantidades previstas,,Não aplicável.,Não aplicável.,FALSE
AQUISIÇÃO DE REAGENTES PARA O SERVIÇO DE IMUNOHEMOTERAPIA,Ajuste Direto Regime Geral,Aquisição de bens móveis,"33696500-0, Reagentes de laboratório","Instituto Português de Oncologia de Coimbra Francisco Gentil, E. P. E. (506361438)","QUILABAN - QUIMICA LABORATORIAL ANALITICA, S.A. (500399670)","2.521,81 €",01-02-2016,22-12-2015,365 dias,"Portugal, Coimbra, Coimbra","Artigo 20.º, n.º 1, alínea a) do Código dos Contratos Públicos",29-11-2016,"2.599,83 €",,fornecimento acima do valor previsto,,Não aplicável.,Não aplicável.,FALSE
AQUISIÇÃO DE REAGENTES PARA O SERVIÇO DE IMUNOHEMOTERAPIA,Ajuste Direto Regime Geral,Aquisição de bens móveis,"33696500-0, Reagentes de laboratório","Instituto Português de Oncologia de Coimbra Francisco Gentil, E. P. E. (506361438)","IMMUCOR (PORTUGAL) DIAG.MEDICOS, LDA (503007358)","9.518,16 €",01-02-2016,22-12-2015,365 dias,"Portugal, Coimbra, Coimbra","Artigo 20.º, n.º 1, alínea a) do Código dos Contratos Públicos",22-12-2016,"9.450,75 €",,fornecimento abaixo do valor previsto,,Não aplicável.,Não aplicável.,FALSE
AQUISIÇÃO DE REAGENTES PARA O SERVIÇO DE IMUNOHEMOTERAPIA,Ajuste Direto Regime Geral,Aquisição de bens móveis,"33696500-0, Reagentes de laboratório","Instituto Português de Oncologia de Coimbra Francisco Gentil, E. P. E. (506361438)",BIO-RAD LABORATORIES LDA (501301321),"26.598,80 €",01-02-2016,04-01-2016,365 dias,"Portugal, Coimbra, Coimbra","Artigo 20.º, n.º 1, alínea a) do Código dos Contratos Públicos",15-12-2016,"30.392,87 €",,fornecimento acima do valor previsto,,Não aplicável.,Não aplicável.,FALSE
KIT IDENTIFICAÇÃO PAPILLOCHECK - HPV,Ajuste Direto Regime Geral,Aquisição de bens móveis,"33696000-5, Reagentes e meios de contraste","Instituto Português de Oncologia de Coimbra Francisco Gentil, E. P. E. (506361438)",SPECULUM - ARTIGOS MEDICOS (502996323),"19.602,00 €",01-02-2016,19-01-2016,348 dias,"Portugal, Coimbra, Coimbra","Artigo 24.º, n.º 1, alínea e) do Código dos Contratos Públicos",15-12-2016,"5.880,00 €",,Diminuição das necessidades.,,Não aplicável.,Não aplicável.,FALSE
MED. EXCLUSIVO ROCHE (RITUXIMAB 120 MG SC),Ajuste Direto Regime Geral,Aquisição de bens móveis,"33600000-6, Produtos farmacêuticos","Instituto Português de Oncologia de Coimbra Francisco Gentil, E. P. E. (506361438)","ROCHE FARMACEUTICA QUIMICA, LDA (500233810)","147.776,00 €",01-02-2016,22-01-2016,345 dias,"Portugal, Coimbra, Coimbra","Artigo 24.º, n.º 1, alínea e) do Código dos Contratos Públicos","","",,"",,Não aplicável.,Não aplicável.,FALSE
AQUISIÇÃO DE PESCADO DURANTE O QUARTO TRIMESTRE,Ajuste Direto Regime Geral,Aquisição de bens móveis,"15000000-8, Produtos alimentares, bebidas, tabaco e produtos afins","Instituto Português de Oncologia de Coimbra Francisco Gentil, E. P. E. (506361438)","FRIJOBEL - INDUSTRIA COM.ALIMENTAR, LDA (501957855)","30,20 €",01-02-2016,19-09-2014,90 dias,"Portugal, Coimbra, Coimbra","Artigo 20.º, n.º 1, alínea a) do Código dos Contratos Públicos",30-12-2015,"",,diminuiçao das quantidades,,Não aplicável.,Não aplicável.,FALSE
AQUISIÇÃO DE PESCADO DURANTE O QUARTO TRIMESTRE,Ajuste Direto Regime Geral,Aquisição de bens móveis,"15000000-8, Produtos alimentares, bebidas, tabaco e produtos afins","Instituto Português de Oncologia de Coimbra Francisco Gentil, E. P. E. (506361438)","LITOFISH, LDA (507825470)","3.197,60 €",01-02-2016,19-09-2014,90 dias,"Portugal, Coimbra, Coimbra","Artigo 20.º, n.º 1, alínea a) do Código dos Contratos Públicos",13-12-2014,"4.057,66 €",,necessidade do aumento das quantidades consumidas em virtude do número de doentes,,Não aplicável.,Não aplicável.,FALSE
AQUISIÇÃO DE PESCADO DURANTE O QUARTO TRIMESTRE,Ajuste Direto Regime Geral,Aquisição de bens móveis,"15000000-8, Produtos alimentares, bebidas, tabaco e produtos afins","Instituto Português de Oncologia de Coimbra Francisco Gentil, E. P. E. (506361438)","Deltagel, SA (505477882)","5.611,65 €",01-02-2016,19-09-2014,90 dias,"Portugal, Coimbra, Coimbra","Artigo 20.º, n.º 1, alínea a) do Código dos Contratos Públicos",30-12-2014,"6.114,52 €",,necessidade do aumento das quantidades consumidas em virtude do número de doentes,,Não aplicável.,Não aplicável.,FALSE
