Objeto do Contrato,Tipo de Procedimento,Tipo(s) de Contrato,CPVs,Entidade(s) Adjudicante(s),Entidade(s) Adjudicatária(s),Preço Contratual,Data de Publicação,Data de Celebração do Contrato,Prazo de Execução,Local de Execução,Fundamentação,Data de Fecho do Contrato,Preço Total Efetivo,Causas das Alterações ao Prazo,Causas das Alterações ao Preço,Estado,N.º registo do Acordo Quadro,Descrição do Acordo Quadro,Procedimento Centralizado
Monitorização das parcerias público-privadas,Ajuste Direto Regime Geral,Aquisição de serviços,"73000000-2, Serviços de investigação e desenvolvimento e serviços de consultoria conexos","Administração Central do Sistema de Saúde, I.P. (508188423)",Faculdade de Economia da Universidade do Porto (501413197),"34.666,67 €",19-06-2013,21-05-2013,365 dias,"Portugal, Lisboa, Lisboa","Artigo 20.º, n.º 1, alínea a) do Código dos Contratos Públicos",31-12-2013,"34.666,67 €",,,,Não aplicável.,Não aplicável.,
Aquisição de serviços para realização de avaliação sobre o impato das taxas moderadoras na utilização de serviços de saúde,Ajuste Direto Regime Geral,Aquisição de serviços,"73000000-2, Serviços de investigação e desenvolvimento e serviços de consultoria conexos","Administração Central do Sistema de Saúde, I.P. (508188423)",Nova School of Business and Economics (UNL) (506030636),"33.670,00 €",19-06-2013,07-05-2013,120 dias,"Portugal, Lisboa, Lisboa","Artigo 20.º, n.º 1, alínea a) do Código dos Contratos Públicos",07-09-2013,"33.670,00 €",,,,Não aplicável.,Não aplicável.,
"Aquisição de serviços para cálculos de limiares de exceção, custos e pesos relativos portugueses por GDH,AP27 e APR27",Ajuste Direto Regime Geral,Aquisição de serviços,"72000000-5, Serviços de TI: consultoria, desenvolvimento de software, Internet e apoio","Administração Central do Sistema de Saúde, I.P. (508188423)","3M España, S.A. (A28078020)","66.100,00 €",19-06-2013,10-04-2013,180 dias,"Portugal, Lisboa, Lisboa","Artigo 20.º, n.º 1, alínea a) do Código dos Contratos Públicos",09-10-2013,"66.100,00 €",,,,Não aplicável.,Não aplicável.,
"Aquisição de serviços para análise de procedimentos e organização dos departamentos de gestão e planeamento de recursos humanos na saúde e da gestão da rede de serviços e recursos em saúde e respetivos núcleos funcionais da ACSS, I.P.",Ajuste Direto Regime Geral,Aquisição de serviços,"79400000-8, Serviços de consultoria em matéria comercial e de gestão e serviços conexos","ACSS-Administração Central do Sistema de Saúde,IP (508188423)","Deloitte Consultores, S.A. (502310090)","29.950,00 €",18-06-2013,04-06-2013,30 dias,"Portugal, Lisboa, Lisboa","Artigo 20.º, n.º 1, alínea a) do Código dos Contratos Públicos",18-07-2013,"29.950,00 €",,,,Não aplicável.,Não aplicável.,
