Objeto do Contrato,Tipo de Procedimento,Tipo(s) de Contrato,CPVs,Entidade(s) Adjudicante(s),Entidade(s) Adjudicatária(s),Preço Contratual,Data de Publicação,Data de Celebração do Contrato,Prazo de Execução,Local de Execução,Fundamentação,Data de Fecho do Contrato,Preço Total Efetivo,Causas das Alterações ao Prazo,Causas das Alterações ao Preço,Estado,N.º registo do Acordo Quadro,Descrição do Acordo Quadro,Procedimento Centralizado
Pensos oftalmicos,Ao abrigo de acordo-quadro (art.º 258.º),Aquisição de bens móveis,"33000000-0, Equipamento médico, medicamentos e produtos para cuidados pessoais","Centro Hospitalar Barreiro Montijo, E. P. E. (509186998)","PAUL HARTMANN, LDA. (502271728)","162,50 €",11-09-2015,10-04-2014,30 dias,"Portugal, Setúbal, Barreiro","Artigo 20.º, n.º 1, alínea a) do Código dos Contratos Públicos",10-04-2014,"113,75 €","",Diminuição de consumos,,534953,"CONCURSO PÚBLICO PARA A CELEBRAÇÃO DE CONTRATOS PÚBLICOS DE APROVISIONAMENTO PARA A ÁREA DA SAÚDE, COM VISTA AO FORNECIMENTO DE MATERIAL DE PENSO TRADICIONAL/CLASSICO - PARTE 1 - ÀS INSTITUIÇÕES E SERVIÇOS DO SERVIÇO NACIONAL DE SAÚDE  ",FALSE
Mascaras cirúrgicas com viseira,Ao abrigo de acordo-quadro (art.º 258.º),Aquisição de bens móveis,"33000000-0, Equipamento médico, medicamentos e produtos para cuidados pessoais","Centro Hospitalar Barreiro Montijo, E. P. E. (509186998)","BASTOS VIEGAS, S.A. (500042772)","414,00 €",11-09-2015,02-04-2014,30 dias,"Portugal, Setúbal, Barreiro","Artigo 20.º, n.º 1, alínea a) do Código dos Contratos Públicos",09-04-2014,"414,00 €","","",,451780,CP 2012/24 - MATERAIL DISPOSABLE DE BLOCO OPERATORIO,FALSE
Suturas alta viscosidade,Ao abrigo de acordo-quadro (art.º 258.º),Aquisição de bens móveis,"33000000-0, Equipamento médico, medicamentos e produtos para cuidados pessoais","Centro Hospitalar Barreiro Montijo, E. P. E. (509186998)","SMITH & NEPHEW - PROD. FARMACEUTICOS, LDA. (503552461)","55,00 €",11-09-2015,11-03-2014,30 dias,"Portugal, Setúbal, Barreiro","Artigo 20.º, n.º 1, alínea a) do Código dos Contratos Públicos",11-03-2014,"55,00 €","","",,534953,"CONCURSO PÚBLICO PARA A CELEBRAÇÃO DE CONTRATOS PÚBLICOS DE APROVISIONAMENTO PARA A ÁREA DA SAÚDE, COM VISTA AO FORNECIMENTO DE MATERIAL DE PENSO TRADICIONAL/CLASSICO - PARTE 1 - ÀS INSTITUIÇÕES E SERVIÇOS DO SERVIÇO NACIONAL DE SAÚDE  ",FALSE
Seringas 3 peças 50ml,Ao abrigo de acordo-quadro (art.º 258.º),Aquisição de bens móveis,"33000000-0, Equipamento médico, medicamentos e produtos para cuidados pessoais","Centro Hospitalar Barreiro Montijo, E. P. E. (509186998)","B. BRAUN MEDICAL, LDA (501506543)","71,96 €",11-09-2015,05-03-2014,365 dias,"Portugal, Setúbal, Barreiro","Artigo 20.º, n.º 1, alínea a) do Código dos Contratos Públicos",05-03-2014,"71,96 €","","",,448705,"CONCURSO PÚBLICO PARA A CELEBRAÇÃO DE CONTRATOS PÚBLICOS DE APROVISIONAMENTO PARA A ÁREA DA SAÚDE, COM VISTA AO FORNECIMENTO DE SERINGAS, AGULHAS, CONTENTORES E SISTEMAS FECHADOS DE COLHEITA,  ÀS INSTITUIÇÕES E SERVIÇOS DO SERVIÇO NACIONAL DE SAÚDE",FALSE
Luvas cirúrgicas sem latex,Ao abrigo de acordo-quadro (art.º 258.º),Aquisição de bens móveis,"33000000-0, Equipamento médico, medicamentos e produtos para cuidados pessoais","Centro Hospitalar Barreiro Montijo, E. P. E. (509186998)",PERGUT PORTUGAL (501799729),"474,00 €",11-09-2015,06-03-2014,365 dias,"Portugal, Setúbal, Barreiro","Artigo 20.º, n.º 1, alínea a) do Código dos Contratos Públicos",06-03-2014,"474,00 €","","",,544071,"CONCURSO PÚBLICO PARA A CELEBRAÇÃO DE CONTRATOS PÚBLICOS DE APROVISIONAMENTO PARA A ÁREA DA SAÚDE, COM VISTA AO FORNECIMENTO DE LUVAS PARA USO MÉDICO, ÀS INSTITUIÇÕES E SERVIÇOS DO SERVIÇO NACIONAL DE SAÚDE",FALSE
Seringas 3 peças,Ao abrigo de acordo-quadro (art.º 258.º),Aquisição de bens móveis,"33000000-0, Equipamento médico, medicamentos e produtos para cuidados pessoais","Centro Hospitalar Barreiro Montijo, E. P. E. (509186998)",PERGUT PORTUGAL (501799729),"299,99 €",11-09-2015,20-02-2014,365 dias,"Portugal, Setúbal, Barreiro","Artigo 20.º, n.º 1, alínea a) do Código dos Contratos Públicos",20-02-2014,"49,00 €","",Incumprimento nas entregas,,448705,"CONCURSO PÚBLICO PARA A CELEBRAÇÃO DE CONTRATOS PÚBLICOS DE APROVISIONAMENTO PARA A ÁREA DA SAÚDE, COM VISTA AO FORNECIMENTO DE SERINGAS, AGULHAS, CONTENTORES E SISTEMAS FECHADOS DE COLHEITA,  ÀS INSTITUIÇÕES E SERVIÇOS DO SERVIÇO NACIONAL DE SAÚDE",FALSE
Mascaras,Ao abrigo de acordo-quadro (art.º 258.º),Aquisição de bens móveis,"33000000-0, Equipamento médico, medicamentos e produtos para cuidados pessoais","Centro Hospitalar Barreiro Montijo, E. P. E. (509186998)","BASTOS VIEGAS, S.A. (500042772)","207,00 €",11-09-2015,19-02-2014,365 dias,"Portugal, Setúbal, Barreiro","Artigo 20.º, n.º 1, alínea a) do Código dos Contratos Públicos",19-02-2014,"207,00 €","","",,451780,CP 2012/24 - MATERAIL DISPOSABLE DE BLOCO OPERATORIO,FALSE
Suturas cutaneas,Ao abrigo de acordo-quadro (art.º 258.º),Aquisição de bens móveis,"33000000-0, Equipamento médico, medicamentos e produtos para cuidados pessoais","Centro Hospitalar Barreiro Montijo, E. P. E. (509186998)","SMITH & NEPHEW - PROD. FARMACEUTICOS, LDA.503552461 (503552461)","440,00 €",11-09-2015,07-02-2014,365 dias,"Portugal, Setúbal, Barreiro","Artigo 20.º, n.º 1, alínea a) do Código dos Contratos Públicos",07-02-2014,"440,00 €","","",,534953,"CONCURSO PÚBLICO PARA A CELEBRAÇÃO DE CONTRATOS PÚBLICOS DE APROVISIONAMENTO PARA A ÁREA DA SAÚDE, COM VISTA AO FORNECIMENTO DE MATERIAL DE PENSO TRADICIONAL/CLASSICO - PARTE 1 - ÀS INSTITUIÇÕES E SERVIÇOS DO SERVIÇO NACIONAL DE SAÚDE  ",FALSE
Fraldas de adulto,Ao abrigo de acordo-quadro (art.º 258.º),Aquisição de bens móveis,"33000000-0, Equipamento médico, medicamentos e produtos para cuidados pessoais","Centro Hospitalar Barreiro Montijo, E. P. E. (509186998)","ROCHA NEVES, LDA (500233691)","4.446,00 €",11-09-2015,16-01-2014,365 dias,"Portugal, Setúbal, Barreiro","Artigo 20.º, n.º 1, alínea a) do Código dos Contratos Públicos",16-01-2014,"1.956,24 €","",incumprimento nas entregas,,598830,"CONCURSO PÚBLICO PARA A CELEBRAÇÃO DE CONTRATOS PÚBLICOS DE APROVISIONAMENTO PARA A ÁREA DA SAÚDE, COM VISTA AO FORNECIMENTO DE MATERIAL DE INCONTINÊNCIA, PROTEÇÃO CUTÂNEA E ALÍVIO DE PRESSÃO, ÀS INSTITUIÇÕES E SERVIÇOS DO SERVIÇO NACIONAL DE SAÚDE",FALSE
Batas e protetores de sapatos,Ao abrigo de acordo-quadro (art.º 258.º),Aquisição de bens móveis,"33000000-0, Equipamento médico, medicamentos e produtos para cuidados pessoais","Centro Hospitalar Barreiro Montijo, E. P. E. (509186998)","OASIPOR - IMPORT. E EXPORT., SA (502260750)","3.669,12 €",11-09-2015,16-01-2014,365 dias,"Portugal, Setúbal, Barreiro","Artigo 20.º, n.º 1, alínea a) do Código dos Contratos Públicos",16-01-2014,"3.669,12 €","","",,451780,CP 2012/24 - MATERAIL DISPOSABLE DE BLOCO OPERATORIO,FALSE
Batas e protetores sapatos,Ao abrigo de acordo-quadro (art.º 258.º),Aquisição de bens móveis,"33000000-0, Equipamento médico, medicamentos e produtos para cuidados pessoais","Centro Hospitalar Barreiro Montijo, E. P. E. (509186998)","EZEQUIEL PANAO JORGE, LDA (501412727)","850,00 €",11-09-2015,16-01-2014,365 dias,"Portugal, Setúbal, Barreiro","Artigo 20.º, n.º 1, alínea a) do Código dos Contratos Públicos","","","","",,451780,CP 2012/24 - MATERAIL DISPOSABLE DE BLOCO OPERATORIO,FALSE
C.P. S10006/2014 - Fornecimento de Gas Natural ao CHBM EPE,Concurso público,Aquisição de serviços,"65200000-5, Serviços de distribuição de gás e serviços conexos","Centro Hospitalar Barreiro Montijo, E. P. E. (509186998)",GALP GÁS NATURAL S.A. (503103616),"162.933,51 €",11-09-2015,27-07-2014,184 dias,"Portugal, Setúbal, Barreiro","Artigo 20.º, n.º 1, alínea b) do Código dos Contratos Públicos",31-12-2014,"145.848,67 €","",Consumos reais abaixo dos valores/consumos estimados parao periodo,,Não aplicável.,Não aplicável.,FALSE
4SEX0048/2014 FORNECIMENTO DE GÁS NATURAL AO CHBM,Ajuste Direto Regime Geral,Aquisição de bens móveis,"09123000-7, Gás natural","Centro Hospitalar Barreiro Montijo, E. P. E. (509186998)","GALP GÁS NATURAL, S.A. (503103616)","340.000,00 €",11-09-2015,30-01-2014,365 dias,"Portugal, Setúbal, Barreiro","Artigo 24.º, n.º 1, alínea e) do Código dos Contratos Públicos",31-07-2014,"177.882,73 €",Apenas se adjudicou por 7 meses,Apenas se adjudicou por 7 meses,,Não aplicável.,Não aplicável.,FALSE
fornecimento de resguardos e fraldas,Ao abrigo de acordo-quadro (art.º 258.º),Aquisição de bens móveis,"33000000-0, Equipamento médico, medicamentos e produtos para cuidados pessoais","Centro Hospitalar Barreiro Montijo, E. P. E. (509186998)","INDAS PORTUGAL, LDA. (503505196)","1.666,71 €",11-09-2015,17-01-2014,365 dias,"Portugal, Setúbal, Barreiro","Artigo 20.º, n.º 1, alínea a) do Código dos Contratos Públicos",17-01-2014,"1.666,71 €","","",,598830,"CONCURSO PÚBLICO PARA A CELEBRAÇÃO DE CONTRATOS PÚBLICOS DE APROVISIONAMENTO PARA A ÁREA DA SAÚDE, COM VISTA AO FORNECIMENTO DE MATERIAL DE INCONTINÊNCIA, PROTEÇÃO CUTÂNEA E ALÍVIO DE PRESSÃO, ÀS INSTITUIÇÕES E SERVIÇOS DO SERVIÇO NACIONAL DE SAÚDE",FALSE
Fornecimento de suturas cutâneas,Ao abrigo de acordo-quadro (art.º 258.º),Aquisição de bens móveis,"33000000-0, Equipamento médico, medicamentos e produtos para cuidados pessoais","Centro Hospitalar Barreiro Montijo, E. P. E. (509186998)","MINNESOTA (3M) DE PORTUGAL,LDA (500193940)","24,00 €",11-09-2015,21-01-2014,365 dias,"Portugal, Setúbal, Barreiro","Artigo 20.º, n.º 1, alínea a) do Código dos Contratos Públicos",21-01-2014,"24,00 €","","",,534953,"CONCURSO PÚBLICO PARA A CELEBRAÇÃO DE CONTRATOS PÚBLICOS DE APROVISIONAMENTO PARA A ÁREA DA SAÚDE, COM VISTA AO FORNECIMENTO DE MATERIAL DE PENSO TRADICIONAL/CLASSICO - PARTE 1 - ÀS INSTITUIÇÕES E SERVIÇOS DO SERVIÇO NACIONAL DE SAÚDE  ",FALSE
Fornecimento de luvas,Ao abrigo de acordo-quadro (art.º 258.º),Aquisição de bens móveis,"33000000-0, Equipamento médico, medicamentos e produtos para cuidados pessoais","Centro Hospitalar Barreiro Montijo, E. P. E. (509186998)",Ezequiel Panão Jorge (501412727),"137,00 €",11-09-2015,06-01-2014,365 dias,"Portugal, Setúbal, Barreiro","Artigo 20.º, n.º 1, alínea a) do Código dos Contratos Públicos",06-01-2014,"137,00 €","","",,544071,"CONCURSO PÚBLICO PARA A CELEBRAÇÃO DE CONTRATOS PÚBLICOS DE APROVISIONAMENTO PARA A ÁREA DA SAÚDE, COM VISTA AO FORNECIMENTO DE LUVAS PARA USO MÉDICO, ÀS INSTITUIÇÕES E SERVIÇOS DO SERVIÇO NACIONAL DE SAÚDE",FALSE
"4D0705/2014 CD,S",Ajuste Direto Regime Geral,Aquisição de bens móveis,"30000000-9, Máquinas, equipamento e material de escritório e de informática, excepto mobiliário e pacotes de programas (software)","Centro Hospitalar Barreiro Montijo, E. P. E. (509186998)",ECOSINFOR (504232550),"595,00 €",10-09-2015,13-08-2014,360 dias,"Portugal, Setúbal, Barreiro","Artigo 20.º, n.º 1, alínea a) do Código dos Contratos Públicos",31-12-2014,"595,00 €","","",,Não aplicável.,Não aplicável.,FALSE
4D0705/2014 CD´S,Ajuste Direto Regime Geral,Aquisição de bens móveis,"30000000-9, Máquinas, equipamento e material de escritório e de informática, excepto mobiliário e pacotes de programas (software)","Centro Hospitalar Barreiro Montijo, E. P. E. (509186998)",STAPLES (503789372),"300,20 €",10-09-2015,13-08-2014,360 dias,"Portugal, Setúbal, Barreiro","Artigo 20.º, n.º 1, alínea a) do Código dos Contratos Públicos",31-12-2014,"300,20 €","","",,Não aplicável.,Não aplicável.,FALSE
4SI0019/2014 SERVIÇOS MÉDICOS DE GINECOLOGIA,Ao abrigo de acordo-quadro (art.º 259.º),Aquisição de serviços,"79625000-1, Serviços de fornecimento de pessoal médico","Centro Hospitalar Barreiro Montijo, E. P. E. (509186998)","RANDSTAD CLINICAL-CUIDADOS SAUDE, LDA. (505121247)","2.100,00 €",10-09-2015,06-11-2014,61 dias,"Portugal, Setúbal, Barreiro","Artigo 20.º, n.º 1, alínea b) do Código dos Contratos Públicos",31-12-2014,"2.078,30 €","",Nº horas realizadas inferior ao inicilamente estimado,,454020,"CONCURSO PÚBLICO PARA A CELEBRAÇÃO DE CONTRATOS PÚBLICOS DE APROVISIONAMENTO PARA A ÁREA DA SAÚDE, COM VISTA À PRESTAÇÃO DE SERVIÇOS MÉDICOS ÀS INSTITUIÇÕES E SERVIÇOS DO SERVIÇO NACIONAL DE SAÚDE",FALSE
4EXC0031/2015  DIVERSO MATERIAL P RADIOTERAPIA,Ajuste Direto Regime Geral,Aquisição de bens móveis,"33000000-0, Equipamento médico, medicamentos e produtos para cuidados pessoais","Centro Hospitalar Barreiro Montijo, E. P. E. (509186998)","SOCIEDADE AVANÇO,S.A (500264236)","8.669,80 €",10-09-2015,07-09-2015,90 dias,"Portugal, Setúbal, Barreiro","Artigo 20.º, n.º 1, alínea a) do Código dos Contratos Públicos",07-09-2015,"8.669,80 €","","",,Não aplicável.,Não aplicável.,FALSE
4D0066/2014 TINTA DUPLICADOR,Ajuste Direto Regime Geral,Aquisição de bens móveis,"30000000-9, Máquinas, equipamento e material de escritório e de informática, excepto mobiliário e pacotes de programas (software)","Centro Hospitalar Barreiro Montijo, E. P. E. (509186998)",REPRO MASTER (510308775),"364,10 €",10-09-2015,16-01-2014,360 dias,"Portugal, Setúbal, Barreiro","Artigo 20.º, n.º 1, alínea a) do Código dos Contratos Públicos",31-12-2014,"364,10 €","","",,Não aplicável.,Não aplicável.,FALSE
4D0066/2014 TINTA DUPLICADOR,Ajuste Direto Regime Geral,Aquisição de bens móveis,"30000000-9, Máquinas, equipamento e material de escritório e de informática, excepto mobiliário e pacotes de programas (software)","Centro Hospitalar Barreiro Montijo, E. P. E. (509186998)",RISO (980087783),"526,40 €",10-09-2015,16-01-2014,360 dias,"Portugal, Setúbal, Barreiro","Artigo 20.º, n.º 1, alínea a) do Código dos Contratos Públicos",31-12-2014,"526,40 €","","",,Não aplicável.,Não aplicável.,FALSE
4CPS0002/2014 SERVIÇOS MÉDICOS DE MCDT - ECOGRAFIAS OBSTETRICAS E GINECOLOGICAS,Ajuste Direto Regime Geral,Aquisição de serviços,"85121210-8, Serviços de ginecologia ou obstetrícia","Centro Hospitalar Barreiro Montijo, E. P. E. (509186998)","CLINICA MÉDICA CARO BARJAS, LDA. (507856708)","6.579,25 €",10-09-2015,22-01-2014,365 dias,"Portugal, Setúbal, Barreiro","Artigo 27.º, n.º 1, alínea a) do Código dos Contratos Públicos",28-02-2014,"1.186,03 €",Não chegou a ser assinado,Só houve prestação de serviços por 2 meses,,Não aplicável.,Não aplicável.,FALSE
40061/2015 MONITORES MULTIPARAMETROS,Ajuste Direto Regime Geral,Aquisição de bens móveis,"33000000-0, Equipamento médico, medicamentos e produtos para cuidados pessoais","Centro Hospitalar Barreiro Montijo, E. P. E. (509186998)",CLINIFAR (503281115),"20.999,94 €",07-09-2015,28-07-2015,20 dias,"Portugal, Setúbal, Barreiro","Artigo 20.º, n.º 1, alínea a) do Código dos Contratos Públicos",17-08-2015,"20.999,94 €","","",,Não aplicável.,Não aplicável.,FALSE
4EXC0026/2015 -  AMPOLA P TC,Ajuste Direto Regime Geral,Aquisição de bens móveis,"33000000-0, Equipamento médico, medicamentos e produtos para cuidados pessoais","Centro Hospitalar Barreiro Montijo, E. P. E. (509186998)",SIEMENS SA (500247480),"60.000,00 €",07-09-2015,19-03-2015,90 dias,"Portugal, Setúbal, Barreiro","Artigo 20.º, n.º 1, alínea a) do Código dos Contratos Públicos",01-09-2015,"60.000,00 €","","",,Não aplicável.,Não aplicável.,FALSE
