Objeto do Contrato,Tipo de Procedimento,Tipo(s) de Contrato,CPVs,Entidade(s) Adjudicante(s),Entidade(s) Adjudicatária(s),Preço Contratual,Data de Publicação,Data de Celebração do Contrato,Prazo de Execução,Local de Execução,Fundamentação,Data de Fecho do Contrato,Preço Total Efetivo,Causas das Alterações ao Prazo,Causas das Alterações ao Preço,Estado,N.º registo do Acordo Quadro,Descrição do Acordo Quadro,Procedimento Centralizado
Reagentes de várias areas,Ajuste Direto Regime Geral,Aquisição de bens móveis,"33696000-5, Reagentes e meios de contraste",Hospital Dr. Francisco Zagalo - Ovar (501510150),"FISHER SCIENTIFIC, LDA (506429210)","1.324,12 €",30-11-2018,03-01-2018,360 dias,"Portugal, Aveiro, Ovar","Artigo 20.º, n.º 1, alínea d) do Código dos Contratos Públicos","","",,"",,Não aplicável.,Não aplicável.,FALSE
Reagentes de várias areas,Ajuste Direto Regime Geral,Aquisição de bens móveis,"33696000-5, Reagentes e meios de contraste",Hospital Dr. Francisco Zagalo - Ovar (501510150),"NATURBENEFITS, Unipessoal Lda (513165282)","122,00 €",30-11-2018,03-01-2018,360 dias,"Portugal, Aveiro, Ovar","Artigo 20.º, n.º 1, alínea d) do Código dos Contratos Públicos","","",,"",,Não aplicável.,Não aplicável.,FALSE
Reagentes de várias areas,Ajuste Direto Regime Geral,Aquisição de bens móveis,"33696000-5, Reagentes e meios de contraste",Hospital Dr. Francisco Zagalo - Ovar (501510150),BIOPORTUGAL QUIMICO FARMACEUTICA LDA (502380543),"300,00 €",30-11-2018,03-01-2018,360 dias,"Portugal, Aveiro, Ovar","Artigo 20.º, n.º 1, alínea d) do Código dos Contratos Públicos","","",,"",,Não aplicável.,Não aplicável.,FALSE
Reagentes de várias areas,Ajuste Direto Regime Geral,Aquisição de bens móveis,"33696000-5, Reagentes e meios de contraste",Hospital Dr. Francisco Zagalo - Ovar (501510150),IBERLAB & IMUNOREAGE LDA (503406694),"718,00 €",30-11-2018,03-01-2018,360 dias,"Portugal, Aveiro, Ovar","Artigo 20.º, n.º 1, alínea d) do Código dos Contratos Públicos","","",,"",,Não aplicável.,Não aplicável.,FALSE
Reagentes de várias areas,Ajuste Direto Regime Geral,Aquisição de bens móveis,"33696000-5, Reagentes e meios de contraste",Hospital Dr. Francisco Zagalo - Ovar (501510150),ROCHE SISTEMAS DIAGNOSTICOS LDA (504282921),"1.972,80 €",30-11-2018,03-01-2018,360 dias,"Portugal, Aveiro, Ovar","Artigo 20.º, n.º 1, alínea d) do Código dos Contratos Públicos","","",,"",,Não aplicável.,Não aplicável.,FALSE
Reagentes de várias areas,Ajuste Direto Regime Geral,Aquisição de bens móveis,"33696000-5, Reagentes e meios de contraste",Hospital Dr. Francisco Zagalo - Ovar (501510150),"SIEMENS HEALTHCARE, LDA (507925173)","1.012,44 €",30-11-2018,03-01-2018,360 dias,"Portugal, Aveiro, Ovar","Artigo 20.º, n.º 1, alínea d) do Código dos Contratos Públicos","","",,"",,Não aplicável.,Não aplicável.,FALSE
Reagentes de várias areas,Ajuste Direto Regime Geral,Aquisição de bens móveis,"33696000-5, Reagentes e meios de contraste",Hospital Dr. Francisco Zagalo - Ovar (501510150),A MENARINI DIAGNOSTICOS LDA (502610069),"396,00 €",30-11-2018,03-01-2018,360 dias,"Portugal, Aveiro, Ovar","Artigo 20.º, n.º 1, alínea d) do Código dos Contratos Públicos","","",,"",,Não aplicável.,Não aplicável.,FALSE
Reagentes de várias areas,Ajuste Direto Regime Geral,Aquisição de bens móveis,"33696000-5, Reagentes e meios de contraste",Hospital Dr. Francisco Zagalo - Ovar (501510150),"ALERE, LDA (502518863)","245,00 €",30-11-2018,03-01-2018,360 dias,"Portugal, Aveiro, Ovar","Artigo 20.º, n.º 1, alínea d) do Código dos Contratos Públicos","","",,"",,Não aplicável.,Não aplicável.,FALSE
Reagentes de várias areas,Ajuste Direto Regime Geral,Aquisição de bens móveis,"33696000-5, Reagentes e meios de contraste",Hospital Dr. Francisco Zagalo - Ovar (501510150),ESTERIPLAS (502020776),"56,45 €",30-11-2018,03-01-2018,360 dias,"Portugal, Aveiro, Ovar","Artigo 20.º, n.º 1, alínea d) do Código dos Contratos Públicos","","",,"",,Não aplicável.,Não aplicável.,FALSE
Reagentes de várias areas,Ajuste Direto Regime Geral,Aquisição de bens móveis,"33696000-5, Reagentes e meios de contraste",Hospital Dr. Francisco Zagalo - Ovar (501510150),QUILABAN QUIMICA LAB ANALITICA (500399670),"42,71 €",30-11-2018,03-01-2018,360 dias,"Portugal, Aveiro, Ovar","Artigo 20.º, n.º 1, alínea d) do Código dos Contratos Públicos","","",,"",,Não aplicável.,Não aplicável.,FALSE
Reagentes de várias areas,Ajuste Direto Regime Geral,Aquisição de bens móveis,"33696000-5, Reagentes e meios de contraste",Hospital Dr. Francisco Zagalo - Ovar (501510150),BIO-RAD LABORATORIOS LDA (501301321),"1.454,75 €",30-11-2018,03-01-2018,360 dias,"Portugal, Aveiro, Ovar","Artigo 20.º, n.º 1, alínea d) do Código dos Contratos Públicos","","",,"",,Não aplicável.,Não aplicável.,FALSE
Reagentes de várias areas,Ajuste Direto Regime Geral,Aquisição de bens móveis,"33696000-5, Reagentes e meios de contraste",Hospital Dr. Francisco Zagalo - Ovar (501510150),"NORMAX, Fábrica de Vidros Científicos, Lda (500203130)","48,65 €",30-11-2018,03-01-2018,360 dias,"Portugal, Aveiro, Ovar","Artigo 20.º, n.º 1, alínea d) do Código dos Contratos Públicos","","",,"",,Não aplicável.,Não aplicável.,FALSE
Reagentes de várias areas,Ajuste Direto Regime Geral,Aquisição de bens móveis,"33696000-5, Reagentes e meios de contraste",Hospital Dr. Francisco Zagalo - Ovar (501510150),BIOMERIEUX PORTUGAL (501524177),"870,90 €",30-11-2018,03-01-2018,360 dias,"Portugal, Aveiro, Ovar","Artigo 20.º, n.º 1, alínea d) do Código dos Contratos Públicos","","",,"",,Não aplicável.,Não aplicável.,FALSE
43000918-Reagentes para o equipamento bioquímica,Ajuste Direto Regime Geral,Aquisição de bens móveis,"33696000-5, Reagentes e meios de contraste",Hospital Dr. Francisco Zagalo - Ovar (501510150),BECKMAN COULTER PORTUGAL UNIP LDA (509035167),"20.517,00 €",30-11-2018,01-01-2018,360 dias,"Portugal, Aveiro, Ovar","Artigo 24.º, n.º 1, alínea e) do Código dos Contratos Públicos","","",,"",,Não aplicável.,Não aplicável.,FALSE
43000918-Reagentes para o equipamento Bioquímica,Ajuste Direto Regime Geral,Aquisição de bens móveis,"33696000-5, Reagentes e meios de contraste",Hospital Dr. Francisco Zagalo - Ovar (501510150),BIO-RAD LABORATORIOS LDA (501301321),"353,00 €",30-11-2018,01-01-2018,360 dias,"Portugal, Aveiro, Ovar","Artigo 24.º, n.º 1, alínea e) do Código dos Contratos Públicos","","",,"",,Não aplicável.,Não aplicável.,FALSE
43000718-Reagentes para o equipamento imunoalergologia e autoimunidade,Ajuste Direto Regime Geral,Aquisição de bens móveis,"33696000-5, Reagentes e meios de contraste",Hospital Dr. Francisco Zagalo - Ovar (501510150),THERMO FISHER DIAGNOSTICS SOC UNP LDA (506916243),"6.355,05 €",30-11-2018,01-01-2018,360 dias,"Portugal, Aveiro, Ovar","Artigo 24.º, n.º 1, alínea e) do Código dos Contratos Públicos","","",,"",,Não aplicável.,Não aplicável.,FALSE
33696000-5 - Reagentes e meios de contraste,Ajuste Direto Regime Geral,Aquisição de bens móveis,"33696000-5, Reagentes e meios de contraste",Hospital Dr. Francisco Zagalo - Ovar (501510150),BIOMERIEUX PORTUGAL (501524177),"35.922,06 €",30-11-2018,01-01-2018,360 dias,"Portugal, Aveiro, Ovar","Artigo 24.º, n.º 1, alínea e) do Código dos Contratos Públicos","","",,"",,Não aplicável.,Não aplicável.,FALSE
43000518-Reagentes para o equipamento de hematologia,Ajuste Direto Regime Geral,Aquisição de bens móveis,"33694000-1, Meios de diagnóstico",Hospital Dr. Francisco Zagalo - Ovar (501510150),EMILIO AZEVEDO CAMPOS SA (500094853),"9.577,00 €",30-11-2018,01-01-2018,360 dias,"Portugal, Aveiro, Ovar","Artigo 24.º, n.º 1, alínea e) do Código dos Contratos Públicos","","",,"",,Não aplicável.,Não aplicável.,FALSE
43000418-Reagentes para o analisador de gases no sangue,Ajuste Direto Regime Geral,Aquisição de bens móveis,"33694000-1, Meios de diagnóstico",Hospital Dr. Francisco Zagalo - Ovar (501510150),WERFEN PORTUGAL UNIPESSOAL LDA (501086110),"6.200,00 €",30-11-2018,01-01-2018,360 dias,"Portugal, Aveiro, Ovar","Artigo 24.º, n.º 1, alínea e) do Código dos Contratos Públicos","","",,"",,Não aplicável.,Não aplicável.,FALSE
43000318-Reagentes para o equipamento de hemoglobina glicosilada,Ajuste Direto Regime Geral,Aquisição de bens móveis,"33694000-1, Meios de diagnóstico",Hospital Dr. Francisco Zagalo - Ovar (501510150),A MENARINI DIAGNOSTICOS LDA (502610069),"8.881,95 €",30-11-2018,01-01-2018,360 dias,"Portugal, Aveiro, Ovar","Artigo 24.º, n.º 1, alínea e) do Código dos Contratos Públicos","","",,"",,Não aplicável.,Não aplicável.,FALSE
43000218-Reagentes para o equipamento de bioquímica,Ajuste Direto Regime Geral,Aquisição de bens móveis,"33694000-1, Meios de diagnóstico",Hospital Dr. Francisco Zagalo - Ovar (501510150),BECKMAN COULTER PORTUGAL UNIP LDA (509035167),"5.716,00 €",30-11-2018,28-12-2017,360 dias,"Portugal, Aveiro, Ovar","Artigo 24.º, n.º 1, alínea e) do Código dos Contratos Públicos","","",,"",,Não aplicável.,Não aplicável.,FALSE
43000118-Reagentes para equipamento de Coagulação,Ajuste Direto Regime Geral,Aquisição de bens móveis,"33694000-1, Meios de diagnóstico",Hospital Dr. Francisco Zagalo - Ovar (501510150),WERFEN PORTUGAL UNIPESSOAL LDA (501086110),"15.208,03 €",30-11-2018,01-01-2018,360 dias,"Portugal, Aveiro, Ovar","Artigo 24.º, n.º 1, alínea e) do Código dos Contratos Públicos","","",,"",,Não aplicável.,Não aplicável.,FALSE
Aquisição de medicamentos anti psicóticos,Ao abrigo de acordo-quadro (art.º 259.º),Aquisição de bens móveis,"33600000-6, Produtos farmacêuticos",Hospital Dr. Francisco Zagalo - Ovar (501510150),"GENERIS FARMACÊUTICA, S.A. (508107997)","80,04 €",30-11-2018,01-01-2018,360 dias,"Portugal, Aveiro, Ovar",Artigo 259.º do Código dos Contratos Públicos,"","",,"",,2356543,CP 2016/19 - Medicamentos Antipsicóticos,FALSE
Aquisição de medicamentos anti psicóticos,Ao abrigo de acordo-quadro (art.º 259.º),Aquisição de bens móveis,"33600000-6, Produtos farmacêuticos",Hospital Dr. Francisco Zagalo - Ovar (501510150),RATIOPHARM (502414910),"51,84 €",30-11-2018,01-01-2018,360 dias,"Portugal, Aveiro, Ovar",Artigo 259.º do Código dos Contratos Públicos,"","",,"",,2356543,CP 2016/19 - Medicamentos Antipsicóticos,FALSE
Aquisição de medicamentos anti psicóticos,Ao abrigo de acordo-quadro (art.º 259.º),Aquisição de bens móveis,"33600000-6, Produtos farmacêuticos",Hospital Dr. Francisco Zagalo - Ovar (501510150),JANSSEN CILAG FARMACEUTICA LDA (500189412),"36,72 €",30-11-2018,01-01-2018,360 dias,"Portugal, Aveiro, Ovar",Artigo 259.º do Código dos Contratos Públicos,"","",,"",,2356543,CP 2016/19 - Medicamentos Antipsicóticos,FALSE
Aquisição de medicamentos anti psicóticos,Ao abrigo de acordo-quadro (art.º 259.º),Aquisição de bens móveis,"33600000-6, Produtos farmacêuticos",Hospital Dr. Francisco Zagalo - Ovar (501510150),SANOFI PRODUTOS FARMACEUTICOS LDA (500134960),"136,05 €",30-11-2018,01-01-2018,360 dias,"Portugal, Aveiro, Ovar",Artigo 259.º do Código dos Contratos Públicos,"","",,"",,2356543,CP 2016/19 - Medicamentos Antipsicóticos,FALSE
Aquisição de medicamentos anti psicóticos,Ao abrigo de acordo-quadro (art.º 259.º),Aquisição de bens móveis,"33600000-6, Produtos farmacêuticos",Hospital Dr. Francisco Zagalo - Ovar (501510150),PROFARIN (500223238),"14,33 €",30-11-2018,01-01-2018,360 dias,"Portugal, Aveiro, Ovar",Artigo 259.º do Código dos Contratos Públicos,"","",,"",,2356543,CP 2016/19 - Medicamentos Antipsicóticos,FALSE
39001418-SOLUÇÃO CONTROLO ASSIDUIDADE + SERVIÇOS,Consulta Prévia,Aquisição de serviços,"72500000-0, Serviços relacionados com a informática",Hospital Dr. Francisco Zagalo - Ovar (501510150),"RISI - Recursos, Ideias e Soluções Informáticas, Lda. (503754803)","6.710,50 €",29-11-2018,14-11-2018,30 dias,"Portugal<BR/>Portugal, Aveiro, Ovar","Artigo 20.º, n.º 1, alínea c) do Código dos Contratos Públicos","","",,"",,Não aplicável.,Não aplicável.,FALSE
41000618-Aquisição de Gases Medicinais,Ajuste Direto Regime Geral,Aquisição de bens móveis,"33600000-6, Produtos farmacêuticos",Hospital Dr. Francisco Zagalo - Ovar (501510150),Acail Gás (503789151),"19.991,68 €",29-11-2018,30-01-2018,300 dias,"Portugal, Aveiro, Ovar","Artigo 20.º, n.º 1, alínea d) do Código dos Contratos Públicos",23-10-2018,"19.991,68 €",,"",,Não aplicável.,Não aplicável.,FALSE
49013518-AQUISIÇÃO MCD-AUDIOMETRIAS,Ajuste Direto Regime Geral,Aquisição de serviços,"85000000-9, Serviços de saúde e acção social",Hospital Dr. Francisco Zagalo - Ovar (501510150),"CENTRO MEDICO DA PRAÇA, LDA. (501583157)","3.000,00 €",29-11-2018,29-08-2018,120 dias,"Portugal, Aveiro, Ovar","Artigo 20.º, n.º 1, alínea d) do Código dos Contratos Públicos",31-12-2018,"3.125,00 €",,serviços acima do previsto,,Não aplicável.,Não aplicável.,FALSE
42002118 - AQUISIÇÃO MATERIAL CONS. CLINICO - 23,Ajuste Direto Regime Geral,Aquisição de bens móveis,"33140000-3, Material médico de consumo",Hospital Dr. Francisco Zagalo - Ovar (501510150),"B. BRAUN MEDICAL, LDA. (501506543)","7.736,00 €",29-11-2018,30-01-2018,300 dias,"Portugal, Aveiro, Ovar","Artigo 20.º, n.º 1, alínea d) do Código dos Contratos Públicos",27-11-2018,"7.736,00 €",,"",,Não aplicável.,Não aplicável.,FALSE
Medicamentos antivíricos e antifúngicos,Ao abrigo de acordo-quadro (art.º 259.º),Aquisição de bens móveis,"33690000-3, Medicamentos vários",Hospital Dr. Francisco Zagalo - Ovar (501510150),Bristol-Myers Squibb (500048193),"104,00 €",28-11-2018,01-09-2018,150 dias,"Portugal, Aveiro, Ovar",Artigo 259.º do Código dos Contratos Públicos,"","",,"",,1422736,CP 2015/41 - ACORDO QUADRO PARA FORNECIMENTO DE MEDICAMENTOS ANTI-INFECIOSOS: ANTIVÍRICOS E ANTIFÚNGICOS ÀS INSTITUIÇÕES E SERVIÇOS DO SERVIÇO NACIONAL DE SAÚDE,FALSE
Medicamentos antivíricos e antifúngicos,Ao abrigo de acordo-quadro (art.º 259.º),Aquisição de bens móveis,"33690000-3, Medicamentos vários",Hospital Dr. Francisco Zagalo - Ovar (501510150),Fresénius Kabi Farma (504293753),"27,60 €",28-11-2018,01-09-2018,150 dias,"Portugal, Aveiro, Ovar",Artigo 259.º do Código dos Contratos Públicos,"","",,"",,1422736,CP 2015/41 - ACORDO QUADRO PARA FORNECIMENTO DE MEDICAMENTOS ANTI-INFECIOSOS: ANTIVÍRICOS E ANTIFÚNGICOS ÀS INSTITUIÇÕES E SERVIÇOS DO SERVIÇO NACIONAL DE SAÚDE,FALSE
Medicamentos antivíricos e antifúngicos,Ao abrigo de acordo-quadro (art.º 259.º),Aquisição de bens móveis,"33690000-3, Medicamentos vários",Hospital Dr. Francisco Zagalo - Ovar (501510150),Generis (508107997),"128,76 €",28-11-2018,01-09-2018,150 dias,"Portugal, Aveiro, Ovar",Artigo 259.º do Código dos Contratos Públicos,"","",,"",,1422736,CP 2015/41 - ACORDO QUADRO PARA FORNECIMENTO DE MEDICAMENTOS ANTI-INFECIOSOS: ANTIVÍRICOS E ANTIFÚNGICOS ÀS INSTITUIÇÕES E SERVIÇOS DO SERVIÇO NACIONAL DE SAÚDE,FALSE
Medicamentos antivíricos e antifúngicos,Ao abrigo de acordo-quadro (art.º 259.º),Aquisição de bens móveis,"33690000-3, Medicamentos vários",Hospital Dr. Francisco Zagalo - Ovar (501510150),GlaxoSmithkline Prod.Farmaceuticos (500139962),"1,52 €",28-11-2018,01-09-2018,150 dias,"Portugal, Aveiro, Ovar",Artigo 259.º do Código dos Contratos Públicos,"","",,"",,1422736,CP 2015/41 - ACORDO QUADRO PARA FORNECIMENTO DE MEDICAMENTOS ANTI-INFECIOSOS: ANTIVÍRICOS E ANTIFÚNGICOS ÀS INSTITUIÇÕES E SERVIÇOS DO SERVIÇO NACIONAL DE SAÚDE,FALSE
Gases Medicinais em garrafa,Consulta Prévia,Aquisição de bens móveis,"33600000-6, Produtos farmacêuticos","Hospital Dr. Francisco Zagalo, I. P. (501510150)",Acail Gás (503789151),"66.301,77 €",28-11-2018,24-10-2018,780 dias,"Portugal, Aveiro, Ovar<BR/>Portugal","Artigo 20.º, n.º 1, alínea c) do Código dos Contratos Públicos","","",,"",,Não aplicável.,Não aplicável.,FALSE
ASSISTENCIA A HP,Ajuste Direto Regime Geral,Aquisição de serviços,"50000000-5, Serviços de reparação e manutenção",Hospital Dr. Francisco Zagalo - Ovar (501510150),"ITEN SOLUTIONS - SISTEMAS DE INFORMAÇÃO, S.A. (510728189)","5.989,20 €",22-11-2018,01-08-2018,365 dias,"Portugal, Aveiro, Ovar","Artigo 20.º, n.º 1, alínea d) do Código dos Contratos Públicos",22-11-2018,"5.989,20 €",,"",,Não aplicável.,Não aplicável.,FALSE
MANUTENÇÃO,Ajuste Direto Regime Geral,Aquisição de serviços,"50000000-5, Serviços de reparação e manutenção",Hospital Dr. Francisco Zagalo - Ovar (501510150),"MAINCAPITAL-INFRASTRUCTURES & MANAGED SERVICES, SA (510093833)","8.665,01 €",22-11-2018,28-05-2018,365 dias,"Portugal, Aveiro, Ovar","Artigo 20.º, n.º 1, alínea d) do Código dos Contratos Públicos",22-11-2018,"8.665,01 €",,"",,Não aplicável.,Não aplicável.,FALSE
ASSISTENCIA TECNICA,Ajuste Direto Regime Geral,Aquisição de serviços,"50000000-5, Serviços de reparação e manutenção",Hospital Dr. Francisco Zagalo - Ovar (501510150),"Schindler - Ascensores e Escadas Rolantes, SA (502353740)","7.842,53 €",22-11-2018,23-04-2018,365 dias,"Portugal, Aveiro, Ovar","Artigo 20.º, n.º 1, alínea d) do Código dos Contratos Públicos",22-11-2018,"7.842,53 €",,"",,Não aplicável.,Não aplicável.,FALSE
49009518-LIMPEZA  E DESINFEÇÃO DE CONDUTAS DE AVAC,Ajuste Direto Regime Geral,Aquisição de serviços,"50000000-5, Serviços de reparação e manutenção",Hospital Dr. Francisco Zagalo - Ovar (501510150),FILTAPOR - RESÍDUOS (504932250),"9.395,00 €",21-11-2018,27-06-2018,90 dias,"Portugal, Aveiro, Ovar","Artigo 20.º, n.º 1, alínea d) do Código dos Contratos Públicos",31-10-2018,"9.395,00 €",,"",,Não aplicável.,Não aplicável.,FALSE
49000618-Prestação serviços - Desenvolvimento do SNC-AP,Ajuste Direto Regime Geral,Aquisição de serviços,"50000000-5, Serviços de reparação e manutenção",Hospital Dr. Francisco Zagalo - Ovar (501510150),"GLINTT - HEALTHCARE SOLUTIONS, S.A. (502479418)","9.800,00 €",21-11-2018,31-01-2018,240 dias,"Portugal, Aveiro, Ovar","Artigo 20.º, n.º 1, alínea d) do Código dos Contratos Públicos",31-08-2018,"9.800,00 €",,"",,Não aplicável.,Não aplicável.,FALSE
