Objeto do Contrato,Tipo de Procedimento,Tipo(s) de Contrato,CPVs,Entidade(s) Adjudicante(s),Entidade(s) Adjudicatária(s),Preço Contratual,Data de Publicação,Data de Celebração do Contrato,Prazo de Execução,Local de Execução,Fundamentação,Data de Fecho do Contrato,Preço Total Efetivo,Causas das Alterações ao Prazo,Causas das Alterações ao Preço,Estado,N.º registo do Acordo Quadro,Descrição do Acordo Quadro,Procedimento Centralizado
03/00089.42/2016- Aquisição de 2x Lampada de Fenda,Ajuste Direto Regime Geral,Aquisição de bens móveis,"33122000-1, Equipamento oftalmológico","CENTRO HOSPITALAR DE ENTRE O DOURO E VOUGA, E.P.E. (508878462)","VISIONAL - Unipessoal, Ldª (508798280)","10.900,00 €",21-03-2017,17-03-2017,20 dias,"Portugal, Aveiro, São João da Madeira","Artigo 20.º, n.º 1, alínea a) do Código dos Contratos Públicos","","",,"",,Não aplicável.,Não aplicável.,FALSE
03/00088.42/2016- Aquisição de 2x Equipe de Refração,Ajuste Direto Regime Geral,Aquisição de bens móveis,"33122000-1, Equipamento oftalmológico","CENTRO HOSPITALAR DE ENTRE O DOURO E VOUGA, E.P.E. (508878462)","VISIONAL - Unipessoal, Ldª (508798280)","5.900,00 €",21-03-2017,17-03-2017,8 dias,"Portugal, Aveiro, São João da Madeira","Artigo 20.º, n.º 1, alínea a) do Código dos Contratos Públicos","","",,"",,Não aplicável.,Não aplicável.,FALSE
07/00004.11/2017 - Aquisição do medicamento INFLIximab 100 mg pó conc sol inj fr iv (P259-AC-2016-177) - Compras Centralizadas para o ano de 2017,Ao abrigo de acordo-quadro (art.º 259.º),Aquisição de bens móveis,"33600000-6, Produtos farmacêuticos","Centro Hospitalar de Entre o Douro e Vouga, E.P.E. (508878462)","LABORATORIOS PFIZER,S.A. (500162166)","22.448,00 €",20-03-2017,04-01-2017,365 dias,"Portugal, Aveiro, Santa Maria da Feira",Artigo 259.º do Código dos Contratos Públicos,"","",,"",,1771819,CP 2015/6 - Acordo quadro para o fornecimento de Medicamentos do Foro Oncológico,FALSE
"Aquisição de torre de estroboscopia, análise de voz e deglutição",Ajuste Direto Regime Geral,Aquisição de bens móveis,"33100000-1, Equipamento médico","CENTRO HOSPITALAR DE ENTRE O DOURO E VOUGA, E.P.E. (508878462)","GAES – Gabinete de Audiopróteses, Electromedicina e Serviços, Unipessoal, Lda (503134139)","48.057,50 €",20-03-2017,08-03-2017,45 dias,"Portugal, Aveiro, Santa Maria da Feira","Artigo 20.º, n.º 1, alínea a) do Código dos Contratos Públicos",16-11-2017,"48.057,50 €",,"",,Não aplicável.,Não aplicável.,FALSE
"Aquisição de prestação de serviços para reparação de carros """"Socamel"""" de distribuição de refeições (almoço e jantar) da Unidade de Santa Maria da Feira",Ajuste Direto Regime Geral,Outros Tipos (Concessão de exploração de bens do domínio público),"50500000-0, Serviços de reparação e manutenção de bombas, válvulas, torneiras, contentores de metal e equipamento","CENTRO HOSPITALAR DE ENTRE O DOURO E VOUGA, E.P.E. (508878462)","Higiomed, Formação e Representações, Lda (504130617)","15.922,80 €",20-03-2017,21-12-2016,90 dias,"Portugal, Aveiro, Santa Maria da Feira","Artigo 20.º, n.º 1, alínea a) do Código dos Contratos Públicos",31-12-2017,"15.888,88 €",,Material adjudicado que deixou de ser fabricado.,,Não aplicável.,Não aplicável.,FALSE
01/00008.12/2017 - Aquisição de Reagentes para Autoimunidade e Alergologia,Concurso público,Aquisição de bens móveis,"33696500-0, Reagentes de laboratório","Centro Hospitalar de Entre o Douro e Vouga, E.P.E. (508878462)",THERMO FISHER DIAGNOSTICS (506916243),"27.924,32 €",17-03-2017,23-02-2017,365 dias,"Portugal, Aveiro, Santa Maria da Feira","Artigo 20.º, n.º 1, alínea b) do Código dos Contratos Públicos","","",,"",,Não aplicável.,Não aplicável.,FALSE
01/00008.12/2017 - Aquisição de Reagentes para Autoimunidade e Alergologia,Concurso público,Aquisição de bens móveis,"33696500-0, Reagentes de laboratório","Centro Hospitalar de Entre o Douro e Vouga, E.P.E. (508878462)","Thermo Fisher Diagnostics, Soc. Unip., Lda (506916243)","45.440,79 €",17-03-2017,23-02-2017,365 dias,"Portugal, Aveiro, Santa Maria da Feira","Artigo 20.º, n.º 1, alínea b) do Código dos Contratos Públicos","","",,"",,Não aplicável.,Não aplicável.,FALSE
07/00006.11/2017 - Aquisição do medicamento Doxorrubicina 2mg/ml sol inj fr 25ml iv (P259-AC-2016-165) - Compras Centralizadas SPMS para o ano de 2017,Ao abrigo de acordo-quadro (art.º 259.º),Aquisição de bens móveis,"33600000-6, Produtos farmacêuticos","Centro Hospitalar de Entre o Douro e Vouga, E.P.E. (508878462)",MEDAC PORTUGAL (980369959),"1.590,00 €",16-03-2017,04-01-2017,365 dias,"Portugal, Aveiro, Santa Maria da Feira",Artigo 259.º do Código dos Contratos Públicos,"","",,"",,1771819,CP 2015/6 - Acordo quadro para o fornecimento de Medicamentos do Foro Oncológico,FALSE
07/00005.11/2017 - Aquisição do medicamento Etanercept (P259-AC-2016-154) - Compras Centralizadas SPMS para o ano de 2017,Ao abrigo de acordo-quadro (art.º 259.º),Aquisição de bens móveis,"33600000-6, Produtos farmacêuticos","Centro Hospitalar de Entre o Douro e Vouga, E.P.E. (508878462)","BIOGEN IDEC PORTUGAL, LDA. (506415740)","2.496,00 €",16-03-2017,27-02-2017,365 dias,"Portugal, Aveiro, Santa Maria da Feira",Artigo 259.º do Código dos Contratos Públicos,"","",,"",,1771819,CP 2015/6 - Acordo quadro para o fornecimento de Medicamentos do Foro Oncológico,FALSE
07/00009.11/2017 - Aquisição do medicamento Sorafenib 200 mg comp (P259-AC-2016-226),Ao abrigo de acordo-quadro (art.º 259.º),Aquisição de bens móveis,"33600000-6, Produtos farmacêuticos","Centro Hospitalar de Entre o Douro e Vouga, E.P.E. (508878462)",BAYER PORTUGAL S.A (500043256),"9.238,82 €",16-03-2017,25-01-2017,365 dias,"Portugal, Aveiro, Santa Maria da Feira",Artigo 259.º do Código dos Contratos Públicos,"","",,"",,1771819,CP 2015/6 - Acordo quadro para o fornecimento de Medicamentos do Foro Oncológico,FALSE
Aquisição de Equipamento completo de ECG para MFR,Ajuste Direto Regime Geral,Aquisição de bens móveis,"33100000-1, Equipamento médico","CENTRO HOSPITALAR DE ENTRE O DOURO E VOUGA, E.P.E. (508878462)","Iberdata Equipamentos, S.A. (501904921)","14.208,00 €",16-03-2017,21-12-2016,90 dias,"Portugal, Aveiro, Santa Maria da Feira","Artigo 20.º, n.º 1, alínea a) do Código dos Contratos Públicos",28-06-2017,"14.208,00 €",,"",,Não aplicável.,Não aplicável.,FALSE
