Objeto do Contrato,Tipo de Procedimento,Tipo(s) de Contrato,CPVs,Entidade(s) Adjudicante(s),Entidade(s) Adjudicatária(s),Preço Contratual,Data de Publicação,Data de Celebração do Contrato,Prazo de Execução,Local de Execução,Fundamentação,Data de Fecho do Contrato,Preço Total Efetivo,Causas das Alterações ao Prazo,Causas das Alterações ao Preço,Estado,N.º registo do Acordo Quadro,Descrição do Acordo Quadro,Procedimento Centralizado
"Reagentes para Estudo da Coagulação para o Ano de 2017, contra colocação de equipamento renovável até ao limite de três anos",Concurso público,Aquisição de bens móveis,"33696200-7, Reagentes para análises ao sangue","Centro Hospitalar Vila Nova de Gaia - Espinho, E. P. E. (508142156)","Stago Portugal Unipessoal, Lda. (509952976)","149.308,96 €",11-08-2017,08-08-2017,144 dias,"Portugal, Porto, Vila Nova de Gaia","Artigo 20.º, n.º 1, alínea b) do Código dos Contratos Públicos",,,,,,Não aplicável.,Não aplicável.,FALSE
AD para Aquisição de APLICADOR DE CLIPS ROTATIVO P/ ENDOSCOPIA ALTA AMP 11MM,Ajuste Direto Regime Geral,Aquisição de bens móveis,"33000000-0, Equipamento médico, medicamentos e produtos para cuidados pessoais","Centro Hospitalar Vila Nova de Gaia - Espinho, E. P. E. (508142156)","Alves & C.ª (Irmão), Lda. (500310068)","5.100,00 €",10-08-2017,09-08-2017,210 dias,"Portugal, Porto, Vila Nova de Gaia","Artigo 20.º, n.º 1, alínea a) do Código dos Contratos Públicos",,,,,,Não aplicável.,Não aplicável.,FALSE
Aquisição de material de drogaria,Ajuste Direto Regime Geral,Aquisição de bens móveis,"44100000-1, Materiais de construção e artigos afins","Centro Hospitalar Vila Nova de Gaia - Espinho, E. P. E. (508142156)",Drogaria das Pedras (501202277),"315,02 €",08-08-2017,04-08-2017,5 dias,"Portugal, Porto, Vila Nova de Gaia","Artigo 24.º, n.º 1, alínea c) do Código dos Contratos Públicos",,,,,,Não aplicável.,Não aplicável.,FALSE
AD para Aquisição de Trouxas de Partes Moles,Ajuste Direto Regime Geral,Aquisição de bens móveis,"33000000-0, Equipamento médico, medicamentos e produtos para cuidados pessoais","Centro Hospitalar Vila Nova de Gaia - Espinho, E. P. E. (508142156)","OASIPOR - IMPORTACAO E EXPORTACAO, S. A (502260750)","4.760,00 €",04-08-2017,02-08-2017,210 dias,"Portugal, Porto, Vila Nova de Gaia","Artigo 20.º, n.º 1, alínea a) do Código dos Contratos Públicos",,,,,,Não aplicável.,Não aplicável.,FALSE
Aquisição de Material de Gastrenterologia,Concurso público,Aquisição de bens móveis,"33140000-3, Material médico de consumo","Centro Hospitalar Vila Nova de Gaia - Espinho, E. P. E. (508142156)","ENDOTÉCNICA - Material Cirurgico, Lda (503818348)","1.500,00 €",02-08-2017,21-06-2017,180 dias,"Portugal, Porto, Vila Nova de Gaia","Artigo 20.º, n.º 1, alínea b) do Código dos Contratos Públicos",,,,,,Não aplicável.,Não aplicável.,FALSE
Aquisição de Material de Gastrenterologia,Concurso público,Aquisição de bens móveis,"33140000-3, Material médico de consumo","Centro Hospitalar Vila Nova de Gaia - Espinho, E. P. E. (508142156)","Boston Scientific Portugal - Disp. Médicos, Lda (504988964)","8.000,00 €",02-08-2017,21-06-2017,180 dias,"Portugal, Porto, Vila Nova de Gaia","Artigo 20.º, n.º 1, alínea b) do Código dos Contratos Públicos",,,,,,Não aplicável.,Não aplicável.,FALSE
Aquisição de Material de Gastrenterologia,Concurso público,Aquisição de bens móveis,"33140000-3, Material médico de consumo","Centro Hospitalar Vila Nova de Gaia - Espinho, E. P. E. (508142156)","TEPREL- Equipamentos Médicos, ldª. (502262184)","7.900,00 €",02-08-2017,21-06-2017,180 dias,"Portugal, Porto, Vila Nova de Gaia","Artigo 20.º, n.º 1, alínea b) do Código dos Contratos Públicos",,,,,,Não aplicável.,Não aplicável.,FALSE
Aquisição de Material de Gastrenterologia,Concurso público,Aquisição de bens móveis,"33140000-3, Material médico de consumo","Centro Hospitalar Vila Nova de Gaia - Espinho, E. P. E. (508142156)","Olympus Ibéria, S.A.U. - Suc. em Portugal (980474710)","4.824,80 €",02-08-2017,21-06-2017,180 dias,"Portugal, Porto, Vila Nova de Gaia","Artigo 20.º, n.º 1, alínea b) do Código dos Contratos Públicos",,,,,,Não aplicável.,Não aplicável.,FALSE
Aquisição de Material de Gastrenterologia,Concurso público,Aquisição de bens móveis,"33140000-3, Material médico de consumo","Centro Hospitalar Vila Nova de Gaia - Espinho, E. P. E. (508142156)",B. Braun Medical (501506543),"60,00 €",02-08-2017,21-06-2017,180 dias,"Portugal, Porto, Vila Nova de Gaia","Artigo 20.º, n.º 1, alínea b) do Código dos Contratos Públicos",,,,,,Não aplicável.,Não aplicável.,FALSE
Aquisição de Material de Gastrenterologia,Concurso público,Aquisição de bens móveis,"33140000-3, Material médico de consumo","Centro Hospitalar Vila Nova de Gaia - Espinho, E. P. E. (508142156)","Biosonda- Comércio de Material Hospitalar, Lda. (501463313)","15.792,00 €",02-08-2017,31-07-2017,180 dias,"Portugal, Porto, Vila Nova de Gaia","Artigo 20.º, n.º 1, alínea b) do Código dos Contratos Públicos",,,,,,Não aplicável.,Não aplicável.,FALSE
Aquisição de Material de Gastrenterologia,Concurso público,Aquisição de bens móveis,"33140000-3, Material médico de consumo","Centro Hospitalar Vila Nova de Gaia - Espinho, E. P. E. (508142156)","Alves & C.ª (Irmão), Lda. (500310068)","65.165,00 €",02-08-2017,31-07-2017,180 dias,"Portugal, Porto, Vila Nova de Gaia","Artigo 20.º, n.º 1, alínea b) do Código dos Contratos Públicos",,,,,,Não aplicável.,Não aplicável.,FALSE
Celebração de Contrato de Assistência Técnica aos Equipamentos do Serviço de Cardiologia - Ano 2017,Ajuste Direto Regime Geral,Aquisição de serviços,"50421000-2, Serviços de reparação e manutenção de equipamento médico","Centro Hospitalar Vila Nova de Gaia - Espinho, E. P. E. (508142156)","Siemens Healthcare, Lda. (507925173)","315.631,20 €",01-08-2017,07-07-2017,365 dias,"Portugal, Porto, Vila Nova de Gaia","Artigo 24.º, n.º 1, alínea e) do Código dos Contratos Públicos",,,,,,Não aplicável.,Não aplicável.,FALSE
