Objeto do Contrato,Tipo de Procedimento,Tipo(s) de Contrato,CPVs,Entidade(s) Adjudicante(s),Entidade(s) Adjudicatária(s),Preço Contratual,Data de Publicação,Data de Celebração do Contrato,Prazo de Execução,Local de Execução,Fundamentação,Data de Fecho do Contrato,Preço Total Efetivo,Causas das Alterações ao Prazo,Causas das Alterações ao Preço,Estado,N.º registo do Acordo Quadro,Descrição do Acordo Quadro,Procedimento Centralizado
FLUDARABINA 10MG,Ajuste Direto Regime Geral,Aquisição de bens móveis,"33000000-0, Equipamento médico, medicamentos e produtos para cuidados pessoais","Instituto Português de Oncologia de Coimbra Francisco Gentil, E. P. E. (506361438)","SANOFI-PRODUTOS FARMACEUTICOS,LD (500134960)","8.400,00 €",07-07-2016,25-02-2015,308 dias,"Portugal, Coimbra, Coimbra","Artigo 24.º, n.º 1, alínea e) do Código dos Contratos Públicos",04-03-2015,"1.120,00 €",,Diminuição das necessidades,,Não aplicável.,Não aplicável.,FALSE
MED AUE - PROCARBAZINA,Ajuste Direto Regime Geral,Aquisição de bens móveis,"33000000-0, Equipamento médico, medicamentos e produtos para cuidados pessoais","Instituto Português de Oncologia de Coimbra Francisco Gentil, E. P. E. (506361438)","PHARMIS BIOFARMACEUTICA, LDA. (502595442)","9.920,00 €",07-07-2016,13-02-2015,320 dias,"Portugal, Coimbra, Coimbra","Artigo 24.º, n.º 1, alínea e) do Código dos Contratos Públicos",01-12-2015,"8.928,00 €",,Diminuição das necessidades,,Não aplicável.,Não aplicável.,FALSE
CIANOCOBALAMIDA 1 MG/1ML INJ IM,Ajuste Direto Regime Geral,Aquisição de bens móveis,"33000000-0, Equipamento médico, medicamentos e produtos para cuidados pessoais","Instituto Português de Oncologia de Coimbra Francisco Gentil, E. P. E. (506361438)","LABESFAL - LAB.ALMIRO, S.A. (501169580)","665,00 €",07-07-2016,04-02-2015,330 dias,"Portugal, Coimbra, Coimbra","Artigo 24.º, n.º 1, alínea e) do Código dos Contratos Públicos",28-12-2015,"399,00 €",,Diminuição das necessidades,,Não aplicável.,Não aplicável.,FALSE
