Objeto do Contrato,Tipo de Procedimento,Tipo(s) de Contrato,CPVs,Entidade(s) Adjudicante(s),Entidade(s) Adjudicatária(s),Preço Contratual,Data de Publicação,Data de Celebração do Contrato,Prazo de Execução,Local de Execução,Fundamentação,Data de Fecho do Contrato,Preço Total Efetivo,Causas das Alterações ao Prazo,Causas das Alterações ao Preço,Estado,N.º registo do Acordo Quadro,Descrição do Acordo Quadro,Procedimento Centralizado
Serviços de alojamento e viagem para participação na reunião TIAF 2013 Meeting na Madeira- 1 Participante/3 dias,Ao abrigo de acordo-quadro (art.º 258.º),Aquisição de serviços,"63510000-7, Serviços de agências de viagens e serviços similares","INFARMED - Autoridade Nacional do Medicamento e Produtos de Saúde, I.P. (600037002)","TQ- Travel Quality , Viagens e Turismo,Lda (501313915)","572,84 €",20-09-2013,04-09-2013,3 dias,Portugal,"Artigo 27.º, n.º 1, alínea h) do Código dos Contratos Públicos",,,,,,273814,"Acordo Quadro de viagens, transportes aéreos e alojamentos",
"Serviços de viagem e alojamento para participação na reunião TIAFT 2013 MEETING, na madeira - 1 participante/4 dias",Ao abrigo de acordo-quadro (art.º 258.º),Aquisição de serviços,"63510000-7, Serviços de agências de viagens e serviços similares","INFARMED - Autoridade Nacional do Medicamento e Produtos de Saúde, I.P. (600037002)","TQ- Travel Quality, Viagens e Turismo,Lda (501313915)","543,84 €",20-09-2013,22-08-2013,4 dias,Portugal,"Artigo 27.º, n.º 1, alínea h) do Código dos Contratos Públicos",,,,,,273814,"Acordo Quadro de viagens, transportes aéreos e alojamentos",
"Serviços de alojamento e viagem para participação na reunião """"Symposium for senior pharmaceutical policy-makers"""" em Dublin, 1 participante/ 4 dias",Ao abrigo de acordo-quadro (art.º 258.º),Aquisição de serviços,"63510000-7, Serviços de agências de viagens e serviços similares","INFARMED - Autoridade Nacional do Medicamento e Produtos de Saúde, I.P. (600037002)","TQ- Travel Quality, Viagens e Turismo,Lda (501313915)","1.205,79 €",20-09-2013,27-08-2013,4 dias,Irlanda,"Artigo 27.º, n.º 1, alínea h) do Código dos Contratos Públicos",,,,,,273814,"Acordo Quadro de viagens, transportes aéreos e alojamentos",
Serviços de alojamento no ambito de inspecções a farmácias na zona de Évora- 4 participantes/2 dias,Ao abrigo de acordo-quadro (art.º 258.º),Aquisição de serviços,"63510000-7, Serviços de agências de viagens e serviços similares","INFARMED - Autoridade Nacional do Medicamento e Produtos de Saúde, I.P. (600037002)","Topatlantico - Viagens e Turismo, SA (501061126)","272,00 €",19-09-2013,28-08-2013,2 dias,Portugal,"Artigo 27.º, n.º 1, alínea h) do Código dos Contratos Públicos",,,,,,273814,"Acordo Quadro de viagens, transportes aéreos e alojamentos",
"Serviços de alojamento no âmbito de inspecções a farmácias na Zona de Àgueda, 3 participantes/1 dia",Ao abrigo de acordo-quadro (art.º 258.º),Aquisição de serviços,"63510000-7, Serviços de agências de viagens e serviços similares","INFARMED - Autoridade Nacional do Medicamento e Produtos de Saúde, I.P. (600037002)","Topatlântico - Viagens e Turismo,SA (501061126)","195,00 €",19-09-2013,28-08-2013,1 dias,Portugal,"Artigo 27.º, n.º 1, alínea h) do Código dos Contratos Públicos",,,,,,273814,"Acordo Quadro de viagens, transportes aéreos e alojamentos",
"Serviços de viagem para participação na reunião JCM_Workshop+Authorities meeting e 19Th EGA annual Conference em Atenas, 1 participante/4 dias",Ao abrigo de acordo-quadro (art.º 258.º),Aquisição de serviços,"63510000-7, Serviços de agências de viagens e serviços similares","INFARMED - Autoridade Nacional do Medicamento e Produtos de Saúde, I.P. (600037002)","TQ- Travel Quality - Viagens e Turismo,Lda (501313915)","588,90 €",18-09-2013,27-06-2013,4 dias,Grécia,"Artigo 27.º, n.º 1, alínea h) do Código dos Contratos Públicos",,,,,,273814,"Acordo Quadro de viagens, transportes aéreos e alojamentos",
"Seviços de viagem, para participação na reunião do Standing Commitee on Medical Products for human use ( Comité de Medicamentos de Uso Humano) em Bruxelas, 1 Participante/1 dia",Ao abrigo de acordo-quadro (art.º 258.º),Aquisição de serviços,"63510000-7, Serviços de agências de viagens e serviços similares","INFARMED - Autoridade Nacional do Medicamento e Produtos de Saúde, I.P. (600037002)","Raso - Viagens e Turismo, SA (500886113)","699,28 €",18-09-2013,09-09-2013,1 dias,Bélgica,"Artigo 27.º, n.º 1, alínea h) do Código dos Contratos Públicos",,,,,,273814,"Acordo Quadro de viagens, transportes aéreos e alojamentos",
"serviços de alojamento e viagem para participação nas reuniões dos grupos """"CEN/TC392/WG1 Ad Hoc Group e OCCL/JRC"""" em paris, 1 participante/4 dias",Ao abrigo de acordo-quadro (art.º 258.º),Aquisição de serviços,"63510000-7, Serviços de agências de viagens e serviços similares","INFARMED - Autoridade Nacional do Medicamento e Produtos de Saúde, I.P. (600037002)","Pamtours - viagens e turismo, Lda (502844779)","822,23 €",18-09-2013,06-09-2013,4 dias,França,"Artigo 27.º, n.º 1, alínea h) do Código dos Contratos Públicos",,,,,,273814,"Acordo Quadro de viagens, transportes aéreos e alojamentos",
"Serviços de alojamento e viagem para participação na reunião working party on pharmaceuticals and medical Devices """"GMDM - Regulamento de ensaios clinicos"""" em Bruxelas - 1 participente/2 dias",Ao abrigo de acordo-quadro (art.º 258.º),Aquisição de serviços,"63510000-7, Serviços de agências de viagens e serviços similares","INFARMED - Autoridade Nacional do Medicamento e Produtos de Saúde, I.P. (600037002)","Raso - Viagens e Turismo, SA (500886113)","926,64 €",18-09-2013,06-09-2013,2 dias,Bélgica,"Artigo 27.º, n.º 1, alínea h) do Código dos Contratos Públicos",,,,,,273814,"Acordo Quadro de viagens, transportes aéreos e alojamentos",
