Objeto do Contrato,Tipo de Procedimento,Tipo(s) de Contrato,CPVs,Entidade(s) Adjudicante(s),Entidade(s) Adjudicatária(s),Preço Contratual,Data de Publicação,Data de Celebração do Contrato,Prazo de Execução,Local de Execução,Fundamentação,Data de Fecho do Contrato,Preço Total Efetivo,Causas das Alterações ao Prazo,Causas das Alterações ao Preço,Estado,N.º registo do Acordo Quadro,Descrição do Acordo Quadro,Procedimento Centralizado
Aquisição de trocloseno grânulos 500 mg,Ajuste Direto Regime Geral,Aquisição de bens móveis,"33690000-3, Medicamentos vários","Administração Regional de Saúde de Lisboa e Vale do Tejo, I.P. (503148776)","Johnson & Johnson, Lda. (500153370)","6.250,00 €",21-02-2012,13-02-2012,20 dias,"Portugal, Lisboa","Artigo 26.º, n.º 1, alínea e) do Código dos Contratos Públicos","","",,,,Não aplicável.,Não aplicável.,
Aquisição de moxifloxacina comprimido 400 mg,Ajuste Direto Regime Geral,Aquisição de bens móveis,"33690000-3, Medicamentos vários","Administração Regional de Saúde de Lisboa e Vale do Tejo, I.P. (503148776)",Bayer Portugal SA (500043256),"5.544,00 €",21-02-2012,13-02-2012,20 dias,"Portugal, Lisboa","Artigo 26.º, n.º 1, alínea e) do Código dos Contratos Públicos","","",,,,Não aplicável.,Não aplicável.,
Aquisição de Levofloxacina,Ajuste Direto Regime Geral,Aquisição de bens móveis,"33690000-3, Medicamentos vários","Administração Regional de Saúde de Lisboa e Vale do Tejo, I.P. (503148776)",Overpharma (505792362),"1.950,00 €",21-02-2012,13-02-2012,20 dias,"Portugal, Lisboa","Artigo 26.º, n.º 1, alínea e) do Código dos Contratos Públicos","","",,,,Não aplicável.,Não aplicável.,
Aquisição de alginato de cálcio e poliuretano película,Ajuste Direto Regime Geral,Aquisição de bens móveis,"33140000-3, Material médico de consumo","Administração Regional de Saúde de Lisboa e Vale do Tejo, I.P. (503148776)",3M Portugal (500193940),"95.850,00 €",21-02-2012,13-02-2012,20 dias,"Portugal, Lisboa","Artigo 26.º, n.º 1, alínea e) do Código dos Contratos Públicos","","",,,,Não aplicável.,Não aplicável.,
Aquisição de consumíveis informáticos - lote 3 PECI - Canon,Ajuste Direto Regime Geral,Aquisição de bens móveis,"30125100-2, Cartuchos de tinta (toner)","Administração Regional de Saúde de Lisboa e Vale do Tejo, I.P. (503148776)",ISETE (507513908),"7.236,26 €",21-02-2012,10-02-2012,20 dias,"Portugal, Lisboa",Artigo 258.º do Código dos Contratos Públicos,"","",,,,Não aplicável.,Não aplicável.,
"Aquisição de poliuretano com rebordo 9,5x9,5",Ajuste Direto Regime Geral,Aquisição de bens móveis,"33140000-3, Material médico de consumo","Administração Regional de Saúde de Lisboa e Vale do Tejo, I.P. (503148776)",Systagenix Wound Management (980402298),"62.700,00 €",21-02-2012,13-02-2012,20 dias,"Portugal, Lisboa","Artigo 26.º, n.º 1, alínea e) do Código dos Contratos Públicos","","",,,,Não aplicável.,Não aplicável.,
"Trabalhos inerentes ao aumento de potência, instalação do novo ramal de energia eléctrica (ACES 21 - Lezíria, Ribatejo - Unidade de Saúde de S. Bento)",Ajuste Direto Regime Geral,Aquisição de serviços,"98390000-3, Outros serviços","Administração Regional de Saúde de Lisboa e Vale do Tejo, I.P. (503148776)","EDP - Distribuição Energia, S.A. (504394029)","1.766,88 €",21-02-2012,08-02-2012,30 dias,"Portugal, Lisboa, Lisboa","Artigo 24.º, n.º 1, alínea e) do Código dos Contratos Públicos","","",,,,Não aplicável.,Não aplicável.,
Aquisição de gaze impragnada iodoforos,Ajuste Direto Regime Geral,Aquisição de bens móveis,"33140000-3, Material médico de consumo","Administração Regional de Saúde de Lisboa e Vale do Tejo, I.P. (503148776)",Systagenix Wound Management (980402298),"44.500,00 €",21-02-2012,13-02-2012,20 dias,"Portugal, Lisboa","Artigo 26.º, n.º 1, alínea e) do Código dos Contratos Públicos","","",,,,Não aplicável.,Não aplicável.,
Aquisição de vacina BCG liofilizada,Ajuste Direto Regime Geral,Aquisição de bens móveis,"33651630-3, Vacinas BCG (liofilizadas)","Administração Regional de Saúde de Lisboa e Vale do Tejo, I.P. (503148776)","J. M. Farmaceutica, S.A. (503550558)","35.600,00 €",21-02-2012,01-02-2012,20 dias,"Portugal, Lisboa","Artigo 26.º, n.º 1, alínea e) do Código dos Contratos Públicos","","",,,,Não aplicável.,Não aplicável.,
"Prestação de serviços de secretariado clínico para o ACES XI - Cascais, em regime de outsourcing. Período de 02/11/2011 até 31/12/2011.",Ajuste Direto Regime Geral,Aquisição de serviços,"98390000-3, Outros serviços","Administração Regional de Saúde de Lisboa e Vale do Tejo, I.P. (503148776)","KELLY SERVICES - GESTÃO DE PROCESSOS, LDA. (506434770)","7.370,80 €",20-02-2012,26-12-2011,60 dias,"Portugal, Lisboa, Cascais","Artigo 24.º, n.º 1, alínea e) do Código dos Contratos Públicos","","",,,,Não aplicável.,Não aplicável.,
"Prestação de serviços de secretariado clínico para o ACES XIX - Serra dAire, em regime de outsourcing. Período de 02/11/2011 até 31/12/2011.",Ajuste Direto Regime Geral,Aquisição de serviços,"98390000-3, Outros serviços","Administração Regional de Saúde de Lisboa e Vale do Tejo, I.P. (503148776)","KELLY SERVICES - GESTÃO DE PROCESSOS, LDA. (506434770)","16.668,04 €",20-02-2012,30-12-2011,60 dias,"Portugal, Santarém, Entroncamento<BR/>Portugal, Santarém, Torres Novas<BR/>Portugal, Santarém, Alcanena<BR/>Portugal, Santarém, Ourém","Artigo 24.º, n.º 1, alínea e) do Código dos Contratos Públicos","","",,,,Não aplicável.,Não aplicável.,
Mudanças de instalações do Centro de Saúde antigo para o novo da Castanheira do Ribatejo.,Ajuste Direto Regime Geral,Aquisição de serviços,"98390000-3, Outros serviços","Administração Regional de Saúde de Lisboa e Vale do Tejo, I.P. (503148776)","TRANSPORTES BARATA & CARVALHO, LDA. (500425299)","6.750,00 €",20-02-2012,14-02-2012,30 dias,"Portugal, Lisboa, Vila Franca de Xira","Artigo 24.º, n.º 1, alínea e) do Código dos Contratos Públicos","","",,,,Não aplicável.,Não aplicável.,
"Prestação de serviços de secretariado clínico para o ACES IV - Oeiras, em regime de outsourcing. Período de 02/11/2011 até 31/12/2011.",Ajuste Direto Regime Geral,Aquisição de serviços,"98390000-3, Outros serviços","Administração Regional de Saúde de Lisboa e Vale do Tejo, I.P. (503148776)","AUTSOURCE - PRESTAÇAO DE SERVIÇOS, ORGANIZAÇAO E ADMINISTRACAO DE PESSOAL (504136992)","9.938,00 €",20-02-2012,30-12-2011,60 dias,"Portugal, Lisboa, Oeiras","Artigo 24.º, n.º 1, alínea e) do Código dos Contratos Públicos","","",,,,Não aplicável.,Não aplicável.,
"Aquisição de serviços de mudanças no Edificio CDP de Vila Franca de Xira. Reorganização do Piso O e transferência do 1º Piso, com recolha total do excedente para Alverca e Povoa de Stª Iria.",Ajuste Direto Regime Geral,Aquisição de serviços,"98390000-3, Outros serviços","Administração Regional de Saúde de Lisboa e Vale do Tejo, I.P. (503148776)","TRANSPORTES BARATA & CARVALHO, LDA. (500425299)","4.800,00 €",20-02-2012,14-02-2012,1 dias,"Portugal, Lisboa, Vila Franca de Xira","Artigo 20.º, n.º 1, alínea a) do Código dos Contratos Públicos","","",,,,Não aplicável.,Não aplicável.,
Mudança do CDP de Vila Franca de Xira para o novo edificio do CS de Vila Franca de Xira.,Ajuste Direto Regime Geral,Aquisição de serviços,"98390000-3, Outros serviços","Administração Regional de Saúde de Lisboa e Vale do Tejo, I.P. (503148776)","TRANSPORTES BARATA & CARVALHO, LDA. (500425299)","4.500,00 €",20-02-2012,14-02-2012,30 dias,"Portugal, Lisboa, Vila Franca de Xira","Artigo 24.º, n.º 1, alínea e) do Código dos Contratos Públicos","","",,,,Não aplicável.,Não aplicável.,
"Prestação de serviços de secretariado clínico para o ACES XVIII - Oeste Sul, em regime de outsourcing. Período de 02/11/2011 até 31/12/2011.",Ajuste Direto Regime Geral,Aquisição de serviços,"98390000-3, Outros serviços","Administração Regional de Saúde de Lisboa e Vale do Tejo, I.P. (503148776)","KELLY SERVICES - GESTÃO DE PROCESSOS, LDA. (506434770)","18.121,54 €",20-02-2012,26-12-2011,60 dias,"Portugal, Lisboa, Arruda dos Vinhos<BR/>Portugal, Lisboa, Lourinhã<BR/>Portugal, Lisboa, Sobral de Monte Agraço<BR/>Portugal, Lisboa, Alenquer<BR/>Portugal, Lisboa, Cadaval<BR/>Portugal, Lisboa, Torres Vedras","Artigo 24.º, n.º 1, alínea e) do Código dos Contratos Públicos","","",,,,Não aplicável.,Não aplicável.,
"Prestação de serviços de secretariado clínico para o ACES I - Lisboa Norte, em regime de outsourcing. Período de 02/11/2011 até 31/12/2011.",Ajuste Direto Regime Geral,Aquisição de serviços,"98390000-3, Outros serviços","Administração Regional de Saúde de Lisboa e Vale do Tejo, I.P. (503148776)","KELLY SERVICES - GESTÃO DE PROCESSOS, LDA. (506434770)","19.321,70 €",17-02-2012,26-12-2011,60 dias,"Portugal, Lisboa, Lisboa","Artigo 24.º, n.º 1, alínea e) do Código dos Contratos Públicos","","",,,,Não aplicável.,Não aplicável.,
"Prestação de serviços de secretariado clínico para o ACES IX - Algueirão/Rio de Mouro, em regime de outsourcing. Período de 02/11/2011 até 31/12/2011.",Ajuste Direto Regime Geral,Aquisição de serviços,"98390000-3, Outros serviços","Administração Regional de Saúde de Lisboa e Vale do Tejo, I.P. (503148776)","STRONG PEOPLE, LDA. (509538630)","7.859,20 €",16-02-2012,30-12-2011,60 dias,"Portugal, Lisboa, Sintra","Artigo 24.º, n.º 1, alínea e) do Código dos Contratos Públicos","","",,,,Não aplicável.,Não aplicável.,
"Prestação de serviços de secretariado clínico para o ACES VI - Loures, em regime de outsourcing. Período de 02/11/2011 até 31/12/2011.",Ajuste Direto Regime Geral,Aquisição de serviços,"98390000-3, Outros serviços","Administração Regional de Saúde de Lisboa e Vale do Tejo, I.P. (503148776)","STRONG PEOPLE, LDA. (509538630)","17.742,92 €",16-02-2012,30-12-2011,60 dias,"Portugal, Lisboa, Loures","Artigo 24.º, n.º 1, alínea e) do Código dos Contratos Públicos","","",,,,Não aplicável.,Não aplicável.,
Aquisição de gás propano a granel para utilização na UCSP de Torres Novas,Ajuste Direto Regime Geral,Aquisição de bens móveis,"09122100-1, Gás propano","Administração Regional de Saúde de Lisboa e Vale do Tejo, I.P. (503148776)","Petrogal- Petroleos de Portugal, S.A. (500697370)","1.490,85 €",14-02-2012,02-02-2012,5 dias,"Portugal, Santarém, Torres Novas","Artigo 24.º, n.º 1, alínea e) do Código dos Contratos Públicos",02-02-2012,"1.490,85 €",,,,Não aplicável.,Não aplicável.,
Revisão da viatura Citroen Saxo 46-13-JI (Peças e mão de obra),Ajuste Direto Regime Geral,Aquisição de serviços,"50110000-9, Serviços de reparação e manutenção de veículos e equipamento afim","Administração Regional de Saúde de Lisboa e Vale do Tejo, I.P. (503148776)","Abel Faria Lourenço & Filhos, Lda (502004118)","513,63 €",14-02-2012,02-02-2012,15 dias,"Portugal, Santarém, Ourém","Artigo 24.º, n.º 1, alínea e) do Código dos Contratos Públicos",09-02-2012,"513,63 €",,,,Não aplicável.,Não aplicável.,
"Reparação do portão da garagem da USF Locomotiva, que após a inundação deixou de funcionar (contrato misto - mão de obra, deslocação e material aplicado)",Ajuste Direto Regime Geral,Aquisição de serviços,"50000000-5, Serviços de reparação e manutenção","Administração Regional de Saúde de Lisboa e Vale do Tejo, I.P. (503148776)","ISOLPORTA - Materiais de Construção, Lda (504430777)","440,03 €",14-02-2012,13-01-2012,15 dias,"Portugal, Santarém, Entroncamento","Artigo 24.º, n.º 1, alínea e) do Código dos Contratos Públicos",07-02-2012,"440,03 €",,,,Não aplicável.,Não aplicável.,
"Reparação da fotocopiadora NASHUATEC mod. 3522 , da UCSP de Alcanena (contrato misto- mão de obra, deslocação e peças)",Ajuste Direto Regime Geral,Aquisição de serviços,"50313100-3, Serviços de reparação de fotocopiadoras","Administração Regional de Saúde de Lisboa e Vale do Tejo, I.P. (503148776)","Beltrão Coelho Equipamento de Escritório, Lda (502515350)","211,00 €",14-02-2012,19-01-2012,15 dias,"Portugal, Santarém, Alcanena","Artigo 24.º, n.º 1, alínea e) do Código dos Contratos Públicos",07-02-2012,"211,00 €",,,,Não aplicável.,Não aplicável.,
"O fax que se encontrava na UCSP do Entroncamento avariou, ficando a sua reparação muito superior à aquisição de um equipamento novo com as mesmas caracteristicas.",Ajuste Direto Regime Geral,Aquisição de bens móveis,"30190000-7, Equipamento e material de escritório diverso","Administração Regional de Saúde de Lisboa e Vale do Tejo, I.P. (503148776)","Duplieme - Maquinas de escritório, Lda (501425519)","270,00 €",14-02-2012,13-01-2012,10 dias,"Portugal, Santarém, Entroncamento","Artigo 24.º, n.º 1, alínea e) do Código dos Contratos Públicos",13-01-2012,"270,00 €",,,,Não aplicável.,Não aplicável.,
"Prestação de serviços de secretariado clínico para o ACES XIV - Seixal/Sesimbra, em regime de outsourcing. Período de 02/11/2011 até 31/12/2011.",Ajuste Direto Regime Geral,Aquisição de serviços,"98390000-3, Outros serviços","Administração Regional de Saúde de Lisboa e Vale do Tejo, I.P. (503148776)","AUTSOURCE - PRESTAÇÃO DE SERVIÇOS, ORGANIZAÇÃO E ADMINISTRAÇÃO DE PESSOAL (504136992)","26.484,34 €",14-02-2012,30-12-2011,60 dias,"Portugal, Setúbal, Sesimbra<BR/>Portugal, Setúbal, Seixal","Artigo 24.º, n.º 1, alínea e) do Código dos Contratos Públicos","","",,,,Não aplicável.,Não aplicável.,
"Prestação de serviços de secretariado clínico para o ACES VI - Loures, em regime de outsourcing. Período de 02/11/2011 até 31/12/2011.",Ajuste Direto Regime Geral,Aquisição de serviços,"98390000-3, Outros serviços","Administração Regional de Saúde de Lisboa e Vale do Tejo, I.P. (503148776)","KELLY SERVICES  -  GESTÃO DE PROCESSOS, LDA. (506434770)","20.287,06 €",14-02-2012,30-12-2011,60 dias,"Portugal, Lisboa, Loures","Artigo 24.º, n.º 1, alínea e) do Código dos Contratos Públicos","","",,,,Não aplicável.,Não aplicável.,
"Aluguer de empilhador e operador para as instalações da ARSLVT,IP no período de Janeiro a Dezembro de 2012. Renovação do Contrato nº203/2011.",Ajuste Direto Regime Geral,Aquisição de serviços,"98390000-3, Outros serviços","Administração Regional de Saúde de Lisboa e Vale do Tejo, I.P. (503148776)","TRANSPORTES BARATA & CARVALHO, LDA. (500425299)","21.252,00 €",14-02-2012,06-02-2012,366 dias,"Portugal, Lisboa","Artigo 20.º, n.º 1, alínea a) do Código dos Contratos Públicos","","",,,,Não aplicável.,Não aplicável.,
Renovação de assinatura das publicações oficiais - ano de 2012,Ajuste Direto Regime Geral,Aquisição de serviços,"98390000-3, Outros serviços","Administração Regional de Saúde de Lisboa e Vale do Tejo, I.P. (503148776)","Imprensa Nacional Casa da Moeda, S.A (500792887)","172,36 €",13-02-2012,31-01-2012,366 dias,"Portugal, Lisboa, Lisboa","Artigo 24.º, n.º 1, alínea e) do Código dos Contratos Públicos","","",,,,Não aplicável.,Não aplicável.,
"Renovação das assinaturas das Publicações Oficiais, pqara o ano de 2012",Ajuste Direto Regime Geral,Aquisição de serviços,"98390000-3, Outros serviços","Administração Regional de Saúde de Lisboa e Vale do Tejo, I.P. (503148776)","Imprensa Nacional Casa da Moeda, S.A. (500792887)","1.175,61 €",13-02-2012,31-01-2012,1 dias,"Portugal, Lisboa, Lisboa","Artigo 24.º, n.º 1, alínea e) do Código dos Contratos Públicos","","",,,,Não aplicável.,Não aplicável.,
Aquisição de serviços de vigilância e segurança - ACES XXI Leziria I - Ribatejo (CS Rio Maior). Periodo de 01/01/2012 a 31/01/2012,Ajuste Direto Regime Geral,Aquisição de serviços,"79714000-2, Serviços de vigilância","Administração Regional de Saúde de Lisboa e Vale do Tejo, I.P. (503148776)","Grupo 8, Lda (500131210)","2.030,00 €",13-02-2012,09-02-2012,31 dias,"Portugal, Santarém, Santarém","Artigo 24.º, n.º 1, alínea e) do Código dos Contratos Públicos","","",,,,Não aplicável.,Não aplicável.,
Aquisição de uma prestação de serviços de vigilância e segurança no ACES VI (USF Tejo). Periodo de 01/01/2012 a 31/01/2012,Ajuste Direto Regime Geral,Aquisição de serviços,"79714000-2, Serviços de vigilância","Administração Regional de Saúde de Lisboa e Vale do Tejo, I.P. (503148776)","Prestibel - Empresa de Segurança, SA (501326456)","2.530,60 €",13-02-2012,01-02-2012,31 dias,"Portugal, Lisboa, Loures","Artigo 24.º, n.º 1, alínea e) do Código dos Contratos Públicos","","",,,,Não aplicável.,Não aplicável.,
Aquisição de DIU Cobre 380T,Ajuste Direto Regime Geral,Aquisição de bens móveis,"33690000-3, Medicamentos vários","Administração Regional de Saúde de Lisboa e Vale do Tejo, I.P. (503148776)","Clinifar, SA (503281115)","144.750,00 €",13-02-2012,01-02-2012,20 dias,"Portugal, Lisboa","Artigo 26.º, n.º 1, alínea e) do Código dos Contratos Públicos","","",,,,Não aplicável.,Não aplicável.,
"Aquisição de uma prestação de serviços de vigilância e segurança - ACES XVI Peninsula de Setúbal IV - Setúbal/Palmela (CS São Sebastião, Ext. Snato Nicolau, CS Palmela e Ext. Pinhal Novo). Periodo de 01/01/2012 a 31/01/2012",Ajuste Direto Regime Geral,Aquisição de serviços,"79714000-2, Serviços de vigilância","Administração Regional de Saúde de Lisboa e Vale do Tejo, I.P. (503148776)","Prestibel - Empresa de Segurança, SA (501326456)","3.798,00 €",13-02-2012,01-02-2012,31 dias,"Portugal, Setúbal, Palmela","Artigo 24.º, n.º 1, alínea e) do Código dos Contratos Públicos","","",,,,Não aplicável.,Não aplicável.,
Aquisição de serviços de vigilância e segurança - ACES XV Peninsula de Setúbal III - Arco Ribeirinho (CS Alcochete). Periodo de 01/01/2012 a 31/01/2012,Ajuste Direto Regime Geral,Aquisição de serviços,"79714000-2, Serviços de vigilância","Administração Regional de Saúde de Lisboa e Vale do Tejo, I.P. (503148776)","Prestibel - empresa de Segurança, SA (501326456)","1.845,00 €",13-02-2012,01-02-2012,31 dias,"Portugal, Setúbal, Alcochete","Artigo 24.º, n.º 1, alínea e) do Código dos Contratos Públicos","","",,,,Não aplicável.,Não aplicável.,
"Aquisição de serviços de vigilância e  segurança - ACES XV Peninsula de Setúbal III - Arco Ribeirinho (CS Baixa Banheira, Ext. Vale da Amoreira, CS Moita, Ext. Alhos Vedros, Ext. Afonseiro e CS Quinta da Lomba). Periodo de 01/01/2012 a 31/01/2012",Ajuste Direto Regime Geral,Aquisição de serviços,"79714000-2, Serviços de vigilância","Administração Regional de Saúde de Lisboa e Vale do Tejo, I.P. (503148776)","Prestibel - Empresa de Segurança, SA (501326456)","2.980,00 €",13-02-2012,01-02-2012,31 dias,"Portugal, Setúbal, Moita","Artigo 24.º, n.º 1, alínea e) do Código dos Contratos Públicos","","",,,,Não aplicável.,Não aplicável.,
Aquisição de uma prestação de serviços de vigilância e segurança no ACES XVIII (CS Monte Agraço e Ext. Sapataria). Periodo de 01/01/2012 a 31/01/2012,Ajuste Direto Regime Geral,Aquisição de serviços,"79714000-2, Serviços de vigilância","Administração Regional de Saúde de Lisboa e Vale do Tejo, I.P. (503148776)","Prestibel - Empresa de Segurança, SA (501326456)","6.165,00 €",13-02-2012,01-02-2012,31 dias,"Portugal, Lisboa, Sobral de Monte Agraço","Artigo 24.º, n.º 1, alínea e) do Código dos Contratos Públicos","","",,,,Não aplicável.,Não aplicável.,
Recolha e transporte de resíduos.,Ajuste Direto Regime Geral,Aquisição de serviços,"98390000-3, Outros serviços","Administração Regional de Saúde de Lisboa e Vale do Tejo, I.P. (503148776)","TRANSPORTES EVARISTO LUÍS, LDA. (504878808)","10.000,00 €",13-02-2012,04-02-2012,2 dias,"Portugal, Lisboa, Lisboa","Artigo 20.º, n.º 1, alínea a) do Código dos Contratos Públicos","","",,,,Não aplicável.,Não aplicável.,
"Aquisição de serviços de vigilância e segurança - ACES XXI Leziria I - Ribatejo (CS Santarém, USF São Domingos e USF Cartaxo Terra Viva). Periodo de 01/01/2012 a 31/01/2012",Ajuste Direto Regime Geral,Aquisição de serviços,"79710000-4, Serviços de segurança","Administração Regional de Saúde de Lisboa e Vale do Tejo, I.P. (503148776)","Charon -  Prestação de Serviços de Segurança e Vigilância, SA (501718540)","5.912,30 €",13-02-2012,09-02-2012,31 dias,"Portugal, Santarém, Santarém","Artigo 26.º, n.º 1, alínea e) do Código dos Contratos Públicos","","",,,,Não aplicável.,Não aplicável.,
"Serviço de emissão de certificados de autenticação, assinatura e confidencialidade - Ano de 2011.",Ajuste Direto Regime Geral,Aquisição de serviços,"98390000-3, Outros serviços","Administração Regional de Saúde de Lisboa e Vale do Tejo, I.P. (503148776)",CEGER - CENTRO DE GESTÃO DA REDE INFORMATICA DO GOVERNO (600055639),"450,00 €",13-02-2012,30-01-2012,365 dias,"Portugal, Lisboa, Sintra<BR/>Portugal, Lisboa, Lisboa<BR/>Portugal, Lisboa, Loures<BR/>Portugal, Santarém","Artigo 24.º, n.º 1, alínea e) do Código dos Contratos Públicos","","",,,,Não aplicável.,Não aplicável.,
Serviço de fornecimento de telecomunicações para o Laboratório de Saúde Pública de Alcântara para o ano de 2012,Ajuste Direto Regime Geral,Aquisição de serviços,"64200000-8, Serviços de telecomunicações","Administração Regional de Saúde de Lisboa e Vale do Tejo, I.P. (503148776)",PT Comunicações SA (504615947),"2.024,76 €",13-02-2012,13-01-2012,366 dias,"Portugal, Lisboa, Lisboa","Artigo 24.º, n.º 1, alínea e) do Código dos Contratos Públicos","","",,,,Não aplicável.,Não aplicável.,
Serviço de fornecimento de telecomunicações para a sanidade Maritima da Rocha Conde de Óbidos para o ano de 2012,Ajuste Direto Regime Geral,Aquisição de serviços,"64200000-8, Serviços de telecomunicações","Administração Regional de Saúde de Lisboa e Vale do Tejo, I.P. (503148776)",PT Comunicações SA (504615947),"3.573,60 €",13-02-2012,13-01-2012,366 dias,"Portugal, Lisboa, Lisboa","Artigo 24.º, n.º 1, alínea e) do Código dos Contratos Públicos","","",,,,Não aplicável.,Não aplicável.,
Aquisição Vancomicina e Cefoxitina,Ajuste Direto Regime Geral,Aquisição de bens móveis,"33690000-3, Medicamentos vários","Administração Regional de Saúde de Lisboa e Vale do Tejo, I.P. (503148776)","Labesfal, SA (501169580)","87,25 €",13-02-2012,13-02-2012,20 dias,"Portugal, Lisboa","Artigo 26.º, n.º 1, alínea e) do Código dos Contratos Públicos","","",,,,Não aplicável.,Não aplicável.,
"Aquisição de uma prestação de serviços de vigilância e segurança no ACES XIV (Ext. corroios, Ext. Corroios - Moinho da Maré, Ext. Seixal, USF FF-Mais (Fernão Ferro) e USF Pinhal de Frades). Periodo de 02/01/2012 a 31/01/2012",Ajuste Direto Regime Geral,Aquisição de serviços,"79700000-1, Serviços de investigação e segurança","Administração Regional de Saúde de Lisboa e Vale do Tejo, I.P. (503148776)","Prestibel - Empresa de Segurança, SA (501326456)","2.971,60 €",13-02-2012,01-02-2012,31 dias,"Portugal, Setúbal, Seixal","Artigo 24.º, n.º 1, alínea e) do Código dos Contratos Públicos","","",,,,Não aplicável.,Não aplicável.,
Serviço de fornecimento de telecomunicações Av.EUA 75-ano 2012,Ajuste Direto Regime Geral,Aquisição de serviços,"64200000-8, Serviços de telecomunicações","Administração Regional de Saúde de Lisboa e Vale do Tejo, I.P. (503148776)",PT Comunicações SA (504615947),"40.159,68 €",13-02-2012,13-01-2012,366 dias,"Portugal, Lisboa, Lisboa","Artigo 24.º, n.º 1, alínea e) do Código dos Contratos Públicos","","",,,,Não aplicável.,Não aplicável.,
Aquisição de Mepivacaina e Adrenalina,Ajuste Direto Regime Geral,Aquisição de bens móveis,"33690000-3, Medicamentos vários","Administração Regional de Saúde de Lisboa e Vale do Tejo, I.P. (503148776)",Laboratorios Inibsa (500139571),"3.568,00 €",13-02-2012,13-02-2012,20 dias,"Portugal, Lisboa","Artigo 24.º, n.º 1, alínea e) do Código dos Contratos Públicos","","",,,,Não aplicável.,Não aplicável.,
Aquisição de uma prestação de serviços de vigilância e segurança no ACES V (USF Ramada). Periodo de 02/01/2012 a 31/01/2012,Ajuste Direto Regime Geral,Aquisição de serviços,"79714000-2, Serviços de vigilância","Administração Regional de Saúde de Lisboa e Vale do Tejo, I.P. (503148776)","Prestibel . Empresa de Segurança, SA (501326456)","1.994,70 €",13-02-2012,01-02-2012,31 dias,"Portugal, Lisboa, Odivelas","Artigo 24.º, n.º 1, alínea e) do Código dos Contratos Públicos","","",,,,Não aplicável.,Não aplicável.,
"Serviço de fornecimento de telecomunicações para a Av. EUA, 77 para o ano de 2012",Ajuste Direto Regime Geral,Aquisição de serviços,"64200000-8, Serviços de telecomunicações","Administração Regional de Saúde de Lisboa e Vale do Tejo, I.P. (503148776)",PT Comunicações SA (504615947),"720,00 €",13-02-2012,13-01-2012,366 dias,"Portugal, Lisboa, Lisboa","Artigo 24.º, n.º 1, alínea e) do Código dos Contratos Públicos","","",,,,Não aplicável.,Não aplicável.,
Aquisição de serviços de vigilância e segurança no ACES II ( Ext. Lóios e Agrupamento Lisboa Oriental). Periodo de 01/01/2012 a 31/01/2012,Ajuste Direto Regime Geral,Aquisição de serviços,"79714000-2, Serviços de vigilância","Administração Regional de Saúde de Lisboa e Vale do Tejo, I.P. (503148776)","Prestibel - Empresa de Segurança, S.A (501326456)","8.122,50 €",13-02-2012,01-02-2012,31 dias,"Portugal, Lisboa, Lisboa","Artigo 24.º, n.º 1, alínea e) do Código dos Contratos Públicos","","",,,,Não aplicável.,Não aplicável.,
"Serviço de fornecimento de telecomunicações para Av.EUA, Lt 53D(Reprografia e Arquivo) para o ano de 2012",Ajuste Direto Regime Geral,Aquisição de serviços,"64200000-8, Serviços de telecomunicações","Administração Regional de Saúde de Lisboa e Vale do Tejo, I.P. (503148776)",PT Comunicações SA (504615947),"449,88 €",13-02-2012,13-01-2012,366 dias,"Portugal, Lisboa, Lisboa","Artigo 24.º, n.º 1, alínea e) do Código dos Contratos Públicos","","",,,,Não aplicável.,Não aplicável.,
"Serviço de fornecimento de telecomunicações para a central telefonica-Serviços centrais da ARSLVT, IP-Edf.53, 75 e 77 para o ano de 2012",Ajuste Direto Regime Geral,Aquisição de serviços,"64200000-8, Serviços de telecomunicações","Administração Regional de Saúde de Lisboa e Vale do Tejo, I.P. (503148776)",PT Comunicações SA (504615947),"1.183,20 €",13-02-2012,13-01-2012,366 dias,"Portugal, Lisboa, Lisboa","Artigo 24.º, n.º 1, alínea e) do Código dos Contratos Públicos","","",,,,Não aplicável.,Não aplicável.,
Aquisição de Piridoxina 300mg,Ajuste Direto Regime Geral,Aquisição de bens móveis,"33690000-3, Medicamentos vários","Administração Regional de Saúde de Lisboa e Vale do Tejo, I.P. (503148776)","Bayer Portugal, SA (500043256)","1.200,00 €",13-02-2012,13-02-2012,20 dias,"Portugal, Lisboa","Artigo 24.º, n.º 1, alínea e) do Código dos Contratos Públicos","","",,,,Não aplicável.,Não aplicável.,
"Serviço de fornecimento de comunicações móveis e placas 3G para ARSLVT, IP,Av.EUA 75, 77-ano de 2012",Ajuste Direto Regime Geral,Aquisição de serviços,"64210000-1, Serviços telefónicos e de transmissão de dados","Administração Regional de Saúde de Lisboa e Vale do Tejo, I.P. (503148776)","TMN-Telecomunicações Móveis Nacionais, SA (502600268)","37.800,00 €",13-02-2012,13-01-2012,366 dias,"Portugal, Lisboa, Lisboa","Artigo 24.º, n.º 1, alínea e) do Código dos Contratos Públicos","","",,,,Não aplicável.,Não aplicável.,
"Serviço de fornecimento de comunicações para a ARSLVT, IP, Av EUA, 75-ano de 2012",Ajuste Direto Regime Geral,Aquisição de serviços,"64200000-8, Serviços de telecomunicações","Administração Regional de Saúde de Lisboa e Vale do Tejo, I.P. (503148776)","TMN-Telecomunicações Móveis Nacionais, SA (502600268)","35.772,00 €",13-02-2012,13-01-2012,366 dias,"Portugal, Lisboa, Lisboa","Artigo 24.º, n.º 1, alínea e) do Código dos Contratos Públicos","","",,,,Não aplicável.,Não aplicável.,
Reparação Sistema AVAC - UCSP de Almeirim<br />- Substituição de filtros G4 555x620x25,Ajuste Direto Regime Geral,Aquisição de serviços,"50000000-5, Serviços de reparação e manutenção","Administração Regional de Saúde de Lisboa e Vale do Tejo, I.P. (503148776)",SUCH (500900469),"215,00 €",13-02-2012,23-01-2012,1 dias,"Portugal, Santarém, Almeirim","Artigo 24.º, n.º 1, alínea e) do Código dos Contratos Públicos",24-01-2012,"215,00 €",,,,Não aplicável.,Não aplicável.,
"Aquisição de serviço de televisão por cabo para ARSLVT, IP, periodo compreendido entre Janeiro e Dezembro de 2012",Ajuste Direto Regime Geral,Aquisição de serviços,"98390000-3, Outros serviços","Administração Regional de Saúde de Lisboa e Vale do Tejo, I.P. (503148776)","Tv cabo portugal, SA (503039063)","592,92 €",13-02-2012,13-01-2012,366 dias,"Portugal, Lisboa, Lisboa","Artigo 24.º, n.º 1, alínea e) do Código dos Contratos Públicos","","",,,,Não aplicável.,Não aplicável.,
Reparação Sistema AVAC - Unidade de saúde do Couço<br />- Substituição de filtros G4 420x485x48<br />- Substituição de filtros de bolsa F5 485x423x636,Ajuste Direto Regime Geral,Aquisição de serviços,"50000000-5, Serviços de reparação e manutenção","Administração Regional de Saúde de Lisboa e Vale do Tejo, I.P. (503148776)",SUCH (500900469),"84,00 €",13-02-2012,16-01-2012,1 dias,"Portugal, Santarém, Coruche","Artigo 24.º, n.º 1, alínea e) do Código dos Contratos Públicos",24-01-2012,"84,00 €",,,,Não aplicável.,Não aplicável.,
