Objeto do Contrato,Tipo de Procedimento,Tipo(s) de Contrato,CPVs,Entidade(s) Adjudicante(s),Entidade(s) Adjudicatária(s),Preço Contratual,Data de Publicação,Data de Celebração do Contrato,Prazo de Execução,Local de Execução,Fundamentação,Data de Fecho do Contrato,Preço Total Efetivo,Causas das Alterações ao Prazo,Causas das Alterações ao Preço,Estado,N.º registo do Acordo Quadro,Descrição do Acordo Quadro,Procedimento Centralizado
MEDICAMENTOS,Ajuste Direto Regime Geral,Aquisição de bens móveis,"33000000-0, Equipamento médico, medicamentos e produtos para cuidados pessoais","Unidade Local de Saúde do Norte Alentejano, E. P. E. (508094461)","NOVARTIS FARMA-PROD.FARMACÊUTICOS,SA.              (500063524)","7.394,16 €",11-05-2017,21-03-2017,30 dias,"Portugal, Portalegre, Portalegre<BR/>Portugal, Portalegre, Elvas","Artigo 20.º, n.º 1, alínea a) do Código dos Contratos Públicos","","",,"",,Não aplicável.,Não aplicável.,FALSE
MEDICAMENTOS,Ajuste Direto Regime Geral,Aquisição de bens móveis,"33000000-0, Equipamento médico, medicamentos e produtos para cuidados pessoais","Unidade Local de Saúde do Norte Alentejano, E. P. E. (508094461)",IPSEN PORTUGAL-PRODUTOS FARMACÊUTICOS SA.          (502609800),"7.417,20 €",11-05-2017,21-03-2017,30 dias,"Portugal, Portalegre, Portalegre<BR/>Portugal, Portalegre, Elvas","Artigo 20.º, n.º 1, alínea a) do Código dos Contratos Públicos","","",,"",,Não aplicável.,Não aplicável.,FALSE
MEDICAMENTOS,Ajuste Direto Regime Geral,Aquisição de bens móveis,"33000000-0, Equipamento médico, medicamentos e produtos para cuidados pessoais","Unidade Local de Saúde do Norte Alentejano, E. P. E. (508094461)","ASTRAZENECA-PRODUTOS FARMACÊUTICOS,LDA.            (502942240)","7.589,20 €",11-05-2017,21-03-2017,30 dias,"Portugal, Portalegre, Portalegre<BR/>Portugal, Portalegre, Elvas","Artigo 20.º, n.º 1, alínea a) do Código dos Contratos Públicos","","",,"",,Não aplicável.,Não aplicável.,FALSE
MEDICAMNETOS,Ajuste Direto Regime Geral,Aquisição de bens móveis,"33000000-0, Equipamento médico, medicamentos e produtos para cuidados pessoais","Unidade Local de Saúde do Norte Alentejano, E. P. E. (508094461)",KEDRION PORTUGAL                                   (508472830),"7.200,00 €",11-05-2017,28-03-2017,30 dias,"Portugal, Portalegre, Portalegre<BR/>Portugal, Portalegre, Elvas","Artigo 20.º, n.º 1, alínea a) do Código dos Contratos Públicos","","",,"",,Não aplicável.,Não aplicável.,FALSE
MEDICAMENTOS,Ajuste Direto Regime Geral,Aquisição de bens móveis,"33000000-0, Equipamento médico, medicamentos e produtos para cuidados pessoais","Unidade Local de Saúde do Norte Alentejano, E. P. E. (508094461)","ASTELLAS FARMA, LDA.                               (502540249)","5.486,02 €",10-05-2017,21-03-2017,30 dias,"Portugal, Portalegre, Elvas<BR/>Portugal, Portalegre, Portalegre","Artigo 20.º, n.º 1, alínea a) do Código dos Contratos Públicos","","",,"",,Não aplicável.,Não aplicável.,FALSE
MEDICAMENTOS,Ajuste Direto Regime Geral,Aquisição de bens móveis,"33000000-0, Equipamento médico, medicamentos e produtos para cuidados pessoais","Unidade Local de Saúde do Norte Alentejano, E. P. E. (508094461)","SANOFI- PRODUTOS FARMACÊUTICOS,LDA.                (500134960)","7.942,00 €",10-05-2017,15-03-2017,30 dias,"Portugal, Portalegre, Portalegre<BR/>Portugal, Portalegre, Elvas","Artigo 24.º, n.º 1, alínea e) do Código dos Contratos Públicos","","",,"",,Não aplicável.,Não aplicável.,FALSE
MEDICAMENTOS,Ajuste Direto Regime Geral,Aquisição de bens móveis,"33000000-0, Equipamento médico, medicamentos e produtos para cuidados pessoais","Unidade Local de Saúde do Norte Alentejano, E. P. E. (508094461)","SANOFI- PRODUTOS FARMACÊUTICOS,LDA.                (500134960)","7.942,00 €",10-05-2017,15-03-2017,30 dias,"Portugal, Portalegre, Portalegre<BR/>Portugal, Portalegre, Elvas","Artigo 24.º, n.º 1, alínea e) do Código dos Contratos Públicos","","",,"",,Não aplicável.,Não aplicável.,FALSE
MEDICAMENTOS,Ajuste Direto Regime Geral,Aquisição de bens móveis,"33000000-0, Equipamento médico, medicamentos e produtos para cuidados pessoais","Unidade Local de Saúde do Norte Alentejano, E. P. E. (508094461)","SANOFI- PRODUTOS FARMACÊUTICOS,LDA.                (500134960)","7.942,00 €",10-05-2017,07-03-2017,30 dias,"Portugal, Portalegre, Portalegre<BR/>Portugal, Portalegre, Elvas","Artigo 24.º, n.º 1, alínea e) do Código dos Contratos Públicos","","",,"",,Não aplicável.,Não aplicável.,FALSE
MEDICAMENTOS,Ajuste Direto Regime Geral,Aquisição de bens móveis,"33000000-0, Equipamento médico, medicamentos e produtos para cuidados pessoais","Unidade Local de Saúde do Norte Alentejano, E. P. E. (508094461)",ROCHE SISTEMA DE DIAGNOSTICOS                      (504282921),"6.693,00 €",10-05-2017,01-03-2017,30 dias,"Portugal, Portalegre, Portalegre<BR/>Portugal, Portalegre, Elvas","Artigo 24.º, n.º 1, alínea e) do Código dos Contratos Públicos","","",,"",,Não aplicável.,Não aplicável.,FALSE
MEDICAMENTOS,Ajuste Direto Regime Geral,Aquisição de bens móveis,"33000000-0, Equipamento médico, medicamentos e produtos para cuidados pessoais","Unidade Local de Saúde do Norte Alentejano, E. P. E. (508094461)",ROCHE SISTEMA DE DIAGNOSTICOS                      (504282921),"6.693,00 €",10-05-2017,01-03-2017,30 dias,"Portugal, Portalegre, Elvas<BR/>Portugal, Portalegre, Portalegre","Artigo 24.º, n.º 1, alínea e) do Código dos Contratos Públicos","","",,"",,Não aplicável.,Não aplicável.,FALSE
MEDICAMENTOS,Ajuste Direto Regime Geral,Aquisição de bens móveis,"33000000-0, Equipamento médico, medicamentos e produtos para cuidados pessoais","Unidade Local de Saúde do Norte Alentejano, E. P. E. (508094461)","SANOFI- PRODUTOS FARMACÊUTICOS,LDA.                (500134960)","7.942,00 €",10-05-2017,01-03-2017,30 dias,"Portugal, Portalegre, Portalegre<BR/>Portugal, Portalegre, Elvas","Artigo 24.º, n.º 1, alínea e) do Código dos Contratos Públicos","","",,"",,Não aplicável.,Não aplicável.,FALSE
MEDICAMENTOS,Ajuste Direto Regime Geral,Aquisição de bens móveis,"33000000-0, Equipamento médico, medicamentos e produtos para cuidados pessoais","Unidade Local de Saúde do Norte Alentejano, E. P. E. (508094461)","ACTELION PHARMACEUTICALS PORTUGAL, LDA             (507336488)","5.476,80 €",10-05-2017,01-03-2017,30 dias,"Portugal, Portalegre, Elvas<BR/>Portugal, Portalegre, Portalegre","Artigo 24.º, n.º 1, alínea e) do Código dos Contratos Públicos","","",,"",,Não aplicável.,Não aplicável.,FALSE
REAGENTES,Ajuste Direto Regime Geral,Aquisição de bens móveis,"33000000-0, Equipamento médico, medicamentos e produtos para cuidados pessoais","Unidade Local de Saúde do Norte Alentejano, E. P. E. (508094461)",THERMO FISHER DIAGNOSTICS (506916243),"5.594,94 €",10-05-2017,07-03-2017,30 dias,"Portugal, Portalegre, Portalegre<BR/>Portugal, Portalegre, Elvas","Artigo 24.º, n.º 1, alínea e) do Código dos Contratos Públicos","","",,"",,Não aplicável.,Não aplicável.,FALSE
MEDIACMENTOS,Ajuste Direto Regime Geral,Aquisição de bens móveis,"33000000-0, Equipamento médico, medicamentos e produtos para cuidados pessoais","Unidade Local de Saúde do Norte Alentejano, E. P. E. (508094461)","PFIZER BIOFARMACEUTICA, SOCIEDADE UNIPESSOAL, LDA (513300376)","8.699,96 €",10-05-2017,01-03-2017,30 dias,"Portugal, Portalegre, Portalegre<BR/>Portugal, Portalegre, Elvas","Artigo 24.º, n.º 1, alínea e) do Código dos Contratos Públicos","","",,"",,Não aplicável.,Não aplicável.,FALSE
MEDICAMENTOS,Ajuste Direto Regime Geral,Aquisição de bens móveis,"33000000-0, Equipamento médico, medicamentos e produtos para cuidados pessoais","Unidade Local de Saúde do Norte Alentejano, E. P. E. (508094461)","SANOFI- PRODUTOS FARMACÊUTICOS,LDA.                (500134960)","11.913,00 €",10-05-2017,01-03-2017,30 dias,"Portugal, Portalegre, Portalegre<BR/>Portugal, Portalegre, Elvas","Artigo 24.º, n.º 1, alínea e) do Código dos Contratos Públicos","","",,"",,Não aplicável.,Não aplicável.,FALSE
REAGENTES,Ajuste Direto Regime Geral,Aquisição de bens móveis,"33000000-0, Equipamento médico, medicamentos e produtos para cuidados pessoais","Unidade Local de Saúde do Norte Alentejano, E. P. E. (508094461)",ROCHE SISTEMA DE DIAGNOSTICOS                      (504282921),"8.031,60 €",09-05-2017,07-03-2017,30 dias,"Portugal, Portalegre, Elvas<BR/>Portugal, Portalegre, Portalegre","Artigo 24.º, n.º 1, alínea e) do Código dos Contratos Públicos","","",,"",,Não aplicável.,Não aplicável.,FALSE
"Fornecimento de Material para Empacotamento em Esterilização, à ULSNA, EPE (2017)",Ao abrigo de acordo-quadro (art.º 259.º),Aquisição de bens móveis,"33198200-6, Saquetas e invólucros de papel para esterilização","Unidade Local de Saúde do N. Alentejano,EPE(ULSNA) (508094461)",Johnson & Johnson Medical (500153370),"270,00 €",09-05-2017,13-04-2017,245 dias,"Portugal, Portalegre, Elvas<BR/>Portugal, Portalegre, Portalegre",Artigo 259.º do Código dos Contratos Públicos,31-12-2017,"270,00 €",,"",,1974943,CP 2016/43 - Acordo quadro para fornecimento de Material para Empacotamento em Esterilização às Instituições e Serviços do Serviço Nacional de Saúde.,FALSE
AQUISIÇÃO DE DIVERSO MATERIAL DE ECONOMATO AO ABRIGO DO ACORDO QUADRO COM A ESPAP.,Ao abrigo de acordo-quadro (art.º 259.º),Aquisição de bens móveis,"30192700-8, Artigos de papelaria","Unidade Local de Saúde do Norte Alentejano, E. P. E. (508094461)","Olmar (508831989), OHM (504059521)","869,83 €",08-05-2017,07-04-2017,365 dias,"Portugal, Portalegre",Artigo 259.º do Código dos Contratos Públicos,"","",,"",,1351201,Acordo quadro de fornecimento de papel e economato,TRUE
"Aquisição de papel e Economato ao abrigo do Lote 1 e 2 do """"Acordo Quadro para Fornecimento de Papel e Economato"""" da ESPAP para as entidades do Serviço Nacional de Saúde",Ao abrigo de acordo-quadro (art.º 259.º),Aquisição de bens móveis,"30197630-1, Papel para impressão","Unidade Local de Saúde do Norte Alentejano, E. P. E. (508094461)",STAPLES OFFICE CENTER PORTUGAL (503789372),"23.257,00 €",08-05-2017,17-04-2017,365 dias,"Portugal, Portalegre",Artigo 259.º do Código dos Contratos Públicos,29-12-2017,"23.257,00 €",,"",,1351201,Acordo quadro de fornecimento de papel e economato,TRUE
MEDICAMENTOS,Ajuste Direto Regime Geral,Aquisição de bens móveis,"33000000-0, Equipamento médico, medicamentos e produtos para cuidados pessoais","Unidade Local de Saúde do Norte Alentejano, E. P. E. (508094461)","PFIZER BIOFARMACEUTICA, SOCIEDADE UNIPESSOAL, LDA (513300376)","9.475,20 €",08-05-2017,15-03-2017,30 dias,"Portugal, Portalegre, Portalegre<BR/>Portugal, Portalegre, Elvas","Artigo 20.º, n.º 1, alínea a) do Código dos Contratos Públicos","","",,"",,Não aplicável.,Não aplicável.,FALSE
MEDICAMENTOS,Ajuste Direto Regime Geral,Aquisição de bens móveis,"33000000-0, Equipamento médico, medicamentos e produtos para cuidados pessoais","Unidade Local de Saúde do Norte Alentejano, E. P. E. (508094461)","JANSSEN CILAG FARMACEUTICA, LDA.                   (500189412)","8.778,39 €",08-05-2017,15-03-2017,30 dias,"Portugal, Portalegre, Elvas<BR/>Portugal, Portalegre, Portalegre","Artigo 20.º, n.º 1, alínea a) do Código dos Contratos Públicos","","",,"",,Não aplicável.,Não aplicável.,FALSE
"51001417 - P259-AC-2017- 79 - AQUISIÇÃO DE MEDICAMENTOS DESENCADEADA PELA SPMS,EPE NO ÂMBITO DO DESPACHO 1571/B 2016 -  I251 - INFLIXIMAB",Ao abrigo de acordo-quadro (art.º 259.º),Aquisição de bens móveis,"33000000-0, Equipamento médico, medicamentos e produtos para cuidados pessoais","Unidade Local de Saúde do Norte Alentejano, E. P. E. (508094461)","PHARMAKERN PORTUGAL, LDA.                          (507002571)","5.130,50 €",08-05-2017,08-05-2017,365 dias,"Portugal, Portalegre, Elvas<BR/>Portugal, Portalegre, Portalegre",Artigo 259.º do Código dos Contratos Públicos,31-12-2017,"5.130,50 €",,"",,1771819,CP 2015/6 - Acordo quadro para o fornecimento de Medicamentos do Foro Oncológico,FALSE
"Aquisição de Exames ao Exterior de Ressonância Magnética para a ULSNA, EPE",Ajuste Direto Regime Geral,Aquisição de serviços,"85000000-9, Serviços de saúde e acção social","Unidade Local de Saúde do Norte Alentejano, E. P. E. (508094461)",Remagna (508563682),"149.250,00 €",08-05-2017,02-05-2017,275 dias,"Portugal, Portalegre","Artigo 20.º, n.º 1, alínea a) do Código dos Contratos Públicos","","",,"",,Não aplicável.,Não aplicável.,FALSE
MEDICAMENTOS,Ajuste Direto Regime Geral,Aquisição de bens móveis,"33000000-0, Equipamento médico, medicamentos e produtos para cuidados pessoais","Unidade Local de Saúde do Norte Alentejano, E. P. E. (508094461)","JANSSEN CILAG FARMACEUTICA, LDA.                   (500189412)","14.104,32 €",05-05-2017,15-03-2017,30 dias,"Portugal, Portalegre, Portalegre<BR/>Portugal, Portalegre, Elvas","Artigo 20.º, n.º 1, alínea a) do Código dos Contratos Públicos","","",,"",,Não aplicável.,Não aplicável.,FALSE
MEDICAMENTOS,Ajuste Direto Regime Geral,Aquisição de bens móveis,"33000000-0, Equipamento médico, medicamentos e produtos para cuidados pessoais","Unidade Local de Saúde do Norte Alentejano, E. P. E. (508094461)","SANOFI- PRODUTOS FARMACÊUTICOS,LDA.                (500134960)","14.139,00 €",05-05-2017,07-03-2017,30 dias,"Portugal, Portalegre, Elvas<BR/>Portugal, Portalegre, Portalegre","Artigo 20.º, n.º 1, alínea a) do Código dos Contratos Públicos","","",,"",,Não aplicável.,Não aplicável.,FALSE
MEDICAMENTOS,Ajuste Direto Regime Geral,Aquisição de bens móveis,"33000000-0, Equipamento médico, medicamentos e produtos para cuidados pessoais","Unidade Local de Saúde do Norte Alentejano, E. P. E. (508094461)","ROCHE FARMACÊUTICA QUIMICA, LDA.                   (500233810)","11.046,60 €",05-05-2017,07-03-2017,30 dias,"Portugal, Portalegre, Portalegre<BR/>Portugal, Portalegre, Elvas","Artigo 20.º, n.º 1, alínea a) do Código dos Contratos Públicos","","",,"",,Não aplicável.,Não aplicável.,FALSE
MEDICAMENTOS,Ajuste Direto Regime Geral,Aquisição de bens móveis,"33000000-0, Equipamento médico, medicamentos e produtos para cuidados pessoais","Unidade Local de Saúde do Norte Alentejano, E. P. E. (508094461)",BAXTER MEDICO - FARMACEUTICA                       (503347345),"5.940,80 €",05-05-2017,07-03-2017,30 dias,"Portugal, Portalegre, Elvas<BR/>Portugal, Portalegre, Portalegre","Artigo 20.º, n.º 1, alínea a) do Código dos Contratos Públicos","","",,"",,Não aplicável.,Não aplicável.,FALSE
"Aquisição de Envelopes de Arquivo em Tyvek, para a Unidade Local de Saúde do Norte alentejano, EPE, para o Ano 2017",Ajuste Direto Regime Geral,Aquisição de bens móveis,"22000000-0, Material impresso e afins","Unidade Local de Saúde do Norte Alentejano, E. P. E. (508094461)",COPIDATA SA (508225140),"10.998,60 €",05-05-2017,21-02-2017,365 dias,"Portugal, Portalegre","Artigo 20.º, n.º 1, alínea a) do Código dos Contratos Públicos",05-05-2017,"10.998,60 €",,"",,Não aplicável.,Não aplicável.,FALSE
"Fornecimento de Combustíveis para as Viaturas da ULSNA, EPE, pelo período 01 de janeiro de 31 de janeiro de 2017",Ajuste Direto Regime Geral,Aquisição de serviços,"76000000-3, Serviços relacionados com as indústrias do gás e do petróleo","Unidade Local de Saúde do Norte Alentejano, E. P. E. (508094461)",Petróleos de Portugal - Petrogal S.A. (500697370),"8.125,30 €",05-05-2017,21-03-2017,31 dias,"Portugal, Portalegre, Portalegre","Artigo 24.º, n.º 1, alínea c) do Código dos Contratos Públicos",21-03-2017,"8.125,30 €",,"",,Não aplicável.,Não aplicável.,FALSE
"Aquisição de Mat. de Incont. Prot. Cutânea Alivio Pressão - AQ SPMS 25/2014, para a ULSNA EPE, 2017",Ao abrigo de acordo-quadro (art.º 259.º),Aquisição de bens móveis,"33140000-3, Material médico de consumo","Unidade Local de Saúde do Norte Alentejano, E. P. E. (508094461)","AVIQUÍMICA, LDA. (500039720)","1.436,40 €",05-05-2017,21-03-2017,275 dias,"Portugal, Portalegre",Artigo 259.º do Código dos Contratos Públicos,31-12-2017,"1.436,40 €",,"",,1210117,"CONCURSO PÚBLICO PARA A CELEBRAÇÃO DE CONTRATOS PÚBLICOS DE APROVISIONAMENTO PARA A ÁREA DA SAÚDE, COM VISTA AO FORNECIMENTO DE MATERIAL DE INCONTINENCIA E ALIVIO DE PRESSÃO, ÀS INSTITUIÇÕES E SERVIÇOS DO SERVIÇO NACIONAL DE SAÚDE",FALSE
"Aquisição de Mat. de Incont. Prot. Cutânea Alivio Pressão - AQ SPMS 25/2014, para a ULSNA EPE, 2017",Ao abrigo de acordo-quadro (art.º 259.º),Aquisição de bens móveis,"33140000-3, Material médico de consumo","Unidade Local de Saúde do Norte Alentejano, E. P. E. (508094461)","Albino Dias de Andrade, Lda (ADA) (500013810)","7.693,95 €",05-05-2017,21-03-2017,275 dias,"Portugal, Portalegre",Artigo 259.º do Código dos Contratos Públicos,31-12-2017,"6.295,29 €",,Não foram adquiridas todas quantidades estimadas.,,1210117,"CONCURSO PÚBLICO PARA A CELEBRAÇÃO DE CONTRATOS PÚBLICOS DE APROVISIONAMENTO PARA A ÁREA DA SAÚDE, COM VISTA AO FORNECIMENTO DE MATERIAL DE INCONTINENCIA E ALIVIO DE PRESSÃO, ÀS INSTITUIÇÕES E SERVIÇOS DO SERVIÇO NACIONAL DE SAÚDE",FALSE
"Aquisição de Mat. de Incont. Prot. Cutânea Alivio Pressão - AQ SPMS 25/2014, para a ULSNA EPE, 2017",Ao abrigo de acordo-quadro (art.º 259.º),Aquisição de bens móveis,"33140000-3, Material médico de consumo","Unidade Local de Saúde do Norte Alentejano, E. P. E. (508094461)","Procter & Gamble Portugal - Produtos de Consumo Higiene e Saúde, SA (503037753)","32.663,50 €",05-05-2017,21-03-2017,275 dias,"Portugal, Portalegre",Artigo 259.º do Código dos Contratos Públicos,"","",,"",,1210117,"CONCURSO PÚBLICO PARA A CELEBRAÇÃO DE CONTRATOS PÚBLICOS DE APROVISIONAMENTO PARA A ÁREA DA SAÚDE, COM VISTA AO FORNECIMENTO DE MATERIAL DE INCONTINENCIA E ALIVIO DE PRESSÃO, ÀS INSTITUIÇÕES E SERVIÇOS DO SERVIÇO NACIONAL DE SAÚDE",FALSE
"Aquisição de Mat. de Incont. Prot. Cutânea Alivio Pressão - AQ SPMS 25/2014, para a ULSNA EPE, 2017",Ao abrigo de acordo-quadro (art.º 259.º),Aquisição de bens móveis,"33140000-3, Material médico de consumo","Unidade Local de Saúde do Norte Alentejano, E. P. E. (508094461)","DOCWORLD, LDA (508592909)","1.092,00 €",05-05-2017,21-03-2017,275 dias,"Portugal, Portalegre",Artigo 259.º do Código dos Contratos Públicos,31-12-2017,"798,00 €",,Não foram adquiridas todas quantidades estimadas.,,1210117,"CONCURSO PÚBLICO PARA A CELEBRAÇÃO DE CONTRATOS PÚBLICOS DE APROVISIONAMENTO PARA A ÁREA DA SAÚDE, COM VISTA AO FORNECIMENTO DE MATERIAL DE INCONTINENCIA E ALIVIO DE PRESSÃO, ÀS INSTITUIÇÕES E SERVIÇOS DO SERVIÇO NACIONAL DE SAÚDE",FALSE
"Aquisição de Mat. de Incont. Prot. Cutânea Alivio Pressão - AQ SPMS 25/2014, para a ULSNA EPE, 2017",Ao abrigo de acordo-quadro (art.º 259.º),Aquisição de bens móveis,"33140000-3, Material médico de consumo","Unidade Local de Saúde do Norte Alentejano, E. P. E. (508094461)","Bastos Viegas, S.A. (500042772)","1.425,60 €",05-05-2017,21-03-2017,275 dias,"Portugal, Portalegre",Artigo 259.º do Código dos Contratos Públicos,31-12-2017,"1.108,80 €",,Não foram adquiridas todas quantidades estimadas.,,1210117,"CONCURSO PÚBLICO PARA A CELEBRAÇÃO DE CONTRATOS PÚBLICOS DE APROVISIONAMENTO PARA A ÁREA DA SAÚDE, COM VISTA AO FORNECIMENTO DE MATERIAL DE INCONTINENCIA E ALIVIO DE PRESSÃO, ÀS INSTITUIÇÕES E SERVIÇOS DO SERVIÇO NACIONAL DE SAÚDE",FALSE
Fornecimento de Material para Empacotamento em Esterilização - 2017 - SPMS AQ 43/2016,Ao abrigo de acordo-quadro (art.º 259.º),Aquisição de bens móveis,"33198200-6, Saquetas e invólucros de papel para esterilização","Unidade Local de Saúde do N. Alentejano,EPE(ULSNA) (508094461)","DOCWORLD, LDA (508592909)","1.281,32 €",05-05-2017,13-04-2017,245 dias,"Portugal, Portalegre, Elvas<BR/>Portugal, Portalegre, Portalegre",Artigo 259.º do Código dos Contratos Públicos,31-12-2017,"354,32 €",,Não foram adquiridas todas as quantidades estimadas.,,1974943,CP 2016/43 - Acordo quadro para fornecimento de Material para Empacotamento em Esterilização às Instituições e Serviços do Serviço Nacional de Saúde.,FALSE
"Aquisição de Mat. de Incont. Prot. Cutânea Alivio Pressão - AQ SPMS 25/2014, para a ULSNA EPE, 2017",Ao abrigo de acordo-quadro (art.º 259.º),Aquisição de bens móveis,"33140000-3, Material médico de consumo","Unidade Local de Saúde do Norte Alentejano, E. P. E. (508094461)",EZEQUIEL PANÄO JORGE (501412727),"51,00 €",04-05-2017,21-03-2017,275 dias,"Portugal, Portalegre",Artigo 259.º do Código dos Contratos Públicos,31-12-2017,"",,Não foram adquiridas todas quantidades estimadas.,,1210117,"CONCURSO PÚBLICO PARA A CELEBRAÇÃO DE CONTRATOS PÚBLICOS DE APROVISIONAMENTO PARA A ÁREA DA SAÚDE, COM VISTA AO FORNECIMENTO DE MATERIAL DE INCONTINENCIA E ALIVIO DE PRESSÃO, ÀS INSTITUIÇÕES E SERVIÇOS DO SERVIÇO NACIONAL DE SAÚDE",FALSE
"Aquisição de Mat. de Incont. Prot. Cutânea Alivio Pressão - AQ SPMS 25/2014, para a ULSNA EPE, 2017",Ao abrigo de acordo-quadro (art.º 259.º),Aquisição de bens móveis,"33140000-3, Material médico de consumo","Unidade Local de Saúde do Norte Alentejano, E. P. E. (508094461)","ANASTÁCIO SALDANHA, UNIP., LDA (505804441)","988,80 €",04-05-2017,21-03-2017,275 dias,"Portugal, Portalegre",Artigo 259.º do Código dos Contratos Públicos,31-12-2017,"618,00 €",,Não foram adquiridas todas quantidades estimadas.,,1210117,"CONCURSO PÚBLICO PARA A CELEBRAÇÃO DE CONTRATOS PÚBLICOS DE APROVISIONAMENTO PARA A ÁREA DA SAÚDE, COM VISTA AO FORNECIMENTO DE MATERIAL DE INCONTINENCIA E ALIVIO DE PRESSÃO, ÀS INSTITUIÇÕES E SERVIÇOS DO SERVIÇO NACIONAL DE SAÚDE",FALSE
MEDICAMENTOS,Ajuste Direto Regime Geral,Aquisição de bens móveis,"33000000-0, Equipamento médico, medicamentos e produtos para cuidados pessoais","Unidade Local de Saúde do Norte Alentejano, E. P. E. (508094461)","NOVARTIS FARMA-PROD.FARMACÊUTICOS,SA.              (500063524)","7.394,16 €",04-05-2017,07-03-2017,30 dias,"Portugal, Portalegre, Elvas<BR/>Portugal, Portalegre, Portalegre","Artigo 20.º, n.º 1, alínea a) do Código dos Contratos Públicos","","",,"",,Não aplicável.,Não aplicável.,FALSE
MEDICAMENTOS,Ajuste Direto Regime Geral,Aquisição de bens móveis,"33000000-0, Equipamento médico, medicamentos e produtos para cuidados pessoais","Unidade Local de Saúde do Norte Alentejano, E. P. E. (508094461)","AMGEN BIOFARMACÊUTICA, LDA.                        (502942959)","7.040,00 €",04-05-2017,07-03-2017,30 dias,"Portugal, Portalegre, Portalegre<BR/>Portugal, Portalegre, Elvas","Artigo 20.º, n.º 1, alínea a) do Código dos Contratos Públicos","","",,"",,Não aplicável.,Não aplicável.,FALSE
"Fornecimento de Material para Empacotamento em Esterilização, à ULSNA, EPE (2017)",Ao abrigo de acordo-quadro (art.º 259.º),Aquisição de bens móveis,"33198200-6, Saquetas e invólucros de papel para esterilização","Unidade Local de Saúde do N. Alentejano,EPE(ULSNA) (508094461)","HTMD - High Technology Medical Devices, Lda. (507654919)","1.898,00 €",04-05-2017,13-04-2017,245 dias,"Portugal, Portalegre, Elvas<BR/>Portugal, Portalegre, Portalegre",Artigo 259.º do Código dos Contratos Públicos,31-12-2017,"1.254,90 €",,Não foram adquiridas todas as quantidades estimadas.,,1974943,CP 2016/43 - Acordo quadro para fornecimento de Material para Empacotamento em Esterilização às Instituições e Serviços do Serviço Nacional de Saúde.,FALSE
"Prestação de Serviços de Manutenção aos Equipamentos MEDGRAPHICS e MORTARA da ULSNA, EPE, Ano 2017",Ajuste Direto Regime Geral,Aquisição de serviços,"50000000-5, Serviços de reparação e manutenção","Unidade Local de Saúde do Norte Alentejano, E. P. E. (508094461)","Cardio Solutions, Lda. (507158865)","10.125,00 €",03-05-2017,29-03-2017,365 dias,"Portugal, Portalegre, Portalegre","Artigo 24.º, n.º 1, alínea e) do Código dos Contratos Públicos",29-03-2017,"10.125,00 €",,"",,Não aplicável.,Não aplicável.,FALSE
"Prestação de Serviços de Manutenção aos Equipamentos Diagnost H, Diagnost 96, Essenta DR e Écografo HDXE da ULSNA, EPE, Ano 2017",Ajuste Direto Regime Geral,Aquisição de serviços,"50000000-5, Serviços de reparação e manutenção","Unidade Local de Saúde do Norte Alentejano, E. P. E. (508094461)","PHILIPS Portuguesa, SA (500216843)","17.921,64 €",03-05-2017,22-03-2017,365 dias,"Portugal, Portalegre, Portalegre","Artigo 24.º, n.º 1, alínea e) do Código dos Contratos Públicos",22-03-2017,"17.921,64 €",,"",,Não aplicável.,Não aplicável.,FALSE
"Fornecimento de Material para Empacotamento em Esterilização à ULSNA, EPE (2017)",Ao abrigo de acordo-quadro (art.º 259.º),Aquisição de bens móveis,"33198200-6, Saquetas e invólucros de papel para esterilização","Unidade Local de Saúde do N. Alentejano,EPE(ULSNA) (508094461)",Eurocasmedica (503322105),"12,90 €",03-05-2017,13-04-2017,245 dias,"Portugal, Portalegre, Elvas<BR/>Portugal, Portalegre, Portalegre",Artigo 259.º do Código dos Contratos Públicos,31-12-2017,"",,Não foram adquiridas todas as quantidades estimadas.,,1974943,CP 2016/43 - Acordo quadro para fornecimento de Material para Empacotamento em Esterilização às Instituições e Serviços do Serviço Nacional de Saúde.,FALSE
