Objeto do Contrato,Tipo de Procedimento,Tipo(s) de Contrato,CPVs,Entidade(s) Adjudicante(s),Entidade(s) Adjudicatária(s),Preço Contratual,Data de Publicação,Data de Celebração do Contrato,Prazo de Execução,Local de Execução,Fundamentação,Data de Fecho do Contrato,Preço Total Efetivo,Causas das Alterações ao Prazo,Causas das Alterações ao Preço,Estado,N.º registo do Acordo Quadro,Descrição do Acordo Quadro,Procedimento Centralizado
62/3245/2018 AQUISIÇÃO DE SERINGA 3 PEÇAS 50 ML - LUER LOCK IRRECUP. PARA BOMBAS INFUSOR,Ajuste Direto Regime Geral,Aquisição de bens móveis,"33140000-3, Material médico de consumo","Centro Hospitalar Universitário do Algarve, E. P. E. (510745997)","B. Braun Medical, Lda. (501506543)","160,00 €",11-10-2018,17-09-2018,75 dias,"Portugal, Faro, Faro","Artigo 24.º, n.º 1, alínea e), subalínea ii) do Código dos Contratos Públicos",,,,,,Não aplicável.,Não aplicável.,FALSE
PDAS 87/2757/18,Consulta Prévia,Aquisição de bens móveis,"30230000-0, Equipamento informático","Centro Hospitalar Universitário do Algarve, E. P. E. (510745997)","ZETES BURÓTICA - SOCIEDADE ESTUDOS E EQUIPAMENTOS AUTOMÁTICOS DE ESCRITÓRIO, SA (501178503)","9.248,00 €",11-10-2018,20-09-2018,30 dias,"Portugal, Faro, Portimão<BR/>Portugal, Faro, Faro","Artigo 20.º, n.º 1, alínea c) do Código dos Contratos Públicos",,,,,,Não aplicável.,Não aplicável.,FALSE
PDAS 87/2757/18,Consulta Prévia,Aquisição de bens móveis,"30230000-0, Equipamento informático","Centro Hospitalar Universitário do Algarve, E. P. E. (510745997)","BIQ - HEALTH SOLUTIONS, LDA (504105337)","7.490,00 €",11-10-2018,20-09-2018,15 dias,"Portugal, Faro, Portimão<BR/>Portugal, Faro, Faro","Artigo 20.º, n.º 1, alínea c) do Código dos Contratos Públicos",,,,,,Não aplicável.,Não aplicável.,FALSE
Prestação Serviços Médicos Urgência Geral,Ajuste Direto Regime Geral,Aquisição de serviços,"85121100-4, Serviços de médicos de clínica geral","Centro Hospitalar Universitário do Algarve, E. P. E. (510745997)",Ritmo Potencial Lda (514463252),"43.560,00 €",10-10-2018,13-09-2018,153 dias,"Portugal, Faro, Faro","Artigo 24.º, n.º 1, alínea e), subalínea ii) do Código dos Contratos Públicos",,,,,,Não aplicável.,Não aplicável.,FALSE
AE.aues19.2017 Autorização de utilização especial do medicamento,Ajuste Direto Regime Geral,Aquisição de bens móveis,"33690000-3, Medicamentos vários","Centro Hospitalar Universitário do Algarve, E. P. E. (510745997)",WEP Clinical (944 8938 66),"5.194,34 €",09-10-2018,16-08-2017,137 dias,"Portugal, Faro, Faro","Artigo 24.º, n.º 1, alínea e) do Código dos Contratos Públicos",,,,,,Não aplicável.,Não aplicável.,FALSE
61/4614/2017 Medicamento Palbocilcib 100 mg,Ajuste Direto Regime Geral,Aquisição de bens móveis,"33690000-3, Medicamentos vários","Centro Hospitalar Universitário do Algarve, E. P. E. (510745997)","Pfizer Biofarmacêutica, Sociedade Unipessoal Lda. (513300376)","28.000,01 €",09-10-2018,21-12-2017,30 dias,"Portugal, Faro, Faro","Artigo 24.º, n.º 1, alínea e) do Código dos Contratos Públicos",,,,,,Não aplicável.,Não aplicável.,FALSE
61/4615/2017 Medicamento Vedolizumab 300 mg,Ajuste Direto Regime Geral,Aquisição de bens móveis,"33690000-3, Medicamentos vários","Centro Hospitalar Universitário do Algarve, E. P. E. (510745997)","Takeda - Farmacêuticos Portugal, Lda. (502801204)","4.605,36 €",09-10-2018,21-12-2017,30 dias,"Portugal, Faro, Faro","Artigo 24.º, n.º 1, alínea e) do Código dos Contratos Públicos",,,,,,Não aplicável.,Não aplicável.,FALSE
61/4310/2017 Medicamento Desferrasirox,Ajuste Direto Regime Geral,Aquisição de bens móveis,"33690000-3, Medicamentos vários","Centro Hospitalar Universitário do Algarve, E. P. E. (510745997)","Novartis Farma - Produtos Farmacêuticos, S.A. (500063524)","8.305,96 €",09-10-2018,18-12-2017,30 dias,"Portugal, Faro, Faro","Artigo 24.º, n.º 1, alínea e) do Código dos Contratos Públicos",,,,,,Não aplicável.,Não aplicável.,FALSE
61/4491/2017 Reagentes de bioquimica e imunoquimica,Ajuste Direto Regime Geral,Aquisição de bens móveis,"33696500-0, Reagentes de laboratório","Centro Hospitalar Universitário do Algarve, E. P. E. (510745997)","ROCHE SISTEMAS DIAGNOSTICO,LDA (504282921)","25.437,42 €",08-10-2018,21-12-2017,30 dias,"Portugal, Faro, Faro","Artigo 24.º, n.º 1, alínea e) do Código dos Contratos Públicos",,,,,,Não aplicável.,Não aplicável.,FALSE
61/4474/2017 Medicamento colistimetato de sódio,Ajuste Direto Regime Geral,Aquisição de bens móveis,"33690000-3, Medicamentos vários","Centro Hospitalar Universitário do Algarve, E. P. E. (510745997)","Teva Pharma - Produtos Farmacêuticos, Lda (507045491)","1.115,92 €",08-10-2018,21-12-2017,30 dias,"Portugal, Faro, Faro","Artigo 24.º, n.º 1, alínea e) do Código dos Contratos Públicos",,,,,,Não aplicável.,Não aplicável.,FALSE
61/4473/2017 Reagentes para Imunoquimica,Ajuste Direto Regime Geral,Aquisição de bens móveis,"33696500-0, Reagentes de laboratório","Centro Hospitalar Universitário do Algarve, E. P. E. (510745997)","Abbott Laboratórios, Lda. (500006148)","21.881,25 €",08-10-2018,14-12-2017,30 dias,"Portugal, Faro, Faro","Artigo 24.º, n.º 1, alínea e) do Código dos Contratos Públicos",,,,,,Não aplicável.,Não aplicável.,FALSE
61/4470/2017 Medicamentos Pomalidomida 4 mg,Ajuste Direto Regime Geral,Aquisição de bens móveis,"33690000-3, Medicamentos vários","Centro Hospitalar Universitário do Algarve, E. P. E. (510745997)","CELGENE - SOCIEDADE UNIPESSOAL, LDA (507791690)","26.882,10 €",08-10-2018,30-11-2017,30 dias,"Portugal, Faro, Faro","Artigo 24.º, n.º 1, alínea e) do Código dos Contratos Públicos",,,,,,Não aplicável.,Não aplicável.,FALSE
61/4317/2017 Medicamentos Lenalidomidas de 10 mg e 25mg,Ajuste Direto Regime Geral,Aquisição de bens móveis,"33690000-3, Medicamentos vários","Centro Hospitalar Universitário do Algarve, E. P. E. (510745997)","CELGENE - SOCIEDADE UNIPESSOAL, LDA (507791690)","57.399,01 €",08-10-2018,21-12-2017,30 dias,"Portugal, Faro, Faro","Artigo 24.º, n.º 1, alínea e) do Código dos Contratos Públicos",,,,,,Não aplicável.,Não aplicável.,FALSE
61/4314/2017 Medicamento Etanercept 50 mg,Ajuste Direto Regime Geral,Aquisição de bens móveis,"33690000-3, Medicamentos vários","Centro Hospitalar Universitário do Algarve, E. P. E. (510745997)","Pfizer Biofarmacêutica, Sociedade Unipessoal Lda. (513300376)","98.700,00 €",08-10-2018,11-12-2017,30 dias,"Portugal, Faro, Faro","Artigo 24.º, n.º 1, alínea e) do Código dos Contratos Públicos",,,,,,Não aplicável.,Não aplicável.,FALSE
61/4315/2017 Medicamento zuclopentixol,Ajuste Direto Regime Geral,Aquisição de bens móveis,"33690000-3, Medicamentos vários","Centro Hospitalar Universitário do Algarve, E. P. E. (510745997)","LUNDBECK PORTUGAL,LDA (503573922)","512,40 €",08-10-2018,18-12-2017,30 dias,"Portugal, Faro, Faro","Artigo 24.º, n.º 1, alínea e) do Código dos Contratos Públicos",,,,,,Não aplicável.,Não aplicável.,FALSE
61/4303/2017 Reagentes DxH Diluent,Ajuste Direto Regime Geral,Aquisição de bens móveis,"33690000-3, Medicamentos vários","Centro Hospitalar Universitário do Algarve, E. P. E. (510745997)",Beckman Coulter Portugal (509035167),"6.632,00 €",08-10-2018,14-12-2017,30 dias,"Portugal, Faro, Faro","Artigo 24.º, n.º 1, alínea e) do Código dos Contratos Públicos",,,,,,Não aplicável.,Não aplicável.,FALSE
68/2808/2018 - Prestação Serviços Médicos Cirurgia Geral,Ajuste Direto Regime Geral,Aquisição de serviços,"85121300-6, Serviços de cirurgia especializada","Centro Hospitalar Universitário do Algarve, E. P. E. (510745997)",Nuno Simões Unipessoal Lda (514971266),"44.000,00 €",08-10-2018,29-08-2018,152 dias,"Portugal, Faro, Faro","Artigo 24.º, n.º 1, alínea e), subalínea ii) do Código dos Contratos Públicos",,,,,,Não aplicável.,Não aplicável.,FALSE
61/4302/2017 Medicamento Nintedanib,Ajuste Direto Regime Geral,Aquisição de bens móveis,"33690000-3, Medicamentos vários","Centro Hospitalar Universitário do Algarve, E. P. E. (510745997)","Unilfarma - União Intern. de Lab. Farmac.,Lda. (500293023)","3.400,00 €",08-10-2018,29-11-2017,30 dias,"Portugal<BR/>Portugal, Faro, Faro","Artigo 24.º, n.º 1, alínea e) do Código dos Contratos Públicos",,,,,,Não aplicável.,Não aplicável.,FALSE
61/4221/2017 Medicamentos Cabazitaxel,Ajuste Direto Regime Geral,Aquisição de bens móveis,"33690000-3, Medicamentos vários","Centro Hospitalar Universitário do Algarve, E. P. E. (510745997)","SANOFI - PRODUTOS FARMACÊUTICOS, LDA. (500134960)","95.304,00 €",08-10-2018,10-11-2017,60 dias,"Portugal, Faro, Faro","Artigo 24.º, n.º 1, alínea e) do Código dos Contratos Públicos",,,,,,Não aplicável.,Não aplicável.,FALSE
68/2848/2018 - Prestação Serviços Médicos Urgência Geral,Ajuste Direto Regime Geral,Aquisição de serviços,"85121100-4, Serviços de médicos de clínica geral","Centro Hospitalar Universitário do Algarve, E. P. E. (510745997)",Powerful hugs Lda (514695994),"61.776,00 €",08-10-2018,29-08-2018,183 dias,"Portugal, Faro, Faro","Artigo 24.º, n.º 1, alínea e), subalínea ii) do Código dos Contratos Públicos",,,,,,Não aplicável.,Não aplicável.,FALSE
68/2850/2018 - Prestação Serviços Médicos Pediatria,Ajuste Direto Regime Geral,Aquisição de serviços,"85121291-9, Serviços de pediatria","Centro Hospitalar Universitário do Algarve, E. P. E. (510745997)",Pediatrics for fun Lda (513030506),"54.704,00 €",08-10-2018,04-09-2018,122 dias,"Portugal, Faro, Portimão","Artigo 24.º, n.º 1, alínea e), subalínea ii) do Código dos Contratos Públicos",,,,,,Não aplicável.,Não aplicável.,FALSE
68/2643/2018 - Prestação Serviços Médicos de Otorrino,Ajuste Direto Regime Geral,Aquisição de serviços,"85121240-7, Serviços de otorrinolaringologia ou audiologia","Centro Hospitalar Universitário do Algarve, E. P. E. (510745997)",Sara Sousa & Luís Freitas saúde Lda (513051708),"29.400,00 €",08-10-2018,29-08-2018,196 dias,"Portugal, Faro, Faro","Artigo 24.º, n.º 1, alínea e), subalínea ii) do Código dos Contratos Públicos",,,,,,Não aplicável.,Não aplicável.,FALSE
68/2847/2018 - Prestação Serviços Médicos Urgência Geral,Ajuste Direto Regime Geral,Aquisição de serviços,"85121100-4, Serviços de médicos de clínica geral","Centro Hospitalar Universitário do Algarve, E. P. E. (510745997)",Genial Urgente Lda (514970766),"61.776,00 €",08-10-2018,29-08-2018,183 dias,"Portugal, Faro, Faro","Artigo 24.º, n.º 1, alínea e), subalínea ii) do Código dos Contratos Públicos",,,,,,Não aplicável.,Não aplicável.,FALSE
68/3244/2018 - Prestação de Serviços Médicos de Cardiologia,Ajuste Direto Regime Geral,Aquisição de serviços,"85121231-1, Serviços de cardiologia","Centro Hospitalar Universitário do Algarve, E. P. E. (510745997)","Pedro Jerónimo Rodrigues de Sousa, Unipessoal, Lda (514652985)","12.480,00 €",08-10-2018,14-09-2018,116 dias,"Portugal, Faro, Faro","Artigo 24.º, n.º 1, alínea e), subalínea ii) do Código dos Contratos Públicos",,,,,,Não aplicável.,Não aplicável.,FALSE
68/3240/2018 - Prestação Serviços Médicos Urgência,Ajuste Direto Regime Geral,Aquisição de serviços,"85121100-4, Serviços de médicos de clínica geral","Centro Hospitalar Universitário do Algarve, E. P. E. (510745997)",Portusalud SL (B91936435),"24.000,00 €",08-10-2018,14-09-2018,141 dias,"Portugal, Faro, Albufeira<BR/>Portugal, Faro, Vila Real Sto Antonio<BR/>Portugal, Faro, Faro","Artigo 24.º, n.º 1, alínea e), subalínea ii) do Código dos Contratos Públicos",,,,,,Não aplicável.,Não aplicável.,FALSE
92/3322/2018 - AQUISIÇÃO DE AGULHA DE ESCLEROSE DESCATÁVEL 21G 13mm 1050mm,Ajuste Direto Regime Geral,Aquisição de bens móveis,"33140000-3, Material médico de consumo","Centro Hospitalar Universitário do Algarve, E. P. E. (510745997)",OLYMPUS IBERIA S.A. SUCURSAL EM PORTUGAL (980474710),"3.055,32 €",08-10-2018,08-10-2018,81 dias,"Portugal, Faro, Lagos<BR/>Portugal, Faro, Faro<BR/>Portugal, Faro, Portimão","Artigo 24.º, n.º 1, alínea c) do Código dos Contratos Públicos",,,,,,Não aplicável.,Não aplicável.,FALSE
68/2811/2018 - Prestação de Serviços de Pediatria,Ajuste Direto Regime Geral,Aquisição de serviços,"85121291-9, Serviços de pediatria","Centro Hospitalar Universitário do Algarve, E. P. E. (510745997)",Ana Betencourt Serviços Médicos Lda (514819065),"52.800,00 €",08-10-2018,29-08-2018,153 dias,"Portugal, Faro, Faro","Artigo 24.º, n.º 1, alínea e), subalínea ii) do Código dos Contratos Públicos",,,,,,Não aplicável.,Não aplicável.,FALSE
Prestação de Serviços Médicos Emergência e Urgência,Ajuste Direto Regime Geral,Aquisição de serviços,"85121100-4, Serviços de médicos de clínica geral","Centro Hospitalar Universitário do Algarve, E. P. E. (510745997)",João Coucelo Lda (514967803),"15.600,00 €",08-10-2018,30-07-2018,183 dias,"Portugal, Faro, Portimão","Artigo 24.º, n.º 1, alínea e), subalínea ii) do Código dos Contratos Públicos",,,,,,Não aplicável.,Não aplicável.,FALSE
61/4212/2017 Medicamentos octocog alfa,Ajuste Direto Regime Geral,Aquisição de bens móveis,"33690000-3, Medicamentos vários","Centro Hospitalar Universitário do Algarve, E. P. E. (510745997)","Shire Pharmaceuticals Portugal, Lda. (509264662)","42.063,30 €",04-10-2018,10-11-2017,60 dias,"Portugal, Faro, Faro","Artigo 24.º, n.º 1, alínea e) do Código dos Contratos Públicos",,,,,,Não aplicável.,Não aplicável.,FALSE
61/4187/2017 Medicamento Ipilimumab 200 mg,Ajuste Direto Regime Geral,Aquisição de bens móveis,"33690000-3, Medicamentos vários","Centro Hospitalar Universitário do Algarve, E. P. E. (510745997)","BRISTOL-MYERS SQUIBB FARMACÊUTICA PORTUGUESA, S.A. (500048193)","35.700,00 €",04-10-2018,06-11-2017,60 dias,"Portugal, Faro, Faro","Artigo 24.º, n.º 1, alínea e) do Código dos Contratos Públicos",,,,,,Não aplicável.,Não aplicável.,FALSE
61/4106/2017 Medicamento Lenalidomida 25 mg,Ajuste Direto Regime Geral,Aquisição de bens móveis,"33690000-3, Medicamentos vários","Centro Hospitalar Universitário do Algarve, E. P. E. (510745997)","CELGENE - SOCIEDADE UNIPESSOAL, LDA (507791690)","77.388,00 €",04-10-2018,09-11-2017,60 dias,"Portugal, Faro, Faro","Artigo 24.º, n.º 1, alínea e) do Código dos Contratos Públicos",,,,,,Não aplicável.,Não aplicável.,FALSE
61/4058/2017 Medicamento Imunoglobulina humana,Ajuste Direto Regime Geral,Aquisição de bens móveis,"33690000-3, Medicamentos vários","Centro Hospitalar Universitário do Algarve, E. P. E. (510745997)",OCTAFHARMA- PROD. FARMACEUTICO (502820780),"2.038,50 €",03-10-2018,31-10-2017,61 dias,"Portugal, Faro, Faro","Artigo 24.º, n.º 1, alínea e) do Código dos Contratos Públicos",,,,,,Não aplicável.,Não aplicável.,FALSE
Aquisição de Material Consumo Clínico Diverso,Concurso público,Aquisição de bens móveis,"33140000-3, Material médico de consumo","Centro Hospitalar Universitário do Algarve, E. P. E. (510745997)","EZEQUIEL PANAO JORGE,LDA (501412727), Teleflex Medical, S.A. (980249783), DRAGER PORTUGAL (508771323), JOHNSON & JOHNSON PROD.PROF. (500153370), B. Braun Medical, Lda. (501506543), AVIQUIMICA IMPORT E MANUFATURA (500039720), VYGON (PORTUGAL),LDA. (503232785), MEDTRONIC PORTUGAL, LDA. (504223933), BSN Medical, S.A. (505385058), C.R BARD PORTUGAL - PRODUCTOS E ARTIGOS MEDICOS FARM, LDA. (502438274), ANASTACIO SALDANHA UNIPESSOAL, LDA. (505804441), Docworld – Dispositivos Médicos, Lda. (508592909), SMITH & NEPHEW, LDª (503552461)","25.969,90 €",03-10-2018,06-09-2018,122 dias,"Portugal, Faro, Portimão<BR/>Portugal, Faro, Lagos<BR/>Portugal, Faro, Faro","Artigo 20.º, n.º 1, alínea b) do Código dos Contratos Públicos",,,,,,Não aplicável.,Não aplicável.,FALSE
Concurso Público nº1572/2018 - Climatização e Ventilação da Cozinha do Serviço Alimentação da Unidade Faro do CHUA,Concurso público,Empreitadas de obras públicas,"45330000-9, Instalação de canalizações","Centro Hospitalar Universitário do Algarve, E. P. E. (510745997)","Termotermica Instalações Especiais, Lda (504013432)","118.940,37 €",03-10-2018,27-09-2018,44 dias,"Portugal, Faro, Faro","Artigo 19.º, alínea b) do Código dos Contratos Públicos",,,,,,Não aplicável.,Não aplicável.,FALSE
C.Previa 88.2936.2018 Reparação da Cobertura da Consulta Externa da Unidade de Lagos,Consulta Prévia,Empreitadas de obras públicas,"45261900-3, Obras de reparação e manutenção de coberturas","Centro Hospitalar Universitário do Algarve, E. P. E. (510745997)","Rui & Candeias, Lda. (505173212)","56.231,41 €",03-10-2018,13-09-2018,45 dias,"Portugal, Faro, Lagos","Artigo 19.º, alínea c) do Código dos Contratos Públicos",,,,,,Não aplicável.,Não aplicável.,FALSE
C.Previa 88.20940.2018 Remodelação do WC'S da Enfermaria de Ortopedia da Unidade de Portimao,Consulta Prévia,Aquisição de serviços,"50800000-3, Serviços de reparação e manutenção diversos","Centro Hospitalar Universitário do Algarve, E. P. E. (510745997)","Rui & Candeias, Lda. (505173212)","21.717,09 €",03-10-2018,17-09-2018,84 dias,"Portugal, Faro, Portimão","Artigo 20.º, n.º 1, alínea c) do Código dos Contratos Públicos",,,,,,Não aplicável.,Não aplicável.,FALSE
AQUISIÇÃO DE MATERIAL CONSUMO CLINICO (OFTALMOLOGIA),Ajuste Direto Regime Geral,Aquisição de bens móveis,"33140000-3, Material médico de consumo","Centro Hospitalar Universitário do Algarve, E. P. E. (510745997)","BAUSCH E LOMB, SA (980218764)","5.166,00 €",03-10-2018,24-09-2018,101 dias,"Portugal, Faro, Faro<BR/>Portugal, Faro, Portimão","Artigo 24.º, n.º 1, alínea e), subalínea ii) do Código dos Contratos Públicos",,,,,,Não aplicável.,Não aplicável.,FALSE
AQUISIÇÃO DE CONTENCAO NASAL EXTERNA ALUMINIO C/KIT PREPARACAO TIPO DENVER,Ajuste Direto Regime Geral,Aquisição de bens móveis,"33140000-3, Material médico de consumo","Centro Hospitalar Universitário do Algarve, E. P. E. (510745997)","MICRO MEDICA EQUIPAMENTOS  MEDICOS HOSPIT., LDA (501904956)","380,00 €",03-10-2018,24-09-2018,101 dias,"Portugal, Faro, Portimão<BR/>Portugal, Faro, Faro","Artigo 24.º, n.º 1, alínea a) do Código dos Contratos Públicos",,,,,,Não aplicável.,Não aplicável.,FALSE
Prestação de Serviços Médicos de Cirurgia,Ajuste Direto Regime Geral,Aquisição de serviços,"85121300-6, Serviços de cirurgia especializada","Centro Hospitalar Universitário do Algarve, E. P. E. (510745997)","Nuno Simões Abreu, Unip., Lda (514971266)","44.000,00 €",02-10-2018,29-08-2018,153 dias,"Portugal, Faro, Faro","Artigo 24.º, n.º 1, alínea e), subalínea ii) do Código dos Contratos Públicos",,,,,,Não aplicável.,Não aplicável.,FALSE
21/105/2018 - Reagentes para Citometria de Fluxo,Concurso público,Aquisição de bens móveis,"33696500-0, Reagentes de laboratório","Centro Hospitalar Universitário do Algarve, E. P. E. (510745997)",BECKMAN COUTER PORTUGAL UNIPESSOAL LDA (509035167),"61.187,50 €",02-10-2018,19-02-2018,314 dias,"Portugal, Faro, Faro","Artigo 20.º, n.º 1, alínea b) do Código dos Contratos Públicos",,,,,,Não aplicável.,Não aplicável.,FALSE
