Objeto do Contrato,Tipo de Procedimento,Tipo(s) de Contrato,CPVs,Entidade(s) Adjudicante(s),Entidade(s) Adjudicatária(s),Preço Contratual,Data de Publicação,Data de Celebração do Contrato,Prazo de Execução,Local de Execução,Fundamentação,Data de Fecho do Contrato,Preço Total Efetivo,Causas das Alterações ao Prazo,Causas das Alterações ao Preço,Estado,N.º registo do Acordo Quadro,Descrição do Acordo Quadro,Procedimento Centralizado
Aquisição de medicamentos,Ajuste Direto Regime Geral,Aquisição de bens móveis,"33690000-3, Medicamentos vários","Hospital do Espírito Santo de Évora, E.P.E. (508085888)",B Braum Medical (501506543),"11.535,00 €",10-05-2013,29-04-2013,5 dias,"Portugal, Évora, Évora","Artigo 26.º, n.º 1, alínea e) do Código dos Contratos Públicos",,,,,,Não aplicável.,Não aplicável.,
Aquisição de medicamentos,Ajuste Direto Regime Geral,Aquisição de bens móveis,"33690000-3, Medicamentos vários","Hospital do Espírito Santo de Évora, E.P.E. (508085888)",Novartis Farma Prod. farmac. (500063524),"6.593,72 €",10-05-2013,06-05-2013,8 dias,"Portugal, Évora, Évora","Artigo 20.º, n.º 1, alínea a) do Código dos Contratos Públicos",,,,,,Não aplicável.,Não aplicável.,
Aquisição de medicamentos,Ajuste Direto Regime Geral,Aquisição de bens móveis,"33690000-3, Medicamentos vários","Hospital do Espírito Santo de Évora, E.P.E. (508085888)",Lab. Pfizer (500162166),"13.799,00 €",10-05-2013,05-04-2013,5 dias,"Portugal, Évora, Évora","Artigo 26.º, n.º 1, alínea e) do Código dos Contratos Públicos",,,,,,Não aplicável.,Não aplicável.,
Aquisição de dispositivo médico,Ajuste Direto Regime Geral,Aquisição de bens móveis,"33190000-8, Dispositivos e produtos médicos variados","Hospital do Espírito Santo de Évora, E.P.E. (508085888)",American Medical Systems Ibérica SL (980223598),"7.600,00 €",09-05-2013,30-04-2013,8 dias,"Portugal, Évora, Évora","Artigo 20.º, n.º 1, alínea a) do Código dos Contratos Públicos",,,,,,Não aplicável.,Não aplicável.,
Aquisição de cardioversor desfibrilhador,Ajuste Direto Regime Geral,Aquisição de bens móveis,"33190000-8, Dispositivos e produtos médicos variados","Hospital do Espírito Santo de Évora, E.P.E. (508085888)",Medtronic (504223933),"21.000,00 €",09-05-2013,29-04-2013,8 dias,"Portugal, Évora, Évora","Artigo 20.º, n.º 1, alínea a) do Código dos Contratos Públicos",,,,,,Não aplicável.,Não aplicável.,
CAT - PACS,Ajuste Direto Regime Geral,Aquisição de serviços,"72610000-9, Serviços de assistência informática","Hospital do Espírito Santo de Évora, E.P.E. (508085888)",SIEMENS SA                                         (500247480),"142.312,76 €",08-05-2013,31-01-2013,365 dias,"Portugal, Évora, Évora","Artigo 24.º, n.º 1, alínea e) do Código dos Contratos Públicos",,,,,,Não aplicável.,Não aplicável.,
CAT - Equipamentos vários,Ajuste Direto Regime Geral,Aquisição de serviços,"50420000-5, Serviços de reparação e manutenção de equipamento médico e cirúrgico","Hospital do Espírito Santo de Évora, E.P.E. (508085888)",GENERAL ELECTRIC PORTUGUESA SA                     (500357129),"122.585,71 €",08-05-2013,01-01-2013,365 dias,"Portugal, Évora, Évora","Artigo 24.º, n.º 1, alínea e) do Código dos Contratos Públicos",,,,,,Não aplicável.,Não aplicável.,
Aquisição de ampola para TAC,Ajuste Direto Regime Geral,Aquisição de bens móveis,"33113000-5, Equipamento de imagiologia por ressonância magnética","Hospital do Espírito Santo de Évora, E.P.E. (508085888)",SIEMENS SA                                         (500247480),"60.000,00 €",08-05-2013,25-01-2013,8 dias,"Portugal, Évora, Évora","Artigo 20.º, n.º 1, alínea a) do Código dos Contratos Públicos",,,,,,Não aplicável.,Não aplicável.,
Aquisição de medicamentos,Ajuste Direto Regime Geral,Aquisição de bens móveis,"33690000-3, Medicamentos vários","Hospital do Espírito Santo de Évora, E.P.E. (508085888)",EISAI FARMACEUTICA UNIPESSOAL LDA (507847660),"9.600,00 €",08-05-2013,03-05-2013,5 dias,"Portugal, Évora, Évora","Artigo 26.º, n.º 1, alínea e) do Código dos Contratos Públicos",,,,,,Não aplicável.,Não aplicável.,
Comunicações móveis,Ajuste Direto Regime Geral,Aquisição de serviços,"64212000-5, Serviços de telefonia móvel","Hospital do Espírito Santo de Évora, E.P.E. (508085888)",TMN (502600268),"45.519,77 €",08-05-2013,03-01-2013,365 dias,"Portugal, Évora, Évora","Artigo 20.º, n.º 1, alínea a) do Código dos Contratos Públicos",,,,,,Não aplicável.,Não aplicável.,
Prestação de serviços medicos - IVG,Ajuste Direto Regime Geral,Aquisição de serviços,"85141000-9, Serviços prestados pelo pessoal médico","Hospital do Espírito Santo de Évora, E.P.E. (508085888)",SAMER AMES SA - CLINICA DOS ARCOS                  (507740343),"47.510,00 €",08-05-2013,15-01-2013,365 dias,"Portugal, Évora, Évora","Artigo 20.º, n.º 1, alínea a) do Código dos Contratos Públicos",,,,,,Não aplicável.,Não aplicável.,
Upgrade do software Sisqual,Ajuste Direto Regime Geral,Aquisição de serviços,"72610000-9, Serviços de assistência informática","Hospital do Espírito Santo de Évora, E.P.E. (508085888)",Sisqual (502772298),"7.560,00 €",08-05-2013,07-05-2013,365 dias,"Portugal, Évora, Évora","Artigo 20.º, n.º 1, alínea a) do Código dos Contratos Públicos",,,,,,Não aplicável.,Não aplicável.,
Serviço de eletricidade 2012,Ajuste Direto Regime Geral,Aquisição de serviços,"65310000-9, Distribuição de electricidade","Hospital do Espírito Santo de Évora, E.P.E. (508085888)",EDP COMERCIAL - COMERCIAL ENERGIA SA               (503504564),"47.413,91 €",08-05-2013,07-01-2013,8 dias,"Portugal, Évora, Évora","Artigo 20.º, n.º 1, alínea a) do Código dos Contratos Públicos",,,,,,Não aplicável.,Não aplicável.,
Prestação de serviços de telecomunicações,Ajuste Direto Regime Geral,Aquisição de serviços,"64210000-1, Serviços telefónicos e de transmissão de dados","Hospital do Espírito Santo de Évora, E.P.E. (508085888)",TELECOM MOVEIS NACIONAIS-TMN                       (502600268),"45.519,77 €",08-05-2013,03-01-2013,365 dias,"Portugal, Évora, Évora","Artigo 20.º, n.º 1, alínea a) do Código dos Contratos Públicos",,,,,,Não aplicável.,Não aplicável.,
CAT - Equipamento vários,Ajuste Direto Regime Geral,Aquisição de serviços,"50421000-2, Serviços de reparação e manutenção de equipamento médico","Hospital do Espírito Santo de Évora, E.P.E. (508085888)",SIEMENS SA                                         (500247480),"44.052,87 €",07-05-2013,01-01-2013,365 dias,"Portugal, Évora, Évora","Artigo 20.º, n.º 1, alínea a) do Código dos Contratos Públicos",,,,,,Não aplicável.,Não aplicável.,
Prestação de serviços de engenharia de eletromedicina,Ajuste Direto Regime Geral,Aquisição de serviços,"71330000-0, Serviços diversos de engenharia","Hospital do Espírito Santo de Évora, E.P.E. (508085888)",SUCH-SERV UTILIZ COMUM HOSPITAIS- D R SUL          (500900469),"37.728,00 €",07-05-2013,01-01-2013,365 dias,"Portugal, Évora, Évora","Artigo 20.º, n.º 1, alínea a) do Código dos Contratos Públicos",,,,,,Não aplicável.,Não aplicável.,
Fornecimento de gás 2012,Ajuste Direto Regime Geral,Aquisição de serviços,"65210000-8, Distribuição de gás","Hospital do Espírito Santo de Évora, E.P.E. (508085888)",DIANAGAS                                           (504733273),"37.726,58 €",07-05-2013,04-01-2013,365 dias,"Portugal, Évora, Évora","Artigo 20.º, n.º 1, alínea a) do Código dos Contratos Públicos",,,,,,Não aplicável.,Não aplicável.,
Processo para desenvolvimento de nova gestão de filas,Ajuste Direto Regime Geral,Aquisição de serviços,"72130000-5, Serviços de consultoria em matéria de planeamento de locais informáticos","Hospital do Espírito Santo de Évora, E.P.E. (508085888)",ATTENDSYS - SOL GLOBAIS ATENDIMENTO UN LDA         (510306802),"36.000,10 €",07-05-2013,02-01-2013,30 dias,"Portugal, Évora, Évora","Artigo 20.º, n.º 1, alínea a) do Código dos Contratos Públicos",,,,,,Não aplicável.,Não aplicável.,
Remodelação do MFR,Ajuste Direto Regime Geral,Empreitadas de obras públicas,"45215140-0, Construção de instalações hospitalares","Hospital do Espírito Santo de Évora, E.P.E. (508085888)",R C U REABILITAÇÃO E RECONSTRUÇÃO URBANA SA        (509244890),"33.590,67 €",07-05-2013,02-01-2013,180 dias,"Portugal, Évora, Évora","Artigo 19.º, alínea a) do Código dos Contratos Públicos",,,,,,Não aplicável.,Não aplicável.,
Prestação de serviços de comunicações,Ajuste Direto Regime Geral,Aquisição de serviços,"64210000-1, Serviços telefónicos e de transmissão de dados","Hospital do Espírito Santo de Évora, E.P.E. (508085888)",PT COMUNICAÇÕES S A                                (504615947),"33.478,75 €",07-05-2013,06-01-2013,365 dias,"Portugal, Évora, Évora","Artigo 20.º, n.º 1, alínea a) do Código dos Contratos Públicos",,,,,,Não aplicável.,Não aplicável.,
CAT - Equipamento vários,Ajuste Direto Regime Geral,Aquisição de serviços,"50420000-5, Serviços de reparação e manutenção de equipamento médico e cirúrgico","Hospital do Espírito Santo de Évora, E.P.E. (508085888)",PHILIPS PORTUGUESA SA                              (500216843),"33.199,68 €",07-05-2013,01-01-2013,365 dias,"Portugal, Évora, Évora","Artigo 20.º, n.º 1, alínea a) do Código dos Contratos Públicos",,,,,,Não aplicável.,Não aplicável.,
Combustíveis,Ajuste Direto Regime Geral,Aquisição de bens móveis,"09111300-3, Combustíveis fósseis","Hospital do Espírito Santo de Évora, E.P.E. (508085888)",REPSOL PORTUGUESA SA                               (500246963),"28.000,00 €",07-05-2013,02-01-2013,365 dias,"Portugal, Évora, Évora","Artigo 20.º, n.º 1, alínea a) do Código dos Contratos Públicos",,,,,,Não aplicável.,Não aplicável.,
MCDT - Imuno,Ajuste Direto Regime Geral,Aquisição de serviços,"85148000-8, Serviços de análises clínicas","Hospital do Espírito Santo de Évora, E.P.E. (508085888)",ABBOTT LABORATORIOS LDA                            (500006148),"27.630,00 €",07-05-2013,02-01-2013,60 dias,"Portugal, Évora, Évora","Artigo 20.º, n.º 1, alínea a) do Código dos Contratos Públicos",,,,,,Não aplicável.,Não aplicável.,
CAT - Equipamento Vários,Ajuste Direto Regime Geral,Aquisição de serviços,"50420000-5, Serviços de reparação e manutenção de equipamento médico e cirúrgico","Hospital do Espírito Santo de Évora, E.P.E. (508085888)",IBERDATA - EQUIPAMENTOS S A                        (501904921),"21.787,00 €",07-05-2013,01-01-2013,365 dias,"Portugal, Évora, Évora","Artigo 20.º, n.º 1, alínea a) do Código dos Contratos Públicos",,,,,,Não aplicável.,Não aplicável.,
Aquisição de medicamentos,Ajuste Direto Regime Geral,Aquisição de bens móveis,"33690000-3, Medicamentos vários","Hospital do Espírito Santo de Évora, E.P.E. (508085888)",ABBVIE LDA                                         (510229050),"5.485,80 €",07-05-2013,20-03-2013,8 dias,"Portugal, Évora, Évora","Artigo 26.º, n.º 1, alínea e) do Código dos Contratos Públicos",,,,,,Não aplicável.,Não aplicável.,
MCDT - Patologia clinica 2012,Ajuste Direto Regime Geral,Aquisição de serviços,"85148000-8, Serviços de análises clínicas","Hospital do Espírito Santo de Évora, E.P.E. (508085888)",NOVARTIS FARMA-PROD FARMACEUT                      (500063524),"21.104,00 €",07-05-2013,02-01-2013,8 dias,"Portugal, Évora, Évora","Artigo 20.º, n.º 1, alínea a) do Código dos Contratos Públicos",,,,,,Não aplicável.,Não aplicável.,
Prestação de serviços de codificação médica,Ajuste Direto Regime Geral,Aquisição de serviços,"85120000-6, Serviços de prática médica e serviços conexos","Hospital do Espírito Santo de Évora, E.P.E. (508085888)",MARIA ALICE SANTOS SILVA GUERREIRO                 (115629386),"20.000,00 €",07-05-2013,02-01-2013,365 dias,"Portugal, Évora, Évora","Artigo 20.º, n.º 1, alínea a) do Código dos Contratos Públicos",,,,,,Não aplicável.,Não aplicável.,
CAT - Equipamento vários,Ajuste Direto Regime Geral,Aquisição de serviços,"50420000-5, Serviços de reparação e manutenção de equipamento médico e cirúrgico","Hospital do Espírito Santo de Évora, E.P.E. (508085888)",SUCH-SERV UTILIZ COMUM HOSPITAIS- D R SUL          (500900469),"15.847,80 €",07-05-2013,01-01-2013,365 dias,"Portugal, Évora, Évora","Artigo 20.º, n.º 1, alínea a) do Código dos Contratos Públicos",,,,,,Não aplicável.,Não aplicável.,
CAT - Cardiologia,Ajuste Direto Regime Geral,Aquisição de serviços,"50421000-2, Serviços de reparação e manutenção de equipamento médico","Hospital do Espírito Santo de Évora, E.P.E. (508085888)",SUCH-SERV UTILIZ COMUM HOSPITAIS- D R SUL          (500900469),"15.000,00 €",07-05-2013,01-01-2013,365 dias,"Portugal, Évora, Évora","Artigo 20.º, n.º 1, alínea a) do Código dos Contratos Públicos",,,,,,Não aplicável.,Não aplicável.,
Cópias e manutenção de impressoras,Ajuste Direto Regime Geral,Aquisição de serviços,"51620000-4, Serviços de instalação de equipamento para escritório","Hospital do Espírito Santo de Évora, E.P.E. (508085888)",KONICA MINOLTA                                     (502120070),"14.000,00 €",07-05-2013,02-01-2013,365 dias,"Portugal, Évora, Évora","Artigo 20.º, n.º 1, alínea a) do Código dos Contratos Públicos",,,,,,Não aplicável.,Não aplicável.,
Seguro de acidentes de trabalho 2º trimestre 2013,Ajuste Direto Regime Geral,Aquisição de serviços,"66512100-3, Serviços de seguros de acidentes","Hospital do Espírito Santo de Évora, E.P.E. (508085888)",COMP SEGUROS AÇOREANA SA                           (512004048),"12.416,41 €",07-05-2013,12-02-2013,90 dias,"Portugal, Évora, Évora","Artigo 20.º, n.º 1, alínea a) do Código dos Contratos Públicos",,,,,,Não aplicável.,Não aplicável.,
Consumo de água de 2012,Ajuste Direto Regime Geral,Aquisição de serviços,"65111000-4, Distribuição de água potável","Hospital do Espírito Santo de Évora, E.P.E. (508085888)",CAMARA MUNICIPAL EVORA                             (504828576),"11.953,20 €",07-05-2013,08-01-2013,8 dias,"Portugal, Évora, Évora","Artigo 20.º, n.º 1, alínea a) do Código dos Contratos Públicos",,,,,,Não aplicável.,Não aplicável.,
CAT - UPS,Ajuste Direto Regime Geral,Aquisição de serviços,"50312000-5, Manutenção e reparação de equipamento informático","Hospital do Espírito Santo de Évora, E.P.E. (508085888)",SCHNEIDER ELECTRIC II - IT PORTUGAL LDA            (503652369),"11.632,90 €",07-05-2013,01-01-2013,365 dias,"Portugal, Évora, Évora","Artigo 20.º, n.º 1, alínea a) do Código dos Contratos Públicos",,,,,,Não aplicável.,Não aplicável.,
Policiamento,Ajuste Direto Regime Geral,Aquisição de serviços,"75242000-4, Serviços de policiamento e ordem pública","Hospital do Espírito Santo de Évora, E.P.E. (508085888)",POLICIA SEGURANÇA PUBLICA -ÉVORA                   (600006662),"11.018,20 €",07-05-2013,06-02-2013,365 dias,"Portugal, Évora, Évora","Artigo 20.º, n.º 1, alínea a) do Código dos Contratos Públicos",,,,,,Não aplicável.,Não aplicável.,
Auditoria de qualidade,Ajuste Direto Regime Geral,Aquisição de serviços,"71621000-7, Serviços técnicos de análise ou consultoria","Hospital do Espírito Santo de Évora, E.P.E. (508085888)",BIOGNOSTICA LDA                                    (504441256),"9.968,00 €",07-05-2013,21-01-2013,8 dias,"Portugal, Évora, Évora","Artigo 20.º, n.º 1, alínea a) do Código dos Contratos Públicos",,,,,,Não aplicável.,Não aplicável.,
CAT - Sisqual,Ajuste Direto Regime Geral,Aquisição de serviços,"72261000-2, Serviços de assistência em matéria de software","Hospital do Espírito Santo de Évora, E.P.E. (508085888)",SISQUAL                                            (502772298),"9.119,00 €",07-05-2013,13-03-2013,365 dias,"Portugal, Évora, Évora","Artigo 20.º, n.º 1, alínea a) do Código dos Contratos Públicos",,,,,,Não aplicável.,Não aplicável.,
CAT - Maquina de Lavar,Ajuste Direto Regime Geral,Aquisição de serviços,"50532000-3, Serviços de reparação e manutenção de máquinas e aparelhos eléctricos e de equipamento afim","Hospital do Espírito Santo de Évora, E.P.E. (508085888)",MIELE PORTUGUESA LDA                               (500193100),"8.832,00 €",07-05-2013,01-01-2013,365 dias,"Portugal, Évora, Évora","Artigo 20.º, n.º 1, alínea a) do Código dos Contratos Públicos",,,,,,Não aplicável.,Não aplicável.,
CAT - Equipamento vários,Ajuste Direto Regime Geral,Aquisição de serviços,"50421000-2, Serviços de reparação e manutenção de equipamento médico","Hospital do Espírito Santo de Évora, E.P.E. (508085888)",JOHNSON & JOHNSON LDA                              (500153370),"8.806,00 €",07-05-2013,01-01-2013,365 dias,"Portugal, Évora, Évora","Artigo 20.º, n.º 1, alínea a) do Código dos Contratos Públicos",,,,,,Não aplicável.,Não aplicável.,
CAT - manutenção de equipamento de 2012,Ajuste Direto Regime Geral,Aquisição de serviços,"50421000-2, Serviços de reparação e manutenção de equipamento médico","Hospital do Espírito Santo de Évora, E.P.E. (508085888)",JOHNSON & JOHNSON LDA                              (500153370),"8.806,00 €",07-05-2013,08-01-2013,8 dias,"Portugal, Évora, Évora","Artigo 20.º, n.º 1, alínea a) do Código dos Contratos Públicos",,,,,,Não aplicável.,Não aplicável.,
Serviço de portagens,Ajuste Direto Regime Geral,Aquisição de serviços,"63712210-8, Serviços de portagem em auto-estradas","Hospital do Espírito Santo de Évora, E.P.E. (508085888)",VIA VERDE PORTUGAL                                 (504656767),"8.300,00 €",07-05-2013,02-01-2013,365 dias,"Portugal, Évora, Évora","Artigo 20.º, n.º 1, alínea a) do Código dos Contratos Públicos",,,,,,Não aplicável.,Não aplicável.,
Lampada de Fenda,Ajuste Direto Regime Geral,Aquisição de bens móveis,"33100000-1, Equipamento médico","Hospital do Espírito Santo de Évora, E.P.E. (508085888)",JOSE COTTA - EQUP MED E SERV                       (500155739),"8.000,00 €",07-05-2013,30-01-2013,8 dias,"Portugal, Évora, Évora","Artigo 20.º, n.º 1, alínea a) do Código dos Contratos Públicos",,,,,,Não aplicável.,Não aplicável.,
Assistência técnica,Ajuste Direto Regime Geral,Aquisição de serviços,"50324100-3, Serviços de manutenção de sistemas","Hospital do Espírito Santo de Évora, E.P.E. (508085888)",ALERT LIVE SCIENCES COMPUTING SA                   (507567455),"7.796,55 €",07-05-2013,02-01-2013,365 dias,"Portugal, Évora, Évora","Artigo 20.º, n.º 1, alínea a) do Código dos Contratos Públicos",,,,,,Não aplicável.,Não aplicável.,
Serviços de limpeza,Concurso público,Aquisição de serviços,"90910000-9, Serviços de limpeza","Hospital do Espírito Santo de Évora, E.P.E. (508085888)",EULEN SA - SUCURSAL EM PORTUGAL (980122538),"177.555,00 €",07-05-2013,01-04-2013,90 dias,"Portugal, Évora, Évora","Artigo 155.º, alínea b) do Código dos Contratos Públicos",,,,,,Não aplicável.,Não aplicável.,
CAT - Mamógrafo,Ajuste Direto Regime Geral,Aquisição de serviços,"50421000-2, Serviços de reparação e manutenção de equipamento médico","Hospital do Espírito Santo de Évora, E.P.E. (508085888)",GENERAL ELECTRIC PORTUGUESA SA                     (500357129),"7.400,00 €",07-05-2013,13-03-2013,365 dias,"Portugal, Évora, Évora","Artigo 20.º, n.º 1, alínea a) do Código dos Contratos Públicos",,,,,,Não aplicável.,Não aplicável.,
CAT - Equipamento vários,Ajuste Direto Regime Geral,Aquisição de serviços,"50421000-2, Serviços de reparação e manutenção de equipamento médico","Hospital do Espírito Santo de Évora, E.P.E. (508085888)",GENERAL ELECTRIC PORTUGUESA SA                     (500357129),"7.201,61 €",07-05-2013,01-01-2013,365 dias,"Portugal, Évora, Évora","Artigo 20.º, n.º 1, alínea a) do Código dos Contratos Públicos",,,,,,Não aplicável.,Não aplicável.,
CAT - Recolha de Residuos,Ajuste Direto Regime Geral,Aquisição de serviços,"90511000-2, Serviços de recolha de resíduos","Hospital do Espírito Santo de Évora, E.P.E. (508085888)",NOITES RECICLAGEM MAT PRIM SECUND LDA              (503821748),"6.894,30 €",07-05-2013,02-01-2013,365 dias,"Portugal, Évora, Évora","Artigo 20.º, n.º 1, alínea a) do Código dos Contratos Públicos",,,,,,Não aplicável.,Não aplicável.,
Aquisição de medicamentos,Ajuste Direto Regime Geral,Aquisição de bens móveis,"33690000-3, Medicamentos vários","Hospital do Espírito Santo de Évora, E.P.E. (508085888)",ABBVIE LDA                                         (510229050),"14.085,00 €",07-05-2013,06-03-2013,8 dias,"Portugal, Évora, Évora","Artigo 26.º, n.º 1, alínea e) do Código dos Contratos Públicos",,,,,,Não aplicável.,Não aplicável.,
Aquisição de medicamentos,Ajuste Direto Regime Geral,Aquisição de bens móveis,"33690000-3, Medicamentos vários","Hospital do Espírito Santo de Évora, E.P.E. (508085888)",ABBVIE LDA                                         (510229050),"5.634,80 €",07-05-2013,21-03-2013,8 dias,"Portugal, Évora, Évora","Artigo 26.º, n.º 1, alínea e) do Código dos Contratos Públicos",,,,,,Não aplicável.,Não aplicável.,
CAT - Equipamento varios,Ajuste Direto Regime Geral,Aquisição de serviços,"50420000-5, Serviços de reparação e manutenção de equipamento médico e cirúrgico","Hospital do Espírito Santo de Évora, E.P.E. (508085888)",JOSE COTTA - EQUP MED E SERV                       (500155739),"6.477,27 €",07-05-2013,01-01-2013,365 dias,"Portugal, Évora, Évora","Artigo 20.º, n.º 1, alínea a) do Código dos Contratos Públicos",,,,,,Não aplicável.,Não aplicável.,
Aquisição de medicamentos,Ajuste Direto Regime Geral,Aquisição de bens móveis,"33690000-3, Medicamentos vários","Hospital do Espírito Santo de Évora, E.P.E. (508085888)",ABBVIE LDA                                         (510229050),"5.150,16 €",07-05-2013,26-03-2013,8 dias,"Portugal, Évora, Évora","Artigo 20.º, n.º 1, alínea a) do Código dos Contratos Públicos",,,,,,Não aplicável.,Não aplicável.,
CAT - Ventilador UCI,Ajuste Direto Regime Geral,Aquisição de serviços,"50421000-2, Serviços de reparação e manutenção de equipamento médico","Hospital do Espírito Santo de Évora, E.P.E. (508085888)",MEDICINALIA-CORMEDICA                              (500684324),"6.408,00 €",07-05-2013,01-01-2013,365 dias,"Portugal, Évora, Évora","Artigo 20.º, n.º 1, alínea a) do Código dos Contratos Públicos",,,,,,Não aplicável.,Não aplicável.,
Aquisição de medicamentos,Ajuste Direto Regime Geral,Aquisição de bens móveis,"33690000-3, Medicamentos vários","Hospital do Espírito Santo de Évora, E.P.E. (508085888)",DNA PHARMA LDA                                     (508917654),"10.020,00 €",07-05-2013,26-03-2013,8 dias,"Portugal, Évora, Évora","Artigo 26.º, n.º 1, alínea e) do Código dos Contratos Públicos",,,,,,Não aplicável.,Não aplicável.,
CAT - Equipamento varios,Ajuste Direto Regime Geral,Aquisição de serviços,"50420000-5, Serviços de reparação e manutenção de equipamento médico e cirúrgico","Hospital do Espírito Santo de Évora, E.P.E. (508085888)",PULMOCOR - EQUIPAMENTO MEDICO                      (501402578),"6.360,00 €",07-05-2013,01-01-2013,365 dias,"Portugal, Évora, Évora","Artigo 20.º, n.º 1, alínea a) do Código dos Contratos Públicos",,,,,,Não aplicável.,Não aplicável.,
Aquisição de medicamentos,Ajuste Direto Regime Geral,Aquisição de bens móveis,"33690000-3, Medicamentos vários","Hospital do Espírito Santo de Évora, E.P.E. (508085888)",DNA PHARMA LDA                                     (508917654),"8.350,00 €",07-05-2013,06-03-2013,8 dias,"Portugal, Évora, Évora","Artigo 26.º, n.º 1, alínea e) do Código dos Contratos Públicos",,,,,,Não aplicável.,Não aplicável.,
CAT - Ventiladores Servo i,Ajuste Direto Regime Geral,Aquisição de serviços,"50420000-5, Serviços de reparação e manutenção de equipamento médico e cirúrgico","Hospital do Espírito Santo de Évora, E.P.E. (508085888)",MAQUET PORTUGAL LDA                                (506819698),"6.048,00 €",07-05-2013,01-01-2013,365 dias,"Portugal, Évora, Évora","Artigo 20.º, n.º 1, alínea a) do Código dos Contratos Públicos",,,,,,Não aplicável.,Não aplicável.,
Aquisição de medicamentos,Ajuste Direto Regime Geral,Aquisição de bens móveis,"33690000-3, Medicamentos vários","Hospital do Espírito Santo de Évora, E.P.E. (508085888)",VIIVHIV HEALTHCARE UNIPESSOAL LDA                  (509117961),"7.110,80 €",07-05-2013,26-03-2013,8 dias,"Portugal, Évora, Évora","Artigo 26.º, n.º 1, alínea e) do Código dos Contratos Públicos",,,,,,Não aplicável.,Não aplicável.,
CAT - Ar condicionado,Ajuste Direto Regime Geral,Aquisição de serviços,"50730000-1, Serviços de reparação e manutenção de grupos de refrigeração","Hospital do Espírito Santo de Évora, E.P.E. (508085888)",NONIO HIROSS                                       (500202915),"5.780,00 €",06-05-2013,01-01-2013,365 dias,"Portugal, Évora, Évora","Artigo 20.º, n.º 1, alínea a) do Código dos Contratos Públicos",,,,,,Não aplicável.,Não aplicável.,
CAT - Esterilizadores,Ajuste Direto Regime Geral,Aquisição de serviços,"50420000-5, Serviços de reparação e manutenção de equipamento médico e cirúrgico","Hospital do Espírito Santo de Évora, E.P.E. (508085888)",A MENDES DA SILVA LDA                              (502064080),"5.730,00 €",06-05-2013,01-01-2013,365 dias,"Portugal, Évora, Évora","Artigo 20.º, n.º 1, alínea a) do Código dos Contratos Públicos",,,,,,Não aplicável.,Não aplicável.,
Prestação de serviços medicos,Ajuste Direto Regime Geral,Aquisição de serviços,"85121200-5, Serviços de medicina especializada","Hospital do Espírito Santo de Évora, E.P.E. (508085888)",D H C - SERVIÇOS MÉDICOS LDA                       (504033794),"5.513,02 €",06-05-2013,02-01-2013,8 dias,"Portugal, Évora, Évora","Artigo 20.º, n.º 1, alínea a) do Código dos Contratos Públicos",,,,,,Não aplicável.,Não aplicável.,
CAT - Ecógrafos,Ajuste Direto Regime Geral,Aquisição de serviços,"50421000-2, Serviços de reparação e manutenção de equipamento médico","Hospital do Espírito Santo de Évora, E.P.E. (508085888)",EFACEC-SERV MANUTENC ASSIST SA                     (502700823),"5.040,00 €",06-05-2013,01-01-2013,365 dias,"Portugal, Évora, Évora","Artigo 20.º, n.º 1, alínea a) do Código dos Contratos Públicos",,,,,,Não aplicável.,Não aplicável.,
Reparação Máquina Desinfeção,Ajuste Direto Regime Geral,Aquisição de serviços,"50420000-5, Serviços de reparação e manutenção de equipamento médico e cirúrgico","Hospital do Espírito Santo de Évora, E.P.E. (508085888)",ALVES & IRMAOS LDA                                 (500310068),"5.229,00 €",06-05-2013,03-01-2013,8 dias,"Portugal, Évora, Évora","Artigo 20.º, n.º 1, alínea a) do Código dos Contratos Públicos",,,,,,Não aplicável.,Não aplicável.,
Garrotes ATS,Ajuste Direto Regime Geral,Aquisição de bens móveis,"33169000-2, Material cirúrgico","Hospital do Espírito Santo de Évora, E.P.E. (508085888)",MEDICINALIA-CORMEDICA                              (500684324),"5.400,00 €",06-05-2013,04-01-2013,8 dias,"Portugal, Évora, Évora","Artigo 20.º, n.º 1, alínea a) do Código dos Contratos Públicos",,,,,,Não aplicável.,Não aplicável.,
Contrato de manutenção SGICM,Ajuste Direto Regime Geral,Aquisição de serviços,"72261000-2, Serviços de assistência em matéria de software","Hospital do Espírito Santo de Évora, E.P.E. (508085888)",GLINTT - HEALTHCARE SOLUTIONS SA                   (502479418),"6.813,40 €",06-05-2013,20-02-2013,365 dias,"Portugal, Évora, Évora","Artigo 20.º, n.º 1, alínea a) do Código dos Contratos Públicos",,,,,,Não aplicável.,Não aplicável.,
Internamento de doentes - Renda 1º trimestre,Ajuste Direto Regime Geral,Aquisição de serviços,"85144000-0, Serviços de saúde com alojamento","Hospital do Espírito Santo de Évora, E.P.E. (508085888)",LAR QUINTA DA PONTE                                (503752487),"6.840,00 €",06-05-2013,02-01-2013,90 dias,"Portugal, Évora, Évora","Artigo 20.º, n.º 1, alínea a) do Código dos Contratos Públicos",,,,,,Não aplicável.,Não aplicável.,
Aquisição de medicamentos,Ajuste Direto Regime Geral,Aquisição de bens móveis,"33690000-3, Medicamentos vários","Hospital do Espírito Santo de Évora, E.P.E. (508085888)",ACTELION PHARMACEUTICALS LDA                       (507336488),"5.304,00 €",06-05-2013,04-03-2013,8 dias,"Portugal, Évora, Évora","Artigo 20.º, n.º 1, alínea a) do Código dos Contratos Públicos",,,,,,Não aplicável.,Não aplicável.,
Aquisição de medicamentos,Ajuste Direto Regime Geral,Aquisição de bens móveis,"33690000-3, Medicamentos vários","Hospital do Espírito Santo de Évora, E.P.E. (508085888)",ACTELION PHARMACEUTICALS LDA                       (507336488),"5.304,00 €",06-05-2013,26-03-2013,8 dias,"Portugal, Évora, Évora","Artigo 20.º, n.º 1, alínea a) do Código dos Contratos Públicos",,,,,,Não aplicável.,Não aplicável.,
Prestação de viaturas em AOV 1º trimestre,Ajuste Direto Regime Geral,Aquisição de serviços,"60171000-7, Aluguer de automóveis de passageiros com condutor","Hospital do Espírito Santo de Évora, E.P.E. (508085888)",LEASEPLAN                                          (502167610),"5.194,65 €",06-05-2013,01-01-2013,90 dias,"Portugal, Évora, Évora","Artigo 20.º, n.º 1, alínea a) do Código dos Contratos Públicos",,,,,,Não aplicável.,Não aplicável.,
Aquisição de medicamentos,Ajuste Direto Regime Geral,Aquisição de bens móveis,"33690000-3, Medicamentos vários","Hospital do Espírito Santo de Évora, E.P.E. (508085888)",CELGENE - SOCIEDADE UNIPESSOAL LDA                 (507791690),"10.834,28 €",06-05-2013,01-03-2013,8 dias,"Portugal, Évora, Évora","Artigo 20.º, n.º 1, alínea a) do Código dos Contratos Públicos",,,,,,Não aplicável.,Não aplicável.,
Renda de Imóvel referente ao 1º trimestre,Ajuste Direto Regime Geral,Aquisição de serviços,"70311000-4, Serviços de venda ou arrendamento de edifícios residenciais","Hospital do Espírito Santo de Évora, E.P.E. (508085888)",SANTA CASA MISERICORDIA EVORA                      (500745846),"42.853,05 €",06-05-2013,02-01-2013,90 dias,"Portugal, Évora, Évora","Artigo 20.º, n.º 1, alínea a) do Código dos Contratos Públicos",,,,,,Não aplicável.,Não aplicável.,
Aquisição de medicamentos,Ajuste Direto Regime Geral,Aquisição de bens móveis,"33690000-3, Medicamentos vários","Hospital do Espírito Santo de Évora, E.P.E. (508085888)",CELGENE - SOCIEDADE UNIPESSOAL LDA                 (507791690),"10.834,28 €",06-05-2013,27-03-2013,8 dias,"Portugal, Évora, Évora","Artigo 20.º, n.º 1, alínea a) do Código dos Contratos Públicos",,,,,,Não aplicável.,Não aplicável.,
Aquisição de medicamentos,Ajuste Direto Regime Geral,Aquisição de bens móveis,"33690000-3, Medicamentos vários","Hospital do Espírito Santo de Évora, E.P.E. (508085888)",HOSPIRA PORTUGAL LDA                               (502918098),"5.600,00 €",06-05-2013,14-03-2013,8 dias,"Portugal, Évora, Évora","Artigo 26.º, n.º 1, alínea e) do Código dos Contratos Públicos",,,,,,Não aplicável.,Não aplicável.,
Aquisição de medicamentos,Ajuste Direto Regime Geral,Aquisição de bens móveis,"33690000-3, Medicamentos vários","Hospital do Espírito Santo de Évora, E.P.E. (508085888)",ASTRAZENECA PROD FARM LDA                          (502942240),"11.355,20 €",06-05-2013,15-03-2013,8 dias,"Portugal, Évora, Évora","Artigo 26.º, n.º 1, alínea e) do Código dos Contratos Públicos",,,,,,Não aplicável.,Não aplicável.,
