Objeto do Contrato,Tipo de Procedimento,Tipo(s) de Contrato,CPVs,Entidade(s) Adjudicante(s),Entidade(s) Adjudicatária(s),Preço Contratual,Data de Publicação,Data de Celebração do Contrato,Prazo de Execução,Local de Execução,Fundamentação,Data de Fecho do Contrato,Preço Total Efetivo,Causas das Alterações ao Prazo,Causas das Alterações ao Preço,Estado,N.º registo do Acordo Quadro,Descrição do Acordo Quadro,Procedimento Centralizado
Aquisição de  200 fracos de Megestrol 40mg/ml Suspensão Oral Fr 240ml,Ajuste Direto Regime Geral,Aquisição de bens móveis,"33000000-0, Equipamento médico, medicamentos e produtos para cuidados pessoais",Centro Hospitalar de Lisboa Central E.P.E. (508080142),Profarin -  Distribuidora de Produtos Farmacêuticos (500223238),"14.586,00 €",10-05-2013,06-05-2013,240 dias,"Portugal, Lisboa, Lisboa","Artigo 24.º, n.º 1, alínea e) do Código dos Contratos Públicos",,,,,,Não aplicável.,Não aplicável.,
Aquisição de Bosentano 32 mg comp. disp.,Ajuste Direto Regime Geral,Aquisição de bens móveis,"33600000-6, Produtos farmacêuticos",Centro Hospitalar de Lisboa Central E.P.E. (508080142),Actelion Pharmaceuticals Portugal (507336488),"9.188,00 €",10-05-2013,08-05-2013,245 dias,"Portugal, Lisboa, Lisboa","Artigo 24.º, n.º 1, alínea e) do Código dos Contratos Públicos",,,,,,Não aplicável.,Não aplicável.,
Luvas cirúrgicas,Ajuste Direto Regime Geral,Aquisição de bens móveis,"33000000-0, Equipamento médico, medicamentos e produtos para cuidados pessoais",Centro Hospitalar de Lisboa Central E.P.E. (508080142),Medicinália-Cormédica (500684324),"21.266,45 €",09-05-2013,08-02-2013,30 dias,"Portugal, Lisboa, Lisboa","Artigo 24.º, n.º 1, alínea c) do Código dos Contratos Públicos",,,,,,Não aplicável.,Não aplicável.,
Material de Laboratório,Ajuste Direto Regime Geral,Aquisição de bens móveis,"33000000-0, Equipamento médico, medicamentos e produtos para cuidados pessoais",Centro Hospitalar de Lisboa Central E.P.E. (508080142),Sarstedt (503019461),"14.790,50 €",09-05-2013,18-02-2013,30 dias,"Portugal, Lisboa, Lisboa","Artigo 24.º, n.º 1, alínea c) do Código dos Contratos Públicos",,,,,,Não aplicável.,Não aplicável.,
Batas reforçadas,Ajuste Direto Regime Geral,Aquisição de bens móveis,"33000000-0, Equipamento médico, medicamentos e produtos para cuidados pessoais",Centro Hospitalar de Lisboa Central E.P.E. (508080142),Pergut (501799729),"8.493,44 €",09-05-2013,11-03-2013,30 dias,Portugal,"Artigo 24.º, n.º 1, alínea c) do Código dos Contratos Públicos",,,,,,Não aplicável.,Não aplicável.,
Aquisição de Ciclosporina 100 mg/ml sol. oral fr. 50 ml,Ajuste Direto Regime Geral,Aquisição de bens móveis,"33600000-6, Produtos farmacêuticos",Centro Hospitalar de Lisboa Central E.P.E. (508080142),"Novartis Farma - Produtos Farmacêuticos, S. A. (500063524)","32.124,00 €",08-05-2013,06-05-2013,245 dias,"Portugal, Lisboa, Lisboa","Artigo 20.º, n.º 1, alínea a) do Código dos Contratos Públicos",,,,,,Não aplicável.,Não aplicável.,
CARDIOVERSORES DESFIBRILHADORES,Concurso público,Aquisição de bens móveis,"33182100-0, Desfibrilhador",Centro Hospitalar de Lisboa Central E.P.E. (508080142),FARMIMPEX-CARDIO (503061506),"128.350,00 €",08-05-2013,03-05-2013,240 dias,"Portugal, Lisboa, Lisboa","Artigo 20.º, n.º 1, alínea b) do Código dos Contratos Públicos",,,,,,Não aplicável.,Não aplicável.,
Aquisição de Emoliente e protetor corporal,Ajuste Direto Regime Geral,Aquisição de bens móveis,"33600000-6, Produtos farmacêuticos",Centro Hospitalar de Lisboa Central E.P.E. (508080142),"Clinifar - Produtos Clínicos e Farmacêuticos, S. A. (503281115)","16.300,80 €",08-05-2013,02-05-2013,245 dias,"Portugal, Lisboa, Lisboa","Artigo 20.º, n.º 1, alínea a) do Código dos Contratos Públicos",,,,,,Não aplicável.,Não aplicável.,
Aquisição de Material de Sutura,Ajuste Direto Regime Geral,Aquisição de bens móveis,"33000000-0, Equipamento médico, medicamentos e produtos para cuidados pessoais",Centro Hospitalar de Lisboa Central E.P.E. (508080142),JOHNSON & JOHNSON MEDICAL (500153370),"35.355,42 €",07-05-2013,18-04-2013,30 dias,"Portugal, Lisboa, Lisboa","Artigo 24.º, n.º 1, alínea c) do Código dos Contratos Públicos",,,,,,Não aplicável.,Não aplicável.,
Aquisição e montagem de 2 placas electrónicas para Chillers Ciat,Ajuste Direto Regime Geral,Aquisição de bens móveis,"30100000-0, Máquinas, equipamento e material de escritório, excepto computadores, impressoras e mobiliário",Centro Hospitalar de Lisboa Central E.P.E. (508080142),Save21 (504870238),"755,60 €",07-05-2013,07-02-2013,15 dias,"Portugal, Lisboa, Lisboa","Artigo 24.º, n.º 1, alínea c) do Código dos Contratos Públicos",,,,,,Não aplicável.,Não aplicável.,
Aquisição de um aparelho de electrobisturi destinado a UCA 2 do CHLC-HSAC,Ajuste Direto Regime Geral,Aquisição de bens móveis,"33000000-0, Equipamento médico, medicamentos e produtos para cuidados pessoais",Centro Hospitalar de Lisboa Central E.P.E. (508080142),Clinifar (503281115),"7.450,00 €",07-05-2013,05-04-2013,5 dias,"Portugal, Lisboa, Lisboa","Artigo 20.º, n.º 1, alínea a) do Código dos Contratos Públicos",,,,,,Não aplicável.,Não aplicável.,
Aquisição de Mitoxantrona 2mg/ml Sol. Inj. Fr. 10ml IV,Ajuste Direto Regime Geral,Aquisição de bens móveis,"33000000-0, Equipamento médico, medicamentos e produtos para cuidados pessoais",Centro Hospitalar de Lisboa Central E.P.E. (508080142),"Baxter - Médico-Farmacêutica, Lda (503347345)","11.520,00 €",07-05-2013,07-05-2013,238 dias,"Portugal, Lisboa, Lisboa","Artigo 20.º, n.º 1, alínea a) do Código dos Contratos Públicos",,,,,,Não aplicável.,Não aplicável.,
"Obras para Adaptação do Bloco de Partos do CHLC, EPE - Hospital Dona Estefânia",Ajuste Direto Regime Geral,Empreitadas de obras públicas,"45000000-7, Construção",Centro Hospitalar de Lisboa Central E.P.E. (508080142),A. M. Rato Varanda (502725745),"80.241,78 €",07-05-2013,24-04-2013,45 dias,"Portugal, Lisboa, Lisboa","Artigo 19.º, alínea a) do Código dos Contratos Públicos",,,,,,Não aplicável.,Não aplicável.,
Aquisição de Boceprevir 200mg cáps,Ajuste Direto Regime Geral,Aquisição de bens móveis,"33000000-0, Equipamento médico, medicamentos e produtos para cuidados pessoais",Centro Hospitalar de Lisboa Central E.P.E. (508080142),"Merck Sharp & Dohme, Limitada (500191360)","19.840,13 €",03-05-2013,03-05-2013,243 dias,"Portugal, Lisboa, Lisboa","Artigo 24.º, n.º 1, alínea e) do Código dos Contratos Públicos",,,,,,Não aplicável.,Não aplicável.,
