Objeto do Contrato,Tipo de Procedimento,Tipo(s) de Contrato,CPVs,Entidade(s) Adjudicante(s),Entidade(s) Adjudicatária(s),Preço Contratual,Data de Publicação,Data de Celebração do Contrato,Prazo de Execução,Local de Execução,Fundamentação,Data de Fecho do Contrato,Preço Total Efetivo,Causas das Alterações ao Prazo,Causas das Alterações ao Preço,Estado,N.º registo do Acordo Quadro,Descrição do Acordo Quadro,Procedimento Centralizado
"AQUISIÇÃO DE CORRETIVOS DA VOLÉMIA, CPA 2012/03",Ajuste Direto Regime Geral,Aquisição de bens móveis,"33692100-8, Soluções para infusão","Hospital do Espírito Santo de Évora, E.P.E. (508085888)","502041285 (501169580), FRESENIUS KABI PHARMA PORTUGAL (504293753), B BRAUN MEDICAL LDA (501506543), OVERPHARMA LDA (505792362), KORANGI PROD FARMACEUTICOS (505322307), 505792362 (502041285)","337.924,46 €",17-10-2012,17-10-2012,365 dias,"Portugal, Évora, Évora",Artigo 258.º do Código dos Contratos Públicos,,,,,,Não aplicável.,Não aplicável.,
Aquisição de Medicamentos diversos,Ajuste Direto Regime Geral,Aquisição de bens móveis,"33690000-3, Medicamentos vários","Hospital do Espírito Santo de Évora, E.P.E. (508085888)","VWR-INTERNACIONAL MAT LAB LDA (503842770), AMGEN BIOFARMACEUTICA LDA (502942959), ACTELION PHARMACEUTICALS LDA (507336488), ROCHE FARMACEUTICA QUIMICA LDA (500233810), FARMACIA DIANA (505409046), IMEXCLINIC - SUCURSAL PORTUGAL (980426863), CSL BEHRING, LDA (503047201), LAB VITORIA (500162220), NOVARTIS FARMA-PROD FARMACEUT (500063524), MULTISISTEMAS (501497951), GENERIS - FARMACEUTICA SA (508107997), NOVO NORDISK LDA (501485210), SHIRE PHARMACEUTICALS PORTUGAL LDA (509264662), PIERRE FABRE MEDICAMENT PORTUG (500230366), ANGELINI FARMACEUTICA LDA (500583650), BAUSCH & LOMB S A (980218764), DAVI II FARMACEUTICA SA (508309450), DISTRIFARMA S A (502948663), UCB-PROD FARMACEUTICOS LDA (500291322), ASTELLAS FARMA LDA (502540249), LILLY PORTUGAL - PRODUTOS FARMAEUTICOS LDA (500165602), MOVIANTO SA (A-82646803), PROCLINICA LDA (500222665), RATIOPHARM LDA (502414910), NUTRICIA ADVANCED NUTRITION UNIPESSOAL LDA (507558286), PHARMIS BIOFARMACEUTICA (502595442), MERCK SHARP & DOME LDA (500191360), LAB MEDINFAR (500384045), PORTELA & CA S A (500220913), ALCON PORTUGAL (501251685), GLAXOSMITHKLINE-PROD FARMAC LD (500139962), DURBIN PLC (757080813), NOVARTIS CONSUMER HEALTH LDA (500268215), LABESFAL SA (501169580), FRESENIUS KABI PHARMA PORTUGAL (504293753), MILUPA COMERCIAL (502192828), ABBOTT LABORATORIOS LDA (500006148), EISAI FARMACEUTICA UNIPESSOAL LDA (507847660), UNILFARMA (500293023)","61.062,30 €",16-10-2012,26-09-2012,8 dias,"Portugal, Évora, Évora","Artigo 20.º, n.º 1, alínea a) do Código dos Contratos Públicos",,,,,,Não aplicável.,Não aplicável.,
Aquisição de medicamentos diversos em CPA,Ajuste Direto Regime Geral,Aquisição de bens móveis,"33690000-3, Medicamentos vários","Hospital do Espírito Santo de Évora, E.P.E. (508085888)","MERCK SHARP & DOME LDA (500191360), LAB PFIZER LDA (500162166), GLAXOSMITHKLINE-PROD FARMAC LD (500139962), TEVA PHARMA - PRODUTOS FARMACEUTICOS LDA (507045491), ACTAVIS AS (980334934), LAB EDOL-PROD FARMACEUTICOS,SA (507072642), B BRAUN MEDICAL LDA (501506543), OVERPHARMA LDA (505792362), ANGELINI FARMACEUTICA LDA (500583650), IPSEN PORTUGAL (502609800), ROCHE FARMACEUTICA QUIMICA LDA (500233810), CICLUM FARMA UNIPESSOAL LDA (504362674), LUNDBECK PROD FARMACEUTICOS (503573922), AMGEN BIOFARMACEUTICA LDA (502942959), LABORATORIOS NORMON SA (505654156), LABESFAL SA (501169580), BAXTER MEDICO FARMACEUTICA LDA (503347345), NOVO NORDISK LDA (501485210), BRISTOL-MYERS SQUIB FARMAC PORTUGUESA SA (500048193), FARMOZ - SOC TECNICO MEDICINAL SA (501505334), NOVARTIS FARMA-PROD FARMACEUT (500063524), HIKMA FARMACEUTICA (502266791), ABBVIE LDA (510229050), FRESENIUS KABI PHARMA PORTUGAL (504293753), JANSSEN CILAG FARMACEUTICA LDA (500189412), UNILFARMA (500293023), SANOFI- PRODUTOS FARMACEUTICOS LDA (500134960), KVTECH PORTUGAL - PRODUTOS MEDICOS UNIP (508671531), GENERIS - FARMACEUTICA SA (508107997), PAUL HARTMANN LDA (502271728), 3M PORTUGAL LDA (500193940), MEDA PHARMA S A (500082090), DNA PHARMA LDA (508917654)","158.253,48 €",16-10-2012,26-09-2012,8 dias,"Portugal, Évora, Évora","Artigo 26.º, n.º 1, alínea e) do Código dos Contratos Públicos",,,,,,Não aplicável.,Não aplicável.,
Aquisição de DM diversos,Ajuste Direto Regime Geral,Aquisição de bens móveis,"33190000-8, Dispositivos e produtos médicos variados","Hospital do Espírito Santo de Évora, E.P.E. (508085888)","MAGNAMED LA (503640476), NORDIPAK LDA (507157974), MARÇAL FERRÃO PACHECO (DIAGRAMA) (140400451), BECTON DICKINSON SA (980245214), LINDE SAUDE -  SOC UNIPESSOAL LDA (500125546), MEDICINALIA-CORMEDICA (500684324), ALVES & IRMAOS LDA (500310068), COVIDIEN PORTUGAL LDA (503413410), DOCWORLD LDA (508592909), LEICA MICROSISTEMAS LDA (500301921), H R - HOSPITALAR LDA (501895558), BAUSCH & LOMB S A (980218764), DENTALEADER (980187036), ENDOTECNICA (503818348), 3M PORTUGAL LDA (500193940), ANACROM IBERICA LDA (506501892), EZEQUIEL PANAO JORGE LDA (501412727), OLYMPUS PORTUGAL-OPTO DIGITAL TECNOLOGIAS SA (503581429), FACTOR PLUS (502810645), MONTELLANO (500196494), IZASA PORTUGAL (501086110), INOPAT (503294420), B BRAUN MEDICAL LDA (501506543), JOHNSON & JOHNSON LDA (500153370), A MENDES DA SILVA LDA (502064080), MOLNLYCKE HEALTH CARE (511101066), PMH-PROD MEDICOS HOSPITALARES (502376899), ALCON PORTUGAL (501251685), ESTERIPLAS (502020776), BIOSONDA-COMERC MATERIAL HOSPITALAR (501463313), VYGON (PORTUGAL) LDA (503232785), VIDROLAB 2 SA (501450629), SYNTHES COMERC DISPOSITIVOS MEDICOS (501212191), BIOMET PORTUGAL UNIPESSOAL LDA (500254990), SPCARE - ESPECIALIDADES FARMACEUTICAS LDA (508284872), ANASTACIO SALDANHA (505804441), EUROCASMEDICA (503322105)","339.394,00 €",16-10-2012,26-09-2012,8 dias,"Portugal, Évora, Évora","Artigo 20.º, n.º 1, alínea a) do Código dos Contratos Públicos",,,,,,Não aplicável.,Não aplicável.,
Aquisição de DM diversos,Ajuste Direto Regime Geral,Aquisição de bens móveis,"33190000-8, Dispositivos e produtos médicos variados","Hospital do Espírito Santo de Évora, E.P.E. (508085888)","JOHNSON & JOHNSON LDA (500153370), SMITHS MEDICAL (PORTUGAL) UNIPESSOAL LDA (507445937), C R BARD PORTUGAL LDA (502438274), MOONSURGE MATERIAL MEDICO (506657035), GRIFOLS PORTUGAL LDA (502041285), HOSPITEX - MATERIAL HOSPITALAR (501909842), COVIDIEN PORTUGAL LDA (503413410), MEDICINALIA-CORMEDICA (500684324), DRAGER PORTUGAL LDA (508771323), ST JUDE MEDICAL PORTUGAL (504180746), OFTALDATA - PROD OFTALMOLOGIA (504887459), CATETER LDA (502914319), COLOPLAST PORTUGAL SOC UNIPESSOAL LDA (503989037), FACTOR PLUS (502810645), CODAN II SA (504923471), MACHADO MALCHER LDA (500174245), MEDINFAR SOROLOGICO- PROD E EQUIPAMENTOS SA (501197052), SENDAL PORTUGAL (503898554), KVTECH PORTUGAL - PRODUTOS MEDICOS UNIP (508671531), TELEFLEX MEDICAL SAU (980249783), SPECULUM - ARTIGOS MEDICOS (502996323), VYGON (PORTUGAL) LDA (503232785)","15.086,00 €",16-10-2012,26-09-2012,8 dias,"Portugal, Évora, Évora","Artigo 20.º, n.º 1, alínea a) do Código dos Contratos Públicos",,,,,,Não aplicável.,Não aplicável.,
Aquisição de DM em CPA,Ajuste Direto Regime Geral,Aquisição de bens móveis,"33190000-8, Dispositivos e produtos médicos variados","Hospital do Espírito Santo de Évora, E.P.E. (508085888)","PAUL HARTMANN LDA (502271728), 3M PORTUGAL LDA (500193940), VYGON (PORTUGAL) LDA (503232785), SMITH & NEPHEW LDA (503552461), BASTOS VIEGAS SA (500042772), MOLNLYCKE HEALTH CARE (511101066), PERGUT PORTUGAL (501799729), B BRAUN MEDICAL LDA (501506543)","11.036,16 €",16-10-2012,26-09-2012,8 dias,"Portugal, Évora, Évora","Artigo 26.º, n.º 1, alínea e) do Código dos Contratos Públicos",,,,,,Não aplicável.,Não aplicável.,
Prestação de Serviços Médicos na Urgência,Concurso público,Aquisição de serviços,"85121200-5, Serviços de medicina especializada","Hospital do Espírito Santo de Évora, E.P.E. (508085888)","HELPED-PRESTAÇÃO DE SERVIÇOS DE SAÚDE LDA (506069010), SUCESSO 24 HORAS LDA (507328310), URGEV-PRESTAÇÃO SERVIÇOS MEDICOS LDA (507102533)","532.188,82 €",11-10-2012,24-09-2012,365 dias,"Portugal, Évora, Évora","Artigo 20.º, n.º 1, alínea b) do Código dos Contratos Públicos",,,,,,Não aplicável.,Não aplicável.,
"Aquisição de dispositivos médicos, stents",Concurso público,Aquisição de bens móveis,"33111710-1, Material para angiografia","Hospital do Espírito Santo de Évora, E.P.E. (508085888)","MEDTRONIC PORTUGAL LDA (504223933), BOSTON SCIENTIFIC PORTUGAL LDA (504988964), LUSOPALEX LDA (503531588)","335.500,00 €",11-10-2012,27-09-2012,365 dias,"Portugal, Évora, Évora","Artigo 20.º, n.º 1, alínea b) do Código dos Contratos Públicos",,,,,,Não aplicável.,Não aplicável.,
Aquisição de medicamentos diversos,Ajuste Direto Regime Geral,Aquisição de bens móveis,"33690000-3, Medicamentos vários","Hospital do Espírito Santo de Évora, E.P.E. (508085888)","NUTRICIA ADVANCED NUTRITION UNIPESSOAL LDA (507558286), MUNDIPHARMA FARMACEUTICA LDA (506760014), BALDACCI SA (500109842), FARMACIA DIANA (505409046), PAUL HARTMANN LDA (502271728), GLAXOSMITHKLINE-PROD FARMAC LD (500139962), LABESFAL SA (501169580), UNILFARMA (500293023), OVERPHARMA LDA (505792362), VYGON (PORTUGAL) LDA (503232785), LAB PFIZER LDA (500162166), GRIFOLS PORTUGAL LDA (502041285), ASTRAZENECA PROD FARM LDA (502942240), AMGEN BIOFARMACEUTICA LDA (502942959), CELGENE - SOCIEDADE UNIPESSOAL LDA (507791690), CENTRO HISTOCOMPATIBILIDADE DO SUL (501430466), IMEXCLINIC - SUCURSAL PORTUGAL (980426863), B BRAUN MEDICAL LDA (501506543), MERCK SHARP & DOME LDA (500191360), FRESENIUS KABI PHARMA PORTUGAL (504293753), DAVI II FARMACEUTICA SA (508309450), FERRING PORTUGUESA (502034831), ETIOPHARMA SA (509393357), UCB-PROD FARMACEUTICOS LDA (500291322), EUSA-FARMA SAS (980376580), PAIXAO BAPTISTA LDA (501074600), JANSSEN CILAG FARMACEUTICA LDA (500189412), 3M PORTUGAL LDA (500193940), RATIOPHARM LDA (502414910), GAMBRO LUNDIA AB - SUC PORTUGAL (980367751), CS PORTUGAL PROD FARMACEUT (503395960), ROCHE FARMACEUTICA QUIMICA LDA (500233810), FRESENIUS MEDICAL CARE LDA (503070220), LAB VITORIA (500162220), GRUNENTHAL SA (500101965), LABORATORIOS NORMON SA (505654156), TEVA PHARMA - PRODUTOS FARMACEUTICOS LDA (507045491), ACTELION PHARMACEUTICALS LDA (507336488)","61.861,77 €",11-10-2012,19-09-2012,8 dias,"Portugal, Évora, Évora","Artigo 20.º, n.º 1, alínea a) do Código dos Contratos Públicos",,,,,,Não aplicável.,Não aplicável.,
