Objeto do Contrato,Tipo de Procedimento,Tipo(s) de Contrato,CPVs,Entidade(s) Adjudicante(s),Entidade(s) Adjudicatária(s),Preço Contratual,Data de Publicação,Data de Celebração do Contrato,Prazo de Execução,Local de Execução,Fundamentação,Data de Fecho do Contrato,Preço Total Efetivo,Causas das Alterações ao Prazo,Causas das Alterações ao Preço,Estado,N.º registo do Acordo Quadro,Descrição do Acordo Quadro,Procedimento Centralizado
MANUTENÇÃO E TRATAMENTO DE ÁREAS AJARDINADAS,Ajuste Direto Regime Geral,Aquisição de serviços,"71421000-5, Serviços de jardinagem paisagística","Centro Hospitalar Tondela-Viseu, E. P. E. (509822940)",NBC Paisagismo (506684806),"9.150,00 €",08-04-2016,03-02-2016,1 dias,"Portugal, Viseu, Viseu","Artigo 20.º, n.º 1, alínea a) do Código dos Contratos Públicos",,,,,,Não aplicável.,Não aplicável.,FALSE
MATERIAL APLICADO - PROTESE COLUNA -,Ajuste Direto Regime Geral,Aquisição de bens móveis,"33183100-7, Implantes ortopédicos","Centro Hospitalar Tondela-Viseu, E. P. E. (509822940)","JOHNSON & JOHNSON, MEDICAL (500153370)","5.475,00 €",08-04-2016,04-03-2015,1 dias,"Portugal, Viseu, Viseu","Artigo 20.º, n.º 1, alínea a) do Código dos Contratos Públicos",,,,,,Não aplicável.,Não aplicável.,FALSE
LÂMINAS CIRURGICAS PARA MÁQUINAS TRICOTOMIA CABEÇA PIVOTANTE,Ajuste Direto Regime Geral,Aquisição de bens móveis,"33700000-7, Produtos para cuidados pessoais","Centro Hospitalar Tondela-Viseu, E. P. E. (509822940)","3M PORTUGAL, LDA (500193940)","14.300,00 €",06-04-2016,29-03-2016,56 dias,"Portugal, Viseu, Viseu","Artigo 20.º, n.º 1, alínea a) do Código dos Contratos Públicos",,,,,,Não aplicável.,Não aplicável.,FALSE
ENDOPRÓTESE PERIFÉRICA ESPANSIVA,Ajuste Direto Regime Geral,Aquisição de bens móveis,"33184200-5, Próteses vasculares","Centro Hospitalar Tondela-Viseu, E. P. E. (509822940)","MEDICINÁLIA CORMEDICA, LDA (500684324)","5.249,00 €",05-04-2016,15-12-2015,1 dias,"Portugal, Viseu, Viseu","Artigo 20.º, n.º 1, alínea a) do Código dos Contratos Públicos",,,,,,Não aplicável.,Não aplicável.,FALSE
MATERIAL APLICADO - COLUNA,Ajuste Direto Regime Geral,Aquisição de bens móveis,"33183100-7, Implantes ortopédicos","Centro Hospitalar Tondela-Viseu, E. P. E. (509822940)","MEDTRONIC PORTUGAL, LDA (504223933)","5.760,00 €",05-04-2016,27-11-2015,1 dias,"Portugal, Viseu, Viseu","Artigo 20.º, n.º 1, alínea a) do Código dos Contratos Públicos",,,,,,Não aplicável.,Não aplicável.,FALSE
EXPANSOR MAMÁRIO E PRÓTESE MAMÁRIA REDONDA,Ajuste Direto Regime Geral,Aquisição de bens móveis,"33184400-7, Próteses mamárias","Centro Hospitalar Tondela-Viseu, E. P. E. (509822940)","EXPOMEDICA, LDA (501886621)","7.250,00 €",05-04-2016,30-10-2015,1 dias,"Portugal, Viseu, Viseu","Artigo 20.º, n.º 1, alínea a) do Código dos Contratos Públicos",,,,,,Não aplicável.,Não aplicável.,FALSE
MATERIAL APLICADO,Ajuste Direto Regime Geral,Aquisição de bens móveis,"33183100-7, Implantes ortopédicos","Centro Hospitalar Tondela-Viseu, E. P. E. (509822940)","MEDTRONIC PORTUGAL, LDA (504223933)","5.760,00 €",05-04-2016,02-11-2015,1 dias,"Portugal, Viseu, Viseu","Artigo 20.º, n.º 1, alínea a) do Código dos Contratos Públicos",,,,,,Não aplicável.,Não aplicável.,FALSE
MATERIAL APLICADO - COLUNA,Ajuste Direto Regime Geral,Aquisição de bens móveis,"33183100-7, Implantes ortopédicos","Centro Hospitalar Tondela-Viseu, E. P. E. (509822940)","JOHNSON & JOHNSON, MEDICAL (500153370)","5.934,76 €",04-04-2016,31-08-2015,1 dias,"Portugal, Viseu, Viseu","Artigo 20.º, n.º 1, alínea a) do Código dos Contratos Públicos",,,,,,Não aplicável.,Não aplicável.,FALSE
MATERIAL APLICADO,Ajuste Direto Regime Geral,Aquisição de bens móveis,"33183100-7, Implantes ortopédicos","Centro Hospitalar Tondela-Viseu, E. P. E. (509822940)","JOHNSON & JOHNSON, MEDICAL (500153370)","7.167,29 €",04-04-2016,06-11-2015,1 dias,"Portugal, Viseu, Viseu","Artigo 20.º, n.º 1, alínea a) do Código dos Contratos Públicos",,,,,,Não aplicável.,Não aplicável.,FALSE
EQUIPAMENTO PARA UTE - GASTRO - PNEUMO - CONCLUSÃO,Ajuste Direto Regime Geral,Aquisição de bens móveis,"33000000-0, Equipamento médico, medicamentos e produtos para cuidados pessoais","Centro Hospitalar Tondela-Viseu, E. P. E. (509822940)",SISTEMAS INTEGRALES DE LA MEDICINA S.A-SUCURSAL EM PORTUGAL (980488842),"90.762,00 €",31-03-2016,30-03-2016,1 dias,"Portugal, Viseu, Viseu","Artigo 24.º, n.º 1, alínea e) do Código dos Contratos Públicos",,,,,,Não aplicável.,Não aplicável.,FALSE
CENTRIFUGA (IMUNO),Ajuste Direto Regime Geral,Aquisição de bens móveis,"33000000-0, Equipamento médico, medicamentos e produtos para cuidados pessoais","Centro Hospitalar Tondela-Viseu, E. P. E. (509822940)","SUPPLYLAB, LDA. (508453534)","5.195,52 €",31-03-2016,17-03-2016,1 dias,"Portugal, Viseu, Viseu","Artigo 20.º, n.º 1, alínea a) do Código dos Contratos Públicos",,,,,,Não aplicável.,Não aplicável.,FALSE
