Objeto do Contrato,Tipo de Procedimento,Tipo(s) de Contrato,CPVs,Entidade(s) Adjudicante(s),Entidade(s) Adjudicatária(s),Preço Contratual,Data de Publicação,Data de Celebração do Contrato,Prazo de Execução,Local de Execução,Fundamentação,Data de Fecho do Contrato,Preço Total Efetivo,Causas das Alterações ao Prazo,Causas das Alterações ao Preço,Estado,N.º registo do Acordo Quadro,Descrição do Acordo Quadro,Procedimento Centralizado
Contratação de serviços para manutenção dos espectrofotómetros de absorção molecular do Laboratório de Saúde Pública do Alentejo - Polos de Évora e Portalegre,Ajuste Direto Regime Geral,Aquisição de serviços,"50400000-9, Serviços de reparação e manutenção de equipamento médico e de precisão","Administração Regional de Saúde do Alentejo, I. P. (503148768)"," UNICAM - SISTEMAS ANALITICOS, LDA (502614625)","1.760,00 €",31-01-2017,08-06-2016,60 dias,"Portugal, Portalegre, Portalegre<BR/>Portugal, Évora, Évora","Artigo 24.º, n.º 1, alínea e) do Código dos Contratos Públicos",24-06-2016,"1.760,00 €",,"",,Não aplicável.,Não aplicável.,FALSE
"Serviços de Manutenção e Assistência Técnica aos PACS ISITE e Xcelera Philips instaldo na ARSA,I.P.",Ajuste Direto Regime Geral,Aquisição de serviços,"50000000-5, Serviços de reparação e manutenção","Administração Regional de Saúde do Alentejo, I. P. (503148768)","Philips Portuguesa, S.A. (500216843)","12.901,00 €",31-01-2017,21-06-2016,365 dias,"Portugal, Évora","Artigo 20.º, n.º 1, alínea a) do Código dos Contratos Públicos",30-12-2016,"12.901,00 €",,"",,Não aplicável.,Não aplicável.,FALSE
Contratação de serviços para manutenção das câmaras de fluxo laminar e hottes do Laboratório de Saúde Pública do Alentejo - Polos de Évora e Portalegre,Ajuste Direto Regime Geral,Aquisição de serviços,"50400000-9, Serviços de reparação e manutenção de equipamento médico e de precisão",Administração Regional de Saúde do Alentejo (ARSA) (503148768),"INTERFACE - EQUIPAMENTO E TECNICA, LDA. (501379860)","1.872,00 €",31-01-2017,23-06-2016,150 dias,"Portugal, Évora, Évora<BR/>Portugal, Portalegre, Portalegre","Artigo 20.º, n.º 1, alínea a) do Código dos Contratos Públicos",11-11-2016,"1.872,00 €",,"",,Não aplicável.,Não aplicável.,FALSE
"Serviços de manutenção de Hardware do datacenter instalado na ARSA, I.P. durante o ano 2016.",Ajuste Direto Regime Geral,Aquisição de serviços,"50000000-5, Serviços de reparação e manutenção","Administração Regional de Saúde do Alentejo, I. P. (503148768)","HEWLETT - Packard Portugal, Ldª (502407697)","8.868,59 €",31-01-2017,24-03-2016,365 dias,"Portugal, Évora","Artigo 20.º, n.º 1, alínea a) do Código dos Contratos Públicos",31-12-2016,"8.868,59 €",,"",,Não aplicável.,Não aplicável.,FALSE
Aquisição de garrafas para funcionamento do espectrofotómetro de absorção atómica do Laboratório de Saúde Pública da Região Alentejo - Polo de Portalegre,Ajuste Direto Regime Geral,Aquisição de serviços,"65200000-5, Serviços de distribuição de gás e serviços conexos",Administração Regional de Saúde do Alentejo (ARSA) (503148768),"AIR LIQUIDE MEDICINAL,S.A. (501576436)","1.979,46 €",31-01-2017,25-05-2016,210 dias,"Portugal, Portalegre, Portalegre","Artigo 20.º, n.º 1, alínea a) do Código dos Contratos Públicos",30-12-2016,"1.319,64 €",,"Não foram necessárias as 6 garrafas, conforme previsto inicialmente (apenas 4)",,Não aplicável.,Não aplicável.,FALSE
Aquisição de Fardamento para os Centros de Saúde da ARS Alentejo,Ajuste Direto Regime Geral,Aquisição de bens móveis,"18110000-3, Vestuário profissional","Administração Regional de Saúde do Alentejo, I. P. (503148768)","Perfil Azul, Unipessoal, Lda. (508414040)","19.393,04 €",31-01-2017,23-11-2016,60 dias,"Portugal, Évora","Artigo 20.º, n.º 1, alínea a) do Código dos Contratos Públicos",27-12-2016,"19.393,04 €",,"",,Não aplicável.,Não aplicável.,FALSE
Aquisição de lentículas para os Laboratórios de Saúde Pública do Alentejo - Polos de Évora e Portalegre,Ajuste Direto Regime Geral,Aquisição de bens móveis,"24900000-3, Produtos químicos variados e de alta qualidade",Administração Regional de Saúde do Alentejo (ARSA) (503148768),NORMAX (500203130),"598,80 €",31-01-2017,30-03-2016,20 dias,"Portugal, Portalegre, Portalegre<BR/>Portugal, Évora, Évora","Artigo 20.º, n.º 1, alínea a) do Código dos Contratos Públicos",05-04-2016,"598,80 €",,"",,Não aplicável.,Não aplicável.,FALSE
