Objeto do Contrato,Tipo de Procedimento,Tipo(s) de Contrato,CPVs,Entidade(s) Adjudicante(s),Entidade(s) Adjudicatária(s),Preço Contratual,Data de Publicação,Data de Celebração do Contrato,Prazo de Execução,Local de Execução,Fundamentação,Data de Fecho do Contrato,Preço Total Efetivo,Causas das Alterações ao Prazo,Causas das Alterações ao Preço,Estado,N.º registo do Acordo Quadro,Descrição do Acordo Quadro,Procedimento Centralizado
AD 03452/2017 - Manutenção de equipamento de marca Toshiba,Ajuste Direto Regime Geral,Aquisição de serviços,"50000000-5, Serviços de reparação e manutenção","Hospital da Senhora da Oliveira Guimarães, E. P. E. (508080827)",TOSHIBA MEDICAL SYSTEMS S.A. (980023700),"7.037,00 €",20-09-2017,08-08-2017,180 dias,"Portugal, Braga, Guimarães","Artigo 20.º, n.º 1, alínea a) do Código dos Contratos Públicos",,,,,,Não aplicável.,Não aplicável.,FALSE
AD  03594/2017 . Manutenção de rede de gases medicinais,Ajuste Direto Regime Geral,Aquisição de serviços,"50000000-5, Serviços de reparação e manutenção","Hospital da Senhora da Oliveira Guimarães, E. P. E. (508080827)",Air Liquide Medicinal (501576436),"9.840,00 €",20-09-2017,21-06-2017,180 dias,"Portugal, Braga, Guimarães","Artigo 20.º, n.º 1, alínea a) do Código dos Contratos Públicos",,,,,,Não aplicável.,Não aplicável.,FALSE
AD 03456/2017 Manutenção de equipamanento de ventilação assistida,Ajuste Direto Regime Geral,Aquisição de serviços,"50000000-5, Serviços de reparação e manutenção","Hospital da Senhora da Oliveira Guimarães, E. P. E. (508080827)",Pulmocor (501402578),"8.500,00 €",20-09-2017,21-06-2017,180 dias,"Portugal, Braga, Guimarães","Artigo 20.º, n.º 1, alínea a) do Código dos Contratos Públicos",,,,,,Não aplicável.,Não aplicável.,FALSE
Manutenção de equipamento de marca Philips,Ajuste Direto Regime Geral,Aquisição de serviços,"50000000-5, Serviços de reparação e manutenção","Hospital da Senhora da Oliveira Guimarães, E. P. E. (508080827)",STB - Serviços Telemáticos e Biomédicos Unipessoal Lda (506989020),"5.340,00 €",20-09-2017,21-06-2017,180 dias,"Portugal, Braga, Guimarães","Artigo 20.º, n.º 1, alínea a) do Código dos Contratos Públicos",,,,,,Não aplicável.,Não aplicável.,FALSE
