Objeto do Contrato,Tipo de Procedimento,Tipo(s) de Contrato,CPVs,Entidade(s) Adjudicante(s),Entidade(s) Adjudicatária(s),Preço Contratual,Data de Publicação,Data de Celebração do Contrato,Prazo de Execução,Local de Execução,Fundamentação,Data de Fecho do Contrato,Preço Total Efetivo,Causas das Alterações ao Prazo,Causas das Alterações ao Preço,Estado,N.º registo do Acordo Quadro,Descrição do Acordo Quadro,Procedimento Centralizado
40039/2014 - Detergentes,Ajuste Direto Regime Geral,Aquisição de bens móveis,"39831200-8, Detergentes","Centro Hospitalar Barreiro Montijo, E. P. E. (509186998)",Franklab (506058654),"7.521,16 €",10-03-2014,07-03-2014,360 dias,"Portugal, Setúbal, Barreiro","Artigo 20.º, n.º 1, alínea a) do Código dos Contratos Públicos",31-12-2014,"3.126,00 €",,alteração de quantidades,,Não aplicável.,Não aplicável.,FALSE
40028/2014 - Papel Marquesa - Toalhetes de Celulose - Pano seca mais,Ajuste Direto Regime Geral,Aquisição de bens móveis,"33771000-5, Produtos sanitários de papel","CHBM - Centro Hospital Barreiro Montijo, EPE (509186998)",Artur e Guerreiro (503897787),"21.543,00 €",06-03-2014,04-03-2014,360 dias,"Portugal, Setúbal, Barreiro","Artigo 20.º, n.º 1, alínea a) do Código dos Contratos Públicos",31-12-2014,"22.470,15 €",,alteração de quantidades,,Não aplicável.,Não aplicável.,FALSE
