Objeto do Contrato,Tipo de Procedimento,Tipo(s) de Contrato,CPVs,Entidade(s) Adjudicante(s),Entidade(s) Adjudicatária(s),Preço Contratual,Data de Publicação,Data de Celebração do Contrato,Prazo de Execução,Local de Execução,Fundamentação,Data de Fecho do Contrato,Preço Total Efetivo,Causas das Alterações ao Prazo,Causas das Alterações ao Preço,Estado,N.º registo do Acordo Quadro,Descrição do Acordo Quadro,Procedimento Centralizado
Aquisição de 40.000 unidades de Ibuprofeno 400 mg,Ao abrigo de acordo-quadro (art.º 259.º),Aquisição de bens móveis,"33600000-6, Produtos farmacêuticos","Administração Regional de Saúde do Norte, I. P. (503135593)","Labesfal, S.A. (501169580)","872,00 €",11-02-2015,21-01-2015,339 dias,"Portugal, Porto, Maia<BR/>Portugal, Distrito não determinado, Concelho não determinado<BR/>Portugal, Vila Real, Vila Real",Artigo 259.º do Código dos Contratos Públicos,14-05-2015,"871,13 €",,Numero de unidades por embalagem,,600392,"CONCURSO PÚBLICO PARA A CELEBRAÇÃO DE CONTRATOS PÚBLICOS DE APROVISIONAMENTO PARA A ÁREA DA SAÚDE, COM VISTA AO FORNECIMENTO DE MEDICAMENTOS DE CONSUMO GERAL - APARELHO LOCOMOTOR ÀS INSTITUIÇÕES E SERVIÇOS DO SERVIÇO NACIONAL DE SAÚDE",FALSE
Aquisição de 150 bisnagas de Diclofenac 10mg/g gel bisnaga 100g,Ao abrigo de acordo-quadro (art.º 259.º),Aquisição de bens móveis,"33600000-6, Produtos farmacêuticos","Administração Regional de Saúde do Norte, I. P. (503135593)","Overpharma, lda (505792362)","178,50 €",11-02-2015,21-01-2015,339 dias,"Portugal, Distrito não determinado, Concelho não determinado<BR/>Portugal, Vila Real, Vila Real<BR/>Portugal, Porto, Maia",Artigo 259.º do Código dos Contratos Públicos,26-05-2015,"166,60 €",,Numero de unidades por embalagem,,600392,"CONCURSO PÚBLICO PARA A CELEBRAÇÃO DE CONTRATOS PÚBLICOS DE APROVISIONAMENTO PARA A ÁREA DA SAÚDE, COM VISTA AO FORNECIMENTO DE MEDICAMENTOS DE CONSUMO GERAL - APARELHO LOCOMOTOR ÀS INSTITUIÇÕES E SERVIÇOS DO SERVIÇO NACIONAL DE SAÚDE",FALSE
AP -3126 - Procº 14003546 - Aquisição de Reagentes e meios de diagnóstico,Ajuste Direto Regime Geral,Aquisição de bens móveis,"33694000-1, Meios de diagnóstico","Administração Regional de Saúde do Norte,IP (ARSN) (503135593)","TECNILAB PORTUGAL, S.A. (500758158)","27.961,38 €",10-02-2015,19-01-2015,365 dias,"Portugal, Vila Real, Vila Real","Artigo 24.º, n.º 1, alínea e) do Código dos Contratos Públicos",14-12-2015,"27.961,38 €",,"",,Não aplicável.,Não aplicável.,FALSE
A.P. 2541 - Aquisição de Aquisição de 12.000 comp. de Pirazinamida 500 mg,Ao abrigo de acordo-quadro (art.º 259.º),Aquisição de bens móveis,"33600000-6, Produtos farmacêuticos","Administração Regional de Saúde do Norte, I. P. (503135593)","Sanofi - Produtos Farmacêuticos, Lda   (500134960)","840,00 €",09-02-2015,13-11-2014,60 dias,"Portugal, Porto, Maia<BR/>Portugal, Vila Real, Vila Real",Artigo 259.º do Código dos Contratos Públicos,17-11-2014,"840,00 €",,"",,611389,"CONCURSO PÚBLICO PARA A CELEBRAÇÃO DE CONTRATOS PÚBLICOS DE APROVISIONAMENTO PARA A ÁREA DA SAÚDE, COM VISTA AO FORNECIMENTO DE MEDICAMENTOS ANTI-INFECIOSOS: EXCETO ANTIVÍRICOS E ANTIFÚNGICOS, ÀS INSTITUIÇÕES E SERVIÇOS DO SERVIÇO NACIONAL DE SAÚDE",FALSE
A.P. 2541 - Aquisição de 1.488 comp. de Ciprofloxacina 500 mg e 3.488 comp. de Claritromicina 500 mg Comp,Ao abrigo de acordo-quadro (art.º 259.º),Aquisição de bens móveis,"33600000-6, Produtos farmacêuticos","Administração Regional de Saúde do Norte, I. P. (503135593)","GENERIS FARMACÊUTICA,SA  (508107997)","677,78 €",09-02-2015,07-11-2014,60 dias,"Portugal, Vila Real, Vila Real",Artigo 259.º do Código dos Contratos Públicos,04-12-2014,"677,78 €",,"",,611389,"CONCURSO PÚBLICO PARA A CELEBRAÇÃO DE CONTRATOS PÚBLICOS DE APROVISIONAMENTO PARA A ÁREA DA SAÚDE, COM VISTA AO FORNECIMENTO DE MEDICAMENTOS ANTI-INFECIOSOS: EXCETO ANTIVÍRICOS E ANTIFÚNGICOS, ÀS INSTITUIÇÕES E SERVIÇOS DO SERVIÇO NACIONAL DE SAÚDE",FALSE
A. P. 2541 - Aquisição de 75 frascos de Amoxicilina2000 mg+Ácido clavulânico200mg Pó Solinj IV,Ao abrigo de acordo-quadro (art.º 259.º),Aquisição de bens móveis,"33600000-6, Produtos farmacêuticos","Administração Regional de Saúde do Norte, I. P. (503135593)","LABESFAL - LABORATÓRIOS ALMIRO, S.A. (501169580)","112,46 €",09-02-2015,07-11-2014,60 dias,"Portugal, Porto, Maia<BR/>Portugal, Vila Real, Vila Real",Artigo 259.º do Código dos Contratos Públicos,12-11-2014,"112,46 €",,"",,611389,"CONCURSO PÚBLICO PARA A CELEBRAÇÃO DE CONTRATOS PÚBLICOS DE APROVISIONAMENTO PARA A ÁREA DA SAÚDE, COM VISTA AO FORNECIMENTO DE MEDICAMENTOS ANTI-INFECIOSOS: EXCETO ANTIVÍRICOS E ANTIFÚNGICOS, ÀS INSTITUIÇÕES E SERVIÇOS DO SERVIÇO NACIONAL DE SAÚDE",FALSE
A.P. 1804 - Aquisição de 49.920 unidades de Penso adesivo impermeável com compressa 10cmx15cm e 19.980 de Penso adesivo impermeável com compressa 10cmx30cm,Ao abrigo de acordo-quadro (art.º 259.º),Aquisição de bens móveis,"33140000-3, Material médico de consumo","Administração Regional de Saúde do Norte, I. P. (503135593)",MOLNLYCKE HEALTH CARE (511101066),"17.776,80 €",06-02-2015,08-08-2014,120 dias,"Portugal, Vila Real, Vila Real",Artigo 259.º do Código dos Contratos Públicos,20-09-2014,"17.776,80 €",,"",,534953,"CONCURSO PÚBLICO PARA A CELEBRAÇÃO DE CONTRATOS PÚBLICOS DE APROVISIONAMENTO PARA A ÁREA DA SAÚDE, COM VISTA AO FORNECIMENTO DE MATERIAL DE PENSO TRADICIONAL/CLASSICO - PARTE 1 - ÀS INSTITUIÇÕES E SERVIÇOS DO SERVIÇO NACIONAL DE SAÚDE  ",FALSE
A.P. 1804 - Aquisição de 796.500 Compressa em T.N.T. esterilizada/5unidades  5x5cm,Ao abrigo de acordo-quadro (art.º 259.º),Aquisição de bens móveis,"33140000-3, Material médico de consumo","Administração Regional de Saúde do Norte, I. P. (503135593)",BASTOS VIEGAS S A - BESLEASING E FACTORING  (500042772),"5.017,95 €",06-02-2015,30-10-2014,120 dias,"Portugal, Vila Real, Vila Real<BR/>Portugal, Porto, Maia",Artigo 259.º do Código dos Contratos Públicos,24-11-2014,"5.017,95 €",,"",,534953,"CONCURSO PÚBLICO PARA A CELEBRAÇÃO DE CONTRATOS PÚBLICOS DE APROVISIONAMENTO PARA A ÁREA DA SAÚDE, COM VISTA AO FORNECIMENTO DE MATERIAL DE PENSO TRADICIONAL/CLASSICO - PARTE 1 - ÀS INSTITUIÇÕES E SERVIÇOS DO SERVIÇO NACIONAL DE SAÚDE  ",FALSE
AP3333 - Procº 14003781 - Aquisição de 1100 ampolas de diazepam 5 mgml Sol inj 2 ml IM IV,Ao abrigo de acordo-quadro (art.º 258.º),Aquisição de bens móveis,"33600000-6, Produtos farmacêuticos","Administração Regional de Saúde do Norte, I. P. (503135593)","LABESFAL - Laboratórios Almiro, S.A. (501169580)","396,00 €",06-02-2015,26-01-2015,365 dias,"Portugal, Porto, Maia<BR/>Portugal, Vila Real, Vila Real",Artigo 258.º do Código dos Contratos Públicos,07-12-2015,"396,00 €",,"",,1179911,"CONCURSO PÚBLICO PARA A CELEBRAÇÃO DE CONTRATOS PÚBLICOS DE APROVISIONAMENTO PARA A ÁREA DA SAÚDE, MEDICAMENTOS DO SISTEMA NERVOSO CEREBROSPINAL, EXCETO: ANESTÉSICOS, RELAXANTES MUSCULARES, ANALGÉSICOS, ANTIPIRÉTICOS, ANTIDEPRESSORES E ANTIPSICÓTICOS, ÀS INSTITUIÇÕES E SERVIÇOS DO SERVIÇO NACIONAL DE SAÚDE",FALSE
AP 3333 - Procº 14003781 - Aquisição de 300 comprimidos de naltrexona 50 mg,Ao abrigo de acordo-quadro (art.º 258.º),Aquisição de bens móveis,"33600000-6, Produtos farmacêuticos","Administração Regional de Saúde do Norte, I. P. (503135593)","FARMOZ - Soc. Técnico Medicinal, S.A. (501505334)","169,50 €",06-02-2015,29-01-2015,365 dias,"Portugal, Vila Real, Vila Real<BR/>Portugal, Porto, Maia",Artigo 258.º do Código dos Contratos Públicos,08-07-2015,"169,50 €",,"",,1179911,"CONCURSO PÚBLICO PARA A CELEBRAÇÃO DE CONTRATOS PÚBLICOS DE APROVISIONAMENTO PARA A ÁREA DA SAÚDE, MEDICAMENTOS DO SISTEMA NERVOSO CEREBROSPINAL, EXCETO: ANESTÉSICOS, RELAXANTES MUSCULARES, ANALGÉSICOS, ANTIPIRÉTICOS, ANTIDEPRESSORES E ANTIPSICÓTICOS, ÀS INSTITUIÇÕES E SERVIÇOS DO SERVIÇO NACIONAL DE SAÚDE",FALSE
AP 3333 - Procº 14003781 - Aquisição de 1800 comprimidos de Oxazepam 50 mg e 1620 comprimidos de Oxazepam 15 mg,Ao abrigo de acordo-quadro (art.º 258.º),Aquisição de bens móveis,"33600000-6, Produtos farmacêuticos","Administração Regional de Saúde do Norte, I. P. (503135593)","MEDA PHARMA - Produtos Farmacêuticos, S.A. (500082090)","182,16 €",06-02-2015,30-01-2015,365 dias,"Portugal, Vila Real, Vila Real<BR/>Portugal, Porto, Maia",Artigo 258.º do Código dos Contratos Públicos,07-07-2015,"182,16 €",,"",,1179911,"CONCURSO PÚBLICO PARA A CELEBRAÇÃO DE CONTRATOS PÚBLICOS DE APROVISIONAMENTO PARA A ÁREA DA SAÚDE, MEDICAMENTOS DO SISTEMA NERVOSO CEREBROSPINAL, EXCETO: ANESTÉSICOS, RELAXANTES MUSCULARES, ANALGÉSICOS, ANTIPIRÉTICOS, ANTIDEPRESSORES E ANTIPSICÓTICOS, ÀS INSTITUIÇÕES E SERVIÇOS DO SERVIÇO NACIONAL DE SAÚDE",FALSE
"AP 3333 - Procº 14003781 - Aquisição de 20 tubos de diazepam 10 mg 2,5 ml Sol rectal 2,5 ml",Ao abrigo de acordo-quadro (art.º 258.º),Aquisição de bens móveis,"33600000-6, Produtos farmacêuticos","Administração Regional de Saúde do Norte, I. P. (503135593)","AUROVITAS UNIPESSOAL, LDA (513053239)","19,10 €",06-02-2015,02-02-2015,365 dias,"Portugal, Vila Real, Vila Real<BR/>Portugal, Porto, Maia",Artigo 258.º do Código dos Contratos Públicos,31-12-2015,"",,Fornecedor não forneceu o produto,,1179911,"CONCURSO PÚBLICO PARA A CELEBRAÇÃO DE CONTRATOS PÚBLICOS DE APROVISIONAMENTO PARA A ÁREA DA SAÚDE, MEDICAMENTOS DO SISTEMA NERVOSO CEREBROSPINAL, EXCETO: ANESTÉSICOS, RELAXANTES MUSCULARES, ANALGÉSICOS, ANTIPIRÉTICOS, ANTIDEPRESSORES E ANTIPSICÓTICOS, ÀS INSTITUIÇÕES E SERVIÇOS DO SERVIÇO NACIONAL DE SAÚDE",FALSE
AP3414 - Procº 14003871 - Aquisição de 66 000 ampolas de diclofenac 25 mgml Sol inj 3 ml IM,Ao abrigo de acordo-quadro (art.º 258.º),Aquisição de bens móveis,"33600000-6, Produtos farmacêuticos","Administração Regional de Saúde do Norte, I. P. (503135593)",Labesfal - Laboratórios Almiro (501169580),"10.560,00 €",06-02-2015,28-01-2015,365 dias,"Portugal, Vila Real, Vila Real<BR/>Portugal, Porto, Maia",Artigo 258.º do Código dos Contratos Públicos,25-08-2015,"10.560,00 €",,"",,1209176,"CONCURSO PÚBLICO PARA A CELEBRAÇÃO DE CONTRATOS PÚBLICOS DE APROVISIONAMENTO PARA A ÁREA DA SAÚDE, COM VISTA AO FORNECIMENTO DE MEDICAMENTOS DIVERSOS, ÀS INSTITUIÇÕES E SERVIÇOS DO SERVIÇO NACIONAL DE SAÚDE",FALSE
AP 3414 - 14003871 - Aquisição de 1400 frascos de Ibuprofeno 20 mgml Susp oral,Ao abrigo de acordo-quadro (art.º 258.º),Aquisição de bens móveis,"33600000-6, Produtos farmacêuticos","Administração Regional de Saúde do Norte, I. P. (503135593)",Generis Farmacêutica (508107997),"1.442,00 €",06-02-2015,28-01-2015,365 dias,"Portugal, Vila Real, Vila Real",Artigo 258.º do Código dos Contratos Públicos,25-08-2015,"1.442,00 €",,"",,1209176,"CONCURSO PÚBLICO PARA A CELEBRAÇÃO DE CONTRATOS PÚBLICOS DE APROVISIONAMENTO PARA A ÁREA DA SAÚDE, COM VISTA AO FORNECIMENTO DE MEDICAMENTOS DIVERSOS, ÀS INSTITUIÇÕES E SERVIÇOS DO SERVIÇO NACIONAL DE SAÚDE",FALSE
"AP 3379 - Procº 500191360 - Aquisição  de 30 frascos de betametasona 0,5 mgml Sol oral Fr 30 ml",Ajuste Direto Regime Geral,Aquisição de bens móveis,"33600000-6, Produtos farmacêuticos","Administração Regional de Saúde do Norte, I. P. (503135593)","Merck Sharp & Dohme, Lda (500191360)","41,40 €",06-02-2015,16-01-2015,365 dias,"Portugal, Porto, Maia<BR/>Portugal, Vila Real, Vila Real","Artigo 24.º, n.º 1, alínea e) do Código dos Contratos Públicos",13-05-2015,"41,40 €",,"",,Não aplicável.,Não aplicável.,FALSE
6 000 Unidades de bolsas suspensas com riscas na lateral e com alfabeto; 30 blocos declaração do utente (excl. do DICAD); 30 blocos proposta de admissão (excl. do DICAD),Ajuste Direto Regime Geral,Aquisição de bens móveis,"22100000-1, Livros, brochuras e folhetos impressos","Administração Regional de Saúde do Norte, I. P. (503135593)","Reticências Coloridas, Lda (513134921)","2.310,00 €",06-02-2015,26-11-2014,365 dias,"Portugal, Vila Real, Vila Real","Artigo 20.º, n.º 1, alínea a) do Código dos Contratos Públicos",30-12-2014,"2.310,00 €",,"",,Não aplicável.,Não aplicável.,FALSE
A. P. 1804 Proc. 14002072 - Aquisição de 4992 rolos de Adesivo Hip. suporte não tecido 10mx10cm e 4320 kit de sutura,Ao abrigo de acordo-quadro (art.º 259.º),Aquisição de bens móveis,"33140000-3, Material médico de consumo","Administração Regional de Saúde do Norte, I. P. (503135593)",Bastos Viegas S.A. (500042772),"12.768,00 €",05-02-2015,20-08-2014,120 dias,"Portugal, Porto, Maia<BR/>Portugal, Vila Real, Vila Real",Artigo 259.º do Código dos Contratos Públicos,15-09-2014,"12.768,00 €",,"",,534953,"CONCURSO PÚBLICO PARA A CELEBRAÇÃO DE CONTRATOS PÚBLICOS DE APROVISIONAMENTO PARA A ÁREA DA SAÚDE, COM VISTA AO FORNECIMENTO DE MATERIAL DE PENSO TRADICIONAL/CLASSICO - PARTE 1 - ÀS INSTITUIÇÕES E SERVIÇOS DO SERVIÇO NACIONAL DE SAÚDE  ",FALSE
AP2607- Procº 14002987 - Aquisição de 40800 unidades de impregnado c/ vaselina ou petrolato 10 cm x10 cm,Ao abrigo de acordo-quadro (art.º 259.º),Aquisição de bens móveis,"33140000-3, Material médico de consumo","Administração Regional de Saúde do Norte, I. P. (503135593)",COVIDIEN PORTUGAL (503413410),"4.885,20 €",05-02-2015,27-11-2014,60 dias,"Portugal, Vila Real, Vila Real",Artigo 259.º do Código dos Contratos Públicos,28-11-2014,"4.885,20 €",,"",,1315192,Acordo Quadro para fornecimento de material de penso de efeito terapêutico às Instituições e Serviços do Serviço Nacional de Saúde,FALSE
AP 2607 - Procº 14002987 - Aquisição de 3000 pensos película poliuretano com acrílico absorvente 10x10 cm,Ao abrigo de acordo-quadro (art.º 259.º),Aquisição de bens móveis,"33140000-3, Material médico de consumo","Administração Regional de Saúde do Norte, I. P. (503135593)",Clinifar - Prod. Clinico Farmacêuticos (503281115),"690,00 €",05-02-2015,26-11-2014,60 dias,"Portugal, Vila Real, Vila Real",Artigo 259.º do Código dos Contratos Públicos,10-12-2014,"690,00 €",,"",,1315192,Acordo Quadro para fornecimento de material de penso de efeito terapêutico às Instituições e Serviços do Serviço Nacional de Saúde,FALSE
AP - 2607 - Procº 14002987 - Aquisição de 38000 unidades de penso de poliuretano e silicone c/ rebordo 15x15cm,Ao abrigo de acordo-quadro (art.º 259.º),Aquisição de bens móveis,"33140000-3, Material médico de consumo","Administração Regional de Saúde do Norte, I. P. (503135593)","Smith & Nephew, Lda (503552461)","93.480,00 €",05-02-2015,26-12-2014,45 dias,"Portugal, Vila Real, Vila Real<BR/>Portugal, Porto, Maia",Artigo 259.º do Código dos Contratos Públicos,28-11-2014,"93.480,00 €",,"",,1315192,Acordo Quadro para fornecimento de material de penso de efeito terapêutico às Instituições e Serviços do Serviço Nacional de Saúde,FALSE
"500 Frascos de Isoniazida 0,68% xarope",Ajuste Direto Regime Geral,Aquisição de bens móveis,"33600000-6, Produtos farmacêuticos","Administração Regional de Saúde do Norte, I. P. (503135593)",Laboratório Militar (600019675),"1.260,00 €",05-02-2015,17-09-2014,365 dias,"Portugal, Vila Real, Vila Real","Artigo 24.º, n.º 1, alínea e) do Código dos Contratos Públicos",19-12-2014,"1.260,00 €",,"",,Não aplicável.,Não aplicável.,FALSE
AP 2591 - OProcº 14002968 - Aquisição de luvas em nitrilo tamanho  e S não esterilizada,Ao abrigo de acordo-quadro (art.º 259.º),Aquisição de bens móveis,"33140000-3, Material médico de consumo","Administração Regional de Saúde do Norte, I. P. (503135593)","DOCWORLD, LDA (508592909)","30.147,00 €",05-02-2015,19-11-2014,60 dias,"Portugal, Vila Real, Vila Real<BR/>Portugal, Porto, Maia",Artigo 259.º do Código dos Contratos Públicos,25-11-2014,"30.147,00 €",,"",,544071,"CONCURSO PÚBLICO PARA A CELEBRAÇÃO DE CONTRATOS PÚBLICOS DE APROVISIONAMENTO PARA A ÁREA DA SAÚDE, COM VISTA AO FORNECIMENTO DE LUVAS PARA USO MÉDICO, ÀS INSTITUIÇÕES E SERVIÇOS DO SERVIÇO NACIONAL DE SAÚDE",FALSE
40 Unidades de Cachimbo de adaptação,Ajuste Direto Regime Geral,Aquisição de bens móveis,"33140000-3, Material médico de consumo","Administração Regional de Saúde do Norte, I. P. (503135593)",Salutec - Serviços e equipamentos de Saúde (506380408),"60,00 €",05-02-2015,19-08-2014,365 dias,"Portugal, Vila Real, Vila Real","Artigo 20.º, n.º 1, alínea a) do Código dos Contratos Públicos",23-09-2014,"60,00 €",,"",,Não aplicável.,Não aplicável.,FALSE
AP 2606 - Procº 14002986 - Aquisição de 2500 pensos poliuretano c/ prata 15x15 cm c/ rebordo,Ao abrigo de acordo-quadro (art.º 259.º),Aquisição de bens móveis,"33140000-3, Material médico de consumo","Administração Regional de Saúde do Norte, I. P. (503135593)",Clinifar - Prod. Clin. farmacêuticos (503281115),"14.500,00 €",05-02-2015,27-11-2014,60 dias,"Portugal, Vila Real, Vila Real<BR/>Portugal, Porto, Maia",Artigo 259.º do Código dos Contratos Públicos,10-12-2014,"14.500,00 €",,"",,1315192,Acordo Quadro para fornecimento de material de penso de efeito terapêutico às Instituições e Serviços do Serviço Nacional de Saúde,FALSE
AP2606 - Procº 14002986 - Aquisição de 25  pensos poliuretano com prata 15x15 cm com rebordo,Ao abrigo de acordo-quadro (art.º 259.º),Aquisição de bens móveis,"33140000-3, Material médico de consumo","Administração Regional de Saúde do Norte, I. P. (503135593)","Clinifar - Prod. Clin. Farmacêuticos, S.A. (503281115)","14.500,00 €",05-02-2015,27-11-2014,60 dias,"Portugal, Vila Real, Vila Real<BR/>Portugal, Porto, Maia",Artigo 259.º do Código dos Contratos Públicos,10-12-2014,"14.500,00 €",,"",,1315192,Acordo Quadro para fornecimento de material de penso de efeito terapêutico às Instituições e Serviços do Serviço Nacional de Saúde,FALSE
AP 2606 - Procº 14002986 - Aquisição de 18500 unidades de penso poliuretano para região sacro-coccígea,Ao abrigo de acordo-quadro (art.º 259.º),Aquisição de bens móveis,"33140000-3, Material médico de consumo","Administração Regional de Saúde do Norte, I. P. (503135593)","B Braun Medical, Lda (501506543)","36.796,50 €",05-02-2015,27-11-2014,60 dias,"Portugal, Vila Real, Vila Real<BR/>Portugal, Porto, Maia",Artigo 259.º do Código dos Contratos Públicos,26-12-2014,"36.796,50 €",,"",,1315192,Acordo Quadro para fornecimento de material de penso de efeito terapêutico às Instituições e Serviços do Serviço Nacional de Saúde,FALSE
AP 2592- Procº 14002969 - Aquisição de 2500 rolos adesivo hipoalérgico suporte não etcido 10 mx20 cm,Ao abrigo de acordo-quadro (art.º 259.º),Aquisição de bens móveis,"33140000-3, Material médico de consumo","Administração Regional de Saúde do Norte, I. P. (503135593)",Paul Hartmann (502271728),"5.500,00 €",05-02-2015,27-11-2014,60 dias,"Portugal, Porto, Maia<BR/>Portugal, Vila Real, Vila Real",Artigo 259.º do Código dos Contratos Públicos,11-12-2014,"5.500,00 €",,"",,534953,"CONCURSO PÚBLICO PARA A CELEBRAÇÃO DE CONTRATOS PÚBLICOS DE APROVISIONAMENTO PARA A ÁREA DA SAÚDE, COM VISTA AO FORNECIMENTO DE MATERIAL DE PENSO TRADICIONAL/CLASSICO - PARTE 1 - ÀS INSTITUIÇÕES E SERVIÇOS DO SERVIÇO NACIONAL DE SAÚDE  ",FALSE
AP 2592- Procº 14002969 - Aquisição de 29760 pemso adesivo impermeável com compressa 10 cm x 15 cm e 49 920 pensos adesivo imperéável com compressa 10x10 cm,Ao abrigo de acordo-quadro (art.º 259.º),Aquisição de bens móveis,"33140000-3, Material médico de consumo","Administração Regional de Saúde do Norte, I. P. (503135593)",Molnlycke Healt Care (511101066),"12.844,80 €",05-02-2015,25-11-2014,60 dias,"Portugal, Porto, Maia<BR/>Portugal, Vila Real, Vila Real",Artigo 259.º do Código dos Contratos Públicos,03-12-2014,"12.844,80 €",,"",,534953,"CONCURSO PÚBLICO PARA A CELEBRAÇÃO DE CONTRATOS PÚBLICOS DE APROVISIONAMENTO PARA A ÁREA DA SAÚDE, COM VISTA AO FORNECIMENTO DE MATERIAL DE PENSO TRADICIONAL/CLASSICO - PARTE 1 - ÀS INSTITUIÇÕES E SERVIÇOS DO SERVIÇO NACIONAL DE SAÚDE  ",FALSE
Ap 3046- 14003437 - Aquisição de 1000 caixas de Loperamida 2 mg,Ajuste Direto Regime Geral,Aquisição de bens móveis,"33600000-6, Produtos farmacêuticos","Administração Regional de Saúde do Norte, I. P. (503135593)",RATIOPHARM (502414910),"0,00 €",05-02-2015,05-12-2014,25 dias,"Portugal, Porto, Maia<BR/>Portugal, Vila Real, Vila Real",Artigo 258.º do Código dos Contratos Públicos,10-12-2014,"30,00 €",,Sem alteração de valor,,1382719,Ap 3046- 14003437 - Aquisição de 1000 caixas de Loperamida 2 mg,FALSE
Aquisição de 252  carteiras de colagénio pé 1 g,Ajuste Direto Regime Geral,Aquisição de bens móveis,"33600000-6, Produtos farmacêuticos","Administração Regional de Saúde do Norte, I. P. (503135593)",PARS - Consultoria e Prestações de Serviços (505642948),"0,00 €",05-02-2015,19-12-2014,365 dias,"Portugal, Vila Real, Vila Real<BR/>Portugal, Porto, Maia",Artigo 258.º do Código dos Contratos Públicos,22-12-2014,"1.134,00 €",,sem alteração de valor,,1382705,Aquisição de 252  carteiras de colagénio pé 1 g,FALSE
"Aquisição de serviços de conferência de MCDT's Manuais, farmácias hospitalares, oxigenioterapia, transporte de doentes e de hemodialisados, hospitalização privada, acordos internacionais e Cuidados integrados - Região Norte  e leitura de cheques dentista - Processo 15000065.",Ajuste Direto Regime Geral,Aquisição de serviços,"72512000-7, Serviços de gestão de documentos","Administração Regional de Saúde do Norte, I. P. (503135593)",Confact SA (504271733),"240.300,00 €",04-02-2015,02-01-2015,365 dias,"Portugal, Porto","Artigo 27.º, n.º 1, alínea a) e n.º 2 do Código dos Contratos Públicos",30-12-2015,"195.426,90 €",,"O preço contratual considerado correspondia ao valor máximo previsto para o ano 2015 que não foi atingido.  Assim, efetuaram-se menos conferências de faturas e menos leituras e conferências de cheques dentista do que o previsto no contrato.",,Não aplicável.,Não aplicável.,FALSE
Aquisição de 8.000 doses de vacina anti-gripe inativada,Ao abrigo de acordo-quadro (art.º 258.º),Aquisição de bens móveis,"33651600-4, Vacinas","Administração Regional de Saúde do Norte, I. P. (503135593)",Administração Regional Saúde Lisboa e Vale do Tejo (503148776),"23.040,00 €",04-02-2015,25-11-2014,35 dias,"Portugal, Porto, Maia<BR/>Portugal, Vila Real, Vila Real<BR/>Portugal, Distrito não determinado, Concelho não determinado",Artigo 258.º do Código dos Contratos Públicos,04-02-2015,"23.040,00 €",,"",,1281895,Aquisição de vacinas contra gripe sazonal 2014,FALSE
Identificação das necessidades psicossociais  e respostas sociais existentes entre doentes infetados por VIH/Sida na Região Norte de Portugal,Ajuste Direto Regime Geral,Aquisição de serviços,"79720000-7, Serviços de pesquisa e investigação","Administração Regional de Saúde do Norte, I. P. (503135593)",Universidade do Minho (502011378),"26.707,31 €",04-02-2015,09-12-2013,365 dias,"Portugal, Porto<BR/>Portugal, Braga<BR/>Portugal, Vila Real<BR/>Portugal, Braganca","Artigo 20.º, n.º 1, alínea a) do Código dos Contratos Públicos",02-12-2014,"26.707,31 €",,"",,Não aplicável.,Não aplicável.,FALSE
