Objeto do Contrato,Tipo de Procedimento,Tipo(s) de Contrato,CPVs,Entidade(s) Adjudicante(s),Entidade(s) Adjudicatária(s),Preço Contratual,Data de Publicação,Data de Celebração do Contrato,Prazo de Execução,Local de Execução,Fundamentação,Data de Fecho do Contrato,Preço Total Efetivo,Causas das Alterações ao Prazo,Causas das Alterações ao Preço,Estado,N.º registo do Acordo Quadro,Descrição do Acordo Quadro,Procedimento Centralizado
Fornecimento e Instalação de 10 (dez) Desfibrilhadores Automáticos Externos com acessórios,Ajuste Direto Regime Geral,Aquisição de bens móveis,"33182100-0, Desfibrilhador","Unidade Local de Saúde de Castelo Branco, E.P.E. (509309844)","PHYSIO PORTUGAL SALES, UNIPESSOAL, LDA. (510137946)","23.678,00 €",30-09-2016,09-09-2016,45 dias,"Portugal, Castelo Branco, Castelo Branco","Artigo 20.º, n.º 1, alínea a) do Código dos Contratos Públicos",25-11-2016,"23.678,00 €",,,,Não aplicável.,Não aplicável.,FALSE
"Fornecimento e Instalação de 1 Videocolonoscópio para o Serviço de Gastrenterologia, com retoma do avariado",Ajuste Direto Regime Geral,Aquisição de bens móveis,"33168000-5, Aparelhos para endoscopia e endocirurgia","Unidade Local de Saúde de Castelo Branco, E. P. E. (509309844)",Olympus Iberia (980474710),"17.250,00 €",30-09-2016,26-09-2016,30 dias,"Portugal, Castelo Branco, Castelo Branco","Artigo 24.º, n.º 1, alínea e) do Código dos Contratos Públicos",13-10-2016,"17.250,00 €",,,,Não aplicável.,Não aplicável.,FALSE
