Objeto do Contrato,Tipo de Procedimento,Tipo(s) de Contrato,CPVs,Entidade(s) Adjudicante(s),Entidade(s) Adjudicatária(s),Preço Contratual,Data de Publicação,Data de Celebração do Contrato,Prazo de Execução,Local de Execução,Fundamentação,Data de Fecho do Contrato,Preço Total Efetivo,Causas das Alterações ao Prazo,Causas das Alterações ao Preço,Estado,N.º registo do Acordo Quadro,Descrição do Acordo Quadro,Procedimento Centralizado
Aquisição de serviços para apoio na área de licenciamento de instalações radiológicas,Ajuste Direto Regime Geral,Aquisição de serviços,"79900000-3, Serviços empresariais diversos e afins",Direcção-Geral da Saúde (DGS) (600037100),Inês Doroteia de Carvalho Krull (246061855),"24.200,00 €",08-06-2017,01-06-2017,365 dias,"Portugal, Lisboa","Artigo 20.º, n.º 1, alínea a) do Código dos Contratos Públicos",,,,,,Não aplicável.,Não aplicável.,FALSE
Aquisição Vacina contra Hepatite A Criança,Ajuste Direto Regime Geral,Aquisição de bens móveis,"33651600-4, Vacinas",Direcção-Geral da Saúde (DGS) (600037100),"GlaxoSmithKline, Produtos Farmacêuticos, Lda. (500139962)","115.600,00 €",07-06-2017,10-04-2017,260 dias,Portugal,"Artigo 24.º, n.º 1, alínea c) do Código dos Contratos Públicos",,,,,,Não aplicável.,Não aplicável.,TRUE
Aquisição da vacina contra a hepatite A - adulto,Ajuste Direto Regime Geral,Aquisição de bens móveis,"33651600-4, Vacinas",Direcção-Geral da Saúde (DGS) (600037100),"Merck Sharp & Dohme, Lda. (500191360)","50.463,00 €",07-06-2017,10-04-2017,260 dias,Portugal,"Artigo 20.º, n.º 1, alínea a) do Código dos Contratos Públicos",,,,,,Não aplicável.,Não aplicável.,TRUE
Fornecimento de energia - AQ Referência P259_ESPAP/2016-04,Ajuste Direto Regime Geral,Aquisição de serviços,"65300000-6, Serviços de distribuição de electricidade e serviços conexos",Direção-Geral da Saúde (600037100),IBERDROLA LDª (502124083),"25.036,56 €",07-06-2017,01-05-2017,240 dias,"Portugal, Lisboa","Artigo 20.º, n.º 1, alínea a) do Código dos Contratos Públicos",,,,,,Não aplicável.,Não aplicável.,FALSE
Aquisição de serviços para manutenção evolutiva do Sistema Integrado de Programas de Apoio Financeiro em Saúde – Bolsa de 330 horas,Ajuste Direto Regime Geral,Aquisição de serviços,"72500000-0, Serviços relacionados com a informática",Direcção-Geral da Saúde (DGS) (600037100),"Ablewise Consulting, SA (513609687)","9.900,00 €",05-06-2017,02-06-2017,210 dias,"Portugal, Lisboa","Artigo 20.º, n.º 1, alínea a) do Código dos Contratos Públicos",,,,,,Não aplicável.,Não aplicável.,FALSE
