Objeto do Contrato,Tipo de Procedimento,Tipo(s) de Contrato,CPVs,Entidade(s) Adjudicante(s),Entidade(s) Adjudicatária(s),Preço Contratual,Data de Publicação,Data de Celebração do Contrato,Prazo de Execução,Local de Execução,Fundamentação,Data de Fecho do Contrato,Preço Total Efetivo,Causas das Alterações ao Prazo,Causas das Alterações ao Preço,Estado,N.º registo do Acordo Quadro,Descrição do Acordo Quadro,Procedimento Centralizado
48036715 Reparação de Triturador de Residuos da TO,Ajuste Direto Regime Geral,Aquisição de serviços,"50000000-5, Serviços de reparação e manutenção",Centro Hospitalar Psiquiátrico de Lisboa (508338476),Pinto & Cruz (510134980),"129,00 €",20-05-2016,24-07-2015,2 dias,"Portugal, Lisboa, Lisboa","Artigo 20.º, n.º 1, alínea a) do Código dos Contratos Públicos",24-07-2015,"129,00 €",,,,Não aplicável.,Não aplicável.,FALSE
Sacos de plástico para 2015,Ajuste Direto Regime Geral,Aquisição de bens móveis,"19000000-6, Materiais têxteis, de couro, de plástico e de borracha",Centro Hospitalar Psiquiátrico de Lisboa (508338476),"Álvaro Henriques & Filhos, Lda. (502031875)","17.712,00 €",19-05-2016,19-03-2015,365 dias,"Portugal, Lisboa, Lisboa","Artigo 20.º, n.º 1, alínea a) do Código dos Contratos Públicos",31-12-2015,"17.712,00 €",,,,Não aplicável.,Não aplicável.,FALSE
41103516  - Medicamentos da Roche,Ajuste Direto Regime Geral,Aquisição de bens móveis,"33000000-0, Equipamento médico, medicamentos e produtos para cuidados pessoais",Centro Hospitalar Psiquiátrico de Lisboa (508338476),Roche (500233810),"23,73 €",16-05-2016,17-03-2016,6 dias,"Portugal, Lisboa, Lisboa","Artigo 24.º, n.º 1, alínea e) do Código dos Contratos Públicos",17-03-2016,"23,73 €",,,,Não aplicável.,Não aplicável.,FALSE
41103116 Insulina humana+isofanica 3ml caneta,Ajuste Direto Regime Geral,Aquisição de bens móveis,"33000000-0, Equipamento médico, medicamentos e produtos para cuidados pessoais",Centro Hospitalar Psiquiátrico de Lisboa (508338476),Sanofi (500134960),"59,48 €",13-05-2016,29-02-2016,1 dias,"Portugal, Lisboa, Lisboa","Artigo 24.º, n.º 1, alínea e) do Código dos Contratos Públicos",29-02-2016,"59,48 €",,,,Não aplicável.,Não aplicável.,FALSE
41103016 - Aripiprazol 400 mg Susp inj LP,Ajuste Direto Regime Geral,Aquisição de bens móveis,"33000000-0, Equipamento médico, medicamentos e produtos para cuidados pessoais",Centro Hospitalar Psiquiátrico de Lisboa (508338476),Lundbeck (503573922),"500,14 €",13-05-2016,24-02-2016,1 dias,"Portugal, Lisboa, Lisboa","Artigo 24.º, n.º 1, alínea e) do Código dos Contratos Públicos",24-02-2016,"500,14 €",,,,Não aplicável.,Não aplicável.,FALSE
41102916 - Cinacalcet 30 mg comp,Ajuste Direto Regime Geral,Aquisição de bens móveis,"33000000-0, Equipamento médico, medicamentos e produtos para cuidados pessoais",Centro Hospitalar Psiquiátrico de Lisboa (508338476),Amgen (502942959),"420,82 €",13-05-2016,24-02-2016,2 dias,"Portugal, Lisboa, Lisboa","Artigo 24.º, n.º 1, alínea e) do Código dos Contratos Públicos",24-02-2016,"420,82 €",,,,Não aplicável.,Não aplicável.,FALSE
41102716 - Medicamento da Gilead,Ajuste Direto Regime Geral,Aquisição de bens móveis,"33000000-0, Equipamento médico, medicamentos e produtos para cuidados pessoais",Centro Hospitalar Psiquiátrico de Lisboa (508338476),Gilead (503604704),"805,68 €",13-05-2016,24-02-2016,2 dias,"Portugal, Lisboa, Lisboa","Artigo 24.º, n.º 1, alínea e) do Código dos Contratos Públicos",24-02-2016,"805,68 €",,,,Não aplicável.,Não aplicável.,FALSE
Regularização de Fatura Trabalhos Instalações Elétricas das Substações,Ajuste Direto Regime Geral,Aquisição de serviços,"50000000-5, Serviços de reparação e manutenção",Centro Hospitalar Psiquiátrico de Lisboa (508338476),Termosul (501255869),"4.456,90 €",11-05-2016,30-12-2015,31 dias,"Portugal, Lisboa, Lisboa","Artigo 20.º, n.º 1, alínea a) do Código dos Contratos Públicos",31-12-2015,"4.456,90 €",,,,Não aplicável.,Não aplicável.,FALSE
