Objeto do Contrato,Tipo de Procedimento,Tipo(s) de Contrato,CPVs,Entidade(s) Adjudicante(s),Entidade(s) Adjudicatária(s),Preço Contratual,Data de Publicação,Data de Celebração do Contrato,Prazo de Execução,Local de Execução,Fundamentação,Data de Fecho do Contrato,Preço Total Efetivo,Causas das Alterações ao Prazo,Causas das Alterações ao Preço,Estado,N.º registo do Acordo Quadro,Descrição do Acordo Quadro,Procedimento Centralizado
Aquisição de Material de Hotelaria,Ajuste Direto Regime Geral,Aquisição de bens móveis,"19520000-7, Produtos de plástico","Administração Regional de Saúde do Alentejo, I. P. (503148768)",Tiago Morgado (505233673),"13.655,35 €",21-03-2018,25-05-2017,210 dias,"Portugal, Évora","Artigo 20.º, n.º 1, alínea a) do Código dos Contratos Públicos",21-03-2018,"13.655,35 €",,,,Não aplicável.,Não aplicável.,FALSE
Aquisição de Solução polielectrolítica p/ lavagem gastrointestinal,Ajuste Direto Regime Geral,Aquisição de bens móveis,"33000000-0, Equipamento médico, medicamentos e produtos para cuidados pessoais","Administração Regional de Saúde do Alentejo, I. P. (503148768)","Angelini Farmacêutica, Ldª (500583650)","872,00 €",21-03-2018,01-02-2017,360 dias,"Portugal, Évora","Artigo 20.º, n.º 1, alínea a) do Código dos Contratos Públicos",21-03-2018,"872,00 €",,,,Não aplicável.,Não aplicável.,FALSE
Aquisição de Testes para o Rastreio do Cancro do Cólon e Reto,Ajuste Direto Regime Geral,Aquisição de bens móveis,"33000000-0, Equipamento médico, medicamentos e produtos para cuidados pessoais","Administração Regional de Saúde do Alentejo, I. P. (503148768)",Lusopalex - Sociedade Distribuição Produtos Hospitalares (503531588),"17.400,00 €",21-03-2018,01-02-2017,330 dias,"Portugal, Évora","Artigo 20.º, n.º 1, alínea a) do Código dos Contratos Públicos",21-03-2018,"17.400,00 €",,,,Não aplicável.,Não aplicável.,FALSE
Aquisição de envelopes Kraft e envelopes c/ janela,Ajuste Direto Regime Geral,Aquisição de bens móveis,"22900000-9, Material impresso diverso",Administração Regional de Saúde do Alentejo (ARSA) (503148768),"Sociedade Instrutiva Regional Eborense, Ldª (500416370)","314,00 €",19-03-2018,08-08-2017,150 dias,"Portugal, Évora","Artigo 20.º, n.º 1, alínea a) do Código dos Contratos Públicos",19-03-2018,"314,00 €",,,,Não aplicável.,Não aplicável.,FALSE
Aquisição de envelopes azul e guia de transportes resíduos hospitalares.,Ajuste Direto Regime Geral,Aquisição de bens móveis,"22900000-9, Material impresso diverso",Administração Regional de Saúde do Alentejo (ARSA) (503148768),"Gráfica Central Melhadense, Ldª (500129789)","1.160,00 €",19-03-2018,08-08-2017,120 dias,"Portugal, Évora","Artigo 20.º, n.º 1, alínea a) do Código dos Contratos Públicos",19-03-2018,"1.160,00 €",,,,Não aplicável.,Não aplicável.,FALSE
Aquisição de material de penso,Ajuste Direto Regime Geral,Aquisição de bens móveis,"33000000-0, Equipamento médico, medicamentos e produtos para cuidados pessoais","Administração Regional de Saúde do Alentejo, I. P. (503148768)","Abilio Freire, Ldª (500432600)","2.334,00 €",16-03-2018,19-07-2017,150 dias,"Portugal, Évora","Artigo 20.º, n.º 1, alínea a) do Código dos Contratos Públicos",16-03-2018,"2.334,00 €",,,,Não aplicável.,Não aplicável.,FALSE
Aquisição de material de penso,Ajuste Direto Regime Geral,Aquisição de bens móveis,"33000000-0, Equipamento médico, medicamentos e produtos para cuidados pessoais","Administração Regional de Saúde do Alentejo, I. P. (503148768)",DOCWORLD (508592909),"111,20 €",16-03-2018,19-07-2017,150 dias,"Portugal, Évora","Artigo 20.º, n.º 1, alínea a) do Código dos Contratos Públicos",16-03-2018,"111,20 €",,,,Não aplicável.,Não aplicável.,FALSE
Aquisição de material de penso,Ajuste Direto Regime Geral,Aquisição de bens móveis,"33000000-0, Equipamento médico, medicamentos e produtos para cuidados pessoais","Administração Regional de Saúde do Alentejo, I. P. (503148768)","Bastos Viegas, S.A. (500042772)","1.498,80 €",16-03-2018,19-07-2017,150 dias,"Portugal, Évora","Artigo 20.º, n.º 1, alínea a) do Código dos Contratos Públicos",16-03-2018,"1.498,80 €",,,,Não aplicável.,Não aplicável.,FALSE
Aquisição de material de economato,Ajuste Direto Regime Geral,Aquisição de bens móveis,"30000000-9, Máquinas, equipamento e material de escritório e de informática, excepto mobiliário e pacotes de programas (software)","Administração Regional de Saúde do Alentejo, I. P. (503148768)",Novabit (503411302),"523,20 €",15-03-2018,16-06-2017,180 dias,"Portugal, Évora","Artigo 20.º, n.º 1, alínea a) do Código dos Contratos Públicos",15-03-2018,"523,20 €",,,,Não aplicável.,Não aplicável.,FALSE
Aquisição de artigos de economato,Ajuste Direto Regime Geral,Aquisição de bens móveis,"30000000-9, Máquinas, equipamento e material de escritório e de informática, excepto mobiliário e pacotes de programas (software)","Administração Regional de Saúde do Alentejo, I. P. (503148768)","Maxone - Material de Escritório, Ldª (507052609)","393,00 €",15-03-2018,21-06-2017,180 dias,"Portugal, Évora","Artigo 20.º, n.º 1, alínea a) do Código dos Contratos Públicos",15-03-2018,"393,00 €",,,,Não aplicável.,Não aplicável.,FALSE
