Objeto do Contrato,Tipo de Procedimento,Tipo(s) de Contrato,CPVs,Entidade(s) Adjudicante(s),Entidade(s) Adjudicatária(s),Preço Contratual,Data de Publicação,Data de Celebração do Contrato,Prazo de Execução,Local de Execução,Fundamentação,Data de Fecho do Contrato,Preço Total Efetivo,Causas das Alterações ao Prazo,Causas das Alterações ao Preço,Estado,N.º registo do Acordo Quadro,Descrição do Acordo Quadro,Procedimento Centralizado
AQUISIÇÃO DE MEDICAMENTOS,Ajuste Direto Regime Geral,Aquisição de bens móveis,"33600000-6, Produtos farmacêuticos","Hospital Distrital de Santarém, EPE (506361462)",LABORATORIO ATRAL (500162085),"2.401,26 €",27-02-2016,15-01-2016,350 dias,"Portugal, Santarém, Santarém","Artigo 24.º, n.º 1, alínea a) do Código dos Contratos Públicos",,,,,,Não aplicável.,Não aplicável.,FALSE
AQUISIÇÃO DE MEDICAMENTOS,Ajuste Direto Regime Geral,Aquisição de bens móveis,"33600000-6, Produtos farmacêuticos","Hospital Distrital de Santarém, EPE (506361462)",LABORATORIO ATRAL (500162085),"8.942,62 €",27-02-2016,15-01-2016,350 dias,"Portugal, Santarém, Santarém","Artigo 24.º, n.º 1, alínea a) do Código dos Contratos Públicos",,,,,,Não aplicável.,Não aplicável.,FALSE
AQUISIÇÃO DE MEDICAMENTOS,Ajuste Direto Regime Geral,Aquisição de bens móveis,"33600000-6, Produtos farmacêuticos","Hospital Distrital de Santarém, EPE (506361462)",OLYMPUS IBERIA S.A.U. SUCURSAL (980474710),"5.417,82 €",27-02-2016,21-01-2016,344 dias,"Portugal, Santarém, Santarém","Artigo 24.º, n.º 1, alínea a) do Código dos Contratos Públicos",,,,,,Não aplicável.,Não aplicável.,FALSE
AQUISIÇÃO DE MEDICAMENTOS,Ajuste Direto Regime Geral,Aquisição de bens móveis,"33600000-6, Produtos farmacêuticos","Hospital Distrital de Santarém, EPE (506361462)",OLYMPUS IBERIA S.A.U. SUCURSAL (980474710),"5.239,44 €",27-02-2016,21-01-2016,344 dias,"Portugal, Santarém, Santarém","Artigo 24.º, n.º 1, alínea a) do Código dos Contratos Públicos",,,,,,Não aplicável.,Não aplicável.,FALSE
AQUISIÇÃO DE MEDICAMENTOS,Ajuste Direto Regime Geral,Aquisição de bens móveis,"33600000-6, Produtos farmacêuticos","Hospital Distrital de Santarém, EPE (506361462)",BAXTER MEDICO FARMACEUTICA (503347345),"9.030,00 €",27-02-2016,22-01-2016,343 dias,"Portugal, Santarém, Santarém","Artigo 24.º, n.º 1, alínea a) do Código dos Contratos Públicos",,,,,,Não aplicável.,Não aplicável.,FALSE
AQUISIÇÃO DE MEDICAMENTOS,Ajuste Direto Regime Geral,Aquisição de bens móveis,"33600000-6, Produtos farmacêuticos","Hospital Distrital de Santarém, EPE (506361462)",BAXTER MEDICO FARMACEUTICA (503347345),"7.995,60 €",27-02-2016,22-01-2016,343 dias,"Portugal, Santarém, Santarém","Artigo 24.º, n.º 1, alínea a) do Código dos Contratos Públicos",,,,,,Não aplicável.,Não aplicável.,FALSE
AQUISIÇÃO DE MEDICAMENTOS,Ajuste Direto Regime Geral,Aquisição de bens móveis,"33600000-6, Produtos farmacêuticos","Hospital Distrital de Santarém, EPE (506361462)",LABESFAL (501169580),"8.952,02 €",27-02-2016,03-02-2016,332 dias,"Portugal, Santarém, Santarém","Artigo 24.º, n.º 1, alínea a) do Código dos Contratos Públicos",,,,,,Não aplicável.,Não aplicável.,FALSE
AQUISIÇÃO DE MEDICAMENTOS,Ajuste Direto Regime Geral,Aquisição de bens móveis,"33600000-6, Produtos farmacêuticos","Hospital Distrital de Santarém, EPE (506361462)",LABESFAL (501169580),"9.183,90 €",27-02-2016,03-02-2016,332 dias,"Portugal, Santarém, Santarém","Artigo 24.º, n.º 1, alínea a) do Código dos Contratos Públicos",,,,,,Não aplicável.,Não aplicável.,FALSE
AQUISIÇÃO DE MEDICAMENTOS,Ajuste Direto Regime Geral,Aquisição de bens móveis,"33600000-6, Produtos farmacêuticos","Hospital Distrital de Santarém, EPE (506361462)",LABESFAL (501169580),"9.446,40 €",27-02-2016,03-02-2016,332 dias,"Portugal, Santarém, Santarém","Artigo 24.º, n.º 1, alínea a) do Código dos Contratos Públicos",,,,,,Não aplicável.,Não aplicável.,FALSE
AQUISIÇÃO DE MEDICAMENTOS,Ajuste Direto Regime Geral,Aquisição de bens móveis,"33600000-6, Produtos farmacêuticos","Hospital Distrital de Santarém, EPE (506361462)",LABESFAL (501169580),"9.615,00 €",27-02-2016,03-02-2016,332 dias,"Portugal, Santarém, Santarém","Artigo 24.º, n.º 1, alínea a) do Código dos Contratos Públicos",,,,,,Não aplicável.,Não aplicável.,FALSE
AQUISIÇÃO DE MEDICAMENTOS,Ajuste Direto Regime Geral,Aquisição de bens móveis,"33600000-6, Produtos farmacêuticos","Hospital Distrital de Santarém, EPE (506361462)",LABESFAL (501169580),"5.366,99 €",27-02-2016,03-02-2016,332 dias,"Portugal, Santarém, Santarém","Artigo 24.º, n.º 1, alínea a) do Código dos Contratos Públicos",,,,,,Não aplicável.,Não aplicável.,FALSE
Acetilcisteinas,Ajuste Direto Regime Geral,Aquisição de bens móveis,"33600000-6, Produtos farmacêuticos","Hospital Distrital de Santarém, EPE (506361462)",ZAMBON-PRODUTOS FARMACEUTICOS (502155930),"6.123,80 €",27-02-2016,15-02-2016,320 dias,"Portugal, Santarém, Santarém","Artigo 24.º, n.º 1, alínea a) do Código dos Contratos Públicos",,,,,,Não aplicável.,Não aplicável.,FALSE
