Objeto do Contrato,Tipo de Procedimento,Tipo(s) de Contrato,CPVs,Entidade(s) Adjudicante(s),Entidade(s) Adjudicatária(s),Preço Contratual,Data de Publicação,Data de Celebração do Contrato,Prazo de Execução,Local de Execução,Fundamentação,Data de Fecho do Contrato,Preço Total Efetivo,Causas das Alterações ao Prazo,Causas das Alterações ao Preço,Estado,N.º registo do Acordo Quadro,Descrição do Acordo Quadro,Procedimento Centralizado
AMPLIAÇÃO DA ATUAL SALA DE O.B.S DA URGÊNCIA,Ajuste Direto Regime Geral,Empreitadas de obras públicas,"45500000-2, Aluguer de máquinas e equipamento para construção e engenharia civil, com operador","Centro Hospitalar do Porto, E.P.E. (CHP) (508331471)",ARESTASIGNUS (510803768),"21.364,22 €",18-10-2017,12-09-2017,35 dias,"Portugal, Porto, Porto","Artigo 19.º, alínea a) do Código dos Contratos Públicos","","21.364,22 €",NÃO APLICÁVEL,NÃO APLICÁVEL,,Não aplicável.,Não aplicável.,FALSE
FORNECIMENTO E MONTAGEM DE CENTRAL MONITORIZAÇÃO DE CARDIOTOCOGRAFIA PARA O CMIN,Ajuste Direto Regime Geral,Aquisição de bens móveis,"33195200-5, Unidade central de monitorização","Centro Hospitalar Porto, E. P. E. (508331471)","SPECULUM, SA (502996323)","27.158,00 €",16-10-2017,06-10-2017,45 dias,"Portugal, Porto, Porto","Artigo 20.º, n.º 1, alínea a) do Código dos Contratos Públicos",08-02-2018,"27.158,00 €",NÃO APLICÁVEL,NÃO APLICÁVEL,,Não aplicável.,Não aplicável.,FALSE
"Aquisição de Medicamentos desencadeada pela SPMS, no âmbito do Despacho 1571/B de 2016, ao abrigo do Acordo Quadro 2015/6 - P259-AC-2016-246",Ao abrigo de acordo-quadro (art.º 259.º),Aquisição de bens móveis,"33000000-0, Equipamento médico, medicamentos e produtos para cuidados pessoais","Centro Hospitalar Porto, E. P. E. (508331471)","NOVARTIS FARMA, S.A. (500063524)","566.588,33 €",11-10-2017,07-02-2017,365 dias,"Portugal, Porto, Porto",Artigo 259.º do Código dos Contratos Públicos,"","","","",,2948560,"Aquisição de Medicamentos (Despacho 1571-B/2017), Ref.ª AD-AC-2017-102.",FALSE
