Objeto do Contrato,Tipo de Procedimento,Tipo(s) de Contrato,CPVs,Entidade(s) Adjudicante(s),Entidade(s) Adjudicatária(s),Preço Contratual,Data de Publicação,Data de Celebração do Contrato,Prazo de Execução,Local de Execução,Fundamentação,Data de Fecho do Contrato,Preço Total Efetivo,Causas das Alterações ao Prazo,Causas das Alterações ao Preço,Estado,N.º registo do Acordo Quadro,Descrição do Acordo Quadro,Procedimento Centralizado
Aquisição de Infraestruturas Subterrâneas para passagem das redes de voz e dados,Ajuste Direto Regime Geral,Empreitadas de obras públicas,"45113000-2, Obras no local","Administração Regional de Saúde de Lisboa e Vale do Tejo, I.P. (503148776)","PT Comunicações, SA (504615947)","1.274,91 €",09-11-2012,07-11-2012,20 dias,"Portugal, Lisboa, Lisboa","Artigo 19.º, alínea a) do Código dos Contratos Públicos",,,,,,Não aplicável.,Não aplicável.,
Ligação de ramal de energia eletrica - US Póvoa de Santo Adrião,Ajuste Direto Regime Geral,Aquisição de serviços,"50411300-2, Serviços de reparação e manutenção de contadores de electricidade","Administração Regional de Saúde de Lisboa e Vale do Tejo, I.P. (503148776)","EDP Dristibuição de Energia, SA (504394029)","7.063,69 €",09-11-2012,08-11-2012,180 dias,"Portugal, Lisboa, Odivelas","Artigo 24.º, n.º 1, alínea e) do Código dos Contratos Públicos",,,,,,Não aplicável.,Não aplicável.,
"Aquisição de 50 Impressoras Monocromáticas para várias USF (Venda Nova, Sétima Colina, Ajuda e Jardim Benfica).",Ajuste Direto Regime Geral,Aquisição de bens móveis,"30232110-8, Impressoras laser","Administração Regional de Saúde de Lisboa e Vale do Tejo, I.P. (503148776)","BASEDOIS - Informática e Telecomunicações, Lda. (501333401)","9.950,00 €",08-11-2012,07-11-2012,1 dias,"Portugal, Lisboa",Artigo 258.º do Código dos Contratos Públicos,,,,,,Não aplicável.,Não aplicável.,
"Aquisição de 50 Impressoras Monocromáticas para várias USF (S. Martinho Alcabideche, Global - Nazaré, Castanheira do Ribatejo, António Ribeiro Sanches).",Ajuste Direto Regime Geral,Aquisição de bens móveis,"30232110-8, Impressoras laser","Administração Regional de Saúde de Lisboa e Vale do Tejo, I.P. (503148776)","BASEDOIS - Informática e Telecomunicações, Lda. (501333401)","9.950,00 €",08-11-2012,07-11-2012,1 dias,"Portugal, Lisboa",Artigo 258.º do Código dos Contratos Públicos,,,,,,Não aplicável.,Não aplicável.,
Empreitada para a Remodelação da UCSP de Linda-a-Velha (ACES 4).,Ajuste Direto Regime Geral,Empreitadas de obras públicas,"45453100-8, Obras de recuperação","Administração Regional de Saúde de Lisboa e Vale do Tejo, I.P. (503148776)","METAL CÚBICO, LDA. (503852880)","22.386,61 €",08-11-2012,30-10-2012,60 dias,"Portugal, Lisboa, Oeiras","Artigo 19.º, alínea a) do Código dos Contratos Públicos",,,,,,Não aplicável.,Não aplicável.,
"Fornecimento de energia eletrica para a ARSLVT, IP, Av.EUA 75, Periodo de Setembro a Dezembro de 2012",Ajuste Direto Regime Geral,Aquisição de serviços,"65310000-9, Distribuição de electricidade","Administração Regional de Saúde de Lisboa e Vale do Tejo, I.P. (503148776)","EDP Serviço Universal, SA (507846044)","32.521,57 €",07-11-2012,31-10-2012,122 dias,"Portugal, Lisboa, Lisboa","Artigo 24.º, n.º 1, alínea e) do Código dos Contratos Públicos",,,,,,Não aplicável.,Não aplicável.,
"Aquisição de seguro automovel para a viatura com a matricula 84-85-BL, para 12 meses",Ajuste Direto Regime Geral,Aquisição de serviços,"66514110-0, Serviços de seguro automóvel","Administração Regional de Saúde de Lisboa e Vale do Tejo, I.P. (503148776)","Macif Portugal - Companhia de Seguros, SA (503640549)","225,00 €",05-11-2012,02-11-2012,365 dias,"Portugal, Lisboa, Lisboa",Artigo 258.º do Código dos Contratos Públicos,,,,,,Não aplicável.,Não aplicável.,
Aquisição de PARACETAMOL 500MG,Ajuste Direto Regime Geral,Aquisição de bens móveis,"33690000-3, Medicamentos vários","Administração Regional de Saúde de Lisboa e Vale do Tejo, I.P. (503148776)","GENERIS FARMACÊUTICA, S.A. (508107997)","630,00 €",05-11-2012,19-10-2012,20 dias,"Portugal, Lisboa, Lisboa","Artigo 26.º, n.º 1, alínea e) do Código dos Contratos Públicos",,,,,,Não aplicável.,Não aplicável.,
Aqusição de ALOPURINOL 300 MG,Ajuste Direto Regime Geral,Aquisição de bens móveis,"33690000-3, Medicamentos vários","Administração Regional de Saúde de Lisboa e Vale do Tejo, I.P. (503148776)","CICLUM FARMA UNIPESSOAL, LDA. (504362674)","126,00 €",05-11-2012,19-10-2012,20 dias,"Portugal, Lisboa, Lisboa","Artigo 26.º, n.º 1, alínea e) do Código dos Contratos Públicos",,,,,,Não aplicável.,Não aplicável.,
Ligação de ramal de energia eletrica - US Ramada,Ajuste Direto Regime Geral,Aquisição de serviços,"71314100-3, Serviços de electricidade","Administração Regional de Saúde de Lisboa e Vale do Tejo, I.P. (503148776)","EDP - Distribuição de Energia, SA (504394029)","5.727,19 €",05-11-2012,05-11-2012,20 dias,"Portugal, Lisboa, Odivelas","Artigo 24.º, n.º 1, alínea e) do Código dos Contratos Públicos",,,,,,Não aplicável.,Não aplicável.,
Aquisição de Vaselina Purificada Pomada,Ajuste Direto Regime Geral,Aquisição de bens móveis,"33690000-3, Medicamentos vários","Administração Regional de Saúde de Lisboa e Vale do Tejo, I.P. (503148776)","AGA - Alcool e Generos Alimentares, S.A. (500727457)","1.050,00 €",05-11-2012,19-10-2012,20 dias,"Portugal, Lisboa, Lisboa","Artigo 26.º, n.º 1, alínea e) do Código dos Contratos Públicos",,,,,,Não aplicável.,Não aplicável.,
"Aquisição de  de GLUCOSE 5% + NACL 0,45% INJ - 500ML e de LIDOCAINA GEL 20MG/G",Ajuste Direto Regime Geral,Aquisição de bens móveis,"33690000-3, Medicamentos vários","Administração Regional de Saúde de Lisboa e Vale do Tejo, I.P. (503148776)","LABESFAL -  Lboratórios Almiro, S.A. (501169580)","4.039,16 €",05-11-2012,19-10-2012,20 dias,"Portugal, Lisboa, Lisboa","Artigo 26.º, n.º 1, alínea e) do Código dos Contratos Públicos",,,,,,Não aplicável.,Não aplicável.,
Aquisição de IBUPROFENO 400 MG,Ajuste Direto Regime Geral,Aquisição de bens móveis,"33690000-3, Medicamentos vários","Administração Regional de Saúde de Lisboa e Vale do Tejo, I.P. (503148776)","LABORATÓRIO MEDINFAR - Produtos Farmacêuticos, S.A. (500384045)","180,00 €",05-11-2012,19-10-2012,20 dias,"Portugal, Lisboa, Lisboa","Artigo 26.º, n.º 1, alínea e) do Código dos Contratos Públicos",,,,,,Não aplicável.,Não aplicável.,
Aquisição de DIU COBRE - 375 U,Ajuste Direto Regime Geral,Aquisição de bens móveis,"33641400-9, Contraceptivos","Administração Regional de Saúde de Lisboa e Vale do Tejo, I.P. (503148776)","CLINIFAR, S.A. (503281115)","7.485,00 €",05-11-2012,31-10-2012,20 dias,"Portugal, Lisboa, Lisboa","Artigo 26.º, n.º 1, alínea e) do Código dos Contratos Públicos",,,,,,Não aplicável.,Não aplicável.,
Aquisição de Esponja Gelatina 70x50x10,Ajuste Direto Regime Geral,Aquisição de bens móveis,"33140000-3, Material médico de consumo","Administração Regional de Saúde de Lisboa e Vale do Tejo, I.P. (503148776)","CLINIFAR, S.A. (503281115)","3.840,00 €",05-11-2012,31-10-2012,20 dias,"Portugal, Lisboa, Lisboa","Artigo 26.º, n.º 1, alínea e) do Código dos Contratos Públicos",,,,,,Não aplicável.,Não aplicável.,
Aquisição de Impregnados c/ Vaselina 10x10,Ajuste Direto Regime Geral,Aquisição de bens móveis,"33141110-4, Pensos","Administração Regional de Saúde de Lisboa e Vale do Tejo, I.P. (503148776)","PAUL HARTMANN, LDA. (502271728)","6.300,00 €",05-11-2012,31-10-2012,20 dias,"Portugal, Lisboa, Lisboa","Artigo 26.º, n.º 1, alínea e) do Código dos Contratos Públicos",,,,,,Não aplicável.,Não aplicável.,
Aquisição  de Consumíveis de Impressão do Lote LEXMARK (lote 3 do PECI),Ajuste Direto Regime Geral,Aquisição de bens móveis,"30125110-5, Tóner para impressoras laser e aparelhos de fax","Administração Regional de Saúde de Lisboa e Vale do Tejo, I.P. (503148776)","CYBERGAL - Gestão, Informática e Serviços, Lda. (505353431)","84.504,11 €",05-11-2012,04-10-2012,20 dias,"Portugal, Lisboa, Lisboa",Artigo 258.º do Código dos Contratos Públicos,,,,,,Não aplicável.,Não aplicável.,
Aquisição de HIDROCORTISONA PO SOL INJ 100MG,Ajuste Direto Regime Geral,Aquisição de bens móveis,"33690000-3, Medicamentos vários","Administração Regional de Saúde de Lisboa e Vale do Tejo, I.P. (503148776)","PHARMIS BIOFARMACÊUTICA, LDA. (502595442)","2.485,00 €",05-11-2012,31-10-2012,20 dias,"Portugal, Lisboa, Lisboa","Artigo 26.º, n.º 1, alínea e) do Código dos Contratos Públicos",,,,,,Não aplicável.,Não aplicável.,
Aquisição de Vacina Contra a MENINGOCOCOS C,Ajuste Direto Regime Geral,Aquisição de bens móveis,"33651600-4, Vacinas","Administração Regional de Saúde de Lisboa e Vale do Tejo, I.P. (503148776)","NOVARTIS FARMA - Produtos Farmacêuticos, S.A. (500063524)","8.100,00 €",05-11-2012,19-10-2012,20 dias,"Portugal, Lisboa, Lisboa","Artigo 26.º, n.º 1, alínea e) do Código dos Contratos Públicos",,,,,,Não aplicável.,Não aplicável.,
"Aquisição  de ETINILESTRADIOL 0,02 + LEVONORGESTREL 0,1",Ajuste Direto Regime Geral,Aquisição de bens móveis,"33641410-2, Contraceptivos orais","Administração Regional de Saúde de Lisboa e Vale do Tejo, I.P. (503148776)","GENERIS FARAMACÊUTICA, S.A. (508107997)","28.600,00 €",05-11-2012,26-10-2012,20 dias,"Portugal, Lisboa, Lisboa","Artigo 26.º, n.º 1, alínea e) do Código dos Contratos Públicos",,,,,,Não aplicável.,Não aplicável.,
"Aquisição de Vacina Contra Gripe - 0,5 ml",Ajuste Direto Regime Geral,Aquisição de bens móveis,"33651600-4, Vacinas","Administração Regional de Saúde de Lisboa e Vale do Tejo, I.P. (503148776)","GLAXOSMITHKLINE - Produtos Farmacêuticos, Lda. (500139962)","88.931,52 €",05-11-2012,29-10-2012,20 dias,"Portugal, Lisboa, Lisboa","Artigo 26.º, n.º 1, alínea e) do Código dos Contratos Públicos",,,,,,Não aplicável.,Não aplicável.,
Aquisição de 24.000 umidades de Vacina Contra ao Meningococus C,Ajuste Direto Regime Geral,Aquisição de bens móveis,"33651600-4, Vacinas","Administração Regional de Saúde de Lisboa e Vale do Tejo, I.P. (503148776)","Novartis Farma Produtos Farmacêuticos, S.A. (500063524)","194.400,00 €",05-11-2012,15-10-2012,20 dias,"Portugal, Lisboa, Lisboa","Artigo 26.º, n.º 1, alínea e) do Código dos Contratos Públicos",,,,,,Não aplicável.,Não aplicável.,
Aquisição de NIFEDIPINA 10MG,Ajuste Direto Regime Geral,Aquisição de bens móveis,"33690000-3, Medicamentos vários","Administração Regional de Saúde de Lisboa e Vale do Tejo, I.P. (503148776)","BAYER PORTUGAL, S.A. (500043256)","412,80 €",05-11-2012,19-10-2012,20 dias,"Portugal, Lisboa, Lisboa","Artigo 26.º, n.º 1, alínea e) do Código dos Contratos Públicos",,,,,,Não aplicável.,Não aplicável.,
Aquisição de Acido Acetilsalicilico 500 mg,Ajuste Direto Regime Geral,Aquisição de bens móveis,"33690000-3, Medicamentos vários","Administração Regional de Saúde de Lisboa e Vale do Tejo, I.P. (503148776)",RATIOPHARMA - Comércio e Industria (502414910),"360,00 €",05-11-2012,19-10-2012,20 dias,"Portugal, Lisboa, Lisboa","Artigo 26.º, n.º 1, alínea e) do Código dos Contratos Públicos",,,,,,Não aplicável.,Não aplicável.,
"Aquisição de Naloxona Inj 0,4 mg/ml - 1 ml",Ajuste Direto Regime Geral,Aquisição de bens móveis,"33690000-3, Medicamentos vários","Administração Regional de Saúde de Lisboa e Vale do Tejo, I.P. (503148776)","HIKMA FARMACÊUTICA (PORTUGAL), S.A. (502266791)","1.635,00 €",05-11-2012,19-10-2012,20 dias,"Portugal, Lisboa, Lisboa","Artigo 26.º, n.º 1, alínea e) do Código dos Contratos Públicos",,,,,,Não aplicável.,Não aplicável.,
Aquisição de sabonete fisiologico e solução alcoolica,Ajuste Direto Regime Geral,Aquisição de bens móveis,"33690000-3, Medicamentos vários","Administração Regional de Saúde de Lisboa e Vale do Tejo, I.P. (503148776)","B. Braun, Lda. (501506543)","12.350,00 €",05-11-2012,18-10-2012,20 dias,"Portugal, Lisboa","Artigo 26.º, n.º 1, alínea e) do Código dos Contratos Públicos",,,,,,Não aplicável.,Não aplicável.,
"Aquisição de Cateter para Oxigénio tipo Lunette (cânula nasal ponta recta para adulto c/ tubo 1,80 m).",Ajuste Direto Regime Geral,Aquisição de bens móveis,"33141200-2, Cateteres","Administração Regional de Saúde de Lisboa e Vale do Tejo, I.P. (503148776)","INTERSURGICAL PORTUGAL - Comércio de Produtos Hospitalares, Lda. (503480045)","900,00 €",05-11-2012,05-11-2012,20 dias,"Portugal, Lisboa","Artigo 24.º, n.º 1, alínea a) do Código dos Contratos Públicos",,,,,,Não aplicável.,Não aplicável.,
Aquisição de 750 unidades de Glucose a 5% + NAcl 0.9%,Ajuste Direto Regime Geral,Aquisição de bens móveis,"33690000-3, Medicamentos vários","Administração Regional de Saúde de Lisboa e Vale do Tejo, I.P. (503148776)","Overpharma, Lda. (505792362)","592,50 €",05-11-2012,19-10-2012,20 dias,"Portugal, Lisboa","Artigo 26.º, n.º 1, alínea e) do Código dos Contratos Públicos",,,,,,Não aplicável.,Não aplicável.,
Aquisição de 500 unidades de Paracetamol e 30000 unidades de Tiocolquicosido,Ajuste Direto Regime Geral,Aquisição de bens móveis,"33690000-3, Medicamentos vários","Administração Regional de Saúde de Lisboa e Vale do Tejo, I.P. (503148776)","SANOFI, PRODUTOS FARMACÊUTICOS, LDA. (500134960)","12.965,00 €",05-11-2012,19-10-2012,20 dias,"Portugal, Lisboa","Artigo 26.º, n.º 1, alínea e) do Código dos Contratos Públicos",,,,,,Não aplicável.,Não aplicável.,
Aquisição de 2000 unidades de Lefloxacina 500mg,Ajuste Direto Regime Geral,Aquisição de bens móveis,"33690000-3, Medicamentos vários","Administração Regional de Saúde de Lisboa e Vale do Tejo, I.P. (503148776)",Actavis Sucursal (980334934),"520,00 €",05-11-2012,18-10-2012,20 dias,"Portugal, Lisboa","Artigo 26.º, n.º 1, alínea e) do Código dos Contratos Públicos",,,,,,Não aplicável.,Não aplicável.,
Aquisição de 34740 unidades de Vacina contra a Gripe,Ajuste Direto Regime Geral,Aquisição de bens móveis,"33651600-4, Vacinas","Administração Regional de Saúde de Lisboa e Vale do Tejo, I.P. (503148776)","Abbott laboratórios, Lda. (500006148)","145.908,00 €",05-11-2012,30-10-2012,20 dias,"Portugal, Lisboa","Artigo 26.º, n.º 1, alínea e) do Código dos Contratos Públicos",,,,,,Não aplicável.,Não aplicável.,
Manutenção e reparação periodica das instalações eléctricas do Centro de Saúde de Queluz para o ano de 2012.,Ajuste Direto Regime Geral,Aquisição de serviços,"98390000-3, Outros serviços","Administração Regional de Saúde de Lisboa e Vale do Tejo, I.P. (503148776)","Electrotejo - Inst. e Montagens Técnicas, S.A. (500864993)","10.829,70 €",02-11-2012,31-10-2012,365 dias,"Portugal, Lisboa, Sintra","Artigo 24.º, n.º 1, alínea e) do Código dos Contratos Públicos",,,,,,Não aplicável.,Não aplicável.,
