Objeto do Contrato,Tipo de Procedimento,Tipo(s) de Contrato,CPVs,Entidade(s) Adjudicante(s),Entidade(s) Adjudicatária(s),Preço Contratual,Data de Publicação,Data de Celebração do Contrato,Prazo de Execução,Local de Execução,Fundamentação,Data de Fecho do Contrato,Preço Total Efetivo,Causas das Alterações ao Prazo,Causas das Alterações ao Preço,Estado,N.º registo do Acordo Quadro,Descrição do Acordo Quadro,Procedimento Centralizado
Aquisição de serviços para evolução funcional e tecnológica da aplicação de suporte aos Técnicos de Diagnóstico e Terapêutica (TDT) para o Sistema de Reconhecimento do Título Profissional (SIRETI),Ajuste Direto Regime Geral,Aquisição de serviços,"72600000-6, Serviços de consultoria e assistência informáticas","SPMS- Serviços Partilhados do M. da Saúde, E.P.E. (509540716)","Siemens, S. A. (500247480)","50.859,95 €",21-11-2014,21-10-2014,162 dias,"Portugal, Lisboa, Lisboa","Artigo 20.º, n.º 1, alínea a) do Código dos Contratos Públicos",31-07-2015,"50.859,95 €",,,,Não aplicável.,Não aplicável.,FALSE
Aquisição de serviços de suporte à atualização das listas de utentes do SNS,Ajuste Direto Regime Geral,Aquisição de serviços,"79560000-7, Serviços de classificação","SPMS - Serviços Partilhados do Ministério da Saúde, E. P. E. (509540716)","CTT - Correios de Portugal, S. A. (500077568)","12.000,00 €",21-11-2014,03-11-2014,58 dias,Portugal,"Artigo 20.º, n.º 1, alínea a) do Código dos Contratos Públicos",30-04-2015,"12.000,00 €",,,,Não aplicável.,Não aplicável.,FALSE
Aquisição de material publicitário,Ajuste Direto Regime Geral,Aquisição de bens móveis,"22462000-6, Material publicitário","SPMS - Serviços Partilhados do Ministério da Saúde, E. P. E. (509540716)","Vera Alexandra Domingos Martins Unipessoal, Lda. (513066616)","11.010,00 €",21-11-2014,04-11-2014,20 dias,"Portugal, Porto, Porto<BR/>Portugal, Lisboa, Lisboa","Artigo 20.º, n.º 1, alínea a) do Código dos Contratos Públicos",30-12-2014,"11.010,00 €",,,,Não aplicável.,Não aplicável.,FALSE
