Objeto do Contrato,Tipo de Procedimento,Tipo(s) de Contrato,CPVs,Entidade(s) Adjudicante(s),Entidade(s) Adjudicatária(s),Preço Contratual,Data de Publicação,Data de Celebração do Contrato,Prazo de Execução,Local de Execução,Fundamentação,Data de Fecho do Contrato,Preço Total Efetivo,Causas das Alterações ao Prazo,Causas das Alterações ao Preço,Estado,N.º registo do Acordo Quadro,Descrição do Acordo Quadro,Procedimento Centralizado
Material para cirurgia artroscópica do punho,Ajuste Direto Regime Geral,Aquisição de bens móveis,"33000000-0, Equipamento médico, medicamentos e produtos para cuidados pessoais","Centro Hospitalar e Universitário de Coimbra, E. P. E. (510103448)",Smith & Nephew (503552461),"22.458,00 €",21-09-2015,11-04-2015,90 dias,"Portugal, Coimbra, Coimbra","Artigo 24.º, n.º 1, alínea e) do Código dos Contratos Públicos","","",,"",,Não aplicável.,Não aplicável.,FALSE
Aquisição de vídeo projetor para o SFAP,Ajuste Direto Regime Geral,Aquisição de bens móveis,"30000000-9, Máquinas, equipamento e material de escritório e de informática, excepto mobiliário e pacotes de programas (software)","Centro Hospitalar e Universitário de Coimbra, E. P. E. (510103448)",Espectro (503115231),"931,50 €",17-09-2015,17-09-2015,30 dias,"Portugal, Coimbra, Coimbra","Artigo 20.º, n.º 1, alínea a) do Código dos Contratos Públicos","","",,"",,Não aplicável.,Não aplicável.,FALSE
Recolha e tratamento de resíduos do HG/HP/MBB/CHPC(SET/DEZ),Ajuste Direto Regime Geral,Aquisição de serviços,"90510000-5, Tratamento e eliminação de resíduos","Centro Hospitalar e Universitário de Coimbra, E. P. E. (510103448)",CAMARA MUNICIPAL DE COIMBRA (506415082),"22.809,60 €",16-09-2015,14-09-2015,92 dias,"Portugal, Coimbra, Coimbra","Artigo 20.º, n.º 1, alínea a) do Código dos Contratos Públicos","","",,"",,Não aplicável.,Não aplicável.,FALSE
PACEMAKER E ELECTRODOS,Ajuste Direto Regime Geral,Aquisição de bens móveis,"33000000-0, Equipamento médico, medicamentos e produtos para cuidados pessoais","Centro Hospitalar e Universitário de Coimbra, E. P. E. (510103448)","BOSTON SCIENTIFIC PORTUGAL, LDA (504988964)","70.480,00 €",16-09-2015,19-12-2014,12 dias,"Portugal, Coimbra, Coimbra","Artigo 24.º, n.º 1, alínea e) do Código dos Contratos Públicos","","",,"",,Não aplicável.,Não aplicável.,FALSE
CPA 2013/51 - Medicamentos de consumo geral - usados nas afecções cutâneas,Ao abrigo de acordo-quadro (art.º 258.º),Aquisição de bens móveis,"33698000-9, Produtos para fins clínicos","Centro Hospitalar e Universitário de Coimbra, E. P. E. (510103448)","B BRAUN MEDICAL, LDA (501506543), GLAXO SMITH KLINE PRODUTOS FARMACEUTICOS, LDA (500139962), ASTRAZENECA PRODUTOS FARMACÊUTICOS, LDA (502942240), LABORATORIO EDOL PRODUTOS FARMACEUTICOS, S.A. (507072642), BAYER PORTUGAL, SA (500043256), LABORATORIO MEDINFAR, SA (500384045)","42.632,90 €",15-09-2015,21-01-2014,365 dias,"Portugal, Coimbra, Coimbra",Artigo 258.º do Código dos Contratos Públicos,31-12-2014,"54.350,88 €",,aumento de consumo,,1513257,Acordo quadro para fornecimento de Medicamentos diversos II   às Instituições e Serviços do Serviço Nacional de Saúde,FALSE
