Objeto do Contrato,Tipo de Procedimento,Tipo(s) de Contrato,CPVs,Entidade(s) Adjudicante(s),Entidade(s) Adjudicatária(s),Preço Contratual,Data de Publicação,Data de Celebração do Contrato,Prazo de Execução,Local de Execução,Fundamentação,Data de Fecho do Contrato,Preço Total Efetivo,Causas das Alterações ao Prazo,Causas das Alterações ao Preço,Estado,N.º registo do Acordo Quadro,Descrição do Acordo Quadro,Procedimento Centralizado
Aquisição de Equipamento Básico/Diverso para as UCCI - SNS,Ajuste Direto Regime Geral,Aquisição de bens móveis,"39520000-3, Artigos têxteis manufacturados","Administração Regional de Saúde do Alentejo, IP (503148768)","Medi-Riva - Texteis Geriátricos, Lda. (509567835)","1.864,80 €",02-03-2011,01-03-2011,15 dias,"Portugal, Évora, Évora","Artigo 1.º do Decreto-Lei n.º 48/2008, de 13.03",15-03-2011,"1.864,80 €",,,,Não aplicável.,Não aplicável.,
Aquisição de Equipamento Básico para as UCCI - SNS,Ajuste Direto Regime Geral,Aquisição de bens móveis,"39150000-8, Mobiliário e equipamento diverso","Administração Regional de Saúde do Alentejo, IP (503148768)","Sanocordia - Mobiliário e Produtos Médico Hospitalares, Lda. (503809594)","35.516,72 €",02-03-2011,01-03-2011,30 dias,"Portugal, Évora, Évora","Artigo 1.º do Decreto-Lei n.º 48/2008, de 13.03",01-04-2011,"35.516,72 €",,,,Não aplicável.,Não aplicável.,
Aquisição de Equipamento Básico/Diverso para as UCCI - SNS,Ajuste Direto Regime Geral,Aquisição de bens móveis,"30191000-4, Equipamento de escritório, excepto mobiliário","Administração Regional de Saúde do Alentejo, IP (503148768)","Luis Santos, Material Equipamento Hospitalar (189372125)","5.394,00 €",02-03-2011,01-03-2011,30 dias,"Portugal, Évora, Évora","Artigo 1.º do Decreto-Lei n.º 48/2008, de 13.03",01-04-2011,"5.394,00 €",,,,Não aplicável.,Não aplicável.,
"Aquisição de software para Solução de Gestão do Atendimento da ARSAlentejo, I.P.",Ajuste Direto Regime Geral,Aquisição de bens móveis,"48210000-3, Pacote de software para ligações em rede","Administração Regional de Saúde do Alentejo, IP (503148768)",PT PRIME (502840757),"1.890,00 €",02-03-2011,23-02-2011,28 dias,"Portugal, Évora, Évora","Artigo 20.º, n.º 1, alínea a) do Código dos Contratos Públicos",26-07-2011,"1.890,00 €",,,,Não aplicável.,Não aplicável.,
"Aquisição de Hardware para Solução de Gestão do Atendimento da ARSAlentejo, I.P.",Ajuste Direto Regime Geral,Aquisição de bens móveis,"30200000-1, Equipamento e material informático","Administração Regional de Saúde do Alentejo, IP (503148768)",PT PRIME (502840757),"8.570,00 €",02-03-2011,23-02-2011,28 dias,"Portugal, Évora, Évora","Artigo 20.º, n.º 1, alínea a) do Código dos Contratos Públicos",26-06-2011,"8.570,00 €",,,,Não aplicável.,Não aplicável.,
Serviços de Instalação e Configuração,Ajuste Direto Regime Geral,Aquisição de serviços,"72265000-0, Serviços de configuração de software","Administração Regional de Saúde do Alentejo, IP (503148768)",PT PRIME (502840757),"4.632,00 €",02-03-2011,23-02-2011,28 dias,"Portugal, Évora, Évora","Artigo 20.º, n.º 1, alínea a) do Código dos Contratos Públicos",30-12-2011,"4.632,00 €",,,,Não aplicável.,Não aplicável.,
"Alojamento da Plataforma de Candidaturas de Recursos Humanos, por um periodo de 6 meses (Fevereiro/2011 a Julho de 2011).",Ajuste Direto Regime Geral,Aquisição de serviços,"72590000-7, Serviços de informática prestados por profissionais","Administração Regional de Saúde do Alentejo, IP (503148768)",CPC Informática Sistemas (501267255),"4.100,00 €",28-02-2011,31-01-2011,180 dias,"Portugal, Évora, Évora","Artigo 20.º, n.º 1, alínea a) do Código dos Contratos Públicos",26-02-2011,"4.100,00 €",,,,Não aplicável.,Não aplicável.,
Centro de Saúde de Montemor-o-Novo - Construção,Ajuste Direto Regime Geral,Empreitadas de obras públicas,"45215100-8, Obras de construção de edifícios relacionados com serviços de saúde","Administração Regional de Saúde do Alentejo, IP (503148768)","Comporto - Sociedade de Construções, S.A. (501496092)","2.384.699,73 €",22-02-2011,14-02-2011,610 dias,"Portugal, Évora, Montemor-o-Novo","Artigo 1.º do Decreto-Lei n.º 48/2008, de 13.03","","",,,,Não aplicável.,Não aplicável.,
UCCI - Aquisição de televisores LCD,Ajuste Direto Regime Geral,Aquisição de bens móveis,"32323000-3, Monitores de vídeo","Administração Regional de Saúde do Alentejo, IP (503148768)","Electrilar - Henrique J.B. Santana - Comércio de Electrodomésticos, Lda. (502403810)","12.818,00 €",21-02-2011,29-12-2010,0 dias,"Portugal, Évora, Évora","Artigo 20.º, n.º 1, alínea a) do Código dos Contratos Públicos",26-01-2011,"12.818,00 €",,,,Não aplicável.,Não aplicável.,
Aquisição de mobiliário hospitalar (cadeirões e mesas),Ajuste Direto Regime Geral,Aquisição de bens móveis,"33192000-2, Mobiliário para fins médicos","Administração Regional de Saúde do Alentejo, IP (503148768)","Sanocórdia - Mob.Prod.Médico-Hospitalares, Lda. (503809594)","17.494,15 €",21-02-2011,29-12-2010,0 dias,"Portugal, Évora, Évora","Artigo 20.º, n.º 1, alínea a) do Código dos Contratos Públicos",31-12-2010,"17.494,15 €",,,,Não aplicável.,Não aplicável.,
