Objeto do Contrato,Tipo de Procedimento,Tipo(s) de Contrato,CPVs,Entidade(s) Adjudicante(s),Entidade(s) Adjudicatária(s),Preço Contratual,Data de Publicação,Data de Celebração do Contrato,Prazo de Execução,Local de Execução,Fundamentação,Data de Fecho do Contrato,Preço Total Efetivo,Causas das Alterações ao Prazo,Causas das Alterações ao Preço,Estado,N.º registo do Acordo Quadro,Descrição do Acordo Quadro,Procedimento Centralizado
AQUISIÇÃO DE SERVIÇOS DE MANUTENÇÃO E SUPORTE DA SOLUÇÃO HP-HCIS,Ajuste Direto Regime Geral,Aquisição de serviços,"72500000-0, Serviços relacionados com a informática","Serviço Partilhados do Ministério da Saúde, E. P. E. (509540716)","HP ENTERPRISE SERVICES PORTUGAL, LDA (501570691)","199.500,00 €",26-06-2012,09-05-2012,258 dias,Portugal,"Artigo 20.º, n.º 1, alínea a) do Código dos Contratos Públicos",,,,,,Não aplicável.,Não aplicável.,
Aquisição de Corretivos de Volémia,Ajuste Direto Regime Geral,Aquisição de bens móveis,"33000000-0, Equipamento médico, medicamentos e produtos para cuidados pessoais","Serviço Partilhados do Ministério da Saúde, E. P. E. (509540716)",FRESENIUS KABI PHARMA PORTUGAL (504293753),"5.239,20 €",22-06-2012,21-03-2012,30 dias,Portugal,"Artigo 20.º, n.º 1, alínea a) do Código dos Contratos Públicos",,,,,,Não aplicável.,Não aplicável.,
Prestação de Serviços de Enfermagem,Ajuste Direto Regime Geral,Concessão de serviços públicos,"85141200-1, Serviços prestados pelo pessoal de enfermagem","Serviço Partilhados do Ministério da Saúde, E. P. E. (509540716)","Helped, Prestaçãode Serviços de saúde, EPE (506069010)","32.852,94 €",21-06-2012,01-11-2011,30 dias,"Portugal, Lisboa","Artigo 20.º, n.º 1, alínea a) do Código dos Contratos Públicos",,,,,,Não aplicável.,Não aplicável.,
