Objeto do Contrato,Tipo de Procedimento,Tipo(s) de Contrato,CPVs,Entidade(s) Adjudicante(s),Entidade(s) Adjudicatária(s),Preço Contratual,Data de Publicação,Data de Celebração do Contrato,Prazo de Execução,Local de Execução,Fundamentação,Data de Fecho do Contrato,Preço Total Efetivo,Causas das Alterações ao Prazo,Causas das Alterações ao Preço,Estado,N.º registo do Acordo Quadro,Descrição do Acordo Quadro,Procedimento Centralizado
AD/324/2015 - AQUISIÇÃO DE TOXINA BOTULINICA,Ajuste Direto Regime Geral,Aquisição de bens móveis,"33690000-3, Medicamentos vários","Administração Regional de Saúde do Algarve, I. P. (503148709)","Grunenthal, S.A. (500101965)","12.100,00 €",21-12-2015,21-12-2015,10 dias,"Portugal, Faro, Faro","Artigo 20.º, n.º 1, alínea a) do Código dos Contratos Públicos","","",,"",,Não aplicável.,Não aplicável.,FALSE
AD/275/2015 - AQUISIÇÃO DE REAGENTES DE DIAGNÓSTICO RÁPIDO,Ajuste Direto Regime Geral,Aquisição de bens móveis,"33696000-5, Reagentes e meios de contraste","Administração Regional de Saúde do Algarve, I. P. (503148709)","Siemens Healthcare Diagnostics Unipessoal, Lda. (507925173)","2.250,00 €",21-12-2015,21-12-2015,10 dias,"Portugal, Faro, Faro","Artigo 20.º, n.º 1, alínea a) do Código dos Contratos Públicos",30-12-2015,"2.250,00 €",,"",,Não aplicável.,Não aplicável.,FALSE
AD/275/2015 - AQUISIÇÃO DE REAGENTES DE DIAGNÓSTICO RÁPIDO,Ajuste Direto Regime Geral,Aquisição de bens móveis,"33696200-7, Reagentes para análises ao sangue","Administração Regional de Saúde do Algarve, I. P. (503148709)","Abbott Laboratórios, Lda. (500006148)","6.120,00 €",21-12-2015,21-12-2015,10 dias,"Portugal, Faro, Faro","Artigo 20.º, n.º 1, alínea a) do Código dos Contratos Públicos",30-12-2015,"6.120,00 €",,"",,Não aplicável.,Não aplicável.,FALSE
AD/258/2015 - AQUISIÇÃO DE MATERIAL DE CONSUMO CLINICO.2,Ajuste Direto Regime Geral,Aquisição de bens móveis,"33140000-3, Material médico de consumo","Administração Regional de Saúde do Algarve, I. P. (503148709)","Speculum, S.A. (502996323)","288,00 €",21-12-2015,21-12-2015,10 dias,"Portugal, Faro, Faro","Artigo 20.º, n.º 1, alínea a) do Código dos Contratos Públicos","","",,"",,Não aplicável.,Não aplicável.,FALSE
AD/258/2015 - AQUISIÇÃO DE MATERIAL DE CONSUMO CLINICO.2,Ajuste Direto Regime Geral,Aquisição de bens móveis,"33140000-3, Material médico de consumo","Administração Regional de Saúde do Algarve, I. P. (503148709)","Covidien Portugal, Lda. (503413410)","4.500,00 €",21-12-2015,21-12-2015,10 dias,"Portugal, Faro, Faro","Artigo 20.º, n.º 1, alínea a) do Código dos Contratos Públicos",29-12-2015,"1.057,50 €",,Quantidades fornecidas.,,Não aplicável.,Não aplicável.,FALSE
AD/258/2015 - AQUISIÇÃO DE MATERIAL DE CONSUMO CLINICO.2,Ajuste Direto Regime Geral,Aquisição de bens móveis,"33140000-3, Material médico de consumo","Administração Regional de Saúde do Algarve, I. P. (503148709)","Bastos & Viegas, S.A. (500042772)","228,80 €",21-12-2015,21-12-2015,10 dias,"Portugal, Faro, Faro","Artigo 20.º, n.º 1, alínea a) do Código dos Contratos Públicos",30-12-2015,"228,80 €",,"",,Não aplicável.,Não aplicável.,FALSE
AD/258/2015 - AQUISIÇÃO DE MATERIAL DE CONSUMO CLINICO.2,Ajuste Direto Regime Geral,Aquisição de bens móveis,"33140000-3, Material médico de consumo","Administração Regional de Saúde do Algarve, I. P. (503148709)","ANASTÁCIO SALDANHA UNIPESSOAL, LDA. (505804441)","34,90 €",21-12-2015,21-12-2015,10 dias,"Portugal, Faro, Faro","Artigo 20.º, n.º 1, alínea a) do Código dos Contratos Públicos",29-12-2015,"34,90 €",,"",,Não aplicável.,Não aplicável.,FALSE
AD/258/2015 - AQUISIÇÃO DE MATERIAL DE CONSUMO CLINICO.2,Ajuste Direto Regime Geral,Aquisição de bens móveis,"33140000-3, Material médico de consumo","Administração Regional de Saúde do Algarve, I. P. (503148709)","Ezequiel Panão Jorge, Lda. (501412727)","182,00 €",21-12-2015,21-12-2015,10 dias,"Portugal, Faro, Faro","Artigo 20.º, n.º 1, alínea a) do Código dos Contratos Públicos",28-12-2015,"182,00 €",,"",,Não aplicável.,Não aplicável.,FALSE
AD/258/2015 - AQUISIÇÃO DE MATERIAL DE CONSUMO CLINICO.2,Ajuste Direto Regime Geral,Aquisição de bens móveis,"33140000-3, Material médico de consumo","Administração Regional de Saúde do Algarve, I. P. (503148709)","Teleflex Medical, S.A. - Sucursal em Portugal (980249783)","196,00 €",21-12-2015,21-12-2015,10 dias,"Portugal, Faro, Faro","Artigo 20.º, n.º 1, alínea a) do Código dos Contratos Públicos",29-12-2015,"53,92 €",,Quantidades fornecidas.,,Não aplicável.,Não aplicável.,FALSE
SC/271/2015 - AQUISIÇÃO DE MATERIAL DE PENSO DE EFEITO TERAPÊUTICO E PENSO TRADICIONAL,Ao abrigo de acordo-quadro (art.º 259.º),Aquisição de bens móveis,"33140000-3, Material médico de consumo","Administração Regional de Saúde do Algarve, I. P. (503148709)","Molnlycke Health Care, Lda. (511101066)","201,60 €",21-12-2015,21-12-2015,10 dias,"Portugal, Faro, Faro",Artigo 259.º do Código dos Contratos Públicos,"","",,"",,490160,"CONCURSO PÚBLICO PARA A CELEBRAÇÃO DE CONTRATOS PÚBLICOS DE APROVISIONAMENTO PARA A ÁREA DA SAÚDE, COM VISTA AO FORNECIMENTO DE MATERIAL PENSO DE EFEITO TERAPÊUTICO - ÀS INSTITUIÇÕES E SERVIÇOS DO SERVIÇO NACIONAL DE SAÚDE",FALSE
SC/271/2015 - AQUISIÇÃO DE MATERIAL DE PENSO DE EFEITO TERAPÊUTICO E PENSO TRADICIONAL,Ao abrigo de acordo-quadro (art.º 259.º),Aquisição de bens móveis,"33140000-3, Material médico de consumo","Administração Regional de Saúde do Algarve, I. P. (503148709)","SPC - South Point Care, Lda. (508284872)","3.415,00 €",21-12-2015,21-12-2015,10 dias,"Portugal, Faro, Faro",Artigo 259.º do Código dos Contratos Públicos,"","",,"",,490160,"CONCURSO PÚBLICO PARA A CELEBRAÇÃO DE CONTRATOS PÚBLICOS DE APROVISIONAMENTO PARA A ÁREA DA SAÚDE, COM VISTA AO FORNECIMENTO DE MATERIAL PENSO DE EFEITO TERAPÊUTICO - ÀS INSTITUIÇÕES E SERVIÇOS DO SERVIÇO NACIONAL DE SAÚDE",FALSE
SC/271/2015 - AQUISIÇÃO DE MATERIAL DE PENSO DE EFEITO TERAPÊUTICO E PENSO TRADICIONAL,Ao abrigo de acordo-quadro (art.º 259.º),Aquisição de bens móveis,"33140000-3, Material médico de consumo","Administração Regional de Saúde do Algarve, I. P. (503148709)","Paul Hartmann, Lda. (502271728)","1.437,90 €",21-12-2015,21-12-2015,10 dias,"Portugal, Faro, Faro",Artigo 259.º do Código dos Contratos Públicos,"","",,"",,490160,"CONCURSO PÚBLICO PARA A CELEBRAÇÃO DE CONTRATOS PÚBLICOS DE APROVISIONAMENTO PARA A ÁREA DA SAÚDE, COM VISTA AO FORNECIMENTO DE MATERIAL PENSO DE EFEITO TERAPÊUTICO - ÀS INSTITUIÇÕES E SERVIÇOS DO SERVIÇO NACIONAL DE SAÚDE",FALSE
SC/271/2015 - AQUISIÇÃO DE MATERIAL DE PENSO DE EFEITO TERAPÊUTICO E PENSO TRADICIONAL,Ao abrigo de acordo-quadro (art.º 259.º),Aquisição de bens móveis,"33140000-3, Material médico de consumo","Administração Regional de Saúde do Algarve, I. P. (503148709)","B.Braun Medical, Lda. (501506543)","1.625,00 €",21-12-2015,21-12-2015,10 dias,"Portugal, Faro, Faro",Artigo 259.º do Código dos Contratos Públicos,"","",,"",,490160,"CONCURSO PÚBLICO PARA A CELEBRAÇÃO DE CONTRATOS PÚBLICOS DE APROVISIONAMENTO PARA A ÁREA DA SAÚDE, COM VISTA AO FORNECIMENTO DE MATERIAL PENSO DE EFEITO TERAPÊUTICO - ÀS INSTITUIÇÕES E SERVIÇOS DO SERVIÇO NACIONAL DE SAÚDE",FALSE
SC/271/2015 - AQUISIÇÃO DE MATERIAL DE PENSO DE EFEITO TERAPÊUTICO E PENSO TRADICIONAL,Ao abrigo de acordo-quadro (art.º 259.º),Aquisição de bens móveis,"33140000-3, Material médico de consumo","Administração Regional de Saúde do Algarve, I. P. (503148709)","BSN Medical, S.A. (505385058)","3.408,00 €",18-12-2015,18-12-2015,13 dias,"Portugal, Faro, Faro",Artigo 259.º do Código dos Contratos Públicos,"","",,"",,490160,"CONCURSO PÚBLICO PARA A CELEBRAÇÃO DE CONTRATOS PÚBLICOS DE APROVISIONAMENTO PARA A ÁREA DA SAÚDE, COM VISTA AO FORNECIMENTO DE MATERIAL PENSO DE EFEITO TERAPÊUTICO - ÀS INSTITUIÇÕES E SERVIÇOS DO SERVIÇO NACIONAL DE SAÚDE",FALSE
SC/271/2015 - AQUISIÇÃO DE MATERIAL DE PENSO DE EFEITO TERAPÊUTICO E PENSO TRADICIONAL,Ao abrigo de acordo-quadro (art.º 259.º),Aquisição de bens móveis,"33140000-3, Material médico de consumo","Administração Regional de Saúde do Algarve, I. P. (503148709)","QUEENLABS - ESPECIALIDADES FARMACEUTICAS, LDA. (503984485)","9.280,00 €",18-12-2015,18-12-2015,13 dias,"Portugal, Faro, Faro",Artigo 259.º do Código dos Contratos Públicos,"","",,"",,490160,"CONCURSO PÚBLICO PARA A CELEBRAÇÃO DE CONTRATOS PÚBLICOS DE APROVISIONAMENTO PARA A ÁREA DA SAÚDE, COM VISTA AO FORNECIMENTO DE MATERIAL PENSO DE EFEITO TERAPÊUTICO - ÀS INSTITUIÇÕES E SERVIÇOS DO SERVIÇO NACIONAL DE SAÚDE",FALSE
AM/325/2015 - Aquisição de Kit de Baclofeno,Ajuste Direto Regime Geral,Aquisição de bens móveis,"33141620-2, Kits médicos","Administração Regional de Saúde do Algarve, I. P. (503148709)","Medtronic Portugal, Lda. (504223933)","980,00 €",17-12-2015,17-12-2015,14 dias,"Portugal, Faro, Faro","Artigo 20.º, n.º 1, alínea a) do Código dos Contratos Públicos","","",,"",,Não aplicável.,Não aplicável.,FALSE
CP/208/2015 - Aquisição de Ajudas Técnicas para o CMRSul,Concurso público,Aquisição de serviços,"85000000-9, Serviços de saúde e acção social","Administração Regional de Saúde do Algarve, I. P. (503148709)","Mobilitec, Lda. (506343910)","112.686,00 €",16-12-2015,03-12-2015,15 dias,"Portugal, Faro, Faro","Artigo 20.º, n.º 1, alínea b) do Código dos Contratos Públicos","","",,"",,Não aplicável.,Não aplicável.,FALSE
CP/208/2015 - Aquisição de Ajudas Técnicas para o CMRSul,Concurso público,Aquisição de serviços,"85000000-9, Serviços de saúde e acção social","Administração Regional de Saúde do Algarve, I. P. (503148709)",Quilaban S.A. (500399670),"85,50 €",16-12-2015,16-12-2015,15 dias,"Portugal, Faro, Faro","Artigo 20.º, n.º 1, alínea b) do Código dos Contratos Públicos","","",,"",,Não aplicável.,Não aplicável.,FALSE
CP/208/2015 - Aquisição de Ajudas Técnicas para o CMRSul,Concurso público,Aquisição de serviços,"85000000-9, Serviços de saúde e acção social","Administração Regional de Saúde do Algarve, I. P. (503148709)",RMV (507866347),"1.486,80 €",16-12-2015,16-12-2015,15 dias,"Portugal, Faro, Faro","Artigo 20.º, n.º 1, alínea b) do Código dos Contratos Públicos","","",,"",,Não aplicável.,Não aplicável.,FALSE
AD/257/2015 - AQUISIÇÃO DE MATERIAL DE CONSUMO CLINICO.1,Ajuste Direto Regime Geral,Aquisição de bens móveis,"33141119-7, Compressas","Administração Regional de Saúde do Algarve, I. P. (503148709)","Albino Dias Andrade, Lda. (500013810)","2.400,00 €",15-12-2015,15-12-2015,16 dias,"Portugal, Faro, Faro","Artigo 20.º, n.º 1, alínea a) do Código dos Contratos Públicos",30-12-2015,"2.394,00 €",,Quantidades fornecidas,,Não aplicável.,Não aplicável.,FALSE
AD/308/2015 - Aquisição de Talas insufláveis para o CMRSul,Ajuste Direto Regime Geral,Aquisição de bens móveis,"33141760-5, Talas","Administração Regional de Saúde do Algarve, I. P. (503148709)",Medicineto (504158562),"2.787,20 €",15-12-2015,03-12-2015,16 dias,"Portugal, Faro, Faro","Artigo 20.º, n.º 1, alínea a) do Código dos Contratos Públicos",31-12-2015,"2.787,20 €",,"",,Não aplicável.,Não aplicável.,FALSE
AD/308/2015 - Aquisição de Talas insufláveis para o CMRSul,Ajuste Direto Regime Geral,Aquisição de bens móveis,"33141760-5, Talas","Administração Regional de Saúde do Algarve, I. P. (503148709)",Sorisa (500990441),"311,58 €",15-12-2015,03-12-2015,16 dias,"Portugal, Faro, Faro","Artigo 20.º, n.º 1, alínea a) do Código dos Contratos Públicos",31-12-2015,"",,a aquisição não foi efetuada.,,Não aplicável.,Não aplicável.,FALSE
SC/322/2015 - Aquisição de Gel e Solução de limpeza de feridas,Ao abrigo de acordo-quadro (art.º 259.º),Aquisição de bens móveis,"33140000-3, Material médico de consumo","Administração Regional de Saúde do Algarve, I. P. (503148709)","B.Braun Medical, Lda. (501506543)","6.370,08 €",14-12-2015,14-12-2015,17 dias,"Portugal, Faro, Faro",Artigo 259.º do Código dos Contratos Públicos,18-12-2015,"6.370,08 €",,"",,552526,"CONCURSO PÚBLICO PARA A CELEBRAÇÃO DE CONTRATOS PÚBLICOS DE APROVISIONAMENTO PARA A ÁREA DA SAÚDE, COM VISTA AO FORNECIMENTO DE DISPOSITIVOS MÉDICOS DIVERSOS",FALSE
AD/258/2015 - AQUISIÇÃO DE MATERIAL DE CONSUMO CLINICO.2,Ajuste Direto Regime Geral,Aquisição de bens móveis,"33140000-3, Material médico de consumo","Administração Regional de Saúde do Algarve, I. P. (503148709)","M.U.C., Lda. (502379308)","12,00 €",14-12-2015,14-12-2015,17 dias,"Portugal, Faro, Faro","Artigo 20.º, n.º 1, alínea a) do Código dos Contratos Públicos",28-12-2015,"12,00 €",,"",,Não aplicável.,Não aplicável.,FALSE
AD/258/2015 - AQUISIÇÃO DE MATERIAL DE CONSUMO CLINICO.2,Ajuste Direto Regime Geral,Aquisição de bens móveis,"33140000-3, Material médico de consumo","Administração Regional de Saúde do Algarve, I. P. (503148709)","Eurocasmedica, S.A. (503322105)","23,00 €",14-12-2015,14-12-2015,17 dias,"Portugal, Faro, Faro","Artigo 20.º, n.º 1, alínea a) do Código dos Contratos Públicos",16-12-2015,"23,00 €",,"",,Não aplicável.,Não aplicável.,FALSE
AD/258/2015 - AQUISIÇÃO DE MATERIAL DE CONSUMO CLINICO.2,Ajuste Direto Regime Geral,Aquisição de bens móveis,"33140000-3, Material médico de consumo","Administração Regional de Saúde do Algarve, I. P. (503148709)",Quilaban. S.A. (500399670),"193,24 €",14-12-2015,14-12-2015,17 dias,"Portugal, Faro, Faro","Artigo 20.º, n.º 1, alínea a) do Código dos Contratos Públicos",18-12-2015,"25,96 €",,Quantidades fornecidas.,,Não aplicável.,Não aplicável.,FALSE
AD/258/2015 - AQUISIÇÃO DE MATERIAL DE CONSUMO CLINICO.2,Ajuste Direto Regime Geral,Aquisição de bens móveis,"33140000-3, Material médico de consumo","Administração Regional de Saúde do Algarve, I. P. (503148709)","EPJMédica, Lda. (506820513)","59,20 €",14-12-2015,14-12-2015,17 dias,"Portugal, Faro, Faro","Artigo 20.º, n.º 1, alínea a) do Código dos Contratos Públicos",18-12-2015,"59,20 €",,"",,Não aplicável.,Não aplicável.,FALSE
AD/258/2015 - AQUISIÇÃO DE MATERIAL DE CONSUMO CLINICO.2,Ajuste Direto Regime Geral,Aquisição de bens móveis,"33140000-3, Material médico de consumo","Administração Regional de Saúde do Algarve, I. P. (503148709)","Intersurgical Portugal, Lda. (503480045)","3,55 €",14-12-2015,14-12-2015,17 dias,"Portugal, Faro, Faro","Artigo 20.º, n.º 1, alínea a) do Código dos Contratos Públicos","","",,"",,Não aplicável.,Não aplicável.,FALSE
AD 166/2015 - Aquisição de Consumíveis para o LRSP,Ajuste Direto Regime Geral,Aquisição de bens móveis,"33192500-7, Tubos de ensaio","Administração Regional de Saúde do Algarve, I. P. (503148709)","SARSTEDT - Tecnologia de Laboratório, S.A. (503019461)","350,00 €",11-12-2015,23-11-2015,38 dias,"Portugal, Faro, Faro","Artigo 20.º, n.º 1, alínea a) do Código dos Contratos Públicos",31-12-2015,"350,00 €",,"",,Não aplicável.,Não aplicável.,FALSE
AD 166/2015 - Aquisição de Consumíveis para o LRSP,Ajuste Direto Regime Geral,Aquisição de bens móveis,"33192500-7, Tubos de ensaio","Administração Regional de Saúde do Algarve, I. P. (503148709)","Vacuette Portugal - Importação e Exportação de Material Hospitalar, S.A. (505348470)","73,22 €",11-12-2015,23-11-2015,38 dias,"Portugal, Faro, Faro","Artigo 20.º, n.º 1, alínea a) do Código dos Contratos Públicos",31-12-2015,"73,22 €",,"",,Não aplicável.,Não aplicável.,FALSE
AD 166/2015 - Aquisição de Consumíveis para o LRSP,Ajuste Direto Regime Geral,Aquisição de bens móveis,"39226220-0, Frascos<BR/>38519000-6, Componentes diversos para microscópios","Administração Regional de Saúde do Algarve, I. P. (503148709)","NORMAX - Fábrica de Vidros Cientificos, Lda. (500203130)","1.669,95 €",11-12-2015,23-11-2015,38 dias,"Portugal, Faro, Faro","Artigo 20.º, n.º 1, alínea a) do Código dos Contratos Públicos",31-12-2015,"1.657,53 €",,Quantidades não encomendadas na totalidade,,Não aplicável.,Não aplicável.,FALSE
