Objeto do Contrato,Tipo de Procedimento,Tipo(s) de Contrato,CPVs,Entidade(s) Adjudicante(s),Entidade(s) Adjudicatária(s),Preço Contratual,Data de Publicação,Data de Celebração do Contrato,Prazo de Execução,Local de Execução,Fundamentação,Data de Fecho do Contrato,Preço Total Efetivo,Causas das Alterações ao Prazo,Causas das Alterações ao Preço,Estado,N.º registo do Acordo Quadro,Descrição do Acordo Quadro,Procedimento Centralizado
Aquisição de electrodomésticos.,Ajuste Direto Regime Geral,Aquisição de bens móveis,"39300000-5, Equipamento diverso","Instituto Nacional de Saúde Dr. Ricardo Jorge, I.P. (501427511)","Rabel - Electrodomésticos e Mobílias, Lda (503885096)","1.685,95 €",19-01-2011,25-11-2010,1 dias,"Portugal, Porto, Porto","Artigo 20.º, n.º 1, alínea a) do Código dos Contratos Públicos",,,,,,Não aplicável.,Não aplicável.,
Aquisição de microcentrifuga com rotor.,Ajuste Direto Regime Geral,Aquisição de bens móveis,"42931100-2, Centrifugadoras de laboratório e acessórios","Instituto Nacional de Saúde Dr. Ricardo Jorge, I.P. (501427511)","VWR International - Material de Laboratório, Lda (503842770)","900,80 €",14-01-2011,29-11-2010,10 dias,"Portugal, Porto, Porto","Artigo 20.º, n.º 1, alínea a) do Código dos Contratos Públicos",,,,,,Não aplicável.,Não aplicável.,
Aquisição de material para laboratório.,Ajuste Direto Regime Geral,Aquisição de bens móveis,"33140000-3, Material médico de consumo","Instituto Nacional de Saúde Dr. Ricardo Jorge, I.P. (501427511)","Ambicontrol, Lda (502715464)","4.360,00 €",14-01-2011,28-12-2010,20 dias,"Portugal, Lisboa, Lisboa<BR/>Portugal, Porto, Porto","Artigo 20.º, n.º 1, alínea a) do Código dos Contratos Públicos",,,,,,Não aplicável.,Não aplicável.,
Aquisição de reagentes.,Ajuste Direto Regime Geral,Aquisição de bens móveis,"33696500-0, Reagentes de laboratório","Instituto Nacional de Saúde Dr. Ricardo Jorge, I.P. (501427511)","Arium - Sistemas de Diagnóstico, Lda (502501880)","3.280,00 €",14-01-2011,17-12-2010,8 dias,"Portugal, Lisboa, Lisboa","Artigo 20.º, n.º 1, alínea a) do Código dos Contratos Públicos",,,,,,Não aplicável.,Não aplicável.,
Aquisição de material para laboratório.,Ajuste Direto Regime Geral,Aquisição de bens móveis,"33140000-3, Material médico de consumo","Instituto Nacional de Saúde Dr. Ricardo Jorge, I.P. (501427511)","Bio-Rad Laboratories, Lda (501301321)","114,00 €",14-01-2011,14-12-2010,30 dias,"Portugal, Porto, Porto","Artigo 24.º, n.º 1, alínea b) do Código dos Contratos Públicos",,,,,,Não aplicável.,Não aplicável.,
Aquisição de agitador.,Ajuste Direto Regime Geral,Aquisição de bens móveis,"38436100-1, Agitadores mecânicos","Instituto Nacional de Saúde Dr. Ricardo Jorge, I.P. (501427511)","VWR International - Material de Laboratório, Lda (503842770)","336,00 €",14-01-2011,29-11-2010,5 dias,"Portugal, Porto, Porto","Artigo 20.º, n.º 1, alínea a) do Código dos Contratos Públicos",,,,,,Não aplicável.,Não aplicável.,
Aquisição de reagentes.,Ajuste Direto Regime Geral,Aquisição de bens móveis,"33696500-0, Reagentes de laboratório","Instituto Nacional de Saúde Dr. Ricardo Jorge, I.P. (501427511)","Bio-Rad Laboratories, Lda (501301321)","1.751,20 €",14-01-2011,14-12-2010,30 dias,"Portugal, Lisboa, Lisboa<BR/>Portugal, Porto, Porto","Artigo 24.º, n.º 1, alínea b) do Código dos Contratos Públicos",,,,,,Não aplicável.,Não aplicável.,
Aquisição de material para laboratório.,Ajuste Direto Regime Geral,Aquisição de bens móveis,"33140000-3, Material médico de consumo","Instituto Nacional de Saúde Dr. Ricardo Jorge, I.P. (501427511)","Bio-Rad Laboratories, Lda (501301321)","126,00 €",14-01-2011,12-12-2010,30 dias,"Portugal, Lisboa, Lisboa","Artigo 24.º, n.º 1, alínea b) do Código dos Contratos Públicos",,,,,,Não aplicável.,Não aplicável.,
Aquisição de concentrador de amostras com agulhas.,Ajuste Direto Regime Geral,Aquisição de bens móveis,"38000000-5, Equipamento laboratorial, óptico e de precisão (exc. óculos)","Instituto Nacional de Saúde Dr. Ricardo Jorge, I.P. (501427511)","VWR International - Material de Laboratório, Lda (503842770)","5.496,60 €",14-01-2011,08-11-2010,15 dias,"Portugal, Porto, Porto","Artigo 26.º, n.º 1, alínea b) do Código dos Contratos Públicos",,,,,,Não aplicável.,Não aplicável.,
Aquisição de material para laboratório.,Ajuste Direto Regime Geral,Aquisição de bens móveis,"32581130-9, Cabos de transmissão de dados para aplicações especiais","Instituto Nacional de Saúde Dr. Ricardo Jorge, I.P. (501427511)","Bruel & Kjaer Ibérica, Sucursal em Portugal (980273048)","122,60 €",13-01-2011,16-12-2010,14 dias,"Portugal, Porto, Porto","Artigo 24.º, n.º 1, alínea b) do Código dos Contratos Públicos",,,,,,Não aplicável.,Não aplicável.,
Aquisição de micropipetas.,Ajuste Direto Regime Geral,Aquisição de bens móveis,"38437000-7, Pipetas de laboratório e acessórios","Instituto Nacional de Saúde Dr. Ricardo Jorge, I.P. (501427511)","VWR International - Material de Laboratório, Lda (503842770)","2.068,17 €",13-01-2011,28-11-2010,8 dias,"Portugal, Porto, Porto","Artigo 20.º, n.º 1, alínea a) do Código dos Contratos Públicos",,,,,,Não aplicável.,Não aplicável.,
Aquisição de material para laboratório.,Ajuste Direto Regime Geral,Aquisição de bens móveis,"33140000-3, Material médico de consumo","Instituto Nacional de Saúde Dr. Ricardo Jorge, I.P. (501427511)","Ambicontrol, Lda (502715464)","1.250,00 €",13-01-2011,12-11-2010,20 dias,"Portugal, Lisboa, Lisboa","Artigo 20.º, n.º 1, alínea a) do Código dos Contratos Públicos",,,,,,Não aplicável.,Não aplicável.,
Aquisição de material para laboratório.,Ajuste Direto Regime Geral,Aquisição de bens móveis,"33140000-3, Material médico de consumo","Instituto Nacional de Saúde Dr. Ricardo Jorge, I.P. (501427511)","Ambicontrol, Lda (502715464)","1.100,00 €",13-01-2011,12-11-2010,20 dias,"Portugal, Lisboa, Lisboa","Artigo 20.º, n.º 1, alínea a) do Código dos Contratos Públicos",,,,,,Não aplicável.,Não aplicável.,
Aquisição de potenciometro.,Ajuste Direto Regime Geral,Aquisição de bens móveis,"38434540-3, Equipamento biomédico","Instituto Nacional de Saúde Dr. Ricardo Jorge, I.P. (501427511)","Hach-Lange, Lda (507155165)","1.182,00 €",13-01-2011,30-12-2010,30 dias,"Portugal, Porto, Porto","Artigo 20.º, n.º 1, alínea a) do Código dos Contratos Públicos",,,,,,Não aplicável.,Não aplicável.,
Aquisição de estufa de CO2.,Ajuste Direto Regime Geral,Aquisição de bens móveis,"38434540-3, Equipamento biomédico","Instituto Nacional de Saúde Dr. Ricardo Jorge, I.P. (501427511)","VWR International - Material de Laboratório, Lda (503842770)","5.390,00 €",13-01-2011,29-11-2010,10 dias,"Portugal, Porto, Porto","Artigo 20.º, n.º 1, alínea a) do Código dos Contratos Públicos",,,,,,Não aplicável.,Não aplicável.,
Aquisição de microscópio de fluorescência.,Ajuste Direto Regime Geral,Aquisição de bens móveis,"38515200-0, Microscópios de fluorescência","Instituto Nacional de Saúde Dr. Ricardo Jorge, I.P. (501427511)","Filsat, Lda (506708616)","31.400,00 €",13-01-2011,30-12-2010,30 dias,"Portugal, Porto, Porto","Artigo 26.º, n.º 1, alínea b) do Código dos Contratos Públicos",,,,,,Não aplicável.,Não aplicável.,
Aquisição de microcentrifuga refrigerada.,Ajuste Direto Regime Geral,Aquisição de bens móveis,"42931100-2, Centrifugadoras de laboratório e acessórios","Instituto Nacional de Saúde Dr. Ricardo Jorge, I.P. (501427511)","VWR International - Material de Laboratório, Lda (503842770)","3.372,80 €",12-01-2011,29-11-2010,5 dias,"Portugal, Porto, Porto","Artigo 20.º, n.º 1, alínea a) do Código dos Contratos Públicos",,,,,,Não aplicável.,Não aplicável.,
Reparação de GS-MS Trace.,Ajuste Direto Regime Geral,Aquisição de serviços,"50410000-2, Serviços de reparação e manutenção de aparelhos de medição, ensaio e controlo","Instituto Nacional de Saúde Dr. Ricardo Jorge, I.P. (501427511)","Soquimica, Lda (500274231)","4.750,40 €",12-01-2011,23-12-2010,7 dias,"Portugal, Lisboa, Lisboa","Artigo 20.º, n.º 1, alínea a) do Código dos Contratos Públicos",,,,,,Não aplicável.,Não aplicável.,
Reparação do sistema de ar condicionado.,Ajuste Direto Regime Geral,Aquisição de serviços,"50800000-3, Serviços de reparação e manutenção diversos","Instituto Nacional de Saúde Dr. Ricardo Jorge, I.P. (501427511)","Lidernor, Lda (503582611)","1.602,40 €",12-01-2011,25-12-2010,7 dias,"Portugal, Porto, Porto","Artigo 20.º, n.º 1, alínea a) do Código dos Contratos Públicos",,,,,,Não aplicável.,Não aplicável.,
Aquisição de leitor de microplacas.,Ajuste Direto Regime Geral,Aquisição de bens móveis,"38000000-5, Equipamento laboratorial, óptico e de precisão (exc. óculos)","Instituto Nacional de Saúde Dr. Ricardo Jorge, I.P. (501427511)","Bio-Rad Laboratories, Lda (501301321)","4.280,00 €",12-01-2011,20-11-2010,30 dias,"Portugal, Porto, Porto","Artigo 20.º, n.º 1, alínea a) do Código dos Contratos Públicos",,,,,,Não aplicável.,Não aplicável.,
Aquisição de caixas de cartão.,Ajuste Direto Regime Geral,Aquisição de bens móveis,"44617000-8, Caixas","Instituto Nacional de Saúde Dr. Ricardo Jorge, I.P. (501427511)","Probox Embalagens Unip, Lda (508192633)","1.224,00 €",12-01-2011,02-06-2010,7 dias,"Portugal, Porto, Porto","Artigo 20.º, n.º 1, alínea a) do Código dos Contratos Públicos",,,,,,Não aplicável.,Não aplicável.,
Aquisição de material de tipografia.,Ajuste Direto Regime Geral,Aquisição de bens móveis,"22458000-5, Material impresso por encomenda","Instituto Nacional de Saúde Dr. Ricardo Jorge, I.P. (501427511)",Empresa Diário do Porto (500096309),"17.223,50 €",12-01-2011,25-06-2010,60 dias,"Portugal, Porto, Porto<BR/>Portugal, Lisboa, Lisboa","Artigo 20.º, n.º 1, alínea a) do Código dos Contratos Públicos",,,,,,Não aplicável.,Não aplicável.,
Aquisição de reagentes.,Ajuste Direto Regime Geral,Aquisição de bens móveis,"33696500-0, Reagentes de laboratório","Instituto Nacional de Saúde Dr. Ricardo Jorge, I.P. (501427511)","Roche Sistemas de Diagnósticos, Lda (504282921)","18.481,00 €",12-01-2011,17-08-2010,5 dias,"Portugal, Setúbal, Setúbal<BR/>Portugal, Lisboa, Lisboa<BR/>Portugal, Porto, Porto","Artigo 24.º, n.º 1, alínea b) do Código dos Contratos Públicos",,,,,,Não aplicável.,Não aplicável.,
Aquisição de serviços para instalação de fibra.,Ajuste Direto Regime Geral,Aquisição de serviços,"64200000-8, Serviços de telecomunicações","Instituto Nacional de Saúde Dr. Ricardo Jorge, I.P. (501427511)","Instalfone, Lda (502843683)","11.739,39 €",12-01-2011,28-09-2010,20 dias,"Portugal, Lisboa, Lisboa","Artigo 20.º, n.º 1, alínea a) do Código dos Contratos Públicos",,,,,,Não aplicável.,Não aplicável.,
Aquisição de serviços de assistência técnica de sistema Tempo.,Ajuste Direto Regime Geral,Aquisição de serviços,"50800000-3, Serviços de reparação e manutenção diversos","Instituto Nacional de Saúde Dr. Ricardo Jorge, I.P. (501427511)","Biomerieux Portugal, Lda (501524177)","7.000,00 €",12-01-2011,29-11-2010,365 dias,"Portugal, Lisboa, Lisboa<BR/>Portugal, Porto, Porto","Artigo 20.º, n.º 1, alínea a) do Código dos Contratos Públicos",,,,,,Não aplicável.,Não aplicável.,
Aquisição de incubador orbital.,Ajuste Direto Regime Geral,Aquisição de bens móveis,"38434540-3, Equipamento biomédico","Instituto Nacional de Saúde Dr. Ricardo Jorge, I.P. (501427511)","VWR International - Material de Laboratório, Lda (503842770)","3.589,00 €",12-01-2011,29-11-2010,15 dias,"Portugal, Porto, Porto","Artigo 20.º, n.º 1, alínea a) do Código dos Contratos Públicos",,,,,,Não aplicável.,Não aplicável.,
Aquisição de material para laboratório.,Ajuste Direto Regime Geral,Aquisição de bens móveis,"33140000-3, Material médico de consumo","Instituto Nacional de Saúde Dr. Ricardo Jorge, I.P. (501427511)","Aiatelab, Lda (508533104)","5.582,00 €",12-01-2011,23-11-2010,15 dias,"Portugal, Porto, Porto<BR/>Portugal, Lisboa, Lisboa","Artigo 24.º, n.º 1, alínea b) do Código dos Contratos Públicos",,,,,,Não aplicável.,Não aplicável.,
Aquisição de material para laboratório.,Ajuste Direto Regime Geral,Aquisição de bens móveis,"33140000-3, Material médico de consumo","Instituto Nacional de Saúde Dr. Ricardo Jorge, I.P. (501427511)","Aiatelab, Lda (508533104)","1.126,25 €",12-01-2011,12-11-2010,15 dias,"Portugal, Lisboa, Lisboa<BR/>Portugal, Porto, Porto","Artigo 24.º, n.º 1, alínea b) do Código dos Contratos Públicos",,,,,,Não aplicável.,Não aplicável.,
