Objeto do Contrato,Tipo de Procedimento,Tipo(s) de Contrato,CPVs,Entidade(s) Adjudicante(s),Entidade(s) Adjudicatária(s),Preço Contratual,Data de Publicação,Data de Celebração do Contrato,Prazo de Execução,Local de Execução,Fundamentação,Data de Fecho do Contrato,Preço Total Efetivo,Causas das Alterações ao Prazo,Causas das Alterações ao Preço,Estado,N.º registo do Acordo Quadro,Descrição do Acordo Quadro,Procedimento Centralizado
Aquisição de testes biológicos para autoclave a a vapor,Ajuste Direto Regime Geral,Aquisição de bens móveis,"33191000-5, Aparelhos para esterilização, desinfecção e higiene",Hospital Dr. Francisco Zagalo (501510150),HG (503855421),"1.284,00 €",09-03-2017,27-02-2017,270 dias,"Portugal, Aveiro, Ovar","Artigo 24.º, n.º 1, alínea e) do Código dos Contratos Públicos",29-12-2017,"642,00 €","",Previsão superior às necessidades,,Não aplicável.,Não aplicável.,FALSE
Aquisição material penso,Ajuste Direto Regime Geral,Aquisição de bens móveis,"33141100-1, Pensos; clipes, suturas, ligaduras",Hospital Dr. Francisco Zagalo (501510150),"Bastos Viegas, S.A. (500042772)","112,00 €",07-03-2017,14-11-2016,1080 dias,"Portugal, Aveiro, Ovar","Artigo 20.º, n.º 1, alínea a) do Código dos Contratos Públicos",29-12-2017,"18,00 €","",Previsão superior às necessidades,,Não aplicável.,Não aplicável.,FALSE
Aquisição material penso,Ajuste Direto Regime Geral,Aquisição de bens móveis,"33141100-1, Pensos; clipes, suturas, ligaduras",Hospital Dr. Francisco Zagalo (501510150),"HOSPITEX,LDA (501909842)","1.100,00 €",07-03-2017,14-11-2016,1080 dias,"Portugal, Aveiro, Ovar","Artigo 20.º, n.º 1, alínea a) do Código dos Contratos Públicos",27-12-2017,"110,00 €","",Previsão superior às necessidades,,Não aplicável.,Não aplicável.,FALSE
Aquisição material penso,Ajuste Direto Regime Geral,Aquisição de bens móveis,"33141100-1, Pensos; clipes, suturas, ligaduras",Hospital Dr. Francisco Zagalo (501510150),"HOSPITEX,LDA (501909842)","440,00 €",07-03-2017,14-11-2016,1080 dias,"Portugal, Aveiro, Ovar","Artigo 20.º, n.º 1, alínea a) do Código dos Contratos Públicos",27-12-2017,"704,00 €","",Previsão inferior às necessidades,,Não aplicável.,Não aplicável.,FALSE
Aquisição material penso,Ajuste Direto Regime Geral,Aquisição de bens móveis,"33141100-1, Pensos; clipes, suturas, ligaduras",Hospital Dr. Francisco Zagalo (501510150),"MICRO-MEDICA, LDA. (501904956)","335,20 €",07-03-2017,14-11-2016,1080 dias,"Portugal, Aveiro, Ovar","Artigo 20.º, n.º 1, alínea a) do Código dos Contratos Públicos",27-12-2017,"1.257,00 €","",Previsão inferior às necessidades,,Não aplicável.,Não aplicável.,FALSE
Aquisição material penso,Ajuste Direto Regime Geral,Aquisição de bens móveis,"33141100-1, Pensos; clipes, suturas, ligaduras",Hospital Dr. Francisco Zagalo (501510150),"Bastos Viegas, S.A. (500042772)","549,00 €",07-03-2017,14-11-2016,1080 dias,"Portugal, Aveiro, Ovar","Artigo 20.º, n.º 1, alínea a) do Código dos Contratos Públicos",27-12-2017,"244,00 €","",Previsão superior às necessidades,,Não aplicável.,Não aplicável.,FALSE
Aquisição material penso,Ajuste Direto Regime Geral,Aquisição de bens móveis,"33141100-1, Pensos; clipes, suturas, ligaduras",Hospital Dr. Francisco Zagalo (501510150),"Bastos Viegas, S.A. (500042772)","427,12 €",07-03-2017,14-11-2016,1080 dias,"Portugal, Aveiro, Ovar","Artigo 20.º, n.º 1, alínea a) do Código dos Contratos Públicos",27-12-2017,"101,16 €","",Previsão superior às necessidades,,Não aplicável.,Não aplicável.,FALSE
Aquisição material penso,Ajuste Direto Regime Geral,Aquisição de bens móveis,"33141100-1, Pensos; clipes, suturas, ligaduras",Hospital Dr. Francisco Zagalo (501510150),"Overpharma, Lda. (505792362)","1.107,80 €",07-03-2017,14-11-2016,1080 dias,"Portugal, Aveiro, Ovar","Artigo 20.º, n.º 1, alínea a) do Código dos Contratos Públicos",27-12-2017,"359,60 €","",Previsão superior às necessidades,,Não aplicável.,Não aplicável.,FALSE
Aquisição material penso,Ajuste Direto Regime Geral,Aquisição de bens móveis,"33141100-1, Pensos; clipes, suturas, ligaduras",Hospital Dr. Francisco Zagalo (501510150),"DOCWORLD, Lda (508592909)","21,00 €",07-03-2017,14-11-2016,1080 dias,"Portugal, Aveiro, Ovar","Artigo 20.º, n.º 1, alínea a) do Código dos Contratos Públicos",29-12-2017,"","",Montante do lote não adquirido,,Não aplicável.,Não aplicável.,FALSE
Aquisição material penso,Ajuste Direto Regime Geral,Aquisição de bens móveis,"33141100-1, Pensos; clipes, suturas, ligaduras",Hospital Dr. Francisco Zagalo (501510150),"Bastos Viegas, S.A. (500042772)","34,50 €",07-03-2017,14-11-2016,1080 dias,"Portugal, Aveiro, Ovar","Artigo 20.º, n.º 1, alínea a) do Código dos Contratos Públicos",29-12-2017,"","",Montante do lote não adquirido,,Não aplicável.,Não aplicável.,FALSE
Aquisição material penso,Ajuste Direto Regime Geral,Aquisição de bens móveis,"33141100-1, Pensos; clipes, suturas, ligaduras",Hospital Dr. Francisco Zagalo (501510150),"DOCWORLD, Lda (508592909)","127,92 €",07-03-2017,14-11-2016,1080 dias,"Portugal, Aveiro, Ovar","Artigo 20.º, n.º 1, alínea a) do Código dos Contratos Públicos",27-12-2017,"19,68 €","",Previsão superior às necessidades,,Não aplicável.,Não aplicável.,FALSE
Aquisição material penso,Ajuste Direto Regime Geral,Aquisição de bens móveis,"33141100-1, Pensos; clipes, suturas, ligaduras",Hospital Dr. Francisco Zagalo (501510150),"DOCWORLD, Lda (508592909)","103,70 €",07-03-2017,14-11-2016,1080 dias,"Portugal, Aveiro, Ovar","Artigo 20.º, n.º 1, alínea a) do Código dos Contratos Públicos",27-12-2017,"12,20 €","",Previsão superior às necessidades,,Não aplicável.,Não aplicável.,FALSE
Aquisição material penso,Ajuste Direto Regime Geral,Aquisição de bens móveis,"33141100-1, Pensos; clipes, suturas, ligaduras",Hospital Dr. Francisco Zagalo (501510150),ABILIO FREIRE (500432600),"59,00 €",07-03-2017,14-11-2016,1080 dias,"Portugal, Aveiro, Ovar","Artigo 20.º, n.º 1, alínea a) do Código dos Contratos Públicos",27-12-2017,"14,75 €","",Previsão superior às necessidades,,Não aplicável.,Não aplicável.,FALSE
Aquisição material penso,Ajuste Direto Regime Geral,Aquisição de bens móveis,"33141100-1, Pensos; clipes, suturas, ligaduras",Hospital Dr. Francisco Zagalo (501510150),ABILIO FREIRE (500432600),"1.487,70 €",07-03-2017,14-11-2016,1080 dias,"Portugal, Aveiro, Ovar","Artigo 20.º, n.º 1, alínea a) do Código dos Contratos Públicos",27-12-2017,"307,80 €","",Previsão superior às necessidades,,Não aplicável.,Não aplicável.,FALSE
Aquisição material penso,Ajuste Direto Regime Geral,Aquisição de bens móveis,"33141100-1, Pensos; clipes, suturas, ligaduras",Hospital Dr. Francisco Zagalo (501510150),"Bastos Viegas, S.A. (500042772)","155,40 €",07-03-2017,14-11-2016,1080 dias,"Portugal, Aveiro, Ovar","Artigo 20.º, n.º 1, alínea a) do Código dos Contratos Públicos",29-12-2017,"9,36 €","",Previsão superior às necessidades,,Não aplicável.,Não aplicável.,FALSE
Aquisição material penso,Ajuste Direto Regime Geral,Aquisição de bens móveis,"33141100-1, Pensos; clipes, suturas, ligaduras",Hospital Dr. Francisco Zagalo (501510150),ABILIO FREIRE (500432600),"162,80 €",07-03-2017,14-11-2016,1080 dias,"Portugal, Aveiro, Ovar","Artigo 20.º, n.º 1, alínea a) do Código dos Contratos Públicos",27-12-2017,"370,00 €","",Previsão inferior às necessidades,,Não aplicável.,Não aplicável.,FALSE
Aquisição material penso,Ajuste Direto Regime Geral,Aquisição de bens móveis,"33141100-1, Pensos; clipes, suturas, ligaduras",Hospital Dr. Francisco Zagalo (501510150),ABILIO FREIRE (500432600),"294,80 €",07-03-2017,14-11-2016,1080 dias,"Portugal, Aveiro, Ovar","Artigo 20.º, n.º 1, alínea a) do Código dos Contratos Públicos",27-12-2017,"107,20 €","",Previsão superior às necessidades,,Não aplicável.,Não aplicável.,FALSE
Aquisição material penso,Ajuste Direto Regime Geral,Aquisição de bens móveis,"33141100-1, Pensos; clipes, suturas, ligaduras",Hospital Dr. Francisco Zagalo (501510150),ABILIO FREIRE (500432600),"54,00 €",07-03-2017,14-11-2016,1080 dias,"Portugal, Aveiro, Ovar","Artigo 20.º, n.º 1, alínea a) do Código dos Contratos Públicos",29-12-2017,"","",Previsão superior às necessidades,,Não aplicável.,Não aplicável.,FALSE
Aquisição material penso,Ajuste Direto Regime Geral,Aquisição de bens móveis,"33141100-1, Pensos; clipes, suturas, ligaduras",Hospital Dr. Francisco Zagalo (501510150),BSN MEDICAL S.A (505385058),"133,20 €",07-03-2017,14-11-2016,1080 dias,"Portugal, Aveiro, Ovar","Artigo 20.º, n.º 1, alínea a) do Código dos Contratos Públicos",27-12-2017,"66,60 €","",Previsão superior às necessidades,,Não aplicável.,Não aplicável.,FALSE
Aquisição material penso,Ajuste Direto Regime Geral,Aquisição de bens móveis,"33141100-1, Pensos; clipes, suturas, ligaduras",Hospital Dr. Francisco Zagalo (501510150),BSN MEDICAL S.A (505385058),"66,00 €",07-03-2017,14-11-2016,1080 dias,"Portugal, Aveiro, Ovar","Artigo 20.º, n.º 1, alínea a) do Código dos Contratos Públicos",27-12-2017,"66,00 €","","",,Não aplicável.,Não aplicável.,FALSE
Aquisição material penso,Ajuste Direto Regime Geral,Aquisição de bens móveis,"33141100-1, Pensos; clipes, suturas, ligaduras",Hospital Dr. Francisco Zagalo (501510150),ABILIO FREIRE (500432600),"224,25 €",07-03-2017,14-11-2016,1080 dias,"Portugal, Aveiro, Ovar","Artigo 20.º, n.º 1, alínea a) do Código dos Contratos Públicos",27-12-2017,"51,75 €","",Previsão superior às necessidades,,Não aplicável.,Não aplicável.,FALSE
Aquisição material penso,Ajuste Direto Regime Geral,Aquisição de bens móveis,"33141100-1, Pensos; clipes, suturas, ligaduras",Hospital Dr. Francisco Zagalo (501510150),ABILIO FREIRE (500432600),"255,60 €",07-03-2017,14-11-2016,1080 dias,"Portugal, Aveiro, Ovar","Artigo 20.º, n.º 1, alínea a) do Código dos Contratos Públicos",27-12-2017,"56,80 €","",Previsão superior às necessidades,,Não aplicável.,Não aplicável.,FALSE
Aquisição material penso,Ajuste Direto Regime Geral,Aquisição de bens móveis,"33141100-1, Pensos; clipes, suturas, ligaduras",Hospital Dr. Francisco Zagalo (501510150),ABILIO FREIRE (500432600),"40,20 €",07-03-2017,14-11-2016,1080 dias,"Portugal, Aveiro, Ovar","Artigo 20.º, n.º 1, alínea a) do Código dos Contratos Públicos",27-12-2017,"6,70 €","",Previsão superior às necessidades,,Não aplicável.,Não aplicável.,FALSE
Aquisição material penso,Ajuste Direto Regime Geral,Aquisição de bens móveis,"33141100-1, Pensos; clipes, suturas, ligaduras",Hospital Dr. Francisco Zagalo (501510150),ADA (500013810),"291,06 €",07-03-2017,14-11-2016,1080 dias,"Portugal, Aveiro, Ovar","Artigo 20.º, n.º 1, alínea a) do Código dos Contratos Públicos",27-12-2017,"103,95 €","",Previsão superior às necessidades,,Não aplicável.,Não aplicável.,FALSE
Aquisição material penso,Ajuste Direto Regime Geral,Aquisição de bens móveis,"33141100-1, Pensos; clipes, suturas, ligaduras",Hospital Dr. Francisco Zagalo (501510150),ADA (500013810),"1.470,00 €",07-03-2017,14-11-2016,1080 dias,"Portugal, Aveiro, Ovar","Artigo 20.º, n.º 1, alínea a) do Código dos Contratos Públicos",27-12-2017,"294,00 €","",Previsão superior às necessidades,,Não aplicável.,Não aplicável.,FALSE
Aquisição material penso,Ajuste Direto Regime Geral,Aquisição de bens móveis,"33141100-1, Pensos; clipes, suturas, ligaduras",Hospital Dr. Francisco Zagalo (501510150),ADA (500013810),"4.200,00 €",07-03-2017,14-11-2016,1080 dias,"Portugal, Aveiro, Ovar","Artigo 20.º, n.º 1, alínea a) do Código dos Contratos Públicos",27-12-2017,"1.008,00 €","",Previsão superior às necessidades,,Não aplicável.,Não aplicável.,FALSE
Aquisição material penso,Ajuste Direto Regime Geral,Aquisição de bens móveis,"33141100-1, Pensos; clipes, suturas, ligaduras",Hospital Dr. Francisco Zagalo (501510150),ADA (500013810),"1.680,00 €",07-03-2017,14-11-2016,1080 dias,"Portugal, Aveiro, Ovar","Artigo 20.º, n.º 1, alínea a) do Código dos Contratos Públicos",27-12-2017,"408,00 €","",Previsão superior às necessidades,,Não aplicável.,Não aplicável.,FALSE
Aquisição material penso,Ajuste Direto Regime Geral,Aquisição de bens móveis,"33141100-1, Pensos; clipes, suturas, ligaduras",Hospital Dr. Francisco Zagalo (501510150),ADA (500013810),"6.000,00 €",07-03-2017,14-11-2016,1080 dias,"Portugal, Aveiro, Ovar","Artigo 20.º, n.º 1, alínea a) do Código dos Contratos Públicos",27-12-2017,"1.925,00 €","",Previsão superior às necessidades,,Não aplicável.,Não aplicável.,FALSE
Aquisição material penso,Ajuste Direto Regime Geral,Aquisição de bens móveis,"33141100-1, Pensos; clipes, suturas, ligaduras",Hospital Dr. Francisco Zagalo (501510150),ADA (500013810),"3.127,00 €",07-03-2017,14-11-2016,1080 dias,"Portugal, Aveiro, Ovar","Artigo 20.º, n.º 1, alínea a) do Código dos Contratos Públicos",27-12-2017,"867,30 €","",Previsão superior às necessidades,,Não aplicável.,Não aplicável.,FALSE
Aquisição material penso,Ajuste Direto Regime Geral,Aquisição de bens móveis,"33141100-1, Pensos; clipes, suturas, ligaduras",Hospital Dr. Francisco Zagalo (501510150),"DOCWORLD, Lda (508592909)","193,50 €",07-03-2017,14-11-2016,1080 dias,"Portugal, Aveiro, Ovar","Artigo 20.º, n.º 1, alínea a) do Código dos Contratos Públicos",29-12-2017,"","",Montante do lote não adquirido,,Não aplicável.,Não aplicável.,FALSE
Aquisição material penso,Ajuste Direto Regime Geral,Aquisição de bens móveis,"33141100-1, Pensos; clipes, suturas, ligaduras",Hospital Dr. Francisco Zagalo (501510150),"Overpharma, Lda. (505792362)","270,84 €",07-03-2017,14-11-2016,1080 dias,"Portugal, Aveiro, Ovar","Artigo 20.º, n.º 1, alínea a) do Código dos Contratos Públicos",27-12-2017,"124,44 €","",Previsão superior às necessidades,,Não aplicável.,Não aplicável.,FALSE
Aquisição material penso,Ajuste Direto Regime Geral,Aquisição de bens móveis,"33141100-1, Pensos; clipes, suturas, ligaduras",Hospital Dr. Francisco Zagalo (501510150),"DOCWORLD, Lda (508592909)","962,55 €",07-03-2017,14-11-2016,1080 dias,"Portugal, Aveiro, Ovar","Artigo 20.º, n.º 1, alínea a) do Código dos Contratos Públicos",27-12-2017,"235,29 €","",Previsão superior às necessidades,,Não aplicável.,Não aplicável.,FALSE
Aquisição material penso,Ajuste Direto Regime Geral,Aquisição de bens móveis,"33141100-1, Pensos; clipes, suturas, ligaduras",Hospital Dr. Francisco Zagalo (501510150),Overpharma (505792362),"124,44 €",07-03-2017,14-11-2016,1080 dias,"Portugal, Aveiro, Ovar","Artigo 20.º, n.º 1, alínea a) do Código dos Contratos Públicos",27-12-2017,"36,60 €","",Previsão superior às necessidades,,Não aplicável.,Não aplicável.,FALSE
49000317-Recolha e tratamento residuos hospitalares,Ajuste Direto Regime Geral,Aquisição de serviços,"90500000-2, Serviços relativos a resíduos e lixos",Hospital Dr. Francisco Zagalo (501510150),"AMBIMED-Gestão Ambiental, Lda. (503593427)","9.624,00 €",02-03-2017,17-01-2017,365 dias,"Portugal, Aveiro, Ovar","Artigo 20.º, n.º 1, alínea a) do Código dos Contratos Públicos",30-11-2017,"10.375,71 €","",serviços acima do previsto,,Não aplicável.,Não aplicável.,FALSE
49013116-Prestação de serviços de dietista/nutricionista,Ajuste Direto Regime Geral,Aquisição de serviços,"79600000-0, Serviços de recrutamento",Hospital Dr. Francisco Zagalo (501510150),Helped Emergency Lda. (509388906),"8.000,00 €",02-03-2017,03-02-2017,150 dias,"Portugal, Aveiro, Ovar","Artigo 20.º, n.º 1, alínea a) do Código dos Contratos Públicos",31-07-2017,"10.350,80 €",prorrogado,valores acima do previsto pelo contrato prorrogado,,Não aplicável.,Não aplicável.,FALSE
49011016-Prestação serviços Tec. Diag. Terapeutico,Ajuste Direto Regime Geral,Aquisição de serviços,"79600000-0, Serviços de recrutamento",Hospital Dr. Francisco Zagalo (501510150),"MultiTrab-Trabalho Temporario, Lda. (514004185)","26.400,00 €",02-03-2017,01-02-2017,120 dias,"Portugal, Aveiro, Ovar","Artigo 20.º, n.º 1, alínea a) do Código dos Contratos Públicos",31-05-2017,"34.869,11 €",contrato prorrogado para mais 30 dias,montante para mais um mês de serviços efetuados,,Não aplicável.,Não aplicável.,FALSE
49009616-Aluguer de equipamentos,Ajuste Direto Regime Geral,Aquisição de serviços,"50000000-5, Serviços de reparação e manutenção",Hospital Dr. Francisco Zagalo (501510150),"FRESENIUS KABI PHARMA PORTUGAL, LDA (504293753)","912,00 €",02-03-2017,16-02-2017,365 dias,"Portugal, Aveiro, Ovar","Artigo 20.º, n.º 1, alínea a) do Código dos Contratos Públicos",30-06-2017,"456,00 €",não foi renovado o contrato ( cessou a 30.6.2017),abaixo do inicialmente previsto,,Não aplicável.,Não aplicável.,FALSE
49007216-Serviços Medicos Medicina Trabalho,Ajuste Direto Regime Geral,Aquisição de serviços,"79600000-0, Serviços de recrutamento",Hospital Dr. Francisco Zagalo (501510150),"Centro Hospitalar do Baixo Vouga, Epe (510123210)","8.147,92 €",02-03-2017,02-02-2017,335 dias,"Portugal, Aveiro, Ovar","Artigo 20.º, n.º 1, alínea a) do Código dos Contratos Públicos",31-10-2017,"5.185,04 €","",Serviços abaixo do previsto,,Não aplicável.,Não aplicável.,FALSE
49007116-Unidades de Sangue,Ajuste Direto Regime Geral,Aquisição de serviços,"85100000-0, Serviços de saúde",Hospital Dr. Francisco Zagalo (501510150),CENTRO HOSPITALAR DE S. JOAO E.P.E. (509821197),"26.400,00 €",02-03-2017,03-02-2017,365 dias,"Portugal, Aveiro, Ovar","Artigo 20.º, n.º 1, alínea a) do Código dos Contratos Públicos",30-09-2017,"17.543,80 €","",SERVIÇOS ABAIXO DO PREVISTO,,Não aplicável.,Não aplicável.,FALSE
Aquisição de consumiveis de informática,Ajuste Direto Regime Geral,Aquisição de bens móveis,"22610000-9, Tinta para impressão",Hospital Dr. Francisco Zagalo (501510150),"ISETE Inovação Soluções Económicas e Tecnologias Ecológicas, S.A. (507513908)","12,20 €",02-03-2017,27-01-2017,30 dias,"Portugal, Aveiro, Ovar","Artigo 20.º, n.º 1, alínea a) do Código dos Contratos Públicos",27-02-2017,"12,20 €","","",,Não aplicável.,Não aplicável.,FALSE
Aquisição de consumiveis de informática,Ajuste Direto Regime Geral,Aquisição de bens móveis,"22610000-9, Tinta para impressão",Hospital Dr. Francisco Zagalo (501510150),"ISETE Inovação Soluções Económicas e Tecnologias Ecológicas, S.A. (507513908)","44,88 €",02-03-2017,27-01-2017,30 dias,"Portugal, Aveiro, Ovar","Artigo 20.º, n.º 1, alínea a) do Código dos Contratos Públicos",27-02-2017,"44,88 €","","",,Não aplicável.,Não aplicável.,FALSE
Aquisição de consumiveis de informática,Ajuste Direto Regime Geral,Aquisição de bens móveis,"22610000-9, Tinta para impressão",Hospital Dr. Francisco Zagalo (501510150),"ISETE Inovação Soluções Económicas e Tecnologias Ecológicas, S.A. (507513908)","76,11 €",02-03-2017,27-01-2017,30 dias,"Portugal, Aveiro, Ovar","Artigo 20.º, n.º 1, alínea a) do Código dos Contratos Públicos",27-02-2017,"76,11 €","","",,Não aplicável.,Não aplicável.,FALSE
Aquisição de consumiveis de informática,Ajuste Direto Regime Geral,Aquisição de bens móveis,"22610000-9, Tinta para impressão",Hospital Dr. Francisco Zagalo (501510150),"ISETE Inovação Soluções Económicas e Tecnologias Ecológicas, S.A. (507513908)","52,22 €",02-03-2017,27-01-2017,30 dias,"Portugal, Aveiro, Ovar","Artigo 20.º, n.º 1, alínea a) do Código dos Contratos Públicos",27-02-2017,"52,22 €","","",,Não aplicável.,Não aplicável.,FALSE
Aquisição de consumiveis de informática,Ajuste Direto Regime Geral,Aquisição de bens móveis,"22610000-9, Tinta para impressão",Hospital Dr. Francisco Zagalo (501510150),"Edicópia - Soc. Eq. Esc., Lda. (501991220)","171,42 €",02-03-2017,27-01-2017,30 dias,"Portugal, Aveiro, Ovar","Artigo 20.º, n.º 1, alínea a) do Código dos Contratos Públicos",27-02-2017,"171,42 €","","",,Não aplicável.,Não aplicável.,FALSE
Aquisição de consumiveis de informática,Ajuste Direto Regime Geral,Aquisição de bens móveis,"22610000-9, Tinta para impressão",Hospital Dr. Francisco Zagalo (501510150),"Olmar - Artigos de Papelaria, Ldª (508831989)","33,90 €",02-03-2017,27-01-2017,30 dias,"Portugal, Aveiro, Ovar","Artigo 20.º, n.º 1, alínea a) do Código dos Contratos Públicos",27-02-2017,"33,90 €","","",,Não aplicável.,Não aplicável.,FALSE
Aquisição de consumiveis de informática,Ajuste Direto Regime Geral,Aquisição de bens móveis,"22610000-9, Tinta para impressão",Hospital Dr. Francisco Zagalo (501510150),"ISETE Inovação Soluções Económicas e Tecnologias Ecológicas, S.A. (507513908)","21,00 €",02-03-2017,27-01-2017,30 dias,"Portugal, Aveiro, Ovar","Artigo 20.º, n.º 1, alínea a) do Código dos Contratos Públicos",27-02-2017,"21,00 €","","",,Não aplicável.,Não aplicável.,FALSE
Aquisição de consumiveis de informática,Ajuste Direto Regime Geral,Aquisição de bens móveis,"22610000-9, Tinta para impressão",Hospital Dr. Francisco Zagalo (501510150),"ISETE Inovação Soluções Económicas e Tecnologias Ecológicas, S.A. (507513908)","17,57 €",02-03-2017,27-01-2017,30 dias,"Portugal, Aveiro, Ovar","Artigo 20.º, n.º 1, alínea a) do Código dos Contratos Públicos",27-02-2017,"17,57 €","","",,Não aplicável.,Não aplicável.,FALSE
49002816-Serviços de codificação clinica,Ajuste Direto Regime Geral,Aquisição de serviços,"79600000-0, Serviços de recrutamento",Hospital Dr. Francisco Zagalo (501510150),"ROSA PAULA MACIEIRA OLIVEIRA SOARES, LDA. (510540074)","9.980,00 €",01-03-2017,03-02-2017,365 dias,"Portugal, Aveiro, Ovar","Artigo 20.º, n.º 1, alínea a) do Código dos Contratos Públicos",30-11-2017,"7.230,00 €","",Serviços abaixo do previsto,,Não aplicável.,Não aplicável.,FALSE
49005816-Serviços medicos de Med. Fisica Reabilitação,Ajuste Direto Regime Geral,Aquisição de serviços,"85100000-0, Serviços de saúde",Hospital Dr. Francisco Zagalo (501510150),DRA OLGA FONSECA-SERV.MEDICOS UNIPESSOAL LDA. (507788486),"36.308,00 €",01-03-2017,03-02-2017,365 dias,"Portugal, Aveiro, Ovar","Artigo 20.º, n.º 1, alínea a) do Código dos Contratos Públicos",30-11-2017,"30.102,00 €","",Serviços abaixo do previsto,,Não aplicável.,Não aplicável.,FALSE
49005316-Exames Analises Clinicas,Ajuste Direto Regime Geral,Aquisição de serviços,"85100000-0, Serviços de saúde",Hospital Dr. Francisco Zagalo (501510150),"DELBRAN-Laboratorio de Analises Clinicas, Lda. (501148949)","37.200,00 €",01-03-2017,14-02-2017,365 dias,"Portugal, Aveiro, Ovar","Artigo 20.º, n.º 1, alínea a) do Código dos Contratos Públicos",31-12-2017,"34.816,29 €","",Serviços abaixo da previsão,,Não aplicável.,Não aplicável.,FALSE
49004416-Transporte de doentes em ambulancia,Ajuste Direto Regime Geral,Aquisição de serviços,"85100000-0, Serviços de saúde",Hospital Dr. Francisco Zagalo (501510150),ASSOC. HUM. BOMBEIROS VOLUNTARIOS OVAR (501287566),"4.250,00 €",01-03-2017,22-02-2017,60 dias,"Portugal, Aveiro, Ovar","Artigo 20.º, n.º 1, alínea a) do Código dos Contratos Públicos",30-04-2017,"7.322,27 €",Prorrogação do prazo para mais 60dias,serviços efetuados acima do previsto do prazo inicial,,Não aplicável.,Não aplicável.,FALSE
49004216-Exames MCDT-Medicina Nuclear,Ajuste Direto Regime Geral,Aquisição de serviços,"85100000-0, Serviços de saúde",Hospital Dr. Francisco Zagalo (501510150),CIMC-CENTRO IMAGIO MED COMPUT. (502767006),"9.980,00 €",01-03-2017,08-02-2017,365 dias,"Portugal, Aveiro, Ovar","Artigo 20.º, n.º 1, alínea a) do Código dos Contratos Públicos",31-12-2017,"9.411,34 €","",exames efetuados abaixo do previsto,,Não aplicável.,Não aplicável.,FALSE
49003916-Contrato manutenção preventiva,Ajuste Direto Regime Geral,Aquisição de serviços,"50000000-5, Serviços de reparação e manutenção",Hospital Dr. Francisco Zagalo (501510150),"ESQUEMAQUER UNIPESSOAL, LDA. (509372813)","1.328,40 €",01-03-2017,08-02-2017,365 dias,"Portugal, Aveiro, Ovar","Artigo 20.º, n.º 1, alínea a) do Código dos Contratos Públicos",31-12-2017,"1.328,40 €","","",,Não aplicável.,Não aplicável.,FALSE
49003616-Serviços medicos de dermatologia,Ajuste Direto Regime Geral,Aquisição de serviços,"79600000-0, Serviços de recrutamento",Hospital Dr. Francisco Zagalo (501510150),SENTIDO INATO-SERVIÇOS MÉDICOS LDA. (509229727),"25.000,00 €",01-03-2017,02-02-2017,365 dias,"Portugal, Aveiro, Ovar","Artigo 20.º, n.º 1, alínea a) do Código dos Contratos Públicos",31-12-2017,"25.175,00 €","",Serviços acima do previstro,,Não aplicável.,Não aplicável.,FALSE
49003216-Serviços medicos de ortopedia,Ajuste Direto Regime Geral,Aquisição de serviços,"79600000-0, Serviços de recrutamento",Hospital Dr. Francisco Zagalo (501510150),"ORLANDO HORÁCIO GOMES LUÍS, UNIPESSOAL LDA (510351891)","8.400,00 €",01-03-2017,02-02-2017,365 dias,"Portugal, Aveiro, Ovar","Artigo 20.º, n.º 1, alínea a) do Código dos Contratos Públicos",31-10-2017,"8.460,00 €","",Serviços acima da previsão,,Não aplicável.,Não aplicável.,FALSE
49003216-Serviços medicos de ortopedia,Ajuste Direto Regime Geral,Aquisição de serviços,"79600000-0, Serviços de recrutamento",Hospital Dr. Francisco Zagalo (501510150),"Multipessoal Medical, S.A. (509236359)","12.000,00 €",01-03-2017,02-02-2017,365 dias,"Portugal, Aveiro, Ovar","Artigo 20.º, n.º 1, alínea a) do Código dos Contratos Públicos",31-12-2017,"11.685,00 €","",Serviços abaixo do previsto,,Não aplicável.,Não aplicável.,FALSE
49003116-Serviços medicos de anestesiologia,Ajuste Direto Regime Geral,Aquisição de serviços,"79600000-0, Serviços de recrutamento",Hospital Dr. Francisco Zagalo (501510150),TERNURA AO QUADRADO PEDIATRIA E ANESTESIA LDA (513406034),"27.900,00 €",01-03-2017,02-02-2017,365 dias,"Portugal, Aveiro, Ovar","Artigo 20.º, n.º 1, alínea a) do Código dos Contratos Públicos",31-12-2017,"65.820,00 €","",Serviços efetuados acima da previsão,,Não aplicável.,Não aplicável.,FALSE
49002916-Exames MCDT de cardiologia,Ajuste Direto Regime Geral,Aquisição de serviços,"85000000-9, Serviços de saúde e acção social",Hospital Dr. Francisco Zagalo (501510150),DR.CAMPOS COSTA-ConsultorioTomogr.Comput.S.A. (502082429),"7.500,00 €",01-03-2017,08-02-2017,365 dias,"Portugal, Aveiro, Ovar","Artigo 20.º, n.º 1, alínea a) do Código dos Contratos Públicos",31-12-2017,"7.394,10 €","",Exames efetuados abaixo do previsto,,Não aplicável.,Não aplicável.,FALSE
49002216-Trabalhos especializados na rea de advocacia,Ajuste Direto Regime Geral,Aquisição de serviços,"79000000-4, Serviços a empresas: direito, comercialização, consultoria, recrutamento, impressão e segurança",Hospital Dr. Francisco Zagalo (501510150),VIEIRA CONDE & ASSOCIADOS (503611824),"11.447,04 €",01-03-2017,08-02-2017,365 dias,"Portugal, Aveiro, Ovar","Artigo 20.º, n.º 1, alínea a) do Código dos Contratos Públicos",31-12-2017,"11.447,04 €","","",,Não aplicável.,Não aplicável.,FALSE
