Objeto do Contrato,Tipo de Procedimento,Tipo(s) de Contrato,CPVs,Entidade(s) Adjudicante(s),Entidade(s) Adjudicatária(s),Preço Contratual,Data de Publicação,Data de Celebração do Contrato,Prazo de Execução,Local de Execução,Fundamentação,Data de Fecho do Contrato,Preço Total Efetivo,Causas das Alterações ao Prazo,Causas das Alterações ao Preço,Estado,N.º registo do Acordo Quadro,Descrição do Acordo Quadro,Procedimento Centralizado
Serviços medicos de Otorrinolaringologia,Ajuste Direto Regime Geral,Aquisição de serviços,"85000000-9, Serviços de saúde e acção social",Hospital Dr. Francisco Zagalo (501510150),"Clinica Medica Cirurgica Dr. Rui Pratas, Lda. (505914832)","14.597,00 €",27-11-2013,10-10-2013,30 dias,"Portugal, Aveiro, Ovar","Artigo 20.º, n.º 1, alínea a) do Código dos Contratos Públicos",31-10-2013,"14.597,00 €",,"",,Não aplicável.,Não aplicável.,
Aquisição de reagentes para o equipamento de Bioquímica Clínica para 2013,Ajuste Direto Regime Geral,Aquisição de bens móveis,"33600000-6, Produtos farmacêuticos",Hospital Dr. Francisco Zagalo (501510150),"BECKMAN COULTER PORTUGAL UNIPESSOAL, LDA (509035167)","9.185,61 €",25-11-2013,06-09-2013,123 dias,"Portugal, Aveiro, Ovar","Artigo 24.º, n.º 1, alínea e) do Código dos Contratos Públicos",31-12-2013,"8.187,15 €",,Contrato não executado pela totalidade,,Não aplicável.,Não aplicável.,
Aquisição de gases medicinais para 2013,Ajuste Direto Regime Geral,Aquisição de bens móveis,"33690000-3, Medicamentos vários",Hospital Dr. Francisco Zagalo (501510150),ACAIL GAS S.A. (503789151),"42.900,60 €",25-11-2013,06-02-2013,334 dias,"Portugal, Aveiro, Ovar","Artigo 27.º, n.º 1, alínea a) do Código dos Contratos Públicos",31-12-2013,"35.397,56 €",,Contrato não executado pela totalidade,,Não aplicável.,Não aplicável.,
Aquisição de reagentes para equipamento de Serologia para 2013,Ajuste Direto Regime Geral,Aquisição de bens móveis,"33696000-5, Reagentes e meios de contraste",Hospital Dr. Francisco Zagalo (501510150),BIOMÉRIEUX PORTUGAL (501524177),"11.992,33 €",25-11-2013,06-09-2013,120 dias,"Portugal, Aveiro, Ovar","Artigo 24.º, n.º 1, alínea e) do Código dos Contratos Públicos",31-12-2013,"1.188.733,00 €",,Contrato não executado pela totalidade,,Não aplicável.,Não aplicável.,
"Aquisição do medicamento """" Imiglucerase 400U Pó Conc. Sol. Inj.Fr IV",Ajuste Direto Regime Geral,Aquisição de bens móveis,"33600000-6, Produtos farmacêuticos",Hospital Dr. Francisco Zagalo (501510150),SANOFI- Produtos Farmacêuticos Lda (500134960),"12.128,04 €",25-11-2013,01-11-2013,1 dias,"Portugal, Aveiro, Ovar","Artigo 24.º, n.º 1, alínea e) do Código dos Contratos Públicos",05-11-2013,"12.128,04 €",,"",,Não aplicável.,Não aplicável.,
"Aquisição do medicamento """" Imiglucerase 400 U Pó Conc.Sol.Inj.Fr IV""""",Ajuste Direto Regime Geral,Aquisição de bens móveis,"33600000-6, Produtos farmacêuticos",Hospital Dr. Francisco Zagalo (501510150),SANOFI- Produtos Farmacêuticos Lda (500134960),"12.128,04 €",25-11-2013,04-10-2013,1 dias,"Portugal, Aveiro, Ovar","Artigo 24.º, n.º 1, alínea e) do Código dos Contratos Públicos",08-10-2013,"12.128,04 €",,"",,Não aplicável.,Não aplicável.,
"Aquisição do medicamento """"Imiglucerase 400 U Pó Conc.Sol. Inj. Fr IV""""",Ajuste Direto Regime Geral,Aquisição de bens móveis,"33000000-0, Equipamento médico, medicamentos e produtos para cuidados pessoais",Hospital Dr. Francisco Zagalo (501510150),"SANOFI, PRODUTOS FARMACÊUTICOS LDA (500134960)","10.780,48 €",25-11-2013,06-09-2013,1 dias,"Portugal, Aveiro, Ovar","Artigo 24.º, n.º 1, alínea e) do Código dos Contratos Públicos",09-09-2013,"10.780,48 €",,"",,Não aplicável.,Não aplicável.,
"Aquisição do medicamento """" Imiglucerase 400 U Pó Conc. Sol Inj Fr IV"""" ",Ajuste Direto Regime Geral,Aquisição de bens móveis,"33000000-0, Equipamento médico, medicamentos e produtos para cuidados pessoais",Hospital Dr. Francisco Zagalo (501510150),SANOFI -Produtos Farmacêuticos Lda (500134960),"10.781,12 €",25-11-2013,02-08-2013,1 dias,"Portugal, Aveiro, Ovar","Artigo 24.º, n.º 1, alínea e) do Código dos Contratos Públicos",02-08-2013,"10.781,12 €",,"",,Não aplicável.,Não aplicável.,
Aquisição pinças para cirurgia da  tiroide,Ajuste Direto Regime Geral,Aquisição de bens móveis,"33000000-0, Equipamento médico, medicamentos e produtos para cuidados pessoais",HOSPITAL DR FRANCISCO ZAGALO (501510150),"Covidien Portugal-Unipessoal, Lda. (503413410)","8.100,00 €",25-11-2013,25-02-2013,365 dias,"Portugal, Aveiro, Ovar","Artigo 20.º, n.º 1, alínea a) do Código dos Contratos Públicos",30-09-2013,"8.100,00 €",,"",,Não aplicável.,Não aplicável.,
Aquisição serviços de Tecnico Diagnostico Terapeutico,Ajuste Direto Regime Geral,Aquisição de serviços,"79000000-4, Serviços a empresas: direito, comercialização, consultoria, recrutamento, impressão e segurança",Hospital Dr. Francisco Zagalo (501510150),"Tonus Global, Unipessoal, Lda. (509622976)","6.927,17 €",22-11-2013,04-09-2013,30 dias,"Portugal, Aveiro, Ovar","Artigo 20.º, n.º 1, alínea a) do Código dos Contratos Públicos",30-09-2013,"6.927,17 €",,"",,Não aplicável.,Não aplicável.,
Serviços de tecnicos diagnostico e terapeutico,Ajuste Direto Regime Geral,Aquisição de serviços,"79000000-4, Serviços a empresas: direito, comercialização, consultoria, recrutamento, impressão e segurança",Hospital Dr. Francisco Zagalo (501510150),"Tonus Global, Unipessoal, Lda. (509622976)","6.943,79 €",22-11-2013,10-10-2013,30 dias,"Portugal, Aveiro, Ovar","Artigo 20.º, n.º 1, alínea a) do Código dos Contratos Públicos",31-10-2013,"6.943,79 €",,"",,Não aplicável.,Não aplicável.,
Fornecimento de electricidade,Ajuste Direto Regime Geral,Aquisição de serviços,"76000000-3, Serviços relacionados com as indústrias do gás e do petróleo",Hospital Dr. Francisco Zagalo (501510150),EDP COMERCIAL-Comercialização de Energia S.A. (503504564),"5.446,61 €",22-11-2013,14-08-2013,30 dias,"Portugal, Aveiro, Ovar","Artigo 20.º, n.º 1, alínea a) do Código dos Contratos Públicos",31-08-2013,"5.446,61 €",,"",,Não aplicável.,Não aplicável.,
Fornecimento de electricidade,Ajuste Direto Regime Geral,Aquisição de serviços,"76000000-3, Serviços relacionados com as indústrias do gás e do petróleo",Hospital Dr. Francisco Zagalo (501510150),EDP COMERCIAL - Comercialização de Energia S.A. (503504564),"6.327,16 €",22-11-2013,14-08-2013,30 dias,"Portugal, Aveiro, Ovar","Artigo 20.º, n.º 1, alínea a) do Código dos Contratos Públicos",30-09-2013,"6.327,16 €",,"",,Não aplicável.,Não aplicável.,
Serviços prestados por enfermeiros,Ajuste Direto Regime Geral,Aquisição de serviços,"79000000-4, Serviços a empresas: direito, comercialização, consultoria, recrutamento, impressão e segurança",Hospital Dr. Francisco Zagalo (501510150),"Tonus Global, Unipessoal, Lda. (509622976)","17.007,12 €",22-11-2013,04-09-2013,30 dias,"Portugal, Aveiro, Ovar","Artigo 20.º, n.º 1, alínea a) do Código dos Contratos Públicos",30-09-2013,"17.007,12 €",,"",,Não aplicável.,Não aplicável.,
Serviços de trabalho temporario de Assistentes Tecnicos,Ajuste Direto Regime Geral,Aquisição de serviços,"79000000-4, Serviços a empresas: direito, comercialização, consultoria, recrutamento, impressão e segurança",Hospital Dr. Francisco Zagalo (501510150),"Tonus-Trabalho Temporario, Lda.  (508986460)","9.999,82 €",22-11-2013,16-08-2013,30 dias,"Portugal, Aveiro, Ovar","Artigo 20.º, n.º 1, alínea a) do Código dos Contratos Públicos",30-09-2013,"9.999,82 €",,"",,Não aplicável.,Não aplicável.,
Serviços de trabalho temporario de Assistentes Operacionais,Ajuste Direto Regime Geral,Aquisição de serviços,"79000000-4, Serviços a empresas: direito, comercialização, consultoria, recrutamento, impressão e segurança",Hospital Dr. Francisco Zagalo (501510150),"Tonus-Trabalho Temporario, Lda. (508986460)","16.197,12 €",22-11-2013,04-09-2013,30 dias,"Portugal, Aveiro, Ovar","Artigo 20.º, n.º 1, alínea a) do Código dos Contratos Públicos",30-09-2013,"16.197,12 €",,"",,Não aplicável.,Não aplicável.,
Serviços medicos de especialidade de anestesiologia,Ajuste Direto Regime Geral,Aquisição de serviços,"85000000-9, Serviços de saúde e acção social",Hospital Dr. Francisco Zagalo (501510150),"Medicsearch,S.A. (508080517)","9.705,00 €",22-11-2013,10-10-2013,30 dias,"Portugal, Aveiro, Ovar","Artigo 20.º, n.º 1, alínea a) do Código dos Contratos Públicos",31-10-2013,"9.705,00 €",,"",,Não aplicável.,Não aplicável.,
Fornecimento de refeições a doentes,Ajuste Direto Regime Geral,Aquisição de serviços,"55500000-5, Serviços de cantinas e de fornecimento de refeições (catering)",Hospital Dr. Francisco Zagalo (501510150),Such-Serviço de Utilização Comum dos Hostipais (500900469),"12.202,76 €",22-11-2013,16-08-2013,30 dias,"Portugal, Aveiro, Ovar","Artigo 20.º, n.º 1, alínea a) do Código dos Contratos Públicos",30-09-2013,"12.202,76 €",,"",,Não aplicável.,Não aplicável.,
Serviços de segurança e vigilancia,Ajuste Direto Regime Geral,Aquisição de serviços,"79000000-4, Serviços a empresas: direito, comercialização, consultoria, recrutamento, impressão e segurança",Hospital Dr. Francisco Zagalo (501510150),"Ronsegur -Rondas e Segurança, Lda.  (507011724)","6.710,00 €",22-11-2013,16-08-2013,30 dias,"Portugal, Aveiro, Ovar","Artigo 20.º, n.º 1, alínea a) do Código dos Contratos Públicos",30-09-2013,"6.710,00 €",,"",,Não aplicável.,Não aplicável.,
Serviços medicos na especialidade de anestesiologia,Ajuste Direto Regime Geral,Aquisição de serviços,"85000000-9, Serviços de saúde e acção social",Hospital Dr. Francisco Zagalo (501510150),"Medicsearch, S.A. (508080517)","7.770,00 €",22-11-2013,04-09-2013,30 dias,"Portugal, Aveiro, Ovar","Artigo 20.º, n.º 1, alínea a) do Código dos Contratos Públicos",30-09-2013,"7.770,00 €",,"",,Não aplicável.,Não aplicável.,
Serviços medicos de especialidade Otorrinolaringologia,Ajuste Direto Regime Geral,Aquisição de serviços,"85000000-9, Serviços de saúde e acção social",Hospital Dr. Francisco Zagalo (501510150),"Clinica Medica-Cirurgica Dr. Rui Pratas, Lda. (505914832)","10.944,00 €",22-11-2013,04-09-2013,30 dias,"Portugal, Aveiro, Ovar","Artigo 20.º, n.º 1, alínea a) do Código dos Contratos Públicos",30-09-2013,"10.944,00 €",,"",,Não aplicável.,Não aplicável.,
Fornecimento de electricidade,Ajuste Direto Regime Geral,Aquisição de serviços,"76000000-3, Serviços relacionados com as indústrias do gás e do petróleo",Hospital Dr. Francisco Zagalo (501510150),"EDP COMERCIAL -Comercialização de Energia, SA (503504564)","5.312,96 €",22-11-2013,10-10-2013,30 dias,"Portugal, Aveiro, Ovar","Artigo 20.º, n.º 1, alínea a) do Código dos Contratos Públicos",31-10-2013,"5.312,96 €",,"",,Não aplicável.,Não aplicável.,
Serviços de trabalho temporario Assistentes Operacionais,Ajuste Direto Regime Geral,Aquisição de serviços,"79000000-4, Serviços a empresas: direito, comercialização, consultoria, recrutamento, impressão e segurança",Hospital Dr. Francisco Zagalo (501510150),"Tonus-Trabalho Temporario, Lda. (508986460)","16.900,28 €",22-11-2013,10-10-2013,30 dias,"Portugal, Aveiro, Ovar","Artigo 20.º, n.º 1, alínea a) do Código dos Contratos Públicos",31-10-2013,"16.900,28 €",,"",,Não aplicável.,Não aplicável.,
Serviços de trabalho temporario de Assistentes Técnicos,Ajuste Direto Regime Geral,Aquisição de serviços,"79000000-4, Serviços a empresas: direito, comercialização, consultoria, recrutamento, impressão e segurança",Hospital Dr. Francisco Zagalo (501510150),"Tonus-Trabalho Temporario, Lda. (508986460)","12.440,81 €",22-11-2013,10-10-2013,30 dias,"Portugal, Aveiro, Ovar","Artigo 20.º, n.º 1, alínea a) do Código dos Contratos Públicos",31-10-2013,"12.440,81 €",,"",,Não aplicável.,Não aplicável.,
Serviços de segurança e vigilancia,Ajuste Direto Regime Geral,Aquisição de serviços,"79000000-4, Serviços a empresas: direito, comercialização, consultoria, recrutamento, impressão e segurança",Hospital Dr. Francisco Zagalo (501510150),"Ronsegur - Rondas e Segurança, Lda. (507011724)","6.710,00 €",22-11-2013,07-10-2013,30 dias,"Portugal, Aveiro, Ovar","Artigo 20.º, n.º 1, alínea a) do Código dos Contratos Públicos",31-10-2013,"6.710,00 €",,"",,Não aplicável.,Não aplicável.,
Exames MCDT - Imagiologia,Ajuste Direto Regime Geral,Aquisição de serviços,"85000000-9, Serviços de saúde e acção social",Hospital Dr. Francisco Zagalo (501510150),"Dr. Campos Costa-Consultorio Tomografia Computorizada, SA (502082429)","6.038,00 €",21-11-2013,09-10-2013,30 dias,"Portugal, Aveiro, Ovar","Artigo 20.º, n.º 1, alínea a) do Código dos Contratos Públicos",09-10-2013,"6.038,00 €",,"",,Não aplicável.,Não aplicável.,
Serviço de refeições,Ajuste Direto Regime Geral,Aquisição de serviços,"55000000-0, Serviços de hotelaria, restauração e comércio a retalho",Hospital Dr. Francisco Zagalo (501510150),Such-Serviço de Utilização Comum dos Hospitais (500900469),"13.515,14 €",21-11-2013,07-10-2013,30 dias,"Portugal, Aveiro, Ovar","Artigo 20.º, n.º 1, alínea a) do Código dos Contratos Públicos",31-10-2013,"13.515,14 €",,serviços efectuados abaixo do previsto,,Não aplicável.,Não aplicável.,
