Objeto do Contrato,Tipo de Procedimento,Tipo(s) de Contrato,CPVs,Entidade(s) Adjudicante(s),Entidade(s) Adjudicatária(s),Preço Contratual,Data de Publicação,Data de Celebração do Contrato,Prazo de Execução,Local de Execução,Fundamentação,Data de Fecho do Contrato,Preço Total Efetivo,Causas das Alterações ao Prazo,Causas das Alterações ao Preço,Estado,N.º registo do Acordo Quadro,Descrição do Acordo Quadro,Procedimento Centralizado
Sistemas p/ cirurgia de Vitrectomia (Processo: 117/2015),Ajuste Direto Regime Geral,Aquisição de bens móveis,"33160000-9, Técnicas cirúrgicas",Instituto de Oftalmologia Dr. Gama Pinto (600000052),"BAUSCH & LOMB, PORTUGAL (980218764)","22.920,00 €",21-04-2015,04-02-2015,365 dias,"Portugal, Lisboa, Lisboa","Artigo 20.º, n.º 1, alínea a) do Código dos Contratos Públicos",16-12-2015,"22.920,00 €",,,,Não aplicável.,Não aplicável.,FALSE
Sistemas p/ Vitrectomia (Processo: 116/2015),Ajuste Direto Regime Geral,Aquisição de bens móveis,"33160000-9, Técnicas cirúrgicas",Instituto de Oftalmologia Dr. Gama Pinto (600000052),"ALCON PORTUGAL - Produtos e Equipamentos Oftalmológicos, Lda. (501251685)","38.955,00 €",21-04-2015,10-02-2015,365 dias,"Portugal, Lisboa, Lisboa","Artigo 20.º, n.º 1, alínea a) do Código dos Contratos Públicos",18-12-2015,"38.955,00 €",,,,Não aplicável.,Não aplicável.,FALSE
Sistema de faco p/ aparelho Signature (Processo: 115/2015),Ajuste Direto Regime Geral,Aquisição de bens móveis,"33160000-9, Técnicas cirúrgicas",Instituto de Oftalmologia Dr. Gama Pinto (600000052),"ABBOTT MEDICAL OPTICS SPAIN, S. L.  sucursal em Portugal (980262364)","109.736,00 €",21-04-2015,11-02-2015,365 dias,"Portugal, Lisboa, Lisboa","Artigo 20.º, n.º 1, alínea a) do Código dos Contratos Públicos",29-10-2015,"109.736,00 €",,,,Não aplicável.,Não aplicável.,FALSE
Pack p/ cirurgia de Vitrectomia (Processo: 113/2015),Ajuste Direto Regime Geral,Aquisição de bens móveis,"33160000-9, Técnicas cirúrgicas",Instituto de Oftalmologia Doutor Gama Pinto (IOGP) (600000052),"BAUSCH & LOMB, PORTUGAL (980218764)","5.600,00 €",21-04-2015,14-04-2015,365 dias,"Portugal, Lisboa, Lisboa","Artigo 20.º, n.º 1, alínea a) do Código dos Contratos Públicos",21-09-2015,"5.600,00 €",,,,Não aplicável.,Não aplicável.,FALSE
