Objeto do Contrato,Tipo de Procedimento,Tipo(s) de Contrato,CPVs,Entidade(s) Adjudicante(s),Entidade(s) Adjudicatária(s),Preço Contratual,Data de Publicação,Data de Celebração do Contrato,Prazo de Execução,Local de Execução,Fundamentação,Data de Fecho do Contrato,Preço Total Efetivo,Causas das Alterações ao Prazo,Causas das Alterações ao Preço,Estado,N.º registo do Acordo Quadro,Descrição do Acordo Quadro,Procedimento Centralizado
Aquisição de 72000 rolos de papel para marquesas,Concurso público,Aquisição de bens móveis,"33100000-1, Equipamento médico","Administração Regional de Saúde do Norte, I.P. (503135593)",Jocalu (502999900),"141.120,00 €",31-08-2012,11-05-2012,210 dias,"Portugal, Braga<BR/>Portugal, Porto<BR/>Portugal, Viana do Castelo<BR/>Portugal, Vila Real","Artigo 155.º, alínea b) do Código dos Contratos Públicos",07-12-2012,"141.120,00 €",,,,Não aplicável.,Não aplicável.,
Contrato de aquisição de 310000 tiras teste de 10 parâmetros de urina,Concurso público,Outros Tipos (Não Preenchido),"33696000-5, Reagentes e meios de contraste","Administração Regional de Saúde do Norte, I.P. (503135593)",Prestifarma (503474517),"15.965,00 €",31-08-2012,23-05-2012,210 dias,"Portugal, Vila Real<BR/>Portugal, Porto","Artigo 20.º, n.º 1, alínea b) do Código dos Contratos Públicos","","",,,,Não aplicável.,Não aplicável.,
"100 unidades de Vacina Adsorv Pneumo Polios Conjug 22 ug/0,5ml Susp",Ajuste Direto Regime Geral,Aquisição de bens móveis,"33651600-4, Vacinas","Administração Regional de Saúde do Norte, I.P. (503135593)",Laboratorio Pfizer (500162166),"5.210,00 €",31-08-2012,09-08-2012,2 dias,"Portugal, Viseu<BR/>Portugal, Porto<BR/>Portugal, Braga<BR/>Portugal, Vila Real<BR/>Portugal, Aveiro","Artigo 24.º, n.º 1, alínea e) do Código dos Contratos Públicos","","",,,,Não aplicável.,Não aplicável.,
9.000 unidades de Bolsa p/ CD em papel,Ajuste Direto Regime Geral,Aquisição de bens móveis,"30192000-1, Material de escritório","Administração Regional de Saúde do Norte, I.P. (503135593)",DISTRIOFFICE (127690859),"3.570,00 €",31-08-2012,09-08-2012,3 dias,"Portugal, Vila Real<BR/>Portugal, Viseu<BR/>Portugal, Braga<BR/>Portugal, Porto<BR/>Portugal, Aveiro","Artigo 20.º, n.º 1, alínea a) do Código dos Contratos Públicos","","",,,,Não aplicável.,Não aplicável.,
9.000 unidades de Etanol 70% sol. cut. 250ml,Ajuste Direto Regime Geral,Aquisição de bens móveis,"33600000-6, Produtos farmacêuticos","Administração Regional de Saúde do Norte, I.P. (503135593)","Proclínica-Equip. Prod. clinicos, lda (500222665)","6.863,40 €",31-08-2012,03-08-2012,1 dias,"Portugal, Vila Real<BR/>Portugal, Braga<BR/>Portugal, Porto<BR/>Portugal, Aveiro<BR/>Portugal, Viseu","Artigo 20.º, n.º 1, alínea a) do Código dos Contratos Públicos","","",,,,Não aplicável.,Não aplicável.,
"8.690 Frasco de plastico esterilizado p/ colheita biópsia, 120cc",Ajuste Direto Regime Geral,Aquisição de bens móveis,"33140000-3, Material médico de consumo","Administração Regional de Saúde do Norte, I.P. (503135593)",VIDROLAB (501450629),"469,26 €",30-08-2012,26-06-2012,1 dias,"Portugal, Vila Real<BR/>Portugal, Braga<BR/>Portugal, Viseu<BR/>Portugal, Porto<BR/>Portugal, Aveiro","Artigo 24.º, n.º 1, alínea e) do Código dos Contratos Públicos","","",,,,Não aplicável.,Não aplicável.,
10.000 unid. Etionamida 250mg<br/>6.000 unid. Para-Aminosalicilato de sódio 400mg,Ajuste Direto Regime Geral,Aquisição de bens móveis,"33600000-6, Produtos farmacêuticos","Administração Regional de Saúde do Norte, I.P. (503135593)",IDIS WORLD MEDICINES (700513982),"73.000,00 €",30-08-2012,11-01-2012,3 dias,"Portugal, Viseu<BR/>Portugal, Vila Real<BR/>Portugal, Porto<BR/>Portugal, Braga<BR/>Portugal, Aveiro","Artigo 24.º, n.º 1, alínea e) do Código dos Contratos Públicos","","",,,,Não aplicável.,Não aplicável.,
"400 Placa Sensura Convexa Light 60mm<br/>270 Sacos ileostomia sensura Click Maxi, opaco 50mm<br/>700 Sacos ileostomia sensura Click Maxi, opaco 60mm",Ajuste Direto Regime Geral,Aquisição de bens móveis,"33140000-3, Material médico de consumo","Administração Regional de Saúde do Norte, I.P. (503135593)",SPCare lda (508284872),"2.140,50 €",29-08-2012,26-06-2012,3 dias,"Portugal, Braga<BR/>Portugal, Aveiro<BR/>Portugal, Vila Real<BR/>Portugal, Porto<BR/>Portugal, Viseu","Artigo 24.º, n.º 1, alínea e) do Código dos Contratos Públicos","","",,,,Não aplicável.,Não aplicável.,
Vário material de Ostomia Placas e sacos Drenáveis,Ajuste Direto Regime Geral,Aquisição de bens móveis,"33140000-3, Material médico de consumo","Administração Regional de Saúde do Norte, I.P. (503135593)",Cristalmédica (502475498),"30.263,07 €",29-08-2012,26-06-2012,3 dias,"Portugal, Braga<BR/>Portugal, Porto<BR/>Portugal, Vila Real<BR/>Portugal, Viseu<BR/>Portugal, Aveiro","Artigo 24.º, n.º 1, alínea e) do Código dos Contratos Públicos","","",,,,Não aplicável.,Não aplicável.,
3.800 Agulha Carpulle nº30 G 21mm Irrecuperável<br/>2.500 Agulha Carpulle nº27 G 21mm Irrecuperável,Ajuste Direto Regime Geral,Aquisição de bens móveis,"34946221-5, Agulhas","Administração Regional de Saúde do Norte, I.P. (503135593)",Machado Malcher (500174245),"491,40 €",29-08-2012,26-06-2012,1 dias,"Portugal, Porto<BR/>Portugal, Braga<BR/>Portugal, Aveiro<BR/>Portugal, Viseu<BR/>Portugal, Vila Real","Artigo 24.º, n.º 1, alínea e) do Código dos Contratos Públicos","","",,,,Não aplicável.,Não aplicável.,
2.010 unid ISONIAZIDA 20mg/ml<br/>50 unid IPECACUANHA 1.4 mg/ml,Ajuste Direto Regime Geral,Aquisição de bens móveis,"33600000-6, Produtos farmacêuticos","Administração Regional de Saúde do Norte, I.P. (503135593)",Laboratório militar (600019675),"5.921,50 €",29-08-2012,12-07-2012,1 dias,"Portugal, Vila Real<BR/>Portugal, Aveiro<BR/>Portugal, Viseu<BR/>Portugal, Braga<BR/>Portugal, Porto","Artigo 24.º, n.º 1, alínea e) do Código dos Contratos Públicos","","",,,,Não aplicável.,Não aplicável.,
3.000 UnidHeparinóide 3mg/g Creme 40g,Ajuste Direto Regime Geral,Aquisição de bens móveis,"33600000-6, Produtos farmacêuticos","Administração Regional de Saúde do Norte, I.P. (503135593)","CICLUM FARMA unipessoal, lda (504362674)","6.420,00 €",29-08-2012,03-05-2012,2 dias,"Portugal, Porto<BR/>Portugal, Aveiro<BR/>Portugal, Viseu<BR/>Portugal, Vila Real<BR/>Portugal, Braga","Artigo 20.º, n.º 1, alínea a) do Código dos Contratos Públicos","","",,,,Não aplicável.,Não aplicável.,
700 un. Reagentes p/ determ.INR no sangue,Ajuste Direto Regime Geral,Aquisição de bens móveis,"33696200-7, Reagentes para análises ao sangue","Administração Regional de Saúde do Norte, I.P. (503135593)",ROCHE (504282921),"118.473,60 €",28-08-2012,27-03-2012,8 dias,"Portugal, Aveiro<BR/>Portugal, Vila Real<BR/>Portugal, Viseu<BR/>Portugal, Porto<BR/>Portugal, Braga","Artigo 24.º, n.º 1, alínea e) do Código dos Contratos Públicos","","",,,,Não aplicável.,Não aplicável.,
25.000 un.Ofício Economato Geral<br/>55.000 un. Ofício A5 mod. 13/00.009<br/>2.250 un. Caixa papelão,Ajuste Direto Regime Geral,Aquisição de bens móveis,"30192000-1, Material de escritório","Administração Regional de Saúde do Norte, I.P. (503135593)",Gráfica s. Miguel (500322210),"3.195,00 €",28-08-2012,28-03-2012,5 dias,"Portugal, Aveiro<BR/>Portugal, Porto<BR/>Portugal, Vila Real<BR/>Portugal, Braga<BR/>Portugal, Viseu","Artigo 20.º, n.º 1, alínea a) do Código dos Contratos Públicos","","",,,,Não aplicável.,Não aplicável.,
"Várias Sondas aspiração nº 10, 12, 14, 16, 18 e Algálias  Foley nº 14 e 16<br/>Tampão p/ sondas 3.000 un.",Ajuste Direto Regime Geral,Aquisição de bens móveis,"33140000-3, Material médico de consumo","Administração Regional de Saúde do Norte, I.P. (503135593)",EPJMEDICA (506820513),"5.858,44 €",28-08-2012,08-06-2012,3 dias,"Portugal, Aveiro<BR/>Portugal, Porto<BR/>Portugal, Viseu<BR/>Portugal, Vila Real<BR/>Portugal, Braga","Artigo 20.º, n.º 1, alínea a) do Código dos Contratos Públicos","","",,,,Não aplicável.,Não aplicável.,
Aquisição de vários testes IGRA,Ajuste Direto Regime Geral,Aquisição de bens móveis,"33600000-6, Produtos farmacêuticos","Administração Regional de Saúde do Norte, I.P. (503135593)",QUILABAN (500399670),"109.197,18 €",28-08-2012,15-03-2012,2 dias,"Portugal, Aveiro<BR/>Portugal, Vila Real<BR/>Portugal, Viseu<BR/>Portugal, Braga<BR/>Portugal, Porto","Artigo 24.º, n.º 1, alínea e) do Código dos Contratos Públicos","","",,,,Não aplicável.,Não aplicável.,
aquisição de 44.000 escovilhão p/ colpocitologia n/ esterilizada<br/>20.000 escovas cervex<br/>14.000 espátula d´ayre,Ajuste Direto Regime Geral,Aquisição de bens móveis,"33140000-3, Material médico de consumo","Administração Regional de Saúde do Norte, I.P. (503135593)",BACELAR & IRMÃO LDA (500532818),"21.190,00 €",28-08-2012,15-05-2012,15 dias,"Portugal, Braga<BR/>Portugal, Aveiro<BR/>Portugal, Porto<BR/>Portugal, Viseu<BR/>Portugal, Vila Real","Artigo 20.º, n.º 1, alínea a) do Código dos Contratos Públicos","","",,,,Não aplicável.,Não aplicável.,
700 unid. Algálias Foley nº16<br/>470 unid. sondas gastroduodenal 100% silicone nº 14<br/>1.150 unid. sondas gastroduodenal 100% silicone nº 16<br/>5.500 unid. sondas gastroduodenal 100% silicone nº 18,Ajuste Direto Regime Geral,Aquisição de bens móveis,"33141641-5, Sondas","Administração Regional de Saúde do Norte, I.P. (503135593)",COVIDIEN Portugal (503413410),"62.585,00 €",28-08-2012,11-06-2012,2 dias,"Portugal, Aveiro<BR/>Portugal, Braga<BR/>Portugal, Viseu<BR/>Portugal, Porto<BR/>Portugal, Vila Real","Artigo 20.º, n.º 1, alínea a) do Código dos Contratos Públicos","","",,,,Não aplicável.,Não aplicável.,
620 unid. placas c/anel flutuante c/ rebordo 45mm<br/>1.400 unid. Placas c/anel flutuante c/ rebordo 55mm,Ajuste Direto Regime Geral,Aquisição de bens móveis,"33140000-3, Material médico de consumo","Administração Regional de Saúde do Norte, I.P. (503135593)",MEDICINALIA-CORMÉDICA (500684324),"3.434,00 €",28-08-2012,26-06-2012,1 dias,"Portugal, Braga<BR/>Portugal, Aveiro<BR/>Portugal, Vila Real<BR/>Portugal, Porto<BR/>Portugal, Viseu","Artigo 24.º, n.º 1, alínea e) do Código dos Contratos Públicos","","",,,,Não aplicável.,Não aplicável.,
Aquisição de 150 unidades de Ácido Aminocapróico 250mg/ml sol. inj.,Ajuste Direto Regime Geral,Aquisição de bens móveis,"33600000-6, Produtos farmacêuticos","Administração Regional de Saúde do Norte, I.P. (503135593)",BIAL (500220913),"241,50 €",28-08-2012,04-07-2012,3 dias,"Portugal, Porto<BR/>Portugal, Viseu<BR/>Portugal, Braga<BR/>Portugal, Aveiro<BR/>Portugal, Vila Real","Artigo 24.º, n.º 1, alínea e) do Código dos Contratos Públicos","","",,,,Não aplicável.,Não aplicável.,
Aquisição de´vários tamanhos de somdas de NELATON e de sondas de ASPIRAÇÂO,Ajuste Direto Regime Geral,Aquisição de bens móveis,"33141641-5, Sondas","Administração Regional de Saúde do Norte, I.P. (503135593)",MUNDINTER (500199906),"5.481,40 €",28-08-2012,02-08-2012,1 dias,"Portugal, Vila Real<BR/>Portugal, Porto<BR/>Portugal, Aveiro<BR/>Portugal, Braga<BR/>Portugal, Viseu","Artigo 20.º, n.º 1, alínea a) do Código dos Contratos Públicos","","",,,,Não aplicável.,Não aplicável.,
Aquisição de líquido limpa vidros,Ajuste Direto Regime Geral,Aquisição de bens móveis,"39830000-9, Produtos de limpeza","Administração Regional de Saúde do Norte, I.P. (503135593)","RMV - Produtos Hospitalares Unipessoal, Lda (507866347)","465,00 €",22-08-2012,11-07-2012,365 dias,"Portugal, Vila Real, Vila Real","Artigo 20.º, n.º 1, alínea a) do Código dos Contratos Públicos",27-07-2012,"465,00 €",,,,Não aplicável.,Não aplicável.,
"aquisição de sacos p/ lixo 50x70 cm(sacos 10Kg), sacos lixo preto 30litros, 50 litros e 100 litros",Ajuste Direto Regime Geral,Aquisição de bens móveis,"39830000-9, Produtos de limpeza","Administração Regional de Saúde do Norte, I.P. (503135593)",Plasticolrs - Transformação de Matérias Plásticas (504183346),"10.500,00 €",22-08-2012,19-07-2012,365 dias,"Portugal, Vila Real, Vila Real","Artigo 20.º, n.º 1, alínea a) do Código dos Contratos Públicos",18-12-2012,"10.500,00 €",,,,Não aplicável.,Não aplicável.,
Aquisição reagentes para o LSP de Braga,Ajuste Direto Regime Geral,Aquisição de bens móveis,"33696500-0, Reagentes de laboratório","Administração Regional de Saúde do Norte, I.P. (503135593)",Iberlab & Imunoreage (503406694),"4.690,00 €",22-08-2012,20-08-2012,6 dias,"Portugal, Braga, Braga","Artigo 24.º, n.º 1, alínea e) do Código dos Contratos Públicos","","",,,,Não aplicável.,Não aplicável.,
