Objeto do Contrato,Tipo de Procedimento,Tipo(s) de Contrato,CPVs,Entidade(s) Adjudicante(s),Entidade(s) Adjudicatária(s),Preço Contratual,Data de Publicação,Data de Celebração do Contrato,Prazo de Execução,Local de Execução,Fundamentação,Data de Fecho do Contrato,Preço Total Efetivo,Causas das Alterações ao Prazo,Causas das Alterações ao Preço,Estado,N.º registo do Acordo Quadro,Descrição do Acordo Quadro,Procedimento Centralizado
Serviços de Implementação das Funcionalidades da Plartaforma Multirastreios Refª. 2016UMC246 - Aprov-Prt 16000458,Ajuste Direto Regime Geral,Aquisição de serviços,"72260000-5, Serviços relacionados com software","Administração Regional de Saúde do Norte, I. P. (503135593)","First Solutions - Sistemas de Informação, S.A. (505345978)","50.045,00 €",21-06-2017,30-08-2016,365 dias,"Portugal, Porto, Porto","Artigo 20.º, n.º 1, alínea a) do Código dos Contratos Públicos",23-02-2017,"50.045,00 €","","",,Não aplicável.,Não aplicável.,FALSE
Prestação de serviços que tem por objecto a manutenção/reparação dos extintores dos serviços Centrais de Vila Real-Logística da ARS Norte I.P.,Ajuste Direto Regime Geral,Aquisição de serviços,"50800000-3, Serviços de reparação e manutenção diversos","Administração Regional de Saúde do Norte, I. P. (503135593)",SEPEBE SEG PREVENCAO LD (502319976),"147,50 €",21-06-2017,01-06-2017,120 dias,"Portugal, Vila Real, Vila Pouca de Aguiar","Artigo 20.º, n.º 1, alínea a) do Código dos Contratos Públicos",23-06-2017,"147,50 €",O prazo de execução inicial seria uma estimativa para a prestação de serviços em causa.,"",,Não aplicável.,Não aplicável.,FALSE
A.P. 1167 APROV - VR 17001522 - Aquisição de Bens de Tratamento,Ajuste Direto Regime Geral,Aquisição de bens móveis,"33140000-3, Material médico de consumo","Administração Regional de Saúde do Norte, I. P. (503135593)",INTERSURGICAL - PORTUGAL (503480045),"1.875,72 €",21-06-2017,21-06-2017,365 dias,"Portugal, Vila Real, Vila Real<BR/>Portugal, Porto, Maia","Artigo 20.º, n.º 1, alínea a) do Código dos Contratos Públicos",29-12-2017,"1.875,72 €","","",,Não aplicável.,Não aplicável.,FALSE
"Prestação de serviços com objeto de celebração de contrato relativo à manutenção/reparação de extintores nos CRI's do Porto, Viana do Castelo e suas unidades especializadas e Auto Estima de Matosinhos da ARS Norte I.P.",Ajuste Direto Regime Geral,Aquisição de serviços,"50800000-3, Serviços de reparação e manutenção diversos","Administração Regional de Saúde do Norte, I. P. (503135593)",EXTINVALE - COMÉRCIO EQUIPAMENTOS DE SEGURANÇA E CONTRA INCÊNDIO LDA (505898977),"1.319,50 €",21-06-2017,19-06-2017,120 dias,"Portugal, Porto, Matosinhos<BR/>Portugal, Porto, Porto<BR/>Portugal, Viana do Castelo, Viana do Castelo","Artigo 20.º, n.º 1, alínea a) do Código dos Contratos Públicos",30-11-2017,"1.314,70 €","","A alteração do valor contratual sendo o valor máximo que a entidade adjudicante poderia pagar, foi inferior devido ao facto de se ter facturado menos.",,Não aplicável.,Não aplicável.,FALSE
A.P. 6 APROV - VR 17000197 - Aquisição de Bens - Material de Consumo Administrativo,Ajuste Direto Regime Geral,Aquisição de bens móveis,"22000000-0, Material impresso e afins","Administração Regional de Saúde do Norte, I. P. (503135593)","GRAFICA RMS - Raul Manuel de Sousa, Lda      (500675287)","34.035,00 €",21-06-2017,21-04-2017,365 dias,"Portugal, Porto, Maia<BR/>Portugal, Vila Real, Vila Real","Artigo 20.º, n.º 1, alínea a) do Código dos Contratos Públicos",29-12-2017,"34.035,00 €","","",,Não aplicável.,Não aplicável.,FALSE
AP 1011 Aquisição de 1.600 unidades Bioconector,Ao abrigo de acordo-quadro (art.º 259.º),Aquisição de bens móveis,"33140000-3, Material médico de consumo","Administração Regional de Saúde do Norte, I. P. (503135593)","P M H PRODUTOS MEDICO HOSPITALARES, S.A            (502376899)","520,00 €",21-06-2017,19-06-2017,190 dias,"Portugal, Porto, Maia<BR/>Portugal, Vila Real, Vila Real",Artigo 259.º do Código dos Contratos Públicos,21-09-2017,"520,00 €","","",,1212278,"CONCURSO PÚBLICO PARA A CELEBRAÇÃO DE CONTRATOS PÚBLICOS DE APROVISIONAMENTO PARA A ÁREA DA SAÚDE, COM VISTA AO FORNECIMENTO DE CATETERES, ÀS INSTITUIÇÕES E SERVIÇOS DO SERVIÇO NACIONAL DE SAÚDE",FALSE
"AP 1011 aquisiçãp 400 Cateter veia perif.poliur.nº14 c/aleta,sist.anti-picada; 2.000 Cateter veia perif.poliur.nº18 c/aleta,sist.anti-picada; 11.000 Cateter veia perif.poliur.nº20 c/aleta,sist.anti-picada, 5.000 Cateter veia perif.poliur.nº22 c/aleta,sist.anti-picada;  4.600 Cateter veia perif.poliur.nº24 c/aleta,sist.anti-picada",Ao abrigo de acordo-quadro (art.º 259.º),Aquisição de bens móveis,"33140000-3, Material médico de consumo","Administração Regional de Saúde do Norte, I. P. (503135593)",SMITHS MEDICAL PORTUGAL    (507445937),"9.059,70 €",21-06-2017,19-06-2017,190 dias,"Portugal, Vila Real, Vila Real<BR/>Portugal, Porto, Maia",Artigo 259.º do Código dos Contratos Públicos,21-12-2017,"9.059,70 €","","",,1212278,"CONCURSO PÚBLICO PARA A CELEBRAÇÃO DE CONTRATOS PÚBLICOS DE APROVISIONAMENTO PARA A ÁREA DA SAÚDE, COM VISTA AO FORNECIMENTO DE CATETERES, ÀS INSTITUIÇÕES E SERVIÇOS DO SERVIÇO NACIONAL DE SAÚDE",FALSE
AP 990 Aquisição de 1.200 comprimidos Valproato semisódico 500 mg Comp,Ao abrigo de acordo-quadro (art.º 259.º),Aquisição de bens móveis,"33600000-6, Produtos farmacêuticos","Administração Regional de Saúde do Norte, I. P. (503135593)",TECNIFAR IND TECNICA FARM SAR        (500280436),"251,40 €",21-06-2017,19-06-2017,190 dias,"Portugal, Vila Real, Vila Real<BR/>Portugal, Porto, Maia",Artigo 259.º do Código dos Contratos Públicos,20-06-2017,"251,40 €","","",,1179911,"CONCURSO PÚBLICO PARA A CELEBRAÇÃO DE CONTRATOS PÚBLICOS DE APROVISIONAMENTO PARA A ÁREA DA SAÚDE, MEDICAMENTOS DO SISTEMA NERVOSO CEREBROSPINAL, EXCETO: ANESTÉSICOS, RELAXANTES MUSCULARES, ANALGÉSICOS, ANTIPIRÉTICOS, ANTIDEPRESSORES E ANTIPSICÓTICOS, ÀS INSTITUIÇÕES E SERVIÇOS DO SERVIÇO NACIONAL DE SAÚDE",FALSE
AP 990 Aquisição de 360 comprimidos Naltrexona 50 mg Comp,Ao abrigo de acordo-quadro (art.º 259.º),Aquisição de bens móveis,"33600000-6, Produtos farmacêuticos","Administração Regional de Saúde do Norte, I. P. (503135593)","TECNIMEDE, SA             (500626413)","203,40 €",21-06-2017,19-06-2017,190 dias,"Portugal, Vila Real, Vila Real<BR/>Portugal, Porto, Maia",Artigo 259.º do Código dos Contratos Públicos,23-10-2017,"203,40 €","","",,1179911,"CONCURSO PÚBLICO PARA A CELEBRAÇÃO DE CONTRATOS PÚBLICOS DE APROVISIONAMENTO PARA A ÁREA DA SAÚDE, MEDICAMENTOS DO SISTEMA NERVOSO CEREBROSPINAL, EXCETO: ANESTÉSICOS, RELAXANTES MUSCULARES, ANALGÉSICOS, ANTIPIRÉTICOS, ANTIDEPRESSORES E ANTIPSICÓTICOS, ÀS INSTITUIÇÕES E SERVIÇOS DO SERVIÇO NACIONAL DE SAÚDE",FALSE
"AP 990 Aquisição de 2.700 comprimidos Lorazepam 2,5 mg",Ao abrigo de acordo-quadro (art.º 259.º),Aquisição de bens móveis,"33600000-6, Produtos farmacêuticos","Administração Regional de Saúde do Norte, I. P. (503135593)",PROSPA LAB FARMACEUTICOS SA       (500130248),"128,25 €",21-06-2017,19-06-2017,190 dias,"Portugal, Vila Real, Vila Real<BR/>Portugal, Porto, Maia",Artigo 259.º do Código dos Contratos Públicos,13-11-2017,"128,25 €","","",,1179911,"CONCURSO PÚBLICO PARA A CELEBRAÇÃO DE CONTRATOS PÚBLICOS DE APROVISIONAMENTO PARA A ÁREA DA SAÚDE, MEDICAMENTOS DO SISTEMA NERVOSO CEREBROSPINAL, EXCETO: ANESTÉSICOS, RELAXANTES MUSCULARES, ANALGÉSICOS, ANTIPIRÉTICOS, ANTIDEPRESSORES E ANTIPSICÓTICOS, ÀS INSTITUIÇÕES E SERVIÇOS DO SERVIÇO NACIONAL DE SAÚDE",FALSE
AP 990 Aquisição de 480 comprimidos Alprazolam 0.25 mg Comp; 1.500 comprimidos Gabapentina 100 mg Cáps,Ao abrigo de acordo-quadro (art.º 259.º),Aquisição de bens móveis,"33600000-6, Produtos farmacêuticos","Administração Regional de Saúde do Norte, I. P. (503135593)","GENERIS FARMACÊUTICA,SA              (508107997)","42,36 €",21-06-2017,19-06-2017,190 dias,"Portugal, Porto, Maia<BR/>Portugal, Vila Real, Vila Real",Artigo 259.º do Código dos Contratos Públicos,13-07-2017,"42,36 €","","",,1179911,"CONCURSO PÚBLICO PARA A CELEBRAÇÃO DE CONTRATOS PÚBLICOS DE APROVISIONAMENTO PARA A ÁREA DA SAÚDE, MEDICAMENTOS DO SISTEMA NERVOSO CEREBROSPINAL, EXCETO: ANESTÉSICOS, RELAXANTES MUSCULARES, ANALGÉSICOS, ANTIPIRÉTICOS, ANTIDEPRESSORES E ANTIPSICÓTICOS, ÀS INSTITUIÇÕES E SERVIÇOS DO SERVIÇO NACIONAL DE SAÚDE",FALSE
Aquisição Máquina de Etiquetar APROV-PRT 17001803 (AP1401),Ajuste Direto Regime Geral,Aquisição de bens móveis,"30170000-1, Máquinas de etiquetagem","Administração Regional de Saúde do Norte, I. P. (503135593)","Brazembal - Comércio e Indústria de Embalagens, Lda (500969663)","110,00 €",21-06-2017,19-06-2017,194 dias,"Portugal, Porto, Maia","Artigo 20.º, n.º 1, alínea a) do Código dos Contratos Públicos",28-06-2017,"110,00 €","","",,Não aplicável.,Não aplicável.,FALSE
AP 1169 Aquisição de 80 unidades Braçal para tensiómetro 14x55 cm (adulto); 40 unidades Escala optométrica plastificada letrados/iletrados - 3m; 30 unidades Escala optométrica plastificada crianças - 3m; 40 unidades Pás p/ disfibrilhador criança,Ajuste Direto Regime Geral,Aquisição de bens móveis,"33140000-3, Material médico de consumo","Administração Regional de Saúde do Norte,IP (ARSN) (503135593)","BRAMEDICAFISIO, PRODUTOS DE SAUDE, LDA            (508560152)","1.331,40 €",20-06-2017,19-06-2017,190 dias,"Portugal, Porto, Maia<BR/>Portugal, Vila Real, Vila Real","Artigo 20.º, n.º 1, alínea a) do Código dos Contratos Públicos",15-12-2017,"1.331,40 €","","",,Não aplicável.,Não aplicável.,FALSE
"AP 1171 Aquisição 276 unidades Feltro adesivo 20x30x4 mm, 59.840 unidades Ligadura elástica 4-5mx5cm",Ajuste Direto Regime Geral,Aquisição de bens móveis,"33140000-3, Material médico de consumo","Administração Regional de Saúde do Norte, I. P. (503135593)",BASTOS VIEGAS S A - BESLEASING E FACTORING    (500042772),"3.877,64 €",20-06-2017,20-06-2017,190 dias,"Portugal, Porto, Maia<BR/>Portugal, Vila Real, Vila Real","Artigo 20.º, n.º 1, alínea a) do Código dos Contratos Públicos",26-10-2017,"3.877,64 €","","",,Não aplicável.,Não aplicável.,FALSE
Prestação de serviços de reparação dos elevadores da ARS Norte I.P.,Ajuste Direto Regime Geral,Aquisição de serviços,"50750000-7, Serviços de manutenção de elevadores","Administração Regional de Saúde do Norte, I. P. (503135593)","Schmitt - Elevadores, Lda. (500230757)","60.975,60 €",20-06-2017,24-05-2017,365 dias,"Portugal, Distrito não determinado, Concelho não determinado","Artigo 24.º, n.º 1, alínea e) do Código dos Contratos Públicos","","","","",,Não aplicável.,Não aplicável.,FALSE
Serviços de Manutenção Corretiva e Evolutiva aos Sistemas  Aplicacionais da First Refª. 2016UMC079 Aprov-Prt 16000161,Ajuste Direto Regime Geral,Aquisição de serviços,"72261000-2, Serviços de assistência em matéria de software","Administração Regional de Saúde do Norte, I. P. (503135593)","First Solutions- Sistemas de Informação, S.A. (505345978)","128.418,27 €",19-06-2017,30-05-2016,365 dias,"Portugal, Porto, Porto","Artigo 24.º, n.º 1, alínea e) do Código dos Contratos Públicos",06-12-2016,"128.418,27 €","","",,Não aplicável.,Não aplicável.,FALSE
Serviços de Manutenção e Assistência técnica Aos PACS da Philips Refª. 2016UMC082 Aprov-Prt 16000136,Ajuste Direto Regime Geral,Aquisição de serviços,"72261000-2, Serviços de assistência em matéria de software","Administração Regional de Saúde do Norte, I. P. (503135593)","Philips Portuguesa, S.A. (500216843)","129.415,00 €",19-06-2017,21-06-2016,365 dias,"Portugal, Porto, Porto","Artigo 24.º, n.º 1, alínea e) do Código dos Contratos Públicos",16-12-2016,"129.415,00 €","","",,Não aplicável.,Não aplicável.,FALSE
Serviços de Manutenção e Suporte na Tecnologia de Virtualização no âmbito da centralização de Servidores Refª. 2016UMC009 Aprov-Prt 16000151,Ajuste Direto Regime Geral,Aquisição de serviços,"72260000-5, Serviços relacionados com software","Administração Regional de Saúde do Norte, I. P. (503135593)","Giganomics, Lda (509513735)","74.300,00 €",19-06-2017,26-07-2016,126 dias,"Portugal, Porto, Porto","Artigo 20.º, n.º 1, alínea a) do Código dos Contratos Públicos",13-12-2016,"74.300,00 €","","",,Não aplicável.,Não aplicável.,FALSE
Ao 108 -Aquisição de 270 000 Kit de Penso,Concurso público,Aquisição de bens móveis,"33141110-4, Pensos","Administração Regional de Saúde do Norte, I. P. (503135593)",LINEAMEDICA - (505148676),"110.430,00 €",19-06-2017,03-05-2017,260 dias,"Portugal, Vila Real, Vila Real<BR/>Portugal, Porto, Porto",Artigo 155.º do Código dos Contratos Públicos,19-12-2017,"110.430,00 €","","",,Não aplicável.,Não aplicável.,FALSE
Licenciamento de Software Symantec Netbackup  ao abrigo do lote 68  Refª. 2016UMC397 - Aprov-Prt 16001935,Ao abrigo de acordo-quadro (art.º 259.º),Aquisição de bens móveis,"48000000-8, Pacotes de software e sistemas de informação","Administração Regional de Saúde do Norte, I. P. (503135593)","Informática El Corte Inglês, S.A. (980079659)","7.966,65 €",19-06-2017,27-12-2016,7 dias,"Portugal, Porto, Porto",Artigo 259.º do Código dos Contratos Públicos,28-12-2016,"7.966,65 €","","",,610968,Acordo quadro de licenciamento de software e serviços conexos,TRUE
"Serviços de Manutenção e Suporte aos Sistemas de Logística, Compras e Faturação Refª 2016UMC332 Aprov-Prt 16000166",Ajuste Direto Regime Geral,Aquisição de serviços,"72261000-2, Serviços de assistência em matéria de software","Administração Regional de Saúde do Norte, I. P. (503135593)","Humanvision Consulting, Lda. (508695953)","182.880,00 €",19-06-2017,29-07-2016,365 dias,"Portugal, Porto, Porto","Artigo 24.º, n.º 1, alínea e) do Código dos Contratos Públicos",02-12-2016,"182.880,00 €","","",,Não aplicável.,Não aplicável.,FALSE
Ap 2883 - Aquisição de 45 000 ml de formol 10%,Ajuste Direto Regime Geral,Aquisição de bens móveis,"33600000-6, Produtos farmacêuticos","Administração Regional de Saúde do Norte, I. P. (503135593)",VWR - Internacional (503842770),"184,50 €",16-06-2017,12-04-2016,260 dias,"Portugal, Vila Real, Vila Real","Artigo 20.º, n.º 1, alínea a) do Código dos Contratos Públicos",28-10-2016,"184,50 €","","",,Não aplicável.,Não aplicável.,FALSE
"Serviços de Manutenção e Suporte ao sistema de informação da gestão documental da ARS Norte, I.P. Refª AD/2017-38 -Aprov-Prt 17000204",Ajuste Direto Regime Geral,Aquisição de serviços,"72500000-0, Serviços relacionados com a informática","Administração Regional de Saúde do Norte, I. P. (503135593)","Link Consulting Tecnologias de Informação, S.A. (504551221)","14.092,00 €",16-06-2017,04-05-2017,365 dias,"Portugal, Porto, Porto","Artigo 24.º, n.º 1, alínea e) do Código dos Contratos Públicos",31-05-2017,"14.092,00 €","","",,Não aplicável.,Não aplicável.,TRUE
"Aquisição de serviços gerais para as áreas de arquivo, logistica e compras (APROV PRT 17000169)",Concurso público,Aquisição de serviços,"71356300-1, Serviços de apoio técnico","Administração Regional de Saúde do Norte, I. P. (503135593)",Interlimpe (502611057),"159.678,75 €",16-06-2017,10-05-2017,230 dias,"Portugal, Porto, Maia<BR/>Portugal, Vila Real, Vila Real<BR/>Portugal, Porto, Porto",Artigo 155.º do Código dos Contratos Públicos,29-12-2017,"159.188,09 €","",Não foram prestados os serviços na totalidade,,Não aplicável.,Não aplicável.,FALSE
Aquisição 2 Unidades Dentárias - APROV-PRT 17001046/48/49/51 (AP945),Ajuste Direto Regime Geral,Aquisição de bens móveis,"33192410-9, Cadeiras de odontologia","Administração Regional de Saúde do Norte, I. P. (503135593)","Iberdata Equipamentos, Lda (501904921)","49.968,00 €",16-06-2017,24-05-2017,221 dias,"Portugal, Aveiro, Castelo de Paiva<BR/>Portugal, Viseu, Cinfães","Artigo 24.º, n.º 1, alínea c) do Código dos Contratos Públicos",28-07-2017,"49.968,00 €","","",,Não aplicável.,Não aplicável.,FALSE
Aquisição de serviços médicos para SAP Resende adstrito ao ACES Baixo Tâmega (APROV PRT 17000121) Procedimento n.º 63/2016/SAP Resende/ACES Baixo Tâmega/ARSN - Dr. Sipião Luís dos Santos Pires,Ajuste Direto Regime Geral,Aquisição de serviços,"79625000-1, Serviços de fornecimento de pessoal médico","Administração Regional de Saúde do Norte, I. P. (503135593)",Sipião Luís dos Santos Pires (190437618),"54.600,00 €",16-06-2017,26-01-2017,365 dias,"Portugal, Viseu, Resende","Artigo 20.º, n.º 1, alínea a) do Código dos Contratos Públicos","","","","",,Não aplicável.,Não aplicável.,FALSE
Aquisição de serviços médicos com especialidade em MGF para o ACES Vale Sousa Sul /USF Nova Era - Sobreira (Procedimento n.º 26/2017) - Dr.ª Ana Leonor Mouro dos Santos Rolo (35h semanais),Ajuste Direto Regime Geral,Aquisição de serviços,"85121000-3, Serviços de prática médica","Administração Regional de Saúde do Norte, I. P. (503135593)",Ana Leonor Mouro de Santos Rolo (214652564),"33.075,00 €",16-06-2017,17-04-2017,244 dias,"Portugal, Porto","Artigo 20.º, n.º 1, alínea a) do Código dos Contratos Públicos","","","","",,Não aplicável.,Não aplicável.,FALSE
Aquisição de 1 seringa de calibração para espirómetro,Ajuste Direto Regime Geral,Aquisição de bens móveis,"38000000-5, Equipamento laboratorial, óptico e de precisão (exc. óculos)","Administração Regional de Saúde do Norte,IP (ARSN) (503135593)",BACELAR & IRMÃO LDA (500532818),"340,00 €",14-06-2017,12-06-2017,200 dias,"Portugal, Vila Real, Vila Real","Artigo 20.º, n.º 1, alínea a) do Código dos Contratos Públicos",28-07-2017,"340,00 €","","",,Não aplicável.,Não aplicável.,FALSE
Aquisição de 4 termo higrómetros,Ajuste Direto Regime Geral,Aquisição de bens móveis,"38300000-8, Instrumentos de medição","Administração Regional de Saúde do Norte,IP (ARSN) (503135593)",Getonclik (510301797),"196,00 €",14-06-2017,30-05-2017,210 dias,"Portugal, Porto, Porto","Artigo 20.º, n.º 1, alínea a) do Código dos Contratos Públicos",21-06-2017,"196,00 €","","",,Não aplicável.,Não aplicável.,FALSE
AQUISIÇÃO DE SERVIÇO DE CALIBRAÇÃO DE ANALISADOR DE CO,Ajuste Direto Regime Geral,Aquisição de serviços,"50433000-9, Serviços de calibragem","Administração Regional de Saúde do Norte,IP (ARSN) (503135593)",Instituto da Soldadura e da Qualidade (500140022),"80,00 €",14-06-2017,05-06-2017,200 dias,"Portugal, Porto, Porto","Artigo 20.º, n.º 1, alínea a) do Código dos Contratos Públicos",25-07-2017,"80,00 €","","",,Não aplicável.,Não aplicável.,FALSE
Aquisição de 2 molas tipo Digiflex,Ao abrigo de acordo-quadro (art.º 259.º),Aquisição de bens móveis,"33150000-6, Dispositivos de radioterapia, mecanoterapia, electroterapia e fisioterapia","Administração Regional de Saúde do Norte,IP (ARSN) (503135593)","Bastos Viegas, S.A. (500042772)","25,10 €",14-06-2017,29-05-2017,180 dias,"Portugal, Vila Real, Vila Real",Artigo 259.º do Código dos Contratos Públicos,01-06-2017,"25,10 €","","",,1587913,Acordo Quadro para fornecimento de Equipamentos e Dispositivos Médicos de uso comum em internamento e ambulatório - Parte I às instituições e serviços do Serviço Nacional de Saúde.,FALSE
Aquisição de 1 Balança pediátrica digital,Ao abrigo de acordo-quadro (art.º 259.º),Aquisição de bens móveis,"33100000-1, Equipamento médico","Administração Regional de Saúde do Norte,IP (ARSN) (503135593)",BACELAR & IRMÃO LDA (500532818),"242,20 €",14-06-2017,29-05-2017,180 dias,"Portugal, Vila Real, Vila Real",Artigo 259.º do Código dos Contratos Públicos,05-07-2017,"242,20 €","","",,1587913,Acordo Quadro para fornecimento de Equipamentos e Dispositivos Médicos de uso comum em internamento e ambulatório - Parte I às instituições e serviços do Serviço Nacional de Saúde.,FALSE
Serviços de Manutenção dos Sistemas de Base de Dados do Datacenter Refª:2016UMC400 -  Aprov-Prt 16001964,Ajuste Direto Regime Geral,Aquisição de serviços,"72611000-6, Serviços de assistência técnica informática","Administração Regional de Saúde do Norte, I. P. (503135593)","Iten Solutions - Sistemas de Informação, S.A. (510728189)","12.880,44 €",14-06-2017,15-12-2016,365 dias,"Portugal, Porto, Porto","Artigo 20.º, n.º 1, alínea a) do Código dos Contratos Públicos",23-12-2016,"12.880,44 €","","",,Não aplicável.,Não aplicável.,FALSE
Serviços de Renovação do Suporte do cluster F5 Refª AD/2016-64,Ajuste Direto Regime Geral,Aquisição de serviços,"50312000-5, Manutenção e reparação de equipamento informático","Administração Regional de Saúde do Norte, I. P. (503135593)","GFI Portugal - Tecnologias de Informação, S.A. (502726890)","4.880,00 €",14-06-2017,02-01-2017,365 dias,"Portugal, Porto, Porto","Artigo 20.º, n.º 1, alínea a) do Código dos Contratos Públicos",24-01-2017,"4.880,00 €","","",,Não aplicável.,Não aplicável.,FALSE
Aquisição de Equipamento de Cópia e Impressão - Aprov-Prt 16001336/1335/1334/1333,Ajuste Direto Regime Geral,Aquisição de bens móveis,"30232110-8, Impressoras laser","Administração Regional de Saúde do Norte, I. P. (503135593)","2007 COM, Lda. (508018030)","5.080,00 €",14-06-2017,25-11-2016,30 dias,"Portugal, Braga, Braga","Artigo 20.º, n.º 1, alínea a) do Código dos Contratos Públicos",20-12-2016,"5.080,00 €","","",,Não aplicável.,Não aplicável.,FALSE
Remodelação de Edifício para Instalação da USN Nuno Grande em Vila Real,Concurso público,Empreitadas de obras públicas,"45215100-8, Obras de construção de edifícios relacionados com serviços de saúde","Administração Regional de Saúde do Norte,IP (ARSN) (503135593)",Teisil - Empresa de Construções e Empreendimentos L.da (501867180),"575.000,00 €",13-06-2017,24-05-2017,210 dias,"Portugal, Vila Real, Vila Real","Artigo 19.º, alínea b) do Código dos Contratos Públicos","","","","",,Não aplicável.,Não aplicável.,FALSE
A.P. 1020 APROV - VR 17001366 - Aquisição de Bens de Tratamento,Ao abrigo de acordo-quadro (art.º 259.º),Aquisição de bens móveis,"33140000-3, Material médico de consumo","Administração Regional de Saúde do Norte, I. P. (503135593)","BECTON DICKINSON, S.A.    (980245214)","720,00 €",12-06-2017,12-06-2017,365 dias,"Portugal, Porto, Maia<BR/>Portugal, Vila Real, Vila Real",Artigo 259.º do Código dos Contratos Públicos,20-09-2017,"720,00 €","","",,448705,"CONCURSO PÚBLICO PARA A CELEBRAÇÃO DE CONTRATOS PÚBLICOS DE APROVISIONAMENTO PARA A ÁREA DA SAÚDE, COM VISTA AO FORNECIMENTO DE SERINGAS, AGULHAS, CONTENTORES E SISTEMAS FECHADOS DE COLHEITA,  ÀS INSTITUIÇÕES E SERVIÇOS DO SERVIÇO NACIONAL DE SAÚDE",FALSE
