Objeto do Contrato,Tipo de Procedimento,Tipo(s) de Contrato,CPVs,Entidade(s) Adjudicante(s),Entidade(s) Adjudicatária(s),Preço Contratual,Data de Publicação,Data de Celebração do Contrato,Prazo de Execução,Local de Execução,Fundamentação,Data de Fecho do Contrato,Preço Total Efetivo,Causas das Alterações ao Prazo,Causas das Alterações ao Preço,Estado,N.º registo do Acordo Quadro,Descrição do Acordo Quadro,Procedimento Centralizado
"Balanças, negatoscópios e Ap. medir a tensão.",Ajuste Direto Regime Geral,Aquisição de bens móveis,"33100000-1, Equipamento médico","Administração Regional de Saúde do Norte, I.P. (503135593)",Portosaúde (502927178),"2.037,00 €",30-08-2011,15-06-2011,5 dias,"Portugal, Porto, Vila Nova de Gaia<BR/>Portugal, Porto, Amarante<BR/>Portugal, Porto, Valongo","Artigo 20.º, n.º 1, alínea a) do Código dos Contratos Públicos","","",,,,Não aplicável.,Não aplicável.,
Estruturas metálicas,Ajuste Direto Regime Geral,Aquisição de bens móveis,"39150000-8, Mobiliário e equipamento diverso","Administração Regional de Saúde do Norte, I.P. (503135593)",Mondiaço (500577650),"12.533,40 €",30-08-2011,06-05-2011,30 dias,"Portugal, Porto, Maia","Artigo 26.º, n.º 1, alínea a) do Código dos Contratos Públicos","","",,,,Não aplicável.,Não aplicável.,
Prateleiras,Ajuste Direto Regime Geral,Aquisição de bens móveis,"39141100-3, Estantes","Administração Regional de Saúde do Norte, I.P. (503135593)",Mondiaço (500577650),"10.321,49 €",30-08-2011,09-06-2011,30 dias,"Portugal, Porto, Maia","Artigo 26.º, n.º 1, alínea a) do Código dos Contratos Públicos","","",,,,Não aplicável.,Não aplicável.,
Suportes de CPU e relógios de parede.,Ajuste Direto Regime Geral,Aquisição de bens móveis,"39151000-5, Mobiliário diverso","Administração Regional de Saúde do Norte, I.P. (503135593)","Fluxoiberia (505250373), Alfa-Mar (500856583)","739,68 €",30-08-2011,02-05-2011,17 dias,"Portugal, Porto, Baião","Artigo 20.º, n.º 1, alínea a) do Código dos Contratos Públicos","","",,,,Não aplicável.,Não aplicável.,
Cacifos,Ajuste Direto Regime Geral,Aquisição de bens móveis,"39100000-3, Mobiliário","Administração Regional de Saúde do Norte, I.P. (503135593)",Julcar (501140263),"1.624,00 €",30-08-2011,30-06-2011,15 dias,"Portugal, Porto, Baião<BR/>Portugal, Viseu, Lamego","Artigo 26.º, n.º 1, alínea a) do Código dos Contratos Públicos","","",,,,Não aplicável.,Não aplicável.,
Cacifos.,Ajuste Direto Regime Geral,Aquisição de bens móveis,"39100000-3, Mobiliário","Administração Regional de Saúde do Norte, I.P. (503135593)",Julcar (501140263),"4.294,00 €",30-08-2011,30-06-2011,15 dias,"Portugal, Porto, Baião","Artigo 26.º, n.º 1, alínea a) do Código dos Contratos Públicos","","",,,,Não aplicável.,Não aplicável.,
Aquisição e Instalação de bancadas hospitalares e mobiliário hospitalar,Ajuste Direto Regime Geral,Aquisição de bens móveis,"39181000-4, Bancadas de laboratório","Administração Regional de Saúde do Norte, I.P. (503135593)","Bacelar e Irmão, Lda. (500532818)","9.891,27 €",29-08-2011,22-03-2011,20 dias,"Portugal, Braga, Vila Verde<BR/>Portugal, Braga, Esposende","Artigo 20.º, n.º 1, alínea a) do Código dos Contratos Públicos","","",,,,Não aplicável.,Não aplicável.,
Instalação do ACES Feira/Arouca,Ajuste Direto Regime Geral,Empreitadas de obras públicas,"45454000-4, Obras de reestruturação","Administração Regional de Saúde do Norte, I.P. (503135593)","Nordivi - Montagem de Estruturas Decorativas, Lda (502274425)","121.376,97 €",26-08-2011,25-07-2011,120 dias,"Portugal, Aveiro, Santa Maria da Feira","Artigo 19.º, alínea a) do Código dos Contratos Públicos",27-12-2011,"121.376,97 €",,,,Não aplicável.,Não aplicável.,
Alimentação Electrica para ar condicionado Armazéns da Maia,Ajuste Direto Regime Geral,Empreitadas de obras públicas,"45317300-5, Instalação eléctrica de aparelhos para distribuição de electricidade","Administração Regional de Saúde do Norte, I.P. (503135593)","Nordivi - Montagem de Estruras Decorativas, Lda (502274425)","15.683,35 €",26-08-2011,22-07-2011,20 dias,"Portugal, Porto, Maia","Artigo 19.º, alínea a) do Código dos Contratos Públicos",20-09-2011,"15.683,35 €",,,,Não aplicável.,Não aplicável.,
Remodelação da Ala Direita CS Chaves II,Ajuste Direto Regime Geral,Empreitadas de obras públicas,"45454000-4, Obras de reestruturação","Administração Regional de Saúde do Norte, I.P. (503135593)","Trado - Construção e Obras Públicas, Lda (508829607)","148.504,24 €",26-08-2011,12-07-2011,90 dias,"Portugal, Vila Real, Chaves","Artigo 19.º, alínea a) do Código dos Contratos Públicos",27-12-2011,"148.504,24 €",,,,Não aplicável.,Não aplicável.,
Substituição da cobertura CDP Lamas,Ajuste Direto Regime Geral,Empreitadas de obras públicas,"45453100-8, Obras de recuperação","Administração Regional de Saúde do Norte, I.P. (503135593)","Pedra Lascada - Sociedade de Construções, Lda (508466350)","35.705,00 €",26-08-2011,22-07-2011,60 dias,"Portugal, Aveiro, Santa Maria da Feira","Artigo 19.º, alínea a) do Código dos Contratos Públicos",06-12-2011,"35.705,00 €",,,,Não aplicável.,Não aplicável.,
Projecto de Adaptação USF Nuno Grande,Ajuste Direto Regime Geral,Aquisição de serviços,"71200000-0, Serviços de arquitectura e afins","Administração Regional de Saúde do Norte, I.P. (503135593)","Ricardo Santelmo & Albino Teixeira, Arquitectos, Lda (507712820)","24.900,00 €",26-08-2011,07-07-2011,90 dias,"Portugal, Vila Real, Vila Real","Artigo 20.º, n.º 4 do Código dos Contratos Públicos","","",,,,Não aplicável.,Não aplicável.,
Remodelação da USF Beira Douro,Ajuste Direto Regime Geral,Empreitadas de obras públicas,"45454000-4, Obras de reestruturação","Administração Regional de Saúde do Norte, I.P. (503135593)","Aniferpal - Construção e Engenharia, Lda (507381777)","146.890,00 €",26-08-2011,26-07-2011,90 dias,"Portugal, Porto, Gondomar","Artigo 19.º, alínea a) do Código dos Contratos Públicos",07-01-2012,"146.890,00 €",,,,Não aplicável.,Não aplicável.,
Obras de Conservação US Pindelo,Ajuste Direto Regime Geral,Empreitadas de obras públicas,"45454000-4, Obras de reestruturação","Administração Regional de Saúde do Norte, I.P. (503135593)","Ideias & Inigmas, Unipessoal, Lda (509895786)","16.533,62 €",26-08-2011,25-07-2011,30 dias,"Portugal, Aveiro, Oliveira de Azemeis","Artigo 19.º, alínea a) do Código dos Contratos Públicos",15-09-2011,"16.533,62 €",,,,Não aplicável.,Não aplicável.,
"Aquisilão de aparelho de correntes com 4 canais, aparerhos de TENS e aparelho de magnetoterapia",Ajuste Direto Regime Geral,Aquisição de bens móveis,"33100000-1, Equipamento médico","Administração Regional de Saúde do Norte, I.P. (503135593)","Vitalino Sousa Figueiredo (501277196), Teprel (502262184)","6.819,00 €",22-08-2011,29-06-2011,30 dias,"Portugal, Porto, Vila Nova de Gaia","Artigo 20.º, n.º 1, alínea a) do Código dos Contratos Públicos","","",,,,Não aplicável.,Não aplicável.,
