Objeto do Contrato,Tipo de Procedimento,Tipo(s) de Contrato,CPVs,Entidade(s) Adjudicante(s),Entidade(s) Adjudicatária(s),Preço Contratual,Data de Publicação,Data de Celebração do Contrato,Prazo de Execução,Local de Execução,Fundamentação,Data de Fecho do Contrato,Preço Total Efetivo,Causas das Alterações ao Prazo,Causas das Alterações ao Preço,Estado,N.º registo do Acordo Quadro,Descrição do Acordo Quadro,Procedimento Centralizado
- T1267 - TERIFLUNAMIDA (14 MG; CÁPS./COMP.),Ao abrigo de acordo-quadro (art.º 259.º),Aquisição de bens móveis,"33652000-5, Antineoplásicos e imunomoduladores","Hospital Distrital da Figueira da Foz, E. P. E. (506361527)","SANOFI- PRODUTOS FARMACÊUTICOS,LDA.                (500134960)","12.856,20 €",10-11-2017,22-08-2017,365 dias,"Portugal, Coimbra, Figueira da Foz",Artigo 259.º do Código dos Contratos Públicos,,,,,,1771819,CP 2015/6 - Acordo quadro para o fornecimento de Medicamentos do Foro Oncológico,FALSE
"Serviços de impressão, cópia, digitalização e fax em regime de outsourcing para o HDFF, EPE",Concurso público,Locação de bens móveis,"30121300-6, Equipamento para reprodução","Hospital Distrital Figueira da Foz, E.P.E. (506361527)","Konica Minolta Business Solutions Portugal, Unipessoal, Lda (502120070)","88.884,00 €",07-11-2017,01-06-2017,1095 dias,"Portugal, Coimbra, Figueira da Foz","Artigo 20.º, n.º 1, alínea b) do Código dos Contratos Públicos",,,,,,Não aplicável.,Não aplicável.,FALSE
I287 - Infliximab (100 MG; Pó p/a conc. p/a sol. p/a perf.; Frs),Ao abrigo de acordo-quadro (art.º 259.º),Aquisição de bens móveis,"33652000-5, Antineoplásicos e imunomoduladores","Hospital Distrital da Figueira da Foz, E. P. E. (506361527)","Merck Sharp & Dohme, Lda. (500191360)","12.950,00 €",03-11-2017,12-10-2017,365 dias,"Portugal, Coimbra, Figueira da Foz",Artigo 259.º do Código dos Contratos Públicos,,,,,,1771819,CP 2015/6 - Acordo quadro para o fornecimento de Medicamentos do Foro Oncológico,FALSE
