Objeto do Contrato,Tipo de Procedimento,Tipo(s) de Contrato,CPVs,Entidade(s) Adjudicante(s),Entidade(s) Adjudicatária(s),Preço Contratual,Data de Publicação,Data de Celebração do Contrato,Prazo de Execução,Local de Execução,Fundamentação,Data de Fecho do Contrato,Preço Total Efetivo,Causas das Alterações ao Prazo,Causas das Alterações ao Preço,Estado,N.º registo do Acordo Quadro,Descrição do Acordo Quadro,Procedimento Centralizado
"Gas a granel e gasoleo de aquecimento, outubro, novembro, 2012",Ajuste Direto Regime Geral,Aquisição de serviços,"65210000-8, Distribuição de gás",Centro de Medicina de Reabilitação da Região Centro - Rovisco Pais (503767336),"Petroleos de Portugal, Pewtrogal, SA (500697370)","35.398,23 €",17-10-2012,15-10-2012,60 dias,"Portugal, Coimbra, Cantanhede","Artigo 27.º, n.º 1, alínea a) do Código dos Contratos Públicos",,,,,,Não aplicável.,Não aplicável.,
Aquisição de cadeira de rodas eletrica,Ajuste Direto Regime Geral,Aquisição de bens móveis,"33193121-3, Cadeiras de rodas a motor",Centro de Medicina de Reabilitação da Região Centro - Rovisco Pais (503767336),"NeuroWave, Lda (508537150)","8.148,52 €",15-10-2012,15-06-2012,365 dias,"Portugal, Coimbra, Cantanhede","Artigo 26.º, n.º 1, alínea a) do Código dos Contratos Públicos",,,,,,Não aplicável.,Não aplicável.,
