Objeto do Contrato,Tipo de Procedimento,Tipo(s) de Contrato,CPVs,Entidade(s) Adjudicante(s),Entidade(s) Adjudicatária(s),Preço Contratual,Data de Publicação,Data de Celebração do Contrato,Prazo de Execução,Local de Execução,Fundamentação,Data de Fecho do Contrato,Preço Total Efetivo,Causas das Alterações ao Prazo,Causas das Alterações ao Preço,Estado,N.º registo do Acordo Quadro,Descrição do Acordo Quadro,Procedimento Centralizado
1125O17 Agregação AD-AC-2017-33 Fumarato,Ajuste Direto Regime Geral,Aquisição de bens móveis,"33600000-6, Produtos farmacêuticos","Centro Hospitalar de Leiria, E. P. E. (509822932)","BIOGEN IDEC PORTUGAL-SOC.FARM.UNIP., LDA (506415740)","10.902,93 €",11-05-2017,27-04-2017,240 dias,"Portugal, Leiria, Leiria","Artigo 24.º, n.º 1, alínea e) do Código dos Contratos Públicos","","",,,,Não aplicável.,Não aplicável.,FALSE
1126O17 Medicamento Sevoflurano,Ao abrigo de acordo-quadro (art.º 259.º),Aquisição de bens móveis,"33600000-6, Produtos farmacêuticos","Centro Hospitalar de Leiria, E. P. E. (509822932)","ABBVIE, LDA (510229050)","34.400,00 €",11-05-2017,10-05-2017,240 dias,"Portugal, Leiria, Leiria",Artigo 259.º do Código dos Contratos Públicos,"","",,,,1179911,"CONCURSO PÚBLICO PARA A CELEBRAÇÃO DE CONTRATOS PÚBLICOS DE APROVISIONAMENTO PARA A ÁREA DA SAÚDE, MEDICAMENTOS DO SISTEMA NERVOSO CEREBROSPINAL, EXCETO: ANESTÉSICOS, RELAXANTES MUSCULARES, ANALGÉSICOS, ANTIPIRÉTICOS, ANTIDEPRESSORES E ANTIPSICÓTICOS, ÀS INSTITUIÇÕES E SERVIÇOS DO SERVIÇO NACIONAL DE SAÚDE",FALSE
1132O17 AMOXICILIA + ACIDO CLAVULONICO,Ao abrigo de acordo-quadro (art.º 259.º),Aquisição de bens móveis,"33600000-6, Produtos farmacêuticos","Centro Hospitalar de Leiria, E. P. E. (509822932)","GENERIS-FARMACEUTICA,SA (508107997)","3.280,00 €",11-05-2017,10-05-2017,20 dias,"Portugal, Leiria, Leiria",Artigo 259.º do Código dos Contratos Públicos,11-05-2017,"3.280,00 €",,,,1326195,ACORDO QUADRO PARA FORNECIMENTO DE MEDICAMENTOS ANTI-INFECIOSOS: EXCETO ANTIVÍRICOS E ANTIFÚNGICOS ÀS INSTITUIÇÕES E SERVIÇOS DO SERVIÇO NACIONAL DE SAÚDE,FALSE
"1094O17 LEVOTIROXINA 0,0025 MG COMP",Ao abrigo de acordo-quadro (art.º 259.º),Aquisição de bens móveis,"33600000-6, Produtos farmacêuticos","Centro Hospitalar de Leiria, E. P. E. (509822932)","MERCK, SA (500650870)","51,45 €",11-05-2017,10-05-2017,20 dias,"Portugal, Leiria, Leiria",Artigo 259.º do Código dos Contratos Públicos,11-05-2017,"51,45 €",,,,1415640,CP 2015/7 - ACORDO QUADRO PARA FORNECIMENTO DE HORMONAS E OUTROS MEDICAMENTOS USADOS NO TRATAMENTO DAS DOENÇAS ENDÓCRINAS ÀS INSTITUIÇÕES E SERVIÇOS DO SERVIÇO NACIONAL DE SAÚDE,FALSE
1025O17 AGREGAÇÃO AD-AC-2017-60 SECUCINUMAB,Ajuste Direto Regime Geral,Aquisição de bens móveis,"33600000-6, Produtos farmacêuticos","Centro Hospitalar de Leiria, E. P. E. (509822932)","NOVARTIS FARMA-PRODUT.FARMACEUTICOS, SA (500063524)","50.337,00 €",11-05-2017,19-04-2017,240 dias,"Portugal, Leiria, Leiria","Artigo 24.º, n.º 1, alínea e) do Código dos Contratos Públicos","","",,,,Não aplicável.,Não aplicável.,FALSE
Ventilador monitor,Ajuste Direto Regime Geral,Aquisição de bens móveis,"33100000-1, Equipamento médico","CENTRO HOSPITALAR DE LEIRIA, E.P.E. (509822932)","Getinge Group Portugal, Unipessoal, Lda. (506819698)","34.500,00 €",10-05-2017,10-05-2017,60 dias,"Portugal, Leiria, Leiria","Artigo 20.º, n.º 1, alínea a) do Código dos Contratos Públicos",10-05-2017,"34.500,00 €",,,,Não aplicável.,Não aplicável.,FALSE
Medicamentos Exclusivos Merck,Ajuste Direto Regime Geral,Aquisição de bens móveis,"33600000-6, Produtos farmacêuticos","Centro Hospitalar de Leiria, E. P. E. (509822932)","MERCK, SA (500650870)","339,66 €",09-05-2017,08-05-2017,240 dias,"Portugal, Leiria, Leiria","Artigo 24.º, n.º 1, alínea e) do Código dos Contratos Públicos","","",,,,Não aplicável.,Não aplicável.,FALSE
0261E17-TRANSPORTE DE DOENTES EM AMBULÂNCIA PERÍODO DE 01 JAN. A 14 DE MARÇO,Ajuste Direto Regime Geral,Aquisição de serviços,"60130000-8, Serviços de transporte rodoviário de passageiros com finalidade específica","Centro Hospitalar de Leiria, E. P. E. (509822932)",CENTRO HUMANUNITARIO BAIXO MONDEGO-CRUZ VERMELHA PORTUGUESA (500745749),"70.238,34 €",09-05-2017,08-05-2017,73 dias,"Portugal, Leiria, Leiria","Artigo 20.º, n.º 1, alínea a) do Código dos Contratos Públicos",08-05-2017,"70.238,34 €",,,,Não aplicável.,Não aplicável.,FALSE
FILTROS UNIDADE TRATAMENTO AR,Ajuste Direto Regime Geral,Aquisição de bens móveis,"42514310-8, Filtros de ar","CENTRO HOSPITALAR DE LEIRIA, E.P.E. (509822932)","PURAR COMÉRCIO E EQUIPAMENTOS INDUSTRIAIS, LDA (513868364)","4.184,00 €",09-05-2017,20-01-2017,365 dias,"Portugal, Leiria, Leiria","Artigo 20.º, n.º 1, alínea a) do Código dos Contratos Públicos",29-12-2017,"4.184,00 €",,,,Não aplicável.,Não aplicável.,FALSE
PASTAS DE ARQUIVO PROCESSO CLÍNICO,Ajuste Direto Regime Geral,Aquisição de bens móveis,"22853000-4, Pastas para processos","Centro Hospitalar de Leiria, E. P. E. (509822932)","GRAFICA DA BATALHA, LDA (501308423)","9.570,00 €",08-05-2017,24-04-2017,365 dias,"Portugal, Leiria, Leiria","Artigo 20.º, n.º 1, alínea a) do Código dos Contratos Públicos",10-05-2018,"9.570,00 €",,,,Não aplicável.,Não aplicável.,FALSE
0263E17- SEGURO ACIDENTES TRABALHO CONTRATADOS - REGUL. ANO 2016,Ajuste Direto Regime Geral,Aquisição de serviços<br/>Locação de bens móveis,"66510000-8, Serviços de seguros","Centro Hospitalar de Leiria, E. P. E. (509822932)",ZURICH (980420636),"6.103,07 €",05-05-2017,05-05-2017,365 dias,"Portugal, Leiria, Leiria","Artigo 20.º, n.º 1, alínea a) do Código dos Contratos Públicos",05-05-2017,"6.103,07 €",,,,Não aplicável.,Não aplicável.,FALSE
1128O17 Glucose 5% 500 ml saco,Ao abrigo de acordo-quadro (art.º 259.º),Aquisição de bens móveis,"33600000-6, Produtos farmacêuticos","Centro Hospitalar de Leiria, E. P. E. (509822932)","FRESENIUS KABI PHARMA PORTUGAL, LDA (504293753)","158,00 €",05-05-2017,04-05-2017,240 dias,"Portugal, Leiria, Leiria",Artigo 259.º do Código dos Contratos Públicos,"","",,,,1331181,Acordo Quadro para fornecimento de corretivos da volémia e outras soluções estéreis às Instituições e Serviços do Serviço Nacional de Saúde,FALSE
1129O17 Levofloxacina 500 mg/100 ml,Ao abrigo de acordo-quadro (art.º 259.º),Aquisição de bens móveis,"33600000-6, Produtos farmacêuticos","Centro Hospitalar de Leiria, E. P. E. (509822932)","HIKMA FARMACEUTICA (PORTUGAL), SA (502266791)","154,80 €",05-05-2017,04-05-2017,20 dias,"Portugal, Leiria, Leiria",Artigo 259.º do Código dos Contratos Públicos,05-05-2017,"154,80 €",,,,1326195,ACORDO QUADRO PARA FORNECIMENTO DE MEDICAMENTOS ANTI-INFECIOSOS: EXCETO ANTIVÍRICOS E ANTIFÚNGICOS ÀS INSTITUIÇÕES E SERVIÇOS DO SERVIÇO NACIONAL DE SAÚDE,FALSE
"Imunoalergologia - Alergeno Iodopropinil Butilcarbamato 0,1%",Ajuste Direto Regime Geral,Aquisição de bens móveis,"33600000-6, Produtos farmacêuticos","Centro Hospitalar de Leiria, E. P. E. (509822932)","BIAL-PORTELA E COMPANHIA, SA (500220913)","48,12 €",05-05-2017,02-05-2017,240 dias,"Portugal, Leiria, Leiria","Artigo 24.º, n.º 1, alínea e) do Código dos Contratos Públicos","","",,,,Não aplicável.,Não aplicável.,FALSE
Imunoalergologia - Diater Prick - Amoxicilina Sódica 20 mg,Ajuste Direto Regime Geral,Aquisição de bens móveis,"33600000-6, Produtos farmacêuticos","Centro Hospitalar de Leiria, E. P. E. (509822932)",LABORATORIOS DIATER S.A. (500292051),"466,36 €",05-05-2017,02-05-2017,240 dias,"Portugal, Leiria, Leiria","Artigo 24.º, n.º 1, alínea e) do Código dos Contratos Públicos","","",,,,Não aplicável.,Não aplicável.,FALSE
Imunoalergologia - Alergeno Hidroxietilmetacrilato 2%,Ajuste Direto Regime Geral,Aquisição de bens móveis,"33600000-6, Produtos farmacêuticos","Centro Hospitalar de Leiria, E. P. E. (509822932)","BIAL-PORTELA E COMPANHIA, SA (500220913)","48,12 €",05-05-2017,02-05-2017,240 dias,"Portugal, Leiria, Leiria","Artigo 24.º, n.º 1, alínea e) do Código dos Contratos Públicos","","",,,,Não aplicável.,Não aplicável.,FALSE
Imunoalergologia - D.A.P. Determinantes Alerg. Penincilina (Dap) T. Prick,Ajuste Direto Regime Geral,Aquisição de bens móveis,"33600000-6, Produtos farmacêuticos","Centro Hospitalar de Leiria, E. P. E. (509822932)",LABORATORIOS DIATER S.A. (500292051),"466,36 €",05-05-2017,02-05-2017,240 dias,"Portugal, Leiria, Leiria","Artigo 24.º, n.º 1, alínea e) do Código dos Contratos Públicos","","",,,,Não aplicável.,Não aplicável.,FALSE
Imunoalergologia - Kit DAP Clavulanato de potássio,Ajuste Direto Regime Geral,Aquisição de bens móveis,"33600000-6, Produtos farmacêuticos","Centro Hospitalar de Leiria, E. P. E. (509822932)",LABORATORIOS DIATER S.A. (500292051),"466,36 €",05-05-2017,02-05-2017,240 dias,"Portugal, Leiria, Leiria","Artigo 24.º, n.º 1, alínea e) do Código dos Contratos Públicos","","",,,,Não aplicável.,Não aplicável.,FALSE
"1058E17 Medicamento AUE - Levotiroxina 0,5 mg/ml",Ajuste Direto Regime Geral,Aquisição de bens móveis,"33600000-6, Produtos farmacêuticos","Centro Hospitalar de Leiria, E. P. E. (509822932)",IDIS LIMITED (000000000),"140,00 €",04-05-2017,02-05-2017,270 dias,"Portugal, Leiria, Leiria","Artigo 24.º, n.º 1, alínea e) do Código dos Contratos Públicos","","",,,,Não aplicável.,Não aplicável.,FALSE
"1058E17 Medicamento AUE - Metacolina, Cloridrato 100 mg",Ajuste Direto Regime Geral,Aquisição de bens móveis,"33600000-6, Produtos farmacêuticos","Centro Hospitalar de Leiria, E. P. E. (509822932)",LABORATORIOS DIATER S.A. (500292051),"9.902,97 €",04-05-2017,02-05-2017,270 dias,"Portugal, Leiria, Leiria","Artigo 24.º, n.º 1, alínea e) do Código dos Contratos Públicos","","",,,,Não aplicável.,Não aplicável.,FALSE
1116O17 Agregação P259-AC-2017-37 SUNITINIB,Ao abrigo de acordo-quadro (art.º 259.º),Aquisição de bens móveis,"33600000-6, Produtos farmacêuticos","Centro Hospitalar de Leiria, E. P. E. (509822932)","PFIZER BIOFARMACEUTICA, LDA. (513300376)","134.399,63 €",04-05-2017,13-04-2017,270 dias,"Portugal, Leiria, Leiria",Artigo 259.º do Código dos Contratos Públicos,"","",,,,1771819,CP 2015/6 - Acordo quadro para o fornecimento de Medicamentos do Foro Oncológico,FALSE
Equipamento Reabilitação Cardíaca,Ajuste Direto Regime Geral,Aquisição de bens móveis,"33000000-0, Equipamento médico, medicamentos e produtos para cuidados pessoais","Centro Hospitalar de Leiria, E. P. E. (509822932)","Cardio Solutions - Equipamento Médico, Lda (507158865)","42.945,30 €",04-05-2017,03-05-2017,60 dias,"Portugal, Leiria, Leiria","Artigo 20.º, n.º 1, alínea a) do Código dos Contratos Públicos",03-05-2017,"42.945,30 €",,,,Não aplicável.,Não aplicável.,FALSE
Medicamentos usados nas afecções cutâneas,Ao abrigo de acordo-quadro (art.º 259.º),Aquisição de bens móveis,"33600000-6, Produtos farmacêuticos","Centro Hospitalar de Leiria, E. P. E. (509822932)","SANOFI-PRODUTOS FARMACEUTICOS,LDA (500134960)","520,80 €",03-05-2017,01-01-2017,120 dias,"Portugal, Leiria, Leiria",Artigo 259.º do Código dos Contratos Públicos,30-04-2017,"520,80 €",,,,1370278,CP 2015/51 - Acordo quadro para fornecimento de medicamentos usados nas afeções cutâneas às instituições e serviços do serviço nacional de saúde,FALSE
Medicamentos usados nas afecções cutâneas,Ao abrigo de acordo-quadro (art.º 259.º),Aquisição de bens móveis,"33600000-6, Produtos farmacêuticos","Centro Hospitalar de Leiria, E. P. E. (509822932)",OVERPHARMA-PROD.MEDICOS FARMACEUTICOS (505792362),"111,64 €",03-05-2017,01-01-2017,120 dias,"Portugal, Leiria, Leiria",Artigo 259.º do Código dos Contratos Públicos,30-04-2017,"111,64 €",,,,1370278,CP 2015/51 - Acordo quadro para fornecimento de medicamentos usados nas afeções cutâneas às instituições e serviços do serviço nacional de saúde,FALSE
Medicamentos usados nas afecções cutâneas,Ao abrigo de acordo-quadro (art.º 259.º),Aquisição de bens móveis,"33600000-6, Produtos farmacêuticos","Centro Hospitalar de Leiria, E. P. E. (509822932)",SIDEFARMA-SOC.IND.EXPANSAO FARMACEUTICA (500717419),"1.760,00 €",03-05-2017,01-01-2017,120 dias,"Portugal, Leiria, Leiria",Artigo 259.º do Código dos Contratos Públicos,30-04-2017,"1.760,00 €",,,,1370278,CP 2015/51 - Acordo quadro para fornecimento de medicamentos usados nas afeções cutâneas às instituições e serviços do serviço nacional de saúde,FALSE
Medicamentos usados nas afecções cutâneas,Ao abrigo de acordo-quadro (art.º 259.º),Aquisição de bens móveis,"33600000-6, Produtos farmacêuticos","Centro Hospitalar de Leiria, E. P. E. (509822932)",OVERPHARMA-PROD.MEDICOS FARMACEUTICOS (505792362),"209,23 €",03-05-2017,01-01-2017,120 dias,"Portugal, Leiria, Leiria",Artigo 259.º do Código dos Contratos Públicos,30-04-2017,"209,23 €",,,,1370278,CP 2015/51 - Acordo quadro para fornecimento de medicamentos usados nas afeções cutâneas às instituições e serviços do serviço nacional de saúde,FALSE
Medicamentos usados nas afecções cutâneas,Ao abrigo de acordo-quadro (art.º 259.º),Aquisição de bens móveis,"33600000-6, Produtos farmacêuticos","Centro Hospitalar de Leiria, E. P. E. (509822932)",MEDA-PHARMA PROD.FARMACEUTICOS (500082090),"112,50 €",03-05-2017,01-01-2017,120 dias,"Portugal, Leiria, Leiria",Artigo 259.º do Código dos Contratos Públicos,30-04-2017,"112,50 €",,,,1370278,CP 2015/51 - Acordo quadro para fornecimento de medicamentos usados nas afeções cutâneas às instituições e serviços do serviço nacional de saúde,FALSE
Medicamentos usados nas afecções cutâneas,Ao abrigo de acordo-quadro (art.º 259.º),Aquisição de bens móveis,"33600000-6, Produtos farmacêuticos","Centro Hospitalar de Leiria, E. P. E. (509822932)","LABORATORIO MEDINFAR, SA (500384045)","186,96 €",03-05-2017,01-01-2017,120 dias,"Portugal, Leiria, Leiria",Artigo 259.º do Código dos Contratos Públicos,30-04-2017,"186,96 €",,,,1370278,CP 2015/51 - Acordo quadro para fornecimento de medicamentos usados nas afeções cutâneas às instituições e serviços do serviço nacional de saúde,FALSE
Medicamentos usados nas afecções cutâneas,Ao abrigo de acordo-quadro (art.º 259.º),Aquisição de bens móveis,"33600000-6, Produtos farmacêuticos","Centro Hospitalar de Leiria, E. P. E. (509822932)","LABORATORIO EDOL-PROD.FARMACEUTICOS, SA (507072642)","1.021,94 €",03-05-2017,01-01-2017,120 dias,"Portugal, Leiria, Leiria",Artigo 259.º do Código dos Contratos Públicos,30-04-2017,"1.021,94 €",,,,1370278,CP 2015/51 - Acordo quadro para fornecimento de medicamentos usados nas afeções cutâneas às instituições e serviços do serviço nacional de saúde,FALSE
Medicamentos usados nas afecções cutâneas,Ao abrigo de acordo-quadro (art.º 259.º),Aquisição de bens móveis,"33600000-6, Produtos farmacêuticos","Centro Hospitalar de Leiria, E. P. E. (509822932)","LABESFAL-LABORATORIOS ALMIRO, SA (501169580)","275,60 €",03-05-2017,01-01-2017,120 dias,"Portugal, Leiria, Leiria",Artigo 259.º do Código dos Contratos Públicos,30-04-2017,"275,60 €",,,,1370278,CP 2015/51 - Acordo quadro para fornecimento de medicamentos usados nas afeções cutâneas às instituições e serviços do serviço nacional de saúde,FALSE
Medicamentos usados nas afecções cutâneas,Ao abrigo de acordo-quadro (art.º 259.º),Aquisição de bens móveis,"33600000-6, Produtos farmacêuticos","Centro Hospitalar de Leiria, E. P. E. (509822932)","EXPOMEDICA-SOC.EXP.IMPORT.MAT.MED.,LDA (501886621)","120,00 €",03-05-2017,01-01-2017,120 dias,"Portugal, Leiria, Leiria",Artigo 259.º do Código dos Contratos Públicos,30-04-2017,"120,00 €",,,,1370278,CP 2015/51 - Acordo quadro para fornecimento de medicamentos usados nas afeções cutâneas às instituições e serviços do serviço nacional de saúde,FALSE
Medicamentos desertos - posições desertas 1039O17 - Sulfadiazina,Ao abrigo de acordo-quadro (art.º 259.º),Aquisição de bens móveis,"33600000-6, Produtos farmacêuticos","Centro Hospitalar de Leiria, E. P. E. (509822932)","EXPOMEDICA-SOC.EXP.IMPORT.MAT.MED.,LDA (501886621)","600,00 €",03-05-2017,02-05-2017,240 dias,"Portugal, Leiria, Leiria",Artigo 259.º do Código dos Contratos Públicos,"","",,,,1370278,CP 2015/51 - Acordo quadro para fornecimento de medicamentos usados nas afeções cutâneas às instituições e serviços do serviço nacional de saúde,FALSE
