Objeto do Contrato,Tipo de Procedimento,Tipo(s) de Contrato,CPVs,Entidade(s) Adjudicante(s),Entidade(s) Adjudicatária(s),Preço Contratual,Data de Publicação,Data de Celebração do Contrato,Prazo de Execução,Local de Execução,Fundamentação,Data de Fecho do Contrato,Preço Total Efetivo,Causas das Alterações ao Prazo,Causas das Alterações ao Preço,Estado,N.º registo do Acordo Quadro,Descrição do Acordo Quadro,Procedimento Centralizado
1R/03376/17 - DIVERSOS REAGENTES PARA O LAC,Ajuste Direto Regime Geral,Aquisição de bens móveis,"33696500-0, Reagentes de laboratório","Centro Hospitalar Tondela-Viseu, E. P. E. (509822940)","SIEMENS HEALTHCARE, LDA (507925173)","12.119,00 €",02-03-2018,02-01-2018,1 dias,"Portugal, Viseu, Viseu","Artigo 24.º, n.º 1, alínea e), subalínea ii) do Código dos Contratos Públicos",,,,,,Não aplicável.,Não aplicável.,FALSE
1R/00396/18 - MEIOS P/ REALIZAÇÃO DE ANÁLISES CLÍNICAS DE CITOMETRIA DE FLUXO,Ajuste Direto Regime Geral,Aquisição de bens móveis,"33696600-1, Reagentes para electroforese","Centro Hospitalar Tondela-Viseu, E. P. E. (509822940)","Beckman Coulter Portugal Unip., Lda (509035167)","5.500,00 €",02-03-2018,06-02-2018,1 dias,"Portugal, Viseu, Viseu","Artigo 24.º, n.º 1, alínea e), subalínea ii) do Código dos Contratos Públicos",,,,,,Não aplicável.,Não aplicável.,FALSE
1R/00255/18 - MEIOS P/ REALIZAÇÃO DO TESTE DE SUOR,Ajuste Direto Regime Geral,Aquisição de bens móveis,"33696500-0, Reagentes de laboratório","Centro Hospitalar Tondela-Viseu, E. P. E. (509822940)","Werfen Portugal, Lda (501086110)","5.160,34 €",02-03-2018,06-02-2018,1 dias,"Portugal, Viseu, Viseu","Artigo 24.º, n.º 1, alínea e), subalínea ii) do Código dos Contratos Públicos",,,,,,Não aplicável.,Não aplicável.,FALSE
1R/00234/18 - MEIOS P/ REALIZ. DE ANÁL.CLÍN. IMUNOENSAIOS POR QUIMIOLUMINESCÊNCIA,Ajuste Direto Regime Geral,Aquisição de bens móveis,"33696500-0, Reagentes de laboratório","Centro Hospitalar Tondela-Viseu, E. P. E. (509822940)","FARDIOTOP-PROD. SERV. FARM., lDA (508033128)","6.666,75 €",02-03-2018,26-01-2018,1 dias,"Portugal, Viseu, Viseu","Artigo 24.º, n.º 1, alínea e), subalínea ii) do Código dos Contratos Públicos",,,,,,Não aplicável.,Não aplicável.,FALSE
1R/00107/18 - Testes Determin.Grupos Método Microplacas e T.Manuais (1ºTrimestre-2018),Ajuste Direto Regime Geral,Aquisição de bens móveis,"33696100-6, Reagentes para determinação do grupo sanguíneo","Centro Hospitalar Tondela-Viseu, E. P. E. (509822940)","IMMUCOR (PORTUGAL), LDA (503007358)","8.875,06 €",02-03-2018,23-01-2018,1 dias,"Portugal, Viseu, Viseu","Artigo 24.º, n.º 1, alínea e), subalínea ii) do Código dos Contratos Públicos",,,,,,Não aplicável.,Não aplicável.,FALSE
1R/03131/17 - Testes de  Imunohistoquímica realizados no Equipamento Benchmark GX- Roche no 3º Trimestre/17,Ajuste Direto Regime Geral,Aquisição de bens móveis,"33696500-0, Reagentes de laboratório","Centro Hospitalar Tondela-Viseu, E. P. E. (509822940)","Roche Sistemas de Diagnósticos, Soc.Unip., Lda (504282921)","9.639,00 €",02-03-2018,19-12-2017,1 dias,"Portugal, Viseu, Viseu","Artigo 24.º, n.º 1, alínea e) do Código dos Contratos Públicos",,,,,,Não aplicável.,Não aplicável.,FALSE
DIVERSO MATERIAL CLINICO - TROUXAS CIRURGICAS,Ajuste Direto Regime Geral,Aquisição de bens móveis,"33140000-3, Material médico de consumo","Centro Hospitalar Tondela-Viseu, E. P. E. (509822940)",MOLNLYCKE HEALTH CARE (511101066),"23.496,04 €",01-03-2018,22-06-2017,1 dias,"Portugal, Viseu, Viseu","Artigo 20.º, n.º 1, alínea a) do Código dos Contratos Públicos",,,,,,Não aplicável.,Não aplicável.,FALSE
DIVERSO MATERIAL CLINICO - TROUXAS CIRURGICAS,Ajuste Direto Regime Geral,Aquisição de bens móveis,"33140000-3, Material médico de consumo","Centro Hospitalar Tondela-Viseu, E. P. E. (509822940)","BASTOS VIEGAS, SA (500042772)","11.336,78 €",01-03-2018,22-06-2017,1 dias,"Portugal, Viseu, Viseu","Artigo 20.º, n.º 1, alínea a) do Código dos Contratos Públicos",,,,,,Não aplicável.,Não aplicável.,FALSE
DIVERSO MATERIAL CLINICO - ANESTESIOLOGIA (SNDC),Ajuste Direto Regime Geral,Aquisição de bens móveis,"33140000-3, Material médico de consumo","Centro Hospitalar Tondela-Viseu, E. P. E. (509822940)","B.BRAUN MEDICAL, LDA (501506543)","11.733,58 €",01-03-2018,30-11-2017,1 dias,"Portugal, Viseu, Viseu","Artigo 20.º, n.º 1, alínea a) do Código dos Contratos Públicos",,,,,,Não aplicável.,Não aplicável.,FALSE
DIVERSO MATERIAL CLINICO - ANESTESIOLOGIA (SNDC),Ajuste Direto Regime Geral,Aquisição de bens móveis,"33140000-3, Material médico de consumo","Centro Hospitalar Tondela-Viseu, E. P. E. (509822940)",SMITHS MEDICAL (507445937),"5.120,20 €",01-03-2018,12-12-2017,1 dias,"Portugal, Viseu, Viseu","Artigo 20.º, n.º 1, alínea a) do Código dos Contratos Públicos",,,,,,Não aplicável.,Não aplicável.,FALSE
GERADOR CARDIOVERSOR- DESFIBRILHADOR,Ajuste Direto Regime Geral,Aquisição de bens móveis,"33182100-0, Desfibrilhador","Centro Hospitalar Tondela-Viseu, E. P. E. (509822940)","MEDTRONIC PORTUGAL, LDA (504223933)","34.500,00 €",01-03-2018,25-01-2018,120 dias,"Portugal, Viseu, Viseu","Artigo 24.º, n.º 1, alínea c) do Código dos Contratos Públicos",,,,,,Não aplicável.,Não aplicável.,FALSE
DIVERSO MATERIAL CLINICO - ANESTESIOLOGIA (SNDC),Ajuste Direto Regime Geral,Aquisição de bens móveis,"33171110-3, Máscara de anestesia","Centro Hospitalar Tondela-Viseu, E. P. E. (509822940)","IBERDATA EQUIPAMENTOS, SA (501904921)","5.100,00 €",01-03-2018,12-12-2017,1 dias,"Portugal, Viseu, Viseu","Artigo 20.º, n.º 1, alínea a) do Código dos Contratos Públicos",,,,,,Não aplicável.,Não aplicável.,FALSE
DIVERSO MATERIAL CLINICO - ANESTESIOLOGIA (SNDC),Ajuste Direto Regime Geral,Aquisição de bens móveis,"33140000-3, Material médico de consumo","Centro Hospitalar Tondela-Viseu, E. P. E. (509822940)","MEDTRONIC PORTUGAL, LDA (504223933)","6.393,25 €",01-03-2018,12-12-2017,1 dias,"Portugal, Viseu, Viseu","Artigo 20.º, n.º 1, alínea a) do Código dos Contratos Públicos",,,,,,Não aplicável.,Não aplicável.,FALSE
DIVERSO MATERIAL CLINICO - ANESTESIOLOGIA (SNDC),Ajuste Direto Regime Geral,Aquisição de bens móveis,"33140000-3, Material médico de consumo","Centro Hospitalar Tondela-Viseu, E. P. E. (509822940)","INTERSURGICAL PORTUGAL, LDA (503480045)","33.014,35 €",01-03-2018,19-12-2017,1 dias,"Portugal, Viseu, Viseu","Artigo 20.º, n.º 1, alínea a) do Código dos Contratos Públicos",,,,,,Não aplicável.,Não aplicável.,FALSE
DIVERSO MATERIAL CLINICO - LAPAROSCOPIA (SNDC),Ajuste Direto Regime Geral,Aquisição de bens móveis,"33162200-5, Instrumentos para blocos operatórios","Centro Hospitalar Tondela-Viseu, E. P. E. (509822940)","MEDTRONIC PORTUGAL, LDA (504223933)","8.747,00 €",01-03-2018,13-07-2017,1 dias,"Portugal, Viseu, Viseu","Artigo 20.º, n.º 1, alínea a) do Código dos Contratos Públicos",,,,,,Não aplicável.,Não aplicável.,FALSE
DIVERSO MATERIAL CLINICO - LAPAROSCOPIA (SNDC),Ajuste Direto Regime Geral,Aquisição de bens móveis,"33162200-5, Instrumentos para blocos operatórios","Centro Hospitalar Tondela-Viseu, E. P. E. (509822940)","SOCIME II - Produtos Médicos,Lda (504453939)","44.678,40 €",01-03-2018,13-07-2017,1 dias,"Portugal, Viseu, Viseu","Artigo 20.º, n.º 1, alínea a) do Código dos Contratos Públicos",,,,,,Não aplicável.,Não aplicável.,FALSE
DIVERSO MATERIAL CLINICO - LAPAROSCOPIA (SNDC),Ajuste Direto Regime Geral,Aquisição de bens móveis,"33162200-5, Instrumentos para blocos operatórios","Centro Hospitalar Tondela-Viseu, E. P. E. (509822940)",TELEFLEX MEDICAL (980249783),"11.346,72 €",01-03-2018,13-09-2017,120 dias,"Portugal, Viseu, Viseu","Artigo 20.º, n.º 1, alínea a) do Código dos Contratos Públicos",,,,,,Não aplicável.,Não aplicável.,FALSE
INFUSOR PORTATIL DESCARTAVEL,Ajuste Direto Regime Geral,Aquisição de bens móveis,"33140000-3, Material médico de consumo","Centro Hospitalar Tondela-Viseu, E. P. E. (509822940)","MEDICINÁLIA CORMEDICA, LDA (500684324)","9.996,00 €",01-03-2018,02-08-2017,1 dias,"Portugal, Viseu, Viseu","Artigo 20.º, n.º 1, alínea a) do Código dos Contratos Públicos",,,,,,Não aplicável.,Não aplicável.,FALSE
DISPOSITIVO FIXAÇAO REDE POR VIA LAPAROSCOPICA 5MM C/ 25 PINOS ABSORVIVEIS,Ajuste Direto Regime Geral,Aquisição de bens móveis,"33190000-8, Dispositivos e produtos médicos variados","Centro Hospitalar Tondela-Viseu, E. P. E. (509822940)","JOHNSON & JOHNSON, LDA (500153370)","6.000,00 €",01-03-2018,14-09-2017,120 dias,"Portugal, Viseu, Viseu","Artigo 20.º, n.º 1, alínea a) do Código dos Contratos Públicos",,,,,,Não aplicável.,Não aplicável.,FALSE
TUBO FLEXIVEL DESCARTAVEL PARA 2 FRASCOS PARA BOMBA HYSTER.,Ajuste Direto Regime Geral,Aquisição de bens móveis,"33141600-6, Tubos e sacos de drenagem e respectivos kits","Centro Hospitalar Tondela-Viseu, E. P. E. (509822940)",GRUPO TAPER (trnansfer. LusoPalex) (506886336),"7.758,00 €",01-03-2018,14-09-2017,365 dias,"Portugal, Viseu, Viseu","Artigo 24.º, n.º 1, alínea e) do Código dos Contratos Públicos",,,,,,Não aplicável.,Não aplicável.,FALSE
ELETRODO CORNETOS / ELETRODO PALATOS,Ajuste Direto Regime Geral,Aquisição de bens móveis,"33162200-5, Instrumentos para blocos operatórios","Centro Hospitalar Tondela-Viseu, E. P. E. (509822940)",Olympus Iberia.S.A.U. (980474710),"8.250,00 €",01-03-2018,04-10-2017,365 dias,"Portugal, Viseu, Viseu","Artigo 20.º, n.º 1, alínea a) do Código dos Contratos Públicos",,,,,,Não aplicável.,Não aplicável.,FALSE
GERADOR 1 CAMARA C/ E S/ ADAPTAÇÃO FREQUÊNCIA  S/ ELECTRODO,Ajuste Direto Regime Geral,Aquisição de bens móveis,"33182100-0, Desfibrilhador","Centro Hospitalar Tondela-Viseu, E. P. E. (509822940)","MEDTRONIC PORTUGAL, LDA (504223933)","31.400,00 €",01-03-2018,16-02-2018,120 dias,"Portugal, Viseu, Viseu","Artigo 24.º, n.º 1, alínea c) do Código dos Contratos Públicos",,,,,,Não aplicável.,Não aplicável.,FALSE
ENDOPROTESE (STENT) BILIAR METALICA AUTO EXPANSIVA N/COBERTA,Ajuste Direto Regime Geral,Aquisição de bens móveis,"33184000-3, Próteses","Centro Hospitalar Tondela-Viseu, E. P. E. (509822940)",BOSTON  SCIENTIFIC  PORTUGAL -DISPOSITIVOS MÉDICOS (504988964),"6.230,00 €",01-03-2018,04-10-2017,120 dias,"Portugal, Viseu, Viseu","Artigo 20.º, n.º 1, alínea a) do Código dos Contratos Públicos",,,,,,Não aplicável.,Não aplicável.,FALSE
PROTESE PANCREATICA (VÁRIOS TAMANHOS),Ajuste Direto Regime Geral,Aquisição de bens móveis,"33184000-3, Próteses","Centro Hospitalar Tondela-Viseu, E. P. E. (509822940)",BOSTON  SCIENTIFIC  PORTUGAL -DISPOSITIVOS MÉDICOS (504988964),"5.500,00 €",01-03-2018,04-10-2017,365 dias,"Portugal, Viseu, Viseu","Artigo 20.º, n.º 1, alínea a) do Código dos Contratos Públicos",,,,,,Não aplicável.,Não aplicável.,FALSE
CLIP HEMOSTATICO LONGO DESCARTAVEL ROTATIVO,Ajuste Direto Regime Geral,Aquisição de bens móveis,"33141120-7, Clipes, suturas, ligaduras","Centro Hospitalar Tondela-Viseu, E. P. E. (509822940)","ALVES & CIA (IRMAOS), LDA (500310068)","9.750,00 €",01-03-2018,29-09-2017,1 dias,"Portugal, Viseu, Viseu","Artigo 20.º, n.º 1, alínea a) do Código dos Contratos Públicos",,,,,,Não aplicável.,Não aplicável.,FALSE
KIT TUBOS CUSA EXCEL PEÇA MÃO,Ajuste Direto Regime Geral,Aquisição de bens móveis,"33000000-0, Equipamento médico, medicamentos e produtos para cuidados pessoais","Centro Hospitalar Tondela-Viseu, E. P. E. (509822940)","SOCIME II - Produtos Médicos,Lda (504453939)","6.840,00 €",01-03-2018,17-02-2017,365 dias,"Portugal, Viseu, Viseu","Artigo 20.º, n.º 1, alínea a) do Código dos Contratos Públicos",,,,,,Não aplicável.,Não aplicável.,FALSE
GERADOR PARA ESTIMULAÇÃO 1 CAMARA SENSING,Ajuste Direto Regime Geral,Aquisição de bens móveis,"33182100-0, Desfibrilhador","Centro Hospitalar Tondela-Viseu, E. P. E. (509822940)","MEDTRONIC PORTUGAL, LDA (504223933)","6.240,00 €",01-03-2018,16-02-2018,120 dias,"Portugal, Viseu, Viseu","Artigo 24.º, n.º 1, alínea c) do Código dos Contratos Públicos",,,,,,Não aplicável.,Não aplicável.,FALSE
PRODUTOS FARMACEUTICOS DE IMPORTAÇÃO - 2018,Concurso público,Aquisição de bens móveis,"33000000-0, Equipamento médico, medicamentos e produtos para cuidados pessoais","Centro Hospitalar Tondela-Viseu, E. P. E. (509822940)",DUXPHARMA UNIPESSOAL LDA. (510803679),"82.424,01 €",01-03-2018,19-02-2018,360 dias,"Portugal, Viseu, Viseu",Artigo 28.º do Código dos Contratos Públicos,,,,,,Não aplicável.,Não aplicável.,FALSE
AQUISIÇÃO DE OBINUTUZUMAB 1000MG FRS INJ,Ajuste Direto Regime Geral,Aquisição de bens móveis,"33600000-6, Produtos farmacêuticos","Centro Hospitalar Tondela-Viseu, E. P. E. (509822940)","ROCHE FARMACEUTICA QUIMICA, LDA (500233810)","25.815,36 €",01-03-2018,23-01-2018,1 dias,"Portugal, Viseu, Viseu","Artigo 24.º, n.º 1, alínea e), subalínea iii) do Código dos Contratos Públicos",,,,,,Não aplicável.,Não aplicável.,FALSE
KIT DE TUBOS CUSA EXCEL PEÇA DE MÃO 36KHZ (CX. 6 UNIDADES),Ajuste Direto Regime Geral,Aquisição de bens móveis,"33000000-0, Equipamento médico, medicamentos e produtos para cuidados pessoais","Centro Hospitalar Tondela-Viseu, E. P. E. (509822940)","SOCIME II - Produtos Médicos,Lda (504453939)","7.980,00 €",01-03-2018,27-10-2017,365 dias,"Portugal, Viseu, Viseu","Artigo 24.º, n.º 1, alínea e) do Código dos Contratos Públicos",,,,,,Não aplicável.,Não aplicável.,FALSE
AQUISIÇÃO DE ELTROMBOPAG 75MG COMP,Ajuste Direto Regime Geral,Aquisição de bens móveis,"33600000-6, Produtos farmacêuticos","Centro Hospitalar Tondela-Viseu, E. P. E. (509822940)",NOVARTIS FARMA (500063524),"29.910,84 €",01-03-2018,23-01-2018,1 dias,"Portugal, Viseu, Viseu","Artigo 24.º, n.º 1, alínea e), subalínea iii) do Código dos Contratos Públicos",,,,,,Não aplicável.,Não aplicável.,FALSE
REGISTADOR EVENTO (HOLTER) IMPLANTAVEL (SNDC),Ajuste Direto Regime Geral,Aquisição de bens móveis,"33000000-0, Equipamento médico, medicamentos e produtos para cuidados pessoais","Centro Hospitalar Tondela-Viseu, E. P. E. (509822940)","MEDTRONIC PORTUGAL, LDA (504223933)","30.000,00 €",01-03-2018,14-11-2017,1 dias,"Portugal, Viseu, Viseu","Artigo 20.º, n.º 1, alínea a) do Código dos Contratos Públicos",,,,,,Não aplicável.,Não aplicável.,FALSE
FIBRA OTICA PARA LASER (LITOTRICIA),Ajuste Direto Regime Geral,Aquisição de bens móveis,"33169100-3, Laser cirúrgico","Centro Hospitalar Tondela-Viseu, E. P. E. (509822940)",BOSTON  SCIENTIFIC  PORTUGAL -DISPOSITIVOS MÉDICOS (504988964),"9.890,00 €",01-03-2018,27-06-2017,180 dias,"Portugal, Viseu, Viseu","Artigo 24.º, n.º 1, alínea e) do Código dos Contratos Públicos",,,,,,Não aplicável.,Não aplicável.,FALSE
AQUISIÇÃO DE ADALIMUMAB 80MG CANETA 0.8 ML,Ajuste Direto Regime Geral,Aquisição de bens móveis,"33600000-6, Produtos farmacêuticos","Centro Hospitalar Tondela-Viseu, E. P. E. (509822940)","ABBVIE, LDA (510229050)","15.144,20 €",01-03-2018,12-01-2018,1 dias,"Portugal, Viseu, Viseu","Artigo 24.º, n.º 1, alínea e), subalínea iii) do Código dos Contratos Públicos",,,,,,Não aplicável.,Não aplicável.,FALSE
ENDOPROTESE (STENT) BILIAR METALICA  AUTO EXPANSIVA,Ajuste Direto Regime Geral,Aquisição de bens móveis,"33184000-3, Próteses","Centro Hospitalar Tondela-Viseu, E. P. E. (509822940)",BOSTON  SCIENTIFIC  PORTUGAL -DISPOSITIVOS MÉDICOS (504988964),"9.790,00 €",01-03-2018,23-02-2017,90 dias,"Portugal, Viseu, Viseu","Artigo 20.º, n.º 1, alínea a) do Código dos Contratos Públicos",,,,,,Não aplicável.,Não aplicável.,FALSE
"AQUISIÇÃO DE ACIDO PERACETICO 11,5% (MAQ. WASSENBURG ENDOSCOPIOS) PAA (5L) EMB",Ajuste Direto Regime Geral,Aquisição de bens móveis,"33600000-6, Produtos farmacêuticos","Centro Hospitalar Tondela-Viseu, E. P. E. (509822940)",SISTEMAS INTEGRALES DE LA MEDICINA S.A. (980488842),"9.531,00 €",01-03-2018,23-01-2018,1 dias,"Portugal, Viseu, Viseu","Artigo 24.º, n.º 1, alínea e), subalínea ii) do Código dos Contratos Públicos",,,,,,Não aplicável.,Não aplicável.,FALSE
AQUISIÇÃO DE MIFEPRISTONA 200MG COMP,Ajuste Direto Regime Geral,Aquisição de bens móveis,"33600000-6, Produtos farmacêuticos","Centro Hospitalar Tondela-Viseu, E. P. E. (509822940)",DISTRIFARMA-CIA DIST.FARMAC. (502948663),"6.480,00 €",28-02-2018,21-02-2018,1 dias,"Portugal, Viseu, Viseu","Artigo 24.º, n.º 1, alínea a) do Código dos Contratos Públicos",,,,,,Não aplicável.,Não aplicável.,FALSE
GERADOR DUPLA  CAMARA COM E SEM ADAPTAÇÃO,Ajuste Direto Regime Geral,Aquisição de bens móveis,"33182100-0, Desfibrilhador","Centro Hospitalar Tondela-Viseu, E. P. E. (509822940)","MEDTRONIC PORTUGAL, LDA (504223933)","70.800,00 €",28-02-2018,02-02-2018,120 dias,"Portugal, Viseu, Viseu","Artigo 24.º, n.º 1, alínea c) do Código dos Contratos Públicos",,,,,,Não aplicável.,Não aplicável.,FALSE
DIVERSO MATERIAL CLÍNICO - ESPAÇADORES INTERSOMATICOS CERVICAIS (ESPAÇADOR CERVICAL),Ajuste Direto Regime Geral,Aquisição de bens móveis,"33183000-6, Material de assistência ortopédica","Centro Hospitalar Tondela-Viseu, E. P. E. (509822940)",EUROSINTESE-MAT.MED. HOSPIT. (503491403),"15.000,00 €",28-02-2018,09-02-2018,90 dias,"Portugal, Viseu, Viseu","Artigo 20.º, n.º 1, alínea d) do Código dos Contratos Públicos",,,,,,Não aplicável.,Não aplicável.,FALSE
MEDICAMENTOS CPA 2014/005 FU,Ao abrigo de acordo-quadro (art.º 259.º),Aquisição de bens móveis,"33600000-6, Produtos farmacêuticos","Centro Hospitalar Tondela-Viseu, E. P. E. (509822940)",LABESFAL-LAB.ESP.FARM.ALMIRO (501169580),"59.066,48 €",28-02-2018,02-02-2018,1 dias,"Portugal, Viseu, Viseu",Artigo 259.º do Código dos Contratos Públicos,,,,,,1326195,ACORDO QUADRO PARA FORNECIMENTO DE MEDICAMENTOS ANTI-INFECIOSOS: EXCETO ANTIVÍRICOS E ANTIFÚNGICOS ÀS INSTITUIÇÕES E SERVIÇOS DO SERVIÇO NACIONAL DE SAÚDE,FALSE
SENSOR CEREBRAL ADULTO,Ajuste Direto Regime Geral,Aquisição de bens móveis,"33140000-3, Material médico de consumo","Centro Hospitalar Tondela-Viseu, E. P. E. (509822940)","MEDTRONIC PORTUGAL, LDA (504223933)","8.000,00 €",28-02-2018,05-02-2018,365 dias,"Portugal, Viseu, Viseu","Artigo 24.º, n.º 1, alínea e), subalínea i) do Código dos Contratos Públicos",,,,,,Não aplicável.,Não aplicável.,FALSE
PINÇA CORTE/SELAGEM VASOS (LAPAROSCOPIA),Ajuste Direto Regime Geral,Aquisição de bens móveis,"33169000-2, Material cirúrgico","Centro Hospitalar Tondela-Viseu, E. P. E. (509822940)","MEDTRONIC PORTUGAL, LDA (504223933)","8.160,00 €",28-02-2018,20-03-2017,60 dias,"Portugal, Viseu, Viseu","Artigo 20.º, n.º 1, alínea a) do Código dos Contratos Públicos",,,,,,Não aplicável.,Não aplicável.,FALSE
DIVERSO MATERIAL CLINICO DE NEUROCIRURGIA,Ajuste Direto Regime Geral,Aquisição de bens móveis,"33140000-3, Material médico de consumo","Centro Hospitalar Tondela-Viseu, E. P. E. (509822940)","MEDTRONIC PORTUGAL, LDA (504223933)","5.450,00 €",28-02-2018,16-03-2017,1 dias,"Portugal, Viseu, Viseu","Artigo 20.º, n.º 1, alínea a) do Código dos Contratos Públicos",,,,,,Não aplicável.,Não aplicável.,FALSE
PROTESE PARA TRATAMENTO ANEURISMA DA AORTA ABDOMINAL,Ajuste Direto Regime Geral,Aquisição de bens móveis,"33184300-6, Próteses cardíacas","Centro Hospitalar Tondela-Viseu, E. P. E. (509822940)","MEDTRONIC PORTUGAL, LDA (504223933)","7.650,00 €",28-02-2018,16-03-2017,1 dias,"Portugal, Viseu, Viseu","Artigo 20.º, n.º 1, alínea a) do Código dos Contratos Públicos",,,,,,Não aplicável.,Não aplicável.,FALSE
PROTESE PARA TRATAMENTO ANEURISMA DA AORTA ABDOMINAL,Ajuste Direto Regime Geral,Aquisição de bens móveis,"33184300-6, Próteses cardíacas","Centro Hospitalar Tondela-Viseu, E. P. E. (509822940)","MEDTRONIC PORTUGAL, LDA (504223933)","7.650,00 €",28-02-2018,08-03-2017,1 dias,"Portugal, Viseu, Viseu","Artigo 20.º, n.º 1, alínea a) do Código dos Contratos Públicos",,,,,,Não aplicável.,Não aplicável.,FALSE
PROTESE ESFINTER URINARIO ARTIFICIAL COM INHIBIZONE,Ajuste Direto Regime Geral,Aquisição de bens móveis,"33184000-3, Próteses","Centro Hospitalar Tondela-Viseu, E. P. E. (509822940)",BOSTON  SCIENTIFIC  PORTUGAL -DISPOSITIVOS MÉDICOS (504988964),"7.500,00 €",28-02-2018,14-02-2017,1 dias,"Portugal, Viseu, Viseu","Artigo 20.º, n.º 1, alínea a) do Código dos Contratos Públicos",,,,,,Não aplicável.,Não aplicável.,FALSE
MATERIAL APLICADO - REVISÃO JOELHO,Ajuste Direto Regime Geral,Aquisição de bens móveis,"33183200-8, Próteses ortopédicas","Centro Hospitalar Tondela-Viseu, E. P. E. (509822940)",STRYKER PORTUGAL-PROD.M.UNIP.L (974913863),"7.040,00 €",28-02-2018,31-03-2017,1 dias,"Portugal, Viseu, Viseu","Artigo 20.º, n.º 1, alínea a) do Código dos Contratos Públicos",,,,,,Não aplicável.,Não aplicável.,FALSE
SISTEMA ADMINISTRAÇÃO SORO COM AREJADOR INCORPORADO E FILTRO,Ajuste Direto Regime Geral,Aquisição de bens móveis,"33140000-3, Material médico de consumo","Centro Hospitalar Tondela-Viseu, E. P. E. (509822940)",CAREFUSION PORTUGAL(trans. p/ BD (503898554),"8.460,00 €",28-02-2018,26-05-2017,1 dias,"Portugal, Viseu, Viseu","Artigo 20.º, n.º 1, alínea a) do Código dos Contratos Públicos",,,,,,Não aplicável.,Não aplicável.,FALSE
SISTEMA ADMINISTRAÇÃO SORO COM AREJADOR INCORPORADO E FILTRO,Ajuste Direto Regime Geral,Aquisição de bens móveis,"33140000-3, Material médico de consumo","Centro Hospitalar Tondela-Viseu, E. P. E. (509822940)",CAREFUSION PORTUGAL(trans. p/ BD (503898554),"14.100,00 €",28-02-2018,28-07-2017,120 dias,"Portugal, Viseu, Viseu","Artigo 20.º, n.º 1, alínea a) do Código dos Contratos Públicos",,,,,,Não aplicável.,Não aplicável.,FALSE
TUBO VACUO,Ajuste Direto Regime Geral,Aquisição de bens móveis,"33169000-2, Material cirúrgico","Centro Hospitalar Tondela-Viseu, E. P. E. (509822940)",SARSTEDT S.A. (502659955),"9.984,00 €",28-02-2018,14-02-2017,180 dias,"Portugal, Viseu, Viseu","Artigo 24.º, n.º 1, alínea e) do Código dos Contratos Públicos",,,,,,Não aplicável.,Não aplicável.,FALSE
LENTE MONOBLOCO ACRILICA HIDROFOBICA C/FILTRO(OPTICA 6MM COMP.TOTAL13MM),Ajuste Direto Regime Geral,Aquisição de bens móveis,"33731110-7, Lentes intraoculares","Centro Hospitalar Tondela-Viseu, E. P. E. (509822940)",ALCON PORTUGAL-PROD.EQUIP.OFTL (501251685),"32.400,00 €",27-02-2018,15-09-2017,90 dias,"Portugal, Viseu, Viseu","Artigo 20.º, n.º 1, alínea a) do Código dos Contratos Públicos",,,,,,Não aplicável.,Não aplicável.,FALSE
DIVERSO MATERIAL CLINICO - COLHEITA DE SANGUE (SISTEMA POR ASPIRAÇÃO) (SNDC),Ajuste Direto Regime Geral,Aquisição de bens móveis,"33140000-3, Material médico de consumo","Centro Hospitalar Tondela-Viseu, E. P. E. (509822940)",SARSTEDT S.A. (502659955),"48.518,65 €",27-02-2018,14-08-2017,120 dias,"Portugal, Viseu, Viseu","Artigo 20.º, n.º 1, alínea a) do Código dos Contratos Públicos",,,,,,Não aplicável.,Não aplicável.,FALSE
IMPLANTE AUDITIVO ANCORADO NO OSSO (BAHA) 55 DB,Ajuste Direto Regime Geral,Aquisição de bens móveis,"33185300-3, Implante para otorrinolaringologia","Centro Hospitalar Tondela-Viseu, E. P. E. (509822940)","Coselgi Portugal, SA (509230598)","7.699,05 €",27-02-2018,27-07-2017,1 dias,"Portugal, Viseu, Viseu","Artigo 20.º, n.º 1, alínea a) do Código dos Contratos Públicos",,,,,,Não aplicável.,Não aplicável.,FALSE
ELETRODOS PRASS EMPARELHADO C/ PEQUENO APOIO,Ajuste Direto Regime Geral,Aquisição de bens móveis,"33000000-0, Equipamento médico, medicamentos e produtos para cuidados pessoais","Centro Hospitalar Tondela-Viseu, E. P. E. (509822940)","MEDTRONIC PORTUGAL, LDA (504223933)","5.295,00 €",27-02-2018,21-08-2017,1 dias,"Portugal, Viseu, Viseu","Artigo 24.º, n.º 1, alínea e) do Código dos Contratos Públicos",,,,,,Não aplicável.,Não aplicável.,FALSE
LUVA EXAME EM NITRILO (SNDC),Ajuste Direto Regime Geral,Aquisição de bens móveis,"33141420-0, Luvas para cirurgia","Centro Hospitalar Tondela-Viseu, E. P. E. (509822940)","Docworld, Lda (508592909)","57.657,60 €",27-02-2018,04-08-2017,120 dias,"Portugal, Viseu, Viseu","Artigo 20.º, n.º 1, alínea a) do Código dos Contratos Públicos",,,,,,Não aplicável.,Não aplicável.,FALSE
SET TUBOS HISTEROSCOPIA COM LIGAÇÃO A ASPIRAÇÃO,Ajuste Direto Regime Geral,Aquisição de bens móveis,"33000000-0, Equipamento médico, medicamentos e produtos para cuidados pessoais","Centro Hospitalar Tondela-Viseu, E. P. E. (509822940)","FILSAT-EQUIP.MEDICO-CIENT.,LDA (506708616)","6.000,00 €",27-02-2018,18-08-2017,150 dias,"Portugal, Viseu, Viseu","Artigo 24.º, n.º 1, alínea e) do Código dos Contratos Públicos",,,,,,Não aplicável.,Não aplicável.,FALSE
PROTESE FONATORIA DE IMPLANTAÇÃO PÓS- CIRURGICA,Ajuste Direto Regime Geral,Aquisição de bens móveis,"33185300-3, Implante para otorrinolaringologia","Centro Hospitalar Tondela-Viseu, E. P. E. (509822940)",Atos Medical (980435978),"6.500,00 €",27-02-2018,02-08-2017,150 dias,"Portugal, Viseu, Viseu","Artigo 20.º, n.º 1, alínea a) do Código dos Contratos Públicos",,,,,,Não aplicável.,Não aplicável.,FALSE
CONSUMIVEIS P/ MANUTENÇÃO DO TRATAMENTO DE DOENTES C/DIABETES,Ajuste Direto Regime Geral,Aquisição de bens móveis,"33000000-0, Equipamento médico, medicamentos e produtos para cuidados pessoais","Centro Hospitalar Tondela-Viseu, E. P. E. (509822940)",ROCHE DIAGNOSTICOS (504282921),"9.010,00 €",27-02-2018,21-08-2017,1 dias,"Portugal, Viseu, Viseu","Artigo 24.º, n.º 1, alínea e) do Código dos Contratos Públicos",,,,,,Não aplicável.,Não aplicável.,FALSE
CLAMP PARA CRANIO ESTERILIZADO DIA. 11MM EM TITANIO,Ajuste Direto Regime Geral,Aquisição de bens móveis,"33169000-2, Material cirúrgico","Centro Hospitalar Tondela-Viseu, E. P. E. (509822940)","B.BRAUN MEDICAL, LDA (501506543)","7.140,00 €",27-02-2018,15-09-2017,150 dias,"Portugal, Viseu, Viseu","Artigo 24.º, n.º 1, alínea e) do Código dos Contratos Públicos",,,,,,Não aplicável.,Não aplicável.,FALSE
FRASCO COLHEITA SOLUÇÃO ASPIRATIVA DE AGULHA,Ajuste Direto Regime Geral,Aquisição de bens móveis,"33141000-0, Material médico não químico descartável e produtos hematológicos","Centro Hospitalar Tondela-Viseu, E. P. E. (509822940)",BIOPORTUGAL-QUIMICA FARMACEU (502380543),"6.600,00 €",27-02-2018,15-09-2017,120 dias,"Portugal, Viseu, Viseu","Artigo 20.º, n.º 1, alínea a) do Código dos Contratos Públicos",,,,,,Não aplicável.,Não aplicável.,FALSE
COMPRESSA NÃO TECIDO  N/ ESTERILIZADA,Ajuste Direto Regime Geral,Aquisição de bens móveis,"33141119-7, Compressas","Centro Hospitalar Tondela-Viseu, E. P. E. (509822940)","ALBINO DIAS DE ANDRADE, LDA (500013810)","6.120,00 €",27-02-2018,06-10-2017,1 dias,"Portugal, Viseu, Viseu","Artigo 20.º, n.º 1, alínea a) do Código dos Contratos Públicos",,,,,,Não aplicável.,Não aplicável.,FALSE
GERADOR CARDIOVVERSOR-DESFIBRILHADOR IMPLANTAVEL,Ajuste Direto Regime Geral,Aquisição de bens móveis,"33182100-0, Desfibrilhador","Centro Hospitalar Tondela-Viseu, E. P. E. (509822940)","BIOTRONIK PORTUGAL, UNIPESSOAL LDA. (510726941)","9.000,00 €",27-02-2018,20-07-2017,1 dias,"Portugal, Viseu, Viseu","Artigo 20.º, n.º 1, alínea a) do Código dos Contratos Públicos",,,,,,Não aplicável.,Não aplicável.,FALSE
GERADOR CARDIOVASCULAR-DESFIBRILHADOR IMPLANTAVEL,Ajuste Direto Regime Geral,Aquisição de bens móveis,"33182100-0, Desfibrilhador","Centro Hospitalar Tondela-Viseu, E. P. E. (509822940)","BIOTRONIK PORTUGAL, UNIPESSOAL LDA. (510726941)","9.000,00 €",27-02-2018,20-07-2017,1 dias,"Portugal, Viseu, Viseu","Artigo 20.º, n.º 1, alínea a) do Código dos Contratos Públicos",,,,,,Não aplicável.,Não aplicável.,FALSE
GERADOR CARDIOVERSOR-DESFIBRILHADOR IMPLANTAVEL,Ajuste Direto Regime Geral,Aquisição de bens móveis,"33182100-0, Desfibrilhador","Centro Hospitalar Tondela-Viseu, E. P. E. (509822940)","BIOTRONIK PORTUGAL, UNIPESSOAL LDA. (510726941)","12.750,00 €",27-02-2018,15-09-2017,1 dias,"Portugal, Viseu, Viseu","Artigo 20.º, n.º 1, alínea a) do Código dos Contratos Públicos",,,,,,Não aplicável.,Não aplicável.,FALSE
SACO URINA ESVAZIAMENTO NÃO ESTERIL.,Ajuste Direto Regime Geral,Aquisição de bens móveis,"33141615-4, Sacos para urina","Centro Hospitalar Tondela-Viseu, E. P. E. (509822940)","ANASTACIO SALDANHA-UNIP.,LDA (505804441)","9.950,00 €",27-02-2018,28-03-2017,180 dias,"Portugal, Viseu, Viseu","Artigo 20.º, n.º 1, alínea a) do Código dos Contratos Públicos",,,,,,Não aplicável.,Não aplicável.,FALSE
CATETER BALÃO NÃO COMPLACENTE  SEM FARMACO PARA  A C T P,Ajuste Direto Regime Geral,Aquisição de bens móveis,"33141210-5, Cateteres de balão","Centro Hospitalar Tondela-Viseu, E. P. E. (509822940)","MEDTRONIC PORTUGAL, LDA (504223933)","9.800,00 €",27-02-2018,20-02-2017,1 dias,"Portugal, Viseu, Viseu","Artigo 20.º, n.º 1, alínea a) do Código dos Contratos Públicos",,,,,,Não aplicável.,Não aplicável.,FALSE
SERINGA COM SILICONE MACROPLASTIQUE,Ajuste Direto Regime Geral,Aquisição de bens móveis,"33141310-6, Seringas","Centro Hospitalar Tondela-Viseu, E. P. E. (509822940)","LUSO PALEX, LDA (503531588)","7.200,00 €",27-02-2018,15-03-2017,1 dias,"Portugal, Viseu, Viseu","Artigo 20.º, n.º 1, alínea a) do Código dos Contratos Públicos",,,,,,Não aplicável.,Não aplicável.,FALSE
KIT DISPOSITIVO P/ DIALISE PERITONEAL AUTOMÁTICA,Ajuste Direto Regime Geral,Aquisição de bens móveis,"33181520-3, Produtos de consumo para hemodiálise renal","Centro Hospitalar Tondela-Viseu, E. P. E. (509822940)","FRESENIUS MEDICAL CARE PORTUGAL, SA (503070220)","7.949,76 €",27-02-2018,20-02-2017,365 dias,"Portugal, Viseu, Viseu","Artigo 20.º, n.º 1, alínea a) do Código dos Contratos Públicos",,,,,,Não aplicável.,Não aplicável.,FALSE
TROCAR PARA LAPAROSCOPIA,Ajuste Direto Regime Geral,Aquisição de bens móveis,"33698000-9, Produtos para fins clínicos","Centro Hospitalar Tondela-Viseu, E. P. E. (509822940)","SOCIME II - Produtos Médicos,Lda (504453939)","9.850,00 €",27-02-2018,15-02-2017,120 dias,"Portugal, Viseu, Viseu","Artigo 20.º, n.º 1, alínea a) do Código dos Contratos Públicos",,,,,,Não aplicável.,Não aplicável.,FALSE
SISTEMA FECHADO P/ MEDIÇÃO DIURESE,Ajuste Direto Regime Geral,Aquisição de bens móveis,"33141600-6, Tubos e sacos de drenagem e respectivos kits","Centro Hospitalar Tondela-Viseu, E. P. E. (509822940)","AVIQUIMICA-IMP.E MANUFACT.,L (500039720)","9.945,00 €",27-02-2018,14-02-2017,150 dias,"Portugal, Viseu, Viseu","Artigo 20.º, n.º 1, alínea a) do Código dos Contratos Públicos",,,,,,Não aplicável.,Não aplicável.,FALSE
CATETER BALÃO NÃO COMPLACENTE  SEM FARMACO PARA  A C T P,Ajuste Direto Regime Geral,Aquisição de bens móveis,"33141210-5, Cateteres de balão","Centro Hospitalar Tondela-Viseu, E. P. E. (509822940)","MEDTRONIC PORTUGAL, LDA (504223933)","9.800,00 €",27-02-2018,10-02-2017,120 dias,"Portugal, Viseu, Viseu","Artigo 20.º, n.º 1, alínea a) do Código dos Contratos Públicos",,,,,,Não aplicável.,Não aplicável.,FALSE
PROTESE VASCULAR ANELADA PTFE,Ajuste Direto Regime Geral,Aquisição de bens móveis,"33184200-5, Próteses vasculares","Centro Hospitalar Tondela-Viseu, E. P. E. (509822940)","MEDICINÁLIA CORMEDICA, LDA (500684324)","6.916,00 €",27-02-2018,21-08-2017,90 dias,"Portugal, Viseu, Viseu","Artigo 20.º, n.º 1, alínea a) do Código dos Contratos Públicos",,,,,,Não aplicável.,Não aplicável.,FALSE
SISTEME FECHADO P/ MEDIÇÃO DIURESE HORARIA,Ajuste Direto Regime Geral,Aquisição de bens móveis,"33141600-6, Tubos e sacos de drenagem e respectivos kits","Centro Hospitalar Tondela-Viseu, E. P. E. (509822940)","AVIQUIMICA-IMP.E MANUFACT.,L (500039720)","9.945,00 €",27-02-2018,12-07-2017,120 dias,"Portugal, Viseu, Viseu","Artigo 20.º, n.º 1, alínea a) do Código dos Contratos Públicos",,,,,,Não aplicável.,Não aplicável.,FALSE
AGRAFADOR CIRCULAR CURVO C/ CABEÇA,Ajuste Direto Regime Geral,Aquisição de bens móveis,"33141121-4, Suturas cirúrgicas","Centro Hospitalar Tondela-Viseu, E. P. E. (509822940)","MEDTRONIC PORTUGAL, LDA (504223933)","7.440,00 €",27-02-2018,12-07-2017,180 dias,"Portugal, Viseu, Viseu","Artigo 20.º, n.º 1, alínea a) do Código dos Contratos Públicos",,,,,,Não aplicável.,Não aplicável.,FALSE
INTRODUTOR RADIAL  COM GUIA HIDROFILA,Ajuste Direto Regime Geral,Aquisição de bens móveis,"33124130-5, Material para diagnóstico","Centro Hospitalar Tondela-Viseu, E. P. E. (509822940)",Terumo Europe Espanha SL. -Del. Portugal (980472024),"5.100,00 €",27-02-2018,30-07-2017,1 dias,"Portugal, Viseu, Viseu","Artigo 20.º, n.º 1, alínea a) do Código dos Contratos Públicos",,,,,,Não aplicável.,Não aplicável.,FALSE
REDE D. FACE POLIPROP/HIDROGEL VIA ABERTA C/ANEL MEMÓRIA,Ajuste Direto Regime Geral,Aquisição de bens móveis,"33184100-4, Implantes cirúrgicos","Centro Hospitalar Tondela-Viseu, E. P. E. (509822940)","C.R. BARD PORTUGAL, LDA. (502438274)","6.320,00 €",27-02-2018,27-03-2017,120 dias,"Portugal, Viseu, Viseu","Artigo 20.º, n.º 1, alínea a) do Código dos Contratos Públicos",,,,,,Não aplicável.,Não aplicável.,FALSE
SENSOR MEDIÇÃO CONSCIENCIA DO DOENTE,Ajuste Direto Regime Geral,Aquisição de bens móveis,"33140000-3, Material médico de consumo","Centro Hospitalar Tondela-Viseu, E. P. E. (509822940)","MEDTRONIC PORTUGAL, LDA (504223933)","9.600,00 €",27-02-2018,23-03-2017,150 dias,"Portugal, Viseu, Viseu","Artigo 24.º, n.º 1, alínea e) do Código dos Contratos Públicos",,,,,,Não aplicável.,Não aplicável.,FALSE
DRENO PARA GLAUCOMA COM INJETOR,Ajuste Direto Regime Geral,Aquisição de bens móveis,"33141640-8, Drenos","Centro Hospitalar Tondela-Viseu, E. P. E. (509822940)",PROFARIN-DIST.PROD.FARM.IND. (500223238),"9.900,00 €",27-02-2018,12-07-2017,365 dias,"Portugal, Viseu, Viseu","Artigo 20.º, n.º 1, alínea a) do Código dos Contratos Públicos",,,,,,Não aplicável.,Não aplicável.,FALSE
LENTE MONOBLOCO ACRILICA HIDROFOBICA C/FILTRO(OPTICA 6MM COMP.TOTAL13MM),Ajuste Direto Regime Geral,Aquisição de bens móveis,"33731110-7, Lentes intraoculares","Centro Hospitalar Tondela-Viseu, E. P. E. (509822940)",ALCON PORTUGAL-PROD.EQUIP.OFTL (501251685),"37.800,00 €",27-02-2018,05-04-2017,90 dias,"Portugal, Viseu, Viseu","Artigo 24.º, n.º 1, alínea e) do Código dos Contratos Públicos",,,,,,Não aplicável.,Não aplicável.,FALSE
CAPSULA DE OBSERVAÇÃO DO INTESTINO DELGADO,Ajuste Direto Regime Geral,Aquisição de bens móveis,"33124000-5, Aparelhos e material para diagnóstico e radiodiagnóstico","Centro Hospitalar Tondela-Viseu, E. P. E. (509822940)","MEDTRONIC PORTUGAL, LDA (504223933)","5.500,00 €",27-02-2018,06-04-2017,90 dias,"Portugal, Viseu, Viseu","Artigo 21.º, n.º 1, alínea c) do Código dos Contratos Públicos",,,,,,Não aplicável.,Não aplicável.,FALSE
CLIP HEMOSTATICO LONGO DESCARTAVEL ROTATIVO PONTA,Ajuste Direto Regime Geral,Aquisição de bens móveis,"33141120-7, Clipes, suturas, ligaduras","Centro Hospitalar Tondela-Viseu, E. P. E. (509822940)","ALVES & CIA (IRMAOS), LDA (500310068)","9.750,00 €",26-02-2018,05-04-2017,1 dias,"Portugal, Viseu, Viseu","Artigo 20.º, n.º 1, alínea a) do Código dos Contratos Públicos",,,,,,Não aplicável.,Não aplicável.,FALSE
LENTE MONOBLOCO ACRILICA HIDROFOBICA C/FILTRO(OPTICA 6MM COMP.TOTAL13MM),Ajuste Direto Regime Geral,Aquisição de bens móveis,"33731110-7, Lentes intraoculares","Centro Hospitalar Tondela-Viseu, E. P. E. (509822940)",ALCON PORTUGAL-PROD.EQUIP.OFTL (501251685),"42.000,00 €",26-02-2018,11-01-2017,1 dias,"Portugal, Viseu, Viseu","Artigo 20.º, n.º 1, alínea a) do Código dos Contratos Públicos",,,,,,Não aplicável.,Não aplicável.,FALSE
IDENTIFICADOR E PULSEIRA DESCARTAVEL P/IDENTIFIAÇÃO ELETRONICA,Ajuste Direto Regime Geral,Aquisição de bens móveis,"22455100-5, Pulseiras de identificação","Centro Hospitalar Tondela-Viseu, E. P. E. (509822940)",JOAO LAGO-ENG.SIST.SEGURANCA (506240711),"38.910,00 €",26-02-2018,29-09-2017,365 dias,"Portugal, Viseu, Viseu","Artigo 20.º, n.º 1, alínea a) do Código dos Contratos Públicos",,,,,,Não aplicável.,Não aplicável.,FALSE
STENT CORONARIO COM FARMACO PRE MONTADO EM BALÃO PARA A C T P,Ajuste Direto Regime Geral,Aquisição de bens móveis,"33184500-8, Endopróteses coronárias","Centro Hospitalar Tondela-Viseu, E. P. E. (509822940)","MEDTRONIC PORTUGAL, LDA (504223933)","62.000,00 €",26-02-2018,06-01-2017,1 dias,"Portugal, Viseu, Viseu","Artigo 20.º, n.º 1, alínea a) do Código dos Contratos Públicos",,,,,,Não aplicável.,Não aplicável.,FALSE
VIDEOSCOPIO DESCARTAVEL P/LAPAROSCOPIA E CIRURGIA BILIAR TAMANHO LARGE,Ajuste Direto Regime Geral,Aquisição de bens móveis,"33162200-5, Instrumentos para blocos operatórios","Centro Hospitalar Tondela-Viseu, E. P. E. (509822940)","IBERDATA EQUIPAMENTOS, SA (501904921)","12.600,00 €",26-02-2018,31-07-2017,365 dias,"Portugal, Viseu, Viseu","Artigo 20.º, n.º 1, alínea a) do Código dos Contratos Públicos",,,,,,Não aplicável.,Não aplicável.,FALSE
DIVERSO MATERIAL CATETERISMO (ACTP) - AD,Ajuste Direto Regime Geral,Aquisição de bens móveis,"33141210-5, Cateteres de balão","Centro Hospitalar Tondela-Viseu, E. P. E. (509822940)","MEDTRONIC PORTUGAL, LDA (504223933)","39.185,00 €",26-02-2018,06-01-2017,1 dias,"Portugal, Viseu, Viseu","Artigo 20.º, n.º 1, alínea a) do Código dos Contratos Públicos",,,,,,Não aplicável.,Não aplicável.,FALSE
ANTENA PERCUTANEA P/ COAGULAÇÃO DE TECIDO MOLE,Ajuste Direto Regime Geral,Aquisição de bens móveis,"33169000-2, Material cirúrgico","Centro Hospitalar Tondela-Viseu, E. P. E. (509822940)","MEDTRONIC PORTUGAL, LDA (504223933)","8.000,00 €",26-02-2018,14-02-2017,1 dias,"Portugal, Viseu, Viseu","Artigo 20.º, n.º 1, alínea a) do Código dos Contratos Públicos",,,,,,Não aplicável.,Não aplicável.,FALSE
LOMBOSTATOS (TALA) TIPO JEWETTE,Ajuste Direto Regime Geral,Aquisição de bens móveis,"33141760-5, Talas","Centro Hospitalar Tondela-Viseu, E. P. E. (509822940)","EXELMEDICA-PROD.MED.CIRURG., (502263989)","5.485,50 €",26-02-2018,23-06-2017,365 dias,"Portugal, Viseu, Viseu","Artigo 20.º, n.º 1, alínea a) do Código dos Contratos Públicos",,,,,,Não aplicável.,Não aplicável.,FALSE
LOMBOSTATOS TIPO CHAIR,Ajuste Direto Regime Geral,Aquisição de bens móveis,"33141700-7, Material ortopédico","Centro Hospitalar Tondela-Viseu, E. P. E. (509822940)","MEDICAL PLUS-PROD.MED.HOSP.,LD (506658066)","7.889,58 €",22-02-2018,23-06-2017,365 dias,"Portugal, Viseu, Viseu","Artigo 20.º, n.º 1, alínea a) do Código dos Contratos Públicos",,,,,,Não aplicável.,Não aplicável.,FALSE
ARTICULAÇÃO BARRA/ APEX AUTOPERFURANTE/ BARRA UNIÃO FIBRA CARBONO,Ajuste Direto Regime Geral,Aquisição de bens móveis,"33141700-7, Material ortopédico","Centro Hospitalar Tondela-Viseu, E. P. E. (509822940)",STRYKER PORTUGAL-PROD.M.UNIP.L (974913863),"10.540,00 €",22-02-2018,27-10-2017,365 dias,"Portugal, Viseu, Viseu","Artigo 20.º, n.º 1, alínea a) do Código dos Contratos Públicos",,,,,,Não aplicável.,Não aplicável.,FALSE
KIT TUBO STANDARD P/ASPIRADOR SELECTOR (CX.10 UNID.),Ajuste Direto Regime Geral,Aquisição de bens móveis,"33141600-6, Tubos e sacos de drenagem e respectivos kits","Centro Hospitalar Tondela-Viseu, E. P. E. (509822940)","SOCIME II - Produtos Médicos,Lda (504453939)","8.250,00 €",22-02-2018,27-10-2017,365 dias,"Portugal, Viseu, Viseu","Artigo 20.º, n.º 1, alínea a) do Código dos Contratos Públicos",,,,,,Não aplicável.,Não aplicável.,FALSE
COBERTURA PLÁSTICA DESCARTÁVEL P/ TERMINAL TERMOMETRO DIGITAL,Ajuste Direto Regime Geral,Aquisição de bens móveis,"33140000-3, Material médico de consumo","Centro Hospitalar Tondela-Viseu, E. P. E. (509822940)","NOSBET-EQUIPAMENTOS, LDA. (513514872)","9.619,20 €",22-02-2018,16-03-2017,1 dias,"Portugal, Viseu, Viseu","Artigo 20.º, n.º 1, alínea a) do Código dos Contratos Públicos",,,,,,Não aplicável.,Não aplicável.,FALSE
JOELHO CIMENTADA REVISÃO-FORN.DIV.PRÓTESES ORTOPÉDICAS-ANCA E JOELHO (AQ 32/00034/16),Ajuste Direto Regime Geral,Aquisição de bens móveis,"33183200-8, Próteses ortopédicas","Centro Hospitalar Tondela-Viseu, E. P. E. (509822940)",STRYKER PORTUGAL-PROD.M.UNIP.L (974913863),"8.060,00 €",22-02-2018,08-03-2017,1 dias,"Portugal, Viseu, Viseu","Artigo 20.º, n.º 1, alínea a) do Código dos Contratos Públicos",,,,,,Não aplicável.,Não aplicável.,FALSE
FORNECIMENTO DE DIVERSAS PRÓTESES ORTOPÉDICAS-ANCA E JOELHO (AQ 32/00034/16),Ajuste Direto Regime Geral,Aquisição de bens móveis,"33183200-8, Próteses ortopédicas","Centro Hospitalar Tondela-Viseu, E. P. E. (509822940)","ZIMMER BIOMET PORTUGAL UNIPESSOAL, LDA (500254990)","6.138,00 €",22-02-2018,16-02-2017,180 dias,"Portugal, Viseu, Viseu","Artigo 20.º, n.º 1, alínea a) do Código dos Contratos Públicos",,,,,,Não aplicável.,Não aplicável.,FALSE
SISTEMA CICLADORA PESSOAL HOMECHOICE 8 VIAS P/ DIALISE,Ajuste Direto Regime Geral,Aquisição de bens móveis,"33181520-3, Produtos de consumo para hemodiálise renal","Centro Hospitalar Tondela-Viseu, E. P. E. (509822940)","BAXTER II MEDICO FARMACEUTICA, (503347345)","9.687,60 €",22-02-2018,08-03-2017,1 dias,"Portugal, Viseu, Viseu","Artigo 20.º, n.º 1, alínea a) do Código dos Contratos Públicos",,,,,,Não aplicável.,Não aplicável.,FALSE
TROCAR PARA LAPAROSCOPIA,Ajuste Direto Regime Geral,Aquisição de bens móveis,"33140000-3, Material médico de consumo","Centro Hospitalar Tondela-Viseu, E. P. E. (509822940)","SOCIME II - Produtos Médicos,Lda (504453939)","9.982,00 €",22-02-2018,04-04-2017,150 dias,"Portugal, Viseu, Viseu","Artigo 20.º, n.º 1, alínea a) do Código dos Contratos Públicos",,,,,,Não aplicável.,Não aplicável.,FALSE
"CATETER ARTERIAL RADIAL """"PUR"""" METODO SELDINGER",Ajuste Direto Regime Geral,Aquisição de bens móveis,"33141200-2, Cateteres","Centro Hospitalar Tondela-Viseu, E. P. E. (509822940)","SOCIME II - Produtos Médicos,Lda (504453939)","9.600,00 €",22-02-2018,04-04-2017,1 dias,"Portugal, Viseu, Viseu","Artigo 20.º, n.º 1, alínea a) do Código dos Contratos Públicos",,,,,,Não aplicável.,Não aplicável.,FALSE
DIVERSAS LIGADURAS,Ajuste Direto Regime Geral,Aquisição de bens móveis,"33141126-9, Ligaduras","Centro Hospitalar Tondela-Viseu, E. P. E. (509822940)"," BASTOS VIEGAS, SA (500042772)","7.652,20 €",22-02-2018,03-04-2017,365 dias,"Portugal, Viseu, Viseu","Artigo 20.º, n.º 1, alínea a) do Código dos Contratos Públicos",,,,,,Não aplicável.,Não aplicável.,FALSE
DIVERSO MATERIAL CLINICO-OSTEOSINTESE JOANETE (SNDC),Ajuste Direto Regime Geral,Aquisição de bens móveis,"33183100-7, Implantes ortopédicos","Centro Hospitalar Tondela-Viseu, E. P. E. (509822940)","BoneCare - Produtos Médico Cirúrgicos, Lda (505899914)","5.000,00 €",22-02-2018,29-12-2017,1 dias,"Portugal, Viseu, Viseu","Artigo 20.º, n.º 1, alínea a) do Código dos Contratos Públicos",,,,,,Não aplicável.,Não aplicável.,FALSE
PINÇA CORTE/SELAGEM VASOS (TIROIDE) TIPO MOSQUITO,Ajuste Direto Regime Geral,Aquisição de bens móveis,"33169000-2, Material cirúrgico","Centro Hospitalar Tondela-Viseu, E. P. E. (509822940)","MEDTRONIC PORTUGAL, LDA (504223933)","8.688,60 €",22-02-2018,04-04-2017,60 dias,"Portugal, Viseu, Viseu","Artigo 20.º, n.º 1, alínea a) do Código dos Contratos Públicos",,,,,,Não aplicável.,Não aplicável.,FALSE
PINÇA CORTE/SELAGEM VASOS (LAPAROSCOPIA),Ajuste Direto Regime Geral,Aquisição de bens móveis,"33169000-2, Material cirúrgico","Centro Hospitalar Tondela-Viseu, E. P. E. (509822940)","MEDTRONIC PORTUGAL, LDA (504223933)","8.160,00 €",22-02-2018,04-04-2017,60 dias,"Portugal, Viseu, Viseu","Artigo 20.º, n.º 1, alínea a) do Código dos Contratos Públicos",,,,,,Não aplicável.,Não aplicável.,FALSE
PINÇA CORTE/SELAGEM VASOS (CIRURG. ABERTA),Ajuste Direto Regime Geral,Aquisição de bens móveis,"33169000-2, Material cirúrgico","Centro Hospitalar Tondela-Viseu, E. P. E. (509822940)","MEDTRONIC PORTUGAL, LDA (504223933)","8.160,00 €",22-02-2018,04-04-2017,60 dias,"Portugal, Viseu, Viseu","Artigo 20.º, n.º 1, alínea a) do Código dos Contratos Públicos",,,,,,Não aplicável.,Não aplicável.,FALSE
PINÇA CORTE/SELAGEM VASOS (TIROIDE) TIPO MOSQUITO,Ajuste Direto Regime Geral,Aquisição de bens móveis,"33169000-2, Material cirúrgico","Centro Hospitalar Tondela-Viseu, E. P. E. (509822940)","MEDTRONIC PORTUGAL, LDA (504223933)","8.688,60 €",22-02-2018,27-03-2017,60 dias,"Portugal, Viseu, Viseu","Artigo 20.º, n.º 1, alínea a) do Código dos Contratos Públicos",,,,,,Não aplicável.,Não aplicável.,FALSE
BIOMATRIZ COLOGENIO P/REGENERAÇÃO DA DURA-MATER,Ajuste Direto Regime Geral,Aquisição de bens móveis,"33140000-3, Material médico de consumo","Centro Hospitalar Tondela-Viseu, E. P. E. (509822940)","BAXTER II MEDICO FARMACEUTICA, (503347345)","9.940,00 €",22-02-2018,27-03-2017,270 dias,"Portugal, Viseu, Viseu<BR/>Portugal","Artigo 20.º, n.º 1, alínea a) do Código dos Contratos Públicos",,,,,,Não aplicável.,Não aplicável.,FALSE
PONTA CUSA EXCEL STANDARD LONGA CURVA,Ajuste Direto Regime Geral,Aquisição de bens móveis,"33140000-3, Material médico de consumo","Centro Hospitalar Tondela-Viseu, E. P. E. (509822940)","SOCIME II - Produtos Médicos,Lda (504453939)","8.640,00 €",22-02-2018,28-03-2017,365 dias,"Portugal, Viseu, Viseu","Artigo 20.º, n.º 1, alínea a) do Código dos Contratos Públicos",,,,,,Não aplicável.,Não aplicável.,FALSE
FIO GUIA REVESTIDO NITINOL,Ajuste Direto Regime Geral,Aquisição de bens móveis,"33140000-3, Material médico de consumo","Centro Hospitalar Tondela-Viseu, E. P. E. (509822940)","BIOSONDA-COM.MAT.HOSPITALAR, (501463313)","8.000,00 €",22-02-2018,28-03-2017,180 dias,"Portugal, Viseu, Viseu","Artigo 20.º, n.º 1, alínea a) do Código dos Contratos Públicos",,,,,,Não aplicável.,Não aplicável.,FALSE
CLIP HEMOSTATICO LONGO DESCARTAVEL ROTATIVO,Ajuste Direto Regime Geral,Aquisição de bens móveis,"33141120-7, Clipes, suturas, ligaduras","Centro Hospitalar Tondela-Viseu, E. P. E. (509822940)","ALVES & CIA (IRMAOS), LDA (500310068)","9.750,00 €",22-02-2018,04-04-2017,30 dias,"Portugal, Viseu, Viseu","Artigo 20.º, n.º 1, alínea a) do Código dos Contratos Públicos",,,,,,Não aplicável.,Não aplicável.,FALSE
COMPRESSA GAZE HIDROFILA S/ CONTRASTE ESTERILIZADA,Ajuste Direto Regime Geral,Aquisição de bens móveis,"33141119-7, Compressas","Centro Hospitalar Tondela-Viseu, E. P. E. (509822940)","ALBINO DIAS DE ANDRADE, LDA (500013810)","7.525,00 €",22-02-2018,27-03-2017,150 dias,"Portugal, Viseu, Viseu","Artigo 20.º, n.º 1, alínea a) do Código dos Contratos Públicos",,,,,,Não aplicável.,Não aplicável.,FALSE
MAQUINA SUTURA LINEAR C/ CORTE,Ajuste Direto Regime Geral,Aquisição de bens móveis,"33141121-4, Suturas cirúrgicas","Centro Hospitalar Tondela-Viseu, E. P. E. (509822940)","JOHNSON & JOHNSON, LDA (500153370)","5.220,00 €",21-02-2018,27-03-2017,90 dias,"Portugal, Viseu, Viseu","Artigo 20.º, n.º 1, alínea a) do Código dos Contratos Públicos",,,,,,Não aplicável.,Não aplicável.,FALSE
PINÇA CORTE/SELAGEM VASOS (CIRURGIA ABERTA),Ajuste Direto Regime Geral,Aquisição de bens móveis,"33169000-2, Material cirúrgico","Centro Hospitalar Tondela-Viseu, E. P. E. (509822940)","MEDTRONIC PORTUGAL, LDA (504223933)","8.380,80 €",21-02-2018,16-02-2017,60 dias,"Portugal, Viseu, Viseu","Artigo 20.º, n.º 1, alínea a) do Código dos Contratos Públicos",,,,,,Não aplicável.,Não aplicável.,FALSE
LOMBOSTATO (TALA) TIPO JEWETTE E CHAIR,Ajuste Direto Regime Geral,Aquisição de bens móveis,"33141700-7, Material ortopédico","Centro Hospitalar Tondela-Viseu, E. P. E. (509822940)","EXELMEDICA-PROD.MED.CIRURG., (502263989)","7.405,14 €",21-02-2018,13-11-2017,1 dias,"Portugal, Viseu, Viseu","Artigo 20.º, n.º 1, alínea a) do Código dos Contratos Públicos",,,,,,Não aplicável.,Não aplicável.,FALSE
LOMBOSTATO TIPO CHAIR TAYLOR E TIPO JEWETTEE  (VÁRIOS TAMANHOS),Ajuste Direto Regime Geral,Aquisição de bens móveis,"33141700-7, Material ortopédico","Centro Hospitalar Tondela-Viseu, E. P. E. (509822940)","EXELMEDICA-PROD.MED.CIRURG., (502263989)","6.975,00 €",21-02-2018,13-11-2017,1 dias,"Portugal, Viseu, Viseu","Artigo 20.º, n.º 1, alínea a) do Código dos Contratos Públicos",,,,,,Não aplicável.,Não aplicável.,FALSE
PROTESE VASCULAR ANELADA,Ajuste Direto Regime Geral,Aquisição de bens móveis,"33184200-5, Próteses vasculares","Centro Hospitalar Tondela-Viseu, E. P. E. (509822940)","MEDICINÁLIA CORMEDICA, LDA (500684324)","20.986,00 €",21-02-2018,18-09-2017,365 dias,"Portugal, Viseu, Viseu","Artigo 20.º, n.º 1, alínea a) do Código dos Contratos Públicos",,,,,,Não aplicável.,Não aplicável.,FALSE
MAQUINA SUTURA LINEAR LAPAROSC.C/CORTE 60MM TECIDOS VASCULARES (EC60A),Ajuste Direto Regime Geral,Aquisição de bens móveis,"33141121-4, Suturas cirúrgicas","Centro Hospitalar Tondela-Viseu, E. P. E. (509822940)","JOHNSON & JOHNSON, LDA (500153370)","16.320,00 €",21-02-2018,27-06-2017,365 dias,"Portugal, Viseu, Viseu","Artigo 20.º, n.º 1, alínea a) do Código dos Contratos Públicos",,,,,,Não aplicável.,Não aplicável.,FALSE
CARGA PARA MÁQ. SUTURA LINEAR LAPOROSC. C/ CORTE,Ajuste Direto Regime Geral,Aquisição de bens móveis,"33141121-4, Suturas cirúrgicas","Centro Hospitalar Tondela-Viseu, E. P. E. (509822940)","JOHNSON & JOHNSON, LDA (500153370)","36.480,00 €",21-02-2018,25-10-2017,120 dias,"Portugal, Viseu, Viseu","Artigo 20.º, n.º 1, alínea a) do Código dos Contratos Públicos",,,,,,Não aplicável.,Não aplicável.,FALSE
