Objeto do Contrato,Tipo de Procedimento,Tipo(s) de Contrato,CPVs,Entidade(s) Adjudicante(s),Entidade(s) Adjudicatária(s),Preço Contratual,Data de Publicação,Data de Celebração do Contrato,Prazo de Execução,Local de Execução,Fundamentação,Data de Fecho do Contrato,Preço Total Efetivo,Causas das Alterações ao Prazo,Causas das Alterações ao Preço,Estado,N.º registo do Acordo Quadro,Descrição do Acordo Quadro,Procedimento Centralizado
Aquisição de Equipamento Informático (Switchs) para a unidade de Amarante,Ajuste Direto Regime Geral,Aquisição de bens móveis,"30237110-3, Interfaces de rede","Centro Hospitalar do Tâmega e Sousa, E. P. E. (508318262)","GONKSYS, S.A . (510874169)","8.287,47 €",11-09-2014,21-07-2014,21 dias,"Portugal, Porto, Amarante","Artigo 20.º, n.º 1, alínea a) do Código dos Contratos Públicos",18-08-2014,"8.287,47 €",,,,Não aplicável.,Não aplicável.,FALSE
Procedimento 15435/2014 - Fibras para o sistema de Laser II,Ajuste Direto Regime Geral,Aquisição de bens móveis,"33141000-0, Material médico não químico descartável e produtos hematológicos","Centro Hospitalar do Tâmega e Sousa, E. P. E. (508318262)",ARTUR MAGALHÃES LOUREIRO DE OLIVEIRA (155810073),"7.992,00 €",11-09-2014,11-08-2014,140 dias,"Portugal, Porto, Penafiel<BR/>Portugal, Porto, Amarante","Artigo 24.º, n.º 1, alínea e) do Código dos Contratos Públicos","","",,,,Não aplicável.,Não aplicável.,FALSE
Procedimento 1480/2014 - Diverso Material I,Ajuste Direto Regime Geral,Aquisição de bens móveis,"33141000-0, Material médico não químico descartável e produtos hematológicos","Centro Hospitalar do Tâmega e Sousa, E. P. E. (508318262)",GAMBRO LUNDIA AB - SUCURSAL EM PORTUGAL (980367751),"5.253,00 €",11-09-2014,07-08-2014,144 dias,"Portugal, Porto, Penafiel<BR/>Portugal, Porto, Amarante","Artigo 24.º, n.º 1, alínea e) do Código dos Contratos Públicos","","",,,,Não aplicável.,Não aplicável.,FALSE
Procedimento 1435/2014 - Diverso material III,Ajuste Direto Regime Geral,Aquisição de bens móveis,"33141000-0, Material médico não químico descartável e produtos hematológicos","Centro Hospitalar do Tâmega e Sousa, E. P. E. (508318262)","OLYMPUS IBERIA, S.A. - SUCURSAL EM PORTUGAL  (980474710)","3.539,06 €",11-09-2014,09-09-2014,112 dias,"Portugal, Porto, Amarante<BR/>Portugal, Porto, Penafiel","Artigo 20.º, n.º 1, alínea a) do Código dos Contratos Públicos","","",,,,Não aplicável.,Não aplicável.,FALSE
Procedimento 1297/14 - MEDICAMENTOS USADOS NAS AFEÇÕES OCULARES E OTORRINOLARINGOLÓGICAS,Ao abrigo de acordo-quadro (art.º 259.º),Aquisição de bens móveis,"33690000-3, Medicamentos vários","Centro Hospitalar do Tâmega e Sousa, E. P. E. (508318262)","TECNIFAR - INDÚSTRIA TÉCNICA FARMACÊUTICA, S.A. (500280436)","463,20 €",11-09-2014,14-08-2014,137 dias,"Portugal, Porto, Penafiel<BR/>Portugal, Porto, Amarante",Artigo 259.º do Código dos Contratos Públicos,"","",,,,602068,"CONCURSO PÚBLICO PARA A CELEBRAÇÃO DE CONTRATOS PÚBLICOS DE APROVISIONAMENTO PARA A ÁREA DA SAÚDE, COM VISTA AO FORNECIMENTO DE MEDICAMENTOS DE CONSUMO GERAL - MEDICAMENTOS USADOS NAS AFEÇÕES OCULARES E  OTORRINOLARINGOLÓGICAS, ÀS INSTITUIÇÕES E SERVIÇOS DO SERVIÇO NACIONAL DE SAÚDE",FALSE
Procedimento 1297/14 - MEDICAMENTOS USADOS NAS AFEÇÕES OCULARES E OTORRINOLARINGOLÓGICAS,Ao abrigo de acordo-quadro (art.º 259.º),Aquisição de bens móveis,"33690000-3, Medicamentos vários","Centro Hospitalar do Tâmega e Sousa, E. P. E. (508318262)",GLAXOSMITHKLINE - PRODUTOS FARMACEUTICOS LDA (500139962),"21,65 €",11-09-2014,14-08-2014,137 dias,"Portugal, Porto, Amarante<BR/>Portugal, Porto, Penafiel",Artigo 259.º do Código dos Contratos Públicos,"","",,,,602068,"CONCURSO PÚBLICO PARA A CELEBRAÇÃO DE CONTRATOS PÚBLICOS DE APROVISIONAMENTO PARA A ÁREA DA SAÚDE, COM VISTA AO FORNECIMENTO DE MEDICAMENTOS DE CONSUMO GERAL - MEDICAMENTOS USADOS NAS AFEÇÕES OCULARES E  OTORRINOLARINGOLÓGICAS, ÀS INSTITUIÇÕES E SERVIÇOS DO SERVIÇO NACIONAL DE SAÚDE",FALSE
Procedimento 1297/14 - MEDICAMENTOS USADOS NAS AFEÇÕES OCULARES E OTORRINOLARINGOLÓGICAS,Ao abrigo de acordo-quadro (art.º 259.º),Aquisição de bens móveis,"33690000-3, Medicamentos vários","Centro Hospitalar do Tâmega e Sousa, E. P. E. (508318262)",Edol - Produtos Farmacêuticos S.A. (507072642),"5.423,87 €",11-09-2014,14-08-2014,137 dias,"Portugal, Porto, Penafiel<BR/>Portugal, Porto, Amarante",Artigo 259.º do Código dos Contratos Públicos,"","",,,,602068,"CONCURSO PÚBLICO PARA A CELEBRAÇÃO DE CONTRATOS PÚBLICOS DE APROVISIONAMENTO PARA A ÁREA DA SAÚDE, COM VISTA AO FORNECIMENTO DE MEDICAMENTOS DE CONSUMO GERAL - MEDICAMENTOS USADOS NAS AFEÇÕES OCULARES E  OTORRINOLARINGOLÓGICAS, ÀS INSTITUIÇÕES E SERVIÇOS DO SERVIÇO NACIONAL DE SAÚDE",FALSE
Procedimento 1259/2014 - Prótese Aórtica,Ajuste Direto Regime Geral,Aquisição de bens móveis,"33184300-6, Próteses cardíacas","Centro Hospitalar do Tâmega e Sousa, E. P. E. (508318262)","BIOSONDA - COMÉRCIO DE MATERIAL HOSPITALAR, LDA. (501463313)","8.500,00 €",11-09-2014,23-06-2014,1 dias,"Portugal, Porto, Penafiel","Artigo 20.º, n.º 1, alínea a) do Código dos Contratos Públicos",26-06-2014,"8.500,00 €",,,,Não aplicável.,Não aplicável.,FALSE
Procedimento 1229/2014 - Empreitada de remodelação e ampliação do departamento de psiquiatria_última fase,Ajuste Direto Regime Geral,Empreitadas de obras públicas,"45000000-7, Construção","Centro Hospitalar do Tâmega e Sousa, E. P. E. (508318262)","RC 3 - RESTAUROS E CONSTRUÇÃO, LDA. (505822385)","7.990,00 €",11-09-2014,01-07-2014,30 dias,"Portugal, Porto, Penafiel","Artigo 22.º, n.º 1, alínea a) do Código dos Contratos Públicos","","",,,,Não aplicável.,Não aplicável.,FALSE
Procedimento 1137/14 - Material Diverso,Ajuste Direto Regime Geral,Aquisição de bens móveis,"33141000-0, Material médico não químico descartável e produtos hematológicos","Centro Hospitalar do Tâmega e Sousa, E.P.E. (508318262)",ENDOTÉCNICA - MATERIAL CIRÚRGICO LDA (503818348),"6.443,20 €",11-09-2014,08-08-2014,143 dias,"Portugal, Porto, Amarante<BR/>Portugal, Porto, Penafiel","Artigo 24.º, n.º 1, alínea e) do Código dos Contratos Públicos","","",,,,Não aplicável.,Não aplicável.,FALSE
Procedimento 1136/2014 - Material Diverso,Ajuste Direto Regime Geral,Aquisição de bens móveis,"33141000-0, Material médico não químico descartável e produtos hematológicos","Centro Hospitalar do Tâmega e Sousa, E. P. E. (508318262)",IBERDATA - EQUIPAMENTOS S.A. (501904921),"576,75 €",11-09-2014,14-08-2014,137 dias,"Portugal, Porto, Amarante<BR/>Portugal, Porto, Penafiel","Artigo 24.º, n.º 1, alínea e) do Código dos Contratos Públicos","","",,,,Não aplicável.,Não aplicável.,FALSE
1080/14 - Espuma de Poliuretano Pediátrica Cópia,Ajuste Direto Regime Geral,Aquisição de bens móveis,"33141000-0, Material médico não químico descartável e produtos hematológicos","Centro Hospitalar do Tâmega e Sousa, E.P.E. (508318262)","MEDICINÁLIA CORMÉDICA - COMERCIALIZAÇÃO DE PRODUTOS MÉDICO HOSPITALARES, LDA. (500684324)","3.965,00 €",10-09-2014,11-08-2014,140 dias,"Portugal, Porto, Penafiel<BR/>Portugal, Porto, Amarante","Artigo 24.º, n.º 1, alínea e) do Código dos Contratos Públicos","","",,,,Não aplicável.,Não aplicável.,FALSE
Procedimento 1041/14 - Eléctrodos de Vaporização,Ajuste Direto Regime Geral,Aquisição de bens móveis,"33141000-0, Material médico não químico descartável e produtos hematológicos","Centro Hospitalar do Tâmega e Sousa, E. P. E. (508318262)","TEPREL - EQUIPAMENTOS MÉDICOS, S.A. (502262184)","1.935,00 €",10-09-2014,28-07-2014,153 dias,"Portugal, Porto, Penafiel<BR/>Portugal, Porto, Amarante","Artigo 24.º, n.º 1, alínea e) do Código dos Contratos Públicos","","",,,,Não aplicável.,Não aplicável.,FALSE
Alteração da Climatização e Ventilação,Ajuste Direto Regime Geral,Aquisição de bens móveis,"42500000-1, Equipamento de refrigeração e ventilação","Centro Hospitalar do Tâmega e Sousa, E.P.E. (508318262)","CLIMASERRA - COMÉRCIO DE AR CONDICIONADO E EQUIPAMENTO HOTELEIRO, LDA (504863991)","11.597,38 €",10-09-2014,19-06-2014,30 dias,"Portugal, Porto, Penafiel","Artigo 20.º, n.º 1, alínea a) do Código dos Contratos Públicos",23-09-2014,"11.597,38 €",,,,Não aplicável.,Não aplicável.,FALSE
Climatização do Datacenter,Ajuste Direto Regime Geral,Aquisição de bens móveis,"42500000-1, Equipamento de refrigeração e ventilação","Centro Hospitalar do Tâmega e Sousa, E.P.E. (508318262)","GONKSYS, S.A. (510874169)","15.812,04 €",10-09-2014,22-07-2014,28 dias,"Portugal, Porto, Penafiel","Artigo 20.º, n.º 1, alínea a) do Código dos Contratos Públicos",28-10-2014,"15.812,04 €",,,,Não aplicável.,Não aplicável.,FALSE
Camas para Psiquiatria,Ajuste Direto Regime Geral,Aquisição de bens móveis,"33192000-2, Mobiliário para fins médicos","Centro Hospitalar do Tâmega e Sousa, E.P.E. (508318262)"," Imo - Indústrias Metalúrgicas, S.A. (500136939)","19.654,80 €",10-09-2014,28-05-2014,28 dias,"Portugal, Porto, Penafiel","Artigo 20.º, n.º 1, alínea a) do Código dos Contratos Públicos",17-07-2014,"19.654,80 €",,,,Não aplicável.,Não aplicável.,FALSE
Procedimento 1419/13 - Material de Laboratório,Ajuste Direto Regime Geral,Aquisição de bens móveis,"33141000-0, Material médico não químico descartável e produtos hematológicos","Centro Hospitalar do Tâmega e Sousa, E.P.E. (508318262)",SARSTEDT - TECNOLOGIA DE LABORATÓRIO LDA (503019461),"1.727,77 €",10-09-2014,14-08-2014,112 dias,"Portugal, Porto, Penafiel<BR/>Portugal, Porto, Amarante","Artigo 20.º, n.º 1, alínea a) do Código dos Contratos Públicos","","",,,,Não aplicável.,Não aplicável.,FALSE
Procedimento 1419/13 - Material de Laboratório,Ajuste Direto Regime Geral,Aquisição de bens móveis,"33141000-0, Material médico não químico descartável e produtos hematológicos","Centro Hospitalar do Tâmega e Sousa, E.P.E. (508318262)","VWR INTERNATIONAL - MATERIAL DE LABORATÓRIO, LDA. (503842770)","125,12 €",10-09-2014,14-08-2014,112 dias,"Portugal, Porto, Penafiel<BR/>Portugal, Porto, Amarante","Artigo 20.º, n.º 1, alínea a) do Código dos Contratos Públicos","","",,,,Não aplicável.,Não aplicável.,FALSE
Procedimento 1419/13 - Material de Laboratório,Ajuste Direto Regime Geral,Aquisição de bens móveis,"33141000-0, Material médico não químico descartável e produtos hematológicos","Centro Hospitalar do Tâmega e Sousa, E.P.E. (508318262)","QUILABAN - QUÍMICA LABORATORIAL ANALÍTICA, S.A. (500399670)","461,92 €",10-09-2014,14-08-2014,112 dias,"Portugal, Porto, Amarante<BR/>Portugal, Porto, Penafiel","Artigo 20.º, n.º 1, alínea a) do Código dos Contratos Públicos","","",,,,Não aplicável.,Não aplicável.,FALSE
Procedimento 1419/13 - Material de Laboratório,Ajuste Direto Regime Geral,Aquisição de bens móveis,"33141000-0, Material médico não químico descartável e produtos hematológicos","Centro Hospitalar do Tâmega e Sousa, E.P.E. (508318262)","EZEQUIEL PANÃO JORGE, LDA. (501412727)","78,47 €",10-09-2014,09-09-2014,112 dias,"Portugal, Porto, Amarante<BR/>Portugal, Porto, Penafiel","Artigo 20.º, n.º 1, alínea a) do Código dos Contratos Públicos","","",,,,Não aplicável.,Não aplicável.,FALSE
Procedimento 1419/13 - Material de Laboratório,Ajuste Direto Regime Geral,Aquisição de bens móveis,"33141000-0, Material médico não químico descartável e produtos hematológicos","Centro Hospitalar do Tâmega e Sousa, E.P.E. (508318262)","NORMAX - FÁBRICA DE VIDROS CIÊNTIFICOS, LDA. (500203130)","1.390,48 €",10-09-2014,09-09-2014,112 dias,"Portugal, Porto, Amarante<BR/>Portugal, Porto, Penafiel","Artigo 20.º, n.º 1, alínea a) do Código dos Contratos Públicos","","",,,,Não aplicável.,Não aplicável.,FALSE
Procedimento 1419/13 - Material de Laboratório,Ajuste Direto Regime Geral,Aquisição de bens móveis,"33141000-0, Material médico não químico descartável e produtos hematológicos","Centro Hospitalar do Tâmega e Sousa, E.P.E. (508318262)","VACUETTE PORTUGAL - IMPORTAÇÃO E EXPORTAÇÃO DE MATERIAL HOSPITALAR, S.A. (505348470)","7.643,14 €",10-09-2014,09-09-2014,112 dias,"Portugal, Porto, Penafiel<BR/>Portugal, Porto, Amarante","Artigo 20.º, n.º 1, alínea a) do Código dos Contratos Públicos","","",,,,Não aplicável.,Não aplicável.,FALSE
"Procedimento 969/13 - Seringas, prolongadores e tampas para anestesia",Ajuste Direto Regime Geral,Aquisição de bens móveis,"33140000-3, Material médico de consumo","Centro Hospitalar do Tâmega e Sousa, E.P.E. (508318262)","HR - HOSPITALAR, LDA. (501895558)","297,50 €",10-09-2014,08-08-2014,143 dias,"Portugal, Porto, Penafiel<BR/>Portugal, Porto, Amarante","Artigo 20.º, n.º 1, alínea a) do Código dos Contratos Públicos","","",,,,Não aplicável.,Não aplicável.,FALSE
"Procedimento 969/13 - Seringas, prolongadores e tampas para anestesia",Ajuste Direto Regime Geral,Aquisição de bens móveis,"33140000-3, Material médico de consumo","Centro Hospitalar do Tâmega e Sousa, E.P.E. (508318262)","QUILABAN - QUÍMICA LABORATORIAL ANALÍTICA, S.A. (500399670)","1.338,93 €",10-09-2014,08-08-2014,143 dias,"Portugal, Porto, Amarante<BR/>Portugal, Porto, Penafiel","Artigo 20.º, n.º 1, alínea a) do Código dos Contratos Públicos","","",,,,Não aplicável.,Não aplicável.,FALSE
Procedimento 584/13 - Tubos de colheita de Sangue,Ajuste Direto Regime Geral,Aquisição de bens móveis,"33141000-0, Material médico não químico descartável e produtos hematológicos","Centro Hospitalar do Tâmega e Sousa, E.P.E. (508318262)","VACUETTE PORTUGAL - IMPORTAÇÃO E EXPORTAÇÃO DE MATERIAL HOSPITALAR, S.A. (505348470)","2.566,22 €",10-09-2014,09-09-2014,112 dias,"Portugal, Porto, Amarante<BR/>Portugal, Porto, Penafiel","Artigo 20.º, n.º 1, alínea a) do Código dos Contratos Públicos","","",,,,Não aplicável.,Não aplicável.,FALSE
Procedimento 584/13 - Tubos de colheita de Sangue,Ajuste Direto Regime Geral,Aquisição de bens móveis,"33141000-0, Material médico não químico descartável e produtos hematológicos","Centro Hospitalar do Tâmega e Sousa, E.P.E. (508318262)",SARSTEDT - TECNOLOGIA DE LABORATÓRIO LDA (503019461),"813,93 €",10-09-2014,09-09-2014,112 dias,"Portugal, Porto, Amarante<BR/>Portugal, Porto, Penafiel","Artigo 20.º, n.º 1, alínea a) do Código dos Contratos Públicos","","",,,,Não aplicável.,Não aplicável.,FALSE
Procedimento 891/14 - Medicamento anti-infecciosos: antivíricos e antifúngicos,Ao abrigo de acordo-quadro (art.º 259.º),Aquisição de bens móveis,"33600000-6, Produtos farmacêuticos","Centro Hospitalar do Tâmega e Sousa, E. P. E. (508318262)","LABORATÓRIOS PFIZER, LDA. (500162166)","32.695,26 €",09-09-2014,19-06-2014,192 dias,"Portugal, Porto, Penafiel<BR/>Portugal, Porto, Amarante",Artigo 259.º do Código dos Contratos Públicos,"","",,,,455180,"CONCURSO PÚBLICO PARA A CELEBRAÇÃO DE CONTRATOS PÚBLICOS DE APROVISIONAMENTO PARA A ÁREA DA SAÚDE, COM VISTA AO FORNECIMENTO DE MEDICAMENTOS ANTI-INFECIOSOS: ANTIVÍRICOS E ANTIFÚNGICOS, ÀS INSTITUIÇÕES E SERVIÇOS DO SERVIÇO NACIONAL DE SAÚDE  ",FALSE
Procedimento 891/14 - Medicamento anti-infecciosos: antivíricos e antifúngicos,Ao abrigo de acordo-quadro (art.º 259.º),Aquisição de bens móveis,"33600000-6, Produtos farmacêuticos","Centro Hospitalar do Tâmega e Sousa, E. P. E. (508318262)","GLAXOSMITHKLINE - PRODUTOS FARMACÊUTICOS, LDA. (500139962)","86,60 €",09-09-2014,19-06-2014,192 dias,"Portugal, Porto, Penafiel<BR/>Portugal, Porto, Amarante",Artigo 259.º do Código dos Contratos Públicos,"","",,,,455180,"CONCURSO PÚBLICO PARA A CELEBRAÇÃO DE CONTRATOS PÚBLICOS DE APROVISIONAMENTO PARA A ÁREA DA SAÚDE, COM VISTA AO FORNECIMENTO DE MEDICAMENTOS ANTI-INFECIOSOS: ANTIVÍRICOS E ANTIFÚNGICOS, ÀS INSTITUIÇÕES E SERVIÇOS DO SERVIÇO NACIONAL DE SAÚDE  ",FALSE
Procedimento 891/14 - Medicamento anti-infecciosos: antivíricos e antifúngicos,Ao abrigo de acordo-quadro (art.º 259.º),Aquisição de bens móveis,"33600000-6, Produtos farmacêuticos","Centro Hospitalar do Tâmega e Sousa, E. P. E. (508318262)","B.BRAUN MEDICAL, LDA. (501506543)","901,00 €",09-09-2014,19-06-2014,192 dias,"Portugal, Porto, Penafiel<BR/>Portugal, Porto, Amarante",Artigo 259.º do Código dos Contratos Públicos,"","",,,,455180,"CONCURSO PÚBLICO PARA A CELEBRAÇÃO DE CONTRATOS PÚBLICOS DE APROVISIONAMENTO PARA A ÁREA DA SAÚDE, COM VISTA AO FORNECIMENTO DE MEDICAMENTOS ANTI-INFECIOSOS: ANTIVÍRICOS E ANTIFÚNGICOS, ÀS INSTITUIÇÕES E SERVIÇOS DO SERVIÇO NACIONAL DE SAÚDE  ",FALSE
Procedimento 891/14 - Medicamento anti-infecciosos: antivíricos e antifúngicos,Ao abrigo de acordo-quadro (art.º 259.º),Aquisição de bens móveis,"33600000-6, Produtos farmacêuticos","Centro Hospitalar do Tâmega e Sousa, E. P. E. (508318262)","Merck Sharp & Dohme, Lda. (500191360)","12.416,95 €",09-09-2014,19-06-2014,192 dias,"Portugal, Porto, Amarante<BR/>Portugal, Porto, Penafiel",Artigo 259.º do Código dos Contratos Públicos,"","",,,,455180,"CONCURSO PÚBLICO PARA A CELEBRAÇÃO DE CONTRATOS PÚBLICOS DE APROVISIONAMENTO PARA A ÁREA DA SAÚDE, COM VISTA AO FORNECIMENTO DE MEDICAMENTOS ANTI-INFECIOSOS: ANTIVÍRICOS E ANTIFÚNGICOS, ÀS INSTITUIÇÕES E SERVIÇOS DO SERVIÇO NACIONAL DE SAÚDE  ",FALSE
Procedimento 891/14 - Medicamento anti-infecciosos: antivíricos e antifúngicos,Ao abrigo de acordo-quadro (art.º 259.º),Aquisição de bens móveis,"33600000-6, Produtos farmacêuticos","Centro Hospitalar do Tâmega e Sousa, E. P. E. (508318262)","Roche Farmacêutica Química, Lda. (500233810)","345,20 €",09-09-2014,19-06-2014,192 dias,"Portugal, Porto, Amarante<BR/>Portugal, Porto, Penafiel",Artigo 259.º do Código dos Contratos Públicos,"","",,,,455180,"CONCURSO PÚBLICO PARA A CELEBRAÇÃO DE CONTRATOS PÚBLICOS DE APROVISIONAMENTO PARA A ÁREA DA SAÚDE, COM VISTA AO FORNECIMENTO DE MEDICAMENTOS ANTI-INFECIOSOS: ANTIVÍRICOS E ANTIFÚNGICOS, ÀS INSTITUIÇÕES E SERVIÇOS DO SERVIÇO NACIONAL DE SAÚDE  ",FALSE
Procedimento 891/14 - Medicamento anti-infecciosos: antivíricos e antifúngicos,Ao abrigo de acordo-quadro (art.º 259.º),Aquisição de bens móveis,"33600000-6, Produtos farmacêuticos","Centro Hospitalar do Tâmega e Sousa, E. P. E. (508318262)","HIKMA FARMACÊUTICA (PORTUGAL), S.A. (502266791)","267,00 €",09-09-2014,12-06-2014,192 dias,"Portugal, Porto, Penafiel<BR/>Portugal, Porto, Amarante",Artigo 259.º do Código dos Contratos Públicos,"","",,,,455180,"CONCURSO PÚBLICO PARA A CELEBRAÇÃO DE CONTRATOS PÚBLICOS DE APROVISIONAMENTO PARA A ÁREA DA SAÚDE, COM VISTA AO FORNECIMENTO DE MEDICAMENTOS ANTI-INFECIOSOS: ANTIVÍRICOS E ANTIFÚNGICOS, ÀS INSTITUIÇÕES E SERVIÇOS DO SERVIÇO NACIONAL DE SAÚDE  ",FALSE
Procedimento 891/14 - Medicamento anti-infecciosos: antivíricos e antifúngicos,Ao abrigo de acordo-quadro (art.º 259.º),Aquisição de bens móveis,"33600000-6, Produtos farmacêuticos","Centro Hospitalar do Tâmega e Sousa, E. P. E. (508318262)"," FARMOZ - SOCIEDADE TÉCNICO MEDICINAL, S.A. (501505334)","150,60 €",09-09-2014,19-06-2014,192 dias,"Portugal, Porto, Amarante<BR/>Portugal, Porto, Penafiel",Artigo 259.º do Código dos Contratos Públicos,"","",,,,455180,"CONCURSO PÚBLICO PARA A CELEBRAÇÃO DE CONTRATOS PÚBLICOS DE APROVISIONAMENTO PARA A ÁREA DA SAÚDE, COM VISTA AO FORNECIMENTO DE MEDICAMENTOS ANTI-INFECIOSOS: ANTIVÍRICOS E ANTIFÚNGICOS, ÀS INSTITUIÇÕES E SERVIÇOS DO SERVIÇO NACIONAL DE SAÚDE  ",FALSE
Procedimento 891/14 - Medicamento anti-infecciosos: antivíricos e antifúngicos,Ao abrigo de acordo-quadro (art.º 259.º),Aquisição de bens móveis,"33600000-6, Produtos farmacêuticos","Centro Hospitalar do Tâmega e Sousa, E. P. E. (508318262)","COMBINO PHARM PORTUGAL, UNIPESSOAL, LDA. (508622263)","1.886,40 €",09-09-2014,19-06-2014,192 dias,"Portugal, Porto, Penafiel<BR/>Portugal, Porto, Amarante",Artigo 259.º do Código dos Contratos Públicos,"","",,,,455180,"CONCURSO PÚBLICO PARA A CELEBRAÇÃO DE CONTRATOS PÚBLICOS DE APROVISIONAMENTO PARA A ÁREA DA SAÚDE, COM VISTA AO FORNECIMENTO DE MEDICAMENTOS ANTI-INFECIOSOS: ANTIVÍRICOS E ANTIFÚNGICOS, ÀS INSTITUIÇÕES E SERVIÇOS DO SERVIÇO NACIONAL DE SAÚDE  ",FALSE
Procedimento 891/14 - Medicamento anti-infecciosos: antivíricos e antifúngicos,Ao abrigo de acordo-quadro (art.º 259.º),Aquisição de bens móveis,"33600000-6, Produtos farmacêuticos","Centro Hospitalar do Tâmega e Sousa, E. P. E. (508318262)",LABESFAL - LABORATÓRIOS ALMIRO S.A. (501169580),"63,00 €",09-09-2014,19-06-2014,192 dias,"Portugal, Porto, Penafiel<BR/>Portugal, Porto, Amarante",Artigo 259.º do Código dos Contratos Públicos,"","",,,,455180,"CONCURSO PÚBLICO PARA A CELEBRAÇÃO DE CONTRATOS PÚBLICOS DE APROVISIONAMENTO PARA A ÁREA DA SAÚDE, COM VISTA AO FORNECIMENTO DE MEDICAMENTOS ANTI-INFECIOSOS: ANTIVÍRICOS E ANTIFÚNGICOS, ÀS INSTITUIÇÕES E SERVIÇOS DO SERVIÇO NACIONAL DE SAÚDE  ",FALSE
Procedimento 891/14 - Medicamento anti-infecciosos: antivíricos e antifúngicos,Ao abrigo de acordo-quadro (art.º 259.º),Aquisição de bens móveis,"33600000-6, Produtos farmacêuticos","Centro Hospitalar do Tâmega e Sousa, E. P. E. (508318262)","GENERIS - FARMACÊUTICA, S.A. (508107997)","49,56 €",09-09-2014,19-06-2014,192 dias,"Portugal, Porto, Penafiel<BR/>Portugal, Porto, Amarante",Artigo 259.º do Código dos Contratos Públicos,"","",,,,455180,"CONCURSO PÚBLICO PARA A CELEBRAÇÃO DE CONTRATOS PÚBLICOS DE APROVISIONAMENTO PARA A ÁREA DA SAÚDE, COM VISTA AO FORNECIMENTO DE MEDICAMENTOS ANTI-INFECIOSOS: ANTIVÍRICOS E ANTIFÚNGICOS, ÀS INSTITUIÇÕES E SERVIÇOS DO SERVIÇO NACIONAL DE SAÚDE  ",FALSE
"Aquisição de Equipamento Informático para o Centro Hospitalar Tâmega e Sousa, E.P.E.",Ajuste Direto Regime Geral,Aquisição de bens móveis,"30200000-1, Equipamento e material informático","Centro Hospitalar do Tâmega e Sousa, E. P. E. (508318262)","BASEDOIS - INFORMÁTICA E TELECOMUNICAÇÕES, LDA. (501333401)","28.840,00 €",09-09-2014,09-06-2014,15 dias,"Portugal, Porto, Amarante<BR/>Portugal, Porto, Penafiel","Artigo 20.º, n.º 1, alínea a) do Código dos Contratos Públicos",25-08-2014,"28.840,00 €",,,,Não aplicável.,Não aplicável.,FALSE
Fornecimento de Gases Medicinais,Concurso público,Aquisição de bens móveis,"24111500-0, Gases médicos","Centro Hospitalar do Tâmega e Sousa, EPE (508318262)",Praxair Portugal Gases S A. (501738916),"598.982,62 €",09-09-2014,01-08-2014,1096 dias,"Portugal, Porto, Amarante<BR/>Portugal, Porto, Penafiel","Artigo 20.º, n.º 1, alínea b) do Código dos Contratos Públicos","","",,,,Não aplicável.,Não aplicável.,FALSE
Prestação de Serviços Médicos Globais na Especialidade de Oftalmologia,Concurso limitado por prévia qualificação,Aquisição de serviços,"85121281-6, Serviços de oftalmologia","Centro Hospitalar do Tâmega e Sousa, EPE (508318262)","Clínica de Oftalmologia do Porto, Lda. (503246867)","1.680.000,30 €",09-09-2014,01-08-2014,1096 dias,"Portugal, Porto, Penafiel","Artigo 20.º, n.º 1, alínea b) do Código dos Contratos Públicos","","",,,,Não aplicável.,Não aplicável.,FALSE
