Objeto do Contrato,Tipo de Procedimento,Tipo(s) de Contrato,CPVs,Entidade(s) Adjudicante(s),Entidade(s) Adjudicatária(s),Preço Contratual,Data de Publicação,Data de Celebração do Contrato,Prazo de Execução,Local de Execução,Fundamentação,Data de Fecho do Contrato,Preço Total Efetivo,Causas das Alterações ao Prazo,Causas das Alterações ao Preço,Estado,N.º registo do Acordo Quadro,Descrição do Acordo Quadro,Procedimento Centralizado
Serviços de manutenção de equipamento de hidroterapia e tratamento de água,Ajuste Direto Regime Geral,Aquisição de serviços,"50000000-5, Serviços de reparação e manutenção","Centro Hospitalar do Alto Ave, E. P. E. (508080827)","Aquazurém - Limpeza, desinfecção e tratamento de águas Lda (506276678)","6.100,00 €",12-03-2015,28-01-2015,365 dias,"Portugal, Braga, Guimarães","Artigo 20.º, n.º 1, alínea a) do Código dos Contratos Públicos",,,,,,Não aplicável.,Não aplicável.,FALSE
cartões de proximidade,Ajuste Direto Regime Geral,Aquisição de bens móveis,"22000000-0, Material impresso e afins","Centro Hospitalar do Alto Ave, E. P. E. (508080827)","Soltrafego - Soluções de transito , estacionamento e comunicações, lda  (506370836)","6.000,00 €",12-03-2015,22-01-2015,30 dias,"Portugal, Braga, Guimarães","Artigo 20.º, n.º 1, alínea a) do Código dos Contratos Públicos",,,,,,Não aplicável.,Não aplicável.,FALSE
