Objeto do Contrato,Tipo de Procedimento,Tipo(s) de Contrato,CPVs,Entidade(s) Adjudicante(s),Entidade(s) Adjudicatária(s),Preço Contratual,Data de Publicação,Data de Celebração do Contrato,Prazo de Execução,Local de Execução,Fundamentação,Data de Fecho do Contrato,Preço Total Efetivo,Causas das Alterações ao Prazo,Causas das Alterações ao Preço,Estado,N.º registo do Acordo Quadro,Descrição do Acordo Quadro,Procedimento Centralizado
Aquisição de produtos de apoio,Ajuste Direto Regime Geral,Aquisição de serviços,"85000000-9, Serviços de saúde e acção social","Centro Hospitalar Lisboa Norte, E. P. E. (508481287)","Coselgi, SA (509230598)","1.400,00 €",09-06-2016,09-06-2016,1 dias,"Portugal, Lisboa, Lisboa","Artigo 20.º, n.º 1, alínea a) do Código dos Contratos Públicos",,,,,,Não aplicável.,Não aplicável.,FALSE
Aquisição de processador de implante coclear,Ajuste Direto Regime Geral,Aquisição de bens móveis,"33190000-8, Dispositivos e produtos médicos variados","Centro Hospitalar Lisboa Norte, E. P. E. (508481287)","Coselgi, SA (509230598)","8.943,00 €",09-06-2016,09-06-2016,3 dias,"Portugal, Lisboa, Lisboa","Artigo 20.º, n.º 1, alínea a) do Código dos Contratos Públicos",,,,,,Não aplicável.,Não aplicável.,FALSE
Aquisição de produtos de apoio,Ajuste Direto Regime Geral,Aquisição de serviços,"85000000-9, Serviços de saúde e acção social","Centro Hospitalar Lisboa Norte, E. P. E. (508481287)",Mário Paulo Ferreira (197118372),"169,81 €",09-06-2016,09-06-2016,10 dias,"Portugal, Lisboa, Lisboa","Artigo 20.º, n.º 1, alínea a) do Código dos Contratos Públicos",,,,,,Não aplicável.,Não aplicável.,FALSE
Aquisição de produtos de apoio,Ajuste Direto Regime Geral,Aquisição de serviços,"85000000-9, Serviços de saúde e acção social","Centro Hospitalar Lisboa Norte, E. P. E. (508481287)",Mário Paulo Ferreira (197118372),"122,64 €",09-06-2016,09-06-2016,10 dias,"Portugal, Lisboa, Lisboa","Artigo 20.º, n.º 1, alínea a) do Código dos Contratos Públicos",,,,,,Não aplicável.,Não aplicável.,FALSE
Aquisição de produtos de apoio,Ajuste Direto Regime Geral,Aquisição de serviços,"85000000-9, Serviços de saúde e acção social","Centro Hospitalar Lisboa Norte, E. P. E. (508481287)",Mário Paulo Ferreira (197118372),"108,49 €",09-06-2016,09-06-2016,10 dias,"Portugal, Lisboa, Lisboa","Artigo 20.º, n.º 1, alínea a) do Código dos Contratos Públicos",,,,,,Não aplicável.,Não aplicável.,FALSE
Aquisição de produtos de apoio,Ajuste Direto Regime Geral,Aquisição de serviços,"85000000-9, Serviços de saúde e acção social","Centro Hospitalar Lisboa Norte, E. P. E. (508481287)",Mário Paulo Ferreira (197118372),"207,54 €",09-06-2016,09-06-2016,10 dias,"Portugal, Lisboa, Lisboa","Artigo 20.º, n.º 1, alínea a) do Código dos Contratos Públicos",,,,,,Não aplicável.,Não aplicável.,FALSE
Aquisição de produtos de apoio,Ajuste Direto Regime Geral,Aquisição de serviços,"85000000-9, Serviços de saúde e acção social","Centro Hospitalar Lisboa Norte, E. P. E. (508481287)",Mário Paulo Ferreira (197118372),"163,20 €",09-06-2016,09-06-2016,10 dias,"Portugal, Lisboa, Lisboa","Artigo 20.º, n.º 1, alínea a) do Código dos Contratos Públicos",,,,,,Não aplicável.,Não aplicável.,FALSE
Aquisição de produtos de apoio,Ajuste Direto Regime Geral,Aquisição de serviços,"85000000-9, Serviços de saúde e acção social","Centro Hospitalar Lisboa Norte, E. P. E. (508481287)",Mário Paulo Ferreira (197118372),"127,35 €",09-06-2016,09-06-2016,10 dias,"Portugal, Lisboa, Lisboa","Artigo 20.º, n.º 1, alínea a) do Código dos Contratos Públicos",,,,,,Não aplicável.,Não aplicável.,FALSE
Aquisição de produtos de apoio,Ajuste Direto Regime Geral,Aquisição de serviços,"85000000-9, Serviços de saúde e acção social","Centro Hospitalar Lisboa Norte, E. P. E. (508481287)",Mário Paulo Ferreira (197118372),"150,94 €",09-06-2016,09-06-2016,10 dias,"Portugal, Lisboa, Lisboa","Artigo 20.º, n.º 1, alínea a) do Código dos Contratos Públicos",,,,,,Não aplicável.,Não aplicável.,FALSE
Aquisição de produtos de apoio,Ajuste Direto Regime Geral,Aquisição de serviços,"85000000-9, Serviços de saúde e acção social","Centro Hospitalar Lisboa Norte, E. P. E. (508481287)",Mário Paulo Ferreira (197118372),"226,41 €",09-06-2016,09-06-2016,10 dias,"Portugal, Lisboa, Lisboa","Artigo 20.º, n.º 1, alínea a) do Código dos Contratos Públicos",,,,,,Não aplicável.,Não aplicável.,FALSE
Aquisição de produtos de apoio,Ajuste Direto Regime Geral,Aquisição de serviços,"85000000-9, Serviços de saúde e acção social","Centro Hospitalar Lisboa Norte, E. P. E. (508481287)",Mário Paulo Ferreira (197118372),"103,77 €",09-06-2016,09-06-2016,10 dias,"Portugal, Lisboa, Lisboa","Artigo 20.º, n.º 1, alínea a) do Código dos Contratos Públicos",,,,,,Não aplicável.,Não aplicável.,FALSE
Aquisição de produtos de apoio,Ajuste Direto Regime Geral,Aquisição de serviços,"85000000-9, Serviços de saúde e acção social","Centro Hospitalar Lisboa Norte, E. P. E. (508481287)",Mário Paulo Ferreira (197118372),"122,64 €",09-06-2016,09-06-2016,10 dias,"Portugal, Lisboa, Lisboa","Artigo 20.º, n.º 1, alínea a) do Código dos Contratos Públicos",,,,,,Não aplicável.,Não aplicável.,FALSE
Aquisição de produtos de apoio,Ajuste Direto Regime Geral,Aquisição de serviços,"85000000-9, Serviços de saúde e acção social","Centro Hospitalar Lisboa Norte, E. P. E. (508481287)",Mário Paulo Ferreira (197118372),"276,41 €",09-06-2016,09-06-2016,10 dias,"Portugal, Lisboa, Lisboa","Artigo 20.º, n.º 1, alínea a) do Código dos Contratos Públicos",,,,,,Não aplicável.,Não aplicável.,FALSE
Aquisição de produtos de apoio,Ajuste Direto Regime Geral,Aquisição de serviços,"85000000-9, Serviços de saúde e acção social","Centro Hospitalar Lisboa Norte, E. P. E. (508481287)",Mário Paulo Ferreira (197118372),"89,62 €",09-06-2016,09-06-2016,10 dias,"Portugal, Lisboa, Lisboa","Artigo 20.º, n.º 1, alínea a) do Código dos Contratos Públicos",,,,,,Não aplicável.,Não aplicável.,FALSE
Aquisição de produtos de apoio,Ajuste Direto Regime Geral,Aquisição de serviços,"85000000-9, Serviços de saúde e acção social","Centro Hospitalar Lisboa Norte, E. P. E. (508481287)",Mário Paulo Ferreira (197118372),"28,30 €",09-06-2016,09-06-2016,10 dias,"Portugal, Lisboa, Lisboa","Artigo 20.º, n.º 1, alínea a) do Código dos Contratos Públicos",,,,,,Não aplicável.,Não aplicável.,FALSE
Aquisição de produtos de apoio,Ajuste Direto Regime Geral,Aquisição de serviços,"85000000-9, Serviços de saúde e acção social","Centro Hospitalar Lisboa Norte, E. P. E. (508481287)",Mário Paulo Ferreira (197118372),"84,91 €",09-06-2016,09-06-2016,10 dias,"Portugal, Lisboa, Lisboa","Artigo 20.º, n.º 1, alínea a) do Código dos Contratos Públicos",,,,,,Não aplicável.,Não aplicável.,FALSE
Aquisição de produtos de apoio,Ajuste Direto Regime Geral,Aquisição de serviços,"85000000-9, Serviços de saúde e acção social","Centro Hospitalar Lisboa Norte, E. P. E. (508481287)",Mário Paulo Ferreira (197118372),"21,70 €",09-06-2016,09-06-2016,10 dias,"Portugal, Lisboa, Lisboa","Artigo 20.º, n.º 1, alínea a) do Código dos Contratos Públicos",,,,,,Não aplicável.,Não aplicável.,FALSE
Aquisição de produtos de apoio,Ajuste Direto Regime Geral,Aquisição de serviços,"85000000-9, Serviços de saúde e acção social","Centro Hospitalar Lisboa Norte, E. P. E. (508481287)",Mário Paulo Ferreira (197118372),"138,85 €",09-06-2016,09-06-2016,10 dias,"Portugal, Lisboa, Lisboa","Artigo 20.º, n.º 1, alínea a) do Código dos Contratos Públicos",,,,,,Não aplicável.,Não aplicável.,FALSE
Aquisição de produtos de apoio,Ajuste Direto Regime Geral,Aquisição de serviços,"85000000-9, Serviços de saúde e acção social","Centro Hospitalar Lisboa Norte, E. P. E. (508481287)",Mário Paulo Ferreira (197118372),"179,24 €",09-06-2016,09-06-2016,10 dias,"Portugal, Lisboa, Lisboa","Artigo 20.º, n.º 1, alínea a) do Código dos Contratos Públicos",,,,,,Não aplicável.,Não aplicável.,FALSE
Aquisição de produtos de apoio,Ajuste Direto Regime Geral,Aquisição de serviços,"85000000-9, Serviços de saúde e acção social","Centro Hospitalar Lisboa Norte, E. P. E. (508481287)",Mário Paulo Ferreira (197118372),"132,08 €",09-06-2016,09-06-2016,10 dias,"Portugal, Lisboa, Lisboa","Artigo 20.º, n.º 1, alínea a) do Código dos Contratos Públicos",,,,,,Não aplicável.,Não aplicável.,FALSE
Aquisição de produtos de apoio,Ajuste Direto Regime Geral,Aquisição de serviços,"85000000-9, Serviços de saúde e acção social","Centro Hospitalar Lisboa Norte, E. P. E. (508481287)",Mário Paulo Ferreira (197118372),"169,81 €",09-06-2016,09-06-2016,10 dias,"Portugal, Lisboa, Lisboa","Artigo 20.º, n.º 1, alínea a) do Código dos Contratos Públicos",,,,,,Não aplicável.,Não aplicável.,FALSE
Aquisição de produtos de apoio,Ajuste Direto Regime Geral,Aquisição de serviços,"85000000-9, Serviços de saúde e acção social","Centro Hospitalar Lisboa Norte, E. P. E. (508481287)",Mário Paulo Ferreira (197118372),"21,70 €",09-06-2016,09-06-2016,10 dias,"Portugal, Lisboa, Lisboa","Artigo 20.º, n.º 1, alínea a) do Código dos Contratos Públicos",,,,,,Não aplicável.,Não aplicável.,FALSE
Aquisição de produtos de apoio,Ajuste Direto Regime Geral,Aquisição de serviços,"85000000-9, Serviços de saúde e acção social","Centro Hospitalar Lisboa Norte, E. P. E. (508481287)",Mário Paulo Ferreira (197118372),"21,70 €",09-06-2016,09-06-2016,10 dias,"Portugal, Lisboa, Lisboa","Artigo 20.º, n.º 1, alínea a) do Código dos Contratos Públicos",,,,,,Não aplicável.,Não aplicável.,FALSE
Aquisição de produtos de apoio,Ajuste Direto Regime Geral,Aquisição de serviços,"85000000-9, Serviços de saúde e acção social","Centro Hospitalar Lisboa Norte, E. P. E. (508481287)","Ortopedia Moderna, Lda. (500481300)","2.480,00 €",09-06-2016,09-06-2016,15 dias,"Portugal, Lisboa, Lisboa","Artigo 20.º, n.º 1, alínea a) do Código dos Contratos Públicos",,,,,,Não aplicável.,Não aplicável.,FALSE
Aquisição de Pensos Higienicos,Ajuste Direto Regime Geral,Aquisição de bens móveis,"33771100-6, Pensos e tampões higiénicos","CENTRO HOSPITALAR LISBOA NORTE, EPE (508481287)",INDAS PORTUGAL- PRODUTOS DE SAÚDE HOSPITALARES LDA  (503505196),"4.735,15 €",09-06-2016,09-06-2016,206 dias,"Portugal, Lisboa, Lisboa","Artigo 20.º, n.º 1, alínea a) do Código dos Contratos Públicos",,,,,,Não aplicável.,Não aplicável.,FALSE
Aquisição de outros medicamentos,Ajuste Direto Regime Geral,Aquisição de bens móveis,"33690000-3, Medicamentos vários","Centro Hospitalar Lisboa Norte, E. P. E. (508481287)","Jonhson & Johnson, Lda. (500153370)","1.692,27 €",09-06-2016,09-06-2016,205 dias,"Portugal, Lisboa, Lisboa","Artigo 24.º, n.º 1, alínea e) do Código dos Contratos Públicos",,,,,,Não aplicável.,Não aplicável.,FALSE
Aquisição de consumiveis para ORL,Ajuste Direto Regime Geral,Aquisição de bens móveis,"33140000-3, Material médico de consumo","CENTRO HOSPITALAR LISBOA NORTE, EPE (508481287)","Coselgi, SA (509230598)","8.838,28 €",09-06-2016,09-06-2016,1 dias,"Portugal, Lisboa, Lisboa","Artigo 20.º, n.º 1, alínea a) do Código dos Contratos Públicos",,,,,,Não aplicável.,Não aplicável.,FALSE
Aquisição de oliva p/ impedanciometro,Ajuste Direto Regime Geral,Aquisição de bens móveis,"33190000-8, Dispositivos e produtos médicos variados","CENTRO HOSPITALAR LISBOA NORTE, EPE (508481287)","Coselgi, SA (509230598)","254,00 €",09-06-2016,09-06-2016,1 dias,"Portugal, Lisboa, Lisboa","Artigo 20.º, n.º 1, alínea a) do Código dos Contratos Públicos",,,,,,Não aplicável.,Não aplicável.,FALSE
Aquisição de dispositivo p/ trat. percutaneo,Ajuste Direto Regime Geral,Aquisição de bens móveis,"33190000-8, Dispositivos e produtos médicos variados","CENTRO HOSPITALAR LISBOA NORTE, EPE (508481287)","Abbott laboratórios, Lda. (500006148)","40.000,00 €",09-06-2016,09-06-2016,1 dias,"Portugal, Lisboa, Lisboa","Artigo 20.º, n.º 1, alínea a) do Código dos Contratos Públicos",,,,,,Não aplicável.,Não aplicável.,FALSE
Aquisição de sondas diversas durante o ano de 2016,Ajuste Direto Regime Geral,Aquisição de bens móveis,"33141641-5, Sondas","CENTRO HOSPITALAR LISBOA NORTE, EPE (508481287)","Medtronic, Lda. (504223933)","55,93 €",09-06-2016,09-06-2016,205 dias,"Portugal, Lisboa, Lisboa","Artigo 20.º, n.º 1, alínea a) do Código dos Contratos Públicos",,,,,,Não aplicável.,Não aplicável.,FALSE
Aquisição de tubos endotraquiais,Ajuste Direto Regime Geral,Aquisição de bens móveis,"33171000-9, Material para anestesia e reanimação","CENTRO HOSPITALAR LISBOA NORTE, EPE (508481287)","Smiths Medical, Lda. (507445937)","428,00 €",09-06-2016,09-06-2016,205 dias,"Portugal, Lisboa, Lisboa","Artigo 20.º, n.º 1, alínea a) do Código dos Contratos Públicos",,,,,,Não aplicável.,Não aplicável.,FALSE
Aquisição de produtos de apoio,Ajuste Direto Regime Geral,Aquisição de serviços,"85000000-9, Serviços de saúde e acção social","Centro Hospitalar Lisboa Norte, E. P. E. (508481287)",Mário Paulo Ferreira (197118372),"165,09 €",09-06-2016,09-06-2016,10 dias,"Portugal, Lisboa, Lisboa","Artigo 20.º, n.º 1, alínea a) do Código dos Contratos Públicos",,,,,,Não aplicável.,Não aplicável.,FALSE
Aquisição de produtos de apoio.,Ajuste Direto Regime Geral,Aquisição de serviços,"85000000-9, Serviços de saúde e acção social","Centro Hospitalar Lisboa Norte, E. P. E. (508481287)",Mário Paulo Ferreira (197118372),"184,90 €",09-06-2016,09-06-2016,10 dias,"Portugal, Lisboa, Lisboa","Artigo 20.º, n.º 1, alínea a) do Código dos Contratos Públicos",,,,,,Não aplicável.,Não aplicável.,FALSE
Aquisição de produtos de apoio,Ajuste Direto Regime Geral,Aquisição de serviços,"85000000-9, Serviços de saúde e acção social","Centro Hospitalar Lisboa Norte, E. P. E. (508481287)",Mário Paulo Ferreira (197118372),"160,38 €",09-06-2016,09-06-2016,10 dias,"Portugal, Lisboa, Lisboa","Artigo 20.º, n.º 1, alínea a) do Código dos Contratos Públicos",,,,,,Não aplicável.,Não aplicável.,FALSE
Aquisição de produtos de apoio,Ajuste Direto Regime Geral,Aquisição de serviços,"85000000-9, Serviços de saúde e acção social","Centro Hospitalar Lisboa Norte, E. P. E. (508481287)",Mário Paulo Ferreira (197118372),"141,51 €",09-06-2016,09-06-2016,10 dias,"Portugal, Lisboa, Lisboa","Artigo 20.º, n.º 1, alínea a) do Código dos Contratos Públicos",,,,,,Não aplicável.,Não aplicável.,FALSE
Aquisição de produtos de apoio,Ajuste Direto Regime Geral,Aquisição de serviços,"85000000-9, Serviços de saúde e acção social","Centro Hospitalar Lisboa Norte, E. P. E. (508481287)",Mário Paulo Ferreira (197118372),"184,90 €",09-06-2016,09-06-2016,10 dias,"Portugal, Lisboa, Lisboa","Artigo 20.º, n.º 1, alínea a) do Código dos Contratos Públicos",,,,,,Não aplicável.,Não aplicável.,FALSE
Aquisição de produtos de apoio,Ajuste Direto Regime Geral,Aquisição de serviços,"85000000-9, Serviços de saúde e acção social","Centro Hospitalar Lisboa Norte, E. P. E. (508481287)",Mário Paulo Ferreira (197118372),"295,28 €",09-06-2016,09-06-2016,10 dias,"Portugal, Lisboa, Lisboa","Artigo 20.º, n.º 1, alínea a) do Código dos Contratos Públicos",,,,,,Não aplicável.,Não aplicável.,FALSE
Aquisição de produtos de apoio,Ajuste Direto Regime Geral,Aquisição de serviços,"85000000-9, Serviços de saúde e acção social","Centro Hospitalar Lisboa Norte, E. P. E. (508481287)",Mário Paulo Ferreira (197118372),"297,17 €",09-06-2016,09-06-2016,10 dias,"Portugal, Lisboa, Lisboa","Artigo 20.º, n.º 1, alínea a) do Código dos Contratos Públicos",,,,,,Não aplicável.,Não aplicável.,FALSE
Aquisição de produtos de apoio,Ajuste Direto Regime Geral,Aquisição de serviços,"85000000-9, Serviços de saúde e acção social","Centro Hospitalar Lisboa Norte, E. P. E. (508481287)",Mário Paulo Ferreira (197118372),"245,28 €",09-06-2016,09-06-2016,10 dias,"Portugal, Lisboa, Lisboa","Artigo 20.º, n.º 1, alínea a) do Código dos Contratos Públicos",,,,,,Não aplicável.,Não aplicável.,FALSE
Aquisição de produtos de apoio,Ajuste Direto Regime Geral,Aquisição de serviços,"85000000-9, Serviços de saúde e acção social","Centro Hospitalar Lisboa Norte, E. P. E. (508481287)",Mário Paulo Ferreira (197118372),"99,05 €",09-06-2016,09-06-2016,10 dias,"Portugal, Lisboa, Lisboa","Artigo 20.º, n.º 1, alínea a) do Código dos Contratos Públicos",,,,,,Não aplicável.,Não aplicável.,FALSE
Atribuição de produtos de apoio,Ajuste Direto Regime Geral,Aquisição de serviços,"85000000-9, Serviços de saúde e acção social","Centro Hospitalar Lisboa Norte, E. P. E. (508481287)",Mário Paulo Ferreira (197118372),"139,62 €",09-06-2016,09-06-2016,1 dias,"Portugal, Lisboa, Lisboa","Artigo 20.º, n.º 1, alínea a) do Código dos Contratos Públicos",,,,,,Não aplicável.,Não aplicável.,FALSE
Aquisição de protese auditiva bilateral,Ajuste Direto Regime Geral,Aquisição de serviços,"85000000-9, Serviços de saúde e acção social","Centro Hospitalar Lisboa Norte, E. P. E. (508481287)","Coselgi, SA (509230598)","1.500,00 €",09-06-2016,09-06-2016,1 dias,"Portugal, Lisboa, Lisboa","Artigo 20.º, n.º 1, alínea a) do Código dos Contratos Públicos",,,,,,Não aplicável.,Não aplicável.,FALSE
Reparação de gradeamento da Zona Técnica do Bloco de Neurocirurgia,Ajuste Direto Regime Geral,Empreitadas de obras públicas,"45454000-4, Obras de reestruturação","CENTRO HOSPITALAR LISBOA NORTE, EPE (508481287)","Manuel Esteves Moreira, Lda. (501169601)","1.149,35 €",08-06-2016,08-06-2016,7 dias,"Portugal, Lisboa, Lisboa","Artigo 19.º, alínea a) do Código dos Contratos Públicos",,,,,,Não aplicável.,Não aplicável.,FALSE
Atravessamento da cobertura,Ajuste Direto Regime Geral,Empreitadas de obras públicas,"45261900-3, Obras de reparação e manutenção de coberturas","CENTRO HOSPITALAR LISBOA NORTE, EPE (508481287)","Manuel Esteves Moreira, Lda. (501169601)","3.796,00 €",08-06-2016,08-06-2016,30 dias,"Portugal, Lisboa, Lisboa","Artigo 19.º, alínea a) do Código dos Contratos Públicos",,,,,,Não aplicável.,Não aplicável.,FALSE
Aquisição e outros medicamentos,Ajuste Direto Regime Geral,Aquisição de bens móveis,"33690000-3, Medicamentos vários","CENTRO HOSPITALAR LISBOA NORTE, EPE (508481287)","J & J, Lda (500153370)","751,24 €",08-06-2016,06-06-2016,206 dias,"Portugal, Lisboa, Lisboa","Artigo 24.º, n.º 1, alínea e) do Código dos Contratos Públicos",,,,,,Não aplicável.,Não aplicável.,FALSE
Aquisição de produtos de apoio,Ajuste Direto Regime Geral,Aquisição de serviços,"85000000-9, Serviços de saúde e acção social","Centro Hospitalar Lisboa Norte, E. P. E. (508481287)",Mário Paulo Ferreira (197118372),"172,64 €",08-06-2016,08-06-2016,10 dias,"Portugal, Lisboa, Lisboa","Artigo 20.º, n.º 1, alínea a) do Código dos Contratos Públicos",,,,,,Não aplicável.,Não aplicável.,FALSE
Aquisição de consumiveis de Ortopedia,Ajuste Direto Regime Geral,Aquisição de bens móveis,"33190000-8, Dispositivos e produtos médicos variados","Centro Hospitalar Lisboa Norte, E. P. E. (508481287)","Medical Value, SA (509776531)","7.139,00 €",08-06-2016,08-06-2016,1 dias,"Portugal, Lisboa, Lisboa","Artigo 20.º, n.º 1, alínea a) do Código dos Contratos Públicos",,,,,,Não aplicável.,Não aplicável.,FALSE
Aquisição de hemoculturas aerobios,Ajuste Direto Regime Geral,Aquisição de bens móveis,"33690000-3, Medicamentos vários","Centro Hospitalar Lisboa Norte, E. P. E. (508481287)","Quilaban, lda. (500399670)","5.700,00 €",08-06-2016,08-06-2016,1 dias,"Portugal, Lisboa, Lisboa","Artigo 24.º, n.º 1, alínea e) do Código dos Contratos Públicos",,,,,,Não aplicável.,Não aplicável.,FALSE
Aquisição de etanol gelificado c/ celulose,Ajuste Direto Regime Geral,Aquisição de bens móveis,"33190000-8, Dispositivos e produtos médicos variados","Centro Hospitalar Lisboa Norte, E. P. E. (508481287)","FC Stinger, Lda. (508930219)","17.360,00 €",08-06-2016,08-06-2016,1 dias,"Portugal, Lisboa, Lisboa","Artigo 20.º, n.º 1, alínea a) do Código dos Contratos Públicos",,,,,,Não aplicável.,Não aplicável.,FALSE
Aquisição de consumiveis de ortopedia,Ajuste Direto Regime Geral,Aquisição de bens móveis,"33190000-8, Dispositivos e produtos médicos variados","Centro Hospitalar Lisboa Norte, E. P. E. (508481287)","Johnson & Johnson, lda. (500153370)","8.393,00 €",07-06-2016,07-06-2016,1 dias,"Portugal, Lisboa, Lisboa","Artigo 20.º, n.º 1, alínea a) do Código dos Contratos Públicos",,,,,,Não aplicável.,Não aplicável.,FALSE
Aquisição de esfincter urinario,Ajuste Direto Regime Geral,Aquisição de bens móveis,"33190000-8, Dispositivos e produtos médicos variados","Centro Hospitalar Lisboa Norte, E. P. E. (508481287)","AMS Iberica, SL (980223598)","7.600,00 €",07-06-2016,07-06-2016,2 dias,"Portugal, Lisboa, Lisboa","Artigo 20.º, n.º 1, alínea a) do Código dos Contratos Públicos",,,,,,Não aplicável.,Não aplicável.,FALSE
Aquisição de produtos de apoio,Ajuste Direto Regime Geral,Aquisição de serviços,"85000000-9, Serviços de saúde e acção social","Centro Hospitalar Lisboa Norte, E. P. E. (508481287)",Mário Paulo Ferreira (197118372),"167,92 €",07-06-2016,07-06-2016,10 dias,"Portugal, Lisboa, Lisboa","Artigo 20.º, n.º 1, alínea a) do Código dos Contratos Públicos",,,,,,Não aplicável.,Não aplicável.,FALSE
Aquisição de um frigorifico e de uma arca de laboratório,Ajuste Direto Regime Geral,Aquisição de bens móveis,"39711100-0, Frigoríficos e congeladores","Centro Hospitalar Lisboa Norte, E. P. E. (508481287)","Frilabo II, Lda. (507958861)","1.660,00 €",07-06-2016,06-06-2016,60 dias,"Portugal, Lisboa, Lisboa","Artigo 20.º, n.º 1, alínea a) do Código dos Contratos Públicos",,,,,,Não aplicável.,Não aplicável.,FALSE
Substituição e montagem de uma estrutura,Ajuste Direto Regime Geral,Empreitadas de obras públicas,"45223200-8, Obras de estrutura","CENTRO HOSPITALAR LISBOA NORTE, EPE (508481287)","Infortipo, lda. (502964472)","9.680,00 €",07-06-2016,07-06-2016,30 dias,"Portugal, Lisboa, Lisboa","Artigo 19.º, alínea a) do Código dos Contratos Públicos",,,,,,Não aplicável.,Não aplicável.,FALSE
Aquisição de sacos de urina,Ajuste Direto Regime Geral,Aquisição de bens móveis,"33141615-4, Sacos para urina","CENTRO HOSPITALAR LISBOA NORTE, EPE (508481287)",HR HOSPITALAR LDA (501895558),"36,00 €",07-06-2016,07-06-2016,207 dias,"Portugal, Lisboa, Lisboa","Artigo 20.º, n.º 1, alínea a) do Código dos Contratos Públicos",,,,,,Não aplicável.,Não aplicável.,FALSE
Aquisição de sacos de urina,Ajuste Direto Regime Geral,Aquisição de bens móveis,"33141615-4, Sacos para urina","CENTRO HOSPITALAR LISBOA NORTE, EPE (508481287)",MEDICINALIA CORMEDICA LDA (500684324),"2.882,00 €",07-06-2016,07-06-2016,207 dias,"Portugal, Lisboa, Lisboa","Artigo 20.º, n.º 1, alínea a) do Código dos Contratos Públicos",,,,,,Não aplicável.,Não aplicável.,FALSE
Aquisição de produtos de apoio,Ajuste Direto Regime Geral,Aquisição de serviços,"85000000-9, Serviços de saúde e acção social","Centro Hospitalar Lisboa Norte, E. P. E. (508481287)","Ortopedia Moderna, Lda. (500481300)","1.349,00 €",06-06-2016,06-06-2016,20 dias,"Portugal, Lisboa, Lisboa","Artigo 20.º, n.º 1, alínea a) do Código dos Contratos Públicos",,,,,,Não aplicável.,Não aplicável.,FALSE
Aquisição de sulfato bario,Ajuste Direto Regime Geral,Aquisição de bens móveis,"33690000-3, Medicamentos vários","Centro Hospitalar Lisboa Norte, E. P. E. (508481287)","Dermis, Sa (507988990)","5.760,00 €",06-06-2016,06-06-2016,1 dias,"Portugal, Lisboa, Lisboa","Artigo 24.º, n.º 1, alínea e) do Código dos Contratos Públicos",,,,,,Não aplicável.,Não aplicável.,FALSE
Aquisição de mycobacterium,Ajuste Direto Regime Geral,Aquisição de bens móveis,"33690000-3, Medicamentos vários","Centro Hospitalar Lisboa Norte, E. P. E. (508481287)","Quilaban, Lda. (500399670)","5.400,00 €",06-06-2016,06-06-2016,1 dias,"Portugal, Lisboa, Lisboa","Artigo 24.º, n.º 1, alínea e) do Código dos Contratos Públicos",,,,,,Não aplicável.,Não aplicável.,FALSE
Aquisição de CDI BIV,Ajuste Direto Regime Geral,Aquisição de bens móveis,"33190000-8, Dispositivos e produtos médicos variados","Centro Hospitalar Lisboa Norte, E. P. E. (508481287)","Biotronik, Lda. (510726941)","13.308,00 €",06-06-2016,06-06-2016,1 dias,"Portugal, Lisboa, Lisboa","Artigo 20.º, n.º 1, alínea a) do Código dos Contratos Públicos",,,,,,Não aplicável.,Não aplicável.,FALSE
Aquisição de ulipristal,Ajuste Direto Regime Geral,Aquisição de bens móveis,"33690000-3, Medicamentos vários","CENTRO HOSPITALAR LISBOA NORTE, EPE (508481287)","Logifarma, Sa (503934640)","6.678,00 €",06-06-2016,06-06-2016,1 dias,"Portugal, Lisboa, Lisboa","Artigo 24.º, n.º 1, alínea e) do Código dos Contratos Públicos",,,,,,Não aplicável.,Não aplicável.,FALSE
Aquisição de valvula aortica,Ajuste Direto Regime Geral,Aquisição de bens móveis,"33190000-8, Dispositivos e produtos médicos variados","CENTRO HOSPITALAR LISBOA NORTE, EPE (508481287)","Edwards Lifesciences, lda. (508014832)","6.100,00 €",06-06-2016,06-06-2016,1 dias,"Portugal, Lisboa, Lisboa","Artigo 20.º, n.º 1, alínea a) do Código dos Contratos Públicos",,,,,,Não aplicável.,Não aplicável.,FALSE
Aquisição de etanol gelificado,Ajuste Direto Regime Geral,Aquisição de bens móveis,"33190000-8, Dispositivos e produtos médicos variados","CENTRO HOSPITALAR LISBOA NORTE, EPE (508481287)","FC Stinger, lda. (508930219)","7.440,00 €",06-06-2016,06-06-2016,1 dias,"Portugal, Lisboa, Lisboa","Artigo 20.º, n.º 1, alínea a) do Código dos Contratos Públicos",,,,,,Não aplicável.,Não aplicável.,FALSE
Aquisição de CDI BIV,Ajuste Direto Regime Geral,Aquisição de bens móveis,"33190000-8, Dispositivos e produtos médicos variados","CENTRO HOSPITALAR LISBOA NORTE, EPE (508481287)","Lineanova, Lda. (505514010)","14.185,00 €",06-06-2016,06-06-2016,1 dias,"Portugal, Lisboa, Lisboa","Artigo 20.º, n.º 1, alínea a) do Código dos Contratos Públicos",,,,,,Não aplicável.,Não aplicável.,FALSE
Aquisição de CDI BIV,Ajuste Direto Regime Geral,Aquisição de bens móveis,"33190000-8, Dispositivos e produtos médicos variados","Centro Hospitalar Lisboa Norte, E. P. E. (508481287)","St Jude Medical, Lda. (504180746)","14.496,00 €",06-06-2016,06-06-2016,1 dias,"Portugal, Lisboa, Lisboa","Artigo 20.º, n.º 1, alínea a) do Código dos Contratos Públicos",,,,,,Não aplicável.,Não aplicável.,FALSE
Aquisição de valvula aortica,Ajuste Direto Regime Geral,Aquisição de bens móveis,"33190000-8, Dispositivos e produtos médicos variados","Centro Hospitalar Lisboa Norte, E. P. E. (508481287)","Edwards Lifesciences, Lda. (508014832)","12.200,00 €",06-06-2016,06-06-2016,1 dias,"Portugal, Lisboa, Lisboa","Artigo 20.º, n.º 1, alínea a) do Código dos Contratos Públicos",,,,,,Não aplicável.,Não aplicável.,FALSE
Aquisição de endoprotese aortica,Ajuste Direto Regime Geral,Aquisição de bens móveis,"33190000-8, Dispositivos e produtos médicos variados","Centro Hospitalar Lisboa Norte, E. P. E. (508481287)","Biosnda, lda. (501463313)","17.000,00 €",06-06-2016,06-06-2016,1 dias,"Portugal, Lisboa, Lisboa","Artigo 20.º, n.º 1, alínea a) do Código dos Contratos Públicos",,,,,,Não aplicável.,Não aplicável.,FALSE
Aquisição de endoprotese aortica,Ajuste Direto Regime Geral,Aquisição de bens móveis,"33190000-8, Dispositivos e produtos médicos variados","Centro Hospitalar Lisboa Norte, E. P. E. (508481287)","Biosonda, Lda. (501463313)","8.500,00 €",06-06-2016,06-06-2016,1 dias,"Portugal, Lisboa, Lisboa","Artigo 20.º, n.º 1, alínea a) do Código dos Contratos Públicos",,,,,,Não aplicável.,Não aplicável.,FALSE
Aquisição de material diverso para o Serviço de Neurocirurgia,Ajuste Direto Regime Geral,Aquisição de bens móveis,"33190000-8, Dispositivos e produtos médicos variados","Centro Hospitalar Lisboa Norte, E. P. E. (508481287)","Johnson & Johnson, Lda. (500153370)","7.645,50 €",06-06-2016,06-06-2016,1 dias,"Portugal, Lisboa, Lisboa","Artigo 20.º, n.º 1, alínea a) do Código dos Contratos Públicos",,,,,,Não aplicável.,Não aplicável.,FALSE
Aquisição de sondas diversas para o ano de 2016,Ajuste Direto Regime Geral,Aquisição de bens móveis,"33141641-5, Sondas","CENTRO HOSPITALAR LISBOA NORTE, EPE (508481287)","Vygon, Lda. (503232785)","2.196,76 €",06-06-2016,06-06-2016,208 dias,"Portugal, Lisboa, Lisboa","Artigo 20.º, n.º 1, alínea a) do Código dos Contratos Públicos",,,,,,Não aplicável.,Não aplicável.,FALSE
Aquisição de sondas diversas,Ajuste Direto Regime Geral,Aquisição de bens móveis,"33141641-5, Sondas","CENTRO HOSPITALAR LISBOA NORTE, EPE (508481287)","Teleflex, SA (980249783)","2.922,00 €",03-06-2016,03-06-2016,211 dias,"Portugal, Lisboa, Lisboa","Artigo 20.º, n.º 1, alínea a) do Código dos Contratos Públicos",,,,,,Não aplicável.,Não aplicável.,FALSE
Aquisição de protese peniana,Ajuste Direto Regime Geral,Aquisição de bens móveis,"33190000-8, Dispositivos e produtos médicos variados","CENTRO HOSPITALAR LISBOA NORTE, EPE (508481287)","AML Systems, SL (980223598)","6.200,00 €",03-06-2016,03-06-2016,1 dias,"Portugal, Lisboa, Lisboa","Artigo 20.º, n.º 1, alínea a) do Código dos Contratos Públicos",,,,,,Não aplicável.,Não aplicável.,FALSE
Aquisição de sedimento urinario,Ajuste Direto Regime Geral,Aquisição de bens móveis,"33690000-3, Medicamentos vários","CENTRO HOSPITALAR LISBOA NORTE, EPE (508481287)","Roche, Lda. (504282921)","6.000,00 €",03-06-2016,31-05-2016,1 dias,"Portugal, Lisboa, Lisboa","Artigo 24.º, n.º 1, alínea e) do Código dos Contratos Públicos",,,,,,Não aplicável.,Não aplicável.,FALSE
Aquisição de oxido nitrico,Ajuste Direto Regime Geral,Aquisição de bens móveis,"33690000-3, Medicamentos vários","CENTRO HOSPITALAR LISBOA NORTE, EPE (508481287)","Air Liquide Medicinal, SA (501576436)","8.400,00 €",03-06-2016,02-06-2016,1 dias,"Portugal, Lisboa, Lisboa","Artigo 24.º, n.º 1, alínea e) do Código dos Contratos Públicos",,,,,,Não aplicável.,Não aplicável.,FALSE
Aquisição de zidovudina,Ajuste Direto Regime Geral,Aquisição de bens móveis,"33690000-3, Medicamentos vários","CENTRO HOSPITALAR LISBOA NORTE, EPE (508481287)","Aurobindo, Lda. (508527465)","160,00 €",03-06-2016,02-06-2016,1 dias,"Portugal, Lisboa, Lisboa","Artigo 20.º, n.º 1, alínea a) do Código dos Contratos Públicos",,,,,,Não aplicável.,Não aplicável.,FALSE
Reparação de pavimento vinilico,Ajuste Direto Regime Geral,Empreitadas de obras públicas,"45430000-0, Obras de revestimento de solos e paredes","Centro Hospitalar Lisboa Norte, E. P. E. (508481287)","Gecolix, Lda. (500688150)","5.445,60 €",03-06-2016,03-06-2016,3 dias,"Portugal, Lisboa, Lisboa","Artigo 19.º, alínea a) do Código dos Contratos Públicos",,,,,,Não aplicável.,Não aplicável.,FALSE
Aquisição de factor VIII recombinante,Ajuste Direto Regime Geral,Aquisição de bens móveis,"33690000-3, Medicamentos vários","CENTRO HOSPITALAR LISBOA NORTE, EPE (508481287)","Baxalta, lda. (513252193)","7.789,50 €",03-06-2016,03-06-2016,1 dias,"Portugal, Lisboa, Lisboa","Artigo 24.º, n.º 1, alínea e) do Código dos Contratos Públicos",,,,,,Não aplicável.,Não aplicável.,FALSE
Aquisição de alginato de calcio,Ajuste Direto Regime Geral,Aquisição de bens móveis,"33690000-3, Medicamentos vários","CENTRO HOSPITALAR LISBOA NORTE, EPE (508481287)","KVtech Portugal, Lda (508671531)","58,50 €",03-06-2016,03-06-2016,1 dias,"Portugal, Lisboa, Lisboa","Artigo 20.º, n.º 1, alínea a) do Código dos Contratos Públicos",,,,,,Não aplicável.,Não aplicável.,FALSE
Aquisição de factor VIII recombinante,Ajuste Direto Regime Geral,Aquisição de bens móveis,"33690000-3, Medicamentos vários","CENTRO HOSPITALAR LISBOA NORTE, EPE (508481287)","Pfizer, lda. (513300376)","8.730,58 €",03-06-2016,03-06-2016,1 dias,"Portugal, Lisboa, Lisboa","Artigo 24.º, n.º 1, alínea e) do Código dos Contratos Públicos",,,,,,Não aplicável.,Não aplicável.,FALSE
Aquisição de consumiveis de ortopedia,Ajuste Direto Regime Geral,Aquisição de bens móveis,"33190000-8, Dispositivos e produtos médicos variados","Centro Hospitalar Lisboa Norte, E. P. E. (508481287)","Jonhson & Johnson, Lda. (500153370)","8.696,00 €",03-06-2016,03-06-2016,1 dias,"Portugal, Lisboa, Lisboa","Artigo 20.º, n.º 1, alínea a) do Código dos Contratos Públicos",,,,,,Não aplicável.,Não aplicável.,FALSE
Aquisição de esfincter urinario,Ajuste Direto Regime Geral,Aquisição de bens móveis,"33190000-8, Dispositivos e produtos médicos variados","Centro Hospitalar Lisboa Norte, E. P. E. (508481287)","AMS,  Iberica, SL (980223598)","7.600,00 €",03-06-2016,03-06-2016,1 dias,"Portugal, Lisboa, Lisboa","Artigo 20.º, n.º 1, alínea a) do Código dos Contratos Públicos",,,,,,Não aplicável.,Não aplicável.,FALSE
Aquisição de fio de seda,Ajuste Direto Regime Geral,Aquisição de bens móveis,"33190000-8, Dispositivos e produtos médicos variados","Centro Hospitalar Lisboa Norte, E. P. E. (508481287)","B. Braun Medical, Lda. (501506543)","302,40 €",03-06-2016,03-06-2016,1 dias,"Portugal, Lisboa, Lisboa","Artigo 20.º, n.º 1, alínea a) do Código dos Contratos Públicos",,,,,,Não aplicável.,Não aplicável.,FALSE
Aquisição de fios seda,Ajuste Direto Regime Geral,Aquisição de bens móveis,"33190000-8, Dispositivos e produtos médicos variados","Centro Hospitalar Lisboa Norte, E. P. E. (508481287)","Socime II, lda. (504453939)","382,56 €",03-06-2016,03-06-2016,1 dias,"Portugal, Lisboa, Lisboa","Artigo 20.º, n.º 1, alínea a) do Código dos Contratos Públicos",,,,,,Não aplicável.,Não aplicável.,FALSE
Aquisição de consumiveis para o Serviço de Cardiologia,Ajuste Direto Regime Geral,Aquisição de bens móveis,"33190000-8, Dispositivos e produtos médicos variados","Centro Hospitalar Lisboa Norte, E. P. E. (508481287)","Boston Scientific, Lda. (504988964)","16.880,00 €",03-06-2016,03-06-2016,1 dias,"Portugal, Lisboa, Lisboa","Artigo 20.º, n.º 1, alínea a) do Código dos Contratos Públicos",,,,,,Não aplicável.,Não aplicável.,FALSE
Aquisição de Pijamas para crianças do CHLN,Ajuste Direto Regime Geral,Aquisição de bens móveis,"18318300-4, Pijamas","CENTRO HOSPITALAR LISBOA NORTE, EPE (508481287)",MUNDIFATO - RIBEIRO E CARLOS LDA (502383542),"3.552,00 €",03-06-2016,03-06-2016,211 dias,"Portugal, Lisboa, Lisboa","Artigo 20.º, n.º 1, alínea a) do Código dos Contratos Públicos",,,,,,Não aplicável.,Não aplicável.,FALSE
Reparação de pavimento vinilico,Ajuste Direto Regime Geral,Empreitadas de obras públicas,"45430000-0, Obras de revestimento de solos e paredes","CENTRO HOSPITALAR LISBOA NORTE, EPE (508481287)","Enginton, lda. (508250501)","7.973,35 €",02-06-2016,02-06-2016,45 dias,"Portugal, Lisboa, Lisboa","Artigo 19.º, alínea a) do Código dos Contratos Públicos",,,,,,Não aplicável.,Não aplicável.,FALSE
Colocação de 9 fechaduras,Ajuste Direto Regime Geral,Empreitadas de obras públicas,"45453000-7, Obras de revisão e recuperação","CENTRO HOSPITALAR LISBOA NORTE, EPE (508481287)",Francisco José Vieira Marques (128779799),"685,00 €",02-06-2016,02-06-2016,1 dias,"Portugal, Lisboa, Lisboa","Artigo 19.º, alínea a) do Código dos Contratos Públicos",,,,,,Não aplicável.,Não aplicável.,FALSE
Colocação de porta,Ajuste Direto Regime Geral,Empreitadas de obras públicas,"45421100-5, Instalação de portas e janelas e de componentes afins","Centro Hospitalar Lisboa Norte, E. P. E. (508481287)",Francisco José Vieira Marques (128779799),"870,00 €",02-06-2016,02-06-2016,60 dias,"Portugal, Lisboa, Lisboa","Artigo 19.º, alínea a) do Código dos Contratos Públicos",,,,,,Não aplicável.,Não aplicável.,FALSE
Colocação de fechadura,Ajuste Direto Regime Geral,Empreitadas de obras públicas,"45453000-7, Obras de revisão e recuperação","CENTRO HOSPITALAR LISBOA NORTE, EPE (508481287)",Francisco Jose Vieira Marques (128779799),"117,00 €",02-06-2016,02-06-2016,1 dias,"Portugal, Lisboa, Lisboa","Artigo 19.º, alínea a) do Código dos Contratos Públicos",,,,,,Não aplicável.,Não aplicável.,FALSE
Reparação de resguardo de duche,Ajuste Direto Regime Geral,Empreitadas de obras públicas,"45453000-7, Obras de revisão e recuperação","CENTRO HOSPITALAR LISBOA NORTE, EPE (508481287)",Francisco Jos Vieira Marques (128779799),"195,00 €",02-06-2016,02-06-2016,60 dias,"Portugal, Lisboa, Lisboa","Artigo 19.º, alínea a) do Código dos Contratos Públicos",,,,,,Não aplicável.,Não aplicável.,FALSE
Aquisição de capas para processos anuais,Ajuste Direto Regime Geral,Aquisição de bens móveis,"22852100-8, Capas para processos","Centro Hospitalar Lisboa Norte, E. P. E. (508481287)","Image Masters, lda. (508568269)","2.394,00 €",02-06-2016,02-06-2016,212 dias,"Portugal, Lisboa, Lisboa","Artigo 20.º, n.º 1, alínea a) do Código dos Contratos Públicos",,,,,,Não aplicável.,Não aplicável.,FALSE
Aquisição de material diverso para o Serviço de Cirurgia Vascular,Ajuste Direto Regime Geral,Aquisição de bens móveis,"33190000-8, Dispositivos e produtos médicos variados","Centro Hospitalar Lisboa Norte, E. P. E. (508481287)","Biosonda, lda. (501463313)","5.690,00 €",02-06-2016,02-06-2016,1 dias,"Portugal, Lisboa, Lisboa","Artigo 20.º, n.º 1, alínea a) do Código dos Contratos Públicos",,,,,,Não aplicável.,Não aplicável.,FALSE
Aquisição de endoprotese,Ajuste Direto Regime Geral,Aquisição de bens móveis,"33190000-8, Dispositivos e produtos médicos variados","Centro Hospitalar Lisboa Norte, E. P. E. (508481287)","Lusopalex, lda. (503531588)","15.000,00 €",02-06-2016,02-06-2016,1 dias,"Portugal, Lisboa, Lisboa","Artigo 20.º, n.º 1, alínea a) do Código dos Contratos Públicos",,,,,,Não aplicável.,Não aplicável.,FALSE
Aluguer de software de gestão de risco,Ajuste Direto Regime Geral,Aquisição de serviços,"72210000-0, Serviços de programação de pacotes de software","CENTRO HOSPITALAR LISBOA NORTE, EPE (508481287)","Recursos, Ideias e Soluções Informáticas, Lda. (503754803)","8.900,00 €",01-06-2016,01-06-2016,244 dias,"Portugal, Lisboa, Lisboa","Artigo 20.º, n.º 1, alínea a) do Código dos Contratos Públicos",,,,,,Não aplicável.,Não aplicável.,FALSE
Aquisição de sacos de urina,Ajuste Direto Regime Geral,Aquisição de bens móveis,"33141615-4, Sacos para urina","CENTRO HOSPITALAR LISBOA NORTE, EPE (508481287)","CR Bard, Lda. (502438274)","2.448,00 €",01-06-2016,01-06-2016,244 dias,"Portugal, Lisboa, Lisboa","Artigo 20.º, n.º 1, alínea a) do Código dos Contratos Públicos",,,,,,Não aplicável.,Não aplicável.,FALSE
Reparação de ecógrafo,Ajuste Direto Regime Geral,Aquisição de serviços,"50420000-5, Serviços de reparação e manutenção de equipamento médico e cirúrgico","CENTRO HOSPITALAR LISBOA NORTE, EPE (508481287)","General Electric Portuguesa, SA (500357129)","5.290,45 €",01-06-2016,01-06-2016,30 dias,"Portugal, Lisboa, Lisboa","Artigo 20.º, n.º 1, alínea a) do Código dos Contratos Públicos",,,,,,Não aplicável.,Não aplicável.,FALSE
Aquisição de material de ortopedia,Ajuste Direto Regime Geral,Aquisição de bens móveis,"33190000-8, Dispositivos e produtos médicos variados","Centro Hospitalar Lisboa Norte, E. P. E. (508481287)","Johnson & Johnson, Lda. (500153370)","5.395,32 €",31-05-2016,31-05-2016,1 dias,"Portugal, Lisboa, Lisboa","Artigo 20.º, n.º 1, alínea a) do Código dos Contratos Públicos",,,,,,Não aplicável.,Não aplicável.,FALSE
Aquisição de processador de implante coclear,Ajuste Direto Regime Geral,Aquisição de bens móveis,"33190000-8, Dispositivos e produtos médicos variados","Centro Hospitalar Lisboa Norte, E. P. E. (508481287)","Coselgi, SA (509230598)","8.943,00 €",31-05-2016,31-05-2016,3 dias,"Portugal, Lisboa, Lisboa","Artigo 20.º, n.º 1, alínea a) do Código dos Contratos Públicos",,,,,,Não aplicável.,Não aplicável.,FALSE
Aquisiçã de lâmpadas de halogeneo,Ajuste Direto Regime Geral,Aquisição de bens móveis,"31512100-9, Lâmpadas de halogéneo, lineares","Centro Hospitalar Lisboa Norte, E. P. E. (508481287)","Henvi, Lda. (500918503)","323,60 €",31-05-2016,31-05-2016,15 dias,"Portugal, Lisboa, Lisboa","Artigo 20.º, n.º 1, alínea a) do Código dos Contratos Públicos",,,,,,Não aplicável.,Não aplicável.,FALSE
Aquisição de produtos de apoio,Ajuste Direto Regime Geral,Aquisição de serviços,"85000000-9, Serviços de saúde e acção social","Centro Hospitalar Lisboa Norte, E. P. E. (508481287)","Ortopedia Moderna, lda. (500481300)","500,60 €",31-05-2016,31-05-2016,20 dias,"Portugal, Lisboa, Lisboa","Artigo 20.º, n.º 1, alínea a) do Código dos Contratos Públicos",,,,,,Não aplicável.,Não aplicável.,FALSE
