Objeto do Contrato,Tipo de Procedimento,Tipo(s) de Contrato,CPVs,Entidade(s) Adjudicante(s),Entidade(s) Adjudicatária(s),Preço Contratual,Data de Publicação,Data de Celebração do Contrato,Prazo de Execução,Local de Execução,Fundamentação,Data de Fecho do Contrato,Preço Total Efetivo,Causas das Alterações ao Prazo,Causas das Alterações ao Preço,Estado,N.º registo do Acordo Quadro,Descrição do Acordo Quadro,Procedimento Centralizado
Contrato de Assistência Técnica a Diversos Equipamentos,Ajuste Direto Regime Geral,Aquisição de serviços,"71356200-0, Serviços de assistência técnica","Centro Hospitalar Vila Nova de Gaia - Espinho, E. P. E. (508142156)","Lusopalex, Lda (503531588)","7.040,00 €",11-10-2018,21-12-2017,365 dias,"Portugal, Porto, Vila Nova de Gaia","Artigo 24.º, n.º 1, alínea e) do Código dos Contratos Públicos",,,,,,Não aplicável.,Não aplicável.,FALSE
Assistência Técnica a Diversas UPS,Ajuste Direto Regime Geral,Aquisição de serviços,"50532400-7, Serviços de reparação e manutenção de equipamento de distribuição eléctrica","Centro Hospitalar Vila Nova de Gaia - Espinho, E. P. E. (508142156)","LC POWER-Luis Carneiro, Sol. de Energia, S.A. (503074675)","6.836,00 €",10-10-2018,11-05-2018,365 dias,"Portugal, Porto, Vila Nova de Gaia","Artigo 24.º, n.º 1, alínea e), subalínea iii) do Código dos Contratos Públicos",,,,,,Não aplicável.,Não aplicável.,FALSE
"1358718 - CLOROHEXIDINA, PENSO IMPREGNADO PARA CVC 7,5CMX8,5CM ",Ajuste Direto Regime Geral,Aquisição de bens móveis,"33600000-6, Produtos farmacêuticos","Centro Hospitalar Vila Nova de Gaia - Espinho, E. P. E. (508142156)",	3M españa (980560241),"3.000,00 €",10-10-2018,24-07-2018,160 dias,"Portugal, Porto, Vila Nova de Gaia","Artigo 24.º, n.º 1, alínea e), subalínea iii) do Código dos Contratos Públicos",,,,,,Não aplicável.,Não aplicável.,FALSE
1359018 - Alcool isopropilico 70% esteril spray FRS 1 L,Ajuste Direto Regime Geral,Aquisição de bens móveis,"33600000-6, Produtos farmacêuticos","Centro Hospitalar Vila Nova de Gaia - Espinho, E. P. E. (508142156)",VWR (503842770),"899,04 €",10-10-2018,24-07-2018,160 dias,"Portugal, Porto, Vila Nova de Gaia","Artigo 24.º, n.º 1, alínea e), subalínea iii) do Código dos Contratos Públicos",,,,,,Não aplicável.,Não aplicável.,FALSE
Assistência Técnica aos Equipamentos de Eletrónica e Automatismo,Ajuste Direto Regime Geral,Aquisição de serviços,"50000000-5, Serviços de reparação e manutenção","Centro Hospitalar Vila Nova de Gaia - Espinho, E. P. E. (508142156)","Infocontrol, S.A. (501395784)","1.931,11 €",10-10-2018,26-03-2018,365 dias,"Portugal, Porto, Vila Nova de Gaia","Artigo 24.º, n.º 1, alínea e) do Código dos Contratos Públicos",,,,,,Não aplicável.,Não aplicável.,FALSE
Controlo e Licenciamento no âmbito da proteção radiológica de equipamentos/ instalações produtores de radiações ionizantes,Ajuste Direto Regime Geral,Aquisição de serviços,"71356100-9, Serviços de controlo técnico","Centro Hospitalar Vila Nova de Gaia - Espinho, E. P. E. (508142156)",ISQ - Instituto de Soldadura e Qualidade (500140022),"7.211,96 €",10-10-2018,24-05-2018,365 dias,"Portugal, Porto, Vila Nova de Gaia","Artigo 20.º, n.º 1, alínea d) do Código dos Contratos Públicos",,,,,,Não aplicável.,Não aplicável.,FALSE
Contrato de Assistência Técnica a Elevadores,Ajuste Direto Regime Geral,Aquisição de serviços,"50750000-7, Serviços de manutenção de elevadores","Centro Hospitalar Vila Nova de Gaia - Espinho, E. P. E. (508142156)","Grupo Português de Elevadores do Norte, Lda. (500959579)","6.624,00 €",10-10-2018,03-04-2018,365 dias,"Portugal, Porto, Vila Nova de Gaia","Artigo 20.º, n.º 1, alínea d) do Código dos Contratos Públicos",,,,,,Não aplicável.,Não aplicável.,FALSE
Aquisição de Imatinib 400 MG Comp. ao Abrigo do AQ 2017/06 do SPMS,Ao abrigo de acordo-quadro (art.º 259.º),Aquisição de bens móveis,"33600000-6, Produtos farmacêuticos","Centro Hospitalar Vila Nova de Gaia - Espinho, E. P. E. (508142156)","Accord Healthcare, Unipessoal, Lda. (508622263)","1.800,00 €",10-10-2018,09-10-2018,90 dias,"Portugal, Porto, Vila Nova de Gaia",Artigo 259.º do Código dos Contratos Públicos,,,,,,2969238,"CP 2017/6 - Acordo Quadro para fornecimento de Medicamentos do Foro Oncológico e Imunomoduladores, às Instituições e Serviços do Serviço Nacional de Saúde",FALSE
"Serviço de Assistência Técnica aos Equipamentos Kardex, Pyxis e Triturus",Ajuste Direto Regime Geral,Aquisição de serviços,"50420000-5, Serviços de reparação e manutenção de equipamento médico e cirúrgico","Centro Hospitalar Vila Nova de Gaia - Espinho, E. P. E. (508142156)","Grifols, Portugal, Lda. (502041285)","14.148,13 €",09-10-2018,01-08-2018,153 dias,"Portugal, Porto, Vila Nova de Gaia","Artigo 24.º, n.º 1, alínea e), subalínea iii) do Código dos Contratos Públicos",,,,,,Não aplicável.,Não aplicável.,FALSE
Aquisição de Levantamento de Condições Para a Fase C de Construção do NEH,Ajuste Direto Regime Geral,Aquisição de serviços,"71541000-2, Serviços de gestão de projectos de construção","Centro Hospitalar Vila Nova de Gaia - Espinho, E. P. E. (508142156)","Mecflui - Engenharia, Lda.  (504713507)","100.000,00 €",09-10-2018,27-09-2018,10 dias,"Portugal, Porto, Vila Nova de Gaia","Artigo 24.º, n.º 1, alínea c) do Código dos Contratos Públicos",,,,,,Não aplicável.,Não aplicável.,FALSE
Contrato de Assistência Técnica aos Equipamentos de Eletromedicina,Ajuste Direto Regime Geral,Aquisição de serviços,"50421000-2, Serviços de reparação e manutenção de equipamento médico","Centro Hospitalar Vila Nova de Gaia - Espinho, E. P. E. (508142156)","Getinge Group Portugal, Unipessoal, Lda. (506819698)","120.845,40 €",09-10-2018,01-08-2018,365 dias,"Portugal, Porto, Vila Nova de Gaia","Artigo 24.º, n.º 1, alínea e) do Código dos Contratos Públicos",,,,,,Não aplicável.,Não aplicável.,FALSE
"Tratamento de Águas, Ar e Ambiente",Ajuste Direto Regime Geral,Aquisição de serviços,"90700000-4, Serviços ambientais","Centro Hospitalar Vila Nova de Gaia - Espinho, E. P. E. (508142156)",DPM-Tratamento de Águas (503322342),"2.534,00 €",09-10-2018,01-01-2018,365 dias,"Portugal, Porto, Vila Nova de Gaia","Artigo 24.º, n.º 1, alínea e) do Código dos Contratos Públicos",,,,,,Não aplicável.,Não aplicável.,FALSE
Serviços de Assistência Técnica a Diversos Equipamentos de TAC e Ecógrafos,Ajuste Direto Regime Geral,Aquisição de serviços,"50421000-2, Serviços de reparação e manutenção de equipamento médico","Centro Hospitalar Vila Nova de Gaia - Espinho, E. P. E. (508142156)","Canon Medical Systems, S.A. (980023700)","139.556,00 €",09-10-2018,12-06-2018,203 dias,"Portugal, Porto, Vila Nova de Gaia","Artigo 24.º, n.º 1, alínea e), subalínea iii) do Código dos Contratos Públicos",,,,,,Não aplicável.,Não aplicável.,FALSE
1346018. - Pirfenidona 801 mg comp,Ajuste Direto Regime Geral,Aquisição de bens móveis,"33600000-6, Produtos farmacêuticos",Centro Hospitalar Vila Nova de Gaia (CHNVG) (508142156),"Roche farmacêutica Química, Lda (500233810)","230.731,20 €",08-10-2018,28-09-2018,90 dias,"Portugal, Porto, Vila Nova de Gaia","Artigo 24.º, n.º 1, alínea e), subalínea iii) do Código dos Contratos Públicos",,,,,,Não aplicável.,Não aplicável.,FALSE
"Toalhetes de  espuma para lavar doentes 0,310 x 0,02 x 0,005 ",Consulta Prévia,Aquisição de bens móveis,"33700000-7, Produtos para cuidados pessoais","Centro Hospitalar Vila Nova de Gaia - Espinho, E. P. E. (508142156)","MEILEX, LDA (501759441)","16.381,20 €",04-10-2018,21-09-2018,66 dias,"Portugal, Porto, Vila Nova de Gaia","Artigo 20.º, n.º 1, alínea c) do Código dos Contratos Públicos",,,,,,Não aplicável.,Não aplicável.,FALSE
Contrato de Assistência Técnica a Monitores de Sinais Vitais,Ajuste Direto Regime Geral,Aquisição de serviços,"50420000-5, Serviços de reparação e manutenção de equipamento médico e cirúrgico","Centro Hospitalar Vila Nova de Gaia - Espinho, E. P. E. (508142156)","Drager Portugal, Lda. (508771323)","117.722,51 €",04-10-2018,01-08-2018,153 dias,"Portugal, Porto, Vila Nova de Gaia","Artigo 24.º, n.º 1, alínea e), subalínea iii) do Código dos Contratos Públicos",,,,,,Não aplicável.,Não aplicável.,FALSE
Contrato de Assistência Técnica a Centrífugas e Incubadoras,Ajuste Direto Regime Geral,Aquisição de serviços,"50421000-2, Serviços de reparação e manutenção de equipamento médico","Centro Hospitalar Vila Nova de Gaia - Espinho, E. P. E. (508142156)","CERTILAB, LDA. (505403013)","2.089,00 €",04-10-2018,07-05-2018,239 dias,"Portugal, Porto, Vila Nova de Gaia","Artigo 24.º, n.º 1, alínea e), subalínea iii) do Código dos Contratos Públicos",,,,,,Não aplicável.,Não aplicável.,FALSE
Contrato de Assistência Técnica aos Equipamentos de Emissão de Radiação Ionizante,Ajuste Direto Regime Geral,Aquisição de serviços,"50421000-2, Serviços de reparação e manutenção de equipamento médico","Centro Hospitalar Vila Nova de Gaia - Espinho, E. P. E. (508142156)","Carestream Health Portugal, Lda. (508054320)","11.500,00 €",04-10-2018,12-06-2018,203 dias,"Portugal, Porto, Vila Nova de Gaia","Artigo 24.º, n.º 1, alínea e), subalínea iii) do Código dos Contratos Públicos",,,,,,Não aplicável.,Não aplicável.,FALSE
Contrato de Assistência Técnica a Diversos Equipamentos de Infusão,Ajuste Direto Regime Geral,Aquisição de serviços,"50421000-2, Serviços de reparação e manutenção de equipamento médico","Centro Hospitalar Vila Nova de Gaia - Espinho, E. P. E. (508142156)","B. Braun Medical, Lda. (501506543)","69.630,30 €",04-10-2018,23-05-2018,223 dias,"Portugal, Porto, Vila Nova de Gaia","Artigo 24.º, n.º 1, alínea e), subalínea iii) do Código dos Contratos Públicos",,,,,,Não aplicável.,Não aplicável.,FALSE
Degarrelix 80 mg e 120 mg Pó Sol inj fr SC,Ajuste Direto Regime Geral,Aquisição de bens móveis,"33600000-6, Produtos farmacêuticos",Centro Hospitalar Vila Nova de Gaia (CHNVG) (508142156),Ferring (502034831),"909,12 €",04-10-2018,20-09-2018,102 dias,"Portugal, Porto, Vila Nova de Gaia","Artigo 24.º, n.º 1, alínea e), subalínea iii) do Código dos Contratos Públicos",,,,,,Não aplicável.,Não aplicável.,FALSE
MARCADOR PERMANENTE P/ LAMINAS E CASSETES RESISTENTE AO ALCOOL,Ajuste Direto Regime Geral,Aquisição de bens móveis,"33600000-6, Produtos farmacêuticos","Centro Hospitalar Vila Nova de Gaia - Espinho, E. P. E. (508142156)",VWR INTERNATIONAL - Material de Laboratório Lda (503842770),"210,00 €",03-10-2018,28-09-2018,95 dias,"Portugal, Porto, Vila Nova de Gaia","Artigo 24.º, n.º 1, alínea c) do Código dos Contratos Públicos",,,,,,Não aplicável.,Não aplicável.,FALSE
1241118 - AGUA PARA PREPARAÇÕES INJECTÁVEIS SOL INJ FR 50 ML NESP,Ajuste Direto Regime Geral,Aquisição de bens móveis,"33600000-6, Produtos farmacêuticos","Centro Hospitalar Vila Nova de Gaia - Espinho, E. P. E. (508142156)","LABESFAL - LABORATÓRIOS ALMIRO, SA (501169580)","23.870,00 €",03-10-2018,18-05-2018,227 dias,"Portugal, Porto, Vila Nova de Gaia","Artigo 24.º, n.º 1, alínea e), subalínea iii) do Código dos Contratos Públicos",,,,,,Não aplicável.,Não aplicável.,FALSE
1240318 - Aquisição de Brentuximab Vedotina 50 mg pó conc sol inj fr IV,Ajuste Direto Regime Geral,Aquisição de bens móveis,"33600000-6, Produtos farmacêuticos","Centro Hospitalar Vila Nova de Gaia - Espinho, E. P. E. (508142156)",Bristol (500048193),"144.962,88 €",03-10-2018,24-05-2018,221 dias,"Portugal, Porto, Vila Nova de Gaia","Artigo 24.º, n.º 1, alínea e), subalínea iii) do Código dos Contratos Públicos",,,,,,Não aplicável.,Não aplicável.,FALSE
1259118 - Cefepima 1000 mg pó sol inj fr IM IV,Ajuste Direto Regime Geral,Aquisição de bens móveis,"33600000-6, Produtos farmacêuticos","Centro Hospitalar Vila Nova de Gaia - Espinho, E. P. E. (508142156)",Bristol (500048193),"8.442,00 €",03-10-2018,08-06-2018,206 dias,"Portugal, Porto, Vila Nova de Gaia","Artigo 24.º, n.º 1, alínea e), subalínea iii) do Código dos Contratos Públicos",,,,,,Não aplicável.,Não aplicável.,FALSE
1376818 - A.A. 9 g/l N + Glucose 110 g/l + Lípidos 40 g/l + Electról Emul inj 1500 ml IV,Ajuste Direto Regime Geral,Aquisição de bens móveis,"33600000-6, Produtos farmacêuticos","Centro Hospitalar Vila Nova de Gaia - Espinho, E. P. E. (508142156)",Baxter (503347345),"2.376,32 €",03-10-2018,01-08-2018,152 dias,"Portugal, Porto, Vila Nova de Gaia","Artigo 24.º, n.º 1, alínea e), subalínea iii) do Código dos Contratos Públicos",,,,,,Não aplicável.,Não aplicável.,FALSE
1375918 - Oleato Etanolamina a.u.e.,Ajuste Direto Regime Geral,Aquisição de bens móveis,"33600000-6, Produtos farmacêuticos","Centro Hospitalar Vila Nova de Gaia - Espinho, E. P. E. (508142156)",Wep Clinical (944893866),"4.424,00 €",03-10-2018,30-07-2018,154 dias,"Portugal, Porto, Vila Nova de Gaia","Artigo 24.º, n.º 1, alínea e), subalínea iii) do Código dos Contratos Públicos",,,,,,Não aplicável.,Não aplicável.,FALSE
1277218 - Nitroprussiato de sódio 50 mg pó sol inj A.U.E. 1612 - Idis,Ajuste Direto Regime Geral,Aquisição de bens móveis,"33600000-6, Produtos farmacêuticos","Centro Hospitalar Vila Nova de Gaia - Espinho, E. P. E. (508142156)",Idis (700513982),"4.300,00 €",03-10-2018,18-05-2018,227 dias,"Portugal, Porto, Vila Nova de Gaia","Artigo 24.º, n.º 1, alínea e), subalínea iii) do Código dos Contratos Públicos",,,,,,Não aplicável.,Não aplicável.,FALSE
1296518 - Bexaroteno 75 mg cáps,Ajuste Direto Regime Geral,Aquisição de bens móveis,"33600000-6, Produtos farmacêuticos","Centro Hospitalar Vila Nova de Gaia - Espinho, E. P. E. (508142156)",EF - Eisai (507847660),"9.349,20 €",03-10-2018,20-06-2018,194 dias,"Portugal, Porto, Vila Nova de Gaia","Artigo 24.º, n.º 1, alínea e), subalínea iii) do Código dos Contratos Públicos",,,,,,Não aplicável.,Não aplicável.,FALSE
1269118 - alergenos diversos AUEs Roxall,Ajuste Direto Regime Geral,Aquisição de bens móveis,"33600000-6, Produtos farmacêuticos","Centro Hospitalar Vila Nova de Gaia - Espinho, E. P. E. (508142156)",Roxall (504459180),"1.449,19 €",03-10-2018,23-05-2018,222 dias,"Portugal, Porto, Vila Nova de Gaia","Artigo 24.º, n.º 1, alínea e), subalínea iii) do Código dos Contratos Públicos",,,,,,Não aplicável.,Não aplicável.,FALSE
1311518 - Alcool 80% 250ml vapor,Ajuste Direto Regime Geral,Aquisição de bens móveis,"33600000-6, Produtos farmacêuticos","Centro Hospitalar Vila Nova de Gaia - Espinho, E. P. E. (508142156)",Fresenius Medical Care (503070220),"2.360,00 €",03-10-2018,02-07-2018,182 dias,"Portugal, Porto, Vila Nova de Gaia","Artigo 24.º, n.º 1, alínea e), subalínea iii) do Código dos Contratos Públicos",,,,,,Não aplicável.,Não aplicável.,FALSE
1276318 - Fosfomicina 4G pó sol inj IV,Ajuste Direto Regime Geral,Aquisição de bens móveis,"33600000-6, Produtos farmacêuticos","Centro Hospitalar Vila Nova de Gaia - Espinho, E. P. E. (508142156)",WEP Clinical (944893866),"1.560,00 €",02-10-2018,29-05-2018,216 dias,"Portugal, Porto, Vila Nova de Gaia","Artigo 24.º, n.º 1, alínea e), subalínea iii) do Código dos Contratos Públicos",,,,,,Não aplicável.,Não aplicável.,FALSE
1268118 - Venenos Abelha e Vespa tratamentos,Ajuste Direto Regime Geral,Aquisição de bens móveis,"33600000-6, Produtos farmacêuticos","Centro Hospitalar Vila Nova de Gaia - Espinho, E. P. E. (508142156)",roxall (504459180),"8.679,50 €",02-10-2018,28-06-2018,186 dias,"Portugal, Porto, Vila Nova de Gaia","Artigo 24.º, n.º 1, alínea e), subalínea iii) do Código dos Contratos Públicos",,,,,,Não aplicável.,Não aplicável.,FALSE
Aquisição de Aripiprazol 400 MG Pó Susp. Inj. LP Fr 1.9 ML IM,Ajuste Direto Regime Geral,Aquisição de bens móveis,"33600000-6, Produtos farmacêuticos","Centro Hospitalar Vila Nova de Gaia - Espinho, E. P. E. (508142156)","Lundbeck Portugal, Lda. (503573922)","74.937,00 €",02-10-2018,01-10-2018,180 dias,"Portugal, Porto, Vila Nova de Gaia","Artigo 24.º, n.º 1, alínea e), subalínea iii) do Código dos Contratos Públicos",,,,,,Não aplicável.,Não aplicável.,FALSE
1250518 - Acetonido de fluocinolona 190 µg Impl intravítreo Aplic Intravítreo,Ajuste Direto Regime Geral,Aquisição de bens móveis,"33600000-6, Produtos farmacêuticos","Centro Hospitalar Vila Nova de Gaia - Espinho, E. P. E. (508142156)",alimera (980523192),"17.704,50 €",02-10-2018,11-06-2018,203 dias,"Portugal, Porto, Vila Nova de Gaia","Artigo 24.º, n.º 1, alínea e), subalínea iii) do Código dos Contratos Públicos",,,,,,Não aplicável.,Não aplicável.,FALSE
1120718 - Fludarabina 10 mg comp.,Ajuste Direto Regime Geral,Aquisição de bens móveis,"33600000-6, Produtos farmacêuticos","Centro Hospitalar Vila Nova de Gaia - Espinho, E. P. E. (508142156)",Sanofi (500134960),"4.643,52 €",02-10-2018,14-03-2018,292 dias,"Portugal, Porto, Vila Nova de Gaia","Artigo 24.º, n.º 1, alínea e), subalínea iii) do Código dos Contratos Públicos",,,,,,Não aplicável.,Não aplicável.,FALSE
"1128418 - Aquisição de Riociguat 2,5mg comp. ",Ajuste Direto Regime Geral,Aquisição de bens móveis,"33600000-6, Produtos farmacêuticos","Centro Hospitalar Vila Nova de Gaia - Espinho, E. P. E. (508142156)",Merck Sharp (500191360),"80.634,96 €",02-10-2018,22-03-2018,284 dias,"Portugal, Porto, Vila Nova de Gaia","Artigo 24.º, n.º 1, alínea e), subalínea iii) do Código dos Contratos Públicos",,,,,,Não aplicável.,Não aplicável.,FALSE
1425218 - Mitomicina 40 mg pó sol inj Fr IV Ivesical,Ao abrigo de acordo-quadro (art.º 259.º),Aquisição de bens móveis,"33600000-6, Produtos farmacêuticos","Centro Hospitalar Vila Nova de Gaia - Espinho, E. P. E. (508142156)",Ferrer Portugal S.A. (500069190),"8.404,60 €",02-10-2018,25-09-2018,97 dias,"Portugal, Porto, Vila Nova de Gaia",Artigo 259.º do Código dos Contratos Públicos,,,,,,2969238,"CP 2017/6 - Acordo Quadro para fornecimento de Medicamentos do Foro Oncológico e Imunomoduladores, às Instituições e Serviços do Serviço Nacional de Saúde",FALSE
Aquisição de Reagentes Para equipamento EPOC - Blood Analysis System,Ajuste Direto Regime Geral,Aquisição de bens móveis,"33696200-7, Reagentes para análises ao sangue","Centro Hospitalar Vila Nova de Gaia - Espinho, E. P. E. (508142156)","Siemens Healthcare Unipessoal, Lda. (507925173)","2.010,00 €",02-10-2018,28-09-2018,90 dias,"Portugal, Porto, Vila Nova de Gaia","Artigo 24.º, n.º 1, alínea e), subalínea ii) do Código dos Contratos Públicos",,,,,,Não aplicável.,Não aplicável.,FALSE
1362518 - Lenalidomina (varias dosagens),Ajuste Direto Regime Geral,Aquisição de bens móveis,"33600000-6, Produtos farmacêuticos","Centro Hospitalar Vila Nova de Gaia - Espinho, E. P. E. (508142156)",celgene (507791690),"87.607,83 €",01-10-2018,13-08-2018,140 dias,"Portugal, Porto, Vila Nova de Gaia","Artigo 24.º, n.º 1, alínea e), subalínea iii) do Código dos Contratos Públicos",,,,,,Não aplicável.,Não aplicável.,FALSE
1412518 - Cloreto de potássio 149 mg/ml sol inj Fr 10 ml IV,Ajuste Direto Regime Geral,Aquisição de bens móveis,"33600000-6, Produtos farmacêuticos",Centro Hospitalar Vila Nova de Gaia (CHNVG) (508142156),B. Braun (501506543),"2.275,00 €",01-10-2018,11-09-2018,111 dias,"Portugal, Porto, Vila Nova de Gaia","Artigo 24.º, n.º 1, alínea e), subalínea iii) do Código dos Contratos Públicos",,,,,,Não aplicável.,Não aplicável.,FALSE
1418218 - Voriconazol 200 mg Pó sol inj Fr IV,Ao abrigo de acordo-quadro (art.º 259.º),Aquisição de bens móveis,"33600000-6, Produtos farmacêuticos","Centro Hospitalar Vila Nova de Gaia - Espinho, E. P. E. (508142156)",teva (507045491),"3.167,50 €",01-10-2018,14-09-2018,108 dias,"Portugal, Porto, Vila Nova de Gaia",Artigo 259.º do Código dos Contratos Públicos,,,,,,3431699,Medicamentos antivíricos e antifúngicos,FALSE
"1412318 - Fluoresceína 2,5 mg/ml + Oxibuprocaína 4 mg/ml Col sol Fr 3 ml ",Ao abrigo de acordo-quadro (art.º 259.º),Locação de bens móveis,"33600000-6, Produtos farmacêuticos","Centro Hospitalar Vila Nova de Gaia - Espinho, E. P. E. (508142156)",novartis (500063524),"420,00 €",01-10-2018,11-09-2018,111 dias,"Portugal, Porto, Vila Nova de Gaia",Artigo 259.º do Código dos Contratos Públicos,,,,,,3358998,CP 2018/49 - Medicamentos usados nas afeções oculares e otorrinolaringológicas,FALSE
Tetrabenazina 25 mg Comp,Ao abrigo de acordo-quadro (art.º 259.º),Aquisição de bens móveis,"33600000-6, Produtos farmacêuticos","Centro Hospitalar Vila Nova de Gaia - Espinho, E. P. E. (508142156)","PHARMIS BIOFARMACÊUTICA, LDA (502595442)","2.489,85 €",01-10-2018,24-09-2018,120 dias,"Portugal, Porto, Vila Nova de Gaia",Artigo 259.º do Código dos Contratos Públicos,,,,,,2356543,CP 2016/19 - Medicamentos Antipsicóticos,FALSE
1334018 - PIRIDOXINA 150 MG/ML SOL INJ FR 2 ML IM IV,Ao abrigo de acordo-quadro (art.º 259.º),Aquisição de bens móveis,"33600000-6, Produtos farmacêuticos",Centro Hospitalar Vila Nova de Gaia (CHNVG) (508142156),"LABESFAL - LABORATÓRIOS ALMIRO, SA (501169580)","7.357,20 €",01-10-2018,19-07-2018,165 dias,"Portugal, Porto, Vila Nova de Gaia",Artigo 259.º do Código dos Contratos Públicos,,,,,,3359042,Medicamentos para Nutrição Parentérica,FALSE
1333918 - Nutrição parentérica Fresenius Kabi,Ao abrigo de acordo-quadro (art.º 259.º),Aquisição de bens móveis,"33600000-6, Produtos farmacêuticos","Centro Hospitalar Vila Nova de Gaia - Espinho, E. P. E. (508142156)",Fresenius kabi (504293753),"28.341,88 €",01-10-2018,30-08-2018,123 dias,"Portugal, Porto, Vila Nova de Gaia",Artigo 259.º do Código dos Contratos Públicos,,,,,,3359042,Medicamentos para Nutrição Parentérica,FALSE
Etoricoxib 60 mg Comp CPA 2018/47,Ao abrigo de acordo-quadro (art.º 259.º),Aquisição de bens móveis,"33600000-6, Produtos farmacêuticos","Centro Hospitalar Vila Nova de Gaia - Espinho, E. P. E. (508142156)",Generis (508107997),"51,92 €",01-10-2018,05-09-2018,117 dias,"Portugal, Porto, Vila Nova de Gaia",Artigo 259.º do Código dos Contratos Públicos,,,,,,3361713,CP 2018/47 - Medicamentos do aparelho locomotor,FALSE
1405018 - Epos Zeta Farmaco Vigilância,Ajuste Direto Regime Geral,Aquisição de bens móveis,"33600000-6, Produtos farmacêuticos","Centro Hospitalar Vila Nova de Gaia - Espinho, E. P. E. (508142156)",PFIZER (500162166),"50.667,50 €",01-10-2018,05-09-2018,117 dias,"Portugal, Porto, Vila Nova de Gaia","Artigo 24.º, n.º 1, alínea e), subalínea ii) do Código dos Contratos Públicos",,,,,,Não aplicável.,Não aplicável.,FALSE
Aflibercept 40 mg/ml Sol inj Fr 100 µl Intravítreo CPA 2018/49,Ao abrigo de acordo-quadro (art.º 259.º),Locação de bens móveis,"33600000-6, Produtos farmacêuticos","Centro Hospitalar Vila Nova de Gaia - Espinho, E. P. E. (508142156)",Bayer (500043256),"42.992,64 €",01-10-2018,06-09-2018,116 dias,"Portugal, Porto, Vila Nova de Gaia",Artigo 259.º do Código dos Contratos Públicos,,,,,,3358998,CP 2018/49 - Medicamentos usados nas afeções oculares e otorrinolaringológicas,FALSE
1385118 - Alectinib 150 mg cáps - 2,Ajuste Direto Regime Geral,Aquisição de bens móveis,"33600000-6, Produtos farmacêuticos","Centro Hospitalar Vila Nova de Gaia - Espinho, E. P. E. (508142156)",Roche (500233810),"101.445,12 €",01-10-2018,28-08-2018,125 dias,"Portugal, Porto, Vila Nova de Gaia","Artigo 24.º, n.º 1, alínea e), subalínea iii) do Código dos Contratos Públicos",,,,,,Não aplicável.,Não aplicável.,FALSE
A.A. 8 g/l N + Glucose 127 g/l + Lípidos 38 g/l + Electról Emul inj 1477 ml,Ao abrigo de acordo-quadro (art.º 259.º),Aquisição de bens móveis,"33600000-6, Produtos farmacêuticos","Centro Hospitalar Vila Nova de Gaia - Espinho, E. P. E. (508142156)","Fresenius Kabi Pharma Portugal, Lda (504293753)","7.189,20 €",01-10-2018,25-09-2018,120 dias,"Portugal, Porto, Vila Nova de Gaia",Artigo 259.º do Código dos Contratos Públicos,,,,,,3359042,Medicamentos para Nutrição Parentérica,FALSE
1412418 - Rivaroxabano 15 mg Comp,Ajuste Direto Regime Geral,Aquisição de bens móveis,"33600000-6, Produtos farmacêuticos","Centro Hospitalar Vila Nova de Gaia - Espinho, E. P. E. (508142156)",Bayer (500043256),"420,00 €",01-10-2018,14-09-2018,108 dias,"Portugal, Porto, Vila Nova de Gaia","Artigo 24.º, n.º 1, alínea e), subalínea iii) do Código dos Contratos Públicos",,,,,,Não aplicável.,Não aplicável.,FALSE
1412918 - Pirazinamida 500 mgs Cáps,Ajuste Direto Regime Geral,Aquisição de bens móveis,"33600000-6, Produtos farmacêuticos","Centro Hospitalar Vila Nova de Gaia - Espinho, E. P. E. (508142156)",Sanofi (500134960),"54,60 €",01-10-2018,11-09-2018,111 dias,"Portugal, Porto, Vila Nova de Gaia","Artigo 24.º, n.º 1, alínea e), subalínea iii) do Código dos Contratos Públicos",,,,,,Não aplicável.,Não aplicável.,FALSE
1408818 - Sol DPCA Glucose 22.7 mg/ml Ca 1.25 mmol/l Sac duplo c/tampa iodopov 2500 ml,Ao abrigo de acordo-quadro (art.º 259.º),Aquisição de bens móveis,"33600000-6, Produtos farmacêuticos","Centro Hospitalar Vila Nova de Gaia - Espinho, E. P. E. (508142156)",Fresenius Medical Care (503070220),"3.300,00 €",01-10-2018,18-09-2018,104 dias,"Portugal, Porto, Vila Nova de Gaia",Artigo 259.º do Código dos Contratos Públicos,,,,,,3035649,"CP 2017/35 - Acordo Quadro para fornecimento de bens e prestação de serviços de Diálise Peritoneal, às Instituições e Serviços do Serviço Nacional de Saúde",FALSE
9411618- Frascos de Hemoculturas p/ aeróbios e anaeróbios,Ajuste Direto Regime Geral,Aquisição de bens móveis,"33696000-5, Reagentes e meios de contraste",Centro Hospitalar Vila Nova de Gaia (CHNVG) (508142156),"Biomerieux Portugal, Lda. (501524177)","29.450,40 €",01-10-2018,05-09-2018,120 dias,"Portugal, Porto, Vila Nova de Gaia","Artigo 24.º, n.º 1, alínea e), subalínea ii) do Código dos Contratos Públicos",,,,,,Não aplicável.,Não aplicável.,FALSE
"Aquisição de Reagentes - Equipamento """"Vitek MS""""",Ajuste Direto Regime Geral,Aquisição de bens móveis,"33696000-5, Reagentes e meios de contraste","Centro Hospitalar Vila Nova de Gaia - Espinho, E. P. E. (508142156)","Biomerieux Portugal, Lda. (501524177)","14.508,50 €",01-10-2018,24-09-2018,90 dias,"Portugal, Porto, Vila Nova de Gaia","Artigo 24.º, n.º 1, alínea e), subalínea ii) do Código dos Contratos Públicos",,,,,,Não aplicável.,Não aplicável.,FALSE
