Objeto do Contrato,Tipo de Procedimento,Tipo(s) de Contrato,CPVs,Entidade(s) Adjudicante(s),Entidade(s) Adjudicatária(s),Preço Contratual,Data de Publicação,Data de Celebração do Contrato,Prazo de Execução,Local de Execução,Fundamentação,Data de Fecho do Contrato,Preço Total Efetivo,Causas das Alterações ao Prazo,Causas das Alterações ao Preço,Estado,N.º registo do Acordo Quadro,Descrição do Acordo Quadro,Procedimento Centralizado
Aquisição de Produtos Farmacêuticos: Hormonas e outros medicamentos usados em doenças endócrinas ao abrigo do AQ 2015/7,Ao abrigo de acordo-quadro (art.º 259.º),Aquisição de bens móveis,"33600000-6, Produtos farmacêuticos","Unidade Local de Saúde do Litoral Alentejano, E. P. E. (510445152)",Labesfal SA (501169580),"626,00 €",01-08-2018,24-07-2018,150 dias,"Portugal, Setúbal, Santiago do Cacém",Artigo 259.º do Código dos Contratos Públicos,,,,,,1415640,CP 2015/7 - ACORDO QUADRO PARA FORNECIMENTO DE HORMONAS E OUTROS MEDICAMENTOS USADOS NO TRATAMENTO DAS DOENÇAS ENDÓCRINAS ÀS INSTITUIÇÕES E SERVIÇOS DO SERVIÇO NACIONAL DE SAÚDE,FALSE
Aquisição de Produtos Farmacêuticos: Hormonas e outros medicamentos usados em doenças endócrinas ao abrigo do AQ 2015/7,Ao abrigo de acordo-quadro (art.º 259.º),Aquisição de bens móveis,"33600000-6, Produtos farmacêuticos","Unidade Local de Saúde do Litoral Alentejano, E. P. E. (510445152)",Sanofi Lda (500134960),"2.292,40 €",01-08-2018,24-07-2018,150 dias,"Portugal, Setúbal, Santiago do Cacém",Artigo 259.º do Código dos Contratos Públicos,,,,,,1415640,CP 2015/7 - ACORDO QUADRO PARA FORNECIMENTO DE HORMONAS E OUTROS MEDICAMENTOS USADOS NO TRATAMENTO DAS DOENÇAS ENDÓCRINAS ÀS INSTITUIÇÕES E SERVIÇOS DO SERVIÇO NACIONAL DE SAÚDE,FALSE
Aquisição de Produtos Farmacêuticos: Hormonas e outros medicamentos usados em doenças endócrinas ao abrigo do AQ 2015/7,Ao abrigo de acordo-quadro (art.º 259.º),Aquisição de bens móveis,"33600000-6, Produtos farmacêuticos","Unidade Local de Saúde do Litoral Alentejano, E. P. E. (510445152)",Laboratorio Pfizer Lda  (500162166),"1.245,00 €",31-07-2018,24-07-2018,150 dias,"Portugal, Setúbal, Santiago do Cacém",Artigo 259.º do Código dos Contratos Públicos,,,,,,1415640,CP 2015/7 - ACORDO QUADRO PARA FORNECIMENTO DE HORMONAS E OUTROS MEDICAMENTOS USADOS NO TRATAMENTO DAS DOENÇAS ENDÓCRINAS ÀS INSTITUIÇÕES E SERVIÇOS DO SERVIÇO NACIONAL DE SAÚDE,FALSE
Aquisição de Produtos Farmacêuticos: Hormonas e outros medicamentos usados em doenças endócrinas ao abrigo do AQ 2015/7,Ao abrigo de acordo-quadro (art.º 259.º),Aquisição de bens móveis,"33600000-6, Produtos farmacêuticos","Unidade Local de Saúde do Litoral Alentejano, E. P. E. (510445152)",Hikma SA (502266791),"1.680,00 €",31-07-2018,24-07-2018,150 dias,"Portugal, Setúbal, Santiago do Cacém",Artigo 259.º do Código dos Contratos Públicos,,,,,,1415640,CP 2015/7 - ACORDO QUADRO PARA FORNECIMENTO DE HORMONAS E OUTROS MEDICAMENTOS USADOS NO TRATAMENTO DAS DOENÇAS ENDÓCRINAS ÀS INSTITUIÇÕES E SERVIÇOS DO SERVIÇO NACIONAL DE SAÚDE,FALSE
Aquisição de Produtos Farmacêuticos: Hormonas e outros medicamentos usados em doenças endócrinas ao abrigo do AQ 2015/7,Ao abrigo de acordo-quadro (art.º 259.º),Aquisição de bens móveis,"33600000-6, Produtos farmacêuticos","Unidade Local de Saúde do Litoral Alentejano, E. P. E. (510445152)",Merck SA (500650870),"21,96 €",31-07-2018,24-07-2018,150 dias,"Portugal, Setúbal, Santiago do Cacém",Artigo 259.º do Código dos Contratos Públicos,,,,,,1415640,CP 2015/7 - ACORDO QUADRO PARA FORNECIMENTO DE HORMONAS E OUTROS MEDICAMENTOS USADOS NO TRATAMENTO DAS DOENÇAS ENDÓCRINAS ÀS INSTITUIÇÕES E SERVIÇOS DO SERVIÇO NACIONAL DE SAÚDE,FALSE
Aquisição de Produtos Farmacêuticos: Hormonas e outros medicamentos usados em doenças endócrinas ao abrigo do AQ 2015/7,Ao abrigo de acordo-quadro (art.º 259.º),Aquisição de bens móveis,"33600000-6, Produtos farmacêuticos","Unidade Local de Saúde do Litoral Alentejano, E. P. E. (510445152)",Pharmis Lda (502595442),"7.805,00 €",31-07-2018,24-07-2018,150 dias,"Portugal, Setúbal, Santiago do Cacém",Artigo 259.º do Código dos Contratos Públicos,,,,,,1415640,CP 2015/7 - ACORDO QUADRO PARA FORNECIMENTO DE HORMONAS E OUTROS MEDICAMENTOS USADOS NO TRATAMENTO DAS DOENÇAS ENDÓCRINAS ÀS INSTITUIÇÕES E SERVIÇOS DO SERVIÇO NACIONAL DE SAÚDE,FALSE
Aquisição de Produtos Farmacêuticos: Hormonas e outros medicamentos usados em doenças endócrinas ao abrigo do AQ 2015/7,Ao abrigo de acordo-quadro (art.º 259.º),Aquisição de bens móveis,"33600000-6, Produtos farmacêuticos","Unidade Local de Saúde do Litoral Alentejano, E. P. E. (510445152)",Novo Nordisk Lda (501485210),"2.340,50 €",31-07-2018,24-07-2018,150 dias,"Portugal, Setúbal, Santiago do Cacém",Artigo 259.º do Código dos Contratos Públicos,,,,,,1415640,CP 2015/7 - ACORDO QUADRO PARA FORNECIMENTO DE HORMONAS E OUTROS MEDICAMENTOS USADOS NO TRATAMENTO DAS DOENÇAS ENDÓCRINAS ÀS INSTITUIÇÕES E SERVIÇOS DO SERVIÇO NACIONAL DE SAÚDE,FALSE
Aquisição de Produtos Farmacêuticos: Hormonas e outros medicamentos usados em doenças endócrinas ao abrigo do AQ 2015/7,Ao abrigo de acordo-quadro (art.º 259.º),Aquisição de bens móveis,"33600000-6, Produtos farmacêuticos","Unidade Local de Saúde do Litoral Alentejano, E. P. E. (510445152)",Merck Sharp & Dohme Lda (500191360),"1.447,40 €",31-07-2018,24-07-2018,150 dias,"Portugal, Setúbal, Santiago do Cacém",Artigo 259.º do Código dos Contratos Públicos,,,,,,1415640,CP 2015/7 - ACORDO QUADRO PARA FORNECIMENTO DE HORMONAS E OUTROS MEDICAMENTOS USADOS NO TRATAMENTO DAS DOENÇAS ENDÓCRINAS ÀS INSTITUIÇÕES E SERVIÇOS DO SERVIÇO NACIONAL DE SAÚDE,FALSE
Aquisição de Medicamentos do Aparelho Respiratório ao abrigo do AQ 2015/12,Ao abrigo de acordo-quadro (art.º 259.º),Aquisição de bens móveis,"33600000-6, Produtos farmacêuticos","Unidade Local de Saúde do Litoral Alentejano, E. P. E. (510445152)",Mylan Lda (502248793),"69,30 €",31-07-2018,24-07-2018,150 dias,"Portugal, Setúbal, Santiago do Cacém",Artigo 259.º do Código dos Contratos Públicos,,,,,,1638654,CP 2015/12 - Acordo quadro para fornecimento de Medicamentos do Aparelho Respiratório às Instituições e Serviços do Serviço Nacional de Saúde,FALSE
Aquisição de Medicamentos do Aparelho Respiratório ao abrigo do AQ 2015/12,Ao abrigo de acordo-quadro (art.º 259.º),Aquisição de bens móveis,"33600000-6, Produtos farmacêuticos","Unidade Local de Saúde do Litoral Alentejano, E. P. E. (510445152)",Novartis SA (500063524),"30.832,40 €",31-07-2018,24-07-2018,150 dias,"Portugal, Setúbal, Santiago do Cacém",Artigo 259.º do Código dos Contratos Públicos,,,,,,1638654,CP 2015/12 - Acordo quadro para fornecimento de Medicamentos do Aparelho Respiratório às Instituições e Serviços do Serviço Nacional de Saúde,FALSE
Aquisição de Medicamentos do Aparelho Respiratório ao abrigo do AQ 2015/12,Ao abrigo de acordo-quadro (art.º 259.º),Aquisição de bens móveis,"33600000-6, Produtos farmacêuticos","Unidade Local de Saúde do Litoral Alentejano, E. P. E. (510445152)",Unilfarma Lda (500293023),"2.848,00 €",31-07-2018,24-07-2018,150 dias,"Portugal, Setúbal, Santiago do Cacém",Artigo 259.º do Código dos Contratos Públicos,,,,,,1638654,CP 2015/12 - Acordo quadro para fornecimento de Medicamentos do Aparelho Respiratório às Instituições e Serviços do Serviço Nacional de Saúde,FALSE
Aquisição de Medicamentos do Aparelho Respiratório ao abrigo do AQ 2015/12,Ao abrigo de acordo-quadro (art.º 259.º),Aquisição de bens móveis,"33600000-6, Produtos farmacêuticos","Unidade Local de Saúde do Litoral Alentejano, E. P. E. (510445152)",GlaxoSmithKline Lda (500139962),"7.924,30 €",31-07-2018,24-07-2018,150 dias,"Portugal, Setúbal, Santiago do Cacém",Artigo 259.º do Código dos Contratos Públicos,,,,,,1638654,CP 2015/12 - Acordo quadro para fornecimento de Medicamentos do Aparelho Respiratório às Instituições e Serviços do Serviço Nacional de Saúde,FALSE
Aquisição de Medicamentos do Aparelho Respiratório ao abrigo do AQ 2015/12,Ao abrigo de acordo-quadro (art.º 259.º),Aquisição de bens móveis,"33600000-6, Produtos farmacêuticos","Unidade Local de Saúde do Litoral Alentejano, E. P. E. (510445152)",Labesfal SA (501169580),"3.703,30 €",31-07-2018,24-07-2018,120 dias,"Portugal, Setúbal, Santiago do Cacém",Artigo 259.º do Código dos Contratos Públicos,,,,,,1638654,CP 2015/12 - Acordo quadro para fornecimento de Medicamentos do Aparelho Respiratório às Instituições e Serviços do Serviço Nacional de Saúde,FALSE
