Objeto do Contrato,Tipo de Procedimento,Tipo(s) de Contrato,CPVs,Entidade(s) Adjudicante(s),Entidade(s) Adjudicatária(s),Preço Contratual,Data de Publicação,Data de Celebração do Contrato,Prazo de Execução,Local de Execução,Fundamentação,Data de Fecho do Contrato,Preço Total Efetivo,Causas das Alterações ao Prazo,Causas das Alterações ao Preço,Estado,N.º registo do Acordo Quadro,Descrição do Acordo Quadro,Procedimento Centralizado
FI0056/2018- CIPROTERONA 100MG COMP (C1438 AQ. CENTRALZ),Ao abrigo de acordo-quadro (art.º 259.º),Aquisição de bens móveis,"33600000-6, Produtos farmacêuticos","Centro Hospitalar Barreiro Montijo, E. P. E. (509186998)","BAYER PORTUGAL, S.A. (500043256)","179,04 €",25-05-2018,08-01-2018,10 dias,"Portugal, Setúbal, Barreiro",Artigo 259.º do Código dos Contratos Públicos,10-01-2018,"179,04 €",,,,1771819,CP 2015/6 - Acordo quadro para o fornecimento de Medicamentos do Foro Oncológico,FALSE
4EXC0020/2018 LAMINA P VIDEO LARINGOSCOPIO,Ajuste Direto Regime Geral,Aquisição de bens móveis,"33000000-0, Equipamento médico, medicamentos e produtos para cuidados pessoais","Centro Hospitalar Barreiro Montijo, E. P. E. (509186998)","TEPREL - EQUIPAMENTOS MEDICOS, SA (502262184)","4.419,50 €",24-05-2018,02-04-2018,30 dias,"Portugal, Setúbal, Barreiro","Artigo 24.º, n.º 4 do Código dos Contratos Públicos",04-05-2018,"4.419,50 €",,,,Não aplicável.,Não aplicável.,FALSE
FI0186/2018 - RIVASTIGMINA 4.6 E 9.5MG/24H SISTEMA TD,Ao abrigo de acordo-quadro (art.º 259.º),Aquisição de bens móveis,"33600000-6, Produtos farmacêuticos","Centro Hospitalar Barreiro Montijo, E. P. E. (509186998)",NOVARTIS FARMACEUTICA (500063524),"1.632,67 €",24-05-2018,22-02-2018,330 dias,"Portugal, Setúbal, Barreiro",Artigo 259.º do Código dos Contratos Públicos,"","",,,,1179911,"CONCURSO PÚBLICO PARA A CELEBRAÇÃO DE CONTRATOS PÚBLICOS DE APROVISIONAMENTO PARA A ÁREA DA SAÚDE, MEDICAMENTOS DO SISTEMA NERVOSO CEREBROSPINAL, EXCETO: ANESTÉSICOS, RELAXANTES MUSCULARES, ANALGÉSICOS, ANTIPIRÉTICOS, ANTIDEPRESSORES E ANTIPSICÓTICOS, ÀS INSTITUIÇÕES E SERVIÇOS DO SERVIÇO NACIONAL DE SAÚDE",FALSE
"FI0063/2018- VALPROATO DE SODIO, LEVETIRACETAM, METOCLOPRAMIDA E ONDANSETRON",Ao abrigo de acordo-quadro (art.º 259.º),Aquisição de bens móveis,"33600000-6, Produtos farmacêuticos","Centro Hospitalar Barreiro Montijo, E. P. E. (509186998)","SANDOZ FARMACEUTICA, LDA (506985261)","439,35 €",24-05-2018,05-01-2018,20 dias,"Portugal, Setúbal, Barreiro",Artigo 259.º do Código dos Contratos Públicos,09-01-2018,"439,35 €",,,,1179915,"CONCURSO PÚBLICO PARA A CELEBRAÇÃO DE CONTRATOS PÚBLICOS DE APROVISIONAMENTO PARA A ÁREA DA SAÚDE, COM VISTA AO FORNECIMENTO DE MEDICAMENTOS DO APARELHO CARDIOVASCULAR, ÀS INSTITUIÇÕES E SERVIÇOS DO SERVIÇO NACIONAL DE SAÚDE",FALSE
"FI0184/2018 - TERLIPRESSINA ACETATO 1MG SOL INJ <> TERLIPRESSINA 0,85 MG",Ao abrigo de acordo-quadro (art.º 259.º),Aquisição de bens móveis,"33600000-6, Produtos farmacêuticos","Centro Hospitalar Barreiro Montijo, E. P. E. (509186998)","FERRING PORTUGUESA - PROD. FARM. SOC. UNIP., LDA. (502034831)","6.000,00 €",24-05-2018,20-02-2018,330 dias,"Portugal, Setúbal, Barreiro",Artigo 259.º do Código dos Contratos Públicos,"","",,,,1415640,CP 2015/7 - ACORDO QUADRO PARA FORNECIMENTO DE HORMONAS E OUTROS MEDICAMENTOS USADOS NO TRATAMENTO DAS DOENÇAS ENDÓCRINAS ÀS INSTITUIÇÕES E SERVIÇOS DO SERVIÇO NACIONAL DE SAÚDE,FALSE
"FI0063/2018- VALPROATO DE SODIO, LEVETIRACETAM, METOCLOPRAMIDA E ONDANSETRON",Ao abrigo de acordo-quadro (art.º 259.º),Aquisição de bens móveis,"33600000-6, Produtos farmacêuticos","Centro Hospitalar Barreiro Montijo, E. P. E. (509186998)","LABESFAL-L. ESP. FARM. ALMIRO, (501169580)","49,80 €",24-05-2018,05-01-2018,20 dias,"Portugal, Setúbal, Barreiro",Artigo 259.º do Código dos Contratos Públicos,09-01-2018,"49,80 €",,,,1179915,"CONCURSO PÚBLICO PARA A CELEBRAÇÃO DE CONTRATOS PÚBLICOS DE APROVISIONAMENTO PARA A ÁREA DA SAÚDE, COM VISTA AO FORNECIMENTO DE MEDICAMENTOS DO APARELHO CARDIOVASCULAR, ÀS INSTITUIÇÕES E SERVIÇOS DO SERVIÇO NACIONAL DE SAÚDE",FALSE
"FI0063/2018- VALPROATO DE SODIO, LEVETIRACETAM, METOCLOPRAMIDA E ONDANSETRON",Ao abrigo de acordo-quadro (art.º 259.º),Aquisição de bens móveis,"33600000-6, Produtos farmacêuticos","Centro Hospitalar Barreiro Montijo, E. P. E. (509186998)","GENERIS-FARMACEUTICA, S.A. (508107997)","93,00 €",24-05-2018,05-01-2018,20 dias,"Portugal, Setúbal, Barreiro",Artigo 259.º do Código dos Contratos Públicos,09-01-2018,"93,00 €",,,,1179915,"CONCURSO PÚBLICO PARA A CELEBRAÇÃO DE CONTRATOS PÚBLICOS DE APROVISIONAMENTO PARA A ÁREA DA SAÚDE, COM VISTA AO FORNECIMENTO DE MEDICAMENTOS DO APARELHO CARDIOVASCULAR, ÀS INSTITUIÇÕES E SERVIÇOS DO SERVIÇO NACIONAL DE SAÚDE",FALSE
"FI0063/2018- VALPROATO DE SODIO, LEVETIRACETAM, METOCLOPRAMIDA E ONDANSETRON",Ao abrigo de acordo-quadro (art.º 259.º),Aquisição de bens móveis,"33600000-6, Produtos farmacêuticos","Centro Hospitalar Barreiro Montijo, E. P. E. (509186998)","SANOFI - PROD. FARMACÊUTICOS, LDA. (500134960)","274,50 €",24-05-2018,05-01-2018,20 dias,"Portugal, Setúbal, Barreiro",Artigo 259.º do Código dos Contratos Públicos,10-01-2018,"274,50 €",,,,1179915,"CONCURSO PÚBLICO PARA A CELEBRAÇÃO DE CONTRATOS PÚBLICOS DE APROVISIONAMENTO PARA A ÁREA DA SAÚDE, COM VISTA AO FORNECIMENTO DE MEDICAMENTOS DO APARELHO CARDIOVASCULAR, ÀS INSTITUIÇÕES E SERVIÇOS DO SERVIÇO NACIONAL DE SAÚDE",FALSE
FI0183/2018 - PREDNISOLONA 5MG + PREDNISOLONA 20MG,Ao abrigo de acordo-quadro (art.º 259.º),Aquisição de bens móveis,"33600000-6, Produtos farmacêuticos","Centro Hospitalar Barreiro Montijo, E. P. E. (509186998)","LABESFAL-L. ESP. FARM. ALMIRO, (501169580)","1.640,95 €",24-05-2018,22-02-2018,330 dias,"Portugal, Setúbal, Barreiro",Artigo 259.º do Código dos Contratos Públicos,"","",,,,1415640,CP 2015/7 - ACORDO QUADRO PARA FORNECIMENTO DE HORMONAS E OUTROS MEDICAMENTOS USADOS NO TRATAMENTO DAS DOENÇAS ENDÓCRINAS ÀS INSTITUIÇÕES E SERVIÇOS DO SERVIÇO NACIONAL DE SAÚDE,FALSE
FI0061/2018- PIRIMETAMINA 25 MG COMP,Ao abrigo de acordo-quadro (art.º 259.º),Aquisição de bens móveis,"33600000-6, Produtos farmacêuticos","Centro Hospitalar Barreiro Montijo, E. P. E. (509186998)","LABESFAL-L. ESP. FARM. ALMIRO, (501169580)","430,00 €",24-05-2018,05-01-2018,10 dias,"Portugal, Setúbal, Barreiro",Artigo 259.º do Código dos Contratos Públicos,10-01-2018,"430,00 €",,,,1326195,ACORDO QUADRO PARA FORNECIMENTO DE MEDICAMENTOS ANTI-INFECIOSOS: EXCETO ANTIVÍRICOS E ANTIFÚNGICOS ÀS INSTITUIÇÕES E SERVIÇOS DO SERVIÇO NACIONAL DE SAÚDE,FALSE
FI0057/2018- OSELTAMIVIR 75 MG CÁPS,Ao abrigo de acordo-quadro (art.º 259.º),Aquisição de bens móveis,"33600000-6, Produtos farmacêuticos","Centro Hospitalar Barreiro Montijo, E. P. E. (509186998)","ROCHE FARMACEUTICA QUIMICA, LDA (500233810)","138,08 €",24-05-2018,05-01-2018,10 dias,"Portugal, Setúbal, Barreiro",Artigo 259.º do Código dos Contratos Públicos,08-01-2018,"138,08 €",,,,611371,"CONCURSO PÚBLICO PARA A CELEBRAÇÃO DE CONTRATOS PÚBLICOS DE APROVISIONAMENTO PARA A ÁREA DA SAÚDE, COM VISTA AO FORNECIMENTO DE MEDICAMENTOS ANESTÉSICOS E RELAXANTES MUSCULARES, ÀS INSTITUIÇÕES E SERVIÇOS DO SERVIÇO NACIONAL DE SAÚDE    ",FALSE
"FI0062/2018-AMPICILINA, METRONIDAZOL E AZITROMICINA",Ao abrigo de acordo-quadro (art.º 259.º),Aquisição de bens móveis,"33600000-6, Produtos farmacêuticos","Centro Hospitalar Barreiro Montijo, E. P. E. (509186998)",FARMOZ-SOC. TÉCNICA-MEDICINAL (501505334),"386,80 €",24-05-2018,05-01-2018,20 dias,"Portugal, Setúbal, Barreiro",Artigo 259.º do Código dos Contratos Públicos,09-01-2018,"386,80 €",,,,1326195,ACORDO QUADRO PARA FORNECIMENTO DE MEDICAMENTOS ANTI-INFECIOSOS: EXCETO ANTIVÍRICOS E ANTIFÚNGICOS ÀS INSTITUIÇÕES E SERVIÇOS DO SERVIÇO NACIONAL DE SAÚDE,FALSE
"FI0062/2018-AMPICILINA, METRONIDAZOL E AZITROMICINA",Ao abrigo de acordo-quadro (art.º 259.º),Aquisição de bens móveis,"33600000-6, Produtos farmacêuticos","Centro Hospitalar Barreiro Montijo, E. P. E. (509186998)","LABESFAL-L. ESP. FARM. ALMIRO, (501169580)","270,30 €",24-05-2018,05-01-2018,20 dias,"Portugal, Setúbal, Barreiro",Artigo 259.º do Código dos Contratos Públicos,09-01-2018,"270,30 €",,,,1326195,ACORDO QUADRO PARA FORNECIMENTO DE MEDICAMENTOS ANTI-INFECIOSOS: EXCETO ANTIVÍRICOS E ANTIFÚNGICOS ÀS INSTITUIÇÕES E SERVIÇOS DO SERVIÇO NACIONAL DE SAÚDE,FALSE
FI0177/2018 - FENTANIL 100 E 200 MCG COMP SL,Ao abrigo de acordo-quadro (art.º 259.º),Aquisição de bens móveis,"33600000-6, Produtos farmacêuticos","Centro Hospitalar Barreiro Montijo, E. P. E. (509186998)",ALLOGA PORTUGAL-ARMAZENAGEM E DISTRIB FARMACEUTICA (504507230),"4.590,85 €",24-05-2018,15-02-2018,330 dias,"Portugal, Setúbal, Barreiro",Artigo 259.º do Código dos Contratos Públicos,"","",,,,461370,"CP 2012/44 - MEDICAMENTOS ANALGÉSICOS, ANTIPIRÉTICOS E ANTIDEPRESSIVOS",FALSE
FI0173/2018 - AMOXICILINA E AC CLAVULANICO 625 MG COMP,Ao abrigo de acordo-quadro (art.º 259.º),Aquisição de bens móveis,"33600000-6, Produtos farmacêuticos","Centro Hospitalar Barreiro Montijo, E. P. E. (509186998)","SANDOZ FARMACEUTICA, LDA (506985261)","1.267,20 €",24-05-2018,15-02-2018,330 dias,"Portugal, Setúbal, Barreiro",Artigo 259.º do Código dos Contratos Públicos,"","",,,,1326195,ACORDO QUADRO PARA FORNECIMENTO DE MEDICAMENTOS ANTI-INFECIOSOS: EXCETO ANTIVÍRICOS E ANTIFÚNGICOS ÀS INSTITUIÇÕES E SERVIÇOS DO SERVIÇO NACIONAL DE SAÚDE,FALSE
FI0161/2018 - BOLSA NUTRIÇÃO PARENTERICA,Ao abrigo de acordo-quadro (art.º 259.º),Aquisição de bens móveis,"33600000-6, Produtos farmacêuticos","Centro Hospitalar Barreiro Montijo, E. P. E. (509186998)","FRESENIUS KABI PHARMA PORTUGAL, LDA. (504293753)","28.356,00 €",24-05-2018,09-03-2018,330 dias,"Portugal, Setúbal, Barreiro",Artigo 259.º do Código dos Contratos Públicos,"","",,,,1377429,Acordo Quadro para fornecimento de medicamentos para Nutrição Parentérica às Instituições e Serviços do Serviço Nacional de Saúde,FALSE
FI0054/2018-CERTOLIZUMAB PEGOL 200 MG (200MG/ML SER 1 ML) SOL INJ (C2026 AQ CENTRAL),Ao abrigo de acordo-quadro (art.º 259.º),Aquisição de bens móveis,"33600000-6, Produtos farmacêuticos","Centro Hospitalar Barreiro Montijo, E. P. E. (509186998)","U.C.B. - PRODUTOS FARMACEUT, Lda (500291322)","4.963,00 €",24-05-2018,04-01-2018,10 dias,"Portugal, Setúbal, Barreiro",Artigo 259.º do Código dos Contratos Públicos,08-01-2018,"4.963,00 €",,,,1513257,Acordo quadro para fornecimento de Medicamentos diversos II   às Instituições e Serviços do Serviço Nacional de Saúde,FALSE
FI0157/2018 - HIDROCORTISONA 100 MG (50 MG/ML FR/AMP 2 ML) SOL INJ,Ao abrigo de acordo-quadro (art.º 259.º),Aquisição de bens móveis,"33600000-6, Produtos farmacêuticos","Centro Hospitalar Barreiro Montijo, E. P. E. (509186998)","LABORATORIOS PFIZER, S.A. (500162166)","27.600,00 €",24-05-2018,09-03-2018,330 dias,"Portugal, Setúbal, Barreiro",Artigo 259.º do Código dos Contratos Públicos,"","",,,,1415640,CP 2015/7 - ACORDO QUADRO PARA FORNECIMENTO DE HORMONAS E OUTROS MEDICAMENTOS USADOS NO TRATAMENTO DAS DOENÇAS ENDÓCRINAS ÀS INSTITUIÇÕES E SERVIÇOS DO SERVIÇO NACIONAL DE SAÚDE,FALSE
FI0142/2018 - CEFUROXIMA 500 MG COMP,Ao abrigo de acordo-quadro (art.º 259.º),Aquisição de bens móveis,"33600000-6, Produtos farmacêuticos","Centro Hospitalar Barreiro Montijo, E. P. E. (509186998)","RATIOPHARM - COM. E IND. PROD. FARMACÊUTICOS, LDA. (502414910)","433,30 €",24-05-2018,01-02-2018,330 dias,"Portugal, Setúbal, Barreiro",Artigo 259.º do Código dos Contratos Públicos,"","",,,,1326195,ACORDO QUADRO PARA FORNECIMENTO DE MEDICAMENTOS ANTI-INFECIOSOS: EXCETO ANTIVÍRICOS E ANTIFÚNGICOS ÀS INSTITUIÇÕES E SERVIÇOS DO SERVIÇO NACIONAL DE SAÚDE,FALSE
"FI0052/2018-ALFENTANIL 5 MG (0,5 MG/ML AMP 10 ML) SOL INJ",Ao abrigo de acordo-quadro (art.º 259.º),Aquisição de bens móveis,"33600000-6, Produtos farmacêuticos","Centro Hospitalar Barreiro Montijo, E. P. E. (509186998)","JANSSEN CILAG FARMACEUTICA, LDA (500189412)","2.449,30 €",24-05-2018,04-01-2018,20 dias,"Portugal, Setúbal, Barreiro",Artigo 259.º do Código dos Contratos Públicos,12-01-2018,"2.449,30 €",,,,461370,"CP 2012/44 - MEDICAMENTOS ANALGÉSICOS, ANTIPIRÉTICOS E ANTIDEPRESSIVOS",FALSE
"FI0141/2018 - BETAMETASONA 0,1% CREME BISNAGA",Ao abrigo de acordo-quadro (art.º 259.º),Aquisição de bens móveis,"33600000-6, Produtos farmacêuticos","Centro Hospitalar Barreiro Montijo, E. P. E. (509186998)","MERCK SHARP & DOHME, LDA (500191360)","1.850,00 €",24-05-2018,30-01-2018,360 dias,"Portugal, Setúbal, Barreiro",Artigo 259.º do Código dos Contratos Públicos,"","",,,,1513257,Acordo quadro para fornecimento de Medicamentos diversos II   às Instituições e Serviços do Serviço Nacional de Saúde,FALSE
FI0136/2018 - CLOTRIMAZOL 10 MG/GR BISN CREME VAG; CLOTRIMAZOL 100 MG COMP VAG,Ao abrigo de acordo-quadro (art.º 259.º),Aquisição de bens móveis,"33600000-6, Produtos farmacêuticos","Centro Hospitalar Barreiro Montijo, E. P. E. (509186998)","D.L.A. FARMACEUTICA, S.A. (503894427)","26,22 €",24-05-2018,02-02-2018,330 dias,"Portugal, Setúbal, Barreiro",Artigo 259.º do Código dos Contratos Públicos,17-12-2018,"26,22 €",,,,1404918,CP 2015/48 - Acordo Quadro para fornecimento de Medicamentos de Consumo Geral - Aparelho Geniturinário às Instituições e Serviços do Serviço Nacional de Saúde,FALSE
FI0136/2018 - CLOTRIMAZOL 10 MG/GR BISN CREME VAG; CLOTRIMAZOL 100 MG COMP VAG,Ao abrigo de acordo-quadro (art.º 259.º),Aquisição de bens móveis,"33600000-6, Produtos farmacêuticos","Centro Hospitalar Barreiro Montijo, E. P. E. (509186998)","OVERPHARMA - PROD. MÉDICOS E FARMACÊUTICOS, LDA. (505792362)","1.128,00 €",24-05-2018,02-02-2018,330 dias,"Portugal, Setúbal, Barreiro",Artigo 259.º do Código dos Contratos Públicos,17-12-2018,"1.128,00 €",,,,1404918,CP 2015/48 - Acordo Quadro para fornecimento de Medicamentos de Consumo Geral - Aparelho Geniturinário às Instituições e Serviços do Serviço Nacional de Saúde,FALSE
FI0128/2018 - HIALURONATO DE SODIO 10 MG (10 MG/ML SER 1 ML) I OCULAR SOL INJ,Ao abrigo de acordo-quadro (art.º 259.º),Aquisição de bens móveis,"33600000-6, Produtos farmacêuticos","Centro Hospitalar Barreiro Montijo, E. P. E. (509186998)","OVERPHARMA - PROD. MÉDICOS E FARMACÊUTICOS, LDA. (505792362)","2.700,00 €",23-05-2018,22-02-2018,330 dias,"Portugal, Setúbal, Barreiro",Artigo 259.º do Código dos Contratos Públicos,"","",,,,1179915,"CONCURSO PÚBLICO PARA A CELEBRAÇÃO DE CONTRATOS PÚBLICOS DE APROVISIONAMENTO PARA A ÁREA DA SAÚDE, COM VISTA AO FORNECIMENTO DE MEDICAMENTOS DO APARELHO CARDIOVASCULAR, ÀS INSTITUIÇÕES E SERVIÇOS DO SERVIÇO NACIONAL DE SAÚDE",FALSE
"FI0127/2018 - LIDOCAINA 2% (20 MG/ML) CLOROHEXIDINA SERINGA 11 ML (12,5 g)",Ao abrigo de acordo-quadro (art.º 259.º),Aquisição de bens móveis,"33600000-6, Produtos farmacêuticos","Centro Hospitalar Barreiro Montijo, E. P. E. (509186998)","CLINIFAR - PROD. CLINICOS E FARMACEUTICOS, S.A. (503281115)","16.200,00 €",23-05-2018,26-01-2018,360 dias,"Portugal, Setúbal, Barreiro",Artigo 259.º do Código dos Contratos Públicos,"","",,,,1415642,CP 2015/36,FALSE
"FI0123/2018 - AC ACETILSALICILICO 100MG, 150MG E 500MG COMP",Ao abrigo de acordo-quadro (art.º 259.º),Aquisição de bens móveis,"33600000-6, Produtos farmacêuticos","Centro Hospitalar Barreiro Montijo, E. P. E. (509186998)","RATIOPHARM - COM. E IND. PROD. FARMACÊUTICOS, LDA. (502414910)","184,24 €",23-05-2018,25-01-2018,360 dias,"Portugal, Setúbal, Barreiro",Artigo 259.º do Código dos Contratos Públicos,"","",,,,461370,"CP 2012/44 - MEDICAMENTOS ANALGÉSICOS, ANTIPIRÉTICOS E ANTIDEPRESSIVOS",FALSE
"FI0123/2018 - AC ACETILSALICILICO 100MG, 150MG E 500MG COMP",Ao abrigo de acordo-quadro (art.º 259.º),Aquisição de bens móveis,"33600000-6, Produtos farmacêuticos","Centro Hospitalar Barreiro Montijo, E. P. E. (509186998)","GENERIS-FARMACEUTICA, S.A. (508107997)","430,80 €",23-05-2018,25-01-2018,360 dias,"Portugal, Setúbal, Barreiro",Artigo 259.º do Código dos Contratos Públicos,"","",,,,461370,"CP 2012/44 - MEDICAMENTOS ANALGÉSICOS, ANTIPIRÉTICOS E ANTIDEPRESSIVOS",FALSE
FI0122/2018 - ZOLEDRONATO 4 MG (0.8 MG/ML FRS/AMP 5 ML) SOL INJ,Ao abrigo de acordo-quadro (art.º 259.º),Aquisição de bens móveis,"33600000-6, Produtos farmacêuticos","Centro Hospitalar Barreiro Montijo, E. P. E. (509186998)","HIKMA FARMACEUTICA (PORTUGAL), LDA. (502266791)","2.520,00 €",23-05-2018,25-01-2018,360 dias,"Portugal, Setúbal, Barreiro",Artigo 259.º do Código dos Contratos Públicos,"","",,,,1394106,CP 2015/64 - Medicamentos Diversos,FALSE
FI0110/2018 - TOXINA BOTULÍNICA A 100U PÓ SOL INJ,Ao abrigo de acordo-quadro (art.º 259.º),Aquisição de bens móveis,"33600000-6, Produtos farmacêuticos","Centro Hospitalar Barreiro Montijo, E. P. E. (509186998)",PROFARIN (500223238),"1.300,00 €",23-05-2018,23-01-2018,360 dias,"Portugal, Setúbal, Barreiro",Artigo 259.º do Código dos Contratos Públicos,"","",,,,611371,"CONCURSO PÚBLICO PARA A CELEBRAÇÃO DE CONTRATOS PÚBLICOS DE APROVISIONAMENTO PARA A ÁREA DA SAÚDE, COM VISTA AO FORNECIMENTO DE MEDICAMENTOS ANESTÉSICOS E RELAXANTES MUSCULARES, ÀS INSTITUIÇÕES E SERVIÇOS DO SERVIÇO NACIONAL DE SAÚDE    ",FALSE
FI0077/2018 - IODOPOVIDONA 100 MG/ML FRS SOL GINECOLOGICA,Ao abrigo de acordo-quadro (art.º 259.º),Aquisição de bens móveis,"33600000-6, Produtos farmacêuticos","Centro Hospitalar Barreiro Montijo, E. P. E. (509186998)","MYLAN, LDA (502248793)","450,00 €",23-05-2018,12-01-2018,360 dias,"Portugal, Setúbal, Barreiro",Artigo 259.º do Código dos Contratos Públicos,"","",,,,1404918,CP 2015/48 - Acordo Quadro para fornecimento de Medicamentos de Consumo Geral - Aparelho Geniturinário às Instituições e Serviços do Serviço Nacional de Saúde,FALSE
FI0076/2018 - LIDOCAINA 25 MG/GR COM PRILOCAINA 25 MG/GR BISNAGA CREME,Ao abrigo de acordo-quadro (art.º 259.º),Aquisição de bens móveis,"33600000-6, Produtos farmacêuticos","Centro Hospitalar Barreiro Montijo, E. P. E. (509186998)","ASTRA ZENECA - PROD.FARMACEUTICOS, LDA. (502942240)","829,40 €",23-05-2018,12-01-2018,360 dias,"Portugal, Setúbal, Barreiro",Artigo 259.º do Código dos Contratos Públicos,"","",,,,1513257,Acordo quadro para fornecimento de Medicamentos diversos II   às Instituições e Serviços do Serviço Nacional de Saúde,FALSE
FI0073/2018- GEMCITABINA 2 GR (40 MG/ML FRS/AMP 50 ML) SOL INJ (G255 CIRC 8),Ao abrigo de acordo-quadro (art.º 259.º),Aquisição de bens móveis,"33600000-6, Produtos farmacêuticos","Centro Hospitalar Barreiro Montijo, E. P. E. (509186998)","MYLAN, LDA (502248793)","155,58 €",23-05-2018,17-01-2018,360 dias,"Portugal, Setúbal, Barreiro",Artigo 259.º do Código dos Contratos Públicos,"","",,,,1338581,"Acordo quadro para fornecimento de Medicação antialérgica, medicamentos usados no tratamento de intoxicações, vitaminas e sais minerais e grupo 20.9 - outros produtos às instituições e serviços do serviço nacional de saúde",FALSE
"FI0060/2018 - AMOXICILINA E AC CLAVULANICO 1,2 G (24 MG/ML FRS/AMP 50 ML) SOL INJ",Ao abrigo de acordo-quadro (art.º 259.º),Aquisição de bens móveis,"33600000-6, Produtos farmacêuticos","Centro Hospitalar Barreiro Montijo, E. P. E. (509186998)","GENERIS-FARMACEUTICA, S.A. (508107997)","5.900,00 €",23-05-2018,05-01-2018,360 dias,"Portugal, Setúbal, Barreiro",Artigo 259.º do Código dos Contratos Públicos,"","",,,,1326195,ACORDO QUADRO PARA FORNECIMENTO DE MEDICAMENTOS ANTI-INFECIOSOS: EXCETO ANTIVÍRICOS E ANTIFÚNGICOS ÀS INSTITUIÇÕES E SERVIÇOS DO SERVIÇO NACIONAL DE SAÚDE,FALSE
"FI0059/2018 - ROPIVACAINA 75 MG (7,5 MG/ML FRS/AMP 10 ML) SOL INJ",Ao abrigo de acordo-quadro (art.º 259.º),Aquisição de bens móveis,"33600000-6, Produtos farmacêuticos","Centro Hospitalar Barreiro Montijo, E. P. E. (509186998)","FRESENIUS KABI PHARMA PORTUGAL, LDA. (504293753)","543,20 €",23-05-2018,05-01-2018,360 dias,"Portugal, Setúbal, Barreiro",Artigo 259.º do Código dos Contratos Públicos,"","",,,,611371,"CONCURSO PÚBLICO PARA A CELEBRAÇÃO DE CONTRATOS PÚBLICOS DE APROVISIONAMENTO PARA A ÁREA DA SAÚDE, COM VISTA AO FORNECIMENTO DE MEDICAMENTOS ANESTÉSICOS E RELAXANTES MUSCULARES, ÀS INSTITUIÇÕES E SERVIÇOS DO SERVIÇO NACIONAL DE SAÚDE    ",FALSE
FI0132/2018-CLORO-HEXIDINA COLUTÓRIO 2MG/ML,Ao abrigo de acordo-quadro (art.º 259.º),Aquisição de bens móveis,"33600000-6, Produtos farmacêuticos","Centro Hospitalar Barreiro Montijo, E. P. E. (509186998)",GLAXOSMITHKLINE CONSUMER HEALTHCARE (500276994),"6.460,00 €",22-05-2018,31-01-2018,330 dias,"Portugal, Setúbal, Barreiro",Artigo 259.º do Código dos Contratos Públicos,"","",,,,1406003,CP 2015/8,FALSE
4SEX0027/2018 - FORNECIMENTO DE SERVIÇOS DE REPARAÇÃO DE VIDEOCOLONOSCOPIO,Ajuste Direto Regime Geral,Aquisição de serviços,"50000000-5, Serviços de reparação e manutenção","Centro Hospitalar Barreiro Montijo, E. P. E. (509186998)","OLYMPUS IBERIA, S.A.U. (980474710)","6.080,96 €",22-05-2018,13-03-2018,90 dias,"Portugal, Setúbal, Barreiro","Artigo 24.º, n.º 1, alínea e), subalínea ii) do Código dos Contratos Públicos",05-04-2018,"6.080,96 €",,,,Não aplicável.,Não aplicável.,FALSE
FEXC0074/2018 - PARACETAMOL 500 MG + CAFEINA 50 MG CART,Ajuste Direto Regime Geral,Aquisição de bens móveis,"33600000-6, Produtos farmacêuticos","Centro Hospitalar Barreiro Montijo, E. P. E. (509186998)","D.L.A. FARMACEUTICA, S.A. (503894427)","91,52 €",22-05-2018,15-05-2018,240 dias,"Portugal, Setúbal, Barreiro","Artigo 24.º, n.º 1, alínea e), subalínea iii) do Código dos Contratos Públicos","","",,,,Não aplicável.,Não aplicável.,FALSE
FEXC0070/2018 - PIRFENIDONA 801 MG COMP,Ajuste Direto Regime Geral,Aquisição de bens móveis,"33600000-6, Produtos farmacêuticos","Centro Hospitalar Barreiro Montijo, E. P. E. (509186998)","ROCHE FARMACEUTICA QUIMICA, LDA (500233810)","138.438,72 €",22-05-2018,27-04-2018,365 dias,"Portugal, Setúbal, Barreiro","Artigo 24.º, n.º 1, alínea e) do Código dos Contratos Públicos","","",,,,Não aplicável.,Não aplicável.,FALSE
FEXC0071/2018 - HALOPERIDOL 2 MG/ML SOL ORAL 30 ML FRS,Ajuste Direto Regime Geral,Aquisição de bens móveis,"33600000-6, Produtos farmacêuticos","Centro Hospitalar Barreiro Montijo, E. P. E. (509186998)","JANSSEN CILAG FARMACEUTICA, LDA (500189412)","358,00 €",21-05-2018,24-04-2018,270 dias,"Portugal, Setúbal, Barreiro","Artigo 24.º, n.º 1, alínea e), subalínea iii) do Código dos Contratos Públicos","","",,,,Não aplicável.,Não aplicável.,FALSE
FEXC0065/2018 - ELVITEGRAVIR 150 MG+COBICIST 15O MG+EMTRIC 200 MG+TENOF ALAF 10 MG COMP REVES,Ajuste Direto Regime Geral,Aquisição de bens móveis,"33600000-6, Produtos farmacêuticos","Centro Hospitalar Barreiro Montijo, E. P. E. (509186998)","GILEAD SCIENCES, LDA. (503604704)","36.288,00 €",21-05-2018,18-04-2018,365 dias,"Portugal, Setúbal, Barreiro","Artigo 24.º, n.º 1, alínea e) do Código dos Contratos Públicos","","",,,,Não aplicável.,Não aplicável.,FALSE
