Objeto do Contrato,Tipo de Procedimento,Tipo(s) de Contrato,CPVs,Entidade(s) Adjudicante(s),Entidade(s) Adjudicatária(s),Preço Contratual,Data de Publicação,Data de Celebração do Contrato,Prazo de Execução,Local de Execução,Fundamentação,Data de Fecho do Contrato,Preço Total Efetivo,Causas das Alterações ao Prazo,Causas das Alterações ao Preço,Estado,N.º registo do Acordo Quadro,Descrição do Acordo Quadro,Procedimento Centralizado
"Aquisição de Anagrelide 0,5mg cáps/comp.",Ajuste Direto Regime Geral,Aquisição de bens móveis,"33652000-5, Antineoplásicos e imunomoduladores",Centro Hospitalar de Lisboa Central E.P.E. (508080142),"Shire Pharmaceuticals Portugal, Lda. (509264662)","26.195,85 €",11-01-2013,02-01-2013,365 dias,"Portugal, Lisboa, Lisboa","Artigo 24.º, n.º 1, alínea e) do Código dos Contratos Públicos",,,,,,Não aplicável.,Não aplicável.,
aquisição de soluções p/ DPCA,Ajuste Direto Regime Geral,Aquisição de bens móveis,"33000000-0, Equipamento médico, medicamentos e produtos para cuidados pessoais",Centro Hospitalar de Lisboa Central E.P.E. (508080142),"Baxter Médico Farmacêutica, Lda (503347345)","169.617,00 €",11-01-2013,10-01-2013,355 dias,"Portugal, Lisboa, Lisboa","Artigo 24.º, n.º 1, alínea e) do Código dos Contratos Públicos",,,,,,Não aplicável.,Não aplicável.,
"aquisição de 300 ampolas de darbopoietina alfa 10mcg/0,4ml 440 seringas de darbopoietina alfa 20mcg/0,5ml; 320 ampolas de darbopoietina alfa 30mcg/0,3ml; 208 seringas de darbopoietina alfa  40mch/0,4ml; 168 seringas de darbepoietina alfa 50mcg/0,5ml; 160 seringas de darbepoietina alfa  60mcg/0,3ml; 140 seringas de darbepoietina alfa  80mcg/0,4ml; 88 seringas de darbepoietina alfa 100mcg/0,5ml; 84 seringas de darbepoietina alfa 150mcg/0,3ml; 10 seringas de darbepoietina alfa 300mcg/0,6ml; 50 seringas de darbepoietina  alfa  500mcg/1ml",Ajuste Direto Regime Geral,Aquisição de bens móveis,"33000000-0, Equipamento médico, medicamentos e produtos para cuidados pessoais",Centro Hospitalar de Lisboa Central E.P.E. (508080142),Amgen Biofarmacêutica (502942959),"132.583,68 €",11-01-2013,11-01-2013,20 dias,"Portugal, Lisboa, Lisboa","Artigo 24.º, n.º 1, alínea e) do Código dos Contratos Públicos",,,,,,Não aplicável.,Não aplicável.,
Aquisição de 560 frascos de Iomeprol 714.4mg/ml sol inj fr 100ml IA IV e 820 frascos de Iomeprol 714.4mg/ml sol inj fr 50ml IA IV.,Ajuste Direto Regime Geral,Aquisição de bens móveis,"33000000-0, Equipamento médico, medicamentos e produtos para cuidados pessoais",Centro Hospitalar de Lisboa Central E.P.E. (508080142),"Laboratórios Farmacêuticos Rovi, SA. (980166705)","9.666,80 €",11-01-2013,11-01-2013,354 dias,"Portugal, Lisboa, Lisboa","Artigo 24.º, n.º 1, alínea e) do Código dos Contratos Públicos",,,,,,Não aplicável.,Não aplicável.,
Aquisição de diversas Benzilpenicilinas,Ajuste Direto Regime Geral,Aquisição de bens móveis,"33000000-0, Equipamento médico, medicamentos e produtos para cuidados pessoais",Centro Hospitalar de Lisboa Central E.P.E. (508080142),Laboratórios Atral SA (500162085),"53.785,66 €",11-01-2013,09-01-2013,356 dias,"Portugal, Lisboa, Lisboa","Artigo 24.º, n.º 1, alínea e) do Código dos Contratos Públicos",,,,,,Não aplicável.,Não aplicável.,
"Aquisição de 300 frascos de Amidotriz. Meglum. 660mg/ml; 850 frascos de Iopromida 769mg/ml, fr 500ml IA; 650 frascos de Iopromida 769mg/ml, fr 100ml IA; 40 frascos de Iopromida 769mg/ml fr 200ml IA e 100 frascos de Iopromida 499mg/ml fr 50ml IA.",Ajuste Direto Regime Geral,Aquisição de bens móveis,"33000000-0, Equipamento médico, medicamentos e produtos para cuidados pessoais",Centro Hospitalar de Lisboa Central E.P.E. (508080142),"Bayer Portugal, SA. (500043256)","78.475,00 €",10-01-2013,10-01-2013,355 dias,"Portugal, Lisboa, Lisboa","Artigo 24.º, n.º 1, alínea e) do Código dos Contratos Públicos",,,,,,Não aplicável.,Não aplicável.,
Reagentes (Hemoculturas),Ajuste Direto Regime Geral,Aquisição de bens móveis,"33696500-0, Reagentes de laboratório",Centro Hospitalar de Lisboa Central E.P.E. (508080142),Biomérieux Portugal (501524177),"75.237,74 €",10-01-2013,07-01-2013,365 dias,"Portugal, Lisboa, Lisboa","Artigo 26.º, n.º 1, alínea a) do Código dos Contratos Públicos",,,,,,Não aplicável.,Não aplicável.,
Reagentes Torch para Serologia,Ajuste Direto Regime Geral,Aquisição de bens móveis,"33696500-0, Reagentes de laboratório",Centro Hospitalar de Lisboa Central E.P.E. (508080142),Biomérieux Portugal (501524177),"29.571,42 €",10-01-2013,07-01-2013,365 dias,"Portugal, Lisboa, Lisboa","Artigo 26.º, n.º 1, alínea a) do Código dos Contratos Públicos",,,,,,Não aplicável.,Não aplicável.,
Reagentes (Corantes) para Microbiologia,Ajuste Direto Regime Geral,Aquisição de bens móveis,"33696500-0, Reagentes de laboratório",Centro Hospitalar de Lisboa Central E.P.E. (508080142),Biomérieux Portugal (501524177),"24.965,26 €",10-01-2013,07-01-2013,365 dias,"Portugal, Lisboa, Lisboa","Artigo 26.º, n.º 1, alínea a) do Código dos Contratos Públicos",,,,,,Não aplicável.,Não aplicável.,
Reagentes - Micobactérias,Ajuste Direto Regime Geral,Aquisição de bens móveis,"33696500-0, Reagentes de laboratório",Centro Hospitalar de Lisboa Central E.P.E. (508080142),Biomérieux Portugal (501524177),"21.946,36 €",10-01-2013,07-01-2013,365 dias,"Portugal, Lisboa, Lisboa","Artigo 26.º, n.º 1, alínea a) do Código dos Contratos Públicos",,,,,,Não aplicável.,Não aplicável.,
Aquisição de 872 ampolas de Imunoglobulina Humana 1650mg/10ml e 173 ampolas de Fator VIII 1000UI+Fator Von Willebrand 1000UI.,Ajuste Direto Regime Geral,Aquisição de bens móveis,"33000000-0, Equipamento médico, medicamentos e produtos para cuidados pessoais",Centro Hospitalar de Lisboa Central E.P.E. (508080142),"Octapharma-Produtos Farmacêuticos, Lda. (502820780)","161.210,64 €",09-01-2013,19-12-2012,356 dias,"Portugal, Lisboa, Lisboa","Artigo 24.º, n.º 1, alínea e) do Código dos Contratos Públicos",,,,,,Não aplicável.,Não aplicável.,
Aquisição de 500 ampolas de Abciximab 10mg 5ml,Ajuste Direto Regime Geral,Aquisição de bens móveis,"33000000-0, Equipamento médico, medicamentos e produtos para cuidados pessoais",Centro Hospitalar de Lisboa Central E.P.E. (508080142),Lilly Portugal Produtos Farmacêuticos Lda (500165602),"146.985,00 €",09-01-2013,09-01-2013,356 dias,"Portugal, Lisboa, Lisboa","Artigo 24.º, n.º 1, alínea e) do Código dos Contratos Públicos",,,,,,Não aplicável.,Não aplicável.,
Reagentes - Marcadores de Hepatite e HIV,Ajuste Direto Regime Geral,Aquisição de bens móveis,"33696500-0, Reagentes de laboratório",Centro Hospitalar de Lisboa Central E.P.E. (508080142),Abbott Laboratórios (500006148),"9.963,19 €",09-01-2013,09-01-2013,365 dias,"Portugal, Lisboa, Lisboa","Artigo 26.º, n.º 1, alínea a) do Código dos Contratos Públicos",,,,,,Não aplicável.,Não aplicável.,
Aquisição de 750 capsulas de Lenalidomida 10mg,Ajuste Direto Regime Geral,Aquisição de bens móveis,"33000000-0, Equipamento médico, medicamentos e produtos para cuidados pessoais",Centro Hospitalar de Lisboa Central E.P.E. (508080142),Celgene Unipessoal Lda (507791690),"168.742,83 €",08-01-2013,04-01-2013,361 dias,"Portugal, Lisboa, Lisboa","Artigo 24.º, n.º 1, alínea e) do Código dos Contratos Públicos",,,,,,Não aplicável.,Não aplicável.,
Aquisição de 564 embalagens de Concentrado de fibrinogénio humano 1gr.,Ajuste Direto Regime Geral,Aquisição de bens móveis,"33000000-0, Equipamento médico, medicamentos e produtos para cuidados pessoais",Centro Hospitalar de Lisboa Central E.P.E. (508080142),"CSL Behring, Lda (503047201)","211.500,00 €",08-01-2013,08-01-2013,357 dias,"Portugal, Lisboa, Lisboa","Artigo 24.º, n.º 1, alínea e) do Código dos Contratos Públicos",,,,,,Não aplicável.,Não aplicável.,
Gasimetria Cassete medida - 12 unidades,Ajuste Direto Regime Geral,Aquisição de bens móveis,"33694000-1, Meios de diagnóstico",Centro Hospitalar de Lisboa Central E.P.E. (508080142),"Siemens Healthcare Diagnostics, Lda (507925173)","7.200,00 €",08-01-2013,08-01-2013,365 dias,"Portugal, Lisboa, Lisboa","Artigo 26.º, n.º 1, alínea a) do Código dos Contratos Públicos",,,,,,Não aplicável.,Não aplicável.,
Aquisição de 12.990 comp de Adefovir Dipivoxil 10mg,Ajuste Direto Regime Geral,Aquisição de bens móveis,"33000000-0, Equipamento médico, medicamentos e produtos para cuidados pessoais",Centro Hospitalar de Lisboa Central E.P.E. (508080142),Gilead Sciences Lda (503604704),"183.159,00 €",08-01-2013,08-01-2013,357 dias,"Portugal, Lisboa, Lisboa","Artigo 24.º, n.º 1, alínea e) do Código dos Contratos Públicos",,,,,,Não aplicável.,Não aplicável.,
aquisição de  43 ampolas de Cidofovir 375mg/6ml e 150 frados de Emtricitabina Sol. Oral 1%(10mgml),Ajuste Direto Regime Geral,Aquisição de bens móveis,"33000000-0, Equipamento médico, medicamentos e produtos para cuidados pessoais",Centro Hospitalar de Lisboa Central E.P.E. (508080142),Gilead Sciences Lda (503604704),"33.739,83 €",08-01-2013,03-01-2013,362 dias,"Portugal, Lisboa, Lisboa","Artigo 24.º, n.º 1, alínea e) do Código dos Contratos Públicos",,,,,,Não aplicável.,Não aplicável.,
"Aquisição de 624 ampolas de Imunoglobulina Anti Hepatite B, 1000UI 5ml",Ajuste Direto Regime Geral,Aquisição de bens móveis,"33000000-0, Equipamento médico, medicamentos e produtos para cuidados pessoais",Centro Hospitalar de Lisboa Central E.P.E. (508080142),CSL Behring (503047201),"156.000,00 €",04-01-2013,04-01-2013,361 dias,"Portugal, Lisboa, Lisboa","Artigo 24.º, n.º 1, alínea e) do Código dos Contratos Públicos",,,,,,Não aplicável.,Não aplicável.,
Obras de Beneficiação do Gabinete nº15 da Unidade de Psicologia do HSJ,Ajuste Direto Regime Geral,Empreitadas de obras públicas,"45000000-7, Construção",Centro Hospitalar de Lisboa Central E.P.E. (508080142),A. M. Rato Varanda (502725745),"9.450,21 €",04-01-2013,19-12-2012,10 dias,"Portugal, Lisboa, Lisboa","Artigo 19.º, alínea a) do Código dos Contratos Públicos",,,,,,Não aplicável.,Não aplicável.,
aquisição de 100 ampolas de Complexo Anti inibidor de Coagulação 500U.i,Ajuste Direto Regime Geral,Aquisição de bens móveis,"33000000-0, Equipamento médico, medicamentos e produtos para cuidados pessoais",Centro Hospitalar de Lisboa Central E.P.E. (508080142),Baxter Médico Farmacêutica Lda (503347345),"52.500,00 €",04-01-2013,04-01-2013,361 dias,"Portugal, Lisboa, Lisboa","Artigo 24.º, n.º 1, alínea e) do Código dos Contratos Públicos",,,,,,Não aplicável.,Não aplicável.,
"Aquisição de 220 ampolas de Caspofungina  50mg, 25 ampolas de Caspofungina  70mg e 6 frascos de Efavirenz Solução Oral 3%",Ajuste Direto Regime Geral,Aquisição de bens móveis,"33000000-0, Equipamento médico, medicamentos e produtos para cuidados pessoais",Centro Hospitalar de Lisboa Central E.P.E. (508080142),Merck Sharp & Dohme Lda (500191360),"128.551,07 €",03-01-2013,03-01-2013,362 dias,"Portugal, Lisboa, Lisboa","Artigo 24.º, n.º 1, alínea e) do Código dos Contratos Públicos",,,,,,Não aplicável.,Não aplicável.,
"Aquisição de 312 seringas de Omalizumab 150mg/1ml e 50 seringas de Omalizumab 75mg/0,5ml.",Ajuste Direto Regime Geral,Aquisição de bens móveis,"33000000-0, Equipamento médico, medicamentos e produtos para cuidados pessoais",Centro Hospitalar de Lisboa Central E.P.E. (508080142),"Novartis Farma, SA. (500063524)","119.212,00 €",03-01-2013,03-01-2013,362 dias,"Portugal, Lisboa, Lisboa","Artigo 24.º, n.º 1, alínea e) do Código dos Contratos Públicos",,,,,,Não aplicável.,Não aplicável.,
Alteração de IPs,Ajuste Direto Regime Geral,Aquisição de serviços,"72540000-2, Serviços de actualização informática",Centro Hospitalar de Lisboa Central E.P.E. (508080142),PT Comunicações S. A. (504615947),"7.996,67 €",03-01-2013,03-01-2013,360 dias,"Portugal, Lisboa, Lisboa","Artigo 24.º, n.º 1, alínea e) do Código dos Contratos Públicos",,,,,,Não aplicável.,Não aplicável.,
Aquisição de 700 frascos de Levodopa Carbidopa Gel Intestinal e  16500 comprimisdos de Lopinavir 100mg + Ritonavir 25mg,Ajuste Direto Regime Geral,Aquisição de bens móveis,"33000000-0, Equipamento médico, medicamentos e produtos para cuidados pessoais",Centro Hospitalar de Lisboa Central E.P.E. (508080142),Abbvie Lda (510229050),"105.407,49 €",03-01-2013,03-01-2013,362 dias,"Portugal, Lisboa, Lisboa","Artigo 24.º, n.º 1, alínea e) do Código dos Contratos Públicos",,,,,,Não aplicável.,Não aplicável.,
Reagentes (Identificação e Antibiogramas de Microorganismos),Ajuste Direto Regime Geral,Aquisição de bens móveis,"33696500-0, Reagentes de laboratório",Centro Hospitalar de Lisboa Central E.P.E. (508080142),Biomérieux Portugal (501524177),"85.498,82 €",03-01-2013,03-01-2013,365 dias,"Portugal, Lisboa, Lisboa","Artigo 26.º, n.º 1, alínea a) do Código dos Contratos Públicos",,,,,,Não aplicável.,Não aplicável.,
Reagentes (Meios de Cultura),Ajuste Direto Regime Geral,Aquisição de bens móveis,"33696500-0, Reagentes de laboratório",Centro Hospitalar de Lisboa Central E.P.E. (508080142),Biomérieux Portugal (501524177),"27.546,22 €",03-01-2013,03-01-2013,365 dias,"Portugal, Lisboa, Lisboa","Artigo 26.º, n.º 1, alínea a) do Código dos Contratos Públicos",,,,,,Não aplicável.,Não aplicável.,
Reagentes para Serologia - 2013 - CHLC,Ajuste Direto Regime Geral,Aquisição de bens móveis,"33696500-0, Reagentes de laboratório",Centro Hospitalar de Lisboa Central E.P.E. (508080142),Isoder (502241594),"13.260,00 €",02-01-2013,02-01-2013,365 dias,"Portugal, Lisboa, Lisboa","Artigo 26.º, n.º 1, alínea a) do Código dos Contratos Públicos",,,,,,Não aplicável.,Não aplicável.,
Reagentes para Serologia com colocação de equipamento contra-consumo,Ajuste Direto Regime Geral,Aquisição de bens móveis,"33696500-0, Reagentes de laboratório",Centro Hospitalar de Lisboa Central E.P.E. (508080142),Grifols Portugal (502041285),"20.015,00 €",02-01-2013,02-01-2013,365 dias,"Portugal, Lisboa, Lisboa","Artigo 26.º, n.º 1, alínea a) do Código dos Contratos Públicos",,,,,,Não aplicável.,Não aplicável.,
Aquisição de 9.200 embalagens de Plasma humano inativado.,Ajuste Direto Regime Geral,Aquisição de bens móveis,"33000000-0, Equipamento médico, medicamentos e produtos para cuidados pessoais",Centro Hospitalar de Lisboa Central E.P.E. (508080142),"Octapharma-Produtos Farmacêuticos, Lda. (502820780)","828.000,00 €",02-01-2013,02-01-2013,363 dias,"Portugal, Lisboa, Lisboa","Artigo 24.º, n.º 1, alínea e) do Código dos Contratos Públicos",,,,,,Não aplicável.,Não aplicável.,
