Objeto do Contrato,Tipo de Procedimento,Tipo(s) de Contrato,CPVs,Entidade(s) Adjudicante(s),Entidade(s) Adjudicatária(s),Preço Contratual,Data de Publicação,Data de Celebração do Contrato,Prazo de Execução,Local de Execução,Fundamentação,Data de Fecho do Contrato,Preço Total Efetivo,Causas das Alterações ao Prazo,Causas das Alterações ao Preço,Estado,N.º registo do Acordo Quadro,Descrição do Acordo Quadro,Procedimento Centralizado
MEIOS P/REALIZ. ANAL.CLINICAS P/ IDENTIFICAÇÃO E TSA (LOTE A)_AQ_3R/01278/18(1),Ajuste Direto Regime Geral,Aquisição de bens móveis,"33696500-0, Reagentes de laboratório","Centro Hospitalar Tondela-Viseu, E. P. E. (509822940)","Biomérieux Portugal, Lda (501524177)","105.390,00 €",04-01-2019,20-11-2018,365 dias,"Portugal, Viseu, Viseu","Artigo 26.º, n.º 1, alínea e) do Código dos Contratos Públicos",,,,,,Não aplicável.,Não aplicável.,FALSE
DIVERSO MATERIAL CLINICO - OSTEOSINTESE TRAUMA (PLACAS E PARAFUSO)(AQ00497/18),Ajuste Direto Regime Geral,Aquisição de bens móveis,"33183200-8, Próteses ortopédicas","Centro Hospitalar Tondela-Viseu, E. P. E. (509822940)","JOHNSON & JOHNSON, LDA (500153370)","160.000,00 €",02-01-2019,01-10-2018,365 dias,"Portugal, Viseu, Viseu",Artigo 258.º do Código dos Contratos Públicos,,,,,,Não aplicável.,Não aplicável.,FALSE
MATERIAL DE ORTOPEDIA - PRÓTESE JOELHO CIMENTADA(AQ00034/16),Ajuste Direto Regime Geral,Aquisição de bens móveis,"33183200-8, Próteses ortopédicas","Centro Hospitalar Tondela-Viseu, E. P. E. (509822940)","STRYKER PORTUGAL PRODUTOS MÉDICOS, LDA. (504594214)","97.500,00 €",02-01-2019,03-09-2018,365 dias,"Portugal, Viseu, Viseu",Artigo 258.º do Código dos Contratos Públicos,,,,,,Não aplicável.,Não aplicável.,FALSE
DIVERSO MATERIAL CLINICO-OSTEOSINTESE COLUNA (SNDC),Ajuste Direto Regime Geral,Aquisição de bens móveis,"33141000-0, Material médico não químico descartável e produtos hematológicos","Centro Hospitalar Tondela-Viseu, E. P. E. (509822940)",SMITHS MEDICAL (507445937),"35.056,77 €",02-01-2019,14-03-2018,365 dias,"Portugal, Viseu, Viseu",Artigo 258.º do Código dos Contratos Públicos,,,,,,Não aplicável.,Não aplicável.,FALSE
