Objeto do Contrato,Tipo de Procedimento,Tipo(s) de Contrato,CPVs,Entidade(s) Adjudicante(s),Entidade(s) Adjudicatária(s),Preço Contratual,Data de Publicação,Data de Celebração do Contrato,Prazo de Execução,Local de Execução,Fundamentação,Data de Fecho do Contrato,Preço Total Efetivo,Causas das Alterações ao Prazo,Causas das Alterações ao Preço,Estado,N.º registo do Acordo Quadro,Descrição do Acordo Quadro,Procedimento Centralizado
AD199-2018REAGENTES PARA ANÁLISES IMUNOHEMATOLOGIA,Ajuste Direto Regime Geral,Aquisição de bens móveis,"33696500-0, Reagentes de laboratório","Instituto Português de Oncologia de Lisboa Francisco Gentil, E. P. E. (506361616)",IMMUCOR PORTUGAL DIAGNOSTICOS MÉDICOS LDA (503007358),"64.537,61 €",10-04-2018,19-03-2018,286 dias,"Portugal, Lisboa, Lisboa","Artigo 20.º, n.º 1, alínea a) do Código dos Contratos Públicos",,,,,,Não aplicável.,Não aplicável.,FALSE
AD225-2018 MEDICAMENTOS,Ajuste Direto Regime Geral,Aquisição de bens móveis,"33600000-6, Produtos farmacêuticos","Instituto Português de Oncologia de Lisboa Francisco Gentil, E. P. E. (506361616)",ISOTOPOS E DERIVADOS  ISODER S.A. (502241594),"28.950,00 €",10-04-2018,16-02-2018,30 dias,"Portugal, Lisboa, Lisboa","Artigo 24.º, n.º 1, alínea c) do Código dos Contratos Públicos",,,,,,Não aplicável.,Não aplicável.,FALSE
AD483-2018 MEDICAMENTOS,Ao abrigo de acordo-quadro (art.º 259.º),Aquisição de bens móveis,"33600000-6, Produtos farmacêuticos","Instituto Português de Oncologia de Lisboa Francisco Gentil, E. P. E. (506361616)",ROCHE FARMACEUTICA QUIMICA LDA (500233810),"67.977,00 €",10-04-2018,09-04-2018,365 dias,"Portugal, Lisboa, Lisboa",Artigo 259.º do Código dos Contratos Públicos,,,,,,1771819,CP 2015/6 - Acordo quadro para o fornecimento de Medicamentos do Foro Oncológico,FALSE
AD191-2018 MEDICAMENTOS,Ajuste Direto Regime Geral,Aquisição de bens móveis,"33600000-6, Produtos farmacêuticos","Instituto Português de Oncologia de Lisboa Francisco Gentil, E. P. E. (506361616)","AMGEN BIOFARMACEUTICA, LDA (502942959)","143.400,88 €",10-04-2018,21-03-2018,284 dias,"Portugal, Lisboa, Lisboa","Artigo 24.º, n.º 1, alínea e) do Código dos Contratos Públicos",,,,,,Não aplicável.,Não aplicável.,FALSE
AD67-2018 MEDICAMENTOS,Ajuste Direto Regime Geral,Aquisição de bens móveis,"33600000-6, Produtos farmacêuticos","Instituto Português de Oncologia de Lisboa Francisco Gentil, E. P. E. (506361616)",BIO-RAD- APARELHOS  E REAGENTES PARA LABORATÓRIO (501301321),"5.400,00 €",09-04-2018,05-04-2018,30 dias,"Portugal, Lisboa, Lisboa","Artigo 20.º, n.º 1, alínea a) do Código dos Contratos Públicos",,,,,,Não aplicável.,Não aplicável.,FALSE
ADE579-2018MEDICAMENTOS,Ajuste Direto Regime Geral,Aquisição de bens móveis,"33600000-6, Produtos farmacêuticos","Instituto Português de Oncologia de Lisboa Francisco Gentil, E. P. E. (506361616)",PHARMAKERN PORTUGAL PRODUTOS FARMACEUTICOS SOCIEDADE UNIPESSOAL LDA PORTUGAL (507002571),"74.235,00 €",06-04-2018,03-04-2018,30 dias,"Portugal, Lisboa, Lisboa","Artigo 20.º, n.º 1, alínea a) do Código dos Contratos Públicos",,,,,,Não aplicável.,Não aplicável.,FALSE
AD644-2018 PCR DIGITAL,Ajuste Direto Regime Geral,Aquisição de bens móveis,"33100000-1, Equipamento médico","Instituto Português de Oncologia de Lisboa Francisco Gentil, E. P. E. (506361616)",BIO-RAD- APARELHOS E REAGENTES PARALABORATÓRIO (501301321),"67.000,00 €",06-04-2018,19-03-2018,30 dias,"Portugal, Lisboa, Lisboa","Artigo 20.º, n.º 1, alínea a) do Código dos Contratos Públicos",,,,,,Não aplicável.,Não aplicável.,FALSE
AD1191-2018FULVESTRANT 50 MG,Ao abrigo de acordo-quadro (art.º 259.º),Aquisição de bens móveis,"33600000-6, Produtos farmacêuticos","Instituto Português de Oncologia de Lisboa Francisco Gentil, E. P. E. (506361616)",ASTRAZENECA PRODUTOS FARMACEUTICOS (502942240),"39.558,00 €",05-04-2018,15-03-2018,30 dias,"Portugal, Lisboa, Lisboa",Artigo 259.º do Código dos Contratos Públicos,,,,,,1771819,CP 2015/6 - Acordo quadro para o fornecimento de Medicamentos do Foro Oncológico,FALSE
AD187-2018 MEDICAMENTO EXCLUSIVO,Ajuste Direto Regime Geral,Aquisição de bens móveis,"33600000-6, Produtos farmacêuticos","Instituto Português de Oncologia de Lisboa Francisco Gentil, E. P. E. (506361616)","TAKEDA- FARMACEUTICOS PORTUGAL, LDA (502801204)","30.702,40 €",05-04-2018,19-03-2018,30 dias,"Portugal, Lisboa, Lisboa","Artigo 24.º, n.º 1, alínea e) do Código dos Contratos Públicos",,,,,,Não aplicável.,Não aplicável.,FALSE
AQUISIÇÃO DE UM ACELERADOR LINEAR,Concurso público,Aquisição de bens móveis,"33151200-5, Aparelhos para radioterapia","Instituto Português de Oncologia de Lisboa Francisco Gentil, E. P. E. (506361616)","Varian Medical Systems Ibérica, S.L. (B-82246422)","3.195.000,00 €",04-04-2018,23-10-2017,168 dias,"Portugal, Lisboa, Lisboa","Artigo 20.º, n.º 1, alínea b) do Código dos Contratos Públicos",,,,,,Não aplicável.,Não aplicável.,FALSE
AD858-2018FORNECIMENTO DE REAGENTES PARA ANÁLISES LAB HEMATOLOGIA,Ajuste Direto Regime Geral,Aquisição de bens móveis,"33696500-0, Reagentes de laboratório","Instituto Português de Oncologia de Lisboa Francisco Gentil, E. P. E. (506361616)","WERFEN PORTUGAL, LDA (501086110)","88.812,23 €",04-04-2018,20-03-2018,285 dias,"Portugal, Lisboa, Lisboa","Artigo 24.º, n.º 1, alínea c) do Código dos Contratos Públicos",,,,,,Não aplicável.,Não aplicável.,FALSE
AD767-2018P.S. MANUTENÇÃO E ASSISTENCIA TÉCNICA,Ajuste Direto Regime Geral,Aquisição de serviços,"50400000-9, Serviços de reparação e manutenção de equipamento médico e de precisão","Instituto Português de Oncologia de Lisboa Francisco Gentil, E. P. E. (506361616)",IT-SECTOR- SISTEMAS DE INFORMAÇÃO S.A. (507291727),"37.588,22 €",03-04-2018,20-03-2018,286 dias,"Portugal, Lisboa, Lisboa","Artigo 24.º, n.º 1, alínea e) do Código dos Contratos Públicos",,,,,,Não aplicável.,Não aplicável.,FALSE
AD1198-2018OXIGENIO GÁS,Ajuste Direto Regime Geral,Aquisição de bens móveis,"33600000-6, Produtos farmacêuticos","Instituto Português de Oncologia de Lisboa FG, E.P.E. (506361616)",LINDE PORTUGAL LDA (500266344),"21.450,65 €",03-04-2018,14-03-2018,30 dias,"Portugal, Lisboa, Lisboa","Artigo 24.º, n.º 1, alínea c) do Código dos Contratos Públicos",,,,,,Não aplicável.,Não aplicável.,FALSE
AD1199-2018-AZOTO LIQUIDO,Ajuste Direto Regime Geral,Aquisição de bens móveis,"33600000-6, Produtos farmacêuticos","Instituto Português de Oncologia de Lisboa FG, E.P.E. (506361616)",LINDE PORTUGAL (500266344),"6.881,10 €",03-04-2018,14-03-2018,30 dias,"Portugal, Lisboa, Lisboa","Artigo 24.º, n.º 1, alínea c) do Código dos Contratos Públicos",,,,,,Não aplicável.,Não aplicável.,FALSE
AD630-2018 LENVATINIB 10 MG 4 MG,Ajuste Direto Regime Geral,Aquisição de bens móveis,"33600000-6, Produtos farmacêuticos","Instituto Português de Oncologia de Lisboa Francisco Gentil, E. P. E. (506361616)",EISAI FARMACEUTICA UNIPESSOAL LDA (507847660),"56.471,04 €",02-04-2018,21-03-2018,285 dias,"Portugal, Lisboa, Lisboa","Artigo 24.º, n.º 1, alínea e) do Código dos Contratos Públicos",,,,,,Não aplicável.,Não aplicável.,FALSE
