Objeto do Contrato,Tipo de Procedimento,Tipo(s) de Contrato,CPVs,Entidade(s) Adjudicante(s),Entidade(s) Adjudicatária(s),Preço Contratual,Data de Publicação,Data de Celebração do Contrato,Prazo de Execução,Local de Execução,Fundamentação,Data de Fecho do Contrato,Preço Total Efetivo,Causas das Alterações ao Prazo,Causas das Alterações ao Preço,Estado,N.º registo do Acordo Quadro,Descrição do Acordo Quadro,Procedimento Centralizado
Aquisição de Sondas para Aparelho Medição de Fluxo Sanguíneo,Ajuste Direto Regime Geral,Aquisição de bens móveis,"33000000-0, Equipamento médico, medicamentos e produtos para cuidados pessoais","Centro Hospitalar de São João, E. P. E. (509821197)",Socime II (504453939),"25.662,00 €",07-09-2018,05-03-2018,301 dias,"Portugal, Porto","Artigo 24.º, n.º 1, alínea e), subalínea ii) do Código dos Contratos Públicos",,,,,,Não aplicável.,Não aplicável.,FALSE
Aquisição de Máquina de Sutura Mecânica Curva com Corte,Ajuste Direto Regime Geral,Aquisição de bens móveis,"33000000-0, Equipamento médico, medicamentos e produtos para cuidados pessoais","Centro Hospitalar de São João, E. P. E. (509821197)","JOHNSON & JOHNSON, LDA (500153370)","6.525,00 €",07-09-2018,31-08-2018,122 dias,"Portugal, Porto, Porto","Artigo 20.º, n.º 1, alínea d) do Código dos Contratos Públicos",,,,,,Não aplicável.,Não aplicável.,FALSE
"Contrato de Assistência Técnica ao Software PACS, para o ano de 2018",Ajuste Direto Regime Geral,Aquisição de serviços,"50000000-5, Serviços de reparação e manutenção","Centro Hospitalar de São João, E. P. E. (509821197)",Art Ces (513270396),"209.908,50 €",06-09-2018,31-08-2018,365 dias,"Portugal, Porto, Porto","Artigo 24.º, n.º 1, alínea e), subalínea iii) do Código dos Contratos Públicos",,,,,,Não aplicável.,Não aplicável.,FALSE
"Aquisição de Serviços de Manutenção e Assistência Técnica a vários Equipamentos """"Dräger"""" do CHSJ, EPE., para o ano 2018",Ajuste Direto Regime Geral,Aquisição de serviços,"50400000-9, Serviços de reparação e manutenção de equipamento médico e de precisão","Centro Hospitalar de São João, E. P. E. (509821197)",Drager (508771323),"45.939,31 €",06-09-2018,30-08-2018,365 dias,"Portugal, Porto, Porto","Artigo 24.º, n.º 1, alínea e) do Código dos Contratos Públicos",,,,,,Não aplicável.,Não aplicável.,FALSE
"Aquisição de Serviços de Manutenção e Assistência Técnica às Unidades de Tratamento de Águas de diversos Serviços do CHSJ, EPE, para o ano de 2018",Ajuste Direto Regime Geral,Aquisição de serviços,"50000000-5, Serviços de reparação e manutenção","Centro Hospitalar de São João, E. P. E. (509821197)",hemotecnica (501744010),"12.333,60 €",06-09-2018,20-07-2018,365 dias,"Portugal, Porto, Porto","Artigo 24.º, n.º 1, alínea e), subalínea iii) do Código dos Contratos Públicos",,,,,,Não aplicável.,Não aplicável.,FALSE
