Objeto do Contrato,Tipo de Procedimento,Tipo(s) de Contrato,CPVs,Entidade(s) Adjudicante(s),Entidade(s) Adjudicatária(s),Preço Contratual,Data de Publicação,Data de Celebração do Contrato,Prazo de Execução,Local de Execução,Fundamentação,Data de Fecho do Contrato,Preço Total Efetivo,Causas das Alterações ao Prazo,Causas das Alterações ao Preço,Estado,N.º registo do Acordo Quadro,Descrição do Acordo Quadro,Procedimento Centralizado
SC/152/2018 - Aquisição de Soros,Ao abrigo de acordo-quadro (art.º 259.º),Aquisição de bens móveis,"33600000-6, Produtos farmacêuticos","Administração Regional de Saúde do Algarve, I. P. (503148709)","B.Braun Medical, Lda. (501506543)","877,40 €",07-06-2018,07-06-2018,201 dias,"Portugal, Faro, Faro",Artigo 259.º do Código dos Contratos Públicos,13-11-2018,"494,59 €",,Quantidades encomendadas.,,2528675,CP 2017/3 - Acordo Quadro para fornecimento de corretivos da volémia e outras soluções estéreis,FALSE
SC/152/2018 - Aquisição de Soros,Ao abrigo de acordo-quadro (art.º 259.º),Aquisição de bens móveis,"33600000-6, Produtos farmacêuticos","Administração Regional de Saúde do Algarve, I. P. (503148709)","Overpharma - Produtos Médicos Farmacêuticos, Lda. (505792362)","1.433,00 €",07-06-2018,07-06-2018,201 dias,"Portugal, Faro, Faro",Artigo 259.º do Código dos Contratos Públicos,24-09-2018,"1.433,00 €",,"",,2528675,CP 2017/3 - Acordo Quadro para fornecimento de corretivos da volémia e outras soluções estéreis,FALSE
SC/152/2018 - Aquisição de Soros,Ao abrigo de acordo-quadro (art.º 259.º),Aquisição de bens móveis,"33600000-6, Produtos farmacêuticos","Administração Regional de Saúde do Algarve, I. P. (503148709)","Labesfal, S.A. (501169580)","21.862,56 €",07-06-2018,06-06-2018,201 dias,"Portugal, Faro, Faro",Artigo 259.º do Código dos Contratos Públicos,19-11-2018,"21.099,87 €",,Quantidades encomendadas.,,2528675,CP 2017/3 - Acordo Quadro para fornecimento de corretivos da volémia e outras soluções estéreis,FALSE
AM/152/2018 - Aquisição de Acamprosato,Ajuste Direto Regime Geral,Aquisição de bens móveis,"33690000-3, Medicamentos vários","Administração Regional de Saúde do Algarve, I. P. (503148709)","Merck, S.A. (500650870)","165,42 €",06-06-2018,06-06-2018,209 dias,"Portugal, Faro, Faro","Artigo 24.º, n.º 1, alínea e), subalínea ii) do Código dos Contratos Públicos",22-11-2018,"132,34 €",,Quantidades encomendadas.,,Não aplicável.,Não aplicável.,FALSE
Aquisição de Testes de HIV 4ª geração,Ao abrigo de acordo-quadro (art.º 259.º),Aquisição de bens móveis,"33190000-8, Dispositivos e produtos médicos variados","Administração Regional de Saúde do Algarve, I. P. (503148709)","Alere, Lda. (502518863)","9.160,00 €",05-06-2018,01-06-2018,213 dias,"Portugal, Faro, Faro",Artigo 259.º do Código dos Contratos Públicos,23-11-2018,"9.160,00 €",,"",,2810777,CP 2017/31 - Acordo Quadro para fornecimento de Material de Prevenção e Deteção de HIV às Instituições e Serviços do Serviço Nacional de Saúde,FALSE
