Objeto do Contrato,Tipo de Procedimento,Tipo(s) de Contrato,CPVs,Entidade(s) Adjudicante(s),Entidade(s) Adjudicatária(s),Preço Contratual,Data de Publicação,Data de Celebração do Contrato,Prazo de Execução,Local de Execução,Fundamentação,Data de Fecho do Contrato,Preço Total Efetivo,Causas das Alterações ao Prazo,Causas das Alterações ao Preço,Estado,N.º registo do Acordo Quadro,Descrição do Acordo Quadro,Procedimento Centralizado
Deslocação em serviço a Londres; Formação; 1 Participante,Ajuste Direto Regime Geral,Aquisição de serviços,"63510000-7, Serviços de agências de viagens e serviços similares","INFARMED - Autoridade Nacional do Medicamento e Produtos de Saúde, I.P. (600037002)","BCD TRAVEL PORTUGAL – Agência de Viagens, Lda. (500291110)","934,95 €",19-05-2011,18-05-2011,3 dias,"Portugal, Lisboa, Lisboa","Artigo 27.º, n.º 1, alínea h) do Código dos Contratos Públicos",,,,,,Não aplicável.,Não aplicável.,
Deslocação em serviço a Berlim; Formação; 1 Participante.,Ajuste Direto Regime Geral,Aquisição de serviços,"63510000-7, Serviços de agências de viagens e serviços similares","INFARMED - Autoridade Nacional do Medicamento e Produtos de Saúde, I.P. (600037002)","BCD TRAVEL PORTUGAL – Agência de Viagens, Lda. (500291110)","1.598,66 €",19-05-2011,18-05-2011,4 dias,"Portugal, Lisboa, Lisboa","Artigo 27.º, n.º 1, alínea h) do Código dos Contratos Públicos",,,,,,Não aplicável.,Não aplicável.,
Deslocação em serviço a Londres; formação; 2 Participantes,Ajuste Direto Regime Geral,Aquisição de serviços,"63510000-7, Serviços de agências de viagens e serviços similares","INFARMED - Autoridade Nacional do Medicamento e Produtos de Saúde, I.P. (600037002)","BCD TRAVEL PORTUGAL – Agência de Viagens, Lda. (500291110)","2.699,36 €",19-05-2011,18-05-2011,5 dias,"Portugal, Lisboa, Lisboa","Artigo 27.º, n.º 1, alínea h) do Código dos Contratos Públicos",,,,,,Não aplicável.,Não aplicável.,
Deslocação em serviço a Budapeste; CAMD HMA workshop e 65th meeting of the Head of Medicines Agencies; 1 Participante.,Ajuste Direto Regime Geral,Aquisição de serviços,"63510000-7, Serviços de agências de viagens e serviços similares","INFARMED - Autoridade Nacional do Medicamento e Produtos de Saúde, I.P. (600037002)","OSIRIS - Viagens e Turismo, Lda. (505259397)","891,09 €",19-05-2011,18-05-2011,4 dias,"Portugal, Lisboa, Lisboa","Artigo 27.º, n.º 1, alínea h) do Código dos Contratos Públicos",,,,,,Não aplicável.,Não aplicável.,
Deslocação em serviço a Copenhaga; Auditoria BEMA;1 Participante.,Ajuste Direto Regime Geral,Aquisição de serviços,"63510000-7, Serviços de agências de viagens e serviços similares","INFARMED - Autoridade Nacional do Medicamento e Produtos de Saúde, I.P. (600037002)","RASO - Viagens e Turismo, S.A. (500886113)","262,87 €",19-05-2011,18-05-2011,6 dias,"Portugal, Lisboa, Lisboa","Artigo 27.º, n.º 1, alínea h) do Código dos Contratos Públicos",,,,,,Não aplicável.,Não aplicável.,
Aquisição de serviços de desenvolvimento de software para integração do Repositório de Dispositivos Médicos com a European Databank on Medical Devices - EUDAMED.,Ajuste Direto Regime Geral,Aquisição de serviços,"48200000-0, Pacote de software para ligações em rede, Internet e intranet","INFARMED - Autoridade Nacional do Medicamento e Produtos de Saúde, I.P. (600037002)","INDRA Sistemas de Portugal, S.A. (506176142)","14.000,00 €",19-05-2011,04-05-2011,40 dias,"Portugal, Lisboa, Lisboa","Artigo 27.º, n.º 1, alínea f) do Código dos Contratos Públicos",,,,,,Não aplicável.,Não aplicável.,
Deslocação em serviço a Londres; Formação; 2 Participantes.,Ajuste Direto Regime Geral,Aquisição de serviços,"63510000-7, Serviços de agências de viagens e serviços similares","INFARMED - Autoridade Nacional do Medicamento e Produtos de Saúde, I.P. (600037002)","BCD TRAVEL PORTUGAL – Agência de Viagens, Lda. (500291110)","950,74 €",17-05-2011,13-05-2011,2 dias,"Portugal, Lisboa, Lisboa","Artigo 27.º, n.º 1, alínea h) do Código dos Contratos Públicos",,,,,,Não aplicável.,Não aplicável.,
Deslocação em serviço a Berlim ; CEN/TC 3927WG 1 N 84; 1 Participante,Ajuste Direto Regime Geral,Aquisição de serviços,"63510000-7, Serviços de agências de viagens e serviços similares","INFARMED - Autoridade Nacional do Medicamento e Produtos de Saúde, I.P. (600037002)","BCD TRAVEL PORTUGAL – Agência de Viagens, Lda. (500291110)","893,02 €",17-05-2011,13-05-2011,2 dias,"Portugal, Lisboa, Lisboa","Artigo 27.º, n.º 1, alínea h) do Código dos Contratos Públicos",,,,,,Não aplicável.,Não aplicável.,
Deslocação em serviço a Budapeste; CAMD-HMA; 1 Participante.,Ajuste Direto Regime Geral,Aquisição de serviços,"63510000-7, Serviços de agências de viagens e serviços similares","INFARMED - Autoridade Nacional do Medicamento e Produtos de Saúde, I.P. (600037002)","OSIRIS - Viagens e Turismo, Lda. (505259397)","808,54 €",17-05-2011,13-05-2011,3 dias,"Portugal, Lisboa, Lisboa","Artigo 27.º, n.º 1, alínea h) do Código dos Contratos Públicos",,,,,,Não aplicável.,Não aplicável.,
Deslocação em serviço a Bruxelas; WP on Phartmaceuticas and M.D.; 1 Participante.,Ajuste Direto Regime Geral,Aquisição de serviços,"63510000-7, Serviços de agências de viagens e serviços similares","INFARMED - Autoridade Nacional do Medicamento e Produtos de Saúde, I.P. (600037002)","RASO - Viagens e Turismo, S.A. (500886113)","1.124,04 €",17-05-2011,13-05-2011,2 dias,"Portugal, Lisboa, Lisboa","Artigo 27.º, n.º 1, alínea h) do Código dos Contratos Públicos",,,,,,Não aplicável.,Não aplicável.,
Deslocação em serviço a Londres; BWP e CAT; 1 Participante.,Ajuste Direto Regime Geral,Aquisição de serviços,"63510000-7, Serviços de agências de viagens e serviços similares","INFARMED - Autoridade Nacional do Medicamento e Produtos de Saúde, I.P. (600037002)","BCD TRAVEL PORTUGAL – Agência de Viagens, Lda. (500291110)","376,20 €",17-05-2011,13-05-2011,5 dias,"Portugal, Lisboa, Lisboa","Artigo 27.º, n.º 1, alínea h) do Código dos Contratos Públicos",,,,,,Não aplicável.,Não aplicável.,
Deslocação em serviço a Estrasburgo; grupo 10ª Farmacopeia Europeia.,Ajuste Direto Regime Geral,Aquisição de serviços,"63510000-7, Serviços de agências de viagens e serviços similares","INFARMED - Autoridade Nacional do Medicamento e Produtos de Saúde, I.P. (600037002)","BCD TRAVEL PORTUGAL – Agência de Viagens, Lda. (500291110)","1.129,49 €",17-05-2011,13-05-2011,3 dias,"Portugal, Lisboa, Lisboa","Artigo 27.º, n.º 1, alínea h) do Código dos Contratos Públicos",,,,,,Não aplicável.,Não aplicável.,
Deslocação em serviço a Budapeste; CHMP/COMP/PDCO/CAT/SAWP; 1 Participante.,Ajuste Direto Regime Geral,Aquisição de serviços,"63510000-7, Serviços de agências de viagens e serviços similares","INFARMED - Autoridade Nacional do Medicamento e Produtos de Saúde, I.P. (600037002)","BCD TRAVEL PORTUGAL – Agência de Viagens, Lda. (500291110)","687,91 €",17-05-2011,13-05-2011,3 dias,"Portugal, Lisboa, Lisboa","Artigo 27.º, n.º 1, alínea h) do Código dos Contratos Públicos",,,,,,Não aplicável.,Não aplicável.,
Deslocação em serviço a londres; Eudravigilance Information.,Ajuste Direto Regime Geral,Aquisição de serviços,"63510000-7, Serviços de agências de viagens e serviços similares","INFARMED - Autoridade Nacional do Medicamento e Produtos de Saúde, I.P. (600037002)","BCD TRAVEL PORTUGAL – Agência de Viagens, Lda. (500291110)","231,29 €",17-05-2011,13-05-2011,3 dias,"Portugal, Lisboa, Lisboa","Artigo 27.º, n.º 1, alínea g) do Código dos Contratos Públicos",,,,,,Não aplicável.,Não aplicável.,
Deslocação em serviço a Viena; Telematic Group; 1 Participante.,Ajuste Direto Regime Geral,Aquisição de serviços,"63510000-7, Serviços de agências de viagens e serviços similares","INFARMED - Autoridade Nacional do Medicamento e Produtos de Saúde, I.P. (600037002)","BCD TRAVEL PORTUGAL – Agência de Viagens, Lda. (500291110)","744,78 €",17-05-2011,13-05-2011,3 dias,"Portugal, Lisboa, Lisboa","Artigo 27.º, n.º 1, alínea h) do Código dos Contratos Públicos",,,,,,Não aplicável.,Não aplicável.,
Deslocação em serviço a Londres; Clinical Trail Logistics; 1 Participante.,Ajuste Direto Regime Geral,Aquisição de serviços,"63510000-7, Serviços de agências de viagens e serviços similares","INFARMED - Autoridade Nacional do Medicamento e Produtos de Saúde, I.P. (600037002)","BCD TRAVEL PORTUGAL – Agência de Viagens, Lda. (500291110)","1.077,71 €",17-05-2011,13-05-2011,4 dias,"Portugal, Lisboa, Lisboa","Artigo 27.º, n.º 1, alínea h) do Código dos Contratos Públicos",,,,,,Não aplicável.,Não aplicável.,
Deslocação em serviço a Bruxelas; Notice to Applicants; 1 Participante.,Ajuste Direto Regime Geral,Aquisição de serviços,"63510000-7, Serviços de agências de viagens e serviços similares","INFARMED - Autoridade Nacional do Medicamento e Produtos de Saúde, I.P. (600037002)","RASO - Viagens e Turismo, S.A. (500886113)","619,38 €",17-05-2011,13-05-2011,3 dias,"Portugal, Lisboa, Lisboa","Artigo 27.º, n.º 1, alínea h) do Código dos Contratos Públicos",,,,,,Não aplicável.,Não aplicável.,
Deslocação em serviço a Bruxelas; COEN; 1 Participante.,Ajuste Direto Regime Geral,Aquisição de serviços,"63510000-7, Serviços de agências de viagens e serviços similares","INFARMED - Autoridade Nacional do Medicamento e Produtos de Saúde, I.P. (600037002)","RASO - Viagens e Turismo, S.A. (500886113)","688,42 €",17-05-2011,13-05-2011,2 dias,"Portugal, Lisboa, Lisboa","Artigo 27.º, n.º 1, alínea h) do Código dos Contratos Públicos",,,,,,Não aplicável.,Não aplicável.,
Deslocação em serviço a Milão; Setac Europe; 1 Participante.,Ajuste Direto Regime Geral,Aquisição de serviços,"63510000-7, Serviços de agências de viagens e serviços similares","INFARMED - Autoridade Nacional do Medicamento e Produtos de Saúde, I.P. (600037002)","RASO - Viagens e Turismo, S.A. (500886113)","809,70 €",17-05-2011,13-05-2011,6 dias,"Portugal, Lisboa, Lisboa","Artigo 27.º, n.º 1, alínea h) do Código dos Contratos Públicos",,,,,,Não aplicável.,Não aplicável.,
Deslocação em serviço a Budapeste; CHMP/COMP/PDCO/CAT;  1 Participante,Ajuste Direto Regime Geral,Aquisição de serviços,"63510000-7, Serviços de agências de viagens e serviços similares","INFARMED - Autoridade Nacional do Medicamento e Produtos de Saúde, I.P. (600037002)","BCD TRAVEL PORTUGAL – Agência de Viagens, Lda (500291110)","923,51 €",17-05-2011,13-05-2011,4 dias,"Portugal, Lisboa, Lisboa","Artigo 27.º, n.º 1, alínea h) do Código dos Contratos Públicos",,,,,,Não aplicável.,Não aplicável.,
Deslocação em serviço a Bruxelas; Access to medicines in Europe; 1 Participante.,Ajuste Direto Regime Geral,Aquisição de serviços,"63510000-7, Serviços de agências de viagens e serviços similares","INFARMED - Autoridade Nacional do Medicamento e Produtos de Saúde, I.P. (600037002)","OSIRIS - Viagens e Turismo, Lda. (505259397)","74,00 €",17-05-2011,13-05-2011,3 dias,"Portugal, Lisboa, Lisboa","Artigo 27.º, n.º 1, alínea h) do Código dos Contratos Públicos",,,,,,Não aplicável.,Não aplicável.,
Deslocação em serviço,Ajuste Direto Regime Geral,Aquisição de serviços,"63510000-7, Serviços de agências de viagens e serviços similares","INFARMED - Autoridade Nacional do Medicamento e Produtos de Saúde, I.P. (600037002)","BCD TRAVEL PORTUGAL – Agência de Viagens, Lda. (500291110)","180,20 €",13-05-2011,11-05-2011,3 dias,"Portugal, Lisboa, Lisboa","Artigo 27.º, n.º 1, alínea h) do Código dos Contratos Públicos",,,,,,Não aplicável.,Não aplicável.,
Deslocação em serviço ao Porto; Auditoria; 3 Participantes.,Ajuste Direto Regime Geral,Aquisição de serviços,"63510000-7, Serviços de agências de viagens e serviços similares","INFARMED - Autoridade Nacional do Medicamento e Produtos de Saúde, I.P. (600037002)","BCD TRAVEL PORTUGAL – Agência de Viagens, Lda. (500291110)","252,60 €",13-05-2011,11-05-2011,1 dias,"Portugal, Lisboa, Lisboa","Artigo 27.º, n.º 1, alínea h) do Código dos Contratos Públicos",,,,,,Não aplicável.,Não aplicável.,
Aquisição dos serviços para criação de um Web Site móvel para o Prontuário Terapêutico e Guia dos Medicamentos Genéricos.,Ajuste Direto Regime Geral,Aquisição de serviços,"72212220-7, Serviços de desenvolvimento de software para Internet e intranet","INFARMED - Autoridade Nacional do Medicamento e Produtos de Saúde, I.P. (600037002)","PT Prime - Soluções Empresariais de Telecomunicações e Sistemas, S.A. (502840757)","18.852,99 €",12-05-2011,09-03-2011,40 dias,"Portugal, Lisboa, Lisboa","Artigo 27.º, n.º 1, alínea f) do Código dos Contratos Públicos",,,,,,Não aplicável.,Não aplicável.,
"Aquisição de serviços para desenvolvimento de Front-end para introdução de dados no Balanced Scorecard do INFARMED, I.P.",Ajuste Direto Regime Geral,Aquisição de serviços,"32580000-2, Equipamento para tratamento de dados","INFARMED - Autoridade Nacional do Medicamento e Produtos de Saúde, I.P. (600037002)","BIMaven Consulting, Lda (507986814)","13.000,00 €",12-05-2011,20-03-2011,16 dias,"Portugal, Lisboa, Lisboa","Artigo 27.º, n.º 1, alínea f) do Código dos Contratos Públicos",,,,,,Não aplicável.,Não aplicável.,
Aquisição de dois cromatógrafos líquidos híbridos,Ajuste Direto Regime Geral,Aquisição de serviços,"38432200-4, Cromatógrafos","INFARMED - Autoridade Nacional do Medicamento e Produtos de Saúde, I.P. (600037002)","VIA ATHENA - Gestão de Laboratórios, Lda. (502272570)","111.599,00 €",12-05-2011,01-05-2011,30 dias,"Portugal<BR/>Portugal, Lisboa, Lisboa","Artigo 26.º, n.º 1, alínea a) do Código dos Contratos Públicos",,,,,,Não aplicável.,Não aplicável.,
