Objeto do Contrato,Tipo de Procedimento,Tipo(s) de Contrato,CPVs,Entidade(s) Adjudicante(s),Entidade(s) Adjudicatária(s),Preço Contratual,Data de Publicação,Data de Celebração do Contrato,Prazo de Execução,Local de Execução,Fundamentação,Data de Fecho do Contrato,Preço Total Efetivo,Causas das Alterações ao Prazo,Causas das Alterações ao Preço,Estado,N.º registo do Acordo Quadro,Descrição do Acordo Quadro,Procedimento Centralizado
Z5 - ZIDOVUDINA (SOL. ORAL) (10 MG/ML; FRS),Ao abrigo de acordo-quadro (art.º 259.º),Aquisição de bens móveis,"33650000-1, Anti-infecciosos gerais de uso sistémico, vacinas, antineoplásicos e imunomoduladores","Hospital Distrital da Figueira da Foz, E. P. E. (506361527)","VIIVHIV HEALTHCARE, UNIPESSOAL. LDA                (509117961)","9,00 €",30-10-2017,14-02-2017,365 dias,"Portugal, Coimbra, Figueira da Foz",Artigo 259.º do Código dos Contratos Públicos,,,,,,2183729,Medicamentos antirretrovíricos para o tratamento da infeção por VIH,FALSE
V91 - Vinorrelbina (20 Mg; Cáps.);,Ao abrigo de acordo-quadro (art.º 259.º),Aquisição de bens móveis,"33652000-5, Antineoplásicos e imunomoduladores","Hospital Distrital da Figueira da Foz, E. P. E. (506361527)",PIERRE FABRE MÉDICAMENT PORTUGAL LDA (500230366),"798,40 €",30-10-2017,16-12-2016,365 dias,"Portugal, Coimbra, Figueira da Foz",Artigo 259.º do Código dos Contratos Públicos,,,,,,2124520,CP 2016/55 - Medicamentos Diversos,FALSE
"B242 - Bortezomib (3,5 Mg; Pó p/ a Sol. Inj.; Frs)",Ao abrigo de acordo-quadro (art.º 259.º),Aquisição de bens móveis,"33652000-5, Antineoplásicos e imunomoduladores","Hospital Distrital da Figueira da Foz, E. P. E. (506361527)","Janssen - Cilag Farmacêutica, Lda. (500189412)","14.290,24 €",30-10-2017,28-09-2017,365 dias,"Portugal, Coimbra, Figueira da Foz",Artigo 259.º do Código dos Contratos Públicos,,,,,,1771819,CP 2015/6 - Acordo quadro para o fornecimento de Medicamentos do Foro Oncológico,FALSE
V92 - Vinorrelbina 30 Mg; Caps.,Ao abrigo de acordo-quadro (art.º 259.º),Aquisição de bens móveis,"33652000-5, Antineoplásicos e imunomoduladores","Hospital Distrital da Figueira da Foz, E. P. E. (506361527)",PIERRE FABRE MÉDICAMENT PORTUGAL LDA (500230366),"2.958,00 €",27-10-2017,18-01-2017,365 dias,"Portugal, Coimbra, Figueira da Foz",Artigo 259.º do Código dos Contratos Públicos,,,,,,2124520,CP 2016/55 - Medicamentos Diversos,FALSE
"L403 - Leuprorrelina 22,5 Mg; Pó e solvente para solução inj. - seringa; L526 - Leuprorrelina 45 Mg; Pó e solvente para solução inj. - seringa;",Ao abrigo de acordo-quadro (art.º 259.º),Aquisição de bens móveis,"33652000-5, Antineoplásicos e imunomoduladores","Hospital Distrital da Figueira da Foz, E. P. E. (506361527)","Astellas Farma, Lda. (502540249)","121.381,13 €",27-10-2017,17-03-2017,365 dias,"Portugal, Coimbra, Coimbra",Artigo 259.º do Código dos Contratos Públicos,,,,,,1771819,CP 2015/6 - Acordo quadro para o fornecimento de Medicamentos do Foro Oncológico,FALSE
"Aquisição de serviços de Telerradiologia para o Hospital Distrital da Figueira da Foz, E.P.E.",Ao abrigo de acordo-quadro (art.º 259.º),Aquisição de serviços,"64224000-2, Serviços de teleconferência","Hospital Distrital Figueira da Foz, E.P.E. (506361527)","I.T.M. - Instituto de Telemedicina, Lda (506705641)","119.100,00 €",25-10-2017,19-10-2017,365 dias,"Portugal, Coimbra, Figueira da Foz",Artigo 259.º do Código dos Contratos Públicos,,,,,,1487860,CELEBRAÇÃO DE ACORDO QUADRO PARA PRESTAÇÃO DE SERVIÇOS DE TELEMEDICINA,FALSE
P747 - Panitumumab (20 Mg/Ml; 5 Ml; Frs); P749 - Panitumumab (20 Mg/Ml; 20 Ml; Frs),Ao abrigo de acordo-quadro (art.º 259.º),Aquisição de bens móveis,"33652000-5, Antineoplásicos e imunomoduladores","Hospital Distrital da Figueira da Foz, E. P. E. (506361527)","AMGEN BIOFARMACÊUTICA, LDA.                        (502942959)","24.950,76 €",23-10-2017,17-03-2017,365 dias,"Portugal, Coimbra, Figueira da Foz",Artigo 259.º do Código dos Contratos Públicos,,,,,,1771819,CP 2015/6 - Acordo quadro para o fornecimento de Medicamentos do Foro Oncológico,FALSE
