Objeto do Contrato,Tipo de Procedimento,Tipo(s) de Contrato,CPVs,Entidade(s) Adjudicante(s),Entidade(s) Adjudicatária(s),Preço Contratual,Data de Publicação,Data de Celebração do Contrato,Prazo de Execução,Local de Execução,Fundamentação,Data de Fecho do Contrato,Preço Total Efetivo,Causas das Alterações ao Prazo,Causas das Alterações ao Preço,Estado,N.º registo do Acordo Quadro,Descrição do Acordo Quadro,Procedimento Centralizado
SC/266/2013 - Aquisição de Material de Ostomia,Ao abrigo de acordo-quadro (art.º 259.º),Aquisição de bens móveis,"33140000-3, Material médico de consumo","Administração Regional de Saúde do Algarve, I. P. (503148709)","Medicinália Cormédica - Comercialização de Produtos Médicos Hospitalares, Lda. (500684324)","74,40 €",09-01-2014,03-01-2014,303 dias,"Portugal, Faro, Faro",Artigo 259.º do Código dos Contratos Públicos,"","",,,,419168,CONCURSO PÚBLICO PARA A CELEBRAÇÃO DE CONTRATOS PÚBLICOS DE APROVISIONAMENTO PARA AQUISIÇÃO DE MATERIAL OSTOMIA DE ELIMINAÇÃO,FALSE
SC/266/2013 - Aquisição de Material de Ostomia,Ao abrigo de acordo-quadro (art.º 259.º),Aquisição de bens móveis,"33140000-3, Material médico de consumo","Administração Regional de Saúde do Algarve, I. P. (503148709)","Kvtech Portugal - Produtos Médicos Unipessoal, Lda. (508671531)","1.189,90 €",09-01-2014,03-01-2014,303 dias,"Portugal, Faro, Faro",Artigo 259.º do Código dos Contratos Públicos,"","",,,,419168,CONCURSO PÚBLICO PARA A CELEBRAÇÃO DE CONTRATOS PÚBLICOS DE APROVISIONAMENTO PARA AQUISIÇÃO DE MATERIAL OSTOMIA DE ELIMINAÇÃO,FALSE
SC/266/2013 - Aquisição de Material de Ostomia,Ao abrigo de acordo-quadro (art.º 259.º),Aquisição de bens móveis,"33140000-3, Material médico de consumo","Administração Regional de Saúde do Algarve, I. P. (503148709)","B. Braun Medical, Lda. (501506543)","115.120,00 €",09-01-2014,03-01-2014,303 dias,"Portugal, Faro, Faro",Artigo 259.º do Código dos Contratos Públicos,"","",,,,419168,CONCURSO PÚBLICO PARA A CELEBRAÇÃO DE CONTRATOS PÚBLICOS DE APROVISIONAMENTO PARA AQUISIÇÃO DE MATERIAL OSTOMIA DE ELIMINAÇÃO,FALSE
SC/266/2013 - Aquisição de Material de Ostomia,Ao abrigo de acordo-quadro (art.º 259.º),Aquisição de bens móveis,"33140000-3, Material médico de consumo","Administração Regional de Saúde do Algarve, I. P. (503148709)","SPC - South Point Care - Especialidades Farmacêuticas, Lda. (508284872)","14.928,20 €",09-01-2014,03-01-2014,303 dias,"Portugal, Faro, Faro",Artigo 259.º do Código dos Contratos Públicos,"","",,,,419168,CONCURSO PÚBLICO PARA A CELEBRAÇÃO DE CONTRATOS PÚBLICOS DE APROVISIONAMENTO PARA AQUISIÇÃO DE MATERIAL OSTOMIA DE ELIMINAÇÃO,FALSE
AD n.º 208/2012 - Contrato de manutenção e assistência técnica aos equipamentos de radiologia e mamografo  dos Centros de Saúde da ARS Algarve  Renovação com efeitos de 01/10/2013 a 30/09/2014,Ajuste Direto Regime Geral,Aquisição de serviços,"50421200-4, Serviços de reparação e manutenção de equipamentos de raios X","Administração Regional de Saúde do Algarve, I. P. (503148709)","Micromil-Sistemas Médicos e Industriais, S.A (501605770)","14.904,00 €",07-01-2014,20-12-2013,365 dias,"Portugal, Faro, Tavira<BR/>Portugal, Faro, Faro<BR/>Portugal, Faro, Silves<BR/>Portugal, Faro, Vila Real Sto Antonio<BR/>Portugal, Faro, Albufeira<BR/>Portugal, Faro, Loulé<BR/>Portugal, Faro, Olhão","Artigo 20.º, n.º 1, alínea a) do Código dos Contratos Públicos",30-09-2014,"14.904,00 €",,,,Não aplicável.,Não aplicável.,FALSE
AM/312/2013 - Prestação de Serviços de Gestão e Apoio Técnico para a Transição do Centro de Medicina Física e de Reabilitação do Sul,Ajuste Direto Regime Geral,Aquisição de serviços,"79400000-8, Serviços de consultoria em matéria comercial e de gestão e serviços conexos","Administração Regional de Saúde do Algarve, I. P. (503148709)","GPSaúde - Serviços e Gestão, S.A. (507492382)","75.000,00 €",02-01-2014,21-11-2013,15 dias,"Portugal, Faro, Faro","Artigo 24.º, n.º 1, alínea e) do Código dos Contratos Públicos",31-12-2013,"75.000,00 €",,,,Não aplicável.,Não aplicável.,FALSE
