Objeto do Contrato,Tipo de Procedimento,Tipo(s) de Contrato,CPVs,Entidade(s) Adjudicante(s),Entidade(s) Adjudicatária(s),Preço Contratual,Data de Publicação,Data de Celebração do Contrato,Prazo de Execução,Local de Execução,Fundamentação,Data de Fecho do Contrato,Preço Total Efetivo,Causas das Alterações ao Prazo,Causas das Alterações ao Preço,Estado,N.º registo do Acordo Quadro,Descrição do Acordo Quadro,Procedimento Centralizado
"E190-ETONOGESTREL [68MG/ implante sub-cutâneo] E525-ETINILESTRADIOL 0,015 mg/24h + ETONOGESTREL 0,12 mg/24h (Sistema de Libertação Vaginal) ",Ao abrigo de acordo-quadro (art.º 259.º),Aquisição de bens móveis,"33000000-0, Equipamento médico, medicamentos e produtos para cuidados pessoais","Administração Regional de Saúde do Alentejo, I. P. (503148768)","MERCK SHARP & DOHME,LDA (500191360)","36.826,00 €",20-06-2017,25-02-2016,300 dias,"Portugal, Évora",Artigo 259.º do Código dos Contratos Públicos,30-12-2016,"36.826,00 €",,"",,1459323,CP 2015/20,FALSE
"D255-DESOGESTREL [75 MCG, COMP] (1 ciclo) E504-ETINILESTRADIOL 0,03 mg + DESOSGESTREL (3/6 Ciclos) E506-ETINILESTRADIOL 0,02 mg + DESOSGESTREL  (3/6 ciclos) L413-LEVONORGESTREL [1,5 MG; COMP] ",Ao abrigo de acordo-quadro (art.º 259.º),Aquisição de bens móveis,"33000000-0, Equipamento médico, medicamentos e produtos para cuidados pessoais","Administração Regional de Saúde do Alentejo, I. P. (503148768)",LOGIFARMA - LOGISTICA FARMACÊUTICA S.A.            (503934640),"10.091,84 €",20-06-2017,25-02-2016,300 dias,"Portugal, Évora",Artigo 259.º do Código dos Contratos Públicos,30-12-2016,"10.091,84 €",,"",,1459323,CP 2015/20,FALSE
D417-DISPOSITIVO INTRA-UTERINO DE COBRE EM U 375,Ao abrigo de acordo-quadro (art.º 259.º),Aquisição de bens móveis,"33000000-0, Equipamento médico, medicamentos e produtos para cuidados pessoais","Administração Regional de Saúde do Alentejo, I. P. (503148768)",CLINIFAR SA                                        (503281115),"153,75 €",20-06-2017,04-03-2016,300 dias,"Portugal, Évora",Artigo 259.º do Código dos Contratos Públicos,30-12-2016,"153,75 €",,"",,1459323,CP 2015/20,FALSE
"D418-DISPOSITIVO INTRA-UTERINO DE COBRE EM T 380 E298-ETINILESTRADIOL 0,03 mg+ LEVONORGESTREL (3/6 ciclos) E503-ETINILESTRADIOL 0,03 mg + GESTODENO (3/6 ciclos) E505-ETINILESTRADIOL 0,02mg + GESTODENO (3/6 ciclos) L229-LEVONORGESTREL 52 mg - Sistema Intra Uterino  L681-LEVONORGESTREL 13,5 mg - Sistema Intra Uterino ",Ao abrigo de acordo-quadro (art.º 259.º),Aquisição de bens móveis,"33000000-0, Equipamento médico, medicamentos e produtos para cuidados pessoais","Administração Regional de Saúde do Alentejo, I. P. (503148768)",Bayer Portugal S.A. (500043256),"30.139,17 €",20-06-2017,20-01-2016,330 dias,"Portugal, Évora",Artigo 259.º do Código dos Contratos Públicos,30-12-2016,"30.139,17 €",,"",,1459323,CP 2015/20,FALSE
Vacina Pneumocócica Polissacárida conjugada 13 valências,Ao abrigo de acordo-quadro (art.º 259.º),Aquisição de bens móveis,"33000000-0, Equipamento médico, medicamentos e produtos para cuidados pessoais",Administração Regional de Saúde do Alentejo (ARSA) (503148768),"PFIZER BIOFARMACEUTICA, SOCIEDADE UNIPESSOAL, LDA (513300376)","205.785,00 €",20-06-2017,25-02-2016,330 dias,"Portugal, Évora",Artigo 259.º do Código dos Contratos Públicos,30-12-2016,"205.785,00 €",,"",,610556,"CONCURSO PÚBLICO PARA A CELEBRAÇÃO DE CONTRATOS PÚBLICOS DE APROVISIONAMENTO PARA A ÁREA DA SAÚDE, COM VISTA AO FORNECIMENTO DE VACINAS E TUBERCULINAS, ÀS INSTITUIÇÕES E SERVIÇOS DO SERVIÇO NACIONAL DE SAÚDE",FALSE
Vacinas diversas,Ao abrigo de acordo-quadro (art.º 259.º),Aquisição de bens móveis,"33000000-0, Equipamento médico, medicamentos e produtos para cuidados pessoais",Administração Regional de Saúde do Alentejo (ARSA) (503148768),"Sanofi Pasteur MSD, SA (507632796)","142.862,20 €",20-06-2017,25-02-2016,330 dias,"Portugal, Évora",Artigo 259.º do Código dos Contratos Públicos,30-12-2016,"142.862,20 €",,"",,610556,"CONCURSO PÚBLICO PARA A CELEBRAÇÃO DE CONTRATOS PÚBLICOS DE APROVISIONAMENTO PARA A ÁREA DA SAÚDE, COM VISTA AO FORNECIMENTO DE VACINAS E TUBERCULINAS, ÀS INSTITUIÇÕES E SERVIÇOS DO SERVIÇO NACIONAL DE SAÚDE",FALSE
Vacina raiva,Ao abrigo de acordo-quadro (art.º 259.º),Aquisição de bens móveis,"33000000-0, Equipamento médico, medicamentos e produtos para cuidados pessoais",Administração Regional de Saúde do Alentejo (ARSA) (503148768),"NOVARTIS FARMA-PROD.FARMACÊUTICOS,SA.              (500063524)","77,85 €",20-06-2017,01-03-2016,300 dias,"Portugal, Évora",Artigo 259.º do Código dos Contratos Públicos,30-12-2016,"77,85 €",,"",,610556,"CONCURSO PÚBLICO PARA A CELEBRAÇÃO DE CONTRATOS PÚBLICOS DE APROVISIONAMENTO PARA A ÁREA DA SAÚDE, COM VISTA AO FORNECIMENTO DE VACINAS E TUBERCULINAS, ÀS INSTITUIÇÕES E SERVIÇOS DO SERVIÇO NACIONAL DE SAÚDE",FALSE
Vacinas Diversas,Ao abrigo de acordo-quadro (art.º 259.º),Aquisição de bens móveis,"33000000-0, Equipamento médico, medicamentos e produtos para cuidados pessoais",Administração Regional de Saúde do Alentejo (ARSA) (503148768),"NOVARTIS FARMA-PROD.FARMACÊUTICOS,SA.              (500063524)","1.620,00 €",20-06-2017,25-02-2016,330 dias,"Portugal, Évora",Artigo 259.º do Código dos Contratos Públicos,30-12-2016,"1.620,00 €",,"",,610556,"CONCURSO PÚBLICO PARA A CELEBRAÇÃO DE CONTRATOS PÚBLICOS DE APROVISIONAMENTO PARA A ÁREA DA SAÚDE, COM VISTA AO FORNECIMENTO DE VACINAS E TUBERCULINAS, ÀS INSTITUIÇÕES E SERVIÇOS DO SERVIÇO NACIONAL DE SAÚDE",FALSE
Vacinas Diversas,Ao abrigo de acordo-quadro (art.º 259.º),Aquisição de bens móveis,"33000000-0, Equipamento médico, medicamentos e produtos para cuidados pessoais",Administração Regional de Saúde do Alentejo (ARSA) (503148768),GLAXOSMITHKLINE - PROD.FARMAC. (500139962),"77,85 €",20-06-2017,11-11-2016,300 dias,"Portugal, Évora",Artigo 259.º do Código dos Contratos Públicos,30-12-2016,"77,85 €",,"",,610556,"CONCURSO PÚBLICO PARA A CELEBRAÇÃO DE CONTRATOS PÚBLICOS DE APROVISIONAMENTO PARA A ÁREA DA SAÚDE, COM VISTA AO FORNECIMENTO DE VACINAS E TUBERCULINAS, ÀS INSTITUIÇÕES E SERVIÇOS DO SERVIÇO NACIONAL DE SAÚDE",FALSE
Vacinas Diversas,Ao abrigo de acordo-quadro (art.º 259.º),Aquisição de bens móveis,"33000000-0, Equipamento médico, medicamentos e produtos para cuidados pessoais",Administração Regional de Saúde do Alentejo (ARSA) (503148768),GLAXOSMITHKLINE - PROD.FARMAC. (500139962),"68.586,73 €",20-06-2017,25-02-2016,330 dias,"Portugal, Évora",Artigo 259.º do Código dos Contratos Públicos,30-12-2016,"68.586,73 €",,"",,610556,"CONCURSO PÚBLICO PARA A CELEBRAÇÃO DE CONTRATOS PÚBLICOS DE APROVISIONAMENTO PARA A ÁREA DA SAÚDE, COM VISTA AO FORNECIMENTO DE VACINAS E TUBERCULINAS, ÀS INSTITUIÇÕES E SERVIÇOS DO SERVIÇO NACIONAL DE SAÚDE",FALSE
FUROSEMIDA (20 MG; 2 ML; F/AMP) PANTOPRAZOL (40 MG; IV; F/AMP),Ao abrigo de acordo-quadro (art.º 259.º),Aquisição de bens móveis,"33000000-0, Equipamento médico, medicamentos e produtos para cuidados pessoais","Administração Regional de Saúde do Alentejo, I. P. (503148768)","Overpharma, Lda. (505792362)","376,80 €",20-06-2017,01-04-2016,270 dias,"Portugal, Évora",Artigo 259.º do Código dos Contratos Públicos,30-12-2016,"126,00 €",,"O adjudicatário não entregou o medicamento pantoprazol por rutura de stock, nem regularizou a situação durante o prazo de vigência do contrato.",,1194708,"CONCURSO PÚBLICO PARA A CELEBRAÇÃO DE CONTRATOS PÚBLICOS DE APROVISIONAMENTO PARA A ÁREA DA SAÚDE, MEDICAMENTOS DO APARELHO DIGESTIVO, ÀS INSTITUIÇÕES E SERVIÇOS DO SERVIÇO NACIONAL DE SAÚDE",FALSE
PROPOFOL (200MG/20ML; FRS/SERINGA),Ao abrigo de acordo-quadro (art.º 259.º),Aquisição de bens móveis,"33000000-0, Equipamento médico, medicamentos e produtos para cuidados pessoais","Administração Regional de Saúde do Alentejo, I. P. (503148768)",SIDEFARMA-SOC.IND.EXPANSAO FARMACEUTICA (500717419),"3,25 €",20-06-2017,14-06-2016,180 dias,"Portugal, Évora",Artigo 259.º do Código dos Contratos Públicos,30-12-2016,"3,25 €",,"",,1194708,"CONCURSO PÚBLICO PARA A CELEBRAÇÃO DE CONTRATOS PÚBLICOS DE APROVISIONAMENTO PARA A ÁREA DA SAÚDE, MEDICAMENTOS DO APARELHO DIGESTIVO, ÀS INSTITUIÇÕES E SERVIÇOS DO SERVIÇO NACIONAL DE SAÚDE",FALSE
Tuberculina - AQ 13/2013,Ao abrigo de acordo-quadro (art.º 259.º),Aquisição de bens móveis,"33000000-0, Equipamento médico, medicamentos e produtos para cuidados pessoais","Administração Regional de Saúde do Alentejo, I. P. (503148768)","J.M.Farmacêutica, S.A. (503550558)","327,20 €",20-06-2017,23-03-2016,290 dias,"Portugal, Évora",Artigo 259.º do Código dos Contratos Públicos,30-12-2016,"327,20 €",,"",,610556,"CONCURSO PÚBLICO PARA A CELEBRAÇÃO DE CONTRATOS PÚBLICOS DE APROVISIONAMENTO PARA A ÁREA DA SAÚDE, COM VISTA AO FORNECIMENTO DE VACINAS E TUBERCULINAS, ÀS INSTITUIÇÕES E SERVIÇOS DO SERVIÇO NACIONAL DE SAÚDE",FALSE
"DIAZEPAM - SOL RECTAL 5 MG/2,5 ML",Ao abrigo de acordo-quadro (art.º 259.º),Aquisição de bens móveis,"33000000-0, Equipamento médico, medicamentos e produtos para cuidados pessoais","Administração Regional de Saúde do Alentejo, I. P. (503148768)","Aurovitas Unipessoal, Lda. (513053239)","11,70 €",20-06-2017,04-05-2016,180 dias,"Portugal, Évora",Artigo 259.º do Código dos Contratos Públicos,30-12-2016,"11,70 €",,"",,1179911,"CONCURSO PÚBLICO PARA A CELEBRAÇÃO DE CONTRATOS PÚBLICOS DE APROVISIONAMENTO PARA A ÁREA DA SAÚDE, MEDICAMENTOS DO SISTEMA NERVOSO CEREBROSPINAL, EXCETO: ANESTÉSICOS, RELAXANTES MUSCULARES, ANALGÉSICOS, ANTIPIRÉTICOS, ANTIDEPRESSORES E ANTIPSICÓTICOS, ÀS INSTITUIÇÕES E SERVIÇOS DO SERVIÇO NACIONAL DE SAÚDE",FALSE
"Lote 7 - CLORETO DE Na 0,9%- INJ 1000 ml: 1.000 frasc;",Ao abrigo de acordo-quadro (art.º 259.º),Aquisição de bens móveis,"33000000-0, Equipamento médico, medicamentos e produtos para cuidados pessoais","Administração Regional de Saúde do Alentejo, I. P. (503148768)",GRIFOLS PORTUGAL                                   (502041285),"872,00 €",20-06-2017,10-03-2016,290 dias,"Portugal, Évora",Artigo 259.º do Código dos Contratos Públicos,30-12-2016,"872,00 €",,"",,1331181,Acordo Quadro para fornecimento de corretivos da volémia e outras soluções estéreis às Instituições e Serviços do Serviço Nacional de Saúde,FALSE
"Lote 1.4 - CLORETO DE Na 0,9% - FR BISN IRRIG. 250 ml: 2.000 FRAS.",Ao abrigo de acordo-quadro (art.º 259.º),Aquisição de bens móveis,"33000000-0, Equipamento médico, medicamentos e produtos para cuidados pessoais","Administração Regional de Saúde do Alentejo, I. P. (503148768)",FRESENIUS KABI (504293753),"1.580,80 €",20-06-2017,10-03-2016,290 dias,"Portugal, Évora",Artigo 259.º do Código dos Contratos Públicos,30-12-2016,"1.583,56 €",,Quantidade por embalagem de fornecimento do adjudicatário,,1331181,Acordo Quadro para fornecimento de corretivos da volémia e outras soluções estéreis às Instituições e Serviços do Serviço Nacional de Saúde,FALSE
"Lote 1.5 - CLORETO DE Na 0,9%- INJ   10 ml: 6.500 AMPOL Lote 1.6 - CLORETO DE Na 0,9%- INJ  100 ml: 17.000 FRAS. Lote 1.8 -CLORETO DE Na 0,9%- INJ  500 ml: 4.000 FRAS. ",Ao abrigo de acordo-quadro (art.º 259.º),Aquisição de bens móveis,"33000000-0, Equipamento médico, medicamentos e produtos para cuidados pessoais","Administração Regional de Saúde do Alentejo, I. P. (503148768)",Labesfal - Laboratórios Almiro S.A (501169580),"14.121,65 €",20-06-2017,10-03-2016,290 dias,"Portugal, Évora",Artigo 259.º do Código dos Contratos Públicos,30-12-2016,"14.121,65 €",,"",,1331181,Acordo Quadro para fornecimento de corretivos da volémia e outras soluções estéreis às Instituições e Serviços do Serviço Nacional de Saúde,FALSE
"Lote 1.1 - AGUA BI DESTILADA E ESTERILIZADA - AMP 5 ML: 2.000 AMPOL Lote 1.2 - BICARBONATO Na 8,4% - INJ 100 ml:	40 FRAS. Lote 1.3 - CLORETO DE Na 0,9% - FR BISN IRRIG. 100 ml: 35.000	FRAS. Lote 1.9 - GLUCOSE 300 mg/ml - SOL INJ IV - 20 ml (30%): 500 AMPOL Lote 1.10 - GLUCOSE 5% - INJ  100 ml: 2.000 FRAS. Lote 1.11 - GLUCOSE 5% - INJ  500 ml: 600 FRAS. Lote 1.12 - GELATINA MODIFICADA - INJ 500 ml: 20 FRAS. Lote 1.13 - POLIELECTROLITICO + GLUCOSE 50 MG / ML - SOL INJ IV - 500 ML: 300 FRAS. Lote 1.14 - RINGER E LACTATO - INJ  500 ml: 120 FRAS. ",Ao abrigo de acordo-quadro (art.º 259.º),Aquisição de bens móveis,"33000000-0, Equipamento médico, medicamentos e produtos para cuidados pessoais","Administração Regional de Saúde do Alentejo, I. P. (503148768)","B. BRAUN MEDICAL, LDA (501506543)","26.071,05 €",20-06-2017,10-03-2016,290 dias,"Portugal, Évora",Artigo 259.º do Código dos Contratos Públicos,30-12-2016,"26.071,05 €",,"",,1331181,Acordo Quadro para fornecimento de corretivos da volémia e outras soluções estéreis às Instituições e Serviços do Serviço Nacional de Saúde,FALSE
LACTULOSE - SOL ORAL 500 mg / ml - 200ml,Ao abrigo de acordo-quadro (art.º 259.º),Aquisição de bens móveis,"33000000-0, Equipamento médico, medicamentos e produtos para cuidados pessoais","Administração Regional de Saúde do Alentejo, I. P. (503148768)","Generis - Farmacêutica, SA (508107997)","500,00 €",20-06-2017,10-03-2016,290 dias,"Portugal, Évora",Artigo 259.º do Código dos Contratos Públicos,30-12-2016,"500,00 €",,"",,1194708,"CONCURSO PÚBLICO PARA A CELEBRAÇÃO DE CONTRATOS PÚBLICOS DE APROVISIONAMENTO PARA A ÁREA DA SAÚDE, MEDICAMENTOS DO APARELHO DIGESTIVO, ÀS INSTITUIÇÕES E SERVIÇOS DO SERVIÇO NACIONAL DE SAÚDE",FALSE
CITRATO SODIO COMPOSTO - MICROENEMA BEBE CITRATO SODIO COMPOSTO - MICROENEMA ADULTO  - MICROENEMA ADULTO,Ao abrigo de acordo-quadro (art.º 259.º),Aquisição de bens móveis,"33000000-0, Equipamento médico, medicamentos e produtos para cuidados pessoais","Administração Regional de Saúde do Alentejo, I. P. (503148768)","Overpharma, Lda. (505792362)","181,04 €",20-06-2017,10-03-2016,290 dias,"Portugal, Évora",Artigo 259.º do Código dos Contratos Públicos,30-12-2016,"181,04 €",,"",,1194708,"CONCURSO PÚBLICO PARA A CELEBRAÇÃO DE CONTRATOS PÚBLICOS DE APROVISIONAMENTO PARA A ÁREA DA SAÚDE, MEDICAMENTOS DO APARELHO DIGESTIVO, ÀS INSTITUIÇÕES E SERVIÇOS DO SERVIÇO NACIONAL DE SAÚDE",FALSE
BUTILESCOPOLAMINA - SOL INJ 20 mg / ml IM / IV / SC - 1 ml,Ao abrigo de acordo-quadro (art.º 259.º),Aquisição de bens móveis,"33000000-0, Equipamento médico, medicamentos e produtos para cuidados pessoais","Administração Regional de Saúde do Alentejo, I. P. (503148768)","Unilfarma - União Internacional de Laboratórios Farmacêuticos, Lda. (500293023)","393,01 €",20-06-2017,10-03-2016,290 dias,"Portugal, Évora",Artigo 259.º do Código dos Contratos Públicos,30-12-2016,"393,01 €",,"",,1194708,"CONCURSO PÚBLICO PARA A CELEBRAÇÃO DE CONTRATOS PÚBLICOS DE APROVISIONAMENTO PARA A ÁREA DA SAÚDE, MEDICAMENTOS DO APARELHO DIGESTIVO, ÀS INSTITUIÇÕES E SERVIÇOS DO SERVIÇO NACIONAL DE SAÚDE",FALSE
CARVAO ACTIVADO PO - 50 G,Ao abrigo de acordo-quadro (art.º 259.º),Aquisição de bens móveis,"33000000-0, Equipamento médico, medicamentos e produtos para cuidados pessoais","Administração Regional de Saúde do Alentejo, I. P. (503148768)",Laboratorio Medinfar-Produtos Farmaceuticos S.a (500384045),"404,85 €",20-06-2017,10-03-2016,290 dias,"Portugal, Évora",Artigo 259.º do Código dos Contratos Públicos,30-12-2016,"404,85 €",,"",,1194708,"CONCURSO PÚBLICO PARA A CELEBRAÇÃO DE CONTRATOS PÚBLICOS DE APROVISIONAMENTO PARA A ÁREA DA SAÚDE, MEDICAMENTOS DO APARELHO DIGESTIVO, ÀS INSTITUIÇÕES E SERVIÇOS DO SERVIÇO NACIONAL DE SAÚDE",FALSE
DIAZEPAM - COMP 5 mg DIAZEPAM - SOL INJ 5 mg / ml IM / IV - 2 ml METOCLOPRAMIDA - SOL INJ 5 mg / ml IM / IV - 2 ml,Ao abrigo de acordo-quadro (art.º 259.º),Aquisição de bens móveis,"33000000-0, Equipamento médico, medicamentos e produtos para cuidados pessoais","Administração Regional de Saúde do Alentejo, I. P. (503148768)",Labesfal - Laboratórios Almiro S.A (501169580),"3.017,18 €",20-06-2017,10-03-2016,290 dias,"Portugal, Évora",Artigo 259.º do Código dos Contratos Públicos,30-12-2016,"3.017,18 €",,"",,1179911,"CONCURSO PÚBLICO PARA A CELEBRAÇÃO DE CONTRATOS PÚBLICOS DE APROVISIONAMENTO PARA A ÁREA DA SAÚDE, MEDICAMENTOS DO SISTEMA NERVOSO CEREBROSPINAL, EXCETO: ANESTÉSICOS, RELAXANTES MUSCULARES, ANALGÉSICOS, ANTIPIRÉTICOS, ANTIDEPRESSORES E ANTIPSICÓTICOS, ÀS INSTITUIÇÕES E SERVIÇOS DO SERVIÇO NACIONAL DE SAÚDE",FALSE
MIDAZOLAM SOL INJ 15 mg / 3ml,Ao abrigo de acordo-quadro (art.º 259.º),Aquisição de bens móveis,"33000000-0, Equipamento médico, medicamentos e produtos para cuidados pessoais","Administração Regional de Saúde do Alentejo, I. P. (503148768)",HIKMA FARMACÊUTICA (PORTUGAL) SA.                  (502266791),"25,20 €",20-06-2017,10-03-2016,240 dias,"Portugal, Évora",Artigo 259.º do Código dos Contratos Públicos,30-12-2016,"25,20 €",,"",,1179911,"CONCURSO PÚBLICO PARA A CELEBRAÇÃO DE CONTRATOS PÚBLICOS DE APROVISIONAMENTO PARA A ÁREA DA SAÚDE, MEDICAMENTOS DO SISTEMA NERVOSO CEREBROSPINAL, EXCETO: ANESTÉSICOS, RELAXANTES MUSCULARES, ANALGÉSICOS, ANTIPIRÉTICOS, ANTIDEPRESSORES E ANTIPSICÓTICOS, ÀS INSTITUIÇÕES E SERVIÇOS DO SERVIÇO NACIONAL DE SAÚDE",FALSE
ADENOSINA - SOL INJ 3 MG / ML IV - 2ML AMIODARONA - SOL INJ 50 mg / ml IV - 3 ml,Ao abrigo de acordo-quadro (art.º 259.º),Aquisição de bens móveis,"33000000-0, Equipamento médico, medicamentos e produtos para cuidados pessoais","Administração Regional de Saúde do Alentejo, I. P. (503148768)","SANOFI - PRODUTOS FARMACÊUTICOS, LDA. (500134960)","487,58 €",19-06-2017,02-03-2016,300 dias,"Portugal, Évora",Artigo 259.º do Código dos Contratos Públicos,30-12-2016,"487,58 €",,"",,1179915,"CONCURSO PÚBLICO PARA A CELEBRAÇÃO DE CONTRATOS PÚBLICOS DE APROVISIONAMENTO PARA A ÁREA DA SAÚDE, COM VISTA AO FORNECIMENTO DE MEDICAMENTOS DO APARELHO CARDIOVASCULAR, ÀS INSTITUIÇÕES E SERVIÇOS DO SERVIÇO NACIONAL DE SAÚDE",FALSE
DOPAMINA - SOL INJ 40 mg / ml IV - 5 ml,Ao abrigo de acordo-quadro (art.º 259.º),Aquisição de bens móveis,"33000000-0, Equipamento médico, medicamentos e produtos para cuidados pessoais","Administração Regional de Saúde do Alentejo, I. P. (503148768)","Overpharma, Lda. (505792362)","79,10 €",19-06-2017,02-03-2016,300 dias,"Portugal, Évora",Artigo 259.º do Código dos Contratos Públicos,30-12-2016,"79,10 €",,"",,1179915,"CONCURSO PÚBLICO PARA A CELEBRAÇÃO DE CONTRATOS PÚBLICOS DE APROVISIONAMENTO PARA A ÁREA DA SAÚDE, COM VISTA AO FORNECIMENTO DE MEDICAMENTOS DO APARELHO CARDIOVASCULAR, ÀS INSTITUIÇÕES E SERVIÇOS DO SERVIÇO NACIONAL DE SAÚDE",FALSE
"ATROPINA - SOL INJ 0,5 mg / ml IM / IV / SC - 1 ML ADRENALINA - SOL INJ 1 mg / ml IM / IV / IC - 1 ml ",Ao abrigo de acordo-quadro (art.º 259.º),Aquisição de bens móveis,"33000000-0, Equipamento médico, medicamentos e produtos para cuidados pessoais","Administração Regional de Saúde do Alentejo, I. P. (503148768)",Labesfal - Laboratórios Almiro S.A (501169580),"1.357,60 €",19-06-2017,02-03-2016,300 dias,"Portugal, Évora",Artigo 259.º do Código dos Contratos Públicos,30-12-2016,"1.357,60 €",,"",,1179915,"CONCURSO PÚBLICO PARA A CELEBRAÇÃO DE CONTRATOS PÚBLICOS DE APROVISIONAMENTO PARA A ÁREA DA SAÚDE, COM VISTA AO FORNECIMENTO DE MEDICAMENTOS DO APARELHO CARDIOVASCULAR, ÀS INSTITUIÇÕES E SERVIÇOS DO SERVIÇO NACIONAL DE SAÚDE",FALSE
TRAMADOL - SOL ORAL 100 mg / ml (10ml),Ao abrigo de acordo-quadro (art.º 259.º),Aquisição de bens móveis,"33000000-0, Equipamento médico, medicamentos e produtos para cuidados pessoais","Administração Regional de Saúde do Alentejo, I. P. (503148768)","Generis - Farmacêutica, SA (508107997)","43,40 €",19-06-2017,05-04-2016,270 dias,"Portugal, Évora",Artigo 259.º do Código dos Contratos Públicos,30-12-2016,"43,40 €",,"",,613285,"CONCURSO PÚBLICO PARA A CELEBRAÇÃO DE CONTRATOS PÚBLICOS DE APROVISIONAMENTO PARA A ÁREA DA SAÚDE, COM VISTA AO FORNECIMENTO DE MEDICAMENTOS ANALGÉSICOS, ANTIPIRÉTICOS E ANTIDEPRESSORES, ÀS INSTITUIÇÕES E SERVIÇOS DO SERVIÇO NACIONAL DE SAÚDE",FALSE
PARACETAMOL - SUP 125 mg MORFINA 200 MG/10 ML,Ao abrigo de acordo-quadro (art.º 259.º),Aquisição de bens móveis,"33000000-0, Equipamento médico, medicamentos e produtos para cuidados pessoais","Administração Regional de Saúde do Alentejo, I. P. (503148768)",Overpharma - Produtos Médicos e Farmacêuticos Lda  (505792362),"2.412,60 €",19-06-2017,10-03-2016,290 dias,"Portugal, Évora",Artigo 259.º do Código dos Contratos Públicos,30-12-2016,"2.412,60 €",,"",,613285,"CONCURSO PÚBLICO PARA A CELEBRAÇÃO DE CONTRATOS PÚBLICOS DE APROVISIONAMENTO PARA A ÁREA DA SAÚDE, COM VISTA AO FORNECIMENTO DE MEDICAMENTOS ANALGÉSICOS, ANTIPIRÉTICOS E ANTIDEPRESSORES, ÀS INSTITUIÇÕES E SERVIÇOS DO SERVIÇO NACIONAL DE SAÚDE",FALSE
METAMIZOL MAGNESICO - SOL INJ 400 MG / ML IM / IV - 5 ML,Ao abrigo de acordo-quadro (art.º 259.º),Aquisição de bens móveis,"33000000-0, Equipamento médico, medicamentos e produtos para cuidados pessoais","Administração Regional de Saúde do Alentejo, I. P. (503148768)","Unilfarma - União Internacional de Laboratórios Farmacêuticos, Lda. (500293023)","2.240,00 €",19-06-2017,10-03-2016,290 dias,"Portugal, Évora",Artigo 259.º do Código dos Contratos Públicos,30-12-2016,"2.240,00 €",,"",,613285,"CONCURSO PÚBLICO PARA A CELEBRAÇÃO DE CONTRATOS PÚBLICOS DE APROVISIONAMENTO PARA A ÁREA DA SAÚDE, COM VISTA AO FORNECIMENTO DE MEDICAMENTOS ANALGÉSICOS, ANTIPIRÉTICOS E ANTIDEPRESSORES, ÀS INSTITUIÇÕES E SERVIÇOS DO SERVIÇO NACIONAL DE SAÚDE",FALSE
MORFINA 40mg/2ml,Ao abrigo de acordo-quadro (art.º 259.º),Aquisição de bens móveis,"33000000-0, Equipamento médico, medicamentos e produtos para cuidados pessoais","Administração Regional de Saúde do Alentejo, I. P. (503148768)","B. BRAUN MEDICAL, LDA (501506543)","2.498,00 €",19-06-2017,04-05-2016,240 dias,"Portugal, Évora",Artigo 259.º do Código dos Contratos Públicos,30-12-2016,"2.498,00 €",,"",,613285,"CONCURSO PÚBLICO PARA A CELEBRAÇÃO DE CONTRATOS PÚBLICOS DE APROVISIONAMENTO PARA A ÁREA DA SAÚDE, COM VISTA AO FORNECIMENTO DE MEDICAMENTOS ANALGÉSICOS, ANTIPIRÉTICOS E ANTIDEPRESSORES, ÀS INSTITUIÇÕES E SERVIÇOS DO SERVIÇO NACIONAL DE SAÚDE",FALSE
MORFINA - SOL INJ 10 mg / ml EPIDURAL / IM / IT / IV / SC - 1 ml TRAMADOL - SOL INJ 50 mg / ml IM / IV / SC - 2 ml,Ao abrigo de acordo-quadro (art.º 259.º),Aquisição de bens móveis,"33000000-0, Equipamento médico, medicamentos e produtos para cuidados pessoais","Administração Regional de Saúde do Alentejo, I. P. (503148768)",Labesfal - Laboratórios Almiro S.A (501169580),"1.345,00 €",19-06-2017,10-03-2016,290 dias,"Portugal, Évora",Artigo 259.º do Código dos Contratos Públicos,30-12-2016,"1.345,00 €",,"",,613285,"CONCURSO PÚBLICO PARA A CELEBRAÇÃO DE CONTRATOS PÚBLICOS DE APROVISIONAMENTO PARA A ÁREA DA SAÚDE, COM VISTA AO FORNECIMENTO DE MEDICAMENTOS ANALGÉSICOS, ANTIPIRÉTICOS E ANTIDEPRESSORES, ÀS INSTITUIÇÕES E SERVIÇOS DO SERVIÇO NACIONAL DE SAÚDE",FALSE
BROMETO IPRATROPIO - UNIDOSE 125 µG / ML - 2 ML BROMETO IPRATROPIO - SOL PRESSU INAL 20 µG / DOSE - 200 DOSES,Ao abrigo de acordo-quadro (art.º 259.º),Aquisição de bens móveis,"33000000-0, Equipamento médico, medicamentos e produtos para cuidados pessoais","Administração Regional de Saúde do Alentejo, I. P. (503148768)","Unilfarma - União Internacional de Laboratórios Farmacêuticos, Lda. (500293023)","809,80 €",19-06-2017,10-03-2016,290 dias,"Portugal, Évora",Artigo 259.º do Código dos Contratos Públicos,30-12-2016,"809,80 €",,"",,613816,"CONCURSO PÚBLICO PARA A CELEBRAÇÃO DE CONTRATOS PÚBLICOS DE APROVISIONAMENTO PARA A ÁREA DA SAÚDE, COM VISTA AO FORNECIMENTO DE MEDICAMENTOS DO APARELHO RESPIRATÓRIO, ÀS INSTITUIÇÕES E SERVIÇOS DO SERVIÇO NACIONAL DE SAÚDE",FALSE
"SALBUTAMOL - SUSP PRESSURIZADA INAL100 µ g / dose - 200 DOSES SALBUTAMOL - SOL INAL NEB 5 mg / ml - 10 ml SALBUTAMOL - SOL INJ 0,5 mg / ml IM / IV / SC - 1 ml BECLOMETASONA - SOL PRESSURIZADA 50 µg / DOSE - 200DOSES ",Ao abrigo de acordo-quadro (art.º 259.º),Aquisição de bens móveis,"33000000-0, Equipamento médico, medicamentos e produtos para cuidados pessoais","Administração Regional de Saúde do Alentejo, I. P. (503148768)",GLAXOSMITHKLINE - PROD.FARMAC. (500139962),"743,88 €",19-06-2017,10-03-2016,290 dias,"Portugal, Évora",Artigo 259.º do Código dos Contratos Públicos,30-12-2016,"743,88 €",,"",,613816,"CONCURSO PÚBLICO PARA A CELEBRAÇÃO DE CONTRATOS PÚBLICOS DE APROVISIONAMENTO PARA A ÁREA DA SAÚDE, COM VISTA AO FORNECIMENTO DE MEDICAMENTOS DO APARELHO RESPIRATÓRIO, ÀS INSTITUIÇÕES E SERVIÇOS DO SERVIÇO NACIONAL DE SAÚDE",FALSE
IODOPOVIDONA - SOL DERMICA 1% - 125 ml,Ao abrigo de acordo-quadro (art.º 259.º),Aquisição de bens móveis,"33000000-0, Equipamento médico, medicamentos e produtos para cuidados pessoais","Administração Regional de Saúde do Alentejo, I. P. (503148768)",Overpharma - Produtos Médicos e Farmacêuticos Lda  (505792362),"44,88 €",19-06-2017,10-03-2016,280 dias,"Portugal, Évora",Artigo 259.º do Código dos Contratos Públicos,30-12-2016,"44,88 €",,"",,1406003,CP 2015/8,FALSE
IODOPOVIDONA - POM 10%,Ao abrigo de acordo-quadro (art.º 259.º),Aquisição de bens móveis,"33000000-0, Equipamento médico, medicamentos e produtos para cuidados pessoais","Administração Regional de Saúde do Alentejo, I. P. (503148768)","DIMOR LUSITANA, - COMERCIO DE PRODUTOS DE SAUDE E HIGIENE, LDA (500730741)","390,00 €",19-06-2017,19-08-2016,150 dias,"Portugal, Évora",Artigo 259.º do Código dos Contratos Públicos,30-12-2016,"390,00 €",,"",,1406003,CP 2015/8,FALSE
LANOLINA ANIDRA PURIFICADA 1000 MG C/DOSEADOR,Ao abrigo de acordo-quadro (art.º 259.º),Aquisição de bens móveis,"33000000-0, Equipamento médico, medicamentos e produtos para cuidados pessoais","Administração Regional de Saúde do Alentejo, I. P. (503148768)","PMH, SA (502376899)","645,00 €",19-06-2017,11-11-2016,30 dias,"Portugal, Évora",Artigo 259.º do Código dos Contratos Públicos,30-12-2016,"645,00 €",,"",,1406003,CP 2015/8,FALSE
"ALCOOL 70% - 500 ml HIPOCLORITO DE SODIO 0,48 % SOLUÇÃO ANTI SEPTICA BASE ALCOOLICA ETANOL + PROPANOL DERMOPROTETOR 100 ML SOLUÇÃO ANTI SEPTICA BASE ALCOOLICA ETANOL + PROPANOL DERMOPROTETOR 500 ML ",Ao abrigo de acordo-quadro (art.º 259.º),Aquisição de bens móveis,"33000000-0, Equipamento médico, medicamentos e produtos para cuidados pessoais","Administração Regional de Saúde do Alentejo, I. P. (503148768)",Proclinica - Equipamentos e Produtos Clinicos Lda  (500222665),"4.980,05 €",19-06-2017,10-03-2016,300 dias,"Portugal, Évora",Artigo 259.º do Código dos Contratos Públicos,30-12-2016,"4.980,05 €",,"",,1406003,CP 2015/8,FALSE
