Objeto do Contrato,Tipo de Procedimento,Tipo(s) de Contrato,CPVs,Entidade(s) Adjudicante(s),Entidade(s) Adjudicatária(s),Preço Contratual,Data de Publicação,Data de Celebração do Contrato,Prazo de Execução,Local de Execução,Fundamentação,Data de Fecho do Contrato,Preço Total Efetivo,Causas das Alterações ao Prazo,Causas das Alterações ao Preço,Estado,N.º registo do Acordo Quadro,Descrição do Acordo Quadro,Procedimento Centralizado
Aquisição de material disposable para bloco,Ao abrigo de acordo-quadro (art.º 259.º),Aquisição de bens móveis,"33190000-8, Dispositivos e produtos médicos variados","Hospital do Espírito Santo de Évora, E. P. E. (508085888)","FACTOR PLUS (502810645), QUILABAN QUIMICA LABORATORIAL ANALITICA SA (500399670), PERGUT PORTUGAL (501799729), ANASTACIO SALDANHA (505804441), OVERPHARMA LDA (505792362), MEDLINE INTERNATIONAL PORTUGAL UNIP LDA (510533515), PAUL HARTMANN LDA (502271728), MOLNLYCKE HEALTH CARE (511101066), PMH-PROD MEDICOS HOSPITALARES (502376899), AVIQUIMICA (500039720)","65.163,50 €",07-01-2016,17-12-2015,365 dias,"Portugal, Évora, Évora",Artigo 259.º do Código dos Contratos Públicos,,,,,,451780,CP 2012/24 - MATERAIL DISPOSABLE DE BLOCO OPERATORIO,FALSE
Aquisição de bens de diálise peritoneal,Ao abrigo de acordo-quadro (art.º 259.º),Aquisição de bens móveis,"33692800-5, Soluções para diálise","Hospital do Espírito Santo de Évora, E. P. E. (508085888)",FRESENIUS MEDICAL CARE LDA (503070220),"59.670,24 €",07-01-2016,16-12-2015,365 dias,"Portugal, Évora, Évora",Artigo 259.º do Código dos Contratos Públicos,,,,,,1481309,CP 2015/35 - Acordo quadro para fornecimento de bens e prestação de serviços de Diálise Peritoneal às Instituições e Serviços do Serviço Nacional de Saúde,FALSE
Prestação de serviços médicos,Ajuste Direto Regime Geral,Aquisição de serviços,"85120000-6, Serviços de prática médica e serviços conexos","Hospital do Espírito Santo de Évora, E. P. E. (508085888)",Isália Margarida Campos Miguel (226376990),"3.500,00 €",06-01-2016,14-07-2015,45 dias,"Portugal, Évora, Évora","Artigo 20.º, n.º 1, alínea a) do Código dos Contratos Públicos",,,,,,Não aplicável.,Não aplicável.,FALSE
