Objeto do Contrato,Tipo de Procedimento,Tipo(s) de Contrato,CPVs,Entidade(s) Adjudicante(s),Entidade(s) Adjudicatária(s),Preço Contratual,Data de Publicação,Data de Celebração do Contrato,Prazo de Execução,Local de Execução,Fundamentação,Data de Fecho do Contrato,Preço Total Efetivo,Causas das Alterações ao Prazo,Causas das Alterações ao Preço,Estado,N.º registo do Acordo Quadro,Descrição do Acordo Quadro,Procedimento Centralizado
Aquisição de Filtros de consumo Clínico,Ajuste Direto Regime Geral,Aquisição de bens móveis,"33100000-1, Equipamento médico","Centro Hospitalar do Tâmega e Sousa, E.P.E. (508318262)","VYGON (PORTUGAL),LDA. (503232785)","742,50 €",10-10-2018,09-05-2018,365 dias,"Portugal, Porto, Amarante<BR/>Portugal, Porto, Penafiel","Artigo 21.º, n.º 1, alínea c) do Código dos Contratos Públicos",,,,,,Não aplicável.,Não aplicável.,FALSE
Aquisição de Filtros de consumo Clínico,Ajuste Direto Regime Geral,Aquisição de bens móveis,"33100000-1, Equipamento médico","Centro Hospitalar do Tâmega e Sousa, E.P.E. (508318262)",MEDTRONIC PORTUGAL LDA (504223933),"1.040,00 €",10-10-2018,09-05-2018,365 dias,"Portugal, Porto, Amarante<BR/>Portugal, Porto, Penafiel","Artigo 21.º, n.º 1, alínea c) do Código dos Contratos Públicos",,,,,,Não aplicável.,Não aplicável.,FALSE
Aquisição de Filtros de consumo Clínico,Ajuste Direto Regime Geral,Aquisição de bens móveis,"33100000-1, Equipamento médico","Centro Hospitalar do Tâmega e Sousa, E.P.E. (508318262)","Garal, Lda. (500777314)","128,80 €",10-10-2018,09-05-2018,365 dias,"Portugal, Porto, Amarante<BR/>Portugal, Porto, Penafiel","Artigo 21.º, n.º 1, alínea c) do Código dos Contratos Públicos",,,,,,Não aplicável.,Não aplicável.,FALSE
Aquisição de Filtros de consumo Clínico,Ajuste Direto Regime Geral,Aquisição de bens móveis,"33100000-1, Equipamento médico","Centro Hospitalar do Tâmega e Sousa, E.P.E. (508318262)","PMH PRODUTOS MEDIC. HOSPITAL, SA (502376899)","720,00 €",09-10-2018,09-05-2018,365 dias,"Portugal, Porto, Penafiel<BR/>Portugal, Porto, Amarante","Artigo 21.º, n.º 1, alínea c) do Código dos Contratos Públicos",,,,,,Não aplicável.,Não aplicável.,FALSE
Aquisição de Filtros de consumo Clínico,Ajuste Direto Regime Geral,Aquisição de bens móveis,"33100000-1, Equipamento médico","Centro Hospitalar do Tâmega e Sousa, E.P.E. (508318262)","PULMOCOR - EQUIPAMENTO MEDICO, LDA (501402578)","2.975,00 €",09-10-2018,09-05-2018,365 dias,"Portugal, Porto, Penafiel<BR/>Portugal, Porto, Amarante","Artigo 21.º, n.º 1, alínea c) do Código dos Contratos Públicos",,,,,,Não aplicável.,Não aplicável.,FALSE
Aquisição de Filtros de consumo Clínico,Ajuste Direto Regime Geral,Aquisição de bens móveis,"33100000-1, Equipamento médico","Centro Hospitalar do Tâmega e Sousa, E.P.E. (508318262)",Intersurgical Portugal (503480045),"6.972,00 €",09-10-2018,09-05-2018,365 dias,"Portugal, Porto, Penafiel<BR/>Portugal, Porto, Amarante","Artigo 21.º, n.º 1, alínea c) do Código dos Contratos Públicos",,,,,,Não aplicável.,Não aplicável.,FALSE
02/AD.17.237 - Aquisição de Algálias,Ajuste Direto Regime Geral,Aquisição de bens móveis,"33100000-1, Equipamento médico","Centro Hospitalar do Tâmega e Sousa, E. P. E. (508318262)","DOCWORLD, Lda (508592909)","75,17 €",09-10-2018,12-04-2018,365 dias,"Portugal, Porto, Amarante","Artigo 20.º, n.º 1, alínea a) do Código dos Contratos Públicos",,,,,,Não aplicável.,Não aplicável.,FALSE
02/AD.17.237 - Aquisição de Algálias,Ajuste Direto Regime Geral,Aquisição de bens móveis,"33100000-1, Equipamento médico","Centro Hospitalar do Tâmega e Sousa, E. P. E. (508318262)","COLOPLAST PORTUGAL SOC. UNIP., LDA (EX PORGES) (503989037)","122,45 €",09-10-2018,12-04-2018,365 dias,"Portugal, Porto, Amarante<BR/>Portugal, Porto, Penafiel","Artigo 20.º, n.º 1, alínea a) do Código dos Contratos Públicos",,,,,,Não aplicável.,Não aplicável.,FALSE
02/AD.17.237 - Aquisição de Algálias,Ajuste Direto Regime Geral,Aquisição de bens móveis,"33100000-1, Equipamento médico","Centro Hospitalar do Tâmega e Sousa, E. P. E. (508318262)","Overpharma, Produtos Médicos e Farmacêuticos, Lda. (505792362)","1.712,00 €",09-10-2018,21-12-2017,365 dias,"Portugal, Porto, Amarante<BR/>Portugal, Porto, Penafiel","Artigo 20.º, n.º 1, alínea a) do Código dos Contratos Públicos",,,,,,Não aplicável.,Não aplicável.,FALSE
"Kits de Manutenção de Ventiladores para o Centro Hospitalar do Tâmega e Sousa, E.P.E.",Ajuste Direto Regime Geral,Aquisição de bens móveis,"33100000-1, Equipamento médico","Centro Hospitalar do Tâmega e Sousa, E. P. E. (508318262)","Drager Portugal, Lda. (508771323)","9.560,80 €",09-10-2018,04-05-2018,242 dias,"Portugal, Porto, Penafiel<BR/>Portugal, Porto, Amarante","Artigo 20.º, n.º 1, alínea d) do Código dos Contratos Públicos",,,,,,Não aplicável.,Não aplicável.,FALSE
Aquisição de dois focos de teto para o Centro Hospitalar do Tâmega e Sousa. E.P.E.,Ajuste Direto Regime Geral,Aquisição de bens móveis,"31500000-1, Equipamento para iluminação e lâmpadas eléctricas","Centro Hospitalar do Tâmega e Sousa, E. P. E. (508318262)","MUNDINTER INTERC. MUNDIAL COMERC., SA (500199906)","3.649,20 €",09-10-2018,21-05-2018,50 dias,"Portugal, Porto, Amarante<BR/>Portugal, Porto, Penafiel","Artigo 24.º, n.º 1, alínea a) do Código dos Contratos Públicos",,,,,,Não aplicável.,Não aplicável.,FALSE
