Objeto do Contrato,Tipo de Procedimento,Tipo(s) de Contrato,CPVs,Entidade(s) Adjudicante(s),Entidade(s) Adjudicatária(s),Preço Contratual,Data de Publicação,Data de Celebração do Contrato,Prazo de Execução,Local de Execução,Fundamentação,Data de Fecho do Contrato,Preço Total Efetivo,Causas das Alterações ao Prazo,Causas das Alterações ao Preço,Estado,N.º registo do Acordo Quadro,Descrição do Acordo Quadro,Procedimento Centralizado
REAG.P/DET.GLICOSE NO SANGUE /REAG.P/DET.GLICOSE NO SANGUE PEDIATRICO,Ajuste Direto Regime Geral,Aquisição de bens móveis,"33600000-6, Produtos farmacêuticos","Centro Hospitalar Tondela-Viseu, E. P. E. (509822940)","ABBOTT LABORATORIOS, LDA (500006148)","9.240,00 €",29-01-2016,14-01-2016,1 dias,"Portugal, Viseu, Viseu","Artigo 24.º, n.º 1, alínea c) do Código dos Contratos Públicos",,,,,,Não aplicável.,Não aplicável.,FALSE
ALFENTANIL 1MG/2ML / ALFENTANIL 5MG/10ML INJ AMP,Ajuste Direto Regime Geral,Aquisição de bens móveis,"33600000-6, Produtos farmacêuticos","Centro Hospitalar Tondela-Viseu, E. P. E. (509822940)","JANSSEN-CILAG FARMACEUTICA, LDA (500189412)","14.907,60 €",28-01-2016,22-01-2016,1 dias,"Portugal, Viseu, Viseu","Artigo 24.º, n.º 1, alínea e) do Código dos Contratos Públicos",,,,,,Não aplicável.,Não aplicável.,FALSE
TONERES VÁRIAS REFERÊNCIAS,Ajuste Direto Regime Geral,Aquisição de bens móveis,"30200000-1, Equipamento e material informático","Centro Hospitalar Tondela-Viseu, E. P. E. (509822940)","ECOFLOAT - SOLUÇÕES P/ ESCRITÓRIOS, LDA (506628051)","7.146,30 €",28-01-2016,09-01-2015,1 dias,"Portugal, Viseu, Viseu","Artigo 20.º, n.º 1, alínea a) do Código dos Contratos Públicos",,,,,,Não aplicável.,Não aplicável.,FALSE
SOLUÇÕES DE DIÁLISE (VÁRIOS ARTIGOS),Ajuste Direto Regime Geral,Aquisição de bens móveis,"33600000-6, Produtos farmacêuticos","Centro Hospitalar Tondela-Viseu, E. P. E. (509822940)",BAXTER II MEDICO FARMACEUTICA (503347345),"41.421,30 €",28-01-2016,20-01-2016,1 dias,"Portugal, Viseu, Viseu","Artigo 20.º, n.º 1, alínea a) do Código dos Contratos Públicos",,,,,,Não aplicável.,Não aplicável.,FALSE
SOLUÇÕES DE DIÁLISE (VÁRIOS ARTIGOS),Ajuste Direto Regime Geral,Aquisição de bens móveis,"33600000-6, Produtos farmacêuticos","Centro Hospitalar Tondela-Viseu, E. P. E. (509822940)","FRESENIUS MEDICAL CARE PORTUGAL,SA (503070220)","6.510,00 €",28-01-2016,20-01-2016,1 dias,"Portugal, Viseu, Viseu","Artigo 20.º, n.º 1, alínea a) do Código dos Contratos Públicos",,,,,,Não aplicável.,Não aplicável.,FALSE
DIVERSOS MEDICAMENTOS URGENTES FARMÁCIA,Ajuste Direto Regime Geral,Aquisição de bens móveis,"33600000-6, Produtos farmacêuticos","Centro Hospitalar Tondela-Viseu, E. P. E. (509822940)","ALLIANCE HEALTHCARE, SA (502693150)","64.245,26 €",28-01-2016,23-09-2015,1 dias,"Portugal, Viseu, Viseu","Artigo 20.º, n.º 1, alínea a) do Código dos Contratos Públicos",,,,,,Não aplicável.,Não aplicável.,FALSE
BALÃO OTW ANGIOPLASTIA,Ajuste Direto Regime Geral,Aquisição de bens móveis,"33111730-7, Material para angioplastia","Centro Hospitalar Tondela-Viseu, E. P. E. (509822940)","JOHNSON & JOHNSON, MEDICAL (500153370)","5.950,00 €",26-01-2016,20-10-2015,1 dias,"Portugal, Viseu, Viseu","Artigo 24.º, n.º 1, alínea c) do Código dos Contratos Públicos",,,,,,Não aplicável.,Não aplicável.,FALSE
SOLUCAO SALINA BALANCEADA 15ML FR / SOLUCAO SALINA BALANCEADA 15ML FR,Ajuste Direto Regime Geral,Aquisição de bens móveis,"33600000-6, Produtos farmacêuticos","Centro Hospitalar Tondela-Viseu, E. P. E. (509822940)","ALCON PORTUGAL-PROD.EQUIP.OFTL, LDA (501251685)","30.856,80 €",25-01-2016,18-12-2015,1 dias,"Portugal, Viseu, Viseu","Artigo 24.º, n.º 1, alínea e) do Código dos Contratos Públicos",,,,,,Não aplicável.,Não aplicável.,FALSE
FRESA REUTILIZÁVEL,Ajuste Direto Regime Geral,Aquisição de bens móveis,"33141700-7, Material ortopédico","Centro Hospitalar Tondela-Viseu, E. P. E. (509822940)","B.BRAUN MEDICAL, LDA (501506543)","5.628,00 €",25-01-2016,29-10-2015,1 dias,"Portugal, Viseu, Viseu","Artigo 24.º, n.º 1, alínea e) do Código dos Contratos Públicos",,,,,,Não aplicável.,Não aplicável.,FALSE
MEIA ANTI EMBOLICA BRANCA ATÉ À RAIZ DA COXA,Ajuste Direto Regime Geral,Aquisição de bens móveis,"33698000-9, Produtos para fins clínicos","Centro Hospitalar Tondela-Viseu, E. P. E. (509822940)","MEDI-BAYREUTH UNIP,LDA (502577274)","7.800,00 €",25-01-2016,02-11-2015,1 dias,"Portugal, Viseu, Viseu","Artigo 24.º, n.º 1, alínea c) do Código dos Contratos Públicos",,,,,,Não aplicável.,Não aplicável.,FALSE
TUBO SISTEMA FECHADO COLHEITA SANGUE,Ajuste Direto Regime Geral,Aquisição de bens móveis,"33140000-3, Material médico de consumo","Centro Hospitalar Tondela-Viseu, E. P. E. (509822940)","SARSTEDT, S.A. (502659955)","5.488,00 €",25-01-2016,29-10-2015,1 dias,"Portugal, Viseu, Viseu","Artigo 24.º, n.º 1, alínea c) do Código dos Contratos Públicos",,,,,,Não aplicável.,Não aplicável.,FALSE
TUBO VACUO COM EDTA,Ajuste Direto Regime Geral,Aquisição de bens móveis,"33140000-3, Material médico de consumo","Centro Hospitalar Tondela-Viseu, E. P. E. (509822940)","SARSTEDT, S.A. (502659955)","5.160,00 €",25-01-2016,02-11-2015,1 dias,"Portugal, Viseu, Viseu","Artigo 24.º, n.º 1, alínea c) do Código dos Contratos Públicos",,,,,,Não aplicável.,Não aplicável.,FALSE
SACO QUADRAPULO C/ FILTRO DESLEUCOCITAÇÃO,Ajuste Direto Regime Geral,Aquisição de bens móveis,"33141613-0, Sacos para sangue","Centro Hospitalar Tondela-Viseu, E. P. E. (509822940)","FRESENIUS KABI PHARMA PORTUGAL, LDA (504293753)","9.857,20 €",25-01-2016,02-11-2015,1 dias,"Portugal, Viseu, Viseu","Artigo 24.º, n.º 1, alínea e) do Código dos Contratos Públicos",,,,,,Não aplicável.,Não aplicável.,FALSE
SACO DRENAGEM PARA DIÁLISE PERITONEAL,Ajuste Direto Regime Geral,Aquisição de bens móveis,"33141610-9, Sacos de drenagem","Centro Hospitalar Tondela-Viseu, E. P. E. (509822940)","FRESENIUS MEDICAL CARE PORTUGAL, SA (503070220)","6.510,00 €",22-01-2016,06-11-2015,1 dias,"Portugal, Viseu, Viseu","Artigo 24.º, n.º 1, alínea e) do Código dos Contratos Públicos",,,,,,Não aplicável.,Não aplicável.,FALSE
PRODUTOS FARMACEUTICOS IMPORTAÇÃO,Ajuste Direto Regime Geral,Aquisição de bens móveis,"33600000-6, Produtos farmacêuticos","Centro Hospitalar Tondela-Viseu, E. P. E. (509822940)",BIOJAM S.A. HEALTH CONSULTING (513642749),"52.719,00 €",22-01-2016,07-01-2016,1 dias,"Portugal, Viseu, Viseu","Artigo 20.º, n.º 1, alínea a) do Código dos Contratos Públicos",,,,,,Não aplicável.,Não aplicável.,FALSE
PRÓTESE TOTAL DO JOELHO,Ajuste Direto Regime Geral,Aquisição de bens móveis,"33183200-8, Próteses ortopédicas","Centro Hospitalar Tondela-Viseu, E. P. E. (509822940)","ARTUR SALGADO, LDA (503612600)","28.170,00 €",22-01-2016,04-11-2015,1 dias,"Portugal, Viseu, Viseu","Artigo 24.º, n.º 1, alínea c) do Código dos Contratos Públicos",,,,,,Não aplicável.,Não aplicável.,FALSE
PRÓTESE TOTAL DA ANCA NÃO CIMENTADA,Ajuste Direto Regime Geral,Aquisição de bens móveis,"33183200-8, Próteses ortopédicas","Centro Hospitalar Tondela-Viseu, E. P. E. (509822940)","LIMA IMPLANTES PORTUGAL s.u., Lda. (508634784)","30.000,00 €",22-01-2016,04-11-2015,1 dias,"Portugal, Viseu, Viseu","Artigo 24.º, n.º 1, alínea c) do Código dos Contratos Públicos",,,,,,Não aplicável.,Não aplicável.,FALSE
KIT (PACK) PARA CIRURGIA DA CATARATA C/ CASSETE,Ajuste Direto Regime Geral,Aquisição de bens móveis,"33141620-2, Kits médicos","Centro Hospitalar Tondela-Viseu, E. P. E. (509822940)","ALCON PORTUGAL-PROD.EQUIP.OFTL,LDA (501251685)","36.480,00 €",22-01-2016,08-01-2016,1 dias,"Portugal, Viseu, Viseu","Artigo 24.º, n.º 1, alínea c) do Código dos Contratos Públicos",,,,,,Não aplicável.,Não aplicável.,FALSE
KIT (PACK) PARA CIRURGIA DA CATARATA C/ CASSETE,Ajuste Direto Regime Geral,Aquisição de bens móveis,"33141620-2, Kits médicos","Centro Hospitalar Tondela-Viseu, E. P. E. (509822940)","ALCON PORTUGAL-PROD.EQUIP.OFTL,LDA (501251685)","8.160,00 €",22-01-2016,29-10-2015,1 dias,"Portugal, Viseu, Viseu","Artigo 24.º, n.º 1, alínea e) do Código dos Contratos Públicos",,,,,,Não aplicável.,Não aplicável.,FALSE
KIT (PACK) PARA CIRURGIA DA CATARATA C/ CASSETE,Ajuste Direto Regime Geral,Aquisição de bens móveis,"33141620-2, Kits médicos","Centro Hospitalar Tondela-Viseu, E. P. E. (509822940)","ALCON PORTUGAL-PROD.EQUIP.OFTL,LDA (501251685)","8.160,00 €",22-01-2016,02-11-2015,1 dias,"Portugal, Viseu, Viseu","Artigo 24.º, n.º 1, alínea c) do Código dos Contratos Públicos",,,,,,Não aplicável.,Não aplicável.,FALSE
PINÇA LIGASURE,Ajuste Direto Regime Geral,Aquisição de bens móveis,"33162200-5, Instrumentos para blocos operatórios","Centro Hospitalar Tondela-Viseu, E. P. E. (509822940)","COVIDIEN PORTUGAL-PRODUTOS DE SAÚDE UNIPESSOAL,LDA (503413410)","8.688,60 €",22-01-2016,27-10-2015,1 dias,"Portugal, Viseu, Viseu","Artigo 24.º, n.º 1, alínea c) do Código dos Contratos Públicos",,,,,,Não aplicável.,Não aplicável.,FALSE
SOFTWARE CLÍNICO PARA  SISTEMA DE RESSONÂNCIA MAGNÉTICA,Ajuste Direto Regime Geral,Aquisição de bens móveis,"48180000-3, Pacote de software para medicina","Centro Hospitalar Tondela-Viseu, E. P. E. (509822940)","PHILIPS PORTUGUESA, SA (500216843)","46.500,00 €",22-01-2016,18-12-2015,1 dias,"Portugal, Viseu, Viseu","Artigo 24.º, n.º 1, alínea e) do Código dos Contratos Públicos",,,,,,Não aplicável.,Não aplicável.,FALSE
