Objeto do Contrato,Tipo de Procedimento,Tipo(s) de Contrato,CPVs,Entidade(s) Adjudicante(s),Entidade(s) Adjudicatária(s),Preço Contratual,Data de Publicação,Data de Celebração do Contrato,Prazo de Execução,Local de Execução,Fundamentação,Data de Fecho do Contrato,Preço Total Efetivo,Causas das Alterações ao Prazo,Causas das Alterações ao Preço,Estado,N.º registo do Acordo Quadro,Descrição do Acordo Quadro,Procedimento Centralizado
Aquisição de Máquina de Lavar/Desinfectar arrastadeiras para o Serviço de Cirurgia Cardiotorácica do HSC,Ajuste Direto Regime Geral,Aquisição de bens móveis,"33191100-6, Esterilizador","Centro Hospitalar de Lisboa Ocidental, EPE (CHLO) (507618319)","A.J. Costa (Irmãos), Lda (500002576)","6.481,25 €",09-09-2016,30-08-2016,30 dias,"Portugal, Lisboa, Lisboa","Artigo 20.º, n.º 1, alínea a) do Código dos Contratos Públicos",,,,,,Não aplicável.,Não aplicável.,FALSE
Aquisição de quiosque de controlo de senhas de visitas a doentes internados HEM e quiosques de consultas no HSFX e HSC,Ajuste Direto Regime Geral,Aquisição de bens móveis,"30000000-9, Máquinas, equipamento e material de escritório e de informática, excepto mobiliário e pacotes de programas (software)","Centro Hospitalar de Lisboa Ocidental, E. P. E. (507618319)","Attendsys, Soluções Globais de Atendimento, Lda. (510306802)","74.873,85 €",07-09-2016,10-05-2016,42 dias,"Portugal, Lisboa, Lisboa","Artigo 20.º, n.º 1, alínea a) do Código dos Contratos Públicos",,,,,,Não aplicável.,Não aplicável.,FALSE
Serviços de manutenção da aplicação SIIMA para o CHLO no ano de 2016,Ajuste Direto Regime Geral,Aquisição de serviços,"72000000-5, Serviços de TI: consultoria, desenvolvimento de software, Internet e apoio","Centro Hospitalar de Lisboa Ocidental, E. P. E. (507618319)","First Solutions - Sistemas de Informação, S. A. (505345978)","50.475,00 €",07-09-2016,18-07-2016,365 dias,"Portugal, Lisboa, Lisboa","Artigo 24.º, n.º 1, alínea e) do Código dos Contratos Públicos",,,,,,Não aplicável.,Não aplicável.,FALSE
Aquisição de Stents Coronários para o CHLO,Ao abrigo de acordo-quadro (art.º 259.º),Aquisição de bens móveis,"33140000-3, Material médico de consumo","Centro Hospitalar de Lisboa Ocidental, EPE (CHLO) (507618319)"," B. Braun Medical, Lda. (501506543) (501506543)","128.000,00 €",07-09-2016,01-09-2016,365 dias,"Portugal, Lisboa, Lisboa",Artigo 259.º do Código dos Contratos Públicos,,,,,,602205,"CONCURSO PÚBLICO PARA A CELEBRAÇÃO DE CONTRATOS PÚBLICOS DE APROVISIONAMENTO PARA A ÁREA DA SAÚDE, COM VISTA AO FORNECIMENTO SISTEMAS DE STENTS CORONÁRIOS ÀS INSTITUIÇÕES E SERVIÇOS DO SERVIÇO NACIONAL DE SAÚDE",FALSE
"AD801616 - Monitor Desfibrilhador - S. Nefrologia - H. Dia Hemodiálise do CHLO, EPE (HSC)",Ajuste Direto Regime Geral,Aquisição de bens móveis,"33000000-0, Equipamento médico, medicamentos e produtos para cuidados pessoais","Centro Hospitalar de Lisboa Ocidental, EPE (CHLO) (507618319)",PARAMÉDICA LDA (501393005),"4.800,00 €",07-09-2016,08-07-2016,66 dias,"Portugal, Lisboa, Lisboa","Artigo 20.º, n.º 1, alínea a) do Código dos Contratos Públicos",,,,,,Não aplicável.,Não aplicável.,FALSE
"AD801766 - Equipamento Ganglio Sentinela - Bloco Operatório do CHLO, EPE (HSFX)",Ajuste Direto Regime Geral,Aquisição de bens móveis,"33000000-0, Equipamento médico, medicamentos e produtos para cuidados pessoais","Centro Hospitalar de Lisboa Ocidental, E. P. E. (507618319)",ISODER SA (502241594),"16.500,00 €",06-09-2016,07-07-2016,66 dias,"Portugal, Lisboa, Lisboa","Artigo 20.º, n.º 1, alínea a) do Código dos Contratos Públicos",,,,,,Não aplicável.,Não aplicável.,FALSE
"AD801756 - Aquisição de Linha Self Service e vitrinas - Refeitório do CHLO, EPE (HSFX)",Ajuste Direto Regime Geral,Aquisição de bens móveis,"31000000-6, Maquinaria, aparelhagem, equipamento e consumíveis eléctricos; iluminação","Centro Hospitalar de Lisboa Ocidental, E. P. E. (507618319)",Barros & Villas Lda (506078310),"18.830,29 €",06-09-2016,01-07-2016,66 dias,"Portugal, Lisboa, Lisboa","Artigo 20.º, n.º 1, alínea a) do Código dos Contratos Públicos",,,,,,Não aplicável.,Não aplicável.,FALSE
AD801606 - Aquisição de Chiller - S. Neurologia do HEM,Ajuste Direto Regime Geral,Aquisição de bens móveis,"39000000-2, Mobiliário (incl. de escritório), acessórios, aparelhos domésticos (excl. iluminação) e produtos de limpeza","Centro Hospitalar de Lisboa Ocidental, E. P. E. (507618319)",Constarte SA (500072221),"23.300,00 €",06-09-2016,16-06-2016,66 dias,"Portugal, Lisboa, Lisboa","Artigo 20.º, n.º 1, alínea a) do Código dos Contratos Públicos",,,,,,Não aplicável.,Não aplicável.,FALSE
