Objeto do Contrato,Tipo de Procedimento,Tipo(s) de Contrato,CPVs,Entidade(s) Adjudicante(s),Entidade(s) Adjudicatária(s),Preço Contratual,Data de Publicação,Data de Celebração do Contrato,Prazo de Execução,Local de Execução,Fundamentação,Data de Fecho do Contrato,Preço Total Efetivo,Causas das Alterações ao Prazo,Causas das Alterações ao Preço,Estado,N.º registo do Acordo Quadro,Descrição do Acordo Quadro,Procedimento Centralizado
Sofosbuvir 400 mg + Velpatasvir 100 mg + Voxilaprevir 100 mg Comp,Ao abrigo de acordo-quadro (art.º 259.º),Aquisição de bens móveis,"33600000-6, Produtos farmacêuticos","Centro Hospitalar de Setúbal, E. P. E. (507606787)","GILEAD SCIENCES, LDA. (503604704)","92.366,40 €",21-01-2019,11-01-2019,10 dias,"Portugal, Setúbal, Setúbal",Artigo 259.º do Código dos Contratos Públicos,,,,,,3023927,CP 2017/67 - Medicamentos para a Hepatite C crónica,FALSE
Citarabina 100 mg/ml Sol inj Fr 20 ml IV Dexametasona 700 µg Impl intravítreo Aplic Intravítreo,Ajuste Direto Regime Geral,Aquisição de bens móveis,"33600000-6, Produtos farmacêuticos","Centro Hospitalar de Setúbal, E. P. E. (507606787)","Profarin, Lda. (500223238), FRESENIUS KABI PHARMA PORTUGAL, LDª (504293753)","4.400,20 €",21-01-2019,17-01-2019,10 dias,"Portugal, Setúbal, Setúbal","Artigo 21.º, n.º 1, alínea c) do Código dos Contratos Públicos",,,,,,Não aplicável.,Não aplicável.,FALSE
designer,Ajuste Direto Regime Geral,Aquisição de serviços,"71000000-8, Serviços de arquitectura, construção, engenharia e inspecção","Centro Hospitalar de Setúbal, E. P. E. (507606787)",João Manuel Duarte Rodrigues (182724913),"25.235,28 €",17-01-2019,29-11-2018,365 dias,"Portugal, Setúbal, Setúbal","Artigo 27.º, n.º 1, alínea b) do Código dos Contratos Públicos",,,,,,Não aplicável.,Não aplicável.,FALSE
Acompanhamento de processos jurídicos,Ajuste Direto Regime Geral,Aquisição de serviços,"79000000-4, Serviços a empresas: direito, comercialização, consultoria, recrutamento, impressão e segurança","Centro Hospitalar de Setúbal, E. P. E. (507606787)",Manuel lage (212591061),"13.800,00 €",17-01-2019,23-11-2018,365 dias,"Portugal, Setúbal, Setúbal","Artigo 27.º, n.º 1, alínea b) do Código dos Contratos Públicos",,,,,,Não aplicável.,Não aplicável.,FALSE
Técnico de AVAC,Ajuste Direto Regime Geral,Aquisição de serviços,"50000000-5, Serviços de reparação e manutenção","Centro Hospitalar de Setúbal, E. P. E. (507606787)",José Carlos de Almeida Carvalho Louro (818271604),"17.823,48 €",17-01-2019,15-01-2019,365 dias,"Portugal, Setúbal, Setúbal","Artigo 27.º, n.º 1, alínea b) do Código dos Contratos Públicos",,,,,,Não aplicável.,Não aplicável.,FALSE
"Fulvestrant 250 mg/5 ml Sol inj Ser 5 ml IM GOSERELINA (ACETATO),10.8MG  IMPL   ,SERINGA Palbociclib 125 mg Cáps Palbociclib 75 mg Cáps Omalizumab 150 mg Pó sol inj Fr SC Ribociclib 200 mg comp. Ruxolitinib 15 mg Comp TACROLIMUS 1MG/COMP INFLIXIMAB,100MG,PÓ CONC SOL INJ FR IV ",Ao abrigo de acordo-quadro (art.º 259.º),Aquisição de bens móveis,"33600000-6, Produtos farmacêuticos","Centro Hospitalar de Setúbal, E. P. E. (507606787)","Pfizer Biofarmaceutica, Sociedade Unipessoal Lda. (513300376), ASTRAZENECA- PROD.FARM LDA (502942240), MERCK SHARP & DOHME LDA (500191360), NOVARTIS FARMA-PRODUT.FARMACEUTICOS, SA (500063524), SANDOZ FARMACEUTICA, LDA (506985261)","43.360,12 €",17-01-2019,11-01-2019,10 dias,"Portugal, Setúbal, Setúbal",Artigo 259.º do Código dos Contratos Públicos,,,,,,2969238,"CP 2017/6 - Acordo Quadro para fornecimento de Medicamentos do Foro Oncológico e Imunomoduladores, às Instituições e Serviços do Serviço Nacional de Saúde",FALSE
Serviços Desinfestação,Consulta Prévia,Aquisição de serviços,"98000000-3, Outros serviços comunitários, sociais e pessoais","Centro Hospitalar de Setúbal, E. P. E. (507606787)","Rentokil Initial Portugal - Serviços de Protecção Ambiental, Lda. (501351167)","5.323,00 €",15-01-2019,03-01-2019,365 dias,"Portugal, Setúbal, Setúbal","Artigo 19.º, alínea c) do Código dos Contratos Públicos",,,,,,Não aplicável.,Não aplicável.,FALSE
