Objeto do Contrato,Tipo de Procedimento,Tipo(s) de Contrato,CPVs,Entidade(s) Adjudicante(s),Entidade(s) Adjudicatária(s),Preço Contratual,Data de Publicação,Data de Celebração do Contrato,Prazo de Execução,Local de Execução,Fundamentação,Data de Fecho do Contrato,Preço Total Efetivo,Causas das Alterações ao Prazo,Causas das Alterações ao Preço,Estado,N.º registo do Acordo Quadro,Descrição do Acordo Quadro,Procedimento Centralizado
Serras e Brocas para Craneotomia para 2013,Ajuste Direto Regime Geral,Aquisição de bens móveis,"33140000-3, Material médico de consumo",Centro Hospitalar de Lisboa Central E.P.E. (508080142),"Synthes - Comercialização de Dispositivos, Lda (501212191)","8.105,09 €",21-06-2013,21-06-2013,185 dias,"Portugal, Lisboa, Lisboa","Artigo 24.º, n.º 1, alínea e) do Código dos Contratos Públicos",,,,,,Não aplicável.,Não aplicável.,
Meias anti-trombóticas,Ajuste Direto Regime Geral,Aquisição de bens móveis,"33140000-3, Material médico de consumo","Centro Hospitalar de Lisboa Central, E.P.E. (CHLC) (508080142)","Anastacio Saldanha Unipessoal (505804441), Smith & Nephew, Lda (503552461)","29.898,55 €",21-06-2013,19-06-2013,160 dias,"Portugal, Lisboa, Lisboa","Artigo 20.º, n.º 1, alínea a) do Código dos Contratos Públicos",,,,,,Não aplicável.,Não aplicável.,
Aquisição de Antitripsina alfa-1 1000mg pó sol inj fr IV,Ajuste Direto Regime Geral,Aquisição de bens móveis,"33000000-0, Equipamento médico, medicamentos e produtos para cuidados pessoais",Centro Hospitalar de Lisboa Central E.P.E. (508080142),"Grifols Portugal, Produtos Farmacêuicos e Hospitalares, Lda (502041285)","46.400,00 €",20-06-2013,20-06-2013,195 dias,"Portugal, Lisboa, Lisboa","Artigo 24.º, n.º 1, alínea e) do Código dos Contratos Públicos",,,,,,Não aplicável.,Não aplicável.,
"Calprotectina Fecal 96 testes a 10,664583€",Ajuste Direto Regime Geral,Aquisição de bens móveis,"33696000-5, Reagentes e meios de contraste","Centro Hospitalar de Lisboa Central, E.P.E. (CHLC) (508080142)","PHADIA SOCIEDADE UNIPESSOAL, LDA (506916243)","1.086,46 €",20-06-2013,21-05-2013,180 dias,"Portugal, Lisboa, Lisboa","Artigo 20.º, n.º 1, alínea a) do Código dos Contratos Públicos",,,,,,Não aplicável.,Não aplicável.,
Aquisição de DIALIZADOR HEMODIALISE COEF.UF APR.6 / AREA APR.1,Ajuste Direto Regime Geral,Aquisição de bens móveis,"33140000-3, Material médico de consumo","Centro Hospitalar de Lisboa Central, E.P.E. (CHLC) (508080142)","Medinfar-Sorológico-Produtos e Equipamentos, S.A. (501197052)","700,00 €",19-06-2013,18-06-2013,169 dias,"Portugal, Lisboa, Lisboa","Artigo 20.º, n.º 1, alínea a) do Código dos Contratos Públicos",,,,,,Não aplicável.,Não aplicável.,
Aquisição de kit cateter diálise tuneliz. lg. dur.duplo lumen de 28 cm a 40 cm,Ajuste Direto Regime Geral,Aquisição de bens móveis,"33140000-3, Material médico de consumo","Centro Hospitalar de Lisboa Central, E.P.E. (CHLC) (508080142)","Medinfar-Sorológico-Produtos e Equipamentos, S.A. (501197052)","5.440,00 €",19-06-2013,19-06-2013,168 dias,"Portugal, Lisboa, Lisboa","Artigo 20.º, n.º 1, alínea a) do Código dos Contratos Públicos",,,,,,Não aplicável.,Não aplicável.,
"Meio de Virtrificação  9 unidades a 440,0€; Meio de Desvitrificação 9 Umid. a 365,00 € e Meio de HTF com Gentamicine e Hepes",Ajuste Direto Regime Geral,Aquisição de bens móveis,"33696000-5, Reagentes e meios de contraste","Centro Hospitalar de Lisboa Central, E.P.E. (CHLC) (508080142)",Izasa Portugal (501086110),"7.585,00 €",19-06-2013,02-05-2013,90 dias,"Portugal, Lisboa, Lisboa","Artigo 20.º, n.º 1, alínea a) do Código dos Contratos Públicos",,,,,,Não aplicável.,Não aplicável.,
Aquisição de Ácido Ioxitalâmico 210 mg/ml sol. inj. fr. 250 ml IV,Ajuste Direto Regime Geral,Aquisição de bens móveis,"33600000-6, Produtos farmacêuticos",Centro Hospitalar de Lisboa Central E.P.E. (508080142),"A. Martins & Fernandes, S. A. (501172114)","37.600,00 €",18-06-2013,17-06-2013,215 dias,"Portugal, Lisboa, Lisboa","Artigo 24.º, n.º 1, alínea e) do Código dos Contratos Públicos",,,,,,Não aplicável.,Não aplicável.,
"Aquisição de consumiveis que se adaptem aos equipamentos da marca ligasure existentes nos blocos operatórios, da propriedade do Centro Hospitalar de Lisboa Central, E.P.E.",Concurso público,Locação de bens móveis,"33140000-3, Material médico de consumo",Centro Hospitalar de Lisboa Central E.P.E. (508080142),"Covidien Portugal - Produtos de Saúde, Sociedade Unipessoal, Lda (503413410)","149.670,00 €",18-06-2013,18-06-2013,169 dias,"Portugal, Lisboa, Lisboa","Artigo 20.º, n.º 1, alínea b) do Código dos Contratos Públicos",,,,,,Não aplicável.,Não aplicável.,
Aquisição de 340 embalagens de Absorvente de CO2,Ajuste Direto Regime Geral,Aquisição de bens móveis,"33000000-0, Equipamento médico, medicamentos e produtos para cuidados pessoais",Centro Hospitalar de Lisboa Central E.P.E. (508080142),Drager Portugal Lda (508771323),"5.916,00 €",18-06-2013,14-06-2013,200 dias,"Portugal, Lisboa, Lisboa","Artigo 20.º, n.º 1, alínea a) do Código dos Contratos Públicos",,,,,,Não aplicável.,Não aplicável.,
Sugamadex 100mg/ml sol inj fr. 2ml /5ml,Ajuste Direto Regime Geral,Aquisição de bens móveis,"33000000-0, Equipamento médico, medicamentos e produtos para cuidados pessoais",Centro Hospitalar de Lisboa Central E.P.E. (508080142),Merck Sarp & Dhome (500191360),"17.461,24 €",18-06-2013,18-06-2013,197 dias,"Portugal, Lisboa, Lisboa","Artigo 24.º, n.º 1, alínea e) do Código dos Contratos Públicos",,,,,,Não aplicável.,Não aplicável.,
Aquisição de cimentos com antibiotico,Ajuste Direto Regime Geral,Aquisição de bens móveis,"33140000-3, Material médico de consumo","Centro Hospitalar de Lisboa Central, E.P.E. (CHLC) (508080142)","Biomet Portugal Unipessoal, Lda (500254990), Eurosintese Materal Médico Hospitalar, Lda (503491403)","25.800,00 €",18-06-2013,18-06-2013,169 dias,"Portugal, Lisboa, Lisboa","Artigo 20.º, n.º 1, alínea a) do Código dos Contratos Públicos",,,,,,Não aplicável.,Não aplicável.,
Aquisição dematriz hemostática esteril 5000U/5ml,Ajuste Direto Regime Geral,Aquisição de bens móveis,"33000000-0, Equipamento médico, medicamentos e produtos para cuidados pessoais",Centro Hospitalar de Lisboa Central E.P.E. (508080142),"Baxter Médico Farmacêutica, Lda (503347345)","28.560,00 €",18-06-2013,17-06-2013,197 dias,"Portugal, Lisboa, Cascais","Artigo 24.º, n.º 1, alínea e) do Código dos Contratos Públicos",,,,,,Não aplicável.,Não aplicável.,
Aquisição de Romiplostim 250ug pó sol inj fr SC,Ajuste Direto Regime Geral,Aquisição de bens móveis,"33000000-0, Equipamento médico, medicamentos e produtos para cuidados pessoais",Centro Hospitalar de Lisboa Central E.P.E. (508080142),"Amgen Biofarmacêutica, Lda (502942959)","73.012,05 €",18-06-2013,17-06-2013,197 dias,"Portugal, Lisboa, Lisboa","Artigo 24.º, n.º 1, alínea e) do Código dos Contratos Públicos",,,,,,Não aplicável.,Não aplicável.,
"Aquisição de consumiveis que se adaptem aos equipamentos da marca ultracision existentes nos blocos operatórios, da propriedade do Centro Hospitalar de Lisboa Central, E.P.E.",Concurso público,Aquisição de bens móveis,"33140000-3, Material médico de consumo",Centro Hospitalar de Lisboa Central E.P.E. (508080142),"Johnson & Johnson, Lda (500153370)","167.230,00 €",18-06-2013,18-06-2013,169 dias,"Portugal, Lisboa, Lisboa","Artigo 20.º, n.º 1, alínea b) do Código dos Contratos Públicos",,,,,,Não aplicável.,Não aplicável.,
SISTEMA DE TRANSFERENCIA 4 VIAS,Ajuste Direto Regime Geral,Aquisição de bens móveis,"33140000-3, Material médico de consumo","Centro Hospitalar de Lisboa Central, E.P.E. (CHLC) (508080142)",IBERVOXEL - EQUIPAMENTOS MEDICOS E DE LABORATORIO UNIPESSOAL (506716899),"9.000,00 €",17-06-2013,17-06-2013,185 dias,"Portugal, Lisboa, Lisboa","Artigo 20.º, n.º 1, alínea a) do Código dos Contratos Públicos",,,,,,Não aplicável.,Não aplicável.,
IDENTIFICAÇÃO AUTOMÁTICO BACILOS GRAM NEGATIVOS,Ajuste Direto Regime Geral,Aquisição de bens móveis,"33696500-0, Reagentes de laboratório",Centro Hospitalar de Lisboa Central E.P.E. (508080142),BIOMERIEUX PORTUGAL (501524177),"7.633,00 €",17-06-2013,14-06-2013,200 dias,"Portugal, Lisboa, Lisboa","Artigo 26.º, n.º 1, alínea a) do Código dos Contratos Públicos",,,,,,Não aplicável.,Não aplicável.,
Aquisição de proteses testiculares,Ajuste Direto Regime Geral,Aquisição de bens móveis,"33184100-4, Implantes cirúrgicos","Centro Hospitalar de Lisboa Central, E.P.E. (CHLC) (508080142)","Hospitex Material Hospitalar, Lda (501909842)","4.154,00 €",14-06-2013,14-06-2013,200 dias,"Portugal, Lisboa, Lisboa","Artigo 20.º, n.º 1, alínea a) do Código dos Contratos Públicos",,,,,,Não aplicável.,Não aplicável.,
"Aquisição de ligaduras e compressas, destinadas aos diversos serviços do CHLC, E.P.E.",Ajuste Direto Regime Geral,Aquisição de bens móveis,"33141100-1, Pensos; clipes, suturas, ligaduras","Centro Hospitalar de Lisboa Central, E.P.E. (CHLC) (508080142)","Bastos Viegas, S.A. (500042772), Overpharma, Lda (505792362), Albino Dias de Andrade, Lda (500013810), Ezequiel Panão Jorge, Lda (501412727), Smith & Nephew, Lda (503552461)","17.817,58 €",14-06-2013,07-06-2013,280 dias,"Portugal, Lisboa, Lisboa",Artigo 258.º do Código dos Contratos Públicos,,,,,,Não aplicável.,Não aplicável.,
Aquisição de Placas para equipamento de hipotermia,Ajuste Direto Regime Geral,Aquisição de bens móveis,"33000000-0, Equipamento médico, medicamentos e produtos para cuidados pessoais",Centro Hospitalar de Lisboa Central E.P.E. (508080142),"C.R.BARD PORTUGAL, LDA (502438274)","19.800,00 €",14-06-2013,14-06-2013,30 dias,"Portugal, Lisboa, Lisboa","Artigo 24.º, n.º 1, alínea e) do Código dos Contratos Públicos",,,,,,Não aplicável.,Não aplicável.,
"Fornecimento de consumíveis para a realização de hemodiálise e técnicas afins, com colocação de equipamento, para o Centro Hospitalar de Lisboa Central, E.P.E.",Concurso público,Aquisição de bens móveis,"33181500-7, Produtos de consumo para fins renais",Centro Hospitalar de Lisboa Central E.P.E. (508080142),"Fresenius Medical Care Portugal, S.A. (503070220)","969.019,50 €",14-06-2013,11-06-2013,1095 dias,"Portugal, Lisboa, Lisboa","Artigo 20.º, n.º 1, alínea b) do Código dos Contratos Públicos",,,,,,Não aplicável.,Não aplicável.,
Próteses,Ajuste Direto Regime Geral,Aquisição de bens móveis,"33000000-0, Equipamento médico, medicamentos e produtos para cuidados pessoais",Centro Hospitalar de Lisboa Central E.P.E. (508080142),Lima Implantes (508634784),"5.052,00 €",12-06-2013,29-05-2013,1 dias,"Portugal, Lisboa, Lisboa","Artigo 24.º, n.º 1, alínea c) do Código dos Contratos Públicos",,,,,,Não aplicável.,Não aplicável.,
Aquisição de Moroctocog Alfa 250 U.I. Pó Sol. Inj. Fr. IV,Ajuste Direto Regime Geral,Aquisição de bens móveis,"33000000-0, Equipamento médico, medicamentos e produtos para cuidados pessoais",Centro Hospitalar de Lisboa Central E.P.E. (508080142),"Laboratorios Pfizer, Lda (500162166)","17.249,00 €",12-06-2013,12-06-2013,202 dias,"Portugal, Lisboa, Lisboa","Artigo 24.º, n.º 1, alínea e) do Código dos Contratos Públicos",,,,,,Não aplicável.,Não aplicável.,
Aquisição de Moroctocog Alfa 1000 U.I. Pó Sol. Inj. Fr. IV,Ajuste Direto Regime Geral,Aquisição de bens móveis,"33000000-0, Equipamento médico, medicamentos e produtos para cuidados pessoais",Centro Hospitalar de Lisboa Central E.P.E. (508080142),"Laboratorios Pfizer, Lda (500162166)","82.798,80 €",12-06-2013,12-06-2013,202 dias,"Portugal, Lisboa, Lisboa","Artigo 24.º, n.º 1, alínea e) do Código dos Contratos Públicos",,,,,,Não aplicável.,Não aplicável.,
Aquisição de Moroctocog Alfa 2000 U.I. Pó Sol. Inj. Fr. IV,Ajuste Direto Regime Geral,Aquisição de bens móveis,"33000000-0, Equipamento médico, medicamentos e produtos para cuidados pessoais",Centro Hospitalar de Lisboa Central E.P.E. (508080142),"Laboratorios Pfizer, Lda (500162166)","137.999,00 €",12-06-2013,12-06-2013,202 dias,"Portugal, Lisboa, Lisboa","Artigo 24.º, n.º 1, alínea e) do Código dos Contratos Públicos",,,,,,Não aplicável.,Não aplicável.,
Material para osteossíntese de coluna,Ajuste Direto Regime Geral,Aquisição de bens móveis,"33000000-0, Equipamento médico, medicamentos e produtos para cuidados pessoais",Centro Hospitalar de Lisboa Central E.P.E. (508080142),"Zimmer, SA (980151716)","22.588,00 €",12-06-2013,16-05-2013,1 dias,"Portugal, Lisboa, Lisboa","Artigo 24.º, n.º 1, alínea c) do Código dos Contratos Públicos",,,,,,Não aplicável.,Não aplicável.,
Material para osteossíntese de coluna,Ajuste Direto Regime Geral,Aquisição de bens móveis,"33000000-0, Equipamento médico, medicamentos e produtos para cuidados pessoais",Centro Hospitalar de Lisboa Central E.P.E. (508080142),Medtronic Portugal (504223933),"29.985,00 €",12-06-2013,16-05-2013,1 dias,"Portugal, Lisboa, Lisboa","Artigo 24.º, n.º 1, alínea c) do Código dos Contratos Públicos",,,,,,Não aplicável.,Não aplicável.,
Aquisição de Colistimetato de sódio 2000000UI pó sol inj ou sol neb fr IV inalatória,Ajuste Direto Regime Geral,Aquisição de bens móveis,"33000000-0, Equipamento médico, medicamentos e produtos para cuidados pessoais",Centro Hospitalar de Lisboa Central E.P.E. (508080142),"Pharmis Biofarmacêutica, Lda (502595442)","192.000,00 €",12-06-2013,07-06-2013,203 dias,"Portugal, Lisboa, Lisboa","Artigo 24.º, n.º 1, alínea e) do Código dos Contratos Públicos",,,,,,Não aplicável.,Não aplicável.,
