Objeto do Contrato,Tipo de Procedimento,Tipo(s) de Contrato,CPVs,Entidade(s) Adjudicante(s),Entidade(s) Adjudicatária(s),Preço Contratual,Data de Publicação,Data de Celebração do Contrato,Prazo de Execução,Local de Execução,Fundamentação,Data de Fecho do Contrato,Preço Total Efetivo,Causas das Alterações ao Prazo,Causas das Alterações ao Preço,Estado,N.º registo do Acordo Quadro,Descrição do Acordo Quadro,Procedimento Centralizado
Aquisição de NABPACLITAXEL IV 100MG PO SUSP INJ,Ajuste Direto Regime Geral,Aquisição de bens móveis,"33600000-6, Produtos farmacêuticos","Hospital Professor Doutor Fernando Fonseca, E. P. E. (503035416)","CELGENE, SOCIEDADE  UNIPESSOAL, LDA (507791690)","8.250,00 €",24-05-2018,24-05-2018,221 dias,"Portugal, Lisboa, Amadora","Artigo 24.º, n.º 1, alínea e), subalínea ii) do Código dos Contratos Públicos",,,,,,Não aplicável.,Não aplicável.,FALSE
Aquisição de Serviços de Segurança,Ajuste Direto Regime Geral,Aquisição de serviços,"79710000-4, Serviços de segurança","Hospital Professor Doutor Fernando Fonseca, E. P. E. (503035416)","Prosegur, Lda. (501290567)","383.082,84 €",23-05-2018,16-09-2017,184 dias,"Portugal, Lisboa, Amadora","Artigo 24.º, n.º 1, alínea c) do Código dos Contratos Públicos",,,,,,Não aplicável.,Não aplicável.,FALSE
Aluguer de Ventiladores HFF 2018,Concurso público,Aquisição de serviços,"51410000-9, Serviços de instalação de equipamento médico","Hospital Professor Doutor Fernando Fonseca, E. P. E. (503035416)","Praxair Portugal Gases, S.A. (501738916)","46.230,90 €",22-05-2018,09-04-2018,365 dias,"Portugal, Lisboa, Amadora","Artigo 20.º, n.º 1, alínea b) do Código dos Contratos Públicos",,,,,,Não aplicável.,Não aplicável.,FALSE
