Objeto do Contrato,Tipo de Procedimento,Tipo(s) de Contrato,CPVs,Entidade(s) Adjudicante(s),Entidade(s) Adjudicatária(s),Preço Contratual,Data de Publicação,Data de Celebração do Contrato,Prazo de Execução,Local de Execução,Fundamentação,Data de Fecho do Contrato,Preço Total Efetivo,Causas das Alterações ao Prazo,Causas das Alterações ao Preço,Estado,N.º registo do Acordo Quadro,Descrição do Acordo Quadro,Procedimento Centralizado
"Aquisição de serviços de help-desk, formação e manutenção da plataforma web da RNCCI",Ajuste Direto Regime Geral,Aquisição de serviços,"72253000-3, Serviços de apoio e de help-desk","Administração Central do Sistema de Saúde, I.P. (508188423)","Care4it, Lda. (505959224)","254.700,00 €",10-02-2012,30-12-2011,365 dias,"Portugal, Lisboa, Lisboa","Artigo 24.º, n.º 1, alínea e) do Código dos Contratos Públicos",30-12-2012,"254.700,00 €",,,,Não aplicável.,Não aplicável.,
Aquisição de serviços de consultoria informática,Ajuste Direto Regime Geral,Aquisição de serviços,"72600000-6, Serviços de consultoria e assistência informáticas","Administração Central do Sistema de Saúde, I.P. (508188423)","Profusion Solutions, Lda. (508832420)","12.000,00 €",10-02-2012,30-12-2011,30 dias,"Portugal, Lisboa, Lisboa","Artigo 20.º, n.º 1, alínea a) do Código dos Contratos Públicos",31-01-2012,"12.000,00 €",,,,Não aplicável.,Não aplicável.,
Aquisição de serviços de consultoria financeira,Ajuste Direto Regime Geral,Aquisição de serviços,"66171000-9, Serviços de consultoria financeira","Administração Central do Sistema de Saúde, I.P. (508188423)","Audiplano, Lda. (502863617)","14.500,00 €",10-02-2012,28-12-2011,30 dias,"Portugal, Lisboa, Lisboa","Artigo 20.º, n.º 1, alínea a) do Código dos Contratos Públicos",28-01-2012,"14.500,00 €",,,,Não aplicável.,Não aplicável.,
