Objeto do Contrato,Tipo de Procedimento,Tipo(s) de Contrato,CPVs,Entidade(s) Adjudicante(s),Entidade(s) Adjudicatária(s),Preço Contratual,Data de Publicação,Data de Celebração do Contrato,Prazo de Execução,Local de Execução,Fundamentação,Data de Fecho do Contrato,Preço Total Efetivo,Causas das Alterações ao Prazo,Causas das Alterações ao Preço,Estado,N.º registo do Acordo Quadro,Descrição do Acordo Quadro,Procedimento Centralizado
Contrato de aquisição de 120 CAN interferão beta 1a,Ajuste Direto Regime Geral,Aquisição de bens móveis,"33652000-5, Antineoplásicos e imunomoduladores","Centro Hospitalar Lisboa Norte, EPE (508481287)",Biogen (506415740),"23.247,90 €",09-11-2012,09-11-2012,1 dias,"Portugal, Lisboa, Lisboa","Artigo 24.º, n.º 1, alínea a) do Código dos Contratos Públicos",,,,,,Não aplicável.,Não aplicável.,
Contrato de aquisição de 600 sac de polielectrolitico,Ajuste Direto Regime Geral,Aquisição de bens móveis,"33692800-5, Soluções para diálise","Centro Hospitalar Lisboa Norte, EPE (508481287)",Gambro Lundia AB (980367751),"9.120,00 €",09-11-2012,09-11-2012,1 dias,"Portugal, Lisboa, Lisboa","Artigo 24.º, n.º 1, alínea a) do Código dos Contratos Públicos",,,,,,Não aplicável.,Não aplicável.,
Aquisição de Produto entérico normalizado,Ajuste Direto Regime Geral,Aquisição de bens móveis,"33616000-1, Vitaminas","Centro Hospitalar Lisboa Norte, EPE (508481287)","Fresenius Kabi, Lda. (504293753)","6.300,00 €",08-11-2012,08-11-2012,1 dias,"Portugal, Lisboa, Lisboa","Artigo 20.º, n.º 1, alínea a) do Código dos Contratos Públicos",,,,,,Não aplicável.,Não aplicável.,
Aquisição de N-Acetilgalactosamina - 4 - Sulfatase Sol. Inj. 1 Mg/Ml,Ajuste Direto Regime Geral,Aquisição de bens móveis,"33692200-9, Produtos para nutrição parenteral","Centro Hospitalar Lisboa Norte, EPE (508481287)","Logifarma, S.A. (503934640)","26.820,00 €",08-11-2012,08-11-2012,1 dias,"Portugal, Lisboa, Lisboa","Artigo 24.º, n.º 1, alínea e) do Código dos Contratos Públicos",,,,,,Não aplicável.,Não aplicável.,
aquisição de Alglucosidase Alfa Inj. 50 Mg.,Ajuste Direto Regime Geral,Aquisição de bens móveis,"33616000-1, Vitaminas","Centro Hospitalar Lisboa Norte, EPE (508481287)","Sanofi, Lda. (500134960)","115.500,00 €",08-11-2012,05-11-2012,1 dias,"Portugal, Lisboa, Lisboa","Artigo 24.º, n.º 1, alínea e) do Código dos Contratos Públicos",,,,,,Não aplicável.,Não aplicável.,
Aquisição de Azacitdina Susp. Inj. 100 Mg.,Ajuste Direto Regime Geral,Aquisição de bens móveis,"33652000-5, Antineoplásicos e imunomoduladores","Centro Hospitalar Lisboa Norte, EPE (508481287)",Celgene Logistics SARL (980385695),"63.720,00 €",08-11-2012,06-11-2012,4 dias,"Portugal, Lisboa, Lisboa","Artigo 24.º, n.º 1, alínea e) do Código dos Contratos Públicos",,,,,,Não aplicável.,Não aplicável.,
Aquisição de Fosfato de sódio + Cloreto de Cálcio Sol. Oral,Ajuste Direto Regime Geral,Aquisição de bens móveis,"33690000-3, Medicamentos vários","Centro Hospitalar Lisboa Norte, EPE (508481287)","Eusa Pharma, Lda. (424347011)","11.250,00 €",08-11-2012,07-11-2012,1 dias,"Portugal, Lisboa, Lisboa","Artigo 24.º, n.º 1, alínea e) do Código dos Contratos Públicos",,,,,,Não aplicável.,Não aplicável.,
Aquisição de Hidroxietilamido 6% Sol. Inj. Saco /Frs. 500 Ml.,Ajuste Direto Regime Geral,Aquisição de bens móveis,"33141520-1, Derivados do plasma","Centro Hospitalar Lisboa Norte, EPE (508481287)","Fresenius Kabi Pharma Portugal, Lda. (504293753)","39.306,60 €",08-11-2012,07-11-2012,1 dias,"Portugal, Lisboa, Lisboa","Artigo 24.º, n.º 1, alínea e) do Código dos Contratos Públicos",,,,,,Não aplicável.,Não aplicável.,
Aquisição de Trabectedin Inj. 1 Mg.,Ajuste Direto Regime Geral,Aquisição de bens móveis,"33652000-5, Antineoplásicos e imunomoduladores","Centro Hospitalar Lisboa Norte, EPE (508481287)","Movianto Portugal, S.A. (509040411)","5.982,00 €",08-11-2012,08-11-2012,1 dias,"Portugal, Lisboa, Lisboa","Artigo 24.º, n.º 1, alínea e) do Código dos Contratos Públicos",,,,,,Não aplicável.,Não aplicável.,
Aquisição de diversos medicamentos,Ajuste Direto Regime Geral,Aquisição de bens móveis,"33651520-9, Imunoglobulinas","Centro Hospitalar Lisboa Norte, EPE (508481287)","Octapharma, Lda. (502820780)","104.800,00 €",08-11-2012,08-11-2012,2 dias,"Portugal, Lisboa, Lisboa","Artigo 24.º, n.º 1, alínea e) do Código dos Contratos Públicos",,,,,,Não aplicável.,Não aplicável.,
Aquisição de Diversos Reagentes,Ajuste Direto Regime Geral,Aquisição de bens móveis,"33696500-0, Reagentes de laboratório","Centro Hospitalar Lisboa Norte, EPE (508481287)","Biomérieux Portugal, Lda. (501524177)","6.715,30 €",07-11-2012,07-11-2012,1 dias,"Portugal, Lisboa, Lisboa","Artigo 20.º, n.º 1, alínea a) do Código dos Contratos Públicos",,,,,,Não aplicável.,Não aplicável.,
Aquisição de Reagentes,Ajuste Direto Regime Geral,Aquisição de bens móveis,"33696500-0, Reagentes de laboratório","Centro Hospitalar Lisboa Norte, EPE (508481287)","Siemens Healthcare Diagnostics, Lda. (507925173)","7.712,03 €",07-11-2012,07-11-2012,5 dias,"Portugal, Lisboa, Lisboa","Artigo 20.º, n.º 1, alínea a) do Código dos Contratos Públicos",,,,,,Não aplicável.,Não aplicável.,
Aquisição de cardioversor,Ajuste Direto Regime Geral,Aquisição de bens móveis,"33182100-0, Desfibrilhador","Centro Hospitalar Lisboa Norte, EPE (508481287)","St. Jude Medical, Lda. (504180746)","12.680,00 €",07-11-2012,07-11-2012,1 dias,"Portugal, Lisboa, Lisboa","Artigo 20.º, n.º 1, alínea a) do Código dos Contratos Públicos",,,,,,Não aplicável.,Não aplicável.,
Aquisição de Lenalidomina Caps.,Ajuste Direto Regime Geral,Aquisição de bens móveis,"33652000-5, Antineoplásicos e imunomoduladores","Centro Hospitalar Lisboa Norte, EPE (508481287)","Celgene, Lda. (507791690)","19.698,68 €",07-11-2012,07-11-2012,4 dias,"Portugal, Lisboa, Lisboa","Artigo 20.º, n.º 1, alínea a) do Código dos Contratos Públicos",,,,,,Não aplicável.,Não aplicável.,
Aquisição de Trabectedin Inj. 1 Mg.,Ajuste Direto Regime Geral,Aquisição de bens móveis,"33652000-5, Antineoplásicos e imunomoduladores","Centro Hospitalar Lisboa Norte, EPE (508481287)","Movianto Portugal, Lda. (509040411)","5.982,00 €",07-11-2012,07-11-2012,2 dias,"Portugal, Lisboa, Lisboa","Artigo 24.º, n.º 1, alínea e) do Código dos Contratos Públicos",,,,,,Não aplicável.,Não aplicável.,
Aquisitivo de Somatropina Inj. 4 Mg.,Ajuste Direto Regime Geral,Aquisição de bens móveis,"33642100-3, Hormonas hipofisárias, hipotalâmicas e semelhantes","Centro Hospitalar Lisboa Norte, EPE (508481287)","Ferring , Lda. (502034831)","7.002,60 €",07-11-2012,07-11-2012,1 dias,"Portugal, Lisboa, Lisboa","Artigo 24.º, n.º 1, alínea e) do Código dos Contratos Públicos",,,,,,Não aplicável.,Não aplicável.,
Aquisição de Endoprótese Aórtica,Ajuste Direto Regime Geral,Aquisição de bens móveis,"33184500-8, Endopróteses coronárias","Centro Hospitalar Lisboa Norte, EPE (508481287)","Medtronic Portugal, Lda. (504223933)","9.500,00 €",07-11-2012,07-11-2012,1 dias,"Portugal, Lisboa, Lisboa","Artigo 20.º, n.º 1, alínea a) do Código dos Contratos Públicos",,,,,,Não aplicável.,Não aplicável.,
Aquisição de CDI VR,Ajuste Direto Regime Geral,Aquisição de bens móveis,"33182100-0, Desfibrilhador","Centro Hospitalar Lisboa Norte, EPE (508481287)","St. Jude Medical, Lda. (504180746)","11.500,00 €",07-11-2012,07-11-2012,1 dias,"Portugal, Lisboa, Lisboa","Artigo 20.º, n.º 1, alínea a) do Código dos Contratos Públicos",,,,,,Não aplicável.,Não aplicável.,
Aquisição de Endoprótese Aórtica,Ajuste Direto Regime Geral,Aquisição de bens móveis,"33184500-8, Endopróteses coronárias","Centro Hospitalar Lisboa Norte, EPE (508481287)","Medtronic Portugal, Lda. (504223933)","9.500,00 €",07-11-2012,07-11-2012,1 dias,"Portugal, Lisboa, Lisboa","Artigo 20.º, n.º 1, alínea a) do Código dos Contratos Públicos",,,,,,Não aplicável.,Não aplicável.,
Aquisição de Consumíveis de Hemodinâmica,Ajuste Direto Regime Geral,Aquisição de bens móveis,"33141200-2, Cateteres","Centro Hospitalar Lisboa Norte, EPE (508481287)","Abbott Laboratórios, Lda. (500006148)","14.750,00 €",07-11-2012,07-11-2012,1 dias,"Portugal, Lisboa, Lisboa","Artigo 20.º, n.º 1, alínea a) do Código dos Contratos Públicos",,,,,,Não aplicável.,Não aplicável.,
Aquisição de Glutationa Reduzida,Ajuste Direto Regime Geral,Aquisição de bens móveis,"33690000-3, Medicamentos vários","Centro Hospitalar Lisboa Norte, EPE (508481287)","Sanofi, Lda. (500134960)","11.671,79 €",07-11-2012,07-11-2012,1 dias,"Portugal, Lisboa, Lisboa","Artigo 20.º, n.º 1, alínea a) do Código dos Contratos Públicos",,,,,,Não aplicável.,Não aplicável.,
Aquisição de Carboximaltose Ferrica,Ajuste Direto Regime Geral,Aquisição de bens móveis,"33621300-2, Antianémicos","Centro Hospitalar Lisboa Norte, EPE (508481287)","OM Pharma, S.A. (500207410)","7.388,50 €",07-11-2012,07-11-2012,5 dias,"Portugal, Lisboa, Lisboa","Artigo 20.º, n.º 1, alínea a) do Código dos Contratos Públicos",,,,,,Não aplicável.,Não aplicável.,
Aquisição de Nevirapina Comp. 200 Mg.,Ajuste Direto Regime Geral,Aquisição de bens móveis,"33651400-2, Antivíricos de uso sistémico","Centro Hospitalar Lisboa Norte, EPE (508481287)","Unilfarma, Lda. (500293023)","16.320,00 €",07-11-2012,07-11-2012,2 dias,"Portugal, Lisboa, Lisboa","Artigo 24.º, n.º 1, alínea e) do Código dos Contratos Públicos",,,,,,Não aplicável.,Não aplicável.,
Aquisição de Fibrinogenio Humano,Ajuste Direto Regime Geral,Aquisição de bens móveis,"33621200-1, Anti-hemorrágicos","Centro Hospitalar Lisboa Norte, EPE (508481287)","Takeda, Lda. (502801204)","5.040,00 €",07-11-2012,07-11-2012,1 dias,"Portugal, Lisboa, Lisboa","Artigo 20.º, n.º 1, alínea a) do Código dos Contratos Públicos",,,,,,Não aplicável.,Não aplicável.,
Aquisição de Gadobutrol Frs.,Ajuste Direto Regime Geral,Aquisição de bens móveis,"33696000-5, Reagentes e meios de contraste","Centro Hospitalar Lisboa Norte, EPE (508481287)","Bayer Portugal, Lda. (500043256)","11.985,00 €",07-11-2012,07-11-2012,1 dias,"Portugal, Lisboa, Lisboa","Artigo 20.º, n.º 1, alínea a) do Código dos Contratos Públicos",,,,,,Não aplicável.,Não aplicável.,
Aquisição de recargas para agrafadores lin. com corte 75mm TN,Ajuste Direto Regime Geral,Aquisição de bens móveis,"33184200-5, Próteses vasculares","Centro Hospitalar Lisboa Norte, EPE (508481287)","Johnson & Johnson, Lda. (500153370)","10.800,00 €",07-11-2012,07-11-2012,2 dias,"Portugal, Lisboa, Lisboa","Artigo 20.º, n.º 1, alínea a) do Código dos Contratos Públicos",,,,,,Não aplicável.,Não aplicável.,
Aquisição de reagentes,Ajuste Direto Regime Geral,Aquisição de bens móveis,"33696500-0, Reagentes de laboratório","Centro Hospitalar Lisboa Norte, EPE (508481287)","ILC, Lda. (500948208)","25.856,00 €",07-11-2012,05-11-2012,3 dias,"Portugal, Lisboa, Lisboa","Artigo 20.º, n.º 1, alínea a) do Código dos Contratos Públicos",,,,,,Não aplicável.,Não aplicável.,
aquisição de reagentes,Ajuste Direto Regime Geral,Aquisição de bens móveis,"33696200-7, Reagentes para análises ao sangue","Centro Hospitalar Lisboa Norte, EPE (508481287)","Roche, Lda. (504282921)","24.428,00 €",07-11-2012,07-11-2012,3 dias,"Portugal, Lisboa, Lisboa","Artigo 20.º, n.º 1, alínea a) do Código dos Contratos Públicos",,,,,,Não aplicável.,Não aplicável.,
Aquisição de Celulas Liss/Coombs,Ajuste Direto Regime Geral,Aquisição de bens móveis,"33696500-0, Reagentes de laboratório","Centro Hospitalar Lisboa Norte, EPE (508481287)","DiaMed Portuguesa, S.A. (501675809)","8.000,00 €",07-11-2012,07-11-2012,1 dias,"Portugal, Lisboa, Lisboa","Artigo 20.º, n.º 1, alínea a) do Código dos Contratos Públicos",,,,,,Não aplicável.,Não aplicável.,
Aquisição de diversos reagentes,Ajuste Direto Regime Geral,Aquisição de bens móveis,"33696500-0, Reagentes de laboratório","Centro Hospitalar Lisboa Norte, EPE (508481287)","Izasa Portugal, Lda. (501086110)","5.270,75 €",07-11-2012,07-11-2012,1 dias,"Portugal, Lisboa, Lisboa","Artigo 20.º, n.º 1, alínea a) do Código dos Contratos Públicos",,,,,,Não aplicável.,Não aplicável.,
Aquisição de consumíveis de ortopedia,Ajuste Direto Regime Geral,Aquisição de bens móveis,"33141700-7, Material ortopédico","Centro Hospitalar Lisboa Norte, EPE (508481287)","Medtronic Portugal, Lda. (504223933)","7.070,00 €",07-11-2012,07-11-2012,1 dias,"Portugal, Lisboa, Lisboa","Artigo 20.º, n.º 1, alínea a) do Código dos Contratos Públicos",,,,,,Não aplicável.,Não aplicável.,
Aquisição de diversos medicamentos,Ajuste Direto Regime Geral,Aquisição de bens móveis,"33651520-9, Imunoglobulinas","Centro Hospitalar Lisboa Norte, EPE (508481287)","CSL Behring, Lda. (503047201)","74.260,00 €",06-11-2012,06-11-2012,1 dias,"Portugal, Lisboa, Lisboa","Artigo 24.º, n.º 1, alínea e) do Código dos Contratos Públicos",,,,,,Não aplicável.,Não aplicável.,
Aquisição de Factor Von Willbrand 1100 UI c/ Factor VI,Ajuste Direto Regime Geral,Aquisição de bens móveis,"33621200-1, Anti-hemorrágicos","Centro Hospitalar Lisboa Norte, EPE (508481287)","CSL Behring, Lda. (503047201)","30.000,00 €",06-11-2012,02-11-2012,1 dias,"Portugal, Lisboa, Lisboa","Artigo 24.º, n.º 1, alínea e) do Código dos Contratos Públicos",,,,,,Não aplicável.,Não aplicável.,
Aquisição de Imunoglobulina Sol. Inj. 100 Mg./Ml. Fr. 50 Ml.,Ajuste Direto Regime Geral,Aquisição de bens móveis,"33651520-9, Imunoglobulinas","Centro Hospitalar Lisboa Norte, EPE (508481287)","CSL Behring, Lda. (503047201)","26.250,00 €",06-11-2012,02-11-2012,1 dias,"Portugal, Lisboa, Lisboa","Artigo 24.º, n.º 1, alínea e) do Código dos Contratos Públicos",,,,,,Não aplicável.,Não aplicável.,
Aquisição de Efavirenze 600 Mg + Entricitabina 200 Mg + Tenofovir 245 Mg.,Ajuste Direto Regime Geral,Aquisição de bens móveis,"33651400-2, Antivíricos de uso sistémico","Centro Hospitalar Lisboa Norte, EPE (508481287)","Gilead Sciences, Lda. (503604704)","106.576,89 €",06-11-2012,06-11-2012,2 dias,"Portugal, Lisboa, Lisboa","Artigo 24.º, n.º 1, alínea e) do Código dos Contratos Públicos",,,,,,Não aplicável.,Não aplicável.,
Aquisição de Complexo anti-inibidores de coagulação Inj. 1000 UI,Ajuste Direto Regime Geral,Aquisição de bens móveis,"33621200-1, Anti-hemorrágicos","Centro Hospitalar Lisboa Norte, EPE (508481287)","Baxter, Lda. (503347345)","123.900,00 €",06-11-2012,06-11-2012,1 dias,"Portugal, Lisboa, Lisboa","Artigo 24.º, n.º 1, alínea e) do Código dos Contratos Públicos",,,,,,Não aplicável.,Não aplicável.,
Aquisição de Neuroestimulador/programador de raizes sagradas,Ajuste Direto Regime Geral,Aquisição de bens móveis,"33158210-7, Estimulador","Centro Hospitalar Lisboa Norte, EPE (508481287)","Medtronic Portugal, Lda. (504223933)","13.900,00 €",06-11-2012,06-11-2012,3 dias,"Portugal, Lisboa, Lisboa","Artigo 20.º, n.º 1, alínea a) do Código dos Contratos Públicos",,,,,,Não aplicável.,Não aplicável.,
Aquisição de Stents e Microguia,Ajuste Direto Regime Geral,Aquisição de bens móveis,"33184200-5, Próteses vasculares","Centro Hospitalar Lisboa Norte, EPE (508481287)","Biomédica, Lda. (501745459)","17.750,00 €",06-11-2012,06-11-2012,1 dias,"Portugal, Lisboa, Lisboa","Artigo 20.º, n.º 1, alínea a) do Código dos Contratos Públicos",,,,,,Não aplicável.,Não aplicável.,
Aquisição de Material de Ortopedia,Ajuste Direto Regime Geral,Aquisição de bens móveis,"33183100-7, Implantes ortopédicos","Centro Hospitalar Lisboa Norte, EPE (508481287)","Johnson & Johnson, Lda. (500153370)","9.480,00 €",06-11-2012,06-11-2012,1 dias,"Portugal, Lisboa, Lisboa","Artigo 21.º, n.º 1, alínea a) do Código dos Contratos Públicos",,,,,,Não aplicável.,Não aplicável.,
Aquisição de Reagentes,Ajuste Direto Regime Geral,Aquisição de bens móveis,"33696500-0, Reagentes de laboratório","Centro Hospitalar Lisboa Norte, EPE (508481287)","Izasa Portugal, Lda. (501086110)","14.520,19 €",05-11-2012,02-11-2012,1 dias,"Portugal, Lisboa, Lisboa","Artigo 20.º, n.º 1, alínea a) do Código dos Contratos Públicos",,,,,,Não aplicável.,Não aplicável.,
Aquisição Interferão Beta 1 A Sol. Inj. 24 MUI/Ml,Ajuste Direto Regime Geral,Aquisição de bens móveis,"33652000-5, Antineoplásicos e imunomoduladores","Centro Hospitalar Lisboa Norte, EPE (508481287)",Merck S.A. (500650870),"121.199,40 €",05-11-2012,30-10-2012,1 dias,"Portugal, Lisboa, Lisboa","Artigo 24.º, n.º 1, alínea e) do Código dos Contratos Públicos",,,,,,Não aplicável.,Não aplicável.,
Aquisição de Inibidor de Alfa 1 Proteinase Inj. 1000 Mg.,Ajuste Direto Regime Geral,Aquisição de bens móveis,"33690000-3, Medicamentos vários","Centro Hospitalar Lisboa Norte, EPE (508481287)","Grifols Portugal, Lda. (502041285)","71.680,00 €",02-11-2012,30-10-2012,1 dias,"Portugal, Lisboa, Lisboa","Artigo 24.º, n.º 1, alínea e) do Código dos Contratos Públicos",,,,,,Não aplicável.,Não aplicável.,
Aquisição de Reagentes para o Serviço de Anatomia Patologica,Ajuste Direto Regime Geral,Aquisição de bens móveis,"33696500-0, Reagentes de laboratório","Centro Hospitalar Lisboa Norte, EPE (508481287)","Hologic Ibéria, S.L. (B83279331)","14.550,53 €",02-11-2012,02-11-2012,7 dias,"Portugal, Lisboa, Lisboa","Artigo 20.º, n.º 1, alínea a) do Código dos Contratos Públicos",,,,,,Não aplicável.,Não aplicável.,
Aquisição de NTBC Caps. 5 Mg.,Ajuste Direto Regime Geral,Aquisição de bens móveis,"33692200-9, Produtos para nutrição parenteral","Centro Hospitalar Lisboa Norte, EPE (508481287)",Swedish Orphan International Spain (B84710623),"24.511,50 €",02-11-2012,02-11-2012,3 dias,"Portugal, Lisboa, Lisboa","Artigo 24.º, n.º 1, alínea e) do Código dos Contratos Públicos",,,,,,Não aplicável.,Não aplicável.,
Aquisição de Sol. Acida p/ Hemodiálise ( F-22/C1) - (Sol. 293) saco 5L,Ajuste Direto Regime Geral,Aquisição de bens móveis,"33692500-2, Soluções injectáveis","Centro Hospitalar Lisboa Norte, EPE (508481287)",Gambro Lundia AB (980367751),"5.832,00 €",02-11-2012,02-11-2012,1 dias,"Portugal, Lisboa, Lisboa","Artigo 24.º, n.º 1, alínea e) do Código dos Contratos Públicos",,,,,,Não aplicável.,Não aplicável.,
Aquisição de Treprostenil 20 mg./20 Ml. inj.,Ajuste Direto Regime Geral,Aquisição de bens móveis,"33622000-6, Medicamentos para o aparelho cardiovascular","Centro Hospitalar Lisboa Norte, EPE (508481287)","DLA Farmacêutica, S.A. (503894427)","5.440,28 €",02-11-2012,02-11-2012,1 dias,"Portugal, Lisboa, Lisboa","Artigo 24.º, n.º 1, alínea e) do Código dos Contratos Públicos",,,,,,Não aplicável.,Não aplicável.,
Aquisição de Betaina Po Oral Fr. 180 Gr.,Ajuste Direto Regime Geral,Aquisição de bens móveis,"33690000-3, Medicamentos vários","Centro Hospitalar Lisboa Norte, EPE (508481287)","Orphan Europe Portugal, Lda. (507966953)","6.720,00 €",02-11-2012,02-11-2012,5 dias,"Portugal, Lisboa, Lisboa","Artigo 24.º, n.º 1, alínea e) do Código dos Contratos Públicos",,,,,,Não aplicável.,Não aplicável.,
Aquisição de Icatibant Sol. Inj. 30 Mg./3 Ml.,Ajuste Direto Regime Geral,Aquisição de bens móveis,"33621200-1, Anti-hemorrágicos","Centro Hospitalar Lisboa Norte, EPE (508481287)","Shire Pharmaceuticals, Lda. (509264662)","15.594,90 €",02-11-2012,31-10-2012,2 dias,"Portugal, Lisboa, Lisboa","Artigo 24.º, n.º 1, alínea e) do Código dos Contratos Públicos",,,,,,Não aplicável.,Não aplicável.,
Aquisição de Oxido Nitrico,Ajuste Direto Regime Geral,Aquisição de bens móveis,"24111500-0, Gases médicos","Centro Hospitalar Lisboa Norte, EPE (508481287)","Air Liquide Medicinal, S.A. (501576436)","8.430,00 €",31-10-2012,31-10-2012,1 dias,"Portugal, Lisboa, Lisboa","Artigo 24.º, n.º 1, alínea e) do Código dos Contratos Públicos",,,,,,Não aplicável.,Não aplicável.,
Aquisição de Consumíveis para Serviço de Urologia,Ajuste Direto Regime Geral,Aquisição de bens móveis,"33158210-7, Estimulador","Centro Hospitalar Lisboa Norte, EPE (508481287)","Medtronic Portugal, Lda. (504223933)","12.650,00 €",31-10-2012,31-10-2012,3 dias,"Portugal, Lisboa, Lisboa","Artigo 20.º, n.º 1, alínea a) do Código dos Contratos Públicos",,,,,,Não aplicável.,Não aplicável.,
