Objeto do Contrato,Tipo de Procedimento,Tipo(s) de Contrato,CPVs,Entidade(s) Adjudicante(s),Entidade(s) Adjudicatária(s),Preço Contratual,Data de Publicação,Data de Celebração do Contrato,Prazo de Execução,Local de Execução,Fundamentação,Data de Fecho do Contrato,Preço Total Efetivo,Causas das Alterações ao Prazo,Causas das Alterações ao Preço,Estado,N.º registo do Acordo Quadro,Descrição do Acordo Quadro,Procedimento Centralizado
Aluguer de dispositivo sanitário para a passagem de ano para a USF Nazaré,Ajuste Direto Regime Geral,Aquisição de serviços,"75252000-7, Serviços de socorro","Administração Regional de Saúde de Lisboa e Vale do Tejo, I. P. (503148776)",CENTRO HUMANITÁRIO DO BAIXO MONDEGO DA CRUZ VERMELHA DE PEREIRA (500745749),"19.845,00 €",10-01-2019,27-12-2018,5 dias,"Portugal, Leiria, Nazaré","Artigo 20.º, n.º 1, alínea d) do Código dos Contratos Públicos",,,,,,Não aplicável.,Não aplicável.,FALSE
Aquisição de equipamento médico para US Mafra Norte,Ao abrigo de acordo-quadro (art.º 259.º),Aquisição de bens móveis,"33100000-1, Equipamento médico","Administração Regional de Saúde de Lisboa e Vale do Tejo, I. P. (503148776)","Anastácio Saldanha, Unipessoal, Lda (505804441)","544,95 €",10-01-2019,28-12-2018,5 dias,"Portugal, Lisboa, Mafra",Artigo 259.º do Código dos Contratos Públicos,,,,,,1587913,Acordo Quadro para fornecimento de Equipamentos e Dispositivos Médicos de uso comum em internamento e ambulatório - Parte I às instituições e serviços do Serviço Nacional de Saúde.,FALSE
Aquisição de equipamento médico para US Mafra Norte,Ao abrigo de acordo-quadro (art.º 259.º),Aquisição de bens móveis,"33100000-1, Equipamento médico","Administração Regional de Saúde de Lisboa e Vale do Tejo, I. P. (503148776)","Bastos Viegas, S.A. (500042772)","1.856,40 €",10-01-2019,28-12-2018,5 dias,"Portugal, Lisboa, Mafra",Artigo 259.º do Código dos Contratos Públicos,,,,,,1587913,Acordo Quadro para fornecimento de Equipamentos e Dispositivos Médicos de uso comum em internamento e ambulatório - Parte I às instituições e serviços do Serviço Nacional de Saúde.,FALSE
Aquisição de equipamento médico para US Mafra Norte,Ao abrigo de acordo-quadro (art.º 259.º),Aquisição de bens móveis,"33100000-1, Equipamento médico","Administração Regional de Saúde de Lisboa e Vale do Tejo, I. P. (503148776)","Cenatolim, Lda. (507397924)","1.136,86 €",10-01-2019,28-12-2018,5 dias,"Portugal, Lisboa, Mafra",Artigo 259.º do Código dos Contratos Públicos,,,,,,1587913,Acordo Quadro para fornecimento de Equipamentos e Dispositivos Médicos de uso comum em internamento e ambulatório - Parte I às instituições e serviços do Serviço Nacional de Saúde.,FALSE
Aquisição de equipamento médico para US Mafra Norte,Ao abrigo de acordo-quadro (art.º 259.º),Aquisição de bens móveis,"33100000-1, Equipamento médico","Administração Regional de Saúde de Lisboa e Vale do Tejo, I. P. (503148776)","HR - Hospitalar, Unipessoal, Lda. (501895558)","39,12 €",10-01-2019,28-12-2018,5 dias,"Portugal, Lisboa, Mafra",Artigo 259.º do Código dos Contratos Públicos,,,,,,1587913,Acordo Quadro para fornecimento de Equipamentos e Dispositivos Médicos de uso comum em internamento e ambulatório - Parte I às instituições e serviços do Serviço Nacional de Saúde.,FALSE
Aquisição de equipamento médico para US Mafra Norte,Ao abrigo de acordo-quadro (art.º 259.º),Aquisição de bens móveis,"33100000-1, Equipamento médico","Administração Regional de Saúde de Lisboa e Vale do Tejo, I. P. (503148776)","Clinifar, S.A. (503281115)","2.798,00 €",10-01-2019,28-12-2018,5 dias,"Portugal, Lisboa, Mafra",Artigo 259.º do Código dos Contratos Públicos,,,,,,1587913,Acordo Quadro para fornecimento de Equipamentos e Dispositivos Médicos de uso comum em internamento e ambulatório - Parte I às instituições e serviços do Serviço Nacional de Saúde.,FALSE
Aquisição de equipamento médico para US Mafra Norte,Ao abrigo de acordo-quadro (art.º 259.º),Aquisição de bens móveis,"33100000-1, Equipamento médico","Administração Regional de Saúde de Lisboa e Vale do Tejo, I. P. (503148776)","Bacelar & Irmão, Lda. (500532818)","2.198,00 €",10-01-2019,28-12-2018,5 dias,"Portugal, Lisboa, Mafra",Artigo 259.º do Código dos Contratos Públicos,,,,,,1587913,Acordo Quadro para fornecimento de Equipamentos e Dispositivos Médicos de uso comum em internamento e ambulatório - Parte I às instituições e serviços do Serviço Nacional de Saúde.,FALSE
Aquisição de equipamento médico para US Mafra Norte,Ao abrigo de acordo-quadro (art.º 259.º),Aquisição de bens móveis,"33100000-1, Equipamento médico","Administração Regional de Saúde de Lisboa e Vale do Tejo, I. P. (503148776)","EPJMédica - Artigos Médicos e Hospitalares, Lda. (506820513)","9.437,50 €",10-01-2019,28-12-2018,5 dias,"Portugal, Lisboa, Mafra",Artigo 259.º do Código dos Contratos Públicos,,,,,,1587913,Acordo Quadro para fornecimento de Equipamentos e Dispositivos Médicos de uso comum em internamento e ambulatório - Parte I às instituições e serviços do Serviço Nacional de Saúde.,FALSE
Aquisição de equipamento médico para US Mafra Norte,Ao abrigo de acordo-quadro (art.º 259.º),Aquisição de bens móveis,"33100000-1, Equipamento médico","Administração Regional de Saúde de Lisboa e Vale do Tejo, I. P. (503148776)","Dimor Lusitana, Lda. (500730741)","2.820,20 €",10-01-2019,28-12-2018,5 dias,"Portugal, Lisboa, Mafra",Artigo 259.º do Código dos Contratos Públicos,,,,,,1587913,Acordo Quadro para fornecimento de Equipamentos e Dispositivos Médicos de uso comum em internamento e ambulatório - Parte I às instituições e serviços do Serviço Nacional de Saúde.,FALSE
"Aquisição de mobiliário para a Unidade de Saúde de Peniche ao abrigo do Lote 1, 2, 3, 5, 12 e 13 da Espap",Ao abrigo de acordo-quadro (art.º 259.º),Aquisição de bens móveis,"39100000-3, Mobiliário","Administração Regional de Saúde de Lisboa e Vale do Tejo, I. P. (503148776)","Tripolo - Soluções de Escritório e Armazenagem, Lda. (501264124)","25.492,00 €",10-01-2019,03-01-2019,60 dias,"Portugal, Leiria, Peniche",Artigo 259.º do Código dos Contratos Públicos,,,,,,1260651,Acordo quadro de fornecimento de mobiliário,FALSE
"Aquisição de mobiliário para a Unidade de Saúde de Peniche ao abrigo do Lote 1, 2, 3, 5, 12 e 13 da Espap",Ao abrigo de acordo-quadro (art.º 259.º),Aquisição de bens móveis,"39100000-3, Mobiliário","Administração Regional de Saúde de Lisboa e Vale do Tejo, I. P. (503148776)","Nautilus, S.A. (503653179)","895,22 €",10-01-2019,03-01-2019,60 dias,"Portugal, Leiria, Peniche",Artigo 259.º do Código dos Contratos Públicos,,,,,,1260651,Acordo quadro de fornecimento de mobiliário,FALSE
"Aquisição de mobiliário para a Unidade de Saúde de Peniche ao abrigo do Lote 1, 2, 3, 5, 12 e 13 da Espap",Ao abrigo de acordo-quadro (art.º 259.º),Aquisição de bens móveis,"39100000-3, Mobiliário","Administração Regional de Saúde de Lisboa e Vale do Tejo, I. P. (503148776)","Julcar - Mobiliário Integrado, SA. (501140263)","18.765,00 €",10-01-2019,03-01-2019,60 dias,"Portugal, Leiria, Peniche",Artigo 259.º do Código dos Contratos Públicos,,,,,,1260651,Acordo quadro de fornecimento de mobiliário,FALSE
"Aquisição de mobiliário para a Unidade de Saúde Almargem do Bispo ao abrigo do Lote 1, 3, 5, 10 e 13 do Acordo Quadro da Espap",Ao abrigo de acordo-quadro (art.º 259.º),Aquisição de bens móveis,"39100000-3, Mobiliário","Administração Regional de Saúde de Lisboa e Vale do Tejo, I. P. (503148776)","Nautilus, SA. (503653179)","371,80 €",10-01-2019,28-12-2018,60 dias,"Portugal, Lisboa, Sintra",Artigo 259.º do Código dos Contratos Públicos,,,,,,1260651,Acordo quadro de fornecimento de mobiliário,FALSE
"Aquisição de mobiliário para a Unidade de Saúde Almargem do Bispo ao abrigo do Lote 1, 3, 5, 10 e 13 do Acordo Quadro da Espap",Ao abrigo de acordo-quadro (art.º 259.º),Aquisição de bens móveis,"39100000-3, Mobiliário","Administração Regional de Saúde de Lisboa e Vale do Tejo, I. P. (503148776)","Tripolo - Soluções de Escritório e Armazenagem, Lda. (501264124)","4.713,00 €",10-01-2019,28-12-2018,60 dias,"Portugal, Lisboa, Sintra",Artigo 259.º do Código dos Contratos Públicos,,,,,,1260651,Acordo quadro de fornecimento de mobiliário,FALSE
"Aquisição de mobiliário para a Unidade de Saúde Almargem do Bispo ao abrigo do Lote 1, 3, 5, 10 e 13 do Acordo Quadro da Espap",Ao abrigo de acordo-quadro (art.º 259.º),Aquisição de bens móveis,"39100000-3, Mobiliário","Administração Regional de Saúde de Lisboa e Vale do Tejo, I. P. (503148776)","Julcar - Mobiliário Integrado, SA. (501140263)","8.133,00 €",10-01-2019,28-12-2018,60 dias,"Portugal, Lisboa, Sintra",Artigo 259.º do Código dos Contratos Públicos,,,,,,1260651,Acordo quadro de fornecimento de mobiliário,FALSE
"AJUSTE DIRETO PARA AQUISIÇÃO DE SERVIÇO DE REESTRUTURAÇÃO DA PLATAFORMA E-LEARNING “MOODLE” DA ADMINISTRAÇÃO REGIONAL DE SAÚDE DE LISBOA E VALE DO TEJO, I.P.",Ajuste Direto Regime Geral,Aquisição de serviços,"72260000-5, Serviços relacionados com software",Adm.Reg.de Saúde de Lisboa e Vale do Tejo (ARSLVT) (503148776),ED-ROM-PROD. CONTEÚDOS MULTIMÉDIA (506561054),"5.359,00 €",09-01-2019,16-11-2018,43 dias,Portugal,"Artigo 20.º, n.º 1, alínea d) do Código dos Contratos Públicos",,,,,,Não aplicável.,Não aplicável.,TRUE
Aquisição de bolsa de horas para intervenção nas centrais telefónicas analógicas,Ajuste Direto Regime Geral,Aquisição de serviços,"50312000-5, Manutenção e reparação de equipamento informático",Adm.Reg.de Saúde de Lisboa e Vale do Tejo (ARSLVT) (503148776),"NPROVIT-INFORMATICA E SERV.UNIPESSOAL,LDA. (513980369)","11.250,00 €",09-01-2019,02-10-2018,98 dias,Portugal,"Artigo 20.º, n.º 1, alínea d) do Código dos Contratos Públicos",,,,,,Não aplicável.,Não aplicável.,FALSE
Aquisição de equipamento médico para as Unidades de Saúde Venteira e Águas Livre (Aces Amadora),Ao abrigo de acordo-quadro (art.º 259.º),Aquisição de bens móveis,"33100000-1, Equipamento médico","Administração Regional de Saúde de Lisboa e Vale do Tejo, I. P. (503148776)","Dimor Lusitania, Lda. (500730741)","160,00 €",08-01-2019,21-12-2018,5 dias,"Portugal, Lisboa, Amadora",Artigo 259.º do Código dos Contratos Públicos,,,,,,1587913,Acordo Quadro para fornecimento de Equipamentos e Dispositivos Médicos de uso comum em internamento e ambulatório - Parte I às instituições e serviços do Serviço Nacional de Saúde.,FALSE
Aquisição de equipamento médico para as Unidades de Saúde Venteira e Águas Livre (Aces Amadora),Ao abrigo de acordo-quadro (art.º 259.º),Aquisição de bens móveis,"33100000-1, Equipamento médico","Administração Regional de Saúde de Lisboa e Vale do Tejo, I. P. (503148776)","Bastos Viegas, SA. (500042772)","484,00 €",08-01-2019,21-12-2018,5 dias,"Portugal, Lisboa, Amadora",Artigo 259.º do Código dos Contratos Públicos,,,,,,1587913,Acordo Quadro para fornecimento de Equipamentos e Dispositivos Médicos de uso comum em internamento e ambulatório - Parte I às instituições e serviços do Serviço Nacional de Saúde.,FALSE
Aquisição de equipamento médico para as Unidades de Saúde Venteira e Águas Livre (Aces Amadora),Ao abrigo de acordo-quadro (art.º 259.º),Aquisição de bens móveis,"33100000-1, Equipamento médico","Administração Regional de Saúde de Lisboa e Vale do Tejo, I. P. (503148776)","Bramédica, Lda. (508560152)","235,30 €",08-01-2019,21-12-2018,5 dias,"Portugal, Lisboa, Amadora",Artigo 259.º do Código dos Contratos Públicos,,,,,,1587913,Acordo Quadro para fornecimento de Equipamentos e Dispositivos Médicos de uso comum em internamento e ambulatório - Parte I às instituições e serviços do Serviço Nacional de Saúde.,FALSE
Aquisição de equipamento médico para as Unidades de Saúde Venteira e Águas Livre (Aces Amadora),Ao abrigo de acordo-quadro (art.º 259.º),Aquisição de bens móveis,"33100000-1, Equipamento médico","Administração Regional de Saúde de Lisboa e Vale do Tejo, I. P. (503148776)","HR - Hospitalar, Unipessoal, Lda. (501895558)","32,60 €",08-01-2019,21-12-2018,5 dias,"Portugal, Lisboa, Amadora",Artigo 259.º do Código dos Contratos Públicos,,,,,,1587913,Acordo Quadro para fornecimento de Equipamentos e Dispositivos Médicos de uso comum em internamento e ambulatório - Parte I às instituições e serviços do Serviço Nacional de Saúde.,FALSE
Aquisição de equipamento médico para as Unidades de Saúde Venteira e Águas Livre (Aces Amadora),Ao abrigo de acordo-quadro (art.º 259.º),Aquisição de bens móveis,"33100000-1, Equipamento médico","Administração Regional de Saúde de Lisboa e Vale do Tejo, I. P. (503148776)","Bacelar & Irmão, Lda. (500532818)","9.246,28 €",08-01-2019,21-12-2018,5 dias,"Portugal, Lisboa, Amadora",Artigo 259.º do Código dos Contratos Públicos,,,,,,1587913,Acordo Quadro para fornecimento de Equipamentos e Dispositivos Médicos de uso comum em internamento e ambulatório - Parte I às instituições e serviços do Serviço Nacional de Saúde.,FALSE
Aquisição de equipamento médico para as Unidades de Saúde Venteira e Águas Livre (Aces Amadora),Ao abrigo de acordo-quadro (art.º 259.º),Aquisição de bens móveis,"33100000-1, Equipamento médico","Administração Regional de Saúde de Lisboa e Vale do Tejo, I. P. (503148776)","Cenatolim, Lda. (507397924)","3.821,12 €",08-01-2019,21-12-2018,5 dias,"Portugal, Lisboa, Amadora",Artigo 259.º do Código dos Contratos Públicos,,,,,,1587913,Acordo Quadro para fornecimento de Equipamentos e Dispositivos Médicos de uso comum em internamento e ambulatório - Parte I às instituições e serviços do Serviço Nacional de Saúde.,FALSE
Aquisição de cadeiras de rodas para US Mafra Norte,Ao abrigo de acordo-quadro (art.º 259.º),Aquisição de bens móveis,"33193120-6, Cadeiras de rodas","Administração Regional de Saúde de Lisboa e Vale do Tejo, I. P. (503148776)","Quilaban - Quimica Loboratorial Analítica, SA. (500399670)","734,70 €",08-01-2019,03-01-2019,5 dias,"Portugal, Lisboa, Mafra",Artigo 259.º do Código dos Contratos Públicos,,,,,,2159355,CP 2016/84 - Acordo quadro para fornecimento de Cadeiras de Rodas para uso em meio hospitalar às Instituições e Serviços do Serviço Nacional de Saúde,FALSE
Aquisição de material clinico instrumental e consumível,Concurso público,Aquisição de bens móveis,"33140000-3, Material médico de consumo","Administração Regional de Saúde de Lisboa e Vale do Tejo, I. P. (503148776)","Dotamed São João - Produtos Médico-Dentários, Lda. (509381111)","13.537,50 €",08-01-2019,03-01-2019,10 dias,"Portugal, Lisboa, Lisboa","Artigo 20.º, n.º 1, alínea b) do Código dos Contratos Públicos",,,,,,Não aplicável.,Não aplicável.,FALSE
Aquisição de material médico instrumental e consumível,Concurso público,Aquisição de bens móveis,"33140000-3, Material médico de consumo","Administração Regional de Saúde de Lisboa e Vale do Tejo, I. P. (503148776)","Arlindo Manuel Almeida Carvalho - Comércio, Importação, Exportação de Materiais, Equipamentos Médicos e Dentários Unipessoal Lda. (509446540)","69.117,50 €",08-01-2019,03-01-2019,10 dias,"Portugal, Lisboa, Lisboa","Artigo 20.º, n.º 1, alínea b) do Código dos Contratos Públicos",,,,,,Não aplicável.,Não aplicável.,FALSE
Aquisição de eletricidade ao abrigo de acordo quadro para o ano de 2019,Ao abrigo de acordo-quadro (art.º 259.º),Aquisição de bens móveis,"09310000-5, Electricidade","Administração Regional de Saúde de Lisboa e Vale do Tejo, I. P. (503148776)","Iberdrola Clientes Portugal, Unipessoal, Lda (502124083)","3.832.602,66 €",07-01-2019,28-12-2018,365 dias,"Portugal, Lisboa",Artigo 259.º do Código dos Contratos Públicos,,,,,,1494502,Acordo quadro para o fornecimento de eletricidade em regime de mercado livre para Portugal Continental,FALSE
Serviço de acesso à Internet,Ajuste Direto Regime Geral,Aquisição de serviços,"50100000-6, Serviços de reparação e manutenção de veículos e equipamento afim, e serviços conexos","Administração Regional de Saúde de Lisboa e Vale do Tejo, I. P. (503148776)",WINTEAM - SISTEMAS DE ENGENHARIA (505150417),"5.631,25 €",04-01-2019,26-12-2018,5 dias,Portugal,"Artigo 20.º, n.º 1, alínea d) do Código dos Contratos Públicos",,,,,,Não aplicável.,Não aplicável.,FALSE
Aquisição de serviço de rastreio retinopatia diabética,Ajuste Direto Regime Geral,Aquisição de serviços,"72300000-8, Serviços relacionados com dados",Adm.Reg.de Saúde de Lisboa e Vale do Tejo (ARSLVT) (503148776),"RETMARKER, S.A. (508805759)","41.250,00 €",04-01-2019,11-12-2018,20 dias,Portugal,"Artigo 24.º, n.º 1, alínea e), subalínea ii) do Código dos Contratos Públicos",,,,,,Não aplicável.,Não aplicável.,FALSE
"Aquisição de equipamento médico para o """"Projeto de diagnóstico de doença pulmonar"""" para o Aces Estuário do Tejo",Ao abrigo de acordo-quadro (art.º 259.º),Aquisição de bens móveis,"33600000-6, Produtos farmacêuticos","Administração Regional de Saúde de Lisboa e Vale do Tejo, I. P. (503148776)","BASTOS VIEGAS, SA (500042772)","350,60 €",02-01-2019,21-12-2018,5 dias,"Portugal, Lisboa, Vila Franca de Xira",Artigo 259.º do Código dos Contratos Públicos,,,,,,1587913,Acordo Quadro para fornecimento de Equipamentos e Dispositivos Médicos de uso comum em internamento e ambulatório - Parte I às instituições e serviços do Serviço Nacional de Saúde.,FALSE
"Aquisição de equipamento médico para o """"Projeto de diagnóstico de doença pulmonar"""" para o Aces Estuário do Tejo",Ao abrigo de acordo-quadro (art.º 259.º),Aquisição de bens móveis,"33600000-6, Produtos farmacêuticos","Administração Regional de Saúde de Lisboa e Vale do Tejo, I. P. (503148776)","Bacelar & Irmão, Lda. (500532818)","1.120,00 €",02-01-2019,21-12-2018,5 dias,"Portugal, Lisboa, Vila Franca de Xira",Artigo 259.º do Código dos Contratos Públicos,,,,,,1587913,Acordo Quadro para fornecimento de Equipamentos e Dispositivos Médicos de uso comum em internamento e ambulatório - Parte I às instituições e serviços do Serviço Nacional de Saúde.,FALSE
"Aquisição de serviços médicos sem especialidade para a ARSLVT, IP",Ajuste Direto Regime Geral,Aquisição de serviços,"85141000-9, Serviços prestados pelo pessoal médico","Administração Regional de Saúde de Lisboa e Vale do Tejo, I. P. (503148776)",Margarida Isabel Batista dos Santos (237892600),"2.800,00 €",02-01-2019,29-11-2018,47 dias,Portugal,"Artigo 20.º, n.º 1, alínea d) do Código dos Contratos Públicos",,,,,,Não aplicável.,Não aplicável.,FALSE
"AQUISIÇÃO DE MOBILIÁRIO PARA ACES LEZIRIA, ET ALMADA E ET AMADORA AO ABRIGO DO LOTE 1 DO ACORDO QUADRO DA ESPAP PARA A ADMINISTRAÇÃO REGIONAL DE SAÚDE DE LISBOA E VALE DO TEJO I.P",Ao abrigo de acordo-quadro (art.º 259.º),Aquisição de bens móveis,"39110000-6, Assentos, cadeiras e produtos afins e peças associadas","Administração Regional de Saúde de Lisboa e Vale do Tejo, I. P. (SNCP) (503148776)","Julcar - Mobiliário Integrado, SA. (501140263)","11.757,00 €",02-01-2019,28-12-2018,20 dias,Portugal,Artigo 259.º do Código dos Contratos Públicos,,,,,,1260651,Acordo quadro de fornecimento de mobiliário,TRUE
EQUIPAMENTRO DIVERSO PARA US VENTEIRA E AGUAS LIVRES AMADORA,Consulta Prévia,Aquisição de bens móveis,"39300000-5, Equipamento diverso",Adm.Reg.de Saúde de Lisboa e Vale do Tejo (ARSLVT) (503148776),Salutec (506380408),"9.941,25 €",02-01-2019,20-12-2018,20 dias,"Portugal, Lisboa, Amadora","Artigo 20.º, n.º 1, alínea c) do Código dos Contratos Públicos",,,,,,Não aplicável.,Não aplicável.,FALSE
EQUIPAMENTRO DIVERSO PARA US VENTEIRA E AGUAS LIVRES AMADORA,Consulta Prévia,Aquisição de bens móveis,"39300000-5, Equipamento diverso",Adm.Reg.de Saúde de Lisboa e Vale do Tejo (ARSLVT) (503148776),"Filsat - Equipamentos Médicos Científicos, Lda. (506708616)","429,00 €",02-01-2019,20-12-2018,20 dias,"Portugal, Lisboa, Amadora","Artigo 20.º, n.º 1, alínea c) do Código dos Contratos Públicos",,,,,,Não aplicável.,Não aplicável.,FALSE
