Objeto do Contrato,Tipo de Procedimento,Tipo(s) de Contrato,CPVs,Entidade(s) Adjudicante(s),Entidade(s) Adjudicatária(s),Preço Contratual,Data de Publicação,Data de Celebração do Contrato,Prazo de Execução,Local de Execução,Fundamentação,Data de Fecho do Contrato,Preço Total Efetivo,Causas das Alterações ao Prazo,Causas das Alterações ao Preço,Estado,N.º registo do Acordo Quadro,Descrição do Acordo Quadro,Procedimento Centralizado
Aquisição de serviços de manutenção da aplicação de gestão documental IportalDOC e dos servidores Ipbrick,Ajuste Direto Regime Geral,Aquisição de serviços,"72500000-0, Serviços relacionados com a informática","SPMS - Serviços Partilhados do Ministério da Saúde, E. P. E. (509540716)","IPBRICK, S. A. (504837958)","9.900,00 €",29-01-2016,18-12-2015,365 dias,Portugal,"Artigo 20.º, n.º 1, alínea a) do Código dos Contratos Públicos",,,,,,Não aplicável.,Não aplicável.,FALSE
Aquisição de serviços de suporte a produtos Microsoft - Premier Suport,Ajuste Direto Regime Geral,Aquisição de serviços,"72261000-2, Serviços de assistência em matéria de software","SPMS - Serviços Partilhados do Ministério da Saúde, E. P. E. (509540716)","MSFT - Software para Microcomputadores, Lda. (502586745)","132.000,00 €",28-01-2016,17-12-2015,365 dias,Portugal,"Artigo 24.º, n.º 1, alínea e) do Código dos Contratos Públicos",,,,,,Não aplicável.,Não aplicável.,FALSE
Aquisição de serviços jurídicos,Ajuste Direto Regime Geral,Aquisição de serviços,"79100000-5, Serviços jurídicos","SPMS - Serviços Partilhados do Ministério da Saúde, E. P. E. (509540716)","Miranda & Associados - Sociedade de Advogados, RL (505701839)","67.500,00 €",28-01-2016,21-12-2015,365 dias,Portugal,"Artigo 27.º, n.º 1, alínea b) do Código dos Contratos Públicos",,,,,,Não aplicável.,Não aplicável.,FALSE
Aquisição de serviços de configuração de uma solução IVR,Ajuste Direto Regime Geral,Aquisição de serviços,"72500000-0, Serviços relacionados com a informática","SPMS - Serviços Partilhados do Ministério da Saúde, E. P. E. (509540716)","NOS Comunicações, S. A. (502604751)","41.055,00 €",27-01-2016,18-09-2015,365 dias,"Portugal, Porto, Porto","Artigo 20.º, n.º 4 do Código dos Contratos Públicos",,,,,,Não aplicável.,Não aplicável.,FALSE
