Objeto do Contrato,Tipo de Procedimento,Tipo(s) de Contrato,CPVs,Entidade(s) Adjudicante(s),Entidade(s) Adjudicatária(s),Preço Contratual,Data de Publicação,Data de Celebração do Contrato,Prazo de Execução,Local de Execução,Fundamentação,Data de Fecho do Contrato,Preço Total Efetivo,Causas das Alterações ao Prazo,Causas das Alterações ao Preço,Estado,N.º registo do Acordo Quadro,Descrição do Acordo Quadro,Procedimento Centralizado
Reparação / substituição do revestimento exterior do edificio,Ajuste Direto Regime Geral,Empreitadas de obras públicas,"45262650-2, Obras de revestimento","Administração Regional de Saúde do Norte,IP (ARSN) (503135593)","Jose Manuel Pinto & Ribeiro, Lda. (502740639)","21.326,93 €",20-04-2018,02-10-2017,90 dias,"Portugal, Braga, Barcelos","Artigo 19.º, alínea a) do Código dos Contratos Públicos","","21.326,93 €",Obras a realizar no exterior condicionadas pelas condições climatéricas,"",,Não aplicável.,Não aplicável.,FALSE
Aquisição de bens - Gases Medicinais no âmbito do CPA 2013/030 do ano de 2016 adjudicado à empresa Gasin Unipessoal Lda - destinados ao fornecimento da ARS Norte I.P,Ao abrigo de acordo-quadro (art.º 259.º),Aquisição de bens móveis,"24111900-4, Oxigénio","Administração Regional de Saúde do Norte, I. P. (503135593)","GASIN II, GASES INDUSTRIAIS, UNIPESSOAL, LDA (510183751)","23.842,00 €",20-04-2018,29-12-2017,365 dias,"Portugal, Distrito não determinado, Concelho não determinado",Artigo 259.º do Código dos Contratos Públicos,"","","","",,1306526,ACORDO QUADRO PARA FORNECIMENTO DE GASES MEDICINAIS CONSIDERADOS DISPOSITIVOS MÉDICOS ÀS INSTITUIÇÕES E SERVIÇOS DO SERVIÇO NACIONAL DE SAÚDE,FALSE
beneficiar os revestimentos indteriores do edificio,Ajuste Direto Regime Geral,Empreitadas de obras públicas,"45262650-2, Obras de revestimento","Administração Regional de Saúde do Norte, I. P. (503135593)","Construções R & F Oliveira, Lda. (504003615)","13.482,99 €",20-04-2018,15-12-2017,15 dias,"Portugal, Braga, Barcelos","Artigo 19.º, alínea a) do Código dos Contratos Públicos","","13.482,99 €",Interferncia no funcinamento da Unidade  de Saude,"",,Não aplicável.,Não aplicável.,FALSE
Aquisição de Equipamento Balanceador de Serviços para o Datacenter,Ajuste Direto Regime Geral,Aquisição de bens móveis,"30230000-0, Equipamento informático","Administração Regional de Saúde do Norte, I. P. (503135593)","Proef IT, S.A. (513717200)","37.997,80 €",20-04-2018,02-02-2018,30 dias,"Portugal, Porto, Porto","Artigo 20.º, n.º 1, alínea a) do Código dos Contratos Públicos",28-02-2018,"37.997,80 €","","",,Não aplicável.,Não aplicável.,FALSE
Aquisisição de 2.000 comprimidos de Amoxicilina 875 mg + Ácido clavulânico 125 mg Comp e 4.700 Unidades de Azitromicina 500 mg,Ao abrigo de acordo-quadro (art.º 259.º),Aquisição de bens móveis,"33600000-6, Produtos farmacêuticos","Administração Regional de Saúde do Norte, I. P. (503135593)","SANDOZ FARMACÊUTICA, LDA. (506985261)","1.455,00 €",20-04-2018,20-04-2018,250 dias,"Portugal, Porto, Maia<BR/>Portugal, Distrito não determinado, Concelho não determinado<BR/>Portugal, Vila Real, Vila Real",Artigo 259.º do Código dos Contratos Públicos,"","","","",,2775691,CP 2017/5 - Acordo Quadro para fornecimento de Medicamentos anti-infeciosos: exceto antivíricos e antifúngicos,FALSE
Remodelar espaços na criação de um atendimento e sala de espera unicos para a Unidade de Saúde,Ajuste Direto Regime Geral,Empreitadas de obras públicas,"45454000-4, Obras de reestruturação","Administração Regional de Saúde do Norte,IP (ARSN) (503135593)","Construções R & F Oliveira, Lda. (504003615)","35.823,23 €",19-04-2018,31-10-2017,60 dias,"Portugal, Braga, Vila Nova de Famalicão","Artigo 19.º, alínea a) do Código dos Contratos Públicos","","35.823,23 €",Demora na decisão e obtenção dos materiais,"",,Não aplicável.,Não aplicável.,FALSE
Correção das situações anomalas que se verificam no edificio,Ajuste Direto Regime Geral,Empreitadas de obras públicas,"45453000-7, Obras de revisão e recuperação","Administração Regional de Saúde do Norte, I. P. (503135593)","J. da Silva Faria, Lda. (501600051)","6.966,00 €",19-04-2018,24-08-2017,45 dias,"Portugal, Braga, Barcelos","Artigo 19.º, alínea a) do Código dos Contratos Públicos","","6.966,00 €",Por condicionantes de obra e implicações proveniente da Unidade de Saúde continuar a laborar naquelas instalações.,Não houve,,Não aplicável.,Não aplicável.,FALSE
Aquisição de TOPIRAMATO [25 MG; CÁP/COMP],Ao abrigo de acordo-quadro (art.º 259.º),Aquisição de bens móveis,"33600000-6, Produtos farmacêuticos","Administração Regional de Saúde do Norte, I. P. (503135593)",TECNIMED- SOCIEDADE TECNICO MEDICINAL S.A. (500626413),"23,40 €",19-04-2018,17-04-2018,285 dias,"Portugal, Porto, Maia<BR/>Portugal, Vila Real, Vila Real<BR/>Portugal, Distrito não determinado, Concelho não determinado",Artigo 259.º do Código dos Contratos Públicos,"","","","",,2528670,"CP 2017/2 - Acordo Quadro para fornecimento de Medicamentos do Sistema Nervoso Cerebrospinal, exceto: anestésicos, relaxantes musculares, analgésicos, antipiréticos, antidepressivos e antipsicóticos  às Instituições e Serviços do Serviço Nacional de Saúde",FALSE
Serviços de Manutenção do Módulo Regional OBSCARE,Ajuste Direto Regime Geral,Aquisição de serviços,"72500000-0, Serviços relacionados com a informática","Administração Regional de Saúde do Norte,IP (ARSN) (503135593)","VirtualCare, Lda (510394639)","7.492,50 €",18-04-2018,12-02-2018,275 dias,"Portugal, Porto, Porto","Artigo 20.º, n.º 1, alínea a) do Código dos Contratos Públicos",03-12-2018,"7.492,50 €","","",,Não aplicável.,Não aplicável.,TRUE
Manutenção e Suporte à Infraestrutura SINUS/SClinico Refª. 00151_2017- Aprov-Prt18000127,Ajuste Direto Regime Geral,Aquisição de serviços,"72261000-2, Serviços de assistência em matéria de software","Administração Regional de Saúde do Norte, I. P. (503135593)","Oramix - Sistemas de Informação, S.A. (504448382)","74.315,00 €",16-04-2018,02-03-2018,365 dias,"Portugal, Porto, Porto","Artigo 21.º, n.º 1, alínea a) do Código dos Contratos Públicos",18-09-2018,"74.315,00 €","","",,Não aplicável.,Não aplicável.,FALSE
Aquisição de serviços médicos para o ACES Feira Arouca – Processo 18000138,Ajuste Direto Regime Geral,Aquisição de serviços,"85121000-3, Serviços de prática médica","Administração Regional de Saúde do Norte, I. P. (503135593)",Volodymyr Shynkarenko (236536877),"27.456,00 €",16-04-2018,30-01-2018,365 dias,"Portugal, Aveiro, Arouca","Artigo 20.º, n.º 1, alínea a) do Código dos Contratos Públicos","","","","",,Não aplicável.,Não aplicável.,FALSE
Aquisição de 12.000 bisnagas de Betametasona 1 mg/g Creme,Ao abrigo de acordo-quadro (art.º 259.º),Aquisição de bens móveis,"33600000-6, Produtos farmacêuticos","Administração Regional de Saúde do Norte, I. P. (503135593)","Merck Sharp & Dohme, Lda (500191360)","22.200,00 €",13-04-2018,13-04-2018,292 dias,"Portugal, Vila Real, Vila Real<BR/>Portugal, Porto, Maia<BR/>Portugal, Distrito não determinado, Concelho não determinado",Artigo 259.º do Código dos Contratos Públicos,"","","","",,2850371,"CP 2017/51 - Acordo Quadro para fornecimento de Medicamentos usados nas afeções cutâneas, às Instituições e Serviços do Serviço Nacional de Saúde",FALSE
