Objeto do Contrato,Tipo de Procedimento,Tipo(s) de Contrato,CPVs,Entidade(s) Adjudicante(s),Entidade(s) Adjudicatária(s),Preço Contratual,Data de Publicação,Data de Celebração do Contrato,Prazo de Execução,Local de Execução,Fundamentação,Data de Fecho do Contrato,Preço Total Efetivo,Causas das Alterações ao Prazo,Causas das Alterações ao Preço,Estado,N.º registo do Acordo Quadro,Descrição do Acordo Quadro,Procedimento Centralizado
Aquisição de adesivo comum 5CM,Ao abrigo de acordo-quadro (art.º 259.º),Aquisição de bens móveis,"33140000-3, Material médico de consumo","Administração Regional de Saúde de Lisboa e Vale do Tejo, I. P. (503148776)","BSN MEDICAL, SA. (505385058)","8.100,00 €",08-02-2019,30-01-2019,335 dias,"Portugal, Lisboa, Lisboa",Artigo 259.º do Código dos Contratos Públicos,,,,,"",2183753,CP 2016/82 - Acordo quadro para fornecimento de Nastros e Fitas Cirúrgicas às Instituições e Serviços do Serviço Nacional de Saúde,FALSE
Aquisição de material de limpeza,Ajuste Direto Regime Geral,Aquisição de bens móveis,"39831200-8, Detergentes",Adm.Reg.de Saúde de Lisboa e Vale do Tejo (ARSLVT) (503148776)," FITISAN - PRODUTOS DE HIGIENE E EMBALAGENS, LDA (506320073)","3.540,00 €",08-02-2019,06-02-2019,328 dias,Portugal,"Artigo 20.º, n.º 1, alínea d) do Código dos Contratos Públicos",,,,,"",Não aplicável.,Não aplicável.,FALSE
Aquisição de material de RX,Ajuste Direto Regime Geral,Aquisição de bens móveis,"33140000-3, Material médico de consumo",Adm.Reg.de Saúde de Lisboa e Vale do Tejo (ARSLVT) (503148776),CARESTREAM HEALTH PORTUGAL LDA (508054320),"14.071,83 €",08-02-2019,07-02-2019,5 dias,Portugal,"Artigo 24.º, n.º 1, alínea e), subalínea i) do Código dos Contratos Públicos",,,,,"",Não aplicável.,Não aplicável.,FALSE
Aquisição de solução transparente para citologia,Ajuste Direto Regime Geral,Aquisição de bens móveis,"33140000-3, Material médico de consumo","Administração Regional de Saúde de Lisboa e Vale do Tejo, I. P. (503148776)",Hologic Iberia SL (980277230),"88.560,00 €",08-02-2019,06-02-2019,5 dias,Portugal,"Artigo 24.º, n.º 1, alínea e), subalínea i) do Código dos Contratos Públicos",,,,,"",Não aplicável.,Não aplicável.,FALSE
Prestação de Serviços de Especialidade Médica Dentista e Assistentes de Dentista para os meses de Janeiro e Fevereiro de 2019,Ajuste Direto Regime Geral,Aquisição de serviços,"85141000-9, Serviços prestados pelo pessoal médico",Adm.Reg.de Saúde de Lisboa e Vale do Tejo (ARSLVT) (503148776),"Medipeople - Soluções de Saúde e Educação, Lda. (508543436)","13.600,08 €",08-02-2019,28-01-2019,59 dias,Portugal,"Artigo 27.º, n.º 1, alínea a) do Código dos Contratos Públicos",,,,,"",Não aplicável.,Não aplicável.,FALSE
"Obras de Reparações urgentes no Edifício 21 B da Unidade das Taipas, do Parque da Saúde de Lisboa",Ajuste Direto Regime Geral,Empreitadas de obras públicas,"45113000-2, Obras no local",Adm.Reg.de Saúde de Lisboa e Vale do Tejo (ARSLVT) (503148776),"Sociedade de construções Carvalho & Martinho, Lda. (502645385)","14.700,00 €",08-02-2019,04-02-2019,30 dias,Portugal,"Artigo 19.º, alínea d) do Código dos Contratos Públicos",,,,,"",Não aplicável.,Não aplicável.,FALSE
"259-2018-139 -  Aquisição de vacinas V126, V127, V132, V134, V136, V137, V28, V3, V30, V32, V39, V4, V5, V6 e V7 para o PNV de 2019, para as ARS e Direções Regionais de Saúde",Ao abrigo de acordo-quadro (art.º 259.º),Aquisição de bens móveis,"33650000-1, Anti-infecciosos gerais de uso sistémico, vacinas, antineoplásicos e imunomoduladores",Adm.Reg.de Saúde de Lisboa e Vale do Tejo (ARSLVT) (503148776),"Sanofi - Produtos Farmacêuticos ,Lda (500134960)","760.000,00 €",08-02-2019,08-01-2019,365 dias,Portugal,Artigo 259.º do Código dos Contratos Públicos,,,,,"",1923518,CP 2016/13 - Acordo Quadro para fornecimento de Vacinas e Tuberculinas   às Instituições e Serviços do Serviço Nacional de Saúde,TRUE
EQUIPAMENTO PARA NOVA UNIDADE DE SAUDE DE ODIVELAS,Concurso público,Aquisição de bens móveis,"33100000-1, Equipamento médico",Adm.Reg.de Saúde de Lisboa e Vale do Tejo (ARSLVT) (503148776),Alpia 2- New Concept (510105327),"2.332,00 €",07-02-2019,29-01-2019,20 dias,Portugal,"Artigo 20.º, n.º 1, alínea b) do Código dos Contratos Públicos",,,,,"",Não aplicável.,Não aplicável.,FALSE
EQUIPAMENTO PARA NOVA UNIDADE DE SAUDE DE ODIVELAS,Concurso público,Aquisição de bens móveis,"33100000-1, Equipamento médico",Adm.Reg.de Saúde de Lisboa e Vale do Tejo (ARSLVT) (503148776),"Bramédica Fisio - Produtos de Saúde, Lda (508560152)","16.956,50 €",07-02-2019,29-01-2019,20 dias,Portugal,"Artigo 20.º, n.º 1, alínea b) do Código dos Contratos Públicos",,,,,"",Não aplicável.,Não aplicável.,FALSE
EQUIPAMENTO PARA NOVA UNIDADE DE SAUDE DE ODIVELAS,Concurso público,Aquisição de bens móveis,"33100000-1, Equipamento médico",Adm.Reg.de Saúde de Lisboa e Vale do Tejo (ARSLVT) (503148776),ALFRAPHAR EQUIPAMENTOS E PRODUTOS FARMACEUTICOS LDA (504223895),"3.750,00 €",07-02-2019,29-01-2019,20 dias,Portugal,"Artigo 20.º, n.º 1, alínea b) do Código dos Contratos Públicos",,,,,"",Não aplicável.,Não aplicável.,FALSE
EQUIPAMENTO PARA NOVA UNIDADE DE SAUDE DE ODIVELAS,Concurso público,Aquisição de bens móveis,"33100000-1, Equipamento médico",Adm.Reg.de Saúde de Lisboa e Vale do Tejo (ARSLVT) (503148776),"DUEKIPA - COMÉRCIO DE EQUIPAMENTOS MÉDICOS-HOSPITALARES, UNIPESSOAL LDA (508690102)","25.949,00 €",07-02-2019,29-01-2019,20 dias,Portugal,"Artigo 20.º, n.º 1, alínea b) do Código dos Contratos Públicos",,,,,"",Não aplicável.,Não aplicável.,FALSE
EQUIPAMENTO PARA NOVA UNIDADE DE SAUDE DE ODIVELAS,Concurso público,Aquisição de bens móveis,"33100000-1, Equipamento médico",Adm.Reg.de Saúde de Lisboa e Vale do Tejo (ARSLVT) (503148776),"SANO TECNICA, LDA (500239819)","11.798,96 €",07-02-2019,29-01-2019,20 dias,Portugal,"Artigo 20.º, n.º 1, alínea b) do Código dos Contratos Públicos",,,,,"",Não aplicável.,Não aplicável.,FALSE
EQUIPAMENTO PARA NOVA UNIDADE DE SAUDE DE ODIVELAS,Concurso público,Aquisição de bens móveis,"33100000-1, Equipamento médico",Adm.Reg.de Saúde de Lisboa e Vale do Tejo (ARSLVT) (503148776),Salutec (506380408),"6.072,04 €",07-02-2019,29-01-2019,20 dias,Portugal,"Artigo 20.º, n.º 1, alínea b) do Código dos Contratos Públicos",,,,,Em Rectificação,Não aplicável.,Não aplicável.,FALSE
"Aquisição de papel ao abrigo do lote 1 e 2 do """"Acordo Quadro pra fornecimento de papel e economato da ESPAP",Ao abrigo de acordo-quadro (art.º 259.º),Aquisição de bens móveis,"30192000-1, Material de escritório","Administração Regional de Saúde de Lisboa e Vale do Tejo, I. P. (503148776)","OMHTECNICA - Representações de Marcas, Lda. (504059521)","33.744,70 €",07-02-2019,14-01-2019,352 dias,"Portugal, Lisboa, Lisboa",Artigo 259.º do Código dos Contratos Públicos,,,,,"",1351201,Acordo quadro de fornecimento de papel e economato,FALSE
"Aquisição de papel ao abrigo do lote 1 e 2 do """"Acordo Quadro pra fornecimento de papel e economato da ESPAP",Ao abrigo de acordo-quadro (art.º 259.º),Aquisição de bens móveis,"30192000-1, Material de escritório","Administração Regional de Saúde de Lisboa e Vale do Tejo, I. P. (503148776)",Staples Portugal - Equipamentos de Escritório SA. (503789372),"185.400,00 €",07-02-2019,14-01-2019,352 dias,"Portugal, Lisboa, Lisboa",Artigo 259.º do Código dos Contratos Públicos,,,,,"",1351201,Acordo quadro de fornecimento de papel e economato,FALSE
"Aquisição de serviços para assegurar o mandato judicial em sede de processos de natureza cível, penal, administrativo, laboral e consultoria jurídica à ARSLVT",Consulta Prévia,Aquisição de serviços,"79111000-5, Serviços de assessoria jurídica","Administração Regional de Saúde de Lisboa e Vale do Tejo, I. P. (503148776)",Ana Luisa Vilela Lousada dos Santos (214606309),"21.955,00 €",06-02-2019,22-01-2019,365 dias,"Portugal, Lisboa, Lisboa","Artigo 20.º, n.º 1, alínea c) do Código dos Contratos Públicos",,,,,"",Não aplicável.,Não aplicável.,FALSE
P259-2018-140 - Aquisição de vacinas e tuberculinas para cumprimento do PNV 2019 para as Instituições de Saúde,Ao abrigo de acordo-quadro (art.º 259.º),Aquisição de bens móveis,"33651600-4, Vacinas",Adm.Reg.de Saúde de Lisboa e Vale do Tejo (ARSLVT) (503148776),"Sanofi - Produtos Farmacêuticos,Lda (500134960)","1.067.275,00 €",06-02-2019,17-01-2019,365 dias,Portugal,Artigo 259.º do Código dos Contratos Públicos,,,,,"",1923518,CP 2016/13 - Acordo Quadro para fornecimento de Vacinas e Tuberculinas   às Instituições e Serviços do Serviço Nacional de Saúde,TRUE
Aquisição de material de desinfeção,Ajuste Direto Regime Geral,Aquisição de bens móveis,"39831210-1, Detergentes para máquinas de lavar louça",Adm.Reg.de Saúde de Lisboa e Vale do Tejo (ARSLVT) (503148776),A. MENDES DA SILVA LDA (502064080),"1.409,66 €",05-02-2019,04-02-2019,329 dias,Portugal,"Artigo 24.º, n.º 1, alínea e), subalínea i) do Código dos Contratos Públicos",,,,,"",Não aplicável.,Não aplicável.,FALSE
"259-2018-139 -  Aquisição de vacinas V126, V127, V132, V134, V136, V137, V28, V3, V30, V32, V39, V4, V5, V6 e V7 para o PNV de 2019, para as ARS e Direções Regionais de Saúde",Ao abrigo de acordo-quadro (art.º 259.º),Aquisição de bens móveis,"33650000-1, Anti-infecciosos gerais de uso sistémico, vacinas, antineoplásicos e imunomoduladores",Adm.Reg.de Saúde de Lisboa e Vale do Tejo (ARSLVT) (503148776),"GlaxoSmithKline - Produtos Farmacêuticos, Lda (500139962)","186.480,00 €",05-02-2019,17-01-2019,365 dias,Portugal,Artigo 259.º do Código dos Contratos Públicos,,,,,"",1923518,CP 2016/13 - Acordo Quadro para fornecimento de Vacinas e Tuberculinas   às Instituições e Serviços do Serviço Nacional de Saúde,TRUE
"259-2018-139 -  Aquisição de vacinas V126, V127, V132, V134, V136, V137, V28, V3, V30, V32, V39, V4, V5, V6 e V7 para o PNV de 2019, para as ARS e Direções Regionais de Saúde",Ao abrigo de acordo-quadro (art.º 259.º),Aquisição de bens móveis,"33650000-1, Anti-infecciosos gerais de uso sistémico, vacinas, antineoplásicos e imunomoduladores",Adm.Reg.de Saúde de Lisboa e Vale do Tejo (ARSLVT) (503148776),"GlaxoSmithKline, Produtos Farmacêuticos,  Lda (500139962)","70.620,00 €",04-02-2019,17-01-2019,365 dias,Portugal,Artigo 259.º do Código dos Contratos Públicos,,,,,"",1923518,CP 2016/13 - Acordo Quadro para fornecimento de Vacinas e Tuberculinas   às Instituições e Serviços do Serviço Nacional de Saúde,TRUE
"259-2018-139 -  Aquisição de vacinas V126, V127, V132, V134, V136, V137, V28, V3, V30, V32, V39, V4, V5, V6 e V7 para o PNV de 2019, para as ARS e Direções Regionais de Saúde",Ao abrigo de acordo-quadro (art.º 259.º),Aquisição de bens móveis,"33650000-1, Anti-infecciosos gerais de uso sistémico, vacinas, antineoplásicos e imunomoduladores",Adm.Reg.de Saúde de Lisboa e Vale do Tejo (ARSLVT) (503148776),"GlaxoSmithKline,Lda (500139962)","21.612,00 €",04-02-2019,16-01-2019,365 dias,Portugal,Artigo 259.º do Código dos Contratos Públicos,,,,,"",1923518,CP 2016/13 - Acordo Quadro para fornecimento de Vacinas e Tuberculinas   às Instituições e Serviços do Serviço Nacional de Saúde,TRUE
Aquisição extraordinária de vacina contra a gripe Inativada - Ano 2018,Ao abrigo de acordo-quadro (art.º 259.º),Aquisição de bens móveis,"33651600-4, Vacinas","Administração Regional de Saúde de Lisboa e Vale do Tejo, I. P. (503148776)",Sanofi - Produtos Farmacêuticos (500134960),"13.594,75 €",04-02-2019,30-11-2018,31 dias,Portugal,Artigo 259.º do Código dos Contratos Públicos,,,,,"",1923518,CP 2016/13 - Acordo Quadro para fornecimento de Vacinas e Tuberculinas   às Instituições e Serviços do Serviço Nacional de Saúde,FALSE
Aquisição de Levonorgestrel 52mg - Sistema Intra Uterino,Ao abrigo de acordo-quadro (art.º 259.º),Aquisição de bens móveis,"33600000-6, Produtos farmacêuticos",Adm.Reg.de Saúde de Lisboa e Vale do Tejo (ARSLVT) (503148776),"BAYER PORTUGAL, LDA (500043256)","238.914,00 €",04-02-2019,18-01-2019,365 dias,Portugal,Artigo 259.º do Código dos Contratos Públicos,,,,,"",1459323,CP 2015/20,TRUE
Aquisição de Etinilestradiol 0.03 mg + Levonorgestrel 3/6 ciclos,Ao abrigo de acordo-quadro (art.º 259.º),Aquisição de bens móveis,"33600000-6, Produtos farmacêuticos",Adm.Reg.de Saúde de Lisboa e Vale do Tejo (ARSLVT) (503148776),"BAYER PORTUGAL, LDA (500043256)","17.850,00 €",04-02-2019,18-01-2019,365 dias,Portugal,Artigo 259.º do Código dos Contratos Públicos,,,,,"",1459323,CP 2015/20,TRUE
"Aquisição de serviços na área de estatística para o Núcleo de Estudos e Planeamento da ARSLVT, IP",Ajuste Direto Regime Geral,Aquisição de serviços,"79330000-6, Serviços de estatística","Administração Regional de Saúde de Lisboa e Vale do Tejo, I. P. (503148776)",JOANA FIALHO PIRES LOPES GOUVEIA (246285362),"17.685,79 €",01-02-2019,21-01-2019,365 dias,"Portugal, Lisboa, Lisboa","Artigo 20.º, n.º 1, alínea d) do Código dos Contratos Públicos",,,,,"",Não aplicável.,Não aplicável.,FALSE
"Aquisição de serviços na área do Planeamento para o NEP da ARSLVT, IP",Ajuste Direto Regime Geral,Aquisição de serviços,"79330000-6, Serviços de estatística","Administração Regional de Saúde de Lisboa e Vale do Tejo, I. P. (503148776)",Cláudia Margarida Inez Ribeiro (212229478),"12.678,00 €",01-02-2019,22-01-2019,365 dias,"Portugal, Lisboa, Lisboa","Artigo 20.º, n.º 1, alínea d) do Código dos Contratos Públicos",,,,,"",Não aplicável.,Não aplicável.,FALSE
