Objeto do Contrato,Tipo de Procedimento,Tipo(s) de Contrato,CPVs,Entidade(s) Adjudicante(s),Entidade(s) Adjudicatária(s),Preço Contratual,Data de Publicação,Data de Celebração do Contrato,Prazo de Execução,Local de Execução,Fundamentação,Data de Fecho do Contrato,Preço Total Efetivo,Causas das Alterações ao Prazo,Causas das Alterações ao Preço,Estado,N.º registo do Acordo Quadro,Descrição do Acordo Quadro,Procedimento Centralizado
Aquisição do medicamento Saquinavir 500mg comp - AD-AC-2017-28,Ajuste Direto Regime Geral,Aquisição de bens móveis,"33600000-6, Produtos farmacêuticos","Unidade Local de Saúde do Alto Minho, E. P. E. (508786193)","ROCHE Farmacêutica Quimica, Lda (500233810)","1.828,80 €",27-04-2017,14-02-2017,270 dias,"Portugal, Viana do Castelo","Artigo 24.º, n.º 1, alínea e) do Código dos Contratos Públicos",,,,,,Não aplicável.,Não aplicável.,FALSE
MCC - Sacos Recolha Urina e Cateteres Externos,Ajuste Direto Regime Geral,Aquisição de bens móveis,"33140000-3, Material médico de consumo","Unidade Local de Saúde do Alto Minho, EPE (ULSAM) (508786193)","Medicinália - Cormédica, Lda (500684324)","160,00 €",26-04-2017,21-04-2017,365 dias,"Portugal, Viana do Castelo","Artigo 20.º, n.º 1, alínea a) do Código dos Contratos Públicos",,,,,,Não aplicável.,Não aplicável.,FALSE
MCC - Sacos Recolha Urina e Cateteres Externos,Ajuste Direto Regime Geral,Aquisição de bens móveis,"33140000-3, Material médico de consumo","Unidade Local de Saúde do Alto Minho, EPE (ULSAM) (508786193)","EZEQUIEL PANAO JORGE, LDA (501412727)","640,20 €",26-04-2017,21-04-2017,365 dias,"Portugal, Viana do Castelo","Artigo 20.º, n.º 1, alínea a) do Código dos Contratos Públicos",,,,,,Não aplicável.,Não aplicável.,FALSE
Fiscalização da Empreitada e Coordenação de Segurança da Obra de Reinstalação da USF Tiago de Almeida e da UCC Centro de Saúde de Viana do Castelo,Ajuste Direto Regime Geral,Aquisição de serviços,"71300000-1, Serviços de engenharia","Unidade Local de Saúde do Alto Minho, EPE (ULSAM) (508786193)",José Alberto Antunes Ferreira (148014755),"7.500,00 €",24-04-2017,21-04-2017,180 dias,"Portugal, Viana do Castelo, Viana do Castelo","Artigo 20.º, n.º 1, alínea a) do Código dos Contratos Públicos",,,,,,Não aplicável.,Não aplicável.,FALSE
"Aquisição do medicamento """"Megestrol 160mg, comp"""" -  P259-AC-52017-60",Ao abrigo de acordo-quadro (art.º 259.º),Aquisição de bens móveis,"33600000-6, Produtos farmacêuticos","Unidade Local de Saúde do Alto Minho, E. P. E. (508786193)","GENERIS-FARMACEUTICA, S.A. (508107997)","7.719,00 €",21-04-2017,21-02-2017,270 dias,"Portugal, Viana do Castelo",Artigo 259.º do Código dos Contratos Públicos,,,,,,1771819,CP 2015/6 - Acordo quadro para o fornecimento de Medicamentos do Foro Oncológico,FALSE
"Aquisição do medicamento Etanercept (25mg/0,5ml, sol, inj, seringa)",Ao abrigo de acordo-quadro (art.º 259.º),Aquisição de bens móveis,"33600000-6, Produtos farmacêuticos","Unidade Local de Saúde do Alto Minho, E. P. E. (508786193)","Pfizer Biofarmacêutica, Sociedade Unipessoal, Lda (513300376)","6.302,34 €",21-04-2017,24-02-2017,270 dias,"Portugal, Viana do Castelo",Artigo 259.º do Código dos Contratos Públicos,,,,,,1771819,CP 2015/6 - Acordo quadro para o fornecimento de Medicamentos do Foro Oncológico,FALSE
"Aquisição do medicamento Nevirapina  (lib prolong) (400mg, comp) - P259-AC-2017-41",Ao abrigo de acordo-quadro (art.º 259.º),Aquisição de bens móveis,"33600000-6, Produtos farmacêuticos","Unidade Local de Saúde do Alto Minho, E. P. E. (508786193)","UNILFARMA, LDA (500293023)","1.782,00 €",21-04-2017,14-02-2017,270 dias,"Portugal, Viana do Castelo",Artigo 259.º do Código dos Contratos Públicos,,,,,,2183729,Medicamentos antirretrovíricos para o tratamento da infeção por VIH,FALSE
"Aquisição do medicamento Metotrexato 2,5mg comp - P259-AC-2017-33",Ao abrigo de acordo-quadro (art.º 259.º),Aquisição de bens móveis,"33600000-6, Produtos farmacêuticos","Unidade Local de Saúde do Alto Minho, E. P. E. (508786193)",LABORATORIO PFIZER (500162166),"11,68 €",21-04-2017,31-01-2017,270 dias,"Portugal, Viana do Castelo",Artigo 259.º do Código dos Contratos Públicos,,,,,,1771819,CP 2015/6 - Acordo quadro para o fornecimento de Medicamentos do Foro Oncológico,FALSE
"Aquisição do medicamento Zidovudina (sol oral) (10mg/ml, frs) - P259-AC-2017-38",Ao abrigo de acordo-quadro (art.º 259.º),Aquisição de bens móveis,"33600000-6, Produtos farmacêuticos","Unidade Local de Saúde do Alto Minho, E. P. E. (508786193)","VIIVHIV HEALTHCARE UNIPESSOAL, LDA (509117961)","18,00 €",21-04-2017,14-02-2017,270 dias,"Portugal, Viana do Castelo",Artigo 259.º do Código dos Contratos Públicos,,,,,,2183729,Medicamentos antirretrovíricos para o tratamento da infeção por VIH,FALSE
Aquisição do medicamento Maravirod 150mg - comp  - P29-AC-2017-38,Ao abrigo de acordo-quadro (art.º 259.º),Aquisição de bens móveis,"33600000-6, Produtos farmacêuticos","Unidade Local de Saúde do Alto Minho, E. P. E. (508786193)","VIIVHIV HEALTHCARE UNIPESSOAL, LDA (509117961)","6.361,20 €",21-04-2017,14-02-2017,270 dias,"Portugal, Viana do Castelo",Artigo 259.º do Código dos Contratos Públicos,,,,,,2183729,Medicamentos antirretrovíricos para o tratamento da infeção por VIH,FALSE
Aquisição do medicamento Entecavir 1mg - P259-AC-2016-251,Ao abrigo de acordo-quadro (art.º 259.º),Aquisição de bens móveis,"33600000-6, Produtos farmacêuticos","Unidade Local de Saúde do Alto Minho, E. P. E. (508786193)",BRISTOL-MYERS SQUIB FARMAC PORTUGUESA SA (500048193),"6.705,72 €",21-04-2017,16-01-2017,270 dias,"Portugal, Viana do Castelo",Artigo 259.º do Código dos Contratos Públicos,,,,,,1422736,CP 2015/41 - ACORDO QUADRO PARA FORNECIMENTO DE MEDICAMENTOS ANTI-INFECIOSOS: ANTIVÍRICOS E ANTIFÚNGICOS ÀS INSTITUIÇÕES E SERVIÇOS DO SERVIÇO NACIONAL DE SAÚDE,FALSE
"Aquisição do medicamento Entecavir 0,5mg -com - P259-AC-2016-251",Ao abrigo de acordo-quadro (art.º 259.º),Aquisição de bens móveis,"33600000-6, Produtos farmacêuticos","Unidade Local de Saúde do Alto Minho, E. P. E. (508786193)",BRISTOL-MYERS SQUIB FARMAC PORTUGUESA SA (500048193),"9.693,60 €",21-04-2017,16-01-2017,270 dias,"Portugal, Viana do Castelo",Artigo 259.º do Código dos Contratos Públicos,,,,,,1422736,CP 2015/41 - ACORDO QUADRO PARA FORNECIMENTO DE MEDICAMENTOS ANTI-INFECIOSOS: ANTIVÍRICOS E ANTIFÚNGICOS ÀS INSTITUIÇÕES E SERVIÇOS DO SERVIÇO NACIONAL DE SAÚDE,FALSE
Aquisição do medicamento Lopinavir + Ritonavir (200mg+50mg) comp - P259-AC-2017-57,Ao abrigo de acordo-quadro (art.º 259.º),Aquisição de bens móveis,"33600000-6, Produtos farmacêuticos","Unidade Local de Saúde do Alto Minho, E. P. E. (508786193)","ABBVIE, LDA (510229050)","5.982,98 €",21-04-2017,21-02-2017,270 dias,"Portugal, Viana do Castelo",Artigo 259.º do Código dos Contratos Públicos,,,,,,2183729,Medicamentos antirretrovíricos para o tratamento da infeção por VIH,FALSE
Aquisição de serviços de manutenção e assistência técnica do software LABWAY instalado na ULSAM,Ajuste Direto Regime Geral,Aquisição de serviços,"50000000-5, Serviços de reparação e manutenção","Unidade Local de Saúde do Alto Minho, E. P. E. (508786193)","Ambidata - Comércio Programas Informáticos, Lda (504673734)","1.600,00 €",21-04-2017,20-02-2017,365 dias,"Portugal, Viana do Castelo","Artigo 24.º, n.º 1, alínea e) do Código dos Contratos Públicos",,,,,,Não aplicável.,Não aplicável.,FALSE
Aquisição de serviços de manutenção corretiva e evolutiva das aplicações FIRST instaladas na ULSAM,Ajuste Direto Regime Geral,Aquisição de serviços,"50000000-5, Serviços de reparação e manutenção","Unidade Local de Saúde do Alto Minho, E. P. E. (508786193)","First Solutions-Sistemas de Informação, S.A. (505345978)","46.417,79 €",21-04-2017,13-03-2017,365 dias,"Portugal, Viana do Castelo","Artigo 24.º, n.º 1, alínea e) do Código dos Contratos Públicos",,,,,,Não aplicável.,Não aplicável.,FALSE
Aquisição de serviços de manutenção corretiva e evolutiva dos sistemas CLINIDATA instalados na ULSAM,Ajuste Direto Regime Geral,Aquisição de serviços,"50000000-5, Serviços de reparação e manutenção","Unidade Local de Saúde do Alto Minho, E. P. E. (508786193)",Maxdata Software SA  (502250259),"9.184,32 €",21-04-2017,20-02-2017,365 dias,"Portugal, Viana do Castelo","Artigo 24.º, n.º 1, alínea e) do Código dos Contratos Públicos",,,,,,Não aplicável.,Não aplicável.,FALSE
Aquisição de serviços de manutenção e assistência técnicas dos sistemas de assiduidade e gestão de escalas TIME HR instalados na ULSAM,Ajuste Direto Regime Geral,Aquisição de serviços,"50000000-5, Serviços de reparação e manutenção","Unidade Local de Saúde do Alto Minho, E. P. E. (508786193)","Elo - Sistemas de Informação, Lda (503258601)","3.750,50 €",21-04-2017,20-02-2017,181 dias,"Portugal, Viana do Castelo","Artigo 24.º, n.º 1, alínea e) do Código dos Contratos Públicos",,,,,,Não aplicável.,Não aplicável.,FALSE
Aquisição de serviços de manutenção e assistência técnica aos PACS SECTRA instalados na ULSAM,Ajuste Direto Regime Geral,Aquisição de serviços,"50000000-5, Serviços de reparação e manutenção","Unidade Local de Saúde do Alto Minho, E. P. E. (508786193)",ART CES Unipessoal Lda  (513270396),"52.295,00 €",21-04-2017,20-02-2017,365 dias,"Portugal, Viana do Castelo","Artigo 24.º, n.º 1, alínea e) do Código dos Contratos Públicos",,,,,,Não aplicável.,Não aplicável.,FALSE
