Objeto do Contrato,Tipo de Procedimento,Tipo(s) de Contrato,CPVs,Entidade(s) Adjudicante(s),Entidade(s) Adjudicatária(s),Preço Contratual,Data de Publicação,Data de Celebração do Contrato,Prazo de Execução,Local de Execução,Fundamentação,Data de Fecho do Contrato,Preço Total Efetivo,Causas das Alterações ao Prazo,Causas das Alterações ao Preço,Estado,N.º registo do Acordo Quadro,Descrição do Acordo Quadro,Procedimento Centralizado
Aquisição de Sulfadiazina Argentica 1%,Ajuste Direto Regime Geral,Aquisição de bens móveis,"33690000-3, Medicamentos vários","Administração Regional de Saúde do Algarve, I.P. (503148709)","Expomédica Soc Exportadora e Importadora Material Médico, Lda. (501886621)","2.157,30 €",11-07-2013,11-07-2013,169 dias,"Portugal, Faro","Artigo 24.º, n.º 1, alínea e) do Código dos Contratos Públicos",28-10-2013,"2.157,30 €",,"",,Não aplicável.,Não aplicável.,
Aquisição de Acamprosato 333 mg e Odidoxima 250 mg,Ajuste Direto Regime Geral,Aquisição de bens móveis,"33690000-3, Medicamentos vários","Administração Regional de Saúde do Algarve, I.P. (503148709)","Merck, S.A. (500650870)","383,64 €",11-07-2013,11-07-2013,169 dias,"Portugal, Faro","Artigo 24.º, n.º 1, alínea e) do Código dos Contratos Públicos",14-08-2013,"253,69 €",,Quantidades fornecidas.,,Não aplicável.,Não aplicável.,
Fornecimento de Refeições Confeccionadas para a Unidade de Desabituação do Algarve,Ajuste Direto Regime Geral,Aquisição de serviços,"55500000-5, Serviços de cantinas e de fornecimento de refeições (catering)","Administração Regional de Saúde do Algarve, I.P. (503148709)","GERTAL-Companhia  Geral de Restaurantes e Alimentação, S.A (500126623), SOCIGESTE Serviços Indústria e Comércio de Refeições, Lda (504215965), ITAU Instituto Técnico Alimentação Humana (500142858)","17.770,96 €",10-07-2013,01-07-2013,92 dias,"Portugal, Faro, Olhão","Artigo 20.º, n.º 1, alínea a) do Código dos Contratos Públicos",30-09-2013,"9.575,96 €",,Quantidades fornecidas.,,Não aplicável.,Não aplicável.,
Aquisição de reagentes para pesquisa de BK (Tuberculose),Ajuste Direto Regime Geral,Aquisição de bens móveis,"33696500-0, Reagentes de laboratório","Administração Regional de Saúde do Algarve, I.P. (503148709)","Quilaban - Quimica Laboratorial Analitica, Lda (500399670)","38.884,52 €",10-07-2013,10-07-2013,174 dias,"Portugal, Faro, Faro","Artigo 24.º, n.º 1, alínea e) do Código dos Contratos Públicos",16-12-2013,"38.884,52 €",,"",,Não aplicável.,Não aplicável.,
"Aquisição Ciamemazina, Cloropromazina, Levopromazina, Dinit. Isossorbido",Ajuste Direto Regime Geral,Aquisição de bens móveis,"33690000-3, Medicamentos vários","Administração Regional de Saúde do Algarve, I.P. (503148709)","Laboratórios Vitoria, S.A. (500162220)","403,47 €",09-07-2013,09-07-2013,171 dias,"Portugal, Faro","Artigo 24.º, n.º 1, alínea e) do Código dos Contratos Públicos",25-10-2013,"403,47 €",,"",,Não aplicável.,Não aplicável.,
"Aquisição de Reagentes de Hemogramas de 5 e 3 Populações Leucócitárias para as SUB´S e para o Laboratório Regional de Saúde Pública do Algarve da Administração Regional de Saúde do Algarve, I.P.",Ajuste Direto Regime Geral,Aquisição de bens móveis,"33696000-5, Reagentes e meios de contraste","Administração Regional de Saúde do Algarve, I.P. (503148709)","ABBOTT Laboratórios, Lda (500006148)","9.805,51 €",08-07-2013,08-07-2013,176 dias,"Portugal, Faro, Albufeira<BR/>Portugal, Faro, Loulé<BR/>Portugal, Faro, Vila Real Sto Antonio<BR/>Portugal, Faro, Faro","Artigo 24.º, n.º 1, alínea e) do Código dos Contratos Públicos",31-12-2013,"6.314,43 €",,Quantidades fornecidas.,,Não aplicável.,Não aplicável.,
"Aquisição Acido Paraminosalicilico, Cicloserina e Etionamida ",Ajuste Direto Regime Geral,Aquisição de bens móveis,"33690000-3, Medicamentos vários","Administração Regional de Saúde do Algarve, I.P. (503148709)","Etiopharma, S.A. (509393357)","5.169,00 €",08-07-2013,08-07-2013,172 dias,"Portugal, Faro","Artigo 24.º, n.º 1, alínea e) do Código dos Contratos Públicos",23-09-2013,"937,50 €",,Quantidades forncecidas.,,Não aplicável.,Não aplicável.,
Aquisição de Isoniazida 300 mg comp.,Ajuste Direto Regime Geral,Aquisição de bens móveis,"33690000-3, Medicamentos vários","Administração Regional de Saúde do Algarve, I.P. (503148709)","Etiopharma, S.A. (509393357)","5.670,00 €",08-07-2013,08-07-2013,172 dias,"Portugal, Faro","Artigo 24.º, n.º 1, alínea e) do Código dos Contratos Públicos",18-11-2013,"1.052,10 €",,Quantidades fornecidas.,,Não aplicável.,Não aplicável.,
AQUISIÇÃO DE PRODUTOS PARA NUTRIÇÃO ENTÉRICA,Ajuste Direto Regime Geral,Aquisição de bens móveis,"33600000-6, Produtos farmacêuticos","Administração Regional de Saúde do Algarve, I.P. (503148709)","Fresenius Kabi Pharma Portugal, Lda. (504293753)","8.974,92 €",05-07-2013,05-07-2013,175 dias,"Portugal, Faro","Artigo 20.º, n.º 1, alínea a) do Código dos Contratos Públicos",25-10-2013,"5.697,00 €",,Quantidades fornecidas.,,Não aplicável.,Não aplicável.,
Aquisição de AC. Aminocaproico 250 mg e AC. Aminocaproico 3g,Ajuste Direto Regime Geral,Aquisição de bens móveis,"33690000-3, Medicamentos vários","Administração Regional de Saúde do Algarve, I.P. (503148709)",Bial Portela & Ca Sa (500220913),"134,26 €",05-07-2013,05-07-2013,175 dias,"Portugal, Faro","Artigo 24.º, n.º 1, alínea e) do Código dos Contratos Públicos",11-12-2013,"137,37 €",,Não foi comunicado no relatório de formação do contrato o valor relativo a portes.,,Não aplicável.,Não aplicável.,
Aquisição de Benzilpenicilina e Benzilpenicilina Potassica,Ajuste Direto Regime Geral,Aquisição de bens móveis,"33690000-3, Medicamentos vários","Administração Regional de Saúde do Algarve, I.P. (503148709)","Laboratórios Atral, S.A. (500162085)","2.382,00 €",05-07-2013,05-07-2013,175 dias,"Portugal, Faro","Artigo 24.º, n.º 1, alínea e) do Código dos Contratos Públicos",30-12-2013,"2.382,00 €",,"",,Não aplicável.,Não aplicável.,
Aquisição de Tenecteplase 10000A e Tenecteplase 8000UI,Ajuste Direto Regime Geral,Aquisição de bens móveis,"33690000-3, Medicamentos vários","Administração Regional de Saúde do Algarve, I.P. (503148709)","Unilfarma  - União Internacional Laboratórios Farmacêuticos, Lda. (500293023)","2.334,37 €",05-07-2013,05-07-2013,175 dias,"Portugal, Faro","Artigo 24.º, n.º 1, alínea e) do Código dos Contratos Públicos","","",,"",,Não aplicável.,Não aplicável.,
Aquisição de material de consumo hoteleiro,Ajuste Direto Regime Geral,Aquisição de bens móveis,"39830000-9, Produtos de limpeza","Administração Regional de Saúde do Algarve, I.P. (503148709)",Servisan - Produtos de Higiene S.A. (500246530),"1.134,00 €",05-07-2013,05-07-2013,179 dias,"Portugal, Faro, Faro","Artigo 20.º, n.º 1, alínea a) do Código dos Contratos Públicos",11-07-2013,"472,50 €",,Quantidades fornecidas,,Não aplicável.,Não aplicável.,
Aquisição de material de consumo hoteleiro,Ajuste Direto Regime Geral,Aquisição de bens móveis,"39830000-9, Produtos de limpeza","Administração Regional de Saúde do Algarve, I.P. (503148709)","JBS - Sistemas de Higiene e Representações, Lda (503323500)","3.941,66 €",05-07-2013,05-07-2013,179 dias,"Portugal, Faro, Faro","Artigo 20.º, n.º 1, alínea a) do Código dos Contratos Públicos",09-12-2013,"1.943,32 €",,quantidades fornecidas,,Não aplicável.,Não aplicável.,
Aquisição de material de consumo hoteleiro,Ajuste Direto Regime Geral,Aquisição de bens móveis,"39830000-9, Produtos de limpeza","Administração Regional de Saúde do Algarve, I.P. (503148709)",Francisco Felizardo Monteiro (159910633),"8.681,35 €",05-07-2013,05-07-2013,179 dias,"Portugal, Faro, Faro","Artigo 20.º, n.º 1, alínea a) do Código dos Contratos Públicos",30-12-2013,"6.413,70 €",,quantidades fornecidas,,Não aplicável.,Não aplicável.,
"Aquisição Analgésicos, antipiréticos e Antidepressores",Ao abrigo de acordo-quadro (art.º 259.º),Aquisição de bens móveis,"33690000-3, Medicamentos vários","Administração Regional de Saúde do Algarve, I.P. (503148709)","Laboratórios Medinfar - Produtos Farmacêuticos, S.A. (500384045)","27,72 €",04-07-2013,04-07-2013,176 dias,"Portugal, Faro",Artigo 259.º do Código dos Contratos Públicos,25-11-2013,"27,00 €",,Quantidades fornecidas.,,461370,"CP 2012/44 - MEDICAMENTOS ANALGÉSICOS, ANTIPIRÉTICOS E ANTIDEPRESSIVOS",
AD/110/2013 - Aquisição de Material de Consumo Clínico,Ajuste Direto Regime Geral,Aquisição de bens móveis,"33198000-4, Artigos de papel para uso hospitalar","Administração Regional de Saúde do Algarve, I.P. (503148709)","ECR - Rollpaper, Lda. (509587836)","18.018,00 €",04-07-2013,01-07-2013,190 dias,"Portugal, Faro","Artigo 20.º, n.º 1, alínea a) do Código dos Contratos Públicos",31-12-2013,"18.018,00 €",,"",,Não aplicável.,Não aplicável.,
AD/110/2013 - Aquisição de Material de Consumo Clínico,Ajuste Direto Regime Geral,Aquisição de bens móveis,"33141000-0, Material médico não químico descartável e produtos hematológicos","Administração Regional de Saúde do Algarve, I.P. (503148709)","Bastos Viegas, S.A. (500042772)","126,00 €",04-07-2013,21-06-2013,190 dias,"Portugal, Faro","Artigo 20.º, n.º 1, alínea a) do Código dos Contratos Públicos",20-11-2013,"126,00 €",,"",,Não aplicável.,Não aplicável.,
AD/110/2013 - Aquisição de Material de Consumo Clínico,Ajuste Direto Regime Geral,Aquisição de bens móveis,"33141000-0, Material médico não químico descartável e produtos hematológicos","Administração Regional de Saúde do Algarve, I.P. (503148709)","Factormed Comércio e Distribuição Produtos Médicos, Lda. (506986918)","2.300,50 €",04-07-2013,21-06-2013,190 dias,"Portugal, Faro","Artigo 20.º, n.º 1, alínea a) do Código dos Contratos Públicos",27-12-2013,"2.300,50 €",,"",,Não aplicável.,Não aplicável.,
AD/112/2013 - Aquisição de Material de Electromedicina,Ajuste Direto Regime Geral,Aquisição de bens móveis,"33141000-0, Material médico não químico descartável e produtos hematológicos","Administração Regional de Saúde do Algarve, I.P. (503148709)","Covidien Portugal - Produtos de Saúde Unipessoal, Lda (503413410)","7.012,50 €",04-07-2013,28-06-2013,185 dias,"Portugal, Faro","Artigo 20.º, n.º 1, alínea a) do Código dos Contratos Públicos",10-12-2013,"7.012,50 €",,"",,Não aplicável.,Não aplicável.,
"Prestação de serviços médicos para as consultas de recurso de Portimão, Lagoa, Silves, Aljezur, Armação de Pêra e S. Bartolomeu de Messines.",Ao abrigo de acordo-quadro (art.º 259.º),Aquisição de serviços,"85100000-0, Serviços de saúde","Administração Regional de Saúde do Algarve, I.P. (503148709)","Kelly Services - Gestão de Processos, Lda. (506434770)","131.130,00 €",01-07-2013,27-06-2013,184 dias,"Portugal, Faro",Artigo 259.º do Código dos Contratos Públicos,"","",,"",,454020,"CONCURSO PÚBLICO PARA A CELEBRAÇÃO DE CONTRATOS PÚBLICOS DE APROVISIONAMENTO PARA A ÁREA DA SAÚDE, COM VISTA À PRESTAÇÃO DE SERVIÇOS MÉDICOS ÀS INSTITUIÇÕES E SERVIÇOS DO SERVIÇO NACIONAL DE SAÚDE",
"Aquisição de testes de Hemoglobina A1C, Microalbuminuria e Proteína C Reativa para o LRSP.",Concurso público,Aquisição de bens móveis,"33696000-5, Reagentes e meios de contraste","Administração Regional de Saúde do Algarve, I.P. (503148709)","Izasa Portugal - distribuições Técnicas, Lda. (501086110)","266.722,50 €",01-07-2013,21-06-2013,365 dias,"Portugal, Faro, Faro","Artigo 20.º, n.º 1, alínea b) do Código dos Contratos Públicos",20-06-2014,"255.750,00 €",,Não foram encomendadas as quantidades estimadas.,,Não aplicável.,Não aplicável.,
