Objeto do Contrato,Tipo de Procedimento,Tipo(s) de Contrato,CPVs,Entidade(s) Adjudicante(s),Entidade(s) Adjudicatária(s),Preço Contratual,Data de Publicação,Data de Celebração do Contrato,Prazo de Execução,Local de Execução,Fundamentação,Data de Fecho do Contrato,Preço Total Efetivo,Causas das Alterações ao Prazo,Causas das Alterações ao Preço,Estado,N.º registo do Acordo Quadro,Descrição do Acordo Quadro,Procedimento Centralizado
Aquisição de Medicamentos de aparelho genito-urinário para 2018 - Restantes ao abrigo do AQ 2015/48,Ao abrigo de acordo-quadro (art.º 259.º),Aquisição de bens móveis,"33600000-6, Produtos farmacêuticos","Hospital Professor Doutor Fernando Fonseca, E. P. E. (503035416)",Generis (508107997),"14,40 €",19-06-2018,14-06-2018,195 dias,"Portugal, Lisboa, Amadora",Artigo 259.º do Código dos Contratos Públicos,,,,,,1404918,CP 2015/48 - Acordo Quadro para fornecimento de Medicamentos de Consumo Geral - Aparelho Geniturinário às Instituições e Serviços do Serviço Nacional de Saúde,FALSE
Aquisição de Medicamentos de aparelho genito-urinário para 2018 - Restantes ao abrigo do AQ 2015/48,Ao abrigo de acordo-quadro (art.º 259.º),Aquisição de bens móveis,"33600000-6, Produtos farmacêuticos","Hospital Professor Doutor Fernando Fonseca, E. P. E. (503035416)",FARMOZ - SOCIEDADE TÉCNICO MEDICINAL S.A. (501505334),"15,30 €",19-06-2018,14-06-2018,195 dias,"Portugal, Lisboa, Amadora",Artigo 259.º do Código dos Contratos Públicos,,,,,,1404918,CP 2015/48 - Acordo Quadro para fornecimento de Medicamentos de Consumo Geral - Aparelho Geniturinário às Instituições e Serviços do Serviço Nacional de Saúde,FALSE
Aquisição de Medicamentos de aparelho genito-urinário para 2018 - Restantes ao abrigo do AQ 2015/48,Ao abrigo de acordo-quadro (art.º 259.º),Aquisição de bens móveis,"33600000-6, Produtos farmacêuticos","Hospital Professor Doutor Fernando Fonseca, E. P. E. (503035416)","ACCORD HEALTHCARE, UNIPESSOAL LDA (508622263)","159,60 €",19-06-2018,14-06-2018,195 dias,"Portugal, Lisboa, Amadora",Artigo 259.º do Código dos Contratos Públicos,,,,,,1404918,CP 2015/48 - Acordo Quadro para fornecimento de Medicamentos de Consumo Geral - Aparelho Geniturinário às Instituições e Serviços do Serviço Nacional de Saúde,FALSE
Aquisição de Serviços de Transporte de Doentes,Ajuste Direto Regime Geral,Aquisição de serviços,"60000000-8, Serviços de transporte (excl. transporte de resíduos)",Hospital Prof. Doutor Fernando Fonseca E.P.E. (503035416),Associação de Socorros da Freguesia da Encarnação (501866213),"118.875,00 €",18-06-2018,23-10-2017,92 dias,"Portugal, Lisboa, Amadora","Artigo 24.º, n.º 1, alínea c) do Código dos Contratos Públicos",,,,,,Não aplicável.,Não aplicável.,FALSE
Aquisição de Serviços de Comunicações Móveis. Para o ano 2017,Ajuste Direto Regime Geral,Aquisição de serviços,"64200000-8, Serviços de telecomunicações","Hospital Professor Doutor Fernando Fonseca, E. P. E. (503035416)",Pt Empresas (504615947),"73.000,00 €",15-06-2018,12-09-2017,365 dias,"Portugal, Lisboa, Amadora","Artigo 20.º, n.º 1, alínea a) do Código dos Contratos Públicos",,,,,,Não aplicável.,Não aplicável.,FALSE
Aquisição de Bastidor de rede e ativos para a Torre Sintra,Ajuste Direto Regime Geral,Aquisição de bens móveis<br/>Aquisição de serviços,"30236000-2, Equipamento informático diverso<BR/>51611100-9, Serviços de instalação de hardware","HOSPITAL PROFESSOR DOUTOR FERNANDO FONSECA, EPE (503035416)","GONKSYS, S.A.  (510874169)","18.884,88 €",15-06-2018,02-01-2018,1 dias,"Portugal, Lisboa, Amadora","Artigo 20.º, n.º 1, alínea a) do Código dos Contratos Públicos",,,,,,Não aplicável.,Não aplicável.,FALSE
"Aquisição de Serviços de Transporte de Doentes, para o período 01/10/2017 a 31/12/2017 ",Ajuste Direto Regime Geral,Aquisição de serviços,"85143000-3, Serviços de ambulâncias","HOSPITAL PROFESSOR DOUTOR FERNANDO FONSECA, EPE (503035416)",Associação de Socorros da Freguesia da Encarnação (501866213),"118.875,00 €",14-06-2018,29-12-2017,92 dias,"Portugal, Lisboa, Amadora","Artigo 24.º, n.º 1, alínea c) do Código dos Contratos Públicos",,,,,,Não aplicável.,Não aplicável.,FALSE
"Aquisição de 3 Frigoríficos e uma Arca, para o Serviço de Patologia",Ajuste Direto Regime Geral,Aquisição de bens móveis,"39711100-0, Frigoríficos e congeladores","Hospital Professor Doutor Fernando Fonseca, E. P. E. (503035416)",bluestream (513196781),"15.683,00 €",11-06-2018,12-10-2017,48 dias,"Portugal, Lisboa, Amadora","Artigo 20.º, n.º 1, alínea a) do Código dos Contratos Públicos",,,,,,Não aplicável.,Não aplicável.,FALSE
Aquisição Terminais Biométricos,Ajuste Direto Regime Geral,Aquisição de bens móveis,"31224500-7, Terminais","Hospital Professor Doutor Fernando Fonseca, E. P. E. (503035416)",Strike (509253903),"10.586,00 €",11-06-2018,10-03-2017,20 dias,"Portugal, Lisboa, Amadora","Artigo 20.º, n.º 1, alínea a) do Código dos Contratos Públicos",,,,,,Não aplicável.,Não aplicável.,FALSE
