Objeto do Contrato,Tipo de Procedimento,Tipo(s) de Contrato,CPVs,Entidade(s) Adjudicante(s),Entidade(s) Adjudicatária(s),Preço Contratual,Data de Publicação,Data de Celebração do Contrato,Prazo de Execução,Local de Execução,Fundamentação,Data de Fecho do Contrato,Preço Total Efetivo,Causas das Alterações ao Prazo,Causas das Alterações ao Preço,Estado,N.º registo do Acordo Quadro,Descrição do Acordo Quadro,Procedimento Centralizado
Placas e parafusos para cirurgia do punho,Ajuste Direto Regime Geral,Aquisição de bens móveis,"33000000-0, Equipamento médico, medicamentos e produtos para cuidados pessoais","Centro Hospitalar de Lisboa Central, E. P. E. (508080142)",Socime (504453939),"1.232,00 €",21-10-2016,08-02-2016,1 dias,"Portugal, Lisboa, Lisboa","Artigo 20.º, n.º 1, alínea a) do Código dos Contratos Públicos",,,,,,Não aplicável.,Não aplicável.,FALSE
Prótese de revisão,Ajuste Direto Regime Geral,Aquisição de bens móveis,"33000000-0, Equipamento médico, medicamentos e produtos para cuidados pessoais","Centro Hospitalar de Lisboa Central, E. P. E. (508080142)",Medicinália - Cormédica (500684324),"1.420,00 €",21-10-2016,19-02-2016,1 dias,"Portugal, Lisboa, Lisboa","Artigo 24.º, n.º 1, alínea e) do Código dos Contratos Públicos",,,,,,Não aplicável.,Não aplicável.,FALSE
Material para osteossintese da coluna,Ajuste Direto Regime Geral,Aquisição de bens móveis,"33000000-0, Equipamento médico, medicamentos e produtos para cuidados pessoais","Centro Hospitalar de Lisboa Central, E. P. E. (508080142)",Eurosintese  (503491403),"2.140,00 €",21-10-2016,08-02-2016,1 dias,"Portugal, Lisboa, Lisboa","Artigo 20.º, n.º 1, alínea a) do Código dos Contratos Públicos",,,,,,Não aplicável.,Não aplicável.,FALSE
Parafusos para cirurgia do pé,Ajuste Direto Regime Geral,Aquisição de bens móveis,"33000000-0, Equipamento médico, medicamentos e produtos para cuidados pessoais","Centro Hospitalar de Lisboa Central, E. P. E. (508080142)","BIOTRAUMA-INOVACAO CRIATIV.TRAUMATOLOGIA,LDA (509486835)","255,69 €",21-10-2016,08-02-2016,1 dias,"Portugal, Lisboa, Lisboa","Artigo 20.º, n.º 1, alínea a) do Código dos Contratos Públicos",,,,,,Não aplicável.,Não aplicável.,FALSE
AQUISIÇÃO DE MACITENTANO 10 MG COMP,Ajuste Direto Regime Geral,Aquisição de bens móveis,"33000000-0, Equipamento médico, medicamentos e produtos para cuidados pessoais","Centro Hospitalar de Lisboa Central, E. P. E. (508080142)","ACTELION PHARMACEUTICALS PORTUGAL, LDA. (507336488)","14.736,00 €",21-10-2016,03-10-2016,95 dias,"Portugal, Lisboa, Lisboa","Artigo 24.º, n.º 1, alínea e) do Código dos Contratos Públicos",,,,,,Não aplicável.,Não aplicável.,FALSE
Próteses de revisão,Ajuste Direto Regime Geral,Aquisição de bens móveis,"33000000-0, Equipamento médico, medicamentos e produtos para cuidados pessoais","Centro Hospitalar de Lisboa Central, E. P. E. (508080142)",JOHNSON (500153370),"29.070,25 €",21-10-2016,19-08-2016,134 dias,"Portugal, Lisboa, Lisboa","Artigo 24.º, n.º 1, alínea e) do Código dos Contratos Públicos",,,,,,Não aplicável.,Não aplicável.,FALSE
Placas e parafusos para fractura do punho e placa para acetábulo,Ajuste Direto Regime Geral,Aquisição de bens móveis,"33000000-0, Equipamento médico, medicamentos e produtos para cuidados pessoais","Centro Hospitalar de Lisboa Central, E. P. E. (508080142)",Stryker Portugal (504594214),"3.810,00 €",21-10-2016,23-08-2016,1 dias,"Portugal, Lisboa, Lisboa","Artigo 20.º, n.º 1, alínea a) do Código dos Contratos Públicos",,,,,,Não aplicável.,Não aplicável.,FALSE
Material de osteossíntese para fracturas da clavícula e olecraneo,Ajuste Direto Regime Geral,Aquisição de bens móveis,"33000000-0, Equipamento médico, medicamentos e produtos para cuidados pessoais","Centro Hospitalar de Lisboa Central, E. P. E. (508080142)",Stryker Portugal (504594214),"9.763,23 €",21-10-2016,23-08-2016,1 dias,"Portugal, Lisboa, Lisboa","Artigo 20.º, n.º 1, alínea a) do Código dos Contratos Públicos",,,,,,Não aplicável.,Não aplicável.,FALSE
A.A. 9G/L N+GLUCOSE 110G/L+LÍPIDOS 40G/L+ELECTRÓLIT EMUL INJ SAC TRIP 1500 ML IV,Ao abrigo de acordo-quadro (art.º 259.º),Aquisição de bens móveis,"33600000-6, Produtos farmacêuticos","Centro Hospitalar de Lisboa Central, E. P. E. (508080142)","BAXTER MÉDICO-FARMACÊUTICA, LDA. (503347345)","3.564,48 €",21-10-2016,11-02-2016,339 dias,"Portugal, Lisboa, Lisboa",Artigo 259.º do Código dos Contratos Públicos,,,,,,1377429,Acordo Quadro para fornecimento de medicamentos para Nutrição Parentérica às Instituições e Serviços do Serviço Nacional de Saúde,FALSE
cateter balão,Ajuste Direto Regime Geral,Aquisição de bens móveis,"33140000-3, Material médico de consumo","Centro Hospitalar de Lisboa Central, E. P. E. (508080142)",Endovascular (505537494),"35.400,00 €",21-10-2016,18-10-2016,89 dias,"Portugal, Lisboa, Lisboa","Artigo 20.º, n.º 1, alínea a) do Código dos Contratos Públicos",,,,,,Não aplicável.,Não aplicável.,FALSE
"AQUISICAO DE ATENOLOL, CAPTOPRIL E ENALAPRIL",Ao abrigo de acordo-quadro (art.º 259.º),Aquisição de bens móveis,"33600000-6, Produtos farmacêuticos","Centro Hospitalar de Lisboa Central, E. P. E. (508080142)",GENERIS - FARMACEUTICA SA (508107997),"5.052,50 €",21-10-2016,25-01-2016,341 dias,"Portugal, Lisboa, Lisboa",Artigo 259.º do Código dos Contratos Públicos,,,,,,1179915,"CONCURSO PÚBLICO PARA A CELEBRAÇÃO DE CONTRATOS PÚBLICOS DE APROVISIONAMENTO PARA A ÁREA DA SAÚDE, COM VISTA AO FORNECIMENTO DE MEDICAMENTOS DO APARELHO CARDIOVASCULAR, ÀS INSTITUIÇÕES E SERVIÇOS DO SERVIÇO NACIONAL DE SAÚDE",FALSE
canulas cardeoplegia,Concurso público,Aquisição de bens móveis,"33140000-3, Material médico de consumo","Centro Hospitalar de Lisboa Central, E. P. E. (508080142)","LUSOPALEX, LDA (503531588)","6.435,00 €",21-10-2016,30-09-2016,92 dias,"Portugal, Lisboa, Lisboa","Artigo 20.º, n.º 1, alínea b) do Código dos Contratos Públicos",,,,,,Não aplicável.,Não aplicável.,FALSE
Canulas cardeologia,Concurso público,Aquisição de bens móveis,"33140000-3, Material médico de consumo","Centro Hospitalar de Lisboa Central, E. P. E. (508080142)",Biosonda (501463313),"21.000,00 €",21-10-2016,13-10-2016,92 dias,"Portugal, Lisboa, Lisboa","Artigo 20.º, n.º 1, alínea b) do Código dos Contratos Públicos",,,,,,Não aplicável.,Não aplicável.,FALSE
canulas de cardeoplegia,Concurso público,Aquisição de bens móveis,"33140000-3, Material médico de consumo","Centro Hospitalar de Lisboa Central, E. P. E. (508080142)","MAQUET PORTUGAL - COMÉRCIO DE EQUIPAMENTOS HOSPITALARES, UNIPESSOAL LDA (506819698)","49.551,00 €",21-10-2016,30-09-2016,92 dias,"Portugal, Lisboa, Lisboa","Artigo 20.º, n.º 1, alínea b) do Código dos Contratos Públicos",,,,,,Não aplicável.,Não aplicável.,FALSE
Canulas de cardeoplogia,Concurso público,Aquisição de bens móveis,"33140000-3, Material médico de consumo","Centro Hospitalar de Lisboa Central, E. P. E. (508080142)","Medtronic Portugal - Comércio e Distribuição de Aparelhos Médicos, Lda (504223933)","116.380,00 €",21-10-2016,30-09-2016,92 dias,"Portugal, Lisboa, Lisboa","Artigo 20.º, n.º 1, alínea b) do Código dos Contratos Públicos",,,,,,Não aplicável.,Não aplicável.,FALSE
AQUISIÇÃO DE MEDICAMENTOS DIVERSOS II - PARA O ANO 2016,Ao abrigo de acordo-quadro (art.º 259.º),Aquisição de bens móveis,"33600000-6, Produtos farmacêuticos","Centro Hospitalar de Lisboa Central, E. P. E. (508080142)","GLAXOSMITHKLINE PRODUTOS FARMACEUTICOS (500139962), LABORATORIOS EDOL (507072642), ASTRAZENECA (502942240), Labesfal - Laboratórios Almiro, S.A. (501169580), SANDOZ FARMACÊUTICA, LDA (506985261), MERCK SHARP & DOHME LDA (500191360)","29.965,77 €",21-10-2016,28-01-2016,337 dias,"Portugal, Lisboa, Lisboa",Artigo 259.º do Código dos Contratos Públicos,,,,,,1513257,Acordo quadro para fornecimento de Medicamentos diversos II   às Instituições e Serviços do Serviço Nacional de Saúde,FALSE
AQUISICAO DE MEDICAMENTOS USADOS NAS AFECOES OCULARES,Ao abrigo de acordo-quadro (art.º 259.º),Aquisição de bens móveis,"33600000-6, Produtos farmacêuticos","Centro Hospitalar de Lisboa Central, E. P. E. (508080142)","LABORATORIO EDOL-PROD.FARM.S.A. (507072642), ALCON PORTUGAL-PROD.EQUIP.OFTALM., LDA (501251685), SANOFI - PRODUTOS FARMACÊUTICOS, LDA. (500134960), GENERIS-FARMACEUTICA,SA (508107997), GLAXOSMITHKLINE-PROD. FARMACÊUTICOS, LDA.          (500139962), Aurovitas Unipessoal, Lda (513053239)","22.694,70 €",21-10-2016,17-02-2016,344 dias,"Portugal, Lisboa, Lisboa",Artigo 259.º do Código dos Contratos Públicos,,,,,,602068,"CONCURSO PÚBLICO PARA A CELEBRAÇÃO DE CONTRATOS PÚBLICOS DE APROVISIONAMENTO PARA A ÁREA DA SAÚDE, COM VISTA AO FORNECIMENTO DE MEDICAMENTOS DE CONSUMO GERAL - MEDICAMENTOS USADOS NAS AFEÇÕES OCULARES E  OTORRINOLARINGOLÓGICAS, ÀS INSTITUIÇÕES E SERVIÇOS DO SERVIÇO NACIONAL DE SAÚDE",FALSE
510166/16 - Aquisição de Gemcitabina 1000 mg pó sol. inj. fr. IV,Ao abrigo de acordo-quadro (art.º 259.º),Aquisição de bens móveis,"33600000-6, Produtos farmacêuticos","Centro Hospitalar de Lisboa Central, E. P. E. (508080142)","ACCORD HEALTHCARE, UNIPESSOAL LDA (508622263)","11.037,00 €",21-10-2016,20-01-2016,300 dias,"Portugal, Lisboa, Lisboa",Artigo 259.º do Código dos Contratos Públicos,,,,,,345900,CONCURSO PÚBLICO PARA A CELEBRAÇÃO DE CONTRATOS PÚBLICOS DE APROVISIONAMENTO PARA AQUISIÇÃO MEDICAMENTOS DO FORO ONCOLÓGICO,FALSE
AQUISIÇÃO DE ALIMENTAÇÃO PARENTERICA,Ao abrigo de acordo-quadro (art.º 259.º),Aquisição de bens móveis,"33600000-6, Produtos farmacêuticos","Centro Hospitalar de Lisboa Central, E. P. E. (508080142)","B. Braun Medical, Lda (501506543), FRESENIUS KABI PHARMA PORTUGAL, LDA (504293753)","187.731,20 €",21-10-2016,07-03-2016,339 dias,"Portugal, Lisboa, Lisboa",Artigo 259.º do Código dos Contratos Públicos,,,,,,1377429,Acordo Quadro para fornecimento de medicamentos para Nutrição Parentérica às Instituições e Serviços do Serviço Nacional de Saúde,FALSE
"510299/16 - Aquisição de Tacrolímus 0.5 mg cáps., Tacrolímus 1 mg cáps. e Tacrolímus 5 mg cáps.",Ao abrigo de acordo-quadro (art.º 259.º),Aquisição de bens móveis,"33600000-6, Produtos farmacêuticos","Centro Hospitalar de Lisboa Central, E. P. E. (508080142)","ASTELLAS FARMA, LDA. (502540249)","121.986,00 €",21-10-2016,27-01-2016,300 dias,"Portugal, Lisboa, Lisboa",Artigo 259.º do Código dos Contratos Públicos,,,,,,345900,CONCURSO PÚBLICO PARA A CELEBRAÇÃO DE CONTRATOS PÚBLICOS DE APROVISIONAMENTO PARA AQUISIÇÃO MEDICAMENTOS DO FORO ONCOLÓGICO,FALSE
CARVEDILOL 6.25 MG E 25 MG COMP,Ao abrigo de acordo-quadro (art.º 259.º),Aquisição de bens móveis,"33600000-6, Produtos farmacêuticos","Centro Hospitalar de Lisboa Central, E. P. E. (508080142)","Farmoz - Sociedade Técnico Medicinal, S.A. (501505334), LABESFAL-LABORATORIOS ALMIRO, SA (501169580)","7.689,33 €",21-10-2016,18-01-2016,366 dias,"Portugal, Lisboa, Lisboa",Artigo 259.º do Código dos Contratos Públicos,,,,,,1179915,"CONCURSO PÚBLICO PARA A CELEBRAÇÃO DE CONTRATOS PÚBLICOS DE APROVISIONAMENTO PARA A ÁREA DA SAÚDE, COM VISTA AO FORNECIMENTO DE MEDICAMENTOS DO APARELHO CARDIOVASCULAR, ÀS INSTITUIÇÕES E SERVIÇOS DO SERVIÇO NACIONAL DE SAÚDE",FALSE
DORNASE ALFA 2.5MG/2.5ML SOL INAL NEB FR 2.5ML,Ao abrigo de acordo-quadro (art.º 259.º),Aquisição de bens móveis,"33600000-6, Produtos farmacêuticos","Centro Hospitalar de Lisboa Central, E. P. E. (508080142)","ROCHE Farmacêutica Quimica, Lda (500233810)","106.890,48 €",21-10-2016,13-01-2016,366 dias,"Portugal, Lisboa, Lisboa",Artigo 259.º do Código dos Contratos Públicos,,,,,,613816,"CONCURSO PÚBLICO PARA A CELEBRAÇÃO DE CONTRATOS PÚBLICOS DE APROVISIONAMENTO PARA A ÁREA DA SAÚDE, COM VISTA AO FORNECIMENTO DE MEDICAMENTOS DO APARELHO RESPIRATÓRIO, ÀS INSTITUIÇÕES E SERVIÇOS DO SERVIÇO NACIONAL DE SAÚDE",FALSE
"AQUISIÇÃO DE PARECOXIB 40MG; CINACALCET 30MG, 60MG E 90MG; DENOSUMAB 120MG E PIROXICAM 20MG/1ML",Ao abrigo de acordo-quadro (art.º 259.º),Aquisição de bens móveis,"33600000-6, Produtos farmacêuticos","Centro Hospitalar de Lisboa Central, E. P. E. (508080142)","LABORATORIOS PFIZER LDA (500162166), Pfizer Biofarmacêutica, Sociedade Unipessoal, Lda (513300376)","185.697,44 €",20-10-2016,08-01-2016,357 dias,"Portugal, Lisboa, Lisboa",Artigo 259.º do Código dos Contratos Públicos,,,,,,1410779,CP 2015/47 - Acordo quadro para fornecimento de medicamentos do aparelho locomotor às instituições e serviços do serviço nacional de saúde,FALSE
AQUISIÇÃO DE DEXAMETASONA 0.5 MG COMP,Ao abrigo de acordo-quadro (art.º 259.º),Aquisição de bens móveis,"33600000-6, Produtos farmacêuticos","Centro Hospitalar de Lisboa Central, E. P. E. (508080142)",LAB.MEDINFAR-PROD.FARMACEUTICO (500384045),"105,06 €",20-10-2016,09-09-2016,112 dias,"Portugal, Lisboa, Lisboa",Artigo 259.º do Código dos Contratos Públicos,,,,,,1415640,CP 2015/7 - ACORDO QUADRO PARA FORNECIMENTO DE HORMONAS E OUTROS MEDICAMENTOS USADOS NO TRATAMENTO DAS DOENÇAS ENDÓCRINAS ÀS INSTITUIÇÕES E SERVIÇOS DO SERVIÇO NACIONAL DE SAÚDE,FALSE
510306/16 - Aquisição de Doxorrubicina lipossómica 50 mg pó susp. inj. fr. IV,Ao abrigo de acordo-quadro (art.º 259.º),Aquisição de bens móveis,"33600000-6, Produtos farmacêuticos","Centro Hospitalar de Lisboa Central, E. P. E. (508080142)","TEVA PHARMA-PRODUTOS FARMACEUTICOS, LDA (507045491)","18.388,80 €",20-10-2016,03-02-2016,300 dias,"Portugal, Lisboa, Lisboa",Artigo 259.º do Código dos Contratos Públicos,,,,,,345900,CONCURSO PÚBLICO PARA A CELEBRAÇÃO DE CONTRATOS PÚBLICOS DE APROVISIONAMENTO PARA AQUISIÇÃO MEDICAMENTOS DO FORO ONCOLÓGICO,FALSE
410306/16 - Aquisição de Irinotecano 100 mg / 5 ml sol. inj. fr. 5 ml IV,Ajuste Direto Regime Geral,Aquisição de bens móveis,"33600000-6, Produtos farmacêuticos","Centro Hospitalar de Lisboa Central, E.P.E. (CHLC) (508080142)",Hikma Farmacêutica (Portugal) SA (502266791),"2.250,00 €",20-10-2016,10-03-2016,60 dias,"Portugal, Lisboa, Lisboa","Artigo 24.º, n.º 1, alínea c) do Código dos Contratos Públicos",,,,,,Não aplicável.,Não aplicável.,FALSE
510309/16 - Aquisição de Mitoxantrona 2 mg/ml sol. inj. fr. 10 ml IV,Ao abrigo de acordo-quadro (art.º 259.º),Aquisição de bens móveis,"33600000-6, Produtos farmacêuticos","Centro Hospitalar de Lisboa Central, E. P. E. (508080142)",BAXTER MED. FARMACEUTICA LDA (503347345),"8.424,00 €",20-10-2016,20-01-2016,300 dias,"Portugal, Lisboa, Lisboa",Artigo 259.º do Código dos Contratos Públicos,,,,,,1224054,"CONCURSO PÚBLICO PARA A CELEBRAÇÃO DE CONTRATOS PÚBLICOS DE APROVISIONAMENTO PARA A ÁREA DA SAÚDE, COM VISTA AO FORNECIMENTO DE MEDICAMENTOS DO FORO ONCOLÓGICO II, ÀS INSTITUIÇÕES E SERVIÇOS DO SERVIÇO NACIONAL DE SAÚDE  ",FALSE
410311/16 - Aquisição de Exemestano 25 mg comp.,Ajuste Direto Regime Geral,Aquisição de bens móveis,"33600000-6, Produtos farmacêuticos","Centro Hospitalar de Lisboa Central, E.P.E. (CHLC) (508080142)","LAB. PFIZER, LDA.                                  (500162166)","350,40 €",20-10-2016,10-03-2016,60 dias,"Portugal, Lisboa, Lisboa","Artigo 24.º, n.º 1, alínea c) do Código dos Contratos Públicos",,,,,,Não aplicável.,Não aplicável.,FALSE
AQUISIÇÃO DE AMOXICILINAS;IMIPENEM  + CILASTATINA E MEROPENEM,Ao abrigo de acordo-quadro (art.º 259.º),Aquisição de bens móveis,"33600000-6, Produtos farmacêuticos","Centro Hospitalar de Lisboa Central, E. P. E. (508080142)","BIAL - PORTELA & CA, SA (500220913), Hikma Farmacêutica (Portugal) SA (502266791), LABORATORIOS ATRAL,SA (500162085), MERCK SHARP & DOHME LDA (500191360), FRESENIUS KABI PHARMA PORTUGAL (504293753)","156.552,90 €",20-10-2016,11-01-2016,354 dias,"Portugal, Lisboa, Lisboa",Artigo 259.º do Código dos Contratos Públicos,,,,,,1326195,ACORDO QUADRO PARA FORNECIMENTO DE MEDICAMENTOS ANTI-INFECIOSOS: EXCETO ANTIVÍRICOS E ANTIFÚNGICOS ÀS INSTITUIÇÕES E SERVIÇOS DO SERVIÇO NACIONAL DE SAÚDE,FALSE
410325/16 - Aquisição de Capecitabina 500 mg comp.,Ajuste Direto Regime Geral,Aquisição de bens móveis,"33600000-6, Produtos farmacêuticos","Centro Hospitalar de Lisboa Central, E.P.E. (CHLC) (508080142)","SANOFI- PRODUTOS FARMACÊUTICOS,LDA.                (500134960)","1.260,00 €",20-10-2016,10-03-2016,60 dias,"Portugal, Lisboa, Lisboa","Artigo 24.º, n.º 1, alínea c) do Código dos Contratos Públicos",,,,,,Não aplicável.,Não aplicável.,FALSE
410326/16 - Aquisição de Citarabina 100 mg/ml sol. inj. fr. 20 ml IV SC,Ajuste Direto Regime Geral,Aquisição de bens móveis,"33600000-6, Produtos farmacêuticos","Centro Hospitalar de Lisboa Central, E.P.E. (CHLC) (508080142)","FRESENIUS KABI PHARMA PORTUGAL,LDA (504293753)","6.560,00 €",20-10-2016,10-03-2016,60 dias,"Portugal, Lisboa, Lisboa","Artigo 24.º, n.º 1, alínea c) do Código dos Contratos Públicos",,,,,,Não aplicável.,Não aplicável.,FALSE
AQUISIÇÃO DE MEDICAMENTOS ANESTÉSICOS GERAIS E LOCAIS I,Ao abrigo de acordo-quadro (art.º 259.º),Aquisição de bens móveis,"33600000-6, Produtos farmacêuticos","Centro Hospitalar de Lisboa Central, E. P. E. (508080142)","Labesfal - Laboratórios Almiro, S.A. (501169580), FRESENIUS KABI PHARMA PORTUGAL (504293753), OVERPHARMA - PROD.MED.FARM.LDA (505792362)","78.768,70 €",20-10-2016,08-01-2016,357 dias,"Portugal, Lisboa, Lisboa",Artigo 259.º do Código dos Contratos Públicos,,,,,,1326195,ACORDO QUADRO PARA FORNECIMENTO DE MEDICAMENTOS ANTI-INFECIOSOS: EXCETO ANTIVÍRICOS E ANTIFÚNGICOS ÀS INSTITUIÇÕES E SERVIÇOS DO SERVIÇO NACIONAL DE SAÚDE,FALSE
AQUISIÇÃO DE NISTATINA 100000 U.I./ML SUSP ORAL FR 30 ML,Ao abrigo de acordo-quadro (art.º 259.º),Aquisição de bens móveis,"33600000-6, Produtos farmacêuticos","Centro Hospitalar de Lisboa Central, E. P. E. (508080142)",BRISTOL-MYERS SQUIBB Farmacêutica Portuguesa SA (500048193),"1.560,00 €",20-10-2016,14-10-2016,77 dias,"Portugal, Lisboa, Lisboa",Artigo 259.º do Código dos Contratos Públicos,,,,,,1422736,CP 2015/41 - ACORDO QUADRO PARA FORNECIMENTO DE MEDICAMENTOS ANTI-INFECIOSOS: ANTIVÍRICOS E ANTIFÚNGICOS ÀS INSTITUIÇÕES E SERVIÇOS DO SERVIÇO NACIONAL DE SAÚDE,FALSE
AQUISIÇÃO DE AMPICILINA 1000 MG PÓ SOL INJ FR IM IV,Ao abrigo de acordo-quadro (art.º 259.º),Aquisição de bens móveis,"33600000-6, Produtos farmacêuticos","Centro Hospitalar de Lisboa Central, E. P. E. (508080142)","Labesfal - Laboratórios Almiro, S.A. (501169580)","3.594,00 €",20-10-2016,11-10-2016,80 dias,"Portugal, Lisboa, Lisboa",Artigo 259.º do Código dos Contratos Públicos,,,,,,1326195,ACORDO QUADRO PARA FORNECIMENTO DE MEDICAMENTOS ANTI-INFECIOSOS: EXCETO ANTIVÍRICOS E ANTIFÚNGICOS ÀS INSTITUIÇÕES E SERVIÇOS DO SERVIÇO NACIONAL DE SAÚDE,FALSE
AQUISIÇÃO DE DENOSUMAB 120 MG SOL INJ FR 1.7 ML SC,Ao abrigo de acordo-quadro (art.º 259.º),Aquisição de bens móveis,"33600000-6, Produtos farmacêuticos","Centro Hospitalar de Lisboa Central, E. P. E. (508080142)",AMGEN-BIOFARMACEUTICA (502942959),"10.718,80 €",20-10-2016,13-05-2016,231 dias,"Portugal, Lisboa, Lisboa",Artigo 259.º do Código dos Contratos Públicos,,,,,,1410779,CP 2015/47 - Acordo quadro para fornecimento de medicamentos do aparelho locomotor às instituições e serviços do serviço nacional de saúde,FALSE
"Próteses, Slings e Minislings",Concurso público,Aquisição de bens móveis,"33140000-3, Material médico de consumo","Centro Hospitalar de Lisboa Central, E. P. E. (508080142)",Endotécnica - Mat. Cirurgico (503818348),"6.200,00 €",18-10-2016,29-09-2016,365 dias,"Portugal, Lisboa, Lisboa","Artigo 20.º, n.º 1, alínea b) do Código dos Contratos Públicos",,,,,,Não aplicável.,Não aplicável.,FALSE
"Próteses, Slings e Minislings",Concurso público,Aquisição de bens móveis,"33140000-3, Material médico de consumo","Centro Hospitalar de Lisboa Central, E. P. E. (508080142)","CRBard Portugal, Lda. (502438274)","31.000,00 €",18-10-2016,11-10-2016,365 dias,"Portugal, Lisboa, Lisboa","Artigo 20.º, n.º 1, alínea b) do Código dos Contratos Públicos",,,,,,Não aplicável.,Não aplicável.,FALSE
"Próteses, Slings e Minislings",Concurso público,Aquisição de bens móveis,"33140000-3, Material médico de consumo","Centro Hospitalar de Lisboa Central, E. P. E. (508080142)",Boston Scientific Portugal (504988964),"48.000,00 €",18-10-2016,11-10-2016,365 dias,"Portugal, Lisboa, Lisboa","Artigo 20.º, n.º 1, alínea b) do Código dos Contratos Públicos",,,,,,Não aplicável.,Não aplicável.,FALSE
Aquisição de Idarrubicina 5 mg / 5 ml sol. inj. fr. 5 ml IV,Ao abrigo de acordo-quadro (art.º 259.º),Aquisição de bens móveis,"33600000-6, Produtos farmacêuticos","Centro Hospitalar de Lisboa Central, E.P.E. (CHLC) (508080142)","ACCORD HEALTHCARE, UNIPESSOAL Lda.   (508622263)","9.360,00 €",18-10-2016,18-10-2016,60 dias,"Portugal, Lisboa, Lisboa",Artigo 259.º do Código dos Contratos Públicos,,,,,,1771819,CP 2015/6 - Acordo quadro para o fornecimento de Medicamentos do Foro Oncológico,FALSE
510779/16 - Aquisição de Belimumab 400 mg pó conc. sol. inj. fr. IV,Ao abrigo de acordo-quadro (art.º 259.º),Aquisição de bens móveis,"33600000-6, Produtos farmacêuticos","Centro Hospitalar de Lisboa Central, E.P.E. (CHLC) (508080142)",GLAXOSMITHKLINE PRODUTOS FARMACEUTICOS (500139962),"34.859,20 €",18-10-2016,18-10-2016,80 dias,"Portugal, Lisboa, Lisboa",Artigo 259.º do Código dos Contratos Públicos,,,,,,1771819,CP 2015/6 - Acordo quadro para o fornecimento de Medicamentos do Foro Oncológico,FALSE
410647/16 - Aquisição de Electrólitos 1.2 mmol/l sol. hemodi. hemofi. fr. 5000 ml IV (Phoxilium),Ajuste Direto Regime Geral,Aquisição de bens móveis,"33600000-6, Produtos farmacêuticos","Centro Hospitalar de Lisboa Central, E.P.E. (CHLC) (508080142)","BAXTER MEDICO - FARMACEUTICO, LDA (503347345)","9.000,00 €",18-10-2016,18-10-2016,80 dias,"Portugal, Lisboa, Lisboa","Artigo 24.º, n.º 1, alínea e) do Código dos Contratos Públicos",,,,,,Não aplicável.,Não aplicável.,FALSE
510806/16 - Aquisição de Tacrolímus 0.5 mg cáps. LP,Ao abrigo de acordo-quadro (art.º 259.º),Aquisição de bens móveis,"33600000-6, Produtos farmacêuticos","Centro Hospitalar de Lisboa Central, E. P. E. (508080142)","ASTELLAS FARMA ,LDA (502540249)","3.858,00 €",18-10-2016,18-10-2016,80 dias,"Portugal, Lisboa, Lisboa",Artigo 259.º do Código dos Contratos Públicos,,,,,,1771819,CP 2015/6 - Acordo quadro para o fornecimento de Medicamentos do Foro Oncológico,FALSE
510807/16 - Aquisição de Sufentanilo 0.05 mg/ml sol. inj. fr. 5 ml epidural IV,Ao abrigo de acordo-quadro (art.º 259.º),Aquisição de bens móveis,"33600000-6, Produtos farmacêuticos","Centro Hospitalar de Lisboa Central, E. P. E. (508080142)",JANSSEN-CILAG FARMACEUTICA (500189412),"294,16 €",18-10-2016,18-10-2016,60 dias,"Portugal, Lisboa, Lisboa",Artigo 259.º do Código dos Contratos Públicos,,,,,,1974985,"Medicamentos Analgésicos, Antipiréticos e Antidepressivos",FALSE
Aquisição de IMUNOGLOBULINA HUMANA NORMAL 50 MG/ML SOL INJ FR 100 ML IV,Ajuste Direto Regime Geral,Aquisição de bens móveis,"33000000-0, Equipamento médico, medicamentos e produtos para cuidados pessoais","Centro Hospitalar de Lisboa Central, E. P. E. (508080142)","Kedrion Portugal, Lda. (508472830)","864.000,00 €",18-10-2016,20-09-2016,90 dias,"Portugal, Lisboa, Lisboa","Artigo 24.º, n.º 1, alínea c) do Código dos Contratos Públicos",,,,,,Não aplicável.,Não aplicável.,FALSE
AQUISIÇÃO DE LIDOCAÍNAS,Ao abrigo de acordo-quadro (art.º 259.º),Aquisição de bens móveis,"33600000-6, Produtos farmacêuticos","Centro Hospitalar de Lisboa Central, E. P. E. (508080142)","Labesfal - Laboratórios Almiro, S.A. (501169580), GRUNENTHAL, LDA (500101965)","75.708,82 €",17-10-2016,11-01-2016,354 dias,"Portugal, Lisboa, Lisboa",Artigo 259.º do Código dos Contratos Públicos,,,,,,611371,"CONCURSO PÚBLICO PARA A CELEBRAÇÃO DE CONTRATOS PÚBLICOS DE APROVISIONAMENTO PARA A ÁREA DA SAÚDE, COM VISTA AO FORNECIMENTO DE MEDICAMENTOS ANESTÉSICOS E RELAXANTES MUSCULARES, ÀS INSTITUIÇÕES E SERVIÇOS DO SERVIÇO NACIONAL DE SAÚDE    ",FALSE
AQUISIÇÃO DE MEDICAMENTOS ANTIBACTERIANOS III,Ao abrigo de acordo-quadro (art.º 259.º),Aquisição de bens móveis,"33600000-6, Produtos farmacêuticos","Centro Hospitalar de Lisboa Central, E. P. E. (508080142)","Hikma Farmacêutica (Portugal) SA (502266791), Labesfal - Laboratórios Almiro, S.A. (501169580)","121.875,74 €",17-10-2016,08-01-2016,357 dias,"Portugal, Lisboa, Lisboa",Artigo 259.º do Código dos Contratos Públicos,,,,,,1326195,ACORDO QUADRO PARA FORNECIMENTO DE MEDICAMENTOS ANTI-INFECIOSOS: EXCETO ANTIVÍRICOS E ANTIFÚNGICOS ÀS INSTITUIÇÕES E SERVIÇOS DO SERVIÇO NACIONAL DE SAÚDE,FALSE
ÁCIDO FÓLICO 5/ÁC. ACETILSALICÍLICO 100/CIANOCOBALAMINA 1/CLOPIDOGREL 75 MG,Ao abrigo de acordo-quadro (art.º 259.º),Aquisição de bens móveis,"33600000-6, Produtos farmacêuticos","Centro Hospitalar de Lisboa Central, E. P. E. (508080142)","BIAL - PORTELA & CA, SA (500220913), Aurovitas, Unipessoal, Lda (513053239)","6.180,12 €",17-10-2016,21-01-2016,344 dias,"Portugal, Lisboa, Lisboa",Artigo 259.º do Código dos Contratos Públicos,,,,,,1210107,"CONCURSO PÚBLICO PARA A CELEBRAÇÃO DE CONTRATOS PÚBLICOS DE APROVISIONAMENTO PARA A ÁREA DA SAÚDE, COM VISTA AO FORNECIMENTO DE MEDICAMENTOS DO GRUPO 4: SANGUE, ÀS INSTITUIÇÕES E SERVIÇOS DO SERVIÇO NACIONAL DE SAÚDE",FALSE
AQUISIÇÃO DE CEFOXITINA 1000 MG PÓ SOL INJ FR IV,Ao abrigo de acordo-quadro (art.º 259.º),Aquisição de bens móveis,"33600000-6, Produtos farmacêuticos","Centro Hospitalar de Lisboa Central, E. P. E. (508080142)",Hikma Farmacêutica (Portugal) SA (502266791),"12.900,00 €",17-10-2016,24-08-2016,128 dias,"Portugal, Lisboa, Lisboa",Artigo 259.º do Código dos Contratos Públicos,,,,,,1326195,ACORDO QUADRO PARA FORNECIMENTO DE MEDICAMENTOS ANTI-INFECIOSOS: EXCETO ANTIVÍRICOS E ANTIFÚNGICOS ÀS INSTITUIÇÕES E SERVIÇOS DO SERVIÇO NACIONAL DE SAÚDE,FALSE
AQUISIÇÃO DE ROPIVACAÍNA 2 MG/ML SOL INJ FR 20 ML EPIDURAL PERINEURAL,Ao abrigo de acordo-quadro (art.º 259.º),Aquisição de bens móveis,"33600000-6, Produtos farmacêuticos","Centro Hospitalar de Lisboa Central, E. P. E. (508080142)",FRESENIUS KABI PHARMA PORTUGAL (504293753),"2.620,00 €",17-10-2016,14-10-2016,77 dias,"Portugal, Lisboa, Lisboa",Artigo 259.º do Código dos Contratos Públicos,,,,,,611371,"CONCURSO PÚBLICO PARA A CELEBRAÇÃO DE CONTRATOS PÚBLICOS DE APROVISIONAMENTO PARA A ÁREA DA SAÚDE, COM VISTA AO FORNECIMENTO DE MEDICAMENTOS ANESTÉSICOS E RELAXANTES MUSCULARES, ÀS INSTITUIÇÕES E SERVIÇOS DO SERVIÇO NACIONAL DE SAÚDE    ",FALSE
AQUISIÇÃO DE MEDICAMENTOS ANESTÉSICOS GERAIS E LOCAIS II,Ao abrigo de acordo-quadro (art.º 259.º),Aquisição de bens móveis,"33600000-6, Produtos farmacêuticos","Centro Hospitalar de Lisboa Central, E. P. E. (508080142)","Sanofi - Produtos Farmacêuticos, Lda. (500134960), FRESENIUS KABI PHARMA PORTUGAL (504293753), B.BRAUN MEDICAL LDA (501506543), Teva Pharma - Produtos Farmacêuticos, Lda. (507045491), OVERPHARMA - PROD.MED.FARM.LDA (505792362), GLAXOSMITHKLINE PRODUTOS FARMACEUTICOS (500139962), HOSPIRA PORTUGAL, LDA (502918098), MERCK SHARP & DOHME LDA (500191360), NOVARTIS FARMA S.A. (500063524)","80.239,24 €",17-10-2016,11-01-2016,354 dias,"Portugal, Lisboa, Lisboa",Artigo 259.º do Código dos Contratos Públicos,,,,,,611371,"CONCURSO PÚBLICO PARA A CELEBRAÇÃO DE CONTRATOS PÚBLICOS DE APROVISIONAMENTO PARA A ÁREA DA SAÚDE, COM VISTA AO FORNECIMENTO DE MEDICAMENTOS ANESTÉSICOS E RELAXANTES MUSCULARES, ÀS INSTITUIÇÕES E SERVIÇOS DO SERVIÇO NACIONAL DE SAÚDE    ",FALSE
AQUISIÇÃO DE SEVOFLURANO LÍQ INAL VAPO FR 250 ML,Ao abrigo de acordo-quadro (art.º 259.º),Aquisição de bens móveis,"33600000-6, Produtos farmacêuticos","Centro Hospitalar de Lisboa Central, E. P. E. (508080142)","Abbvie,Lda (510229050)","260.400,00 €",17-10-2016,22-01-2016,343 dias,"Portugal, Lisboa, Lisboa",Artigo 259.º do Código dos Contratos Públicos,,,,,,611371,"CONCURSO PÚBLICO PARA A CELEBRAÇÃO DE CONTRATOS PÚBLICOS DE APROVISIONAMENTO PARA A ÁREA DA SAÚDE, COM VISTA AO FORNECIMENTO DE MEDICAMENTOS ANESTÉSICOS E RELAXANTES MUSCULARES, ÀS INSTITUIÇÕES E SERVIÇOS DO SERVIÇO NACIONAL DE SAÚDE    ",FALSE
AGALSIDASE BETA 5 MG PÓ SOL INJ FR IV,Ao abrigo de acordo-quadro (art.º 259.º),Aquisição de bens móveis,"33600000-6, Produtos farmacêuticos","Centro Hospitalar de Lisboa Central, E. P. E. (508080142)","Sanofi - Produtos Farmacêuticos, Lda. (500134960)","29.630,64 €",17-10-2016,05-02-2016,329 dias,"Portugal, Lisboa, Lisboa",Artigo 259.º do Código dos Contratos Públicos,,,,,,1338581,"Acordo quadro para fornecimento de Medicação antialérgica, medicamentos usados no tratamento de intoxicações, vitaminas e sais minerais e grupo 20.9 - outros produtos às instituições e serviços do serviço nacional de saúde",FALSE
AQUISIÇÃO DE PIPERACILINA 4000MG E 2000MG + TAZOBACTAM 500MG E 250MG PÓ SOL INJ FR IV,Ao abrigo de acordo-quadro (art.º 259.º),Aquisição de bens móveis,"33600000-6, Produtos farmacêuticos","Centro Hospitalar de Lisboa Central, E. P. E. (508080142)","ACCORD HEALTHCARE, UNIPESSOAL Lda.   (508622263), FRESENIUS KABI PHARMA PORTUGAL (504293753)","161.188,00 €",17-10-2016,08-01-2016,357 dias,"Portugal, Lisboa, Lisboa",Artigo 259.º do Código dos Contratos Públicos,,,,,,1326195,ACORDO QUADRO PARA FORNECIMENTO DE MEDICAMENTOS ANTI-INFECIOSOS: EXCETO ANTIVÍRICOS E ANTIFÚNGICOS ÀS INSTITUIÇÕES E SERVIÇOS DO SERVIÇO NACIONAL DE SAÚDE,FALSE
Sistemas para Colheita de Sangue,Ao abrigo de acordo-quadro (art.º 259.º),Aquisição de bens móveis,"33140000-3, Material médico de consumo","Centro Hospitalar de Lisboa Central, E. P. E. (508080142)",Sarstedt (503019461),"462,00 €",17-10-2016,14-10-2016,79 dias,"Portugal, Lisboa, Lisboa",Artigo 259.º do Código dos Contratos Públicos,,,,,,1350003,Acordo Quadro para fornecimento de sistemas fechados e material diverso de recolha de sangue às instituições do SNS,FALSE
AQUISIÇÃO DE ÉSTERES DE ÁCIDOS GORDOS IODADOS 480 MG/ML SOL INJ FR 10 ML ILINFÁTI IV,Ajuste Direto Regime Geral,Aquisição de bens móveis,"33000000-0, Equipamento médico, medicamentos e produtos para cuidados pessoais","Centro Hospitalar de Lisboa Central, E. P. E. (508080142)","A. MARTINS & FERNANDES, SA (501172114)","13.500,00 €",17-10-2016,27-01-2016,365 dias,"Portugal, Lisboa, Lisboa","Artigo 24.º, n.º 1, alínea e) do Código dos Contratos Públicos",,,,,,Não aplicável.,Não aplicável.,FALSE
AQUISIÇÃO DE AMIFAMPRIDINA 10 MG COMP,Ajuste Direto Regime Geral,Aquisição de bens móveis,"33000000-0, Equipamento médico, medicamentos e produtos para cuidados pessoais","Centro Hospitalar de Lisboa Central, E. P. E. (508080142)","LOGIFARMA-LOGISTICA FARMACEUTICA, S.A. (503934640)","78.312,00 €",17-10-2016,18-02-2016,365 dias,"Portugal, Lisboa, Lisboa","Artigo 24.º, n.º 1, alínea e) do Código dos Contratos Públicos",,,,,,Não aplicável.,Não aplicável.,FALSE
Placa e parafusos para coluna cervical,Ajuste Direto Regime Geral,Aquisição de bens móveis,"33140000-3, Material médico de consumo","Centro Hospitalar de Lisboa Central, E. P. E. (508080142)",Zimmer Biomet (500254990),"5.207,00 €",17-10-2016,18-08-2016,365 dias,"Portugal, Lisboa, Lisboa","Artigo 20.º, n.º 1, alínea a) do Código dos Contratos Públicos",,,,,,Não aplicável.,Não aplicável.,FALSE
Parafusos e barras para cirurgia da coluna,Ajuste Direto Regime Geral,Aquisição de bens móveis,"33140000-3, Material médico de consumo","Centro Hospitalar de Lisboa Central, E. P. E. (508080142)",Medtronic Portugal (504223933),"14.280,00 €",17-10-2016,12-08-2016,365 dias,"Portugal, Lisboa, Lisboa","Artigo 20.º, n.º 1, alínea a) do Código dos Contratos Públicos",,,,,,Não aplicável.,Não aplicável.,FALSE
Diverso Material para Artroplastia da Anca,Ajuste Direto Regime Geral,Aquisição de bens móveis,"33140000-3, Material médico de consumo","Centro Hospitalar de Lisboa Central, E. P. E. (508080142)",Biomet Portugal (500254990),"10.764,80 €",17-10-2016,17-08-2016,365 dias,"Portugal, Lisboa, Lisboa","Artigo 20.º, n.º 1, alínea a) do Código dos Contratos Públicos",,,,,,Não aplicável.,Não aplicável.,FALSE
Material para osteossintese rigida da coluna,Ajuste Direto Regime Geral,Aquisição de bens móveis,"33140000-3, Material médico de consumo","Centro Hospitalar de Lisboa Central, E. P. E. (508080142)",Zimmer Biomet (500254990),"7.434,00 €",17-10-2016,23-08-2016,365 dias,"Portugal, Lisboa, Lisboa","Artigo 20.º, n.º 1, alínea a) do Código dos Contratos Públicos",,,,,,Não aplicável.,Não aplicável.,FALSE
Aquisição de BENZIDAMINA 1.5 MG/ML SOL LAV BOCA FR 240 ML,Ao abrigo de acordo-quadro (art.º 259.º),Aquisição de bens móveis,"33000000-0, Equipamento médico, medicamentos e produtos para cuidados pessoais","Centro Hospitalar de Lisboa Central, E. P. E. (508080142)","ANGELINI  FARMACEUTICA, LDA           (500583650)","22.500,00 €",17-10-2016,06-01-2016,365 dias,"Portugal, Lisboa, Lisboa",Artigo 259.º do Código dos Contratos Públicos,,,,,,2222779,Medicamentos do aparelho digestivo,FALSE
Aquisição de NINTEDANIB 150 MG CÁPS,Ajuste Direto Regime Geral,Aquisição de bens móveis,"33000000-0, Equipamento médico, medicamentos e produtos para cuidados pessoais","Centro Hospitalar de Lisboa Central, E. P. E. (508080142)","UNILFARMA - UNIAO INT. LAB. FARMACEUTICOS, LDA (500293023)","10.785,35 €",17-10-2016,26-08-2016,180 dias,"Portugal, Lisboa, Lisboa","Artigo 24.º, n.º 1, alínea e) do Código dos Contratos Públicos",,,,,,Não aplicável.,Não aplicável.,FALSE
Placas e parafusos para fraturas do úmero distal e clavícula,Ajuste Direto Regime Geral,Aquisição de bens móveis,"33140000-3, Material médico de consumo","Centro Hospitalar de Lisboa Central, E. P. E. (508080142)","STRYKER PORTUGAL PRODUTOS MÉDICOS, LDA. (504594214)","5.438,91 €",17-10-2016,15-09-2016,365 dias,"Portugal, Lisboa, Lisboa","Artigo 20.º, n.º 1, alínea a) do Código dos Contratos Públicos",,,,,,Não aplicável.,Não aplicável.,FALSE
Aquisição de raltegravir 600mg comp,Ao abrigo de acordo-quadro (art.º 259.º),Aquisição de bens móveis,"33000000-0, Equipamento médico, medicamentos e produtos para cuidados pessoais","Centro Hospitalar de Lisboa Central, E. P. E. (508080142)",Merck Sharp & Dohme Lda (500191360),"360.000,00 €",17-10-2016,10-10-2016,30 dias,"Portugal, Lisboa, Lisboa",Artigo 259.º do Código dos Contratos Públicos,,,,,,1120578,"CONCURSO PÚBLICO PARA A CELEBRAÇÃO DE CONTRATOS PÚBLICOS DE APROVISIONAMENTO PARA A ÁREA DA SAÚDE, COM VISTA AO FORNECIMENTO DE MEDICAMENTOS ANTI-RETROVIRAIS, ÀS INSTITUIÇÕES E SERVIÇOS DO SERVIÇO NACIONAL DE SAÚDE  ",FALSE
Aquisição de POLIELECTROL SOL INJ FR 1000 ML IV e POLIELECTROL SOL INJ FR 500 ML IV,Ao abrigo de acordo-quadro (art.º 259.º),Aquisição de bens móveis,"33000000-0, Equipamento médico, medicamentos e produtos para cuidados pessoais","Centro Hospitalar de Lisboa Central, E. P. E. (508080142)",BAXTER MEDICO FARMACEUTICA LDA (503347345),"10.759,19 €",17-10-2016,27-06-2016,180 dias,"Portugal, Lisboa, Lisboa",Artigo 259.º do Código dos Contratos Públicos,,,,,,1331181,Acordo Quadro para fornecimento de corretivos da volémia e outras soluções estéreis às Instituições e Serviços do Serviço Nacional de Saúde,FALSE
Aquisição de Dolutegravir 50mg comp,Ajuste Direto Regime Geral,Aquisição de bens móveis,"33000000-0, Equipamento médico, medicamentos e produtos para cuidados pessoais","Centro Hospitalar de Lisboa Central, E. P. E. (508080142)","ViiVHIV Healthcare, Unipessoal Lda. (509117961)","677.601,54 €",17-10-2016,18-08-2016,180 dias,"Portugal, Lisboa, Lisboa","Artigo 24.º, n.º 1, alínea e) do Código dos Contratos Públicos",,,,,,Não aplicável.,Não aplicável.,FALSE
Cateter Peritoneal,Ajuste Direto Regime Geral,Aquisição de bens móveis,"33140000-3, Material médico de consumo","Centro Hospitalar de Lisboa Central, E. P. E. (508080142)",Johnson & Johnson (500153370),"60,35 €",17-10-2016,14-09-2016,365 dias,"Portugal, Lisboa, Lisboa","Artigo 20.º, n.º 1, alínea a) do Código dos Contratos Públicos",,,,,,Não aplicável.,Não aplicável.,FALSE
AQUISIÇÃO DE PARICALCITOL 1 µG CÁPS E PARICALCITOL 2 µG CÁPS,Ao abrigo de acordo-quadro (art.º 259.º),Aquisição de bens móveis,"33600000-6, Produtos farmacêuticos","Centro Hospitalar de Lisboa Central, E. P. E. (508080142)","Abbvie,Lda (510229050)","135.938,71 €",14-10-2016,08-01-2016,357 dias,"Portugal, Lisboa, Lisboa",Artigo 259.º do Código dos Contratos Públicos,,,,,,1410779,CP 2015/47 - Acordo quadro para fornecimento de medicamentos do aparelho locomotor às instituições e serviços do serviço nacional de saúde,FALSE
AQUISIÇÃO DE LINEZOLIDA 600 MG/300 ML SOL INJ FR 300 ML IV,Ajuste Direto Regime Geral,Aquisição de bens móveis,"33600000-6, Produtos farmacêuticos","Centro Hospitalar de Lisboa Central, E. P. E. (508080142)",FRESENIUS KABI PHARMA PORTUGAL (504293753),"8.880,00 €",14-10-2016,21-09-2016,100 dias,"Portugal, Lisboa, Lisboa","Artigo 20.º, n.º 1, alínea a) do Código dos Contratos Públicos",,,,,,Não aplicável.,Não aplicável.,FALSE
AQUISIÇÃO DE TROLAMINA 6.7 MG/G EMUL CUT BISN 100 ML,Ao abrigo de acordo-quadro (art.º 259.º),Aquisição de bens móveis,"33600000-6, Produtos farmacêuticos","Centro Hospitalar de Lisboa Central, E. P. E. (508080142)",JOHNSON & JOHNSON MEDICAL (500153370),"10.238,88 €",14-10-2016,11-10-2016,80 dias,"Portugal, Lisboa, Lisboa",Artigo 259.º do Código dos Contratos Públicos,,,,,,1315192,Acordo Quadro para fornecimento de material de penso de efeito terapêutico às Instituições e Serviços do Serviço Nacional de Saúde,FALSE
AQUISIÇÃO DE SOMATROPINA 6 MG PÓ SOL INJ CARTU SC,Ao abrigo de acordo-quadro (art.º 259.º),Aquisição de bens móveis,"33600000-6, Produtos farmacêuticos","Centro Hospitalar de Lisboa Central, E. P. E. (508080142)","Lilly Portugal - Produtos Farmacêuticos, Lda. (500165602)","35.781,60 €",14-10-2016,09-09-2016,112 dias,"Portugal, Lisboa, Lisboa",Artigo 259.º do Código dos Contratos Públicos,,,,,,1415640,CP 2015/7 - ACORDO QUADRO PARA FORNECIMENTO DE HORMONAS E OUTROS MEDICAMENTOS USADOS NO TRATAMENTO DAS DOENÇAS ENDÓCRINAS ÀS INSTITUIÇÕES E SERVIÇOS DO SERVIÇO NACIONAL DE SAÚDE,FALSE
AQUISIÇÃO DE CEFEPIMA 1000 MG PÓ SOL INJ FR IM IV,Ao abrigo de acordo-quadro (art.º 259.º),Aquisição de bens móveis,"33600000-6, Produtos farmacêuticos","Centro Hospitalar de Lisboa Central, E. P. E. (508080142)",FRESENIUS KABI PHARMA PORTUGAL (504293753),"10.972,50 €",14-10-2016,06-09-2016,115 dias,"Portugal, Lisboa, Lisboa",Artigo 259.º do Código dos Contratos Públicos,,,,,,1326195,ACORDO QUADRO PARA FORNECIMENTO DE MEDICAMENTOS ANTI-INFECIOSOS: EXCETO ANTIVÍRICOS E ANTIFÚNGICOS ÀS INSTITUIÇÕES E SERVIÇOS DO SERVIÇO NACIONAL DE SAÚDE,FALSE
AQUISIÇÃO DE CINACALCET 60 MG COMP,Ao abrigo de acordo-quadro (art.º 259.º),Aquisição de bens móveis,"33600000-6, Produtos farmacêuticos","Centro Hospitalar de Lisboa Central, E. P. E. (508080142)",AMGEN-BIOFARMACEUTICA (502942959),"32.176,70 €",14-10-2016,03-06-2016,210 dias,"Portugal, Lisboa, Lisboa",Artigo 259.º do Código dos Contratos Públicos,,,,,,1410779,CP 2015/47 - Acordo quadro para fornecimento de medicamentos do aparelho locomotor às instituições e serviços do serviço nacional de saúde,FALSE
AQUISIÇÃO DE FOSFOMICINA 3000 MG GRAN SAQ,Ao abrigo de acordo-quadro (art.º 259.º),Aquisição de bens móveis,"33000000-0, Equipamento médico, medicamentos e produtos para cuidados pessoais","Centro Hospitalar de Lisboa Central, E. P. E. (508080142)","Generis - Farmacêutica, S.A. (508107997)","58,80 €",14-10-2016,11-10-2016,80 dias,"Portugal, Lisboa, Lisboa",Artigo 259.º do Código dos Contratos Públicos,,,,,,1326195,ACORDO QUADRO PARA FORNECIMENTO DE MEDICAMENTOS ANTI-INFECIOSOS: EXCETO ANTIVÍRICOS E ANTIFÚNGICOS ÀS INSTITUIÇÕES E SERVIÇOS DO SERVIÇO NACIONAL DE SAÚDE,FALSE
AQUISIÇÃO DE RIFAMPICINA 300 MG CÁPS,Ao abrigo de acordo-quadro (art.º 259.º),Aquisição de bens móveis,"33600000-6, Produtos farmacêuticos","Centro Hospitalar de Lisboa Central, E. P. E. (508080142)","Sanofi - Produtos Farmacêuticos, Lda. (500134960)","816,00 €",14-10-2016,30-09-2016,91 dias,"Portugal, Lisboa, Lisboa",Artigo 259.º do Código dos Contratos Públicos,,,,,,1326195,ACORDO QUADRO PARA FORNECIMENTO DE MEDICAMENTOS ANTI-INFECIOSOS: EXCETO ANTIVÍRICOS E ANTIFÚNGICOS ÀS INSTITUIÇÕES E SERVIÇOS DO SERVIÇO NACIONAL DE SAÚDE,FALSE
AQUISIÇÃO DE EPOETINA ZETA 20000 U.I./0.5 ML SOL INJ SER 0.5 ML IV SC,Ao abrigo de acordo-quadro (art.º 259.º),Aquisição de bens móveis,"33600000-6, Produtos farmacêuticos","Centro Hospitalar de Lisboa Central, E. P. E. (508080142)",LABORATORIOS PFIZER LDA (500162166),"1.260,00 €",14-10-2016,23-09-2016,98 dias,"Portugal, Lisboa, Lisboa",Artigo 259.º do Código dos Contratos Públicos,,,,,,1348990,Acordo quadro para fornecimento de Estimulantes da Eritropoiese às instituições e serviços do serviço nacional de saúde,FALSE
AQUISIÇÃO DE IODIXANOL 550 MG/ML SOL INJ FR 100 ML IA IT IV,Ao abrigo de acordo-quadro (art.º 259.º),Aquisição de bens móveis,"33600000-6, Produtos farmacêuticos","Centro Hospitalar de Lisboa Central, E. P. E. (508080142)",SATIS - RADIOSOTOPOS (500098140),"1.323,00 €",14-10-2016,09-09-2016,112 dias,"Portugal, Lisboa, Lisboa",Artigo 259.º do Código dos Contratos Públicos,,,,,,1473614,CP 2015/56 - Acordo quadro para fornecimento de medicamentos usados como meios de diagnóstico em Imagiologia às Instituições e Serviços do Serviço Nacional de Saúde,FALSE
AQUISIÇÃO DE PIRIMETAMINA 25 MG COMP,Ao abrigo de acordo-quadro (art.º 259.º),Aquisição de bens móveis,"33600000-6, Produtos farmacêuticos","Centro Hospitalar de Lisboa Central, E. P. E. (508080142)","Labesfal - Laboratórios Almiro, S.A. (501169580)","4.747,80 €",14-10-2016,01-09-2016,120 dias,"Portugal, Lisboa, Lisboa",Artigo 259.º do Código dos Contratos Públicos,,,,,,1326195,ACORDO QUADRO PARA FORNECIMENTO DE MEDICAMENTOS ANTI-INFECIOSOS: EXCETO ANTIVÍRICOS E ANTIFÚNGICOS ÀS INSTITUIÇÕES E SERVIÇOS DO SERVIÇO NACIONAL DE SAÚDE,FALSE
AQUISIÇÃO DE EFEDRINA 30 MG/ML SOL INJ FR 1 ML IV,Ao abrigo de acordo-quadro (art.º 259.º),Aquisição de bens móveis,"33600000-6, Produtos farmacêuticos","Centro Hospitalar de Lisboa Central, E. P. E. (508080142)",OVERPHARMA - PROD.MED.FARM.LDA (505792362),"2.173,00 €",14-10-2016,09-09-2016,112 dias,"Portugal, Lisboa, Lisboa",Artigo 259.º do Código dos Contratos Públicos,,,,,,1638654,CP 2015/12 - Acordo quadro para fornecimento de Medicamentos do Aparelho Respiratório às Instituições e Serviços do Serviço Nacional de Saúde,FALSE
"Detetores, introdutores, adaptadores e sistemas",Ao abrigo de acordo-quadro (art.º 259.º),Aquisição de bens móveis,"33000000-0, Equipamento médico, medicamentos e produtos para cuidados pessoais","Centro Hospitalar de Lisboa Central, E. P. E. (508080142)",Biotronik Portugal (510726941),"8.100,00 €",13-10-2016,22-08-2016,131 dias,"Portugal, Lisboa, Lisboa",Artigo 259.º do Código dos Contratos Públicos,,,,,,600787,1-2.0019/2013-Concurso Público Internacional Tendente à Celebração de Acordo Quadro para Selecção de Fornecedores de Pacemakers.,FALSE
"Detetores, introdutores, adaptadores e sistemas",Ao abrigo de acordo-quadro (art.º 259.º),Aquisição de bens móveis,"33000000-0, Equipamento médico, medicamentos e produtos para cuidados pessoais","Centro Hospitalar de Lisboa Central, E. P. E. (508080142)",St.Jude Medical Portugal (504180746),"5.250,00 €",13-10-2016,22-08-2016,131 dias,"Portugal, Lisboa, Lisboa",Artigo 259.º do Código dos Contratos Públicos,,,,,,600787,1-2.0019/2013-Concurso Público Internacional Tendente à Celebração de Acordo Quadro para Selecção de Fornecedores de Pacemakers.,FALSE
"Detetores, introdutores, adaptadores e sistemas",Ao abrigo de acordo-quadro (art.º 259.º),Aquisição de bens móveis,"33000000-0, Equipamento médico, medicamentos e produtos para cuidados pessoais","Centro Hospitalar de Lisboa Central, E. P. E. (508080142)",Medtronic Portugal (504223933),"19.613,00 €",13-10-2016,19-09-2016,104 dias,"Portugal, Lisboa, Lisboa",Artigo 259.º do Código dos Contratos Públicos,,,,,,600787,1-2.0019/2013-Concurso Público Internacional Tendente à Celebração de Acordo Quadro para Selecção de Fornecedores de Pacemakers.,FALSE
"Aquisição de CLORETO DE SÓDIO 9 MG/ML SOL INJ FR 500 ML IV, CLORETO DE SÓDIO 9 MG/ML SOL INJ FR 100 ML IV e CLORETO DE SÓDIO 9 MG/ML SOL INJ FR 1000 ML IV",Ao abrigo de acordo-quadro (art.º 259.º),Aquisição de bens móveis,"33000000-0, Equipamento médico, medicamentos e produtos para cuidados pessoais","Centro Hospitalar de Lisboa Central, E. P. E. (508080142)","Baxter Medico Farmacêutica, Lda (503347345), Grifols Portugal, Lda (502041285)","24.259,00 €",13-10-2016,27-06-2016,180 dias,"Portugal, Lisboa, Lisboa",Artigo 259.º do Código dos Contratos Públicos,,,,,,1331181,Acordo Quadro para fornecimento de corretivos da volémia e outras soluções estéreis às Instituições e Serviços do Serviço Nacional de Saúde,FALSE
Endopróteses Aórticas Abdominais e Torácicas,Concurso público,Aquisição de bens móveis,"33184100-4, Implantes cirúrgicos","Centro Hospitalar de Lisboa Central, E. P. E. (508080142)",Cardinal Health Portugal 513 (513620834),"71.500,00 €",13-10-2016,28-09-2016,95 dias,"Portugal, Lisboa, Lisboa","Artigo 20.º, n.º 1, alínea b) do Código dos Contratos Públicos",,,,,,Não aplicável.,Não aplicável.,FALSE
"Aquisição de ÁGUA PARA PREPARAÇÕES INJECTÁVEIS SOL INJ FR 20 ML NESP, FOSFATO MONOPOTÁSSICO 136.13 MG/ML SOL INJ FR 10 ML IV, GLUCOSE 200 MG/ML SOL INJ FR 500 ML IV, GLUCOSE 200 MG/ML SOL INJ FR 1000 ML IV, ÁGUA PARA PREPARAÇÕES INJECTÁVEIS SOL INJ FR 100 ML NESP e GLUCOSE 50 MG/ML SOL INJ FR 100 ML IV",Ao abrigo de acordo-quadro (art.º 259.º),Aquisição de bens móveis,"33000000-0, Equipamento médico, medicamentos e produtos para cuidados pessoais","Centro Hospitalar de Lisboa Central, E. P. E. (508080142)","B.Braun Medical, Lda (501506543), Labesfal-Laboratórios Almiro, Sa (504293753)","15.587,48 €",13-10-2016,27-06-2016,180 dias,"Portugal, Lisboa, Lisboa",Artigo 259.º do Código dos Contratos Públicos,,,,,,1331181,Acordo Quadro para fornecimento de corretivos da volémia e outras soluções estéreis às Instituições e Serviços do Serviço Nacional de Saúde,FALSE
Endopróteses Aórticas Abdominais e Torácicas,Concurso público,Aquisição de bens móveis,"33184100-4, Implantes cirúrgicos","Centro Hospitalar de Lisboa Central, E. P. E. (508080142)",JM Farmacêutica (503550558),"87.500,00 €",13-10-2016,28-09-2016,95 dias,"Portugal, Lisboa, Lisboa","Artigo 20.º, n.º 1, alínea b) do Código dos Contratos Públicos",,,,,,Não aplicável.,Não aplicável.,FALSE
Endopróteses Aórticas Abdominais e Torácicas,Concurso público,Aquisição de bens móveis,"33184100-4, Implantes cirúrgicos","Centro Hospitalar de Lisboa Central, E. P. E. (508080142)",Lusopalex (503531588),"197.500,00 €",13-10-2016,28-09-2016,95 dias,"Portugal, Lisboa, Lisboa","Artigo 20.º, n.º 1, alínea b) do Código dos Contratos Públicos",,,,,,Não aplicável.,Não aplicável.,FALSE
Endopróteses Aórticas Abdominais e Torácicas,Concurso público,Aquisição de bens móveis,"33184100-4, Implantes cirúrgicos","Centro Hospitalar de Lisboa Central, E. P. E. (508080142)",Biosonda (501463313),"877.000,00 €",13-10-2016,28-09-2016,95 dias,"Portugal, Lisboa, Lisboa","Artigo 20.º, n.º 1, alínea b) do Código dos Contratos Públicos",,,,,,Não aplicável.,Não aplicável.,FALSE
PACK UROLOGICO,Ajuste Direto Regime Geral,Aquisição de bens móveis,"33140000-3, Material médico de consumo","Centro Hospitalar de Lisboa Central, E.P.E. (CHLC) (508080142)","MOLNLYCKE HEALTH CARE - COM. PROD. HOSP., LDA. (511101066)","25.830,00 €",13-10-2016,06-10-2016,86 dias,"Portugal, Lisboa, Lisboa","Artigo 20.º, n.º 1, alínea a) do Código dos Contratos Públicos",,,,,,Não aplicável.,Não aplicável.,FALSE
Sistemas de oclusão CIA e FOP (material hemodinâmica),Ao abrigo de acordo-quadro (art.º 259.º),Aquisição de bens móveis,"33000000-0, Equipamento médico, medicamentos e produtos para cuidados pessoais","Centro Hospitalar de Lisboa Central, E. P. E. (508080142)",Intervenção (504203827),"175.000,00 €",13-10-2016,30-09-2016,93 dias,"Portugal, Lisboa, Lisboa",Artigo 259.º do Código dos Contratos Públicos,,,,,,395903,1-2.0002/2011-Concurso Público Internacional Tendente à Celebração de Acordo-Quadro para Selecção de Fornecedores de Material de Hemodinâmica.,FALSE
Consumíveis para assistência cardiopulmonar ECMO,Concurso público,Aquisição de bens móveis,"33140000-3, Material médico de consumo","Centro Hospitalar de Lisboa Central, E. P. E. (508080142)",Medtronic Portugal (504223933),"7.800,00 €",13-10-2016,20-09-2016,100 dias,"Portugal, Lisboa, Lisboa","Artigo 20.º, n.º 1, alínea b) do Código dos Contratos Públicos",,,,,,Não aplicável.,Não aplicável.,FALSE
Consumíveis para assistência cardiopulmonar ECMO,Concurso público,Aquisição de bens móveis,"33140000-3, Material médico de consumo","Centro Hospitalar de Lisboa Central, E. P. E. (508080142)",Maquet Portugal (506819698),"99.378,00 €",13-10-2016,30-09-2016,93 dias,"Portugal, Lisboa, Lisboa","Artigo 20.º, n.º 1, alínea b) do Código dos Contratos Públicos",,,,,,Não aplicável.,Não aplicável.,FALSE
PTJ com e sem sacrifício do cruzado,Ajuste Direto Regime Geral,Aquisição de bens móveis,"33000000-0, Equipamento médico, medicamentos e produtos para cuidados pessoais","Centro Hospitalar de Lisboa Central, E. P. E. (508080142)",Johnson & Johnson Medical (500153370),"10.090,00 €",12-10-2016,29-09-2016,93 dias,"Portugal, Lisboa, Lisboa","Artigo 20.º, n.º 1, alínea a) do Código dos Contratos Públicos",,,,,,Não aplicável.,Não aplicável.,FALSE
Sensores de Oximetro - Equip. Masimo,Concurso público,Aquisição de bens móveis,"33140000-3, Material médico de consumo","Centro Hospitalar de Lisboa Central, E. P. E. (508080142)",Masimo Internacional SARL (821023548B01),"110.310,00 €",12-10-2016,23-09-2016,100 dias,"Portugal, Lisboa, Lisboa","Artigo 20.º, n.º 1, alínea b) do Código dos Contratos Públicos",,,,,,Não aplicável.,Não aplicável.,FALSE
