Objeto do Contrato,Tipo de Procedimento,Tipo(s) de Contrato,CPVs,Entidade(s) Adjudicante(s),Entidade(s) Adjudicatária(s),Preço Contratual,Data de Publicação,Data de Celebração do Contrato,Prazo de Execução,Local de Execução,Fundamentação,Data de Fecho do Contrato,Preço Total Efetivo,Causas das Alterações ao Prazo,Causas das Alterações ao Preço,Estado,N.º registo do Acordo Quadro,Descrição do Acordo Quadro,Procedimento Centralizado
Prestação de serviços médicos para a triagem do Serviço de Urgência,Ao abrigo de acordo-quadro (art.º 259.º),Aquisição de serviços,"85100000-0, Serviços de saúde","Centro Hospitalar Cova da Beira, E. P. E. (506361659)","Medipeople-Soluções de Saúde e Educação, Lda. (508543436)","97.314,00 €",04-08-2017,30-06-2017,180 dias,"Portugal, Castelo Branco, Covilhã",Artigo 259.º do Código dos Contratos Públicos,,,,,,2860046,Acordo Quadro para Prestação de Serviços de Vigilância e Segurança,FALSE
"Aquisição de Epoetinas 30000 U.I., ao abrigo do CP 2014/41",Ao abrigo de acordo-quadro (art.º 259.º),Aquisição de bens móveis,"33000000-0, Equipamento médico, medicamentos e produtos para cuidados pessoais","Centro Hospitalar Cova da Beira, E. P. E. (506361659)","Sandoz Farmacêutica, Lda. (506985261)","15.120,00 €",04-08-2017,17-07-2017,182 dias,"Portugal, Castelo Branco, Covilhã",Artigo 259.º do Código dos Contratos Públicos,,,,,,2863000,"Aquisição de cadeiras para USF D. Francisco de Almeida, USF Fonte Luminosa e USF S. Sebastião",FALSE
Prestação de serviços de assistência técnica aos equipamentos de Esterilização.,Ajuste Direto Regime Geral,Aquisição de serviços,"50800000-3, Serviços de reparação e manutenção diversos","Centro Hospitalar Cova da Beira, EPE (506361659)","A. J. Costa (Irmãos), Lda. (500002576)","19.800,00 €",04-08-2017,11-07-2017,365 dias,"Portugal, Castelo Branco, Covilhã","Artigo 20.º, n.º 1, alínea a) do Código dos Contratos Públicos",,,,,,Não aplicável.,Não aplicável.,FALSE
Aquisição de serviços de manutenção preventiva dos sistemas de segurança e gestão técnica centralizada.,Ajuste Direto Regime Geral,Aquisição de serviços,"50000000-5, Serviços de reparação e manutenção","Centro Hospitalar Cova da Beira, E. P. E. (506361659)","Honeywell Portugal - Automação e Controlo, S.A. (500908680)","6.170,00 €",02-08-2017,19-07-2017,365 dias,"Portugal, Castelo Branco, Covilhã","Artigo 20.º, n.º 1, alínea a) do Código dos Contratos Públicos",,,,,,Não aplicável.,Não aplicável.,FALSE
"Aquisição de medicamentos desencadeada pela SPMS, E.P.E. no âmbito dos Acordos Quadro 2015/6, 2016/40, 2016/55, 2015/41. P259-AC-2017-65.",Ao abrigo de acordo-quadro (art.º 259.º),Aquisição de bens móveis,"33000000-0, Equipamento médico, medicamentos e produtos para cuidados pessoais","Centro Hospitalar Cova da Beira, E. P. E. (506361659)","Bristol-Myers Squibb Farmacêutica Portuguesa, S.A. (500048193)","37.418,87 €",02-08-2017,10-04-2017,365 dias,"Portugal, Castelo Branco, Covilhã",Artigo 259.º do Código dos Contratos Públicos,,,,,,2858426,CP 2017/212 - Acordo quadro para fornecimento de Dispositivos para Neonatologia e Pediatria às Instituições e Serviços do Serviço Nacional de Saúde,FALSE
