Objeto do Contrato,Tipo de Procedimento,Tipo(s) de Contrato,CPVs,Entidade(s) Adjudicante(s),Entidade(s) Adjudicatária(s),Preço Contratual,Data de Publicação,Data de Celebração do Contrato,Prazo de Execução,Local de Execução,Fundamentação,Data de Fecho do Contrato,Preço Total Efetivo,Causas das Alterações ao Prazo,Causas das Alterações ao Preço,Estado,N.º registo do Acordo Quadro,Descrição do Acordo Quadro,Procedimento Centralizado
Candeeiro para sala de pequena cirurgia do serviço de urgência,Ajuste Direto Regime Geral,Aquisição de bens móveis,"33100000-1, Equipamento médico","Administração Regional de Saúde do Centro, I.P. (503122165)","Medicinália Cormédica, Lda. (500684324)","2.620,06 €",21-01-2011,06-12-2010,29 dias,"Portugal, Coimbra, Coimbra","Artigo 20.º, n.º 1, alínea a) do Código dos Contratos Públicos",,,,,,Não aplicável.,Não aplicável.,
Equipamento de apoio hoteleiro,Ajuste Direto Regime Geral,Aquisição de bens móveis,"34000000-7, Equipamento e produtos auxiliares de transporte","Administração Regional de Saúde do Centro, I.P. (503122165)","Salofe, Lda. (500405760), A J Oliveira Lda. (502293748), Bacelar&Irmão, Lda. (500532818)","32.260,05 €",21-01-2011,23-11-2010,30 dias,"Portugal, Coimbra, Coimbra","Artigo 20.º, n.º 1, alínea a) do Código dos Contratos Públicos",,,,,,Não aplicável.,Não aplicável.,
Equipamento de Medicina Física e de Reabilitação,Ajuste Direto Regime Geral,Aquisição de bens móveis,"33100000-1, Equipamento médico","Administração Regional de Saúde do Centro, I.P. (503122165)","SORISA, SA (500990441), C.E.G.O.C. (500059918), JMV Produtos Hospitalares, Lda (501887148)","20.450,63 €",21-01-2011,27-12-2010,30 dias,"Portugal, Coimbra, Coimbra","Artigo 20.º, n.º 1, alínea a) do Código dos Contratos Públicos",,,,,,Não aplicável.,Não aplicável.,
Equipamento Ressonância Magnética,Ajuste Direto Regime Geral,Aquisição de bens móveis,"33100000-1, Equipamento médico","Administração Regional de Saúde do Centro, I.P. (503122165)","PROMEI INT. LDA (506470130), DIMOR LUSITANA (500730741)","7.915,50 €",21-01-2011,29-12-2010,30 dias,"Portugal, Coimbra, Coimbra","Artigo 20.º, n.º 1, alínea a) do Código dos Contratos Públicos",,,,,,Não aplicável.,Não aplicável.,
Duas estações de trabalho Medigraf Teleconsulta,Ajuste Direto Regime Geral,Aquisição de bens móveis,"48814400-1, Sistema de informação clínica","Administração Regional de Saúde do Centro, I.P. (503122165)","PT Prime, SA (502840757)","26.934,00 €",21-01-2011,29-12-2010,30 dias,"Portugal, Coimbra, Coimbra","Artigo 20.º, n.º 1, alínea a) do Código dos Contratos Públicos",,,,,,Não aplicável.,Não aplicável.,
Aquisição diverso equipamento para a USF Montemuro,Ajuste Direto Regime Geral,Aquisição de bens móveis,"44617000-8, Caixas","Administração Regional de Saúde do Centro, I.P. (503122165)","I.P.M.V, Lda (502395672)","455,00 €",21-01-2011,21-01-2011,1 dias,"Portugal, Viseu, Mangualde","Artigo 20.º, n.º 1, alínea a) do Código dos Contratos Públicos",,,,,,Não aplicável.,Não aplicável.,
Aquisição diverso equipamento para a USF Montemuro,Ajuste Direto Regime Geral,Aquisição de bens móveis,"22460000-2, Suportes de publicidade, manuais e catálogos comerciais","Administração Regional de Saúde do Centro, I.P. (503122165)","Ser e Parecer, Lda (505855364)","989,90 €",21-01-2011,21-01-2011,1 dias,"Portugal, Viseu, Mangualde","Artigo 20.º, n.º 1, alínea a) do Código dos Contratos Públicos",,,,,,Não aplicável.,Não aplicável.,
Renovação da subscrição de software e apoio Técnico para o Ano 2011 para o Departamento de Saude Publica,Ajuste Direto Regime Geral,Aquisição de serviços,"48000000-8, Pacotes de software e sistemas de informação","Administração Regional de Saúde do Centro, I.P. (503122165)","Esri Portugal - Sistemas e Informação Geográfica, SA (501941231)","3.250,00 €",21-01-2011,21-01-2011,1 dias,"Portugal, Coimbra, Coimbra","Artigo 20.º, n.º 1, alínea a) do Código dos Contratos Públicos",,,,,,Não aplicável.,Não aplicável.,
Fornecimento de carros de distribuição de alimentação e respectivos tabuleiros e louças,Ajuste Direto Regime Geral,Aquisição de bens móveis,"39222000-4, Material para fornecimento de refeições (catering)","Administração Regional de Saúde do Centro, I.P. (503122165)","Frisinde, Lda (502365889), Tecnozim - Equip. Técnicos Industriais, SA (500769370)","24.019,40 €",20-01-2011,10-12-2010,30 dias,"Portugal, Coimbra, Coimbra","Artigo 20.º, n.º 1, alínea a) do Código dos Contratos Públicos",,,,,,Não aplicável.,Não aplicável.,
Fornecimento de equipamento de psicologia e desenvolvimento,Ajuste Direto Regime Geral,Aquisição de bens móveis,"33156000-8, Material para testes psicológicos","Administração Regional de Saúde do Centro, I.P. (503122165)","C.E.G.O.C. - TEA, Lda. (500059918), Edipsico, Lda (503466085)","12.055,99 €",20-01-2011,13-01-2011,20 dias,"Portugal, Coimbra, Coimbra","Artigo 20.º, n.º 1, alínea a) do Código dos Contratos Públicos",,,,,,Não aplicável.,Não aplicável.,
Sistema de triagem do serviço de urgência,Ajuste Direto Regime Geral,Aquisição de bens móveis,"48100000-9, Pacote de software para sectores específicos","Administração Regional de Saúde do Centro, I.P. (503122165)","IBERMÁTICA, SA (A20038915)","27.510,00 €",20-01-2011,06-12-2010,30 dias,"Portugal, Coimbra, Coimbra","Artigo 20.º, n.º 1, alínea a) do Código dos Contratos Públicos",,,,,,Não aplicável.,Não aplicável.,
Aquisição de 8 impressoras de banda de pulso,Ajuste Direto Regime Geral,Aquisição de bens móveis,"30232110-8, Impressoras laser","Administração Regional de Saúde do Centro, I.P. (503122165)","Icci - Importação e Com. de Componentes.Inf., Lda. (502785748)","5.492,80 €",20-01-2011,20-12-2010,20 dias,"Portugal, Coimbra, Coimbra","Artigo 20.º, n.º 1, alínea a) do Código dos Contratos Públicos",,,,,,Não aplicável.,Não aplicável.,
Fornecimento e montagem de ecopontos exteriores,Ajuste Direto Regime Geral,Aquisição de bens móveis,"44613800-8, Contentores para resíduos","Administração Regional de Saúde do Centro, I.P. (503122165)","Eugénio Pereira, Lda (503989525)","6.300,00 €",19-01-2011,30-12-2010,15 dias,"Portugal, Coimbra, Coimbra","Artigo 20.º, n.º 1, alínea a) do Código dos Contratos Públicos",,,,,,Não aplicável.,Não aplicável.,
"Aquisição de Estores Blakout, para preservação da privacidade dos doentes no atendimento de oftalmologia",Ajuste Direto Regime Geral,Aquisição de bens móveis,"39515400-9, Estores","Administração Regional de Saúde do Centro, I.P. (503122165)","I.F.H.I., Lda. (502264543)","49.989,98 €",19-01-2011,06-12-2010,42 dias,Portugal,"Artigo 20.º, n.º 1, alínea a) do Código dos Contratos Públicos",,,,,,Não aplicável.,Não aplicável.,
Reestruturação da Rede de dados e voz da sede do Aces Baixo Vouga II,Ajuste Direto Regime Geral,Aquisição de serviços,"32424000-1, Infra-estrutura de rede","Administração Regional de Saúde do Centro, I.P. (503122165)",ATM Informática2 - Soluções e Sistemas SA (504062859),"9.967,25 €",19-01-2011,19-01-2011,10 dias,"Portugal, Aveiro, Aveiro","Artigo 20.º, n.º 1, alínea a) do Código dos Contratos Públicos",,,,,,Não aplicável.,Não aplicável.,
"Servicos de Vigilância para Anadia, Estarreja e São Pedro do Sul para o mês de Janeiro de 2011",Ajuste Direto Regime Geral,Aquisição de serviços,"79714000-2, Serviços de vigilância","Administração Regional de Saúde do Centro, I.P. (503122165)","2045-Empresa de Segurança, SA (502332905)","6.071,00 €",14-01-2011,31-12-2010,31 dias,"Portugal, Viseu, São Pedro do Sul<BR/>Portugal, Aveiro, Estarreja<BR/>Portugal, Aveiro, Anadia","Artigo 20.º, n.º 1, alínea a) do Código dos Contratos Públicos",,,,,,Não aplicável.,Não aplicável.,
Servicos de Vigilância para Aveiro para o mês de Janeiro de 2011,Ajuste Direto Regime Geral,Aquisição de serviços,"79714000-2, Serviços de vigilância","Administração Regional de Saúde do Centro, I.P. (503122165)","Ronsegur, Rondas e Segurança, Lda (507011724)","10.389,00 €",14-01-2011,31-12-2010,31 dias,"Portugal, Aveiro","Artigo 20.º, n.º 1, alínea a) do Código dos Contratos Públicos",,,,,,Não aplicável.,Não aplicável.,
"Servicos de Vigilância para ARCS, IP, Aces Baixo Mondego I, Dão Lafões I, Dão Lafões II para o mês de Janeiro de 2011",Ajuste Direto Regime Geral,Aquisição de serviços,"79714000-2, Serviços de vigilância","Administração Regional de Saúde do Centro, I.P. (503122165)","Comansegur Segurança Privada, SA (503586579)","24.107,00 €",14-01-2011,31-12-2010,31 dias,"Portugal, Viseu<BR/>Portugal, Coimbra","Artigo 20.º, n.º 1, alínea a) do Código dos Contratos Públicos",,,,,,Não aplicável.,Não aplicável.,
Prestação Serviços Enfermagem p/ CS Estarreja para o periodo de Janeiro e Fevereiro de 2011,Ajuste Direto Regime Geral,Aquisição de serviços,"79624000-4, Serviços de fornecimento de pessoal de enfermagem","Administração Regional de Saúde do Centro, I.P. (503122165)","NEW ESTIMATED TIME 7S - CLINIC, LDA (508817323)","10.559,27 €",14-01-2011,31-12-2010,60 dias,"Portugal, Aveiro, Estarreja","Artigo 20.º, n.º 1, alínea a) do Código dos Contratos Públicos",,,,,,Não aplicável.,Não aplicável.,
Renovação das licenças Trend Micro p/ Aveiro,Ajuste Direto Regime Geral,Aquisição de serviços,"48100000-9, Pacote de software para sectores específicos","Administração Regional de Saúde do Centro, I.P. (503122165)",ATM Informática2 - Soluções e Sistemas SA (504062859),"6.940,60 €",14-01-2011,14-01-2011,3 dias,"Portugal, Aveiro","Artigo 20.º, n.º 1, alínea a) do Código dos Contratos Públicos",,,,,,Não aplicável.,Não aplicável.,
