Objeto do Contrato,Tipo de Procedimento,Tipo(s) de Contrato,CPVs,Entidade(s) Adjudicante(s),Entidade(s) Adjudicatária(s),Preço Contratual,Data de Publicação,Data de Celebração do Contrato,Prazo de Execução,Local de Execução,Fundamentação,Data de Fecho do Contrato,Preço Total Efetivo,Causas das Alterações ao Prazo,Causas das Alterações ao Preço,Estado,N.º registo do Acordo Quadro,Descrição do Acordo Quadro,Procedimento Centralizado
Medicamentos,Ajuste Direto Regime Geral,Aquisição de bens móveis,"33000000-0, Equipamento médico, medicamentos e produtos para cuidados pessoais","Hospital Garcia de Orta, E. P. E. (506361470)","MERCK SHARP DOHME, LDA. (500191360)","59.400,00 €",21-12-2015,14-10-2015,365 dias,"Portugal, Setúbal, Almada","Artigo 20.º, n.º 1, alínea a) do Código dos Contratos Públicos",,,,,,Não aplicável.,Não aplicável.,FALSE
Medicamentos,Ajuste Direto Regime Geral,Aquisição de bens móveis,"33000000-0, Equipamento médico, medicamentos e produtos para cuidados pessoais","Hospital Garcia de Orta, E. P. E. (506361470)",ROCHE FARMACÊUTICA (500233810),"19.114,53 €",21-12-2015,05-11-2015,365 dias,"Portugal, Setúbal, Almada","Artigo 20.º, n.º 1, alínea a) do Código dos Contratos Públicos",,,,,,Não aplicável.,Não aplicável.,FALSE
Medicamentos,Ajuste Direto Regime Geral,Aquisição de bens móveis,"33000000-0, Equipamento médico, medicamentos e produtos para cuidados pessoais","Hospital Garcia de Orta, E. P. E. (506361470)",IPSEN (502609800),"15.297,32 €",21-12-2015,05-11-2015,365 dias,"Portugal, Setúbal, Almada","Artigo 20.º, n.º 1, alínea a) do Código dos Contratos Públicos",,,,,,Não aplicável.,Não aplicável.,FALSE
Medicamentos,Ajuste Direto Regime Geral,Aquisição de bens móveis<br/>Sociedade,"33000000-0, Equipamento médico, medicamentos e produtos para cuidados pessoais","Hospital Garcia de Orta, E. P. E. (506361470)",ROCHE FARMACÊUTICA (500233810),"41.185,83 €",21-12-2015,05-11-2015,365 dias,"Portugal, Setúbal, Almada","Artigo 20.º, n.º 1, alínea a) do Código dos Contratos Públicos",,,,,,Não aplicável.,Não aplicável.,FALSE
Medicamentos,Ajuste Direto Regime Geral,Aquisição de bens móveis,"33000000-0, Equipamento médico, medicamentos e produtos para cuidados pessoais","Hospital Garcia de Orta, E. P. E. (506361470)",ROCHE FARMACÊUTICA (500233810),"40.746,40 €",21-12-2015,06-11-2015,365 dias,"Portugal, Setúbal, Almada","Artigo 20.º, n.º 1, alínea a) do Código dos Contratos Públicos",,,,,,Não aplicável.,Não aplicável.,FALSE
Medicamentos,Ajuste Direto Regime Geral,Aquisição de bens móveis,"33000000-0, Equipamento médico, medicamentos e produtos para cuidados pessoais","Hospital Garcia de Orta, E. P. E. (506361470)","BAXTER MÉDICO-FARMACÊUTICA, LDA. (503347345)","41.567,60 €",21-12-2015,06-11-2015,365 dias,"Portugal, Setúbal, Almada","Artigo 20.º, n.º 1, alínea a) do Código dos Contratos Públicos",,,,,,Não aplicável.,Não aplicável.,FALSE
Medicamentos,Ajuste Direto Regime Geral,Aquisição de bens móveis,"33000000-0, Equipamento médico, medicamentos e produtos para cuidados pessoais","Hospital Garcia de Orta, E. P. E. (506361470)",ROCHE FARMACÊUTICA (500233810),"22.888,60 €",21-12-2015,22-10-2015,365 dias,"Portugal, Setúbal, Almada","Artigo 20.º, n.º 1, alínea a) do Código dos Contratos Públicos",,,,,,Não aplicável.,Não aplicável.,FALSE
Medicamentos,Ajuste Direto Regime Geral,Aquisição de bens móveis,"33000000-0, Equipamento médico, medicamentos e produtos para cuidados pessoais","Hospital Garcia de Orta, E. P. E. (506361470)","PIERRE FABRE MEDICAMENT PORTUGAL, LDA. (500230366)","7.470,00 €",21-12-2015,21-10-2015,365 dias,"Portugal, Setúbal, Almada","Artigo 20.º, n.º 1, alínea a) do Código dos Contratos Públicos",,,,,,Não aplicável.,Não aplicável.,FALSE
Medicamentos,Ajuste Direto Regime Geral,Aquisição de bens móveis,"33000000-0, Equipamento médico, medicamentos e produtos para cuidados pessoais","Hospital Garcia de Orta, E. P. E. (506361470)",ROCHE FARMACÊUTICA (500233810),"6.881,20 €",21-12-2015,21-10-2015,365 dias,"Portugal, Setúbal, Almada","Artigo 20.º, n.º 1, alínea a) do Código dos Contratos Públicos",,,,,,Não aplicável.,Não aplicável.,FALSE
Medicamentos,Ajuste Direto Regime Geral,Aquisição de bens móveis,"33000000-0, Equipamento médico, medicamentos e produtos para cuidados pessoais","Hospital Garcia de Orta, E. P. E. (506361470)",ALIMERA SCIENCES LIMITED (980523192),"5.994,00 €",21-12-2015,19-10-2015,365 dias,"Portugal, Setúbal, Almada","Artigo 20.º, n.º 1, alínea a) do Código dos Contratos Públicos",,,,,,Não aplicável.,Não aplicável.,FALSE
Medicamentos,Ajuste Direto Regime Geral,Aquisição de bens móveis,"33000000-0, Equipamento médico, medicamentos e produtos para cuidados pessoais","Hospital Garcia de Orta, E. P. E. (506361470)","OM PHARMA, S.A. (500207410)","11.445,60 €",21-12-2015,16-10-2015,365 dias,"Portugal, Setúbal, Almada","Artigo 20.º, n.º 1, alínea a) do Código dos Contratos Públicos",,,,,,Não aplicável.,Não aplicável.,FALSE
Medicamentos,Ajuste Direto Regime Geral,Aquisição de bens móveis,"33000000-0, Equipamento médico, medicamentos e produtos para cuidados pessoais","Hospital Garcia de Orta, E. P. E. (506361470)","VIIVHIV HEALTHCARE, UNIPESSOAL, LDA. (509117961)","26.400,09 €",21-12-2015,15-10-2015,365 dias,"Portugal, Setúbal, Almada","Artigo 20.º, n.º 1, alínea a) do Código dos Contratos Públicos",,,,,,Não aplicável.,Não aplicável.,FALSE
Medicamentos,Ajuste Direto Regime Geral,Aquisição de bens móveis,"33000000-0, Equipamento médico, medicamentos e produtos para cuidados pessoais","Hospital Garcia de Orta, E. P. E. (506361470)","SANOFI - PRODUTOS FARMACÊUTICOS, LDA. (500134960)","14.715,08 €",21-12-2015,14-10-2015,365 dias,"Portugal, Setúbal, Almada","Artigo 20.º, n.º 1, alínea a) do Código dos Contratos Públicos",,,,,,Não aplicável.,Não aplicável.,FALSE
Medicamentos,Ajuste Direto Regime Geral,Aquisição de bens móveis,"33000000-0, Equipamento médico, medicamentos e produtos para cuidados pessoais","Hospital Garcia de Orta, E. P. E. (506361470)",ROCHE FARMACÊUTICA (500233810),"19.935,27 €",21-12-2015,14-10-2015,365 dias,"Portugal, Setúbal, Almada","Artigo 20.º, n.º 1, alínea a) do Código dos Contratos Públicos",,,,,,Não aplicável.,Não aplicável.,FALSE
Medicamentos,Ajuste Direto Regime Geral,Aquisição de bens móveis,"33000000-0, Equipamento médico, medicamentos e produtos para cuidados pessoais","Hospital Garcia de Orta, E. P. E. (506361470)","LABESFAL, S.A. (501169580)","4.950,00 €",21-12-2015,20-10-2015,365 dias,"Portugal, Setúbal, Almada","Artigo 20.º, n.º 1, alínea a) do Código dos Contratos Públicos",,,,,,Não aplicável.,Não aplicável.,FALSE
Medicamentos,Ajuste Direto Regime Geral,Aquisição de bens móveis,"33000000-0, Equipamento médico, medicamentos e produtos para cuidados pessoais","Hospital Garcia de Orta, E. P. E. (506361470)","UNILFARMA, LDA. (500293023)","16.146,04 €",21-12-2015,12-10-2015,365 dias,"Portugal, Setúbal, Almada","Artigo 20.º, n.º 1, alínea a) do Código dos Contratos Públicos",,,,,,Não aplicável.,Não aplicável.,FALSE
Medicamentos,Ajuste Direto Regime Geral,Aquisição de bens móveis,"33000000-0, Equipamento médico, medicamentos e produtos para cuidados pessoais","Hospital Garcia de Orta, E. P. E. (506361470)",ROCHE FARMACÊUTICA (500233810),"22.093,24 €",21-12-2015,12-10-2015,365 dias,"Portugal, Setúbal, Almada","Artigo 20.º, n.º 1, alínea a) do Código dos Contratos Públicos",,,,,,Não aplicável.,Não aplicável.,FALSE
Medicamentos,Ajuste Direto Regime Geral,Aquisição de bens móveis,"33000000-0, Equipamento médico, medicamentos e produtos para cuidados pessoais","Hospital Garcia de Orta, E. P. E. (506361470)",PHARMAKERN PORTUGAL (507002571),"23.695,06 €",21-12-2015,12-10-2015,365 dias,"Portugal, Setúbal, Almada","Artigo 20.º, n.º 1, alínea a) do Código dos Contratos Públicos",,,,,,Não aplicável.,Não aplicável.,FALSE
Medicamentos,Ajuste Direto Regime Geral,Aquisição de bens móveis,"33000000-0, Equipamento médico, medicamentos e produtos para cuidados pessoais","Hospital Garcia de Orta, E. P. E. (506361470)",ROCHE FARMACÊUTICA (500233810),"44.332,90 €",21-12-2015,23-10-2015,365 dias,"Portugal, Setúbal, Almada","Artigo 20.º, n.º 1, alínea a) do Código dos Contratos Públicos",,,,,,Não aplicável.,Não aplicável.,FALSE
Medicamentos,Ajuste Direto Regime Geral,Aquisição de bens móveis,"33000000-0, Equipamento médico, medicamentos e produtos para cuidados pessoais","Hospital Garcia de Orta, E. P. E. (506361470)","SANOFI - PRODUTOS FARMACÊUTICOS, LDA. (500134960)","7.147,90 €",21-12-2015,09-10-2015,365 dias,"Portugal, Setúbal, Almada","Artigo 20.º, n.º 1, alínea a) do Código dos Contratos Públicos",,,,,,Não aplicável.,Não aplicável.,FALSE
Medicamentos,Ajuste Direto Regime Geral,Aquisição de bens móveis,"33000000-0, Equipamento médico, medicamentos e produtos para cuidados pessoais","Hospital Garcia de Orta, E. P. E. (506361470)","JANSSEN CILAG FARMACÊUTICA, LDA. (500189412)","12.416,49 €",21-12-2015,09-10-2015,365 dias,"Portugal, Setúbal, Almada","Artigo 20.º, n.º 1, alínea a) do Código dos Contratos Públicos",,,,,,Não aplicável.,Não aplicável.,FALSE
Medicamentos,Ajuste Direto Regime Geral,Aquisição de bens móveis,"33000000-0, Equipamento médico, medicamentos e produtos para cuidados pessoais","Hospital Garcia de Orta, E. P. E. (506361470)","BAXTER MÉDICO-FARMACÊUTICA, LDA. (503347345)","41.142,40 €",21-12-2015,12-10-2015,365 dias,"Portugal, Setúbal, Almada","Artigo 20.º, n.º 1, alínea a) do Código dos Contratos Públicos",,,,,,Não aplicável.,Não aplicável.,FALSE
Medicamentos,Ajuste Direto Regime Geral,Aquisição de bens móveis,"33000000-0, Equipamento médico, medicamentos e produtos para cuidados pessoais","Hospital Garcia de Orta, E. P. E. (506361470)","MERCK SHARP DOHME, LDA. (500191360)","18.672,09 €",21-12-2015,12-10-2015,365 dias,"Portugal, Setúbal, Almada","Artigo 20.º, n.º 1, alínea a) do Código dos Contratos Públicos",,,,,,Não aplicável.,Não aplicável.,FALSE
Medicamentos,Ajuste Direto Regime Geral,Aquisição de bens móveis,"33000000-0, Equipamento médico, medicamentos e produtos para cuidados pessoais","Hospital Garcia de Orta, E. P. E. (506361470)","A.MARTINS & FERNANDES, SA (501172114)","9.720,05 €",21-12-2015,13-10-2015,365 dias,"Portugal, Setúbal, Almada","Artigo 20.º, n.º 1, alínea a) do Código dos Contratos Públicos",,,,,,Não aplicável.,Não aplicável.,FALSE
Medicamentos,Ajuste Direto Regime Geral,Aquisição de bens móveis,"33000000-0, Equipamento médico, medicamentos e produtos para cuidados pessoais","Hospital Garcia de Orta, E. P. E. (506361470)","NOVARTIS FARMA, S.A. (500063524)","19.500,88 €",21-12-2015,12-10-2015,365 dias,"Portugal, Setúbal, Almada","Artigo 20.º, n.º 1, alínea a) do Código dos Contratos Públicos",,,,,,Não aplicável.,Não aplicável.,FALSE
Medicamentos,Ajuste Direto Regime Geral,Aquisição de bens móveis,"33000000-0, Equipamento médico, medicamentos e produtos para cuidados pessoais","Hospital Garcia de Orta, E. P. E. (506361470)",ROCHE DIAGNOSTICS (504282921),"16.417,85 €",21-12-2015,13-10-2015,365 dias,"Portugal, Setúbal, Almada","Artigo 20.º, n.º 1, alínea a) do Código dos Contratos Públicos",,,,,,Não aplicável.,Não aplicável.,FALSE
Medicamentos,Ajuste Direto Regime Geral,Aquisição de bens móveis,"33000000-0, Equipamento médico, medicamentos e produtos para cuidados pessoais","Hospital Garcia de Orta, E. P. E. (506361470)","NOVARTIS FARMA, S.A. (500063524)","12.698,04 €",21-12-2015,13-10-2015,365 dias,"Portugal, Setúbal, Almada","Artigo 20.º, n.º 1, alínea a) do Código dos Contratos Públicos",,,,,,Não aplicável.,Não aplicável.,FALSE
Medicamentos,Ajuste Direto Regime Geral,Aquisição de bens móveis,"33000000-0, Equipamento médico, medicamentos e produtos para cuidados pessoais","Hospital Garcia de Orta, E. P. E. (506361470)","CELGENE, LOGISTICS SARL (980385695)","12.744,01 €",21-12-2015,13-10-2015,365 dias,"Portugal, Setúbal, Almada","Artigo 20.º, n.º 1, alínea a) do Código dos Contratos Públicos",,,,,,Não aplicável.,Não aplicável.,FALSE
Medicamentos,Ajuste Direto Regime Geral,Aquisição de bens móveis,"33000000-0, Equipamento médico, medicamentos e produtos para cuidados pessoais","Hospital Garcia de Orta, E. P. E. (506361470)","LABORATORIO ATRAL, S.A. (500162085)","6.343,80 €",21-12-2015,14-10-2015,365 dias,"Portugal, Setúbal, Almada","Artigo 20.º, n.º 1, alínea a) do Código dos Contratos Públicos",,,,,,Não aplicável.,Não aplicável.,FALSE
MEDICAMENTOS,Ajuste Direto Regime Geral,Aquisição de bens móveis,"33000000-0, Equipamento médico, medicamentos e produtos para cuidados pessoais","Hospital Garcia de Orta, E. P. E. (506361470)","GLAXOSMITHKLINE PROD. FARMACÊUTICOS, LDA. (500139962)","6.880,00 €",18-12-2015,13-10-2015,365 dias,"Portugal, Setúbal, Almada","Artigo 20.º, n.º 1, alínea a) do Código dos Contratos Públicos",,,,,,Não aplicável.,Não aplicável.,FALSE
MEDICAMENTOS,Ajuste Direto Regime Geral,Aquisição de bens móveis,"33000000-0, Equipamento médico, medicamentos e produtos para cuidados pessoais","Hospital Garcia de Orta, E. P. E. (506361470)","UCB PHARMA (PROD. FARMACÊUTICOS), LDA. (500291322)","15.894,40 €",18-12-2015,01-10-2015,365 dias,"Portugal, Setúbal, Almada","Artigo 20.º, n.º 1, alínea a) do Código dos Contratos Públicos",,,,,,Não aplicável.,Não aplicável.,FALSE
MEDICAMENTOS,Ajuste Direto Regime Geral,Aquisição de bens móveis,"33000000-0, Equipamento médico, medicamentos e produtos para cuidados pessoais","Hospital Garcia de Orta, E. P. E. (506361470)","PFIZER BIOFARMACÊUTICA, SOC. UNIP., LDA. (513300376)","17.951,81 €",18-12-2015,30-09-2015,365 dias,"Portugal, Setúbal, Almada","Artigo 20.º, n.º 1, alínea a) do Código dos Contratos Públicos",,,,,,Não aplicável.,Não aplicável.,FALSE
MEDICAMENTOS,Ajuste Direto Regime Geral,Aquisição de bens móveis,"33000000-0, Equipamento médico, medicamentos e produtos para cuidados pessoais","Hospital Garcia de Orta, E. P. E. (506361470)",IPSEN (502609800),"8.856,90 €",18-12-2015,29-09-2015,365 dias,"Portugal, Setúbal, Almada","Artigo 20.º, n.º 1, alínea a) do Código dos Contratos Públicos",,,,,,Não aplicável.,Não aplicável.,FALSE
MEDICAMENTOS,Ajuste Direto Regime Geral,Aquisição de bens móveis,"33000000-0, Equipamento médico, medicamentos e produtos para cuidados pessoais","Hospital Garcia de Orta, E.P.E. (506361470)",NOVO NORDISK (501485210),"17.191,80 €",18-12-2015,30-09-2015,365 dias,"Portugal, Setúbal, Almada","Artigo 20.º, n.º 1, alínea a) do Código dos Contratos Públicos",,,,,,Não aplicável.,Não aplicável.,FALSE
MEDICAMENTOS,Ajuste Direto Regime Geral,Aquisição de bens móveis,"33000000-0, Equipamento médico, medicamentos e produtos para cuidados pessoais","Hospital Garcia de Orta, E.P.E. (506361470)","MERCK SHARP DOHME, LDA. (500191360)","4.914,00 €",18-12-2015,01-10-2015,365 dias,"Portugal, Setúbal, Almada","Artigo 20.º, n.º 1, alínea a) do Código dos Contratos Públicos",,,,,,Não aplicável.,Não aplicável.,FALSE
MEDICAMENTOS,Ajuste Direto Regime Geral,Aquisição de bens móveis,"33000000-0, Equipamento médico, medicamentos e produtos para cuidados pessoais","Hospital Garcia de Orta, E.P.E. (506361470)","NOVARTIS FARMA, S.A. (500063524)","7.093,48 €",18-12-2015,28-09-2015,365 dias,"Portugal, Setúbal, Almada","Artigo 20.º, n.º 1, alínea a) do Código dos Contratos Públicos",,,,,,Não aplicável.,Não aplicável.,FALSE
PROTESES,Ajuste Direto Regime Geral,Aquisição de bens móveis,"33000000-0, Equipamento médico, medicamentos e produtos para cuidados pessoais","Hospital Garcia de Orta, E. P. E. (506361470)","BSC PORTUGAL, LDA. (504988964)","7.917,34 €",18-12-2015,11-12-2015,365 dias,"Portugal, Setúbal, Almada","Artigo 20.º, n.º 1, alínea a) do Código dos Contratos Públicos",,,,,,Não aplicável.,Não aplicável.,FALSE
Medicamentos,Ajuste Direto Regime Geral,Aquisição de bens móveis,"33000000-0, Equipamento médico, medicamentos e produtos para cuidados pessoais","Hospital Garcia de Orta, E. P. E. (506361470)","MERCK, S.A. (500650870)","77.925,35 €",18-12-2015,15-09-2015,365 dias,"Portugal, Setúbal, Almada","Artigo 20.º, n.º 1, alínea a) do Código dos Contratos Públicos",,,,,,Não aplicável.,Não aplicável.,FALSE
Medicamentos,Ajuste Direto Regime Geral,Aquisição de bens móveis,"33000000-0, Equipamento médico, medicamentos e produtos para cuidados pessoais","Hospital Garcia de Orta, E. P. E. (506361470)","TECNIMEDE, SOC. TECNICO-MEDICINAL S.A. (500626413)","2.621,59 €",18-12-2015,20-10-2015,365 dias,"Portugal, Setúbal, Almada","Artigo 20.º, n.º 1, alínea a) do Código dos Contratos Públicos",,,,,,Não aplicável.,Não aplicável.,FALSE
Medicamentos,Ajuste Direto Regime Geral,Aquisição de bens móveis,"33000000-0, Equipamento médico, medicamentos e produtos para cuidados pessoais","Hospital Garcia de Orta, E. P. E. (506361470)","SANDOZ FARMACÊUTICA, LDA. (506985261)","2.862,00 €",18-12-2015,20-10-2015,365 dias,"Portugal, Setúbal, Almada","Artigo 20.º, n.º 1, alínea a) do Código dos Contratos Públicos",,,,,,Não aplicável.,Não aplicável.,FALSE
CONCENTRADO PROTROMBÍNICO,Ajuste Direto Regime Geral,Aquisição de bens móveis,"33000000-0, Equipamento médico, medicamentos e produtos para cuidados pessoais","Hospital Garcia de Orta, E. P. E. (506361470)",OCTAPHARMA PROD.FARMACEUTICO (502820780),"3.300,00 €",17-12-2015,03-06-2015,365 dias,"Portugal, Setúbal, Almada","Artigo 20.º, n.º 1, alínea a) do Código dos Contratos Públicos",,,,,,Não aplicável.,Não aplicável.,FALSE
CONCENTRADO PROTROMBÍNICO,Ajuste Direto Regime Geral,Aquisição de bens móveis,"33000000-0, Equipamento médico, medicamentos e produtos para cuidados pessoais","Hospital Garcia de Orta, E. P. E. (506361470)","CSL BEHRING, LDA. (503047201)","3.300,00 €",17-12-2015,03-06-2015,365 dias,"Portugal, Setúbal, Almada","Artigo 20.º, n.º 1, alínea a) do Código dos Contratos Públicos",,,,,,Não aplicável.,Não aplicável.,FALSE
MEDICAMENTOS,Ajuste Direto Regime Geral,Aquisição de bens móveis,"33000000-0, Equipamento médico, medicamentos e produtos para cuidados pessoais","Hospital Garcia de Orta, E. P. E. (506361470)","AMGEN - BIOFARMACEUTICA, LDA (502942959)","28.095,20 €",16-12-2015,28-09-2015,365 dias,"Portugal, Setúbal, Almada","Artigo 20.º, n.º 1, alínea a) do Código dos Contratos Públicos",,,,,,Não aplicável.,Não aplicável.,FALSE
MEDICAMENTOS,Ajuste Direto Regime Geral,Aquisição de bens móveis,"33000000-0, Equipamento médico, medicamentos e produtos para cuidados pessoais","Hospital Garcia de Orta, E. P. E. (506361470)",FRESENIUS KABI (504293753),"23.604,00 €",16-12-2015,22-09-2015,365 dias,"Portugal, Setúbal, Almada","Artigo 20.º, n.º 1, alínea a) do Código dos Contratos Públicos",,,,,,Não aplicável.,Não aplicável.,FALSE
MEDICAMENTOS,Ajuste Direto Regime Geral,Aquisição de bens móveis,"33000000-0, Equipamento médico, medicamentos e produtos para cuidados pessoais","Hospital Garcia de Orta, E. P. E. (506361470)","BRISTOL-MYERS SQUIBB, S.A. (500207879)","37.418,87 €",16-12-2015,17-09-2015,365 dias,"Portugal, Setúbal, Almada","Artigo 20.º, n.º 1, alínea a) do Código dos Contratos Públicos",,,,,,Não aplicável.,Não aplicável.,FALSE
AVENTAL PLAST. USO UNICO,Ajuste Direto Regime Geral,Aquisição de bens móveis,"33000000-0, Equipamento médico, medicamentos e produtos para cuidados pessoais","Hospital Garcia de Orta, E. P. E. (506361470)",BASTOS VIEGAS S.A. (500042772),"14.700,00 €",16-12-2015,11-11-2015,365 dias,"Portugal, Setúbal, Almada","Artigo 20.º, n.º 1, alínea a) do Código dos Contratos Públicos",,,,,,Não aplicável.,Não aplicável.,FALSE
PACK INJ. VITREA,Ajuste Direto Regime Geral,Aquisição de bens móveis,"33000000-0, Equipamento médico, medicamentos e produtos para cuidados pessoais","Hospital Garcia de Orta, E. P. E. (506361470)","MEDLINE INTERNACIONAL PORTUGAL UNIPESSOAL, LDA. (510533515)","6.965,00 €",16-12-2015,15-12-2015,365 dias,"Portugal, Setúbal, Almada","Artigo 20.º, n.º 1, alínea a) do Código dos Contratos Públicos",,,,,,Não aplicável.,Não aplicável.,FALSE
MANAPULAS,Ajuste Direto Regime Geral,Aquisição de bens móveis,"33000000-0, Equipamento médico, medicamentos e produtos para cuidados pessoais","Hospital Garcia de Orta, E. P. E. (506361470)","SCA HYGIENE PRODUCTS, LDA. (503237612)","31.957,45 €",16-12-2015,15-12-2015,365 dias,"Portugal, Setúbal, Almada","Artigo 20.º, n.º 1, alínea a) do Código dos Contratos Públicos",,,,,,Não aplicável.,Não aplicável.,FALSE
MEDICAMENTOS,Ajuste Direto Regime Geral,Aquisição de bens móveis,"33000000-0, Equipamento médico, medicamentos e produtos para cuidados pessoais","Hospital Garcia de Orta, E. P. E. (506361470)","TEVA PHARMA, PROD. FARMAC., LDA. (507045491)","5.084,10 €",16-12-2015,17-09-2015,365 dias,"Portugal, Setúbal, Almada","Artigo 20.º, n.º 1, alínea a) do Código dos Contratos Públicos",,,,,,Não aplicável.,Não aplicável.,FALSE
MEDICAMENTOS,Ajuste Direto Regime Geral,Aquisição de bens móveis,"33000000-0, Equipamento médico, medicamentos e produtos para cuidados pessoais","Hospital Garcia de Orta, E. P. E. (506361470)","FERRING PORTUGUESA, LDA. (502034831)","5.966,70 €",16-12-2015,17-09-2015,365 dias,"Portugal, Setúbal, Almada","Artigo 20.º, n.º 1, alínea a) do Código dos Contratos Públicos",,,,,,Não aplicável.,Não aplicável.,FALSE
MEDICAMENTOS,Ajuste Direto Regime Geral,Aquisição de bens móveis,"33000000-0, Equipamento médico, medicamentos e produtos para cuidados pessoais","Hospital Garcia de Orta, E. P. E. (506361470)","NOVARTIS FARMA, S.A. (500063524)","6.500,28 €",16-12-2015,17-09-2015,365 dias,"Portugal, Setúbal, Almada","Artigo 20.º, n.º 1, alínea a) do Código dos Contratos Públicos",,,,,,Não aplicável.,Não aplicável.,FALSE
MEDICAMENTOS,Ajuste Direto Regime Geral,Aquisição de bens móveis,"33000000-0, Equipamento médico, medicamentos e produtos para cuidados pessoais","Hospital Garcia de Orta, E. P. E. (506361470)","BAXTER MÉDICO-FARMACÊUTICA, LDA. (503347345)","43.393,60 €",16-12-2015,15-09-2015,365 dias,"Portugal, Setúbal, Almada","Artigo 20.º, n.º 1, alínea a) do Código dos Contratos Públicos",,,,,,Não aplicável.,Não aplicável.,FALSE
MEDICAMENTOS,Ajuste Direto Regime Geral,Aquisição de bens móveis,"33000000-0, Equipamento médico, medicamentos e produtos para cuidados pessoais","Hospital Garcia de Orta, E. P. E. (506361470)","BRISTOL-MYERS SQUIBB, S.A. (500207879)","30.521,70 €",16-12-2015,15-09-2015,365 dias,"Portugal, Setúbal, Almada","Artigo 20.º, n.º 1, alínea a) do Código dos Contratos Públicos",,,,,,Não aplicável.,Não aplicável.,FALSE
MEDICAMENTOS,Ajuste Direto Regime Geral,Aquisição de bens móveis,"33000000-0, Equipamento médico, medicamentos e produtos para cuidados pessoais","Hospital Garcia de Orta, E. P. E. (506361470)","MERCK SHARP DOHME, LDA. (500191360)","6.252,00 €",16-12-2015,15-09-2015,365 dias,"Portugal, Setúbal, Almada","Artigo 20.º, n.º 1, alínea a) do Código dos Contratos Públicos",,,,,,Não aplicável.,Não aplicável.,FALSE
MEDICAMENTOS,Ajuste Direto Regime Geral,Aquisição de bens móveis,"33000000-0, Equipamento médico, medicamentos e produtos para cuidados pessoais","Hospital Garcia de Orta, E. P. E. (506361470)","SIEMENS HEALTHCARE DIAGNOSTICS, LDA. (507925173)","7.668,48 €",16-12-2015,17-09-2015,365 dias,"Portugal, Setúbal, Almada","Artigo 20.º, n.º 1, alínea a) do Código dos Contratos Públicos",,,,,,Não aplicável.,Não aplicável.,FALSE
MEDICAMENTOS,Ajuste Direto Regime Geral,Aquisição de bens móveis,"33000000-0, Equipamento médico, medicamentos e produtos para cuidados pessoais","Hospital Garcia de Orta, E. P. E. (506361470)","ABBVIE, LDA. (510229050)","19.997,28 €",16-12-2015,16-09-2015,365 dias,"Portugal, Setúbal, Almada","Artigo 20.º, n.º 1, alínea a) do Código dos Contratos Públicos",,,,,,Não aplicável.,Não aplicável.,FALSE
MEDICAMENTOS,Ajuste Direto Regime Geral,Aquisição de bens móveis,"33000000-0, Equipamento médico, medicamentos e produtos para cuidados pessoais","Hospital Garcia de Orta, E. P. E. (506361470)","BDRPHARMA, LDA. (513077332)","5.445,00 €",16-12-2015,28-09-2015,365 dias,"Portugal, Setúbal, Almada","Artigo 20.º, n.º 1, alínea a) do Código dos Contratos Públicos",,,,,,Não aplicável.,Não aplicável.,FALSE
Medicamentos,Ajuste Direto Regime Geral,Aquisição de bens móveis,"33000000-0, Equipamento médico, medicamentos e produtos para cuidados pessoais","Hospital Garcia de Orta, E. P. E. (506361470)","AMGEN - BIOFARMACEUTICA, LDA (502942959)","60.308,24 €",16-12-2015,08-09-2015,365 dias,"Portugal, Setúbal, Almada","Artigo 20.º, n.º 1, alínea a) do Código dos Contratos Públicos",,,,,,Não aplicável.,Não aplicável.,FALSE
MEDICAMENTOS,Ajuste Direto Regime Geral,Aquisição de bens móveis,"33000000-0, Equipamento médico, medicamentos e produtos para cuidados pessoais","Hospital Garcia de Orta, E. P. E. (506361470)","HOSPIRA PORTUGAL, LDA. (502918098)","18.990,00 €",16-12-2015,22-09-2015,365 dias,"Portugal, Setúbal, Almada","Artigo 20.º, n.º 1, alínea a) do Código dos Contratos Públicos",,,,,,Não aplicável.,Não aplicável.,FALSE
Medicamentos,Ajuste Direto Regime Geral,Aquisição de bens móveis,"33000000-0, Equipamento médico, medicamentos e produtos para cuidados pessoais","Hospital Garcia de Orta, E. P. E. (506361470)",BAYER PORTUGAL (500043256),"85.216,09 €",16-12-2015,09-09-2015,365 dias,"Portugal, Setúbal, Almada","Artigo 20.º, n.º 1, alínea a) do Código dos Contratos Públicos",,,,,,Não aplicável.,Não aplicável.,FALSE
Medicamentos,Ajuste Direto Regime Geral,Aquisição de bens móveis,"33000000-0, Equipamento médico, medicamentos e produtos para cuidados pessoais","Hospital Garcia de Orta, E. P. E. (506361470)",ROCHE FARMACÊUTICA (500233810),"133.407,09 €",16-12-2015,11-09-2015,365 dias,"Portugal, Setúbal, Almada","Artigo 20.º, n.º 1, alínea a) do Código dos Contratos Públicos",,,,,,Não aplicável.,Não aplicável.,FALSE
SACOS PLASTICO,Ajuste Direto Regime Geral,Aquisição de bens móveis,"19000000-6, Materiais têxteis, de couro, de plástico e de borracha","Hospital Garcia de Orta, E. P. E. (506361470)","JOAO ANTUNES AMARO, LDA. (500149003)","10.618,00 €",15-12-2015,02-06-2015,365 dias,"Portugal, Setúbal, Almada","Artigo 20.º, n.º 1, alínea a) do Código dos Contratos Públicos",,,,,,Não aplicável.,Não aplicável.,FALSE
FIOS GUIA,Ajuste Direto Regime Geral,Aquisição de bens móveis,"33000000-0, Equipamento médico, medicamentos e produtos para cuidados pessoais","Hospital Garcia de Orta, E. P. E. (506361470)",TERUMO EUROPE ESPANHA SL (980472024),"5.544,00 €",14-12-2015,26-11-2015,365 dias,"Portugal, Setúbal, Almada","Artigo 20.º, n.º 1, alínea a) do Código dos Contratos Públicos",,,,,,Não aplicável.,Não aplicável.,FALSE
MATERIAL OSTEOSINTESE,Ajuste Direto Regime Geral,Aquisição de bens móveis,"33000000-0, Equipamento médico, medicamentos e produtos para cuidados pessoais","Hospital Garcia de Orta, E. P. E. (506361470)",JOHNSON & JOHNSON (500153370),"5.664,00 €",14-12-2015,17-11-2015,365 dias,"Portugal, Setúbal, Almada","Artigo 20.º, n.º 1, alínea a) do Código dos Contratos Públicos",,,,,,Não aplicável.,Não aplicável.,FALSE
ENDOPROTESE,Ajuste Direto Regime Geral,Aquisição de bens móveis,"33000000-0, Equipamento médico, medicamentos e produtos para cuidados pessoais","Hospital Garcia de Orta, E. P. E. (506361470)","J. M. FARMACÊUTICA, S.A. (503550558)","10.750,00 €",14-12-2015,24-11-2015,365 dias,"Portugal, Setúbal, Almada","Artigo 20.º, n.º 1, alínea a) do Código dos Contratos Públicos",,,,,,Não aplicável.,Não aplicável.,FALSE
CARDIOVERSOR,Ajuste Direto Regime Geral,Aquisição de bens móveis,"33000000-0, Equipamento médico, medicamentos e produtos para cuidados pessoais","Hospital Garcia de Orta, E. P. E. (506361470)","BSC PORTUGAL, LDA. (504988964)","19.500,00 €",14-12-2015,27-11-2015,365 dias,"Portugal, Setúbal, Almada","Artigo 20.º, n.º 1, alínea a) do Código dos Contratos Públicos",,,,,,Não aplicável.,Não aplicável.,FALSE
CARDIOVERSORES,Ajuste Direto Regime Geral,Aquisição de bens móveis,"33000000-0, Equipamento médico, medicamentos e produtos para cuidados pessoais","Hospital Garcia de Orta, E. P. E. (506361470)",ST. JUDE MEDICAL PORTUGAL (504180746),"15.500,00 €",14-12-2015,27-11-2015,365 dias,"Portugal, Setúbal, Almada","Artigo 20.º, n.º 1, alínea a) do Código dos Contratos Públicos",,,,,,Não aplicável.,Não aplicável.,FALSE
