Objeto do Contrato,Tipo de Procedimento,Tipo(s) de Contrato,CPVs,Entidade(s) Adjudicante(s),Entidade(s) Adjudicatária(s),Preço Contratual,Data de Publicação,Data de Celebração do Contrato,Prazo de Execução,Local de Execução,Fundamentação,Data de Fecho do Contrato,Preço Total Efetivo,Causas das Alterações ao Prazo,Causas das Alterações ao Preço,Estado,N.º registo do Acordo Quadro,Descrição do Acordo Quadro,Procedimento Centralizado
Equipamento de urologia (exames),Ajuste Direto Regime Geral,Aquisição de bens móveis,"33000000-0, Equipamento médico, medicamentos e produtos para cuidados pessoais","Centro Hospitalar de Setúbal, E. P. E. (507606787)","B. Braun Medical, Lda (501506543)","18.250,00 €",11-05-2017,10-05-2017,1 dias,"Portugal, Setúbal, Setúbal","Artigo 20.º, n.º 1, alínea a) do Código dos Contratos Públicos",,,,,,Não aplicável.,Não aplicável.,FALSE
Toner genérico para lexmark MS510/MS40,Ajuste Direto Regime Geral,Aquisição de bens móveis,"22800000-8, Livros de registo e de contabilidade, capas, formulários e outros artigos de papelaria impressos, de papel ou cartão","Centro Hospitalar de Setúbal, E. P. E. (507606787)","Fluir - Consumíveis e Equipamento Informático, Unipessoal, Lda. (506212424)","7.900,20 €",10-05-2017,10-05-2017,236 dias,"Portugal, Setúbal, Setúbal","Artigo 20.º, n.º 1, alínea a) do Código dos Contratos Públicos",,,,,,Não aplicável.,Não aplicável.,FALSE
NILOTINIB [200 MG; CÁP/COMP],Ao abrigo de acordo-quadro (art.º 259.º),Aquisição de bens móveis,"33600000-6, Produtos farmacêuticos","Centro Hospitalar de Setúbal, E. P. E. (507606787)","NOVARTIS FARMA-PROD.FARMACÊUTICOS,SA.              (500063524)","27.587,15 €",10-05-2017,10-04-2017,365 dias,"Portugal, Setúbal, Setúbal",Artigo 259.º do Código dos Contratos Públicos,,,,,,1771819,CP 2015/6 - Acordo quadro para o fornecimento de Medicamentos do Foro Oncológico,FALSE
"MEDICAMENTOS DO FORO ONCOLÓGICO E MEDICAMENTOS DO SISTEMA NERVOSO CEREBROSPINAL, EXCETO: ANESTÉSICOS, RELAXANTES MUSCULARES, ANALGÉSICOS, ANTIPIRÉTICOS, ANTIDEPRESSORES E ANTIPSICÓTICOS",Ao abrigo de acordo-quadro (art.º 259.º),Aquisição de bens móveis,"33600000-6, Produtos farmacêuticos","Centro Hospitalar de Setúbal, E. P. E. (507606787)",Biogen POrtugal (506415740),"724.230,09 €",10-05-2017,12-04-2017,365 dias,"Portugal, Setúbal, Setúbal",Artigo 259.º do Código dos Contratos Públicos,,,,,,1771819,CP 2015/6 - Acordo quadro para o fornecimento de Medicamentos do Foro Oncológico,FALSE
"serviços médicos de oftalmologia, ano 2017",Ajuste Direto Regime Geral,Aquisição de serviços,"85000000-9, Serviços de saúde e acção social","Centro Hospitalar de Setúbal, E. P. E. (507606787)",Avaliação Continua (508355206),"16.000,00 €",10-05-2017,26-04-2017,365 dias,"Portugal, Setúbal, Setúbal","Artigo 20.º, n.º 1, alínea a) do Código dos Contratos Públicos",,,,,,Não aplicável.,Não aplicável.,FALSE
"Execução de IVG's, para o Ano de 2017",Ajuste Direto Regime Geral,Aquisição de serviços,"85000000-9, Serviços de saúde e acção social","Centro Hospitalar de Setúbal, E. P. E. (507606787)",SAMER AMES SA - CLINICA DOS ARCOS (507740343),"75.000,00 €",10-05-2017,04-04-2017,272 dias,"Portugal, Lisboa, Lisboa","Artigo 20.º, n.º 1, alínea a) do Código dos Contratos Públicos",,,,,,Não aplicável.,Não aplicável.,FALSE
Lenalidomida 25 mg Cáps,Ajuste Direto Regime Geral,Aquisição de bens móveis,"33600000-6, Produtos farmacêuticos","Centro Hospitalar de Setúbal, E. P. E. (507606787)","CELGENE, SOCIEDADE  UNIPESSOAL, LDA (507791690)","205.851,28 €",09-05-2017,19-04-2017,365 dias,"Portugal, Setúbal, Setúbal","Artigo 26.º, n.º 1, alínea e) do Código dos Contratos Públicos",,,,,,Não aplicável.,Não aplicável.,FALSE
Lenalidomida 15 mg Cáps,Ajuste Direto Regime Geral,Aquisição de bens móveis,"33600000-6, Produtos farmacêuticos","Centro Hospitalar de Setúbal, E. P. E. (507606787)","CELGENE, SOCIEDADE  UNIPESSOAL, LDA (507791690)","73.870,05 €",09-05-2017,19-04-2017,365 dias,"Portugal, Setúbal, Setúbal","Artigo 24.º, n.º 1, alínea e) do Código dos Contratos Públicos",,,,,,Não aplicável.,Não aplicável.,FALSE
SUGAMADEX [100 MG/ML;2 ML; SOL INJ],Ao abrigo de acordo-quadro (art.º 259.º),Aquisição de bens móveis,"33600000-6, Produtos farmacêuticos","Centro Hospitalar de Setúbal, E. P. E. (507606787)","Merck Sharp & Dohme, Lda. (500191360)","105.030,00 €",09-05-2017,19-04-2017,365 dias,"Portugal, Setúbal, Setúbal",Artigo 259.º do Código dos Contratos Públicos,,,,,,2730944,"Aquisição de medicamentos desencadeada pela SPMS, EPE no âmbito do Despacho 1571/B de 2016 ao abrigo do Acordo Quadro 2014/50. Ref.ª P259-AC-2017-73.",FALSE
Serviços médicos SUG - fevereiro a dezembro 2017,Ajuste Direto Regime Geral,Aquisição de serviços,"85000000-9, Serviços de saúde e acção social","Centro Hospitalar de Setúbal, E. P. E. (507606787)",Odysseysign Lda (513368795),"72.000,00 €",09-05-2017,26-04-2017,360 dias,"Portugal, Setúbal, Setúbal","Artigo 20.º, n.º 1, alínea a) do Código dos Contratos Públicos",,,,,,Não aplicável.,Não aplicável.,FALSE
Comunicações Dados,Ajuste Direto Regime Geral,Aquisição de serviços,"85000000-9, Serviços de saúde e acção social","Centro Hospitalar de Setúbal, E. P. E. (507606787)","MEO - Serviços Comunicações e Multimédia, S.A. (504615947)","30.284,64 €",05-05-2017,07-03-2017,365 dias,"Portugal, Setúbal, Setúbal","Artigo 20.º, n.º 1, alínea a) do Código dos Contratos Públicos",,,,,,Não aplicável.,Não aplicável.,FALSE
COMUNICAÇÕES MÓVEIS,Ajuste Direto Regime Geral,Aquisição de serviços,"85000000-9, Serviços de saúde e acção social","Centro Hospitalar de Setúbal, E. P. E. (507606787)","meo - Serviços de Comunicações e Multimédia, S.A. (504615947)","27.000,00 €",05-05-2017,03-03-2017,365 dias,"Portugal, Setúbal, Setúbal","Artigo 20.º, n.º 1, alínea a) do Código dos Contratos Públicos",,,,,,Não aplicável.,Não aplicável.,FALSE
Serviços Médicos Imagiologia,Ajuste Direto Regime Geral,Aquisição de serviços,"85000000-9, Serviços de saúde e acção social","Centro Hospitalar de Setúbal, E. P. E. (507606787)",Imapalas (510889352),"3.960,00 €",05-05-2017,01-05-2017,365 dias,"Portugal, Setúbal, Setúbal","Artigo 20.º, n.º 1, alínea a) do Código dos Contratos Públicos",,,,,,Não aplicável.,Não aplicável.,FALSE
Serviços Médicos Medicina Geral e Familiar,Ajuste Direto Regime Geral,Aquisição de serviços,"85000000-9, Serviços de saúde e acção social","Centro Hospitalar de Setúbal, E. P. E. (507606787)",Rui Algarvio (259529192),"26.400,00 €",05-05-2017,05-05-2017,306 dias,"Portugal, Setúbal, Setúbal","Artigo 20.º, n.º 1, alínea a) do Código dos Contratos Públicos",,,,,,Não aplicável.,Não aplicável.,FALSE
Serviços médicos endocrinologia ano 2017,Ajuste Direto Regime Geral,Aquisição de serviços,"85000000-9, Serviços de saúde e acção social","Centro Hospitalar de Setúbal, E. P. E. (507606787)",Vara Luiz Neurocirurgia Lda (506561194),"26.000,00 €",04-05-2017,22-03-2017,365 dias,"Portugal, Setúbal, Setúbal","Artigo 20.º, n.º 1, alínea a) do Código dos Contratos Públicos",,,,,,Não aplicável.,Não aplicável.,FALSE
"ABACAVIR 600 mg+ LAMIVUDINA 300 MG,COMP",Ao abrigo de acordo-quadro (art.º 259.º),Aquisição de bens móveis,"33600000-6, Produtos farmacêuticos","Centro Hospitalar de Setúbal, E. P. E. (507606787)","VIIV HEALTHCARE, UNIPESSOAL LDA (509117961)","83.136,00 €",03-05-2017,20-02-2017,365 dias,"Portugal, Setúbal, Setúbal",Artigo 259.º do Código dos Contratos Públicos,,,,,,2183729,Medicamentos antirretrovíricos para o tratamento da infeção por VIH,FALSE
Mitomicina [40MG; Pó p/ Sol. Inj.; FRS,Ao abrigo de acordo-quadro (art.º 259.º),Aquisição de bens móveis,"33600000-6, Produtos farmacêuticos","Centro Hospitalar de Setúbal, E. P. E. (507606787)","FERRER PORTUGAL, S.A. (500069190)","42.023,00 €",03-05-2017,29-03-2017,365 dias,"Portugal, Setúbal, Setúbal",Artigo 259.º do Código dos Contratos Públicos,,,,,,1771819,CP 2015/6 - Acordo quadro para o fornecimento de Medicamentos do Foro Oncológico,FALSE
ELVITEGRAVIR 150MG+COBICISTATE 150MG+EMTRICITABINA 200MG+TENOFOVIR 245MG,Ajuste Direto Regime Geral,Aquisição de bens móveis,"33600000-6, Produtos farmacêuticos","Centro Hospitalar de Setúbal, E. P. E. (507606787)",GILEAD SCIENCES LDA (503604704),"183.969,81 €",03-05-2017,11-04-2017,365 dias,"Portugal, Setúbal, Setúbal","Artigo 24.º, n.º 1, alínea e) do Código dos Contratos Públicos",,,,,,Não aplicável.,Não aplicável.,FALSE
Cabazitaxel 60 mg/1.5 ml - Concentrado e solvente para solução para perfusão,Ajuste Direto Regime Geral,Aquisição de bens móveis,"33600000-6, Produtos farmacêuticos","Centro Hospitalar de Setúbal, E. P. E. (507606787)","SANOFI-PRODUTOS FARMACEUTICOS,LDA (500134960)","138.985,00 €",03-05-2017,29-03-2017,365 dias,"Portugal, Setúbal, Setúbal","Artigo 24.º, n.º 1, alínea e) do Código dos Contratos Públicos",,,,,,Não aplicável.,Não aplicável.,FALSE
