Objeto do Contrato,Tipo de Procedimento,Tipo(s) de Contrato,CPVs,Entidade(s) Adjudicante(s),Entidade(s) Adjudicatária(s),Preço Contratual,Data de Publicação,Data de Celebração do Contrato,Prazo de Execução,Local de Execução,Fundamentação,Data de Fecho do Contrato,Preço Total Efetivo,Causas das Alterações ao Prazo,Causas das Alterações ao Preço,Estado,N.º registo do Acordo Quadro,Descrição do Acordo Quadro,Procedimento Centralizado
Fraldas de Criança,Ao abrigo de acordo-quadro (art.º 259.º),Aquisição de bens móveis,"33750000-2, Produtos para bebés","Centro Hospitalar do Tâmega e Sousa, E. P. E. (508318262)","PROCTER&GAMBLE PORTUGAL - PRODUTOS DE CONSUMO, HIGIENE E SAÚDE, S.A. (503037753)","3.525,59 €",10-04-2014,10-04-2014,261 dias,"Portugal, Porto, Amarante<BR/>Portugal, Porto, Penafiel",Artigo 259.º do Código dos Contratos Públicos,"","",,"",,598830,"CONCURSO PÚBLICO PARA A CELEBRAÇÃO DE CONTRATOS PÚBLICOS DE APROVISIONAMENTO PARA A ÁREA DA SAÚDE, COM VISTA AO FORNECIMENTO DE MATERIAL DE INCONTINÊNCIA, PROTEÇÃO CUTÂNEA E ALÍVIO DE PRESSÃO, ÀS INSTITUIÇÕES E SERVIÇOS DO SERVIÇO NACIONAL DE SAÚDE",FALSE
Material de Laparoscopia,Concurso público,Aquisição de bens móveis,"33100000-1, Equipamento médico","Centro Hospitalar do Tâmega e Sousa, EPE (508318262)",NORMAX - FÁBRICA DE VIDROS CIENTIFICOS LDA (500203130),"7.160,00 €",10-04-2014,06-03-2014,295 dias,"Portugal, Porto, Amarante<BR/>Portugal, Porto, Penafiel","Artigo 20.º, n.º 1, alínea b) do Código dos Contratos Públicos","","",,"",,Não aplicável.,Não aplicável.,FALSE
Material de Laparoscopia,Concurso público,Aquisição de bens móveis,"33100000-1, Equipamento médico","Centro Hospitalar do Tâmega e Sousa, EPE (508318262)",Moonsurge - Importação e Exportação de Material Médico Lda. (506657035),"9.273,72 €",10-04-2014,06-03-2014,295 dias,"Portugal, Porto, Penafiel<BR/>Portugal, Porto, Amarante","Artigo 20.º, n.º 1, alínea b) do Código dos Contratos Públicos","","",,"",,Não aplicável.,Não aplicável.,FALSE
Material de Laparoscopia,Concurso público,Aquisição de bens móveis,"33100000-1, Equipamento médico","Centro Hospitalar do Tâmega e Sousa, EPE (508318262)"," JMV - PRODUTOS HOSPITALARES, LDA. (501887148)","1.383,20 €",10-04-2014,06-03-2014,295 dias,"Portugal, Porto, Amarante<BR/>Portugal, Porto, Penafiel","Artigo 20.º, n.º 1, alínea b) do Código dos Contratos Públicos","","",,"",,Não aplicável.,Não aplicável.,FALSE
Material de Laparoscopia,Concurso público,Aquisição de bens móveis,"33100000-1, Equipamento médico","Centro Hospitalar do Tâmega e Sousa, EPE (508318262)","ENDOTÉCNICA - MATERIAL CIRÚRGICO, LDA. (503818348)","88.046,40 €",10-04-2014,06-03-2014,295 dias,"Portugal, Porto, Amarante<BR/>Portugal, Porto, Penafiel","Artigo 20.º, n.º 1, alínea b) do Código dos Contratos Públicos","","",,"",,Não aplicável.,Não aplicável.,FALSE
Material de Laparoscopia,Concurso público,Aquisição de bens móveis,"33100000-1, Equipamento médico","Centro Hospitalar do Tâmega e Sousa, EPE (508318262)","COVIDIEN PORTUGAL - PRODUTOS DE SAÚDE, UNIPESSOAL, LDA. (503413410)","1.536,20 €",10-04-2014,06-03-2014,295 dias,"Portugal, Porto, Amarante<BR/>Portugal, Porto, Penafiel","Artigo 20.º, n.º 1, alínea b) do Código dos Contratos Públicos","","",,"",,Não aplicável.,Não aplicável.,FALSE
Material de Laparoscopia,Concurso público,Aquisição de bens móveis,"33100000-1, Equipamento médico","Centro Hospitalar do Tâmega e Sousa, EPE (508318262)","CLINIFAR - PRODUTOS CLÍNICOS E FARMACÊUTICOS, S.A.. (503281115)","792,00 €",10-04-2014,06-03-2014,295 dias,"Portugal, Porto, Amarante<BR/>Portugal, Porto, Penafiel","Artigo 20.º, n.º 1, alínea b) do Código dos Contratos Públicos","","",,"",,Não aplicável.,Não aplicável.,FALSE
Material de Laparoscopia,Concurso público,Aquisição de bens móveis,"33100000-1, Equipamento médico","Centro Hospitalar do Tâmega e Sousa, EPE (508318262)","B.BRAUN MEDICAL, LDA. (501506543)","133,00 €",10-04-2014,06-03-2014,295 dias,"Portugal, Porto, Amarante<BR/>Portugal, Porto, Penafiel","Artigo 20.º, n.º 1, alínea b) do Código dos Contratos Públicos","","",,"",,Não aplicável.,Não aplicável.,FALSE
Prestação de Serviços de Manutenção de Equipamentos de Imagiologia,Ajuste Direto Regime Geral,Aquisição de serviços,"50400000-9, Serviços de reparação e manutenção de equipamento médico e de precisão","Centro Hospitalar do Tâmega e Sousa, E.P.E. (508318262)","SIEMENS, S.A. (500247480)","81.925,43 €",10-04-2014,23-01-2014,365 dias,"Portugal, Porto, Amarante<BR/>Portugal, Porto, Penafiel","Artigo 24.º, n.º 1, alínea e) do Código dos Contratos Públicos","","",,"",,Não aplicável.,Não aplicável.,FALSE
Aquisição de Papel para fotocópia e Impressão,Ao abrigo de acordo-quadro (art.º 259.º),Aquisição de bens móveis,"30197643-5, Papel para fotocópia","Administração Regional de Saúde do Algarve, IP (503148709), Unidade Local de Saúde do Norte Alentejano, EPE (508094461), Centro Hospitalar e Universitário de Coimbra, EPE (510103448), Instituto de Oftalmologia Dr. Gama Pinto (600000052), Centro Hospitalar Barreiro Montijo, EPE (509186998), Instituto Nacional de Saúde Dr. Ricardo Jorge, IP (501427511), Centro Hospitalar Vila Nova de Gaia/Espinho, EPE (508142156), Unidade Local de Saúde de Castelo Branco, EPE (509309844), Hospital Dr. Francisco Zagalo (507846044), Administração Central do Sistema de Saúde, IP (508188423), Administração Regional de Saúde do Alentejo, IP (503148768), Centro Hospitalar do Alto Ave, EPE (508080827), Centro Hospitalar de Trás-os-Montes e Alto Douro, EPE (508100496), Centro Hospitalar Tondela-Viseu, EPE (509822940), Hospital Espírito Santo, EPE (508085888), Secretaria-Geral do Ministério da Saúde (600080684), Instituto Português de Oncologia do Porto Francisco Gentil, EPE (506362299), Centro Hospitalar de S. João, EPE (509821197), Hospital Distrital Figueira da Foz, EPE (506361527), Centro Hospitalar do Médio Tejo, EPE (506361608), Centro Hospitalar do Médio Ave, EPE (508093937), Centro Hospitalar do Algarve, EPE (510745997), Hospital de Santarém, EPE (506361462), Centro Hospitalar de Entre Douro e Vouga,  EPE (508878462), Unidade Local de Saúde de Matosinhos, EPE (506361390), Serviço de Intervenção nos Comportamentos Aditivos e nas Dependências (600084884), Unidade Local de saúde da Guarda, EPE (508752000), Autoridade Nacional do Medicamento e Produtos de Saúde, IP (600037002), Hospital Garcia de Orta, EPE (506361470), Unidade Local de Saúde do Alto Minho, EPE (508786193), Administração Regional de Saúde de Lisboa e Vale do Tejo, IP (503148776), Administração Regional de Saúde do Centro, IP (503122165), Hospital Arcebispo João Crisóstomo (501626123), Inspeção-Geral das Atividades em Saúde (600018857), Administração Regional de Saúde do Norte, IP (503135593), Unidade Local de Saúde do Nordeste, EPE (509932584), Centro Hospitalar de Leiria-Pombal, EPE (509822932), Instituto Nacional de Emergência Médica, IP (501356126), Centro Hospitalar Cova da Beira, EPE (506361659), Hospital Santa Maria Maior, EPE (506361381), Direção-Geral da Saúde (600037100), Centro Hospitalar do Porto, EPE (508331471), Centro Medicina de Reabilitação da Região Centro Rovisco Pais (503767336), Centro Hospitalar Tâmega e Sousa, EPE (508318262), Instituto Português de Oncologia de Coimbra Francisco Gentil, EPE (506361438), Hospital José Luciano de Castro (501613021), Instituto Português do Sangue e da Transplantação, IP (502423943), Centro Hospitalar Psiquiátrico de Lisboa (508338476), Hospital de Magalhães Lemos, EPE (502828790), Unidade Local de Saúde do Baixo Alentejo, EPE (508754275), Centro Hospitalar do Oeste (510412009), Hospital Professor Doutor Fernando Fonseca, EPE (503035416), Centro Hospitalar Lisboa Central, EPE (508080142), Centro Hospitalar de Setúbal, EPE (507606787), Centro Hospitalar de Lisboa Norte, EPE (508481287), Serviços Partilhados do Ministério da Saúde, EPE (509540716), Centro Hospitalar de Lisboa Ocidental, EPE (507618319)","Staples Portugal, S.A. (503789372)","1.678.737,97 €",01-04-2014,02-01-2014,365 dias,Portugal,Artigo 259.º do Código dos Contratos Públicos,30-01-2014,"5.443,80 €",,O total efetivo corresponde apenas a este Centro Hospitalar.,,162548,"Concurso limitado por prévia qualificação para a celebração de Acordo Quadro para fornecimento de papel, economato e consumíveis de impressão.",TRUE
"Aquisição de eletricidade englobando BTE, MT, AT e MAT",Ao abrigo de acordo-quadro (art.º 259.º),Aquisição de bens móveis,"09310000-5, Electricidade","Instituto Português Oncologia do Porto Francisco Gentil, E.P.E. (506362299), INFARMED - Autoridade Nacional do Medicamento e Produtos de Saúde I.P. (600037002), Centro Hospitalar do Médio Ave, E.P.E. (508093937), Serviço Partilhados do Ministério da Saúde, E. P. E. (509540716), Centro Hospitalar do Alto Ave, E.P.E. (508080827), Direcção-Geral da Saúde (600037100), Hospital de Santarém, E.P.E. (506361462), Instituto Nacional de Emergência Médica, I.P. (501356126), Centro Hospitalar Barreiro Montijo, E.P.E. (509186998), Centro Hospitalar do Porto, E.P.E. (508331471), Centro Hospitalar de Leiria, E.P.E. (509822932), Centro Hospitalar Vila Nova de Gaia - Espinho, E. P. E. (508142156), Administração Regional de Saúde do Norte, I. P. (503135593), Centro Hospitalar do Tâmega e Sousa, E. P. E. (508318262), Administração Regional de Saúde do Alentejo, I. P. (503148768), Unidade Local de Saúde de Matosinhos, E.P.E. (506361390), Centro Medicina de Reabilitação da Região Centro Rovisco Pais (503767336), Hospital Professor Doutor Fernando Fonseca, E.P.E. (503035416), Unidade Local de Saúde do Alto Minho, E. P. E. (508786193), Centro Hospitalar de Lisboa Central, E. P. E. (508080142), Centro Hospitalar do Médio Tejo, E. P. E. (506361608), Administração Regional de Saúde de Lisboa e Vale do Tejo, I. P. (503148776), Unidade Local de Saúde de Castelo Branco, E.P.E. (509309844), Instituto Português do sangue (502423943), Hospital do Espírito Santo de Évora, E. P. E. (508085888), Centro Hospitalar de Entre o Douro e Vouga, E.P.E. (508878462), Instituto Português Oncologia de Coimbra Francisco Gentil, E.P.E. (506361438), CHO - Centro Hospitalar do Oeste (510412009), Centro Hospitalar de Setúbal, E. P. E. (507606787), Centro Hospitalar Póvoa de Varzim - Vila do Conde, E.P.E. (508741823), Unidade Local de Saúde do Baixo Alentejo, E.P.E. (508754275), Centro Hospitalar Cova da Beira, EPE (506361659), Unidade Local de Saúde do Litoral Alentejano, E.P.E. (510445152), Hospital Santa Maria Maior, E.P.E. - Barcelos (506361381), Administração Regional de Saúde Algarve, I.P. (503148709), SUCH - Serviço de Utilização Comum dos Hospitais (500900469), Inspeção-Geral das Atividades em Saúde (600018857), Unidade Local de Saúde da Guarda, E.P.E. (508752000), Hospital José Luciano de Castro - Anadia (501613021), Insituto Nacional de Saúde Dr. Ricardo Jorge, I.P. (501427511), Hospital Garcia de Orta, E.P.E. (506361470), Centro Hospitalar de Trás-os-Montes e Alto Douro, E. P. E. (508100496), Centro Hospitalar Tondela-Viseu, E.P.E. (509822940), Centro Hospitalar Psiquiátrico de Lisboa (508338476), Centro Hospitalar de Lisboa Ocidental, E.P.E. (507618319), Instituto de Oftalmologia Dr. Gama Pinto (600000052), Administração Central do Sistema de Saúde, I.P. (508188423), Unidade Local de Saúde do Nordeste, E. P. E (509932584), Secretaria-Geral do Ministério da Saúde (600080684), Hospital de Magalhães Lemos, E. P. E. (502828790), Centro Hospitalar e Universitário de Coimbra, E. P. E. (510103448), Hospital Dr. Francisco Zagalo - Ovar (501510150), CENTRO HOSPITALAR DO ALGARVE (508718872), Centro Hospitalar Lisboa Norte, E. P. E. (508481287), Administração Regional de Saúde do Centro, I. P. (503122165), Centro Hospitalar do Baixo Vouga, E.P.E. (510123210)","EDP Comercial, SA (503504564)","23.711.683,78 €",01-04-2014,01-03-2014,365 dias,Portugal,Artigo 259.º do Código dos Contratos Públicos,30-12-2014,"356.327,09 €",,diminuicao das necessidades,,314294,Acordo quadro para o fornecimento de electricidade em regime de mercado livre para Portugal Continental,TRUE
Material de Penso Tradicional ou Clássico_Lote 11,Ao abrigo de acordo-quadro (art.º 259.º),Aquisição de bens móveis,"33141100-1, Pensos; clipes, suturas, ligaduras","Centro Hospitalar do Tâmega e Sousa, E. P. E. (508318262)"," PAUL HARTMANN, LDA. (502271728)","1.187,10 €",01-04-2014,27-03-2014,273 dias,"Portugal, Porto, Penafiel<BR/>Portugal, Porto, Amarante",Artigo 259.º do Código dos Contratos Públicos,"","",,"",,534953,"CONCURSO PÚBLICO PARA A CELEBRAÇÃO DE CONTRATOS PÚBLICOS DE APROVISIONAMENTO PARA A ÁREA DA SAÚDE, COM VISTA AO FORNECIMENTO DE MATERIAL DE PENSO TRADICIONAL/CLASSICO - PARTE 1 - ÀS INSTITUIÇÕES E SERVIÇOS DO SERVIÇO NACIONAL DE SAÚDE  ",FALSE
"Material de Penso Tradicional ou Clássico_Lote 8, 9, 14 e 16",Ao abrigo de acordo-quadro (art.º 259.º),Aquisição de bens móveis,"33141100-1, Pensos; clipes, suturas, ligaduras","Centro Hospitalar do Tâmega e Sousa, E. P. E. (508318262)",SMITH & NEPHEW LDA. (503552461),"19.522,55 €",01-04-2014,27-03-2014,273 dias,"Portugal, Porto, Penafiel<BR/>Portugal, Porto, Amarante",Artigo 259.º do Código dos Contratos Públicos,"","",,"",,534953,"CONCURSO PÚBLICO PARA A CELEBRAÇÃO DE CONTRATOS PÚBLICOS DE APROVISIONAMENTO PARA A ÁREA DA SAÚDE, COM VISTA AO FORNECIMENTO DE MATERIAL DE PENSO TRADICIONAL/CLASSICO - PARTE 1 - ÀS INSTITUIÇÕES E SERVIÇOS DO SERVIÇO NACIONAL DE SAÚDE  ",FALSE
Material de Penso Tradicional ou Clássico_Lote 7 e 15,Ao abrigo de acordo-quadro (art.º 259.º),Aquisição de bens móveis,"33141100-1, Pensos; clipes, suturas, ligaduras","Centro Hospitalar do Tâmega e Sousa, E. P. E. (508318262)","3M PORTUGAL, LDA. (500193940)","4.164,80 €",01-04-2014,27-03-2014,273 dias,"Portugal, Porto, Amarante<BR/>Portugal, Porto, Penafiel",Artigo 259.º do Código dos Contratos Públicos,"","",,"",,534953,"CONCURSO PÚBLICO PARA A CELEBRAÇÃO DE CONTRATOS PÚBLICOS DE APROVISIONAMENTO PARA A ÁREA DA SAÚDE, COM VISTA AO FORNECIMENTO DE MATERIAL DE PENSO TRADICIONAL/CLASSICO - PARTE 1 - ÀS INSTITUIÇÕES E SERVIÇOS DO SERVIÇO NACIONAL DE SAÚDE  ",FALSE
Material de Penso Tradicional ou Clássico_Lote 1 a 6,Ao abrigo de acordo-quadro (art.º 259.º),Aquisição de bens móveis,"33141100-1, Pensos; clipes, suturas, ligaduras","Centro Hospitalar do Tâmega e Sousa, E. P. E. (508318262)","Albino Dias de Andrade, Lda. (500013810)","23.462,88 €",01-04-2014,27-03-2014,273 dias,"Portugal, Porto, Penafiel<BR/>Portugal, Porto, Amarante",Artigo 259.º do Código dos Contratos Públicos,"","",,"",,534953,"CONCURSO PÚBLICO PARA A CELEBRAÇÃO DE CONTRATOS PÚBLICOS DE APROVISIONAMENTO PARA A ÁREA DA SAÚDE, COM VISTA AO FORNECIMENTO DE MATERIAL DE PENSO TRADICIONAL/CLASSICO - PARTE 1 - ÀS INSTITUIÇÕES E SERVIÇOS DO SERVIÇO NACIONAL DE SAÚDE  ",FALSE
Material de Sutura da Coifa,Ajuste Direto Regime Geral,Aquisição de bens móveis,"33183000-6, Material de assistência ortopédica","Centro Hospitalar do Tâmega e Sousa, E.P.E. (508318262)","MEDICINALIA - CORMÉDICA, COMERCIALIZAÇÃO DE PRODUTOS HOSPITALARES, LDA. (500684324)","9.132,00 €",01-04-2014,01-01-2014,365 dias,"Portugal, Porto, Amarante<BR/>Portugal, Porto, Penafiel","Artigo 20.º, n.º 1, alínea a) do Código dos Contratos Públicos","","",,"",,Não aplicável.,Não aplicável.,FALSE
Prestação de serviços de Meios Auxiliares de Diagnóstico na área da Anatomia Patológica,Concurso limitado por prévia qualificação,Aquisição de serviços,"85145000-7, Serviços prestados por laboratórios médicos","Centro Hospitalar do Tâmega e Sousa, EPE (508318262)","Dr. Macedo Dias, S.A. (502613653)","478.456,00 €",01-04-2014,01-04-2014,730 dias,"Portugal, Porto, Penafiel<BR/>Portugal, Porto, Amarante","Artigo 20.º, n.º 1, alínea b) do Código dos Contratos Públicos","","",,"",,Não aplicável.,Não aplicável.,FALSE
Próteses Urológicas_Lote 2 e 3,Ajuste Direto Regime Geral,Aquisição de bens móveis,"33184000-3, Próteses","Centro Hospitalar do Tâmega e Sousa, E.P.E. (508318262)","COLOPLAST PORTUGAL, SOCIEDADE UNIPESSOAL, LDA. (503989037)","6.610,00 €",01-04-2014,01-04-2014,269 dias,"Portugal, Porto, Amarante<BR/>Portugal, Porto, Penafiel","Artigo 20.º, n.º 1, alínea a) do Código dos Contratos Públicos","","",,"",,Não aplicável.,Não aplicável.,FALSE
"Material de Penso e Ligaduras_Lote 5, 7, 10, 17 e 18",Ajuste Direto Regime Geral,Aquisição de bens móveis,"33141100-1, Pensos; clipes, suturas, ligaduras","Centro Hospitalar do Tâmega e Sousa, E. P. E. (508318262)",SMITH & NEPHEW LDA. (503552461),"15.720,83 €",01-04-2014,03-03-2014,297 dias,"Portugal, Porto, Penafiel<BR/>Portugal, Porto, Amarante","Artigo 20.º, n.º 1, alínea a) do Código dos Contratos Públicos","","",,"",,Não aplicável.,Não aplicável.,FALSE
Material de Penso e Ligaduras_Lote 6 e 11,Ajuste Direto Regime Geral,Aquisição de bens móveis,"33141100-1, Pensos; clipes, suturas, ligaduras","Centro Hospitalar do Tâmega e Sousa, E. P. E. (508318262)","Johnson & Johnson, Lda. (500153370)","7.771,05 €",01-04-2014,03-03-2014,297 dias,"Portugal, Porto, Amarante<BR/>Portugal, Porto, Penafiel","Artigo 20.º, n.º 1, alínea a) do Código dos Contratos Públicos","","",,"",,Não aplicável.,Não aplicável.,FALSE
Material de Penso e Ligaduras_Lote 4 e 20,Ajuste Direto Regime Geral,Aquisição de bens móveis,"33141100-1, Pensos; clipes, suturas, ligaduras","Centro Hospitalar do Tâmega e Sousa, E. P. E. (508318262)","Ezequiel Panão Jorge, Lda. (501412727)","2.925,11 €",01-04-2014,03-03-2014,297 dias,"Portugal, Porto, Penafiel<BR/>Portugal, Porto, Amarante","Artigo 20.º, n.º 1, alínea a) do Código dos Contratos Públicos","","",,"",,Não aplicável.,Não aplicável.,FALSE
Material de Penso e Ligaduras_Lote 9 e 21,Ajuste Direto Regime Geral,Aquisição de bens móveis,"33141100-1, Pensos; clipes, suturas, ligaduras","Centro Hospitalar do Tâmega e Sousa, E. P. E. (508318262)"," 3M PORTUGAL, LDA. (500193940)","2.939,94 €",01-04-2014,03-03-2014,297 dias,"Portugal, Porto, Amarante<BR/>Portugal, Porto, Penafiel","Artigo 20.º, n.º 1, alínea a) do Código dos Contratos Públicos","","",,"",,Não aplicável.,Não aplicável.,FALSE
