Objeto do Contrato,Tipo de Procedimento,Tipo(s) de Contrato,CPVs,Entidade(s) Adjudicante(s),Entidade(s) Adjudicatária(s),Preço Contratual,Data de Publicação,Data de Celebração do Contrato,Prazo de Execução,Local de Execução,Fundamentação,Data de Fecho do Contrato,Preço Total Efetivo,Causas das Alterações ao Prazo,Causas das Alterações ao Preço,Estado,N.º registo do Acordo Quadro,Descrição do Acordo Quadro,Procedimento Centralizado
31/3030/2016 - Medicamento complexo B Xar Fr 100 ml,Ao abrigo de acordo-quadro (art.º 258.º),Aquisição de bens móveis,"33690000-3, Medicamentos vários","Centro Hospitalar do Algarve, E. P. E. (510745997)",Bayer Portugal S.A. (500043256),"110,60 €",31-08-2016,03-08-2016,150 dias,"Portugal, Faro, Faro","Artigo 26.º, n.º 1, alínea e) do Código dos Contratos Públicos","","",,"",,1338581,"Acordo quadro para fornecimento de Medicação antialérgica, medicamentos usados no tratamento de intoxicações, vitaminas e sais minerais e grupo 20.9 - outros produtos às instituições e serviços do serviço nacional de saúde",FALSE
31/3072/2016 - medicamento Megestrol 160mg comp,Ao abrigo de acordo-quadro (art.º 258.º),Aquisição de bens móveis,"33690000-3, Medicamentos vários","Centro Hospitalar do Algarve, E. P. E. (510745997)","Generis Farmacêutica, S.A. (508107997)","948,60 €",31-08-2016,05-08-2016,148 dias,"Portugal, Faro, Faro","Artigo 26.º, n.º 1, alínea e) do Código dos Contratos Públicos","","",,"",,1771819,CP 2015/6 - Acordo quadro para o fornecimento de Medicamentos do Foro Oncológico,FALSE
31/3238/2016 - Medicamento Laronidade 100 U/ml,Ao abrigo de acordo-quadro (art.º 258.º),Aquisição de bens móveis,"33690000-3, Medicamentos vários","Centro Hospitalar do Algarve, E. P. E. (510745997)","SANOFI - PRODUTOS FARMACÊUTICOS, LDA. (500134960)","33.001,29 €",31-08-2016,23-08-2016,130 dias,"Portugal, Faro, Faro","Artigo 26.º, n.º 1, alínea e) do Código dos Contratos Públicos","","",,"",,1338581,"Acordo quadro para fornecimento de Medicação antialérgica, medicamentos usados no tratamento de intoxicações, vitaminas e sais minerais e grupo 20.9 - outros produtos às instituições e serviços do serviço nacional de saúde",FALSE
31/3249/2016 - Medicamento Tizanidina 6mg,Ao abrigo de acordo-quadro (art.º 258.º),Aquisição de bens móveis,"33690000-3, Medicamentos vários","Centro Hospitalar do Algarve, E. P. E. (510745997)","Novartis Farma - Produtos Farmacêuticos, S.A. (500063524)","80,98 €",31-08-2016,29-08-2016,124 dias,"Portugal, Faro, Faro","Artigo 26.º, n.º 1, alínea e) do Código dos Contratos Públicos","","",,"",,611371,"CONCURSO PÚBLICO PARA A CELEBRAÇÃO DE CONTRATOS PÚBLICOS DE APROVISIONAMENTO PARA A ÁREA DA SAÚDE, COM VISTA AO FORNECIMENTO DE MEDICAMENTOS ANESTÉSICOS E RELAXANTES MUSCULARES, ÀS INSTITUIÇÕES E SERVIÇOS DO SERVIÇO NACIONAL DE SAÚDE    ",FALSE
31/3250/2016 - Medicamento Rilpivirina 25mg,Ao abrigo de acordo-quadro (art.º 258.º),Aquisição de bens móveis,"33690000-3, Medicamentos vários","Centro Hospitalar do Algarve, E. P. E. (510745997)","Janssen-Cilag Farmacêutica, Lda. (500189412)","9.813,15 €",31-08-2016,29-08-2016,124 dias,"Portugal, Faro, Faro","Artigo 26.º, n.º 1, alínea e) do Código dos Contratos Públicos","","",,"",,1120578,"CONCURSO PÚBLICO PARA A CELEBRAÇÃO DE CONTRATOS PÚBLICOS DE APROVISIONAMENTO PARA A ÁREA DA SAÚDE, COM VISTA AO FORNECIMENTO DE MEDICAMENTOS ANTI-RETROVIRAIS, ÀS INSTITUIÇÕES E SERVIÇOS DO SERVIÇO NACIONAL DE SAÚDE  ",FALSE
31/3251/2016 - Medicamento Poractante alfa 240mg/3ml,Ao abrigo de acordo-quadro (art.º 258.º),Aquisição de bens móveis,"33690000-3, Medicamentos vários","Centro Hospitalar do Algarve, E. P. E. (510745997)","ANGELINI FARMACEUTICA,LDA (500583650)","7.700,70 €",31-08-2016,30-08-2016,123 dias,"Portugal, Faro, Faro","Artigo 26.º, n.º 1, alínea e) do Código dos Contratos Públicos","","",,"",,1638654,CP 2015/12 - Acordo quadro para fornecimento de Medicamentos do Aparelho Respiratório às Instituições e Serviços do Serviço Nacional de Saúde,FALSE
31/3252/2016 - Medicamento Domperidona,Ao abrigo de acordo-quadro (art.º 258.º),Aquisição de bens móveis,"33690000-3, Medicamentos vários","Centro Hospitalar do Algarve, E. P. E. (510745997)","LABORATÓRIO MEDINFAR - PRODUTOS FARMACÊUTICOS, SA (500384045)","198,90 €",31-08-2016,30-08-2016,123 dias,"Portugal, Faro, Faro","Artigo 26.º, n.º 1, alínea e) do Código dos Contratos Públicos","","",,"",,1194708,"CONCURSO PÚBLICO PARA A CELEBRAÇÃO DE CONTRATOS PÚBLICOS DE APROVISIONAMENTO PARA A ÁREA DA SAÚDE, MEDICAMENTOS DO APARELHO DIGESTIVO, ÀS INSTITUIÇÕES E SERVIÇOS DO SERVIÇO NACIONAL DE SAÚDE",FALSE
31/3253/2016 - Medicamento Calcitrol 0.25mg,Ao abrigo de acordo-quadro (art.º 258.º),Aquisição de bens móveis,"33690000-3, Medicamentos vários","Centro Hospitalar do Algarve, E. P. E. (510745997)","Roche Farmacêutica Química, Lda. (500233810)","2.796,75 €",31-08-2016,30-08-2016,123 dias,"Portugal, Faro, Faro","Artigo 26.º, n.º 1, alínea e) do Código dos Contratos Públicos","","",,"",,1410779,CP 2015/47 - Acordo quadro para fornecimento de medicamentos do aparelho locomotor às instituições e serviços do serviço nacional de saúde,FALSE
31/3254/2016 - Medicamento Aprepitant 80 mg,Ao abrigo de acordo-quadro (art.º 258.º),Aquisição de bens móveis,"33690000-3, Medicamentos vários","Centro Hospitalar do Algarve, E. P. E. (510745997)","Merck Sharp & Dohme, Lda. (500191360)","8.550,00 €",31-08-2016,30-08-2016,123 dias,"Portugal, Faro, Faro","Artigo 26.º, n.º 1, alínea e) do Código dos Contratos Públicos","","",,"",,1179911,"CONCURSO PÚBLICO PARA A CELEBRAÇÃO DE CONTRATOS PÚBLICOS DE APROVISIONAMENTO PARA A ÁREA DA SAÚDE, MEDICAMENTOS DO SISTEMA NERVOSO CEREBROSPINAL, EXCETO: ANESTÉSICOS, RELAXANTES MUSCULARES, ANALGÉSICOS, ANTIPIRÉTICOS, ANTIDEPRESSORES E ANTIPSICÓTICOS, ÀS INSTITUIÇÕES E SERVIÇOS DO SERVIÇO NACIONAL DE SAÚDE",FALSE
31/3256/2016 - medicamento Alanina Glutamina 200mg,Ao abrigo de acordo-quadro (art.º 258.º),Aquisição de bens móveis,"33690000-3, Medicamentos vários","Centro Hospitalar do Algarve, E. P. E. (510745997)","Fresenius Kabi Pharma Portugal, Lda. (504293753)","3.897,20 €",31-08-2016,30-08-2016,123 dias,"Portugal, Faro, Faro","Artigo 26.º, n.º 1, alínea e) do Código dos Contratos Públicos","","",,"",,1377429,Acordo Quadro para fornecimento de medicamentos para Nutrição Parentérica às Instituições e Serviços do Serviço Nacional de Saúde,FALSE
31/3126/2016 - Medicamento Megestrol 160mg comp,Ao abrigo de acordo-quadro (art.º 258.º),Aquisição de bens móveis,"33690000-3, Medicamentos vários","Centro Hospitalar do Algarve, E. P. E. (510745997)","Generis Farmacêutica, S.A. (508107997)","8.370,00 €",31-08-2016,10-08-2016,143 dias,"Portugal, Faro, Faro","Artigo 26.º, n.º 1, alínea e) do Código dos Contratos Públicos","","",,"",,1771819,CP 2015/6 - Acordo quadro para o fornecimento de Medicamentos do Foro Oncológico,FALSE
31/3138/2016 - Medicamento Paricalcitol,Ao abrigo de acordo-quadro (art.º 258.º),Aquisição de bens móveis,"33690000-3, Medicamentos vários","Centro Hospitalar do Algarve, E. P. E. (510745997)","AbbVie, Lda. (510229050)","34.514,47 €",31-08-2016,12-08-2016,141 dias,"Portugal, Faro, Faro","Artigo 26.º, n.º 1, alínea e) do Código dos Contratos Públicos","","",,"",,1410779,CP 2015/47 - Acordo quadro para fornecimento de medicamentos do aparelho locomotor às instituições e serviços do serviço nacional de saúde,FALSE
31/3139/2016 - Medicamento Fenobarbital,Ao abrigo de acordo-quadro (art.º 258.º),Aquisição de bens móveis,"33690000-3, Medicamentos vários","Centro Hospitalar do Algarve, E. P. E. (510745997)","LABESFAL, Laboratório Almiro S.A. (501169580)","1.254,50 €",31-08-2016,17-08-2016,136 dias,"Portugal, Faro, Faro","Artigo 26.º, n.º 1, alínea e) do Código dos Contratos Públicos","","",,"",,1179911,"CONCURSO PÚBLICO PARA A CELEBRAÇÃO DE CONTRATOS PÚBLICOS DE APROVISIONAMENTO PARA A ÁREA DA SAÚDE, MEDICAMENTOS DO SISTEMA NERVOSO CEREBROSPINAL, EXCETO: ANESTÉSICOS, RELAXANTES MUSCULARES, ANALGÉSICOS, ANTIPIRÉTICOS, ANTIDEPRESSORES E ANTIPSICÓTICOS, ÀS INSTITUIÇÕES E SERVIÇOS DO SERVIÇO NACIONAL DE SAÚDE",FALSE
31/3140/2016 - Medicamento Lidocaina,Ao abrigo de acordo-quadro (art.º 258.º),Aquisição de bens móveis,"33690000-3, Medicamentos vários","Centro Hospitalar do Algarve, E. P. E. (510745997)","LABESFAL, Laboratório Almiro S.A. (501169580)","437,40 €",31-08-2016,17-08-2016,136 dias,"Portugal, Faro, Faro","Artigo 26.º, n.º 1, alínea e) do Código dos Contratos Públicos","","",,"",,611371,"CONCURSO PÚBLICO PARA A CELEBRAÇÃO DE CONTRATOS PÚBLICOS DE APROVISIONAMENTO PARA A ÁREA DA SAÚDE, COM VISTA AO FORNECIMENTO DE MEDICAMENTOS ANESTÉSICOS E RELAXANTES MUSCULARES, ÀS INSTITUIÇÕES E SERVIÇOS DO SERVIÇO NACIONAL DE SAÚDE    ",FALSE
31/3141/2016 - Medicamento Paracetamol 1g sup,Ao abrigo de acordo-quadro (art.º 258.º),Aquisição de bens móveis,"33690000-3, Medicamentos vários","Centro Hospitalar do Algarve, E. P. E. (510745997)","SANOFI - PRODUTOS FARMACÊUTICOS, LDA. (500134960)","22,40 €",31-08-2016,17-08-2016,136 dias,"Portugal, Faro, Faro","Artigo 26.º, n.º 1, alínea e) do Código dos Contratos Públicos","","",,"",,1974985,"Medicamentos Analgésicos, Antipiréticos e Antidepressivos",FALSE
31/3143/2016 - Medicamento Bromocriptina 2.5mg,Ao abrigo de acordo-quadro (art.º 258.º),Aquisição de bens móveis,"33690000-3, Medicamentos vários","Centro Hospitalar do Algarve, E. P. E. (510745997)","Generis Farmacêutica, S.A. (508107997)","40,80 €",31-08-2016,17-08-2016,136 dias,"Portugal, Faro, Faro","Artigo 26.º, n.º 1, alínea e) do Código dos Contratos Públicos","","",,"",,603979,"CONCURSO PÚBLICO PARA A CELEBRAÇÃO DE CONTRATOS PÚBLICOS DE APROVISIONAMENTO PARA A ÁREA DA SAÚDE, COM VISTA AO FORNECIMENTO DE HORMONAS E OUTROS MEDICAMENTOS USADOS NO TRATAMENTO DAS DOENÇAS ENDÓCRINAS, ÀS INSTITUIÇÕES E SERVIÇOS DO SERVIÇO NACIONAL DE SAÚDE",FALSE
31/3163/2016 - medicamento Voriconazol 200 mg,Ao abrigo de acordo-quadro (art.º 258.º),Aquisição de bens móveis,"33690000-3, Medicamentos vários","Centro Hospitalar do Algarve, E. P. E. (510745997)","LABORATÓRIOS PFIZER, LDA. (500162166)","1.823,96 €",31-08-2016,17-08-2016,136 dias,"Portugal, Faro, Faro","Artigo 26.º, n.º 1, alínea e) do Código dos Contratos Públicos","","",,"",,1422736,CP 2015/41 - ACORDO QUADRO PARA FORNECIMENTO DE MEDICAMENTOS ANTI-INFECIOSOS: ANTIVÍRICOS E ANTIFÚNGICOS ÀS INSTITUIÇÕES E SERVIÇOS DO SERVIÇO NACIONAL DE SAÚDE,FALSE
31/3166/2016 - Medicamento Panitumumab 20mg/ml 20ml,Ao abrigo de acordo-quadro (art.º 258.º),Aquisição de bens móveis,"33690000-3, Medicamentos vários","Centro Hospitalar do Algarve, E. P. E. (510745997)","Amgen Biofarmacêutica, Ldª (502942959)","137.271,00 €",31-08-2016,22-08-2016,131 dias,"Portugal, Faro, Faro","Artigo 26.º, n.º 1, alínea e) do Código dos Contratos Públicos","","",,"",,1771819,CP 2015/6 - Acordo quadro para o fornecimento de Medicamentos do Foro Oncológico,FALSE
31/3194/2016 - Medicamento Alteplase 10mg,Ao abrigo de acordo-quadro (art.º 258.º),Aquisição de bens móveis,"33690000-3, Medicamentos vários","Centro Hospitalar do Algarve, E. P. E. (510745997)","Unilfarma - União Intern. de Lab. Farmac.,Lda. (500293023)","8.629,20 €",31-08-2016,22-08-2016,131 dias,"Portugal, Faro, Faro","Artigo 26.º, n.º 1, alínea e) do Código dos Contratos Públicos","","",,"",,1210107,"CONCURSO PÚBLICO PARA A CELEBRAÇÃO DE CONTRATOS PÚBLICOS DE APROVISIONAMENTO PARA A ÁREA DA SAÚDE, COM VISTA AO FORNECIMENTO DE MEDICAMENTOS DO GRUPO 4: SANGUE, ÀS INSTITUIÇÕES E SERVIÇOS DO SERVIÇO NACIONAL DE SAÚDE",FALSE
Proc. 78/3219/2016- Despesas de Deslocação-Formação de Subespecialidades de Medicina Intensiva,Ajuste Direto Regime Geral,Aquisição de serviços,"60210000-3, Serviços de transporte público ferroviário","Centro Hospitalar do Algarve, E. P. E. (510745997)","CP - Comboios de Portugal, E. P. E. (500498601)","37,26 €",30-08-2016,29-08-2016,15 dias,"Portugal, Faro, Faro","Artigo 20.º, n.º 1, alínea a) do Código dos Contratos Públicos","","",,"",,Não aplicável.,Não aplicável.,FALSE
Proc. 78/3219/2016- Despesas de Deslocação-Formação de Subespecialidades de Medicina Intensiva,Ajuste Direto Regime Geral,Aquisição de serviços,"63500000-4, Serviços de agências de viagens, de operadores turísticos e de assistência a turistas","Centro Hospitalar do Algarve, E. P. E. (510745997)",Ryanair Limited (980489806),"169,90 €",30-08-2016,29-08-2016,15 dias,"Portugal, Faro, Faro","Artigo 20.º, n.º 1, alínea a) do Código dos Contratos Públicos","","",,"",,Não aplicável.,Não aplicável.,FALSE
Proc. 78/3219/2016- Despesas de Deslocação-Formação de Subespecialidades de Medicina Intensiva,Ajuste Direto Regime Geral,Aquisição de serviços,"63500000-4, Serviços de agências de viagens, de operadores turísticos e de assistência a turistas","Centro Hospitalar do Algarve, E. P. E. (510745997)","VIAGENS ABREU, SA (500297177)","207,14 €",30-08-2016,29-08-2016,15 dias,"Portugal, Faro, Faro","Artigo 20.º, n.º 1, alínea a) do Código dos Contratos Públicos","","",,"",,Não aplicável.,Não aplicável.,FALSE
Serviços Médicos Urgência Geral e Básica,Ajuste Direto Regime Geral,Aquisição de serviços,"85121100-4, Serviços de médicos de clínica geral","Centro Hospitalar do Algarve, E. P. E. (510745997)","Dádiva de Confiança Consultório Médico, Lda (509619932)","23.400,00 €",30-08-2016,26-08-2016,180 dias,"Portugal, Faro, Lagos","Artigo 24.º, n.º 1, alínea c) do Código dos Contratos Públicos",31-12-2016,"14.637,50 €",,"O valor inicial do Contrato teve por base as necessidades estimadas para o período de 1 Julho de 2016 a 31 Dezembro de 2016, o valor final reflecte as necessidades efectivas.",,Não aplicável.,Não aplicável.,FALSE
Proc.67/3197/2016- Reparação de Registador Holter-Unid. Portimão,Ajuste Direto Regime Geral,Aquisição de serviços,"50421000-2, Serviços de reparação e manutenção de equipamento médico","Centro Hospitalar do Algarve, E. P. E. (510745997)",SUCH - Serviço de Utilizaçao Comum dos Hospitais (500900469),"1.219,00 €",30-08-2016,18-08-2016,30 dias,"Portugal, Faro, Portimão","Artigo 24.º, n.º 1, alínea e) do Código dos Contratos Públicos","","",,"",,Não aplicável.,Não aplicável.,FALSE
Serviços Médicos Urgência Geral e Básica,Ajuste Direto Regime Geral,Aquisição de serviços,"85121100-4, Serviços de médicos de clínica geral","Centro Hospitalar do Algarve, E. P. E. (510745997)","Acosta, Perilla & Pizon - Serviços de Saúde, Lda (513221034)","31.200,00 €",30-08-2016,24-08-2016,180 dias,"Portugal, Faro, Albufeira<BR/>Portugal, Faro, Loulé<BR/>Portugal, Faro, Portimão<BR/>Portugal, Faro, Faro","Artigo 24.º, n.º 1, alínea c) do Código dos Contratos Públicos",31-12-2016,"15.675,00 €",,"O valor inicial do Contrato teve por base as necessidades estimadas para o período de 1 Julho de 2016 a 31 Dezembro de 2016, o valor final reflecte as necessidades efectivas.",,Não aplicável.,Não aplicável.,FALSE
Proc.68/3196/2016-Manutenção de Microscópios-Unid.Portimão,Ajuste Direto Regime Geral,Aquisição de serviços,"50400000-9, Serviços de reparação e manutenção de equipamento médico e de precisão","Centro Hospitalar do Algarve, E. P. E. (510745997)","STB Serviços Telemáticos e Biomédicos, Unipessoal (506989020)","885,50 €",30-08-2016,18-08-2016,60 dias,"Portugal, Faro, Portimão","Artigo 24.º, n.º 1, alínea e) do Código dos Contratos Públicos","","",,"",,Não aplicável.,Não aplicável.,FALSE
Proc.68/3167/2016- Feltros para cápsulas do Sistema Pneumático Transporte de Analises-Unid.Portimão,Ajuste Direto Regime Geral,Aquisição de serviços,"50700000-2, Serviços de reparação e manutenção de equipamento em edifícios","Centro Hospitalar do Algarve, E. P. E. (510745997)",JJL - Instalações Eletricas (506310132),"1.035,00 €",30-08-2016,18-08-2016,30 dias,"Portugal, Faro, Portimão","Artigo 24.º, n.º 1, alínea e) do Código dos Contratos Públicos","","",,"",,Não aplicável.,Não aplicável.,FALSE
Proc. 68/3164/2016- Franquia - Acidente Desportivo,Ajuste Direto Regime Geral,Aquisição de serviços,"66512100-3, Serviços de seguros de acidentes","Centro Hospitalar do Algarve, E. P. E. (510745997)","Tranquilidade - Companhia de Seguros, SA (500940231)","75,00 €",30-08-2016,18-08-2016,15 dias,"Portugal, Faro, Faro","Artigo 24.º, n.º 1, alínea e) do Código dos Contratos Públicos","","",,"",,Não aplicável.,Não aplicável.,FALSE
Proc. 67/3153/2016- Substituição de Bomba Água Nº 2-Sist.Tratamento Água-Hemodiálise-Unid.Faro,Ajuste Direto Regime Geral,Aquisição de serviços,"50511100-1, Serviços de reparação e manutenção de bombas para líquidos","Centro Hospitalar do Algarve, E. P. E. (510745997)","FRESENIUS MEDICAL CARE, SA (503070220)","80,00 €",30-08-2016,18-08-2016,60 dias,"Portugal, Faro, Faro","Artigo 24.º, n.º 1, alínea e) do Código dos Contratos Públicos","","",,"",,Não aplicável.,Não aplicável.,FALSE
Proc. 67/315282016- Reparação Tesoura Laparoscopia,Ajuste Direto Regime Geral,Aquisição de serviços,"50422000-9, Serviços de reparação e manutenção de equipamento cirúrgico","Centro Hospitalar do Algarve, E. P. E. (510745997)",B BRAUN MEDICAL LDA (501506543),"223,50 €",30-08-2016,18-08-2016,60 dias,"Portugal, Faro, Faro","Artigo 24.º, n.º 1, alínea e) do Código dos Contratos Públicos",26-09-2016,"",,Impossibilidade de reparação,,Não aplicável.,Não aplicável.,FALSE
Proc. 67/3113/2016-Materiais para diversas reparações-Unid.Faro,Ajuste Direto Regime Geral,Aquisição de serviços,"50730000-1, Serviços de reparação e manutenção de grupos de refrigeração","Centro Hospitalar do Algarve, E. P. E. (510745997)",Tecnospie (500205698),"3.472,98 €",30-08-2016,18-08-2016,60 dias,"Portugal, Faro, Faro","Artigo 24.º, n.º 1, alínea e) do Código dos Contratos Públicos","","",,"",,Não aplicável.,Não aplicável.,FALSE
Proc. 67/3112/2016- Reparação camas electricas,Ajuste Direto Regime Geral,Aquisição de serviços,"50850000-8, Serviços de reparação e manutenção de mobiliário","Centro Hospitalar do Algarve, E. P. E. (510745997)",SUCH - Serviço de Utilizaçao Comum dos Hospitais (500900469),"5.308,00 €",30-08-2016,17-08-2016,60 dias,"Portugal, Faro, Faro","Artigo 24.º, n.º 1, alínea e) do Código dos Contratos Públicos","","",,"",,Não aplicável.,Não aplicável.,FALSE
Proc. 67/3107/2016-Reparação de camas hospitalares,Ajuste Direto Regime Geral,Aquisição de serviços,"50850000-8, Serviços de reparação e manutenção de mobiliário","Centro Hospitalar do Algarve, E. P. E. (510745997)","Mundinter, SA (500199906)","179,42 €",30-08-2016,17-08-2016,60 dias,"Portugal, Faro, Faro","Artigo 24.º, n.º 1, alínea e) do Código dos Contratos Públicos","","",,"",,Não aplicável.,Não aplicável.,FALSE
Proc. 67/3093/2016-Reparação de Superfícies dinâmicas Eurocare,Ajuste Direto Regime Geral,Aquisição de serviços,"50850000-8, Serviços de reparação e manutenção de mobiliário","Centro Hospitalar do Algarve, E. P. E. (510745997)","Smith & Nephew, Lda (503552461)","1.682,61 €",30-08-2016,18-08-2016,60 dias,"Portugal, Faro, Faro","Artigo 24.º, n.º 1, alínea e) do Código dos Contratos Públicos","","",,"",,Não aplicável.,Não aplicável.,FALSE
Proc.67/3091/2016- Fornectº. e Subst. Bomba de Àgua nº 1-Sist.Tratamento Àgua-Unid.Faro,Ajuste Direto Regime Geral,Aquisição de serviços,"50511100-1, Serviços de reparação e manutenção de bombas para líquidos","Centro Hospitalar do Algarve, E. P. E. (510745997)","FRESENIUS MEDICAL CARE, SA (503070220)","90,00 €",30-08-2016,17-08-2016,60 dias,"Portugal, Faro, Faro","Artigo 24.º, n.º 1, alínea e) do Código dos Contratos Públicos","","",,"",,Não aplicável.,Não aplicável.,FALSE
Proc. 67/3082/2016-Manutenção de Microscópios-Unid.Portimão e Lagos,Ajuste Direto Regime Geral,Aquisição de serviços,"50400000-9, Serviços de reparação e manutenção de equipamento médico e de precisão","Centro Hospitalar do Algarve, E. P. E. (510745997)","STB Serviços Telemáticos e Biomédicos, Unipessoal (506989020)","1.906,00 €",30-08-2016,23-08-2016,60 dias,"Portugal, Faro, Portimão<BR/>Portugal, Faro, Lagos","Artigo 24.º, n.º 1, alínea e) do Código dos Contratos Públicos","","",,"",,Não aplicável.,Não aplicável.,FALSE
Proc. 67/3050/2016- Reparação rampa Central de Gases Medicinais-Sub Albufeira,Ajuste Direto Regime Geral,Aquisição de serviços,"50700000-2, Serviços de reparação e manutenção de equipamento em edifícios","Centro Hospitalar do Algarve, E. P. E. (510745997)","Air Liquide Medicinal,SA (501576436)","374,40 €",30-08-2016,17-08-2016,60 dias,"Portugal, Faro, Albufeira","Artigo 24.º, n.º 1, alínea e) do Código dos Contratos Públicos","","",,"",,Não aplicável.,Não aplicável.,FALSE
Proc. 68/3048/2016- Baterias para Gerador Ambulatorio,Ajuste Direto Regime Geral,Aquisição de bens móveis,"31440000-2, Baterias","Centro Hospitalar do Algarve, E. P. E. (510745997)","ACCIONA,SA (503431397)","311,64 €",30-08-2016,17-08-2016,60 dias,"Portugal, Faro, Faro","Artigo 24.º, n.º 1, alínea e) do Código dos Contratos Públicos","","",,"",,Não aplicável.,Não aplicável.,FALSE
Proc. 68/2993/2016-Baterias p/UPS,Ajuste Direto Regime Geral,Aquisição de bens móveis,"31440000-2, Baterias","Centro Hospitalar do Algarve, E. P. E. (510745997)","ACCIONA,SA (503431397)","6.679,68 €",29-08-2016,17-08-2016,60 dias,"Portugal, Faro, Faro","Artigo 24.º, n.º 1, alínea e) do Código dos Contratos Públicos","","",,"",,Não aplicável.,Não aplicável.,FALSE
Proc.67/2949/2016- Reparação de Desfibrilhador,Ajuste Direto Regime Geral,Aquisição de serviços,"50421000-2, Serviços de reparação e manutenção de equipamento médico","Centro Hospitalar do Algarve, E. P. E. (510745997)",SUCH - Serviço de Utilizaçao Comum dos Hospitais (500900469),"42,52 €",29-08-2016,17-08-2016,60 dias,"Portugal, Faro, Faro","Artigo 24.º, n.º 1, alínea e) do Código dos Contratos Públicos","","",,"",,Não aplicável.,Não aplicável.,FALSE
Proc. 68/2904/2016- Materiais p/ Manutenção Preventiva-Centrais de Vácuo-Unid.Faro +Unid.Lagos,Ajuste Direto Regime Geral,Aquisição de serviços,"50530000-9, Serviços de reparação e manutenção de máquinas","Centro Hospitalar do Algarve, E. P. E. (510745997)",AIR LIQUIDE MEDICINAL SA (501576436),"4.736,78 €",29-08-2016,17-08-2016,60 dias,"Portugal, Faro, Faro","Artigo 24.º, n.º 1, alínea e) do Código dos Contratos Públicos","","",,"",,Não aplicável.,Não aplicável.,FALSE
"Serviços Médicos Urgência Geral, Básica e Pediatrica",Ajuste Direto Regime Geral,Aquisição de serviços,"85121100-4, Serviços de médicos de clínica geral","Centro Hospitalar do Algarve, E. P. E. (510745997)","Dorin & Natalia - Serviços Médicos, Lda (509801226)","71.500,00 €",29-08-2016,03-08-2016,180 dias,"Portugal, Faro, Portimão<BR/>Portugal, Faro, Lagos","Artigo 24.º, n.º 1, alínea c) do Código dos Contratos Públicos",31-12-2016,"58.825,00 €",,"O valor inicial do Contrato teve por base as necessidades estimadas para o período de 1 Julho de 2016 a 31 Dezembro de 2016, o valor final reflecte as necessidades efectivas.",,Não aplicável.,Não aplicável.,FALSE
Aquisição de Sistema Pace Bi-Ventricular CRT-D,Ao abrigo de acordo-quadro (art.º 259.º),Aquisição de bens móveis,"33140000-3, Material médico de consumo","Centro Hospitalar do Algarve, E. P. E. (510745997)",BIOTRONIK Portugal (Unipessoal Lda. (510726941),"13.350,00 €",26-08-2016,25-08-2016,128 dias,"Portugal, Faro, Portimão<BR/>Portugal, Faro, Lagos<BR/>Portugal, Faro, Faro","Artigo 20.º, n.º 1, alínea b) do Código dos Contratos Públicos","","",,"",,600027,"CONCURSO PÚBLICO PARA A CELEBRAÇÃO DE CONTRATOS PÚBLICOS DE APROVISIONAMENTO PARA A ÁREA DA SAÚDE, COM VISTA AO FORNECIMENTO DE SISTEMAS DE CARDIOVERSORES DESFIBRILHADORES IMPLANTÁVEIS ÀS INSTITUIÇÕES E SERVIÇOS DO SERVIÇO NACIONAL DE SAÚDE",FALSE
Serviços Médicos Urgência Geral e Básica,Ajuste Direto Regime Geral,Aquisição de serviços,"85121100-4, Serviços de médicos de clínica geral","Centro Hospitalar do Algarve, E. P. E. (510745997)",Atlantic Melody-Lda (513353704),"85.800,00 €",26-08-2016,18-08-2016,180 dias,"Portugal, Faro, Faro<BR/>Portugal, Faro, Loulé<BR/>Portugal, Faro, Albufeira<BR/>Portugal, Faro, Portimão","Artigo 24.º, n.º 1, alínea c) do Código dos Contratos Públicos",31-12-2016,"51.300,00 €",,"O valor inicial do Contrato teve por base as necessidades estimadas para o período de 1 Julho de 2016 a 31 Dezembro de 2016, o valor final reflecte as necessidades efectivas.",,Não aplicável.,Não aplicável.,FALSE
"Serviços Médicos Urgência Geral, Pediátrica e Básica, Cuidados Intermédios, Vmer",Ajuste Direto Regime Geral,Aquisição de serviços,"85121100-4, Serviços de médicos de clínica geral","Centro Hospitalar do Algarve, E. P. E. (510745997)","Naturospa, Lda (507566351)","39.000,00 €",26-08-2016,22-08-2016,180 dias,"Portugal, Faro, Portimão<BR/>Portugal, Faro, Faro<BR/>Portugal, Faro, Albufeira","Artigo 24.º, n.º 1, alínea c) do Código dos Contratos Públicos",30-12-2016,"14.800,00 €",,"O valor inicial do Contrato teve por base as necessidades estimadas para o período de 1 Julho de 2016 a 31 Dezembro de 2016, o valor final reflecte as necessidades efectivas.",,Não aplicável.,Não aplicável.,FALSE
Proc. 67/2890/2016- Reparação de Equipamentos -Bloco Urologia e Imagiologia-Unid.Portimão,Ajuste Direto Regime Geral,Aquisição de serviços,"50420000-5, Serviços de reparação e manutenção de equipamento médico e cirúrgico","Centro Hospitalar do Algarve, E. P. E. (510745997)",SUCH- Serviço de Utilização Comum dos Hospitais (500900469),"5.096,80 €",25-08-2016,17-08-2016,60 dias,"Portugal, Faro, Portimão","Artigo 24.º, n.º 1, alínea e) do Código dos Contratos Públicos","","",,"",,Não aplicável.,Não aplicável.,FALSE
Proc. 67/2843/2016-Reparação Sistema de Detecção de Incêndios-Unid.Lagos,Ajuste Direto Regime Geral,Aquisição de serviços,"50610000-4, Serviços de reparação e manutenção de equipamento de segurança","Centro Hospitalar do Algarve, E. P. E. (510745997)","Siemens,SA (500247480)","164,74 €",25-08-2016,17-08-2016,60 dias,"Portugal, Faro, Lagos","Artigo 24.º, n.º 1, alínea e) do Código dos Contratos Públicos","","",,"",,Não aplicável.,Não aplicável.,FALSE
Proc. 78/2818/2016- Substituição de rodas em camas hospitalares,Ajuste Direto Regime Geral,Aquisição de serviços,"50850000-8, Serviços de reparação e manutenção de mobiliário","Centro Hospitalar do Algarve, E. P. E. (510745997)","Tente Ruedas,SA (A61729042)","8.125,56 €",25-08-2016,17-08-2016,60 dias,"Portugal, Faro, Portimão","Artigo 20.º, n.º 1, alínea a) do Código dos Contratos Públicos","","",,"",,Não aplicável.,Não aplicável.,FALSE
Proc. 67/2839/16-Reparação de intensificador de imagem,Ajuste Direto Regime Geral,Aquisição de serviços,"50421000-2, Serviços de reparação e manutenção de equipamento médico","Centro Hospitalar do Algarve, E. P. E. (510745997)",SUCH Serviço Utilização Comum dos Hospitais (500900469),"1.168,40 €",25-08-2016,17-08-2016,60 dias,"Portugal, Faro, Portimão","Artigo 24.º, n.º 1, alínea e) do Código dos Contratos Públicos","","",,"",,Não aplicável.,Não aplicável.,FALSE
Proc. 68/2657/2016-Materiais p/ aplicar na Manutenção Periódica das caldeiras e Geradores de vapor-no âmbito do CAT,Ajuste Direto Regime Geral,Aquisição de serviços,"50710000-5, Serviços de reparação e manutenção de equipamento eléctrico e mecânico em edifícios","Centro Hospitalar do Algarve, E. P. E. (510745997)","Tecniqueima,Lda (503706604)","1.590,72 €",25-08-2016,17-08-2016,60 dias,"Portugal, Faro, Faro","Artigo 24.º, n.º 1, alínea e) do Código dos Contratos Públicos","","",,"",,Não aplicável.,Não aplicável.,FALSE
Aquisição de Cardioversor Desfibrilhador - 1 Câmara(CDI-VR) Gerador S/Elétrodo,Ao abrigo de acordo-quadro (art.º 259.º),Aquisição de bens móveis,"33140000-3, Material médico de consumo","Centro Hospitalar do Algarve, E. P. E. (510745997)",BIOTRONIK Portugal (Unipessoal Lda. (510726941),"7.000,00 €",25-08-2016,25-08-2016,128 dias,"Portugal, Faro, Portimão<BR/>Portugal, Faro, Faro<BR/>Portugal, Faro, Lagos","Artigo 20.º, n.º 1, alínea b) do Código dos Contratos Públicos","","",,"",,600027,"CONCURSO PÚBLICO PARA A CELEBRAÇÃO DE CONTRATOS PÚBLICOS DE APROVISIONAMENTO PARA A ÁREA DA SAÚDE, COM VISTA AO FORNECIMENTO DE SISTEMAS DE CARDIOVERSORES DESFIBRILHADORES IMPLANTÁVEIS ÀS INSTITUIÇÕES E SERVIÇOS DO SERVIÇO NACIONAL DE SAÚDE",FALSE
Proc. 68/2656/2016- Forntº variador de frequencia p/ ventilador extracção de ar-Anatomia Patologica.,Ajuste Direto Regime Geral,Aquisição de serviços,"50711000-2, Serviços de reparação e manutenção de equipamento eléctrico em edifícios","Centro Hospitalar do Algarve, E. P. E. (510745997)",Tecnospie (500205698),"830,20 €",25-08-2016,17-08-2016,60 dias,"Portugal, Faro, Faro","Artigo 24.º, n.º 1, alínea e) do Código dos Contratos Públicos","","",,"",,Não aplicável.,Não aplicável.,FALSE
Proc. 68/0712/2016- Certificação/Acreditação-Medicina Física de Reabilitação-Ano 2016,Ajuste Direto Regime Geral,Aquisição de serviços,"79132000-8, Serviços de certificação","Centro Hospitalar do Algarve, E. P. E. (510745997)",Direcção Geral de Saude (600037100),"3.465,00 €",25-08-2016,08-08-2016,365 dias,"Portugal, Faro, Faro","Artigo 24.º, n.º 1, alínea e) do Código dos Contratos Públicos","","",,"",,Não aplicável.,Não aplicável.,FALSE
68.2511.2016 - Contrato Garantia e Assistência Tecnica a Eq. Multifunções Unid. Faro 2º Semestre,Ajuste Direto Regime Geral,Aquisição de serviços,"50000000-5, Serviços de reparação e manutenção","Centro Hospitalar do Algarve, E. P. E. (510745997)","JRJ Suporte Tecnico, Lda (505111500)","1.917,00 €",22-08-2016,17-08-2016,184 dias,"Portugal, Faro, Faro","Artigo 24.º, n.º 1, alínea a) do Código dos Contratos Públicos","","",,"",,Não aplicável.,Não aplicável.,FALSE
"Aquisição de Adesivo Suporte de Pano com cola latex + óxido de zinco (10m x 2,5 cm)",Ao abrigo de acordo-quadro (art.º 259.º),Aquisição de bens móveis,"33140000-3, Material médico de consumo","Centro Hospitalar do Algarve, E. P. E. (510745997)","PAUL HARTMANN, LDA. (502271728)","3.568,32 €",22-08-2016,16-08-2016,137 dias,"Portugal, Faro, Lagos<BR/>Portugal, Faro, Faro<BR/>Portugal, Faro, Portimão","Artigo 20.º, n.º 1, alínea b) do Código dos Contratos Públicos","","",,"",,534953,"CONCURSO PÚBLICO PARA A CELEBRAÇÃO DE CONTRATOS PÚBLICOS DE APROVISIONAMENTO PARA A ÁREA DA SAÚDE, COM VISTA AO FORNECIMENTO DE MATERIAL DE PENSO TRADICIONAL/CLASSICO - PARTE 1 - ÀS INSTITUIÇÕES E SERVIÇOS DO SERVIÇO NACIONAL DE SAÚDE  ",FALSE
Aquisição de Compressa em Tecido não Tecido Esterilizada 10x10CM,Ajuste Direto Regime Geral,Aquisição de bens móveis,"33140000-3, Material médico de consumo","Centro Hospitalar do Algarve, E.P.E. (510745997)",ALBINO DIAS ANDRADE LDA (500013810),"12.970,00 €",22-08-2016,18-08-2016,135 dias,"Portugal, Faro, Faro<BR/>Portugal, Faro, Portimão<BR/>Portugal, Faro, Lagos","Artigo 20.º, n.º 1, alínea a) do Código dos Contratos Públicos","","",,"",,Não aplicável.,Não aplicável.,FALSE
