Objeto do Contrato,Tipo de Procedimento,Tipo(s) de Contrato,CPVs,Entidade(s) Adjudicante(s),Entidade(s) Adjudicatária(s),Preço Contratual,Data de Publicação,Data de Celebração do Contrato,Prazo de Execução,Local de Execução,Fundamentação,Data de Fecho do Contrato,Preço Total Efetivo,Causas das Alterações ao Prazo,Causas das Alterações ao Preço,Estado,N.º registo do Acordo Quadro,Descrição do Acordo Quadro,Procedimento Centralizado
"Capsaicina, Tópico, 8%, Adesivo Cutâneo",Ao abrigo de acordo-quadro (art.º 259.º),Aquisição de bens móveis,"33600000-6, Produtos farmacêuticos","Hospital Professor Doutor Fernando Fonseca, E. P. E. (503035416)","GRUNENTHAL, S.A. (500101965)","7.166,95 €",09-09-2017,10-04-2017,265 dias,"Portugal, Lisboa, Amadora",Artigo 259.º do Código dos Contratos Públicos,,,,,,2211341,Medicamentos anestésicos e relaxantes musculares,FALSE
"TIOCOLQUICOSIDO, IM, 2MG/ML",Ao abrigo de acordo-quadro (art.º 259.º),Aquisição de bens móveis,"33600000-6, Produtos farmacêuticos","Hospital Professor Doutor Fernando Fonseca, E. P. E. (503035416)",KORANGI-PROD.FARMAC.S.A. (505322307),"5.034,00 €",09-09-2017,18-04-2017,257 dias,"Portugal, Lisboa, Amadora",Artigo 259.º do Código dos Contratos Públicos,,,,,,2211341,Medicamentos anestésicos e relaxantes musculares,FALSE
Aquisição de Conjuntos para Blocos de Partos,Concurso público,Aquisição de bens móveis,"33698000-9, Produtos para fins clínicos","Hospital Professor Doutor Fernando Fonseca, E. P. E. (503035416)","Lineamédica - Disp. Médicos Cirúrgicos, SA (505148676)","53.750,00 €",07-09-2017,22-08-2017,131 dias,"Portugal, Lisboa, Amadora","Artigo 20.º, n.º 1, alínea b) do Código dos Contratos Públicos",,,,,,Não aplicável.,Não aplicável.,FALSE
Contrato de Custódia de Arquivo,Ajuste Direto Regime Geral,Aquisição de serviços,"79995100-6, Serviços de arquivo","Hospital Professor Doutor Fernando Fonseca, E. P. E. (503035416)",Gadsa - Arquivo e Depósito S.A. (504595440),"54.738,00 €",07-09-2017,25-07-2017,305 dias,"Portugal, Lisboa, Amadora","Artigo 20.º, n.º 1, alínea a) do Código dos Contratos Públicos",,,,,,Não aplicável.,Não aplicável.,FALSE
Aquisição de ABACAVIR + LAMIVUDINA (Comp.Revest.)[600 + 300 MG],Ajuste Direto Regime Geral,Aquisição de bens móveis,"33600000-6, Produtos farmacêuticos","Hospital Professor Doutor Fernando Fonseca, E. P. E. (503035416)","TEVA PHARMA-PRODUTOS FARMACEUTICOS, LDA (507045491)","117.480,00 €",07-09-2017,31-08-2017,122 dias,"Portugal, Lisboa, Amadora","Artigo 20.º, n.º 1, alínea a) do Código dos Contratos Públicos",,,,,,Não aplicável.,Não aplicável.,FALSE
Aquisição de Sistema de Stent Coronário com revestimento farmacológico,Concurso público,Aquisição de bens móveis,"33698000-9, Produtos para fins clínicos","Hospital Professor Doutor Fernando Fonseca, E. P. E. (503035416)","ABBOTT LABORATORIOS, LDA (500006148)","31.000,00 €",07-09-2017,01-08-2017,152 dias,"Portugal, Lisboa, Amadora","Artigo 20.º, n.º 1, alínea b) do Código dos Contratos Públicos",,,,,,Não aplicável.,Não aplicável.,FALSE
Aquisição Serviços TRIE,Ajuste Direto Regime Geral,Aquisição de serviços,"79212000-3, Serviços de auditoria","Hospital Professor Doutor Fernando Fonseca, E. P. E. (503035416)","Jetcon II - Engenharia, Construções e Realizações Imobiliarias Lda. (506059022)","7.800,00 €",05-09-2017,25-07-2017,365 dias,"Portugal, Lisboa, Amadora","Artigo 20.º, n.º 1, alínea a) do Código dos Contratos Públicos",,,,,,Não aplicável.,Não aplicável.,FALSE
Aquisição Filtros do Sistema AVAC do HFF,Concurso público,Aquisição de bens móveis,"42913500-4, Filtros para entrada de ar","Hospital Professor Doutor Fernando Fonseca, E. P. E. (503035416)","Efacec-Manvia, Manutenção Hospitalar, A.C.E. (509801510)","28.524,81 €",05-09-2017,21-06-2016,60 dias,"Portugal, Lisboa, Amadora","Artigo 20.º, n.º 1, alínea b) do Código dos Contratos Públicos",,,,,,Não aplicável.,Não aplicável.,FALSE
"Aquisição de Pembrolizumab, IV, 50MG, PO SOL INJ",Ajuste Direto Regime Geral,Aquisição de bens móveis,"33600000-6, Produtos farmacêuticos","Hospital Professor Doutor Fernando Fonseca, E. P. E. (503035416)",MERCK SHARP DOHME                                  (500191360),"79.800,00 €",04-09-2017,16-08-2017,150 dias,"Portugal, Lisboa, Amadora","Artigo 24.º, n.º 1, alínea e) do Código dos Contratos Públicos",,,,,,Não aplicável.,Não aplicável.,FALSE
