Objeto do Contrato,Tipo de Procedimento,Tipo(s) de Contrato,CPVs,Entidade(s) Adjudicante(s),Entidade(s) Adjudicatária(s),Preço Contratual,Data de Publicação,Data de Celebração do Contrato,Prazo de Execução,Local de Execução,Fundamentação,Data de Fecho do Contrato,Preço Total Efetivo,Causas das Alterações ao Prazo,Causas das Alterações ao Preço,Estado,N.º registo do Acordo Quadro,Descrição do Acordo Quadro,Procedimento Centralizado
Aquisição de sondas para aparelho de Biofeedback e Electroestimulação por EMG,Consulta Prévia,Aquisição de bens móveis,"33140000-3, Material médico de consumo","Hospital Distrital de Santarém, EPE (506361462)","Mundinter, SA (500199906)","597,60 €",13-12-2018,12-12-2018,30 dias,"Portugal, Santarém, Santarém","Artigo 20.º, n.º 1, alínea c) do Código dos Contratos Públicos",,,,,,Não aplicável.,Não aplicável.,FALSE
Aquisição de sondas para aparelho de Biofeedback e Electroestimulação por EMG,Consulta Prévia,Aquisição de bens móveis,"33140000-3, Material médico de consumo","Hospital Distrital de Santarém, EPE (506361462)","Enraf Nonius, Lda (504798880)","1.195,00 €",13-12-2018,12-12-2018,30 dias,"Portugal, Santarém, Santarém","Artigo 20.º, n.º 1, alínea c) do Código dos Contratos Públicos",,,,,,Não aplicável.,Não aplicável.,FALSE
