Objeto do Contrato,Tipo de Procedimento,Tipo(s) de Contrato,CPVs,Entidade(s) Adjudicante(s),Entidade(s) Adjudicatária(s),Preço Contratual,Data de Publicação,Data de Celebração do Contrato,Prazo de Execução,Local de Execução,Fundamentação,Data de Fecho do Contrato,Preço Total Efetivo,Causas das Alterações ao Prazo,Causas das Alterações ao Preço,Estado,N.º registo do Acordo Quadro,Descrição do Acordo Quadro,Procedimento Centralizado
RAMPEAR E FAZER OS GABINETES DE CONSULTA (REFORMULAR AMBULATÓRIO -2º ANDAR-LADO ESQUERDO- UNIDADE ÁGUEDA),Ajuste Direto Regime Geral,Empreitadas de obras públicas,"45200000-9, Obras de construção total ou parcial e de engenharia civil","Centro Hospitalar do Baixo Vouga, E. P. E (CHBV, E. P. E.) (510123210)","MANUEL FERNANDO RODRIGUES DIAS, UNIPESSOAL, LDA (508076544)","5.450,00 €",17-04-2015,22-09-2014,14 dias,"Portugal, Aveiro, Águeda","Artigo 19.º, alínea a) do Código dos Contratos Públicos","","","",,,Não aplicável.,Não aplicável.,FALSE
AQUISIÇÃO DE UM BRONCOFIBROSCÓPIO P/ SERVIÇO TECNICAS PNEUMOLOGICAS,Ajuste Direto Regime Geral,Aquisição de bens móveis,"33100000-1, Equipamento médico","Centro Hospitalar do Baixo Vouga, E. P. E (CHBV, E. P. E.) (510123210)","SISTEMAS INTEGRALES DE MEDICINA, S.A. - SUCURSAL PORTUGAL (980488842)","7.800,00 €",17-04-2015,10-12-2014,15 dias,"Portugal, Aveiro, Aveiro","Artigo 20.º, n.º 1, alínea a) do Código dos Contratos Públicos",23-12-2014,"7.800,00 €","",,,Não aplicável.,Não aplicável.,FALSE
GRANDE REPARAÇÃO DOS COLCHÕES DE CINCO CAMAS DO SMI,Ajuste Direto Regime Geral,Aquisição de bens móveis,"39143112-4, Colchões","Centro Hospitalar do Baixo Vouga, E. P. E (CHBV, E. P. E.) (510123210)","SANO - TECNICA, LDA (500239819)","5.061,18 €",17-04-2015,11-12-2014,30 dias,"Portugal, Aveiro, Aveiro","Artigo 24.º, n.º 1, alínea e) do Código dos Contratos Públicos",31-12-2014,"5.061,18 €","",,,Não aplicável.,Não aplicável.,FALSE
GRANDE REPARAÇÃO EQUIP. PT1264-PRACTIX33 N/S: P4-842 (UNID. ÁGUEDA),Ajuste Direto Regime Geral,Aquisição de bens móveis,"33110000-4, Equipamento de imagiologia para uso médico, dentário e veterinário","Centro Hospitalar do Baixo Vouga, E. P. E (CHBV, E. P. E.) (510123210)","PHILIPS PORTUGUESA, S.A. (500216843)","6.184,94 €",17-04-2015,24-11-2014,25 dias,"Portugal, Aveiro, Águeda","Artigo 24.º, n.º 1, alínea e) do Código dos Contratos Públicos",15-12-2014,"6.184,94 €","",,,Não aplicável.,Não aplicável.,FALSE
GRANDE REPARAÇÃO DE CINCO (5) CAMAS DO SMI,Ajuste Direto Regime Geral,Aquisição de bens móveis,"33192000-2, Mobiliário para fins médicos","Centro Hospitalar do Baixo Vouga, E. P. E (CHBV, E. P. E.) (510123210)","SANO - TECNICA, LDA (500239819)","6.764,05 €",17-04-2015,03-11-2014,30 dias,"Portugal, Aveiro, Aveiro","Artigo 24.º, n.º 1, alínea e) do Código dos Contratos Públicos",30-12-2014,"6.764,05 €","",,,Não aplicável.,Não aplicável.,FALSE
SUBSTITUIÇÃO AMPOLA RX DO EQUIP. DIAGNOST 93-DSI,Ajuste Direto Regime Geral,Aquisição de bens móveis,"33100000-1, Equipamento médico","Centro Hospitalar do Baixo Vouga, E. P. E (CHBV, E. P. E.) (510123210)","PHILIPS PORTUGUESA, S.A. (500216843)","18.689,26 €",17-04-2015,11-09-2014,13 dias,"Portugal, Aveiro, Estarreja","Artigo 24.º, n.º 1, alínea e) do Código dos Contratos Públicos",23-09-2014,"18.689,26 €","",,,Não aplicável.,Não aplicável.,FALSE
AQUISIÇÃO DE LICENÇAS SOFTWARE -FORUM ZEISS,Ajuste Direto Regime Geral,Aquisição de bens móveis,"48000000-8, Pacotes de software e sistemas de informação","Centro Hospitalar do Baixo Vouga, E. P. E (CHBV, E. P. E.) (510123210)","GRUPO TAPER - EQUIP. PRECISÃO CIENTIFICA, LDA (506886336)","6.800,00 €",15-04-2015,29-08-2014,30 dias,"Portugal, Aveiro, Aveiro","Artigo 20.º, n.º 1, alínea a) do Código dos Contratos Públicos",14-11-2014,"6.800,00 €","",,,Não aplicável.,Não aplicável.,FALSE
"GRANDE REPARAÇÃO DAS MESAS OPERATÓRIAS (S/N:15202, 15211 E 15217)  ",Ajuste Direto Regime Geral,Aquisição de bens móveis,"33000000-0, Equipamento médico, medicamentos e produtos para cuidados pessoais","Centro Hospitalar do Baixo Vouga, E. P. E (CHBV, E. P. E.) (510123210)","LINEAMEDICA-DISPSIT.MED,SA (505148676)","7.880,89 €",15-04-2015,17-04-2014,14 dias,"Portugal, Aveiro, Aveiro","Artigo 20.º, n.º 1, alínea a) do Código dos Contratos Públicos",17-06-2014,"7.880,89 €","",,,Não aplicável.,Não aplicável.,FALSE
FORNECIMENTO E MONTAGEM DE CAIXILHARIA EM ALUMINIO LACADO NO BLOCO 1,Ajuste Direto Regime Geral,Aquisição de bens móveis,"44000000-0, Estruturas e materiais de construção; produtos auxiliares de construção (excepto aparelhos eléctricos)","Centro Hospitalar do Baixo Vouga, E. P. E (CHBV, E. P. E.) (510123210)","JUNQUEIROS, LDA (502114290)","9.300,00 €",15-04-2015,25-03-2014,80 dias,"Portugal, Aveiro, Aveiro","Artigo 20.º, n.º 1, alínea a) do Código dos Contratos Públicos",13-06-2014,"9.300,00 €","",,,Não aplicável.,Não aplicável.,FALSE
SUBSTITUIÇÃO DE 3 CAIXAS DE FILTRAGEM NO SIST.CLIMATIZAÇÃO DA INFECCIOLOGIA,Ajuste Direto Regime Geral,Aquisição de bens móveis,"44600000-6, Tanques, reservatórios e contentores; radiadores e caldeiras para aquecimento central","Centro Hospitalar do Baixo Vouga, E. P. E (CHBV, E. P. E.) (510123210)","SOUSA PEDRO - PROJ. GEST. INST. TECNICAS, S.A. (501611444)","5.398,00 €",15-04-2015,10-03-2014,43 dias,"Portugal, Aveiro, Aveiro","Artigo 20.º, n.º 1, alínea a) do Código dos Contratos Públicos",11-09-2014,"5.398,00 €",Atraso no fornecimento,,,Não aplicável.,Não aplicável.,FALSE
GRANDE REPARAÇÃO DE DIVERSAS (8) MESAS OPERATÓRIAS,Ajuste Direto Regime Geral,Aquisição de serviços,"50400000-9, Serviços de reparação e manutenção de equipamento médico e de precisão","Centro Hospitalar do Baixo Vouga, E. P. E (CHBV, E. P. E.) (510123210)","LINEAMEDICA-DISPSIT.MED,SA (505148676)","11.203,20 €",15-04-2015,17-01-2014,126 dias,"Portugal, Aveiro, Aveiro","Artigo 20.º, n.º 1, alínea a) do Código dos Contratos Públicos",23-05-2014,"11.203,20 €","",,,Não aplicável.,Não aplicável.,FALSE
Fornecimento de JANELA EM ALUMINIO P/ ANTIGA COPA (OBRAS) - UNID. ÁGUEDA,Ajuste Direto Regime Geral,Aquisição de bens móveis,"44000000-0, Estruturas e materiais de construção; produtos auxiliares de construção (excepto aparelhos eléctricos)","Centro Hospitalar do Baixo Vouga, E. P. E (CHBV, E. P. E.) (510123210)","JUNQUEIROS, LDA (502114290)","1.835,00 €",15-04-2015,28-08-2014,257 dias,"Portugal, Aveiro, Águeda","Artigo 20.º, n.º 1, alínea a) do Código dos Contratos Públicos",17-09-2014,"1.835,00 €","",,,Não aplicável.,Não aplicável.,FALSE
