Objeto do Contrato,Tipo de Procedimento,Tipo(s) de Contrato,CPVs,Entidade(s) Adjudicante(s),Entidade(s) Adjudicatária(s),Preço Contratual,Data de Publicação,Data de Celebração do Contrato,Prazo de Execução,Local de Execução,Fundamentação,Data de Fecho do Contrato,Preço Total Efetivo,Causas das Alterações ao Prazo,Causas das Alterações ao Preço,Estado,N.º registo do Acordo Quadro,Descrição do Acordo Quadro,Procedimento Centralizado
Aquisição de 20 doses da vacina BCG,Ao abrigo de acordo-quadro (art.º 258.º),Aquisição de bens móveis,"33651600-4, Vacinas","Administração Regional de Saúde do Norte, I.P. (503135593)","J. M. Farmaceutica, S. A. (503550558)","178,00 €",29-09-2011,22-09-2011,4 dias,"Portugal, Braga",Artigo 258.º do Código dos Contratos Públicos,30-12-2011,"178,00 €",,,,Não definido.,Não definido.,
1.500 Sacos colostomia confidence gold grande<br />1.500 Sacos ileostomia drenavél Soft&Secure,Ajuste Direto Regime Geral,Aquisição de bens móveis,"33141610-9, Sacos de drenagem","Administração Regional de Saúde do Norte, I.P. (503135593)",Cristalmedica (502475498),"7.830,00 €",27-09-2011,06-02-2011,3 dias,Portugal,"Artigo 20.º, n.º 1, alínea a) do Código dos Contratos Públicos","","",,,,Não aplicável.,Não aplicável.,
2000 TESTES IGRA,Ajuste Direto Regime Geral,Aquisição de bens móveis,"33600000-6, Produtos farmacêuticos<BR/>33696000-5, Reagentes e meios de contraste","Administração Regional de Saúde do Norte, I.P. (503135593)",Quilaban (500399670),"54.598,59 €",27-09-2011,06-09-2011,2 dias,Portugal,"Artigo 24.º, n.º 1, alínea e) do Código dos Contratos Públicos","","",,,,Não aplicável.,Não aplicável.,
Impermeabilização da cobertura do Centro de Saúde de Cabeceiras de Basto,Ajuste Direto Regime Geral,Empreitadas de obras públicas,"45261900-3, Obras de reparação e manutenção de coberturas","Administração Regional de Saúde do Norte, I.P. (503135593)","Construções Phaecis, Lda (504596519)","5.956,74 €",26-09-2011,25-03-2011,30 dias,"Portugal, Braga, Cabeceiras de Basto","Artigo 19.º, alínea a) do Código dos Contratos Públicos","","",,,,Não aplicável.,Não aplicável.,
Aquisição de 3.000 saquetas de GelLubrificante á base de agua - saquetas 6ml,Ajuste Direto Regime Geral,Aquisição de bens móveis,"33600000-6, Produtos farmacêuticos","Administração Regional de Saúde do Norte, I.P. (503135593)",Hemicare (506517080),"216,00 €",26-09-2011,21-06-2011,15 dias,Portugal,"Artigo 24.º, n.º 1, alínea e) do Código dos Contratos Públicos","","",,,,Não aplicável.,Não aplicável.,
