Objeto do Contrato,Tipo de Procedimento,Tipo(s) de Contrato,CPVs,Entidade(s) Adjudicante(s),Entidade(s) Adjudicatária(s),Preço Contratual,Data de Publicação,Data de Celebração do Contrato,Prazo de Execução,Local de Execução,Fundamentação,Data de Fecho do Contrato,Preço Total Efetivo,Causas das Alterações ao Prazo,Causas das Alterações ao Preço,Estado,N.º registo do Acordo Quadro,Descrição do Acordo Quadro,Procedimento Centralizado
AQUISIÇÃO E INSTALAÇÃO DE UMA TAC E OBRAS ENVOLVENTES,Concurso público,Aquisição de bens móveis,"33110000-4, Equipamento de imagiologia para uso médico, dentário e veterinário","Instituto Português de Oncologia de Lisboa Francisco Gentil, E. P. E. (506361616)",SAIEMENS HEALTCARE LDA (507925173),"496.200,00 €",01-09-2017,18-08-2017,30 dias,"Portugal, Lisboa, Lisboa","Artigo 20.º, n.º 1, alínea b) do Código dos Contratos Públicos",,,,,,Não aplicável.,Não aplicável.,FALSE
MECASERMIN 40 MG INJ,Ao abrigo de acordo-quadro (art.º 259.º),Aquisição de bens móveis,"33600000-6, Produtos farmacêuticos","Instituto Português de Oncologia de Lisboa Francisco Gentil, E. P. E. (506361616)",IPSEN PORTUGAL- PRODUTOS FARMACEUTICOS S.A. (502609800),"5.900,00 €",01-09-2017,31-08-2017,30 dias,"Portugal, Lisboa, Lisboa",Artigo 259.º do Código dos Contratos Públicos,,,,,,1415640,CP 2015/7 - ACORDO QUADRO PARA FORNECIMENTO DE HORMONAS E OUTROS MEDICAMENTOS USADOS NO TRATAMENTO DAS DOENÇAS ENDÓCRINAS ÀS INSTITUIÇÕES E SERVIÇOS DO SERVIÇO NACIONAL DE SAÚDE,FALSE
