Objeto do Contrato,Tipo de Procedimento,Tipo(s) de Contrato,CPVs,Entidade(s) Adjudicante(s),Entidade(s) Adjudicatária(s),Preço Contratual,Data de Publicação,Data de Celebração do Contrato,Prazo de Execução,Local de Execução,Fundamentação,Data de Fecho do Contrato,Preço Total Efetivo,Causas das Alterações ao Prazo,Causas das Alterações ao Preço,Estado,N.º registo do Acordo Quadro,Descrição do Acordo Quadro,Procedimento Centralizado
Manutenção dos Parques e jardins mês de Junho,Ajuste Direto Regime Geral,Aquisição de serviços,"50000000-5, Serviços de reparação e manutenção",Centro Hospitalar Psiquiátrico de Lisboa (508338476),Tíliascoop (504415069),"7.062,18 €",05-07-2018,08-06-2018,30 dias,"Portugal, Lisboa, Lisboa","Artigo 20.º, n.º 1, alínea d) do Código dos Contratos Públicos",30-06-2018,"7.062,18 €",,,,Não aplicável.,Não aplicável.,FALSE
480641/2018,Ajuste Direto Regime Geral,Aquisição de serviços,"50000000-5, Serviços de reparação e manutenção",Centro Hospitalar Psiquiátrico de Lisboa (508338476),"Vaporel - Sociedade Industrial Metalo Mecânica, Lda. (500295433)","6.035,00 €",03-07-2018,19-06-2018,7 dias,"Portugal, Lisboa, Lisboa","Artigo 20.º, n.º 1, alínea d) do Código dos Contratos Públicos",30-06-2018,"6.035,00 €",,,,Não aplicável.,Não aplicável.,FALSE
Reparação de várias subestações,Ajuste Direto Regime Geral,Aquisição de serviços,"50000000-5, Serviços de reparação e manutenção",Centro Hospitalar Psiquiátrico de Lisboa (508338476),"TERMOSUL - PROJECTOS E INSTALAÇÕES, S.A. (501255869)","8.101,96 €",03-07-2018,26-07-2017,45 dias,"Portugal, Lisboa, Lisboa","Artigo 20.º, n.º 1, alínea a) do Código dos Contratos Públicos",30-09-2017,"8.101,96 €",,,,Não aplicável.,Não aplicável.,FALSE
Fiscal Unico,Ajuste Direto Regime Geral,Aquisição de serviços,"65000000-3, Serviços públicos",Centro Hospitalar Psiquiátrico de Lisboa (508338476),"ABC - Azevedo Rodrigues, Batalha, Costa e Associados,SR. (503188220)","7.918,44 €",02-07-2018,30-03-2017,365 dias,"Portugal, Lisboa, Lisboa","Artigo 20.º, n.º 1, alínea a) do Código dos Contratos Públicos",31-12-2017,"7.918,44 €",,,,Não aplicável.,Não aplicável.,FALSE
