Objeto do Contrato,Tipo de Procedimento,Tipo(s) de Contrato,CPVs,Entidade(s) Adjudicante(s),Entidade(s) Adjudicatária(s),Preço Contratual,Data de Publicação,Data de Celebração do Contrato,Prazo de Execução,Local de Execução,Fundamentação,Data de Fecho do Contrato,Preço Total Efetivo,Causas das Alterações ao Prazo,Causas das Alterações ao Preço,Estado,N.º registo do Acordo Quadro,Descrição do Acordo Quadro,Procedimento Centralizado
Reparação de cama elétrica com substituição de peças,Ajuste Direto Regime Geral,Aquisição de serviços,"50800000-3, Serviços de reparação e manutenção diversos",Centro Hospitalar Vila Nova de Gaia (CHNVG) (508142156),Mundinter (500199906),"348,52 €",23-08-2017,11-08-2017,5 dias,"Portugal, Porto, Vila Nova de Gaia","Artigo 24.º, n.º 1, alínea e) do Código dos Contratos Públicos",,,,,,Não aplicável.,Não aplicável.,FALSE
Aquisição Material Drogaria CHVNG043,Ajuste Direto Regime Geral,Aquisição de bens móveis,"44000000-0, Estruturas e materiais de construção; produtos auxiliares de construção (excepto aparelhos eléctricos)","Centro Hospitalar Vila Nova de Gaia - Espinho, E. P. E. (508142156)",A.C. Oliveira (502002140),"532,41 €",22-08-2017,10-08-2017,3 dias,"Portugal, Porto, Vila Nova de Gaia","Artigo 24.º, n.º 1, alínea c) do Código dos Contratos Públicos",,,,,,Não aplicável.,Não aplicável.,FALSE
Aquisição Material Drogaria CHVNG042,Ajuste Direto Regime Geral,Aquisição de bens móveis,"44000000-0, Estruturas e materiais de construção; produtos auxiliares de construção (excepto aparelhos eléctricos)","Centro Hospitalar Vila Nova de Gaia - Espinho, E. P. E. (508142156)",A.C. Oliveira (502002140),"310,66 €",22-08-2017,10-08-2017,3 dias,"Portugal, Porto, Vila Nova de Gaia","Artigo 24.º, n.º 1, alínea c) do Código dos Contratos Públicos",,,,,,Não aplicável.,Não aplicável.,FALSE
Aquisição Material Eletrico CHVNG042,Ajuste Direto Regime Geral,Aquisição de bens móveis,"31000000-6, Maquinaria, aparelhagem, equipamento e consumíveis eléctricos; iluminação","Centro Hospitalar Vila Nova de Gaia - Espinho, E. P. E. (508142156)","Electro Valadares, Lda (502932406)","389,45 €",22-08-2017,10-08-2017,3 dias,"Portugal, Porto, Vila Nova de Gaia","Artigo 24.º, n.º 1, alínea c) do Código dos Contratos Públicos",,,,,,Não aplicável.,Não aplicável.,FALSE
