Objeto do Contrato,Tipo de Procedimento,Tipo(s) de Contrato,CPVs,Entidade(s) Adjudicante(s),Entidade(s) Adjudicatária(s),Preço Contratual,Data de Publicação,Data de Celebração do Contrato,Prazo de Execução,Local de Execução,Fundamentação,Data de Fecho do Contrato,Preço Total Efetivo,Causas das Alterações ao Prazo,Causas das Alterações ao Preço,Estado,N.º registo do Acordo Quadro,Descrição do Acordo Quadro,Procedimento Centralizado
cp1922-2016Fornecimento de 2 separadores celulares com retoma de 2 equipamentos nexistentes,Concurso público,Aquisição de bens móveis,"33100000-1, Equipamento médico","Instituto Português de Oncologia de Lisboa Francisco Gentil, E. P. E. (506361616)","Terumo BCT Portugal Unipessoal, Ldª (510627048)","98.000,00 €",09-08-2016,19-07-2016,30 dias,"Portugal, Lisboa, Lisboa","Artigo 20.º, n.º 1, alínea b) do Código dos Contratos Públicos",,,,,,Não aplicável.,Não aplicável.,FALSE
Ad1400-16EXPANSÃO DOS SERVIDORES DE VIRTUALIZAÇÃO,Ajuste Direto Regime Geral,Aquisição de bens móveis,"30200000-1, Equipamento e material informático","Instituto Português de Oncologia de Lisboa FG, E.P.E. (506361616)",Nubira-Serviços e Soluções Informáticas (513073213),"22.654,44 €",01-08-2016,20-05-2016,30 dias,"Portugal, Lisboa, Lisboa","Artigo 20.º, n.º 1, alínea a) do Código dos Contratos Públicos",,,,,,Não aplicável.,Não aplicável.,FALSE
