Objeto do Contrato,Tipo de Procedimento,Tipo(s) de Contrato,CPVs,Entidade(s) Adjudicante(s),Entidade(s) Adjudicatária(s),Preço Contratual,Data de Publicação,Data de Celebração do Contrato,Prazo de Execução,Local de Execução,Fundamentação,Data de Fecho do Contrato,Preço Total Efetivo,Causas das Alterações ao Prazo,Causas das Alterações ao Preço,Estado,N.º registo do Acordo Quadro,Descrição do Acordo Quadro,Procedimento Centralizado
Serviços de Tecnico Diag.Terapeutico e Tecnico Superior de Saude,Ajuste Direto Regime Geral,Aquisição de serviços,"79000000-4, Serviços a empresas: direito, comercialização, consultoria, recrutamento, impressão e segurança",HOSPITAL DR FRANCISCO ZAGALO (501510150),"Tonus Global,Unipessoal, Lda. (509622976)","11.200,00 €",09-04-2013,26-03-2013,30 dias,"Portugal, Aveiro, Ovar","Artigo 20.º, n.º 1, alínea a) do Código dos Contratos Públicos",31-03-2013,"9.667,65 €",,serviços efectuados abaixo do previsto,,Não aplicável.,Não aplicável.,
Serviços de enfermagem,Ajuste Direto Regime Geral,Aquisição de serviços,"79000000-4, Serviços a empresas: direito, comercialização, consultoria, recrutamento, impressão e segurança",HOSPITAL DR FRANCISCO ZAGALO (501510150),"Tonus Global, Unipessoal, Lda. (509622976)","20.000,00 €",09-04-2013,26-03-2013,30 dias,"Portugal, Aveiro, Ovar","Artigo 20.º, n.º 1, alínea a) do Código dos Contratos Públicos",31-03-2013,"16.679,77 €",,serviços efectuados abaixo do valor previsto,,Não aplicável.,Não aplicável.,
Aquisição Trab. Temporario de Assistentes Tecnicos,Ajuste Direto Regime Geral,Aquisição de serviços,"79000000-4, Serviços a empresas: direito, comercialização, consultoria, recrutamento, impressão e segurança",HOSPITAL DR FRANCISCO ZAGALO (501510150),"Tonus-Trabalho Temporario, Lda. (508986460)","18.000,00 €",09-04-2013,26-03-2013,30 dias,"Portugal, Aveiro, Ovar","Artigo 20.º, n.º 1, alínea a) do Código dos Contratos Públicos",31-03-2013,"15.559,35 €",,valor abaixo do previsto,,Não aplicável.,Não aplicável.,
