Objeto do Contrato,Tipo de Procedimento,Tipo(s) de Contrato,CPVs,Entidade(s) Adjudicante(s),Entidade(s) Adjudicatária(s),Preço Contratual,Data de Publicação,Data de Celebração do Contrato,Prazo de Execução,Local de Execução,Fundamentação,Data de Fecho do Contrato,Preço Total Efetivo,Causas das Alterações ao Prazo,Causas das Alterações ao Preço,Estado,N.º registo do Acordo Quadro,Descrição do Acordo Quadro,Procedimento Centralizado
"Fornecimento de 500 ampolas de Metoclopramida sol.inj. 10mg/2ml,amp. 2 ml, 40 ampolas de Noradrenalina sol.inj. 10mg/10ml, amp.10ml e 300 ampolas de Furosemida amp. 20mg/2ml.",Ajuste Direto Regime Geral,Aquisição de bens móveis,"33000000-0, Equipamento médico, medicamentos e produtos para cuidados pessoais","Instituto Nacional de Emergência Médica, I. P. (501356126)","Labesfal, S.A. (501169580)","1.572,35 €",27-12-2013,19-12-2013,1 dias,"Portugal, Lisboa, Lisboa","Artigo 26.º, n.º 1, alínea e) do Código dos Contratos Públicos","","",,,,1126697,"Aquisição de metoclopramida, noradrenalina e furosemida.",
"Aquisição de 444 Comp. Amónio + guanidina + n prop. spray 750 ml e 3000 saquetas de detergente desinfetante para solos e pavimentos, solução concentrada.    ",Ajuste Direto Regime Geral,Aquisição de bens móveis,"33000000-0, Equipamento médico, medicamentos e produtos para cuidados pessoais","Instituto Nacional de Emergência Médica, I. P. (501356126)","Air Liquide Medicinal, S.A. (501576436)","2.410,50 €",27-12-2013,19-12-2013,5 dias,"Portugal, Lisboa, Lisboa","Artigo 20.º, n.º 1, alínea a) do Código dos Contratos Públicos","","",,,,Não aplicável.,Não aplicável.,
Fornecimento de 6 conjuntos válvula expiratória para Oxilog.,Ajuste Direto Regime Geral,Aquisição de bens móveis,"33000000-0, Equipamento médico, medicamentos e produtos para cuidados pessoais","Instituto Nacional de Emergência Médica, I. P. (501356126)","Drager Portugal, Lda. (508771323)","824,40 €",27-12-2013,19-12-2013,5 dias,"Portugal, Lisboa, Lisboa","Artigo 20.º, n.º 1, alínea a) do Código dos Contratos Públicos","","",,,,Não aplicável.,Não aplicável.,
Fornecimento de 5 traqueias para ventilador Weinmann e 5 válvulas para insuflador manual Laerdal - Adulto.,Ajuste Direto Regime Geral,Aquisição de bens móveis,"33000000-0, Equipamento médico, medicamentos e produtos para cuidados pessoais","Instituto Nacional de Emergência Médica, I. P. (501356126)","Futurvida, Lda. (504260510)","1.234,95 €",27-12-2013,19-12-2013,21 dias,"Portugal, Lisboa, Lisboa","Artigo 20.º, n.º 1, alínea a) do Código dos Contratos Públicos","","",,,,Não aplicável.,Não aplicável.,
"Aquisição de 50 alegálias Folley siliconada CH12, 9000 eléctrodos ECG aderentes adulto e 1500 máscaras de inalação O2 alta concentração - adulto.",Ajuste Direto Regime Geral,Aquisição de bens móveis,"33000000-0, Equipamento médico, medicamentos e produtos para cuidados pessoais","Instituto Nacional de Emergência Médica, I. P. (501356126)","H. R. Hospitalar, Lda. (501895558)","1.683,50 €",27-12-2013,19-12-2013,1 dias,"Portugal, Lisboa, Lisboa","Artigo 20.º, n.º 1, alínea a) do Código dos Contratos Públicos","","",,,,Não aplicável.,Não aplicável.,
Prestação de serviços combinados de vigilância e segurança humana e de ligação a central de receção e monitorização de alarmes,Ajuste Direto Regime Geral,Aquisição de serviços,"79000000-4, Serviços a empresas: direito, comercialização, consultoria, recrutamento, impressão e segurança","Instituto Nacional de Emergência Médica, I. P. (501356126)","PRESTIBEL - Empresa de Segurança, S.A.  (501326456)","40.128,90 €",26-12-2013,04-12-2013,31 dias,"Portugal, Porto, Vila Nova de Gaia<BR/>Portugal, Porto, Porto<BR/>Portugal, Lisboa, Lisboa<BR/>Portugal, Coimbra, Coimbra","Artigo 27.º, n.º 1, alínea h) do Código dos Contratos Públicos",31-12-2013,"40.128,90 €",,,,1126273,Fornecimento de serviços combinados de vigilância e segurança humana e de ligação a central de monitorização de alarmes em todo o território nacional.,
