Objeto do Contrato,Tipo de Procedimento,Tipo(s) de Contrato,CPVs,Entidade(s) Adjudicante(s),Entidade(s) Adjudicatária(s),Preço Contratual,Data de Publicação,Data de Celebração do Contrato,Prazo de Execução,Local de Execução,Fundamentação,Data de Fecho do Contrato,Preço Total Efetivo,Causas das Alterações ao Prazo,Causas das Alterações ao Preço,Estado,N.º registo do Acordo Quadro,Descrição do Acordo Quadro,Procedimento Centralizado
"IG 24.5/2017 - Etanol 70% (500 ml), sem aditivos - AQ 2015/8",Ao abrigo de acordo-quadro (art.º 259.º),Aquisição de bens móveis,"33600000-6, Produtos farmacêuticos","Administração Regional de Saúde do Alentejo, I. P. (503148768)",PMH PRODUTOS MEDICO HOSPITALARES SA                (502376899),"1.275,46 €",07-04-2017,07-04-2017,270 dias,"Portugal, Évora",Artigo 259.º do Código dos Contratos Públicos,21-12-2017,"1.275,46 €","","",,1406003,CP 2015/8,FALSE
Ligação da caixa CVR2 (ITED) do edifício à rede pública - primeira fase,Ajuste Direto Regime Geral,Empreitadas de obras públicas,"45311100-1, Instalação de fios eléctricos","Administração Regional de Saúde do Alentejo, I. P. (503148768)", Jose Ventura & Rodrigues Lda  . (500811067),"952,00 €",07-04-2017,15-03-2017,30 dias,"Portugal, Setúbal, Sines","Artigo 19.º, alínea a) do Código dos Contratos Públicos","","952,00 €",não houve,não ocorreu,,Não aplicável.,Não aplicável.,FALSE
"Aquisição do fornecimento de mobiliário,  ao abrigo dos Lotes 1, 2, 3, 4, 5, e 14 do acordo quadro para o fornecimento de mobiliário, celebrado pela Entidade de Serviços Partilhados da Administração Pública, I. P. (ESPAP)",Ao abrigo de acordo-quadro (art.º 259.º),Aquisição de bens móveis,"33192000-2, Mobiliário para fins médicos","Administração Regional de Saúde do Alentejo, I. P. (503148768)","Tripolo - Soluções de Escritório e Armazenagem, Lda. (501264124)","6.838,00 €",06-04-2017,04-11-2016,90 dias,"Portugal, Évora, Évora<BR/>Portugal, Setúbal, Sines",Artigo 259.º do Código dos Contratos Públicos,19-12-2016,"6.838,00 €","","",,1260651,Acordo quadro de fornecimento de mobiliário,FALSE
"Aquisição do fornecimento de mobiliário,  ao abrigo dos Lotes 1, 2, 3, 4, 5, e 14 do acordo quadro para o fornecimento de mobiliário, celebrado pela Entidade de Serviços Partilhados da Administração Pública, I. P. (ESPAP)",Ao abrigo de acordo-quadro (art.º 259.º),Aquisição de bens móveis,"39100000-3, Mobiliário","Administração Regional de Saúde do Alentejo, I. P. (503148768)","Nautilus, S.A. (503653179)","5.971,84 €",06-04-2017,04-11-2016,90 dias,"Portugal, Setúbal, Sines<BR/>Portugal, Évora, Évora",Artigo 259.º do Código dos Contratos Públicos,23-12-2016,"5.971,84 €","","",,1260651,Acordo quadro de fornecimento de mobiliário,FALSE
"Aquisição do fornecimento de mobiliário,  ao abrigo dos Lotes 1, 2, 3, 4, 5, e 14 do acordo quadro para o fornecimento de mobiliário, celebrado pela Entidade de Serviços Partilhados da Administração Pública, I. P. (ESPAP)",Ao abrigo de acordo-quadro (art.º 259.º),Aquisição de bens móveis,"39100000-3, Mobiliário","Administração Regional de Saúde do Alentejo, I. P. (503148768)","Julcar - Mobiliário Integrado, S.A. (501140263)","518,00 €",06-04-2017,09-11-2016,90 dias,"Portugal, Setúbal, Sines",Artigo 259.º do Código dos Contratos Públicos,29-12-2016,"518,00 €","","",,1260651,Acordo quadro de fornecimento de mobiliário,FALSE
"Aquisição do fornecimento de mobiliário,  ao abrigo dos Lotes 1, 2, 3, 4, 5, e 14 do acordo quadro para o fornecimento de mobiliário, celebrado pela Entidade de Serviços Partilhados da Administração Pública, I. P. (ESPAP)",Ao abrigo de acordo-quadro (art.º 259.º),Aquisição de bens móveis,"39100000-3, Mobiliário","Administração Regional de Saúde do Alentejo, I. P. (503148768)","Lemis - Sociedade Industrial de Móveis, Lda. (500649995)","13.072,20 €",06-04-2017,03-11-2016,90 dias,"Portugal, Évora, Évora<BR/>Portugal, Setúbal, Sines",Artigo 259.º do Código dos Contratos Públicos,28-12-2016,"13.072,20 €","","",,1260651,Acordo quadro de fornecimento de mobiliário,FALSE
Pinças tira-agrafos de uso múltiplo,Ajuste Direto Regime Geral,Aquisição de bens móveis,"33100000-1, Equipamento médico","Administração Regional de Saúde do Alentejo, I. P. (503148768)","B. Braun Medical, Lda (501506543)","4.300,00 €",06-04-2017,06-04-2017,30 dias,"Portugal, Évora, Évora","Artigo 20.º, n.º 1, alínea a) do Código dos Contratos Públicos",17-07-2017,"4.300,00 €","","",,Não aplicável.,Não aplicável.,FALSE
"Tabuleiro em polipropileno sem tampa, 220x150x24mm",Ajuste Direto Regime Geral,Aquisição de bens móveis,"33100000-1, Equipamento médico","Administração Regional de Saúde do Alentejo, I. P. (503148768)","AVIQUIMICA- IMPORTAÇÃO E MANUFACTURAS, LDA (500039720)","299,20 €",06-04-2017,06-04-2017,30 dias,"Portugal, Évora, Évora","Artigo 20.º, n.º 1, alínea a) do Código dos Contratos Públicos",17-07-2017,"299,20 €","","",,Não aplicável.,Não aplicável.,FALSE
MEDICAMENTOS ANTI-INFECIOSOS - ISONIAZIDA + RIFAMPICINA,Ao abrigo de acordo-quadro (art.º 258.º),Aquisição de bens móveis,"33600000-6, Produtos farmacêuticos","Administração Regional de Saúde do Alentejo, I. P. (503148768)","SANOFI - Produtos Farmacêuticos, Lda. (500134960)","524,16 €",06-04-2017,31-03-2017,240 dias,"Portugal, Évora",Artigo 258.º do Código dos Contratos Públicos,18-12-2017,"524,16 €","","",,455180,"CONCURSO PÚBLICO PARA A CELEBRAÇÃO DE CONTRATOS PÚBLICOS DE APROVISIONAMENTO PARA A ÁREA DA SAÚDE, COM VISTA AO FORNECIMENTO DE MEDICAMENTOS ANTI-INFECIOSOS: ANTIVÍRICOS E ANTIFÚNGICOS, ÀS INSTITUIÇÕES E SERVIÇOS DO SERVIÇO NACIONAL DE SAÚDE  ",FALSE
Contratação de serviços médicos para a ARSA,Ao abrigo de acordo-quadro (art.º 259.º),Aquisição de serviços,"85121200-5, Serviços de medicina especializada","Administração Regional de Saúde do Alentejo, I. P. (503148768)","CV Healthcare Solutions, Lda. (513654577)","93.600,00 €",06-04-2017,31-05-2016,275 dias,"Portugal, Évora, Reguengos de Monsaraz",Artigo 259.º do Código dos Contratos Públicos,31-12-2016,"59.475,00 €","",Número de horas executadas inferior ao número de horas contratadas,,1490434,ACORDO QUADRO PARA PRESTAÇÃO DE SERVIÇOS MÉDICOS ÀS INSTITUIÇÕES E SERVIÇOS DO SERVIÇO NACIONAL DE SAÚDE,FALSE
Contratação de serviços médicos para a ARSA,Ao abrigo de acordo-quadro (art.º 259.º),Aquisição de serviços,"85121100-4, Serviços de médicos de clínica geral","Administração Regional de Saúde do Alentejo, I. P. (503148768)","Medipeople - Soluções de Saúde e Educação, Lda. (508543436)","105.225,00 €",06-04-2017,31-05-2016,275 dias,"Portugal, Évora, Vendas Novas",Artigo 259.º do Código dos Contratos Públicos,31-12-2016,"82.168,80 €","",Número de horas executadas inferior ao número de horas contratadas.,,1490434,ACORDO QUADRO PARA PRESTAÇÃO DE SERVIÇOS MÉDICOS ÀS INSTITUIÇÕES E SERVIÇOS DO SERVIÇO NACIONAL DE SAÚDE,FALSE
Contratação de serviços médicos para a ARSA,Ao abrigo de acordo-quadro (art.º 259.º),Aquisição de serviços,"85100000-0, Serviços de saúde","Administração Regional de Saúde do Alentejo, I. P. (503148768)","Kelly Services - Healthcare Unipessoal, Lda. (510723691)","418.080,00 €",06-04-2017,31-05-2016,275 dias,"Portugal, Évora, Vila Viçosa<BR/>Portugal, Évora, Arraiolos<BR/>Portugal, Évora, Viana do Alentejo<BR/>Portugal, Évora, Montemor-o-Novo<BR/>Portugal, Évora, Estremoz",Artigo 259.º do Código dos Contratos Públicos,31-12-2016,"312.304,95 €","",Número de horas executadas inferior ao número de horas contratadas.,,1490434,ACORDO QUADRO PARA PRESTAÇÃO DE SERVIÇOS MÉDICOS ÀS INSTITUIÇÕES E SERVIÇOS DO SERVIÇO NACIONAL DE SAÚDE,FALSE
"Aquisição de Equipamento de Cópia e Impressão para Administração Regional de Saúde do Alentejo, I.P.",Ajuste Direto Regime Geral,Aquisição de bens móveis,"30100000-0, Máquinas, equipamento e material de escritório, excepto computadores, impressoras e mobiliário","Administração Regional de Saúde do Alentejo, I. P. (503148768)","Konica Minolta Business Portugal, Unipessoal Lda. (502120070)","6.469,00 €",05-04-2017,14-10-2016,120 dias,"Portugal, Évora, Évora<BR/>Portugal, Setúbal, Sines","Artigo 20.º, n.º 1, alínea a) do Código dos Contratos Públicos",05-12-2016,"6.469,00 €","","",,Não aplicável.,Não aplicável.,FALSE
