Objeto do Contrato,Tipo de Procedimento,Tipo(s) de Contrato,CPVs,Entidade(s) Adjudicante(s),Entidade(s) Adjudicatária(s),Preço Contratual,Data de Publicação,Data de Celebração do Contrato,Prazo de Execução,Local de Execução,Fundamentação,Data de Fecho do Contrato,Preço Total Efetivo,Causas das Alterações ao Prazo,Causas das Alterações ao Preço,Estado,N.º registo do Acordo Quadro,Descrição do Acordo Quadro,Procedimento Centralizado
"Aquisição de serviços para o programa iniciativas em Saúde, no âmbito dos EEA Grants - Vertente despesa , durante o ano de 2016.",Ajuste Direto Regime Geral,Aquisição de serviços,"72224000-1, Serviços de consultoria em gestão de projectos","Administração Central do Sistema de Saúde, I. P. (508188423)",Carmen Susana Costa (223471801),"16.764,29 €",03-02-2016,22-01-2016,365 dias,"Portugal, Lisboa, Lisboa","Artigo 20.º, n.º 1, alínea a) do Código dos Contratos Públicos",02-01-2017,"17.422,97 €",,Deslocações e estada em representação da ACSS.,,Não aplicável.,Não aplicável.,FALSE
"Aquisição de serviços para o programa iniciativas em Saúde, no âmbito dos EEA Grants - Vertente Direito , durante o ano de 2016.",Ajuste Direto Regime Geral,Aquisição de serviços,"79100000-5, Serviços jurídicos","Administração Central do Sistema de Saúde, I. P. (508188423)",Joana Rita da Silva Almeida (246262419),"17.529,48 €",03-02-2016,05-01-2016,365 dias,"Portugal, Lisboa, Lisboa","Artigo 20.º, n.º 1, alínea a) do Código dos Contratos Públicos",02-01-2017,"17.733,93 €",,Deslocações e estadas em representação da ACSS,,Não aplicável.,Não aplicável.,FALSE
"Aquisição de serviços para o programa iniciativas em Saúde, no âmbito dos EEA Grants - Vertente Gestão de Informação  nas Plataformas Informáticas do PT06 , durante o ano de 2016.",Ajuste Direto Regime Geral,Aquisição de serviços,"72246000-1, Serviços de consultoria em matéria de sistemas","Administração Central do Sistema de Saúde, I. P. (508188423)",João Pedro Amado Ferreira Durão (216164150),"17.529,48 €",03-02-2016,05-01-2016,365 dias,"Portugal, Lisboa, Lisboa","Artigo 20.º, n.º 1, alínea a) do Código dos Contratos Públicos",02-01-2017,"17.529,48 €",,"",,Não aplicável.,Não aplicável.,FALSE
"Aquisição de serviços para o programa iniciativas em Saúde, no âmbito dos EEA Grants - Vertente doenças Transmissíveis, durante o ano de 2016.",Ajuste Direto Regime Geral,Aquisição de serviços,"72224000-1, Serviços de consultoria em gestão de projectos","Administração Central do Sistema de Saúde, I. P. (508188423)",Susana Filipa Gonçalves Eusébio (230914047),"13.084,08 €",03-02-2016,05-01-2016,365 dias,"Portugal, Lisboa, Lisboa","Artigo 20.º, n.º 1, alínea a) do Código dos Contratos Públicos",02-01-2017,"13.084,08 €",,"",,Não aplicável.,Não aplicável.,FALSE
"Aquisição de serviços para o programa iniciativas em Saúde Públia,. no âmbito dos EEA Grants - Vertente nutrição.",Ajuste Direto Regime Geral,Aquisição de serviços,"79410000-1, Serviços de consultoria em matéria comercial e de gestão","Administração Central do Sistema de Saúde, I. P. (508188423)",Inês Tavares Ferreira (242073085),"13.084,08 €",03-02-2016,13-01-2016,365 dias,"Portugal, Lisboa, Lisboa","Artigo 20.º, n.º 1, alínea a) do Código dos Contratos Públicos",02-01-2017,"14.804,06 €",,Deslocações e estadas em representação da ACSS.,,Não aplicável.,Não aplicável.,FALSE
"Aquisição de Eletricidade ao abrigo do Lote 5 - Lote agregado englobando BTE, MT, AT e MAT - do Acordo Quadro para o Fornecimento de Eletricidade em Regime de Mercado Livre para Portugal Continental Celebrado pela Entidade de Serviços Partilhados da Administração Pública, IP. (ESPAP)",Ao abrigo de acordo-quadro (art.º 259.º),Aquisição de bens móveis,"09310000-5, Electricidade","Administração Central do Sistema de Saúde, I. P. (508188423)","EDP COMERCIAL - Comercialização de Energia, S.A. (503504564)","22.660,41 €",03-02-2016,04-01-2016,365 dias,"Portugal, Lisboa, Lisboa",Artigo 259.º do Código dos Contratos Públicos,28-09-2016,"12.028,01 €",,"Denúncia do contrato, em virtude deste instituto ter mudado as suas instalações.",,314294,Acordo quadro para o fornecimento de electricidade em regime de mercado livre para Portugal Continental,TRUE
"Aquisição de Serviços para o Programa Iniciativas em Saúde Pública, no âmbito dos EEA Grants - Vertente Contabilidade e Fiscalidade.",Ajuste Direto Regime Geral,Aquisição de serviços,"79200000-6, Serviços de contabilidade, de auditoria e fiscais","Administração Central do Sistema de Saúde, I. P. (508188423)",Sara Elisa Melo dos Santos (242347428),"7.476,20 €",03-02-2016,18-05-2015,224 dias,"Portugal, Lisboa, Lisboa","Artigo 20.º, n.º 1, alínea a) do Código dos Contratos Públicos",29-12-2015,"7.476,20 €",,"",,Não aplicável.,Não aplicável.,FALSE
