Objeto do Contrato,Tipo de Procedimento,Tipo(s) de Contrato,CPVs,Entidade(s) Adjudicante(s),Entidade(s) Adjudicatária(s),Preço Contratual,Data de Publicação,Data de Celebração do Contrato,Prazo de Execução,Local de Execução,Fundamentação,Data de Fecho do Contrato,Preço Total Efetivo,Causas das Alterações ao Prazo,Causas das Alterações ao Preço,Estado,N.º registo do Acordo Quadro,Descrição do Acordo Quadro,Procedimento Centralizado
SP/200/2014-AQUISIÇÃO DE PC'S- POSTOS DE TRABALHO CSP- Refª 20140758,Ajuste Direto Regime Geral,Aquisição de bens móveis,"30213300-8, Computadores de secretária (desktop computers)","Administração Regional de Saúde do Algarve, I. P. (503148709)","Bit-Elite, LDA (506676544)","74.896,49 €",17-03-2015,23-02-2015,90 dias,"Portugal, Faro, Faro","Artigo 20.º, n.º 1, alínea a) do Código dos Contratos Públicos","","",,"",,Não aplicável.,Não aplicável.,FALSE
AM/55/2015 - Tiamina 100 mg Comp,Ajuste Direto Regime Geral,Aquisição de bens móveis,"33690000-3, Medicamentos vários","Administração Regional de Saúde do Algarve, I. P. (503148709)","LABESFAL - LABORATÓRIOS ALMIRO, S.A. (501169580)","11.880,00 €",16-03-2015,16-03-2015,290 dias,"Portugal, Faro, Faro","Artigo 24.º, n.º 1, alínea e) do Código dos Contratos Públicos",04-12-2015,"10.530,00 €",,Quantidades fornecidas,,Não aplicável.,Não aplicável.,FALSE
AM 138/2015 - Aquisição de sondas,Ajuste Direto Regime Geral,Aquisição de bens móveis,"33141641-5, Sondas","Administração Regional de Saúde do Algarve, I. P. (503148709)","B. Braun Medical, Lda (501506543)","2.408,40 €",12-03-2015,11-03-2015,294 dias,"Portugal, Faro, Faro","Artigo 24.º, n.º 1, alínea e) do Código dos Contratos Públicos",22-09-2015,"2.408,40 €",,"",,Não aplicável.,Não aplicável.,FALSE
Aquisição de Reagentes para a Determinação do Tempo de Protrombina para o Laboratório Regional de Saúde Pública da ARS Algarve.,Concurso público,Aquisição de bens móveis,"33696200-7, Reagentes para análises ao sangue","Administração Regional de Saúde do Algarve, I. P. (503148709)","WERFEN Portugal, Lda (501086110)","131.625,00 €",12-03-2015,06-03-2015,300 dias,"Portugal, Faro, Faro","Artigo 20.º, n.º 1, alínea b) do Código dos Contratos Públicos",31-12-2015,"131.625,00 €",,"",,Não aplicável.,Não aplicável.,FALSE
