Objeto do Contrato,Tipo de Procedimento,Tipo(s) de Contrato,CPVs,Entidade(s) Adjudicante(s),Entidade(s) Adjudicatária(s),Preço Contratual,Data de Publicação,Data de Celebração do Contrato,Prazo de Execução,Local de Execução,Fundamentação,Data de Fecho do Contrato,Preço Total Efetivo,Causas das Alterações ao Prazo,Causas das Alterações ao Preço,Estado,N.º registo do Acordo Quadro,Descrição do Acordo Quadro,Procedimento Centralizado
SUBSTITUICAO DE PECAS NO ELEVADOR,Ajuste Direto Regime Geral,Aquisição de bens móveis,"42419510-4, Peças para elevadores",Centro Hospitalar Psiquiatrico de Lisboa (508338476),OTIS (500069824),"10.137,00 €",09-09-2011,26-04-2011,1 dias,"Portugal, Lisboa, Lisboa","Artigo 20.º, n.º 1, alínea a) do Código dos Contratos Públicos",26-04-2011,"10.137,00 €",,,,Não aplicável.,Não aplicável.,
aquisição de medicamentos,Ajuste Direto Regime Geral,Aquisição de bens móveis,"33690000-3, Medicamentos vários",Centro Hospitalar Psiquiatrico de Lisboa (508338476),Actavis (980334934),"62,10 €",09-09-2011,17-05-2010,1 dias,"Portugal, Lisboa, Lisboa","Artigo 24.º, n.º 1, alínea e) do Código dos Contratos Públicos",17-05-2010,"62,10 €",,,,Não aplicável.,Não aplicável.,
ESCADOTE ALUMINIO,Ajuste Direto Regime Geral,Aquisição de bens móveis,"44423220-9, Escadotes articulados",Centro Hospitalar Psiquiatrico de Lisboa (508338476),COFERGAL (501058273),"59,70 €",08-09-2011,16-03-2011,1 dias,"Portugal, Lisboa, Lisboa","Artigo 20.º, n.º 1, alínea a) do Código dos Contratos Públicos",16-03-2011,"59,70 €",,,,Não aplicável.,Não aplicável.,
Aquisição de Serviços Telefónicos Fixos (Voz e Fax),Ajuste Direto Regime Geral,Aquisição de serviços,"32570000-9, Equipamento para comunicações",Centro Hospitalar Psiquiatrico de Lisboa (508338476),"Onitelecom - Infocomunicações, SA (504073206)","41.000,00 €",08-09-2011,04-01-2010,1 dias,"Portugal, Lisboa, Lisboa","Artigo 20.º, n.º 1, alínea a) do Código dos Contratos Públicos",04-01-2010,"",,,,Não aplicável.,Não aplicável.,
ESTANTES EM ESTRUTURA METALICA,Ajuste Direto Regime Geral,Aquisição de bens móveis,"39130000-2, Mobiliário de escritório",Centro Hospitalar Psiquiatrico de Lisboa (508338476),HANDY (503759201),"724,56 €",08-09-2011,16-03-2011,1 dias,"Portugal, Lisboa, Lisboa","Artigo 20.º, n.º 1, alínea a) do Código dos Contratos Públicos",16-03-2011,"724,56 €",,,,Não aplicável.,Não aplicável.,
PORTA CHAPEUS,Ajuste Direto Regime Geral,Aquisição de bens móveis,"39100000-3, Mobiliário",Centro Hospitalar Psiquiatrico de Lisboa (508338476),MOVEQUIPA (500667721),"189,80 €",08-09-2011,12-04-2011,1 dias,"Portugal, Lisboa, Lisboa","Artigo 20.º, n.º 1, alínea a) do Código dos Contratos Públicos",15-04-2011,"189,80 €",,,,Não aplicável.,Não aplicável.,
"Sistema HIFI, DVD, LCD e Suporte para TV",Ajuste Direto Regime Geral,Aquisição de serviços,"32322000-6, Equipamento multimédia",Centro Hospitalar Psiquiatrico de Lisboa (508338476),"Ribeiro, Castro e Alves - Electrodomésticos, Lda. (502661224)","1.653,98 €",08-09-2011,23-12-2010,1 dias,"Portugal, Lisboa, Lisboa","Artigo 20.º, n.º 1, alínea a) do Código dos Contratos Públicos",23-12-2010,"1.653,98 €",,,,Não aplicável.,Não aplicável.,
Aquisição de Equipamento Informático,Ajuste Direto Regime Geral,Aquisição de serviços,"30200000-1, Equipamento e material informático",Centro Hospitalar Psiquiatrico de Lisboa (508338476),"CIL - Centro de Informática, SA (500809690)","11.961,36 €",07-09-2011,30-11-2010,1 dias,"Portugal, Lisboa, Lisboa","Artigo 20.º, n.º 1, alínea a) do Código dos Contratos Públicos",30-11-2010,"11.961,36 €",,,,Não aplicável.,Não aplicável.,
PASSADEIRA ELECTRICA,Ajuste Direto Regime Geral,Aquisição de bens móveis,"37420000-8, Equipamento para ginásio",Centro Hospitalar Psiquiatrico de Lisboa (508338476),SORISA (500990441),"1.890,09 €",06-09-2011,20-06-2011,1 dias,"Portugal, Lisboa, Lisboa","Artigo 20.º, n.º 1, alínea a) do Código dos Contratos Públicos",21-06-2011,"1.890,09 €",,,,Não aplicável.,Não aplicável.,
medicamentos,Ajuste Direto Regime Geral,Aquisição de bens móveis,"33690000-3, Medicamentos vários",Centro Hospitalar Psiquiatrico de Lisboa (508338476),Lilly (500165602),"2.342,95 €",05-09-2011,11-04-2011,1 dias,"Portugal, Lisboa, Lisboa","Artigo 24.º, n.º 1, alínea e) do Código dos Contratos Públicos",11-04-2011,"2.342,95 €",,,,Não aplicável.,Não aplicável.,
Aquisição de Equipamento de Som e Imagem,Ajuste Direto Regime Geral,Aquisição de bens móveis,"72500000-0, Serviços relacionados com a informática",Centro Hospitalar Psiquiatrico de Lisboa (508338476),"Tecnovisão - Produção de Audiovisuais, Lda. (503361852)","13.880,00 €",05-09-2011,21-09-2010,1 dias,"Portugal, Lisboa, Lisboa","Artigo 20.º, n.º 1, alínea a) do Código dos Contratos Públicos",21-09-2010,"13.880,10 €",,,,Não aplicável.,Não aplicável.,
ARMARIOS PARA ARQUIVO,Ajuste Direto Regime Geral,Aquisição de bens móveis,"39000000-2, Mobiliário (incl. de escritório), acessórios, aparelhos domésticos (excl. iluminação) e produtos de limpeza",Centro Hospitalar Psiquiatrico de Lisboa (508338476),MOVEQUIPA (500667721),"628,00 €",05-09-2011,25-02-2011,1 dias,"Portugal, Lisboa, Lisboa","Artigo 20.º, n.º 1, alínea a) do Código dos Contratos Públicos",28-02-2011,"628,00 €",,,,Não aplicável.,Não aplicável.,
AQUISICAO DE REAGENTES,Ajuste Direto Regime Geral,Aquisição de bens móveis,"33696500-0, Reagentes de laboratório",Centro Hospitalar Psiquiatrico de Lisboa (508338476),BIOMERIEUX (501524177),"2.539,80 €",05-09-2011,26-07-2011,1 dias,"Portugal, Lisboa, Lisboa","Artigo 24.º, n.º 1, alínea e) do Código dos Contratos Públicos",26-07-2011,"2.539,80 €",,,,Não aplicável.,Não aplicável.,
Fornecimento e Montagem de um Monta Cargas,Ajuste Direto Regime Geral,Aquisição de serviços,"42416120-2, Monta-cargas",Centro Hospitalar Psiquiatrico de Lisboa (508338476),"OTIS - Elevadores, Lda. (500069824)","5.600,00 €",05-09-2011,02-08-2010,1 dias,"Portugal, Lisboa, Lisboa","Artigo 20.º, n.º 1, alínea a) do Código dos Contratos Públicos",02-08-2010,"",,,,Não aplicável.,Não aplicável.,
AQUISICAO DE REAGENTES,Ajuste Direto Regime Geral,Aquisição de bens móveis,"33696500-0, Reagentes de laboratório",Centro Hospitalar Psiquiatrico de Lisboa (508338476),SIEMENS HEALTHCARE (507925173),"2.070,00 €",02-09-2011,15-07-2011,1 dias,"Portugal, Lisboa, Lisboa","Artigo 24.º, n.º 1, alínea e) do Código dos Contratos Públicos",19-07-2011,"2.070,00 €",,,,Não aplicável.,Não aplicável.,
AQUISICAO DE REAGENTES,Ajuste Direto Regime Geral,Aquisição de bens móveis,"33696500-0, Reagentes de laboratório",Centro Hospitalar Psiquiatrico de Lisboa (508338476),MENARINI (502610069),"172,50 €",02-09-2011,25-07-2011,1 dias,"Portugal, Lisboa, Lisboa","Artigo 24.º, n.º 1, alínea e) do Código dos Contratos Públicos",25-07-2011,"172,50 €",,,,Não aplicável.,Não aplicável.,
Aquisição de Equipamento de Fisioterapia,Ajuste Direto Regime Geral,Aquisição de serviços,"51416000-1, Serviços de instalação de equipamento de fisioterapia",Centro Hospitalar Psiquiatrico de Lisboa (508338476),"Sorisa, SA (500990441)","3.592,38 €",02-09-2011,06-07-2010,1 dias,"Portugal, Lisboa, Lisboa","Artigo 20.º, n.º 1, alínea a) do Código dos Contratos Públicos","","",,,,Não aplicável.,Não aplicável.,
AQUISICAO DE REAGENTES,Ajuste Direto Regime Geral,Aquisição de bens móveis,"33696500-0, Reagentes de laboratório",Centro Hospitalar Psiquiatrico de Lisboa (508338476),HORIBA (980158583),"1.630,96 €",02-09-2011,26-07-2011,1 dias,"Portugal, Lisboa, Lisboa","Artigo 24.º, n.º 1, alínea e) do Código dos Contratos Públicos",26-07-2011,"1.630,96 €",,,,Não aplicável.,Não aplicável.,
AQUISICAO DE REAGENTES,Ajuste Direto Regime Geral,Aquisição de bens móveis,"33696500-0, Reagentes de laboratório",Centro Hospitalar Psiquiatrico de Lisboa (508338476),HORIBA (980158583),"3.652,74 €",01-09-2011,24-06-2011,1 dias,"Portugal, Lisboa, Lisboa","Artigo 24.º, n.º 1, alínea e) do Código dos Contratos Públicos",24-06-2011,"3.652,74 €",,,,Não aplicável.,Não aplicável.,
PACK REAGENTE IONOGRAMA E SOL. LIMPEZA ELECTRODOS,Ajuste Direto Regime Geral,Aquisição de bens móveis,"33696500-0, Reagentes de laboratório",Centro Hospitalar Psiquiatrico de Lisboa (508338476),MENARINI (502610069),"722,00 €",01-09-2011,21-06-2011,1 dias,"Portugal, Lisboa, Lisboa","Artigo 24.º, n.º 1, alínea e) do Código dos Contratos Públicos",21-06-2011,"722,00 €",,,,Não aplicável.,Não aplicável.,
AQUISICAO DE HEMOGLOBINA A 1C,Ajuste Direto Regime Geral,Aquisição de bens móveis,"33696500-0, Reagentes de laboratório",Centro Hospitalar Psiquiatrico de Lisboa (508338476),MENARINI (502610069),"1.050,00 €",01-09-2011,20-06-2011,1 dias,"Portugal, Lisboa, Lisboa","Artigo 24.º, n.º 1, alínea e) do Código dos Contratos Públicos",20-06-2011,"1.050,00 €",,,,Não aplicável.,Não aplicável.,
AQUISICAO DE REAGENTES,Ajuste Direto Regime Geral,Aquisição de bens móveis,"33696500-0, Reagentes de laboratório",Centro Hospitalar Psiquiatrico de Lisboa (508338476),BAPTISTA MARQUES (501439110),"61,60 €",01-09-2011,20-06-2011,1 dias,"Portugal, Lisboa, Lisboa","Artigo 24.º, n.º 1, alínea e) do Código dos Contratos Públicos",20-06-2011,"61,60 €",,,,Não aplicável.,Não aplicável.,
AQUISICAO DE REAGENTES,Ajuste Direto Regime Geral,Aquisição de bens móveis,"33696500-0, Reagentes de laboratório",Centro Hospitalar Psiquiatrico de Lisboa (508338476),HORIBA ABX (980158583),"1.166,56 €",01-09-2011,20-06-2011,1 dias,"Portugal, Lisboa, Lisboa","Artigo 24.º, n.º 1, alínea e) do Código dos Contratos Públicos",20-06-2011,"1.166,56 €",,,,Não aplicável.,Não aplicável.,
AQUISICAO DE REAGENTES,Ajuste Direto Regime Geral,Aquisição de bens móveis,"33696500-0, Reagentes de laboratório",Centro Hospitalar Psiquiatrico de Lisboa (508338476),BIOMERIEUX (501524177),"4.866,56 €",31-08-2011,04-05-2011,1 dias,"Portugal, Lisboa, Lisboa","Artigo 24.º, n.º 1, alínea e) do Código dos Contratos Públicos",04-05-2011,"4.866,56 €",,,,Não aplicável.,Não aplicável.,
