Objeto do Contrato,Tipo de Procedimento,Tipo(s) de Contrato,CPVs,Entidade(s) Adjudicante(s),Entidade(s) Adjudicatária(s),Preço Contratual,Data de Publicação,Data de Celebração do Contrato,Prazo de Execução,Local de Execução,Fundamentação,Data de Fecho do Contrato,Preço Total Efetivo,Causas das Alterações ao Prazo,Causas das Alterações ao Preço,Estado,N.º registo do Acordo Quadro,Descrição do Acordo Quadro,Procedimento Centralizado
P259-2018-206 - Aquisição de vacinas em cumprimento do Programa Nacional de Vacinação 2018 para Instituições de Saúde,Ao abrigo de acordo-quadro (art.º 259.º),Aquisição de bens móveis,"33650000-1, Anti-infecciosos gerais de uso sistémico, vacinas, antineoplásicos e imunomoduladores","Administração Regional de Saúde do Norte, I. P. (503135593)","Sanofi Pasteur MSD, SA (507632796)","95.475,00 €",21-12-2018,12-12-2018,16 dias,"Portugal<BR/>Portugal, Porto, Maia<BR/>Portugal, Distrito não determinado, Concelho não determinado<BR/>Portugal, Vila Real, Vila Real",Artigo 259.º do Código dos Contratos Públicos,"","",,"",,1923518,CP 2016/13 - Acordo Quadro para fornecimento de Vacinas e Tuberculinas   às Instituições e Serviços do Serviço Nacional de Saúde,TRUE
Aquisição de ratos e teclados Ref 00214_2018 - Aprov-Prt 18000111,Ao abrigo de acordo-quadro (art.º 259.º),Aquisição de bens móveis,"30200000-1, Equipamento e material informático","Administração Regional de Saúde do Norte, I. P. (503135593)","EDNI - Empresa Distribuidora de Material Informático, Lda (503258121)","4.894,00 €",21-12-2018,11-10-2018,15 dias,"Portugal, Vila Real, Vila Real",Artigo 259.º do Código dos Contratos Públicos,14-12-2018,"4.894,00 €",,"",,1196657,Acordo Quadro para aquisição e aluguer operacional de equipamento informático,FALSE
Levantamentos topográficos e Arquitectura (plantas) edificios,Ajuste Direto Regime Geral,Aquisição de serviços,"71351810-4, Serviços de topografia","Administração Regional de Saúde do Norte, I. P. (503135593)","CS20, Lda  (513710477)","19.990,00 €",21-12-2018,14-12-2018,10 dias,Portugal,"Artigo 20.º, n.º 1, alínea d) do Código dos Contratos Públicos","","",,"",,Não aplicável.,Não aplicável.,FALSE
Aquisição de medicamentos e material de penso,Concurso público,Aquisição de bens móveis,"33600000-6, Produtos farmacêuticos","Administração Regional de Saúde do Norte, I. P. (503135593)","BSN MEDICAL, S.A. (505385058)","7.632,00 €",20-12-2018,19-12-2018,20 dias,"Portugal, Vila Real, Vila Real<BR/>Portugal, Porto, Maia","Artigo 155.º, alínea a) do Código dos Contratos Públicos",22-12-2018,"7.632,00 €",,"",,Não aplicável.,Não aplicável.,FALSE
Levantamentos Topograficos e Arquitectura (plantas) dos Edificios,Ajuste Direto Regime Geral,Aquisição de serviços,"71351810-4, Serviços de topografia","Administração Regional de Saúde do Norte, I. P. (503135593)",TANGENTE TRIPLA - ENGENHARIA LDA (514997907),"19.950,00 €",20-12-2018,10-12-2018,20 dias,"Portugal, Porto","Artigo 20.º, n.º 1, alínea d) do Código dos Contratos Públicos","","",,"",,Não aplicável.,Não aplicável.,FALSE
Aquisição de medicamentos e material de penso,Concurso público,Aquisição de bens móveis,"33600000-6, Produtos farmacêuticos","Administração Regional de Saúde do Norte, I. P. (503135593)",LABORATÓRIOS URGO (83608604),"20.520,00 €",20-12-2018,19-12-2018,20 dias,"Portugal, Vila Real, Vila Real<BR/>Portugal, Porto, Maia","Artigo 155.º, alínea a) do Código dos Contratos Públicos",21-12-2018,"20.520,00 €",,"",,Não aplicável.,Não aplicável.,FALSE
Aquisição de medicamentos e material de penso,Concurso público,Aquisição de bens móveis,"33600000-6, Produtos farmacêuticos","Administração Regional de Saúde do Norte, I. P. (503135593)","SMITH & NEPHEW, LDA (503552461)","37.900,00 €",20-12-2018,19-12-2018,20 dias,"Portugal, Porto, Maia<BR/>Portugal, Vila Real, Vila Real","Artigo 155.º, alínea a) do Código dos Contratos Públicos",27-12-2018,"37.900,00 €",,"",,Não aplicável.,Não aplicável.,FALSE
Aquisição de medicamentos e material de penso,Concurso público,Aquisição de bens móveis,"33600000-6, Produtos farmacêuticos","Administração Regional de Saúde do Norte, I. P. (503135593)","J M V - Produtos Hospitalares, Lda (501887148)","17.900,00 €",20-12-2018,19-12-2018,20 dias,"Portugal, Vila Real, Vila Real<BR/>Portugal, Porto, Maia","Artigo 155.º, alínea a) do Código dos Contratos Públicos",20-12-2018,"17.900,00 €",,"",,Não aplicável.,Não aplicável.,FALSE
"MS/ARSN/GIE/BRG - AP 1021/2018 - Fornecimento de serviços e bens acessórios para reparar o sistema de ar condicionado das unidades de saúde de Mesão Frio, Peso da Régua e Murça",Consulta Prévia,Aquisição de serviços,"50712000-9, Serviços de reparação e manutenção de equipamento mecânico em edifícios","Administração Regional de Saúde do Norte, I. P. (503135593)","Balance Season, Climatização e Ventilação, Lda (510793339)","16.890,00 €",19-12-2018,08-10-2018,30 dias,"Portugal, Vila Real","Artigo 20.º, n.º 1, alínea c) do Código dos Contratos Públicos","","",,"",,Não aplicável.,Não aplicável.,FALSE
AD-2018-104 - Aquisição de vacinas para cumprimento do Programa Nacional de Vacinação 2018 para as Instituições de Saúde,Ajuste Direto Regime Geral,Aquisição de bens móveis,"33650000-1, Anti-infecciosos gerais de uso sistémico, vacinas, antineoplásicos e imunomoduladores","Administração Regional de Saúde do Norte,IP (ARSN) (503135593)","J.M.Farmacêutica, S.A. (503550558)","48.506,25 €",19-12-2018,27-11-2018,32 dias,"Portugal<BR/>Portugal, Vila Real, Vila Real<BR/>Portugal, Porto, Maia<BR/>Portugal, Distrito não determinado, Concelho não determinado","Artigo 24.º, n.º 1, alínea b) do Código dos Contratos Públicos","","",,"",,Não aplicável.,Não aplicável.,TRUE
AD-2018-97 - Aquisição da vacina V22 - Vacina BCG para cumprimento do Programa Nacional de Vacinação 2018 para as Administrações Regionais de Saúde e Direções Regionais de Saúde,Ajuste Direto Regime Geral,Aquisição de bens móveis,"33650000-1, Anti-infecciosos gerais de uso sistémico, vacinas, antineoplásicos e imunomoduladores","Administração Regional de Saúde do Norte, I. P. (503135593)","J.M.Farmacêutica, S.A. (503550558)","15.000,00 €",19-12-2018,29-11-2018,31 dias,"Portugal, Porto, Maia<BR/>Portugal, Vila Real, Vila Real<BR/>Portugal, Distrito não determinado, Concelho não determinado<BR/>Portugal","Artigo 24.º, n.º 1, alínea b) do Código dos Contratos Públicos","","",,"",,Não aplicável.,Não aplicável.,TRUE
Procedimento n.º 54/2018/CRI Viana do Castelo/DICAD/ARSN - Aquisição de serviços médicos com especialidade em Medicina Geral e Familiar - Ricardo Silva.,Ajuste Direto Regime Geral,Aquisição de serviços,"85121200-5, Serviços de medicina especializada","Administração Regional de Saúde do Norte, I. P. (503135593)",Ricardo Vieira da Silva (245350101),"4.329,00 €",19-12-2018,05-11-2018,59 dias,"Portugal, Viana do Castelo, Viana do Castelo","Artigo 20.º, n.º 1, alínea d) do Código dos Contratos Públicos",31-12-2018,"3.861,00 €",,Numero de horas realizadas inferiores ao numero de horas contratadas,,Não aplicável.,Não aplicável.,FALSE
Aprov-Prt 18001842 - AP 1452 - Aquisição Budesonida 1mg/2ml,Ao abrigo de acordo-quadro (art.º 258.º),Aquisição de bens móveis,"33600000-6, Produtos farmacêuticos","Administração Regional de Saúde do Norte, I. P. (503135593)","TEVA PHARMA-PRODUTOS FARMACÊUTICOS, LDA (507045491)","686,00 €",18-12-2018,06-08-2018,144 dias,"Portugal, Distrito não determinado, Concelho não determinado<BR/>Portugal, Vila Real, Vila Real<BR/>Portugal, Porto, Maia",Artigo 258.º do Código dos Contratos Públicos,"","",,"",,1638654,CP 2015/12 - Acordo quadro para fornecimento de Medicamentos do Aparelho Respiratório às Instituições e Serviços do Serviço Nacional de Saúde,FALSE
Aprov-Prt 18002012 - AP 1612,Ajuste Direto Regime Geral,Aquisição de bens móveis,"33670000-7, Medicamentos para o aparelho respiratório","Administração Regional de Saúde do Norte,IP (ARSN) (503135593)","LAB. PFIZER, LDA (500162166)","7.199,52 €",18-12-2018,04-09-2018,116 dias,"Portugal, Distrito não determinado, Concelho não determinado<BR/>Portugal<BR/>Portugal, Porto, Maia<BR/>Portugal, Vila Real, Vila Real","Artigo 24.º, n.º 1, alínea e), subalínea ii) do Código dos Contratos Públicos","","",,"",,Não aplicável.,Não aplicável.,FALSE
Aprov-Prt 18001838 - AP 1447 - Aquisição de Metformina 500mg,Ao abrigo de acordo-quadro (art.º 259.º),Aquisição de bens móveis,"33600000-6, Produtos farmacêuticos","Administração Regional de Saúde do Norte, I. P. (503135593)","DLA Farmacêutica, S.A. (503894427)","6,96 €",18-12-2018,22-08-2018,129 dias,"Portugal, Vila Real, Vila Real<BR/>Portugal, Distrito não determinado, Concelho não determinado<BR/>Portugal, Porto, Maia",Artigo 259.º do Código dos Contratos Públicos,"","",,"",,1415640,CP 2015/7 - ACORDO QUADRO PARA FORNECIMENTO DE HORMONAS E OUTROS MEDICAMENTOS USADOS NO TRATAMENTO DAS DOENÇAS ENDÓCRINAS ÀS INSTITUIÇÕES E SERVIÇOS DO SERVIÇO NACIONAL DE SAÚDE,FALSE
Aprov-Prt 18001836 - AP 1445 - Aquisição de Gluconato Cloro-Hexidina 2%,Ao abrigo de acordo-quadro (art.º 259.º),Aquisição de bens móveis,"33600000-6, Produtos farmacêuticos","Administração Regional de Saúde do Norte, I. P. (503135593)",PROCLIN. - EQUIPAMENTOS E PRODUTOS CLINICOS (500222665),"163,20 €",18-12-2018,22-08-2018,129 dias,"Portugal, Distrito não determinado, Concelho não determinado<BR/>Portugal, Vila Real, Vila Real<BR/>Portugal, Porto, Maia",Artigo 259.º do Código dos Contratos Públicos,"","",,"",,1406003,CP 2015/8,FALSE
Aprov-Prt 18001959 - AP 1565,Ao abrigo de acordo-quadro (art.º 259.º),Aquisição de bens móveis,"33100000-1, Equipamento médico","Administração Regional de Saúde do Norte, I. P. (503135593)","H.R. - HOSPITALAR, LDA (501895558)","171,80 €",17-12-2018,16-10-2018,46 dias,"Portugal, Porto, Maia<BR/>Portugal, Distrito não determinado, Concelho não determinado<BR/>Portugal<BR/>Portugal, Vila Real, Vila Real",Artigo 259.º do Código dos Contratos Públicos,"","",,"",,2791664,CP 2017/27 - Acordo quadro para fornecimento de Material de Ostomia e Eliminação - Parte II,FALSE
Aprov-Prt 18002642 - AP 2183 - Medicamento Anti-Infeccioso,Ao abrigo de acordo-quadro (art.º 259.º),Aquisição de bens móveis,"33651100-9, Antibacterianos de uso sistémico","Administração Regional de Saúde do Norte, I. P. (503135593)","LABESFAL - Laboratórios Almiro, S.A (501169580)","1.780,50 €",17-12-2018,30-11-2018,30 dias,"Portugal, Porto, Maia<BR/>Portugal, Vila Real, Vila Real<BR/>Portugal, Distrito não determinado, Concelho não determinado",Artigo 259.º do Código dos Contratos Públicos,"","",,"",,2775691,CP 2017/5 - Acordo Quadro para fornecimento de Medicamentos anti-infeciosos: exceto antivíricos e antifúngicos,FALSE
Aprov-Prt 18002651 - AP 2205 - Aquisição de Batas - Estomatologia,Ao abrigo de acordo-quadro (art.º 259.º),Aquisição de bens móveis,"33131000-7, Material odontológico","Administração Regional de Saúde do Norte, I. P. (503135593)",DOCWORLD LDA (508592909),"251,12 €",17-12-2018,03-12-2018,28 dias,"Portugal, Distrito não determinado, Concelho não determinado<BR/>Portugal, Porto, Maia<BR/>Portugal, Vila Real, Vila Real",Artigo 259.º do Código dos Contratos Públicos,"","",,"",,2078840,CP 2016/24 - Acordo quadro para fornecimento de Material disposable de bloco operatório - Parte I-A às Instituições e Serviços do Serviço Nacional de Saúde,FALSE
Aprov-Prt 18002354 - AP 1924 - Aquisição de Agulhas,Ao abrigo de acordo-quadro (art.º 259.º),Aquisição de bens móveis,"33141320-9, Agulhas para fins médicos","Administração Regional de Saúde do Norte, I. P. (503135593)",Anastácio Saldanha  (505804441),"16,80 €",17-12-2018,03-12-2018,28 dias,"Portugal, Distrito não determinado, Concelho não determinado<BR/>Portugal, Porto, Maia<BR/>Portugal, Vila Real, Vila Real",Artigo 259.º do Código dos Contratos Públicos,"","",,"",,3016192,CP 2017/213 - Acordo quadro para fornecimento de Agulhas às Instituições e Serviços do Serviço Nacional de Saúde,FALSE
Aprov-Prt 18002354 - AP 1924 - Aquisição de Agulhas,Ao abrigo de acordo-quadro (art.º 259.º),Aquisição de bens móveis,"33141320-9, Agulhas para fins médicos","Administração Regional de Saúde do Norte, I. P. (503135593)","NORMAX – FABRICA DE VIDROS CIENTIFICOS, LDA. (500203130)","3.500,00 €",17-12-2018,30-11-2018,30 dias,"Portugal, Porto, Maia<BR/>Portugal, Vila Real, Vila Real<BR/>Portugal, Distrito não determinado, Concelho não determinado",Artigo 259.º do Código dos Contratos Públicos,"","",,"",,3016192,CP 2017/213 - Acordo quadro para fornecimento de Agulhas às Instituições e Serviços do Serviço Nacional de Saúde,FALSE
AVAC na Unidade de Saúde de Sto Amaro/ACES Povoa/Vila do Conde,Ajuste Direto Regime Geral,Empreitadas de obras públicas,"45331220-4, Instalação de ar condicionado","Administração Regional de Saúde do Norte, I. P. (503135593)","Balance Season, Climatização e Ventilação, Lda (510793339)","19.984,36 €",17-12-2018,10-12-2018,15 dias,"Portugal, Porto, Vila do Conde","Artigo 19.º, alínea d) do Código dos Contratos Públicos","","",,"",,Não aplicável.,Não aplicável.,FALSE
AP 140 - Aquisição de material de penso de efeito terapêutico,Concurso público,Aquisição de bens móveis,"33141100-1, Pensos; clipes, suturas, ligaduras","Administração Regional de Saúde do Norte, I. P. (503135593)","Smith & Nephew, Lda (503552461)","848.338,55 €",17-12-2018,17-12-2018,15 dias,"Portugal, Porto, Maia<BR/>Portugal, Vila Real, Vila Real","Artigo 20.º, n.º 1, alínea a) do Código dos Contratos Públicos",29-12-2018,"848.338,55 €",,"",,Não aplicável.,Não aplicável.,FALSE
Aprov-Prt 18002650 - AP 2204,Ao abrigo de acordo-quadro (art.º 259.º),Aquisição de bens móveis,"33100000-1, Equipamento médico","Administração Regional de Saúde do Norte,IP (ARSN) (503135593)",ANASTACIO SALDANHA UNIPESSOAL (505804441),"58,50 €",13-12-2018,05-12-2018,26 dias,"Portugal, Vila Real, Vila Real<BR/>Portugal<BR/>Portugal, Porto, Maia<BR/>Portugal, Distrito não determinado, Concelho não determinado",Artigo 259.º do Código dos Contratos Públicos,"","",,"",,2102851,CP 2016/74 - Acordo quadro para fornecimento de Material disposable de bloco operatório - Parte I-B às Instituições e Serviços do Serviço Nacional de Saúde,FALSE
Aprov-Prt 18002734 - AP 2273,Ao abrigo de acordo-quadro (art.º 259.º),Aquisição de bens móveis,"33100000-1, Equipamento médico","Administração Regional de Saúde do Norte,IP (ARSN) (503135593)","Overpharma - Produtos Médico Farmacêuticos, Lda  (505792362)","3.893,00 €",13-12-2018,12-12-2018,18 dias,"Portugal, Distrito não determinado, Concelho não determinado<BR/>Portugal, Porto, Maia<BR/>Portugal<BR/>Portugal, Vila Real, Vila Real",Artigo 259.º do Código dos Contratos Públicos,"","",,"",,2942729,CP 2017/214 - Acordo Quadro para Fornecimento de Contentores às Instituições e Serviços do Serviço Nacional de Saúde,FALSE
Aprov-Prt 18002734 - AP 2273,Ao abrigo de acordo-quadro (art.º 259.º),Aquisição de bens móveis,"33100000-1, Equipamento médico","Administração Regional de Saúde do Norte,IP (ARSN) (503135593)","CLINIFAR - PROD.CLINICOS E FARMAC., (503281115)","2.228,40 €",13-12-2018,11-12-2018,20 dias,"Portugal<BR/>Portugal, Vila Real, Vila Real<BR/>Portugal, Porto, Maia<BR/>Portugal, Distrito não determinado, Concelho não determinado",Artigo 259.º do Código dos Contratos Públicos,"","",,"",,2942729,CP 2017/214 - Acordo Quadro para Fornecimento de Contentores às Instituições e Serviços do Serviço Nacional de Saúde,FALSE
AP 1962 - Aquisição de Resguardo p/ cama 60x60 cm,Ao abrigo de acordo-quadro (art.º 259.º),Aquisição de bens móveis,"33100000-1, Equipamento médico","Administração Regional de Saúde do Norte,IP (ARSN) (503135593)","Quilaban, SA (500399670)","935,00 €",13-12-2018,19-11-2018,41 dias,"Portugal<BR/>Portugal, Vila Real, Vila Real<BR/>Portugal, Porto, Maia<BR/>Portugal, Distrito não determinado, Concelho não determinado",Artigo 259.º do Código dos Contratos Públicos,"","",,"",,2771026,"CP 2017/25 - Acordo Quadro para Fornecimento de Material de Incontinência, Proteção Cutânea e Alívio de Pressão às Instituições e Serviços do Serviço Nacional de Saúde",FALSE
Aprov-Prt 18001963 - AP 1568,Ajuste Direto Regime Geral,Aquisição de bens móveis,"24455000-8, Desinfectantes","Administração Regional de Saúde do Norte, I. P. (503135593)","FRANKLAB PORTUGAL, LDA (506058654)","279,00 €",13-12-2018,29-08-2018,122 dias,"Portugal<BR/>Portugal, Vila Real, Vila Real<BR/>Portugal, Porto, Maia<BR/>Portugal, Distrito não determinado, Concelho não determinado","Artigo 24.º, n.º 1, alínea e), subalínea iii) do Código dos Contratos Públicos","","",,"",,Não aplicável.,Não aplicável.,FALSE
Aquisição de Nitroglicerina 0.5 mg Comp subling,Ajuste Direto Regime Geral,Aquisição de bens móveis,"33622000-6, Medicamentos para o aparelho cardiovascular","Administração Regional de Saúde do Norte,IP (ARSN) (503135593)","Quilaban, SA (500399670)","631,66 €",13-12-2018,16-08-2018,135 dias,"Portugal<BR/>Portugal, Distrito não determinado, Concelho não determinado<BR/>Portugal, Porto, Maia<BR/>Portugal, Vila Real, Vila Real","Artigo 20.º, n.º 1, alínea d) do Código dos Contratos Públicos","","",,"",,Não aplicável.,Não aplicável.,FALSE
Aprov-Prt 18002360 - AP 1931,Ao abrigo de acordo-quadro (art.º 259.º),Aquisição de bens móveis,"33600000-6, Produtos farmacêuticos","Administração Regional de Saúde do Norte, I. P. (503135593)","GENERIS - FARMACÊUTICA, S.A. (508107997)","27,50 €",13-12-2018,06-11-2018,54 dias,"Portugal, Vila Real, Vila Real<BR/>Portugal<BR/>Portugal, Distrito não determinado, Concelho não determinado<BR/>Portugal, Porto, Maia",Artigo 259.º do Código dos Contratos Públicos,"","",,"",,2850371,"CP 2017/51 - Acordo Quadro para fornecimento de Medicamentos usados nas afeções cutâneas, às Instituições e Serviços do Serviço Nacional de Saúde",FALSE
AP 1953 - Aquisição de Solução alcoólica anti-séptica e dermoprotectora 100 mL,Ao abrigo de acordo-quadro (art.º 259.º),Aquisição de bens móveis,"33600000-6, Produtos farmacêuticos","Administração Regional de Saúde do Norte, I. P. (503135593)",VYGON PORTUGAL (503232785),"670,00 €",13-12-2018,07-11-2018,53 dias,"Portugal, Porto, Maia<BR/>Portugal<BR/>Portugal, Distrito não determinado, Concelho não determinado<BR/>Portugal, Vila Real, Vila Real",Artigo 259.º do Código dos Contratos Públicos,"","",,"",,1406003,CP 2015/8,FALSE
AP 1958 - Aquisição de Material Farmaceutico,Ao abrigo de acordo-quadro (art.º 259.º),Aquisição de bens móveis,"33600000-6, Produtos farmacêuticos","Administração Regional de Saúde do Norte, I. P. (503135593)",fresenius (504293753),"475,40 €",13-12-2018,09-11-2018,51 dias,"Portugal, Porto, Maia<BR/>Portugal, Distrito não determinado, Concelho não determinado<BR/>Portugal, Vila Real, Vila Real<BR/>Portugal",Artigo 259.º do Código dos Contratos Públicos,"","",,"",,2335591,CP 2016/01 - Acordo Quadro para fornecimento de Medicamentos do Aparelho Cardiovascular   às Instituições e Serviços do Serviço Nacional de Saúde,FALSE
AP 1958 - Aquisição de Material Farmaceutico,Ao abrigo de acordo-quadro (art.º 259.º),Aquisição de bens móveis,"33600000-6, Produtos farmacêuticos","Administração Regional de Saúde do Norte, I. P. (503135593)",HIKMA FARMACEUTICA PORTUGAL S.A (502266791),"258,40 €",13-12-2018,09-11-2018,51 dias,"Portugal, Distrito não determinado, Concelho não determinado<BR/>Portugal, Porto, Maia<BR/>Portugal<BR/>Portugal, Vila Real, Vila Real",Artigo 259.º do Código dos Contratos Públicos,"","",,"",,2335591,CP 2016/01 - Acordo Quadro para fornecimento de Medicamentos do Aparelho Cardiovascular   às Instituições e Serviços do Serviço Nacional de Saúde,FALSE
AD-2018-92 - aquisição de T222 – Tuberculina PPD para cumprimento do Programa Nacional de Vacinação de 2018 para as Administrações Regionais de Saúde e Direções Regionais de Saúde,Ajuste Direto Regime Geral,Aquisição de bens móveis,"33650000-1, Anti-infecciosos gerais de uso sistémico, vacinas, antineoplásicos e imunomoduladores","Administração Regional de Saúde do Norte,IP (ARSN) (503135593)","J.M.Farmacêutica, S.A. (503550558)","23.400,00 €",13-12-2018,26-10-2018,32 dias,"Portugal, Distrito não determinado, Concelho não determinado<BR/>Portugal, Vila Real, Vila Real<BR/>Portugal, Porto, Maia<BR/>Portugal","Artigo 24.º, n.º 1, alínea b) do Código dos Contratos Públicos","","",,"",,Não aplicável.,Não aplicável.,TRUE
Aquisição Desfibrilhadores - APROV-PRT 18002787 (AP2347),Ajuste Direto Regime Geral,Aquisição de bens móveis,"33182100-0, Desfibrilhador","Administração Regional de Saúde do Norte, I. P. (503135593)","PRHOFAME - P. HOSP. F. MEDIC, LDA  (501891145)","8.920,00 €",12-12-2018,11-12-2018,20 dias,"Portugal, Vila Real, Vila Real<BR/>Portugal, Distrito não determinado, Concelho não determinado<BR/>Portugal, Braga, Braga","Artigo 20.º, n.º 1, alínea d) do Código dos Contratos Públicos",18-12-2018,"8.920,00 €",,"",,Não aplicável.,Não aplicável.,FALSE
