Objeto do Contrato,Tipo de Procedimento,Tipo(s) de Contrato,CPVs,Entidade(s) Adjudicante(s),Entidade(s) Adjudicatária(s),Preço Contratual,Data de Publicação,Data de Celebração do Contrato,Prazo de Execução,Local de Execução,Fundamentação,Data de Fecho do Contrato,Preço Total Efetivo,Causas das Alterações ao Prazo,Causas das Alterações ao Preço,Estado,N.º registo do Acordo Quadro,Descrição do Acordo Quadro,Procedimento Centralizado
"Aquisição de Serviços de manutenção corretiva, preventiva, evolutiva e suporte aplicacional ao Sistema de Faturação do Contrato-Programa Hospitalar e Auditorias GDH (SFCP",Concurso público,Aquisição de serviços,"72500000-0, Serviços relacionados com a informática","SPMS - Serviços Partilhados do Ministério da Saúde, E. P. E. (509540716)","AltranPortugal, S.A. (504272179)","161.927,04 €",30-10-2017,25-09-2017,365 dias,Portugal,Artigo 28.º do Código dos Contratos Públicos,,,,,,Não aplicável.,Não aplicável.,FALSE
Aquisição de serviços de assessoria jurídica especializada e patrocínio judicial.,Ajuste Direto Regime Geral,Aquisição de serviços,"79111000-5, Serviços de assessoria jurídica","SPMS- Serviços Partilhados do M. da Saúde, E.P.E. (509540716)","Miranda & Associados – Sociedade de Advogados SP, RL (505701839)","67.500,00 €",30-10-2017,03-10-2017,365 dias,Portugal,"Artigo 24.º, n.º 1, alínea e) do Código dos Contratos Públicos",,,,,,Não aplicável.,Não aplicável.,FALSE
Aquisição de serviços de Gestão de Projeto (Projetos Internacionais) no Âmbito da Área de Sistemas de Prescrição e Dispensa.,Ao abrigo de acordo-quadro (art.º 259.º),Aquisição de serviços,"71317200-5, Serviços de saúde e segurança","SPMS- Serviços Partilhados do M. da Saúde, E.P.E. (509540716)","AltranPortugal, S.A. (504272179)","50.181,12 €",27-10-2017,21-09-2017,365 dias,Portugal,Artigo 259.º do Código dos Contratos Públicos,,,,,,2096651,Acordo quadro para Prestação de Serviços de Consultadoria na área Jurídica às Instituições e Serviços do Serviço Nacional de Saúde e entidades do Ministério da Saúde,FALSE
"Aquisição de hardware no âmbito do projeto MCDT (Meios Complementares de Diagnóstico e Terapêutica) consolidação e desmaterialização na região norte da Administração Regional de Saúde do Norte, I.P.",Concurso público,Aquisição de bens móveis,"30200000-1, Equipamento e material informático","SPMS- Serviços Partilhados do M. da Saúde, E.P.E. (509540716)","GFI PORTUGAL - TECNOLOGIAS DE INFORMAÇÃO, SA (502726890)","314.743,54 €",25-10-2017,17-08-2017,30 dias,"Portugal, Porto, Porto","Artigo 31.º, n.º 1 do Código dos Contratos Públicos",,,,,,Não aplicável.,Não aplicável.,FALSE
