Objeto do Contrato,Tipo de Procedimento,Tipo(s) de Contrato,CPVs,Entidade(s) Adjudicante(s),Entidade(s) Adjudicatária(s),Preço Contratual,Data de Publicação,Data de Celebração do Contrato,Prazo de Execução,Local de Execução,Fundamentação,Data de Fecho do Contrato,Preço Total Efetivo,Causas das Alterações ao Prazo,Causas das Alterações ao Preço,Estado,N.º registo do Acordo Quadro,Descrição do Acordo Quadro,Procedimento Centralizado
Aquisição Medicamentos Diversos II - Exclusivos,Concurso público,Aquisição de bens móveis,"33600000-6, Produtos farmacêuticos","Centro Hospitalar do Médio Tejo, E. P. E. (506361608)","BAXTER MEDICO FARMACEUTICA, LDA (503347345)","103.168,84 €",11-10-2017,07-06-2017,365 dias,"Portugal, Santarém, Torres Novas","Artigo 20.º, n.º 1, alínea b) do Código dos Contratos Públicos",,,,,,Não aplicável.,Não aplicável.,FALSE
Medicamentos Diversos I - 11000917,Concurso público,Aquisição de bens móveis,"33600000-6, Produtos farmacêuticos","Centro Hospitalar do Médio Tejo, E. P. E. (506361608)","Labesfal - Laboratórios Almiro, S.A. (501169580)","58.149,75 €",11-10-2017,07-09-2017,365 dias,"Portugal, Santarém, Torres Novas","Artigo 20.º, n.º 1, alínea b) do Código dos Contratos Públicos",,,,,,Não aplicável.,Não aplicável.,FALSE
Dietas - 31001117,Ajuste Direto Regime Geral,Aquisição de bens móveis,"33600000-6, Produtos farmacêuticos","Centro Hospitalar do Médio Tejo, E.P.E. (CHMT) (506361608)",NUTRICIA (507558286),"21.998,56 €",11-10-2017,19-07-2017,365 dias,"Portugal, Santarém, Torres Novas","Artigo 20.º, n.º 1, alínea a) do Código dos Contratos Públicos",,,,,,Não aplicável.,Não aplicável.,FALSE
Produtos Farmacêuticos Diversos - 31001817,Ajuste Direto Regime Geral,Aquisição de bens móveis,"33600000-6, Produtos farmacêuticos","Centro Hospitalar do Médio Tejo, E.P.E. (CHMT) (506361608)",ALCON PORTUGAL-PROD.EQUIP.OFTALMOLOGICOS (501251685),"17.616,70 €",11-10-2017,08-06-2017,365 dias,"Portugal, Santarém, Torres Novas","Artigo 20.º, n.º 1, alínea a) do Código dos Contratos Públicos",,,,,,Não aplicável.,Não aplicável.,FALSE
Nutrição Parentérica SPMS 21001917_2015/4,Ajuste Direto Regime Geral,Aquisição de bens móveis,"33600000-6, Produtos farmacêuticos","Centro Hospitalar do Médio Tejo, E. P. E. (506361608)","Baxter - Médico Farmacêutica, Lda (503347345)","45.592,20 €",11-10-2017,05-10-2017,365 dias,"Portugal, Santarém, Torres Novas","Artigo 20.º, n.º 1, alínea a) do Código dos Contratos Públicos",,,,,,Não aplicável.,Não aplicável.,FALSE
Gases Medicinais,Ajuste Direto Regime Geral,Aquisição de bens móveis,"33600000-6, Produtos farmacêuticos","Centro Hospitalar do Médio Tejo, E. P. E. (506361608)","Air Liquide Medicinal, S.A (501576436)","382.959,37 €",06-10-2017,17-05-2017,730 dias,"Portugal, Santarém, Torres Novas","Artigo 20.º, n.º 1, alínea a) do Código dos Contratos Públicos",,,,,,Não aplicável.,Não aplicável.,FALSE
Hep. C - Elbasvir + Grazoprevir - 61000717,Ajuste Direto Regime Geral,Aquisição de bens móveis,"33600000-6, Produtos farmacêuticos","Centro Hospitalar do Médio Tejo, E.P.E. (CHMT) (506361608)",MERCK SHARP & DOHME LDA (500191360),"6.700,74 €",06-10-2017,07-09-2017,365 dias,"Portugal, Santarém, Torres Novas","Artigo 20.º, n.º 1, alínea a) do Código dos Contratos Públicos",,,,,,Não aplicável.,Não aplicável.,FALSE
Diálise Peritoneal - 21003617_2015/35,Ajuste Direto Regime Geral,Aquisição de bens móveis,"33600000-6, Produtos farmacêuticos","Centro Hospitalar do Médio Tejo, E. P. E. (506361608)","FRESENIUS MEDICAL CARE, LDA. (503070220)","113.137,70 €",06-10-2017,07-09-2017,140 dias,"Portugal, Santarém, Torres Novas","Artigo 20.º, n.º 1, alínea a) do Código dos Contratos Públicos",,,,,,Não aplicável.,Não aplicável.,FALSE
Diálise Peritoneal - 21003717_2015/35,Ajuste Direto Regime Geral,Aquisição de bens móveis,"33600000-6, Produtos farmacêuticos","Centro Hospitalar do Médio Tejo, E. P. E. (506361608)","Baxter - Médico Farmacêutica, Lda (503347345)","149.825,80 €",06-10-2017,06-09-2017,140 dias,"Portugal, Santarém, Torres Novas","Artigo 20.º, n.º 1, alínea a) do Código dos Contratos Públicos",,,,,,Não aplicável.,Não aplicável.,FALSE
Material Penso Efeito Terapêutico - 21001217_2014/10,Ajuste Direto Regime Geral,Aquisição de bens móveis,"33600000-6, Produtos farmacêuticos","Centro Hospitalar do Médio Tejo, E. P. E. (506361608)","Kvtech Portugal - Prod.Médicos Unipessoal,Lda. (508671531)","29.811,70 €",06-10-2017,07-09-2017,365 dias,"Portugal, Santarém, Torres Novas","Artigo 20.º, n.º 1, alínea a) do Código dos Contratos Públicos",,,,,,Não aplicável.,Não aplicável.,FALSE
Serviços Médicos - Anestesiologia,Ajuste Direto Regime Geral,Aquisição de serviços,"85100000-0, Serviços de saúde","Centro Hospitalar do Médio Tejo, E. P. E. (506361608)","Fátima Belo Figueiredo, Lda (510267858)","27.000,00 €",02-10-2017,31-01-2017,90 dias,"Portugal, Santarém, Abrantes","Artigo 20.º, n.º 1, alínea a) do Código dos Contratos Públicos",,,,,,Não aplicável.,Não aplicável.,FALSE
Serviços médicos - Triagem Geral,Ajuste Direto Regime Geral,Aquisição de serviços,"85100000-0, Serviços de saúde","Centro Hospitalar do Médio Tejo, E. P. E. (506361608)",Tânia Paula Furtado Rodrigues Mota (219404437),"10.800,00 €",02-10-2017,21-06-2017,270 dias,"Portugal, Santarém, Abrantes","Artigo 20.º, n.º 1, alínea a) do Código dos Contratos Públicos",,,,,,Não aplicável.,Não aplicável.,FALSE
