Objeto do Contrato,Tipo de Procedimento,Tipo(s) de Contrato,CPVs,Entidade(s) Adjudicante(s),Entidade(s) Adjudicatária(s),Preço Contratual,Data de Publicação,Data de Celebração do Contrato,Prazo de Execução,Local de Execução,Fundamentação,Data de Fecho do Contrato,Preço Total Efetivo,Causas das Alterações ao Prazo,Causas das Alterações ao Preço,Estado,N.º registo do Acordo Quadro,Descrição do Acordo Quadro,Procedimento Centralizado
"Aquisição de Desogestrel 0,075MG Comprimidos (D255).",Ajuste Direto Regime Geral,Aquisição de bens móveis,"33641400-9, Contraceptivos","Administração Regional de Saúde de Lisboa e Vale do Tejo, I. P. (503148776)","LOGIFARMA-LOG.FARMACEUTICA, SA (503934640)","305.900,00 €",31-01-2017,31-01-2017,334 dias,"Portugal, Lisboa, Lisboa",Artigo 258.º do Código dos Contratos Públicos,,,,,,Não aplicável.,Não aplicável.,FALSE
Aquisição de 400 comprimidos de Azitromicina 500mg,Ao abrigo de acordo-quadro (art.º 259.º),Aquisição de bens móveis,"33690000-3, Medicamentos vários","Administração Regional de Saúde de Lisboa e Vale do Tejo, I. P. (503148776)","Generis Farmacêutica, SA (508107997)","86,00 €",31-01-2017,17-01-2017,348 dias,"Portugal, Lisboa",Artigo 259.º do Código dos Contratos Públicos,,,,,,1326195,ACORDO QUADRO PARA FORNECIMENTO DE MEDICAMENTOS ANTI-INFECIOSOS: EXCETO ANTIVÍRICOS E ANTIFÚNGICOS ÀS INSTITUIÇÕES E SERVIÇOS DO SERVIÇO NACIONAL DE SAÚDE,FALSE
Aquisição de 14.000 comprimidos de Levofloxacina 250mg,Ao abrigo de acordo-quadro (art.º 259.º),Aquisição de bens móveis,"33690000-3, Medicamentos vários","Administração Regional de Saúde de Lisboa e Vale do Tejo, I. P. (503148776)","Teva Pharma - Produtos Farmacêuticos, Lda (507045491)","2.800,00 €",31-01-2017,13-01-2017,352 dias,"Portugal, Lisboa",Artigo 259.º do Código dos Contratos Públicos,,,,,,1422736,CP 2015/41 - ACORDO QUADRO PARA FORNECIMENTO DE MEDICAMENTOS ANTI-INFECIOSOS: ANTIVÍRICOS E ANTIFÚNGICOS ÀS INSTITUIÇÕES E SERVIÇOS DO SERVIÇO NACIONAL DE SAÚDE,FALSE
Aquisição de Agulha Irrecuperável,Ajuste Direto Regime Geral,Aquisição de bens móveis,"33140000-3, Material médico de consumo",Adm.Reg.de Saúde de Lisboa e Vale do Tejo (ARSLVT) (503148776),"DOCWORLD, LDA (508592909)","3.422,80 €",30-01-2017,30-01-2017,335 dias,"Portugal, Lisboa, Lisboa",Artigo 258.º do Código dos Contratos Públicos,,,,,,Não aplicável.,Não aplicável.,FALSE
Aquisição de Catéter Periférico com proteção anti picada,Ajuste Direto Regime Geral,Aquisição de bens móveis,"33140000-3, Material médico de consumo",Adm.Reg.de Saúde de Lisboa e Vale do Tejo (ARSLVT) (503148776),SOCIME II (504453939),"6.750,00 €",30-01-2017,30-01-2017,335 dias,"Portugal, Lisboa, Lisboa",Artigo 258.º do Código dos Contratos Públicos,,,,,,Não aplicável.,Não aplicável.,FALSE
Aquisição de Preservativo Feminino,Ajuste Direto Regime Geral,Aquisição de bens móveis,"33140000-3, Material médico de consumo","Administração Regional de Saúde de Lisboa e Vale do Tejo, I. P. (503148776)",CLINIFAR (503281115),"16.400,00 €",30-01-2017,30-01-2017,335 dias,"Portugal, Lisboa, Lisboa",Artigo 258.º do Código dos Contratos Públicos,,,,,,Não aplicável.,Não aplicável.,FALSE
Aquisição de  Material de RX,Ajuste Direto Regime Geral,Aquisição de bens móveis,"33140000-3, Material médico de consumo","Administração Regional de Saúde de Lisboa e Vale do Tejo, I. P. (503148776)",CARESTREAM HEALTH (508054320),"26.494,35 €",30-01-2017,30-01-2017,335 dias,"Portugal, Lisboa, Lisboa","Artigo 24.º, n.º 1, alínea e) do Código dos Contratos Públicos",,,,,,Não aplicável.,Não aplicável.,FALSE
Aquisição de Penso silicone – Película contato para terapia compressiva,Ajuste Direto Regime Geral,Aquisição de bens móveis,"33140000-3, Material médico de consumo","Administração Regional de Saúde de Lisboa e Vale do Tejo, I. P. (503148776)",MOLNLYCKE HEALTH CARE-COM.P.HOSPITALARES (511101066),"17.780,40 €",30-01-2017,30-01-2017,335 dias,"Portugal, Lisboa, Lisboa",Artigo 258.º do Código dos Contratos Públicos,,,,,,Não aplicável.,Não aplicável.,FALSE
Aquisição de Vacina BCG Liofilizado (V22).,Ajuste Direto Regime Geral,Aquisição de bens móveis,"33651600-4, Vacinas","Administração Regional de Saúde de Lisboa e Vale do Tejo, I. P. (503148776)","J. M. FARMACÊUTICA, S.A. (503550558)","93.750,00 €",23-01-2017,19-01-2017,365 dias,"Portugal, Lisboa, Lisboa",Artigo 258.º do Código dos Contratos Públicos,,,,,,Não aplicável.,Não aplicável.,FALSE
Aquisição da vacina contra Difteria Tétano (V137).,Ajuste Direto Regime Geral,Aquisição de bens móveis,"33651600-4, Vacinas","Administração Regional de Saúde de Lisboa e Vale do Tejo, I. P. (503148776)","GLAXOSMITHKLINE - PRODUTOS FARMACÊUTICOS, LDA (500139962)","231.175,00 €",23-01-2017,19-01-2017,365 dias,"Portugal, Lisboa, Lisboa",Artigo 258.º do Código dos Contratos Públicos,,,,,,Não aplicável.,Não aplicável.,FALSE
