Objeto do Contrato,Tipo de Procedimento,Tipo(s) de Contrato,CPVs,Entidade(s) Adjudicante(s),Entidade(s) Adjudicatária(s),Preço Contratual,Data de Publicação,Data de Celebração do Contrato,Prazo de Execução,Local de Execução,Fundamentação,Data de Fecho do Contrato,Preço Total Efetivo,Causas das Alterações ao Prazo,Causas das Alterações ao Preço,Estado,N.º registo do Acordo Quadro,Descrição do Acordo Quadro,Procedimento Centralizado
Obra de Remodelação das Casas de Banho (WC`S) do 5º Piso Internamento.,Ajuste Direto Regime Geral,Empreitadas de obras públicas,"45259000-7, Reparação e manutenção de instalações","Hospital Santa Maria Maior, EPE (506361381)","Trivial Place, Lda. (513649344)","25.077,60 €",20-04-2018,14-11-2017,30 dias,"Portugal, Braga, Barcelos","Artigo 19.º, alínea a) do Código dos Contratos Públicos","","","","",,Não aplicável.,Não aplicável.,FALSE
Aquisição de Material de Eletromedicina.,Ajuste Direto Regime Geral,Aquisição de bens móveis,"33140000-3, Material médico de consumo","Hospital de Santa Maria Maior, E. P. E. (506361381)",MEDTRONIC PORTUGAL LDA (504223933),"1.628,06 €",20-04-2018,15-03-2018,291 dias,"Portugal, Braga, Barcelos","Artigo 20.º, n.º 1, alínea a) do Código dos Contratos Públicos","","","","",,Não aplicável.,Não aplicável.,FALSE
Aquisição de Material de Eletromedicina.,Ajuste Direto Regime Geral,Aquisição de bens móveis,"33140000-3, Material médico de consumo","Hospital de Santa Maria Maior, E. P. E. (506361381)",Medinfar (501197052),"246,38 €",20-04-2018,15-03-2018,291 dias,"Portugal, Braga, Barcelos","Artigo 20.º, n.º 1, alínea a) do Código dos Contratos Públicos","","","","",,Não aplicável.,Não aplicável.,FALSE
Aquisição de Material de Eletromedicina.,Ajuste Direto Regime Geral,Aquisição de bens móveis,"33140000-3, Material médico de consumo","Hospital de Santa Maria Maior, E. P. E. (506361381)","H.R. Hospitalar, Ldª (501895558)","1.357,89 €",20-04-2018,15-03-2018,291 dias,"Portugal, Braga, Barcelos","Artigo 20.º, n.º 1, alínea a) do Código dos Contratos Públicos","","","","",,Não aplicável.,Não aplicável.,FALSE
Aquisição de Sistema Modular de Prótese do Ombro.,Concurso público,Aquisição de bens móveis,"33183200-8, Próteses ortopédicas","Hospital Santa Maria Maior, EPE (506361381)","LIMA IMPLANTES PORTUGAL SOC. UNIPESSOAL, LDA (508634784)","30.898,00 €",20-04-2018,28-03-2018,278 dias,"Portugal, Braga, Barcelos","Artigo 20.º, n.º 1, alínea b) do Código dos Contratos Públicos","","","","",,Não aplicável.,Não aplicável.,FALSE
Aquisição de Próteses Ortopédicas.,Concurso público,Aquisição de bens móveis,"33183200-8, Próteses ortopédicas","Hospital de Santa Maria Maior, E. P. E. (506361381)","SMITH & NEPHEW, LDA. (503552461)","173.699,00 €",20-04-2018,22-02-2018,313 dias,"Portugal, Braga, Barcelos","Artigo 20.º, n.º 1, alínea b) do Código dos Contratos Públicos","","","","",,Não aplicável.,Não aplicável.,FALSE
Aquisição de Próteses de Hérnia.,Concurso público,Aquisição de bens móveis,"33140000-3, Material médico de consumo","Hospital de Santa Maria Maior, E. P. E. (506361381)","JMV PRODUTOS HOSPITALARES, LDA (501887148)","417,00 €",20-04-2018,15-03-2018,291 dias,"Portugal, Braga, Barcelos","Artigo 20.º, n.º 1, alínea b) do Código dos Contratos Públicos","","","","",,Não aplicável.,Não aplicável.,FALSE
Aquisição de Próteses de Hérnia.,Concurso público,Aquisição de bens móveis,"33140000-3, Material médico de consumo","Hospital de Santa Maria Maior, E. P. E. (506361381)","C. R. Bard Portugal, Ldª (502438274)","5.336,00 €",20-04-2018,15-03-2018,291 dias,"Portugal, Braga, Barcelos","Artigo 20.º, n.º 1, alínea b) do Código dos Contratos Públicos","","","","",,Não aplicável.,Não aplicável.,FALSE
Obra de Segurança Contra Incêndios.,Ajuste Direto Regime Geral,Empreitadas de obras públicas,"45343000-3, Instalação de equipamento para prevenção de incêndios","Hospital Santa Maria Maior, EPE (506361381)","Rexel-Distribuição de Material Electrico,SA (501142070)","6.479,05 €",19-04-2018,11-01-2018,60 dias,"Portugal, Braga, Barcelos","Artigo 19.º, alínea a) do Código dos Contratos Públicos","","","","",,Não aplicável.,Não aplicável.,FALSE
Aquisição de Material de Consumo Hoteleiro.,Ajuste Direto Regime Geral,Aquisição de bens móveis,"39830000-9, Produtos de limpeza","Hospital de Santa Maria Maior, E. P. E. (506361381)","Franklab Portugal, Lda (506058654)","2.148,96 €",19-04-2018,28-03-2018,278 dias,"Portugal, Braga, Barcelos","Artigo 20.º, n.º 1, alínea a) do Código dos Contratos Públicos","","","","",,Não aplicável.,Não aplicável.,FALSE
Aquisição de Material de Consumo Hoteleiro.,Ajuste Direto Regime Geral,Aquisição de bens móveis,"39830000-9, Produtos de limpeza","Hospital de Santa Maria Maior, E. P. E. (506361381)",HIGIGUIMA (505786516),"35,00 €",19-04-2018,28-03-2018,278 dias,"Portugal, Braga, Barcelos","Artigo 20.º, n.º 1, alínea a) do Código dos Contratos Públicos","","","","",,Não aplicável.,Não aplicável.,FALSE
Aquisição de Material de Consumo Hoteleiro.,Ajuste Direto Regime Geral,Aquisição de bens móveis,"39830000-9, Produtos de limpeza","Hospital de Santa Maria Maior, E. P. E. (506361381)","LABLAD - Tito & Fidalgos, Lda. (502629703)","324,00 €",19-04-2018,28-03-2018,278 dias,"Portugal, Braga, Barcelos","Artigo 20.º, n.º 1, alínea a) do Código dos Contratos Públicos","","","","",,Não aplicável.,Não aplicável.,FALSE
Aquisição de Material de consumo Hoteleiro.,Ajuste Direto Regime Geral,Aquisição de bens móveis,"39830000-9, Produtos de limpeza","Hospital de Santa Maria Maior, E. P. E. (506361381)","SANISSIMO - DESINF. E DETERG. DE HIGIENIZAÇÃO, LDA (503435210)","2.620,36 €",19-04-2018,28-03-2018,278 dias,"Portugal, Braga, Barcelos","Artigo 20.º, n.º 1, alínea a) do Código dos Contratos Públicos","","","","",,Não aplicável.,Não aplicável.,FALSE
Aquisição de Material de Consumo Hoteleiro.,Ajuste Direto Regime Geral,Aquisição de bens móveis,"39830000-9, Produtos de limpeza","Hospital de Santa Maria Maior, E. P. E. (506361381)","A.S.C.- Comercio Produtos Higiene,Lda (505495414)","89,65 €",19-04-2018,28-03-2018,278 dias,"Portugal, Braga, Barcelos","Artigo 20.º, n.º 1, alínea a) do Código dos Contratos Públicos","","","","",,Não aplicável.,Não aplicável.,FALSE
Aquisição de material de Consumo Hoteleiro,Ajuste Direto Regime Geral,Aquisição de bens móveis,"39830000-9, Produtos de limpeza","Hospital de Santa Maria Maior, E. P. E. (506361381)","Servisan - Produtos de Higiene, S.A (500246530)","9.509,49 €",19-04-2018,28-03-2018,278 dias,"Portugal, Braga, Barcelos","Artigo 20.º, n.º 1, alínea a) do Código dos Contratos Públicos","","","","",,Não aplicável.,Não aplicável.,FALSE
Aquisição de Material de Consumo Hoteleiro,Ajuste Direto Regime Geral,Aquisição de bens móveis,"39830000-9, Produtos de limpeza","Hospital de Santa Maria Maior, E. P. E. (506361381)",Quimigaia (503655600),"88,21 €",19-04-2018,28-03-2018,278 dias,"Portugal, Braga, Barcelos","Artigo 20.º, n.º 1, alínea a) do Código dos Contratos Públicos",18-04-2018,"","",Caducidade de Contrato pela não apresentação dos documentos de habilitação.,,Não aplicável.,Não aplicável.,FALSE
Aquisição de Material de Consumo Hoteliro,Ajuste Direto Regime Geral,Aquisição de bens móveis,"39830000-9, Produtos de limpeza","Hospital de Santa Maria Maior, E. P. E. (506361381)","Danifer Higiene Industrial, lda (501478493)","3.709,75 €",19-04-2018,28-03-2018,278 dias,"Portugal, Braga, Barcelos","Artigo 20.º, n.º 1, alínea a) do Código dos Contratos Públicos","","","","",,Não aplicável.,Não aplicável.,FALSE
Aquisição de material Consumo Hoteleiro,Ajuste Direto Regime Geral,Aquisição de bens móveis,"39830000-9, Produtos de limpeza","Hospital de Santa Maria Maior, E. P. E. (506361381)",AVIQUIMICA IMPORT E MANUFATURA (500039720),"3.047,50 €",19-04-2018,28-03-2018,278 dias,"Portugal, Braga, Barcelos","Artigo 20.º, n.º 1, alínea a) do Código dos Contratos Públicos","","","","",,Não aplicável.,Não aplicável.,FALSE
Aquisição de Material Consumo Hoteleiro,Ajuste Direto Regime Geral,Aquisição de bens móveis,"39830000-9, Produtos de limpeza","Hospital de Santa Maria Maior, E. P. E. (506361381)","H.R. - HOSPITALAR, LDA (501895558)","191,27 €",19-04-2018,28-03-2018,278 dias,"Portugal, Braga, Barcelos","Artigo 20.º, n.º 1, alínea a) do Código dos Contratos Públicos","","","","",,Não aplicável.,Não aplicável.,FALSE
Aquisição de material de Consumo Hoteleiro,Ajuste Direto Regime Geral,Aquisição de bens móveis,"39830000-9, Produtos de limpeza","Hospital de Santa Maria Maior, E. P. E. (506361381)",ABREU E PEDRA - HIGIENE E BEM ESTAR LDA (507501888),"3.075,87 €",19-04-2018,28-03-2018,278 dias,"Portugal, Braga, Barcelos","Artigo 20.º, n.º 1, alínea a) do Código dos Contratos Públicos","","","","",,Não aplicável.,Não aplicável.,FALSE
Reabilitação dos Reservatórios em Betão de Abastecimento de Água para Consumo Humano,Ajuste Direto Regime Geral,Aquisição de serviços,"50800000-3, Serviços de reparação e manutenção diversos","Hospital de Santa Maria Maior, E. P. E. (506361381)","BIOZIGOTO - HIGIENIZAÇÃO DE SISTEMAS DE AGUA POTAVEL, LDA (506562638)","9.998,90 €",18-04-2018,15-12-2017,120 dias,"Portugal, Braga, Barcelos","Artigo 20.º, n.º 1, alínea a) do Código dos Contratos Públicos","","","","",,Não aplicável.,Não aplicável.,FALSE
Prestação de Serviços de Análises de Controlo de Qualidade no Serviço de Alimentação.,Ajuste Direto Regime Geral,Aquisição de serviços,"71620000-0, Serviços de análise","Hospital de Santa Maria Maior, E. P. E. (506361381)","BIOGERM, S.A. (503265390)","1.680,00 €",18-04-2018,15-12-2017,365 dias,"Portugal, Braga, Barcelos","Artigo 20.º, n.º 1, alínea a) do Código dos Contratos Públicos","","","","",,Não aplicável.,Não aplicável.,FALSE
AQUISIÇÃO DE FRUTA E PRODUTOS HORTÍCOLAS,Concurso público,Aquisição de bens móveis,"15000000-8, Produtos alimentares, bebidas, tabaco e produtos afins","Hospital Santa Maria Maior, EPE (506361381)","COUTINHO E AREZES - COMÉRCIO DE BATATAS, FRUTAS E HORTICOLAS, LDA (506686140)","24.446,64 €",13-04-2018,13-04-2018,365 dias,"Portugal, Braga, Barcelos","Artigo 20.º, n.º 1, alínea b) do Código dos Contratos Públicos",13-04-2018,"24.446,64 €",n/a,n/a,,Não aplicável.,Não aplicável.,FALSE
