Objeto do Contrato,Tipo de Procedimento,Tipo(s) de Contrato,CPVs,Entidade(s) Adjudicante(s),Entidade(s) Adjudicatária(s),Preço Contratual,Data de Publicação,Data de Celebração do Contrato,Prazo de Execução,Local de Execução,Fundamentação,Data de Fecho do Contrato,Preço Total Efetivo,Causas das Alterações ao Prazo,Causas das Alterações ao Preço,Estado,N.º registo do Acordo Quadro,Descrição do Acordo Quadro,Procedimento Centralizado
ALBUMINA - IMUNOGLOBINA,Ajuste Direto Regime Geral,Aquisição de bens móveis,"33600000-6, Produtos farmacêuticos","Instituto Português de Oncologia de Coimbra Francisco Gentil, E. P. E. (506361438)","CSL BEHRING, LDA (503047201)","10.080,00 €",10-11-2016,11-03-2016,295 dias,"Portugal, Coimbra, Coimbra","Artigo 20.º, n.º 1, alínea a) do Código dos Contratos Públicos","","",,"",,Não aplicável.,Não aplicável.,FALSE
ALBUMINA - IMUNOGLOBINA,Ajuste Direto Regime Geral,Aquisição de bens móveis,"33600000-6, Produtos farmacêuticos","Instituto Português de Oncologia de Coimbra Francisco Gentil, E. P. E. (506361438)","CSL BEHRING, LDA (503047201)","17.990,00 €",10-11-2016,11-03-2016,295 dias,"Portugal, Coimbra, Coimbra","Artigo 20.º, n.º 1, alínea a) do Código dos Contratos Públicos","","",,"",,Não aplicável.,Não aplicável.,FALSE
REAGENTES HISTOPATOLOGIA,Ajuste Direto Regime Geral,Aquisição de bens móveis,"24000000-4, Produtos químicos","Instituto Português de Oncologia de Coimbra Francisco Gentil, E. P. E. (506361438)",VWR INTERNACIONAL - MAT. DE LABORATORIO (503842770),"6.729,28 €",09-11-2016,11-03-2016,294 dias,"Portugal, Coimbra, Coimbra","Artigo 20.º, n.º 1, alínea a) do Código dos Contratos Públicos","","",,"",,Não aplicável.,Não aplicável.,FALSE
REAGENTES HISTOPATOLOGIA,Ajuste Direto Regime Geral,Aquisição de bens móveis,"24000000-4, Produtos químicos","Instituto Português de Oncologia de Coimbra Francisco Gentil, E. P. E. (506361438)","LEICA MICROSISTEMAS, LDA (500301921)","2.414,00 €",09-11-2016,11-03-2016,294 dias,"Portugal, Coimbra, Coimbra","Artigo 20.º, n.º 1, alínea a) do Código dos Contratos Públicos","","",,"",,Não aplicável.,Não aplicável.,FALSE
REAGENTES HISTOPATOLOGIA,Ajuste Direto Regime Geral,Aquisição de bens móveis,"24000000-4, Produtos químicos","Instituto Português de Oncologia de Coimbra Francisco Gentil, E. P. E. (506361438)",ENZIFARMA SA (503636975),"3.000,00 €",09-11-2016,11-03-2016,294 dias,"Portugal, Coimbra, Coimbra","Artigo 20.º, n.º 1, alínea a) do Código dos Contratos Públicos","","",,"",,Não aplicável.,Não aplicável.,FALSE
MED. EXCLUSIVO BDRPHARMA LDA,Ajuste Direto Regime Geral,Aquisição de bens móveis,"33600000-6, Produtos farmacêuticos","Instituto Português de Oncologia de Coimbra Francisco Gentil, E. P. E. (506361438)",BDRPHARMA LDA (513077332),"54.450,00 €",08-11-2016,04-01-2016,365 dias,"Portugal, Coimbra, Coimbra","Artigo 24.º, n.º 1, alínea e) do Código dos Contratos Públicos",15-12-2016,"59.440,60 €",,Necessidade de aumento das quantidades consumidas em virtude do aumento do nº de doentes.,,Não aplicável.,Não aplicável.,FALSE
DEXAMETASONA (3 IPO'S),Ajuste Direto Regime Geral,Aquisição de bens móveis,"33600000-6, Produtos farmacêuticos","Instituto Português de Oncologia de Coimbra Francisco Gentil, E. P. E. (506361438)",BIOJAM S A (513642749),"15.600,00 €",08-11-2016,22-03-2016,305 dias,"Portugal, Coimbra, Coimbra","Artigo 24.º, n.º 1, alínea e) do Código dos Contratos Públicos",19-12-2016,"14.226,00 €",,Diminuição das necessidades.,,Não aplicável.,Não aplicável.,FALSE
NP - DABRAFENIB 75 MG,Ajuste Direto Regime Geral,Aquisição de bens móveis,"33600000-6, Produtos farmacêuticos","Instituto Português de Oncologia de Coimbra Francisco Gentil, E. P. E. (506361438)","NOVARTIS FARMA - PROD.FARMACEUTICOS, SA (500063524)","6.205,71 €",07-11-2016,26-09-2016,96 dias,"Portugal, Coimbra, Coimbra","Artigo 24.º, n.º 1, alínea e) do Código dos Contratos Públicos",26-09-2016,"6.205,71 €",,"",,Não aplicável.,Não aplicável.,FALSE
NP IBRUTINIB 140 MG,Ajuste Direto Regime Geral,Aquisição de bens móveis,"33600000-6, Produtos farmacêuticos","Instituto Português de Oncologia de Coimbra Francisco Gentil, E. P. E. (506361438)","JANSSEN CILAG FARMACEUTICA, LDA (500189412)","64.809,60 €",03-11-2016,13-05-2016,231 dias,"Portugal, Coimbra, Coimbra","Artigo 24.º, n.º 1, alínea e) do Código dos Contratos Públicos",22-12-2016,"68.276,16 €",,Necessidade de aumento das quantidades consumidas em virtude do aumento do nº de doentes.,,Não aplicável.,Não aplicável.,FALSE
NP PEMBROLIZUMAB,Ajuste Direto Regime Geral,Aquisição de bens móveis,"33600000-6, Produtos farmacêuticos","Instituto Português de Oncologia de Coimbra Francisco Gentil, E. P. E. (506361438)","MERCK SHARP & DOHME, LDA (500191360)","42.144,00 €",03-11-2016,15-07-2016,170 dias,"Portugal, Coimbra, Coimbra","Artigo 24.º, n.º 1, alínea e) do Código dos Contratos Públicos",13-12-2016,"33.364,00 €",,Diminuição das necessidades.,,Não aplicável.,Não aplicável.,FALSE
"COLA HEMOSTÁTICA, PENSO 4,5x9cm (HEMOPATCH)",Ajuste Direto Regime Geral,Aquisição de bens móveis,"33600000-6, Produtos farmacêuticos","Instituto Português de Oncologia de Coimbra Francisco Gentil, E. P. E. (506361438)","BAXTER MEDICO-FARMACEUTICA, LDA (503347345)","4.200,00 €",03-11-2016,23-06-2016,190 dias,"Portugal, Coimbra, Coimbra","Artigo 24.º, n.º 1, alínea e) do Código dos Contratos Públicos",15-12-2016,"5.880,00 €",,Aumento das necessidades.,,Não aplicável.,Não aplicável.,FALSE
