Objeto do Contrato,Tipo de Procedimento,Tipo(s) de Contrato,CPVs,Entidade(s) Adjudicante(s),Entidade(s) Adjudicatária(s),Preço Contratual,Data de Publicação,Data de Celebração do Contrato,Prazo de Execução,Local de Execução,Fundamentação,Data de Fecho do Contrato,Preço Total Efetivo,Causas das Alterações ao Prazo,Causas das Alterações ao Preço,Estado,N.º registo do Acordo Quadro,Descrição do Acordo Quadro,Procedimento Centralizado
Stents intracraneanos e kits trombectomia,Concurso público,Aquisição de bens móveis,"33000000-0, Equipamento médico, medicamentos e produtos para cuidados pessoais","Centro Hospitalar de Lisboa Central, E. P. E. (508080142)",Terumo Europe España (980472024),"30.000,00 €",10-04-2017,13-03-2017,230 dias,"Portugal, Lisboa, Lisboa","Artigo 20.º, n.º 1, alínea b) do Código dos Contratos Públicos",,,,,,Não aplicável.,Não aplicável.,FALSE
Stents intracraneanos e kits trombectomia,Concurso público,Aquisição de bens móveis,"33000000-0, Equipamento médico, medicamentos e produtos para cuidados pessoais","Centro Hospitalar de Lisboa Central, E. P. E. (508080142)",Penumbra (DE815054796),"701.480,00 €",10-04-2017,15-03-2017,230 dias,"Portugal, Lisboa, Lisboa","Artigo 20.º, n.º 1, alínea b) do Código dos Contratos Públicos",,,,,,Não aplicável.,Não aplicável.,FALSE
Stents intracraneanos e kits trombectomia,Concurso público,Aquisição de bens móveis,"33000000-0, Equipamento médico, medicamentos e produtos para cuidados pessoais","Centro Hospitalar de Lisboa Central, E. P. E. (508080142)",Medtronic Portugal (504223933),"205.700,00 €",10-04-2017,20-03-2017,230 dias,"Portugal, Lisboa, Lisboa","Artigo 20.º, n.º 1, alínea b) do Código dos Contratos Públicos",,,,,,Não aplicável.,Não aplicável.,FALSE
Stents intracraneanos e kits de trombectomia,Concurso público,Aquisição de bens móveis,"33000000-0, Equipamento médico, medicamentos e produtos para cuidados pessoais","Centro Hospitalar de Lisboa Central, E. P. E. (508080142)",Medicinália-Cormédica (500684324),"259.030,00 €",10-04-2017,20-03-2017,230 dias,"Portugal, Lisboa, Lisboa","Artigo 20.º, n.º 1, alínea b) do Código dos Contratos Públicos",,,,,,Não aplicável.,Não aplicável.,FALSE
Stents intracraneanos e kits de trombectomia,Concurso público,Aquisição de bens móveis,"33184100-4, Implantes cirúrgicos","Centro Hospitalar de Lisboa Central, E. P. E. (508080142)",Johnson & Johnson Medical (500153370),"94.470,00 €",10-04-2017,13-03-2017,230 dias,"Portugal, Lisboa, Lisboa","Artigo 20.º, n.º 1, alínea b) do Código dos Contratos Públicos",,,,,,Não aplicável.,Não aplicável.,FALSE
Stents intracranianos e kits trobectomia,Concurso público,Aquisição de bens móveis,"33000000-0, Equipamento médico, medicamentos e produtos para cuidados pessoais","Centro Hospitalar de Lisboa Central, E. P. E. (508080142)",Dermis (507988990),"20.700,00 €",10-04-2017,22-03-2017,230 dias,"Portugal, Lisboa, Lisboa","Artigo 20.º, n.º 1, alínea b) do Código dos Contratos Públicos",,,,,,Não aplicável.,Não aplicável.,FALSE
Stents intracraneanos e kits de trombectomia,Concurso público,Aquisição de bens móveis,"33000000-0, Equipamento médico, medicamentos e produtos para cuidados pessoais","Centro Hospitalar de Lisboa Central, E. P. E. (508080142)",Cateter (502914319),"143.100,00 €",10-04-2017,13-03-2017,230 dias,"Portugal, Lisboa, Lisboa","Artigo 20.º, n.º 1, alínea b) do Código dos Contratos Públicos",,,,,,Não aplicável.,Não aplicável.,FALSE
Stents intracranianos e kits trombectomia,Concurso público,Aquisição de bens móveis,"33184100-4, Implantes cirúrgicos","Centro Hospitalar de Lisboa Central, E. P. E. (508080142)",Biomédica (501745459),"204.500,00 €",10-04-2017,22-03-2017,230 dias,"Portugal, Lisboa, Lisboa","Artigo 20.º, n.º 1, alínea b) do Código dos Contratos Públicos",,,,,,Não aplicável.,Não aplicável.,FALSE
Cateteres forgaty,Ajuste Direto Regime Geral,Aquisição de bens móveis,"33140000-3, Material médico de consumo","Centro Hospitalar de Lisboa Central, E.P.E. (CHLC) (508080142)","Medinfar, SA             (501197052)","41.085,00 €",07-04-2017,23-02-2017,309 dias,"Portugal, Lisboa, Lisboa","Artigo 20.º, n.º 1, alínea a) do Código dos Contratos Públicos",,,,,,Não aplicável.,Não aplicável.,FALSE
Sacos para aspirador de secreções,Ajuste Direto Regime Geral,Aquisição de bens móveis,"33100000-1, Equipamento médico","Centro Hospitalar de Lisboa Central, E.P.E. (CHLC) (508080142)",PMH PRODUTOS MEDICO HOSPITALARES SA                (502376899),"24.017,00 €",07-04-2017,20-03-2017,90 dias,"Portugal, Lisboa, Lisboa","Artigo 20.º, n.º 1, alínea a) do Código dos Contratos Públicos",,,,,,Não aplicável.,Não aplicável.,FALSE
4-2.0449/17 - Slings Sintéticos p/Incontinência Urinária da Mulher,Ajuste Direto Regime Geral,Aquisição de bens móveis,"33140000-3, Material médico de consumo","Centro Hospitalar de Lisboa Central, E.P.E. (CHLC) (508080142)","ENDOTÉCNICA, LDA. (503818348)","21.320,00 €",06-04-2017,13-03-2017,293 dias,"Portugal, Lisboa, Lisboa","Artigo 20.º, n.º 1, alínea a) do Código dos Contratos Públicos",,,,,,Não aplicável.,Não aplicável.,FALSE
