Objeto do Contrato,Tipo de Procedimento,Tipo(s) de Contrato,CPVs,Entidade(s) Adjudicante(s),Entidade(s) Adjudicatária(s),Preço Contratual,Data de Publicação,Data de Celebração do Contrato,Prazo de Execução,Local de Execução,Fundamentação,Data de Fecho do Contrato,Preço Total Efetivo,Causas das Alterações ao Prazo,Causas das Alterações ao Preço,Estado,N.º registo do Acordo Quadro,Descrição do Acordo Quadro,Procedimento Centralizado
Aquisição de 60 rolos manga para esterilização sem fole 75 mm,Ajuste Direto Regime Geral,Aquisição de bens móveis,"33140000-3, Material médico de consumo","Administração Regional de Saúde do Norte, I. P. (503135593)",Helder Gonçalves (503855421),"0,00 €",29-08-2014,29-08-2014,365 dias,"Portugal, Vila Real, Vila Real",Artigo 258.º do Código dos Contratos Públicos,03-09-2014,"494,40 €",,Não houve alteração de valores,,1274454,Aquisição de 60 rolos manga para esterilização sem fole 75 mm,FALSE
Aquisição de 1240 testes controlo de esterilização (Bowie & Dick),Ajuste Direto Regime Geral,Aquisição de bens móveis,"33140000-3, Material médico de consumo","Administração Regional de Saúde do Norte, I. P. (503135593)","Bastos Viegas, S.A. (500042772)","0,00 €",29-08-2014,29-08-2014,365 dias,"Portugal, Vila Real, Vila Real",Artigo 258.º do Código dos Contratos Públicos,07-11-2014,"1.698,80 €",,Não houve alteração de valores,,1274449,Aquisição de 1240 testes controlo de esterilização (Bowie & Dick),FALSE
Aquisição de 2 000 caixas de reagente determinação INR no sangueAquisição de 2 000 caixas de reagente determinação INR no sangue,Ajuste Direto Regime Geral,Aquisição de bens móveis,"33694000-1, Meios de diagnóstico","Administração Regional de Saúde do Norte, I. P. (503135593)","Roche Sistemas de Diagnósticos, Lda (504282921)","239.339,00 €",29-08-2014,30-06-2014,365 dias,"Portugal, Vila Real, Vila Real","Artigo 24.º, n.º 1, alínea e) do Código dos Contratos Públicos",22-09-2014,"239.339,00 €",,"",,Não aplicável.,Não aplicável.,FALSE
Aquisição  de 1 unidade Accuprobe M. Kansasii ; i unidade Accuprobe M.Avium Complex; 3 caixas Kit reagentes API 20 E,Ajuste Direto Regime Geral,Aquisição de bens móveis,"33696000-5, Reagentes e meios de contraste","Administração Regional de Saúde do Norte, I. P. (503135593)","BIOMERIEUX PORTUGAL, LDA (501524177)","910,85 €",27-08-2014,06-08-2014,365 dias,"Portugal, Vila Real, Vila Real","Artigo 24.º, n.º 1, alínea e) do Código dos Contratos Públicos","","",,"",,Não aplicável.,Não aplicável.,FALSE
Aquisição de 2.400 Contentor p/ recolha de agulhas 500cc,Ajuste Direto Regime Geral,Aquisição de bens móveis,"33140000-3, Material médico de consumo","Administração Regional de Saúde do Norte, I. P. (503135593)","AMBIMED - GESTÃO AMBIENTAL, LDA (503593427)","0,00 €",27-08-2014,07-08-2014,365 dias,"Portugal, Vila Real, Vila Real",Artigo 258.º do Código dos Contratos Públicos,"","",,"",,1272878,Aquisição de 2.400 Contentor p/ recolha de agulhas 500cc,FALSE
Aquisição de 2.500 unidades Contentor p/ recolha de agulhas 1500/2000cc,Ajuste Direto Regime Geral,Aquisição de bens móveis,"33140000-3, Material médico de consumo","Administração Regional de Saúde do Norte, I. P. (503135593)",OVERPHARMA - PRODUTOS MEDICOS FARMC. LDA (505792362),"0,00 €",27-08-2014,07-08-2014,365 dias,"Portugal, Vila Real, Vila Real",Artigo 258.º do Código dos Contratos Públicos,"","",,"",,1272855,Aquisição de 2.500 unidades Contentor p/ recolha de agulhas 1500/2000cc,FALSE
Aquisição de 4.480 unidades Contentor p/ recolha de agulhas 4500/5000cc,Ajuste Direto Regime Geral,Aquisição de bens móveis,"33140000-3, Material médico de consumo","Administração Regional de Saúde do Norte, I. P. (503135593)","NORMAX - FÁBRICA DE VIDROS CIENTIFICOS, LDA (500203130)","0,00 €",27-08-2014,13-08-2014,365 dias,"Portugal, Vila Real, Vila Real",Artigo 258.º do Código dos Contratos Públicos,"","",,"",,1272815,Aquisição de 4.480 unidades Contentor p/ recolha de agulhas 4500/5000cc,FALSE
"Aquisição 25.000 unidades Seringa irrecuperável, 2 peças [10 ml]; 60.000 Unidades Seringa irrecuperável, 2 peças [5 ml]",Ajuste Direto Regime Geral,Aquisição de bens móveis,"33140000-3, Material médico de consumo","Administração Regional de Saúde do Norte, I. P. (503135593)",B BRAUN MEDICAL (501506543),"0,00 €",27-08-2014,07-08-2014,365 dias,"Portugal, Vila Real, Vila Real",Artigo 258.º do Código dos Contratos Públicos,"","",,"",,1272803,"Aquisição 25.000 unidades Seringa irrecuperável, 2 peças [10 ml]; 60.000 Unidades Seringa irrecuperável, 2 peças [5 ml]",FALSE
Aquisição de 200.000 Contentor Metadona 20ml c/tampa segurança,Ajuste Direto Regime Geral,Aquisição de bens móveis,"34221000-2, Contentores móveis para usos especiais","Administração Regional de Saúde do Norte, I. P. (503135593)","MADIL - ManuelLMoreira Dias, Lda. (502907363)","6.200,00 €",27-08-2014,06-08-2014,365 dias,"Portugal, Vila Real, Vila Real","Artigo 20.º, n.º 1, alínea a) do Código dos Contratos Públicos","","",,"",,Não aplicável.,Não aplicável.,FALSE
Aquisição de 7.000 Ampolas Água para preparações injectáveis Sol inj 10 ml; 7.500 Ampolas Água para preparações injectáveis Sol inj 5ml; 50 Frascos Electrólitos + Gelatina Sol inj Fr 500 ml IV,Ajuste Direto Regime Geral,Aquisição de bens móveis,"33600000-6, Produtos farmacêuticos","Administração Regional de Saúde do Norte, I. P. (503135593)",B. Braun Medical Lda (501506543),"0,00 €",27-08-2014,19-08-2014,365 dias,"Portugal, Vila Real, Vila Real",Artigo 258.º do Código dos Contratos Públicos,"","",,"",,1272778,Aquisição de 7.000 Ampolas Água para preparações injectáveis Sol inj 10 ml; 7.500 Ampolas Água para preparações injectáveis Sol inj 5ml; 50 Frascos Electrólitos + Gelatina Sol inj Fr 500 ml IV,FALSE
"Aquisição de  10.000 frascos Cloreto de sódio 0,9% Sol inj 100 ml IV; 1.100 unidades Polielectrolítico Sol inj 500 ml IV;  8.000 ampolas Cloreto de sódio 0,9% Sol inj 10 ml IM IV SC",Ajuste Direto Regime Geral,Aquisição de bens móveis,"33600000-6, Produtos farmacêuticos","Administração Regional de Saúde do Norte, I. P. (503135593)","Labesfal - Laboratórios Almiro, S. A. (501169580)","0,00 €",27-08-2014,19-08-2014,365 dias,"Portugal, Vila Real, Vila Real",Artigo 258.º do Código dos Contratos Públicos,"","",,"",,1272635,"Aquisição de  10.000 frascos Cloreto de sódio 0,9% Sol inj 100 ml IV; 1.100 unidades Polielectrolítico Sol inj 500 ml IV;  8.000 ampolas Cloreto de sódio 0,9% Sol inj 10 ml IM IV SC",FALSE
Aquisição de 498  unidades Água destilada 1000 ml,Ajuste Direto Regime Geral,Aquisição de bens móveis,"33600000-6, Produtos farmacêuticos","Administração Regional de Saúde do Norte, I. P. (503135593)","Fresenius K. P.  portugal, LD-Millennium Bcp (504293753)","0,00 €",27-08-2014,18-08-2014,365 dias,"Portugal, Vila Real, Vila Real",Artigo 258.º do Código dos Contratos Públicos,"","",,"",,1272615,Aquisição de 498  unidades Água destilada 1000 ml,FALSE
Aquisição de 60 comprimidos Fluvoxamina 50 mg,Ajuste Direto Regime Geral,Aquisição de bens móveis,"33600000-6, Produtos farmacêuticos","Administração Regional de Saúde do Norte, I. P. (503135593)","Generis Farmacêutica, SA (508107997)","0,00 €",27-08-2014,07-08-2014,365 dias,"Portugal, Vila Real, Vila Real",Artigo 258.º do Código dos Contratos Públicos,"","",,"",,1271934,Aquisição de 60 comprimidos Fluvoxamina 50 mg,FALSE
Aquisição 150 Sonda nasogástrica (tipo Levine) CH 10; 100 Sonda nasogástrica (tipo Levine) CH 18; 150 Sonda nasogástrica (tipo Levine) CH 12,Ajuste Direto Regime Geral,Aquisição de bens móveis,"33140000-3, Material médico de consumo","Administração Regional de Saúde do Norte, I. P. (503135593)",Overpharma - Produtos Medicos Farm. Lda (505792362),"0,00 €",27-08-2014,14-08-2014,365 dias,"Portugal, Vila Real, Vila Real",Artigo 258.º do Código dos Contratos Públicos,"","",,"",,1271923,Aquisição 150 Sonda nasogástrica (tipo Levine) CH 10; 100 Sonda nasogástrica (tipo Levine) CH 18; 150 Sonda nasogástrica (tipo Levine) CH 12,FALSE
Aquisição  de 2 PZA tubes kit,Ajuste Direto Regime Geral,Aquisição de bens móveis,"33600000-6, Produtos farmacêuticos","Administração Regional de Saúde do Norte, I. P. (503135593)","QUILABAN-QUIM. LAB. ANALITICA, LDA (500399670)","718,18 €",27-08-2014,06-08-2014,365 dias,"Portugal, Vila Real, Vila Real","Artigo 24.º, n.º 1, alínea e) do Código dos Contratos Públicos","","",,"",,Não aplicável.,Não aplicável.,FALSE
Aquisição de 55 000 lâminas citologia bordo esmiralado com extremidade fosca  Aquisição de 40 000 Porta lâminas individual,Ajuste Direto Regime Geral,Aquisição de bens móveis,"33140000-3, Material médico de consumo","Administração Regional de Saúde do Norte, I. P. (503135593)",Speculum - Artigos Médicos (502996323),"5.030,00 €",27-08-2014,21-08-2014,365 dias,"Portugal, Vila Real, Vila Real","Artigo 20.º, n.º 1, alínea a) do Código dos Contratos Públicos",07-10-2014,"5.030,00 €",,"",,Não aplicável.,Não aplicável.,FALSE
Aquisição de 600 ampolas de dexametasona 5 mg/ml sol inj ml IM IV SC,Ajuste Direto Regime Geral,Aquisição de bens móveis,"33600000-6, Produtos farmacêuticos","Administração Regional de Saúde do Norte, I. P. (503135593)",Bomi Portugal (504736655),"653,40 €",27-08-2014,25-08-2014,365 dias,"Portugal, Vila Real, Vila Real","Artigo 24.º, n.º 1, alínea e) do Código dos Contratos Públicos","","",,"",,Não aplicável.,Não aplicável.,FALSE
Aquisição de 1.400 Fralda-Cueca tamanho Médio,Ajuste Direto Regime Geral,Aquisição de bens móveis,"33751000-9, Fraldas descartáveis","Administração Regional de Saúde do Norte, I. P. (503135593)","Paul Hartman, Lda (502271728)","0,00 €",26-08-2014,11-08-2014,365 dias,"Portugal, Vila Real, Vila Real",Artigo 258.º do Código dos Contratos Públicos,"","",,"",,1271610,Aquisição 1.400 Fralda-Cueca tamanho Médio,FALSE
"Aquisição 5 Cx Reagente LCK 304 - NH4; 5 Cx Reagente LCK 339 - NO3- ; 2 Cx Padrão Adista LCA704 (PO43-,CQO, NH4+, Cl, NO3-,TOC, SO42-); portes",Ajuste Direto Regime Geral,Aquisição de bens móveis,"33696000-5, Reagentes e meios de contraste","Administração Regional de Saúde do Norte, I. P. (503135593)","Hach Lange, Lda (507155165)","988,42 €",26-08-2014,12-08-2014,365 dias,"Portugal, Vila Real, Vila Real","Artigo 24.º, n.º 1, alínea e) do Código dos Contratos Públicos","","",,"",,Não aplicável.,Não aplicável.,FALSE
Aquisição de um pacote de horas  para manutenção da aplicação SIIMA de Gestão Clinica,Ajuste Direto Regime Geral,Aquisição de serviços<br/>Locação de bens móveis,"72261000-2, Serviços de assistência em matéria de software","Administração Regional de Saúde do Norte, I. P. (503135593)","First Solutions - Sistemas de Informação, S.A. (505345978)","18.720,00 €",26-08-2014,29-04-2014,270 dias,"Portugal, Porto, Porto","Artigo 24.º, n.º 1, alínea e) do Código dos Contratos Públicos",09-12-2014,"18.720,00 €",,"",,Não aplicável.,Não aplicável.,FALSE
Aquisição de 110.000 unidades Saco plástico para lixo contaminado 25x30cm,Ajuste Direto Regime Geral,Aquisição de bens móveis,"19640000-4, Sacos de polietileno para recolha de lixo e resíduos","Administração Regional de Saúde do Norte, I. P. (503135593)","Plasticolors - Transf. Matérias Plásticas, Lda (504183346)","3.080,00 €",26-08-2014,26-08-2014,365 dias,"Portugal, Vila Real, Vila Real","Artigo 20.º, n.º 1, alínea a) do Código dos Contratos Públicos",18-09-2014,"3.080,00 €",,"",,Não aplicável.,Não aplicável.,FALSE
Aquisição de 45 Rolos Fita de Nastro,Ajuste Direto Regime Geral,Aquisição de bens móveis,"19640000-4, Sacos de polietileno para recolha de lixo e resíduos","Administração Regional de Saúde do Norte, I. P. (503135593)","A. J. Oliveira, Lda (502293748)","402,75 €",26-08-2014,26-08-2014,365 dias,"Portugal, Vila Real, Vila Real","Artigo 20.º, n.º 1, alínea a) do Código dos Contratos Públicos",11-09-2014,"402,75 €",,"",,Não aplicável.,Não aplicável.,FALSE
Aquisição 1.000 Sacos Recolha de Vómito,Ajuste Direto Regime Geral,Aquisição de bens móveis,"33922000-9, Sacos para transporte de cadáveres","Administração Regional de Saúde do Norte, I. P. (503135593)","Paul Hartman, Lda (502271728)","160,00 €",26-08-2014,31-07-2014,365 dias,"Portugal, Vila Real, Vila Real","Artigo 20.º, n.º 1, alínea a) do Código dos Contratos Públicos",06-08-2014,"160,00 €",,"",,Não aplicável.,Não aplicável.,FALSE
"Aquisição de 800 ampolas de atropina 0,5 mg/1 ml Sol inj. IM IV SC",Ajuste Direto Regime Geral,Aquisição de bens móveis,"33600000-6, Produtos farmacêuticos","Administração Regional de Saúde do Norte, I. P. (503135593)","B. Braun Medical, Lda (501506543)","0,00 €",25-08-2014,13-08-2014,365 dias,"Portugal, Vila Real, Vila Real","Artigo 20.º, n.º 1, alínea a) do Código dos Contratos Públicos",04-11-2014,"720,00 €",,Sem alteração de valores,,1270394,"Aquisição de 800 ampolas de atropina 0,5 mg/1 ml Sol inj. IM IV SC",FALSE
Aquisição de 900 ampolas de Amiodarona 150 mg/3 ml Sol inj. Fr. 3 ml IV,Ajuste Direto Regime Geral,Aquisição de bens móveis,"33600000-6, Produtos farmacêuticos","Administração Regional de Saúde do Norte, I. P. (503135593)",HIKMA FARMACEUTICA (502266791),"0,00 €",25-08-2014,20-08-2014,365 dias,"Portugal, Vila Real, Vila Real","Artigo 20.º, n.º 1, alínea a) do Código dos Contratos Públicos",23-09-2014,"341,10 €",,Não houve alteração de valores,,1270390,Aquisição de 900 ampolas de Amiodarona 150 mg/3 ml Sol inj. Fr. 3 ml IV,FALSE
"Aquisição de 1176 comprimidos de losartan 100 mg + hidroclorotiazida 12,5 mg",Ajuste Direto Regime Geral,Aquisição de bens móveis,"33600000-6, Produtos farmacêuticos","Administração Regional de Saúde do Norte, I. P. (503135593)",Sandoz Farmacêutica (506985261),"0,00 €",25-08-2014,22-08-2014,365 dias,"Portugal, Vila Real, Vila Real",Artigo 258.º do Código dos Contratos Públicos,28-10-2014,"189,69 €",,Não houve alteração de valor,,1270385,"Aquisição de 1176 comprimidos de losartan 100 mg + hidroclorotiazida 12,5 mg",FALSE
Aquisição de 248 rolos de cabertura irrecuperável marquesa TNT 50mx50 cm,Ajuste Direto Regime Geral,Aquisição de bens móveis,"33140000-3, Material médico de consumo","Administração Regional de Saúde do Norte, I. P. (503135593)",Anastácio Saldanha (505804441),"540,64 €",25-08-2014,22-08-2014,365 dias,"Portugal, Vila Real, Vila Real","Artigo 20.º, n.º 1, alínea a) do Código dos Contratos Públicos",29-10-2014,"540,64 €",,"",,Não aplicável.,Não aplicável.,FALSE
Aquisição de 500 unidades de Toucas de protecção em T.N.T irrecuperável,Ajuste Direto Regime Geral,Aquisição de bens móveis,"33140000-3, Material médico de consumo","Administração Regional de Saúde do Norte, I. P. (503135593)",AVIQUIMICA IMP E MANUFAT LDA - BESLEASING E FACTORING   (500039720),"0,00 €",21-08-2014,21-08-2014,365 dias,"Portugal, Vila Real, Vila Real",Artigo 258.º do Código dos Contratos Públicos,"","",,"",,1269360,Aquisição de 500 unidades de Toucas de protecção em T.N.T irrecuperável,FALSE
Aquisição de 10.000 unidades de Bata de protecção irrecuperável,Ajuste Direto Regime Geral,Aquisição de bens móveis,"33140000-3, Material médico de consumo","Administração Regional de Saúde do Norte, I. P. (503135593)",OVERPHARMA- PRODUTOS MEDICOS FARMAC. LDA                (505792362),"0,00 €",21-08-2014,07-08-2014,365 dias,"Portugal, Vila Real, Vila Real",Artigo 258.º do Código dos Contratos Públicos,"","",,"",,1269353,Aquisição de 10.000 unidades de Bata de protecção irrecuperável,FALSE
Aquisição de 6.000 unidades de Máscara protecção profissionais irrecuperável (CDP),Ajuste Direto Regime Geral,Aquisição de bens móveis,"33140000-3, Material médico de consumo","Administração Regional de Saúde do Norte, I. P. (503135593)",BASTOS VIEGAS S A - BESLEASING E FACTORING   (500042772),"0,00 €",21-08-2014,07-08-2014,365 dias,"Portugal, Vila Real, Vila Real",Artigo 258.º do Código dos Contratos Públicos,"","",,"",,1269344,Aquisição de 6.000 unidades de Máscara protecção profissionais irrecuperável (CDP),FALSE
