Objeto do Contrato,Tipo de Procedimento,Tipo(s) de Contrato,CPVs,Entidade(s) Adjudicante(s),Entidade(s) Adjudicatária(s),Preço Contratual,Data de Publicação,Data de Celebração do Contrato,Prazo de Execução,Local de Execução,Fundamentação,Data de Fecho do Contrato,Preço Total Efetivo,Causas das Alterações ao Prazo,Causas das Alterações ao Preço,Estado,N.º registo do Acordo Quadro,Descrição do Acordo Quadro,Procedimento Centralizado
CALHAS TECNICAS,Ajuste Direto Regime Geral,Aquisição de bens móveis,"39300000-5, Equipamento diverso","Centro Hospitalar Tondela-Viseu, E. P. E. (509822940)",AIR LIQUIDE MEDICINAL (501576436),"42.000,00 €",07-05-2015,09-06-2014,1 dias,"Portugal, Viseu, Viseu","Artigo 20.º, n.º 1, alínea a) do Código dos Contratos Públicos",,,,,,Não aplicável.,Não aplicável.,FALSE
ALUGUER DE EQUIPAMENTOS VENTILAÇÃO NÃO INVASIVA,Ajuste Direto Regime Geral,Aquisição de bens móveis,"42520000-7, Equipamento de ventilação","Centro Hospitalar Tondela-Viseu, E. P. E. (509822940)","Vital Aire, S.A. (509681840)","5.580,00 €",06-05-2015,16-03-2015,1 dias,"Portugal, Viseu, Viseu","Artigo 20.º, n.º 1, alínea a) do Código dos Contratos Públicos",,,,,,Não aplicável.,Não aplicável.,FALSE
REPARAÇÃO DE ECÓGRAFO GE,Ajuste Direto Regime Geral,Aquisição de serviços,"50421000-2, Serviços de reparação e manutenção de equipamento médico","Centro Hospitalar Tondela-Viseu, E. P. E. (509822940)","GENERAL ELECTRIC PORTUGUESA, (500357129)","5.703,33 €",05-05-2015,29-04-2015,1 dias,"Portugal, Viseu, Viseu","Artigo 24.º, n.º 1, alínea e) do Código dos Contratos Públicos",,,,,,Não aplicável.,Não aplicável.,FALSE
RECONVERSÃO DE TRÊS CHILLERS CARRIER/REPARAÇÃO DE TRÊS COMPRESSORES,Ajuste Direto Regime Geral,Aquisição de serviços,"50531300-9, Serviços de reparação e manutenção de compressores","Centro Hospitalar Tondela-Viseu, E. P. E. (509822940)","ARCLASSE - SERVIÇO TOTAL DE CLIMATIZAÇÃO, S.A. (502027037)","28.696,04 €",04-05-2015,23-01-2015,1 dias,"Portugal, Viseu, Viseu","Artigo 20.º, n.º 1, alínea a) do Código dos Contratos Públicos",,,,,,Não aplicável.,Não aplicável.,FALSE
ECOGRAFO TECNICAS DE OFTALMOLOGIA,Ajuste Direto Regime Geral,Aquisição de bens móveis,"33122000-1, Equipamento oftalmológico","Centro Hospitalar Tondela-Viseu, E. P. E. (509822940)","AJL - OPHTHALMIC, LDA (509489907)","35.000,00 €",04-05-2015,24-02-2015,1 dias,"Portugal, Viseu, Viseu","Artigo 20.º, n.º 1, alínea a) do Código dos Contratos Públicos",,,,,,Não aplicável.,Não aplicável.,FALSE
SISTEMA DE ABERTURA DE PORTÃO DE GARAGEM,Ajuste Direto Regime Geral,Aquisição de bens móveis,"35125000-6, Sistema de vigilância","Centro Hospitalar Tondela-Viseu, E. P. E. (509822940)","BIOTEC - IMPRESCINDÍVEL ALCANCE UNIPESSOAL, LDA (513337369)","5.313,00 €",04-05-2015,10-03-2015,3 dias,"Portugal, Viseu, Viseu","Artigo 20.º, n.º 1, alínea a) do Código dos Contratos Públicos",,,,,,Não aplicável.,Não aplicável.,FALSE
