Objeto do Contrato,Tipo de Procedimento,Tipo(s) de Contrato,CPVs,Entidade(s) Adjudicante(s),Entidade(s) Adjudicatária(s),Preço Contratual,Data de Publicação,Data de Celebração do Contrato,Prazo de Execução,Local de Execução,Fundamentação,Data de Fecho do Contrato,Preço Total Efetivo,Causas das Alterações ao Prazo,Causas das Alterações ao Preço,Estado,N.º registo do Acordo Quadro,Descrição do Acordo Quadro,Procedimento Centralizado
Aquisição de Seringas de 25G para o Programa Troca de Seringas,Ao abrigo de acordo-quadro (art.º 259.º),Aquisição de bens móveis,"33141310-6, Seringas","SPMS- Serviços Partilhados do M. da Saúde, E.P.E. (509540716)","PERGUT - HELLER FACTORING PORTUGUESA, S.A.     (501799729)","798,00 €",10-08-2017,28-07-2017,60 dias,Portugal,Artigo 259.º do Código dos Contratos Públicos,"","","",,,1341769,"ACORDO QUADRO PARA FORNECIMENTO DE SERINGAS, AGULHAS E CONTENTORES ÀS INSTITUIÇÕES E SERVIÇOS DO SERVIÇO NACIONAL DE SAÚDE PROGRAMA DE CONCURSO",FALSE
Aquisição de Sacos para distribuição dos kits do Programa de Troca de Seringas,Ajuste Direto Regime Geral,Aquisição de bens móveis,"18930000-7, Sacas e sacos","SPMS- Serviços Partilhados do M. da Saúde, E.P.E. (509540716)","Dinoarte - Serigrafia e Publicidade, Lda. (502735856)","22.400,00 €",10-08-2017,31-07-2017,153 dias,Portugal,"Artigo 20.º, n.º 1, alínea a) do Código dos Contratos Públicos",29-12-2017,"22.400,00 €","",,,Não aplicável.,Não aplicável.,FALSE
Aquisição de serviços e bens para reparação de equipamento,Ajuste Direto Regime Geral,Aquisição de serviços,"50000000-5, Serviços de reparação e manutenção","SPMS - Serviços Partilhados do Ministério da Saúde, E. P. E. (509540716)","MAXIGLOBAL - EQUIPAMENTOS E SERVIÇOS DE INFORMÁTICA, S.A. (504320882)","8.910,00 €",08-08-2017,31-07-2017,60 dias,Portugal,"Artigo 20.º, n.º 1, alínea a) do Código dos Contratos Públicos",30-09-2017,"8.910,00 €","",,,Não aplicável.,Não aplicável.,FALSE
"Aquisição de serviços de conceção, desenvolvimento e manutenção aplicacional e configuração de soluções baseadas em packages, tecnologias Oracle ERP",Ao abrigo de acordo-quadro (art.º 259.º),Aquisição de serviços,"72500000-0, Serviços relacionados com a informática","SPMS - Serviços Partilhados do Ministério da Saúde, E. P. E. (509540716)",TimesStamp- Sistemas de Informação (506360237),"297.608,00 €",08-08-2017,07-07-2017,539 dias,Portugal,Artigo 259.º do Código dos Contratos Públicos,29-12-2017,"297.608,00 €","",,,1423482,CELEBRAÇÃO DE ACORDO QUADRO PARA PRESTAÇÃO DE SERVIÇOS TIC E INTEROPERABILIDADE NA ÁREA DA SAÚDE,FALSE
Aquisição de serviços de utilização da aplicação de multibanco File Transfer,Ajuste Direto Regime Geral,Aquisição de serviços<br/>Aquisição de bens móveis,"48210000-3, Pacote de software para ligações em rede","SPMS - Serviços Partilhados do Ministério da Saúde, E. P. E. (509540716)",SIBS - FORWARD PAYMENT SOLUTIONS (505107546),"4.748,00 €",08-08-2017,04-07-2017,1095 dias,Portugal,"Artigo 20.º, n.º 1, alínea a) do Código dos Contratos Públicos","","","",,,Não aplicável.,Não aplicável.,FALSE
"Aquisição de serviços de manutenção corretiva, evolutiva e de integrações no âmbito da plataforma SI.VIDA",Concurso público,Aquisição de serviços,"72510000-3, Serviços de gestão relacionados com a informática","SPMS - Serviços Partilhados do Ministério da Saúde, E. P. E. (509540716)",Altran Portugal S.A. (504272179),"59.540,40 €",08-08-2017,21-06-2017,600 dias,Portugal,"Artigo 21.º, n.º 1, alínea b) do Código dos Contratos Públicos","","","",,,Não aplicável.,Não aplicável.,FALSE
Aquisição de serviços de custódia de gestão de arquivos,Ajuste Direto Regime Geral,Aquisição de serviços,"79995100-6, Serviços de arquivo","SPMS - Serviços Partilhados do Ministério da Saúde, E. P. E. (509540716)","Safebox - Gestão e Custódia de Arquivos, S.A. (506360717)","7.493,00 €",08-08-2017,13-07-2017,710 dias,Portugal,"Artigo 20.º, n.º 1, alínea a) do Código dos Contratos Públicos","","","",,,Não aplicável.,Não aplicável.,FALSE
Aquisição de serviços de auditoria ás redes locais das entidades do Sistema Nacional de Saúde (SNS),Ajuste Direto Regime Geral,Aquisição de serviços,"72810000-1, Serviços de auditoria informática","SPMS- Serviços Partilhados do M. da Saúde, E.P.E. (509540716)","NOS Comunicações, S.A. (502604751)","74.990,00 €",01-08-2017,20-02-2017,365 dias,Portugal,"Artigo 20.º, n.º 1, alínea a) do Código dos Contratos Públicos",31-12-2017,"74.990,00 €","",,,Não aplicável.,Não aplicável.,FALSE
"Aquisição de serviços de manutenção preventiva e reativa das instalações (UPS, AC, Incêndio, controlo de acessos, Q. Elétricos) da SPMS,EPE",Ajuste Direto Regime Geral,Aquisição de serviços,"50700000-2, Serviços de reparação e manutenção de equipamento em edifícios","SPMS - Serviços Partilhados do Ministério da Saúde, E. P. E. (509540716)","Piferdal - Instalações Especiais, Lda (508850339)","18.950,00 €",01-08-2017,22-06-2017,365 dias,Portugal,"Artigo 20.º, n.º 1, alínea a) do Código dos Contratos Públicos","","","",,,Não aplicável.,Não aplicável.,FALSE
Execução de empreitada para restruturação das salas de formação e criação de uma zona de credenciação,Ajuste Direto Regime Geral,Empreitadas de obras públicas,"45259000-7, Reparação e manutenção de instalações","SPMS- Serviços Partilhados do M. da Saúde, E.P.E. (509540716)","SOCIDIRECT - CONSTRUÇÕES, LDA (505209470)","148.500,00 €",01-08-2017,09-06-2017,202 dias,Portugal,"Artigo 19.º, alínea a) do Código dos Contratos Públicos","","148.500,00 €",A conclusão dos trabalhos ocorreu antes do previsto,,,Não aplicável.,Não aplicável.,FALSE
Aquisição de serviços de análise forense de disco rígido,Ajuste Direto Regime Geral,Aquisição de serviços,"72222300-0, Serviços relacionados com as tecnologias da informação","SPMS - Serviços Partilhados do Ministério da Saúde, E. P. E. (509540716)","DRC- DATA RECOVER CENTER, LDA (502321660)","9.980,00 €",01-08-2017,20-06-2017,30 dias,Portugal,"Artigo 20.º, n.º 1, alínea a) do Código dos Contratos Públicos",30-06-2017,"9.980,00 €","",,,Não aplicável.,Não aplicável.,FALSE
Aquisição de serviços de desenvolvimento e manutenção aplicacional - Acordos Internacionais,Ao abrigo de acordo-quadro (art.º 259.º),Aquisição de serviços,"72500000-0, Serviços relacionados com a informática","SPMS - Serviços Partilhados do Ministério da Saúde, E. P. E. (509540716)",Altran Portugal S.A. (504272179),"157.148,88 €",01-08-2017,26-06-2017,450 dias,Portugal,Artigo 259.º do Código dos Contratos Públicos,"","","",,,1950010,Acordo quadro para Prestação de Serviços de Consultadoria na área da Saúde e Segurança   às Instituições e Serviços do Serviço Nacional de Saúde,FALSE
Aquisição de serviços de consultoria em Recursos Humanos e Vencimentos (RHV),Ajuste Direto Regime Geral,Aquisição de serviços,"72500000-0, Serviços relacionados com a informática","SPMS - Serviços Partilhados do Ministério da Saúde, E. P. E. (509540716)","DECUNIFY ­ SOLUÇÕES DE COMUNICAÇÕES, S.A. (504889893)","45.600,00 €",01-08-2017,23-06-2017,365 dias,Portugal,"Artigo 20.º, n.º 1, alínea a) do Código dos Contratos Públicos","","","",,,Não aplicável.,Não aplicável.,FALSE
