Objeto do Contrato,Tipo de Procedimento,Tipo(s) de Contrato,CPVs,Entidade(s) Adjudicante(s),Entidade(s) Adjudicatária(s),Preço Contratual,Data de Publicação,Data de Celebração do Contrato,Prazo de Execução,Local de Execução,Fundamentação,Data de Fecho do Contrato,Preço Total Efetivo,Causas das Alterações ao Prazo,Causas das Alterações ao Preço,Estado,N.º registo do Acordo Quadro,Descrição do Acordo Quadro,Procedimento Centralizado
Aquisição de medicamentos,Ajuste Direto Regime Geral,Aquisição de bens móveis,"33000000-0, Equipamento médico, medicamentos e produtos para cuidados pessoais","Administração Regional de Saúde do Algarve, I.P. (503148709)",Actavis A S Sucursal (980334934),"945,00 €",26-06-2012,11-06-2012,180 dias,"Portugal, Faro, Faro","Artigo 24.º, n.º 1, alínea e) do Código dos Contratos Públicos","","",,"",,Não aplicável.,Não aplicável.,
Aquisição de Medicamentos,Ajuste Direto Regime Geral,Aquisição de bens móveis,"33000000-0, Equipamento médico, medicamentos e produtos para cuidados pessoais","Administração Regional de Saúde do Algarve, I.P. (503148709)","Bene Farmacêutica, Lda (508735696)","885,00 €",25-06-2012,18-06-2012,5 dias,"Portugal, Faro, Faro","Artigo 24.º, n.º 1, alínea e) do Código dos Contratos Públicos",15-10-2012,"60,06 €",,Quantidades adquiridas,,Não aplicável.,Não aplicável.,
Reagente Grupo AB0/Rh Confirmatório,Ajuste Direto Regime Geral,Aquisição de bens móveis,"33696200-7, Reagentes para análises ao sangue","Administração Regional de Saúde do Algarve, I.P. (503148709)","Grifols Portugal Produtos Farmacêuticos Hospitalares, Lda (502041285)","1.120,00 €",25-06-2012,22-06-2012,2 dias,"Portugal, Faro, Faro","Artigo 24.º, n.º 1, alínea e) do Código dos Contratos Públicos","","",,"",,Não aplicável.,Não aplicável.,
Aquisição de Reagentes para LRSP,Ajuste Direto Regime Geral,Aquisição de bens móveis,"33696200-7, Reagentes para análises ao sangue","Administração Regional de Saúde do Algarve, I.P. (503148709)","Abbott Laboratórios, Lda (500006148)","8.530,00 €",25-06-2012,22-06-2012,3 dias,"Portugal, Faro, Faro","Artigo 24.º, n.º 1, alínea e) do Código dos Contratos Públicos","","",,"",,Não aplicável.,Não aplicável.,
MATERIAL DE OSTOMIA,Ajuste Direto Regime Geral,Aquisição de bens móveis,"33140000-3, Material médico de consumo","Administração Regional de Saúde do Algarve, I.P. (503148709)",SPC South Point Care Especialidades Farmacêuticas Lda. (508284872),"255,90 €",22-06-2012,21-06-2012,2 dias,"Portugal, Faro, Faro","Artigo 24.º, n.º 1, alínea e) do Código dos Contratos Públicos",26-06-2012,"255,90 €",,"",,Não aplicável.,Não aplicável.,
Aquisição de medicamentos,Ajuste Direto Regime Geral,Aquisição de bens móveis,"33000000-0, Equipamento médico, medicamentos e produtos para cuidados pessoais","Administração Regional de Saúde do Algarve, I.P. (503148709)","Labesfal - Laboratórios Almiro, S.A. (501169580)","8.684,42 €",21-06-2012,18-06-2012,180 dias,"Portugal, Faro, Faro","Artigo 24.º, n.º 1, alínea e) do Código dos Contratos Públicos",05-07-2012,"1.239,40 €",,Quantidades adquiridas,,Não aplicável.,Não aplicável.,
Aquisição de Medicamentos,Ajuste Direto Regime Geral,Aquisição de bens móveis,"33000000-0, Equipamento médico, medicamentos e produtos para cuidados pessoais","Administração Regional de Saúde do Algarve, I.P. (503148709)","Laboratórios Atral, S.A. (500162085)","912,00 €",21-06-2012,14-06-2012,180 dias,"Portugal, Faro, Faro","Artigo 24.º, n.º 1, alínea e) do Código dos Contratos Públicos",22-10-2012,"456,00 €",,Quantidades adquiridas,,Não aplicável.,Não aplicável.,
