Objeto do Contrato,Tipo de Procedimento,Tipo(s) de Contrato,CPVs,Entidade(s) Adjudicante(s),Entidade(s) Adjudicatária(s),Preço Contratual,Data de Publicação,Data de Celebração do Contrato,Prazo de Execução,Local de Execução,Fundamentação,Data de Fecho do Contrato,Preço Total Efetivo,Causas das Alterações ao Prazo,Causas das Alterações ao Preço,Estado,N.º registo do Acordo Quadro,Descrição do Acordo Quadro,Procedimento Centralizado
Prestação Serviços Médicos-Especialidade de Medicina do Trabalho,Ajuste Direto Regime Geral,Aquisição de serviços,"85121000-3, Serviços de prática médica",CHO - Centro Hospitalar do Oeste (510412009),RANDSTAD (505121247),"17.226,04 €",29-05-2015,01-06-2013,183 dias,"Portugal, Leiria, Caldas da Rainha",Artigo 258.º do Código dos Contratos Públicos,30-11-2013,"17.226,04 €",,,,Não aplicável.,Não aplicável.,FALSE
Prestação de Serviços Médicos-Qualquer Especialidade na VMER,Ajuste Direto Regime Geral,Aquisição de serviços,"85121000-3, Serviços de prática médica",CHO - Centro Hospitalar do Oeste (510412009),RANDSTAD (505121247),"80.128,45 €",29-05-2015,01-08-2013,153 dias,"Portugal, Leiria, Caldas da Rainha",Artigo 258.º do Código dos Contratos Públicos,31-12-2013,"80.128,45 €",,,,Não aplicável.,Não aplicável.,FALSE
Prestação de Serviços Médicos-Especialidade de Anestesiologia,Ajuste Direto Regime Geral,Aquisição de serviços,"85121000-3, Serviços de prática médica",CHO - Centro Hospitalar do Oeste (510412009),GS24 (507824652),"135.360,94 €",29-05-2015,01-07-2013,184 dias,"Portugal, Leiria, Caldas da Rainha",Artigo 258.º do Código dos Contratos Públicos,31-12-2013,"135.360,94 €",,,,Não aplicável.,Não aplicável.,FALSE
Prestação Serviços Médicos-Especialidade de Medicina Interna,Ajuste Direto Regime Geral,Aquisição de serviços,"85121000-3, Serviços de prática médica",CHO - Centro Hospitalar do Oeste (510412009),INSIDEPURPLE (510275940),"234.680,04 €",29-05-2015,01-08-2013,92 dias,"Portugal, Leiria, Caldas da Rainha",Artigo 258.º do Código dos Contratos Públicos,31-10-2013,"234.680,04 €",,,,Não aplicável.,Não aplicável.,FALSE
Prestação Serviços Médicos-Especialidade Gastrenterologia,Ajuste Direto Regime Geral,Aquisição de serviços,"85121000-3, Serviços de prática médica",CHO - Centro Hospitalar do Oeste (510412009),INSIDEPURPLE (510275940),"7.200,00 €",29-05-2015,01-07-2013,184 dias,"Portugal, Leiria, Caldas da Rainha",Artigo 258.º do Código dos Contratos Públicos,31-12-2013,"7.200,00 €",,,,Não aplicável.,Não aplicável.,FALSE
Prestação Serviços Médicos-Especialidade de Ortopedia,Ajuste Direto Regime Geral,Aquisição de serviços,"85121000-3, Serviços de prática médica",CHO - Centro Hospitalar do Oeste (510412009),SUCESSO24 HORAS (507328310),"137.048,79 €",29-05-2015,01-06-2013,183 dias,"Portugal, Leiria, Caldas da Rainha",Artigo 258.º do Código dos Contratos Públicos,30-11-2013,"137.048,79 €",,,,Não aplicável.,Não aplicável.,FALSE
Prestação de Serviços Médicos - Especialidade de Pediatria,Ajuste Direto Regime Geral,Aquisição de serviços,"85121000-3, Serviços de prática médica",CHO - Centro Hospitalar do Oeste (510412009),HELPED (506069010),"139.352,40 €",29-05-2015,15-09-2013,107 dias,"Portugal, Leiria, Caldas da Rainha",Artigo 258.º do Código dos Contratos Públicos,31-12-2013,"139.352,40 €",,,,Não aplicável.,Não aplicável.,FALSE
Prestação serviços médicos - especialidade medicina geral e familiar,Ajuste Direto Regime Geral,Aquisição de serviços,"85100000-0, Serviços de saúde",CHO - Centro Hospitalar do Oeste (510412009),INSIDEPURPLE (510275940),"14.520,00 €",29-05-2015,01-09-2013,122 dias,"Portugal, Leiria, Caldas da Rainha",Artigo 258.º do Código dos Contratos Públicos,31-12-2013,"14.520,00 €",,,,Não aplicável.,Não aplicável.,FALSE
Prestação Serviços Médicos-Especialidade Psiquiatria Adultos,Ajuste Direto Regime Geral,Aquisição de serviços,"85121000-3, Serviços de prática médica",Centro Hospitalar do Oeste (510412009),MEDIPEOPLE (508543436),"7.074,12 €",29-05-2015,01-10-2013,92 dias,"Portugal, Leiria, Caldas da Rainha",Artigo 258.º do Código dos Contratos Públicos,31-12-2013,"7.074,12 €",,,,Não aplicável.,Não aplicável.,FALSE
Prestação Serviços Médicos-Especialidade de Cirurgia Geral,Ajuste Direto Regime Geral,Aquisição de serviços,"85121000-3, Serviços de prática médica",Centro Hospitalar do Oeste (510412009),GS24 (507824652),"12.775,62 €",29-05-2015,01-12-2013,31 dias,"Portugal, Leiria, Caldas da Rainha",Artigo 258.º do Código dos Contratos Públicos,31-12-2013,"12.775,62 €",,,,Não aplicável.,Não aplicável.,FALSE
Aquisição da Prestação de Serviços Médicos - Especialidade Medicina do Trabalho,Ao abrigo de acordo-quadro (art.º 258.º),Aquisição de serviços,"85121000-3, Serviços de prática médica",CHO - Centro Hospitalar do Oeste (510412009),RANDSTAD (505121247),"28.614,51 €",29-05-2015,01-03-2014,306 dias,"Portugal, Leiria, Caldas da Rainha",Artigo 258.º do Código dos Contratos Públicos,31-12-2014,"28.614,51 €",,,,454020,"CONCURSO PÚBLICO PARA A CELEBRAÇÃO DE CONTRATOS PÚBLICOS DE APROVISIONAMENTO PARA A ÁREA DA SAÚDE, COM VISTA À PRESTAÇÃO DE SERVIÇOS MÉDICOS ÀS INSTITUIÇÕES E SERVIÇOS DO SERVIÇO NACIONAL DE SAÚDE",FALSE
Aquisição da Prestação de Serviços Médicos - Especialidade Pediatria,Ao abrigo de acordo-quadro (art.º 258.º),Aquisição de serviços,"85121000-3, Serviços de prática médica",Centro Hospitalar Oeste (510412009),HELPED (506069010),"207.068,40 €",29-05-2015,01-03-2014,184 dias,"Portugal, Leiria, Caldas da Rainha",Artigo 258.º do Código dos Contratos Públicos,31-08-2014,"207.068,40 €",,,,454020,"CONCURSO PÚBLICO PARA A CELEBRAÇÃO DE CONTRATOS PÚBLICOS DE APROVISIONAMENTO PARA A ÁREA DA SAÚDE, COM VISTA À PRESTAÇÃO DE SERVIÇOS MÉDICOS ÀS INSTITUIÇÕES E SERVIÇOS DO SERVIÇO NACIONAL DE SAÚDE",FALSE
Aquisição da Prestação de Serviços Médicos - Especialidade Psiquiatria,Ao abrigo de acordo-quadro (art.º 258.º),Aquisição de serviços,"85121000-3, Serviços de prática médica",Centro Hospitalar Oeste (510412009),MEDIPEOPLE (508543436),"12.708,00 €",29-05-2015,11-02-2014,142 dias,"Portugal, Leiria, Caldas da Rainha",Artigo 258.º do Código dos Contratos Públicos,31-07-2014,"12.708,00 €",,,,454020,"CONCURSO PÚBLICO PARA A CELEBRAÇÃO DE CONTRATOS PÚBLICOS DE APROVISIONAMENTO PARA A ÁREA DA SAÚDE, COM VISTA À PRESTAÇÃO DE SERVIÇOS MÉDICOS ÀS INSTITUIÇÕES E SERVIÇOS DO SERVIÇO NACIONAL DE SAÚDE",FALSE
Aquisição da Prestação de Serviços Médicos - Especialidade Anestesiologia,Ao abrigo de acordo-quadro (art.º 258.º),Aquisição de serviços,"85121000-3, Serviços de prática médica",Centro Hospitalar Oeste (510412009),GS24 (507824652),"244.613,60 €",29-05-2015,01-02-2014,335 dias,"Portugal, Leiria, Caldas da Rainha",Artigo 258.º do Código dos Contratos Públicos,31-12-2014,"244.613,60 €",,,,454020,"CONCURSO PÚBLICO PARA A CELEBRAÇÃO DE CONTRATOS PÚBLICOS DE APROVISIONAMENTO PARA A ÁREA DA SAÚDE, COM VISTA À PRESTAÇÃO DE SERVIÇOS MÉDICOS ÀS INSTITUIÇÕES E SERVIÇOS DO SERVIÇO NACIONAL DE SAÚDE",FALSE
Aquisição da Prestação de Serviços Médicos - Especialidade Oftalmologia,Ajuste Direto Regime Geral,Aquisição de serviços,"85121000-3, Serviços de prática médica",Centro Hospitalar Oeste (510412009),HELPED (506069010),"18.720,00 €",29-05-2015,17-01-2014,349 dias,"Portugal, Leiria, Caldas da Rainha",Artigo 258.º do Código dos Contratos Públicos,31-12-2014,"18.720,00 €",,,,Não aplicável.,Não aplicável.,FALSE
Aquisição da Prestação de Serviços Médicos - Especialidade Medicina Interna,Ao abrigo de acordo-quadro (art.º 258.º),Aquisição de serviços,"85121000-3, Serviços de prática médica",CHO - Centro Hospitalar do Oeste (510412009),INSIDEPURPLE (510275940),"473.243,40 €",28-05-2015,01-04-2014,122 dias,"Portugal, Leiria, Caldas da Rainha",Artigo 258.º do Código dos Contratos Públicos,31-07-2014,"473.243,40 €",,,,454020,"CONCURSO PÚBLICO PARA A CELEBRAÇÃO DE CONTRATOS PÚBLICOS DE APROVISIONAMENTO PARA A ÁREA DA SAÚDE, COM VISTA À PRESTAÇÃO DE SERVIÇOS MÉDICOS ÀS INSTITUIÇÕES E SERVIÇOS DO SERVIÇO NACIONAL DE SAÚDE",FALSE
Aquisição da Prestação de Serviços Médicos - Especialidade Cirurgia Geral,Ao abrigo de acordo-quadro (art.º 258.º),Aquisição de serviços,"85121000-3, Serviços de prática médica",CHO - Centro Hospitalar do Oeste (510412009),GS24 (507824652),"173.992,41 €",28-05-2015,01-04-2014,275 dias,"Portugal, Leiria, Caldas da Rainha",Artigo 258.º do Código dos Contratos Públicos,"","",,,,454020,"CONCURSO PÚBLICO PARA A CELEBRAÇÃO DE CONTRATOS PÚBLICOS DE APROVISIONAMENTO PARA A ÁREA DA SAÚDE, COM VISTA À PRESTAÇÃO DE SERVIÇOS MÉDICOS ÀS INSTITUIÇÕES E SERVIÇOS DO SERVIÇO NACIONAL DE SAÚDE",FALSE
Aquisição da Prestação de Serviços Médicos - Qualquer Especialidade VMER,Ao abrigo de acordo-quadro (art.º 258.º),Aquisição de serviços,"85121000-3, Serviços de prática médica",CHO - Centro Hospitalar do Oeste (510412009),RANDSTAD (505121247),"145.525,50 €",28-05-2015,07-04-2014,275 dias,"Portugal, Leiria, Caldas da Rainha",Artigo 258.º do Código dos Contratos Públicos,31-12-2014,"145.525,50 €",,,,454020,"CONCURSO PÚBLICO PARA A CELEBRAÇÃO DE CONTRATOS PÚBLICOS DE APROVISIONAMENTO PARA A ÁREA DA SAÚDE, COM VISTA À PRESTAÇÃO DE SERVIÇOS MÉDICOS ÀS INSTITUIÇÕES E SERVIÇOS DO SERVIÇO NACIONAL DE SAÚDE",FALSE
Aquisição da Prestação de Serviços Médicos - Especialidade Ortopedia,Ao abrigo de acordo-quadro (art.º 258.º),Aquisição de serviços,"85121000-3, Serviços de prática médica",CHO - Centro Hospitalar do Oeste (510412009),"GS24, SA (507824652)","14.040,00 €",28-05-2015,01-04-2014,275 dias,"Portugal, Leiria, Caldas da Rainha",Artigo 258.º do Código dos Contratos Públicos,31-12-2014,"14.040,00 €",,,,454020,"CONCURSO PÚBLICO PARA A CELEBRAÇÃO DE CONTRATOS PÚBLICOS DE APROVISIONAMENTO PARA A ÁREA DA SAÚDE, COM VISTA À PRESTAÇÃO DE SERVIÇOS MÉDICOS ÀS INSTITUIÇÕES E SERVIÇOS DO SERVIÇO NACIONAL DE SAÚDE",FALSE
Pasta Celulósica,Ajuste Direto Regime Geral,Aquisição de bens móveis,"33198000-4, Artigos de papel para uso hospitalar",Centro Hospitalar do Oeste (510412009),"Exaclean, Lda (508758190)","2.145,00 €",28-05-2015,26-03-2014,275 dias,"Portugal, Leiria, Caldas da Rainha","Artigo 20.º, n.º 1, alínea a) do Código dos Contratos Públicos",31-12-2014,"2.145,00 €",,,,Não aplicável.,Não aplicável.,FALSE
Aquisição da Prestação de Serviços Médicos - Especialidade Ortopedia,Ao abrigo de acordo-quadro (art.º 258.º),Aquisição de serviços,"85121000-3, Serviços de prática médica",CHO - Centro Hospitalar do Oeste (510412009),HELPED (506069010),"202.427,50 €",28-05-2015,01-04-2014,275 dias,"Portugal, Leiria, Caldas da Rainha",Artigo 258.º do Código dos Contratos Públicos,31-12-2014,"202.427,50 €",,,,454020,"CONCURSO PÚBLICO PARA A CELEBRAÇÃO DE CONTRATOS PÚBLICOS DE APROVISIONAMENTO PARA A ÁREA DA SAÚDE, COM VISTA À PRESTAÇÃO DE SERVIÇOS MÉDICOS ÀS INSTITUIÇÕES E SERVIÇOS DO SERVIÇO NACIONAL DE SAÚDE",FALSE
Shampoo,Ajuste Direto Regime Geral,Aquisição de bens móveis,"33700000-7, Produtos para cuidados pessoais",Centro Hospitalar do Oeste (510412009),José Carreira Silva (506008487),"36,80 €",28-05-2015,26-03-2014,275 dias,"Portugal, Leiria, Caldas da Rainha","Artigo 20.º, n.º 1, alínea a) do Código dos Contratos Públicos",31-12-2014,"36,80 €",,,,Não aplicável.,Não aplicável.,FALSE
Artigos de Higiene,Ajuste Direto Regime Geral,Aquisição de bens móveis,"18937000-6, Sacas para embalagem de mercadorias",Centro Hospitalar do Oeste (510412009),José Carreira Silva (506008487),"20,40 €",28-05-2015,26-03-2014,275 dias,"Portugal, Leiria, Caldas da Rainha","Artigo 20.º, n.º 1, alínea a) do Código dos Contratos Públicos",31-12-2014,"20,40 €",,,,Não aplicável.,Não aplicável.,FALSE
Pente Plástico,Ajuste Direto Regime Geral,Aquisição de bens móveis,"33711620-9, Pentes",Centro Hospitalar do Oeste (510412009),"Exaclean, Lda (508758190)","165,00 €",28-05-2015,26-03-2014,275 dias,"Portugal, Leiria, Caldas da Rainha","Artigo 20.º, n.º 1, alínea a) do Código dos Contratos Públicos",31-12-2014,"165,00 €",,,,Não aplicável.,Não aplicável.,FALSE
Artigos de Higiene,Ajuste Direto Regime Geral,Aquisição de bens móveis,"39831200-8, Detergentes",Centro Hospitalar do Oeste (510412009),José Carreira Silva (506008487),"270,00 €",28-05-2015,26-03-2014,275 dias,"Portugal, Leiria, Caldas da Rainha","Artigo 20.º, n.º 1, alínea a) do Código dos Contratos Públicos",31-12-2014,"270,00 €",,,,Não aplicável.,Não aplicável.,FALSE
Artigos de Higiene,Ajuste Direto Regime Geral,Aquisição de bens móveis,"39224000-8, Vassouras, escovas e outros artigos de vários tipos",Centro Hospitalar do Oeste (510412009),José Carreira Silva (506008487),"102,00 €",28-05-2015,26-03-2014,275 dias,"Portugal, Leiria, Caldas da Rainha","Artigo 20.º, n.º 1, alínea a) do Código dos Contratos Públicos",31-12-2014,"102,00 €",,,,Não aplicável.,Não aplicável.,FALSE
Aquisição da Prestação de Serviços Médicos - Especialidade Gastrenterologia,Ao abrigo de acordo-quadro (art.º 258.º),Aquisição de serviços,"85121000-3, Serviços de prática médica",CHO - Centro Hospitalar do Oeste (510412009),"Insidepurple, Lda. (510275940)","13.200,00 €",28-05-2015,01-02-2014,333 dias,"Portugal, Leiria, Caldas da Rainha",Artigo 258.º do Código dos Contratos Públicos,31-12-2014,"13.200,00 €",,,,454020,"CONCURSO PÚBLICO PARA A CELEBRAÇÃO DE CONTRATOS PÚBLICOS DE APROVISIONAMENTO PARA A ÁREA DA SAÚDE, COM VISTA À PRESTAÇÃO DE SERVIÇOS MÉDICOS ÀS INSTITUIÇÕES E SERVIÇOS DO SERVIÇO NACIONAL DE SAÚDE",FALSE
Artigos de Higiene,Ajuste Direto Regime Geral,Aquisição de bens móveis,"39224000-8, Vassouras, escovas e outros artigos de vários tipos",Centro Hospitalar do Oeste (510412009),"Exaclean, Lda (508758190)","61,10 €",28-05-2015,26-03-2014,275 dias,"Portugal, Leiria, Caldas da Rainha","Artigo 20.º, n.º 1, alínea a) do Código dos Contratos Públicos",31-12-2014,"61,10 €",,,,Não aplicável.,Não aplicável.,FALSE
Artigos de Higiene,Ajuste Direto Regime Geral,Aquisição de bens móveis,"39525800-6, Panos de limpeza",Centro Hospitalar do Oeste (510412009),"Ignissol, Lda (508613248)","35,00 €",28-05-2015,26-03-2014,275 dias,"Portugal, Leiria, Caldas da Rainha","Artigo 20.º, n.º 1, alínea a) do Código dos Contratos Públicos",31-12-2014,"35,00 €",,,,Não aplicável.,Não aplicável.,FALSE
Execução trabalhos de remodelação no Serviço Internamento de Pediatria UTV,Ajuste Direto Regime Geral,Aquisição de serviços,"50000000-5, Serviços de reparação e manutenção",CHO - Centro Hospitalar do Oeste (510412009),BETONIT (504631080),"5.635,47 €",28-05-2015,29-01-2014,90 dias,"Portugal, Leiria, Caldas da Rainha","Artigo 20.º, n.º 1, alínea a) do Código dos Contratos Públicos",05-05-2014,"5.635,47 €",,,,Não aplicável.,Não aplicável.,FALSE
Artigos de Higiene,Ajuste Direto Regime Geral,Aquisição de bens móveis,"33711810-8, Creme de barbear",Centro Hospitalar do Oeste (510412009),Exaclean (508758190),"254,00 €",28-05-2015,26-03-2014,275 dias,"Portugal, Leiria, Caldas da Rainha","Artigo 20.º, n.º 1, alínea a) do Código dos Contratos Públicos",31-12-2014,"254,00 €",,,,Não aplicável.,Não aplicável.,FALSE
Artigos de Higiene,Ajuste Direto Regime Geral,Aquisição de bens móveis,"39831200-8, Detergentes",Centro Hospitalar do Oeste (510412009),"Exaclean, Lda (508758190)","690,10 €",28-05-2015,26-03-2014,275 dias,"Portugal, Leiria, Caldas da Rainha","Artigo 20.º, n.º 1, alínea a) do Código dos Contratos Públicos",31-12-2014,"690,10 €",,,,Não aplicável.,Não aplicável.,FALSE
Execução trabalhos área transferência lavandaria,Ajuste Direto Regime Geral,Aquisição de serviços,"71000000-8, Serviços de arquitectura, construção, engenharia e inspecção",CHO - Centro Hospitalar do Oeste (510412009),FIALHO & PAULO (500352623),"11.966,80 €",28-05-2015,29-01-2014,20 dias,"Portugal, Leiria, Caldas da Rainha","Artigo 20.º, n.º 1, alínea a) do Código dos Contratos Públicos",24-10-2014,"11.966,80 €",,,,Não aplicável.,Não aplicável.,FALSE
Artigos de Higiene,Ajuste Direto Regime Geral,Aquisição de bens móveis,"39831200-8, Detergentes",Centro Hospitalar do Oeste (510412009),"Exaclean, Lda (508758190)","202,28 €",28-05-2015,26-03-2014,275 dias,"Portugal, Leiria, Caldas da Rainha","Artigo 20.º, n.º 1, alínea a) do Código dos Contratos Públicos",31-12-2014,"202,28 €",,,,Não aplicável.,Não aplicável.,FALSE
Artigos de Higiene,Ajuste Direto Regime Geral,Aquisição de bens móveis,"39831200-8, Detergentes",Centro Hospitalar do Oeste (510412009),"Exaclean, Lda (508758190)","537,00 €",28-05-2015,26-03-2014,275 dias,"Portugal, Leiria, Caldas da Rainha","Artigo 20.º, n.º 1, alínea a) do Código dos Contratos Públicos",31-12-2014,"537,00 €",,,,Não aplicável.,Não aplicável.,FALSE
Artigos de Higiene,Ajuste Direto Regime Geral,Aquisição de bens móveis,"39831200-8, Detergentes",Centro Hospitalar do Oeste (510412009),"Exaclean, Lda (508758190)","28,40 €",28-05-2015,26-03-2014,275 dias,"Portugal, Leiria, Caldas da Rainha","Artigo 20.º, n.º 1, alínea a) do Código dos Contratos Públicos",31-12-2014,"28,40 €",,,,Não aplicável.,Não aplicável.,FALSE
Artigos de Higiene,Ajuste Direto Regime Geral,Aquisição de bens móveis,"39137000-1, Amaciadores de água",Centro Hospitalar do Oeste (510412009),José Carreira Silva (506008487),"12,99 €",28-05-2015,26-03-2014,275 dias,"Portugal, Leiria, Caldas da Rainha","Artigo 20.º, n.º 1, alínea a) do Código dos Contratos Públicos",31-12-2014,"12,99 €",,,,Não aplicável.,Não aplicável.,FALSE
Artigos de Higiene,Ajuste Direto Regime Geral,Aquisição de bens móveis,"33198000-4, Artigos de papel para uso hospitalar",Centro Hospitalar do Oeste (510412009),"Ignissol, Lda (508613248)","273,75 €",28-05-2015,26-03-2014,275 dias,"Portugal, Leiria, Caldas da Rainha","Artigo 20.º, n.º 1, alínea a) do Código dos Contratos Públicos",31-12-2014,"273,75 €",,,,Não aplicável.,Não aplicável.,FALSE
Artigos de Higiene,Ajuste Direto Regime Geral,Aquisição de bens móveis,"33198000-4, Artigos de papel para uso hospitalar",Centro Hospitalar do Oeste (510412009),"Ignissol, Lda (508613248)","3.580,00 €",28-05-2015,26-03-2014,275 dias,"Portugal, Leiria, Caldas da Rainha","Artigo 20.º, n.º 1, alínea a) do Código dos Contratos Públicos",31-12-2014,"3.580,00 €",,,,Não aplicável.,Não aplicável.,FALSE
Artigos de Higiene,Ajuste Direto Regime Geral,Aquisição de bens móveis,"33198000-4, Artigos de papel para uso hospitalar",Centro Hospitalar do Oeste (510412009),Exaclean (508758190),"364,32 €",28-05-2015,26-03-2014,275 dias,"Portugal, Leiria, Caldas da Rainha","Artigo 20.º, n.º 1, alínea a) do Código dos Contratos Públicos",31-12-2014,"364,32 €",,,,Não aplicável.,Não aplicável.,FALSE
Artigos de Higiene,Ajuste Direto Regime Geral,Aquisição de bens móveis,"33763000-6, Toalhas de mão de papel",Centro Hospitalar do Oeste (510412009),José Carreira da Silva Costa (506008487),"148,50 €",28-05-2015,26-03-2014,275 dias,"Portugal, Leiria, Caldas da Rainha","Artigo 20.º, n.º 1, alínea a) do Código dos Contratos Públicos",31-12-2014,"148,50 €",,,,Não aplicável.,Não aplicável.,FALSE
Manutenção/Assistência ao Equipamento de Imagiologia_CR + TV,Ajuste Direto Regime Geral,Aquisição de serviços,"71356200-0, Serviços de assistência técnica",Centro Hospitalar do Oeste (510412009),"Philips Portuguesa, Lda (500216843)","5.921,28 €",28-05-2015,07-11-2013,365 dias,"Portugal, Leiria, Caldas da Rainha","Artigo 20.º, n.º 1, alínea a) do Código dos Contratos Públicos",31-12-2014,"5.921,28 €",,,,Não aplicável.,Não aplicável.,FALSE
Prestação de Serviços Médicos _ Especialidade de Radiologia,Ajuste Direto Regime Geral,Aquisição de serviços,"85100000-0, Serviços de saúde",Centro Hospitalar do Oeste (510412009),"Randstad Clinical, Lda (505121247)","29,88 €",27-05-2015,21-10-2013,70 dias,"Portugal, Leiria, Caldas da Rainha","Artigo 20.º, n.º 1, alínea a) do Código dos Contratos Públicos",31-12-2013,"29,88 €",,,,Não aplicável.,Não aplicável.,FALSE
Execução trabalhos de remodelação no serviço de urgência - UHP,Ajuste Direto Regime Geral,Aquisição de serviços,"50000000-5, Serviços de reparação e manutenção",CHO - Centro Hospitalar do Oeste (510412009),"FIALHO & PAULO, LDA. (500352623)","4.649,00 €",27-05-2015,28-03-2014,20 dias,"Portugal, Leiria, Caldas da Rainha","Artigo 20.º, n.º 1, alínea a) do Código dos Contratos Públicos",06-06-2014,"4.649,00 €",,,,Não aplicável.,Não aplicável.,FALSE
Empreitada - Obras para instalação serviço internamento pneumologia na atual pediatria,Ajuste Direto Regime Geral,Empreitadas de obras públicas,"45454000-4, Obras de reestruturação",Centro Hospitalar do Oeste (510412009),"Fialho & Paulo, Lda. (500352623)","63.750,28 €",25-05-2015,02-06-2014,90 dias,"Portugal, Leiria, Caldas da Rainha","Artigo 19.º, alínea a) do Código dos Contratos Públicos","","",,,,Não aplicável.,Não aplicável.,FALSE
Empreitada-Remodelação do Edificio CATUS/Dispensário para Instalação da Unidade da Mulher no CHO,Ajuste Direto Regime Geral,Empreitadas de obras públicas,"45215100-8, Obras de construção de edifícios relacionados com serviços de saúde",CHO - Centro Hospitalar do Oeste (510412009),"Fialho & Paulo, Lda. (500352623)","28.310,58 €",25-05-2015,20-11-2013,30 dias,"Portugal, Leiria, Caldas da Rainha","Artigo 19.º, alínea a) do Código dos Contratos Públicos","","",,,,Não aplicável.,Não aplicável.,FALSE
Empreitada - Construção de acesso para o futuro Serviço de Pneumologia do Centro Hospitalar do Oeste,Ajuste Direto Regime Geral,Empreitadas de obras públicas,"45000000-7, Construção",CHO - Centro Hospitalar do Oeste (510412009),"Betonit - Engenharia e Construções, Lda. (504631080)","28.393,82 €",25-05-2015,29-08-2013,45 dias,"Portugal, Leiria, Caldas da Rainha","Artigo 19.º, alínea a) do Código dos Contratos Públicos","","",,,,Não aplicável.,Não aplicável.,FALSE
Execução trabalhos Reparação e Remodelação no Internamento de Ortopedia P/Cirurgia B-UTV,Ajuste Direto Regime Geral,Aquisição de serviços,"50000000-5, Serviços de reparação e manutenção",Centro Hospitalar do Oeste (510412009),"CONSTRUÇÕES LUIS JORGE, LDA (503535540)","7.448,69 €",25-05-2015,03-04-2014,20 dias,"Portugal, Leiria, Caldas da Rainha","Artigo 20.º, n.º 1, alínea a) do Código dos Contratos Públicos",31-12-2014,"7.448,69 €",,,,Não aplicável.,Não aplicável.,FALSE
Prestação Serviços Médicos - Especialidade de Oftalmologia,Ajuste Direto Regime Geral,Aquisição de serviços,"85121000-3, Serviços de prática médica",CHO - Centro Hospitalar do Oeste (510412009),HELPED (506069010),"4.050,00 €",25-05-2015,15-10-2014,78 dias,"Portugal, Leiria, Caldas da Rainha",Artigo 258.º do Código dos Contratos Públicos,31-12-2014,"4.050,00 €",,,,Não aplicável.,Não aplicável.,FALSE
Execução trabalhos Reparação Passagem Cirurgia B p/Internamento medicina A-UTV,Ajuste Direto Regime Geral,Aquisição de serviços,"50000000-5, Serviços de reparação e manutenção",Centro Hospitalar do Oeste (510412009),"CONSTRUÇÕES LUIS JORGE, LDA (503535540)","26.374,53 €",25-05-2015,21-04-2014,20 dias,"Portugal, Leiria, Caldas da Rainha","Artigo 20.º, n.º 1, alínea a) do Código dos Contratos Públicos",12-05-2014,"26.374,53 €",,,,Não aplicável.,Não aplicável.,FALSE
Execução trabalhos de remodelação da unidade cardiologia-CR,Ajuste Direto Regime Geral,Aquisição de serviços,"50000000-5, Serviços de reparação e manutenção",Centro Hospitalar do Oeste (510412009),"Fialho & Paulo, Lda. (500352623)","5.140,80 €",25-05-2015,27-05-2014,20 dias,"Portugal, Leiria, Caldas da Rainha","Artigo 20.º, n.º 1, alínea a) do Código dos Contratos Públicos",16-06-2014,"5.140,80 €",,,,Não aplicável.,Não aplicável.,FALSE
"Execução de trabalhos de remodelação na antiga ginecologia/obtetricia, para internamento da medicina A",Ajuste Direto Regime Geral,Aquisição de serviços,"50000000-5, Serviços de reparação e manutenção",CHO - Centro Hospitalar do Oeste (510412009),"CONSTRUÇÕES LUIS JORGE, LDA. (503535540)","50.645,46 €",25-05-2015,25-06-2014,60 dias,"Portugal, Leiria, Caldas da Rainha","Artigo 20.º, n.º 1, alínea a) do Código dos Contratos Públicos",05-09-2014,"50.645,46 €",,,,Não aplicável.,Não aplicável.,FALSE
"Execução de trabalhos de remodelação na antiga ginecologia/obstetricia, para implementação de técnicas pneumológicas",Ajuste Direto Regime Geral,Aquisição de serviços,"50000000-5, Serviços de reparação e manutenção",Centro Hospitalar do Oeste (510412009),"CONSTRUÇÕES LUIS JORGE, LDA (503535540)","12.391,20 €",25-05-2015,04-07-2014,60 dias,"Portugal, Leiria, Caldas da Rainha","Artigo 20.º, n.º 1, alínea a) do Código dos Contratos Públicos",05-09-2014,"12.391,20 €",,,,Não aplicável.,Não aplicável.,FALSE
Concessão de Exploração de Máquinas Automáticas de Distribuição de Bebidas e Snacks,Concurso público,Outros Tipos (Concessão de Exploração de Máquinas),"55330000-2, Serviços de cafetaria",CHO - Centro Hospitalar do Oeste (510412009),"Manuel Rui Azinhais Nabeiro, Lda (500853975)","-56.000,00 €",22-05-2015,02-06-2014,210 dias,"Portugal, Leiria, Caldas da Rainha","Artigo 20.º, n.º 1, alínea b) do Código dos Contratos Públicos",31-12-2014,"",,,,Não aplicável.,Não aplicável.,FALSE
Aquisição da Prestação de serviços de Dosimetria,Ajuste Direto Regime Geral,Aquisição de serviços,"85000000-9, Serviços de saúde e acção social",CHO - Centro Hospitalar do Oeste (510412009),"Medical Consult, S.A (504092138)","975,61 €",22-05-2015,31-12-2013,300 dias,"Portugal, Leiria, Caldas da Rainha","Artigo 20.º, n.º 1, alínea a) do Código dos Contratos Públicos",31-12-2013,"975,61 €",,,,Não aplicável.,Não aplicável.,FALSE
Prestação de Serviços Médicos-Especialidade de Oncologia Médica,Ajuste Direto Regime Geral,Aquisição de serviços,"85121000-3, Serviços de prática médica",CHO - Centro Hospitalar do Oeste (510412009),Sucesso 24 (507328310),"25.678,62 €",22-05-2015,01-07-2013,180 dias,"Portugal, Leiria, Caldas da Rainha",Artigo 258.º do Código dos Contratos Públicos,31-12-2013,"25.678,62 €",,,,Não aplicável.,Não aplicável.,FALSE
Prestação de serviços Médicos _ Especialidade de ORL,Ajuste Direto Regime Geral,Aquisição de serviços,"85121000-3, Serviços de prática médica",CHO - Centro Hospitalar do Oeste (510412009),"GS24, Lda (507824652)","36.425,22 €",22-05-2015,06-06-2013,180 dias,"Portugal, Leiria, Caldas da Rainha",Artigo 258.º do Código dos Contratos Públicos,31-12-2013,"36.425,22 €",,,,Não aplicável.,Não aplicável.,FALSE
Prestação de Serviços Médicos_Especialidade de Cardiologia,Ao abrigo de acordo-quadro (art.º 258.º),Aquisição de serviços,"85121000-3, Serviços de prática médica",CHO - Centro Hospitalar do Oeste (510412009),Randstad Clinical (505121247),"43.330,70 €",22-05-2015,01-01-2014,180 dias,"Portugal, Leiria, Caldas da Rainha",Artigo 258.º do Código dos Contratos Públicos,30-06-2014,"43.330,70 €",,,,454020,"CONCURSO PÚBLICO PARA A CELEBRAÇÃO DE CONTRATOS PÚBLICOS DE APROVISIONAMENTO PARA A ÁREA DA SAÚDE, COM VISTA À PRESTAÇÃO DE SERVIÇOS MÉDICOS ÀS INSTITUIÇÕES E SERVIÇOS DO SERVIÇO NACIONAL DE SAÚDE",FALSE
Prestação de Serviços Médicos_Especialidade de ORL,Ao abrigo de acordo-quadro (art.º 258.º),Aquisição de serviços,"85121000-3, Serviços de prática médica",Centro Hospitalar do Oeste (510412009),"GS24, S.A (507824652)","21.775,98 €",22-05-2015,29-01-2014,270 dias,"Portugal, Leiria, Caldas da Rainha",Artigo 258.º do Código dos Contratos Públicos,31-12-2014,"21.775,98 €",,,,454020,"CONCURSO PÚBLICO PARA A CELEBRAÇÃO DE CONTRATOS PÚBLICOS DE APROVISIONAMENTO PARA A ÁREA DA SAÚDE, COM VISTA À PRESTAÇÃO DE SERVIÇOS MÉDICOS ÀS INSTITUIÇÕES E SERVIÇOS DO SERVIÇO NACIONAL DE SAÚDE",FALSE
Prestação de Serviços Médicos - Especialidade de Oncologia Médica,Ao abrigo de acordo-quadro (art.º 258.º),Aquisição de serviços,"85121000-3, Serviços de prática médica",CHO - Centro Hospitalar do Oeste (510412009),"GS24, S.A (507824652)","47.423,93 €",22-05-2015,15-01-2014,365 dias,"Portugal, Leiria, Caldas da Rainha",Artigo 258.º do Código dos Contratos Públicos,31-12-2014,"47.423,93 €",,,,454020,"CONCURSO PÚBLICO PARA A CELEBRAÇÃO DE CONTRATOS PÚBLICOS DE APROVISIONAMENTO PARA A ÁREA DA SAÚDE, COM VISTA À PRESTAÇÃO DE SERVIÇOS MÉDICOS ÀS INSTITUIÇÕES E SERVIÇOS DO SERVIÇO NACIONAL DE SAÚDE",FALSE
Prestação de Serviços de Desinfestação,Ajuste Direto Regime Geral,Aquisição de serviços,"85000000-9, Serviços de saúde e acção social",CHO - Centro Hospitalar do Oeste (510412009),"Clece, S.A (980359759)","1.997,40 €",22-05-2015,29-01-2014,365 dias,"Portugal, Leiria, Caldas da Rainha","Artigo 20.º, n.º 1, alínea a) do Código dos Contratos Públicos",31-12-2014,"1.997,40 €",,,,Não aplicável.,Não aplicável.,FALSE
Aquisição de 2 Disfibrilhadores Básicos com Pás Multifunções,Ajuste Direto Regime Geral,Aquisição de bens móveis,"33100000-1, Equipamento médico",Centro Hospitalar do Oeste (510412009),"Clinifar, SA (503281115)","18.000,00 €",22-05-2015,25-02-2015,20 dias,"Portugal, Leiria, Caldas da Rainha","Artigo 20.º, n.º 1, alínea a) do Código dos Contratos Públicos",25-02-2015,"18.000,00 €",,,,Não aplicável.,Não aplicável.,FALSE
Programa de Software para a Gestão da Manutenção – Gesmanth,Ajuste Direto Regime Geral,Aquisição de bens móveis,"48000000-8, Pacotes de software e sistemas de informação",CHO - Centro Hospitalar do Oeste (510412009),"Adminsaude, Lda (507243250)","9.025,00 €",21-05-2015,09-04-2014,20 dias,"Portugal, Leiria, Caldas da Rainha","Artigo 20.º, n.º 1, alínea a) do Código dos Contratos Públicos",30-05-2014,"9.025,00 €",,,,Não aplicável.,Não aplicável.,FALSE
Prestação de Serviços de Manutenção_Hardware_Radiologia Digital,Ajuste Direto Regime Geral,Aquisição de serviços,"71356200-0, Serviços de assistência técnica",CHO - Centro Hospitalar do Oeste (510412009),"Fujifilm, Lda (980456517)","21.000,00 €",21-05-2015,30-06-2014,365 dias,"Portugal, Leiria, Caldas da Rainha","Artigo 20.º, n.º 1, alínea a) do Código dos Contratos Públicos",31-12-2014,"21.000,00 €",,,,Não aplicável.,Não aplicável.,FALSE
Prestação de Serviços de Inspeção e Recarga de Extintores,Ajuste Direto Regime Geral,Aquisição de serviços,"71356200-0, Serviços de assistência técnica",Centro Hospitalar do Oeste (510412009),Extintel (501391460),"1.337,38 €",21-05-2015,29-04-2014,20 dias,"Portugal, Leiria, Caldas da Rainha","Artigo 20.º, n.º 1, alínea a) do Código dos Contratos Públicos",20-05-2014,"1.337,38 €",,,,Não aplicável.,Não aplicável.,FALSE
Fornecimento e Montagem de Filtros,Concurso público,Aquisição de bens móveis,"33100000-1, Equipamento médico",Centro Hospitalar do Oeste (510412009),Hepafiltra (503615072),"7.498,00 €",21-05-2015,03-06-2014,180 dias,"Portugal, Leiria, Caldas da Rainha","Artigo 20.º, n.º 1, alínea b) do Código dos Contratos Públicos",31-12-2014,"7.498,00 €",,,,Não aplicável.,Não aplicável.,FALSE
Filtros Diversos,Concurso público,Aquisição de bens móveis,"33100000-1, Equipamento médico",Centro Hospitalar do Oeste (510412009),"Hepafiltra, Lda (503615072)","21.131,30 €",21-05-2015,03-06-2014,180 dias,"Portugal, Leiria, Caldas da Rainha","Artigo 20.º, n.º 1, alínea b) do Código dos Contratos Públicos",31-12-2014,"21.131,30 €",,,,Não aplicável.,Não aplicável.,FALSE
Prestação de Serviços Medicos - Especialidade de Dermatologia,Ao abrigo de acordo-quadro (art.º 258.º),Aquisição de serviços,"85000000-9, Serviços de saúde e acção social",Centro Hospitalar do Oeste (510412009),"Medipeople, Lda (508543436)","3.530,40 €",21-05-2015,18-06-2014,120 dias,"Portugal, Leiria, Caldas da Rainha",Artigo 258.º do Código dos Contratos Públicos,30-09-2014,"3.530,40 €",,,,454020,"CONCURSO PÚBLICO PARA A CELEBRAÇÃO DE CONTRATOS PÚBLICOS DE APROVISIONAMENTO PARA A ÁREA DA SAÚDE, COM VISTA À PRESTAÇÃO DE SERVIÇOS MÉDICOS ÀS INSTITUIÇÕES E SERVIÇOS DO SERVIÇO NACIONAL DE SAÚDE",FALSE
Aquisição da Prestação de Serviços Médicos de Clinica Geral e Triagem Pediátrica,Ao abrigo de acordo-quadro (art.º 258.º),Aquisição de serviços,"85000000-9, Serviços de saúde e acção social",Centro Hospitalar do Oeste (510412009),Insidepurple (510275940),"297.860,00 €",21-05-2015,23-05-2014,90 dias,"Portugal, Leiria, Caldas da Rainha","Artigo 20.º, n.º 1, alínea a) do Código dos Contratos Públicos",01-07-2014,"297.860,00 €",,,,454020,"CONCURSO PÚBLICO PARA A CELEBRAÇÃO DE CONTRATOS PÚBLICOS DE APROVISIONAMENTO PARA A ÁREA DA SAÚDE, COM VISTA À PRESTAÇÃO DE SERVIÇOS MÉDICOS ÀS INSTITUIÇÕES E SERVIÇOS DO SERVIÇO NACIONAL DE SAÚDE",FALSE
