Objeto do Contrato,Tipo de Procedimento,Tipo(s) de Contrato,CPVs,Entidade(s) Adjudicante(s),Entidade(s) Adjudicatária(s),Preço Contratual,Data de Publicação,Data de Celebração do Contrato,Prazo de Execução,Local de Execução,Fundamentação,Data de Fecho do Contrato,Preço Total Efetivo,Causas das Alterações ao Prazo,Causas das Alterações ao Preço,Estado,N.º registo do Acordo Quadro,Descrição do Acordo Quadro,Procedimento Centralizado
Aquisição de Reagentes para o Laboratorio de Citometria de Fluxo do Centro de Sangue e da Transplantação de Coimbra,Ajuste Direto Regime Geral,Aquisição de bens móveis,"33000000-0, Equipamento médico, medicamentos e produtos para cuidados pessoais","Instituto Português do Sangue e da Transplantação, I. P. (502423943)","Enzifarma - Diagnóstico e Farmacêutica, S.A (503636975)","14.363,55 €",06-04-2013,12-03-2013,293 dias,"Portugal, Coimbra, Coimbra","Artigo 20.º, n.º 1, alínea a) do Código dos Contratos Públicos",,,,,,Não aplicável.,Não aplicável.,
"Aquisição de Reagentes para os Laboratórios da Transplantação dos CSTL e CSTC- Transplantação, do IPST, IP, durante o ano de 2013",Ajuste Direto Regime Geral,Aquisição de bens móveis,"33000000-0, Equipamento médico, medicamentos e produtos para cuidados pessoais","Instituto Português do Sangue e da Transplantação, I. P. (502423943)",Beckman Coulter (509035167),"37.920,00 €",06-04-2013,13-03-2013,294 dias,"Portugal, Coimbra, Coimbra<BR/>Portugal, Lisboa, Lisboa","Artigo 24.º, n.º 1, alínea e) do Código dos Contratos Públicos",,,,,,Não aplicável.,Não aplicável.,
"Aquisição de Reagentes para os Laboratorios de Serologia e Genetica Molecular da Transplantação dos CSTLisboa, CSTCoimbra e CSTPorto - Transplantação, do IPST. IP, durante o 1º Trimestre de 2013",Ajuste Direto Regime Geral,Aquisição de bens móveis,"33000000-0, Equipamento médico, medicamentos e produtos para cuidados pessoais","Instituto Português do Sangue e da Transplantação, I. P. (502423943)",Comercial Rafer (980180651),"142.999,61 €",06-04-2013,13-03-2013,294 dias,"Portugal, Lisboa, Lisboa<BR/>Portugal, Porto, Porto<BR/>Portugal, Coimbra, Coimbra","Artigo 24.º, n.º 1, alínea e) do Código dos Contratos Públicos",,,,,,Não aplicável.,Não aplicável.,
"Aquisição de Reagentes para os Laboratórios de Citometria de Fluxo e serologia dos  Centro de Sangue e da Transplantação de Coimbra, Lisboa e do Porto, durante o 1º Trimestre de 2013",Ajuste Direto Regime Geral,Aquisição de bens móveis,"33000000-0, Equipamento médico, medicamentos e produtos para cuidados pessoais","Instituto Português do Sangue e da Transplantação, I. P. (502423943)","Alfagene, Novas Tecnologias das Ciências da Vida, Lda (503387398)","10.571,12 €",06-04-2013,04-03-2013,303 dias,"Portugal, Coimbra, Coimbra<BR/>Portugal, Lisboa, Lisboa<BR/>Portugal, Porto, Porto","Artigo 20.º, n.º 1, alínea a) do Código dos Contratos Públicos",,,,,,Não aplicável.,Não aplicável.,
"Aquisição de Reagentes para a Citometria de Fluxo para o CSTCoimbra, CSTPorto - Transplantação, do IPST. IP ",Ajuste Direto Regime Geral,Aquisição de bens móveis,"33000000-0, Equipamento médico, medicamentos e produtos para cuidados pessoais","Instituto Português do Sangue e da Transplantação, I. P. (502423943)","Beckman Coulter Portugal Unipessoal, Lda (509035167)","3.880,00 €",06-04-2013,18-03-2013,289 dias,"Portugal, Coimbra, Coimbra<BR/>Portugal, Porto, Porto","Artigo 20.º, n.º 1, alínea a) do Código dos Contratos Públicos",,,,,,Não aplicável.,Não aplicável.,
"Aquisição de Reagentes para o CSTC - Transplantação, do IPST. IP, para o Ano 2013",Ajuste Direto Regime Geral,Aquisição de bens móveis,"33000000-0, Equipamento médico, medicamentos e produtos para cuidados pessoais","Instituto Português do Sangue e da Transplantação, I. P. (502423943)","Citomed Equipamentos e Reagentes para Laboratorio, Ld (503492043)","5.604,00 €",06-04-2013,18-03-2013,289 dias,"Portugal, Coimbra, Coimbra","Artigo 20.º, n.º 1, alínea a) do Código dos Contratos Públicos",,,,,,Não aplicável.,Não aplicável.,
"Aquisição de Reagentes para os CSTL, CSTC e CSTP - Transplantação do IPST. IP, para o ano de 2013",Ajuste Direto Regime Geral,Aquisição de bens móveis,"33000000-0, Equipamento médico, medicamentos e produtos para cuidados pessoais","Instituto Português do Sangue e da Transplantação, I. P. (502423943)","Lusopalex, Lda (503531588)","25.615,00 €",06-04-2013,13-03-2013,293 dias,"Portugal, Coimbra, Coimbra<BR/>Portugal, Porto, Porto<BR/>Portugal, Lisboa, Lisboa","Artigo 20.º, n.º 1, alínea a) do Código dos Contratos Públicos",,,,,,Não aplicável.,Não aplicável.,
