Objeto do Contrato,Tipo de Procedimento,Tipo(s) de Contrato,CPVs,Entidade(s) Adjudicante(s),Entidade(s) Adjudicatária(s),Preço Contratual,Data de Publicação,Data de Celebração do Contrato,Prazo de Execução,Local de Execução,Fundamentação,Data de Fecho do Contrato,Preço Total Efetivo,Causas das Alterações ao Prazo,Causas das Alterações ao Preço,Estado,N.º registo do Acordo Quadro,Descrição do Acordo Quadro,Procedimento Centralizado
Aquisição de ser4viços - Formação em CID-9MC e apoio à exploração da Base de Dados de GDH,Ajuste Direto Regime Geral,Aquisição de serviços,"79632000-3, Serviços de formação de pessoal","Administração Central do Sistema de Saúde, I.P. (508188423)","Codimensagem - Codificação e Auditoria Clinica Unipessoal, Lda (507600908)","28.550,00 €",15-04-2011,01-03-2010,365 dias,"Portugal, Lisboa, Lisboa","Artigo 20.º, n.º 1, alínea a) do Código dos Contratos Públicos",01-03-2011,"28.550,00 €",,,,Não aplicável.,Não aplicável.,
Aquisição de serviços para auditoria ao controlo interno no âmbito dos cuidados de saúde respiratórios,Ajuste Direto Regime Geral,Aquisição de serviços,"79212000-3, Serviços de auditoria","Administração Central do Sistema de Saúde, I.P. (508188423)","PriceWaterHouseCoopers & Associados - Sociedade de Revisores Oficiais de Contas, Lda (506628752)","20.001,00 €",15-04-2011,20-12-2010,90 dias,"Portugal, Lisboa, Lisboa","Artigo 20.º, n.º 1, alínea a) do Código dos Contratos Públicos",20-03-2011,"20.001,00 €",,,,Não aplicável.,Não aplicável.,
"Aquisição de serviços para auditoria ao processo de prescrição, facturação e financiamento de beneficios adicionais em saúde",Ajuste Direto Regime Geral,Aquisição de serviços,"79212000-3, Serviços de auditoria","Administração Central do Sistema de Saúde, I.P. (508188423)","PriceWaterHouseCoopers & Associados - Sociedade de Revisores Oficais de Contas, Lda (506628752)","20.001,00 €",14-04-2011,20-12-2010,90 dias,"Portugal, Lisboa, Lisboa","Artigo 20.º, n.º 1, alínea a) do Código dos Contratos Públicos",20-03-2011,"20.001,00 €",,,,Não aplicável.,Não aplicável.,
Aquisição de Serviços para elaboração de extensão do manual de auditoria interna da ACSS relativo à facturação e codificação clinica,Ajuste Direto Regime Geral,Aquisição de serviços,"79212000-3, Serviços de auditoria","Administração Central do Sistema de Saúde, I.P. (508188423)","PriceWaterhouseCoopers - Assessoria de Gestão, Lda (504193279)","26.400,00 €",14-04-2011,16-08-2010,60 dias,"Portugal, Lisboa, Lisboa","Artigo 20.º, n.º 1, alínea a) do Código dos Contratos Públicos",16-10-2010,"26.400,00 €",,,,Não aplicável.,Não aplicável.,
Aquisição de Serviços para implementação do modelo de controlo interno nas ARS,Ajuste Direto Regime Geral,Aquisição de serviços,"79212000-3, Serviços de auditoria","Administração Central do Sistema de Saúde, I.P. (508188423)",Ernst & Young (500912645),"45.000,00 €",14-04-2011,21-07-2010,45 dias,"Portugal, Lisboa, Lisboa","Artigo 20.º, n.º 1, alínea a) do Código dos Contratos Públicos",06-08-2010,"45.000,00 €",,,,Não aplicável.,Não aplicável.,
Prestação serviços auditoria ao processo de transporte de doentes não urgente,Ajuste Direto Regime Geral,Aquisição de serviços,"79210000-9, Serviços de contabilidade e auditoria","Administração Central do Sistema de Saúde, I.P. (508188423)","PriceWaterhouseCoopers - Assssoria de Gestão, Lda (504193279)","27.500,00 €",14-04-2011,12-05-2010,90 dias,"Portugal, Lisboa, Lisboa","Artigo 20.º, n.º 1, alínea a) do Código dos Contratos Públicos",12-08-2010,"27.500,00 €",,,,Não aplicável.,Não aplicável.,
