Objeto do Contrato,Tipo de Procedimento,Tipo(s) de Contrato,CPVs,Entidade(s) Adjudicante(s),Entidade(s) Adjudicatária(s),Preço Contratual,Data de Publicação,Data de Celebração do Contrato,Prazo de Execução,Local de Execução,Fundamentação,Data de Fecho do Contrato,Preço Total Efetivo,Causas das Alterações ao Prazo,Causas das Alterações ao Preço,Estado,N.º registo do Acordo Quadro,Descrição do Acordo Quadro,Procedimento Centralizado
Aquisição de Reagentes para o Serviço de Imunohemoterapia,Ajuste Direto Regime Geral,Aquisição de bens móveis,"33000000-0, Equipamento médico, medicamentos e produtos para cuidados pessoais","Instituto Português de Oncologia de Coimbra Francisco Gentil, E. P. E. (506361438)","DiaMed Portuguesa Diagnóstica, S.A. (501675809)","37.913,70 €",04-03-2014,31-01-2014,365 dias,"Portugal, Coimbra, Coimbra","Artigo 20.º, n.º 1, alínea a) do Código dos Contratos Públicos",18-12-2014,"36.060,62 €",,diminuição das quantidades previstas,,Não aplicável.,Não aplicável.,FALSE
Aquisição de Reagentes ara o Serviço de Imunohemoterapia,Ajuste Direto Regime Geral,Aquisição de bens móveis,"33000000-0, Equipamento médico, medicamentos e produtos para cuidados pessoais","Instituto Português de Oncologia de Coimbra Francisco Gentil, E. P. E. (506361438)","Quilaban - Quimica Laboratorial Analitica, SA. (500399670)","3.513,80 €",04-03-2014,24-01-2014,365 dias,"Portugal, Coimbra, Coimbra","Artigo 20.º, n.º 1, alínea a) do Código dos Contratos Públicos",15-10-2014,"2.559,42 €",,diminuição das quantidades previstas,,Não aplicável.,Não aplicável.,FALSE
Aquisição de Reagentes ara o Serviço de Imunohemoterapia,Ajuste Direto Regime Geral,Aquisição de bens móveis,"33000000-0, Equipamento médico, medicamentos e produtos para cuidados pessoais","Instituto Português de Oncologia de Coimbra Francisco Gentil, E. P. E. (506361438)","Johnson & Johnson, Lda. (500153370)","984,66 €",04-03-2014,24-01-2014,365 dias,"Portugal, Coimbra, Coimbra","Artigo 20.º, n.º 1, alínea a) do Código dos Contratos Públicos",08-12-2014,"580,00 €",,diminuição das quantidades previstas,,Não aplicável.,Não aplicável.,FALSE
Aquisição de Reagentes para o Serviço de Imunohemoterapia,Ajuste Direto Regime Geral,Aquisição de bens móveis,"33000000-0, Equipamento médico, medicamentos e produtos para cuidados pessoais","Instituto Português de Oncologia de Coimbra Francisco Gentil, E. P. E. (506361438)","Immucor (Portugal) Diagnósticos Médicos, Lda. (503007358)","12.896,77 €",04-03-2014,30-01-2014,365 dias,"Portugal, Coimbra, Coimbra","Artigo 20.º, n.º 1, alínea a) do Código dos Contratos Públicos",17-12-2014,"10.978,29 €",,diminuição das quantidades previstas,,Não aplicável.,Não aplicável.,FALSE
aquisição de Ditafones e Acessorios,Ajuste Direto Regime Geral,Aquisição de bens móveis,"32000000-3, Equipamento de rádio, televisão, comunicação, telecomunicações e afins","Instituto Português de Oncologia de Coimbra Francisco Gentil, E. P. E. (506361438)","POLILECTRONICA, LDA (500220190)","2.693,98 €",04-03-2014,07-01-2014,365 dias,"Portugal, Coimbra, Coimbra","Artigo 20.º, n.º 1, alínea a) do Código dos Contratos Públicos",11-12-2014,"1.929,14 €",,Diminuição das necessidades,,Não aplicável.,Não aplicável.,FALSE
Diversos Produtos Alimentares,Ajuste Direto Regime Geral,Aquisição de bens móveis,"15000000-8, Produtos alimentares, bebidas, tabaco e produtos afins","Instituto Português de Oncologia de Coimbra Francisco Gentil, E. P. E. (506361438)","Pac & Bom - Comercio e Serviços, Lda. (503554049)","7.531,60 €",04-03-2014,19-12-2013,365 dias,"Portugal, Coimbra, Coimbra","Artigo 20.º, n.º 1, alínea a) do Código dos Contratos Públicos",29-12-2014,"1.820,87 €",,Diminuição das necessidades,,Não aplicável.,Não aplicável.,FALSE
Diversos Produtos Alimentares,Ajuste Direto Regime Geral,Aquisição de bens móveis,"15000000-8, Produtos alimentares, bebidas, tabaco e produtos afins","Instituto Português de Oncologia de Coimbra Francisco Gentil, E. P. E. (506361438)","António Ezequiel, Lda. (502046511)","31.489,77 €",04-03-2014,24-01-2014,365 dias,"Portugal, Coimbra, Coimbra","Artigo 20.º, n.º 1, alínea a) do Código dos Contratos Públicos",31-12-2014,"15.544,16 €",,Diminuição das necessidades,,Não aplicável.,Não aplicável.,FALSE
Diversos Produtos Alimentares,Ajuste Direto Regime Geral,Aquisição de bens móveis,"15000000-8, Produtos alimentares, bebidas, tabaco e produtos afins","Instituto Português de Oncologia de Coimbra Francisco Gentil, E. P. E. (506361438)","Pereira & Santos, S.A. (500395691)","4.535,65 €",04-03-2014,19-12-2013,365 dias,"Portugal, Coimbra, Coimbra","Artigo 20.º, n.º 1, alínea a) do Código dos Contratos Públicos",26-12-2014,"3.082,34 €",,Diminuição das necessidades,,Não aplicável.,Não aplicável.,FALSE
Diversos Produtos Alimentares,Ajuste Direto Regime Geral,Aquisição de bens móveis,"15000000-8, Produtos alimentares, bebidas, tabaco e produtos afins","Instituto Português de Oncologia de Coimbra Francisco Gentil, E. P. E. (506361438)",Arlindo das Neves Andrade (174515227),"11.797,70 €",04-03-2014,30-01-2014,365 dias,"Portugal, Coimbra, Coimbra","Artigo 20.º, n.º 1, alínea a) do Código dos Contratos Públicos",29-12-2014,"6.158,97 €",,Diminuição das necessidades,,Não aplicável.,Não aplicável.,FALSE
Manutenção e assistencia técnica ao Software ONCOFARM,Ajuste Direto Regime Geral,Aquisição de serviços,"50000000-5, Serviços de reparação e manutenção","Instituto Português de Oncologia de Coimbra Francisco Gentil, E. P. E. (506361438)","Informatica Medico Farmaceutica, S.L. (B96820154)","9.840,00 €",03-03-2014,30-01-2014,365 dias,"Portugal, Coimbra, Coimbra","Artigo 20.º, n.º 1, alínea a) do Código dos Contratos Públicos",31-01-2015,"9.545,38 €",,"faturacao do ultimo trimestre de 2014, em janeiro de 2015",,Não aplicável.,Não aplicável.,FALSE
