Objeto do Contrato,Tipo de Procedimento,Tipo(s) de Contrato,CPVs,Entidade(s) Adjudicante(s),Entidade(s) Adjudicatária(s),Preço Contratual,Data de Publicação,Data de Celebração do Contrato,Prazo de Execução,Local de Execução,Fundamentação,Data de Fecho do Contrato,Preço Total Efetivo,Causas das Alterações ao Prazo,Causas das Alterações ao Preço,Estado,N.º registo do Acordo Quadro,Descrição do Acordo Quadro,Procedimento Centralizado
Prestação de serviços de assistência técnica,Ajuste Direto Regime Geral,Aquisição de serviços,"71356200-0, Serviços de assistência técnica","Hospital do Espírito Santo de Évora, E. P. E. (508085888)",MEDICAL CONSULT SOC UNIPESSOAL LDA (504092138),"5.544,00 €",11-06-2018,18-04-2018,365 dias,"Portugal, Évora, Évora","Artigo 20.º, n.º 1, alínea d) do Código dos Contratos Públicos",,,,,,Não aplicável.,Não aplicável.,FALSE
Prestação de serviços de medicina física no exterior,Ajuste Direto Regime Geral,Aquisição de serviços,"85140000-2, Serviços de saúde diversos","Hospital do Espírito Santo de Évora, E. P. E. (508085888)",SANTA CASA DA MISERICORDIA DE MORA (500848599),"2.044,29 €",11-06-2018,07-03-2018,365 dias,"Portugal, Évora, Évora","Artigo 24.º, n.º 1, alínea e) do Código dos Contratos Públicos",,,,,,Não aplicável.,Não aplicável.,FALSE
Prestação de serviços de assistência técnica,Ajuste Direto Regime Geral,Aquisição de serviços,"71356200-0, Serviços de assistência técnica","Hospital do Espírito Santo de Évora, E. P. E. (508085888)","ASTRIMED-INFORMÁTICA E TECNOLOGIA MÉDICA, LDA. (507007867)","1.708,00 €",11-06-2018,21-03-2018,365 dias,"Portugal, Évora, Évora","Artigo 24.º, n.º 1, alínea e) do Código dos Contratos Públicos",,,,,,Não aplicável.,Não aplicável.,FALSE
Prestação de serviços médicos em Ortopedia,Ajuste Direto Regime Geral,Aquisição de serviços,"85120000-6, Serviços de prática médica e serviços conexos","Hospital do Espírito Santo de Évora, E. P. E. (508085888)","Talenter - Gestão de Projectos, SA (506111148)","47.880,00 €",11-06-2018,14-03-2018,30 dias,"Portugal, Évora, Évora","Artigo 24.º, n.º 1, alínea e) do Código dos Contratos Públicos",,,,,,Não aplicável.,Não aplicável.,FALSE
Aquisição de equipamento médico: Duodenoscópio,Ajuste Direto Regime Geral,Aquisição de bens móveis,"33100000-1, Equipamento médico","Hospital do Espírito Santo de Évora, E. P. E. (508085888)","OLYMPUS IBERIA, S.A.U. (980474710)","22.984,00 €",11-06-2018,24-04-2018,8 dias,"Portugal, Évora, Évora","Artigo 24.º, n.º 1, alínea e) do Código dos Contratos Públicos",,,,,,Não aplicável.,Não aplicável.,FALSE
190071/18 - PS Médicos Ortopedia,Concurso público,Aquisição de serviços,"85120000-6, Serviços de prática médica e serviços conexos","Hospital do Espírito Santo de Évora, E. P. E. (508085888)","Talenter - Gestão de Projectos, SA (506111148)","173.686,60 €",11-06-2018,28-03-2018,122 dias,"Portugal, Évora, Évora",Artigo 155.º do Código dos Contratos Públicos,,,,,,Não aplicável.,Não aplicável.,FALSE
Aquisição de equipamento medico : Torre de laparoscopia,Ajuste Direto Regime Geral,Aquisição de bens móveis,"33100000-1, Equipamento médico","Hospital do Espírito Santo de Évora, E. P. E. (508085888)",ENDOTECNICA MATERIAL CIRURGICO (503818348),"25.000,00 €",11-06-2018,18-04-2018,8 dias,"Portugal, Évora, Évora","Artigo 26.º, n.º 1, alínea a) do Código dos Contratos Públicos",,,,,,Não aplicável.,Não aplicável.,FALSE
110036/18 - Reagentes Automação Imunoturbidimetria/nefelometria,Concurso público,Aquisição de bens móveis,"33694000-1, Meios de diagnóstico","Hospital do Espírito Santo de Évora, EPE (508085888)",THE BINDING SITE GROUP-SUCURSAL EM PORTUGAL (980525136),"44.214,00 €",11-06-2018,24-04-2018,274 dias,"Portugal, Évora, Évora","Artigo 20.º, n.º 1, alínea b) do Código dos Contratos Públicos",,,,,,Não aplicável.,Não aplicável.,FALSE
Prestação de serviços de assistência técnica,Ajuste Direto Regime Geral,Aquisição de serviços,"71356200-0, Serviços de assistência técnica","Hospital do Espírito Santo de Évora, E. P. E. (508085888)","Sano-Técnica, Unipessoal, Lda (500239819)","1.669,60 €",11-06-2018,21-03-2018,365 dias,"Portugal, Évora, Évora","Artigo 24.º, n.º 1, alínea e), subalínea iii) do Código dos Contratos Públicos",,,,,,Não aplicável.,Não aplicável.,FALSE
Prestação de serviços de assistência técnica,Ajuste Direto Regime Geral,Aquisição de serviços,"71356200-0, Serviços de assistência técnica","Hospital do Espírito Santo de Évora, E. P. E. (508085888)","PROSIDE CONCEPÇAO E IMPLEM.DE SOLUÇOES INFOR., LDA (506951405)","7.727,27 €",11-06-2018,03-05-2018,365 dias,"Portugal, Évora, Évora","Artigo 24.º, n.º 1, alínea e), subalínea iii) do Código dos Contratos Públicos",,,,,,Não aplicável.,Não aplicável.,FALSE
Prestação de serviços de assistência técnica,Ajuste Direto Regime Geral,Aquisição de serviços,"71356200-0, Serviços de assistência técnica","Hospital do Espírito Santo de Évora, E. P. E. (508085888)",Vitro SA (ES A41361544),"3.975,00 €",11-06-2018,08-03-2018,365 dias,"Portugal, Évora, Évora","Artigo 24.º, n.º 1, alínea e) do Código dos Contratos Públicos",,,,,,Não aplicável.,Não aplicável.,FALSE
Prestação de serviços de assistência técnica,Ajuste Direto Regime Geral,Aquisição de serviços,"71356200-0, Serviços de assistência técnica","Hospital do Espírito Santo de Évora, E. P. E. (508085888)",Vitro SA (ES A41361544),"1.400,00 €",11-06-2018,03-01-2018,365 dias,"Portugal, Évora, Évora","Artigo 24.º, n.º 1, alínea e) do Código dos Contratos Públicos",,,,,,Não aplicável.,Não aplicável.,FALSE
Prestação de serviços médicos em medicina interna,Ajuste Direto Regime Geral,Aquisição de serviços,"85120000-6, Serviços de prática médica e serviços conexos","Hospital do Espírito Santo de Évora, E. P. E. (508085888)",José António Segurado Seoane (241402212),"24.336,00 €",11-06-2018,17-01-2018,365 dias,"Portugal, Évora, Évora","Artigo 20.º, n.º 1, alínea a) do Código dos Contratos Públicos",,,,,,Não aplicável.,Não aplicável.,FALSE
