Objeto do Contrato,Tipo de Procedimento,Tipo(s) de Contrato,CPVs,Entidade(s) Adjudicante(s),Entidade(s) Adjudicatária(s),Preço Contratual,Data de Publicação,Data de Celebração do Contrato,Prazo de Execução,Local de Execução,Fundamentação,Data de Fecho do Contrato,Preço Total Efetivo,Causas das Alterações ao Prazo,Causas das Alterações ao Preço,Estado,N.º registo do Acordo Quadro,Descrição do Acordo Quadro,Procedimento Centralizado
ERLOTINIB 100 MG COMP,Ao abrigo de acordo-quadro (art.º 259.º),Aquisição de bens móveis,"33600000-6, Produtos farmacêuticos","Hospital Garcia de Orta, E. P. E. (506361470)",ROCHE FARMACEUTICA QUIMICA LDA (500233810),"7.940,70 €",10-01-2019,08-01-2019,90 dias,"Portugal, Setúbal, Almada",Artigo 259.º do Código dos Contratos Públicos,,,,,,2969238,"CP 2017/6 - Acordo Quadro para fornecimento de Medicamentos do Foro Oncológico e Imunomoduladores, às Instituições e Serviços do Serviço Nacional de Saúde",FALSE
Medicamentos Antialérgicos - CPA 2014/50,Ao abrigo de acordo-quadro (art.º 259.º),Aquisição de bens móveis,"33600000-6, Produtos farmacêuticos","Hospital Garcia de Orta, E. P. E. (506361470)","LABESFAL - Laboratórios Almiro, S.A (501169580)","2.477,30 €",10-01-2019,21-02-2018,365 dias,"Portugal, Setúbal, Almada",Artigo 259.º do Código dos Contratos Públicos,,,,,,1338581,"Acordo quadro para fornecimento de Medicação antialérgica, medicamentos usados no tratamento de intoxicações, vitaminas e sais minerais e grupo 20.9 - outros produtos às instituições e serviços do serviço nacional de saúde",FALSE
Medicamentos Antialérgicos - CPA 2014/50,Ao abrigo de acordo-quadro (art.º 259.º),Aquisição de bens móveis,"33600000-6, Produtos farmacêuticos","Hospital Garcia de Orta, E. P. E. (506361470)","HIKMA Farmacêutica (Portugal), S.A. (502266791)","5.240,00 €",10-01-2019,21-02-2018,365 dias,"Portugal, Setúbal, Almada",Artigo 259.º do Código dos Contratos Públicos,,,,,,1338581,"Acordo quadro para fornecimento de Medicação antialérgica, medicamentos usados no tratamento de intoxicações, vitaminas e sais minerais e grupo 20.9 - outros produtos às instituições e serviços do serviço nacional de saúde",FALSE
Medicamentos Antialérgicos - CPA 2014/50,Ao abrigo de acordo-quadro (art.º 259.º),Aquisição de bens móveis,"33600000-6, Produtos farmacêuticos","Hospital Garcia de Orta, E. P. E. (506361470)","TECNIMEDE, SOC TECNICO-MED, SA (500626413)","16.200,00 €",10-01-2019,21-02-2018,365 dias,"Portugal, Setúbal, Almada",Artigo 259.º do Código dos Contratos Públicos,,,,,,1338581,"Acordo quadro para fornecimento de Medicação antialérgica, medicamentos usados no tratamento de intoxicações, vitaminas e sais minerais e grupo 20.9 - outros produtos às instituições e serviços do serviço nacional de saúde",FALSE
Medicamentos Antialérgicos - CPA 2014/50,Ao abrigo de acordo-quadro (art.º 259.º),Aquisição de bens móveis,"33600000-6, Produtos farmacêuticos","Hospital Garcia de Orta, E. P. E. (506361470)",ACCORD HEALTHCARE UNIPESSOAL LDA. (508622263),"2.016,00 €",10-01-2019,21-02-2018,365 dias,"Portugal, Setúbal, Almada",Artigo 259.º do Código dos Contratos Públicos,,,,,,1338581,"Acordo quadro para fornecimento de Medicação antialérgica, medicamentos usados no tratamento de intoxicações, vitaminas e sais minerais e grupo 20.9 - outros produtos às instituições e serviços do serviço nacional de saúde",FALSE
Medicamentos Antialérgicos - CPA 2014/50,Ao abrigo de acordo-quadro (art.º 259.º),Aquisição de bens móveis,"33600000-6, Produtos farmacêuticos","Hospital Garcia de Orta, E. P. E. (506361470)","Novartis Farma - Produtos Farmacêuticos, S.A. (500063524)","2.302,40 €",10-01-2019,21-02-2018,365 dias,"Portugal, Setúbal, Almada",Artigo 259.º do Código dos Contratos Públicos,,,,,,1338581,"Acordo quadro para fornecimento de Medicação antialérgica, medicamentos usados no tratamento de intoxicações, vitaminas e sais minerais e grupo 20.9 - outros produtos às instituições e serviços do serviço nacional de saúde",FALSE
Medicamentos Antialérgicos - CPA 2014/50,Ao abrigo de acordo-quadro (art.º 259.º),Aquisição de bens móveis,"33600000-6, Produtos farmacêuticos","Hospital Garcia de Orta, E. P. E. (506361470)",medinfar (500384045),"1.142,50 €",10-01-2019,21-02-2018,365 dias,"Portugal, Setúbal, Almada",Artigo 259.º do Código dos Contratos Públicos,,,,,,1338581,"Acordo quadro para fornecimento de Medicação antialérgica, medicamentos usados no tratamento de intoxicações, vitaminas e sais minerais e grupo 20.9 - outros produtos às instituições e serviços do serviço nacional de saúde",FALSE
Medicamentos Antialérgicos - CPA 2014/50,Ao abrigo de acordo-quadro (art.º 259.º),Aquisição de bens móveis,"33600000-6, Produtos farmacêuticos","Hospital Garcia de Orta, E. P. E. (506361470)",sanofi (500134960),"195,00 €",10-01-2019,21-02-2018,365 dias,"Portugal, Setúbal, Almada",Artigo 259.º do Código dos Contratos Públicos,,,,,,1338581,"Acordo quadro para fornecimento de Medicação antialérgica, medicamentos usados no tratamento de intoxicações, vitaminas e sais minerais e grupo 20.9 - outros produtos às instituições e serviços do serviço nacional de saúde",FALSE
Medicamentos do Aparelho Respiratório para 2018 - CPA 2015/12,Ao abrigo de acordo-quadro (art.º 259.º),Aquisição de bens móveis,"33600000-6, Produtos farmacêuticos","Hospital Garcia de Orta, E. P. E. (506361470)",FERRAZ LYNCE SA (500113270),"251,50 €",10-01-2019,22-02-2018,365 dias,"Portugal, Setúbal, Almada",Artigo 259.º do Código dos Contratos Públicos,,,,,,1638654,CP 2015/12 - Acordo quadro para fornecimento de Medicamentos do Aparelho Respiratório às Instituições e Serviços do Serviço Nacional de Saúde,FALSE
Medicamentos do Aparelho Respiratório para 2018 - CPA 2015/12,Ao abrigo de acordo-quadro (art.º 259.º),Aquisição de bens móveis,"33600000-6, Produtos farmacêuticos","Hospital Garcia de Orta, E. P. E. (506361470)","ANGELINI FARMACEUTICA, LDA (500583650)","20.848,00 €",10-01-2019,22-02-2018,365 dias,"Portugal, Setúbal, Almada",Artigo 259.º do Código dos Contratos Públicos,,,,,,1638654,CP 2015/12 - Acordo quadro para fornecimento de Medicamentos do Aparelho Respiratório às Instituições e Serviços do Serviço Nacional de Saúde,FALSE
Medicamentos do Aparelho Respiratório para 2018 - CPA 2015/12,Ao abrigo de acordo-quadro (art.º 259.º),Aquisição de bens móveis,"33600000-6, Produtos farmacêuticos","Hospital Garcia de Orta, E. P. E. (506361470)","Novartis Farma - Produtos Farmacêuticos, S.A. (500063524)","72.684,50 €",10-01-2019,22-02-2018,365 dias,"Portugal, Setúbal, Almada",Artigo 259.º do Código dos Contratos Públicos,,,,,,1638654,CP 2015/12 - Acordo quadro para fornecimento de Medicamentos do Aparelho Respiratório às Instituições e Serviços do Serviço Nacional de Saúde,FALSE
Medicamentos do Aparelho Respiratório para 2018 - CPA 2015/12,Ao abrigo de acordo-quadro (art.º 259.º),Aquisição de bens móveis,"33600000-6, Produtos farmacêuticos","Hospital Garcia de Orta, E. P. E. (506361470)",labesfal (501169580),"15.207,00 €",10-01-2019,22-02-2018,365 dias,"Portugal, Setúbal, Almada",Artigo 259.º do Código dos Contratos Públicos,,,,,,1638654,CP 2015/12 - Acordo quadro para fornecimento de Medicamentos do Aparelho Respiratório às Instituições e Serviços do Serviço Nacional de Saúde,FALSE
Medicamentos do Aparelho Respiratório para 2018 - CPA 2015/12,Ao abrigo de acordo-quadro (art.º 259.º),Aquisição de bens móveis,"33600000-6, Produtos farmacêuticos","Hospital Garcia de Orta, E. P. E. (506361470)",teva (507045491),"2.800,00 €",10-01-2019,22-02-2018,365 dias,"Portugal, Setúbal, Almada",Artigo 259.º do Código dos Contratos Públicos,,,,,,1638654,CP 2015/12 - Acordo quadro para fornecimento de Medicamentos do Aparelho Respiratório às Instituições e Serviços do Serviço Nacional de Saúde,FALSE
Medicamentos do Aparelho Respiratório para 2018 - CPA 2015/12,Ao abrigo de acordo-quadro (art.º 259.º),Aquisição de bens móveis,"33600000-6, Produtos farmacêuticos","Hospital Garcia de Orta, E. P. E. (506361470)",unilfarma (500293023),"21.360,00 €",09-01-2019,22-02-2018,365 dias,"Portugal, Setúbal, Almada",Artigo 259.º do Código dos Contratos Públicos,,,,,,1638654,CP 2015/12 - Acordo quadro para fornecimento de Medicamentos do Aparelho Respiratório às Instituições e Serviços do Serviço Nacional de Saúde,FALSE
Medicamentos do Aparelho Respiratório para 2018 - CPA 2015/12,Ao abrigo de acordo-quadro (art.º 259.º),Aquisição de bens móveis,"33600000-6, Produtos farmacêuticos","Hospital Garcia de Orta, E. P. E. (506361470)",GSK PRODUTOS FARMACEUTICOS (500139962),"43.064,25 €",09-01-2019,22-02-2018,365 dias,"Portugal, Setúbal, Almada",Artigo 259.º do Código dos Contratos Públicos,,,,,,1638654,CP 2015/12 - Acordo quadro para fornecimento de Medicamentos do Aparelho Respiratório às Instituições e Serviços do Serviço Nacional de Saúde,FALSE
Medicamentos do Aparelho Respiratório para 2018 - CPA 2015/12,Ao abrigo de acordo-quadro (art.º 259.º),Aquisição de bens móveis,"33600000-6, Produtos farmacêuticos","Hospital Garcia de Orta, E. P. E. (506361470)",sanofi (500134960),"44,80 €",09-01-2019,22-02-2018,365 dias,"Portugal, Setúbal, Almada",Artigo 259.º do Código dos Contratos Públicos,,,,,,1638654,CP 2015/12 - Acordo quadro para fornecimento de Medicamentos do Aparelho Respiratório às Instituições e Serviços do Serviço Nacional de Saúde,FALSE
Medicamentos do Aparelho Respiratório para 2018 - CPA 2015/12,Ao abrigo de acordo-quadro (art.º 259.º),Aquisição de bens móveis,"33600000-6, Produtos farmacêuticos","Hospital Garcia de Orta, E. P. E. (506361470)",medinfar (500384045),"114,00 €",09-01-2019,22-02-2018,365 dias,"Portugal, Setúbal, Almada",Artigo 259.º do Código dos Contratos Públicos,,,,,,1638654,CP 2015/12 - Acordo quadro para fornecimento de Medicamentos do Aparelho Respiratório às Instituições e Serviços do Serviço Nacional de Saúde,FALSE
Medicamentos do Aparelho Respiratório para 2018 - CPA 2015/12,Ao abrigo de acordo-quadro (art.º 259.º),Aquisição de bens móveis,"33600000-6, Produtos farmacêuticos","Hospital Garcia de Orta, E. P. E. (506361470)","DLA - FARMACEUTICA,SA (503894427)","1.155,00 €",09-01-2019,22-02-2018,365 dias,"Portugal, Setúbal, Almada",Artigo 259.º do Código dos Contratos Públicos,,,,,,1638654,CP 2015/12 - Acordo quadro para fornecimento de Medicamentos do Aparelho Respiratório às Instituições e Serviços do Serviço Nacional de Saúde,FALSE
Medicamentos do Aparelho Respiratório para 2018 - CPA 2015/12,Ao abrigo de acordo-quadro (art.º 259.º),Aquisição de bens móveis,"33600000-6, Produtos farmacêuticos","Hospital Garcia de Orta, E. P. E. (506361470)","B.BRAUN MEDICAL, LDA (501506543)","420,70 €",09-01-2019,22-02-2018,365 dias,"Portugal, Setúbal, Almada",Artigo 259.º do Código dos Contratos Públicos,,,,,,1638654,CP 2015/12 - Acordo quadro para fornecimento de Medicamentos do Aparelho Respiratório às Instituições e Serviços do Serviço Nacional de Saúde,FALSE
Prestação de Serviços Médicos de Neonatologia - A.D. N.º 8409257,Ajuste Direto Regime Geral,Aquisição de serviços,"85121200-5, Serviços de medicina especializada","Hospital Garcia de Orta, E. P. E. (506361470)",ANA TAVARES LOPES TABORDA CURATE (212684434),"7.920,00 €",08-01-2019,31-08-2017,365 dias,"Portugal, Setúbal, Almada","Artigo 20.º, n.º 1, alínea a) do Código dos Contratos Públicos",,,,,,Não aplicável.,Não aplicável.,FALSE
Prestação de Serviços Médicos na Urgência Geral - A.D. N.º 8408947,Ajuste Direto Regime Geral,Aquisição de serviços,"85121100-4, Serviços de médicos de clínica geral","Hospital Garcia de Orta, E. P. E. (506361470)",FELICIANO JOSÉ DO LIVRAMENTO DOS REIS (190538970),"35.582,99 €",08-01-2019,30-08-2017,365 dias,"Portugal, Setúbal, Almada","Artigo 20.º, n.º 1, alínea a) do Código dos Contratos Públicos",,,,,,Não aplicável.,Não aplicável.,FALSE
MASCARAS FACIAIS DESCARTAVEIS,Consulta Prévia,Aquisição de bens móveis,"33140000-3, Material médico de consumo","Hospital Garcia de Orta, E.P.E. (506361470)","DIMORASEPT-Higiene Medica-Hospitalar, Lda (510258786)","28.836,00 €",08-01-2019,16-11-2018,365 dias,"Portugal, Setúbal, Almada","Artigo 20.º, n.º 1, alínea c) do Código dos Contratos Públicos",,,,,,Não aplicável.,Não aplicável.,FALSE
INTERFERÃO BETA-1A 24 M.U.I./ML SOL INJ CARTUCHO 1.5 ML SC (REBIF44) - CPA 2017/6,Ao abrigo de acordo-quadro (art.º 259.º),Aquisição de bens móveis,"33600000-6, Produtos farmacêuticos","Hospital Garcia de Orta, E. P. E. (506361470)",MERCK S.A. (500650870),"69.254,40 €",08-01-2019,03-01-2019,180 dias,"Portugal, Setúbal, Almada",Artigo 259.º do Código dos Contratos Públicos,,,,,,2969238,"CP 2017/6 - Acordo Quadro para fornecimento de Medicamentos do Foro Oncológico e Imunomoduladores, às Instituições e Serviços do Serviço Nacional de Saúde",FALSE
Medicamentos p/ 2019 - Aquisição P259-2018-188 (CPA 2016/40),Ao abrigo de acordo-quadro (art.º 259.º),Aquisição de bens móveis,"33600000-6, Produtos farmacêuticos","Hospital Garcia de Orta, E. P. E. (506361470)",BRISTOL-MYERS SQUIBB PORTUGAL (500207879),"43.571,25 €",08-01-2019,03-01-2019,365 dias,"Portugal, Setúbal, Almada",Artigo 259.º do Código dos Contratos Públicos,,,,,,2183729,Medicamentos antirretrovíricos para o tratamento da infeção por VIH,FALSE
Medicamentos p/ 2019 - Aquisição P259-2018-188 (CPA 2017/6),Ao abrigo de acordo-quadro (art.º 259.º),Aquisição de bens móveis,"33600000-6, Produtos farmacêuticos","Hospital Garcia de Orta, E. P. E. (506361470)",BRISTOL-MYERS SQUIBB PORTUGAL (500207879),"64.621,12 €",08-01-2019,03-01-2019,365 dias,"Portugal, Setúbal, Almada",Artigo 259.º do Código dos Contratos Públicos,,,,,,2969238,"CP 2017/6 - Acordo Quadro para fornecimento de Medicamentos do Foro Oncológico e Imunomoduladores, às Instituições e Serviços do Serviço Nacional de Saúde",FALSE
CATETER BALAO P/ANGIOPLASTIA CORONARIA,Ajuste Direto Regime Geral,Aquisição de bens móveis,"33000000-0, Equipamento médico, medicamentos e produtos para cuidados pessoais","Hospital Garcia de Orta, E. P. E. (506361470)","Biotronik Portugal Unipessoal, Lda (510726941)","10.670,00 €",08-01-2019,19-11-2018,45 dias,"Portugal, Setúbal, Almada","Artigo 20.º, n.º 1, alínea d) do Código dos Contratos Públicos",,,,,,Não aplicável.,Não aplicável.,FALSE
CATETER BALAO P/ANGIOPLASTIA CORONARIA,Ajuste Direto Regime Geral,Aquisição de bens móveis,"33000000-0, Equipamento médico, medicamentos e produtos para cuidados pessoais","Hospital Garcia de Orta, E. P. E. (506361470)","Abbott Laboratórios, Lda. (500006148)","7.517,50 €",08-01-2019,12-12-2018,30 dias,"Portugal, Setúbal, Almada","Artigo 20.º, n.º 1, alínea d) do Código dos Contratos Públicos",,,,,,Não aplicável.,Não aplicável.,FALSE
CATETER BALAO P/ANGIOPLASTIA CORONARIA,Ajuste Direto Regime Geral,Aquisição de bens móveis,"33000000-0, Equipamento médico, medicamentos e produtos para cuidados pessoais","Hospital Garcia de Orta, E. P. E. (506361470)","Biotronik Portugal Unipessoal, Lda (510726941)","8.972,50 €",08-01-2019,12-12-2018,30 dias,"Portugal, Setúbal, Almada","Artigo 20.º, n.º 1, alínea d) do Código dos Contratos Públicos",,,,,,Não aplicável.,Não aplicável.,FALSE
CATETER BALAO P/ANGIOPLASTIA CORONARIA,Ajuste Direto Regime Geral,Aquisição de bens móveis,"33000000-0, Equipamento médico, medicamentos e produtos para cuidados pessoais","Hospital Garcia de Orta, E. P. E. (506361470)",MEDTRONIC PORTUGAL LDA (504223933),"5.335,00 €",08-01-2019,12-12-2018,30 dias,"Portugal, Setúbal, Almada","Artigo 20.º, n.º 1, alínea d) do Código dos Contratos Públicos",,,,,,Não aplicável.,Não aplicável.,FALSE
CONJUNTO DE CAPSULAS DE VIDEOENDOSCOPIA,Ajuste Direto Regime Geral,Aquisição de bens móveis,"33000000-0, Equipamento médico, medicamentos e produtos para cuidados pessoais","Hospital Garcia de Orta, E. P. E. (506361470)",MEDTRONIC PORTUGAL LDA (504223933),"5.100,00 €",08-01-2019,03-12-2018,30 dias,"Portugal, Setúbal, Almada","Artigo 20.º, n.º 1, alínea d) do Código dos Contratos Públicos",,,,,,Não aplicável.,Não aplicável.,FALSE
Prestação de Serviços de Médicos na Urgência Geral - A.D. N.º 8409067,Ajuste Direto Regime Geral,Aquisição de serviços,"85121100-4, Serviços de médicos de clínica geral","Hospital Garcia de Orta, E. P. E. (506361470)",JOSÉ MELO MEDEIROS (126977828),"34.610,87 €",07-01-2019,30-08-2017,365 dias,"Portugal, Setúbal, Almada","Artigo 20.º, n.º 1, alínea a) do Código dos Contratos Públicos",,,,,,Não aplicável.,Não aplicável.,FALSE
Prestação de Serviços de Médicos na Urgência Pediátrica - A.D. N.º 8411777,Ajuste Direto Regime Geral,Aquisição de serviços,"85121100-4, Serviços de médicos de clínica geral","Hospital Garcia de Orta, E. P. E. (506361470)",TIAGO ALEXANDRE PENAS MARTINS MOREIRA (241896983),"7.260,00 €",07-01-2019,01-11-2017,365 dias,"Portugal, Setúbal, Almada","Artigo 20.º, n.º 1, alínea a) do Código dos Contratos Públicos",,,,,,Não aplicável.,Não aplicável.,FALSE
Prestação de Serviços de Médicos de VMER - A.D. N.º 8411857,Ajuste Direto Regime Geral,Aquisição de serviços,"85142000-6, Serviços paramédicos","Hospital Garcia de Orta, E. P. E. (506361470)",RICARDO RIBEIRO CALHAU (257159878),"14.976,00 €",07-01-2019,13-04-2018,365 dias,"Portugal, Setúbal, Almada","Artigo 20.º, n.º 1, alínea a) do Código dos Contratos Públicos",,,,,,Não aplicável.,Não aplicável.,FALSE
"Medicamentos Analgésicos, Antipiréticos e Antidepressivos",Ao abrigo de acordo-quadro (art.º 259.º),Aquisição de bens móveis,"33600000-6, Produtos farmacêuticos","Hospital Garcia de Orta, E. P. E. (506361470)","ANGELINI FARMACEUTICA, LDA (500583650)","417,20 €",07-01-2019,22-02-2018,365 dias,"Portugal, Setúbal, Almada",Artigo 259.º do Código dos Contratos Públicos,,,,,,1974985,"Medicamentos Analgésicos, Antipiréticos e Antidepressivos",FALSE
"Medicamentos Analgésicos, Antipiréticos e Antidepressivos",Ao abrigo de acordo-quadro (art.º 259.º),Aquisição de bens móveis,"33600000-6, Produtos farmacêuticos","Hospital Garcia de Orta, E. P. E. (506361470)","B. Braun Medical, Lda (501506543)","28.080,38 €",07-01-2019,22-02-2018,365 dias,"Portugal, Setúbal, Almada",Artigo 259.º do Código dos Contratos Públicos,,,,,,1974985,"Medicamentos Analgésicos, Antipiréticos e Antidepressivos",FALSE
"Medicamentos Analgésicos, Antipiréticos e Antidepressivos",Ao abrigo de acordo-quadro (art.º 259.º),Aquisição de bens móveis,"33600000-6, Produtos farmacêuticos","Hospital Garcia de Orta, E. P. E. (506361470)","Overpharma, Lda. (505792362)","4.060,85 €",07-01-2019,22-02-2018,365 dias,"Portugal, Setúbal, Almada",Artigo 259.º do Código dos Contratos Públicos,,,,,,1974985,"Medicamentos Analgésicos, Antipiréticos e Antidepressivos",FALSE
"Medicamentos Analgésicos, Antipiréticos e Antidepressivos",Ao abrigo de acordo-quadro (art.º 259.º),Aquisição de bens móveis,"33600000-6, Produtos farmacêuticos","Hospital Garcia de Orta, E. P. E. (506361470)",PHARMAKERN PORTUGAL PROD.FARMACEUTICO  (507002571),"5,88 €",07-01-2019,22-02-2018,365 dias,"Portugal, Setúbal, Almada",Artigo 259.º do Código dos Contratos Públicos,,,,,,1974985,"Medicamentos Analgésicos, Antipiréticos e Antidepressivos",FALSE
"Medicamentos Analgésicos, Antipiréticos e Antidepressivos",Ao abrigo de acordo-quadro (art.º 259.º),Aquisição de bens móveis,"33600000-6, Produtos farmacêuticos","Hospital Garcia de Orta, E. P. E. (506361470)",unilfarma (500293023),"27.513,85 €",07-01-2019,22-02-2018,365 dias,"Portugal, Setúbal, Almada",Artigo 259.º do Código dos Contratos Públicos,,,,,,1974985,"Medicamentos Analgésicos, Antipiréticos e Antidepressivos",FALSE
"Medicamentos Analgésicos, Antipiréticos e Antidepressivos",Ao abrigo de acordo-quadro (art.º 259.º),Aquisição de bens móveis,"33600000-6, Produtos farmacêuticos","Hospital Garcia de Orta, E. P. E. (506361470)","LABESFAL - Laboratórios Almiro, S.A (501169580)","49.583,00 €",07-01-2019,22-02-2018,365 dias,"Portugal, Setúbal, Almada",Artigo 259.º do Código dos Contratos Públicos,,,,,,1974985,"Medicamentos Analgésicos, Antipiréticos e Antidepressivos",FALSE
"Medicamentos Analgésicos, Antipiréticos e Antidepressivos",Ao abrigo de acordo-quadro (art.º 259.º),Aquisição de bens móveis,"33600000-6, Produtos farmacêuticos","Hospital Garcia de Orta, E. P. E. (506361470)","R2MC- Rangel, Produtos Farmaceuticos S.A. (510599818)","320,40 €",07-01-2019,22-02-2018,365 dias,"Portugal, Setúbal, Almada",Artigo 259.º do Código dos Contratos Públicos,,,,,,1974985,"Medicamentos Analgésicos, Antipiréticos e Antidepressivos",FALSE
"Medicamentos Analgésicos, Antipiréticos e Antidepressivos",Ao abrigo de acordo-quadro (art.º 259.º),Aquisição de bens móveis,"33600000-6, Produtos farmacêuticos","Hospital Garcia de Orta, E. P. E. (506361470)",JANSSEN CILAG FARMACEUTICA LDA (500189412),"9.934,80 €",07-01-2019,22-02-2018,365 dias,"Portugal, Setúbal, Almada",Artigo 259.º do Código dos Contratos Públicos,,,,,,1974985,"Medicamentos Analgésicos, Antipiréticos e Antidepressivos",FALSE
"Medicamentos Analgésicos, Antipiréticos e Antidepressivos",Ao abrigo de acordo-quadro (art.º 259.º),Aquisição de bens móveis,"33600000-6, Produtos farmacêuticos","Hospital Garcia de Orta, E. P. E. (506361470)",LAB. MEDINFAR- PROD.FARMACEUT.  SA (500384045),"2.776,47 €",07-01-2019,22-02-2018,365 dias,"Portugal, Setúbal, Almada",Artigo 259.º do Código dos Contratos Públicos,,,,,,1974985,"Medicamentos Analgésicos, Antipiréticos e Antidepressivos",FALSE
"Medicamentos Analgésicos, Antipiréticos e Antidepressivos",Ao abrigo de acordo-quadro (art.º 259.º),Aquisição de bens móveis,"33600000-6, Produtos farmacêuticos","Hospital Garcia de Orta, E. P. E. (506361470)",GRUNENTHAL SA (500101965),"4.652,00 €",07-01-2019,22-02-2018,365 dias,"Portugal, Setúbal, Almada",Artigo 259.º do Código dos Contratos Públicos,,,,,,1974985,"Medicamentos Analgésicos, Antipiréticos e Antidepressivos",FALSE
"Medicamentos Analgésicos, Antipiréticos e Antidepressivos",Ao abrigo de acordo-quadro (art.º 259.º),Aquisição de bens móveis,"33600000-6, Produtos farmacêuticos","Hospital Garcia de Orta, E. P. E. (506361470)",TECNIMEDE-Sociedade Técnico-Medicinal SA (500626413),"2.769,80 €",07-01-2019,22-02-2018,365 dias,"Portugal, Setúbal, Almada",Artigo 259.º do Código dos Contratos Públicos,,,,,,1974985,"Medicamentos Analgésicos, Antipiréticos e Antidepressivos",FALSE
"Medicamentos Analgésicos, Antipiréticos e Antidepressivos ",Ao abrigo de acordo-quadro (art.º 259.º),Aquisição de bens móveis,"33600000-6, Produtos farmacêuticos","Hospital Garcia de Orta, E. P. E. (506361470)","GENERIS FARMACEUTICA, SA (505625520)","5.775,49 €",07-01-2019,22-02-2018,365 dias,"Portugal, Setúbal, Almada",Artigo 259.º do Código dos Contratos Públicos,,,,,,1974985,"Medicamentos Analgésicos, Antipiréticos e Antidepressivos",FALSE
Medicamentos do Sistema Nervoso Central,Ao abrigo de acordo-quadro (art.º 259.º),Aquisição de bens móveis,"33600000-6, Produtos farmacêuticos","Hospital Garcia de Orta, E.P.E. (506361470)","MERCK SHARP & DOHME, LDA (500191360)","822,82 €",07-01-2019,20-04-2018,365 dias,"Portugal, Setúbal, Almada",Artigo 259.º do Código dos Contratos Públicos,,,,,,2528670,"CP 2017/2 - Acordo Quadro para fornecimento de Medicamentos do Sistema Nervoso Cerebrospinal, exceto: anestésicos, relaxantes musculares, analgésicos, antipiréticos, antidepressivos e antipsicóticos  às Instituições e Serviços do Serviço Nacional de Saúde",FALSE
Medicamentos do Sistema Nervoso Central,Ao abrigo de acordo-quadro (art.º 259.º),Aquisição de bens móveis,"33600000-6, Produtos farmacêuticos","Hospital Garcia de Orta, E.P.E. (506361470)",TECNIMEDE-Sociedade Técnico-Medicinal SA (500626413),"1.892,40 €",07-01-2019,20-04-2018,365 dias,"Portugal, Setúbal, Almada",Artigo 259.º do Código dos Contratos Públicos,,,,,,2528670,"CP 2017/2 - Acordo Quadro para fornecimento de Medicamentos do Sistema Nervoso Cerebrospinal, exceto: anestésicos, relaxantes musculares, analgésicos, antipiréticos, antidepressivos e antipsicóticos  às Instituições e Serviços do Serviço Nacional de Saúde",FALSE
Medicamentos do Sistema Nervoso Central,Ao abrigo de acordo-quadro (art.º 259.º),Aquisição de bens móveis,"33600000-6, Produtos farmacêuticos","Hospital Garcia de Orta, E.P.E. (506361470)",LABORATORIOS BIAL (500220913),"14,84 €",07-01-2019,20-04-2018,365 dias,"Portugal, Setúbal, Almada",Artigo 259.º do Código dos Contratos Públicos,,,,,,2528670,"CP 2017/2 - Acordo Quadro para fornecimento de Medicamentos do Sistema Nervoso Cerebrospinal, exceto: anestésicos, relaxantes musculares, analgésicos, antipiréticos, antidepressivos e antipsicóticos  às Instituições e Serviços do Serviço Nacional de Saúde",FALSE
Medicamentos do Sistema Nervoso Central,Ao abrigo de acordo-quadro (art.º 259.º),Aquisição de bens móveis,"33600000-6, Produtos farmacêuticos","Hospital Garcia de Orta, E.P.E. (506361470)","ACCORD HEALTHCARE, UNIPESSOAL, LDA (508622263)","5.733,00 €",07-01-2019,20-04-2018,365 dias,"Portugal, Setúbal, Almada",Artigo 259.º do Código dos Contratos Públicos,,,,,,2528670,"CP 2017/2 - Acordo Quadro para fornecimento de Medicamentos do Sistema Nervoso Cerebrospinal, exceto: anestésicos, relaxantes musculares, analgésicos, antipiréticos, antidepressivos e antipsicóticos  às Instituições e Serviços do Serviço Nacional de Saúde",FALSE
Medicamentos do Sistema Nervoso Central,Ao abrigo de acordo-quadro (art.º 259.º),Aquisição de bens móveis,"33600000-6, Produtos farmacêuticos","Hospital Garcia de Orta, E.P.E. (506361470)",HIKMA FARMACÊUTICA (PORTUGAL) SA. (502266791),"8.730,00 €",07-01-2019,20-04-2018,365 dias,"Portugal, Setúbal, Almada",Artigo 259.º do Código dos Contratos Públicos,,,,,,2528670,"CP 2017/2 - Acordo Quadro para fornecimento de Medicamentos do Sistema Nervoso Cerebrospinal, exceto: anestésicos, relaxantes musculares, analgésicos, antipiréticos, antidepressivos e antipsicóticos  às Instituições e Serviços do Serviço Nacional de Saúde",FALSE
Medicamentos do Sistema Nervoso Central,Ao abrigo de acordo-quadro (art.º 259.º),Aquisição de bens móveis,"33600000-6, Produtos farmacêuticos","Hospital Garcia de Orta, E.P.E. (506361470)","LABESFAL-LABORATORIOS ALMIRO, SA (501169580)","91.781,01 €",07-01-2019,20-04-2018,365 dias,"Portugal, Setúbal, Almada",Artigo 259.º do Código dos Contratos Públicos,,,,,,2528670,"CP 2017/2 - Acordo Quadro para fornecimento de Medicamentos do Sistema Nervoso Cerebrospinal, exceto: anestésicos, relaxantes musculares, analgésicos, antipiréticos, antidepressivos e antipsicóticos  às Instituições e Serviços do Serviço Nacional de Saúde",FALSE
Medicamentos do Sistema Nervoso Central,Ao abrigo de acordo-quadro (art.º 259.º),Aquisição de bens móveis,"33600000-6, Produtos farmacêuticos","Hospital Garcia de Orta, E.P.E. (506361470)","Novartis Farma - Produtos Farmacêuticos, S.A. (500063524)","182,59 €",07-01-2019,20-04-2018,365 dias,"Portugal, Setúbal, Almada",Artigo 259.º do Código dos Contratos Públicos,,,,,,2528670,"CP 2017/2 - Acordo Quadro para fornecimento de Medicamentos do Sistema Nervoso Cerebrospinal, exceto: anestésicos, relaxantes musculares, analgésicos, antipiréticos, antidepressivos e antipsicóticos  às Instituições e Serviços do Serviço Nacional de Saúde",FALSE
Medicamentos do Sistema Nervoso Central,Ao abrigo de acordo-quadro (art.º 259.º),Aquisição de bens móveis,"33600000-6, Produtos farmacêuticos","Hospital Garcia de Orta, E.P.E. (506361470)",tecnifar (500280436),"1.438,52 €",07-01-2019,20-04-2018,365 dias,"Portugal, Setúbal, Almada",Artigo 259.º do Código dos Contratos Públicos,,,,,,2528670,"CP 2017/2 - Acordo Quadro para fornecimento de Medicamentos do Sistema Nervoso Cerebrospinal, exceto: anestésicos, relaxantes musculares, analgésicos, antipiréticos, antidepressivos e antipsicóticos  às Instituições e Serviços do Serviço Nacional de Saúde",FALSE
Medicamentos do Sistema Nervoso Central,Ao abrigo de acordo-quadro (art.º 259.º),Aquisição de bens móveis,"33600000-6, Produtos farmacêuticos","Hospital Garcia de Orta, E.P.E. (506361470)",SANOFI PRODUTOS FARMACÊUTICOS (500134960),"773,80 €",07-01-2019,20-04-2018,365 dias,"Portugal, Setúbal, Almada",Artigo 259.º do Código dos Contratos Públicos,,,,,,2528670,"CP 2017/2 - Acordo Quadro para fornecimento de Medicamentos do Sistema Nervoso Cerebrospinal, exceto: anestésicos, relaxantes musculares, analgésicos, antipiréticos, antidepressivos e antipsicóticos  às Instituições e Serviços do Serviço Nacional de Saúde",FALSE
Medicamentos do Sistema Nervoso Central,Ao abrigo de acordo-quadro (art.º 259.º),Aquisição de bens móveis,"33600000-6, Produtos farmacêuticos","Hospital Garcia de Orta, E.P.E. (506361470)","GENERIS FARMACEUTICA, SA (505625520)","20.788,96 €",07-01-2019,20-04-2018,365 dias,"Portugal, Setúbal, Almada",Artigo 259.º do Código dos Contratos Públicos,,,,,,2528670,"CP 2017/2 - Acordo Quadro para fornecimento de Medicamentos do Sistema Nervoso Cerebrospinal, exceto: anestésicos, relaxantes musculares, analgésicos, antipiréticos, antidepressivos e antipsicóticos  às Instituições e Serviços do Serviço Nacional de Saúde",FALSE
IXECIZUMAB 80 MG/1 ML SOL INJ CANETA 1 ML SC,Ajuste Direto Regime Geral,Aquisição de bens móveis,"33600000-6, Produtos farmacêuticos","Hospital Garcia de Orta, E. P. E. (506361470)",LILLY PORTUGAL -Produtos farmacêuticos  (500165602),"6.600,00 €",03-01-2019,14-12-2018,30 dias,"Portugal, Setúbal, Almada","Artigo 24.º, n.º 1, alínea e), subalínea iii) do Código dos Contratos Públicos",,,,,,Não aplicável.,Não aplicável.,FALSE
"HIALURONATO DE SODIO + LIDOCAINA ( 15MG + 10MG) /ML SER 0,8ML",Ajuste Direto Regime Geral,Aquisição de bens móveis,"33600000-6, Produtos farmacêuticos","Hospital Garcia de Orta, E. P. E. (506361470)",Carl Zeiss (980503043),"11.600,00 €",03-01-2019,14-12-2018,30 dias,"Portugal, Setúbal, Almada","Artigo 24.º, n.º 1, alínea e), subalínea iii) do Código dos Contratos Públicos",,,,,,Não aplicável.,Não aplicável.,FALSE
SELEXIPAG 1000 ΜG COMP,Ajuste Direto Regime Geral,Aquisição de bens móveis,"33600000-6, Produtos farmacêuticos","Hospital Garcia de Orta, E. P. E. (506361470)","Actelion Pharmaceuticals Portugal, Lda (507336488)","6.952,80 €",03-01-2019,07-12-2018,30 dias,"Portugal, Setúbal, Almada","Artigo 24.º, n.º 1, alínea e), subalínea iii) do Código dos Contratos Públicos",,,,,,Não aplicável.,Não aplicável.,FALSE
ALECTINIB 150 MG CÁPS,Ajuste Direto Regime Geral,Aquisição de bens móveis,"33600000-6, Produtos farmacêuticos","Hospital Garcia de Orta, E. P. E. (506361470)",ROCHE FARMACEUTICA QUIMICA LDA (500233810),"11.271,68 €",03-01-2019,14-12-2018,30 dias,"Portugal, Setúbal, Almada","Artigo 24.º, n.º 1, alínea e), subalínea iii) do Código dos Contratos Públicos",,,,,,Não aplicável.,Não aplicável.,FALSE
OCTREOTIDA 30 MG PÓ SUSP INJ FR IM - CPA 2018/7,Ao abrigo de acordo-quadro (art.º 259.º),Aquisição de bens móveis,"33600000-6, Produtos farmacêuticos","Hospital Garcia de Orta, E. P. E. (506361470)","Novartis Farma Produtos Farmacêuticos, SA (500063524)","40.425,60 €",03-01-2019,07-12-2018,30 dias,"Portugal, Setúbal, Almada",Artigo 259.º do Código dos Contratos Públicos,,,,,,3379938,Hormonas e outros medicamentos usados no tratamento de doenças endócrinas,FALSE
DOLUTEGRAVIR 50 MG + ABACAVIR 600 MG + LAMIVUDINA 300 MG COMP - CPA 2017/61,Ao abrigo de acordo-quadro (art.º 259.º),Aquisição de bens móveis,"33600000-6, Produtos farmacêuticos","Hospital Garcia de Orta, E. P. E. (506361470)",VIIVVHIV Healthcare Unipessoal Lda (509117961),"303.535,19 €",03-01-2019,20-12-2018,30 dias,"Portugal, Setúbal, Almada",Artigo 259.º do Código dos Contratos Públicos,,,,,,2545980,CP 2017/61 - Acordo quadro para fornecimento de Medicamentos Diversos   às Instituições e Serviços do Serviço Nacional de Saúde,FALSE
Medicamentos Anti Psicóticos CPA 2016/19 - Para 2018 (IGIF 11001918),Ao abrigo de acordo-quadro (art.º 259.º),Aquisição de bens móveis,"33600000-6, Produtos farmacêuticos","Hospital Garcia de Orta, E. P. E. (506361470)",ratiopharm (502414910),"3.780,80 €",02-01-2019,07-03-2018,365 dias,"Portugal, Setúbal, Almada",Artigo 259.º do Código dos Contratos Públicos,,,,,,2356543,CP 2016/19 - Medicamentos Antipsicóticos,FALSE
Medicamentos Anti Psicóticos CPA 2016/19 - Para 2018 (IGIF 11001918),Ao abrigo de acordo-quadro (art.º 259.º),Aquisição de bens móveis,"33600000-6, Produtos farmacêuticos","Hospital Garcia de Orta, E. P. E. (506361470)",janssen (500189412),"19.148,64 €",02-01-2019,07-03-2018,365 dias,"Portugal, Setúbal, Almada",Artigo 259.º do Código dos Contratos Públicos,,,,,,2356543,CP 2016/19 - Medicamentos Antipsicóticos,FALSE
Medicamentos Anti Psicóticos CPA 2016/19 - Para 2018 (IGIF 11001918),Ao abrigo de acordo-quadro (art.º 259.º),Aquisição de bens móveis,"33600000-6, Produtos farmacêuticos","Hospital Garcia de Orta, E. P. E. (506361470)",OVERPHARMA PROD MEDICOS FARMACEUTICOS (505792362),"15.657,73 €",02-01-2019,07-03-2018,365 dias,"Portugal, Setúbal, Almada",Artigo 259.º do Código dos Contratos Públicos,,,,,,2356543,CP 2016/19 - Medicamentos Antipsicóticos,FALSE
