Objeto do Contrato,Tipo de Procedimento,Tipo(s) de Contrato,CPVs,Entidade(s) Adjudicante(s),Entidade(s) Adjudicatária(s),Preço Contratual,Data de Publicação,Data de Celebração do Contrato,Prazo de Execução,Local de Execução,Fundamentação,Data de Fecho do Contrato,Preço Total Efetivo,Causas das Alterações ao Prazo,Causas das Alterações ao Preço,Estado,N.º registo do Acordo Quadro,Descrição do Acordo Quadro,Procedimento Centralizado
Ajuste Directo nº040007732014-Reagentes para o Serviço de Patologia Clinica,Ajuste Direto Regime Geral,Aquisição de bens móveis,"33696500-0, Reagentes de laboratório","Centro Hospitalar e Universitário de Coimbra, E. P. E. (510103448)","BIO-RAD LABORATORIES, LDA (501301321)","11.900,00 €",19-06-2015,02-10-2014,365 dias,"Portugal, Coimbra, Coimbra","Artigo 26.º, n.º 1, alínea a) do Código dos Contratos Públicos",31-12-2014,"11.900,00 €",,,,Não aplicável.,Não aplicável.,FALSE
Ajuste Directo nº040007792014-Reagentes para o Serviço de Patologia Clinica,Ajuste Direto Regime Geral,Aquisição de bens móveis,"33696500-0, Reagentes de laboratório","Centro Hospitalar e Universitário de Coimbra, E. P. E. (510103448)","EMILIO AZEVEDO CAMPOS, SA (500094853)","10.925,00 €",18-06-2015,28-10-2014,365 dias,"Portugal, Coimbra, Coimbra","Artigo 26.º, n.º 1, alínea a) do Código dos Contratos Públicos",31-12-2014,"10.925,00 €",,,,Não aplicável.,Não aplicável.,FALSE
REAGENTES PARA O SERVIÇO DE SANGUE MEDICINA TRANSFUSIONAL,Ajuste Direto Regime Geral,Aquisição de bens móveis,"33696500-0, Reagentes de laboratório","Centro Hospitalar e Universitário de Coimbra, E. P. E. (510103448)",BIOMERIEUX (501524177),"6.019,03 €",17-06-2015,14-05-2014,365 dias,"Portugal, Coimbra, Coimbra","Artigo 26.º, n.º 1, alínea a) do Código dos Contratos Públicos",31-12-2014,"6.019,03 €",,,,Não aplicável.,Não aplicável.,FALSE
Ajuste Directo nº040006672014-Reagentes para o Serviço de Sangue e Medicina Transfusional,Ajuste Direto Regime Geral,Aquisição de bens móveis,"33696500-0, Reagentes de laboratório","Centro Hospitalar e Universitário de Coimbra, E. P. E. (510103448)","ABBOTT LABORATORIOS, LDA (500006148)","5.960,00 €",17-06-2015,28-05-2014,365 dias,"Portugal, Coimbra, Coimbra","Artigo 26.º, n.º 1, alínea a) do Código dos Contratos Públicos",31-12-2014,"5.960,00 €",,,,Não aplicável.,Não aplicável.,FALSE
REAGENTES PARA O SERVIÇO DE SANGUE E MEDICINA  TRANSFUSIONAL,Ajuste Direto Regime Geral,Aquisição de bens móveis,"33696500-0, Reagentes de laboratório","Centro Hospitalar e Universitário de Coimbra, E. P. E. (510103448)",DIAMED (501675809),"10.103,54 €",16-06-2015,17-04-2014,365 dias,"Portugal, Coimbra, Coimbra","Artigo 26.º, n.º 1, alínea a) do Código dos Contratos Públicos",31-12-2014,"10.103,54 €",,,,Não aplicável.,Não aplicável.,FALSE
"040103282014 - Hialuronato de sódio 30 mg/ml sulfato de condroitina 40mg/ml sol iocular ser 0,5ml",Ajuste Direto Regime Geral,Aquisição de bens móveis,"33698000-9, Produtos para fins clínicos","Centro Hospitalar e Universitário de Coimbra, E. P. E. (510103448)",Alcon Portugal (501251685),"3.240,00 €",15-06-2015,06-05-2014,365 dias,"Portugal, Coimbra, Coimbra","Artigo 20.º, n.º 1, alínea a) do Código dos Contratos Públicos",31-12-2014,"3.240,00 €",,,,Não aplicável.,Não aplicável.,FALSE
040103132014 - Pegaspargase 3750UI sol inj,Ajuste Direto Regime Geral,Aquisição de bens móveis,"33698000-9, Produtos para fins clínicos","Centro Hospitalar e Universitário de Coimbra, E. P. E. (510103448)",Alloga Portugal (504507230),"195.000,00 €",15-06-2015,21-07-2014,365 dias,"Portugal, Coimbra, Coimbra","Artigo 24.º, n.º 1, alínea e) do Código dos Contratos Públicos",31-12-2014,"195.000,00 €",,,,Não aplicável.,Não aplicável.,FALSE
040102942014 - Pantoprazol 40mg pó sol inj fr IV,Ajuste Direto Regime Geral,Aquisição de bens móveis,"33698000-9, Produtos para fins clínicos","Centro Hospitalar e Universitário de Coimbra, E. P. E. (510103448)",Overpharma - Produtos Medico Farmaceuticos Lda (505792362),"14.071,09 €",15-06-2015,05-06-2014,365 dias,"Portugal, Coimbra, Coimbra","Artigo 20.º, n.º 1, alínea a) do Código dos Contratos Públicos",31-12-2014,"14.071,09 €",,,,Não aplicável.,Não aplicável.,FALSE
040102632014 - Cloreto de Sódio 9mg/ml Sol Irrigação fr 1000ml cutanea (canula),Ajuste Direto Regime Geral,Aquisição de bens móveis,"33698000-9, Produtos para fins clínicos","Centro Hospitalar e Universitário de Coimbra, E. P. E. (510103448)",Labesfal Laboratorios Almiro SA (501169580),"7.837,20 €",15-06-2015,08-05-2014,365 dias,"Portugal, Coimbra, Coimbra","Artigo 20.º, n.º 1, alínea a) do Código dos Contratos Públicos",31-12-2014,"7.837,20 €",,,,Não aplicável.,Não aplicável.,FALSE
040102492014 - Prednisolona 20mg espuma rect,Ajuste Direto Regime Geral,Aquisição de bens móveis,"33698000-9, Produtos para fins clínicos","Centro Hospitalar e Universitário de Coimbra, E. P. E. (510103448)",Pharmis Biofarmaceutica Lda (502595442),"1.893,00 €",15-06-2015,01-04-2014,365 dias,"Portugal, Coimbra, Coimbra","Artigo 24.º, n.º 1, alínea e) do Código dos Contratos Públicos",31-12-2014,"1.893,00 €",,,,Não aplicável.,Não aplicável.,FALSE
040102792014 - Bleomicina 15000UI pó sol inj fr IA Intralesional IM Iperitoneal IV,Ajuste Direto Regime Geral,Aquisição de bens móveis,"33698000-9, Produtos para fins clínicos","Centro Hospitalar e Universitário de Coimbra, E. P. E. (510103448)",Hospira Portugal Lda (502918098),"13.875,00 €",15-06-2015,06-05-2014,365 dias,"Portugal, Coimbra, Coimbra","Artigo 24.º, n.º 1, alínea e) do Código dos Contratos Públicos",31-12-2014,"13.875,00 €",,,,Não aplicável.,Não aplicável.,FALSE
040102762014 - Fenoxibenzamina 10mg caps,Ajuste Direto Regime Geral,Aquisição de bens móveis,"33698000-9, Produtos para fins clínicos","Centro Hospitalar e Universitário de Coimbra, E. P. E. (510103448)",Idis the Wordl Medicines (700513982),"11.718,00 €",15-06-2015,09-04-2014,365 dias,"Portugal, Coimbra, Coimbra","Artigo 24.º, n.º 1, alínea e) do Código dos Contratos Públicos",31-12-2014,"11.718,00 €",,,,Não aplicável.,Não aplicável.,FALSE
040102742014 - Alergeno Amoxicilina DAP 20mg frs,Ajuste Direto Regime Geral,Aquisição de bens móveis,"33698000-9, Produtos para fins clínicos","Centro Hospitalar e Universitário de Coimbra, E. P. E. (510103448)",Laboratorios Q Pharma Lda (507518403),"639,00 €",15-06-2015,06-05-2014,365 dias,"Portugal, Coimbra, Coimbra","Artigo 20.º, n.º 1, alínea a) do Código dos Contratos Públicos",31-12-2014,"639,00 €",,,,Não aplicável.,Não aplicável.,FALSE
040102722014 - Permetrina 50mg/g cr bisn 30g,Ajuste Direto Regime Geral,Aquisição de bens móveis,"33698000-9, Produtos para fins clínicos","Centro Hospitalar e Universitário de Coimbra, E. P. E. (510103448)",Idis the World Medicines (700513982),"1.100,00 €",15-06-2015,09-04-2014,365 dias,"Portugal, Coimbra, Coimbra","Artigo 24.º, n.º 1, alínea e) do Código dos Contratos Públicos",31-12-2014,"1.100,00 €",,,,Não aplicável.,Não aplicável.,FALSE
040102572014 - Reagente DET Hemoglobina A1C  embal.,Ajuste Direto Regime Geral,Aquisição de bens móveis,"33698000-9, Produtos para fins clínicos","Centro Hospitalar e Universitário de Coimbra, E. P. E. (510103448)",Izasa Portugal Lda (501086110),"7.350,00 €",15-06-2015,12-06-2014,365 dias,"Portugal, Coimbra, Coimbra","Artigo 20.º, n.º 1, alínea a) do Código dos Contratos Públicos",31-12-2014,"7.350,00 €",,,,Não aplicável.,Não aplicável.,FALSE
040102592014 - Apomorfina 20mg/2ml sol inj,Ajuste Direto Regime Geral,Aquisição de bens móveis,"33698000-9, Produtos para fins clínicos","Centro Hospitalar e Universitário de Coimbra, E. P. E. (510103448)",Italfarmaco Produtos Farmaceuticos Lda (504591126),"60,62 €",15-06-2015,01-04-2014,365 dias,"Portugal, Coimbra, Coimbra","Artigo 24.º, n.º 1, alínea e) do Código dos Contratos Públicos",31-12-2014,"60,62 €",,,,Não aplicável.,Não aplicável.,FALSE
040102602014 - Daunorrubicina 20mg pó sol inj fr IV,Ajuste Direto Regime Geral,Aquisição de bens móveis,"33698000-9, Produtos para fins clínicos","Centro Hospitalar e Universitário de Coimbra, E. P. E. (510103448)",Sanofi Produtos Farmaceuticos Lda (500134960),"9.000,00 €",15-06-2015,09-04-2014,365 dias,"Portugal, Coimbra, Coimbra","Artigo 24.º, n.º 1, alínea e) do Código dos Contratos Públicos",31-12-2014,"9.000,00 €",,,,Não aplicável.,Não aplicável.,FALSE
040102472014 - Corticorrelina 0.1mg pó sol inj,Ajuste Direto Regime Geral,Aquisição de bens móveis,"33698000-9, Produtos para fins clínicos","Centro Hospitalar e Universitário de Coimbra, E. P. E. (510103448)",Epharma UK (944893866),"6.992,40 €",15-06-2015,13-03-2014,365 dias,"Portugal, Coimbra, Coimbra","Artigo 24.º, n.º 1, alínea e) do Código dos Contratos Públicos",31-12-2014,"6.992,40 €",,,,Não aplicável.,Não aplicável.,FALSE
"aquisição de um equipamento de Tomografia Computorizada 4D para o Serviço de Radioterapia do CHUC, E.P.E",Concurso público,Aquisição de bens móveis,"33115000-9, Aparelhos para tomografia","Centro Hospitalar e Universitário de Coimbra, E. P. E. (510103448)","Siemens, SA. (500247480)","178.000,00 €",12-06-2015,01-06-2015,20 dias,"Portugal, Coimbra, Coimbra",Artigo 155.º do Código dos Contratos Públicos,"","",,,,Não aplicável.,Não aplicável.,FALSE
040102392015 - Ivermectina 3mg comp,Ajuste Direto Regime Geral,Aquisição de bens móveis,"33698000-9, Produtos para fins clínicos","Centro Hospitalar e Universitário de Coimbra, E. P. E. (510103448)",Merck Sharp & Dohme (500191360),"3.125,00 €",12-06-2015,01-04-2014,365 dias,"Portugal, Coimbra, Coimbra","Artigo 24.º, n.º 1, alínea e) do Código dos Contratos Públicos",31-12-2014,"3.125,00 €",,,,Não aplicável.,Não aplicável.,FALSE
040102252014 - Cloreto de Obidoxima 250mg/ml sol inj,Ajuste Direto Regime Geral,Aquisição de bens móveis,"33698000-9, Produtos para fins clínicos","Centro Hospitalar e Universitário de Coimbra, E. P. E. (510103448)",Merck SA (500650870),"1.950,00 €",12-06-2015,14-03-2014,365 dias,"Portugal, Coimbra, Coimbra","Artigo 24.º, n.º 1, alínea e) do Código dos Contratos Públicos",31-12-2014,"1.950,00 €",,,,Não aplicável.,Não aplicável.,FALSE
040101662014 - Flucitosina 500mg comp,Ajuste Direto Regime Geral,Aquisição de bens móveis,"33698000-9, Produtos para fins clínicos","Centro Hospitalar e Universitário de Coimbra, E. P. E. (510103448)",Idis the Wordl Medicines (700513982),"1.125,00 €",11-06-2015,28-02-2014,365 dias,"Portugal, Coimbra, Coimbra","Artigo 24.º, n.º 1, alínea e) do Código dos Contratos Públicos",31-12-2014,"1.125,00 €",,,,Não aplicável.,Não aplicável.,FALSE
040101652014 - Labetalol 100mg/20ml sol inj,Ajuste Direto Regime Geral,Aquisição de bens móveis,"33698000-9, Produtos para fins clínicos","Centro Hospitalar e Universitário de Coimbra, E. P. E. (510103448)",Idis the Wordl Medicines (700513982),"13.500,00 €",11-06-2015,20-06-2014,365 dias,"Portugal, Coimbra, Coimbra","Artigo 24.º, n.º 1, alínea e) do Código dos Contratos Públicos",31-12-2014,"13.500,00 €",,,,Não aplicável.,Não aplicável.,FALSE
040101622014 - Calcitonina de salmão 100UI/1ml sol inj fr 1ml IM IV SC,Ajuste Direto Regime Geral,Aquisição de bens móveis,"33698000-9, Produtos para fins clínicos","Centro Hospitalar e Universitário de Coimbra, E. P. E. (510103448)",Idis the World Medicines (700513982),"1.300,00 €",11-06-2015,28-02-2014,365 dias,"Portugal, Coimbra, Coimbra","Artigo 24.º, n.º 1, alínea e) do Código dos Contratos Públicos",31-12-2014,"1.300,00 €",,,,Não aplicável.,Não aplicável.,FALSE
040101772014 - Dantroleno 20mg pó sol inj fr IV,Ajuste Direto Regime Geral,Aquisição de bens móveis,"33698000-9, Produtos para fins clínicos","Centro Hospitalar e Universitário de Coimbra, E.P. (510103448)",H.R. Hospitalar  Lda (501895558),"33.835,20 €",11-06-2015,11-06-2014,365 dias,"Portugal, Coimbra, Coimbra","Artigo 24.º, n.º 1, alínea e) do Código dos Contratos Públicos","","",,,,Não aplicável.,Não aplicável.,FALSE
040101492014 - Vaselina sólida purificada bisn 20g,Ajuste Direto Regime Geral,Aquisição de bens móveis,"33698000-9, Produtos para fins clínicos","Centro Hospitalar e Universitário de Coimbra, E. P. E. (510103448)",Overpharma Produtos Medico Farmaceuticos (505792362),"3.227,04 €",11-06-2015,23-05-2014,365 dias,"Portugal, Coimbra, Coimbra","Artigo 20.º, n.º 1, alínea a) do Código dos Contratos Públicos",31-12-2014,"3.227,04 €",,,,Não aplicável.,Não aplicável.,FALSE
040101292014 - Pentetreotida de indio (111IN) 122 MBQ+10mg Prec Radiof Fr 1.1ml,Ajuste Direto Regime Geral,Aquisição de bens móveis,"33698000-9, Produtos para fins clínicos","Centro Hospitalar e Universitário de Coimbra, E. P. E. (510103448)",Advanced Accelerator (509917267),"1.140,00 €",11-06-2015,12-03-2014,365 dias,"Portugal, Coimbra, Coimbra","Artigo 24.º, n.º 1, alínea e) do Código dos Contratos Públicos",31-12-2014,"1.140,00 €",,,,Não aplicável.,Não aplicável.,FALSE
040101352014 - Atropina 5mg/0.5ml col sol,Ajuste Direto Regime Geral,Aquisição de bens móveis,"33698000-9, Produtos para fins clínicos","Centro Hospitalar e Universitário de Coimbra, E. P. E. (510103448)",Bausch & Lomb (980218764),"325,00 €",11-06-2015,28-02-2014,365 dias,"Portugal, Coimbra, Coimbra","Artigo 24.º, n.º 1, alínea e) do Código dos Contratos Públicos",31-12-2014,"325,00 €",,,,Não aplicável.,Não aplicável.,FALSE
040101392014 - Amsacrina 50mg/nl sol inj,Ajuste Direto Regime Geral,Aquisição de bens móveis,"33698000-9, Produtos para fins clínicos","Centro Hospitalar e Universitário de Coimbra, E. P. E. (510103448)",Etiopharma SA (509393357),"19.537,92 €",11-06-2015,18-03-2014,365 dias,"Portugal, Coimbra, Coimbra","Artigo 24.º, n.º 1, alínea e) do Código dos Contratos Públicos",31-12-2014,"19.537,92 €",,,,Não aplicável.,Não aplicável.,FALSE
Imunoglobulina humana contra a hepatite B 2400 UI pó sol inj fr IV,Ajuste Direto Regime Geral,Aquisição de bens móveis,"33698000-9, Produtos para fins clínicos","Centro Hospitalar e Universitário de Coimbra, E. P. E. (510103448)",Kedrion Portugal (507791690),"21.750,00 €",11-06-2015,24-01-2014,365 dias,"Portugal, Coimbra, Coimbra","Artigo 24.º, n.º 1, alínea e) do Código dos Contratos Públicos",31-12-2014,"21.750,00 €",,,,Não aplicável.,Não aplicável.,FALSE
