Objeto do Contrato,Tipo de Procedimento,Tipo(s) de Contrato,CPVs,Entidade(s) Adjudicante(s),Entidade(s) Adjudicatária(s),Preço Contratual,Data de Publicação,Data de Celebração do Contrato,Prazo de Execução,Local de Execução,Fundamentação,Data de Fecho do Contrato,Preço Total Efetivo,Causas das Alterações ao Prazo,Causas das Alterações ao Preço,Estado,N.º registo do Acordo Quadro,Descrição do Acordo Quadro,Procedimento Centralizado
Cavilhas telescópicas,Ajuste Direto Regime Geral,Aquisição de bens móveis,"33000000-0, Equipamento médico, medicamentos e produtos para cuidados pessoais","Centro Hospitalar de Lisboa Central, E. P. E. (508080142)",EXPOMEDICA - SOC. EXP. IMP. MAT. (501886621),"17.500,00 €",11-07-2017,27-06-2017,187 dias,"Portugal, Lisboa, Lisboa","Artigo 20.º, n.º 1, alínea a) do Código dos Contratos Públicos",,,,,,Não aplicável.,Não aplicável.,FALSE
Próteses de revisão,Ajuste Direto Regime Geral,Aquisição de bens móveis,"33000000-0, Equipamento médico, medicamentos e produtos para cuidados pessoais","Centro Hospitalar de Lisboa Central, E. P. E. (508080142)",Zimmer Biomet (500254990),"14.725,00 €",11-07-2017,22-06-2017,192 dias,"Portugal, Lisboa, Lisboa","Artigo 24.º, n.º 1, alínea e) do Código dos Contratos Públicos",,,,,,Não aplicável.,Não aplicável.,FALSE
ENZALUTAMIDA+LEUPRORRELINA,Ao abrigo de acordo-quadro (art.º 259.º),Aquisição de bens móveis,"33000000-0, Equipamento médico, medicamentos e produtos para cuidados pessoais","Centro Hospitalar de Lisboa Central, E. P. E. (508080142)","ASTELLAS FARMA, LDA.                               (502540249)","421.144,92 €",10-07-2017,16-06-2017,175 dias,"Portugal, Lisboa, Lisboa",Artigo 259.º do Código dos Contratos Públicos,,,,,,1771819,CP 2015/6 - Acordo quadro para o fornecimento de Medicamentos do Foro Oncológico,FALSE
Consumíveis para Artroscopia,Concurso público,Aquisição de bens móveis,"33140000-3, Material médico de consumo","Centro Hospitalar de Lisboa Central, E. P. E. (508080142)","Smith & Nephew, Lda. (503552461)","22.171,50 €",10-07-2017,27-06-2017,365 dias,"Portugal, Lisboa, Lisboa","Artigo 20.º, n.º 1, alínea b) do Código dos Contratos Públicos",,,,,,Não aplicável.,Não aplicável.,FALSE
Consumíveis para Artroscopia,Concurso público,Aquisição de bens móveis,"33140000-3, Material médico de consumo","Centro Hospitalar de Lisboa Central, E. P. E. (508080142)",Zimmer Biomet (500254990),"72.468,00 €",10-07-2017,28-06-2017,365 dias,"Portugal, Lisboa, Lisboa","Artigo 20.º, n.º 1, alínea b) do Código dos Contratos Públicos",,,,,,Não aplicável.,Não aplicável.,FALSE
Consumíveis para Artroscopia,Concurso público,Aquisição de bens móveis,"33140000-3, Material médico de consumo","Centro Hospitalar de Lisboa Central, E. P. E. (508080142)",JOHNSON JOHNSON MEDICAL (500153370),"23.250,00 €",10-07-2017,20-06-2017,365 dias,"Portugal, Lisboa, Lisboa","Artigo 20.º, n.º 1, alínea b) do Código dos Contratos Públicos",,,,,,Não aplicável.,Não aplicável.,FALSE
Consumíveis para Artroscopia,Concurso público,Aquisição de bens móveis,"33140000-3, Material médico de consumo","Centro Hospitalar de Lisboa Central, E. P. E. (508080142)","STRYKER PORTUGAL - PRODUTOS MEDICOS, UNIPESSOAL,LDA. (504594214)","476.505,00 €",10-07-2017,14-06-2017,365 dias,"Portugal, Lisboa, Lisboa","Artigo 20.º, n.º 1, alínea b) do Código dos Contratos Públicos",,,,,,Não aplicável.,Não aplicável.,FALSE
Kit´s de deialise longa duração,Ajuste Direto Regime Geral,Aquisição de bens móveis,"33100000-1, Equipamento médico","Centro Hospitalar de Lisboa Central, E.P.E. (CHLC) (508080142)","MEDINFAR-SOROLOGICO, SA (501197052)","14.175,00 €",10-07-2017,09-06-2017,205 dias,"Portugal, Lisboa, Lisboa","Artigo 20.º, n.º 1, alínea a) do Código dos Contratos Públicos",,,,,,Não aplicável.,Não aplicável.,FALSE
FUMARATO DE DIMETILO,Ao abrigo de acordo-quadro (art.º 259.º),Aquisição de bens móveis,"33000000-0, Equipamento médico, medicamentos e produtos para cuidados pessoais","Centro Hospitalar de Lisboa Central, E. P. E. (508080142)","BIOGEN IDEC PORTUGAL-SOC FARM UNIP,LDA (506415740)","14.537,24 €",06-07-2017,16-06-2017,178 dias,"Portugal, Lisboa, Lisboa",Artigo 259.º do Código dos Contratos Públicos,,,,,,1771819,CP 2015/6 - Acordo quadro para o fornecimento de Medicamentos do Foro Oncológico,FALSE
LEUPRORRELINA,Ao abrigo de acordo-quadro (art.º 259.º),Aquisição de bens móveis,"33000000-0, Equipamento médico, medicamentos e produtos para cuidados pessoais","Centro Hospitalar de Lisboa Central, E. P. E. (508080142)","ASTELLAS FARMA, LDA.                               (502540249)","24.930,00 €",06-07-2017,14-06-2017,178 dias,"Portugal, Lisboa, Lisboa",Artigo 259.º do Código dos Contratos Públicos,,,,,,1771819,CP 2015/6 - Acordo quadro para o fornecimento de Medicamentos do Foro Oncológico,FALSE
ENTECAVIR,Ao abrigo de acordo-quadro (art.º 259.º),Aquisição de bens móveis,"33000000-0, Equipamento médico, medicamentos e produtos para cuidados pessoais","Centro Hospitalar de Lisboa Central, E. P. E. (508080142)","BRISTOL MYERS SQUIBB FARM.PORTUGUESA, SA (500048193)","57.279,18 €",06-07-2017,30-01-2017,178 dias,"Portugal, Lisboa, Lisboa",Artigo 259.º do Código dos Contratos Públicos,,,,,,1422736,CP 2015/41 - ACORDO QUADRO PARA FORNECIMENTO DE MEDICAMENTOS ANTI-INFECIOSOS: ANTIVÍRICOS E ANTIFÚNGICOS ÀS INSTITUIÇÕES E SERVIÇOS DO SERVIÇO NACIONAL DE SAÚDE,FALSE
Agulha de Biopsia Mamária,Ajuste Direto Regime Geral,Aquisição de bens móveis,"33140000-3, Material médico de consumo","Centro Hospitalar de Lisboa Central, E.P.E. (CHLC) (508080142)","C. R. BARD PORTUGAL, LDA. (502438274)","8.570,00 €",06-07-2017,06-07-2017,192 dias,"Portugal, Lisboa, Lisboa","Artigo 20.º, n.º 1, alínea a) do Código dos Contratos Públicos",,,,,,Não aplicável.,Não aplicável.,FALSE
"Fios Guia Hidrofílicos 0,014 para Angioplastia Distal",Concurso público,Aquisição de bens móveis,"33140000-3, Material médico de consumo","Centro Hospitalar de Lisboa Central, E. P. E. (508080142)","J.M.Farmacêutica, S.A. (503550558)","163.800,00 €",06-07-2017,30-06-2017,1095 dias,"Portugal, Lisboa, Lisboa","Artigo 20.º, n.º 1, alínea b) do Código dos Contratos Públicos",,,,,,Não aplicável.,Não aplicável.,FALSE
FUMARATO DE DIMETILO,Ajuste Direto Regime Geral,Aquisição de bens móveis,"33000000-0, Equipamento médico, medicamentos e produtos para cuidados pessoais","Centro Hospitalar de Lisboa Central, E. P. E. (508080142)",BIOGEN IDEC (506415740),"67.088,60 €",05-07-2017,30-06-2017,179 dias,"Portugal, Lisboa, Lisboa","Artigo 24.º, n.º 1, alínea e) do Código dos Contratos Públicos",,,,,,Não aplicável.,Não aplicável.,FALSE
Material para colheita de sangue,Ao abrigo de acordo-quadro (art.º 259.º),Aquisição de bens móveis,"33000000-0, Equipamento médico, medicamentos e produtos para cuidados pessoais","Centro Hospitalar de Lisboa Central, E. P. E. (508080142)",SARSTEDT-TECNOLOGIA DE LABORATÓRIO (503019461),"75,75 €",05-07-2017,05-07-2017,178 dias,"Portugal, Lisboa, Lisboa","Artigo 20.º, n.º 1, alínea b) do Código dos Contratos Públicos",,,,,,1350003,Acordo Quadro para fornecimento de sistemas fechados e material diverso de recolha de sangue às instituições do SNS,FALSE
"Aquisição de 2 desfibrilhadores para o CHLC, EPE (HSJ) face ao plano de contingência para temperaturas extremas adversas – módulo de inverno",Ajuste Direto Regime Geral,Aquisição de bens móveis,"33100000-1, Equipamento médico","Centro Hospitalar de Lisboa Central, E. P. E. (508080142)","PHYSIO PORTUGAL SALES Unipessoal, LDA (510137946)","15.190,00 €",05-07-2017,05-01-2017,30 dias,"Portugal, Lisboa, Lisboa","Artigo 24.º, n.º 1, alínea c) do Código dos Contratos Públicos",,,,,,Não aplicável.,Não aplicável.,FALSE
"Aquisição de Fonte de Luz Fria Vídeo Light 400 NS:1554, para o Bloco Operatório Central do CHLC, E.P.E., HSJ",Ajuste Direto Regime Geral,Aquisição de bens móveis,"33000000-0, Equipamento médico, medicamentos e produtos para cuidados pessoais","Centro Hospitalar de Lisboa Central, E.P.E. (CHLC) (508080142)",B BRAUN MEDICAL LDA (501506543),"4.300,00 €",05-07-2017,20-12-2016,3 dias,"Portugal, Lisboa, Lisboa","Artigo 24.º, n.º 1, alínea e) do Código dos Contratos Públicos",,,,,,Não aplicável.,Não aplicável.,FALSE
"Aquisição de 2 frigoríficos para medicamentos, para o CHLC, EPE (HSJ) face ao plano de contingência para temperaturas extremas adversas – módulo de inverno",Ajuste Direto Regime Geral,Aquisição de bens móveis,"39711130-9, Frigoríficos","Centro Hospitalar de Lisboa Central, E.P.E. (CHLC) (508080142)","Frilabo, Lda (507958861)","3.000,00 €",05-07-2017,23-12-2016,1 dias,"Portugal, Lisboa, Lisboa","Artigo 24.º, n.º 1, alínea c) do Código dos Contratos Públicos",,,,,,Não aplicável.,Não aplicável.,FALSE
"Aquisição de cadeiras de rodas e de higiene, para o CHLC, EPE (HSJ) face ao plano de contingência para temperaturas extremas adversas – módulo de inverno",Ajuste Direto Regime Geral,Aquisição de bens móveis,"33000000-0, Equipamento médico, medicamentos e produtos para cuidados pessoais","Centro Hospitalar de Lisboa Central, E.P.E. (CHLC) (508080142)","Ortopedia Moderna, Lda. (500481300)","519,00 €",05-07-2017,13-01-2017,3 dias,"Portugal, Lisboa, Lisboa","Artigo 24.º, n.º 1, alínea c) do Código dos Contratos Públicos",,,,,,Não aplicável.,Não aplicável.,FALSE
"Aquisição de cadeiras de rodas e de higiene, para o CHLC, EPE (HSJ) face ao plano de contingência para temperaturas extremas adversas – módulo de inverno",Ajuste Direto Regime Geral,Aquisição de bens móveis,"33000000-0, Equipamento médico, medicamentos e produtos para cuidados pessoais","Centro Hospitalar de Lisboa Central, E.P.E. (CHLC) (508080142)","Ortopedia Moderna, Lda. (500481300)","324,00 €",05-07-2017,13-01-2017,3 dias,"Portugal, Lisboa, Lisboa","Artigo 24.º, n.º 1, alínea c) do Código dos Contratos Públicos",,,,,,Não aplicável.,Não aplicável.,FALSE
ABIRATERONA,Ao abrigo de acordo-quadro (art.º 259.º),Aquisição de bens móveis,"33000000-0, Equipamento médico, medicamentos e produtos para cuidados pessoais","Centro Hospitalar de Lisboa Central, E. P. E. (508080142)","Janssen Cilag Farmacêutica, Lda (500189412)","104.129,28 €",05-07-2017,31-05-2017,179 dias,"Portugal, Lisboa, Lisboa",Artigo 259.º do Código dos Contratos Públicos,,,,,,1771819,CP 2015/6 - Acordo quadro para o fornecimento de Medicamentos do Foro Oncológico,FALSE
BOSENTANO,Ajuste Direto Regime Geral,Aquisição de bens móveis,"33000000-0, Equipamento médico, medicamentos e produtos para cuidados pessoais","Centro Hospitalar de Lisboa Central, E. P. E. (508080142)","ACTELION PHARMACEUTICALS PORTUGAL, LDA. (507336488)","91.280,00 €",05-07-2017,22-06-2017,179 dias,"Portugal, Lisboa, Lisboa","Artigo 24.º, n.º 1, alínea c) do Código dos Contratos Públicos",,,,,,Não aplicável.,Não aplicável.,FALSE
EPTACOG ALFA (ACTIVADO),Ajuste Direto Regime Geral,Aquisição de bens móveis,"33000000-0, Equipamento médico, medicamentos e produtos para cuidados pessoais","Centro Hospitalar de Lisboa Central, E. P. E. (508080142)","Novo Nordisk - Produtos Farmacêuticos, Lda. (501485210)","5.860,56 €",05-07-2017,26-06-2017,179 dias,"Portugal, Lisboa, Lisboa","Artigo 24.º, n.º 1, alínea c) do Código dos Contratos Públicos",,,,,,Não aplicável.,Não aplicável.,FALSE
"Aquisição de 8 camas para Cuidados Intensivos, para o CHLC, EPE (HSJ) face ao plano de contingência para temperaturas extremas adversas – módulo de inverno",Ajuste Direto Regime Geral,Aquisição de bens móveis,"33100000-1, Equipamento médico","Centro Hospitalar de Lisboa Central, E. P. E. (508080142)","SANO-TECNICA, LDA. (500239819)","47.840,00 €",04-07-2017,03-01-2017,45 dias,"Portugal, Lisboa, Lisboa","Artigo 24.º, n.º 1, alínea c) do Código dos Contratos Públicos",,,,,,Não aplicável.,Não aplicável.,FALSE
"Aquisição de 26 Monitores de PNI com SPO2, para o CHLC, EPE (HSJ) face ao plano de contingência para temperaturas extremas adversas – módulo de inverno",Ajuste Direto Regime Geral,Aquisição de bens móveis,"33100000-1, Equipamento médico","Centro Hospitalar de Lisboa Central, E. P. E. (508080142)","Clinifar, S.A. (503281115)","20.410,00 €",04-07-2017,15-12-2016,1 dias,"Portugal, Lisboa, Lisboa","Artigo 24.º, n.º 1, alínea c) do Código dos Contratos Públicos",,,,,,Não aplicável.,Não aplicável.,FALSE
"Aquisição de 135 Cadeirões e 150 Cadeiras, para o CHLC, EPE (HSJ) face ao plano de contingência para temperaturas extremas adversas – módulo de inverno",Ajuste Direto Regime Geral,Aquisição de bens móveis,"39110000-6, Assentos, cadeiras e produtos afins e peças associadas","Centro Hospitalar de Lisboa Central, E. P. E. (508080142)","Fantoffice, Lda (503847488)","5.610,00 €",04-07-2017,09-12-2016,15 dias,"Portugal, Lisboa, Lisboa","Artigo 24.º, n.º 1, alínea c) do Código dos Contratos Públicos",,,,,,Não aplicável.,Não aplicável.,FALSE
"Aquisição de 135 Cadeirões e 150 Cadeiras, para o CHLC, EPE (HSJ) face ao plano de contingência para temperaturas extremas adversas – módulo de inverno",Ajuste Direto Regime Geral,Aquisição de bens móveis,"39110000-6, Assentos, cadeiras e produtos afins e peças associadas","Centro Hospitalar de Lisboa Central, E. P. E. (508080142)",Mundinter (500199906),"28.799,55 €",04-07-2017,09-12-2016,15 dias,"Portugal, Lisboa, Lisboa","Artigo 24.º, n.º 1, alínea c) do Código dos Contratos Públicos",,,,,,Não aplicável.,Não aplicável.,FALSE
"Aquisição de 1 carro de penso, 1 carro de emergência, 4 elevadores de doentes e 1 máquina de lavar arrastadeiras, para o CHLC, EPE (HSJ) face ao plano de contingência para temperaturas extremas adversas – módulo de inverno",Ajuste Direto Regime Geral,Aquisição de bens móveis,"33100000-1, Equipamento médico","Centro Hospitalar de Lisboa Central, E. P. E. (508080142)",A.J. COSTA (500002576),"6.000,00 €",04-07-2017,03-01-2017,15 dias,"Portugal, Lisboa, Lisboa","Artigo 24.º, n.º 1, alínea c) do Código dos Contratos Públicos",,,,,,Não aplicável.,Não aplicável.,FALSE
"Aquisição de 1 carro de penso, 1 carro de emergência, 4 elevadores de doentes e 1 máquina de lavar arrastadeiras, para o CHLC, EPE (HSJ) face ao plano de contingência para temperaturas extremas adversas – módulo de inverno",Ajuste Direto Regime Geral,Aquisição de bens móveis,"33100000-1, Equipamento médico","Centro Hospitalar de Lisboa Central, E. P. E. (508080142)","Ergométrica, Produtos de Apoio, Ortopédicos e de Elevação, Lda. (502111216)","2.600,00 €",04-07-2017,09-01-2017,15 dias,"Portugal, Lisboa, Lisboa","Artigo 24.º, n.º 1, alínea c) do Código dos Contratos Públicos",,,,,,Não aplicável.,Não aplicável.,FALSE
"aquisição de 1 carro de penso, 1 carro de emergência, 4 elevadores de doentes e 1 máquina de lavar arrastadeiras, para o CHLC, EPE (HSJ) face ao plano de contingência para temperaturas extremas adversas – módulo de inverno",Ajuste Direto Regime Geral,Aquisição de bens móveis,"33100000-1, Equipamento médico","Centro Hospitalar de Lisboa Central, E. P. E. (508080142)","Ergométrica, Produtos de Apoio, Ortopédicos e de Elevação, Lda. (502111216)","1.392,00 €",04-07-2017,09-01-2017,15 dias,"Portugal, Lisboa, Lisboa","Artigo 24.º, n.º 1, alínea c) do Código dos Contratos Públicos",,,,,,Não aplicável.,Não aplicável.,FALSE
AMBRISENTANO,Ao abrigo de acordo-quadro (art.º 259.º),Aquisição de bens móveis,"33000000-0, Equipamento médico, medicamentos e produtos para cuidados pessoais","Centro Hospitalar de Lisboa Central, E. P. E. (508080142)",GlaxoSmithKline - Produtos Farmacêuticos Lda. (500139962),"21.014,14 €",04-07-2017,16-06-2017,180 dias,"Portugal, Lisboa, Lisboa",Artigo 259.º do Código dos Contratos Públicos,,,,,,1179915,"CONCURSO PÚBLICO PARA A CELEBRAÇÃO DE CONTRATOS PÚBLICOS DE APROVISIONAMENTO PARA A ÁREA DA SAÚDE, COM VISTA AO FORNECIMENTO DE MEDICAMENTOS DO APARELHO CARDIOVASCULAR, ÀS INSTITUIÇÕES E SERVIÇOS DO SERVIÇO NACIONAL DE SAÚDE",FALSE
"Aquisição de 1 carro de penso, 1 carro de emergência, 4 elevadores de doentes e 1 máquina de lavar arrastadeiras, para o CHLC, EPE (HSJ) face ao plano de contingência para temperaturas extremas adversas – módulo de inverno",Ajuste Direto Regime Geral,Aquisição de bens móveis,"33100000-1, Equipamento médico","Centro Hospitalar de Lisboa Central, E. P. E. (508080142)",Mundinter (500199906),"1.210,28 €",04-07-2017,03-01-2017,15 dias,"Portugal, Lisboa, Lisboa","Artigo 24.º, n.º 1, alínea c) do Código dos Contratos Públicos",,,,,,Não aplicável.,Não aplicável.,FALSE
ETANERCEPT,Ajuste Direto Regime Geral,Aquisição de bens móveis,"33000000-0, Equipamento médico, medicamentos e produtos para cuidados pessoais","Centro Hospitalar de Lisboa Central, E. P. E. (508080142)","Pfizer Biofarmaceutica, Sociedade Unipessoal Lda. (513300376)","572.460,00 €",04-07-2017,30-06-2017,180 dias,"Portugal, Lisboa, Lisboa","Artigo 24.º, n.º 1, alínea c) do Código dos Contratos Públicos",,,,,,Não aplicável.,Não aplicável.,FALSE
"Aquisição de monitor cardiorespiratório multiparâmetros e 2 aparelhos não invasivos alto fluxo nasal com humidificador - Plano de Contingência – Módulo de Inverno, para o CHLC – EPE",Ajuste Direto Regime Geral,Aquisição de bens móveis,"33100000-1, Equipamento médico","Centro Hospitalar de Lisboa Central, E. P. E. (508080142)",Dimorasept (510258786),"221,26 €",03-07-2017,23-12-2016,15 dias,"Portugal, Lisboa, Lisboa","Artigo 24.º, n.º 1, alínea c) do Código dos Contratos Públicos",,,,,,Não aplicável.,Não aplicável.,FALSE
"Aquisição de monitor cardiorespiratório multiparâmetros e 2 aparelhos não invasivos alto fluxo nasal com humidificador - Plano de Contingência – Módulo de Inverno, para o CHLC – EPE",Ajuste Direto Regime Geral,Aquisição de bens móveis,"33100000-1, Equipamento médico","Centro Hospitalar de Lisboa Central, E. P. E. (508080142)","Drager Portugal, Lda. (508771323)","4.363,75 €",03-07-2017,23-12-2016,1 dias,"Portugal, Lisboa, Lisboa","Artigo 24.º, n.º 1, alínea c) do Código dos Contratos Públicos",,,,,,Não aplicável.,Não aplicável.,FALSE
ABATACEPT,Ao abrigo de acordo-quadro (art.º 259.º),Aquisição de bens móveis,"33000000-0, Equipamento médico, medicamentos e produtos para cuidados pessoais","Centro Hospitalar de Lisboa Central, E. P. E. (508080142)","BRISTOL MYERS SQUIBB FARMACEUTICA PORTUGUESA,S A (500048193)","2.560,50 €",03-07-2017,11-01-2017,179 dias,"Portugal, Lisboa, Lisboa",Artigo 259.º do Código dos Contratos Públicos,,,,,,1771819,CP 2015/6 - Acordo quadro para o fornecimento de Medicamentos do Foro Oncológico,FALSE
