Objeto do Contrato,Tipo de Procedimento,Tipo(s) de Contrato,CPVs,Entidade(s) Adjudicante(s),Entidade(s) Adjudicatária(s),Preço Contratual,Data de Publicação,Data de Celebração do Contrato,Prazo de Execução,Local de Execução,Fundamentação,Data de Fecho do Contrato,Preço Total Efetivo,Causas das Alterações ao Prazo,Causas das Alterações ao Preço,Estado,N.º registo do Acordo Quadro,Descrição do Acordo Quadro,Procedimento Centralizado
Prestação de serviços médicos de Ginecologia/Obstetricia,Ajuste Direto Regime Geral,Aquisição de serviços,"85120000-6, Serviços de prática médica e serviços conexos","Hospital do Espírito Santo de Évora, E. P. E. (508085888)",PEREIRA DIAS LDA (504226029),"24.960,00 €",11-12-2015,19-11-2015,90 dias,"Portugal, Évora, Évora","Artigo 20.º, n.º 1, alínea a) do Código dos Contratos Públicos",,,,,,Não aplicável.,Não aplicável.,FALSE
Aquisição de material de penso tradicional,Ao abrigo de acordo-quadro (art.º 259.º),Aquisição de bens móveis,"33141100-1, Pensos; clipes, suturas, ligaduras","Hospital do Espírito Santo de Évora, E. P. E. (508085888)","OVERPHARMA LDA (505792362), BSN MEDICAL SA (505385058), ABILIO FREIRE LDA (500432600), 3M PORTUGAL LDA (500193940), SMITH & NEPHEW LDA (503552461), B BRAUN MEDICAL LDA (501506543), ALBINO DIAS ANDRADE (500013810), BASTOS VIEGAS SA (500042772)","40.198,03 €",10-12-2015,23-11-2015,365 dias,"Portugal, Évora, Évora",Artigo 259.º do Código dos Contratos Públicos,,,,,,534953,"CONCURSO PÚBLICO PARA A CELEBRAÇÃO DE CONTRATOS PÚBLICOS DE APROVISIONAMENTO PARA A ÁREA DA SAÚDE, COM VISTA AO FORNECIMENTO DE MATERIAL DE PENSO TRADICIONAL/CLASSICO - PARTE 1 - ÀS INSTITUIÇÕES E SERVIÇOS DO SERVIÇO NACIONAL DE SAÚDE  ",FALSE
Aquisição de gel hemostático,Ajuste Direto Regime Geral,Aquisição de bens móveis,"33140000-3, Material médico de consumo","Hospital do Espírito Santo de Évora, E. P. E. (508085888)",BAXTER MEDICO FARMACEUTICA LDA (503347345),"4.800,00 €",10-12-2015,26-10-2015,730 dias,"Portugal, Évora, Évora","Artigo 20.º, n.º 1, alínea a) do Código dos Contratos Públicos",,,,,,Não aplicável.,Não aplicável.,FALSE
Aquisição de pó hemostatico para cirurgia,Ajuste Direto Regime Geral,Aquisição de bens móveis,"33190000-8, Dispositivos e produtos médicos variados","Hospital do Espírito Santo de Évora, E. P. E. (508085888)","H R - HOSPITALAR,UNIPESSOAL,LDA (501895558)","43.785,00 €",10-12-2015,05-10-2015,365 dias,"Portugal, Évora, Évora","Artigo 20.º, n.º 1, alínea a) do Código dos Contratos Públicos",,,,,,Não aplicável.,Não aplicável.,FALSE
Aquisição de material disposable para bloco,Ao abrigo de acordo-quadro (art.º 259.º),Aquisição de bens móveis,"33141000-0, Material médico não químico descartável e produtos hematológicos","Hospital do Espírito Santo de Évora, E. P. E. (508085888)","PERGUT PORTUGAL (501799729), BASTOS VIEGAS SA (500042772), OASIPOR - IMPORTAÇÃO E EXPORTAÇÃO LDA (502260750), PAUL HARTMANN LDA (502271728)","10.026,84 €",10-12-2015,23-11-2015,365 dias,"Portugal, Évora, Évora",Artigo 259.º do Código dos Contratos Públicos,,,,,,537931,"CONCURSO PÚBLICO PARA A CELEBRAÇÃO DE CONTRATOS PÚBLICOS DE APROVISIONAMENTO PARA A ÁREA DA SAÚDE, COM VISTA AO FORNECIMENTO DE MATERIAL DISPOSABLE DE BLOCO OPERATÓRIO - PARTE 2, ÀS INSTITUIÇÕES E SERVIÇOS DO SERVIÇO NACIONAL DE SAÚDE  ",FALSE
Aquisição de Sistemas de Stents Coronários,Ao abrigo de acordo-quadro (art.º 259.º),Aquisição de bens móveis,"33184100-4, Implantes cirúrgicos","Hospital do Espírito Santo de Évora, E. P. E. (508085888)","MEDTRONIC PORTUGAL LDA (504223933),  TERUMO EUROPE ESPANA SL (PORTUGAL) (PT980472024), LUSOPALEX LDA (503531588), ABBOTT LABORATORIOS LDA (500006148)","429.850,00 €",04-12-2015,12-11-2015,365 dias,"Portugal, Évora, Évora",Artigo 259.º do Código dos Contratos Públicos,,,,,,602205,"CONCURSO PÚBLICO PARA A CELEBRAÇÃO DE CONTRATOS PÚBLICOS DE APROVISIONAMENTO PARA A ÁREA DA SAÚDE, COM VISTA AO FORNECIMENTO SISTEMAS DE STENTS CORONÁRIOS ÀS INSTITUIÇÕES E SERVIÇOS DO SERVIÇO NACIONAL DE SAÚDE",FALSE
Aquisição de dispositivos médicos diversos,Ao abrigo de acordo-quadro (art.º 259.º),Aquisição de bens móveis,"33190000-8, Dispositivos e produtos médicos variados","Hospital do Espírito Santo de Évora, E. P. E. (508085888)","FRESENIUS MEDICAL CARE LDA (503070220), FRESENIUS KABI PHARMA PORTUGAL (504293753), OVERPHARMA LDA (505792362), IBERLAB & IMUNOREAGE SOLUÇÕES LABORATÓRIO (503406694)","21.442,85 €",04-12-2015,13-11-2015,365 dias,"Portugal, Évora, Évora","Artigo 20.º, n.º 1, alínea b) do Código dos Contratos Públicos",,,,,,552526,"CONCURSO PÚBLICO PARA A CELEBRAÇÃO DE CONTRATOS PÚBLICOS DE APROVISIONAMENTO PARA A ÁREA DA SAÚDE, COM VISTA AO FORNECIMENTO DE DISPOSITIVOS MÉDICOS DIVERSOS",FALSE
Aquisição de Material de Incontinência e Alívio de Pressão,Ao abrigo de acordo-quadro (art.º 259.º),Aquisição de bens móveis,"33700000-7, Produtos para cuidados pessoais","Hospital do Espírito Santo de Évora, E. P. E. (508085888)",PAUL HARTMANN LDA (502271728),"108.682,14 €",04-12-2015,12-11-2015,365 dias,"Portugal, Évora, Évora",Artigo 259.º do Código dos Contratos Públicos,,,,,,1210117,"CONCURSO PÚBLICO PARA A CELEBRAÇÃO DE CONTRATOS PÚBLICOS DE APROVISIONAMENTO PARA A ÁREA DA SAÚDE, COM VISTA AO FORNECIMENTO DE MATERIAL DE INCONTINENCIA E ALIVIO DE PRESSÃO, ÀS INSTITUIÇÕES E SERVIÇOS DO SERVIÇO NACIONAL DE SAÚDE",FALSE
Prestação de Serviços - Transporte de doentes,Concurso público,Aquisição de serviços,"85143000-3, Serviços de ambulâncias","Hospital do Espírito Santo de Évora, E. P. E. (508085888)",LUISA TODI -TRANSPORTE DE ODENTES LDA. (506403009),"165.000,00 €",04-12-2015,18-11-2015,365 dias,"Portugal, Évora, Évora","Artigo 20.º, n.º 1, alínea b) do Código dos Contratos Públicos",,,,,,Não aplicável.,Não aplicável.,FALSE
