Objeto do Contrato,Tipo de Procedimento,Tipo(s) de Contrato,CPVs,Entidade(s) Adjudicante(s),Entidade(s) Adjudicatária(s),Preço Contratual,Data de Publicação,Data de Celebração do Contrato,Prazo de Execução,Local de Execução,Fundamentação,Data de Fecho do Contrato,Preço Total Efetivo,Causas das Alterações ao Prazo,Causas das Alterações ao Preço,Estado,N.º registo do Acordo Quadro,Descrição do Acordo Quadro,Procedimento Centralizado
Aquisição de medicamentos,Ao abrigo de acordo-quadro (art.º 259.º),Aquisição de bens móveis,"33690000-3, Medicamentos vários","Administração Regional de Saúde do Centro, I. P. (503122165)","Overpharma-Produtos Medicos e Farmaceuticos,LDA (505792362)","594,00 €",04-11-2013,31-10-2013,180 dias,"Portugal, Coimbra, Coimbra",Artigo 259.º do Código dos Contratos Públicos,,,,,,461370,"CP 2012/44 - MEDICAMENTOS ANALGÉSICOS, ANTIPIRÉTICOS E ANTIDEPRESSIVOS",
Aquisição de medicamentos,Ajuste Direto Regime Geral,Aquisição de bens móveis,"33690000-3, Medicamentos vários","Administração Regional de Saúde do Centro, I. P. (503122165)",Labesfal-Laboratorios Almiro SA (501169580),"7.200,00 €",04-11-2013,04-11-2013,180 dias,"Portugal, Coimbra, Coimbra","Artigo 20.º, n.º 1, alínea a) do Código dos Contratos Públicos",,,,,,Não aplicável.,Não aplicável.,
