Objeto do Contrato,Tipo de Procedimento,Tipo(s) de Contrato,CPVs,Entidade(s) Adjudicante(s),Entidade(s) Adjudicatária(s),Preço Contratual,Data de Publicação,Data de Celebração do Contrato,Prazo de Execução,Local de Execução,Fundamentação,Data de Fecho do Contrato,Preço Total Efetivo,Causas das Alterações ao Prazo,Causas das Alterações ao Preço,Estado,N.º registo do Acordo Quadro,Descrição do Acordo Quadro,Procedimento Centralizado
Aquisição de Reagentes e Produtos de Diagnóstico Rápido,Ajuste Direto Regime Geral,Aquisição de bens móveis,"33694000-1, Meios de diagnóstico","Administração Regional de Saúde do Norte, I. P. (503135593)","Hach Lange, Lda. (507155165)","9.810,80 €",01-10-2015,20-01-2015,353 dias,"Portugal, Porto<BR/>Portugal, Vila Real, Vila Real<BR/>Portugal, Porto, Maia","Artigo 24.º, n.º 1, alínea e) do Código dos Contratos Públicos",09-06-2015,"9.810,80 €","","",,Não aplicável.,Não aplicável.,FALSE
Aquisição de 40.000 Vacinas Papilomavirus Humano,Ao abrigo de acordo-quadro (art.º 258.º),Aquisição de bens móveis,"33651600-4, Vacinas","Administração Regional de Saúde do Norte, I. P. (503135593)",Sanofi Pasteur MSD (507632796),"880.000,00 €",30-09-2015,15-06-2015,201 dias,"Portugal, Porto<BR/>Portugal, Porto, Maia<BR/>Portugal, Vila Real, Vila Real",Artigo 258.º do Código dos Contratos Públicos,07-09-2015,"880.000,00 €","","",,613265,"CONCURSO PÚBLICO PARA A CELEBRAÇÃO DE CONTRATOS PÚBLICOS DE APROVISIONAMENTO PARA A ÁREA DA SAÚDE, COM VISTA AO FORNECIMENTO DE VACINAS CONTRA INFECÇÕES POR VÍRUS DO PAPILOMA HUMANO (HPV), ÀS INSTITUIÇÕES E SERVIÇOS DO SERVIÇO NACIONAL DE SAÚDE",FALSE
Aquisição de Material de ostomias,Ao abrigo de acordo-quadro (art.º 259.º),Aquisição de bens móveis,"33140000-3, Material médico de consumo","Administração Regional de Saúde do Norte, I. P. (503135593)","B Braun Medical, Lda. (501506543)","10.356,00 €",30-09-2015,01-07-2015,217 dias,"Portugal, Vila Real, Vila Real<BR/>Portugal, Porto, Maia<BR/>Portugal, Porto",Artigo 259.º do Código dos Contratos Públicos,24-07-2015,"10.356,00 €","","",,419168,CONCURSO PÚBLICO PARA A CELEBRAÇÃO DE CONTRATOS PÚBLICOS DE APROVISIONAMENTO PARA AQUISIÇÃO DE MATERIAL OSTOMIA DE ELIMINAÇÃO,FALSE
Fornecimento de serviços telefónicos,Ajuste Direto Regime Geral,Aquisição de serviços,"50334110-9, Serviços de manutenção de redes telefónicas","Administração Regional de Saúde do Norte, I. P. (503135593)","Senergil - Serviços de Energia, Lda. (502582600)","715,00 €",30-09-2015,24-07-2015,15 dias,"Portugal, Braga, Braga","Artigo 20.º, n.º 1, alínea a) do Código dos Contratos Públicos",25-08-2015,"715,00 €","","",,Não aplicável.,Não aplicável.,FALSE
Aquisição de 3.000 Reagentes para Determinação INR no sangue,Ajuste Direto Regime Geral,Aquisição de bens móveis,"33696200-7, Reagentes para análises ao sangue","Administração Regional de Saúde do Norte, I. P. (503135593)","Roche Sistemas de Diagnostico, Lda. (504282921)","348.480,00 €",30-09-2015,28-04-2015,280 dias,"Portugal, Porto<BR/>Portugal, Porto, Maia<BR/>Portugal, Vila Real, Vila Real","Artigo 24.º, n.º 1, alínea e) do Código dos Contratos Públicos",02-10-2015,"348.480,00 €","","",,Não aplicável.,Não aplicável.,FALSE
Software de Monotorização da Qualidade das imagens do programa de rastreio da Retinopatia Diabética,Ajuste Direto Regime Geral,Aquisição de bens móveis,"22456000-1, Licenças","Administração Regional de Saúde do Norte, I. P. (503135593)","RETMARKER, S.A. (508805759)","4.750,00 €",30-09-2015,27-03-2015,30 dias,"Portugal, Porto, Porto","Artigo 20.º, n.º 1, alínea a) do Código dos Contratos Públicos",15-12-2015,"4.750,00 €","","",,Não aplicável.,Não aplicável.,FALSE
Aquisição de Vários tipos de Lenticulas,Ajuste Direto Regime Geral,Aquisição de bens móveis,"33696500-0, Reagentes de laboratório","Administração Regional de Saúde do Norte, I. P. (503135593)","Normax - Fábrica de Vidros Científicos, Lda. (500203130)","3.959,00 €",30-09-2015,16-01-2015,91 dias,"Portugal, Porto, Maia<BR/>Portugal, Porto<BR/>Portugal, Vila Real, Vila Real","Artigo 20.º, n.º 1, alínea a) do Código dos Contratos Públicos",14-04-2015,"3.959,00 €","","",,Não aplicável.,Não aplicável.,FALSE
Remodelação - CS Oliveira do Douro,Ajuste Direto Regime Geral,Empreitadas de obras públicas,"45454000-4, Obras de reestruturação","Administração Regional de Saúde do Norte, I. P. (503135593)",Matrice Lda  (503884669),"35.971,00 €",30-09-2015,24-09-2015,75 dias,"Portugal, Porto, Vila Nova de Gaia","Artigo 19.º, alínea a) do Código dos Contratos Públicos","","35.971,00 €",Não se verificaram atrasos. A receção provisória foi celebrada no dia útil seguinte à data da conclusão prevista pois terminava ao fim-de-semana.,"",,Não aplicável.,Não aplicável.,FALSE
Instalação iluminação LED - US de Valpaços,Ajuste Direto Regime Geral,Empreitadas de obras públicas,"45316000-5, Instalação de sistemas de iluminação e de sinalização","Administração Regional de Saúde do Norte, I. P. (503135593)",Alternative 4U - Energias Renováveis S.A. (508740541),"26.766,00 €",30-09-2015,28-09-2015,90 dias,"Portugal, Vila Real, Valpaços","Artigo 19.º, alínea a) do Código dos Contratos Públicos","","26.766,00 €",Não se verificaram atrasos. A receção provisória foi celebrada no dia útil seguinte à data da conclusão prevista pois terminava ao fim-de-semana.,"",,Não aplicável.,Não aplicável.,FALSE
Instalação iluminação LED - US de Vila do Conde,Ajuste Direto Regime Geral,Empreitadas de obras públicas,"45316000-5, Instalação de sistemas de iluminação e de sinalização","Administração Regional de Saúde do Norte, I. P. (503135593)",Alternative 4U - Energias Renováveis S.A. (508740541),"27.776,00 €",30-09-2015,28-09-2015,90 dias,"Portugal, Porto, Vila do Conde","Artigo 19.º, alínea a) do Código dos Contratos Públicos","","27.776,00 €",Não se verificaram atrasos. A receção provisória foi celebrada no dia útil seguinte à data da conclusão prevista pois terminava ao fim-de-semana.,"",,Não aplicável.,Não aplicável.,FALSE
Instalação iluminação LED - US de Barcelos,Ajuste Direto Regime Geral,Empreitadas de obras públicas,"45316000-5, Instalação de sistemas de iluminação e de sinalização","Administração Regional de Saúde do Norte, I. P. (503135593)",Alternative 4U - Energias Renováveis S.A. (508740541),"43.101,00 €",30-09-2015,28-09-2015,90 dias,"Portugal, Braga, Barcelos","Artigo 19.º, alínea a) do Código dos Contratos Públicos","","43.101,00 €",Não se verificaram atrasos. A receção provisória foi celebrada no dia útil seguinte à data da conclusão prevista pois terminava ao fim-de-semana.,"",,Não aplicável.,Não aplicável.,FALSE
Instalação iluminação LED - US de Vale Formoso,Ajuste Direto Regime Geral,Empreitadas de obras públicas,"45316000-5, Instalação de sistemas de iluminação e de sinalização","Administração Regional de Saúde do Norte, I. P. (503135593)",Alternative 4U - Energias Renováveis S.A. (508740541),"42.631,00 €",30-09-2015,28-09-2015,90 dias,"Portugal, Porto, Porto","Artigo 19.º, alínea a) do Código dos Contratos Públicos","","42.631,00 €",Não se verificaram atrasos. A receção provisória foi celebrada no dia útil seguinte à data da conclusão prevista pois terminava ao fim-de-semana.,"",,Não aplicável.,Não aplicável.,FALSE
Aquisição de Vário Material de Economato,Ajuste Direto Regime Geral,Aquisição de bens móveis,"30192000-1, Material de escritório","Administração Regional de Saúde do Norte, I. P. (503135593)","Seabra Tavares, Lda (501823212)","33.175,15 €",30-09-2015,20-07-2015,167 dias,"Portugal, Vila Real, Vila Real<BR/>Portugal, Porto, Maia<BR/>Portugal, Porto","Artigo 20.º, n.º 1, alínea a) do Código dos Contratos Públicos",04-12-2015,"33.175,15 €","","",,Não aplicável.,Não aplicável.,FALSE
Fisioterapia /Conservação - CS Barão Corvo,Ajuste Direto Regime Geral,Empreitadas de obras públicas,"45454000-4, Obras de reestruturação","Administração Regional de Saúde do Norte, I. P. (503135593)","Surpreender & Seduzir - Construções Unipessoal, Lda (509621457)","29.392,70 €",30-09-2015,24-09-2015,75 dias,"Portugal, Porto, Vila Nova de Gaia","Artigo 22.º, n.º 1, alínea a) do Código dos Contratos Públicos","","29.392,70 €"," Verificou-se que, face à natureza e quantidade  dos trabalhos a realizar, foi estimado um prazo para realização da empreitada superior ao realmente necessário.  ","",,Não aplicável.,Não aplicável.,FALSE
Aquisição de Vário Material de Economato,Ajuste Direto Regime Geral,Aquisição de bens móveis,"30192000-1, Material de escritório","Administração Regional de Saúde do Norte, I. P. (503135593)","Olmar - Artigos de Papelaria, Lda. (508831989)","4.572,30 €",30-09-2015,15-07-2015,172 dias,"Portugal, Vila Real, Vila Real<BR/>Portugal, Porto, Maia<BR/>Portugal, Porto","Artigo 20.º, n.º 1, alínea a) do Código dos Contratos Públicos",20-11-2015,"4.572,30 €","","",,Não aplicável.,Não aplicável.,FALSE
Obras diversas de conservação(Incentivos) - USF Santa Clara,Ajuste Direto Regime Geral,Empreitadas de obras públicas,"45453000-7, Obras de revisão e recuperação","Administração Regional de Saúde do Norte, I. P. (503135593)","Legendas & Rubricas, Lda. (513516352)","15.750,00 €",30-09-2015,09-09-2015,45 dias,"Portugal, Porto, Vila do Conde","Artigo 19.º, alínea a) do Código dos Contratos Públicos","","15.750,00 €",Não se verificaram atrasos. A receção provisória foi celebrada no dia seguinte à data da conclusão prevista pois terminava ao fim-de-semana.,"",,Não aplicável.,Não aplicável.,FALSE
Obras diversas de conservação - ET Cedofeita - Porto,Ajuste Direto Regime Geral,Empreitadas de obras públicas,"45453000-7, Obras de revisão e recuperação","Administração Regional de Saúde do Norte, I. P. (503135593)",Ideias & Enigmas - Unipessoal Lda  (509895786),"27.806,00 €",30-09-2015,09-09-2015,45 dias,"Portugal, Porto, Porto","Artigo 22.º, n.º 1, alínea a) do Código dos Contratos Públicos","","27.806,00 €"," Verificou-se que, face à natureza e quantidade  dos trabalhos a realizar, foi estimado um prazo para realização da empreitada superior ao realmente necessário.  ","",,Não aplicável.,Não aplicável.,FALSE
"Aquisição de serviços de técnicos de radiologia para a Sub de Arouca de janeiro a dezembro. Numero de horas contratadas 125 semanais com valor hora de 6,06€.",Ajuste Direto Regime Geral,Aquisição de serviços,"79620000-6, Serviços de fornecimento de pessoal, inclusive temporário","Administração Regional de Saúde do Norte, I. P. (503135593)","Radianticélebre - Prestação de Serviços de Saúde, Lda (510530630)","39.390,00 €",29-09-2015,31-03-2015,366 dias,"Portugal, Aveiro, Arouca","Artigo 20.º, n.º 1, alínea a) do Código dos Contratos Públicos",31-12-2015,"33.172,44 €","",Não foram realizadas o numero de horas previstas.,,Não aplicável.,Não aplicável.,FALSE
"Aquisição de serviços de apoio técnico financeiro para a UAG do ACES Aveiro Norte de janeiro a dezembro. Numero de horas contratadas 40 semanais com o valor hora de 8,15€. ",Ajuste Direto Regime Geral,Aquisição de serviços,"75122000-7, Serviços administrativos na área da saúde","Administração Regional de Saúde do Norte, I. P. (503135593)",Armindo J. B. Costa - Contabilidade Fis. Gestão Lda (503835994),"16.952,00 €",29-09-2015,19-12-2014,366 dias,"Portugal, Aveiro, Aveiro","Artigo 20.º, n.º 1, alínea a) do Código dos Contratos Públicos",31-12-2015,"15.236,43 €","",Não foram realizadas o numero de horas previstas.,,Não aplicável.,Não aplicável.,FALSE
Aquisição de 6.960 Unidades de Nitroglicerina 0.5mg comp. subling,Ajuste Direto Regime Geral,Aquisição de bens móveis,"33600000-6, Produtos farmacêuticos","Administração Regional de Saúde do Norte, I. P. (503135593)","Quilaban - Quim. Lab. Analítica, Lda (500399670)","393,94 €",29-09-2015,16-02-2015,5 dias,"Portugal, Vila Real, Vila Real<BR/>Portugal, Porto<BR/>Portugal, Porto, Maia","Artigo 24.º, n.º 1, alínea e) do Código dos Contratos Públicos",17-04-2015,"393,94 €","","",,Não aplicável.,Não aplicável.,FALSE
Aquisição de 170 Unidades de Sondas nasogástricas (tipo Levine) CH 12,Ao abrigo de acordo-quadro (art.º 259.º),Aquisição de bens móveis,"33141641-5, Sondas","Administração Regional de Saúde do Norte, I. P. (503135593)","Overpharma - Produtos Médicos Farm., Lda. (505792362)","37,40 €",29-09-2015,13-05-2015,236 dias,"Portugal, Porto, Maia",Artigo 259.º do Código dos Contratos Públicos,13-07-2015,"33,00 €","",Devido ao numero de unidades por embalagem,,1587913,Acordo Quadro para fornecimento de Equipamentos e Dispositivos Médicos de uso comum em internamento e ambulatório - Parte I às instituições e serviços do Serviço Nacional de Saúde.,FALSE
Aquisição de 40 unidades de Copos para aspirador de secreções Medela (1.5 lt),Ajuste Direto Regime Geral,Aquisição de bens móveis,"33140000-3, Material médico de consumo","Administração Regional de Saúde do Norte, I. P. (503135593)",Bacelar & Irmão (500532818),"1.140,00 €",29-09-2015,08-05-2015,241 dias,"Portugal, Porto<BR/>Portugal, Porto, Maia<BR/>Portugal, Vila Real, Vila Real","Artigo 20.º, n.º 1, alínea a) do Código dos Contratos Públicos",06-10-2015,"1.140,00 €","","",,Não aplicável.,Não aplicável.,FALSE
Aquisição de 200 Unidades de Filtros de ar para nebulizador Suchatzki,Ajuste Direto Regime Geral,Aquisição de bens móveis,"33140000-3, Material médico de consumo","Administração Regional de Saúde do Norte, I. P. (503135593)","Bacelar & Irmão, Lda. (500532818)","50,00 €",29-09-2015,08-05-2015,241 dias,"Portugal, Vila Real, Vila Real<BR/>Portugal, Porto, Maia<BR/>Portugal, Porto","Artigo 20.º, n.º 1, alínea a) do Código dos Contratos Públicos",26-10-2015,"50,00 €","","",,Não aplicável.,Não aplicável.,FALSE
Aquisição de 600 unidades de Filtros Bacteriológicos para Aspirador de secreções Medela,Ajuste Direto Regime Geral,Aquisição de bens móveis,"33140000-3, Material médico de consumo","Administração Regional de Saúde do Norte, I. P. (503135593)","Bacelar & Irmão, Lda. (500532818)","4.740,00 €",29-09-2015,08-05-2015,241 dias,"Portugal, Porto, Maia<BR/>Portugal, Vila Real, Vila Real<BR/>Portugal, Porto","Artigo 20.º, n.º 1, alínea a) do Código dos Contratos Públicos",26-10-2015,"4.740,00 €","","",,Não aplicável.,Não aplicável.,FALSE
Aquisição de 400 Unidades de Tubos de silicone c/conexão reta e em 90º Medela,Ajuste Direto Regime Geral,Aquisição de bens móveis,"33140000-3, Material médico de consumo","Administração Regional de Saúde do Norte, I. P. (503135593)","Bacelar & Irmão, Lda (500532818)","4.000,00 €",29-09-2015,08-05-2015,241 dias,"Portugal, Porto<BR/>Portugal, Porto, Porto<BR/>Portugal, Vila Real, Vila Real","Artigo 20.º, n.º 1, alínea a) do Código dos Contratos Públicos",17-11-2015,"4.000,00 €","","",,Não aplicável.,Não aplicável.,FALSE
Aquisição de 700 unidades de Tubos de silicone para aspirador de secreções Medela,Ajuste Direto Regime Geral,Aquisição de bens móveis,"33140000-3, Material médico de consumo","Administração Regional de Saúde do Norte, I. P. (503135593)","Bacelar & Irmão, Lda. (500532818)","2.730,00 €",29-09-2015,08-05-2015,241 dias,"Portugal, Porto, Maia<BR/>Portugal, Porto<BR/>Portugal, Vila Real, Vila Real","Artigo 20.º, n.º 1, alínea a) do Código dos Contratos Públicos",06-10-2015,"2.730,00 €","","",,Não aplicável.,Não aplicável.,FALSE
Aquisição de 3.500 Unidades de Sistema fechado colheita aspiração hemograma,Ao abrigo de acordo-quadro (art.º 259.º),Aquisição de bens móveis,"33140000-3, Material médico de consumo","Administração Regional de Saúde do Norte, I. P. (503135593)","Sarsted, Lda (503019461)","374,50 €",29-09-2015,27-05-2015,221 dias,"Portugal, Porto<BR/>Portugal, Vila Real, Vila Real<BR/>Portugal, Porto, Porto",Artigo 259.º do Código dos Contratos Públicos,14-10-2015,"374,50 €","","",,1341769,"ACORDO QUADRO PARA FORNECIMENTO DE SERINGAS, AGULHAS E CONTENTORES ÀS INSTITUIÇÕES E SERVIÇOS DO SERVIÇO NACIONAL DE SAÚDE PROGRAMA DE CONCURSO",FALSE
Aquisição de 2.000 unidades de Sistema fechado colheita aspiração hemograma,Ao abrigo de acordo-quadro (art.º 259.º),Aquisição de bens móveis,"33140000-3, Material médico de consumo","Administração Regional de Saúde do Norte, I. P. (503135593)","Sarsted, Lda. (503019461)","236,00 €",29-09-2015,27-05-2015,221 dias,"Portugal, Porto, Maia<BR/>Portugal, Porto<BR/>Portugal, Vila Real, Vila Real",Artigo 259.º do Código dos Contratos Públicos,14-10-2015,"236,00 €","","",,1341769,"ACORDO QUADRO PARA FORNECIMENTO DE SERINGAS, AGULHAS E CONTENTORES ÀS INSTITUIÇÕES E SERVIÇOS DO SERVIÇO NACIONAL DE SAÚDE PROGRAMA DE CONCURSO",FALSE
Aquisição de 224 comprimidos de Olanzapina 5 mg,Ao abrigo de acordo-quadro (art.º 259.º),Aquisição de bens móveis,"33600000-6, Produtos farmacêuticos","Administração Regional de Saúde do Norte, I. P. (503135593)",Lilly Portugal - Produtos Farmacêuticos (500165602),"102,43 €",29-09-2015,29-07-2015,8 dias,"Portugal, Porto, Maia",Artigo 259.º do Código dos Contratos Públicos,05-08-2015,"102,43 €","","",,1153380,"CONCURSO PÚBLICO PARA A CELEBRAÇÃO DE CONTRATOS PÚBLICOS DE APROVISIONAMENTO PARA A ÁREA DA SAÚDE, COM VISTA AO FORNECIMENTO DE MEDICAMENTOS ANTIPSICÓTICOS, ÀS INSTITUIÇÕES E SERVIÇOS DO SERVIÇO NACIONAL DE SAÚDE",FALSE
Aquisição de 3.800 Unidades de Heparinoide 3 mg/g Creme 40g,Ajuste Direto Regime Geral,Aquisição de bens móveis,"33600000-6, Produtos farmacêuticos","Administração Regional de Saúde do Norte, I. P. (503135593)","Ciclum Farma Unipessoal, Lda. (504362674)","10.070,00 €",29-09-2015,15-05-2015,257 dias,"Portugal, Vila Real, Vila Real<BR/>Portugal, Porto<BR/>Portugal, Porto, Maia","Artigo 20.º, n.º 1, alínea a) do Código dos Contratos Públicos",23-09-2015,"10.067,35 €","",Por causa do nº de unidades por embalagem,,Não aplicável.,Não aplicável.,FALSE
Aquisição de 2500 unidades de Salbutamol 5mg/ml Sol. Inal. Neb. 10 ml,Ao abrigo de acordo-quadro (art.º 258.º),Aquisição de bens móveis,"33600000-6, Produtos farmacêuticos","Administração Regional de Saúde do Norte, I. P. (503135593)",Glaxosmithkline - Produtos Farmacêuticos (500139962),"5.048,75 €",28-09-2015,17-06-2015,228 dias,"Portugal, Porto, Maia<BR/>Portugal, Porto<BR/>Portugal, Vila Real, Vila Real",Artigo 258.º do Código dos Contratos Públicos,28-10-2015,"5.048,75 €","","",,1156712,Aquisição de 2 200 frascos de Salbutamol 5 mg/ml Sol inal neb 10 ml,FALSE
Aquisição de 600 Unidades de Estreptomicina 1g Pó Sol. Injet. IM,Ajuste Direto Regime Geral,Aquisição de bens móveis,"33600000-6, Produtos farmacêuticos","Administração Regional de Saúde do Norte, I. P. (503135593)","Dux Pharma Unipessoal, Lda. (510803679)","1.494,00 €",28-09-2015,06-08-2015,163 dias,"Portugal, Porto<BR/>Portugal, Vila Real, Vila Real<BR/>Portugal, Porto, Porto","Artigo 20.º, n.º 1, alínea a) do Código dos Contratos Públicos",04-11-2015,"1.494,00 €","","",,Não aplicável.,Não aplicável.,FALSE
Aquisição de 60 unidades de Gerador Anaerobiose,Ajuste Direto Regime Geral,Aquisição de bens móveis,"33000000-0, Equipamento médico, medicamentos e produtos para cuidados pessoais","Administração Regional de Saúde do Norte, I. P. (503135593)","Biomerieux Portugal, Lda. (501524177)","1.584,00 €",28-09-2015,08-05-2015,275 dias,"Portugal, Porto<BR/>Portugal, Vila Real, Vila Real<BR/>Portugal, Porto, Porto","Artigo 20.º, n.º 1, alínea a) do Código dos Contratos Públicos",13-05-2015,"1.584,00 €","","",,Não aplicável.,Não aplicável.,FALSE
Aquisição de 35.000 Unidades de Saco de recolha urina c/ Válv. dispositivo saída 1500/2000cc,Ajuste Direto Regime Geral,Aquisição de bens móveis,"33140000-3, Material médico de consumo","Administração Regional de Saúde do Norte, I. P. (503135593)","Ezequiel Panao Jorge, Lda (501412727)","8.540,00 €",28-09-2015,06-05-2015,270 dias,"Portugal, Porto, Porto<BR/>Portugal, Vila Real, Vila Real<BR/>Portugal, Porto","Artigo 20.º, n.º 1, alínea a) do Código dos Contratos Públicos",29-09-2015,"8.540,00 €","","",,Não aplicável.,Não aplicável.,FALSE
AQUISIÇÃO DE 20.100 UNIDADES Fita para sutura autoadesiva 100x6 mm - AP 1466,Ao abrigo de acordo-quadro (art.º 259.º),Aquisição de bens móveis,"33140000-3, Material médico de consumo","Administração Regional de Saúde do Norte, I. P. (503135593)","PAUL HARTMAN, LDA             (502271728)","1.005,00 €",25-09-2015,26-08-2015,125 dias,"Portugal, Vila Real, Vila Real<BR/>Portugal, Porto, Maia",Artigo 259.º do Código dos Contratos Públicos,26-10-2015,"1.005,00 €","","",,534953,"CONCURSO PÚBLICO PARA A CELEBRAÇÃO DE CONTRATOS PÚBLICOS DE APROVISIONAMENTO PARA A ÁREA DA SAÚDE, COM VISTA AO FORNECIMENTO DE MATERIAL DE PENSO TRADICIONAL/CLASSICO - PARTE 1 - ÀS INSTITUIÇÕES E SERVIÇOS DO SERVIÇO NACIONAL DE SAÚDE  ",FALSE
"Aquisição de 996 unidades Deterg lavag, desinf superf  e DM não emergíveis 750 ml - AP 1699",Ajuste Direto Regime Geral,Aquisição de bens móveis,"33600000-6, Produtos farmacêuticos","Administração Regional de Saúde do Norte,IP (ARSN) (503135593)",AIR LIQUIDE MEDICINAL S.A.        (501576436),"3.884,40 €",25-09-2015,18-08-2015,250 dias,"Portugal, Porto, Maia<BR/>Portugal, Vila Real, Vila Real","Artigo 24.º, n.º 1, alínea e) do Código dos Contratos Públicos",20-10-2015,"3.884,40 €","","",,Não aplicável.,Não aplicável.,FALSE
Aquisição de 2.000 unidades Boquilha Para Alcoolimetro Lion 500 REF SA0006 -AP 1079,Ajuste Direto Regime Geral,Aquisição de bens móveis,"33140000-3, Material médico de consumo","Administração Regional de Saúde do Norte, I. P. (503135593)",PRHOFAME - P. HOSP. F. MEDIC (501891145),"520,00 €",25-09-2015,15-06-2015,180 dias,"Portugal, Vila Real, Vila Real<BR/>Portugal, Porto, Maia","Artigo 20.º, n.º 1, alínea a) do Código dos Contratos Públicos",21-09-2015,"520,00 €","","",,Não aplicável.,Não aplicável.,FALSE
Vãos exteriores - CS S. João da Pesqueira,Ajuste Direto Regime Geral,Empreitadas de obras públicas,"45454000-4, Obras de reestruturação","Administração Regional de Saúde do Norte, I. P. (503135593)","Teisil - Empresa de Construções, Lda. (501867180)","26.090,00 €",24-09-2015,31-08-2015,75 dias,"Portugal, Viseu, São João da Pesqueira","Artigo 19.º, alínea a) do Código dos Contratos Públicos","","26.090,00 €",Não se verificaram atrasos. A receção provisória foi celebrada no dia seguinte à data da conclusão prevista pois terminava ao fim-de-semana.,"",,Não aplicável.,Não aplicável.,FALSE
"Cobertura e UCSP Atendimento, tratamentos, gabinetes 1 a 8 e IS - CS de Valpaços  ",Ajuste Direto Regime Geral,Empreitadas de obras públicas,"45454000-4, Obras de reestruturação","Administração Regional de Saúde do Norte, I. P. (503135593)","Teisil - Empresa de Construções, Lda. (501867180)","69.864,24 €",24-09-2015,31-08-2015,90 dias,"Portugal, Vila Real, Valpaços","Artigo 19.º, alínea a) do Código dos Contratos Públicos","","69.864,24 €",Não se verificaram atrasos. A receção provisória foi celebrada no dia útil seguinte à data da conclusão prevista pois terminava ao fim-de-semana.,"",,Não aplicável.,Não aplicável.,FALSE
