Objeto do Contrato,Tipo de Procedimento,Tipo(s) de Contrato,CPVs,Entidade(s) Adjudicante(s),Entidade(s) Adjudicatária(s),Preço Contratual,Data de Publicação,Data de Celebração do Contrato,Prazo de Execução,Local de Execução,Fundamentação,Data de Fecho do Contrato,Preço Total Efetivo,Causas das Alterações ao Prazo,Causas das Alterações ao Preço,Estado,N.º registo do Acordo Quadro,Descrição do Acordo Quadro,Procedimento Centralizado
Aquisição de 500 unidades de ceftriaxona 1g Pó sol. inj. IV,Ao abrigo de acordo-quadro (art.º 258.º),Aquisição de bens móveis,"33600000-6, Produtos farmacêuticos","Administração Regional de Saúde do Norte, I. P. (503135593)","Hikma farmaceutica, lda (502266791)","239,70 €",21-04-2015,20-01-2015,341 dias,"Portugal, Vila Real, Vila Real<BR/>Portugal, Porto, Maia<BR/>Portugal, Distrito não determinado, Concelho não determinado",Artigo 258.º do Código dos Contratos Públicos,04-06-2015,"239,70 €","","",,613285,"CONCURSO PÚBLICO PARA A CELEBRAÇÃO DE CONTRATOS PÚBLICOS DE APROVISIONAMENTO PARA A ÁREA DA SAÚDE, COM VISTA AO FORNECIMENTO DE MEDICAMENTOS ANALGÉSICOS, ANTIPIRÉTICOS E ANTIDEPRESSORES, ÀS INSTITUIÇÕES E SERVIÇOS DO SERVIÇO NACIONAL DE SAÚDE",FALSE
"Aquisição de 51.000 unidades de cloreto de sódio 0,9%sol. inj. 100ml IV",Ao abrigo de acordo-quadro (art.º 258.º),Aquisição de bens móveis,"33600000-6, Produtos farmacêuticos","Administração Regional de Saúde do Norte, I. P. (503135593)","Labesfal, S.A (501169580)","29.733,00 €",20-04-2015,20-01-2015,341 dias,"Portugal, Porto, Maia<BR/>Portugal, Vila Real, Vila Real",Artigo 258.º do Código dos Contratos Públicos,06-11-2015,"29.733,00 €","","",,1331181,Acordo Quadro para fornecimento de corretivos da volémia e outras soluções estéreis às Instituições e Serviços do Serviço Nacional de Saúde,FALSE
Aquisição de 23.000 unidades de cloreto de sódio 0.9% Sol. Inj. 500 ml IV,Ao abrigo de acordo-quadro (art.º 258.º),Aquisição de bens móveis,"33600000-6, Produtos farmacêuticos","Administração Regional de Saúde do Norte, I. P. (503135593)","Baxter medico, lda (503347345)","16.905,00 €",20-04-2015,20-01-2015,341 dias,"Portugal, Porto, Maia<BR/>Portugal, Distrito não determinado, Concelho não determinado<BR/>Portugal, Vila Real, Vila Real",Artigo 258.º do Código dos Contratos Públicos,21-10-2015,"16.905,00 €","","",,1331181,Acordo Quadro para fornecimento de corretivos da volémia e outras soluções estéreis às Instituições e Serviços do Serviço Nacional de Saúde,FALSE
"Aquisição de 600 unidades de Enoxaparina sódica 100mg/ml Sol.Inj. 0,4 ML SC",Ao abrigo de acordo-quadro (art.º 258.º),Aquisição de bens móveis,"33600000-6, Produtos farmacêuticos","Administração Regional de Saúde do Norte, I. P. (503135593)","Sanofi, lda (500134960)","1.422,00 €",20-04-2015,20-01-2015,341 dias,"Portugal, Vila Real, Vila Real<BR/>Portugal, Distrito não determinado, Concelho não determinado<BR/>Portugal, Porto, Maia",Artigo 258.º do Código dos Contratos Públicos,10-11-2015,"1.422,00 €","","",,1210107,"CONCURSO PÚBLICO PARA A CELEBRAÇÃO DE CONTRATOS PÚBLICOS DE APROVISIONAMENTO PARA A ÁREA DA SAÚDE, COM VISTA AO FORNECIMENTO DE MEDICAMENTOS DO GRUPO 4: SANGUE, ÀS INSTITUIÇÕES E SERVIÇOS DO SERVIÇO NACIONAL DE SAÚDE",FALSE
Aquisição de 24.000 unidades de Hidrocortisona 100mg Pó Sol. inj. 2 ml IM IV,Ao abrigo de acordo-quadro (art.º 258.º),Aquisição de bens móveis,"33600000-6, Produtos farmacêuticos","Administração Regional de Saúde do Norte, I. P. (503135593)","Generis Farmacêutico, S.A. (508107997)","16.080,00 €",20-04-2015,20-01-2015,341 dias,"Portugal, Vila Real, Vila Real<BR/>Portugal, Porto, Maia<BR/>Portugal, Distrito não determinado, Concelho não determinado","Artigo 20.º, n.º 1, alínea a) do Código dos Contratos Públicos",23-09-2015,"16.080,00 €","","",,1415640,CP 2015/7 - ACORDO QUADRO PARA FORNECIMENTO DE HORMONAS E OUTROS MEDICAMENTOS USADOS NO TRATAMENTO DAS DOENÇAS ENDÓCRINAS ÀS INSTITUIÇÕES E SERVIÇOS DO SERVIÇO NACIONAL DE SAÚDE,FALSE
"Aquisição de 800,00 AM de Paracetamol 10mg/ml sol inj. fr100ml IV",Ao abrigo de acordo-quadro (art.º 258.º),Aquisição de bens móveis,"33600000-6, Produtos farmacêuticos","Administração Regional de Saúde do Norte, I. P. (503135593)","B Braun Medical, lda (501506543)","409,36 €",17-04-2015,20-01-2015,341 dias,"Portugal, Porto, Maia<BR/>Portugal, Distrito não determinado, Concelho não determinado<BR/>Portugal, Vila Real, Vila Real",Artigo 258.º do Código dos Contratos Públicos,07-07-2015,"409,36 €","","",,613285,"CONCURSO PÚBLICO PARA A CELEBRAÇÃO DE CONTRATOS PÚBLICOS DE APROVISIONAMENTO PARA A ÁREA DA SAÚDE, COM VISTA AO FORNECIMENTO DE MEDICAMENTOS ANALGÉSICOS, ANTIPIRÉTICOS E ANTIDEPRESSORES, ÀS INSTITUIÇÕES E SERVIÇOS DO SERVIÇO NACIONAL DE SAÚDE",FALSE
Acetilsalicilato de lisina 900 mg Pó Sol inj IM IV  Isoniazida 300 mg  Piridoxina (Vitamina B 6) 40 mg  Petidina 50 mg/ml Sol inj 2ml IM IV SC  Procaína 100 mg/5 ml Sol inj 5ml SC,Ajuste Direto Regime Geral,Aquisição de bens móveis,"33600000-6, Produtos farmacêuticos","Administração Regional de Saúde do Norte, I. P. (503135593)",Labesfal (501169580),"93.425,75 €",16-04-2015,21-01-2015,330 dias,"Portugal, Porto, Maia<BR/>Portugal, Vila Real, Vila Real","Artigo 24.º, n.º 1, alínea e) do Código dos Contratos Públicos","","","","",,Não aplicável.,Não aplicável.,FALSE
Aquisição de Upgrade de Storage,Ajuste Direto Regime Geral,Aquisição de bens móveis,"30230000-0, Equipamento informático","Administração Regional de Saúde do Norte, I. P. (503135593)","Informantem - Informática e Manutenção, SA (503670693)","4.998,90 €",16-04-2015,21-01-2015,30 dias,"Portugal, Porto, Porto","Artigo 20.º, n.º 1, alínea a) do Código dos Contratos Públicos",19-02-2015,"4.998,90 €","","",,Não aplicável.,Não aplicável.,FALSE
3 Detection reagent 5 accuprobe kansii 5 accuprobe M 4 culture reagent 9 mycobacterium 2 LDR 8 Kit reagente 1500 galeria API,Ajuste Direto Regime Geral,Aquisição de bens móveis,"33696500-0, Reagentes de laboratório","Administração Regional de Saúde do Norte, I. P. (503135593)",Biomerieux (501524177),"17.181,17 €",16-04-2015,21-01-2015,330 dias,"Portugal, Porto, Maia<BR/>Portugal, Vila Real, Vila Real","Artigo 24.º, n.º 1, alínea e) do Código dos Contratos Públicos",04-12-2015,"17.181,17 €","","",,Não aplicável.,Não aplicável.,FALSE
50 000 Trocloseno sódico 4 000 acido alginico - acido esterarico - acido sorbico,Ajuste Direto Regime Geral,Aquisição de bens móveis,"33600000-6, Produtos farmacêuticos","Administração Regional de Saúde do Norte,IP (ARSN) (503135593)",Johnson&Johnson (500153370),"24.461,76 €",16-04-2015,21-01-2015,330 dias,"Portugal, Vila Real, Vila Real<BR/>Portugal, Porto, Maia","Artigo 20.º, n.º 1, alínea a) do Código dos Contratos Públicos",12-03-2015,"24.461,76 €","","",,Não aplicável.,Não aplicável.,FALSE
Reparação de servidor RHV,Ajuste Direto Regime Geral,Aquisição de serviços,"50312600-1, Manutenção e reparação de equipamento para as tecnologias da informação","Administração Regional de Saúde do Norte, I. P. (503135593)","Expandiserve- Sistemas de Informação, SA (503641030)","215,00 €",16-04-2015,12-03-2015,7 dias,"Portugal, Porto, Porto","Artigo 20.º, n.º 1, alínea a) do Código dos Contratos Públicos",20-03-2015,"215,00 €","","",,Não aplicável.,Não aplicável.,FALSE
Reparação de Diverso Equipamento,Ajuste Direto Regime Geral,Aquisição de serviços,"50312620-7, Reparação de equipamento para as tecnologias da informação","Administração Regional de Saúde do Norte, I. P. (503135593)","Primaqcom - Projecto, Inst. Manut. Comunicações, Lda (503114944)","496,00 €",16-04-2015,18-03-2015,7 dias,"Portugal, Porto, Porto","Artigo 20.º, n.º 4 do Código dos Contratos Públicos",26-03-2015,"496,00 €","","",,Não aplicável.,Não aplicável.,FALSE
Reparação de diverso equipamento informático,Ajuste Direto Regime Geral,Aquisição de serviços,"50312600-1, Manutenção e reparação de equipamento para as tecnologias da informação","Administração Regional de Saúde do Norte, I. P. (503135593)","Correntevantagem - Unipessoal, Lda. (510713980)","862,50 €",16-04-2015,19-03-2015,7 dias,"Portugal, Porto, Porto","Artigo 20.º, n.º 1, alínea a) do Código dos Contratos Públicos",24-03-2015,"862,50 €","","",,Não aplicável.,Não aplicável.,FALSE
"A.P. 3351 Aquisição de 400 unidades de Cateter veia perif.poliur.nº26 c/aleta,sist.anti-picada",Ao abrigo de acordo-quadro (art.º 259.º),Aquisição de bens móveis,"33600000-6, Produtos farmacêuticos","Administração Regional de Saúde do Norte, I. P. (503135593)","MEDICINÁLIA-CORMÉDICA, LDA      (500684324)","244,00 €",13-04-2015,05-02-2015,365 dias,"Portugal, Vila Real, Vila Real<BR/>Portugal, Porto, Maia",Artigo 259.º do Código dos Contratos Públicos,09-02-2015,"244,00 €","","",,1212278,"CONCURSO PÚBLICO PARA A CELEBRAÇÃO DE CONTRATOS PÚBLICOS DE APROVISIONAMENTO PARA A ÁREA DA SAÚDE, COM VISTA AO FORNECIMENTO DE CATETERES, ÀS INSTITUIÇÕES E SERVIÇOS DO SERVIÇO NACIONAL DE SAÚDE",FALSE
"A.P. 3351 - Aquisição de 1.800 unidades de Cateter veia perif.poliur.nº16 c/aleta,sist.anti-picada",Ao abrigo de acordo-quadro (art.º 259.º),Aquisição de bens móveis,"33600000-6, Produtos farmacêuticos","Administração Regional de Saúde do Norte, I. P. (503135593)",SMITHS MEDICAL PORTUGAL   (507445937),"900,00 €",13-04-2015,05-02-2015,365 dias,"Portugal, Porto, Maia<BR/>Portugal, Vila Real, Vila Real",Artigo 259.º do Código dos Contratos Públicos,06-10-2015,"900,00 €","","",,1212278,"CONCURSO PÚBLICO PARA A CELEBRAÇÃO DE CONTRATOS PÚBLICOS DE APROVISIONAMENTO PARA A ÁREA DA SAÚDE, COM VISTA AO FORNECIMENTO DE CATETERES, ÀS INSTITUIÇÕES E SERVIÇOS DO SERVIÇO NACIONAL DE SAÚDE",FALSE
A.P. 3347 - Aquisição de 500 frascos de Oxibuprocaína (cloridrato) 4 mg/ml Colírio e 750 bisnagas de Oxitetraciclina 5 mg/g Pom oftálmica,Ao abrigo de acordo-quadro (art.º 258.º),Aquisição de bens móveis,"33600000-6, Produtos farmacêuticos","Administração Regional de Saúde do Norte, I. P. (503135593)",LAB.EDOL PROD.FARM.S.A-BANCO POPULAR PORTUGAL (507072642),"3.900,00 €",13-04-2015,20-01-2015,365 dias,"Portugal, Porto, Maia<BR/>Portugal, Vila Real, Vila Real",Artigo 258.º do Código dos Contratos Públicos,07-10-2015,"4.063,80 €","","preço unitário alterado de 2,70€ para 3,30€",,1377420,Acordo quadro para fornecimento de medicamentos usados nas afecções oculares e otorrinolaringologias às instituições e serviços do serviço nacional de saúde,FALSE
A.P. 3349 - Aquisição de 20 ampolas de Imunoglobulina humana tétano Sol inj 250 UI/ml IM,Ao abrigo de acordo-quadro (art.º 258.º),Aquisição de bens móveis,"33600000-6, Produtos farmacêuticos","Administração Regional de Saúde do Norte, I. P. (503135593)","GRIFOLS PORTUGAL, LDA. (502041285)","200,00 €",13-04-2015,27-01-2015,365 dias,"Portugal, Porto, Maia<BR/>Portugal, Vila Real, Vila Real",Artigo 258.º do Código dos Contratos Públicos,11-11-2015,"162,00 €",Aquisição de menos quantidades,Aquisição de menos quantidades,,1423488,ACORDO QUADRO PARA FORNECIMENTO DE DERIVADOS DO PLASMA HUMANO ÀS INSTITUIÇÕES E SERVIÇOS DO SERVIÇO NACIONAL DE SAÚDE CP 2015/9,FALSE
"A.P. 3335 - Aquisição de 396 unidades de Enoxaparina sódica 100 mg/ml Sol inj 0,2 ml SC",Ao abrigo de acordo-quadro (art.º 258.º),Aquisição de bens móveis,"33600000-6, Produtos farmacêuticos","Administração Regional de Saúde do Norte, I. P. (503135593)","Sanofi - Produtos Farmacêuticos, Lda   (500134960)","491,04 €",13-04-2015,27-01-2015,365 dias,"Portugal, Vila Real, Vila Real<BR/>Portugal, Porto, Maia",Artigo 258.º do Código dos Contratos Públicos,23-11-2015,"491,04 €","","",,1210107,"CONCURSO PÚBLICO PARA A CELEBRAÇÃO DE CONTRATOS PÚBLICOS DE APROVISIONAMENTO PARA A ÁREA DA SAÚDE, COM VISTA AO FORNECIMENTO DE MEDICAMENTOS DO GRUPO 4: SANGUE, ÀS INSTITUIÇÕES E SERVIÇOS DO SERVIÇO NACIONAL DE SAÚDE",FALSE
A.P. 3345 - Aquisição de 5.000 bisnagas de Tetracaína 7.5 mg/g Gel Bisn 6 g,Ao abrigo de acordo-quadro (art.º 259.º),Aquisição de bens móveis,"33600000-6, Produtos farmacêuticos","Administração Regional de Saúde do Norte, I. P. (503135593)",B BRAUN MEDICAL LDA          (501506543),"7.500,00 €",13-04-2015,04-03-2015,365 dias,"Portugal, Porto, Maia<BR/>Portugal, Vila Real, Vila Real",Artigo 259.º do Código dos Contratos Públicos,24-08-2015,"7.500,00 €","","",,602875,"CONCURSO PÚBLICO PARA A CELEBRAÇÃO DE CONTRATOS PÚBLICOS DE APROVISIONAMENTO PARA A ÁREA DA SAÚDE, COM VISTA AO FORNECIMENTO DE MEDICAMENTOS DE CONSUMO GERAL - USADOS NAS AFECÇÕES CUTÂNEAS, ÀS INSTITUIÇÕES E SERVIÇOS DO SERVIÇO NACIONAL DE SAÚDE",FALSE
A.P. 3345 - Aquisição de 10.000 bisnagas de Ácido fusídico 20 mg/g Pom 15 g e 16.000 bisnagas de Óxido de zinco 150 mg/g Pomada,Ao abrigo de acordo-quadro (art.º 259.º),Aquisição de bens móveis,"33600000-6, Produtos farmacêuticos","Administração Regional de Saúde do Norte, I. P. (503135593)","LABORATORIOS MEDINFAR, S.A.       (500384045)","38.400,00 €",13-04-2015,02-03-2015,365 dias,"Portugal, Vila Real, Vila Real<BR/>Portugal, Porto, Maia",Artigo 259.º do Código dos Contratos Públicos,28-09-2015,"38.400,00 €","","",,602875,"CONCURSO PÚBLICO PARA A CELEBRAÇÃO DE CONTRATOS PÚBLICOS DE APROVISIONAMENTO PARA A ÁREA DA SAÚDE, COM VISTA AO FORNECIMENTO DE MEDICAMENTOS DE CONSUMO GERAL - USADOS NAS AFECÇÕES CUTÂNEAS, ÀS INSTITUIÇÕES E SERVIÇOS DO SERVIÇO NACIONAL DE SAÚDE",FALSE
A.P. 3345 - Aquisição de 50 bisnagas de Clotrimazol 10 mg/g Cr Bisn 20 g,Ao abrigo de acordo-quadro (art.º 259.º),Aquisição de bens móveis,"33600000-6, Produtos farmacêuticos","Administração Regional de Saúde do Norte, I. P. (503135593)",OVERPHARMA- PRODUTOS MEDICOS FARMAC. LDA    (505792362),"25,00 €",13-04-2015,05-03-2015,365 dias,"Portugal, Vila Real, Vila Real<BR/>Portugal, Porto, Maia",Artigo 259.º do Código dos Contratos Públicos,05-03-2015,"25,00 €","","",,602875,"CONCURSO PÚBLICO PARA A CELEBRAÇÃO DE CONTRATOS PÚBLICOS DE APROVISIONAMENTO PARA A ÁREA DA SAÚDE, COM VISTA AO FORNECIMENTO DE MEDICAMENTOS DE CONSUMO GERAL - USADOS NAS AFECÇÕES CUTÂNEAS, ÀS INSTITUIÇÕES E SERVIÇOS DO SERVIÇO NACIONAL DE SAÚDE",FALSE
A.P. 17 - Aquisição de 800 carteiras de Sais rehidratação oral Pó Sol oral e 350 ampolas de Adenosina 3 mg/ml Sol inj IV,Ajuste Direto Regime Geral,Aquisição de bens móveis,"33600000-6, Produtos farmacêuticos","Administração Regional de Saúde do Norte, I. P. (503135593)","Sanofi - Produtos Farmacêuticos, Lda    (500134960)","5.142,50 €",13-04-2015,10-02-2015,365 dias,"Portugal, Vila Real, Vila Real<BR/>Portugal, Porto, Maia","Artigo 20.º, n.º 1, alínea a) do Código dos Contratos Públicos",29-10-2015,"5.142,50 €","","",,Não aplicável.,Não aplicável.,FALSE
