Objeto do Contrato,Tipo de Procedimento,Tipo(s) de Contrato,CPVs,Entidade(s) Adjudicante(s),Entidade(s) Adjudicatária(s),Preço Contratual,Data de Publicação,Data de Celebração do Contrato,Prazo de Execução,Local de Execução,Fundamentação,Data de Fecho do Contrato,Preço Total Efetivo,Causas das Alterações ao Prazo,Causas das Alterações ao Preço,Estado,N.º registo do Acordo Quadro,Descrição do Acordo Quadro,Procedimento Centralizado
Prestação de Serviços de Desenvolvimento de um Sistema de Indicadores de Compras,Ajuste Direto Regime Geral,Aquisição de serviços,"72221000-0, Serviços de consultoria em matéria de análise de gestão","Serviço Partilhados do Ministério da Saúde, E. P. E. (509540716)",OPET - Observatório de Prospectiva da Engenharia e da Tecnologia (505346621),"25.000,00 €",10-04-2012,01-03-2012,66 dias,Portugal,"Artigo 20.º, n.º 1, alínea a) do Código dos Contratos Públicos",,,,,,Não aplicável.,Não aplicável.,
Serviços de Divulgação Institucional,Ajuste Direto Regime Geral,Aquisição de serviços,"79341100-7, Serviços de consultoria em matéria de publicidade","Serviço Partilhados do Ministério da Saúde, E. P. E. (509540716)","TEMÁTICA ESPECIFICA, LDA (508010063)","25.000,00 €",10-04-2012,24-02-2012,153 dias,Portugal,"Artigo 20.º, n.º 1, alínea a) do Código dos Contratos Públicos",,,,,,Não aplicável.,Não aplicável.,
Prestação de Serviços de Business Intelligence SIGLIC,Ajuste Direto Regime Geral,Aquisição de serviços,"72500000-0, Serviços relacionados com a informática","Serviço Partilhados do Ministério da Saúde, E. P. E. (509540716)","LOGICA TI PORTUGAL, S.A. (502605731)","54.000,00 €",10-04-2012,03-04-2012,272 dias,Portugal,"Artigo 20.º, n.º 1, alínea a) do Código dos Contratos Públicos",,,,,,Não aplicável.,Não aplicável.,
Fornecimento de Gases Medicinais,Ajuste Direto Regime Geral,Aquisição de bens móveis,"24111500-0, Gases médicos","Serviço Partilhados do Ministério da Saúde, E. P. E. (509540716)","AIR LIQUIDE MEDICINAL, S.A. (501576436), ACAIL GÁS, LDA (503789151), LINDE SOGÁS, LDA (500266344)","65.576,60 €",10-04-2012,22-02-2012,365 dias,"Portugal, Lisboa<BR/>Portugal, Lisboa, Lisboa","Artigo 20.º, n.º 1, alínea a) do Código dos Contratos Públicos",,,,,,Não aplicável.,Não aplicável.,
"Prestação  de Serviços de Exploração, Manutenção Corretiva e Helpdesk SIGLIC",Ajuste Direto Regime Geral,Aquisição de serviços,"72500000-0, Serviços relacionados com a informática","Serviço Partilhados do Ministério da Saúde, E. P. E. (509540716)","LOGICA TI PORTUGAL, S.A. (502605731)","180.000,00 €",10-04-2012,03-04-2012,272 dias,Portugal,"Artigo 20.º, n.º 1, alínea a) do Código dos Contratos Públicos",,,,,,Não aplicável.,Não aplicável.,
PRESTAÇÃO DE SERVIÇOS DE RADIOLOGIA NO SERVIÇO DE URGÊNCIA BÁSICA DO AGRUPAMENTO DE CENTROS DE SAÚDE DO TÂMEGA I - BAIXO TÂMEGA,Ajuste Direto Regime Geral,Aquisição de serviços,"79625000-1, Serviços de fornecimento de pessoal médico","Serviço Partilhados do Ministério da Saúde, E. P. E. (509540716)","VEREDITO PERFEITO UNIPESSOAL, LDA (509359736)","6.124,30 €",05-04-2012,06-02-2012,183 dias,Portugal,"Artigo 20.º, n.º 1, alínea a) do Código dos Contratos Públicos",,,,,,Não aplicável.,Não aplicável.,
"PRESTAÇÃO DE SERVIÇOS DE RADIOLOGIA NO SERVIÇO DE URGÊNCIA BÁSICA DO CENTRO DE SAÚDE DE CINFÃES, ADSTRITO AO AGRUPAMENTO DE CENTROS DE SAÚDE DO TÂMEGA I - BAIXO TÂMEGA",Ajuste Direto Regime Geral,Aquisição de serviços,"79625000-1, Serviços de fornecimento de pessoal médico","Serviço Partilhados do Ministério da Saúde, E. P. E. (509540716)",Helena Campochão & Filhas Lda (505109336),"6.124,30 €",05-04-2012,23-02-2012,183 dias,Portugal,"Artigo 20.º, n.º 1, alínea a) do Código dos Contratos Públicos",,,,,,Não aplicável.,Não aplicável.,
PRESTAÇÃO DE SERVIÇOS MÉDICOS NOS CENTROS DE SAÚDE ADSTRITOS AO AGRUPAMENTO DE CENTROS DE SAÚDE DO TÂMEGA II - VALE DO SOUSA SUL,Ajuste Direto Regime Geral,Aquisição de serviços,"79625000-1, Serviços de fornecimento de pessoal médico","Serviço Partilhados do Ministério da Saúde, E. P. E. (509540716)","MEDICISFORMA-MEDICINA NO TRABALHO, HIGIENE E SEGURANÇA LDA (503755397)","156.000,00 €",04-04-2012,05-01-2012,183 dias,Portugal,"Artigo 20.º, n.º 1, alínea a) do Código dos Contratos Públicos",,,,,,Não aplicável.,Não aplicável.,
