Objeto do Contrato,Tipo de Procedimento,Tipo(s) de Contrato,CPVs,Entidade(s) Adjudicante(s),Entidade(s) Adjudicatária(s),Preço Contratual,Data de Publicação,Data de Celebração do Contrato,Prazo de Execução,Local de Execução,Fundamentação,Data de Fecho do Contrato,Preço Total Efetivo,Causas das Alterações ao Prazo,Causas das Alterações ao Preço,Estado,N.º registo do Acordo Quadro,Descrição do Acordo Quadro,Procedimento Centralizado
"Aquisição de Cinchocaína 1% pomada e Sorbitol Composto enema  para HDFF, EPE",Ajuste Direto Regime Geral,Aquisição de bens móveis,"33610000-9, Medicamentos para o tracto digestivo e o metabolismo","Hospital Distrital Figueira da Foz, E.P.E. (506361527)","PROSPA - LAB.FARMACÊUTICOS,SA.                     (500130248)","6.069,60 €",29-03-2017,09-02-2017,365 dias,"Portugal, Coimbra, Figueira da Foz","Artigo 20.º, n.º 1, alínea a) do Código dos Contratos Públicos",,,,,,Não aplicável.,Não aplicável.,FALSE
"Aquisição de Prestação de Serviços para Fornecimento de Refeições Confecionadas para o Hospital Distrital da Figueira da Foz, EPE",Ao abrigo de acordo-quadro (art.º 259.º),Aquisição de serviços,"55322000-3, Serviços de confecção de refeições",HDFF (506361527),"Gertral - Companhia Geral de Restaurantes e Alimentação, SA (500126623)","303.814,61 €",24-03-2017,15-11-2016,330 dias,"Portugal, Coimbra, Figueira da Foz",Artigo 259.º do Código dos Contratos Públicos,,,,,,1125527,Acordo quadro para o fornecimento de refeições confecionadas,FALSE
