Objeto do Contrato,Tipo de Procedimento,Tipo(s) de Contrato,CPVs,Entidade(s) Adjudicante(s),Entidade(s) Adjudicatária(s),Preço Contratual,Data de Publicação,Data de Celebração do Contrato,Prazo de Execução,Local de Execução,Fundamentação,Data de Fecho do Contrato,Preço Total Efetivo,Causas das Alterações ao Prazo,Causas das Alterações ao Preço,Estado,N.º registo do Acordo Quadro,Descrição do Acordo Quadro,Procedimento Centralizado
"Aquisição de acessórios para a rede de distribuição de gases medicinais do CHSJ, EPE, para o ano de 2015",Ajuste Direto Regime Geral,Aquisição de bens móveis,"39340000-7, Equipamento para rede de distribuição de gás","Centro Hospitalar de São João, E. P. E. (509821197)","Joaquim Luz, Lda (505443112)","3.221,00 €",11-04-2016,22-01-2015,30 dias,"Portugal, Porto, Porto","Artigo 20.º, n.º 1, alínea a) do Código dos Contratos Públicos",,,,,,Não aplicável.,Não aplicável.,FALSE
"Aquisição de acessórios para a rede de distribuição de gases medicinais do CHSJ, EPE, para o ano de 2015",Ajuste Direto Regime Geral,Aquisição de bens móveis,"39340000-7, Equipamento para rede de distribuição de gás","Centro Hospitalar de São João, E. P. E. (509821197)","Air Liquide Medicinal, S.A. (501576436)","24.905,90 €",11-04-2016,30-01-2015,30 dias,"Portugal, Porto, Porto","Artigo 20.º, n.º 1, alínea a) do Código dos Contratos Públicos",,,,,,Não aplicável.,Não aplicável.,FALSE
"Aquisição de materiais de manutenção e conservação para a UGEM do Serviço de Instalações e Equipamentos do CHSJ, EPE",Ajuste Direto Regime Geral,Aquisição de bens móveis,"33194000-6, Material para transfusão e perfusão","Centro Hospitalar de São João, E. P. E. (509821197)","FRESENIUS KABI PHARMA PORTUGAL, Lda (504293753)","37.678,94 €",08-04-2016,29-04-2015,30 dias,"Portugal, Porto, Porto","Artigo 24.º, n.º 1, alínea e) do Código dos Contratos Públicos",,,,,,Não aplicável.,Não aplicável.,FALSE
"Aquisição de Materiais de Manutenção e Conservação para a UGEM do Serviço de Instalações e Equipamentos do CHSJ, EPE",Ajuste Direto Regime Geral,Aquisição de bens móveis,"33192310-8, Dispositivos de tracção ou suspensão para camas de hospital","Centro Hospitalar de São João, E. P. E. (509821197)","IMO INDUSTRIAS METALURGICAS, SA (500136939)","7.326,62 €",08-04-2016,29-04-2015,30 dias,"Portugal, Porto, Porto","Artigo 24.º, n.º 1, alínea e) do Código dos Contratos Públicos",,,,,,Não aplicável.,Não aplicável.,FALSE
"Aquisição de tintas para o Serviço de Instalações de Equipamentos do CHSJ, EPE",Ajuste Direto Regime Geral,Aquisição de bens móveis,"44810000-1, Tintas","Centro Hospitalar de São João, E. P. E. (509821197)","Mavisan - Materiais de Construção, Lda. (502769203)","9.537,00 €",08-04-2016,02-07-2015,30 dias,"Portugal, Porto, Porto","Artigo 20.º, n.º 1, alínea a) do Código dos Contratos Públicos",,,,,,Não aplicável.,Não aplicável.,FALSE
"Aquisição de 24 módulos de arquivo de blocos de parafina para o Serviço de Anatomia Patológica do CHSJ, EPE.",Ajuste Direto Regime Geral,Aquisição de bens móveis,"39151300-8, Mobilário modular","Centro Hospitalar de São João, E. P. E. (509821197)","Garal - Gabinete Tecnico Comercial, Lda. (500777314)","6.864,00 €",08-04-2016,02-07-2015,30 dias,"Portugal, Porto, Porto","Artigo 20.º, n.º 1, alínea a) do Código dos Contratos Públicos",,,,,,Não aplicável.,Não aplicável.,FALSE
"Aquisição de 12 lâmpadas Xenon para fonte de Luz Exera III CLV 190 para o Serviço de Instalações e Equipamentos do CHSJ, EPE",Ajuste Direto Regime Geral,Aquisição de bens móveis,"31510000-4, Lâmpadas eléctricas de incandescência","Centro Hospitalar de São João, E. P. E. (509821197)","Olympus Iberia, S.A.U. - Sucursal Portugal (980474710)","8.502,00 €",08-04-2016,26-01-2016,30 dias,"Portugal, Porto, Porto","Artigo 24.º, n.º 1, alínea e) do Código dos Contratos Públicos",,,,,,Não aplicável.,Não aplicável.,FALSE
"Contrato de Manutenção e Assistência Técnica aos equipamentos marca """"Olympus"""" do CHSJ, EPE, para o ano de 2016.",Ajuste Direto Regime Geral,Aquisição de serviços,"50000000-5, Serviços de reparação e manutenção","Centro Hospitalar de São João, E. P. E. (509821197)","Olympus Iberia, S.A.U. - Sucursal Portugal (980474710)","232.646,81 €",08-04-2016,17-03-2016,365 dias,"Portugal, Porto, Porto","Artigo 24.º, n.º 1, alínea e) do Código dos Contratos Públicos",,,,,,Não aplicável.,Não aplicável.,FALSE
"Contrato de Manutenção e Assistência Técnica ao Acelerador Clinac 600 do Serviço de Radioterapia do CHSJ, EPE, para o ano de 2016",Ajuste Direto Regime Geral,Aquisição de serviços,"50000000-5, Serviços de reparação e manutenção","Centro Hospitalar de São João, E. P. E. (509821197)","VARIAN IBERICA, S.L. (980236436)","67.365,00 €",08-04-2016,17-03-2016,365 dias,"Portugal, Porto, Porto","Artigo 24.º, n.º 1, alínea e) do Código dos Contratos Públicos",,,,,,Não aplicável.,Não aplicável.,FALSE
"Contrato de Manutenção e Assistência Técnica aos equipamentos """"Shimadzu"""" existentes no CHSJ, EPE, para o ano de 2016",Ajuste Direto Regime Geral,Aquisição de serviços,"50000000-5, Serviços de reparação e manutenção","Centro Hospitalar de São João, E. P. E. (509821197)","Med X-Ray Sistemas Médicos, Lda (506187071)","25.054,40 €",08-04-2016,16-03-2016,365 dias,"Portugal, Porto, Porto","Artigo 24.º, n.º 1, alínea e) do Código dos Contratos Públicos",,,,,,Não aplicável.,Não aplicável.,FALSE
"Aquisição de acessórios para a Unidade de Gestão de Equipamentos de Metrologia do Serviço de Instalações e Equipamentos do CHSJ, EPE, para o ano de 2014",Ajuste Direto Regime Geral,Aquisição de bens móveis,"33194000-6, Material para transfusão e perfusão","Centro Hospitalar de São João, E. P. E. (509821197)","Bacelar & Irmão, Lda (500532818)","1.308,76 €",08-04-2016,07-07-2014,30 dias,"Portugal, Porto, Porto","Artigo 20.º, n.º 1, alínea a) do Código dos Contratos Públicos",,,,,,Não aplicável.,Não aplicável.,FALSE
"Aquisição de acessórios para a Unidade de Gestão de Equipamentos de Metrologia do Serviço de Instalações e Equipamentos do CHSJ, EPE, para o ano de 2014",Ajuste Direto Regime Geral,Aquisição de bens móveis,"33194000-6, Material para transfusão e perfusão","Centro Hospitalar de São João, E. P. E. (509821197)","Medicinalia Cormédica, Lda (500684324)","18.828,41 €",08-04-2016,09-07-2014,30 dias,"Portugal, Porto, Porto","Artigo 20.º, n.º 1, alínea a) do Código dos Contratos Públicos",,,,,,Não aplicável.,Não aplicável.,FALSE
"Aquisição de acessórios para a Unidade de Gestão de Equipamentos de Metrologia do Serviço de Instalações e Equipamentos do CHSJ, EPE, para o ano de 2014",Ajuste Direto Regime Geral,Aquisição de bens móveis,"33194000-6, Material para transfusão e perfusão","Centro Hospitalar de São João, E. P. E. (509821197)","B. BRAUN MEDICAL, LDA. (501506543)","9.304,12 €",08-04-2016,07-07-2014,30 dias,"Portugal, Porto, Porto","Artigo 20.º, n.º 1, alínea a) do Código dos Contratos Públicos",,,,,,Não aplicável.,Não aplicável.,FALSE
"Aquisição de acessórios para a Unidade de Gestão de Equipamentos de Metrologia do Serviço de Instalações e Equipamentos do CHSJ, EPE, para o ano de 2014",Ajuste Direto Regime Geral,Aquisição de bens móveis,"33194000-6, Material para transfusão e perfusão","Centro Hospitalar de São João, E. P. E. (509821197)","ONLYBATTERY, S.A. (506317994)","2.002,04 €",08-04-2016,07-07-2014,30 dias,"Portugal, Porto, Porto","Artigo 20.º, n.º 1, alínea a) do Código dos Contratos Públicos",,,,,,Não aplicável.,Não aplicável.,FALSE
"Aquisição de acessórios para a Unidade de Gestão de Equipamentos de Metrologia do Serviço de Instalações e Equipamentos do CHSJ, EPE, para o ano de 2014",Ajuste Direto Regime Geral,Aquisição de bens móveis,"33194000-6, Material para transfusão e perfusão","Centro Hospitalar de São João, E. P. E. (509821197)","IMO INDUSTRIAS METALURGICAS, SA (500136939)","1.410,18 €",08-04-2016,07-07-2014,30 dias,"Portugal, Porto, Porto","Artigo 20.º, n.º 1, alínea a) do Código dos Contratos Públicos",,,,,,Não aplicável.,Não aplicável.,FALSE
"Aquisição de acessórios para a Unidade de Gestão de Equipamentos de Metrologia do Serviço de Instalações e Equipamentos do CHSJ, EPE, para o ano de 2014",Ajuste Direto Regime Geral,Aquisição de bens móveis,"33194000-6, Material para transfusão e perfusão","Centro Hospitalar de São João, E. P. E. (509821197)","SANO-TÉCNICA, Lda. (500239819)","3.873,75 €",08-04-2016,07-07-2014,30 dias,"Portugal, Porto, Porto","Artigo 20.º, n.º 1, alínea a) do Código dos Contratos Públicos",,,,,,Não aplicável.,Não aplicável.,FALSE
"Aquisição de acessórios para a Unidade de Gestão de Equipamentos de Metrologia do Serviço de Instalações e Equipamentos do CHSJ, EPE, para o ano de 2014",Ajuste Direto Regime Geral,Aquisição de bens móveis,"33194000-6, Material para transfusão e perfusão","Centro Hospitalar de São João, E. P. E. (509821197)","FRESENIUS KABI PHARMA PORTUGAL, Lda (504293753)","18.312,66 €",08-04-2016,09-07-2014,30 dias,"Portugal, Porto, Porto","Artigo 20.º, n.º 1, alínea a) do Código dos Contratos Públicos",,,,,,Não aplicável.,Não aplicável.,FALSE
