Objeto do Contrato,Tipo de Procedimento,Tipo(s) de Contrato,CPVs,Entidade(s) Adjudicante(s),Entidade(s) Adjudicatária(s),Preço Contratual,Data de Publicação,Data de Celebração do Contrato,Prazo de Execução,Local de Execução,Fundamentação,Data de Fecho do Contrato,Preço Total Efetivo,Causas das Alterações ao Prazo,Causas das Alterações ao Preço,Estado,N.º registo do Acordo Quadro,Descrição do Acordo Quadro,Procedimento Centralizado
Aquisição de Papel para fotocópia e Impressão,Ao abrigo de acordo-quadro (art.º 259.º),Aquisição de bens móveis,"30197643-5, Papel para fotocópia","Instituto de Oftalmologia Dr. Gama Pinto (600000052), Instituto Nacional de Emergência Médica, IP (501356126), Hospital Espírito Santo, EPE (508085888), Centro Hospitalar do Médio Ave, EPE (508093937), Unidade Local de Saúde do Alto Minho, EPE (508786193), Unidade Local de Saúde do Nordeste, EPE (509932584), Centro Hospitalar Tondela-Viseu, EPE (509822940), Centro Hospitalar Barreiro Montijo, EPE (509186998), Administração Regional de Saúde do Norte, IP (503135593), Centro Hospitalar e Universitário de Coimbra, EPE (510103448), Direção-Geral da Saúde (600037100), Administração Regional de Saúde de Lisboa e Vale do Tejo, IP (503148776), Centro Hospitalar de S. João, EPE (509821197), Centro Hospitalar Vila Nova de Gaia/Espinho, EPE (508142156), Centro Hospitalar de Entre Douro e Vouga,  EPE (508878462), Inspeção-Geral das Atividades em Saúde (600018857), Secretaria-Geral do Ministério da Saúde (600080684), Hospital de Santarém, EPE (506361462), Centro Hospitalar do Oeste (510412009), Centro Hospitalar do Porto, EPE (508331471), Serviços Partilhados do Ministério da Saúde, EPE (509540716), Unidade Local de saúde da Guarda, EPE (508752000), Centro Hospitalar do Algarve, EPE (510745997), Administração Regional de Saúde do Centro, IP (503122165), Hospital Professor Doutor Fernando Fonseca, EPE (503035416), Instituto Nacional de Saúde Dr. Ricardo Jorge, IP (501427511), Centro Hospitalar do Médio Tejo, EPE (506361608), Unidade Local de Saúde de Matosinhos, EPE (506361390), Serviço de Intervenção nos Comportamentos Aditivos e nas Dependências (600084884), Hospital Santa Maria Maior, EPE (506361381), Centro Medicina de Reabilitação da Região Centro Rovisco Pais (503767336), Instituto Português de Oncologia de Coimbra Francisco Gentil, EPE (506361438), Centro Hospitalar de Lisboa Norte, EPE (508481287), Hospital Distrital Figueira da Foz, EPE (506361527), Centro Hospitalar de Leiria-Pombal, EPE (509822932), Centro Hospitalar do Alto Ave, EPE (508080827), Administração Central do Sistema de Saúde, IP (508188423), Instituto Português de Oncologia do Porto Francisco Gentil, EPE (506362299), Centro Hospitalar de Trás-os-Montes e Alto Douro, EPE (508100496), Instituto Português do Sangue e da Transplantação, IP (502423943), Centro Hospitalar Psiquiátrico de Lisboa (508338476), Administração Regional de Saúde do Algarve, IP (503148709), Unidade Local de Saúde do Baixo Alentejo, EPE (508754275), Centro Hospitalar de Lisboa Ocidental, EPE (507618319), Administração Regional de Saúde do Alentejo, IP (503148768), Hospital José Luciano de Castro (501613021), Centro Hospitalar Lisboa Central, EPE (508080142), Hospital Arcebispo João Crisóstomo (501626123), Hospital de Magalhães Lemos, EPE (502828790), Centro Hospitalar Tâmega e Sousa, EPE (508318262), Centro Hospitalar Cova da Beira, EPE (506361659), Centro Hospitalar de Setúbal, EPE (507606787), Hospital Dr. Francisco Zagalo (507846044), Unidade Local de Saúde de Castelo Branco, EPE (509309844), Autoridade Nacional do Medicamento e Produtos de Saúde, IP (600037002), Unidade Local de Saúde do Norte Alentejano, EPE (508094461), Hospital Garcia de Orta, EPE (506361470)","Staples Portugal, S.A. (503789372)","1.678.737,97 €",01-04-2014,02-01-2014,365 dias,Portugal,Artigo 259.º do Código dos Contratos Públicos,30-01-2014,"5.443,80 €",,O total efetivo corresponde apenas a este Centro Hospitalar.,,162548,"Concurso limitado por prévia qualificação para a celebração de Acordo Quadro para fornecimento de papel, economato e consumíveis de impressão.",TRUE
"Aquisição de eletricidade englobando BTE, MT, AT e MAT",Ao abrigo de acordo-quadro (art.º 259.º),Aquisição de bens móveis,"09310000-5, Electricidade","Centro Hospitalar de Lisboa Central, E. P. E. (508080142), Instituto Português Oncologia de Coimbra Francisco Gentil, E.P.E. (506361438), Administração Regional de Saúde do Norte, I. P. (503135593), Insituto Nacional de Saúde Dr. Ricardo Jorge, I.P. (501427511), Administração Regional de Saúde do Alentejo, I. P. (503148768), Instituto Português do sangue (502423943), Unidade Local de Saúde do Nordeste, E. P. E (509932584), Inspeção-Geral das Atividades em Saúde (600018857), Unidade Local de Saúde do Alto Minho, E. P. E. (508786193), Centro Hospitalar e Universitário de Coimbra, E. P. E. (510103448), Centro Hospitalar de Setúbal, E. P. E. (507606787), Administração Regional de Saúde do Centro, I. P. (503122165), Centro Hospitalar Psiquiátrico de Lisboa (508338476), Hospital de Santarém, E.P.E. (506361462), Instituto Nacional de Emergência Médica, I.P. (501356126), Unidade Local de Saúde do Litoral Alentejano, E.P.E. (510445152), Hospital de Magalhães Lemos, E. P. E. (502828790), Administração Regional de Saúde Algarve, I.P. (503148709), Centro Hospitalar do Baixo Vouga, E.P.E. (510123210), Hospital José Luciano de Castro - Anadia (501613021), Hospital Santa Maria Maior, E.P.E. - Barcelos (506361381), Centro Hospitalar Lisboa Norte, E. P. E. (508481287), Centro Hospitalar de Entre o Douro e Vouga, E.P.E. (508878462), Centro Hospitalar Vila Nova de Gaia - Espinho, E. P. E. (508142156), Serviço Partilhados do Ministério da Saúde, E. P. E. (509540716), Centro Hospitalar do Tâmega e Sousa, E. P. E. (508318262), Hospital Garcia de Orta, E.P.E. (506361470), Unidade Local de Saúde da Guarda, E.P.E. (508752000), Unidade Local de Saúde de Matosinhos, E.P.E. (506361390), Centro Hospitalar do Médio Ave, E.P.E. (508093937), Hospital Professor Doutor Fernando Fonseca, E.P.E. (503035416), Hospital Dr. Francisco Zagalo - Ovar (501510150), SUCH - Serviço de Utilização Comum dos Hospitais (500900469), Centro Medicina de Reabilitação da Região Centro Rovisco Pais (503767336), Centro Hospitalar Barreiro Montijo, E.P.E. (509186998), Direcção-Geral da Saúde (600037100), Centro Hospitalar de Trás-os-Montes e Alto Douro, E. P. E. (508100496), Hospital do Espírito Santo de Évora, E. P. E. (508085888), Administração Regional de Saúde de Lisboa e Vale do Tejo, I. P. (503148776), Centro Hospitalar Tondela-Viseu, E.P.E. (509822940), CENTRO HOSPITALAR DO ALGARVE (508718872), CHO - Centro Hospitalar do Oeste (510412009), Centro Hospitalar de Lisboa Ocidental, E.P.E. (507618319), Administração Central do Sistema de Saúde, I.P. (508188423), Unidade Local de Saúde do Baixo Alentejo, E.P.E. (508754275), Unidade Local de Saúde de Castelo Branco, E.P.E. (509309844), INFARMED - Autoridade Nacional do Medicamento e Produtos de Saúde I.P. (600037002), Centro Hospitalar do Alto Ave, E.P.E. (508080827), Centro Hospitalar do Porto, E.P.E. (508331471), Instituto de Oftalmologia Dr. Gama Pinto (600000052), Secretaria-Geral do Ministério da Saúde (600080684), Centro Hospitalar Póvoa de Varzim - Vila do Conde, E.P.E. (508741823), Centro Hospitalar do Médio Tejo, E. P. E. (506361608), Centro Hospitalar Cova da Beira, EPE (506361659), Instituto Português Oncologia do Porto Francisco Gentil, E.P.E. (506362299), Centro Hospitalar de Leiria, E.P.E. (509822932)","EDP Comercial, SA (503504564)","23.711.683,78 €",01-04-2014,01-03-2014,365 dias,Portugal,Artigo 259.º do Código dos Contratos Públicos,30-12-2014,"356.327,09 €",,diminuicao das necessidades,,314294,Acordo quadro para o fornecimento de electricidade em regime de mercado livre para Portugal Continental,TRUE
