Objeto do Contrato,Tipo de Procedimento,Tipo(s) de Contrato,CPVs,Entidade(s) Adjudicante(s),Entidade(s) Adjudicatária(s),Preço Contratual,Data de Publicação,Data de Celebração do Contrato,Prazo de Execução,Local de Execução,Fundamentação,Data de Fecho do Contrato,Preço Total Efetivo,Causas das Alterações ao Prazo,Causas das Alterações ao Preço,Estado,N.º registo do Acordo Quadro,Descrição do Acordo Quadro,Procedimento Centralizado
"MCDT's de Angiografia, de Janeiro a Dezembro de 2016",Ajuste Direto Regime Geral,Aquisição de serviços,"85000000-9, Serviços de saúde e acção social","Centro Hospitalar de Setúbal, E. P. E. (507606787)","Nephrocare  Portugal, SA (501127550)","10.500,00 €",19-01-2016,15-12-2015,365 dias,"Portugal, Lisboa, Lisboa","Artigo 20.º, n.º 1, alínea a) do Código dos Contratos Públicos",,,,,,Não aplicável.,Não aplicável.,FALSE
"MCDT's no âmbito Otorrinolaringologia, para o Ano de 2016",Ajuste Direto Regime Geral,Aquisição de serviços,"85000000-9, Serviços de saúde e acção social","Centro Hospitalar de Setúbal, E. P. E. (507606787)",Audicem (501099530),"10.623,60 €",13-01-2016,23-12-2015,365 dias,"Portugal, Setúbal, Setúbal","Artigo 20.º, n.º 1, alínea a) do Código dos Contratos Públicos",,,,,,Não aplicável.,Não aplicável.,FALSE
Contrato regime prestação serviços - apoio técnico jurídico ano 2016,Ajuste Direto Regime Geral,Aquisição de serviços,"98000000-3, Outros serviços comunitários, sociais e pessoais","Centro Hospitalar de Setúbal, E. P. E. (507606787)",carlos resende gonçalves rito (128996609),"31.061,64 €",13-01-2016,04-01-2016,365 dias,"Portugal, Setúbal, Setúbal","Artigo 20.º, n.º 1, alínea a) do Código dos Contratos Públicos",,,,,,Não aplicável.,Não aplicável.,FALSE
Material de consumo hoteleiro para o ano de 2016,Ajuste Direto Regime Geral,Aquisição de serviços<br/>Aquisição de bens móveis,"39000000-2, Mobiliário (incl. de escritório), acessórios, aparelhos domésticos (excl. iluminação) e produtos de limpeza","Centro Hospitalar de Setúbal, E. P. E. (507606787)",João Antunes Amaro (500149003),"10.589,77 €",11-01-2016,04-01-2016,365 dias,"Portugal, Setúbal, Setúbal","Artigo 20.º, n.º 1, alínea a) do Código dos Contratos Públicos",,,,,,Não aplicável.,Não aplicável.,FALSE
sacos de plástico para uso diverso para o ano de 2016,Ajuste Direto Regime Geral,Aquisição de bens móveis,"39000000-2, Mobiliário (incl. de escritório), acessórios, aparelhos domésticos (excl. iluminação) e produtos de limpeza","Centro Hospitalar de Setúbal, E. P. E. (507606787)",João Antunes Amaro (500149003),"30.953,58 €",11-01-2016,04-01-2016,365 dias,"Portugal, Setúbal, Setúbal","Artigo 20.º, n.º 1, alínea a) do Código dos Contratos Públicos",,,,,,Não aplicável.,Não aplicável.,FALSE
Detergentes e desinfetantes para a central de esterilização para o ano de 2016,Ajuste Direto Regime Geral,Aquisição de bens móveis,"33000000-0, Equipamento médico, medicamentos e produtos para cuidados pessoais","Centro Hospitalar de Setúbal, E. P. E. (507606787)","Franklab Portugal, Lda (506058654)","16.721,56 €",11-01-2016,18-12-2015,365 dias,"Portugal, Setúbal, Setúbal","Artigo 20.º, n.º 1, alínea a) do Código dos Contratos Públicos",,,,,,Não aplicável.,Não aplicável.,FALSE
