Objeto do Contrato,Tipo de Procedimento,Tipo(s) de Contrato,CPVs,Entidade(s) Adjudicante(s),Entidade(s) Adjudicatária(s),Preço Contratual,Data de Publicação,Data de Celebração do Contrato,Prazo de Execução,Local de Execução,Fundamentação,Data de Fecho do Contrato,Preço Total Efetivo,Causas das Alterações ao Prazo,Causas das Alterações ao Preço,Estado,N.º registo do Acordo Quadro,Descrição do Acordo Quadro,Procedimento Centralizado
"51020618-P259-2018-30-AQUISIÇÃO DE MEDICAMENTOS DESENCADEADA PELA SPMS,EPE NO ÂMBITO DO DESPACHO 1571/b 2016 - DP1, DP15",Ao abrigo de acordo-quadro (art.º 259.º),Aquisição de bens móveis,"33600000-6, Produtos farmacêuticos","Unidade Local de Saúde do Norte Alentejano, E. P. E. (508094461)","KEDRION PORTUGAL-DIST. PROD. FARM., LDA (508472830)","594,00 €",29-06-2018,12-06-2018,365 dias,"Portugal, Portalegre, Elvas",Artigo 259.º do Código dos Contratos Públicos,"","",,,,2800702,CP 2017/9 - Acordo quadro para fornecimento de Derivados do Plasma Humano às Instituições e Serviços do Serviço Nacional de Saúde,FALSE
"51020618-P259-2018-30-AQUISIÇÃO DE MEDICAMENTOS DESENCADEADA PELA SPMS,EPE NO ÂMBITO DO DESPACHO 1571/b 2016 - DP1, DP15",Ao abrigo de acordo-quadro (art.º 259.º),Aquisição de bens móveis,"33600000-6, Produtos farmacêuticos","Unidade Local de Saúde do Norte Alentejano, E. P. E. (508094461)","GRIFOLS PORTUGAL - PROD. FARMAC. E HOSP., LDA. (502041285)","19.798,00 €",29-06-2018,12-06-2018,365 dias,"Portugal, Portalegre, Elvas",Artigo 259.º do Código dos Contratos Públicos,"","",,,,2800702,CP 2017/9 - Acordo quadro para fornecimento de Derivados do Plasma Humano às Instituições e Serviços do Serviço Nacional de Saúde,FALSE
"51019618-P259-2017-212-AQUISIÇÃO DE MEDICAMENTOS DESENCADEADA PELA SPMS,EPE NO ÂMBITO DO DESPACHO 1571/b 2016 - D211, E200, E380, E554, F178, H101, V93.",Ao abrigo de acordo-quadro (art.º 259.º),Aquisição de bens móveis,"33600000-6, Produtos farmacêuticos","Unidade Local de Saúde do Norte Alentejano, E. P. E. (508094461)","BIOGEN PORTUGAL, SOC FARMACÊUTICA, UNIPESSOAL (506415740)","189.888,00 €",29-06-2018,04-05-2018,365 dias,"Portugal, Portalegre, Elvas",Artigo 259.º do Código dos Contratos Públicos,"","",,,,1771819,CP 2015/6 - Acordo quadro para o fornecimento de Medicamentos do Foro Oncológico,FALSE
"51019618-P259-2017-212-AQUISIÇÃO DE MEDICAMENTOS DESENCADEADA PELA SPMS,EPE NO ÂMBITO DO DESPACHO 1571/b 2016 - D211, E200, E380, E554, F178, H101, V93.",Ao abrigo de acordo-quadro (art.º 259.º),Aquisição de bens móveis,"33600000-6, Produtos farmacêuticos","Unidade Local de Saúde do Norte Alentejano, E. P. E. (508094461)",LABORATÓRIOS PFIZER (500162166),"252,00 €",29-06-2018,04-05-2018,365 dias,"Portugal, Portalegre, Elvas",Artigo 259.º do Código dos Contratos Públicos,"","",,,,1771819,CP 2015/6 - Acordo quadro para o fornecimento de Medicamentos do Foro Oncológico,FALSE
"51019618-P259-2017-212-AQUISIÇÃO DE MEDICAMENTOS DESENCADEADA PELA SPMS,EPE NO ÂMBITO DO DESPACHO 1571/b 2016 - D211, E200, E380, E554, F178, H101, V93.",Ao abrigo de acordo-quadro (art.º 259.º),Aquisição de bens móveis,"33600000-6, Produtos farmacêuticos","Unidade Local de Saúde do Norte Alentejano, E. P. E. (508094461)","ACCORD HEALTHCARE, UNIPESSOAL, LDA (508622263)","1.168,78 €",29-06-2018,04-05-2018,365 dias,"Portugal, Portalegre, Elvas",Artigo 259.º do Código dos Contratos Públicos,"","",,,,1771819,CP 2015/6 - Acordo quadro para o fornecimento de Medicamentos do Foro Oncológico,FALSE
"51019618-P259-2017-212-AQUISIÇÃO DE MEDICAMENTOS DESENCADEADA PELA SPMS,EPE NO ÂMBITO DO DESPACHO 1571/b 2016 - D211, E200, E380, E554, F178, H101, V93.",Ao abrigo de acordo-quadro (art.º 259.º),Aquisição de bens móveis,"33600000-6, Produtos farmacêuticos","Unidade Local de Saúde do Norte Alentejano, E. P. E. (508094461)",MEDAC GESELLSCHAFT FUR KLINISCHE SPEZIALPRAPARATE (980369959),"7.239,00 €",29-06-2018,04-05-2018,365 dias,"Portugal, Portalegre, Elvas",Artigo 259.º do Código dos Contratos Públicos,"","",,,,1771819,CP 2015/6 - Acordo quadro para o fornecimento de Medicamentos do Foro Oncológico,FALSE
"51020418-P259-2018-58-AQUISIÇÃO DE MEDICAMENTOS DESENCADEADA PELA SPMS,EPE NO ÂMBITO DO DESPACHO 1571/b 2016 - E239 , E367",Ao abrigo de acordo-quadro (art.º 259.º),Aquisição de bens móveis,"33000000-0, Equipamento médico, medicamentos e produtos para cuidados pessoais","Unidade Local de Saúde do Norte Alentejano, E. P. E. (508094461)","Roche Farmacêutica Quimica, Lda. (500233810)","10.674,27 €",28-06-2018,25-05-2018,365 dias,"Portugal, Portalegre, Elvas",Artigo 259.º do Código dos Contratos Públicos,"","",,,,1771819,CP 2015/6 - Acordo quadro para o fornecimento de Medicamentos do Foro Oncológico,FALSE
"61016218-AD-2018-18-AQUISIÇÃO DE MEDICAMENTOS DESENCADEADA PELA SPMS,EPE NO ÂMBITO DO DESPACHO 1571/b 2016 - I251",Ajuste Direto Regime Geral,Aquisição de bens móveis,"33600000-6, Produtos farmacêuticos","Unidade Local de Saúde do Norte Alentejano, E. P. E. (508094461)",PHARMAKERN (507002571),"31.815,90 €",27-06-2018,05-04-2018,1 dias,"Portugal, Portalegre, Elvas","Artigo 24.º, n.º 1, alínea e), subalínea ii) do Código dos Contratos Públicos","","",,,,Não aplicável.,Não aplicável.,FALSE
51005518 - Medicamentos SPMS,Ajuste Direto Regime Geral,Aquisição de bens móveis,"33000000-0, Equipamento médico, medicamentos e produtos para cuidados pessoais","Unidade Local de Saúde do Norte Alentejano, E. P. E. (508094461)","GRIFOLS PORTUGAL - PROD. FARMAC. E HOSP., LDA. (502041285)","2.119,80 €",27-06-2018,24-01-2018,1 dias,"Portugal, Portalegre, Elvas","Artigo 24.º, n.º 1, alínea c) do Código dos Contratos Públicos","","",,,,Não aplicável.,Não aplicável.,FALSE
51005518 - Medicamentos SPMS,Ajuste Direto Regime Geral,Aquisição de bens móveis,"33000000-0, Equipamento médico, medicamentos e produtos para cuidados pessoais","Unidade Local de Saúde do Norte Alentejano, E. P. E. (508094461)",GLAXOSMITHKLINE (500139962),"141,37 €",27-06-2018,24-01-2018,1 dias,"Portugal, Portalegre, Elvas","Artigo 24.º, n.º 1, alínea c) do Código dos Contratos Públicos","","",,,,Não aplicável.,Não aplicável.,FALSE
51005518 - Medicamentos SPMS,Ajuste Direto Regime Geral,Aquisição de bens móveis,"33000000-0, Equipamento médico, medicamentos e produtos para cuidados pessoais","Unidade Local de Saúde do Norte Alentejano, E. P. E. (508094461)","FERRAZ LYNCE, SA (500113270)","265,00 €",27-06-2018,24-01-2018,1 dias,"Portugal, Portalegre, Elvas","Artigo 24.º, n.º 1, alínea c) do Código dos Contratos Públicos","","",,,,Não aplicável.,Não aplicável.,FALSE
51005518 - Medicamentos SPMS,Ajuste Direto Regime Geral,Aquisição de bens móveis,"33000000-0, Equipamento médico, medicamentos e produtos para cuidados pessoais","Unidade Local de Saúde do Norte Alentejano, E. P. E. (508094461)","ACCORD HEALTHCARE, UNIPESSOAL, LDA (508622263)","263,10 €",27-06-2018,24-01-2018,1 dias,"Portugal, Portalegre, Elvas","Artigo 24.º, n.º 1, alínea c) do Código dos Contratos Públicos","","",,,,Não aplicável.,Não aplicável.,FALSE
51005518 - Medicamentos SPMS,Ajuste Direto Regime Geral,Aquisição de bens móveis,"33000000-0, Equipamento médico, medicamentos e produtos para cuidados pessoais","Unidade Local de Saúde do Norte Alentejano, E. P. E. (508094461)",FERRER PORTUGAL S.A. (500069190),"19,03 €",27-06-2018,24-01-2018,1 dias,"Portugal, Portalegre, Elvas","Artigo 24.º, n.º 1, alínea c) do Código dos Contratos Públicos","","",,,,Não aplicável.,Não aplicável.,FALSE
51005518 - Medicamentos SPMS,Ajuste Direto Regime Geral,Aquisição de bens móveis,"33000000-0, Equipamento médico, medicamentos e produtos para cuidados pessoais","Unidade Local de Saúde do Norte Alentejano, E. P. E. (508094461)",Clinifar (503281115),"126,00 €",27-06-2018,24-01-2018,1 dias,"Portugal, Portalegre, Elvas","Artigo 24.º, n.º 1, alínea c) do Código dos Contratos Públicos","","",,,,Não aplicável.,Não aplicável.,FALSE
51005518 - Medicamentos SPMS,Ajuste Direto Regime Geral,Aquisição de bens móveis,"33000000-0, Equipamento médico, medicamentos e produtos para cuidados pessoais","Unidade Local de Saúde do Norte Alentejano, E. P. E. (508094461)","B BRAUN MEDICAL, LDA (501506543)","656,00 €",27-06-2018,24-01-2018,1 dias,"Portugal, Portalegre, Elvas","Artigo 24.º, n.º 1, alínea c) do Código dos Contratos Públicos","","",,,,Não aplicável.,Não aplicável.,FALSE
51005518 - Medicamentos SPMS,Ajuste Direto Regime Geral,Aquisição de bens móveis,"33000000-0, Equipamento médico, medicamentos e produtos para cuidados pessoais","Unidade Local de Saúde do Norte Alentejano, E. P. E. (508094461)","VYGON (PORTUGAL), LDA (503232785)","144,00 €",27-06-2018,24-01-2018,1 dias,"Portugal, Portalegre, Elvas","Artigo 24.º, n.º 1, alínea c) do Código dos Contratos Públicos","","",,,,Não aplicável.,Não aplicável.,FALSE
51005518 - Medicamentos SPMS,Ajuste Direto Regime Geral,Aquisição de bens móveis,"33000000-0, Equipamento médico, medicamentos e produtos para cuidados pessoais","Unidade Local de Saúde do Norte Alentejano, E. P. E. (508094461)","TEVA PHARMA - PRODUTOS FARMACÊUTICOS, LDA (507045491)","29,12 €",27-06-2018,24-01-2018,1 dias,"Portugal, Portalegre, Elvas","Artigo 24.º, n.º 1, alínea c) do Código dos Contratos Públicos","","",,,,Não aplicável.,Não aplicável.,FALSE
51005518 - Medicamentos SPMS,Ajuste Direto Regime Geral,Aquisição de bens móveis,"33000000-0, Equipamento médico, medicamentos e produtos para cuidados pessoais","Unidade Local de Saúde do Norte Alentejano, E. P. E. (508094461)","SANOFI - PROD. FARMACÊUTICOS, LDA. (500134960)","900,50 €",27-06-2018,24-01-2018,1 dias,"Portugal, Portalegre, Elvas","Artigo 24.º, n.º 1, alínea c) do Código dos Contratos Públicos","","",,,,Não aplicável.,Não aplicável.,FALSE
51005518 - Medicamentos SPMS,Ajuste Direto Regime Geral,Aquisição de bens móveis,"33000000-0, Equipamento médico, medicamentos e produtos para cuidados pessoais","Unidade Local de Saúde do Norte Alentejano, E. P. E. (508094461)","B BRAUN MEDICAL, LDA (501506543)","158,40 €",27-06-2018,24-01-2018,1 dias,"Portugal, Portalegre, Elvas","Artigo 24.º, n.º 1, alínea c) do Código dos Contratos Públicos","","",,,,Não aplicável.,Não aplicável.,FALSE
51005518 - Medicamentos SPMS,Ajuste Direto Regime Geral,Aquisição de bens móveis,"33000000-0, Equipamento médico, medicamentos e produtos para cuidados pessoais","Unidade Local de Saúde do Norte Alentejano, E. P. E. (508094461)","RATIOPHARM, LDA (502414910)","104,26 €",26-06-2018,24-01-2018,1 dias,"Portugal, Portalegre, Elvas","Artigo 24.º, n.º 1, alínea c) do Código dos Contratos Públicos","","",,,,Não aplicável.,Não aplicável.,FALSE
51005518 - Medicamentos SPMS,Ajuste Direto Regime Geral,Aquisição de bens móveis,"33000000-0, Equipamento médico, medicamentos e produtos para cuidados pessoais","Unidade Local de Saúde do Norte Alentejano, E. P. E. (508094461)","PROCLINICA EQUIPAMENTOS E PRODUTOS  CLINICOS, LDA (500222665)","312,48 €",26-06-2018,24-01-2018,1 dias,"Portugal, Portalegre, Elvas","Artigo 24.º, n.º 1, alínea c) do Código dos Contratos Públicos","","",,,,Não aplicável.,Não aplicável.,FALSE
51005518 - Medicamentos SPMS,Ajuste Direto Regime Geral,Aquisição de bens móveis,"33000000-0, Equipamento médico, medicamentos e produtos para cuidados pessoais","Unidade Local de Saúde do Norte Alentejano, E. P. E. (508094461)","OVERPHARMA-PRODUTOS MÉDICOS E FARMACÉUTICOS,LDA (505792362)","41,70 €",26-06-2018,24-01-2018,1 dias,"Portugal, Portalegre, Elvas","Artigo 24.º, n.º 1, alínea c) do Código dos Contratos Públicos","","",,,,Não aplicável.,Não aplicável.,FALSE
51005518 - Medicamentos SPMS,Ajuste Direto Regime Geral,Aquisição de bens móveis,"33000000-0, Equipamento médico, medicamentos e produtos para cuidados pessoais","Unidade Local de Saúde do Norte Alentejano, E. P. E. (508094461)",MYLAN (502248793),"56,50 €",26-06-2018,24-01-2018,1 dias,"Portugal, Portalegre, Elvas","Artigo 24.º, n.º 1, alínea c) do Código dos Contratos Públicos","","",,,,Não aplicável.,Não aplicável.,FALSE
51005518 - Medicamentos SPMS,Ajuste Direto Regime Geral,Aquisição de bens móveis,"33000000-0, Equipamento médico, medicamentos e produtos para cuidados pessoais","Unidade Local de Saúde do Norte Alentejano, E. P. E. (508094461)","MERCK SHARP & DOHME, LDA (500191360)","31,63 €",26-06-2018,24-01-2018,1 dias,"Portugal, Portalegre, Elvas","Artigo 24.º, n.º 1, alínea c) do Código dos Contratos Públicos","","",,,,Não aplicável.,Não aplicável.,FALSE
51005518 - Medicamentos SPMS,Ajuste Direto Regime Geral,Aquisição de bens móveis,"33000000-0, Equipamento médico, medicamentos e produtos para cuidados pessoais","Unidade Local de Saúde do Norte Alentejano, E. P. E. (508094461)",LABESFAL (501169580),"1.990,99 €",26-06-2018,24-01-2018,1 dias,"Portugal, Portalegre, Elvas","Artigo 24.º, n.º 1, alínea c) do Código dos Contratos Públicos","","",,,,Não aplicável.,Não aplicável.,FALSE
51005518 - Medicamentos SPMS,Ajuste Direto Regime Geral,Aquisição de bens móveis,"33000000-0, Equipamento médico, medicamentos e produtos para cuidados pessoais","Unidade Local de Saúde do Norte Alentejano, E. P. E. (508094461)","LABORATORIOS PFIZER, LDA (500162166)","12,12 €",26-06-2018,24-01-2018,1 dias,"Portugal, Portalegre, Elvas","Artigo 24.º, n.º 1, alínea c) do Código dos Contratos Públicos","","",,,,Não aplicável.,Não aplicável.,FALSE
51005518 - Medicamentos SPMS,Ajuste Direto Regime Geral,Aquisição de bens móveis,"33000000-0, Equipamento médico, medicamentos e produtos para cuidados pessoais","Unidade Local de Saúde do Norte Alentejano, E. P. E. (508094461)","KVTECH PORTUGAL - PROD. MEDICOS UNIPESSOAL, LDA (508671531)","324,00 €",26-06-2018,24-01-2018,1 dias,"Portugal, Portalegre, Elvas","Artigo 24.º, n.º 1, alínea c) do Código dos Contratos Públicos","","",,,,Não aplicável.,Não aplicável.,FALSE
51005518 - Medicamentos SPMS,Ajuste Direto Regime Geral,Aquisição de bens móveis,"33000000-0, Equipamento médico, medicamentos e produtos para cuidados pessoais","Unidade Local de Saúde do Norte Alentejano, E. P. E. (508094461)",HIKMA (502266791),"110,00 €",26-06-2018,24-01-2018,1 dias,"Portugal, Portalegre, Elvas","Artigo 24.º, n.º 1, alínea c) do Código dos Contratos Públicos","","",,,,Não aplicável.,Não aplicável.,FALSE
51005518 - Medicamentos SPMS,Ajuste Direto Regime Geral,Aquisição de bens móveis,"33000000-0, Equipamento médico, medicamentos e produtos para cuidados pessoais","Unidade Local de Saúde do Norte Alentejano, E. P. E. (508094461)","Generis, S.A. (508107997)","31,92 €",26-06-2018,24-01-2018,1 dias,"Portugal, Portalegre, Elvas","Artigo 24.º, n.º 1, alínea c) do Código dos Contratos Públicos","","",,,,Não aplicável.,Não aplicável.,FALSE
51005518 - Medicamentos SPMS,Ajuste Direto Regime Geral,Aquisição de bens móveis,"33000000-0, Equipamento médico, medicamentos e produtos para cuidados pessoais","Unidade Local de Saúde do Norte Alentejano, E. P. E. (508094461)","ASTELLAS FARMA , LDA (502540249)","3.254,90 €",26-06-2018,24-01-2018,1 dias,"Portugal, Portalegre, Elvas","Artigo 24.º, n.º 1, alínea c) do Código dos Contratos Públicos","","",,,,Não aplicável.,Não aplicável.,FALSE
Aquisição de Guia de Biopsia de Próstata (Descartável),Ajuste Direto Regime Geral,Aquisição de bens móveis,"33140000-3, Material médico de consumo","Unidade Local de Saúde do Norte Alentejano, E. P. E. (508094461)","SPECULUM-ARTIGOS MEDICOS, SA (502996323)","1.952,64 €",26-06-2018,14-06-2018,180 dias,"Portugal, Portalegre, Portalegre","Artigo 20.º, n.º 1, alínea d) do Código dos Contratos Públicos","","",,,,Não aplicável.,Não aplicável.,FALSE
"51020118-P259-2018-63-AQUISIÇÃO DE MEDICAMENTOS DESENCADEADA PELA SPMS,EPE NO ÂMBITO DO DESPACHO 1571/b 2016 - T1238.",Ao abrigo de acordo-quadro (art.º 259.º),Aquisição de bens móveis,"33000000-0, Equipamento médico, medicamentos e produtos para cuidados pessoais","Unidade Local de Saúde do Norte Alentejano, E. P. E. (508094461)","ROCHE FARMACEUTICA QUIMICA, LDA (500233810)","81.572,40 €",26-06-2018,26-06-2018,365 dias,"Portugal, Portalegre, Elvas",Artigo 259.º do Código dos Contratos Públicos,"","",,,,1771819,CP 2015/6 - Acordo quadro para o fornecimento de Medicamentos do Foro Oncológico,FALSE
"Fornecimento de próteses testiculares, para ULSNA, EPE",Ajuste Direto Regime Geral,Aquisição de bens móveis,"33140000-3, Material médico de consumo","Unidade Local de Saúde do Norte Alentejano, E. P. E. (508094461)","LINEAMEDICA, SA (505148676)","2.388,00 €",26-06-2018,07-06-2018,180 dias,"Portugal, Portalegre, Portalegre","Artigo 20.º, n.º 1, alínea d) do Código dos Contratos Públicos","","",,,,Não aplicável.,Não aplicável.,FALSE
51005418 - Medicamentos SPMS,Ajuste Direto Regime Geral,Aquisição de bens móveis,"33000000-0, Equipamento médico, medicamentos e produtos para cuidados pessoais","Unidade Local de Saúde do Norte Alentejano, E. P. E. (508094461)",LABESFAL (501169580),"232,45 €",26-06-2018,23-01-2018,1 dias,"Portugal, Portalegre, Elvas","Artigo 24.º, n.º 1, alínea c) do Código dos Contratos Públicos","","",,,,Não aplicável.,Não aplicável.,FALSE
51005418 - Medicamentos SPMS,Ajuste Direto Regime Geral,Aquisição de bens móveis,"33000000-0, Equipamento médico, medicamentos e produtos para cuidados pessoais","Unidade Local de Saúde do Norte Alentejano, E. P. E. (508094461)",HIKMA (502266791),"380,00 €",26-06-2018,23-01-2018,1 dias,"Portugal, Portalegre, Elvas","Artigo 24.º, n.º 1, alínea c) do Código dos Contratos Públicos","","",,,,Não aplicável.,Não aplicável.,FALSE
51005418 - Medicamentos SPMS,Ajuste Direto Regime Geral,Aquisição de bens móveis,"33000000-0, Equipamento médico, medicamentos e produtos para cuidados pessoais","Unidade Local de Saúde do Norte Alentejano, E. P. E. (508094461)",GENERIS (508107997),"940,50 €",26-06-2018,23-01-2018,1 dias,"Portugal, Portalegre, Elvas","Artigo 24.º, n.º 1, alínea c) do Código dos Contratos Públicos","","",,,,Não aplicável.,Não aplicável.,FALSE
51005418 - Medicamentos SPMS,Ajuste Direto Regime Geral,Aquisição de bens móveis,"33000000-0, Equipamento médico, medicamentos e produtos para cuidados pessoais","Unidade Local de Saúde do Norte Alentejano, E. P. E. (508094461)","GRIFOLS PORTUGAL - PROD. FARMAC. E HOSP., LDA. (502041285)","400,24 €",26-06-2018,23-01-2018,1 dias,"Portugal, Portalegre, Elvas","Artigo 24.º, n.º 1, alínea c) do Código dos Contratos Públicos","","",,,,Não aplicável.,Não aplicável.,FALSE
51005418 - Medicamentos SPMS,Ajuste Direto Regime Geral,Aquisição de bens móveis,"33000000-0, Equipamento médico, medicamentos e produtos para cuidados pessoais","Unidade Local de Saúde do Norte Alentejano, E. P. E. (508094461)",GLAXOSMITHKLINE (500139962),"59,00 €",26-06-2018,23-01-2018,1 dias,"Portugal, Portalegre, Elvas","Artigo 24.º, n.º 1, alínea c) do Código dos Contratos Públicos","","",,,,Não aplicável.,Não aplicável.,FALSE
51005418 - Medicamentos SPMS,Ajuste Direto Regime Geral,Aquisição de bens móveis,"33000000-0, Equipamento médico, medicamentos e produtos para cuidados pessoais","Unidade Local de Saúde do Norte Alentejano, E. P. E. (508094461)","ACCORD HEALTHCARE, UNIPESSOAL, LDA (508622263)","85,80 €",26-06-2018,23-01-2018,1 dias,"Portugal, Portalegre, Elvas","Artigo 24.º, n.º 1, alínea c) do Código dos Contratos Públicos","","",,,,Não aplicável.,Não aplicável.,FALSE
51005418 - Medicamentos SPMS,Ajuste Direto Regime Geral,Aquisição de bens móveis,"33000000-0, Equipamento médico, medicamentos e produtos para cuidados pessoais","Unidade Local de Saúde do Norte Alentejano, E. P. E. (508094461)","CLINIFAR - PROD. CLINICOS E FARMACEUTICOS, S.A. (503281115)","45,40 €",26-06-2018,23-01-2018,1 dias,"Portugal, Portalegre, Elvas","Artigo 24.º, n.º 1, alínea c) do Código dos Contratos Públicos","","",,,,Não aplicável.,Não aplicável.,FALSE
51005418 - Medicamentos SPMS,Ajuste Direto Regime Geral,Aquisição de bens móveis,"33000000-0, Equipamento médico, medicamentos e produtos para cuidados pessoais","Unidade Local de Saúde do Norte Alentejano, E. P. E. (508094461)","Bastos e Viegas, SA (500042772)","76,32 €",26-06-2018,23-01-2018,1 dias,"Portugal, Portalegre, Elvas","Artigo 24.º, n.º 1, alínea c) do Código dos Contratos Públicos","","",,,,Não aplicável.,Não aplicável.,FALSE
51005418 - Medicamentos SPMS,Ajuste Direto Regime Geral,Aquisição de bens móveis,"33000000-0, Equipamento médico, medicamentos e produtos para cuidados pessoais","Unidade Local de Saúde do Norte Alentejano, E. P. E. (508094461)","PROCLINICA EQUIPAMENTOS E PRODUTOS  CLINICOS, LDA (500222665)","58,80 €",26-06-2018,23-01-2018,1 dias,"Portugal, Portalegre, Elvas","Artigo 24.º, n.º 1, alínea c) do Código dos Contratos Públicos","","",,,,Não aplicável.,Não aplicável.,FALSE
"Aquisição de Material Descartável de Oncologia, para a ULSNA, EPE, para 2018",Concurso público,Aquisição de bens móveis,"33140000-3, Material médico de consumo","Unidade Local de Saúde do N. Alentejano,EPE(ULSNA) (508094461)","B BRAUN MEDICAL, LDA (501506543)","10.536,50 €",26-06-2018,05-06-2018,243 dias,"Portugal, Portalegre","Artigo 20.º, n.º 1, alínea b) do Código dos Contratos Públicos","","",,,,Não aplicável.,Não aplicável.,FALSE
51005418 - Medicamentos SPMS,Ajuste Direto Regime Geral,Aquisição de bens móveis,"33000000-0, Equipamento médico, medicamentos e produtos para cuidados pessoais","Unidade Local de Saúde do Norte Alentejano, E. P. E. (508094461)","OVERPHARMA-PRODUTOS MÉDICOS E FARMACÉUTICOS,LDA (505792362)","93,00 €",22-06-2018,23-01-2018,1 dias,"Portugal, Portalegre, Elvas","Artigo 24.º, n.º 1, alínea c) do Código dos Contratos Públicos","","",,,,Não aplicável.,Não aplicável.,FALSE
51005418 - Medicamentos SPMS,Ajuste Direto Regime Geral,Aquisição de bens móveis,"33000000-0, Equipamento médico, medicamentos e produtos para cuidados pessoais","Unidade Local de Saúde do Norte Alentejano, E. P. E. (508094461)","OVERPHARMA-PRODUTOS MÉDICOS E FARMACÉUTICOS,LDA (505792362)","621,28 €",22-06-2018,23-01-2018,1 dias,"Portugal, Portalegre, Elvas","Artigo 24.º, n.º 1, alínea c) do Código dos Contratos Públicos","","",,,,Não aplicável.,Não aplicável.,FALSE
51005418 - Medicamentos SPMS,Ajuste Direto Regime Geral,Aquisição de bens móveis,"33000000-0, Equipamento médico, medicamentos e produtos para cuidados pessoais","Unidade Local de Saúde do Norte Alentejano, E. P. E. (508094461)","LABORATÓRIOS URGO, SLU (B83608604)","70,80 €",22-06-2018,23-01-2018,1 dias,"Portugal, Portalegre, Elvas","Artigo 24.º, n.º 1, alínea c) do Código dos Contratos Públicos","","",,,,Não aplicável.,Não aplicável.,FALSE
51005418 - Medicamentos SPMS,Ajuste Direto Regime Geral,Aquisição de bens móveis,"33000000-0, Equipamento médico, medicamentos e produtos para cuidados pessoais","Unidade Local de Saúde do Norte Alentejano, E. P. E. (508094461)","ASTELLAS FARMA, LDA. (YAMANOUCHI) (502540249)","941,26 €",22-06-2018,23-01-2018,1 dias,"Portugal, Portalegre, Elvas","Artigo 24.º, n.º 1, alínea c) do Código dos Contratos Públicos","","",,,,Não aplicável.,Não aplicável.,FALSE
51005218 - Medicamentos SPMS,Ajuste Direto Regime Geral,Aquisição de bens móveis,"33000000-0, Equipamento médico, medicamentos e produtos para cuidados pessoais","Unidade Local de Saúde do Norte Alentejano, E. P. E. (508094461)",OM PHARMA S.A. (500207410),"1.735,92 €",22-06-2018,22-01-2018,1 dias,"Portugal, Portalegre, Elvas","Artigo 24.º, n.º 1, alínea c) do Código dos Contratos Públicos","","",,,,Não aplicável.,Não aplicável.,FALSE
51005218 - Medicamentos SPMS,Ajuste Direto Regime Geral,Aquisição de bens móveis,"33000000-0, Equipamento médico, medicamentos e produtos para cuidados pessoais","Unidade Local de Saúde do Norte Alentejano, E. P. E. (508094461)",MYLAN (502248793),"197,85 €",22-06-2018,22-01-2018,1 dias,"Portugal, Portalegre, Elvas","Artigo 24.º, n.º 1, alínea c) do Código dos Contratos Públicos","","",,,,Não aplicável.,Não aplicável.,FALSE
51005218 - Medicamentos SPMS,Ajuste Direto Regime Geral,Aquisição de bens móveis,"33000000-0, Equipamento médico, medicamentos e produtos para cuidados pessoais","Unidade Local de Saúde do Norte Alentejano, E. P. E. (508094461)",LABESFAL (501169580),"166,50 €",22-06-2018,22-01-2018,1 dias,"Portugal, Portalegre, Elvas","Artigo 24.º, n.º 1, alínea c) do Código dos Contratos Públicos","","",,,,Não aplicável.,Não aplicável.,FALSE
51005218 - Medicamentos SPMS,Ajuste Direto Regime Geral,Aquisição de bens móveis,"33000000-0, Equipamento médico, medicamentos e produtos para cuidados pessoais","Unidade Local de Saúde do Norte Alentejano, E. P. E. (508094461)",LILLY FARMA (500165602),"1.759,10 €",22-06-2018,22-01-2018,1 dias,"Portugal, Portalegre, Elvas","Artigo 24.º, n.º 1, alínea c) do Código dos Contratos Públicos","","",,,,Não aplicável.,Não aplicável.,FALSE
51005218 - Medicamentos SPMS,Ajuste Direto Regime Geral,Aquisição de bens móveis,"33000000-0, Equipamento médico, medicamentos e produtos para cuidados pessoais","Unidade Local de Saúde do Norte Alentejano, E. P. E. (508094461)",GENERIS - FARMACEUTICA SA (508107997),"324,00 €",22-06-2018,22-01-2018,1 dias,"Portugal, Portalegre, Elvas","Artigo 24.º, n.º 1, alínea c) do Código dos Contratos Públicos","","",,,,Não aplicável.,Não aplicável.,FALSE
51005218 - Medicamentos SPMS,Ajuste Direto Regime Geral,Aquisição de bens móveis,"33000000-0, Equipamento médico, medicamentos e produtos para cuidados pessoais","Unidade Local de Saúde do Norte Alentejano, E. P. E. (508094461)","GRIFOLS PORTUGAL - PROD. FARMAC. E HOSP., LDA. (502041285)","62,75 €",22-06-2018,22-01-2018,1 dias,"Portugal, Portalegre, Elvas","Artigo 24.º, n.º 1, alínea c) do Código dos Contratos Públicos","","",,,,Não aplicável.,Não aplicável.,FALSE
51005218 - Medicamentos SPMS,Ajuste Direto Regime Geral,Aquisição de bens móveis,"33000000-0, Equipamento médico, medicamentos e produtos para cuidados pessoais","Unidade Local de Saúde do Norte Alentejano, E. P. E. (508094461)","B BRAUN MEDICAL, LDA (501506543)","79,00 €",22-06-2018,22-01-2018,1 dias,"Portugal, Portalegre, Elvas","Artigo 24.º, n.º 1, alínea c) do Código dos Contratos Públicos","","",,,,Não aplicável.,Não aplicável.,FALSE
51005218 - Medicamentos SPMS,Ajuste Direto Regime Geral,Aquisição de bens móveis,"33000000-0, Equipamento médico, medicamentos e produtos para cuidados pessoais","Unidade Local de Saúde do Norte Alentejano, E. P. E. (508094461)","ASTRA ZENECA - PROD.FARMACEUTICOS, LDA. (502942240)","604,56 €",22-06-2018,22-01-2018,1 dias,"Portugal, Portalegre, Elvas","Artigo 24.º, n.º 1, alínea c) do Código dos Contratos Públicos","","",,,,Não aplicável.,Não aplicável.,FALSE
51005018 - Medicamentos SPMS,Ajuste Direto Regime Geral,Aquisição de bens móveis,"33000000-0, Equipamento médico, medicamentos e produtos para cuidados pessoais","Unidade Local de Saúde do Norte Alentejano, E. P. E. (508094461)","RATIOPHARM, LDA (502414910)","79,50 €",22-06-2018,19-01-2018,1 dias,"Portugal, Portalegre, Elvas","Artigo 24.º, n.º 1, alínea c) do Código dos Contratos Públicos","","",,,,Não aplicável.,Não aplicável.,FALSE
51005018 - Medicamentos SPMS,Ajuste Direto Regime Geral,Aquisição de bens móveis,"33000000-0, Equipamento médico, medicamentos e produtos para cuidados pessoais","Unidade Local de Saúde do Norte Alentejano, E. P. E. (508094461)","MERCK SHARP E DOHME, LDA (500191360)","3.377,28 €",22-06-2018,19-01-2018,1 dias,"Portugal, Portalegre, Elvas","Artigo 24.º, n.º 1, alínea c) do Código dos Contratos Públicos","","",,,,Não aplicável.,Não aplicável.,FALSE
51005018 - Medicamentos SPMS,Ajuste Direto Regime Geral,Aquisição de bens móveis,"33000000-0, Equipamento médico, medicamentos e produtos para cuidados pessoais","Unidade Local de Saúde do Norte Alentejano, E. P. E. (508094461)","GENERIS-FARMACEUTICA,SA (508107997)","72,00 €",22-06-2018,19-01-2018,1 dias,"Portugal, Portalegre, Elvas","Artigo 24.º, n.º 1, alínea c) do Código dos Contratos Públicos","","",,,,Não aplicável.,Não aplicável.,FALSE
51005018 - Medicamentos SPMS,Ajuste Direto Regime Geral,Aquisição de bens móveis,"33000000-0, Equipamento médico, medicamentos e produtos para cuidados pessoais","Unidade Local de Saúde do Norte Alentejano, E. P. E. (508094461)","FRESENIUS KABI PHARMA PORTUGAL, LDA (504293753)","87,19 €",22-06-2018,19-01-2018,1 dias,"Portugal, Portalegre, Elvas","Artigo 24.º, n.º 1, alínea c) do Código dos Contratos Públicos","","",,,,Não aplicável.,Não aplicável.,FALSE
51005318 - Med. (Regularização),Ajuste Direto Regime Geral,Aquisição de bens móveis,"33000000-0, Equipamento médico, medicamentos e produtos para cuidados pessoais","Unidade Local de Saúde do Norte Alentejano, E. P. E. (508094461)","FRESENIUS KABI PHARMA PORTUGAL, LDA (504293753)","75,56 €",22-06-2018,12-01-2018,1 dias,"Portugal, Portalegre, Elvas","Artigo 24.º, n.º 1, alínea c) do Código dos Contratos Públicos","","",,,,Não aplicável.,Não aplicável.,FALSE
51005818 - Medicamentos SPMS,Ajuste Direto Regime Geral,Aquisição de bens móveis,"33000000-0, Equipamento médico, medicamentos e produtos para cuidados pessoais","Unidade Local de Saúde do Norte Alentejano, E. P. E. (508094461)","MEDICINALIA CORMEDICA - COMER. PROD. MED. HOSP.,LD (500684324)","2.125,00 €",22-06-2018,29-01-2018,1 dias,"Portugal, Portalegre, Elvas","Artigo 24.º, n.º 1, alínea c) do Código dos Contratos Públicos","","",,,,Não aplicável.,Não aplicável.,FALSE
51005818 - Medicamentos SPMS,Ajuste Direto Regime Geral,Aquisição de bens móveis,"33000000-0, Equipamento médico, medicamentos e produtos para cuidados pessoais","Unidade Local de Saúde do Norte Alentejano, E. P. E. (508094461)","GENERIS-FARMACEUTICA,SA (508107997)","110,06 €",22-06-2018,29-01-2018,1 dias,"Portugal, Portalegre, Elvas","Artigo 24.º, n.º 1, alínea c) do Código dos Contratos Públicos","","",,,,Não aplicável.,Não aplicável.,FALSE
51005818 - Medicamentos SPMS,Ajuste Direto Regime Geral,Aquisição de bens móveis,"33000000-0, Equipamento médico, medicamentos e produtos para cuidados pessoais","Unidade Local de Saúde do Norte Alentejano, E. P. E. (508094461)","B BRAUN MEDICAL, LDA (501506543)","495,00 €",22-06-2018,29-01-2018,1 dias,"Portugal, Portalegre, Elvas","Artigo 24.º, n.º 1, alínea c) do Código dos Contratos Públicos","","",,,,Não aplicável.,Não aplicável.,FALSE
51005818 - Medicamentos SPMS,Ajuste Direto Regime Geral,Aquisição de bens móveis,"33000000-0, Equipamento médico, medicamentos e produtos para cuidados pessoais","Unidade Local de Saúde do Norte Alentejano, E. P. E. (508094461)","ASTRA ZENECA - PROD.FARMACEUTICOS, LDA. (502942240)","59,60 €",22-06-2018,29-01-2018,1 dias,"Portugal, Portalegre, Elvas","Artigo 24.º, n.º 1, alínea c) do Código dos Contratos Públicos","","",,,,Não aplicável.,Não aplicável.,FALSE
51004718 - Medicamentos SPMS,Ajuste Direto Regime Geral,Aquisição de bens móveis,"33000000-0, Equipamento médico, medicamentos e produtos para cuidados pessoais","Unidade Local de Saúde do Norte Alentejano, E. P. E. (508094461)",GLAXOSMITHKLINE (500139962),"124,10 €",22-06-2018,18-01-2018,1 dias,"Portugal, Portalegre, Elvas","Artigo 24.º, n.º 1, alínea c) do Código dos Contratos Públicos","","",,,,Não aplicável.,Não aplicável.,FALSE
51004718 - Medicamentos SPMS,Ajuste Direto Regime Geral,Aquisição de bens móveis,"33000000-0, Equipamento médico, medicamentos e produtos para cuidados pessoais","Unidade Local de Saúde do Norte Alentejano, E. P. E. (508094461)","FRESENIUS KABI PHARMA PORTUGAL, LDA (504293753)","1.005,30 €",22-06-2018,18-01-2018,1 dias,"Portugal, Portalegre, Elvas","Artigo 24.º, n.º 1, alínea c) do Código dos Contratos Públicos","","",,,,Não aplicável.,Não aplicável.,FALSE
51004718 - Medicamentos SPMS,Ajuste Direto Regime Geral,Aquisição de bens móveis,"33000000-0, Equipamento médico, medicamentos e produtos para cuidados pessoais","Unidade Local de Saúde do Norte Alentejano, E. P. E. (508094461)","DIMOR LUSITANA, LDA (500730741)","102,00 €",22-06-2018,18-01-2018,1 dias,"Portugal, Portalegre, Elvas","Artigo 24.º, n.º 1, alínea c) do Código dos Contratos Públicos","","",,,,Não aplicável.,Não aplicável.,FALSE
51004718 - Medicamentos SPMS,Ajuste Direto Regime Geral,Aquisição de bens móveis,"33000000-0, Equipamento médico, medicamentos e produtos para cuidados pessoais","Unidade Local de Saúde do Norte Alentejano, E. P. E. (508094461)",BRISTOL MYERS SQUIBB-FARM. POR (500048193),"260,00 €",22-06-2018,18-01-2018,1 dias,"Portugal, Portalegre, Elvas","Artigo 24.º, n.º 1, alínea c) do Código dos Contratos Públicos","","",,,,Não aplicável.,Não aplicável.,FALSE
51004718 - Medicamentos SPMS,Ajuste Direto Regime Geral,Aquisição de bens móveis,"33000000-0, Equipamento médico, medicamentos e produtos para cuidados pessoais","Unidade Local de Saúde do Norte Alentejano, E. P. E. (508094461)","BAYER PORTUGAL, LDA (500043256)","2.879,20 €",22-06-2018,18-01-2018,1 dias,"Portugal, Portalegre, Elvas","Artigo 24.º, n.º 1, alínea c) do Código dos Contratos Públicos","","",,,,Não aplicável.,Não aplicável.,FALSE
51004718 - Medicamentos SPMS,Ajuste Direto Regime Geral,Aquisição de bens móveis,"33000000-0, Equipamento médico, medicamentos e produtos para cuidados pessoais","Unidade Local de Saúde do Norte Alentejano, E. P. E. (508094461)","B BRAUN MEDICAL, LDA (501506543)","1.805,24 €",22-06-2018,18-01-2018,1 dias,"Portugal, Portalegre, Elvas","Artigo 24.º, n.º 1, alínea c) do Código dos Contratos Públicos","","",,,,Não aplicável.,Não aplicável.,FALSE
51004718 - Medicamentos SPMS,Ajuste Direto Regime Geral,Aquisição de bens móveis,"33000000-0, Equipamento médico, medicamentos e produtos para cuidados pessoais","Unidade Local de Saúde do Norte Alentejano, E. P. E. (508094461)","ABBVIE, LDA (510229050)","776,04 €",22-06-2018,18-01-2018,1 dias,"Portugal, Portalegre, Elvas","Artigo 24.º, n.º 1, alínea c) do Código dos Contratos Públicos","","",,,,Não aplicável.,Não aplicável.,FALSE
51004718 - Medicamentos SPMS,Ajuste Direto Regime Geral,Aquisição de bens móveis,"33000000-0, Equipamento médico, medicamentos e produtos para cuidados pessoais","Unidade Local de Saúde do Norte Alentejano, E. P. E. (508094461)","VYGON (PORTUGAL), LDA (503232785)","427,50 €",22-06-2018,18-01-2018,1 dias,"Portugal, Portalegre, Elvas","Artigo 24.º, n.º 1, alínea c) do Código dos Contratos Públicos","","",,,,Não aplicável.,Não aplicável.,FALSE
51004718 - Medicamentos SPMS,Ajuste Direto Regime Geral,Aquisição de bens móveis,"33000000-0, Equipamento médico, medicamentos e produtos para cuidados pessoais","Unidade Local de Saúde do Norte Alentejano, E. P. E. (508094461)","Sandoz Farmacêutica , Lda (506985261)","52,92 €",22-06-2018,18-01-2018,1 dias,"Portugal, Portalegre, Elvas","Artigo 24.º, n.º 1, alínea c) do Código dos Contratos Públicos","","",,,,Não aplicável.,Não aplicável.,FALSE
51004718 - Medicamentos SPMS,Ajuste Direto Regime Geral,Aquisição de bens móveis,"33000000-0, Equipamento médico, medicamentos e produtos para cuidados pessoais","Unidade Local de Saúde do Norte Alentejano, E. P. E. (508094461)",SANOFI (500134960),"5.144,94 €",22-06-2018,18-01-2018,1 dias,"Portugal, Portalegre, Elvas","Artigo 24.º, n.º 1, alínea c) do Código dos Contratos Públicos","","",,,,Não aplicável.,Não aplicável.,FALSE
51004718 - Medicamentos SPMS,Ajuste Direto Regime Geral,Aquisição de bens móveis,"33000000-0, Equipamento médico, medicamentos e produtos para cuidados pessoais","Unidade Local de Saúde do Norte Alentejano, E. P. E. (508094461)","RATIOPHARM, LDA (502414910)","25,00 €",22-06-2018,18-01-2018,1 dias,"Portugal, Portalegre, Elvas","Artigo 24.º, n.º 1, alínea c) do Código dos Contratos Públicos","","",,,,Não aplicável.,Não aplicável.,FALSE
51004718 - Medicamentos SPMS,Ajuste Direto Regime Geral,Aquisição de bens móveis,"33000000-0, Equipamento médico, medicamentos e produtos para cuidados pessoais","Unidade Local de Saúde do Norte Alentejano, E. P. E. (508094461)","AMGEN BIOFARMACEUTICA, LDA (502942959)","6.863,55 €",22-06-2018,18-01-2018,1 dias,"Portugal, Portalegre, Elvas","Artigo 24.º, n.º 1, alínea c) do Código dos Contratos Públicos","","",,,,Não aplicável.,Não aplicável.,FALSE
51004718 - Medicamentos SPMS,Ajuste Direto Regime Geral,Aquisição de bens móveis,"33000000-0, Equipamento médico, medicamentos e produtos para cuidados pessoais","Unidade Local de Saúde do Norte Alentejano, E. P. E. (508094461)",ROCHE FARMACEUTICA QUÍMICA (500233810),"2.769,08 €",22-06-2018,18-01-2018,1 dias,"Portugal, Portalegre, Elvas","Artigo 24.º, n.º 1, alínea c) do Código dos Contratos Públicos","","",,,,Não aplicável.,Não aplicável.,FALSE
51004718 - Medicamentos SPMS,Ajuste Direto Regime Geral,Aquisição de bens móveis,"33000000-0, Equipamento médico, medicamentos e produtos para cuidados pessoais","Unidade Local de Saúde do Norte Alentejano, E. P. E. (508094461)","OVERPHARMA-PRODUTOS MÉDICOS E FARMACÉUTICOS,LDA (505792362)","1.851,30 €",22-06-2018,18-01-2018,1 dias,"Portugal, Portalegre, Elvas","Artigo 24.º, n.º 1, alínea c) do Código dos Contratos Públicos","","",,,,Não aplicável.,Não aplicável.,FALSE
51004718 - Medicamentos SPMS,Ajuste Direto Regime Geral,Aquisição de bens móveis,"33000000-0, Equipamento médico, medicamentos e produtos para cuidados pessoais","Unidade Local de Saúde do Norte Alentejano, E. P. E. (508094461)",Laboratorios Normon SA (505654156),"595,00 €",22-06-2018,18-01-2018,1 dias,"Portugal, Portalegre, Elvas","Artigo 24.º, n.º 1, alínea c) do Código dos Contratos Públicos","","",,,,Não aplicável.,Não aplicável.,FALSE
51004718 - Medicamentos SPMS,Ajuste Direto Regime Geral,Aquisição de bens móveis,"33000000-0, Equipamento médico, medicamentos e produtos para cuidados pessoais","Unidade Local de Saúde do Norte Alentejano, E. P. E. (508094461)",LOGIFARMA-LOGÍSTICA FARMACÊUTICA S.A. (503934640),"79,90 €",22-06-2018,18-01-2018,1 dias,"Portugal, Portalegre, Elvas","Artigo 24.º, n.º 1, alínea c) do Código dos Contratos Públicos","","",,,,Não aplicável.,Não aplicável.,FALSE
51004718 - Medicamentos SPMS,Ajuste Direto Regime Geral,Aquisição de bens móveis,"33000000-0, Equipamento médico, medicamentos e produtos para cuidados pessoais","Unidade Local de Saúde do Norte Alentejano, E. P. E. (508094461)",L.EDOL (507072642),"126,40 €",22-06-2018,18-01-2018,1 dias,"Portugal, Portalegre, Elvas","Artigo 24.º, n.º 1, alínea c) do Código dos Contratos Públicos","","",,,,Não aplicável.,Não aplicável.,FALSE
51004718 - Medicamentos SPMS,Ajuste Direto Regime Geral,Aquisição de bens móveis,"33000000-0, Equipamento médico, medicamentos e produtos para cuidados pessoais","Unidade Local de Saúde do Norte Alentejano, E. P. E. (508094461)",LABESFAL (501169580),"931,32 €",22-06-2018,18-01-2018,1 dias,"Portugal, Portalegre, Elvas","Artigo 24.º, n.º 1, alínea c) do Código dos Contratos Públicos","","",,,,Não aplicável.,Não aplicável.,FALSE
51004718 - Medicamentos SPMS,Ajuste Direto Regime Geral,Aquisição de bens móveis,"33000000-0, Equipamento médico, medicamentos e produtos para cuidados pessoais","Unidade Local de Saúde do Norte Alentejano, E. P. E. (508094461)",LABORATÓRIOS PFIZER (500162166),"23,44 €",22-06-2018,18-01-2018,1 dias,"Portugal, Portalegre, Elvas","Artigo 24.º, n.º 1, alínea c) do Código dos Contratos Públicos","","",,,,Não aplicável.,Não aplicável.,FALSE
51004718 - Medicamentos SPMS,Ajuste Direto Regime Geral,Aquisição de bens móveis,"33000000-0, Equipamento médico, medicamentos e produtos para cuidados pessoais","Unidade Local de Saúde do Norte Alentejano, E. P. E. (508094461)",HIKMA (502266791),"165,80 €",22-06-2018,18-01-2018,1 dias,"Portugal, Portalegre, Elvas","Artigo 24.º, n.º 1, alínea c) do Código dos Contratos Públicos","","",,,,Não aplicável.,Não aplicável.,FALSE
51004718 - Medicamentos SPMS,Ajuste Direto Regime Geral,Aquisição de bens móveis,"33000000-0, Equipamento médico, medicamentos e produtos para cuidados pessoais","Unidade Local de Saúde do Norte Alentejano, E. P. E. (508094461)",GENERIS (508107997),"3.527,86 €",22-06-2018,18-01-2018,1 dias,"Portugal, Portalegre, Elvas","Artigo 24.º, n.º 1, alínea c) do Código dos Contratos Públicos","","",,,,Não aplicável.,Não aplicável.,FALSE
51004718 - Medicamentos SPMS,Ajuste Direto Regime Geral,Aquisição de bens móveis,"33000000-0, Equipamento médico, medicamentos e produtos para cuidados pessoais","Unidade Local de Saúde do Norte Alentejano, E. P. E. (508094461)","GRIFOLS PORTUGAL - PROD. FARMAC. E HOSP., LDA. (502041285)","2.640,80 €",22-06-2018,18-01-2018,1 dias,"Portugal, Portalegre, Elvas","Artigo 24.º, n.º 1, alínea c) do Código dos Contratos Públicos","","",,,,Não aplicável.,Não aplicável.,FALSE
51004718 - Medicamentos SPMS,Ajuste Direto Regime Geral,Aquisição de bens móveis,"33000000-0, Equipamento médico, medicamentos e produtos para cuidados pessoais","Unidade Local de Saúde do Norte Alentejano, E. P. E. (508094461)","ASTRA ZENECA - PROD.FARMACEUTICOS, LDA. (502942240)","29,80 €",22-06-2018,18-01-2018,1 dias,"Portugal, Portalegre, Elvas","Artigo 24.º, n.º 1, alínea c) do Código dos Contratos Públicos","","",,,,Não aplicável.,Não aplicável.,FALSE
"Aquisição de Protetores Auriculares para Termómetros Digitais Welch Allyn, para a ULSNA, EPE, para 2018",Concurso público,Aquisição de bens móveis,"33140000-3, Material médico de consumo","Unidade Local de Saúde do N. Alentejano,EPE(ULSNA) (508094461)","MEDICINALIA CORMEDICA - COMER. PROD. MED. HOSP.,LD (500684324)","7.000,00 €",22-06-2018,22-06-2018,213 dias,"Portugal, Portalegre","Artigo 20.º, n.º 1, alínea b) do Código dos Contratos Públicos","","",,,,Não aplicável.,Não aplicável.,FALSE
41005218 - Medicamentos,Ajuste Direto Regime Geral,Aquisição de bens móveis,"33000000-0, Equipamento médico, medicamentos e produtos para cuidados pessoais","Unidade Local de Saúde do Norte Alentejano, E. P. E. (508094461)",SERVIR (502177420),"68,52 €",22-06-2018,21-02-2018,1 dias,"Portugal, Portalegre, Elvas","Artigo 24.º, n.º 1, alínea c) do Código dos Contratos Públicos","","",,,,Não aplicável.,Não aplicável.,FALSE
41005218 - Medicamentos,Ajuste Direto Regime Geral,Aquisição de bens móveis,"33000000-0, Equipamento médico, medicamentos e produtos para cuidados pessoais","Unidade Local de Saúde do Norte Alentejano, E. P. E. (508094461)",PROSPA (500130248),"281,00 €",22-06-2018,21-02-2018,1 dias,"Portugal, Portalegre, Elvas","Artigo 24.º, n.º 1, alínea c) do Código dos Contratos Públicos","","",,,,Não aplicável.,Não aplicável.,FALSE
41005218 - Medicamentos,Ajuste Direto Regime Geral,Aquisição de bens móveis,"33000000-0, Equipamento médico, medicamentos e produtos para cuidados pessoais","Unidade Local de Saúde do Norte Alentejano, E. P. E. (508094461)",Farmácia Elvas (505542005),"32,31 €",22-06-2018,21-02-2018,1 dias,"Portugal, Portalegre, Elvas","Artigo 24.º, n.º 1, alínea c) do Código dos Contratos Públicos","","",,,,Não aplicável.,Não aplicável.,FALSE
41005218 - Medicamentos,Ajuste Direto Regime Geral,Aquisição de bens móveis,"33000000-0, Equipamento médico, medicamentos e produtos para cuidados pessoais","Unidade Local de Saúde do Norte Alentejano, E. P. E. (508094461)","DILOFAR - DISTRIBUIÇÃO TRANSPORTES LOGISTICA, LDA (500563004)","160,00 €",22-06-2018,21-02-2018,1 dias,"Portugal, Portalegre, Elvas","Artigo 24.º, n.º 1, alínea c) do Código dos Contratos Públicos","","",,,,Não aplicável.,Não aplicável.,FALSE
41005818 - Reagentes,Ajuste Direto Regime Geral,Aquisição de bens móveis,"33000000-0, Equipamento médico, medicamentos e produtos para cuidados pessoais","Unidade Local de Saúde do Norte Alentejano, E. P. E. (508094461)","NORMAX FABRICA VIDROS CIENTIFICOS, LDA (500203130)","130,50 €",21-06-2018,28-02-2018,1 dias,"Portugal, Portalegre, Elvas","Artigo 24.º, n.º 1, alínea c) do Código dos Contratos Públicos","","",,,,Não aplicável.,Não aplicável.,FALSE
41005818 - Reagentes,Ajuste Direto Regime Geral,Aquisição de bens móveis,"33000000-0, Equipamento médico, medicamentos e produtos para cuidados pessoais","Unidade Local de Saúde do Norte Alentejano, E. P. E. (508094461)",Biomerieux Portuguesa (501524177),"16,50 €",21-06-2018,28-02-2018,1 dias,"Portugal, Portalegre, Elvas","Artigo 24.º, n.º 1, alínea c) do Código dos Contratos Públicos","","",,,,Não aplicável.,Não aplicável.,FALSE
41005318 - Medicamentos,Ajuste Direto Regime Geral,Aquisição de bens móveis,"33000000-0, Equipamento médico, medicamentos e produtos para cuidados pessoais","Unidade Local de Saúde do Norte Alentejano, E. P. E. (508094461)",MYLAN (502248793),"50,76 €",21-06-2018,22-02-2018,1 dias,"Portugal, Portalegre, Elvas","Artigo 24.º, n.º 1, alínea c) do Código dos Contratos Públicos","","",,,,Não aplicável.,Não aplicável.,FALSE
41005318 - Medicamentos,Ajuste Direto Regime Geral,Aquisição de bens móveis,"33000000-0, Equipamento médico, medicamentos e produtos para cuidados pessoais","Unidade Local de Saúde do Norte Alentejano, E. P. E. (508094461)",Farmácia Elvas (505542005),"4,60 €",21-06-2018,22-02-2018,1 dias,"Portugal, Portalegre, Elvas","Artigo 24.º, n.º 1, alínea c) do Código dos Contratos Públicos","","",,,,Não aplicável.,Não aplicável.,FALSE
Aquisição de Sondas para Ecógrafos dos Serviços de Consultas Externas e Imagiologia do HSLE,Ajuste Direto Regime Geral,Aquisição de bens móveis,"33110000-4, Equipamento de imagiologia para uso médico, dentário e veterinário","Unidade Local de Saúde do Norte Alentejano, E. P. E. (508094461)",Nosbet (513514872),"11.300,00 €",21-06-2018,27-04-2018,30 dias,"Portugal, Portalegre, Elvas","Artigo 20.º, n.º 1, alínea d) do Código dos Contratos Públicos",01-06-2018,"11.300,00 €",,,,Não aplicável.,Não aplicável.,FALSE
