Objeto do Contrato,Tipo de Procedimento,Tipo(s) de Contrato,CPVs,Entidade(s) Adjudicante(s),Entidade(s) Adjudicatária(s),Preço Contratual,Data de Publicação,Data de Celebração do Contrato,Prazo de Execução,Local de Execução,Fundamentação,Data de Fecho do Contrato,Preço Total Efetivo,Causas das Alterações ao Prazo,Causas das Alterações ao Preço,Estado,N.º registo do Acordo Quadro,Descrição do Acordo Quadro,Procedimento Centralizado
CATETER GUIA CORONÁRIOS (PTCA) 6F,Ajuste Direto Regime Geral,Aquisição de bens móveis,"33000000-0, Equipamento médico, medicamentos e produtos para cuidados pessoais","Hospital Garcia de Orta, E. P. E. (506361470)","Cardinal Health Portugal 513, Lda. (513620834)","6.960,00 €",21-01-2019,13-12-2018,30 dias,"Portugal, Setúbal, Almada","Artigo 20.º, n.º 1, alínea d) do Código dos Contratos Públicos","","",,,,Não aplicável.,Não aplicável.,FALSE
ELECTRODO DE RETORNO DO PACIENTE,Ajuste Direto Regime Geral,Aquisição de bens móveis,"33600000-6, Produtos farmacêuticos","Hospital Garcia de Orta, E. P. E. (506361470)","Abbott Medical (Portugal) - Distribuição de Produtos Médicos, Lda. (504180746)","5.562,50 €",21-01-2019,14-12-2018,30 dias,"Portugal, Setúbal, Almada","Artigo 20.º, n.º 1, alínea d) do Código dos Contratos Públicos","","",,,,Não aplicável.,Não aplicável.,FALSE
NILOTINIB 200 MG CÁPS - CPA 2017/6,Ao abrigo de acordo-quadro (art.º 259.º),Aquisição de bens móveis,"33600000-6, Produtos farmacêuticos","Hospital Garcia de Orta, E. P. E. (506361470)"," Novartis Farma Produtos Farmacêuticos, SA (500063524)","6.130,48 €",21-01-2019,09-01-2019,365 dias,"Portugal, Setúbal, Almada",Artigo 259.º do Código dos Contratos Públicos,"","",,,,2969238,"CP 2017/6 - Acordo Quadro para fornecimento de Medicamentos do Foro Oncológico e Imunomoduladores, às Instituições e Serviços do Serviço Nacional de Saúde",FALSE
RUXOLITINIB 20 MG COMP - CPA 2017/6,Ao abrigo de acordo-quadro (art.º 259.º),Aquisição de bens móveis,"33600000-6, Produtos farmacêuticos","Hospital Garcia de Orta, E. P. E. (506361470)","Novartis Farma Produtos Farmacêuticos, SA (500063524)","179.785,72 €",21-01-2019,10-01-2019,365 dias,"Portugal, Setúbal, Almada",Artigo 259.º do Código dos Contratos Públicos,"","",,,,2969238,"CP 2017/6 - Acordo Quadro para fornecimento de Medicamentos do Foro Oncológico e Imunomoduladores, às Instituições e Serviços do Serviço Nacional de Saúde",FALSE
BICALUTAMIDA 50 MG COMP,Ajuste Direto Regime Geral,Aquisição de bens móveis,"33600000-6, Produtos farmacêuticos","Hospital Garcia de Orta, E. P. E. (506361470)","PIERRE FABRE MEDIC.PORTUGAL,LD (500230366)","6.639,60 €",21-01-2019,08-01-2019,30 dias,"Portugal, Setúbal, Almada","Artigo 20.º, n.º 1, alínea d) do Código dos Contratos Públicos","","",,,,Não aplicável.,Não aplicável.,FALSE
SOMATROPINA 4 MG PÓ SOL INJ FR SC,Ajuste Direto Regime Geral,Aquisição de bens móveis,"33600000-6, Produtos farmacêuticos","Hospital Garcia de Orta, E. P. E. (506361470)","FERRING PORTUGUESA-PROD. FARMAC.SOC.UNIP.,LDA. (502034831)","6.720,00 €",21-01-2019,08-01-2019,365 dias,"Portugal, Setúbal, Almada","Artigo 24.º, n.º 1, alínea e), subalínea iii) do Código dos Contratos Públicos","","",,,,Não aplicável.,Não aplicável.,FALSE
Medicamentos das afeções Oculares e Otorrinolaringologia CPA 2015/49 - Para 2018,Ao abrigo de acordo-quadro (art.º 259.º),Aquisição de bens móveis,"33600000-6, Produtos farmacêuticos","Hospital Garcia de Orta, E. P. E. (506361470)","Tecnifar - Industria Técnica Farmacêutica, S.A.  (500280436)","57,90 €",21-01-2019,05-04-2018,365 dias,"Portugal, Setúbal, Almada",Artigo 259.º do Código dos Contratos Públicos,"","",,,,1377420,Acordo quadro para fornecimento de medicamentos usados nas afecções oculares e otorrinolaringologias às instituições e serviços do serviço nacional de saúde,FALSE
Medicamentos das afeções Oculares e Otorrinolaringologia CPA 2015/49 - Para 2018,Ao abrigo de acordo-quadro (art.º 259.º),Aquisição de bens móveis,"33600000-6, Produtos farmacêuticos","Hospital Garcia de Orta, E. P. E. (506361470)","Novartis Farma Produtos Farmacêuticos, SA (500063524)","36,40 €",21-01-2019,05-04-2018,365 dias,"Portugal, Setúbal, Almada",Artigo 259.º do Código dos Contratos Públicos,"","",,,,1377420,Acordo quadro para fornecimento de medicamentos usados nas afecções oculares e otorrinolaringologias às instituições e serviços do serviço nacional de saúde,FALSE
Medicamentos das afeções Oculares e Otorrinolaringologia CPA 2015/49 - Para 2018,Ao abrigo de acordo-quadro (art.º 259.º),Aquisição de bens móveis,"33600000-6, Produtos farmacêuticos","Hospital Garcia de Orta, E. P. E. (506361470)","GLAXO SMITHKLINE- PROD.FARMAC., LDA (500139962)","197,00 €",21-01-2019,05-04-2018,365 dias,"Portugal, Setúbal, Almada",Artigo 259.º do Código dos Contratos Públicos,"","",,,,1377420,Acordo quadro para fornecimento de medicamentos usados nas afecções oculares e otorrinolaringologias às instituições e serviços do serviço nacional de saúde,FALSE
Medicamentos das afeções Oculares e Otorrinolaringologia CPA 2015/49 - Para 2018,Ao abrigo de acordo-quadro (art.º 259.º),Aquisição de bens móveis,"33600000-6, Produtos farmacêuticos","Hospital Garcia de Orta, E. P. E. (506361470)","DAVI II FARMACÊUTICA, SA (508309450)","11.248,00 €",21-01-2019,05-04-2018,365 dias,"Portugal, Setúbal, Almada",Artigo 259.º do Código dos Contratos Públicos,"","",,,,1377420,Acordo quadro para fornecimento de medicamentos usados nas afecções oculares e otorrinolaringologias às instituições e serviços do serviço nacional de saúde,FALSE
Medicamentos das afeções Oculares e Otorrinolaringologia CPA 2015/49 - Para 2018,Ao abrigo de acordo-quadro (art.º 259.º),Aquisição de bens móveis,"33600000-6, Produtos farmacêuticos","Hospital Garcia de Orta, E. P. E. (506361470)",BAUSCH  LOMB (980218764),"7.490,00 €",21-01-2019,05-04-2018,365 dias,"Portugal, Setúbal, Almada",Artigo 259.º do Código dos Contratos Públicos,"","",,,,1377420,Acordo quadro para fornecimento de medicamentos usados nas afecções oculares e otorrinolaringologias às instituições e serviços do serviço nacional de saúde,FALSE
Medicamentos das afeções Oculares e Otorrinolaringologia CPA 2015/49 - Para 2018,Ao abrigo de acordo-quadro (art.º 259.º),Aquisição de bens móveis,"33600000-6, Produtos farmacêuticos","Hospital Garcia de Orta, E. P. E. (506361470)",bayer portugal (500043256),"89.568,00 €",21-01-2019,05-04-2018,365 dias,"Portugal, Setúbal, Almada",Artigo 259.º do Código dos Contratos Públicos,"","",,,,1377420,Acordo quadro para fornecimento de medicamentos usados nas afecções oculares e otorrinolaringologias às instituições e serviços do serviço nacional de saúde,FALSE
Medicamentos das afeções Oculares e Otorrinolaringologia CPA 2015/49 - Para 2018,Ao abrigo de acordo-quadro (art.º 259.º),Aquisição de bens móveis,"33600000-6, Produtos farmacêuticos","Hospital Garcia de Orta, E. P. E. (506361470)",LUSOMEDICAMENTA (507150473),"64,80 €",21-01-2019,05-04-2018,365 dias,"Portugal, Setúbal, Almada",Artigo 259.º do Código dos Contratos Públicos,"","",,,,1377420,Acordo quadro para fornecimento de medicamentos usados nas afecções oculares e otorrinolaringologias às instituições e serviços do serviço nacional de saúde,FALSE
Medicamentos das afeções Oculares e Otorrinolaringologia CPA 2015/49 - Para 2018,Ao abrigo de acordo-quadro (art.º 259.º),Aquisição de bens móveis,"33600000-6, Produtos farmacêuticos","Hospital Garcia de Orta, E. P. E. (506361470)","LADORATORIO EDOL - PROD. FARMACÊUTICOS,S.A (507072642)","16.995,80 €",21-01-2019,05-04-2018,365 dias,"Portugal, Setúbal, Almada",Artigo 259.º do Código dos Contratos Públicos,"","",,,,1377420,Acordo quadro para fornecimento de medicamentos usados nas afecções oculares e otorrinolaringologias às instituições e serviços do serviço nacional de saúde,FALSE
Aquisição de Cadeirão para Cirurgia Oftalmológica - A.D. N.º 7400608,Ajuste Direto Regime Geral,Aquisição de bens móveis,"33192130-2, Camas equipadas com motor","Hospital Garcia de Orta, E.P.E. (506361470)","OFTALDATA - PRODUTOS P\ OFTALMOLOGIA, LDA (504887459)","10.000,00 €",18-01-2019,20-12-2018,30 dias,"Portugal, Setúbal, Almada","Artigo 20.º, n.º 1, alínea d) do Código dos Contratos Públicos","","",,,,Não aplicável.,Não aplicável.,FALSE
Aquisição de Equipamento Informático ao Abrigo dos Lotes 15 e 18 do AQ Ref.ª 61/2018 - Procedimento SPMS N.º 7700258,Ao abrigo de acordo-quadro (art.º 259.º),Aquisição de bens móveis,"30210000-4, Máquinas de processamento de dados (hardware)","Hospital Garcia de Orta, E. P. E. (506361470)","ITEN SOLUTIONS, S.A. (510728189)","136.094,03 €",18-01-2019,30-05-2018,365 dias,"Portugal, Setúbal, Almada",Artigo 259.º do Código dos Contratos Públicos,"","",,,,1196657,Acordo Quadro para aquisição e aluguer operacional de equipamento informático,FALSE
Medicamentos Anestésicos e Relaxantes Musculares,Ao abrigo de acordo-quadro (art.º 259.º),Aquisição de bens móveis,"33661000-1, Medicamentos para o sistema nervoso","Hospital Garcia de Orta, E. P. E. (506361470)","Profarin, Lda. (500223238)","54.000,00 €",18-01-2019,17-05-2018,365 dias,"Portugal, Setúbal, Almada",Artigo 259.º do Código dos Contratos Públicos,"","",,,,2211341,Medicamentos anestésicos e relaxantes musculares,FALSE
Medicamentos Anestésicos e Relaxantes Musculares,Ao abrigo de acordo-quadro (art.º 259.º),Aquisição de bens móveis,"33661000-1, Medicamentos para o sistema nervoso","Hospital Garcia de Orta, E. P. E. (506361470)",Overpharma (505792362),"5.100,00 €",18-01-2019,17-05-2018,365 dias,"Portugal, Setúbal, Almada",Artigo 259.º do Código dos Contratos Públicos,"","",,,,2211341,Medicamentos anestésicos e relaxantes musculares,FALSE
Medicamentos Anestésicos e Relaxantes Musculares,Ao abrigo de acordo-quadro (art.º 259.º),Aquisição de bens móveis,"33661000-1, Medicamentos para o sistema nervoso","Hospital Garcia de Orta, E. P. E. (506361470)","Labesfal - Laboratórios Almiro, SA (501169580)","14.967,80 €",18-01-2019,17-05-2018,365 dias,"Portugal, Setúbal, Almada",Artigo 259.º do Código dos Contratos Públicos,"","",,,,2211341,Medicamentos anestésicos e relaxantes musculares,FALSE
Medicamentos Anestésicos e Relaxantes Musculares,Ao abrigo de acordo-quadro (art.º 259.º),Aquisição de bens móveis,"33661000-1, Medicamentos para o sistema nervoso","Hospital Garcia de Orta, E. P. E. (506361470)",GRUNENTHAL SA (500101965),"38.184,62 €",18-01-2019,17-05-2018,365 dias,"Portugal, Setúbal, Almada",Artigo 259.º do Código dos Contratos Públicos,"","",,,,2211341,Medicamentos anestésicos e relaxantes musculares,FALSE
Medicamentos Anestésicos e Relaxantes Musculares,Ao abrigo de acordo-quadro (art.º 259.º),Aquisição de bens móveis,"33661000-1, Medicamentos para o sistema nervoso","Hospital Garcia de Orta, E. P. E. (506361470)",korangi (505322307),"4.193,32 €",18-01-2019,17-05-2018,365 dias,"Portugal, Setúbal, Almada",Artigo 259.º do Código dos Contratos Públicos,"","",,,,2211341,Medicamentos anestésicos e relaxantes musculares,FALSE
Medicamentos Anestésicos e Relaxantes Musculares,Ao abrigo de acordo-quadro (art.º 259.º),Aquisição de bens móveis,"33661000-1, Medicamentos para o sistema nervoso","Hospital Garcia de Orta, E. P. E. (506361470)",Ipsen Portugal - Produtos Farmacêuticos SA (502609800),"35.388,00 €",18-01-2019,17-05-2018,365 dias,"Portugal, Setúbal, Almada",Artigo 259.º do Código dos Contratos Públicos,"","",,,,2211341,Medicamentos anestésicos e relaxantes musculares,FALSE
Medicamentos Anestésicos e Relaxantes Musculares,Ao abrigo de acordo-quadro (art.º 259.º),Aquisição de bens móveis,"33661000-1, Medicamentos para o sistema nervoso","Hospital Garcia de Orta, E. P. E. (506361470)","GENERIS FARMACEUTICA, SA (505625520)","100,00 €",18-01-2019,17-05-2018,365 dias,"Portugal, Setúbal, Almada",Artigo 259.º do Código dos Contratos Públicos,"","",,,,2211341,Medicamentos anestésicos e relaxantes musculares,FALSE
Medicamentos Anestésicos e Relaxantes Musculares,Ao abrigo de acordo-quadro (art.º 259.º),Aquisição de bens móveis,"33661000-1, Medicamentos para o sistema nervoso","Hospital Garcia de Orta, E. P. E. (506361470)",Fresenius Kabi Pharma Portugal (504293753),"60.888,00 €",18-01-2019,17-05-2018,365 dias,"Portugal, Setúbal, Almada",Artigo 259.º do Código dos Contratos Públicos,"","",,,,2211341,Medicamentos anestésicos e relaxantes musculares,FALSE
Medicamentos Anestésicos e Relaxantes Musculares,Ao abrigo de acordo-quadro (art.º 259.º),Aquisição de bens móveis,"33661000-1, Medicamentos para o sistema nervoso","Hospital Garcia de Orta, E. P. E. (506361470)",PHARMIS BIOFARMACEUTICA (502595442),"8.625,00 €",18-01-2019,17-05-2018,365 dias,"Portugal, Setúbal, Almada",Artigo 259.º do Código dos Contratos Públicos,"","",,,,2211341,Medicamentos anestésicos e relaxantes musculares,FALSE
Medicamentos Anestésicos e Relaxantes Musculares,Ao abrigo de acordo-quadro (art.º 259.º),Aquisição de bens móveis,"33661000-1, Medicamentos para o sistema nervoso","Hospital Garcia de Orta, E. P. E. (506361470)","BAXTER MEDICO FARMACEUTICA, LDA (503347345)","67.000,08 €",18-01-2019,17-05-2018,365 dias,"Portugal, Setúbal, Almada",Artigo 259.º do Código dos Contratos Públicos,"","",,,,2211341,Medicamentos anestésicos e relaxantes musculares,FALSE
Medicamentos do Aparelho Digestivo para 2018,Ao abrigo de acordo-quadro (art.º 259.º),Aquisição de bens móveis,"33600000-6, Produtos farmacêuticos","Hospital Garcia de Orta, E. P. E. (506361470)",DLA FARMACÊUTICA (503894427),"20.385,00 €",18-01-2019,20-03-2018,365 dias,"Portugal, Setúbal, Almada",Artigo 259.º do Código dos Contratos Públicos,"","",,,,2222779,Medicamentos do aparelho digestivo,FALSE
Medicamentos do Aparelho Digestivo para 2018,Ao abrigo de acordo-quadro (art.º 259.º),Aquisição de bens móveis,"33600000-6, Produtos farmacêuticos","Hospital Garcia de Orta, E. P. E. (506361470)","ANGELINI FARMACEUTICA, LDA (500583650)","2.140,00 €",18-01-2019,20-03-2018,365 dias,"Portugal, Setúbal, Almada",Artigo 259.º do Código dos Contratos Públicos,"","",,,,2222779,Medicamentos do aparelho digestivo,FALSE
Medicamentos do Aparelho Digestivo para 2018,Ao abrigo de acordo-quadro (art.º 259.º),Aquisição de bens móveis,"33600000-6, Produtos farmacêuticos","Hospital Garcia de Orta, E. P. E. (506361470)",Overpharma (505792362),"990,00 €",18-01-2019,20-03-2018,365 dias,"Portugal, Setúbal, Almada",Artigo 259.º do Código dos Contratos Públicos,"","",,,,2222779,Medicamentos do aparelho digestivo,FALSE
Medicamentos do Aparelho Digestivo para 2018,Ao abrigo de acordo-quadro (art.º 259.º),Aquisição de bens móveis,"33600000-6, Produtos farmacêuticos","Hospital Garcia de Orta, E. P. E. (506361470)",OM Pharma (500207410),"2.020,00 €",18-01-2019,20-03-2018,365 dias,"Portugal, Setúbal, Almada",Artigo 259.º do Código dos Contratos Públicos,"","",,,,2222779,Medicamentos do aparelho digestivo,FALSE
Medicamentos do Aparelho Digestivo para 2018,Ao abrigo de acordo-quadro (art.º 259.º),Aquisição de bens móveis,"33600000-6, Produtos farmacêuticos","Hospital Garcia de Orta, E. P. E. (506361470)","Laboratório Medinfar, SA (500384045)","132,60 €",18-01-2019,20-03-2018,365 dias,"Portugal, Setúbal, Almada",Artigo 259.º do Código dos Contratos Públicos,"","",,,,2222779,Medicamentos do aparelho digestivo,FALSE
Medicamentos do Aparelho Digestivo para 2018,Ao abrigo de acordo-quadro (art.º 259.º),Aquisição de bens móveis,"33600000-6, Produtos farmacêuticos","Hospital Garcia de Orta, E. P. E. (506361470)","Labesfal - Laboratórios Almiro, SA (501169580)","216,00 €",18-01-2019,20-03-2018,365 dias,"Portugal, Setúbal, Almada",Artigo 259.º do Código dos Contratos Públicos,"","",,,,2222779,Medicamentos do aparelho digestivo,FALSE
Medicamentos do Aparelho Digestivo para 2018,Ao abrigo de acordo-quadro (art.º 259.º),Aquisição de bens móveis,"33600000-6, Produtos farmacêuticos","Hospital Garcia de Orta, E. P. E. (506361470)","Laboratorios Pfizer, Lda (500162166)","831,66 €",18-01-2019,20-03-2018,365 dias,"Portugal, Setúbal, Almada",Artigo 259.º do Código dos Contratos Públicos,"","",,,,2222779,Medicamentos do aparelho digestivo,FALSE
Medicamentos do Aparelho Digestivo para 2018,Ao abrigo de acordo-quadro (art.º 259.º),Aquisição de bens móveis,"33600000-6, Produtos farmacêuticos","Hospital Garcia de Orta, E. P. E. (506361470)","GENERIS FARMACEUTICA, SA (505625520)","10.010,60 €",18-01-2019,20-03-2018,365 dias,"Portugal, Setúbal, Almada",Artigo 259.º do Código dos Contratos Públicos,"","",,,,2222779,Medicamentos do aparelho digestivo,FALSE
Medicamentos do Aparelho Digestivo para 2018,Ao abrigo de acordo-quadro (art.º 259.º),Aquisição de bens móveis,"33600000-6, Produtos farmacêuticos","Hospital Garcia de Orta, E. P. E. (506361470)","ASTELLAS FARMA, LDA (502540249)","150,00 €",18-01-2019,20-03-2018,365 dias,"Portugal, Setúbal, Almada",Artigo 259.º do Código dos Contratos Públicos,"","",,,,2222779,Medicamentos do aparelho digestivo,FALSE
Medicamentos do Aparelho Digestivo para 2018,Ao abrigo de acordo-quadro (art.º 259.º),Aquisição de bens móveis,"33600000-6, Produtos farmacêuticos","Hospital Garcia de Orta, E. P. E. (506361470)","Sanofi - Produtos Farmacêuticos, Lda (500134960)","4.636,27 €",18-01-2019,20-03-2018,365 dias,"Portugal, Setúbal, Almada",Artigo 259.º do Código dos Contratos Públicos,"","",,,,2222779,Medicamentos do aparelho digestivo,FALSE
Licenciamento de Software ao Abrigo do Lote 6 do AQ Ref.ª 54/2017 - Procedimento SPMS N.º 7700238,Ao abrigo de acordo-quadro (art.º 259.º),Aquisição de bens móveis<br/>Aquisição de serviços,"48180000-3, Pacote de software para medicina","Hospital Garcia de Orta, E. P. E. (506361470)","Informantem - Informática e Manutenção, Lda. (503670693)","75.586,00 €",17-01-2019,10-05-2018,365 dias,"Portugal, Setúbal, Almada",Artigo 259.º do Código dos Contratos Públicos,"","",,,,610968,Acordo quadro de licenciamento de software e serviços conexos,FALSE
Aquisição de BOMBAS DE PERFUSÃO SUBCUTÂNEA DE INSULINA + CONSUMÍVEIS - Procedimento SPMS N.º 7700228,Ao abrigo de acordo-quadro (art.º 259.º),Aquisição de bens móveis,"33194110-0, Bombas para perfusão","Hospital Garcia de Orta, E. P. E. (506361470)",MEDTRONIC (504223933),"6.840,00 €",17-01-2019,04-05-2018,241 dias,"Portugal, Setúbal, Almada",Artigo 259.º do Código dos Contratos Públicos,"","",,,,1442148,ACORDO QUADRO PARA FORNECIMENTO DE BOMBAS DE PERFUSÃO SUBCUTANEA CONTINUA DE INSULINA E RESPETIVOS CONSUMÍVEIS ÀS INSTITUIÇÕES E SERVIÇOS DO SERVIÇO NACIONAL DE SAÚDE. CP 2015/29,FALSE
Prestação de Serviços Médicos no Serviço de Urgência Geral - C.P. N.º 0802308,Consulta Prévia,Aquisição de serviços,"85121100-4, Serviços de médicos de clínica geral","Hospital Garcia de Orta, E. P. E. (506361470)",MARIA MANUELA SILVA (118750585),"71.500,00 €",17-01-2019,13-11-2018,365 dias,"Portugal, Setúbal, Almada","Artigo 20.º, n.º 1, alínea c) do Código dos Contratos Públicos","","",,,,Não aplicável.,Não aplicável.,FALSE
MEPOLIZUMAB 100 MG PÓ SOL INJ FR SC,Ao abrigo de acordo-quadro (art.º 259.º),Aquisição de bens móveis,"33600000-6, Produtos farmacêuticos","Hospital Garcia de Orta, E. P. E. (506361470)",GLAXOSMITHKLINE - PRODUTOS FARMACEUTICOS (500139962),"25.139,76 €",17-01-2019,08-01-2019,365 dias,"Portugal, Setúbal, Almada",Artigo 259.º do Código dos Contratos Públicos,"","",,,,3583388,CP 2018/12,FALSE
PALBOCICLIB 100 MG CÁPS,Ao abrigo de acordo-quadro (art.º 259.º),Aquisição de bens móveis,"33600000-6, Produtos farmacêuticos","Hospital Garcia de Orta, E. P. E. (506361470)","Pfizer Biofarmaceutica, Sociedade Unipessoal Lda. (513300376)","21.000,00 €",17-01-2019,08-01-2019,365 dias,"Portugal, Setúbal, Almada",Artigo 259.º do Código dos Contratos Públicos,"","",,,,3430281,CP 2018/55,FALSE
IMIGLUCERASE 400UI - SPMS 2017/58,Ao abrigo de acordo-quadro (art.º 259.º),Aquisição de bens móveis,"33600000-6, Produtos farmacêuticos","Hospital Garcia de Orta, E. P. E. (506361470)","Sanofi - Produtos Farmacêuticos, Lda (500134960)","50.670,40 €",17-01-2019,10-01-2019,180 dias,"Portugal, Setúbal, Almada",Artigo 259.º do Código dos Contratos Públicos,"","",,,,2658382,CP 2017/58 - Acordo Quadro para fornecimento de Medicamentos para Doenças Lisossomais de Sobrecarga às Instituições e Serviços do Serviço Nacional de Saúde,FALSE
ABIRATERONA 250 MG COMP,Ao abrigo de acordo-quadro (art.º 259.º),Aquisição de bens móveis,"33600000-6, Produtos farmacêuticos","Hospital Garcia de Orta, E. P. E. (506361470)","JANSSEN CILAG FARMACÊUTICA, LDA (500189412)","138.840,00 €",17-01-2019,10-01-2019,365 dias,"Portugal, Setúbal, Almada",Artigo 259.º do Código dos Contratos Públicos,"","",,,,2969238,"CP 2017/6 - Acordo Quadro para fornecimento de Medicamentos do Foro Oncológico e Imunomoduladores, às Instituições e Serviços do Serviço Nacional de Saúde",FALSE
DARUNAVIR 800 MG COMP,Consulta Prévia,Aquisição de bens móveis,"33600000-6, Produtos farmacêuticos","Hospital Garcia de Orta, E. P. E. (506361470)","SANDOZ FARMACEUTICA, LDA (506985261)","73.566,00 €",17-01-2019,10-01-2019,365 dias,"Portugal, Setúbal, Almada","Artigo 20.º, n.º 1, alínea c) do Código dos Contratos Públicos","","",,,,Não aplicável.,Não aplicável.,FALSE
Medicamentos para 2019 - Aquisição P259-2018-171 (CPA 2017/61),Ao abrigo de acordo-quadro (art.º 259.º),Aquisição de bens móveis,"33600000-6, Produtos farmacêuticos","Hospital Garcia de Orta, E. P. E. (506361470)",ROCHE FARMACEUTICA QUIMICA LDA (500233810),"9.254,52 €",17-01-2019,20-12-2018,365 dias,"Portugal, Setúbal, Almada",Artigo 259.º do Código dos Contratos Públicos,"","",,,,2545980,CP 2017/61 - Acordo quadro para fornecimento de Medicamentos Diversos   às Instituições e Serviços do Serviço Nacional de Saúde,FALSE
Medicamentos para 2019 - Aquisição P259-2018-171 (CPA 2017/6),Ao abrigo de acordo-quadro (art.º 259.º),Aquisição de bens móveis,"33600000-6, Produtos farmacêuticos","Hospital Garcia de Orta, E. P. E. (506361470)",ROCHE FARMACEUTICA QUIMICA LDA (500233810),"1.627.165,90 €",17-01-2019,20-12-2018,365 dias,"Portugal, Setúbal, Almada",Artigo 259.º do Código dos Contratos Públicos,"","",,,,2969238,"CP 2017/6 - Acordo Quadro para fornecimento de Medicamentos do Foro Oncológico e Imunomoduladores, às Instituições e Serviços do Serviço Nacional de Saúde",FALSE
AD EXCLUSIVO CONSUMIVEIS STERRAD (JOHNSON),Ajuste Direto Regime Geral,Aquisição de bens móveis,"33140000-3, Material médico de consumo","Hospital Garcia de Orta, E.P.E. (506361470)",JOHNSON & JOHNSON MEDICAL (500153370),"7.627,50 €",16-01-2019,13-11-2018,365 dias,"Portugal, Setúbal, Almada","Artigo 24.º, n.º 1, alínea e), subalínea ii) do Código dos Contratos Públicos","","",,,,Não aplicável.,Não aplicável.,FALSE
Medicamentos p/ 2019 - Aquisição P259-2018-165 (CPA 2016/40),Ao abrigo de acordo-quadro (art.º 259.º),Aquisição de bens móveis,"33600000-6, Produtos farmacêuticos","Hospital Garcia de Orta, E. P. E. (506361470)","ABBVIE, LDA (510229050)","21.527,54 €",16-01-2019,11-01-2019,365 dias,"Portugal, Setúbal, Almada",Artigo 259.º do Código dos Contratos Públicos,"","",,,,2183729,Medicamentos antirretrovíricos para o tratamento da infeção por VIH,FALSE
Medicamentos p/ 2019 - Aquisição P259-2018-165 (CPA 2017/6),Ao abrigo de acordo-quadro (art.º 259.º),Aquisição de bens móveis,"33600000-6, Produtos farmacêuticos","Hospital Garcia de Orta, E. P. E. (506361470)","ABBVIE, LDA (510229050)","7.201,25 €",16-01-2019,11-01-2019,365 dias,"Portugal, Setúbal, Almada",Artigo 259.º do Código dos Contratos Públicos,"","",,,,2969238,"CP 2017/6 - Acordo Quadro para fornecimento de Medicamentos do Foro Oncológico e Imunomoduladores, às Instituições e Serviços do Serviço Nacional de Saúde",FALSE
Aquisição Centralizada SPMS P/ 2019: P25-2018-178 (CPA 2017/64),Ao abrigo de acordo-quadro (art.º 259.º),Aquisição de bens móveis,"33600000-6, Produtos farmacêuticos","Hospital Garcia de Orta, E. P. E. (506361470)","JANSSEN CILAG FARMACÊUTICA, LDA (500189412)","21.490,00 €",16-01-2019,10-01-2019,365 dias,"Portugal, Setúbal, Almada",Artigo 259.º do Código dos Contratos Públicos,"","",,,,3053200,"CP 2017/64 - Acordo Quadro para fornecimento de Medicamentos Diversos, às Instituições e Serviços do Serviço Nacional de Saúde",FALSE
Aquisição Centralizada de Medicamentos: P259-2018-175 (CPA 2017/61),Ao abrigo de acordo-quadro (art.º 259.º),Aquisição de bens móveis,"33600000-6, Produtos farmacêuticos","Hospital Garcia de Orta, E. P. E. (506361470)",U C B PHARMA - PROD FARMACEUTICOS (500291322),"85.280,00 €",16-01-2019,10-01-2019,365 dias,"Portugal, Setúbal, Almada",Artigo 259.º do Código dos Contratos Públicos,"","",,,,2545980,CP 2017/61 - Acordo quadro para fornecimento de Medicamentos Diversos   às Instituições e Serviços do Serviço Nacional de Saúde,FALSE
Medicamentos para 2019 - Aquisição Centralizada P259-2018-200 (CPA 2016/18),Ao abrigo de acordo-quadro (art.º 259.º),Aquisição de bens móveis,"33600000-6, Produtos farmacêuticos","Hospital Garcia de Orta, E. P. E. (506361470)",FERRER PORTUGAL S.A. (500069190),"28.505,52 €",16-01-2019,10-01-2019,365 dias,"Portugal, Setúbal, Almada",Artigo 259.º do Código dos Contratos Públicos,"","",,,,2489595,CP 2016/18 - Acordo quadro para fornecimento de Medicamentos do Grupo 4: Sangue às Instituições e Serviços do Serviço Nacional de Saúde,FALSE
Medicamentos para 2019 - Aquisição Centralizada P259-2018-200 (CPA 2017/6),Ao abrigo de acordo-quadro (art.º 259.º),Aquisição de bens móveis,"33600000-6, Produtos farmacêuticos","Hospital Garcia de Orta, E. P. E. (506361470)",FERRER PORTUGAL S.A. (500069190),"63.851,00 €",16-01-2019,10-01-2019,365 dias,"Portugal, Setúbal, Almada",Artigo 259.º do Código dos Contratos Públicos,"","",,,,2969238,"CP 2017/6 - Acordo Quadro para fornecimento de Medicamentos do Foro Oncológico e Imunomoduladores, às Instituições e Serviços do Serviço Nacional de Saúde",FALSE
Aquisição Centralizada SPMS p/ 2019: P259-2018-205 (CPA 2018/55),Ao abrigo de acordo-quadro (art.º 259.º),Aquisição de bens móveis,"33600000-6, Produtos farmacêuticos","Hospital Garcia de Orta, E. P. E. (506361470)","Lilly Portugal - Produtos Farmacêuticos, Lda. (500165602)","76.521,72 €",16-01-2019,10-01-2019,365 dias,"Portugal, Setúbal, Almada",Artigo 259.º do Código dos Contratos Públicos,"","",,,,3430281,CP 2018/55,FALSE
Fornecimento e Montagem de 3 Reservatórios de Água Quente Sanitária na Central de Cogeração e Execução de Porta de Visita no Reservatório - C.P. N.º 0700148,Consulta Prévia,Aquisição de bens móveis<br/>Aquisição de serviços,"44611600-2, Reservatórios","Hospital Garcia de Orta, E. P. E. (506361470)","SUCH-VEOLIA, ACE PORTUGAL (503718289)","44.845,27 €",15-01-2019,20-03-2018,60 dias,"Portugal, Setúbal, Almada","Artigo 20.º, n.º 1, alínea c) do Código dos Contratos Públicos",16-10-2018,"44.845,27 €",,,,Não aplicável.,Não aplicável.,FALSE
Fornecimento e Montagem de Bancadas e Armários para o Hospital de Dia de Oncologia - C.P. N.º 0700018,Consulta Prévia,Aquisição de bens móveis,"33192000-2, Mobiliário para fins médicos","Hospital Garcia de Orta, E. P. E. (506361470)","JEROMÓVEL, LDA. (501928740)","8.195,00 €",15-01-2019,08-03-2018,30 dias,"Portugal, Setúbal, Almada","Artigo 20.º, n.º 1, alínea c) do Código dos Contratos Públicos","","",,,,Não aplicável.,Não aplicável.,FALSE
Prestação de Serviços Médicos na Urgência Geral - A.D. N.º 8412837,Ajuste Direto Regime Geral,Aquisição de serviços,"85121100-4, Serviços de médicos de clínica geral","Hospital Garcia de Orta, E. P. E. (506361470)",FÉLIX ÂNGELO (201006642),"29.040,00 €",15-01-2019,19-12-2017,365 dias,"Portugal, Setúbal, Almada","Artigo 20.º, n.º 1, alínea a) do Código dos Contratos Públicos","","",,,,Não aplicável.,Não aplicável.,FALSE
Medicamentos p/ 2019: P259-2018-181 (CPA 2017/61),Ao abrigo de acordo-quadro (art.º 259.º),Aquisição de bens móveis,"33600000-6, Produtos farmacêuticos","Hospital Garcia de Orta, E. P. E. (506361470)",VIIVVHIV Healthcare Unipessoal Lda (509117961),"586.521,33 €",15-01-2019,20-12-2018,365 dias,"Portugal, Setúbal, Almada",Artigo 259.º do Código dos Contratos Públicos,"","",,,,2545980,CP 2017/61 - Acordo quadro para fornecimento de Medicamentos Diversos   às Instituições e Serviços do Serviço Nacional de Saúde,FALSE
Medicamentos p/ 2019: P259-2018-181 (CPA 2016/40),Ao abrigo de acordo-quadro (art.º 259.º),Aquisição de bens móveis,"33600000-6, Produtos farmacêuticos","Hospital Garcia de Orta, E. P. E. (506361470)",VIIVVHIV Healthcare Unipessoal Lda (509117961),"9.589,20 €",15-01-2019,20-12-2018,365 dias,"Portugal, Setúbal, Almada",Artigo 259.º do Código dos Contratos Públicos,"","",,,,2183729,Medicamentos antirretrovíricos para o tratamento da infeção por VIH,FALSE
Medicamentos p/ 2019: P259-2018-191 (CPA 2017/50),Ao abrigo de acordo-quadro (art.º 259.º),Aquisição de bens móveis,"33600000-6, Produtos farmacêuticos","Hospital Garcia de Orta, E. P. E. (506361470)",MERCK SHARP & DOHME LDA (500191360),"143.948,39 €",15-01-2019,27-12-2018,365 dias,"Portugal, Setúbal, Almada",Artigo 259.º do Código dos Contratos Públicos,"","",,,,2775699,"CP 2017/50 - Medicação antialérgica, vitaminas e sais minerais, medicamentos usados no tratamento de intoxicações e grupo 20.9",FALSE
Medicamentos p/ 2019: P259-2018-191 (CPA 2016/40),Ao abrigo de acordo-quadro (art.º 259.º),Aquisição de bens móveis,"33600000-6, Produtos farmacêuticos","Hospital Garcia de Orta, E. P. E. (506361470)","MERCK SHARP & DOHME ,LDA. (500191360)","560.743,39 €",15-01-2019,27-12-2018,365 dias,"Portugal, Setúbal, Almada",Artigo 259.º do Código dos Contratos Públicos,"","",,,,2183729,Medicamentos antirretrovíricos para o tratamento da infeção por VIH,FALSE
Medicamentos p/ 2019: P259-2018-191 (CPA 2017/6),Ao abrigo de acordo-quadro (art.º 259.º),Aquisição de bens móveis,"33600000-6, Produtos farmacêuticos","Hospital Garcia de Orta, E. P. E. (506361470)",MERCK SHARP & DOHME LDA (500191360),"205.000,00 €",15-01-2019,27-12-2018,365 dias,"Portugal, Setúbal, Almada",Artigo 259.º do Código dos Contratos Públicos,"","",,,,2969238,"CP 2017/6 - Acordo Quadro para fornecimento de Medicamentos do Foro Oncológico e Imunomoduladores, às Instituições e Serviços do Serviço Nacional de Saúde",FALSE
Medicamentos p/ 2019: P259-2018-192 (CPA 2017/6),Ao abrigo de acordo-quadro (art.º 259.º),Aquisição de bens móveis,"33600000-6, Produtos farmacêuticos","Hospital Garcia de Orta, E. P. E. (506361470)",GLAXOSMITHKLINE - PRODUTOS FARMACEUTICOS (500139962),"13.070,88 €",15-01-2019,27-12-2018,365 dias,"Portugal, Setúbal, Almada",Artigo 259.º do Código dos Contratos Públicos,"","",,,,2969238,"CP 2017/6 - Acordo Quadro para fornecimento de Medicamentos do Foro Oncológico e Imunomoduladores, às Instituições e Serviços do Serviço Nacional de Saúde",FALSE
Medicamentos p/ 2019: P259-2018-192 (CPA 2016/1),Ao abrigo de acordo-quadro (art.º 259.º),Aquisição de bens móveis,"33600000-6, Produtos farmacêuticos","Hospital Garcia de Orta, E. P. E. (506361470)",GLAXOSMITHKLINE - PRODUTOS FARMACEUTICOS (500139962),"59.525,06 €",15-01-2019,27-12-2018,365 dias,"Portugal, Setúbal, Almada",Artigo 259.º do Código dos Contratos Públicos,"","",,,,2335591,CP 2016/01 - Acordo Quadro para fornecimento de Medicamentos do Aparelho Cardiovascular   às Instituições e Serviços do Serviço Nacional de Saúde,FALSE
Medicamentos p/2019: P259-2018-186 - CPA 2016/18,Ao abrigo de acordo-quadro (art.º 259.º),Aquisição de bens móveis,"33600000-6, Produtos farmacêuticos","Hospital Garcia de Orta, E. P. E. (506361470)","BAYER PORTUGAL, SA. (500043256)","36.926,40 €",14-01-2019,03-01-2019,365 dias,"Portugal, Setúbal, Almada",Artigo 259.º do Código dos Contratos Públicos,"","",,,,2489595,CP 2016/18 - Acordo quadro para fornecimento de Medicamentos do Grupo 4: Sangue às Instituições e Serviços do Serviço Nacional de Saúde,FALSE
Medicamentos p/2019: P259-2018-186 - CPA 2017/6,Ao abrigo de acordo-quadro (art.º 259.º),Aquisição de bens móveis,"33600000-6, Produtos farmacêuticos","Hospital Garcia de Orta, E. P. E. (506361470)","BAYER PORTUGAL, SA. (500043256)","299.099,24 €",14-01-2019,03-01-2019,365 dias,"Portugal, Setúbal, Almada",Artigo 259.º do Código dos Contratos Públicos,"","",,,,2969238,"CP 2017/6 - Acordo Quadro para fornecimento de Medicamentos do Foro Oncológico e Imunomoduladores, às Instituições e Serviços do Serviço Nacional de Saúde",FALSE
Medicamentos p/2019: P259-2018-186 - CPA 2018/49,Ao abrigo de acordo-quadro (art.º 259.º),Locação de bens móveis,"33600000-6, Produtos farmacêuticos","Hospital Garcia de Orta, E. P. E. (506361470)","BAYER PORTUGAL, SA. (500043256)","89.568,00 €",14-01-2019,03-01-2019,365 dias,"Portugal, Setúbal, Almada",Artigo 259.º do Código dos Contratos Públicos,"","",,,,3358998,CP 2018/49 - Medicamentos usados nas afeções oculares e otorrinolaringológicas,FALSE
RIOCIGUAT 2 MG COMP,Ajuste Direto Regime Geral,Aquisição de bens móveis,"33600000-6, Produtos farmacêuticos","Hospital Garcia de Orta, E. P. E. (506361470)","MERCK SHARP & DOHME, LDA. (500191360)","6.719,58 €",14-01-2019,18-12-2018,365 dias,"Portugal, Setúbal, Almada","Artigo 24.º, n.º 1, alínea e), subalínea iii) do Código dos Contratos Públicos","","",,,,Não aplicável.,Não aplicável.,FALSE
REAGENTE DET. QUANT. TEMPO PROTROMBINA EMB.,Ajuste Direto Regime Geral,Aquisição de bens móveis,"33600000-6, Produtos farmacêuticos","Hospital Garcia de Orta, E. P. E. (506361470)",ROCHE SISTEMA DE DIAGNOSTICOS (504282921),"16.417,80 €",14-01-2019,19-12-2018,90 dias,"Portugal, Setúbal, Almada","Artigo 26.º, n.º 1, alínea a) do Código dos Contratos Públicos","","",,,,Não aplicável.,Não aplicável.,FALSE
ABACAVIR 300 MG COMP,Consulta Prévia,Aquisição de bens móveis,"33600000-6, Produtos farmacêuticos","Hospital Garcia de Orta, E. P. E. (506361470)",MYLAN (502248793),"15.960,00 €",14-01-2019,21-12-2018,30 dias,"Portugal, Setúbal, Almada","Artigo 20.º, n.º 1, alínea c) do Código dos Contratos Públicos","","",,,,Não aplicável.,Não aplicável.,FALSE
SELANTE HEMOSTÁTICO MATRIZ ESTÉRIL - FLOSEAL,Ajuste Direto Regime Geral,Aquisição de bens móveis,"33600000-6, Produtos farmacêuticos","Hospital Garcia de Orta, E. P. E. (506361470)","BAXTER MEDICO - FARMACEUTICO, LDA (503347345)","9.600,00 €",14-01-2019,18-12-2018,180 dias,"Portugal, Setúbal, Almada","Artigo 24.º, n.º 1, alínea e), subalínea iii) do Código dos Contratos Públicos","","",,,,Não aplicável.,Não aplicável.,FALSE
EFAVIRENZ 600 MG + EMTRICITABINA 200 MG + TENOFOVIR 245 MG COMP,Ao abrigo de acordo-quadro (art.º 259.º),Aquisição de bens móveis,"33600000-6, Produtos farmacêuticos","Hospital Garcia de Orta, E. P. E. (506361470)","Sandoz Farmacêutica, Lda. (506985261)","18.000,00 €",14-01-2019,18-12-2018,180 dias,"Portugal, Setúbal, Almada",Artigo 259.º do Código dos Contratos Públicos,"","",,,,3430281,CP 2018/55,FALSE
Medicamentos do Foro Oncológico para 2018 - CPA 2015/6,Ao abrigo de acordo-quadro (art.º 259.º),Aquisição de bens móveis,"33600000-6, Produtos farmacêuticos","Hospital Garcia de Orta, E. P. E. (506361470)","PFIZER BIOFARMACEUTICA, SOCIEDADE UNIPESSOAL, LDA (513300376)","29.102,25 €",11-01-2019,10-05-2018,365 dias,"Portugal, Setúbal, Almada",Artigo 259.º do Código dos Contratos Públicos,"","",,,,1771819,CP 2015/6 - Acordo quadro para o fornecimento de Medicamentos do Foro Oncológico,FALSE
Medicamentos do Foro Oncológico para 2018 - CPA 2015/6,Ao abrigo de acordo-quadro (art.º 259.º),Aquisição de bens móveis,"33600000-6, Produtos farmacêuticos","Hospital Garcia de Orta, E. P. E. (506361470)","AbbVie, Lda (510229050)","46.121,40 €",11-01-2019,10-05-2018,365 dias,"Portugal, Setúbal, Almada",Artigo 259.º do Código dos Contratos Públicos,"","",,,,1771819,CP 2015/6 - Acordo quadro para o fornecimento de Medicamentos do Foro Oncológico,FALSE
Medicamentos do Foro Oncológico para 2018 - CPA 2015/6,Ao abrigo de acordo-quadro (art.º 259.º),Aquisição de bens móveis,"33600000-6, Produtos farmacêuticos","Hospital Garcia de Orta, E. P. E. (506361470)",shire (509264662),"2.847,20 €",11-01-2019,10-05-2018,365 dias,"Portugal, Setúbal, Almada",Artigo 259.º do Código dos Contratos Públicos,"","",,,,1771819,CP 2015/6 - Acordo quadro para o fornecimento de Medicamentos do Foro Oncológico,FALSE
Medicamentos do Foro Oncológico para 2018 - CPA 2015/6,Ao abrigo de acordo-quadro (art.º 259.º),Aquisição de bens móveis,"33600000-6, Produtos farmacêuticos","Hospital Garcia de Orta, E. P. E. (506361470)","ACCORD HEALTHCARE, UNIPESSOAL, LDA (508622263)","8.770,00 €",11-01-2019,10-05-2018,365 dias,"Portugal, Setúbal, Almada",Artigo 259.º do Código dos Contratos Públicos,"","",,,,1771819,CP 2015/6 - Acordo quadro para o fornecimento de Medicamentos do Foro Oncológico,FALSE
Medicamentos do Foro Oncológico para 2018 - CPA 2015/6,Ao abrigo de acordo-quadro (art.º 259.º),Aquisição de bens móveis,"33600000-6, Produtos farmacêuticos","Hospital Garcia de Orta, E. P. E. (506361470)",MEDAC - SUCURSAL EM PORTUGAL (980369959),"1.050,42 €",11-01-2019,10-05-2018,365 dias,"Portugal, Setúbal, Almada",Artigo 259.º do Código dos Contratos Públicos,"","",,,,1771819,CP 2015/6 - Acordo quadro para o fornecimento de Medicamentos do Foro Oncológico,FALSE
Medicamentos do Foro Oncológico para 2018 - CPA 2015/6,Ao abrigo de acordo-quadro (art.º 259.º),Aquisição de bens móveis,"33600000-6, Produtos farmacêuticos","Hospital Garcia de Orta, E. P. E. (506361470)","TEVA PHARMA - PRODUTOS FARMACEUTICOS,LDA (507045491)","4.400,00 €",11-01-2019,10-05-2018,365 dias,"Portugal, Setúbal, Almada",Artigo 259.º do Código dos Contratos Públicos,"","",,,,1771819,CP 2015/6 - Acordo quadro para o fornecimento de Medicamentos do Foro Oncológico,FALSE
Medicamentos do Foro Oncológico para 2018 - CPA 2015/6,Ao abrigo de acordo-quadro (art.º 259.º),Aquisição de bens móveis,"33600000-6, Produtos farmacêuticos","Hospital Garcia de Orta, E. P. E. (506361470)",TECNIMEDE-Sociedade Técnico-Medicinal SA (500626413),"7.875,00 €",11-01-2019,10-05-2018,365 dias,"Portugal, Setúbal, Almada",Artigo 259.º do Código dos Contratos Públicos,"","",,,,1771819,CP 2015/6 - Acordo quadro para o fornecimento de Medicamentos do Foro Oncológico,FALSE
Medicamentos do Foro Oncológico para 2018 - CPA 2015/6,Ao abrigo de acordo-quadro (art.º 259.º),Aquisição de bens móveis,"33600000-6, Produtos farmacêuticos","Hospital Garcia de Orta, E. P. E. (506361470)","ROCHE FARMACÊUTICA QUIMICA, LDA. (500233810)","386.746,88 €",11-01-2019,10-05-2018,365 dias,"Portugal, Setúbal, Almada",Artigo 259.º do Código dos Contratos Públicos,"","",,,,1771819,CP 2015/6 - Acordo quadro para o fornecimento de Medicamentos do Foro Oncológico,FALSE
Medicamentos do Foro Oncológico para 2018 - CPA 2015/6,Ao abrigo de acordo-quadro (art.º 259.º),Aquisição de bens móveis,"33600000-6, Produtos farmacêuticos","Hospital Garcia de Orta, E. P. E. (506361470)","Novartis Farma, SA (500063524)","76.214,45 €",11-01-2019,10-05-2018,365 dias,"Portugal, Setúbal, Almada",Artigo 259.º do Código dos Contratos Públicos,"","",,,,1771819,CP 2015/6 - Acordo quadro para o fornecimento de Medicamentos do Foro Oncológico,FALSE
Medicamentos do Foro Oncológico para 2018 - CPA 2015/6,Ao abrigo de acordo-quadro (art.º 259.º),Aquisição de bens móveis,"33600000-6, Produtos farmacêuticos","Hospital Garcia de Orta, E. P. E. (506361470)","Laboratórios Pfizer, Lda (500162166)","589,56 €",11-01-2019,10-05-2018,365 dias,"Portugal, Setúbal, Almada",Artigo 259.º do Código dos Contratos Públicos,"","",,,,1771819,CP 2015/6 - Acordo quadro para o fornecimento de Medicamentos do Foro Oncológico,FALSE
Medicamentos do Foro Oncológico para 2018 - CPA 2015/6,Ao abrigo de acordo-quadro (art.º 259.º),Aquisição de bens móveis,"33600000-6, Produtos farmacêuticos","Hospital Garcia de Orta, E. P. E. (506361470)",GSK PROD. FARMACEUTICOS (500139962),"28.365,87 €",11-01-2019,10-05-2018,365 dias,"Portugal, Setúbal, Almada",Artigo 259.º do Código dos Contratos Públicos,"","",,,,1771819,CP 2015/6 - Acordo quadro para o fornecimento de Medicamentos do Foro Oncológico,FALSE
Medicamentos do Foro Oncológico para 2018 - CPA 2015/6,Ao abrigo de acordo-quadro (art.º 259.º),Aquisição de bens móveis,"33600000-6, Produtos farmacêuticos","Hospital Garcia de Orta, E. P. E. (506361470)","GENERIS FARMACEUTICA, SA (505625520)","306,00 €",11-01-2019,10-05-2018,365 dias,"Portugal, Setúbal, Almada",Artigo 259.º do Código dos Contratos Públicos,"","",,,,1771819,CP 2015/6 - Acordo quadro para o fornecimento de Medicamentos do Foro Oncológico,FALSE
Medicamentos do Foro Oncológico para 2018 - CPA 2015/6,Ao abrigo de acordo-quadro (art.º 259.º),Aquisição de bens móveis,"33600000-6, Produtos farmacêuticos","Hospital Garcia de Orta, E. P. E. (506361470)",BRISTOL-MYERS SQUIBB PORTUGAL (500207879),"140.320,76 €",11-01-2019,10-05-2018,365 dias,"Portugal, Setúbal, Almada",Artigo 259.º do Código dos Contratos Públicos,"","",,,,1771819,CP 2015/6 - Acordo quadro para o fornecimento de Medicamentos do Foro Oncológico,FALSE
Medicamentos do Foro Oncológico para 2018 - CPA 2015/6,Ao abrigo de acordo-quadro (art.º 259.º),Aquisição de bens móveis,"33600000-6, Produtos farmacêuticos","Hospital Garcia de Orta, E. P. E. (506361470)","Astellas Farma, Lda. (502540249)","3.686,13 €",11-01-2019,10-05-2018,365 dias,"Portugal, Setúbal, Almada",Artigo 259.º do Código dos Contratos Públicos,"","",,,,1771819,CP 2015/6 - Acordo quadro para o fornecimento de Medicamentos do Foro Oncológico,FALSE
Medicamentos do Foro Oncológico para 2018 - CPA 2015/6,Ao abrigo de acordo-quadro (art.º 259.º),Aquisição de bens móveis,"33600000-6, Produtos farmacêuticos","Hospital Garcia de Orta, E. P. E. (506361470)","BAXTER MEDICO - FARMACEUTICO, LDA (503347345)","786,24 €",11-01-2019,10-05-2018,365 dias,"Portugal, Setúbal, Almada",Artigo 259.º do Código dos Contratos Públicos,"","",,,,1771819,CP 2015/6 - Acordo quadro para o fornecimento de Medicamentos do Foro Oncológico,FALSE
