Objeto do Contrato,Tipo de Procedimento,Tipo(s) de Contrato,CPVs,Entidade(s) Adjudicante(s),Entidade(s) Adjudicatária(s),Preço Contratual,Data de Publicação,Data de Celebração do Contrato,Prazo de Execução,Local de Execução,Fundamentação,Data de Fecho do Contrato,Preço Total Efetivo,Causas das Alterações ao Prazo,Causas das Alterações ao Preço,Estado,N.º registo do Acordo Quadro,Descrição do Acordo Quadro,Procedimento Centralizado
Material Informática,Ajuste Direto Regime Geral,Aquisição de bens móveis,"30000000-9, Máquinas, equipamento e material de escritório e de informática, excepto mobiliário e pacotes de programas (software)",Serviço de Intervenção nos Comportamentos Aditivos e nas Dependências (600084884),Dualinfor (504281704),"9.634,40 €",07-01-2016,16-12-2015,10 dias,"Portugal, Lisboa, Lisboa","Artigo 20.º, n.º 1, alínea a) do Código dos Contratos Públicos",,,,,,Não aplicável.,Não aplicável.,FALSE
Manutenção Evolutiva SGIP,Ajuste Direto Regime Geral,Aquisição de serviços,"72000000-5, Serviços de TI: consultoria, desenvolvimento de software, Internet e apoio",Serviço de Intervenção nos Comportamentos Aditivos e nas Dependências (600084884),"Ablewise Consulting, S.A. (513609687)","9.900,00 €",07-01-2016,14-12-2015,15 dias,"Portugal, Lisboa, Lisboa","Artigo 20.º, n.º 1, alínea a) do Código dos Contratos Públicos",,,,,,Não aplicável.,Não aplicável.,FALSE
Aquisição de Cartazes,Ajuste Direto Regime Geral,Aquisição de bens móveis,"22000000-0, Material impresso e afins",Serviço de Intervenção nos Comportamentos Aditivos e nas Dependências (600084884),JG Artes Gráficas  (503728640),"444,26 €",07-01-2016,09-11-2015,30 dias,"Portugal, Lisboa, Lisboa","Artigo 20.º, n.º 1, alínea a) do Código dos Contratos Públicos",,,,,,Não aplicável.,Não aplicável.,FALSE
Manutenção site Rarha,Ajuste Direto Regime Geral,Aquisição de serviços,"50000000-5, Serviços de reparação e manutenção",Serviço de Intervenção nos Comportamentos Aditivos e nas Dependências (600084884),ARMIS (507349601),"9.000,00 €",07-01-2016,03-02-2015,260 dias,"Portugal, Lisboa, Lisboa","Artigo 20.º, n.º 1, alínea a) do Código dos Contratos Públicos",,,,,,Não aplicável.,Não aplicável.,FALSE
Software - Right Fax,Ajuste Direto Regime Geral,Aquisição de bens móveis,"48000000-8, Pacotes de software e sistemas de informação",Serviço de Intervenção nos Comportamentos Aditivos e nas Dependências (600084884),"Emethodus Informática, Lda (503923478)","7.100,40 €",07-01-2016,18-09-2015,60 dias,"Portugal, Lisboa, Lisboa","Artigo 20.º, n.º 1, alínea a) do Código dos Contratos Públicos",,,,,,Não aplicável.,Não aplicável.,FALSE
Estudo Viabilidade consumo álcool,Ajuste Direto Regime Geral,Aquisição de serviços,"73000000-2, Serviços de investigação e desenvolvimento e serviços de consultoria conexos",Serviço de Intervenção nos Comportamentos Aditivos e nas Dependências (600084884),Faculdade de Ciências Sociais e Humanas da UL (502151595),"25.200,00 €",07-01-2016,21-05-2015,213 dias,"Portugal, Lisboa, Lisboa","Artigo 20.º, n.º 1, alínea a) do Código dos Contratos Públicos",,,,,,Não aplicável.,Não aplicável.,FALSE
