Objeto do Contrato,Tipo de Procedimento,Tipo(s) de Contrato,CPVs,Entidade(s) Adjudicante(s),Entidade(s) Adjudicatária(s),Preço Contratual,Data de Publicação,Data de Celebração do Contrato,Prazo de Execução,Local de Execução,Fundamentação,Data de Fecho do Contrato,Preço Total Efetivo,Causas das Alterações ao Prazo,Causas das Alterações ao Preço,Estado,N.º registo do Acordo Quadro,Descrição do Acordo Quadro,Procedimento Centralizado
PINÇAS HEMOSTÁTICAS PARA SELADOR DE VASOS C/DISPONIBILIZAÇÃO DE EQUIPAMENTO,Concurso público,Aquisição de bens móveis,"33140000-3, Material médico de consumo","Instituto Português de Oncologia de Coimbra Francisco Gentil, E. P. E. (506361438)",MEDTRONIC PORTUGAL LDA (504223933),"84.350,00 €",12-09-2016,08-08-2016,146 dias,"Portugal, Coimbra, Coimbra","Artigo 20.º, n.º 1, alínea b) do Código dos Contratos Públicos","","",,"",,Não aplicável.,Não aplicável.,FALSE
SACOS COLECTORES E SISTEMAS PARA IRRIGAÇÃO,Ajuste Direto Regime Geral,Aquisição de bens móveis,"33140000-3, Material médico de consumo","Instituto Português de Oncologia de Coimbra Francisco Gentil, E. P. E. (506361438)",P.M.H.PROD. MEDICO HOSPITALARES (502376899),"7.973,50 €",12-09-2016,08-07-2016,177 dias,"Portugal, Coimbra, Coimbra","Artigo 20.º, n.º 1, alínea a) do Código dos Contratos Públicos","","",,"",,Não aplicável.,Não aplicável.,FALSE
SACOS COLECTORES E SISTEMAS PARA IRRIGAÇÃO,Ajuste Direto Regime Geral,Aquisição de bens móveis,"33140000-3, Material médico de consumo","Instituto Português de Oncologia de Coimbra Francisco Gentil, E. P. E. (506361438)",MED X-RAY SISTEMAS MEDICOS LDA (506187071),"376,50 €",12-09-2016,08-07-2016,177 dias,"Portugal, Coimbra, Coimbra","Artigo 20.º, n.º 1, alínea a) do Código dos Contratos Públicos","","",,"",,Não aplicável.,Não aplicável.,FALSE
SACOS COLECTORES E SISTEMAS PARA IRRIGAÇÃO,Ajuste Direto Regime Geral,Aquisição de bens móveis,"33140000-3, Material médico de consumo","Instituto Português de Oncologia de Coimbra Francisco Gentil, E. P. E. (506361438)",EZEQUIEL PANAO JORGE LDA (501412727),"1.496,50 €",12-09-2016,08-07-2016,177 dias,"Portugal, Coimbra, Coimbra","Artigo 20.º, n.º 1, alínea a) do Código dos Contratos Públicos","","",,"",,Não aplicável.,Não aplicável.,FALSE
SACOS COLECTORES E SISTEMAS PARA IRRIGAÇÃO,Ajuste Direto Regime Geral,Aquisição de bens móveis,"33140000-3, Material médico de consumo","Instituto Português de Oncologia de Coimbra Francisco Gentil, E. P. E. (506361438)",TEPREL (502262184),"194,40 €",12-09-2016,08-07-2016,177 dias,"Portugal, Coimbra, Coimbra","Artigo 20.º, n.º 1, alínea a) do Código dos Contratos Públicos","","",,"",,Não aplicável.,Não aplicável.,FALSE
SACOS COLECTORES E SISTEMAS PARA IRRIGAÇÃO,Ajuste Direto Regime Geral,Aquisição de bens móveis,"33140000-3, Material médico de consumo","Instituto Português de Oncologia de Coimbra Francisco Gentil, E. P. E. (506361438)","SARSTEDT - TECNOLOGIA DE LABORATÓRIO, S.A. (503019461)","54,70 €",12-09-2016,08-07-2016,177 dias,"Portugal, Coimbra, Coimbra","Artigo 20.º, n.º 1, alínea a) do Código dos Contratos Públicos","","",,"",,Não aplicável.,Não aplicável.,FALSE
SACOS COLECTORES E SISTEMAS PARA IRRIGAÇÃO,Ajuste Direto Regime Geral,Aquisição de bens móveis,"33140000-3, Material médico de consumo","Instituto Português de Oncologia de Coimbra Francisco Gentil, E. P. E. (506361438)",EXPOMEDICA (501886621),"525,00 €",12-09-2016,08-07-2016,177 dias,"Portugal, Coimbra, Coimbra","Artigo 20.º, n.º 1, alínea a) do Código dos Contratos Públicos","","",,"",,Não aplicável.,Não aplicável.,FALSE
SACOS COLECTORES E SISTEMAS PARA IRRIGAÇÃO,Ajuste Direto Regime Geral,Aquisição de bens móveis,"33140000-3, Material médico de consumo","Instituto Português de Oncologia de Coimbra Francisco Gentil, E. P. E. (506361438)","B.BRAUN MEDICAL,LDA (501506543)","90,00 €",12-09-2016,08-07-2016,177 dias,"Portugal, Coimbra, Coimbra","Artigo 20.º, n.º 1, alínea a) do Código dos Contratos Públicos","","",,"",,Não aplicável.,Não aplicável.,FALSE
PRODUTOS DE HIGIENE E ESTERILIZAÇÃO,Ajuste Direto Regime Geral,Aquisição de bens móveis,"33100000-1, Equipamento médico","Instituto Português de Oncologia de Coimbra Francisco Gentil, E. P. E. (506361438)","LABLAD, LDA (502629703)","52,24 €",12-09-2016,27-05-2016,218 dias,"Portugal, Coimbra, Coimbra","Artigo 20.º, n.º 1, alínea a) do Código dos Contratos Públicos","","",,"",,Não aplicável.,Não aplicável.,FALSE
PRODUTOS DE HIGIENE E ESTERILIZAÇÃO,Ajuste Direto Regime Geral,Aquisição de bens móveis,"33100000-1, Equipamento médico","Instituto Português de Oncologia de Coimbra Francisco Gentil, E. P. E. (506361438)",JOHNSON & JOHNSON (500153370),"7.873,00 €",12-09-2016,27-05-2016,218 dias,"Portugal, Coimbra, Coimbra","Artigo 20.º, n.º 1, alínea a) do Código dos Contratos Públicos","","",,"",,Não aplicável.,Não aplicável.,FALSE
PRODUTOS DE HIGIENE E ESTERILIZAÇÃO,Ajuste Direto Regime Geral,Aquisição de bens móveis,"33100000-1, Equipamento médico","Instituto Português de Oncologia de Coimbra Francisco Gentil, E. P. E. (506361438)","FACTOR PLUS, PROD. MEDICOS E HOSP, LDA (502810645)","5.231,60 €",12-09-2016,27-05-2016,218 dias,"Portugal, Coimbra, Coimbra","Artigo 20.º, n.º 1, alínea a) do Código dos Contratos Públicos","","",,"",,Não aplicável.,Não aplicável.,FALSE
PRODUTOS DE HIGIENE E ESTERILIZAÇÃO,Ajuste Direto Regime Geral,Aquisição de bens móveis,"33100000-1, Equipamento médico","Instituto Português de Oncologia de Coimbra Francisco Gentil, E. P. E. (506361438)","EPJMEDICA-ART. MED. E HOSPITALARES,LDA (506820513)","6.162,63 €",12-09-2016,27-05-2016,218 dias,"Portugal, Coimbra, Coimbra","Artigo 20.º, n.º 1, alínea a) do Código dos Contratos Públicos","","",,"",,Não aplicável.,Não aplicável.,FALSE
PRODUTOS DE HIGIENE E ESTERILIZAÇÃO,Ajuste Direto Regime Geral,Aquisição de bens móveis,"33100000-1, Equipamento médico","Instituto Português de Oncologia de Coimbra Francisco Gentil, E. P. E. (506361438)","DIMOR LUSITANA, LDA (500730741)","2.310,00 €",12-09-2016,27-05-2016,218 dias,"Portugal, Coimbra, Coimbra","Artigo 20.º, n.º 1, alínea a) do Código dos Contratos Públicos","","",,"",,Não aplicável.,Não aplicável.,FALSE
PRODUTOS DE HIGIENE E ESTERILIZAÇÃO,Ajuste Direto Regime Geral,Aquisição de bens móveis,"33100000-1, Equipamento médico","Instituto Português de Oncologia de Coimbra Francisco Gentil, E. P. E. (506361438)","BASTOS VIEGAS, SA (500042772)","1.785,60 €",12-09-2016,27-05-2016,218 dias,"Portugal, Coimbra, Coimbra","Artigo 20.º, n.º 1, alínea a) do Código dos Contratos Públicos","","",,"",,Não aplicável.,Não aplicável.,FALSE
PRODUTOS DE HIGIENE E ESTERILIZAÇÃO,Ajuste Direto Regime Geral,Aquisição de bens móveis,"33100000-1, Equipamento médico","Instituto Português de Oncologia de Coimbra Francisco Gentil, E. P. E. (506361438)","3M PORTUGAL, LDA (500193940)","4.229,48 €",12-09-2016,27-05-2016,218 dias,"Portugal, Coimbra, Coimbra","Artigo 20.º, n.º 1, alínea a) do Código dos Contratos Públicos","","",,"",,Não aplicável.,Não aplicável.,FALSE
IODO-123 IODETO DE SODIO,Ajuste Direto Regime Geral,Aquisição de bens móveis,"33600000-6, Produtos farmacêuticos","Instituto Português de Oncologia de Coimbra Francisco Gentil, E. P. E. (506361438)","SATIS UNIPESSOAL, LDA (500098140)","270,00 €",12-09-2016,25-05-2015,220 dias,"Portugal, Coimbra, Coimbra","Artigo 24.º, n.º 1, alínea e) do Código dos Contratos Públicos",02-06-2015,"90,00 €",,Diminuição das necessidades,,Não aplicável.,Não aplicável.,FALSE
MIBG-I 123,Ajuste Direto Regime Geral,Aquisição de bens móveis,"33600000-6, Produtos farmacêuticos","Instituto Português de Oncologia de Coimbra Francisco Gentil, E. P. E. (506361438)","SATIS UNIPESSOAL, LDA (500098140)","700,00 €",12-09-2016,12-05-2015,233 dias,"Portugal, Coimbra, Coimbra","Artigo 20.º, n.º 1, alínea a) do Código dos Contratos Públicos",17-12-2015,"1.750,00 €",,"",,Não aplicável.,Não aplicável.,FALSE
