Objeto do Contrato,Tipo de Procedimento,Tipo(s) de Contrato,CPVs,Entidade(s) Adjudicante(s),Entidade(s) Adjudicatária(s),Preço Contratual,Data de Publicação,Data de Celebração do Contrato,Prazo de Execução,Local de Execução,Fundamentação,Data de Fecho do Contrato,Preço Total Efetivo,Causas das Alterações ao Prazo,Causas das Alterações ao Preço,Estado,N.º registo do Acordo Quadro,Descrição do Acordo Quadro,Procedimento Centralizado
TENOFOVIR 245 MG + ENTRICITABINA 200 MG CAP/COMP,Ajuste Direto Regime Geral,Aquisição de bens móveis,"33600000-6, Produtos farmacêuticos","Centro Hospitalar de Setúbal, E. P. E. (507606787)","Sandoz Farmacêutica, Lda (506985261)","40.681,50 €",16-08-2018,08-08-2018,15 dias,"Portugal, Setúbal, Setúbal","Artigo 24.º, n.º 1, alínea e), subalínea iii) do Código dos Contratos Públicos",,,,,,Não aplicável.,Não aplicável.,FALSE
Teriflunomida 14 mg Comp Dolutegravir 50 mg + Abacavir 600 mg + Lamivudina 300 mg Comp Darunavir 800 mg + Cobicistate 150 mg Comp,Ao abrigo de acordo-quadro (art.º 259.º),Aquisição de bens móveis,"33600000-6, Produtos farmacêuticos","Centro Hospitalar de Setúbal, E. P. E. (507606787)","SANOFI - PRODUTOS FARMACÊUTICOS LDA (500134960), VIIVHIV HEALTHCARE UNIPESSOAL LDA (509117961), Janssen Cilag farmacêutica, Lda. (500189412)","151.900,77 €",16-08-2018,01-08-2018,15 dias,"Portugal, Setúbal, Setúbal",Artigo 259.º do Código dos Contratos Públicos,,,,,,1513257,Acordo quadro para fornecimento de Medicamentos diversos II   às Instituições e Serviços do Serviço Nacional de Saúde,FALSE
"INTERFEROM BETA 1B,8000000U.I.,FR/AMP 1ML Emtricitabina 200 mg + Tenofovir alafenamida 10 mg Comp Emtricitabina 200 mg + Tenofovir alafenamida 25 mg Comp Etanercept 50 mg/ml Sol inj Caneta 1 ml SC ETANERCEPT, 50MG, SERINGA ",Ao abrigo de acordo-quadro (art.º 259.º),Aquisição de bens móveis,"33600000-6, Produtos farmacêuticos","Centro Hospitalar de Setúbal, E. P. E. (507606787)","GILEAD SCIENCES LDA (503604704), Pfizer Biofarmaceutica, Sociedade Unipessoal Lda. (513300376), Bayer Portugal S.A. (500043256)","36.016,98 €",16-08-2018,01-08-2018,15 dias,"Portugal, Setúbal, Setúbal",Artigo 259.º do Código dos Contratos Públicos,,,,,,2969238,"CP 2017/6 - Acordo Quadro para fornecimento de Medicamentos do Foro Oncológico e Imunomoduladores, às Instituições e Serviços do Serviço Nacional de Saúde",FALSE
Ibrutinib 140 mg Cáps Fulvestrant 250 mg/5 ml Sol inj Ser 5 ml IM,Ao abrigo de acordo-quadro (art.º 259.º),Aquisição de bens móveis,"33600000-6, Produtos farmacêuticos","Centro Hospitalar de Setúbal, E. P. E. (507606787)","ASTRAZENECA PRODUTOS FARMACÊUTICOS, LDA (502942240), Janssen Cilag farmacêutica, Lda. (500189412)","35.352,90 €",16-08-2018,31-07-2018,15 dias,"Portugal, Setúbal, Setúbal",Artigo 259.º do Código dos Contratos Públicos,,,,,,2556987,"CP 2017/65 - Acordo Quadro para fornecimento de Medicamentos de Várias áreas Terapêuticas, às Instituições e Serviços do Serviço Nacional de Saúde",FALSE
Glecaprevir 100mg+Pibrentasvir 40 mg comp. Elbasvir 50 mg + Grazoprevir 100 mg Comp LEDIPASVIR 90 MG/SOFOSBUVIR 400 MG COMP.,Ao abrigo de acordo-quadro (art.º 259.º),Aquisição de bens móveis,"33600000-6, Produtos farmacêuticos","Centro Hospitalar de Setúbal, E. P. E. (507606787)","MERCK SHARP E DOHME, LDA (500191360), ABBVIE, Lda (510229050), GILEAD SCIENCES LDA (503604704)","33.700,74 €",16-08-2018,01-08-2018,15 dias,"Portugal, Setúbal, Setúbal",Artigo 259.º do Código dos Contratos Públicos,,,,,,3023927,CP 2017/67 - Medicamentos para a Hepatite C crónica,FALSE
Imunoglobulina humana normal 100 mg/ml Sol inj Fr 100 ml IV Imunoglobulina humana normal 100 mg/ml Sol inj Fr 200 ml IV Imunoglobulina humana normal 100 mg/ml Sol inj Fr 50 ml IV,Ao abrigo de acordo-quadro (art.º 259.º),Aquisição de bens móveis,"33600000-6, Produtos farmacêuticos","Centro Hospitalar de Setúbal, E. P. E. (507606787)",OCTAPHARMA (502820780),"13.635,00 €",16-08-2018,10-08-2018,15 dias,"Portugal, Setúbal, Setúbal",Artigo 259.º do Código dos Contratos Públicos,,,,,,2800702,CP 2017/9 - Acordo quadro para fornecimento de Derivados do Plasma Humano às Instituições e Serviços do Serviço Nacional de Saúde,FALSE
Ruxolitinib 20 mg Comp Secucinumab 150 mg/1 ml Sol inj Caneta 1 ml SC,Ao abrigo de acordo-quadro (art.º 259.º),Aquisição de bens móveis,"33600000-6, Produtos farmacêuticos","Centro Hospitalar de Setúbal, E. P. E. (507606787)","NOVARTIS FARMA-PROD FARMAC.,SA (500063524)","41.134,16 €",16-08-2018,09-08-2018,150 dias,"Portugal, Setúbal, Setúbal",Artigo 259.º do Código dos Contratos Públicos,,,,,,2545980,CP 2017/61 - Acordo quadro para fornecimento de Medicamentos Diversos   às Instituições e Serviços do Serviço Nacional de Saúde,FALSE
Etanercept 50 mg/ml Sol inj Caneta 1 ml SC,Ao abrigo de acordo-quadro (art.º 259.º),Aquisição de bens móveis,"33600000-6, Produtos farmacêuticos","Centro Hospitalar de Setúbal, E. P. E. (507606787)","PFIZER BIOFARMACEUTICA, SOCIEDADE UNIPESSOAL LDA. (513300376)","11.054,40 €",16-08-2018,13-08-2018,15 dias,"Portugal, Setúbal, Setúbal",Artigo 259.º do Código dos Contratos Públicos,,,,,,2969238,"CP 2017/6 - Acordo Quadro para fornecimento de Medicamentos do Foro Oncológico e Imunomoduladores, às Instituições e Serviços do Serviço Nacional de Saúde",FALSE
Teriflunomida 14 mg Comp,Ao abrigo de acordo-quadro (art.º 259.º),Aquisição de bens móveis,"33600000-6, Produtos farmacêuticos","Centro Hospitalar de Setúbal, E. P. E. (507606787)","SANOFI- PROD.FARMACEUTICOS, LDA (500134960)","30.853,80 €",16-08-2018,13-08-2018,150 dias,"Portugal, Setúbal, Setúbal",Artigo 259.º do Código dos Contratos Públicos,,,,,,2969238,"CP 2017/6 - Acordo Quadro para fornecimento de Medicamentos do Foro Oncológico e Imunomoduladores, às Instituições e Serviços do Serviço Nacional de Saúde",FALSE
"RITUXIMAB,500MG/ 50ML SOL INJ FR 50 ML IV",Ao abrigo de acordo-quadro (art.º 259.º),Aquisição de bens móveis,"33600000-6, Produtos farmacêuticos","Centro Hospitalar de Setúbal, E. P. E. (507606787)","Pharmakern Portugal Sociedade Unipessoal, Lda. (507002571)","17.250,00 €",14-08-2018,13-08-2018,90 dias,"Portugal, Setúbal, Setúbal",Artigo 259.º do Código dos Contratos Públicos,,,,,,2969238,"CP 2017/6 - Acordo Quadro para fornecimento de Medicamentos do Foro Oncológico e Imunomoduladores, às Instituições e Serviços do Serviço Nacional de Saúde",FALSE
Sofosbuvir 400 mg + Velpatasvir 100 mg Comp Elbasvir 50 mg + Grazoprevir 100 mg Comp Glecaprevir 100mg+Pibrentasvir 40 mg comp.,Ao abrigo de acordo-quadro (art.º 259.º),Aquisição de bens móveis,"33600000-6, Produtos farmacêuticos","Centro Hospitalar de Setúbal, E. P. E. (507606787)","MERCK SHARP & DOHME,LDA (500191360), Abbvie, Lda (510229050), GILEAD SCIENCES LDA (503604704)","20.200,74 €",14-08-2018,13-08-2018,15 dias,"Portugal, Setúbal, Setúbal",Artigo 259.º do Código dos Contratos Públicos,,,,,,3023927,CP 2017/67 - Medicamentos para a Hepatite C crónica,FALSE
