Objeto do Contrato,Tipo de Procedimento,Tipo(s) de Contrato,CPVs,Entidade(s) Adjudicante(s),Entidade(s) Adjudicatária(s),Preço Contratual,Data de Publicação,Data de Celebração do Contrato,Prazo de Execução,Local de Execução,Fundamentação,Data de Fecho do Contrato,Preço Total Efetivo,Causas das Alterações ao Prazo,Causas das Alterações ao Preço,Estado,N.º registo do Acordo Quadro,Descrição do Acordo Quadro,Procedimento Centralizado
Aquisição de Daclatasvir 60mg comp,Ajuste Direto Regime Geral,Aquisição de bens móveis,"33000000-0, Equipamento médico, medicamentos e produtos para cuidados pessoais","Centro Hospitalar de Lisboa Central, E.P.E. (CHLC) (508080142)","Bristol-Myers Squibb Farmacêutica Portuguesa, Sa (500048193)","217.273,42 €",11-08-2015,05-08-2015,180 dias,"Portugal, Lisboa, Lisboa","Artigo 24.º, n.º 1, alínea e) do Código dos Contratos Públicos",,,,,,Não aplicável.,Não aplicável.,FALSE
Aquisição de Etanercept 50mg/1ml sol inj caneta,Ao abrigo de acordo-quadro (art.º 259.º),Aquisição de bens móveis,"33000000-0, Equipamento médico, medicamentos e produtos para cuidados pessoais","Centro Hospitalar de Lisboa Central, E. P. E. (508080142)","Pfizer Biofarmacêutica, Sociedade Unipessoal, Lda (513300376)","919.978,50 €",11-08-2015,11-08-2015,142 dias,"Portugal, Lisboa, Lisboa",Artigo 259.º do Código dos Contratos Públicos,,,,,,345900,CONCURSO PÚBLICO PARA A CELEBRAÇÃO DE CONTRATOS PÚBLICOS DE APROVISIONAMENTO PARA AQUISIÇÃO MEDICAMENTOS DO FORO ONCOLÓGICO,FALSE
Aquisição de Infliximab 100mg pó conc. sol inj,Ajuste Direto Regime Geral,Aquisição de bens móveis,"33000000-0, Equipamento médico, medicamentos e produtos para cuidados pessoais","Centro Hospitalar de Lisboa Central, E. P. E. (508080142)","Merck Sharp & Dohme, Lda (500191360)","110.246,50 €",11-08-2015,04-08-2015,30 dias,"Portugal, Lisboa, Lisboa","Artigo 24.º, n.º 1, alínea e) do Código dos Contratos Públicos",,,,,,Não aplicável.,Não aplicável.,FALSE
"EMPREITADA DE RECONFIGURAÇÃO DA SALA DE PROCESSAMENTO DE CÉLULAS E INSTALAÇÕES TÉCNICAS E MECÂNICAS DE UNIDADE DE PRODUÇÃO DE ÁGUA REFRIGERADA (CHILLER) E UTA PARA O SERVIÇO DE HEMATOLOGIA DO CHLC, EPE (HSAC)",Ajuste Direto Regime Geral,Empreitadas de obras públicas,"45000000-7, Construção","Centro Hospitalar de Lisboa Central, E. P. E. (508080142)",TRATRIOBRA (506499430),"79.495,00 €",11-08-2015,03-08-2015,19 dias,"Portugal, Lisboa, Lisboa","Artigo 19.º, alínea a) do Código dos Contratos Públicos",,,,,,Não aplicável.,Não aplicável.,FALSE
"Cateteres centrais, forgaty e venosos",Concurso público,Aquisição de bens móveis,"33140000-3, Material médico de consumo","Centro Hospitalar de Lisboa Central, E. P. E. (508080142)","Medicinália Cormédica, Lda. (500684324)","124.013,50 €",10-08-2015,03-08-2015,150 dias,"Portugal, Lisboa, Lisboa","Artigo 20.º, n.º 1, alínea b) do Código dos Contratos Públicos",,,,,,Não aplicável.,Não aplicável.,FALSE
Prótese coronária em inox,Ajuste Direto Regime Geral,Aquisição de bens móveis,"33000000-0, Equipamento médico, medicamentos e produtos para cuidados pessoais","Centro Hospitalar de Lisboa Central, E. P. E. (508080142)",Biotronik Portugal (510726941),"16.680,00 €",10-08-2015,05-08-2015,149 dias,"Portugal, Lisboa, Lisboa","Artigo 20.º, n.º 1, alínea a) do Código dos Contratos Públicos",,,,,,Não aplicável.,Não aplicável.,FALSE
Endopróteses aórticas abdomimais e torácicas,Ao abrigo de acordo-quadro (art.º 259.º),Aquisição de bens móveis,"33000000-0, Equipamento médico, medicamentos e produtos para cuidados pessoais","Centro Hospitalar de Lisboa Central, E. P. E. (508080142)",Medtronic Portugal (504223933),"480.350,00 €",10-08-2015,04-08-2015,150 dias,"Portugal, Lisboa, Lisboa",Artigo 259.º do Código dos Contratos Públicos,,,,,,472711,1-2.0006/2012-Concurso Público Internacional Tendente à Celebração de Acordo Quadro para Selecção de Fornecedores de Endopróteses Aórticas Abdominais e Torácicas.,FALSE
Endopróteses aórticas abdomimais e torácicas,Ao abrigo de acordo-quadro (art.º 259.º),Aquisição de bens móveis,"33000000-0, Equipamento médico, medicamentos e produtos para cuidados pessoais","Centro Hospitalar de Lisboa Central, E. P. E. (508080142)",Medicinália Cormédica (500684324),"371.853,00 €",10-08-2015,28-07-2015,157 dias,"Portugal, Lisboa, Lisboa",Artigo 259.º do Código dos Contratos Públicos,,,,,,472711,1-2.0006/2012-Concurso Público Internacional Tendente à Celebração de Acordo Quadro para Selecção de Fornecedores de Endopróteses Aórticas Abdominais e Torácicas.,FALSE
Endopróteses aórticas abdomimais e torácicas,Ao abrigo de acordo-quadro (art.º 259.º),Aquisição de bens móveis,"33000000-0, Equipamento médico, medicamentos e produtos para cuidados pessoais","Centro Hospitalar de Lisboa Central, E. P. E. (508080142)",Dermis (507988990),"24.600,00 €",10-08-2015,24-07-2015,161 dias,"Portugal, Lisboa, Lisboa",Artigo 259.º do Código dos Contratos Públicos,,,,,,472711,1-2.0006/2012-Concurso Público Internacional Tendente à Celebração de Acordo Quadro para Selecção de Fornecedores de Endopróteses Aórticas Abdominais e Torácicas.,FALSE
Sistema de protese aortica,Concurso público,Aquisição de bens móveis,"33140000-3, Material médico de consumo","Centro Hospitalar de Lisboa Central, E. P. E. (508080142)",Medtronic (504223933),"330.000,00 €",10-08-2015,05-08-2015,155 dias,"Portugal, Lisboa, Lisboa","Artigo 20.º, n.º 1, alínea b) do Código dos Contratos Públicos",,,,,,Não aplicável.,Não aplicável.,FALSE
sição de Somatropina 10mg/2ml sol inj cartu 2ml SC,Ao abrigo de acordo-quadro (art.º 259.º),Aquisição de bens móveis,"33000000-0, Equipamento médico, medicamentos e produtos para cuidados pessoais","Centro Hospitalar de Lisboa Central, E. P. E. (508080142)","Ipsen Portugal-Prod. Farmacêuticos, Sa (502609800)","101.534,94 €",08-08-2015,08-08-2015,180 dias,"Portugal, Lisboa, Lisboa",Artigo 259.º do Código dos Contratos Públicos,,,,,,603979,"CONCURSO PÚBLICO PARA A CELEBRAÇÃO DE CONTRATOS PÚBLICOS DE APROVISIONAMENTO PARA A ÁREA DA SAÚDE, COM VISTA AO FORNECIMENTO DE HORMONAS E OUTROS MEDICAMENTOS USADOS NO TRATAMENTO DAS DOENÇAS ENDÓCRINAS, ÀS INSTITUIÇÕES E SERVIÇOS DO SERVIÇO NACIONAL DE SAÚDE",FALSE
Aquisição de caspofungina 50mg,Ao abrigo de acordo-quadro (art.º 259.º),Aquisição de bens móveis,"33000000-0, Equipamento médico, medicamentos e produtos para cuidados pessoais","Centro Hospitalar de Lisboa Central, E. P. E. (508080142)","Merck Sharp & Dohme, Lda (500191360)","220.760,00 €",08-08-2015,02-07-2015,180 dias,"Portugal, Lisboa, Lisboa",Artigo 259.º do Código dos Contratos Públicos,,,,,,455180,"CONCURSO PÚBLICO PARA A CELEBRAÇÃO DE CONTRATOS PÚBLICOS DE APROVISIONAMENTO PARA A ÁREA DA SAÚDE, COM VISTA AO FORNECIMENTO DE MEDICAMENTOS ANTI-INFECIOSOS: ANTIVÍRICOS E ANTIFÚNGICOS, ÀS INSTITUIÇÕES E SERVIÇOS DO SERVIÇO NACIONAL DE SAÚDE  ",FALSE
510699/15 - Aquisição de Verteporfina 15 mg pó sol. Inj. fr. IV e Kit Verteporfina,Ao abrigo de acordo-quadro (art.º 259.º),Aquisição de bens móveis,"33600000-6, Produtos farmacêuticos","Centro Hospitalar de Lisboa Central, E. P. E. (508080142)",Novartis Farma S. A. (500063524),"13.207,56 €",07-08-2015,14-07-2015,90 dias,"Portugal, Lisboa, Lisboa",Artigo 259.º do Código dos Contratos Públicos,,,,,,345900,CONCURSO PÚBLICO PARA A CELEBRAÇÃO DE CONTRATOS PÚBLICOS DE APROVISIONAMENTO PARA AQUISIÇÃO MEDICAMENTOS DO FORO ONCOLÓGICO,FALSE
510698/15 - Aquisição de Peginterferão alfa-2B 0.12 mg pó sol. Inj. caneta SC,Ao abrigo de acordo-quadro (art.º 259.º),Aquisição de bens móveis,"33600000-6, Produtos farmacêuticos","Centro Hospitalar de Lisboa Central, E. P. E. (508080142)","Merck Sharp & Dohme, Lda. (500191360)","10.605,00 €",07-08-2015,14-07-2015,90 dias,"Portugal, Lisboa, Lisboa",Artigo 259.º do Código dos Contratos Públicos,,,,,,345900,CONCURSO PÚBLICO PARA A CELEBRAÇÃO DE CONTRATOS PÚBLICOS DE APROVISIONAMENTO PARA AQUISIÇÃO MEDICAMENTOS DO FORO ONCOLÓGICO,FALSE
"Cateteres centrais, forgaty e venosos",Concurso público,Aquisição de bens móveis,"33140000-3, Material médico de consumo","Centro Hospitalar de Lisboa Central, E. P. E. (508080142)","Teleflex Medical, S.A. (980249783)","97.996,80 €",07-08-2015,03-08-2015,150 dias,"Portugal, Lisboa, Lisboa","Artigo 20.º, n.º 1, alínea b) do Código dos Contratos Públicos",,,,,,Não aplicável.,Não aplicável.,FALSE
Sistema de Proteses aorticas,Concurso público,Aquisição de bens móveis,"33140000-3, Material médico de consumo","Centro Hospitalar de Lisboa Central, E. P. E. (508080142)",Boston Scientific (504988964),"165.000,00 €",07-08-2015,29-07-2015,155 dias,"Portugal, Lisboa, Lisboa","Artigo 20.º, n.º 1, alínea b) do Código dos Contratos Públicos",,,,,,Não aplicável.,Não aplicável.,FALSE
Sistemas de Protese aortica,Concurso público,Aquisição de bens móveis,"33140000-3, Material médico de consumo","Centro Hospitalar de Lisboa Central, E. P. E. (508080142)",ST. Jude Medical (504180746),"82.500,00 €",07-08-2015,29-07-2015,155 dias,"Portugal, Lisboa, Lisboa","Artigo 20.º, n.º 1, alínea b) do Código dos Contratos Públicos",,,,,,Não aplicável.,Não aplicável.,FALSE
Material de radiologia,Concurso público,Aquisição de bens móveis,"33140000-3, Material médico de consumo","Centro Hospitalar de Lisboa Central, E. P. E. (508080142)",Terumo (980472024),"3.800,00 €",07-08-2015,29-07-2015,155 dias,"Portugal, Lisboa, Lisboa","Artigo 20.º, n.º 1, alínea b) do Código dos Contratos Públicos",,,,,,Não aplicável.,Não aplicável.,FALSE
Material de radiologia,Concurso público,Aquisição de bens móveis,"33140000-3, Material médico de consumo","Centro Hospitalar de Lisboa Central, E. P. E. (508080142)",Multi-Lumen (504594680),"9.266,40 €",07-08-2015,29-07-2015,155 dias,"Portugal, Lisboa, Lisboa","Artigo 20.º, n.º 1, alínea b) do Código dos Contratos Públicos",,,,,,Não aplicável.,Não aplicável.,FALSE
Material de radiologia,Concurso público,Aquisição de bens móveis,"33140000-3, Material médico de consumo","Centro Hospitalar de Lisboa Central, E. P. E. (508080142)",Bayer Portugal (500043256),"4.500,00 €",07-08-2015,29-07-2015,155 dias,"Portugal, Lisboa, Lisboa","Artigo 20.º, n.º 1, alínea b) do Código dos Contratos Públicos",,,,,,Não aplicável.,Não aplicável.,FALSE
Material para Radiologia,Concurso público,Aquisição de bens móveis,"33140000-3, Material médico de consumo","Centro Hospitalar de Lisboa Central, E. P. E. (508080142)","Biosonda, Lda (501463313)","91.800,00 €",07-08-2015,29-07-2015,155 dias,"Portugal, Lisboa, Lisboa","Artigo 20.º, n.º 1, alínea b) do Código dos Contratos Públicos",,,,,,Não aplicável.,Não aplicável.,FALSE
Material de Radiologia,Concurso público,Aquisição de bens móveis,"33140000-3, Material médico de consumo","Centro Hospitalar de Lisboa Central, E. P. E. (508080142)",Medicinalia-Cormedica (500684324),"70.215,00 €",07-08-2015,29-07-2015,155 dias,"Portugal, Lisboa, Lisboa","Artigo 20.º, n.º 1, alínea b) do Código dos Contratos Públicos",,,,,,Não aplicável.,Não aplicável.,FALSE
AQUISIÇÃO DE ATAZANAVIR 200 MG CÁPS - 2º SEMESTRE,Ao abrigo de acordo-quadro (art.º 259.º),Aquisição de bens móveis,"33600000-6, Produtos farmacêuticos","Centro Hospitalar de Lisboa Central, E. P. E. (508080142)","Bristol-Myers Squibb Farmacêutica, S.A. (500048193)","105.624,65 €",05-08-2015,30-07-2015,185 dias,"Portugal, Lisboa, Lisboa",Artigo 259.º do Código dos Contratos Públicos,,,,,,611354,"CONCURSO PÚBLICO PARA A CELEBRAÇÃO DE CONTRATOS PÚBLICOS DE APROVISIONAMENTO PARA A ÁREA DA SAÚDE, COM VISTA AO FORNECIMENTO DE MEDICAMENTOS ANTI-INFECIOSOS: ANTIVÍRICOS E ANTIFÚNGICOS, ÀS INSTITUIÇÕES E SERVIÇOS DO SERVIÇO NACIONAL DE SAÚDE",FALSE
"Acetato de Potássio 9,8% 10ml",Ajuste Direto Regime Geral,Aquisição de bens móveis,"33000000-0, Equipamento médico, medicamentos e produtos para cuidados pessoais","Centro Hospitalar de Lisboa Central, E. P. E. (508080142)","Labesfal - Laboratórios Almiro, Sa (501169580)","61.250,00 €",05-08-2015,27-07-2015,148 dias,"Portugal, Lisboa, Lisboa","Artigo 24.º, n.º 1, alínea e) do Código dos Contratos Públicos",,,,,,Não aplicável.,Não aplicável.,FALSE
Somatropina 12mg pó sol inj caneta SC,Ao abrigo de acordo-quadro (art.º 259.º),Aquisição de bens móveis,"33000000-0, Equipamento médico, medicamentos e produtos para cuidados pessoais","Centro Hospitalar de Lisboa Central, E. P. E. (508080142)","BIOFARMACÊUTICA, SOCIEDADE uNIPESSOAL, lDA (513300376)","94.878,00 €",05-08-2015,24-07-2015,148 dias,"Portugal, Lisboa, Lisboa<BR/>Portugal",Artigo 259.º do Código dos Contratos Públicos,,,,,,603979,"CONCURSO PÚBLICO PARA A CELEBRAÇÃO DE CONTRATOS PÚBLICOS DE APROVISIONAMENTO PARA A ÁREA DA SAÚDE, COM VISTA AO FORNECIMENTO DE HORMONAS E OUTROS MEDICAMENTOS USADOS NO TRATAMENTO DAS DOENÇAS ENDÓCRINAS, ÀS INSTITUIÇÕES E SERVIÇOS DO SERVIÇO NACIONAL DE SAÚDE",FALSE
AQUISIÇÃO DE AZTREONAM 75 MG/1 ML PÓ SOL INAL NEB FR 1 ML INALATÓRIA,Ao abrigo de acordo-quadro (art.º 259.º),Aquisição de bens móveis,"33600000-6, Produtos farmacêuticos","Centro Hospitalar de Lisboa Central, E. P. E. (508080142)",Gilead Sciences Lda (503604704),"8.048,04 €",05-08-2015,06-05-2015,239 dias,"Portugal, Lisboa, Lisboa",Artigo 259.º do Código dos Contratos Públicos,,,,,,1326195,ACORDO QUADRO PARA FORNECIMENTO DE MEDICAMENTOS ANTI-INFECIOSOS: EXCETO ANTIVÍRICOS E ANTIFÚNGICOS ÀS INSTITUIÇÕES E SERVIÇOS DO SERVIÇO NACIONAL DE SAÚDE,FALSE
AQUISIÇÃO DE SEVOFLURANO LÍQ INAL VAPO FR 250 ML,Ao abrigo de acordo-quadro (art.º 259.º),Aquisição de bens móveis,"33600000-6, Produtos farmacêuticos","Centro Hospitalar de Lisboa Central, E. P. E. (508080142)","ABBVIE, Lda (510229050)","150.905,40 €",05-08-2015,24-07-2015,149 dias,"Portugal, Lisboa, Lisboa",Artigo 259.º do Código dos Contratos Públicos,,,,,,611371,"CONCURSO PÚBLICO PARA A CELEBRAÇÃO DE CONTRATOS PÚBLICOS DE APROVISIONAMENTO PARA A ÁREA DA SAÚDE, COM VISTA AO FORNECIMENTO DE MEDICAMENTOS ANESTÉSICOS E RELAXANTES MUSCULARES, ÀS INSTITUIÇÕES E SERVIÇOS DO SERVIÇO NACIONAL DE SAÚDE    ",FALSE
REAGENTE PARA EXTRAÇÃO EZ1 VIRUS MINI KIT,Ajuste Direto Regime Geral,Aquisição de bens móveis,"33696500-0, Reagentes de laboratório","Centro Hospitalar de Lisboa Central, E. P. E. (508080142)",QUILABAN (500399670),"4.414,99 €",04-08-2015,28-07-2015,156 dias,"Portugal, Lisboa, Lisboa","Artigo 26.º, n.º 1, alínea a) do Código dos Contratos Públicos",,,,,,Não aplicável.,Não aplicável.,FALSE
