Objeto do Contrato,Tipo de Procedimento,Tipo(s) de Contrato,CPVs,Entidade(s) Adjudicante(s),Entidade(s) Adjudicatária(s),Preço Contratual,Data de Publicação,Data de Celebração do Contrato,Prazo de Execução,Local de Execução,Fundamentação,Data de Fecho do Contrato,Preço Total Efetivo,Causas das Alterações ao Prazo,Causas das Alterações ao Preço,Estado,N.º registo do Acordo Quadro,Descrição do Acordo Quadro,Procedimento Centralizado
URINAS ESTUDO DO SEDIMENTO,Ajuste Direto Regime Geral,Aquisição de bens móveis,"33694000-1, Meios de diagnóstico","Centro Hospitalar de Lisboa Central, E. P. E. (508080142)",BECKMAN COULTER  (509035167),"4.104,00 €",07-11-2014,30-09-2014,60 dias,"Portugal, Lisboa, Lisboa","Artigo 26.º, n.º 1, alínea a) do Código dos Contratos Públicos",,,,,,Não aplicável.,Não aplicável.,FALSE
HEMOGRAMAS E RETICULOCITOS,Ajuste Direto Regime Geral,Aquisição de bens móveis,"33694000-1, Meios de diagnóstico","Centro Hospitalar de Lisboa Central, E. P. E. (508080142)","BECKMAN COULTER PORTUGAL UNIPESSOAL, LDA (509035167)","22.453,00 €",07-11-2014,28-10-2014,30 dias,"Portugal, Lisboa, Lisboa","Artigo 26.º, n.º 1, alínea a) do Código dos Contratos Públicos",,,,,,Não aplicável.,Não aplicável.,FALSE
TESTE RESISTENCIA ANTI-RETROVIRAL HIV1,Ajuste Direto Regime Geral,Aquisição de bens móveis,"33696000-5, Reagentes e meios de contraste","Centro Hospitalar de Lisboa Central, E. P. E. (508080142)","SIEMENS HEALHTCARE DIAGNOTICS, UNIPESSOAL,LDA (507925173)","51.840,00 €",07-11-2014,15-09-2014,90 dias,"Portugal, Lisboa, Lisboa","Artigo 26.º, n.º 1, alínea a) do Código dos Contratos Públicos",,,,,,Não aplicável.,Não aplicável.,FALSE
"Aquisição de serviços de consultoria acompanhamento e encerramento de candidaturas ao co-financiamento pelo Fundo Europeu-QREN, destinado á Área de Formação do CHLC,EPE ",Ajuste Direto Regime Geral,Aquisição de serviços,"80530000-8, Serviços de formação profissional","Centro Hospitalar de Lisboa Central, E. P. E. (508080142)","SINASE - Recursos Humanos, Estudos e Desenvolvimento de Empresas, Lda (502851791)","15.640,00 €",06-11-2014,14-07-2014,170 dias,"Portugal, Lisboa, Lisboa","Artigo 20.º, n.º 1, alínea a) do Código dos Contratos Públicos",,,,,,Não aplicável.,Não aplicável.,FALSE
"Aquisição de serviços de reparação da máquina de lavar colocada na Unidade de Queimados do CHLC,EPE",Ajuste Direto Regime Geral,Aquisição de serviços,"50000000-5, Serviços de reparação e manutenção","Centro Hospitalar de Lisboa Central, E. P. E. (508080142)",SUCH (500900469),"160,00 €",06-11-2014,15-09-2014,1 dias,"Portugal, Lisboa, Lisboa","Artigo 24.º, n.º 1, alínea c) do Código dos Contratos Públicos",,,,,,Não aplicável.,Não aplicável.,FALSE
"Aquisição de serviços de reparação de equipamento de PhMetria do CHLC,EPE",Ajuste Direto Regime Geral,Aquisição de serviços,"50000000-5, Serviços de reparação e manutenção","Centro Hospitalar de Lisboa Central, E. P. E. (508080142)","Teprel - Equipamentos Médicos, SA (502262184)","190,00 €",06-11-2014,16-09-2014,2 dias,"Portugal, Porto, Porto","Artigo 24.º, n.º 1, alínea e) do Código dos Contratos Públicos",,,,,,Não aplicável.,Não aplicável.,FALSE
"Aquisição de serviços de desentupimento e limpeza de ramal no CHLC,EPE",Ajuste Direto Regime Geral,Aquisição de serviços,"90900000-6, Serviços de limpeza e saneamento","Centro Hospitalar de Lisboa Central, E. P. E. (508080142)",Desentop Ambiente (503555380),"350,00 €",06-11-2014,15-09-2014,1 dias,"Portugal, Lisboa, Lisboa","Artigo 24.º, n.º 1, alínea c) do Código dos Contratos Públicos",,,,,,Não aplicável.,Não aplicável.,FALSE
"Aquisição de serviços de reparação de motor de ortopedia do Bloco de Pediatria do CHLC,EPE",Ajuste Direto Regime Geral,Aquisição de serviços,"50000000-5, Serviços de reparação e manutenção","Centro Hospitalar de Lisboa Central, E. P. E. (508080142)",Johnson & Johnson (500153370),"825,22 €",06-11-2014,11-09-2014,2 dias,"Portugal, Lisboa, Lisboa","Artigo 24.º, n.º 1, alínea e) do Código dos Contratos Públicos",,,,,,Não aplicável.,Não aplicável.,FALSE
"Aquisição de serviços de acompanhamento e encerramento de candiadturas de POPH dos projectos de formação profissional para o CHLC,EPE",Ajuste Direto Regime Geral,Aquisição de serviços,"80530000-8, Serviços de formação profissional","Centro Hospitalar de Lisboa Central, E. P. E. (508080142)","SINASE- Recursos Humanos, Estudos e Desenvolvimento  de Empresas, Lda  (502851791)","26.250,00 €",06-11-2014,18-08-2014,135 dias,"Portugal, Lisboa, Lisboa","Artigo 20.º, n.º 1, alínea a) do Código dos Contratos Públicos",,,,,,Não aplicável.,Não aplicável.,FALSE
Fixadores,Ajuste Direto Regime Geral,Aquisição de bens móveis,"33000000-0, Equipamento médico, medicamentos e produtos para cuidados pessoais","Centro Hospitalar de Lisboa Central, E. P. E. (508080142)",Magnamed (503640476),"374,00 €",06-11-2014,06-11-2014,65 dias,"Portugal, Lisboa, Lisboa","Artigo 20.º, n.º 1, alínea a) do Código dos Contratos Públicos",,,,,,Não aplicável.,Não aplicável.,FALSE
Fixadores,Ajuste Direto Regime Geral,Aquisição de bens móveis,"33000000-0, Equipamento médico, medicamentos e produtos para cuidados pessoais","Centro Hospitalar de Lisboa Central, E. P. E. (508080142)","3M Portugal, Lda. (500193940)","24.224,62 €",06-11-2014,27-10-2014,65 dias,"Portugal, Lisboa, Lisboa","Artigo 20.º, n.º 1, alínea a) do Código dos Contratos Públicos",,,,,,Não aplicável.,Não aplicável.,FALSE
"Enxertos, Pledgets e filtros ",Ajuste Direto Regime Geral,Aquisição de bens móveis,"33100000-1, Equipamento médico","Centro Hospitalar de Lisboa Central, E.P.E. (CHLC) (508080142)",JOHNSON & JOHNSON (500153370),"1.400,00 €",06-11-2014,24-09-2014,99 dias,"Portugal, Lisboa, Lisboa","Artigo 20.º, n.º 1, alínea a) do Código dos Contratos Públicos",,,,,,Não aplicável.,Não aplicável.,FALSE
"Enxertos, Pledgets e filtros ",Ajuste Direto Regime Geral,Aquisição de bens móveis,"33100000-1, Equipamento médico","Centro Hospitalar de Lisboa Central, E.P.E. (CHLC) (508080142)",CR BARD (502438274),"7.816,00 €",06-11-2014,29-09-2014,95 dias,"Portugal, Lisboa, Lisboa","Artigo 20.º, n.º 1, alínea a) do Código dos Contratos Públicos",,,,,,Não aplicável.,Não aplicável.,FALSE
"Enxertos, Pledgets e filtros ",Ajuste Direto Regime Geral,Aquisição de bens móveis,"33100000-1, Equipamento médico","Centro Hospitalar de Lisboa Central, E.P.E. (CHLC) (508080142)",B|Braun (501506543),"1.904,00 €",06-11-2014,24-09-2014,98 dias,"Portugal, Lisboa, Lisboa","Artigo 20.º, n.º 1, alínea a) do Código dos Contratos Públicos",,,,,,Não aplicável.,Não aplicável.,FALSE
Hemogramas e reticulociros,Ajuste Direto Regime Geral,Aquisição de bens móveis,"33696000-5, Reagentes e meios de contraste","Centro Hospitalar de Lisboa Central, E. P. E. (508080142)",BECKMAN COULTER  (509035167),"22.453,00 €",05-11-2014,23-09-2014,30 dias,"Portugal, Lisboa, Lisboa","Artigo 26.º, n.º 1, alínea a) do Código dos Contratos Públicos",,,,,,Não aplicável.,Não aplicável.,FALSE
Cateter de Electrofisiologia duodecapolar,Ajuste Direto Regime Geral,Aquisição de bens móveis,"33100000-1, Equipamento médico","Centro Hospitalar de Lisboa Central, E.P.E. (CHLC) (508080142)",Johnson & Johnson (500153370),"23.080,00 €",04-11-2014,27-10-2014,65 dias,"Portugal, Lisboa, Lisboa","Artigo 20.º, n.º 1, alínea a) do Código dos Contratos Públicos",,,,,,Não aplicável.,Não aplicável.,FALSE
510739/14 Golimumab 50 mg/0.5 ml sol inj caneta 0.5 ml sc,Ao abrigo de acordo-quadro (art.º 259.º),Aquisição de bens móveis,"33000000-0, Equipamento médico, medicamentos e produtos para cuidados pessoais","Centro Hospitalar de Lisboa Central, E. P. E. (508080142)",Merck sharp &dohme Lda (500191360),"36.511,20 €",03-11-2014,28-10-2014,63 dias,"Portugal, Lisboa, Lisboa",Artigo 259.º do Código dos Contratos Públicos,,,,,,383205,CONCURSO PÚBLICO PARA A CELEBRAÇÃO DE CONTRATOS PÚBLICOS DE APROVISIONAMENTO PARA AQUISIÇÃO MEDICAMENTOS DO FORO ONCOLÓGICO II,FALSE
AQUISIÇÃO DE AGALSIDASE BETA 35MG,Ao abrigo de acordo-quadro (art.º 259.º),Aquisição de bens móveis,"33000000-0, Equipamento médico, medicamentos e produtos para cuidados pessoais","Centro Hospitalar de Lisboa Central, E. P. E. (508080142)",Sanofi -produtos farmaceuticos Lda (500134960),"58.180,32 €",03-11-2014,05-08-2014,149 dias,"Portugal, Lisboa, Lisboa",Artigo 259.º do Código dos Contratos Públicos,,,,,,602067,"ONCURSO PÚBLICO PARA A CELEBRAÇÃO DE CONTRATOS PÚBLICOS DE APROVISIONAMENTO PARA A ÁREA DA SAÚDE, COM VISTA AO FORNECIMENTO DE MEDICAMENTOS DE CONSUMO GERAL - MEDICAÇÃO ANTIALÉRGICA, MEDICAMENTOS USADOS NO TRATAMENTO DE INTOXICAÇÕES, VITAMINAS E SAIS MINERAIS  E GRUPO 20.9 - OUTROS PRODUTOS, ÀS INSTITUIÇÕES E SERVIÇOS DO SERVIÇO NACIONAL DE SAÚDE",FALSE
Aquisição de Cateter de Electrofisiologia Duodecapolar,Ajuste Direto Regime Geral,Aquisição de bens móveis,"33100000-1, Equipamento médico","Centro Hospitalar de Lisboa Central, E.P.E. (CHLC) (508080142)",St. Jude Medical (504180746),"40.721,25 €",03-11-2014,23-10-2014,69 dias,"Portugal, Lisboa, Lisboa","Artigo 20.º, n.º 1, alínea a) do Código dos Contratos Públicos",,,,,,Não aplicável.,Não aplicável.,FALSE
Aquisição de Cateter de Mapeamento Tridimensional,Ajuste Direto Regime Geral,Aquisição de bens móveis,"33100000-1, Equipamento médico","Centro Hospitalar de Lisboa Central, E.P.E. (CHLC) (508080142)",St. Jude Medical (504180746),"60.200,50 €",03-11-2014,23-10-2014,69 dias,"Portugal, Lisboa, Lisboa","Artigo 20.º, n.º 1, alínea a) do Código dos Contratos Públicos",,,,,,Não aplicável.,Não aplicável.,FALSE
Aquisição de Stent e Endoprotese de Disseção,Concurso público,Aquisição de bens móveis,"33140000-3, Material médico de consumo","Centro Hospitalar de Lisboa Central, E. P. E. (508080142)",Biosonda (501463313),"144.000,00 €",03-11-2014,17-10-2014,75 dias,"Portugal, Lisboa, Lisboa","Artigo 20.º, n.º 1, alínea b) do Código dos Contratos Públicos",,,,,,Não aplicável.,Não aplicável.,FALSE
Aquisição de Endoprotese Aortica Fenestrada para Aneurismas,Concurso público,Aquisição de bens móveis,"33140000-3, Material médico de consumo","Centro Hospitalar de Lisboa Central, E. P. E. (508080142)",Biosonda (501463313),"136.000,00 €",03-11-2014,17-10-2014,75 dias,"Portugal, Lisboa, Lisboa","Artigo 20.º, n.º 1, alínea b) do Código dos Contratos Públicos",,,,,,Não aplicável.,Não aplicável.,FALSE
Aquisição de Sistemas de Intervenção Mitral,Concurso público,Aquisição de bens móveis,"33140000-3, Material médico de consumo","Centro Hospitalar de Lisboa Central, E. P. E. (508080142)",Abbott Laboratorios (500006148),"60.000,00 €",03-11-2014,17-10-2014,75 dias,"Portugal, Lisboa, Lisboa","Artigo 20.º, n.º 1, alínea b) do Código dos Contratos Públicos",,,,,,Não aplicável.,Não aplicável.,FALSE
"HEMOGRAMAS, RETICULOCITOS E VS",Ajuste Direto Regime Geral,Aquisição de bens móveis,"33696000-5, Reagentes e meios de contraste","Centro Hospitalar de Lisboa Central, E.P.E. (CHLC) (508080142)",BECKMAN BOULTER  (509035167),"183.634,85 €",31-10-2014,20-01-2014,90 dias,"Portugal, Lisboa, Lisboa","Artigo 26.º, n.º 1, alínea a) do Código dos Contratos Públicos",,,,,,Não aplicável.,Não aplicável.,FALSE
