Objeto do Contrato,Tipo de Procedimento,Tipo(s) de Contrato,CPVs,Entidade(s) Adjudicante(s),Entidade(s) Adjudicatária(s),Preço Contratual,Data de Publicação,Data de Celebração do Contrato,Prazo de Execução,Local de Execução,Fundamentação,Data de Fecho do Contrato,Preço Total Efetivo,Causas das Alterações ao Prazo,Causas das Alterações ao Preço,Estado,N.º registo do Acordo Quadro,Descrição do Acordo Quadro,Procedimento Centralizado
"FORNECIMENTO, INSTALAÇÃO E CONFIGURAÇÃO DE SOFTWARE ASTRAIA",Ajuste Direto Regime Geral,Aquisição de bens móveis,"48180000-3, Pacote de software para medicina","Centro Hospitalar do Baixo Vouga, E. P. E. (510123210)","ASTRIMED-Informática e Tecnologia Médica,Lda (507007867)","23.843,50 €",24-05-2017,15-05-2017,10 dias,"Portugal, Aveiro, Aveiro","Artigo 24.º, n.º 1, alínea e) do Código dos Contratos Públicos",05-12-2017,"23.843,50 €",,,,Não aplicável.,Não aplicável.,FALSE
"AQUISIÇÃO ÓPTICA 0º, 10MM, 31CM P/ B.O.CIRURGIA-REPARAÇÃO POR SUBSTITUIÇÃO INV:38529",Ajuste Direto Regime Geral,Aquisição de bens móveis,"33162200-5, Instrumentos para blocos operatórios","Centro Hospitalar do Baixo Vouga, E. P. E. (510123210)","TEPREL- Equipamentos Médicos, ldª. (502262184)","1.195,00 €",24-05-2017,18-05-2017,5 dias,"Portugal, Aveiro, Aveiro","Artigo 24.º, n.º 1, alínea e) do Código dos Contratos Públicos",19-05-2017,"1.195,00 €",,,,Não aplicável.,Não aplicável.,FALSE
GRANDE REPARAÇÃO DA MESA DE RX C/ Nº INV: 2092806- IMAGIOLOGIA ÁGUEDA,Ajuste Direto Regime Geral,Aquisição de bens móveis,"33110000-4, Equipamento de imagiologia para uso médico, dentário e veterinário","Centro Hospitalar do Baixo Vouga, E. P. E. (510123210)",PHILIPS PORTUGUESA SA (500216843),"4.050,00 €",24-05-2017,18-05-2017,45 dias,"Portugal, Aveiro, Águeda","Artigo 24.º, n.º 1, alínea e) do Código dos Contratos Públicos",25-05-2017,"4.050,00 €",,,,Não aplicável.,Não aplicável.,FALSE
AQUISIÇÃO DE CABEÇA DE CÂMARA DE TRÊS CHIPS IMAGE1 H3 (TORRE LAPAROSCOPIA),Ajuste Direto Regime Geral,Aquisição de bens móveis,"33160000-9, Técnicas cirúrgicas","Centro Hospitalar do Baixo Vouga, E. P. E. (510123210)","TEPREL- Equipamentos Médicos, ldª. (502262184)","2.475,00 €",24-05-2017,18-05-2017,5 dias,"Portugal, Aveiro, Aveiro","Artigo 24.º, n.º 1, alínea e) do Código dos Contratos Públicos",30-05-2017,"2.475,00 €",,,,Não aplicável.,Não aplicável.,FALSE
"AQUISIÇÃO ÓPTICA HOPKINS II 30º, DIÂM.4MM, 30CM P/B.O.UROLOGIA-REPARAÇÃO POR SUBSTITUIÇÃO INV:47613 - AD/00470030/2017",Ajuste Direto Regime Geral,Aquisição de bens móveis,"33162200-5, Instrumentos para blocos operatórios","Centro Hospitalar do Baixo Vouga, E. P. E. (510123210)","TEPREL- Equipamentos Médicos, ldª. (502262184)","1.195,00 €",24-05-2017,18-05-2017,5 dias,"Portugal, Aveiro, Aveiro","Artigo 24.º, n.º 1, alínea e) do Código dos Contratos Públicos",19-05-2017,"1.195,00 €",,,,Não aplicável.,Não aplicável.,FALSE
"AQUISIÇÃO ÓPTICA HOPKINS II 30º, DIÂM.4MM, 30CM P/B.O.UROLOGIA-REPARAÇÃO POR SUBSTITUIÇÃO INV:47614",Ajuste Direto Regime Geral,Aquisição de bens móveis,"33162200-5, Instrumentos para blocos operatórios","Centro Hospitalar do Baixo Vouga, E. P. E. (510123210)","TEPREL- Equipamentos Médicos, ldª. (502262184)","1.195,00 €",23-05-2017,18-05-2017,5 dias,"Portugal, Aveiro, Aveiro","Artigo 24.º, n.º 1, alínea e) do Código dos Contratos Públicos",19-05-2017,"1.195,00 €",,,,Não aplicável.,Não aplicável.,FALSE
"AQUISIÇÃO ÓPTICA HOPKINS II 30º, DIÂM.4MM, 30CM P/ B.O.UROLOGIA-REPARAÇÃO POR SUBSTITUIÇÃO",Ajuste Direto Regime Geral,Aquisição de bens móveis,"33162200-5, Instrumentos para blocos operatórios","Centro Hospitalar do Baixo Vouga, E. P. E. (510123210)","TEPREL- Equipamentos Médicos, ldª. (502262184)","1.195,00 €",23-05-2017,18-05-2017,5 dias,"Portugal, Aveiro, Aveiro","Artigo 24.º, n.º 1, alínea e) do Código dos Contratos Públicos",19-05-2017,"1.195,00 €",,,,Não aplicável.,Não aplicável.,FALSE
FORNECIMENTO DE 20 COMPUTADORES DE SECRETÁRIA,Ajuste Direto Regime Geral,Aquisição de bens móveis,"30213300-8, Computadores de secretária (desktop computers)","Centro Hospitalar do Baixo Vouga, E.P.E. (510123210)","Inforlandia, S.A (502425296)","9.140,00 €",23-05-2017,18-05-2017,15 dias,"Portugal, Aveiro, Aveiro","Artigo 20.º, n.º 1, alínea a) do Código dos Contratos Públicos",19-05-2017,"9.140,00 €",,,,Não aplicável.,Não aplicável.,FALSE
