Objeto do Contrato,Tipo de Procedimento,Tipo(s) de Contrato,CPVs,Entidade(s) Adjudicante(s),Entidade(s) Adjudicatária(s),Preço Contratual,Data de Publicação,Data de Celebração do Contrato,Prazo de Execução,Local de Execução,Fundamentação,Data de Fecho do Contrato,Preço Total Efetivo,Causas das Alterações ao Prazo,Causas das Alterações ao Preço,Estado,N.º registo do Acordo Quadro,Descrição do Acordo Quadro,Procedimento Centralizado
"Aquisição de 1080 unidades de metformina 850mg , comprimidos",Ao abrigo de acordo-quadro (art.º 259.º),Aquisição de bens móveis,"33600000-6, Produtos farmacêuticos","Administração Regional de Saúde do Norte, I. P. (503135593)","LABESFAL - Laboratórios Almiro, S.A. (501169580)","20,74 €",21-03-2014,10-01-2014,355 dias,"Portugal, Porto, Maia<BR/>Portugal, Vila Real, Vila Real",Artigo 259.º do Código dos Contratos Públicos,11-02-2014,"17,21 €",,"Por incumprimento no prazo de entrega relativo ao fornecimento do lote 2, aplicou-se uma penalização ao valor a pagar, conforme o estipulado na clausula 15 do contrato conjugado com o artigo 329 do código contratos públicos.",,370804,CONCURSO PÚBLICO PARA A CELEBRAÇÃO DE CONTRATOS PÚBLICOS DE APROVISIONAMENTO PARA AQUISIÇÃO HORMONAS E OUTROS MEDICAMENTOS USADOS NO TRATAMENTO DAS DOENÇAS ENDÓCRINAS,FALSE
Aquisição de 1020 unidades de Metformina 500mg comprimidos,Ao abrigo de acordo-quadro (art.º 259.º),Aquisição de bens móveis,"33600000-6, Produtos farmacêuticos","Administração Regional de Saúde do Norte, I. P. (503135593)","Labesfal - Laboratórios Almiro, s.a. (501169580)","14,79 €",21-03-2014,10-01-2014,355 dias,"Portugal, Porto, Maia<BR/>Portugal, Vila Real, Vila Real",Artigo 259.º do Código dos Contratos Públicos,11-02-2014,"14,79 €",,"",,370804,CONCURSO PÚBLICO PARA A CELEBRAÇÃO DE CONTRATOS PÚBLICOS DE APROVISIONAMENTO PARA AQUISIÇÃO HORMONAS E OUTROS MEDICAMENTOS USADOS NO TRATAMENTO DAS DOENÇAS ENDÓCRINAS,FALSE
Aquisição de 50.000 unidades de Iodopovidona,Ao abrigo de acordo-quadro (art.º 259.º),Aquisição de bens móveis,"33600000-6, Produtos farmacêuticos","Administração Regional de Saúde do Norte, I. P. (503135593)","Proclinica - Equip. Produt. Clinicos, lda (500222665)","9.750,00 €",21-03-2014,03-02-2014,330 dias,"Portugal, Porto, Maia<BR/>Portugal, Vila Real, Vila Real",Artigo 259.º do Código dos Contratos Públicos,16-10-2014,"9.750,00 €",,"",,549298,"Concurso Público para a celebração de Contratos Publicos de Aprovisionamento para a área da saúde com vista ao fornecimento de Antisepticos, Desinfetantes e Outros, às Instituições e Serviços do Serviço Nacional de Saúde.",FALSE
"Aquisição de 5000 unidades de sabão líquido com PH 5,5 p/lavagem das mãos 500ml",Ao abrigo de acordo-quadro (art.º 259.º),Aquisição de bens móveis,"33600000-6, Produtos farmacêuticos","Administração Regional de Saúde do Norte, I. P. (503135593)","B Braun Medical, lda (501506543)","2.900,00 €",21-03-2014,03-02-2014,330 dias,"Portugal, Vila Real, Vila Real<BR/>Portugal, Porto, Maia",Artigo 259.º do Código dos Contratos Públicos,02-10-2014,"2.900,00 €",,"",,549298,"Concurso Público para a celebração de Contratos Publicos de Aprovisionamento para a área da saúde com vista ao fornecimento de Antisepticos, Desinfetantes e Outros, às Instituições e Serviços do Serviço Nacional de Saúde.",FALSE
Aquisição de 8000 unidades de solução alcoólica anti-séptica e dermoprotetora,Ao abrigo de acordo-quadro (art.º 259.º),Aquisição de bens móveis,"33600000-6, Produtos farmacêuticos","Administração Regional de Saúde do Norte, I. P. (503135593)","B Braun Medical,lda (501506543)","12.320,00 €",21-03-2014,03-02-2014,330 dias,"Portugal, Porto, Maia<BR/>Portugal, Vila Real, Vila Real",Artigo 259.º do Código dos Contratos Públicos,31-10-2014,"12.320,00 €",,"",,549298,"Concurso Público para a celebração de Contratos Publicos de Aprovisionamento para a área da saúde com vista ao fornecimento de Antisepticos, Desinfetantes e Outros, às Instituições e Serviços do Serviço Nacional de Saúde.",FALSE
"Aquisição de  4000 unidades de Etanol a 70%, solução",Ao abrigo de acordo-quadro (art.º 259.º),Aquisição de bens móveis,"33600000-6, Produtos farmacêuticos","Administração Regional de Saúde do Norte, I. P. (503135593)","Proclinica - Eq. Prod. Clínicos, lda (500222665)","5.200,00 €",21-03-2014,03-02-2014,330 dias,"Portugal, Vila Real, Vila Real<BR/>Portugal, Porto, Maia",Artigo 259.º do Código dos Contratos Públicos,16-10-2014,"5.200,00 €",,"",,549298,"Concurso Público para a celebração de Contratos Publicos de Aprovisionamento para a área da saúde com vista ao fornecimento de Antisepticos, Desinfetantes e Outros, às Instituições e Serviços do Serviço Nacional de Saúde.",FALSE
Aquisição de 31200 unidades de lanceta auomática punção capilarirrecuperável (genética),Ao abrigo de acordo-quadro (art.º 259.º),Aquisição de bens móveis,"33140000-3, Material médico de consumo","Administração Regional de Saúde do Norte, I. P. (503135593)","Sarted, lda (503019461)","2.028,00 €",19-03-2014,17-02-2014,311 dias,"Portugal, Porto, Maia",Artigo 259.º do Código dos Contratos Públicos,01-10-2014,"2.028,00 €",,"",,464738,"Concurso público para a celebração de contratos públicos de aprovisionamento para a área da saúde, com vista ao fornecimento de material de prevenção e deteção do HIV.",FALSE
"Aquisição de 66000 unidades de lanceta automática  punção capilar, irrecuperável (diabético)",Ao abrigo de acordo-quadro (art.º 259.º),Aquisição de bens móveis,"33140000-3, Material médico de consumo","Administração Regional de Saúde do Norte, I. P. (503135593)","Sarsted, lda (503019461)","4.290,00 €",19-03-2014,17-02-2014,311 dias,"Portugal, Porto, Maia",Artigo 259.º do Código dos Contratos Públicos,01-10-2014,"4.290,00 €",,"",,464738,"Concurso público para a celebração de contratos públicos de aprovisionamento para a área da saúde, com vista ao fornecimento de material de prevenção e deteção do HIV.",FALSE
"Aquisição de 10000 unidades de gel lubrificante a base de água, saquetas 6ml",Ao abrigo de acordo-quadro (art.º 259.º),Aquisição de bens móveis,"33600000-6, Produtos farmacêuticos","Administração Regional de Saúde do Norte, I. P. (503135593)",Clififar - Prod. Clinicos Farmacêuticos (503281115),"600,00 €",19-03-2014,17-02-2014,311 dias,"Portugal, Porto, Maia",Artigo 259.º do Código dos Contratos Públicos,24-02-2014,"600,00 €",,"",,464738,"Concurso público para a celebração de contratos públicos de aprovisionamento para a área da saúde, com vista ao fornecimento de material de prevenção e deteção do HIV.",FALSE
"Aquisição de 6000 unidades de Reagente Determinação VIH 1,2 no sangue, Tira",Ao abrigo de acordo-quadro (art.º 259.º),Aquisição de bens móveis,"33600000-6, Produtos farmacêuticos","Administração Regional de Saúde do Norte, I. P. (503135593)","Bio-Rad Laboratórios, lda (501301321)","7.201,20 €",19-03-2014,17-02-2014,311 dias,"Portugal, Porto, Maia",Artigo 259.º do Código dos Contratos Públicos,04-08-2014,"7.201,20 €",,"",,464738,"Concurso público para a celebração de contratos públicos de aprovisionamento para a área da saúde, com vista ao fornecimento de material de prevenção e deteção do HIV.",FALSE
"Aquisição de 1 000 mascara plástica p/ nebulização irrecuperável; 400 bata de transferência irrecuperável (CDP); 100 insuflador manuel c/ reserva e filtro descartável adulto e 50 insuflador manuel c/ saco reserv e filtro descartável Pediatrica, 40 mascara laringea nº 4; 40 máscaras laríngea nº 5, 80 máscara Nº 3; 80 mascara facial Nº 4 e 30 mascaras laríngea nº 3",Ajuste Direto Regime Geral,Aquisição de bens móveis,"33140000-3, Material médico de consumo","Administração Regional de Saúde do Norte, I. P. (503135593)","H. R. Produtos Químicos, Lda (501895558)","2.420,40 €",14-03-2014,13-03-2014,365 dias,"Portugal, Vila Real, Vila Real","Artigo 20.º, n.º 1, alínea a) do Código dos Contratos Públicos",07-10-2014,"2.420,40 €",,"",,Não aplicável.,Não aplicável.,FALSE
Aquisição de 10 ampolas de Tenecteplase 10000U.I. Pó sol. inj. Fr IV e 10 ampolas Tenecteplase 8 000 U.I. Pó sol imj Fr IV,Ajuste Direto Regime Geral,Aquisição de bens móveis,"33600000-6, Produtos farmacêuticos","Administração Regional de Saúde do Norte, I. P. (503135593)",UNILFARMA (500293023),"22.990,00 €",14-03-2014,12-03-2014,365 dias,"Portugal, Vila Real, Vila Real","Artigo 20.º, n.º 1, alínea a) do Código dos Contratos Públicos",13-03-2014,"6.897,00 €",,A razão deve-se a uma alteração do protocolo das SIV (das SUB - Serviço de Urgência Básica) que inicialmente incluía a existência desta medicação e que no novo protocolo deixa de estar presente.,,1180085,Aquisição de 10 ampolas de Tenecteplase 10000U.I. Pó sol. inj. Fr IV e 10 ampolas Tenecteplase 8 000 U.I. Pó sol imj Fr IV,FALSE
Aquisição de 10 000 ampolas de clemastina 1 mg/ml Sol inj. 2 ml IM IV,Ajuste Direto Regime Geral,Aquisição de bens móveis,"33600000-6, Produtos farmacêuticos","Administração Regional de Saúde do Norte, I. P. (503135593)",Novartis - Consumer Health (500268215),"9.270,00 €",14-03-2014,13-03-2014,365 dias,"Portugal, Vila Real, Vila Real","Artigo 20.º, n.º 1, alínea a) do Código dos Contratos Públicos",29-08-2014,"9.270,00 €",,"",,Não aplicável.,Não aplicável.,FALSE
Aquisição de 17 000 pulseira de identificação amarela e 15 000 pulseiras de identificação verde,Ajuste Direto Regime Geral,Aquisição de bens móveis,"22455100-5, Pulseiras de identificação","Administração Regional de Saúde do Norte, I. P. (503135593)",EZEQUIEL PANÂO JORGE (501412727),"736,00 €",14-03-2014,11-03-2014,365 dias,"Portugal, Vila Real, Vila Real","Artigo 20.º, n.º 1, alínea a) do Código dos Contratos Públicos",13-08-2014,"736,00 €",,"",,Não aplicável.,Não aplicável.,FALSE
Aquisição de 100 unidades Salbutamol 100 ug./dose Susp. presu inal Recip pressu 200 dos,Ajuste Direto Regime Geral,Aquisição de bens móveis,"33600000-6, Produtos farmacêuticos","Administração Regional de Saúde do Norte, I. P. (503135593)",GLAXOSMITHKLINE (500139962),"100,00 €",13-03-2014,12-03-2014,365 dias,"Portugal, Vila Real, Vila Real",Artigo 258.º do Código dos Contratos Públicos,24-10-2014,"100,00 €",,"",,1179370,Aquisição de 100 unidades Salbutamol 100 ug./dose Susp. presu inal Recip pressu 200 dos,FALSE
Tarifa de ligação do saneamento da unidade de saúde de Urgezes,Ajuste Direto Regime Geral,Aquisição de serviços,"90920000-2, Serviços de saneamento de instalações","Administração Regional de Saúde do Norte, I. P. (503135593)","Vimágua - Empresa de Água e Saneamento de Guimarães e Vizela, E.I.M. S.A. (505993082)","7.194,60 €",12-03-2014,13-03-2013,15 dias,"Portugal, Braga, Guimarães","Artigo 20.º, n.º 1, alínea a) do Código dos Contratos Públicos",28-03-2013,"7.194,60 €",,"",,Não aplicável.,Não aplicável.,FALSE
Substituição de duas lâmpadas nos postes de iluminação do parque de estacionamento da unidade de saúde da Póvoa de Lanhoso,Ajuste Direto Regime Geral,Aquisição de serviços,"50711000-2, Serviços de reparação e manutenção de equipamento eléctrico em edifícios","Administração Regional de Saúde do Norte, I. P. (503135593)","José Ramiro & Alves, Lda (505653800)","385,00 €",12-03-2014,16-12-2013,5 dias,"Portugal, Braga, Póvoa de Lanhoso","Artigo 20.º, n.º 1, alínea a) do Código dos Contratos Públicos",21-12-2013,"385,00 €",,"",,Não aplicável.,Não aplicável.,FALSE
Reparação de anomalia na rede de abastecimento de energia elétrica da unidade de saúde de Vila Verde,Ajuste Direto Regime Geral,Concessão de obras públicas,"50711000-2, Serviços de reparação e manutenção de equipamento eléctrico em edifícios","Administração Regional de Saúde do Norte, I. P. (503135593)","José Ramiro & Alves, Lda (505653800)","80,00 €",12-03-2014,19-12-2013,5 dias,"Portugal, Braga, Vila Verde","Artigo 19.º, alínea a) do Código dos Contratos Públicos","","80,00 €",,"",,Não aplicável.,Não aplicável.,FALSE
Reparação de cobertura no Centro de Saúde de Póvoa de Lanhoso,Ajuste Direto Regime Geral,Concessão de obras públicas,"45261910-6, Reparação de coberturas","Administração Regional de Saúde do Norte, I. P. (503135593)","TIIB - Técnicas de Isolamento e Impermeabilização de Braga, Lda (507295978)","380,00 €",12-03-2014,28-11-2013,5 dias,"Portugal, Braga, Póvoa de Lanhoso","Artigo 19.º, alínea a) do Código dos Contratos Públicos","","380,00 €",,"",,Não aplicável.,Não aplicável.,FALSE
Reparação e limpeza da cobertura do Centro de Saúde de Vila Verde,Ajuste Direto Regime Geral,Concessão de obras públicas,"45261910-6, Reparação de coberturas","Administração Regional de Saúde do Norte, I. P. (503135593)","TIIB - Técnicas de Isolamento e Impermeabilização de Braga, Lda (507295978)","3.740,00 €",11-03-2014,28-11-2013,10 dias,"Portugal, Braga, Vila Verde","Artigo 19.º, alínea a) do Código dos Contratos Públicos","","3.740,00 €",,"",,Não aplicável.,Não aplicável.,FALSE
Aquisição de 270  000 comprimidos de Piridoxina (Vitamina B 6) 40 mg e 3 200 ampolas de Procaína 100 mg/5 ml Sol inj 5 ml SC,Ajuste Direto Regime Geral,Aquisição de bens móveis,"33600000-6, Produtos farmacêuticos","Administração Regional de Saúde do Norte, I. P. (503135593)",Labesfal - Laboratórios Almiro (501169580),"114.890,00 €",11-03-2014,03-02-2014,365 dias,"Portugal, Vila Real, Vila Real","Artigo 20.º, n.º 1, alínea a) do Código dos Contratos Públicos",18-11-2014,"114.890,00 €",,"",,Não aplicável.,Não aplicável.,FALSE
Aquisição de 10 000 ampolas de tiamina 100 mg/2 ml Sol inj 2 ml IM IV SC,Ajuste Direto Regime Geral,Aquisição de bens móveis,"33600000-6, Produtos farmacêuticos","Administração Regional de Saúde do Norte, I. P. (503135593)","Labesfal - Laboratórios Almiro, Lda (501169580)","18.000,00 €",11-03-2014,17-01-2014,365 dias,"Portugal, Vila Real, Vila Real","Artigo 20.º, n.º 1, alínea a) do Código dos Contratos Públicos",14-11-2014,"18.000,00 €",,"",,Não aplicável.,Não aplicável.,FALSE
"Aquisição de Isoniazida 0,68% Xarope e  60 Frascos de Ipecacuanha 1,4 mg/ml xarope",Ajuste Direto Regime Geral,Aquisição de bens móveis,"33600000-6, Produtos farmacêuticos","Administração Regional de Saúde do Norte, I. P. (503135593)",Laboratório Militar P. Químico (600019675),"1.410,60 €",11-03-2014,07-03-2014,365 dias,"Portugal, Vila Real, Vila Real","Artigo 20.º, n.º 1, alínea a) do Código dos Contratos Públicos",19-11-2014,"1.410,60 €",,"",,Não aplicável.,Não aplicável.,FALSE
Aquisição de 4 000 unidades caixa de papelão,Ajuste Direto Regime Geral,Aquisição de bens móveis,"44617000-8, Caixas","Administração Regional de Saúde do Norte, I. P. (503135593)",Gilberto Branco (500815950),"12.560,00 €",11-03-2014,16-01-2014,365 dias,"Portugal, Vila Real, Vila Real","Artigo 20.º, n.º 1, alínea a) do Código dos Contratos Públicos",15-07-2014,"12.560,00 €",,"",,Não aplicável.,Não aplicável.,FALSE
Aquisição de 350 unidades de connector em Y para aspirador secreções (8/10 MM),Ajuste Direto Regime Geral,Aquisição de bens móveis,"33140000-3, Material médico de consumo","Administração Regional de Saúde do Norte, I. P. (503135593)","VYGON Portugal, Lda (503232785)","227,50 €",11-03-2014,07-03-2014,365 dias,"Portugal, Vila Real, Vila Real","Artigo 20.º, n.º 1, alínea a) do Código dos Contratos Públicos",21-05-2014,"227,50 €",,"",,Não aplicável.,Não aplicável.,FALSE
Aquisição de 9 000 bisnagas de Lidocaína 20 mg/g Gel 30 g,Ajuste Direto Regime Geral,Aquisição de bens móveis,"33600000-6, Produtos farmacêuticos","Administração Regional de Saúde do Norte, I. P. (503135593)",SIDEFARMA Soc. Ind. Exp. Farmaceutica (500717419),"8.100,00 €",11-03-2014,04-03-2014,365 dias,"Portugal, Vila Real, Vila Real","Artigo 20.º, n.º 1, alínea a) do Código dos Contratos Públicos",24-11-2014,"8.100,00 €",,"",,Não aplicável.,Não aplicável.,FALSE
Aquisição de 10 pares de pás para disfibrilhador adulto,Ajuste Direto Regime Geral,Aquisição de bens móveis,"33140000-3, Material médico de consumo","Administração Regional de Saúde do Norte, I. P. (503135593)",Salitec - Serviços e Equipamentos de Saúde (506380408),"269,00 €",11-03-2014,04-03-2014,365 dias,"Portugal, Vila Real, Vila Real","Artigo 20.º, n.º 1, alínea a) do Código dos Contratos Públicos",02-04-2014,"269,00 €",,"",,Não aplicável.,Não aplicável.,FALSE
"Aquisição de 5000 frascos de cloreto de sódio 0,9% Sol inj 500 ml IV;  1500 frascos de glucose 50 mg/ml inj 500 ml IV; 400 frascos de glucose 100 mg/ml Sol inj 500 mkl IV; 600 frascos de Glu 50 mg/ml + cloreto sódio 9 mg/ml Sol inj 500 ml IV; 1200 ampolas de Glucose 300 mg/ml Fr 20 ml IV; 16 000 ampolas de água para preparações injectáveis Dol inj 10 ml, 4 000 ampolas  água para preparações injectáveis Sol  imj. 5ml; 13 000 ampolas cloreto de sódio 0,9% Sol inj 5 ml  150 frascos de electrólitos + gelatina Sol p/ perfusão 500 ml IV e 100 ampolas de gluconato de cálcio 10% Sol. inj. 10 ml IV",Ajuste Direto Regime Geral,Aquisição de bens móveis,"33600000-6, Produtos farmacêuticos","Administração Regional de Saúde do Norte, I. P. (503135593)",B. Braun Medical (501506543),"12.650,00 €",11-03-2014,10-03-2014,365 dias,"Portugal, Vila Real, Vila Real",Artigo 258.º do Código dos Contratos Públicos,26-11-2014,"12.650,00 €",,"",,1177577,"Aquisição de 5000 frascos de cloreto de sódio 0,9% Sol inj 500 ml IV;  1500 frascos de glucose 50 mg/ml inj 500 ml IV; 400 frascos de glucose 100 mg/ml Sol inj 500 mkl IV; 600 frascos de Glu 50 mg/ml + cloreto sódio 9 mg/ml Sol inj 500 ml IV; 1200 ampolas de Glucose 300 mg/ml Fr 20 ml IV; 16 000 ampolas de água para preparações injectáveis Dol inj 10 ml, 4 000 ampolas  água para preparações injectáveis Sol  imj. 5ml; 13 000 ampolas cloreto de sódio 0,9% Sol inj 5 ml  150 frascos de electrólitos + gelatina Sol p/ perfusão 500 ml IV e 100 ampolas de gluconato de cálcio 10% Sol. inj. 10 ml IV",FALSE
"Aquisição de 25 000 frascos de cloreto de sódio 0,9% Sol inj 100 ml IV; 50 ampolas de sulfato de magnésio 2 000 mg/10 ml Sol inj 10 ml IM IV; 14 00 unidades de Polielectrolítico + Glucose 50 mg/ml Sol inj. 500 ml IV; 1200 unidades de Polielectrolítico Sol inj 500 ml IV; 200 ampolas de cloreto de cálcio 100 mg/ml Sol inj. fr. 10 ml Iv e 23 000 ampolas de cloreto de sódio 0,9% Sol inj 10 ml IM IV SC",Ajuste Direto Regime Geral,Aquisição de bens móveis,"33600000-6, Produtos farmacêuticos","Administração Regional de Saúde do Norte, I. P. (503135593)",Labesfal - Laboratórios Almiro (501169580),"21.148,68 €",11-03-2014,10-03-2014,365 dias,"Portugal, Vila Real, Vila Real",Artigo 258.º do Código dos Contratos Públicos,21-11-2014,"21.148,68 €",,"",,1177556,"Aquisição de 25 000 frascos de cloreto de sódio 0,9% Sol inj 100 ml IV; 50 ampolas de sulfato de magnésio 2 000 mg/10 ml Sol inj 10 ml IM IV; 14 00 unidades de Polielectrolítico + Glucose 50 mg/ml Sol inj. 500 ml IV; 1200 unidades de Polielectrolítico Sol inj 500 ml IV; 200 ampolas de cloreto de cálcio 100 mg/ml Sol inj. fr. 10 ml Iv e 23 000 ampolas de cloreto de sódio 0,9% Sol inj 10 ml IM IV SC",FALSE
"Aquisição de 996 unidades de água destilada 1000 ml; 100000 frascos de cloreto de sódio 0,9% Sol irrigação 100 ml e 40 000 unidades de cloreto de sódio 0,9% Sol irrigação 250 ml",Ajuste Direto Regime Geral,Aquisição de bens móveis,"33600000-6, Produtos farmacêuticos","Administração Regional de Saúde do Norte, I. P. (503135593)","B Braun Medical, Lda (501506543)","89.581,70 €",11-03-2014,10-03-2014,365 dias,"Portugal, Vila Real, Vila Real",Artigo 258.º do Código dos Contratos Públicos,03-11-2014,"89.581,70 €",,"",,1177525,"Aquisição de 996 unidades de água destilada 1000 ml; 100000 frascos de cloreto de sódio 0,9% Sol irrigação 100 ml e 40 000 unidades de cloreto de sódio 0,9% Sol irrigação 250 ml",FALSE
Aquisição de 1500 frascos de lucose 50 mg/ml Sol inj 100 ml IV,Ajuste Direto Regime Geral,Aquisição de bens móveis,"33600000-6, Produtos farmacêuticos","Administração Regional de Saúde do Norte, I. P. (503135593)",OVERPHARMA (505792362),"1.005,00 €",11-03-2014,10-03-2014,365 dias,"Portugal, Vila Real, Vila Real",Artigo 258.º do Código dos Contratos Públicos,05-11-2014,"1.005,00 €",,"",,1177514,Aquisição de 1500 frascos de lucose 50 mg/ml Sol inj 100 ml IV,FALSE
