Objeto do Contrato,Tipo de Procedimento,Tipo(s) de Contrato,CPVs,Entidade(s) Adjudicante(s),Entidade(s) Adjudicatária(s),Preço Contratual,Data de Publicação,Data de Celebração do Contrato,Prazo de Execução,Local de Execução,Fundamentação,Data de Fecho do Contrato,Preço Total Efetivo,Causas das Alterações ao Prazo,Causas das Alterações ao Preço,Estado,N.º registo do Acordo Quadro,Descrição do Acordo Quadro,Procedimento Centralizado
"Aquisição de 7 Monitores de sinais vitais, 8 Computadores desktop e 1 Computador portátil",Ajuste Direto Regime Geral,Aquisição de bens móveis,"33000000-0, Equipamento médico, medicamentos e produtos para cuidados pessoais","Centro Hospitalar de Entre o Douro e Vouga, E.P.E. (508878462)",Inforlândia - Sistemas de Informática e Equipamentos (502425296),"3.031,00 €",21-03-2016,17-03-2016,20 dias,"Portugal, Aveiro, Santa Maria da Feira","Artigo 24.º, n.º 1, alínea c) do Código dos Contratos Públicos",,,,,,Não aplicável.,Não aplicável.,FALSE
"Aquisição de 7 Monitores de sinais vitais, 8 Computadores desktop e 1 Computador portátil",Ajuste Direto Regime Geral,Aquisição de bens móveis,"33000000-0, Equipamento médico, medicamentos e produtos para cuidados pessoais","Centro Hospitalar de Entre o Douro e Vouga, E.P.E. (508878462)","Bacelar & Irmão, Lda (500532818)","5.320,00 €",21-03-2016,17-03-2016,20 dias,"Portugal, Aveiro, Santa Maria da Feira","Artigo 24.º, n.º 1, alínea c) do Código dos Contratos Públicos",,,,,,Não aplicável.,Não aplicável.,FALSE
