Objeto do Contrato,Tipo de Procedimento,Tipo(s) de Contrato,CPVs,Entidade(s) Adjudicante(s),Entidade(s) Adjudicatária(s),Preço Contratual,Data de Publicação,Data de Celebração do Contrato,Prazo de Execução,Local de Execução,Fundamentação,Data de Fecho do Contrato,Preço Total Efetivo,Causas das Alterações ao Prazo,Causas das Alterações ao Preço,Estado,N.º registo do Acordo Quadro,Descrição do Acordo Quadro,Procedimento Centralizado
Aquisição Centralizada de Medicamentos (Despacho 1571-B/2016).,Ao abrigo de acordo-quadro (art.º 259.º),Aquisição de bens móveis,"33600000-6, Produtos farmacêuticos","Centro Hospitalar Cova da Beira, E. P. E. (506361659)","CSL Bering, Lda. (503047201)","3.513,60 €",06-06-2018,05-06-2018,210 dias,"Portugal, Castelo Branco, Covilhã",Artigo 259.º do Código dos Contratos Públicos,,,,,,3425762,"ACORDO QUADRO P/ AQUISIÇÃO DE MEIOS P/REALIZAÇÃO DE ANAL.CLINICAS """"URINA (CARACTERES GERAIS E SEDIMENTOS)",FALSE
Aquisição Centralizada de Medicamentos (Despacho 1571-B/2016).,Ao abrigo de acordo-quadro (art.º 259.º),Aquisição de bens móveis,"33600000-6, Produtos farmacêuticos","Centro Hospitalar Cova da Beira, E. P. E. (506361659)","Teva Pharma - Produtos Farmacêuticos, Lda. (507045491)","20.199,68 €",06-06-2018,06-01-2018,213 dias,"Portugal, Castelo Branco, Covilhã",Artigo 259.º do Código dos Contratos Públicos,,,,,,3384719,Aquisição de Produtos de Higiene de WC,FALSE
Aquisição de serviços de manutenção e assistência técnica a equipamentos vários instalados no CHCB,Ajuste Direto Regime Geral,Aquisição de serviços,"50400000-9, Serviços de reparação e manutenção de equipamento médico e de precisão","Centro Hospitalar Cova da Beira, E. P. E. (506361659)","Dräger Portugal, Lda (508771323)","29.995,00 €",04-06-2018,26-04-2018,365 dias,"Portugal, Castelo Branco, Covilhã","Artigo 20.º, n.º 1, alínea a) do Código dos Contratos Públicos",,,,,,Não aplicável.,Não aplicável.,FALSE
Aquisição de DM's para Alimentação e Aspiração,Concurso público,Aquisição de bens móveis,"33140000-3, Material médico de consumo","Centro Hospitalar Cova da Beira, E. P. E. (506361659)","MEDTRONIC PORTUGAL, LDA (504223933)","7.637,07 €",01-06-2018,17-05-2018,245 dias,"Portugal, Castelo Branco, Covilhã","Artigo 20.º, n.º 1, alínea b) do Código dos Contratos Públicos",,,,,,Não aplicável.,Não aplicável.,FALSE
