Objeto do Contrato,Tipo de Procedimento,Tipo(s) de Contrato,CPVs,Entidade(s) Adjudicante(s),Entidade(s) Adjudicatária(s),Preço Contratual,Data de Publicação,Data de Celebração do Contrato,Prazo de Execução,Local de Execução,Fundamentação,Data de Fecho do Contrato,Preço Total Efetivo,Causas das Alterações ao Prazo,Causas das Alterações ao Preço,Estado,N.º registo do Acordo Quadro,Descrição do Acordo Quadro,Procedimento Centralizado
Aquisição de DM Encavilhamento,Concurso público,Aquisição de bens móveis,"33141700-7, Material ortopédico","Hospital Distrital de Santarém, E. P. E. (506361462)","JOHNSON & JOHNSON, MEDICAL (500153370)","5.150,00 €",09-08-2018,02-04-2018,365 dias,"Portugal, Santarém, Santarém","Artigo 20.º, n.º 1, alínea b) do Código dos Contratos Públicos",,,,,,Não aplicável.,Não aplicável.,FALSE
Aquisição de DM Encavilhamento,Concurso público,Aquisição de bens móveis,"33141700-7, Material ortopédico","Hospital Distrital de Santarém, E. P. E. (506361462)",SMITH & NEPHEW (503552461),"146.297,78 €",09-08-2018,20-04-2018,365 dias,"Portugal, Santarém, Santarém","Artigo 20.º, n.º 1, alínea b) do Código dos Contratos Públicos",,,,,,Não aplicável.,Não aplicável.,FALSE
Aquisição tubos para anestesia,Consulta Prévia,Aquisição de bens móveis,"33000000-0, Equipamento médico, medicamentos e produtos para cuidados pessoais","Hospital Distrital de Santarém, E. P. E. (506361462)","MEDTRONIC PORTUGAL, LDA (504223933)","3.510,50 €",09-08-2018,04-05-2018,180 dias,"Portugal, Santarém, Santarém","Artigo 20.º, n.º 1, alínea c) do Código dos Contratos Públicos",,,,,,Não aplicável.,Não aplicável.,FALSE
Aquisição tubos para anestesia,Consulta Prévia,Aquisição de bens móveis,"33000000-0, Equipamento médico, medicamentos e produtos para cuidados pessoais","Hospital Distrital de Santarém, E. P. E. (506361462)",INTERSURGICAL PORTUGAL (503480045),"510,40 €",09-08-2018,04-05-2018,180 dias,"Portugal, Santarém, Santarém","Artigo 20.º, n.º 1, alínea c) do Código dos Contratos Públicos",,,,,,Não aplicável.,Não aplicável.,FALSE
Aquisição tubos para anestesia,Consulta Prévia,Aquisição de bens móveis,"33000000-0, Equipamento médico, medicamentos e produtos para cuidados pessoais","Hospital Distrital de Santarém, E. P. E. (506361462)",TELEFLEX MEDICAL S.A (980249783),"496,70 €",09-08-2018,04-05-2018,180 dias,"Portugal, Santarém, Santarém","Artigo 20.º, n.º 1, alínea c) do Código dos Contratos Públicos",,,,,,Não aplicável.,Não aplicável.,FALSE
Aquisição tubos para anestesia,Consulta Prévia,Aquisição de bens móveis,"33000000-0, Equipamento médico, medicamentos e produtos para cuidados pessoais","Hospital Distrital de Santarém, E. P. E. (506361462)",SMITHS MEDICAL PORTUGAL UNIPESSOAL LDA (507445937),"176,00 €",09-08-2018,04-05-2018,180 dias,"Portugal, Santarém, Santarém","Artigo 20.º, n.º 1, alínea c) do Código dos Contratos Públicos",,,,,,Não aplicável.,Não aplicável.,FALSE
Aquisição de carro rodado simples,Ajuste Direto Regime Geral,Aquisição de bens móveis,"33000000-0, Equipamento médico, medicamentos e produtos para cuidados pessoais","Hospital Distrital de Santarém, E. P. E. (506361462)","Eugénio Pereira, Lda (503989525)","870,00 €",07-08-2018,27-07-2018,30 dias,"Portugal, Santarém, Santarém","Artigo 20.º, n.º 1, alínea d) do Código dos Contratos Públicos",,,,,,Não aplicável.,Não aplicável.,FALSE
170020/2018 Trabalhos de construção civil-Empreitada por série de preços,Concurso público,Empreitadas de obras públicas,"45000000-7, Construção","Hospital Distrital de Santarém, EPE (506361462)","SECAL, SA (501982248)","82.265,90 €",03-08-2018,18-07-2018,243 dias,"Portugal, Santarém, Santarém","Artigo 19.º, alínea b) do Código dos Contratos Públicos",,,,,,Não aplicável.,Não aplicável.,FALSE
"170009/2018 - Empreitada AVAC Serviço Medicina Fisica do HDS,EPE",Concurso público,Empreitadas de obras públicas,"45000000-7, Construção","Hospital Distrital de Santarém, EPE (506361462)","Termotermica Instalações Especiais, Lda (504013432)","135.606,36 €",02-08-2018,21-05-2018,90 dias,"Portugal, Santarém, Santarém","Artigo 19.º, alínea b) do Código dos Contratos Públicos",,,,,,Não aplicável.,Não aplicável.,FALSE
Aquisição de impressoras,Consulta Prévia,Aquisição de bens móveis,"30000000-9, Máquinas, equipamento e material de escritório e de informática, excepto mobiliário e pacotes de programas (software)","Hospital Distrital de Santarém, E. P. E. (506361462)","BUROTICA-SOC.EST. E EQUIP.,SA (501178503)","3.050,00 €",31-07-2018,02-07-2018,30 dias,"Portugal, Santarém, Santarém","Artigo 20.º, n.º 1, alínea c) do Código dos Contratos Públicos",,,,,,Não aplicável.,Não aplicável.,FALSE
Aquisição de impressoras,Consulta Prévia,Aquisição de bens móveis,"30000000-9, Máquinas, equipamento e material de escritório e de informática, excepto mobiliário e pacotes de programas (software)","Hospital Distrital de Santarém, E. P. E. (506361462)",ITEN SOLUTIONS - SISTEMAS DE INFORMAÇÃO S.A (510728189),"757,25 €",31-07-2018,02-07-2018,30 dias,"Portugal, Santarém, Santarém","Artigo 20.º, n.º 1, alínea c) do Código dos Contratos Públicos",,,,,,Não aplicável.,Não aplicável.,FALSE
Aquisição de filtros para torneiras e chuveiros,Consulta Prévia,Aquisição de bens móveis,"32000000-3, Equipamento de rádio, televisão, comunicação, telecomunicações e afins","Hospital Distrital de Santarém, E. P. E. (506361462)","Air Liquide Medicinal, SA (501576436)","9.639,90 €",31-07-2018,25-07-2018,150 dias,"Portugal, Santarém, Santarém","Artigo 20.º, n.º 1, alínea c) do Código dos Contratos Públicos",,,,,,Não aplicável.,Não aplicável.,FALSE
