Objeto do Contrato,Tipo de Procedimento,Tipo(s) de Contrato,CPVs,Entidade(s) Adjudicante(s),Entidade(s) Adjudicatária(s),Preço Contratual,Data de Publicação,Data de Celebração do Contrato,Prazo de Execução,Local de Execução,Fundamentação,Data de Fecho do Contrato,Preço Total Efetivo,Causas das Alterações ao Prazo,Causas das Alterações ao Preço,Estado,N.º registo do Acordo Quadro,Descrição do Acordo Quadro,Procedimento Centralizado
040226722017 - OUTRO MATERIAL DE CONSUMO,Ajuste Direto Regime Geral,Aquisição de bens móveis,"33000000-0, Equipamento médico, medicamentos e produtos para cuidados pessoais","Centro Hospitalar e Universitário de Coimbra, E. P. E. (510103448)",OASIPOR (502260750),"9.875,00 €",21-11-2017,16-10-2017,20 dias,"Portugal, Coimbra, Coimbra","Artigo 24.º, n.º 1, alínea e) do Código dos Contratos Públicos",08-11-2017,"9.875,00 €",,"",,Não aplicável.,Não aplicável.,FALSE
040225262017 - OUTRO MATERIAL DE CONSUMO,Ajuste Direto Regime Geral,Aquisição de bens móveis,"33000000-0, Equipamento médico, medicamentos e produtos para cuidados pessoais","Centro Hospitalar e Universitário de Coimbra, E. P. E. (510103448)","ALVES & COMPANHIA (IRMÃOS), LDA (500310068)","6.987,00 €",21-11-2017,09-10-2017,5 dias,"Portugal, Coimbra, Coimbra","Artigo 24.º, n.º 1, alínea e) do Código dos Contratos Públicos","","",,"",,Não aplicável.,Não aplicável.,FALSE
040201282017 - OUTRO MATERIAL DE CONSUMO,Ajuste Direto Regime Geral,Aquisição de bens móveis,"33000000-0, Equipamento médico, medicamentos e produtos para cuidados pessoais","Centro Hospitalar e Universitário de Coimbra, E. P. E. (510103448)",LINEAMEDICA (505148676),"4.102,00 €",21-11-2017,18-01-2017,20 dias,"Portugal, Coimbra, Coimbra","Artigo 24.º, n.º 1, alínea e) do Código dos Contratos Públicos","","",,"",,Não aplicável.,Não aplicável.,FALSE
040201232017 - OUTRO MATERIAL DE CONSUMO,Ajuste Direto Regime Geral,Aquisição de bens móveis,"33000000-0, Equipamento médico, medicamentos e produtos para cuidados pessoais","Centro Hospitalar e Universitário de Coimbra, E. P. E. (510103448)",GRUPO VITALINO (513083162),"6.048,40 €",21-11-2017,26-04-2017,20 dias,"Portugal, Coimbra, Coimbra","Artigo 24.º, n.º 1, alínea e) do Código dos Contratos Públicos","","",,"",,Não aplicável.,Não aplicável.,FALSE
040201262017 - OUTRO MATERIAL DE CONSUMO,Ajuste Direto Regime Geral,Aquisição de bens móveis,"33000000-0, Equipamento médico, medicamentos e produtos para cuidados pessoais","Centro Hospitalar e Universitário de Coimbra, E. P. E. (510103448)",INTERSURGICAL (503480045),"4.108,68 €",21-11-2017,25-01-2017,20 dias,"Portugal, Coimbra, Coimbra","Artigo 24.º, n.º 1, alínea e) do Código dos Contratos Públicos","","",,"",,Não aplicável.,Não aplicável.,FALSE
040201332017 - OUTRO MATERIAL DE CONSUMO,Ajuste Direto Regime Geral,Aquisição de bens móveis,"33000000-0, Equipamento médico, medicamentos e produtos para cuidados pessoais","Centro Hospitalar e Universitário de Coimbra, E. P. E. (510103448)",MEDTRONIC (504223933),"9.660,00 €",21-11-2017,18-01-2017,20 dias,"Portugal, Coimbra, Coimbra","Artigo 24.º, n.º 1, alínea e) do Código dos Contratos Públicos","","",,"",,Não aplicável.,Não aplicável.,FALSE
040201382017 - OUTRO MATERIAL DE CONSUMO,Ajuste Direto Regime Geral,Aquisição de bens móveis,"33000000-0, Equipamento médico, medicamentos e produtos para cuidados pessoais","Centro Hospitalar e Universitário de Coimbra, E. P. E. (510103448)",NORMAX (500203130),"4.452,50 €",21-11-2017,18-01-2017,20 dias,"Portugal, Coimbra, Coimbra","Artigo 24.º, n.º 1, alínea e) do Código dos Contratos Públicos",31-03-2017,"3.870,58 €",,NAO FOI ADQUIRIDO O MATERIAL NA TOTALIDADE,,Não aplicável.,Não aplicável.,FALSE
040203672017 - KIT,Ajuste Direto Regime Geral,Aquisição de bens móveis,"33000000-0, Equipamento médico, medicamentos e produtos para cuidados pessoais","Centro Hospitalar e Universitário de Coimbra, E. P. E. (510103448)",BONECARE (505899914),"9.000,00 €",21-11-2017,25-01-2017,20 dias,"Portugal, Coimbra, Coimbra","Artigo 24.º, n.º 1, alínea e) do Código dos Contratos Públicos","","",,"",,Não aplicável.,Não aplicável.,FALSE
040203652017 - OUTRO MATERIAL DE CONSUMO,Ajuste Direto Regime Geral,Aquisição de bens móveis,"33000000-0, Equipamento médico, medicamentos e produtos para cuidados pessoais","Centro Hospitalar e Universitário de Coimbra, E. P. E. (510103448)",ESTERIPLAS (502020776),"6.960,00 €",21-11-2017,27-01-2017,20 dias,"Portugal, Coimbra, Coimbra","Artigo 24.º, n.º 1, alínea e) do Código dos Contratos Públicos","","",,"",,Não aplicável.,Não aplicável.,FALSE
040203052017 - FIOS,Ajuste Direto Regime Geral,Aquisição de bens móveis,"33000000-0, Equipamento médico, medicamentos e produtos para cuidados pessoais","Centro Hospitalar e Universitário de Coimbra, E. P. E. (510103448)",EXPOMEDICA (501886621),"5.998,00 €",21-11-2017,19-01-2017,20 dias,"Portugal, Coimbra, Coimbra","Artigo 24.º, n.º 1, alínea e) do Código dos Contratos Públicos","","",,"",,Não aplicável.,Não aplicável.,FALSE
040203022017 - OUTRO MATERIAL DE CONSUMO,Ajuste Direto Regime Geral,Aquisição de bens móveis,"33000000-0, Equipamento médico, medicamentos e produtos para cuidados pessoais","Centro Hospitalar e Universitário de Coimbra, E. P. E. (510103448)",EPJMEDICA (506820513),"9.727,50 €",21-11-2017,18-01-2017,15 dias,"Portugal, Coimbra, Coimbra","Artigo 24.º, n.º 1, alínea e) do Código dos Contratos Públicos",13-02-2017,"9.727,50 €",,"",,Não aplicável.,Não aplicável.,FALSE
040203012017 - OUTRO MATERIAL DE CONSUMO,Ajuste Direto Regime Geral,Aquisição de bens móveis,"33000000-0, Equipamento médico, medicamentos e produtos para cuidados pessoais","Centro Hospitalar e Universitário de Coimbra, E. P. E. (510103448)",EPJMEDICA (506820513),"9.727,50 €",21-11-2017,18-01-2017,20 dias,"Portugal, Coimbra, Coimbra","Artigo 24.º, n.º 1, alínea e) do Código dos Contratos Públicos",26-01-2017,"9.727,50 €",,"",,Não aplicável.,Não aplicável.,FALSE
040203002017 - OUTRO MATERIAL DE CONSUMO,Ajuste Direto Regime Geral,Aquisição de bens móveis,"33000000-0, Equipamento médico, medicamentos e produtos para cuidados pessoais","Centro Hospitalar e Universitário de Coimbra, E. P. E. (510103448)",EPJMEDICA (506820513),"9.727,50 €",21-11-2017,18-01-2017,20 dias,"Portugal, Coimbra, Coimbra","Artigo 24.º, n.º 1, alínea e) do Código dos Contratos Públicos",14-03-2017,"9.727,50 €",,"",,Não aplicável.,Não aplicável.,FALSE
040202382017 - OUTRO MATERIAL DE CONSUMO,Ajuste Direto Regime Geral,Aquisição de bens móveis,"33000000-0, Equipamento médico, medicamentos e produtos para cuidados pessoais","Centro Hospitalar e Universitário de Coimbra, E. P. E. (510103448)",PULMOCOR (501402578),"6.180,00 €",21-11-2017,10-02-2017,20 dias,"Portugal, Coimbra, Coimbra","Artigo 24.º, n.º 1, alínea e) do Código dos Contratos Públicos","","",,"",,Não aplicável.,Não aplicável.,FALSE
040202102017 - OUTRO MATERIAL DE CONSUMO,Ajuste Direto Regime Geral,Aquisição de bens móveis,"33000000-0, Equipamento médico, medicamentos e produtos para cuidados pessoais","Centro Hospitalar e Universitário de Coimbra, E. P. E. (510103448)","MEDICINALIA CORMEDICA - COMER. PROD. MED. HOSP.,LD (500684324)","9.074,84 €",21-11-2017,12-01-2017,25 dias,"Portugal, Coimbra, Coimbra","Artigo 24.º, n.º 1, alínea e) do Código dos Contratos Públicos","","",,"",,Não aplicável.,Não aplicável.,FALSE
040202052017 - OSTEOSSINTESE,Ajuste Direto Regime Geral,Aquisição de bens móveis,"33000000-0, Equipamento médico, medicamentos e produtos para cuidados pessoais","Centro Hospitalar e Universitário de Coimbra, E. P. E. (510103448)",JOHNSON & JOHNSON (500153370),"11.820,56 €",21-11-2017,02-05-2017,2 dias,"Portugal, Coimbra, Coimbra","Artigo 24.º, n.º 1, alínea e) do Código dos Contratos Públicos",02-05-2017,"11.820,56 €",,"",,Não aplicável.,Não aplicável.,FALSE
040228832017 - DIVERSO MATERIAL,Ajuste Direto Regime Geral,Aquisição de bens móveis,"33000000-0, Equipamento médico, medicamentos e produtos para cuidados pessoais","Centro Hospitalar e Universitário de Coimbra, E. P. E. (510103448)",JOHNSON & JOHNSON (500153370),"14.189,31 €",21-11-2017,17-11-2017,2 dias,"Portugal, Coimbra, Coimbra","Artigo 24.º, n.º 1, alínea e) do Código dos Contratos Públicos",17-11-2017,"14.189,31 €",,"",,Não aplicável.,Não aplicável.,FALSE
040224112017 - OSTEOSSINTESE,Ajuste Direto Regime Geral,Aquisição de bens móveis,"33000000-0, Equipamento médico, medicamentos e produtos para cuidados pessoais","Centro Hospitalar e Universitário de Coimbra, E.P. (510103448)",JOHNSON (500153370),"24.471,28 €",20-11-2017,10-10-2017,2 dias,"Portugal, Coimbra, Coimbra","Artigo 24.º, n.º 1, alínea e) do Código dos Contratos Públicos",10-10-2017,"24.471,28 €",,"",,Não aplicável.,Não aplicável.,FALSE
040224882017 - OSTEOSSINTESE,Ajuste Direto Regime Geral,Aquisição de bens móveis,"33000000-0, Equipamento médico, medicamentos e produtos para cuidados pessoais","Centro Hospitalar e Universitário de Coimbra, E.P. (510103448)",JOHNSON (500153370),"11.572,32 €",20-11-2017,22-09-2017,2 dias,"Portugal, Coimbra, Coimbra","Artigo 24.º, n.º 1, alínea e) do Código dos Contratos Públicos",22-09-2017,"11.572,32 €",,"",,Não aplicável.,Não aplicável.,FALSE
040228582017 - OUTRO MATERIAL DE CONSUMO,Ajuste Direto Regime Geral,Aquisição de bens móveis,"33000000-0, Equipamento médico, medicamentos e produtos para cuidados pessoais","Centro Hospitalar e Universitário de Coimbra, E.P. (510103448)",OASIPOR (502260750),"8.690,00 €",20-11-2017,09-11-2017,12 dias,"Portugal, Coimbra, Coimbra","Artigo 24.º, n.º 1, alínea e) do Código dos Contratos Públicos","","",,"",,Não aplicável.,Não aplicável.,FALSE
040226462017 - OSTEOSSINTESE,Ajuste Direto Regime Geral,Aquisição de bens móveis,"33000000-0, Equipamento médico, medicamentos e produtos para cuidados pessoais","Centro Hospitalar e Universitário de Coimbra, E. P. E. (510103448)",JOHNSON & JOHNSON (500153370),"15.526,79 €",20-11-2017,18-10-2017,2 dias,"Portugal, Coimbra, Coimbra","Artigo 24.º, n.º 1, alínea e) do Código dos Contratos Públicos",13-12-2017,"15.215,63 €",,Rectificado o valor da cirurgia,,Não aplicável.,Não aplicável.,FALSE
040227572017 - outro material de consumo,Ajuste Direto Regime Geral,Aquisição de bens móveis,"33000000-0, Equipamento médico, medicamentos e produtos para cuidados pessoais","Centro Hospitalar e Universitário de Coimbra, E. P. E. (510103448)",INDAS (503505196),"9.526,80 €",20-11-2017,08-11-2017,20 dias,"Portugal, Coimbra, Coimbra","Artigo 24.º, n.º 1, alínea e) do Código dos Contratos Públicos","","",,"",,Não aplicável.,Não aplicável.,FALSE
040227562017 - outro material de consumo,Ajuste Direto Regime Geral,Aquisição de bens móveis,"33000000-0, Equipamento médico, medicamentos e produtos para cuidados pessoais","Centro Hospitalar e Universitário de Coimbra, E.P. (510103448)",EPJMEDICA (506820513),"7.782,00 €",20-11-2017,08-11-2017,12 dias,"Portugal, Coimbra, Coimbra","Artigo 24.º, n.º 1, alínea e) do Código dos Contratos Públicos","","",,"",,Não aplicável.,Não aplicável.,FALSE
040224612017 - COLUNA,Ajuste Direto Regime Geral,Aquisição de bens móveis,"33000000-0, Equipamento médico, medicamentos e produtos para cuidados pessoais","Centro Hospitalar e Universitário de Coimbra, E.P. (510103448)",MEDTRONIC (504223933),"20.000,00 €",20-11-2017,25-09-2017,2 dias,"Portugal, Coimbra, Coimbra","Artigo 24.º, n.º 1, alínea e) do Código dos Contratos Públicos",25-09-2017,"20.000,00 €",,"",,Não aplicável.,Não aplicável.,FALSE
040220792017 - OSTEOSSINTESE,Ajuste Direto Regime Geral,Aquisição de bens móveis,"33000000-0, Equipamento médico, medicamentos e produtos para cuidados pessoais","Centro Hospitalar e Universitário de Coimbra, E.P. (510103448)",MEDTRONIC (504223933),"9.049,00 €",20-11-2017,03-08-2017,15 dias,"Portugal, Coimbra, Coimbra","Artigo 24.º, n.º 1, alínea e) do Código dos Contratos Públicos","","",,"",,Não aplicável.,Não aplicável.,FALSE
040224582017 - OUTRO MATERIAL DE CONSUMO,Ajuste Direto Regime Geral,Aquisição de bens móveis,"33000000-0, Equipamento médico, medicamentos e produtos para cuidados pessoais","Centro Hospitalar e Universitário de Coimbra, E. P. E. (510103448)",MEDTRONIC (504223933),"9.716,00 €",20-11-2017,02-10-2017,15 dias,"Portugal, Coimbra, Coimbra","Artigo 24.º, n.º 1, alínea e) do Código dos Contratos Públicos","","",,"",,Não aplicável.,Não aplicável.,FALSE
040218682017 - OUTRO MATERIAL DE CONSUM,Ajuste Direto Regime Geral,Aquisição de bens móveis,"33000000-0, Equipamento médico, medicamentos e produtos para cuidados pessoais","Centro Hospitalar e Universitário de Coimbra, E. P. E. (510103448)",EPJMEDICA (506820513),"9.231,00 €",20-11-2017,29-09-2017,15 dias,"Portugal, Coimbra, Coimbra","Artigo 24.º, n.º 1, alínea e) do Código dos Contratos Públicos","","",,"",,Não aplicável.,Não aplicável.,FALSE
040221302017 - OUTRO MATERIAL DE CONSUMO,Ajuste Direto Regime Geral,Aquisição de bens móveis,"33000000-0, Equipamento médico, medicamentos e produtos para cuidados pessoais","Centro Hospitalar e Universitário de Coimbra, E. P. E. (510103448)",MACHADO MALCHER (500174245),"9.702,22 €",20-11-2017,16-08-2017,20 dias,"Portugal, Coimbra, Coimbra","Artigo 24.º, n.º 1, alínea e) do Código dos Contratos Públicos","","",,"",,Não aplicável.,Não aplicável.,FALSE
040201582017 - OUTRO MATERIAL DE CONSUMO,Ajuste Direto Regime Geral,Aquisição de bens móveis,"33000000-0, Equipamento médico, medicamentos e produtos para cuidados pessoais","Centro Hospitalar e Universitário de Coimbra, E. P. E. (510103448)",SPECULUM (502996323),"4.916,81 €",20-11-2017,25-01-2017,12 dias,"Portugal, Coimbra, Coimbra","Artigo 24.º, n.º 1, alínea e) do Código dos Contratos Públicos","","",,"",,Não aplicável.,Não aplicável.,FALSE
040201562017 - OUTRO MATERIAL DE CONSUMO,Ajuste Direto Regime Geral,Aquisição de bens móveis,"33000000-0, Equipamento médico, medicamentos e produtos para cuidados pessoais","Centro Hospitalar e Universitário de Coimbra, E. P. E. (510103448)",MEDICINALIA CORMEDICA (500684324),"9.972,72 €",20-11-2017,26-04-2017,25 dias,"Portugal, Coimbra, Coimbra","Artigo 24.º, n.º 1, alínea e) do Código dos Contratos Públicos","","",,"",,Não aplicável.,Não aplicável.,FALSE
040201552017 - OUTRO MATERIAL DE CONSUMO,Ajuste Direto Regime Geral,Aquisição de bens móveis,"33000000-0, Equipamento médico, medicamentos e produtos para cuidados pessoais","Centro Hospitalar e Universitário de Coimbra, E. P. E. (510103448)",SOCIME (504453939),"5.750,00 €",20-11-2017,25-01-2017,20 dias,"Portugal, Coimbra, Coimbra","Artigo 24.º, n.º 1, alínea e) do Código dos Contratos Públicos","","",,"",,Não aplicável.,Não aplicável.,FALSE
040216102017 - OUTRO MATERIAL DE CONSUM,Ajuste Direto Regime Geral,Aquisição de bens móveis,"33000000-0, Equipamento médico, medicamentos e produtos para cuidados pessoais","Centro Hospitalar e Universitário de Coimbra, E. P. E. (510103448)",HR (501895558),"9.275,00 €",20-11-2017,28-06-2017,20 dias,"Portugal, Coimbra, Coimbra","Artigo 24.º, n.º 1, alínea e) do Código dos Contratos Públicos","","",,"",,Não aplicável.,Não aplicável.,FALSE
040201392017 - OUTRO MATERIAL DE CONSUMO,Ajuste Direto Regime Geral,Aquisição de bens móveis,"33000000-0, Equipamento médico, medicamentos e produtos para cuidados pessoais","Centro Hospitalar e Universitário de Coimbra, E. P. E. (510103448)",NOVALEC (502249919),"9.000,00 €",20-11-2017,01-03-2017,10 dias,"Portugal, Coimbra, Coimbra","Artigo 24.º, n.º 1, alínea e) do Código dos Contratos Públicos","","",,"",,Não aplicável.,Não aplicável.,FALSE
MATERIAL TRATAMENTO,Ajuste Direto Regime Geral,Aquisição de bens móveis,"33000000-0, Equipamento médico, medicamentos e produtos para cuidados pessoais","Centro Hospitalar e Universitário de Coimbra, E. P. E. (510103448)",TERUMO EUROPE ESPANHA SL (DELEGAÇAO PORTUGAL) (980472024),"34.110,00 €",20-11-2017,27-10-2017,20 dias,"Portugal, Coimbra, Coimbra","Artigo 24.º, n.º 1, alínea e) do Código dos Contratos Públicos",31-12-2017,"30.232,76 €",,AQUISIÇAO PARCIAL,,Não aplicável.,Não aplicável.,FALSE
MATERIAL TRATAMENTO,Ajuste Direto Regime Geral,Aquisição de bens móveis,"33000000-0, Equipamento médico, medicamentos e produtos para cuidados pessoais","Centro Hospitalar e Universitário de Coimbra, E. P. E. (510103448)","BIOSONDA - COMERCIO MAT. HOSPITALAR, LDA (501463313)","25.120,00 €",17-11-2017,23-10-2017,20 dias,"Portugal, Coimbra, Coimbra","Artigo 24.º, n.º 1, alínea e) do Código dos Contratos Públicos",31-12-2017,"25.120,00 €",,"",,Não aplicável.,Não aplicável.,FALSE
Aquisição de uma máquina automática de corte e selagem de manga mista,Ajuste Direto Regime Geral,Aquisição de bens móveis,"30000000-9, Máquinas, equipamento e material de escritório e de informática, excepto mobiliário e pacotes de programas (software)","Centro Hospitalar e Universitário de Coimbra, E. P. E. (510103448)","PROHS - EQUIP. HOSPITALAR E SERV.  ASSOCIADOS, LDA (505005468)","7.990,00 €",17-11-2017,31-10-2017,30 dias,"Portugal, Coimbra, Coimbra","Artigo 20.º, n.º 1, alínea a) do Código dos Contratos Públicos","","",,"",,Não aplicável.,Não aplicável.,FALSE
Renovação Licença 2017/2018,Ajuste Direto Regime Geral,Aquisição de bens móveis,"48000000-8, Pacotes de software e sistemas de informação","Centro Hospitalar e Universitário de Coimbra, E. P. E. (510103448)","NEUROINOVA, LDA (509678092)","1.390,00 €",17-11-2017,26-10-2017,30 dias,"Portugal, Coimbra, Coimbra","Artigo 20.º, n.º 1, alínea a) do Código dos Contratos Públicos","","",,"",,Não aplicável.,Não aplicável.,FALSE
Aquisição de uma máquina automática de corte e selagem de manga mista para o serviço de esterilização (240),Ajuste Direto Regime Geral,Aquisição de bens móveis,"31000000-6, Maquinaria, aparelhagem, equipamento e consumíveis eléctricos; iluminação","Centro Hospitalar e Universitário de Coimbra, E. P. E. (510103448)",PROHS (169710882),"7.990,00 €",17-11-2017,31-10-2017,20 dias,"Portugal, Coimbra, Coimbra","Artigo 20.º, n.º 1, alínea a) do Código dos Contratos Públicos","","",,"",,Não aplicável.,Não aplicável.,FALSE
Fornecimento e Montagem de 14 candeeiros de observação para o serviço de urgência (570),Ajuste Direto Regime Geral,Aquisição de bens móveis,"33000000-0, Equipamento médico, medicamentos e produtos para cuidados pessoais","Centro Hospitalar e Universitário de Coimbra, E. P. E. (510103448)",CRTM (513738045),"5.376,00 €",17-11-2017,10-11-2017,30 dias,"Portugal, Coimbra, Coimbra","Artigo 20.º, n.º 1, alínea a) do Código dos Contratos Públicos","","",,"",,Não aplicável.,Não aplicável.,FALSE
Aquisição de 1 aparelho de eletroacunpultura para a unidade de dor crónica - serviço de Anestesiologia,Ajuste Direto Regime Geral,Aquisição de bens móveis,"33000000-0, Equipamento médico, medicamentos e produtos para cuidados pessoais","Centro Hospitalar e Universitário de Coimbra, E. P. E. (510103448)",GRUPO VITALINO (513083162),"475,09 €",17-11-2017,10-11-2017,20 dias,"Portugal, Coimbra, Coimbra","Artigo 20.º, n.º 1, alínea a) do Código dos Contratos Públicos","","",,"",,Não aplicável.,Não aplicável.,FALSE
MICROGUIA HIDROFILICA,Ajuste Direto Regime Geral,Aquisição de bens móveis,"33000000-0, Equipamento médico, medicamentos e produtos para cuidados pessoais","Centro Hospitalar e Universitário de Coimbra, E. P. E. (510103448)","MEDICINALIA CORMEDICA - COMER. PROD. MED. HOSP.,LD (500684324)","9.570,00 €",17-11-2017,03-11-2017,365 dias,"Portugal, Coimbra, Coimbra","Artigo 24.º, n.º 1, alínea e) do Código dos Contratos Públicos",31-12-2017,"9.570,00 €",,"",,Não aplicável.,Não aplicável.,FALSE
MATERIAL TRATAMENTO,Ajuste Direto Regime Geral,Aquisição de bens móveis,"33000000-0, Equipamento médico, medicamentos e produtos para cuidados pessoais","Centro Hospitalar e Universitário de Coimbra, E. P. E. (510103448)",ST. JUDE MEDICAL PORTUGAL (504180746),"9.820,00 €",17-11-2017,12-10-2017,365 dias,"Portugal, Coimbra, Coimbra","Artigo 24.º, n.º 1, alínea e) do Código dos Contratos Públicos",31-12-2017,"9.120,00 €",,AQUISIÇAO PARCIAL,,Não aplicável.,Não aplicável.,FALSE
Aquisição de um sistema de PCR em tempo real para o serviço de pneumologia clínica do HP,Ajuste Direto Regime Geral,Aquisição de bens móveis,"38000000-5, Equipamento laboratorial, óptico e de precisão (exc. óculos)","Centro Hospitalar e Universitário de Coimbra, E. P. E. (510103448)",ALFAGENE (503387398),"25.625,50 €",17-11-2017,15-11-2017,19 dias,"Portugal, Coimbra, Coimbra","Artigo 20.º, n.º 1, alínea a) do Código dos Contratos Públicos","","",,"",,Não aplicável.,Não aplicável.,FALSE
Aquisição de dois microscópios para o serviço de Ginecologia- Internamento e Consulta Externa/Ginecologia - Pólo B,Ajuste Direto Regime Geral,Aquisição de bens móveis,"33000000-0, Equipamento médico, medicamentos e produtos para cuidados pessoais","Centro Hospitalar e Universitário de Coimbra, E. P. E. (510103448)",LEICA MICROSISTEMS (500301921),"4.720,42 €",17-11-2017,13-11-2017,20 dias,"Portugal, Coimbra, Coimbra","Artigo 20.º, n.º 1, alínea a) do Código dos Contratos Públicos","","",,"",,Não aplicável.,Não aplicável.,FALSE
Aquisição de um carro terapêutica para o serviço de neurologia B- Pólo HUC,Ajuste Direto Regime Geral,Aquisição de bens móveis,"39000000-2, Mobiliário (incl. de escritório), acessórios, aparelhos domésticos (excl. iluminação) e produtos de limpeza","Centro Hospitalar e Universitário de Coimbra, E. P. E. (510103448)",Bacelar&Irmão (500532818),"2.393,99 €",17-11-2017,02-11-2017,20 dias,"Portugal, Coimbra, Coimbra","Artigo 20.º, n.º 1, alínea a) do Código dos Contratos Públicos","","",,"",,Não aplicável.,Não aplicável.,FALSE
Aquisição de diverso equipamento informático para o STSI,Ajuste Direto Regime Geral,Aquisição de bens móveis,"30000000-9, Máquinas, equipamento e material de escritório e de informática, excepto mobiliário e pacotes de programas (software)","Centro Hospitalar e Universitário de Coimbra, E. P. E. (510103448)",normática (501782230),"4.801,06 €",17-11-2017,07-11-2017,20 dias,"Portugal, Coimbra, Coimbra","Artigo 20.º, n.º 1, alínea a) do Código dos Contratos Públicos","","",,"",,Não aplicável.,Não aplicável.,FALSE
KIT NEFROSTOMIA 8FR,Ajuste Direto Regime Geral,Aquisição de bens móveis,"33000000-0, Equipamento médico, medicamentos e produtos para cuidados pessoais","Centro Hospitalar e Universitário de Coimbra, E. P. E. (510103448)","TELEFLEX MEDICAL, SAU (EX-ARROW IBÉRICA,  SA) (980249783)","5.320,00 €",17-11-2017,02-11-2017,20 dias,"Portugal, Coimbra, Coimbra","Artigo 24.º, n.º 1, alínea e) do Código dos Contratos Públicos",31-12-2017,"5.320,00 €",,"",,Não aplicável.,Não aplicável.,FALSE
MATERIAL P/ EL ECTROFISIOLOGIA,Ajuste Direto Regime Geral,Aquisição de bens móveis,"33000000-0, Equipamento médico, medicamentos e produtos para cuidados pessoais","Centro Hospitalar e Universitário de Coimbra, E. P. E. (510103448)","JOHNSON & JOHNSON, LDA (500153370)","79.450,00 €",17-11-2017,03-11-2017,20 dias,"Portugal, Coimbra, Coimbra","Artigo 24.º, n.º 1, alínea e) do Código dos Contratos Públicos",31-12-2017,"79.450,00 €",,"",,Não aplicável.,Não aplicável.,FALSE
MATERIAL TRATAMENTO,Ajuste Direto Regime Geral,Aquisição de bens móveis,"33000000-0, Equipamento médico, medicamentos e produtos para cuidados pessoais","Centro Hospitalar e Universitário de Coimbra, E. P. E. (510103448)","MEDICINALIA CORMEDICA - COMER. PROD. MED. HOSP.,LD (500684324)","15.677,50 €",17-11-2017,03-11-2017,20 dias,"Portugal, Coimbra, Coimbra","Artigo 24.º, n.º 1, alínea e) do Código dos Contratos Públicos",31-12-2017,"15.677,50 €",,"",,Não aplicável.,Não aplicável.,FALSE
Aquisição de centrífuga para o serviço de Hematologia Clínica,Ajuste Direto Regime Geral,Aquisição de bens móveis,"33000000-0, Equipamento médico, medicamentos e produtos para cuidados pessoais","Centro Hospitalar e Universitário de Coimbra, E. P. E. (510103448)",GRUPO TAPER  (506886336),"1.200,00 €",17-11-2017,11-11-2017,30 dias,"Portugal, Coimbra, Coimbra","Artigo 20.º, n.º 1, alínea a) do Código dos Contratos Públicos","","",,"",,Não aplicável.,Não aplicável.,FALSE
"Aquisição de 4 aparelhos de fototerapia para o serviço de, UCIN_neonatologia B da MBB (11301)",Ajuste Direto Regime Geral,Aquisição de bens móveis,"33000000-0, Equipamento médico, medicamentos e produtos para cuidados pessoais","Centro Hospitalar e Universitário de Coimbra, E. P. E. (510103448)",sanotecnica (500239819),"17.000,00 €",17-11-2017,06-11-2017,19 dias,"Portugal, Coimbra, Coimbra","Artigo 20.º, n.º 1, alínea a) do Código dos Contratos Públicos","","",,"",,Não aplicável.,Não aplicável.,FALSE
"Bolsas, Capas e CD's impressos",Ajuste Direto Regime Geral,Aquisição de bens móveis,"30100000-0, Máquinas, equipamento e material de escritório, excepto computadores, impressoras e mobiliário","Centro Hospitalar e Universitário de Coimbra, E.P. (510103448)","ENVELOPRINTER,LDA (508469830)","2.075,50 €",17-11-2017,14-11-2017,45 dias,"Portugal, Coimbra, Coimbra","Artigo 20.º, n.º 1, alínea a) do Código dos Contratos Públicos",30-12-2017,"1.675,50 €",,"As necessidades efectivas do Hospital restringiram-se aos  1.675,50€ + IVA indicados.",,Não aplicável.,Não aplicável.,FALSE
MATERIAL TRATAMENTO,Ajuste Direto Regime Geral,Aquisição de bens móveis,"33000000-0, Equipamento médico, medicamentos e produtos para cuidados pessoais","Centro Hospitalar e Universitário de Coimbra, E. P. E. (510103448)","BAXTER MEDICO - FARMACEUTICO, LDA (503347345)","9.517,50 €",16-11-2017,24-10-2017,365 dias,"Portugal, Coimbra, Coimbra","Artigo 24.º, n.º 1, alínea e) do Código dos Contratos Públicos",31-12-2017,"9.517,50 €",,"",,Não aplicável.,Não aplicável.,FALSE
GUIA PRESSAO,Ajuste Direto Regime Geral,Aquisição de bens móveis,"33000000-0, Equipamento médico, medicamentos e produtos para cuidados pessoais","Centro Hospitalar e Universitário de Coimbra, E. P. E. (510103448)",VOLCANO EUROPE (BE59842345),"38.250,00 €",16-11-2017,16-10-2017,20 dias,"Portugal, Coimbra, Coimbra","Artigo 24.º, n.º 1, alínea e) do Código dos Contratos Públicos",31-12-2017,"38.250,00 €",,"",,Não aplicável.,Não aplicável.,FALSE
040216952017 - OSTEOSSINTESE,Ajuste Direto Regime Geral,Aquisição de bens móveis,"33000000-0, Equipamento médico, medicamentos e produtos para cuidados pessoais","Centro Hospitalar e Universitário de Coimbra, E. P. E. (510103448)",JOHNSON (500153370),"13.205,13 €",13-11-2017,06-06-2017,2 dias,"Portugal, Coimbra, Coimbra","Artigo 24.º, n.º 1, alínea e) do Código dos Contratos Públicos","","",,"",,Não aplicável.,Não aplicável.,FALSE
040216742017 - OUTRO MATERIAL DE CONSUMO,Ajuste Direto Regime Geral,Aquisição de bens móveis,"33000000-0, Equipamento médico, medicamentos e produtos para cuidados pessoais","Centro Hospitalar e Universitário de Coimbra, E. P. E. (510103448)",RMV (507866347),"6.092,20 €",13-11-2017,02-06-2017,15 dias,"Portugal, Coimbra, Coimbra","Artigo 24.º, n.º 1, alínea e) do Código dos Contratos Públicos","","",,"",,Não aplicável.,Não aplicável.,FALSE
040216442017 - OSTEOSSINTESE,Ajuste Direto Regime Geral,Aquisição de bens móveis,"33000000-0, Equipamento médico, medicamentos e produtos para cuidados pessoais","Centro Hospitalar e Universitário de Coimbra, E. P. E. (510103448)",MEDTRONIC (504223933),"9.860,30 €",13-11-2017,02-06-2017,15 dias,"Portugal, Coimbra, Coimbra","Artigo 24.º, n.º 1, alínea e) do Código dos Contratos Públicos","","",,"",,Não aplicável.,Não aplicável.,FALSE
"Manutenção equipamentos de diagnostico por imagem e ultra-sons e de eletromedicina da marca GE, ano 2017",Ajuste Direto Regime Geral,Aquisição de serviços,"50000000-5, Serviços de reparação e manutenção","Centro Hospitalar e Universitário de Coimbra, E. P. E. (510103448)",General Electric Healthcare Portugal (500357129),"457.429,58 €",13-11-2017,27-10-2017,365 dias,"Portugal, Coimbra, Coimbra","Artigo 24.º, n.º 1, alínea e) do Código dos Contratos Públicos","","",,"",,Não aplicável.,Não aplicável.,FALSE
040215622017 - OUTRO MATERIAL,Ajuste Direto Regime Geral,Aquisição de bens móveis,"33000000-0, Equipamento médico, medicamentos e produtos para cuidados pessoais","Centro Hospitalar e Universitário de Coimbra, E. P. E. (510103448)",JOHNSON (500153370),"4.938,83 €",13-11-2017,30-05-2017,5 dias,"Portugal, Coimbra, Coimbra","Artigo 24.º, n.º 1, alínea e) do Código dos Contratos Públicos","","",,"",,Não aplicável.,Não aplicável.,FALSE
040216052017 - OUTRO MATERIAL DE CONSUMO,Ajuste Direto Regime Geral,Aquisição de bens móveis,"33000000-0, Equipamento médico, medicamentos e produtos para cuidados pessoais","Centro Hospitalar e Universitário de Coimbra, E. P. E. (510103448)",EKRIOR (508115175),"8.400,00 €",13-11-2017,30-05-2017,15 dias,"Portugal, Coimbra, Coimbra","Artigo 24.º, n.º 1, alínea e) do Código dos Contratos Públicos","","",,"",,Não aplicável.,Não aplicável.,FALSE
040215552017 - LUVAS,Ajuste Direto Regime Geral,Aquisição de bens móveis,"33000000-0, Equipamento médico, medicamentos e produtos para cuidados pessoais","Centro Hospitalar e Universitário de Coimbra, E. P. E. (510103448)",EPJ (506820513),"9.727,50 €",13-11-2017,29-05-2017,15 dias,"Portugal, Coimbra, Coimbra","Artigo 24.º, n.º 1, alínea e) do Código dos Contratos Públicos","","",,"",,Não aplicável.,Não aplicável.,FALSE
040215462017 - PROTESE TUMORAL,Ajuste Direto Regime Geral,Aquisição de bens móveis,"33000000-0, Equipamento médico, medicamentos e produtos para cuidados pessoais","Centro Hospitalar e Universitário de Coimbra, E. P. E. (510103448)",MBA PORTUGAL (504445960),"21.775,00 €",13-11-2017,21-06-2017,1 dias,"Portugal, Coimbra, Coimbra","Artigo 24.º, n.º 1, alínea e) do Código dos Contratos Públicos",27-06-2017,"21.775,00 €",,"",,Não aplicável.,Não aplicável.,FALSE
040215342017 - OSTEOSSINTESE,Ajuste Direto Regime Geral,Aquisição de bens móveis,"33000000-0, Equipamento médico, medicamentos e produtos para cuidados pessoais","Centro Hospitalar e Universitário de Coimbra, E. P. E. (510103448)",GOLDSPINE (508043328),"5.377,95 €",13-11-2017,29-05-2017,2 dias,"Portugal, Coimbra, Coimbra","Artigo 24.º, n.º 1, alínea e) do Código dos Contratos Públicos","","",,"",,Não aplicável.,Não aplicável.,FALSE
04021512017 - OSTEOSSINTESE,Ajuste Direto Regime Geral,Aquisição de bens móveis,"33000000-0, Equipamento médico, medicamentos e produtos para cuidados pessoais","Centro Hospitalar e Universitário de Coimbra, E. P. E. (510103448)",JOHNSON & JOHNSON (500153370),"9.262,33 €",13-11-2017,07-06-2017,2 dias,"Portugal, Coimbra, Coimbra","Artigo 24.º, n.º 1, alínea e) do Código dos Contratos Públicos","","",,"",,Não aplicável.,Não aplicável.,FALSE
040214622017 - OUTRO MATERIAL DE CONSUMO,Ajuste Direto Regime Geral,Aquisição de bens móveis,"33000000-0, Equipamento médico, medicamentos e produtos para cuidados pessoais","Centro Hospitalar e Universitário de Coimbra, E. P. E. (510103448)",EZEQUIEL PANAO JORGE (501412727),"5.436,20 €",13-11-2017,26-05-2017,15 dias,"Portugal, Coimbra, Coimbra","Artigo 24.º, n.º 1, alínea e) do Código dos Contratos Públicos","","",,"",,Não aplicável.,Não aplicável.,FALSE
040214592017 - OSTEOSSINTESE,Ajuste Direto Regime Geral,Aquisição de bens móveis,"33000000-0, Equipamento médico, medicamentos e produtos para cuidados pessoais","Centro Hospitalar e Universitário de Coimbra, E. P. E. (510103448)",MEDTRONIC (504223933),"12.751,20 €",13-11-2017,26-05-2017,10 dias,"Portugal, Coimbra, Coimbra","Artigo 24.º, n.º 1, alínea e) do Código dos Contratos Públicos","","",,"",,Não aplicável.,Não aplicável.,FALSE
040214562017 - OSTEOSSINTESE,Ajuste Direto Regime Geral,Aquisição de bens móveis,"33000000-0, Equipamento médico, medicamentos e produtos para cuidados pessoais","Centro Hospitalar e Universitário de Coimbra, E. P. E. (510103448)",JOHNSON (500153370),"25.902,80 €",13-11-2017,26-05-2017,2 dias,"Portugal, Coimbra, Coimbra","Artigo 24.º, n.º 1, alínea e) do Código dos Contratos Públicos","","",,"",,Não aplicável.,Não aplicável.,FALSE
040213292017 - OUTRO MATERIAL DE CONSUMO,Ajuste Direto Regime Geral,Aquisição de bens móveis,"33000000-0, Equipamento médico, medicamentos e produtos para cuidados pessoais","Centro Hospitalar e Universitário de Coimbra, E. P. E. (510103448)",MACHADO MALCHER (500174245),"6.148,30 €",13-11-2017,26-05-2017,2 dias,"Portugal, Coimbra, Coimbra","Artigo 24.º, n.º 1, alínea e) do Código dos Contratos Públicos","","",,"",,Não aplicável.,Não aplicável.,FALSE
040211762017 - OUTRO MATERIAL DE CONSUMO,Ajuste Direto Regime Geral,Aquisição de bens móveis,"33000000-0, Equipamento médico, medicamentos e produtos para cuidados pessoais","Centro Hospitalar e Universitário de Coimbra, E. P. E. (510103448)",EZEQUIEL PANAO JORGE (501412727),"9.208,38 €",13-11-2017,05-04-2017,5 dias,"Portugal, Coimbra, Coimbra","Artigo 24.º, n.º 1, alínea e) do Código dos Contratos Públicos","","",,"",,Não aplicável.,Não aplicável.,FALSE
040209792017 - OSTEOSSINTESE,Ajuste Direto Regime Geral,Aquisição de bens móveis,"33000000-0, Equipamento médico, medicamentos e produtos para cuidados pessoais","Centro Hospitalar e Universitário de Coimbra, E. P. E. (510103448)",JOHNSON & JOHNSON (500153370),"43.263,10 €",13-11-2017,21-03-2017,10 dias,"Portugal, Coimbra, Coimbra","Artigo 24.º, n.º 1, alínea e) do Código dos Contratos Públicos",21-03-2017,"43.263,10 €",,"",,Não aplicável.,Não aplicável.,FALSE
