Objeto do Contrato,Tipo de Procedimento,Tipo(s) de Contrato,CPVs,Entidade(s) Adjudicante(s),Entidade(s) Adjudicatária(s),Preço Contratual,Data de Publicação,Data de Celebração do Contrato,Prazo de Execução,Local de Execução,Fundamentação,Data de Fecho do Contrato,Preço Total Efetivo,Causas das Alterações ao Prazo,Causas das Alterações ao Preço,Estado,N.º registo do Acordo Quadro,Descrição do Acordo Quadro,Procedimento Centralizado
Material para perfusão de Visudyne,Ajuste Direto Regime Geral,Aquisição de bens móveis,"33140000-3, Material médico de consumo","Centro Hospitalar de Leiria, E. P. E. (509822932)","B BRAUN MEDICAL, LDA (501506543)","310,20 €",30-05-2018,02-05-2018,30 dias,"Portugal, Leiria, Leiria","Artigo 24.º, n.º 1, alínea c) do Código dos Contratos Públicos","","",,"",,Não aplicável.,Não aplicável.,FALSE
E2/652/2018 - OLIVAS PARA EXAMES DE AUDIOLOGIA,Ajuste Direto Regime Geral,Aquisição de bens móveis,"33140000-3, Material médico de consumo","Centro Hospitalar de Leiria, E. P. E. (509822932)","COSELGI PORTUGAL, SA (509230598)","280,00 €",30-05-2018,20-03-2018,365 dias,"Portugal, Leiria, Leiria","Artigo 24.º, n.º 1, alínea e), subalínea ii) do Código dos Contratos Públicos","","",,"",,Não aplicável.,Não aplicável.,FALSE
E2/654/2018 - ADAPTADOR E SERINGA SISTEMA ENFIT,Ajuste Direto Regime Geral,Aquisição de bens móveis,"33140000-3, Material médico de consumo","Centro Hospitalar de Leiria, E. P. E. (509822932)","H.R. -  HOSPITALAR, LDA (501895558)","3.210,00 €",30-05-2018,20-03-2018,60 dias,"Portugal, Leiria, Leiria","Artigo 24.º, n.º 1, alínea e), subalínea ii) do Código dos Contratos Públicos","","",,"",,Não aplicável.,Não aplicável.,FALSE
E2/853/2018 - BOLSA PARA HIDRATAÇÃO ENTÉRICA,Ajuste Direto Regime Geral,Aquisição de bens móveis,"33140000-3, Material médico de consumo","Centro Hospitalar de Leiria, E. P. E. (509822932)","FRESENIUS KABI PHARMA PORTUGAL, LDA. (504293753)","288,00 €",30-05-2018,18-04-2018,30 dias,"Portugal, Leiria, Leiria","Artigo 24.º, n.º 1, alínea e), subalínea ii) do Código dos Contratos Públicos","","",,"",,Não aplicável.,Não aplicável.,FALSE
E2/917/2018 - PINÇA P/ ELETROCIRURGIA C/ GANCHO MONO POLAR,Ajuste Direto Regime Geral,Aquisição de bens móveis,"33140000-3, Material médico de consumo","Centro Hospitalar de Leiria, E. P. E. (509822932)","MEDTRONIC PORTUGAL, LDA (504223933)","4.085,00 €",30-05-2018,24-04-2018,30 dias,"Portugal, Leiria, Leiria","Artigo 24.º, n.º 1, alínea e), subalínea ii) do Código dos Contratos Públicos","","",,"",,Não aplicável.,Não aplicável.,FALSE
Fio guia hidrofílico,Ajuste Direto Regime Geral,Aquisição de bens móveis,"33140000-3, Material médico de consumo","Centro Hospitalar de Leiria, E. P. E. (509822932)",Terumo (980472024),"665,00 €",30-05-2018,09-05-2018,30 dias,"Portugal, Leiria, Leiria","Artigo 24.º, n.º 1, alínea c) do Código dos Contratos Públicos","","",,"",,Não aplicável.,Não aplicável.,FALSE
Sondas aspirações CH 14 e CH 16,Ajuste Direto Regime Geral,Aquisição de bens móveis,"33140000-3, Material médico de consumo","Centro Hospitalar de Leiria, E. P. E. (509822932)","H.R. -  HOSPITALAR, LDA (501895558)","528,00 €",30-05-2018,09-05-2018,30 dias,"Portugal, Leiria, Leiria","Artigo 24.º, n.º 1, alínea c) do Código dos Contratos Públicos","","",,"",,Não aplicável.,Não aplicável.,FALSE
E1/00000010/2018 - Reagentes para Biologia Molecular,Ajuste Direto Regime Geral,Aquisição de bens móveis,"33600000-6, Produtos farmacêuticos","Centro Hospitalar de Leiria, E. P. E. (509822932)","WERFEN PORTUGAL, LDA. (EX. IZASA) (501086110)","1.450,00 €",30-05-2018,29-05-2018,30 dias,"Portugal, Leiria, Leiria","Artigo 26.º, n.º 1, alínea a) do Código dos Contratos Públicos","","",,"",,Não aplicável.,Não aplicável.,FALSE
Material de penso,Ajuste Direto Regime Geral,Aquisição de bens móveis,"33140000-3, Material médico de consumo","CENTRO HOSPITALAR DE LEIRIA, E.P.E. (509822932)","Texpol – Têxtil planas oliveras Portugal, unipessoal, Lda. (509211216)","484,00 €",29-05-2018,05-01-2018,365 dias,"Portugal, Leiria, Leiria","Artigo 20.º, n.º 1, alínea a) do Código dos Contratos Públicos","","",,"",,Não aplicável.,Não aplicável.,FALSE
Material de penso,Ajuste Direto Regime Geral,Aquisição de bens móveis,"33140000-3, Material médico de consumo","CENTRO HOSPITALAR DE LEIRIA, E.P.E. (509822932)",clinifar (503281115),"2.073,60 €",29-05-2018,05-01-2018,365 dias,"Portugal, Leiria, Leiria","Artigo 20.º, n.º 1, alínea a) do Código dos Contratos Públicos","","",,"",,Não aplicável.,Não aplicável.,FALSE
Material de penso,Ajuste Direto Regime Geral,Aquisição de bens móveis,"33140000-3, Material médico de consumo","CENTRO HOSPITALAR DE LEIRIA, E.P.E. (509822932)","ALBINO DIAS ANDRADE,LDA (500013810)","4.244,50 €",29-05-2018,05-01-2018,365 dias,"Portugal, Leiria, Leiria","Artigo 20.º, n.º 1, alínea a) do Código dos Contratos Públicos","","",,"",,Não aplicável.,Não aplicável.,FALSE
Material de penso,Ajuste Direto Regime Geral,Aquisição de bens móveis,"33140000-3, Material médico de consumo","CENTRO HOSPITALAR DE LEIRIA, E.P.E. (509822932)","DOCWORLD - Dispositivos Médicos, Lda (508592909)","2.396,00 €",29-05-2018,05-01-2018,365 dias,"Portugal, Leiria, Leiria","Artigo 20.º, n.º 1, alínea a) do Código dos Contratos Públicos","","",,"",,Não aplicável.,Não aplicável.,FALSE
Material de penso,Ajuste Direto Regime Geral,Aquisição de bens móveis,"33140000-3, Material médico de consumo","CENTRO HOSPITALAR DE LEIRIA, E.P.E. (509822932)","SMITH & NEPHEW, LDA (503552461)","2.628,00 €",29-05-2018,05-01-2018,365 dias,"Portugal, Leiria, Leiria","Artigo 20.º, n.º 1, alínea a) do Código dos Contratos Públicos","","",,"",,Não aplicável.,Não aplicável.,FALSE
Material de penso,Ajuste Direto Regime Geral,Aquisição de bens móveis,"33140000-3, Material médico de consumo","CENTRO HOSPITALAR DE LEIRIA, E.P.E. (509822932)","MEDLINE INTERNATIONAL UNIPESSOAL, LDA (510533515)","1.771,20 €",29-05-2018,05-01-2018,365 dias,"Portugal, Leiria, Leiria","Artigo 20.º, n.º 1, alínea a) do Código dos Contratos Públicos","","",,"",,Não aplicável.,Não aplicável.,FALSE
Material de Penso,Ajuste Direto Regime Geral,Aquisição de bens móveis,"33140000-3, Material médico de consumo","CENTRO HOSPITALAR DE LEIRIA, E.P.E. (509822932)","B BRAUN MEDICAL, LDA (501506543)","1.050,00 €",29-05-2018,05-01-2018,365 dias,"Portugal, Leiria, Leiria","Artigo 20.º, n.º 1, alínea a) do Código dos Contratos Públicos","","",,"",,Não aplicável.,Não aplicável.,FALSE
Material de penso,Ajuste Direto Regime Geral,Aquisição de bens móveis,"33140000-3, Material médico de consumo","CENTRO HOSPITALAR DE LEIRIA, E.P.E. (509822932)","BSN, Medical S.A (505385058)","7.706,50 €",29-05-2018,05-01-2018,365 dias,"Portugal, Leiria, Leiria","Artigo 20.º, n.º 1, alínea a) do Código dos Contratos Públicos","","",,"",,Não aplicável.,Não aplicável.,FALSE
Material para Laparoscopia,Concurso público,Aquisição de bens móveis,"33169000-2, Material cirúrgico","Centro Hospitalar de Leiria, E. P. E. (509822932)","SFERAMED MEDICAL SUPPLIER, LDA (509762344)","875,00 €",29-05-2018,23-04-2018,365 dias,"Portugal, Leiria, Leiria","Artigo 20.º, n.º 1, alínea b) do Código dos Contratos Públicos","","",,"",,Não aplicável.,Não aplicável.,FALSE
Material para Laparoscopia,Concurso público,Aquisição de bens móveis,"33169000-2, Material cirúrgico","Centro Hospitalar de Leiria, E. P. E. (509822932)","Eurocasmédica, Produtos Hospitalares, S.A. (503322105)","740,00 €",29-05-2018,23-04-2018,365 dias,"Portugal, Leiria, Leiria","Artigo 20.º, n.º 1, alínea b) do Código dos Contratos Públicos","","",,"",,Não aplicável.,Não aplicável.,FALSE
Material para Laparoscopia,Concurso público,Aquisição de bens móveis,"33169000-2, Material cirúrgico","Centro Hospitalar de Leiria, E. P. E. (509822932)","ENDOTÉCNICA - Material Cirúrgico, Lda (503818348)","6.000,00 €",29-05-2018,23-04-2018,365 dias,"Portugal, Leiria, Leiria","Artigo 20.º, n.º 1, alínea b) do Código dos Contratos Públicos","","",,"",,Não aplicável.,Não aplicável.,FALSE
E0/548/2018 - PRESERVATIVO URINÁRIO AUTO ADESIVO,Ajuste Direto Regime Geral,Aquisição de bens móveis,"33140000-3, Material médico de consumo","Centro Hospitalar de Leiria, E. P. E. (509822932)","EZEQUIEL PANAO JORGE, LDA (501412727)","103,95 €",29-05-2018,08-03-2018,30 dias,"Portugal, Leiria, Leiria","Artigo 24.º, n.º 1, alínea e), subalínea ii) do Código dos Contratos Públicos","","",,"",,Não aplicável.,Não aplicável.,FALSE
MATERIAL PARA LAPAROSCOPIA,Concurso público,Aquisição de bens móveis,"33169000-2, Material cirúrgico","Centro Hospitalar de Leiria, E. P. E. (509822932)",APPLIED MEDICAL DISTRIBUTION EUROPE B.V. SUC. PORT (980571111),"94.218,80 €",29-05-2018,23-04-2018,365 dias,"Portugal, Leiria, Leiria","Artigo 20.º, n.º 1, alínea b) do Código dos Contratos Públicos","","",,"",,Não aplicável.,Não aplicável.,FALSE
MATERIAL PARA LAPAROSCOPIA,Concurso público,Aquisição de bens móveis,"33169000-2, Material cirúrgico","Centro Hospitalar de Leiria, E. P. E. (509822932)","ESSITY PORTUGAL, LDA (EX. SCA) (503237612)","12.675,00 €",29-05-2018,23-04-2018,365 dias,"Portugal, Leiria, Leiria","Artigo 20.º, n.º 1, alínea b) do Código dos Contratos Públicos","","",,"",,Não aplicável.,Não aplicável.,FALSE
MATERIAL PARA LAPAROSCOPIA,Concurso público,Aquisição de bens móveis,"33169000-2, Material cirúrgico","Centro Hospitalar de Leiria, E. P. E. (509822932)",Moonsurge (506657035),"2.300,00 €",29-05-2018,23-04-2018,365 dias,"Portugal, Leiria, Leiria","Artigo 20.º, n.º 1, alínea b) do Código dos Contratos Públicos","","",,"",,Não aplicável.,Não aplicável.,FALSE
E2/513/2018 ANUSCÓPIO CIRÚRGICO,Ajuste Direto Regime Geral,Aquisição de bens móveis,"33140000-3, Material médico de consumo","Centro Hospitalar de Leiria, E. P. E. (509822932)",Moonsurge (506657035),"1.680,00 €",29-05-2018,08-03-2018,30 dias,"Portugal, Leiria, Leiria","Artigo 24.º, n.º 1, alínea e), subalínea ii) do Código dos Contratos Públicos","","",,"",,Não aplicável.,Não aplicável.,FALSE
E2/532/2018 DRENO TROCARTER,Ajuste Direto Regime Geral,Aquisição de bens móveis,"33140000-3, Material médico de consumo","Centro Hospitalar de Leiria, E. P. E. (509822932)","VYGON (PORTUGAL), LDA (503232785)","107,20 €",29-05-2018,08-03-2018,30 dias,"Portugal, Leiria, Leiria","Artigo 24.º, n.º 1, alínea e), subalínea ii) do Código dos Contratos Públicos","","",,"",,Não aplicável.,Não aplicável.,FALSE
E2/576/2018 TOALHETES IMPREGNADOS C/ CLOROHEXIDINA,Ajuste Direto Regime Geral,Aquisição de bens móveis,"33140000-3, Material médico de consumo","Centro Hospitalar de Leiria, E. P. E. (509822932)","FACTOR PLUS, SA (502810645)","12.450,00 €",29-05-2018,09-03-2018,300 dias,"Portugal, Leiria, Leiria","Artigo 20.º, n.º 1, alínea d) do Código dos Contratos Públicos","","",,"",,Não aplicável.,Não aplicável.,FALSE
E2/1019/2018 CATETER IMPLANTAVEL ENDOVENOSO,Ajuste Direto Regime Geral,Aquisição de bens móveis,"33140000-3, Material médico de consumo","Centro Hospitalar de Leiria, E. P. E. (509822932)","VYGON (PORTUGAL), LDA (503232785)","2.385,00 €",28-05-2018,14-05-2018,30 dias,"Portugal, Leiria, Leiria","Artigo 24.º, n.º 1, alínea c) do Código dos Contratos Públicos","","",,"",,Não aplicável.,Não aplicável.,FALSE
E2/1017/2018 TROUXA CIRURGICA EXTREMIDADES,Ajuste Direto Regime Geral,Aquisição de bens móveis,"33140000-3, Material médico de consumo","Centro Hospitalar de Leiria, E. P. E. (509822932)","VYGON (PORTUGAL), LDA (503232785)","585,00 €",28-05-2018,11-05-2018,30 dias,"Portugal, Leiria, Leiria","Artigo 24.º, n.º 1, alínea c) do Código dos Contratos Públicos","","",,"",,Não aplicável.,Não aplicável.,FALSE
E2/945/2018 BALÃO RESERVATÓRIO (GIMA),Ajuste Direto Regime Geral,Aquisição de bens móveis,"33140000-3, Material médico de consumo","Centro Hospitalar de Leiria, E. P. E. (509822932)",Mundinter (500199906),"72,80 €",28-05-2018,15-05-2018,30 dias,"Portugal, Leiria, Leiria","Artigo 24.º, n.º 1, alínea e), subalínea ii) do Código dos Contratos Públicos","","",,"",,Não aplicável.,Não aplicável.,FALSE
E2/1024/2018 BATA CIRURGICA ESTERILIZADA IMPERMEAVEL,Ajuste Direto Regime Geral,Aquisição de bens móveis,"33140000-3, Material médico de consumo","Centro Hospitalar de Leiria, E. P. E. (509822932)","DOCWORLD - Dispositivos Médicos, Lda (508592909)","186,00 €",28-05-2018,15-05-2018,30 dias,"Portugal, Leiria, Leiria","Artigo 24.º, n.º 1, alínea c) do Código dos Contratos Públicos","","",,"",,Não aplicável.,Não aplicável.,FALSE
E2/1023/2018 ALMOFARIZ COM PILÃO,Ajuste Direto Regime Geral,Aquisição de bens móveis,"33140000-3, Material médico de consumo","Centro Hospitalar de Leiria, E. P. E. (509822932)","Normax-Fabrica de Vidros Científicos, Lda. (500203130)","35,10 €",28-05-2018,15-05-2018,900 dias,"Portugal, Leiria, Leiria","Artigo 24.º, n.º 1, alínea c) do Código dos Contratos Públicos","","",,"",,Não aplicável.,Não aplicável.,FALSE
E2/1037/2018 SERINGAS COM DISPOSITIVO DE BLOQUEIO (IMAGIOLOGIA),Ajuste Direto Regime Geral,Aquisição de bens móveis,"33140000-3, Material médico de consumo","Centro Hospitalar de Leiria, E. P. E. (509822932)",Cateter (502914319),"900,00 €",28-05-2018,17-05-2018,30 dias,"Portugal, Leiria, Leiria","Artigo 24.º, n.º 1, alínea c) do Código dos Contratos Públicos","","",,"",,Não aplicável.,Não aplicável.,FALSE
E0/507/2018. - CONTENTOR DE PEÇAS ANATÓMICAS DE 500ML,Ajuste Direto Regime Geral,Aquisição de bens móveis,"33140000-3, Material médico de consumo","Centro Hospitalar de Leiria, E. P. E. (509822932)","EZEQUIEL PANAO JORGE, LDA (501412727)","88,00 €",28-05-2018,08-03-2018,30 dias,"Portugal, Leiria, Leiria","Artigo 24.º, n.º 1, alínea e), subalínea ii) do Código dos Contratos Públicos","","",,"",,Não aplicável.,Não aplicável.,FALSE
E2/1042/2018 PROTETOR CUTÂNEO,Ajuste Direto Regime Geral,Aquisição de bens móveis,"33140000-3, Material médico de consumo","Centro Hospitalar de Leiria, E. P. E. (509822932)","SMITH & NEPHEW, LDA (503552461)","254,88 €",28-05-2018,16-05-2018,30 dias,"Portugal, Leiria, Leiria","Artigo 24.º, n.º 1, alínea c) do Código dos Contratos Públicos","","",,"",,Não aplicável.,Não aplicável.,FALSE
E2/889/2018 TROUXA CIRÚRGICA P/ APLICAÇÃO ANESTESIA EPIDURAL,Ajuste Direto Regime Geral,Aquisição de bens móveis,"33140000-3, Material médico de consumo","Centro Hospitalar de Leiria, E. P. E. (509822932)",Bastos Viegas S.A. (500042772),"2.032,80 €",28-05-2018,18-05-2018,30 dias,"Portugal, Leiria, Leiria","Artigo 24.º, n.º 1, alínea c) do Código dos Contratos Públicos","","",,"",,Não aplicável.,Não aplicável.,FALSE
E2/1050/2018 CATETER,Ajuste Direto Regime Geral,Aquisição de bens móveis,"33140000-3, Material médico de consumo","Centro Hospitalar de Leiria, E. P. E. (509822932)","C.R BARD PORTUGAL - PRODUCTOS E ARTIGOS MEDICOS FARM, LDA. (502438274)","125,00 €",28-05-2018,18-05-2018,30 dias,"Portugal, Leiria, Leiria","Artigo 24.º, n.º 1, alínea c) do Código dos Contratos Públicos","","",,"",,Não aplicável.,Não aplicável.,FALSE
E0/545/2018 - LIGADURAS ELÁSTICAS COMPRESSIVAS,Ajuste Direto Regime Geral,Aquisição de bens móveis,"33140000-3, Material médico de consumo","Centro Hospitalar de Leiria, E. P. E. (509822932)",Bastos Viegas S.A. (500042772),"4.767,60 €",28-05-2018,08-03-2018,365 dias,"Portugal, Leiria, Leiria","Artigo 24.º, n.º 1, alínea e), subalínea ii) do Código dos Contratos Públicos","","",,"",,Não aplicável.,Não aplicável.,FALSE
E2/166/2018 SACO DRENAGEM TRANSPARENTE C/ PROTETOR CUTÂNEO,Ajuste Direto Regime Geral,Aquisição de bens móveis,"33140000-3, Material médico de consumo","Centro Hospitalar de Leiria, E. P. E. (509822932)",SPCARE (508284872),"6.425,00 €",28-05-2018,15-01-2018,30 dias,"Portugal, Leiria, Leiria","Artigo 20.º, n.º 1, alínea d) do Código dos Contratos Públicos","","",,"",,Não aplicável.,Não aplicável.,FALSE
E0/1049/2018-REPARAÇÃO DE FUGA DE JUNTA DE EVAPORADOR CHILLER YORK,Ajuste Direto Regime Geral,Aquisição de serviços,"50000000-5, Serviços de reparação e manutenção","Centro Hospitalar de Leiria, E. P. E. (509822932)","KMG Kinkmam , Manutenção Global (510728910)","9.705,00 €",28-05-2018,21-05-2018,30 dias,"Portugal, Leiria, Leiria","Artigo 24.º, n.º 1, alínea e), subalínea ii) do Código dos Contratos Públicos",21-05-2018,"9.705,00 €",,.,,Não aplicável.,Não aplicável.,FALSE
E0/PENSO HIGIÉNICO PÓS PARTO,Ajuste Direto Regime Geral,Aquisição de bens móveis,"33140000-3, Material médico de consumo","Centro Hospitalar de Leiria, E. P. E. (509822932)",Bastos Viegas S.A. (500042772),"269,01 €",28-05-2018,08-03-2018,365 dias,"Portugal, Leiria, Leiria","Artigo 24.º, n.º 1, alínea e), subalínea ii) do Código dos Contratos Públicos","","",,"",,Não aplicável.,Não aplicável.,FALSE
E2/721/2018 LUVAS CIRURGICAS COM PÓ,Ajuste Direto Regime Geral,Aquisição de bens móveis,"33140000-3, Material médico de consumo","Centro Hospitalar de Leiria, E. P. E. (509822932)","MEDICINALIA CORMEDICA - COMER. PROD. MED. HOSP.,LD (500684324)","207,90 €",28-05-2018,29-03-2018,30 dias,"Portugal, Leiria, Leiria","Artigo 24.º, n.º 1, alínea c) do Código dos Contratos Públicos","","",,"",,Não aplicável.,Não aplicável.,FALSE
E2/766/2018 LUVA NITRILO S,Ajuste Direto Regime Geral,Aquisição de bens móveis,"33140000-3, Material médico de consumo","Centro Hospitalar de Leiria, E. P. E. (509822932)","HR Protecção, SA (505766205)","2.060,00 €",28-05-2018,28-04-2018,30 dias,"Portugal, Leiria, Leiria","Artigo 24.º, n.º 1, alínea c) do Código dos Contratos Públicos","","",,"",,Não aplicável.,Não aplicável.,FALSE
E2/762/2018 CAIXA/ CESTO VIDRO,Ajuste Direto Regime Geral,Aquisição de bens móveis,"33140000-3, Material médico de consumo","Centro Hospitalar de Leiria, E. P. E. (509822932)","Normax-Fabrica de Vidros Científicos, Lda. (500203130)","133,24 €",28-05-2018,04-04-2018,30 dias,"Portugal, Leiria, Leiria","Artigo 24.º, n.º 1, alínea e), subalínea ii) do Código dos Contratos Públicos","","",,"",,Não aplicável.,Não aplicável.,FALSE
E0/511/2018 - CONJUNTO NEBULIZADOR E CINTA MÁSCARA,Ajuste Direto Regime Geral,Aquisição de bens móveis,"33140000-3, Material médico de consumo","Centro Hospitalar de Leiria, E. P. E. (509822932)","INTERSURGICAL PORTUGAL - COMERCIO DE PRODUTOS HOSPITALARES ,LDA (503480045)","44,55 €",28-05-2018,08-03-2018,30 dias,"Portugal, Leiria, Leiria","Artigo 24.º, n.º 1, alínea e), subalínea ii) do Código dos Contratos Públicos","","",,"",,Não aplicável.,Não aplicável.,FALSE
E2/723/2018 PRESERVATIVO URINÁRIO,Ajuste Direto Regime Geral,Aquisição de bens móveis,"33140000-3, Material médico de consumo","Centro Hospitalar de Leiria, E. P. E. (509822932)","EZEQUIEL PANAO JORGE, LDA (501412727)","56,70 €",28-05-2018,04-04-2018,30 dias,"Portugal, Leiria, Leiria","Artigo 24.º, n.º 1, alínea c) do Código dos Contratos Públicos","","",,"",,Não aplicável.,Não aplicável.,FALSE
E2/798/2018 CISTOCATETER,Ajuste Direto Regime Geral,Aquisição de bens móveis,"33140000-3, Material médico de consumo","Centro Hospitalar de Leiria, E. P. E. (509822932)","COLOPLAST PORTUGAL SOC. UNIP., LDA (503989037)","150,00 €",28-05-2018,11-04-2018,30 dias,"Portugal, Leiria, Leiria","Artigo 24.º, n.º 1, alínea c) do Código dos Contratos Públicos","","",,"",,Não aplicável.,Não aplicável.,FALSE
E0/620/2018 - CONTENTOR PEÇAS ANATÓMICAS,Ajuste Direto Regime Geral,Aquisição de bens móveis,"33140000-3, Material médico de consumo","Centro Hospitalar de Leiria, E. P. E. (509822932)","EZEQUIEL PANAO JORGE, LDA (501412727)","407,00 €",28-05-2018,16-03-2018,30 dias,"Portugal, Leiria, Leiria","Artigo 24.º, n.º 1, alínea e), subalínea ii) do Código dos Contratos Públicos","","",,"",,Não aplicável.,Não aplicável.,FALSE
E0/549/2018 - SONDAS VAGINAIS E ANAIS,Ajuste Direto Regime Geral,Aquisição de bens móveis,"33140000-3, Material médico de consumo","Centro Hospitalar de Leiria, E. P. E. (509822932)","SPECULUM - ARTIGOS MEDICOS, SA. (502996323)","4.903,10 €",28-05-2018,09-03-2018,365 dias,"Portugal, Leiria, Leiria","Artigo 24.º, n.º 1, alínea e), subalínea ii) do Código dos Contratos Públicos","","",,"",,Não aplicável.,Não aplicável.,FALSE
Material para Laparoscopia,Concurso público,Aquisição de bens móveis,"33169000-2, Material cirúrgico","Centro Hospitalar de Leiria, E. P. E. (509822932)","MBA PORTUGAL, SA (504445960)","25.784,00 €",25-05-2018,23-04-2018,365 dias,"Portugal, Leiria, Leiria","Artigo 20.º, n.º 1, alínea b) do Código dos Contratos Públicos","","",,"",,Não aplicável.,Não aplicável.,FALSE
Material para Laparoscopia,Concurso público,Aquisição de bens móveis,"33169000-2, Material cirúrgico","Centro Hospitalar de Leiria, E. P. E. (509822932)","MEDTRONIC PORTUGAL, LDA (504223933)","1.290,00 €",25-05-2018,23-04-2018,365 dias,"Portugal, Leiria, Leiria","Artigo 20.º, n.º 1, alínea b) do Código dos Contratos Públicos","","",,"",,Não aplicável.,Não aplicável.,FALSE
Material para Laparoscopia,Concurso público,Aquisição de bens móveis,"33100000-1, Equipamento médico","Centro Hospitalar de Leiria, E. P. E. (509822932)","B. BRAUN MEDICAL, LDA (501506543)","21.600,00 €",25-05-2018,23-04-2018,365 dias,"Portugal, Leiria, Leiria","Artigo 20.º, n.º 1, alínea b) do Código dos Contratos Públicos","","",,"",,Não aplicável.,Não aplicável.,FALSE
E0880/2018-REPARAÇÃO DE INTENSIFICADOR DE IMAGEM BO-HSA,Ajuste Direto Regime Geral,Aquisição de serviços,"50000000-5, Serviços de reparação e manutenção","Centro Hospitalar de Leiria, E. P. E. (509822932)","IBERDATA - Equipamentos, SA (501904921)","5.622,04 €",25-05-2018,23-04-2018,30 dias,"Portugal, Leiria, Leiria","Artigo 24.º, n.º 1, alínea e), subalínea iii) do Código dos Contratos Públicos",23-04-2018,"5.622,04 €",,.,,Não aplicável.,Não aplicável.,FALSE
E2/788/2018 LUVAS NITRILO M E L,Ajuste Direto Regime Geral,Aquisição de bens móveis,"33140000-3, Material médico de consumo","Centro Hospitalar de Leiria, E. P. E. (509822932)","HR Protecção, SA (505766205)","4.120,00 €",24-05-2018,11-04-2018,30 dias,"Portugal, Leiria, Leiria","Artigo 24.º, n.º 1, alínea c) do Código dos Contratos Públicos","","",,"",,Não aplicável.,Não aplicável.,FALSE
E1/00000770/2018 - Medicamento para Hepatite C crónica - Abbvie,Ajuste Direto Regime Geral,Aquisição de bens móveis,"33600000-6, Produtos farmacêuticos","Centro Hospitalar de Leiria, E. P. E. (509822932)","ABBVIE, LDA (510229050)","6.600,00 €",24-05-2018,21-05-2018,128 dias,"Portugal, Leiria, Leiria","Artigo 24.º, n.º 1, alínea e), subalínea iii) do Código dos Contratos Públicos","","",,"",,Não aplicável.,Não aplicável.,FALSE
E1/00000034/2018 - Medicamentos Diversos Exclusivos,Ajuste Direto Regime Geral,Aquisição de bens móveis,"33600000-6, Produtos farmacêuticos","Centro Hospitalar de Leiria, E. P. E. (509822932)","DILOFAR - DISTRIBUIÇÃO TRANSPORTES LOGISTICA, LDA (500563004)","177,50 €",24-05-2018,21-05-2018,180 dias,"Portugal, Leiria, Leiria","Artigo 24.º, n.º 1, alínea e), subalínea iii) do Código dos Contratos Públicos","","",,"",,Não aplicável.,Não aplicável.,FALSE
E2/765/2018 TECIDO NÃO TECIDO,Ajuste Direto Regime Geral,Aquisição de bens móveis,"33140000-3, Material médico de consumo","Centro Hospitalar de Leiria, E. P. E. (509822932)",EPJMEDICA - ARTIGOS MÉDICOS (506820513),"20.820,00 €",24-05-2018,17-04-2018,30 dias,"Portugal, Leiria, Leiria","Artigo 24.º, n.º 1, alínea b) do Código dos Contratos Públicos","","",,"",,Não aplicável.,Não aplicável.,FALSE
E2/873/2018 CIRCUITO RESPIRATÓRIO PARA VENTILADOR,Ajuste Direto Regime Geral,Aquisição de bens móveis,"33140000-3, Material médico de consumo","Centro Hospitalar de Leiria, E. P. E. (509822932)","IBERDATA EQUIPAMENTOS, SA. (501904921)","2.135,20 €",24-05-2018,20-04-2018,30 dias,"Portugal, Leiria, Leiria","Artigo 21.º, n.º 1, alínea c) do Código dos Contratos Públicos","","",,"",,Não aplicável.,Não aplicável.,FALSE
E2/791/2018 DETERGENTES/DESINFECTANTES MÁQUINA ENDÓSCOPIOS,Ajuste Direto Regime Geral,Aquisição de bens móveis,"33140000-3, Material médico de consumo","Centro Hospitalar de Leiria, E. P. E. (509822932)","SISTEMAS INTEGRALES DE LA MEDICINA, S.A. (980488842)","3.200,00 €",24-05-2018,20-04-2018,240 dias,"Portugal, Leiria, Leiria","Artigo 24.º, n.º 1, alínea e), subalínea ii) do Código dos Contratos Públicos","","",,"",,Não aplicável.,Não aplicável.,FALSE
E2/593/2018 - CIRCUITO RESPIRATÓRIO PARA VENTILADOR PEDIÁTRICO,Ajuste Direto Regime Geral,Aquisição de bens móveis,"33140000-3, Material médico de consumo","Centro Hospitalar de Leiria, E. P. E. (509822932)","INTERSURGICAL PORTUGAL - COMERCIO DE PRODUTOS HOSPITALARES ,LDA (503480045)","1.560,00 €",23-05-2018,16-03-2018,30 dias,"Portugal, Leiria, Leiria","Artigo 24.º, n.º 1, alínea e), subalínea ii) do Código dos Contratos Públicos","","",,"",,Não aplicável.,Não aplicável.,FALSE
E2/512/2018 ADAPTADOR SENSOR CO2,Ajuste Direto Regime Geral,Aquisição de bens móveis,"33140000-3, Material médico de consumo","Centro Hospitalar de Leiria, E. P. E. (509822932)","IBERDATA EQUIPAMENTOS, SA. (501904921)","880,00 €",23-05-2018,20-04-2018,30 dias,"Portugal, Leiria, Leiria","Artigo 24.º, n.º 1, alínea e), subalínea ii) do Código dos Contratos Públicos","","",,"",,Não aplicável.,Não aplicável.,FALSE
Q2/850/2018 PENSO ADESIVO ESTERIL,Ao abrigo de acordo-quadro (art.º 259.º),Aquisição de bens móveis,"33140000-3, Material médico de consumo","Centro Hospitalar de Leiria, E. P. E. (509822932)","Virtugal, Lda (510113923)","187,05 €",23-05-2018,12-04-2018,30 dias,"Portugal, Leiria, Leiria",Artigo 259.º do Código dos Contratos Públicos,"","",,"",,1168344,Aqusição de 99.840 unidades de penso adesivo impermeável com compressa 10x15 cm; 29.970 unidades de penso adesivo impermeável com compressa 10x30 cm e 200.000 unidades de penso adesivo impermeável com compressa 10x10 cm,FALSE
E2/672/2018 - SELO CADEADO PARA ESTERILIZAÇÃO,Ajuste Direto Regime Geral,Aquisição de bens móveis,"33140000-3, Material médico de consumo","Centro Hospitalar de Leiria, E. P. E. (509822932)","AVIQUIMICA- IMPORTAÇÃO E MANUFACTURAS, LDA (500039720)","123,00 €",23-05-2018,21-03-2018,30 dias,"Portugal, Leiria, Leiria","Artigo 24.º, n.º 1, alínea c) do Código dos Contratos Públicos","","",,"",,Não aplicável.,Não aplicável.,FALSE
Q2/764/2018 REDES TUBULARES,Ao abrigo de acordo-quadro (art.º 259.º),Aquisição de bens móveis,"33140000-3, Material médico de consumo","Centro Hospitalar de Leiria, E. P. E. (509822932)","Bastos Viegas, S.A. (500042772)","365,46 €",23-05-2018,04-04-2018,240 dias,"Portugal, Leiria, Leiria",Artigo 259.º do Código dos Contratos Públicos,"","",,"",,2196665,"Ligaduras Medicadas, de Fixação e Proteção",FALSE
Q2/732/2018 - MATERIAL DE OSTOMIA,Ao abrigo de acordo-quadro (art.º 259.º),Aquisição de bens móveis,"33140000-3, Material médico de consumo","Centro Hospitalar de Leiria, E. P. E. (509822932)","B. BRAUN MEDICAL, Lda. (501506543)","1.885,87 €",23-05-2018,02-04-2018,30 dias,"Portugal, Leiria, Leiria",Artigo 259.º do Código dos Contratos Públicos,"","",,"",,2791664,CP 2017/27 - Acordo quadro para fornecimento de Material de Ostomia e Eliminação - Parte II,FALSE
Q2/643/2018 TORNEIRA TRÊS VIAS C/ PROLONGADOR,Ao abrigo de acordo-quadro (art.º 259.º),Aquisição de bens móveis,"33140000-3, Material médico de consumo","Centro Hospitalar de Leiria, E. P. E. (509822932)","ANASTACIO SALDANHA UNIPESSOAL, LDA. (505804441)","96,40 €",23-05-2018,20-03-2018,30 dias,"Portugal, Leiria, Leiria",Artigo 259.º do Código dos Contratos Públicos,"","",,"",,2622225,CP 2017/26 - Acordo Quadro para Fornecimento de Cateteres   às Instituições e Serviços do Serviço Nacional de Saúde,FALSE
Q2/579/2018 LIGADURA ELÁSTICA ADESIVA,Ao abrigo de acordo-quadro (art.º 259.º),Aquisição de bens móveis,"33140000-3, Material médico de consumo","Centro Hospitalar de Leiria, E. P. E. (509822932)",BSN MEDICAL.S.A. (505385058),"885,60 €",23-05-2018,24-03-2018,270 dias,"Portugal, Leiria, Leiria",Artigo 259.º do Código dos Contratos Públicos,"","",,"",,2378981,Acordo quadro para fornecimento de Ligaduras de Compressão e Dispositivos de Imobilização às Instituições e Serviços do Serviço Nacional de Saúde.,FALSE
Q2/891/2018 PELE PLASTICA SPRAY,Ao abrigo de acordo-quadro (art.º 259.º),Aquisição de bens móveis,"33140000-3, Material médico de consumo","Centro Hospitalar de Leiria, E. P. E. (509822932)","SMITH & NEPHEW - PROD. FARMACEUTICOS, LDA. (503552461)","360,00 €",23-05-2018,23-04-2018,240 dias,"Portugal, Leiria, Leiria",Artigo 259.º do Código dos Contratos Públicos,"","",,"",,1315192,Acordo Quadro para fornecimento de material de penso de efeito terapêutico às Instituições e Serviços do Serviço Nacional de Saúde,FALSE
