Objeto do Contrato,Tipo de Procedimento,Tipo(s) de Contrato,CPVs,Entidade(s) Adjudicante(s),Entidade(s) Adjudicatária(s),Preço Contratual,Data de Publicação,Data de Celebração do Contrato,Prazo de Execução,Local de Execução,Fundamentação,Data de Fecho do Contrato,Preço Total Efetivo,Causas das Alterações ao Prazo,Causas das Alterações ao Preço,Estado,N.º registo do Acordo Quadro,Descrição do Acordo Quadro,Procedimento Centralizado
Linezolida 600 mg/300ml sol inj saco 300 ml IV,Ajuste Direto Regime Geral,Aquisição de bens móveis,"33600000-6, Produtos farmacêuticos","Unidade Local de Saúde de Castelo Branco, E. P. E. (509309844)","LABORATORIOS PFIZER,LDA (500162166)","10.498,00 €",20-12-2013,03-10-2013,90 dias,"Portugal, Castelo Branco, Castelo Branco","Artigo 26.º, n.º 1, alínea e) do Código dos Contratos Públicos",12-12-2013,"10.498,00 €",,,,Não aplicável.,Não aplicável.,
"Enoxaparina 40 mg/0,4ml, Sering.0,4 Ml -Serin.",Ajuste Direto Regime Geral,Aquisição de bens móveis,"33600000-6, Produtos farmacêuticos","Unidade Local de Saúde de Castelo Branco, E. P. E. (509309844)","SANOFI - PRODTOS FARMACEUTICOS, Lda. (500134960)","11.364,62 €",20-12-2013,03-10-2013,60 dias,"Portugal, Castelo Branco, Castelo Branco","Artigo 26.º, n.º 1, alínea e) do Código dos Contratos Públicos",25-11-2013,"11.364,62 €",,,,Não aplicável.,Não aplicável.,
"Adalimumab 40 mg/0,8ml - Caneta",Ajuste Direto Regime Geral,Aquisição de bens móveis,"33600000-6, Produtos farmacêuticos","Unidade Local de Saúde de Castelo Branco, E. P. E. (509309844)","ABBVIE, LDA (510229050)","14.085,00 €",20-12-2013,03-10-2013,10 dias,"Portugal, Castelo Branco, Castelo Branco","Artigo 26.º, n.º 1, alínea e) do Código dos Contratos Públicos",08-10-2013,"14.085,00 €",,,,Não aplicável.,Não aplicável.,
Interferão Beta - 1A 18 MUI Cartucho (22 mcg),Ajuste Direto Regime Geral,Aquisição de bens móveis,"33600000-6, Produtos farmacêuticos","Unidade Local de Saúde de Castelo Branco, E. P. E. (509309844)",MERCK S.A. (500650870),"7.421,00 €",19-12-2013,26-09-2013,10 dias,"Portugal, Castelo Branco, Castelo Branco","Artigo 26.º, n.º 1, alínea e) do Código dos Contratos Públicos",27-09-2013,"7.421,00 €",,,,Não aplicável.,Não aplicável.,
Interferão Beta - 1A 18 MUI Cartucho (22 mcg),Ajuste Direto Regime Geral,Aquisição de bens móveis,"33600000-6, Produtos farmacêuticos","Unidade Local de Saúde de Castelo Branco, E. P. E. (509309844)",MERCK S.A. (500650870),"7.421,00 €",19-12-2013,03-09-2013,10 dias,"Portugal, Castelo Branco, Castelo Branco","Artigo 26.º, n.º 1, alínea e) do Código dos Contratos Públicos","","",,,,Não aplicável.,Não aplicável.,
