Objeto do Contrato,Tipo de Procedimento,Tipo(s) de Contrato,CPVs,Entidade(s) Adjudicante(s),Entidade(s) Adjudicatária(s),Preço Contratual,Data de Publicação,Data de Celebração do Contrato,Prazo de Execução,Local de Execução,Fundamentação,Data de Fecho do Contrato,Preço Total Efetivo,Causas das Alterações ao Prazo,Causas das Alterações ao Preço,Estado,N.º registo do Acordo Quadro,Descrição do Acordo Quadro,Procedimento Centralizado
AD20140160 - Aquisição de estantes metálicas,Ajuste Direto Regime Geral,Aquisição de bens móveis,"39151100-6, Prateleiras","Instituto Nacional de Saúde Dr. Ricardo Jorge, I. P. (501427511)","Rasia - Racionalização de Sistemas Administrativos, Lda (500880620)","1.066,20 €",21-03-2014,21-03-2014,90 dias,"Portugal, Lisboa, Lisboa","Artigo 20.º, n.º 1, alínea a) do Código dos Contratos Públicos",,,,,,Não aplicável.,Não aplicável.,FALSE
AD 20140082 - Aquisição de material de laboratório para fins exclusivos de investigação,Ajuste Direto Regime Geral,Aquisição de bens móveis,"33140000-3, Material médico de consumo","Instituto Nacional de Saúde Dr. Ricardo Jorge, I. P. (501427511)","Sarstedt, Lda (503019461)","113,50 €",19-03-2014,05-03-2014,90 dias,"Portugal, Lisboa, Lisboa","Artigo 26.º, n.º 1, alínea b) do Código dos Contratos Públicos",,,,,,Não aplicável.,Não aplicável.,FALSE
AD 20140081 - Aquisição de material de laboratório para fins exclusivos de investigação,Ajuste Direto Regime Geral,Aquisição de bens móveis,"38436000-0, Agitadores e acessórios","Instituto Nacional de Saúde Dr. Ricardo Jorge, I. P. (501427511)","VWR Internacional - Material de Laboratório, Lda (503842770)","165,00 €",19-03-2014,05-03-2014,90 dias,"Portugal, Lisboa, Lisboa","Artigo 26.º, n.º 1, alínea b) do Código dos Contratos Públicos",,,,,,Não aplicável.,Não aplicável.,FALSE
AD 20140080 - Aquisição de reagentes para fins exclusivos de investigação,Ajuste Direto Regime Geral,Aquisição de bens móveis,"33696500-0, Reagentes de laboratório","Instituto Nacional de Saúde Dr. Ricardo Jorge, I. P. (501427511)","VWR Internacional - Material de Laboratório, Lda (503842770)","180,00 €",19-03-2014,03-03-2014,90 dias,"Portugal, Lisboa, Lisboa","Artigo 26.º, n.º 1, alínea b) do Código dos Contratos Públicos",,,,,,Não aplicável.,Não aplicável.,FALSE
AD 29140092 - aquisição de material para laboratório com fins exclusivos de investigação,Ajuste Direto Regime Geral,Aquisição de bens móveis,"33140000-3, Material médico de consumo","Instituto Nacional de Saúde Dr. Ricardo Jorge, I. P. (501427511)","VWR Internacional - Material de Laboratório, Lda (503842770)","1.746,20 €",19-03-2014,03-03-2014,90 dias,"Portugal, Lisboa, Lisboa","Artigo 26.º, n.º 1, alínea b) do Código dos Contratos Públicos",,,,,,Não aplicável.,Não aplicável.,FALSE
AD 20140087 - Aquisição de reagentes para fins exclusivos de investigação,Ajuste Direto Regime Geral,Aquisição de bens móveis,"33696500-0, Reagentes de laboratório","Instituto Nacional de Saúde Dr. Ricardo Jorge, I. P. (501427511)","VWR Internacional- Material de laboratório, Lda (503842770)","241,97 €",19-03-2014,05-03-2014,90 dias,"Portugal, Lisboa, Lisboa","Artigo 26.º, n.º 1, alínea b) do Código dos Contratos Públicos",,,,,,Não aplicável.,Não aplicável.,FALSE
AD20140089 - Aquisição de reagentes para fins exclusivos de investigação,Ajuste Direto Regime Geral,Aquisição de bens móveis,"33696500-0, Reagentes de laboratório","Instituto Nacional de Saúde Dr. Ricardo Jorge, I. P. (501427511)","Alfagene, Novas Tecnologias das Ciências da Vida , Lda (503387398)","57,06 €",19-03-2014,11-03-2014,90 dias,"Portugal, Lisboa, Lisboa","Artigo 26.º, n.º 1, alínea b) do Código dos Contratos Públicos",,,,,,Não aplicável.,Não aplicável.,FALSE
AD20140090 - Aquisição de material de laboratório para fins exclusivos de investigação,Ajuste Direto Regime Geral,Aquisição de bens móveis,"33140000-3, Material médico de consumo","Instituto Nacional de Saúde Dr. Ricardo Jorge, I. P. (501427511)","VWR Internacional- Material de laboratório, Lda (503842770)","156,64 €",18-03-2014,05-03-2014,90 dias,"Portugal, Lisboa, Lisboa","Artigo 26.º, n.º 1, alínea b) do Código dos Contratos Públicos",,,,,,Não aplicável.,Não aplicável.,FALSE
AD20140088 - Aquisição de reagentes para fins exclusivos de investigação,Ajuste Direto Regime Geral,Aquisição de bens móveis,"33696500-0, Reagentes de laboratório","Instituto Nacional de Saúde Dr. Ricardo Jorge, I. P. (501427511)","Bioportugal, Lda (502380543)","320,00 €",18-03-2014,10-03-2014,90 dias,"Portugal, Lisboa, Lisboa","Artigo 26.º, n.º 1, alínea b) do Código dos Contratos Públicos",,,,,,Não aplicável.,Não aplicável.,FALSE
AD20140086 - Aquisição de material de laboratório para fins exclusivos de investigação,Ajuste Direto Regime Geral,Aquisição de bens móveis,"33696500-0, Reagentes de laboratório","Instituto Nacional de Saúde Dr. Ricardo Jorge, I. P. (501427511)",Tecnocroma (508404304),"639,00 €",18-03-2014,03-03-2014,90 dias,"Portugal, Lisboa, Lisboa","Artigo 26.º, n.º 1, alínea b) do Código dos Contratos Públicos",,,,,,Não aplicável.,Não aplicável.,FALSE
AD20140091 - Aquisição de Reagentes para fins exclusivos de investigação,Ajuste Direto Regime Geral,Aquisição de bens móveis,"33696500-0, Reagentes de laboratório","Instituto Nacional de Saúde Dr. Ricardo Jorge, I. P. (501427511)",Sigma Aldrich Quimica S.L. (980148820),"767,80 €",18-03-2014,14-03-2014,90 dias,"Portugal, Lisboa, Lisboa","Artigo 26.º, n.º 1, alínea b) do Código dos Contratos Públicos",,,,,,Não aplicável.,Não aplicável.,FALSE
AD20140098 - Aquisição de equipamento de laboratório para fins exclusivos de investigação,Ajuste Direto Regime Geral,Aquisição de bens móveis,"38430000-8, Aparelhos de detecção e análise","Instituto Nacional de Saúde Dr. Ricardo Jorge, I. P. (501427511)","Gravimeta Sistemas Pesagens, Lda (504786199)","5.801,00 €",18-03-2014,14-03-2014,90 dias,"Portugal, Lisboa, Lisboa","Artigo 26.º, n.º 1, alínea b) do Código dos Contratos Públicos",,,,,,Não aplicável.,Não aplicável.,FALSE
AD20140094 - Aquisição de reagentes para fins exclusivos de investigação,Ajuste Direto Regime Geral,Aquisição de bens móveis,"33696500-0, Reagentes de laboratório","Instituto Nacional de Saúde Dr. Ricardo Jorge, I. P. (501427511)",Sigma Aldrich Quimica S.L. (980148820),"366,20 €",18-03-2014,14-03-2014,90 dias,"Portugal, Lisboa, Lisboa","Artigo 26.º, n.º 1, alínea b) do Código dos Contratos Públicos",,,,,,Não aplicável.,Não aplicável.,FALSE
AD20140085 - Aquisição de reagentes para fins exclusivos de investigação,Ajuste Direto Regime Geral,Aquisição de bens móveis,"33696500-0, Reagentes de laboratório","Instituto Nacional de Saúde Dr. Ricardo Jorge, I. P. (501427511)",Sigma Aldrich Quimica SL (980148820),"539,60 €",18-03-2014,14-03-2014,90 dias,"Portugal, Lisboa, Lisboa","Artigo 26.º, n.º 1, alínea b) do Código dos Contratos Públicos",,,,,,Não aplicável.,Não aplicável.,FALSE
AD20140083 - Aquisição de material de manutenção para fins exclusivos de investigação,Ajuste Direto Regime Geral,Aquisição de bens móveis,"33140000-3, Material médico de consumo","Instituto Nacional de Saúde Dr. Ricardo Jorge, I. P. (501427511)","VWR Internacional - Material de Laboratório, Lda (503842770)","337,00 €",18-03-2014,03-03-2014,90 dias,"Portugal, Lisboa, Lisboa","Artigo 26.º, n.º 1, alínea b) do Código dos Contratos Públicos",,,,,,Não aplicável.,Não aplicável.,FALSE
AD20140116 - Aquisição de reagentes para fins exclusivos de investigação,Ajuste Direto Regime Geral,Aquisição de bens móveis,"33696500-0, Reagentes de laboratório","Instituto Nacional de Saúde Dr. Ricardo Jorge, I. P. (501427511)","Batista marques - Diagnóstica r Reagentes, Lda (501439110)","850,00 €",18-03-2014,26-02-2014,90 dias,"Portugal, Lisboa, Lisboa","Artigo 26.º, n.º 1, alínea b) do Código dos Contratos Públicos",,,,,,Não aplicável.,Não aplicável.,FALSE
AD20140084 - Aquisição de material para laboratório,Ajuste Direto Regime Geral,Aquisição de bens móveis,"33793000-5, Artigos de vidro para laboratório","Instituto Nacional de Saúde Dr. Ricardo Jorge, I. P. (501427511)",V reis tudo para laboratório (500294453),"27,00 €",18-03-2014,10-03-2014,90 dias,"Portugal, Lisboa, Lisboa","Artigo 26.º, n.º 1, alínea b) do Código dos Contratos Públicos",,,,,,Não aplicável.,Não aplicável.,FALSE
Aquisição de outros produtos farmacêuticos,Ajuste Direto Regime Geral,Aquisição de bens móveis,"33600000-6, Produtos farmacêuticos","Instituto Nacional de Saúde Dr. Ricardo Jorge, I. P. (501427511)","PMH - Produtos Médicos-Hospitalares, SA (502376899)","4.808,68 €",17-03-2014,05-03-2014,300 dias,"Portugal, Lisboa, Lisboa","Artigo 20.º, n.º 1, alínea a) do Código dos Contratos Públicos",,,,,,Não aplicável.,Não aplicável.,FALSE
Aquisição de outros produtos farmacêuticos,Ajuste Direto Regime Geral,Aquisição de bens móveis,"33600000-6, Produtos farmacêuticos","Instituto Nacional de Saúde Dr. Ricardo Jorge, I. P. (501427511)","B. Braun Medical, Lda (501506543)","1.790,40 €",17-03-2014,05-03-2014,300 dias,"Portugal, Lisboa, Lisboa","Artigo 20.º, n.º 1, alínea a) do Código dos Contratos Públicos",,,,,,Não aplicável.,Não aplicável.,FALSE
Aquisição de material de penso,Ajuste Direto Regime Geral,Aquisição de bens móveis,"33600000-6, Produtos farmacêuticos","Instituto Nacional de Saúde Dr. Ricardo Jorge, I. P. (501427511)","Anastácio Saldanha Unipessoal, Lda (505804441)","640,00 €",17-03-2014,04-03-2014,300 dias,"Portugal, Lisboa, Lisboa","Artigo 20.º, n.º 1, alínea a) do Código dos Contratos Públicos",,,,,,Não aplicável.,Não aplicável.,FALSE
Aquisição de material de penso,Ajuste Direto Regime Geral,Aquisição de bens móveis,"33600000-6, Produtos farmacêuticos","Instituto Nacional de Saúde Dr. Ricardo Jorge, I. P. (501427511)","Anastácio Saldanha Unipessoal, Lda (505804441)","149,00 €",17-03-2014,04-03-2014,300 dias,"Portugal, Lisboa, Lisboa","Artigo 20.º, n.º 1, alínea a) do Código dos Contratos Públicos",,,,,,Não aplicável.,Não aplicável.,FALSE
Aquisição de material de penso,Ajuste Direto Regime Geral,Aquisição de bens móveis,"33600000-6, Produtos farmacêuticos","Instituto Nacional de Saúde Dr. Ricardo Jorge, I. P. (501427511)","Anastácio Saldanha Unipessoal, Lda (505804441)","2,47 €",17-03-2014,04-03-2014,300 dias,"Portugal, Lisboa, Lisboa","Artigo 20.º, n.º 1, alínea a) do Código dos Contratos Públicos",,,,,,Não aplicável.,Não aplicável.,FALSE
Aquisição de material de penso,Ajuste Direto Regime Geral,Aquisição de bens móveis,"33600000-6, Produtos farmacêuticos","Instituto Nacional de Saúde Dr. Ricardo Jorge, I. P. (501427511)","Anastácio Saldanha Unipessoal, Lda (505804441)","923,67 €",17-03-2014,04-03-2014,300 dias,"Portugal, Lisboa, Lisboa","Artigo 20.º, n.º 1, alínea a) do Código dos Contratos Públicos",,,,,,Não aplicável.,Não aplicável.,FALSE
AD 20140044 - Aquisição de reagentes Kits transcrição reversa,Ajuste Direto Regime Geral,Aquisição de bens móveis,"33140000-3, Material médico de consumo","Instituto Nacional de Saúde Dr. Ricardo Jorge, I. P. (501427511)","Alfagene, Lda (503387398)","628,00 €",11-03-2014,06-03-2014,90 dias,"Portugal, Lisboa, Lisboa","Artigo 24.º, n.º 1, alínea e) do Código dos Contratos Públicos",,,,,,Não aplicável.,Não aplicável.,FALSE
