Objeto do Contrato,Tipo de Procedimento,Tipo(s) de Contrato,CPVs,Entidade(s) Adjudicante(s),Entidade(s) Adjudicatária(s),Preço Contratual,Data de Publicação,Data de Celebração do Contrato,Prazo de Execução,Local de Execução,Fundamentação,Data de Fecho do Contrato,Preço Total Efetivo,Causas das Alterações ao Prazo,Causas das Alterações ao Preço,Estado,N.º registo do Acordo Quadro,Descrição do Acordo Quadro,Procedimento Centralizado
Aquisição de medicamentos do foro oncológico,Ao abrigo de acordo-quadro (art.º 259.º),Aquisição de bens móveis,"33600000-6, Produtos farmacêuticos",Hospital Dr. Francisco Zagalo (501510150),"AbbVie, Lda (510229050)","250,53 €",09-11-2016,20-07-2016,100 dias,"Portugal, Aveiro, Ovar",Artigo 259.º do Código dos Contratos Públicos,08-11-2016,"250,53 €",,,,1771819,CP 2015/6 - Acordo quadro para o fornecimento de Medicamentos do Foro Oncológico,FALSE
Aquisição de medicamentos foro oncológico,Ao abrigo de acordo-quadro (art.º 259.º),Aquisição de bens móveis,"33600000-6, Produtos farmacêuticos",Hospital Dr. Francisco Zagalo (501510150),"Astra Zeneca, Produtos Farmaceuticos, Lda (502942240)","2.845,95 €",09-11-2016,20-07-2016,100 dias,"Portugal<BR/>Portugal, Aveiro, Ovar",Artigo 259.º do Código dos Contratos Públicos,09-11-2016,"2.845,95 €",,,,1771819,CP 2015/6 - Acordo quadro para o fornecimento de Medicamentos do Foro Oncológico,FALSE
