Objeto do Contrato,Tipo de Procedimento,Tipo(s) de Contrato,CPVs,Entidade(s) Adjudicante(s),Entidade(s) Adjudicatária(s),Preço Contratual,Data de Publicação,Data de Celebração do Contrato,Prazo de Execução,Local de Execução,Fundamentação,Data de Fecho do Contrato,Preço Total Efetivo,Causas das Alterações ao Prazo,Causas das Alterações ao Preço,Estado,N.º registo do Acordo Quadro,Descrição do Acordo Quadro,Procedimento Centralizado
Estomatologia - Produtos Farmacêuticos,Ajuste Direto Regime Geral,Aquisição de bens móveis,"33600000-6, Produtos farmacêuticos","Unidade Local de Saúde do Nordeste, EPE (509932584)",Machado Malcher (500174245),"1.983,79 €",11-09-2013,26-08-2013,120 dias,"Portugal, Braganca, Mirandela<BR/>Portugal, Braganca, Macedo de Cavaleiros<BR/>Portugal, Braganca, Bragança","Artigo 20.º, n.º 1, alínea a) do Código dos Contratos Públicos",31-12-2013,"1.983,79 €",,,,Não aplicável.,Não aplicável.,
Estomatologia - Material Clínico,Ajuste Direto Regime Geral,Aquisição de bens móveis,"33131100-8, Material para cirurgia dentária","Unidade Local de Saúde do Nordeste, EPE (509932584)",Machado Malcher (500174245),"4.251,33 €",11-09-2013,26-08-2013,120 dias,"Portugal, Braganca, Macedo de Cavaleiros<BR/>Portugal, Braganca, Bragança<BR/>Portugal, Braganca, Mirandela","Artigo 20.º, n.º 1, alínea a) do Código dos Contratos Públicos",31-12-2013,"4.251,33 €",,,,Não aplicável.,Não aplicável.,
