Objeto do Contrato,Tipo de Procedimento,Tipo(s) de Contrato,CPVs,Entidade(s) Adjudicante(s),Entidade(s) Adjudicatária(s),Preço Contratual,Data de Publicação,Data de Celebração do Contrato,Prazo de Execução,Local de Execução,Fundamentação,Data de Fecho do Contrato,Preço Total Efetivo,Causas das Alterações ao Prazo,Causas das Alterações ao Preço,Estado,N.º registo do Acordo Quadro,Descrição do Acordo Quadro,Procedimento Centralizado
Serviços Médicos Urgência Geral,Ajuste Direto Regime Geral,Aquisição de serviços,"85121100-4, Serviços de médicos de clínica geral","Centro Hospitalar do Algarve, E. P. E. (510745997)","Fielsaúde - Serviços Médicos Unipessoal, Lda (508751624)","73.440,00 €",30-04-2014,28-02-2014,365 dias,"Portugal, Faro, Lagos<BR/>Portugal, Faro, Portimão<BR/>Portugal, Faro, Faro","Artigo 20.º, n.º 1, alínea a) do Código dos Contratos Públicos",31-12-2014,"64.650,00 €",,"O valor inicial do Contrato teve por base as necessidades estimadas para o período de 1 Janeiro de 2014 a 31 Dezembro de 2014, o valor final reflecte as necessidades efectivas.",,Não aplicável.,Não aplicável.,FALSE
Contentores,Ao abrigo de acordo-quadro (art.º 259.º),Aquisição de bens móveis,"33140000-3, Material médico de consumo","Centro Hospitalar do Algarve, E. P. E. (510745997)","Clínifar - Produtos Clínicos e Farmacêuticos, S.A. (503281115)","5.390,40 €",30-04-2014,28-04-2014,245 dias,"Portugal, Faro, Portimão<BR/>Portugal, Faro, Lagos<BR/>Portugal, Faro, Faro",Artigo 259.º do Código dos Contratos Públicos,"","",,"",,448705,"CONCURSO PÚBLICO PARA A CELEBRAÇÃO DE CONTRATOS PÚBLICOS DE APROVISIONAMENTO PARA A ÁREA DA SAÚDE, COM VISTA AO FORNECIMENTO DE SERINGAS, AGULHAS, CONTENTORES E SISTEMAS FECHADOS DE COLHEITA,  ÀS INSTITUIÇÕES E SERVIÇOS DO SERVIÇO NACIONAL DE SAÚDE",FALSE
Contentores,Ao abrigo de acordo-quadro (art.º 259.º),Aquisição de bens móveis,"33140000-3, Material médico de consumo","Centro Hospitalar do Algarve, E. P. E. (510745997)","NORMAX,LDA. (500203130)","7.902,16 €",30-04-2014,28-04-2014,245 dias,"Portugal, Faro, Portimão<BR/>Portugal, Faro, Lagos<BR/>Portugal, Faro, Faro",Artigo 259.º do Código dos Contratos Públicos,"","",,"",,448705,"CONCURSO PÚBLICO PARA A CELEBRAÇÃO DE CONTRATOS PÚBLICOS DE APROVISIONAMENTO PARA A ÁREA DA SAÚDE, COM VISTA AO FORNECIMENTO DE SERINGAS, AGULHAS, CONTENTORES E SISTEMAS FECHADOS DE COLHEITA,  ÀS INSTITUIÇÕES E SERVIÇOS DO SERVIÇO NACIONAL DE SAÚDE",FALSE
Contentores,Ao abrigo de acordo-quadro (art.º 259.º),Aquisição de bens móveis,"33140000-3, Material médico de consumo","Centro Hospitalar do Algarve, E. P. E. (510745997)",AMBIMED (503593427),"2.389,50 €",30-04-2014,28-04-2014,245 dias,"Portugal, Faro, Faro<BR/>Portugal, Faro, Lagos<BR/>Portugal, Faro, Portimão",Artigo 259.º do Código dos Contratos Públicos,"","",,"",,448705,"CONCURSO PÚBLICO PARA A CELEBRAÇÃO DE CONTRATOS PÚBLICOS DE APROVISIONAMENTO PARA A ÁREA DA SAÚDE, COM VISTA AO FORNECIMENTO DE SERINGAS, AGULHAS, CONTENTORES E SISTEMAS FECHADOS DE COLHEITA,  ÀS INSTITUIÇÕES E SERVIÇOS DO SERVIÇO NACIONAL DE SAÚDE",FALSE
42/1575/2014 - Aquisição de Agulhas e Seringas,Ao abrigo de acordo-quadro (art.º 259.º),Aquisição de bens móveis,"33140000-3, Material médico de consumo","Centro Hospitalar do Algarve, E. P. E. (510745997)",PMH-PROD.MEDICO-HOSPITALARES (502376899),"5.184,21 €",30-04-2014,28-04-2014,240 dias,"Portugal, Faro, Faro<BR/>Portugal, Faro, Lagos<BR/>Portugal, Faro, Portimão",Artigo 259.º do Código dos Contratos Públicos,"","",,"",,185548,"CONCURSO PÚBLICO PARA A CELEBRAÇÃO DE CONTRATOS PÚBLICOS DE APROVISIONAMENTO PARA AQUISIÇÃO DE SERINGAS, AGULHAS E CONTENTORES ",FALSE
42/1575/2014 - Agulhas e Seringas,Ao abrigo de acordo-quadro (art.º 259.º),Aquisição de bens móveis,"33140000-3, Material médico de consumo","Centro Hospitalar do Algarve, E. P. E. (510745997)","B. BRAUN MEDICAL,LDA. (501506543)","36.560,39 €",30-04-2014,28-04-2014,240 dias,"Portugal, Faro, Faro<BR/>Portugal, Faro, Lagos<BR/>Portugal<BR/>Portugal, Faro, Portimão",Artigo 259.º do Código dos Contratos Públicos,"","",,"",,185548,"CONCURSO PÚBLICO PARA A CELEBRAÇÃO DE CONTRATOS PÚBLICOS DE APROVISIONAMENTO PARA AQUISIÇÃO DE SERINGAS, AGULHAS E CONTENTORES ",FALSE
Aquisição de Agulhas e Seringas,Ao abrigo de acordo-quadro (art.º 259.º),Aquisição de bens móveis,"33140000-3, Material médico de consumo","Centro Hospitalar do Algarve, E. P. E. (510745997)","PERGUT PORTUGAL,LDA. (501799729)","2.849,75 €",30-04-2014,28-04-2014,240 dias,"Portugal, Faro, Faro<BR/>Portugal, Faro, Lagos<BR/>Portugal, Faro, Portimão",Artigo 259.º do Código dos Contratos Públicos,"","",,"",,185548,"CONCURSO PÚBLICO PARA A CELEBRAÇÃO DE CONTRATOS PÚBLICOS DE APROVISIONAMENTO PARA AQUISIÇÃO DE SERINGAS, AGULHAS E CONTENTORES ",FALSE
Consumo Clínico (21),Ajuste Direto Regime Geral,Aquisição de bens móveis,"33140000-3, Material médico de consumo","Centro Hospitalar do Algarve, E. P. E. (510745997)","BOSTON SCIENTIFIC PORTUGAL-DISPOSITIVOS MÉDICOS, LDA. (504988964)","1.170,00 €",29-04-2014,28-04-2014,3 dias,"Portugal, Faro, Portimão<BR/>Portugal, Faro, Faro<BR/>Portugal, Faro, Lagos","Artigo 20.º, n.º 1, alínea a) do Código dos Contratos Públicos","","",,"",,Não aplicável.,Não aplicável.,FALSE
Prestação de Serviços de Alimentação para Utentes e Profissionais – Unidades de Portimão e Lagos,Ajuste Direto Regime Geral,Aquisição de serviços,"55320000-9, Serviços de provimento de refeições","Centro Hospitalar do Algarve, E. P. E. (510745997)","Gertal - Companhia Geral de Restaurantes e Alimentação, S.A. (500126623)","614.451,90 €",24-04-2014,01-01-2014,181 dias,"Portugal, Faro, Portimão<BR/>Portugal, Faro, Lagos","Artigo 24.º, n.º 1, alínea c) do Código dos Contratos Públicos","","",,"",,Não aplicável.,Não aplicável.,FALSE
Prestação de Serviços de Alimentação - Unidade de Faro - 1.º Semestre de 2014,Ajuste Direto Regime Geral,Aquisição de serviços,"55320000-9, Serviços de provimento de refeições","Centro Hospitalar do Algarve, E. P. E. (510745997)",SUCH - Serviço de Utilização Comum dos Hospitais (500900469),"887.990,64 €",24-04-2014,01-01-2014,181 dias,"Portugal, Faro, Faro","Artigo 24.º, n.º 1, alínea c) do Código dos Contratos Públicos","","",,"",,Não aplicável.,Não aplicável.,FALSE
Pulseiras de Identificação Recem-nascido  Pulseiras de Identificação Adulto,Ajuste Direto Regime Geral,Locação de bens móveis,"33140000-3, Material médico de consumo","Centro Hospitalar do Algarve, E.P.E. (510745997)",ANASTACIO SALDANHA UNIPESSOAL (505804441),"848,34 €",24-04-2014,17-04-2014,240 dias,"Portugal, Faro, Faro<BR/>Portugal, Faro, Lagos<BR/>Portugal, Faro, Portimão","Artigo 20.º, n.º 1, alínea a) do Código dos Contratos Públicos","","",,"",,Não aplicável.,Não aplicável.,FALSE
Material de Conservação,Ajuste Direto Regime Geral,Aquisição de bens móveis,"44111400-5, Tintas e revestimentos de parede<BR/>24910000-6, Colas<BR/>44115200-1, Materiais para canalização e aquecimento<BR/>39290000-1, Acessórios diversos","Centro Hospitalar do Algarve, E. P. E. (510745997)","ULTRAPOSTA - STAND PECAS ACESSORIOS UNIPESSOAL, LDA (509697135)","432,87 €",24-04-2014,27-03-2014,270 dias,"Portugal, Faro, Faro<BR/>Portugal, Faro, Portimão<BR/>Portugal, Faro, Lagos","Artigo 20.º, n.º 1, alínea a) do Código dos Contratos Públicos","","",,"",,Não aplicável.,Não aplicável.,FALSE
Material de Conservação,Ajuste Direto Regime Geral,Aquisição de bens móveis,"31700000-3, Material electrónico, electromecânico e electrotécnico","Centro Hospitalar do Algarve, E. P. E. (510745997)",MARIO LUIS J.TIAGO DUARTE (104889470),"288,00 €",24-04-2014,27-03-2014,270 dias,"Portugal, Faro, Lagos<BR/>Portugal, Faro, Portimão<BR/>Portugal, Faro, Faro","Artigo 20.º, n.º 1, alínea a) do Código dos Contratos Públicos","","",,"",,Não aplicável.,Não aplicável.,FALSE
Actuador,Ajuste Direto Regime Geral,Aquisição de bens móveis,"44423000-1, Artigos diversos","Centro Hospitalar do Algarve, E. P. E. (510745997)","HONEYWELL PORTUGAL - Automacao e Controlo, S.A (500908680)","952,92 €",24-04-2014,27-03-2014,270 dias,"Portugal, Faro, Faro<BR/>Portugal, Faro, Portimão<BR/>Portugal, Faro, Lagos","Artigo 20.º, n.º 1, alínea a) do Código dos Contratos Públicos","","",,"",,Não aplicável.,Não aplicável.,FALSE
Lâmpadas,Ajuste Direto Regime Geral,Aquisição de bens móveis,"31510000-4, Lâmpadas eléctricas de incandescência","Centro Hospitalar do Algarve, E. P. E. (510745997)","CELGARVE-CENTRO ELECTRICO DO ALGARVE,LDA (501619909)","447,88 €",24-04-2014,27-03-2014,270 dias,"Portugal, Faro, Faro<BR/>Portugal, Faro, Lagos<BR/>Portugal, Faro, Portimão","Artigo 20.º, n.º 1, alínea a) do Código dos Contratos Públicos","","",,"",,Não aplicável.,Não aplicável.,FALSE
Material de Conservação,Ajuste Direto Regime Geral,Aquisição de bens móveis,"34631400-3, Eixos e pneus para rodas, e outras peças para locomotivas ou material circulante","Centro Hospitalar do Algarve, E. P. E. (510745997)",TENTE RUEDAS S.A. (A61729042),"648,80 €",23-04-2014,27-03-2014,270 dias,"Portugal, Faro, Portimão<BR/>Portugal, Faro, Faro<BR/>Portugal, Faro, Lagos","Artigo 20.º, n.º 1, alínea a) do Código dos Contratos Públicos","","",,"",,Não aplicável.,Não aplicável.,FALSE
Obra de Construção Civil-Ampliação Sala Decisão Clinica,Ajuste Direto Regime Geral,Empreitadas de obras públicas,"45215140-0, Construção de instalações hospitalares","Centro Hospitalar do Algarve, E. P. E. (510745997)","IMOART- Arte e Decorações,Lda (501336877)","26.318,24 €",23-04-2014,26-03-2014,45 dias,"Portugal, Faro, Portimão","Artigo 19.º, alínea a) do Código dos Contratos Públicos","","",,"",,Não aplicável.,Não aplicável.,FALSE
"Comunicações Fixas,Moveis e de Dados-Fevereiro e Março/2014",Ajuste Direto Regime Geral,Aquisição de serviços,"64210000-1, Serviços telefónicos e de transmissão de dados","Centro Hospitalar do Algarve, E. P. E. (510745997)","MEO-Serviços de Comunicações Multimédia,SA (502600268)","13.722,60 €",23-04-2014,08-04-2014,59 dias,"Portugal, Faro, Faro<BR/>Portugal, Faro, Portimão<BR/>Portugal, Faro, Lagos","Artigo 20.º, n.º 1, alínea a) do Código dos Contratos Públicos","","",,"",,Não aplicável.,Não aplicável.,FALSE
Material de Conservação,Ajuste Direto Regime Geral,Aquisição de bens móveis,"44423000-1, Artigos diversos<BR/>38421110-6, Debitómetros","Centro Hospitalar do Algarve, E. P. E. (510745997)","AIR LIQUIDE MEDICINAL,S.A. (501576436)","4.096,21 €",23-04-2014,27-03-2014,270 dias,"Portugal, Faro, Portimão<BR/>Portugal, Faro, Lagos<BR/>Portugal, Faro, Faro","Artigo 20.º, n.º 1, alínea a) do Código dos Contratos Públicos","","",,"",,Não aplicável.,Não aplicável.,FALSE
Material de Conservação,Ajuste Direto Regime Geral,Aquisição de bens móveis,"31100000-7, Motores, geradores e transformadores eléctricos<BR/>19511000-1, Câmaras-de-ar, bandas de rodagem e flaps de borracha<BR/>39290000-1, Acessórios diversos","Centro Hospitalar do Algarve, E. P. E. (510745997)","SANO-TECNICA,LDA. (500239819)","1.781,22 €",23-04-2014,27-03-2014,270 dias,"Portugal, Faro, Portimão<BR/>Portugal, Faro, Lagos<BR/>Portugal, Faro, Faro","Artigo 20.º, n.º 1, alínea a) do Código dos Contratos Públicos","","",,"",,Não aplicável.,Não aplicável.,FALSE
Material de Conservação,Ajuste Direto Regime Geral,Aquisição de bens móveis,"31411000-0, Pilhas alcalinas","Centro Hospitalar do Algarve, E. P. E. (510745997)",PAPELARIA E LIVRARIA SAGRES (501212973),"1.319,50 €",23-04-2014,27-03-2014,270 dias,"Portugal, Faro, Portimão<BR/>Portugal, Faro, Faro<BR/>Portugal, Faro, Lagos","Artigo 20.º, n.º 1, alínea a) do Código dos Contratos Públicos","","",,"",,Não aplicável.,Não aplicável.,FALSE
Batas e fatos de Bloco Operatório,Ao abrigo de acordo-quadro (art.º 259.º),Aquisição de bens móveis,"33140000-3, Material médico de consumo","Centro Hospitalar do Algarve, E. P. E. (510745997)","OASIPOR-IMPORTAÇÃO E EXPORTAÇÃO, S.A. (502260750)","595,00 €",23-04-2014,09-04-2014,240 dias,"Portugal, Faro, Lagos<BR/>Portugal, Faro, Faro<BR/>Portugal, Faro, Portimão",Artigo 259.º do Código dos Contratos Públicos,"","",,"",,451780,CP 2012/24 - MATERAIL DISPOSABLE DE BLOCO OPERATORIO,FALSE
Consumo Clínico (22),Ajuste Direto Regime Geral,Aquisição de bens móveis,"33140000-3, Material médico de consumo","Centro Hospitalar do Algarve, E. P. E. (510745997)","B. BRAUN MEDICAL,LDA. (501506543)","492,80 €",23-04-2014,17-04-2014,2 dias,"Portugal, Faro, Portimão<BR/>Portugal, Faro, Faro<BR/>Portugal, Faro, Lagos","Artigo 20.º, n.º 1, alínea a) do Código dos Contratos Públicos","","",,"",,Não aplicável.,Não aplicável.,FALSE
Batas e Fatos de Bloco Operatório,Ao abrigo de acordo-quadro (art.º 259.º),Aquisição de bens móveis,"33140000-3, Material médico de consumo","Centro Hospitalar do Algarve, E. P. E. (510745997)","BASTOS VIEGAS,SA (500042772)","759,00 €",23-04-2014,09-04-2014,240 dias,"Portugal, Faro, Faro<BR/>Portugal, Faro, Lagos<BR/>Portugal, Faro, Portimão",Artigo 259.º do Código dos Contratos Públicos,"","",,"",,451780,CP 2012/24 - MATERAIL DISPOSABLE DE BLOCO OPERATORIO,FALSE
Consumo Clínico (22),Ajuste Direto Regime Geral,Aquisição de bens móveis,"33140000-3, Material médico de consumo","Centro Hospitalar do Algarve, E. P. E. (510745997)","BOSTON SCIENTIFIC PORTUGAL-DISPOSITIVOS MÉDICOS, LDA. (504988964)","2.000,00 €",23-04-2014,17-04-2014,2 dias,"Portugal, Faro, Portimão<BR/>Portugal, Faro, Lagos<BR/>Portugal, Faro, Faro","Artigo 20.º, n.º 1, alínea a) do Código dos Contratos Públicos","","",,"",,Não aplicável.,Não aplicável.,FALSE
Consumo Clínico (22),Ajuste Direto Regime Geral,Aquisição de bens móveis,"33140000-3, Material médico de consumo","Centro Hospitalar do Algarve, E. P. E. (510745997)",ENDOTÉCNICA - Soluções Hospitalares  (503818348),"1.410,00 €",23-04-2014,17-04-2014,2 dias,"Portugal, Faro, Lagos<BR/>Portugal, Faro, Faro<BR/>Portugal, Faro, Portimão","Artigo 20.º, n.º 1, alínea a) do Código dos Contratos Públicos","","",,"",,Não aplicável.,Não aplicável.,FALSE
Batas e Fatos de Bloco Operatório,Ao abrigo de acordo-quadro (art.º 259.º),Aquisição de bens móveis,"33140000-3, Material médico de consumo","Centro Hospitalar do Algarve, E. P. E. (510745997)","EZEQUIEL PANAO JORGE,LDA (501412727)","33.232,08 €",23-04-2014,09-04-2014,240 dias,"Portugal, Faro, Lagos<BR/>Portugal, Faro, Faro<BR/>Portugal, Faro, Portimão",Artigo 259.º do Código dos Contratos Públicos,"","",,"",,451780,CP 2012/24 - MATERAIL DISPOSABLE DE BLOCO OPERATORIO,FALSE
Batas e fatos de Bloco Operatório,Ao abrigo de acordo-quadro (art.º 259.º),Aquisição de bens móveis,"33140000-3, Material médico de consumo","Centro Hospitalar do Algarve, E. P. E. (510745997)",ANASTACIO SALDANHA UNIPESSOAL (505804441),"34.065,90 €",23-04-2014,09-04-2014,240 dias,"Portugal, Faro, Lagos<BR/>Portugal, Faro, Faro<BR/>Portugal, Faro, Portimão",Artigo 259.º do Código dos Contratos Públicos,"","",,"",,451780,CP 2012/24 - MATERAIL DISPOSABLE DE BLOCO OPERATORIO,FALSE
Processo n.º 81000214-Medicamentos para o aparelho respiratório,Ajuste Direto Regime Geral,Aquisição de bens móveis,"33690000-3, Medicamentos vários","Centro Hospitalar do Algarve, E. P. E. (510745997)",Teva (507045491),"2.990,00 €",23-04-2014,18-12-2013,360 dias,"Portugal<BR/>Portugal, Faro, Faro",Artigo 258.º do Código dos Contratos Públicos,31-12-2014,"2.990,00 €",,"",,Não aplicável.,Não aplicável.,FALSE
Processo n.º 81000214-Medicamentos para o aparelho respiratório,Ajuste Direto Regime Geral,Aquisição de bens móveis,"33690000-3, Medicamentos vários","Centro Hospitalar do Algarve, E. P. E. (510745997)",Novartis (500063524),"36.004,80 €",23-04-2014,18-12-2013,360 dias,"Portugal, Faro, Faro",Artigo 258.º do Código dos Contratos Públicos,31-12-2014,"36.004,80 €",,"",,Não aplicável.,Não aplicável.,FALSE
Processo n.º 81000214-Medicamentos para o aparelho respiratório,Ajuste Direto Regime Geral,Aquisição de bens móveis,"33690000-3, Medicamentos vários","Centro Hospitalar do Algarve, E. P. E. (510745997)",Unilfarma (500293023),"35.087,35 €",23-04-2014,18-12-2013,360 dias,"Portugal, Faro, Faro",Artigo 258.º do Código dos Contratos Públicos,31-12-2014,"35.087,35 €",,"",,Não aplicável.,Não aplicável.,FALSE
Processo n.º 81000214-Medicamentos para o aparelho respiratório,Ajuste Direto Regime Geral,Aquisição de bens móveis,"33690000-3, Medicamentos vários","Centro Hospitalar do Algarve, E. P. E. (510745997)",Jaba (500492867),"219,50 €",23-04-2014,18-12-2013,360 dias,"Portugal, Faro, Faro",Artigo 258.º do Código dos Contratos Públicos,31-12-2014,"219,50 €",,"",,Não aplicável.,Não aplicável.,FALSE
Processo n.º 81000214-Medicamentos para o aparelho respiratório,Ajuste Direto Regime Geral,Aquisição de bens móveis,"33690000-3, Medicamentos vários","Centro Hospitalar do Algarve, E. P. E. (510745997)",Glaxo (500139962),"10.146,95 €",23-04-2014,18-12-2013,360 dias,"Portugal, Faro, Faro",Artigo 258.º do Código dos Contratos Públicos,31-12-2014,"10.146,95 €",,"",,Não aplicável.,Não aplicável.,FALSE
Processo n.º 81000214-Medicamentos para o aparelho respiratório,Ajuste Direto Regime Geral,Aquisição de bens móveis,"33690000-3, Medicamentos vários","Centro Hospitalar do Algarve, E. P. E. (510745997)",Meda (500082090),"717,75 €",23-04-2014,18-12-2013,360 dias,"Portugal, Faro, Faro",Artigo 258.º do Código dos Contratos Públicos,31-12-2014,"717,75 €",,"",,Não aplicável.,Não aplicável.,FALSE
"Comunicações Fixas,Moveis e de Dados-Janeiro/2014",Ajuste Direto Regime Geral,Aquisição de serviços,"64210000-1, Serviços telefónicos e de transmissão de dados","Centro Hospitalar do Algarve, E. P. E. (510745997)","Meo-Serviços de Comunicações Multimedia,SA (502600268)","8.462,11 €",23-04-2014,17-03-2014,30 dias,"Portugal, Faro, Lagos<BR/>Portugal, Faro, Faro<BR/>Portugal, Faro, Portimão","Artigo 20.º, n.º 1, alínea a) do Código dos Contratos Públicos","","",,"",,Não aplicável.,Não aplicável.,FALSE
Processo n.º 81000214-Medicamentos para o aparelho respiratório,Ajuste Direto Regime Geral,Aquisição de bens móveis,"33690000-3, Medicamentos vários","Centro Hospitalar do Algarve, E. P. E. (510745997)",Angelini (500583650),"9.720,00 €",23-04-2014,18-12-2013,360 dias,"Portugal, Faro, Faro",Artigo 258.º do Código dos Contratos Públicos,31-12-2014,"9.720,00 €",,"",,Não aplicável.,Não aplicável.,FALSE
Processo n.º 31/1220/2014-Aquisição de Velaglucerase,Ajuste Direto Regime Geral,Aquisição de bens móveis,"33690000-3, Medicamentos vários","Centro Hospitalar do Algarve, E. P. E. (510745997)",Shire (509264662),"48.512,55 €",23-04-2014,13-02-2014,321 dias,"Portugal, Faro, Faro","Artigo 26.º, n.º 1, alínea e) do Código dos Contratos Públicos",31-12-2014,"48.512,55 €",,"",,Não aplicável.,Não aplicável.,FALSE
Processo n.º 31/1215/2014-Soluções para diálise Peritoneal,Ajuste Direto Regime Geral,Aquisição de bens móveis,"33600000-6, Produtos farmacêuticos","Centro Hospitalar do Algarve, E. P. E. (510745997)",Baxter (503347345),"15.707,19 €",23-04-2014,10-02-2014,324 dias,"Portugal, Faro, Faro","Artigo 26.º, n.º 1, alínea e) do Código dos Contratos Públicos",31-12-2014,"15.707,19 €",,"",,Não aplicável.,Não aplicável.,FALSE
Material de Canalização,Ajuste Direto Regime Geral,Aquisição de bens móveis,"44115200-1, Materiais para canalização e aquecimento<BR/>44500000-5, Ferramentas, fechaduras, chaves, dobradiças, fixadores, correntes e molas","Centro Hospitalar do Algarve, E. P. E. (510745997)","NICOLAU & ROSA, LDA (500615403)","1.404,01 €",23-04-2014,27-03-2014,270 dias,"Portugal, Faro, Portimão<BR/>Portugal, Faro, Lagos<BR/>Portugal, Faro, Faro","Artigo 20.º, n.º 1, alínea a) do Código dos Contratos Públicos","","",,"",,Não aplicável.,Não aplicável.,FALSE
Material de conservação,Ajuste Direto Regime Geral,Aquisição de bens móveis,"31320000-5, Cabos de distribuição de energia eléctrica<BR/>31440000-2, Baterias","Centro Hospitalar do Algarve, E. P. E. (510745997)",MULTINFOR-EQ.MANUT.HOSPITALAR (501691278),"443,40 €",23-04-2014,27-03-2014,270 dias,"Portugal, Faro, Lagos<BR/>Portugal, Faro, Portimão<BR/>Portugal, Faro, Faro","Artigo 20.º, n.º 1, alínea a) do Código dos Contratos Públicos","","",,"",,Não aplicável.,Não aplicável.,FALSE
Copos p/ Sacos de Aspiração e Suportes,Ajuste Direto Regime Geral,Aquisição de bens móveis,"44423000-1, Artigos diversos<BR/>44212313-6, Suportes","Centro Hospitalar do Algarve, E. P. E. (510745997)","Medline international Portugal, Unipessoal, Lda. (510533515)","600,00 €",22-04-2014,27-03-2014,270 dias,"Portugal, Faro, Portimão<BR/>Portugal, Faro, Faro<BR/>Portugal, Faro, Lagos","Artigo 20.º, n.º 1, alínea a) do Código dos Contratos Públicos","","",,"",,Não aplicável.,Não aplicável.,FALSE
Sensor,Ajuste Direto Regime Geral,Aquisição de bens móveis,"35125100-7, Sensores<BR/>31440000-2, Baterias","Centro Hospitalar do Algarve, E. P. E. (510745997)","B. BRAUN MEDICAL,LDA. (501506543)","634,69 €",22-04-2014,27-03-2014,270 dias,"Portugal, Faro, Lagos<BR/>Portugal, Faro, Portimão<BR/>Portugal, Faro, Faro","Artigo 20.º, n.º 1, alínea a) do Código dos Contratos Públicos","","",,"",,Não aplicável.,Não aplicável.,FALSE
Processo n.º 81011414-Medicamentos par afecções oculares,Ajuste Direto Regime Geral,Aquisição de bens móveis,"33690000-3, Medicamentos vários","Centro Hospitalar do Algarve, E. P. E. (510745997)",Laboratorio Edol (507072642),"11.411,12 €",22-04-2014,18-12-2013,360 dias,"Portugal, Faro, Faro",Artigo 258.º do Código dos Contratos Públicos,"","",,"",,Não aplicável.,Não aplicável.,FALSE
Processo n.º 81011414-Medicamentos par afecções oculares,Ajuste Direto Regime Geral,Aquisição de bens móveis,"33690000-3, Medicamentos vários","Centro Hospitalar do Algarve, E. P. E. (510745997)",Davi II (508309450),"968,40 €",22-04-2014,18-12-2013,360 dias,"Portugal, Faro, Faro",Artigo 258.º do Código dos Contratos Públicos,"","",,"",,Não aplicável.,Não aplicável.,FALSE
Processo n.º 81011414-Medicamentos par afecções oculares,Ajuste Direto Regime Geral,Aquisição de bens móveis,"33690000-3, Medicamentos vários","Centro Hospitalar do Algarve, E. P. E. (510745997)",Alcon (501251685),"340,40 €",22-04-2014,18-12-2013,360 dias,"Portugal, Faro, Faro",Artigo 258.º do Código dos Contratos Públicos,"","",,"",,Não aplicável.,Não aplicável.,FALSE
Processo n.º 81011414-Medicamentos par afecções oculares,Ajuste Direto Regime Geral,Aquisição de bens móveis,"33690000-3, Medicamentos vários","Centro Hospitalar do Algarve, E. P. E. (510745997)",Tcnifar (500280436),"193,00 €",22-04-2014,18-12-2013,360 dias,"Portugal, Faro, Faro",Artigo 258.º do Código dos Contratos Públicos,"","",,"",,Não aplicável.,Não aplicável.,FALSE
Processo n.º 81011414-Medicamentos par afecções oculares,Ajuste Direto Regime Geral,Aquisição de bens móveis,"33690000-3, Medicamentos vários","Centro Hospitalar do Algarve, E. P. E. (510745997)",Unilfarma (500293023),"38,31 €",22-04-2014,18-12-2013,360 dias,"Portugal, Faro, Faro",Artigo 258.º do Código dos Contratos Públicos,"","",,"",,Não aplicável.,Não aplicável.,FALSE
Processo n.º 81011414 -Aquisição medicamentos afecções oculares,Ajuste Direto Regime Geral,Aquisição de bens móveis,"33690000-3, Medicamentos vários","Centro Hospitalar do Algarve, E. P. E. (510745997)",Angellini (500583650),"22,60 €",22-04-2014,18-12-2013,360 dias,"Portugal, Faro, Faro",Artigo 258.º do Código dos Contratos Públicos,"","",,"",,Não aplicável.,Não aplicável.,FALSE
cabos,Ajuste Direto Regime Geral,Aquisição de bens móveis,"31320000-5, Cabos de distribuição de energia eléctrica<BR/>35125100-7, Sensores<BR/>31700000-3, Material electrónico, electromecânico e electrotécnico","Centro Hospitalar do Algarve, E. P. E. (510745997)",GERANSWERS (507683528),"1.326,00 €",22-04-2014,27-03-2014,270 dias,"Portugal, Faro, Faro<BR/>Portugal, Faro, Portimão<BR/>Portugal, Faro, Lagos","Artigo 20.º, n.º 1, alínea a) do Código dos Contratos Públicos","","",,"",,Não aplicável.,Não aplicável.,FALSE
Processo n.º 81011414 -Aquisição medicamentos afecções oculares,Ajuste Direto Regime Geral,Aquisição de bens móveis,"33690000-3, Medicamentos vários","Centro Hospitalar do Algarve, E. P. E. (510745997)",Glaxo (500139962),"129,90 €",22-04-2014,18-12-2013,360 dias,"Portugal, Faro, Faro",Artigo 258.º do Código dos Contratos Públicos,"","",,"",,Não aplicável.,Não aplicável.,FALSE
Material de Conservação,Ajuste Direto Regime Geral,Aquisição de bens móveis,"44500000-5, Ferramentas, fechaduras, chaves, dobradiças, fixadores, correntes e molas","Centro Hospitalar do Algarve, E. P. E. (510745997)","GLORIA & SILVESTRE,LDA. (501124713)","946,15 €",22-04-2014,27-03-2014,270 dias,"Portugal, Faro, Faro<BR/>Portugal, Faro, Portimão<BR/>Portugal, Faro, Lagos","Artigo 20.º, n.º 1, alínea a) do Código dos Contratos Públicos","","",,"",,Não aplicável.,Não aplicável.,FALSE
Filtro,Ajuste Direto Regime Geral,Aquisição de bens móveis,"42913500-4, Filtros para entrada de ar","Centro Hospitalar do Algarve, E. P. E. (510745997)",ENKROTT GESTAO TRATAM.AGUAS S. (500103461),"66,50 €",22-04-2014,27-03-2014,270 dias,"Portugal, Faro, Lagos<BR/>Portugal, Faro, Faro<BR/>Portugal, Faro, Portimão","Artigo 20.º, n.º 1, alínea a) do Código dos Contratos Públicos","","",,"",,Não aplicável.,Não aplicável.,FALSE
Material Conservação,Ajuste Direto Regime Geral,Aquisição de bens móveis,"39290000-1, Acessórios diversos<BR/>38425100-1, Manómetros","Centro Hospitalar do Algarve, E. P. E. (510745997)","EUGÉNIO PEREIRA, LDA. (503989525)","180,56 €",22-04-2014,27-03-2014,270 dias,"Portugal, Faro, Lagos<BR/>Portugal, Faro, Portimão<BR/>Portugal, Faro, Faro","Artigo 20.º, n.º 1, alínea a) do Código dos Contratos Públicos","","",,"",,Não aplicável.,Não aplicável.,FALSE
Processo n.º 31/1219/2014-Aquisição de Goserrelina,Ajuste Direto Regime Geral,Aquisição de bens móveis,"33690000-3, Medicamentos vários","Centro Hospitalar do Algarve, E. P. E. (510745997)",Astrazeneca (502942240),"154.000,00 €",22-04-2014,10-02-2014,324 dias,"Portugal, Faro, Faro","Artigo 26.º, n.º 1, alínea e) do Código dos Contratos Públicos",31-12-2014,"154.000,00 €",,"",,Não aplicável.,Não aplicável.,FALSE
Processo n.º 31/1222/2014-Aquisição de Imiglucerase,Ajuste Direto Regime Geral,Aquisição de bens móveis,"33690000-3, Medicamentos vários","Centro Hospitalar do Algarve, E. P. E. (510745997)",Sanofi (500134960),"258.731,52 €",22-04-2014,12-02-2014,324 dias,"Portugal, Faro, Faro","Artigo 26.º, n.º 1, alínea e) do Código dos Contratos Públicos",31-12-2014,"258.731,52 €",,"",,Não aplicável.,Não aplicável.,FALSE
Processo n.º 31/1223/2014-Aquisição de Plasma Humano,Ajuste Direto Regime Geral,Aquisição de bens móveis,"33690000-3, Medicamentos vários","Centro Hospitalar do Algarve, E. P. E. (510745997)",Octapharma (502820780),"157.080,00 €",22-04-2014,10-02-2014,324 dias,"Portugal, Faro, Faro","Artigo 26.º, n.º 1, alínea e) do Código dos Contratos Públicos",31-12-2014,"157.080,00 €",,"",,Não aplicável.,Não aplicável.,FALSE
Processo n.º 31/1429/2014-Aquisição de Metilprednisolona,Ajuste Direto Regime Geral,Aquisição de bens móveis,"33690000-3, Medicamentos vários","Centro Hospitalar do Algarve, E. P. E. (510745997)",Laboratorios Pfizer (500162166),"28.785,00 €",22-04-2014,13-02-2014,320 dias,"Portugal, Faro, Faro","Artigo 26.º, n.º 1, alínea e) do Código dos Contratos Públicos",31-12-2014,"28.785,00 €",,"",,Não aplicável.,Não aplicável.,FALSE
bateria,Ajuste Direto Regime Geral,Aquisição de bens móveis,"31400000-0, Acumuladores, pilhas e baterias eléctricas","Centro Hospitalar do Algarve, E. P. E. (510745997)","ALVES & CA(IRMAOS),LDA. (500310068)","220,00 €",22-04-2014,27-03-2014,270 dias,"Portugal, Faro, Portimão<BR/>Portugal, Faro, Lagos<BR/>Portugal, Faro, Faro","Artigo 20.º, n.º 1, alínea a) do Código dos Contratos Públicos","","",,"",,Não aplicável.,Não aplicável.,FALSE
Consumo Clínico (29),Ajuste Direto Regime Geral,Aquisição de bens móveis,"33140000-3, Material médico de consumo","Centro Hospitalar do Algarve, E. P. E. (510745997)","COVIDIEN PORTUGAL - PRODUTOS  DE SAUDE, UNIPESSOAL, LDA. (503413410)","350,00 €",22-04-2014,14-04-2014,2 dias,"Portugal, Faro, Faro<BR/>Portugal, Faro, Lagos<BR/>Portugal, Faro, Portimão","Artigo 20.º, n.º 1, alínea a) do Código dos Contratos Públicos","","",,"",,Não aplicável.,Não aplicável.,FALSE
Consumo Clínico (29),Ajuste Direto Regime Geral,Aquisição de bens móveis,"33140000-3, Material médico de consumo","Centro Hospitalar do Algarve, E. P. E. (510745997)","SMITHS MEDICAL(PORTUGAL),LDA. (507445937)","129,00 €",22-04-2014,14-04-2014,2 dias,"Portugal, Faro, Lagos<BR/>Portugal, Faro, Faro<BR/>Portugal, Faro, Portimão","Artigo 20.º, n.º 1, alínea a) do Código dos Contratos Públicos","","",,"",,Não aplicável.,Não aplicável.,FALSE
Consumo Clínico (29),Ajuste Direto Regime Geral,Aquisição de bens móveis,"33140000-3, Material médico de consumo","Centro Hospitalar do Algarve, E. P. E. (510745997)","SMITH & NEPHEW, LDª (503552461)","300,00 €",22-04-2014,14-04-2014,2 dias,"Portugal, Faro, Portimão<BR/>Portugal, Faro, Faro<BR/>Portugal, Faro, Lagos","Artigo 24.º, n.º 2, alínea c) do Código dos Contratos Públicos","","",,"",,Não aplicável.,Não aplicável.,FALSE
Consumo Clínico (29),Ajuste Direto Regime Geral,Aquisição de bens móveis,"33140000-3, Material médico de consumo","Centro Hospitalar do Algarve, E. P. E. (510745997)","SPECULUM-ARTIGOS MEDICOS,S.A (502996323)","398,75 €",22-04-2014,14-04-2014,3 dias,"Portugal, Faro, Portimão<BR/>Portugal, Faro, Lagos<BR/>Portugal, Faro, Faro","Artigo 20.º, n.º 1, alínea a) do Código dos Contratos Públicos","","",,"",,Não aplicável.,Não aplicável.,FALSE
Consumo Clínico (29),Ajuste Direto Regime Geral,Aquisição de bens móveis,"33140000-3, Material médico de consumo","Centro Hospitalar do Algarve, E. P. E. (510745997)","PAUL HARTMANN, LDA. (502271728)","79,50 €",22-04-2014,14-04-2014,3 dias,"Portugal, Faro, Lagos<BR/>Portugal, Faro, Portimão<BR/>Portugal, Faro, Faro","Artigo 20.º, n.º 1, alínea a) do Código dos Contratos Públicos","","",,"",,Não aplicável.,Não aplicável.,FALSE
Consumo Clínico (29),Ajuste Direto Regime Geral,Aquisição de bens móveis,"33140000-3, Material médico de consumo","Centro Hospitalar do Algarve, E. P. E. (510745997)","OLYMPUS IBERIA, s.a.u. (980474710)","2.779,46 €",22-04-2014,14-04-2014,2 dias,"Portugal, Faro, Lagos<BR/>Portugal, Faro, Faro<BR/>Portugal, Faro, Portimão","Artigo 20.º, n.º 1, alínea a) do Código dos Contratos Públicos","","",,"",,Não aplicável.,Não aplicável.,FALSE
Consumo Clínico (29),Ajuste Direto Regime Geral,Aquisição de bens móveis,"33140000-3, Material médico de consumo","Centro Hospitalar do Algarve, E. P. E. (510745997)","3M Portugal, Lda. (500193940)","1.205,30 €",22-04-2014,14-04-2014,2 dias,"Portugal, Faro, Portimão<BR/>Portugal, Faro, Faro<BR/>Portugal, Faro, Lagos","Artigo 20.º, n.º 1, alínea a) do Código dos Contratos Públicos","","",,"",,Não aplicável.,Não aplicável.,FALSE
Consumo Clínico (29),Ajuste Direto Regime Geral,Aquisição de bens móveis,"33140000-3, Material médico de consumo","Centro Hospitalar do Algarve, E. P. E. (510745997)","MED X-RAY SISTEMAS MEDICOS,LDA (506187071)","179,96 €",22-04-2014,14-04-2014,2 dias,"Portugal, Faro, Lagos<BR/>Portugal, Faro, Faro<BR/>Portugal, Faro, Portimão","Artigo 20.º, n.º 1, alínea a) do Código dos Contratos Públicos","","",,"",,Não aplicável.,Não aplicável.,FALSE
Consumo Clínico (29),Ajuste Direto Regime Geral,Aquisição de bens móveis,"33140000-3, Material médico de consumo","Centro Hospitalar do Algarve, E. P. E. (510745997)","LEICA MICROSISTEMAS - INSTRUMENTOS DE PRECISÃO S.U.,LDA. (500301921)","660,00 €",22-04-2014,14-04-2014,2 dias,"Portugal, Faro, Lagos<BR/>Portugal, Faro, Faro<BR/>Portugal, Faro, Portimão","Artigo 20.º, n.º 1, alínea a) do Código dos Contratos Públicos","","",,"",,Não aplicável.,Não aplicável.,FALSE
Consumo Clínico (29),Ajuste Direto Regime Geral,Aquisição de bens móveis,"33140000-3, Material médico de consumo","Centro Hospitalar do Algarve, E. P. E. (510745997)",JOHNSON & JOHNSON PROD.PROF. (500153370),"1.028,00 €",22-04-2014,14-04-2014,2 dias,"Portugal, Faro, Lagos<BR/>Portugal, Faro, Portimão<BR/>Portugal, Faro, Faro","Artigo 20.º, n.º 1, alínea a) do Código dos Contratos Públicos","","",,"",,Não aplicável.,Não aplicável.,FALSE
Consumo Clínico (29),Ajuste Direto Regime Geral,Aquisição de bens móveis,"33140000-3, Material médico de consumo","Centro Hospitalar do Algarve, E. P. E. (510745997)","INTERSURGICAL PORTUGAL,LDA. (503480045)","75,60 €",22-04-2014,14-04-2014,2 dias,"Portugal, Faro, Lagos<BR/>Portugal, Faro, Portimão<BR/>Portugal, Faro, Faro","Artigo 20.º, n.º 1, alínea a) do Código dos Contratos Públicos","","",,"",,Não aplicável.,Não aplicável.,FALSE
Consumo Clínico (29),Ajuste Direto Regime Geral,Aquisição de bens móveis,"33140000-3, Material médico de consumo","Centro Hospitalar do Algarve, E. P. E. (510745997)",ENDOTÉCNICA - Soluções Hospitalares  (503818348),"2.160,00 €",22-04-2014,14-04-2014,3 dias,"Portugal, Faro, Faro<BR/>Portugal, Faro, Lagos<BR/>Portugal, Faro, Portimão","Artigo 20.º, n.º 1, alínea a) do Código dos Contratos Públicos","","",,"",,Não aplicável.,Não aplicável.,FALSE
Consumo Clínico (29),Ajuste Direto Regime Geral,Aquisição de bens móveis,"33140000-3, Material médico de consumo","Centro Hospitalar do Algarve, E. P. E. (510745997)","MEDICINALIA - CORMEDICA,LDA. (500684324)","11.400,00 €",22-04-2014,14-04-2014,3 dias,"Portugal, Faro, Portimão<BR/>Portugal, Faro, Faro<BR/>Portugal, Faro, Lagos","Artigo 20.º, n.º 1, alínea a) do Código dos Contratos Públicos","","",,"",,Não aplicável.,Não aplicável.,FALSE
Manutenção Equipamento,Ajuste Direto Regime Geral,Aquisição de serviços,"50420000-5, Serviços de reparação e manutenção de equipamento médico e cirúrgico","Centro Hospitalar do Algarve, E. P. E. (510745997)",Garal (500777314),"5.428,80 €",21-04-2014,16-04-2014,245 dias,"Portugal, Faro, Faro<BR/>Portugal, Faro, Portimão","Artigo 20.º, n.º 1, alínea a) do Código dos Contratos Públicos","","",,"",,Não aplicável.,Não aplicável.,FALSE
Manutenção Software,Ajuste Direto Regime Geral,Aquisição de serviços,"50312000-5, Manutenção e reparação de equipamento informático","Centro Hospitalar do Algarve, E. P. E. (510745997)",B-Simple (506188841),"47.000,00 €",21-04-2014,16-04-2014,245 dias,"Portugal, Faro, Portimão<BR/>Portugal, Faro, Faro","Artigo 24.º, n.º 1, alínea e) do Código dos Contratos Públicos","","",,"",,Não aplicável.,Não aplicável.,FALSE
Consumo Clínico (29),Ajuste Direto Regime Geral,Aquisição de bens móveis,"33140000-3, Material médico de consumo","Centro Hospitalar do Algarve, E. P. E. (510745997)","C.R.BARD PORTUGAL, LDA. (502438274)","1.950,00 €",21-04-2014,14-04-2014,2 dias,"Portugal, Faro, Lagos<BR/>Portugal, Faro, Faro<BR/>Portugal, Faro, Portimão","Artigo 20.º, n.º 1, alínea a) do Código dos Contratos Públicos","","",,"",,Não aplicável.,Não aplicável.,FALSE
Consumo Clínico (29),Ajuste Direto Regime Geral,Aquisição de bens móveis,"33140000-3, Material médico de consumo","Centro Hospitalar do Algarve, E. P. E. (510745997)","BASTOS VIEGAS,SA (500042772)","322,50 €",21-04-2014,14-04-2014,2 dias,"Portugal, Faro, Portimão<BR/>Portugal, Faro, Faro<BR/>Portugal, Faro, Lagos","Artigo 20.º, n.º 1, alínea a) do Código dos Contratos Públicos","","",,"",,Não aplicável.,Não aplicável.,FALSE
68.2100.2014 - Contrato Assistência Técnica Máquinas Hemodiálise 01.04.14 a 30.06.14,Ajuste Direto Regime Geral,Aquisição de serviços,"50000000-5, Serviços de reparação e manutenção","Centro Hospitalar do Algarve, E. P. E. (510745997)","Fresenius Medical Care, SA (503070220)","2.256,60 €",21-04-2014,15-04-2014,91 dias,"Portugal, Faro, Faro","Artigo 24.º, n.º 1, alínea e) do Código dos Contratos Públicos","","",,"",,Não aplicável.,Não aplicável.,FALSE
Serviços Médicos Urgência Geral - Ortopedia - 01/07/2013 a 31/10/2013 resolvido o procedimento em Março/14 em virtude de apenas termos recebido autorização  da Tutela em 17/02/2014 através do despacho 1439/2014/DRH/URT/ACSS,Ajuste Direto Regime Geral,Aquisição de serviços,"85121283-0, Serviços de ortopedia","Centro Hospitalar do Algarve, E. P. E. (510745997)","Helped - Prestação de Serviços Saúde , Lda (506069010)","31.320,00 €",21-04-2014,08-04-2014,123 dias,"Portugal, Faro, Portimão<BR/>Portugal, Faro, Faro","Artigo 20.º, n.º 1, alínea a) do Código dos Contratos Públicos",08-04-2014,"31.320,00 €",,"",,Não aplicável.,Não aplicável.,FALSE
"68.1355.2014 - Ampliação das Enfermarias nos pisos  3,4 e 5 - Unid. Portimão",Ajuste Direto Regime Geral,Aquisição de serviços,"50000000-5, Serviços de reparação e manutenção","Centro Hospitalar do Algarve, E. P. E. (510745997)","Acciona Facility Services, SA (503431397)","15.536,91 €",21-04-2014,11-02-2014,20 dias,"Portugal, Portalegre, Monforte","Artigo 24.º, n.º 1, alínea e) do Código dos Contratos Públicos","","",,"",,Não aplicável.,Não aplicável.,FALSE
Serviços Médicos Neurofisiologia,Ajuste Direto Regime Geral,Aquisição de serviços,"85121220-1, Serviços especializados de nefrologia ou do sistema nervoso","Centro Hospitalar do Algarve, E. P. E. (510745997)","Drª Teresa Paiva - Centro de Electroencefalografia e Neurofisiologia Clinica, Lda (501363050)","32.040,00 €",21-04-2014,08-04-2014,180 dias,"Portugal, Faro, Portimão<BR/>Portugal, Faro, Faro<BR/>Portugal, Faro, Lagos","Artigo 20.º, n.º 1, alínea a) do Código dos Contratos Públicos",30-06-2014,"14.240,05 €",,"O valor do contrato teve por base as necessidades estimadas para o 1º semestre de 2014, o valor final reflecte as necessidades efectivas",,Não aplicável.,Não aplicável.,FALSE
SISTEMA DOSEADOR DE GOTAS,Ao abrigo de acordo-quadro (art.º 259.º),Aquisição de bens móveis,"33140000-3, Material médico de consumo","Centro Hospitalar do Algarve, E. P. E. (510745997)","MEDICINALIA - CORMEDICA,LDA. (500684324)","6.451,50 €",21-04-2014,11-04-2014,240 dias,"Portugal, Faro, Faro<BR/>Portugal, Faro, Portimão<BR/>Portugal, Faro, Lagos",Artigo 259.º do Código dos Contratos Públicos,"","",,"",,412727,CONCURSO PÚBLICO PARA A CELEBRAÇÃO DE CONTRATOS PÚBLICOS DE APROVISIONAMENTO PARA AQUISIÇÃO DE MATERIAL CATETERES,FALSE
Serviços Médicos Urgência Geral e Pediátrica e na área do doente critico nomeadamente Vmer e sala de reanimação,Ajuste Direto Regime Geral,Aquisição de serviços,"85121100-4, Serviços de médicos de clínica geral","Centro Hospitalar do Algarve, E. P. E. (510745997)","Manati - Serviços Médicos, Lda (507288726)","73.440,00 €",21-04-2014,28-02-2014,180 dias,"Portugal, Faro, Lagos<BR/>Portugal, Faro, Faro<BR/>Portugal, Faro, Portimão","Artigo 20.º, n.º 1, alínea a) do Código dos Contratos Públicos",30-06-2014,"51.000,00 €",,"O valor do contrato teve por base as necessidades estimadas para o 1º semestre de 2014, o valor final reflecte as necessidades efectivas",,Não aplicável.,Não aplicável.,FALSE
TAMPA  ESTERILIZADA P/TORNEIRA 3 VIAS,Ao abrigo de acordo-quadro (art.º 259.º),Aquisição de bens móveis,"33140000-3, Material médico de consumo","Centro Hospitalar do Algarve, E. P. E. (510745997)","PERGUT PORTUGAL,LDA. (501799729)","2.716,00 €",21-04-2014,11-04-2014,240 dias,"Portugal, Faro, Lagos<BR/>Portugal, Faro, Portimão<BR/>Portugal, Faro, Faro",Artigo 259.º do Código dos Contratos Públicos,"","",,"",,412727,CONCURSO PÚBLICO PARA A CELEBRAÇÃO DE CONTRATOS PÚBLICOS DE APROVISIONAMENTO PARA AQUISIÇÃO DE MATERIAL CATETERES,FALSE
68.2076.2014 - Fornecimento Filtros (Janeiro a Abril 2014) Unid. Faro,Ajuste Direto Regime Geral,Aquisição de serviços,"50000000-5, Serviços de reparação e manutenção","Centro Hospitalar do Algarve, E. P. E. (510745997)","TecnoSpie, SA (500205698)","4.991,71 €",21-04-2014,14-04-2014,20 dias,"Portugal, Faro, Faro","Artigo 24.º, n.º 1, alínea e) do Código dos Contratos Públicos","","",,"",,Não aplicável.,Não aplicável.,FALSE
"Cateteres, prolongadores, torneiras e sistemas de soros",Ao abrigo de acordo-quadro (art.º 259.º),Aquisição de bens móveis,"33140000-3, Material médico de consumo","Centro Hospitalar do Algarve, E. P. E. (510745997)",PMH-PROD.MEDICO-HOSPITALARES (502376899),"11.895,40 €",21-04-2014,11-04-2014,240 dias,"Portugal, Faro, Faro<BR/>Portugal, Faro, Portimão<BR/>Portugal, Faro, Lagos",Artigo 259.º do Código dos Contratos Públicos,"","",,"",,412727,CONCURSO PÚBLICO PARA A CELEBRAÇÃO DE CONTRATOS PÚBLICOS DE APROVISIONAMENTO PARA AQUISIÇÃO DE MATERIAL CATETERES,FALSE
"CATETER, PERIFERICO, SIST. PROTECÇÃO, CH20 1.3x 45mm, RADIOPACO  CATETER, PERIFERICO, SIST. PROTECÇÃO, CH18 1.3x 45mm, RADIOPACO  CATETER, PERIFERICO, SIST. PROTECÇÃO, CH16 1.3x 45mm, RADIOPACO  CATETER, PERIFERICO, SIST. PROTECÇÃO, CH14 1.3x 45mm, RADIOPACO  CATETER, PERIFERICO, SIST. PROTECÇÃO, CH22 1.3x 45mm, RADIOPACO  CATETER, PERIFERICO, SIST. PROTECÇÃO, CH24 1.3x 45mm, RADIOPACO",Ao abrigo de acordo-quadro (art.º 259.º),Aquisição de bens móveis,"33140000-3, Material médico de consumo","Centro Hospitalar do Algarve, E. P. E. (510745997)","B. BRAUN MEDICAL,LDA. (501506543)","54.831,00 €",21-04-2014,11-04-2014,240 dias,"Portugal, Faro, Portimão<BR/>Portugal, Faro, Lagos<BR/>Portugal, Faro, Faro",Artigo 259.º do Código dos Contratos Públicos,"","",,"",,412727,CONCURSO PÚBLICO PARA A CELEBRAÇÃO DE CONTRATOS PÚBLICOS DE APROVISIONAMENTO PARA AQUISIÇÃO DE MATERIAL CATETERES,FALSE
Material a aplicar ao abrigo do Contrato de Manutenção 2014,Ajuste Direto Regime Geral,Aquisição de bens móveis,"44423000-1, Artigos diversos","Centro Hospitalar do Algarve, E. P. E. (510745997)","BESAM PORTUGAL, LDA (505807971)","1.408,20 €",21-04-2014,27-03-2014,5 dias,"Portugal, Faro, Lagos<BR/>Portugal, Faro, Portimão<BR/>Portugal, Faro, Faro","Artigo 24.º, n.º 1, alínea e) do Código dos Contratos Públicos","","",,"",,Não aplicável.,Não aplicável.,FALSE
62184214 - Pinças Ligasure,Ajuste Direto Regime Geral,Aquisição de bens móveis,"33140000-3, Material médico de consumo","Centro Hospitalar do Algarve, E. P. E. (510745997)","COVIDIEN PORTUGAL - PRODUTOS  DE SAUDE, UNIPESSOAL, LDA. (503413410)","83.580,00 €",21-04-2014,04-04-2014,365 dias,"Portugal, Faro, Faro<BR/>Portugal, Faro, Portimão<BR/>Portugal, Faro, Lagos","Artigo 24.º, n.º 1, alínea e) do Código dos Contratos Públicos","","",,"",,Não aplicável.,Não aplicável.,FALSE
72097914 - Material Consumo Clinico - Máquinas Sutura Mecânica,Ajuste Direto Regime Geral,Aquisição de bens móveis,"33140000-3, Material médico de consumo","Centro Hospitalar do Algarve, E. P. E. (510745997)","COVIDIEN PORTUGAL - PRODUTOS  DE SAUDE, UNIPESSOAL, LDA. (503413410)","6.336,00 €",21-04-2014,03-03-2014,90 dias,"Portugal, Faro, Faro<BR/>Portugal, Faro, Portimão<BR/>Portugal, Faro, Lagos","Artigo 20.º, n.º 1, alínea a) do Código dos Contratos Públicos","","",,"",,Não aplicável.,Não aplicável.,FALSE
72097914 - Material Consumo Clinico - Máquinas Sutura Mecânica,Ajuste Direto Regime Geral,Aquisição de bens móveis,"33140000-3, Material médico de consumo","Centro Hospitalar do Algarve, E. P. E. (510745997)",JOHNSON & JOHNSON PROD.PROF. (500153370),"11.820,00 €",21-04-2014,03-03-2014,90 dias,"Portugal, Faro, Faro<BR/>Portugal, Faro, Lagos<BR/>Portugal, Faro, Portimão","Artigo 20.º, n.º 1, alínea a) do Código dos Contratos Públicos","","",,"",,Não aplicável.,Não aplicável.,FALSE
