Objeto do Contrato,Tipo de Procedimento,Tipo(s) de Contrato,CPVs,Entidade(s) Adjudicante(s),Entidade(s) Adjudicatária(s),Preço Contratual,Data de Publicação,Data de Celebração do Contrato,Prazo de Execução,Local de Execução,Fundamentação,Data de Fecho do Contrato,Preço Total Efetivo,Causas das Alterações ao Prazo,Causas das Alterações ao Preço,Estado,N.º registo do Acordo Quadro,Descrição do Acordo Quadro,Procedimento Centralizado
AQUISIÇÃO DE LENALIDOMIDA 10MG/25MG CAPS,Ajuste Direto Regime Geral,Aquisição de bens móveis,"33600000-6, Produtos farmacêuticos","Centro Hospitalar Tondela-Viseu, E. P. E. (509822940)","CELGENE, SOC. UNIPESSOAL, LDA (507791690)","141.462,16 €",08-09-2014,03-09-2014,1 dias,"Portugal, Viseu, Viseu","Artigo 24.º, n.º 1, alínea e) do Código dos Contratos Públicos",,,,,,Não aplicável.,Não aplicável.,FALSE
AQUISIÇÃO DE SERVIDOR DE PORTAS DE SÉRIE,Ajuste Direto Regime Geral,Aquisição de bens móveis,"30210000-4, Máquinas de processamento de dados (hardware)","Centro Hospitalar Tondela-Viseu, E. P. E. (509822940)",IZASA PORTUGAL-DISTR.TECNIC. (501086110),"5.626,97 €",04-09-2014,25-08-2014,1 dias,"Portugal, Viseu, Viseu","Artigo 20.º, n.º 1, alínea a) do Código dos Contratos Públicos",,,,,,Não aplicável.,Não aplicável.,FALSE
AQUISIÇÃO DE SOFOSBUVIR 400 MG COMP,Ajuste Direto Regime Geral,Aquisição de bens móveis,"33600000-6, Produtos farmacêuticos","Centro Hospitalar Tondela-Viseu, E. P. E. (509822940)","GILEAD SCIENCES, LDA (503604704)","195.239,52 €",04-09-2014,03-09-2014,1 dias,"Portugal, Viseu, Viseu","Artigo 24.º, n.º 1, alínea e) do Código dos Contratos Públicos",,,,,,Não aplicável.,Não aplicável.,FALSE
AQUISIÇÃO DE CAIXA INSTRUMENTAL DE LAPAROSCOPIA PARA CIRURGIA PEDIATRICA,Ajuste Direto Regime Geral,Aquisição de bens móveis,"33162000-3, Aparelhos e instrumentos para blocos operatórios","Centro Hospitalar Tondela-Viseu, E. P. E. (509822940)","B.BRAUN MEDICAL, LDA (501506543)","16.072,00 €",01-09-2014,22-07-2014,1 dias,"Portugal, Viseu, Viseu","Artigo 20.º, n.º 1, alínea a) do Código dos Contratos Públicos",,,,,,Não aplicável.,Não aplicável.,FALSE
