Objeto do Contrato,Tipo de Procedimento,Tipo(s) de Contrato,CPVs,Entidade(s) Adjudicante(s),Entidade(s) Adjudicatária(s),Preço Contratual,Data de Publicação,Data de Celebração do Contrato,Prazo de Execução,Local de Execução,Fundamentação,Data de Fecho do Contrato,Preço Total Efetivo,Causas das Alterações ao Prazo,Causas das Alterações ao Preço,Estado,N.º registo do Acordo Quadro,Descrição do Acordo Quadro,Procedimento Centralizado
4-2.2055/15 - Aquisição de Agulhas para Neuro-Estimulação,Ajuste Direto Regime Geral,Aquisição de bens móveis,"33140000-3, Material médico de consumo","Centro Hospitalar de Lisboa Central, E.P.E. (CHLC) (508080142)","Speculum, Artigos Médicos SA (502996323)","1.022,00 €",01-12-2015,30-11-2015,30 dias,"Portugal, Lisboa, Lisboa","Artigo 20.º, n.º 1, alínea a) do Código dos Contratos Públicos",,,,,,Não aplicável.,Não aplicável.,FALSE
"4-2.0897/15 - Diverso material de laboratório, lotes desertos e não adjudicados do CP 12001415",Ajuste Direto Regime Geral,Aquisição de bens móveis,"33100000-1, Equipamento médico","Centro Hospitalar de Lisboa Central, E.P.E. (CHLC) (508080142)","Speculum - Artigos Médicos, SA (502996323)","77,00 €",01-12-2015,01-12-2015,30 dias,"Portugal, Lisboa, Lisboa","Artigo 20.º, n.º 1, alínea a) do Código dos Contratos Públicos",,,,,,Não aplicável.,Não aplicável.,FALSE
"4-2.0897/15 - Diverso material de laboratório, lotes desertos e não adjudicados do CP 12001415",Ajuste Direto Regime Geral,Aquisição de bens móveis,"33100000-1, Equipamento médico","Centro Hospitalar de Lisboa Central, E.P.E. (CHLC) (508080142)","CSPSaude - Centro de Serviços Partilhados, SA (508440246)","168,00 €",01-12-2015,01-12-2015,30 dias,"Portugal, Lisboa, Lisboa","Artigo 20.º, n.º 1, alínea a) do Código dos Contratos Públicos",,,,,,Não aplicável.,Não aplicável.,FALSE
"4-2.0897/15 - Diverso material de laboratório, lotes desertos e não adjudicados do CP 12001415",Ajuste Direto Regime Geral,Aquisição de bens móveis,"33100000-1, Equipamento médico","Centro Hospitalar de Lisboa Central, E.P.E. (CHLC) (508080142)","Normax - Fábrica de Vidros Científicos, Lda (500203130)","2.745,75 €",01-12-2015,01-12-2015,30 dias,"Portugal, Lisboa, Lisboa","Artigo 20.º, n.º 1, alínea a) do Código dos Contratos Públicos",,,,,,Não aplicável.,Não aplicável.,FALSE
"4-2.0897/15 - Diverso material de laboratório, lotes desertos e não adjudicados do CP 12001415",Ajuste Direto Regime Geral,Aquisição de bens móveis,"33100000-1, Equipamento médico","Centro Hospitalar de Lisboa Central, E.P.E. (CHLC) (508080142)","CSPsaude - Centro de Serviços Partilhados, SA (508440246)","86,85 €",01-12-2015,01-12-2015,30 dias,"Portugal, Lisboa, Lisboa","Artigo 20.º, n.º 1, alínea a) do Código dos Contratos Públicos",,,,,,Não aplicável.,Não aplicável.,FALSE
STENTS VASCULARES AUTOEXPANSIVEIS,Concurso público,Aquisição de bens móveis,"33140000-3, Material médico de consumo","Centro Hospitalar de Lisboa Central, E. P. E. (508080142)",Cardinal (513620834),"15.900,00 €",01-12-2015,16-11-2015,50 dias,"Portugal, Lisboa, Lisboa","Artigo 20.º, n.º 1, alínea b) do Código dos Contratos Públicos",,,,,,Não aplicável.,Não aplicável.,FALSE
"Aquisição de """"tiras de e-teste anidulafungina"""" - 41524715",Ajuste Direto Regime Geral,Aquisição de bens móveis,"33696500-0, Reagentes de laboratório","Centro Hospitalar de Lisboa Central, E.P.E. (CHLC) (508080142)",Biomérieux Portugal (501524177),"170,00 €",30-11-2015,20-11-2015,41 dias,"Portugal, Lisboa, Lisboa","Artigo 20.º, n.º 1, alínea a) do Código dos Contratos Públicos",,,,,,Não aplicável.,Não aplicável.,FALSE
Stent circulação intracraneana para patologia não oclusiva baixo perfil com microcateter,Ajuste Direto Regime Geral,Aquisição de bens móveis,"33000000-0, Equipamento médico, medicamentos e produtos para cuidados pessoais","Centro Hospitalar de Lisboa Central, E. P. E. (508080142)",Cateter (502914319),"29.800,00 €",30-11-2015,24-11-2015,5 dias,"Portugal, Lisboa, Lisboa","Artigo 20.º, n.º 1, alínea a) do Código dos Contratos Públicos",,,,,,Não aplicável.,Não aplicável.,FALSE
4-2.1904/15 - Endoprotese vascular até 9mm para 2015,Ajuste Direto Regime Geral,Aquisição de bens móveis,"33100000-1, Equipamento médico","Centro Hospitalar de Lisboa Central, E.P.E. (CHLC) (508080142)","Medicinália Cormédica - Comercialização de Produtos Médico Hospitalares, Lda (500684324)","28.188,00 €",30-11-2015,19-11-2015,43 dias,"Portugal, Lisboa, Lisboa","Artigo 20.º, n.º 1, alínea a) do Código dos Contratos Públicos",,,,,,Não aplicável.,Não aplicável.,FALSE
4-2.2101/15 - Aquisição de electrodos,Ajuste Direto Regime Geral,Aquisição de bens móveis,"33140000-3, Material médico de consumo","Centro Hospitalar de Lisboa Central, E.P.E. (CHLC) (508080142)","3M Portugal, Lda (500193940)","5.475,00 €",27-11-2015,26-11-2015,35 dias,"Portugal, Lisboa, Lisboa","Artigo 20.º, n.º 1, alínea a) do Código dos Contratos Públicos",,,,,,Não aplicável.,Não aplicável.,FALSE
colistimetao de sodio 1000000 U.I po sol. inal neb fr,Ajuste Direto Regime Geral,Aquisição de bens móveis,"33000000-0, Equipamento médico, medicamentos e produtos para cuidados pessoais","Centro Hospitalar de Lisboa Central, E. P. E. (508080142)",Zambon Produtos Farmaceuticos Lda (502155930),"0,00 €",27-11-2015,05-10-2015,150 dias,"Portugal, Lisboa, Lisboa","Artigo 24.º, n.º 1, alínea e) do Código dos Contratos Públicos",,,,,,1813438,410564/15 colistimetato de sodio 1000000 U.I po sol inal neb. fr,FALSE
Aquisição de Glicerofosfato de sodio 216mg/ml sol inj fr 20ml IV,Ao abrigo de acordo-quadro (art.º 259.º),Aquisição de bens móveis,"33000000-0, Equipamento médico, medicamentos e produtos para cuidados pessoais","Centro Hospitalar de Lisboa Central, E. P. E. (508080142)","Labesfal Laboratorios Almiro, Sa (501169580)","2.746,76 €",26-11-2015,26-11-2015,35 dias,"Portugal, Lisboa, Lisboa",Artigo 259.º do Código dos Contratos Públicos,,,,,,1331181,Acordo Quadro para fornecimento de corretivos da volémia e outras soluções estéreis às Instituições e Serviços do Serviço Nacional de Saúde,FALSE
Aquisição de Fluconazol 2mg/ml sol inj fr 50ml IV,Ao abrigo de acordo-quadro (art.º 259.º),Aquisição de bens móveis,"33000000-0, Equipamento médico, medicamentos e produtos para cuidados pessoais","Centro Hospitalar de Lisboa Central, E. P. E. (508080142)","Fresenius Kabi Pharma Portugal, Lda (504293753)","1.156,50 €",26-11-2015,26-11-2015,35 dias,"Portugal, Lisboa, Lisboa",Artigo 259.º do Código dos Contratos Públicos,,,,,,1422736,CP 2015/41 - ACORDO QUADRO PARA FORNECIMENTO DE MEDICAMENTOS ANTI-INFECIOSOS: ANTIVÍRICOS E ANTIFÚNGICOS ÀS INSTITUIÇÕES E SERVIÇOS DO SERVIÇO NACIONAL DE SAÚDE,FALSE
colistimetato de sodio 1000000 U.I  po sol inal.neb. fr,Ajuste Direto Regime Geral,Aquisição de bens móveis,"30000000-9, Máquinas, equipamento e material de escritório e de informática, excepto mobiliário e pacotes de programas (software)","Centro Hospitalar de Lisboa Central, E. P. E. (508080142)",Zambon Produtos Farmaceuticos Lda (502155930),"0,00 €",26-11-2015,08-06-2015,180 dias,"Portugal, Lisboa, Lisboa","Artigo 24.º, n.º 1, alínea e) do Código dos Contratos Públicos",,,,,,1813408,410449/15 colistimetato de sodio 1000000 U.I  po sol inal.neb. fr,FALSE
Aquisição de Ar medicinal gás inal cilind gás 5 l inalatória,Ao abrigo de acordo-quadro (art.º 259.º),Aquisição de bens móveis,"33000000-0, Equipamento médico, medicamentos e produtos para cuidados pessoais","Centro Hospitalar de Lisboa Central, E. P. E. (508080142)","Gasin II Gases Industriais Unipessoal, Lda (510183751)","131,82 €",26-11-2015,26-11-2015,35 dias,"Portugal, Lisboa, Lisboa",Artigo 259.º do Código dos Contratos Públicos,,,,,,1306526,ACORDO QUADRO PARA FORNECIMENTO DE GASES MEDICINAIS CONSIDERADOS DISPOSITIVOS MÉDICOS ÀS INSTITUIÇÕES E SERVIÇOS DO SERVIÇO NACIONAL DE SAÚDE,FALSE
Aquisição de Daclatasvir 60 mg comp,Ajuste Direto Regime Geral,Aquisição de bens móveis,"33000000-0, Equipamento médico, medicamentos e produtos para cuidados pessoais","Centro Hospitalar de Lisboa Central, E. P. E. (508080142)","Bristol-Mmyers squibb farmacêutica Portuguesa, Sa. (500048193)","124.156,24 €",26-11-2015,26-11-2015,180 dias,"Portugal, Lisboa, Lisboa","Artigo 24.º, n.º 1, alínea e) do Código dos Contratos Públicos",,,,,,Não aplicável.,Não aplicável.,FALSE
Aquisiçao de gefitinib 250mg comp,Ao abrigo de acordo-quadro (art.º 259.º),Aquisição de bens móveis,"33000000-0, Equipamento médico, medicamentos e produtos para cuidados pessoais","Centro Hospitalar de Lisboa Central, E. P. E. (508080142)",Astrazeneca Produtos Farmaceuticos  Lda (502942240),"18.797,22 €",26-11-2015,30-10-2015,70 dias,"Portugal, Lisboa, Lisboa",Artigo 259.º do Código dos Contratos Públicos,,,,,,1224054,"CONCURSO PÚBLICO PARA A CELEBRAÇÃO DE CONTRATOS PÚBLICOS DE APROVISIONAMENTO PARA A ÁREA DA SAÚDE, COM VISTA AO FORNECIMENTO DE MEDICAMENTOS DO FORO ONCOLÓGICO II, ÀS INSTITUIÇÕES E SERVIÇOS DO SERVIÇO NACIONAL DE SAÚDE  ",FALSE
Altaplase 10mg po sol. inj. fr iv,Ao abrigo de acordo-quadro (art.º 259.º),Aquisição de bens móveis,"33000000-0, Equipamento médico, medicamentos e produtos para cuidados pessoais","Centro Hospitalar de Lisboa Central, E. P. E. (508080142)",Unilfarma Uniao Internacional Laboratorios Farmaceuticos  Lda (500293023),"4.794,00 €",26-11-2015,04-11-2015,60 dias,"Portugal, Lisboa, Lisboa",Artigo 259.º do Código dos Contratos Públicos,,,,,,1210107,"CONCURSO PÚBLICO PARA A CELEBRAÇÃO DE CONTRATOS PÚBLICOS DE APROVISIONAMENTO PARA A ÁREA DA SAÚDE, COM VISTA AO FORNECIMENTO DE MEDICAMENTOS DO GRUPO 4: SANGUE, ÀS INSTITUIÇÕES E SERVIÇOS DO SERVIÇO NACIONAL DE SAÚDE",FALSE
Macitentano 10 mg comp,Ajuste Direto Regime Geral,Aquisição de bens móveis,"33000000-0, Equipamento médico, medicamentos e produtos para cuidados pessoais","Centro Hospitalar de Lisboa Central, E. P. E. (508080142)",Actelion Pharmaceuticals Portugal  (507336488),"0,00 €",26-11-2015,20-11-2015,50 dias,"Portugal, Lisboa, Lisboa","Artigo 24.º, n.º 1, alínea e) do Código dos Contratos Públicos",,,,,,1813183,4100657/15 aquisiçao Macitentano 10mg comp,FALSE
Lactitol 10g po sol. oral saq.,Ao abrigo de acordo-quadro (art.º 259.º),Aquisição de bens móveis,"33000000-0, Equipamento médico, medicamentos e produtos para cuidados pessoais","Centro Hospitalar de Lisboa Central, E. P. E. (508080142)",Angelini Farmaceutica Lda (500583650),"535,50 €",26-11-2015,20-11-2015,50 dias,"Portugal, Lisboa, Lisboa",Artigo 259.º do Código dos Contratos Públicos,,,,,,520788,CONCURSO PUBLICO PARA A CELEBRAÇÃO DE CONTRATOS PUBLICOS DE APROVISIONAMENTO PARA A AREA DA SAUDE  COM VISTA AO FORNECIMENTO DE MEDICAMENTOS PARA O APARELHO DIGESTIVO  AS INSITUIÇÕES DO SERVIÇO NACIONAL DE SAÚDE,FALSE
"FIOS, CATETER VEN.CENTRAL E AGULHA DE ANESTESIA",Ajuste Direto Regime Geral,Aquisição de bens móveis,"33140000-3, Material médico de consumo","Centro Hospitalar de Lisboa Central, E. P. E. (508080142)",B. Braun Medical (501506543),"8.497,68 €",26-11-2015,12-11-2015,90 dias,"Portugal, Lisboa, Lisboa","Artigo 20.º, n.º 1, alínea a) do Código dos Contratos Públicos",,,,,,Não aplicável.,Não aplicável.,FALSE
4-2.2097/15 - Aquisição de saco colector de urina e colher resp. uterina,Ajuste Direto Regime Geral,Aquisição de bens móveis,"33140000-3, Material médico de consumo","Centro Hospitalar de Lisboa Central, E.P.E. (CHLC) (508080142)",Aviquimica (500039720),"16.536,00 €",26-11-2015,18-11-2015,42 dias,"Portugal, Lisboa, Lisboa","Artigo 20.º, n.º 1, alínea a) do Código dos Contratos Públicos",,,,,,Não aplicável.,Não aplicável.,FALSE
510954/15 - Aquisição de Carboplatina 10 mg/ml sol. Inj. fr. 45 ml IV,Ao abrigo de acordo-quadro (art.º 259.º),Aquisição de bens móveis,"33600000-6, Produtos farmacêuticos","Centro Hospitalar de Lisboa Central, E. P. E. (508080142)","Accord Healthcare Unipessoal, Lda. (508622263)","2.244,00 €",25-11-2015,25-11-2015,60 dias,"Portugal, Lisboa, Lisboa",Artigo 259.º do Código dos Contratos Públicos,,,,,,345900,CONCURSO PÚBLICO PARA A CELEBRAÇÃO DE CONTRATOS PÚBLICOS DE APROVISIONAMENTO PARA AQUISIÇÃO MEDICAMENTOS DO FORO ONCOLÓGICO,FALSE
Aquisição de seringas para bombas de perfusão,Concurso público,Aquisição de bens móveis,"33140000-3, Material médico de consumo","Centro Hospitalar de Lisboa Central, E. P. E. (508080142)","B. Braun Medical, Lda. (501506543)","16.640,00 €",25-11-2015,06-11-2015,55 dias,"Portugal, Lisboa, Lisboa","Artigo 20.º, n.º 1, alínea b) do Código dos Contratos Públicos",,,,,,Não aplicável.,Não aplicável.,FALSE
1-2.0097/15 - Sistema de Próteses Aórticas,Concurso público,Aquisição de bens móveis,"33140000-3, Material médico de consumo","Centro Hospitalar de Lisboa Central, E. P. E. (508080142)",Medtronic Portugal (504223933),"165.000,00 €",25-11-2015,23-11-2015,36 dias,"Portugal, Lisboa, Lisboa",Artigo 155.º do Código dos Contratos Públicos,,,,,,Não aplicável.,Não aplicável.,FALSE
510970/15 - Aquisição de Tacrolímus 5 mg cáps.,Ao abrigo de acordo-quadro (art.º 259.º),Aquisição de bens móveis,"33600000-6, Produtos farmacêuticos","Centro Hospitalar de Lisboa Central, E. P. E. (508080142)","Astellas Farma, Lda. (502540249)","1.200,00 €",25-11-2015,25-11-2015,60 dias,"Portugal, Lisboa, Lisboa",Artigo 259.º do Código dos Contratos Públicos,,,,,,345900,CONCURSO PÚBLICO PARA A CELEBRAÇÃO DE CONTRATOS PÚBLICOS DE APROVISIONAMENTO PARA AQUISIÇÃO MEDICAMENTOS DO FORO ONCOLÓGICO,FALSE
510942/15 - Aquisição de Vinorelbina 10 mg/ml sol. inj. fr. 5 ml IV,Ao abrigo de acordo-quadro (art.º 259.º),Aquisição de bens móveis,"33600000-6, Produtos farmacêuticos","Centro Hospitalar de Lisboa Central, E. P. E. (508080142)",Medac Sucursal em Portugal (980369959),"632,00 €",25-11-2015,25-11-2015,60 dias,"Portugal, Lisboa, Lisboa",Artigo 259.º do Código dos Contratos Públicos,,,,,,345900,CONCURSO PÚBLICO PARA A CELEBRAÇÃO DE CONTRATOS PÚBLICOS DE APROVISIONAMENTO PARA AQUISIÇÃO MEDICAMENTOS DO FORO ONCOLÓGICO,FALSE
Toner lexmark,Ajuste Direto Regime Geral,Aquisição de bens móveis,"30125100-2, Cartuchos de tinta (toner)","Centro Hospitalar de Lisboa Central, E. P. E. (508080142)",Basedois-Informáticae Telecomunicações (501333401),"23.580,00 €",25-11-2015,30-10-2015,60 dias,"Portugal, Lisboa, Lisboa","Artigo 20.º, n.º 1, alínea a) do Código dos Contratos Públicos",,,,,,Não aplicável.,Não aplicável.,FALSE
toner para impressora pro 400/M e 401 DN,Ajuste Direto Regime Geral,Aquisição de bens móveis,"30125110-5, Tóner para impressoras laser e aparelhos de fax","Centro Hospitalar de Lisboa Central, E. P. E. (508080142)","Olmar-Artigos de Papelaria, Lda (508831989)","11.305,00 €",25-11-2015,11-11-2015,49 dias,"Portugal, Lisboa, Lisboa","Artigo 20.º, n.º 1, alínea a) do Código dos Contratos Públicos",,,,,,Não aplicável.,Não aplicável.,FALSE
510976/15 - Aquisição de Silibinina 350 mg pó sol. inj. fr. IV,Ao abrigo de acordo-quadro (art.º 259.º),Aquisição de bens móveis,"33600000-6, Produtos farmacêuticos","Centro Hospitalar de Lisboa Central, E. P. E. (508080142)","Overpharma - Produtos Médicos e Farmacêuticos, Lda. (505792362)","13.132,00 €",24-11-2015,24-11-2015,60 dias,"Portugal, Lisboa, Lisboa",Artigo 259.º do Código dos Contratos Públicos,,,,,,1338581,"Acordo quadro para fornecimento de Medicação antialérgica, medicamentos usados no tratamento de intoxicações, vitaminas e sais minerais e grupo 20.9 - outros produtos às instituições e serviços do serviço nacional de saúde",FALSE
Aquisição de Compresssa Gaze,Ajuste Direto Regime Geral,Aquisição de bens móveis,"33140000-3, Material médico de consumo","Centro Hospitalar de Lisboa Central, E.P.E. (CHLC) (508080142)",Bastos Viegas (500042772),"11.661,00 €",24-11-2015,18-11-2015,43 dias,"Portugal, Lisboa, Lisboa","Artigo 20.º, n.º 1, alínea a) do Código dos Contratos Públicos",,,,,,Não aplicável.,Não aplicável.,FALSE
Aquisição de Raltegravir 400mg comp,Ao abrigo de acordo-quadro (art.º 259.º),Aquisição de bens móveis,"33000000-0, Equipamento médico, medicamentos e produtos para cuidados pessoais","Centro Hospitalar de Lisboa Central, E. P. E. (508080142)","Merck Sharp & Dohme, Lda (500191360)","558.000,00 €",23-11-2015,23-11-2015,51 dias,"Portugal, Lisboa, Lisboa",Artigo 259.º do Código dos Contratos Públicos,,,,,,455180,"CONCURSO PÚBLICO PARA A CELEBRAÇÃO DE CONTRATOS PÚBLICOS DE APROVISIONAMENTO PARA A ÁREA DA SAÚDE, COM VISTA AO FORNECIMENTO DE MEDICAMENTOS ANTI-INFECIOSOS: ANTIVÍRICOS E ANTIFÚNGICOS, ÀS INSTITUIÇÕES E SERVIÇOS DO SERVIÇO NACIONAL DE SAÚDE  ",FALSE
AQUISIÇÃO DE LEDIPASVIR 90 MG + SOFOSBUVIR 400 MG COMP. E SOFOSBUVIR 400 MG COMP,Ajuste Direto Regime Geral,Aquisição de bens móveis,"33000000-0, Equipamento médico, medicamentos e produtos para cuidados pessoais","Centro Hospitalar de Lisboa Central, E. P. E. (508080142)","Gilead Sciences, lda (503604704)","2.084.979,87 €",23-11-2015,08-10-2015,85 dias,"Portugal, Lisboa, Lisboa","Artigo 24.º, n.º 1, alínea e) do Código dos Contratos Públicos",,,,,,Não aplicável.,Não aplicável.,FALSE
AQUISIÇÃO DE LEDIPASVIR 90 MG + SOFOSBUVIR 400 MG COMP. E SOFOSBUVIR 400 MG COMP,Ajuste Direto Regime Geral,Aquisição de bens móveis,"33000000-0, Equipamento médico, medicamentos e produtos para cuidados pessoais","Centro Hospitalar de Lisboa Central, E. P. E. (508080142)",Gilead Sciences Lda (503604704),"1.427.692,88 €",23-11-2015,17-09-2015,106 dias,"Portugal, Lisboa, Lisboa","Artigo 24.º, n.º 1, alínea e) do Código dos Contratos Públicos",,,,,,Não aplicável.,Não aplicável.,FALSE
Fios guia para angioplastia,Ajuste Direto Regime Geral,Aquisição de bens móveis,"33000000-0, Equipamento médico, medicamentos e produtos para cuidados pessoais","Centro Hospitalar de Lisboa Central, E. P. E. (508080142)",World Medica (B82612599),"6.400,00 €",23-11-2015,06-10-2015,86 dias,"Portugal, Lisboa, Lisboa","Artigo 20.º, n.º 1, alínea a) do Código dos Contratos Públicos",,,,,,Não aplicável.,Não aplicável.,FALSE
