Objeto do Contrato,Tipo de Procedimento,Tipo(s) de Contrato,CPVs,Entidade(s) Adjudicante(s),Entidade(s) Adjudicatária(s),Preço Contratual,Data de Publicação,Data de Celebração do Contrato,Prazo de Execução,Local de Execução,Fundamentação,Data de Fecho do Contrato,Preço Total Efetivo,Causas das Alterações ao Prazo,Causas das Alterações ao Preço,Estado,N.º registo do Acordo Quadro,Descrição do Acordo Quadro,Procedimento Centralizado
"Equipamento de Urologia para o Centro Hospitalar do Tâmega e Sousa, EPE",Ajuste Direto Regime Geral,Aquisição de bens móveis,"33100000-1, Equipamento médico","Centro Hospitalar do Tâmega e Sousa, E.P.E. (508318262)","OLYMPUS IBERIA, S.A.U. - SUCURSAL EM PORTUGAL (980474710)","32.984,11 €",24-01-2017,16-01-2017,30 dias,"Portugal, Porto, Amarante<BR/>Portugal, Porto, Penafiel","Artigo 20.º, n.º 1, alínea a) do Código dos Contratos Públicos",,,,,,Não aplicável.,Não aplicável.,FALSE
Serviços de Segurança e Vigilância,Ajuste Direto Regime Geral,Aquisição de serviços,"79714000-2, Serviços de vigilância","Centro Hospitalar do Tâmega e Sousa, E.P.E. (508318262)","RONSEGUR - RONDAS E SEGURANÇA, LDA (507011724)","61.580,00 €",24-01-2017,01-01-2017,59 dias,"Portugal, Porto, Amarante<BR/>Portugal, Porto, Penafiel","Artigo 20.º, n.º 1, alínea a) do Código dos Contratos Públicos",,,,,,Não aplicável.,Não aplicável.,FALSE
"Aquisição de Serviços de Suporte para Infra-estrutura do DataCenter no Hospital Padre Américo do Centro Hospitalar Tâmega e Sousa, E.P.E.",Ajuste Direto Regime Geral,Aquisição de serviços,"72600000-6, Serviços de consultoria e assistência informáticas","Centro Hospitalar do Tâmega e Sousa, E.P.E. (508318262)","GONKSYS, S.A. (510874169)","49.240,08 €",23-01-2017,01-01-2017,365 dias,"Portugal, Porto, Penafiel<BR/>Portugal, Porto, Amarante","Artigo 20.º, n.º 1, alínea a) do Código dos Contratos Públicos",,,,,,Não aplicável.,Não aplicável.,FALSE
Prestação de Serviços de Manutenção do Sistema IntelliSpace Portal,Ajuste Direto Regime Geral,Aquisição de serviços,"72600000-6, Serviços de consultoria e assistência informáticas","Centro Hospitalar do Tâmega e Sousa, E.P.E. (508318262)","PHILIPS PORTUGUESA, S.A. (500216843)","9.183,00 €",23-01-2017,06-01-2017,359 dias,"Portugal, Porto, Penafiel<BR/>Portugal, Porto, Amarante","Artigo 20.º, n.º 1, alínea a) do Código dos Contratos Públicos",,,,,,Não aplicável.,Não aplicável.,FALSE
Medicamentos Antivíricos e Antifúngicos para o ano de 2017,Ao abrigo de acordo-quadro (art.º 259.º),Aquisição de bens móveis,"33600000-6, Produtos farmacêuticos","Centro Hospitalar do Tâmega e Sousa, E. P. E. (508318262)","ROCHE FARMACÊUTICA QUÍMICA, LDA (500233810)","4.797,24 €",23-01-2017,01-01-2017,365 dias,"Portugal, Porto, Amarante<BR/>Portugal, Porto, Penafiel",Artigo 259.º do Código dos Contratos Públicos,,,,,,1422736,CP 2015/41 - ACORDO QUADRO PARA FORNECIMENTO DE MEDICAMENTOS ANTI-INFECIOSOS: ANTIVÍRICOS E ANTIFÚNGICOS ÀS INSTITUIÇÕES E SERVIÇOS DO SERVIÇO NACIONAL DE SAÚDE,FALSE
Medicamentos Antivíricos e Antifúngicos para o ano de 2017,Ao abrigo de acordo-quadro (art.º 259.º),Aquisição de bens móveis,"33600000-6, Produtos farmacêuticos","Centro Hospitalar do Tâmega e Sousa, E. P. E. (508318262)"," LABORATÓRIOS PFIZER, LDA (500162166)","51.134,68 €",23-01-2017,01-01-2017,365 dias,"Portugal, Porto, Amarante<BR/>Portugal, Porto, Penafiel",Artigo 259.º do Código dos Contratos Públicos,,,,,,1422736,CP 2015/41 - ACORDO QUADRO PARA FORNECIMENTO DE MEDICAMENTOS ANTI-INFECIOSOS: ANTIVÍRICOS E ANTIFÚNGICOS ÀS INSTITUIÇÕES E SERVIÇOS DO SERVIÇO NACIONAL DE SAÚDE,FALSE
Medicamentos Antivíricos e Antifúngicos para o ano de 2017,Ao abrigo de acordo-quadro (art.º 259.º),Aquisição de bens móveis,"33600000-6, Produtos farmacêuticos","Centro Hospitalar do Tâmega e Sousa, E. P. E. (508318262)","MERCK SHARP & DOHME, LDA (500191360)","8.830,40 €",23-01-2017,01-01-2017,365 dias,"Portugal, Porto, Penafiel<BR/>Portugal, Porto, Amarante",Artigo 259.º do Código dos Contratos Públicos,,,,,,1422736,CP 2015/41 - ACORDO QUADRO PARA FORNECIMENTO DE MEDICAMENTOS ANTI-INFECIOSOS: ANTIVÍRICOS E ANTIFÚNGICOS ÀS INSTITUIÇÕES E SERVIÇOS DO SERVIÇO NACIONAL DE SAÚDE,FALSE
Medicamentos Antivíricos e Antifúngicos para o ano de 2017,Ao abrigo de acordo-quadro (art.º 259.º),Aquisição de bens móveis,"33600000-6, Produtos farmacêuticos","Centro Hospitalar do Tâmega e Sousa, E. P. E. (508318262)","GLAXOSMITHKLINE - PRODUTOS FARMACÊUTICOS, LDA (500139962)","68,54 €",23-01-2017,01-01-2017,365 dias,"Portugal, Porto, Amarante<BR/>Portugal, Porto, Penafiel",Artigo 259.º do Código dos Contratos Públicos,,,,,,1422736,CP 2015/41 - ACORDO QUADRO PARA FORNECIMENTO DE MEDICAMENTOS ANTI-INFECIOSOS: ANTIVÍRICOS E ANTIFÚNGICOS ÀS INSTITUIÇÕES E SERVIÇOS DO SERVIÇO NACIONAL DE SAÚDE,FALSE
Medicamentos Antivíricos e Antifúngicos para o ano de 2017,Ao abrigo de acordo-quadro (art.º 259.º),Aquisição de bens móveis,"33600000-6, Produtos farmacêuticos","Centro Hospitalar do Tâmega e Sousa, E. P. E. (508318262)","GILEAD SCIENCES, LDA (503604704)","45.521,35 €",23-01-2017,01-01-2017,365 dias,"Portugal, Porto, Penafiel<BR/>Portugal, Porto, Amarante",Artigo 259.º do Código dos Contratos Públicos,,,,,,1422736,CP 2015/41 - ACORDO QUADRO PARA FORNECIMENTO DE MEDICAMENTOS ANTI-INFECIOSOS: ANTIVÍRICOS E ANTIFÚNGICOS ÀS INSTITUIÇÕES E SERVIÇOS DO SERVIÇO NACIONAL DE SAÚDE,FALSE
Medicamentos Antivíricos e Antifúngicos para o ano de 2017,Ao abrigo de acordo-quadro (art.º 259.º),Aquisição de bens móveis,"33600000-6, Produtos farmacêuticos","Centro Hospitalar do Tâmega e Sousa, E. P. E. (508318262)","GENERIS - FARMACÊUTICA, S.A. (508107997)","44,16 €",23-01-2017,01-01-2017,365 dias,"Portugal, Porto, Penafiel<BR/>Portugal, Porto, Amarante",Artigo 259.º do Código dos Contratos Públicos,,,,,,1422736,CP 2015/41 - ACORDO QUADRO PARA FORNECIMENTO DE MEDICAMENTOS ANTI-INFECIOSOS: ANTIVÍRICOS E ANTIFÚNGICOS ÀS INSTITUIÇÕES E SERVIÇOS DO SERVIÇO NACIONAL DE SAÚDE,FALSE
Medicamentos Antivíricos e Antifúngicos para o ano de 2017,Ao abrigo de acordo-quadro (art.º 259.º),Aquisição de bens móveis,"33600000-6, Produtos farmacêuticos","Centro Hospitalar do Tâmega e Sousa, E. P. E. (508318262)","FRESENIUS - MEDICAL CARE PORTUGAL, S.A. (503070220)","3.776,50 €",23-01-2017,01-01-2017,365 dias,"Portugal, Porto, Penafiel<BR/>Portugal, Porto, Amarante",Artigo 259.º do Código dos Contratos Públicos,,,,,,1422736,CP 2015/41 - ACORDO QUADRO PARA FORNECIMENTO DE MEDICAMENTOS ANTI-INFECIOSOS: ANTIVÍRICOS E ANTIFÚNGICOS ÀS INSTITUIÇÕES E SERVIÇOS DO SERVIÇO NACIONAL DE SAÚDE,FALSE
Medicamentos Antivíricos e Antifúngicos para o ano de 2017,Ao abrigo de acordo-quadro (art.º 259.º),Aquisição de bens móveis,"33600000-6, Produtos farmacêuticos","Centro Hospitalar do Tâmega e Sousa, E. P. E. (508318262)","FARMOZ - SOCIEDADE TÉCNICO MEDICINAL, S.A. (501505334)","63,00 €",23-01-2017,01-01-2017,365 dias,"Portugal, Porto, Penafiel<BR/>Portugal, Porto, Amarante",Artigo 259.º do Código dos Contratos Públicos,,,,,,1422736,CP 2015/41 - ACORDO QUADRO PARA FORNECIMENTO DE MEDICAMENTOS ANTI-INFECIOSOS: ANTIVÍRICOS E ANTIFÚNGICOS ÀS INSTITUIÇÕES E SERVIÇOS DO SERVIÇO NACIONAL DE SAÚDE,FALSE
Medicamentos Antivíricos e Antifúngicos para o ano de 2017,Ao abrigo de acordo-quadro (art.º 259.º),Aquisição de bens móveis,"33600000-6, Produtos farmacêuticos","Centro Hospitalar do Tâmega e Sousa, E. P. E. (508318262)","BRISTOL - MYERS SQUIBB FARMACÊUTICA PORTUGUESA, S.A. (500048193)","691,60 €",23-01-2017,01-01-2017,365 dias,"Portugal, Porto, Penafiel<BR/>Portugal, Porto, Amarante",Artigo 259.º do Código dos Contratos Públicos,,,,,,1422736,CP 2015/41 - ACORDO QUADRO PARA FORNECIMENTO DE MEDICAMENTOS ANTI-INFECIOSOS: ANTIVÍRICOS E ANTIFÚNGICOS ÀS INSTITUIÇÕES E SERVIÇOS DO SERVIÇO NACIONAL DE SAÚDE,FALSE
Medicamentos Antivíricos e Antifúngicos para o ano de 2017,Ao abrigo de acordo-quadro (art.º 259.º),Aquisição de bens móveis,"33600000-6, Produtos farmacêuticos","Centro Hospitalar do Tâmega e Sousa, E. P. E. (508318262)","AUROVITAS, UNIPESSOAL, LDA (513053239)","468,79 €",23-01-2017,01-01-2017,365 dias,"Portugal, Porto, Amarante<BR/>Portugal, Porto, Penafiel",Artigo 259.º do Código dos Contratos Públicos,,,,,,1422736,CP 2015/41 - ACORDO QUADRO PARA FORNECIMENTO DE MEDICAMENTOS ANTI-INFECIOSOS: ANTIVÍRICOS E ANTIFÚNGICOS ÀS INSTITUIÇÕES E SERVIÇOS DO SERVIÇO NACIONAL DE SAÚDE,FALSE
Medicamentos Antivíricos e Antifúngicos para o ano de 2017,Ao abrigo de acordo-quadro (art.º 259.º),Aquisição de bens móveis,"33600000-6, Produtos farmacêuticos","Centro Hospitalar do Tâmega e Sousa, E. P. E. (508318262)","AUROBINDO PHARMA (PORTUGAL), UNIPESSOAL, LDA (508527465)","1.271,09 €",23-01-2017,01-01-2017,365 dias,"Portugal, Porto, Penafiel<BR/>Portugal, Porto, Amarante",Artigo 259.º do Código dos Contratos Públicos,,,,,,1422736,CP 2015/41 - ACORDO QUADRO PARA FORNECIMENTO DE MEDICAMENTOS ANTI-INFECIOSOS: ANTIVÍRICOS E ANTIFÚNGICOS ÀS INSTITUIÇÕES E SERVIÇOS DO SERVIÇO NACIONAL DE SAÚDE,FALSE
Medicamentos Antivíricos e Antifúngicos para o ano de 2017,Ao abrigo de acordo-quadro (art.º 259.º),Aquisição de bens móveis,"33600000-6, Produtos farmacêuticos","Centro Hospitalar do Tâmega e Sousa, E. P. E. (508318262)","ACCORD HEALTHCARE, UNIPESSOAL, LDA (508622263)","2.502,40 €",23-01-2017,01-01-2017,365 dias,"Portugal, Porto, Penafiel<BR/>Portugal, Porto, Amarante",Artigo 259.º do Código dos Contratos Públicos,,,,,,1422736,CP 2015/41 - ACORDO QUADRO PARA FORNECIMENTO DE MEDICAMENTOS ANTI-INFECIOSOS: ANTIVÍRICOS E ANTIFÚNGICOS ÀS INSTITUIÇÕES E SERVIÇOS DO SERVIÇO NACIONAL DE SAÚDE,FALSE
Fornecimento de Sugamadex,Ao abrigo de acordo-quadro (art.º 259.º),Aquisição de bens móveis,"33600000-6, Produtos farmacêuticos","Centro Hospitalar do Tâmega e Sousa, E. P. E. (508318262)","MERCK SHARP & DOHME, LDA (500191360)","11.927,72 €",23-01-2017,11-01-2017,30 dias,"Portugal, Porto, Amarante<BR/>Portugal, Porto, Penafiel",Artigo 259.º do Código dos Contratos Públicos,,,,,,1338581,"Acordo quadro para fornecimento de Medicação antialérgica, medicamentos usados no tratamento de intoxicações, vitaminas e sais minerais e grupo 20.9 - outros produtos às instituições e serviços do serviço nacional de saúde",FALSE
Medicamentos usados nas afeções oculares e otorrinolaringológico,Ao abrigo de acordo-quadro (art.º 259.º),Aquisição de bens móveis,"33600000-6, Produtos farmacêuticos","Centro Hospitalar do Tâmega e Sousa, E. P. E. (508318262)","TECNIFAR - INDÚSTRIA TÉCNICA FARMACÊUTICA, S.A. (500280436)","308,80 €",23-01-2017,01-01-2017,365 dias,"Portugal, Porto, Penafiel<BR/>Portugal, Porto, Amarante",Artigo 259.º do Código dos Contratos Públicos,,,,,,1377420,Acordo quadro para fornecimento de medicamentos usados nas afecções oculares e otorrinolaringologias às instituições e serviços do serviço nacional de saúde,FALSE
Medicamentos usados nas afeções oculares e otorrinolaringológico,Ao abrigo de acordo-quadro (art.º 259.º),Aquisição de bens móveis,"33600000-6, Produtos farmacêuticos","Centro Hospitalar do Tâmega e Sousa, E. P. E. (508318262)","GLAXOSMITHKLINE - PRODUTOS FARMACÊUTICOS, LDA (500139962)","1.438,10 €",23-01-2017,01-01-2017,365 dias,"Portugal, Porto, Penafiel<BR/>Portugal, Porto, Amarante",Artigo 259.º do Código dos Contratos Públicos,,,,,,1377420,Acordo quadro para fornecimento de medicamentos usados nas afecções oculares e otorrinolaringologias às instituições e serviços do serviço nacional de saúde,FALSE
Medicamentos usados nas afeções oculares e otorrinolaringológico,Ao abrigo de acordo-quadro (art.º 259.º),Aquisição de bens móveis,"33600000-6, Produtos farmacêuticos","Centro Hospitalar do Tâmega e Sousa, E. P. E. (508318262)","GENERIS - FARMACÊUTICA, S.A. (508107997)","40,50 €",23-01-2017,01-01-2017,365 dias,"Portugal, Porto, Penafiel<BR/>Portugal, Porto, Amarante",Artigo 259.º do Código dos Contratos Públicos,,,,,,1377420,Acordo quadro para fornecimento de medicamentos usados nas afecções oculares e otorrinolaringologias às instituições e serviços do serviço nacional de saúde,FALSE
Medicamentos usados nas afeções oculares e otorrinolaringológico,Ao abrigo de acordo-quadro (art.º 259.º),Aquisição de bens móveis,"33600000-6, Produtos farmacêuticos","Centro Hospitalar do Tâmega e Sousa, E. P. E. (508318262)","LABORATÓRIO EDOL - PRODUTOS FARMACÊUTICOS, S.A. (507072642)","7.594,51 €",23-01-2017,01-01-2017,365 dias,"Portugal, Porto, Penafiel<BR/>Portugal, Porto, Amarante",Artigo 259.º do Código dos Contratos Públicos,,,,,,1377420,Acordo quadro para fornecimento de medicamentos usados nas afecções oculares e otorrinolaringologias às instituições e serviços do serviço nacional de saúde,FALSE
Medicamentos usados nas afeções oculares e otorrinolaringológico,Ao abrigo de acordo-quadro (art.º 259.º),Aquisição de bens móveis,"33600000-6, Produtos farmacêuticos","Centro Hospitalar do Tâmega e Sousa, E. P. E. (508318262)","DAVI II - FARMACÊUTICA, S.A. (508309450)","2.754,00 €",23-01-2017,01-01-2017,365 dias,"Portugal, Porto, Penafiel<BR/>Portugal, Porto, Amarante",Artigo 259.º do Código dos Contratos Públicos,,,,,,1377420,Acordo quadro para fornecimento de medicamentos usados nas afecções oculares e otorrinolaringologias às instituições e serviços do serviço nacional de saúde,FALSE
Medicamentos usados nas afeções oculares e otorrinolaringológico,Ao abrigo de acordo-quadro (art.º 259.º),Aquisição de bens móveis,"33600000-6, Produtos farmacêuticos","Centro Hospitalar do Tâmega e Sousa, E. P. E. (508318262)",BAUSCH & LOMB SA (980218764),"4.868,50 €",23-01-2017,01-01-2017,365 dias,"Portugal, Porto, Penafiel<BR/>Portugal, Porto, Amarante",Artigo 259.º do Código dos Contratos Públicos,,,,,,1377420,Acordo quadro para fornecimento de medicamentos usados nas afecções oculares e otorrinolaringologias às instituições e serviços do serviço nacional de saúde,FALSE
Medicamentos do Aparelho Digestivo para o ano de 2017,Ao abrigo de acordo-quadro (art.º 259.º),Aquisição de bens móveis,"33600000-6, Produtos farmacêuticos","Centro Hospitalar do Tâmega e Sousa, E. P. E. (508318262)","UNILFARMA - UNIÃO INTERNACIONAL DE LABORATÓRIOS FARMACÊUTICOS, LDA (500293023)","2.331,27 €",23-01-2017,01-01-2017,365 dias,"Portugal, Porto, Amarante<BR/>Portugal, Porto, Penafiel",Artigo 259.º do Código dos Contratos Públicos,,,,,,1194708,"CONCURSO PÚBLICO PARA A CELEBRAÇÃO DE CONTRATOS PÚBLICOS DE APROVISIONAMENTO PARA A ÁREA DA SAÚDE, MEDICAMENTOS DO APARELHO DIGESTIVO, ÀS INSTITUIÇÕES E SERVIÇOS DO SERVIÇO NACIONAL DE SAÚDE",FALSE
Medicamentos do Aparelho Digestivo para o ano de 2017,Ao abrigo de acordo-quadro (art.º 259.º),Aquisição de bens móveis,"33600000-6, Produtos farmacêuticos","Centro Hospitalar do Tâmega e Sousa, E. P. E. (508318262)","PROSPA - LABORATÓRIOS FARMACÊUTICOS, S.A. (500130248)","10.678,00 €",23-01-2017,01-01-2017,365 dias,"Portugal, Porto, Penafiel<BR/>Portugal, Porto, Amarante",Artigo 259.º do Código dos Contratos Públicos,,,,,,1194708,"CONCURSO PÚBLICO PARA A CELEBRAÇÃO DE CONTRATOS PÚBLICOS DE APROVISIONAMENTO PARA A ÁREA DA SAÚDE, MEDICAMENTOS DO APARELHO DIGESTIVO, ÀS INSTITUIÇÕES E SERVIÇOS DO SERVIÇO NACIONAL DE SAÚDE",FALSE
Medicamentos do Aparelho Digestivo para o ano de 2017,Ao abrigo de acordo-quadro (art.º 259.º),Aquisição de bens móveis,"33600000-6, Produtos farmacêuticos","Centro Hospitalar do Tâmega e Sousa, E. P. E. (508318262)","LABORATÓRIOS PFIZER, LDA (500162166)","691,38 €",23-01-2017,01-01-2017,365 dias,"Portugal, Porto, Penafiel<BR/>Portugal, Porto, Amarante",Artigo 259.º do Código dos Contratos Públicos,,,,,,1194708,"CONCURSO PÚBLICO PARA A CELEBRAÇÃO DE CONTRATOS PÚBLICOS DE APROVISIONAMENTO PARA A ÁREA DA SAÚDE, MEDICAMENTOS DO APARELHO DIGESTIVO, ÀS INSTITUIÇÕES E SERVIÇOS DO SERVIÇO NACIONAL DE SAÚDE",FALSE
Medicamentos do Aparelho Digestivo para o ano de 2017,Ao abrigo de acordo-quadro (art.º 259.º),Aquisição de bens móveis,"33600000-6, Produtos farmacêuticos","Centro Hospitalar do Tâmega e Sousa, E. P. E. (508318262)","OVERPHARMA - PRODUTOS MÉDICOS E FARMACÊUTICOS, LDA (505792362)","12,32 €",23-01-2017,01-01-2017,365 dias,"Portugal, Porto, Amarante<BR/>Portugal, Porto, Penafiel",Artigo 259.º do Código dos Contratos Públicos,,,,,,1194708,"CONCURSO PÚBLICO PARA A CELEBRAÇÃO DE CONTRATOS PÚBLICOS DE APROVISIONAMENTO PARA A ÁREA DA SAÚDE, MEDICAMENTOS DO APARELHO DIGESTIVO, ÀS INSTITUIÇÕES E SERVIÇOS DO SERVIÇO NACIONAL DE SAÚDE",FALSE
Medicamentos do Aparelho Digestivo para o ano de 2017,Ao abrigo de acordo-quadro (art.º 259.º),Aquisição de bens móveis,"33600000-6, Produtos farmacêuticos","Centro Hospitalar do Tâmega e Sousa, E. P. E. (508318262)","LABORATÓRIO MEDINFAR - PRODUTOS FARMACÊUTICOS, S.A. (500384045)","4.891,35 €",23-01-2017,01-01-2017,365 dias,"Portugal, Porto, Amarante<BR/>Portugal, Porto, Penafiel",Artigo 259.º do Código dos Contratos Públicos,,,,,,1194708,"CONCURSO PÚBLICO PARA A CELEBRAÇÃO DE CONTRATOS PÚBLICOS DE APROVISIONAMENTO PARA A ÁREA DA SAÚDE, MEDICAMENTOS DO APARELHO DIGESTIVO, ÀS INSTITUIÇÕES E SERVIÇOS DO SERVIÇO NACIONAL DE SAÚDE",FALSE
Medicamentos do Aparelho Digestivo para o ano de 2017,Ao abrigo de acordo-quadro (art.º 259.º),Aquisição de bens móveis,"33600000-6, Produtos farmacêuticos","Centro Hospitalar do Tâmega e Sousa, E. P. E. (508318262)","MEDA PHARMA - PRODUTOS FARMACÊUTICOS, S.A. (500082090)","6.644,50 €",23-01-2017,01-01-2017,365 dias,"Portugal, Porto, Penafiel<BR/>Portugal, Porto, Amarante",Artigo 259.º do Código dos Contratos Públicos,,,,,,1194708,"CONCURSO PÚBLICO PARA A CELEBRAÇÃO DE CONTRATOS PÚBLICOS DE APROVISIONAMENTO PARA A ÁREA DA SAÚDE, MEDICAMENTOS DO APARELHO DIGESTIVO, ÀS INSTITUIÇÕES E SERVIÇOS DO SERVIÇO NACIONAL DE SAÚDE",FALSE
Medicamentos do Aparelho Digestivo para o ano de 2017,Ao abrigo de acordo-quadro (art.º 259.º),Aquisição de bens móveis,"33600000-6, Produtos farmacêuticos","Centro Hospitalar do Tâmega e Sousa, E. P. E. (508318262)","HIKMA FARMACÊUTICA (PORTUGAL), S.A. (502266791)","648,00 €",23-01-2017,01-01-2017,365 dias,"Portugal, Porto, Amarante<BR/>Portugal, Porto, Penafiel",Artigo 259.º do Código dos Contratos Públicos,,,,,,1194708,"CONCURSO PÚBLICO PARA A CELEBRAÇÃO DE CONTRATOS PÚBLICOS DE APROVISIONAMENTO PARA A ÁREA DA SAÚDE, MEDICAMENTOS DO APARELHO DIGESTIVO, ÀS INSTITUIÇÕES E SERVIÇOS DO SERVIÇO NACIONAL DE SAÚDE",FALSE
Medicamentos do Aparelho Digestivo para o ano de 2017,Ao abrigo de acordo-quadro (art.º 259.º),Aquisição de bens móveis,"33600000-6, Produtos farmacêuticos","Centro Hospitalar do Tâmega e Sousa, E. P. E. (508318262)","GLAXOSMITHKLINE - PRODUTOS FARMACÊUTICOS, LDA (500139962)","45,00 €",23-01-2017,01-01-2017,365 dias,"Portugal, Porto, Amarante<BR/>Portugal, Porto, Penafiel",Artigo 259.º do Código dos Contratos Públicos,,,,,,1194708,"CONCURSO PÚBLICO PARA A CELEBRAÇÃO DE CONTRATOS PÚBLICOS DE APROVISIONAMENTO PARA A ÁREA DA SAÚDE, MEDICAMENTOS DO APARELHO DIGESTIVO, ÀS INSTITUIÇÕES E SERVIÇOS DO SERVIÇO NACIONAL DE SAÚDE",FALSE
Medicamentos do Aparelho Digestivo para o ano de 2017,Ao abrigo de acordo-quadro (art.º 259.º),Aquisição de bens móveis,"33600000-6, Produtos farmacêuticos","Centro Hospitalar do Tâmega e Sousa, E. P. E. (508318262)","GENERIS - FARMACÊUTICA, S.A. (508107997)","573,06 €",23-01-2017,01-01-2017,365 dias,"Portugal, Porto, Amarante<BR/>Portugal, Porto, Penafiel",Artigo 259.º do Código dos Contratos Públicos,,,,,,1194708,"CONCURSO PÚBLICO PARA A CELEBRAÇÃO DE CONTRATOS PÚBLICOS DE APROVISIONAMENTO PARA A ÁREA DA SAÚDE, MEDICAMENTOS DO APARELHO DIGESTIVO, ÀS INSTITUIÇÕES E SERVIÇOS DO SERVIÇO NACIONAL DE SAÚDE",FALSE
Medicamentos do Aparelho Digestivo para o ano de 2017,Ao abrigo de acordo-quadro (art.º 259.º),Aquisição de bens móveis,"33600000-6, Produtos farmacêuticos","Centro Hospitalar do Tâmega e Sousa, E. P. E. (508318262)","ASTRAZENECA - PRODUTOS FARMACÊUTICOS, LDA (502942240)","27,96 €",23-01-2017,01-01-2017,365 dias,"Portugal, Porto, Penafiel",Artigo 259.º do Código dos Contratos Públicos,,,,,,1194708,"CONCURSO PÚBLICO PARA A CELEBRAÇÃO DE CONTRATOS PÚBLICOS DE APROVISIONAMENTO PARA A ÁREA DA SAÚDE, MEDICAMENTOS DO APARELHO DIGESTIVO, ÀS INSTITUIÇÕES E SERVIÇOS DO SERVIÇO NACIONAL DE SAÚDE",FALSE
Medicamentos do Aparelho Digestivo para o ano de 2017,Ao abrigo de acordo-quadro (art.º 259.º),Aquisição de bens móveis,"33600000-6, Produtos farmacêuticos","Centro Hospitalar do Tâmega e Sousa, E. P. E. (508318262)","ANGELINI FARMACEUTICA,LDA (500583650)","1.853,00 €",23-01-2017,01-01-2017,365 dias,"Portugal, Porto, Penafiel<BR/>Portugal, Porto, Amarante",Artigo 259.º do Código dos Contratos Públicos,,,,,,1194708,"CONCURSO PÚBLICO PARA A CELEBRAÇÃO DE CONTRATOS PÚBLICOS DE APROVISIONAMENTO PARA A ÁREA DA SAÚDE, MEDICAMENTOS DO APARELHO DIGESTIVO, ÀS INSTITUIÇÕES E SERVIÇOS DO SERVIÇO NACIONAL DE SAÚDE",FALSE
Medicamentos usados nas Afeções Cutâneas para o ano de 2017,Ao abrigo de acordo-quadro (art.º 259.º),Aquisição de bens móveis,"33600000-6, Produtos farmacêuticos","Centro Hospitalar do Tâmega e Sousa, E. P. E. (508318262)","SIDEFARMA - SOCIEDADE INDUSTRIAL DE EXPANSÃO FARMACÊUTICA, S.A. (500717419)","2.550,00 €",23-01-2017,01-01-2017,365 dias,"Portugal, Porto, Penafiel<BR/>Portugal, Porto, Amarante",Artigo 259.º do Código dos Contratos Públicos,,,,,,1370278,CP 2015/51 - Acordo quadro para fornecimento de medicamentos usados nas afeções cutâneas às instituições e serviços do serviço nacional de saúde,FALSE
Medicamentos usados nas Afeções Cutâneas para o ano de 2017,Ao abrigo de acordo-quadro (art.º 259.º),Aquisição de bens móveis,"33600000-6, Produtos farmacêuticos","Centro Hospitalar do Tâmega e Sousa, E. P. E. (508318262)",Sanofi - Importação e Promoção de Produtos Farmaceuticos Lda (503112933),"1.344,00 €",23-01-2017,01-01-2017,365 dias,"Portugal, Porto, Penafiel<BR/>Portugal, Porto, Amarante",Artigo 259.º do Código dos Contratos Públicos,,,,,,1370278,CP 2015/51 - Acordo quadro para fornecimento de medicamentos usados nas afeções cutâneas às instituições e serviços do serviço nacional de saúde,FALSE
Medicamentos usados nas Afeções Cutâneas para o ano de 2017,Ao abrigo de acordo-quadro (art.º 259.º),Aquisição de bens móveis,"33600000-6, Produtos farmacêuticos","Centro Hospitalar do Tâmega e Sousa, E. P. E. (508318262)","OVERPHARMA - PRODUTOS MÉDICOS E FARMACÊUTICOS, LDA (505792362)","274,75 €",23-01-2017,01-01-2017,365 dias,"Portugal, Porto, Amarante<BR/>Portugal, Porto, Penafiel",Artigo 259.º do Código dos Contratos Públicos,,,,,,1370278,CP 2015/51 - Acordo quadro para fornecimento de medicamentos usados nas afeções cutâneas às instituições e serviços do serviço nacional de saúde,FALSE
Medicamentos usados nas Afeções Cutâneas para o ano de 2017,Ao abrigo de acordo-quadro (art.º 259.º),Aquisição de bens móveis,"33600000-6, Produtos farmacêuticos","Centro Hospitalar do Tâmega e Sousa, E. P. E. (508318262)","LABORATÓRIO MEDINFAR - PRODUTOS FARMACÊUTICOS, S.A. (500384045)","24,93 €",23-01-2017,01-01-2017,365 dias,"Portugal, Porto, Penafiel<BR/>Portugal, Porto, Amarante",Artigo 259.º do Código dos Contratos Públicos,,,,,,1370278,CP 2015/51 - Acordo quadro para fornecimento de medicamentos usados nas afeções cutâneas às instituições e serviços do serviço nacional de saúde,FALSE
Medicamentos usados nas Afeções Cutâneas para o ano de 2017,Ao abrigo de acordo-quadro (art.º 259.º),Aquisição de bens móveis,"33600000-6, Produtos farmacêuticos","Centro Hospitalar do Tâmega e Sousa, E. P. E. (508318262)","LABORATÓRIOS INIBSA, S.A. (500139571)","846,00 €",23-01-2017,01-01-2017,365 dias,"Portugal, Porto, Amarante<BR/>Portugal, Porto, Penafiel",Artigo 259.º do Código dos Contratos Públicos,,,,,,1370278,CP 2015/51 - Acordo quadro para fornecimento de medicamentos usados nas afeções cutâneas às instituições e serviços do serviço nacional de saúde,FALSE
Medicamentos usados nas Afeções Cutâneas para o ano de 2017,Ao abrigo de acordo-quadro (art.º 259.º),Aquisição de bens móveis,"33600000-6, Produtos farmacêuticos","Centro Hospitalar do Tâmega e Sousa, E. P. E. (508318262)","GENERIS - FARMACÊUTICA, S.A. (508107997)","936,90 €",23-01-2017,01-01-2017,365 dias,"Portugal, Porto, Penafiel<BR/>Portugal, Porto, Amarante",Artigo 259.º do Código dos Contratos Públicos,,,,,,1370278,CP 2015/51 - Acordo quadro para fornecimento de medicamentos usados nas afeções cutâneas às instituições e serviços do serviço nacional de saúde,FALSE
Medicamentos usados nas Afeções Cutâneas para o ano de 2017,Ao abrigo de acordo-quadro (art.º 259.º),Aquisição de bens móveis,"33600000-6, Produtos farmacêuticos","Centro Hospitalar do Tâmega e Sousa, E. P. E. (508318262)","LABORATÓRIO EDOL - PRODUTOS FARMACÊUTICOS, S.A. (507072642)","96,90 €",23-01-2017,01-01-2017,365 dias,"Portugal, Porto, Penafiel<BR/>Portugal, Porto, Amarante",Artigo 259.º do Código dos Contratos Públicos,,,,,,1370278,CP 2015/51 - Acordo quadro para fornecimento de medicamentos usados nas afeções cutâneas às instituições e serviços do serviço nacional de saúde,FALSE
Medicamentos usados nas Afeções Cutâneas para o ano de 2017,Ao abrigo de acordo-quadro (art.º 259.º),Aquisição de bens móveis,"33600000-6, Produtos farmacêuticos","Centro Hospitalar do Tâmega e Sousa, E. P. E. (508318262)","B.BRAUN MEDICAL, LDA (501506543)","16.500,00 €",23-01-2017,01-01-2017,365 dias,"Portugal, Porto, Amarante<BR/>Portugal, Porto, Penafiel",Artigo 259.º do Código dos Contratos Públicos,,,,,,1370278,CP 2015/51 - Acordo quadro para fornecimento de medicamentos usados nas afeções cutâneas às instituições e serviços do serviço nacional de saúde,FALSE
