Objeto do Contrato,Tipo de Procedimento,Tipo(s) de Contrato,CPVs,Entidade(s) Adjudicante(s),Entidade(s) Adjudicatária(s),Preço Contratual,Data de Publicação,Data de Celebração do Contrato,Prazo de Execução,Local de Execução,Fundamentação,Data de Fecho do Contrato,Preço Total Efetivo,Causas das Alterações ao Prazo,Causas das Alterações ao Preço,Estado,N.º registo do Acordo Quadro,Descrição do Acordo Quadro,Procedimento Centralizado
"5906515 - Aquisição de Estrutura para a realização, para o evento do dia do Dador de Sangue  ",Ajuste Direto Regime Geral,Aquisição de serviços,"79341000-6, Serviços de publicidade","Instituto Português do Sangue e da Transplantação, I. P. (502423943)",Labdesign (504732706),"34.622,00 €",11-03-2015,06-03-2015,30 dias,"Portugal, Lisboa, Lisboa","Artigo 20.º, n.º 1, alínea a) do Código dos Contratos Públicos",,,,,,Não aplicável.,Não aplicável.,FALSE
"Aluguer de viaturas c/ motorista para transporte  de pessoal e equipamento p/ brigadas de colheita de sangue do IPST, IP.",Ajuste Direto Regime Geral,Aquisição de serviços,"60170000-0, Aluguer de veículos para transporte de passageiros com condutor","Instituto Português do Sangue e da Transplantação, I. P. (502423943)","Barraqueiro Transportes, S.A.  (500151997)","37.723,20 €",09-03-2015,23-02-2015,180 dias,"Portugal, Lisboa, Lisboa","Artigo 27.º, n.º 1, alínea a) do Código dos Contratos Públicos",,,,,,Não aplicável.,Não aplicável.,FALSE
Prestação de Serviço de Aluguer de contentores e de higiene sanitária de proteções femininas,Ajuste Direto Regime Geral,Aquisição de serviços,"90511000-2, Serviços de recolha de resíduos","Instituto Português do Sangue e da Transplantação, I. P. (502423943)",CANNON (501678603),"2.970,00 €",05-03-2015,02-03-2015,360 dias,"Portugal, Porto, Porto<BR/>Portugal, Coimbra, Coimbra<BR/>Portugal, Lisboa, Lisboa","Artigo 20.º, n.º 1, alínea a) do Código dos Contratos Públicos",,,,,,Não aplicável.,Não aplicável.,FALSE
" 49002/15 Aluguer de viaturas c/ motorista p/ transporte de pessoal e equipamento p/ brigadas de colheita de sangue do IPST, IP.",Ajuste Direto Regime Geral,Aquisição de serviços,"60180000-3, Aluguer de veículos para transporte de mercadorias com condutor","Instituto Português do Sangue e da Transplantação, I. P. (502423943)","Rodoviária Beira Litoral, SA (502550414)","74.848,00 €",03-03-2015,16-02-2015,120 dias,"Portugal, Coimbra, Coimbra","Artigo 27.º, n.º 1, alínea a) do Código dos Contratos Públicos",,,,,,Não aplicável.,Não aplicável.,FALSE
