Objeto do Contrato,Tipo de Procedimento,Tipo(s) de Contrato,CPVs,Entidade(s) Adjudicante(s),Entidade(s) Adjudicatária(s),Preço Contratual,Data de Publicação,Data de Celebração do Contrato,Prazo de Execução,Local de Execução,Fundamentação,Data de Fecho do Contrato,Preço Total Efetivo,Causas das Alterações ao Prazo,Causas das Alterações ao Preço,Estado,N.º registo do Acordo Quadro,Descrição do Acordo Quadro,Procedimento Centralizado
SERVIÇOS DE SUPORTE E MANUTENÇÃO DA INFRA-ESTRUTURA DE SISTEMAS E TECNOLOGIAS (DATACENTER) DO CHLO NO ANO DE 2018,Concurso público,Aquisição de serviços,"72300000-8, Serviços relacionados com dados","Centro Hospitalar de Lisboa Ocidental, EPE (CHLO) (507618319)","ITEN  SOLUTIONS - Sistemas de Informação, S.A (510728189)","76.390,20 €",10-04-2018,13-03-2018,306 dias,"Portugal, Lisboa, Lisboa","Artigo 20.º, n.º 1, alínea b) do Código dos Contratos Públicos",,,,,,Não aplicável.,Não aplicável.,FALSE
P259-AC-2017-167 Aquisição Centralizada pela SPMS-P259-AC-2017-167-Medicamentos citarabina ano 2018,Ajuste Direto Regime Geral,Aquisição de bens móveis,"33650000-1, Anti-infecciosos gerais de uso sistémico, vacinas, antineoplásicos e imunomoduladores","Centro Hospitalar de Lisboa Ocidental, E. P. E. (507618319)","Hikma Farmaceutica Portugal, S.A. (502266791)","263,80 €",09-04-2018,27-11-2017,365 dias,"Portugal, Lisboa, Lisboa",Artigo 258.º do Código dos Contratos Públicos,,,,,,Não aplicável.,Não aplicável.,FALSE
P259-AC-2017-185 Aquisição Centralizada pela SPMS- Medicamentos Foro oncológico ano2018,Ajuste Direto Regime Geral,Aquisição de bens móveis,"33650000-1, Anti-infecciosos gerais de uso sistémico, vacinas, antineoplásicos e imunomoduladores","Centro Hospitalar de Lisboa Ocidental, E. P. E. (507618319)","Generis Farmaceutica, S.A. (508107997)","18.670,00 €",09-04-2018,13-12-2017,365 dias,"Portugal, Lisboa, Lisboa",Artigo 258.º do Código dos Contratos Públicos,,,,,,Não aplicável.,Não aplicável.,FALSE
Aquisição de serviços de manutenção e assistência técnica ao PACS SYNGO para o ano de 2018,Ajuste Direto Regime Geral,Aquisição de serviços,"72000000-5, Serviços de TI: consultoria, desenvolvimento de software, Internet e apoio","Centro Hospitalar de Lisboa Ocidental, E. P. E. (507618319)",SIEMENS HEALTHCARE LDA (507925173),"15.000,00 €",09-04-2018,20-02-2018,365 dias,"Portugal, Lisboa, Lisboa","Artigo 24.º, n.º 1, alínea e) do Código dos Contratos Públicos",,,,,,Não aplicável.,Não aplicável.,FALSE
Aquisição de serviços de manutenção corretiva e evolutiva aos sistemas Clinidata para o ano de 2018,Ajuste Direto Regime Geral,Aquisição de serviços,"72000000-5, Serviços de TI: consultoria, desenvolvimento de software, Internet e apoio","Centro Hospitalar de Lisboa Ocidental, E. P. E. (507618319)",Maxdata (502250259),"26.955,72 €",09-04-2018,08-03-2018,365 dias,"Portugal, Lisboa, Lisboa","Artigo 24.º, n.º 1, alínea e), subalínea iii) do Código dos Contratos Públicos",,,,,,Não aplicável.,Não aplicável.,FALSE
P259-AC-2017-162 Aquisição Centralizada pela SPMS -Medicamentos foro Oncologico ano 2018,Ajuste Direto Regime Geral,Aquisição de bens móveis,"33650000-1, Anti-infecciosos gerais de uso sistémico, vacinas, antineoplásicos e imunomoduladores","Centro Hospitalar de Lisboa Ocidental, E. P. E. (507618319)","Bayer Portugal, S.A. (500043256)","604.974,41 €",09-04-2018,27-11-2017,365 dias,"Portugal, Lisboa, Lisboa",Artigo 258.º do Código dos Contratos Públicos,,,,,,Não aplicável.,Não aplicável.,FALSE
Aquisição de serviços de manutenção corretiva e evolutiva aos sistemas aplicacionais da FIRST - aplicação SIIMA para o ano de 2018,Ajuste Direto Regime Geral,Aquisição de serviços,"72000000-5, Serviços de TI: consultoria, desenvolvimento de software, Internet e apoio","Centro Hospitalar de Lisboa Ocidental, E. P. E. (507618319)","First Solutions - Sistemas de Informação, S.A. (505345978)","55.084,96 €",09-04-2018,16-02-2018,365 dias,"Portugal, Lisboa, Lisboa","Artigo 24.º, n.º 1, alínea e) do Código dos Contratos Públicos",,,,,,Não aplicável.,Não aplicável.,FALSE
P259-c-2017-156 Aquisição Centralizada pela SPMS-Medicamentos Mitomicina ano 2018,Ajuste Direto Regime Geral,Aquisição de bens móveis,"33650000-1, Anti-infecciosos gerais de uso sistémico, vacinas, antineoplásicos e imunomoduladores","Centro Hospitalar de Lisboa Ocidental, E. P. E. (507618319)","Ferrer Portugal, S.A. (500069190)","35.296,80 €",09-04-2018,14-11-2017,365 dias,"Portugal, Lisboa, Lisboa",Artigo 258.º do Código dos Contratos Públicos,,,,,,Não aplicável.,Não aplicável.,FALSE
P259-AC-2017-196 Aquisição Centralizada pela SPMS-Medicamentos Foro oncológico ano 2018,Ajuste Direto Regime Geral,Aquisição de bens móveis,"33650000-1, Anti-infecciosos gerais de uso sistémico, vacinas, antineoplásicos e imunomoduladores","Centro Hospitalar de Lisboa Ocidental, E. P. E. (507618319)","Pfizer Biofarmaceutica, Sociedade Unipessoal, Lda (513300376)","187.117,74 €",09-04-2018,08-01-2018,365 dias,"Portugal, Lisboa, Lisboa",Artigo 258.º do Código dos Contratos Públicos,,,,,,Não aplicável.,Não aplicável.,FALSE
P259-AC-2017-186 Aquisição Centralizada pela SPMS-medicamentos Trastuzumab  ano 2018,Ajuste Direto Regime Geral,Aquisição de bens móveis,"33650000-1, Anti-infecciosos gerais de uso sistémico, vacinas, antineoplásicos e imunomoduladores","Centro Hospitalar de Lisboa Ocidental, E. P. E. (507618319)","Roche Farmaceutica Quimica, Lda (500233810)","588.062,90 €",09-04-2018,18-12-2017,365 dias,"Portugal, Lisboa, Lisboa",Artigo 258.º do Código dos Contratos Públicos,,,,,,Não aplicável.,Não aplicável.,FALSE
P259-AC-2017-202 Aquisição Centralizada pela SPMS-Medicamentos Somatropina  ano 2018,Ajuste Direto Regime Geral,Aquisição de bens móveis,"33610000-9, Medicamentos para o tracto digestivo e o metabolismo","Centro Hospitalar de Lisboa Ocidental, E. P. E. (507618319)","Novo Nordisk Comercio Produtos Farmaceuticos, Lda.  (501485210)","89.659,20 €",09-04-2018,27-12-2017,365 dias,"Portugal, Lisboa, Lisboa",Artigo 258.º do Código dos Contratos Públicos,,,,,,Não aplicável.,Não aplicável.,FALSE
P259-AC-2017-199 Aquisição Centralizada pela SPMS-Medicamentos imatinib ano 2018,Ajuste Direto Regime Geral,Aquisição de bens móveis,"33650000-1, Anti-infecciosos gerais de uso sistémico, vacinas, antineoplásicos e imunomoduladores","Centro Hospitalar de Lisboa Ocidental, E. P. E. (507618319)","Novartis Farma Produtos Farmaceuticos, S.A. (500063524)","63.135,63 €",09-04-2018,20-12-2017,365 dias,"Portugal, Lisboa, Lisboa",Artigo 258.º do Código dos Contratos Públicos,,,,,,Não aplicável.,Não aplicável.,FALSE
P259-AC-2017-152 Aquisição Centralizada pela SPMS-medicamentos anti retrovíricos -ano 2018,Ajuste Direto Regime Geral,Aquisição de bens móveis,"33650000-1, Anti-infecciosos gerais de uso sistémico, vacinas, antineoplásicos e imunomoduladores","Centro Hospitalar de Lisboa Ocidental, E. P. E. (507618319)","VIIVHIV HEALTHCARE, UNIPESSOAL LDA (509117961)","1.158.535,32 €",06-04-2018,16-11-2017,365 dias,"Portugal, Lisboa, Lisboa",Artigo 258.º do Código dos Contratos Públicos,,,,,,Não aplicável.,Não aplicável.,FALSE
P259-AC-2017-155 Aquisição Centralizada pela SPMS-Medicamentos atazanavir e dasatinib- ano 2018,Ajuste Direto Regime Geral,Aquisição de bens móveis,"33620000-2, Medicamentos para o sangue, para os órgãos hematopoiéticos e para o aparelho cardiovascular","Centro Hospitalar de Lisboa Ocidental, E. P. E. (507618319)","BRISTOL-MYERS SQUIBB FARMACÊUTICA PORTUGUESA, S.A. (500048193)","86.350,92 €",06-04-2018,27-12-2017,365 dias,"Portugal, Lisboa, Lisboa",Artigo 258.º do Código dos Contratos Públicos,,,,,,Não aplicável.,Não aplicável.,FALSE
P259-2018-12 Aquisição Centraliazada pela SPMS-medicamentos ao abrigo Acordo Quadro da SPMS,Ajuste Direto Regime Geral,Aquisição de bens móveis,"33650000-1, Anti-infecciosos gerais de uso sistémico, vacinas, antineoplásicos e imunomoduladores","Centro Hospitalar de Lisboa Ocidental, E. P. E. (507618319)","MERCK SHARP & DOHME, Ld (500191360)","1.017.247,25 €",06-04-2018,12-02-2018,365 dias,"Portugal, Lisboa, Lisboa",Artigo 258.º do Código dos Contratos Públicos,,,,,,Não aplicável.,Não aplicável.,FALSE
Aquisição de Serviços de manutenção e assistência técnica do software B-ICU-CARE para o ano de 2018,Ajuste Direto Regime Geral,Aquisição de serviços,"72000000-5, Serviços de TI: consultoria, desenvolvimento de software, Internet e apoio","Centro Hospitalar de Lisboa Ocidental, E. P. E. (507618319)",B-Simple (506188841),"84.000,00 €",06-04-2018,28-02-2018,365 dias,"Portugal, Lisboa, Lisboa","Artigo 24.º, n.º 1, alínea e) do Código dos Contratos Públicos",,,,,,Não aplicável.,Não aplicável.,FALSE
Aquisição de Serviços de manutenção do software MAXPRO para o ano de 2018,Ajuste Direto Regime Geral,Aquisição de serviços,"72000000-5, Serviços de TI: consultoria, desenvolvimento de software, Internet e apoio","Centro Hospitalar de Lisboa Ocidental, E. P. E. (507618319)",SISQUAL (502772298),"14.544,75 €",06-04-2018,07-03-2018,365 dias,"Portugal, Lisboa, Lisboa","Artigo 24.º, n.º 1, alínea e), subalínea iii) do Código dos Contratos Públicos",,,,,,Não aplicável.,Não aplicável.,FALSE
P259-AC-2017-182 Aquisição Centralizada pela SPMS-Medicamentos Antirretrovirais- ano 2018,Ajuste Direto Regime Geral,Aquisição de bens móveis,"33620000-2, Medicamentos para o sangue, para os órgãos hematopoiéticos e para o aparelho cardiovascular","Centro Hospitalar de Lisboa Ocidental, E. P. E. (507618319)","VIIVHIV HEALTHCARE, UNIPESSOAL LDA (509117961)","483.248,57 €",06-04-2018,30-11-2017,365 dias,"Portugal, Lisboa, Lisboa",Artigo 258.º do Código dos Contratos Públicos,,,,,,Não aplicável.,Não aplicável.,FALSE
"P259-AC-2017-195 Aquisição Centralizada pela SPMS-medicamento """"NILUTAMIDA"""" ano 2018",Ajuste Direto Regime Geral,Aquisição de bens móveis,"33620000-2, Medicamentos para o sangue, para os órgãos hematopoiéticos e para o aparelho cardiovascular","Centro Hospitalar de Lisboa Ocidental, E. P. E. (507618319)","SANOFI PRODUTOS  FARMACEUTICOS, LDA  (500134960)","2.183,98 €",06-04-2018,18-12-2017,365 dias,"Portugal, Lisboa, Lisboa",Artigo 258.º do Código dos Contratos Públicos,,,,,,Não aplicável.,Não aplicável.,FALSE
"P259-AC-2017-140 Aquisição Centralizada pela SPMS de Medicamentos """"Imunoglobulina Humana"""" ano 2018",Ajuste Direto Regime Geral,Aquisição de bens móveis,"33620000-2, Medicamentos para o sangue, para os órgãos hematopoiéticos e para o aparelho cardiovascular","Centro Hospitalar de Lisboa Ocidental, E. P. E. (507618319)","CSL BHERING, LDA (503047201)","10.010,45 €",06-04-2018,29-11-2017,365 dias,"Portugal, Lisboa, Lisboa",Artigo 258.º do Código dos Contratos Públicos,,,,,,Não aplicável.,Não aplicável.,FALSE
P259-AC-2017-174 Aquisição Centralizada pela SPMS de Medicamentos no ano 2018,Ajuste Direto Regime Geral,Aquisição de bens móveis,"33610000-9, Medicamentos para o tracto digestivo e o metabolismo","Centro Hospitalar de Lisboa Ocidental, E. P. E. (507618319)","Biogen Portugal, Lda (506415740)","594.808,96 €",06-04-2018,21-11-2017,365 dias,"Portugal, Lisboa, Lisboa",Artigo 258.º do Código dos Contratos Públicos,,,,,,Não aplicável.,Não aplicável.,FALSE
11101448 Aquisição de Medicamentos Tratamento Hepatite Glecaprevir+Pibrentasvir- 2018,Ajuste Direto Regime Geral,Aquisição de bens móveis,"33620000-2, Medicamentos para o sangue, para os órgãos hematopoiéticos e para o aparelho cardiovascular","Centro Hospitalar de Lisboa Ocidental, EPE (CHLO) (507618319)","ABBVIE, LDA (510229050)","92.400,00 €",04-04-2018,14-03-2018,365 dias,"Portugal, Lisboa, Lisboa","Artigo 24.º, n.º 1, alínea e) do Código dos Contratos Públicos",,,,,,Não aplicável.,Não aplicável.,FALSE
P259-2018-17 Aquisição Centralizada pela SPMS-Derivados do Plasma - ano 2018,Ajuste Direto Regime Geral,Aquisição de bens móveis,"33600000-6, Produtos farmacêuticos","Centro Hospitalar de Lisboa Ocidental, E. P. E. (507618319)","Baxter Medico Farmaceutica, Lda (503347345)","70.928,00 €",04-04-2018,02-02-2018,365 dias,"Portugal, Lisboa, Lisboa",Artigo 258.º do Código dos Contratos Públicos,,,,,,Não aplicável.,Não aplicável.,FALSE
