Objeto do Contrato,Tipo de Procedimento,Tipo(s) de Contrato,CPVs,Entidade(s) Adjudicante(s),Entidade(s) Adjudicatária(s),Preço Contratual,Data de Publicação,Data de Celebração do Contrato,Prazo de Execução,Local de Execução,Fundamentação,Data de Fecho do Contrato,Preço Total Efetivo,Causas das Alterações ao Prazo,Causas das Alterações ao Preço,Estado,N.º registo do Acordo Quadro,Descrição do Acordo Quadro,Procedimento Centralizado
Prestação de serviços médicos no SAP de Oliveira do Hospital,Ajuste Direto Regime Geral,Aquisição de serviços,"85000000-9, Serviços de saúde e acção social","Administração Regional de Saúde do Centro, I. P. (503122165)","Corevalue - Healthcare Solutions, Lda. (513654577)","70.500,00 €",08-07-2016,11-02-2016,324 dias,"Portugal, Coimbra, Oliveira do Hospital","Artigo 20.º, n.º 1, alínea a) do Código dos Contratos Públicos",31-12-2016,"65.650,00 €","",Não foram efetuadas todas as horas contratadas,,Não aplicável.,Não aplicável.,FALSE
"Proc. n.º 16800567. ACES Pinhal Litoral, C S Marinha Grande. Empreitada de reparação e modificação da Central de bombagem de águas, residuais domésticas",Ajuste Direto Regime Geral,Empreitadas de obras públicas,"45453000-7, Obras de revisão e recuperação","Administração Regional de Saúde do Centro, I. P. (503122165)","Mesis - Engenharia, Lda. (507830814)","5.993,52 €",01-07-2016,25-05-2016,15 dias,"Portugal, Leiria, Marinha Grande","Artigo 19.º, alínea a) do Código dos Contratos Públicos","","5.993,52 €",Não houve,Não houve,,Não aplicável.,Não aplicável.,FALSE
Proc. n.º 16800114. ACES Baixo Vouga - Centro de Saúde de Aveiro - Empreitada de reparações urgentes,Ajuste Direto Regime Geral,Empreitadas de obras públicas,"45453100-8, Obras de recuperação","Administração Regional de Saúde do Centro, I. P. (503122165)","Construções Rodrigues e Filho, Lda (501799249)","4.937,00 €",01-07-2016,22-03-2016,30 dias,"Portugal, Aveiro, Aveiro","Artigo 19.º, alínea a) do Código dos Contratos Públicos","","4.937,00 €",Não houve,Não houve,,Não aplicável.,Não aplicável.,FALSE
Prestação de serviços médicos para o SUB de S. Pedro do Sul,Ao abrigo de acordo-quadro (art.º 259.º),Aquisição de serviços,"85100000-0, Serviços de saúde","Administração Regional de Saúde do Centro,IP(ARSC) (503122165)","Talenter 24 - Serviços de Saúde, LDa (510359698)","117.600,00 €",01-07-2016,01-06-2016,214 dias,"Portugal, Viseu, São Pedro do Sul",Artigo 259.º do Código dos Contratos Públicos,31-12-2016,"92.276,67 €","",Horas prestadas inferiores às horas contratadas,,1490434,ACORDO QUADRO PARA PRESTAÇÃO DE SERVIÇOS MÉDICOS ÀS INSTITUIÇÕES E SERVIÇOS DO SERVIÇO NACIONAL DE SAÚDE,FALSE
