Objeto do Contrato,Tipo de Procedimento,Tipo(s) de Contrato,CPVs,Entidade(s) Adjudicante(s),Entidade(s) Adjudicatária(s),Preço Contratual,Data de Publicação,Data de Celebração do Contrato,Prazo de Execução,Local de Execução,Fundamentação,Data de Fecho do Contrato,Preço Total Efetivo,Causas das Alterações ao Prazo,Causas das Alterações ao Preço,Estado,N.º registo do Acordo Quadro,Descrição do Acordo Quadro,Procedimento Centralizado
Aquisição de reagentes.,Ajuste Direto Regime Geral,Aquisição de bens móveis,"33696500-0, Reagentes de laboratório","Instituto Nacional de Saúde Dr. Ricardo Jorge, I.P. (501427511)",Grupo Taper (506886336),"734,00 €",24-05-2012,21-05-2012,5 dias,"Portugal, Lisboa, Lisboa","Artigo 20.º, n.º 1, alínea a) do Código dos Contratos Públicos",,,,,,Não aplicável.,Não aplicável.,
Aquisição de Desumificador,Ajuste Direto Regime Geral,Aquisição de bens móveis,"31600000-2, Equipamento e aparelhos eléctricos","Instituto Nacional de Saúde Dr. Ricardo Jorge, I.P. (501427511)",MANUTAN (504779079),"420,00 €",22-05-2012,17-05-2012,5 dias,"Portugal, Lisboa, Lisboa","Artigo 20.º, n.º 4 do Código dos Contratos Públicos",,,,,,Não aplicável.,Não aplicável.,
Aquisição de Brochura,Ajuste Direto Regime Geral,Aquisição de serviços,"80510000-2, Serviços de formação especializada","Instituto Nacional de Saúde Dr. Ricardo Jorge, I.P. (501427511)","Nuno Almodovar Design, Lda (509604692)","300,00 €",22-05-2012,28-02-2012,5 dias,"Portugal, Lisboa, Lisboa","Artigo 20.º, n.º 1, alínea a) do Código dos Contratos Públicos",,,,,,Não aplicável.,Não aplicável.,
Aquisição de Material de Consumo Clinico,Ajuste Direto Regime Geral,Aquisição de bens móveis,"30197630-1, Papel para impressão","Instituto Nacional de Saúde Dr. Ricardo Jorge, I.P. (501427511)",FUGIFILM (980456517),"379,80 €",21-05-2012,02-05-2012,5 dias,"Portugal, Lisboa, Lisboa","Artigo 20.º, n.º 1, alínea a) do Código dos Contratos Públicos",,,,,,Não aplicável.,Não aplicável.,
Aquisição de Material de Consumo Clinico.,Ajuste Direto Regime Geral,Aquisição de bens móveis,"30197630-1, Papel para impressão","Instituto Nacional de Saúde Dr. Ricardo Jorge, I.P. (501427511)","Reagente 5-Quimica Electrónica,Lda (501194053)","300,00 €",21-05-2012,02-05-2012,5 dias,"Portugal, Lisboa, Lisboa","Artigo 20.º, n.º 1, alínea a) do Código dos Contratos Públicos",,,,,,Não aplicável.,Não aplicável.,
