Objeto do Contrato,Tipo de Procedimento,Tipo(s) de Contrato,CPVs,Entidade(s) Adjudicante(s),Entidade(s) Adjudicatária(s),Preço Contratual,Data de Publicação,Data de Celebração do Contrato,Prazo de Execução,Local de Execução,Fundamentação,Data de Fecho do Contrato,Preço Total Efetivo,Causas das Alterações ao Prazo,Causas das Alterações ao Preço,Estado,N.º registo do Acordo Quadro,Descrição do Acordo Quadro,Procedimento Centralizado
"Aquisição de Splits de Ar Condicionado para colocação nos Contentores do Serviço de Imunohemoterapia do CHSJ, EPE",Ajuste Direto Regime Geral,Aquisição de bens móveis,"42512300-1, Sistemas de aquecimento, ventilação e ar condicionado","Centro Hospitalar de São João, E. P. E. (509821197)","Ecoworld Serviços de Engenharia, Lda. (510500145)","7.714,20 €",11-02-2015,11-02-2015,15 dias,"Portugal, Porto, Porto","Artigo 20.º, n.º 1, alínea a) do Código dos Contratos Públicos",,,,,,Não aplicável.,Não aplicável.,FALSE
"Aquisição de Serviços de Manutenção e Assistência Técnica aos Equipamentos de Radiologia, do Centro Hospitalar de S. João E.P.E., para o ano 2015.",Ajuste Direto Regime Geral,Aquisição de serviços,"50000000-5, Serviços de reparação e manutenção","Centro Hospitalar de São João, E. P. E. (509821197)","Agfa HealthCare Equipments Portugal, Lda (500011060)","15.000,00 €",09-02-2015,13-01-2015,365 dias,"Portugal, Porto, Porto","Artigo 24.º, n.º 1, alínea e) do Código dos Contratos Públicos",,,,,,Não aplicável.,Não aplicável.,FALSE
"Aquisição de 15 Monitores de Sinais Vitais Multiparamétricos para o CHSJ, EPE",Ajuste Direto Regime Geral,Aquisição de bens móveis,"33100000-1, Equipamento médico","Centro Hospitalar de São João, E. P. E. (509821197)","Sano-Técnica, Lda. (500239819)","13.335,00 €",09-02-2015,30-01-2015,30 dias,"Portugal, Porto, Porto","Artigo 20.º, n.º 1, alínea a) do Código dos Contratos Públicos",,,,,,Não aplicável.,Não aplicável.,FALSE
"Aquisição de diverso material marca """"Fresenius"""" mencionado no PC 10944 de 2015, para o Serviço de Instalações e Equipamentos do CHSJ,EPE",Ajuste Direto Regime Geral,Aquisição de bens móveis,"33194000-6, Material para transfusão e perfusão","Centro Hospitalar de São João, E. P. E. (509821197)","Fresenius Kabi Pharma Portugal, Lda (504293753)","12.487,90 €",02-02-2015,22-01-2015,30 dias,"Portugal, Porto, Porto","Artigo 24.º, n.º 1, alínea e) do Código dos Contratos Públicos",,,,,,Não aplicável.,Não aplicável.,FALSE
