Objeto do Contrato,Tipo de Procedimento,Tipo(s) de Contrato,CPVs,Entidade(s) Adjudicante(s),Entidade(s) Adjudicatária(s),Preço Contratual,Data de Publicação,Data de Celebração do Contrato,Prazo de Execução,Local de Execução,Fundamentação,Data de Fecho do Contrato,Preço Total Efetivo,Causas das Alterações ao Prazo,Causas das Alterações ao Preço,Estado,N.º registo do Acordo Quadro,Descrição do Acordo Quadro,Procedimento Centralizado
Aquisição do serviço de assistência técnica e manutenção de 18 UPS - Unidades de Alimentação Ininterrupta,Ajuste Direto Regime Geral,Aquisição de serviços,"50000000-5, Serviços de reparação e manutenção","Instituto Nacional de Emergência Médica, IP (501356126)","CHLORIDE PORTUGAL, LDA. (503322520)","3.935,39 €",28-03-2011,14-03-2011,30 dias,"Portugal, Lisboa, Lisboa","Artigo 20.º, n.º 1, alínea a) do Código dos Contratos Públicos",,,,,,Não aplicável.,Não aplicável.,
Assistência Técnica e Manutenção do Aparelho de Refrigeração da Sala da UPS para o Ano de 2011,Ajuste Direto Regime Geral,Aquisição de serviços,"50730000-1, Serviços de reparação e manutenção de grupos de refrigeração","Instituto Nacional de Emergência Médica, IP (501356126)",RCAT (504259873),"1.700,00 €",28-03-2011,02-03-2011,365 dias,"Portugal, Lisboa, Lisboa","Artigo 20.º, n.º 1, alínea a) do Código dos Contratos Públicos",,,,,,Não aplicável.,Não aplicável.,
Verba a disponibilizar para TV Cabo Ano 2011,Ajuste Direto Regime Geral,Aquisição de serviços,"92200000-3, Serviços de rádio e televisão","Instituto Nacional de Emergência Médica, IP (501356126)","ZON TV CABO PORTUGAL, SA (503039063)","3.000,00 €",28-03-2011,02-02-2011,365 dias,"Portugal, Lisboa, Lisboa","Artigo 20.º, n.º 1, alínea a) do Código dos Contratos Públicos",,,,,,Não aplicável.,Não aplicável.,
Aquisição de serviços de Comunicações Via Satélite para o Ano de 2011,Ajuste Direto Regime Geral,Aquisição de serviços,"35631100-7, Satélites de comunicação","Instituto Nacional de Emergência Médica, IP (501356126)","PT COMUNICAÇÕES, SA (504615947)","2.000,00 €",28-03-2011,14-03-2011,365 dias,"Portugal, Lisboa, Lisboa","Artigo 20.º, n.º 1, alínea a) do Código dos Contratos Públicos",,,,,,Não aplicável.,Não aplicável.,
