Objeto do Contrato,Tipo de Procedimento,Tipo(s) de Contrato,CPVs,Entidade(s) Adjudicante(s),Entidade(s) Adjudicatária(s),Preço Contratual,Data de Publicação,Data de Celebração do Contrato,Prazo de Execução,Local de Execução,Fundamentação,Data de Fecho do Contrato,Preço Total Efetivo,Causas das Alterações ao Prazo,Causas das Alterações ao Preço,Estado,N.º registo do Acordo Quadro,Descrição do Acordo Quadro,Procedimento Centralizado
Aquisição de ZIDOVUDINA (SOL.ORAL) [10MG/ML; FRS] - Processo de Aquisição IGIF N.º 11003818 (Proc. SPMS: P259-AC-2017-152),Ao abrigo de acordo-quadro (art.º 259.º),Aquisição de bens móveis,"33600000-6, Produtos farmacêuticos","Hospital Garcia de Orta, E. P. E. (506361470)",VIIVVHIV Healthcare Unipessoal Lda (509117961),"720,00 €",31-10-2018,06-02-2018,365 dias,"Portugal, Setúbal, Almada",Artigo 259.º do Código dos Contratos Públicos,,,,,,461371,CP 2012/40 - MEDICAMENTOS ANTI-RETROVIRAIS,FALSE
Aquisição de DOLUTEGRAVIR + ABACAVIR + LAMIVUDINA [50 MG + 600 MG + 300 MG; CÁP/COMP] - Processo de Aquisição IGIF N.º 11003818 (Proc. SPMS: P259-AC-2017-152),Ao abrigo de acordo-quadro (art.º 259.º),Aquisição de bens móveis,"33600000-6, Produtos farmacêuticos","Hospital Garcia de Orta, E. P. E. (506361470)",VIIVVHIV Healthcare Unipessoal Lda (509117961),"1.492.962,67 €",31-10-2018,03-01-2018,365 dias,"Portugal, Setúbal, Almada",Artigo 259.º do Código dos Contratos Públicos,,,,,,2545980,CP 2017/61 - Acordo quadro para fornecimento de Medicamentos Diversos   às Instituições e Serviços do Serviço Nacional de Saúde,FALSE
ADALIMUMAB 40 MG/0.4 ML SOL INJ CANETA 0.4 ML SC - CPA 2017/6,Ao abrigo de acordo-quadro (art.º 259.º),Aquisição de bens móveis,"33600000-6, Produtos farmacêuticos","Hospital Garcia de Orta, E. P. E. (506361470)","ABBVIE, LDA (510229050)","108.018,00 €",31-10-2018,26-07-2018,30 dias,"Portugal, Setúbal, Almada",Artigo 259.º do Código dos Contratos Públicos,,,,,,2969238,"CP 2017/6 - Acordo Quadro para fornecimento de Medicamentos do Foro Oncológico e Imunomoduladores, às Instituições e Serviços do Serviço Nacional de Saúde",FALSE
IBRUTINIB 140 MG CÁPS - CPA 2017/65,Ao abrigo de acordo-quadro (art.º 259.º),Aquisição de bens móveis,"33600000-6, Produtos farmacêuticos","Hospital Garcia de Orta, E. P. E. (506361470)","JANSSEN CILAG FARMACÊUTICA, LDA (500189412)","21.986,28 €",31-10-2018,31-07-2018,120 dias,"Portugal, Setúbal, Almada",Artigo 259.º do Código dos Contratos Públicos,,,,,,2556987,"CP 2017/65 - Acordo Quadro para fornecimento de Medicamentos de Várias áreas Terapêuticas, às Instituições e Serviços do Serviço Nacional de Saúde",FALSE
SOMATROPINA 10 MG/1.5 ML SOL INJ CARTU 1.5 ML SC (OMNITROPE) - CPA 2015/7,Ao abrigo de acordo-quadro (art.º 259.º),Aquisição de bens móveis,"33600000-6, Produtos farmacêuticos","Hospital Garcia de Orta, E. P. E. (506361470)","Sandoz Farmacêutica, Lda (506985261)","6.750,00 €",31-10-2018,12-07-2018,90 dias,"Portugal, Setúbal, Almada",Artigo 259.º do Código dos Contratos Públicos,,,,,,1415640,CP 2015/7 - ACORDO QUADRO PARA FORNECIMENTO DE HORMONAS E OUTROS MEDICAMENTOS USADOS NO TRATAMENTO DAS DOENÇAS ENDÓCRINAS ÀS INSTITUIÇÕES E SERVIÇOS DO SERVIÇO NACIONAL DE SAÚDE,FALSE
Aquisição de DEGARRELIX [80 MG; PÓ E SOLV P/A SOL INJ.; FRS] - Processo de Aquisição IGIF N.º 11003718,Ao abrigo de acordo-quadro (art.º 259.º),Aquisição de bens móveis,"33600000-6, Produtos farmacêuticos","Hospital Garcia de Orta, E. P. E. (506361470)",FERRING PORTUG.-PROD.FARMAC. (502034831),"9.739,20 €",31-10-2018,16-01-2018,365 dias,"Portugal, Setúbal, Almada",Artigo 259.º do Código dos Contratos Públicos,,,,,,1771819,CP 2015/6 - Acordo quadro para o fornecimento de Medicamentos do Foro Oncológico,FALSE
CINACALCET 30 MG COMP - CPA 2015/47,Ao abrigo de acordo-quadro (art.º 259.º),Aquisição de bens móveis,"33600000-6, Produtos farmacêuticos","Hospital Garcia de Orta, E. P. E. (506361470)","Amgen Biofarmacêutica, S.A. (502942959)","14.026,99 €",31-10-2018,23-07-2018,90 dias,"Portugal, Setúbal, Almada",Artigo 259.º do Código dos Contratos Públicos,,,,,,1410779,CP 2015/47 - Acordo quadro para fornecimento de medicamentos do aparelho locomotor às instituições e serviços do serviço nacional de saúde,FALSE
USTECINUMAB 90 MG/1 ML SOL INJ SER 1 ML SC,Ajuste Direto Regime Geral,Aquisição de bens móveis,"33600000-6, Produtos farmacêuticos","Hospital Garcia de Orta, E. P. E. (506361470)","JANSSEN CILAG FARMACÊUTICA, LDA (500189412)","13.419,00 €",31-10-2018,05-07-2018,30 dias,"Portugal, Setúbal, Almada","Artigo 24.º, n.º 1, alínea e), subalínea iii) do Código dos Contratos Públicos",,,,,,Não aplicável.,Não aplicável.,FALSE
AGALSIDASE BETA 35 MG PÓ SOL INJ FR IV - CPA 2017/58,Ao abrigo de acordo-quadro (art.º 259.º),Aquisição de bens móveis,"33600000-6, Produtos farmacêuticos","Hospital Garcia de Orta, E. P. E. (506361470)","Sanofi - Produtos Farmacêuticos, Lda (500134960)","21.273,60 €",31-10-2018,07-08-2018,60 dias,"Portugal, Setúbal, Almada",Artigo 259.º do Código dos Contratos Públicos,,,,,,2658382,CP 2017/58 - Acordo Quadro para fornecimento de Medicamentos para Doenças Lisossomais de Sobrecarga às Instituições e Serviços do Serviço Nacional de Saúde,FALSE
ERLOTINIBS - Aquisição P259-2018-58,Ao abrigo de acordo-quadro (art.º 259.º),Aquisição de bens móveis,"33600000-6, Produtos farmacêuticos","Hospital Garcia de Orta, E. P. E. (506361470)","ROCHE FARMACÊUTICA QUÍMICA, LDA (500233810)","18.821,70 €",31-10-2018,04-07-2018,180 dias,"Portugal, Setúbal, Almada",Artigo 259.º do Código dos Contratos Públicos,,,,,,1771819,CP 2015/6 - Acordo quadro para o fornecimento de Medicamentos do Foro Oncológico,FALSE
Aquisição de Medicamentos para 2018: P259-2018-63,Ao abrigo de acordo-quadro (art.º 259.º),Aquisição de bens móveis,"33600000-6, Produtos farmacêuticos","Hospital Garcia de Orta, E. P. E. (506361470)","ROCHE FARMACÊUTICA QUÍMICA, LDA (500233810)","132.481,05 €",31-10-2018,05-07-2018,180 dias,"Portugal, Setúbal, Almada",Artigo 259.º do Código dos Contratos Públicos,,,,,,1771819,CP 2015/6 - Acordo quadro para o fornecimento de Medicamentos do Foro Oncológico,FALSE
ILOPROST 0.05 MG/0.5 ML SOL INJ FR 0.5 ML IV(ILOMEDIN) - P259-2018-73,Ao abrigo de acordo-quadro (art.º 259.º),Aquisição de bens móveis,"33600000-6, Produtos farmacêuticos","Hospital Garcia de Orta, E. P. E. (506361470)","BAYER PORTUGAL, LDA (500043256)","8.521,60 €",31-10-2018,12-07-2018,150 dias,"Portugal, Setúbal, Almada",Artigo 259.º do Código dos Contratos Públicos,,,,,,2489595,CP 2016/18 - Acordo quadro para fornecimento de Medicamentos do Grupo 4: Sangue às Instituições e Serviços do Serviço Nacional de Saúde,FALSE
Aquisição de Medicamentos para 2018 - Proc. SPMS: P259-AC-2017-164,Ao abrigo de acordo-quadro (art.º 259.º),Aquisição de bens móveis,"33600000-6, Produtos farmacêuticos","Hospital Garcia de Orta, E. P. E. (506361470)","MERCK SHARP E DOHME, LDA (500191360)","171.408,40 €",31-10-2018,23-01-2018,365 dias,"Portugal, Setúbal, Almada",Artigo 259.º do Código dos Contratos Públicos,,,,,,2775699,"CP 2017/50 - Medicação antialérgica, vitaminas e sais minerais, medicamentos usados no tratamento de intoxicações e grupo 20.9",FALSE
GLATIRÂMERO (ACETATO) 20 MG PÓ SOL INJ FR SC - P259-2018-70,Ao abrigo de acordo-quadro (art.º 259.º),Aquisição de bens móveis,"33600000-6, Produtos farmacêuticos","Hospital Garcia de Orta, E. P. E. (506361470)","TEVA PHARMA - PRODUTOS FARMACEUTICOS,LDA (507045491)","24.977,13 €",31-10-2018,04-07-2018,180 dias,"Portugal, Setúbal, Almada",Artigo 259.º do Código dos Contratos Públicos,,,,,,2969238,"CP 2017/6 - Acordo Quadro para fornecimento de Medicamentos do Foro Oncológico e Imunomoduladores, às Instituições e Serviços do Serviço Nacional de Saúde",FALSE
Aquisição de Medicamentos p/2018 - P259-2018-30,Ao abrigo de acordo-quadro (art.º 259.º),Aquisição de bens móveis,"33600000-6, Produtos farmacêuticos","Hospital Garcia de Orta, E. P. E. (506361470)",KEDRION PORTUGAL (508472830),"534,60 €",31-10-2018,05-07-2018,180 dias,"Portugal, Setúbal, Almada",Artigo 259.º do Código dos Contratos Públicos,,,,,,2800702,CP 2017/9 - Acordo quadro para fornecimento de Derivados do Plasma Humano às Instituições e Serviços do Serviço Nacional de Saúde,FALSE
Aquisição de Medicamentos p/2018 - P259-2018-30,Ao abrigo de acordo-quadro (art.º 259.º),Aquisição de bens móveis,"33600000-6, Produtos farmacêuticos","Hospital Garcia de Orta, E. P. E. (506361470)","Grifols, Lda. (502041285)","52.100,00 €",31-10-2018,05-07-2018,180 dias,"Portugal, Setúbal, Almada",Artigo 259.º do Código dos Contratos Públicos,,,,,,2800702,CP 2017/9 - Acordo quadro para fornecimento de Derivados do Plasma Humano às Instituições e Serviços do Serviço Nacional de Saúde,FALSE
Aquisição de TREPROSTINILO [5MG/ML; 20 ML; SOL INJ; F/AMP] - Proc. SPMS: P259-AC-2017-156,Ao abrigo de acordo-quadro (art.º 259.º),Aquisição de bens móveis,"33600000-6, Produtos farmacêuticos","Hospital Garcia de Orta, E. P. E. (506361470)","FERRER PORTUGAL, S.A. (500069190)","440.550,00 €",31-10-2018,29-01-2018,365 dias,"Portugal, Setúbal, Almada",Artigo 259.º do Código dos Contratos Públicos,,,,,,2489595,CP 2016/18 - Acordo quadro para fornecimento de Medicamentos do Grupo 4: Sangue às Instituições e Serviços do Serviço Nacional de Saúde,FALSE
ABATACEPT 250 MG PÓ CONC SOL INJ FR IV - P259-2018-74,Ao abrigo de acordo-quadro (art.º 259.º),Aquisição de bens móveis,"33600000-6, Produtos farmacêuticos","Hospital Garcia de Orta, E. P. E. (506361470)",BRISTOL-MYERS SQUIBB PORTUGAL (500207879),"39.830,00 €",31-10-2018,10-07-2018,180 dias,"Portugal, Setúbal, Almada",Artigo 259.º do Código dos Contratos Públicos,,,,,,2969238,"CP 2017/6 - Acordo Quadro para fornecimento de Medicamentos do Foro Oncológico e Imunomoduladores, às Instituições e Serviços do Serviço Nacional de Saúde",FALSE
LOPINAVIR 200 MG + RITONAVIR 50 MG COMP - P259-2018-77,Ao abrigo de acordo-quadro (art.º 259.º),Aquisição de bens móveis,"33600000-6, Produtos farmacêuticos","Hospital Garcia de Orta, E. P. E. (506361470)","ABBVIE, LDA (510229050)","37.005,46 €",31-10-2018,10-07-2018,180 dias,"Portugal, Setúbal, Almada",Artigo 259.º do Código dos Contratos Públicos,,,,,,2183729,Medicamentos antirretrovíricos para o tratamento da infeção por VIH,FALSE
SECUCINUMAB 150 MG/1 ML SOL INJ CANETA 1 ML SC - CPA 2017/61,Ao abrigo de acordo-quadro (art.º 259.º),Aquisição de bens móveis,"33600000-6, Produtos farmacêuticos","Hospital Garcia de Orta, E. P. E. (506361470)","Novartis Farma Produtos Farmacêuticos, SA (500063524)","25.269,30 €",31-10-2018,03-07-2018,30 dias,"Portugal<BR/>Portugal, Setúbal, Almada",Artigo 259.º do Código dos Contratos Públicos,,,,,,2545980,CP 2017/61 - Acordo quadro para fornecimento de Medicamentos Diversos   às Instituições e Serviços do Serviço Nacional de Saúde,FALSE
Aquisição de MITOMICINA [40MG; PÓ P/SOL INJ; FRS] - Processo de Aquisição IGIF N.º 11003518 (Proc. SPMS: P259-AC-2017-156),Ao abrigo de acordo-quadro (art.º 259.º),Aquisição de bens móveis,"33600000-6, Produtos farmacêuticos","Hospital Garcia de Orta, E. P. E. (506361470)","FERRER PORTUGAL, S.A. (500069190)","16.808,00 €",31-10-2018,29-01-2018,365 dias,"Portugal, Setúbal, Almada",Artigo 259.º do Código dos Contratos Públicos,,,,,,1771819,CP 2015/6 - Acordo quadro para o fornecimento de Medicamentos do Foro Oncológico,FALSE
DOLUTEGRAVIR 50 MG COMP - CPA 2017/61,Ao abrigo de acordo-quadro (art.º 259.º),Aquisição de bens móveis,"33600000-6, Produtos farmacêuticos","Hospital Garcia de Orta, E. P. E. (506361470)",VIIVVHIV Healthcare Unipessoal Lda (509117961),"198.000,45 €",31-10-2018,12-07-2018,30 dias,"Portugal, Setúbal, Almada",Artigo 259.º do Código dos Contratos Públicos,,,,,,2545980,CP 2017/61 - Acordo quadro para fornecimento de Medicamentos Diversos   às Instituições e Serviços do Serviço Nacional de Saúde,FALSE
RITUXIMAB 500 MG/50 ML BIOSSIMILAR (TRUXIMA) SOL INJ FR 50 ML IV - CPA 2017/6,Ao abrigo de acordo-quadro (art.º 259.º),Aquisição de bens móveis,"33600000-6, Produtos farmacêuticos","Hospital Garcia de Orta, E. P. E. (506361470)","PHARMAKERN PORTUGAL, Produtos Farmacêuticos Soc. Unipessoal Lda (507002571)","110.400,00 €",31-10-2018,03-07-2018,30 dias,"Portugal, Setúbal, Almada",Artigo 259.º do Código dos Contratos Públicos,,,,,,2969238,"CP 2017/6 - Acordo Quadro para fornecimento de Medicamentos do Foro Oncológico e Imunomoduladores, às Instituições e Serviços do Serviço Nacional de Saúde",FALSE
ETANERCEPT SERINGA 50 MG/1 ML SOL INJ  1 ML SC - CPA 2017/6,Ao abrigo de acordo-quadro (art.º 259.º),Aquisição de bens móveis,"33600000-6, Produtos farmacêuticos","Hospital Garcia de Orta, E. P. E. (506361470)","PFIZER BIOFARMACÊUTICA, SOCIEDADE UNIPESSOAL, LDA (513300376)","63.182,40 €",31-10-2018,05-07-2018,30 dias,"Portugal, Setúbal, Almada",Artigo 259.º do Código dos Contratos Públicos,,,,,,2969238,"CP 2017/6 - Acordo Quadro para fornecimento de Medicamentos do Foro Oncológico e Imunomoduladores, às Instituições e Serviços do Serviço Nacional de Saúde",FALSE
FENTANILO 0.05 MG/ML SOL INJ FR 2 ML IV - CPA 2016/44,Ao abrigo de acordo-quadro (art.º 259.º),Aquisição de bens móveis,"33000000-0, Equipamento médico, medicamentos e produtos para cuidados pessoais","Hospital Garcia de Orta, E. P. E. (506361470)","LABESFAL-LAB. ALMIRO, SA. (501169580)","7.880,00 €",31-10-2018,09-07-2018,180 dias,"Portugal, Setúbal, Almada",Artigo 259.º do Código dos Contratos Públicos,,,,,,1974985,"Medicamentos Analgésicos, Antipiréticos e Antidepressivos",FALSE
ETANERCEPT CANETA 50 MG/1 ML (BIOSSIMILAR - BENEPALI) SOL INJ  1 ML SC - CPA 2017/6,Ao abrigo de acordo-quadro (art.º 259.º),Aquisição de bens móveis,"33000000-0, Equipamento médico, medicamentos e produtos para cuidados pessoais","Hospital Garcia de Orta, E. P. E. (506361470)","BIOGEN IDEC PORTUGAL-SOC.FARM.UNIP, LDA (506415740)","11.040,00 €",31-10-2018,29-06-2018,30 dias,"Portugal, Setúbal, Almada",Artigo 259.º do Código dos Contratos Públicos,,,,,,2969238,"CP 2017/6 - Acordo Quadro para fornecimento de Medicamentos do Foro Oncológico e Imunomoduladores, às Instituições e Serviços do Serviço Nacional de Saúde",FALSE
AGALSIDASE BETA 35 MG PÓ SOL INJ FR IV - CPA 2017/58,Ao abrigo de acordo-quadro (art.º 259.º),Aquisição de bens móveis,"33000000-0, Equipamento médico, medicamentos e produtos para cuidados pessoais","Hospital Garcia de Orta, E. P. E. (506361470)","Sanofi - Produtos Farmacêuticos, Lda (500134960)","15.955,20 €",31-10-2018,27-06-2018,60 dias,"Portugal, Setúbal, Almada",Artigo 259.º do Código dos Contratos Públicos,,,,,,2658382,CP 2017/58 - Acordo Quadro para fornecimento de Medicamentos para Doenças Lisossomais de Sobrecarga às Instituições e Serviços do Serviço Nacional de Saúde,FALSE
RUXOLITINIB 20 MG COMP - CPA 2017/6,Ao abrigo de acordo-quadro (art.º 259.º),Aquisição de bens móveis,"33000000-0, Equipamento médico, medicamentos e produtos para cuidados pessoais","Hospital Garcia de Orta, E. P. E. (506361470)","Novartis Farma Produtos Farmacêuticos, SA (500063524)","31.116,78 €",31-10-2018,27-06-2018,90 dias,"Portugal, Setúbal, Almada",Artigo 259.º do Código dos Contratos Públicos,,,,,,2969238,"CP 2017/6 - Acordo Quadro para fornecimento de Medicamentos do Foro Oncológico e Imunomoduladores, às Instituições e Serviços do Serviço Nacional de Saúde",FALSE
CETAMINA 500 MG/10 ML SOL INJ FR 10 ML IM IV - CPA 2016/45,Ao abrigo de acordo-quadro (art.º 259.º),Aquisição de bens móveis,"33000000-0, Equipamento médico, medicamentos e produtos para cuidados pessoais","Hospital Garcia de Orta, E. P. E. (506361470)",HIKMA FARMACEUTICA (PORTUGAL) SA (502266791),"9.360,00 €",31-10-2018,28-06-2018,90 dias,"Portugal, Setúbal, Almada",Artigo 259.º do Código dos Contratos Públicos,,,,,,2211341,Medicamentos anestésicos e relaxantes musculares,FALSE
CONCENTRADO PROTROMBÍNICO - CPA 2017/9,Ao abrigo de acordo-quadro (art.º 259.º),Aquisição de bens móveis,"33000000-0, Equipamento médico, medicamentos e produtos para cuidados pessoais","Hospital Garcia de Orta, E. P. E. (506361470)",CSL Behring Lda (503047201),"5.610,00 €",31-10-2018,04-07-2018,30 dias,"Portugal, Setúbal, Almada",Artigo 259.º do Código dos Contratos Públicos,,,,,,2800702,CP 2017/9 - Acordo quadro para fornecimento de Derivados do Plasma Humano às Instituições e Serviços do Serviço Nacional de Saúde,FALSE
PLASMA HUMANO DO GRUPO A SOL INJ FR 200 ML IV - CPA 2017/9,Ao abrigo de acordo-quadro (art.º 259.º),Aquisição de bens móveis,"33000000-0, Equipamento médico, medicamentos e produtos para cuidados pessoais","Hospital Garcia de Orta, E. P. E. (506361470)",Octapharma Lda (502820780),"17.850,00 €",31-10-2018,29-06-2018,180 dias,"Portugal, Setúbal, Almada",Artigo 259.º do Código dos Contratos Públicos,,,,,,2800702,CP 2017/9 - Acordo quadro para fornecimento de Derivados do Plasma Humano às Instituições e Serviços do Serviço Nacional de Saúde,FALSE
RITUXIMAB 100 MG/10 ML BIOSSIMILAR (TRUXIMA) SOL INJ FR 10 ML IV - CPA 2017/6,Ao abrigo de acordo-quadro (art.º 259.º),Aquisição de bens móveis,"33000000-0, Equipamento médico, medicamentos e produtos para cuidados pessoais","Hospital Garcia de Orta, E. P. E. (506361470)","PHARMAKERN PORTUGAL, Produtos Farmacêuticos Soc. Unipessoal Lda (507002571)","16.740,00 €",31-10-2018,29-06-2018,180 dias,"Portugal, Setúbal, Almada",Artigo 259.º do Código dos Contratos Públicos,,,,,,2969238,"CP 2017/6 - Acordo Quadro para fornecimento de Medicamentos do Foro Oncológico e Imunomoduladores, às Instituições e Serviços do Serviço Nacional de Saúde",FALSE
Prestação de Serviços e Cuidados de Saúde na Área de Dermatologia - A.D. N.º 8407278,Ajuste Direto Regime Geral,Aquisição de serviços,"85121282-3, Serviços de dermatologia","Hospital Garcia de Orta, E. P. E. (506361470)","Lusiadas, SA (505962403)","39.980,00 €",30-10-2018,19-10-2018,365 dias,"Portugal, Setúbal, Almada","Artigo 24.º, n.º 1, alínea c) do Código dos Contratos Públicos",,,,,,Não aplicável.,Não aplicável.,FALSE
Aquisição de 2 VÍDEO-URETROCITOSCÓPIOS FLEXÍVEIS - C.P. N.º 0701418,Consulta Prévia,Aquisição de bens móveis,"33100000-1, Equipamento médico","Hospital Garcia de Orta, E. P. E. (506361470)","Lusopalex-Sociedade Distribuidora de Produtos Hospitalares Unipessoal, Lda (503531588)","30.000,00 €",30-10-2018,28-09-2018,30 dias,"Portugal, Setúbal, Almada","Artigo 20.º, n.º 1, alínea c) do Código dos Contratos Públicos",,,,,,Não aplicável.,Não aplicável.,FALSE
TRASTUZUMAB 600 MG/5 ML SOL INJ FR 5 ML SC - CPA 2017/6,Ao abrigo de acordo-quadro (art.º 259.º),Aquisição de bens móveis,"33600000-6, Produtos farmacêuticos","Hospital Garcia de Orta, E. P. E. (506361470)","ROCHE FARMACÊUTICA QUÍMICA, LDA (500233810)","65.257,92 €",30-10-2018,05-07-2018,90 dias,"Portugal, Setúbal, Almada",Artigo 259.º do Código dos Contratos Públicos,,,,,,2969238,"CP 2017/6 - Acordo Quadro para fornecimento de Medicamentos do Foro Oncológico e Imunomoduladores, às Instituições e Serviços do Serviço Nacional de Saúde",FALSE
ETANERCEPT CANETA 50 MG/1 ML SOL INJ  1 ML SC - CPA 2017/6,Ao abrigo de acordo-quadro (art.º 259.º),Aquisição de bens móveis,"33000000-0, Equipamento médico, medicamentos e produtos para cuidados pessoais","Hospital Garcia de Orta, E. P. E. (506361470)","PFIZER BIOFARMACÊUTICA, SOCIEDADE UNIPESSOAL, LDA (513300376)","47.375,00 €",30-10-2018,29-06-2018,30 dias,"Portugal, Setúbal, Almada",Artigo 259.º do Código dos Contratos Públicos,,,,,,2969238,"CP 2017/6 - Acordo Quadro para fornecimento de Medicamentos do Foro Oncológico e Imunomoduladores, às Instituições e Serviços do Serviço Nacional de Saúde",FALSE
INFLIXIMAB 100 MG (BIOSSIMILAR) PÓ CONC SOL INJ FR IV - CPA 2017/6,Ao abrigo de acordo-quadro (art.º 259.º),Aquisição de bens móveis,"33600000-6, Produtos farmacêuticos","Hospital Garcia de Orta, E. P. E. (506361470)","PHARMAKERN PORTUGAL, Produtos Farmacêuticos Soc. Unipessoal Lda (507002571)","55.440,00 €",30-10-2018,06-07-2018,30 dias,"Portugal, Setúbal, Almada",Artigo 259.º do Código dos Contratos Públicos,,,,,,2969238,"CP 2017/6 - Acordo Quadro para fornecimento de Medicamentos do Foro Oncológico e Imunomoduladores, às Instituições e Serviços do Serviço Nacional de Saúde",FALSE
Fornecimento e Montagem de 2 Colectores para AQS em Inox - A.D. N.º 8408148,Ajuste Direto Regime Geral,Aquisição de serviços<br/>Aquisição de bens móveis,"50514200-3, Serviços de reparação e manutenção de reservatórios","Hospital Garcia de Orta, E. P. E. (506361470)",SUCH-VEOLIA (503718289),"8.413,33 €",30-10-2018,23-10-2018,30 dias,"Portugal, Setúbal, Almada","Artigo 20.º, n.º 1, alínea d) do Código dos Contratos Públicos",,,,,,Não aplicável.,Não aplicável.,FALSE
CRIZOTINIB 200 MG CÁPS - CPA 2017/6,Ao abrigo de acordo-quadro (art.º 259.º),Aquisição de bens móveis,"33000000-0, Equipamento médico, medicamentos e produtos para cuidados pessoais","Hospital Garcia de Orta, E. P. E. (506361470)","PFIZER BIOFARMACÊUTICA, SOCIEDADE UNIPESSOAL, LDA (513300376)","14.178,02 €",30-10-2018,26-06-2018,90 dias,"Portugal, Setúbal, Almada",Artigo 259.º do Código dos Contratos Públicos,,,,,,2969238,"CP 2017/6 - Acordo Quadro para fornecimento de Medicamentos do Foro Oncológico e Imunomoduladores, às Instituições e Serviços do Serviço Nacional de Saúde",FALSE
ATEZOLIZUMAB 60 MG/ML SOL INJ FR 20 ML IV,Ajuste Direto Regime Geral,Aquisição de bens móveis,"33000000-0, Equipamento médico, medicamentos e produtos para cuidados pessoais","Hospital Garcia de Orta, E. P. E. (506361470)","Roche Farmacêutica Química, Lda. (500233810)","49.890,72 €",30-10-2018,27-06-2018,90 dias,"Portugal, Setúbal, Almada","Artigo 24.º, n.º 1, alínea e), subalínea iii) do Código dos Contratos Públicos",,,,,,Não aplicável.,Não aplicável.,FALSE
REAGENTE DET HEMOGLOBINA A1C EMB,Ajuste Direto Regime Geral,Aquisição de bens móveis,"33000000-0, Equipamento médico, medicamentos e produtos para cuidados pessoais","Hospital Garcia de Orta, E. P. E. (506361470)","SIEMENS HEALTHCARE, LDA (507925173)","7.668,48 €",30-10-2018,29-06-2018,90 dias,"Portugal, Setúbal, Almada","Artigo 26.º, n.º 1, alínea a) do Código dos Contratos Públicos",,,,,,Não aplicável.,Não aplicável.,FALSE
RIBOCICLIB 200 MG COMP,Ajuste Direto Regime Geral,Aquisição de bens móveis,"33000000-0, Equipamento médico, medicamentos e produtos para cuidados pessoais","Hospital Garcia de Orta, E. P. E. (506361470)","Novartis Farma Produtos Farmacêuticos, SA (500063524)","30.999,97 €",30-10-2018,25-06-2018,180 dias,"Portugal, Setúbal, Almada","Artigo 24.º, n.º 1, alínea e), subalínea iii) do Código dos Contratos Públicos",,,,,,Não aplicável.,Não aplicável.,FALSE
Prestação de Serviços Médicos no Serviço de Medicina da Dor - C.P. N.º 0802318,Consulta Prévia,Aquisição de serviços,"85121200-5, Serviços de medicina especializada","Hospital Garcia de Orta, E. P. E. (506361470)",MIGUEL TADEU REIS E SILVA (223076716),"24.768,00 €",30-10-2018,17-10-2018,365 dias,"Portugal, Setúbal, Almada","Artigo 20.º, n.º 1, alínea c) do Código dos Contratos Públicos",,,,,,Não aplicável.,Não aplicável.,FALSE
SILTUXIMAB 100 MG PÓ CONC SOL INJ FR IV,Ajuste Direto Regime Geral,Aquisição de bens móveis,"33000000-0, Equipamento médico, medicamentos e produtos para cuidados pessoais","Hospital Garcia de Orta, E. P. E. (506361470)","JANSSEN CILAG FARMACÊUTICA, LDA (500189412)","7.321,28 €",30-10-2018,28-06-2018,30 dias,"Portugal, Setúbal, Almada","Artigo 24.º, n.º 1, alínea e), subalínea iii) do Código dos Contratos Públicos",,,,,,Não aplicável.,Não aplicável.,FALSE
PALBOCICLIB 125 MG CÁPS,Ajuste Direto Regime Geral,Aquisição de bens móveis,"33000000-0, Equipamento médico, medicamentos e produtos para cuidados pessoais","Hospital Garcia de Orta, E. P. E. (506361470)","PFIZER BIOFARMACEUTICA, SOCIEDADE UNIPESSOAL,LDA (513300376)","31.500,01 €",30-10-2018,27-06-2018,90 dias,"Portugal, Setúbal, Almada","Artigo 24.º, n.º 1, alínea e), subalínea iii) do Código dos Contratos Públicos",,,,,,Não aplicável.,Não aplicável.,FALSE
ALECTINIB 150 MG CÁPS,Ajuste Direto Regime Geral,Aquisição de bens móveis,"33000000-0, Equipamento médico, medicamentos e produtos para cuidados pessoais","Hospital Garcia de Orta, E. P. E. (506361470)","Roche Farmacêutica Química, Lda. (500233810)","11.271,68 €",30-10-2018,29-06-2018,60 dias,"Portugal, Setúbal, Almada","Artigo 24.º, n.º 1, alínea e), subalínea iii) do Código dos Contratos Públicos",,,,,,Não aplicável.,Não aplicável.,FALSE
SELEXIPAG 1000 ΜG COMP,Ajuste Direto Regime Geral,Aquisição de bens móveis,"33000000-0, Equipamento médico, medicamentos e produtos para cuidados pessoais","Hospital Garcia de Orta, E. P. E. (506361470)","ACTELION PHARMACEUTICALS PORTUGAL, LDA (507336488)","12.800,00 €",30-10-2018,29-06-2018,90 dias,"Portugal, Setúbal, Almada","Artigo 24.º, n.º 1, alínea e), subalínea iii) do Código dos Contratos Públicos",,,,,,Não aplicável.,Não aplicável.,FALSE
TENOFOVIR 245 MG COMP,Consulta Prévia,Aquisição de bens móveis,"33000000-0, Equipamento médico, medicamentos e produtos para cuidados pessoais","Hospital Garcia de Orta, E. P. E. (506361470)","Sandoz Farmacêutica, Lda (506985261)","6.037,50 €",30-10-2018,29-06-2018,30 dias,"Portugal, Setúbal, Almada","Artigo 20.º, n.º 1, alínea c) do Código dos Contratos Públicos",,,,,,Não aplicável.,Não aplicável.,FALSE
ADALIMUMAB 40 MG/0.4 ML SOL INJ CANETA 0.4 ML SC - CPA 2017/6,Ao abrigo de acordo-quadro (art.º 259.º),Aquisição de bens móveis,"33000000-0, Equipamento médico, medicamentos e produtos para cuidados pessoais","Hospital Garcia de Orta, E. P. E. (506361470)","ABBVIE, LDA (510229050)","108.018,00 €",30-10-2018,14-06-2018,30 dias,"Portugal, Setúbal, Almada",Artigo 259.º do Código dos Contratos Públicos,,,,,,2969238,"CP 2017/6 - Acordo Quadro para fornecimento de Medicamentos do Foro Oncológico e Imunomoduladores, às Instituições e Serviços do Serviço Nacional de Saúde",FALSE
TRASTUZUMAB EMTANSINA,Ajuste Direto Regime Geral,Aquisição de bens móveis,"33000000-0, Equipamento médico, medicamentos e produtos para cuidados pessoais","Hospital Garcia de Orta, E. P. E. (506361470)","Roche Farmacêutica Química, Lda. (500233810)","49.641,81 €",30-10-2018,29-06-2018,180 dias,"Portugal, Setúbal, Almada","Artigo 24.º, n.º 1, alínea e), subalínea iii) do Código dos Contratos Públicos",,,,,,Não aplicável.,Não aplicável.,FALSE
AMBRISENTANO 5 MG COMP - CPA 2016/1,Ao abrigo de acordo-quadro (art.º 259.º),Aquisição de bens móveis,"33000000-0, Equipamento médico, medicamentos e produtos para cuidados pessoais","Hospital Garcia de Orta, E. P. E. (506361470)",GLAXOSMITHKLINE - PRODUTOS FARMACEUTICOS (500139962),"10.507,07 €",30-10-2018,27-06-2018,150 dias,"Portugal, Setúbal, Almada",Artigo 259.º do Código dos Contratos Públicos,,,,,,2335591,CP 2016/01 - Acordo Quadro para fornecimento de Medicamentos do Aparelho Cardiovascular   às Instituições e Serviços do Serviço Nacional de Saúde,FALSE
LENALIDOMIDA 25 MG CÁPSULA,Ajuste Direto Regime Geral,Aquisição de bens móveis,"33000000-0, Equipamento médico, medicamentos e produtos para cuidados pessoais","Hospital Garcia de Orta, E. P. E. (506361470)",CELGENE SOCIEDADE UNIPESSOAL (507791690),"48.754,25 €",30-10-2018,29-06-2018,90 dias,"Portugal, Setúbal, Almada","Artigo 24.º, n.º 1, alínea e), subalínea iii) do Código dos Contratos Públicos",,,,,,Não aplicável.,Não aplicável.,FALSE
DIETA COMPLETA MODIFICADA ENRIQ. CELULÓSICO 500ML(FIBRA),Consulta Prévia,Aquisição de bens móveis,"33000000-0, Equipamento médico, medicamentos e produtos para cuidados pessoais","Hospital Garcia de Orta, E. P. E. (506361470)","FRESENIUS KABI PHARMA PORTUGAL, LDA (504293753)","9.330,17 €",30-10-2018,27-06-2018,180 dias,"Portugal, Setúbal, Almada","Artigo 20.º, n.º 1, alínea c) do Código dos Contratos Públicos",,,,,,Não aplicável.,Não aplicável.,FALSE
TEMOZOLOMIDAS,Consulta Prévia,Aquisição de bens móveis,"33600000-6, Produtos farmacêuticos","Hospital Garcia de Orta, E. P. E. (506361470)","Accord Heathcare, Unipessoal, Lda. (508622263)","25.802,20 €",30-10-2018,02-07-2018,180 dias,"Portugal, Setúbal, Almada","Artigo 20.º, n.º 1, alínea c) do Código dos Contratos Públicos",,,,,,Não aplicável.,Não aplicável.,FALSE
EFAVIRENZ 600 MG + EMTRICITABINA 200 MG + TENOFOVIR 245 MG COMP,Consulta Prévia,Aquisição de bens móveis,"33600000-6, Produtos farmacêuticos","Hospital Garcia de Orta, E. P. E. (506361470)","Sandoz Farmacêutica, Lda (506985261)","27.555,00 €",30-10-2018,15-06-2018,30 dias,"Portugal, Setúbal, Almada","Artigo 20.º, n.º 1, alínea c) do Código dos Contratos Públicos",,,,,,Não aplicável.,Não aplicável.,FALSE
EMTRICITABINA 200 MG + TENOFOVIR 245 MG COMP,Consulta Prévia,Aquisição de bens móveis,"33600000-6, Produtos farmacêuticos","Hospital Garcia de Orta, E. P. E. (506361470)","Sanofi - Produtos Farmacêuticos, Lda. (500134960)","119.250,00 €",30-10-2018,22-06-2018,30 dias,"Portugal, Setúbal, Almada","Artigo 20.º, n.º 1, alínea c) do Código dos Contratos Públicos",,,,,,Não aplicável.,Não aplicável.,FALSE
ELBASVIR 50 MG + GRAZOPREVIR 100 MG COMP - CPA 2017/67,Ao abrigo de acordo-quadro (art.º 259.º),Aquisição de bens móveis,"33600000-6, Produtos farmacêuticos","Hospital Garcia de Orta, E. P. E. (506361470)","Merck Sharp & Dohme, Lda. (500191360)","29.036,54 €",30-10-2018,17-05-2018,30 dias,"Portugal, Setúbal, Almada",Artigo 259.º do Código dos Contratos Públicos,,,,,,3023927,CP 2017/67 - Medicamentos para a Hepatite C crónica,FALSE
Prestação de Serviços Médicos no Serviço de Urgência Pediátrica - A.D. N.º 8403998,Ajuste Direto Regime Geral,Aquisição de serviços,"85121200-5, Serviços de medicina especializada","Hospital Garcia de Orta, E. P. E. (506361470)",HELENA DA SILVA COSTA PINTO (262775743),"7.260,00 €",29-10-2018,08-08-2018,365 dias,"Portugal, Setúbal, Almada","Artigo 20.º, n.º 1, alínea d) do Código dos Contratos Públicos",,,,,,Não aplicável.,Não aplicável.,FALSE
GLECAPREVIR 100 MG + PIBRENTASVIR 40 MG COMP - CPA 2017/67,Ao abrigo de acordo-quadro (art.º 259.º),Aquisição de bens móveis,"33600000-6, Produtos farmacêuticos","Hospital Garcia de Orta, E. P. E. (506361470)","ABBVIE, LDA (510229050)","99.000,00 €",29-10-2018,17-05-2018,30 dias,"Portugal, Setúbal, Almada",Artigo 259.º do Código dos Contratos Públicos,,,,,,3023927,CP 2017/67 - Medicamentos para a Hepatite C crónica,FALSE
SECUCINUMAB 150 MG/1 ML SOL INJ CANETA 1 ML SC - CPA 2017/61,Ao abrigo de acordo-quadro (art.º 259.º),Aquisição de bens móveis,"33600000-6, Produtos farmacêuticos","Hospital Garcia de Orta, E. P. E. (506361470)","Novartis Farma Produtos Farmacêuticos, SA (500063524)","21.057,75 €",29-10-2018,15-06-2018,30 dias,"Portugal, Setúbal, Almada",Artigo 259.º do Código dos Contratos Públicos,,,,,,2545980,CP 2017/61 - Acordo quadro para fornecimento de Medicamentos Diversos   às Instituições e Serviços do Serviço Nacional de Saúde,FALSE
Fornecimento de Consumíveis (excepto papel) e de Assistência Técnica a Equipamentos de Impressão Konica Minolta - A.D. N.º 8404938,Ajuste Direto Regime Geral,Aquisição de serviços,"71356200-0, Serviços de assistência técnica","Hospital Garcia de Orta, E. P. E. (506361470)","Kónica Minolta Business Solutions Portugal, Unipessoal, Lda (502120070)","28.404,48 €",29-10-2018,06-08-2018,180 dias,"Portugal, Setúbal, Almada","Artigo 24.º, n.º 1, alínea e), subalínea iii) do Código dos Contratos Públicos",,,,,,Não aplicável.,Não aplicável.,FALSE
IMUNOGLOBULINA HUMANA NORMAL 100 MG/ML SOL INJ FR 100 ML IV - CPA 2017/9,Ao abrigo de acordo-quadro (art.º 259.º),Aquisição de bens móveis,"33000000-0, Equipamento médico, medicamentos e produtos para cuidados pessoais","Hospital Garcia de Orta, E. P. E. (506361470)",CSL Behring Lda (503047201),"27.286,00 €",29-10-2018,08-06-2018,30 dias,"Portugal, Setúbal, Almada",Artigo 259.º do Código dos Contratos Públicos,,,,,,2800702,CP 2017/9 - Acordo quadro para fornecimento de Derivados do Plasma Humano às Instituições e Serviços do Serviço Nacional de Saúde,FALSE
IMUNOGLOBULINA HUMANA NORMAL 100 MG/ML SOL INJ FR 200 ML IV - CPA 2017/9,Ao abrigo de acordo-quadro (art.º 259.º),Aquisição de bens móveis,"33600000-6, Produtos farmacêuticos","Hospital Garcia de Orta, E. P. E. (506361470)",Octapharma Lda (502820780),"27.286,00 €",29-10-2018,08-06-2018,60 dias,"Portugal, Setúbal, Almada",Artigo 259.º do Código dos Contratos Públicos,,,,,,2800702,CP 2017/9 - Acordo quadro para fornecimento de Derivados do Plasma Humano às Instituições e Serviços do Serviço Nacional de Saúde,FALSE
ELTROMBOPAG 25 MG COMP - CPA 2016/18,Ao abrigo de acordo-quadro (art.º 259.º),Aquisição de bens móveis,"33600000-6, Produtos farmacêuticos","Hospital Garcia de Orta, E. P. E. (506361470)","Novartis Farma Produtos Farmacêuticos, SA (500063524)","13.120,49 €",29-10-2018,18-05-2018,210 dias,"Portugal, Setúbal, Almada",Artigo 259.º do Código dos Contratos Públicos,,,,,,2489595,CP 2016/18 - Acordo quadro para fornecimento de Medicamentos do Grupo 4: Sangue às Instituições e Serviços do Serviço Nacional de Saúde,FALSE
BENDAMUSTINA 100 MG PÓ CONC SOL INJ FR IV - CPA 2015/6,Ao abrigo de acordo-quadro (art.º 259.º),Aquisição de bens móveis,"33600000-6, Produtos farmacêuticos","Hospital Garcia de Orta, E. P. E. (506361470)","Accord Healthcare, Unipessoal, Lda. (508622263)","4.336,00 €",29-10-2018,14-05-2018,30 dias,"Portugal, Setúbal, Almada",Artigo 259.º do Código dos Contratos Públicos,,,,,,1771819,CP 2015/6 - Acordo quadro para o fornecimento de Medicamentos do Foro Oncológico,FALSE
ADALIMUMAB 40 MG/0.4 ML SOL INJ CANETA 0.4 ML SC - CPA 2015/6,Ao abrigo de acordo-quadro (art.º 259.º),Aquisição de bens móveis,"33000000-0, Equipamento médico, medicamentos e produtos para cuidados pessoais","Hospital Garcia de Orta, E. P. E. (506361470)","ABBVIE, LDA (510229050)","108.018,00 €",29-10-2018,17-05-2018,30 dias,"Portugal, Setúbal, Almada",Artigo 259.º do Código dos Contratos Públicos,,,,,,1771819,CP 2015/6 - Acordo quadro para o fornecimento de Medicamentos do Foro Oncológico,FALSE
AZUL DE METILENO 50 MG/10 ML SOL INJ FR 10 ML IV - CPA 2017/50,Ao abrigo de acordo-quadro (art.º 259.º),Aquisição de bens móveis,"33000000-0, Equipamento médico, medicamentos e produtos para cuidados pessoais","Hospital Garcia de Orta, E. P. E. (506361470)","LABESFAL-LAB. ALMIRO, SA. (501169580)","9.397,44 €",29-10-2018,22-05-2018,210 dias,"Portugal, Setúbal, Almada",Artigo 259.º do Código dos Contratos Públicos,,,,,,2775699,"CP 2017/50 - Medicação antialérgica, vitaminas e sais minerais, medicamentos usados no tratamento de intoxicações e grupo 20.9",FALSE
ETANERCEPT CANETA 50 MG/1 ML SOL INJ  1 ML SC - CPA 2015/6,Ao abrigo de acordo-quadro (art.º 259.º),Aquisição de bens móveis,"33600000-6, Produtos farmacêuticos","Hospital Garcia de Orta, E. P. E. (506361470)","PFIZER BIOFARMACÊUTICA, SOCIEDADE UNIPESSOAL, LDA (513300376)","47.376,00 €",29-10-2018,25-05-2018,30 dias,"Portugal, Setúbal, Almada",Artigo 259.º do Código dos Contratos Públicos,,,,,,1771819,CP 2015/6 - Acordo quadro para o fornecimento de Medicamentos do Foro Oncológico,FALSE
IMIGLUCERASE 400 U PÓ SOL INJ FR IV - CPA 2017/58,Ao abrigo de acordo-quadro (art.º 259.º),Aquisição de bens móveis,"33600000-6, Produtos farmacêuticos","Hospital Garcia de Orta, E. P. E. (506361470)","Sanofi - Produtos Farmacêuticos, Lda (500134960)","50.670,40 €",29-10-2018,07-06-2018,60 dias,"Portugal, Setúbal, Almada",Artigo 259.º do Código dos Contratos Públicos,,,,,,2658382,CP 2017/58 - Acordo Quadro para fornecimento de Medicamentos para Doenças Lisossomais de Sobrecarga às Instituições e Serviços do Serviço Nacional de Saúde,FALSE
PLASMA HUMANO DO GRUPO 0 - CPA 2017/9,Ao abrigo de acordo-quadro (art.º 259.º),Aquisição de bens móveis,"33600000-6, Produtos farmacêuticos","Hospital Garcia de Orta, E. P. E. (506361470)",Octapharma Lda (502820780),"21.420,00 €",29-10-2018,12-06-2018,210 dias,"Portugal, Setúbal, Almada",Artigo 259.º do Código dos Contratos Públicos,,,,,,2800702,CP 2017/9 - Acordo quadro para fornecimento de Derivados do Plasma Humano às Instituições e Serviços do Serviço Nacional de Saúde,FALSE
ETANERCEPT CANETA 50 MG/1 ML (BIOSSIMILAR - BENEPALI) SOL INJ  1 ML SC - CPA 2017/6,Ao abrigo de acordo-quadro (art.º 259.º),Aquisição de bens móveis,"33600000-6, Produtos farmacêuticos","Hospital Garcia de Orta, E. P. E. (506361470)","BIOGEN IDEC PORTUGAL-SOC.FARM.UNIP, LDA (506415740)","11.040,00 €",29-10-2018,12-06-2018,30 dias,"Portugal, Setúbal, Almada",Artigo 259.º do Código dos Contratos Públicos,,,,,,2969238,"CP 2017/6 - Acordo Quadro para fornecimento de Medicamentos do Foro Oncológico e Imunomoduladores, às Instituições e Serviços do Serviço Nacional de Saúde",FALSE
SECUCINUMAB 150 MG/1 ML SOL INJ CANETA 1 ML SC - CPA 2017/61,Ao abrigo de acordo-quadro (art.º 259.º),Aquisição de bens móveis,"33600000-6, Produtos farmacêuticos","Hospital Garcia de Orta, E. P. E. (506361470)","Novartis Farma Produtos Farmacêuticos, SA (500063524)","23.428,50 €",29-10-2018,12-06-2018,30 dias,"Portugal, Setúbal, Almada",Artigo 259.º do Código dos Contratos Públicos,,,,,,2545980,CP 2017/61 - Acordo quadro para fornecimento de Medicamentos Diversos   às Instituições e Serviços do Serviço Nacional de Saúde,FALSE
ABCIXIMAB 10 MG/5 ML SOL INJ FR 5 ML IV - CPA 2016/18,Ao abrigo de acordo-quadro (art.º 259.º),Aquisição de bens móveis,"33600000-6, Produtos farmacêuticos","Hospital Garcia de Orta, E. P. E. (506361470)","JANSSEN CILAG FARMACÊUTICA, LDA (500189412)","9.308,80 €",29-10-2018,12-06-2018,90 dias,"Portugal, Setúbal, Almada",Artigo 259.º do Código dos Contratos Públicos,,,,,,2489595,CP 2016/18 - Acordo quadro para fornecimento de Medicamentos do Grupo 4: Sangue às Instituições e Serviços do Serviço Nacional de Saúde,FALSE
NINTEDANIB 150 MG CÁPS,Ajuste Direto Regime Geral,Aquisição de bens móveis,"33600000-6, Produtos farmacêuticos","Hospital Garcia de Orta, E. P. E. (506361470)","Unilfarma União Internacional Laboratórios Farmacêuticos, Lda (500293023)","20.400,00 €",29-10-2018,27-06-2018,60 dias,"Portugal, Setúbal, Almada","Artigo 24.º, n.º 1, alínea e), subalínea iii) do Código dos Contratos Públicos",,,,,,Não aplicável.,Não aplicável.,FALSE
ILOPROST 20 ΜG/ML SOL INAL NEB FR 1 ML,Ajuste Direto Regime Geral,Aquisição de bens móveis,"33600000-6, Produtos farmacêuticos","Hospital Garcia de Orta, E. P. E. (506361470)","Bayer Portugal, Lda. (500043256)","14.021,28 €",29-10-2018,22-05-2018,90 dias,"Portugal, Setúbal, Almada","Artigo 24.º, n.º 1, alínea e), subalínea iii) do Código dos Contratos Públicos",,,,,,Não aplicável.,Não aplicável.,FALSE
PIRFENIDONA 801 MG COMP,Ajuste Direto Regime Geral,Aquisição de bens móveis,"33600000-6, Produtos farmacêuticos","Hospital Garcia de Orta, E. P. E. (506361470)","ROCHE FARMACÊUTICA QUIMICA, LDA. (500233810)","23.073,12 €",29-10-2018,22-05-2018,90 dias,"Portugal, Setúbal, Almada","Artigo 24.º, n.º 1, alínea e), subalínea iii) do Código dos Contratos Públicos",,,,,,Não aplicável.,Não aplicável.,FALSE
LIDOCAÍNA 20 MG/ML(2%) + ADRENALINA 0.018 MG/ML SOL INJ FR IM SC 20ML,Ajuste Direto Regime Geral,Aquisição de bens móveis,"33600000-6, Produtos farmacêuticos","Hospital Garcia de Orta, E. P. E. (506361470)",LABESFAL - LABORATORIOS ALMIRO S.A. (501169580),"7.450,00 €",29-10-2018,25-05-2018,210 dias,"Portugal, Setúbal, Almada","Artigo 24.º, n.º 1, alínea e), subalínea iii) do Código dos Contratos Públicos",,,,,,Não aplicável.,Não aplicável.,FALSE
AFATINIB 30 MG COMP,Ajuste Direto Regime Geral,Aquisição de bens móveis,"33600000-6, Produtos farmacêuticos","Hospital Garcia de Orta, E. P. E. (506361470)","Unilfarma União Internacional Laboratórios Farmacêuticos, Lda (500293023)","7.826,84 €",29-10-2018,25-05-2018,90 dias,"Portugal, Setúbal, Almada","Artigo 24.º, n.º 1, alínea e), subalínea iii) do Código dos Contratos Públicos",,,,,,Não aplicável.,Não aplicável.,FALSE
SELEXIPAG 1600 ΜG COMP,Ajuste Direto Regime Geral,Aquisição de bens móveis,"33600000-6, Produtos farmacêuticos","Hospital Garcia de Orta, E. P. E. (506361470)","ACTELION PHARMACEUTICALS PORTUGAL, LDA (507336488)","9.600,00 €",29-10-2018,25-05-2018,90 dias,"Portugal, Setúbal, Almada","Artigo 24.º, n.º 1, alínea e), subalínea iii) do Código dos Contratos Públicos",,,,,,Não aplicável.,Não aplicável.,FALSE
CEFTOLOZANO 1 G + TAZOBACTAM 0.5 G PÓ CONC SOL INJ FR IV,Ajuste Direto Regime Geral,Aquisição de bens móveis,"33000000-0, Equipamento médico, medicamentos e produtos para cuidados pessoais","Hospital Garcia de Orta, E. P. E. (506361470)","Merck Sharp & Dohme, Lda. (500191360)","15.589,00 €",29-10-2018,12-06-2018,60 dias,"Portugal, Setúbal, Almada","Artigo 24.º, n.º 1, alínea e), subalínea iii) do Código dos Contratos Públicos",,,,,,Não aplicável.,Não aplicável.,FALSE
ATEZOLIZUMAB 60 MG/ML SOL INJ FR 20 ML IV,Ajuste Direto Regime Geral,Aquisição de bens móveis,"33600000-6, Produtos farmacêuticos","Hospital Garcia de Orta, E. P. E. (506361470)","ROCHE FARMACÊUTICA QUIMICA, LDA. (500233810)","24.945,36 €",29-10-2018,25-05-2018,60 dias,"Portugal, Setúbal, Almada","Artigo 24.º, n.º 1, alínea e), subalínea iii) do Código dos Contratos Públicos",,,,,,Não aplicável.,Não aplicável.,FALSE
SELEXIPAG 200 ΜG COMP,Ajuste Direto Regime Geral,Aquisição de bens móveis,"33600000-6, Produtos farmacêuticos","Hospital Garcia de Orta, E. P. E. (506361470)","ACTELION PHARMACEUTICALS PORTUGAL, LDA (507336488)","14.635,60 €",29-10-2018,15-06-2018,30 dias,"Portugal, Setúbal, Almada","Artigo 24.º, n.º 1, alínea e), subalínea iii) do Código dos Contratos Públicos",,,,,,Não aplicável.,Não aplicável.,FALSE
TRIFLURIDINA 20 MG + TIPIRACILO 8.19 MG COMP,Ajuste Direto Regime Geral,Aquisição de bens móveis,"33600000-6, Produtos farmacêuticos","Hospital Garcia de Orta, E. P. E. (506361470)",Servier Portugal (502177420),"7.920,00 €",26-10-2018,12-06-2018,150 dias,"Portugal, Setúbal, Almada","Artigo 24.º, n.º 1, alínea e), subalínea iii) do Código dos Contratos Públicos",,,,,,Não aplicável.,Não aplicável.,FALSE
EFAVIRENZ 600 MG + EMTRICITABINA 200 MG + TENOFOVIR 245 MG COMP,Consulta Prévia,Aquisição de bens móveis,"33000000-0, Equipamento médico, medicamentos e produtos para cuidados pessoais","Hospital Garcia de Orta, E. P. E. (506361470)","Sandoz Farmacêutica, Lda (506985261)","31.350,00 €",26-10-2018,15-05-2018,30 dias,"Portugal, Setúbal, Almada","Artigo 20.º, n.º 1, alínea c) do Código dos Contratos Públicos",,,,,,Não aplicável.,Não aplicável.,FALSE
SOLUÇÃO SALINA EQUILIBRADA BSS FRS 500 ML,Consulta Prévia,Aquisição de bens móveis,"33000000-0, Equipamento médico, medicamentos e produtos para cuidados pessoais","Hospital Garcia de Orta, E. P. E. (506361470)",Alcon (501251685),"7.686,00 €",26-10-2018,03-07-2018,240 dias,"Portugal, Setúbal, Almada","Artigo 20.º, n.º 1, alínea c) do Código dos Contratos Públicos",,,,,,Não aplicável.,Não aplicável.,FALSE
EMTRICITABINA 200 MG + TENOFOVIR 245 MG COMP,Consulta Prévia,Aquisição de bens móveis,"33000000-0, Equipamento médico, medicamentos e produtos para cuidados pessoais","Hospital Garcia de Orta, E. P. E. (506361470)","SANOFI- PRODUTOS FARMACÊUTICOS,LDA. (500134960)","119.250,00 €",26-10-2018,10-05-2018,30 dias,"Portugal, Setúbal, Almada","Artigo 20.º, n.º 1, alínea c) do Código dos Contratos Públicos",,,,,,Não aplicável.,Não aplicável.,FALSE
USTECINUMAB 90 MG/1 ML SOL INJ SER 1 ML SC,Ajuste Direto Regime Geral,Aquisição de bens móveis,"33000000-0, Equipamento médico, medicamentos e produtos para cuidados pessoais","Hospital Garcia de Orta, E. P. E. (506361470)","JANSSEN CILAG FARMACEUTICA, LDA. (500189412)","13.419,00 €",26-10-2018,18-05-2018,30 dias,"Portugal, Setúbal, Almada","Artigo 24.º, n.º 1, alínea e), subalínea iii) do Código dos Contratos Públicos",,,,,,Não aplicável.,Não aplicável.,FALSE
PLASMA HUMANO DO GRUPO AB SOL INJ FR 200 ML IV - CPA 2017/9,Ao abrigo de acordo-quadro (art.º 259.º),Aquisição de bens móveis,"33000000-0, Equipamento médico, medicamentos e produtos para cuidados pessoais","Hospital Garcia de Orta, E. P. E. (506361470)",Octapharma Lda (502820780),"7.318,50 €",26-10-2018,15-05-2018,210 dias,"Portugal, Setúbal, Almada",Artigo 259.º do Código dos Contratos Públicos,,,,,,2800702,CP 2017/9 - Acordo quadro para fornecimento de Derivados do Plasma Humano às Instituições e Serviços do Serviço Nacional de Saúde,FALSE
INFLIXIMAB 100 MG PÓ CONC SOL INJ FR IV - CPA 2015/6,Ao abrigo de acordo-quadro (art.º 259.º),Aquisição de bens móveis,"33000000-0, Equipamento médico, medicamentos e produtos para cuidados pessoais","Hospital Garcia de Orta, E. P. E. (506361470)","Merck Sharp & Dohme, Lda. (500191360)","25.900,00 €",26-10-2018,18-05-2018,30 dias,"Portugal, Setúbal, Almada",Artigo 259.º do Código dos Contratos Públicos,,,,,,1771819,CP 2015/6 - Acordo quadro para o fornecimento de Medicamentos do Foro Oncológico,FALSE
CRIZOTINIB 200 MG CÁPS - CPA 2015/6,Ao abrigo de acordo-quadro (art.º 259.º),Aquisição de bens móveis,"33000000-0, Equipamento médico, medicamentos e produtos para cuidados pessoais","Hospital Garcia de Orta, E. P. E. (506361470)",PZIFER BIOFARMACÊUTICA. LDA (513300376),"9.452,02 €",26-10-2018,18-05-2018,60 dias,"Portugal, Setúbal, Almada",Artigo 259.º do Código dos Contratos Públicos,,,,,,1771819,CP 2015/6 - Acordo quadro para o fornecimento de Medicamentos do Foro Oncológico,FALSE
TREPROSTINILO SODICO 1 MG/ML AMP 20 ML - CPA 2016/18,Ao abrigo de acordo-quadro (art.º 259.º),Aquisição de bens móveis,"33000000-0, Equipamento médico, medicamentos e produtos para cuidados pessoais","Hospital Garcia de Orta, E. P. E. (506361470)","FERRER PORTUGAL, S.A. (500069190)","14.252,76 €",26-10-2018,15-05-2018,120 dias,"Portugal, Setúbal, Almada",Artigo 259.º do Código dos Contratos Públicos,,,,,,2489595,CP 2016/18 - Acordo quadro para fornecimento de Medicamentos do Grupo 4: Sangue às Instituições e Serviços do Serviço Nacional de Saúde,FALSE
Medicamentos p/2018 - Aquisição P259-2018-38,Ao abrigo de acordo-quadro (art.º 259.º),Aquisição de bens móveis,"33000000-0, Equipamento médico, medicamentos e produtos para cuidados pessoais","Hospital Garcia de Orta, E. P. E. (506361470)","ROCHE FARMACÊUTICA QUIMICA, LDA. (500233810)","112.054,09 €",26-10-2018,10-05-2018,240 dias,"Portugal, Setúbal, Almada",Artigo 259.º do Código dos Contratos Públicos,,,,,,1771819,CP 2015/6 - Acordo quadro para o fornecimento de Medicamentos do Foro Oncológico,FALSE
Enoxaparinas - Aquisição Centralizada P259-2018-39,Ao abrigo de acordo-quadro (art.º 259.º),Aquisição de bens móveis,"33000000-0, Equipamento médico, medicamentos e produtos para cuidados pessoais","Hospital Garcia de Orta, E. P. E. (506361470)","Sanofi - Produtos Farmacêuticos, Lda. (500134960)","61.327,26 €",26-10-2018,10-05-2018,240 dias,"Portugal, Setúbal, Almada",Artigo 259.º do Código dos Contratos Públicos,,,,,,2489595,CP 2016/18 - Acordo quadro para fornecimento de Medicamentos do Grupo 4: Sangue às Instituições e Serviços do Serviço Nacional de Saúde,FALSE
CERTOLIZUMAB PEGOL 200 MG/1 ML SOL INJ SER 1 ML SC - Aquisição P259-2018-40,Ao abrigo de acordo-quadro (art.º 259.º),Aquisição de bens móveis,"33000000-0, Equipamento médico, medicamentos e produtos para cuidados pessoais","Hospital Garcia de Orta, E. P. E. (506361470)",UCB PHARMA PRODUTOS FARMACEUTICOS LDA (500291322),"102.822,40 €",26-10-2018,26-04-2018,240 dias,"Portugal, Setúbal, Almada",Artigo 259.º do Código dos Contratos Públicos,,,,,,2545980,CP 2017/61 - Acordo quadro para fornecimento de Medicamentos Diversos   às Instituições e Serviços do Serviço Nacional de Saúde,FALSE
Aquisição Centralizada SPMS (DASATINIB 50 MG COMP) - P259-2018-44,Ao abrigo de acordo-quadro (art.º 259.º),Aquisição de bens móveis,"33000000-0, Equipamento médico, medicamentos e produtos para cuidados pessoais","Hospital Garcia de Orta, E. P. E. (506361470)",BRISTOL-MYERS SQUIBB PORTUGAL (500207879),"43.655,39 €",26-10-2018,08-05-2018,240 dias,"Portugal, Setúbal, Almada",Artigo 259.º do Código dos Contratos Públicos,,,,,,1771819,CP 2015/6 - Acordo quadro para o fornecimento de Medicamentos do Foro Oncológico,FALSE
Medicamentos p/2018 (SORAFENIB 200 MG COMP) - SPMS P259-2018-52,Ao abrigo de acordo-quadro (art.º 259.º),Aquisição de bens móveis,"33000000-0, Equipamento médico, medicamentos e produtos para cuidados pessoais","Hospital Garcia de Orta, E. P. E. (506361470)","BAYER PORTUGAL, LDA (500043256)","112.806,40 €",26-10-2018,10-05-2018,240 dias,"Portugal, Setúbal, Almada",Artigo 259.º do Código dos Contratos Públicos,,,,,,1771819,CP 2015/6 - Acordo quadro para o fornecimento de Medicamentos do Foro Oncológico,FALSE
Medicamentos p/2018 (ILOPROST 10MG/ML) - SPMS P259-2018-52,Ao abrigo de acordo-quadro (art.º 259.º),Aquisição de bens móveis,"33000000-0, Equipamento médico, medicamentos e produtos para cuidados pessoais","Hospital Garcia de Orta, E. P. E. (506361470)","BAYER PORTUGAL, LDA (500043256)","24.144,00 €",26-10-2018,10-05-2018,240 dias,"Portugal, Setúbal, Almada",Artigo 259.º do Código dos Contratos Públicos,,,,,,2489595,CP 2016/18 - Acordo quadro para fornecimento de Medicamentos do Grupo 4: Sangue às Instituições e Serviços do Serviço Nacional de Saúde,FALSE
PANITUMUMAB 20 MG/ML - Aquisição Centralizada P259-2018-41,Ao abrigo de acordo-quadro (art.º 259.º),Aquisição de bens móveis,"33000000-0, Equipamento médico, medicamentos e produtos para cuidados pessoais","Hospital Garcia de Orta, E. P. E. (506361470)","Amgen Biofarmacêutica, S.A. (502942959)","60.166,62 €",26-10-2018,10-05-2018,240 dias,"Portugal, Setúbal, Almada",Artigo 259.º do Código dos Contratos Públicos,,,,,,1771819,CP 2015/6 - Acordo quadro para o fornecimento de Medicamentos do Foro Oncológico,FALSE
IMUNOGLOBULINA HUMANA NORMAL 100 MG/ML SOL INJ FR 50 ML IV,Ajuste Direto Regime Geral,Aquisição de bens móveis,"33000000-0, Equipamento médico, medicamentos e produtos para cuidados pessoais","Hospital Garcia de Orta, E. P. E. (506361470)",OCTAPHARMA (502820780),"9.745,00 €",26-10-2018,11-05-2018,30 dias,"Portugal, Setúbal, Almada","Artigo 24.º, n.º 1, alínea e), subalínea iii) do Código dos Contratos Públicos",,,,,,Não aplicável.,Não aplicável.,FALSE
TALIDOMIDA 50 MG CÁPS,Ajuste Direto Regime Geral,Aquisição de bens móveis,"33000000-0, Equipamento médico, medicamentos e produtos para cuidados pessoais","Hospital Garcia de Orta, E. P. E. (506361470)",CELGENE SOCIEDADE UNIPESSOAL (507791690),"14.560,00 €",26-10-2018,30-04-2018,30 dias,"Portugal, Setúbal, Almada","Artigo 24.º, n.º 1, alínea e), subalínea iii) do Código dos Contratos Públicos",,,,,,Não aplicável.,Não aplicável.,FALSE
RITUXIMAB 500 MG/50 ML BIOSSIMILAR (TRUXIMA) SOL INJ FR 50 ML IV,Ajuste Direto Regime Geral,Aquisição de bens móveis,"33000000-0, Equipamento médico, medicamentos e produtos para cuidados pessoais","Hospital Garcia de Orta, E. P. E. (506361470)","PHARMAKERN PORTUGAL, Produtos Farmacêuticos Soc. Unipessoal Lda (507002571)","27.600,00 €",26-10-2018,08-05-2018,30 dias,"Portugal, Setúbal, Almada","Artigo 24.º, n.º 1, alínea e), subalínea iii) do Código dos Contratos Públicos",,,,,,Não aplicável.,Não aplicável.,FALSE
REAGENTE P/ DET GLICOSE NO SANGUE EMB - ACCUCHECK,Ajuste Direto Regime Geral,Aquisição de bens móveis,"33000000-0, Equipamento médico, medicamentos e produtos para cuidados pessoais","Hospital Garcia de Orta, E. P. E. (506361470)","Roche Sistemas de Diagnóstico, Lda. (504282921)","5.600,00 €",26-10-2018,11-05-2018,60 dias,"Portugal, Setúbal, Almada","Artigo 26.º, n.º 1, alínea a) do Código dos Contratos Públicos",,,,,,Não aplicável.,Não aplicável.,FALSE
REAGENTE DET. QUANT. TEMPO PROTROMBINA EMB.,Ajuste Direto Regime Geral,Aquisição de bens móveis,"33000000-0, Equipamento médico, medicamentos e produtos para cuidados pessoais","Hospital Garcia de Orta, E. P. E. (506361470)","Roche Sistemas de Diagnóstico, Lda. (504282921)","16.417,80 €",26-10-2018,11-05-2018,90 dias,"Portugal, Setúbal, Almada","Artigo 26.º, n.º 1, alínea a) do Código dos Contratos Públicos",,,,,,Não aplicável.,Não aplicável.,FALSE
ETANERCEPT CANETA 50 MG/1 ML (BIOSSIMILAR - BENEPALI) SOL INJ  1 ML SC - CPA 2015/6,Ao abrigo de acordo-quadro (art.º 259.º),Aquisição de bens móveis,"33000000-0, Equipamento médico, medicamentos e produtos para cuidados pessoais","Hospital Garcia de Orta, E. P. E. (506361470)","BIOGEN IDEC PORTUGAL-SOC.FARM.UNIP, LDA (506415740)","11.040,00 €",26-10-2018,15-05-2018,30 dias,"Portugal, Setúbal, Almada",Artigo 259.º do Código dos Contratos Públicos,,,,,,1771819,CP 2015/6 - Acordo quadro para o fornecimento de Medicamentos do Foro Oncológico,FALSE
Medicamentos de Várias Áreas Terapêuticas - TENOFOVIR 245 MG COMP - CPA 2017/65,Ao abrigo de acordo-quadro (art.º 259.º),Aquisição de bens móveis,"33000000-0, Equipamento médico, medicamentos e produtos para cuidados pessoais","Hospital Garcia de Orta, E. P. E. (506361470)","TEVA PHARMA - PRODUTOS FARMACEUTICOS,LDA (507045491)","5.181,75 €",26-10-2018,18-05-2018,30 dias,"Portugal, Setúbal, Almada",Artigo 259.º do Código dos Contratos Públicos,,,,,,2556987,"CP 2017/65 - Acordo Quadro para fornecimento de Medicamentos de Várias áreas Terapêuticas, às Instituições e Serviços do Serviço Nacional de Saúde",FALSE
Medicamentos para Doenças Lisossomais de Sobrecarga - AGALSIDASE BETA 35 MG PÓ SOL INJ FR IV - CPA 2017/58,Ao abrigo de acordo-quadro (art.º 259.º),Aquisição de bens móveis,"33000000-0, Equipamento médico, medicamentos e produtos para cuidados pessoais","Hospital Garcia de Orta, E. P. E. (506361470)","Sanofi - Produtos Farmacêuticos, Lda. (500134960)","15.955,20 €",26-10-2018,11-05-2018,30 dias,"Portugal, Setúbal, Almada",Artigo 259.º do Código dos Contratos Públicos,,,,,,2658382,CP 2017/58 - Acordo Quadro para fornecimento de Medicamentos para Doenças Lisossomais de Sobrecarga às Instituições e Serviços do Serviço Nacional de Saúde,FALSE
Medicamentos do Foro Oncológico - INFLIXIMAB 100 MG (BIOSSIMILAR) PÓ CONC SOL INJ FR IV - CPA 2015/6,Ao abrigo de acordo-quadro (art.º 259.º),Aquisição de bens móveis,"33000000-0, Equipamento médico, medicamentos e produtos para cuidados pessoais","Hospital Garcia de Orta, E. P. E. (506361470)","PHARMAKERN PORTUGAL, Produtos Farmacêuticos Soc. Unipessoal Lda (507002571)","55.440,00 €",26-10-2018,03-05-2018,30 dias,"Portugal, Setúbal, Almada",Artigo 259.º do Código dos Contratos Públicos,,,,,,1771819,CP 2015/6 - Acordo quadro para o fornecimento de Medicamentos do Foro Oncológico,FALSE
Medicamentos estimulantes da eritropoiese - DARBEPOETINAS - CPA 2017/11,Ao abrigo de acordo-quadro (art.º 259.º),Aquisição de bens móveis,"33000000-0, Equipamento médico, medicamentos e produtos para cuidados pessoais","Hospital Garcia de Orta, E. P. E. (506361470)","Amgen Biofarmacêutica, S.A. (502942959)","32.400,00 €",26-10-2018,11-05-2018,30 dias,"Portugal, Setúbal, Almada",Artigo 259.º do Código dos Contratos Públicos,,,,,,2749216,CP 2017/11 - Acordo quadro para fornecimento de Medicamentos Estimulantes da eritropoiese às Instituições e Serviços do Serviço Nacional de Saúde,FALSE
Medicamentos do Aparelho Cardiovascular - AMBRISENTANO 5 MG COMP - CPA 2016/1,Ao abrigo de acordo-quadro (art.º 259.º),Aquisição de bens móveis,"33000000-0, Equipamento médico, medicamentos e produtos para cuidados pessoais","Hospital Garcia de Orta, E. P. E. (506361470)",GLAXOSMITHKLINE - PRODUTOS FARMACEUTICOS (500139962),"5.253,53 €",26-10-2018,15-05-2018,30 dias,"Portugal, Setúbal, Almada",Artigo 259.º do Código dos Contratos Públicos,,,,,,2335591,CP 2016/01 - Acordo Quadro para fornecimento de Medicamentos do Aparelho Cardiovascular   às Instituições e Serviços do Serviço Nacional de Saúde,FALSE
Prestação de Serviços Médicos no Serviço de Anestesiologia - C.P. N.º 0801338,Consulta Prévia,Aquisição de serviços,"85121200-5, Serviços de medicina especializada","Hospital Garcia de Orta, E. P. E. (506361470)","Dragon Memory - Unipessoal, Lda. (514105640)","70.400,00 €",25-10-2018,12-06-2018,365 dias,"Portugal, Setúbal, Almada","Artigo 20.º, n.º 1, alínea c) do Código dos Contratos Públicos",,,,,,Não aplicável.,Não aplicável.,FALSE
Derivados do Plasma Humano - IMUNOGLOBULINA HUMANA NORMAL 100 MG/ML SOL INJ FR 100 ML IV - CPA 2017/9,Ao abrigo de acordo-quadro (art.º 259.º),Aquisição de bens móveis,"33000000-0, Equipamento médico, medicamentos e produtos para cuidados pessoais","Hospital Garcia de Orta, E. P. E. (506361470)",OCTAPHARMA (502820780),"136.430,00 €",25-10-2018,26-04-2018,120 dias,"Portugal, Setúbal, Almada",Artigo 259.º do Código dos Contratos Públicos,,,,,,2800702,CP 2017/9 - Acordo quadro para fornecimento de Derivados do Plasma Humano às Instituições e Serviços do Serviço Nacional de Saúde,FALSE
Medicamentos Diversos - DOLUTEGRAVIR 50 MG COMP - CPA 2017/61,Ao abrigo de acordo-quadro (art.º 259.º),Aquisição de bens móveis,"33000000-0, Equipamento médico, medicamentos e produtos para cuidados pessoais","Hospital Garcia de Orta, E. P. E. (506361470)",VIIVVHIV Healthcare Unipessoal Lda (509117961),"132.000,30 €",25-10-2018,26-04-2018,90 dias,"Portugal, Setúbal, Almada",Artigo 259.º do Código dos Contratos Públicos,,,,,,2545980,CP 2017/61 - Acordo quadro para fornecimento de Medicamentos Diversos   às Instituições e Serviços do Serviço Nacional de Saúde,FALSE
Medicamentos Diversos - SECUCINUMAB 150 MG/1 ML SOL INJ CANETA 1 ML SC - CPA 2017/61,Ao abrigo de acordo-quadro (art.º 259.º),Aquisição de bens móveis,"33000000-0, Equipamento médico, medicamentos e produtos para cuidados pessoais","Hospital Garcia de Orta, E. P. E. (506361470)","Novartis Farma Produtos Farmacêuticos, SA (500063524)","18.742,80 €",25-10-2018,11-05-2018,30 dias,"Portugal, Setúbal, Almada",Artigo 259.º do Código dos Contratos Públicos,,,,,,2545980,CP 2017/61 - Acordo quadro para fornecimento de Medicamentos Diversos   às Instituições e Serviços do Serviço Nacional de Saúde,FALSE
Medicamentos anestésicos e relaxantes musculares - TOXINA BOTULÍNICA A 100 U PÓ SOL INJ FR ID IM SC (BOTOX) - CPA 2016/45,Ao abrigo de acordo-quadro (art.º 259.º),Aquisição de bens móveis,"33000000-0, Equipamento médico, medicamentos e produtos para cuidados pessoais","Hospital Garcia de Orta, E. P. E. (506361470)",PROFARIN DISTRIBUIDORA DE PROD. FARM. INDUSTRIAIS (500223238),"11.661,30 €",25-10-2018,11-05-2018,90 dias,"Portugal, Setúbal, Almada",Artigo 259.º do Código dos Contratos Públicos,,,,,,2211341,Medicamentos anestésicos e relaxantes musculares,FALSE
Medicamentos do Aparelho Digestivo - GLICERINA 5532 MG + GELATINA 78 MG/6.5 G GEL RECT BISN 6.5 G - CPA 2016/14,Ao abrigo de acordo-quadro (art.º 259.º),Aquisição de bens móveis,"33000000-0, Equipamento médico, medicamentos e produtos para cuidados pessoais","Hospital Garcia de Orta, E. P. E. (506361470)","Mylan, Lda (502248793)","10.260,00 €",25-10-2018,11-05-2018,365 dias,"Portugal, Setúbal, Almada",Artigo 259.º do Código dos Contratos Públicos,,,,,,2222779,Medicamentos do aparelho digestivo,FALSE
Medicamentos do Foro Oncológico - TRASTUZUMAB 150 MG PÓ CONC SOL INJ FR IV - CPA 2015/6,Ao abrigo de acordo-quadro (art.º 259.º),Aquisição de bens móveis,"33000000-0, Equipamento médico, medicamentos e produtos para cuidados pessoais","Hospital Garcia de Orta, E. P. E. (506361470)","ROCHE FARMACÊUTICA QUÍMICA, LDA (500233810)","9.758,60 €",25-10-2018,21-05-2018,30 dias,"Portugal, Setúbal, Almada",Artigo 259.º do Código dos Contratos Públicos,,,,,,1771819,CP 2015/6 - Acordo quadro para o fornecimento de Medicamentos do Foro Oncológico,FALSE
Consulta Prévia nº 00065818 - Nutrição Entérica para 2018,Consulta Prévia,Aquisição de bens móveis,"33000000-0, Equipamento médico, medicamentos e produtos para cuidados pessoais","Hospital Garcia de Orta, E. P. E. (506361470)","FRESENIUS KABI PHARMA PORTUGAL,LDA (504293753)","17.844,00 €",25-10-2018,11-05-2018,300 dias,"Portugal, Setúbal, Almada","Artigo 20.º, n.º 1, alínea c) do Código dos Contratos Públicos",,,,,,Não aplicável.,Não aplicável.,FALSE
Prestação de Serviços Médicos de Ginecologia e Obstetrícia na Urgência de Ginecologia e Obstetrícia - A.D. N.º 8404958,Ajuste Direto Regime Geral,Aquisição de serviços,"85121210-8, Serviços de ginecologia ou obstetrícia","Hospital Garcia de Orta, E. P. E. (506361470)",ANA CRISTINA SARDINHA BERNARDO (216887917),"6.073,00 €",25-10-2018,27-08-2018,365 dias,"Portugal, Setúbal, Almada","Artigo 20.º, n.º 1, alínea d) do Código dos Contratos Públicos",,,,,,Não aplicável.,Não aplicável.,FALSE
Medicamentos para 2018 (LOPINAVIR 200 MG + RITONAVIR 50 MG COMP): P259-2018-48,Ao abrigo de acordo-quadro (art.º 259.º),Aquisição de bens móveis,"33000000-0, Equipamento médico, medicamentos e produtos para cuidados pessoais","Hospital Garcia de Orta, E. P. E. (506361470)","ABBVIE, LDA (510229050)","22.602,14 €",25-10-2018,06-04-2018,365 dias,"Portugal, Setúbal, Almada",Artigo 259.º do Código dos Contratos Públicos,,,,,,2183729,Medicamentos antirretrovíricos para o tratamento da infeção por VIH,FALSE
"Antisséticos, desinfetantes e outros - CLOROHEXIDINA 2 MG/ML (0,2%)SOL LAV BOCA FR 300 ML - CPA 2015/8",Ao abrigo de acordo-quadro (art.º 259.º),Aquisição de bens móveis,"33000000-0, Equipamento médico, medicamentos e produtos para cuidados pessoais","Hospital Garcia de Orta, E. P. E. (506361470)",GLAXOSMITHKLINE - PRODUTOS FARMACEUTICOS (500139962),"41.990,00 €",25-10-2018,27-04-2018,120 dias,"Portugal, Setúbal, Almada",Artigo 259.º do Código dos Contratos Públicos,,,,,,1406003,CP 2015/8,FALSE
IMIGLUCERASE 400 U PÓ SOL INJ FR IV - CPA 2017/58,Ao abrigo de acordo-quadro (art.º 259.º),Aquisição de bens móveis,"33000000-0, Equipamento médico, medicamentos e produtos para cuidados pessoais","Hospital Garcia de Orta, E. P. E. (506361470)","Sanofi - Produtos Farmacêuticos, Lda. (500134960)","50.670,40 €",25-10-2018,12-04-2018,60 dias,"Portugal, Setúbal, Almada",Artigo 259.º do Código dos Contratos Públicos,,,,,,2658382,CP 2017/58 - Acordo Quadro para fornecimento de Medicamentos para Doenças Lisossomais de Sobrecarga às Instituições e Serviços do Serviço Nacional de Saúde,FALSE
Medicamentos do Foro Oncológico - ETANERCEPT CANETA 50 MG/1 ML SOL INJ  1 ML SC - CPA 2015/6,Ao abrigo de acordo-quadro (art.º 259.º),Aquisição de bens móveis,"33000000-0, Equipamento médico, medicamentos e produtos para cuidados pessoais","Hospital Garcia de Orta, E. P. E. (506361470)","PFIZER BIOFARMACÊUTICA, SOCIEDADE UNIPESSOAL, LDA. (513300376)","47.376,00 €",25-10-2018,17-04-2018,30 dias,"Portugal, Setúbal, Almada",Artigo 259.º do Código dos Contratos Públicos,,,,,,1771819,CP 2015/6 - Acordo quadro para o fornecimento de Medicamentos do Foro Oncológico,FALSE
Medicamentos do Foro Oncológico - ERLOTINIB 150 MG COMP - CPA 2015/6,Ao abrigo de acordo-quadro (art.º 259.º),Aquisição de bens móveis,"33000000-0, Equipamento médico, medicamentos e produtos para cuidados pessoais","Hospital Garcia de Orta, E. P. E. (506361470)","ROCHE FARMACÊUTICA QUÍMICA, LDA (500233810)","20.111,76 €",25-10-2018,17-04-2018,90 dias,"Portugal, Setúbal, Almada",Artigo 259.º do Código dos Contratos Públicos,,,,,,1771819,CP 2015/6 - Acordo quadro para o fornecimento de Medicamentos do Foro Oncológico,FALSE
Nutrição Parentérica - MIST. NUT. ALIM. PARENTÉRICA 1600 KCAL - CPA 2015/4,Ao abrigo de acordo-quadro (art.º 259.º),Aquisição de bens móveis,"33000000-0, Equipamento médico, medicamentos e produtos para cuidados pessoais","Hospital Garcia de Orta, E. P. E. (506361470)","FRESENIUS KABI PHARMA PORTUGAL,LDA (504293753)","8.958,60 €",25-10-2018,17-04-2018,30 dias,"Portugal, Setúbal, Almada",Artigo 259.º do Código dos Contratos Públicos,,,,,,1377429,Acordo Quadro para fornecimento de medicamentos para Nutrição Parentérica às Instituições e Serviços do Serviço Nacional de Saúde,FALSE
Medicamentos do Foro Oncológico - BASILIXIMAB 20 MG PÓ SOL INJ FR IV - CPA 2015/6,Ao abrigo de acordo-quadro (art.º 259.º),Aquisição de bens móveis,"33000000-0, Equipamento médico, medicamentos e produtos para cuidados pessoais","Hospital Garcia de Orta, E. P. E. (506361470)","Novartis Farma - Produtos Farmacêuticos, S.A. (500063524)","11.062,68 €",25-10-2018,17-04-2018,240 dias,"Portugal, Setúbal, Almada",Artigo 259.º do Código dos Contratos Públicos,,,,,,1771819,CP 2015/6 - Acordo quadro para o fornecimento de Medicamentos do Foro Oncológico,FALSE
Medicamentos anestésicos e relaxantes musculares - CETAMINA 500 MG/10 ML SOL INJ FR 10 ML IM IV - CPA 2016/45,Ao abrigo de acordo-quadro (art.º 259.º),Aquisição de bens móveis,"33000000-0, Equipamento médico, medicamentos e produtos para cuidados pessoais","Hospital Garcia de Orta, E. P. E. (506361470)",HIKMA FARMACÊUTICA (PORTUGAL) SA. (502266791),"9.360,00 €",25-10-2018,17-04-2018,90 dias,"Portugal, Setúbal, Almada",Artigo 259.º do Código dos Contratos Públicos,,,,,,2211341,Medicamentos anestésicos e relaxantes musculares,FALSE
Medicamentos do Foro Oncológico - BEVACIZUMAB 25 MG/ML SOL INJ FR 16 ML IV - CPA 2015/6,Ao abrigo de acordo-quadro (art.º 259.º),Aquisição de bens móveis,"33000000-0, Equipamento médico, medicamentos e produtos para cuidados pessoais","Hospital Garcia de Orta, E. P. E. (506361470)","ROCHE FARMACÊUTICA QUÍMICA, LDA (500233810)","113.682,00 €",25-10-2018,05-04-2018,90 dias,"Portugal, Setúbal, Almada",Artigo 259.º do Código dos Contratos Públicos,,,,,,1771819,CP 2015/6 - Acordo quadro para o fornecimento de Medicamentos do Foro Oncológico,FALSE
Medicamentos do Foro Oncológico - ERLOTINIB - CPA 2015/6,Ao abrigo de acordo-quadro (art.º 259.º),Aquisição de bens móveis,"33000000-0, Equipamento médico, medicamentos e produtos para cuidados pessoais","Hospital Garcia de Orta, E. P. E. (506361470)","ROCHE FARMACÊUTICA QUÍMICA, LDA (500233810)","28.629,90 €",25-10-2018,13-04-2018,90 dias,"Portugal, Setúbal, Almada",Artigo 259.º do Código dos Contratos Públicos,,,,,,1771819,CP 2015/6 - Acordo quadro para o fornecimento de Medicamentos do Foro Oncológico,FALSE
Medicamentos do Foro Oncológico - TRASTUZUMAB 600 MG/5 ML SOL INJ FR 5 ML SC - CPA 2015/6,Ao abrigo de acordo-quadro (art.º 259.º),Aquisição de bens móveis,"33000000-0, Equipamento médico, medicamentos e produtos para cuidados pessoais","Hospital Garcia de Orta, E. P. E. (506361470)","ROCHE FARMACÊUTICA QUÍMICA, LDA (500233810)","135.954,00 €",25-10-2018,12-04-2018,90 dias,"Portugal, Setúbal, Almada",Artigo 259.º do Código dos Contratos Públicos,,,,,,1771819,CP 2015/6 - Acordo quadro para o fornecimento de Medicamentos do Foro Oncológico,FALSE
Medicamentos do Foro Oncológico - INFLIXIMAB 100 MG PÓ CONC SOL INJ FR IV - CPA 2015/6,Ao abrigo de acordo-quadro (art.º 259.º),Aquisição de bens móveis,"33000000-0, Equipamento médico, medicamentos e produtos para cuidados pessoais","Hospital Garcia de Orta, E. P. E. (506361470)",MERCK SHARP & DOHME LDª (500191360),"19.425,00 €",25-10-2018,30-04-2018,30 dias,"Portugal, Setúbal, Almada",Artigo 259.º do Código dos Contratos Públicos,,,,,,1771819,CP 2015/6 - Acordo quadro para o fornecimento de Medicamentos do Foro Oncológico,FALSE
Medicamentos do Foro Oncológico - CARBOPLATINA 10 MG/ML SOL INJ FR 45 ML IV - CPA 2015/6,Ao abrigo de acordo-quadro (art.º 259.º),Aquisição de bens móveis,"33000000-0, Equipamento médico, medicamentos e produtos para cuidados pessoais","Hospital Garcia de Orta, E. P. E. (506361470)","FRESENIUS KABI PHARMA PORTUGAL,LDA (504293753)","6.685,00 €",25-10-2018,24-04-2018,180 dias,"Portugal, Setúbal, Almada",Artigo 259.º do Código dos Contratos Públicos,,,,,,1771819,CP 2015/6 - Acordo quadro para o fornecimento de Medicamentos do Foro Oncológico,FALSE
DESFERRASIROX 360 MG COMP - CPA 2017/50,Ao abrigo de acordo-quadro (art.º 259.º),Aquisição de bens móveis,"33000000-0, Equipamento médico, medicamentos e produtos para cuidados pessoais","Hospital Garcia de Orta, E. P. E. (506361470)","Novartis Farma - Produtos Farmacêuticos, S.A. (500063524)","19.170,00 €",25-10-2018,08-05-2018,90 dias,"Portugal, Setúbal, Almada",Artigo 259.º do Código dos Contratos Públicos,,,,,,2775699,"CP 2017/50 - Medicação antialérgica, vitaminas e sais minerais, medicamentos usados no tratamento de intoxicações e grupo 20.9",FALSE
Medicamentos de Várias Áreas Terapêuticas - ABACAVIR 600 MG + LAMIVUDINA 300 MG COMP - CPA 2017/65,Ao abrigo de acordo-quadro (art.º 259.º),Aquisição de bens móveis,"33000000-0, Equipamento médico, medicamentos e produtos para cuidados pessoais","Hospital Garcia de Orta, E. P. E. (506361470)","TEVA PHARMA - PRODUTOS FARMACEUTICOS,LDA (507045491)","14.064,75 €",24-10-2018,26-04-2018,30 dias,"Portugal, Setúbal, Almada",Artigo 259.º do Código dos Contratos Públicos,,,,,,2556987,"CP 2017/65 - Acordo Quadro para fornecimento de Medicamentos de Várias áreas Terapêuticas, às Instituições e Serviços do Serviço Nacional de Saúde",FALSE
Prestação de Serviços Médicos no Serviço de Anestesiologia - C.P. N.º 0801898,Consulta Prévia,Aquisição de serviços,"85121200-5, Serviços de medicina especializada","Hospital Garcia de Orta, E. P. E. (506361470)","PASSION SMILE, LDA. (514452692)","41.638,00 €",24-10-2018,28-08-2018,365 dias,"Portugal, Setúbal, Almada","Artigo 20.º, n.º 1, alínea c) do Código dos Contratos Públicos",,,,,,Não aplicável.,Não aplicável.,FALSE
Medicamentos do Aparelho Locomotor - CINACALCET 60 MG COMP - CPA 2015/47,Ao abrigo de acordo-quadro (art.º 259.º),Aquisição de bens móveis,"33000000-0, Equipamento médico, medicamentos e produtos para cuidados pessoais","Hospital Garcia de Orta, E. P. E. (506361470)","Amgen Biofarmacêutica, S.A. (502942959)","5.362,80 €",24-10-2018,17-04-2018,30 dias,"Portugal, Setúbal, Almada",Artigo 259.º do Código dos Contratos Públicos,,,,,,1410779,CP 2015/47 - Acordo quadro para fornecimento de medicamentos do aparelho locomotor às instituições e serviços do serviço nacional de saúde,FALSE
FORMOL TAMPONADO 4% BIDÃO 20 L,Consulta Prévia,Aquisição de bens móveis,"33000000-0, Equipamento médico, medicamentos e produtos para cuidados pessoais","Hospital Garcia de Orta, E. P. E. (506361470)","VWR International - Material de Laboratório, Lda (503842770)","7.124,85 €",24-10-2018,11-05-2018,300 dias,"Portugal, Setúbal, Almada","Artigo 20.º, n.º 1, alínea c) do Código dos Contratos Públicos",,,,,,Não aplicável.,Não aplicável.,FALSE
Prestação de Serviços Médicos na Urgência de Gastroenterologia - C.P. N.º 0801968,Consulta Prévia,Aquisição de serviços,"85121251-7, Serviços de gastroenterologia","Hospital Garcia de Orta, E. P. E. (506361470)",PAULO SÉRGIO ARRUDA MASSINHA (246645016),"50.697,68 €",24-10-2018,28-08-2018,365 dias,"Portugal, Setúbal, Almada","Artigo 20.º, n.º 1, alínea c) do Código dos Contratos Públicos",,,,,,Não aplicável.,Não aplicável.,FALSE
Ortoftaldeidos,Consulta Prévia,Aquisição de bens móveis,"33000000-0, Equipamento médico, medicamentos e produtos para cuidados pessoais","Hospital Garcia de Orta, E. P. E. (506361470)",Johnson (500153370),"20.328,40 €",24-10-2018,09-05-2018,300 dias,"Portugal, Setúbal, Almada","Artigo 20.º, n.º 1, alínea c) do Código dos Contratos Públicos",,,,,,Não aplicável.,Não aplicável.,FALSE
Medicamentos Radiofarmacos Exclusivos - Isoder,Ajuste Direto Regime Geral,Aquisição de bens móveis,"33000000-0, Equipamento médico, medicamentos e produtos para cuidados pessoais","Hospital Garcia de Orta, E. P. E. (506361470)",ISOTOPOS E DERIVADOS ISODER S.A (502241594),"60.930,00 €",24-10-2018,27-04-2018,240 dias,"Portugal, Setúbal, Almada","Artigo 24.º, n.º 1, alínea e), subalínea iii) do Código dos Contratos Públicos",,,,,,Não aplicável.,Não aplicável.,FALSE
CLOROHEXIDINA 54.84 MG/G CR BISN 50 G,Ajuste Direto Regime Geral,Aquisição de bens móveis,"33000000-0, Equipamento médico, medicamentos e produtos para cuidados pessoais","Hospital Garcia de Orta, E. P. E. (506361470)",CS PORTUGAL PRODUTOS FARMACEUTICOS (503395960),"5.880,00 €",24-10-2018,27-07-2018,150 dias,"Portugal, Setúbal, Almada","Artigo 24.º, n.º 1, alínea e), subalínea iii) do Código dos Contratos Públicos",,,,,,Não aplicável.,Não aplicável.,FALSE
PIRFENIDONA 267 MG CP,Ajuste Direto Regime Geral,Aquisição de bens móveis,"33000000-0, Equipamento médico, medicamentos e produtos para cuidados pessoais","Hospital Garcia de Orta, E. P. E. (506361470)","ROCHE FARMACÊUTICA QUÍMICA, LDA (500233810)","9.613,80 €",24-10-2018,17-04-2018,30 dias,"Portugal, Setúbal, Almada","Artigo 24.º, n.º 1, alínea e), subalínea iii) do Código dos Contratos Públicos",,,,,,Não aplicável.,Não aplicável.,FALSE
NETUPITANT 300 MG + PALONOSSETROM 0.5 MG CÁPS,Ajuste Direto Regime Geral,Aquisição de bens móveis,"33000000-0, Equipamento médico, medicamentos e produtos para cuidados pessoais","Hospital Garcia de Orta, E. P. E. (506361470)","OM Pharma, S.A. (500207410)","6.969,60 €",24-10-2018,30-04-2018,120 dias,"Portugal, Setúbal, Almada","Artigo 24.º, n.º 1, alínea e), subalínea iii) do Código dos Contratos Públicos",,,,,,Não aplicável.,Não aplicável.,FALSE
VEDOLIZUMAB 300 MG PÓ CONC SOL INJ FR IV,Ajuste Direto Regime Geral,Aquisição de bens móveis,"33000000-0, Equipamento médico, medicamentos e produtos para cuidados pessoais","Hospital Garcia de Orta, E. P. E. (506361470)","Takeda - Farmaceuticos Portugal, Lda. (502801204)","18.421,44 €",24-10-2018,17-04-2018,90 dias,"Portugal, Setúbal, Almada","Artigo 24.º, n.º 1, alínea e), subalínea iii) do Código dos Contratos Públicos",,,,,,Não aplicável.,Não aplicável.,FALSE
"HIALURONATO DE SODIO + LIDOCAINA ( 15MG + 10MG) /ML SER 0,8ML",Ajuste Direto Regime Geral,Aquisição de bens móveis,"33000000-0, Equipamento médico, medicamentos e produtos para cuidados pessoais","Hospital Garcia de Orta, E. P. E. (506361470)",Carl Zeiss (980503043),"6.960,00 €",24-10-2018,17-04-2018,60 dias,"Portugal, Setúbal, Almada","Artigo 24.º, n.º 1, alínea e), subalínea iii) do Código dos Contratos Públicos",,,,,,Não aplicável.,Não aplicável.,FALSE
TRASTUZUMAB EMTANSINA,Ajuste Direto Regime Geral,Aquisição de bens móveis,"33000000-0, Equipamento médico, medicamentos e produtos para cuidados pessoais","Hospital Garcia de Orta, E. P. E. (506361470)","ROCHE FARMACÊUTICA QUÍMICA, LDA (500233810)","39.510,81 €",24-10-2018,13-04-2018,60 dias,"Portugal, Setúbal, Almada","Artigo 24.º, n.º 1, alínea e), subalínea iii) do Código dos Contratos Públicos",,,,,,Não aplicável.,Não aplicável.,FALSE
SELANTE HEMOSTÁTICO MATRIZ ESTÉRIL - FLOSEAL,Ajuste Direto Regime Geral,Aquisição de bens móveis,"33000000-0, Equipamento médico, medicamentos e produtos para cuidados pessoais","Hospital Garcia de Orta, E. P. E. (506361470)"," BAXTER MEDICO - FARMACEUTICO, LDA (503347345)","9.600,00 €",24-10-2018,17-04-2018,60 dias,"Portugal, Setúbal, Almada","Artigo 24.º, n.º 1, alínea e), subalínea iii) do Código dos Contratos Públicos",,,,,,Não aplicável.,Não aplicável.,FALSE
Radiofármacos - até finalização do contrato,Ajuste Direto Regime Geral,Aquisição de bens móveis,"33000000-0, Equipamento médico, medicamentos e produtos para cuidados pessoais","Hospital Garcia de Orta, E. P. E. (506361470)",ISOTOPOS E DERIVADOS ISODER S.A (502241594),"14.655,00 €",24-10-2018,15-05-2018,30 dias,"Portugal, Setúbal, Almada","Artigo 24.º, n.º 1, alínea e), subalínea iii) do Código dos Contratos Públicos",,,,,,Não aplicável.,Não aplicável.,FALSE
Cardioversor,Ajuste Direto Regime Geral,Aquisição de bens móveis,"33000000-0, Equipamento médico, medicamentos e produtos para cuidados pessoais","Hospital Garcia de Orta, E. P. E. (506361470)","MEDTRONIC PORTUGAL, LDA (504223933)","13.875,00 €",24-10-2018,23-10-2018,60 dias,"Portugal, Setúbal, Almada","Artigo 20.º, n.º 1, alínea d) do Código dos Contratos Públicos",,,,,,Não aplicável.,Não aplicável.,FALSE
Medicamentos do Foro Oncológico - ETANERCEPT SERINGA 50 MG/1 ML SOL INJ  1 ML SC - CPA 2015/6,Ao abrigo de acordo-quadro (art.º 259.º),Aquisição de bens móveis,"33000000-0, Equipamento médico, medicamentos e produtos para cuidados pessoais","Hospital Garcia de Orta, E. P. E. (506361470)",PZIFER BIOFARMACÊUTICA. LDA (513300376),"63.182,40 €",24-10-2018,23-04-2018,60 dias,"Portugal, Setúbal, Almada",Artigo 259.º do Código dos Contratos Públicos,,,,,,1771819,CP 2015/6 - Acordo quadro para o fornecimento de Medicamentos do Foro Oncológico,FALSE
Prestação de Serviços Médicos no Serviço de Ortotraumatologia - C.P. N.º 0802038,Consulta Prévia,Aquisição de serviços,"85121200-5, Serviços de medicina especializada","Hospital Garcia de Orta, E. P. E. (506361470)",FRANCISCO SANTOS MERCIER OLIVEIRA (514615672),"26.024,00 €",23-10-2018,04-09-2018,365 dias,"Portugal, Setúbal, Almada","Artigo 20.º, n.º 1, alínea c) do Código dos Contratos Públicos",,,,,,Não aplicável.,Não aplicável.,FALSE
Prestação de Serviços Médicos no Serviço de Urgência de Ginecologia e Obstetrícia - C.P. N.º 0801618,Consulta Prévia,Aquisição de serviços,"85111300-3, Serviços hospitalares de ginecologia","Hospital Garcia de Orta, E. P. E. (506361470)",SARA COELHO POEIRA (203218329),"27.456,00 €",23-10-2018,09-07-2018,365 dias,"Portugal, Setúbal, Almada","Artigo 20.º, n.º 1, alínea c) do Código dos Contratos Públicos",,,,,,Não aplicável.,Não aplicável.,FALSE
Prestação de Serviços Médicos no Serviço de Ortotraumatologia - A.D. N.º 8407298,Ajuste Direto Regime Geral,Aquisição de serviços,"85121200-5, Serviços de medicina especializada","Hospital Garcia de Orta, E. P. E. (506361470)",JOÃO CARLOS TORRINHA VICENTE JORGE (217199119),"10.410,00 €",23-10-2018,04-10-2018,365 dias,"Portugal, Setúbal, Almada","Artigo 20.º, n.º 1, alínea d) do Código dos Contratos Públicos",,,,,,Não aplicável.,Não aplicável.,FALSE
Cardioversor,Ajuste Direto Regime Geral,Aquisição de bens móveis,"33000000-0, Equipamento médico, medicamentos e produtos para cuidados pessoais","Hospital Garcia de Orta, E. P. E. (506361470)","Biotronik Portugal, Unipessoal Lda. (510726941)","14.150,00 €",23-10-2018,15-10-2018,90 dias,"Portugal, Setúbal, Almada","Artigo 20.º, n.º 1, alínea d) do Código dos Contratos Públicos",,,,,,Não aplicável.,Não aplicável.,FALSE
Prestação de Serviços Médicos no Serviço de Ortopedia - C.P. N.º 0801528,Consulta Prévia,Aquisição de serviços,"85121283-0, Serviços de ortopedia","Hospital Garcia de Orta, E. P. E. (506361470)","IGOR LIMA MARTINS, UNIPESSOAL, LDA. (514964600)","56.083,20 €",23-10-2018,10-07-2018,365 dias,"Portugal, Setúbal, Almada","Artigo 20.º, n.º 1, alínea c) do Código dos Contratos Públicos",,,,,,Não aplicável.,Não aplicável.,FALSE
EFAVIRENZ 600 MG + EMTRICITABINA 200 MG + TENOFOVIR 245 MG COMP,Consulta Prévia,Aquisição de bens móveis,"33000000-0, Equipamento médico, medicamentos e produtos para cuidados pessoais","Hospital Garcia de Orta, E. P. E. (506361470)","Sandoz Farmacêutica, Lda (506985261)","34.200,00 €",23-10-2018,06-04-2018,30 dias,"Portugal, Setúbal, Almada","Artigo 20.º, n.º 1, alínea c) do Código dos Contratos Públicos",,,,,,Não aplicável.,Não aplicável.,FALSE
Cefazolina; Ceftriaxona; ciprofloxacina,Ao abrigo de acordo-quadro (art.º 259.º),Aquisição de bens móveis,"33600000-6, Produtos farmacêuticos","Hospital Garcia de Orta, E.P.E. (506361470)",OVERPHARMA- PRODUTOS MEDICOS FARMAC. LDA  (505792362),"22.500,00 €",22-10-2018,08-05-2018,300 dias,"Portugal, Setúbal, Almada",Artigo 259.º do Código dos Contratos Públicos,,,,,,2775691,CP 2017/5 - Acordo Quadro para fornecimento de Medicamentos anti-infeciosos: exceto antivíricos e antifúngicos,FALSE
Cefazolina; Ceftriaxona; ciprofloxacina,Ao abrigo de acordo-quadro (art.º 259.º),Aquisição de bens móveis,"33600000-6, Produtos farmacêuticos","Hospital Garcia de Orta, E.P.E. (506361470)",HIKMA FARMACEUTICA (PORTUGAL) SA (502266791),"27.220,00 €",22-10-2018,08-05-2018,300 dias,"Portugal, Setúbal, Almada",Artigo 259.º do Código dos Contratos Públicos,,,,,,2775691,CP 2017/5 - Acordo Quadro para fornecimento de Medicamentos anti-infeciosos: exceto antivíricos e antifúngicos,FALSE
Medicamentos usados como meios de diagnóstico em Imagiologia - CONTRASTE PARAMAGNÉTICO - CPA 2015/56,Ao abrigo de acordo-quadro (art.º 259.º),Aquisição de bens móveis,"33000000-0, Equipamento médico, medicamentos e produtos para cuidados pessoais","Hospital Garcia de Orta, E. P. E. (506361470)","A.MARTINS & FERNANDES,SA (501172114)","23.850,00 €",22-10-2018,06-04-2018,90 dias,"Portugal, Setúbal, Almada",Artigo 259.º do Código dos Contratos Públicos,,,,,,1473614,CP 2015/56 - Acordo quadro para fornecimento de medicamentos usados como meios de diagnóstico em Imagiologia às Instituições e Serviços do Serviço Nacional de Saúde,FALSE
Medicamentos anestésicos e relaxantes musculares - SEVOFLURANO LÍQ INAL VAPO FR 250 ML - CPA 2016/45,Ao abrigo de acordo-quadro (art.º 259.º),Aquisição de bens móveis,"33000000-0, Equipamento médico, medicamentos e produtos para cuidados pessoais","Hospital Garcia de Orta, E. P. E. (506361470)","ABBVIE, LDA (510229050)","18.360,00 €",22-10-2018,17-04-2018,90 dias,"Portugal, Setúbal, Almada",Artigo 259.º do Código dos Contratos Públicos,,,,,,2211341,Medicamentos anestésicos e relaxantes musculares,FALSE
Medicamentos anestésicos e relaxantes musculares - ROPIVACAÍNAS - CPA 2016/45,Ao abrigo de acordo-quadro (art.º 259.º),Aquisição de bens móveis,"33000000-0, Equipamento médico, medicamentos e produtos para cuidados pessoais","Hospital Garcia de Orta, E. P. E. (506361470)","FRESENIUS KABI PHARMA PORTUGAL,LDA (504293753)","11.974,00 €",22-10-2018,06-04-2018,270 dias,"Portugal, Setúbal, Almada",Artigo 259.º do Código dos Contratos Públicos,,,,,,2211341,Medicamentos anestésicos e relaxantes musculares,FALSE
Medicamentos do aparelho locomotor - CINACALCET 30 MG COMP - CPA 2015/47,Ao abrigo de acordo-quadro (art.º 259.º),Aquisição de bens móveis,"33000000-0, Equipamento médico, medicamentos e produtos para cuidados pessoais","Hospital Garcia de Orta, E. P. E. (506361470)","Amgen Biofarmacêutica, S.A. (502942959)","14.026,99 €",22-10-2018,06-04-2018,90 dias,"Portugal, Setúbal, Almada",Artigo 259.º do Código dos Contratos Públicos,,,,,,1410779,CP 2015/47 - Acordo quadro para fornecimento de medicamentos do aparelho locomotor às instituições e serviços do serviço nacional de saúde,FALSE
Medicamentos Estimulantes da eritropoiese - DARBEPOETINAS - CPA 2017/11,Ao abrigo de acordo-quadro (art.º 259.º),Aquisição de bens móveis,"33000000-0, Equipamento médico, medicamentos e produtos para cuidados pessoais","Hospital Garcia de Orta, E. P. E. (506361470)","Amgen Biofarmacêutica, S.A. (502942959)","31.410,00 €",22-10-2018,03-04-2018,30 dias,"Portugal, Setúbal, Almada",Artigo 259.º do Código dos Contratos Públicos,,,,,,2749216,CP 2017/11 - Acordo quadro para fornecimento de Medicamentos Estimulantes da eritropoiese às Instituições e Serviços do Serviço Nacional de Saúde,FALSE
