Objeto do Contrato,Tipo de Procedimento,Tipo(s) de Contrato,CPVs,Entidade(s) Adjudicante(s),Entidade(s) Adjudicatária(s),Preço Contratual,Data de Publicação,Data de Celebração do Contrato,Prazo de Execução,Local de Execução,Fundamentação,Data de Fecho do Contrato,Preço Total Efetivo,Causas das Alterações ao Prazo,Causas das Alterações ao Preço,Estado,N.º registo do Acordo Quadro,Descrição do Acordo Quadro,Procedimento Centralizado
Aquisição de Serviços para Comunicações Móveis com cedência de equipamentos,Consulta Prévia,Aquisição de serviços,"64210000-1, Serviços telefónicos e de transmissão de dados","Unidade Local de Saúde da Guarda, E. P. E. (508752000)","MEO- Serviços de Comunicações e Multimédia, S.A (504615947)","30.048,48 €",10-09-2018,22-08-2018,1095 dias,"Portugal, Guarda, Guarda","Artigo 20.º, n.º 1, alínea c) do Código dos Contratos Públicos",,,,,,Não aplicável.,Não aplicável.,FALSE
Fornecimento de Reagentes Autoimunidade e Alergologia,Concurso público,Aquisição de bens móveis,"33696000-5, Reagentes e meios de contraste","Unidade Local de Saúde da Guarda, E. P. E. (508752000)","EUROIMMUN PORTUGAL, UNIP.,LDA (504022180)","2.260,00 €",05-09-2018,25-07-2018,1095 dias,"Portugal, Guarda, Guarda","Artigo 20.º, n.º 1, alínea b) do Código dos Contratos Públicos",,,,,,Não aplicável.,Não aplicável.,FALSE
Fornecimento de Reagentes Autoimunidade e Alergologia,Concurso público,Aquisição de bens móveis,"33696000-5, Reagentes e meios de contraste","Unidade Local de Saúde da Guarda, E. P. E. (508752000)",WERFEN PORTUGAL LDA (501086110),"333.773,00 €",05-09-2018,31-07-2018,1095 dias,"Portugal, Guarda, Guarda","Artigo 20.º, n.º 1, alínea b) do Código dos Contratos Públicos",,,,,,Não aplicável.,Não aplicável.,FALSE
Fornecimento de Reagentes Autoimunidade e Alergologia,Concurso público,Aquisição de bens móveis,"33696000-5, Reagentes e meios de contraste","Unidade Local de Saúde da Guarda, E. P. E. (508752000)","Thermo Fisher Diagnostics, Soc. Unip. Lda. (506916243)","454.943,96 €",05-09-2018,03-08-2018,1095 dias,"Portugal, Guarda, Guarda","Artigo 20.º, n.º 1, alínea b) do Código dos Contratos Públicos",,,,,,Não aplicável.,Não aplicável.,FALSE
