Objeto do Contrato,Tipo de Procedimento,Tipo(s) de Contrato,CPVs,Entidade(s) Adjudicante(s),Entidade(s) Adjudicatária(s),Preço Contratual,Data de Publicação,Data de Celebração do Contrato,Prazo de Execução,Local de Execução,Fundamentação,Data de Fecho do Contrato,Preço Total Efetivo,Causas das Alterações ao Prazo,Causas das Alterações ao Preço,Estado,N.º registo do Acordo Quadro,Descrição do Acordo Quadro,Procedimento Centralizado
C.S. Mondim de Basto - Pinturas diversas,Ajuste Direto Regime Geral,Empreitadas de obras públicas,"45442180-2, Renovação de pintura","Administração Regional de Saúde do Norte, I. P. (503135593)","José Manuel Pinto & Ribeiro, Lda (502740639)","3.919,90 €",11-04-2017,27-07-2015,30 dias,"Portugal, Vila Real, Mondim de Basto","Artigo 19.º, alínea a) do Código dos Contratos Públicos","","3.919,90 €","Não houve alterações ao prazo. A receção só foi efetuada a 13.10, mas a obra foi terminada dentro do prazo.","",,Não aplicável.,Não aplicável.,FALSE
Aquisição de serviços relativa ao Programa de controlo de qualidade externo do Laboratório de Saúde Pública de Braga da ARS Norte I.P. APROV - PRT 17000827,Ajuste Direto Regime Geral,Aquisição de serviços,"71900000-7, Serviços laboratoriais","Administração Regional de Saúde do Norte, I. P. (503135593)","Biognóstica - Distribuição de Prod. Equip. Técnicos, Lda. (504441256)","2.298,00 €",11-04-2017,30-03-2017,270 dias,"Portugal, Braga, Braga","Artigo 20.º, n.º 1, alínea a) do Código dos Contratos Públicos",13-04-2017,"2.078,00 €","","A alteração de valor deveu-se ao facto de se ter realizado uma avaliação a menos que tinha o valor de 220,00 € sem IVA.",,Não aplicável.,Não aplicável.,FALSE
Aquisição de serviços relativo à calibração de equipamentos do Laboratório Regional de Saúde de Braga da ARS Norte I.P. Processo nº APROV - PRT 17000839,Ajuste Direto Regime Geral,Aquisição de serviços,"71900000-7, Serviços laboratoriais","Administração Regional de Saúde do Norte, I. P. (503135593)","Normax - Fábrica de Vidros Científicos, Lda (500203130)","1.014,03 €",11-04-2017,30-03-2017,250 dias,"Portugal, Braga, Braga","Artigo 20.º, n.º 1, alínea a) do Código dos Contratos Públicos",30-11-2017,"1.014,03 €","","",,Não aplicável.,Não aplicável.,FALSE
AP 2748 aquisição de 2.000 Kit terapia compressiva(pens+lig almof+lig comp)18/25c e 1.200 Kit terapia compressiva(pens+lig almof+lig comp)25/32cm,Ajuste Direto Regime Geral,Aquisição de bens móveis,"33140000-3, Material médico de consumo","Administração Regional de Saúde do Norte,IP (ARSN) (503135593)","Laboratórios Urgo, S.L.U.     (B-83608604)","44.800,00 €",11-04-2017,16-02-2017,315 dias,"Portugal, Vila Real, Vila Real<BR/>Portugal, Porto, Maia","Artigo 20.º, n.º 4 do Código dos Contratos Públicos",15-09-2017,"44.800,00 €","","",,Não aplicável.,Não aplicável.,FALSE
A.P. 2231 APROV - VR 17000167 - Aquisição de Bens - De Penso,Ajuste Direto Regime Geral,Aquisição de bens móveis,"33600000-6, Produtos farmacêuticos","Administração Regional de Saúde do Norte,IP (ARSN) (503135593)","Laboratórios Urgo, S.L.U.    (B-83608604)","13.300,00 €",11-04-2017,06-03-2017,365 dias,"Portugal, Porto, Maia<BR/>Portugal, Vila Real, Vila Real","Artigo 20.º, n.º 1, alínea a) do Código dos Contratos Públicos",15-09-2017,"13.300,00 €","","",,Não aplicável.,Não aplicável.,FALSE
A.P. 201 APROV - VR 17000479 - Aquisição de Bens - Medicamentos,Ao abrigo de acordo-quadro (art.º 259.º),Aquisição de bens móveis,"33140000-3, Material médico de consumo","Administração Regional de Saúde do Norte, I. P. (503135593)","AUROVITAS UNIPESSOAL, LDA    (513053239)","156,00 €",11-04-2017,10-04-2017,365 dias,"Portugal, Porto, Maia<BR/>Portugal, Vila Real, Vila Real",Artigo 259.º do Código dos Contratos Públicos,12-07-2017,"156,00 €","","",,1179911,"CONCURSO PÚBLICO PARA A CELEBRAÇÃO DE CONTRATOS PÚBLICOS DE APROVISIONAMENTO PARA A ÁREA DA SAÚDE, MEDICAMENTOS DO SISTEMA NERVOSO CEREBROSPINAL, EXCETO: ANESTÉSICOS, RELAXANTES MUSCULARES, ANALGÉSICOS, ANTIPIRÉTICOS, ANTIDEPRESSORES E ANTIPSICÓTICOS, ÀS INSTITUIÇÕES E SERVIÇOS DO SERVIÇO NACIONAL DE SAÚDE",FALSE
A.P. 201 APROV - VR 17000479 - Aquisição de Bens - Medicamentos,Ao abrigo de acordo-quadro (art.º 259.º),Aquisição de bens móveis,"33140000-3, Material médico de consumo","Administração Regional de Saúde do Norte, I. P. (503135593)","GENERIS FARMACÊUTICA,SA        (508107997)","31,50 €",11-04-2017,10-04-2017,365 dias,"Portugal, Vila Real, Vila Real<BR/>Portugal, Porto, Maia",Artigo 259.º do Código dos Contratos Públicos,27-11-2017,"","",cONTRATO CANCELADO. NÃO CUMPRE O VALOR MÍNIMO DE ENCOMENDA,,1179911,"CONCURSO PÚBLICO PARA A CELEBRAÇÃO DE CONTRATOS PÚBLICOS DE APROVISIONAMENTO PARA A ÁREA DA SAÚDE, MEDICAMENTOS DO SISTEMA NERVOSO CEREBROSPINAL, EXCETO: ANESTÉSICOS, RELAXANTES MUSCULARES, ANALGÉSICOS, ANTIPIRÉTICOS, ANTIDEPRESSORES E ANTIPSICÓTICOS, ÀS INSTITUIÇÕES E SERVIÇOS DO SERVIÇO NACIONAL DE SAÚDE",FALSE
Serviços prestados pela ACSS à ARS Norte no âmbito de aplicações Informáticas  - Aprov-Prt 17000218,Ajuste Direto Regime Geral,Aquisição de serviços,"72500000-0, Serviços relacionados com a informática","Administração Regional de Saúde do Norte, I. P. (503135593)","ACSS - Administração Central do Sistema de Saude, IP (508188423)","55.842,48 €",10-04-2017,15-02-2017,365 dias,"Portugal, Porto, Porto","Artigo 24.º, n.º 1, alínea c) do Código dos Contratos Públicos",14-12-2017,"55.842,48 €","","",,Não aplicável.,Não aplicável.,FALSE
Fornecimento de Combustíveis Rodoviários,Ao abrigo de acordo-quadro (art.º 259.º),Aquisição de bens móveis,"09130000-9, Petróleo e destilados","Administração Regional de Saúde do Norte, I. P. (503135593)","Petróleos de Portuigal - Petrogal, S.A, (500697370)","505.475,20 €",10-04-2017,31-03-2017,300 dias,"Portugal, Porto, Porto",Artigo 259.º do Código dos Contratos Públicos,"","","","",,400324,Acordo quadro de fornecimento de combustíveis rodoviários,FALSE
Aquisição de 1 488 unid. de penso poliuretano c/ silicone extra-fino 20 x 50 cm,Ajuste Direto Regime Geral,Aquisição de bens móveis,"33140000-3, Material médico de consumo","Administração Regional de Saúde do Norte, I. P. (503135593)",Molnlycke Health Care (511101066),"43.747,20 €",10-04-2017,03-03-2017,300 dias,"Portugal, Vila Real, Vila Real","Artigo 20.º, n.º 1, alínea a) do Código dos Contratos Públicos",24-08-2017,"43.747,20 €","","",,Não aplicável.,Não aplicável.,FALSE
Aquisição de serviços médicos sem especialidade para o CRI Porto Central - ET Cedofeita - APRO 17000121 - Procedimento nº125/2016/DICAD. Dr.ª Mónica Alexandra Almeida,Ajuste Direto Regime Geral,Aquisição de serviços,"79625000-1, Serviços de fornecimento de pessoal médico","Administração Regional de Saúde do Norte, I. P. (503135593)",Mónica Alexandra Ferreira de Almeida (209682175),"7.176,00 €",07-04-2017,14-02-2017,365 dias,"Portugal, Porto, Vila Nova de Gaia","Artigo 20.º, n.º 1, alínea a) do Código dos Contratos Públicos",31-12-2017,"6.072,00 €","",Numero de horas realizadas inferior ao numero de horas contratadas.,,Não aplicável.,Não aplicável.,FALSE
Aquisição de serviços médicos com especialidade para o ET Santa Maria da Feira adstrito à DICAD (APROV PRT17000121) - Procedimento n.º 141/2016/DICAD/ARSN - Dr.ª Ângela Maria Queirós Ribeiro,Ajuste Direto Regime Geral,Aquisição de serviços,"79625000-1, Serviços de fornecimento de pessoal médico","Administração Regional de Saúde do Norte, I. P. (503135593)",Ângela Maria Queirós Ribeiro (204948770),"21.060,00 €",07-04-2017,27-01-2017,365 dias,"Portugal, Porto, Vila Nova de Gaia","Artigo 20.º, n.º 1, alínea a) do Código dos Contratos Públicos",08-01-2018,"17.091,00 €","","Numero de horas semanais passaram de 15 h para 9,5 h semanais",,Não aplicável.,Não aplicável.,FALSE
"Aquisição de serviços médicos sem especialidade para o CRI Porto Ocidental - ET Matosinhos, adstrito à DICAD - APROV PRT 17000121 - 10 horas semanais - Procedimento n.º147/2016/DICAD/ARSN - Dr. Eduardo Jorge Palha Teixeira Fernandes",Ajuste Direto Regime Geral,Aquisição de serviços,"85121000-3, Serviços de prática médica","Administração Regional de Saúde do Norte, I. P. (503135593)",Eduardo Jorge Palha Teixeira Fernandes (248885421),"13.000,00 €",07-04-2017,30-01-2017,365 dias,"Portugal, Porto, Matosinhos","Artigo 20.º, n.º 1, alínea a) do Código dos Contratos Públicos",21-12-2017,"10.125,00 €","",Numero de horas realizadas inferior ao numero de horas contratadas.,,Não aplicável.,Não aplicável.,FALSE
A.P. 7 APROV - VR 17000199 - Aquisição de Bens - Outro/De Penso,Ajuste Direto Regime Geral,Aquisição de bens móveis,"33140000-3, Material médico de consumo","Administração Regional de Saúde do Norte,IP (ARSN) (503135593)",BASTOS VIEGAS S A - BESLEASING E FACTORING    (500042772),"1.491,00 €",07-04-2017,07-04-2017,365 dias,"Portugal, Porto, Maia<BR/>Portugal, Vila Real, Vila Real","Artigo 20.º, n.º 1, alínea a) do Código dos Contratos Públicos",05-09-2017,"1.491,00 €","","",,Não aplicável.,Não aplicável.,FALSE
Unidade de Saúde de Negrelos - Reparação de Infiltrações na cobertura e dos compartimentos afetados,Ajuste Direto Regime Geral,Empreitadas de obras públicas,"45259000-7, Reparação e manutenção de instalações","Administração Regional de Saúde do Norte,IP (ARSN) (503135593)",Matrice Lda (503884669),"4.941,00 €",07-04-2017,30-11-2016,30 dias,"Portugal, Porto, Santo Tirso","Artigo 19.º, alínea a) do Código dos Contratos Públicos","","4.941,00 €",Não houve alteração do prazo,"",,Não aplicável.,Não aplicável.,FALSE
Unidade de Saúde de Vizela - Reparações diversas,Ajuste Direto Regime Geral,Empreitadas de obras públicas,"45259000-7, Reparação e manutenção de instalações","Administração Regional de Saúde do Norte,IP (ARSN) (503135593)","José Manuel Pinto & Ribeiro, Lda (502740639)","3.520,50 €",07-04-2017,30-11-2016,15 dias,"Portugal, Braga, Vizela","Artigo 19.º, alínea a) do Código dos Contratos Públicos","","3.520,50 €",Não houve alteração do prazo,"",,Não aplicável.,Não aplicável.,FALSE
A.P. 2611 APROV - VR 17000024 - Aquisição de Bens - Medicamentos,Ao abrigo de acordo-quadro (art.º 259.º),Aquisição de bens móveis,"33600000-6, Produtos farmacêuticos","Administração Regional de Saúde do Norte, I. P. (503135593)","HIKMA FARMACEUTICA,LDA - BNP PARIBAS FACTOR  (502266791)","492,70 €",06-04-2017,06-04-2017,365 dias,"Portugal, Porto, Maia<BR/>Portugal, Vila Real, Vila Real",Artigo 259.º do Código dos Contratos Públicos,15-11-2017,"492,70 €","","",,1179915,"CONCURSO PÚBLICO PARA A CELEBRAÇÃO DE CONTRATOS PÚBLICOS DE APROVISIONAMENTO PARA A ÁREA DA SAÚDE, COM VISTA AO FORNECIMENTO DE MEDICAMENTOS DO APARELHO CARDIOVASCULAR, ÀS INSTITUIÇÕES E SERVIÇOS DO SERVIÇO NACIONAL DE SAÚDE",FALSE
A.P. 2611 APROV - VR 17000024 - Aquisição de Bens - Medicamentos,Ao abrigo de acordo-quadro (art.º 259.º),Aquisição de bens móveis,"33600000-6, Produtos farmacêuticos","Administração Regional de Saúde do Norte, I. P. (503135593)",UNILFARMA         (500293023),"9,93 €",06-04-2017,06-04-2017,365 dias,"Portugal, Porto, Maia<BR/>Portugal, Vila Real, Vila Real",Artigo 259.º do Código dos Contratos Públicos,07-06-2017,"9,93 €","","",,1179915,"CONCURSO PÚBLICO PARA A CELEBRAÇÃO DE CONTRATOS PÚBLICOS DE APROVISIONAMENTO PARA A ÁREA DA SAÚDE, COM VISTA AO FORNECIMENTO DE MEDICAMENTOS DO APARELHO CARDIOVASCULAR, ÀS INSTITUIÇÕES E SERVIÇOS DO SERVIÇO NACIONAL DE SAÚDE",FALSE
A.P. 2611 APROV - VR 17000024 - Aquisição de Bens - Medicamentos,Ao abrigo de acordo-quadro (art.º 259.º),Aquisição de bens móveis,"33600000-6, Produtos farmacêuticos","Administração Regional de Saúde do Norte, I. P. (503135593)","GENERIS FARMACÊUTICA,SA         (508107997)","198,72 €",06-04-2017,06-04-2017,365 dias,"Portugal, Vila Real, Vila Real<BR/>Portugal, Porto, Maia",Artigo 259.º do Código dos Contratos Públicos,27-06-2017,"198,72 €","","",,1179915,"CONCURSO PÚBLICO PARA A CELEBRAÇÃO DE CONTRATOS PÚBLICOS DE APROVISIONAMENTO PARA A ÁREA DA SAÚDE, COM VISTA AO FORNECIMENTO DE MEDICAMENTOS DO APARELHO CARDIOVASCULAR, ÀS INSTITUIÇÕES E SERVIÇOS DO SERVIÇO NACIONAL DE SAÚDE",FALSE
A.P. 2611 APROV - VR 17000024 - Aquisição de Bens - Medicamentos,Ao abrigo de acordo-quadro (art.º 259.º),Aquisição de bens móveis,"33600000-6, Produtos farmacêuticos","Administração Regional de Saúde do Norte, I. P. (503135593)",OVERPHARMA- PRODUTOS MEDICOS FARMAC. LDA      (505792362),"632,50 €",06-04-2017,06-04-2017,365 dias,"Portugal, Vila Real, Vila Real<BR/>Portugal, Porto, Maia",Artigo 259.º do Código dos Contratos Públicos,20-10-2017,"632,50 €","","",,1179915,"CONCURSO PÚBLICO PARA A CELEBRAÇÃO DE CONTRATOS PÚBLICOS DE APROVISIONAMENTO PARA A ÁREA DA SAÚDE, COM VISTA AO FORNECIMENTO DE MEDICAMENTOS DO APARELHO CARDIOVASCULAR, ÀS INSTITUIÇÕES E SERVIÇOS DO SERVIÇO NACIONAL DE SAÚDE",FALSE
A.P. 2611 APROV - VR 17000024 - Aquisição de Bens - Medicamentos,Ao abrigo de acordo-quadro (art.º 259.º),Aquisição de bens móveis,"33600000-6, Produtos farmacêuticos","Administração Regional de Saúde do Norte, I. P. (503135593)",PHARMAKERN PORTUGAL- PRODUTOS FARMACEUTICOS   (507002571),"7,51 €",06-04-2017,06-04-2017,365 dias,"Portugal, Porto, Maia<BR/>Portugal, Vila Real, Vila Real",Artigo 259.º do Código dos Contratos Públicos,19-10-2017,"7,51 €","","",,1179915,"CONCURSO PÚBLICO PARA A CELEBRAÇÃO DE CONTRATOS PÚBLICOS DE APROVISIONAMENTO PARA A ÁREA DA SAÚDE, COM VISTA AO FORNECIMENTO DE MEDICAMENTOS DO APARELHO CARDIOVASCULAR, ÀS INSTITUIÇÕES E SERVIÇOS DO SERVIÇO NACIONAL DE SAÚDE",FALSE
A.P. 2611 APROV - VR 17000024 - Aquisição de Bens - Medicamentos,Ao abrigo de acordo-quadro (art.º 259.º),Aquisição de bens móveis,"33600000-6, Produtos farmacêuticos","Administração Regional de Saúde do Norte, I. P. (503135593)",RATIOPHARM          (502414910),"34,78 €",06-04-2017,06-04-2017,365 dias,"Portugal, Porto, Maia<BR/>Portugal, Vila Real, Vila Real",Artigo 259.º do Código dos Contratos Públicos,10-04-2017,"34,78 €","","",,1179915,"CONCURSO PÚBLICO PARA A CELEBRAÇÃO DE CONTRATOS PÚBLICOS DE APROVISIONAMENTO PARA A ÁREA DA SAÚDE, COM VISTA AO FORNECIMENTO DE MEDICAMENTOS DO APARELHO CARDIOVASCULAR, ÀS INSTITUIÇÕES E SERVIÇOS DO SERVIÇO NACIONAL DE SAÚDE",FALSE
A.P. 2611 APROV - VR 17000024 - Aquisição de Bens - Medicamentos,Ao abrigo de acordo-quadro (art.º 259.º),Aquisição de bens móveis,"33600000-6, Produtos farmacêuticos","Administração Regional de Saúde do Norte, I. P. (503135593)",SANDOZ FARMACEUTICA LDA          (506985261),"17,34 €",06-04-2017,06-04-2017,365 dias,"Portugal, Vila Real, Vila Real<BR/>Portugal, Porto, Maia",Artigo 259.º do Código dos Contratos Públicos,24-10-2017,"17,34 €","","",,1179915,"CONCURSO PÚBLICO PARA A CELEBRAÇÃO DE CONTRATOS PÚBLICOS DE APROVISIONAMENTO PARA A ÁREA DA SAÚDE, COM VISTA AO FORNECIMENTO DE MEDICAMENTOS DO APARELHO CARDIOVASCULAR, ÀS INSTITUIÇÕES E SERVIÇOS DO SERVIÇO NACIONAL DE SAÚDE",FALSE
Aquisição Vacinas e Tuberculinas - APROV-PRT 16000042 (AP1210),Ao abrigo de acordo-quadro (art.º 259.º),Aquisição de bens móveis,"33651600-4, Vacinas","Administração Regional de Saúde do Norte, I. P. (503135593)","Sanofi Pasteur MSD, SA (507632796)","2.908.758,00 €",06-04-2017,14-06-2016,200 dias,"Portugal, Porto, Maia<BR/>Portugal, Distrito não determinado, Concelho não determinado<BR/>Portugal, Vila Real, Vila Real",Artigo 259.º do Código dos Contratos Públicos,31-12-2016,"2.908.758,00 €","","",,1923518,CP 2016/13 - Acordo Quadro para fornecimento de Vacinas e Tuberculinas   às Instituições e Serviços do Serviço Nacional de Saúde,FALSE
A.P. 2611 APROV - VR 17000024 - Aquisição de Bens - Medicamentos,Ao abrigo de acordo-quadro (art.º 259.º),Aquisição de bens móveis,"33600000-6, Produtos farmacêuticos","Administração Regional de Saúde do Norte, I. P. (503135593)",B BRAUN MEDICAL LDA   (501506543),"2.176,00 €",06-04-2017,06-04-2017,365 dias,"Portugal, Porto, Maia<BR/>Portugal, Vila Real, Vila Real",Artigo 259.º do Código dos Contratos Públicos,21-09-2017,"2.176,00 €","","",,1179915,"CONCURSO PÚBLICO PARA A CELEBRAÇÃO DE CONTRATOS PÚBLICOS DE APROVISIONAMENTO PARA A ÁREA DA SAÚDE, COM VISTA AO FORNECIMENTO DE MEDICAMENTOS DO APARELHO CARDIOVASCULAR, ÀS INSTITUIÇÕES E SERVIÇOS DO SERVIÇO NACIONAL DE SAÚDE",FALSE
Aquisição Vacinas e Tuberculinas - APROV-PRT 16000042 (AP1210),Ao abrigo de acordo-quadro (art.º 259.º),Aquisição de bens móveis,"33651600-4, Vacinas","Administração Regional de Saúde do Norte, I. P. (503135593)",Glaxosmithkline (500139962),"762.509,60 €",06-04-2017,30-03-2016,276 dias,"Portugal, Porto, Maia<BR/>Portugal, Vila Real, Vila Real<BR/>Portugal, Distrito não determinado, Concelho não determinado",Artigo 259.º do Código dos Contratos Públicos,31-12-2016,"762.509,60 €","","",,1923518,CP 2016/13 - Acordo Quadro para fornecimento de Vacinas e Tuberculinas   às Instituições e Serviços do Serviço Nacional de Saúde,FALSE
Aquisição Vacinas e Tuberculinas - APROV-PRT 16000042 (AP1210),Ao abrigo de acordo-quadro (art.º 259.º),Aquisição de bens móveis,"33651600-4, Vacinas","Administração Regional de Saúde do Norte, I. P. (503135593)","PFIZER BIOFARMACÊUTICA, SOCIEDADE UNIPESSOAL,LDA. (513300376)","3.338.290,00 €",06-04-2017,13-06-2016,201 dias,"Portugal, Porto, Maia<BR/>Portugal, Vila Real, Vila Real<BR/>Portugal, Distrito não determinado, Concelho não determinado",Artigo 259.º do Código dos Contratos Públicos,31-12-2016,"3.338.290,00 €","","",,1923518,CP 2016/13 - Acordo Quadro para fornecimento de Vacinas e Tuberculinas   às Instituições e Serviços do Serviço Nacional de Saúde,FALSE
Aquisição Vacinas e Tuberculinas - APROV-PRT 16000042 (AP1210),Ao abrigo de acordo-quadro (art.º 259.º),Aquisição de bens móveis,"33651600-4, Vacinas","Administração Regional de Saúde do Norte, I. P. (503135593)",Glaxosmithkline (500139962),"234.900,00 €",06-04-2017,29-06-2016,185 dias,"Portugal, Vila Real, Vila Real<BR/>Portugal, Distrito não determinado, Concelho não determinado<BR/>Portugal, Porto, Maia",Artigo 259.º do Código dos Contratos Públicos,31-12-2016,"234.900,00 €","","",,1923518,CP 2016/13 - Acordo Quadro para fornecimento de Vacinas e Tuberculinas   às Instituições e Serviços do Serviço Nacional de Saúde,FALSE
A.P. 2611 APROV - VR 17000024 - Aquisição de Bens - Medicamentos,Ao abrigo de acordo-quadro (art.º 259.º),Aquisição de bens móveis,"33600000-6, Produtos farmacêuticos","Administração Regional de Saúde do Norte, I. P. (503135593)","Sanofi - Produtos Farmacêuticos, Lda      (500134960)","4.305,00 €",06-04-2017,06-04-2017,365 dias,"Portugal, Vila Real, Vila Real<BR/>Portugal, Porto, Maia",Artigo 259.º do Código dos Contratos Públicos,07-11-2017,"4.305,00 €","","",,1179915,"CONCURSO PÚBLICO PARA A CELEBRAÇÃO DE CONTRATOS PÚBLICOS DE APROVISIONAMENTO PARA A ÁREA DA SAÚDE, COM VISTA AO FORNECIMENTO DE MEDICAMENTOS DO APARELHO CARDIOVASCULAR, ÀS INSTITUIÇÕES E SERVIÇOS DO SERVIÇO NACIONAL DE SAÚDE",FALSE
A.P. 2611 APROV - VR 17000024 - Aquisição de Bens - Medicamentos,Ao abrigo de acordo-quadro (art.º 259.º),Aquisição de bens móveis,"33600000-6, Produtos farmacêuticos","Administração Regional de Saúde do Norte, I. P. (503135593)","BAYER PORTUGAL, S.A.         (500043256)","108,00 €",06-04-2017,06-04-2017,365 dias,"Portugal, Porto, Maia<BR/>Portugal, Vila Real, Vila Real",Artigo 259.º do Código dos Contratos Públicos,06-11-2017,"108,00 €","","",,1179915,"CONCURSO PÚBLICO PARA A CELEBRAÇÃO DE CONTRATOS PÚBLICOS DE APROVISIONAMENTO PARA A ÁREA DA SAÚDE, COM VISTA AO FORNECIMENTO DE MEDICAMENTOS DO APARELHO CARDIOVASCULAR, ÀS INSTITUIÇÕES E SERVIÇOS DO SERVIÇO NACIONAL DE SAÚDE",FALSE
A.P. 2611 APROV - VR 17000024 - Aquisição de Bens - Medicamentos,Ao abrigo de acordo-quadro (art.º 259.º),Aquisição de bens móveis,"33600000-6, Produtos farmacêuticos","Administração Regional de Saúde do Norte, I. P. (503135593)","ASTRAZENECA PRODUTOS FARMACÊUTICOS, LDA  (502942240)","2,39 €",06-04-2017,06-04-2017,365 dias,"Portugal, Porto, Maia<BR/>Portugal, Vila Real, Vila Real",Artigo 259.º do Código dos Contratos Públicos,10-08-2017,"2,39 €","","",,1179915,"CONCURSO PÚBLICO PARA A CELEBRAÇÃO DE CONTRATOS PÚBLICOS DE APROVISIONAMENTO PARA A ÁREA DA SAÚDE, COM VISTA AO FORNECIMENTO DE MEDICAMENTOS DO APARELHO CARDIOVASCULAR, ÀS INSTITUIÇÕES E SERVIÇOS DO SERVIÇO NACIONAL DE SAÚDE",FALSE
AP 381 . Aquisição de 336 unidades Losartan 50 mg Comp,Ajuste Direto Regime Geral,Aquisição de bens móveis,"33600000-6, Produtos farmacêuticos","Administração Regional de Saúde do Norte, I.P. (503135593)","MERCK SHARP & DOHME, LDA   (500191360)","47,28 €",06-04-2017,21-05-2013,240 dias,"Portugal, Porto, Maia<BR/>Portugal, Vila Real, Vila Real","Artigo 20.º, n.º 1, alínea a) do Código dos Contratos Públicos",20-08-2013,"47,28 €","","",,Não aplicável.,Não aplicável.,FALSE
AP 631 - Aquisição de 1500 Ác algínico + Ác esteárico + Ác sórbico Emuls cut,Ajuste Direto Regime Geral,Aquisição de bens móveis,"33600000-6, Produtos farmacêuticos","Administração Regional de Saúde do Norte, I.P. (503135593)",JOHNSON & JOHNSON LDA      (500153370),"7.485,00 €",06-04-2017,06-08-2013,3000 dias,"Portugal, Vila Real, Vila Real<BR/>Portugal, Porto, Maia","Artigo 20.º, n.º 1, alínea a) do Código dos Contratos Públicos",07-08-2013,"7.485,00 €","","",,Não aplicável.,Não aplicável.,FALSE
AP 1186 - Aquisição de 2 200 unid de Salbutamol 5 mg/ml Sol inal neb 10 ml,Ajuste Direto Regime Geral,Aquisição de bens móveis,"33600000-6, Produtos farmacêuticos","Administração Regional de Saúde do Norte, I. P. (503135593)","GLAXOSMITHKLINE - PRODUTOS FARMACÊUTICOS, LDA  (500139962)","0,00 €",06-04-2017,31-01-2014,300 dias,"Portugal, Porto, Maia<BR/>Portugal, Vila Real, Vila Real","Artigo 37.º, n.º 1 do  DL nº 32/2012, de 13.02",21-11-2014,"4.442,90 €","",Aquisição de maior quantidade,,1156712,Aquisição de 2 200 frascos de Salbutamol 5 mg/ml Sol inal neb 10 ml,FALSE
"AP 1921 Aquisição de  50 Saco Domicilio Enfermagem, Grande",Ajuste Direto Regime Geral,Aquisição de bens móveis,"33140000-3, Material médico de consumo","Administração Regional de Saúde do Norte, I. P. (503135593)","EUGENIO PEREIRA, LIMITADA       (503989525)","4.000,00 €",06-04-2017,01-08-2014,150 dias,"Portugal, Vila Real, Vila Real<BR/>Portugal, Porto, Maia","Artigo 20.º, n.º 1, alínea a) do Código dos Contratos Públicos",11-12-2014,"4.000,00 €","","",,Não aplicável.,Não aplicável.,FALSE
Plano de Contingência da Gripe - Vigilância Humana / Processo 17000821,Ajuste Direto Regime Geral,Aquisição de serviços,"79713000-5, Serviços de guarda","Administração Regional de Saúde do Norte, I. P. (503135593)","Prestibel, S.A. (501326456)","1.718,12 €",05-04-2017,03-01-2017,30 dias,"Portugal, Distrito não determinado, Concelho não determinado","Artigo 24.º, n.º 1, alínea e) do Código dos Contratos Públicos",23-03-2017,"1.718,12 €","","",,Não aplicável.,Não aplicável.,FALSE
AP 60 - Aquisição de 3500 Nifedipina 10 mg,Ajuste Direto Regime Geral,Aquisição de bens móveis,"33600000-6, Produtos farmacêuticos","Administração Regional de Saúde do Norte, I. P. (503135593)","BAYER PORTUGAL, S.A.     (500043256)","0,00 €",05-04-2017,20-02-2014,300 dias,"Portugal, Vila Real, Vila Real<BR/>Portugal, Porto, Maia",Artigo 258.º do Código dos Contratos Públicos,20-06-2014,"38,16 €","",Não foram adquiridas todas as quantidades,,1168372,Aquisisção de 3 500 capsulas de Nifedipina 10 mg,FALSE
A.P. 76 APROV - VR 17000331 - Aquisição de Reagentes e produtos de diagnóstico,Ajuste Direto Regime Geral,Aquisição de bens móveis,"33696300-8, Reagentes químicos","Administração Regional de Saúde do Norte,IP (ARSN) (503135593)","TECNILAB PORTUGAL, SA       (500758158)","16.170,00 €",05-04-2017,08-03-2017,365 dias,"Portugal, Vila Real, Vila Real<BR/>Portugal, Porto, Maia","Artigo 20.º, n.º 1, alínea a) do Código dos Contratos Públicos",25-06-2017,"16.170,00 €","","",,Não aplicável.,Não aplicável.,FALSE
AP 1751 - Aquisição de 350 000 Toalhetes impregnados desinfectantes,Ajuste Direto Regime Geral,Aquisição de bens móveis,"33140000-3, Material médico de consumo","Administração Regional de Saúde do Norte, I. P. (503135593)","PAUL HARTMAN, LDA   (502271728)","3.675,00 €",05-04-2017,11-08-2014,300 dias,"Portugal, Porto, Maia<BR/>Portugal, Vila Real, Vila Real","Artigo 20.º, n.º 1, alínea a) do Código dos Contratos Públicos",19-11-2014,"3.675,00 €","","",,Não aplicável.,Não aplicável.,FALSE
"A.P. 754 de 2014 - Aquisição de Deterg lavag, desinf superf  e DM não emergíveis 750 ml",Ajuste Direto Regime Geral,Aquisição de bens móveis,"33140000-3, Material médico de consumo","Administração Regional de Saúde do Norte,IP (ARSN) (503135593)",AIR LIQUIDE MEDICINAL S.A.          (501576436),"5.850,00 €",05-04-2017,10-04-2014,365 dias,"Portugal, Porto, Maia<BR/>Portugal, Vila Real, Vila Real","Artigo 20.º, n.º 1, alínea a) do Código dos Contratos Públicos",29-10-2014,"5.850,00 €","","",,Não aplicável.,Não aplicável.,FALSE
AP 139 - Aquisição de 2500 unidades Zaragatoa higienizada e individualizada,Ajuste Direto Regime Geral,Aquisição de bens móveis,"33140000-3, Material médico de consumo","Administração Regional de Saúde do Norte, I. P. (503135593)",EZEQUIEL PANAO JORGE LDA    (501412727),"32,50 €",05-04-2017,27-02-2014,300 dias,"Portugal, Vila Real, Vila Real<BR/>Portugal, Porto, Maia","Artigo 20.º, n.º 1, alínea a) do Código dos Contratos Públicos",25-06-2014,"32,50 €","","",,Não aplicável.,Não aplicável.,FALSE
A.P. 842 de 2014 - Aquisição de 1.000 unidades de Sonda nasal para administração oxigénio,Ajuste Direto Regime Geral,Aquisição de bens móveis,"33140000-3, Material médico de consumo","Administração Regional de Saúde do Norte, I. P. (503135593)",EZEQUIEL PANAO JORGE LDA     (501412727),"284,00 €",05-04-2017,11-04-2014,365 dias,"Portugal, Vila Real, Vila Real<BR/>Portugal, Porto, Maia","Artigo 20.º, n.º 1, alínea a) do Código dos Contratos Públicos",07-05-2014,"284,00 €","","",,Não aplicável.,Não aplicável.,FALSE
"Aquisição de 100 unidades de Agente crioterapêutico, aerossol (60aplic 2 mm) spray",Ajuste Direto Regime Geral,Aquisição de bens móveis,"33600000-6, Produtos farmacêuticos","Administração Regional de Saúde do Norte,IP (ARSN) (503135593)",B BRAUN MEDICAL LDA        (501506543),"5.380,00 €",05-04-2017,19-11-2014,365 dias,"Portugal, Vila Real, Vila Real<BR/>Portugal, Porto, Maia","Artigo 24.º, n.º 1, alínea e) do Código dos Contratos Públicos",10-12-2014,"5.380,00 €","","",,Não aplicável.,Não aplicável.,FALSE
Aquisição de 2.400 Dexametasona 5 mg/ml Sol inj 1 ml IM IV SC,Ajuste Direto Regime Geral,Aquisição de bens móveis,"33600000-6, Produtos farmacêuticos","Administração Regional de Saúde do Norte,IP (ARSN) (503135593)","BDRPHARMA, Lda.          (513077332)","2.613,60 €",05-04-2017,12-02-2015,365 dias,"Portugal, Vila Real, Vila Real<BR/>Portugal, Porto, Maia","Artigo 24.º, n.º 1, alínea e) do Código dos Contratos Públicos",23-09-2015,"2.613,60 €","","",,Não aplicável.,Não aplicável.,FALSE
AP 112 - Aquisição de 50 unidades Creme de  Massagem p/Fisioterapia  5L,Ajuste Direto Regime Geral,Aquisição de bens móveis,"33600000-6, Produtos farmacêuticos","Administração Regional de Saúde do Norte, I. P. (503135593)","BRAMEDICAFISIO, PRODUTOS DE SAUDE, LDA   (508560152)","1.183,00 €",05-04-2017,04-04-2014,300 dias,"Portugal, Porto, Maia<BR/>Portugal, Vila Real, Vila Real","Artigo 20.º, n.º 1, alínea a) do Código dos Contratos Públicos",28-10-2014,"1.183,00 €","","",,Não aplicável.,Não aplicável.,FALSE
AP 262 - Aquisição de 6 000 Sulfadiazina de prata 10 mg/g Cr Bisn 50 g,Ajuste Direto Regime Geral,Aquisição de bens móveis,"33600000-6, Produtos farmacêuticos","Administração Regional de Saúde do Norte, I. P. (503135593)",EXPOMEDICA    (501886621),"25.380,00 €",05-04-2017,25-03-2014,300 dias,"Portugal, Porto, Maia<BR/>Portugal, Vila Real, Vila Real","Artigo 20.º, n.º 1, alínea a) do Código dos Contratos Públicos",28-10-2014,"25.380,00 €","","",,Não aplicável.,Não aplicável.,FALSE
AP254 - Aquisição de 200 Saco Recolha de Vómito,Ajuste Direto Regime Geral,Aquisição de bens móveis,"33922000-9, Sacos para transporte de cadáveres","Administração Regional de Saúde do Norte,IP (ARSN) (503135593)","PAUL HARTMAN, LDA    (502271728)","36,00 €",05-04-2017,02-04-2014,300 dias,"Portugal, Porto, Maia<BR/>Portugal, Vila Real, Vila Real","Artigo 20.º, n.º 1, alínea a) do Código dos Contratos Públicos",04-04-2014,"36,00 €","","",,Não aplicável.,Não aplicável.,FALSE
A.P. 646 APROV -VR 17000958 - Aquisição de produtos de diagnóstico,Ajuste Direto Regime Geral,Aquisição de bens móveis,"33696500-0, Reagentes de laboratório","Administração Regional de Saúde do Norte, I. P. (503135593)","NORMAX - FÁBRICA DE VIDROS CIENTIFICOS, LDA     (500203130)","460,64 €",05-04-2017,05-04-2017,365 dias,"Portugal, Vila Real, Vila Real<BR/>Portugal, Porto, Maia","Artigo 20.º, n.º 1, alínea a) do Código dos Contratos Públicos",22-11-2017,"460,64 €","","",,Não aplicável.,Não aplicável.,FALSE
AP 355 - Aquisição de 600 comprimidos de Tiagabina 5 mg,Ajuste Direto Regime Geral,Aquisição de bens móveis,"33600000-6, Produtos farmacêuticos","Administração Regional de Saúde do Norte,IP (ARSN) (503135593)","Italfarmaco-Produtos Farmaceuticos, Lda    (504591126)","221,64 €",05-04-2017,25-03-2014,300 dias,"Portugal, Vila Real, Vila Real<BR/>Portugal, Porto, Maia","Artigo 24.º, n.º 1, alínea e) do Código dos Contratos Públicos",28-04-2014,"221,64 €","","",,Não aplicável.,Não aplicável.,FALSE
AP 843 - Aquisição de  22 000 Máscara protecção doentes irrecuperável (CDP),Ajuste Direto Regime Geral,Aquisição de bens móveis,"33140000-3, Material médico de consumo","Administração Regional de Saúde do Norte,IP (ARSN) (503135593)",FACTOR PLUS SA     (502810645),"8.225,80 €",05-04-2017,11-04-2014,250 dias,"Portugal, Porto, Maia<BR/>Portugal, Vila Real, Vila Real","Artigo 20.º, n.º 1, alínea a) do Código dos Contratos Públicos",28-08-2014,"8.225,80 €","","",,Não aplicável.,Não aplicável.,FALSE
AP  846 - Aquisição de 20 Tabuleiro inox 28x20x5 cm,Ajuste Direto Regime Geral,Aquisição de bens móveis,"39221160-6, Tabuleiros","Administração Regional de Saúde do Norte,IP (ARSN) (503135593)","EUGENIO PEREIRA, LIMITADA   (503989525)","329,70 €",05-04-2017,30-04-2014,300 dias,"Portugal, Vila Real, Vila Real<BR/>Portugal, Porto, Maia","Artigo 20.º, n.º 1, alínea a) do Código dos Contratos Públicos",19-06-2014,"329,70 €","","",,Não aplicável.,Não aplicável.,FALSE
"AP - Aquisição de 492 unidDeterg lavag, desinf superf  e DM não emergíveis 750 ml",Ajuste Direto Regime Geral,Aquisição de bens móveis,"33140000-3, Material médico de consumo","Administração Regional de Saúde do Norte, I. P. (503135593)",AIR LIQUIDE MEDICINAL S.A.  (501576436),"1.918,80 €",05-04-2017,09-05-2014,300 dias,"Portugal, Vila Real, Vila Real<BR/>Portugal, Porto, Maia","Artigo 24.º, n.º 1, alínea e) do Código dos Contratos Públicos",03-07-2014,"1.918,80 €","","",,Não aplicável.,Não aplicável.,FALSE
AP 1246 - Aquisição de  2500 Teste Rápido Benzodiazepinas,Ajuste Direto Regime Geral,Aquisição de bens móveis,"33694000-1, Meios de diagnóstico","Administração Regional de Saúde do Norte, I. P. (503135593)","QUILABAN-QUIM. LAB. ANALITICA,LDA   (500399670)","412,50 €",05-04-2017,12-05-2014,300 dias,"Portugal, Vila Real, Vila Real<BR/>Portugal, Porto, Maia","Artigo 20.º, n.º 1, alínea a) do Código dos Contratos Públicos",04-11-2014,"412,50 €","","",,Não aplicável.,Não aplicável.,FALSE
Ap 1236 - Aquisição de 20  Frasco de vidro graduado 500 ml com tampa de rosca,Ajuste Direto Regime Geral,Aquisição de bens móveis,"39226220-0, Frascos","Administração Regional de Saúde do Norte, I. P. (503135593)","VWR - INTERNACIONAL, MATERIAL LABORATORIO, LD (503842770)","130,00 €",05-04-2017,15-05-2014,300 dias,"Portugal, Vila Real, Vila Real<BR/>Portugal, Porto, Maia","Artigo 20.º, n.º 1, alínea a) do Código dos Contratos Públicos",16-05-2014,"130,00 €","","",,Não aplicável.,Não aplicável.,FALSE
AP 1320 - Aquisição de 150 Adenosina 3 mg/ml Sol inj IV,Ajuste Direto Regime Geral,Aquisição de bens móveis,"33600000-6, Produtos farmacêuticos","Administração Regional de Saúde do Norte,IP (ARSN) (503135593)","Sanofi - Produtos Farmacêuticos, Lda       (500134960)","4.287,26 €",05-04-2017,02-06-2014,300 dias,"Portugal, Vila Real, Vila Real<BR/>Portugal, Porto, Maia","Artigo 20.º, n.º 1, alínea a) do Código dos Contratos Públicos",06-10-2014,"4.287,26 €","","",,Não aplicável.,Não aplicável.,FALSE
AP 1318 - Aquisição de Olanzapina 5 mg Comprimidos,Ajuste Direto Regime Geral,Aquisição de bens móveis,"33600000-6, Produtos farmacêuticos","Administração Regional de Saúde do Norte, I. P. (503135593)",ACTAVIS AS SUCURSAL       (980334934),"135,24 €",05-04-2017,29-05-2014,250 dias,"Portugal, Vila Real, Vila Real<BR/>Portugal, Porto, Porto","Artigo 20.º, n.º 1, alínea a) do Código dos Contratos Públicos",02-06-2014,"135,24 €","","",,Não aplicável.,Não aplicável.,FALSE
AP 1504 - Aquisição de Copo para Nebulizador Omrom,Ajuste Direto Regime Geral,Aquisição de bens móveis,"33140000-3, Material médico de consumo","Administração Regional de Saúde do Norte, I. P. (503135593)",BACELAR & IRMAO LDA    (500532818),"2.758,00 €",05-04-2017,11-07-2014,260 dias,"Portugal, Porto, Maia<BR/>Portugal, Vila Real, Vila Real","Artigo 20.º, n.º 1, alínea a) do Código dos Contratos Públicos",02-10-2014,"2.758,00 €","","",,Não aplicável.,Não aplicável.,FALSE
"AP 1633 - Aquisição de 4 000 Borboleta extração múltipla sangue por vácuo 21G , 1 000 Borboleta extração múltipla sangue por vácuo 23G e 40 Adaptador extração múltipla por vácuo reutilizável",Ajuste Direto Regime Geral,Aquisição de bens móveis,"33140000-3, Material médico de consumo","Administração Regional de Saúde do Norte,IP (ARSN) (503135593)","VACUETE PORTUGAL, S.A   (505348470)","1.644,00 €",05-04-2017,11-07-2014,200 dias,"Portugal, Porto, Maia<BR/>Portugal, Vila Real, Vila Real","Artigo 20.º, n.º 1, alínea a) do Código dos Contratos Públicos",04-12-2014,"1.644,00 €","","",,Não aplicável.,Não aplicável.,FALSE
AP 544 - Aquisição de   99 960 comprimidos de Isoniazida 50 mg+Pirazinamida 300 mg+Rifampicina 120 mg; 229 950 comprimidos de Etambutol 400 mg e 79 992 comprimidos de Isoniazida 150 mg + Rifampicina 300 mg,Ao abrigo de acordo-quadro (art.º 258.º),Aquisição de bens móveis,"33600000-6, Produtos farmacêuticos","Administração Regional de Saúde do Norte, I. P. (503135593)","Sanofi - Produtos Farmacêuticos, Lda (500134960)","35.855,15 €",05-04-2017,29-03-2017,300 dias,"Portugal, Porto, Maia<BR/>Portugal, Vila Real, Vila Real",Artigo 258.º do Código dos Contratos Públicos,08-11-2017,"35.855,15 €","","",,1326195,ACORDO QUADRO PARA FORNECIMENTO DE MEDICAMENTOS ANTI-INFECIOSOS: EXCETO ANTIVÍRICOS E ANTIFÚNGICOS ÀS INSTITUIÇÕES E SERVIÇOS DO SERVIÇO NACIONAL DE SAÚDE,FALSE
Aquisição diverso material consumo clinico - APROV-PRT 16001578 (AP1306),Concurso público,Aquisição de bens móveis,"33140000-3, Material médico de consumo","Administração Regional de Saúde do Norte, I. P. (503135593)","Overpharma - Produtos Médicos Farmaceuticos, Lda. (505792362)","31.804,51 €",05-04-2017,07-02-2017,327 dias,"Portugal, Vila Real, Vila Real<BR/>Portugal, Distrito não determinado, Concelho não determinado<BR/>Portugal, Porto, Maia","Artigo 20.º, n.º 2 do Código dos Contratos Públicos",29-12-2017,"23.171,66 €","",Ajustado ao numero de unidades por embalagem,,Não aplicável.,Não aplicável.,FALSE
AP 205- Aquisição de 60 comprimidos Fluvoxamina 50 mg,Ao abrigo de acordo-quadro (art.º 259.º),Aquisição de bens móveis,"33600000-6, Produtos farmacêuticos","Administração Regional de Saúde do Norte, I. P. (503135593)","GENERIS FARMACÊUTICA,SA   (508107997)","4,98 €",04-04-2017,04-04-2017,265 dias,"Portugal, Porto, Maia<BR/>Portugal, Vila Real, Vila Real",Artigo 259.º do Código dos Contratos Públicos,10-05-2017,"4,98 €","","",,1974985,"Medicamentos Analgésicos, Antipiréticos e Antidepressivos",FALSE
AP 205 Aquisição de 952 comprimidos Mirtazapina 30 mg Comp,Ao abrigo de acordo-quadro (art.º 259.º),Aquisição de bens móveis,"33600000-6, Produtos farmacêuticos","Administração Regional de Saúde do Norte, I. P. (503135593)","AUROVITAS UNIPESSOAL, LDA       (513053239)","37,13 €",04-04-2017,04-04-2017,265 dias,"Portugal, Vila Real, Vila Real<BR/>Portugal, Porto, Maia",Artigo 259.º do Código dos Contratos Públicos,07-04-2017,"37,13 €","","",,1974985,"Medicamentos Analgésicos, Antipiréticos e Antidepressivos",FALSE
Aquisição de serviços médicos para SUB Arouca adstrito ao ACES Feira Arouca (APROV PRT 17000121).  Procedimento nº40/2016/SUB Arouca - Dr. Alexandre Nhaga,Ajuste Direto Regime Geral,Aquisição de serviços,"85121000-3, Serviços de prática médica","Administração Regional de Saúde do Norte, I. P. (503135593)",Alexandre Nhaga (238750825),"46.800,00 €",04-04-2017,20-01-2017,368 dias,"Portugal, Aveiro, Arouca","Artigo 20.º, n.º 1, alínea a) do Código dos Contratos Públicos",28-12-2017,"44.225,00 €","",Numero de horas realizadas inferior ao numero de horas previstas,,Não aplicável.,Não aplicável.,FALSE
Aquisição de serviços médicos para SUB Arouca adstrito ao ACES Feira Arouca (APROV PRT 17000121) - Procedimento n.º 35/2016/SUB Arouca/ACES Feira Arouca/ARSN - Dr. Carlos Sérgio Silva Soares,Ajuste Direto Regime Geral,Aquisição de serviços,"85121000-3, Serviços de prática médica","Administração Regional de Saúde do Norte, I. P. (503135593)",Carlos Sérgio Silva Soares (229352685),"46.800,00 €",04-04-2017,20-01-2017,365 dias,"Portugal, Aveiro, Arouca","Artigo 20.º, n.º 1, alínea a) do Código dos Contratos Públicos",26-10-2017,"22.025,00 €",O profissional desistiu da prestação de serviços.,O profissional desistiu da prestação de serviços.,,Não aplicável.,Não aplicável.,FALSE
Aquisição de licenciamento de software ao abrigo do lote 12 do AQ   (RED HAT ),Ao abrigo de acordo-quadro (art.º 259.º),Aquisição de bens móveis,"48000000-8, Pacotes de software e sistemas de informação","Administração Regional de Saúde do Norte, I. P. (503135593)","IDW - Consultoria em Serviços de Informação, Lda. (504243926)","5.000,85 €",04-04-2017,14-12-2016,365 dias,"Portugal, Porto, Porto",Artigo 259.º do Código dos Contratos Públicos,23-12-2016,"5.000,85 €","","",,610968,Acordo quadro de licenciamento de software e serviços conexos,TRUE
AP 2307 Aquisição de 500 gr Brain-Heart; 2.000 gr Meio de cultura Columbia Agar; 1.500 gr Meio de cultura PCA; 1.000 gr Meio de cultura XLD; 3.500 gr Meio de cultura Yeast Extract Agar; 500 gr Meio de cultura Simmons Citrate Agar; 15.000 Membranas filtrantes ,Ajuste Direto Regime Geral,Aquisição de bens móveis,"33600000-6, Produtos farmacêuticos","Administração Regional de Saúde do Norte, I. P. (503135593)","Type Solution, S.A.      (508400317)","5.064,95 €",04-04-2017,10-02-2017,320 dias,"Portugal, Vila Real, Vila Real<BR/>Portugal, Porto, Maia","Artigo 20.º, n.º 1, alínea a) do Código dos Contratos Públicos",29-05-2017,"5.064,95 €","","",,Não aplicável.,Não aplicável.,FALSE
Serviços de Manutenção e Suporte do Software - Storage CX4 Refª. 2016UMC362 - Aprov-Prt 16000679,Ajuste Direto Regime Geral,Aquisição de serviços,"72611000-6, Serviços de assistência técnica informática","Administração Regional de Saúde do Norte, I. P. (503135593)","GFI Portugal - Tecnologias de Informação, S.A. (502726890)","17.456,61 €",04-04-2017,19-10-2016,365 dias,"Portugal, Porto, Porto","Artigo 24.º, n.º 1, alínea e) do Código dos Contratos Públicos",27-10-2016,"17.456,61 €","","",,Não aplicável.,Não aplicável.,FALSE
AP 2247 Aquisição de 10.000 unidades Ligadura de Cola de zinco 10 m x 10 cm,Ajuste Direto Regime Geral,Aquisição de bens móveis,"33600000-6, Produtos farmacêuticos","Administração Regional de Saúde do Norte, I. P. (503135593)","PAUL HARTMAN, LDA            (502271728)","26.000,00 €",04-04-2017,21-02-2017,310 dias,"Portugal, Vila Real, Vila Real<BR/>Portugal, Porto, Maia","Artigo 20.º, n.º 1, alínea a) do Código dos Contratos Públicos",28-03-2017,"26.000,00 €","","",,Não aplicável.,Não aplicável.,FALSE
Aquisição de serviços de higiene e limpeza APROV PRT 16000041),Ajuste Direto Regime Geral,Aquisição de serviços,"90910000-9, Serviços de limpeza","Administração Regional de Saúde do Norte, I. P. (503135593)","SAMSIC Portugal - Facility Services, SA (504839748)","229.427,40 €",04-04-2017,20-11-2015,152 dias,"Portugal, Distrito não determinado, Concelho não determinado<BR/>Portugal, Porto, Porto<BR/>Portugal, Vila Real, Vila Real<BR/>Portugal, Braga, Braga","Artigo 24.º, n.º 1, alínea c) do Código dos Contratos Públicos",30-10-2017,"226.804,24 €","",Não foram executados os serviços na sua totalidade.,,Não aplicável.,Não aplicável.,FALSE
Aquisição de serviços de higiene e limpeza (APROV PRT 16000041),Ajuste Direto Regime Geral,Aquisição de serviços,"90910000-9, Serviços de limpeza","Administração Regional de Saúde do Norte, I. P. (503135593)","SAMSIC Portugal - Facility Services, SA (504839748)","394.591,98 €",04-04-2017,20-11-2015,152 dias,"Portugal, Porto, Porto<BR/>Portugal, Braga, Braga<BR/>Portugal, Distrito não determinado, Concelho não determinado<BR/>Portugal, Vila Real, Vila Real","Artigo 24.º, n.º 1, alínea c) do Código dos Contratos Públicos",31-05-2016,"391.882,31 €","",Serviços não realizados na totalidade,,Não aplicável.,Não aplicável.,FALSE
Serviços de Manutenção avançada do Datacenter Refª. AD/2016-70 - Aprov-Prt 17000235,Ajuste Direto Regime Geral,Aquisição de serviços,"72611000-6, Serviços de assistência técnica informática","Administração Regional de Saúde do Norte, I. P. (503135593)","GFI Portugal - Tecnologias de Informação, S.A. (502726890)","41.140,00 €",03-04-2017,02-02-2017,365 dias,"Portugal, Porto, Porto","Artigo 20.º, n.º 1, alínea a) do Código dos Contratos Públicos",15-02-2017,"41.140,00 €","","",,Não aplicável.,Não aplicável.,FALSE
Aquisição de serviços de radiologia para o SUB Arouca adstrito ao ACES Feira Arouca - APROV PRT 17000120 - Procedimento n.º 18/2017/SUB Arouca/ACES Feira Arouca/ARSN - Radiologista Hélder Renato Ferreira Bessa,Ajuste Direto Regime Geral,Aquisição de serviços,"85140000-2, Serviços de saúde diversos","Administração Regional de Saúde do Norte, I. P. (503135593)",Hélder Renato Ferreira de Bessa (231009577),"10.665,60 €",03-04-2017,03-03-2017,295 dias,"Portugal, Aveiro, Arouca","Artigo 20.º, n.º 1, alínea a) do Código dos Contratos Públicos",31-12-2017,"10.641,36 €","",Numero de horas realizadas inferiores ao numero de horas contratadas.,,Não aplicável.,Não aplicável.,FALSE
Aquisição de 2.500 pensos poliuretano c/silicone extra-fino 10 x 10 cm,Ao abrigo de acordo-quadro (art.º 259.º),Aquisição de bens móveis,"33140000-3, Material médico de consumo","Administração Regional de Saúde do Norte, I. P. (503135593)",BSN MEDICAL S.A (505385058),"4.200,00 €",03-04-2017,04-04-2016,271 dias,"Portugal, Distrito não determinado, Concelho não determinado<BR/>Portugal, Porto, Maia<BR/>Portugal, Vila Real, Vila Real",Artigo 259.º do Código dos Contratos Públicos,18-11-2016,"4.200,00 €","","",,1315192,Acordo Quadro para fornecimento de material de penso de efeito terapêutico às Instituições e Serviços do Serviço Nacional de Saúde,FALSE
Aquisição de 11 mil peliculas poliuretano com acrílico absorvente 10x10 cm,Ao abrigo de acordo-quadro (art.º 259.º),Aquisição de bens móveis,"33140000-3, Material médico de consumo","Administração Regional de Saúde do Norte, I. P. (503135593)","3M PORTUGAL, LDA (500193940)","64.240,00 €",03-04-2017,29-03-2016,277 dias,"Portugal, Distrito não determinado, Concelho não determinado<BR/>Portugal, Vila Real, Vila Real<BR/>Portugal, Porto, Maia",Artigo 259.º do Código dos Contratos Públicos,31-12-2016,"64.240,00 €","","",,1315192,Acordo Quadro para fornecimento de material de penso de efeito terapêutico às Instituições e Serviços do Serviço Nacional de Saúde,FALSE
Aquisição de 4.500 Pensos fibras biosintéticos com hidrobalanço e phmb 10x10 cm,Ao abrigo de acordo-quadro (art.º 259.º),Aquisição de bens móveis,"33140000-3, Material médico de consumo","Administração Regional de Saúde do Norte, I. P. (503135593)","QUEENLABS- ESPECIALIALIDADES, LDA -CAIXA ECON.MONT.GERA  (503984485)","26.505,00 €",03-04-2017,04-04-2016,271 dias,"Portugal, Vila Real, Vila Real<BR/>Portugal, Distrito não determinado, Concelho não determinado<BR/>Portugal, Porto, Maia",Artigo 259.º do Código dos Contratos Públicos,31-12-2016,"26.505,00 €","","",,1315192,Acordo Quadro para fornecimento de material de penso de efeito terapêutico às Instituições e Serviços do Serviço Nacional de Saúde,FALSE
Aquisição de 4 mil unidades de Silicone transparente microaderência 9x10 cm,Ao abrigo de acordo-quadro (art.º 259.º),Aquisição de bens móveis,"33140000-3, Material médico de consumo","Administração Regional de Saúde do Norte, I. P. (503135593)","Molnlycke Health Care, Lda (511101066)","9.000,00 €",03-04-2017,04-04-2016,271 dias,"Portugal, Vila Real, Vila Real<BR/>Portugal, Distrito não determinado, Concelho não determinado<BR/>Portugal, Porto, Maia",Artigo 259.º do Código dos Contratos Públicos,31-12-2016,"9.000,00 €","","",,1315192,Acordo Quadro para fornecimento de material de penso de efeito terapêutico às Instituições e Serviços do Serviço Nacional de Saúde,FALSE
Aquisição de3 mil carteiras de colagénio em pó,Ao abrigo de acordo-quadro (art.º 259.º),Aquisição de bens móveis,"33140000-3, Material médico de consumo","Administração Regional de Saúde do Norte, I. P. (503135593)","PARS - CONSULTORIA E PRESTAÇÕES DE SERVIÇOS, SA  (505642948)","13.482,00 €",03-04-2017,04-04-2016,271 dias,"Portugal, Porto, Maia<BR/>Portugal, Vila Real, Vila Real<BR/>Portugal, Distrito não determinado, Concelho não determinado",Artigo 259.º do Código dos Contratos Públicos,31-12-2016,"13.104,00 €","",Quantidade por embalagem,,1315192,Acordo Quadro para fornecimento de material de penso de efeito terapêutico às Instituições e Serviços do Serviço Nacional de Saúde,FALSE
A.P. 767 Aquisição de Bens - Medicamentos,Ao abrigo de acordo-quadro (art.º 258.º),Aquisição de bens móveis,"33600000-6, Produtos farmacêuticos","Administração Regional de Saúde do Norte,IP (ARSN) (503135593)","Bial & Cª,S.A., Portugal (500220913)","141,00 €",03-04-2017,12-07-2016,240 dias,"Portugal, Porto, Maia<BR/>Portugal, Vila Real, Vila Real",Artigo 258.º do Código dos Contratos Públicos,18-07-2016,"141,00 €","","",,1210107,"CONCURSO PÚBLICO PARA A CELEBRAÇÃO DE CONTRATOS PÚBLICOS DE APROVISIONAMENTO PARA A ÁREA DA SAÚDE, COM VISTA AO FORNECIMENTO DE MEDICAMENTOS DO GRUPO 4: SANGUE, ÀS INSTITUIÇÕES E SERVIÇOS DO SERVIÇO NACIONAL DE SAÚDE",FALSE
