Objeto do Contrato,Tipo de Procedimento,Tipo(s) de Contrato,CPVs,Entidade(s) Adjudicante(s),Entidade(s) Adjudicatária(s),Preço Contratual,Data de Publicação,Data de Celebração do Contrato,Prazo de Execução,Local de Execução,Fundamentação,Data de Fecho do Contrato,Preço Total Efetivo,Causas das Alterações ao Prazo,Causas das Alterações ao Preço,Estado,N.º registo do Acordo Quadro,Descrição do Acordo Quadro,Procedimento Centralizado
MATERIAL OSTEOSINTESE- Ajuste Directo Nº 2430876,Ajuste Direto Regime Geral,Aquisição de bens móveis,"33000000-0, Equipamento médico, medicamentos e produtos para cuidados pessoais","Hospital Garcia de Orta, E. P. E. (506361470)","MEDTRONIC PORTUGAL, LDA. (504223933)","9.525,00 €",30-01-2017,02-08-2016,365 dias,"Portugal, Setúbal, Almada","Artigo 20.º, n.º 1, alínea a) do Código dos Contratos Públicos",,,,,,Não aplicável.,Não aplicável.,FALSE
CARDIOVERSOR DESFIBRILHADOR IMPLANTAVEL - Ajuste Directo Nº 2402367,Ajuste Direto Regime Geral,Aquisição de bens móveis,"33000000-0, Equipamento médico, medicamentos e produtos para cuidados pessoais","Hospital Garcia de Orta, E. P. E. (506361470)",ST. JUDE MEDICAL PORTUGAL (504180746),"9.000,00 €",27-01-2017,10-01-2017,180 dias,"Portugal, Setúbal, Almada","Artigo 20.º, n.º 1, alínea a) do Código dos Contratos Públicos",,,,,,Não aplicável.,Não aplicável.,FALSE
ELECTRODO DE RETORNO DO PACIENTE - Ajuste Directo Nº 2403377,Ajuste Direto Regime Geral,Aquisição de bens móveis,"33000000-0, Equipamento médico, medicamentos e produtos para cuidados pessoais","Hospital Garcia de Orta, E. P. E. (506361470)",ST. JUDE MEDICAL PORTUGAL (504180746),"5.562,50 €",26-01-2017,16-01-2017,365 dias,"Portugal, Setúbal, Almada","Artigo 20.º, n.º 1, alínea a) do Código dos Contratos Públicos",,,,,,Não aplicável.,Não aplicável.,FALSE
SISTEMA  ENCERRAMENTO ARTERIA FEMURAL 6F - Ajuste Directo Nº 2448076,Ajuste Direto Regime Geral,Aquisição de bens móveis,"33000000-0, Equipamento médico, medicamentos e produtos para cuidados pessoais","Hospital Garcia de Orta, E. P. E. (506361470)",ST. JUDE MEDICAL PORTUGAL (504180746),"12.400,00 €",26-01-2017,30-11-2016,365 dias,"Portugal, Setúbal, Almada","Artigo 20.º, n.º 1, alínea a) do Código dos Contratos Públicos",,,,,,Não aplicável.,Não aplicável.,FALSE
MATERIAL CONSIGNADO ( CATETERES ) - Ajuste Directo Nº 2401867,Ajuste Direto Regime Geral,Aquisição de bens móveis,"33000000-0, Equipamento médico, medicamentos e produtos para cuidados pessoais","Hospital Garcia de Orta, E. P. E. (506361470)","BIOTRONIK PORTUGAL UNIPESSOAL, LDA. (510726941)","7.500,00 €",25-01-2017,05-01-2017,365 dias,"Portugal, Setúbal, Almada","Artigo 20.º, n.º 1, alínea a) do Código dos Contratos Públicos",,,,,,Não aplicável.,Não aplicável.,FALSE
MATERIAL CONSIGNADO ( CATETERES ) - Ajuste Directo Nº 2401867,Ajuste Direto Regime Geral,Aquisição de bens móveis,"33000000-0, Equipamento médico, medicamentos e produtos para cuidados pessoais","Hospital Garcia de Orta, E. P. E. (506361470)",TERUMO EUROPE ESPANHA SL * (980472024),"10.250,00 €",25-01-2017,05-01-2017,365 dias,"Portugal, Setúbal, Almada","Artigo 20.º, n.º 1, alínea a) do Código dos Contratos Públicos",,,,,,Não aplicável.,Não aplicável.,FALSE
MATERIAL CONSIGNADO ( CATETERES ) - Ajuste Directo Nº 2401867,Ajuste Direto Regime Geral,Aquisição de bens móveis,"33000000-0, Equipamento médico, medicamentos e produtos para cuidados pessoais","Hospital Garcia de Orta, E. P. E. (506361470)","MEDTRONIC PORTUGAL, LDA. (504223933)","3.750,00 €",25-01-2017,05-01-2017,365 dias,"Portugal, Setúbal, Almada","Artigo 20.º, n.º 1, alínea a) do Código dos Contratos Públicos",,,,,,Não aplicável.,Não aplicável.,FALSE
MATERIAL CONSIGNADO ( CATETERES ) - Ajuste Directo Nº 2401867,Ajuste Direto Regime Geral,Aquisição de bens móveis,"33000000-0, Equipamento médico, medicamentos e produtos para cuidados pessoais","Hospital Garcia de Orta, E. P. E. (506361470)","B. BRAUN MEDICAL, LDA. (501506543)","1.750,00 €",25-01-2017,05-01-2017,365 dias,"Portugal, Setúbal, Almada","Artigo 20.º, n.º 1, alínea a) do Código dos Contratos Públicos",,,,,,Não aplicável.,Não aplicável.,FALSE
MATERIAL CONSIGNADO ( CATETERES ) - Ajuste Directo Nº 2401867,Ajuste Direto Regime Geral,Aquisição de bens móveis,"33000000-0, Equipamento médico, medicamentos e produtos para cuidados pessoais","Hospital Garcia de Orta, E. P. E. (506361470)",LUSOPALEX LDA. (503531588),"750,00 €",25-01-2017,05-01-2017,365 dias,"Portugal, Setúbal, Almada","Artigo 20.º, n.º 1, alínea a) do Código dos Contratos Públicos",,,,,,Não aplicável.,Não aplicável.,FALSE
MATERIAL CONSIGNADO ( CATETERES ) - Ajuste Directo Nº 2401867,Ajuste Direto Regime Geral,Aquisição de bens móveis,"33000000-0, Equipamento médico, medicamentos e produtos para cuidados pessoais","Hospital Garcia de Orta, E. P. E. (506361470)","BSC PORTUGAL, LDA. (504988964)","1.000,00 €",25-01-2017,05-01-2017,365 dias,"Portugal, Setúbal, Almada","Artigo 20.º, n.º 1, alínea a) do Código dos Contratos Públicos",,,,,,Não aplicável.,Não aplicável.,FALSE
MATERIAL CONSIGNADO ( CATETERES ) - Ajuste Directo Nº 2401867,Ajuste Direto Regime Geral,Aquisição de bens móveis,"33000000-0, Equipamento médico, medicamentos e produtos para cuidados pessoais","Hospital Garcia de Orta, E. P. E. (506361470)","ABBOTT LABORATÓRIOS, LDA. (500006148)","3.250,00 €",25-01-2017,05-01-2017,365 dias,"Portugal, Setúbal, Almada","Artigo 20.º, n.º 1, alínea a) do Código dos Contratos Públicos",,,,,,Não aplicável.,Não aplicável.,FALSE
MATERIAL OSTEOSINTESE - Ajuste Directo Nº 2429546,Ajuste Direto Regime Geral,Aquisição de bens móveis,"33000000-0, Equipamento médico, medicamentos e produtos para cuidados pessoais","Hospital Garcia de Orta, E. P. E. (506361470)",MEDTRONIC PORTUGAL LDA (504223933),"5.450,00 €",25-01-2017,26-07-2016,365 dias,"Portugal, Setúbal, Almada","Artigo 20.º, n.º 1, alínea a) do Código dos Contratos Públicos",,,,,,Não aplicável.,Não aplicável.,FALSE
FORNECIMENTO E MONTAGEM DE CENTRAL DE VÁCUO - Aj. Directo nº. 7400077,Ajuste Direto Regime Geral,Aquisição de bens móveis,"42500000-1, Equipamento de refrigeração e ventilação","Hospital Garcia de Orta, E. P. E. (506361470)",AIR LIQUIDE (501576436),"32.018,05 €",25-01-2017,13-01-2017,30 dias,"Portugal, Setúbal, Almada","Artigo 20.º, n.º 1, alínea a) do Código dos Contratos Públicos",,,,,,Não aplicável.,Não aplicável.,FALSE
PROTESE AORTO ILIACA - Ajuste Directo Nº 2429736,Ajuste Direto Regime Geral,Aquisição de bens móveis,"33000000-0, Equipamento médico, medicamentos e produtos para cuidados pessoais","Hospital Garcia de Orta, E. P. E. (506361470)","MEDTRONIC PORTUGAL, LDA. (504223933)","25.500,00 €",24-01-2017,26-07-2016,365 dias,"Portugal, Setúbal, Almada","Artigo 20.º, n.º 1, alínea a) do Código dos Contratos Públicos",,,,,,Não aplicável.,Não aplicável.,FALSE
FIOS GUIA .014 - Ajuste Directo Nº 2429876,Ajuste Direto Regime Geral,Aquisição de bens móveis,"33000000-0, Equipamento médico, medicamentos e produtos para cuidados pessoais","Hospital Garcia de Orta, E. P. E. (506361470)",TERUMO EUROPE ESPANHA SL * (980472024),"6.776,00 €",24-01-2017,27-07-2016,365 dias,"Portugal, Setúbal, Almada","Artigo 20.º, n.º 1, alínea a) do Código dos Contratos Públicos",,,,,,Não aplicável.,Não aplicável.,FALSE
CARDIOVERSORES - Ajuste Directo Nº 2429206,Ajuste Direto Regime Geral,Aquisição de bens móveis,"33000000-0, Equipamento médico, medicamentos e produtos para cuidados pessoais","Hospital Garcia de Orta, E. P. E. (506361470)","MEDTRONIC PORTUGAL, LDA. (504223933)","24.325,00 €",24-01-2017,22-07-2016,365 dias,"Portugal, Setúbal, Almada","Artigo 20.º, n.º 1, alínea a) do Código dos Contratos Públicos",,,,,,Não aplicável.,Não aplicável.,FALSE
STENT INTRA CORONARIO C/FARMACO - Ajuste Directo Nº 2429246,Ajuste Direto Regime Geral,Aquisição de bens móveis,"33000000-0, Equipamento médico, medicamentos e produtos para cuidados pessoais","Hospital Garcia de Orta, E. P. E. (506361470)","BSC PORTUGAL, LDA. (504988964)","0,00 €",24-01-2017,22-07-2016,365 dias,"Portugal, Setúbal, Almada",Artigo 258.º do Código dos Contratos Públicos,,,,,,2557842,STENT INTRA CORONARIO C/FARMACO,FALSE
STENT INTRA CORONARIO C/FARMACO - Ajuste Directo Nº 2429266,Ajuste Direto Regime Geral,Aquisição de bens móveis,"33000000-0, Equipamento médico, medicamentos e produtos para cuidados pessoais","Hospital Garcia de Orta, E. P. E. (506361470)","BIOTRONIK PORTUGAL UNIPESSOAL, LDA. (510726941)","0,00 €",24-01-2017,22-07-2016,365 dias,"Portugal, Setúbal, Almada",Artigo 258.º do Código dos Contratos Públicos,,,,,,2557710,STENT INTRA CORONARIO C/FARMACO,FALSE
STENT INTRA CORONARIO C/FARMACO - Ajuste Directo Nº 2429336,Ajuste Direto Regime Geral,Aquisição de bens móveis,"33000000-0, Equipamento médico, medicamentos e produtos para cuidados pessoais","Hospital Garcia de Orta, E. P. E. (506361470)",TERUMO EUROPE ESPANHA SL * (980472024),"0,00 €",24-01-2017,25-07-2016,365 dias,"Portugal, Setúbal, Almada",Artigo 258.º do Código dos Contratos Públicos,,,,,,2557533,STENT INTRA CORONARIO C/FARMACO,FALSE
