Objeto do Contrato,Tipo de Procedimento,Tipo(s) de Contrato,CPVs,Entidade(s) Adjudicante(s),Entidade(s) Adjudicatária(s),Preço Contratual,Data de Publicação,Data de Celebração do Contrato,Prazo de Execução,Local de Execução,Fundamentação,Data de Fecho do Contrato,Preço Total Efetivo,Causas das Alterações ao Prazo,Causas das Alterações ao Preço,Estado,N.º registo do Acordo Quadro,Descrição do Acordo Quadro,Procedimento Centralizado
Diversas Pulseiras,Concurso público,Aquisição de bens móveis,"33140000-3, Material médico de consumo","Centro Hospitalar de Lisboa Central, E.P.E. (CHLC) (508080142)",EPJMEDICA ARTIGOS MEDICOS E HOSPITALARES (506820513),"1.086,40 €",31-01-2019,22-01-2019,365 dias,Portugal,"Artigo 20.º, n.º 1, alínea a) do Código dos Contratos Públicos",,,,,,Não aplicável.,Não aplicável.,FALSE
Diversas Pulseiras,Concurso público,Aquisição de bens móveis,"33140000-3, Material médico de consumo","Centro Hospitalar de Lisboa Central, E.P.E. (CHLC) (508080142)","Anastácio Saldanha Unipessoal, Lda (505804441)","2.888,90 €",31-01-2019,22-01-2019,365 dias,Portugal,"Artigo 20.º, n.º 1, alínea a) do Código dos Contratos Públicos",,,,,,Não aplicável.,Não aplicável.,FALSE
Diversas Pulseiras,Concurso público,Aquisição de bens móveis,"33140000-3, Material médico de consumo","Centro Hospitalar de Lisboa Central, E.P.E. (CHLC) (508080142)","EZEQUIEL PANAO JORGE, LDA (501412727)","7.177,50 €",31-01-2019,22-01-2019,365 dias,Portugal,"Artigo 20.º, n.º 1, alínea a) do Código dos Contratos Públicos",,,,,,Não aplicável.,Não aplicável.,FALSE
Diversas Pulseiras,Concurso público,Aquisição de bens móveis,"33140000-3, Material médico de consumo","Centro Hospitalar de Lisboa Central, E.P.E. (CHLC) (508080142)","GRIFOLS PORTUGAL- PROD.FARM.HOSP., (502041285)","22.800,00 €",31-01-2019,23-01-2019,365 dias,Portugal,"Artigo 20.º, n.º 1, alínea a) do Código dos Contratos Públicos",,,,,,Não aplicável.,Não aplicável.,FALSE
1-2.0022/19 - Sensores BIS com Colocação de Equipamento,Concurso público,Aquisição de bens móveis,"33140000-3, Material médico de consumo","Centro Hospitalar Universitário Lisboa Central, E. P. E. (508080142)","MEDTRONIC PORTUGAL, LDA (504223933)","205.200,00 €",29-01-2019,23-01-2019,365 dias,"Portugal, Lisboa, Lisboa","Artigo 20.º, n.º 1, alínea a) do Código dos Contratos Públicos",,,,,,Não aplicável.,Não aplicável.,FALSE
Algálias e Sacos de Urina para 2019,Concurso público,Aquisição de bens móveis,"33140000-3, Material médico de consumo","Centro Hospitalar de Lisboa Central, E.P.E. (CHLC) (508080142)","Teleflex Medical, S. A. (980249783)","6.723,95 €",29-01-2019,23-01-2019,365 dias,Portugal,"Artigo 20.º, n.º 1, alínea a) do Código dos Contratos Públicos",,,,,,Não aplicável.,Não aplicável.,FALSE
Algálias e Sacos de Urina para 2019,Concurso público,Aquisição de bens móveis,"33140000-3, Material médico de consumo","Centro Hospitalar de Lisboa Central, E.P.E. (CHLC) (508080142)",HR HOSPITALAR (501895558),"1.323,90 €",29-01-2019,21-01-2019,365 dias,Portugal,"Artigo 20.º, n.º 1, alínea a) do Código dos Contratos Públicos",,,,,,Não aplicável.,Não aplicável.,FALSE
Algálias e Sacos de Urina para 2019,Concurso público,Aquisição de bens móveis,"33140000-3, Material médico de consumo","Centro Hospitalar de Lisboa Central, E.P.E. (CHLC) (508080142)",Ezequiel Panão Jorge (501412727),"32.217,50 €",29-01-2019,23-01-2019,365 dias,Portugal,"Artigo 20.º, n.º 1, alínea a) do Código dos Contratos Públicos",,,,,,Não aplicável.,Não aplicável.,FALSE
Algálias e Sacos de Urina para 2019,Concurso público,Aquisição de bens móveis,"33140000-3, Material médico de consumo","Centro Hospitalar de Lisboa Central, E.P.E. (CHLC) (508080142)","COLOPLAST PORTUGAL SOC. UNIP., LDA  (503989037)","9.372,45 €",29-01-2019,23-01-2019,365 dias,Portugal,"Artigo 20.º, n.º 1, alínea a) do Código dos Contratos Públicos",,,,,,Não aplicável.,Não aplicável.,FALSE
Algálias e Sacos de Urina para 2019,Concurso público,Aquisição de bens móveis,"33140000-3, Material médico de consumo","Centro Hospitalar de Lisboa Central, E.P.E. (CHLC) (508080142)","C.R. BARD PORTUGAL, LDA. (502438274)","772,20 €",29-01-2019,23-01-2019,365 dias,Portugal,"Artigo 20.º, n.º 1, alínea a) do Código dos Contratos Públicos",,,,,,Não aplicável.,Não aplicável.,FALSE
Algálias e Sacos de Urina para 2019,Concurso público,Aquisição de bens móveis,"33140000-3, Material médico de consumo","Centro Hospitalar de Lisboa Central, E.P.E. (CHLC) (508080142)","B. Braun Medical, Lda. (501506543)","378,00 €",29-01-2019,23-01-2019,365 dias,Portugal,"Artigo 20.º, n.º 1, alínea a) do Código dos Contratos Públicos",,,,,,Não aplicável.,Não aplicável.,FALSE
Algálias e Sacos de Urina para 2019,Concurso público,Aquisição de bens móveis,"33140000-3, Material médico de consumo","Centro Hospitalar de Lisboa Central, E.P.E. (CHLC) (508080142)","Aviquimica, Lda. (500039720)","49.867,50 €",29-01-2019,23-01-2019,365 dias,Portugal,"Artigo 20.º, n.º 1, alínea a) do Código dos Contratos Públicos",,,,,,Não aplicável.,Não aplicável.,FALSE
Algálias e Sacos de Urina para 2019,Concurso público,Aquisição de bens móveis,"33140000-3, Material médico de consumo","Centro Hospitalar de Lisboa Central, E.P.E. (CHLC) (508080142)","Anastácio Saldanha, Lda (505804441)","3.102,81 €",29-01-2019,23-01-2019,365 dias,Portugal,"Artigo 20.º, n.º 1, alínea a) do Código dos Contratos Públicos",,,,,,Não aplicável.,Não aplicável.,FALSE
Algálias e Sacos de Urina para 2019,Concurso público,Aquisição de bens móveis,"33140000-3, Material médico de consumo","Centro Hospitalar de Lisboa Central, E.P.E. (CHLC) (508080142)","CARDINAL HEALTH PORTUGAL 513 UNIPESSOAL, LDA (513620834)","52,65 €",29-01-2019,25-01-2019,365 dias,Portugal,"Artigo 20.º, n.º 1, alínea a) do Código dos Contratos Públicos",,,,,,Não aplicável.,Não aplicável.,FALSE
"Papel para Marquesa, Catre e Pasta de Celulose para 2019",Concurso público,Aquisição de bens móveis,"33140000-3, Material médico de consumo","Centro Hospitalar de Lisboa Central, E.P.E. (CHLC) (508080142)",Salutec (506380408),"13.731,12 €",29-01-2019,21-01-2019,365 dias,"Portugal, Lisboa, Lisboa<BR/>Portugal","Artigo 20.º, n.º 1, alínea a) do Código dos Contratos Públicos",,,,,,Não aplicável.,Não aplicável.,FALSE
"Papel para Marquesa, Catre e Pasta de Celulose para 2019",Concurso público,Aquisição de bens móveis,"33140000-3, Material médico de consumo","Centro Hospitalar de Lisboa Central, E.P.E. (CHLC) (508080142)","MUC - MATERIAL UTILIDADE  CLINICA, LDA (502379308)","60.032,64 €",29-01-2019,21-01-2019,365 dias,"Portugal, Lisboa, Lisboa<BR/>Portugal","Artigo 20.º, n.º 1, alínea a) do Código dos Contratos Públicos",,,,,,Não aplicável.,Não aplicável.,FALSE
Cânulas de Traqueostomia,Concurso público,Aquisição de bens móveis,"33140000-3, Material médico de consumo","Centro Hospitalar de Lisboa Central, E.P.E. (CHLC) (508080142)",SMITHS MEDICAL (507445937),"13.232,00 €",29-01-2019,21-01-2019,365 dias,"Portugal<BR/>Portugal, Lisboa, Lisboa","Artigo 20.º, n.º 1, alínea a) do Código dos Contratos Públicos",,,,,,Não aplicável.,Não aplicável.,FALSE
Cânulas de Traqueostomia,Concurso público,Aquisição de bens móveis,"33140000-3, Material médico de consumo","Centro Hospitalar de Lisboa Central, E.P.E. (CHLC) (508080142)","MEDTRONIC PORTUGAL, LDA (504223933)","10.635,00 €",29-01-2019,21-01-2019,365 dias,Portugal,"Artigo 20.º, n.º 1, alínea a) do Código dos Contratos Públicos",,,,,,Não aplicável.,Não aplicável.,FALSE
Cânulas de Traqueostomia,Concurso público,Aquisição de bens móveis,"33140000-3, Material médico de consumo","Centro Hospitalar de Lisboa Central, E.P.E. (CHLC) (508080142)","MEDICINÁLIA CORMÉDICA, LDA. (500684324)","5.070,00 €",29-01-2019,21-01-2019,365 dias,"Portugal<BR/>Portugal, Lisboa, Lisboa","Artigo 20.º, n.º 1, alínea a) do Código dos Contratos Públicos",,,,,,Não aplicável.,Não aplicável.,FALSE
Cânulas de Traqueostomia,Concurso público,Aquisição de bens móveis,"33140000-3, Material médico de consumo","Centro Hospitalar de Lisboa Central, E.P.E. (CHLC) (508080142)",INTERSURGICAL (503480045),"2.702,00 €",29-01-2019,21-01-2019,365 dias,"Portugal<BR/>Portugal, Lisboa, Lisboa","Artigo 20.º, n.º 1, alínea a) do Código dos Contratos Públicos",,,,,,Não aplicável.,Não aplicável.,FALSE
Cabos de Bisturi para 2019,Concurso público,Aquisição de bens móveis,"33140000-3, Material médico de consumo","Centro Hospitalar de Lisboa Central, E.P.E. (CHLC) (508080142)","MEDTRONIC PORTUGAL, LDA (504223933)","39.396,90 €",29-01-2019,17-01-2019,365 dias,Portugal,"Artigo 20.º, n.º 1, alínea a) do Código dos Contratos Públicos",,,,,,Não aplicável.,Não aplicável.,FALSE
Aquisição de Adesivos para 2019,Ao abrigo de acordo-quadro (art.º 259.º),Aquisição de bens móveis,"33140000-3, Material médico de consumo","Centro Hospitalar Universitário Lisboa Central, E. P. E. (508080142)","Bastos Viegas, SA (500042772)","15.032,13 €",28-01-2019,11-01-2019,354 dias,"Portugal, Lisboa, Lisboa",Artigo 259.º do Código dos Contratos Públicos,,,,,,2183753,CP 2016/82 - Acordo quadro para fornecimento de Nastros e Fitas Cirúrgicas às Instituições e Serviços do Serviço Nacional de Saúde,FALSE
Aquisição de Adesivos para 2019,Ao abrigo de acordo-quadro (art.º 259.º),Aquisição de bens móveis,"33140000-3, Material médico de consumo","Centro Hospitalar Universitário Lisboa Central, E. P. E. (508080142)","3M España, S.L. - Sucursal em Portugal (980560241)","19,63 €",28-01-2019,03-01-2019,354 dias,"Portugal, Lisboa, Lisboa",Artigo 259.º do Código dos Contratos Públicos,,,,,,2183753,CP 2016/82 - Acordo quadro para fornecimento de Nastros e Fitas Cirúrgicas às Instituições e Serviços do Serviço Nacional de Saúde,FALSE
Aquisição de Campos para 2019,Ao abrigo de acordo-quadro (art.º 259.º),Aquisição de bens móveis,"33140000-3, Material médico de consumo","Centro Hospitalar Universitário Lisboa Central, E. P. E. (508080142)","Paul Hartmann, Lda (502271728)","16.788,50 €",28-01-2019,11-01-2019,354 dias,"Portugal, Lisboa, Lisboa",Artigo 259.º do Código dos Contratos Públicos,,,,,,2497138,CP 2016/42 - Acordo quadro para o fornecimento de Campos Operatórios,FALSE
Aquisição de Campos para 2019,Ao abrigo de acordo-quadro (art.º 259.º),Aquisição de bens móveis,"33140000-3, Material médico de consumo","Centro Hospitalar Universitário Lisboa Central, E. P. E. (508080142)","Paul Hartmann, Lda (502271728)","19.572,06 €",28-01-2019,11-01-2019,354 dias,"Portugal, Lisboa, Lisboa",Artigo 259.º do Código dos Contratos Públicos,,,,,,2497138,CP 2016/42 - Acordo quadro para o fornecimento de Campos Operatórios,FALSE
Aquisição de Campos para 2019,Ao abrigo de acordo-quadro (art.º 259.º),Aquisição de bens móveis,"33140000-3, Material médico de consumo","Centro Hospitalar Universitário Lisboa Central, E. P. E. (508080142)","Docworld, Lda (508592909)","12.355,98 €",28-01-2019,11-01-2019,354 dias,"Portugal, Lisboa, Lisboa",Artigo 259.º do Código dos Contratos Públicos,,,,,,2497138,CP 2016/42 - Acordo quadro para o fornecimento de Campos Operatórios,FALSE
Aquisição de Campos para 2019,Ao abrigo de acordo-quadro (art.º 259.º),Aquisição de bens móveis,"33140000-3, Material médico de consumo","Centro Hospitalar Universitário Lisboa Central, E. P. E. (508080142)","Bastos Viegas, SA (500042772)","28.230,44 €",28-01-2019,11-01-2019,354 dias,"Portugal, Lisboa, Lisboa",Artigo 259.º do Código dos Contratos Públicos,,,,,,2497138,CP 2016/42 - Acordo quadro para o fornecimento de Campos Operatórios,FALSE
Aquisição de Campos para 2019,Ao abrigo de acordo-quadro (art.º 259.º),Aquisição de bens móveis,"33140000-3, Material médico de consumo","Centro Hospitalar Universitário Lisboa Central, E. P. E. (508080142)","Anastácio Saldanha, Lda (505804441)","24.088,00 €",28-01-2019,11-01-2019,354 dias,"Portugal, Lisboa, Lisboa",Artigo 259.º do Código dos Contratos Públicos,,,,,,2497138,CP 2016/42 - Acordo quadro para o fornecimento de Campos Operatórios,FALSE
Testes de monitorização da terapeutica anti-TNF-ALFA,Consulta Prévia,Aquisição de bens móveis,"33696500-0, Reagentes de laboratório","Centro Hospitalar de Lisboa Central, E.P.E. (CHLC) (508080142)",Arium (502501880),"11.000,00 €",28-01-2019,16-08-2018,365 dias,"Portugal, Lisboa, Lisboa","Artigo 20.º, n.º 1, alínea c) do Código dos Contratos Públicos",,,,,,Não aplicável.,Não aplicável.,FALSE
Cânula duo 23G,Ajuste Direto Regime Geral,Aquisição de bens móveis,"33000000-0, Equipamento médico, medicamentos e produtos para cuidados pessoais","Centro Hospitalar Universitário Lisboa Central, E. P. E. (508080142)",Optifar (501609377),"2.224,00 €",28-01-2019,28-01-2019,8 dias,"Portugal, Lisboa, Lisboa","Artigo 20.º, n.º 1, alínea d) do Código dos Contratos Públicos e artigo 4.º, nº 1 do DLR nº 34/2008/M, de 14.08",,,,,,Não aplicável.,Não aplicável.,FALSE
Stents Autoexpansíveis cobertos c/ PTFE e Heparina,Concurso público,Aquisição de bens móveis,"33140000-3, Material médico de consumo","Centro Hospitalar de Lisboa Central, E.P.E. (CHLC) (508080142)",MEDICINALIA CORMEDICA (500684324),"144.157,50 €",25-01-2019,16-01-2019,340 dias,"Portugal, Lisboa, Lisboa<BR/>Portugal","Artigo 20.º, n.º 1, alínea b) do Código dos Contratos Públicos",,,,,,Não aplicável.,Não aplicável.,FALSE
Kit de Plasmaferese/Eritaciferese para 2019,Concurso público,Aquisição de bens móveis,"33140000-3, Material médico de consumo","Centro Hospitalar de Lisboa Central, E.P.E. (CHLC) (508080142)","TERUMO BCT PORTUGAL UNIPESSOAL, LDA (510627048)","221.400,00 €",25-01-2019,22-01-2019,340 dias,"Portugal<BR/>Portugal, Lisboa, Lisboa","Artigo 20.º, n.º 1, alínea a) do Código dos Contratos Públicos",,,,,,Não aplicável.,Não aplicável.,FALSE
Cânula,Consulta Prévia,Aquisição de bens móveis,"33000000-0, Equipamento médico, medicamentos e produtos para cuidados pessoais","Centro Hospitalar Universitário Lisboa Central, E. P. E. (508080142)",Intersurgical (503480045),"700,00 €",25-01-2019,25-01-2019,2 dias,"Portugal, Lisboa, Lisboa","Artigo 20.º, n.º 1, alínea c) do Código dos Contratos Públicos",,,,,,Não aplicável.,Não aplicável.,FALSE
"1-2.0058/19 - Tetinas, Biberons, Pensos e Outros",Concurso público,Aquisição de bens móveis,"33140000-3, Material médico de consumo","Centro Hospitalar Universitário Lisboa Central, E. P. E. (508080142)",Pulmocor (501402578),"3.063,60 €",25-01-2019,17-01-2019,365 dias,"Portugal, Lisboa, Lisboa","Artigo 20.º, n.º 1, alínea a) do Código dos Contratos Públicos",,,,,,Não aplicável.,Não aplicável.,FALSE
"1-2.0058/19 - Tetinas, Biberons, Pensos e Outros",Concurso público,Aquisição de bens móveis,"33140000-3, Material médico de consumo","Centro Hospitalar Universitário Lisboa Central, E. P. E. (508080142)",PAUL HARTMANN (502271728),"3.918,02 €",25-01-2019,17-01-2019,365 dias,"Portugal, Lisboa, Lisboa","Artigo 20.º, n.º 1, alínea a) do Código dos Contratos Públicos",,,,,,Não aplicável.,Não aplicável.,FALSE
"1-2.0058/19 - Tetinas, Biberons, Pensos e Outros",Concurso público,Aquisição de bens móveis,"33140000-3, Material médico de consumo","Centro Hospitalar Universitário Lisboa Central, E. P. E. (508080142)","Indas Portugal, Lda. (503505196)","3.607,84 €",25-01-2019,17-01-2019,365 dias,"Portugal, Lisboa, Lisboa","Artigo 20.º, n.º 1, alínea a) do Código dos Contratos Públicos",,,,,,Não aplicável.,Não aplicável.,FALSE
"1-2.0058/19 - Tetinas, Biberons, Pensos e Outros",Concurso público,Aquisição de bens móveis,"33140000-3, Material médico de consumo","Centro Hospitalar Universitário Lisboa Central, E. P. E. (508080142)","H. R. Hospitalar, Ldª (501895558)","19.619,21 €",25-01-2019,17-01-2019,365 dias,"Portugal, Lisboa, Lisboa","Artigo 20.º, n.º 1, alínea a) do Código dos Contratos Públicos",,,,,,Não aplicável.,Não aplicável.,FALSE
"1-2.0058/19 - Tetinas, Biberons, Pensos e Outros",Concurso público,Aquisição de bens móveis,"33140000-3, Material médico de consumo","Centro Hospitalar Universitário Lisboa Central, E. P. E. (508080142)","Dimor Lusitana, Lda (500730741)","16.132,14 €",25-01-2019,17-01-2019,365 dias,"Portugal, Lisboa, Lisboa","Artigo 20.º, n.º 1, alínea a) do Código dos Contratos Públicos",,,,,,Não aplicável.,Não aplicável.,FALSE
"1-2.0058/19 - Tetinas, Biberons, Pensos e Outros",Concurso público,Aquisição de bens móveis,"33140000-3, Material médico de consumo","Centro Hospitalar Universitário Lisboa Central, E. P. E. (508080142)","BASTOS VIEGAS,SA (500042772)","3.523,97 €",25-01-2019,17-01-2019,365 dias,"Portugal, Lisboa, Lisboa","Artigo 20.º, n.º 1, alínea a) do Código dos Contratos Públicos",,,,,,Não aplicável.,Não aplicável.,FALSE
"1-2.0058/19 - Tetinas, Biberons, Pensos e Outros",Concurso público,Aquisição de bens móveis,"33140000-3, Material médico de consumo","Centro Hospitalar Universitário Lisboa Central, E. P. E. (508080142)",AVIQUIMICA IMPORT E MANUFATURA (500039720),"5.654,40 €",25-01-2019,17-01-2019,365 dias,"Portugal, Lisboa, Lisboa","Artigo 20.º, n.º 1, alínea a) do Código dos Contratos Públicos",,,,,,Não aplicável.,Não aplicável.,FALSE
1-2.0007/19 - Diversas Máscaras de Anestesia,Concurso público,Aquisição de bens móveis,"33140000-3, Material médico de consumo","Centro Hospitalar Universitário Lisboa Central, E. P. E. (508080142)","INTERSURGICAL PORTUGAL,LDA. (503480045)","38.272,05 €",24-01-2019,17-01-2019,365 dias,"Portugal, Lisboa, Lisboa","Artigo 20.º, n.º 1, alínea a) do Código dos Contratos Públicos",,,,,,Não aplicável.,Não aplicável.,FALSE
1-2.0007/19 - Diversas Máscaras de Anestesia,Concurso público,Aquisição de bens móveis,"33140000-3, Material médico de consumo","Centro Hospitalar Universitário Lisboa Central, E. P. E. (508080142)","Teleflex Medical, S. A. (980249783)","15.583,31 €",24-01-2019,17-01-2019,365 dias,"Portugal, Lisboa, Lisboa","Artigo 20.º, n.º 1, alínea a) do Código dos Contratos Públicos",,,,,,Não aplicável.,Não aplicável.,FALSE
"Condutores, Tubos Endotraqueais e Outros para 2019",Concurso público,Aquisição de bens móveis,"33140000-3, Material médico de consumo","Centro Hospitalar de Lisboa Central, E.P.E. (CHLC) (508080142)","Teleflex Medical, S. A. (980249783)","1.965,00 €",24-01-2019,24-01-2019,365 dias,"Portugal, Lisboa, Lisboa<BR/>Portugal","Artigo 20.º, n.º 1, alínea a) do Código dos Contratos Públicos",,,,,,Não aplicável.,Não aplicável.,FALSE
"Condutores, Tubos Endotraqueais e Outros para 2019",Concurso público,Aquisição de bens móveis,"33140000-3, Material médico de consumo","Centro Hospitalar de Lisboa Central, E.P.E. (CHLC) (508080142)","OVERPHARMA,LDA. (505792362)","6.434,20 €",24-01-2019,24-01-2019,365 dias,"Portugal<BR/>Portugal, Lisboa, Lisboa","Artigo 20.º, n.º 1, alínea a) do Código dos Contratos Públicos",,,,,,Não aplicável.,Não aplicável.,FALSE
"Condutores, Tubos Endotraqueais e Outros para 2019",Concurso público,Aquisição de bens móveis,"33140000-3, Material médico de consumo","Centro Hospitalar de Lisboa Central, E.P.E. (CHLC) (508080142)",MEDTRONIC PORTUGAL COMERCIO E DIST. APARELHOS MED. (504223933),"3.814,00 €",24-01-2019,24-01-2019,365 dias,"Portugal, Lisboa, Lisboa<BR/>Portugal","Artigo 20.º, n.º 1, alínea a) do Código dos Contratos Públicos",,,,,,Não aplicável.,Não aplicável.,FALSE
"Condutores, Tubos Endotraqueais e Outros para 2019",Concurso público,Aquisição de bens móveis,"33140000-3, Material médico de consumo","Centro Hospitalar de Lisboa Central, E.P.E. (CHLC) (508080142)","MBA PORTUGAL, S.A. (504445960)","2.483,40 €",24-01-2019,24-01-2019,365 dias,"Portugal<BR/>Portugal, Lisboa, Lisboa","Artigo 20.º, n.º 1, alínea a) do Código dos Contratos Públicos",,,,,,Não aplicável.,Não aplicável.,FALSE
"Condutores, Tubos Endotraqueais e Outros para 2019",Concurso público,Aquisição de bens móveis,"33140000-3, Material médico de consumo","Centro Hospitalar de Lisboa Central, E.P.E. (CHLC) (508080142)","INTERSURGICAL PORTUGAL,LDA. (503480045)","2.823,90 €",24-01-2019,24-01-2019,365 dias,"Portugal<BR/>Portugal, Lisboa, Lisboa","Artigo 20.º, n.º 1, alínea a) do Código dos Contratos Públicos",,,,,,Não aplicável.,Não aplicável.,FALSE
"Condutores, Tubos Endotraqueais e Outros para 2019",Concurso público,Aquisição de bens móveis,"33140000-3, Material médico de consumo","Centro Hospitalar de Lisboa Central, E.P.E. (CHLC) (508080142)","H. R. Hospitalar, Ldª (501895558)","371,00 €",24-01-2019,24-01-2019,365 dias,"Portugal, Lisboa, Lisboa<BR/>Portugal","Artigo 20.º, n.º 1, alínea a) do Código dos Contratos Públicos",,,,,,Não aplicável.,Não aplicável.,FALSE
"Condutores, Tubos Endotraqueais e Outros para 2019",Concurso público,Aquisição de bens móveis,"33140000-3, Material médico de consumo","Centro Hospitalar de Lisboa Central, E.P.E. (CHLC) (508080142)",Biosonda (501463313),"2.610,00 €",24-01-2019,24-01-2019,365 dias,"Portugal<BR/>Portugal, Lisboa, Lisboa","Artigo 20.º, n.º 1, alínea a) do Código dos Contratos Públicos",,,,,,Não aplicável.,Não aplicável.,FALSE
Coil para a Angiografia,Concurso público,Aquisição de bens móveis,"33140000-3, Material médico de consumo","Centro Hospitalar de Lisboa Central, E.P.E. (CHLC) (508080142)",Penumbra Europe GMBH (DE815054796),"105.003,11 €",23-01-2019,21-01-2019,344 dias,"Portugal, Lisboa, Lisboa<BR/>Portugal","Artigo 20.º, n.º 1, alínea b) do Código dos Contratos Públicos",,,,,,Não aplicável.,Não aplicável.,FALSE
"Aquisição de Seguros de Acidentes de Trabalho para os funcionários do Centro Hospitalar Universitário de Lisboa Central, EPE, para o ano de 2019",Ajuste Direto Regime Geral,Aquisição de serviços,"66512100-3, Serviços de seguros de acidentes","Centro Hospitalar de Lisboa Central, E.P.E. (CHLC) (508080142)","Willis - Corretores de Seguros, S.A. (500188629)","839.044,37 €",22-01-2019,28-12-2018,365 dias,"Portugal<BR/>Portugal, Lisboa, Lisboa","Artigo 27.º, n.º 1, alínea a) do Código dos Contratos Públicos",,,,,,Não aplicável.,Não aplicável.,FALSE
cadeira de rodas e colar cervical,Consulta Prévia,Aquisição de bens móveis,"33100000-1, Equipamento médico","Centro Hospitalar Universitário Lisboa Central, E. P. E. (508080142)",ORTO-REGO- COMERCIO E APLICAÇÃO DE PRODUTOS (504820915),"382,00 €",22-01-2019,26-03-2018,280 dias,"Portugal, Lisboa, Lisboa","Artigo 20.º, n.º 1, alínea c) do Código dos Contratos Públicos",,,,,,Não aplicável.,Não aplicável.,FALSE
Reagentes para Endocrinologia Especial,Ajuste Direto Regime Geral,Aquisição de bens móveis,"33696500-0, Reagentes de laboratório","Centro Hospitalar de Lisboa Central, E. P. E. (508080142)",CRUZLAB (514451270),"12.400,00 €",22-01-2019,22-05-2018,210 dias,"Portugal, Lisboa, Lisboa","Artigo 20.º, n.º 1, alínea d) do Código dos Contratos Públicos",,,,,,Não aplicável.,Não aplicável.,FALSE
componentes prótese membro,Consulta Prévia,Aquisição de bens móveis,"33100000-1, Equipamento médico","Centro Hospitalar Universitário Lisboa Central, E. P. E. (508080142)",ORTOPEDIA MODERNA (500481300),"1.195,00 €",21-01-2019,09-03-2018,266 dias,"Portugal, Lisboa, Lisboa","Artigo 20.º, n.º 1, alínea c) do Código dos Contratos Públicos",,,,,,Não aplicável.,Não aplicável.,FALSE
cadeira de rodas,Consulta Prévia,Aquisição de bens móveis,"33100000-1, Equipamento médico","Centro Hospitalar Universitário Lisboa Central, E. P. E. (508080142)",ORTOPEDIA MODERNA (500481300),"3.623,50 €",21-01-2019,26-03-2018,280 dias,"Portugal, Lisboa, Lisboa","Artigo 20.º, n.º 1, alínea c) do Código dos Contratos Públicos",,,,,,Não aplicável.,Não aplicável.,FALSE
1-1-5000/2019 - Reagentes para Gasimetrias e demais bens necessários para a realização das análises clínicas,Concurso público,Aquisição de bens móveis,"33694000-1, Meios de diagnóstico","Centro Hospitalar Universitário Lisboa Central, E. P. E. (508080142)","RADIOMETER IBERICA,S.A. (980201667)","591.590,91 €",21-01-2019,03-01-2019,365 dias,"Portugal, Lisboa, Lisboa","Artigo 20.º, n.º 1, alínea a) do Código dos Contratos Públicos",,,,,,Não aplicável.,Não aplicável.,FALSE
coletes de compressão,Consulta Prévia,Aquisição de bens móveis,"33100000-1, Equipamento médico","Centro Hospitalar Universitário Lisboa Central, E. P. E. (508080142)","MUC - MATERIAL UTILIDADE  CLINICA, LDA (502379308)","24.960,00 €",21-01-2019,26-07-2018,158 dias,"Portugal, Lisboa, Lisboa","Artigo 20.º, n.º 1, alínea c) do Código dos Contratos Públicos",,,,,,Não aplicável.,Não aplicável.,FALSE
