Objeto do Contrato,Tipo de Procedimento,Tipo(s) de Contrato,CPVs,Entidade(s) Adjudicante(s),Entidade(s) Adjudicatária(s),Preço Contratual,Data de Publicação,Data de Celebração do Contrato,Prazo de Execução,Local de Execução,Fundamentação,Data de Fecho do Contrato,Preço Total Efetivo,Causas das Alterações ao Prazo,Causas das Alterações ao Preço,Estado,N.º registo do Acordo Quadro,Descrição do Acordo Quadro,Procedimento Centralizado
"AQUISIÇÃO DE 50 CARREGADORES DE BATERIA INDIVIDUAIS DE CARGA RÁPIDA PARA OS EQUIPAMENTOS PORTÁTEIS, DO SISTEMA DE COMUNICAÇÃO TETRA.",Ajuste Direto Regime Geral,Aquisição de bens móveis,"31158000-8, Carregadores","Instituto Nacional de Emergência Médica, IP (501356126)","SEPURA, PLC (884251703)","775,00 €",28-09-2011,02-09-2011,30 dias,"Portugal, Lisboa, Lisboa","Artigo 26.º, n.º 1, alínea e) do Código dos Contratos Públicos",,,,,,Não aplicável.,Não aplicável.,
"PRESTAÇÃO DE SERVIÇO JURIDICO POR FORMA A ASSEGURAR A REPRESENTAÇÃO DO INEM, EM SEDE DE CONTENCIOSO JUDICIAL DE PEQUENA DIMENSÃO.",Ajuste Direto Regime Geral,Aquisição de serviços,"79100000-5, Serviços jurídicos","Instituto Nacional de Emergência Médica, IP (501356126)",VELOSA DA SILVA E ASSOCIADOS (507781503),"7.357,00 €",28-09-2011,06-09-2011,30 dias,"Portugal, Lisboa, Lisboa","Artigo 27.º, n.º 1, alínea b) do Código dos Contratos Públicos",,,,,,Não aplicável.,Não aplicável.,
VERBA A DISPONIBILIZAR PARA O PAGAMENTO DE PORTAGENS A REALIZAR NO 2º SEMESTRE DE 2011.,Ajuste Direto Regime Geral,Aquisição de serviços,"63712210-8, Serviços de portagem em auto-estradas","Instituto Nacional de Emergência Médica, IP (501356126)",AUTO-ESTRADAS DOURO LITORAL SA (507027140),"200,00 €",27-09-2011,26-09-2011,30 dias,"Portugal, Lisboa, Lisboa","Artigo 24.º, n.º 1, alínea e) do Código dos Contratos Públicos",,,,,,Não aplicável.,Não aplicável.,
"PARA REPOSIÇÃO DO STOCK NO ARMAZÉM DE MEDICAMENTOS FOI CONSULTADA A EMPRESA B.BRAUN PARA O FORNECIMENTO DE 1000 AMPOLAS DE GLUCOSE 30%, sol. inj. 20ml.",Ajuste Direto Regime Geral,Aquisição de bens móveis,"33690000-3, Medicamentos vários","Instituto Nacional de Emergência Médica, IP (501356126)","B. BRAUN MEDICAL, LDA. (501506543)","553,90 €",27-09-2011,26-09-2011,30 dias,"Portugal, Lisboa, Lisboa","Artigo 26.º, n.º 1, alínea e) do Código dos Contratos Públicos",,,,,,Não aplicável.,Não aplicável.,
"CONSTRUÇÃO DE DIVISÓRIAS EM ESPAÇO DE ARMAZÉM, COM A FINALIDADE DE ISOLAR O ARMAZÉM E INSTALAR O GABINETE DA LOGISTICA, BASE DE AMBULÃNCIAS E CASA DE BANHO.",Ajuste Direto Regime Geral,Concessão de obras públicas,"45213220-1, Obras de construção de armazéns","Instituto Nacional de Emergência Médica, IP (501356126)","CME, SA (501369295)","32.592,99 €",26-09-2011,21-09-2011,30 dias,"Portugal, Lisboa, Lisboa","Artigo 19.º, alínea a) do Código dos Contratos Públicos",,,,,,Não aplicável.,Não aplicável.,
REPARAÇÃO DE UM VENTILADOR WEINMANN sn 7619,Ajuste Direto Regime Geral,Aquisição de serviços,"50000000-5, Serviços de reparação e manutenção","Instituto Nacional de Emergência Médica, IP (501356126)","FUTURVIDA, LDA. (504260510)","2.140,15 €",26-09-2011,21-09-2011,30 dias,"Portugal, Lisboa, Lisboa","Artigo 24.º, n.º 1, alínea e) do Código dos Contratos Públicos",,,,,,Não aplicável.,Não aplicável.,
"DESPESA COM A VIAGEM DE REGRESSO DO DRº FERNANDO NIEVES PARA O URUGUAI, EM 23 DE AGOSTO 2011.",Ajuste Direto Regime Geral,Aquisição de serviços,"63515000-2, Serviços de viagens","Instituto Nacional de Emergência Médica, IP (501356126)",CLUBE VIAJAR (503542016),"699,82 €",26-09-2011,19-09-2011,30 dias,"Portugal, Lisboa, Lisboa","Artigo 27.º, n.º 1, alínea h) do Código dos Contratos Públicos",,,,,,Não aplicável.,Não aplicável.,
Prestação de serviço de comunicações de interligações e outros serviços conexos de comunicações.,Ajuste Direto Regime Geral,Aquisição de serviços,"64210000-1, Serviços telefónicos e de transmissão de dados","Instituto Nacional de Emergência Médica, IP (501356126)","PT PRIME - Soluções Empresariais de Telecomunicações e de Sistemas, S.A. (502840757)","30.964,80 €",26-09-2011,01-08-2011,31 dias,Portugal,"Artigo 24.º, n.º 1, alínea c) do Código dos Contratos Públicos",,,,,,Não aplicável.,Não aplicável.,
"Fornecimento de 1000 ampolas de Adrenalina, sol. inj. 1mg/1ml, amp.1ml; 50 ampolas de aminofilina, sol. inj. 240mg/10 ml, amp. 10ml; 1000 ampolas de Atropina, sol. inj. 0,5mg/1ml, amp. 1ml; 200 frascos de Bicarbonato de Sódio 8,4%, sol. inj. frs. 100 ml; 1000 ampolas de Glucose 30%, sol. inj. 20ml; 4000 sacos de Cloreto de Sódio 0,9% sol. inj. 9mg/ml, saco de 500ml; 200 frascos de Lactato de Ringer, Sol. Inj. Fr. 500ml;  60 ampolas de Propofol 1%, amp. 20ml emulsão inj. 200mg/20ml; 200 ampolas de Flumazenilo, sol. Inj. 0,5mg/5ml; 300 ampolas de Água para Injectáveis, amp. 10ml; 200 frascos de Heparina, sol. inj. 5000UI/ml, fr. 5ml e 100 ampolas de Tiopental sódico, pó p/sol. inj. 500mg.",Ao abrigo de acordo-quadro (art.º 258.º),Aquisição de bens móveis,"33690000-3, Medicamentos vários","Instituto Nacional de Emergência Médica, IP (501356126)","B. BRAUN MEDICAL, LDA. (501506543)","11.285,94 €",22-09-2011,14-06-2011,30 dias,"Portugal, Lisboa, Lisboa","Artigo 26.º, n.º 1, alínea e) do Código dos Contratos Públicos",,,,,,Não definido.,Não definido.,
