Objeto do Contrato,Tipo de Procedimento,Tipo(s) de Contrato,CPVs,Entidade(s) Adjudicante(s),Entidade(s) Adjudicatária(s),Preço Contratual,Data de Publicação,Data de Celebração do Contrato,Prazo de Execução,Local de Execução,Fundamentação,Data de Fecho do Contrato,Preço Total Efetivo,Causas das Alterações ao Prazo,Causas das Alterações ao Preço,Estado,N.º registo do Acordo Quadro,Descrição do Acordo Quadro,Procedimento Centralizado
AD1592-14Cabos para monitor Philips m-70,Ajuste Direto Regime Geral,Aquisição de bens móveis<br/>Aquisição de serviços,"50000000-5, Serviços de reparação e manutenção","Instituto Português de Oncologia de Lisboa Francisco Gentil, E. P. E. (506361616)",MEDICINÁLIA CORMÉDICA (500684324),"7.632,00 €",10-11-2014,07-07-2014,1 dias,"Portugal, Lisboa, Lisboa","Artigo 20.º, n.º 1, alínea a) do Código dos Contratos Públicos",,,,,,Não aplicável.,Não aplicável.,FALSE
AD2559-14r Reagentes,Ajuste Direto Regime Geral,Aquisição de bens móveis,"33696500-0, Reagentes de laboratório","Instituto Português de Oncologia de Lisboa Francisco Gentil, E. P. E. (506361616)","ROCHE SISTEMAS DE DIAGNOSTICOS, , LDA (504282921)","5.170,10 €",10-11-2014,10-11-2014,3 dias,"Portugal, Lisboa, Lisboa","Artigo 24.º, n.º 1, alínea e) do Código dos Contratos Públicos",,,,,,Não aplicável.,Não aplicável.,FALSE
As1527-14 Diverso material de tratamento,Ajuste Direto Regime Geral,Aquisição de bens móveis,"33140000-3, Material médico de consumo","Instituto Português de Oncologia de Lisboa Francisco Gentil, E. P. E. (506361616)",B.BRAUN MEDICAL LDA (501506543),"24.283,20 €",10-11-2014,06-06-2014,10 dias,"Portugal, Lisboa, Lisboa","Artigo 26.º, n.º 1, alínea a) do Código dos Contratos Públicos",,,,,,Não aplicável.,Não aplicável.,FALSE
Ad1528-14 Kit Biópsia por vácuo,Ajuste Direto Regime Geral,Aquisição de bens móveis,"33140000-3, Material médico de consumo","Instituto Português de Oncologia de Lisboa Francisco Gentil, E. P. E. (506361616)","C.R. BARD PORTUGAL, LDA (502438274)","14.000,00 €",10-11-2014,09-06-2014,2 dias,"Portugal, Lisboa, Lisboa","Artigo 26.º, n.º 1, alínea a) do Código dos Contratos Públicos",,,,,,Não aplicável.,Não aplicável.,FALSE
Contrato de assistência técnica a hottes e câmaras de fluxo,Ajuste Direto Regime Geral,Aquisição de serviços,"50400000-9, Serviços de reparação e manutenção de equipamento médico e de precisão","Instituto Português de Oncologia de Lisboa FG, E.P.E. (506361616)","TRDELABOR, LDA (503069442)","5.220,00 €",07-11-2014,24-01-2014,341 dias,"Portugal, Lisboa, Lisboa","Artigo 20.º, n.º 1, alínea a) do Código dos Contratos Públicos",,,,,,Não aplicável.,Não aplicável.,FALSE
AD1447-2014-Contrato de assistência técnica,Ajuste Direto Regime Geral,Aquisição de serviços,"50400000-9, Serviços de reparação e manutenção de equipamento médico e de precisão","Instituto Português de Oncologia de Lisboa FG, E.P.E. (506361616)","PHILIPS PORTUGUESA, S.A. (500216843)","51.399,96 €",07-11-2014,21-08-2014,365 dias,"Portugal, Lisboa, Lisboa","Artigo 24.º, n.º 1, alínea e) do Código dos Contratos Públicos",,,,,,Não aplicável.,Não aplicável.,FALSE
Contrato de assistência técnica a  UPS,Ajuste Direto Regime Geral,Aquisição de serviços,"50800000-3, Serviços de reparação e manutenção diversos","Instituto Português de Oncologia de Lisboa FG, E.P.E. (506361616)","EMERSON NETWORK POWER, LDA (503322520)","10.610,00 €",07-11-2014,06-05-2014,300 dias,"Portugal, Lisboa, Lisboa","Artigo 20.º, n.º 1, alínea a) do Código dos Contratos Públicos",,,,,,Não aplicável.,Não aplicável.,FALSE
AD1458-14Luvas de exame,Ajuste Direto Regime Geral,Aquisição de bens móveis,"18424300-0, Luvas descartáveis","Instituto Português de Oncologia de Lisboa Francisco Gentil, E. P. E. (506361616)",MEDICINÁLIA CORMÉDICA (500684324),"5.700,00 €",06-11-2014,06-06-2014,1 dias,"Portugal, Lisboa, Lisboa","Artigo 26.º, n.º 1, alínea a) do Código dos Contratos Públicos",,,,,,Não aplicável.,Não aplicável.,FALSE
AD1432-14-fACT VIII  COAG.SANGUI. IV ANTI-HEMOFILICO,Ajuste Direto Regime Geral,Aquisição de bens móveis,"33690000-3, Medicamentos vários","Instituto Português de Oncologia de Lisboa Francisco Gentil, E. P. E. (506361616)","OCTAPHARMA-PRODUTOS FARMACEUTICOS, LDA (502820780)","5.202,48 €",06-11-2014,19-05-2014,2 dias,"Portugal, Lisboa, Lisboa","Artigo 24.º, n.º 1, alínea e) do Código dos Contratos Públicos",,,,,,Não aplicável.,Não aplicável.,FALSE
AD1097-2014-Aquisição medicamentos CARMUSTINA,Ajuste Direto Regime Geral,Aquisição de bens móveis,"33690000-3, Medicamentos vários","Instituto Português de Oncologia de Lisboa Francisco Gentil, E. P. E. (506361616)","ETIOPHARMA, SA (509393357)","6.392,00 €",05-11-2014,15-04-2014,1 dias,"Portugal, Lisboa, Lisboa","Artigo 24.º, n.º 1, alínea e) do Código dos Contratos Públicos",,,,,,Não aplicável.,Não aplicável.,FALSE
Tubos cristal-equipamentos médicos,Ajuste Direto Regime Geral,Aquisição de bens móveis,"33100000-1, Equipamento médico","Instituto Português de Oncologia de Lisboa Francisco Gentil, E. P. E. (506361616)","MÁRIO MENDES, LDA (500184003)","12.250,00 €",04-11-2014,22-04-2014,2 dias,"Portugal, Lisboa, Lisboa","Artigo 20.º, n.º 1, alínea a) do Código dos Contratos Públicos",,,,,,Não aplicável.,Não aplicável.,FALSE
Fiscalização de obras em curso,Ajuste Direto Regime Geral,Aquisição de serviços,"71500000-3, Serviços relacionados com a construção","Instituto Português de Oncologia de Lisboa Francisco Gentil, E. P. E. (506361616)",COFIPLAN -GESTÃO COORDENAÇÃO E FISCALIZAÇÃO (503924440),"7.485,00 €",04-11-2014,29-05-2014,92 dias,"Portugal, Lisboa, Lisboa","Artigo 20.º, n.º 1, alínea a) do Código dos Contratos Públicos",,,,,,Não aplicável.,Não aplicável.,FALSE
Reagentes de Laboratório,Ajuste Direto Regime Geral,Aquisição de bens móveis,"33696500-0, Reagentes de laboratório","Instituto Português de Oncologia de Lisboa Francisco Gentil, E. P. E. (506361616)","QUILABAN-QUIMICA LABORATORIAL ANALITICA, SA (500399670)","8.408,50 €",04-11-2014,03-11-2014,15 dias,"Portugal, Lisboa, Lisboa","Artigo 24.º, n.º 1, alínea e) do Código dos Contratos Públicos",,,,,,Não aplicável.,Não aplicável.,FALSE
Upgrade atualização ao software oncentra brachy,Ajuste Direto Regime Geral,Aquisição de serviços,"72540000-2, Serviços de actualização informática","Instituto Português de Oncologia de Lisboa FG, E.P.E. (506361616)","ELEKTA MEDICAL, S.A. (A81886731)","7.250,00 €",04-11-2014,09-07-2014,30 dias,"Portugal, Lisboa, Lisboa","Artigo 24.º, n.º 1, alínea e) do Código dos Contratos Públicos",,,,,,Não aplicável.,Não aplicável.,FALSE
Serviços Assistência  técnica Software módulos-Sisqual,Ajuste Direto Regime Geral,Aquisição de serviços,"72261000-2, Serviços de assistência em matéria de software","Instituto Português de Oncologia de Lisboa Francisco Gentil, E. P. E. (506361616)",SISQUAL (502772298),"17.878,75 €",03-11-2014,11-04-2014,365 dias,"Portugal, Lisboa, Lisboa","Artigo 24.º, n.º 1, alínea e) do Código dos Contratos Públicos",,,,,,Não aplicável.,Não aplicável.,FALSE
Serviços de manutenção corretiva e executiva dos sistemas clinidata,Ajuste Direto Regime Geral,Aquisição de serviços,"50324200-4, Serviços de manutenção preventiva","Instituto Português de Oncologia de Lisboa Francisco Gentil, E. P. E. (506361616)","MAXDATA SOFTWARE, S.A. (502250259)","30.488,76 €",03-11-2014,24-02-2014,365 dias,"Portugal, Lisboa, Lisboa","Artigo 24.º, n.º 1, alínea e) do Código dos Contratos Públicos",,,,,,Não aplicável.,Não aplicável.,FALSE
Fornecimento de reagentes exclusivoa,Ajuste Direto Regime Geral,Aquisição de bens móveis,"33696500-0, Reagentes de laboratório","Instituto Português de Oncologia de Lisboa Francisco Gentil, E. P. E. (506361616)","IZASA PORTUGAL-DIST.TECNICAS, LDA (501086110)","32.859,23 €",31-10-2014,30-10-2014,2 dias,"Portugal, Lisboa, Lisboa","Artigo 24.º, n.º 1, alínea e) do Código dos Contratos Públicos",,,,,,Não aplicável.,Não aplicável.,FALSE
Aquisição Axitinib 5 mg cp,Ajuste Direto Regime Geral,Aquisição de bens móveis,"33690000-3, Medicamentos vários","Instituto Português de Oncologia de Lisboa Francisco Gentil, E. P. E. (506361616)","LABORATÓRIOS PFIZER, LDA (500162166)","17.029,99 €",31-10-2014,15-10-2014,2 dias,"Portugal, Lisboa, Lisboa","Artigo 24.º, n.º 1, alínea e) do Código dos Contratos Públicos",,,,,,Não aplicável.,Não aplicável.,FALSE
