Objeto do Contrato,Tipo de Procedimento,Tipo(s) de Contrato,CPVs,Entidade(s) Adjudicante(s),Entidade(s) Adjudicatária(s),Preço Contratual,Data de Publicação,Data de Celebração do Contrato,Prazo de Execução,Local de Execução,Fundamentação,Data de Fecho do Contrato,Preço Total Efetivo,Causas das Alterações ao Prazo,Causas das Alterações ao Preço,Estado,N.º registo do Acordo Quadro,Descrição do Acordo Quadro,Procedimento Centralizado
SPMS (2015/6) MED  FORO ONCOLOGICO - P259-AC-2017-121 - TEVA,Ao abrigo de acordo-quadro (art.º 259.º),Aquisição de bens móveis,"33600000-6, Produtos farmacêuticos","Instituto Português de Oncologia de Coimbra Francisco Gentil, E. P. E. (506361438)",Teva Pharma (507045491),"697,56 €",28-12-2017,24-11-2017,365 dias,"Portugal, Coimbra, Coimbra",Artigo 259.º do Código dos Contratos Públicos,,,,,,1771819,CP 2015/6 - Acordo quadro para o fornecimento de Medicamentos do Foro Oncológico,FALSE
SPMS (2015/6) MED  FORO ONCOLOGICO - P259-AC-2017-121,Ao abrigo de acordo-quadro (art.º 259.º),Aquisição de bens móveis,"33600000-6, Produtos farmacêuticos","Instituto Português de Oncologia de Coimbra Francisco Gentil, E. P. E. (506361438)",Medac Sucursal em Portugal (980369959),"1.646,70 €",28-12-2017,03-11-2017,365 dias,"Portugal, Coimbra, Coimbra",Artigo 259.º do Código dos Contratos Públicos,,,,,,1771819,CP 2015/6 - Acordo quadro para o fornecimento de Medicamentos do Foro Oncológico,FALSE
SPMS (2015/6) MED  FORO ONC - BEVACIZUMAB - P259-AC-2017-119,Ao abrigo de acordo-quadro (art.º 259.º),Aquisição de bens móveis,"33600000-6, Produtos farmacêuticos","Instituto Português de Oncologia de Coimbra Francisco Gentil, E. P. E. (506361438)","Roche Farmacêutica Química, Lda. (500233810)","16.852,80 €",28-12-2017,07-08-2017,365 dias,"Portugal, Coimbra, Coimbra",Artigo 259.º do Código dos Contratos Públicos,,,,,,1771819,CP 2015/6 - Acordo quadro para o fornecimento de Medicamentos do Foro Oncológico,FALSE
SPMS (2015/6) MED  FORO ONC - CIPROTERONA - P259-AC-2017-134,Ao abrigo de acordo-quadro (art.º 259.º),Aquisição de bens móveis,"33600000-6, Produtos farmacêuticos","Instituto Português de Oncologia de Coimbra Francisco Gentil, E. P. E. (506361438)","Generis - Farmacêutica, SA (508107997)","7.492,50 €",28-12-2017,10-11-2017,365 dias,"Portugal, Coimbra, Coimbra",Artigo 259.º do Código dos Contratos Públicos,,,,,,1771819,CP 2015/6 - Acordo quadro para o fornecimento de Medicamentos do Foro Oncológico,FALSE
