Objeto do Contrato,Tipo de Procedimento,Tipo(s) de Contrato,CPVs,Entidade(s) Adjudicante(s),Entidade(s) Adjudicatária(s),Preço Contratual,Data de Publicação,Data de Celebração do Contrato,Prazo de Execução,Local de Execução,Fundamentação,Data de Fecho do Contrato,Preço Total Efetivo,Causas das Alterações ao Prazo,Causas das Alterações ao Preço,Estado,N.º registo do Acordo Quadro,Descrição do Acordo Quadro,Procedimento Centralizado
"Celebração de Contrato de manutenção e assistência técnica aos sistemas de detecção de incêndios, C.C.T.V., detecção de monóxido de carbono; controlo de acessos; alarme/intrusão, para os quatro edifícios do INFARMED, I.P.",Ajuste Direto Regime Geral,Aquisição de serviços,"50721000-5, Activação de instalações de aquecimento","INFARMED - Autoridade Nacional do Medicamento e Produtos de Saúde, I.P. (600037002)","Siemens, S.A. (500247480)","35.453,80 €",11-07-2012,11-07-2012,365 dias,Portugal,"Artigo 24.º, n.º 1, alínea e) do Código dos Contratos Públicos",,,,,,Não aplicável.,Não aplicável.,
"Contratação de serviços de suporte/manutenção correctiva e evolutiva ao Portal do Infarmed, às Aplicações Financeiras e à Base de Dados de Medicamentos (SEEM) pelo período de um ano",Ajuste Direto Regime Geral,Aquisição de serviços,"72267100-0, Manutenção de software para as tecnologias da infomação","INFARMED - Autoridade Nacional do Medicamento e Produtos de Saúde, I.P. (600037002)","EMOTION - Sistemas de Informação, Lda. (507181204)","39.600,00 €",11-07-2012,11-07-2012,365 dias,Portugal,"Artigo 20.º, n.º 1, alínea a) do Código dos Contratos Públicos",,,,,,Não aplicável.,Não aplicável.,
"Aquisição de serviços para realização de um diagnóstico de satisfação de clientes do INFARMED, I.P.",Ajuste Direto Regime Geral,Aquisição de serviços,"79411000-8, Serviços gerais de consultoria em matéria de gestão geral","INFARMED - Autoridade Nacional do Medicamento e Produtos de Saúde, I.P. (600037002)",IESE - Instituto de Estudos Sociais e Económicos (503486400),"54.915,00 €",11-07-2012,10-07-2012,112 dias,Portugal,"Artigo 20.º, n.º 1, alínea a) do Código dos Contratos Públicos",,,,,,Não aplicável.,Não aplicável.,
Aquisição de serviços de avaliação científica dos casos de suspeita de reacções adversas a medicamentos de uso humano e emissão dos respectivos pareceres,Ajuste Direto Regime Geral,Aquisição de serviços,"71356300-1, Serviços de apoio técnico","INFARMED - Autoridade Nacional do Medicamento e Produtos de Saúde, I.P. (600037002)","JOTAFRANMED - Serviços Medicos e Consultoria, Lda. (509866433)","43.260,00 €",11-07-2012,06-06-2012,365 dias,Portugal<BR/>Portugal,"Artigo 20.º, n.º 1, alínea a) do Código dos Contratos Públicos",,,,,,Não aplicável.,Não aplicável.,
Deslocação em serviço a Évora; Inspecção; 3 Participantes.,Ajuste Direto Regime Geral,Aquisição de serviços,"63510000-7, Serviços de agências de viagens e serviços similares","INFARMED - Autoridade Nacional do Medicamento e Produtos de Saúde, I.P. (600037002)","TOPATLANTICO - Viagens e Turismo, S.A. (501061126)","150,00 €",09-07-2012,09-07-2012,1 dias,Portugal,"Artigo 27.º, n.º 1, alínea h) do Código dos Contratos Públicos",,,,,,Não aplicável.,Não aplicável.,
Deslocação em serviço ao Algarve; Inspecção; 2 Partcicipantes.,Ajuste Direto Regime Geral,Aquisição de serviços,"63510000-7, Serviços de agências de viagens e serviços similares","INFARMED - Autoridade Nacional do Medicamento e Produtos de Saúde, I.P. (600037002)","TOPATLANTICO - Viagens e Turismo, S.A. (501061126)","232,00 €",09-07-2012,09-07-2012,2 dias,Portugal,"Artigo 27.º, n.º 1, alínea h) do Código dos Contratos Públicos",,,,,,Não aplicável.,Não aplicável.,
Deslocação em serviço a Odemira; Inpecção; 3 Participantes.,Ajuste Direto Regime Geral,Aquisição de serviços,"63510000-7, Serviços de agências de viagens e serviços similares","INFARMED - Autoridade Nacional do Medicamento e Produtos de Saúde, I.P. (600037002)","TOPATLANTICO - Viagens e Turismo, S.A. (501061126)","450,00 €",09-07-2012,09-07-2012,2 dias,Portugal,"Artigo 27.º, n.º 1, alínea h) do Código dos Contratos Públicos",,,,,,Não aplicável.,Não aplicável.,
Deslocação em serviço a Portalegre; Inspecção; 2 Participantes.,Ajuste Direto Regime Geral,Aquisição de serviços,"63510000-7, Serviços de agências de viagens e serviços similares","INFARMED - Autoridade Nacional do Medicamento e Produtos de Saúde, I.P. (600037002)","TOPATLANTICO - Viagens e Turismo, S.A. (501061126)","150,00 €",09-07-2012,09-07-2012,1 dias,Portugal,"Artigo 27.º, n.º 1, alínea h) do Código dos Contratos Públicos",,,,,,Não aplicável.,Não aplicável.,
Deslocação em serviço ao Porto e Aveiro; Inspecção; 3 Participante.,Ajuste Direto Regime Geral,Aquisição de serviços,"63510000-7, Serviços de agências de viagens e serviços similares","INFARMED - Autoridade Nacional do Medicamento e Produtos de Saúde, I.P. (600037002)","TOPATLANTICO - Viagens e Turismo, S.A. (501061126)","459,00 €",09-07-2012,09-07-2012,2 dias,Portugal,"Artigo 27.º, n.º 1, alínea h) do Código dos Contratos Públicos",,,,,,Não aplicável.,Não aplicável.,
Deslocação em serviço ao Porto; Inspecção; 3 Participantes.,Ajuste Direto Regime Geral,Aquisição de serviços,"63510000-7, Serviços de agências de viagens e serviços similares","INFARMED - Autoridade Nacional do Medicamento e Produtos de Saúde, I.P. (600037002)","TOPATLANTICO - Viagens e Turismo, S.A. (501061126)","384,00 €",09-07-2012,09-07-2012,2 dias,Portugal,"Artigo 27.º, n.º 1, alínea h) do Código dos Contratos Públicos",,,,,,Não aplicável.,Não aplicável.,
Deslocação em serviço a Vila Viçosa; Inspecção; 3 Participantes.,Ajuste Direto Regime Geral,Aquisição de serviços,"63510000-7, Serviços de agências de viagens e serviços similares","INFARMED - Autoridade Nacional do Medicamento e Produtos de Saúde, I.P. (600037002)","TOPATLANTICO - Viagens e Turismo, S.A. (501061126)","225,00 €",09-07-2012,09-07-2012,1 dias,Portugal,"Artigo 27.º, n.º 1, alínea h) do Código dos Contratos Públicos",,,,,,Não aplicável.,Não aplicável.,
Deslocação em serviço a Elvas; Inspecção; 2 Participantes.,Ajuste Direto Regime Geral,Aquisição de serviços,"63510000-7, Serviços de agências de viagens e serviços similares","INFARMED - Autoridade Nacional do Medicamento e Produtos de Saúde, I.P. (600037002)","TOPATLANTICO - Viagens e Turismo, S.A. (501061126)","260,00 €",09-07-2012,09-07-2012,3 dias,Portugal,"Artigo 27.º, n.º 1, alínea h) do Código dos Contratos Públicos",,,,,,Não aplicável.,Não aplicável.,
Deslocação em serviço ao Porto; Inpecção; 3 Participantes.,Ajuste Direto Regime Geral,Aquisição de serviços,"63510000-7, Serviços de agências de viagens e serviços similares","INFARMED - Autoridade Nacional do Medicamento e Produtos de Saúde, I.P. (600037002)","TOPATLANTICO - Viagens e Turismo, S.A. (501061126)","195,00 €",09-07-2012,09-07-2012,1 dias,Portugal,"Artigo 27.º, n.º 1, alínea h) do Código dos Contratos Públicos",,,,,,Não aplicável.,Não aplicável.,
Deslocação em serviço a Viana do Castelo; Inspecção; 5 Participantes.,Ajuste Direto Regime Geral,Aquisição de serviços,"63510000-7, Serviços de agências de viagens e serviços similares","INFARMED - Autoridade Nacional do Medicamento e Produtos de Saúde, I.P. (600037002)","TOPATLANTICO - Viagens e Turismo, S.A. (501061126)","680,00 €",09-07-2012,09-07-2012,2 dias,Portugal,"Artigo 27.º, n.º 1, alínea h) do Código dos Contratos Públicos",,,,,,Não aplicável.,Não aplicável.,
Deslocação em serviço a Viseu; Inpecção; 3 Participantes..,Ajuste Direto Regime Geral,Aquisição de serviços,"63510000-7, Serviços de agências de viagens e serviços similares","INFARMED - Autoridade Nacional do Medicamento e Produtos de Saúde, I.P. (600037002)","TOPATLANTICO - Viagens e Turismo, S.A. (501061126)","585,00 €",09-07-2012,09-07-2012,3 dias,Portugal,"Artigo 27.º, n.º 1, alínea h) do Código dos Contratos Públicos",,,,,,Não aplicável.,Não aplicável.,
"Deslocação em serviço a Montpellier; Mutual Joint Audit EDQM/OMCL, MJA 4/12, 1 Participante.",Ajuste Direto Regime Geral,Aquisição de serviços,"63510000-7, Serviços de agências de viagens e serviços similares","INFARMED - Autoridade Nacional do Medicamento e Produtos de Saúde, I.P. (600037002)","RASO - Viagens e Turismo, S.A. (500886113)","1.068,97 €",09-07-2012,09-07-2012,4 dias,França,"Artigo 27.º, n.º 1, alínea h) do Código dos Contratos Públicos",,,,,,Não aplicável.,Não aplicável.,
Deslocação em serviço a Coimbra; Inspecção; 3 Participantes.,Ajuste Direto Regime Geral,Aquisição de serviços,"63510000-7, Serviços de agências de viagens e serviços similares","INFARMED - Autoridade Nacional do Medicamento e Produtos de Saúde, I.P. (600037002)","TOPATLANTICO - Viagens e Turismo, S.A. (501061126)","174,00 €",09-07-2012,09-07-2012,1 dias,Portugal,"Artigo 27.º, n.º 1, alínea h) do Código dos Contratos Públicos",,,,,,Não aplicável.,Não aplicável.,
Deslocação em serviço a Bruxelas; Etact falsified medicines; 1 Participante.,Ajuste Direto Regime Geral,Aquisição de serviços,"63510000-7, Serviços de agências de viagens e serviços similares","INFARMED - Autoridade Nacional do Medicamento e Produtos de Saúde, I.P. (600037002)","TOPATLANTICO - Viagens e Turismo, S.A. (501061126)","1.096,38 €",09-07-2012,09-07-2012,1 dias,Bélgica,"Artigo 27.º, n.º 1, alínea h) do Código dos Contratos Públicos",,,,,,Não aplicável.,Não aplicável.,
"Deslocação em serviço a Amestrerdão; Reunião do Medev, 1 Participante.",Ajuste Direto Regime Geral,Aquisição de serviços,"63510000-7, Serviços de agências de viagens e serviços similares","INFARMED - Autoridade Nacional do Medicamento e Produtos de Saúde, I.P. (600037002)","TQ - Travel Quality Viagens e Turismo, Lda. (501313915)","1.295,10 €",09-07-2012,09-07-2012,3 dias,Países Baixos,"Artigo 27.º, n.º 1, alínea h) do Código dos Contratos Públicos",,,,,,Não aplicável.,Não aplicável.,
Aquisição de papel de ofício e continuação Mod. 001/A e Mod.002/A e certificado (90012008),Ajuste Direto Regime Geral,Aquisição de serviços,"98390000-3, Outros serviços","INFARMED - Autoridade Nacional do Medicamento e Produtos de Saúde, I.P. (600037002)","SILTIPO - Artes Gráficas, lda. (502259060)","7.210,00 €",05-07-2012,05-07-2012,30 dias,Portugal,"Artigo 20.º, n.º 1, alínea a) do Código dos Contratos Públicos",,,,,,Não aplicável.,Não aplicável.,
