Objeto do Contrato,Tipo de Procedimento,Tipo(s) de Contrato,CPVs,Entidade(s) Adjudicante(s),Entidade(s) Adjudicatária(s),Preço Contratual,Data de Publicação,Data de Celebração do Contrato,Prazo de Execução,Local de Execução,Fundamentação,Data de Fecho do Contrato,Preço Total Efetivo,Causas das Alterações ao Prazo,Causas das Alterações ao Preço,Estado,N.º registo do Acordo Quadro,Descrição do Acordo Quadro,Procedimento Centralizado
Aquisição de serviços - Bolsa de horas sharepoint,Ajuste Direto Regime Geral,Aquisição de serviços,"72000000-5, Serviços de TI: consultoria, desenvolvimento de software, Internet e apoio",Serviço de Intervenção nos Comportamentos Aditivos e nas Dependências (600084884),"ARMIS - Sistemas de Informação, Lda  (507349601)","4.900,00 €",09-08-2013,07-08-2013,20 dias,"Portugal, Lisboa, Lisboa","Artigo 20.º, n.º 1, alínea a) do Código dos Contratos Públicos",,,,,,Não aplicável.,Não aplicável.,
Aquisição de frascos de litro para acondicionamento da solução de cloridrato de metadona,Ajuste Direto Regime Geral,Aquisição de bens móveis,"22000000-0, Material impresso e afins",Serviço de Intervenção nos Comportamentos Aditivos e nas Dependências (600084884),"Louresgráfica - Sociedade de Artes Gráficas, Lda  (501709304)","1.823,00 €",09-08-2013,12-07-2013,7 dias,"Portugal, Lisboa, Lisboa","Artigo 20.º, n.º 1, alínea a) do Código dos Contratos Públicos",,,,,,Não aplicável.,Não aplicável.,
Aquisição de frascos de litro para acondicionamento da solução de cloridrato de metadona,Ajuste Direto Regime Geral,Aquisição de bens móveis,"33000000-0, Equipamento médico, medicamentos e produtos para cuidados pessoais",Serviço de Intervenção nos Comportamentos Aditivos e nas Dependências (600084884),"VWR Internacional - Material de Laboratório, Lda  (503842770)","46.125,00 €",09-08-2013,12-06-2013,3 dias,"Portugal, Lisboa, Lisboa","Artigo 20.º, n.º 1, alínea a) do Código dos Contratos Públicos",,,,,,Não aplicável.,Não aplicável.,
Aquisição de serviço em Gestão do Património Móvel,Ajuste Direto Regime Geral,Aquisição de serviços,"79000000-4, Serviços a empresas: direito, comercialização, consultoria, recrutamento, impressão e segurança",Serviço de Intervenção nos Comportamentos Aditivos e nas Dependências (600084884),"B4B - Contabilidade e Consultoria, Lda (508589622)","10.790,00 €",09-08-2013,03-06-2013,60 dias,Portugal,"Artigo 20.º, n.º 1, alínea a) do Código dos Contratos Públicos",,,,,,Não aplicável.,Não aplicável.,
Aquisição de serviços de manutenção evolutiva do Sistema intregrado de programas de apoio financeiro em saúde para o SICAD,Ajuste Direto Regime Geral,Aquisição de serviços,"72000000-5, Serviços de TI: consultoria, desenvolvimento de software, Internet e apoio",Serviço de Intervenção nos Comportamentos Aditivos e nas Dependências (600084884),"SPMS - Serviços Partilhados do Ministério da Saúde, EPE (509540716)","9.900,00 €",09-08-2013,03-06-2013,180 dias,"Portugal, Lisboa, Lisboa","Artigo 20.º, n.º 1, alínea a) do Código dos Contratos Públicos",,,,,,Não aplicável.,Não aplicável.,
Aquisição de serviços de upgrade java da plataforma Outsystems para o SICAD,Ajuste Direto Regime Geral,Aquisição de serviços,"72000000-5, Serviços de TI: consultoria, desenvolvimento de software, Internet e apoio",Serviço de Intervenção nos Comportamentos Aditivos e nas Dependências (600084884),"Serviços Partilhados do Ministério da Saúde, EPE (509540716)","8.053,00 €",09-08-2013,19-03-2013,5 dias,"Portugal, Lisboa, Lisboa","Artigo 20.º, n.º 1, alínea a) do Código dos Contratos Públicos",,,,,,Não aplicável.,Não aplicável.,
"Aquisição de serviços de limpeza para as CDT's da região do Centro, Norte, Lisboa e Algarve ",Ajuste Direto Regime Geral,Aquisição de serviços,"90000000-7, Serviços relativos a águas residuais, resíduos, limpeza e ambiente",Serviço de Intervenção nos Comportamentos Aditivos e nas Dependências (600084884),"SAMSIC Portugal - Facility Services, SA (504839748)","5.197,50 €",09-08-2013,01-07-2013,90 dias,Portugal,"Artigo 20.º, n.º 1, alínea a) do Código dos Contratos Públicos",,,,,,Não aplicável.,Não aplicável.,
Aquisição de serviços de vigilância para a CDT de Braga,Ajuste Direto Regime Geral,Aquisição de serviços,"98000000-3, Outros serviços comunitários, sociais e pessoais",Serviço de Intervenção nos Comportamentos Aditivos e nas Dependências (600084884),"Prestibel - Empresa de Segurança, SA (501326456)","4.258,80 €",09-08-2013,27-06-2013,90 dias,"Portugal, Braga, Braga","Artigo 20.º, n.º 1, alínea a) do Código dos Contratos Públicos",,,,,,Não aplicável.,Não aplicável.,
Aquisição de serviços de vigilância para a CDT de Lisboa,Ajuste Direto Regime Geral,Aquisição de serviços,"98000000-3, Outros serviços comunitários, sociais e pessoais",Serviço de Intervenção nos Comportamentos Aditivos e nas Dependências (600084884),Prestibel - Empresa de segurança SA (501326456),"4.643,73 €",09-08-2013,01-07-2013,90 dias,"Portugal, Lisboa, Lisboa","Artigo 20.º, n.º 1, alínea a) do Código dos Contratos Públicos",,,,,,Não aplicável.,Não aplicável.,
Aquisição de serviços de apoio em tecnologia Oracle,Ajuste Direto Regime Geral,Aquisição de serviços,"72000000-5, Serviços de TI: consultoria, desenvolvimento de software, Internet e apoio",Serviço de Intervenção nos Comportamentos Aditivos e nas Dependências (600084884),"Oracle Portugal - Sistemas de Informação, Lda  (502186771)","4.900,00 €",09-08-2013,05-07-2013,7 dias,"Portugal, Lisboa, Lisboa","Artigo 20.º, n.º 1, alínea a) do Código dos Contratos Públicos",,,,,,Não aplicável.,Não aplicável.,
"Aquisição de serviços para análise, conceção, desenvolvimento, implementação e suporte do portal do site do SICAD",Ajuste Direto Regime Geral,Aquisição de serviços,"72000000-5, Serviços de TI: consultoria, desenvolvimento de software, Internet e apoio",Serviço de Intervenção nos Comportamentos Aditivos e nas Dependências (600084884),"ARMIS - Sistemas de Informação, Lda  (507349601)","9.800,00 €",09-08-2013,05-08-2013,100 dias,"Portugal, Lisboa, Lisboa","Artigo 20.º, n.º 1, alínea a) do Código dos Contratos Públicos",,,,,,Não aplicável.,Não aplicável.,
