Objeto do Contrato,Tipo de Procedimento,Tipo(s) de Contrato,CPVs,Entidade(s) Adjudicante(s),Entidade(s) Adjudicatária(s),Preço Contratual,Data de Publicação,Data de Celebração do Contrato,Prazo de Execução,Local de Execução,Fundamentação,Data de Fecho do Contrato,Preço Total Efetivo,Causas das Alterações ao Prazo,Causas das Alterações ao Preço,Estado,N.º registo do Acordo Quadro,Descrição do Acordo Quadro,Procedimento Centralizado
MEDICAMENTOS,Ajuste Direto Regime Geral,Aquisição de bens móveis,"33000000-0, Equipamento médico, medicamentos e produtos para cuidados pessoais","Unidade Local de Saúde do Norte Alentejano, E. P. E. (508094461)","JANSSEN CILAG FARMACEUTICA, LDA.                   (500189412)","16.618,86 €",11-11-2015,30-09-2015,30 dias,"Portugal, Portalegre, Portalegre<BR/>Portugal, Portalegre, Elvas","Artigo 20.º, n.º 1, alínea a) do Código dos Contratos Públicos",30-09-2015,"16.618,86 €",,,,Não aplicável.,Não aplicável.,FALSE
MEDICAMENTOS,Ajuste Direto Regime Geral,Aquisição de bens móveis,"33000000-0, Equipamento médico, medicamentos e produtos para cuidados pessoais","Unidade Local de Saúde do Norte Alentejano, E. P. E. (508094461)","ASTELLAS FARMA, LDA.                               (502540249)","6.014,40 €",11-11-2015,30-09-2015,30 dias,"Portugal, Portalegre, Portalegre<BR/>Portugal, Portalegre, Elvas","Artigo 20.º, n.º 1, alínea a) do Código dos Contratos Públicos",30-09-2015,"6.014,40 €",,,,Não aplicável.,Não aplicável.,FALSE
MEDICAMENTOS,Ajuste Direto Regime Geral,Aquisição de bens móveis,"33000000-0, Equipamento médico, medicamentos e produtos para cuidados pessoais","Unidade Local de Saúde do Norte Alentejano, E. P. E. (508094461)","AMGEN BIOFARMACÊUTICA, LDA.                        (502942959)","6.761,58 €",11-11-2015,30-09-2015,30 dias,"Portugal, Portalegre, Portalegre<BR/>Portugal, Portalegre, Elvas","Artigo 20.º, n.º 1, alínea a) do Código dos Contratos Públicos",30-09-2015,"6.761,58 €",,,,Não aplicável.,Não aplicável.,FALSE
MEDICAMENTOS,Ajuste Direto Regime Geral,Aquisição de bens móveis,"33000000-0, Equipamento médico, medicamentos e produtos para cuidados pessoais","Unidade Local de Saúde do Norte Alentejano, E. P. E. (508094461)",ROCHE SISTEMA DE DIAGNOSTICOS                      (504282921),"8.043,60 €",11-11-2015,25-09-2015,30 dias,"Portugal, Portalegre, Elvas<BR/>Portugal, Portalegre, Portalegre","Artigo 24.º, n.º 1, alínea e) do Código dos Contratos Públicos",25-09-2015,"8.043,60 €",,,,Não aplicável.,Não aplicável.,FALSE
MEDICAMENTOS SPMS,Ajuste Direto Regime Geral,Aquisição de bens móveis,"33000000-0, Equipamento médico, medicamentos e produtos para cuidados pessoais","Unidade Local de Saúde do Norte Alentejano, E. P. E. (508094461)",SANOFI PASTEUR MSD SA                              (507632796),"7.392,00 €",11-11-2015,25-09-2015,30 dias,"Portugal, Portalegre, Elvas<BR/>Portugal, Portalegre, Portalegre","Artigo 20.º, n.º 1, alínea a) do Código dos Contratos Públicos",25-09-2015,"7.392,00 €",,,,Não aplicável.,Não aplicável.,FALSE
MEDICAMENTOS,Ajuste Direto Regime Geral,Aquisição de bens móveis,"33000000-0, Equipamento médico, medicamentos e produtos para cuidados pessoais","Unidade Local de Saúde do Norte Alentejano, E. P. E. (508094461)","SANOFI- PRODUTOS FARMACÊUTICOS,LDA.                (500134960)","7.942,00 €",11-11-2015,30-09-2015,30 dias,"Portugal, Portalegre, Elvas<BR/>Portugal, Portalegre, Portalegre","Artigo 24.º, n.º 1, alínea e) do Código dos Contratos Públicos",30-09-2015,"7.942,00 €",,,,Não aplicável.,Não aplicável.,FALSE
REAGENTES,Ajuste Direto Regime Geral,Aquisição de bens móveis,"33000000-0, Equipamento médico, medicamentos e produtos para cuidados pessoais","Unidade Local de Saúde do Norte Alentejano, E. P. E. (508094461)",ROCHE SISTEMA DE DIAGNOSTICOS                      (504282921),"5.157,29 €",11-11-2015,12-06-2015,30 dias,"Portugal, Portalegre, Elvas<BR/>Portugal, Portalegre, Portalegre","Artigo 24.º, n.º 1, alínea e) do Código dos Contratos Públicos",12-06-2015,"5.157,29 €",,,,Não aplicável.,Não aplicável.,FALSE
REAGENTES,Ajuste Direto Regime Geral,Aquisição de bens móveis,"33000000-0, Equipamento médico, medicamentos e produtos para cuidados pessoais","Unidade Local de Saúde do Norte Alentejano, E. P. E. (508094461)",ROCHE SISTEMA DE DIAGNOSTICOS                      (504282921),"6.615,44 €",11-11-2015,11-03-2015,30 dias,"Portugal, Portalegre, Portalegre<BR/>Portugal, Portalegre, Elvas","Artigo 24.º, n.º 1, alínea e) do Código dos Contratos Públicos",11-03-2015,"6.615,44 €",,,,Não aplicável.,Não aplicável.,FALSE
AQUISIÇÃO DE SUTURAS MECANICAS A COVIDIEN,Ajuste Direto Regime Geral,Aquisição de bens móveis,"33140000-3, Material médico de consumo","Unidade Local de Saúde do Norte Alentejano, E. P. E. (508094461)",COVIDIEN PORTUGAL (503413410),"2.664,00 €",10-11-2015,21-01-2015,60 dias,"Portugal, Portalegre, Portalegre","Artigo 24.º, n.º 1, alínea c) do Código dos Contratos Públicos",21-01-2015,"2.664,00 €",,,,Não aplicável.,Não aplicável.,FALSE
MEDICAMENTOS,Ajuste Direto Regime Geral,Aquisição de bens móveis,"33000000-0, Equipamento médico, medicamentos e produtos para cuidados pessoais","Unidade Local de Saúde do Norte Alentejano, E. P. E. (508094461)",ROCHE SISTEMA DE DIAGNOSTICOS                      (504282921),"8.111,60 €",06-11-2015,04-05-2015,30 dias,"Portugal, Portalegre, Portalegre<BR/>Portugal, Portalegre, Elvas","Artigo 24.º, n.º 1, alínea e) do Código dos Contratos Públicos",04-05-2015,"8.111,60 €",,,,Não aplicável.,Não aplicável.,FALSE
MEDICAMENTOS,Ajuste Direto Regime Geral,Aquisição de bens móveis,"33000000-0, Equipamento médico, medicamentos e produtos para cuidados pessoais","Unidade Local de Saúde do Norte Alentejano, E. P. E. (508094461)","JANSSEN CILAG FARMACEUTICA, LDA.                   (500189412)","15.746,46 €",06-11-2015,16-10-2015,30 dias,"Portugal, Portalegre, Portalegre<BR/>Portugal, Portalegre, Elvas","Artigo 20.º, n.º 1, alínea a) do Código dos Contratos Públicos",16-10-2015,"15.746,46 €",,,,Não aplicável.,Não aplicável.,FALSE
MEDICAMENTOS,Ajuste Direto Regime Geral,Aquisição de bens móveis,"33000000-0, Equipamento médico, medicamentos e produtos para cuidados pessoais","Unidade Local de Saúde do Norte Alentejano, E. P. E. (508094461)","ASTELLAS FARMA, LDA.                               (502540249)","9.021,60 €",06-11-2015,16-10-2015,30 dias,"Portugal, Portalegre, Portalegre<BR/>Portugal, Portalegre, Elvas","Artigo 20.º, n.º 1, alínea a) do Código dos Contratos Públicos",16-10-2015,"9.021,60 €",,,,Não aplicável.,Não aplicável.,FALSE
REAGENTES,Ajuste Direto Regime Geral,Aquisição de bens móveis,"33000000-0, Equipamento médico, medicamentos e produtos para cuidados pessoais","Unidade Local de Saúde do Norte Alentejano, E. P. E. (508094461)",ROCHE SISTEMA DE DIAGNOSTICOS                      (504282921),"7.404,64 €",06-11-2015,02-07-2015,30 dias,"Portugal, Portalegre, Portalegre<BR/>Portugal, Portalegre, Elvas","Artigo 24.º, n.º 1, alínea e) do Código dos Contratos Públicos",02-07-2015,"7.404,64 €",,,,Não aplicável.,Não aplicável.,FALSE
MEDICAMENTOS,Ajuste Direto Regime Geral,Aquisição de bens móveis,"33000000-0, Equipamento médico, medicamentos e produtos para cuidados pessoais","Unidade Local de Saúde do Norte Alentejano, E. P. E. (508094461)","ROCHE FARMACÊUTICA QUIMICA, LDA.                   (500233810)","8.477,80 €",06-11-2015,08-10-2015,30 dias,"Portugal, Portalegre, Elvas<BR/>Portugal, Portalegre, Portalegre","Artigo 20.º, n.º 1, alínea a) do Código dos Contratos Públicos",08-10-2015,"8.477,80 €",,,,Não aplicável.,Não aplicável.,FALSE
MEDICAMENTOS,Ajuste Direto Regime Geral,Aquisição de bens móveis,"33000000-0, Equipamento médico, medicamentos e produtos para cuidados pessoais","Unidade Local de Saúde do Norte Alentejano, E. P. E. (508094461)",MERCK SHARP DOHME                                  (500191360),"14.000,00 €",06-11-2015,08-10-2015,30 dias,"Portugal, Portalegre, Portalegre<BR/>Portugal, Portalegre, Elvas","Artigo 20.º, n.º 1, alínea a) do Código dos Contratos Públicos",08-10-2015,"14.000,00 €",,,,Não aplicável.,Não aplicável.,FALSE
MEDICAMENTOS,Ajuste Direto Regime Geral,Aquisição de bens móveis,"33000000-0, Equipamento médico, medicamentos e produtos para cuidados pessoais","Unidade Local de Saúde do Norte Alentejano, E. P. E. (508094461)","AMGEN BIOFARMACÊUTICA, LDA.                        (502942959)","6.500,00 €",06-11-2015,30-09-2015,30 dias,"Portugal, Portalegre, Elvas<BR/>Portugal, Portalegre, Portalegre","Artigo 20.º, n.º 1, alínea a) do Código dos Contratos Públicos",30-09-2015,"6.500,00 €",,,,Não aplicável.,Não aplicável.,FALSE
"Fornecimento de luvas de nitrilo até final de 2015, para a ULSNA, EPE",Ao abrigo de acordo-quadro (art.º 259.º),Aquisição de bens móveis,"33140000-3, Material médico de consumo","Unidade Local de Saúde do Norte Alentejano, E. P. E. (508094461)","Docworld, Lda (508592909)","16.900,80 €",02-11-2015,28-10-2015,90 dias,"Portugal, Portalegre",Artigo 259.º do Código dos Contratos Públicos,02-11-2015,"16.900,80 €",,,,544071,"CONCURSO PÚBLICO PARA A CELEBRAÇÃO DE CONTRATOS PÚBLICOS DE APROVISIONAMENTO PARA A ÁREA DA SAÚDE, COM VISTA AO FORNECIMENTO DE LUVAS PARA USO MÉDICO, ÀS INSTITUIÇÕES E SERVIÇOS DO SERVIÇO NACIONAL DE SAÚDE",FALSE
Aquisição de obturadores urgentes,Ao abrigo de acordo-quadro (art.º 259.º),Aquisição de bens móveis,"33140000-3, Material médico de consumo","Unidade Local de Saúde do Norte Alentejano, E. P. E. (508094461)",PMH PRODUTOS MEDICO HOSPITALARES SA (502376899),"160,00 €",02-11-2015,04-06-2015,30 dias,"Portugal, Portalegre, Portalegre",Artigo 259.º do Código dos Contratos Públicos,04-06-2015,"160,00 €",,,,1587913,Acordo Quadro para fornecimento de Equipamentos e Dispositivos Médicos de uso comum em internamento e ambulatório - Parte I às instituições e serviços do Serviço Nacional de Saúde.,FALSE
Aquisição de penso de efeito terapeutico,Ao abrigo de acordo-quadro (art.º 259.º),Aquisição de bens móveis,"33140000-3, Material médico de consumo","Unidade Local de Saúde do Norte Alentejano, E. P. E. (508094461)","B BRAUN MEDICAL, LDA. (501506543)","228,00 €",02-11-2015,04-06-2015,30 dias,"Portugal, Portalegre, Portalegre",Artigo 259.º do Código dos Contratos Públicos,04-06-2015,"228,00 €",,,,1315192,Acordo Quadro para fornecimento de material de penso de efeito terapêutico às Instituições e Serviços do Serviço Nacional de Saúde,FALSE
