Objeto do Contrato,Tipo de Procedimento,Tipo(s) de Contrato,CPVs,Entidade(s) Adjudicante(s),Entidade(s) Adjudicatária(s),Preço Contratual,Data de Publicação,Data de Celebração do Contrato,Prazo de Execução,Local de Execução,Fundamentação,Data de Fecho do Contrato,Preço Total Efetivo,Causas das Alterações ao Prazo,Causas das Alterações ao Preço,Estado,N.º registo do Acordo Quadro,Descrição do Acordo Quadro,Procedimento Centralizado
Acompanhamento jurídico do procedimento concursal para helitransporte de emergência médica,Ajuste Direto Regime Geral,Aquisição de serviços,"79100000-5, Serviços jurídicos","Instituto Nacional de Emergência Médica, I. P. (501356126)","Sérvulo & Associados - Sociedade de Advogados, R.L. (504344285)","30.000,00 €",11-05-2018,26-04-2018,240 dias,"Portugal, Lisboa, Lisboa","Artigo 20.º, n.º 1, alínea a) do Código dos Contratos Públicos",,,,,,Não aplicável.,Não aplicável.,FALSE
Aluguer de equipamentos de cópia e impressão,Consulta Prévia,Locação de bens móveis,"30000000-9, Máquinas, equipamento e material de escritório e de informática, excepto mobiliário e pacotes de programas (software)","Instituto Nacional de Emergência Médica, I. P. (501356126)","OMC - Office Solutions, Lda. (507568710)","21.120,00 €",11-05-2018,04-04-2018,270 dias,"Portugal, Lisboa, Lisboa","Artigo 20.º, n.º 1, alínea c) do Código dos Contratos Públicos",,,,,,Não aplicável.,Não aplicável.,FALSE
Assistência técnica a monitores desfibrilhadores,Ajuste Direto Regime Geral,Aquisição de serviços,"50000000-5, Serviços de reparação e manutenção","Instituto Nacional de Emergência Médica, I. P. (501356126)","Physio Portugal Sales, Lda. (510137946)","21.112,48 €",11-05-2018,30-04-2018,240 dias,"Portugal, Portugal Continental","Artigo 24.º, n.º 1, alínea e), subalínea ii) do Código dos Contratos Públicos",,,,,,Não aplicável.,Não aplicável.,FALSE
Aquisição de viagens e alojamentos,Consulta Prévia,Aquisição de serviços,"63500000-4, Serviços de agências de viagens, de operadores turísticos e de assistência a turistas","Instituto Nacional de Emergência Médica, I. P. (501356126)","Clube Viajar - Viagens e Turismo, Lda. (503542016)","15.000,00 €",11-05-2018,04-05-2018,240 dias,"Portugal, Lisboa, Lisboa","Artigo 20.º, n.º 1, alínea c) do Código dos Contratos Públicos",,,,,,Não aplicável.,Não aplicável.,FALSE
Aquisição de 6 licenças para gravadores de chamadas dos CODU,Ajuste Direto Regime Geral,Aquisição de bens móveis,"48500000-3, Pacote de software para comunicações e multimédia","Instituto Nacional de Emergência Médica, I. P. (501356126)","MRA Instrumentação para Medição, Registo e Análises, S.A. (503257842)","4.578,00 €",11-05-2018,24-04-2018,20 dias,"Portugal, Lisboa, Lisboa","Artigo 24.º, n.º 1, alínea e), subalínea ii) do Código dos Contratos Públicos",,,,,,Não aplicável.,Não aplicável.,FALSE
Assistência técnica ao sistema de gestão de Processos,Ajuste Direto Regime Geral,Aquisição de serviços,"72000000-5, Serviços de TI: consultoria, desenvolvimento de software, Internet e apoio","Instituto Nacional de Emergência Médica, I. P. (501356126)","Wire Maze - Sistemas de Informação, SA (505331187)","51.300,00 €",10-05-2018,09-04-2018,365 dias,"Portugal, Portugal Continental","Artigo 24.º, n.º 1, alínea e), subalínea i) do Código dos Contratos Públicos",,,,,,Não aplicável.,Não aplicável.,FALSE
Comunicações de voz,Ajuste Direto Regime Geral,Aquisição de serviços,"64000000-6, Serviços postais e de telecomunicações","Instituto Nacional de Emergência Médica, I. P. (501356126)","ONI - Telecom Infocomunicações, S.A. (504073206)","851,59 €",10-05-2018,05-04-2018,59 dias,"Portugal, Portugal Continental","Artigo 21.º, n.º 1, alínea c) do Código dos Contratos Públicos",,,,,,Não aplicável.,Não aplicável.,FALSE
"Prestação de serviço de higiene e limpeza, com fornecimento de consumíveis de casa de banho.",Ajuste Direto Regime Geral,Aquisição de serviços,"90000000-7, Serviços relativos a águas residuais, resíduos, limpeza e ambiente","Instituto Nacional de Emergência Médica, I. P. (501356126)","Interlimpe - Facility Services, SA (502611057)","24.275,58 €",10-05-2018,04-04-2018,30 dias,"Portugal, Faro, Faro<BR/>Portugal, Porto, Porto<BR/>Portugal, Coimbra, Coimbra<BR/>Portugal, Lisboa, Lisboa<BR/>Portugal, Porto, Vila Nova de Gaia","Artigo 24.º, n.º 1, alínea c) do Código dos Contratos Públicos",,,,,,Não aplicável.,Não aplicável.,FALSE
