Objeto do Contrato,Tipo de Procedimento,Tipo(s) de Contrato,CPVs,Entidade(s) Adjudicante(s),Entidade(s) Adjudicatária(s),Preço Contratual,Data de Publicação,Data de Celebração do Contrato,Prazo de Execução,Local de Execução,Fundamentação,Data de Fecho do Contrato,Preço Total Efetivo,Causas das Alterações ao Prazo,Causas das Alterações ao Preço,Estado,N.º registo do Acordo Quadro,Descrição do Acordo Quadro,Procedimento Centralizado
Colchão pressão alterna anti-escaras,Ajuste Direto Regime Geral,Aquisição de bens móveis,"39522510-5, Colchões pneumáticos","CENTRO HOSPITALAR DE LEIRIA, E.P.E. (509822932)","DAMEDIS-SERVICO COMERCIAL PRODUTOS,LDA. (505418002)","9.845,00 €",07-02-2017,02-02-2017,60 dias,"Portugal, Leiria, Leiria","Artigo 20.º, n.º 1, alínea a) do Código dos Contratos Públicos","","","","",,Não aplicável.,Não aplicável.,FALSE
8004E17-REPARAÇÃO/SUBSTITUIÇÃO DE TROÇO DE LINHA DE ÁGUA QUENTE,Ajuste Direto Regime Geral,Aquisição de serviços,"50000000-5, Serviços de reparação e manutenção","Centro Hospitalar de Leiria, E. P. E. (509822932)","LEIRISONDA, LDA. (503801984)","7.913,60 €",06-02-2017,20-12-2016,3 dias,"Portugal, Leiria, Leiria","Artigo 20.º, n.º 1, alínea a) do Código dos Contratos Públicos",03-01-2017,"7.913,60 €","","",,Não aplicável.,Não aplicável.,FALSE
0054E17-MANUTENÇÃO E ASSISTÊNCIA TÉCNICA AOS SERVIDORES 01.01.2017 A 30.04.2017,Ajuste Direto Regime Geral,Aquisição de serviços,"72610000-9, Serviços de assistência informática","Centro Hospitalar de Leiria, E. P. E. (509822932)","INFORMANTÉM, SA (503670693)","7.730,80 €",06-02-2017,20-01-2017,120 dias,"Portugal, Leiria, Leiria","Artigo 20.º, n.º 1, alínea a) do Código dos Contratos Públicos","","","","",,Não aplicável.,Não aplicável.,FALSE
Sacos Plástico,Ajuste Direto Regime Geral,Aquisição de bens móveis,"19640000-4, Sacos de polietileno para recolha de lixo e resíduos","CENTRO HOSPITALAR DE LEIRIA, E.P.E. (509822932)","METAFRIL INDÚSTRIA DE PLÁSTICO, LDA (502592281)","74.200,00 €",03-02-2017,30-11-2016,300 dias,"Portugal, Leiria, Leiria","Artigo 20.º, n.º 1, alínea a) do Código dos Contratos Públicos",29-12-2017,"67.118,00 €","",estimativas sobrestimadas,,Não aplicável.,Não aplicável.,FALSE
Instrumental cirúrgico para caixas de Oftalmologia,Ajuste Direto Regime Geral,Aquisição de bens móveis,"33162200-5, Instrumentos para blocos operatórios","CENTRO HOSPITALAR DE LEIRIA, E.P.E. (509822932)","Grupo Taper, Lda. (506886336)","686,00 €",31-01-2017,16-09-2016,60 dias,"Portugal, Leiria, Leiria","Artigo 20.º, n.º 1, alínea a) do Código dos Contratos Públicos",16-09-2016,"686,00 €","","",,Não aplicável.,Não aplicável.,FALSE
Instrumental cirúrgico para caixas de Oftalmologia,Ajuste Direto Regime Geral,Aquisição de bens móveis,"33162200-5, Instrumentos para blocos operatórios","CENTRO HOSPITALAR DE LEIRIA, E.P.E. (509822932)",Ophtec Portugal (510255086),"824,00 €",31-01-2017,16-09-2016,60 dias,"Portugal, Leiria, Leiria","Artigo 20.º, n.º 1, alínea a) do Código dos Contratos Públicos",16-09-2016,"824,00 €","","",,Não aplicável.,Não aplicável.,FALSE
Instrumental cirúrgico para caixas de Oftalmologia,Ajuste Direto Regime Geral,Aquisição de bens móveis,"33162200-5, Instrumentos para blocos operatórios","CENTRO HOSPITALAR DE LEIRIA, E.P.E. (509822932)","Carl Zeiss, SA (980503043)","5.882,00 €",31-01-2017,16-09-2016,60 dias,"Portugal, Leiria, Leiria","Artigo 20.º, n.º 1, alínea a) do Código dos Contratos Públicos",16-09-2016,"5.882,00 €","","",,Não aplicável.,Não aplicável.,FALSE
Instrumental cirúrgico para caixas de Oftalmologia,Ajuste Direto Regime Geral,Aquisição de bens móveis,"33162200-5, Instrumentos para blocos operatórios","CENTRO HOSPITALAR DE LEIRIA, E.P.E. (509822932)","Oftaltec, Lda. (503197149)","354,00 €",31-01-2017,16-09-2016,60 dias,"Portugal, Leiria, Leiria","Artigo 20.º, n.º 1, alínea a) do Código dos Contratos Públicos",16-09-2016,"354,00 €","","",,Não aplicável.,Não aplicável.,FALSE
Instrumental cirúrgico para caixas de Oftalmologia,Ajuste Direto Regime Geral,Aquisição de bens móveis,"33162200-5, Instrumentos para blocos operatórios","CENTRO HOSPITALAR DE LEIRIA, E.P.E. (509822932)","Oftaldata, Lda (504887459)","242,00 €",31-01-2017,16-09-2016,60 dias,"Portugal, Leiria, Leiria","Artigo 20.º, n.º 1, alínea a) do Código dos Contratos Públicos",16-09-2016,"242,00 €","","",,Não aplicável.,Não aplicável.,FALSE
Instrumental cirúrgico para caixas de Oftalmologia,Ajuste Direto Regime Geral,Aquisição de bens móveis,"33162200-5, Instrumentos para blocos operatórios","CENTRO HOSPITALAR DE LEIRIA, E.P.E. (509822932)",José Cotta SA (500155739),"730,00 €",31-01-2017,15-09-2016,60 dias,"Portugal, Leiria, Leiria","Artigo 20.º, n.º 1, alínea a) do Código dos Contratos Públicos",15-09-2016,"730,00 €","","",,Não aplicável.,Não aplicável.,FALSE
"0590E16-SERVIÇOS DE MANUTENÇÃO DE REDES  E EQUIPAMENTOS DE GASES MEDICINAIS INDUSTRIAIS E VÁCUO (GMV) E EXTRAÇÃO DE GASES ANESTÉSICOS (EGA) NO CHL, EPE ANO 2017",Ajuste Direto Regime Geral,Aquisição de serviços,"50000000-5, Serviços de reparação e manutenção","Centro Hospitalar de Leiria, E. P. E. (509822932)","IFHI, LDA. (502264543)","19.980,00 €",31-01-2017,30-12-2016,365 dias,"Portugal, Leiria, Leiria","Artigo 20.º, n.º 1, alínea a) do Código dos Contratos Públicos","","","","",,Não aplicável.,Não aplicável.,FALSE
Empreitada de execução de controlo de acessos Serviço de Imagiologia,Ajuste Direto Regime Geral,Empreitadas de obras públicas,"45000000-7, Construção","Centro Hospitalar de Leiria, E. P. E. (509822932)",Tecnorém - Engenharia e construções SA (502519533),"10.377,70 €",31-01-2017,13-01-2017,30 dias,"Portugal, Leiria, Leiria","Artigo 19.º, alínea a) do Código dos Contratos Públicos","","10.377,70 €",Não enquadrável,Não enquadrável,,Não aplicável.,Não aplicável.,FALSE
Empreitada de remodelação de espaços no piso 0,Ajuste Direto Regime Geral,Empreitadas de obras públicas,"45200000-9, Obras de construção total ou parcial e de engenharia civil","Centro Hospitalar de Leiria, E. P. E. (509822932)","Ferduliz - Sociedade de Construções, Lda. (502303832)","14.885,80 €",31-01-2017,28-11-2016,45 dias,"Portugal, Leiria, Leiria","Artigo 19.º, alínea a) do Código dos Contratos Públicos","","14.885,80 €",Não enquadrável,Não enquadrável,,Não aplicável.,Não aplicável.,FALSE
0010O16-SERVIÇO DE MANUTENÇÃO E ASSISTÊNCIA TÉCNICA AOS SISTEMAS PACS/RIS GE ANO 2016,Ajuste Direto Regime Geral,Aquisição de serviços,"72610000-9, Serviços de assistência informática","Centro Hospitalar de Leiria, E. P. E. (509822932)","GENERAL ELECTRIC, SA (500357129)","31.840,00 €",31-01-2017,13-06-2016,365 dias,"Portugal, Leiria, Leiria","Artigo 24.º, n.º 1, alínea e) do Código dos Contratos Públicos",30-12-2016,"31.840,00 €","","",,Não aplicável.,Não aplicável.,FALSE
0012O16-MANUTENÇÃO AO SOFTWARE MAXPRO ANO 2016,Ajuste Direto Regime Geral,Aquisição de serviços,"72600000-6, Serviços de consultoria e assistência informáticas","Centro Hospitalar de Leiria, E. P. E. (509822932)","SISQUAL, LDA. (502772298)","8.981,27 €",31-01-2017,19-07-2016,365 dias,"Portugal, Leiria, Leiria","Artigo 24.º, n.º 1, alínea e) do Código dos Contratos Públicos",30-12-2016,"8.981,27 €","","",,Não aplicável.,Não aplicável.,FALSE
0013O16-SERVIÇOS DE MANUTENÇÃO AOS SISTEMAS/SOFTWARES SIBAS/SISLAB,Ajuste Direto Regime Geral,Aquisição de serviços,"72610000-9, Serviços de assistência informática","Centro Hospitalar de Leiria, E. P. E. (509822932)","GLNTT-HEALTHCARE SOLUTIONS, SA (502479418)","9.052,71 €",31-01-2017,03-10-2016,365 dias,"Portugal, Leiria, Leiria","Artigo 24.º, n.º 1, alínea e) do Código dos Contratos Públicos",30-12-2016,"9.052,71 €","","",,Não aplicável.,Não aplicável.,FALSE
0009O16-MANUTENÇÃO SOFTWARE SISCONT ANO 2016,Ajuste Direto Regime Geral,Aquisição de serviços,"72600000-6, Serviços de consultoria e assistência informáticas","Centro Hospitalar de Leiria, E. P. E. (509822932)","SISBIT, LDA. (502195576)","9.000,00 €",31-01-2017,16-06-2016,365 dias,"Portugal, Leiria, Leiria","Artigo 24.º, n.º 1, alínea e) do Código dos Contratos Públicos",30-12-2016,"9.000,00 €","","",,Não aplicável.,Não aplicável.,FALSE
0011O16-SERVIÇOS DE ASSISTÊNCIA TÉCNICA AO SOFTWARE B-ICU.CARE,Ajuste Direto Regime Geral,Aquisição de serviços,"72610000-9, Serviços de assistência informática","Centro Hospitalar de Leiria, E. P. E. (509822932)","B-SIMPLE SISTEMAS INFORMAÇÃO, LDA (506188841)","12.000,00 €",31-01-2017,19-07-2016,365 dias,"Portugal, Leiria, Leiria","Artigo 24.º, n.º 1, alínea e) do Código dos Contratos Públicos",30-12-2016,"12.000,00 €","","",,Não aplicável.,Não aplicável.,FALSE
0002O16- Fornecimento de Gás Natural,Concurso público,Aquisição de bens móveis,"09123000-7, Gás natural","Centro Hospitalar de Leiria, E. P. E. (509822932)",Galp Power (504723456),"22.529,28 €",31-01-2017,01-02-2016,365 dias,"Portugal, Leiria, Leiria",Artigo 259.º do Código dos Contratos Públicos,31-12-2016,"22.529,28 €","","",,Não aplicável.,Não aplicável.,TRUE
0432E16- PRESTAÇÃO SERVIÇOS MÉDICOS SEM ESPECIALIDADE - URGÊNCIA,Ajuste Direto Regime Geral,Aquisição de serviços,"85100000-0, Serviços de saúde","Centro Hospitalar de Leiria, E. P. E. (509822932)",INSIDEPURPLE (510275940),"252.803,25 €",31-01-2017,14-12-2015,61 dias,"Portugal, Leiria, Leiria","Artigo 20.º, n.º 1, alínea a) do Código dos Contratos Públicos",30-06-2016,"252.803,25 €","","",,Não aplicável.,Não aplicável.,FALSE
0266E15 - PRÓTESES AUDITIVAS,Ajuste Direto Regime Geral,Aquisição de bens móveis,"33185000-0, Próteses auditivas","CENTRO HOSPITALAR DE LEIRIA, E.P.E. (509822932)","Amplifon Portugal, SA (503325872)","27.624,00 €",31-01-2017,05-11-2015,365 dias,"Portugal, Leiria, Leiria","Artigo 20.º, n.º 1, alínea a) do Código dos Contratos Públicos",12-01-2017,"14.099,70 €",valor sob-estimado,valor sob-estimado,,Não aplicável.,Não aplicável.,FALSE
0570E16 - PRÓTESES DENTÁRIAS - 1º SEMESTRE 2016,Ajuste Direto Regime Geral,Aquisição de serviços,"85000000-9, Serviços de saúde e acção social","Centro Hospitalar de Leiria, E. P. E. (509822932)","Laboratório Dentário Daniel S. Morgado, Lda. (502419717)","22.729,00 €",31-01-2017,21-12-2016,365 dias,"Portugal, Leiria, Leiria","Artigo 20.º, n.º 1, alínea a) do Código dos Contratos Públicos",04-01-2017,"22.729,00 €",.,.,,Não aplicável.,Não aplicável.,FALSE
0001O16- FORNECIMENTO DE ENERGIA ELÉTRICA,Ao abrigo de acordo-quadro (art.º 259.º),Aquisição de bens móveis,"09310000-5, Electricidade","Centro Hospitalar de Leiria, E. P. E. (509822932)","EDP COMERCIAL - COMERCIALIZAÇÃO DE ENERGIA, S.A. (503504564)","392.390,57 €",31-01-2017,21-12-2015,365 dias,"Portugal, Leiria, Leiria",Artigo 259.º do Código dos Contratos Públicos,"","","","",,314294,Acordo quadro para o fornecimento de electricidade em regime de mercado livre para Portugal Continental,TRUE
0329E16- Prestação de Serviços de Formação Set. a Dez. 2016,Ajuste Direto Regime Geral,Aquisição de serviços,"79632000-3, Serviços de formação de pessoal","CENTRO HOSPITALAR DE LEIRIA, E.P.E. (509822932)","SINASE-RECURSOS HUMANOS,EST.DES.EMPRESAS (502851791)","420,00 €",31-01-2017,18-08-2016,122 dias,"Portugal, Leiria, Leiria","Artigo 20.º, n.º 1, alínea a) do Código dos Contratos Públicos",30-12-2016,"420,00 €","","",,Não aplicável.,Não aplicável.,FALSE
0329E16- Prestação de Serviços de Formação Set. a Dez. 2016,Ajuste Direto Regime Geral,Aquisição de serviços,"79632000-3, Serviços de formação de pessoal","CENTRO HOSPITALAR DE LEIRIA, E.P.E. (509822932)","SINASE-RECURSOS HUMANOS,EST.DES.EMPRESAS (502851791)","210,00 €",31-01-2017,18-08-2016,122 dias,"Portugal, Leiria, Leiria","Artigo 20.º, n.º 1, alínea a) do Código dos Contratos Públicos",30-12-2016,"210,00 €","","",,Não aplicável.,Não aplicável.,FALSE
0329E16- Prestação de Serviços de Formação Set. a Dez. 2016,Ajuste Direto Regime Geral,Aquisição de serviços,"79632000-3, Serviços de formação de pessoal","CENTRO HOSPITALAR DE LEIRIA, E.P.E. (509822932)","SINASE-RECURSOS HUMANOS,EST.DES.EMPRESAS (502851791)","1.680,00 €",31-01-2017,18-08-2016,122 dias,"Portugal, Leiria, Leiria","Artigo 20.º, n.º 1, alínea a) do Código dos Contratos Públicos",30-12-2016,"1.680,00 €","","",,Não aplicável.,Não aplicável.,FALSE
0329E16- Prestação de Serviços de Formação Set. a Dez. 2016,Ajuste Direto Regime Geral,Aquisição de serviços,"79632000-3, Serviços de formação de pessoal","CENTRO HOSPITALAR DE LEIRIA, E.P.E. (509822932)","SINASE-RECURSOS HUMANOS,EST.DES.EMPRESAS (502851791)","3.080,00 €",31-01-2017,18-08-2016,122 dias,"Portugal, Leiria, Leiria","Artigo 20.º, n.º 1, alínea a) do Código dos Contratos Públicos",30-12-2016,"3.080,00 €","","",,Não aplicável.,Não aplicável.,FALSE
0329E16- Prestação de Serviços de Formação Set. a Dez. 2016,Ajuste Direto Regime Geral,Aquisição de serviços,"79632000-3, Serviços de formação de pessoal","CENTRO HOSPITALAR DE LEIRIA, E.P.E. (509822932)","SINASE-RECURSOS HUMANOS,EST.DES.EMPRESAS (502851791)","420,00 €",31-01-2017,18-08-2016,122 dias,"Portugal, Leiria, Leiria","Artigo 20.º, n.º 1, alínea a) do Código dos Contratos Públicos",30-12-2016,"420,00 €","","",,Não aplicável.,Não aplicável.,FALSE
