Objeto do Contrato,Tipo de Procedimento,Tipo(s) de Contrato,CPVs,Entidade(s) Adjudicante(s),Entidade(s) Adjudicatária(s),Preço Contratual,Data de Publicação,Data de Celebração do Contrato,Prazo de Execução,Local de Execução,Fundamentação,Data de Fecho do Contrato,Preço Total Efetivo,Causas das Alterações ao Prazo,Causas das Alterações ao Preço,Estado,N.º registo do Acordo Quadro,Descrição do Acordo Quadro,Procedimento Centralizado
Deslocação em serviço a Varsóvia;HMA 1 Participante.,Ajuste Direto Regime Geral,Aquisição de serviços,"63510000-7, Serviços de agências de viagens e serviços similares","INFARMED - Autoridade Nacional do Medicamento e Produtos de Saúde, I.P. (600037002)","BCD TRAVEL PORTUGAL – Agência de Viagens, Lda. (500291110)","1.109,46 €",30-06-2011,29-06-2011,3 dias,"Portugal, Lisboa, Lisboa","Artigo 27.º, n.º 1, alínea h) do Código dos Contratos Públicos",,,,,,Não aplicável.,Não aplicável.,
Deslocação em serviço a Paris; Peer REview Audit; 1 Participante.,Ajuste Direto Regime Geral,Aquisição de serviços,"63510000-7, Serviços de agências de viagens e serviços similares","INFARMED - Autoridade Nacional do Medicamento e Produtos de Saúde, I.P. (600037002)","BCD TRAVEL PORTUGAL – Agência de Viagens, Lda. (500291110)","1.128,07 €",30-06-2011,29-06-2011,4 dias,"Portugal, Lisboa, Lisboa","Artigo 27.º, n.º 1, alínea h) do Código dos Contratos Públicos",,,,,,Não aplicável.,Não aplicável.,
Deslocação em serviço a Bruxelas; NBOG; 2 Participantes.,Ajuste Direto Regime Geral,Aquisição de serviços,"63510000-7, Serviços de agências de viagens e serviços similares","INFARMED - Autoridade Nacional do Medicamento e Produtos de Saúde, I.P. (600037002)","BCD TRAVEL PORTUGAL – Agência de Viagens, Lda. (500291110)","2.155,78 €",30-06-2011,29-06-2011,2 dias,"Portugal, Lisboa, Lisboa","Artigo 27.º, n.º 1, alínea h) do Código dos Contratos Públicos",,,,,,Não aplicável.,Não aplicável.,
Deslocação em serviço a Londres; SWP; 1 Participante.,Ajuste Direto Regime Geral,Aquisição de serviços,"63510000-7, Serviços de agências de viagens e serviços similares","INFARMED - Autoridade Nacional do Medicamento e Produtos de Saúde, I.P. (600037002)","BCD TRAVEL PORTUGAL – Agência de Viagens, Lda. (500291110)","857,83 €",30-06-2011,29-06-2011,2 dias,"Portugal, Lisboa, Lisboa","Artigo 27.º, n.º 1, alínea h) do Código dos Contratos Públicos",,,,,,Não aplicável.,Não aplicável.,
Deslocação em serviço a Barcelona; Formação; 1 Participante.,Ajuste Direto Regime Geral,Aquisição de serviços,"63510000-7, Serviços de agências de viagens e serviços similares","INFARMED - Autoridade Nacional do Medicamento e Produtos de Saúde, I.P. (600037002)","BCD TRAVEL PORTUGAL – Agência de Viagens, Lda. (500291110)","858,13 €",30-06-2011,28-06-2011,3 dias,"Portugal, Lisboa, Lisboa","Artigo 27.º, n.º 1, alínea h) do Código dos Contratos Públicos",,,,,,Não aplicável.,Não aplicável.,
Deslocação em serviço a Londres; CHMP; 1 Participante.,Ajuste Direto Regime Geral,Aquisição de serviços,"63510000-7, Serviços de agências de viagens e serviços similares","INFARMED - Autoridade Nacional do Medicamento e Produtos de Saúde, I.P. (600037002)","BCD TRAVEL PORTUGAL – Agência de Viagens, Lda. (500291110)","1.181,73 €",30-06-2011,28-06-2011,4 dias,"Portugal, Lisboa, Lisboa","Artigo 27.º, n.º 1, alínea h) do Código dos Contratos Públicos",,,,,,Não aplicável.,Não aplicável.,
Deslocação em serviço a Bruxelas; MDEG; 1 Participante.,Ajuste Direto Regime Geral,Aquisição de serviços,"63510000-7, Serviços de agências de viagens e serviços similares","INFARMED - Autoridade Nacional do Medicamento e Produtos de Saúde, I.P. (600037002)","RASO - Viagens e Turismo, S.A. (500886113)","666,76 €",30-06-2011,28-06-2011,2 dias,"Portugal, Lisboa","Artigo 27.º, n.º 1, alínea h) do Código dos Contratos Públicos",,,,,,Não aplicável.,Não aplicável.,
Deslocação em serviço a Estrasburgo; Reunião Comissão Farmocopeia Portuguesa; 2 Participantes.,Ajuste Direto Regime Geral,Aquisição de serviços,"63510000-7, Serviços de agências de viagens e serviços similares","INFARMED - Autoridade Nacional do Medicamento e Produtos de Saúde, I.P. (600037002)","BCD TRAVEL PORTUGAL – Agência de Viagens, Lda. (500291110)","2.934,72 €",30-06-2011,28-06-2011,5 dias,"Portugal, Lisboa, Lisboa","Artigo 27.º, n.º 1, alínea h) do Código dos Contratos Públicos",,,,,,Não aplicável.,Não aplicável.,
Deslocação em serviço a Stevenage- Reino Unido; Formação; 1 Participante.,Ajuste Direto Regime Geral,Aquisição de serviços,"63510000-7, Serviços de agências de viagens e serviços similares","INFARMED - Autoridade Nacional do Medicamento e Produtos de Saúde, I.P. (600037002)","BCD TRAVEL PORTUGAL – Agência de Viagens, Lda. (500291110)","708,38 €",30-06-2011,28-06-2011,2 dias,"Portugal, Lisboa, Lisboa","Artigo 27.º, n.º 1, alínea h) do Código dos Contratos Públicos",,,,,,Não aplicável.,Não aplicável.,
Deslocação em serviço a Londres; BWP; 2 Participantes.,Ajuste Direto Regime Geral,Aquisição de serviços,"63510000-7, Serviços de agências de viagens e serviços similares","INFARMED - Autoridade Nacional do Medicamento e Produtos de Saúde, I.P. (600037002)","BCD TRAVEL PORTUGAL – Agência de Viagens, Lda (500291110)","814,48 €",30-06-2011,28-06-2011,2 dias,"Portugal, Lisboa, Lisboa","Artigo 27.º, n.º 1, alínea h) do Código dos Contratos Públicos",,,,,,Não aplicável.,Não aplicável.,
Deslocação em serviço a Londres; CMDH e EE; 1 Participante.,Ajuste Direto Regime Geral,Aquisição de serviços,"63510000-7, Serviços de agências de viagens e serviços similares","INFARMED - Autoridade Nacional do Medicamento e Produtos de Saúde, I.P. (600037002)","BCD TRAVEL PORTUGAL – Agência de Viagens, Lda. (500291110)","1.244,53 €",30-06-2011,28-06-2011,4 dias,"Portugal, Lisboa, Lisboa","Artigo 27.º, n.º 1, alínea h) do Código dos Contratos Públicos",,,,,,Não aplicável.,Não aplicável.,
Deslocação em serviço a Londres; BEMA; 1 Participante.,Ajuste Direto Regime Geral,Aquisição de serviços,"63510000-7, Serviços de agências de viagens e serviços similares","INFARMED - Autoridade Nacional do Medicamento e Produtos de Saúde, I.P. (600037002)","BCD TRAVEL PORTUGAL – Agência de Viagens, Lda. (500291110)","432,41 €",30-06-2011,28-06-2011,2 dias,"Portugal, Lisboa, Lisboa","Artigo 27.º, n.º 1, alínea h) do Código dos Contratos Públicos",,,,,,Não aplicável.,Não aplicável.,
Deslocação em serviço a Penafiel; Auditoria; 4 Participantes.,Ajuste Direto Regime Geral,Aquisição de serviços,"63510000-7, Serviços de agências de viagens e serviços similares","INFARMED - Autoridade Nacional do Medicamento e Produtos de Saúde, I.P. (600037002)","BCD TRAVEL PORTUGAL – Agência de Viagens, Lda. (500291110)","309,20 €",29-06-2011,27-06-2011,1 dias,"Portugal, Lisboa, Lisboa","Artigo 27.º, n.º 1, alínea h) do Código dos Contratos Públicos",,,,,,Não aplicável.,Não aplicável.,
Deslocação em serviço a Coimbra; Inspecção; 2 Participantes.,Ajuste Direto Regime Geral,Aquisição de serviços,"63510000-7, Serviços de agências de viagens e serviços similares","INFARMED - Autoridade Nacional do Medicamento e Produtos de Saúde, I.P. (600037002)","TOPATLANTICO – Viagens e Turismo, S.A. (501061126)","16,60 €",22-06-2011,21-06-2011,4 dias,"Portugal, Lisboa, Lisboa","Artigo 27.º, n.º 1, alínea h) do Código dos Contratos Públicos",,,,,,Não aplicável.,Não aplicável.,
Deslocação em serviço a Londres; BWP+CAT; 1 Participante.,Ajuste Direto Regime Geral,Aquisição de serviços,"63510000-7, Serviços de agências de viagens e serviços similares","INFARMED - Autoridade Nacional do Medicamento e Produtos de Saúde, I.P. (600037002)","BCD TRAVEL PORTUGAL – Agência de Viagens, Lda. (500291110)","384,20 €",22-06-2011,21-06-2011,5 dias,"Portugal, Lisboa, Lisboa","Artigo 27.º, n.º 1, alínea h) do Código dos Contratos Públicos",,,,,,Não aplicável.,Não aplicável.,
Deslocação em serviço ao Rio de Janeiro;8ª conferencia; 1 Participante.,Ajuste Direto Regime Geral,Aquisição de serviços,"63510000-7, Serviços de agências de viagens e serviços similares","INFARMED - Autoridade Nacional do Medicamento e Produtos de Saúde, I.P. (600037002)","RASO - Viagens e Turismo, S.A. (500886113)","1.847,16 €",22-06-2011,21-06-2011,7 dias,"Portugal, Lisboa, Lisboa","Artigo 27.º, n.º 1, alínea h) do Código dos Contratos Públicos",,,,,,Não aplicável.,Não aplicável.,
Deslocação em serviço. a Geneve; PIC´S; 2 Participantes.,Ajuste Direto Regime Geral,Aquisição de serviços,"63510000-7, Serviços de agências de viagens e serviços similares","INFARMED - Autoridade Nacional do Medicamento e Produtos de Saúde, I.P. (600037002)","OSIRIS - Viagens e Turismo, Lda. (505259397)","0,11 €",22-06-2011,21-06-2011,3 dias,"Portugal, Lisboa, Lisboa","Artigo 27.º, n.º 1, alínea h) do Código dos Contratos Públicos",,,,,,Não aplicável.,Não aplicável.,
Deslocação em serviço a Geneve; PIC/S; 1 Participante.,Ajuste Direto Regime Geral,Aquisição de serviços,"63510000-7, Serviços de agências de viagens e serviços similares","INFARMED - Autoridade Nacional do Medicamento e Produtos de Saúde, I.P. (600037002)","OSIRIS - Viagens e Turismo, Lda. (505259397)","510,47 €",22-06-2011,21-06-2011,2 dias,"Portugal, Lisboa, Lisboa","Artigo 27.º, n.º 1, alínea h) do Código dos Contratos Públicos",,,,,,Não aplicável.,Não aplicável.,
