Objeto do Contrato,Tipo de Procedimento,Tipo(s) de Contrato,CPVs,Entidade(s) Adjudicante(s),Entidade(s) Adjudicatária(s),Preço Contratual,Data de Publicação,Data de Celebração do Contrato,Prazo de Execução,Local de Execução,Fundamentação,Data de Fecho do Contrato,Preço Total Efetivo,Causas das Alterações ao Prazo,Causas das Alterações ao Preço,Estado,N.º registo do Acordo Quadro,Descrição do Acordo Quadro,Procedimento Centralizado
5701015 - Aquisição de centrifugas de bancada,Ajuste Direto Regime Geral,Aquisição de bens móveis,"38500000-0, Aparelhos de controlo e ensaio","Instituto Português do Sangue e da Transplantação, I. P. (502423943)",Labocontrole (501872329),"30.579,30 €",06-10-2016,19-09-2016,70 dias,"Portugal, Lisboa, Lisboa","Artigo 20.º, n.º 1, alínea a) do Código dos Contratos Públicos",,,,,,Não aplicável.,Não aplicável.,FALSE
Aquisição de Reagentes para o Laboratório de Genética do CSTC-Transplantação,Ajuste Direto Regime Geral,Aquisição de bens móveis,"33696200-7, Reagentes para análises ao sangue","Instituto Português do Sangue e da Transplantação, I. P. (502423943)","Izasa Scientific, Lda (513252088)","1.000,00 €",03-10-2016,05-08-2016,146 dias,"Portugal, Coimbra, Coimbra","Artigo 24.º, n.º 1, alínea e) do Código dos Contratos Públicos",,,,,,Não aplicável.,Não aplicável.,FALSE
Aquisição de Reagentes para o Laboratório de Genética dos Centros de Lisboa e Coimbra da Área da Transplantação,Ajuste Direto Regime Geral,Aquisição de bens móveis,"33696200-7, Reagentes para análises ao sangue","Instituto Português do Sangue e da Transplantação, I. P. (502423943)",Werfen Portugal (501086110),"15.214,00 €",03-10-2016,27-07-2016,117 dias,"Portugal, Coimbra, Coimbra<BR/>Portugal, Lisboa, Lisboa","Artigo 24.º, n.º 1, alínea e) do Código dos Contratos Públicos",,,,,,Não aplicável.,Não aplicável.,FALSE
"Aquisição de Reagentes para Definição de Alosensibilização HLA em Histocompatibilidade Clinica para o IPST, IP",Ajuste Direto Regime Geral,Aquisição de bens móveis,"33696200-7, Reagentes para análises ao sangue","Instituto Português do Sangue e da Transplantação, I. P. (502423943)",Comercial rafer (980180651),"261.486,00 €",03-10-2016,13-09-2016,100 dias,"Portugal, Porto, Porto<BR/>Portugal, Lisboa, Lisboa<BR/>Portugal, Coimbra, Coimbra","Artigo 26.º, n.º 1, alínea a) do Código dos Contratos Públicos",,,,,,Não aplicável.,Não aplicável.,FALSE
