Objeto do Contrato,Tipo de Procedimento,Tipo(s) de Contrato,CPVs,Entidade(s) Adjudicante(s),Entidade(s) Adjudicatária(s),Preço Contratual,Data de Publicação,Data de Celebração do Contrato,Prazo de Execução,Local de Execução,Fundamentação,Data de Fecho do Contrato,Preço Total Efetivo,Causas das Alterações ao Prazo,Causas das Alterações ao Preço,Estado,N.º registo do Acordo Quadro,Descrição do Acordo Quadro,Procedimento Centralizado
AD2214-2018-REAGENTES,Ajuste Direto Regime Geral,Aquisição de bens móveis,"33696500-0, Reagentes de laboratório","Instituto Português de Oncologia de Lisboa Francisco Gentil, E. P. E. (506361616)","VWR INTERNATIONAL MATERIAL DE LABORATÓRIO, LDA (503842770)","8.482,00 €",31-08-2018,21-08-2018,30 dias,"Portugal, Lisboa, Lisboa","Artigo 20.º, n.º 1, alínea a) do Código dos Contratos Públicos",,,,,,Não aplicável.,Não aplicável.,FALSE
AD608-2018FARDAMENTO HOSPITALAR,Ajuste Direto Regime Geral,Aquisição de bens móveis,"18110000-3, Vestuário profissional","Instituto Português de Oncologia de Lisboa Francisco Gentil, E. P. E. (506361616)","HR PROTEÇÃO, SA (505766205)","1.896,00 €",31-08-2018,31-07-2018,30 dias,"Portugal, Lisboa, Loures","Artigo 20.º, n.º 1, alínea a) do Código dos Contratos Públicos",,,,,,Não aplicável.,Não aplicável.,FALSE
