Objeto do Contrato,Tipo de Procedimento,Tipo(s) de Contrato,CPVs,Entidade(s) Adjudicante(s),Entidade(s) Adjudicatária(s),Preço Contratual,Data de Publicação,Data de Celebração do Contrato,Prazo de Execução,Local de Execução,Fundamentação,Data de Fecho do Contrato,Preço Total Efetivo,Causas das Alterações ao Prazo,Causas das Alterações ao Preço,Estado,N.º registo do Acordo Quadro,Descrição do Acordo Quadro,Procedimento Centralizado
Aquisição de serviços de passagem de conhecimento técnico do SICO,Ajuste Direto Regime Geral,Aquisição de serviços,"72000000-5, Serviços de TI: consultoria, desenvolvimento de software, Internet e apoio","Serviço Partilhados do Ministério da Saúde, E. P. E. (509540716)","GFI PORTUGAL- TECNOLOGIAS DE INFORMAÇÃO, SA (502726890)","11.362,70 €",21-10-2013,09-10-2013,455 dias,Portugal,"Artigo 24.º, n.º 1, alínea e) do Código dos Contratos Públicos",31-12-2014,"11.362,70 €",,,,Não aplicável.,Não aplicável.,
AJUSTE DIRETO PARA AQUISIÇÃO DE SERVIDORES,Ajuste Direto Regime Geral,Aquisição de bens móveis,"48800000-6, Sistemas de informação e servidores","Serviço Partilhados do Ministério da Saúde, E. P. E. (509540716)","ITEN Solutions - Sistemas de Informação, S.A. (510728189)","9.599,78 €",21-10-2013,17-10-2013,30 dias,"Portugal, Porto, Porto","Artigo 20.º, n.º 1, alínea a) do Código dos Contratos Públicos","","",,,,Não aplicável.,Não aplicável.,
Serviços de manutenção evolutiva e suporte à utilização do SIGAI,Ajuste Direto Regime Geral,Aquisição de serviços,"72500000-0, Serviços relacionados com a informática","Serviço Partilhados do Ministério da Saúde, E. P. E. (509540716)","Siemens, SA. (500247480)","8.000,00 €",16-10-2013,03-10-2013,182 dias,Portugal,"Artigo 24.º, n.º 1, alínea e) do Código dos Contratos Públicos",31-03-2014,"8.000,00 €",,,,Não aplicável.,Não aplicável.,
