Objeto do Contrato,Tipo de Procedimento,Tipo(s) de Contrato,CPVs,Entidade(s) Adjudicante(s),Entidade(s) Adjudicatária(s),Preço Contratual,Data de Publicação,Data de Celebração do Contrato,Prazo de Execução,Local de Execução,Fundamentação,Data de Fecho do Contrato,Preço Total Efetivo,Causas das Alterações ao Prazo,Causas das Alterações ao Preço,Estado,N.º registo do Acordo Quadro,Descrição do Acordo Quadro,Procedimento Centralizado
181g003558 GLUCOSE NO SANGUE TIRAS-TESTE 50 TIRAS,Ajuste Direto Regime Geral,Aquisição de bens móveis,"33690000-3, Medicamentos vários","Centro Hospitalar Universitário de Lisboa Norte, E. P. E. (508481287)",JOHNSON JOHNSON MEDICAL (500153370),"8.300,00 €",05-02-2019,25-09-2018,98 dias,"Portugal, Lisboa, Lisboa","Artigo 24.º, n.º 1, alínea e), subalínea ii) do Código dos Contratos Públicos",,,,,,Não aplicável.,Não aplicável.,FALSE
181g003556 IMUNOGLOBULINA 100MG/ML INJ FR 200 ML,Ajuste Direto Regime Geral,Aquisição de bens móveis,"33690000-3, Medicamentos vários","Centro Hospitalar Universitário de Lisboa Norte, E. P. E. (508481287)","CSL BEHRING, LDA. (503047201)","194.900,00 €",05-02-2019,27-09-2018,96 dias,"Portugal, Lisboa, Lisboa","Artigo 24.º, n.º 1, alínea e), subalínea ii) do Código dos Contratos Públicos",,,,,,Não aplicável.,Não aplicável.,FALSE
181g003516 TEMOZOLAMIDA CAPS 140 MG,Ajuste Direto Regime Geral,Aquisição de bens móveis,"33690000-3, Medicamentos vários","Centro Hospitalar Universitário de Lisboa Norte, E. P. E. (508481287)","MERCK SHARP & DOHME,LDA (500191360)","6.115,12 €",05-02-2019,18-09-2018,105 dias,"Portugal, Lisboa, Lisboa","Artigo 24.º, n.º 1, alínea e), subalínea ii) do Código dos Contratos Públicos",,,,,,Não aplicável.,Não aplicável.,FALSE
181g003461 INFLIXIMAD 100 MG SOL INJ,Ajuste Direto Regime Geral,Aquisição de bens móveis,"33690000-3, Medicamentos vários","Centro Hospitalar Universitário de Lisboa Norte, E. P. E. (508481287)","MERCK SHARP & DOHME,LDA (500191360)","259.000,00 €",05-02-2019,24-09-2018,99 dias,"Portugal, Lisboa, Lisboa","Artigo 24.º, n.º 1, alínea e), subalínea ii) do Código dos Contratos Públicos",,,,,,Não aplicável.,Não aplicável.,FALSE
181g003515,Ajuste Direto Regime Geral,Aquisição de bens móveis,"33680000-0, Artigos de farmácia","Centro Hospitalar Universitário de Lisboa Norte, E. P. E. (508481287)",octafarma (502820780),"18.346,50 €",05-02-2019,24-09-2018,99 dias,"Portugal, Lisboa, Lisboa","Artigo 24.º, n.º 1, alínea e), subalínea ii) do Código dos Contratos Públicos",,,,,,Não aplicável.,Não aplicável.,FALSE
191000049 - Aquisição de Corretivos da Volémia e outras Soluções Estéreis - Ano 2019 - SPMS 2017/03,Ao abrigo de acordo-quadro (art.º 259.º),Aquisição de bens móveis,"33692400-1, Soluções para perfusão","Centro Hospitalar Universitário de Lisboa Norte, EPE (508481287)","OVERPHARMA, LDA (505792362)","99.561,17 €",05-02-2019,05-02-2019,329 dias,Portugal,Artigo 259.º do Código dos Contratos Públicos,,,,,,2528675,CP 2017/3 - Acordo Quadro para fornecimento de corretivos da volémia e outras soluções estéreis,FALSE
191000049 - Aquisição de Corretivos da Volémia e outras Soluções Estéreis - Ano 2019 - SPMS 2017/03,Ao abrigo de acordo-quadro (art.º 259.º),Aquisição de bens móveis,"33692400-1, Soluções para perfusão","Centro Hospitalar Universitário de Lisboa Norte, EPE (508481287)","LABESFAL - Laboratórios Almiro, S.A (501169580)","197.199,10 €",05-02-2019,05-02-2019,329 dias,Portugal,Artigo 259.º do Código dos Contratos Públicos,,,,,,2528675,CP 2017/3 - Acordo Quadro para fornecimento de corretivos da volémia e outras soluções estéreis,FALSE
191000049 - Aquisição de Corretivos da Volémia e outras Soluções Estéreis - Ano 2019 - SPMS 2017/03,Ao abrigo de acordo-quadro (art.º 259.º),Aquisição de bens móveis,"33692400-1, Soluções para perfusão","Centro Hospitalar Universitário de Lisboa Norte, EPE (508481287)","B.BRAUN MEDICAL, LDA (501506543)","92.973,68 €",05-02-2019,05-02-2019,329 dias,Portugal,Artigo 259.º do Código dos Contratos Públicos,,,,,,2528675,CP 2017/3 - Acordo Quadro para fornecimento de corretivos da volémia e outras soluções estéreis,FALSE
181g003454 DEXAMETASONA SOL INJ 5 MG/ML AMP 1 ML,Ajuste Direto Regime Geral,Aquisição de bens móveis,"33680000-0, Artigos de farmácia","Centro Hospitalar Universitário de Lisboa Norte, E. P. E. (508481287)","BDRPHARMA, LDA (513077332)","27.105,00 €",05-02-2019,17-09-2018,106 dias,"Portugal, Lisboa, Lisboa","Artigo 24.º, n.º 1, alínea e), subalínea iii) do Código dos Contratos Públicos",,,,,,Não aplicável.,Não aplicável.,FALSE
181g003427 IXECIZUMAB 80 MG/1ML SOL INJ CANETA,Ajuste Direto Regime Geral,Aquisição de bens móveis,"33690000-3, Medicamentos vários","Centro Hospitalar Universitário de Lisboa Norte, E. P. E. (508481287)",LILLY PORTUGAL - PRODUTOS FARMACEUTICOS (500165602),"8.800,00 €",05-02-2019,05-09-2018,118 dias,"Portugal, Lisboa, Lisboa","Artigo 24.º, n.º 1, alínea e), subalínea iii) do Código dos Contratos Públicos",,,,,,Não aplicável.,Não aplicável.,FALSE
181g003411 GLUCOSE NO SANGUE TIRAS-TESTE 50 TIRAS,Ajuste Direto Regime Geral,Aquisição de bens móveis,"33690000-3, Medicamentos vários","Centro Hospitalar Universitário de Lisboa Norte, E. P. E. (508481287)",JOHNSON JOHNSON MEDICAL (500153370),"8.300,00 €",05-02-2019,07-09-2018,116 dias,"Portugal, Lisboa, Lisboa","Artigo 24.º, n.º 1, alínea e), subalínea ii) do Código dos Contratos Públicos",,,,,,Não aplicável.,Não aplicável.,FALSE
191000409 - CP CENTRALIZADA DE CITARABINA - P259-2018-220.,Ao abrigo de acordo-quadro (art.º 259.º),Aquisição de bens móveis,"33690000-3, Medicamentos vários","Centro Hospitalar Universitário de Lisboa Norte, E. P. E. (508481287)","HIKMA Farmacêutica (Portugal), S.A. (502266791)","791,40 €",05-02-2019,05-02-2019,329 dias,"Portugal, Lisboa, Lisboa",Artigo 259.º do Código dos Contratos Públicos,,,,,,2969238,"CP 2017/6 - Acordo Quadro para fornecimento de Medicamentos do Foro Oncológico e Imunomoduladores, às Instituições e Serviços do Serviço Nacional de Saúde",FALSE
191000403 - CP CENTR.MED. A.Q.2017/2;2017/6 E 2017/61 - P259-2018-185,Ao abrigo de acordo-quadro (art.º 259.º),Aquisição de bens móveis,"33690000-3, Medicamentos vários","Centro Hospitalar Universitário de Lisboa Norte, E. P. E. (508481287)","BIOGEN PORTUGAL- SOC.FARMAC., LDA (506415740)","4.792.731,08 €",05-02-2019,05-02-2019,329 dias,"Portugal, Lisboa, Lisboa",Artigo 259.º do Código dos Contratos Públicos,,,,,,2545980,CP 2017/61 - Acordo quadro para fornecimento de Medicamentos Diversos   às Instituições e Serviços do Serviço Nacional de Saúde,FALSE
181g003397 IOVERSOL INJ 32% FRS 200ML,Ajuste Direto Regime Geral,Aquisição de bens móveis,"33680000-0, Artigos de farmácia","Centro Hospitalar Universitário de Lisboa Norte, E. P. E. (508481287)","A. MARTINS & FERNANDES, SA (501172114)","25.875,00 €",05-02-2019,13-09-2018,110 dias,"Portugal, Lisboa, Lisboa","Artigo 24.º, n.º 1, alínea e), subalínea iii) do Código dos Contratos Públicos",,,,,,Não aplicável.,Não aplicável.,FALSE
191G000497 - COMPRA CENTRALIZADA MEGESTROL COMP 160 MG - AD-2019-01,Ajuste Direto Regime Geral,Aquisição de bens móveis,"33690000-3, Medicamentos vários","Centro Hospitalar Universitário de Lisboa Norte, E. P. E. (508481287)","GENERIS - FARMACÊUTICA, S.A. (508107997)","13.356,00 €",05-02-2019,23-01-2019,342 dias,"Portugal, Lisboa, Lisboa","Artigo 24.º, n.º 1, alínea e), subalínea iii) do Código dos Contratos Públicos",,,,,,Não aplicável.,Não aplicável.,FALSE
Aquisição Materiais Manutenção Monitores Sinais Vitais,Ajuste Direto Regime Geral,Aquisição de bens móveis,"39290000-1, Acessórios diversos","Centro Hospitalar Universitário de Lisboa Norte, E. P. E. (508481287)",MEDICINALIA- CORMEDICA LDA (500684324),"2.198,70 €",05-02-2019,05-02-2019,329 dias,"Portugal, Lisboa, Lisboa","Artigo 24.º, n.º 1, alínea e), subalínea iii) do Código dos Contratos Públicos",,,,,,Não aplicável.,Não aplicável.,FALSE
AT manutenção ao software aplicacional Cardiobase para o ano de 2019,Ajuste Direto Regime Geral,Aquisição de serviços,"72212180-4, Serviços de desenvolvimento de software para medicina","Centro Hospitalar Universitário de Lisboa Norte, E. P. E. (508481287)","INFORTUCANO - SISTEMAS INFORMATICOS, LDA (503586293)","9.975,00 €",05-02-2019,05-02-2019,329 dias,"Portugal, Lisboa, Lisboa","Artigo 24.º, n.º 1, alínea e), subalínea ii) do Código dos Contratos Públicos",,,,,,Não aplicável.,Não aplicável.,FALSE
191000369 - Cp cent. med. A.Q. 2017/6; 2017/65 e 2018/41 - P259-2018-176,Ao abrigo de acordo-quadro (art.º 259.º),Aquisição de bens móveis,"33690000-3, Medicamentos vários","Centro Hospitalar Universitário de Lisboa Norte, E. P. E. (508481287)",MEDAC - SUCURSAL EM PORTUGAL (980369959),"22.750,00 €",05-02-2019,05-02-2019,329 dias,"Portugal, Lisboa, Lisboa",Artigo 259.º do Código dos Contratos Públicos,,,,,,2969238,"CP 2017/6 - Acordo Quadro para fornecimento de Medicamentos do Foro Oncológico e Imunomoduladores, às Instituições e Serviços do Serviço Nacional de Saúde",FALSE
191000369 - Cp cent. med. A.Q. 2017/6; 2017/65 e 2018/41 - P259-2018-176,Ao abrigo de acordo-quadro (art.º 259.º),Aquisição de bens móveis,"33690000-3, Medicamentos vários","Centro Hospitalar Universitário de Lisboa Norte, E. P. E. (508481287)","BAYER PORTUGAL, LDA (500043256)","8.040,00 €",05-02-2019,05-02-2019,329 dias,"Portugal, Lisboa, Lisboa",Artigo 259.º do Código dos Contratos Públicos,,,,,,2969238,"CP 2017/6 - Acordo Quadro para fornecimento de Medicamentos do Foro Oncológico e Imunomoduladores, às Instituições e Serviços do Serviço Nacional de Saúde",FALSE
AT subscrição e suporte sistemas Docbase 2019,Ajuste Direto Regime Geral,Aquisição de serviços,"50312310-1, Manutenção de equipamento para redes de dados","Centro Hospitalar Universitário de Lisboa Norte, E. P. E. (508481287)","MOBILWAVETECNOLOGIAS DE INFORMAÇÃO, SA. (506929183)","4.801,68 €",05-02-2019,05-02-2019,329 dias,"Portugal, Lisboa, Lisboa","Artigo 24.º, n.º 1, alínea e), subalínea ii) do Código dos Contratos Públicos",,,,,,Não aplicável.,Não aplicável.,FALSE
191000369 - Cp cent. med. A.Q. 2017/6; 2017/65 e 2018/41 - P259-2018-176,Ao abrigo de acordo-quadro (art.º 259.º),Aquisição de bens móveis,"33690000-3, Medicamentos vários","Centro Hospitalar Universitário de Lisboa Norte, E. P. E. (508481287)","MYLAN, LDA (502248793)","293.880,00 €",05-02-2019,05-02-2019,329 dias,"Portugal, Lisboa, Lisboa",Artigo 259.º do Código dos Contratos Públicos,,,,,,2969238,"CP 2017/6 - Acordo Quadro para fornecimento de Medicamentos do Foro Oncológico e Imunomoduladores, às Instituições e Serviços do Serviço Nacional de Saúde",FALSE
191000369 - Cp cent. med. A.Q. 2017/6; 2017/65 e 2018/41 - P259-2018-176,Ao abrigo de acordo-quadro (art.º 259.º),Aquisição de bens móveis,"33690000-3, Medicamentos vários","Centro Hospitalar Universitário de Lisboa Norte, E. P. E. (508481287)","GENERIS - FARMACÊUTICA, S.A. (508107997)","16.110,08 €",05-02-2019,05-02-2019,329 dias,"Portugal, Lisboa, Lisboa",Artigo 259.º do Código dos Contratos Públicos,,,,,,2969238,"CP 2017/6 - Acordo Quadro para fornecimento de Medicamentos do Foro Oncológico e Imunomoduladores, às Instituições e Serviços do Serviço Nacional de Saúde",FALSE
191000369 - Cp cent. med. A.Q. 2017/6; 2017/65 e 2018/41 - P259-2018-176,Ao abrigo de acordo-quadro (art.º 259.º),Aquisição de bens móveis,"33690000-3, Medicamentos vários","Centro Hospitalar Universitário de Lisboa Norte, E. P. E. (508481287)","ACCORD HEALTHCARE, UNIPESSOAL, LDA (508622263)","28.305,00 €",05-02-2019,05-02-2019,329 dias,"Portugal, Lisboa, Lisboa",Artigo 259.º do Código dos Contratos Públicos,,,,,,2969238,"CP 2017/6 - Acordo Quadro para fornecimento de Medicamentos do Foro Oncológico e Imunomoduladores, às Instituições e Serviços do Serviço Nacional de Saúde",FALSE
191000369 - Cp cent. med. A.Q. 2017/6; 2017/65 e 2018/41 - P259-2018-176,Ao abrigo de acordo-quadro (art.º 259.º),Aquisição de bens móveis,"33690000-3, Medicamentos vários","Centro Hospitalar Universitário de Lisboa Norte, E. P. E. (508481287)",TEVA PHARMA  - PROD. FARMACÊUTICOS (507045491),"108.647,00 €",05-02-2019,05-02-2019,329 dias,"Portugal, Lisboa, Lisboa",Artigo 259.º do Código dos Contratos Públicos,,,,,,2969238,"CP 2017/6 - Acordo Quadro para fornecimento de Medicamentos do Foro Oncológico e Imunomoduladores, às Instituições e Serviços do Serviço Nacional de Saúde",FALSE
181g003276,Ajuste Direto Regime Geral,Aquisição de bens móveis,"33696000-5, Reagentes e meios de contraste","Centro Hospitalar Universitário de Lisboa Norte, E. P. E. (508481287)",ROCHE SISTEMA DE DIAGNOSTICOS (504282921),"91.358,40 €",05-02-2019,03-09-2018,119 dias,"Portugal, Lisboa, Lisboa","Artigo 24.º, n.º 1, alínea e), subalínea iii) do Código dos Contratos Públicos",,,,,,Não aplicável.,Não aplicável.,FALSE
191000377 - Compra centralizada medicamentos A.Q. 2017/6 - P259-2018-195,Ao abrigo de acordo-quadro (art.º 259.º),Aquisição de bens móveis,"33690000-3, Medicamentos vários","Centro Hospitalar Universitário de Lisboa Norte, E. P. E. (508481287)","MERCK, S.A (500650870)","1.288.798,62 €",05-02-2019,05-02-2019,329 dias,"Portugal, Lisboa, Lisboa",Artigo 259.º do Código dos Contratos Públicos,,,,,,2969238,"CP 2017/6 - Acordo Quadro para fornecimento de Medicamentos do Foro Oncológico e Imunomoduladores, às Instituições e Serviços do Serviço Nacional de Saúde",FALSE
RE Quadro de estereotáxia Elekta,Ajuste Direto Regime Geral,Aquisição de serviços,"50400000-9, Serviços de reparação e manutenção de equipamento médico e de precisão","Centro Hospitalar Universitário de Lisboa Norte, E. P. E. (508481287)",Barinlab Sales GmbH (DE198159823),"7.345,00 €",05-02-2019,05-02-2019,90 dias,"Portugal, Lisboa, Lisboa","Artigo 20.º, n.º 1, alínea d) do Código dos Contratos Públicos",,,,,,Não aplicável.,Não aplicável.,FALSE
Compra centralizada de medicamentos  - P259-2018-180,Ao abrigo de acordo-quadro (art.º 259.º),Aquisição de bens móveis,"33690000-3, Medicamentos vários","Centro Hospitalar Universitário de Lisboa Norte, E. P. E. (508481287)","Amgen Bio , Lda. (502942959)","592.855,08 €",04-02-2019,04-02-2019,3300 dias,"Portugal, Lisboa, Lisboa",Artigo 259.º do Código dos Contratos Públicos,,,,,,2969238,"CP 2017/6 - Acordo Quadro para fornecimento de Medicamentos do Foro Oncológico e Imunomoduladores, às Instituições e Serviços do Serviço Nacional de Saúde",FALSE
181g003237 imonoglobulina 100mg/ml inj fr 200 ml,Ajuste Direto Regime Geral,Aquisição de bens móveis,"33690000-3, Medicamentos vários","Centro Hospitalar Universitário de Lisboa Norte, E. P. E. (508481287)","CSL BEHRING, LDA. (503047201)","187.104,00 €",04-02-2019,03-09-2018,119 dias,"Portugal, Lisboa, Lisboa","Artigo 24.º, n.º 1, alínea e), subalínea ii) do Código dos Contratos Públicos",,,,,,Não aplicável.,Não aplicável.,FALSE
181G003172 selexipag 800 mcg comp,Ajuste Direto Regime Geral,Aquisição de bens móveis,"33690000-3, Medicamentos vários","Centro Hospitalar Universitário de Lisboa Norte, E. P. E. (508481287)",Actelion Pharmaceuticals Portugal Lda (507336488),"66.051,60 €",04-02-2019,24-08-2018,129 dias,"Portugal, Lisboa, Lisboa","Artigo 24.º, n.º 1, alínea e), subalínea iii) do Código dos Contratos Públicos",,,,,,Não aplicável.,Não aplicável.,FALSE
181C000019 ALGINATO DE CALCIO PENSO 5X5,Consulta Prévia,Aquisição de bens móveis,"33690000-3, Medicamentos vários","Centro Hospitalar Universitário de Lisboa Norte, E. P. E. (508481287)",kvtech (508671531),"15,50 €",04-02-2019,09-01-2019,2 dias,"Portugal, Lisboa, Lisboa","Artigo 20.º, n.º 1, alínea c) do Código dos Contratos Públicos",,,,,,Não aplicável.,Não aplicável.,FALSE
181000916 - ZIDOVUDINA COMP 250 MG,Ao abrigo de acordo-quadro (art.º 259.º),Aquisição de bens móveis,"33690000-3, Medicamentos vários","Centro Hospitalar Universitário de Lisboa Norte, E. P. E. (508481287)","VIIVHIV HEALTHCARE, UNIPESSOAL, LDA (509117961)","272,00 €",04-02-2019,09-05-2018,1 dias,"Portugal, Lisboa, Lisboa",Artigo 259.º do Código dos Contratos Públicos,,,,,,2183729,Medicamentos antirretrovíricos para o tratamento da infeção por VIH,FALSE
181000915 - LOPERAMIDA CAPS 2 MG,Ao abrigo de acordo-quadro (art.º 259.º),Aquisição de bens móveis,"33690000-3, Medicamentos vários","Centro Hospitalar Universitário de Lisboa Norte, E. P. E. (508481287)","RATIOPHARM- COM.IND.PROD.FARMAC., L (502414910)","63,00 €",04-02-2019,03-05-2018,1 dias,"Portugal, Lisboa, Lisboa",Artigo 259.º do Código dos Contratos Públicos,,,,,,2222779,Medicamentos do aparelho digestivo,FALSE
181000914 - Amicacina Sol Inj 250 mg/ml Amp 2 ml,Ao abrigo de acordo-quadro (art.º 259.º),Aquisição de bens móveis,"33690000-3, Medicamentos vários","Centro Hospitalar Universitário de Lisboa Norte, E. P. E. (508481287)","LABESFAL - Laboratórios Almiro, S.A (501169580)","5.301,00 €",04-02-2019,18-05-2018,1 dias,"Portugal, Lisboa, Lisboa",Artigo 259.º do Código dos Contratos Públicos,,,,,,2775691,CP 2017/5 - Acordo Quadro para fornecimento de Medicamentos anti-infeciosos: exceto antivíricos e antifúngicos,FALSE
181000912 - DARUNAVIR 400 MG COMP REVESTIDOS,Ao abrigo de acordo-quadro (art.º 259.º),Aquisição de bens móveis,"33690000-3, Medicamentos vários","Centro Hospitalar Universitário de Lisboa Norte, E. P. E. (508481287)",JANSSEN-CILAG FARMACEUTICA LDA (500189412),"1.445,64 €",04-02-2019,24-04-2018,2 dias,"Portugal, Lisboa, Lisboa",Artigo 259.º do Código dos Contratos Públicos,,,,,,2183729,Medicamentos antirretrovíricos para o tratamento da infeção por VIH,FALSE
181000911 - LAMIVUDINA 150 MG+ZIDOVUDINA 300 MG COMP,Ao abrigo de acordo-quadro (art.º 259.º),Aquisição de bens móveis,"33690000-3, Medicamentos vários","Centro Hospitalar Universitário de Lisboa Norte, E. P. E. (508481287)","MYLAN, LDA (502248793)","4.050,00 €",04-02-2019,08-05-2018,1 dias,"Portugal, Lisboa, Lisboa",Artigo 259.º do Código dos Contratos Públicos,,,,,,2183729,Medicamentos antirretrovíricos para o tratamento da infeção por VIH,FALSE
Consulta Prévia n.º 181C000017 NITROGLICERINA SISTEMA TRANSDERMICO 10 M,Consulta Prévia,Aquisição de bens móveis,"33690000-3, Medicamentos vários","Centro Hospitalar Universitário de Lisboa Norte, E. P. E. (508481287)",SPCARE (508284872),"181,28 €",04-02-2019,19-12-2018,1 dias,"Portugal, Lisboa, Lisboa","Artigo 20.º, n.º 1, alínea c) do Código dos Contratos Públicos",,,,,,Não aplicável.,Não aplicável.,FALSE
181000909 - VANCOMICINA SOL INJ EXT 500 MG AMP,Ao abrigo de acordo-quadro (art.º 259.º),Aquisição de bens móveis,"33690000-3, Medicamentos vários","Centro Hospitalar Universitário de Lisboa Norte, E. P. E. (508481287)","LABESFAL - Laboratórios Almiro, S.A (501169580)","4.347,00 €",04-02-2019,08-05-2018,1 dias,"Portugal, Lisboa, Lisboa",Artigo 259.º do Código dos Contratos Públicos,,,,,,2775691,CP 2017/5 - Acordo Quadro para fornecimento de Medicamentos anti-infeciosos: exceto antivíricos e antifúngicos,FALSE
181C000015 ALGINATO DE CALCIO PENSO 5X,Consulta Prévia,Aquisição de bens móveis,"33690000-3, Medicamentos vários","Centro Hospitalar Universitário de Lisboa Norte, E. P. E. (508481287)","CLINIFAR PRODUTOS  CLINICOS E FARMACEUTICOS, SA (503281115)","31,90 €",04-02-2019,08-11-2018,1 dias,"Portugal, Lisboa, Lisboa","Artigo 20.º, n.º 1, alínea c) do Código dos Contratos Públicos",,,,,,Não aplicável.,Não aplicável.,FALSE
181000908 - PROCAÍNA 2% SOL INJ AMP 5 ML,Ao abrigo de acordo-quadro (art.º 259.º),Aquisição de bens móveis,"33690000-3, Medicamentos vários","Centro Hospitalar Universitário de Lisboa Norte, E. P. E. (508481287)","LABESFAL - Laboratórios Almiro, S.A (501169580)","380,00 €",04-02-2019,24-04-2018,1 dias,"Portugal, Lisboa, Lisboa",Artigo 259.º do Código dos Contratos Públicos,,,,,,2545980,CP 2017/61 - Acordo quadro para fornecimento de Medicamentos Diversos   às Instituições e Serviços do Serviço Nacional de Saúde,FALSE
181000907 - SELEGILINA COMP 5 MG,Ao abrigo de acordo-quadro (art.º 259.º),Aquisição de bens móveis,"33690000-3, Medicamentos vários","Centro Hospitalar Universitário de Lisboa Norte, E. P. E. (508481287)","GENERIS - FARMACÊUTICA, S.A. (508107997)","34,20 €",04-02-2019,07-05-2018,1 dias,"Portugal, Lisboa, Lisboa",Artigo 259.º do Código dos Contratos Públicos,,,,,,2528670,"CP 2017/2 - Acordo Quadro para fornecimento de Medicamentos do Sistema Nervoso Cerebrospinal, exceto: anestésicos, relaxantes musculares, analgésicos, antipiréticos, antidepressivos e antipsicóticos  às Instituições e Serviços do Serviço Nacional de Saúde",FALSE
"181000013 ALGINATO DE CALCIO COM PRATA PENSO 2,5 X",Consulta Prévia,Aquisição de bens móveis,"33690000-3, Medicamentos vários","Centro Hospitalar Universitário de Lisboa Norte, E. P. E. (508481287)",LABORATÓRIOS URGO S.L.U (B-83608604),"207,00 €",04-02-2019,04-10-2018,3 dias,"Portugal, Lisboa, Lisboa","Artigo 20.º, n.º 1, alínea c) do Código dos Contratos Públicos",,,,,,Não aplicável.,Não aplicável.,FALSE
181000903 - GLUCOSE SOL INJ 50% FRS 500 ML,Ao abrigo de acordo-quadro (art.º 259.º),Aquisição de bens móveis,"33690000-3, Medicamentos vários","Centro Hospitalar Universitário de Lisboa Norte, E. P. E. (508481287)","LABESFAL - Laboratórios Almiro, S.A (501169580)","4.398,30 €",04-02-2019,20-04-2018,1 dias,"Portugal, Lisboa, Lisboa",Artigo 259.º do Código dos Contratos Públicos,,,,,,2528675,CP 2017/3 - Acordo Quadro para fornecimento de corretivos da volémia e outras soluções estéreis,FALSE
181000902 - Deflazacorte Comp 6 mg,Ao abrigo de acordo-quadro (art.º 259.º),Aquisição de bens móveis,"33690000-3, Medicamentos vários","Centro Hospitalar Universitário de Lisboa Norte, E. P. E. (508481287)",LAB. MEDINFAR- PROD.FARMACEUT.  SA (500384045),"76,80 €",04-02-2019,10-05-2018,3 dias,"Portugal, Lisboa, Lisboa",Artigo 259.º do Código dos Contratos Públicos,,,,,,1415640,CP 2015/7 - ACORDO QUADRO PARA FORNECIMENTO DE HORMONAS E OUTROS MEDICAMENTOS USADOS NO TRATAMENTO DAS DOENÇAS ENDÓCRINAS ÀS INSTITUIÇÕES E SERVIÇOS DO SERVIÇO NACIONAL DE SAÚDE,FALSE
181000900 - Alginato de Cálcio Pensos 2 cm x 30 cm,Ao abrigo de acordo-quadro (art.º 259.º),Aquisição de bens móveis,"33690000-3, Medicamentos vários","Centro Hospitalar Universitário de Lisboa Norte, E. P. E. (508481287)",MEDICINALIA- CORMEDICA LDA (500684324),"69,60 €",04-02-2019,22-05-2018,2 dias,"Portugal, Lisboa, Lisboa",Artigo 259.º do Código dos Contratos Públicos,,,,,,3592583,CP 2018/10 - Acordo Quadro para fornecimento de Material de Penso de Efeito Terapêutico,FALSE
Aquisição de papel e economato - ref.ª 00304/2018,Ao abrigo de acordo-quadro (art.º 259.º),Aquisição de bens móveis,"30192700-8, Artigos de papelaria","Centro Hospitalar Universitário de Lisboa Norte, E. P. E. (508481287)","Staples Portugal, SA (503789372)","116.821,50 €",01-02-2019,01-02-2019,334 dias,"Portugal, Lisboa, Lisboa",Artigo 259.º do Código dos Contratos Públicos,,,,,,1351201,Acordo quadro de fornecimento de papel e economato,FALSE
181000899 - OXAZEPAM COMP 15 MG,Ao abrigo de acordo-quadro (art.º 259.º),Aquisição de bens móveis,"33690000-3, Medicamentos vários","Centro Hospitalar Universitário de Lisboa Norte, E. P. E. (508481287)","MYLAN, LDA (502248793)","105,00 €",01-02-2019,25-05-2018,1 dias,"Portugal, Lisboa, Lisboa",Artigo 259.º do Código dos Contratos Públicos,,,,,,2528670,"CP 2017/2 - Acordo Quadro para fornecimento de Medicamentos do Sistema Nervoso Cerebrospinal, exceto: anestésicos, relaxantes musculares, analgésicos, antipiréticos, antidepressivos e antipsicóticos  às Instituições e Serviços do Serviço Nacional de Saúde",FALSE
181000898 - CLOTRIMAZOL COMP VAGINAL 100 MG,Ao abrigo de acordo-quadro (art.º 259.º),Aquisição de bens móveis,"33690000-3, Medicamentos vários","Centro Hospitalar Universitário de Lisboa Norte, E. P. E. (508481287)","DLA - Farmacêutica, S.A. (503894427)","34,50 €",01-02-2019,02-05-2018,1 dias,"Portugal, Lisboa, Lisboa",Artigo 259.º do Código dos Contratos Públicos,,,,,,3016206,"CP 2017/48 - Acordo Quadro para fornecimento de Medicamentos do aparelho geniturinário, às Instituições e Serviços do Serviço Nacional de Saúde",FALSE
181000897 - EXEMESTANO COMP  25 MG,Ao abrigo de acordo-quadro (art.º 259.º),Aquisição de bens móveis,"33690000-3, Medicamentos vários","Centro Hospitalar Universitário de Lisboa Norte, E. P. E. (508481287)","LAB. PFIZER, LDA (500162166)","718,70 €",01-02-2019,27-04-2018,1 dias,"Portugal, Lisboa, Lisboa",Artigo 259.º do Código dos Contratos Públicos,,,,,,1771819,CP 2015/6 - Acordo quadro para o fornecimento de Medicamentos do Foro Oncológico,FALSE
181000896 - CEFTRIAXONE SOL INJ  IV 1 G FRS/AMP,Ao abrigo de acordo-quadro (art.º 259.º),Aquisição de bens móveis,"33690000-3, Medicamentos vários","Centro Hospitalar Universitário de Lisboa Norte, E. P. E. (508481287)","HIKMA Farmacêutica (Portugal), S.A. (502266791)","3.105,00 €",01-02-2019,02-05-2018,1 dias,"Portugal, Lisboa, Lisboa",Artigo 259.º do Código dos Contratos Públicos,,,,,,2775691,CP 2017/5 - Acordo Quadro para fornecimento de Medicamentos anti-infeciosos: exceto antivíricos e antifúngicos,FALSE
"181000895 - TANSULOSINA CAPS 0,4 MG",Ao abrigo de acordo-quadro (art.º 259.º),Aquisição de bens móveis,"33690000-3, Medicamentos vários","Centro Hospitalar Universitário de Lisboa Norte, E. P. E. (508481287)","TECNIMEDE, SOC TECNICO-MED, SA (500626413)","264,60 €",01-02-2019,08-05-2018,1 dias,"Portugal, Lisboa, Lisboa",Artigo 259.º do Código dos Contratos Públicos,,,,,,3016206,"CP 2017/48 - Acordo Quadro para fornecimento de Medicamentos do aparelho geniturinário, às Instituições e Serviços do Serviço Nacional de Saúde",FALSE
Aquisição de medicamentos para o sistema nervoso cerebrosespinal,Ao abrigo de acordo-quadro (art.º 259.º),Aquisição de bens móveis,"33661000-1, Medicamentos para o sistema nervoso","Centro Hospitalar Universitário de Lisboa Norte, E. P. E. (508481287)","Sanofi, Lda.  (500134960)","93,48 €",01-02-2019,01-02-2019,334 dias,"Portugal, Lisboa, Lisboa",Artigo 259.º do Código dos Contratos Públicos,,,,,,2528670,"CP 2017/2 - Acordo Quadro para fornecimento de Medicamentos do Sistema Nervoso Cerebrospinal, exceto: anestésicos, relaxantes musculares, analgésicos, antipiréticos, antidepressivos e antipsicóticos  às Instituições e Serviços do Serviço Nacional de Saúde",FALSE
Aquisição de medicamentos para o sistema cerebrosespinal,Ao abrigo de acordo-quadro (art.º 259.º),Aquisição de bens móveis,"33661000-1, Medicamentos para o sistema nervoso","Centro Hospitalar Universitário de Lisboa Norte, E. P. E. (508481287)","Mylan, Lda. (502248793)","819,36 €",01-02-2019,01-02-2019,334 dias,"Portugal, Lisboa, Lisboa",Artigo 259.º do Código dos Contratos Públicos,,,,,,2528670,"CP 2017/2 - Acordo Quadro para fornecimento de Medicamentos do Sistema Nervoso Cerebrospinal, exceto: anestésicos, relaxantes musculares, analgésicos, antipiréticos, antidepressivos e antipsicóticos  às Instituições e Serviços do Serviço Nacional de Saúde",FALSE
Aquisição de medicamentos para o sistema nervoso cerebroespinal,Ao abrigo de acordo-quadro (art.º 259.º),Aquisição de bens móveis,"33661000-1, Medicamentos para o sistema nervoso","Centro Hospitalar Universitário de Lisboa Norte, E. P. E. (508481287)","Labesfal, SA (501169580)","9.718,90 €",01-02-2019,01-02-2019,334 dias,"Portugal, Lisboa, Lisboa",Artigo 259.º do Código dos Contratos Públicos,,,,,,2528670,"CP 2017/2 - Acordo Quadro para fornecimento de Medicamentos do Sistema Nervoso Cerebrospinal, exceto: anestésicos, relaxantes musculares, analgésicos, antipiréticos, antidepressivos e antipsicóticos  às Instituições e Serviços do Serviço Nacional de Saúde",FALSE
Aquisição de medicamentos para o sistema cerebrosepinal,Ao abrigo de acordo-quadro (art.º 259.º),Aquisição de bens móveis,"33661000-1, Medicamentos para o sistema nervoso","Centro Hospitalar Universitário de Lisboa Norte, E. P. E. (508481287)","Overpharma, Lda. (505792362)","71,90 €",01-02-2019,01-02-2019,334 dias,"Portugal, Lisboa, Lisboa",Artigo 259.º do Código dos Contratos Públicos,,,,,,2528670,"CP 2017/2 - Acordo Quadro para fornecimento de Medicamentos do Sistema Nervoso Cerebrospinal, exceto: anestésicos, relaxantes musculares, analgésicos, antipiréticos, antidepressivos e antipsicóticos  às Instituições e Serviços do Serviço Nacional de Saúde",FALSE
Aquisição de medicamentos sistema nervoso cerebroespinal,Ao abrigo de acordo-quadro (art.º 259.º),Aquisição de bens móveis,"33661000-1, Medicamentos para o sistema nervoso","Centro Hospitalar Universitário de Lisboa Norte, E. P. E. (508481287)","Generis, SA (508107997)","684,24 €",01-02-2019,01-02-2019,334 dias,"Portugal, Lisboa, Lisboa",Artigo 259.º do Código dos Contratos Públicos,,,,,,2528670,"CP 2017/2 - Acordo Quadro para fornecimento de Medicamentos do Sistema Nervoso Cerebrospinal, exceto: anestésicos, relaxantes musculares, analgésicos, antipiréticos, antidepressivos e antipsicóticos  às Instituições e Serviços do Serviço Nacional de Saúde",FALSE
181000894 - RANITIDINA COMP 150 MG,Ao abrigo de acordo-quadro (art.º 259.º),Aquisição de bens móveis,"33690000-3, Medicamentos vários","Centro Hospitalar Universitário de Lisboa Norte, E. P. E. (508481287)","GENERIS - FARMACÊUTICA, S.A. (508107997)","111,78 €",01-02-2019,27-04-2018,1 dias,"Portugal, Lisboa, Lisboa",Artigo 259.º do Código dos Contratos Públicos,,,,,,2222779,Medicamentos do aparelho digestivo,FALSE
Aquisição de medicamentos para o sistema nervoso,Ao abrigo de acordo-quadro (art.º 259.º),Aquisição de bens móveis,"33661000-1, Medicamentos para o sistema nervoso","Centro Hospitalar Universitário de Lisboa Norte, E. P. E. (508481287)","Novartis Farma, SA (500063524)","22,77 €",01-02-2019,01-02-2019,334 dias,"Portugal, Lisboa, Lisboa",Artigo 259.º do Código dos Contratos Públicos,,,,,,2528670,"CP 2017/2 - Acordo Quadro para fornecimento de Medicamentos do Sistema Nervoso Cerebrospinal, exceto: anestésicos, relaxantes musculares, analgésicos, antipiréticos, antidepressivos e antipsicóticos  às Instituições e Serviços do Serviço Nacional de Saúde",FALSE
"181000893 - IOXITALAMATO SOL ORAL/RECTAL 660,3 MG/ML ",Ao abrigo de acordo-quadro (art.º 259.º),Aquisição de bens móveis,"33690000-3, Medicamentos vários","Centro Hospitalar Universitário de Lisboa Norte, E. P. E. (508481287)","A. MARTINS & FERNANDES, SA (501172114)","2.700,00 €",01-02-2019,27-04-2018,2 dias,"Portugal, Lisboa, Lisboa",Artigo 259.º do Código dos Contratos Públicos,,,,,,1473614,CP 2015/56 - Acordo quadro para fornecimento de medicamentos usados como meios de diagnóstico em Imagiologia às Instituições e Serviços do Serviço Nacional de Saúde,FALSE
181000892 - AGUA DESTILADA SOL P/ INJ FR 100 ML,Ao abrigo de acordo-quadro (art.º 259.º),Aquisição de bens móveis,"33690000-3, Medicamentos vários","Centro Hospitalar Universitário de Lisboa Norte, E. P. E. (508481287)","LABESFAL - Laboratórios Almiro, S.A (501169580)","4.063,50 €",01-02-2019,07-05-2018,1 dias,"Portugal, Lisboa, Lisboa",Artigo 259.º do Código dos Contratos Públicos,,,,,,2528675,CP 2017/3 - Acordo Quadro para fornecimento de corretivos da volémia e outras soluções estéreis,FALSE
181000891 - CIPROFLOXACINA SOL INJ EXT 200 MG AMP,Ao abrigo de acordo-quadro (art.º 259.º),Aquisição de bens móveis,"33690000-3, Medicamentos vários","Centro Hospitalar Universitário de Lisboa Norte, E. P. E. (508481287)","LABESFAL - Laboratórios Almiro, S.A (501169580)","4.035,00 €",01-02-2019,08-05-2018,1 dias,"Portugal, Lisboa, Lisboa",Artigo 259.º do Código dos Contratos Públicos,,,,,,2775691,CP 2017/5 - Acordo Quadro para fornecimento de Medicamentos anti-infeciosos: exceto antivíricos e antifúngicos,FALSE
181000890 - Tenofovir 245 mg Comp,Ao abrigo de acordo-quadro (art.º 259.º),Aquisição de bens móveis,"33690000-3, Medicamentos vários","Centro Hospitalar Universitário de Lisboa Norte, E. P. E. (508481287)",TEVA PHARMA  - PROD. FARMACÊUTICOS (507045491),"9.684,00 €",01-02-2019,14-05-2018,1 dias,"Portugal, Lisboa, Lisboa",Artigo 259.º do Código dos Contratos Públicos,,,,,,2556987,"CP 2017/65 - Acordo Quadro para fornecimento de Medicamentos de Várias áreas Terapêuticas, às Instituições e Serviços do Serviço Nacional de Saúde",FALSE
181000889 - Sildenafil Comp 25 mg,Ao abrigo de acordo-quadro (art.º 259.º),Aquisição de bens móveis,"33690000-3, Medicamentos vários","Centro Hospitalar Universitário de Lisboa Norte, E. P. E. (508481287)","RATIOPHARM- COM.IND.PROD.FARMAC., L (502414910)","3.852,00 €",01-02-2019,25-05-2018,1 dias,"Portugal, Lisboa, Lisboa",Artigo 259.º do Código dos Contratos Públicos,,,,,,3016206,"CP 2017/48 - Acordo Quadro para fornecimento de Medicamentos do aparelho geniturinário, às Instituições e Serviços do Serviço Nacional de Saúde",FALSE
181000888 - Daratumumab 400 mg/20 ml,Ao abrigo de acordo-quadro (art.º 259.º),Aquisição de bens móveis,"33690000-3, Medicamentos vários","Centro Hospitalar Universitário de Lisboa Norte, E. P. E. (508481287)",JANSSEN-CILAG FARMACEUTICA LDA (500189412),"65.377,24 €",01-02-2019,23-05-2018,2 dias,"Portugal, Lisboa, Lisboa",Artigo 259.º do Código dos Contratos Públicos,,,,,,2556987,"CP 2017/65 - Acordo Quadro para fornecimento de Medicamentos de Várias áreas Terapêuticas, às Instituições e Serviços do Serviço Nacional de Saúde",FALSE
181000887 - Albumina Humana Sol Inj 5% Frs 250 ml,Ao abrigo de acordo-quadro (art.º 259.º),Aquisição de bens móveis,"33690000-3, Medicamentos vários","Centro Hospitalar Universitário de Lisboa Norte, E. P. E. (508481287)","CSL BEHRING, LDA. (503047201)","3.942,40 €",01-02-2019,18-05-2018,1 dias,"Portugal, Lisboa, Lisboa",Artigo 259.º do Código dos Contratos Públicos,,,,,,2800702,CP 2017/9 - Acordo quadro para fornecimento de Derivados do Plasma Humano às Instituições e Serviços do Serviço Nacional de Saúde,FALSE
181000886 - AGALSIDASE BETA 5 MG SOL INJ,Ao abrigo de acordo-quadro (art.º 259.º),Aquisição de bens móveis,"33690000-3, Medicamentos vários","Centro Hospitalar Universitário de Lisboa Norte, E. P. E. (508481287)",SANOFI - PRODUTOS FARMACÊUTICOS (500134960),"4.558,56 €",01-02-2019,07-05-2018,1 dias,"Portugal, Lisboa, Lisboa",Artigo 259.º do Código dos Contratos Públicos,,,,,,2658382,CP 2017/58 - Acordo Quadro para fornecimento de Medicamentos para Doenças Lisossomais de Sobrecarga às Instituições e Serviços do Serviço Nacional de Saúde,FALSE
181000884 - Interferão Beta 1 B Sol Inj 8.000.000,Ao abrigo de acordo-quadro (art.º 259.º),Aquisição de bens móveis,"33690000-3, Medicamentos vários","Centro Hospitalar Universitário de Lisboa Norte, E. P. E. (508481287)","BAYER PORTUGAL, LDA (500043256)","15.000,00 €",31-01-2019,19-04-2018,1 dias,"Portugal, Lisboa, Lisboa",Artigo 259.º do Código dos Contratos Públicos,,,,,,1771819,CP 2015/6 - Acordo quadro para o fornecimento de Medicamentos do Foro Oncológico,FALSE
"CP n.º 194A000001 - Aquisição de roupa hospitalar de doentes pelo CHULN, E.P.E., durante o ano de 2019",Concurso público,Aquisição de bens móveis,"39518000-6, Roupa para uso hospitalar","Centro Hospitalar Universitário de Lisboa Norte, E. P. E. (508481287)","Latino - Confecções, Lda (501642277)","25.300,00 €",31-01-2019,02-01-2019,365 dias,"Portugal, Lisboa, Lisboa","Artigo 20.º, n.º 1, alínea b) do Código dos Contratos Públicos",,,,,,Não aplicável.,Não aplicável.,FALSE
181000883 - CLOPIDOGREL COMP 75 MG,Ao abrigo de acordo-quadro (art.º 259.º),Aquisição de bens móveis,"33690000-3, Medicamentos vários","Centro Hospitalar Universitário de Lisboa Norte, E. P. E. (508481287)","GENERIS - FARMACÊUTICA, S.A. (508107997)","477,12 €",31-01-2019,07-05-2018,1 dias,"Portugal, Lisboa, Lisboa",Artigo 259.º do Código dos Contratos Públicos,,,,,,2489595,CP 2016/18 - Acordo quadro para fornecimento de Medicamentos do Grupo 4: Sangue às Instituições e Serviços do Serviço Nacional de Saúde,FALSE
181000882 - TIZANIDINA CAPS AP 6 MG,Ao abrigo de acordo-quadro (art.º 259.º),Aquisição de bens móveis,"33690000-3, Medicamentos vários","Centro Hospitalar Universitário de Lisboa Norte, E. P. E. (508481287)","SANDOZ FARMACEUTICA, LDA (506985261)","53,99 €",31-01-2019,20-04-2018,1 dias,"Portugal, Lisboa, Lisboa",Artigo 259.º do Código dos Contratos Públicos,,,,,,2545980,CP 2017/61 - Acordo quadro para fornecimento de Medicamentos Diversos   às Instituições e Serviços do Serviço Nacional de Saúde,FALSE
"181000881 - CLORETO DE SODIO 0,9% SOL INJ AMP 20 ML",Ao abrigo de acordo-quadro (art.º 259.º),Aquisição de bens móveis,"33690000-3, Medicamentos vários","Centro Hospitalar Universitário de Lisboa Norte, E. P. E. (508481287)","OVERPHARMA, LDA (505792362)","200,00 €",31-01-2019,03-05-2018,1 dias,"Portugal, Lisboa, Lisboa",Artigo 259.º do Código dos Contratos Públicos,,,,,,2528675,CP 2017/3 - Acordo Quadro para fornecimento de corretivos da volémia e outras soluções estéreis,FALSE
181000877 - CRIZOTINIB 200 MG CAPS,Ao abrigo de acordo-quadro (art.º 259.º),Aquisição de bens móveis,"33690000-3, Medicamentos vários","Centro Hospitalar Universitário de Lisboa Norte, E. P. E. (508481287)","PFIZER BIOFARMACEUTICA, LDA (513300376)","14.178,02 €",31-01-2019,24-04-2018,2 dias,"Portugal, Lisboa, Lisboa",Artigo 259.º do Código dos Contratos Públicos,,,,,,1771819,CP 2015/6 - Acordo quadro para o fornecimento de Medicamentos do Foro Oncológico,FALSE
Aquisição de arrastadeiras e urinois (SPMS 2016/86),Ao abrigo de acordo-quadro (art.º 259.º),Aquisição de bens móveis,"33700000-7, Produtos para cuidados pessoais","Centro Hospitalar Universitário de Lisboa Norte, E. P. E. (508481287)","EZEQUIEL PANAO JORGE, LDA (501412727)","810,10 €",31-01-2019,31-01-2019,2 dias,Portugal,Artigo 259.º do Código dos Contratos Públicos,,,,,,2349400,Acordo quadro para o fornecimento de Dispositivos para evacuação e para banho.,FALSE
181000876 - Alfa 1 Antitripsina 1000 mg Inj,Ao abrigo de acordo-quadro (art.º 259.º),Aquisição de bens móveis,"33690000-3, Medicamentos vários","Centro Hospitalar Universitário de Lisboa Norte, E. P. E. (508481287)","GRIFOLS PORTUGAL- PROD.FARM.HOSP., (502041285)","53.900,00 €",31-01-2019,03-05-2018,1 dias,"Portugal, Lisboa, Lisboa",Artigo 259.º do Código dos Contratos Públicos,,,,,,2800702,CP 2017/9 - Acordo quadro para fornecimento de Derivados do Plasma Humano às Instituições e Serviços do Serviço Nacional de Saúde,FALSE
181000875 - Albumina Humana Sol Inj 20% Frs 50 ml,Ao abrigo de acordo-quadro (art.º 259.º),Aquisição de bens móveis,"33690000-3, Medicamentos vários","Centro Hospitalar Universitário de Lisboa Norte, E. P. E. (508481287)","CSL BEHRING, LDA. (503047201)","22.167,60 €",31-01-2019,04-05-2018,1 dias,"Portugal, Lisboa, Lisboa",Artigo 259.º do Código dos Contratos Públicos,,,,,,2800702,CP 2017/9 - Acordo quadro para fornecimento de Derivados do Plasma Humano às Instituições e Serviços do Serviço Nacional de Saúde,FALSE
181000874 - Valproato de Sódio 20% Sol Oral,Ao abrigo de acordo-quadro (art.º 259.º),Aquisição de bens móveis,"33690000-3, Medicamentos vários","Centro Hospitalar Universitário de Lisboa Norte, E. P. E. (508481287)",TECNIFAR-IND.TECN.FARMAC.SA (500280436),"420,00 €",31-01-2019,08-05-2018,1 dias,"Portugal, Lisboa, Lisboa",Artigo 259.º do Código dos Contratos Públicos,,,,,,2528670,"CP 2017/2 - Acordo Quadro para fornecimento de Medicamentos do Sistema Nervoso Cerebrospinal, exceto: anestésicos, relaxantes musculares, analgésicos, antipiréticos, antidepressivos e antipsicóticos  às Instituições e Serviços do Serviço Nacional de Saúde",FALSE
"181000872 - SUFENTANILO SOL INJ 0,005 MG/ML AMP 2 ML",Ao abrigo de acordo-quadro (art.º 259.º),Aquisição de bens móveis,"33690000-3, Medicamentos vários","Centro Hospitalar Universitário de Lisboa Norte, E. P. E. (508481287)","HIKMA Farmacêutica (Portugal), S.A. (502266791)","1.956,00 €",31-01-2019,30-04-2018,1 dias,"Portugal, Lisboa, Lisboa",Artigo 259.º do Código dos Contratos Públicos,,,,,,1974985,"Medicamentos Analgésicos, Antipiréticos e Antidepressivos",FALSE
"181000871 - GADOBUTROL INJ. 604,72 MG/ML  FRASCOS 15",Ao abrigo de acordo-quadro (art.º 259.º),Aquisição de bens móveis,"33690000-3, Medicamentos vários","Centro Hospitalar Universitário de Lisboa Norte, E. P. E. (508481287)","BAYER PORTUGAL, LDA (500043256)","18.360,00 €",31-01-2019,24-04-2018,1 dias,"Portugal, Lisboa, Lisboa",Artigo 259.º do Código dos Contratos Públicos,,,,,,1473614,CP 2015/56 - Acordo quadro para fornecimento de medicamentos usados como meios de diagnóstico em Imagiologia às Instituições e Serviços do Serviço Nacional de Saúde,FALSE
"181000870 - IOMEPROL SOL INJ 714,4 MG/ML FR 500 ML",Ao abrigo de acordo-quadro (art.º 259.º),Aquisição de bens móveis,"33690000-3, Medicamentos vários","Centro Hospitalar Universitário de Lisboa Norte, E. P. E. (508481287)","LAB. FARMACEUTICOS ROVI, SA (980166705)","5.202,40 €",31-01-2019,24-04-2018,2 dias,"Portugal, Lisboa, Lisboa",Artigo 259.º do Código dos Contratos Públicos,,,,,,1473614,CP 2015/56 - Acordo quadro para fornecimento de medicamentos usados como meios de diagnóstico em Imagiologia às Instituições e Serviços do Serviço Nacional de Saúde,FALSE
181000869 - IOMEPROL SOL INJ 400 MG I/ML FR 100 ML,Ao abrigo de acordo-quadro (art.º 259.º),Aquisição de bens móveis,"33690000-3, Medicamentos vários","Centro Hospitalar Universitário de Lisboa Norte, E. P. E. (508481287)","LAB. FARMACEUTICOS ROVI, SA (980166705)","3.627,00 €",31-01-2019,24-04-2018,2 dias,"Portugal, Lisboa, Lisboa",Artigo 259.º do Código dos Contratos Públicos,,,,,,1473614,CP 2015/56 - Acordo quadro para fornecimento de medicamentos usados como meios de diagnóstico em Imagiologia às Instituições e Serviços do Serviço Nacional de Saúde,FALSE
181000868 - IOPRAMIDA SOL INJ 37% FRS 100 ML,Ao abrigo de acordo-quadro (art.º 259.º),Aquisição de bens móveis,"33690000-3, Medicamentos vários","Centro Hospitalar Universitário de Lisboa Norte, E. P. E. (508481287)","BAYER PORTUGAL, LDA (500043256)","3.604,00 €",31-01-2019,24-04-2018,1 dias,"Portugal, Lisboa, Lisboa",Artigo 259.º do Código dos Contratos Públicos,,,,,,1473614,CP 2015/56 - Acordo quadro para fornecimento de medicamentos usados como meios de diagnóstico em Imagiologia às Instituições e Serviços do Serviço Nacional de Saúde,FALSE
181000867 - SERTRALINA 50 MG COMP,Ao abrigo de acordo-quadro (art.º 259.º),Aquisição de bens móveis,"33690000-3, Medicamentos vários","Centro Hospitalar Universitário de Lisboa Norte, E. P. E. (508481287)","SANDOZ FARMACEUTICA, LDA (506985261)","175,82 €",31-01-2019,16-04-2018,1 dias,"Portugal, Lisboa, Lisboa",Artigo 259.º do Código dos Contratos Públicos,,,,,,1974985,"Medicamentos Analgésicos, Antipiréticos e Antidepressivos",FALSE
181000866 - RAMIPRIL 5 MG CAPS,Ao abrigo de acordo-quadro (art.º 259.º),Aquisição de bens móveis,"33690000-3, Medicamentos vários","Centro Hospitalar Universitário de Lisboa Norte, E. P. E. (508481287)","SANDOZ FARMACEUTICA, LDA (506985261)","50,23 €",31-01-2019,24-04-2018,1 dias,"Portugal, Lisboa, Lisboa",Artigo 259.º do Código dos Contratos Públicos,,,,,,2335591,CP 2016/01 - Acordo Quadro para fornecimento de Medicamentos do Aparelho Cardiovascular   às Instituições e Serviços do Serviço Nacional de Saúde,FALSE
"181000864 - Terbutalina Turbohaler 0,5 mg/dose (100 doses)",Ao abrigo de acordo-quadro (art.º 259.º),Aquisição de bens móveis,"33690000-3, Medicamentos vários","Centro Hospitalar Universitário de Lisboa Norte, E. P. E. (508481287)",ASTRAZENECA- PROD.FARM LDA (502942240),"13,24 €",31-01-2019,07-05-2018,3 dias,"Portugal, Lisboa, Lisboa",Artigo 259.º do Código dos Contratos Públicos,,,,,,1638654,CP 2015/12 - Acordo quadro para fornecimento de Medicamentos do Aparelho Respiratório às Instituições e Serviços do Serviço Nacional de Saúde,FALSE
181000863 - METOCLOPRAMIDA SOL INJ 5 MG/ML AMP 2 ML,Ao abrigo de acordo-quadro (art.º 259.º),Aquisição de bens móveis,"33690000-3, Medicamentos vários","Centro Hospitalar Universitário de Lisboa Norte, E. P. E. (508481287)","LABESFAL - Laboratórios Almiro, S.A (501169580)","3.212,82 €",31-01-2019,27-04-2018,1 dias,"Portugal, Lisboa, Lisboa",Artigo 259.º do Código dos Contratos Públicos,,,,,,2528670,"CP 2017/2 - Acordo Quadro para fornecimento de Medicamentos do Sistema Nervoso Cerebrospinal, exceto: anestésicos, relaxantes musculares, analgésicos, antipiréticos, antidepressivos e antipsicóticos  às Instituições e Serviços do Serviço Nacional de Saúde",FALSE
