Objeto do Contrato,Tipo de Procedimento,Tipo(s) de Contrato,CPVs,Entidade(s) Adjudicante(s),Entidade(s) Adjudicatária(s),Preço Contratual,Data de Publicação,Data de Celebração do Contrato,Prazo de Execução,Local de Execução,Fundamentação,Data de Fecho do Contrato,Preço Total Efetivo,Causas das Alterações ao Prazo,Causas das Alterações ao Preço,Estado,N.º registo do Acordo Quadro,Descrição do Acordo Quadro,Procedimento Centralizado
Aquisição de material cirúrgico para especialidade de gastroenterologia e pneumologia de acordo com CE,Ajuste Direto Regime Geral,Aquisição de bens móveis,"33140000-3, Material médico de consumo","Centro Hospitalar Póvoa de Varzim/Vila do Conde, EPE (508741823)","BIOSONDA - COMERCIO MAT. HOSPITALAR, LDA (501463313)","2.700,00 €",14-09-2017,08-08-2017,125 dias,"Portugal, Porto, Póvoa de Varzim","Artigo 20.º, n.º 1, alínea a) do Código dos Contratos Públicos",,,,,,Não aplicável.,Não aplicável.,FALSE
Aquisição de material Cirúrgico para especialidade de gastroenterologia e pneumologia,Ajuste Direto Regime Geral,Aquisição de bens móveis,"33140000-3, Material médico de consumo","Centro Hospitalar Póvoa de Varzim/Vila do Conde, EPE (508741823)","ALVES & C.ª (IRMÃOS), LDA. (500310068)","3.500,00 €",14-09-2017,08-08-2017,125 dias,"Portugal, Porto, Póvoa de Varzim","Artigo 20.º, n.º 1, alínea a) do Código dos Contratos Públicos",,,,,,Não aplicável.,Não aplicável.,FALSE
"Aquisição de material cirúrgico para especialidade de gastroenterologia e  pneumologia, de acordo com CE",Ajuste Direto Regime Geral,Aquisição de bens móveis,"33140000-3, Material médico de consumo","Centro Hospitalar Póvoa de Varzim/Vila do Conde, EPE (508741823)",Olympus Iberia SAU - Sucursal em Portugal (980474710),"11.302,53 €",14-09-2017,29-08-2017,125 dias,"Portugal, Porto, Póvoa de Varzim","Artigo 20.º, n.º 1, alínea a) do Código dos Contratos Públicos",,,,,,Não aplicável.,Não aplicável.,FALSE
