Objeto do Contrato,Tipo de Procedimento,Tipo(s) de Contrato,CPVs,Entidade(s) Adjudicante(s),Entidade(s) Adjudicatária(s),Preço Contratual,Data de Publicação,Data de Celebração do Contrato,Prazo de Execução,Local de Execução,Fundamentação,Data de Fecho do Contrato,Preço Total Efetivo,Causas das Alterações ao Prazo,Causas das Alterações ao Preço,Estado,N.º registo do Acordo Quadro,Descrição do Acordo Quadro,Procedimento Centralizado
REAGENTES DEVERSOS PARA A UAAAS - ESTIMATIVAS PARA 2015 - FORNECEDOR EXCLUSIVO HACH-LANGE,Ajuste Direto Regime Geral,Aquisição de bens móveis,"33696000-5, Reagentes e meios de contraste","Administração Regional de Saúde de Lisboa e Vale do Tejo, I. P. (503148776)","Hach Lange - Controle e Análise de Águas, Unipessoal Lda. (507155165)","15.553,71 €",28-05-2015,13-05-2015,232 dias,"Portugal, Lisboa, Lisboa","Artigo 24.º, n.º 1, alínea e) do Código dos Contratos Públicos",,,,,,Não aplicável.,Não aplicável.,FALSE
PENSO ADESIVO,Ajuste Direto Regime Geral,Aquisição de bens móveis,"33140000-3, Material médico de consumo","Administração Regional de Saúde de Lisboa e Vale do Tejo, I. P. (503148776)","Overpharma - Produtos Médicos e Farmacêuticos, Lda. (505792362)","4.482,00 €",28-05-2015,27-05-2015,2 dias,"Portugal, Lisboa, Lisboa","Artigo 26.º, n.º 1, alínea e) do Código dos Contratos Públicos",,,,,,Não aplicável.,Não aplicável.,FALSE
PENSO ADESIVO,Ajuste Direto Regime Geral,Aquisição de bens móveis,"33140000-3, Material médico de consumo","Administração Regional de Saúde de Lisboa e Vale do Tejo, I. P. (503148776)","Molnlycke Health Care - Comercialização de Produtos Hospitalares, Lda. (511101066)","9.000,00 €",28-05-2015,27-05-2015,3 dias,"Portugal, Lisboa, Lisboa","Artigo 26.º, n.º 1, alínea e) do Código dos Contratos Públicos",,,,,,Não aplicável.,Não aplicável.,FALSE
PENSO ADESIVO,Ajuste Direto Regime Geral,Aquisição de bens móveis,"33140000-3, Material médico de consumo","Administração Regional de Saúde de Lisboa e Vale do Tejo, I. P. (503148776)","Molnlycke Health Care - Comercialização de Produtos Hospitalares, Lda. (511101066)","22.500,00 €",28-05-2015,27-05-2015,3 dias,"Portugal, Lisboa, Lisboa","Artigo 26.º, n.º 1, alínea e) do Código dos Contratos Públicos",,,,,,Não aplicável.,Não aplicável.,FALSE
TERMÓMETRO DIGITAL CLÍNICO E CAPAS,Ajuste Direto Regime Geral,Aquisição de bens móveis,"33140000-3, Material médico de consumo","Administração Regional de Saúde de Lisboa e Vale do Tejo, I. P. (503148776)","Factormed - Comércio e Distribuição Produtos Médicos, Lda. (506986918)","5.250,00 €",28-05-2015,27-05-2015,10 dias,"Portugal, Lisboa, Lisboa","Artigo 20.º, n.º 1, alínea a) do Código dos Contratos Públicos",,,,,,Não aplicável.,Não aplicável.,FALSE
OXIMETRO E TERMÓMETROS,Ajuste Direto Regime Geral,Aquisição de bens móveis,"33000000-0, Equipamento médico, medicamentos e produtos para cuidados pessoais","Administração Regional de Saúde de Lisboa e Vale do Tejo, I. P. (503148776)","M. I. MEDICAL IMPORT - PRODUTOS MÉDICO-HOSPITALARES, LDA (506662055)","180,00 €",28-05-2015,20-05-2015,5 dias,"Portugal, Lisboa, Loures","Artigo 20.º, n.º 1, alínea a) do Código dos Contratos Públicos",,,,,,Não aplicável.,Não aplicável.,FALSE
VINHETAS,Ajuste Direto Regime Geral,Aquisição de bens móveis,"22000000-0, Material impresso e afins","Administração Regional de Saúde de Lisboa e Vale do Tejo, I. P. (503148776)",IMPRENSA NACIONAL CASA DA MOEDA (500792887),"370,00 €",28-05-2015,26-05-2015,10 dias,"Portugal, Lisboa, Loures","Artigo 24.º, n.º 1, alínea e) do Código dos Contratos Públicos",,,,,,Não aplicável.,Não aplicável.,FALSE
VINHETAS,Ajuste Direto Regime Geral,Aquisição de bens móveis,"22000000-0, Material impresso e afins","Administração Regional de Saúde de Lisboa e Vale do Tejo, I. P. (503148776)",IMPRENSA NACIONAL CASA DA MOEDA (500792887),"558,00 €",28-05-2015,05-05-2015,5 dias,"Portugal, Lisboa, Loures","Artigo 24.º, n.º 1, alínea e) do Código dos Contratos Públicos",,,,,,Não aplicável.,Não aplicável.,FALSE
ETIQUETAS PLÁSTICAS P/CHAVES - ACREDITAÇÃO DA USF ARS MÉDICA,Ajuste Direto Regime Geral,Aquisição de bens móveis,"30000000-9, Máquinas, equipamento e material de escritório e de informática, excepto mobiliário e pacotes de programas (software)","Administração Regional de Saúde de Lisboa e Vale do Tejo, I. P. (503148776)",A UM - EQUIPAMENTO MAT. ESCRITÓRIO (502129425),"14,00 €",28-05-2015,11-05-2015,5 dias,"Portugal, Lisboa, Loures","Artigo 20.º, n.º 1, alínea a) do Código dos Contratos Públicos",,,,,,Não aplicável.,Não aplicável.,FALSE
UTENSÍLIOS DE DESGASTE RÁPIDO,Ajuste Direto Regime Geral,Aquisição de bens móveis,"18000000-9, Vestuário, calçado, malas e artigos de viagem, acessórios","Administração Regional de Saúde de Lisboa e Vale do Tejo, I. P. (503148776)","RISQUINHA, LDA (503649805)","44,46 €",28-05-2015,18-05-2015,5 dias,"Portugal, Lisboa, Loures","Artigo 20.º, n.º 1, alínea a) do Código dos Contratos Públicos",,,,,,Não aplicável.,Não aplicável.,FALSE
REPARAÇÃO MÁQUINA DE ÁGUA,Ajuste Direto Regime Geral,Aquisição de serviços,"50000000-5, Serviços de reparação e manutenção","Administração Regional de Saúde de Lisboa e Vale do Tejo, I. P. (503148776)","SADOMAGIC - COM.DIST.ELECT.UNIPESSOAL, LDA (505135655)","22,00 €",28-05-2015,29-04-2015,5 dias,"Portugal, Lisboa, Loures","Artigo 20.º, n.º 1, alínea a) do Código dos Contratos Públicos",,,,,,Não aplicável.,Não aplicável.,FALSE
REPARAÇÃO DE MÁQUINA DE ÁGUA,Ajuste Direto Regime Geral,Aquisição de serviços,"50000000-5, Serviços de reparação e manutenção","Administração Regional de Saúde de Lisboa e Vale do Tejo, I. P. (503148776)","SADOMAGIC - COM.DIST. ELECT. UNIPESSOAL, LDA (505135655)","22,00 €",28-05-2015,28-04-2015,5 dias,"Portugal, Lisboa, Loures","Artigo 20.º, n.º 1, alínea a) do Código dos Contratos Públicos",,,,,,Não aplicável.,Não aplicável.,FALSE
MATERIAL DE ESCRITÓRIO,Ajuste Direto Regime Geral,Aquisição de bens móveis,"30000000-9, Máquinas, equipamento e material de escritório e de informática, excepto mobiliário e pacotes de programas (software)","Administração Regional de Saúde de Lisboa e Vale do Tejo, I. P. (503148776)",A UM - EQUIPAMENTO MATERIAL DE ESCRITÓRIO (502129425),"58,24 €",28-05-2015,29-04-2015,10 dias,"Portugal, Lisboa, Loures","Artigo 20.º, n.º 1, alínea a) do Código dos Contratos Públicos",,,,,,Não aplicável.,Não aplicável.,FALSE
CAIXAS C/GAVETAS 310X180X120,Ajuste Direto Regime Geral,Aquisição de bens móveis,"30000000-9, Máquinas, equipamento e material de escritório e de informática, excepto mobiliário e pacotes de programas (software)","Administração Regional de Saúde de Lisboa e Vale do Tejo, I. P. (503148776)",A UM - EQUIPAMENTO DE ESCRITÓRIO (502129425),"701,80 €",28-05-2015,18-05-2015,10 dias,"Portugal, Lisboa, Loures","Artigo 20.º, n.º 1, alínea a) do Código dos Contratos Públicos",,,,,,Não aplicável.,Não aplicável.,FALSE
FORNECIMENTO E MONTAGEM DE UM SEGREDO ELECTRÓNICO EM COFRE,Ajuste Direto Regime Geral,Aquisição de serviços,"50000000-5, Serviços de reparação e manutenção","Administração Regional de Saúde de Lisboa e Vale do Tejo, I. P. (503148776)","CHAVES DO AREEIRO - SOLUÇÕES E SISTEMAS DE SEGURANÇA, SA (500601534)","459,35 €",28-05-2015,30-04-2015,5 dias,"Portugal, Lisboa, Loures","Artigo 20.º, n.º 1, alínea a) do Código dos Contratos Públicos",,,,,,Não aplicável.,Não aplicável.,FALSE
CHAVEIRO P/50 CHAVES NO ÂMBITO ACREDITAÇÃO USF MAGNÓLIA,Ajuste Direto Regime Geral,Aquisição de bens móveis,"30000000-9, Máquinas, equipamento e material de escritório e de informática, excepto mobiliário e pacotes de programas (software)","Administração Regional de Saúde de Lisboa e Vale do Tejo, I. P. (503148776)",A UM - EQUIPAMENTO MATERIAL ESCRITÓRIO (502129425),"19,18 €",28-05-2015,23-04-2015,5 dias,"Portugal, Lisboa, Loures","Artigo 20.º, n.º 1, alínea a) do Código dos Contratos Públicos",,,,,,Não aplicável.,Não aplicável.,FALSE
40 CAIXAS P/ GAB. MÉDICOS NO ÂMBITO DA ACREDITAÇÃO DA USF MAGNÓLIA,Ajuste Direto Regime Geral,Aquisição de bens móveis,"34000000-7, Equipamento e produtos auxiliares de transporte","Administração Regional de Saúde de Lisboa e Vale do Tejo, I. P. (503148776)","M. I. MEDICAL IMPORT - PRODUTOS MÉDICO HOSPITALARES, LDA (506662055)","490,00 €",28-05-2015,23-04-2015,10 dias,"Portugal, Lisboa, Loures","Artigo 20.º, n.º 1, alínea a) do Código dos Contratos Públicos",,,,,,Não aplicável.,Não aplicável.,FALSE
PROCESSOS CLÍNICOS,Ajuste Direto Regime Geral,Aquisição de bens móveis,"22000000-0, Material impresso e afins","Administração Regional de Saúde de Lisboa e Vale do Tejo, I. P. (503148776)","ERGOÁREA - MOBILIÁREO ESCRITÓRIO, LDA (506705161)","850,00 €",28-05-2015,24-04-2015,10 dias,"Portugal, Lisboa, Loures","Artigo 20.º, n.º 1, alínea a) do Código dos Contratos Públicos",,,,,,Não aplicável.,Não aplicável.,FALSE
Caixa com Gavetas,Ajuste Direto Regime Geral,Aquisição de bens móveis,"34000000-7, Equipamento e produtos auxiliares de transporte","Administração Regional de Saúde de Lisboa e Vale do Tejo, I. P. (503148776)","ERGOÁREA - MOBILIÁRIO ESCRITÓRIO, LDA (506705161)","40,00 €",28-05-2015,24-04-2015,5 dias,"Portugal, Lisboa, Loures","Artigo 20.º, n.º 1, alínea a) do Código dos Contratos Públicos",,,,,,Não aplicável.,Não aplicável.,FALSE
Carimbos,Ajuste Direto Regime Geral,Aquisição de bens móveis,"22000000-0, Material impresso e afins","Administração Regional de Saúde de Lisboa e Vale do Tejo, I. P. (503148776)",A UM - EQUIPAMENTO MAT. ESCRITÓRIO (502129425),"31,55 €",28-05-2015,23-04-2015,5 dias,"Portugal, Lisboa, Loures","Artigo 20.º, n.º 1, alínea a) do Código dos Contratos Públicos",,,,,,Não aplicável.,Não aplicável.,FALSE
Reparação de Central Telefónica em Moscavide,Ajuste Direto Regime Geral,Aquisição de serviços,"50000000-5, Serviços de reparação e manutenção","Administração Regional de Saúde de Lisboa e Vale do Tejo, I. P. (503148776)","FONOTEL - Comunicações, SA (501397469)","85,50 €",28-05-2015,14-04-2015,10 dias,"Portugal, Lisboa, Loures","Artigo 20.º, n.º 1, alínea a) do Código dos Contratos Públicos",,,,,,Não aplicável.,Não aplicável.,FALSE
Pintura de cofre - Tesouraria,Ajuste Direto Regime Geral,Aquisição de serviços,"50000000-5, Serviços de reparação e manutenção","Administração Regional de Saúde de Lisboa e Vale do Tejo, I. P. (503148776)","CHAVES DO AREEIRO - SOLUÇÕES E SISTEMAS DE SEGURANÇA, SA (500601534)","117,90 €",28-05-2015,13-03-2015,5 dias,"Portugal, Lisboa, Loures","Artigo 20.º, n.º 1, alínea a) do Código dos Contratos Públicos",,,,,,Não aplicável.,Não aplicável.,FALSE
"aos Trabalhos de reparação das infiltrações da USF Oriente, no Centro de Saúde de São João",Ajuste Direto Regime Geral,Empreitadas de obras públicas,"45113000-2, Obras no local","Administração Regional de Saúde de Lisboa e Vale do Tejo, I. P. (503148776)","PRTANGLE - Engenharia e Serviços, Lda (513103988)","4.490,00 €",27-05-2015,27-05-2015,5 dias,"Portugal, Lisboa, Lisboa","Artigo 19.º, alínea a) do Código dos Contratos Públicos",,,,,,Não aplicável.,Não aplicável.,FALSE
"Empreitada de Conservação da Rede de abastecimento de água na USF S. Domingos, no Centro de Saúde de Santarém.",Ajuste Direto Regime Geral,Empreitadas de obras públicas,"45113000-2, Obras no local","Administração Regional de Saúde de Lisboa e Vale do Tejo, I. P. (503148776)","Secal - Engenharia e Construções,S.A. (501982248)","2.069,20 €",26-05-2015,26-05-2015,15 dias,"Portugal, Santarém, Santarém","Artigo 19.º, alínea a) do Código dos Contratos Públicos",,,,,,Não aplicável.,Não aplicável.,FALSE
IMUNOGLOBULINA HUMANA C/ANTIGENIO D 1500UI/2ML SOL INJ IM IV,Ajuste Direto Regime Geral,Aquisição de bens móveis,"33690000-3, Medicamentos vários","Administração Regional de Saúde de Lisboa e Vale do Tejo, I. P. (503148776)","Csl Behring, Unipessoal Lda. (503047201)","165.000,00 €",25-05-2015,07-05-2015,238 dias,"Portugal, Lisboa, Lisboa","Artigo 26.º, n.º 1, alínea e) do Código dos Contratos Públicos",,,,,,Não aplicável.,Não aplicável.,FALSE
EQUIPAMENTOS FRIGORIFICOS PARA OS SERVIÇOS FARMACÊUTICOS DA ARSLVT,Ajuste Direto Regime Geral,Aquisição de bens móveis,"42513000-5, Equipamento de refrigeração e congelação","Administração Regional de Saúde de Lisboa e Vale do Tejo, I. P. (503148776)","Arneg Portuguesa - Fábrica de Equipamentos Frigoríficos Industriais e Comerciais, Lda. (500670900)","21.337,00 €",25-05-2015,08-05-2015,35 dias,"Portugal, Lisboa, Lisboa","Artigo 20.º, n.º 1, alínea a) do Código dos Contratos Públicos",,,,,,Não aplicável.,Não aplicável.,FALSE
PIRAZINAMIDA 500MG COMPRIMIDO,Ajuste Direto Regime Geral,Aquisição de bens móveis,"33690000-3, Medicamentos vários","Administração Regional de Saúde de Lisboa e Vale do Tejo, I. P. (503148776)","Sanofi - Aventis Produtos Farmaceuticos, Lda. (500134960)","1.400,00 €",25-05-2015,15-05-2015,1 dias,"Portugal, Lisboa, Lisboa",Artigo 258.º do Código dos Contratos Públicos,,,,,,Não aplicável.,Não aplicável.,FALSE
AMICACINA 500MG/2ML SOL INJ IM IV,Ajuste Direto Regime Geral,Aquisição de bens móveis,"33690000-3, Medicamentos vários","Administração Regional de Saúde de Lisboa e Vale do Tejo, I. P. (503148776)",Labesfal - Laboratórios Almiro S.A (501169580),"600,00 €",25-05-2015,18-05-2015,1 dias,"Portugal, Lisboa, Lisboa",Artigo 258.º do Código dos Contratos Públicos,,,,,,Não aplicável.,Não aplicável.,FALSE
"PRESTAÇÃO DE SERVIÇOS DE ACOMPANHAMENTO DA ATIVIDADE DAS ENTIDADES GESTORAS DOS EDIFÍCIOS NO ÂMBITO DOS CONTRATOS DE GESTÃO DOS HOSPITAIS DE CASCAIS, LOURES E VILA FRANCA DE XIRA - ANO DE 2015.",Concurso público,Aquisição de serviços,"71315200-1, Serviços de consultoria relacionados com edifícios","Administração Regional de Saúde de Lisboa e Vale do Tejo, I. P. (503148776)","W.S. Atkins (Portugal) - Consultores e Projectistas Internacionais, Unipessoal Lda. (501912290)","64.000,00 €",25-05-2015,27-04-2015,248 dias,"Portugal, Lisboa, Lisboa","Artigo 20.º, n.º 1, alínea b) do Código dos Contratos Públicos",,,,,,Não aplicável.,Não aplicável.,FALSE
"MATERIAL DE LABORATÓRIO - LÂMINAS, ESCOVAS E ESPÁTULAS PARA CITOLOGIA",Concurso público,Locação de bens móveis,"33140000-3, Material médico de consumo","Administração Regional de Saúde de Lisboa e Vale do Tejo, I. P. (503148776)",Filsat Equipamentos Medico Cientificos Lda. (506708616),"7.700,00 €",25-05-2015,18-05-2015,1 dias,"Portugal, Lisboa, Lisboa","Artigo 20.º, n.º 1, alínea b) do Código dos Contratos Públicos",,,,,,Não aplicável.,Não aplicável.,FALSE
"MATERIAL DE LABORATÓRIO - LÂMINAS, ESCOVAS E ESPÁTULAS PARA CITOLOGIA",Concurso público,Locação de bens móveis,"33140000-3, Material médico de consumo","Administração Regional de Saúde de Lisboa e Vale do Tejo, I. P. (503148776)",Bastos Viegas S.A (500042772),"320,00 €",25-05-2015,18-05-2015,5 dias,"Portugal, Lisboa, Lisboa","Artigo 20.º, n.º 1, alínea b) do Código dos Contratos Públicos",,,,,,Não aplicável.,Não aplicável.,FALSE
MATERIAL DIVERSO PARA SAUDE ORAL PARA O ANO 2015,Concurso público,Aquisição de bens móveis,"33140000-3, Material médico de consumo","Administração Regional de Saúde de Lisboa e Vale do Tejo, I. P. (503148776)","Montellano, Lda. (500196494)","30.600,00 €",22-05-2015,12-05-2015,233 dias,"Portugal, Lisboa, Lisboa","Artigo 20.º, n.º 1, alínea b) do Código dos Contratos Públicos",,,,,,Não aplicável.,Não aplicável.,FALSE
MATERIAL DIVERSO PARA SAUDE ORAL PARA O ANO 2015,Concurso público,Aquisição de bens móveis,"33140000-3, Material médico de consumo","Administração Regional de Saúde de Lisboa e Vale do Tejo, I. P. (503148776)",Bastos Viegas S.A (500042772),"96,00 €",22-05-2015,12-05-2015,233 dias,"Portugal, Lisboa, Lisboa","Artigo 20.º, n.º 1, alínea b) do Código dos Contratos Públicos",,,,,,Não aplicável.,Não aplicável.,FALSE
MATERIAL DIVERSO PARA SAUDE ORAL PARA O ANO 2015,Concurso público,Aquisição de bens móveis,"33140000-3, Material médico de consumo","Administração Regional de Saúde de Lisboa e Vale do Tejo, I. P. (503148776)","Aviquimica-Importações e Manufacturas, Lda. (500039720)","635,52 €",22-05-2015,12-05-2015,233 dias,"Portugal, Lisboa, Lisboa","Artigo 20.º, n.º 1, alínea b) do Código dos Contratos Públicos",,,,,,Não aplicável.,Não aplicável.,FALSE
MATERIAL DIVERSO PARA SAUDE ORAL PARA O ANO 2015,Concurso público,Aquisição de bens móveis,"33140000-3, Material médico de consumo","Administração Regional de Saúde de Lisboa e Vale do Tejo, I. P. (503148776)","Montellano, Lda. (500196494)","2.305,80 €",22-05-2015,12-05-2015,233 dias,"Portugal, Lisboa, Lisboa","Artigo 20.º, n.º 1, alínea b) do Código dos Contratos Públicos",,,,,,Não aplicável.,Não aplicável.,FALSE
MATERIAL DIVERSO PARA SAUDE ORAL PARA O ANO 2015,Concurso público,Aquisição de bens móveis,"33140000-3, Material médico de consumo","Administração Regional de Saúde de Lisboa e Vale do Tejo, I. P. (503148776)","Montellano, Lda. (500196494)","890,00 €",22-05-2015,12-05-2015,233 dias,"Portugal, Lisboa, Lisboa","Artigo 20.º, n.º 1, alínea b) do Código dos Contratos Públicos",,,,,,Não aplicável.,Não aplicável.,FALSE
MATERIAL DIVERSO PARA SAUDE ORAL PARA O ANO 2015,Concurso público,Aquisição de bens móveis,"33140000-3, Material médico de consumo","Administração Regional de Saúde de Lisboa e Vale do Tejo, I. P. (503148776)","Montellano, Lda. (500196494)","885,00 €",22-05-2015,12-05-2015,233 dias,"Portugal, Lisboa, Lisboa","Artigo 20.º, n.º 1, alínea b) do Código dos Contratos Públicos",,,,,,Não aplicável.,Não aplicável.,FALSE
MATERIAL DIVERSO PARA SAUDE ORAL PARA O ANO 2015,Concurso público,Aquisição de bens móveis,"33140000-3, Material médico de consumo","Administração Regional de Saúde de Lisboa e Vale do Tejo, I. P. (503148776)","Montellano, Lda. (500196494)","2.830,00 €",22-05-2015,12-05-2015,233 dias,"Portugal, Lisboa, Lisboa","Artigo 20.º, n.º 1, alínea b) do Código dos Contratos Públicos",,,,,,Não aplicável.,Não aplicável.,FALSE
MATERIAL DIVERSO PARA SAUDE ORAL PARA O ANO 2015,Concurso público,Aquisição de bens móveis,"33140000-3, Material médico de consumo","Administração Regional de Saúde de Lisboa e Vale do Tejo, I. P. (503148776)","Montellano, Lda. (500196494)","2.275,00 €",22-05-2015,12-05-2015,233 dias,"Portugal, Lisboa, Lisboa","Artigo 20.º, n.º 1, alínea b) do Código dos Contratos Públicos",,,,,,Não aplicável.,Não aplicável.,FALSE
MATERIAL DIVERSO PARA SAUDE ORAL PARA O ANO 2015,Concurso público,Aquisição de bens móveis,"33140000-3, Material médico de consumo","Administração Regional de Saúde de Lisboa e Vale do Tejo, I. P. (503148776)","Montellano, Lda. (500196494)","1.400,00 €",22-05-2015,12-05-2015,233 dias,"Portugal, Lisboa, Lisboa","Artigo 20.º, n.º 1, alínea b) do Código dos Contratos Públicos",,,,,,Não aplicável.,Não aplicável.,FALSE
MATERIAL DIVERSO PARA SAUDE ORAL PARA O ANO 2015,Concurso público,Aquisição de bens móveis,"33140000-3, Material médico de consumo","Administração Regional de Saúde de Lisboa e Vale do Tejo, I. P. (503148776)","Montellano, Lda. (500196494)","125,00 €",22-05-2015,12-05-2015,233 dias,"Portugal, Lisboa, Lisboa","Artigo 20.º, n.º 1, alínea b) do Código dos Contratos Públicos",,,,,,Não aplicável.,Não aplicável.,FALSE
MATERIAL DIVERSO PARA SAUDE ORAL PARA O ANO 2015,Concurso público,Aquisição de bens móveis,"33140000-3, Material médico de consumo","Administração Regional de Saúde de Lisboa e Vale do Tejo, I. P. (503148776)","Montellano, Lda. (500196494)","2.775,00 €",22-05-2015,12-05-2015,233 dias,"Portugal, Lisboa, Lisboa","Artigo 20.º, n.º 1, alínea b) do Código dos Contratos Públicos",,,,,,Não aplicável.,Não aplicável.,FALSE
MATERIAL DIVERSO PARA SAUDE ORAL PARA O ANO 2015,Concurso público,Aquisição de bens móveis,"33140000-3, Material médico de consumo","Administração Regional de Saúde de Lisboa e Vale do Tejo, I. P. (503148776)","Montellano, Lda. (500196494)","374,85 €",22-05-2015,12-05-2015,233 dias,"Portugal, Lisboa, Lisboa","Artigo 20.º, n.º 1, alínea b) do Código dos Contratos Públicos",,,,,,Não aplicável.,Não aplicável.,FALSE
MATERIAL DIVERSO PARA SAUDE ORAL PARA O ANO 2015,Concurso público,Aquisição de bens móveis,"33140000-3, Material médico de consumo","Administração Regional de Saúde de Lisboa e Vale do Tejo, I. P. (503148776)","Montellano, Lda. (500196494)","570,00 €",22-05-2015,12-05-2015,233 dias,"Portugal, Lisboa, Lisboa","Artigo 20.º, n.º 1, alínea b) do Código dos Contratos Públicos",,,,,,Não aplicável.,Não aplicável.,FALSE
MATERIAL DIVERSO PARA SAUDE ORAL PARA O ANO 2015,Concurso público,Aquisição de bens móveis,"33140000-3, Material médico de consumo","Administração Regional de Saúde de Lisboa e Vale do Tejo, I. P. (503148776)",MATERIAL DIVERSO PARA SAUDE ORAL PARA O ANO 2015 (500196494),"35,04 €",22-05-2015,12-05-2015,233 dias,"Portugal, Lisboa, Lisboa","Artigo 20.º, n.º 1, alínea b) do Código dos Contratos Públicos",,,,,,Não aplicável.,Não aplicável.,FALSE
MATERIAL DIVERSO PARA SAUDE ORAL PARA O ANO 2015,Concurso público,Aquisição de bens móveis,"33140000-3, Material médico de consumo","Administração Regional de Saúde de Lisboa e Vale do Tejo, I. P. (503148776)","Montellano, Lda. (500196494)","2.980,00 €",22-05-2015,12-05-2015,233 dias,"Portugal, Lisboa, Lisboa","Artigo 20.º, n.º 1, alínea b) do Código dos Contratos Públicos",,,,,,Não aplicável.,Não aplicável.,FALSE
MATERIAL DIVERSO PARA SAUDE ORAL PARA O ANO 2015,Concurso público,Aquisição de bens móveis,"33140000-3, Material médico de consumo","Administração Regional de Saúde de Lisboa e Vale do Tejo, I. P. (503148776)","Montellano, Lda. (500196494)","750,00 €",22-05-2015,12-05-2015,233 dias,"Portugal, Lisboa, Lisboa","Artigo 20.º, n.º 1, alínea b) do Código dos Contratos Públicos",,,,,,Não aplicável.,Não aplicável.,FALSE
NA G BENZAT 1.2 MUI E PENICILINA G  633 MUI PO SUSP INTRA MUSCULAR,Ajuste Direto Regime Geral,Aquisição de bens móveis,"33696000-5, Reagentes e meios de contraste","Administração Regional de Saúde de Lisboa e Vale do Tejo, I. P. (503148776)",LABORATORIOS ATRAL S.A (500162085),"44.490,00 €",22-05-2015,22-05-2015,221 dias,"Portugal, Lisboa, Lisboa","Artigo 24.º, n.º 1, alínea e) do Código dos Contratos Públicos",,,,,,Não aplicável.,Não aplicável.,FALSE
Empreitada de Conservação da Rede de abastecimento de água da UCSP do Entroncamento,Ajuste Direto Regime Geral,Empreitadas de obras públicas,"45113000-2, Obras no local","Administração Regional de Saúde de Lisboa e Vale do Tejo, I. P. (503148776)","Brifat - Britas e Transportes, S.A. (504627910)","2.455,10 €",22-05-2015,22-05-2015,15 dias,"Portugal, Santarém, Entroncamento","Artigo 19.º, alínea a) do Código dos Contratos Públicos",,,,,,Não aplicável.,Não aplicável.,FALSE
"Obras de reabilitação do pilar exterior do Centro de Saúde do Olival, Cacém, do ACES Sintra",Ajuste Direto Regime Geral,Empreitadas de obras públicas,"45113000-2, Obras no local","Administração Regional de Saúde de Lisboa e Vale do Tejo, I. P. (503148776)","Socodefil - Sociedade Construções Manuel Delgado & Filhos, Lda (500742219)","2.135,00 €",21-05-2015,21-05-2015,20 dias,"Portugal, Lisboa, Sintra","Artigo 19.º, alínea a) do Código dos Contratos Públicos",,,,,,Não aplicável.,Não aplicável.,FALSE
