Objeto do Contrato,Tipo de Procedimento,Tipo(s) de Contrato,CPVs,Entidade(s) Adjudicante(s),Entidade(s) Adjudicatária(s),Preço Contratual,Data de Publicação,Data de Celebração do Contrato,Prazo de Execução,Local de Execução,Fundamentação,Data de Fecho do Contrato,Preço Total Efetivo,Causas das Alterações ao Prazo,Causas das Alterações ao Preço,Estado,N.º registo do Acordo Quadro,Descrição do Acordo Quadro,Procedimento Centralizado
Serviços medicos de ORL,Ajuste Direto Regime Geral,Aquisição de serviços,"79625000-1, Serviços de fornecimento de pessoal médico",Hospital Dr. Francisco Zagalo (501510150),"Clinica Medica - Cirurgica Dr. Rui Pratas, Lda. (505914832)","9.644,80 €",19-12-2014,04-12-2014,30 dias,"Portugal, Aveiro, Ovar","Artigo 20.º, n.º 1, alínea a) do Código dos Contratos Públicos",31-12-2014,"11.559,68 €",,serviços medicos efectuados acima do previsto,,Não aplicável.,Não aplicável.,FALSE
Serviços medicos de urologia,Ajuste Direto Regime Geral,Aquisição de serviços,"79625000-1, Serviços de fornecimento de pessoal médico",Hospital Dr. Francisco Zagalo (501510150),"Dr.Teresa Bragança & Dr. Ulisses Ribau, Med.Esp.Lda. (508476143)","8.316,00 €",19-12-2014,04-12-2014,30 dias,"Portugal, Aveiro, Ovar","Artigo 20.º, n.º 1, alínea a) do Código dos Contratos Públicos",31-12-2014,"3.713,60 €",,serviços efectuados abaixo do previsto,,Não aplicável.,Não aplicável.,FALSE
Aquisição Cerezyme 400 UI Frs,Ajuste Direto Regime Geral,Aquisição de bens móveis,"33690000-3, Medicamentos vários",Hospital Dr. Francisco Zagalo (501510150),"Sanofi -Produtos Farmacêuticos, lda (500134960)","12.128,04 €",16-12-2014,12-12-2014,1 dias,"Portugal, Aveiro, Ovar","Artigo 20.º, n.º 1, alínea a) do Código dos Contratos Públicos",31-12-2014,"12.128,04 €",,"",,Não aplicável.,Não aplicável.,FALSE
Trabalho temporario assistentes operacionais,Ajuste Direto Regime Geral,Aquisição de serviços,"79620000-6, Serviços de fornecimento de pessoal, inclusive temporário",Hospital Dr. Francisco Zagalo (501510150),"Tonus- Trabalho Temporario, Lda. (508986460)","16.055,00 €",15-12-2014,04-12-2014,30 dias,"Portugal, Aveiro, Ovar","Artigo 20.º, n.º 1, alínea a) do Código dos Contratos Públicos",31-12-2014,"34.115,04 €",,Serviços acima do previsto,,Não aplicável.,Não aplicável.,FALSE
Trabalho temporario de assistentes tecnicos,Ajuste Direto Regime Geral,Aquisição de serviços,"79620000-6, Serviços de fornecimento de pessoal, inclusive temporário",Hospital Dr. Francisco Zagalo (501510150),"Tonus - Trabalho Temporario, Lda. (508986460)","15.840,00 €",15-12-2014,04-12-2014,30 dias,"Portugal, Aveiro, Ovar","Artigo 20.º, n.º 1, alínea a) do Código dos Contratos Públicos",31-12-2014,"28.197,75 €",,serviços efectuados acima do previsto,,Não aplicável.,Não aplicável.,FALSE
"Trabalho Temporarios - Tec. Informatico, Tecnico Superior Geral e Serralheiro",Ajuste Direto Regime Geral,Aquisição de serviços,"79620000-6, Serviços de fornecimento de pessoal, inclusive temporário",Hospital Dr. Francisco Zagalo (501510150),"Tonus Trabalho Temporario, Lda (508986460)","7.700,00 €",15-12-2014,04-12-2014,30 dias,"Portugal, Aveiro, Ovar","Artigo 20.º, n.º 1, alínea a) do Código dos Contratos Públicos",31-12-2014,"10.989,65 €",,Serviços acima do previsto,,Não aplicável.,Não aplicável.,FALSE
