Objeto do Contrato,Tipo de Procedimento,Tipo(s) de Contrato,CPVs,Entidade(s) Adjudicante(s),Entidade(s) Adjudicatária(s),Preço Contratual,Data de Publicação,Data de Celebração do Contrato,Prazo de Execução,Local de Execução,Fundamentação,Data de Fecho do Contrato,Preço Total Efetivo,Causas das Alterações ao Prazo,Causas das Alterações ao Preço,Estado,N.º registo do Acordo Quadro,Descrição do Acordo Quadro,Procedimento Centralizado
Aquisição de Cabos para Aparelho Tens Med para o CMRSul,Ajuste Direto Regime Geral,Aquisição de bens móveis,"33140000-3, Material médico de consumo","Administração Regional de Saúde do Algarve, I. P. (503148709)",ENRAF NONIUS IBERICA PORTUGAL - Prod Fisioterapia e Reab.Lda (504798880),"2.090,00 €",21-11-2016,21-11-2016,40 dias,"Portugal, Faro, Faro","Artigo 24.º, n.º 1, alínea e) do Código dos Contratos Públicos","","",,,,Não aplicável.,Não aplicável.,FALSE
Prestação de Serviços em Regime de Avença de Assistente Técnico para o ACES Central - CS Loulé (2),Ajuste Direto Regime Geral,Aquisição de serviços,"75122000-7, Serviços administrativos na área da saúde","Administração Regional de Saúde do Algarve, I. P. (503148709)",Silvia Isabel Pontes Inácio Cebola (220335540),"9.960,00 €",17-11-2016,14-11-2016,365 dias,"Portugal, Faro, Loulé","Artigo 20.º, n.º 1, alínea a) do Código dos Contratos Públicos","","",,,,Não aplicável.,Não aplicável.,FALSE
Prestação de Serviços em Regime de Avença de Técnico Superior da Área de Gestão para o DGAG - Gestão Financeira,Ajuste Direto Regime Geral,Aquisição de serviços,"79400000-8, Serviços de consultoria em matéria comercial e de gestão e serviços conexos","Administração Regional de Saúde do Algarve, I. P. (503148709)",Ana Sofia Cabeleira Garcia Menau (202990095),"18.022,20 €",17-11-2016,11-11-2016,365 dias,"Portugal, Faro, Faro","Artigo 20.º, n.º 1, alínea a) do Código dos Contratos Públicos","","",,,,Não aplicável.,Não aplicável.,FALSE
Aquisição de Esponjas Impregnadas em Sabão PH Neutro,Ao abrigo de acordo-quadro (art.º 259.º),Aquisição de bens móveis,"33140000-3, Material médico de consumo","Administração Regional de Saúde do Algarve, I. P. (503148709)","Quilaban - Química Laboratorial Analítica, SA (500399670)","645,00 €",17-11-2016,17-11-2016,44 dias,"Portugal, Faro, Faro",Artigo 259.º do Código dos Contratos Públicos,"","",,,,389355,"CONCURSO PÚBLICO PARA A CELEBRAÇÃO DE CONTRATOS PÚBLICOS DE APROVISIONAMENTO PARA AQUISIÇÃO DE MATERIAL DE INCONTINÊNCIA, PROTECÇÃO CUTÂNEA E ALIVIO DE PRESSÃO",FALSE
Aquisição de cadeiras de rodas,Ajuste Direto Regime Geral,Aquisição de bens móveis,"33000000-0, Equipamento médico, medicamentos e produtos para cuidados pessoais","Administração Regional de Saúde do Algarve, I. P. (503148709)","IACESS, Lda (513542434)","35.327,80 €",17-11-2016,15-11-2016,30 dias,"Portugal, Faro, São Brás de Alportel","Artigo 20.º, n.º 1, alínea a) do Código dos Contratos Públicos",14-12-2016,"35.327,80 €",,,,Não aplicável.,Não aplicável.,FALSE
Aquisição de Frascos e Tampas para Transporte de Metadona,Ajuste Direto Regime Geral,Aquisição de bens móveis,"33190000-8, Dispositivos e produtos médicos variados","Administração Regional de Saúde do Algarve, I. P. (503148709)","Manuel Moreira Dias, Lda (502907363)","10.980,00 €",15-11-2016,04-11-2016,55 dias,"Portugal, Faro, Faro","Artigo 20.º, n.º 1, alínea a) do Código dos Contratos Públicos","","",,,,Não aplicável.,Não aplicável.,FALSE
Aquisição de economato,Ajuste Direto Regime Geral,Aquisição de bens móveis,"22000000-0, Material impresso e afins","Administração Regional de Saúde do Algarve, I. P. (503148709)","Staples Portugal - Equipamento de Escritório, SA (503789372)","257,84 €",14-11-2016,14-11-2016,47 dias,"Portugal, Faro, Faro","Artigo 20.º, n.º 1, alínea a) do Código dos Contratos Públicos","","",,,,Não aplicável.,Não aplicável.,FALSE
Aquisição de economato,Ajuste Direto Regime Geral,Aquisição de bens móveis,"22000000-0, Material impresso e afins","Administração Regional de Saúde do Algarve, I. P. (503148709)",Olmar - Artigos de Papelaria Lda (508831989),"1.957,56 €",14-11-2016,14-11-2016,47 dias,"Portugal, Faro, Faro","Artigo 20.º, n.º 1, alínea a) do Código dos Contratos Públicos","","",,,,Não aplicável.,Não aplicável.,FALSE
