Objeto do Contrato,Tipo de Procedimento,Tipo(s) de Contrato,CPVs,Entidade(s) Adjudicante(s),Entidade(s) Adjudicatária(s),Preço Contratual,Data de Publicação,Data de Celebração do Contrato,Prazo de Execução,Local de Execução,Fundamentação,Data de Fecho do Contrato,Preço Total Efetivo,Causas das Alterações ao Prazo,Causas das Alterações ao Preço,Estado,N.º registo do Acordo Quadro,Descrição do Acordo Quadro,Procedimento Centralizado
"Aquisição de Dispositivos Médicos - Luvas para Uso Médico para a ULSLA, EPE",Ao abrigo de acordo-quadro (art.º 259.º),Aquisição de bens móveis,"33141000-0, Material médico não químico descartável e produtos hematológicos",Unidade Local de Saúde do Litoral Alentejano EPE (510445152),"Ezequiel Panão Jorge, Lda. (501412727)","82,00 €",14-03-2017,14-03-2017,365 dias,"Portugal, Setúbal, Santiago do Cacém","Artigo 20.º, n.º 1, alínea b) do Código dos Contratos Públicos",,,,,,544071,"CONCURSO PÚBLICO PARA A CELEBRAÇÃO DE CONTRATOS PÚBLICOS DE APROVISIONAMENTO PARA A ÁREA DA SAÚDE, COM VISTA AO FORNECIMENTO DE LUVAS PARA USO MÉDICO, ÀS INSTITUIÇÕES E SERVIÇOS DO SERVIÇO NACIONAL DE SAÚDE",FALSE
"Aquisição de Dispositivos Médicos - Luvas para Uso Médico para a ULSLA, EPE",Ao abrigo de acordo-quadro (art.º 259.º),Aquisição de bens móveis,"33141000-0, Material médico não químico descartável e produtos hematológicos",Unidade Local de Saúde do Litoral Alentejano EPE (510445152),"MEDICINÁLIA-CORMÉDICA, LDA    (500684324)","6.075,00 €",14-03-2017,14-03-2017,365 dias,"Portugal, Setúbal, Santiago do Cacém","Artigo 20.º, n.º 1, alínea b) do Código dos Contratos Públicos",,,,,,544071,"CONCURSO PÚBLICO PARA A CELEBRAÇÃO DE CONTRATOS PÚBLICOS DE APROVISIONAMENTO PARA A ÁREA DA SAÚDE, COM VISTA AO FORNECIMENTO DE LUVAS PARA USO MÉDICO, ÀS INSTITUIÇÕES E SERVIÇOS DO SERVIÇO NACIONAL DE SAÚDE",FALSE
