Objeto do Contrato,Tipo de Procedimento,Tipo(s) de Contrato,CPVs,Entidade(s) Adjudicante(s),Entidade(s) Adjudicatária(s),Preço Contratual,Data de Publicação,Data de Celebração do Contrato,Prazo de Execução,Local de Execução,Fundamentação,Data de Fecho do Contrato,Preço Total Efetivo,Causas das Alterações ao Prazo,Causas das Alterações ao Preço,Estado,N.º registo do Acordo Quadro,Descrição do Acordo Quadro,Procedimento Centralizado
"Aquisição de solução de fator de potência, através da instalação de um armário de baterias de condensadores, no posto de transformação (EA n.º 20150000400)",Ajuste Direto Regime Geral,Locação de bens móveis,"31210000-1, Aparelhos eléctricos para ligação ou protecção de circuitos eléctricos","INFARMED - Autoridade Nacional do Medicamento e Produtos de Saúde, I. P. (600037002)","SCHEIDER ELECTRIC PORTUGAL, LDA (500281858)","8.250,00 €",08-10-2015,08-10-2015,30 dias,Portugal,"Artigo 20.º, n.º 1, alínea a) do Código dos Contratos Públicos",,,,,,Não aplicável.,Não aplicável.,FALSE
"Contratação de serviços para desenvolvimento de uma estratégia de treino e criação de formação, no âmbito do SiNATS ",Ajuste Direto Regime Geral,Aquisição de serviços,"79341100-7, Serviços de consultoria em matéria de publicidade","INFARMED - Autoridade Nacional do Medicamento e Produtos de Saúde, I. P. (600037002)",UNIVERSIDADE NOVA - ESCOLA NACIONAL DE SAUDE PUBLICA (501399003),"20.000,00 €",06-10-2015,06-10-2015,365 dias,Portugal,"Artigo 20.º, n.º 1, alínea a) do Código dos Contratos Públicos",,,,,,Não aplicável.,Não aplicável.,FALSE
"Aquisição de serviços de manutenção da frota automóvel do INFARMED, I.P. (EA n.º 20150000298) ",Ajuste Direto Regime Geral,Aquisição de serviços<br/>Locação de bens móveis,"50111000-6, Serviços de gestão, reparação e manutenção de frota de veículos","INFARMED - Autoridade Nacional do Medicamento e Produtos de Saúde, I. P. (600037002)",SUCH - SERVIÇOS DE UTILIZAÇÃO COMUM DOS HOSPITAIS (500900469),"49.853,10 €",06-10-2015,01-10-2015,365 dias,Portugal,"Artigo 20.º, n.º 1, alínea a) do Código dos Contratos Públicos",,,,,,Não aplicável.,Não aplicável.,FALSE
