Objeto do Contrato,Tipo de Procedimento,Tipo(s) de Contrato,CPVs,Entidade(s) Adjudicante(s),Entidade(s) Adjudicatária(s),Preço Contratual,Data de Publicação,Data de Celebração do Contrato,Prazo de Execução,Local de Execução,Fundamentação,Data de Fecho do Contrato,Preço Total Efetivo,Causas das Alterações ao Prazo,Causas das Alterações ao Preço,Estado,N.º registo do Acordo Quadro,Descrição do Acordo Quadro,Procedimento Centralizado
Medicamento Exclusivo Alimera - Iluvien,Ajuste Direto Regime Geral,Aquisição de bens móveis,"33600000-6, Produtos farmacêuticos","Centro Hospitalar de Leiria, E. P. E. (509822932)",ALIMERA SCIENCES LIMITED (980523192),"29.108,75 €",28-04-2016,30-11-2015,150 dias,"Portugal, Leiria, Leiria","Artigo 24.º, n.º 1, alínea e) do Código dos Contratos Públicos",,,,,,Não aplicável.,Não aplicável.,FALSE
Perfluoroctano,Ajuste Direto Regime Geral,Aquisição de bens móveis,"33600000-6, Produtos farmacêuticos","Centro Hospitalar de Leiria, E. P. E. (509822932)","ALCON PORTUGAL-PROD.EQUIP.OFTALM., LDA (501251685)","4.830,00 €",28-04-2016,15-02-2016,330 dias,"Portugal, Leiria, Leiria","Artigo 20.º, n.º 1, alínea a) do Código dos Contratos Públicos",,,,,,Não aplicável.,Não aplicável.,FALSE
Medicamento Exclusivo Alimera - Iluvien,Ajuste Direto Regime Geral,Aquisição de bens móveis,"33600000-6, Produtos farmacêuticos","Centro Hospitalar de Leiria, E. P. E. (509822932)",ALIMERA SCIENCES LIMITED (980523192),"104.791,50 €",28-04-2016,21-04-2016,276 dias,"Portugal, Leiria, Leiria","Artigo 24.º, n.º 1, alínea e) do Código dos Contratos Públicos",,,,,,Não aplicável.,Não aplicável.,FALSE
Meios de Contraste Radiológico,Ajuste Direto Regime Geral,Aquisição de bens móveis,"33696000-5, Reagentes e meios de contraste","Centro Hospitalar de Leiria, E. P. E. (509822932)","LABORATORIOS FARMACEUTICOS ROVI, SA (980166705)","14.640,00 €",28-04-2016,08-04-2016,180 dias,"Portugal, Leiria, Leiria","Artigo 20.º, n.º 1, alínea a) do Código dos Contratos Públicos",,,,,,Não aplicável.,Não aplicável.,FALSE
Meios de contraste radiológico,Ajuste Direto Regime Geral,Aquisição de bens móveis,"33696000-5, Reagentes e meios de contraste","Centro Hospitalar de Leiria, E. P. E. (509822932)","A.MARTINS E FERNANDES, SA (501172114)","55,00 €",28-04-2016,08-04-2016,180 dias,"Portugal, Leiria, Leiria","Artigo 20.º, n.º 1, alínea a) do Código dos Contratos Públicos",,,,,,Não aplicável.,Não aplicável.,FALSE
Meios de Contraste Radiológico,Ajuste Direto Regime Geral,Aquisição de bens móveis,"33696000-5, Reagentes e meios de contraste","Centro Hospitalar de Leiria, E. P. E. (509822932)","BAYER PORTUGAL, SA (500043256)","49.649,60 €",28-04-2016,08-04-2016,180 dias,"Portugal, Leiria, Leiria","Artigo 20.º, n.º 1, alínea a) do Código dos Contratos Públicos",,,,,,Não aplicável.,Não aplicável.,FALSE
Meios de Contraste Radiológico,Ajuste Direto Regime Geral,Aquisição de bens móveis,"33696000-5, Reagentes e meios de contraste","Centro Hospitalar de Leiria, E. P. E. (509822932)","MED X-RAY SISTEMAS MEDICOS, LDA (506187071)","477,60 €",28-04-2016,08-04-2016,180 dias,"Portugal, Leiria, Leiria","Artigo 20.º, n.º 1, alínea a) do Código dos Contratos Públicos",,,,,,Não aplicável.,Não aplicável.,FALSE
Meios de Contraste Radiológico,Ajuste Direto Regime Geral,Aquisição de bens móveis,"33696000-5, Reagentes e meios de contraste","Centro Hospitalar de Leiria, E. P. E. (509822932)","SATIS, LDA (500098140)","2.385,00 €",28-04-2016,08-04-2016,180 dias,"Portugal, Leiria, Leiria","Artigo 20.º, n.º 1, alínea a) do Código dos Contratos Públicos",,,,,,Não aplicável.,Não aplicável.,FALSE
Meios de Contraste Radiológico,Ajuste Direto Regime Geral,Aquisição de bens móveis,"33696000-5, Reagentes e meios de contraste","Centro Hospitalar de Leiria, E. P. E. (509822932)","A.MARTINS E FERNANDES, SA (501172114)","2.110,00 €",28-04-2016,08-04-2016,180 dias,"Portugal, Leiria, Leiria","Artigo 20.º, n.º 1, alínea a) do Código dos Contratos Públicos",,,,,,Não aplicável.,Não aplicável.,FALSE
