Objeto do Contrato,Tipo de Procedimento,Tipo(s) de Contrato,CPVs,Entidade(s) Adjudicante(s),Entidade(s) Adjudicatária(s),Preço Contratual,Data de Publicação,Data de Celebração do Contrato,Prazo de Execução,Local de Execução,Fundamentação,Data de Fecho do Contrato,Preço Total Efetivo,Causas das Alterações ao Prazo,Causas das Alterações ao Preço,Estado,N.º registo do Acordo Quadro,Descrição do Acordo Quadro,Procedimento Centralizado
Aquisição de espectrofotómetro,Ajuste Direto Regime Geral,Aquisição de bens móveis,"42900000-5, Maquinaria diversa genérica ou de finalidade específica","Instituto Nacional de Saúde Dr. Ricardo Jorge, I.P. (501427511)",VWR INTERNACIONAL (503842770),"1.998,00 €",21-08-2013,22-07-2013,30 dias,"Portugal, Lisboa, Lisboa","Artigo 20.º, n.º 1, alínea a) do Código dos Contratos Públicos",,,,,,Não aplicável.,Não aplicável.,
Aquisição de material de consumo clinico,Ajuste Direto Regime Geral,Aquisição de bens móveis,"33140000-3, Material médico de consumo","Instituto Nacional de Saúde Dr. Ricardo Jorge, I.P. (501427511)","Empresa Diário do Porto, Lda (500096309)","12.000,00 €",21-08-2013,29-05-2013,60 dias,"Portugal, Porto, Porto","Artigo 20.º, n.º 1, alínea a) do Código dos Contratos Públicos",,,,,,Não aplicável.,Não aplicável.,
Aquisição de peças  para analisador de aminoácidos,Ajuste Direto Regime Geral,Aquisição de bens móveis,"39290000-1, Acessórios diversos","Instituto Nacional de Saúde Dr. Ricardo Jorge, I.P. (501427511)",Gomensoro Instrumentacion Cientifica (A28060283),"3.189,00 €",21-08-2013,09-08-2013,5 dias,"Portugal, Porto, Porto","Artigo 26.º, n.º 1, alínea a) do Código dos Contratos Públicos",,,,,,Não aplicável.,Não aplicável.,
Aquisição de combustíveis de aquecimento,Ajuste Direto Regime Geral,Aquisição de bens móveis,"09135100-5, Combustível para aquecimento","Instituto Nacional de Saúde Dr. Ricardo Jorge, I.P. (501427511)",Repsol (504425242),"16.675,30 €",19-08-2013,04-03-2013,290 dias,"Portugal, Setúbal, Setúbal","Artigo 20.º, n.º 1, alínea a) do Código dos Contratos Públicos",,,,,,Não aplicável.,Não aplicável.,
Aquisição de Reagentes,Ajuste Direto Regime Geral,Aquisição de bens móveis,"33696500-0, Reagentes de laboratório","Instituto Nacional de Saúde Dr. Ricardo Jorge, I.P. (501427511)",Biomérieux (501524177),"3.796,00 €",19-08-2013,22-03-2013,2 dias,"Portugal, Lisboa, Lisboa","Artigo 24.º, n.º 1, alínea c) do Código dos Contratos Públicos",,,,,,Não aplicável.,Não aplicável.,
