Objeto do Contrato,Tipo de Procedimento,Tipo(s) de Contrato,CPVs,Entidade(s) Adjudicante(s),Entidade(s) Adjudicatária(s),Preço Contratual,Data de Publicação,Data de Celebração do Contrato,Prazo de Execução,Local de Execução,Fundamentação,Data de Fecho do Contrato,Preço Total Efetivo,Causas das Alterações ao Prazo,Causas das Alterações ao Preço,Estado,N.º registo do Acordo Quadro,Descrição do Acordo Quadro,Procedimento Centralizado
Serviços de Arquitetura para elaboração do Plano Diretor do Hospital da Prelada.,Ajuste Direto Regime Geral,Aquisição de serviços,"71210000-3, Serviços de assessoria em matéria de arquitectura",SUCH - Serv. Utilização Comum Hospitais (500900469),Manuel Carlos Abreu Gomes da Silva (158043847),"10.200,00 €",17-07-2017,30-06-2017,90 dias,"Portugal, Porto, Porto","Artigo 20.º, n.º 1, alínea a) do Código dos Contratos Públicos",,,,,,Não aplicável.,Não aplicável.,FALSE
Elaboração de projeto nas especialidades de inst. e equip. de gases medicinais e vácuo.,Ajuste Direto Regime Geral,Aquisição de serviços,"71500000-3, Serviços relacionados com a construção",Serviço de Utilização Comum dos Hospitais (500900469),"MECFLUI - Engenharia, Lda. (504713507)","7.800,00 €",17-07-2017,04-07-2017,15 dias,"Portugal, Lisboa, Lisboa","Artigo 20.º, n.º 1, alínea a) do Código dos Contratos Públicos",,,,,,Não aplicável.,Não aplicável.,FALSE
Fornecimento de kit's para manutenção de ventiladores de anestesia.,Ajuste Direto Regime Geral,Aquisição de bens móveis,"33171000-9, Material para anestesia e reanimação",Serviço de Utilização Comum dos Hospitais (500900469),General Eletric Portuguesa SA (500357129),"14.771,26 €",17-07-2017,04-07-2017,10 dias,"Portugal, Porto, Porto","Artigo 20.º, n.º 1, alínea a) do Código dos Contratos Públicos",,,,,,Não aplicável.,Não aplicável.,FALSE
Elaboração de proj. nas especialidades FeE e Arruamentos para novo Ed. Ambulatório do Hosp. Garcia de Orta,Ajuste Direto Regime Geral,Aquisição de serviços,"71200000-0, Serviços de arquitectura e afins",Serviço de Utilização Comum dos Hospitais (500900469),"Betar - Estudos e Projectos de Estabilidade, Lda (500045283)","42.180,00 €",17-07-2017,23-06-2017,30 dias,"Portugal, Lisboa, Lisboa","Artigo 20.º, n.º 1, alínea a) do Código dos Contratos Públicos",,,,,,Não aplicável.,Não aplicável.,FALSE
Empreitada de Remodelação da Estação de Transferência de Lisboa,Ajuste Direto Regime Geral,Empreitadas de obras públicas,"50000000-5, Serviços de reparação e manutenção",Serviço de Utilização Comum dos Hospitais (500900469),Actia Engenharia e Construções Lda (509064930),"8.331,40 €",14-07-2017,14-07-2017,30 dias,"Portugal, Lisboa, Lisboa","Artigo 19.º, alínea a) do Código dos Contratos Públicos",,,,,,Não aplicável.,Não aplicável.,FALSE
Aquisição de Sonda para Ecógrafo HSFX,Ajuste Direto Regime Geral,Aquisição de bens móveis,"33000000-0, Equipamento médico, medicamentos e produtos para cuidados pessoais",Serviço de Utilização Comum dos Hospitais (500900469),TOSHIBA MEDICAL SYSTEM SA (980023700),"6.863,02 €",11-07-2017,23-06-2017,15 dias,"Portugal, Lisboa","Artigo 20.º, n.º 1, alínea a) do Código dos Contratos Públicos",,,,,,Não aplicável.,Não aplicável.,FALSE
Reparação Sistema de AC Do Centro Saúde Vila Nova da Barquinha,Ajuste Direto Regime Geral,Aquisição de serviços,"50000000-5, Serviços de reparação e manutenção",Serviço de Utilização Comum dos Hospitais (500900469),CIRELIUS (503641006),"8.311,70 €",11-07-2017,22-06-2017,15 dias,"Portugal, Distrito não determinado, Concelho não determinado","Artigo 20.º, n.º 1, alínea a) do Código dos Contratos Públicos",,,,,,Não aplicável.,Não aplicável.,FALSE
Reparação de Microscopio de BO do CHLO,Ajuste Direto Regime Geral,Aquisição de serviços,"50000000-5, Serviços de reparação e manutenção",Serviço de Utilização Comum dos Hospitais (500900469),CARL ZEISS MEDITEC IBÉRICA S.A. (980503043),"7.858,80 €",11-07-2017,22-06-2017,15 dias,"Portugal, Lisboa","Artigo 20.º, n.º 1, alínea a) do Código dos Contratos Públicos",,,,,,Não aplicável.,Não aplicável.,FALSE
