Objeto do Contrato,Tipo de Procedimento,Tipo(s) de Contrato,CPVs,Entidade(s) Adjudicante(s),Entidade(s) Adjudicatária(s),Preço Contratual,Data de Publicação,Data de Celebração do Contrato,Prazo de Execução,Local de Execução,Fundamentação,Data de Fecho do Contrato,Preço Total Efetivo,Causas das Alterações ao Prazo,Causas das Alterações ao Preço,Estado,N.º registo do Acordo Quadro,Descrição do Acordo Quadro,Procedimento Centralizado
Deslocação em serviço ao Porto; Inspecção; 3 Participantes.,Ajuste Direto Regime Geral,Aquisição de serviços,"63510000-7, Serviços de agências de viagens e serviços similares","INFARMED - Autoridade Nacional do Medicamento e Produtos de Saúde, I.P. (600037002)","TOPATLANTICO – Viagens e Turismo, S.A. (501061126)","540,00 €",31-03-2011,29-03-2011,3 dias,"Portugal, Lisboa, Lisboa","Artigo 27.º, n.º 1, alínea h) do Código dos Contratos Públicos",,,,,,Não aplicável.,Não aplicável.,
Deslocação em serviço a Evora; Inspecção; 3 Participantes.,Ajuste Direto Regime Geral,Aquisição de serviços,"63510000-7, Serviços de agências de viagens e serviços similares","INFARMED - Autoridade Nacional do Medicamento e Produtos de Saúde, I.P. (600037002)","TOPATLANTICO – Viagens e Turismo, S.A. (501061126)","372,00 €",31-03-2011,29-03-2011,3 dias,"Portugal, Lisboa, Lisboa","Artigo 27.º, n.º 1, alínea h) do Código dos Contratos Públicos",,,,,,Não aplicável.,Não aplicável.,
Deslocação em serviço ao Porto;Inspecção;3 Participantes.,Ajuste Direto Regime Geral,Aquisição de serviços,"63510000-7, Serviços de agências de viagens e serviços similares","INFARMED - Autoridade Nacional do Medicamento e Produtos de Saúde, I.P. (600037002)","TOPATLANTICO – Viagens e Turismo, S.A. (501061126)","255,00 €",31-03-2011,29-03-2011,1 dias,"Portugal, Lisboa, Lisboa","Artigo 27.º, n.º 1, alínea h) do Código dos Contratos Públicos",,,,,,Não aplicável.,Não aplicável.,
Aquisição de novo software Visio e Project Professional,Ajuste Direto Regime Geral,Aquisição de serviços,"72212000-4, Serviços de programação de software de aplicação","INFARMED - Autoridade Nacional do Medicamento e Produtos de Saúde, I.P. (600037002)","Informática El Corte Inglês, S.A. (980079659)","39.314,61 €",31-03-2011,18-02-2011,365 dias,"Portugal, Lisboa, Lisboa","Artigo 27.º, n.º 1, alínea h) do Código dos Contratos Públicos",,,,,,Não aplicável.,Não aplicável.,
Desenvolvimento no Sistema de Gestão de Ensaios Clínicos da Comissão de Ética para a Investigação Clínica (GECC),Ajuste Direto Regime Geral,Aquisição de serviços,"50312610-4, Manutenção de equipamento para as tecnologias da informação","INFARMED - Autoridade Nacional do Medicamento e Produtos de Saúde, I.P. (600037002)","Timestamp - Sistemas de Informação, S.A. (506360237)","10.750,00 €",31-03-2011,22-03-2011,40 dias,"Portugal, Lisboa, Lisboa","Artigo 27.º, n.º 1, alínea h) do Código dos Contratos Públicos",,,,,,Não aplicável.,Não aplicável.,
Deslocação em serviço a Bruxelas; MDEG; 1 Participante.,Ajuste Direto Regime Geral,Aquisição de serviços,"63510000-7, Serviços de agências de viagens e serviços similares","INFARMED - Autoridade Nacional do Medicamento e Produtos de Saúde, I.P. (600037002)","RASO - Viagens e Turismo, S.A. (500886113)","745,78 €",29-03-2011,28-03-2011,3 dias,"Portugal, Lisboa, Lisboa","Artigo 27.º, n.º 1, alínea h) do Código dos Contratos Públicos",,,,,,Não aplicável.,Não aplicável.,
Deslocação em serviço a Estrasburgo; Grupo 6 da Farmacopeia Europeia; 1 Participante.,Ajuste Direto Regime Geral,Aquisição de serviços,"63510000-7, Serviços de agências de viagens e serviços similares","INFARMED - Autoridade Nacional do Medicamento e Produtos de Saúde, I.P. (600037002)","BCD TRAVEL PORTUGAL – Agência de Viagens, Lda. (500291110)","1.311,58 €",29-03-2011,28-03-2011,4 dias,"Portugal, Lisboa, Lisboa","Artigo 27.º, n.º 1, alínea h) do Código dos Contratos Públicos",,,,,,Não aplicável.,Não aplicável.,
Deslocação em serviço a Bruxelas; PEMSAC; 1 Praticipante.,Ajuste Direto Regime Geral,Aquisição de serviços,"63510000-7, Serviços de agências de viagens e serviços similares","INFARMED - Autoridade Nacional do Medicamento e Produtos de Saúde, I.P. (600037002)","BCD TRAVEL PORTUGAL – Agência de Viagens, Lda. (500291110)","675,49 €",29-03-2011,28-03-2011,2 dias,"Portugal, Lisboa, Lisboa","Artigo 27.º, n.º 1, alínea h) do Código dos Contratos Públicos",,,,,,Não aplicável.,Não aplicável.,
Deslocação em serviço a Londres; BEMA; 1 Participante.,Ajuste Direto Regime Geral,Aquisição de serviços,"63510000-7, Serviços de agências de viagens e serviços similares","INFARMED - Autoridade Nacional do Medicamento e Produtos de Saúde, I.P. (600037002)","BCD TRAVEL PORTUGAL – Agência de Viagens, Lda. (500291110)","186,96 €",29-03-2011,28-03-2011,2 dias,"Portugal, Lisboa, Lisboa","Artigo 27.º, n.º 1, alínea h) do Código dos Contratos Públicos",,,,,,Não aplicável.,Não aplicável.,
Deslocação em serviço a Budapeste; Presidency Meeting of the Pharmacovigilance; 1 Participante.,Ajuste Direto Regime Geral,Aquisição de serviços,"63510000-7, Serviços de agências de viagens e serviços similares","INFARMED - Autoridade Nacional do Medicamento e Produtos de Saúde, I.P. (600037002)","BCD TRAVEL PORTUGAL – Agência de Viagens, Lda. (500291110)","566,56 €",29-03-2011,28-03-2011,3 dias,"Portugal, Lisboa, Lisboa","Artigo 27.º, n.º 1, alínea h) do Código dos Contratos Públicos",,,,,,Não aplicável.,Não aplicável.,
Deslocação em serviço a Bruxelas; Health Conference; 1 Participante.,Ajuste Direto Regime Geral,Aquisição de serviços,"63510000-7, Serviços de agências de viagens e serviços similares","INFARMED - Autoridade Nacional do Medicamento e Produtos de Saúde, I.P. (600037002)","BCD TRAVEL PORTUGAL – Agência de Viagens, Lda. (500291110)","1.088,34 €",29-03-2011,28-03-2011,3 dias,"Portugal, Lisboa, Lisboa","Artigo 27.º, n.º 1, alínea h) do Código dos Contratos Públicos",,,,,,Não aplicável.,Não aplicável.,
Deslocação em serviço a Estrasburgo; Standard Terms Working Party; 1 Participante.,Ajuste Direto Regime Geral,Aquisição de serviços,"63510000-7, Serviços de agências de viagens e serviços similares","INFARMED - Autoridade Nacional do Medicamento e Produtos de Saúde, I.P. (600037002)","BCD TRAVEL PORTUGAL – Agência de Viagens, Lda. (500291110)","205,92 €",29-03-2011,28-03-2011,3 dias,"Portugal, Lisboa, Lisboa","Artigo 27.º, n.º 1, alínea h) do Código dos Contratos Públicos",,,,,,Não aplicável.,Não aplicável.,
Deslocação em serviço em Estrasburgo; Reunião da Farmecopeia Europeia; 1 Participante.,Ajuste Direto Regime Geral,Aquisição de serviços,"63510000-7, Serviços de agências de viagens e serviços similares","INFARMED - Autoridade Nacional do Medicamento e Produtos de Saúde, I.P. (600037002)","BCD TRAVEL PORTUGAL – Agência de Viagens, Lda. (500291110)","205,92 €",29-03-2011,18-03-2011,4 dias,"Portugal, Lisboa, Lisboa","Artigo 27.º, n.º 1, alínea h) do Código dos Contratos Públicos",,,,,,Não aplicável.,Não aplicável.,
Deslocação em serviço,Ajuste Direto Regime Geral,Aquisição de serviços,"63510000-7, Serviços de agências de viagens e serviços similares","INFARMED - Autoridade Nacional do Medicamento e Produtos de Saúde, I.P. (600037002)","OSIRIS - Viagens e Turismo, Lda. (505259397)","716,96 €",29-03-2011,28-03-2011,2 dias,"Portugal, Lisboa, Lisboa","Artigo 27.º, n.º 1, alínea h) do Código dos Contratos Públicos",,,,,,Não aplicável.,Não aplicável.,
Deslocação em serviço a Bruxelas; Health Conference; 1 Particioante.,Ajuste Direto Regime Geral,Aquisição de serviços,"63510000-7, Serviços de agências de viagens e serviços similares","INFARMED - Autoridade Nacional do Medicamento e Produtos de Saúde, I.P. (600037002)","OSIRIS - Viagens e Turismo, Lda. (505259397)","570,44 €",29-03-2011,28-03-2011,1 dias,"Portugal, Lisboa, Lisboa","Artigo 27.º, n.º 1, alínea h) do Código dos Contratos Públicos",,,,,,Não aplicável.,Não aplicável.,
Deslocação em serviço a S. Tomé; Visita; 1 Participante.,Ajuste Direto Regime Geral,Aquisição de serviços,"63510000-7, Serviços de agências de viagens e serviços similares","INFARMED - Autoridade Nacional do Medicamento e Produtos de Saúde, I.P. (600037002)","TOPATLANTICO – Viagens e Turismo, S.A. (501061126)","340,00 €",25-03-2011,24-03-2011,3 dias,"Portugal, Lisboa, Lisboa","Artigo 27.º, n.º 1, alínea h) do Código dos Contratos Públicos",,,,,,Não aplicável.,Não aplicável.,
Diversos trabalhos de construção civil no pAv. 17.,Ajuste Direto Regime Geral,Aquisição de serviços,"45000000-7, Construção","INFARMED - Autoridade Nacional do Medicamento e Produtos de Saúde, I.P. (600037002)","AMPLO & MODERNO - Construção Civil, Lda. (509614841)","16.930,00 €",23-03-2011,26-02-2011,30 dias,"Portugal, Lisboa, Lisboa","Artigo 20.º, n.º 1, alínea a) do Código dos Contratos Públicos",,,,,,Não aplicável.,Não aplicável.,
Deslocação em serviço a Estrasburgo ; P-SC-COS; 1 Participante.,Ajuste Direto Regime Geral,Aquisição de serviços,"63510000-7, Serviços de agências de viagens e serviços similares","INFARMED - Autoridade Nacional do Medicamento e Produtos de Saúde, I.P. (600037002)","BCD TRAVEL PORTUGAL – Agência de Viagens, Lda. (500291110)","1.136,70 €",22-03-2011,21-03-2011,5 dias,"Portugal, Lisboa, Lisboa","Artigo 27.º, n.º 1, alínea h) do Código dos Contratos Públicos",,,,,,Não aplicável.,Não aplicável.,
Deslocação em serviço a Bruxelas; Regulation of Cosmetic Products; 1 Participante,Ajuste Direto Regime Geral,Aquisição de serviços,"63510000-7, Serviços de agências de viagens e serviços similares","INFARMED - Autoridade Nacional do Medicamento e Produtos de Saúde, I.P. (600037002)","BCD TRAVEL PORTUGAL – Agência de Viagens, Lda. (500291110)","1.085,03 €",22-03-2011,21-03-2011,2 dias,"Portugal, Lisboa, Lisboa","Artigo 27.º, n.º 1, alínea h) do Código dos Contratos Públicos",,,,,,Não aplicável.,Não aplicável.,
Deslocação em serviço a Bruxelas; Second Joint Action on HTA; 1 Participante.,Ajuste Direto Regime Geral,Aquisição de serviços,"63510000-7, Serviços de agências de viagens e serviços similares","INFARMED - Autoridade Nacional do Medicamento e Produtos de Saúde, I.P. (600037002)","BCD TRAVEL PORTUGAL – Agência de Viagens, Lda. (500291110)","187,20 €",22-03-2011,21-03-2011,2 dias,"Portugal, Lisboa, Lisboa","Artigo 27.º, n.º 1, alínea h) do Código dos Contratos Públicos",,,,,,Não aplicável.,Não aplicável.,
Deslocação em serviço a Bruxelas; Innovation in Healthcare; 1 Participante.,Ajuste Direto Regime Geral,Aquisição de serviços,"63510000-7, Serviços de agências de viagens e serviços similares","INFARMED - Autoridade Nacional do Medicamento e Produtos de Saúde, I.P. (600037002)","BCD TRAVEL PORTUGAL – Agência de Viagens, Lda. (500291110)","541,86 €",22-03-2011,21-03-2011,3 dias,"Portugal, Lisboa, Lisboa","Artigo 27.º, n.º 1, alínea h) do Código dos Contratos Públicos",,,,,,Não aplicável.,Não aplicável.,
Deslocação em serviço a Guimarães; Sessão de esclarecimento Hospital; 4 Participantes.,Ajuste Direto Regime Geral,Aquisição de serviços,"63510000-7, Serviços de agências de viagens e serviços similares","INFARMED - Autoridade Nacional do Medicamento e Produtos de Saúde, I.P. (600037002)","BCD TRAVEL PORTUGAL – Agência de Viagens, Lda. (500291110)","236,00 €",22-03-2011,21-03-2011,2 dias,"Portugal, Lisboa, Lisboa","Artigo 27.º, n.º 1, alínea h) do Código dos Contratos Públicos",,,,,,Não aplicável.,Não aplicável.,
Deslocação em serviço a Bruxelas; PEMSAC; 1 Participante.,Ajuste Direto Regime Geral,Aquisição de serviços,"63510000-7, Serviços de agências de viagens e serviços similares","INFARMED - Autoridade Nacional do Medicamento e Produtos de Saúde, I.P. (600037002)","BCD TRAVEL PORTUGAL – Agência de Viagens, Lda. (500291110)","774,20 €",22-03-2011,21-03-2011,2 dias,"Portugal, Lisboa, Lisboa","Artigo 32.º, n.º 2, alínea b) do Código dos Contratos Públicos",,,,,,Não aplicável.,Não aplicável.,
Deslocação em serviço a Londres; CMD(h)+CMD+HMA.,Ajuste Direto Regime Geral,Aquisição de serviços,"63510000-7, Serviços de agências de viagens e serviços similares","INFARMED - Autoridade Nacional do Medicamento e Produtos de Saúde, I.P. (600037002)","BCD TRAVEL PORTUGAL – Agência de Viagens, Lda. (500291110)","1.763,06 €",22-03-2011,21-03-2011,4 dias,"Portugal, Lisboa, Lisboa","Artigo 27.º, n.º 1, alínea h) do Código dos Contratos Públicos",,,,,,Não aplicável.,Não aplicável.,
Deslocação em serviço a Londres; CM(h); 1 Participante.,Ajuste Direto Regime Geral,Aquisição de serviços,"63510000-7, Serviços de agências de viagens e serviços similares","INFARMED - Autoridade Nacional do Medicamento e Produtos de Saúde, I.P. (600037002)","BCD TRAVEL PORTUGAL – Agência de Viagens, Lda. (500291110)","988,70 €",22-03-2011,21-03-2011,3 dias,"Portugal, Lisboa, Lisboa","Artigo 27.º, n.º 1, alínea h) do Código dos Contratos Públicos",,,,,,Não aplicável.,Não aplicável.,
Deslocação em serviço a Estrasburgo; P-SC-COS; 1 Participante.,Ajuste Direto Regime Geral,Aquisição de serviços,"63510000-7, Serviços de agências de viagens e serviços similares","INFARMED - Autoridade Nacional do Medicamento e Produtos de Saúde, I.P. (600037002)","RASO - Viagens e Turismo, S.A. (500886113)","941,48 €",22-03-2011,21-03-2011,3 dias,"Portugal, Lisboa, Lisboa","Artigo 27.º, n.º 1, alínea h) do Código dos Contratos Públicos",,,,,,Não aplicável.,Não aplicável.,
Deslocação em serviço a Bruxelas; Medicamentos Falsificados; 1 Paticipante.,Ajuste Direto Regime Geral,Aquisição de serviços,"63510000-7, Serviços de agências de viagens e serviços similares","INFARMED - Autoridade Nacional do Medicamento e Produtos de Saúde, I.P. (600037002)","RASO - Viagens e Turismo, S.A. (500886113)","784,94 €",22-03-2011,21-03-2011,3 dias,"Portugal, Lisboa, Lisboa","Artigo 27.º, n.º 1, alínea h) do Código dos Contratos Públicos",,,,,,Não aplicável.,Não aplicável.,
Deslocação em serviço a Bruxelas; EUDAMED; 1 Participante.,Ajuste Direto Regime Geral,Aquisição de serviços,"63510000-7, Serviços de agências de viagens e serviços similares","INFARMED - Autoridade Nacional do Medicamento e Produtos de Saúde, I.P. (600037002)","RASO - Viagens e Turismo, S.A. (500886113)","784,94 €",22-03-2011,21-03-2011,3 dias,"Portugal, Lisboa, Lisboa","Artigo 27.º, n.º 1, alínea h) do Código dos Contratos Públicos",,,,,,Não aplicável.,Não aplicável.,
Deslocação em serviço a Bruxelas; GMDM; 1 Participante.,Ajuste Direto Regime Geral,Aquisição de serviços,"63510000-7, Serviços de agências de viagens e serviços similares","INFARMED - Autoridade Nacional do Medicamento e Produtos de Saúde, I.P. (600037002)","RASO - Viagens e Turismo, S.A. (500886113)","873,09 €",22-03-2011,21-03-2011,3 dias,"Portugal, Lisboa, Lisboa","Artigo 27.º, n.º 1, alínea h) do Código dos Contratos Públicos",,,,,,Não aplicável.,Não aplicável.,
Deslocação em serviço a Bruxelas; EUDAMED; 1 Participante.,Ajuste Direto Regime Geral,Aquisição de serviços,"63510000-7, Serviços de agências de viagens e serviços similares","INFARMED - Autoridade Nacional do Medicamento e Produtos de Saúde, I.P. (600037002)","RASO - Viagens e Turismo, S.A. (500886113)","873,09 €",22-03-2011,21-03-2011,3 dias,"Portugal, Lisboa, Lisboa","Artigo 27.º, n.º 1, alínea h) do Código dos Contratos Públicos",,,,,,Não aplicável.,Não aplicável.,
Deslocação em serviço a Londres; Management Board; 1 Participante.,Ajuste Direto Regime Geral,Aquisição de serviços,"63510000-7, Serviços de agências de viagens e serviços similares","INFARMED - Autoridade Nacional do Medicamento e Produtos de Saúde, I.P. (600037002)","RASO - Viagens e Turismo, S.A. (500886113)","361,27 €",22-03-2011,21-03-2011,2 dias,"Portugal, Lisboa, Lisboa","Artigo 27.º, n.º 1, alínea h) do Código dos Contratos Públicos",,,,,,Não aplicável.,Não aplicável.,
Deslocação em serviço a Londres; Ph V 1WG Plenary; 1 Participante.,Ajuste Direto Regime Geral,Aquisição de serviços,"63510000-7, Serviços de agências de viagens e serviços similares","INFARMED - Autoridade Nacional do Medicamento e Produtos de Saúde, I.P. (600037002)","OÁSIS – Viagens e Turismo, S.A. (501821627)","533,07 €",22-03-2011,21-03-2011,2 dias,"Portugal, Lisboa, Lisboa","Artigo 27.º, n.º 1, alínea h) do Código dos Contratos Públicos",,,,,,Não aplicável.,Não aplicável.,
Deslocação em serviço a Budapeste; HMA; 1 Participante,Ajuste Direto Regime Geral,Aquisição de serviços,"63510000-7, Serviços de agências de viagens e serviços similares","INFARMED - Autoridade Nacional do Medicamento e Produtos de Saúde, I.P. (600037002)","OSIRIS - Viagens e Turismo, Lda. (505259397)","435,23 €",22-03-2011,21-03-2011,3 dias,"Portugal, Lisboa, Lisboa","Artigo 27.º, n.º 1, alínea h) do Código dos Contratos Públicos",,,,,,Não aplicável.,Não aplicável.,
"Deslocação em serviço a Estrasburgo, CDPPHPC-EDQM, 1 Participante.",Ajuste Direto Regime Geral,Aquisição de serviços,"63510000-7, Serviços de agências de viagens e serviços similares","INFARMED - Autoridade Nacional do Medicamento e Produtos de Saúde, I.P. (600037002)","OSIRIS - Viagens e Turismo, Lda. (505259397)","914,63 €",22-03-2011,21-03-2011,3 dias,"Portugal, Lisboa, Lisboa","Artigo 27.º, n.º 1, alínea h) do Código dos Contratos Públicos",,,,,,Não aplicável.,Não aplicável.,
