Objeto do Contrato,Tipo de Procedimento,Tipo(s) de Contrato,CPVs,Entidade(s) Adjudicante(s),Entidade(s) Adjudicatária(s),Preço Contratual,Data de Publicação,Data de Celebração do Contrato,Prazo de Execução,Local de Execução,Fundamentação,Data de Fecho do Contrato,Preço Total Efetivo,Causas das Alterações ao Prazo,Causas das Alterações ao Preço,Estado,N.º registo do Acordo Quadro,Descrição do Acordo Quadro,Procedimento Centralizado
Obras de Substituição das Luminárias nos Arruamentos das traseiras - 2.ª fase,Ajuste Direto Regime Geral,Empreitadas de obras públicas,"50000000-5, Serviços de reparação e manutenção","Hospital de Magalhães Lemos, E. P. E. (502828790)","Sistelmar - Sociedade de Cosntruções, Lda (502634308)","32.285,00 €",15-12-2015,21-09-2015,30 dias,"Portugal, Porto, Porto","Artigo 19.º, alínea a) do Código dos Contratos Públicos",,"32.285,00 €","Pedido de porrogação de prazo de inicio de trabalhos em virtude de falta de material, devidamente autorizado",,,Não aplicável.,Não aplicável.,FALSE
"Aquisição de prestação de serviços de Seguros no ramo de acidentes de trabalho para o período de 6 meses, eventualmente renovável por mais 6 meses",Ajuste Direto Regime Geral,Aquisição de serviços,"66510000-8, Serviços de seguros","Hospital de Magalhães Lemos, E. P. E. (502828790)","Dias da Costa Corretores de Seguros, Lda (503355623)","47.991,58 €",14-12-2015,15-05-2015,180 dias,"Portugal, Porto, Porto","Artigo 20.º, n.º 1, alínea a) do Código dos Contratos Públicos",,"","",,,Não aplicável.,Não aplicável.,FALSE
"Obras de Remodelação dos Radiadores do Sistema de Aquecimento do Edifício D 2.º Piso Esq. D3 do Hospital de Magalhães Lemos, EPE",Ajuste Direto Regime Geral,Empreitadas de obras públicas,"45310000-3, Obras de instalação eléctrica","Hospital de Magalhães Lemos, E. P. E. (502828790)","Luís Gonzaga - Cosntruções, Lda (500610533)","13.523,50 €",14-12-2015,14-09-2015,30 dias,"Portugal, Porto, Porto","Artigo 19.º, alínea a) do Código dos Contratos Públicos",,"","",,,Não aplicável.,Não aplicável.,FALSE
