Objeto do Contrato,Tipo de Procedimento,Tipo(s) de Contrato,CPVs,Entidade(s) Adjudicante(s),Entidade(s) Adjudicatária(s),Preço Contratual,Data de Publicação,Data de Celebração do Contrato,Prazo de Execução,Local de Execução,Fundamentação,Data de Fecho do Contrato,Preço Total Efetivo,Causas das Alterações ao Prazo,Causas das Alterações ao Preço,Estado,N.º registo do Acordo Quadro,Descrição do Acordo Quadro,Procedimento Centralizado
DERIVADOS DO PLASMA HUMANO (CP 2012/9 - SPMS),Ao abrigo de acordo-quadro (art.º 259.º),Aquisição de bens móveis,"33141520-1, Derivados do plasma","Centro Hospitalar do Baixo Vouga, E. P. E (CHBV, E. P. E.) (510123210)","CSL BEHRING,LDA (503047201), OCTAPHARMA-PROD.FARMACEUT,LDA (502820780), TAKEDA - FARMACÊUTICOS PORTUGAL LDA. (502801204)","956.725,00 €",19-03-2014,13-01-2014,352 dias,"Portugal, Aveiro",Artigo 259.º do Código dos Contratos Públicos,"","",,,,535788,"CONCURSO PÚBLICO PARA A CELEBRAÇÃO DE CONTRATOSPÚBLICOS DE APROVISIONAMENTO PARA A ÁREA DA SAÚDE, COM VISTA AO FORNECIMENTO DE DERIVADOS DO PLASMA HUMANOÀS INSTITUIÇÕES E SERVIÇOS DO SERVIÇO NACIONAL DE SAÚDE",FALSE
HORMONAS E OUTROS MED.USADOS NO TRAT.DOENÇAS ENDOC.(CP 2013/7 - SPMS),Ao abrigo de acordo-quadro (art.º 259.º),Aquisição de bens móveis,"33640000-8, Medicamentos para o aparelho geniturinário e hormonas","Centro Hospitalar do Baixo Vouga, E. P. E (CHBV, E. P. E.) (510123210)","LABESFAL-LAB.ALMIRO,SA (501169580), D.L.A.-FARMACEUTICA,SA (503894427), GENERIS FARMACEUTICA, SA (508107997), LILLY PORTUGAL - PRODUTOS FARMACEUTICOS, LDA (500165602), SANOFI - PRODUTOS FARMACÊUTICOS, LDA (500134960), LABORATORIOS PFIZER,LDA (500162166)","51.469,21 €",19-03-2014,13-01-2014,352 dias,"Portugal, Aveiro",Artigo 259.º do Código dos Contratos Públicos,"","",,,,603979,"CONCURSO PÚBLICO PARA A CELEBRAÇÃO DE CONTRATOS PÚBLICOS DE APROVISIONAMENTO PARA A ÁREA DA SAÚDE, COM VISTA AO FORNECIMENTO DE HORMONAS E OUTROS MEDICAMENTOS USADOS NO TRATAMENTO DAS DOENÇAS ENDÓCRINAS, ÀS INSTITUIÇÕES E SERVIÇOS DO SERVIÇO NACIONAL DE SAÚDE",FALSE
MEDICAMENTOS DO FORO ONCOLÓGICO II (SPMS - 2012/6),Ao abrigo de acordo-quadro (art.º 259.º),Aquisição de bens móveis,"33652000-5, Antineoplásicos e imunomoduladores","Centro Hospitalar do Baixo Vouga, E. P. E (CHBV, E. P. E.) (510123210)","JANSSEN-CILAG FARMACÊUTICA, LDA. (500189412), MEDAC - SUCURSAL EM PORTUGAL (980369959), BIOGEN IDEC PORTUGAL,LDA (506415740), MERCK SHARP & DOHME, LDA (500191360), IPSEN PORTUGAL,SA (502609800), ROCHE FARMACEUTICA QUIMICA,LDA (500233810), FRESENIUS KABI PHARMA PORTUGAL, LDA (504293753), LILLY PORTUGAL - PRODUTOS FARMACEUTICOS, LDA (500165602), HOSPIRA PORTUGAL, LDA. (502918098), BAYER PORTUGAL, S.A. (500043256), BAXTER MEDICO-FARMACEUTICA, LDA (503347345), NOVARTIS FARMA-PROD.FARMAC,LDA (500063524), BRISTOL - MYERS SQUIBB, S.A. (500048193), ABBVIE, LDA (510229050), TEVA PHARMA-PROD.FARMACEUT,LDA (507045491), GENERIS FARMACEUTICA, SA (508107997)","1.540.694,09 €",19-03-2014,13-01-2014,352 dias,"Portugal, Aveiro",Artigo 259.º do Código dos Contratos Públicos,"","",,,,383205,CONCURSO PÚBLICO PARA A CELEBRAÇÃO DE CONTRATOS PÚBLICOS DE APROVISIONAMENTO PARA AQUISIÇÃO MEDICAMENTOS DO FORO ONCOLÓGICO II,FALSE
"CONTRATO DE AQUISIÇÃO DE 2 COMPUTADORES PORTÁTEIS, NO ÂMBITO DO PROCEDIMENTO DE AQUISIÇÃO 20140075 REALIZADO AO ABRIGO DO ACORDO QUADRO """"EQUIPAMENTO INFORMÁTICO"""" - LOTE 2, CELEBRADO PELA ENTIDADE DE SERVIÇOS PARTILHADOS DA ADMINISTRAÇÃO PÚBLICA, IP (ESPAP)",Ao abrigo de acordo-quadro (art.º 259.º),Aquisição de bens móveis,"30200000-1, Equipamento e material informático","Centro Hospitalar do Baixo Vouga, E. P. E (CHBV, E. P. E.) (510123210)","Informática El Corte Inglés, S.A. (980079659)","853,00 €",18-03-2014,26-02-2014,45 dias,"Portugal, Aveiro, Aveiro",Artigo 259.º do Código dos Contratos Públicos,14-04-2014,"853,00 €",,,,181482,Concurso limitado por prévia qualificação para a celebração de acordo quadro de equipamento informático.,FALSE
"CONTRATO DE AQUISIÇÃO DE 40 MONITORES, NO ÂMBITO DO PROCEDIMENTO DE AQUISIÇÃO 20140075 REALIZADO AO ABRIGO DO ACORDO QUADRO """"EQUIPAMENTO INFORMÁTICO"""" - LOTE 5, CELEBRADO PELA ENTIDADE DE SERVIÇOS PARTILHADOS DA ADMINISTRAÇÃO PÚBLICA, IP (ESPAP)",Ao abrigo de acordo-quadro (art.º 259.º),Aquisição de bens móveis,"30200000-1, Equipamento e material informático","Centro Hospitalar do Baixo Vouga, E. P. E (CHBV, E. P. E.) (510123210)","Basedois - Informática e Telecomunicações, Lda. (501333401)","4.000,00 €",18-03-2014,27-02-2014,45 dias,"Portugal, Aveiro, Aveiro",Artigo 259.º do Código dos Contratos Públicos,11-06-2014,"4.000,00 €",,,,181482,Concurso limitado por prévia qualificação para a celebração de acordo quadro de equipamento informático.,FALSE
Fornecimento de Agulhas,Ajuste Direto Regime Geral,Aquisição de bens móveis,"33141320-9, Agulhas para fins médicos","Centro Hospitalar do Baixo Vouga, E.P.E. (510123210)","Overpharma, Produtos Médicos e Farmacêuticos, Lda (505792362)","324,30 €",18-03-2014,14-01-2014,365 dias,"Portugal, Aveiro, Aveiro",Artigo 258.º do Código dos Contratos Públicos,"","",,,,Não aplicável.,Não aplicável.,FALSE
aquisição de serviços de manutenção do software MAXPRO,Ao abrigo de acordo-quadro (art.º 258.º),Aquisição de serviços,"72000000-5, Serviços de TI: consultoria, desenvolvimento de software, Internet e apoio","Centro Hospitalar do Baixo Vouga, E. P. E (CHBV, E. P. E.) (510123210)","SISQUAL - Empresa de I&D de Sistemas Informáticos, Lda (502772298)","11.285,00 €",14-03-2014,21-02-2014,365 dias,"Portugal, Aveiro, Aveiro",Artigo 258.º do Código dos Contratos Públicos,"","",,,,563867,"Procedimento 30/2013 Acordo Quadro para a prestação de serviços de consultadoria, desenvolvimento e manutenção de software",FALSE
