Objeto do Contrato,Tipo de Procedimento,Tipo(s) de Contrato,CPVs,Entidade(s) Adjudicante(s),Entidade(s) Adjudicatária(s),Preço Contratual,Data de Publicação,Data de Celebração do Contrato,Prazo de Execução,Local de Execução,Fundamentação,Data de Fecho do Contrato,Preço Total Efetivo,Causas das Alterações ao Prazo,Causas das Alterações ao Preço,Estado,N.º registo do Acordo Quadro,Descrição do Acordo Quadro,Procedimento Centralizado
Convite ao abrigo do acordo quadro - Aquisição de serviços de software as a Service (SAAS) da Ferramenta de Gestão de Serviço Easyvista e Service APPS,Ao abrigo de acordo-quadro (art.º 259.º),Aquisição de serviços<br/>Aquisição de bens móveis,"48218000-9, Pacote de software para gestão de licenças","SPMS - Serviços Partilhados do Ministério da Saúde, E. P. E. (509540716)",Cilnet Comunicações SA (505267772),"247.477,50 €",20-04-2018,20-03-2018,1095 dias,Portugal,Artigo 259.º do Código dos Contratos Públicos,"","",,,,610968,Acordo quadro de licenciamento de software e serviços conexos,FALSE
"Aquisição de serviços de ligação à coletora:  Ligação da SPMS, EPE à coletora ",Ajuste Direto Regime Geral,Aquisição de serviços,"64215000-6, Serviços telefónicos IP","SPMS - Serviços Partilhados do Ministério da Saúde, E. P. E. (509540716)","ONI TELECOM - INFOCOMUNICAÇÕES,S.A. (504073206)","6.000,00 €",19-04-2018,26-02-2018,365 dias,Portugal,"Artigo 20.º, n.º 1, alínea a) do Código dos Contratos Públicos","","",,,,Não aplicável.,Não aplicável.,FALSE
"Aquisição de serviços de ligação à coletora: Ligação da SPMS, EPE à coletora no âmbito do Acordo de Cooperação com a União das Misericórdias Portuguesas",Ajuste Direto Regime Geral,Aquisição de serviços,"64215000-6, Serviços telefónicos IP","SPMS - Serviços Partilhados do Ministério da Saúde, E. P. E. (509540716)","ONI TELECOM - INFOCOMUNICAÇÕES,S.A. (504073206)","3.614,40 €",19-04-2018,26-02-2018,710 dias,Portugal,"Artigo 20.º, n.º 1, alínea a) do Código dos Contratos Públicos","","",,,,Não aplicável.,Não aplicável.,FALSE
Aquisição de serviços de vigilância nas instalações da SPMS em Lisboa e no Porto,Ajuste Direto Regime Geral,Aquisição de serviços,"79710000-4, Serviços de segurança","SPMS - Serviços Partilhados do Ministério da Saúde, E. P. E. (509540716)","Securitas - Serviços e Tecnologia de Segurança, S.A. (500243719)","33.125,52 €",19-04-2018,28-02-2018,90 dias,Portugal,"Artigo 20.º, n.º 1, alínea a) do Código dos Contratos Públicos","","",,,,Não aplicável.,Não aplicável.,FALSE
Aquisição de serviços especializados para apoio à DCRP e UAG - Lote 2 - UAG,Concurso público,Aquisição de serviços,"79342200-5, Serviços de promoção","SPMS - Serviços Partilhados do Ministério da Saúde, E. P. E. (509540716)","Solidnetworks - Business Consulting, Lda. (508991579)","30.000,01 €",19-04-2018,17-01-2018,365 dias,Portugal,"Artigo 21.º, n.º 1, alínea b) do Código dos Contratos Públicos","","",,,,Não aplicável.,Não aplicável.,FALSE
Serviços para suporte e manutenção corretiva  -  Lote 2 – Serviços de análise e desenvolvimento de Webservices no âmbito do Registo Nacional de Utentes (RNU),Concurso público,Aquisição de serviços,"72500000-0, Serviços relacionados com a informática","SPMS - Serviços Partilhados do Ministério da Saúde, E. P. E. (509540716)","AltranPortugal, S.A. (504272179)","116.793,60 €",19-04-2018,20-03-2018,365 dias,Portugal,"Artigo 21.º, n.º 1, alínea b) do Código dos Contratos Públicos","","",,,,Não aplicável.,Não aplicável.,FALSE
Serviços para suporte e manutenção corretiva  -  Lote 1 – Serviços TIC para suporte e manutenção corretiva ao registo nacional do testamento vital (RENTEV),Concurso público,Aquisição de serviços,"72500000-0, Serviços relacionados com a informática","SPMS - Serviços Partilhados do Ministério da Saúde, E. P. E. (509540716)","AltranPortugal, S.A. (504272179)","57.404,16 €",19-04-2018,20-03-2018,710 dias,Portugal,"Artigo 21.º, n.º 1, alínea b) do Código dos Contratos Públicos","","",,,,Não aplicável.,Não aplicável.,FALSE
Aquisição de serviços de viagens e alojamento - lote 2 - Território Internacional,Concurso público,Aquisição de serviços,"63000000-9, Serviços anexos e auxiliares dos transportes; serviços de agências de viagens","SPMS - Serviços Partilhados do Ministério da Saúde, E. P. E. (509540716)","OSIRIS - Viagens e Turismo, Lda (505259397)","85.000,00 €",19-04-2018,01-03-2018,710 dias,Portugal,"Artigo 21.º, n.º 1, alínea b) do Código dos Contratos Públicos","","",,,,Não aplicável.,Não aplicável.,FALSE
Aquisição de Serviços de apoio logístico à SPMS,Ajuste Direto Regime Geral,Aquisição de serviços,"51510000-0, Serviços de instalação de máquinas e equipamento de uso geral","SPMS - Serviços Partilhados do Ministério da Saúde, E. P. E. (509540716)",José Luis Gomes de Azevedo (162637047),"74.500,00 €",19-04-2018,12-02-2018,1052 dias,Portugal,"Artigo 20.º, n.º 1, alínea a) do Código dos Contratos Públicos","","",,,,Não aplicável.,Não aplicável.,FALSE
Aquisição de serviços para desenvolvimento do voucher de Acesso Integrado (VAI),Concurso público,Aquisição de serviços,"72500000-0, Serviços relacionados com a informática","SPMS - Serviços Partilhados do Ministério da Saúde, E. P. E. (509540716)","AltranPortugal, S.A. (504272179)","173.747,20 €",19-04-2018,02-01-2018,120 dias,Portugal,"Artigo 20.º, n.º 2, alínea b), subalínea i) do Código dos Contratos Públicos","","",,,,Não aplicável.,Não aplicável.,FALSE
Licenciamento para agrupador Grupos de Diagnósticos Homogéneos (GDH),Concurso público,Aquisição de serviços,"72000000-5, Serviços de TI: consultoria, desenvolvimento de software, Internet e apoio","SPMS - Serviços Partilhados do Ministério da Saúde, E. P. E. (509540716)",SIGESA - Sistemas de Gestão de Saúde (Portugal) Lda (509661319),"310.000,00 €",18-04-2018,09-04-2018,265 dias,Portugal,"Artigo 21.º, n.º 1, alínea b) do Código dos Contratos Públicos",08-05-2018,"310.000,00 €",,,,Não aplicável.,Não aplicável.,FALSE
Aquisição de material diverso para apoio à realização de eventos,Ajuste Direto Regime Geral,Aquisição de bens móveis,"30192700-8, Artigos de papelaria","SPMS - Serviços Partilhados do Ministério da Saúde, E. P. E. (509540716)","VGCF - Produções Unipessoal, Lda (510681999)","20.000,00 €",18-04-2018,27-03-2018,278 dias,Portugal,"Artigo 20.º, n.º 1, alínea a) do Código dos Contratos Públicos",19-04-2018,"20.000,00 €",,,,Não aplicável.,Não aplicável.,FALSE
Aquisição de infraestrutura de segurança e serviços de instalação/suporte para a ACSS,Concurso público,Aquisição de bens móveis,"32424000-1, Infra-estrutura de rede","SPMS- Serviços Partilhados do M. da Saúde, E.P.E. (509540716)","Iten Solutions - Sistemas de Informação, S.A. (510728189)","15.300,24 €",18-04-2018,02-02-2018,60 dias,Portugal,"Artigo 21.º, n.º 1, alínea b) do Código dos Contratos Públicos","","",,,,Não aplicável.,Não aplicável.,FALSE
Convite ao abrigo do acordo quadro - Aquisição de Serviços especializados para apoio à Direção de Sistemas de Informação ao Conselho de Administração,Ao abrigo de acordo-quadro (art.º 259.º),Aquisição de serviços,"75112100-5, Serviços administrativos relacionados com projectos de desenvolvimento","SPMS- Serviços Partilhados do M. da Saúde, E.P.E. (509540716)","Iten Solutions - Sistemas de Informação, S.A. (510728189)","54.362,88 €",18-04-2018,18-01-2018,420 dias,Portugal,Artigo 259.º do Código dos Contratos Públicos,"","",,,,1950010,Acordo quadro para Prestação de Serviços de Consultadoria na área da Saúde e Segurança   às Instituições e Serviços do Serviço Nacional de Saúde,FALSE
Aquisição de serviços de ligação à coletora das Santas Casas da Misericórdia,Ajuste Direto Regime Geral,Aquisição de serviços,"64215000-6, Serviços telefónicos IP","SPMS - Serviços Partilhados do Ministério da Saúde, E. P. E. (509540716)","Meo-Serviços de Comunicações e Multimédia, S.A (504615947)","2.400,00 €",18-04-2018,16-03-2018,365 dias,Portugal,"Artigo 20.º, n.º 1, alínea a) do Código dos Contratos Públicos","","",,,,Não aplicável.,Não aplicável.,FALSE
Aquisição de Serviços especializados no âmbito do Registo Oncológico Nacional,Ajuste Direto Regime Geral,Aquisição de serviços,"72500000-0, Serviços relacionados com a informática","SPMS- Serviços Partilhados do M. da Saúde, E.P.E. (509540716)",IT-SECTOR- SISTEMAS DE INFORMAÇÃO S.A. (507291727),"61.408,95 €",18-04-2018,09-02-2018,325 dias,Portugal,"Artigo 20.º, n.º 1, alínea a) do Código dos Contratos Públicos","","",,,,Não aplicável.,Não aplicável.,FALSE
CP-AC-2018-02 Aquisição de carteiras de ácido no âmbito do programa troca de seringas,Concurso público,Aquisição de bens móveis,"33000000-0, Equipamento médico, medicamentos e produtos para cuidados pessoais","SPMS - Serviços Partilhados do Ministério da Saúde, E. P. E. (509540716)","Infosaúde, Instituto de Formação e Inovação em Saúde Unipessoal Lda. (505215330)","48.000,00 €",12-04-2018,14-03-2018,365 dias,"Portugal, Lisboa, Lisboa","Artigo 20.º, n.º 1, alínea a) do Código dos Contratos Públicos","","",,,,Não aplicável.,Não aplicável.,FALSE
"CP/2017-123 Aquisição de serviços de armazenamento, produção e distribuição de kits no âmbito do programa troca de seringas para prevenção do VIH/SIDA",Concurso público,Aquisição de serviços,"85000000-9, Serviços de saúde e acção social","SPMS- Serviços Partilhados do M. da Saúde, E.P.E. (509540716)",Efervescente - Design e Comunicação Lda. (506738400),"119.368,00 €",12-04-2018,07-03-2018,365 dias,"Portugal, Lisboa, Lisboa","Artigo 20.º, n.º 1, alínea a) do Código dos Contratos Públicos","","",,,,Não aplicável.,Não aplicável.,FALSE
CP-AC-2018-04 Concuso público urgente para aquisição de seringas de insulina no âmbito do programa troca de seringas para prevenção do VIH/SIDA,Concurso público,Aquisição de bens móveis,"33000000-0, Equipamento médico, medicamentos e produtos para cuidados pessoais","SPMS - Serviços Partilhados do Ministério da Saúde, E. P. E. (509540716)",B. Braun Medical Lda. (501506543),"74.000,00 €",12-04-2018,15-03-2018,365 dias,"Portugal, Lisboa, Lisboa",Artigo 155.º do Código dos Contratos Públicos,"","",,,,Não aplicável.,Não aplicável.,FALSE
