Objeto do Contrato,Tipo de Procedimento,Tipo(s) de Contrato,CPVs,Entidade(s) Adjudicante(s),Entidade(s) Adjudicatária(s),Preço Contratual,Data de Publicação,Data de Celebração do Contrato,Prazo de Execução,Local de Execução,Fundamentação,Data de Fecho do Contrato,Preço Total Efetivo,Causas das Alterações ao Prazo,Causas das Alterações ao Preço,Estado,N.º registo do Acordo Quadro,Descrição do Acordo Quadro,Procedimento Centralizado
Aquisição de vacinas da gripe sazonal para o ano de 2014,Ajuste Direto Regime Geral,Aquisição de bens móveis,"33651600-4, Vacinas","Administração Central do Sistema de Saúde, I. P. (508188423)",Glaxo Group Limited (0544017061336),"1.500.000,00 €",08-01-2015,19-08-2014,60 dias,Portugal,"Artigo 26.º, n.º 1, alínea e) do Código dos Contratos Públicos",31-12-2014,"1.500.000,00 €",,,,Não aplicável.,Não aplicável.,FALSE
Contrato de aquisição de serviços para a revisão do programa Funcional do Hospital de Lisboa Oriental (HLO),Ajuste Direto Regime Geral,Aquisição de serviços,"79000000-4, Serviços a empresas: direito, comercialização, consultoria, recrutamento, impressão e segurança","Administração Central do Sistema de Saúde, I. P. (508188423)",Intersalus - Consultoria e Gestão. Lda (506580490),"68.000,00 €",06-01-2015,06-11-2014,60 dias,"Portugal, Lisboa, Lisboa","Artigo 20.º, n.º 1, alínea a) do Código dos Contratos Públicos",31-12-2014,"68.000,00 €",,,,Não aplicável.,Não aplicável.,FALSE
