Objeto do Contrato,Tipo de Procedimento,Tipo(s) de Contrato,CPVs,Entidade(s) Adjudicante(s),Entidade(s) Adjudicatária(s),Preço Contratual,Data de Publicação,Data de Celebração do Contrato,Prazo de Execução,Local de Execução,Fundamentação,Data de Fecho do Contrato,Preço Total Efetivo,Causas das Alterações ao Prazo,Causas das Alterações ao Preço,Estado,N.º registo do Acordo Quadro,Descrição do Acordo Quadro,Procedimento Centralizado
"Aquisição de serviços de atualização do programa informático de reembolsos instalados na ARSC,IP",Ajuste Direto Regime Geral,Aquisição de serviços,"50000000-5, Serviços de reparação e manutenção","Administração Regional de Saúde do Centro, I. P. (503122165)",Ricardo Jorge Cantador Romano (236078143),"8.113,82 €",29-11-2018,29-10-2018,20 dias,"Portugal, Coimbra","Artigo 20.º, n.º 1, alínea d) do Código dos Contratos Públicos",02-01-2019,"8.113,82 €",,,,Não aplicável.,Não aplicável.,FALSE
Proc 18700915 Aquisição de máquinas fotográficas digitais para os ACES Baixo Mondego e Dão Lafões,Ajuste Direto Regime Geral,Aquisição de bens móveis,"33000000-0, Equipamento médico, medicamentos e produtos para cuidados pessoais","Administração Regional de Saúde do Centro, I. P. (503122165)","Trífida - Comércio de Material Infromático, Lda (504551663)","9.044,95 €",28-11-2018,02-11-2018,10 dias,"Portugal, Coimbra, Coimbra<BR/>Portugal, Viseu, Viseu","Artigo 20.º, n.º 1, alínea d) do Código dos Contratos Públicos","","",,,,Não aplicável.,Não aplicável.,FALSE
Aquisição de chassis de raio x,Ajuste Direto Regime Geral,Aquisição de bens móveis,"33000000-0, Equipamento médico, medicamentos e produtos para cuidados pessoais","Administração Regional de Saúde do Centro, I. P. (503122165)","Carestream Health Portugal, Lda. (508054320)","4.101,60 €",27-11-2018,22-06-2018,66 dias,"Portugal, Viseu, Viseu","Artigo 24.º, n.º 1, alínea e), subalínea ii) do Código dos Contratos Públicos",27-11-2018,"4.101,60 €",,,,Não aplicável.,Não aplicável.,FALSE
Aquisição de diversos testes rápidos - C.P. 2015073,Ao abrigo de acordo-quadro (art.º 259.º),Aquisição de bens móveis,"33600000-6, Produtos farmacêuticos","Administração Regional de Saúde do Centro, I. P. (503122165)","Quilaban - Química Laboratorial Analítica, S.A (500399670)","3.086,72 €",27-11-2018,26-11-2018,36 dias,"Portugal, Coimbra",Artigo 259.º do Código dos Contratos Públicos,10-12-2018,"3.086,72 €",,,,1555404,CP 2015/73 - Acordo quadro para fornecimento de Reagentes - Testes Rápidos às Instituições e Serviços do Serviço Nacional de Saúde,FALSE
Aquisição de reagentes análise sumária na urina e determinação glicose no sangue,Consulta Prévia,Aquisição de bens móveis,"33694000-1, Meios de diagnóstico","Administração Regional de Saúde do Centro, I. P. (503122165)","MED TRUST Portugal, Unipessoal, Lda. (510862993)","4.200,00 €",27-11-2018,26-11-2018,36 dias,"Portugal<BR/>Portugal, Coimbra","Artigo 20.º, n.º 1, alínea c) do Código dos Contratos Públicos",26-11-2018,"4.200,00 €",,,,Não aplicável.,Não aplicável.,FALSE
Aquisição de reagentes análise sumária na urina e determinação glicose no sangue,Consulta Prévia,Aquisição de bens móveis,"33694000-1, Meios de diagnóstico","Administração Regional de Saúde do Centro, I. P. (503122165)","IBERLAB & IMUNOREAGE-SOLUC.LABORATORIO,LDA. (503406694)","3.121,20 €",27-11-2018,26-11-2018,36 dias,"Portugal<BR/>Portugal, Coimbra","Artigo 20.º, n.º 1, alínea c) do Código dos Contratos Públicos",27-11-2018,"3.121,20 €",,,,Não aplicável.,Não aplicável.,FALSE
