Objeto do Contrato,Tipo de Procedimento,Tipo(s) de Contrato,CPVs,Entidade(s) Adjudicante(s),Entidade(s) Adjudicatária(s),Preço Contratual,Data de Publicação,Data de Celebração do Contrato,Prazo de Execução,Local de Execução,Fundamentação,Data de Fecho do Contrato,Preço Total Efetivo,Causas das Alterações ao Prazo,Causas das Alterações ao Preço,Estado,N.º registo do Acordo Quadro,Descrição do Acordo Quadro,Procedimento Centralizado
Aquisição de material de ortopedia - AjD 42201417,Ajuste Direto Regime Geral,Aquisição de bens móveis,"33140000-3, Material médico de consumo",Centro Hospitalar do Oeste (510412009),"JOHNSON & JOHNSON, LDA (500153370)","9.440,00 €",28-11-2017,31-05-2017,1 dias,"Portugal, Leiria, Caldas da Rainha","Artigo 20.º, n.º 1, alínea a) do Código dos Contratos Públicos",31-05-2017,"9.440,00 €",,,,Não aplicável.,Não aplicável.,FALSE
Aquisição de reagentes bioquímica - AjD 80024117,Ajuste Direto Regime Geral,Aquisição de bens móveis,"33696500-0, Reagentes de laboratório",Centro Hospitalar do Oeste (510412009),"Abbott Laboratórios, Lda. (500006148)","9.640,08 €",28-11-2017,29-05-2017,1 dias,"Portugal, Leiria, Caldas da Rainha","Artigo 20.º, n.º 1, alínea a) do Código dos Contratos Públicos",29-05-2017,"9.640,08 €",,,,Não aplicável.,Não aplicável.,FALSE
Aquisição de reagentes imunologia - AjD 80024217,Ajuste Direto Regime Geral,Aquisição de bens móveis,"33696500-0, Reagentes de laboratório",Centro Hospitalar do Oeste (510412009),"Abbott Laboratórios, Lda. (500006148)","6.638,70 €",28-11-2017,29-05-2017,1 dias,"Portugal, Leiria, Caldas da Rainha","Artigo 20.º, n.º 1, alínea a) do Código dos Contratos Públicos",29-05-2017,"6.638,70 €",,,,Não aplicável.,Não aplicável.,FALSE
Aquisição de reagentes bioquimica - AjD 80017517,Ajuste Direto Regime Geral,Aquisição de bens móveis,"33696500-0, Reagentes de laboratório",Centro Hospitalar do Oeste (510412009),"Abbott Laboratórios, Lda. (500006148)","5.240,37 €",28-11-2017,20-04-2017,1 dias,"Portugal, Leiria, Caldas da Rainha","Artigo 20.º, n.º 1, alínea a) do Código dos Contratos Públicos",20-04-2017,"5.240,37 €",,,,Não aplicável.,Não aplicável.,FALSE
Aquisição de reagentes imunologia - AjD 80015617,Ajuste Direto Regime Geral,Aquisição de bens móveis,"33696500-0, Reagentes de laboratório",Centro Hospitalar do Oeste (510412009),"Abbott Laboratórios, Lda. (500006148)","5.427,00 €",28-11-2017,06-04-2017,1 dias,"Portugal, Leiria, Caldas da Rainha","Artigo 20.º, n.º 1, alínea a) do Código dos Contratos Públicos",06-04-2017,"5.427,00 €",,,,Não aplicável.,Não aplicável.,FALSE
Aquisição de prótese da hérnia biológica - AjD 42291917,Ajuste Direto Regime Geral,Aquisição de bens móveis,"33140000-3, Material médico de consumo",Centro Hospitalar do Oeste (510412009),"MOONSURGE - IMPORT.  EXP. MATERIAL MEDICO,LDA (506657035)","6.550,00 €",27-11-2017,11-08-2017,1 dias,"Portugal, Leiria, Caldas da Rainha","Artigo 20.º, n.º 1, alínea a) do Código dos Contratos Públicos",11-08-2017,"6.550,00 €",,,,Não aplicável.,Não aplicável.,FALSE
Aquisição de material de ortopedia - AjD 42294117,Ajuste Direto Regime Geral,Aquisição de bens móveis,"33140000-3, Material médico de consumo",Centro Hospitalar do Oeste (510412009),"STRYKER PORTUGAL PRODUTOS MEDICOS,LDA (504594214)","5.385,02 €",27-11-2017,16-08-2017,1 dias,"Portugal, Leiria, Caldas da Rainha","Artigo 20.º, n.º 1, alínea a) do Código dos Contratos Públicos",16-08-2017,"5.385,02 €",,,,Não aplicável.,Não aplicável.,FALSE
