Objeto do Contrato,Tipo de Procedimento,Tipo(s) de Contrato,CPVs,Entidade(s) Adjudicante(s),Entidade(s) Adjudicatária(s),Preço Contratual,Data de Publicação,Data de Celebração do Contrato,Prazo de Execução,Local de Execução,Fundamentação,Data de Fecho do Contrato,Preço Total Efetivo,Causas das Alterações ao Prazo,Causas das Alterações ao Preço,Estado,N.º registo do Acordo Quadro,Descrição do Acordo Quadro,Procedimento Centralizado
420138/2018 Aquisição de âncoras,Ajuste Direto Regime Geral,Aquisição de bens móveis,"33000000-0, Equipamento médico, medicamentos e produtos para cuidados pessoais","Hospital Distrital de Santarém, E. P. E. (506361462)",Smith & Nephew (503552461),"3.721,00 €",05-11-2018,23-10-2018,90 dias,"Portugal, Santarém, Santarém","Artigo 20.º, n.º 1, alínea d) do Código dos Contratos Públicos",,,,,,Não aplicável.,Não aplicável.,FALSE
270016/2018 Fornecimento montagem mobiliário administrativo,Consulta Prévia,Aquisição de bens móveis,"39000000-2, Mobiliário (incl. de escritório), acessórios, aparelhos domésticos (excl. iluminação) e produtos de limpeza","Hospital Distrital de Santarém, E. P. E. (506361462)","APRI Mobiliário,Telecomunicações Informática, Lda (503046361)","82,00 €",02-11-2018,03-09-2018,30 dias,"Portugal, Santarém, Santarém","Artigo 20.º, n.º 1, alínea c) do Código dos Contratos Públicos",,,,,,Não aplicável.,Não aplicável.,FALSE
270016/2018 Fornecimento montagem mobiliário administrativo,Consulta Prévia,Aquisição de bens móveis,"39000000-2, Mobiliário (incl. de escritório), acessórios, aparelhos domésticos (excl. iluminação) e produtos de limpeza","Hospital Distrital de Santarém, E. P. E. (506361462)","LPG, Consultoria e Representações, Lda (510956890)","211,80 €",02-11-2018,03-09-2018,30 dias,"Portugal, Santarém, Santarém","Artigo 20.º, n.º 1, alínea c) do Código dos Contratos Públicos",,,,,,Não aplicável.,Não aplicável.,FALSE
270016/2018 Fornecimento montagem mobiliário administrativo,Consulta Prévia,Aquisição de bens móveis,"39000000-2, Mobiliário (incl. de escritório), acessórios, aparelhos domésticos (excl. iluminação) e produtos de limpeza","Hospital Distrital de Santarém, E. P. E. (506361462)","LOMM Mobiliário Metálico, Lda (503629294)","786,40 €",02-11-2018,03-09-2018,30 dias,"Portugal, Santarém, Santarém","Artigo 20.º, n.º 1, alínea c) do Código dos Contratos Públicos",,,,,,Não aplicável.,Não aplicável.,FALSE
270016/2018 Fornecimento montagem mobiliário administrativo,Consulta Prévia,Aquisição de bens móveis,"39000000-2, Mobiliário (incl. de escritório), acessórios, aparelhos domésticos (excl. iluminação) e produtos de limpeza","Hospital Distrital de Santarém, E. P. E. (506361462)","EUROSHELVES - ESTANTES METÁLICAS, LDA (504204440)","720,00 €",02-11-2018,03-09-2018,30 dias,"Portugal, Santarém, Santarém","Artigo 20.º, n.º 1, alínea c) do Código dos Contratos Públicos",,,,,,Não aplicável.,Não aplicável.,FALSE
270016/2018 Fornecimento montagem mobiliário administrativo,Consulta Prévia,Aquisição de bens móveis,"39000000-2, Mobiliário (incl. de escritório), acessórios, aparelhos domésticos (excl. iluminação) e produtos de limpeza","Hospital Distrital de Santarém, E. P. E. (506361462)","Marcage Interiors, SA (510810535)","7.817,80 €",02-11-2018,03-09-2018,30 dias,"Portugal, Santarém, Santarém","Artigo 20.º, n.º 1, alínea c) do Código dos Contratos Públicos",,,,,,Não aplicável.,Não aplicável.,FALSE
