Objeto do Contrato,Tipo de Procedimento,Tipo(s) de Contrato,CPVs,Entidade(s) Adjudicante(s),Entidade(s) Adjudicatária(s),Preço Contratual,Data de Publicação,Data de Celebração do Contrato,Prazo de Execução,Local de Execução,Fundamentação,Data de Fecho do Contrato,Preço Total Efetivo,Causas das Alterações ao Prazo,Causas das Alterações ao Preço,Estado,N.º registo do Acordo Quadro,Descrição do Acordo Quadro,Procedimento Centralizado
MEDICAÇÃO ANTIALÉRGICA,Ajuste Direto Regime Geral,Aquisição de bens móveis,"33675000-2, Anti-histamínicos de uso sistémico","Centro Hospitalar do Baixo Vouga, E. P. E (CHBV, E. P. E.) (510123210)","UCB PHARMA-PROD.FARMACEUT,LDA (500291322), LABORATORIOS VITORIA (500162220)","1.025,70 €",21-05-2014,31-03-2014,275 dias,"Portugal, Aveiro","Artigo 20.º, n.º 1, alínea a) do Código dos Contratos Públicos",,,,,,Não aplicável.,Não aplicável.,FALSE
MEDICAMENTOS DO APARELHO LOCOMOTOR,Ajuste Direto Regime Geral,Aquisição de bens móveis,"33630000-5, Medicamentos usados em dermatologia e para o aparelho músculo-esquelético","Centro Hospitalar do Baixo Vouga, E. P. E (CHBV, E. P. E.) (510123210)","LABORATORIOS VITORIA (500162220), BENE FARMACÊUTICA, LDA (508735696), ABBVIE, LDA (510229050)","30.253,68 €",20-05-2014,27-03-2014,279 dias,"Portugal, Aveiro","Artigo 20.º, n.º 1, alínea a) do Código dos Contratos Públicos",,,,,,Não aplicável.,Não aplicável.,FALSE
HORMONAS E MEDICAMENTOS USADOS NO TRATAMENTO DAS DOENÇAS ENDÓCRINAS,Ajuste Direto Regime Geral,Aquisição de bens móveis,"33652200-7, Medicamentos usados na terapêutica endócrina","Centro Hospitalar do Baixo Vouga, E. P. E (CHBV, E. P. E.) (510123210)","LILLY PORTUGAL - PRODUTOS FARMACEUTICOS, LDA (500165602)","403,36 €",19-05-2014,03-04-2014,272 dias,"Portugal, Aveiro","Artigo 20.º, n.º 1, alínea a) do Código dos Contratos Públicos",,,,,,Não aplicável.,Não aplicável.,FALSE
MEDICAMENTOS DO APARELHO GENITURINÁRIO,Ajuste Direto Regime Geral,Aquisição de bens móveis,"33640000-8, Medicamentos para o aparelho geniturinário e hormonas","Centro Hospitalar do Baixo Vouga, E. P. E (CHBV, E. P. E.) (510123210)","LABORATORIOS PFIZER,LDA (500162166)","7.792,20 €",19-05-2014,14-03-2014,290 dias,"Portugal, Aveiro","Artigo 20.º, n.º 1, alínea a) do Código dos Contratos Públicos",,,,,,Não aplicável.,Não aplicável.,FALSE
MEDICAMENTOS DO APARELHO DIGESTIVO,Ajuste Direto Regime Geral,Aquisição de bens móveis,"33610000-9, Medicamentos para o tracto digestivo e o metabolismo","Centro Hospitalar do Baixo Vouga, E.P.E. (510123210)","TAKEDA - FARMACÊUTICOS PORTUGAL LDA. (502801204), ANGELINI FARMACEUTICA,LDA (500583650)","1.539,25 €",13-05-2014,25-02-2014,309 dias,"Portugal, Aveiro","Artigo 20.º, n.º 1, alínea a) do Código dos Contratos Públicos",,,,,,Não aplicável.,Não aplicável.,FALSE
MEDICAMENTOS DO SANGUE,Ajuste Direto Regime Geral,Aquisição de bens móveis,"33620000-2, Medicamentos para o sangue, para os órgãos hematopoiéticos e para o aparelho cardiovascular","Centro Hospitalar do Baixo Vouga, E.P.E. (510123210)","NOVARTIS FARMA-PROD.FARMAC,LDA (500063524), BAXTER MEDICO-FARMACEUTICA, LDA (503347345)","649,05 €",13-05-2014,25-02-2014,309 dias,"Portugal, Aveiro","Artigo 20.º, n.º 1, alínea a) do Código dos Contratos Públicos",,,,,,Não aplicável.,Não aplicável.,FALSE
"Aquisição de Serviços de Manutenção da Aplicação SIIMA E HEPIC Instalados em Entidades no Ministério da Saúde, para o ano de 2014.",Ao abrigo de acordo-quadro (art.º 259.º),Aquisição de serviços,"50312610-4, Manutenção de equipamento para as tecnologias da informação","Centro Hospitalar do Baixo Vouga, E. P. E (CHBV, E. P. E.) (510123210)","First Solutions - Sistemas de Informação, S.A. (505345978)","31.234,54 €",13-05-2014,28-04-2014,275 dias,"Portugal, Aveiro, Aveiro",Artigo 259.º do Código dos Contratos Públicos,,,,,,563867,"Procedimento 30/2013 Acordo Quadro para a prestação de serviços de consultadoria, desenvolvimento e manutenção de software",FALSE
"Manutenção e Assistência Téncica à Solução PICIS Caresuite e aos PACS SYNGO Instalagos no Ministério da Saúde, para o ano de 2014.",Ao abrigo de acordo-quadro (art.º 259.º),Aquisição de serviços,"50312610-4, Manutenção de equipamento para as tecnologias da informação","Centro Hospitalar do Baixo Vouga, E. P. E (CHBV, E. P. E.) (510123210)","Siemens, S.A. (500247480)","6.911,25 €",13-05-2014,31-03-2014,365 dias,"Portugal, Aveiro, Aveiro",Artigo 259.º do Código dos Contratos Públicos,,,,,,563867,"Procedimento 30/2013 Acordo Quadro para a prestação de serviços de consultadoria, desenvolvimento e manutenção de software",FALSE
