Objeto do Contrato,Tipo de Procedimento,Tipo(s) de Contrato,CPVs,Entidade(s) Adjudicante(s),Entidade(s) Adjudicatária(s),Preço Contratual,Data de Publicação,Data de Celebração do Contrato,Prazo de Execução,Local de Execução,Fundamentação,Data de Fecho do Contrato,Preço Total Efetivo,Causas das Alterações ao Prazo,Causas das Alterações ao Preço,Estado,N.º registo do Acordo Quadro,Descrição do Acordo Quadro,Procedimento Centralizado
"aquisição filtros AVAC para o Serviço de Instalações e Equipamentos do CHSJ, EPE",Ajuste Direto Regime Geral,Aquisição de bens móveis,"42514310-8, Filtros de ar","Centro Hospitalar São João, EPE (509821197)",IBERCONCEPT LDA (507212738),"21.929,68 €",30-08-2017,22-08-2017,60 dias,"Portugal, Porto, Porto","Artigo 20.º, n.º 1, alínea a) do Código dos Contratos Públicos",,,,,,Não aplicável.,Não aplicável.,FALSE
"Reparação do aspirador ultrassónico instalado no CHSJ,EPE",Ajuste Direto Regime Geral,Aquisição de serviços,"50000000-5, Serviços de reparação e manutenção","Centro Hospitalar de São João, E. P. E. (509821197)",SOCIME MEDICAL (504453939),"10.465,00 €",30-08-2017,30-08-2017,60 dias,"Portugal, Porto, Porto","Artigo 24.º, n.º 1, alínea c) do Código dos Contratos Públicos",,,,,,Não aplicável.,Não aplicável.,FALSE
"material electrico para o serviço de instalações e equipamentos do CHSJ, EPE",Ajuste Direto Regime Geral,Aquisição de bens móveis,"31680000-6, Aparelhos e acessórios eléctricos","Centro Hospitalar de São João, E. P. E. (509821197)","A Electrificadora,SA (500001529)","10.624,47 €",25-08-2017,07-07-2017,60 dias,"Portugal, Porto, Porto","Artigo 20.º, n.º 1, alínea a) do Código dos Contratos Públicos",,,,,,Não aplicável.,Não aplicável.,FALSE
"Aquisição de Serviços de Segurança da Informação e Sistemas de Gestão de Informação – Gestão do Risco e da Segurança de Informação para o Centro Hospitalar de São João, EPE",Ajuste Direto Regime Geral,Aquisição de serviços,"72000000-5, Serviços de TI: consultoria, desenvolvimento de software, Internet e apoio","Centro Hospitalar de São João, E. P. E. (509821197)","HLTSYS - HEALTHSYSTEMS, LDA (510552544)","99.690,00 €",24-08-2017,29-06-2017,90 dias,"Portugal, Porto, Porto","Artigo 24.º, n.º 1, alínea e) do Código dos Contratos Públicos",,,,,,Não aplicável.,Não aplicável.,FALSE
"Aquisição de serviços para gestão de projeto de implementação de um Repositório Clínico Digital (RCD), no Centro Hospitalar de São João, EPE",Ajuste Direto Regime Geral,Aquisição de serviços,"72000000-5, Serviços de TI: consultoria, desenvolvimento de software, Internet e apoio","Centro Hospitalar de São João, E. P. E. (509821197)","INESC TEC - Instituto de Engenharia de Sistemas e Computadores, Tecnologia e Ciência (504441361)","58.200,00 €",24-08-2017,01-06-2017,90 dias,"Portugal, Porto, Porto","Artigo 20.º, n.º 1, alínea a) do Código dos Contratos Públicos",,,,,,Não aplicável.,Não aplicável.,FALSE
"Aquisição de Serviços de Manutenção Física dos Bastidores da Rede Estruturada e de Postos de Trabalho do Centro Hospitalar de São João, EPE.",Ajuste Direto Regime Geral,Aquisição de serviços,"73000000-2, Serviços de investigação e desenvolvimento e serviços de consultoria conexos","Centro Hospitalar São João, EPE (509821197)","MAXIGLOBAL – EQUIPAMENTO E SERVIÇOS INFORMÁTICOS, SA (504320882)","7.100,00 €",24-08-2017,10-07-2017,90 dias,"Portugal, Porto, Porto","Artigo 20.º, n.º 1, alínea a) do Código dos Contratos Públicos",,,,,,Não aplicável.,Não aplicável.,FALSE
"Aquisição de material de Pichelaria para o Serviço de Instalações e Equipamentos do CHSJ, EPE",Ajuste Direto Regime Geral,Aquisição de bens móveis,"42670000-3, Peças e acessórios para máquinas-ferramentas","Centro Hospitalar de São João, E. P. E. (509821197)","MARIO GONCALVES,Lda. (500183872)","16.042,15 €",24-08-2017,04-07-2017,60 dias,"Portugal, Porto, Porto","Artigo 20.º, n.º 1, alínea a) do Código dos Contratos Públicos",,,,,,Não aplicável.,Não aplicável.,FALSE
Aquisição de serviços de gestão de projeto e coordenação de atividades do projeto de evolução tecnológica para o SONHOv2,Ajuste Direto Regime Geral,Aquisição de serviços,"72000000-5, Serviços de TI: consultoria, desenvolvimento de software, Internet e apoio","Centro Hospitalar de São João, E. P. E. (509821197)","Whymob, Lda (510856101)","73.920,00 €",24-08-2017,25-07-2017,90 dias,"Portugal, Porto, Porto","Artigo 20.º, n.º 1, alínea a) do Código dos Contratos Públicos",,,,,,Não aplicável.,Não aplicável.,FALSE
"14000317-Aquisição de Material de Construção Civil para o Serviço de Instalações e Equipamentos do CHSJ, EPE",Ajuste Direto Regime Geral,Aquisição de bens móveis,"44110000-4, Materiais de construção","Centro Hospitalar de São João, E. P. E. (509821197)",MAVISAN - MATERIAIS DE CONSTRUÇÃO (502769203),"15.883,80 €",24-08-2017,20-07-2017,60 dias,"Portugal, Porto, Porto","Artigo 20.º, n.º 1, alínea a) do Código dos Contratos Públicos",,,,,,Não aplicável.,Não aplicável.,FALSE
