Objeto do Contrato,Tipo de Procedimento,Tipo(s) de Contrato,CPVs,Entidade(s) Adjudicante(s),Entidade(s) Adjudicatária(s),Preço Contratual,Data de Publicação,Data de Celebração do Contrato,Prazo de Execução,Local de Execução,Fundamentação,Data de Fecho do Contrato,Preço Total Efetivo,Causas das Alterações ao Prazo,Causas das Alterações ao Preço,Estado,N.º registo do Acordo Quadro,Descrição do Acordo Quadro,Procedimento Centralizado
"Lavagem e Tratamento de Roupa ao Centro Hospitalar Póvoa de Varzim/ Vila do Conde, EPE",Ajuste Direto Regime Geral,Aquisição de serviços,"98310000-9, Serviços de lavagem e de limpeza a seco","Centro Hospitalar Póvoa de Varzim - Vila do Conde, E. P. E. (508741823)","CONFORLIMPA (TEJO),SA-LIMPEZAS INDUSTRIAIS,SA (503172588)","167.423,10 €",11-09-2015,01-01-2013,365 dias,"Portugal, Porto, Póvoa de Varzim<BR/>Portugal, Porto, Vila do Conde","Artigo 20.º, n.º 1, alínea a) do Código dos Contratos Públicos",,,,,,Não aplicável.,Não aplicável.,FALSE
"Prestação de Serviços de Segurança e Vigilância  ao Centro Hospitalar Póvoa de Varzim/ Vila do Conde, EPE nas Unidades Hospitalares da Póvoa de Varzim e Vila do Conde",Ajuste Direto Regime Geral,Aquisição de serviços,"79710000-4, Serviços de segurança","Centro Hospitalar Póvoa de Varzim - Vila do Conde, E. P. E. (508741823)","RONSEGUR-RONDAS E SEGURANÇA, LDA (507011724)","93.240,00 €",11-09-2015,01-01-2013,365 dias,"Portugal, Porto, Vila do Conde<BR/>Portugal, Porto, Póvoa de Varzim","Artigo 20.º, n.º 1, alínea a) do Código dos Contratos Públicos",,,,,,Não aplicável.,Não aplicável.,FALSE
"Prestação de serviços por médicos na especialidade de cirurgia geral, ao abrigo do contrato público de aprovisionamento, no âmbito de urgência e de outras atividades do Centro Hospitalar Póvoa de Varzim/Vila do Conde, EPE ",Ao abrigo de acordo-quadro (art.º 258.º),Aquisição de serviços,"79625000-1, Serviços de fornecimento de pessoal médico","Centro Hospitalar Póvoa de Varzim - Vila do Conde, E. P. E. (508741823)","HELPED-PRESTAÇÃO SERVIÇOS SAÚDE, LDA (506069010)","4.735,92 €",10-09-2015,01-10-2014,92 dias,"Portugal, Porto, Póvoa de Varzim",Artigo 258.º do Código dos Contratos Públicos,,,,,,454020,"CONCURSO PÚBLICO PARA A CELEBRAÇÃO DE CONTRATOS PÚBLICOS DE APROVISIONAMENTO PARA A ÁREA DA SAÚDE, COM VISTA À PRESTAÇÃO DE SERVIÇOS MÉDICOS ÀS INSTITUIÇÕES E SERVIÇOS DO SERVIÇO NACIONAL DE SAÚDE",FALSE
" Prestação de serviços por médicos na especialidade de cirurgia geral, ao abrigo do contrato público de aprovisionamento, no âmbito de urgência e de outras atividades do Centro Hospitalar Póvoa de Varzim/Vila do Conde, EPE ",Ao abrigo de acordo-quadro (art.º 258.º),Aquisição de serviços,"79625000-1, Serviços de fornecimento de pessoal médico","Centro Hospitalar Póvoa de Varzim - Vila do Conde, E. P. E. (508741823)","MEDIPEOPLE - SOLUÇÕES DE SAÚDE E EDUCAÇÃO, LDA (508543436)","33.845,28 €",10-09-2015,01-10-2014,92 dias,"Portugal, Porto, Póvoa de Varzim",Artigo 258.º do Código dos Contratos Públicos,,,,,,454020,"CONCURSO PÚBLICO PARA A CELEBRAÇÃO DE CONTRATOS PÚBLICOS DE APROVISIONAMENTO PARA A ÁREA DA SAÚDE, COM VISTA À PRESTAÇÃO DE SERVIÇOS MÉDICOS ÀS INSTITUIÇÕES E SERVIÇOS DO SERVIÇO NACIONAL DE SAÚDE",FALSE
