Objeto do Contrato,Tipo de Procedimento,Tipo(s) de Contrato,CPVs,Entidade(s) Adjudicante(s),Entidade(s) Adjudicatária(s),Preço Contratual,Data de Publicação,Data de Celebração do Contrato,Prazo de Execução,Local de Execução,Fundamentação,Data de Fecho do Contrato,Preço Total Efetivo,Causas das Alterações ao Prazo,Causas das Alterações ao Preço,Estado,N.º registo do Acordo Quadro,Descrição do Acordo Quadro,Procedimento Centralizado
AQ 1013O16 Medicamento Voriconazol e Pamidronato,Ao abrigo de acordo-quadro (art.º 259.º),Aquisição de bens móveis,"33600000-6, Produtos farmacêuticos","Centro Hospitalar de Leiria, E. P. E. (509822932)","LABORATORIOS PFIZER, LDA (500162166)","6.705,30 €",10-01-2017,07-11-2016,180 dias,"Portugal, Leiria, Leiria",Artigo 259.º do Código dos Contratos Públicos,"","","","",,1410779,CP 2015/47 - Acordo quadro para fornecimento de medicamentos do aparelho locomotor às instituições e serviços do serviço nacional de saúde,FALSE
AQ 1013O16 Medicamento Clozapina,Ao abrigo de acordo-quadro (art.º 259.º),Aquisição de bens móveis,"33600000-6, Produtos farmacêuticos","Centro Hospitalar de Leiria, E. P. E. (509822932)","LABESFAL-LABORATORIOS ALMIRO, SA (501169580)","91,98 €",10-01-2017,07-11-2016,180 dias,"Portugal, Leiria, Leiria",Artigo 259.º do Código dos Contratos Públicos,30-12-2016,"91,98 €","","",,1179911,"CONCURSO PÚBLICO PARA A CELEBRAÇÃO DE CONTRATOS PÚBLICOS DE APROVISIONAMENTO PARA A ÁREA DA SAÚDE, MEDICAMENTOS DO SISTEMA NERVOSO CEREBROSPINAL, EXCETO: ANESTÉSICOS, RELAXANTES MUSCULARES, ANALGÉSICOS, ANTIPIRÉTICOS, ANTIDEPRESSORES E ANTIPSICÓTICOS, ÀS INSTITUIÇÕES E SERVIÇOS DO SERVIÇO NACIONAL DE SAÚDE",FALSE
"AQ 1013O16 Medicamento Cefotaxima, Eritromicina e Clindamicina",Ao abrigo de acordo-quadro (art.º 259.º),Aquisição de bens móveis,"33600000-6, Produtos farmacêuticos","Centro Hospitalar de Leiria, E. P. E. (509822932)","LABESFAL-LABORATORIOS ALMIRO, SA (501169580)","5.537,00 €",10-01-2017,07-11-2016,180 dias,"Portugal, Leiria, Leiria",Artigo 259.º do Código dos Contratos Públicos,30-12-2016,"5.537,00 €","","",,1326195,ACORDO QUADRO PARA FORNECIMENTO DE MEDICAMENTOS ANTI-INFECIOSOS: EXCETO ANTIVÍRICOS E ANTIFÚNGICOS ÀS INSTITUIÇÕES E SERVIÇOS DO SERVIÇO NACIONAL DE SAÚDE,FALSE
AQ 1094O16 Medicamento Vinscristina,Ao abrigo de acordo-quadro (art.º 259.º),Aquisição de bens móveis,"33600000-6, Produtos farmacêuticos","Centro Hospitalar de Leiria, E. P. E. (509822932)","TEVA PHARMA-PRODUTOS FARMACEUTICOS, LDA (507045491)","27,90 €",10-01-2017,25-11-2016,30 dias,"Portugal, Leiria, Leiria",Artigo 259.º do Código dos Contratos Públicos,25-11-2016,"27,90 €","","",,1771819,CP 2015/6 - Acordo quadro para o fornecimento de Medicamentos do Foro Oncológico,FALSE
AQ 1094O16 Medicamento Doxorrubicina,Ao abrigo de acordo-quadro (art.º 259.º),Aquisição de bens móveis,"33600000-6, Produtos farmacêuticos","Centro Hospitalar de Leiria, E. P. E. (509822932)",MEDAC SUCURSAL PORTUGAL (980369959),"52,00 €",10-01-2017,25-11-2016,30 dias,"Portugal, Leiria, Leiria",Artigo 259.º do Código dos Contratos Públicos,25-11-2016,"52,00 €","","",,1771819,CP 2015/6 - Acordo quadro para o fornecimento de Medicamentos do Foro Oncológico,FALSE
AQ 1082O16 Agregação P259-AC-2016-89 Goserrelina,Ao abrigo de acordo-quadro (art.º 259.º),Aquisição de bens móveis,"33600000-6, Produtos farmacêuticos","Centro Hospitalar de Leiria, E. P. E. (509822932)","ASTRAZENECA-PRODUTOS FARMACEUTICOS,LDA (502942240)","134.113,35 €",10-01-2017,20-10-2016,180 dias,"Portugal, Leiria, Leiria",Artigo 259.º do Código dos Contratos Públicos,"","","","",,1771819,CP 2015/6 - Acordo quadro para o fornecimento de Medicamentos do Foro Oncológico,FALSE
AQ 1081O16 Agregação P259-AC-2016-88 Rituximab,Ao abrigo de acordo-quadro (art.º 259.º),Aquisição de bens móveis,"33600000-6, Produtos farmacêuticos","Centro Hospitalar de Leiria, E. P. E. (509822932)","ROCHE FARMACEUTICA QUIMICA, LDA (500233810)","16.382,08 €",10-01-2017,03-10-2016,180 dias,"Portugal, Leiria, Leiria",Artigo 259.º do Código dos Contratos Públicos,"","","","",,1771819,CP 2015/6 - Acordo quadro para o fornecimento de Medicamentos do Foro Oncológico,FALSE
AQ 1078O16 Agregação P259-AC-2016-97 Adalimumab,Ao abrigo de acordo-quadro (art.º 259.º),Aquisição de bens móveis,"33600000-6, Produtos farmacêuticos","Centro Hospitalar de Leiria, E. P. E. (509822932)","ABBVIE, LDA (510229050)","199.185,09 €",10-01-2017,14-09-2016,180 dias,"Portugal, Leiria, Leiria",Artigo 259.º do Código dos Contratos Públicos,"","","","",,1771819,CP 2015/6 - Acordo quadro para o fornecimento de Medicamentos do Foro Oncológico,FALSE
AQ 1077O16 Agregação P259-Ac-2016-81 Sorafenib,Ao abrigo de acordo-quadro (art.º 259.º),Aquisição de bens móveis,"33600000-6, Produtos farmacêuticos","Centro Hospitalar de Leiria, E. P. E. (509822932)","BAYER PORTUGAL, LDA (500043256)","38.734,08 €",10-01-2017,01-09-2016,180 dias,"Portugal, Leiria, Leiria",Artigo 259.º do Código dos Contratos Públicos,"","","","",,1771819,CP 2015/6 - Acordo quadro para o fornecimento de Medicamentos do Foro Oncológico,FALSE
AQ 1074O16 Agregação P259-AC-2016-90 IMATINIB,Ao abrigo de acordo-quadro (art.º 259.º),Aquisição de bens móveis,"33600000-6, Produtos farmacêuticos","Centro Hospitalar de Leiria, E. P. E. (509822932)","NOVARTIS FARMA-PRODUT.FARMACEUTICOS, SA (500063524)","160.714,32 €",10-01-2017,18-08-2016,180 dias,"Portugal, Leiria, Leiria",Artigo 259.º do Código dos Contratos Públicos,"","","","",,1771819,CP 2015/6 - Acordo quadro para o fornecimento de Medicamentos do Foro Oncológico,FALSE
AQ 1069O16 Agregação P259-AC-2016-67 Bevacizumab e Transtuzumab,Ao abrigo de acordo-quadro (art.º 259.º),Aquisição de bens móveis,"33600000-6, Produtos farmacêuticos","Centro Hospitalar de Leiria, E. P. E. (509822932)","ROCHE FARMACEUTICA QUIMICA, LDA (500233810)","394.072,35 €",10-01-2017,28-07-2016,180 dias,"Portugal, Leiria, Leiria",Artigo 259.º do Código dos Contratos Públicos,"","","","",,1224054,"CONCURSO PÚBLICO PARA A CELEBRAÇÃO DE CONTRATOS PÚBLICOS DE APROVISIONAMENTO PARA A ÁREA DA SAÚDE, COM VISTA AO FORNECIMENTO DE MEDICAMENTOS DO FORO ONCOLÓGICO II, ÀS INSTITUIÇÕES E SERVIÇOS DO SERVIÇO NACIONAL DE SAÚDE  ",FALSE
AQ 1068O16 Agregação P259-AC-2016-33 - Abiraterona e Ustecinumab,Ao abrigo de acordo-quadro (art.º 259.º),Aquisição de bens móveis,"33600000-6, Produtos farmacêuticos","Centro Hospitalar de Leiria, E. P. E. (509822932)","JANSSEN-CILAG FARMACEUTICA, LDA (500189412)","134.833,32 €",10-01-2017,28-07-2016,180 dias,"Portugal, Leiria, Leiria",Artigo 259.º do Código dos Contratos Públicos,"","","","",,1224054,"CONCURSO PÚBLICO PARA A CELEBRAÇÃO DE CONTRATOS PÚBLICOS DE APROVISIONAMENTO PARA A ÁREA DA SAÚDE, COM VISTA AO FORNECIMENTO DE MEDICAMENTOS DO FORO ONCOLÓGICO II, ÀS INSTITUIÇÕES E SERVIÇOS DO SERVIÇO NACIONAL DE SAÚDE  ",FALSE
1067O16 Agregação P259-AC-2016-31 Vinorrelbina,Ao abrigo de acordo-quadro (art.º 259.º),Aquisição de bens móveis,"33600000-6, Produtos farmacêuticos","Centro Hospitalar de Leiria, E. P. E. (509822932)",MEDAC SUCURSAL PORTUGAL (980369959),"700,00 €",10-01-2017,19-09-2016,180 dias,"Portugal, Leiria, Leiria",Artigo 259.º do Código dos Contratos Públicos,"","","","",,1771819,CP 2015/6 - Acordo quadro para o fornecimento de Medicamentos do Foro Oncológico,FALSE
1066O16 Agregação P259-AC-2016-66 Sunitinib,Ao abrigo de acordo-quadro (art.º 259.º),Aquisição de bens móveis,"33600000-6, Produtos farmacêuticos","Centro Hospitalar de Leiria, E. P. E. (509822932)","PFIZER BIOFARMACEUTICA, LDA. (513300376)","23.126,88 €",10-01-2017,19-07-2016,180 dias,"Portugal, Leiria, Leiria",Artigo 259.º do Código dos Contratos Públicos,"","","","",,1771819,CP 2015/6 - Acordo quadro para o fornecimento de Medicamentos do Foro Oncológico,FALSE
Medicamentos Diversos FALK PHARMA - AD1004E16,Ajuste Direto Regime Geral,Aquisição de bens móveis,"33600000-6, Produtos farmacêuticos","Centro Hospitalar de Leiria, E. P. E. (509822932)","DR.FALK PHARMA PORTUGAL SOC.UNIPESSOAL,L (506171612)","153,02 €",10-01-2017,24-08-2016,365 dias,"Portugal, Leiria, Leiria","Artigo 20.º, n.º 1, alínea a) do Código dos Contratos Públicos",31-12-2016,"153,02 €","","",,Não aplicável.,Não aplicável.,FALSE
1065O16 Agregação P259-AC-2016-35 Cetuximab,Ao abrigo de acordo-quadro (art.º 259.º),Aquisição de bens móveis,"33600000-6, Produtos farmacêuticos","Centro Hospitalar de Leiria, E. P. E. (509822932)","MERCK, SA (500650870)","165.440,00 €",10-01-2017,14-09-2016,180 dias,"Portugal, Leiria, Leiria",Artigo 259.º do Código dos Contratos Públicos,"","","","",,1224054,"CONCURSO PÚBLICO PARA A CELEBRAÇÃO DE CONTRATOS PÚBLICOS DE APROVISIONAMENTO PARA A ÁREA DA SAÚDE, COM VISTA AO FORNECIMENTO DE MEDICAMENTOS DO FORO ONCOLÓGICO II, ÀS INSTITUIÇÕES E SERVIÇOS DO SERVIÇO NACIONAL DE SAÚDE  ",FALSE
Medicamentos Diversos Bayer - AD1004E16,Ajuste Direto Regime Geral,Aquisição de bens móveis,"33600000-6, Produtos farmacêuticos","Centro Hospitalar de Leiria, E. P. E. (509822932)","BAYER PORTUGAL, LDA (500043256)","15,20 €",10-01-2017,20-02-2016,365 dias,"Portugal, Leiria, Leiria","Artigo 20.º, n.º 1, alínea a) do Código dos Contratos Públicos",31-12-2016,"15,20 €","","",,Não aplicável.,Não aplicável.,FALSE
Medicamentos Diversos Bausch e Lomb - AD1004E16,Ajuste Direto Regime Geral,Aquisição de bens móveis,"33600000-6, Produtos farmacêuticos","Centro Hospitalar de Leiria, E. P. E. (509822932)","BAUSCH E LOMB, SA (980218764)","4.756,15 €",10-01-2017,07-01-2016,365 dias,"Portugal, Leiria, Leiria","Artigo 20.º, n.º 1, alínea a) do Código dos Contratos Públicos",31-12-2016,"4.756,15 €","","",,Não aplicável.,Não aplicável.,FALSE
1064O16 Agregação P-259-AC-2016-51 Vinorrelbina,Ao abrigo de acordo-quadro (art.º 259.º),Aquisição de bens móveis,"33600000-6, Produtos farmacêuticos","Centro Hospitalar de Leiria, E. P. E. (509822932)","PIERRE FABRE MEDICAMENT PORTUGAL, LDA (500230366)","15.652,80 €",10-01-2017,18-07-2016,180 dias,"Portugal, Leiria, Leiria",Artigo 259.º do Código dos Contratos Públicos,"","","","",,1224054,"CONCURSO PÚBLICO PARA A CELEBRAÇÃO DE CONTRATOS PÚBLICOS DE APROVISIONAMENTO PARA A ÁREA DA SAÚDE, COM VISTA AO FORNECIMENTO DE MEDICAMENTOS DO FORO ONCOLÓGICO II, ÀS INSTITUIÇÕES E SERVIÇOS DO SERVIÇO NACIONAL DE SAÚDE  ",FALSE
Medicamentos Diversos B.BRAUN - AD1004E16,Ajuste Direto Regime Geral,Aquisição de bens móveis,"33600000-6, Produtos farmacêuticos","Centro Hospitalar de Leiria, E. P. E. (509822932)","B.BRAUN MEDICAL, LDA (501506543)","2.257,16 €",10-01-2017,05-01-2016,365 dias,"Portugal, Leiria, Leiria","Artigo 20.º, n.º 1, alínea a) do Código dos Contratos Públicos",31-12-2016,"2.257,16 €","","",,Não aplicável.,Não aplicável.,FALSE
1063O16 Agregação P259-AC-2016-40 GOLIMUMAB,Ao abrigo de acordo-quadro (art.º 259.º),Aquisição de bens móveis,"33600000-6, Produtos farmacêuticos","Centro Hospitalar de Leiria, E. P. E. (509822932)","MERCK SHARP E DOHME, LDA (500191360)","348.750,00 €",10-01-2017,14-09-2016,180 dias,"Portugal, Leiria, Leiria",Artigo 259.º do Código dos Contratos Públicos,"","","","",,1224054,"CONCURSO PÚBLICO PARA A CELEBRAÇÃO DE CONTRATOS PÚBLICOS DE APROVISIONAMENTO PARA A ÁREA DA SAÚDE, COM VISTA AO FORNECIMENTO DE MEDICAMENTOS DO FORO ONCOLÓGICO II, ÀS INSTITUIÇÕES E SERVIÇOS DO SERVIÇO NACIONAL DE SAÚDE  ",FALSE
Medicamentos Diversos AUROBINDO - AD 1004E16,Ajuste Direto Regime Geral,Aquisição de bens móveis,"33600000-6, Produtos farmacêuticos","Centro Hospitalar de Leiria, E. P. E. (509822932)","AUROBINDO PHARMA PORTUGAL, (UNIP.) LDA (508527465)","667,20 €",10-01-2017,08-01-2016,365 dias,"Portugal, Leiria, Leiria","Artigo 20.º, n.º 1, alínea a) do Código dos Contratos Públicos",31-12-2016,"667,20 €","","",,Não aplicável.,Não aplicável.,FALSE
1059O16 Agregação P259-AC-2016-37 Premetrexedo,Ao abrigo de acordo-quadro (art.º 259.º),Aquisição de bens móveis,"33600000-6, Produtos farmacêuticos","Centro Hospitalar de Leiria, E. P. E. (509822932)","LILLY PORTUGAL-PROD.FARMACEUTICOS, LDA (500165602)","4.397,85 €",10-01-2017,24-06-2016,180 dias,"Portugal, Leiria, Leiria",Artigo 259.º do Código dos Contratos Públicos,"","","","",,1224054,"CONCURSO PÚBLICO PARA A CELEBRAÇÃO DE CONTRATOS PÚBLICOS DE APROVISIONAMENTO PARA A ÁREA DA SAÚDE, COM VISTA AO FORNECIMENTO DE MEDICAMENTOS DO FORO ONCOLÓGICO II, ÀS INSTITUIÇÕES E SERVIÇOS DO SERVIÇO NACIONAL DE SAÚDE  ",FALSE
Medicamentos Diversos ALLOGA - AD1004E16,Ajuste Direto Regime Geral,Aquisição de bens móveis,"33600000-6, Produtos farmacêuticos","Centro Hospitalar de Leiria, E. P. E. (509822932)","ALLOGA PORTUGAL, LDA (504507230)","154,00 €",10-01-2017,15-03-2016,365 dias,"Portugal, Leiria, Leiria","Artigo 20.º, n.º 1, alínea a) do Código dos Contratos Públicos",31-12-2016,"154,00 €","","",,Não aplicável.,Não aplicável.,FALSE
MATERIAL DE PLÁSTICO DESCARTÁVEL,Ajuste Direto Regime Geral,Aquisição de bens móveis,"39222110-8, Pratos e talheres descartáveis","CENTRO HOSPITALAR DE LEIRIA, E.P.E. (509822932)","JOÃO ANTUNES AMARO, LDA. (500149003)","5.877,45 €",10-01-2017,06-01-2017,365 dias,"Portugal, Leiria, Leiria","Artigo 20.º, n.º 1, alínea a) do Código dos Contratos Públicos",29-12-2017,"5.560,20 €","",estimativas sobrestimadas,,Não aplicável.,Não aplicável.,FALSE
Medicamentos Diversos ACCORD - AD 1004E16,Ajuste Direto Regime Geral,Aquisição de bens móveis,"33600000-6, Produtos farmacêuticos","Centro Hospitalar de Leiria, E. P. E. (509822932)","ACCORD HEALTHCARE, UNIPESSOAL LDA (508622263)","1.855,90 €",10-01-2017,07-04-2016,365 dias,"Portugal, Leiria, Leiria","Artigo 20.º, n.º 1, alínea a) do Código dos Contratos Públicos",31-12-2016,"1.855,90 €","","",,Não aplicável.,Não aplicável.,FALSE
Medicamento Isoprenalina - AD 1033E16,Ajuste Direto Regime Geral,Aquisição de bens móveis,"33600000-6, Produtos farmacêuticos","Centro Hospitalar de Leiria, E. P. E. (509822932)",IDIS LIMITED (000000000),"3.100,00 €",10-01-2017,28-12-2016,60 dias,"Portugal, Leiria, Leiria","Artigo 24.º, n.º 1, alínea e) do Código dos Contratos Públicos",28-12-2016,"3.100,00 €","","",,Não aplicável.,Não aplicável.,FALSE
AQ 1028O16 Medicamento Hepatite C - Harvoni (10 tratamentos) e Sovaldi (4 tratamentos),Ao abrigo de acordo-quadro (art.º 259.º),Aquisição de bens móveis,"33600000-6, Produtos farmacêuticos","Centro Hospitalar de Leiria, E. P. E. (509822932)","GILEAD SCIENCES, LDA (503604704)","626.497,75 €",10-01-2017,14-07-2016,30 dias,"Portugal, Leiria, Leiria",Artigo 259.º do Código dos Contratos Públicos,14-07-2016,"626.497,75 €","","",,1422736,CP 2015/41 - ACORDO QUADRO PARA FORNECIMENTO DE MEDICAMENTOS ANTI-INFECIOSOS: ANTIVÍRICOS E ANTIFÚNGICOS ÀS INSTITUIÇÕES E SERVIÇOS DO SERVIÇO NACIONAL DE SAÚDE,FALSE
Medicamento Clorambucilo - AD 1033E16,Ajuste Direto Regime Geral,Aquisição de bens móveis,"33600000-6, Produtos farmacêuticos","Centro Hospitalar de Leiria, E. P. E. (509822932)","WePharma, LTD (000000000)","1.001,00 €",10-01-2017,28-12-2016,60 dias,"Portugal, Leiria, Leiria","Artigo 24.º, n.º 1, alínea e) do Código dos Contratos Públicos",28-12-2016,"1.001,00 €","","",,Não aplicável.,Não aplicável.,FALSE
AQ 1028O16 Medicamento Hepatite C - Harvoni (15 tratamentos)  e Sovaldi (6 tratamentos),Ao abrigo de acordo-quadro (art.º 259.º),Aquisição de bens móveis,"33600000-6, Produtos farmacêuticos","Centro Hospitalar de Leiria, E. P. E. (509822932)","GILEAD SCIENCES, LDA (503604704)","839.681,65 €",10-01-2017,21-04-2016,30 dias,"Portugal, Leiria, Leiria",Artigo 259.º do Código dos Contratos Públicos,21-04-2016,"839.681,65 €","","",,1422736,CP 2015/41 - ACORDO QUADRO PARA FORNECIMENTO DE MEDICAMENTOS ANTI-INFECIOSOS: ANTIVÍRICOS E ANTIFÚNGICOS ÀS INSTITUIÇÕES E SERVIÇOS DO SERVIÇO NACIONAL DE SAÚDE,FALSE
AQ 1028O16 - Medicamento Hepatite C - Harvoni (7 tratamentos) e Sovaldi (8 tratamentos),Ao abrigo de acordo-quadro (art.º 259.º),Aquisição de bens móveis,"33600000-6, Produtos farmacêuticos","Centro Hospitalar de Leiria, E. P. E. (509822932)","GILEAD SCIENCES, LDA (503604704)","621.816,23 €",10-01-2017,03-03-2016,30 dias,"Portugal, Leiria, Leiria",Artigo 259.º do Código dos Contratos Públicos,03-03-2016,"621.816,23 €","","",,1422736,CP 2015/41 - ACORDO QUADRO PARA FORNECIMENTO DE MEDICAMENTOS ANTI-INFECIOSOS: ANTIVÍRICOS E ANTIFÚNGICOS ÀS INSTITUIÇÕES E SERVIÇOS DO SERVIÇO NACIONAL DE SAÚDE,FALSE
0001A16-PRÓTESES PARA AMPUTAÇÃO DE MEMBRO SUPERIOR E INFERIOR,Concurso público,Aquisição de bens móveis,"33184000-3, Próteses","Centro Hospitalar de Leiria, E. P. E. (509822932)",LISMEDICA (507474538),"18.704,00 €",09-01-2017,01-08-2016,365 dias,"Portugal, Leiria","Artigo 20.º, n.º 1, alínea b) do Código dos Contratos Públicos",29-12-2017,"18.704,00 €",.,.,,Não aplicável.,Não aplicável.,FALSE
0001A16 - PRÓTESES AMPUTAÇÃO MEMBRO SUPERIOR E INFERIOR,Concurso público,Aquisição de bens móveis,"33184000-3, Próteses","Centro Hospitalar de Leiria, E. P. E. (509822932)",LISMÉDICA (507474538),"120.217,76 €",09-01-2017,01-08-2016,365 dias,"Portugal, Leiria","Artigo 20.º, n.º 1, alínea b) do Código dos Contratos Públicos",29-12-2017,"120.217,76 €",.,.,,Não aplicável.,Não aplicável.,FALSE
MATERIAL DE HIGIENE E LIMPEZA,Concurso público,Aquisição de bens móveis,"39830000-9, Produtos de limpeza","Centro Hospitalar de Leiria, E. P. E. (509822932)","PRODYALCA-COM.PRODUTOS QUIMICOS,LDA (506565165)","254,00 €",09-01-2017,03-05-2016,365 dias,"Portugal, Leiria, Leiria","Artigo 20.º, n.º 1, alínea b) do Código dos Contratos Públicos",31-12-2016,"13,68 €","",ESTIMATIVAS SOBRE ESTIMADAS,,Não aplicável.,Não aplicável.,FALSE
MATERIAL HIGIENE E LIMPEZA,Concurso público,Aquisição de bens móveis,"39830000-9, Produtos de limpeza","Centro Hospitalar de Leiria, E. P. E. (509822932)","SEPITRA-COM.MAQUINAS EQUIPAMENTOS, LDA (503851086)","1.044,25 €",09-01-2017,03-05-2016,365 dias,"Portugal, Leiria, Leiria","Artigo 20.º, n.º 1, alínea b) do Código dos Contratos Públicos",31-12-2016,"497,30 €","",Estimativas sobre-estimadas,,Não aplicável.,Não aplicável.,FALSE
MATERIAL DE HIGIENE E LIMPEZA,Concurso público,Aquisição de bens móveis,"39830000-9, Produtos de limpeza","Centro Hospitalar de Leiria, E. P. E. (509822932)",LUSOQUIMICA-PROD.QUIMICOS MANUT.IND.LDA. (504133802),"1.770,00 €",06-01-2017,03-05-2016,365 dias,"Portugal, Leiria, Leiria","Artigo 20.º, n.º 1, alínea b) do Código dos Contratos Públicos",31-12-2016,"826,20 €","",Estimativas sobre estimadas,,Não aplicável.,Não aplicável.,FALSE
MATERIAL DE HIGIENE E LIMPEZA,Concurso público,Aquisição de bens móveis,"39830000-9, Produtos de limpeza","Centro Hospitalar de Leiria, E. P. E. (509822932)","HR HOSPITALAR, LDA (501895558)","37,98 €",06-01-2017,03-05-2016,365 dias,"Portugal, Leiria, Leiria","Artigo 20.º, n.º 1, alínea b) do Código dos Contratos Públicos",31-12-2016,"21,40 €","",Estimativas sobre estimadas,,Não aplicável.,Não aplicável.,FALSE
MATERIAL HIGIENE E LIMPEZA,Concurso público,Aquisição de bens móveis,"39830000-9, Produtos de limpeza","Centro Hospitalar de Leiria, E. P. E. (509822932)","HIGICASTANHEIRA, LDA (507230698)","98,50 €",06-01-2017,03-05-2016,365 dias,"Portugal, Leiria, Leiria","Artigo 20.º, n.º 1, alínea b) do Código dos Contratos Públicos",30-12-2016,"39,40 €","",Estimativas sobre estimadas,,Não aplicável.,Não aplicável.,FALSE
MATERIAL DE HIGIENE E LIMPEZA,Concurso público,Aquisição de bens móveis,"39830000-9, Produtos de limpeza","Centro Hospitalar de Leiria, E. P. E. (509822932)","EXACLEAN, LDA (508758190)","872,60 €",06-01-2017,03-05-2016,365 dias,"Portugal, Leiria, Leiria","Artigo 20.º, n.º 1, alínea b) do Código dos Contratos Públicos",31-12-2016,"538,68 €","",Estimativas sobre estimadas,,Não aplicável.,Não aplicável.,FALSE
MATERIAL HIGIENE E LIMPEZA,Concurso público,Aquisição de bens móveis,"39830000-9, Produtos de limpeza","Centro Hospitalar de Leiria, E. P. E. (509822932)","ELECTROMAQUINAS,LDA. (501844821)","828,70 €",06-01-2017,03-05-2016,365 dias,"Portugal, Leiria, Leiria","Artigo 20.º, n.º 1, alínea b) do Código dos Contratos Públicos",31-12-2016,"473,74 €","",Estimativas sobre estimadas,,Não aplicável.,Não aplicável.,FALSE
MATERIAL HIGIENE E LIMPEZA,Concurso público,Aquisição de bens móveis,"39830000-9, Produtos de limpeza","Centro Hospitalar de Leiria, E. P. E. (509822932)","CORRECTA, CONSTRUÇÕES, LDA (501258698)","37,61 €",06-01-2017,03-05-2016,365 dias,"Portugal, Leiria, Leiria","Artigo 20.º, n.º 1, alínea b) do Código dos Contratos Públicos",31-12-2016,"23,22 €","",Estimativas sobre estimadas,,Não aplicável.,Não aplicável.,FALSE
MATERIAL HIGIENE E LIMPEZA,Concurso público,Aquisição de bens móveis,"39830000-9, Produtos de limpeza","Centro Hospitalar de Leiria, E. P. E. (509822932)","CENTROQUIMICA-SOC.PROD.QUIM.CENTRO, LDA (501863150)","3.582,60 €",06-01-2017,03-05-2016,365 dias,"Portugal, Leiria, Leiria","Artigo 20.º, n.º 1, alínea b) do Código dos Contratos Públicos",31-12-2016,"202.221,00 €","",Estimativas sobre estimadas,,Não aplicável.,Não aplicável.,FALSE
MATERIAL HIGIENE E LIMPEZA,Concurso público,Aquisição de bens móveis,"39830000-9, Produtos de limpeza","Centro Hospitalar de Leiria, E. P. E. (509822932)",ARMÉNIO SALGADO COSTA-COM. PROD. HIG. LDA (505495414),"2.920,00 €",06-01-2017,03-05-2016,365 dias,"Portugal, Leiria, Leiria","Artigo 20.º, n.º 1, alínea b) do Código dos Contratos Públicos",31-12-2016,"1.860,00 €","",Estimativas sobre estimadas,,Não aplicável.,Não aplicável.,FALSE
MATERIAL HIGIENE E LIMPEZA,Concurso público,Aquisição de bens móveis,"39830000-9, Produtos de limpeza","Centro Hospitalar de Leiria, E. P. E. (509822932)","ALVARO HENRIQUES & FILHOS, LDA (502031875)","10.957,30 €",06-01-2017,03-05-2016,365 dias,"Portugal, Leiria, Leiria","Artigo 20.º, n.º 1, alínea b) do Código dos Contratos Públicos",31-12-2016,"6.288,80 €","",Estimativas sobre estimadas,,Não aplicável.,Não aplicável.,FALSE
Mobiliário Administrativo,Ajuste Direto Regime Geral,Aquisição de bens móveis,"39100000-3, Mobiliário","CENTRO HOSPITALAR DE LEIRIA, E.P.E. (509822932)","Apri - Mobiliário, Telecomunicações e informática, Lda. (503046361)","4.392,28 €",04-01-2017,15-04-2016,60 dias,"Portugal, Leiria, Leiria","Artigo 20.º, n.º 1, alínea a) do Código dos Contratos Públicos",15-04-2016,"4.392,28 €","","",,Não aplicável.,Não aplicável.,FALSE
Mobiliário Administrativo,Ajuste Direto Regime Geral,Aquisição de bens móveis,"39100000-3, Mobiliário","CENTRO HOSPITALAR DE LEIRIA, E.P.E. (509822932)","Seixas & Simões, Lda. (503620106)","4.890,00 €",04-01-2017,15-04-2016,60 dias,"Portugal, Leiria, Leiria","Artigo 20.º, n.º 1, alínea a) do Código dos Contratos Públicos",15-04-2016,"4.890,00 €","","",,Não aplicável.,Não aplicável.,FALSE
Mobiliário Administrativo,Ajuste Direto Regime Geral,Aquisição de bens móveis,"39100000-3, Mobiliário","CENTRO HOSPITALAR DE LEIRIA, E.P.E. (509822932)","Euroshelves - Estantes metálicas, Lda (504204440)","1.572,50 €",04-01-2017,15-04-2016,60 dias,"Portugal, Leiria, Leiria","Artigo 20.º, n.º 1, alínea a) do Código dos Contratos Públicos",15-04-2016,"1.572,50 €","","",,Não aplicável.,Não aplicável.,FALSE
Vídeo Laringoscópio,Ajuste Direto Regime Geral,Aquisição de bens móveis,"33100000-1, Equipamento médico","Centro Hospitalar de Leiria, E. P. E. (509822932)",Teprel - Equipamentos médicos SA (502262184),"15.446,60 €",04-01-2017,21-12-2016,60 dias,"Portugal, Leiria, Leiria","Artigo 20.º, n.º 1, alínea a) do Código dos Contratos Públicos",21-12-2016,"15.446,60 €","","",,Não aplicável.,Não aplicável.,FALSE
8428E16-REPARAÇÃO DE UPS E RETIFICADOR,Ajuste Direto Regime Geral,Aquisição de serviços,"50000000-5, Serviços de reparação e manutenção","Centro Hospitalar de Leiria, E. P. E. (509822932)","LEIRISTÁVEL, LDA. (503573906)","5.314,00 €",04-01-2017,31-12-2016,1 dias,"Portugal, Leiria, Leiria","Artigo 20.º, n.º 1, alínea a) do Código dos Contratos Públicos",12-12-2016,"5.314,00 €","","",,Não aplicável.,Não aplicável.,FALSE
Mobiliário para o Serviço de Urgência HDP,Ajuste Direto Regime Geral,Aquisição de bens móveis,"39100000-3, Mobiliário","CENTRO HOSPITALAR DE LEIRIA, E.P.E. (509822932)","Apri - Mobiliário, Telecomunicações e informática, Lda. (503046361)","15.265,19 €",04-01-2017,09-05-2016,60 dias,"Portugal, Leiria, Leiria","Artigo 20.º, n.º 1, alínea a) do Código dos Contratos Públicos",26-02-2016,"15.265,19 €","","",,Não aplicável.,Não aplicável.,FALSE
Medicamento Ibuprofeno - AQ Generis,Ao abrigo de acordo-quadro (art.º 259.º),Aquisição de bens móveis,"33600000-6, Produtos farmacêuticos","Centro Hospitalar de Leiria, E. P. E. (509822932)","GENERIS-FARMACEUTICA,SA (508107997)","48,60 €",04-01-2017,28-12-2016,60 dias,"Portugal, Leiria, Leiria",Artigo 259.º do Código dos Contratos Públicos,28-12-2016,"48,60 €","","",,1394106,CP 2015/64 - Medicamentos Diversos,FALSE
Medicamento Fumarato de Dimetilo - AD 1109E16,Ajuste Direto Regime Geral,Aquisição de bens móveis,"33600000-6, Produtos farmacêuticos","Centro Hospitalar de Leiria, E. P. E. (509822932)","BIOGEN IDEC PORTUGAL-SOC.FARM.UNIP., LDA (506415740)","269,68 €",04-01-2017,28-12-2016,60 dias,"Portugal, Leiria, Leiria","Artigo 24.º, n.º 1, alínea e) do Código dos Contratos Públicos",28-12-2016,"269,68 €","","",,Não aplicável.,Não aplicável.,FALSE
Software de ecografia,Ajuste Direto Regime Geral,Aquisição de bens móveis,"48000000-8, Pacotes de software e sistemas de informação","Centro Hospitalar de Leiria, E. P. E. (509822932)","Astrimed - Informática e tecnologia médica, Lda. (507007867)","16.100,00 €",03-01-2017,02-01-2017,60 dias,"Portugal, Leiria, Leiria","Artigo 20.º, n.º 1, alínea a) do Código dos Contratos Públicos",02-01-2017,"16.100,00 €","","",,Não aplicável.,Não aplicável.,FALSE
Caixas de instrumental para cirurgia laparoscópica,Concurso público,Aquisição de bens móveis,"33100000-1, Equipamento médico","Centro Hospitalar de Leiria, E. P. E. (509822932)","B. Braun Medical, Lda. (501506543)","67.074,36 €",03-01-2017,21-12-2016,60 dias,"Portugal, Leiria, Leiria","Artigo 20.º, n.º 1, alínea b) do Código dos Contratos Públicos",21-12-2016,"67.074,36 €","","",,Não aplicável.,Não aplicável.,FALSE
Ventiladores,Concurso público,Aquisição de bens móveis,"33100000-1, Equipamento médico","Centro Hospitalar de Leiria, E. P. E. (509822932)","Iberdata Equipamentos, SA (501904921)","84.000,00 €",03-01-2017,20-04-2016,60 dias,"Portugal, Leiria, Leiria","Artigo 20.º, n.º 1, alínea b) do Código dos Contratos Públicos",20-04-2016,"84.000,00 €","","",,Não aplicável.,Não aplicável.,FALSE
Aquisição e instalação de estantes móveis,Concurso público,Aquisição de bens móveis,"39141100-3, Estantes","Centro Hospitalar de Leiria, E. P. E. (509822932)","Forma CLS - Comércio de Mobiliário, Lda. (508074541)","43.441,30 €",03-01-2017,22-12-2016,60 dias,"Portugal, Leiria, Leiria","Artigo 20.º, n.º 1, alínea b) do Código dos Contratos Públicos",22-12-2016,"43.441,30 €","","",,Não aplicável.,Não aplicável.,FALSE
