Objeto do Contrato,Tipo de Procedimento,Tipo(s) de Contrato,CPVs,Entidade(s) Adjudicante(s),Entidade(s) Adjudicatária(s),Preço Contratual,Data de Publicação,Data de Celebração do Contrato,Prazo de Execução,Local de Execução,Fundamentação,Data de Fecho do Contrato,Preço Total Efetivo,Causas das Alterações ao Prazo,Causas das Alterações ao Preço,Estado,N.º registo do Acordo Quadro,Descrição do Acordo Quadro,Procedimento Centralizado
Aquisição de material de osteossíntese - traumatologia,Concurso público,Aquisição de bens móveis,"33100000-1, Equipamento médico","Centro Hospitalar do Médio Ave, E. P. E. (508093937)",STRYKER PORTUGAL - PRODUTOS MEDICOS UNIPESSOAL LDA (504594214),"262.885,96 €",01-06-2018,09-05-2018,365 dias,"Portugal, Braga, Vila Nova de Famalicão","Artigo 20.º, n.º 1, alínea b) do Código dos Contratos Públicos",,,,,,Não aplicável.,Não aplicável.,FALSE
"Aquisição medicamentos analgésicos, antipiréticos e antidepressivos",Ao abrigo de acordo-quadro (art.º 259.º),Aquisição de bens móveis,"33600000-6, Produtos farmacêuticos","Centro Hospitalar Médio Ave, E.P.E.. (508093937)",UNILFARMA UNIÃO INTERNACIONAL LABORATORIOS FARMACEUTICOS LDA (500293023),"0,35 €",01-06-2018,18-04-2018,237 dias,"Portugal, Braga, Vila Nova de Famalicão<BR/>Portugal, Porto, Santo Tirso",Artigo 259.º do Código dos Contratos Públicos,,,,,,1974985,"Medicamentos Analgésicos, Antipiréticos e Antidepressivos",FALSE
"Aquisição medicamentos analgésicos, antipiréticos e antidepressivos",Ao abrigo de acordo-quadro (art.º 259.º),Aquisição de bens móveis,"33600000-6, Produtos farmacêuticos","Centro Hospitalar Médio Ave, E.P.E.. (508093937)","SANOFI - PRODUTOS FARMACÊUTICOS, LDA (500134960)","0,73 €",01-06-2018,18-04-2018,237 dias,"Portugal, Braga, Vila Nova de Famalicão<BR/>Portugal, Porto, Santo Tirso",Artigo 259.º do Código dos Contratos Públicos,,,,,,1974985,"Medicamentos Analgésicos, Antipiréticos e Antidepressivos",FALSE
"Aquisição medicamentos analgésicos, antipiréticos e antidepressivos",Ao abrigo de acordo-quadro (art.º 259.º),Aquisição de bens móveis,"33600000-6, Produtos farmacêuticos","Centro Hospitalar Médio Ave, E.P.E.. (508093937)",PLS PHARMA PRODUTOS FARMACEUTICOS LDA (510452973),"0,60 €",01-06-2018,18-04-2018,237 dias,"Portugal, Porto, Santo Tirso<BR/>Portugal, Braga, Vila Nova de Famalicão",Artigo 259.º do Código dos Contratos Públicos,,,,,,1974985,"Medicamentos Analgésicos, Antipiréticos e Antidepressivos",FALSE
"Aquisição medicamentos analgésicos, antipiréticos e antidepressivos",Ao abrigo de acordo-quadro (art.º 259.º),Aquisição de bens móveis,"33600000-6, Produtos farmacêuticos","Centro Hospitalar Médio Ave, E.P.E.. (508093937)",LABORATORIOS PFIZER LDA (500162166),"6,83 €",01-06-2018,18-04-2018,237 dias,"Portugal, Porto, Santo Tirso<BR/>Portugal, Braga, Vila Nova de Famalicão",Artigo 259.º do Código dos Contratos Públicos,,,,,,1974985,"Medicamentos Analgésicos, Antipiréticos e Antidepressivos",FALSE
"Aquisição medicamentos analgésicos, antipiréticos e antidepressivos",Ao abrigo de acordo-quadro (art.º 259.º),Aquisição de bens móveis,"33600000-6, Produtos farmacêuticos","Centro Hospitalar Médio Ave, E.P.E.. (508093937)",OVERPHARMA PRODUTOS MEDICOS E FARMACEUTICOS LDA (505792362),"0,81 €",01-06-2018,18-04-2018,237 dias,"Portugal, Porto, Santo Tirso<BR/>Portugal, Braga, Vila Nova de Famalicão",Artigo 259.º do Código dos Contratos Públicos,,,,,,1974985,"Medicamentos Analgésicos, Antipiréticos e Antidepressivos",FALSE
"Aquisição medicamentos analgésicos, antipiréticos e antidepressivos",Ao abrigo de acordo-quadro (art.º 259.º),Aquisição de bens móveis,"33600000-6, Produtos farmacêuticos","Centro Hospitalar Médio Ave, E.P.E.. (508093937)",MUNDIPHARMA - FARMACEUTICA LDA (506760014),"0,76 €",01-06-2018,18-04-2018,237 dias,"Portugal, Porto, Santo Tirso<BR/>Portugal, Braga, Vila Nova de Famalicão",Artigo 259.º do Código dos Contratos Públicos,,,,,,1974985,"Medicamentos Analgésicos, Antipiréticos e Antidepressivos",FALSE
"Aquisição medicamentos analgésicos, antipiréticos e antidepressivos",Ao abrigo de acordo-quadro (art.º 259.º),Aquisição de bens móveis,"33600000-6, Produtos farmacêuticos","Centro Hospitalar Médio Ave, E.P.E.. (508093937)",LUSOMEDICAMENTA SOCIEDADE TECNICA FARMACEUTICA S A (507150473),"0,26 €",01-06-2018,18-04-2018,237 dias,"Portugal, Braga, Vila Nova de Famalicão<BR/>Portugal, Porto, Santo Tirso",Artigo 259.º do Código dos Contratos Públicos,,,,,,1974985,"Medicamentos Analgésicos, Antipiréticos e Antidepressivos",FALSE
"Aquisição medicamentos analgésicos, antipiréticos e antidepressivos",Ao abrigo de acordo-quadro (art.º 259.º),Aquisição de bens móveis,"33600000-6, Produtos farmacêuticos","Centro Hospitalar Médio Ave, E.P.E.. (508093937)",LABESFAL - LABORATORIOS ALMIRO S A (501169580),"5,14 €",01-06-2018,18-04-2018,237 dias,"Portugal, Braga, Vila Nova de Famalicão<BR/>Portugal, Porto, Santo Tirso",Artigo 259.º do Código dos Contratos Públicos,,,,,,1974985,"Medicamentos Analgésicos, Antipiréticos e Antidepressivos",FALSE
"Aquisição medicamentos analgésicos, antipiréticos e antidepressivos",Ao abrigo de acordo-quadro (art.º 259.º),Aquisição de bens móveis,"33600000-6, Produtos farmacêuticos","Centro Hospitalar Médio Ave, E.P.E.. (508093937)","HIKMA FARMACEUTICA (PORTUGAL), SA (502266791)","1,63 €",01-06-2018,18-04-2018,237 dias,"Portugal, Porto, Santo Tirso<BR/>Portugal, Braga, Vila Nova de Famalicão",Artigo 259.º do Código dos Contratos Públicos,,,,,,1974985,"Medicamentos Analgésicos, Antipiréticos e Antidepressivos",FALSE
"Aquisição medicamentos analgésicos, antipiréticos e antidepressivos",Ao abrigo de acordo-quadro (art.º 259.º),Aquisição de bens móveis,"33600000-6, Produtos farmacêuticos","Centro Hospitalar Médio Ave, E.P.E.. (508093937)","GENERIS - FARMACÊUTICA, S.A. (508107997)","8,52 €",01-06-2018,18-04-2018,237 dias,"Portugal, Braga, Vila Nova de Famalicão<BR/>Portugal, Porto, Santo Tirso",Artigo 259.º do Código dos Contratos Públicos,,,,,,1974985,"Medicamentos Analgésicos, Antipiréticos e Antidepressivos",FALSE
"Aquisição medicamentos analgésicos, antipiréticos e antidepressivos",Ao abrigo de acordo-quadro (art.º 259.º),Aquisição de bens móveis,"33600000-6, Produtos farmacêuticos","Centro Hospitalar Médio Ave, E.P.E.. (508093937)",FRESENIUS KABI PHARMA PORTUGAL LDA (504293753),"0,42 €",01-06-2018,18-04-2018,237 dias,"Portugal, Braga, Vila Nova de Famalicão<BR/>Portugal, Porto, Santo Tirso","Artigo 33.º, n.º 3 do Código dos Contratos Públicos",,,,,,1974985,"Medicamentos Analgésicos, Antipiréticos e Antidepressivos",FALSE
"Aquisição medicamentos analgésicos, antipiréticos e antidepressivos",Ao abrigo de acordo-quadro (art.º 259.º),Aquisição de bens móveis,"33600000-6, Produtos farmacêuticos","Centro Hospitalar Médio Ave, E.P.E.. (508093937)",Famorz - Sociedade Tecnico Medicinal SA (501505334),"8,90 €",01-06-2018,18-04-2018,237 dias,"Portugal, Braga, Vila Nova de Famalicão<BR/>Portugal, Porto, Santo Tirso",Artigo 259.º do Código dos Contratos Públicos,,,,,,1974985,"Medicamentos Analgésicos, Antipiréticos e Antidepressivos",FALSE
