Objeto do Contrato,Tipo de Procedimento,Tipo(s) de Contrato,CPVs,Entidade(s) Adjudicante(s),Entidade(s) Adjudicatária(s),Preço Contratual,Data de Publicação,Data de Celebração do Contrato,Prazo de Execução,Local de Execução,Fundamentação,Data de Fecho do Contrato,Preço Total Efetivo,Causas das Alterações ao Prazo,Causas das Alterações ao Preço,Estado,N.º registo do Acordo Quadro,Descrição do Acordo Quadro,Procedimento Centralizado
AQUISIÇÃO PROTESES TOTAIS ANCA E PROTESES BIPOLARES,Concurso público,Aquisição de bens móveis,"33183100-7, Implantes ortopédicos","Hospital Distrital de Santarém, E. P. E. (506361462)",ARTUR SALGADO SA (503612600),"31.785,00 €",17-03-2014,28-02-2014,333 dias,"Portugal, Santarém, Santarém","Artigo 20.º, n.º 1, alínea b) do Código dos Contratos Públicos",,,,,,Não aplicável.,Não aplicável.,FALSE
AQUISIÇÃO PROTESES TOTAIS ANCA E PROTESES BIPOLARES,Concurso público,Aquisição de bens móveis,"33183100-7, Implantes ortopédicos","Hospital Distrital de Santarém, E. P. E. (506361462)",ARTUR SALGADO SA (503612600),"43.782,50 €",17-03-2014,28-02-2014,333 dias,"Portugal, Santarém, Santarém","Artigo 20.º, n.º 1, alínea b) do Código dos Contratos Públicos",,,,,,Não aplicável.,Não aplicável.,FALSE
"Reagentes para Bioquimica/Imunoquimica e Imunologia ( Virologia, Marcadores Tumorais, Grupo Torch)",Concurso público,Aquisição de bens móveis,"33696000-5, Reagentes e meios de contraste","Hospital Distrital de Santarém, E. P. E. (506361462)",Laboratorios Abbott Lda (500006148),"71.977,00 €",13-03-2014,27-02-2014,365 dias,"Portugal, Santarém, Santarém","Artigo 20.º, n.º 1, alínea b) do Código dos Contratos Públicos",,,,,,Não aplicável.,Não aplicável.,FALSE
Reagentes para Bioquimica/Imunoquimica e Imunologia,Concurso público,Aquisição de bens móveis,"33696000-5, Reagentes e meios de contraste","Hospital Distrital de Santarém, E. P. E. (506361462)",Abbott Laboratorios LDA (500006148),"363.625,27 €",13-03-2014,27-02-2014,365 dias,"Portugal, Santarém, Santarém","Artigo 20.º, n.º 1, alínea b) do Código dos Contratos Públicos",,,,,,Não aplicável.,Não aplicável.,FALSE
