Objeto do Contrato,Tipo de Procedimento,Tipo(s) de Contrato,CPVs,Entidade(s) Adjudicante(s),Entidade(s) Adjudicatária(s),Preço Contratual,Data de Publicação,Data de Celebração do Contrato,Prazo de Execução,Local de Execução,Fundamentação,Data de Fecho do Contrato,Preço Total Efetivo,Causas das Alterações ao Prazo,Causas das Alterações ao Preço,Estado,N.º registo do Acordo Quadro,Descrição do Acordo Quadro,Procedimento Centralizado
Electrodos ERG-JET e Electrodos de Cúpula,Ajuste Direto Regime Geral,Aquisição de bens móveis,"33140000-3, Material médico de consumo",Instituto de Oftalmologia do Dr. Gama Pinto (600000052),"Jose Cotta - Equip. Med. e Serviços, Lda (500155739)","1.239,60 €",10-11-2017,22-02-2017,260 dias,"Portugal, Lisboa, Lisboa","Artigo 20.º, n.º 1, alínea a) do Código dos Contratos Públicos",10-11-2017,"2.617,60 €",,engano na introdução de valores,,Não aplicável.,Não aplicável.,FALSE
Mangas Mistas,Ao abrigo de acordo-quadro (art.º 259.º),Aquisição de bens móveis,"33141111-1, Pensos adesivos",Instituto de Oftalmologia do Dr. Gama Pinto (600000052),Dimor Lusitana (500730741),"542,06 €",03-11-2017,26-10-2017,64 dias,"Portugal, Lisboa, Lisboa",Artigo 259.º do Código dos Contratos Públicos,03-11-2017,"542,06 €",,"",,1974943,CP 2016/43 - Acordo quadro para fornecimento de Material para Empacotamento em Esterilização às Instituições e Serviços do Serviço Nacional de Saúde.,FALSE
Adesivos,Ao abrigo de acordo-quadro (art.º 259.º),Aquisição de bens móveis,"33141111-1, Pensos adesivos",Instituto de Oftalmologia do Dr. Gama Pinto (600000052),Dimor Lusitana (500730741),"537,60 €",03-11-2017,03-11-2017,65 dias,"Portugal, Lisboa, Lisboa",Artigo 259.º do Código dos Contratos Públicos,03-11-2017,"261,60 €",,Preço das propostas inferior e preço base.,,2183753,CP 2016/82 - Acordo quadro para fornecimento de Nastros e Fitas Cirúrgicas às Instituições e Serviços do Serviço Nacional de Saúde,FALSE
Bastonetes,Ajuste Direto Regime Geral,Aquisição de bens móveis,"33140000-3, Material médico de consumo",Instituto de Oftalmologia do Dr. Gama Pinto (600000052),Oftaldata (504887459),"273,00 €",03-11-2017,13-02-2017,154 dias,"Portugal, Lisboa, Lisboa","Artigo 20.º, n.º 1, alínea a) do Código dos Contratos Públicos",03-11-2017,"273,00 €",,"",,Não aplicável.,Não aplicável.,FALSE
MASCARA FACIAL MÉDICA,Ao abrigo de acordo-quadro (art.º 259.º),Aquisição de bens móveis,"33140000-3, Material médico de consumo",Instituto de Oftalmologia do Dr. Gama Pinto (600000052),OVERPHARMA - PRODUTOS MEDICOS E FARM.              (505792362),"22,00 €",03-11-2017,26-10-2017,66 dias,"Portugal, Lisboa, Lisboa",Artigo 259.º do Código dos Contratos Públicos,03-11-2017,"22,00 €",,"",,2102851,CP 2016/74 - Acordo quadro para fornecimento de Material disposable de bloco operatório - Parte I-B às Instituições e Serviços do Serviço Nacional de Saúde,FALSE
Suturas Sintéticas Absorviveis,Ajuste Direto Regime Geral,Aquisição de bens móveis,"33141100-1, Pensos; clipes, suturas, ligaduras",Instituto de Oftalmologia do Dr. Gama Pinto (600000052),B. BRAUN  (501506543),"346,32 €",03-11-2017,26-10-2017,64 dias,"Portugal, Lisboa, Lisboa","Artigo 20.º, n.º 1, alínea a) do Código dos Contratos Públicos",03-11-2017,"346,32 €",,"",,Não aplicável.,Não aplicável.,FALSE
Packs Intermedio p/ cirurgia,Ajuste Direto Regime Geral,Aquisição de bens móveis,"33160000-9, Técnicas cirúrgicas",Instituto de Oftalmologia do Dr. Gama Pinto (600000052),BAUSCH LOMB (980218764),"6.800,00 €",03-11-2017,04-09-2017,78 dias,"Portugal, Lisboa, Lisboa","Artigo 20.º, n.º 1, alínea a) do Código dos Contratos Públicos",03-11-2017,"6.800,00 €",,"",,Não aplicável.,Não aplicável.,FALSE
Kits Visudyne,Ajuste Direto Regime Geral,Aquisição de bens móveis,"33160000-9, Técnicas cirúrgicas",Instituto de Oftalmologia do Dr. Gama Pinto (600000052),"Novartis Farma Produtos Farmacêuticos, SA. (500063524)","489,60 €",02-11-2017,26-10-2017,66 dias,"Portugal, Lisboa, Lisboa","Artigo 24.º, n.º 1, alínea e) do Código dos Contratos Públicos",02-11-2017,"489,60 €",,"",,Não aplicável.,Não aplicável.,FALSE
"Implante Silicone de Banda 5,5mm",Ajuste Direto Regime Geral,Aquisição de bens móveis,"33184100-4, Implantes cirúrgicos",Instituto de Oftalmologia do Dr. Gama Pinto (600000052),"OPTIFAR  IMPORTAÇAO  EXPORTAÇAO, LDA (501609377)","73,20 €",02-11-2017,26-10-2017,66 dias,"Portugal, Lisboa, Lisboa","Artigo 20.º, n.º 1, alínea a) do Código dos Contratos Públicos",02-11-2017,"73,20 €",,"",,Não aplicável.,Não aplicável.,FALSE
Mascaras Laríngea N.º 4,Ajuste Direto Regime Geral,Aquisição de bens móveis,"33171000-9, Material para anestesia e reanimação",Instituto de Oftalmologia do Dr. Gama Pinto (600000052),"INTERSURGICAL PORTUGAL,LDA (503480045)","162,50 €",02-11-2017,26-10-2017,66 dias,"Portugal, Lisboa, Lisboa","Artigo 20.º, n.º 1, alínea a) do Código dos Contratos Públicos",02-11-2017,"162,50 €",,"",,Não aplicável.,Não aplicável.,FALSE
