Objeto do Contrato,Tipo de Procedimento,Tipo(s) de Contrato,CPVs,Entidade(s) Adjudicante(s),Entidade(s) Adjudicatária(s),Preço Contratual,Data de Publicação,Data de Celebração do Contrato,Prazo de Execução,Local de Execução,Fundamentação,Data de Fecho do Contrato,Preço Total Efetivo,Causas das Alterações ao Prazo,Causas das Alterações ao Preço,Estado,N.º registo do Acordo Quadro,Descrição do Acordo Quadro,Procedimento Centralizado
"Aquisição de prestação de serviços de limpeza e higienização na ULSBA,EPE",Concurso público,Aquisição de serviços,"90910000-9, Serviços de limpeza","Unidade Local de Saúde do Baixo Alentejo, E. P. E. (508754275)","Iberlim-Sociedade Técnica de Limpeza, SA (503501670)","445.064,64 €",01-10-2015,03-07-2015,1095 dias,"Portugal, Beja, Beja","Artigo 20.º, n.º 1, alínea b) do Código dos Contratos Públicos",,,,,,Não aplicável.,Não aplicável.,FALSE
Aquisição de centrifuga de sacos de sangue,Ajuste Direto Regime Geral,Aquisição de bens móveis,"42000000-6, Máquinas industriais","Unidade Local de Saude do Baixo Alentejo, EPE (508754275)","SupplyLab, Lda (508453534)","45.811,00 €",01-10-2015,19-05-2015,730 dias,"Portugal, Beja, Beja","Artigo 20.º, n.º 1, alínea a) do Código dos Contratos Públicos",,,,,,Não aplicável.,Não aplicável.,FALSE
Aquisição de cavilhas,Concurso público,Aquisição de bens móveis,"33140000-3, Material médico de consumo","Unidade Local de Saude do Baixo Alentejo, EPE (508754275)",Stryker (504594214),"95.426,00 €",01-10-2015,12-08-2015,1095 dias,"Portugal, Beja, Beja","Artigo 20.º, n.º 1, alínea b) do Código dos Contratos Públicos",,,,,,Não aplicável.,Não aplicável.,FALSE
Aquisição de ecógrafo com biómetro,Ajuste Direto Regime Geral,Aquisição de bens móveis,"33110000-4, Equipamento de imagiologia para uso médico, dentário e veterinário","Unidade Local de Saude do Baixo Alentejo, EPE (508754275)",PM Equipamentos e Serviços (508299900),"26.900,00 €",30-09-2015,25-08-2015,30 dias,"Portugal, Beja, Beja","Artigo 20.º, n.º 1, alínea a) do Código dos Contratos Públicos",,,,,,Não aplicável.,Não aplicável.,FALSE
Aquisição de estação de diagnóstico de imagiologia,Ajuste Direto Regime Geral,Aquisição de bens móveis,"33110000-4, Equipamento de imagiologia para uso médico, dentário e veterinário","Unidade Local de Saúde do Baixo Alentejo, E. P. E. (508754275)",Siemens (500247480),"8.984,27 €",29-09-2015,26-08-2015,35 dias,"Portugal, Beja, Beja","Artigo 20.º, n.º 1, alínea a) do Código dos Contratos Públicos",,,,,,Não aplicável.,Não aplicável.,FALSE
