Objeto do Contrato,Tipo de Procedimento,Tipo(s) de Contrato,CPVs,Entidade(s) Adjudicante(s),Entidade(s) Adjudicatária(s),Preço Contratual,Data de Publicação,Data de Celebração do Contrato,Prazo de Execução,Local de Execução,Fundamentação,Data de Fecho do Contrato,Preço Total Efetivo,Causas das Alterações ao Prazo,Causas das Alterações ao Preço,Estado,N.º registo do Acordo Quadro,Descrição do Acordo Quadro,Procedimento Centralizado
Serviços Médicos de Ortopedia,Ajuste Direto Regime Geral,Aquisição de serviços,"85100000-0, Serviços de saúde","Centro Hospitalar do Médio Tejo, E. P. E. (506361608)",Eunice Tavares Albuquerque Pais de Carvalho (218156049),"73.920,00 €",11-05-2016,19-04-2016,366 dias,"Portugal, Santarém, Abrantes","Artigo 20.º, n.º 1, alínea a) do Código dos Contratos Públicos",,,,,,Não aplicável.,Não aplicável.,FALSE
Serviços Clínicos na área da VMER,Ajuste Direto Regime Geral,Aquisição de serviços,"85100000-0, Serviços de saúde","Centro Hospitalar do Médio Tejo, E. P. E. (506361608)","Germisorriso Unipessoal, Lda (509021093)","12.500,00 €",10-05-2016,15-04-2016,279 dias,"Portugal, Santarém, Tomar<BR/>Portugal, Santarém, Abrantes<BR/>Portugal, Santarém, Torres Novas","Artigo 20.º, n.º 1, alínea a) do Código dos Contratos Públicos",,,,,,Não aplicável.,Não aplicável.,FALSE
Serviços médicos - Ortopedia,Ajuste Direto Regime Geral,Aquisição de serviços,"85100000-0, Serviços de saúde","Centro Hospitalar do Médio Tejo, E. P. E. (506361608)","JPD Caetano, Lda (513723030)","33.000,00 €",09-05-2016,22-04-2016,248 dias,"Portugal, Santarém, Abrantes","Artigo 20.º, n.º 1, alínea a) do Código dos Contratos Públicos",,,,,,Não aplicável.,Não aplicável.,FALSE
Prestação de Serviços Profissionais de Nutricionista,Ajuste Direto Regime Geral,Aquisição de serviços,"85100000-0, Serviços de saúde","Centro Hospitalar do Médio Tejo, E. P. E. (506361608)","Sucesso 24 Horas, SA (507328310)","2.748,03 €",09-05-2016,28-04-2016,30 dias,"Portugal, Santarém, Tomar","Artigo 20.º, n.º 1, alínea a) do Código dos Contratos Públicos",,,,,,Não aplicável.,Não aplicável.,FALSE
Serviços de Nutricionista,Ajuste Direto Regime Geral,Aquisição de serviços,"85100000-0, Serviços de saúde","Centro Hospitalar do Médio Tejo, E. P. E. (506361608)","Sucesso 24 Horas, SA (507328310)","2.748,03 €",06-05-2016,16-12-2015,31 dias,"Portugal, Santarém, Tomar","Artigo 20.º, n.º 1, alínea a) do Código dos Contratos Públicos",,,,,,Não aplicável.,Não aplicável.,FALSE
Serviços clínIcos - VMER,Ajuste Direto Regime Geral,Aquisição de serviços,"85121000-3, Serviços de prática médica","Centro Hospitalar do Médio Tejo, E. P. E. (506361608)",Quaresma & Agostinho (509860710),"22.500,00 €",04-05-2016,19-04-2016,279 dias,"Portugal, Santarém, Abrantes<BR/>Portugal, Santarém, Torres Novas<BR/>Portugal, Santarém, Tomar","Artigo 20.º, n.º 1, alínea a) do Código dos Contratos Públicos",,,,,,Não aplicável.,Não aplicável.,FALSE
