Objeto do Contrato,Tipo de Procedimento,Tipo(s) de Contrato,CPVs,Entidade(s) Adjudicante(s),Entidade(s) Adjudicatária(s),Preço Contratual,Data de Publicação,Data de Celebração do Contrato,Prazo de Execução,Local de Execução,Fundamentação,Data de Fecho do Contrato,Preço Total Efetivo,Causas das Alterações ao Prazo,Causas das Alterações ao Preço,Estado,N.º registo do Acordo Quadro,Descrição do Acordo Quadro,Procedimento Centralizado
OBRAS BENEFICIAÇÃO SALA 2 RX CENTRAL,Ajuste Direto Regime Geral,Empreitadas de obras públicas,"50000000-5, Serviços de reparação e manutenção","Hospital Distrital de Santarém, E. P. E. (506361462)","VITOR MARTINHO UNIPESSOAL, LDA (505269465)","59.999,55 €",08-01-2014,27-06-2013,60 dias,"Portugal, Santarém, Santarém","Artigo 19.º, alínea a) do Código dos Contratos Públicos","","",,,,Não aplicável.,Não aplicável.,FALSE
AQUISIÇÃO EQUIPAMENTO INFORMATICO,Ajuste Direto Regime Geral,Aquisição de bens móveis,"30000000-9, Máquinas, equipamento e material de escritório e de informática, excepto mobiliário e pacotes de programas (software)","Hospital Distrital de Santarém, E. P. E. (506361462)","GLOBALDATA 21 - COMÉRCIO DE PRODUTOS INFORMÁTICOS, SA (510247520)","1.597,40 €",07-01-2014,11-12-2013,20 dias,"Portugal, Santarém, Santarém","Artigo 20.º, n.º 1, alínea a) do Código dos Contratos Públicos",07-01-2014,"1.597,40 €",,,,Não aplicável.,Não aplicável.,FALSE
AQUISIÇÃO EQUIPAMENTO INFORMATICO,Ajuste Direto Regime Geral,Aquisição de bens móveis,"30000000-9, Máquinas, equipamento e material de escritório e de informática, excepto mobiliário e pacotes de programas (software)","Hospital Distrital de Santarém, E. P. E. (506361462)","GLOBALDATA 21 - COMÉRCIO DE PRODUTOS INFORMÁTICOS, SA (510247520)","1.158,92 €",07-01-2014,11-12-2013,20 dias,"Portugal, Santarém, Santarém","Artigo 20.º, n.º 1, alínea a) do Código dos Contratos Públicos",07-01-2014,"1.158,92 €",,,,Não aplicável.,Não aplicável.,FALSE
AQUISIÇÃO EQUIPAMENTO INFORMATICO,Ajuste Direto Regime Geral,Aquisição de bens móveis,"30000000-9, Máquinas, equipamento e material de escritório e de informática, excepto mobiliário e pacotes de programas (software)","Hospital Distrital de Santarém, E. P. E. (506361462)","Inforlandia - Sistemas E Serviços De Informatica, (502425296)","5.180,00 €",07-01-2014,11-12-2013,20 dias,"Portugal, Santarém, Santarém","Artigo 20.º, n.º 1, alínea a) do Código dos Contratos Públicos",30-12-2013,"5.180,00 €",,,,Não aplicável.,Não aplicável.,FALSE
