Objeto do Contrato,Tipo de Procedimento,Tipo(s) de Contrato,CPVs,Entidade(s) Adjudicante(s),Entidade(s) Adjudicatária(s),Preço Contratual,Data de Publicação,Data de Celebração do Contrato,Prazo de Execução,Local de Execução,Fundamentação,Data de Fecho do Contrato,Preço Total Efetivo,Causas das Alterações ao Prazo,Causas das Alterações ao Preço,Estado,N.º registo do Acordo Quadro,Descrição do Acordo Quadro,Procedimento Centralizado
Fornecimento de serviços de assistentes operacionais,Ajuste Direto Regime Geral,Aquisição de serviços,"85112000-7, Serviços de assistência hospitalar",Centro de Medicina de Reabilitação da Região Centro - Rovisco Pais (503767336),"Iberico Ferreira Saude, Lda (505646200)","9.837,42 €",02-12-2011,12-05-2011,30 dias,"Portugal, Coimbra, Cantanhede","Artigo 26.º, n.º 1, alínea a) do Código dos Contratos Públicos",,,,,,Não aplicável.,Não aplicável.,
Prestação de Serviços de 11 enfermeiros,Ajuste Direto Regime Geral,Aquisição de serviços,"85141200-1, Serviços prestados pelo pessoal de enfermagem",Centro de Medicina de Reabilitação da Região Centro - Rovisco Pais (503767336),"Iberico Saude Ferreira, Lda (505646200)","17.973,61 €",02-12-2011,12-05-2011,30 dias,"Portugal, Coimbra, Cantanhede","Artigo 26.º, n.º 1, alínea a) do Código dos Contratos Públicos",,,,,,Não aplicável.,Não aplicável.,
