Objeto do Contrato,Tipo de Procedimento,Tipo(s) de Contrato,CPVs,Entidade(s) Adjudicante(s),Entidade(s) Adjudicatária(s),Preço Contratual,Data de Publicação,Data de Celebração do Contrato,Prazo de Execução,Local de Execução,Fundamentação,Data de Fecho do Contrato,Preço Total Efetivo,Causas das Alterações ao Prazo,Causas das Alterações ao Preço,Estado,N.º registo do Acordo Quadro,Descrição do Acordo Quadro,Procedimento Centralizado
"P259-AC-2017-130_AQUISIÇÃO DE MEDICAMENTOS DESENCADEADA PELA SPMS, EPE NO ÂMBITO DO DESPACHO 1571/B DE 2016 AO ABRIGO DO ACORDO QUADRO 2015/009 - Derivados do plasma humano",Ao abrigo de acordo-quadro (art.º 259.º),Aquisição de bens móveis,"33600000-6, Produtos farmacêuticos","Unidade Local de Saúde de Castelo Branco, E. P. E. (509309844)",TAKEDA - FARMACÊUTICOS PORTUGAL LDA (502801204),"9.939,60 €",13-09-2017,13-09-2017,109 dias,"Portugal, Castelo Branco, Castelo Branco",Artigo 259.º do Código dos Contratos Públicos,,,,,,1423488,ACORDO QUADRO PARA FORNECIMENTO DE DERIVADOS DO PLASMA HUMANO ÀS INSTITUIÇÕES E SERVIÇOS DO SERVIÇO NACIONAL DE SAÚDE CP 2015/9,FALSE
"P259-AC-2017-130_AQUISIÇÃO DE MEDICAMENTOS DESENCADEADA PELA SPMS, EPE NO ÂMBITO DO DESPACHO 1571/B DE 2016 AO ABRIGO DO ACORDO QUADRO 2015/009 - Derivados do plasma humano",Ao abrigo de acordo-quadro (art.º 259.º),Aquisição de bens móveis,"33600000-6, Produtos farmacêuticos","Unidade Local de Saúde de Castelo Branco, E. P. E. (509309844)","CSL  BEHRING, LDA (503047201)","2.400,00 €",13-09-2017,13-09-2017,109 dias,"Portugal, Castelo Branco, Castelo Branco",Artigo 259.º do Código dos Contratos Públicos,,,,,,1423488,ACORDO QUADRO PARA FORNECIMENTO DE DERIVADOS DO PLASMA HUMANO ÀS INSTITUIÇÕES E SERVIÇOS DO SERVIÇO NACIONAL DE SAÚDE CP 2015/9,FALSE
