Objeto do Contrato,Tipo de Procedimento,Tipo(s) de Contrato,CPVs,Entidade(s) Adjudicante(s),Entidade(s) Adjudicatária(s),Preço Contratual,Data de Publicação,Data de Celebração do Contrato,Prazo de Execução,Local de Execução,Fundamentação,Data de Fecho do Contrato,Preço Total Efetivo,Causas das Alterações ao Prazo,Causas das Alterações ao Preço,Estado,N.º registo do Acordo Quadro,Descrição do Acordo Quadro,Procedimento Centralizado
Aquisição de Diverso Material Comum,Ajuste Direto Regime Geral,Aquisição de bens móveis,"44400000-4, Produtos fabricados diversos e artigos afins","Centro Hospitalar do Tâmega e Sousa, E. P. E. (508318262)","VILABONENSE - MATERIAIS DE CONSTRUÇÃO, UNIPESSOAL, LDA (506151425)","558,74 €",11-05-2016,11-05-2016,235 dias,"Portugal, Porto, Amarante<BR/>Portugal, Porto, Penafiel","Artigo 20.º, n.º 1, alínea a) do Código dos Contratos Públicos",,,,,,Não aplicável.,Não aplicável.,FALSE
Aquisição de Diverso Material Comum,Ajuste Direto Regime Geral,Aquisição de bens móveis,"44400000-4, Produtos fabricados diversos e artigos afins","Centro Hospitalar do Tâmega e Sousa, E. P. E. (508318262)","VASCONCELOS & FREITAS, LDA (501054006)","1.176,60 €",11-05-2016,11-05-2016,235 dias,"Portugal, Porto, Penafiel<BR/>Portugal, Porto, Amarante","Artigo 20.º, n.º 1, alínea a) do Código dos Contratos Públicos",,,,,,Não aplicável.,Não aplicável.,FALSE
Aquisição de Diverso Material Comum,Ajuste Direto Regime Geral,Aquisição de bens móveis,"44400000-4, Produtos fabricados diversos e artigos afins","Centro Hospitalar do Tâmega e Sousa, E. P. E. (508318262)","DIVULGNORTE - PUBLICIDADE E MARKETING, LDA (504240790)","183,50 €",11-05-2016,11-05-2016,235 dias,"Portugal, Porto, Amarante<BR/>Portugal, Porto, Penafiel","Artigo 20.º, n.º 1, alínea a) do Código dos Contratos Públicos",,,,,,Não aplicável.,Não aplicável.,FALSE
Aquisição de Diverso Material Comum,Ajuste Direto Regime Geral,Aquisição de bens móveis,"44400000-4, Produtos fabricados diversos e artigos afins","Centro Hospitalar do Tâmega e Sousa, E. P. E. (508318262)","CARVALHO, BATISTA & CA., S.A (500056773)","616,05 €",11-05-2016,11-05-2016,235 dias,"Portugal, Porto, Penafiel<BR/>Portugal, Porto, Amarante","Artigo 20.º, n.º 1, alínea a) do Código dos Contratos Públicos",,,,,,Não aplicável.,Não aplicável.,FALSE
Aquisição de Diverso Material Comum,Ajuste Direto Regime Geral,Aquisição de bens móveis,"44400000-4, Produtos fabricados diversos e artigos afins","Centro Hospitalar do Tâmega e Sousa, E. P. E. (508318262)","B.BRAUN MEDICAL, LDA (501506543)","1.469,98 €",11-05-2016,11-05-2016,235 dias,"Portugal, Porto, Penafiel<BR/>Portugal, Porto, Amarante","Artigo 20.º, n.º 1, alínea a) do Código dos Contratos Públicos",,,,,,Não aplicável.,Não aplicável.,FALSE
Aquisição de Diverso Material Comum,Ajuste Direto Regime Geral,Aquisição de bens móveis,"44400000-4, Produtos fabricados diversos e artigos afins","Centro Hospitalar do Tâmega e Sousa, E. P. E. (508318262)","ALBANO MAGALHÃES, LDA (501327991)","1.190,41 €",11-05-2016,11-05-2016,235 dias,"Portugal, Porto, Amarante<BR/>Portugal, Porto, Penafiel","Artigo 20.º, n.º 1, alínea a) do Código dos Contratos Públicos",,,,,,Não aplicável.,Não aplicável.,FALSE
Stent Coronário para Bifurcações,Ao abrigo de acordo-quadro (art.º 259.º),Aquisição de bens móveis,"33184200-5, Próteses vasculares","Centro Hospitalar do Tâmega e Sousa, E. P. E. (508318262)"," PLASTIMEDE - COMERCIALIZAÇÃO DE PRODUTOS E EQUIPAMENTOS MEDICOS, LDA (501899820)","20.000,00 €",11-05-2016,04-05-2016,365 dias,"Portugal, Porto, Amarante<BR/>Portugal, Porto, Penafiel",Artigo 259.º do Código dos Contratos Públicos,,,,,,602205,"CONCURSO PÚBLICO PARA A CELEBRAÇÃO DE CONTRATOS PÚBLICOS DE APROVISIONAMENTO PARA A ÁREA DA SAÚDE, COM VISTA AO FORNECIMENTO SISTEMAS DE STENTS CORONÁRIOS ÀS INSTITUIÇÕES E SERVIÇOS DO SERVIÇO NACIONAL DE SAÚDE",FALSE
Medicamentos do Foro Oncológico,Ao abrigo de acordo-quadro (art.º 259.º),Aquisição de bens móveis,"33600000-6, Produtos farmacêuticos","Centro Hospitalar do Tâmega e Sousa, E. P. E. (508318262)","BIOGEN PORTUGAL - SOCIEDADE FARMACÊUTICA, UNIPESSOAL, LDA (506415740)","76.141,20 €",11-05-2016,31-03-2016,276 dias,"Portugal, Porto, Amarante<BR/>Portugal, Porto, Penafiel",Artigo 259.º do Código dos Contratos Públicos,,,,,,345900,CONCURSO PÚBLICO PARA A CELEBRAÇÃO DE CONTRATOS PÚBLICOS DE APROVISIONAMENTO PARA AQUISIÇÃO MEDICAMENTOS DO FORO ONCOLÓGICO,FALSE
Medicamentos do Foro Oncológico,Ao abrigo de acordo-quadro (art.º 259.º),Aquisição de bens móveis,"33600000-6, Produtos farmacêuticos","Centro Hospitalar do Tâmega e Sousa, E. P. E. (508318262)","MERCK SHARP & DOHME, LDA (500191360)","36.511,20 €",11-05-2016,31-03-2016,276 dias,"Portugal, Porto, Penafiel<BR/>Portugal, Porto, Amarante",Artigo 259.º do Código dos Contratos Públicos,,,,,,345900,CONCURSO PÚBLICO PARA A CELEBRAÇÃO DE CONTRATOS PÚBLICOS DE APROVISIONAMENTO PARA AQUISIÇÃO MEDICAMENTOS DO FORO ONCOLÓGICO,FALSE
05/AD.16.48 Fornecimento de Economato,Ajuste Direto Regime Geral,Aquisição de bens móveis,"30190000-7, Equipamento e material de escritório diverso","Centro Hospitalar do Tâmega e Sousa, E.P.E. (508318262)","OLMAR - ARTIGOS DE PAPELARIA, LDA (508831989)","9.526,65 €",09-05-2016,14-04-2016,261 dias,"Portugal, Porto, Penafiel<BR/>Portugal, Porto, Amarante","Artigo 20.º, n.º 1, alínea a) do Código dos Contratos Públicos",,,,,,Não aplicável.,Não aplicável.,FALSE
Prestação de Serviços para a realização de Meios Complementares de Diagnóstico e Terapêutica na Área da Anatomia Patológica/Genética,Concurso público,Aquisição de serviços,"85145000-7, Serviços prestados por laboratórios médicos","Centro Hospitalar do Tâmega e Sousa, E. P. E. (508318262)","CGC - CENTRO DE GENÉTICA CLÍNICA E PATOLOGIA, S.A (501410961)","195.085,00 €",09-05-2016,01-05-2016,365 dias,"Portugal, Porto, Penafiel<BR/>Portugal, Porto, Amarante","Artigo 20.º, n.º 1, alínea b) do Código dos Contratos Públicos",,,,,,Não aplicável.,Não aplicável.,FALSE
Fornecimento de Material de Hemodinâmica: Fios Guia,Ajuste Direto Regime Geral,Aquisição de bens móveis,"33140000-3, Material médico de consumo","Centro Hospitalar do Tâmega e Sousa, E.P.E. (508318262)","ST.JUDE MEDICAL (PORTUGAL) - DISTRIBUIÇÃO DE PRODUTOS MÉDICOS, LDA (504180746)","15.000,00 €",09-05-2016,01-05-2016,365 dias,"Portugal, Porto, Amarante<BR/>Portugal, Porto, Penafiel","Artigo 20.º, n.º 1, alínea a) do Código dos Contratos Públicos",,,,,,Não aplicável.,Não aplicável.,FALSE
Fornecimento de Material de Hemodinâmica: Fios Guia,Ajuste Direto Regime Geral,Aquisição de bens móveis,"33140000-3, Material médico de consumo","Centro Hospitalar do Tâmega e Sousa, E.P.E. (508318262)","ABBOTT LABORATÓRIOS, LDA (500006148)","2.400,00 €",09-05-2016,01-05-2016,365 dias,"Portugal, Porto, Penafiel<BR/>Portugal, Porto, Amarante","Artigo 20.º, n.º 1, alínea a) do Código dos Contratos Públicos",,,,,,Não aplicável.,Não aplicável.,FALSE
Fornecimento de Material de Hemodinâmica: Fios Guia,Ajuste Direto Regime Geral,Aquisição de bens móveis,"33140000-3, Material médico de consumo","Centro Hospitalar do Tâmega e Sousa, E.P.E. (508318262)","WORLD MEDICA, S. L (B-82612599)","6.175,00 €",09-05-2016,01-05-2016,365 dias,"Portugal, Porto, Penafiel<BR/>Portugal, Porto, Amarante","Artigo 20.º, n.º 1, alínea a) do Código dos Contratos Públicos",,,,,,Não aplicável.,Não aplicável.,FALSE
Fornecimento de Material de Hemodinâmica: Fios Guia,Ajuste Direto Regime Geral,Aquisição de bens móveis,"33140000-3, Material médico de consumo","Centro Hospitalar do Tâmega e Sousa, E.P.E. (508318262)","TERUMO BCT PORTUGAL, UNIPESSOAL LDA (510627048)","8.770,00 €",09-05-2016,01-05-2016,365 dias,"Portugal, Porto, Penafiel<BR/>Portugal, Porto, Amarante","Artigo 20.º, n.º 1, alínea a) do Código dos Contratos Públicos",,,,,,Não aplicável.,Não aplicável.,FALSE
Fornecimento de Material de Hemodinâmica: Fios Guia,Ajuste Direto Regime Geral,Aquisição de bens móveis,"33140000-3, Material médico de consumo","Centro Hospitalar do Tâmega e Sousa, E.P.E. (508318262)","CARDINAL HEALTH PORTUGAL 513, UNIPESSOAL, LDA (513620834)","4.840,00 €",09-05-2016,01-05-2016,365 dias,"Portugal, Porto, Penafiel<BR/>Portugal, Porto, Amarante","Artigo 20.º, n.º 1, alínea a) do Código dos Contratos Públicos",,,,,,Não aplicável.,Não aplicável.,FALSE
Stent Rev. Biolimus Hemodinâmica,Ajuste Direto Regime Geral,Aquisição de bens móveis,"33184000-3, Próteses","Centro Hospitalar do Tâmega e Sousa, E.P.E. (508318262)"," LUSOPALEX - SOCIEDADE DISTRIBUIDORA DE PRODUTOS HOSPITALARES, UNIPESSOAL, LDA (503531588)","32.500,00 €",09-05-2016,11-04-2016,1095 dias,"Portugal, Porto, Penafiel<BR/>Portugal, Porto, Amarante","Artigo 20.º, n.º 1, alínea a) do Código dos Contratos Públicos",,,,,,Não aplicável.,Não aplicável.,FALSE
Fornecimento de Antisséticos e Outros,Ajuste Direto Regime Geral,Aquisição de bens móveis,"33600000-6, Produtos farmacêuticos","Centro Hospitalar do Tâmega e Sousa, E.P.E. (508318262)"," VYGON (PORTUGAL) - PRODUTOS MÉDICOS E FARMACÊUTICOS, LDA (503232785)","16.095,50 €",09-05-2016,01-05-2016,1095 dias,"Portugal, Porto, Amarante<BR/>Portugal, Porto, Penafiel","Artigo 20.º, n.º 1, alínea a) do Código dos Contratos Públicos",,,,,,Não aplicável.,Não aplicável.,FALSE
Fornecimento de Antisséticos e Outros,Ajuste Direto Regime Geral,Aquisição de bens móveis,"33600000-6, Produtos farmacêuticos","Centro Hospitalar do Tâmega e Sousa, E.P.E. (508318262)","PAUL HARTMANN, LDA (502271728)","1.740,00 €",09-05-2016,01-05-2016,1095 dias,"Portugal, Porto, Amarante<BR/>Portugal, Porto, Penafiel","Artigo 20.º, n.º 1, alínea a) do Código dos Contratos Públicos",,,,,,Não aplicável.,Não aplicável.,FALSE
Monitorização para Cirurgia Vascular,Ajuste Direto Regime Geral,Aquisição de bens móveis,"33100000-1, Equipamento médico","Centro Hospitalar do Tâmega e Sousa, E.P.E. (508318262)","COVIDIEN PORTUGAL - PRODUTOS DE SAÚDE, UNIPESSOAL, LDA (503413410)","32.400,00 €",06-05-2016,15-04-2016,1095 dias,"Portugal, Porto, Amarante<BR/>Portugal, Porto, Penafiel","Artigo 20.º, n.º 1, alínea a) do Código dos Contratos Públicos",,,,,,Não aplicável.,Não aplicável.,FALSE
