Objeto do Contrato,Tipo de Procedimento,Tipo(s) de Contrato,CPVs,Entidade(s) Adjudicante(s),Entidade(s) Adjudicatária(s),Preço Contratual,Data de Publicação,Data de Celebração do Contrato,Prazo de Execução,Local de Execução,Fundamentação,Data de Fecho do Contrato,Preço Total Efetivo,Causas das Alterações ao Prazo,Causas das Alterações ao Preço,Estado,N.º registo do Acordo Quadro,Descrição do Acordo Quadro,Procedimento Centralizado
Material para Cirurgia Cardíaca,Concurso público,Aquisição de bens móveis,"33182000-9, Material de assistência à função cardíaca","Centro Hospitalar Vila Nova de Gaia - Espinho, E.P.E. (508142156)",Teleflex Medical SA - Sucursal em Portugal (980249783),"775,27 €",01-07-2014,28-05-2014,210 dias,"Portugal, Porto, Vila Nova de Gaia","Artigo 20.º, n.º 1, alínea b) do Código dos Contratos Públicos",,,,,,Não aplicável.,Não aplicável.,FALSE
Material para Cirurgia Cardíaca,Concurso público,Aquisição de bens móveis,"33182000-9, Material de assistência à função cardíaca","Centro Hospitalar Vila Nova de Gaia - Espinho, E.P.E. (508142156)","Lusopalex - Soc. Dist. Prod. Hospitalares, Unipessoal, Lda. (503531588)","52.112,74 €",01-07-2014,28-05-2014,210 dias,"Portugal, Porto, Vila Nova de Gaia","Artigo 20.º, n.º 1, alínea b) do Código dos Contratos Públicos",,,,,,Não aplicável.,Não aplicável.,FALSE
Material para Cirurgia Cardíaca,Concurso público,Aquisição de bens móveis,"33182000-9, Material de assistência à função cardíaca","Centro Hospitalar Vila Nova de Gaia - Espinho, E.P.E. (508142156)","Socime II - Produtos Médicos, Lda. (504453939)","24.339,66 €",01-07-2014,28-05-2014,210 dias,"Portugal, Porto, Vila Nova de Gaia","Artigo 20.º, n.º 1, alínea b) do Código dos Contratos Públicos",,,,,,Não aplicável.,Não aplicável.,FALSE
Material para Cirurgia Cardíaca,Concurso público,Aquisição de bens móveis,"33182000-9, Material de assistência à função cardíaca","Centro Hospitalar Vila Nova de Gaia - Espinho, E.P.E. (508142156)","Maquet Portugal, Comércio de Equipamentos Hospitalares Unipessoal, Lda. (506819698)","128.645,20 €",01-07-2014,28-05-2014,210 dias,"Portugal, Porto, Vila Nova de Gaia","Artigo 20.º, n.º 1, alínea b) do Código dos Contratos Públicos",,,,,,Não aplicável.,Não aplicável.,FALSE
Material para Cirurgia Cardíaca,Concurso público,Aquisição de bens móveis,"33182000-9, Material de assistência à função cardíaca","Centro Hospitalar Vila Nova de Gaia - Espinho, E.P.E. (508142156)","Medtronic Portugal, Lda. (504223933)","56.675,60 €",01-07-2014,28-05-2014,210 dias,"Portugal, Porto, Vila Nova de Gaia","Artigo 20.º, n.º 1, alínea b) do Código dos Contratos Públicos",,,,,,Não aplicável.,Não aplicável.,FALSE
