Objeto do Contrato,Tipo de Procedimento,Tipo(s) de Contrato,CPVs,Entidade(s) Adjudicante(s),Entidade(s) Adjudicatária(s),Preço Contratual,Data de Publicação,Data de Celebração do Contrato,Prazo de Execução,Local de Execução,Fundamentação,Data de Fecho do Contrato,Preço Total Efetivo,Causas das Alterações ao Prazo,Causas das Alterações ao Preço,Estado,N.º registo do Acordo Quadro,Descrição do Acordo Quadro,Procedimento Centralizado
Renovação do procedimento Concurso Público Nº 120010/2015 sacos para aspiração de fluídos orgânicos em circuito fechado c/ colocação de recipientes e suportes,Ajuste Direto Regime Geral,Aquisição de bens móveis,"33000000-0, Equipamento médico, medicamentos e produtos para cuidados pessoais","Hospital Distrital de Santarém, E. P. E. (506361462)","P.M.H. - Produtos Médicos-Hospitalares, S.A (502376899)","14.637,00 €",13-03-2017,01-01-2017,365 dias,"Portugal, Santarém, Santarém","Artigo 27.º, n.º 1, alínea a) do Código dos Contratos Públicos",,,,,,Não aplicável.,Não aplicável.,FALSE
renovação procedimento Concurso Público Nº 120004/2015 - Sistema estéril infusão continua para preparação de fármacos,Ajuste Direto Regime Geral,Aquisição de bens móveis,"33000000-0, Equipamento médico, medicamentos e produtos para cuidados pessoais","Hospital Distrital de Santarém, E. P. E. (506361462)",Ibervoxel (506716899),"875,00 €",13-03-2017,01-01-2017,365 dias,"Portugal, Santarém, Santarém","Artigo 27.º, n.º 1, alínea a) do Código dos Contratos Públicos",,,,,,Não aplicável.,Não aplicável.,FALSE
Renovação procedimento Concurso Público Nº 120004/2015 - Sistema estéril infusão continua para preparação de fármacos,Ajuste Direto Regime Geral,Aquisição de bens móveis,"33000000-0, Equipamento médico, medicamentos e produtos para cuidados pessoais","Hospital Distrital de Santarém, E. P. E. (506361462)","Baxter II, Lda (503347345)","3.546,00 €",13-03-2017,01-01-2017,365 dias,"Portugal, Santarém, Santarém","Artigo 27.º, n.º 1, alínea a) do Código dos Contratos Públicos",,,,,,Não aplicável.,Não aplicável.,FALSE
Renovação procedimento Concurso Público Nº 120004/2015 - Sistema estéril infusão continua para preparação de fármacos,Ajuste Direto Regime Geral,Aquisição de bens móveis,"33000000-0, Equipamento médico, medicamentos e produtos para cuidados pessoais","Hospital Distrital de Santarém, E. P. E. (506361462)","B. Braun Medical, Lda (501506543)","20.880,00 €",13-03-2017,01-01-2017,365 dias,"Portugal, Santarém, Santarém","Artigo 27.º, n.º 1, alínea a) do Código dos Contratos Públicos",,,,,,Não aplicável.,Não aplicável.,FALSE
Aluguer Equipamento Fibroscan,Ajuste Direto Regime Geral,Aquisição de serviços,"85100000-0, Serviços de saúde","Hospital Distrital de Santarém, EPE (506361462)","Ecodanusa, Lda (510625932)","15.000,00 €",13-03-2017,03-03-2017,300 dias,"Portugal, Santarém, Santarém","Artigo 24.º, n.º 1, alínea e) do Código dos Contratos Públicos",,,,,,Não aplicável.,Não aplicável.,FALSE
Renovação procedimento Concurso Público Nº 120003/2015 - Pinças disposable para tirar agrafes,Ajuste Direto Regime Geral,Aquisição de bens móveis,"33000000-0, Equipamento médico, medicamentos e produtos para cuidados pessoais","Hospital Distrital de Santarém, E. P. E. (506361462)","Bastos Viegas, S.A (500042772)","2.304,00 €",13-03-2017,01-01-2017,365 dias,"Portugal, Santarém, Santarém","Artigo 27.º, n.º 1, alínea a) do Código dos Contratos Públicos",,,,,,Não aplicável.,Não aplicável.,FALSE
Renovação procedimento Concurso Publico nº 120001/2015 - Kit preservação amostra citológica com colocação de equipamento,Ajuste Direto Regime Geral,Aquisição de bens móveis,"33000000-0, Equipamento médico, medicamentos e produtos para cuidados pessoais","Hospital Distrital de Santarém, E. P. E. (506361462)","Hologic Ibéria, S.L. (980277230)","9.225,00 €",13-03-2017,01-01-2017,365 dias,"Portugal, Santarém, Santarém","Artigo 27.º, n.º 1, alínea a) e n.º 2 do Código dos Contratos Públicos",,,,,,Não aplicável.,Não aplicável.,FALSE
Renovação procedimento 120001/2016 - Sistema de enteroscopia por cápsula,Ajuste Direto Regime Geral,Aquisição de bens móveis,"33000000-0, Equipamento médico, medicamentos e produtos para cuidados pessoais","Hospital Distrital de Santarém, E. P. E. (506361462)","Medtronic Portugal, Lda (504223933)","22.600,00 €",13-03-2017,01-01-2017,365 dias,"Portugal, Santarém, Santarém","Artigo 27.º, n.º 1, alínea a) do Código dos Contratos Públicos",,,,,,Não aplicável.,Não aplicável.,FALSE
Renovação do procedimento Nº 720002/2015 - Pulseiras RFID para sistemas hemovigilância,Ajuste Direto Regime Geral,Aquisição de bens móveis,"33000000-0, Equipamento médico, medicamentos e produtos para cuidados pessoais","Hospital Distrital de Santarém, E. P. E. (506361462)","Veridentia Portugal, Lda (509459951)","20.000,00 €",13-03-2017,12-01-2017,350 dias,"Portugal, Santarém, Santarém","Artigo 24.º, n.º 1, alínea e) do Código dos Contratos Públicos",,,,,,Não aplicável.,Não aplicável.,FALSE
Micobactérias,Ajuste Direto Regime Geral,Aquisição de bens móveis,"33696000-5, Reagentes e meios de contraste","Hospital Distrital de Santarém, E. P. E. (506361462)",Biomerieux Portuguesa (501524177),"12.394,95 €",10-03-2017,15-01-2016,365 dias,"Portugal, Santarém, Santarém","Artigo 20.º, n.º 1, alínea a) do Código dos Contratos Públicos",,,,,,Não aplicável.,Não aplicável.,FALSE
Aquisição de mobiliário Hospitalar HDS_UHTN,Concurso público,Aquisição de bens móveis,"39100000-3, Mobiliário","Hospital Distrital de Santarém, E. P. E. (506361462)",PromeiCentro Lda (506470113),"6.996,00 €",09-03-2017,14-02-2017,30 dias,"Portugal, Santarém, Santarém","Artigo 20.º, n.º 1, alínea b) do Código dos Contratos Públicos",,,,,,Não aplicável.,Não aplicável.,FALSE
"Aquisição de Mobiliário Hospitalar, HDS_UHTN",Concurso público,Aquisição de bens móveis,"39100000-3, Mobiliário","Hospital Distrital de Santarém, E. P. E. (506361462)","Paramédica, Equipamentos Médicos, Lda (501393005)","29.500,00 €",09-03-2017,14-02-2017,30 dias,"Portugal, Santarém, Santarém","Artigo 20.º, n.º 1, alínea b) do Código dos Contratos Públicos",,,,,,Não aplicável.,Não aplicável.,FALSE
Mobiliário Hospitalar HDS_UHTN,Concurso público,Aquisição de bens móveis,"39100000-3, Mobiliário","Hospital Distrital de Santarém, E. P. E. (506361462)","Eugénio Pereira, Lda (503989525)","2.196,95 €",09-03-2017,14-02-2017,30 dias,"Portugal, Santarém, Santarém","Artigo 20.º, n.º 1, alínea b) do Código dos Contratos Públicos",,,,,,Não aplicável.,Não aplicável.,FALSE
Aquisição de Mobiliário Hospitalar HDS_UHTN,Concurso público,Aquisição de bens móveis,"39100000-3, Mobiliário","Hospital Distrital de Santarém, E. P. E. (506361462)","SANO TECNICA, Lda. (500239819)","694,00 €",09-03-2017,14-02-2017,30 dias,"Portugal, Santarém, Santarém","Artigo 20.º, n.º 1, alínea b) do Código dos Contratos Públicos",,,,,,Não aplicável.,Não aplicável.,FALSE
Aquisição de Mobiliário Hospitalar HDS_UHTN,Concurso público,Aquisição de bens móveis,"39100000-3, Mobiliário","Hospital Distrital de Santarém, E. P. E. (506361462)","Filsat, Equipamentos Médico-Científicos , Lda (506708616)","447,50 €",09-03-2017,14-02-2017,30 dias,"Portugal, Santarém, Santarém","Artigo 20.º, n.º 1, alínea b) do Código dos Contratos Públicos",,,,,,Não aplicável.,Não aplicável.,FALSE
Aquisição de Mobiliário Hospitalar HDS_UHTN,Concurso público,Aquisição de bens móveis,"39100000-3, Mobiliário","Hospital Distrital de Santarém, E. P. E. (506361462)","Julcar, Mobiliário Integrado, SA (501140263)","1.440,00 €",09-03-2017,14-02-2017,30 dias,"Portugal, Santarém, Santarém","Artigo 20.º, n.º 1, alínea b) do Código dos Contratos Públicos",,,,,,Não aplicável.,Não aplicável.,FALSE
"Aquisição de 1 Monitor de Imagem Médica com 21"""" polegadas",Ajuste Direto Regime Geral,Aquisição de bens móveis,"33100000-1, Equipamento médico","Hospital Distrital de Santarém, EPE (506361462)","Iberdata Equipamentos, SA (501904921)","1.730,00 €",09-03-2017,22-02-2017,30 dias,"Portugal, Santarém, Santarém","Artigo 20.º, n.º 1, alínea a) do Código dos Contratos Públicos",,,,,,Não aplicável.,Não aplicável.,FALSE
Renovação procedimento Ajuste Direto Nº 420061/2014 - Coberturas descartáveis para termómetros timpânicos com colocação de equipamento,Ajuste Direto Regime Geral,Aquisição de bens móveis,"33000000-0, Equipamento médico, medicamentos e produtos para cuidados pessoais","Hospital Distrital de Santarém, E. P. E. (506361462)","Covidien Portugal, Lda (503413410)","22.704,00 €",07-03-2017,01-01-2016,365 dias,"Portugal, Santarém, Santarém","Artigo 27.º, n.º 1, alínea a) do Código dos Contratos Públicos",,,,,,Não aplicável.,Não aplicável.,FALSE
Renovação procedimento Concurso Público Nº 120002/2014 - Sistema estéril uso único para humidificação de oxigénio,Ajuste Direto Regime Geral,Aquisição de bens móveis,"33000000-0, Equipamento médico, medicamentos e produtos para cuidados pessoais","Hospital Distrital de Santarém, E. P. E. (506361462)","Air Liquide Medicinal, S.A (501576436)","15.150,00 €",06-03-2017,01-01-2016,365 dias,"Portugal, Santarém, Santarém","Artigo 27.º, n.º 1, alínea a) do Código dos Contratos Públicos",,,,,,Não aplicável.,Não aplicável.,FALSE
Renovação procedimento Concurso Público Nº 120018/2015 - Packs para cirurgia do faco,Ajuste Direto Regime Geral,Aquisição de bens móveis,"33000000-0, Equipamento médico, medicamentos e produtos para cuidados pessoais","Hospital Distrital de Santarém, E. P. E. (506361462)","Bausch & Lomb, S.A (980218764)","20.140,00 €",06-03-2017,01-01-2016,365 dias,"Portugal, Santarém, Santarém","Artigo 27.º, n.º 1, alínea a) do Código dos Contratos Públicos",,,,,,Não aplicável.,Não aplicável.,FALSE
"Renovação procedimento de Concurso Público Nº 120013/2015 - Sistemas para preparação, transporte e administração de citostáticos com colocação de equipamento",Ajuste Direto Regime Geral,Aquisição de bens móveis,"33000000-0, Equipamento médico, medicamentos e produtos para cuidados pessoais","Hospital Distrital de Santarém, E. P. E. (506361462)",Codan 11 (504923471),"28.979,68 €",06-03-2017,04-01-2016,365 dias,"Portugal, Santarém, Santarém","Artigo 27.º, n.º 1, alínea a) do Código dos Contratos Públicos",,,,,,Não aplicável.,Não aplicável.,FALSE
Renovação procedimento concurso público 120003/2015 - Pinças disposable para tirar agrafes,Ajuste Direto Regime Geral,Aquisição de bens móveis,"33000000-0, Equipamento médico, medicamentos e produtos para cuidados pessoais","Hospital Distrital de Santarém, E. P. E. (506361462)","Bastos Viegas, S.A (500042772)","2.496,00 €",03-03-2017,06-11-2015,365 dias,"Portugal, Santarém, Santarém","Artigo 27.º, n.º 1, alínea a) do Código dos Contratos Públicos",,,,,,Não aplicável.,Não aplicável.,FALSE
Drenos,Ajuste Direto Regime Geral,Aquisição de bens móveis,"33140000-3, Material médico de consumo","Hospital Distrital de Santarém, E. P. E. (506361462)","VYGON (PORTUGAL) - PRODUTOS MÉDICOS E FARMACEUTICOS, LDA (503232785)","220,50 €",03-03-2017,26-02-2016,365 dias,"Portugal, Santarém, Santarém","Artigo 27.º, n.º 1, alínea a) do Código dos Contratos Públicos",,,,,,Não aplicável.,Não aplicável.,FALSE
Drenos,Ajuste Direto Regime Geral,Aquisição de bens móveis,"33140000-3, Material médico de consumo","Hospital Distrital de Santarém, E. P. E. (506361462)",HOSPITEX (501909842),"1.380,50 €",03-03-2017,26-02-2016,365 dias,"Portugal, Santarém, Santarém","Artigo 27.º, n.º 1, alínea a) do Código dos Contratos Públicos",,,,,,Não aplicável.,Não aplicável.,FALSE
Drenos,Ajuste Direto Regime Geral,Aquisição de bens móveis,"33140000-3, Material médico de consumo","Hospital Distrital de Santarém, E. P. E. (506361462)","HR HOSPITALAR, UNIPESSOAL LDA. (501895558)","17,50 €",03-03-2017,26-02-2016,365 dias,"Portugal, Santarém, Santarém","Artigo 27.º, n.º 1, alínea a) do Código dos Contratos Públicos",,,,,,Não aplicável.,Não aplicável.,FALSE
Drenos,Ajuste Direto Regime Geral,Aquisição de bens móveis,"33140000-3, Material médico de consumo","Hospital Distrital de Santarém, E. P. E. (506361462)","EXPOMEDICA SOC. EXPORTAÇAO IMPORT.MAT. MEDIC., LDA (501886621)","1.150,00 €",03-03-2017,26-02-2016,365 dias,"Portugal, Santarém, Santarém","Artigo 27.º, n.º 1, alínea a) do Código dos Contratos Públicos",,,,,,Não aplicável.,Não aplicável.,FALSE
Drenos,Ajuste Direto Regime Geral,Aquisição de bens móveis,"33140000-3, Material médico de consumo","Hospital Distrital de Santarém, E. P. E. (506361462)","COLOPLAST PORTUGAL SOCIEDADE UNIPESSOAL, LDA (503989037)","912,00 €",03-03-2017,26-02-2016,365 dias,"Portugal, Santarém, Santarém","Artigo 27.º, n.º 1, alínea a) do Código dos Contratos Públicos",,,,,,Não aplicável.,Não aplicável.,FALSE
Biotomos e Testes Adesivos Alergénicos p/ Dermatologia,Ajuste Direto Regime Geral,Aquisição de bens móveis,"33140000-3, Material médico de consumo","Hospital Distrital de Santarém, E. P. E. (506361462)",B BRAUN (501506543),"587,00 €",03-03-2017,26-02-2016,365 dias,"Portugal, Santarém, Santarém","Artigo 27.º, n.º 1, alínea a) do Código dos Contratos Públicos",,,,,,Não aplicável.,Não aplicável.,FALSE
Renovação procedimento concurso público 120001/2015 - kit preservação amostra citológica,Ajuste Direto Regime Geral,Aquisição de bens móveis,"33000000-0, Equipamento médico, medicamentos e produtos para cuidados pessoais","Hospital Distrital de Santarém, E. P. E. (506361462)","Hologic Ibéria, S.L (980277230)","12.300,00 €",03-03-2017,04-02-2016,365 dias,"Portugal, Santarém, Santarém","Artigo 27.º, n.º 1, alínea a) do Código dos Contratos Públicos",,,,,,Não aplicável.,Não aplicável.,FALSE
Cirurgia Vascular,Ajuste Direto Regime Geral,Aquisição de bens móveis,"33140000-3, Material médico de consumo","Hospital Distrital de Santarém, E. P. E. (506361462)"," Covidien Portugal, Lda (503413410)","372,00 €",03-03-2017,19-11-2015,365 dias,"Portugal, Santarém, Santarém","Artigo 27.º, n.º 1, alínea a) do Código dos Contratos Públicos",,,,,,Não aplicável.,Não aplicável.,FALSE
Cirurgia Vascular,Ajuste Direto Regime Geral,Aquisição de bens móveis,"33140000-3, Material médico de consumo","Hospital Distrital de Santarém, E. P. E. (506361462)",OVERPHARMA (801554446),"934,22 €",03-03-2017,19-11-2015,365 dias,"Portugal, Santarém, Santarém","Artigo 27.º, n.º 1, alínea a) do Código dos Contratos Públicos",,,,,,Não aplicável.,Não aplicável.,FALSE
Cirurgia Vascular,Ajuste Direto Regime Geral,Aquisição de bens móveis,"33140000-3, Material médico de consumo","Hospital Distrital de Santarém, E. P. E. (506361462)"," B. Braun Medical, Lda (501506543)","2.680,50 €",03-03-2017,19-11-2015,365 dias,"Portugal, Santarém, Santarém","Artigo 27.º, n.º 1, alínea a) do Código dos Contratos Públicos",,,,,,Não aplicável.,Não aplicável.,FALSE
Citologia não Ginecológica,Ajuste Direto Regime Geral,Aquisição de bens móveis,"33696000-5, Reagentes e meios de contraste","Hospital Distrital de Santarém, EPE (506361462)",HOLOGIC IBERIA (980277230),"7.190,80 €",03-03-2017,26-07-2016,154 dias,"Portugal, Santarém, Santarém","Artigo 24.º, n.º 1, alínea e) do Código dos Contratos Públicos",,,,,,Não aplicável.,Não aplicável.,FALSE
P16 Proteina - Kit para Histologia,Ajuste Direto Regime Geral,Aquisição de bens móveis,"33696000-5, Reagentes e meios de contraste","Hospital Distrital de Santarém, EPE (506361462)",ROCHE SISTEMA DE DIAGNOSTICOS  (504282921),"5.000,00 €",03-03-2017,27-01-2016,365 dias,"Portugal, Santarém, Santarém","Artigo 24.º, n.º 1, alínea e) do Código dos Contratos Públicos",,,,,,Não aplicável.,Não aplicável.,FALSE
Teste rápido p/ Identificação de Micobactérias,Ajuste Direto Regime Geral,Aquisição de bens móveis,"33696000-5, Reagentes e meios de contraste","Hospital Distrital de Santarém, EPE (506361462)",QUILABAN  (500399670),"1.080,00 €",03-03-2017,27-01-2016,365 dias,"Portugal, Santarém, Santarém","Artigo 24.º, n.º 1, alínea e) do Código dos Contratos Públicos",,,,,,Não aplicável.,Não aplicável.,FALSE
Biomarcadores ASCA,Ajuste Direto Regime Geral,Aquisição de bens móveis,"33696000-5, Reagentes e meios de contraste","Hospital Distrital de Santarém, EPE (506361462)",ISODER (502241594),"1.080,00 €",03-03-2017,28-03-2016,365 dias,"Portugal, Santarém, Santarém","Artigo 24.º, n.º 1, alínea e) do Código dos Contratos Públicos",,,,,,Não aplicável.,Não aplicável.,FALSE
"DESCONTAMINANTE DE AMOSTRAS, KIT KINYOUN",Ajuste Direto Regime Geral,Aquisição de bens móveis,"33696000-5, Reagentes e meios de contraste","Hospital Distrital de Santarém, EPE (506361462)","BIOGNOSTICA- DIST. PROD. TECNICOS, LDA (504441256)","4.040,00 €",03-03-2017,27-01-2016,365 dias,"Portugal, Santarém, Santarém","Artigo 24.º, n.º 1, alínea e) do Código dos Contratos Públicos",,,,,,Não aplicável.,Não aplicável.,FALSE
