Objeto do Contrato,Tipo de Procedimento,Tipo(s) de Contrato,CPVs,Entidade(s) Adjudicante(s),Entidade(s) Adjudicatária(s),Preço Contratual,Data de Publicação,Data de Celebração do Contrato,Prazo de Execução,Local de Execução,Fundamentação,Data de Fecho do Contrato,Preço Total Efetivo,Causas das Alterações ao Prazo,Causas das Alterações ao Preço,Estado,N.º registo do Acordo Quadro,Descrição do Acordo Quadro,Procedimento Centralizado
Vacina Contra Polio Inactivada - Monodose,Ajuste Direto Regime Geral,Aquisição de bens móveis,"33651600-4, Vacinas","Administração Regional de Saúde de Lisboa e Vale do Tejo, I.P. (503148776)","J. M. Farmaceutica, SA (503550558)","52.200,00 €",08-03-2012,22-02-2012,20 dias,"Portugal, Lisboa","Artigo 26.º, n.º 1, alínea e) do Código dos Contratos Públicos",,,,,,Não aplicável.,Não aplicável.,
Aquisição de seguro automóvel para a viatura com a matricula 78-81-IN,Ajuste Direto Regime Geral,Aquisição de serviços,"66514110-0, Serviços de seguro automóvel","Administração Regional de Saúde de Lisboa e Vale do Tejo, I.P. (503148776)",Macif SA (503640549),"225,00 €",06-03-2012,06-03-2012,365 dias,"Portugal, Lisboa, Lisboa",Artigo 258.º do Código dos Contratos Públicos,,,,,,Não aplicável.,Não aplicável.,
Aquisição de Betametasona creme,Ajuste Direto Regime Geral,Aquisição de bens móveis,"33690000-3, Medicamentos vários","Administração Regional de Saúde de Lisboa e Vale do Tejo, I.P. (503148776)",Schering (500700907),"1.850,00 €",05-03-2012,29-02-2012,20 dias,"Portugal, Lisboa","Artigo 26.º, n.º 1, alínea e) do Código dos Contratos Públicos",,,,,,Não aplicável.,Não aplicável.,
"Aquisição de formoterol, salbutamol, ibuprofeno e ibuprofeno em comprimido",Ajuste Direto Regime Geral,Aquisição de bens móveis,"33690000-3, Medicamentos vários","Administração Regional de Saúde de Lisboa e Vale do Tejo, I.P. (503148776)",Generis - farmacêutica (508107997),"4.805,00 €",05-03-2012,29-02-2012,20 dias,"Portugal, Lisboa","Artigo 26.º, n.º 1, alínea e) do Código dos Contratos Públicos",,,,,,Não aplicável.,Não aplicável.,
Aquisição de medroxiprogesterona,Ajuste Direto Regime Geral,Aquisição de bens móveis,"33690000-3, Medicamentos vários","Administração Regional de Saúde de Lisboa e Vale do Tejo, I.P. (503148776)",Laboratórios Pfizer (500162166),"2.385,00 €",05-03-2012,29-02-2012,20 dias,"Portugal, Lisboa","Artigo 26.º, n.º 1, alínea e) do Código dos Contratos Públicos",,,,,,Não aplicável.,Não aplicável.,
Aquisição de Óxido de Zinco,Ajuste Direto Regime Geral,Aquisição de bens móveis,"33690000-3, Medicamentos vários","Administração Regional de Saúde de Lisboa e Vale do Tejo, I.P. (503148776)",Laboratório Edol (507072642),"9.255,00 €",05-03-2012,29-02-2012,20 dias,"Portugal, Lisboa","Artigo 26.º, n.º 1, alínea e) do Código dos Contratos Públicos",,,,,,Não aplicável.,Não aplicável.,
Aquisição de película de poliuretano c/acrílico absorvente,Ajuste Direto Regime Geral,Aquisição de bens móveis,"33690000-3, Medicamentos vários","Administração Regional de Saúde de Lisboa e Vale do Tejo, I.P. (503148776)",3M Portugal (500193940),"51.000,00 €",05-03-2012,22-02-2012,20 dias,"Portugal, Lisboa","Artigo 26.º, n.º 1, alínea e) do Código dos Contratos Públicos",,,,,,Não aplicável.,Não aplicável.,
Aquisição de adesivo perfurado,Ajuste Direto Regime Geral,Aquisição de bens móveis,"33140000-3, Material médico de consumo","Administração Regional de Saúde de Lisboa e Vale do Tejo, I.P. (503148776)","Smith and Nephew, Lda. (503552461)","325,00 €",05-03-2012,01-02-2012,20 dias,"Portugal, Lisboa","Artigo 26.º, n.º 1, alínea e) do Código dos Contratos Públicos",,,,,,Não aplicável.,Não aplicável.,
Aquisição de Propanolol e de Terbutalina,Ajuste Direto Regime Geral,Aquisição de bens móveis,"33690000-3, Medicamentos vários","Administração Regional de Saúde de Lisboa e Vale do Tejo, I.P. (503148776)","Astrazeneca - Produtos farmacêuticos, Lda. (502942240)","3.230,40 €",05-03-2012,28-02-2012,20 dias,"Portugal, Lisboa","Artigo 24.º, n.º 1, alínea e) do Código dos Contratos Públicos",,,,,,Não aplicável.,Não aplicável.,
Aquisição de fluoreto de sódio e clemastina,Ajuste Direto Regime Geral,Aquisição de bens móveis,"33690000-3, Medicamentos vários","Administração Regional de Saúde de Lisboa e Vale do Tejo, I.P. (503148776)","Novartis Consumer Health, Lda. (500268215)","2.162,00 €",05-03-2012,21-02-2012,20 dias,"Portugal, Lisboa","Artigo 24.º, n.º 1, alínea e) do Código dos Contratos Públicos",,,,,,Não aplicável.,Não aplicável.,
Aquisição de trolamina - emulsão cutânea,Ajuste Direto Regime Geral,Aquisição de bens móveis,"33690000-3, Medicamentos vários","Administração Regional de Saúde de Lisboa e Vale do Tejo, I.P. (503148776)",Johnson & Johnson (500153370),"23.472,00 €",05-03-2012,14-02-2012,20 dias,"Portugal, Lisboa","Artigo 24.º, n.º 1, alínea e) do Código dos Contratos Públicos",,,,,,Não aplicável.,Não aplicável.,
"Desenvolvimento de Software sobre a Plataforma do Sistema de Informação da ARSLVT, IP. - SIARS (01-01-2012 a 31-03-2012).",Ajuste Direto Regime Geral,Aquisição de bens móveis,"30200000-1, Equipamento e material informático","Administração Regional de Saúde de Lisboa e Vale do Tejo, I.P. (503148776)","AGILLETM - Serviços e Consultoria de Gestão, S.A. (506403343)","14.040,00 €",02-03-2012,29-02-2012,92 dias,"Portugal, Lisboa, Lisboa","Artigo 27.º, n.º 1, alínea f) do Código dos Contratos Públicos",,,,,,Não aplicável.,Não aplicável.,
"Renovação do contrato de licenciamento, actualização e assistência das aplicações do sistema Clinidata",Ajuste Direto Regime Geral,Aquisição de serviços,"72212218-0, Serviços de desenvolvimento de software para gestão de licenças","Administração Regional de Saúde de Lisboa e Vale do Tejo, I.P. (503148776)","Maxdata - Informática, Lda (502250259)","25.682,28 €",01-03-2012,09-02-2012,365 dias,"Portugal, Lisboa, Oeiras<BR/>Portugal, Lisboa, Amadora<BR/>Portugal, Lisboa, Lisboa","Artigo 27.º, n.º 1, alínea f) do Código dos Contratos Públicos",,,,,,Não aplicável.,Não aplicável.,
Serviços de vigilância e segurança - ACES XIX Médio Tejo - Serra DAire (CS Torres Novas e USF Locomotiva). Periodo dr 01/02/2012 a 29/02/2012,Ajuste Direto Regime Geral,Aquisição de serviços,"79714000-2, Serviços de vigilância","Administração Regional de Saúde de Lisboa e Vale do Tejo, I.P. (503148776)","2045 - Empresa de Segurança, SA (502332905)","3.485,78 €",01-03-2012,16-02-2012,29 dias,"Portugal, Santarém, Torres Novas","Artigo 24.º, n.º 1, alínea e) do Código dos Contratos Públicos",,,,,,Não aplicável.,Não aplicável.,
"Aquisição de utilização de espaço na Loja do Cidadão de Odivelas, para o período de Janeiro a Dezembro de 2012.",Ajuste Direto Regime Geral,Aquisição de serviços,"98390000-3, Outros serviços","Administração Regional de Saúde de Lisboa e Vale do Tejo, I.P. (503148776)",AMA - AGÊNCIA P/ MODERNIZAÇÃO ADMINISTRATIVA (508184509),"17.199,99 €",01-03-2012,22-02-2012,366 dias,"Portugal, Lisboa, Odivelas","Artigo 24.º, n.º 1, alínea e) do Código dos Contratos Públicos",,,,,,Não aplicável.,Não aplicável.,
Aquisição de serviços de vigilância e segurança - ACES XXII Leziria II (Coruche). Periodo de 01/02/2012 a 29/02/2012,Ajuste Direto Regime Geral,Aquisição de serviços,"79714000-2, Serviços de vigilância","Administração Regional de Saúde de Lisboa e Vale do Tejo, I.P. (503148776)","2045 - Empresa de Segurança, SA (502332905)","3.022,85 €",01-03-2012,16-02-2012,29 dias,"Portugal, Santarém, Coruche","Artigo 24.º, n.º 1, alínea e) do Código dos Contratos Públicos",,,,,,Não aplicável.,Não aplicável.,
