Objeto do Contrato,Tipo de Procedimento,Tipo(s) de Contrato,CPVs,Entidade(s) Adjudicante(s),Entidade(s) Adjudicatária(s),Preço Contratual,Data de Publicação,Data de Celebração do Contrato,Prazo de Execução,Local de Execução,Fundamentação,Data de Fecho do Contrato,Preço Total Efetivo,Causas das Alterações ao Prazo,Causas das Alterações ao Preço,Estado,N.º registo do Acordo Quadro,Descrição do Acordo Quadro,Procedimento Centralizado
"Aquisição de discos para a Informática do CHLO, EPE",Ajuste Direto Regime Geral,Aquisição de bens móveis,"30200000-1, Equipamento e material informático","Centro Hospitalar de Lisboa Ocidental, EPE (CHLO) (507618319)","Iten Solutions, SA (510728189)","9.500,00 €",09-03-2015,09-03-2015,15 dias,"Portugal, Lisboa, Lisboa","Artigo 21.º, n.º 1, alínea a) do Código dos Contratos Públicos",,,,,,Não aplicável.,Não aplicável.,FALSE
"Aquisição Serviços de Vigilância e Segurança no CHLO, EPE",Concurso público,Aquisição de serviços,"75240000-0, Serviços de segurança e ordem pública","Centro Hospitalar de Lisboa Ocidental, E. P. E. (507618319)","Vigiexpert, Lda (506807266)","573.028,72 €",06-03-2015,03-02-2015,334 dias,"Portugal, Lisboa, Lisboa<BR/>Portugal, Lisboa, Oeiras","Artigo 20.º, n.º 1, alínea b) do Código dos Contratos Públicos",,,,,,Não aplicável.,Não aplicável.,FALSE
Aquisição de horas médicas não especialistas para a Ginecologia/Obstetricia do CHLO em 2015,Ao abrigo de acordo-quadro (art.º 259.º),Aquisição de serviços,"85000000-9, Serviços de saúde e acção social","Centro Hospitalar de Lisboa Ocidental, E. P. E. (507618319)","Randstad Clinical, Lda (505121247)","74.871,16 €",06-03-2015,06-02-2015,328 dias,"Portugal, Lisboa, Lisboa",Artigo 259.º do Código dos Contratos Públicos,,,,,,454020,"CONCURSO PÚBLICO PARA A CELEBRAÇÃO DE CONTRATOS PÚBLICOS DE APROVISIONAMENTO PARA A ÁREA DA SAÚDE, COM VISTA À PRESTAÇÃO DE SERVIÇOS MÉDICOS ÀS INSTITUIÇÕES E SERVIÇOS DO SERVIÇO NACIONAL DE SAÚDE",FALSE
"CP700035 - Cessão de Exploração do Parque de Estacionamento do HSFX do CHLO, EPE",Concurso público,Aquisição de serviços,"98351100-9, Serviços de parques de estacionamento","Centro Hospitalar de Lisboa Ocidental, E. P. E. (507618319)",Sient (502834137),"0,00 €",05-03-2015,12-02-2015,305 dias,"Portugal, Lisboa, Lisboa","Artigo 20.º, n.º 1, alínea b) do Código dos Contratos Públicos",,,,,,Não aplicável.,Não aplicável.,FALSE
AQUISIÇÃO DE SERVIÇOS DE SEGURO DE ACIDENTES DE TRABALHO PARA FUNCIONÁRIOS DO CHLO EM 2015,Ajuste Direto Regime Geral,Aquisição de serviços,"66512100-3, Serviços de seguros de acidentes","Centro Hospitalar de Lisboa Ocidental, EPE (CHLO) (507618319)","Lusitania Companhia de Seguros, SA (501689168)","450.000,00 €",05-03-2015,03-02-2015,365 dias,"Portugal, Lisboa, Lisboa","Artigo 27.º, n.º 1, alínea a) do Código dos Contratos Públicos",,,,,,Não aplicável.,Não aplicável.,FALSE
SERVIÇOS DE GESTÃO DE RESIDUOS SOLIDOS E LIQUIDOS HOSPITALARES PERIGOSOS DO CHLO NO MES DE JANEIRO DE 2015,Ajuste Direto Regime Geral,Aquisição de serviços,"90000000-7, Serviços relativos a águas residuais, resíduos, limpeza e ambiente","Centro Hospitalar de Lisboa Ocidental, E. P. E. (507618319)",SUCH (500900469),"57.400,00 €",05-03-2015,26-02-2015,31 dias,"Portugal, Lisboa, Lisboa","Artigo 20.º, n.º 1, alínea a) do Código dos Contratos Públicos",,,,,,Não aplicável.,Não aplicável.,FALSE
Aquisiçao de Serviços de Apoio Juridico ao SGC e SGRH do CHLO no ano de 2015,Ajuste Direto Regime Geral,Aquisição de serviços,"79100000-5, Serviços jurídicos","Centro Hospitalar de Lisboa Ocidental, EPE (CHLO) (507618319)",BAS Sociedade de Advogados RL (509100007),"37.500,00 €",05-03-2015,04-02-2015,365 dias,"Portugal, Lisboa, Lisboa","Artigo 20.º, n.º 1, alínea a) do Código dos Contratos Públicos",,,,,,Não aplicável.,Não aplicável.,FALSE
Aquisição de um Laser CO2 para a Dermatologia do HEM,Ajuste Direto Regime Geral,Aquisição de bens móveis,"33000000-0, Equipamento médico, medicamentos e produtos para cuidados pessoais","Centro Hospitalar de Lisboa Ocidental, E. P. E. (507618319)","Lasercare, Lasers Medicos Lda (506213200)","28.000,00 €",03-03-2015,16-02-2015,10 dias,"Portugal, Lisboa, Lisboa","Artigo 20.º, n.º 1, alínea a) do Código dos Contratos Públicos",,,,,,Não aplicável.,Não aplicável.,FALSE
Aquisição de um Rx Portátil para a Imagiologia do HSFX,Ajuste Direto Regime Geral,Aquisição de bens móveis,"33000000-0, Equipamento médico, medicamentos e produtos para cuidados pessoais","Centro Hospitalar de Lisboa Ocidental, E. P. E. (507618319)","Med Xray, Sistemas Medicos Lda (506187071)","74.995,00 €",03-03-2015,17-02-2015,15 dias,"Portugal, Lisboa, Lisboa","Artigo 20.º, n.º 1, alínea a) do Código dos Contratos Públicos",,,,,,Não aplicável.,Não aplicável.,FALSE
Restauro do pavimento envolvente à cozinha do H. Egas Moniz,Ajuste Direto Regime Geral,Empreitadas de obras públicas,"50000000-5, Serviços de reparação e manutenção","Centro Hospitalar de Lisboa Ocidental, E. P. E. (507618319)","Pentaláxia, Lda (510363245)","11.997,00 €",03-03-2015,20-01-2015,15 dias,"Portugal, Lisboa, Lisboa","Artigo 19.º, alínea a) do Código dos Contratos Públicos",,,,,,Não aplicável.,Não aplicável.,FALSE
Aquisição de um Ecocardiografo Portátil para a Cardiologia do HSC,Ajuste Direto Regime Geral,Aquisição de bens móveis,"33000000-0, Equipamento médico, medicamentos e produtos para cuidados pessoais","Centro Hospitalar de Lisboa Ocidental, E. P. E. (507618319)",GENERAL ELETRIC PORTUGUESA (500357129),"32.250,00 €",03-03-2015,17-02-2015,15 dias,"Portugal, Lisboa, Lisboa","Artigo 20.º, n.º 1, alínea a) do Código dos Contratos Públicos",,,,,,Não aplicável.,Não aplicável.,FALSE
Fornecimento e montagem de cabo electrico para alimentação do Chiller da Hemodinâmica e respectivo quadro electrico,Ajuste Direto Regime Geral,Aquisição de serviços,"51100000-3, Serviços de instalação de equipamento eléctrico e mecânico","Centro Hospitalar de Lisboa Ocidental, EPE (CHLO) (507618319)","Hepafiltra, Lda (503615072)","12.130,00 €",03-03-2015,27-02-2015,15 dias,"Portugal, Lisboa, Lisboa","Artigo 20.º, n.º 1, alínea a) do Código dos Contratos Públicos",,,,,,Não aplicável.,Não aplicável.,FALSE
