Objeto do Contrato,Tipo de Procedimento,Tipo(s) de Contrato,CPVs,Entidade(s) Adjudicante(s),Entidade(s) Adjudicatária(s),Preço Contratual,Data de Publicação,Data de Celebração do Contrato,Prazo de Execução,Local de Execução,Fundamentação,Data de Fecho do Contrato,Preço Total Efetivo,Causas das Alterações ao Prazo,Causas das Alterações ao Preço,Estado,N.º registo do Acordo Quadro,Descrição do Acordo Quadro,Procedimento Centralizado
"Aquisição de Medalhas, Certificados, Diplomas, Embalagens porta-medalha",Ajuste Direto Regime Geral,Aquisição de bens móveis,"18512200-3, Medalhas","Instituto Português do Sangue e da Transplantação, I. P. (502423943)","Casa Bastão, Lda. (500057370)","26.640,00 €",10-01-2018,06-12-2017,25 dias,"Portugal, Lisboa, Lisboa","Artigo 20.º, n.º 1, alínea a) do Código dos Contratos Públicos",,,,,,Não aplicável.,Não aplicável.,FALSE
Aquisição de Reagentes para o Laboratório de Genética para o CSTC-Transplantação,Ajuste Direto Regime Geral,Aquisição de bens móveis,"33696200-7, Reagentes para análises ao sangue","Instituto Português do Sangue e da Transplantação, I. P. (502423943)","Izasa II-Scientific, Unipessoal, Lda (513252088)","1.589,00 €",09-01-2018,12-12-2017,19 dias,"Portugal, Coimbra, Coimbra","Artigo 24.º, n.º 1, alínea e) do Código dos Contratos Públicos",,,,,,Não aplicável.,Não aplicável.,FALSE
"Aquisição de Reagentes para os Laboratórios da Área da Transplantação, durante o ano 2017",Ajuste Direto Regime Geral,Aquisição de bens móveis,"33696200-7, Reagentes para análises ao sangue","Instituto Português do Sangue e da Transplantação, I. P. (502423943)",Alfagene - Novas Tecnologias Ciencias Vida Ldª (503387398),"5.993,33 €",09-01-2018,20-11-2017,41 dias,"Portugal, Coimbra, Coimbra<BR/>Portugal, Lisboa, Lisboa<BR/>Portugal, Porto, Porto","Artigo 20.º, n.º 1, alínea a) do Código dos Contratos Públicos",,,,,,Não aplicável.,Não aplicável.,FALSE
Aquisição de Reagentes p/ o Lab. Imunohematologia do CST Porto - Sangue,Ajuste Direto Regime Geral,Aquisição de bens móveis,"33696200-7, Reagentes para análises ao sangue","Instituto Português do Sangue e da Transplantação, I. P. (502423943)","Immucor (Portugal), Lda (503007358)","3.322,50 €",03-01-2018,13-12-2017,15 dias,"Portugal, Porto, Porto","Artigo 26.º, n.º 1, alínea a) do Código dos Contratos Públicos",,,,,,Não aplicável.,Não aplicável.,FALSE
Aquisição de Reagentes p/ o Lab. Imunohematologia do CST Porto - Sangue,Ajuste Direto Regime Geral,Aquisição de bens móveis,"33696200-7, Reagentes para análises ao sangue","Instituto Português do Sangue e da Transplantação, I. P. (502423943)","OCD Clinical D. Portugal, Unipessoal, Lda (513032665)","4.900,00 €",03-01-2018,13-12-2017,10 dias,"Portugal, Porto, Porto","Artigo 26.º, n.º 1, alínea a) do Código dos Contratos Públicos",,,,,,Não aplicável.,Não aplicável.,FALSE
Aquisição de Reagentes p/ o Lab. Doenças Transmissíveis do CST Lisboa - Sangue,Ajuste Direto Regime Geral,Aquisição de bens móveis,"33696200-7, Reagentes para análises ao sangue","Instituto Português do Sangue e da Transplantação, I. P. (502423943)","Bioportugal, Lda (502380543)","7.200,00 €",03-01-2018,13-12-2017,15 dias,"Portugal, Lisboa, Lisboa","Artigo 26.º, n.º 1, alínea a) do Código dos Contratos Públicos",,,,,,Não aplicável.,Não aplicável.,FALSE
Aquisição de Reagentes p/ o Lab. Doenças Transmissíveis do CST Porto - Sangue,Ajuste Direto Regime Geral,Aquisição de bens móveis,"33696200-7, Reagentes para análises ao sangue","Instituto Português do Sangue e da Transplantação, I. P. (502423943)","Roche S. Diagnósticos, Lda (504282921)","26.424,00 €",03-01-2018,13-12-2017,15 dias,"Portugal, Porto, Porto","Artigo 26.º, n.º 1, alínea a) do Código dos Contratos Públicos",,,,,,Não aplicável.,Não aplicável.,FALSE
Reagentes p/ Realização de Hemogramas para o CST Coimbra - Sangue,Ajuste Direto Regime Geral,Aquisição de bens móveis,"33696200-7, Reagentes para análises ao sangue","Instituto Português do Sangue e da Transplantação, I. P. (502423943)",Horiba ABX SAS - Portugal (980158583),"6.588,00 €",02-01-2018,11-09-2017,100 dias,"Portugal, Coimbra, Coimbra","Artigo 20.º, n.º 1, alínea a) do Código dos Contratos Públicos",,,,,,Não aplicável.,Não aplicável.,FALSE
"Reagentes p/ os Lab. Imunohematologia do IPST, IP",Ajuste Direto Regime Geral,Aquisição de bens móveis,"33696200-7, Reagentes para análises ao sangue","Instituto Português do Sangue e da Transplantação, I. P. (502423943)","Immucor (Portugal), Lda (503007358)","6.976,88 €",02-01-2018,04-09-2017,100 dias,"Portugal, Coimbra, Coimbra<BR/>Portugal, Lisboa, Lisboa","Artigo 20.º, n.º 1, alínea a) do Código dos Contratos Públicos",,,,,,Não aplicável.,Não aplicável.,FALSE
Reagentes p/ o Lab. Imunohematologia do CSTL - Lab. Laura Ayres,Ajuste Direto Regime Geral,Aquisição de bens móveis,"33696200-7, Reagentes para análises ao sangue","Instituto Português do Sangue e da Transplantação, I. P. (502423943)","Immucor (Portugal), Lda (503007358)","5.596,00 €",02-01-2018,20-12-2017,10 dias,"Portugal, Faro, Faro","Artigo 26.º, n.º 1, alínea a) do Código dos Contratos Públicos",,,,,,Não aplicável.,Não aplicável.,FALSE
Reagentes p/ o Lab. Imunohematologia do CST Porto - Sangue,Ajuste Direto Regime Geral,Aquisição de bens móveis,"33696200-7, Reagentes para análises ao sangue","Instituto Português do Sangue e da Transplantação, I. P. (502423943)","Immucor (Portugal), Lda (503007358)","9.426,00 €",02-01-2018,24-11-2017,20 dias,"Portugal, Porto, Porto","Artigo 26.º, n.º 1, alínea a) do Código dos Contratos Públicos",,,,,,Não aplicável.,Não aplicável.,FALSE
"Reagentes p/ os Lab. Imunohematologia do IPST, IP",Ajuste Direto Regime Geral,Aquisição de bens móveis,"33696200-7, Reagentes para análises ao sangue","Instituto Português do Sangue e da Transplantação, I. P. (502423943)","OCD Clinical D. Portugal, Unipessoal, Lda (513032665)","4.900,00 €",02-01-2018,05-12-2017,20 dias,"Portugal, Porto, Porto","Artigo 26.º, n.º 1, alínea a) do Código dos Contratos Públicos",,,,,,Não aplicável.,Não aplicável.,FALSE
"Reagentes p/ os Lab. Doenças Transmissíveis do IPST, IP",Ajuste Direto Regime Geral,Aquisição de bens móveis,"33696200-7, Reagentes para análises ao sangue","Instituto Português do Sangue e da Transplantação, I. P. (502423943)","ABBOTT LABORATORIOS, LDA.                          (500006148)","39.350,85 €",02-01-2018,15-11-2017,45 dias,"Portugal, Porto, Porto<BR/>Portugal, Lisboa, Lisboa","Artigo 26.º, n.º 1, alínea a) do Código dos Contratos Públicos",,,,,,Não aplicável.,Não aplicável.,FALSE
"Reagentes p/ os Lab. Imunohematologia do IPST, IP",Ajuste Direto Regime Geral,Aquisição de bens móveis,"33696200-7, Reagentes para análises ao sangue","Instituto Português do Sangue e da Transplantação, I. P. (502423943)","Beckman Coulter Portugal Unipessoal, Lda (509035167)","48.176,00 €",02-01-2018,11-12-2017,15 dias,"Portugal, Porto, Porto<BR/>Portugal, Lisboa, Lisboa","Artigo 26.º, n.º 1, alínea a) do Código dos Contratos Públicos",,,,,,Não aplicável.,Não aplicável.,FALSE
Reagentes p/ o Lab. Imunohematologia do CST Lisboa - Sangue,Ajuste Direto Regime Geral,Aquisição de bens móveis,"33696200-7, Reagentes para análises ao sangue","Instituto Português do Sangue e da Transplantação, I. P. (502423943)","Immucor (Portugal), Lda (503007358)","17.619,60 €",02-01-2018,13-11-2017,50 dias,"Portugal, Lisboa, Lisboa","Artigo 26.º, n.º 1, alínea a) do Código dos Contratos Públicos",,,,,,Não aplicável.,Não aplicável.,FALSE
