Objeto do Contrato,Tipo de Procedimento,Tipo(s) de Contrato,CPVs,Entidade(s) Adjudicante(s),Entidade(s) Adjudicatária(s),Preço Contratual,Data de Publicação,Data de Celebração do Contrato,Prazo de Execução,Local de Execução,Fundamentação,Data de Fecho do Contrato,Preço Total Efetivo,Causas das Alterações ao Prazo,Causas das Alterações ao Preço,Estado,N.º registo do Acordo Quadro,Descrição do Acordo Quadro,Procedimento Centralizado
Aquisição de serviços de apoio e dinamização de eventos,Ajuste Direto Regime Geral,Aquisição de serviços,"79952000-2, Serviços de eventos","SPMS - Serviços Partilhados do Ministério da Saúde, E. P. E. (509540716)","Lastro Humano, Lda. (509263291)","21.300,00 €",21-07-2017,16-06-2017,157 dias,Portugal,"Artigo 20.º, n.º 1, alínea a) do Código dos Contratos Públicos",31-12-2017,"21.300,00 €",,,,Não aplicável.,Não aplicável.,FALSE
Aquisição de serviços de apoio ás equipas de manutenção e desenvolvimento da linha de serviço PIC,Ao abrigo de acordo-quadro (art.º 259.º),Aquisição de serviços,"71317200-5, Serviços de saúde e segurança","SPMS- Serviços Partilhados do M. da Saúde, E.P.E. (509540716)",Altran Portugal S.A. (504272179),"49.991,04 €",20-07-2017,16-06-2017,365 dias,Portugal,Artigo 259.º do Código dos Contratos Públicos,"","",,,,2096651,Acordo quadro para Prestação de Serviços de Consultadoria na área Jurídica às Instituições e Serviços do Serviço Nacional de Saúde e entidades do Ministério da Saúde,FALSE
Aquisição de serviços para elaboração de catálogo de serviços IT,Concurso público,Aquisição de serviços,"72510000-3, Serviços de gestão relacionados com a informática","SPMS - Serviços Partilhados do Ministério da Saúde, E. P. E. (509540716)","Compta - Equipamentos e Serviços de Informática, SA (500069891)","35.500,00 €",20-07-2017,11-05-2017,227 dias,Portugal,"Artigo 21.º, n.º 1, alínea b) do Código dos Contratos Públicos",31-12-2017,"35.500,00 €",,,,Não aplicável.,Não aplicável.,FALSE
Aquisição de serviços de manutenção e suporte aos sistemas CIM e GTAMI,Ao abrigo de acordo-quadro (art.º 259.º),Aquisição de serviços,"71317200-5, Serviços de saúde e segurança","SPMS- Serviços Partilhados do M. da Saúde, E.P.E. (509540716)",Altran Portugal S.A. (504272179),"70.400,00 €",20-07-2017,07-06-2017,365 dias,Portugal,Artigo 259.º do Código dos Contratos Públicos,"","",,,,2096651,Acordo quadro para Prestação de Serviços de Consultadoria na área Jurídica às Instituições e Serviços do Serviço Nacional de Saúde e entidades do Ministério da Saúde,FALSE
Aquisição de serviços especializados de gestão patrimonial,Ajuste Direto Regime Geral,Aquisição de serviços,"79200000-6, Serviços de contabilidade, de auditoria e fiscais","SPMS - Serviços Partilhados do Ministério da Saúde, E. P. E. (509540716)",American Appraisal (501903402),"9.130,00 €",20-07-2017,26-06-2017,187 dias,Portugal,"Artigo 20.º, n.º 1, alínea a) do Código dos Contratos Públicos",31-12-2017,"9.130,00 €",,,,Não aplicável.,Não aplicável.,FALSE
Aquisição de serviços de implementação a nível nacional de uma plataforma de gestão de rastreio populacional,Ajuste Direto Regime Geral,Aquisição de serviços,"72500000-0, Serviços relacionados com a informática","SPMS - Serviços Partilhados do Ministério da Saúde, E. P. E. (509540716)","First Solutions – Sistemas de Informação, S.A (505345978)","74.870,00 €",19-07-2017,31-05-2017,240 dias,Portugal,"Artigo 24.º, n.º 1, alínea e) do Código dos Contratos Públicos","","",,,,Não aplicável.,Não aplicável.,FALSE
Aquisição de serviços de consultoria funcional para a área de sistemas de suporte a programas estruturais de saúde,Concurso público,Aquisição de serviços,"72500000-0, Serviços relacionados com a informática","SPMS - Serviços Partilhados do Ministério da Saúde, E. P. E. (509540716)",Altran Portugal S.A. (504272179),"87.824,00 €",18-07-2017,20-06-2017,710 dias,Portugal,"Artigo 21.º, n.º 1, alínea b) do Código dos Contratos Públicos","","",,,,Não aplicável.,Não aplicável.,FALSE
"Aquisição de serviços de interactive voice response e comunicações de apoio ao serviço de call center do centro de suporte da SPMS, EPE ",Concurso público,Aquisição de serviços,"72510000-3, Serviços de gestão relacionados com a informática","SPMS - Serviços Partilhados do Ministério da Saúde, E. P. E. (509540716)","NOS Comunicações, S.A. (502604751)","116.664,00 €",18-07-2017,31-05-2017,900 dias,Portugal,"Artigo 21.º, n.º 1, alínea b) do Código dos Contratos Públicos","","",,,,Não aplicável.,Não aplicável.,FALSE
Aquisição de serviços de manutenção de suporte do sistema de Registo Nacional de Profissionais (RNP),Ao abrigo de acordo-quadro (art.º 259.º),Aquisição de serviços,"72500000-0, Serviços relacionados com a informática","SPMS- Serviços Partilhados do M. da Saúde, E.P.E. (509540716)",Altran Portugal S.A. (504272179),"86.838,40 €",18-07-2017,07-06-2017,540 dias,Portugal,Artigo 259.º do Código dos Contratos Públicos,"","",,,,2096651,Acordo quadro para Prestação de Serviços de Consultadoria na área Jurídica às Instituições e Serviços do Serviço Nacional de Saúde e entidades do Ministério da Saúde,FALSE
Aquisição de serviços de manutenção corretiva e evolutiva para software sistema de gestão de transporte de doentes (SGTD),Ajuste Direto Regime Geral,Aquisição de serviços,"72263000-6, Serviços de implementação de software","SPMS- Serviços Partilhados do M. da Saúde, E.P.E. (509540716)","Link Consulting - Tecnologias de Informação, S.A. (504551221)","340.000,00 €",18-07-2017,08-05-2017,246 dias,Portugal,"Artigo 24.º, n.º 1, alínea e) do Código dos Contratos Públicos","","",,,,Não aplicável.,Não aplicável.,FALSE
Aquisição de serviços de manutenção evolutiva da área da transparência,Ao abrigo de acordo-quadro (art.º 259.º),Aquisição de serviços,"72500000-0, Serviços relacionados com a informática","SPMS - Serviços Partilhados do Ministério da Saúde, E. P. E. (509540716)",Altran Portugal S.A. (504272179),"134.471,04 €",18-07-2017,08-06-2017,365 dias,Portugal,Artigo 259.º do Código dos Contratos Públicos,"","",,,,1950010,Acordo quadro para Prestação de Serviços de Consultadoria na área da Saúde e Segurança   às Instituições e Serviços do Serviço Nacional de Saúde,FALSE
Aquisição de serviços de auditoria de segurança ao Hospital Garcia Horta (HGO) e preparação piloto,Ajuste Direto Regime Geral,Aquisição de serviços,"72810000-1, Serviços de auditoria informática","SPMS - Serviços Partilhados do Ministério da Saúde, E. P. E. (509540716)","DRC- DATA RECOVER CENTER, LDA (502321660)","14.700,00 €",18-07-2017,07-06-2017,180 dias,Portugal,"Artigo 20.º, n.º 1, alínea a) do Código dos Contratos Públicos",07-12-2017,"14.700,00 €",,,,Não aplicável.,Não aplicável.,FALSE
Aquisição de serviços de gestão de apoio à Unidade de Serviço e Suporte,Ao abrigo de acordo-quadro (art.º 259.º),Aquisição de serviços,"72500000-0, Serviços relacionados com a informática","SPMS - Serviços Partilhados do Ministério da Saúde, E. P. E. (509540716)","ITEN Solutions - Sistema de Informação, S.A. (510728189)","60.000,00 €",18-07-2017,09-06-2017,540 dias,Portugal,Artigo 259.º do Código dos Contratos Públicos,"","",,,,1950010,Acordo quadro para Prestação de Serviços de Consultadoria na área da Saúde e Segurança   às Instituições e Serviços do Serviço Nacional de Saúde,FALSE
Aquisição de serviços de manutenção corretiva e preventiva do SICC (Sistema de Informação Centralizada de Contabilidade),Ao abrigo de acordo-quadro (art.º 259.º),Aquisição de serviços,"72500000-0, Serviços relacionados com a informática","SPMS - Serviços Partilhados do Ministério da Saúde, E. P. E. (509540716)",Altran Portugal S.A. (504272179),"170.443,68 €",17-07-2017,09-06-2017,365 dias,Portugal,Artigo 259.º do Código dos Contratos Públicos,"","",,,,1950010,Acordo quadro para Prestação de Serviços de Consultadoria na área da Saúde e Segurança   às Instituições e Serviços do Serviço Nacional de Saúde,FALSE
Aquisição de serviços para call center e suporte de 1ª linha,Ajuste Direto Regime Geral,Aquisição de serviços,"72510000-3, Serviços de gestão relacionados com a informática","SPMS - Serviços Partilhados do Ministério da Saúde, E. P. E. (509540716)","GFI Portugal - Tecnologias de Informação, S.A. (502726890)","185.661,44 €",11-07-2017,09-06-2017,365 dias,Portugal,"Artigo 24.º, n.º 1, alínea c) do Código dos Contratos Públicos","","",,,,Não aplicável.,Não aplicável.,FALSE
Aquisição de serviços de assessoria técnica especializada,Ajuste Direto Regime Geral,Aquisição de serviços,"79221000-9, Serviços de consultoria fiscal","SPMS - Serviços Partilhados do Ministério da Saúde, E. P. E. (509540716)","HCMC – HEALTH CARE MANAGEMENT CONSULTANTS, LDA (510942520)","21.000,00 €",11-07-2017,07-06-2017,150 dias,Portugal,"Artigo 20.º, n.º 1, alínea a) do Código dos Contratos Públicos",07-09-2017,"21.000,00 €",,,,Não aplicável.,Não aplicável.,FALSE
Aquisição de serviços de segurança informática para resolução de infeções por malware,Ajuste Direto Regime Geral,Aquisição de serviços,"72910000-2, Serviços informáticos de segurança","SPMS - Serviços Partilhados do Ministério da Saúde, E. P. E. (509540716)","DRC- DATA RECOVER CENTER, LDA (502321660)","24.250,00 €",11-07-2017,31-05-2017,30 dias,Portugal,"Artigo 20.º, n.º 1, alínea a) do Código dos Contratos Públicos",30-06-2017,"24.250,00 €",,,,Não aplicável.,Não aplicável.,FALSE
Aquisição de Serviços de Desenvolvimento de Módulos na PDS - Lote 2 - Integrações com a PDS (nos sistemas locais),Concurso público,Aquisição de serviços,"72500000-0, Serviços relacionados com a informática","SPMS - Serviços Partilhados do Ministério da Saúde, E. P. E. (509540716)",Altran Portugal S.A. (504272179),"78.672,00 €",11-07-2017,03-03-2017,303 dias,Portugal,Artigo 259.º do Código dos Contratos Públicos,"","",,,,Não aplicável.,Não aplicável.,FALSE
