Objeto do Contrato,Tipo de Procedimento,Tipo(s) de Contrato,CPVs,Entidade(s) Adjudicante(s),Entidade(s) Adjudicatária(s),Preço Contratual,Data de Publicação,Data de Celebração do Contrato,Prazo de Execução,Local de Execução,Fundamentação,Data de Fecho do Contrato,Preço Total Efetivo,Causas das Alterações ao Prazo,Causas das Alterações ao Preço,Estado,N.º registo do Acordo Quadro,Descrição do Acordo Quadro,Procedimento Centralizado
Aquisição de Software Cardiobase,Ajuste Direto Regime Geral,Aquisição de bens móveis,"48000000-8, Pacotes de software e sistemas de informação","Centro Hospitalar Lisboa Norte, E. P. E. (508481287)","Infoturcano, Lda. (503586293)","9.900,00 €",11-12-2014,11-12-2014,30 dias,"Portugal, Lisboa, Lisboa","Artigo 20.º, n.º 1, alínea a) do Código dos Contratos Públicos",,,,,,Não aplicável.,Não aplicável.,FALSE
Reparação de central de bombagem de águas pluviais,Ajuste Direto Regime Geral,Empreitadas de obras públicas,"45453000-7, Obras de revisão e recuperação","Centro Hospitalar Lisboa Norte, E. P. E. (508481287)","Luz e Lux, Lda. (503025518)","1.070,00 €",11-12-2014,11-12-2014,15 dias,"Portugal, Lisboa, Lisboa","Artigo 19.º, alínea a) do Código dos Contratos Públicos",,,,,,Não aplicável.,Não aplicável.,FALSE
Aquisição de colar cervical,Ajuste Direto Regime Geral,Aquisição de bens móveis,"33190000-8, Dispositivos e produtos médicos variados","Centro Hospitalar Lisboa Norte, E. P. E. (508481287)","Ambex, Lda. (507593111)","840,00 €",10-12-2014,10-12-2014,1 dias,"Portugal, Lisboa, Lisboa","Artigo 20.º, n.º 1, alínea a) do Código dos Contratos Públicos",,,,,,Não aplicável.,Não aplicável.,FALSE
Aquisição de consumiveis para o Serviço de Farmacia,Ajuste Direto Regime Geral,Aquisição de bens móveis,"33190000-8, Dispositivos e produtos médicos variados","Centro Hospitalar Lisboa Norte, E. P. E. (508481287)","VWR, Lda. (503842770)","41,28 €",10-12-2014,10-12-2014,1 dias,"Portugal, Lisboa, Lisboa","Artigo 20.º, n.º 1, alínea a) do Código dos Contratos Públicos",,,,,,Não aplicável.,Não aplicável.,FALSE
Ajuste Directo n.º 141G004331,Ajuste Direto Regime Geral,Aquisição de bens móveis,"33690000-3, Medicamentos vários","Centro Hospitalar Lisboa Norte, E. P. E. (508481287)","UCB Pharma, Lda. (500291322)","6.357,76 €",10-12-2014,10-12-2014,1 dias,"Portugal, Lisboa, Lisboa","Artigo 24.º, n.º 1, alínea e) do Código dos Contratos Públicos",,,,,,Não aplicável.,Não aplicável.,FALSE
Aquisição de Endoprótese,Ajuste Direto Regime Geral,Aquisição de bens móveis,"33190000-8, Dispositivos e produtos médicos variados","Centro Hospitalar Lisboa Norte, E. P. E. (508481287)","Medtronic, Lda. (504223933)","8.500,00 €",10-12-2014,10-12-2014,1 dias,"Portugal, Lisboa, Lisboa","Artigo 20.º, n.º 1, alínea a) do Código dos Contratos Públicos",,,,,,Não aplicável.,Não aplicável.,FALSE
Aquisição de Bata Impermeavel,Ajuste Direto Regime Geral,Aquisição de bens móveis,"33190000-8, Dispositivos e produtos médicos variados","Centro Hospitalar Lisboa Norte, E. P. E. (508481287)","Oasipor, SA (502260750)","152,00 €",10-12-2014,10-12-2014,1 dias,"Portugal, Lisboa, Lisboa","Artigo 24.º, n.º 1, alínea c) do Código dos Contratos Públicos",,,,,,Não aplicável.,Não aplicável.,FALSE
Aquisição de Gravador de Eventos,Ajuste Direto Regime Geral,Aquisição de bens móveis,"33100000-1, Equipamento médico","Centro Hospitalar Lisboa Norte, E. P. E. (508481287)","Sorincardio, Lda. (505514010)","1.150,00 €",10-12-2014,10-12-2014,30 dias,"Portugal, Lisboa, Lisboa","Artigo 20.º, n.º 1, alínea a) do Código dos Contratos Públicos",,,,,,Não aplicável.,Não aplicável.,FALSE
"Aquisição de Glutationa reduzida 0,921 mg",Ajuste Direto Regime Geral,Aquisição de bens móveis,"33690000-3, Medicamentos vários","Centro Hospitalar Lisboa Norte, E. P. E. (508481287)","Sanofi, Lda. (500134960)","8.978,30 €",10-12-2014,09-12-2014,1 dias,"Portugal, Lisboa, Lisboa","Artigo 24.º, n.º 1, alínea e) do Código dos Contratos Públicos",,,,,,Não aplicável.,Não aplicável.,FALSE
Aquisição de heparina 12.500 UI% pomada bisn 40 g,Ajuste Direto Regime Geral,Aquisição de bens móveis,"33690000-3, Medicamentos vários","Centro Hospitalar Lisboa Norte, E. P. E. (508481287)","Bene Farmacêutica, Lda. (508735696)","678,00 €",10-12-2014,09-12-2014,1 dias,"Portugal, Lisboa, Lisboa","Artigo 20.º, n.º 1, alínea a) do Código dos Contratos Públicos",,,,,,Não aplicável.,Não aplicável.,FALSE
Aquisição de Indometacina Sup. 100 Mg,Ajuste Direto Regime Geral,Aquisição de bens móveis,"33690000-3, Medicamentos vários","Centro Hospitalar Lisboa Norte, E. P. E. (508481287)","Lab. Vitória, SA (500162220)","37,80 €",10-12-2014,05-12-2014,1 dias,"Portugal, Lisboa, Lisboa","Artigo 20.º, n.º 1, alínea a) do Código dos Contratos Públicos",,,,,,Não aplicável.,Não aplicável.,FALSE
Aquisição de Zidovudina Comp. 100 Mg,Ajuste Direto Regime Geral,Aquisição de bens móveis,"33690000-3, Medicamentos vários","Centro Hospitalar Lisboa Norte, E. P. E. (508481287)","Aurobindo Pharma, Lda. (508527465)","120,00 €",10-12-2014,09-12-2014,1 dias,"Portugal, Lisboa, Lisboa","Artigo 20.º, n.º 1, alínea a) do Código dos Contratos Públicos",,,,,,Não aplicável.,Não aplicável.,FALSE
Aquisição de Placa p/ canivete electrico,Ajuste Direto Regime Geral,Aquisição de bens móveis,"33190000-8, Dispositivos e produtos médicos variados","Centro Hospitalar Lisboa Norte, E. P. E. (508481287)","Clinifar, SA (503281115)","384,00 €",05-12-2014,05-12-2014,1 dias,"Portugal, Lisboa, Lisboa","Artigo 20.º, n.º 1, alínea a) do Código dos Contratos Públicos",,,,,,Não aplicável.,Não aplicável.,FALSE
Aquisição de Endoprótese aortica,Ajuste Direto Regime Geral,Aquisição de bens móveis,"33190000-8, Dispositivos e produtos médicos variados","Centro Hospitalar Lisboa Norte, E. P. E. (508481287)","Medtronic, Lda. (504223933)","8.500,00 €",05-12-2014,05-12-2014,1 dias,"Portugal, Lisboa, Lisboa","Artigo 20.º, n.º 1, alínea a) do Código dos Contratos Públicos",,,,,,Não aplicável.,Não aplicável.,FALSE
Aquisição de Consumíveis para Serviço de Cirurgia Vascular,Ajuste Direto Regime Geral,Aquisição de bens móveis,"33190000-8, Dispositivos e produtos médicos variados","Centro Hospitalar Lisboa Norte, E. P. E. (508481287)","Biosonda, Lda. (501463313)","5.010,00 €",05-12-2014,05-12-2014,1 dias,"Portugal, Lisboa, Lisboa","Artigo 20.º, n.º 1, alínea a) do Código dos Contratos Públicos",,,,,,Não aplicável.,Não aplicável.,FALSE
Aquisição de Protamina Sol. Inj. 10 mg,Ajuste Direto Regime Geral,Aquisição de bens móveis,"33690000-3, Medicamentos vários","Centro Hospitalar Lisboa Norte, E. P. E. (508481287)","Leo Farmacêuticos, Lda. (503932680)","9.450,00 €",05-12-2014,04-12-2014,1 dias,"Portugal, Lisboa, Lisboa","Artigo 24.º, n.º 1, alínea e) do Código dos Contratos Públicos",,,,,,Não aplicável.,Não aplicável.,FALSE
Aquisição de sistema para desmantelamento de espiras,Ajuste Direto Regime Geral,Aquisição de bens móveis,"33190000-8, Dispositivos e produtos médicos variados","Centro Hospitalar Lisboa Norte, E. P. E. (508481287)","Cateter, Lda. (502914319)","600,00 €",05-12-2014,04-12-2014,365 dias,"Portugal, Lisboa, Lisboa","Artigo 24.º, n.º 1, alínea e) do Código dos Contratos Públicos",,,,,,Não aplicável.,Não aplicável.,FALSE
Aquisição de Vinorelbina Sol. Inj.,Ajuste Direto Regime Geral,Aquisição de bens móveis,"33690000-3, Medicamentos vários","Centro Hospitalar Lisboa Norte, E. P. E. (508481287)","Aurovitas, Lda. (513053239)","3.400,00 €",04-12-2014,04-12-2014,1 dias,"Portugal, Lisboa, Lisboa","Artigo 24.º, n.º 1, alínea e) do Código dos Contratos Públicos",,,,,,Não aplicável.,Não aplicável.,FALSE
Aquisição de capa de pretecção desc. cirurgia de Parkinson,Ajuste Direto Regime Geral,Aquisição de bens móveis,"33190000-8, Dispositivos e produtos médicos variados","Centro Hospitalar Lisboa Norte, E. P. E. (508481287)","Molnlycke Healthcare, Lda. (511101066)","520,00 €",04-12-2014,04-12-2014,1 dias,"Portugal, Lisboa, Lisboa","Artigo 20.º, n.º 1, alínea a) do Código dos Contratos Públicos",,,,,,Não aplicável.,Não aplicável.,FALSE
Substituição de uma cúpula com ampôla de raio-x,Ajuste Direto Regime Geral,Aquisição de serviços,"50421200-4, Serviços de reparação e manutenção de equipamentos de raios X","Centro Hospitalar Lisboa Norte, E. P. E. (508481287)","Tecnomédica, Lda. (501334270)","8.265,00 €",04-12-2014,04-12-2014,30 dias,"Portugal, Lisboa, Lisboa","Artigo 20.º, n.º 1, alínea a) do Código dos Contratos Públicos",,,,,,Não aplicável.,Não aplicável.,FALSE
Aquisição de ferros cirurgicos,Ajuste Direto Regime Geral,Aquisição de bens móveis,"33190000-8, Dispositivos e produtos médicos variados","Centro Hospitalar Lisboa Norte, E. P. E. (508481287)","Eugenio Pereira, Lda. (503989525)","451,00 €",04-12-2014,04-12-2014,1 dias,"Portugal, Lisboa, Lisboa","Artigo 20.º, n.º 1, alínea a) do Código dos Contratos Públicos",,,,,,Não aplicável.,Não aplicável.,FALSE
Aquisição de Epoetina Beta,Ajuste Direto Regime Geral,Aquisição de bens móveis,"33690000-3, Medicamentos vários","Centro Hospitalar Lisboa Norte, E. P. E. (508481287)","Roche, Lda. (500233810)","360,00 €",03-12-2014,03-12-2014,1 dias,"Portugal, Lisboa, Lisboa","Artigo 24.º, n.º 1, alínea e) do Código dos Contratos Públicos",,,,,,Não aplicável.,Não aplicável.,FALSE
Aquisição de CDI VR,Ajuste Direto Regime Geral,Aquisição de bens móveis,"33190000-8, Dispositivos e produtos médicos variados","Centro Hospitalar Lisboa Norte, E. P. E. (508481287)","Jt Jude Medical, Lda. (504180746)","9.775,00 €",03-12-2014,03-12-2014,1 dias,"Portugal, Lisboa, Lisboa","Artigo 20.º, n.º 1, alínea a) do Código dos Contratos Públicos",,,,,,Não aplicável.,Não aplicável.,FALSE
"Fornecimento e ,ontagem de detectores de gas opticos",Ajuste Direto Regime Geral,Empreitadas de obras públicas,"45340000-2, Instalação de vedações, barreiras de protecção e equipamento de segurança","Centro Hospitalar Lisboa Norte, E. P. E. (508481287)","ITVM, Lda. (508094356)","1.888,25 €",02-12-2014,02-12-2014,14 dias,"Portugal, Lisboa, Lisboa","Artigo 19.º, alínea a) do Código dos Contratos Públicos",,,,,,Não aplicável.,Não aplicável.,FALSE
Aquisição de Curso Avançado de trauma para médicos,Ajuste Direto Regime Geral,Aquisição de serviços,"79632000-3, Serviços de formação de pessoal","Centro Hospitalar Lisboa Norte, E. P. E. (508481287)",Sociedade Portuguesa Cirurgia (505079763),"8.800,00 €",02-12-2014,02-12-2014,1 dias,"Portugal, Lisboa, Lisboa","Artigo 20.º, n.º 1, alínea a) do Código dos Contratos Públicos",,,,,,Não aplicável.,Não aplicável.,FALSE
Aquisição de Iomeprol,Ajuste Direto Regime Geral,Aquisição de bens móveis,"33690000-3, Medicamentos vários","Centro Hospitalar Lisboa Norte, E. P. E. (508481287)","Rovi, SA (980166705)","5.202,00 €",02-12-2014,24-11-2014,1 dias,"Portugal, Lisboa, Lisboa","Artigo 24.º, n.º 1, alínea e) do Código dos Contratos Públicos",,,,,,Não aplicável.,Não aplicável.,FALSE
Aquisição de Bexaroteno Caps. Moldes 75 Mg,Ajuste Direto Regime Geral,Aquisição de bens móveis,"33690000-3, Medicamentos vários","Centro Hospitalar Lisboa Norte, E. P. E. (508481287)","Eisai, Lda. (507847660)","9.075,42 €",02-12-2014,01-12-2014,1 dias,"Portugal, Lisboa, Lisboa","Artigo 24.º, n.º 1, alínea e) do Código dos Contratos Públicos",,,,,,Não aplicável.,Não aplicável.,FALSE
Aquisição de bilhetes de estacionamento,Ajuste Direto Regime Geral,Aquisição de bens móveis,"22459000-2, Bilhetes","Centro Hospitalar Lisboa Norte, E. P. E. (508481287)","Fernando L. Gaspar, Lda. (502042044)","6.313,80 €",02-12-2014,02-12-2014,1 dias,"Portugal, Lisboa, Lisboa","Artigo 20.º, n.º 1, alínea a) do Código dos Contratos Públicos",,,,,,Não aplicável.,Não aplicável.,FALSE
Aquisição de diverso material para o Serviço de Cardiologia,Ajuste Direto Regime Geral,Aquisição de bens móveis,"33190000-8, Dispositivos e produtos médicos variados","Centro Hospitalar Lisboa Norte, E. P. E. (508481287)","St Jude Medical, Lda. (504180746)","5.491,00 €",02-12-2014,02-12-2014,1 dias,"Portugal, Lisboa, Lisboa","Artigo 20.º, n.º 1, alínea a) do Código dos Contratos Públicos",,,,,,Não aplicável.,Não aplicável.,FALSE
Regularização de material de ortopedia,Ajuste Direto Regime Geral,Aquisição de bens móveis,"33190000-8, Dispositivos e produtos médicos variados","Centro Hospitalar Lisboa Norte, E. P. E. (508481287)","J&J, Lda. (500153370)","9.370,00 €",02-12-2014,02-12-2014,1 dias,"Portugal, Lisboa, Lisboa","Artigo 20.º, n.º 1, alínea a) do Código dos Contratos Públicos",,,,,,Não aplicável.,Não aplicável.,FALSE
Aquisição de Monitor de Sinais Vitais,Ajuste Direto Regime Geral,Aquisição de bens móveis,"33123210-3, Aparelhos para monitorização cardíaca","Centro Hospitalar Lisboa Norte, E. P. E. (508481287)","medicinalia-Cormedica, Lda. (500684324)","1.790,74 €",02-12-2014,02-12-2014,30 dias,"Portugal, Lisboa, Lisboa","Artigo 20.º, n.º 1, alínea a) do Código dos Contratos Públicos",,,,,,Não aplicável.,Não aplicável.,FALSE
Aquisição de três frigoríficos de medicamentos,Ajuste Direto Regime Geral,Aquisição de bens móveis,"39711130-9, Frigoríficos","Centro Hospitalar Lisboa Norte, E. P. E. (508481287)","Supplylab, Lda. (509062822)","4.196,25 €",02-12-2014,02-12-2014,30 dias,"Portugal, Lisboa, Lisboa","Artigo 20.º, n.º 1, alínea a) do Código dos Contratos Públicos",,,,,,Não aplicável.,Não aplicável.,FALSE
Aquisição de andarilho,Ajuste Direto Regime Geral,Aquisição de serviços,"85000000-9, Serviços de saúde e acção social","CENTRO HOSPITALAR LISBOA NORTE, EPE (508481287)","Ortopedia Moderna, Lda. (500481300)","61,88 €",01-12-2014,01-12-2014,1 dias,"Portugal, Lisboa, Lisboa","Artigo 20.º, n.º 1, alínea a) do Código dos Contratos Públicos",,,,,,Não aplicável.,Não aplicável.,FALSE
Aquisição de colchão anti-escaras,Ajuste Direto Regime Geral,Aquisição de serviços,"85000000-9, Serviços de saúde e acção social","CENTRO HOSPITALAR LISBOA NORTE, EPE (508481287)","Ortomedicinal, Lda. (501394605)","70,00 €",01-12-2014,01-12-2014,15 dias,"Portugal, Lisboa, Lisboa","Artigo 20.º, n.º 1, alínea a) do Código dos Contratos Públicos",,,,,,Não aplicável.,Não aplicável.,FALSE
Aquisição de meias elásticas,Ajuste Direto Regime Geral,Aquisição de serviços,"85000000-9, Serviços de saúde e acção social","CENTRO HOSPITALAR LISBOA NORTE, EPE (508481287)","Ortopedia Moderna, lDa. (500481300)","30,00 €",01-12-2014,01-12-2014,15 dias,"Portugal, Lisboa, Lisboa","Artigo 20.º, n.º 1, alínea a) do Código dos Contratos Públicos",,,,,,Não aplicável.,Não aplicável.,FALSE
Aquisição de Standing-frame infantil,Ajuste Direto Regime Geral,Aquisição de serviços,"85000000-9, Serviços de saúde e acção social","CENTRO HOSPITALAR LISBOA NORTE, EPE (508481287)","Ergometrica, Lda. (502111216)","195,00 €",01-12-2014,01-12-2014,5 dias,"Portugal, Lisboa, Lisboa","Artigo 20.º, n.º 1, alínea a) do Código dos Contratos Públicos",,,,,,Não aplicável.,Não aplicável.,FALSE
Aquisição de cadeira de rodas + sistema de posicionamento,Ajuste Direto Regime Geral,Aquisição de serviços,"85000000-9, Serviços de saúde e acção social","Centro Hospitalar Lisboa Norte, E. P. E. (508481287)","Ergometrica, Lda. (502111216)","1.598,30 €",01-12-2014,01-12-2014,10 dias,"Portugal, Lisboa, Lisboa","Artigo 20.º, n.º 1, alínea a) do Código dos Contratos Públicos",,,,,,Não aplicável.,Não aplicável.,FALSE
Aquisição de Proteinas Bence Jones,Ajuste Direto Regime Geral,Aquisição de bens móveis,"33690000-3, Medicamentos vários","Centro Hospitalar Lisboa Norte, E. P. E. (508481287)","Phadia, Lda. (506916243)","5.651,52 €",01-12-2014,27-11-2014,1 dias,"Portugal, Lisboa, Lisboa","Artigo 24.º, n.º 1, alínea e) do Código dos Contratos Públicos",,,,,,Não aplicável.,Não aplicável.,FALSE
Aquisição de agua destilada Sol. p/ injectaveis,Ajuste Direto Regime Geral,Aquisição de bens móveis,"33690000-3, Medicamentos vários","Centro Hospitalar Lisboa Norte, E. P. E. (508481287)","Labesfal, SA (501169580)","2.068,50 €",01-12-2014,27-11-2014,1 dias,"Portugal, Lisboa, Lisboa","Artigo 20.º, n.º 1, alínea a) do Código dos Contratos Públicos",,,,,,Não aplicável.,Não aplicável.,FALSE
Aquisição de Puroxican Inj. 20 Mg/Ml,Ajuste Direto Regime Geral,Aquisição de bens móveis,"33690000-3, Medicamentos vários","Centro Hospitalar Lisboa Norte, E. P. E. (508481287)","Laboratórios Pfizer, Lda. (500162166)","327,00 €",01-12-2014,27-11-2014,1 dias,"Portugal, Lisboa, Lisboa","Artigo 20.º, n.º 1, alínea a) do Código dos Contratos Públicos",,,,,,Não aplicável.,Não aplicável.,FALSE
Aquisição de medicamentos,Ajuste Direto Regime Geral,Aquisição de bens móveis,"33690000-3, Medicamentos vários","Centro Hospitalar Lisboa Norte, E. P. E. (508481287)","Laboratorios Vitoria, SA (500162220)","8.100,80 €",01-12-2014,01-12-2014,1 dias,"Portugal, Lisboa, Lisboa","Artigo 24.º, n.º 1, alínea e) do Código dos Contratos Públicos",,,,,,Não aplicável.,Não aplicável.,FALSE
"Aquisição de serviços de manutenção correctiva, evolutiva, apoio e suporte de software SAP",Ajuste Direto Regime Geral,Aquisição de serviços,"72611000-6, Serviços de assistência técnica informática","Centro Hospitalar Lisboa Norte, E. P. E. (508481287)","Softinsa, Lda. (508207908)","9.800,00 €",01-12-2014,01-12-2014,1 dias,"Portugal, Lisboa, Lisboa","Artigo 20.º, n.º 1, alínea a) do Código dos Contratos Públicos",,,,,,Não aplicável.,Não aplicável.,FALSE
Aquisição de registadores de temperatura,Ajuste Direto Regime Geral,Aquisição de bens móveis,"38700000-2, Registadores e gravadores de tempo, parquímetros","Centro Hospitalar Lisboa Norte, E. P. E. (508481287)","Concessus, SA (500070040)","1.871,80 €",01-12-2014,01-12-2014,30 dias,"Portugal, Lisboa, Lisboa","Artigo 20.º, n.º 1, alínea a) do Código dos Contratos Públicos",,,,,,Não aplicável.,Não aplicável.,FALSE
Ajuste Directo n.º 149G005306,Ajuste Direto Regime Geral,Empreitadas de obras públicas,"45453000-7, Obras de revisão e recuperação","Centro Hospitalar Lisboa Norte, E. P. E. (508481287)","RCLC, SA (510595642)","358,22 €",01-12-2014,01-12-2014,30 dias,"Portugal, Lisboa, Lisboa","Artigo 19.º, alínea a) do Código dos Contratos Públicos",,,,,,Não aplicável.,Não aplicável.,FALSE
