Objeto do Contrato,Tipo de Procedimento,Tipo(s) de Contrato,CPVs,Entidade(s) Adjudicante(s),Entidade(s) Adjudicatária(s),Preço Contratual,Data de Publicação,Data de Celebração do Contrato,Prazo de Execução,Local de Execução,Fundamentação,Data de Fecho do Contrato,Preço Total Efetivo,Causas das Alterações ao Prazo,Causas das Alterações ao Preço,Estado,N.º registo do Acordo Quadro,Descrição do Acordo Quadro,Procedimento Centralizado
5700516 - Aquisição de um selador,Ajuste Direto Regime Geral,Aquisição de bens móveis,"33190000-8, Dispositivos e produtos médicos variados","Instituto Português do Sangue e da Transplantação, I. P. (502423943)",CONCESSUS (500070040),"5.446,00 €",10-05-2016,29-04-2016,180 dias,"Portugal, Porto, Porto","Artigo 20.º, n.º 1, alínea a) do Código dos Contratos Públicos",,,,,,Não aplicável.,Não aplicável.,FALSE
Aquisição de Material de Consumo Clínico para o CSTLisboa (Delegação Algarve): 1590 Kits para Pools de Plaquetas(Manual) 1584 Soluções Aditivas de Plaquetas.,Concurso público,Aquisição de bens móveis,"33141500-5, Produtos hematológicos","Instituto Português do Sangue e da Transplantação, I. P. (502423943)","Fresenius Kabi Pharma Portugal, Ldª (504293753)","37.264,80 €",06-05-2016,02-05-2016,225 dias,"Portugal, Faro, Loulé","Artigo 20.º, n.º 1, alínea b) do Código dos Contratos Públicos",,,,,,Não aplicável.,Não aplicável.,FALSE
