Objeto do Contrato,Tipo de Procedimento,Tipo(s) de Contrato,CPVs,Entidade(s) Adjudicante(s),Entidade(s) Adjudicatária(s),Preço Contratual,Data de Publicação,Data de Celebração do Contrato,Prazo de Execução,Local de Execução,Fundamentação,Data de Fecho do Contrato,Preço Total Efetivo,Causas das Alterações ao Prazo,Causas das Alterações ao Preço,Estado,N.º registo do Acordo Quadro,Descrição do Acordo Quadro,Procedimento Centralizado
"AD 87.6/2016 - Contratação de serviços de manutenção dos autoclaves do Laboratório de Saúde Pública do Alentejo - Polos de Évora e Portalegre e Unidades de Cuidados de Saúde Personalizados de Estremoz, Reguengos de Monsaraz e Vendas Novas",Ajuste Direto Regime Geral,Aquisição de serviços,"50400000-9, Serviços de reparação e manutenção de equipamento médico e de precisão",Administração Regional de Saúde do Alentejo (ARSA) (503148768),"AJ Costa Irmãos, Ldª (500002576)","5.202,00 €",08-01-2018,17-06-2016,180 dias,"Portugal, Évora, Vendas Novas<BR/>Portugal, Évora, Reguengos de Monsaraz<BR/>Portugal, Évora, Estremoz<BR/>Portugal, Évora, Évora<BR/>Portugal, Portalegre, Portalegre","Artigo 20.º, n.º 1, alínea a) do Código dos Contratos Públicos",29-11-2016,"5.202,00 €",,"",,Não aplicável.,Não aplicável.,FALSE
AD 46.4/2015 - Aquisição de Reagentes da Química de Águas para o Laboratório de Saúde Pública do Alentejo – Polos de Évora e Portalegre para o ano 2015,Ajuste Direto Regime Geral,Aquisição de bens móveis,"33696300-8, Reagentes químicos","Administração Regional de Saúde do Alentejo, I. P. (503148768)","VWR International - Materiais de Laboratório, Ldª (503842770)","1.310,50 €",05-01-2018,16-06-2015,90 dias,"Portugal, Évora, Évora<BR/>Portugal, Portalegre, Portalegre","Artigo 20.º, n.º 1, alínea a) do Código dos Contratos Públicos",03-11-2015,"1.047,30 €",,Alterações do padrão do consumo,,Não aplicável.,Não aplicável.,FALSE
AD 82.4/2015 - Aquisição de Material Descartável/PP para o Laboratório de Saúde Pública do Alentejo – Polos de Évora e Portalegre para o ano 2015,Ajuste Direto Regime Geral,Aquisição de bens móveis,"33793000-5, Artigos de vidro para laboratório","Administração Regional de Saúde do Alentejo, I. P. (503148768)","SARSTEDT, S.A. (503019461)","35,00 €",05-01-2018,04-08-2015,90 dias,"Portugal, Évora, Évora<BR/>Portugal, Portalegre, Portalegre","Artigo 20.º, n.º 1, alínea a) do Código dos Contratos Públicos",20-10-2015,"35,00 €",,"",,Não aplicável.,Não aplicável.,FALSE
AD 82.4/2015 - Aquisição de Material Descartável/PP para o Laboratório de Saúde Pública do Alentejo – Polos de Évora e Portalegre para o ano 2015,Ajuste Direto Regime Geral,Aquisição de bens móveis,"33793000-5, Artigos de vidro para laboratório","Administração Regional de Saúde do Alentejo, I. P. (503148768)","Type Solution - Projectos e Soluções Laboratório, S.A. (508400317)","4.244,50 €",05-01-2018,04-08-2015,90 dias,"Portugal, Portalegre, Portalegre<BR/>Portugal, Évora, Évora","Artigo 20.º, n.º 1, alínea a) do Código dos Contratos Públicos",22-12-2015,"4.466,55 €",,"Foi necessário adquirir uma maior quantidade de material porque as unidades, constantes das caixas apresentadas na propostas, eram superiores às necessidades iniciais estimadas ",,Não aplicável.,Não aplicável.,FALSE
AD 82.4/2015 - Aquisição de Material Descartável/PP para o Laboratório de Saúde Pública do Alentejo – Polos de Évora e Portalegre para o ano 2015,Ajuste Direto Regime Geral,Aquisição de bens móveis,"33793000-5, Artigos de vidro para laboratório","Administração Regional de Saúde do Alentejo, I. P. (503148768)","Frilabo II, Lda (507958861)","49,00 €",05-01-2018,04-08-2015,90 dias,"Portugal, Évora, Évora<BR/>Portugal, Portalegre, Portalegre","Artigo 20.º, n.º 1, alínea a) do Código dos Contratos Públicos",17-11-2015,"49,00 €",,"",,Não aplicável.,Não aplicável.,FALSE
AD 82.4/2015 - Aquisição de Material Descartável/PP para o Laboratório de Saúde Pública do Alentejo – Polos de Évora e Portalegre para o ano 2015,Ajuste Direto Regime Geral,Aquisição de bens móveis,"33793000-5, Artigos de vidro para laboratório","Administração Regional de Saúde do Alentejo, I. P. (503148768)","VWR International - Materiais de Laboratório, Ldª (503842770)","2.613,80 €",05-01-2018,04-08-2015,90 dias,"Portugal, Portalegre, Portalegre<BR/>Portugal, Évora, Évora","Artigo 20.º, n.º 1, alínea a) do Código dos Contratos Públicos",29-12-2015,"2.613,80 €",,"",,Não aplicável.,Não aplicável.,FALSE
AD 82.4/2015 - Aquisição de Material Descartável/PP para o Laboratório de Saúde Pública do Alentejo – Polos de Évora e Portalegre para o ano 2015,Ajuste Direto Regime Geral,Aquisição de bens móveis,"33793000-5, Artigos de vidro para laboratório","Administração Regional de Saúde do Alentejo, I. P. (503148768)","VIDROLAB 2-VIDROS E MAT.LABORT, S.A. (501450629)","612,40 €",05-01-2018,14-10-2015,90 dias,"Portugal, Évora, Évora<BR/>Portugal, Portalegre, Portalegre","Artigo 20.º, n.º 1, alínea a) do Código dos Contratos Públicos","","",,O fornecedor não chegou a fornecer apesar da adjudicação,,Não aplicável.,Não aplicável.,FALSE
AD 81.4/2015 - Aquisição de Material de Vidro para o Laboratório de Saúde Pública do Alentejo – Polos de Évora e Portalegre para o ano 2015,Ajuste Direto Regime Geral,Aquisição de bens móveis,"33793000-5, Artigos de vidro para laboratório","Administração Regional de Saúde do Alentejo, I. P. (503148768)","NORMAX FABRICA VIDROS CIENTIFICOS, LDA (500203130)","1.467,50 €",05-01-2018,06-08-2015,90 dias,"Portugal, Portalegre, Portalegre<BR/>Portugal, Évora, Évora","Artigo 20.º, n.º 1, alínea a) do Código dos Contratos Públicos",01-12-2015,"1.467,50 €",,"",,Não aplicável.,Não aplicável.,FALSE
AD 81.4/2015 - Aquisição de Material de Vidro para o Laboratório de Saúde Pública do Alentejo – Polos de Évora e Portalegre para o ano 2015,Ajuste Direto Regime Geral,Aquisição de bens móveis,"33793000-5, Artigos de vidro para laboratório","Administração Regional de Saúde do Alentejo, I. P. (503148768)","VWR International - Materiais de Laboratório, Ldª (503842770)","535,92 €",05-01-2018,05-08-2015,90 dias,"Portugal, Portalegre, Portalegre<BR/>Portugal, Évora, Évora","Artigo 20.º, n.º 1, alínea a) do Código dos Contratos Públicos",11-11-2015,"535,92 €",,"",,Não aplicável.,Não aplicável.,FALSE
AD 71.4/2015 - Aquisição de reagentes e meios de microbiologia para o Laboratório de Saúde Pública do Alentejo - Polo de Évora e Portalegre,Ajuste Direto Regime Geral,Aquisição de bens móveis,"33696300-8, Reagentes químicos","Administração Regional de Saúde do Alentejo, I. P. (503148768)","PVL - PRODUTOS PARA LABORATORIO, LDA. (501411852)","422,00 €",05-01-2018,29-07-2015,60 dias,"Portugal, Évora, Évora<BR/>Portugal, Portalegre, Portalegre","Artigo 20.º, n.º 1, alínea a) do Código dos Contratos Públicos",05-10-2015,"246,00 €",,Alterações do padrão do consumo,,Não aplicável.,Não aplicável.,FALSE
AD 71.4/2015 - Aquisição de reagentes e meios de microbiologia para o Laboratório de Saúde Pública do Alentejo - Polo de Évora e Portalegre,Ajuste Direto Regime Geral,Aquisição de bens móveis,"33696300-8, Reagentes químicos","Administração Regional de Saúde do Alentejo, I. P. (503148768)",Bio-Rad Laboratories Ldª (501301321),"799,65 €",05-01-2018,29-07-2015,60 dias,"Portugal, Évora, Évora<BR/>Portugal, Portalegre, Portalegre","Artigo 20.º, n.º 1, alínea a) do Código dos Contratos Públicos",14-12-2015,"708,15 €",,Alterações do padrão do consumo,,Não aplicável.,Não aplicável.,FALSE
AD 71.4/2015 - Aquisição de reagentes e meios de microbiologia para o Laboratório de Saúde Pública do Alentejo - Polo de Évora e Portalegre,Ajuste Direto Regime Geral,Aquisição de bens móveis,"33696300-8, Reagentes químicos","Administração Regional de Saúde do Alentejo, I. P. (503148768)","QUILABAN - QUIMICA LABORATORIAL ANALITICA, SA (500399670)","224,81 €",05-01-2018,29-07-2015,60 dias,"Portugal, Évora, Évora<BR/>Portugal, Portalegre, Portalegre","Artigo 20.º, n.º 1, alínea a) do Código dos Contratos Públicos",19-11-2015,"224,81 €",,"",,Não aplicável.,Não aplicável.,FALSE
AD 71.4/2015 - Aquisição de reagentes e meios de microbiologia para o Laboratório de Saúde Pública do Alentejo - Polo de Évora e Portalegre,Ajuste Direto Regime Geral,Aquisição de bens móveis,"33696300-8, Reagentes químicos","Administração Regional de Saúde do Alentejo, I. P. (503148768)","VWR INTERNATIONAL- MATERIAL DE LABORATÓRIO, LDA. (503842770)","1.706,35 €",05-01-2018,29-07-2015,60 dias,"Portugal, Évora, Évora<BR/>Portugal, Portalegre, Portalegre","Artigo 20.º, n.º 1, alínea a) do Código dos Contratos Públicos",29-12-2015,"1.706,35 €",,"",,Não aplicável.,Não aplicável.,FALSE
AM 59.6/2015 - Contratação de serviços para manutenção do equipamento de purificação de água do Laboratório de Saúde Pública do Alentejo - Polo de Portalegre e aquisição de consumíveis para o seu funcionamento,Ajuste Direto Regime Geral,Aquisição de serviços,"50000000-5, Serviços de reparação e manutenção","Administração Regional de Saúde do Alentejo, I. P. (503148768)",Millipore SAS (59434691192),"3.619,41 €",04-01-2018,15-06-2015,3 dias,"Portugal, Portalegre, Portalegre","Artigo 24.º, n.º 1, alínea e) do Código dos Contratos Públicos",08-09-2015,"3.619,41 €",,"",,Não aplicável.,Não aplicável.,FALSE
