Objeto do Contrato,Tipo de Procedimento,Tipo(s) de Contrato,CPVs,Entidade(s) Adjudicante(s),Entidade(s) Adjudicatária(s),Preço Contratual,Data de Publicação,Data de Celebração do Contrato,Prazo de Execução,Local de Execução,Fundamentação,Data de Fecho do Contrato,Preço Total Efetivo,Causas das Alterações ao Prazo,Causas das Alterações ao Preço,Estado,N.º registo do Acordo Quadro,Descrição do Acordo Quadro,Procedimento Centralizado
Renovação do Contrato de Manutenção dos Sistemas de Segurança do Novo Edifício do HSM para 2017,Ajuste Direto Regime Geral,Aquisição de serviços,"50610000-4, Serviços de reparação e manutenção de equipamento de segurança","UNIDADE LOCAL DE SAÚDE DA GUARDA, E.P.E (508752000)"," SIEMENS, SA (500247480)","15.323,40 €",27-07-2017,27-06-2017,365 dias,"Portugal, Guarda, Guarda","Artigo 24.º, n.º 1, alínea e) do Código dos Contratos Públicos",,,,,,Não aplicável.,Não aplicável.,FALSE
AQUISIÇÃO DE TIRAS DE REAGENTE PARA DETERMINAÇÃO DA GLUCOSE NO SANGUE - 2017,Ajuste Direto Regime Geral,Aquisição de bens móveis,"33696200-7, Reagentes para análises ao sangue","Unidade Local de Saúde da Guarda, E. P. E. (508752000)","Med Trust Portugal, Lda (510862993)","14.970,00 €",21-07-2017,06-07-2017,180 dias,"Portugal, Guarda, Guarda","Artigo 20.º, n.º 1, alínea a) do Código dos Contratos Públicos",,,,,,Não aplicável.,Não aplicável.,FALSE
