Objeto do Contrato,Tipo de Procedimento,Tipo(s) de Contrato,CPVs,Entidade(s) Adjudicante(s),Entidade(s) Adjudicatária(s),Preço Contratual,Data de Publicação,Data de Celebração do Contrato,Prazo de Execução,Local de Execução,Fundamentação,Data de Fecho do Contrato,Preço Total Efetivo,Causas das Alterações ao Prazo,Causas das Alterações ao Preço,Estado,N.º registo do Acordo Quadro,Descrição do Acordo Quadro,Procedimento Centralizado
"Aquisição de pasta dentífrica, para os gabinetes de medicina dentária  ",Ajuste Direto Regime Geral,Aquisição de bens móveis,"33000000-0, Equipamento médico, medicamentos e produtos para cuidados pessoais","Administração Regional de Saúde do Alentejo, I. P. (503148768)",Glaxosmithkline Consumer Healthcare (500276994),"5.637,60 €",28-09-2018,05-03-2018,270 dias,"Portugal, Évora","Artigo 21.º, n.º 1, alínea c) do Código dos Contratos Públicos",28-09-2018,"5.637,60 €",,"",,Não aplicável.,Não aplicável.,FALSE
Aquisição de Impressos à INCM,Ajuste Direto Regime Geral,Aquisição de bens móveis,"22000000-0, Material impresso e afins","Administração Regional de Saúde do Alentejo, I. P. (503148768)","Imprensa Nacional - Casa da Moeda, S. A. (500792887)","3.869,50 €",28-09-2018,27-02-2018,300 dias,"Portugal, Évora","Artigo 21.º, n.º 1, alínea c) do Código dos Contratos Públicos",28-09-2018,"3.869,50 €",,"",,Não aplicável.,Não aplicável.,FALSE
Aquisição de 750 Vacinas contra o meningococo 10 µg/0.5 ml + 12.5-25 µg/0.5 ml Susp inj Fr 0.5 ml IM,Ao abrigo de acordo-quadro (art.º 259.º),Aquisição de bens móveis,"33000000-0, Equipamento médico, medicamentos e produtos para cuidados pessoais","Administração Regional de Saúde do Alentejo, I. P. (503148768)","PFIZER Biofarmacêutica, Soc. Unip., Lda (513300376)","8.242,13 €",27-09-2018,29-05-2018,347 dias,"Portugal, Évora",Artigo 259.º do Código dos Contratos Públicos,29-11-2018,"8.241,93 €",,arredondamentos,,1923518,CP 2016/13 - Acordo Quadro para fornecimento de Vacinas e Tuberculinas   às Instituições e Serviços do Serviço Nacional de Saúde,TRUE
Aquisição de 750 Vacinas contra o meningococo 10 µg/0.5 ml + 12.5-25 µg/0.5 ml Susp inj Fr 0.5 ml IM,Ao abrigo de acordo-quadro (art.º 259.º),Aquisição de bens móveis,"33000000-0, Equipamento médico, medicamentos e produtos para cuidados pessoais","Administração Regional de Saúde do Alentejo, I. P. (503148768)","GLAXOSMITHKLINE Produtos Farmacêuticos, Lda (500139962)","7.867,50 €",27-09-2018,27-02-2018,347 dias,"Portugal, Évora",Artigo 259.º do Código dos Contratos Públicos,06-06-2018,"7.867,50 €",,"",,1923518,CP 2016/13 - Acordo Quadro para fornecimento de Vacinas e Tuberculinas   às Instituições e Serviços do Serviço Nacional de Saúde,TRUE
"Aquisição de 600 Vacinas contra sarampo, parotidite e rubéola Pó susp inj Fr 0.5 ml SC",Ao abrigo de acordo-quadro (art.º 259.º),Aquisição de bens móveis,"33000000-0, Equipamento médico, medicamentos e produtos para cuidados pessoais","Administração Regional de Saúde do Alentejo, I. P. (503148768)",MERCK SHARP & DHOME LDA. (500191360),"3.780,00 €",27-09-2018,07-08-2018,365 dias,"Portugal, Évora",Artigo 259.º do Código dos Contratos Públicos,06-11-2018,"3.780,00 €",,"",,1923518,CP 2016/13 - Acordo Quadro para fornecimento de Vacinas e Tuberculinas   às Instituições e Serviços do Serviço Nacional de Saúde,TRUE
Aquisição de 10 Vacinas contra poliomielite Sol inj Ser 0.5 ml IM SC,Ao abrigo de acordo-quadro (art.º 259.º),Aquisição de bens móveis,"33000000-0, Equipamento médico, medicamentos e produtos para cuidados pessoais","Administração Regional de Saúde do Alentejo, I. P. (503148768)","SANOFI - PRODUTOS FARMACÊUTICOS, LDA (500134960)","96,00 €",27-09-2018,20-04-2018,365 dias,"Portugal, Évora",Artigo 259.º do Código dos Contratos Públicos,02-08-2018,"96,00 €",,"",,1923518,CP 2016/13 - Acordo Quadro para fornecimento de Vacinas e Tuberculinas   às Instituições e Serviços do Serviço Nacional de Saúde,TRUE
Aquisição de 500 Vacinas contra hepatite B 10 µg/0.5 ml Susp inj Fr 0.5 ml IM,Ao abrigo de acordo-quadro (art.º 259.º),Aquisição de bens móveis,"33000000-0, Equipamento médico, medicamentos e produtos para cuidados pessoais","Administração Regional de Saúde do Alentejo, I. P. (503148768)","GLAXOSMITHKLINE Produtos Farmacêuticos, Lda (500139962)","2.220,00 €",27-09-2018,27-09-2018,365 dias,"Portugal, Évora",Artigo 259.º do Código dos Contratos Públicos,22-11-2018,"2.220,00 €",,"",,1923518,CP 2016/13 - Acordo Quadro para fornecimento de Vacinas e Tuberculinas   às Instituições e Serviços do Serviço Nacional de Saúde,TRUE
Aquisição de 300 Vacinas contra hepatite B 20 µg/1 ml Susp inj Fr 1 ml IM,Ao abrigo de acordo-quadro (art.º 259.º),Aquisição de bens móveis,"33000000-0, Equipamento médico, medicamentos e produtos para cuidados pessoais","Administração Regional de Saúde do Alentejo, I. P. (503148768)","GLAXOSMITHKLINE Produtos Farmacêuticos, Lda (500139962)","1.926,00 €",27-09-2018,13-06-2018,365 dias,"Portugal, Évora",Artigo 259.º do Código dos Contratos Públicos,22-11-2018,"1.926,00 €",,"",,1923518,CP 2016/13 - Acordo Quadro para fornecimento de Vacinas e Tuberculinas   às Instituições e Serviços do Serviço Nacional de Saúde,TRUE
Aquisição  de 1000 Vacinas contra difteria e tétano Susp inj Ser 0.5 ml IM SC,Ao abrigo de acordo-quadro (art.º 259.º),Aquisição de bens móveis,"33000000-0, Equipamento médico, medicamentos e produtos para cuidados pessoais","Administração Regional de Saúde do Alentejo, I. P. (503148768)","SANOFI - PRODUTOS FARMACÊUTICOS, LDA (500134960)","3.800,00 €",27-09-2018,10-07-2018,365 dias,"Portugal, Évora",Artigo 259.º do Código dos Contratos Públicos,27-09-2018,"3.230,00 €",,"O fornecedor não forneceu a totalidade, por causa da validade",,1923518,CP 2016/13 - Acordo Quadro para fornecimento de Vacinas e Tuberculinas   às Instituições e Serviços do Serviço Nacional de Saúde,TRUE
Aquisição de 150 Vacinas viva contra febre amarela 1000 U Pó susp inj Fr IM SC,Ao abrigo de acordo-quadro (art.º 259.º),Aquisição de bens móveis,"33000000-0, Equipamento médico, medicamentos e produtos para cuidados pessoais","Administração Regional de Saúde do Alentejo, I. P. (503148768)","SANOFI - PRODUTOS FARMACÊUTICOS, LDA (500134960)","3.000,00 €",27-09-2018,27-02-2018,365 dias,"Portugal, Évora",Artigo 259.º do Código dos Contratos Públicos,12-06-2018,"3.000,00 €",,"",,1923518,CP 2016/13 - Acordo Quadro para fornecimento de Vacinas e Tuberculinas   às Instituições e Serviços do Serviço Nacional de Saúde,TRUE
Aquisição de 5 Vacinas contra o vìrus da raiva,Ao abrigo de acordo-quadro (art.º 259.º),Aquisição de bens móveis,"33000000-0, Equipamento médico, medicamentos e produtos para cuidados pessoais","Administração Regional de Saúde do Alentejo, I. P. (503148768)","GLAXOSMITHKLINE Produtos Farmacêuticos, Lda (500139962)","225,00 €",27-09-2018,11-07-2018,365 dias,"Portugal, Évora",Artigo 259.º do Código dos Contratos Públicos,16-07-2018,"225,00 €",,"",,1923518,CP 2016/13 - Acordo Quadro para fornecimento de Vacinas e Tuberculinas   às Instituições e Serviços do Serviço Nacional de Saúde,TRUE
Aquisição de 6 Vacinas contra Haemophilus tipo b 10 µg Pó sol inj Fr IM,Ao abrigo de acordo-quadro (art.º 259.º),Aquisição de bens móveis,"33000000-0, Equipamento médico, medicamentos e produtos para cuidados pessoais","Administração Regional de Saúde do Alentejo, I. P. (503148768)","GLAXOSMITHKLINE Produtos Farmacêuticos, Lda (500139962)","46,26 €",27-09-2018,16-02-2018,365 dias,"Portugal, Évora",Artigo 259.º do Código dos Contratos Públicos,18-05-2018,"46,26 €",,"",,1923518,CP 2016/13 - Acordo Quadro para fornecimento de Vacinas e Tuberculinas   às Instituições e Serviços do Serviço Nacional de Saúde,TRUE
"Aquisição de 500 Vacinas contra sarampo, parotidite e rubéola Pó susp inj Fr 0.5 ml SC",Ao abrigo de acordo-quadro (art.º 259.º),Aquisição de bens móveis,"33000000-0, Equipamento médico, medicamentos e produtos para cuidados pessoais","Administração Regional de Saúde do Alentejo, I. P. (503148768)",MERCK SHARP & DHOME LDA. (500191360),"6.500,00 €",27-09-2018,07-08-2018,365 dias,"Portugal, Évora",Artigo 259.º do Código dos Contratos Públicos,07-12-2018,"6.500,00 €",,"",,1923518,CP 2016/13 - Acordo Quadro para fornecimento de Vacinas e Tuberculinas   às Instituições e Serviços do Serviço Nacional de Saúde,TRUE
"Aquisição de 1100 Vacinas Contra Difeteria Tétano e Pertussis (Tdpa, doses reduzidas) Unidose",Ao abrigo de acordo-quadro (art.º 259.º),Aquisição de bens móveis,"33651600-4, Vacinas","Administração Regional de Saúde do Alentejo, I. P. (503148768)","GLAXOSMITHKLINE Produtos Farmacêuticos, Lda (500139962)","14.531,00 €",27-09-2018,09-03-2018,365 dias,"Portugal, Évora",Artigo 259.º do Código dos Contratos Públicos,22-11-2018,"14.531,00 €",,"",,1923518,CP 2016/13 - Acordo Quadro para fornecimento de Vacinas e Tuberculinas   às Instituições e Serviços do Serviço Nacional de Saúde,TRUE
"Aquisição de 2000 Vacinas contra o papilomavírus humano (tipos 6, 11, 16 ,18, 31, 33, 45, 52, 58) Susp inj Ser 0.5 ml IM",Ao abrigo de acordo-quadro (art.º 259.º),Aquisição de bens móveis,"33651600-4, Vacinas","Administração Regional de Saúde do Alentejo, I. P. (503148768)",MERCK SHARP & DHOME LDA. (500191360),"80.000,00 €",25-09-2018,15-03-2018,365 dias,"Portugal, Évora",Artigo 259.º do Código dos Contratos Públicos,31-07-2018,"80.000,00 €",,"",,1923518,CP 2016/13 - Acordo Quadro para fornecimento de Vacinas e Tuberculinas   às Instituições e Serviços do Serviço Nacional de Saúde,TRUE
"Aquisição de 1500 vacinas contra difteria, tétano, tosse convulsa e poliomielite (2 U.I. + 20 U.I.+ 50 µg + 80 U) Susp inj Ser 0.5 ml IM (TETRA VIP)",Ao abrigo de acordo-quadro (art.º 259.º),Aquisição de bens móveis,"33651600-4, Vacinas","Administração Regional de Saúde do Alentejo, I. P. (503148768)","SANOFI - PRODUTOS FARMACÊUTICOS, LDA (500134960)","22.500,00 €",25-09-2018,15-03-2018,365 dias,"Portugal, Évora",Artigo 259.º do Código dos Contratos Públicos,07-12-2018,"22.500,00 €",,"",,1923518,CP 2016/13 - Acordo Quadro para fornecimento de Vacinas e Tuberculinas   às Instituições e Serviços do Serviço Nacional de Saúde,TRUE
"Aquisição 2400 Vacinas contra difteria, tétano, tosse convulsa, poliomielite e Haemophilus tipo b (30 U.I. + 40 U.I.+ 50 µg + 80 U + 10 µg) Pó susp inj Ser 0.5 ml IM",Ao abrigo de acordo-quadro (art.º 259.º),Aquisição de bens móveis,"33651600-4, Vacinas","Administração Regional de Saúde do Alentejo, I. P. (503148768)","SANOFI - PRODUTOS FARMACÊUTICOS, LDA (500134960)","44.400,00 €",25-09-2018,14-05-2018,365 dias,"Portugal, Évora",Artigo 259.º do Código dos Contratos Públicos,07-12-2018,"44.400,00 €",,"",,1923518,CP 2016/13 - Acordo Quadro para fornecimento de Vacinas e Tuberculinas   às Instituições e Serviços do Serviço Nacional de Saúde,TRUE
"Aquisição de 900 Vacinas contra difteria, tétano, tosse convulsa, hepatite B, poliomielite e Haemophilus tipo b Susp inj Ser 0.5 ml IM",Ao abrigo de acordo-quadro (art.º 259.º),Aquisição de bens móveis,"33000000-0, Equipamento médico, medicamentos e produtos para cuidados pessoais","Administração Regional de Saúde do Alentejo, I. P. (503148768)","GLAXOSMITHKLINE Produtos Farmacêuticos, Lda (500139962)","35.001,00 €",25-09-2018,19-06-2018,330 dias,"Portugal, Évora",Artigo 259.º do Código dos Contratos Públicos,22-11-2018,"35.001,00 €",,"",,1923518,CP 2016/13 - Acordo Quadro para fornecimento de Vacinas e Tuberculinas   às Instituições e Serviços do Serviço Nacional de Saúde,TRUE
"Aquisição de 900 Vacinas contra difteria, tétano, tosse convulsa, hepatite B, poliomielite e Haemophilus tipo b Susp inj Ser 0.5 ml IM",Ao abrigo de acordo-quadro (art.º 259.º),Aquisição de bens móveis,"33000000-0, Equipamento médico, medicamentos e produtos para cuidados pessoais","Administração Regional de Saúde do Alentejo, I. P. (503148768)","SANOFI - PRODUTOS FARMACÊUTICOS, LDA (500134960)","34.929,00 €",25-09-2018,14-05-2018,330 dias,"Portugal, Évora",Artigo 259.º do Código dos Contratos Públicos,13-08-2018,"34.929,00 €",,"",,1923518,CP 2016/13 - Acordo Quadro para fornecimento de Vacinas e Tuberculinas   às Instituições e Serviços do Serviço Nacional de Saúde,TRUE
Aquisição de 3800 Vacinas adsorvida pneumocócica poliosídica conjugada Susp inj Ser 0.5 ml IM Pn13,Ao abrigo de acordo-quadro (art.º 259.º),Aquisição de bens móveis,"33651600-4, Vacinas",Administração Regional de Saúde do Alentejo (ARSA) (503148768),"PFIZER Biofarmacêutica, Soc. Unip., Lda (513300376)","173.774,00 €",25-09-2018,25-05-2018,365 dias,"Portugal, Évora",Artigo 259.º do Código dos Contratos Públicos,29-11-2018,"173.774,00 €",,"",,1923518,CP 2016/13 - Acordo Quadro para fornecimento de Vacinas e Tuberculinas   às Instituições e Serviços do Serviço Nacional de Saúde,TRUE
