Objeto do Contrato,Tipo de Procedimento,Tipo(s) de Contrato,CPVs,Entidade(s) Adjudicante(s),Entidade(s) Adjudicatária(s),Preço Contratual,Data de Publicação,Data de Celebração do Contrato,Prazo de Execução,Local de Execução,Fundamentação,Data de Fecho do Contrato,Preço Total Efetivo,Causas das Alterações ao Prazo,Causas das Alterações ao Preço,Estado,N.º registo do Acordo Quadro,Descrição do Acordo Quadro,Procedimento Centralizado
"Fornecimento de 100 ampolas de tiopental sodico, pó p/sol. inj. 500 mg.",Ao abrigo de acordo-quadro (art.º 258.º),Aquisição de bens móveis,"33690000-3, Medicamentos vários","Instituto Nacional de Emergência Médica, IP (501356126)","B. BRAUN MEDICAL, LDA. (501506543)","304,11 €",21-12-2012,21-12-2012,30 dias,"Portugal, Lisboa, Lisboa","Artigo 26.º, n.º 1, alínea e) do Código dos Contratos Públicos",,,,,,Não definido.,Não definido.,
Fornecimento de 10 laringoscopio de fibra otica.,Ajuste Direto Regime Geral,Aquisição de bens móveis,"33140000-3, Material médico de consumo","Instituto Nacional de Emergência Médica, IP (501356126)","BACELAR & IRMÃO, LDA. (500532818)","498,00 €",21-12-2012,21-12-2012,30 dias,"Portugal, Lisboa, Lisboa","Artigo 20.º, n.º 1, alínea a) do Código dos Contratos Públicos",,,,,,Não aplicável.,Não aplicável.,
Manutenção de incubadora V-808/Fabian HFO sn 20Y0465/2000138-S.,Ajuste Direto Regime Geral,Aquisição de serviços,"50000000-5, Serviços de reparação e manutenção","Instituto Nacional de Emergência Médica, IP (501356126)","PULMOCOR-EQUIP.MÉDICO,Lª (501402578)","2.505,00 €",21-12-2012,13-12-2012,30 dias,"Portugal, Lisboa, Lisboa","Artigo 24.º, n.º 1, alínea e) do Código dos Contratos Públicos",,,,,,Não aplicável.,Não aplicável.,
Reparação de 1 ventilador Transpac sn 02470.,Ajuste Direto Regime Geral,Aquisição de serviços,"50000000-5, Serviços de reparação e manutenção","Instituto Nacional de Emergência Médica, IP (501356126)","SMITHS MEDICAL, LDA (507445937)","670,00 €",21-12-2012,17-12-2012,30 dias,"Portugal, Lisboa, Lisboa","Artigo 24.º, n.º 1, alínea e) do Código dos Contratos Públicos",,,,,,Não aplicável.,Não aplicável.,
AQUISIÇÃO DE 50 DISCOS RÍGIDOS PARA PORTÁTIL,Ajuste Direto Regime Geral,Aquisição de bens móveis,"30233132-5, Unidades de disco rígido","Instituto Nacional de Emergência Médica, IP (501356126)","COMPANHIA PORTUGUESA DE COMPUTADORES, INFORMÁTICA E SISTEMAS, S.A. (501267255)","1.922,50 €",21-12-2012,19-12-2012,30 dias,"Portugal, Lisboa, Lisboa","Artigo 20.º, n.º 1, alínea a) do Código dos Contratos Públicos",,,,,,Não aplicável.,Não aplicável.,
Fornecimento de 5 valvula expiratoria para vintilador weinmann e 5 traqueia para ventilador weinmann,Ajuste Direto Regime Geral,Aquisição de bens móveis,"33140000-3, Material médico de consumo","Instituto Nacional de Emergência Médica, IP (501356126)","FUTURVIDA, LDA. (504260510)","1.420,00 €",21-12-2012,19-12-2012,30 dias,"Portugal, Lisboa, Lisboa","Artigo 24.º, n.º 1, alínea e) do Código dos Contratos Públicos",,,,,,Não aplicável.,Não aplicável.,
Fornecimento de 4 valvulas para insuflador manual Laerdal - Adulto.,Ajuste Direto Regime Geral,Aquisição de bens móveis,"33140000-3, Material médico de consumo","Instituto Nacional de Emergência Médica, IP (501356126)","MEDICINÁLIA CORMÉDICA, LDA. (500684324)","190,00 €",21-12-2012,13-12-2012,30 dias,"Portugal, Lisboa, Lisboa","Artigo 24.º, n.º 1, alínea e) do Código dos Contratos Públicos",,,,,,Não aplicável.,Não aplicável.,
AQUISIÇÃO DE MATERIAL CLINICO,Ajuste Direto Regime Geral,Aquisição de bens móveis,"33140000-3, Material médico de consumo","Instituto Nacional de Emergência Médica, IP (501356126)","PMH-PRODUTOS MEDICO HOSP,SA (502376899)","1.273,80 €",21-12-2012,10-12-2012,30 dias,"Portugal, Lisboa, Lisboa","Artigo 20.º, n.º 1, alínea a) do Código dos Contratos Públicos",,,,,,Não aplicável.,Não aplicável.,
"Fornecimento de 80000 luva exame nitrilo n/esteril, sem pó, tamnho S; 100.000 luva exame nitrilo n/esteril, sem pó, tamanho M; 120.000 luva exame nitrilo n/esteril, sem pó tamanho L.",Ajuste Direto Regime Geral,Aquisição de bens móveis,"33140000-3, Material médico de consumo","Instituto Nacional de Emergência Médica, IP (501356126)","MEDICINÁLIA CORMÉDICA, LDA. (500684324)","9.300,00 €",21-12-2012,10-12-2012,30 dias,"Portugal, Lisboa, Lisboa","Artigo 20.º, n.º 1, alínea a) do Código dos Contratos Públicos",,,,,,Não aplicável.,Não aplicável.,
"Fornecimento de 250 seringa irrecuperavel 3 peças, bico largo de 100ml.",Ao abrigo de acordo-quadro (art.º 258.º),Aquisição de bens móveis,"33140000-3, Material médico de consumo","Instituto Nacional de Emergência Médica, IP (501356126)","PERGUT PORTUGAL, LDA. (501799729)","119,98 €",21-12-2012,12-12-2012,30 dias,"Portugal, Lisboa, Lisboa","Artigo 26.º, n.º 1, alínea e) do Código dos Contratos Públicos",,,,,,Não definido.,Não definido.,
AQUISIÇÃO DE DIVERSO MATERIAL CLINICO,Ajuste Direto Regime Geral,Aquisição de bens móveis,"33140000-3, Material médico de consumo","Instituto Nacional de Emergência Médica, IP (501356126)",INTERSURGICAL (503480045),"8.668,50 €",21-12-2012,04-12-2012,30 dias,"Portugal, Lisboa, Lisboa","Artigo 20.º, n.º 1, alínea a) do Código dos Contratos Públicos",,,,,,Não aplicável.,Não aplicável.,
Aquisição de 10 computadores portateis.,Ao abrigo de acordo-quadro (art.º 258.º),Aquisição de bens móveis,"30213100-6, Computadores portáteis","Instituto Nacional de Emergência Médica, IP (501356126)","CIL - CENTRO INFORMÁTICA, SA (500809690)","7.669,90 €",21-12-2012,03-12-2012,30 dias,"Portugal, Lisboa, Lisboa",Artigo 258.º do Código dos Contratos Públicos,,,,,,Não definido.,Não definido.,
AQUISIÇÃO DE MATERIAL CLINICO,Ajuste Direto Regime Geral,Aquisição de bens móveis,"33140000-3, Material médico de consumo","Instituto Nacional de Emergência Médica, IP (501356126)","SPACE, LDA. (507662407)","1.700,00 €",21-12-2012,10-12-2012,30 dias,"Portugal, Lisboa, Lisboa","Artigo 20.º, n.º 1, alínea a) do Código dos Contratos Públicos",,,,,,Não aplicável.,Não aplicável.,
"Fornecimento de 150 adesivo comum 5mx1,25cm, 100 ligadura elastic. algodão 4x50mm, 120 ligadura elastica 5m15cm, 200 sonda inalação d/O2 CH8 e 4200 saco recolha d7vomito.",Ajuste Direto Regime Geral,Aquisição de bens móveis,"33140000-3, Material médico de consumo","Instituto Nacional de Emergência Médica, IP (501356126)","T. M. S., LDA. (506688143)","1.545,20 €",21-12-2012,10-12-2012,30 dias,"Portugal, Lisboa, Lisboa","Artigo 20.º, n.º 1, alínea a) do Código dos Contratos Públicos",,,,,,Não aplicável.,Não aplicável.,
Fornecimento de 20000 lancetas de uso unico esteril.,Ajuste Direto Regime Geral,Aquisição de bens móveis,"33140000-3, Material médico de consumo","Instituto Nacional de Emergência Médica, IP (501356126)","IBERLAB & IMUNOREAGE, LDA. (503406694)","980,00 €",21-12-2012,10-12-2012,30 dias,"Portugal, Lisboa, Lisboa","Artigo 20.º, n.º 1, alínea a) do Código dos Contratos Públicos",,,,,,Não aplicável.,Não aplicável.,
Renovação da licença da aplicação informatica Navision.,Ao abrigo de acordo-quadro (art.º 258.º),Aquisição de serviços,"72212218-0, Serviços de desenvolvimento de software para gestão de licenças","Instituto Nacional de Emergência Médica, IP (501356126)",GLINTT-BUSINESS SOLUTIONS LDA (503502537),"39.640,00 €",21-12-2012,17-12-2012,30 dias,"Portugal, Lisboa, Lisboa",Artigo 258.º do Código dos Contratos Públicos,,,,,,Não definido.,Não definido.,
INSTALAÇÃO DE CONSOLA RADIO NO CODU DE LISBOA,Ajuste Direto Regime Geral,Aquisição de serviços,"51311000-5, Serviços de instalação de equipamento de rádio","Instituto Nacional de Emergência Médica, IP (501356126)","SIRESP, SA (506804917)","5.457,00 €",21-12-2012,15-12-2012,30 dias,"Portugal, Lisboa, Lisboa","Artigo 20.º, n.º 1, alínea a) do Código dos Contratos Públicos",,,,,,Não aplicável.,Não aplicável.,
Manutenção de Sistema Informatico - Abril 2012,Ajuste Direto Regime Geral,Aquisição de serviços,"50000000-5, Serviços de reparação e manutenção","Instituto Nacional de Emergência Médica, IP (501356126)","ATM INFORMÁTICA, SA (504062859)","4.877,99 €",21-12-2012,19-12-2012,30 dias,"Portugal, Lisboa, Lisboa","Artigo 20.º, n.º 1, alínea a) do Código dos Contratos Públicos",,,,,,Não aplicável.,Não aplicável.,
Manutenção do sistema informatico - Julho 2012,Ajuste Direto Regime Geral,Aquisição de serviços,"50000000-5, Serviços de reparação e manutenção","Instituto Nacional de Emergência Médica, IP (501356126)","ATM INFORMÁTICA, SA (504062859)","4.035,84 €",21-12-2012,19-12-2012,30 dias,"Portugal, Lisboa, Lisboa","Artigo 20.º, n.º 1, alínea a) do Código dos Contratos Públicos",,,,,,Não aplicável.,Não aplicável.,
"Empreitada de recuperação das instalações do INEM, IP., sitas, na Rua Inf. D. Pedro nº 8, em Lisboa.",Ajuste Direto Regime Geral,Empreitadas de obras públicas,"45453100-8, Obras de recuperação","Instituto Nacional de Emergência Médica, IP (501356126)","AZERO - Construção Civil Arquitetura e Decoração, Lda. (500806756)","105.447,00 €",18-12-2012,18-12-2012,30 dias,"Portugal, Lisboa, Lisboa","Artigo 19.º, alínea a) do Código dos Contratos Públicos",,,,,,Não aplicável.,Não aplicável.,
Prestação de serviço Médico - 48 ª Equipa em Timor de 2 Agosto a 2 Setembro 2012,Ajuste Direto Regime Geral,Aquisição de serviços,"79625000-1, Serviços de fornecimento de pessoal médico","Instituto Nacional de Emergência Médica, IP (501356126)",Miguel Nunes de Brito (229562876),"7.198,55 €",17-12-2012,12-12-2012,30 dias,Timor Leste,"Artigo 24.º, n.º 1, alínea e) do Código dos Contratos Públicos",,,,,,Não aplicável.,Não aplicável.,
Reparação um ventilador Oxilog 1000 sn SRNYJ-0030.,Ajuste Direto Regime Geral,Aquisição de serviços,"50000000-5, Serviços de reparação e manutenção","Instituto Nacional de Emergência Médica, IP (501356126)",DRÄGER PORTUGAL (508771323),"819,94 €",14-12-2012,03-12-2012,30 dias,"Portugal, Lisboa, Lisboa","Artigo 24.º, n.º 1, alínea e) do Código dos Contratos Públicos",,,,,,Não aplicável.,Não aplicável.,
Reparação de uma seringa infusora sn 2001-16762.,Ajuste Direto Regime Geral,Aquisição de serviços,"50000000-5, Serviços de reparação e manutenção","Instituto Nacional de Emergência Médica, IP (501356126)","CLINIFAR, SA (503281115)","352,50 €",14-12-2012,03-12-2012,30 dias,"Portugal, Lisboa, Lisboa","Artigo 20.º, n.º 1, alínea a) do Código dos Contratos Públicos",,,,,,Não aplicável.,Não aplicável.,
Reparação de 1 monitor LP 12 s/n 30290029.,Ajuste Direto Regime Geral,Aquisição de serviços,"50000000-5, Serviços de reparação e manutenção","Instituto Nacional de Emergência Médica, IP (501356126)",PHYSIO PORTUGAL SALES (510137946),"156,24 €",14-12-2012,03-12-2012,30 dias,"Portugal, Lisboa, Lisboa","Artigo 24.º, n.º 1, alínea e) do Código dos Contratos Públicos",,,,,,Não aplicável.,Não aplicável.,
"4 cabos paciente Masimo p/SPO2 p/LP12,LNC-4 LNCS1,22M, 8 baterias p/ LP12 UNID, 10 cabos extensão p/ SpO2 p/ LP12 UNID, 10 cabos principal de ext. de ECG 4 eléctrodos p/ LP 12 UNID, 100 papel p/ impressora p/ LP 12 ROLO, 1000 eléctrodos multifunções LP1000 Quick-Combo e 2 cabos de adaptação p/ eléctrod. Multifunção LP 12 UNID",Ajuste Direto Regime Geral,Aquisição de bens móveis,"33140000-3, Material médico de consumo","Instituto Nacional de Emergência Médica, IP (501356126)","Physio Portugal Sales, Unipessoal Lda (510137946)","25.756,00 €",14-12-2012,30-11-2012,30 dias,"Portugal, Lisboa, Lisboa","Artigo 24.º, n.º 1, alínea e) do Código dos Contratos Públicos",,,,,,Não aplicável.,Não aplicável.,
Fornecimento de 156 spray de espuma activa bactericida e fungicida.,Ajuste Direto Regime Geral,Aquisição de bens móveis,"33690000-3, Medicamentos vários","Instituto Nacional de Emergência Médica, IP (501356126)","IMPORQUÍMICA-IND.PT.PD.QUÍM,Lª (502473274)","1.709,76 €",14-12-2012,04-12-2012,30 dias,"Portugal, Lisboa, Lisboa","Artigo 20.º, n.º 1, alínea a) do Código dos Contratos Públicos",,,,,,Não aplicável.,Não aplicável.,
"Fornecimento de 400 lamina de bisturi esteril nº24, 4000 oculos de administração de O2 adulto, 1000 sonda aspiração CH10, 2000 sonda aspiração CH16, 400 sonda nasogastrica CH12, 400 sonda nasogastrica CH10, 400 sonda nasogastrica CH14, 2500 mascaras de inalação O2 c/tubo de conexão - pediatrica, 120 termometro digital.",Ajuste Direto Regime Geral,Aquisição de bens móveis,"33140000-3, Material médico de consumo","Instituto Nacional de Emergência Médica, IP (501356126)",OVERPHARMA (505792362),"2.853,00 €",14-12-2012,04-12-2012,30 dias,"Portugal, Lisboa, Lisboa","Artigo 20.º, n.º 1, alínea a) do Código dos Contratos Públicos",,,,,,Não aplicável.,Não aplicável.,
Fornecimento de 100 ampolas de Suzametonio sol. inj. 100mg/2ml e 100 ampolas de Tramadol sol. inj. 100mg/2ml.,Ao abrigo de acordo-quadro (art.º 258.º),Aquisição de bens móveis,"33690000-3, Medicamentos vários","Instituto Nacional de Emergência Médica, IP (501356126)","LABESFAL, SA (501169580)","152,00 €",14-12-2012,10-12-2012,30 dias,"Portugal, Lisboa, Lisboa","Artigo 26.º, n.º 1, alínea e) do Código dos Contratos Públicos",,,,,,Não definido.,Não definido.,
AQUISIÇÃO DE ADESIVOS E PENSOS,Ao abrigo de acordo-quadro (art.º 258.º),Aquisição de bens móveis,"24911200-5, Adesivos<BR/>33141110-4, Pensos","Instituto Nacional de Emergência Médica, IP (501356126)","SMITH & NEPHEW, LDA (503552461)","3.273,08 €",13-12-2012,04-12-2012,30 dias,"Portugal, Lisboa, Lisboa","Artigo 26.º, n.º 1, alínea e) do Código dos Contratos Públicos",,,,,,Não definido.,Não definido.,
"Fornecimento de 20 pinça magil - nº 25 adulto, 50 estetoscopio adulto e 30 manta isotermica n descartavel.",Ajuste Direto Regime Geral,Aquisição de bens móveis,"33140000-3, Material médico de consumo","Instituto Nacional de Emergência Médica, IP (501356126)","AMBEX, LDA. (507593111)","1.300,00 €",13-12-2012,12-12-2012,30 dias,"Portugal, Lisboa, Lisboa","Artigo 20.º, n.º 1, alínea a) do Código dos Contratos Públicos",,,,,,Não aplicável.,Não aplicável.,
"Fornecimento de 100 ampolas de Clemastina, sol. inj. 2mg/2ml.",Ajuste Direto Regime Geral,Aquisição de bens móveis,"33690000-3, Medicamentos vários","Instituto Nacional de Emergência Médica, IP (501356126)",NOVARTIS (500268215),"92,70 €",13-12-2012,19-11-2012,30 dias,"Portugal, Lisboa, Lisboa","Artigo 20.º, n.º 1, alínea a) do Código dos Contratos Públicos",,,,,,Não aplicável.,Não aplicável.,
"Fornecimento de 300 frscos de Sol. Alcoolica Etanol+Propanol, fr. 500ml.",Ao abrigo de acordo-quadro (art.º 258.º),Aquisição de bens móveis,"33690000-3, Medicamentos vários","Instituto Nacional de Emergência Médica, IP (501356126)","AGA- ÁLCOOL E GÉNEROS ALIM, SA (500727457)","525,00 €",13-12-2012,22-11-2012,30 dias,"Portugal, Lisboa, Lisboa","Artigo 26.º, n.º 1, alínea e) do Código dos Contratos Públicos",,,,,,Não definido.,Não definido.,
AQUISIÇÃO DE DIVERSO MATERIAL CLINICO,Ajuste Direto Regime Geral,Aquisição de bens móveis,"33140000-3, Material médico de consumo","Instituto Nacional de Emergência Médica, IP (501356126)","ROCHA NEVES, LDA. (500233691)","5.129,25 €",13-12-2012,12-12-2012,30 dias,"Portugal, Lisboa, Lisboa","Artigo 20.º, n.º 1, alínea a) do Código dos Contratos Públicos",,,,,,Não aplicável.,Não aplicável.,
"Fornecimento de 2600 prolongamento venoso m/f c/torneira de 3 vias, lig luer-lock; 200 mascara de insuflador manual nº3 (descartavel); 1000 mascara de inalação de O2 alta concentração pediatrica; 5 esfigmomanometro aneroide s/estetoscopio adulto; 50 esfigmomanometro aneroide s/estetoscopio pediatrico.",Ajuste Direto Regime Geral,Aquisição de bens móveis,"33140000-3, Material médico de consumo","Instituto Nacional de Emergência Médica, IP (501356126)","FACTORMED, LDA (506986918)","3.989,00 €",13-12-2012,04-12-2012,30 dias,"Portugal, Lisboa, Lisboa","Artigo 20.º, n.º 1, alínea a) do Código dos Contratos Públicos",,,,,,Não aplicável.,Não aplicável.,
Fornecimento de 250 vacinas anti-gripe.,Ao abrigo de acordo-quadro (art.º 258.º),Aquisição de bens móveis,"33651660-2, Vacinas antigripe","Instituto Nacional de Emergência Médica, IP (501356126)","SANOFI, LDA (500134960)","1.062,50 €",13-12-2012,22-11-2012,30 dias,"Portugal, Lisboa, Lisboa","Artigo 26.º, n.º 1, alínea e) do Código dos Contratos Públicos",,,,,,Não definido.,Não definido.,
AQUISIÇÃO DE CATERES ENDOVENOSOS E SERINGA IRRECUP.,Ajuste Direto Regime Geral,Aquisição de bens móveis,"33140000-3, Material médico de consumo","Instituto Nacional de Emergência Médica, IP (501356126)","B. BRAUN MEDICAL, LDA. (501506543)","5.298,99 €",13-12-2012,13-12-2012,30 dias,"Portugal, Lisboa, Lisboa","Artigo 20.º, n.º 1, alínea a) do Código dos Contratos Públicos",,,,,,Não aplicável.,Não aplicável.,
"Fornecimento de 2000 sistema de aspiração de liquidos organicos c/valvula, cap. 1000ml; 5 manga pneumatica infusão 500ml.",Ajuste Direto Regime Geral,Aquisição de bens móveis,"33140000-3, Material médico de consumo","Instituto Nacional de Emergência Médica, IP (501356126)","MEDICINÁLIA CORMÉDICA, LDA. (500684324)","5.430,00 €",13-12-2012,10-12-2012,30 dias,"Portugal, Lisboa, Lisboa","Artigo 20.º, n.º 1, alínea a) do Código dos Contratos Públicos",,,,,,Não aplicável.,Não aplicável.,
