Objeto do Contrato,Tipo de Procedimento,Tipo(s) de Contrato,CPVs,Entidade(s) Adjudicante(s),Entidade(s) Adjudicatária(s),Preço Contratual,Data de Publicação,Data de Celebração do Contrato,Prazo de Execução,Local de Execução,Fundamentação,Data de Fecho do Contrato,Preço Total Efetivo,Causas das Alterações ao Prazo,Causas das Alterações ao Preço,Estado,N.º registo do Acordo Quadro,Descrição do Acordo Quadro,Procedimento Centralizado
Cateter e guia CIA,Ajuste Direto Regime Geral,Aquisição de bens móveis,"33140000-3, Material médico de consumo","Centro Hospitalar de Lisboa Central, E.P.E. (CHLC) (508080142)","St. Jude Medical, Lda. (504180746)","22.020,00 €",31-03-2016,29-03-2016,277 dias,"Portugal, Lisboa, Lisboa","Artigo 20.º, n.º 1, alínea a) do Código dos Contratos Públicos",,,,,,Não aplicável.,Não aplicável.,FALSE
4-2.0428/16 - Aquisição de Cateter de Drenagem e Kit Cateter,Ajuste Direto Regime Geral,Aquisição de bens móveis,"33140000-3, Material médico de consumo","Centro Hospitalar de Lisboa Central, E.P.E. (CHLC) (508080142)","Vygon Portugal Produtos Médicos Farmacêuticos, Lda (503232785)","928,80 €",31-03-2016,31-03-2016,275 dias,"Portugal, Lisboa, Lisboa","Artigo 20.º, n.º 1, alínea a) do Código dos Contratos Públicos",,,,,,Não aplicável.,Não aplicável.,FALSE
4-2.0428/16 - Aquisição de Cateter de Drenagem e Kit Cateter,Ajuste Direto Regime Geral,Aquisição de bens móveis,"33140000-3, Material médico de consumo","Centro Hospitalar de Lisboa Central, E.P.E. (CHLC) (508080142)","Medicinália Cormédica - MCMedical, Limitada (500684324)","395,00 €",31-03-2016,31-03-2016,275 dias,"Portugal, Lisboa, Lisboa","Artigo 20.º, n.º 1, alínea a) do Código dos Contratos Públicos",,,,,,Não aplicável.,Não aplicável.,FALSE
4-2.0428/16 - Aquisição de Cateter de Drenagem e Kit Cateter,Ajuste Direto Regime Geral,Aquisição de bens móveis,"33140000-3, Material médico de consumo","Centro Hospitalar de Lisboa Central, E.P.E. (CHLC) (508080142)","Colplast Portugal, Sociedade Unipessoal, Lda (503989037)","1.710,00 €",31-03-2016,31-03-2016,275 dias,"Portugal, Lisboa, Lisboa","Artigo 20.º, n.º 1, alínea a) do Código dos Contratos Públicos",,,,,,Não aplicável.,Não aplicável.,FALSE
Aquisição de Idursulfase 2mg/ml sol inj fr 3ml IV,Ao abrigo de acordo-quadro (art.º 259.º),Aquisição de bens móveis,"33000000-0, Equipamento médico, medicamentos e produtos para cuidados pessoais","Centro Hospitalar de Lisboa Central, E. P. E. (508080142)","Shire Pharmaceuticals Portugal, Lda (509264662)","372.548,94 €",29-03-2016,28-03-2016,365 dias,"Portugal, Lisboa, Lisboa",Artigo 259.º do Código dos Contratos Públicos,,,,,,1209176,"CONCURSO PÚBLICO PARA A CELEBRAÇÃO DE CONTRATOS PÚBLICOS DE APROVISIONAMENTO PARA A ÁREA DA SAÚDE, COM VISTA AO FORNECIMENTO DE MEDICAMENTOS DIVERSOS, ÀS INSTITUIÇÕES E SERVIÇOS DO SERVIÇO NACIONAL DE SAÚDE",FALSE
Diverso material de esterilização,Concurso público,Aquisição de bens móveis,"33140000-3, Material médico de consumo","Centro Hospitalar de Lisboa Central, E. P. E. (508080142)","Helder Gonçalves, Lda. (503855421)","5.522,58 €",29-03-2016,04-03-2016,302 dias,"Portugal, Lisboa, Lisboa","Artigo 20.º, n.º 1, alínea b) do Código dos Contratos Públicos",,,,,,Não aplicável.,Não aplicável.,FALSE
Aquisição de Factor VIII da coagulação humana 1000UI pó sol inj fr IV.,Ajuste Direto Regime Geral,Aquisição de bens móveis,"33000000-0, Equipamento médico, medicamentos e produtos para cuidados pessoais","Centro Hospitalar de Lisboa Central, E. P. E. (508080142)","Octapharma - Produtos Farmacêuticos, Lda. (502820780)","623.200,00 €",28-03-2016,02-03-2016,140 dias,"Portugal, Lisboa, Lisboa","Artigo 24.º, n.º 1, alínea e) do Código dos Contratos Públicos",,,,,,Não aplicável.,Não aplicável.,FALSE
Termocauterios,Ajuste Direto Regime Geral,Aquisição de bens móveis,"33100000-1, Equipamento médico","Centro Hospitalar de Lisboa Central, E.P.E. (CHLC) (508080142)","Hospitex, Lda. (501909842)","10.905,84 €",28-03-2016,15-03-2016,291 dias,"Portugal, Lisboa, Lisboa","Artigo 20.º, n.º 1, alínea a) do Código dos Contratos Públicos",,,,,,Não aplicável.,Não aplicável.,FALSE
Termocauterios,Ajuste Direto Regime Geral,Aquisição de bens móveis,"33100000-1, Equipamento médico","Centro Hospitalar de Lisboa Central, E.P.E. (CHLC) (508080142)","Oftaldata, Lda. (504887459)","2.685,00 €",28-03-2016,04-03-2016,302 dias,"Portugal, Lisboa, Lisboa","Artigo 20.º, n.º 1, alínea a) do Código dos Contratos Públicos",,,,,,Não aplicável.,Não aplicável.,FALSE
Aquisição de seringas de gasimetria,Concurso público,Aquisição de bens móveis,"33140000-3, Material médico de consumo","Centro Hospitalar de Lisboa Central, E. P. E. (508080142)","Smiths Medical Portugal, Lda. (507445937)","140.714,60 €",28-03-2016,18-03-2016,288 dias,"Portugal, Lisboa, Lisboa","Artigo 20.º, n.º 1, alínea b) do Código dos Contratos Públicos",,,,,,Não aplicável.,Não aplicável.,FALSE
Sistemas de pacemakers de dupla e tripla câmara,Ao abrigo de acordo-quadro (art.º 259.º),Aquisição de bens móveis,"33000000-0, Equipamento médico, medicamentos e produtos para cuidados pessoais","Centro Hospitalar de Lisboa Central, E. P. E. (508080142)",St. Jude Medical Portugal (504180746),"73.810,00 €",28-03-2016,22-02-2016,312 dias,"Portugal, Lisboa, Lisboa",Artigo 259.º do Código dos Contratos Públicos,,,,,,600105,"CONCURSO PÚBLICO PARA A CELEBRAÇÃO DE CONTRATOS PÚBLICOS DE APROVISIONAMENTO PARA A ÁREA DA SAÚDE, COM VISTA AO FORNECIMENTO SISTEMAS DE PACEMAKERS ÀS INSTITUIÇÕES E SERVIÇOS DO SERVIÇO NACIONAL DE SAÚDE",FALSE
Sistemas de pacemakers de dupla e tripla câmara,Ao abrigo de acordo-quadro (art.º 259.º),Aquisição de bens móveis,"33000000-0, Equipamento médico, medicamentos e produtos para cuidados pessoais","Centro Hospitalar de Lisboa Central, E. P. E. (508080142)",Livanova (505514010),"57.400,00 €",28-03-2016,22-02-2016,312 dias,"Portugal, Lisboa, Lisboa",Artigo 259.º do Código dos Contratos Públicos,,,,,,600105,"CONCURSO PÚBLICO PARA A CELEBRAÇÃO DE CONTRATOS PÚBLICOS DE APROVISIONAMENTO PARA A ÁREA DA SAÚDE, COM VISTA AO FORNECIMENTO SISTEMAS DE PACEMAKERS ÀS INSTITUIÇÕES E SERVIÇOS DO SERVIÇO NACIONAL DE SAÚDE",FALSE
Sistemas de pacemakers de dupla e tripla câmara,Ao abrigo de acordo-quadro (art.º 259.º),Aquisição de bens móveis,"33000000-0, Equipamento médico, medicamentos e produtos para cuidados pessoais","Centro Hospitalar de Lisboa Central, E. P. E. (508080142)",Medtronic Portugal (504223933),"95.320,00 €",28-03-2016,22-02-2016,312 dias,"Portugal, Lisboa, Lisboa",Artigo 259.º do Código dos Contratos Públicos,,,,,,600105,"CONCURSO PÚBLICO PARA A CELEBRAÇÃO DE CONTRATOS PÚBLICOS DE APROVISIONAMENTO PARA A ÁREA DA SAÚDE, COM VISTA AO FORNECIMENTO SISTEMAS DE PACEMAKERS ÀS INSTITUIÇÕES E SERVIÇOS DO SERVIÇO NACIONAL DE SAÚDE",FALSE
Sistemas de pacemakers de dupla e tripla câmara,Ao abrigo de acordo-quadro (art.º 259.º),Aquisição de bens móveis,"33000000-0, Equipamento médico, medicamentos e produtos para cuidados pessoais","Centro Hospitalar de Lisboa Central, E. P. E. (508080142)",Boston Scientific Portugal  (504988964),"16.400,00 €",28-03-2016,22-02-2016,312 dias,"Portugal, Lisboa, Lisboa",Artigo 259.º do Código dos Contratos Públicos,,,,,,600105,"CONCURSO PÚBLICO PARA A CELEBRAÇÃO DE CONTRATOS PÚBLICOS DE APROVISIONAMENTO PARA A ÁREA DA SAÚDE, COM VISTA AO FORNECIMENTO SISTEMAS DE PACEMAKERS ÀS INSTITUIÇÕES E SERVIÇOS DO SERVIÇO NACIONAL DE SAÚDE",FALSE
Sistemas de pacemakers de dupla e tripla câmara,Ao abrigo de acordo-quadro (art.º 259.º),Aquisição de bens móveis,"33000000-0, Equipamento médico, medicamentos e produtos para cuidados pessoais","Centro Hospitalar de Lisboa Central, E. P. E. (508080142)",Biotronik Portugal (510726941),"90.100,00 €",28-03-2016,22-02-2016,312 dias,"Portugal, Lisboa, Lisboa",Artigo 259.º do Código dos Contratos Públicos,,,,,,600105,"CONCURSO PÚBLICO PARA A CELEBRAÇÃO DE CONTRATOS PÚBLICOS DE APROVISIONAMENTO PARA A ÁREA DA SAÚDE, COM VISTA AO FORNECIMENTO SISTEMAS DE PACEMAKERS ÀS INSTITUIÇÕES E SERVIÇOS DO SERVIÇO NACIONAL DE SAÚDE",FALSE
Sistemas de pacemakers de uma câmara,Ao abrigo de acordo-quadro (art.º 259.º),Aquisição de bens móveis,"33000000-0, Equipamento médico, medicamentos e produtos para cuidados pessoais","Centro Hospitalar de Lisboa Central, E. P. E. (508080142)",St. Jude Medical Portugal (504180746),"39.000,00 €",24-03-2016,22-02-2016,312 dias,"Portugal, Lisboa, Lisboa",Artigo 259.º do Código dos Contratos Públicos,,,,,,600105,"CONCURSO PÚBLICO PARA A CELEBRAÇÃO DE CONTRATOS PÚBLICOS DE APROVISIONAMENTO PARA A ÁREA DA SAÚDE, COM VISTA AO FORNECIMENTO SISTEMAS DE PACEMAKERS ÀS INSTITUIÇÕES E SERVIÇOS DO SERVIÇO NACIONAL DE SAÚDE",FALSE
Sistemas de pacemakers de uma câmara,Ao abrigo de acordo-quadro (art.º 259.º),Aquisição de bens móveis,"33000000-0, Equipamento médico, medicamentos e produtos para cuidados pessoais","Centro Hospitalar de Lisboa Central, E. P. E. (508080142)",Livanova (505514010),"95.160,00 €",24-03-2016,22-03-2016,312 dias,"Portugal, Lisboa, Lisboa",Artigo 259.º do Código dos Contratos Públicos,,,,,,600105,"CONCURSO PÚBLICO PARA A CELEBRAÇÃO DE CONTRATOS PÚBLICOS DE APROVISIONAMENTO PARA A ÁREA DA SAÚDE, COM VISTA AO FORNECIMENTO SISTEMAS DE PACEMAKERS ÀS INSTITUIÇÕES E SERVIÇOS DO SERVIÇO NACIONAL DE SAÚDE",FALSE
Sistemas de pacemakers de uma câmara,Ao abrigo de acordo-quadro (art.º 259.º),Aquisição de bens móveis,"33000000-0, Equipamento médico, medicamentos e produtos para cuidados pessoais","Centro Hospitalar de Lisboa Central, E. P. E. (508080142)",Medtronik Portugal (504223933),"52.000,00 €",24-03-2016,22-02-2016,312 dias,"Portugal, Lisboa, Lisboa",Artigo 259.º do Código dos Contratos Públicos,,,,,,600105,"CONCURSO PÚBLICO PARA A CELEBRAÇÃO DE CONTRATOS PÚBLICOS DE APROVISIONAMENTO PARA A ÁREA DA SAÚDE, COM VISTA AO FORNECIMENTO SISTEMAS DE PACEMAKERS ÀS INSTITUIÇÕES E SERVIÇOS DO SERVIÇO NACIONAL DE SAÚDE",FALSE
Sistemas de pacemakers de uma câmara,Ao abrigo de acordo-quadro (art.º 259.º),Aquisição de bens móveis,"33000000-0, Equipamento médico, medicamentos e produtos para cuidados pessoais","Centro Hospitalar de Lisboa Central, E. P. E. (508080142)",Boston Scientific Portugal (504988964),"26.312,00 €",24-03-2016,22-02-2016,312 dias,"Portugal, Lisboa, Lisboa",Artigo 259.º do Código dos Contratos Públicos,,,,,,600105,"CONCURSO PÚBLICO PARA A CELEBRAÇÃO DE CONTRATOS PÚBLICOS DE APROVISIONAMENTO PARA A ÁREA DA SAÚDE, COM VISTA AO FORNECIMENTO SISTEMAS DE PACEMAKERS ÀS INSTITUIÇÕES E SERVIÇOS DO SERVIÇO NACIONAL DE SAÚDE",FALSE
Sistemas de pacemakers de uma câmara,Ao abrigo de acordo-quadro (art.º 259.º),Aquisição de bens móveis,"33000000-0, Equipamento médico, medicamentos e produtos para cuidados pessoais","Centro Hospitalar de Lisboa Central, E. P. E. (508080142)",Biotronik Portugal (510726941),"93.700,00 €",24-03-2016,22-02-2016,312 dias,"Portugal, Lisboa, Lisboa",Artigo 259.º do Código dos Contratos Públicos,,,,,,600105,"CONCURSO PÚBLICO PARA A CELEBRAÇÃO DE CONTRATOS PÚBLICOS DE APROVISIONAMENTO PARA A ÁREA DA SAÚDE, COM VISTA AO FORNECIMENTO SISTEMAS DE PACEMAKERS ÀS INSTITUIÇÕES E SERVIÇOS DO SERVIÇO NACIONAL DE SAÚDE",FALSE
410283/16 - Aquisição de Ombitasvir 12.5 mg + Paritaprevir 75 mg + Ritonavir 50 mg comp. e Dasabuvir 250 mg comp.,Ajuste Direto Regime Geral,Aquisição de bens móveis,"33600000-6, Produtos farmacêuticos","Centro Hospitalar de Lisboa Central, E.P.E. (CHLC) (508080142)","Abbvie, Lda. (510229050)","61.000,00 €",24-03-2016,15-03-2016,180 dias,"Portugal, Lisboa, Lisboa","Artigo 24.º, n.º 1, alínea e) do Código dos Contratos Públicos",,,,,,Não aplicável.,Não aplicável.,FALSE
Compressas 10x10,Ao abrigo de acordo-quadro (art.º 259.º),Aquisição de bens móveis,"33130000-0, Instrumentos e dispositivos dentários e de subespecialidade","Centro Hospitalar de Lisboa Central, E. P. E. (508080142)",Bastos Viegas S.A. (500042772),"1.429,88 €",24-03-2016,24-03-2016,300 dias,"Portugal, Lisboa, Lisboa",Artigo 259.º do Código dos Contratos Públicos,,,,,,194000,CONCURSO PÚBLICO PARA A CELEBRAÇÃO DE CONTRATOS PÚBLICOS DE APROVISIONAMENTO PARA AQUISIÇÃO DE PENSO TRADICIONAL OU CLÁSSICO,FALSE
Diverso material de esterilização,Concurso público,Aquisição de bens móveis,"33140000-3, Material médico de consumo","Centro Hospitalar de Lisboa Central, E. P. E. (508080142)","Johnson & Johnson, Lda. (500153370)","134.886,40 €",24-03-2016,15-03-2016,291 dias,"Portugal, Lisboa, Lisboa","Artigo 20.º, n.º 1, alínea b) do Código dos Contratos Públicos",,,,,,Não aplicável.,Não aplicável.,FALSE
Sensores descartáveis de tecnologia oximax,Concurso público,Aquisição de bens móveis,"33140000-3, Material médico de consumo","Centro Hospitalar de Lisboa Central, E. P. E. (508080142)","Paramédica, Lda. (501393005)","128.810,88 €",24-03-2016,11-03-2016,295 dias,"Portugal, Lisboa, Lisboa","Artigo 20.º, n.º 1, alínea b) do Código dos Contratos Públicos",,,,,,Não aplicável.,Não aplicável.,FALSE
MATERIAL DE INTERVENÇÃO,Concurso público,Aquisição de bens móveis,"33140000-3, Material médico de consumo","Centro Hospitalar de Lisboa Central, E. P. E. (508080142)",VOLCANO (BE859842345),"46.240,00 €",24-03-2016,07-03-2016,296 dias,"Portugal, Lisboa, Lisboa","Artigo 20.º, n.º 1, alínea b) do Código dos Contratos Públicos",,,,,,Não aplicável.,Não aplicável.,FALSE
Sistemas de cardioversores defibrilhadores implantáveis de câmara única,Ao abrigo de acordo-quadro (art.º 259.º),Aquisição de bens móveis,"33000000-0, Equipamento médico, medicamentos e produtos para cuidados pessoais","Centro Hospitalar de Lisboa Central, E. P. E. (508080142)",Boston Scientific Portugal (504988964),"65.416,00 €",23-03-2016,15-02-2016,319 dias,"Portugal, Lisboa, Lisboa",Artigo 259.º do Código dos Contratos Públicos,,,,,,600027,"CONCURSO PÚBLICO PARA A CELEBRAÇÃO DE CONTRATOS PÚBLICOS DE APROVISIONAMENTO PARA A ÁREA DA SAÚDE, COM VISTA AO FORNECIMENTO DE SISTEMAS DE CARDIOVERSORES DESFIBRILHADORES IMPLANTÁVEIS ÀS INSTITUIÇÕES E SERVIÇOS DO SERVIÇO NACIONAL DE SAÚDE",FALSE
Sistemas de cardioversores defibrilhadores implantáveis de câmara única,Ao abrigo de acordo-quadro (art.º 259.º),Aquisição de bens móveis,"33000000-0, Equipamento médico, medicamentos e produtos para cuidados pessoais","Centro Hospitalar de Lisboa Central, E. P. E. (508080142)",Livanova (505514010),"62.750,00 €",23-03-2016,15-02-2016,319 dias,"Portugal, Lisboa, Lisboa",Artigo 259.º do Código dos Contratos Públicos,,,,,,600027,"CONCURSO PÚBLICO PARA A CELEBRAÇÃO DE CONTRATOS PÚBLICOS DE APROVISIONAMENTO PARA A ÁREA DA SAÚDE, COM VISTA AO FORNECIMENTO DE SISTEMAS DE CARDIOVERSORES DESFIBRILHADORES IMPLANTÁVEIS ÀS INSTITUIÇÕES E SERVIÇOS DO SERVIÇO NACIONAL DE SAÚDE",FALSE
Sistemas de cardioversores defibrilhadores implantáveis de câmara única,Ao abrigo de acordo-quadro (art.º 259.º),Aquisição de bens móveis,"33000000-0, Equipamento médico, medicamentos e produtos para cuidados pessoais","Centro Hospitalar de Lisboa Central, E. P. E. (508080142)",Medtronic Portugal (504223933),"104.516,00 €",23-03-2016,15-02-2016,319 dias,"Portugal, Lisboa, Lisboa",Artigo 259.º do Código dos Contratos Públicos,,,,,,600027,"CONCURSO PÚBLICO PARA A CELEBRAÇÃO DE CONTRATOS PÚBLICOS DE APROVISIONAMENTO PARA A ÁREA DA SAÚDE, COM VISTA AO FORNECIMENTO DE SISTEMAS DE CARDIOVERSORES DESFIBRILHADORES IMPLANTÁVEIS ÀS INSTITUIÇÕES E SERVIÇOS DO SERVIÇO NACIONAL DE SAÚDE",FALSE
Sistemas de cardioversores defibrilhadores implantáveis de câmara única,Ao abrigo de acordo-quadro (art.º 259.º),Aquisição de bens móveis,"33000000-0, Equipamento médico, medicamentos e produtos para cuidados pessoais","Centro Hospitalar de Lisboa Central, E. P. E. (508080142)",Biotronik Portugal (510726941),"49.000,00 €",23-03-2016,15-02-2016,319 dias,"Portugal, Lisboa, Lisboa",Artigo 259.º do Código dos Contratos Públicos,,,,,,600027,"CONCURSO PÚBLICO PARA A CELEBRAÇÃO DE CONTRATOS PÚBLICOS DE APROVISIONAMENTO PARA A ÁREA DA SAÚDE, COM VISTA AO FORNECIMENTO DE SISTEMAS DE CARDIOVERSORES DESFIBRILHADORES IMPLANTÁVEIS ÀS INSTITUIÇÕES E SERVIÇOS DO SERVIÇO NACIONAL DE SAÚDE",FALSE
Sistemas de cardioversores defibrilhadores implantáveis de câmara única,Ao abrigo de acordo-quadro (art.º 259.º),Aquisição de bens móveis,"33000000-0, Equipamento médico, medicamentos e produtos para cuidados pessoais","Centro Hospitalar de Lisboa Central, E. P. E. (508080142)",St. Jude Medical Portugal (504180746),"65.356,50 €",23-03-2016,15-02-2016,319 dias,"Portugal, Lisboa, Lisboa",Artigo 259.º do Código dos Contratos Públicos,,,,,,600027,"CONCURSO PÚBLICO PARA A CELEBRAÇÃO DE CONTRATOS PÚBLICOS DE APROVISIONAMENTO PARA A ÁREA DA SAÚDE, COM VISTA AO FORNECIMENTO DE SISTEMAS DE CARDIOVERSORES DESFIBRILHADORES IMPLANTÁVEIS ÀS INSTITUIÇÕES E SERVIÇOS DO SERVIÇO NACIONAL DE SAÚDE",FALSE
Sistemas de cardioversores desfibrilhadores implantáveis com ressincronização,Ao abrigo de acordo-quadro (art.º 259.º),Aquisição de bens móveis,"33000000-0, Equipamento médico, medicamentos e produtos para cuidados pessoais","Centro Hospitalar de Lisboa Central, E. P. E. (508080142)",Livanova (505514010),"87.400,00 €",23-03-2016,18-02-2016,316 dias,"Portugal, Lisboa, Lisboa",Artigo 259.º do Código dos Contratos Públicos,,,,,,600027,"CONCURSO PÚBLICO PARA A CELEBRAÇÃO DE CONTRATOS PÚBLICOS DE APROVISIONAMENTO PARA A ÁREA DA SAÚDE, COM VISTA AO FORNECIMENTO DE SISTEMAS DE CARDIOVERSORES DESFIBRILHADORES IMPLANTÁVEIS ÀS INSTITUIÇÕES E SERVIÇOS DO SERVIÇO NACIONAL DE SAÚDE",FALSE
Sistemas de cardioversores desfibrilhadores implantáveis com ressincronização,Ao abrigo de acordo-quadro (art.º 259.º),Aquisição de bens móveis,"33000000-0, Equipamento médico, medicamentos e produtos para cuidados pessoais","Centro Hospitalar de Lisboa Central, E. P. E. (508080142)",Boston Scientific Portugal (504988964),"70.941,85 €",23-03-2016,18-02-2016,316 dias,"Portugal, Lisboa, Lisboa",Artigo 259.º do Código dos Contratos Públicos,,,,,,600027,"CONCURSO PÚBLICO PARA A CELEBRAÇÃO DE CONTRATOS PÚBLICOS DE APROVISIONAMENTO PARA A ÁREA DA SAÚDE, COM VISTA AO FORNECIMENTO DE SISTEMAS DE CARDIOVERSORES DESFIBRILHADORES IMPLANTÁVEIS ÀS INSTITUIÇÕES E SERVIÇOS DO SERVIÇO NACIONAL DE SAÚDE",FALSE
Cardioversores desfibrilhadores de dupla câmara,Ao abrigo de acordo-quadro (art.º 259.º),Aquisição de bens móveis,"33000000-0, Equipamento médico, medicamentos e produtos para cuidados pessoais","Centro Hospitalar de Lisboa Central, E.P.E. (CHLC) (508080142)",Boston Scientific Portugal (504988964),"28.300,00 €",23-03-2016,16-02-2016,318 dias,"Portugal, Lisboa, Lisboa",Artigo 259.º do Código dos Contratos Públicos,,,,,,600027,"CONCURSO PÚBLICO PARA A CELEBRAÇÃO DE CONTRATOS PÚBLICOS DE APROVISIONAMENTO PARA A ÁREA DA SAÚDE, COM VISTA AO FORNECIMENTO DE SISTEMAS DE CARDIOVERSORES DESFIBRILHADORES IMPLANTÁVEIS ÀS INSTITUIÇÕES E SERVIÇOS DO SERVIÇO NACIONAL DE SAÚDE",FALSE
410217/16 - Aquisição de Infliximab 100 mg pó conc. sol. inj. fr. IV,Ajuste Direto Regime Geral,Aquisição de bens móveis,"33600000-6, Produtos farmacêuticos","Centro Hospitalar de Lisboa Central, E.P.E. (CHLC) (508080142)","Merck Sharp & Dohme, Lda. (500191360)","1.417.455,00 €",23-03-2016,14-03-2016,260 dias,"Portugal, Lisboa, Lisboa","Artigo 24.º, n.º 1, alínea e) do Código dos Contratos Públicos",,,,,,Não aplicável.,Não aplicável.,FALSE
Compressas TNT,Ao abrigo de acordo-quadro (art.º 259.º),Aquisição de bens móveis,"33000000-0, Equipamento médico, medicamentos e produtos para cuidados pessoais","Centro Hospitalar de Lisboa Central, E. P. E. (508080142)","Bastos Viegas, S.A. (500042772)","7.402,50 €",22-03-2016,16-03-2016,290 dias,"Portugal, Lisboa, Lisboa",Artigo 259.º do Código dos Contratos Públicos,,,,,,534953,"CONCURSO PÚBLICO PARA A CELEBRAÇÃO DE CONTRATOS PÚBLICOS DE APROVISIONAMENTO PARA A ÁREA DA SAÚDE, COM VISTA AO FORNECIMENTO DE MATERIAL DE PENSO TRADICIONAL/CLASSICO - PARTE 1 - ÀS INSTITUIÇÕES E SERVIÇOS DO SERVIÇO NACIONAL DE SAÚDE  ",FALSE
Implantes e expansores mamarios,Concurso público,Aquisição de bens móveis,"33140000-3, Material médico de consumo","Centro Hospitalar de Lisboa Central, E. P. E. (508080142)",Linea Medica (505148676),"45.876,00 €",22-03-2016,17-03-2016,291 dias,"Portugal, Lisboa, Lisboa","Artigo 20.º, n.º 1, alínea b) do Código dos Contratos Públicos",,,,,,Não aplicável.,Não aplicável.,FALSE
IMPLANTES E EXPANSORES MAMARIOS,Concurso público,Aquisição de bens móveis,"33140000-3, Material médico de consumo","Centro Hospitalar de Lisboa Central, E. P. E. (508080142)","Expomedica, Lda (501886621)","90.000,00 €",22-03-2016,10-03-2016,296 dias,"Portugal, Lisboa, Lisboa","Artigo 20.º, n.º 1, alínea b) do Código dos Contratos Públicos",,,,,,Não aplicável.,Não aplicável.,FALSE
4-2.0627/16 - Aquisição de Curetas,Ajuste Direto Regime Geral,Aquisição de bens móveis,"33140000-3, Material médico de consumo","Centro Hospitalar de Lisboa Central, E.P.E. (CHLC) (508080142)",HR Hospitalar Lda (501895558),"4.664,00 €",22-03-2016,22-03-2016,320 dias,"Portugal, Lisboa, Lisboa","Artigo 20.º, n.º 1, alínea a) do Código dos Contratos Públicos",,,,,,Não aplicável.,Não aplicável.,FALSE
4-2.0627/16 - Aquisição de Curetas,Ajuste Direto Regime Geral,Aquisição de bens móveis,"33140000-3, Material médico de consumo","Centro Hospitalar de Lisboa Central, E.P.E. (CHLC) (508080142)",Mundinter SA (500199906),"538,09 €",22-03-2016,22-03-2016,320 dias,"Portugal, Lisboa, Lisboa","Artigo 20.º, n.º 1, alínea a) do Código dos Contratos Públicos",,,,,,Não aplicável.,Não aplicável.,FALSE
Sistemas de cardioversores desfibrilhadores implantáveis com ressincronização,Ao abrigo de acordo-quadro (art.º 259.º),Aquisição de bens móveis,"33000000-0, Equipamento médico, medicamentos e produtos para cuidados pessoais","Centro Hospitalar de Lisboa Central, E. P. E. (508080142)",Medtronic Portugal (504223933),"86.480,70 €",21-03-2016,18-02-2016,316 dias,"Portugal, Lisboa, Lisboa",Artigo 259.º do Código dos Contratos Públicos,,,,,,600027,"CONCURSO PÚBLICO PARA A CELEBRAÇÃO DE CONTRATOS PÚBLICOS DE APROVISIONAMENTO PARA A ÁREA DA SAÚDE, COM VISTA AO FORNECIMENTO DE SISTEMAS DE CARDIOVERSORES DESFIBRILHADORES IMPLANTÁVEIS ÀS INSTITUIÇÕES E SERVIÇOS DO SERVIÇO NACIONAL DE SAÚDE",FALSE
Sistemas de cardioversores desfibrilhadores implantáveis com ressincronização,Ao abrigo de acordo-quadro (art.º 259.º),Aquisição de bens móveis,"33000000-0, Equipamento médico, medicamentos e produtos para cuidados pessoais","Centro Hospitalar de Lisboa Central, E. P. E. (508080142)",Biotronik Portugal (510726941),"55.800,00 €",21-03-2016,18-02-2016,316 dias,"Portugal, Lisboa, Lisboa",Artigo 259.º do Código dos Contratos Públicos,,,,,,600027,"CONCURSO PÚBLICO PARA A CELEBRAÇÃO DE CONTRATOS PÚBLICOS DE APROVISIONAMENTO PARA A ÁREA DA SAÚDE, COM VISTA AO FORNECIMENTO DE SISTEMAS DE CARDIOVERSORES DESFIBRILHADORES IMPLANTÁVEIS ÀS INSTITUIÇÕES E SERVIÇOS DO SERVIÇO NACIONAL DE SAÚDE",FALSE
Sistemas de cardioversores desfibrilhadores implantáveis com ressincronização,Ao abrigo de acordo-quadro (art.º 259.º),Aquisição de bens móveis,"33000000-0, Equipamento médico, medicamentos e produtos para cuidados pessoais","Centro Hospitalar de Lisboa Central, E. P. E. (508080142)",St. Jude Medical Portugal (504180746),"43.902,50 €",21-03-2016,18-02-2016,316 dias,"Portugal, Lisboa, Lisboa",Artigo 259.º do Código dos Contratos Públicos,,,,,,600027,"CONCURSO PÚBLICO PARA A CELEBRAÇÃO DE CONTRATOS PÚBLICOS DE APROVISIONAMENTO PARA A ÁREA DA SAÚDE, COM VISTA AO FORNECIMENTO DE SISTEMAS DE CARDIOVERSORES DESFIBRILHADORES IMPLANTÁVEIS ÀS INSTITUIÇÕES E SERVIÇOS DO SERVIÇO NACIONAL DE SAÚDE",FALSE
Cardioversores desfibrilhadores de dupla câmara (CDI DDD),Ao abrigo de acordo-quadro (art.º 259.º),Aquisição de bens móveis,"33000000-0, Equipamento médico, medicamentos e produtos para cuidados pessoais","Centro Hospitalar de Lisboa Central, E. P. E. (508080142)",Medtronic Portugal (504223933),"51.300,00 €",21-03-2016,16-02-2016,318 dias,"Portugal, Lisboa, Lisboa",Artigo 259.º do Código dos Contratos Públicos,,,,,,600027,"CONCURSO PÚBLICO PARA A CELEBRAÇÃO DE CONTRATOS PÚBLICOS DE APROVISIONAMENTO PARA A ÁREA DA SAÚDE, COM VISTA AO FORNECIMENTO DE SISTEMAS DE CARDIOVERSORES DESFIBRILHADORES IMPLANTÁVEIS ÀS INSTITUIÇÕES E SERVIÇOS DO SERVIÇO NACIONAL DE SAÚDE",FALSE
Cardioversores desfibrilhadores de dupla câmara (CDI DDD),Ao abrigo de acordo-quadro (art.º 259.º),Aquisição de bens móveis,"33000000-0, Equipamento médico, medicamentos e produtos para cuidados pessoais","Centro Hospitalar de Lisboa Central, E. P. E. (508080142)",St. Jude Medical Portugal (504180746),"89.250,00 €",21-03-2016,16-02-2016,318 dias,"Portugal, Lisboa, Lisboa",Artigo 259.º do Código dos Contratos Públicos,,,,,,600027,"CONCURSO PÚBLICO PARA A CELEBRAÇÃO DE CONTRATOS PÚBLICOS DE APROVISIONAMENTO PARA A ÁREA DA SAÚDE, COM VISTA AO FORNECIMENTO DE SISTEMAS DE CARDIOVERSORES DESFIBRILHADORES IMPLANTÁVEIS ÀS INSTITUIÇÕES E SERVIÇOS DO SERVIÇO NACIONAL DE SAÚDE",FALSE
Cardioversores desfibrilhadores de dupla câmara (CDI DDD),Ao abrigo de acordo-quadro (art.º 259.º),Aquisição de bens móveis,"33000000-0, Equipamento médico, medicamentos e produtos para cuidados pessoais","Centro Hospitalar de Lisboa Central, E. P. E. (508080142)",Livanova Portugal (505514010),"77.010,00 €",21-03-2016,16-02-2016,318 dias,"Portugal, Lisboa, Lisboa",Artigo 259.º do Código dos Contratos Públicos,,,,,,600027,"CONCURSO PÚBLICO PARA A CELEBRAÇÃO DE CONTRATOS PÚBLICOS DE APROVISIONAMENTO PARA A ÁREA DA SAÚDE, COM VISTA AO FORNECIMENTO DE SISTEMAS DE CARDIOVERSORES DESFIBRILHADORES IMPLANTÁVEIS ÀS INSTITUIÇÕES E SERVIÇOS DO SERVIÇO NACIONAL DE SAÚDE",FALSE
Material de hemodinâmica,Ao abrigo de acordo-quadro (art.º 259.º),Aquisição de bens móveis,"33000000-0, Equipamento médico, medicamentos e produtos para cuidados pessoais","Centro Hospitalar de Lisboa Central, E. P. E. (508080142)",Terumo Europe Espanã (980472024),"93.200,00 €",21-03-2016,03-03-2016,303 dias,"Portugal, Lisboa, Lisboa",Artigo 259.º do Código dos Contratos Públicos,,,,,,395903,1-2.0002/2011-Concurso Público Internacional Tendente à Celebração de Acordo-Quadro para Selecção de Fornecedores de Material de Hemodinâmica.,FALSE
Válvulas cardíacas mitrais biológica,Ajuste Direto Regime Geral,Aquisição de bens móveis,"33000000-0, Equipamento médico, medicamentos e produtos para cuidados pessoais","Centro Hospitalar de Lisboa Central, E. P. E. (508080142)",Edwards Lifesciences (508014832),"13.000,00 €",21-03-2016,08-03-2016,298 dias,"Portugal, Lisboa, Lisboa","Artigo 20.º, n.º 1, alínea a) do Código dos Contratos Públicos",,,,,,Não aplicável.,Não aplicável.,FALSE
AQUISIÇÃO DE LEDIPASVIR 90 MG + SOFOSBUVIR 400 MG COMP. E SOFOSBUVIR 400 MG COMP,Ao abrigo de acordo-quadro (art.º 259.º),Aquisição de bens móveis,"33600000-6, Produtos farmacêuticos","Centro Hospitalar de Lisboa Central, E. P. E. (508080142)","Gilead Sciences, Lda (503604704)","1.037.133,32 €",21-03-2016,18-03-2016,287 dias,"Portugal, Lisboa, Lisboa",Artigo 259.º do Código dos Contratos Públicos,,,,,,1422736,CP 2015/41 - ACORDO QUADRO PARA FORNECIMENTO DE MEDICAMENTOS ANTI-INFECIOSOS: ANTIVÍRICOS E ANTIFÚNGICOS ÀS INSTITUIÇÕES E SERVIÇOS DO SERVIÇO NACIONAL DE SAÚDE,FALSE
Microcateter para Angiografia,Concurso público,Aquisição de bens móveis,"33140000-3, Material médico de consumo","Centro Hospitalar de Lisboa Central, E. P. E. (508080142)",Socime II (504453939),"24.800,00 €",21-03-2016,10-03-2016,296 dias,"Portugal, Lisboa, Lisboa","Artigo 20.º, n.º 1, alínea b) do Código dos Contratos Públicos",,,,,,Não aplicável.,Não aplicável.,FALSE
AQUISIÇÃO DE LEDIPASVIR 90 MG + SOFOSBUVIR 400 MG COMP. E SOFOSBUVIR 400 MG COMP,Ao abrigo de acordo-quadro (art.º 259.º),Aquisição de bens móveis,"33600000-6, Produtos farmacêuticos","Centro Hospitalar de Lisboa Central, E. P. E. (508080142)","Gilead Sciences, Lda (503604704)","585.332,92 €",21-03-2016,15-03-2016,290 dias,"Portugal, Lisboa, Lisboa",Artigo 259.º do Código dos Contratos Públicos,,,,,,1422736,CP 2015/41 - ACORDO QUADRO PARA FORNECIMENTO DE MEDICAMENTOS ANTI-INFECIOSOS: ANTIVÍRICOS E ANTIFÚNGICOS ÀS INSTITUIÇÕES E SERVIÇOS DO SERVIÇO NACIONAL DE SAÚDE,FALSE
Microcateter para Angiografia,Concurso público,Aquisição de bens móveis,"33140000-3, Material médico de consumo","Centro Hospitalar de Lisboa Central, E. P. E. (508080142)",World Medica (ESB82612599),"11.850,00 €",21-03-2016,10-03-2016,296 dias,"Portugal, Lisboa, Lisboa","Artigo 20.º, n.º 1, alínea b) do Código dos Contratos Públicos",,,,,,Não aplicável.,Não aplicável.,FALSE
Microcateter para Angiografia,Concurso público,Aquisição de bens móveis,"33140000-3, Material médico de consumo","Centro Hospitalar de Lisboa Central, E. P. E. (508080142)",Biosonda (501463313),"44.100,00 €",21-03-2016,10-03-2016,296 dias,"Portugal, Lisboa, Lisboa","Artigo 20.º, n.º 1, alínea b) do Código dos Contratos Públicos",,,,,,Não aplicável.,Não aplicável.,FALSE
AQUISIÇÃO DE BOSENTANO 125 MG COMP - PARA O ANO 2016,Ajuste Direto Regime Geral,Aquisição de bens móveis,"33600000-6, Produtos farmacêuticos","Centro Hospitalar de Lisboa Central, E. P. E. (508080142)","Actelion Pharmaceuticals Portugal, Lda. (507336488)","651.739,20 €",21-03-2016,26-02-2016,304 dias,"Portugal, Lisboa, Lisboa","Artigo 24.º, n.º 1, alínea e) do Código dos Contratos Públicos",,,,,,Não aplicável.,Não aplicável.,FALSE
Microcateter para Angiografia,Concurso público,Aquisição de bens móveis,"33140000-3, Material médico de consumo","Centro Hospitalar de Lisboa Central, E. P. E. (508080142)","Boston Scientific Portugal, Lda (504988964)","32.750,00 €",21-03-2016,10-03-2016,296 dias,"Portugal, Lisboa, Lisboa","Artigo 20.º, n.º 1, alínea b) do Código dos Contratos Públicos",,,,,,Não aplicável.,Não aplicável.,FALSE
Microcateter para Angiografia,Concurso público,Aquisição de bens móveis,"33140000-3, Material médico de consumo","Centro Hospitalar de Lisboa Central, E. P. E. (508080142)",Biomedica (501745459),"16.800,00 €",21-03-2016,10-03-2016,296 dias,"Portugal, Lisboa, Lisboa","Artigo 20.º, n.º 1, alínea b) do Código dos Contratos Públicos",,,,,,Não aplicável.,Não aplicável.,FALSE
cateter de ablação não irrigado e outros,Concurso público,Aquisição de bens móveis,"33140000-3, Material médico de consumo","Centro Hospitalar de Lisboa Central, E. P. E. (508080142)","St. Jude Medical, Lda (504180746)","153.075,00 €",21-03-2016,04-03-2016,301 dias,"Portugal, Lisboa, Lisboa","Artigo 20.º, n.º 1, alínea b) do Código dos Contratos Públicos",,,,,,Não aplicável.,Não aplicável.,FALSE
Cateter de ablação irrigado e outros,Concurso público,Aquisição de bens móveis,"33140000-3, Material médico de consumo","Centro Hospitalar de Lisboa Central, E. P. E. (508080142)","St. Jude Medical Portugal, Lda (504180746)","165.350,00 €",21-03-2016,04-03-2016,301 dias,"Portugal, Lisboa, Lisboa","Artigo 20.º, n.º 1, alínea b) do Código dos Contratos Públicos",,,,,,Não aplicável.,Não aplicável.,FALSE
HEMOGRAMAS E RETICULOCITOS (CONJUNTO DE REAGENTES),Concurso público,Aquisição de bens móveis,"33696500-0, Reagentes de laboratório","Centro Hospitalar de Lisboa Central, E. P. E. (508080142)","EMILIO DE AZEVEDO COMPOS, SA  (500094853)","708.300,00 €",21-03-2016,16-03-2016,365 dias,"Portugal, Lisboa, Lisboa","Artigo 20.º, n.º 1, alínea b) do Código dos Contratos Públicos",,,,,,Não aplicável.,Não aplicável.,FALSE
cateter de eletrofisiologia decapolar e quadripolar,Concurso público,Aquisição de bens móveis,"33140000-3, Material médico de consumo","Centro Hospitalar de Lisboa Central, E. P. E. (508080142)",Johnson (500153370),"940,00 €",21-03-2016,10-03-2016,296 dias,"Portugal, Lisboa, Lisboa","Artigo 20.º, n.º 1, alínea b) do Código dos Contratos Públicos",,,,,,Não aplicável.,Não aplicável.,FALSE
Cateter de eletrofisiologia decapolar e quadripolar,Concurso público,Aquisição de bens móveis,"33140000-3, Material médico de consumo","Centro Hospitalar de Lisboa Central, E. P. E. (508080142)",st jude medical (504180746),"227.660,00 €",21-03-2016,10-03-2016,295 dias,"Portugal, Lisboa, Lisboa","Artigo 20.º, n.º 1, alínea b) do Código dos Contratos Públicos",,,,,,Não aplicável.,Não aplicável.,FALSE
MATERIAL DE INTERVENÇÃO,Concurso público,Aquisição de bens móveis,"33140000-3, Material médico de consumo","Centro Hospitalar de Lisboa Central, E. P. E. (508080142)","St. Jude Medical Portugal, Lda (504180746)","29.750,00 €",21-03-2016,07-03-2016,299 dias,"Portugal, Lisboa, Lisboa","Artigo 20.º, n.º 1, alínea b) do Código dos Contratos Públicos",,,,,,Não aplicável.,Não aplicável.,FALSE
ENZIMAS,Ajuste Direto Regime Geral,Aquisição de bens móveis,"33696500-0, Reagentes de laboratório","Centro Hospitalar de Lisboa Central, E.P.E. (CHLC) (508080142)",ALFAGENE (503387398),"29.192,00 €",21-03-2016,12-03-2016,353 dias,"Portugal, Lisboa, Lisboa","Artigo 20.º, n.º 1, alínea a) do Código dos Contratos Públicos",,,,,,Não aplicável.,Não aplicável.,FALSE
