Objeto do Contrato,Tipo de Procedimento,Tipo(s) de Contrato,CPVs,Entidade(s) Adjudicante(s),Entidade(s) Adjudicatária(s),Preço Contratual,Data de Publicação,Data de Celebração do Contrato,Prazo de Execução,Local de Execução,Fundamentação,Data de Fecho do Contrato,Preço Total Efetivo,Causas das Alterações ao Prazo,Causas das Alterações ao Preço,Estado,N.º registo do Acordo Quadro,Descrição do Acordo Quadro,Procedimento Centralizado
14200048 - Aquisição de Stent's Coronários para o CHLO,Concurso público,Aquisição de bens móveis,"33140000-3, Material médico de consumo","Centro Hospitalar de Lisboa Ocidental, EPE (CHLO) (507618319)","Biotronik Portugal, Unipessoal Lda. (510726941)","47.500,00 €",19-10-2018,02-08-2018,365 dias,"Portugal, Lisboa, Lisboa","Artigo 20.º, n.º 1, alínea b) do Código dos Contratos Públicos",,,,,,Não aplicável.,Não aplicável.,FALSE
".12800248-3 VIDEOLARINGOSCOPIOS PARA O CHLO, EPE",Consulta Prévia,Aquisição de bens móveis,"33000000-0, Equipamento médico, medicamentos e produtos para cuidados pessoais","Centro Hospitalar de Lisboa Ocidental, EPE (CHLO) (507618319)","Teprel - Equipamentos Médicos, S.A. (502262184)","47.416,05 €",18-10-2018,10-10-2018,30 dias,"Portugal, Lisboa, Lisboa","Artigo 20.º, n.º 1, alínea c) do Código dos Contratos Públicos",,,,,,Não aplicável.,Não aplicável.,FALSE
"14200018 - Aquisição de Próteses Aórticas Percutâneas para o CHLO, E.P.E.",Concurso público,Aquisição de bens móveis,"33100000-1, Equipamento médico","Centro Hospitalar de Lisboa Ocidental, EPE (CHLO) (507618319)","MEDTRONIC PORTUGAL, LDA (504223933)","1.237.500,00 €",17-10-2018,20-08-2018,365 dias,"Portugal, Lisboa, Lisboa","Artigo 20.º, n.º 1, alínea a) do Código dos Contratos Públicos",,,,,,Não aplicável.,Não aplicável.,FALSE
"14800128- Aquisição de 5 Candeeiros Cirúrgicos para o Bloco Operatório do CHLO, EPE (HSC)",Concurso público,Aquisição de bens móveis,"33000000-0, Equipamento médico, medicamentos e produtos para cuidados pessoais","Centro Hospitalar de Lisboa Ocidental, E. P. E. (507618319)","IBERDATA - Equipamentos, SA (501904921)","69.214,73 €",17-10-2018,25-07-2018,30 dias,"Portugal, Lisboa, Lisboa","Artigo 20.º, n.º 1, alínea b) do Código dos Contratos Públicos",,,,,,Não aplicável.,Não aplicável.,FALSE
