Objeto do Contrato,Tipo de Procedimento,Tipo(s) de Contrato,CPVs,Entidade(s) Adjudicante(s),Entidade(s) Adjudicatária(s),Preço Contratual,Data de Publicação,Data de Celebração do Contrato,Prazo de Execução,Local de Execução,Fundamentação,Data de Fecho do Contrato,Preço Total Efetivo,Causas das Alterações ao Prazo,Causas das Alterações ao Preço,Estado,N.º registo do Acordo Quadro,Descrição do Acordo Quadro,Procedimento Centralizado
Aquisição da prestação de serviços para ampliação de rede estruturada no piso 1 do CHEDV,Ajuste Direto Regime Geral,Aquisição de serviços,"72500000-0, Serviços relacionados com a informática","CENTRO HOSPITALAR DE ENTRE O DOURO E VOUGA, E.P.E. (508878462)","Decunify-Soluções de Comunicações, S.A. (504889893)","14.395,92 €",17-10-2016,22-09-2016,30 dias,"Portugal, Aveiro, Santa Maria da Feira","Artigo 20.º, n.º 1, alínea a) do Código dos Contratos Públicos",31-12-2016,"14.395,92 €",,,,Não aplicável.,Não aplicável.,FALSE
Aquisição de prestação de serviços de plataforma eletrónica de Contratação pública,Ajuste Direto Regime Geral,Aquisição de serviços,"72000000-5, Serviços de TI: consultoria, desenvolvimento de software, Internet e apoio","Centro Hospitalar de Entre o Douro e Vouga, E.P.E. (508878462)","Vortal-Comércio Eletrónico Consultadoria e Multimédia, S.A. (505141019)","8.400,00 €",11-10-2016,07-10-2016,900 dias,"Portugal, Aveiro, Santa Maria da Feira","Artigo 20.º, n.º 1, alínea a) do Código dos Contratos Públicos","","",,,,Não aplicável.,Não aplicável.,FALSE
