Objeto do Contrato,Tipo de Procedimento,Tipo(s) de Contrato,CPVs,Entidade(s) Adjudicante(s),Entidade(s) Adjudicatária(s),Preço Contratual,Data de Publicação,Data de Celebração do Contrato,Prazo de Execução,Local de Execução,Fundamentação,Data de Fecho do Contrato,Preço Total Efetivo,Causas das Alterações ao Prazo,Causas das Alterações ao Preço,Estado,N.º registo do Acordo Quadro,Descrição do Acordo Quadro,Procedimento Centralizado
"Reagentes, Eletroforeses",Concurso público,Aquisição de bens móveis,"33696200-7, Reagentes para análises ao sangue","Hospital do Espírito Santo de Évora, E.P.E. (508085888)",Phadia Lda (506916243),"31.123,50 €",07-02-2014,02-01-2014,365 dias,"Portugal, Évora, Évora","Artigo 20.º, n.º 1, alínea b) do Código dos Contratos Públicos",,,,,,Não aplicável.,Não aplicável.,FALSE
"Aquisição de ragentes, Imunoalergologia",Concurso público,Aquisição de bens móveis,"33696200-7, Reagentes para análises ao sangue","Hospital do Espírito Santo de Évora, E.P.E. (508085888)",Phadia Lda (506916243),"57.664,68 €",07-02-2014,31-01-2014,365 dias,"Portugal, Évora, Évora","Artigo 20.º, n.º 1, alínea b) do Código dos Contratos Públicos",,,,,,Não aplicável.,Não aplicável.,FALSE
Aquisição de reagentes,Concurso público,Aquisição de bens móveis,"33696200-7, Reagentes para análises ao sangue","Hospital do Espírito Santo de Évora, E.P.E. (508085888)","Beckman Coulter (509035167), Izasa Portugal (501086110)","124.490,15 €",05-02-2014,09-01-2014,365 dias,"Portugal, Évora, Évora","Artigo 20.º, n.º 1, alínea b) do Código dos Contratos Públicos",,,,,,Não aplicável.,Não aplicável.,FALSE
Aquisição de reagentes,Concurso público,Aquisição de bens móveis,"33696200-7, Reagentes para análises ao sangue","Hospital do Espírito Santo de Évora, E.P.E. (508085888)","Baptista Marques (501439110), Siemens Heathcare (507925173)","94.492,40 €",05-02-2014,09-01-2014,365 dias,"Portugal, Évora, Évora","Artigo 20.º, n.º 1, alínea b) do Código dos Contratos Públicos",,,,,,Não aplicável.,Não aplicável.,FALSE
Aquisição de produtos de hotelaria,Concurso público,Aquisição de bens móveis,"33760000-5, Papel higiénico, lenços, toalhas de mão e guardanapos","Hospital do Espírito Santo de Évora, E. P. E. (508085888)","Artur & Guerreiro Lda (503897787), J A Ramos (501409963), Amadeu P Cardoso (506348989)","49.657,20 €",03-02-2014,17-01-2014,365 dias,"Portugal, Évora, Évora","Artigo 20.º, n.º 1, alínea b) do Código dos Contratos Públicos",,,,,,Não aplicável.,Não aplicável.,FALSE
Aquisição de resgentes,Concurso público,Aquisição de bens móveis,"33696200-7, Reagentes para análises ao sangue","Hospital do Espírito Santo de Évora, E.P.E. (508085888)",Beckman Coulter Portugal Lda (509035167),"37.094,00 €",03-02-2014,07-01-2014,365 dias,"Portugal, Évora, Évora","Artigo 20.º, n.º 1, alínea b) do Código dos Contratos Públicos",,,,,,Não aplicável.,Não aplicável.,FALSE
Aquisição de serviços de consultoria jurídica,Ajuste Direto Regime Geral,Aquisição de serviços,"79111000-5, Serviços de assessoria jurídica","Hospital do Espírito Santo de Évora, E. P. E. (508085888)","BAS, Sociedade de Advogados RL (509100007)","20.300,00 €",03-02-2014,21-01-2014,365 dias,"Portugal, Évora, Évora","Artigo 37.º, n.º 1 do  DL nº 32/2012, de 13.02",,,,,,Não aplicável.,Não aplicável.,FALSE
