Objeto do Contrato,Tipo de Procedimento,Tipo(s) de Contrato,CPVs,Entidade(s) Adjudicante(s),Entidade(s) Adjudicatária(s),Preço Contratual,Data de Publicação,Data de Celebração do Contrato,Prazo de Execução,Local de Execução,Fundamentação,Data de Fecho do Contrato,Preço Total Efetivo,Causas das Alterações ao Prazo,Causas das Alterações ao Preço,Estado,N.º registo do Acordo Quadro,Descrição do Acordo Quadro,Procedimento Centralizado
Empreitada de Construção do Centro Materno Infantil do Norte,Ajuste Direto Regime Geral,Empreitadas de obras públicas,"45000000-7, Construção","Centro Hospitalar Porto, E. P. E. (508331471)","MRG Construction, SA (503156035)","238.076,61 €",09-05-2016,01-02-2016,648 dias,"Portugal, Porto, Porto","Artigo 24.º, n.º 1, alínea e) do Código dos Contratos Públicos",18-10-2016,"238.076,61 €",Não Aplicável,Não Aplicável,,Não aplicável.,Não aplicável.,FALSE
Empreitada de Construção do Centro Materno Infantil do Norte,Ajuste Direto Regime Geral,Empreitadas de obras públicas,"45000000-7, Construção","Centro Hospitalar Porto, E. P. E. (508331471)","MRG-Equipav, Engenharia e Construção, SA (503156035)","476.604,70 €",09-05-2016,11-06-2014,120 dias,"Portugal, Porto, Porto","Artigo 24.º, n.º 1, alínea e) do Código dos Contratos Públicos",18-10-2016,"476.604,70 €",Não Aplicável,Não Aplicável,,Não aplicável.,Não aplicável.,FALSE
Empreitada de Construção do Centro Materno Infantil do Norte,Ajuste Direto Regime Geral,Empreitadas de obras públicas,"45000000-7, Construção","Centro Hospitalar Porto, E. P. E. (508331471)","MRG- Equipav, Engenharia e Construção, SA (503156035)","384.856,35 €",09-05-2016,05-06-2014,514 dias,"Portugal, Porto, Porto","Artigo 24.º, n.º 1, alínea e) do Código dos Contratos Públicos",18-10-2016,"384.856,35 €",Não Aplicável,Não Aplicável,,Não aplicável.,Não aplicável.,FALSE
Empreitada de Construção do Centro Materno Infantil do Norte,Ajuste Direto Regime Geral,Empreitadas de obras públicas,"45000000-7, Construção","Centro Hospitalar Porto, E. P. E. (508331471)","MRG-ENGENHARIA E CONSTRUÇÃO, SA (500739749)","9.736,20 €",09-05-2016,31-12-2012,47 dias,"Portugal, Porto, Porto","Artigo 19.º, alínea a) do Código dos Contratos Públicos","","9.736,20 €",Não aplicável,Não aplicável,,Não aplicável.,Não aplicável.,FALSE
Empreitada de Construção do Centro Materno Infantil do Norte,Ajuste Direto Regime Geral,Empreitadas de obras públicas,"45000000-7, Construção","Centro Hospitalar Porto, E. P. E. (508331471)","MRG Construction, SA (503156035)","180.003,77 €",06-05-2016,01-09-2015,1006 dias,"Portugal, Porto, Porto","Artigo 24.º, n.º 1, alínea e) do Código dos Contratos Públicos",18-10-2016,"180.003,77 €",Não Aplicável,Não Aplicável,,Não aplicável.,Não aplicável.,FALSE
Empreitada de Construção do Centro Materno Infantil do Norte,Ajuste Direto Regime Geral,Empreitadas de obras públicas,"45000000-7, Construção","Centro Hospitalar Porto, E. P. E. (508331471)","MRG-Equipav, Engenharia e Construção, SA (503156035)","121.319,57 €",06-05-2016,27-05-2015,1246 dias,"Portugal, Porto, Porto","Artigo 19.º, alínea a) do Código dos Contratos Públicos","","121.319,57 €",Não Aplicável,Não Aplicável,,Não aplicável.,Não aplicável.,FALSE
Empreitada de Construção do Centro Materno Infantil do Norte,Ajuste Direto Regime Geral,Empreitadas de obras públicas,"45000000-7, Construção","Centro Hospitalar Porto, E. P. E. (508331471)","MRG- Equipav, Engenharia e Construção, SA (503156035)","40.344,25 €",06-05-2016,16-03-2015,0 dias,"Portugal, Porto, Porto","Artigo 19.º, alínea a) do Código dos Contratos Públicos","","40.344,25 €",Não Aplicável,Não Aplicável,,Não aplicável.,Não aplicável.,FALSE
Empreitada de Construção do Centro Materno Infantil do Norte,Ajuste Direto Regime Geral,Empreitadas de obras públicas,"45000000-7, Construção","Centro Hospitalar Porto, E. P. E. (508331471)","MRG-Equipav, Engenharia e Construção, SA (503156035)","169.683,09 €",06-05-2016,09-12-2014,320 dias,"Portugal, Porto, Porto","Artigo 24.º, n.º 1, alínea e) do Código dos Contratos Públicos",18-10-2016,"169.683,09 €",Não Aplicável,Não Aplicável,,Não aplicável.,Não aplicável.,FALSE
Empreitada de Construção do Centro Materno Infantil do Norte,Ajuste Direto Regime Geral,Empreitadas de obras públicas,"45000000-7, Construção","Centro Hospitalar Porto, E. P. E. (508331471)","MRG-Equipav, Engenharia e Construção, SA (503156035)","64.193,74 €",06-05-2016,31-12-2014,0 dias,"Portugal, Porto, Porto","Artigo 19.º, alínea a) do Código dos Contratos Públicos","","64.193,74 €",Não Aplicável,Não Aplicável,,Não aplicável.,Não aplicável.,FALSE
Empreitada de Construção do Centro Materno Infantil do Norte,Ajuste Direto Regime Geral,Empreitadas de obras públicas,"45000000-7, Construção","Centro Hospitalar Porto, E. P. E. (508331471)","MRG-Equipav, Engenharia e Construção, SA (503156035)","127.159,20 €",06-05-2016,16-07-2014,449 dias,"Portugal, Porto, Porto<BR/>Portugal","Artigo 19.º, alínea a) do Código dos Contratos Públicos","","127.159,20 €",Não Aplicável,Não Aplicável,,Não aplicável.,Não aplicável.,FALSE
Empreitada de Construção do Centro Materno Infantil do Norte,Ajuste Direto Regime Geral,Empreitadas de obras públicas,"45000000-7, Construção","Centro Hospitalar Porto, E. P. E. (508331471)","MRG-Equipav,Engenharia e Construção, SA (503156035)","159.470,05 €",06-05-2016,10-01-2014,194 dias,"Portugal, Porto, Porto","Artigo 24.º, n.º 1, alínea e) do Código dos Contratos Públicos",18-10-2016,"159.470,05 €",Não Aplicável,Não Aplicável,,Não aplicável.,Não aplicável.,FALSE
Empreitada de Construção do Centro Materno Infantil do Norte,Ajuste Direto Regime Geral,Empreitadas de obras públicas,"45000000-7, Construção","Centro Hospitalar Porto, E. P. E. (508331471)","MRG- Engenharia e Construção, SA (500739749)","143.564,54 €",06-05-2016,11-09-2013,299 dias,"Portugal, Porto, Porto","Artigo 24.º, n.º 1, alínea e) do Código dos Contratos Públicos","","143.564,54 €",Não Aplicável,Não Aplicável,,Não aplicável.,Não aplicável.,FALSE
Empreitada de Construção do Centro Materno Infantil do Norte,Ajuste Direto Regime Geral,Empreitadas de obras públicas,"45000000-7, Construção","Centro Hospitalar Porto, E. P. E. (508331471)","MRG-Engenharia e Construção, SA (500739749)","162.557,29 €",06-05-2016,03-07-2013,275 dias,"Portugal, Porto, Porto","Artigo 24.º, n.º 1, alínea e) do Código dos Contratos Públicos",18-10-2016,"162.557,29 €",Não Aplicável,Não Aplicável,,Não aplicável.,Não aplicável.,FALSE
Empreitada de Construção do Centro Materno Infantil do Norte,Ajuste Direto Regime Geral,Empreitadas de obras públicas,"45000000-7, Construção","Centro Hospitalar Porto, E. P. E. (508331471)","MRG-Engenharia e Construção, SA (500739749)","50.967,07 €",06-05-2016,04-07-2013,303 dias,"Portugal, Porto, Porto","Artigo 19.º, alínea a) do Código dos Contratos Públicos","","50.967,07 €",Não aplicável,Não aplicável,,Não aplicável.,Não aplicável.,FALSE
Empreitada de Construção do Centro Materno Infantil do Norte,Ajuste Direto Regime Geral,Empreitadas de obras públicas,"45000000-7, Construção","Centro Hospitalar Porto, E. P. E. (508331471)","MRG- Engenharia e Construção, SA (500739749)","65.773,72 €",06-05-2016,18-02-2013,0 dias,"Portugal, Porto, Porto","Artigo 19.º, alínea a) do Código dos Contratos Públicos","","65.773,72 €",Não aplicável,Não aplicável,,Não aplicável.,Não aplicável.,FALSE
Empreitada de Construção do Centro Materno Infantil do Norte,Ajuste Direto Regime Geral,Empreitadas de obras públicas,"45000000-7, Construção","Centro Hospitalar Porto, E. P. E. (508331471)","MRG-ENGENHARIA E CONSTRUÇÃO, SA (500739749)","24.089,50 €",06-05-2016,28-01-2013,49 dias,"Portugal, Porto, Porto","Artigo 19.º, alínea a) do Código dos Contratos Públicos","","24.089,50 €",Não aplicável,Não aplicável,,Não aplicável.,Não aplicável.,FALSE
Empreitada de Construção do Centro Materno Infantil do Norte,Ajuste Direto Regime Geral,Empreitadas de obras públicas,"45000000-7, Construção","Centro Hospitalar Porto, E. P. E. (508331471)","MRG-ENGENHARIA E CONSTRUÇÃO, SA (500739749)","22.998,81 €",06-05-2016,06-11-2012,132 dias,"Portugal, Porto, Porto","Artigo 19.º, alínea a) do Código dos Contratos Públicos","","22.998,81 €",Não aplicável,Não aplicável,,Não aplicável.,Não aplicável.,FALSE
Empreitada de Construção do Centro Materno Infantil do Norte,Ajuste Direto Regime Geral,Empreitadas de obras públicas,"45000000-7, Construção","Centro Hospitalar Porto, E. P. E. (508331471)","MRG- Engenharia e Construção, SA (500739749)","133.323,63 €",06-05-2016,29-08-2012,152 dias,"Portugal, Porto, Porto","Artigo 19.º, alínea a) do Código dos Contratos Públicos","","133.323,63 €",Não aplicável,Não aplicável,,Não aplicável.,Não aplicável.,FALSE
