Objeto do Contrato,Tipo de Procedimento,Tipo(s) de Contrato,CPVs,Entidade(s) Adjudicante(s),Entidade(s) Adjudicatária(s),Preço Contratual,Data de Publicação,Data de Celebração do Contrato,Prazo de Execução,Local de Execução,Fundamentação,Data de Fecho do Contrato,Preço Total Efetivo,Causas das Alterações ao Prazo,Causas das Alterações ao Preço,Estado,N.º registo do Acordo Quadro,Descrição do Acordo Quadro,Procedimento Centralizado
Aquisição de armários para colocação nas áreas recentemente intervencionadas dos Pavilhões 21A e 24 (EA n.º 20150000047),Ajuste Direto Regime Geral,Locação de bens móveis<br/>Aquisição de bens móveis,"39100000-3, Mobiliário","INFARMED - Autoridade Nacional do Medicamento e Produtos de Saúde, I. P. (600037002)","HURIC INDUSTRIA , LDA. (502955368)","38.878,05 €",11-05-2015,29-04-2015,60 dias,Portugal,"Artigo 20.º, n.º 1, alínea a) do Código dos Contratos Públicos",,,,,,Não aplicável.,Não aplicável.,FALSE
Aquisição de Licenciamento Suse Linux (EA n.º 20150000049),Ajuste Direto Regime Geral,Locação de bens móveis,"48600000-4, Pacote de software para bases de dados e de software operativo","INFARMED - Autoridade Nacional do Medicamento e Produtos de Saúde, I. P. (600037002)","One Base, Lda. (508281580)","25.500,00 €",11-05-2015,11-05-2015,1095 dias,Portugal,"Artigo 20.º, n.º 1, alínea a) do Código dos Contratos Públicos",,,,,,Não aplicável.,Não aplicável.,FALSE
"Aquisição de serviços de Patrocínio Judiciário e Consultoria Jurídica, para 2015  -EA n.º 20140000615.",Ajuste Direto Regime Geral,Aquisição de serviços,"79100000-5, Serviços jurídicos",INFARMED - Autoridade Nacional do Medicamento e Produtos de Saúde I.P. (600037002),"BAS - Sociedade de Advogados, rl. (509100007)","81.544,32 €",11-05-2015,11-05-2015,365 dias,Portugal,"Artigo 27.º, n.º 1, alínea b) do Código dos Contratos Públicos",,,,,,Não aplicável.,Não aplicável.,FALSE
Aquisição de sistema de Video-conferência Webex - EA n.º 20150000006.,Ajuste Direto Regime Geral,Aquisição de bens móveis,"32260000-3, Equipamento para transmissão de dados",INFARMED - Autoridade Nacional do Medicamento e Produtos de Saúde I.P. (600037002),"LAYER8, SHIELD DOMAIN, S.A. (509985211)","16.750,45 €",11-05-2015,11-05-2015,365 dias,Portugal,"Artigo 20.º, n.º 1, alínea a) do Código dos Contratos Públicos",,,,,,Não aplicável.,Não aplicável.,FALSE
Aquisição de compressor para o CHILLER que garante a  climatização de todas as salas do Laboratório de Biologia/ Microbiologia EA n.º 20150000185,Ajuste Direto Regime Geral,Locação de bens móveis<br/>Aquisição de serviços,"42123000-7, Compressores","INFARMED - Autoridade Nacional do Medicamento e Produtos de Saúde, I. P. (600037002)","ACS - ADVANCED COOLING SOLUTIONS, LDA. (513237437)","5.468,00 €",11-05-2015,11-05-2015,30 dias,Portugal,"Artigo 20.º, n.º 1, alínea a) do Código dos Contratos Públicos",,,,,,Não aplicável.,Não aplicável.,FALSE
