Objeto do Contrato,Tipo de Procedimento,Tipo(s) de Contrato,CPVs,Entidade(s) Adjudicante(s),Entidade(s) Adjudicatária(s),Preço Contratual,Data de Publicação,Data de Celebração do Contrato,Prazo de Execução,Local de Execução,Fundamentação,Data de Fecho do Contrato,Preço Total Efetivo,Causas das Alterações ao Prazo,Causas das Alterações ao Preço,Estado,N.º registo do Acordo Quadro,Descrição do Acordo Quadro,Procedimento Centralizado
Aquisição de Renovação do Contrato de Manutenção Easyvista,Ajuste Direto Regime Geral,Aquisição de serviços,"72260000-5, Serviços relacionados com software",Hospital Prof. Doutor Fernando Fonseca E.P.E. (503035416),EasyVista S.A. (501926003),"9.945,00 €",11-01-2017,15-12-2016,365 dias,"Portugal, Lisboa, Amadora","Artigo 20.º, n.º 1, alínea a) do Código dos Contratos Públicos",,,,,,Não aplicável.,Não aplicável.,FALSE
Aquisição de serviços de manutenção à Grifols,Ajuste Direto Regime Geral,Aquisição de serviços,"50000000-5, Serviços de reparação e manutenção","Hospital Professor Doutor Fernando Fonseca, E. P. E. (503035416)","GRIFOLS PORTUGAL,PROD.FARMACÊUTICOS HOSPITAL LDA (502041285)","14.842,80 €",10-01-2017,27-12-2016,365 dias,"Portugal, Lisboa, Amadora","Artigo 24.º, n.º 1, alínea e) do Código dos Contratos Públicos",,,,,,Não aplicável.,Não aplicável.,FALSE
Aquisição de Material de Penso de Efeito Terapêutico ao abrigo do AQ 10/2014,Ao abrigo de acordo-quadro (art.º 259.º),Aquisição de bens móveis,"33600000-6, Produtos farmacêuticos","Hospital Professor Doutor Fernando Fonseca, E. P. E. (503035416)","Quilaban - Quimica Laboratorial Analítica, SA (500399670)","68.836,80 €",05-01-2017,05-01-2017,366 dias,"Portugal, Lisboa, Amadora",Artigo 259.º do Código dos Contratos Públicos,,,,,,1315192,Acordo Quadro para fornecimento de material de penso de efeito terapêutico às Instituições e Serviços do Serviço Nacional de Saúde,FALSE
Aquisição de serviços de manutenção para equipamentos da General Electric,Ajuste Direto Regime Geral,Aquisição de serviços,"50000000-5, Serviços de reparação e manutenção","Hospital Professor Doutor Fernando Fonseca, E. P. E. (503035416)",General Electric Portuguesa S.A. (500357129),"254.014,84 €",05-01-2017,27-12-2016,365 dias,"Portugal, Lisboa, Amadora","Artigo 24.º, n.º 1, alínea e) do Código dos Contratos Públicos",,,,,,Não aplicável.,Não aplicável.,FALSE
Aquisição de serviços de manutenção de equipamentos da Carestream,Ajuste Direto Regime Geral,Aquisição de serviços,"50000000-5, Serviços de reparação e manutenção","Hospital Professor Doutor Fernando Fonseca, E. P. E. (503035416)","Carestream Healt Portugal - Comér. e Prest. Serv. Médicos, Unipessoal, Lda (508054320)","42.254,00 €",05-01-2017,27-12-2016,365 dias,"Portugal, Lisboa, Amadora","Artigo 24.º, n.º 1, alínea e) do Código dos Contratos Públicos",,,,,,Não aplicável.,Não aplicável.,FALSE
PRESTAÇÃO DE SERVIÇOS MÉDICOS - ANESTESIOLOGIA,Ajuste Direto Regime Geral,Aquisição de serviços,"85121200-5, Serviços de medicina especializada","Hospital Professor Doutor Fernando Fonseca, E. P. E. (503035416)",Marta Domingues da Silva Martins (225087650),"8.640,00 €",03-01-2017,19-12-2016,60 dias,"Portugal, Lisboa, Amadora","Artigo 20.º, n.º 1, alínea a) do Código dos Contratos Públicos",,,,,,Não aplicável.,Não aplicável.,FALSE
