Objeto do Contrato,Tipo de Procedimento,Tipo(s) de Contrato,CPVs,Entidade(s) Adjudicante(s),Entidade(s) Adjudicatária(s),Preço Contratual,Data de Publicação,Data de Celebração do Contrato,Prazo de Execução,Local de Execução,Fundamentação,Data de Fecho do Contrato,Preço Total Efetivo,Causas das Alterações ao Prazo,Causas das Alterações ao Preço,Estado,N.º registo do Acordo Quadro,Descrição do Acordo Quadro,Procedimento Centralizado
Aquisição Laringoscópio Led com Lâminas Macintosh,Ajuste Direto Regime Geral,Aquisição de bens móveis,"33100000-1, Equipamento médico","Hospital Distrital de Santarém, EPE (506361462)","Paramédica-Equipamentos Médicos, Lda (501393005)","725,00 €",11-10-2017,09-10-2017,30 dias,"Portugal, Santarém, Santarém","Artigo 24.º, n.º 1, alínea e) do Código dos Contratos Públicos",,,,,,Não aplicável.,Não aplicável.,FALSE
120021/2017 - Aquisição de material para Suturas Mecânicas,Concurso público,Aquisição de bens móveis,"33141122-1, Agrafos cirúrgicos","Hospital Distrital de Santarém, E. P. E. (506361462)",Socime Medical (504453939),"220,50 €",11-10-2017,25-08-2017,365 dias,"Portugal, Santarém, Santarém","Artigo 20.º, n.º 1, alínea b) do Código dos Contratos Públicos",,,,,,Não aplicável.,Não aplicável.,FALSE
120021/2017 - Aquisição de material para Suturas Mecânicas,Concurso público,Aquisição de bens móveis,"33141122-1, Agrafos cirúrgicos","Hospital Distrital de Santarém, E. P. E. (506361462)",Johnson&Johnson Medical (500153370),"7.467,96 €",11-10-2017,25-08-2017,365 dias,"Portugal, Santarém, Santarém","Artigo 20.º, n.º 1, alínea b) do Código dos Contratos Públicos",,,,,,Não aplicável.,Não aplicável.,FALSE
120021/2017 - Aquisição de material para Suturas Mecânicas,Concurso público,Aquisição de bens móveis,"33141122-1, Agrafos cirúrgicos","Hospital Distrital de Santarém, E. P. E. (506361462)",Lusopalex (503531588),"10.140,00 €",11-10-2017,11-09-2017,365 dias,"Portugal, Santarém, Santarém","Artigo 20.º, n.º 1, alínea b) do Código dos Contratos Públicos",,,,,,Não aplicável.,Não aplicável.,FALSE
120021/2017 - Aquisição de material para Suturas Mecânicas,Concurso público,Aquisição de bens móveis,"33141122-1, Agrafos cirúrgicos","Hospital Distrital de Santarém, E. P. E. (506361462)",Medtronic Portugal (504223933),"52.538,00 €",11-10-2017,11-09-2017,365 dias,"Portugal, Santarém, Santarém","Artigo 20.º, n.º 1, alínea b) do Código dos Contratos Públicos",,,,,,Não aplicável.,Não aplicável.,FALSE
Sistemas de Pacemaker,Concurso público,Aquisição de bens móveis,"33182210-4, Estimulador cardíaco (pacemaker)","Hospital Distrital de Santarém, E. P. E. (506361462)","MEDTRONIC PORTUGAL, LDA. (504223933)","76.700,00 €",09-10-2017,28-07-2017,90 dias,"Portugal, Santarém, Santarém","Artigo 20.º, n.º 1, alínea b) do Código dos Contratos Públicos",,,,,,Não aplicável.,Não aplicável.,FALSE
AQUISIÇÃO SERVIÇOS CONSULTADORIA - APOIO ELABORAÇÃO CANDIDATURA SUBMETER A POISE 38/2017-05,Ajuste Direto Regime Geral,Aquisição de serviços,"79414000-9, Serviços de consultoria em matéria de gestão de recursos humanos","Hospital Distrital de Santarém, EPE (506361462)","SINASE RH-RECURSOS HUMANOS, ESTUDOS E DESENVOLVIMENTO (502851791)","3.950,00 €",09-10-2017,25-09-2017,90 dias,"Portugal, Santarém, Santarém","Artigo 20.º, n.º 1, alínea a) do Código dos Contratos Públicos",,,,,,Não aplicável.,Não aplicável.,FALSE
"LEVANTAMENTO E ELABORAÇÃO DE PROJECTO P/AMPLIAÇÃO E BENEFICIAÇÃO INSTALAÇÕES ELÉCTRICAS DO HDS, E.P.E ",Concurso público,Aquisição de serviços,"71321000-4, Serviços de concepção técnica para instalações mecânicas e eléctricas em edifícios","Hospital Distrital de Santarém, E. P. E. (506361462)","Vitor Hugo - Coordenação e Gestão de Projectos, SA (503040630)","30.000,01 €",09-10-2017,11-07-2017,45 dias,"Portugal, Santarém, Santarém","Artigo 20.º, n.º 1, alínea b) do Código dos Contratos Públicos",,,,,,Não aplicável.,Não aplicável.,FALSE
Aquisição Monitor Desfibrilhador Lifepak,Ajuste Direto Regime Geral,Aquisição de bens móveis,"33100000-1, Equipamento médico","Hospital Distrital de Santarém, EPE (506361462)","Physio Portugal Sales, Unipessoal, Lda (510137946)","14.400,00 €",03-10-2017,25-09-2017,30 dias,"Portugal, Santarém, Santarém","Artigo 26.º, n.º 1, alínea a) do Código dos Contratos Públicos",,,,,,Não aplicável.,Não aplicável.,FALSE
Aquisição Sistema Monitorização Temperatura e Humidade,Ajuste Direto Regime Geral,Aquisição de bens móveis,"38300000-8, Instrumentos de medição","Hospital Distrital de Santarém, EPE (506361462)","Labocontrole, Lda (501872329)","4.200,00 €",03-10-2017,27-09-2017,30 dias,"Portugal, Santarém, Santarém","Artigo 20.º, n.º 1, alínea a) do Código dos Contratos Públicos",,,,,,Não aplicável.,Não aplicável.,FALSE
