Objeto do Contrato,Tipo de Procedimento,Tipo(s) de Contrato,CPVs,Entidade(s) Adjudicante(s),Entidade(s) Adjudicatária(s),Preço Contratual,Data de Publicação,Data de Celebração do Contrato,Prazo de Execução,Local de Execução,Fundamentação,Data de Fecho do Contrato,Preço Total Efetivo,Causas das Alterações ao Prazo,Causas das Alterações ao Preço,Estado,N.º registo do Acordo Quadro,Descrição do Acordo Quadro,Procedimento Centralizado
Infusores Portáteis,Ajuste Direto Regime Geral,Aquisição de bens móveis,"33100000-1, Equipamento médico","Instituto Português de Oncologia de Coimbra Francisco Gentil, E. P. E. (506361438)","MEDICINALIA CORMEDICA, LDA (500684324)","4.905,00 €",31-03-2015,02-01-2015,365 dias,"Portugal, Coimbra, Coimbra","Artigo 20.º, n.º 1, alínea a) do Código dos Contratos Públicos","","",,"",,Não aplicável.,Não aplicável.,FALSE
Infusores Portáteis,Ajuste Direto Regime Geral,Aquisição de bens móveis,"33100000-1, Equipamento médico","Instituto Português de Oncologia de Coimbra Francisco Gentil, E. P. E. (506361438)","BAXTER MEDICO-FARMACEUTICA, LDA (503347345)","33.048,00 €",31-03-2015,02-01-2015,365 dias,"Portugal, Coimbra, Coimbra","Artigo 20.º, n.º 1, alínea a) do Código dos Contratos Públicos","","",,"",,Não aplicável.,Não aplicável.,FALSE
Agulhas para administração através de implantofix,Ajuste Direto Regime Geral,Aquisição de bens móveis,"33100000-1, Equipamento médico","Instituto Português de Oncologia de Coimbra Francisco Gentil, E. P. E. (506361438)","SMITHS MEDICAL, UNIPESSOAL LDA (507445937)","55.680,00 €",31-03-2015,02-01-2015,730 dias,"Portugal, Coimbra, Coimbra","Artigo 20.º, n.º 1, alínea a) do Código dos Contratos Públicos","","",,"",,Não aplicável.,Não aplicável.,FALSE
Geradores de 99Mo-99mTc,Ajuste Direto Regime Geral,Aquisição de bens móveis,"33690000-3, Medicamentos vários",Instituto Português de Oncologia de Coimbra - Francisco Gentil E.P.E. (506361438),ADVANCED ACCELARATOR APPLICATIONS PORT UNIP LDA (509917267),"52.702,00 €",31-03-2015,04-12-2014,365 dias,"Portugal, Coimbra, Coimbra","Artigo 20.º, n.º 1, alínea a) do Código dos Contratos Públicos",28-12-2015,"52.702,00 €",,"",,Não aplicável.,Não aplicável.,FALSE
FORNECIMENTO DE DOIS PROGRAMAS DE QUALIDADE EXTERNO,Ajuste Direto Regime Geral,Aquisição de bens móveis,"33000000-0, Equipamento médico, medicamentos e produtos para cuidados pessoais","Instituto Português de Oncologia de Coimbra Francisco Gentil, E. P. E. (506361438)","BIOGNOSTICA-Distribuição de Produtos e Equipamentos Técnicos, Lda. (504441256)","9.998,00 €",23-03-2015,30-12-2014,1095 dias,"Portugal, Coimbra, Coimbra","Artigo 24.º, n.º 1, alínea e) do Código dos Contratos Públicos","","",,"",,Não aplicável.,Não aplicável.,FALSE
FORNECIMENTO DE PESCADO DURANTE O PRIMEIRO TRIMESTRE,Ajuste Direto Regime Geral,Aquisição de bens móveis,"15000000-8, Produtos alimentares, bebidas, tabaco e produtos afins","Instituto Português de Oncologia de Coimbra Francisco Gentil, E. P. E. (506361438)","LITOFISH, LDA (507825470)","5.633,40 €",23-03-2015,15-12-2014,90 dias,"Portugal, Coimbra, Coimbra","Artigo 20.º, n.º 1, alínea a) do Código dos Contratos Públicos",21-03-2015,"1.901,68 €",,diminuiçao das quantidades,,Não aplicável.,Não aplicável.,FALSE
FORNECIMENTO DE PESCADO DURANTE O PRIMEIRO TRIMESTRE,Ajuste Direto Regime Geral,Aquisição de bens móveis,"15000000-8, Produtos alimentares, bebidas, tabaco e produtos afins","Instituto Português de Oncologia de Coimbra Francisco Gentil, E. P. E. (506361438)","INDUBEIRA - INDUSTRIA ALIMENTAR, S.A. (503501875)","4.248,60 €",23-03-2015,15-12-2014,90 dias,"Portugal, Coimbra, Coimbra","Artigo 20.º, n.º 1, alínea a) do Código dos Contratos Públicos",31-03-2015,"3.856,50 €",,diminuiçao das quantidades,,Não aplicável.,Não aplicável.,FALSE
FORNECIMENTO DE PESCADO DURANTE O PRIMEIRO TRIMESTRE,Ajuste Direto Regime Geral,Aquisição de bens móveis,"15000000-8, Produtos alimentares, bebidas, tabaco e produtos afins","Instituto Português de Oncologia de Coimbra Francisco Gentil, E. P. E. (506361438)","FRIJOBEL - INDUST. COM.ALIMENTAR, LDA (501957855)","262,90 €",23-03-2015,15-12-2014,90 dias,"Portugal, Coimbra, Coimbra","Artigo 20.º, n.º 1, alínea a) do Código dos Contratos Públicos",17-02-2015,"156,73 €",,diminuiçao das quantidades,,Não aplicável.,Não aplicável.,FALSE
FORNECIMENTO DE PESCADO DURANTE O PRIMEIRO TRIMESTRE,Ajuste Direto Regime Geral,Aquisição de bens móveis,"15000000-8, Produtos alimentares, bebidas, tabaco e produtos afins","Instituto Português de Oncologia de Coimbra Francisco Gentil, E. P. E. (506361438)","DELTAGEL - PROD. ALIMENTARES,S.A. (505477882)","5.739,29 €",23-03-2015,15-12-2014,90 dias,"Portugal, Coimbra, Coimbra","Artigo 20.º, n.º 1, alínea a) do Código dos Contratos Públicos",31-03-2015,"6.509,62 €",,necessidade do aumento das quantidades consumidas em virtude do número de doentes,,Não aplicável.,Não aplicável.,FALSE
FORNECIMENTO DE CARNE DURANTE O PRIMEIRO TRIMESTRE,Ajuste Direto Regime Geral,Aquisição de bens móveis,"15000000-8, Produtos alimentares, bebidas, tabaco e produtos afins","Instituto Português de Oncologia de Coimbra Francisco Gentil, E. P. E. (506361438)","IRMAOS MONTEIRO,S.A. (501248757)","3.336,00 €",23-03-2015,15-12-2014,90 dias,"Portugal, Coimbra, Coimbra","Artigo 20.º, n.º 1, alínea a) do Código dos Contratos Públicos",26-03-2015,"3.546,21 €",,necessidade do aumento das quantidades consumidas em virtude do número de doentes			,,Não aplicável.,Não aplicável.,FALSE
FORNECIMENTO DE CARNE DURANTE O PRIMEIRO TRIMESTRE,Ajuste Direto Regime Geral,Aquisição de bens móveis,"15000000-8, Produtos alimentares, bebidas, tabaco e produtos afins","Instituto Português de Oncologia de Coimbra Francisco Gentil, E. P. E. (506361438)",GRANDE CONHECEDOR- UNIP. LDA (508702720),"1.387,20 €",23-03-2015,15-12-2014,90 dias,"Portugal, Coimbra, Coimbra","Artigo 20.º, n.º 1, alínea a) do Código dos Contratos Públicos",30-03-2015,"1.286,21 €",,diminuiçao das quantidades,,Não aplicável.,Não aplicável.,FALSE
FORNECIMENTO DE CARNE DURANTE O PRIMEIRO TRIMESTRE,Ajuste Direto Regime Geral,Aquisição de bens móveis,"15000000-8, Produtos alimentares, bebidas, tabaco e produtos afins","Instituto Português de Oncologia de Coimbra Francisco Gentil, E. P. E. (506361438)","INDUBEIRA-INDUSTRIA ALIMENTAR, S.A. (503501875)","3.439,30 €",23-03-2015,15-12-2014,90 dias,"Portugal, Coimbra, Coimbra","Artigo 20.º, n.º 1, alínea a) do Código dos Contratos Públicos",31-03-2015,"2.736,48 €",,diminuiçao das quantidades,,Não aplicável.,Não aplicável.,FALSE
FORNECIMENTO DE CARNE DURANTE O PRIMEIRO TRIMESTRE,Ajuste Direto Regime Geral,Aquisição de bens móveis,"15000000-8, Produtos alimentares, bebidas, tabaco e produtos afins","Instituto Português de Oncologia de Coimbra Francisco Gentil, E. P. E. (506361438)",MEIGAL ALIMENTAÇÃO S.A. (502060433),"2.681,10 €",23-03-2015,15-12-2014,90 dias,"Portugal, Coimbra, Coimbra","Artigo 20.º, n.º 1, alínea a) do Código dos Contratos Públicos",31-03-2015,"2.853,95 €",,necessidade do aumento das quantidades consumidas em virtude do número de doentes,,Não aplicável.,Não aplicável.,FALSE
FORNECIMENTO DE CARNE DURANTE O PRIMEIRO TRIMESTRE,Ajuste Direto Regime Geral,Aquisição de bens móveis,"15000000-8, Produtos alimentares, bebidas, tabaco e produtos afins","Instituto Português de Oncologia de Coimbra Francisco Gentil, E. P. E. (506361438)",COIMAGAL-COMERCIO e IMPORTAÇAO  (506488500),"5.690,75 €",23-03-2015,15-12-2014,90 dias,"Portugal, Coimbra, Coimbra","Artigo 20.º, n.º 1, alínea a) do Código dos Contratos Públicos",31-03-2015,"3.094,47 €",,diminuiçao das quantidades,,Não aplicável.,Não aplicável.,FALSE
