Objeto do Contrato,Tipo de Procedimento,Tipo(s) de Contrato,CPVs,Entidade(s) Adjudicante(s),Entidade(s) Adjudicatária(s),Preço Contratual,Data de Publicação,Data de Celebração do Contrato,Prazo de Execução,Local de Execução,Fundamentação,Data de Fecho do Contrato,Preço Total Efetivo,Causas das Alterações ao Prazo,Causas das Alterações ao Preço,Estado,N.º registo do Acordo Quadro,Descrição do Acordo Quadro,Procedimento Centralizado
Aquisição de serviços de manutenção do parque de printing_NPD5493002464.,Ajuste Direto Regime Geral,Aquisição de serviços,"50310000-1, Manutenção e reparação de máquinas de escritório","INFARMED - Autoridade Nacional do Medicamento e Produtos de Saúde, I. P. (600037002)","Beltrão Coelho – Sistemas de Escritório, Lda.  (504654748)","15.560,00 €",02-07-2018,29-06-2018,730 dias,Portugal,"Artigo 24.º, n.º 1, alínea e), subalínea iii) do Código dos Contratos Públicos",,,,,,Não aplicável.,Não aplicável.,FALSE
"Aluguer operacional, por 20 meses, da solução para gestão de assiduidade SISQUAL_NPD5493002796.",Ajuste Direto Regime Geral,Locação de bens móveis,"48450000-7, Pacote de software para contabilização do tempo de trabalho ou recursos humanos","INFARMED - Autoridade Nacional do Medicamento e Produtos de Saúde, I. P. (600037002)","SISQUAL - Empresa de Investigação e Desenvolvimento de Sistemas Informáticos, Lda. (502772298)","18.620,00 €",02-07-2018,21-06-2018,600 dias,Portugal,"Artigo 24.º, n.º 1, alínea e), subalínea iii) do Código dos Contratos Públicos",,,,,,Não aplicável.,Não aplicável.,FALSE
