Objeto do Contrato,Tipo de Procedimento,Tipo(s) de Contrato,CPVs,Entidade(s) Adjudicante(s),Entidade(s) Adjudicatária(s),Preço Contratual,Data de Publicação,Data de Celebração do Contrato,Prazo de Execução,Local de Execução,Fundamentação,Data de Fecho do Contrato,Preço Total Efetivo,Causas das Alterações ao Prazo,Causas das Alterações ao Preço,Estado,N.º registo do Acordo Quadro,Descrição do Acordo Quadro,Procedimento Centralizado
SC_152_2017 - Aquisição de Material de consumo clinico,Ao abrigo de acordo-quadro (art.º 259.º),Aquisição de bens móveis,"33000000-0, Equipamento médico, medicamentos e produtos para cuidados pessoais","Administração Regional de Saúde do Algarve, I. P. (503148709)",B. Braun Medical (501506543),"2.615,00 €",30-06-2017,08-06-2017,180 dias,"Portugal, Faro",Artigo 259.º do Código dos Contratos Públicos,"","","","",,419168,CONCURSO PÚBLICO PARA A CELEBRAÇÃO DE CONTRATOS PÚBLICOS DE APROVISIONAMENTO PARA AQUISIÇÃO DE MATERIAL OSTOMIA DE ELIMINAÇÃO,FALSE
AD_207_2017 Aquisição de Luvas,Ajuste Direto Regime Geral,Aquisição de bens móveis,"33000000-0, Equipamento médico, medicamentos e produtos para cuidados pessoais","Administração Regional de Saúde do Algarve, I. P. (503148709)",H.R. Hospitalar (501895558),"28.860,00 €",29-06-2017,12-06-2017,180 dias,"Portugal, Faro","Artigo 20.º, n.º 1, alínea a) do Código dos Contratos Públicos","","","","",,Não aplicável.,Não aplicável.,FALSE
AD_207_2017 - Aquisição de Luvas,Ajuste Direto Regime Geral,Aquisição de bens móveis,"33000000-0, Equipamento médico, medicamentos e produtos para cuidados pessoais","Administração Regional de Saúde do Algarve, I. P. (503148709)",Docworld (508592909),"2.767,50 €",29-06-2017,07-06-2017,180 dias,"Portugal, Faro","Artigo 20.º, n.º 1, alínea a) do Código dos Contratos Públicos","","","","",,Não aplicável.,Não aplicável.,FALSE
SC/228/2017 - Aquisição de Solução e gel de limpeza,Ao abrigo de acordo-quadro (art.º 259.º),Aquisição de bens móveis,"33140000-3, Material médico de consumo","Administração Regional de Saúde do Algarve, I. P. (503148709)","B.Braun Medical, Lda. (501506543)","4.710,00 €",27-06-2017,27-06-2017,186 dias,"Portugal, Faro, Faro",Artigo 259.º do Código dos Contratos Públicos,12-12-2017,"4.710,00 €","","",,552526,"CONCURSO PÚBLICO PARA A CELEBRAÇÃO DE CONTRATOS PÚBLICOS DE APROVISIONAMENTO PARA A ÁREA DA SAÚDE, COM VISTA AO FORNECIMENTO DE DISPOSITIVOS MÉDICOS DIVERSOS",FALSE
SC_150_2017 - Aquisição de Material de Consumo Clinico,Ao abrigo de acordo-quadro (art.º 259.º),Aquisição de bens móveis,"33000000-0, Equipamento médico, medicamentos e produtos para cuidados pessoais","Administração Regional de Saúde do Algarve, I. P. (503148709)",Quilaban (500399670),"200,00 €",27-06-2017,26-05-2017,180 dias,"Portugal, Faro",Artigo 259.º do Código dos Contratos Públicos,"","","","",,1210117,"CONCURSO PÚBLICO PARA A CELEBRAÇÃO DE CONTRATOS PÚBLICOS DE APROVISIONAMENTO PARA A ÁREA DA SAÚDE, COM VISTA AO FORNECIMENTO DE MATERIAL DE INCONTINENCIA E ALIVIO DE PRESSÃO, ÀS INSTITUIÇÕES E SERVIÇOS DO SERVIÇO NACIONAL DE SAÚDE",FALSE
SC_150_2017 - Aquisição de Material de Consumo Clinico,Ao abrigo de acordo-quadro (art.º 259.º),Aquisição de bens móveis,"33000000-0, Equipamento médico, medicamentos e produtos para cuidados pessoais","Administração Regional de Saúde do Algarve, I. P. (503148709)",PMH  (502376899),"229,63 €",27-06-2017,26-05-2017,180 dias,"Portugal, Faro",Artigo 259.º do Código dos Contratos Públicos,"","","","",,1210117,"CONCURSO PÚBLICO PARA A CELEBRAÇÃO DE CONTRATOS PÚBLICOS DE APROVISIONAMENTO PARA A ÁREA DA SAÚDE, COM VISTA AO FORNECIMENTO DE MATERIAL DE INCONTINENCIA E ALIVIO DE PRESSÃO, ÀS INSTITUIÇÕES E SERVIÇOS DO SERVIÇO NACIONAL DE SAÚDE",FALSE
SC_150_2017 - Aquisição de Material de Consumo Clinico,Ao abrigo de acordo-quadro (art.º 259.º),Aquisição de bens móveis,"33000000-0, Equipamento médico, medicamentos e produtos para cuidados pessoais","Administração Regional de Saúde do Algarve, I. P. (503148709)","Paul Hartmann, Lda (502271728)","699,92 €",27-06-2017,26-05-2017,180 dias,"Portugal, Faro",Artigo 259.º do Código dos Contratos Públicos,"","","","",,1210117,"CONCURSO PÚBLICO PARA A CELEBRAÇÃO DE CONTRATOS PÚBLICOS DE APROVISIONAMENTO PARA A ÁREA DA SAÚDE, COM VISTA AO FORNECIMENTO DE MATERIAL DE INCONTINENCIA E ALIVIO DE PRESSÃO, ÀS INSTITUIÇÕES E SERVIÇOS DO SERVIÇO NACIONAL DE SAÚDE",FALSE
SC/91/2017 - Aquisição de Medicamentos Gerais.2,Ao abrigo de acordo-quadro (art.º 259.º),Aquisição de bens móveis,"33690000-3, Medicamentos vários","Administração Regional de Saúde do Algarve, I. P. (503148709)","Sandoz Farmacêutica, Lda. (506985261)","69,96 €",27-06-2017,27-06-2017,186 dias,"Portugal, Faro, Faro",Artigo 259.º do Código dos Contratos Públicos,"","","","",,1638654,CP 2015/12 - Acordo quadro para fornecimento de Medicamentos do Aparelho Respiratório às Instituições e Serviços do Serviço Nacional de Saúde,FALSE
SC_162_2017 - Aquisição de Material de consumo clinico,Ao abrigo de acordo-quadro (art.º 259.º),Aquisição de bens móveis,"33000000-0, Equipamento médico, medicamentos e produtos para cuidados pessoais","Administração Regional de Saúde do Algarve, I. P. (503148709)",Overpharma (505792362),"645,00 €",27-06-2017,26-05-2017,180 dias,"Portugal, Faro",Artigo 259.º do Código dos Contratos Públicos,"","","","",,1587913,Acordo Quadro para fornecimento de Equipamentos e Dispositivos Médicos de uso comum em internamento e ambulatório - Parte I às instituições e serviços do Serviço Nacional de Saúde.,FALSE
SP 118/2017 - Aquisição de software aplicacional Winspiro Pro Net  (5 licenças),Ajuste Direto Regime Geral,Aquisição de bens móveis,"48000000-8, Pacotes de software e sistemas de informação","Administração Regional de Saúde do Algarve, I. P. (503148709)","CENATOLIM, Lda. (507397924)","240,00 €",27-06-2017,27-06-2017,187 dias,"Portugal, Faro, Faro","Artigo 20.º, n.º 1, alínea a) do Código dos Contratos Públicos",07-08-2017,"240,00 €","","",,Não aplicável.,Não aplicável.,FALSE
SC_149_2017 - Aquisição de material de consumo clínico,Ao abrigo de acordo-quadro (art.º 259.º),Aquisição de bens móveis,"33000000-0, Equipamento médico, medicamentos e produtos para cuidados pessoais","Administração Regional de Saúde do Algarve, I. P. (503148709)",Socime II (504453939),"23,60 €",27-06-2017,26-05-2017,180 dias,"Portugal, Faro",Artigo 259.º do Código dos Contratos Públicos,"","","","",,2349386,Acordo Quadro para o fornecimento de Cateteres às Instituições e Serviços do Serviço Nacional de Saúde,FALSE
SC_149_2017 - Aquisição de material de consumo clínico,Ao abrigo de acordo-quadro (art.º 259.º),Aquisição de bens móveis,"33000000-0, Equipamento médico, medicamentos e produtos para cuidados pessoais","Administração Regional de Saúde do Algarve, I. P. (503148709)",PMH (502376899),"234,00 €",27-06-2017,26-06-2017,180 dias,"Portugal, Faro",Artigo 259.º do Código dos Contratos Públicos,"","","","",,2349386,Acordo Quadro para o fornecimento de Cateteres às Instituições e Serviços do Serviço Nacional de Saúde,FALSE
SC_149_2017 - Aquisição de material de consumo clínico,Ao abrigo de acordo-quadro (art.º 259.º),Aquisição de bens móveis,"33000000-0, Equipamento médico, medicamentos e produtos para cuidados pessoais","Administração Regional de Saúde do Algarve, I. P. (503148709)",Vygon Portugal (503232785),"35,45 €",27-06-2017,26-05-2017,180 dias,"Portugal, Faro",Artigo 259.º do Código dos Contratos Públicos,"","","","",,2349386,Acordo Quadro para o fornecimento de Cateteres às Instituições e Serviços do Serviço Nacional de Saúde,FALSE
SC_137_2017 - Aquisição de Material de consumo clínico,Ao abrigo de acordo-quadro (art.º 259.º),Aquisição de bens móveis,"33000000-0, Equipamento médico, medicamentos e produtos para cuidados pessoais","Administração Regional de Saúde do Algarve, I. P. (503148709)",Docworld (508592909),"940,00 €",27-06-2017,08-06-2017,180 dias,"Portugal, Faro",Artigo 259.º do Código dos Contratos Públicos,"","","","",,2183753,CP 2016/82 - Acordo quadro para fornecimento de Nastros e Fitas Cirúrgicas às Instituições e Serviços do Serviço Nacional de Saúde,FALSE
SC_137_2017 - Aquisição de Material de consumo clínico,Ao abrigo de acordo-quadro (art.º 259.º),Aquisição de bens móveis,"33000000-0, Equipamento médico, medicamentos e produtos para cuidados pessoais","Administração Regional de Saúde do Algarve, I. P. (503148709)",Bastos Viegas (500042772),"7.535,00 €",27-06-2017,08-06-2017,180 dias,"Portugal, Faro",Artigo 259.º do Código dos Contratos Públicos,"","","","",,2183753,CP 2016/82 - Acordo quadro para fornecimento de Nastros e Fitas Cirúrgicas às Instituições e Serviços do Serviço Nacional de Saúde,FALSE
SC_137_2017 - Aquisição de Material de consumo clínico,Ao abrigo de acordo-quadro (art.º 259.º),Aquisição de bens móveis,"33000000-0, Equipamento médico, medicamentos e produtos para cuidados pessoais","Administração Regional de Saúde do Algarve, I. P. (503148709)",Medicinália (500684324),"3.996,00 €",27-06-2017,08-06-2017,180 dias,"Portugal, Faro",Artigo 259.º do Código dos Contratos Públicos,"","","","",,2183753,CP 2016/82 - Acordo quadro para fornecimento de Nastros e Fitas Cirúrgicas às Instituições e Serviços do Serviço Nacional de Saúde,FALSE
SC_151_2017 - Aquisição de Material de consumo clínico,Ao abrigo de acordo-quadro (art.º 259.º),Aquisição de bens móveis,"33000000-0, Equipamento médico, medicamentos e produtos para cuidados pessoais","Administração Regional de Saúde do Algarve, I. P. (503148709)",Docworld (508592909),"1.763,90 €",27-06-2017,08-06-2017,180 dias,"Portugal, Faro",Artigo 259.º do Código dos Contratos Públicos,"","","","",,448705,"CONCURSO PÚBLICO PARA A CELEBRAÇÃO DE CONTRATOS PÚBLICOS DE APROVISIONAMENTO PARA A ÁREA DA SAÚDE, COM VISTA AO FORNECIMENTO DE SERINGAS, AGULHAS, CONTENTORES E SISTEMAS FECHADOS DE COLHEITA,  ÀS INSTITUIÇÕES E SERVIÇOS DO SERVIÇO NACIONAL DE SAÚDE",FALSE
SC_151_2017 - Aquisição de Material de consumo clínico,Ao abrigo de acordo-quadro (art.º 259.º),Aquisição de bens móveis,"33000000-0, Equipamento médico, medicamentos e produtos para cuidados pessoais","Administração Regional de Saúde do Algarve, I. P. (503148709)",Clinifar (503281115),"583,61 €",27-06-2017,08-06-2017,180 dias,"Portugal, Faro",Artigo 259.º do Código dos Contratos Públicos,"","","","",,448705,"CONCURSO PÚBLICO PARA A CELEBRAÇÃO DE CONTRATOS PÚBLICOS DE APROVISIONAMENTO PARA A ÁREA DA SAÚDE, COM VISTA AO FORNECIMENTO DE SERINGAS, AGULHAS, CONTENTORES E SISTEMAS FECHADOS DE COLHEITA,  ÀS INSTITUIÇÕES E SERVIÇOS DO SERVIÇO NACIONAL DE SAÚDE",FALSE
SC_151_2017 - Aquisição de Material de consumo clinico,Ao abrigo de acordo-quadro (art.º 259.º),Aquisição de bens móveis,"33000000-0, Equipamento médico, medicamentos e produtos para cuidados pessoais","Administração Regional de Saúde do Algarve, I. P. (503148709)",Overpharma (505792362),"711,95 €",27-06-2017,08-06-2017,180 dias,"Portugal, Faro",Artigo 259.º do Código dos Contratos Públicos,"","","","",,448705,"CONCURSO PÚBLICO PARA A CELEBRAÇÃO DE CONTRATOS PÚBLICOS DE APROVISIONAMENTO PARA A ÁREA DA SAÚDE, COM VISTA AO FORNECIMENTO DE SERINGAS, AGULHAS, CONTENTORES E SISTEMAS FECHADOS DE COLHEITA,  ÀS INSTITUIÇÕES E SERVIÇOS DO SERVIÇO NACIONAL DE SAÚDE",FALSE
AD_226_2017 - Aquisição de Material de Sutura,Ajuste Direto Regime Geral,Aquisição de bens móveis,"33141100-1, Pensos; clipes, suturas, ligaduras","Administração Regional de Saúde do Algarve, I. P. (503148709)",Virtugal (510113923),"283,39 €",27-06-2017,22-06-2017,180 dias,"Portugal, Faro","Artigo 20.º, n.º 1, alínea a) do Código dos Contratos Públicos","","","","",,Não aplicável.,Não aplicável.,FALSE
Aquisição Medicamentos ao abrigo do Catalogo SPMS - exclusivos,Ao abrigo de acordo-quadro (art.º 259.º),Aquisição de bens móveis,"33600000-6, Produtos farmacêuticos","Administração Regional de Saúde do Algarve, I. P. (503148709)",Laboratorio Medinfar-Produtos Farmaceuticos S.a (500384045),"116,11 €",23-06-2017,23-06-2017,191 dias,"Portugal, Faro, Faro","Artigo 20.º, n.º 1, alínea b) do Código dos Contratos Públicos",29-12-2017,"82,96 €","",Quantidades adjudicadas não encomendadas na totalidade,,2222779,Medicamentos do aparelho digestivo,FALSE
Aquisição de Diapasão,Ao abrigo de acordo-quadro (art.º 259.º),Aquisição de bens móveis,"33100000-1, Equipamento médico","Administração Regional de Saúde do Algarve, I. P. (503148709)","Bacelar e Irmão, Lda (500532818)","1.022,72 €",23-06-2017,23-06-2017,191 dias,"Portugal, Faro, Faro",Artigo 259.º do Código dos Contratos Públicos,"","","","",,1587913,Acordo Quadro para fornecimento de Equipamentos e Dispositivos Médicos de uso comum em internamento e ambulatório - Parte I às instituições e serviços do Serviço Nacional de Saúde.,FALSE
SC_137_2017 - Aquisição de Material de Consumo Clinico,Ao abrigo de acordo-quadro (art.º 259.º),Aquisição de bens móveis,"33000000-0, Equipamento médico, medicamentos e produtos para cuidados pessoais","Administração Regional de Saúde do Algarve, I. P. (503148709)",Medicinália Cormédica (500684324),"3.996,00 €",22-06-2017,20-06-2017,180 dias,"Portugal, Faro",Artigo 259.º do Código dos Contratos Públicos,"","","","",,2183753,CP 2016/82 - Acordo quadro para fornecimento de Nastros e Fitas Cirúrgicas às Instituições e Serviços do Serviço Nacional de Saúde,FALSE
SC/229/2017 - Aquisição de Salbutamol,Ao abrigo de acordo-quadro (art.º 259.º),Aquisição de bens móveis,"33690000-3, Medicamentos vários","Administração Regional de Saúde do Algarve, I. P. (503148709)","Glaxo Smith Kline  - Produtos Farmacêuticos, Lda. (500139962)","242,34 €",22-06-2017,22-06-2017,189 dias,"Portugal, Faro, Faro",Artigo 259.º do Código dos Contratos Públicos,11-12-2017,"151,47 €","",Quantidades encomendadas.,,1638654,CP 2015/12 - Acordo quadro para fornecimento de Medicamentos do Aparelho Respiratório às Instituições e Serviços do Serviço Nacional de Saúde,FALSE
Aquisição Medicamentos - CPA 45/2016,Ao abrigo de acordo-quadro (art.º 259.º),Aquisição de bens móveis,"33661000-1, Medicamentos para o sistema nervoso","Administração Regional de Saúde do Algarve, I. P. (503148709)","Korangi - Produtos Farmacêuticos , Lda  (505322307)","3.775,50 €",22-06-2017,22-06-2017,192 dias,"Portugal, Faro, Faro",Artigo 259.º do Código dos Contratos Públicos,28-11-2017,"3.775,50 €","Cumprimento da totalidade das entregas, assim como da respetiva faturação e pagamento","",,2211341,Medicamentos anestésicos e relaxantes musculares,FALSE
"Aquisição Desinfectantes, Anti-sépticos e outros Produtos Farmacêuticos para o ano de 2017",Ajuste Direto Regime Geral,Aquisição de bens móveis,"33600000-6, Produtos farmacêuticos","Administração Regional de Saúde do Algarve, I. P. (503148709)","JOHNSON & JOHNSON, LDA. (500153370)","672,00 €",21-06-2017,21-06-2017,193 dias,"Portugal, Faro, Faro","Artigo 20.º, n.º 1, alínea a) do Código dos Contratos Públicos",29-12-2017,"528,00 €","",Quantidades adjudicadas não encomendadas na totalidade,,Não aplicável.,Não aplicável.,FALSE
"Aquisição Desinfectantes, Anti-sépticos e outros Produtos Farmacêuticos para o ano de 2017",Ajuste Direto Regime Geral,Aquisição de bens móveis,"33600000-6, Produtos farmacêuticos","Administração Regional de Saúde do Algarve, I. P. (503148709)","MEDINFAR - SOROLÓGICO - PROD. E EQUIPAMENTOS, S. A (501197052)","83,00 €",21-06-2017,21-06-2017,193 dias,"Portugal, Faro, Faro","Artigo 20.º, n.º 1, alínea a) do Código dos Contratos Públicos",29-12-2017,"68,00 €","",Quantidades adjudicadas não encomendadas na totalidade,,Não aplicável.,Não aplicável.,FALSE
"Aquisição Desinfectantes, Anti-sépticos e outros Produtos Farmacêuticos para o ano de 2017",Ajuste Direto Regime Geral,Aquisição de bens móveis,"33600000-6, Produtos farmacêuticos","Administração Regional de Saúde do Algarve, I. P. (503148709)","Air Liquide Medicinal,SA (501576436)","140,40 €",21-06-2017,21-06-2017,193 dias,"Portugal, Faro, Faro","Artigo 20.º, n.º 1, alínea a) do Código dos Contratos Públicos",29-12-2017,"93,59 €","",Quantidades adjudicadas não encomendadas na totalidade,,Não aplicável.,Não aplicável.,FALSE
"Aquisição Desinfectantes, Anti-sépticos e outros Produtos Farmacêuticos para o ano de 2017",Ajuste Direto Regime Geral,Aquisição de bens móveis,"33600000-6, Produtos farmacêuticos","Administração Regional de Saúde do Algarve, I. P. (503148709)","Aviquimica, Lda (500039720)","1.177,05 €",21-06-2017,21-06-2017,193 dias,"Portugal, Faro, Faro","Artigo 20.º, n.º 1, alínea a) do Código dos Contratos Públicos",29-12-2017,"1.150,50 €","",Quantidades adjudicadas não encomendadas na totalidade,,Não aplicável.,Não aplicável.,FALSE
"Aquisição Desinfectantes, Anti-sépticos e outros Produtos Farmacêuticos para o ano de 2017",Ajuste Direto Regime Geral,Aquisição de bens móveis,"33600000-6, Produtos farmacêuticos","Administração Regional de Saúde do Algarve, I. P. (503148709)","B. Braun Medical, Lda.  (501506543)","158,16 €",21-06-2017,21-06-2017,193 dias,"Portugal, Faro, Faro","Artigo 20.º, n.º 1, alínea a) do Código dos Contratos Públicos",29-12-2017,"158,16 €","","",,Não aplicável.,Não aplicável.,FALSE
"Aquisição Desinfectantes, Anti-sépticos e outros Produtos Farmacêuticos para o ano de 2017",Ajuste Direto Regime Geral,Aquisição de bens móveis,"33600000-6, Produtos farmacêuticos","Administração Regional de Saúde do Algarve, I. P. (503148709)","José Manuel Gomes dos Santos, Ldª (501399224)","7,60 €",21-06-2017,21-06-2017,193 dias,"Portugal, Faro, Faro","Artigo 20.º, n.º 1, alínea a) do Código dos Contratos Públicos",29-12-2017,"7,60 €","","",,Não aplicável.,Não aplicável.,FALSE
