Objeto do Contrato,Tipo de Procedimento,Tipo(s) de Contrato,CPVs,Entidade(s) Adjudicante(s),Entidade(s) Adjudicatária(s),Preço Contratual,Data de Publicação,Data de Celebração do Contrato,Prazo de Execução,Local de Execução,Fundamentação,Data de Fecho do Contrato,Preço Total Efetivo,Causas das Alterações ao Prazo,Causas das Alterações ao Preço,Estado,N.º registo do Acordo Quadro,Descrição do Acordo Quadro,Procedimento Centralizado
Aquisição e instalação de um sistema de gestão de filas de espera e pagamento automático de taxas moderadoras com integração as sistema de informação do Instituto,Ajuste Direto Regime Geral,Aquisição de bens móveis,"30000000-9, Máquinas, equipamento e material de escritório e de informática, excepto mobiliário e pacotes de programas (software)","Instituto Português de Oncologia de Coimbra Francisco Gentil, E. P. E. (506361438)","M.S.N.F. - SOLUÇÕES INFORMÁTICAS, LDA (504974106)","17.023,60 €",29-11-2018,04-12-2017,90 dias,"Portugal, Coimbra, Coimbra","Artigo 20.º, n.º 1, alínea a) do Código dos Contratos Públicos",23-05-2018,"17.023,60 €",integração de dados existentes no sistema antigo para o novo sistema,,,Não aplicável.,Não aplicável.,FALSE
COMPRA PONTUAL COMPUTADORES,Ajuste Direto Regime Geral,Aquisição de bens móveis,"30213300-8, Computadores de secretária (desktop computers)","Instituto Português de Oncologia de Coimbra Francisco Gentil, E. P. E. (506361438)","Trífida - Comércio de Material Infromático, Lda (504551663)","8.490,00 €",28-11-2018,07-04-2017,21 dias,"Portugal, Coimbra, Coimbra","Artigo 20.º, n.º 1, alínea a) do Código dos Contratos Públicos",13-04-2017,"8.490,00 €","",,,Não aplicável.,Não aplicável.,FALSE
SOFTWARE DE GESTÃO DO SERVIÇO DE PATOLOGIA CLINICA,Ajuste Direto Regime Geral,Aquisição de bens móveis,"48000000-8, Pacotes de software e sistemas de informação","Instituto Português de Oncologia de Coimbra Francisco Gentil, E. P. E. (506361438)",WERFEN PORTUGAL LDA (501086110),"42.999,00 €",28-11-2018,17-05-2016,228 dias,"Portugal, Coimbra, Coimbra","Artigo 20.º, n.º 1, alínea a) do Código dos Contratos Públicos",18-06-2018,"42.999,00 €",em virtude de ser um processo dinamico houve necessidades de ajustamentos e correções,,,Não aplicável.,Não aplicável.,FALSE
