Objeto do Contrato,Tipo de Procedimento,Tipo(s) de Contrato,CPVs,Entidade(s) Adjudicante(s),Entidade(s) Adjudicatária(s),Preço Contratual,Data de Publicação,Data de Celebração do Contrato,Prazo de Execução,Local de Execução,Fundamentação,Data de Fecho do Contrato,Preço Total Efetivo,Causas das Alterações ao Prazo,Causas das Alterações ao Preço,Estado,N.º registo do Acordo Quadro,Descrição do Acordo Quadro,Procedimento Centralizado
MEDICAMENTOS DO FORO ONCOLÓGICO E MEDICAMENTOS DO GRUPO 4: SANGUE,Ao abrigo de acordo-quadro (art.º 259.º),Aquisição de bens móveis,"33600000-6, Produtos farmacêuticos","Centro Hospitalar de Setúbal, E. P. E. (507606787)","SANOFI- PRODUTOS FARMACÊUTICOS,LDA.                (500134960)","254.963,58 €",11-07-2017,16-06-2017,365 dias,"Portugal, Setúbal, Setúbal",Artigo 259.º do Código dos Contratos Públicos,,,,,,2489595,CP 2016/18 - Acordo quadro para fornecimento de Medicamentos do Grupo 4: Sangue às Instituições e Serviços do Serviço Nacional de Saúde,FALSE
Fenilefrina 5.376 mg + Tropicamida 0.28 mg Inserto oft,Ajuste Direto Regime Geral,Aquisição de bens móveis,"33600000-6, Produtos farmacêuticos","Centro Hospitalar de Setúbal, E. P. E. (507606787)",Théa Portugal (507978358),"9.648,10 €",11-07-2017,09-02-2017,365 dias,"Portugal, Setúbal, Setúbal","Artigo 20.º, n.º 1, alínea a) do Código dos Contratos Públicos",,,,,,Não aplicável.,Não aplicável.,FALSE
Reformulação da climatização da sala de apoio aos citotoxicos,Ajuste Direto Regime Geral,Empreitadas de obras públicas,"45000000-7, Construção","Centro Hospitalar de Setúbal, E. P. E. (507606787)",SUCH - Serviço de Utilização Comum dos Hospitais (500900469),"41.703,00 €",06-07-2017,01-07-2017,30 dias,"Portugal, Setúbal, Setúbal","Artigo 19.º, alínea a) do Código dos Contratos Públicos",,,,,,Não aplicável.,Não aplicável.,FALSE
MEDICAMENTOS DO FORO ONCOLÓGICO,Ao abrigo de acordo-quadro (art.º 259.º),Aquisição de bens móveis,"33600000-6, Produtos farmacêuticos","Centro Hospitalar de Setúbal, E. P. E. (507606787)","Roche Farmacêutica Quimica, Lda (500233810)","820.113,00 €",06-07-2017,22-06-2017,365 dias,"Portugal, Setúbal, Setúbal",Artigo 259.º do Código dos Contratos Públicos,,,,,,1771819,CP 2015/6 - Acordo quadro para o fornecimento de Medicamentos do Foro Oncológico,FALSE
Aquisição de HIDROXICARBAMIDA (HIDROXIUREIA) [500MG; CÁP],Ao abrigo de acordo-quadro (art.º 259.º),Aquisição de bens móveis,"33600000-6, Produtos farmacêuticos","Centro Hospitalar de Setúbal, E. P. E. (507606787)",MEDAC SUCURSAL EM PORTUGAL (980369959),"15.370,70 €",06-07-2017,20-06-2017,365 dias,"Portugal, Setúbal, Setúbal",Artigo 259.º do Código dos Contratos Públicos,,,,,,1771819,CP 2015/6 - Acordo quadro para o fornecimento de Medicamentos do Foro Oncológico,FALSE
"32.040,50 €",Ajuste Direto Regime Geral,Aquisição de bens móveis,"33690000-3, Medicamentos vários","Centro Hospitalar de Setúbal, E. P. E. (507606787)",BIOJAM SA (513642749),"32.040,50 €",04-07-2017,04-05-2017,365 dias,"Portugal, Setúbal, Setúbal","Artigo 24.º, n.º 1, alínea a) do Código dos Contratos Públicos",,,,,,Não aplicável.,Não aplicável.,FALSE
DOLUTEGRAVIR 50 MG + ABACAVIR 600 MG + LAMIVUDINA 300 MG COMP,Ajuste Direto Regime Geral,Aquisição de bens móveis,"33600000-6, Produtos farmacêuticos","Centro Hospitalar de Setúbal, E. P. E. (507606787)","VIIV HEALTHCARE, UNIPESSOAL LDA (509117961)","937.365,00 €",03-07-2017,05-05-2017,365 dias,"Portugal, Setúbal, Setúbal","Artigo 24.º, n.º 1, alínea e) do Código dos Contratos Públicos",,,,,,Não aplicável.,Não aplicável.,FALSE
