Objeto do Contrato,Tipo de Procedimento,Tipo(s) de Contrato,CPVs,Entidade(s) Adjudicante(s),Entidade(s) Adjudicatária(s),Preço Contratual,Data de Publicação,Data de Celebração do Contrato,Prazo de Execução,Local de Execução,Fundamentação,Data de Fecho do Contrato,Preço Total Efetivo,Causas das Alterações ao Prazo,Causas das Alterações ao Preço,Estado,N.º registo do Acordo Quadro,Descrição do Acordo Quadro,Procedimento Centralizado
Aquisição de rituximab sol. inj. 10 mg/ml amp. 10 ml,Ajuste Direto Regime Geral,Aquisição de bens móveis,"33690000-3, Medicamentos vários","Centro Hospitalar Lisboa Norte, E. P. E. (508481287)","ROCHE FARMACEUTICA QUIMICA, LDA (500233810)","25.138,80 €",29-03-2018,20-03-2018,291 dias,"Portugal, Lisboa, Lisboa","Artigo 24.º, n.º 1, alínea e), subalínea iii) do Código dos Contratos Públicos",,,,,,Não aplicável.,Não aplicável.,FALSE
Aquisição de glucose no sangue tiras-teste 50 tiras,Ajuste Direto Regime Geral,Aquisição de bens móveis,"33690000-3, Medicamentos vários","Centro Hospitalar Lisboa Norte, E. P. E. (508481287)","Johnson & Johnson, Lda (500153370)","8.300,00 €",29-03-2018,22-03-2018,1 dias,"Portugal, Lisboa, Lisboa","Artigo 24.º, n.º 1, alínea e), subalínea ii) do Código dos Contratos Públicos",,,,,,Não aplicável.,Não aplicável.,FALSE
Aquisição de oxido gasoso medicinal grfa. 1.1 m3,Ajuste Direto Regime Geral,Aquisição de bens móveis,"33690000-3, Medicamentos vários","Centro Hospitalar Lisboa Norte, E. P. E. (508481287)",AIR LIQUIDE MEDICINAL S A (501576436),"8.820,00 €",29-03-2018,22-03-2018,1 dias,"Portugal, Lisboa, Lisboa","Artigo 24.º, n.º 1, alínea e), subalínea ii) do Código dos Contratos Públicos",,,,,,Não aplicável.,Não aplicável.,FALSE
Aquisição de oxido nitrico,Ajuste Direto Regime Geral,Aquisição de bens móveis,"33690000-3, Medicamentos vários","Centro Hospitalar Lisboa Norte, E. P. E. (508481287)",AIR LIQUIDE MEDICINAL S A (501576436),"8.400,00 €",29-03-2018,22-03-2018,1 dias,"Portugal, Lisboa, Lisboa","Artigo 24.º, n.º 1, alínea e), subalínea ii) do Código dos Contratos Públicos",,,,,,Não aplicável.,Não aplicável.,FALSE
Aquisição de Talidomida cap. 50 mg,Ajuste Direto Regime Geral,Aquisição de bens móveis,"33600000-6, Produtos farmacêuticos","Centro Hospitalar Lisboa Norte, E. P. E. (508481287)","CELGENE SOCIEDADE UNIPESSOAL, LDA (507791690)","20.020,00 €",29-03-2018,29-03-2018,1 dias,"Portugal, Lisboa, Lisboa","Artigo 24.º, n.º 1, alínea e), subalínea iii) do Código dos Contratos Públicos",,,,,,Não aplicável.,Não aplicável.,FALSE
Aquisição de aparelhos de circulação extracoporal,Ajuste Direto Regime Geral,Aquisição de bens móveis,"33180000-5, Apoio funcional","Centro Hospitalar Lisboa Norte, E. P. E. (508481287)","INGE GROUP PORTUGAL, UNIPESSOAL LDA.(EX-MAQUET) (506819698)","119.800,00 €",29-03-2018,28-03-2018,30 dias,"Portugal, Lisboa, Lisboa","Artigo 24.º, n.º 1, alínea e), subalínea iii) do Código dos Contratos Públicos",,,,,,Não aplicável.,Não aplicável.,FALSE
Aquisição de barrete universal para homem,Ajuste Direto Regime Geral,Aquisição de bens móveis,"33140000-3, Material médico de consumo","Centro Hospitalar Lisboa Norte, E. P. E. (508481287)","Paul Hartmann, Lda (502271728)","498,00 €",29-03-2018,29-03-2018,1 dias,"Portugal, Lisboa, Lisboa","Artigo 24.º, n.º 1, alínea c) do Código dos Contratos Públicos",,,,,,Não aplicável.,Não aplicável.,FALSE
Aquisição de seringa luer 10 cc desc,Ajuste Direto Regime Geral,Aquisição de bens móveis,"33190000-8, Dispositivos e produtos médicos variados","Centro Hospitalar Lisboa Norte, E. P. E. (508481287)","BECTON DICKINSON PORTUGAL UNIPESSOAL, LDA (514239743)","2.124,00 €",29-03-2018,29-03-2018,1 dias,"Portugal, Lisboa, Lisboa","Artigo 24.º, n.º 1, alínea c) do Código dos Contratos Públicos",,,,,,Não aplicável.,Não aplicável.,FALSE
Aquisição de extração acidos nucleicos p/ magna pure,Ajuste Direto Regime Geral,Aquisição de bens móveis,"33690000-3, Medicamentos vários","Centro Hospitalar Lisboa Norte, E. P. E. (508481287)","ROCHE SISTEMAS DIAGNOSTICO, SOC. UNIPESSOAL, LDA (504282921)","5.290,00 €",29-03-2018,29-03-2018,1 dias,"Portugal, Lisboa, Lisboa","Artigo 24.º, n.º 1, alínea e), subalínea ii) do Código dos Contratos Públicos",,,,,,Não aplicável.,Não aplicável.,FALSE
Aquisição de espiras,Ajuste Direto Regime Geral,Aquisição de bens móveis,"33190000-8, Dispositivos e produtos médicos variados","Centro Hospitalar Lisboa Norte, E. P. E. (508481287)","BIOMEDICA - SOCIEDADE DE PRODUTOS MÉDICOS,LDA (501745459)","7.700,00 €",29-03-2018,28-03-2018,1 dias,"Portugal, Lisboa, Lisboa","Artigo 20.º, n.º 1, alínea d) do Código dos Contratos Públicos",,,,,,Não aplicável.,Não aplicável.,FALSE
Aquisição de material para Cardiologia,Ajuste Direto Regime Geral,Aquisição de bens móveis,"33190000-8, Dispositivos e produtos médicos variados","Centro Hospitalar Lisboa Norte, E. P. E. (508481287)","Abbott Laboratórios, Lda (500006148)","13.200,00 €",29-03-2018,28-03-2018,1 dias,"Portugal, Lisboa, Lisboa","Artigo 24.º, n.º 1, alínea e), subalínea ii) do Código dos Contratos Públicos",,,,,,Não aplicável.,Não aplicável.,FALSE
Aquisição de material para Cardiologia,Ajuste Direto Regime Geral,Aquisição de bens móveis,"33190000-8, Dispositivos e produtos médicos variados","Centro Hospitalar Lisboa Norte, E. P. E. (508481287)",ABBOTT MEDICAL (EX. ST. JUDE) (504180746),"9.631,75 €",29-03-2018,29-03-2018,1 dias,"Portugal, Lisboa, Lisboa","Artigo 24.º, n.º 1, alínea e), subalínea ii) do Código dos Contratos Públicos",,,,,,Não aplicável.,Não aplicável.,FALSE
Pacote de horas para suporte e apoio aplicacional Glintt,Ajuste Direto Regime Geral,Aquisição de serviços,"72212213-5, Serviços de desenvolvimento de software para melhoria de sistemas operativos","CENTRO HOSPITALAR LISBOA NORTE, EPE (508481287)","Glintt - Healthcare Solutions, S.  A. (502479418)","168.000,00 €",28-03-2018,15-03-2016,291 dias,"Portugal, Lisboa, Lisboa","Artigo 24.º, n.º 1, alínea e) do Código dos Contratos Públicos",,,,,,Não aplicável.,Não aplicável.,FALSE
Aquisição de serviços de manutenção aos equipamentos de Imagiologia,Ajuste Direto Regime Geral,Aquisição de serviços,"50421200-4, Serviços de reparação e manutenção de equipamentos de raios X","CENTRO HOSPITALAR LISBOA NORTE, EPE (508481287)","SIEMENS HEAHTHCARE, LDA (507925173)","247.947,63 €",28-03-2018,01-04-2016,362 dias,"Portugal, Lisboa, Lisboa","Artigo 24.º, n.º 1, alínea e) do Código dos Contratos Públicos",,,,,,Não aplicável.,Não aplicável.,FALSE
At manutenção SGIMC,Ajuste Direto Regime Geral,Aquisição de serviços,"50000000-5, Serviços de reparação e manutenção","Centro Hospitalar Lisboa Norte, E. P. E. (508481287)","Glintt - Healthcare Solutions, S.  A. (502479418)","69.748,00 €",28-03-2018,24-02-2016,365 dias,"Portugal, Lisboa, Lisboa","Artigo 24.º, n.º 1, alínea e) do Código dos Contratos Públicos",,,,,,Não aplicável.,Não aplicável.,FALSE
Reparação de um acelerador Linear,Ajuste Direto Regime Geral,Aquisição de serviços,"50420000-5, Serviços de reparação e manutenção de equipamento médico e cirúrgico","Centro Hospitalar Lisboa Norte, E. P. E. (508481287)","SIEMENS HEAHTHCARE, LDA (507925173)","13.503,00 €",28-03-2018,16-03-2016,30 dias,"Portugal, Lisboa, Lisboa","Artigo 20.º, n.º 1, alínea a) do Código dos Contratos Públicos",,,,,,Não aplicável.,Não aplicável.,FALSE
AT Licenciamento IBM/máximo,Ajuste Direto Regime Geral,Aquisição de serviços,"72212218-0, Serviços de desenvolvimento de software para gestão de licenças","Centro Hospitalar Lisboa Norte, E. P. E. (508481287)","Companhia IBM Portuguesa, S.A. (500068801)","16.500,00 €",28-03-2018,29-03-2016,277 dias,"Portugal, Lisboa, Lisboa","Artigo 20.º, n.º 1, alínea a) do Código dos Contratos Públicos",,,,,,Não aplicável.,Não aplicável.,FALSE
Empreitada para execução da obra de adaptação das Instalações Sanitárias na UTMO piso 7,Ajuste Direto Regime Geral,Empreitadas de obras públicas,"45454000-4, Obras de reestruturação","Centro Hospitalar Lisboa Norte, E. P. E. (508481287)","Gecolix - Gabinete de Estudos e Construções, Lda. (500688150)","7.706,76 €",28-03-2018,04-05-2016,15 dias,"Portugal, Lisboa, Lisboa","Artigo 19.º, alínea a) do Código dos Contratos Públicos",,,,,,Não aplicável.,Não aplicável.,FALSE
Fornecimento e Instalação de 7 Tampas para Passeio no CHLN-HPV,Ajuste Direto Regime Geral,Empreitadas de obras públicas,"45442300-0, Obras de protecção de superfícies","Centro Hospitalar Lisboa Norte, E. P. E. (508481287)","Gecolix - Gabinete de Estudos e Construções, Lda. (500688150)","1.175,00 €",28-03-2018,04-05-2016,30 dias,"Portugal, Lisboa, Lisboa","Artigo 19.º, alínea a) do Código dos Contratos Públicos",,,,,,Não aplicável.,Não aplicável.,FALSE
Reparação de videoduodenoscopio,Ajuste Direto Regime Geral,Aquisição de serviços,"50420000-5, Serviços de reparação e manutenção de equipamento médico e cirúrgico","Centro Hospitalar Lisboa Norte, E. P. E. (508481287)",Olympus Iberia SAU (980474710),"11.279,52 €",28-03-2018,11-03-2016,30 dias,"Portugal, Lisboa, Lisboa","Artigo 20.º, n.º 1, alínea a) do Código dos Contratos Públicos",,,,,,Não aplicável.,Não aplicável.,FALSE
CP n.º 182A000008 - Aquisição de sistemas de soros simples p/ o ano de 2018,Concurso público,Aquisição de bens móveis,"33140000-3, Material médico de consumo","Centro Hospitalar Lisboa Norte, E. P. E. (508481287)","PMH PRODUTOS MEDIC. HOSPITAL, SA (502376899)","139.776,00 €",28-03-2018,27-03-2018,279 dias,"Portugal, Lisboa, Lisboa","Artigo 20.º, n.º 1, alínea b) do Código dos Contratos Públicos",,,,,,Não aplicável.,Não aplicável.,FALSE
187G000007 - Aquisição de 1 (uma) máquina de lavar e desinfetar vidro - Serviço de Gestão Técnico Farmacêutica - Unidade de Gestão de Medicamentos e Outros Produtos Farmacêuticos - CHLN - HSM,Ajuste Direto Regime Geral,Aquisição de bens móveis,"39330000-4, Equipamento para desinfecção","CENTRO HOSPITALAR LISBOA NORTE, EPE (508481287)","A. Mendes da Silva, Lda (502064080)","6.175,20 €",27-03-2018,27-03-2018,40 dias,"Portugal, Lisboa, Lisboa","Artigo 20.º, n.º 1, alínea a) do Código dos Contratos Públicos",,,,,,Não aplicável.,Não aplicável.,FALSE
Realização de cursos de formação Qualidade  ISO 9001:2015,Ajuste Direto Regime Geral,Aquisição de serviços,"80532000-2, Serviços de formação em matéria de gestão","Centro Hospitalar Lisboa Norte, E. P. E. (508481287)",SINASE - RECURSOS HUMANOS; ESTUDOS E DESENVOLVIMENTO DE EMPRESAS (502851791),"6.825,00 €",27-03-2018,27-03-2018,6 dias,"Portugal, Lisboa, Lisboa","Artigo 20.º, n.º 1, alínea d) do Código dos Contratos Públicos",,,,,,Não aplicável.,Não aplicável.,FALSE
Aquisição de biombos de enfermagem,Ajuste Direto Regime Geral,Aquisição de bens móveis,"33192000-2, Mobiliário para fins médicos","Centro Hospitalar Lisboa Norte, E. P. E. (508481287)",Duekipa (508690102),"6.570,00 €",26-03-2018,26-03-2018,30 dias,"Portugal, Lisboa, Lisboa","Artigo 20.º, n.º 1, alínea d) do Código dos Contratos Públicos",,,,,,Não aplicável.,Não aplicável.,FALSE
"CP n.º 182A000005 - Aquisição de consumíveis p/ traqueostomia e doentes laringectomizados/dispositivos médicos, p/ o ano de 2018.",Concurso público,Aquisição de bens móveis,"33190000-8, Dispositivos e produtos médicos variados","Centro Hospitalar Lisboa Norte, E. P. E. (508481287)",Intersurgical (503480045),"5.938,80 €",26-03-2018,26-03-2018,280 dias,"Portugal, Lisboa, Lisboa","Artigo 20.º, n.º 1, alínea b) do Código dos Contratos Públicos",,,,,,Não aplicável.,Não aplicável.,FALSE
"CP n.º 182A000005 - Aquisição de consumíveis p/ traqueostomia e doentes laringectomizados/dispositivos médicos, p/ o ano de 2018.",Concurso público,Aquisição de bens móveis,"33190000-8, Dispositivos e produtos médicos variados","Centro Hospitalar Lisboa Norte, E. P. E. (508481287)","SMITHS MEDICAL PORTUGAL UNIPESSOAL, LDA (507445937)","4.896,00 €",26-03-2018,26-03-2018,280 dias,"Portugal, Lisboa, Lisboa","Artigo 20.º, n.º 1, alínea b) do Código dos Contratos Públicos",,,,,,Não aplicável.,Não aplicável.,FALSE
"CP n.º 182A000005 - Aquisição de consumíveis p/ traqueostomia e doentes laringectomizados/dispositivos médicos, p/ o ano de 2018.",Concurso público,Aquisição de bens móveis,"33190000-8, Dispositivos e produtos médicos variados","Centro Hospitalar Lisboa Norte, E. P. E. (508481287)","TELEFLEX MEDICAL, S.A. (980249783)","4.418,64 €",26-03-2018,26-03-2018,280 dias,"Portugal, Lisboa, Lisboa","Artigo 20.º, n.º 1, alínea b) do Código dos Contratos Públicos",,,,,,Não aplicável.,Não aplicável.,FALSE
AT Software aplicacional Alert 2018,Ajuste Direto Regime Geral,Aquisição de serviços,"50000000-5, Serviços de reparação e manutenção","Centro Hospitalar Lisboa Norte, E. P. E. (508481287)",ALERT - LIFE SCIENCES COMPUTING SA (507567455),"39.339,00 €",26-03-2018,01-03-2018,365 dias,"Portugal, Lisboa, Lisboa","Artigo 24.º, n.º 1, alínea e) do Código dos Contratos Públicos",,,,,,Não aplicável.,Não aplicável.,FALSE
Empreitada de execução da obra de reparação da cobertura do RDA - Orgãos Sociais - Conselho de Administração - CHLN - HPV,Ajuste Direto Regime Geral,Empreitadas de obras públicas,"45200000-9, Obras de construção total ou parcial e de engenharia civil","CENTRO HOSPITALAR LISBOA NORTE, EPE (508481287)","Vitor Augusto - Engenharia, Reabilitação e Construção, Unipessoal, Lda (514528800)","12.748,00 €",26-03-2018,26-03-2018,10 dias,"Portugal, Lisboa, Lisboa","Artigo 24.º, n.º 1, alínea f) do Código dos Contratos Públicos",,,,,,Não aplicável.,Não aplicável.,FALSE
Aquisição de lenalidomida caps 10 mg,Ajuste Direto Regime Geral,Aquisição de bens móveis,"33690000-3, Medicamentos vários","Centro Hospitalar Lisboa Norte, E. P. E. (508481287)","CELGENE SOCIEDADE UNIPESSOAL, LDA (507791690)","60.934,91 €",23-03-2018,07-02-2018,1 dias,"Portugal, Lisboa, Lisboa","Artigo 24.º, n.º 1, alínea e) do Código dos Contratos Públicos",,,,,,Não aplicável.,Não aplicável.,FALSE
CP n.º 182A000012 - Aquisição de sacos de urina e outros p/ o ano de 2018,Concurso público,Aquisição de bens móveis,"33141615-4, Sacos para urina","Centro Hospitalar Lisboa Norte, E. P. E. (508481287)","B. Braun Medical, Lda. (501506543)","27.666,00 €",23-03-2018,14-03-2018,27666 dias,"Portugal, Lisboa, Lisboa","Artigo 20.º, n.º 1, alínea b) do Código dos Contratos Públicos",,,,,,Não aplicável.,Não aplicável.,FALSE
Aquisição de serviços de manutenção aos equipamentos e sistemas de prevenção e combate contra incêndios para o ano de 2018,Ajuste Direto Regime Geral,Aquisição de serviços,"50413200-5, Serviços de reparação e manutenção de equipamento de combate a incêndios","CENTRO HOSPITALAR LISBOA NORTE, EPE (508481287)",SINTIMEX - SOCIEDADE INTERNACIONAL DE IMPORTAÇÕES E EXPORTAÇÕES (500251118),"4.500,72 €",22-03-2018,22-03-2018,364 dias,"Portugal, Lisboa, Lisboa","Artigo 20.º, n.º 1, alínea a) do Código dos Contratos Públicos",,,,,,Não aplicável.,Não aplicável.,FALSE
Aquisição de vários medicamentos,Ajuste Direto Regime Geral,Aquisição de bens móveis,"33690000-3, Medicamentos vários","Centro Hospitalar Lisboa Norte, E. P. E. (508481287)","NOVO NORDISK, LDA (501485210)","117.412,15 €",22-03-2018,29-01-2018,1 dias,"Portugal, Lisboa, Lisboa","Artigo 24.º, n.º 1, alínea e) do Código dos Contratos Públicos",,,,,,Não aplicável.,Não aplicável.,FALSE
Aquisição de Turoctogog ALfa,Ajuste Direto Regime Geral,Aquisição de bens móveis,"33690000-3, Medicamentos vários","Centro Hospitalar Lisboa Norte, E. P. E. (508481287)","NOVO NORDISK COMERCIO PRODUTOS FARMACEUTICOS, LDA (501485210)","10.593,38 €",22-03-2018,27-12-2017,1 dias,"Portugal, Lisboa, Lisboa","Artigo 24.º, n.º 1, alínea e) do Código dos Contratos Públicos",,,,,,Não aplicável.,Não aplicável.,FALSE
Aquisição de fator VII recombinante sol. inj. 2 mg,Ajuste Direto Regime Geral,Aquisição de bens móveis,"33690000-3, Medicamentos vários","Centro Hospitalar Lisboa Norte, E. P. E. (508481287)","NOVO NORDISK COMERCIO PRODUTOS FARMACEUTICOS, LDA (501485210)","56.105,00 €",22-03-2018,22-12-2017,1 dias,"Portugal, Lisboa, Lisboa","Artigo 24.º, n.º 1, alínea e) do Código dos Contratos Públicos",,,,,,Não aplicável.,Não aplicável.,FALSE
AQUISIÇÃO DE ELBASVIR 50 MG + GRAZOPREVIR 100 MG COMP,Ajuste Direto Regime Geral,Aquisição de bens móveis,"33651400-2, Antivíricos de uso sistémico","Centro Hospitalar Lisboa Norte, E. P. E. (508481287)","MERCK SHARP E DOHME, LDA (500191360)","20.102,22 €",22-03-2018,20-12-2017,2 dias,"Portugal, Lisboa, Lisboa","Artigo 24.º, n.º 1, alínea e) do Código dos Contratos Públicos",,,,,,Não aplicável.,Não aplicável.,FALSE
Aquisição de fator VII recombinante sol. inj. 2 mg e 1 mg,Ajuste Direto Regime Geral,Aquisição de bens móveis,"33690000-3, Medicamentos vários","Centro Hospitalar Lisboa Norte, E. P. E. (508481287)","NOVO NORDISK COMERCIO PRODUTOS FARMACEUTICOS, LDA (501485210)","66.999,32 €",22-03-2018,22-12-2017,1 dias,"Portugal, Lisboa, Lisboa","Artigo 24.º, n.º 1, alínea e) do Código dos Contratos Públicos",,,,,,Não aplicável.,Não aplicável.,FALSE
AQUISIÇÃO DE FACTOR VII RECOMBINANTE SOL INJ 5 MG ( N,Ajuste Direto Regime Geral,Aquisição de bens móveis,"33621000-9, Medicamentos para o sangue e para os órgãos hematopoiéticos","Centro Hospitalar Lisboa Norte, E. P. E. (508481287)","NOVO NORDISK COMERCIO PRODUTOS FARMACEUTICOS, LDA (501485210)","87.024,60 €",22-03-2018,22-12-2017,1 dias,"Portugal, Lisboa, Lisboa","Artigo 24.º, n.º 1, alínea e) do Código dos Contratos Públicos",,,,,,Não aplicável.,Não aplicável.,FALSE
AQUISIÇÃO DE FACTOR VII RECOMBINANTE,Ajuste Direto Regime Geral,Aquisição de bens móveis,"33621000-9, Medicamentos para o sangue e para os órgãos hematopoiéticos","Centro Hospitalar Lisboa Norte, E. P. E. (508481287)","NOVO NORDISK COMERCIO PRODUTOS FARMACEUTICOS, LDA (501485210)","75.619,25 €",22-03-2018,22-12-2017,1 dias,"Portugal, Lisboa, Lisboa","Artigo 24.º, n.º 1, alínea e) do Código dos Contratos Públicos",,,,,,Não aplicável.,Não aplicável.,FALSE
Aquisição de fator VII recombinante sol. inj. 2 mg,Ajuste Direto Regime Geral,Aquisição de bens móveis,"33690000-3, Medicamentos vários","Centro Hospitalar Lisboa Norte, E. P. E. (508481287)","NOVO NORDISK COMERCIO PRODUTOS FARMACEUTICOS, LDA (501485210)","89.768,00 €",22-03-2018,21-12-2017,1 dias,"Portugal, Lisboa, Lisboa","Artigo 24.º, n.º 1, alínea e) do Código dos Contratos Públicos",,,,,,Não aplicável.,Não aplicável.,FALSE
Aquisição de aftor VII recombinante sol. inj. 1 mg,Ajuste Direto Regime Geral,Aquisição de bens móveis,"33690000-3, Medicamentos vários","Centro Hospitalar Lisboa Norte, E. P. E. (508481287)","NOVO NORDISK COMERCIO PRODUTOS FARMACEUTICOS, LDA (501485210)","55.288,30 €",22-03-2018,19-12-2017,1 dias,"Portugal, Lisboa, Lisboa","Artigo 24.º, n.º 1, alínea e) do Código dos Contratos Públicos",,,,,,Não aplicável.,Não aplicável.,FALSE
AQUISIÇÃO DE ELBASVIR 50 MG + GRAZOPREVIR 100 MG COMP,Ajuste Direto Regime Geral,Aquisição de bens móveis,"33651400-2, Antivíricos de uso sistémico","Centro Hospitalar Lisboa Norte, E. P. E. (508481287)","MERCK SHARP E DOHME, LDA (500191360)","29.036,53 €",22-03-2018,05-12-2017,2 dias,"Portugal, Lisboa, Lisboa","Artigo 24.º, n.º 1, alínea e) do Código dos Contratos Públicos",,,,,,Não aplicável.,Não aplicável.,FALSE
Aquisição de vários medicamentos,Ajuste Direto Regime Geral,Aquisição de bens móveis,"33690000-3, Medicamentos vários","Centro Hospitalar Lisboa Norte, E. P. E. (508481287)","PFIZER BIOFARMACEUTICA, SOCIEDADE UNIPESSOAL, LDA (513300376)","75.750,00 €",22-03-2018,30-11-2017,1 dias,"Portugal, Lisboa, Lisboa","Artigo 24.º, n.º 1, alínea e) do Código dos Contratos Públicos",,,,,,Não aplicável.,Não aplicável.,FALSE
Aquisição de Factor VII recombinante,Ajuste Direto Regime Geral,Aquisição de bens móveis,"33621000-9, Medicamentos para o sangue e para os órgãos hematopoiéticos","Centro Hospitalar Lisboa Norte, E. P. E. (508481287)","NOVO NORDISK COMERCIO PRODUTOS FARMACEUTICOS, LDA (501485210)","174.049,20 €",22-03-2018,20-11-2017,1 dias,"Portugal, Lisboa, Lisboa","Artigo 24.º, n.º 1, alínea e) do Código dos Contratos Públicos",,,,,,Não aplicável.,Não aplicável.,FALSE
Aquisição de fator VII recombinante sol. inj. 2 mg,Ajuste Direto Regime Geral,Aquisição de bens móveis,"33690000-3, Medicamentos vários","Centro Hospitalar Lisboa Norte, E. P. E. (508481287)",NOVO NORDISK COMERCIO DE PRODUTOS FARMACEUTICOS    (501485210),"89.768,00 €",22-03-2018,09-10-2017,1 dias,"Portugal, Lisboa, Lisboa","Artigo 24.º, n.º 1, alínea e) do Código dos Contratos Públicos",,,,,,Não aplicável.,Não aplicável.,FALSE
Aquisição de fator VII recombinante sol. inj. 5 mg,Ajuste Direto Regime Geral,Aquisição de bens móveis,"33690000-3, Medicamentos vários","Centro Hospitalar Lisboa Norte, E. P. E. (508481287)",NOVO NORDISK-COM. DE PROD. FAR (501485210),"174.049,20 €",22-03-2018,05-04-2017,1 dias,"Portugal, Lisboa, Lisboa","Artigo 24.º, n.º 1, alínea e) do Código dos Contratos Públicos",,,,,,Não aplicável.,Não aplicável.,FALSE
Compra centralizada de Etanercept  - AD-Ac-2017-152,Ajuste Direto Regime Geral,Aquisição de bens móveis,"33690000-3, Medicamentos vários","Centro Hospitalar Lisboa Norte, E. P. E. (508481287)","BIOGEN IDEC PORTUGAL - SOC. FARM. UNIPESSOAL, LDA. (506415740)","133.677,00 €",22-03-2018,01-03-2018,306 dias,"Portugal, Lisboa, Lisboa","Artigo 24.º, n.º 1, alínea e) do Código dos Contratos Públicos",,,,,,Não aplicável.,Não aplicável.,FALSE
