Objeto do Contrato,Tipo de Procedimento,Tipo(s) de Contrato,CPVs,Entidade(s) Adjudicante(s),Entidade(s) Adjudicatária(s),Preço Contratual,Data de Publicação,Data de Celebração do Contrato,Prazo de Execução,Local de Execução,Fundamentação,Data de Fecho do Contrato,Preço Total Efetivo,Causas das Alterações ao Prazo,Causas das Alterações ao Preço,Estado,N.º registo do Acordo Quadro,Descrição do Acordo Quadro,Procedimento Centralizado
Serviços para reforço da equipa mobile – área funcional e testing,Ajuste Direto Regime Geral,Aquisição de serviços,"72500000-0, Serviços relacionados com a informática","SPMS - Serviços Partilhados do Ministério da Saúde, E. P. E. (509540716)",Memorywizard (514938722),"19.198,08 €",21-01-2019,28-12-2018,30 dias,Portugal,"Artigo 20.º, n.º 1, alínea d) do Código dos Contratos Públicos",,,,,,Não aplicável.,Não aplicável.,FALSE
Serviços de manutenção corretiva e evolutiva para o sistema aplicacional SIIMA Rastreios,Ajuste Direto Regime Geral,Aquisição de serviços,"72500000-0, Serviços relacionados com a informática","SPMS- Serviços Partilhados do M. da Saúde, E.P.E. (509540716)","First Solutions - Sistemas e Informação, S.A. (505345978)","765.814,50 €",16-01-2019,13-12-2018,365 dias,Portugal,"Artigo 24.º, n.º 1, alínea e), subalínea iii) do Código dos Contratos Públicos",,,,,,Não aplicável.,Não aplicável.,FALSE
Convite ao abrigo de acordo-quadro - Serviços de manutenção corretiva e operações no âmbito do SClínico Hospitalar,Ao abrigo de acordo-quadro (art.º 259.º),Aquisição de serviços,"72500000-0, Serviços relacionados com a informática","SPMS - Serviços Partilhados do Ministério da Saúde, E. P. E. (509540716)","Altranportugal, S. A. (504272179)","168.806,40 €",16-01-2019,14-12-2018,363 dias,Portugal,Artigo 259.º do Código dos Contratos Públicos,,,,,,1423482,CELEBRAÇÃO DE ACORDO QUADRO PARA PRESTAÇÃO DE SERVIÇOS TIC E INTEROPERABILIDADE NA ÁREA DA SAÚDE,FALSE
Aquisição de licenciamento para monitorização de Infraestrutura,Ao abrigo de acordo-quadro (art.º 259.º),Aquisição de bens móveis,"48100000-9, Pacote de software para sectores específicos","SPMS - Serviços Partilhados do Ministério da Saúde, E. P. E. (SNCP) (509540716)","ORAMIX - Sistemas de Informação, S.A., (504448382)","339.985,00 €",11-01-2019,27-12-2018,364 dias,Portugal,Artigo 259.º do Código dos Contratos Públicos,,,,,,610968,Acordo quadro de licenciamento de software e serviços conexos,FALSE
Aquisição de serviços de operação de backoffice para o Centro de Suporte da SPMS e outras tarefas de articulação entre a equipa do Centro de Suporte (1as linhas) e as equipas técnicas (2as linhas),Ajuste Direto Regime Geral,Aquisição de serviços,"75112100-5, Serviços administrativos relacionados com projectos de desenvolvimento","SPMS- Serviços Partilhados do M. da Saúde, E.P.E. (509540716)","SOLIDNETWORKS-Business Consulting, Lda. (508991579)","42.831,36 €",11-01-2019,28-12-2018,89 dias,Portugal,"Artigo 24.º, n.º 1, alínea c) do Código dos Contratos Públicos",,,,,,Não aplicável.,Não aplicável.,FALSE
Aquisição de Serviços de Auditoria Tecnológica - Prescrição Eletrónica Médica e Base de Dados Nacional de Prescrições,Ajuste Direto Regime Geral,Aquisição de serviços,"72500000-0, Serviços relacionados com a informática","SPMS - Serviços Partilhados do Ministério da Saúde, E. P. E. (509540716)",DOGNÆDIS (509475779),"8.999,00 €",11-01-2019,26-12-2018,5 dias,Portugal,"Artigo 20.º, n.º 1, alínea d) do Código dos Contratos Públicos",,,,,,Não aplicável.,Não aplicável.,FALSE
"Convite ao abrigo de acordo-quadro - Aquisição de Licença OutSystems - OutSystems Platform Standard Edition, 300,000 Software Units, Unlimited Users",Ao abrigo de acordo-quadro (art.º 259.º),Aquisição de bens móveis<br/>Aquisição de serviços,"48218000-9, Pacote de software para gestão de licenças","SPMS - Serviços Partilhados do Ministério da Saúde, E. P. E. (509540716)","NOESIS, S.A. (505128985)","51.050,00 €",11-01-2019,18-12-2018,365 dias,Portugal,Artigo 259.º do Código dos Contratos Públicos,,,,,,610968,Acordo quadro de licenciamento de software e serviços conexos,FALSE
Aquisição de licenciamento para a Plataforma de Arquitetura Empresarial – ATLAS para o ano de 2019,Ajuste Direto Regime Geral,Aquisição de serviços,"72500000-0, Serviços relacionados com a informática","SPMS- Serviços Partilhados do M. da Saúde, E.P.E. (509540716)","Link Consulting, Tecnologias de Informação, S.A (504551221)","9.900,00 €",11-01-2019,26-12-2018,369 dias,Portugal,"Artigo 24.º, n.º 1, alínea e), subalínea iii) do Código dos Contratos Públicos",,,,,,Não aplicável.,Não aplicável.,FALSE
Convite ao abrigo de acordo-quadro - Aquisição de licenciamento de software - Lote 3 - AutoCad,Ao abrigo de acordo-quadro (art.º 259.º),Aquisição de bens móveis<br/>Aquisição de serviços,"48218000-9, Pacote de software para gestão de licenças","SPMS - Serviços Partilhados do Ministério da Saúde, E. P. E. (509540716)",Informática El Corte Inglês (980079659),"6.000,00 €",11-01-2019,18-12-2018,730 dias,Portugal,Artigo 259.º do Código dos Contratos Públicos,,,,,,610968,Acordo quadro de licenciamento de software e serviços conexos,FALSE
Convite ao abrigo de acordo-quadro - Serviços de análise funcional e desenho de processos,Ao abrigo de acordo-quadro (art.º 259.º),Aquisição de serviços,"72500000-0, Serviços relacionados com a informática","SPMS - Serviços Partilhados do Ministério da Saúde, E. P. E. (509540716)","Altranportugal, S. A. (504272179)","99.190,08 €",11-01-2019,28-12-2018,547 dias,Portugal,Artigo 259.º do Código dos Contratos Públicos,,,,,,1423482,CELEBRAÇÃO DE ACORDO QUADRO PARA PRESTAÇÃO DE SERVIÇOS TIC E INTEROPERABILIDADE NA ÁREA DA SAÚDE,FALSE
Aquisição de serviços para reforço da equipa Mobile,Ajuste Direto Regime Geral,Aquisição de serviços,"72500000-0, Serviços relacionados com a informática","SPMS - Serviços Partilhados do Ministério da Saúde, E. P. E. (509540716)","PDM&FC – PROJECTOS DE DESENVOLVIMENTO MANUTENÇÃO FORMAÇÃO E CONSULTADORIA, LDA (502980826)","19.100,00 €",11-01-2019,20-12-2018,89 dias,Portugal,"Artigo 20.º, n.º 1, alínea d) do Código dos Contratos Públicos",,,,,,Não aplicável.,Não aplicável.,FALSE
