Objeto do Contrato,Tipo de Procedimento,Tipo(s) de Contrato,CPVs,Entidade(s) Adjudicante(s),Entidade(s) Adjudicatária(s),Preço Contratual,Data de Publicação,Data de Celebração do Contrato,Prazo de Execução,Local de Execução,Fundamentação,Data de Fecho do Contrato,Preço Total Efetivo,Causas das Alterações ao Prazo,Causas das Alterações ao Preço,Estado,N.º registo do Acordo Quadro,Descrição do Acordo Quadro,Procedimento Centralizado
41.135.2017 Medicamentos do Sistema Nervoso Cerebrospinal,Ao abrigo de acordo-quadro (art.º 259.º),Aquisição de bens móveis,"33690000-3, Medicamentos vários","Centro Hospitalar Universitário do Algarve, E. P. E. (510745997)","SANDOZ FARMACÊUTICA, LDA.                          (506985261), GENERIS - FARMACEUTICA, S.A.                       (508107997),  OVERPHARMA - PRODUTOS MEDICOS E FARM.                                 (505792362), Sanofi - Produtos Farmacêuticos, Lda. (500134960), Labesfal - Laboratório Almiro, SA. (501169580), Laboratório Medinfar - Prod. Farmacêuticos, SA (500384045), RATIOPHARM                                         (502414910), PHARMAKERN PORTUGAL, LDA.                          (507002571), Tecnifar - Industria Técnica Farmacêutica S.A (500280436)","9.456,40 €",11-12-2017,17-02-2017,317 dias,"Portugal, Faro, Faro",Artigo 259.º do Código dos Contratos Públicos,"","",,,,2528670,"CP 2017/2 - Acordo Quadro para fornecimento de Medicamentos do Sistema Nervoso Cerebrospinal, exceto: anestésicos, relaxantes musculares, analgésicos, antipiréticos, antidepressivos e antipsicóticos  às Instituições e Serviços do Serviço Nacional de Saúde",FALSE
41.134.2017 Medicamentos Aparelho  Cardiovascular,Ao abrigo de acordo-quadro (art.º 259.º),Aquisição de bens móveis,"33690000-3, Medicamentos vários","Centro Hospitalar Universitário do Algarve, E. P. E. (510745997)","AUROVITAS UNIPESSOAL, LDA                          (513053239), FARMOZ SOCIEDADE TECNICO MEDICINAL, LDA (501505334), Sidefarma, SA (500717419), Laboratório Medinfar - Prod. Farmacêuticos, SA (500384045), HIKMA FARMACÊUTICA (PORTUGAL) SA.                  (502266791),  OVERPHARMA - PRODUTOS MEDICOS E FARM.                                 (505792362), SANDOZ FARMACÊUTICA, LDA.                          (506985261), GENERIS - FARMACEUTICA, S.A.                       (508107997), Sanofi - Produtos Farmacêuticos, Lda. (500134960), PHARMAKERN PORTUGAL, LDA.                          (507002571), Labesfal - Laboratório Almiro, SA. (501169580), DLA Azevedos, SA (503894427)","71.088,49 €",11-12-2017,17-01-2017,348 dias,"Portugal, Faro, Faro",Artigo 259.º do Código dos Contratos Públicos,"","",,,,2335591,CP 2016/01 - Acordo Quadro para fornecimento de Medicamentos do Aparelho Cardiovascular   às Instituições e Serviços do Serviço Nacional de Saúde,FALSE
41.121.2017 Dialises Peritoneal,Ao abrigo de acordo-quadro (art.º 259.º),Aquisição de bens móveis,"33690000-3, Medicamentos vários","Centro Hospitalar Universitário do Algarve, E. P. E. (510745997)","Baxter Médico Farmacêutica, Lda. (503347345), FRESENIUSMEDICAL CARE PORTUGAL,SA. (503070220)","794.737,00 €",11-12-2017,17-01-2017,348 dias,"Portugal, Faro, Faro",Artigo 259.º do Código dos Contratos Públicos,"","",,,,1481309,CP 2015/35 - Acordo quadro para fornecimento de bens e prestação de serviços de Diálise Peritoneal às Instituições e Serviços do Serviço Nacional de Saúde,FALSE
41.127.2017 Medicamentos Hemoderivados,Ao abrigo de acordo-quadro (art.º 259.º),Aquisição de bens móveis,"33690000-3, Medicamentos vários","Centro Hospitalar Universitário do Algarve, E. P. E. (510745997)","CSL BEHRING (503047201), OCTAPHARMA - PRODUTOS FARMACEUTICOS                (502820780), KEDRION PORTUGAL                                   (508472830)","61.712,20 €",11-12-2017,25-01-2017,340 dias,"Portugal, Faro, Faro",Artigo 259.º do Código dos Contratos Públicos,"","",,,,1423488,ACORDO QUADRO PARA FORNECIMENTO DE DERIVADOS DO PLASMA HUMANO ÀS INSTITUIÇÕES E SERVIÇOS DO SERVIÇO NACIONAL DE SAÚDE CP 2015/9,FALSE
41.56.2017 Material de penso com efeito terapeutico,Ao abrigo de acordo-quadro (art.º 259.º),Aquisição de bens móveis,"33600000-6, Produtos farmacêuticos","Centro Hospitalar Universitário do Algarve, E. P. E. (510745997)","SMITH & NEPHEW, LDA. (503552461), B BRAUN MEDICAL LDA (501506543), Queenlabs - Especialidades Farmacêuticas,Lda (503984485),  OVERPHARMA - PRODUTOS MEDICOS E FARM.                                 (505792362), CLINIFAR SA (503281115), Paul Hartmann, Lda (502271728), BSN MEDICAL S.A (505385058), SPCARE ESP.FARMACEUTICAS,LDA. (508284872), Quilaban- Química Laboratorial Analítica, SA (500399670)","41.774,80 €",11-12-2017,24-04-2017,251 dias,"Portugal, Faro, Faro",Artigo 259.º do Código dos Contratos Públicos,"","",,,,1315192,Acordo Quadro para fornecimento de material de penso de efeito terapêutico às Instituições e Serviços do Serviço Nacional de Saúde,FALSE
61/3980/2017 Medicamentos Desmopressina 0.1 mg/ml Sol pulv nas Fr 2.5 ml,Ajuste Direto Regime Geral,Aquisição de bens móveis,"33690000-3, Medicamentos vários","Centro Hospitalar Universitário do Algarve, E.P.E. (510745997)",FERRING PORTUG.-PROD.FARMAC. (502034831),"189,40 €",07-12-2017,20-10-2017,72 dias,"Portugal, Faro, Faro","Artigo 24.º, n.º 1, alínea e) do Código dos Contratos Públicos","","",,,,Não aplicável.,Não aplicável.,FALSE
61/3981/2017 Medicamentos Messalazina 4 g/60 ml Susp rect Fr 60 ml,Ajuste Direto Regime Geral,Aquisição de bens móveis,"33690000-3, Medicamentos vários","Centro Hospitalar Universitário do Algarve, E.P.E. (510745997)",DR.FALK PHARMA PORTUGAL (506171612),"154,86 €",07-12-2017,17-11-2017,44 dias,"Portugal, Faro, Faro","Artigo 24.º, n.º 1, alínea e) do Código dos Contratos Públicos","","",,,,Não aplicável.,Não aplicável.,FALSE
61/3979/2017 Medicamentos Trastuzumab emtansina 100 mg Pó conc sol inj Fr IV,Ajuste Direto Regime Geral,Aquisição de bens móveis,"33690000-3, Medicamentos vários","Centro Hospitalar Universitário do Algarve, E.P.E. (510745997)","Roche Farmacêutica Química, Lda. (500233810)","37.147,00 €",07-12-2017,18-10-2017,74 dias,"Portugal, Faro, Faro","Artigo 24.º, n.º 1, alínea e) do Código dos Contratos Públicos","","",,,,Não aplicável.,Não aplicável.,FALSE
"Prestação de Serviços Médicos de Ortopedia- Dr. Ricardo Guerreiro, Lda",Ajuste Direto Regime Geral,Aquisição de serviços,"85121283-0, Serviços de ortopedia","Centro Hospitalar Universitário do Algarve, E.P.E. (510745997)","Ricardo Alcântara Guerreiro, Sociedade Unipessoal, Lda  (513820108)","5.000,00 €",07-12-2017,07-12-2017,60 dias,"Portugal, Faro, Faro","Artigo 24.º, n.º 1, alínea e) do Código dos Contratos Públicos",07-12-2017,"5.000,00 €",,,,Não aplicável.,Não aplicável.,FALSE
61/3975/2017 Cloro-hexidina 20 mg/ml + Álcool isopropílico 550.9 mg/ml Sol cut Fr 200 ml,Ajuste Direto Regime Geral,Aquisição de bens móveis,"33690000-3, Medicamentos vários","Centro Hospitalar Universitário do Algarve, E. P. E. (510745997)","VYGON (PORTUGAL),LDA. (503232785)","230,40 €",07-12-2017,24-10-2017,68 dias,"Portugal, Faro, Faro","Artigo 24.º, n.º 1, alínea e) do Código dos Contratos Públicos","","",,,,Não aplicável.,Não aplicável.,FALSE
61/3947/2017 Medicamento Trametinib 2 mg,Ajuste Direto Regime Geral,Aquisição de bens móveis,"33690000-3, Medicamentos vários","Centro Hospitalar Universitário do Algarve, E. P. E. (510745997)","Novartis Farma - Produtos Farmacêuticos, S.A. (500063524)","23.177,16 €",07-12-2017,03-10-2017,89 dias,"Portugal, Faro, Faro","Artigo 24.º, n.º 1, alínea e) do Código dos Contratos Públicos","","",,,,Não aplicável.,Não aplicável.,FALSE
61/3847/2017 Medicamento Tiopental sódico 500 mg,Ajuste Direto Regime Geral,Aquisição de bens móveis,"33690000-3, Medicamentos vários","Centro Hospitalar Universitário do Algarve, E.P.E. (510745997)","B. Braun Medical, Lda. (501506543)","328,00 €",07-12-2017,27-10-2017,65 dias,"Portugal, Faro, Faro","Artigo 24.º, n.º 1, alínea e) do Código dos Contratos Públicos","","",,,,Não aplicável.,Não aplicável.,FALSE
"61/3843/2017 Medicamentos A.A. 13,5 g N+ Glucose 165g + Lípidos 60g, 1500 ml",Ajuste Direto Regime Geral,Aquisição de bens móveis,"33690000-3, Medicamentos vários","Centro Hospitalar Universitário do Algarve, E. P. E. (510745997)","Baxter Médico Farmacêutica, Lda. (503347345)","14.852,00 €",07-12-2017,21-09-2017,101 dias,"Portugal, Faro, Faro","Artigo 24.º, n.º 1, alínea e) do Código dos Contratos Públicos","","",,,,Não aplicável.,Não aplicável.,FALSE
41.3025.2017 Medicamentos amoxicilina 2000mg+acido clavulamico 200mg,Ao abrigo de acordo-quadro (art.º 259.º),Aquisição de bens móveis,"33690000-3, Medicamentos vários","Centro Hospitalar Universitário do Algarve, E. P. E. (510745997)","LABORATORIOS NORMON,SA (505654156)","25.606,50 €",07-12-2017,19-07-2017,165 dias,"Portugal, Faro, Faro",Artigo 259.º do Código dos Contratos Públicos,"","",,,,1326195,ACORDO QUADRO PARA FORNECIMENTO DE MEDICAMENTOS ANTI-INFECIOSOS: EXCETO ANTIVÍRICOS E ANTIFÚNGICOS ÀS INSTITUIÇÕES E SERVIÇOS DO SERVIÇO NACIONAL DE SAÚDE,FALSE
41.3118.2017 Medicamento Timolol 5mg,Ao abrigo de acordo-quadro (art.º 259.º),Aquisição de bens móveis,"33690000-3, Medicamentos vários","Centro Hospitalar Universitário do Algarve, E. P. E. (510745997)","Laboratório Edol, Produtos Farmacêuticos SA (507072642)","105,30 €",07-12-2017,11-09-2017,111 dias,"Portugal, Faro, Faro",Artigo 259.º do Código dos Contratos Públicos,"","",,,,1377420,Acordo quadro para fornecimento de medicamentos usados nas afecções oculares e otorrinolaringologias às instituições e serviços do serviço nacional de saúde,FALSE
41.3120.2017 Medicamentos Etanercept 50mg,Ao abrigo de acordo-quadro (art.º 259.º),Aquisição de bens móveis,"33690000-3, Medicamentos vários","Centro Hospitalar Universitário do Algarve, E. P. E. (510745997)","BIOGEN IDEC PORTUGAL-SOC.FARM.UNIP., LDA (506415740)","140.000,00 €",07-12-2017,31-08-2017,121 dias,"Portugal, Faro, Faro",Artigo 259.º do Código dos Contratos Públicos,"","",,,,1771819,CP 2015/6 - Acordo quadro para o fornecimento de Medicamentos do Foro Oncológico,FALSE
41.3122.2017 Medicamentos cisplatina 100mg,Ao abrigo de acordo-quadro (art.º 259.º),Aquisição de bens móveis,"33690000-3, Medicamentos vários","Centro Hospitalar Universitário do Algarve, E. P. E. (510745997)","Accord Healthcare Unipessoal, Lda. (508622263)","1.832,00 €",07-12-2017,01-08-2017,153 dias,"Portugal, Faro, Faro",Artigo 259.º do Código dos Contratos Públicos,"","",,,,1771819,CP 2015/6 - Acordo quadro para o fornecimento de Medicamentos do Foro Oncológico,FALSE
41.3123.2017 Medicamentos venlafaxina 150mg,Ao abrigo de acordo-quadro (art.º 259.º),Aquisição de bens móveis,"33690000-3, Medicamentos vários","Centro Hospitalar Universitário do Algarve, E. P. E. (510745997)","AUROVITAS UNIPESSOAL, LDA           (513053239)","90,78 €",07-12-2017,21-08-2017,132 dias,"Portugal, Faro, Faro",Artigo 259.º do Código dos Contratos Públicos,"","",,,,1974985,"Medicamentos Analgésicos, Antipiréticos e Antidepressivos",FALSE
41.3213.2017 Medicamentos amoxicilina +acido clavulanico,Ao abrigo de acordo-quadro (art.º 259.º),Aquisição de bens móveis,"33690000-3, Medicamentos vários","Centro Hospitalar Universitário do Algarve, E. P. E. (510745997)","Generis Farmacêutica, SA. (508107997)","43.283,70 €",07-12-2017,13-09-2017,109 dias,"Portugal, Faro, Faro",Artigo 259.º do Código dos Contratos Públicos,"","",,,,1326195,ACORDO QUADRO PARA FORNECIMENTO DE MEDICAMENTOS ANTI-INFECIOSOS: EXCETO ANTIVÍRICOS E ANTIFÚNGICOS ÀS INSTITUIÇÕES E SERVIÇOS DO SERVIÇO NACIONAL DE SAÚDE,FALSE
41.3124.2014 Medicamentos Metformina 850mg,Ao abrigo de acordo-quadro (art.º 259.º),Aquisição de bens móveis,"33690000-3, Medicamentos vários","Centro Hospitalar Universitário do Algarve, E. P. E. (510745997)",OVERPHARMA (505792362),"31,68 €",07-12-2017,11-08-2017,142 dias,"Portugal, Faro, Faro",Artigo 259.º do Código dos Contratos Públicos,"","",,,,603979,"CONCURSO PÚBLICO PARA A CELEBRAÇÃO DE CONTRATOS PÚBLICOS DE APROVISIONAMENTO PARA A ÁREA DA SAÚDE, COM VISTA AO FORNECIMENTO DE HORMONAS E OUTROS MEDICAMENTOS USADOS NO TRATAMENTO DAS DOENÇAS ENDÓCRINAS, ÀS INSTITUIÇÕES E SERVIÇOS DO SERVIÇO NACIONAL DE SAÚDE",FALSE
41.3214.2017 Medicamentos Imunoglubina humana,Ao abrigo de acordo-quadro (art.º 259.º),Aquisição de bens móveis,"33690000-3, Medicamentos vários","Centro Hospitalar Universitário do Algarve, E. P. E. (510745997)",KEDRION PORTUGAL                                   (508472830),"57.600,00 €",07-12-2017,25-07-2017,159 dias,"Portugal, Faro, Faro",Artigo 259.º do Código dos Contratos Públicos,"","",,,,1394106,CP 2015/64 - Medicamentos Diversos,FALSE
41.2814.2017 Medicamento lercanidipina 20mg,Ao abrigo de acordo-quadro (art.º 259.º),Aquisição de bens móveis,"33690000-3, Medicamentos vários","Centro Hospitalar Universitário do Algarve, E. P. E. (510745997)","AUROVITAS UNIPESSOAL, LDA           (513053239)","99,06 €",07-12-2017,22-06-2017,192 dias,"Portugal, Faro, Faro",Artigo 259.º do Código dos Contratos Públicos,"","",,,,2335591,CP 2016/01 - Acordo Quadro para fornecimento de Medicamentos do Aparelho Cardiovascular   às Instituições e Serviços do Serviço Nacional de Saúde,FALSE
41.2816.2017 Medicamento levetiracetam 1000mg,Ao abrigo de acordo-quadro (art.º 259.º),Aquisição de bens móveis,"33690000-3, Medicamentos vários","Centro Hospitalar Universitário do Algarve, E. P. E. (510745997)","Generis Farmacêutica, SA. (508107997)","743,40 €",07-12-2017,22-06-2017,192 dias,"Portugal, Faro, Faro",Artigo 259.º do Código dos Contratos Públicos,"","",,,,2528670,"CP 2017/2 - Acordo Quadro para fornecimento de Medicamentos do Sistema Nervoso Cerebrospinal, exceto: anestésicos, relaxantes musculares, analgésicos, antipiréticos, antidepressivos e antipsicóticos  às Instituições e Serviços do Serviço Nacional de Saúde",FALSE
41.2838.2017 Medicamentos Aciclovir 50mg,Ao abrigo de acordo-quadro (art.º 259.º),Aquisição de bens móveis,"33690000-3, Medicamentos vários","Centro Hospitalar Universitário do Algarve, E. P. E. (510745997)","Generis Farmacêutica, SA. (508107997)","108,00 €",07-12-2017,02-06-2017,192 dias,"Portugal, Faro, Faro",Artigo 259.º do Código dos Contratos Públicos,"","",,,,1370278,CP 2015/51 - Acordo quadro para fornecimento de medicamentos usados nas afeções cutâneas às instituições e serviços do serviço nacional de saúde,FALSE
41.2944.2017 Medicamento Topotecano 4mg,Ao abrigo de acordo-quadro (art.º 259.º),Aquisição de bens móveis,"33690000-3, Medicamentos vários","Centro Hospitalar Universitário do Algarve, E. P. E. (510745997)","AUROVITAS UNIPESSOAL, LDA           (513053239)","1.229,40 €",07-12-2017,03-07-2017,181 dias,"Portugal, Faro, Faro",Artigo 259.º do Código dos Contratos Públicos,"","",,,,1771819,CP 2015/6 - Acordo quadro para o fornecimento de Medicamentos do Foro Oncológico,FALSE
41.2949.2017 - Lipidos 200mg,Ao abrigo de acordo-quadro (art.º 259.º),Aquisição de bens móveis,"33690000-3, Medicamentos vários","Centro Hospitalar Universitário do Algarve, E. P. E. (510745997)",Fresenius Kabi (504293753),"5.006,00 €",07-12-2017,01-08-2017,152 dias,"Portugal, Faro, Faro",Artigo 259.º do Código dos Contratos Públicos,"","",,,,1377429,Acordo Quadro para fornecimento de medicamentos para Nutrição Parentérica às Instituições e Serviços do Serviço Nacional de Saúde,FALSE
"41.1684.2017 Medicamentos Sol DPCA Glucose 22,7 mg(ml e CA 1.75mmol",Ao abrigo de acordo-quadro (art.º 259.º),Aquisição de bens móveis,"33690000-3, Medicamentos vários","Centro Hospitalar Universitário do Algarve, E. P. E. (510745997)","FRESENIUSMEDICAL CARE PORTUGAL,SA. (503070220)","4.470,00 €",07-12-2017,07-04-2017,268 dias,"Portugal, Faro, Faro",Artigo 259.º do Código dos Contratos Públicos,"","",,,,1481309,CP 2015/35 - Acordo quadro para fornecimento de bens e prestação de serviços de Diálise Peritoneal às Instituições e Serviços do Serviço Nacional de Saúde,FALSE
41.1899.2017 Epoietinas,Ao abrigo de acordo-quadro (art.º 259.º),Aquisição de bens móveis,"33690000-3, Medicamentos vários","Centro Hospitalar Universitário do Algarve, E. P. E. (510745997)","Roche Farmacêutica Química, Lda. (500233810)","37.500,00 €",07-12-2017,06-03-2017,300 dias,"Portugal, Faro, Faro",Artigo 259.º do Código dos Contratos Públicos,"","",,,,2749216,CP 2017/11 - Acordo quadro para fornecimento de Medicamentos Estimulantes da eritropoiese às Instituições e Serviços do Serviço Nacional de Saúde,FALSE
41.2013.2017 Medicamentos Paracetamol 1g,Ao abrigo de acordo-quadro (art.º 259.º),Aquisição de bens móveis,"33690000-3, Medicamentos vários","Centro Hospitalar Universitário do Algarve, E. P. E. (510745997)",Fresenius Kabi (504293753),"55.323,00 €",07-12-2017,28-03-2017,278 dias,"Portugal, Faro, Faro",Artigo 259.º do Código dos Contratos Públicos,"","",,,,1974985,"Medicamentos Analgésicos, Antipiréticos e Antidepressivos",FALSE
41.2014.2017 Medicamentos Cetrolac 30mg/ml,Ao abrigo de acordo-quadro (art.º 259.º),Aquisição de bens móveis,"33690000-3, Medicamentos vários","Centro Hospitalar Universitário do Algarve, E. P. E. (510745997)","Generis Farmacêutica, SA. (508107997)","18.270,00 €",07-12-2017,28-03-2017,278 dias,"Portugal, Faro, Faro",Artigo 259.º do Código dos Contratos Públicos,"","",,,,1410779,CP 2015/47 - Acordo quadro para fornecimento de medicamentos do aparelho locomotor às instituições e serviços do serviço nacional de saúde,FALSE
41.2159.2017 - Medicamentos Varios,Ao abrigo de acordo-quadro (art.º 259.º),Aquisição de bens móveis,"33690000-3, Medicamentos vários","Centro Hospitalar Universitário do Algarve, E. P. E. (510745997)","Merck Sharp & Dohme, Lda. (500191360)","2.390,25 €",07-12-2017,26-04-2017,249 dias,"Portugal, Faro, Faro",Artigo 259.º do Código dos Contratos Públicos,"","",,,,1771819,CP 2015/6 - Acordo quadro para o fornecimento de Medicamentos do Foro Oncológico,FALSE
41.3664.2017 Medicamentos Lamotrigina 50mg,Ao abrigo de acordo-quadro (art.º 259.º),Aquisição de bens móveis,"33690000-3, Medicamentos vários","Centro Hospitalar Universitário do Algarve, E. P. E. (510745997)","LABESFAL-LAB. ALMIRO, SA.                          (501169580)","13,36 €",07-12-2017,26-09-2017,96 dias,"Portugal, Faro, Faro",Artigo 259.º do Código dos Contratos Públicos,"","",,,,2528670,"CP 2017/2 - Acordo Quadro para fornecimento de Medicamentos do Sistema Nervoso Cerebrospinal, exceto: anestésicos, relaxantes musculares, analgésicos, antipiréticos, antidepressivos e antipsicóticos  às Instituições e Serviços do Serviço Nacional de Saúde",FALSE
41.3592.2017 Medicamentos Sertralina 100mg,Ao abrigo de acordo-quadro (art.º 259.º),Aquisição de bens móveis,"33690000-3, Medicamentos vários","Centro Hospitalar Universitário do Algarve, E. P. E. (510745997)","Sanofi-Aventis - Prod. Farmacêuticos, Lda (500134960)","47,04 €",07-12-2017,29-09-2017,96 dias,"Portugal, Faro, Faro",Artigo 259.º do Código dos Contratos Públicos,"","",,,,1974985,"Medicamentos Analgésicos, Antipiréticos e Antidepressivos",FALSE
41.3591.2017 Medicamentos Lipidos MCT/LCT 200mg,Ao abrigo de acordo-quadro (art.º 259.º),Aquisição de bens móveis,"33690000-3, Medicamentos vários","Centro Hospitalar Universitário do Algarve, E. P. E. (510745997)",Fresenius Kabi (504293753),"667,50 €",07-12-2017,26-09-2017,96 dias,"Portugal, Faro, Faro",Artigo 259.º do Código dos Contratos Públicos,"","",,,,1326195,ACORDO QUADRO PARA FORNECIMENTO DE MEDICAMENTOS ANTI-INFECIOSOS: EXCETO ANTIVÍRICOS E ANTIFÚNGICOS ÀS INSTITUIÇÕES E SERVIÇOS DO SERVIÇO NACIONAL DE SAÚDE,FALSE
41.3588.2017 Medicamentos Oxaliplatina 200mg/40ml,Ao abrigo de acordo-quadro (art.º 259.º),Aquisição de bens móveis,"33690000-3, Medicamentos vários","Centro Hospitalar Universitário do Algarve, E. P. E. (510745997)","Accord Healthcare Unipessoal, Lda. (508622263)","3.422,10 €",07-12-2017,28-09-2017,94 dias,"Portugal, Faro, Faro",Artigo 259.º do Código dos Contratos Públicos,"","",,,,1771819,CP 2015/6 - Acordo quadro para o fornecimento de Medicamentos do Foro Oncológico,FALSE
41.3450.2017 Medicamentos Levetiracetam 500mg/5ml,Ao abrigo de acordo-quadro (art.º 259.º),Aquisição de bens móveis,"33690000-3, Medicamentos vários","Centro Hospitalar Universitário do Algarve, E. P. E. (510745997)","Generis Farmacêutica, SA. (508107997)","11.446,40 €",07-12-2017,13-09-2017,109 dias,"Portugal, Faro, Faro",Artigo 259.º do Código dos Contratos Públicos,"","",,,,2528670,"CP 2017/2 - Acordo Quadro para fornecimento de Medicamentos do Sistema Nervoso Cerebrospinal, exceto: anestésicos, relaxantes musculares, analgésicos, antipiréticos, antidepressivos e antipsicóticos  às Instituições e Serviços do Serviço Nacional de Saúde",FALSE
61/3715/2017 Medicamento Etanercept 50 mg/ml Sol inj Caneta 1 ml SC,Ajuste Direto Regime Geral,Aquisição de bens móveis,"33690000-3, Medicamentos vários","Centro Hospitalar Universitário do Algarve, E. P. E. (510745997)","Pfizer Biofarmacêutica, Sociedade Unipessoal Lda. (513300376)","197.400,00 €",06-12-2017,08-09-2017,114 dias,"Portugal, Faro, Faro","Artigo 24.º, n.º 1, alínea e) do Código dos Contratos Públicos","","",,,,Não aplicável.,Não aplicável.,FALSE
61/3523/2017 Medicamentos vismodegib 150 mg,Ajuste Direto Regime Geral,Aquisição de bens móveis,"33690000-3, Medicamentos vários","Centro Hospitalar Universitário do Algarve, E. P. E. (510745997)","Roche Farmacêutica Química, Lda. (500233810)","54.087,54 €",06-12-2017,19-09-2017,103 dias,"Portugal, Faro, Faro","Artigo 24.º, n.º 1, alínea e) do Código dos Contratos Públicos","","",,,,Não aplicável.,Não aplicável.,FALSE
61/3521/2017 Medicamento Ceftolazano 1g + Tazobactam 0.5 g,Ajuste Direto Regime Geral,Aquisição de bens móveis,"33690000-3, Medicamentos vários","Centro Hospitalar Universitário do Algarve, E. P. E. (510745997)","Merck Sharp & Dohme, Lda. (500191360)","4.585,00 €",06-12-2017,23-10-2017,69 dias,"Portugal, Faro, Faro","Artigo 24.º, n.º 1, alínea e) do Código dos Contratos Públicos","","",,,,Não aplicável.,Não aplicável.,FALSE
"Aq. de Prestação de Serviços Médicos de Pediatria- Viegas & Semedo, Lda",Ajuste Direto Regime Geral,Aquisição de serviços,"85121291-9, Serviços de pediatria","Centro Hospitalar Universitário do Algarve, E. P. E. (510745997)","Viegas & Semedo - Saúde, Beleza e Bem Estar, Lda. (510764649)","2.921,00 €",06-12-2017,05-12-2017,30 dias,"Portugal, Faro, Portimão","Artigo 20.º, n.º 1, alínea a) do Código dos Contratos Públicos",05-12-2017,"2.921,00 €",,,,Não aplicável.,Não aplicável.,FALSE
Produtos de Apoio-Ajudas Técnicas,Ajuste Direto Regime Geral,Aquisição de serviços,"85111400-4, Serviços hospitalares de reabilitação","Centro Hospitalar Universitário do Algarve, E. P. E. (510745997)",Coselgi (509230598),"1.651,30 €",06-12-2017,03-11-2017,90 dias,"Portugal, Faro, Faro","Artigo 20.º, n.º 1, alínea a) do Código dos Contratos Públicos","","",,,,Não aplicável.,Não aplicável.,FALSE
Produtos de Apoio-Ajudas Técnicas,Ajuste Direto Regime Geral,Aquisição de serviços,"85111400-4, Serviços hospitalares de reabilitação","Centro Hospitalar Universitário do Algarve, E. P. E. (510745997)","Orto Rego - Comércio e Aplicação de Produtos Ortopédicos, Lda. (504820915)","818,32 €",06-12-2017,03-11-2017,90 dias,"Portugal, Faro, Portimão","Artigo 20.º, n.º 1, alínea a) do Código dos Contratos Públicos","","",,,,Não aplicável.,Não aplicável.,FALSE
41.2161.2017 Medicamentos do Aparelho Digestivo,Ao abrigo de acordo-quadro (art.º 259.º),Aquisição de bens móveis,"33690000-3, Medicamentos vários","Centro Hospitalar Universitário do Algarve, E. P. E. (510745997)","HIKMA FARMACÊUTICA (PORTUGAL) SA. (502266791), AUROVITAS UNIPESSOAL, LDA           (513053239), GENERIS FARMACÊUTICA,SA    (508107997), LABESFAL - LABORATÓRIOS ALMIRO, S.A.    (501169580)","54.653,29 €",06-12-2017,03-05-2017,242 dias,"Portugal, Faro, Faro",Artigo 259.º do Código dos Contratos Públicos,"","",,,,2222779,Medicamentos do aparelho digestivo,FALSE
41.2229.2017 Medicamentos Losartan 50 mg,Ao abrigo de acordo-quadro (art.º 259.º),Aquisição de bens móveis,"33690000-3, Medicamentos vários","Centro Hospitalar Universitário do Algarve, E. P. E. (510745997)","AUROVITAS UNIPESSOAL, LDA           (513053239)","420,00 €",06-12-2017,03-05-2017,284 dias,"Portugal, Faro, Faro",Artigo 259.º do Código dos Contratos Públicos,"","",,,,2335591,CP 2016/01 - Acordo Quadro para fornecimento de Medicamentos do Aparelho Cardiovascular   às Instituições e Serviços do Serviço Nacional de Saúde,FALSE
41.2279.2017 Medicamento Nitroglicerina,Ao abrigo de acordo-quadro (art.º 259.º),Aquisição de bens móveis,"33690000-3, Medicamentos vários","Centro Hospitalar Universitário do Algarve, E. P. E. (510745997)","SPCARE - ESPECIALIDADES FARMACEUTICAS. LDA (508284872), OVERPHARMA- PRODUTOS MEDICOS FARMAC. LDA   (505792362)","3.588,35 €",06-12-2017,03-05-2017,242 dias,"Portugal, Faro, Faro",Artigo 259.º do Código dos Contratos Públicos,"","",,,,2335591,CP 2016/01 - Acordo Quadro para fornecimento de Medicamentos do Aparelho Cardiovascular   às Instituições e Serviços do Serviço Nacional de Saúde,FALSE
41.2489.2017 Imunoglobina Humana Normal 50mg,Ao abrigo de acordo-quadro (art.º 259.º),Aquisição de bens móveis,"33690000-3, Medicamentos vários","Centro Hospitalar Universitário do Algarve, E. P. E. (510745997)",KEDRION PORTUGAL                                   (508472830),"59.400,00 €",06-12-2017,22-06-2017,192 dias,"Portugal, Faro, Faro",Artigo 259.º do Código dos Contratos Públicos,"","",,,,1394106,CP 2015/64 - Medicamentos Diversos,FALSE
41.1082.2017 Medicamentos Parafinas e Lanolinas,Ao abrigo de acordo-quadro (art.º 259.º),Aquisição de bens móveis,"33690000-3, Medicamentos vários","Centro Hospitalar Universitário do Algarve, E. P. E. (510745997)",PMH (502376899),"8.772,00 €",06-12-2017,07-04-2017,268 dias,"Portugal, Faro, Faro",Artigo 259.º do Código dos Contratos Públicos,"","",,,,1406003,CP 2015/8,FALSE
41.1258.2017 Teste rápido Gonadotropina Corionica Humana na Urina,Ao abrigo de acordo-quadro (art.º 259.º),Aquisição de bens móveis,"33690000-3, Medicamentos vários","Centro Hospitalar Universitário do Algarve, E. P. E. (510745997)","Baptista Marques Diagnóstica e Reagentes, Lda. (501439110)","260,00 €",06-12-2017,16-03-2017,290 dias,"Portugal, Faro, Faro",Artigo 259.º do Código dos Contratos Públicos,"","",,,,1555404,CP 2015/73 - Acordo quadro para fornecimento de Reagentes - Testes Rápidos às Instituições e Serviços do Serviço Nacional de Saúde,FALSE
41.1482.2017 Medicamento Oxaliplatina 200mg/40ml,Ao abrigo de acordo-quadro (art.º 259.º),Aquisição de bens móveis,"33690000-3, Medicamentos vários","Centro Hospitalar Universitário do Algarve, E. P. E. (510745997)","Fresenius Kabi Pharma Portugal, Lda. (504293753)","23.650,64 €",06-12-2017,22-03-2017,284 dias,"Portugal, Faro, Faro",Artigo 259.º do Código dos Contratos Públicos,"","",,,,1771819,CP 2015/6 - Acordo quadro para o fornecimento de Medicamentos do Foro Oncológico,FALSE
41.1484.2017 Medicamento Hidroxicarbamida (hidroxiureia) 500mg,Ao abrigo de acordo-quadro (art.º 259.º),Aquisição de bens móveis,"33690000-3, Medicamentos vários","Centro Hospitalar Universitário do Algarve, E. P. E. (510745997)",MEDAC (980369959),"19.323,10 €",06-12-2017,20-03-2017,286 dias,"Portugal, Faro, Faro",Artigo 259.º do Código dos Contratos Públicos,"","",,,,1771819,CP 2015/6 - Acordo quadro para o fornecimento de Medicamentos do Foro Oncológico,FALSE
41.1485.2017 Medicamento Vancomicina 500mg,Ao abrigo de acordo-quadro (art.º 259.º),Aquisição de bens móveis,"33690000-3, Medicamentos vários","Centro Hospitalar Universitário do Algarve, E. P. E. (510745997)",HIKMA FARMACÊUTICA (PORTUGAL) SA. (502266791),"2.625,00 €",06-12-2017,07-04-2017,268 dias,"Portugal, Faro, Faro",Artigo 259.º do Código dos Contratos Públicos,"","",,,,1326195,ACORDO QUADRO PARA FORNECIMENTO DE MEDICAMENTOS ANTI-INFECIOSOS: EXCETO ANTIVÍRICOS E ANTIFÚNGICOS ÀS INSTITUIÇÕES E SERVIÇOS DO SERVIÇO NACIONAL DE SAÚDE,FALSE
41.1534.2017 Salbutamol 100mg Susp pressu inal Recip pressu 200 dose,Ao abrigo de acordo-quadro (art.º 259.º),Aquisição de bens móveis,"33690000-3, Medicamentos vários","Centro Hospitalar Universitário do Algarve, E. P. E. (510745997)","Glaxosmithkline, Lda (500139962)","11.318,40 €",06-12-2017,28-03-2017,278 dias,"Portugal, Faro, Faro",Artigo 259.º do Código dos Contratos Públicos,"","",,,,1638654,CP 2015/12 - Acordo quadro para fornecimento de Medicamentos do Aparelho Respiratório às Instituições e Serviços do Serviço Nacional de Saúde,FALSE
41.880.2017 Medicamentos Anastesticos e relaxantes musculares,Ao abrigo de acordo-quadro (art.º 259.º),Aquisição de bens móveis,"33690000-3, Medicamentos vários","Centro Hospitalar Universitário do Algarve, E. P. E. (510745997)","Korangi Produtos Farmacêuticos (505322307), B.BRAUN MEDICAL, LDA (501506543), BAXTER MEDICO FARMACÊUTICA, LDA (503347345), Fresenius Kabi Pharma Portugal, Lda. (504293753)","142.167,34 €",06-12-2017,28-03-2017,278 dias,"Portugal, Faro, Faro",Artigo 259.º do Código dos Contratos Públicos,"","",,,,2211341,Medicamentos anestésicos e relaxantes musculares,FALSE
41.882.2017 Medicamentos Ramipril,Ao abrigo de acordo-quadro (art.º 259.º),Aquisição de bens móveis,"33690000-3, Medicamentos vários","Centro Hospitalar Universitário do Algarve, E. P. E. (510745997)",Laboratório Medinfar - Produtos Farmacêuticos SA (500384045),"627,20 €",06-12-2017,16-03-2017,290 dias,"Portugal, Faro, Faro",Artigo 259.º do Código dos Contratos Públicos,"","",,,,2335591,CP 2016/01 - Acordo Quadro para fornecimento de Medicamentos do Aparelho Cardiovascular   às Instituições e Serviços do Serviço Nacional de Saúde,FALSE
41.1039.2017 Medicamentos Sevelamero 800mg,Ao abrigo de acordo-quadro (art.º 259.º),Aquisição de bens móveis,"33690000-3, Medicamentos vários","Centro Hospitalar Universitário do Algarve, E. P. E. (510745997)","SANOFI - PRODUTOS FARMACÊUTICOS, LDA. (500134960)","73.648,33 €",06-12-2017,17-02-2017,317 dias,"Portugal, Faro, Faro",Artigo 259.º do Código dos Contratos Públicos,"","",,,,1513257,Acordo quadro para fornecimento de Medicamentos diversos II   às Instituições e Serviços do Serviço Nacional de Saúde,FALSE
41.1040.2017 Medicamento Abacavir 300mg,Ao abrigo de acordo-quadro (art.º 259.º),Aquisição de bens móveis,"33690000-3, Medicamentos vários","Centro Hospitalar Universitário do Algarve, E. P. E. (510745997)","Sandoz Farmacêutica, Lda (506985261)","23.760,00 €",06-12-2017,14-03-2017,292 dias,"Portugal, Faro, Faro",Artigo 259.º do Código dos Contratos Públicos,"","",,,,2183729,Medicamentos antirretrovíricos para o tratamento da infeção por VIH,FALSE
41.3242.2017 Medicamentos Epirrubicina 50mg/25ml,Ao abrigo de acordo-quadro (art.º 259.º),Aquisição de bens móveis,"33690000-3, Medicamentos vários","Centro Hospitalar Universitário do Algarve, E. P. E. (510745997)","ACCORD HEALTHCARE, UNIPESSOAL Lda. (508622263)","546,40 €",06-12-2017,11-08-2017,223 dias,"Portugal, Faro, Faro",Artigo 259.º do Código dos Contratos Públicos,"","",,,,1771819,CP 2015/6 - Acordo quadro para o fornecimento de Medicamentos do Foro Oncológico,FALSE
41.3245.2017 Medicamento Fluticasona 50mg,Ao abrigo de acordo-quadro (art.º 259.º),Aquisição de bens móveis,"33690000-3, Medicamentos vários","Centro Hospitalar Universitário do Algarve, E. P. E. (510745997)","Glaxosmithkline, Lda (500139962)","65,00 €",06-12-2017,25-07-2017,206 dias,"Portugal, Faro, Faro",Artigo 259.º do Código dos Contratos Públicos,"","",,,,1638654,CP 2015/12 - Acordo quadro para fornecimento de Medicamentos do Aparelho Respiratório às Instituições e Serviços do Serviço Nacional de Saúde,FALSE
"41.3246.2017 Medicamento Rivastigmina 1,5mg",Ao abrigo de acordo-quadro (art.º 259.º),Aquisição de bens móveis,"33690000-3, Medicamentos vários","Centro Hospitalar Universitário do Algarve, E. P. E. (510745997)","GENERIS FARMACÊUTICA,SA    (508107997)","66,64 €",06-12-2017,21-08-2017,132 dias,"Portugal, Faro, Faro",Artigo 259.º do Código dos Contratos Públicos,"","",,,,2528670,"CP 2017/2 - Acordo Quadro para fornecimento de Medicamentos do Sistema Nervoso Cerebrospinal, exceto: anestésicos, relaxantes musculares, analgésicos, antipiréticos, antidepressivos e antipsicóticos  às Instituições e Serviços do Serviço Nacional de Saúde",FALSE
41.3247-2017 A.A. 10g N+Glucose 180g + Electrolitos 1250ml,Ao abrigo de acordo-quadro (art.º 259.º),Aquisição de bens móveis,"33690000-3, Medicamentos vários","Centro Hospitalar Universitário do Algarve, E. P. E. (510745997)","B.BRAUN MEDICAL, LDA (501506543)","6.255,00 €",06-12-2017,13-09-2017,109 dias,"Portugal, Faro, Faro",Artigo 259.º do Código dos Contratos Públicos,"","",,,,1377429,Acordo Quadro para fornecimento de medicamentos para Nutrição Parentérica às Instituições e Serviços do Serviço Nacional de Saúde,FALSE
41.3271.2017 Medicamentos Gemcitabina 2000mg/50ml,Ao abrigo de acordo-quadro (art.º 259.º),Aquisição de bens móveis,"33690000-3, Medicamentos vários","Centro Hospitalar Universitário do Algarve, E. P. E. (510745997)","AUROVITAS UNIPESSOAL, LDA (513053239)","3.200,00 €",06-12-2017,21-08-2017,132 dias,"Portugal, Faro, Faro",Artigo 259.º do Código dos Contratos Públicos,"","",,,,1771819,CP 2015/6 - Acordo quadro para o fornecimento de Medicamentos do Foro Oncológico,FALSE
41.3351.2017 Medicamento Beta-Histina 16mg,Ao abrigo de acordo-quadro (art.º 259.º),Aquisição de bens móveis,"33690000-3, Medicamentos vários","Centro Hospitalar Universitário do Algarve, E. P. E. (510745997)","GENERIS FARMACÊUTICA,SA    (508107997)","90,24 €",06-12-2017,21-08-2017,132 dias,"Portugal, Faro, Faro",Artigo 259.º do Código dos Contratos Públicos,"","",,,,2528670,"CP 2017/2 - Acordo Quadro para fornecimento de Medicamentos do Sistema Nervoso Cerebrospinal, exceto: anestésicos, relaxantes musculares, analgésicos, antipiréticos, antidepressivos e antipsicóticos  às Instituições e Serviços do Serviço Nacional de Saúde",FALSE
41.3381.2017 Medicamento Atorvastatina 40mg,Ao abrigo de acordo-quadro (art.º 259.º),Aquisição de bens móveis,"33690000-3, Medicamentos vários","Centro Hospitalar Universitário do Algarve, E. P. E. (510745997)","AUROBINDO PHARMA PORTUGAL, (UNIP.) LDA (508527465)","390,60 €",06-12-2017,13-10-2017,79 dias,"Portugal, Faro, Faro",Artigo 259.º do Código dos Contratos Públicos,"","",,,,2335591,CP 2016/01 - Acordo Quadro para fornecimento de Medicamentos do Aparelho Cardiovascular   às Instituições e Serviços do Serviço Nacional de Saúde,FALSE
Prestação de Serviços Médicos Cirurgia Geral- Serv. Urgencia,Ajuste Direto Regime Geral,Aquisição de serviços,"85121300-6, Serviços de cirurgia especializada","Centro Hospitalar Universitário do Algarve, E. P. E. (510745997)",GS24 - Healthcare Solutions - SA (507824652),"13.200,00 €",05-12-2017,15-11-2017,40 dias,"Portugal, Faro, Faro","Artigo 20.º, n.º 1, alínea a) do Código dos Contratos Públicos","","",,,,Não aplicável.,Não aplicável.,FALSE
Prestação de Serviços de Manutenção das Instalações,Ajuste Direto Regime Geral,Aquisição de serviços,"50000000-5, Serviços de reparação e manutenção","Centro Hospitalar Universitário do Algarve, E. P. E. (510745997)",Acciona Facility Services SA (503431397),"26.543,40 €",04-12-2017,01-09-2017,20 dias,"Portugal, Faro, Faro<BR/>Portugal, Faro, Lagos<BR/>Portugal, Faro, Portimão<BR/>Portugal, Faro, Vila Real Sto Antonio<BR/>Portugal, Faro, Albufeira<BR/>Portugal, Faro, Loulé","Artigo 24.º, n.º 1, alínea c) do Código dos Contratos Públicos","","",,,,Não aplicável.,Não aplicável.,FALSE
41.1041.2017 Imunoglobina Humana Normal 165mg/ml,Ao abrigo de acordo-quadro (art.º 259.º),Aquisição de bens móveis,"33690000-3, Medicamentos vários","Centro Hospitalar Universitário do Algarve, E. P. E. (510745997)",OCTAPHARMA - PRODUTOS FARMACEUTICOS                (502820780),"75.867,00 €",04-12-2017,27-01-2017,338 dias,"Portugal, Faro, Faro",Artigo 259.º do Código dos Contratos Públicos,"","",,,,1423488,ACORDO QUADRO PARA FORNECIMENTO DE DERIVADOS DO PLASMA HUMANO ÀS INSTITUIÇÕES E SERVIÇOS DO SERVIÇO NACIONAL DE SAÚDE CP 2015/9,FALSE
41.1072.2017 MEDICAMENTOS LAMIVUDINA 150MG,Ao abrigo de acordo-quadro (art.º 259.º),Aquisição de bens móveis,"33690000-3, Medicamentos vários","Centro Hospitalar Universitário do Algarve, E. P. E. (510745997)","AUROBINDO PHARMA PORTUGAL, (UNIP.) LDA (508527465)","1.872,00 €",04-12-2017,28-03-2017,2778 dias,"Portugal, Faro, Faro",Artigo 259.º do Código dos Contratos Públicos,"","",,,,2183729,Medicamentos antirretrovíricos para o tratamento da infeção por VIH,FALSE
41.1073.2017 Medicamentos Cetirizina,Ao abrigo de acordo-quadro (art.º 259.º),Aquisição de bens móveis,"33690000-3, Medicamentos vários","Centro Hospitalar Universitário do Algarve, E. P. E. (510745997)",Laboratório Medinfar - Produtos Farmacêuticos SA (500384045),"75,00 €",04-12-2017,28-03-2017,278 dias,"Portugal, Faro, Faro",Artigo 259.º do Código dos Contratos Públicos,"","",,,,1338581,"Acordo quadro para fornecimento de Medicação antialérgica, medicamentos usados no tratamento de intoxicações, vitaminas e sais minerais e grupo 20.9 - outros produtos às instituições e serviços do serviço nacional de saúde",FALSE
41.1074.2017 Agua Destilada para Irrigação,Ao abrigo de acordo-quadro (art.º 259.º),Aquisição de bens móveis,"33690000-3, Medicamentos vários","Centro Hospitalar Universitário do Algarve, E. P. E. (510745997)","LABESFAL-LABORATORIOS ALMIRO,SA (501169580)","4.752,00 €",04-12-2017,28-03-2017,278 dias,"Portugal, Faro, Faro",Artigo 259.º do Código dos Contratos Públicos,"","",,,,2528675,CP 2017/3 - Acordo Quadro para fornecimento de corretivos da volémia e outras soluções estéreis,FALSE
Aquisição de Material para Esterilização,Ao abrigo de acordo-quadro (art.º 259.º),Aquisição de bens móveis,"33140000-3, Material médico de consumo","Centro Hospitalar Universitário do Algarve, E. P. E. (510745997)","PERGUT PORTUGAL,LDA. (501799729)","136,44 €",04-12-2017,28-11-2017,33 dias,"Portugal, Faro, Lagos<BR/>Portugal, Faro, Faro<BR/>Portugal, Faro, Portimão",Artigo 259.º do Código dos Contratos Públicos,"","",,,,1974943,CP 2016/43 - Acordo quadro para fornecimento de Material para Empacotamento em Esterilização às Instituições e Serviços do Serviço Nacional de Saúde.,FALSE
Aquisição de Material para Esterilização,Ao abrigo de acordo-quadro (art.º 259.º),Aquisição de bens móveis,"33140000-3, Material médico de consumo","Centro Hospitalar Universitário do Algarve, E. P. E. (510745997)","Docworld – Dispositivos Médicos, Lda. (508592909)","512,42 €",04-12-2017,28-11-2017,33 dias,"Portugal, Faro, Lagos<BR/>Portugal, Faro, Faro<BR/>Portugal, Faro, Portimão",Artigo 259.º do Código dos Contratos Públicos,"","",,,,1974943,CP 2016/43 - Acordo quadro para fornecimento de Material para Empacotamento em Esterilização às Instituições e Serviços do Serviço Nacional de Saúde.,FALSE
Aquisição de Agulhas e Seringas,Ao abrigo de acordo-quadro (art.º 259.º),Aquisição de bens móveis,"33140000-3, Material médico de consumo","Centro Hospitalar Universitário do Algarve, E. P. E. (510745997)","NORMAX,LDA. (500203130)","72,45 €",04-12-2017,22-11-2017,40 dias,"Portugal, Faro, Portimão<BR/>Portugal, Faro, Lagos<BR/>Portugal, Faro, Faro",Artigo 259.º do Código dos Contratos Públicos,"","",,,,1341769,"ACORDO QUADRO PARA FORNECIMENTO DE SERINGAS, AGULHAS E CONTENTORES ÀS INSTITUIÇÕES E SERVIÇOS DO SERVIÇO NACIONAL DE SAÚDE PROGRAMA DE CONCURSO",FALSE
Aquisição de Agulhas e Seringas,Ao abrigo de acordo-quadro (art.º 259.º),Aquisição de bens móveis,"33140000-3, Material médico de consumo","Centro Hospitalar Universitário do Algarve, E. P. E. (510745997)","PERGUT PORTUGAL,LDA. (501799729)","2.169,50 €",04-12-2017,22-11-2017,40 dias,"Portugal, Faro, Lagos<BR/>Portugal, Faro, Faro<BR/>Portugal, Faro, Portimão",Artigo 259.º do Código dos Contratos Públicos,"","",,,,1341769,"ACORDO QUADRO PARA FORNECIMENTO DE SERINGAS, AGULHAS E CONTENTORES ÀS INSTITUIÇÕES E SERVIÇOS DO SERVIÇO NACIONAL DE SAÚDE PROGRAMA DE CONCURSO",FALSE
