Objeto do Contrato,Tipo de Procedimento,Tipo(s) de Contrato,CPVs,Entidade(s) Adjudicante(s),Entidade(s) Adjudicatária(s),Preço Contratual,Data de Publicação,Data de Celebração do Contrato,Prazo de Execução,Local de Execução,Fundamentação,Data de Fecho do Contrato,Preço Total Efetivo,Causas das Alterações ao Prazo,Causas das Alterações ao Preço,Estado,N.º registo do Acordo Quadro,Descrição do Acordo Quadro,Procedimento Centralizado
"PENICILINA BENZIMÁTICA 1,2MUI E PENICILINA BENZIMÁTICA 0.6.0 - INTRAMUSCULAR",Ajuste Direto Regime Geral,Aquisição de bens móveis,"33690000-3, Medicamentos vários","Administração Regional de Saúde de Lisboa e Vale do Tejo, I. P. (503148776)",LABORATORIOS ATRAL S.A (500162085),"4.632,50 €",20-02-2015,02-02-2015,3 dias,"Portugal, Lisboa, Lisboa","Artigo 24.º, n.º 1, alínea e) do Código dos Contratos Públicos","","",,,,Não aplicável.,Não aplicável.,FALSE
Aquisição de Risperidona 1mg/ml solução oral frascos 30ml,Ajuste Direto Regime Geral,Aquisição de bens móveis,"33690000-3, Medicamentos vários","Administração Regional de Saúde de Lisboa e Vale do Tejo, I. P. (503148776)","RATIOPHARMA - COMERCIO E INDUSTRIA DE PRODUTOS FARMACEUTICOS, LDA. (502414910)","2.992,00 €",20-02-2015,13-02-2015,315 dias,"Portugal, Lisboa","Artigo 26.º, n.º 1, alínea e) do Código dos Contratos Públicos","","",,,,Não aplicável.,Não aplicável.,FALSE
"AQUISIÇÃO DE SERVIÇOS DE RECOLHA DE EQUIPAMENTO DE ESTERILIZAÇÃO, MATERIAL MÉDICO E OUTROS PARA O ACES LISBOA CENTRAL - ANO 2015.",Ajuste Direto Regime Geral,Aquisição de serviços,"60000000-8, Serviços de transporte (excl. transporte de resíduos)","Administração Regional de Saúde de Lisboa e Vale do Tejo, I. P. (503148776)","MARIA ISABEL JESUS SANTOS BORGES, LDA  (505344742)","8.640,00 €",19-02-2015,21-01-2015,365 dias,"Portugal, Lisboa, Lisboa","Artigo 24.º, n.º 1, alínea b) do Código dos Contratos Públicos","","",,,,Não aplicável.,Não aplicável.,FALSE
Aquisição de serviços de higiene e limpeza - Plano de Contingência da Gripe,Ajuste Direto Regime Geral,Aquisição de serviços,"90910000-9, Serviços de limpeza","Administração Regional de Saúde de Lisboa e Vale do Tejo, I. P. (503148776)","Fine Facility Services, Lda (509418627)","1.574,85 €",19-02-2015,18-02-2015,40 dias,"Portugal, Lisboa","Artigo 24.º, n.º 1, alínea c) do Código dos Contratos Públicos","","",,,,Não aplicável.,Não aplicável.,FALSE
"MATERIAL DE PROTEÇÃO PARA OS PROFISSIONAIS DE SAÚDE CONTRA O VÍRUS """"ÉBOLA""""",Ajuste Direto Regime Geral,Aquisição de bens móveis,"33140000-3, Material médico de consumo","Administração Regional de Saúde de Lisboa e Vale do Tejo, I. P. (503148776)","FACTOR PLUS - PRODUTOS MÉDICOS E HOSPITALARES, LDA (502810645)","10.114,00 €",19-02-2015,18-02-2015,5 dias,"Portugal, Lisboa, Lisboa","Artigo 20.º, n.º 1, alínea a) do Código dos Contratos Públicos","","",,,,Não aplicável.,Não aplicável.,FALSE
Aquisição de serviços de higiene e limpeza - Plano de Contingência da Gripe,Ajuste Direto Regime Geral,Aquisição de serviços,"90910000-9, Serviços de limpeza","Administração Regional de Saúde de Lisboa e Vale do Tejo, I. P. (503148776)","CT Limpe, Lda (503024155)","2.769,26 €",19-02-2015,18-02-2015,27 dias,"Portugal, Lisboa","Artigo 24.º, n.º 1, alínea c) do Código dos Contratos Públicos","","",,,,Não aplicável.,Não aplicável.,FALSE
"MATERIAL DE PROTEÇÃO PARA OS PROFISSIONAIS DE SAÚDE CONTRA O VÍRUS """"ÉBOLA""""",Ajuste Direto Regime Geral,Aquisição de bens móveis,"33140000-3, Material médico de consumo","Administração Regional de Saúde de Lisboa e Vale do Tejo, I. P. (503148776)","3M PORTUGAL, LDA (500193940)","2.250,00 €",19-02-2015,18-02-2015,5 dias,"Portugal, Lisboa, Lisboa","Artigo 20.º, n.º 1, alínea a) do Código dos Contratos Públicos","","",,,,Não aplicável.,Não aplicável.,FALSE
Aquisição de Piridoxina 40mg Comprimidos,Ajuste Direto Regime Geral,Aquisição de bens móveis,"33000000-0, Equipamento médico, medicamentos e produtos para cuidados pessoais","Administração Regional de Saúde de Lisboa e Vale do Tejo, I. P. (503148776)","LABESFAL, LABORATORIOS ALMIRO, S.A. (501169580)","108.000,00 €",19-02-2015,05-02-2015,315 dias,"Portugal, Lisboa","Artigo 24.º, n.º 1, alínea e) do Código dos Contratos Públicos","","",,,,Não aplicável.,Não aplicável.,FALSE
Construção do Ramal de Comunicações para o Centro de Saúde de Carnide,Ajuste Direto Regime Geral,Empreitadas de obras públicas,"45113000-2, Obras no local","Administração Regional de Saúde de Lisboa e Vale do Tejo, I. P. (503148776)","MEO - Serviços de Comunicações Multimédioa, S.A. (504615947)","4.835,00 €",18-02-2015,18-02-2015,30 dias,"Portugal, Lisboa, Lisboa","Artigo 19.º, alínea a) do Código dos Contratos Públicos","","",,,,Não aplicável.,Não aplicável.,FALSE
Aquisição de vinhetas e blocos de receituário - ACES Oeste Sul,Ajuste Direto Regime Geral,Aquisição de bens móveis,"30199761-2, Etiquetas com códigos de barras","Administração Regional de Saúde de Lisboa e Vale do Tejo, I. P. (503148776)",INCM - Imprensa Nacional - Casa da Moeda (500792887),"200,00 €",18-02-2015,18-02-2015,20 dias,"Portugal, Lisboa, Torres Vedras","Artigo 24.º, n.º 1, alínea e) do Código dos Contratos Públicos",26-02-2015,"200,00 €",,,,Não aplicável.,Não aplicável.,FALSE
AQUISIÇÃO DE SERVIÇOS DE ASSESSORIA DE PLANEAMENTO E INVESTIMENTO HOSPITALAR.,Ajuste Direto Regime Geral,Aquisição de serviços,"79330000-6, Serviços de estatística","Administração Regional de Saúde de Lisboa e Vale do Tejo, I. P. (503148776)",JOANA SANTOS VAZ PEREIRA (222616075),"24.229,85 €",18-02-2015,09-02-2015,325 dias,"Portugal, Lisboa, Lisboa","Artigo 20.º, n.º 1, alínea a) do Código dos Contratos Públicos","","",,,,Não aplicável.,Não aplicável.,FALSE
RESGUARDO PARA INCONTINÊNCIA,Ajuste Direto Regime Geral,Aquisição de bens móveis,"33140000-3, Material médico de consumo","Administração Regional de Saúde de Lisboa e Vale do Tejo, I. P. (503148776)","Albino Dias de Andrade, Lda. (500013810)","202,50 €",18-02-2015,17-02-2015,2 dias,"Portugal, Lisboa, Lisboa","Artigo 26.º, n.º 1, alínea e) do Código dos Contratos Públicos","","",,,,Não aplicável.,Não aplicável.,FALSE
"Aluguer de equipamentos multifuncionais para os dois edifícios da Sede da ARSLVT, IP",Ajuste Direto Regime Geral,Aquisição de serviços,"79810000-5, Serviços de impressão","Administração Regional de Saúde de Lisboa e Vale do Tejo, I. P. (503148776)","SICNET, SA (502115866)","28.642,44 €",17-02-2015,04-02-2015,181 dias,"Portugal, Lisboa, Lisboa","Artigo 20.º, n.º 1, alínea a) do Código dos Contratos Públicos","","",,,,Não aplicável.,Não aplicável.,FALSE
Aquisição de Manutenção Evolutiva do SI - CIMGF,Ajuste Direto Regime Geral,Aquisição de serviços,"72267100-0, Manutenção de software para as tecnologias da infomação","Administração Regional de Saúde de Lisboa e Vale do Tejo, I. P. (503148776)","Fujitsu Technology Solutions, Lda (500646791)","9.487,80 €",17-02-2015,17-02-2015,30 dias,"Portugal, Lisboa, Lisboa","Artigo 20.º, n.º 1, alínea a) do Código dos Contratos Públicos","","",,,,Não aplicável.,Não aplicável.,FALSE
Empreitada de Beneficiação da Unidade de Alcoologia,Ajuste Direto Regime Geral,Empreitadas de obras públicas,"45113000-2, Obras no local","Administração Regional de Saúde de Lisboa e Vale do Tejo, I. P. (503148776)","Socodefil - Soc. Construções Manuel Delgado & Filhos, Lda (500742219)","13.685,65 €",17-02-2015,17-02-2015,20 dias,"Portugal, Lisboa, Lisboa","Artigo 19.º, alínea a) do Código dos Contratos Públicos","","",,,,Não aplicável.,Não aplicável.,FALSE
Obras de reparação do acesso ao edifício da USF e do Pólo da URAP do ACES Médio Tejo,Ajuste Direto Regime Geral,Empreitadas de obras públicas,"45113000-2, Obras no local","Administração Regional de Saúde de Lisboa e Vale do Tejo, I. P. (503148776)","Secal - Engenharia e Construções, Lda (501982248)","4.197,10 €",16-02-2015,16-02-2015,10 dias,"Portugal, Santarém, Torres Novas","Artigo 19.º, alínea a) do Código dos Contratos Públicos","","",,,,Não aplicável.,Não aplicável.,FALSE
"Aquisição de Nitroglicerina 0,5mg comprimido sublingual",Ajuste Direto Regime Geral,Aquisição de bens móveis,"33000000-0, Equipamento médico, medicamentos e produtos para cuidados pessoais","Administração Regional de Saúde de Lisboa e Vale do Tejo, I. P. (503148776)","QUILABAN - QUÍMICA LABORATORIAL ANALITICA, S.A. (500399670)","1.698,00 €",16-02-2015,16-02-2015,318 dias,"Portugal, Lisboa","Artigo 26.º, n.º 1, alínea e) do Código dos Contratos Públicos","","",,,,Não aplicável.,Não aplicável.,FALSE
"PATROCINIO JUDICIAL E APOIO JURÍDICO PARA O GABINETE JURÍDICO E DO CIDADÃO DA ARSLVT, IP. - ANO",Ajuste Direto Regime Geral,Aquisição de serviços,"79111000-5, Serviços de assessoria jurídica","Administração Regional de Saúde de Lisboa e Vale do Tejo, I. P. (503148776)","FERREIRA, LIMA & ASSOCIADOS - SOCIEDADE DE ADVOGADOS, RL (507177690)","21.955,00 €",13-02-2015,11-02-2015,365 dias,"Portugal, Lisboa, Lisboa","Artigo 27.º, n.º 1, alínea b) do Código dos Contratos Públicos","","",,,,Não aplicável.,Não aplicável.,FALSE
AQUISIÇÃO DE EQUIPAMENTO ADMINISTRATIVO PARA VÁRIAS UNIDADES DO ACES ALMADA SEIXAL,Ajuste Direto Regime Geral,Aquisição de bens móveis,"30190000-7, Equipamento e material de escritório diverso","Administração Regional de Saúde de Lisboa e Vale do Tejo, I. P. (503148776)","ERGOTEC - EQUIPAMENTO PARA ESCRITÓRIO, LDA  (503455105)","420,00 €",13-02-2015,12-02-2015,15 dias,"Portugal, Setúbal, Seixal","Artigo 20.º, n.º 1, alínea a) do Código dos Contratos Públicos","","",,,,Não aplicável.,Não aplicável.,FALSE
AQUISIÇÃO DE EQUIPAMENTO ADMINISTRATIVO PARA VÁRIAS UNIDADES DO ACES ALMADA SEIXAL,Ajuste Direto Regime Geral,Aquisição de bens móveis,"30190000-7, Equipamento e material de escritório diverso","Administração Regional de Saúde de Lisboa e Vale do Tejo, I. P. (503148776)","ERGOTEC - EQUIPAMENTO PARA ESCRITÓRIO, LDA  (503455105)","550,00 €",13-02-2015,12-02-2015,15 dias,"Portugal, Setúbal, Seixal","Artigo 20.º, n.º 1, alínea a) do Código dos Contratos Públicos","","",,,,Não aplicável.,Não aplicável.,FALSE
AQUISIÇÃO DE EQUIPAMENTO ADMINISTRATIVO PARA VÁRIAS UNIDADES DO ACES ALMADA SEIXAL,Ajuste Direto Regime Geral,Aquisição de bens móveis,"30190000-7, Equipamento e material de escritório diverso","Administração Regional de Saúde de Lisboa e Vale do Tejo, I. P. (503148776)","ERGOTEC - EQUIPAMENTO PARA ESCRITÓRIO, LDA  (503455105)","998,00 €",13-02-2015,12-02-2015,15 dias,"Portugal, Setúbal, Almada","Artigo 20.º, n.º 1, alínea a) do Código dos Contratos Públicos","","",,,,Não aplicável.,Não aplicável.,FALSE
AQUISIÇÃO DE EQUIPAMENTO ADMINISTRATIVO PARA VÁRIAS UNIDADES DO ACES ALMADA SEIXAL,Ajuste Direto Regime Geral,Aquisição de bens móveis,"30190000-7, Equipamento e material de escritório diverso","Administração Regional de Saúde de Lisboa e Vale do Tejo, I. P. (503148776)","ERGOTEC - EQUIPAMENTO PARA ESCRITÓRIO, LDA (503455105)","886,50 €",13-02-2015,12-02-2015,15 dias,"Portugal, Setúbal, Seixal","Artigo 20.º, n.º 1, alínea a) do Código dos Contratos Públicos","","",,,,Não aplicável.,Não aplicável.,FALSE
AQUISIÇÃO DE EQUIPAMENTO ADMINISTRATIVO PARA VÁRIAS UNIDADES DO ACES ALMADA SEIXAL,Ajuste Direto Regime Geral,Aquisição de bens móveis,"30190000-7, Equipamento e material de escritório diverso","Administração Regional de Saúde de Lisboa e Vale do Tejo, I. P. (503148776)","JULCAR MOBILIÁRIO INTEGRADO, S.A. (501140263)","4.390,10 €",13-02-2015,12-02-2015,15 dias,"Portugal, Setúbal, Almada","Artigo 20.º, n.º 1, alínea a) do Código dos Contratos Públicos","","",,,,Não aplicável.,Não aplicável.,FALSE
AQUISIÇÃO DE EQUIPAMENTO ADMINISTRATIVO PARA VÁRIAS UNIDADES DO ACES ALMADA SEIXAL,Ajuste Direto Regime Geral,Aquisição de bens móveis,"30190000-7, Equipamento e material de escritório diverso","Administração Regional de Saúde de Lisboa e Vale do Tejo, I. P. (503148776)","HAWORTH PORTUGAL - MOBILIÁRIO DE ESCRITÓRIO, S.A.  (500077622)","892,00 €",13-02-2015,12-02-2015,15 dias,"Portugal, Setúbal, Almada","Artigo 20.º, n.º 1, alínea a) do Código dos Contratos Públicos","","",,,,Não aplicável.,Não aplicável.,FALSE
"Fornecimento de comunicações fixas de dados para as instalações do DICAD, para o  período de janeiro e fevereiro de 2015.",Ajuste Direto Regime Geral,Aquisição de serviços,"64000000-6, Serviços postais e de telecomunicações","Administração Regional de Saúde de Lisboa e Vale do Tejo, I. P. (503148776)","MEO - Serviços de Comunicações Multimédia, S.A. (504615947)","1.950,00 €",13-02-2015,13-02-2015,59 dias,"Portugal, Lisboa","Artigo 24.º, n.º 1, alínea e) do Código dos Contratos Públicos","","",,,,Não aplicável.,Não aplicável.,FALSE
PRESTAÇÃO DE SERVIÇOS PARA ASSEGURAR O MANDATO JUDICIAL A PROCESSOS DA ARSLVT - ANO DE 2015.,Ajuste Direto Regime Geral,Aquisição de serviços,"79100000-5, Serviços jurídicos","Administração Regional de Saúde de Lisboa e Vale do Tejo, I. P. (503148776)","EDUARDO PAZ FERREIRA E ASSOCIADOS - SOCIEDADE DE ADVOGADOS, RL (510780962)","66.000,00 €",12-02-2015,05-02-2015,365 dias,"Portugal, Lisboa, Lisboa","Artigo 27.º, n.º 1, alínea b) do Código dos Contratos Públicos","","",,,,Não aplicável.,Não aplicável.,FALSE
AQUISIÇÃO DA PRESTAÇÃO DE SERVIÇO DE ASSISTÊNCIA TÉCNICA E  MANUTENÇÃO PREVENTIVA DAS INSTALAÇÕES AVAC DO C.S. ALCÂNTARA - ACES LISBOA OCIDENTAL E OEIRAS - EQUIPAMENTO EM PERÍODO DE GARANTIA - 2015 -,Ajuste Direto Regime Geral,Aquisição de serviços,"50000000-5, Serviços de reparação e manutenção","Administração Regional de Saúde de Lisboa e Vale do Tejo, I. P. (503148776)","Condar-Condicionamento de Ar e Ventilaçao, Lda. (500070148)","3.540,00 €",12-02-2015,27-01-2015,365 dias,"Portugal, Lisboa, Oeiras","Artigo 24.º, n.º 1, alínea e) do Código dos Contratos Públicos","","",,,,Não aplicável.,Não aplicável.,FALSE
"MODELOS EXCLUSIVOS IMPRENSA NACIONAL CASA DA MOEDA, S.A.",Ajuste Direto Regime Geral,Aquisição de bens móveis,"22820000-4, Formulários","Administração Regional de Saúde de Lisboa e Vale do Tejo, I. P. (503148776)","IMPRENSA NACIONAL - CASA DA MOEDA, S.A. (500792887)","72.604,00 €",11-02-2015,10-02-2015,20 dias,"Portugal, Lisboa, Lisboa","Artigo 24.º, n.º 1, alínea e) do Código dos Contratos Públicos","","",,,,Não aplicável.,Não aplicável.,FALSE
FORNECIMENTO DE CONSUMÍVEIS E ASSISTÊNCIA PREVENTIVA E CORRETIVA PARA O SISTEMA DE PURIFICAÇÃO DE ÁGUA MARCA MILLIPOR + ELIX +DEP.30L - SITOS NA UAAAS - LABORATÓRIO DE OEIRAS - ANO DE 2015.,Ajuste Direto Regime Geral,Aquisição de serviços,"50000000-5, Serviços de reparação e manutenção","Administração Regional de Saúde de Lisboa e Vale do Tejo, I. P. (503148776)","INTERFACE - EQUIPAMENTO E TÉCNICA, LDA (501379860)","2.083,93 €",11-02-2015,10-02-2015,365 dias,"Portugal, Lisboa, Oeiras","Artigo 24.º, n.º 1, alínea e) do Código dos Contratos Públicos","","",,,,Não aplicável.,Não aplicável.,FALSE
