Objeto do Contrato,Tipo de Procedimento,Tipo(s) de Contrato,CPVs,Entidade(s) Adjudicante(s),Entidade(s) Adjudicatária(s),Preço Contratual,Data de Publicação,Data de Celebração do Contrato,Prazo de Execução,Local de Execução,Fundamentação,Data de Fecho do Contrato,Preço Total Efetivo,Causas das Alterações ao Prazo,Causas das Alterações ao Preço,Estado,N.º registo do Acordo Quadro,Descrição do Acordo Quadro,Procedimento Centralizado
"Aquisição de Serviços de Limpeza e Manutenção dos Espaços Verdes, Pátios Ajardinados e Arruamentos e Manutenção do Sistema de Rega 2018",Ajuste Direto Regime Geral,Aquisição de serviços,"77311000-3, Serviços de manutenção de jardins ornamentais e recreativos",Hospital Prof. Doutor Fernando Fonseca E.P.E. (503035416),"Relva Viva - Gestão Florestal e Jardins, Lda. (509122833)","43.980,00 €",09-02-2018,11-01-2018,365 dias,"Portugal, Lisboa, Amadora","Artigo 20.º, n.º 1, alínea a) do Código dos Contratos Públicos",,,,,,Não aplicável.,Não aplicável.,FALSE
Tiras de determinação de Glucose e Corpos Cetónicos - 2018,Ajuste Direto Regime Geral,Aquisição de bens móveis,"33698000-9, Produtos para fins clínicos","Hospital Professor Doutor Fernando Fonseca, E.P.E. (503035416)",ROCHE SISTEMA DE DIAGNOSTICOS (504282921),"1.760,00 €",08-02-2018,03-01-2018,308 dias,"Portugal, Lisboa, Amadora","Artigo 20.º, n.º 1, alínea a) do Código dos Contratos Públicos",,,,,,Não aplicável.,Não aplicável.,FALSE
Tiras de determinação de Glucose e Corpos Cetónicos - 2018,Ajuste Direto Regime Geral,Aquisição de bens móveis,"33698000-9, Produtos para fins clínicos","Hospital Professor Doutor Fernando Fonseca, E.P.E. (503035416)","ABBOTT LABORATÓRIOS, LDA. (500006148)","54.700,00 €",08-02-2018,26-01-2018,308 dias,"Portugal, Lisboa, Amadora","Artigo 20.º, n.º 1, alínea a) do Código dos Contratos Públicos",,,,,,Não aplicável.,Não aplicável.,FALSE
Aquisição de equipamentos e serviços de manutenção e assistência técnica aos Pacs Carestream instalados nas Entidades do Ministério da Saúde para o ano de 2018,Ajuste Direto Regime Geral,Aquisição de serviços,"72500000-0, Serviços relacionados com a informática","Hospital Professor Doutor Fernando Fonseca, E. P. E. (503035416)","CARESTREAM HEALTH PORTUGAL,LDA (508054320)","25.000,00 €",02-02-2018,02-01-2018,365 dias,"Portugal, Lisboa, Amadora","Artigo 24.º, n.º 1, alínea e) do Código dos Contratos Públicos",,,,,,Não aplicável.,Não aplicável.,FALSE
Pacemaker,Ajuste Direto Regime Geral,Aquisição de bens móveis,"33182210-4, Estimulador cardíaco (pacemaker)","Hospital Professor Doutor Fernando Fonseca, E. P. E. (503035416)",BIOTRONIK PORTUGAL UNIPESSOAL LDA (510726941),"32.000,00 €",01-02-2018,15-01-2018,166 dias,"Portugal, Lisboa, Amadora","Artigo 24.º, n.º 1, alínea c) do Código dos Contratos Públicos",,,,,,Não aplicável.,Não aplicável.,FALSE
Pacemaker,Ajuste Direto Regime Geral,Aquisição de bens móveis,"33182210-4, Estimulador cardíaco (pacemaker)","Hospital Professor Doutor Fernando Fonseca, E. P. E. (503035416)","LIVANOVA PORTUGAL, LDA. (505514010)","42.265,00 €",01-02-2018,03-01-2018,332 dias,"Portugal, Lisboa, Amadora","Artigo 24.º, n.º 1, alínea c) do Código dos Contratos Públicos",,,,,,Não aplicável.,Não aplicável.,FALSE
Implante Cocleares,Ajuste Direto Regime Geral,Aquisição de bens móveis,"33185200-2, Implante coclear",Hospital Prof. Doutor Fernando Fonseca E.P.E. (503035416),"Coselgi Portugal, S.A - Grupo Widex (509230598)","161.150,00 €",01-02-2018,03-01-2018,332 dias,"Portugal, Lisboa, Amadora","Artigo 24.º, n.º 1, alínea a) do Código dos Contratos Públicos",,,,,,Não aplicável.,Não aplicável.,FALSE
Aquisição de Medicamentos do Aparelho Locomotor para 2018 ao abrigo do Acordo Quadro 2015/47,Ao abrigo de acordo-quadro (art.º 259.º),Aquisição de bens móveis,"33600000-6, Produtos farmacêuticos","Hospital Professor Doutor Fernando Fonseca, E. P. E. (503035416)","LABORATORIOS NORMON, S.A (505654156)","1.056,00 €",31-01-2018,24-01-2018,341 dias,"Portugal, Lisboa, Amadora",Artigo 259.º do Código dos Contratos Públicos,,,,,,1410779,CP 2015/47 - Acordo quadro para fornecimento de medicamentos do aparelho locomotor às instituições e serviços do serviço nacional de saúde,FALSE
Aquisição de Medicamentos do Aparelho Locomotor para 2018 ao abrigo do Acordo Quadro 2015/47,Ao abrigo de acordo-quadro (art.º 259.º),Aquisição de bens móveis,"33600000-6, Produtos farmacêuticos","Hospital Professor Doutor Fernando Fonseca, E. P. E. (503035416)",BIAL PORTELA COMPANHIA SA (500220913),"86,24 €",31-01-2018,24-01-2018,341 dias,"Portugal, Lisboa, Amadora",Artigo 259.º do Código dos Contratos Públicos,,,,,,1410779,CP 2015/47 - Acordo quadro para fornecimento de medicamentos do aparelho locomotor às instituições e serviços do serviço nacional de saúde,FALSE
Aquisição de Medicamentos do Aparelho Locomotor para 2018 ao abrigo do Acordo Quadro 2015/47,Ao abrigo de acordo-quadro (art.º 259.º),Aquisição de bens móveis,"33600000-6, Produtos farmacêuticos","Hospital Professor Doutor Fernando Fonseca, E. P. E. (503035416)","LABESFAL-LAB. ALMIRO, SA. (501169580)","759,40 €",31-01-2018,24-01-2018,341 dias,"Portugal, Lisboa, Amadora",Artigo 259.º do Código dos Contratos Públicos,,,,,,1410779,CP 2015/47 - Acordo quadro para fornecimento de medicamentos do aparelho locomotor às instituições e serviços do serviço nacional de saúde,FALSE
Aquisição de Medicamentos do Aparelho Locomotor para 2018 ao abrigo do Acordo Quadro 2015/47,Ao abrigo de acordo-quadro (art.º 259.º),Aquisição de bens móveis,"33600000-6, Produtos farmacêuticos","Hospital Professor Doutor Fernando Fonseca, E. P. E. (503035416)","HIKMA FARMACEUTICA (PORTUGAL), LDA. (502266791)","1.790,00 €",31-01-2018,24-01-2018,341 dias,"Portugal, Lisboa, Amadora",Artigo 259.º do Código dos Contratos Públicos,,,,,,1410779,CP 2015/47 - Acordo quadro para fornecimento de medicamentos do aparelho locomotor às instituições e serviços do serviço nacional de saúde,FALSE
Aquisição de Medicamentos do Aparelho Locomotor para 2018 ao abrigo do Acordo Quadro 2015/47,Ao abrigo de acordo-quadro (art.º 259.º),Aquisição de bens móveis,"33600000-6, Produtos farmacêuticos","Hospital Professor Doutor Fernando Fonseca, E. P. E. (503035416)",ACCORD HEALTHCARE UNIPESSOAL LDA (508622263),"6.400,00 €",31-01-2018,24-01-2018,341 dias,"Portugal, Lisboa, Amadora",Artigo 259.º do Código dos Contratos Públicos,,,,,,1410779,CP 2015/47 - Acordo quadro para fornecimento de medicamentos do aparelho locomotor às instituições e serviços do serviço nacional de saúde,FALSE
Aquisição de Medicamentos do Aparelho Locomotor para 2018 ao abrigo do Acordo Quadro 2015/47,Ao abrigo de acordo-quadro (art.º 259.º),Aquisição de bens móveis,"33600000-6, Produtos farmacêuticos","Hospital Professor Doutor Fernando Fonseca, E. P. E. (503035416)","GENERIS-FARMACEUTICA, S.A. (508107997)","332,80 €",31-01-2018,24-01-2018,341 dias,"Portugal, Lisboa, Amadora",Artigo 259.º do Código dos Contratos Públicos,,,,,,1410779,CP 2015/47 - Acordo quadro para fornecimento de medicamentos do aparelho locomotor às instituições e serviços do serviço nacional de saúde,FALSE
"Aquisição de Medicação Antialérgica, vitaminas e sais minerais, medicamentos usados no tratamento de intoxicações e grupo 20.9 para 2018 ao abrigo do Acordo Quadro 2014/50",Ao abrigo de acordo-quadro (art.º 259.º),Aquisição de bens móveis,"33600000-6, Produtos farmacêuticos","Hospital Professor Doutor Fernando Fonseca, E. P. E. (503035416)","HIKMA FARMACEUTICA (PORTUGAL), LDA. (502266791)","1.995,00 €",31-01-2018,24-01-2018,341 dias,"Portugal, Lisboa, Amadora",Artigo 259.º do Código dos Contratos Públicos,,,,,,1338581,"Acordo quadro para fornecimento de Medicação antialérgica, medicamentos usados no tratamento de intoxicações, vitaminas e sais minerais e grupo 20.9 - outros produtos às instituições e serviços do serviço nacional de saúde",FALSE
"Aquisição de Medicação Antialérgica, vitaminas e sais minerais, medicamentos usados no tratamento de intoxicações e grupo 20.9 para 2018 ao abrigo do Acordo Quadro 2014/50",Ao abrigo de acordo-quadro (art.º 259.º),Aquisição de bens móveis,"33600000-6, Produtos farmacêuticos","Hospital Professor Doutor Fernando Fonseca, E. P. E. (503035416)",AUROVITAS UNIPESSOAL (513053239),"33,60 €",31-01-2018,24-01-2018,341 dias,"Portugal, Lisboa, Amadora",Artigo 259.º do Código dos Contratos Públicos,,,,,,1338581,"Acordo quadro para fornecimento de Medicação antialérgica, medicamentos usados no tratamento de intoxicações, vitaminas e sais minerais e grupo 20.9 - outros produtos às instituições e serviços do serviço nacional de saúde",FALSE
"Aquisição de Medicação Antialérgica, vitaminas e sais minerais, medicamentos usados no tratamento de intoxicações e grupo 20.9 para 2018 ao abrigo do Acordo Quadro 2014/50",Ao abrigo de acordo-quadro (art.º 259.º),Aquisição de bens móveis,"33600000-6, Produtos farmacêuticos","Hospital Professor Doutor Fernando Fonseca, E. P. E. (503035416)","GENERIS-FARMACEUTICA, S.A. (508107997)","71,20 €",31-01-2018,24-01-2018,341 dias,"Portugal, Lisboa, Amadora",Artigo 259.º do Código dos Contratos Públicos,,,,,,1338581,"Acordo quadro para fornecimento de Medicação antialérgica, medicamentos usados no tratamento de intoxicações, vitaminas e sais minerais e grupo 20.9 - outros produtos às instituições e serviços do serviço nacional de saúde",FALSE
Aquisição de Medicamentos Antiretrovíricos para o Tratamento da Infeção por VIH para 2018 ao Abrigo do Acordo Quadro 2016/40,Ao abrigo de acordo-quadro (art.º 259.º),Aquisição de bens móveis,"33600000-6, Produtos farmacêuticos","Hospital Professor Doutor Fernando Fonseca, E. P. E. (503035416)","MYLAN, LDA. (502248793)","1.505,00 €",31-01-2018,24-01-2018,341 dias,"Portugal, Lisboa, Amadora",Artigo 259.º do Código dos Contratos Públicos,,,,,,2183729,Medicamentos antirretrovíricos para o tratamento da infeção por VIH,FALSE
Aquisição de Medicamentos Antiretrovíricos para o Tratamento da Infeção por VIH para 2018 ao Abrigo do Acordo Quadro 2016/40,Ao abrigo de acordo-quadro (art.º 259.º),Aquisição de bens móveis,"33600000-6, Produtos farmacêuticos","Hospital Professor Doutor Fernando Fonseca, E. P. E. (503035416)","FARMOZ-SOC.TECNICO MEDICINAL, SA (501505334)","29.185,50 €",31-01-2018,24-01-2018,341 dias,"Portugal, Lisboa, Amadora",Artigo 259.º do Código dos Contratos Públicos,,,,,,2183729,Medicamentos antirretrovíricos para o tratamento da infeção por VIH,FALSE
Aquisição de Medicamentos Antiretrovíricos para o Tratamento da Infeção por VIH para 2018 ao Abrigo do Acordo Quadro 2016/40,Ao abrigo de acordo-quadro (art.º 259.º),Aquisição de bens móveis,"33600000-6, Produtos farmacêuticos","Hospital Professor Doutor Fernando Fonseca, E. P. E. (503035416)","SANDOZ FARMACEUTICA, LDA (506985261)","74.420,50 €",31-01-2018,24-01-2018,341 dias,"Portugal, Lisboa, Amadora",Artigo 259.º do Código dos Contratos Públicos,,,,,,2183729,Medicamentos antirretrovíricos para o tratamento da infeção por VIH,FALSE
