Objeto do Contrato,Tipo de Procedimento,Tipo(s) de Contrato,CPVs,Entidade(s) Adjudicante(s),Entidade(s) Adjudicatária(s),Preço Contratual,Data de Publicação,Data de Celebração do Contrato,Prazo de Execução,Local de Execução,Fundamentação,Data de Fecho do Contrato,Preço Total Efetivo,Causas das Alterações ao Prazo,Causas das Alterações ao Preço,Estado,N.º registo do Acordo Quadro,Descrição do Acordo Quadro,Procedimento Centralizado
AQUISIÇÃO DE DIVERSO MATERIAL ANTI EMBOLIA ( MEIAS ANTI EMBOLICAS ),Ajuste Direto Regime Geral,Aquisição de bens móveis,"33141000-0, Material médico não químico descartável e produtos hematológicos","Centro Hospitalar Tondela-Viseu, E. P. E. (509822940)","MEDI-BAYREUTH UNIP,LDA (502577274)","32.045,00 €",10-11-2014,23-10-2014,1 dias,"Portugal, Viseu, Viseu","Artigo 20.º, n.º 1, alínea a) do Código dos Contratos Públicos",,,,,,Não aplicável.,Não aplicável.,FALSE
AQUISIÇÃO DE DARBEPOETINA ALFA SERINGA,Ajuste Direto Regime Geral,Aquisição de bens móveis,"33600000-6, Produtos farmacêuticos","Centro Hospitalar Tondela-Viseu, E. P. E. (509822940)","AMGEN - BIOFARMACEUTICA, LDA (502942959)","7.050,24 €",06-11-2014,30-09-2014,1 dias,"Portugal, Viseu, Viseu","Artigo 24.º, n.º 1, alínea e) do Código dos Contratos Públicos",,,,,,Não aplicável.,Não aplicável.,FALSE
AQUISIÇÃO DE DEXAMETASONA 4MG COMP,Ajuste Direto Regime Geral,Aquisição de bens móveis,"33600000-6, Produtos farmacêuticos","Centro Hospitalar Tondela-Viseu, E. P. E. (509822940)",ETIOPHARMA (509393357),"5.940,00 €",06-11-2014,16-09-2014,1 dias,"Portugal, Viseu, Viseu","Artigo 24.º, n.º 1, alínea c) do Código dos Contratos Públicos",,,,,,Não aplicável.,Não aplicável.,FALSE
AQUISIÇÃO DE CABAZITAXEL 60 MG/1.5 ML,Ajuste Direto Regime Geral,Aquisição de bens móveis,"33600000-6, Produtos farmacêuticos","Centro Hospitalar Tondela-Viseu, E. P. E. (509822940)","Sanofi-Produtos Farmaceuticos,Lda (500134960)","15.884,00 €",06-11-2014,25-09-2014,1 dias,"Portugal, Viseu, Viseu","Artigo 24.º, n.º 1, alínea e) do Código dos Contratos Públicos",,,,,,Não aplicável.,Não aplicável.,FALSE
AQUISIÇÃO DE BENDAMUSTINA 25MG AMP,Ajuste Direto Regime Geral,Aquisição de bens móveis,"33600000-6, Produtos farmacêuticos","Centro Hospitalar Tondela-Viseu, E. P. E. (509822940)",CPH-CIA PORTUGESA DE HIGIENE (000000000),"5.413,32 €",06-11-2014,26-09-2014,1 dias,"Portugal, Viseu, Viseu","Artigo 24.º, n.º 1, alínea e) do Código dos Contratos Públicos",,,,,,Não aplicável.,Não aplicável.,FALSE
AQUISIÇÃO DE BOCEPREVIR 200MG CAPS,Ajuste Direto Regime Geral,Aquisição de bens móveis,"33600000-6, Produtos farmacêuticos","Centro Hospitalar Tondela-Viseu, E. P. E. (509822940)","MERCK,SHARP & DOHME, LDA (500191360)","12.300,02 €",06-11-2014,25-09-2014,1 dias,"Portugal, Viseu, Viseu","Artigo 24.º, n.º 1, alínea e) do Código dos Contratos Públicos",,,,,,Não aplicável.,Não aplicável.,FALSE
AQUISIÇÃO DE NILOTINIB 150MG CAPS,Ajuste Direto Regime Geral,Aquisição de bens móveis,"33600000-6, Produtos farmacêuticos","Centro Hospitalar Tondela-Viseu, E. P. E. (509822940)","NOVARTIS FARMA, SA (500063524)","32.331,79 €",06-11-2014,02-10-2014,1 dias,"Portugal, Viseu, Viseu","Artigo 26.º, n.º 1, alínea e) do Código dos Contratos Públicos",,,,,,Não aplicável.,Não aplicável.,FALSE
AQUISIÇÃO DE DIVERSO MATERIAL CLINICO PARA LAPAROSCOPIA,Ajuste Direto Regime Geral,Aquisição de bens móveis,"33141000-0, Material médico não químico descartável e produtos hematológicos","Centro Hospitalar Tondela-Viseu, E. P. E. (509822940)","B.BRAUN MEDICAL, LDA (501506543)","15.592,80 €",06-11-2014,11-09-2014,1 dias,"Portugal, Viseu, Viseu","Artigo 24.º, n.º 1, alínea e) do Código dos Contratos Públicos",,,,,,Não aplicável.,Não aplicável.,FALSE
AQUISIÇÃO DE DIVERSO MATERIAL CLINICO PARA LAPAROSCOPIA,Ajuste Direto Regime Geral,Aquisição de bens móveis,"33141100-1, Pensos; clipes, suturas, ligaduras","Centro Hospitalar Tondela-Viseu, E. P. E. (509822940)",TELEFLEX MEDICAL (980249783),"25.264,40 €",06-11-2014,11-09-2014,1 dias,"Portugal, Viseu, Viseu","Artigo 24.º, n.º 1, alínea e) do Código dos Contratos Públicos",,,,,,Não aplicável.,Não aplicável.,FALSE
"EMPREITADA """"AMPLIAÇÃO E RETIFIÇÃO DAS INSTALAÇÕES ELETRICAS DO HOSPITAL CANDIDO FIGUEIREDO - TONDELA""""",Ajuste Direto Regime Geral,Empreitadas de obras públicas,"45310000-3, Obras de instalação eléctrica","Centro Hospitalar de Tondela - Viseu, E.P.E. (509822940)",VISOTELA-SDE TECN.ELECTROMECANICA (500628718),"36.311,61 €",05-11-2014,16-09-2014,1 dias,"Portugal, Viseu, Viseu","Artigo 19.º, alínea a) do Código dos Contratos Públicos",,,,,,Não aplicável.,Não aplicável.,FALSE
AQUISIÇÃO DE REMODELAÇÃO DO SISTEMA DE TRATAMENTO DE ÁGUAS DA HEMODIÁLISE,Ajuste Direto Regime Geral,Aquisição de bens móveis,"33181000-2, Material de assistência à função renal","Centro Hospitalar Tondela-Viseu, E. P. E. (509822940)","FRESENIUS MEDICAL CARE PORTUGAL, SA (503070220)","55.000,00 €",05-11-2014,31-10-2014,1 dias,"Portugal, Viseu, Viseu","Artigo 20.º, n.º 1, alínea a) do Código dos Contratos Públicos",,,,,,Não aplicável.,Não aplicável.,FALSE
AQUISIÇÃO DE INTENSIFICADOR DE IMAGEM PARA PACING CARDIACO,Ajuste Direto Regime Geral,Aquisição de bens móveis,"33124200-7, Aparelhos para radiodiagnóstico","Centro Hospitalar Tondela-Viseu, E. P. E. (509822940)","SIEMENS, SA (500247480)","74.999,00 €",05-11-2014,30-09-2014,1 dias,"Portugal, Viseu, Viseu","Artigo 20.º, n.º 1, alínea a) do Código dos Contratos Públicos",,,,,,Não aplicável.,Não aplicável.,FALSE
AQUISIÇÃO DE SISTEMA DE SERINGAS PARA BOMBAS ADMINISTRAÇÃO,Ajuste Direto Regime Geral,Aquisição de bens móveis,"33141000-0, Material médico não químico descartável e produtos hematológicos","Centro Hospitalar Tondela-Viseu, E. P. E. (509822940)","B.BRAUN MEDICAL, LDA (501506543)","67.106,00 €",05-11-2014,16-10-2014,1 dias,"Portugal, Viseu, Viseu","Artigo 24.º, n.º 1, alínea e) do Código dos Contratos Públicos",,,,,,Não aplicável.,Não aplicável.,FALSE
AQUISIÇÃO DE DIVERSA ROUPA HOSPITALAR,Ajuste Direto Regime Geral,Aquisição de bens móveis,"39518000-6, Roupa para uso hospitalar","Centro Hospitalar Tondela-Viseu, E. P. E. (509822940)",MUNDIFATO-RIBEIRO & CARLOS (502383542),"55.564,40 €",05-11-2014,17-10-2014,1 dias,"Portugal, Viseu, Viseu","Artigo 20.º, n.º 1, alínea a) do Código dos Contratos Públicos",,,,,,Não aplicável.,Não aplicável.,FALSE
AQUISIÇÃO DE SUBCONTRATAÇÃO DE SERVIÇOS MÉDICOS URG. POLIVALENTE E VMER,Ajuste Direto Regime Geral,Aquisição de serviços,"85141000-9, Serviços prestados pelo pessoal médico","Centro Hospitalar Tondela-Viseu, E. P. E. (509822940)","CICLOCEDE, LDA (508713986)","288.570,00 €",05-11-2014,25-06-2014,1 dias,"Portugal, Viseu, Viseu","Artigo 27.º, n.º 1, alínea a) do Código dos Contratos Públicos",,,,,,Não aplicável.,Não aplicável.,FALSE
CENTRIFUGAS - LABORATÓRIO,Ajuste Direto Regime Geral,Aquisição de bens móveis,"38436000-0, Agitadores e acessórios","Centro Hospitalar Tondela-Viseu, E. P. E. (509822940)",IZASA PORTUGAL-DISTR.TECNIC. (501086110),"35.600,00 €",03-11-2014,31-10-2014,1 dias,"Portugal, Viseu, Viseu","Artigo 20.º, n.º 1, alínea a) do Código dos Contratos Públicos",,,,,,Não aplicável.,Não aplicável.,FALSE
