Objeto do Contrato,Tipo de Procedimento,Tipo(s) de Contrato,CPVs,Entidade(s) Adjudicante(s),Entidade(s) Adjudicatária(s),Preço Contratual,Data de Publicação,Data de Celebração do Contrato,Prazo de Execução,Local de Execução,Fundamentação,Data de Fecho do Contrato,Preço Total Efetivo,Causas das Alterações ao Prazo,Causas das Alterações ao Preço,Estado,N.º registo do Acordo Quadro,Descrição do Acordo Quadro,Procedimento Centralizado
"AD 78-2017 - Aquisição de Serviços de Triagem Médica dos Serviços de Urgência, ao abrigo do AQ - CP2015/102 - Prestação de Serviços Médicos",Ao abrigo de acordo-quadro (art.º 259.º),Aquisição de serviços,"85000000-9, Serviços de saúde e acção social","Centro Hospitalar Cova da Beira, E. P. E. (506361659)","Medipeople - Soluções de Saúde e Educação, Lda. (508543436)","201.432,00 €",13-03-2018,12-01-2018,365 dias,"Portugal, Castelo Branco, Covilhã",Artigo 259.º do Código dos Contratos Públicos,,,,,,3323131,Prestação de serviço de vigilância e segurança humana e de ligação a central de receção e monitorização de alarmes,FALSE
AD 104/2017 Prestação de serviços de assistência técnica aos equipamentos instalados nos Serviços Gastroenterologia e UMR,Ajuste Direto Regime Geral,Aquisição de serviços,"50421000-2, Serviços de reparação e manutenção de equipamento médico","Centro Hospitalar Cova da Beira, EPE (506361659)","IBERDATA EQUIPAMENTOS, SA (501904921)","28.600,00 €",13-03-2018,15-02-2018,365 dias,"Portugal, Castelo Branco, Covilhã","Artigo 20.º, n.º 1, alínea a) do Código dos Contratos Públicos",,,,,,Não aplicável.,Não aplicável.,FALSE
Aquisição de Serviços de manutenção preventiva dos sistemas de segurança e gestão técnica centralizada,Ajuste Direto Regime Geral,Aquisição de serviços,"50000000-5, Serviços de reparação e manutenção","Centro Hospitalar Cova da Beira, E. P. E. (506361659)","Honeywell Portugal - Automação e Controlo, S.A (500908680)","6.170,00 €",09-03-2018,08-03-2018,365 dias,"Portugal, Castelo Branco, Covilhã","Artigo 24.º, n.º 1, alínea e), subalínea ii) do Código dos Contratos Públicos",,,,,,Não aplicável.,Não aplicável.,FALSE
Agregação Serviços de Manutenção de Instalações de Elevação.,Ao abrigo de acordo-quadro (art.º 259.º),Aquisição de serviços,"50000000-5, Serviços de reparação e manutenção","Centro Hospitalar Cova da Beira, E. P. E. (506361659)","Pinto & Cruz, S.A. (500217904)","9.900,00 €",09-03-2018,12-01-2018,365 dias,"Portugal, Castelo Branco, Covilhã",Artigo 259.º do Código dos Contratos Públicos,,,,,,3323239,Aquisição de serviço móvel terrestre,FALSE
"Prestação de serviços de assistência técnica ao equipamento FDS 330, instalado nos Serviços Farmacêuticos",Ajuste Direto Regime Geral,Aquisição de serviços,"50400000-9, Serviços de reparação e manutenção de equipamento médico e de precisão","Centro Hospitalar Cova da Beira, EPE (506361659)","BAXTER MEDICO FARMACEUTICA, LDA (503347345)","18.741,36 €",07-03-2018,04-01-2018,365 dias,"Portugal, Castelo Branco, Covilhã","Artigo 20.º, n.º 1, alínea a) do Código dos Contratos Públicos",,,,,,Não aplicável.,Não aplicável.,FALSE
Aquisição de medicamentos ao abrigo do AQ 2015/6 e 2016/40 para as instituições do SNS - P259-AC-2017-155.,Ao abrigo de acordo-quadro (art.º 259.º),Aquisição de bens móveis,"33000000-0, Equipamento médico, medicamentos e produtos para cuidados pessoais","Centro Hospitalar Cova da Beira, E. P. E. (506361659)",Bristol Myers Squibb (500048193),"13.886,13 €",07-03-2018,10-01-2018,365 dias,"Portugal, Castelo Branco, Covilhã",Artigo 259.º do Código dos Contratos Públicos,,,,,,3053200,"CP 2017/64 - Acordo Quadro para fornecimento de Medicamentos Diversos, às Instituições e Serviços do Serviço Nacional de Saúde",FALSE
Aquisição de medicamentos ao abrigo do AQ 2015/6 para as instituições do SNS,Ao abrigo de acordo-quadro (art.º 259.º),Aquisição de bens móveis,"33600000-6, Produtos farmacêuticos","Centro Hospitalar Cova da Beira, EPE (506361659)","ASTRAZENECA PRODUTOS FARMACEUTICOS, LDA (502942240)","151,14 €",07-03-2018,27-12-2017,365 dias,"Portugal, Castelo Branco, Covilhã",Artigo 259.º do Código dos Contratos Públicos,,,,,,1771819,CP 2015/6 - Acordo quadro para o fornecimento de Medicamentos do Foro Oncológico,TRUE
AQUISIÇÃO MEDICAMENTOS CP2015/6 CP2017/61 CP2017/2 PARA INSTITUIÇÕES DO SNS 2018 - P259-AC-2017-193,Ao abrigo de acordo-quadro (art.º 259.º),Aquisição de bens móveis,"33600000-6, Produtos farmacêuticos","Centro Hospitalar Cova da Beira, EPE (506361659)",Biogen Portugal Lda (506415740),"68.280,92 €",07-03-2018,11-01-2018,365 dias,"Portugal, Castelo Branco, Covilhã",Artigo 259.º do Código dos Contratos Públicos,,,,,,1771819,CP 2015/6 - Acordo quadro para o fornecimento de Medicamentos do Foro Oncológico,TRUE
AQUISIÇÃO MEDICAMENTOS CP 2015/6 PARA INSTITUIÇÕES DO SNS - Ref.ª P259-AC-2017-186.,Ao abrigo de acordo-quadro (art.º 259.º),Aquisição de bens móveis,"33600000-6, Produtos farmacêuticos","Centro Hospitalar Cova da Beira, EPE (506361659)","ROCHE FARMACEUTICA QUIMICA, LDA (500233810)","16.314,48 €",07-03-2018,16-01-2018,365 dias,"Portugal, Castelo Branco, Covilhã",Artigo 259.º do Código dos Contratos Públicos,,,,,,1771819,CP 2015/6 - Acordo quadro para o fornecimento de Medicamentos do Foro Oncológico,TRUE
Aquisição de Medicamentos para o SNS - Ref.ª P259-AC-2017-174,Ao abrigo de acordo-quadro (art.º 259.º),Aquisição de bens móveis,"33600000-6, Produtos farmacêuticos","Centro Hospitalar Cova da Beira, EPE (506361659)",Biogen Portugal Lda (506415740),"181.160,88 €",07-03-2018,03-01-2018,365 dias,"Portugal, Castelo Branco, Covilhã",Artigo 259.º do Código dos Contratos Públicos,,,,,,1771819,CP 2015/6 - Acordo quadro para o fornecimento de Medicamentos do Foro Oncológico,TRUE
AQUISIÇÃO DE MEDICAMENTOS PARA O SNS,Ao abrigo de acordo-quadro (art.º 259.º),Aquisição de bens móveis,"33600000-6, Produtos farmacêuticos","Centro Hospitalar Cova da Beira, E. P. E. (506361659)",Baxter Medico Farmaceutica Lda (503347345),"948,38 €",05-03-2018,05-01-2018,365 dias,"Portugal, Castelo Branco, Covilhã",Artigo 259.º do Código dos Contratos Públicos,,,,,,1771819,CP 2015/6 - Acordo quadro para o fornecimento de Medicamentos do Foro Oncológico,TRUE
Aquisição de Medicamentos para o SNS - Ref.ª P259-AC-2017-190,Ao abrigo de acordo-quadro (art.º 259.º),Aquisição de bens móveis,"33600000-6, Produtos farmacêuticos","Centro Hospitalar Cova da Beira, EPE (506361659)","GILEAD SCIENCES, LDA. (503604704)","12.010,02 €",05-03-2018,03-01-2018,365 dias,"Portugal, Castelo Branco, Covilhã",Artigo 259.º do Código dos Contratos Públicos,,,,,,1771819,CP 2015/6 - Acordo quadro para o fornecimento de Medicamentos do Foro Oncológico,TRUE
