Objeto do Contrato,Tipo de Procedimento,Tipo(s) de Contrato,CPVs,Entidade(s) Adjudicante(s),Entidade(s) Adjudicatária(s),Preço Contratual,Data de Publicação,Data de Celebração do Contrato,Prazo de Execução,Local de Execução,Fundamentação,Data de Fecho do Contrato,Preço Total Efetivo,Causas das Alterações ao Prazo,Causas das Alterações ao Preço,Estado,N.º registo do Acordo Quadro,Descrição do Acordo Quadro,Procedimento Centralizado
Aquisição de produtos de apoio,Ajuste Direto Regime Geral,Aquisição de serviços,"85000000-9, Serviços de saúde e acção social","CENTRO HOSPITALAR LISBOA NORTE, EPE (508481287)","Gaes, Lda. (503134139)","520,00 €",01-12-2015,01-12-2015,5 dias,"Portugal, Lisboa, Lisboa","Artigo 20.º, n.º 1, alínea a) do Código dos Contratos Públicos",,,,,,Não aplicável.,Não aplicável.,FALSE
Aquisição de protese valvular,Ajuste Direto Regime Geral,Aquisição de bens móveis,"33190000-8, Dispositivos e produtos médicos variados","CENTRO HOSPITALAR LISBOA NORTE, EPE (508481287)","Edwards Lifesciences, Lda. (508014832)","18.000,00 €",01-12-2015,01-12-2015,1 dias,"Portugal, Lisboa, Lisboa","Artigo 20.º, n.º 1, alínea a) do Código dos Contratos Públicos",,,,,,Não aplicável.,Não aplicável.,FALSE
Aquisição de valvulas aorticas,Ajuste Direto Regime Geral,Aquisição de bens móveis,"33190000-8, Dispositivos e produtos médicos variados","CENTRO HOSPITALAR LISBOA NORTE, EPE (508481287)","Edwards Lifesciences, Lda. (508014832)","13.000,00 €",01-12-2015,01-12-2015,1 dias,"Portugal, Lisboa, Lisboa","Artigo 20.º, n.º 1, alínea a) do Código dos Contratos Públicos",,,,,,Não aplicável.,Não aplicável.,FALSE
Aquisição de material diverso para o Serviço de Cirurgia Pediátrica,Ajuste Direto Regime Geral,Aquisição de bens móveis,"33140000-3, Material médico de consumo","CENTRO HOSPITALAR LISBOA NORTE, EPE (508481287)","J & J, Lda. (500153370)","6.208,47 €",01-12-2015,01-12-2015,1 dias,"Portugal, Lisboa, Lisboa","Artigo 20.º, n.º 1, alínea a) do Código dos Contratos Públicos",,,,,,Não aplicável.,Não aplicável.,FALSE
Aquisição de CDI DR,Ajuste Direto Regime Geral,Aquisição de bens móveis,"33140000-3, Material médico de consumo","CENTRO HOSPITALAR LISBOA NORTE, EPE (508481287)","Sorincardio, Lda. (505514010)","11.320,00 €",01-12-2015,01-12-2015,1 dias,"Portugal, Lisboa, Lisboa","Artigo 20.º, n.º 1, alínea a) do Código dos Contratos Públicos",,,,,,Não aplicável.,Não aplicável.,FALSE
"Prestação de serviços na area de logistica e Stocks do CHLN, EPE",Ajuste Direto Regime Geral,Aquisição de serviços,"79620000-6, Serviços de fornecimento de pessoal, inclusive temporário","CENTRO HOSPITALAR LISBOA NORTE, EPE (508481287)","Egor Outsourcing, Lda. (504136992)","2.180,00 €",01-12-2015,01-12-2015,31 dias,"Portugal, Lisboa, Lisboa","Artigo 20.º, n.º 1, alínea a) do Código dos Contratos Públicos",,,,,,Não aplicável.,Não aplicável.,FALSE
Aquisição de indapamida,Ajuste Direto Regime Geral,Aquisição de bens móveis,"33690000-3, Medicamentos vários","CENTRO HOSPITALAR LISBOA NORTE, EPE (508481287)","Generis, SA (508107997)","3,60 €",01-12-2015,01-12-2015,1 dias,"Portugal, Lisboa, Lisboa","Artigo 20.º, n.º 1, alínea a) do Código dos Contratos Públicos",,,,,,Não aplicável.,Não aplicável.,FALSE
Aquisição de esmolol,Ajuste Direto Regime Geral,Aquisição de bens móveis,"33690000-3, Medicamentos vários","CENTRO HOSPITALAR LISBOA NORTE, EPE (508481287)","Baxter, Lda. (503347345)","6.000,00 €",01-12-2015,01-12-2015,1 dias,"Portugal, Lisboa, Lisboa","Artigo 24.º, n.º 1, alínea e) do Código dos Contratos Públicos",,,,,,Não aplicável.,Não aplicável.,FALSE
Aquisição de iomeprol,Ajuste Direto Regime Geral,Aquisição de bens móveis,"33690000-3, Medicamentos vários","CENTRO HOSPITALAR LISBOA NORTE, EPE (508481287)","Laboratórios Rovi, SA  (980166705)","5.722,20 €",01-12-2015,01-12-2015,1 dias,"Portugal, Lisboa, Lisboa","Artigo 24.º, n.º 1, alínea e) do Código dos Contratos Públicos",,,,,,Não aplicável.,Não aplicável.,FALSE
Aquisição de clorohexidina,Ajuste Direto Regime Geral,Aquisição de bens móveis,"33690000-3, Medicamentos vários","Centro Hospitalar Lisboa Norte, E. P. E. (508481287)","Acofarma Distribucion, SA (ESA81665945)","171,60 €",01-12-2015,30-11-2015,1 dias,"Portugal, Lisboa, Lisboa","Artigo 20.º, n.º 1, alínea a) do Código dos Contratos Públicos",,,,,,Não aplicável.,Não aplicável.,FALSE
Fornecimento de medidor de pressão,Ajuste Direto Regime Geral,Aquisição de serviços,"72410000-7, Serviços de fornecimento","Centro Hospitalar Lisboa Norte, E. P. E. (508481287)","Covidien, Lda. (503413410)","525,00 €",01-12-2015,01-12-2015,2 dias,"Portugal, Lisboa, Lisboa","Artigo 20.º, n.º 1, alínea a) do Código dos Contratos Públicos",,,,,,Não aplicável.,Não aplicável.,FALSE
"Serviços de manutenção e assistência técnica ao parque de impressão instalado no CHLN, EPE",Ajuste Direto Regime Geral,Aquisição de serviços,"50000000-5, Serviços de reparação e manutenção","Centro Hospitalar Lisboa Norte, E. P. E. (508481287)","Canon Portugal, SA (507477740)","7.870,30 €",30-11-2015,30-11-2015,30 dias,"Portugal, Lisboa, Lisboa","Artigo 20.º, n.º 1, alínea a) do Código dos Contratos Públicos",,,,,,Não aplicável.,Não aplicável.,FALSE
Aquisição de lenalidomida,Ajuste Direto Regime Geral,Aquisição de bens móveis,"33690000-3, Medicamentos vários","Centro Hospitalar Lisboa Norte, E. P. E. (508481287)","Celgene, Lda. (507791690)","49.246,70 €",30-11-2015,12-11-2015,1 dias,"Portugal, Lisboa, Lisboa","Artigo 24.º, n.º 1, alínea e) do Código dos Contratos Públicos",,,,,,Não aplicável.,Não aplicável.,FALSE
Reparação de aparelho de anestesia,Ajuste Direto Regime Geral,Aquisição de serviços,"50420000-5, Serviços de reparação e manutenção de equipamento médico e cirúrgico","Centro Hospitalar Lisboa Norte, E. P. E. (508481287)","Geranswers, Lda. (507683528)","6.680,00 €",30-11-2015,30-11-2015,30 dias,"Portugal, Lisboa, Lisboa","Artigo 20.º, n.º 1, alínea a) do Código dos Contratos Públicos",,,,,,Não aplicável.,Não aplicável.,FALSE
Aquisição de canulas,Ajuste Direto Regime Geral,Aquisição de bens móveis,"33190000-8, Dispositivos e produtos médicos variados","Centro Hospitalar Lisboa Norte, E. P. E. (508481287)","Edwards, Lda. (508014832)","19.000,00 €",30-11-2015,30-11-2015,1 dias,"Portugal, Lisboa, Lisboa","Artigo 20.º, n.º 1, alínea a) do Código dos Contratos Públicos",,,,,,Não aplicável.,Não aplicável.,FALSE
Aquisição de consumiveis para o Serviço de Cardiologia,Ajuste Direto Regime Geral,Aquisição de bens móveis,"33190000-8, Dispositivos e produtos médicos variados","Centro Hospitalar Lisboa Norte, E. P. E. (508481287)","Abbott, Lda. (500006148)","21.250,00 €",30-11-2015,30-11-2015,1 dias,"Portugal, Lisboa, Lisboa","Artigo 20.º, n.º 1, alínea a) do Código dos Contratos Públicos",,,,,,Não aplicável.,Não aplicável.,FALSE
Aquisição de CDI VR,Ajuste Direto Regime Geral,Aquisição de bens móveis,"33190000-8, Dispositivos e produtos médicos variados","Centro Hospitalar Lisboa Norte, E. P. E. (508481287)","Sorincardio, Lda. (505514010)","9.550,00 €",30-11-2015,30-11-2015,1 dias,"Portugal, Lisboa, Lisboa","Artigo 20.º, n.º 1, alínea a) do Código dos Contratos Públicos",,,,,,Não aplicável.,Não aplicável.,FALSE
Aquisição de frasco conta gotas,Ajuste Direto Regime Geral,Aquisição de bens móveis,"33190000-8, Dispositivos e produtos médicos variados","Centro Hospitalar Lisboa Norte, E. P. E. (508481287)","Normax, Lda. (500203130)","500,00 €",30-11-2015,30-11-2015,1 dias,"Portugal, Lisboa, Lisboa","Artigo 20.º, n.º 1, alínea a) do Código dos Contratos Públicos",,,,,,Não aplicável.,Não aplicável.,FALSE
Aquisição de dispositivo médico percutâneo,Ajuste Direto Regime Geral,Aquisição de bens móveis,"33190000-8, Dispositivos e produtos médicos variados","Centro Hospitalar Lisboa Norte, E. P. E. (508481287)","Abbott, Lda. (500006148)","40.000,00 €",30-11-2015,30-11-2015,1 dias,"Portugal, Lisboa, Lisboa","Artigo 20.º, n.º 1, alínea a) do Código dos Contratos Públicos",,,,,,Não aplicável.,Não aplicável.,FALSE
Aquisição de seringa 200 mL,Ajuste Direto Regime Geral,Aquisição de bens móveis,"33190000-8, Dispositivos e produtos médicos variados","Centro Hospitalar Lisboa Norte, E. P. E. (508481287)","BHL, Lda. (503565946)","1.330,00 €",27-11-2015,27-11-2015,1 dias,"Portugal, Lisboa, Lisboa","Artigo 20.º, n.º 1, alínea a) do Código dos Contratos Públicos",,,,,,Não aplicável.,Não aplicável.,FALSE
Aquisição de material diverso cardiologia,Ajuste Direto Regime Geral,Aquisição de bens móveis,"33190000-8, Dispositivos e produtos médicos variados","Centro Hospitalar Lisboa Norte, E. P. E. (508481287)",St Jude Portugal (504180746),"10.667,10 €",27-11-2015,27-11-2015,1 dias,"Portugal, Lisboa, Lisboa","Artigo 20.º, n.º 1, alínea a) do Código dos Contratos Públicos",,,,,,Não aplicável.,Não aplicável.,FALSE
Aquisição de medicamentos,Ajuste Direto Regime Geral,Aquisição de bens móveis,"33690000-3, Medicamentos vários","Centro Hospitalar Lisboa Norte, E. P. E. (508481287)","Fresenius Kabi, Lda. (504293753)","5.600,00 €",27-11-2015,27-11-2015,1 dias,"Portugal, Lisboa, Lisboa","Artigo 24.º, n.º 1, alínea e) do Código dos Contratos Públicos",,,,,,Não aplicável.,Não aplicável.,FALSE
Aquisição de medicamentos,Ajuste Direto Regime Geral,Aquisição de bens móveis,"33690000-3, Medicamentos vários","Centro Hospitalar Lisboa Norte, E. P. E. (508481287)","Overpharma, Lda. (505792362)","17.970,00 €",27-11-2015,27-11-2015,1 dias,"Portugal, Lisboa, Lisboa","Artigo 24.º, n.º 1, alínea e) do Código dos Contratos Públicos",,,,,,Não aplicável.,Não aplicável.,FALSE
Aquisição de 4 bombas infusoras,Ajuste Direto Regime Geral,Aquisição de bens móveis,"42122419-0, Bombas perfusoras","CENTRO HOSPITALAR LISBOA NORTE, EPE (508481287)","Smiths Medical, Lda. (507445937)","9.000,00 €",26-11-2015,26-11-2015,21 dias,"Portugal, Lisboa, Lisboa","Artigo 20.º, n.º 1, alínea a) do Código dos Contratos Públicos",,,,,,Não aplicável.,Não aplicável.,FALSE
Aquisição de medicamentos,Ajuste Direto Regime Geral,Aquisição de bens móveis,"33690000-3, Medicamentos vários","Centro Hospitalar Lisboa Norte, E. P. E. (508481287)","Celgene, Lda. (507791690)","36.400,00 €",26-11-2015,26-11-2015,1 dias,"Portugal, Lisboa, Lisboa","Artigo 24.º, n.º 1, alínea e) do Código dos Contratos Públicos",,,,,,Não aplicável.,Não aplicável.,FALSE
Aquisição de produtos de apoio,Ajuste Direto Regime Geral,Aquisição de serviços,"85000000-9, Serviços de saúde e acção social","Centro Hospitalar Lisboa Norte, E. P. E. (508481287)",Mário Paulo Ferreira (197118372),"47,17 €",26-11-2015,26-11-2015,10 dias,"Portugal, Lisboa, Lisboa","Artigo 20.º, n.º 1, alínea a) do Código dos Contratos Públicos",,,,,,Não aplicável.,Não aplicável.,FALSE
Aquisição de produtos de apoio,Ajuste Direto Regime Geral,Aquisição de serviços,"85000000-9, Serviços de saúde e acção social","Centro Hospitalar Lisboa Norte, E. P. E. (508481287)",Mário Paulo Ferreira (197118372),"174,53 €",26-11-2015,26-11-2015,10 dias,"Portugal, Lisboa, Lisboa","Artigo 20.º, n.º 1, alínea a) do Código dos Contratos Públicos",,,,,,Não aplicável.,Não aplicável.,FALSE
Aquisição de produtos de apoio,Ajuste Direto Regime Geral,Aquisição de serviços,"85000000-9, Serviços de saúde e acção social","Centro Hospitalar Lisboa Norte, E. P. E. (508481287)",Mário Paulo Ferreira (197118372),"150,00 €",26-11-2015,26-11-2015,10 dias,"Portugal, Lisboa, Lisboa","Artigo 20.º, n.º 1, alínea a) do Código dos Contratos Públicos",,,,,,Não aplicável.,Não aplicável.,FALSE
Aquisição de produtos de apoio,Ajuste Direto Regime Geral,Aquisição de serviços,"85000000-9, Serviços de saúde e acção social","Centro Hospitalar Lisboa Norte, E. P. E. (508481287)",Mário Paulo Ferreira (197118372),"127,35 €",26-11-2015,26-11-2015,10 dias,"Portugal, Lisboa, Lisboa","Artigo 20.º, n.º 1, alínea a) do Código dos Contratos Públicos",,,,,,Não aplicável.,Não aplicável.,FALSE
Aquisição de produtos de apoio,Ajuste Direto Regime Geral,Aquisição de serviços,"85000000-9, Serviços de saúde e acção social","Centro Hospitalar Lisboa Norte, E. P. E. (508481287)",Mário Paulo Ferreira (197118372),"70,75 €",26-11-2015,26-11-2015,10 dias,"Portugal, Lisboa, Lisboa","Artigo 20.º, n.º 1, alínea a) do Código dos Contratos Públicos",,,,,,Não aplicável.,Não aplicável.,FALSE
Fornecimento de colchões e capas,Ajuste Direto Regime Geral,Aquisição de serviços,"51000000-9, Serviços de instalação (excepto software)","Centro Hospitalar Lisboa Norte, E. P. E. (508481287)","Duekipa, Lda. (508690102)","635,00 €",25-11-2015,25-11-2015,15 dias,"Portugal, Lisboa, Lisboa","Artigo 20.º, n.º 1, alínea a) do Código dos Contratos Públicos",,,,,,Não aplicável.,Não aplicável.,FALSE
Aquisição de cloreto de sodio,Ajuste Direto Regime Geral,Aquisição de bens móveis,"33690000-3, Medicamentos vários","Centro Hospitalar Lisboa Norte, E. P. E. (508481287)","Baxter, Lda. (503347345)","9.336,00 €",25-11-2015,25-11-2015,1 dias,"Portugal, Lisboa, Lisboa","Artigo 24.º, n.º 1, alínea e) do Código dos Contratos Públicos",,,,,,Não aplicável.,Não aplicável.,FALSE
Aquisição de medicamentos,Ajuste Direto Regime Geral,Aquisição de bens móveis,"33690000-3, Medicamentos vários","Centro Hospitalar Lisboa Norte, E. P. E. (508481287)","Siemens, Lda. (507925173)","9.503,36 €",25-11-2015,25-11-2015,1 dias,"Portugal, Lisboa, Lisboa","Artigo 24.º, n.º 1, alínea e) do Código dos Contratos Públicos",,,,,,Não aplicável.,Não aplicável.,FALSE
Obra de tecto falso no Corredor de acesso ao BO Cardiotorácica,Ajuste Direto Regime Geral,Empreitadas de obras públicas,"45421146-9, Instalação de tectos suspensos","Centro Hospitalar Lisboa Norte, E. P. E. (508481287)","Copi, Lda. (501536760)","6.077,00 €",25-11-2015,25-11-2015,15 dias,"Portugal, Lisboa, Lisboa","Artigo 19.º, alínea a) do Código dos Contratos Públicos",,,,,,Não aplicável.,Não aplicável.,FALSE
Aquisição de everolimus,Ajuste Direto Regime Geral,Aquisição de bens móveis,"33690000-3, Medicamentos vários","CENTRO HOSPITALAR LISBOA NORTE, EPE (508481287)","Novartis Farma, SA (500063524)","5.656,38 €",24-11-2015,24-11-2015,1 dias,"Portugal, Lisboa, Lisboa","Artigo 24.º, n.º 1, alínea e) do Código dos Contratos Públicos",,,,,,Não aplicável.,Não aplicável.,FALSE
Aquisição de somatropina,Ajuste Direto Regime Geral,Aquisição de bens móveis,"33690000-3, Medicamentos vários","CENTRO HOSPITALAR LISBOA NORTE, EPE (508481287)","Sandoz, Lda. (506985261)","5.000,00 €",24-11-2015,24-11-2015,1 dias,"Portugal, Lisboa, Lisboa","Artigo 24.º, n.º 1, alínea e) do Código dos Contratos Públicos",,,,,,Não aplicável.,Não aplicável.,FALSE
Aquisição de darunavir,Ajuste Direto Regime Geral,Aquisição de bens móveis,"33690000-3, Medicamentos vários","CENTRO HOSPITALAR LISBOA NORTE, EPE (508481287)","Janssen-Cilag, Lda. (500189412)","176.139,09 €",24-11-2015,24-11-2015,1 dias,"Portugal, Lisboa, Lisboa","Artigo 24.º, n.º 1, alínea e) do Código dos Contratos Públicos",,,,,,Não aplicável.,Não aplicável.,FALSE
Aquisição de HIV Combo,Ajuste Direto Regime Geral,Aquisição de bens móveis,"33690000-3, Medicamentos vários","CENTRO HOSPITALAR LISBOA NORTE, EPE (508481287)","Siemens, Lda. (507925173)","6.000,00 €",24-11-2015,24-11-2015,1 dias,"Portugal, Lisboa, Lisboa","Artigo 24.º, n.º 1, alínea e) do Código dos Contratos Públicos",,,,,,Não aplicável.,Não aplicável.,FALSE
Aquisição de anticorpos anti-virus,Ajuste Direto Regime Geral,Aquisição de bens móveis,"33690000-3, Medicamentos vários","CENTRO HOSPITALAR LISBOA NORTE, EPE (508481287)","Siemens, lda (507925173)","9.600,00 €",24-11-2015,24-11-2015,1 dias,"Portugal, Lisboa, Lisboa","Artigo 24.º, n.º 1, alínea e) do Código dos Contratos Públicos",,,,,,Não aplicável.,Não aplicável.,FALSE
Aquisição de alfa fetoproteina,Ajuste Direto Regime Geral,Aquisição de bens móveis,"33690000-3, Medicamentos vários","CENTRO HOSPITALAR LISBOA NORTE, EPE (508481287)","Siemens, Lda. (507925173)","5.012,00 €",24-11-2015,24-11-2015,1 dias,"Portugal, Lisboa, Lisboa","Artigo 24.º, n.º 1, alínea e) do Código dos Contratos Públicos",,,,,,Não aplicável.,Não aplicável.,FALSE
Aquisição de bendamustina,Ajuste Direto Regime Geral,Aquisição de bens móveis,"33690000-3, Medicamentos vários","CENTRO HOSPITALAR LISBOA NORTE, EPE (508481287)","Ferrer, SA (500069190)","5.413,32 €",24-11-2015,24-11-2015,1 dias,"Portugal, Lisboa, Lisboa","Artigo 24.º, n.º 1, alínea e) do Código dos Contratos Públicos",,,,,,Não aplicável.,Não aplicável.,FALSE
Aquisição de endoprotese,Ajuste Direto Regime Geral,Aquisição de bens móveis,"33190000-8, Dispositivos e produtos médicos variados","CENTRO HOSPITALAR LISBOA NORTE, EPE (508481287)","Medtronic, Lda. (504223933)","8.500,00 €",24-11-2015,24-11-2015,1 dias,"Portugal, Lisboa, Lisboa","Artigo 20.º, n.º 1, alínea a) do Código dos Contratos Públicos",,,,,,Não aplicável.,Não aplicável.,FALSE
Aquisição de produtos de apoio,Ajuste Direto Regime Geral,Aquisição de serviços,"85000000-9, Serviços de saúde e acção social","Centro Hospitalar Lisboa Norte, E. P. E. (508481287)","Amplifon, SA (503325872)","287,74 €",24-11-2015,24-11-2015,5 dias,"Portugal, Lisboa, Lisboa","Artigo 20.º, n.º 1, alínea a) do Código dos Contratos Públicos",,,,,,Não aplicável.,Não aplicável.,FALSE
Aquisição de produtos de apoio,Ajuste Direto Regime Geral,Aquisição de serviços,"85000000-9, Serviços de saúde e acção social","Centro Hospitalar Lisboa Norte, E. P. E. (508481287)","Amplifon, SA (503325872)","575,48 €",24-11-2015,24-11-2015,10 dias,"Portugal, Lisboa, Lisboa","Artigo 20.º, n.º 1, alínea a) do Código dos Contratos Públicos",,,,,,Não aplicável.,Não aplicável.,FALSE
Aquisição de produtos de apoio,Ajuste Direto Regime Geral,Aquisição de serviços,"85000000-9, Serviços de saúde e acção social","Centro Hospitalar Lisboa Norte, E. P. E. (508481287)",Mário Paulo Ferreira (197118372),"135,85 €",24-11-2015,24-11-2015,10 dias,"Portugal, Lisboa, Lisboa","Artigo 20.º, n.º 1, alínea a) do Código dos Contratos Públicos",,,,,,Não aplicável.,Não aplicável.,FALSE
Aquisição de produtos de apoio,Ajuste Direto Regime Geral,Aquisição de serviços,"85000000-9, Serviços de saúde e acção social","Centro Hospitalar Lisboa Norte, E. P. E. (508481287)",Mário Paulo Ferreira (197118372),"99,05 €",24-11-2015,24-11-2015,10 dias,"Portugal, Lisboa, Lisboa","Artigo 20.º, n.º 1, alínea a) do Código dos Contratos Públicos",,,,,,Não aplicável.,Não aplicável.,FALSE
Aquisição de produtos de apoio,Ajuste Direto Regime Geral,Aquisição de serviços,"85000000-9, Serviços de saúde e acção social","Centro Hospitalar Lisboa Norte, E. P. E. (508481287)",Mário Paulo Ferreira (197118372),"72,64 €",24-11-2015,24-11-2015,10 dias,"Portugal, Lisboa, Lisboa","Artigo 20.º, n.º 1, alínea a) do Código dos Contratos Públicos",,,,,,Não aplicável.,Não aplicável.,FALSE
Aquisição de produtos de apoio,Ajuste Direto Regime Geral,Aquisição de serviços,"85000000-9, Serviços de saúde e acção social","Centro Hospitalar Lisboa Norte, E. P. E. (508481287)",Mário Paulo Ferreira (197118372),"84,91 €",24-11-2015,24-11-2015,10 dias,"Portugal, Lisboa, Lisboa","Artigo 20.º, n.º 1, alínea a) do Código dos Contratos Públicos",,,,,,Não aplicável.,Não aplicável.,FALSE
Aquisição de produtos de apoio,Ajuste Direto Regime Geral,Aquisição de serviços,"85000000-9, Serviços de saúde e acção social","Centro Hospitalar Lisboa Norte, E. P. E. (508481287)",Mário Paulo Ferreira (197118372),"179,25 €",24-11-2015,24-11-2015,10 dias,"Portugal, Lisboa, Lisboa","Artigo 20.º, n.º 1, alínea a) do Código dos Contratos Públicos",,,,,,Não aplicável.,Não aplicável.,FALSE
Aquisição de produtos de apoio,Ajuste Direto Regime Geral,Aquisição de serviços,"85000000-9, Serviços de saúde e acção social","Centro Hospitalar Lisboa Norte, E. P. E. (508481287)",Mário Paulo Ferreira (197118372),"127,36 €",24-11-2015,24-11-2015,10 dias,"Portugal, Lisboa, Lisboa","Artigo 20.º, n.º 1, alínea a) do Código dos Contratos Públicos",,,,,,Não aplicável.,Não aplicável.,FALSE
Aquisição de produtos de apoio,Ajuste Direto Regime Geral,Aquisição de serviços,"85000000-9, Serviços de saúde e acção social","Centro Hospitalar Lisboa Norte, E. P. E. (508481287)",Mário Paulo Ferreira (197118372),"148,11 €",24-11-2015,24-11-2015,10 dias,"Portugal, Lisboa, Lisboa","Artigo 20.º, n.º 1, alínea a) do Código dos Contratos Públicos",,,,,,Não aplicável.,Não aplicável.,FALSE
Aquisição de produtos de apoio,Ajuste Direto Regime Geral,Aquisição de serviços,"85000000-9, Serviços de saúde e acção social","Centro Hospitalar Lisboa Norte, E. P. E. (508481287)",Mário Paulo Ferreira (197118372),"168,81 €",24-11-2015,24-11-2015,10 dias,"Portugal, Lisboa, Lisboa","Artigo 20.º, n.º 1, alínea a) do Código dos Contratos Públicos",,,,,,Não aplicável.,Não aplicável.,FALSE
Aquisição de produtos de apoio,Ajuste Direto Regime Geral,Aquisição de serviços,"85000000-9, Serviços de saúde e acção social","Centro Hospitalar Lisboa Norte, E. P. E. (508481287)",Mário Paulo Ferreira (197118372),"21,70 €",24-11-2015,24-11-2015,10 dias,"Portugal, Lisboa, Lisboa","Artigo 20.º, n.º 1, alínea a) do Código dos Contratos Públicos",,,,,,Não aplicável.,Não aplicável.,FALSE
Aquisição de produtos de apoio,Ajuste Direto Regime Geral,Aquisição de serviços,"85000000-9, Serviços de saúde e acção social","Centro Hospitalar Lisboa Norte, E. P. E. (508481287)","Ortopedia Moderna, Lda. (500481300)","74,10 €",24-11-2015,24-11-2015,15 dias,"Portugal, Lisboa, Lisboa","Artigo 20.º, n.º 1, alínea a) do Código dos Contratos Públicos",,,,,,Não aplicável.,Não aplicável.,FALSE
Aquisição de produtos de apoio,Ajuste Direto Regime Geral,Aquisição de serviços,"85000000-9, Serviços de saúde e acção social","Centro Hospitalar Lisboa Norte, E. P. E. (508481287)","Siorto, Lda. (500251177)","57,25 €",24-11-2015,24-11-2015,15 dias,"Portugal, Lisboa, Lisboa","Artigo 20.º, n.º 1, alínea a) do Código dos Contratos Públicos",,,,,,Não aplicável.,Não aplicável.,FALSE
Aquisição de produtos de apoio,Ajuste Direto Regime Geral,Aquisição de serviços,"85000000-9, Serviços de saúde e acção social","CENTRO HOSPITALAR LISBOA NORTE, EPE (508481287)","Ortopedia Moderna, Lda. (500481300)","68,20 €",23-11-2015,23-11-2015,15 dias,"Portugal, Lisboa, Lisboa","Artigo 20.º, n.º 1, alínea a) do Código dos Contratos Públicos",,,,,,Não aplicável.,Não aplicável.,FALSE
Aquisição de produtos de apoio,Ajuste Direto Regime Geral,Aquisição de serviços,"85000000-9, Serviços de saúde e acção social","CENTRO HOSPITALAR LISBOA NORTE, EPE (508481287)","Ortopedia Moderna, Lda. (500481300)","870,00 €",23-11-2015,23-11-2015,15 dias,"Portugal, Lisboa, Lisboa","Artigo 20.º, n.º 1, alínea a) do Código dos Contratos Públicos",,,,,,Não aplicável.,Não aplicável.,FALSE
Aquisição de neuroestimulador,Ajuste Direto Regime Geral,Aquisição de bens móveis,"33190000-8, Dispositivos e produtos médicos variados","CENTRO HOSPITALAR LISBOA NORTE, EPE (508481287)","Medtronic, Lda. (504223933)","7.700,00 €",23-11-2015,23-11-2015,1 dias,"Portugal, Lisboa, Lisboa","Artigo 20.º, n.º 1, alínea a) do Código dos Contratos Públicos",,,,,,Não aplicável.,Não aplicável.,FALSE
Aquisição de endoprotese,Ajuste Direto Regime Geral,Aquisição de bens móveis,"33190000-8, Dispositivos e produtos médicos variados","CENTRO HOSPITALAR LISBOA NORTE, EPE (508481287)","Biosonda, Lda. (501463313)","8.500,00 €",23-11-2015,23-11-2015,1 dias,"Portugal, Lisboa, Lisboa","Artigo 20.º, n.º 1, alínea a) do Código dos Contratos Públicos",,,,,,Não aplicável.,Não aplicável.,FALSE
Aquisição de CDI BIV,Ajuste Direto Regime Geral,Aquisição de bens móveis,"33190000-8, Dispositivos e produtos médicos variados","CENTRO HOSPITALAR LISBOA NORTE, EPE (508481287)","Medtronic, Lda. (504223933)","13.308,00 €",23-11-2015,23-11-2015,1 dias,"Portugal, Lisboa, Lisboa","Artigo 20.º, n.º 1, alínea a) do Código dos Contratos Públicos",,,,,,Não aplicável.,Não aplicável.,FALSE
Aquisição de esfincter urinario,Ajuste Direto Regime Geral,Aquisição de bens móveis,"33190000-8, Dispositivos e produtos médicos variados","CENTRO HOSPITALAR LISBOA NORTE, EPE (508481287)","Americal Medical Systems Iberica, SL (980223598)","15.200,00 €",23-11-2015,23-11-2015,1 dias,"Portugal, Lisboa, Lisboa","Artigo 20.º, n.º 1, alínea a) do Código dos Contratos Públicos",,,,,,Não aplicável.,Não aplicável.,FALSE
Aquisição de fio monof/polipr,Ajuste Direto Regime Geral,Aquisição de bens móveis,"33190000-8, Dispositivos e produtos médicos variados","CENTRO HOSPITALAR LISBOA NORTE, EPE (508481287)","Socime Medical, Lda. (504453939)","132,48 €",23-11-2015,23-11-2015,1 dias,"Portugal, Lisboa, Lisboa","Artigo 20.º, n.º 1, alínea a) do Código dos Contratos Públicos",,,,,,Não aplicável.,Não aplicável.,FALSE
Aquisição de sistema microgotas,Ajuste Direto Regime Geral,Aquisição de bens móveis,"33190000-8, Dispositivos e produtos médicos variados","CENTRO HOSPITALAR LISBOA NORTE, EPE (508481287)","PMH, SA (502376899)","420,00 €",23-11-2015,23-11-2015,1 dias,"Portugal, Lisboa, Lisboa","Artigo 24.º, n.º 1, alínea c) do Código dos Contratos Públicos",,,,,,Não aplicável.,Não aplicável.,FALSE
Aquisição de material de ortopedia,Ajuste Direto Regime Geral,Aquisição de bens móveis,"33190000-8, Dispositivos e produtos médicos variados","Centro Hospitalar Lisboa Norte, E. P. E. (508481287)","J & J, Lda. (500153370)","7.565,00 €",23-11-2015,23-11-2015,1 dias,"Portugal, Lisboa, Lisboa","Artigo 20.º, n.º 1, alínea a) do Código dos Contratos Públicos",,,,,,Não aplicável.,Não aplicável.,FALSE
Aquisição de seguros de acidentes,Ajuste Direto Regime Geral,Aquisição de serviços,"66512000-2, Serviços de seguros de acidentes e de saúde","Centro Hospitalar Lisboa Norte, E. P. E. (508481287)","Solução, SA (500089736)","39.488,48 €",23-11-2015,23-11-2015,30 dias,"Portugal, Lisboa, Lisboa","Artigo 20.º, n.º 1, alínea a) do Código dos Contratos Públicos",,,,,,Não aplicável.,Não aplicável.,FALSE
Aquisição de seguros,Ajuste Direto Regime Geral,Aquisição de serviços,"66512000-2, Serviços de seguros de acidentes e de saúde","Centro Hospitalar Lisboa Norte, E. P. E. (508481287)","Solução, SA (500089736)","66.524,24 €",23-11-2015,05-11-2015,30 dias,"Portugal, Lisboa, Lisboa","Artigo 20.º, n.º 1, alínea a) do Código dos Contratos Públicos",,,,,,Não aplicável.,Não aplicável.,FALSE
