Objeto do Contrato,Tipo de Procedimento,Tipo(s) de Contrato,CPVs,Entidade(s) Adjudicante(s),Entidade(s) Adjudicatária(s),Preço Contratual,Data de Publicação,Data de Celebração do Contrato,Prazo de Execução,Local de Execução,Fundamentação,Data de Fecho do Contrato,Preço Total Efetivo,Causas das Alterações ao Prazo,Causas das Alterações ao Preço,Estado,N.º registo do Acordo Quadro,Descrição do Acordo Quadro,Procedimento Centralizado
Aquisição de Equipamento Básico,Ajuste Direto Regime Geral,Aquisição de bens móveis,"33192000-2, Mobiliário para fins médicos","Administração Regional de Saúde do Norte, I.P. (503135593)","Eugénio Pereira, Lda (503989525)","44.803,79 €",02-05-2011,24-03-2011,20 dias,"Portugal, Braga, Vila Nova de Famalicão<BR/>Portugal, Braga, Esposende<BR/>Portugal, Braga, Braga","Artigo 20.º, n.º 1, alínea a) do Código dos Contratos Públicos",12-04-2011,"44.803,79 €","",,,Não aplicável.,Não aplicável.,
Climatização e Ventilação Armazens da Maia,Ajuste Direto Regime Geral,Empreitadas de obras públicas,"45331200-8, Instalação de ventilação e de ar condicionado","Administração Regional de Saúde do Norte, I.P. (503135593)","A.C.S.B. Martins, Lda (505814072)","25.180,77 €",02-05-2011,26-04-2011,20 dias,"Portugal, Porto, Maia","Artigo 19.º, alínea a) do Código dos Contratos Públicos",20-07-2011,"25.180,77 €","",,,Não aplicável.,Não aplicável.,
Aquisição de fotocopiadoras,Ajuste Direto Regime Geral,Aquisição de bens móveis,"30121100-4, Fotocopiadoras","Administração Regional de Saúde do Norte, I.P. (503135593)","LISTOPSIS, LDA (502981547)","30.980,00 €",02-05-2011,21-03-2011,20 dias,"Portugal, Braga, Braga","Artigo 20.º, n.º 1, alínea a) do Código dos Contratos Públicos",31-03-2011,"30.980,00 €","",,,Não aplicável.,Não aplicável.,
Trabalhos Diversos USF Brás-Oleiro,Ajuste Direto Regime Geral,Empreitadas de obras públicas,"45454000-4, Obras de reestruturação","Administração Regional de Saúde do Norte, I.P. (503135593)","Construções Ezequiel Pinho Moreira, Lda (503320455)","24.663,44 €",02-05-2011,12-04-2011,5 dias,"Portugal, Porto, Gondomar","Artigo 19.º, alínea a) do Código dos Contratos Públicos","","24.663,44 €",Pequeno atraso nos trabalhos executados,,,Não aplicável.,Não aplicável.,
