Objeto do Contrato,Tipo de Procedimento,Tipo(s) de Contrato,CPVs,Entidade(s) Adjudicante(s),Entidade(s) Adjudicatária(s),Preço Contratual,Data de Publicação,Data de Celebração do Contrato,Prazo de Execução,Local de Execução,Fundamentação,Data de Fecho do Contrato,Preço Total Efetivo,Causas das Alterações ao Prazo,Causas das Alterações ao Preço,Estado,N.º registo do Acordo Quadro,Descrição do Acordo Quadro,Procedimento Centralizado
Máquina de lavagem e desinfecção de endoscópicos com retoma da máquina avariada,Ajuste Direto Regime Geral,Aquisição de bens móveis,"33191000-5, Aparelhos para esterilização, desinfecção e higiene","Unidade Local de Saúde de Castelo Branco, E. P. E. (509309844)","OLYMPUS IBERIA, S.A.U.-Sucursal em  Portugal (980474710)","22.148,00 €",06-06-2016,03-03-2015,30 dias,"Portugal, Castelo Branco, Castelo Branco","Artigo 24.º, n.º 1, alínea e) do Código dos Contratos Públicos",12-05-2015,"22.148,00 €",,"",,Não aplicável.,Não aplicável.,FALSE
Prestação de serviços de manutenção e assistência técnica preventiva e correctiva à Central de Tratamento de Água (CTAH) e Pré-Filtração da Hemodiálise (UF) do Hospital Amato Lusitano,Ajuste Direto Regime Geral,Aquisição de serviços,"71356200-0, Serviços de assistência técnica","Unidade Local de Saúde de Castelo Branco, E. P. E. (509309844)","BAXTER MEDICO-FARMACEUTICA, LDA (503347345)","25.272,00 €",01-06-2016,23-05-2016,365 dias,"Portugal, Castelo Branco, Castelo Branco","Artigo 20.º, n.º 1, alínea a) do Código dos Contratos Públicos",31-12-2016,"24.513,84 €",,Reduções remuneratórias nos termos do exigido no OE2016,,Não aplicável.,Não aplicável.,FALSE
