Objeto do Contrato,Tipo de Procedimento,Tipo(s) de Contrato,CPVs,Entidade(s) Adjudicante(s),Entidade(s) Adjudicatária(s),Preço Contratual,Data de Publicação,Data de Celebração do Contrato,Prazo de Execução,Local de Execução,Fundamentação,Data de Fecho do Contrato,Preço Total Efetivo,Causas das Alterações ao Prazo,Causas das Alterações ao Preço,Estado,N.º registo do Acordo Quadro,Descrição do Acordo Quadro,Procedimento Centralizado
prestação de serviço,Ajuste Direto Regime Geral,Aquisição de serviços,"85000000-9, Serviços de saúde e acção social",Centro Hospitalar Psiquiátrico de Lisboa (508338476),Maria Irene Oliveira Neves Almeida (153069163),"1.175,00 €",31-10-2017,11-08-2017,30 dias,"Portugal, Lisboa, Lisboa","Artigo 24.º, n.º 1, alínea c) do Código dos Contratos Públicos",31-08-2017,"1.175,00 €",,,,Não aplicável.,Não aplicável.,FALSE
prestação de serviço,Ajuste Direto Regime Geral,Aquisição de serviços,"85000000-9, Serviços de saúde e acção social",Centro Hospitalar Psiquiátrico de Lisboa (508338476),Odete Gomes Cunha Marques (174836333),"1.514,26 €",31-10-2017,11-08-2017,30 dias,"Portugal, Lisboa, Lisboa","Artigo 24.º, n.º 1, alínea c) do Código dos Contratos Públicos",31-08-2017,"1.514,26 €",,,,Não aplicável.,Não aplicável.,FALSE
prestação de serviço,Ajuste Direto Regime Geral,Aquisição de serviços,"85000000-9, Serviços de saúde e acção social",Centro Hospitalar Psiquiátrico de Lisboa (508338476),Natércia Dora Silva Conceição (205649106),"1.122,27 €",31-10-2017,12-07-2017,30 dias,"Portugal, Lisboa, Lisboa","Artigo 24.º, n.º 1, alínea c) do Código dos Contratos Públicos",31-07-2017,"1.122,27 €",,,,Não aplicável.,Não aplicável.,FALSE
prestação de serviço,Ajuste Direto Regime Geral,Aquisição de serviços,"85000000-9, Serviços de saúde e acção social",Centro Hospitalar Psiquiátrico de Lisboa (508338476),Odete Gomes Cunha Marques (174836333),"1.514,26 €",31-10-2017,12-07-2017,30 dias,"Portugal, Lisboa, Lisboa","Artigo 24.º, n.º 1, alínea c) do Código dos Contratos Públicos",31-07-2017,"1.514,26 €",,,,Não aplicável.,Não aplicável.,FALSE
prestação de serviço,Ajuste Direto Regime Geral,Aquisição de serviços,"85000000-9, Serviços de saúde e acção social",Centro Hospitalar Psiquiátrico de Lisboa (508338476),Maria Irene Oliveira Neves Almeida (153069163),"1.175,00 €",31-10-2017,12-07-2017,30 dias,"Portugal, Lisboa, Lisboa","Artigo 24.º, n.º 1, alínea c) do Código dos Contratos Públicos",31-07-2017,"1.175,00 €",,,,Não aplicável.,Não aplicável.,FALSE
prestação de serviço,Ajuste Direto Regime Geral,Aquisição de serviços,"85000000-9, Serviços de saúde e acção social",Centro Hospitalar Psiquiátrico de Lisboa (508338476),Maria Irene Oliveira Neves Almeida (153069163),"1.175,00 €",31-10-2017,09-06-2017,30 dias,"Portugal, Lisboa, Lisboa","Artigo 24.º, n.º 1, alínea c) do Código dos Contratos Públicos",30-06-2017,"1.175,00 €",,,,Não aplicável.,Não aplicável.,FALSE
prestação de serviço,Ajuste Direto Regime Geral,Aquisição de serviços,"85000000-9, Serviços de saúde e acção social",Centro Hospitalar Psiquiátrico de Lisboa (508338476),Odete Gomes Cunha Marques (174836333),"1.514,26 €",31-10-2017,09-06-2017,30 dias,"Portugal, Lisboa, Lisboa","Artigo 24.º, n.º 1, alínea c) do Código dos Contratos Públicos",30-06-2017,"1.514,26 €",,,,Não aplicável.,Não aplicável.,FALSE
prestação de serviço,Ajuste Direto Regime Geral,Aquisição de serviços,"85000000-9, Serviços de saúde e acção social",Centro Hospitalar Psiquiátrico de Lisboa (508338476),Natércia Dora Silva Conceição (205649106),"1.122,27 €",31-10-2017,09-06-2017,30 dias,"Portugal, Lisboa, Lisboa","Artigo 24.º, n.º 1, alínea c) do Código dos Contratos Públicos",30-06-2017,"1.122,27 €",,,,Não aplicável.,Não aplicável.,FALSE
prestação de serviço,Ajuste Direto Regime Geral,Aquisição de serviços,"85000000-9, Serviços de saúde e acção social",Centro Hospitalar Psiquiátrico de Lisboa (508338476),Natércia Dora Silva Conceição (205649106),"1.122,27 €",31-10-2017,09-05-2017,30 dias,"Portugal, Lisboa, Lisboa","Artigo 24.º, n.º 1, alínea c) do Código dos Contratos Públicos",31-05-2017,"1.122,27 €",,,,Não aplicável.,Não aplicável.,FALSE
prestação de serviço,Ajuste Direto Regime Geral,Aquisição de serviços,"85000000-9, Serviços de saúde e acção social",Centro Hospitalar Psiquiátrico de Lisboa (508338476),Maria Irene Oliveira Neves Almeida (153069163),"1.175,00 €",31-10-2017,08-05-2017,30 dias,"Portugal, Lisboa, Lisboa","Artigo 24.º, n.º 1, alínea c) do Código dos Contratos Públicos",31-05-2017,"1.175,00 €",,,,Não aplicável.,Não aplicável.,FALSE
prestação de serviço,Ajuste Direto Regime Geral,Aquisição de serviços,"85000000-9, Serviços de saúde e acção social",Centro Hospitalar Psiquiátrico de Lisboa (CHPL) (508338476),Odete Gomes Cunha Marques (174836333),"1.514,26 €",30-10-2017,08-05-2017,30 dias,"Portugal, Lisboa, Lisboa","Artigo 24.º, n.º 1, alínea c) do Código dos Contratos Públicos",31-05-2017,"1.514,26 €",,,,Não aplicável.,Não aplicável.,FALSE
prestação de serviço,Ajuste Direto Regime Geral,Aquisição de serviços,"85000000-9, Serviços de saúde e acção social",Centro Hospitalar Psiquiátrico de Lisboa (CHPL) (508338476),Odete Gomes Cunha Marques (174836333),"1.514,26 €",30-10-2017,05-04-2017,30 dias,"Portugal, Lisboa, Lisboa","Artigo 24.º, n.º 1, alínea c) do Código dos Contratos Públicos",30-04-2017,"1.514,26 €",,,,Não aplicável.,Não aplicável.,FALSE
prestação de serviço,Ajuste Direto Regime Geral,Aquisição de serviços,"85000000-9, Serviços de saúde e acção social",Centro Hospitalar Psiquiátrico de Lisboa (CHPL) (508338476),Maria Irene Oliveira Neves Almeida (153069163),"1.175,00 €",30-10-2017,05-04-2017,30 dias,"Portugal, Lisboa, Lisboa","Artigo 24.º, n.º 1, alínea c) do Código dos Contratos Públicos",30-04-2017,"1.175,00 €",,,,Não aplicável.,Não aplicável.,FALSE
prestação de serviço,Ajuste Direto Regime Geral,Aquisição de serviços,"85000000-9, Serviços de saúde e acção social",Centro Hospitalar Psiquiátrico de Lisboa (CHPL) (508338476),Natércia Dora Silva Conceição (205649106),"1.122,27 €",30-10-2017,05-04-2017,30 dias,"Portugal, Lisboa, Lisboa","Artigo 24.º, n.º 1, alínea c) do Código dos Contratos Públicos",30-04-2017,"1.122,27 €",,,,Não aplicável.,Não aplicável.,FALSE
prestação de serviço,Ajuste Direto Regime Geral,Aquisição de serviços,"85000000-9, Serviços de saúde e acção social",Centro Hospitalar Psiquiátrico de Lisboa (CHPL) (508338476),"Carlos Alberto Gomes, Arq. Associados, Lda. (502793597)","6.087,78 €",30-10-2017,21-04-2017,30 dias,"Portugal, Lisboa, Lisboa","Artigo 24.º, n.º 1, alínea c) do Código dos Contratos Públicos",31-12-2017,"6.087,78 €",,,,Não aplicável.,Não aplicável.,FALSE
prestação de serviço,Ajuste Direto Regime Geral,Aquisição de serviços,"85000000-9, Serviços de saúde e acção social",Centro Hospitalar Psiquiátrico de Lisboa (CHPL) (508338476),Sociedade Portuguesa de Autores CRL (500257841),"7.680,15 €",30-10-2017,11-04-2017,30 dias,"Portugal, Lisboa, Lisboa","Artigo 24.º, n.º 1, alínea c) do Código dos Contratos Públicos",31-12-2017,"7.680,15 €",,,,Não aplicável.,Não aplicável.,FALSE
prestação de serviço,Ajuste Direto Regime Geral,Aquisição de serviços,"85000000-9, Serviços de saúde e acção social",Centro Hospitalar Psiquiátrico de Lisboa (CHPL) (508338476),Sociedade Portuguesa de Autores CRL (500257841),"853,35 €",30-10-2017,07-03-2017,30 dias,"Portugal, Lisboa, Lisboa","Artigo 24.º, n.º 1, alínea c) do Código dos Contratos Públicos",31-03-2017,"853,35 €",,,,Não aplicável.,Não aplicável.,FALSE
prestação de serviço,Ajuste Direto Regime Geral,Aquisição de serviços,"85000000-9, Serviços de saúde e acção social",Centro Hospitalar Psiquiátrico de Lisboa (CHPL) (508338476),"Carlos Alberto Gomes, Arq. Associados, Lda. (502793597)","676,42 €",30-10-2017,07-03-2017,30 dias,"Portugal, Lisboa, Lisboa","Artigo 24.º, n.º 1, alínea c) do Código dos Contratos Públicos",31-03-2017,"676,42 €",,,,Não aplicável.,Não aplicável.,FALSE
prestação de serviço,Ajuste Direto Regime Geral,Aquisição de serviços,"85000000-9, Serviços de saúde e acção social",Centro Hospitalar Psiquiátrico de Lisboa (508338476),"Carlos Alberto Gomes, Arq. Associados, Lda. (502793597)","676,42 €",30-10-2017,21-02-2017,30 dias,"Portugal, Lisboa, Lisboa","Artigo 24.º, n.º 1, alínea c) do Código dos Contratos Públicos",28-02-2017,"676,42 €",,,,Não aplicável.,Não aplicável.,FALSE
prestação de serviço,Ajuste Direto Regime Geral,Aquisição de serviços,"85000000-9, Serviços de saúde e acção social",Centro Hospitalar Psiquiátrico de Lisboa (508338476),Sociedade Portuguesa de Autores CRL (500257841),"853,35 €",30-10-2017,21-02-2017,30 dias,"Portugal, Lisboa, Lisboa","Artigo 24.º, n.º 1, alínea c) do Código dos Contratos Públicos",28-02-2017,"853,35 €",,,,Não aplicável.,Não aplicável.,FALSE
prestação de serviço,Ajuste Direto Regime Geral,Aquisição de serviços,"85000000-9, Serviços de saúde e acção social",Centro Hospitalar Psiquiátrico de Lisboa (508338476),Sociedade Portuguesa de Autores CRL (500257841),"853,35 €",30-10-2017,28-12-2016,30 dias,"Portugal, Lisboa, Lisboa","Artigo 24.º, n.º 1, alínea c) do Código dos Contratos Públicos",31-01-2017,"853,35 €",,,,Não aplicável.,Não aplicável.,FALSE
prestação de serviço,Ajuste Direto Regime Geral,Aquisição de serviços,"85000000-9, Serviços de saúde e acção social",Centro Hospitalar Psiquiátrico de Lisboa (508338476),"Carlos Alberto Gomes, Arq. Associados, Lda. (502793597)","676,42 €",30-10-2017,28-12-2016,30 dias,"Portugal, Lisboa, Lisboa","Artigo 24.º, n.º 1, alínea c) do Código dos Contratos Públicos",31-01-2017,"676,42 €",,,,Não aplicável.,Não aplicável.,FALSE
prestação de serviço,Ajuste Direto Regime Geral,Aquisição de serviços,"85000000-9, Serviços de saúde e acção social",Centro Hospitalar Psiquiátrico de Lisboa (508338476),Inês Campilho Chaves (229012582),"9.070,29 €",30-10-2017,21-04-2017,30 dias,"Portugal, Lisboa, Lisboa","Artigo 24.º, n.º 1, alínea c) do Código dos Contratos Públicos",29-12-2017,"9.070,29 €",,,,Não aplicável.,Não aplicável.,FALSE
prestação de serviço,Ajuste Direto Regime Geral,Aquisição de serviços,"85000000-9, Serviços de saúde e acção social",Centro Hospitalar Psiquiátrico de Lisboa (508338476),Inês Campilho Chaves (229012582),"1.007,81 €",30-10-2017,07-03-2017,30 dias,"Portugal, Lisboa, Lisboa","Artigo 24.º, n.º 1, alínea c) do Código dos Contratos Públicos",31-03-2017,"1.007,81 €",,,,Não aplicável.,Não aplicável.,FALSE
Prestação Serviços,Ajuste Direto Regime Geral,Aquisição de serviços,"85000000-9, Serviços de saúde e acção social",Centro Hospitalar Psiquiátrico de Lisboa (508338476),P 28 - Associação de Desenvolvimento Criativo e Artistico (509238998),"2.249,84 €",30-10-2017,30-12-2016,30 dias,"Portugal, Lisboa, Lisboa","Artigo 24.º, n.º 1, alínea c) do Código dos Contratos Públicos",31-01-2017,"2.249,84 €",,,,Não aplicável.,Não aplicável.,FALSE
prestação de serviço,Ajuste Direto Regime Geral,Aquisição de serviços,"85000000-9, Serviços de saúde e acção social",Centro Hospitalar Psiquiátrico de Lisboa (508338476),Inês Campilho Chaves (229012582),"1.007,81 €",30-10-2017,21-02-2017,30 dias,"Portugal, Lisboa, Lisboa","Artigo 24.º, n.º 1, alínea c) do Código dos Contratos Públicos",28-02-2017,"1.007,81 €",,,,Não aplicável.,Não aplicável.,FALSE
prestação de serviço,Ajuste Direto Regime Geral,Aquisição de serviços,"85000000-9, Serviços de saúde e acção social",Centro Hospitalar Psiquiátrico de Lisboa (508338476),Inês Campilho Chaves (229012582),"1.007,81 €",30-10-2017,28-12-2016,30 dias,"Portugal, Lisboa, Lisboa","Artigo 24.º, n.º 1, alínea c) do Código dos Contratos Públicos",31-01-2017,"1.007,81 €",,,,Não aplicável.,Não aplicável.,FALSE
prestação de serviço,Ajuste Direto Regime Geral,Aquisição de serviços,"85000000-9, Serviços de saúde e acção social",Centro Hospitalar Psiquiátrico de Lisboa (508338476),Maria Irene Oliveira Neves Almeida (153069163),"1.175,00 €",30-10-2017,28-12-2016,30 dias,"Portugal, Lisboa, Lisboa","Artigo 24.º, n.º 1, alínea c) do Código dos Contratos Públicos",31-01-2017,"1.175,00 €",,,,Não aplicável.,Não aplicável.,FALSE
prestação de serviço,Ajuste Direto Regime Geral,Aquisição de serviços,"85000000-9, Serviços de saúde e acção social",Centro Hospitalar Psiquiátrico de Lisboa (508338476),Maria Irene Oliveira Neves Almeida (153069163),"1.175,00 €",30-10-2017,21-02-2017,30 dias,"Portugal, Lisboa, Lisboa","Artigo 24.º, n.º 1, alínea c) do Código dos Contratos Públicos",28-02-2017,"1.175,00 €",,,,Não aplicável.,Não aplicável.,FALSE
prestação de serviço,Ajuste Direto Regime Geral,Aquisição de serviços,"85000000-9, Serviços de saúde e acção social",Centro Hospitalar Psiquiátrico de Lisboa (508338476),Maria Irene Oliveira Neves Almeida (153069163),"1.175,00 €",30-10-2017,07-03-2017,30 dias,"Portugal, Lisboa, Lisboa","Artigo 24.º, n.º 1, alínea c) do Código dos Contratos Públicos",31-03-2017,"1.175,00 €",,,,Não aplicável.,Não aplicável.,FALSE
Prestação serviços,Ajuste Direto Regime Geral,Aquisição de serviços,"85000000-9, Serviços de saúde e acção social",Centro Hospitalar Psiquiátrico de Lisboa (508338476),Maria Guilhermina Patrício Carvalho (177859393),"1.276,18 €",30-10-2017,30-12-2016,30 dias,"Portugal, Lisboa, Lisboa","Artigo 24.º, n.º 1, alínea c) do Código dos Contratos Públicos",31-01-2017,"1.276,18 €",,,,Não aplicável.,Não aplicável.,FALSE
prestação de serviço,Ajuste Direto Regime Geral,Aquisição de serviços,"85000000-9, Serviços de saúde e acção social",Centro Hospitalar Psiquiátrico de Lisboa (508338476),Odete Gomes Cunha Marques (174836333),"1.514,26 €",30-10-2017,28-12-2016,30 dias,"Portugal, Lisboa, Lisboa","Artigo 24.º, n.º 1, alínea c) do Código dos Contratos Públicos",31-01-2017,"1.514,26 €",,,,Não aplicável.,Não aplicável.,FALSE
Prestação Serviços,Ajuste Direto Regime Geral,Aquisição de serviços,"85000000-9, Serviços de saúde e acção social",Centro Hospitalar Psiquiátrico de Lisboa (508338476),Ana Sousa Nunes (239699203),"1.276,18 €",30-10-2017,30-12-2016,30 dias,"Portugal, Lisboa, Lisboa","Artigo 24.º, n.º 1, alínea c) do Código dos Contratos Públicos",31-01-2017,"1.276,18 €",,,,Não aplicável.,Não aplicável.,FALSE
prestação de serviço,Ajuste Direto Regime Geral,Aquisição de serviços,"85000000-9, Serviços de saúde e acção social",Centro Hospitalar Psiquiátrico de Lisboa (508338476),Odete Gomes Cunha Marques (174836333),"1.514,26 €",30-10-2017,21-02-2017,30 dias,"Portugal, Lisboa, Lisboa","Artigo 24.º, n.º 1, alínea c) do Código dos Contratos Públicos",28-02-2017,"1.514,26 €",,,,Não aplicável.,Não aplicável.,FALSE
prestação de serviço,Ajuste Direto Regime Geral,Aquisição de serviços,"85000000-9, Serviços de saúde e acção social",Centro Hospitalar Psiquiátrico de Lisboa (508338476),Odete Gomes Cunha Marques (174836333),"1.514,26 €",30-10-2017,07-03-2017,30 dias,"Portugal, Lisboa, Lisboa","Artigo 24.º, n.º 1, alínea c) do Código dos Contratos Públicos",31-03-2017,"1.514,26 €",,,,Não aplicável.,Não aplicável.,FALSE
prestação de serviço,Ajuste Direto Regime Geral,Aquisição de serviços,"85000000-9, Serviços de saúde e acção social",Centro Hospitalar Psiquiátrico de Lisboa (508338476),Natércia Dora Silva Conceição (205649106),"1.122,27 €",30-10-2017,07-03-2017,30 dias,"Portugal, Lisboa, Lisboa","Artigo 24.º, n.º 1, alínea c) do Código dos Contratos Públicos",31-03-2017,"1.122,27 €",,,,Não aplicável.,Não aplicável.,FALSE
prestação de serviço,Ajuste Direto Regime Geral,Aquisição de serviços,"85000000-9, Serviços de saúde e acção social",Centro Hospitalar Psiquiátrico de Lisboa (508338476),Natércia Dora Silva Conceição (205649106),"1.122,27 €",30-10-2017,21-02-2017,30 dias,"Portugal, Lisboa, Lisboa","Artigo 24.º, n.º 1, alínea c) do Código dos Contratos Públicos",28-02-2017,"1.122,27 €",,,,Não aplicável.,Não aplicável.,FALSE
prestação de serviço,Ajuste Direto Regime Geral,Aquisição de serviços,"85000000-9, Serviços de saúde e acção social",Centro Hospitalar Psiquiátrico de Lisboa (508338476),Natércia Dora Silva Conceição (205649106),"1.122,27 €",30-10-2017,28-12-2016,30 dias,"Portugal, Lisboa, Lisboa","Artigo 24.º, n.º 1, alínea c) do Código dos Contratos Públicos",31-01-2017,"1.122,27 €",,,,Não aplicável.,Não aplicável.,FALSE
prestação de serviço,Ajuste Direto Regime Geral,Aquisição de serviços,"85000000-9, Serviços de saúde e acção social",Centro Hospitalar Psiquiátrico de Lisboa (508338476),Inês Alexandra Fernandes Neto (196500826),"148,20 €",27-10-2017,07-03-2017,30 dias,"Portugal, Lisboa, Lisboa","Artigo 24.º, n.º 1, alínea c) do Código dos Contratos Públicos",31-03-2017,"148,20 €",,,,Não aplicável.,Não aplicável.,FALSE
prestação de serviço,Ajuste Direto Regime Geral,Aquisição de serviços,"85000000-9, Serviços de saúde e acção social",Centro Hospitalar Psiquiátrico de Lisboa (508338476),Inês Alexandra Fernandes Neto (196500826),"148,20 €",27-10-2017,21-02-2017,30 dias,"Portugal, Lisboa, Lisboa","Artigo 24.º, n.º 1, alínea c) do Código dos Contratos Públicos",28-02-2017,"148,20 €",,,,Não aplicável.,Não aplicável.,FALSE
prestação de serviço,Ajuste Direto Regime Geral,Aquisição de serviços,"85000000-9, Serviços de saúde e acção social",Centro Hospitalar Psiquiátrico de Lisboa (508338476),Inês Alexandra Fernandes Neto (196500826),"148,20 €",27-10-2017,30-12-2016,30 dias,"Portugal, Lisboa, Lisboa","Artigo 24.º, n.º 1, alínea c) do Código dos Contratos Públicos",31-01-2017,"148,20 €",,,,Não aplicável.,Não aplicável.,FALSE
Prestação Serviços,Ajuste Direto Regime Geral,Aquisição de serviços,"85000000-9, Serviços de saúde e acção social",Centro Hospitalar Psiquiátrico de Lisboa (508338476),Maria Guilhermina Patrício Carvalho (177859393),"1.276,18 €",27-10-2017,21-02-2017,30 dias,"Portugal, Lisboa, Lisboa","Artigo 24.º, n.º 1, alínea c) do Código dos Contratos Públicos",28-02-2017,"1.276,18 €",,,,Não aplicável.,Não aplicável.,FALSE
Prestação Serviços,Ajuste Direto Regime Geral,Aquisição de serviços,"85000000-9, Serviços de saúde e acção social",Centro Hospitalar Psiquiátrico de Lisboa (508338476),Ana Sousa Nunes (239699203),"1.276,18 €",27-10-2017,21-02-2017,30 dias,"Portugal, Lisboa, Lisboa","Artigo 24.º, n.º 1, alínea c) do Código dos Contratos Públicos",28-02-2017,"1.276,18 €",,,,Não aplicável.,Não aplicável.,FALSE
Prestação Serviços,Ajuste Direto Regime Geral,Aquisição de serviços,"85000000-9, Serviços de saúde e acção social",Centro Hospitalar Psiquiátrico de Lisboa (508338476),Maria Guilhermina Patrício Carvalho (177859393),"1.276,18 €",27-10-2017,07-03-2017,30 dias,"Portugal, Lisboa, Lisboa","Artigo 24.º, n.º 1, alínea c) do Código dos Contratos Públicos",31-03-2017,"1.276,18 €",,,,Não aplicável.,Não aplicável.,FALSE
prestação de serviço,Ajuste Direto Regime Geral,Aquisição de serviços,"85000000-9, Serviços de saúde e acção social",Centro Hospitalar Psiquiátrico de Lisboa (508338476),"Neves Silva - Medicina Laboratporial Unipessoal, Lda (510542212)","1.270,14 €",27-10-2017,16-05-2017,30 dias,"Portugal, Lisboa, Lisboa","Artigo 24.º, n.º 1, alínea c) do Código dos Contratos Públicos",16-06-2017,"1.270,14 €",,,,Não aplicável.,Não aplicável.,FALSE
prestação de serviço,Ajuste Direto Regime Geral,Aquisição de serviços,"85000000-9, Serviços de saúde e acção social",Centro Hospitalar Psiquiátrico de Lisboa (508338476),"Neves Silva - Medicina Laboratporial Unipessoal, Lda (510542212)","595,38 €",27-10-2017,08-05-2017,30 dias,"Portugal, Lisboa, Lisboa","Artigo 24.º, n.º 1, alínea c) do Código dos Contratos Públicos",31-05-2017,"595,38 €",,,,Não aplicável.,Não aplicável.,FALSE
prestação de serviço,Ajuste Direto Regime Geral,Aquisição de serviços,"85000000-9, Serviços de saúde e acção social",Centro Hospitalar Psiquiátrico de Lisboa (508338476),"Neves Silva - Medicina Laboratporial Unipessoal, Lda (510542212)","1.190,75 €",27-10-2017,05-04-2017,30 dias,"Portugal, Lisboa, Lisboa","Artigo 24.º, n.º 1, alínea c) do Código dos Contratos Públicos",30-04-2017,"1.190,75 €",,,,Não aplicável.,Não aplicável.,FALSE
prestação de serviço,Ajuste Direto Regime Geral,Aquisição de serviços,"85000000-9, Serviços de saúde e acção social",Centro Hospitalar Psiquiátrico de Lisboa (508338476),"Neves Silva - Medicina Laboratporial Unipessoal, Lda (510542212)","1.430,00 €",27-10-2017,07-03-2017,30 dias,"Portugal, Lisboa, Lisboa","Artigo 24.º, n.º 1, alínea c) do Código dos Contratos Públicos",31-03-2017,"1.430,00 €",,,,Não aplicável.,Não aplicável.,FALSE
prestação de serviço,Ajuste Direto Regime Geral,Aquisição de serviços,"85000000-9, Serviços de saúde e acção social",Centro Hospitalar Psiquiátrico de Lisboa (508338476),"Neves Silva - Medicina Laboratporial Unipessoal, Lda (510542212)","1.190,75 €",27-10-2017,21-02-2017,30 dias,"Portugal, Lisboa, Lisboa","Artigo 24.º, n.º 1, alínea c) do Código dos Contratos Públicos",28-02-2017,"1.190,75 €",,,,Não aplicável.,Não aplicável.,FALSE
Prestação Serviços,Ajuste Direto Regime Geral,Aquisição de serviços,"85000000-9, Serviços de saúde e acção social",Centro Hospitalar Psiquiátrico de Lisboa (508338476),Ana Sousa Nunes (239699203),"1.276,18 €",26-10-2017,07-03-2017,30 dias,"Portugal, Lisboa, Lisboa","Artigo 24.º, n.º 1, alínea c) do Código dos Contratos Públicos",07-03-2017,"1.276,18 €",,,,Não aplicável.,Não aplicável.,FALSE
Prestação Serviços,Ajuste Direto Regime Geral,Aquisição de serviços,"85000000-9, Serviços de saúde e acção social",Centro Hospitalar Psiquiátrico de Lisboa (508338476),Catarina Isabel Desterro Valentim (229146295),"1.120,00 €",26-10-2017,05-04-2017,30 dias,"Portugal, Lisboa, Lisboa","Artigo 24.º, n.º 1, alínea c) do Código dos Contratos Públicos",30-04-2017,"1.120,00 €",,,,Não aplicável.,Não aplicável.,FALSE
Prestação Serviços,Ajuste Direto Regime Geral,Aquisição de serviços,"85000000-9, Serviços de saúde e acção social",Centro Hospitalar Psiquiátrico de Lisboa (508338476),Maria Guilhermina Patrício Carvalho (177859393),"1.276,18 €",26-10-2017,05-04-2017,30 dias,"Portugal, Lisboa, Lisboa","Artigo 24.º, n.º 1, alínea c) do Código dos Contratos Públicos",30-04-2017,"1.276,18 €",,,,Não aplicável.,Não aplicável.,FALSE
prestação de serviço,Ajuste Direto Regime Geral,Aquisição de serviços,"85000000-9, Serviços de saúde e acção social",Centro Hospitalar Psiquiátrico de Lisboa (CHPL) (508338476),"Neves Silva - Medicina Laboratporial Unipessoal, Lda (510542212)","1.190,75 €",26-10-2017,01-01-2017,30 dias,"Portugal, Lisboa, Lisboa","Artigo 24.º, n.º 1, alínea c) do Código dos Contratos Públicos",31-01-2017,"1.190,75 €",,,,Não aplicável.,Não aplicável.,FALSE
prestação de serviço,Ajuste Direto Regime Geral,Aquisição de serviços,"85000000-9, Serviços de saúde e acção social",Centro Hospitalar Psiquiátrico de Lisboa (CHPL) (508338476),João Pedro Fidalgo da Costa (235451460),"1.276,18 €",26-10-2017,02-01-2017,30 dias,"Portugal, Lisboa, Lisboa","Artigo 24.º, n.º 1, alínea c) do Código dos Contratos Públicos","","",,,,Não aplicável.,Não aplicável.,FALSE
prestação de serviço,Ajuste Direto Regime Geral,Aquisição de serviços,"85000000-9, Serviços de saúde e acção social",Centro Hospitalar Psiquiátrico de Lisboa (CHPL) (508338476),Carina Alexandra Sá Cardoso (250777630),"1.190,30 €",26-10-2017,12-09-2017,30 dias,"Portugal, Lisboa, Lisboa","Artigo 24.º, n.º 1, alínea c) do Código dos Contratos Públicos",30-09-2017,"1.190,30 €",,,,Não aplicável.,Não aplicável.,FALSE
prestação de serviço,Ajuste Direto Regime Geral,Aquisição de serviços,"85000000-9, Serviços de saúde e acção social",Centro Hospitalar Psiquiátrico de Lisboa (508338476),Ana Rita Moura Faria (164395296),"1.227,50 €",26-10-2017,12-09-2017,30 dias,"Portugal, Lisboa, Lisboa","Artigo 24.º, n.º 1, alínea c) do Código dos Contratos Públicos",30-09-2017,"1.227,50 €",,,,Não aplicável.,Não aplicável.,FALSE
prestação de serviço,Ajuste Direto Regime Geral,Aquisição de serviços,"85000000-9, Serviços de saúde e acção social",Centro Hospitalar Psiquiátrico de Lisboa (508338476),Carina Alexandra Sá Cardoso (250777630),"1.190,30 €",26-10-2017,11-08-2017,30 dias,"Portugal, Lisboa, Lisboa","Artigo 24.º, n.º 1, alínea c) do Código dos Contratos Públicos",31-08-2017,"1.190,30 €",,,,Não aplicável.,Não aplicável.,FALSE
prestação de serviço,Ajuste Direto Regime Geral,Aquisição de serviços,"85000000-9, Serviços de saúde e acção social",Centro Hospitalar Psiquiátrico de Lisboa (508338476),Ana Rita Moura Faria (164395296),"1.227,50 €",26-10-2017,11-08-2017,30 dias,"Portugal, Lisboa, Lisboa","Artigo 24.º, n.º 1, alínea c) do Código dos Contratos Públicos",31-08-2017,"1.227,50 €",,,,Não aplicável.,Não aplicável.,FALSE
prestação de serviço,Ajuste Direto Regime Geral,Aquisição de serviços,"85000000-9, Serviços de saúde e acção social",Centro Hospitalar Psiquiátrico de Lisboa (508338476),Carina Alexandra Sá Cardoso (250777630),"1.190,30 €",26-10-2017,12-07-2017,30 dias,"Portugal, Lisboa, Lisboa","Artigo 24.º, n.º 1, alínea c) do Código dos Contratos Públicos",31-07-2017,"1.190,30 €",,,,Não aplicável.,Não aplicável.,FALSE
prestação de serviço,Ajuste Direto Regime Geral,Aquisição de serviços,"85000000-9, Serviços de saúde e acção social",Centro Hospitalar Psiquiátrico de Lisboa (508338476),Ana Rita Moura Faria (164395296),"1.227,50 €",26-10-2017,12-07-2017,30 dias,"Portugal, Lisboa, Lisboa","Artigo 24.º, n.º 1, alínea c) do Código dos Contratos Públicos",31-07-2017,"1.227,50 €",,,,Não aplicável.,Não aplicável.,FALSE
prestação de serviço,Ajuste Direto Regime Geral,Aquisição de serviços,"85000000-9, Serviços de saúde e acção social",Centro Hospitalar Psiquiátrico de Lisboa (508338476),Ana Rita Moura Faria (164395296),"1.227,50 €",26-10-2017,09-06-2017,30 dias,"Portugal, Lisboa, Lisboa","Artigo 24.º, n.º 1, alínea c) do Código dos Contratos Públicos",30-06-2017,"1.227,50 €",,,,Não aplicável.,Não aplicável.,FALSE
prestação de serviço,Ajuste Direto Regime Geral,Aquisição de serviços,"85000000-9, Serviços de saúde e acção social",Centro Hospitalar Psiquiátrico de Lisboa (508338476),Carina Alexandra Sá Cardoso (250777630),"1.190,30 €",25-10-2017,09-06-2017,30 dias,"Portugal, Lisboa, Lisboa","Artigo 24.º, n.º 1, alínea c) do Código dos Contratos Públicos",30-06-2017,"1.190,30 €",,,,Não aplicável.,Não aplicável.,FALSE
prestação de serviço,Ajuste Direto Regime Geral,Aquisição de serviços,"85000000-9, Serviços de saúde e acção social",Centro Hospitalar Psiquiátrico de Lisboa (508338476),Ana Rita Moura Faria (164395296),"1.227,50 €",25-10-2017,10-05-2017,30 dias,"Portugal, Lisboa, Lisboa","Artigo 24.º, n.º 1, alínea c) do Código dos Contratos Públicos",31-05-2017,"1.227,50 €",,,,Não aplicável.,Não aplicável.,FALSE
prestação de serviço,Ajuste Direto Regime Geral,Aquisição de serviços,"85000000-9, Serviços de saúde e acção social",Centro Hospitalar Psiquiátrico de Lisboa (508338476),Carina Alexandra Sá Cardoso (250777630),"1.190,30 €",25-10-2017,09-05-2017,30 dias,"Portugal, Lisboa, Lisboa","Artigo 24.º, n.º 1, alínea c) do Código dos Contratos Públicos",09-05-2017,"1.190,30 €",,,,Não aplicável.,Não aplicável.,FALSE
prestação de serviço,Ajuste Direto Regime Geral,Aquisição de serviços,"85000000-9, Serviços de saúde e acção social",Centro Hospitalar Psiquiátrico de Lisboa (CHPL) (508338476),Carina Alexandra Sá Cardoso (250777630),"1.190,30 €",25-10-2017,05-04-2017,30 dias,"Portugal, Lisboa, Lisboa","Artigo 24.º, n.º 1, alínea c) do Código dos Contratos Públicos",30-04-2017,"1.190,30 €",,,,Não aplicável.,Não aplicável.,FALSE
prestação de serviço,Ajuste Direto Regime Geral,Aquisição de serviços,"85000000-9, Serviços de saúde e acção social",Centro Hospitalar Psiquiátrico de Lisboa (508338476),Ana Rita Moura Faria (164395296),"1.227,50 €",25-10-2017,05-04-2017,30 dias,"Portugal, Lisboa, Lisboa","Artigo 24.º, n.º 1, alínea c) do Código dos Contratos Públicos",30-04-2017,"1.227,50 €",,,,Não aplicável.,Não aplicável.,FALSE
Prestação serviços,Ajuste Direto Regime Geral,Aquisição de serviços,"85000000-9, Serviços de saúde e acção social",Centro Hospitalar Psiquiátrico de Lisboa (508338476),"Eposters, Soc. Unipessoal (510771815)","972,00 €",25-10-2017,08-05-2017,30 dias,"Portugal, Lisboa, Lisboa","Artigo 24.º, n.º 1, alínea c) do Código dos Contratos Públicos",31-05-2017,"972,00 €",,,,Não aplicável.,Não aplicável.,FALSE
prestação de serviço,Ajuste Direto Regime Geral,Aquisição de serviços,"85000000-9, Serviços de saúde e acção social",Centro Hospitalar Psiquiátrico de Lisboa (CHPL) (508338476),Carina Alexandra Sá Cardoso (250777630),"1.190,30 €",25-10-2017,07-03-2017,30 dias,"Portugal, Lisboa, Lisboa","Artigo 24.º, n.º 1, alínea c) do Código dos Contratos Públicos",31-03-2017,"1.190,30 €",,,,Não aplicável.,Não aplicável.,FALSE
Prestação serviços,Ajuste Direto Regime Geral,Aquisição de serviços,"85000000-9, Serviços de saúde e acção social",Centro Hospitalar Psiquiátrico de Lisboa (508338476),"Eposters, Soc. Unipessoal (510771815)","972,00 €",25-10-2017,05-04-2017,30 dias,"Portugal, Lisboa, Lisboa","Artigo 24.º, n.º 1, alínea c) do Código dos Contratos Públicos",30-04-2017,"972,00 €",,,,Não aplicável.,Não aplicável.,FALSE
prestação de serviço,Ajuste Direto Regime Geral,Aquisição de serviços,"85000000-9, Serviços de saúde e acção social",Centro Hospitalar Psiquiátrico de Lisboa (CHPL) (508338476),Ana Rita Moura Faria (164395296),"1.227,50 €",25-10-2017,07-03-2017,30 dias,"Portugal, Lisboa, Lisboa","Artigo 24.º, n.º 1, alínea c) do Código dos Contratos Públicos",31-03-2017,"1.227,50 €",,,,Não aplicável.,Não aplicável.,FALSE
prestação de serviço,Ajuste Direto Regime Geral,Aquisição de serviços,"85000000-9, Serviços de saúde e acção social",Centro Hospitalar Psiquiátrico de Lisboa (CHPL) (508338476),Carina Alexandra Sá Cardoso (250777630),"1.190,30 €",25-10-2017,21-02-2017,30 dias,"Portugal, Lisboa, Lisboa","Artigo 24.º, n.º 1, alínea c) do Código dos Contratos Públicos",28-02-2017,"1.190,30 €",,,,Não aplicável.,Não aplicável.,FALSE
prestação de serviço,Ajuste Direto Regime Geral,Aquisição de serviços,"85000000-9, Serviços de saúde e acção social",Centro Hospitalar Psiquiátrico de Lisboa (CHPL) (508338476),Ana Rita Moura Faria (164395296),"1.227,50 €",25-10-2017,21-02-2017,30 dias,"Portugal, Lisboa, Lisboa","Artigo 24.º, n.º 1, alínea c) do Código dos Contratos Públicos",28-02-2017,"1.227,50 €",,,,Não aplicável.,Não aplicável.,FALSE
prestação de serviço,Ajuste Direto Regime Geral,Aquisição de serviços,"85000000-9, Serviços de saúde e acção social",Centro Hospitalar Psiquiátrico de Lisboa (CHPL) (508338476),Carina Alexandra Sá Cardoso (250777630),"1.190,30 €",25-10-2017,30-12-2016,30 dias,"Portugal, Lisboa, Lisboa","Artigo 24.º, n.º 1, alínea c) do Código dos Contratos Públicos",31-01-2017,"1.190,30 €",,,,Não aplicável.,Não aplicável.,FALSE
prestação de serviço,Ajuste Direto Regime Geral,Aquisição de serviços,"85000000-9, Serviços de saúde e acção social",Centro Hospitalar Psiquiátrico de Lisboa (508338476),Ana Rita Moura Faria (164395296),"1.227,50 €",25-10-2017,30-12-2016,30 dias,"Portugal, Lisboa, Lisboa","Artigo 24.º, n.º 1, alínea c) do Código dos Contratos Públicos",31-01-2017,"1.227,50 €",,,,Não aplicável.,Não aplicável.,FALSE
prestação de serviço,Ajuste Direto Regime Geral,Aquisição de serviços,"85000000-9, Serviços de saúde e acção social",Centro Hospitalar Psiquiátrico de Lisboa (508338476),Sandra Maria de Sousa Aragão (211394190),"722,50 €",23-10-2017,11-10-2017,30 dias,"Portugal, Lisboa, Lisboa","Artigo 24.º, n.º 1, alínea c) do Código dos Contratos Públicos",31-10-2017,"722,50 €",,,,Não aplicável.,Não aplicável.,FALSE
