Objeto do Contrato,Tipo de Procedimento,Tipo(s) de Contrato,CPVs,Entidade(s) Adjudicante(s),Entidade(s) Adjudicatária(s),Preço Contratual,Data de Publicação,Data de Celebração do Contrato,Prazo de Execução,Local de Execução,Fundamentação,Data de Fecho do Contrato,Preço Total Efetivo,Causas das Alterações ao Prazo,Causas das Alterações ao Preço,Estado,N.º registo do Acordo Quadro,Descrição do Acordo Quadro,Procedimento Centralizado
AQUISICAO DE MEDICAMENTOS,Ajuste Direto Regime Geral,Aquisição de bens móveis,"33661000-1, Medicamentos para o sistema nervoso",Centro Hospitalar Psiquiatrico de Lisboa (508338476),LABORATORIOS (500162220),"40,00 €",20-12-2011,02-12-2011,1 dias,"Portugal, Lisboa, Lisboa","Artigo 24.º, n.º 1, alínea e) do Código dos Contratos Públicos",05-12-2011,"40,00 €",,,,Não aplicável.,Não aplicável.,
AQUISICAO DE REAGENTES,Ajuste Direto Regime Geral,Aquisição de bens móveis,"33696500-0, Reagentes de laboratório",Centro Hospitalar Psiquiatrico de Lisboa (508338476),BAPTISTA MARQUES (501439110),"78,00 €",16-12-2011,23-09-2011,1 dias,"Portugal, Lisboa, Lisboa","Artigo 24.º, n.º 1, alínea e) do Código dos Contratos Públicos",24-09-2011,"78,00 €",,,,Não aplicável.,Não aplicável.,
AQUISICAO DE MEDICAMENTOS,Ajuste Direto Regime Geral,Aquisição de bens móveis,"33661000-1, Medicamentos para o sistema nervoso",Centro Hospitalar Psiquiatrico de Lisboa (508338476),BRISTOL MYERS SQUIBB (500048193),"3.683,11 €",16-12-2011,15-11-2011,2 dias,"Portugal, Lisboa, Lisboa","Artigo 24.º, n.º 1, alínea e) do Código dos Contratos Públicos",17-11-2011,"3.683,11 €",,,,Não aplicável.,Não aplicável.,
