Objeto do Contrato,Tipo de Procedimento,Tipo(s) de Contrato,CPVs,Entidade(s) Adjudicante(s),Entidade(s) Adjudicatária(s),Preço Contratual,Data de Publicação,Data de Celebração do Contrato,Prazo de Execução,Local de Execução,Fundamentação,Data de Fecho do Contrato,Preço Total Efetivo,Causas das Alterações ao Prazo,Causas das Alterações ao Preço,Estado,N.º registo do Acordo Quadro,Descrição do Acordo Quadro,Procedimento Centralizado
Aquisição de medicamentos - BOLSA NP CENTRAL E PERIFÉRICA; Cloreto de sódio; Cloreto de potássio e Morfina,Ajuste Direto Regime Geral,Aquisição de bens móveis,"33600000-6, Produtos farmacêuticos","Instituto Português de Oncologia do Porto Francisco Gentil, E. P. E. (506362299)","B.BRAUN MEDICAL, LDA (501506543)","46.724,26 €",30-11-2018,22-11-2018,20 dias,"Portugal, Porto, Porto","Artigo 24.º, n.º 1, alínea c) do Código dos Contratos Públicos",,,,,,Não aplicável.,Não aplicável.,FALSE
"Aquisição de medicamentos - OSIMERtinib, Esomeprazol e Olaparib",Ajuste Direto Regime Geral,Aquisição de bens móveis,"33600000-6, Produtos farmacêuticos","Instituto Português de Oncologia do Porto Francisco Gentil, E. P. E. (506362299)",ASTRAZENECA PRODUTOS FARMACEUTICOS LDA (502942240),"169.284,18 €",30-11-2018,22-11-2018,20 dias,"Portugal, Porto, Porto","Artigo 24.º, n.º 1, alínea e), subalínea ii) do Código dos Contratos Públicos",,,,,,Não aplicável.,Não aplicável.,FALSE
Aquisição de medicamentos - Enzalutamida e Micafungina,Ajuste Direto Regime Geral,Aquisição de bens móveis,"33600000-6, Produtos farmacêuticos","Instituto Português de Oncologia do Porto Francisco Gentil, E. P. E. (506362299)","ASTELLAS FARMA, LDA. (502540249)","177.106,80 €",30-11-2018,15-11-2018,20 dias,"Portugal, Porto, Porto","Artigo 24.º, n.º 1, alínea e), subalínea ii) do Código dos Contratos Públicos",,,,,,Não aplicável.,Não aplicável.,FALSE
Aquisição de medicamentos - Imunoglobulina antilinfócitos (coelho),Ajuste Direto Regime Geral,Aquisição de bens móveis,"33600000-6, Produtos farmacêuticos","Instituto Português de Oncologia do Porto Francisco Gentil, E. P. E. (506362299)",ALLOGA PORTUGAL ARMAZENAGEM E DISTRIBUIÇÃOFARMACEUTICA LDA (504507230),"20.609,16 €",30-11-2018,26-11-2018,20 dias,"Portugal, Porto, Porto","Artigo 24.º, n.º 1, alínea e), subalínea ii) do Código dos Contratos Públicos",,,,,,Não aplicável.,Não aplicável.,FALSE
Aquisição de medicamentos - ECULIZumab,Ajuste Direto Regime Geral,Aquisição de bens móveis,"33600000-6, Produtos farmacêuticos","Instituto Português de Oncologia do Porto Francisco Gentil, E. P. E. (506362299)",ALEXION PHARMA SPAIN S.L. - SUCURSAL P (980553768),"27.713,35 €",29-11-2018,12-11-2018,20 dias,"Portugal, Porto, Porto","Artigo 24.º, n.º 1, alínea e), subalínea ii) do Código dos Contratos Públicos",,,,,,Não aplicável.,Não aplicável.,FALSE
Aquisição de medicamentos - Gadoterato de meglumina,Ajuste Direto Regime Geral,Aquisição de bens móveis,"33600000-6, Produtos farmacêuticos","Instituto Português de Oncologia do Porto Francisco Gentil, E. P. E. (506362299)",GUERBET A MARTINS  FERNANDES S A (501172114),"10.248,00 €",28-11-2018,06-11-2018,20 dias,"Portugal, Porto, Porto","Artigo 24.º, n.º 1, alínea e), subalínea ii) do Código dos Contratos Públicos",,,,,,Não aplicável.,Não aplicável.,FALSE
Aquisição centralizada SPMS - P259-2018-144 - SUNITINIB,Ao abrigo de acordo-quadro (art.º 259.º),Aquisição de bens móveis,"33600000-6, Produtos farmacêuticos","Instituto Português de Oncologia do Porto Francisco Gentil, E. P. E. (506362299)","PFIZER BIOFARMACÊUTICA, SOCIEDADE UNIPESSOAL, LDA. (513300376)","7.727,92 €",28-11-2018,23-10-2018,67 dias,"Portugal, Porto, Porto",Artigo 259.º do Código dos Contratos Públicos,,,,,,2969238,"CP 2017/6 - Acordo Quadro para fornecimento de Medicamentos do Foro Oncológico e Imunomoduladores, às Instituições e Serviços do Serviço Nacional de Saúde",FALSE
Contrato Assistência Técnica a aplicativos First Solutions - 4º trimestre de 2014,Ajuste Direto Regime Geral,Aquisição de serviços,"72200000-7, Serviços de consultoria e de programação de software","Instituto Português de Oncologia do Porto Francisco Gentil, E. P. E. (506362299)","First Solutions - Sistemas e Informação, S.A. (505345978)","10.220,00 €",28-11-2018,27-06-2017,365 dias,"Portugal, Porto, Porto","Artigo 24.º, n.º 1, alínea e) do Código dos Contratos Públicos",,,,,,Não aplicável.,Não aplicável.,FALSE
Aquisição centralizada SPMS - AD-2018-71 - IMATINIB para terapêutica GIST,Ajuste Direto Regime Geral,Aquisição de bens móveis,"33600000-6, Produtos farmacêuticos","Instituto Português de Oncologia do Porto Francisco Gentil, E. P. E. (506362299)","NOVARTIS FARMA, S.A (500063524)","266.011,64 €",28-11-2018,02-10-2018,90 dias,"Portugal, Porto, Porto","Artigo 24.º, n.º 1, alínea e), subalínea ii) do Código dos Contratos Públicos",,,,,,Não aplicável.,Não aplicável.,FALSE
AR CONDICIONADO PARA SALAS TAC'S,Ajuste Direto Regime Geral,Aquisição de bens móveis,"42512000-8, Instalações de ar condicionado","Instituto Português de Oncologia do Porto Francisco Gentil, E. P. E. (506362299)","POLITÉRMICA - Engenharia, Lda (503653209)","5.211,54 €",28-11-2018,03-10-2017,20 dias,"Portugal, Porto, Porto","Artigo 20.º, n.º 1, alínea a) do Código dos Contratos Públicos",,,,,,Não aplicável.,Não aplicável.,FALSE
"SERVIÇOS NA ÁREA DOS INCENTIVOS, REFERENTES À REALIZAÇÃO DOS TRABALHOS RELACIONADOS COM A PREPARAÇÃO DE CANDIDATIRA AO PROGRAMA OPERACIONAL SUSTENTABILIDADE E EFICIÊNCIA NO USO DE RECURSOS, 2.º TRANCHE. ",Ajuste Direto Regime Geral,Aquisição de serviços,"79000000-4, Serviços a empresas: direito, comercialização, consultoria, recrutamento, impressão e segurança","Instituto Português de Oncologia do Porto Francisco Gentil, E. P. E. (506362299)","Deloitte Consultores, S.A. (502310090)","25.000,00 €",28-11-2018,27-06-2017,20 dias,"Portugal, Porto, Porto","Artigo 20.º, n.º 1, alínea a) do Código dos Contratos Públicos",,,,,,Não aplicável.,Não aplicável.,FALSE
Aluguer de equipamento de cópia e impressões,Ajuste Direto Regime Geral,Aquisição de bens móveis,"30000000-9, Máquinas, equipamento e material de escritório e de informática, excepto mobiliário e pacotes de programas (software)","Instituto Português de Oncologia do Porto Francisco Gentil, E. P. E. (506362299)","KONICA MINOLTA BUSINESS SOLUTIONS PORTUGAL UNIPESSOAL, LDA. (502120070)","3.767,50 €",28-11-2018,16-02-2017,30 dias,"Portugal, Porto, Porto","Artigo 20.º, n.º 1, alínea a) do Código dos Contratos Públicos",,,,,,Não aplicável.,Não aplicável.,FALSE
Aquisição de BRCA TUMOR DX24 RXNS / 2X V2 500 / WITH BIOINFORMA,Ajuste Direto Regime Geral,Aquisição de bens móveis,"33000000-0, Equipamento médico, medicamentos e produtos para cuidados pessoais","Instituto Português de Oncologia do Porto Francisco Gentil, E. P. E. (506362299)",Genycell Biotech (B-18583336),"7.628,00 €",28-11-2018,18-10-2018,20 dias,"Portugal, Porto, Porto","Artigo 20.º, n.º 1, alínea d) do Código dos Contratos Públicos",,,,,,Não aplicável.,Não aplicável.,FALSE
INSTALAÇÃO DE VENTILOCONVECTIORES NO SANP,Ajuste Direto Regime Geral,Aquisição de bens móveis,"42512000-8, Instalações de ar condicionado","Instituto Português de Oncologia do Porto Francisco Gentil, E. P. E. (506362299)","POLITÉRMICA - Engenharia, Lda (503653209)","6.881,21 €",28-11-2018,01-06-2017,20 dias,"Portugal, Porto, Porto","Artigo 20.º, n.º 1, alínea a) do Código dos Contratos Públicos",,,,,,Não aplicável.,Não aplicável.,FALSE
CRIAÇÃO E DESENVOLVIMENTO DE  WEBSITE DO IPO-PORTO,Ajuste Direto Regime Geral,Aquisição de serviços,"79340000-9, Serviços de publicidade e marketing","Instituto Português de Oncologia do Porto Francisco Gentil, E. P. E. (506362299)",MEDIANA-SOC.GESTORA DE IMAGEM E COMUNIC.SA (502549033),"8.450,00 €",28-11-2018,21-12-2017,20 dias,"Portugal, Porto, Porto","Artigo 20.º, n.º 1, alínea a) do Código dos Contratos Públicos",,,,,,Não aplicável.,Não aplicável.,FALSE
Fornecimento de gás natural Dezembro 2016,Ao abrigo de acordo-quadro (art.º 259.º),Aquisição de bens móveis,"09123000-7, Gás natural","Instituto Português de Oncologia do Porto Francisco Gentil, E. P. E. (506362299)","Galp Power, S.A. (504723456)","36.460,85 €",28-11-2018,24-01-2017,30 dias,"Portugal, Porto, Porto",Artigo 259.º do Código dos Contratos Públicos,,,,,,1555095,Acordo quadro para o fornecimento de gás natural em regime de mercado livre para Portugal Continental,FALSE
"Aquisição de medicamentos - Trifluridina + tipiracilo 20mg+8,19 mg",Ajuste Direto Regime Geral,Aquisição de bens móveis,"33600000-6, Produtos farmacêuticos","Instituto Português de Oncologia do Porto Francisco Gentil, E. P. E. (506362299)",SERVIER PORTUGAL - ESPECIALIDADES FARMACEUTICAS (502177420),"23.802,62 €",27-11-2018,15-11-2018,20 dias,"Portugal, Porto, Porto","Artigo 24.º, n.º 1, alínea e), subalínea ii) do Código dos Contratos Públicos",,,,,,Não aplicável.,Não aplicável.,FALSE
Fornecimento de eletricidade,Ao abrigo de acordo-quadro (art.º 259.º),Aquisição de bens móveis,"09310000-5, Electricidade",Ipo Porto (506362299),"EDP COMERCIAL – COMERCIALIZAÇÃO DE ENERGIA, S.A. (503504564)","1.165.549,75 €",27-11-2018,06-02-2017,365 dias,"Portugal, Porto, Porto",Artigo 259.º do Código dos Contratos Públicos,,,,,,314294,Acordo quadro para o fornecimento de electricidade em regime de mercado livre para Portugal Continental,FALSE
REVESTIMENTO DE PAREDES NAS NOVAS SALAS PARA TAC,Ajuste Direto Regime Geral,Aquisição de bens móveis,"44111400-5, Tintas e revestimentos de parede","Instituto Português de Oncologia do Porto Francisco Gentil, E. P. E. (506362299)","DmFlex, Lda (509624669)","11.178,94 €",27-11-2018,26-01-2018,20 dias,"Portugal, Porto, Porto","Artigo 20.º, n.º 1, alínea a) do Código dos Contratos Públicos",,,,,,Não aplicável.,Não aplicável.,FALSE
REALIZAÇÃO DO TRABALHOS RELACIONADOS COM A PREPARAÇÃO DA 2ª CANDIDATURA AO PROGRAMA OPERACIONAL SUSTENTABILIDADE E EFICIÊNCIA NO USO DE RECURSOS - 2ª TRANCHE,Ajuste Direto Regime Geral,Aquisição de serviços,"79000000-4, Serviços a empresas: direito, comercialização, consultoria, recrutamento, impressão e segurança","Instituto Português de Oncologia do Porto Francisco Gentil, E. P. E. (506362299)","Deloitte Consultores, S.A. (502310090)","11.659,00 €",27-11-2018,03-10-2017,20 dias,"Portugal, Porto, Porto","Artigo 20.º, n.º 1, alínea a) do Código dos Contratos Públicos",,,,,,Não aplicável.,Não aplicável.,FALSE
AR CONDICIONADO PARA SALAS TAC'S,Ajuste Direto Regime Geral,Aquisição de bens móveis,"42512000-8, Instalações de ar condicionado","Instituto Português de Oncologia do Porto Francisco Gentil, E. P. E. (506362299)","POLITÉRMICA - Engenharia, Lda (503653209)","9.365,12 €",27-11-2018,24-05-2017,20 dias,"Portugal, Porto, Porto","Artigo 20.º, n.º 1, alínea a) do Código dos Contratos Públicos",,,,,,Não aplicável.,Não aplicável.,FALSE
Campanhã para dádiva de sangue,Ajuste Direto Regime Geral,Aquisição de serviços,"79340000-9, Serviços de publicidade e marketing","Instituto Português de Oncologia do Porto Francisco Gentil, E. P. E. (506362299)",MEDIANA-SOC.GESTORA DE IMAGEM E COMUNIC.SA (502549033),"24.186,00 €",27-11-2018,27-10-2017,20 dias,"Portugal, Porto, Porto","Artigo 24.º, n.º 1, alínea e) do Código dos Contratos Públicos",,,,,,Não aplicável.,Não aplicável.,FALSE
Serviços de oftalmologia em Dezembro de 2016,Ajuste Direto Regime Geral,Aquisição de serviços,"85100000-0, Serviços de saúde","Instituto Português de Oncologia do Porto Francisco Gentil, E. P. E. (506362299)",Clínica Médica e Oftalmológica Lemos e Teves Lda.  (506497364),"16.710,00 €",27-11-2018,10-01-2017,20 dias,"Portugal, Porto, Porto","Artigo 24.º, n.º 1, alínea e) do Código dos Contratos Públicos",,,,,,Não aplicável.,Não aplicável.,FALSE
Serviços de codificação,Ajuste Direto Regime Geral,Aquisição de serviços,"85140000-2, Serviços de saúde diversos","Instituto Português de Oncologia do Porto Francisco Gentil, E. P. E. (506362299)",Vera Lúcia Ferreira - Serviços Médicos Lda.  (513832190),"12.600,00 €",27-11-2018,25-07-2017,20 dias,"Portugal, Porto, Porto","Artigo 20.º, n.º 1, alínea a) do Código dos Contratos Públicos",,,,,,Não aplicável.,Não aplicável.,FALSE
Serviços de codificação,Ajuste Direto Regime Geral,Aquisição de serviços,"85140000-2, Serviços de saúde diversos","IPO Porto FG, EPE (506362299)","595-SERVIÇOS MÉDICOS, LDA (506113000)","14.700,00 €",27-11-2018,29-06-2017,20 dias,"Portugal, Porto, Porto","Artigo 20.º, n.º 1, alínea a) do Código dos Contratos Públicos",,,,,,Não aplicável.,Não aplicável.,FALSE
Pacote anual de SMS,Ajuste Direto Regime Geral,Aquisição de serviços,"64200000-8, Serviços de telecomunicações","Instituto Português de Oncologia do Porto Francisco Gentil, E. P. E. (506362299)","MEO - Serviços de Comunicações e Multimédia, S.A. (504615947)","27.000,00 €",26-11-2018,24-01-2017,20 dias,"Portugal, Porto, Porto","Artigo 20.º, n.º 1, alínea a) do Código dos Contratos Públicos",,,,,,Não aplicável.,Não aplicável.,FALSE
Serviços de Construção civil - 2017,Ajuste Direto Regime Geral,Aquisição de serviços,"50000000-5, Serviços de reparação e manutenção","Instituto Português de Oncologia do Porto Francisco Gentil, E. P. E. (506362299)","Proestima - Projectos Estudos Instalações e Manutenção, Lda. (504009540)","40.726,40 €",26-11-2018,04-01-2017,365 dias,"Portugal, Porto, Porto","Artigo 20.º, n.º 1, alínea a) do Código dos Contratos Públicos",,,,,,Não aplicável.,Não aplicável.,FALSE
Assistência técnica a aplicativos Glintt - 1º semestre - Nível 1 e 1º Semestre - Apoio 24x7,Ajuste Direto Regime Geral,Aquisição de serviços,"72610000-9, Serviços de assistência informática","Instituto Português de Oncologia do Porto Francisco Gentil, E. P. E. (506362299)","GLINTT - HEALTHCARE SOLUTIONS, S.A. (502479418)","26.621,39 €",26-11-2018,28-12-2017,20 dias,"Portugal, Porto, Porto","Artigo 24.º, n.º 1, alínea e) do Código dos Contratos Públicos",,,,,,Não aplicável.,Não aplicável.,FALSE
LINHA DE SEQUENCIAÇÃO EM ILLUMINA,Ajuste Direto Regime Geral,Aquisição de serviços,"73100000-3, Serviços de desenvolvimento experimental e de investigação","Instituto Português de Oncologia do Porto Francisco Gentil, E. P. E. (506362299)","SoQuímica, Lda. (500274231)","5.600,00 €",26-11-2018,13-11-2017,20 dias,"Portugal, Porto, Porto","Artigo 24.º, n.º 1, alínea e) do Código dos Contratos Públicos",,,,,,Não aplicável.,Não aplicável.,FALSE
"PRODUÇÃO DO RELATÓRIO P.CCC DO IPO-PORTO - DESENVOLVIMENTO DE DESIGN GRÁFICO, PAGINAÇÃO E ARTES FINAIS ",Ajuste Direto Regime Geral,Aquisição de serviços,"79340000-9, Serviços de publicidade e marketing","Instituto Português de Oncologia do Porto Francisco Gentil, E. P. E. (506362299)",MEDIANA-SOC.GESTORA DE IMAGEM E COMUNIC.SA (502549033),"5.740,00 €",26-11-2018,03-11-2017,20 dias,"Portugal, Porto, Porto","Artigo 20.º, n.º 1, alínea a) do Código dos Contratos Públicos",,,,,,Não aplicável.,Não aplicável.,FALSE
"QUOTA DE ASSOCIADO 2017, HEALTH CLUSTER PORTUGAL ",Ajuste Direto Regime Geral,Aquisição de serviços,"98130000-3, Serviços diversos prestados por organizações associativas","Instituto Português de Oncologia do Porto Francisco Gentil, E. P. E. (506362299)",Health Cluster Portugal - Associação do Pólo de Competitividade da Saúde (508527864),"7.200,00 €",26-11-2018,25-07-2017,20 dias,"Portugal, Porto, Porto","Artigo 20.º, n.º 1, alínea a) do Código dos Contratos Públicos",,,,,,Não aplicável.,Não aplicável.,FALSE
SERVIÇOS PROFISSIONAIS CONEXOS COM A PREPARAÇÃO DA CANDIDATURA AO SISTEMA DE INCENTIVOS FISCAIS EM INVESTIGAÇÃO E DESENVOLVIMENTO EMPRESARIAL (SIFIDE II) REFERENTE A 2015,Ajuste Direto Regime Geral,Aquisição de serviços,"79000000-4, Serviços a empresas: direito, comercialização, consultoria, recrutamento, impressão e segurança","Instituto Português de Oncologia do Porto Francisco Gentil, E. P. E. (506362299)","Deloitte Consultores, S.A. (502310090)","6.000,00 €",26-11-2018,16-03-2017,20 dias,"Portugal, Porto, Porto","Artigo 20.º, n.º 1, alínea a) do Código dos Contratos Públicos",,,,,,Não aplicável.,Não aplicável.,FALSE
FASE 2 DE SERVIÇOS POWER BI SOBRE A APLICAÇÃO VISION,Ajuste Direto Regime Geral,Aquisição de serviços,"72590000-7, Serviços de informática prestados por profissionais","Instituto Português de Oncologia do Porto Francisco Gentil, E. P. E. (506362299)","Devscope - Soluções de Sistemas e Tecnologias de Informação, SA (506694615)","7.500,00 €",26-11-2018,26-06-2017,20 dias,"Portugal, Porto, Porto","Artigo 24.º, n.º 1, alínea e) do Código dos Contratos Públicos",,,,,,Não aplicável.,Não aplicável.,FALSE
AR  CONDICIONADO PARA SALAS TAC'S,Ajuste Direto Regime Geral,Aquisição de bens móveis,"42512000-8, Instalações de ar condicionado","Instituto Português de Oncologia do Porto Francisco Gentil, E. P. E. (506362299)","POLITÉRMICA - Engenharia, Lda (503653209)","8.844,45 €",26-11-2018,03-05-2017,20 dias,"Portugal, Porto, Porto","Artigo 20.º, n.º 1, alínea a) do Código dos Contratos Públicos",,,,,,Não aplicável.,Não aplicável.,FALSE
Comunicações Abril 2017,Ajuste Direto Regime Geral,Aquisição de serviços,"64200000-8, Serviços de telecomunicações","Instituto Português de Oncologia do Porto Francisco Gentil, E. P. E. (506362299)","MEO - Comunicações e Multimédia, SA (504615947)","5.626,32 €",26-11-2018,28-04-2017,20 dias,"Portugal, Porto, Porto","Artigo 20.º, n.º 1, alínea a) do Código dos Contratos Públicos",,,,,,Não aplicável.,Não aplicável.,FALSE
Serviços de eletricidade - 2017,Ajuste Direto Regime Geral,Aquisição de serviços,"50000000-5, Serviços de reparação e manutenção","Instituto Português de Oncologia do Porto Francisco Gentil, E. P. E. (506362299)","Proestima - Projectos Estudos Instalações e Manutenção, Lda. (504009540)","72.153,60 €",26-11-2018,05-01-2017,365 dias,"Portugal, Porto, Porto","Artigo 20.º, n.º 1, alínea a) do Código dos Contratos Públicos",,,,,,Não aplicável.,Não aplicável.,FALSE
Serviço de teleradiologia  em 2017,Ajuste Direto Regime Geral,Aquisição de serviços,"85100000-0, Serviços de saúde","Instituto Português de Oncologia do Porto Francisco Gentil, E. P. E. (506362299)","IMI - Imagens Médicas Integradas, S.A. (501721037)","15.330,00 €",23-11-2018,14-02-2017,180 dias,"Portugal, Porto, Porto","Artigo 24.º, n.º 1, alínea c) do Código dos Contratos Públicos",,,,,,Não aplicável.,Não aplicável.,FALSE
AMPLIAÇÃO TERAPIA CELULAR - TRABALHOS DE CONTRUÇÃO CIVIL,Ajuste Direto Regime Geral,Empreitadas de obras públicas,"45262800-9, Obras de ampliação de edifícios","Instituto Português de Oncologia do Porto Francisco Gentil, E. P. E. (506362299)","Francfil  - Construção Civíl e Obras Públicas, Lda (505279177)","11.835,50 €",23-11-2018,02-05-2017,20 dias,"Portugal, Porto, Porto","Artigo 19.º, alínea a) do Código dos Contratos Públicos",,,,,,Não aplicável.,Não aplicável.,FALSE
INSTALAÇÃO AVAC NA UNIDADE DE INVESTIGAÇÃO CLÍNICA REF. AO AUTO MEDIÇÃO N.º 4 MARÇO DE 2017,Ajuste Direto Regime Geral,Aquisição de bens móveis,"42512000-8, Instalações de ar condicionado","Instituto Português de Oncologia do Porto Francisco Gentil, E. P. E. (506362299)","POLITÉRMICA - Engenharia, Lda (503653209)","7.732,24 €",23-11-2018,28-04-2017,20 dias,"Portugal, Porto, Porto","Artigo 20.º, n.º 1, alínea a) do Código dos Contratos Públicos",,,,,,Não aplicável.,Não aplicável.,FALSE
INTERVENÇÕES NECESSÁRIAS (FASEADAS) EM ÁRVORES DO PARQUE DO IPO - PODA/ CORTE DE ÁRVORES,Ajuste Direto Regime Geral,Aquisição de serviços,"77340000-5, Poda de árvores e arbustos","Instituto Português de Oncologia do Porto Francisco Gentil, E. P. E. (506362299)","Recolte - Serviços e Meio Ambiente, S.A. (503505390)","5.901,99 €",23-11-2018,28-11-2017,20 dias,"Portugal, Porto, Porto","Artigo 20.º, n.º 1, alínea a) do Código dos Contratos Públicos",,,,,,Não aplicável.,Não aplicável.,FALSE
"CUSTO DE PRODUÇÃO E ACOLHIMENTO, HONORÁRIOS DE MAESTRO, COM REFEIÇÕES ",Ajuste Direto Regime Geral,Aquisição de serviços,"92340000-6, Serviços de espectáculos recreativos e de dança","Instituto Português de Oncologia do Porto Francisco Gentil, E. P. E. (506362299)",Fundação Casa da Música (507636295),"8.096,99 €",23-11-2018,13-11-2017,20 dias,"Portugal, Porto, Porto","Artigo 24.º, n.º 1, alínea e) do Código dos Contratos Públicos",,,,,,Não aplicável.,Não aplicável.,FALSE
SERVIÇOS DE TERMINAÇÃO DE FIBRAS ÓPTICAS (FUSÕES),Ajuste Direto Regime Geral,Aquisição de serviços,"51110000-6, Serviços de instalação de equipamento eléctrico","Instituto Português de Oncologia do Porto Francisco Gentil, E. P. E. (506362299)",GONKSYS S.A. (510874169),"25.708,77 €",23-11-2018,23-10-2017,20 dias,"Portugal, Porto, Porto","Artigo 20.º, n.º 1, alínea a) do Código dos Contratos Públicos",,,,,,Não aplicável.,Não aplicável.,FALSE
Serviços prestado no âmbito do SIGIC,Ajuste Direto Regime Geral,Aquisição de serviços,"85111100-1, Serviços hospitalares de cirurgia","Instituto Português de Oncologia do Porto Francisco Gentil, E. P. E. (506362299)",Celestial Ordem Terceira da Santíssima Trindade (500844844),"6.231,02 €",23-11-2018,03-10-2017,20 dias,"Portugal, Porto, Porto","Artigo 24.º, n.º 1, alínea e) do Código dos Contratos Públicos",,,,,,Não aplicável.,Não aplicável.,FALSE
EXTERNAL QUALITY CONTROL IN RADIOTHERAPY,Ajuste Direto Regime Geral,Aquisição de serviços,"73200000-4, Serviços de consultoria em matéria de investigação e desenvolvimento","Instituto Português de Oncologia do Porto Francisco Gentil, E. P. E. (506362299)",EQUAL - ESTRO SAS (FR32453328889),"9.060,00 €",23-11-2018,24-08-2017,20 dias,"Portugal, Porto, Porto","Artigo 20.º, n.º 1, alínea a) do Código dos Contratos Públicos",,,,,,Não aplicável.,Não aplicável.,FALSE
Participação de 4 colaboradores no programa de alta direcção de instituições de saúde (PADIS),Ajuste Direto Regime Geral,Aquisição de serviços,"80500000-9, Serviços de formação","Instituto Português de Oncologia do Porto Francisco Gentil, E. P. E. (506362299)",AESE ASSOC ESTUDOS SUPERIORES EMPRESA (501105026),"14.600,00 €",23-11-2018,20-07-2017,20 dias,"Portugal, Porto, Porto","Artigo 24.º, n.º 1, alínea e) do Código dos Contratos Públicos",,,,,,Não aplicável.,Não aplicável.,FALSE
Serviços médicos,Ajuste Direto Regime Geral,Aquisição de serviços,"85121000-3, Serviços de prática médica","Instituto Português de Oncologia do Porto Francisco Gentil, E. P. E. (506362299)","Centro Hospitalar Universitário do Porto, E. P. E. (508331471)","5.568,50 €",23-11-2018,31-05-2017,20 dias,"Portugal, Porto, Porto","Artigo 24.º, n.º 1, alínea e) do Código dos Contratos Públicos",,,,,,Não aplicável.,Não aplicável.,FALSE
INSTALAÇÃO DE VENTILOCONVECTORES NA TERAPIA CELULAR,Ajuste Direto Regime Geral,Empreitadas de obras públicas,"45331000-6, Instalação de aquecimento, ventilação e ar condicionado","Instituto Português de Oncologia do Porto Francisco Gentil, E. P. E. (506362299)",Instavac - Instalações Termicas Lda (506516946),"5.342,26 €",23-11-2018,14-06-2018,20 dias,"Portugal, Porto, Porto","Artigo 19.º, alínea a) do Código dos Contratos Públicos",,,,,,Não aplicável.,Não aplicável.,FALSE
DESGN GRÁFICO DE LONA,Ajuste Direto Regime Geral,Aquisição de serviços,"79340000-9, Serviços de publicidade e marketing","Instituto Português de Oncologia do Porto Francisco Gentil, E. P. E. (506362299)",MEDIANA-SOC.GESTORA DE IMAGEM E COMUNIC.SA (502549033),"5.750,00 €",23-11-2018,07-06-2017,20 dias,"Portugal, Porto, Porto","Artigo 20.º, n.º 1, alínea a) do Código dos Contratos Públicos",,,,,,Não aplicável.,Não aplicável.,FALSE
ACCREDITATION PROGRAMME AND ISO CERTIFICATION,Ajuste Direto Regime Geral,Aquisição de serviços,"79000000-4, Serviços a empresas: direito, comercialização, consultoria, recrutamento, impressão e segurança","Instituto Português de Oncologia do Porto Francisco Gentil, E. P. E. (506362299)",CHKS LTD (GB18184140),"14.924,24 €",23-11-2018,10-08-2017,20 dias,"Portugal, Porto, Porto","Artigo 20.º, n.º 1, alínea a) do Código dos Contratos Públicos",,,,,,Não aplicável.,Não aplicável.,FALSE
Serviços de pichelaria - 2017,Ajuste Direto Regime Geral,Aquisição de serviços,"50000000-5, Serviços de reparação e manutenção","Instituto Português de Oncologia do Porto Francisco Gentil, E. P. E. (506362299)","Proestima - Projectos Estudos Instalações e Manutenção, Lda. (504009540)","20.238,40 €",23-11-2018,05-05-2017,365 dias,"Portugal, Porto, Porto","Artigo 20.º, n.º 1, alínea a) do Código dos Contratos Públicos",,,,,,Não aplicável.,Não aplicável.,FALSE
Serviços de manutenção de equipamentos de refrigeração,Ajuste Direto Regime Geral,Aquisição de serviços,"50730000-1, Serviços de reparação e manutenção de grupos de refrigeração","Instituto Português de Oncologia do Porto Francisco Gentil, E. P. E. (506362299)",CLEAN BREEZE ENGENHARIA E SERVIÇOS LDA (507398009),"7.786,00 €",23-11-2018,20-06-2017,20 dias,"Portugal, Porto, Porto","Artigo 20.º, n.º 1, alínea a) do Código dos Contratos Públicos",,,,,,Não aplicável.,Não aplicável.,FALSE
MANUTENÇÃO UPS DO DATA CENTER,Ajuste Direto Regime Geral,Aquisição de serviços,"50000000-5, Serviços de reparação e manutenção","Instituto Português de Oncologia do Porto Francisco Gentil, E. P. E. (506362299)","Schneider  Electric Portugal,Lda (500281858)","7.148,00 €",23-11-2018,07-06-2017,20 dias,"Portugal, Porto, Porto","Artigo 24.º, n.º 1, alínea e) do Código dos Contratos Públicos",,,,,,Não aplicável.,Não aplicável.,FALSE
Serviços prestado no âmbito do SIGIC,Ajuste Direto Regime Geral,Aquisição de serviços,"85111100-1, Serviços hospitalares de cirurgia","Instituto Português de Oncologia do Porto Francisco Gentil, E. P. E. (506362299)",Fundação Santa Maria (508079543),"6.897,43 €",23-11-2018,29-05-2017,20 dias,"Portugal, Porto, Porto","Artigo 24.º, n.º 1, alínea e) do Código dos Contratos Públicos",,,,,,Não aplicável.,Não aplicável.,FALSE
FASE 1 DE SERVIÇOS POWER BI SOBRE A APLICAÇÃO VISION,Ajuste Direto Regime Geral,Aquisição de serviços,"72590000-7, Serviços de informática prestados por profissionais","Instituto Português de Oncologia do Porto Francisco Gentil, E. P. E. (506362299)","Devscope - Soluções de Sistemas e Tecnologias de Informação, SA (506694615)","7.500,00 €",23-11-2018,01-06-2017,20 dias,"Portugal, Porto, Porto","Artigo 24.º, n.º 1, alínea e) do Código dos Contratos Públicos",,,,,,Não aplicável.,Não aplicável.,FALSE
AR CONDICIONADO PARA SALAS TAC'S REF. AO AUTO DE MEDIÇÃO N.º 2,Ajuste Direto Regime Geral,Aquisição de bens móveis,"42512000-8, Instalações de ar condicionado","Instituto Português de Oncologia do Porto Francisco Gentil, E. P. E. (506362299)","POLITÉRMICA - Engenharia, Lda (503653209)","21.599,41 €",22-11-2018,10-02-2017,20 dias,"Portugal, Porto, Porto","Artigo 20.º, n.º 1, alínea a) do Código dos Contratos Públicos",,,,,,Não aplicável.,Não aplicável.,FALSE
DIVISÓRIAS AMOVÍVEIS PARA A TERAPIA CELULAR,Ajuste Direto Regime Geral,Aquisição de bens móveis,"44112310-4, Paredes divisórias","Instituto Português de Oncologia do Porto Francisco Gentil, E. P. E. (506362299)",Decotirso - Decorações ldª (502462043),"13.859,01 €",22-11-2018,09-05-2017,20 dias,"Portugal, Porto, Porto","Artigo 20.º, n.º 1, alínea a) do Código dos Contratos Públicos",,,,,,Não aplicável.,Não aplicável.,FALSE
RENOVAÇÃO REDE A.Q.S./ A.F.,Ajuste Direto Regime Geral,Empreitadas de obras públicas,"45232151-5, Obras de renovação de condutas de água","Instituto Português de Oncologia do Porto Francisco Gentil, E. P. E. (506362299)",Pichelaria Veiga (501720111),"15.499,85 €",22-11-2018,02-05-2017,20 dias,"Portugal, Porto, Porto","Artigo 22.º, n.º 1, alínea a) do Código dos Contratos Públicos",,,,,,Não aplicável.,Não aplicável.,FALSE
REPARAÇÃO DE VIDEOGASTROSCÓPIO,Ajuste Direto Regime Geral,Aquisição de serviços,"50000000-5, Serviços de reparação e manutenção","Instituto Português de Oncologia do Porto Francisco Gentil, E. P. E. (506362299)","OLYMPUS IBERIA, S.A.U. (980474710)","8.283,08 €",22-11-2018,24-04-2017,20 dias,"Portugal, Porto, Porto","Artigo 24.º, n.º 1, alínea e) do Código dos Contratos Públicos",,,,,,Não aplicável.,Não aplicável.,FALSE
MANUTENÇÃO CADEIA DE TRATAMENTO DE AR MEDICINAL,Ajuste Direto Regime Geral,Aquisição de serviços,"50000000-5, Serviços de reparação e manutenção","Instituto Português de Oncologia do Porto Francisco Gentil, E. P. E. (506362299)",Airliquide (501576436),"7.848,78 €",22-11-2018,20-04-2017,20 dias,"Portugal, Porto, Porto","Artigo 24.º, n.º 1, alínea e) do Código dos Contratos Públicos",,,,,,Não aplicável.,Não aplicável.,FALSE
SERVIÇOS PROFISSIONAIS CONEXOS COM A PREPARAÇÃO DA CANDIDATURA AO SISTEMA DE INCENTIVOS FISCAIS EM INVESTIGAÇÃO E DESENVOLVIMENTO EMPRESARIAL (SIFIDE II) REFERENTE A 2015,Ajuste Direto Regime Geral,Aquisição de serviços,"79000000-4, Serviços a empresas: direito, comercialização, consultoria, recrutamento, impressão e segurança","Instituto Português de Oncologia do Porto Francisco Gentil, E. P. E. (506362299)",DELOITTE CONSULTORES SA (502310090),"6.000,00 €",22-11-2018,16-03-2017,20 dias,"Portugal, Porto, Porto","Artigo 20.º, n.º 1, alínea a) do Código dos Contratos Públicos",,,,,,Não aplicável.,Não aplicável.,FALSE
REPARAÇÃO DE INTENSIFICADOR DE IMAGEM,Ajuste Direto Regime Geral,Aquisição de serviços,"50000000-5, Serviços de reparação e manutenção","Instituto Português de Oncologia do Porto Francisco Gentil, E. P. E. (506362299)","PHILIPS PORTUGUESA, S.A. (500216843)","9.931,00 €",22-11-2018,08-03-2017,20 dias,"Portugal, Porto, Porto","Artigo 24.º, n.º 1, alínea e) do Código dos Contratos Públicos",,,,,,Não aplicável.,Não aplicável.,FALSE
INSTALAÇÃO DE AVAC NO BACK OFFICE,Ajuste Direto Regime Geral,Aquisição de bens móveis,"42512000-8, Instalações de ar condicionado","Instituto Português de Oncologia do Porto Francisco Gentil, E. P. E. (506362299)","PINTO & CRUZ - INSTALAÇÕES E MANUTENÇÃO, S.A. (510134980)","51.400,00 €",22-11-2018,10-03-2017,20 dias,"Portugal, Porto, Porto","Artigo 20.º, n.º 1, alínea a) do Código dos Contratos Públicos",,,,,,Não aplicável.,Não aplicável.,FALSE
REGISTO E PÓS-PRODUÇÃO DE VÍDEO E FOTOGRAFIA AO IPO-PORTO,Ajuste Direto Regime Geral,Aquisição de serviços,"79340000-9, Serviços de publicidade e marketing","Instituto Português de Oncologia do Porto Francisco Gentil, E. P. E. (506362299)",MEDIANA-SOC.GESTORA DE IMAGEM E COMUNIC.SA (502549033),"10.000,00 €",22-11-2018,01-03-2017,20 dias,"Portugal, Porto, Porto","Artigo 20.º, n.º 1, alínea a) do Código dos Contratos Públicos",,,,,,Não aplicável.,Não aplicável.,FALSE
INSTALAÇÃO AVAC NA UNIDADE DE INVESTIGAÇÃO CLÍNICA REF. AO AUTO DE MEDIÇÃO N.º 3,Ajuste Direto Regime Geral,Aquisição de bens móveis,"42512000-8, Instalações de ar condicionado","Instituto Português de Oncologia do Porto Francisco Gentil, E. P. E. (506362299)","POLITÉRMICA - Engenharia, Lda (503653209)","8.700,97 €",22-11-2018,10-02-2017,20 dias,"Portugal, Porto, Porto","Artigo 20.º, n.º 1, alínea a) do Código dos Contratos Públicos",,,,,,Não aplicável.,Não aplicável.,FALSE
"CONSTRUÇÃO CIVIL PARA REMODELAÇÃO DO """"BACK OFFICE"""" ",Ajuste Direto Regime Geral,Empreitadas de obras públicas,"45262800-9, Obras de ampliação de edifícios","Instituto Português de Oncologia do Porto Francisco Gentil, E. P. E. (506362299)","Francfil  - Construção Civíl e Obras Públicas, Lda (505279177)","20.946,28 €",22-11-2018,02-01-2017,20 dias,"Portugal, Porto, Porto","Artigo 19.º, alínea a) do Código dos Contratos Públicos",,,,,,Não aplicável.,Não aplicável.,FALSE
Assistência técnica a sistema de digitalização CR950,Ajuste Direto Regime Geral,Aquisição de serviços,"71356200-0, Serviços de assistência técnica","Instituto Português de Oncologia do Porto Francisco Gentil, E. P. E. (506362299)","Carestream Health Portugal, Lda. (508054320)","6.896,00 €",22-11-2018,04-01-2017,20 dias,"Portugal, Porto, Porto","Artigo 24.º, n.º 1, alínea e) do Código dos Contratos Públicos",,,,,,Não aplicável.,Não aplicável.,FALSE
Assistência técnica a central telefónica,Ajuste Direto Regime Geral,Aquisição de serviços,"71356200-0, Serviços de assistência técnica","Instituto Português de Oncologia do Porto Francisco Gentil, E. P. E. (506362299)","Warpcom Services, S.A. (505134195)","6.950,00 €",21-11-2018,04-01-2017,20 dias,"Portugal, Porto, Porto","Artigo 24.º, n.º 1, alínea e) do Código dos Contratos Públicos",,,,,,Não aplicável.,Não aplicável.,FALSE
Serviços de Jardinagem,Ajuste Direto Regime Geral,Aquisição de serviços,"77311000-3, Serviços de manutenção de jardins ornamentais e recreativos","Instituto Português de Oncologia do Porto Francisco Gentil, E. P. E. (506362299)",Vadeca (506589030),"28.458,00 €",21-11-2018,05-01-2017,365 dias,"Portugal, Porto, Porto","Artigo 20.º, n.º 1, alínea a) do Código dos Contratos Públicos",,,,,,Não aplicável.,Não aplicável.,FALSE
Responsabilidade pela instalação elétrica,Ajuste Direto Regime Geral,Aquisição de serviços,"71300000-1, Serviços de engenharia","Instituto Português de Oncologia do Porto Francisco Gentil, E. P. E. (506362299)","ATM - Assistência Total em Manutenção, S.A. (502700823)","6.960,00 €",21-11-2018,04-01-2017,20 dias,"Portugal, Porto, Porto","Artigo 20.º, n.º 1, alínea a) do Código dos Contratos Públicos",,,,,,Não aplicável.,Não aplicável.,FALSE
Serviços de desinfestação 2017,Ajuste Direto Regime Geral,Aquisição de serviços,"90670000-4, Serviços de desinfecção e exterminação em áreas urbanas ou rurais","Instituto Português de Oncologia do Porto Francisco Gentil, E. P. E. (506362299)","Companhia Europeia de Desinfeções, Lda (503231258)","6.575,12 €",21-11-2018,04-01-2017,20 dias,"Portugal, Porto, Porto","Artigo 20.º, n.º 1, alínea a) do Código dos Contratos Públicos",,,,,,Não aplicável.,Não aplicável.,FALSE
Consultoria de segurança,Ajuste Direto Regime Geral,Aquisição de serviços,"79000000-4, Serviços a empresas: direito, comercialização, consultoria, recrutamento, impressão e segurança","Instituto Português de Oncologia do Porto Francisco Gentil, E. P. E. (506362299)","Código Prodígio Unipessoal, Lda (510728855)","6.628,92 €",21-11-2018,04-01-2017,20 dias,"Portugal, Porto, Porto","Artigo 20.º, n.º 1, alínea a) do Código dos Contratos Públicos",,,,,,Não aplicável.,Não aplicável.,FALSE
Aluguer de garrafas e reservatórios de gases,Ajuste Direto Regime Geral,Aquisição de bens móveis,"24100000-5, Gases","IPO Porto FG, EPE (506362299)",Airliquide (501576436),"5.258,44 €",21-11-2018,06-03-2018,20 dias,"Portugal, Porto, Porto","Artigo 24.º, n.º 1, alínea e) do Código dos Contratos Públicos",,,,,,Não aplicável.,Não aplicável.,FALSE
Licenças antivírus,Ajuste Direto Regime Geral,Aquisição de bens móveis,"48000000-8, Pacotes de software e sistemas de informação","Instituto Português de Oncologia do Porto Francisco Gentil, E. P. E. (506362299)","Reload - Consultoria Informática, Lda. (506210855)","9.050,00 €",21-11-2018,21-04-2017,20 dias,"Portugal, Porto, Porto","Artigo 20.º, n.º 1, alínea a) do Código dos Contratos Públicos",,,,,,Não aplicável.,Não aplicável.,FALSE
Contrato Assistência Técnica a Eletrobisturis,Ajuste Direto Regime Geral,Aquisição de serviços,"71356200-0, Serviços de assistência técnica","Instituto Português de Oncologia do Porto Francisco Gentil, E. P. E. (506362299)",CLINIFAR SA (503281115),"5.572,00 €",21-11-2018,13-01-2017,20 dias,"Portugal, Porto, Porto","Artigo 24.º, n.º 1, alínea e) do Código dos Contratos Públicos",,,,,,Não aplicável.,Não aplicável.,FALSE
Manutenção a Sterrad NX,Ajuste Direto Regime Geral,Aquisição de serviços,"71356200-0, Serviços de assistência técnica","Instituto Português de Oncologia do Porto Francisco Gentil, E. P. E. (506362299)",JOHNSON (500153370),"5.184,00 €",21-11-2018,03-02-2017,20 dias,"Portugal, Porto, Porto","Artigo 24.º, n.º 1, alínea e) do Código dos Contratos Públicos",,,,,,Não aplicável.,Não aplicável.,FALSE
Serviços de serralharia - 2017,Ajuste Direto Regime Geral,Aquisição de serviços,"50000000-5, Serviços de reparação e manutenção","Instituto Português de Oncologia do Porto Francisco Gentil, E. P. E. (506362299)","Proestima - Projectos Estudos Instalações e Manutenção, Lda. (504009540)","40.768,00 €",21-11-2018,05-01-2017,365 dias,"Portugal, Porto, Porto","Artigo 20.º, n.º 1, alínea a) do Código dos Contratos Públicos",,,,,,Não aplicável.,Não aplicável.,FALSE
Manutenção à rede de água,Ajuste Direto Regime Geral,Aquisição de serviços,"71356200-0, Serviços de assistência técnica","Instituto Português de Oncologia do Porto Francisco Gentil, E. P. E. (506362299)",Enkrott (500103461),"5.472,00 €",21-11-2018,06-04-2017,20 dias,"Portugal, Porto, Porto","Artigo 20.º, n.º 1, alínea a) do Código dos Contratos Públicos",,,,,,Não aplicável.,Não aplicável.,FALSE
Comunicações Janeiro 17,Ajuste Direto Regime Geral,Aquisição de serviços,"64200000-8, Serviços de telecomunicações","Instituto Português de Oncologia do Porto Francisco Gentil, E. P. E. (506362299)","MEO - Serviços de Comunicações e Multimédia, S.A. (504615947)","5.517,15 €",21-11-2018,27-01-2017,20 dias,"Portugal, Porto, Porto","Artigo 20.º, n.º 1, alínea a) do Código dos Contratos Públicos",,,,,,Não aplicável.,Não aplicável.,FALSE
Aluguer de garrafas e reservatórios de gases,Ajuste Direto Regime Geral,Aquisição de bens móveis,"24100000-5, Gases","Instituto Português de Oncologia do Porto Francisco Gentil, E. P. E. (506362299)",Airliquide (501576436),"5.254,31 €",21-11-2018,06-03-2017,20 dias,"Portugal, Porto, Porto","Artigo 24.º, n.º 1, alínea e) do Código dos Contratos Públicos",,,,,,Não aplicável.,Não aplicável.,FALSE
Serviços de codificação,Ajuste Direto Regime Geral,Aquisição de serviços,"85140000-2, Serviços de saúde diversos","Instituto Português de Oncologia do Porto Francisco Gentil, E. P. E. (506362299)","Fernanda e José Mendes Ribeiro, Neurologia e Codificação Lda.  (514468491)","8.400,00 €",21-11-2018,09-08-2017,20 dias,"Portugal, Porto, Porto","Artigo 20.º, n.º 1, alínea a) do Código dos Contratos Públicos",,,,,,Não aplicável.,Não aplicável.,FALSE
Serviços de consultoria,Ajuste Direto Regime Geral,Aquisição de serviços,"79000000-4, Serviços a empresas: direito, comercialização, consultoria, recrutamento, impressão e segurança","Instituto Português de Oncologia do Porto Francisco Gentil, E. P. E. (506362299)","VALECONSULTORES, UNIPESSOAL, LDA (510070191)","16.375,00 €",21-11-2018,08-08-2017,20 dias,"Portugal, Porto, Porto","Artigo 20.º, n.º 1, alínea a) do Código dos Contratos Públicos",,,,,,Não aplicável.,Não aplicável.,FALSE
Serviços de catering,Ajuste Direto Regime Geral,Aquisição de serviços,"55500000-5, Serviços de cantinas e de fornecimento de refeições (catering)","Instituto Português de Oncologia do Porto Francisco Gentil, E. P. E. (506362299)","Grandes Encontros Unipessoal, Lda (507996364)","8.128,50 €",21-11-2018,25-07-2017,20 dias,"Portugal, Porto, Porto","Artigo 20.º, n.º 1, alínea a) do Código dos Contratos Públicos",,,,,,Não aplicável.,Não aplicável.,FALSE
Licenças antivírus,Ajuste Direto Regime Geral,Aquisição de bens móveis,"48000000-8, Pacotes de software e sistemas de informação","Instituto Português de Oncologia do Porto Francisco Gentil, E. P. E. (506362299)","Reload - Consultoria Informática, Lda. (506210855)","6.050,00 €",21-11-2018,17-01-2017,20 dias,"Portugal, Porto, Porto","Artigo 20.º, n.º 1, alínea a) do Código dos Contratos Públicos",,,,,,Não aplicável.,Não aplicável.,FALSE
