Objeto do Contrato,Tipo de Procedimento,Tipo(s) de Contrato,CPVs,Entidade(s) Adjudicante(s),Entidade(s) Adjudicatária(s),Preço Contratual,Data de Publicação,Data de Celebração do Contrato,Prazo de Execução,Local de Execução,Fundamentação,Data de Fecho do Contrato,Preço Total Efetivo,Causas das Alterações ao Prazo,Causas das Alterações ao Preço,Estado,N.º registo do Acordo Quadro,Descrição do Acordo Quadro,Procedimento Centralizado
Etanercept 50 Mg/1 ml -Seringa,Ajuste Direto Regime Geral,Aquisição de bens móveis,"33600000-6, Produtos farmacêuticos","Unidade Local de Saúde de Castelo Branco, E. P. E. (509309844)","LABORATORIOS PFIZER,LDA (500162166)","3.504,68 €",06-01-2016,19-05-2014,3 dias,"Portugal, Castelo Branco, Castelo Branco","Artigo 20.º, n.º 1, alínea a) do Código dos Contratos Públicos",22-05-2014,"3.504,68 €",,"",,Não aplicável.,Não aplicável.,FALSE
"Prestação de Serviço de Recolha, Transporte, Tratamento e Destino Final dos Resíduos Hospitalares na ULSCB, EPE",Concurso público,Aquisição de serviços,"90524400-0, Recolha, transporte e eliminação de resíduos hospitalares","Unidade Local de Saúde de Castelo Branco, E. P. E. (509309844)",Serviço de Utilização Comum dos Hospitais (S.U.C.H.) (500900469),"82.756,71 €",04-01-2016,27-11-2015,365 dias,"Portugal, Castelo Branco, Castelo Branco","Artigo 20.º, n.º 1, alínea b) do Código dos Contratos Públicos",31-12-2016,"78.901,36 €",,Quantidade inferior à estimada,,Não aplicável.,Não aplicável.,FALSE
