Objeto do Contrato,Tipo de Procedimento,Tipo(s) de Contrato,CPVs,Entidade(s) Adjudicante(s),Entidade(s) Adjudicatária(s),Preço Contratual,Data de Publicação,Data de Celebração do Contrato,Prazo de Execução,Local de Execução,Fundamentação,Data de Fecho do Contrato,Preço Total Efetivo,Causas das Alterações ao Prazo,Causas das Alterações ao Preço,Estado,N.º registo do Acordo Quadro,Descrição do Acordo Quadro,Procedimento Centralizado
Aquisição de Medicamentos Gerais CPA012018,Ao abrigo de acordo-quadro (art.º 259.º),Aquisição de bens móveis,"33690000-3, Medicamentos vários","Administração Regional de Saúde do Algarve, I. P. (503148709)","Bluemed, Unipessoal, Lda. (509912060)","377,52 €",06-09-2018,06-09-2018,113 dias,"Portugal, Faro, Faro",Artigo 259.º do Código dos Contratos Públicos,09-11-2018,"114,24 €",,Quantidades encomendadas.,,2335591,CP 2016/01 - Acordo Quadro para fornecimento de Medicamentos do Aparelho Cardiovascular   às Instituições e Serviços do Serviço Nacional de Saúde,FALSE
Aquisição de Medicamentos Gerais CPA012018,Ao abrigo de acordo-quadro (art.º 259.º),Aquisição de bens móveis,"33690000-3, Medicamentos vários","Administração Regional de Saúde do Algarve, I. P. (503148709)","Astrazeneca, Lda. (502942240)","28,73 €",06-09-2018,20-08-2018,125 dias,"Portugal, Faro, Faro",Artigo 259.º do Código dos Contratos Públicos,17-10-2018,"21,51 €",,Quantidades encomendadas.,,2335591,CP 2016/01 - Acordo Quadro para fornecimento de Medicamentos do Aparelho Cardiovascular   às Instituições e Serviços do Serviço Nacional de Saúde,FALSE
Aquisição de Medicamentos - Sulfadiazina,Ajuste Direto Regime Geral,Aquisição de bens móveis,"33690000-3, Medicamentos vários","Administração Regional de Saúde do Algarve, I. P. (503148709)","Expomédica, Lda. (501886621)","3.744,00 €",06-09-2018,05-09-2018,117 dias,"Portugal, Faro, Faro","Artigo 24.º, n.º 1, alínea e), subalínea ii) do Código dos Contratos Públicos",21-09-2018,"3.744,00 €",,"",,Não aplicável.,Não aplicável.,FALSE
Aquisição de Impregnado,Ao abrigo de acordo-quadro (art.º 259.º),Aquisição de bens móveis,"33140000-3, Material médico de consumo","Administração Regional de Saúde do Algarve, I. P. (503148709)","Medicinália Cormédica, Lda. (500684324)","39.097,00 €",05-09-2018,04-07-2018,175 dias,"Portugal, Faro, Faro",Artigo 259.º do Código dos Contratos Públicos,08-10-2018,"39.095,40 €",,Quantidades encomendadas.,,2190354,CP 2016/21 - Acordo quadro para fornecimento de Gazes Medicadas e Ligaduras de Gaze às Instituições e Serviços do Serviço Nacional de Saúde,FALSE
Aquisição de Medicamentos Diversos - Clemastina,Ajuste Direto Regime Geral,Aquisição de bens móveis,"33690000-3, Medicamentos vários","Administração Regional de Saúde do Algarve, I. P. (503148709)","GlaxoSmithKline, Lda. (500276994)","835,20 €",05-09-2018,14-08-2018,140 dias,"Portugal, Faro, Faro","Artigo 24.º, n.º 1, alínea e), subalínea ii) do Código dos Contratos Públicos",24-09-2018,"835,20 €",,"",,Não aplicável.,Não aplicável.,FALSE
Aquisição de Medicamentos Diversos - ciamemazina e cloropromazina,Ajuste Direto Regime Geral,Aquisição de bens móveis,"33690000-3, Medicamentos vários","Administração Regional de Saúde do Algarve, I. P. (503148709)","Laboratórios Vitória, S.A. (500162220)","112,30 €",05-09-2018,04-09-2018,116 dias,"Portugal, Faro, Faro","Artigo 24.º, n.º 1, alínea e), subalínea ii) do Código dos Contratos Públicos",18-10-2018,"100,24 €",,Quantidades encomendadas.,,Não aplicável.,Não aplicável.,FALSE
Aquisição de Medicamentos - Tiocolquicosido,Ao abrigo de acordo-quadro (art.º 259.º),Aquisição de bens móveis,"33690000-3, Medicamentos vários","Administração Regional de Saúde do Algarve, I. P. (503148709)","Korangi, Lda. (505322307)","2.934,82 €",03-09-2018,03-09-2018,118 dias,"Portugal, Faro, Faro",Artigo 259.º do Código dos Contratos Públicos,21-09-2018,"2.934,82 €",,"",,611371,"CONCURSO PÚBLICO PARA A CELEBRAÇÃO DE CONTRATOS PÚBLICOS DE APROVISIONAMENTO PARA A ÁREA DA SAÚDE, COM VISTA AO FORNECIMENTO DE MEDICAMENTOS ANESTÉSICOS E RELAXANTES MUSCULARES, ÀS INSTITUIÇÕES E SERVIÇOS DO SERVIÇO NACIONAL DE SAÚDE    ",FALSE
