Objeto do Contrato,Tipo de Procedimento,Tipo(s) de Contrato,CPVs,Entidade(s) Adjudicante(s),Entidade(s) Adjudicatária(s),Preço Contratual,Data de Publicação,Data de Celebração do Contrato,Prazo de Execução,Local de Execução,Fundamentação,Data de Fecho do Contrato,Preço Total Efetivo,Causas das Alterações ao Prazo,Causas das Alterações ao Preço,Estado,N.º registo do Acordo Quadro,Descrição do Acordo Quadro,Procedimento Centralizado
Aquisição de medicamentos ao abrigo do CP 2015/6 para Instituições do SNS - Ref.ª P259-AC-2017-165,Ao abrigo de acordo-quadro (art.º 259.º),Aquisição de bens móveis,"33600000-6, Produtos farmacêuticos","Centro Hospitalar Cova da Beira, E. P. E. (506361659)",Ferring Portuguesa - Prod. Farmacêuticos (209130342),"4.317,73 €",09-02-2018,27-12-2017,365 dias,"Portugal, Castelo Branco, Covilhã",Artigo 259.º do Código dos Contratos Públicos,,,,,,1771819,CP 2015/6 - Acordo quadro para o fornecimento de Medicamentos do Foro Oncológico,TRUE
Aquisição de Medicamentos para o SNS - Ref.ª AD-AC-2017-121,Ajuste Direto Regime Geral,Aquisição de bens móveis,"33600000-6, Produtos farmacêuticos","Centro Hospitalar Cova da Beira, EPE (506361659)","Actelion Pharmaceuticals Portugal, soc. Unipessoal, Lda. (507336488)","22.104,00 €",09-02-2018,03-01-2018,365 dias,"Portugal, Castelo Branco, Covilhã","Artigo 24.º, n.º 1, alínea e) do Código dos Contratos Públicos",,,,,,Não aplicável.,Não aplicável.,TRUE
Aquisição de Medicamentos ao abrigo do CP 2015/6 e do CP 2016/40 para as Instituições do Serviço Nacional de Saúde (P259-AC-2017-158),Ao abrigo de acordo-quadro (art.º 259.º),Aquisição de bens móveis,"33600000-6, Produtos farmacêuticos","Centro Hospitalar Cova da Beira, E. P. E. (506361659)","JANSSEN CILAG FARMACEUTICA, LDA (500189412)","380.038,86 €",09-02-2018,02-01-2018,365 dias,"Portugal, Castelo Branco, Covilhã",Artigo 259.º do Código dos Contratos Públicos,,,,,,1771819,CP 2015/6 - Acordo quadro para o fornecimento de Medicamentos do Foro Oncológico,TRUE
P259-AC-2017-152 - Agregação Centralizada 2018 (Despacho 1571-B-2016),Ao abrigo de acordo-quadro (art.º 259.º),Aquisição de bens móveis,"33600000-6, Produtos farmacêuticos","Centro Hospitalar Cova da Beira, E. P. E. (506361659)","VIIVHIV HEALTHCARE, UNIPESSOAL. LDA (509117961)","2.705,40 €",09-02-2018,18-12-2017,365 dias,"Portugal, Castelo Branco, Covilhã",Artigo 259.º do Código dos Contratos Públicos,,,,,,1338581,"Acordo quadro para fornecimento de Medicação antialérgica, medicamentos usados no tratamento de intoxicações, vitaminas e sais minerais e grupo 20.9 - outros produtos às instituições e serviços do serviço nacional de saúde",TRUE
AD 86/2017 - Aquisição de Corretivos da Volémia e outras Soluções Estéreis,Ajuste Direto Regime Geral,Aquisição de bens móveis,"33600000-6, Produtos farmacêuticos","Centro Hospitalar Cova da Beira, E. P. E. (506361659)","LABESFAL-LABORATORIOS ALMIRO, SA (501169580)","773,40 €",09-02-2018,18-01-2018,365 dias,"Portugal, Castelo Branco, Covilhã","Artigo 20.º, n.º 1, alínea a) do Código dos Contratos Públicos",,,,,,Não aplicável.,Não aplicável.,FALSE
AD 86/2017 Aquisição de Corretivos da Volémia e outras Soluções Estéreis,Ajuste Direto Regime Geral,Aquisição de bens móveis,"33600000-6, Produtos farmacêuticos","Centro Hospitalar Cova da Beira, E. P. E. (506361659)","FRESENIUS KABI PHARMA PORTUGAL, LDA. (504293753)","69,76 €",09-02-2018,18-01-2018,365 dias,"Portugal, Castelo Branco, Covilhã","Artigo 20.º, n.º 1, alínea a) do Código dos Contratos Públicos",,,,,,Não aplicável.,Não aplicável.,FALSE
AD 86/2017 Aquisição de Corretivos da Volémia e outras Soluções Estéreis,Ajuste Direto Regime Geral,Aquisição de bens móveis,"33600000-6, Produtos farmacêuticos","Centro Hospitalar Cova da Beira, E. P. E. (506361659)","B. BRAUN MEDICAL, LDA (501506543)","13.445,70 €",09-02-2018,24-01-2018,365 dias,"Portugal, Castelo Branco, Covilhã","Artigo 20.º, n.º 1, alínea a) do Código dos Contratos Públicos",,,,,,Não aplicável.,Não aplicável.,FALSE
Aquisição de uma consola para pós-processamento e visualização avançada de imagens médicas,Ajuste Direto Regime Geral,Aquisição de bens móveis,"33110000-4, Equipamento de imagiologia para uso médico, dentário e veterinário","Centro Hospitalar Cova da Beira, E. P. E. (506361659)","Toshiba Medical Systems, S.A. (980023700)","64.000,00 €",09-02-2018,22-01-2018,730 dias,"Portugal, Castelo Branco, Covilhã","Artigo 26.º, n.º 1, alínea a) do Código dos Contratos Públicos",,,,,,Não aplicável.,Não aplicável.,FALSE
Serviços de manutenção para o sistema Pyxis e para o dispensador automático de medicamentos Consis,Ajuste Direto Regime Geral,Aquisição de serviços,"50000000-5, Serviços de reparação e manutenção","Centro Hospitalar Cova da Beira, EPE (506361659)","Glintt, Business Solutions, Lda. (503502537)","12.175,00 €",09-02-2018,04-01-2018,365 dias,"Portugal, Castelo Branco, Covilhã","Artigo 20.º, n.º 1, alínea a) do Código dos Contratos Públicos",,,,,,Não aplicável.,Não aplicável.,FALSE
"Procedimento n.º 00061_2017 - Agregação Fornecimento de Gás Natural ao abrigo do Lote 4 do acordo quadro da ESPAP, para os estabelecimentos do SNS, Órgãos e Serviços do Ministério da Saúde e Outras Entidades com Atividades Especificas da Área da Saúde.",Ao abrigo de acordo-quadro (art.º 259.º),Aquisição de bens móveis,"09123000-7, Gás natural","Centro Hospitalar Cova da Beira, E. P. E. (506361659)","Galp Power, S.A. (504723456)","307.007,36 €",09-02-2018,03-01-2018,365 dias,"Portugal, Castelo Branco, Covilhã",Artigo 259.º do Código dos Contratos Públicos,,,,,,3239784,"aquisição de produtos de higiene, a que corresponde o ao abrigo do Lote 3 - Fornecimento de consumíveis de casa de banho para a Região Lisboa e Vale do Tejo, do Acordo Quadro de Higiene e Limpeza.",FALSE
"Procedimento n.º 00067_2017 - Agregação para prestação de serviços de vigilância e segurança humana, ao abrigo do Lote 3 do Acordo Quadro da ESPAP, para os estabelecimentos do SNS, Órgãos e Serviços do Ministério da Saúde e Outras Entidades com Atividades Especificas da Área da Saúde.",Ao abrigo de acordo-quadro (art.º 259.º),Aquisição de serviços,"79710000-4, Serviços de segurança","Centro Hospitalar Cova da Beira, E. P. E. (506361659)","2045-Gália/Serviços de Vigilância e Segurança, ACE (513205470)","356.076,48 €",08-02-2018,03-01-2018,365 dias,"Portugal, Castelo Branco, Covilhã",Artigo 259.º do Código dos Contratos Públicos,,,,,,3185626,"Ajuste direto """"Prestação de serviços de assessoria técnica nas áreas de fitness e atividades aquáticas""""",FALSE
"Fornecimento de Refeições Confecionadas e Serviços Associados   para o Centro Hospitalar da Cova da Beira, EPE  ",Concurso público,Aquisição de serviços,"55320000-9, Serviços de provimento de refeições","Centro Hospitalar Cova da Beira, EPE (506361659)","Gertal-Companhia Geral de Restaurantes e Alimentação, Lda. (500126623)","735.054,01 €",07-02-2018,05-01-2018,365 dias,"Portugal, Castelo Branco, Covilhã","Artigo 20.º, n.º 1, alínea b) do Código dos Contratos Públicos",,,,,,Não aplicável.,Não aplicável.,TRUE
"Procedimento n.º 00063_2017 - Agregação Fornecimento de Eletricidade ao abrigo do Lote 8 do acordo quadro da ESPAP, para os estabelecimentos do SNS, Órgãos e Serviços do Ministério da Saúde e Outras Entidades com Atividades Especificas da Área da Saúde.",Ao abrigo de acordo-quadro (art.º 259.º),Aquisição de bens móveis,"09000000-3, Produtos petrolíferos, combustíveis, electricidade e outras fontes de energia","Centro Hospitalar Cova da Beira, E. P. E. (506361659)","Iberdrola Clientes Portugal, Unipessoal, Lda. (502124083)","728.873,72 €",07-02-2018,04-01-2018,365 dias,"Portugal, Castelo Branco, Covilhã",Artigo 259.º do Código dos Contratos Públicos,,,,,,3130058,ACORDO QUADRO 1/2017 PARA FORNECIMENTO DE ELETRICIDADE,FALSE
