Objeto do Contrato,Tipo de Procedimento,Tipo(s) de Contrato,CPVs,Entidade(s) Adjudicante(s),Entidade(s) Adjudicatária(s),Preço Contratual,Data de Publicação,Data de Celebração do Contrato,Prazo de Execução,Local de Execução,Fundamentação,Data de Fecho do Contrato,Preço Total Efetivo,Causas das Alterações ao Prazo,Causas das Alterações ao Preço,Estado,N.º registo do Acordo Quadro,Descrição do Acordo Quadro,Procedimento Centralizado
Aquisição de Sacos de Plástico,Concurso público,Aquisição de bens móveis,"19640000-4, Sacos de polietileno para recolha de lixo e resíduos","Hospital Distrital de Santarém, EPE (506361462)","Joalplas-Industrial de Plástico, Lda (501891960)","67.733,63 €",18-01-2018,05-01-2018,365 dias,"Portugal, Santarém, Santarém","Artigo 20.º, n.º 1, alínea b) do Código dos Contratos Públicos",,,,,,Não aplicável.,Não aplicável.,FALSE
Aquisição de Impressos,Concurso público,Aquisição de bens móveis,"30199000-0, Artigos de papelaria e outros artigos de papel","Hospital Distrital de Santarém, E. P. E. (506361462)","Enveloprinter, Lda (508469830)","6.401,47 €",18-01-2018,17-01-2018,365 dias,"Portugal, Santarém, Santarém","Artigo 20.º, n.º 1, alínea b) do Código dos Contratos Públicos",,,,,,Não aplicável.,Não aplicável.,FALSE
Aquisição de Cassetes para equipamento Sterrad,Ajuste Direto Regime Geral,Aquisição de bens móveis,"33140000-3, Material médico de consumo","Hospital Distrital de Santarém, EPE (506361462)",JOHNSON & JOHNSON MEDICAL (500153370),"6.090,00 €",15-01-2018,12-01-2018,365 dias,"Portugal, Santarém, Santarém","Artigo 26.º, n.º 1, alínea a) do Código dos Contratos Públicos",,,,,,Não aplicável.,Não aplicável.,FALSE
Aquisição de Pinos para Ortopedia,Ajuste Direto Regime Geral,Aquisição de bens móveis,"33140000-3, Material médico de consumo","Hospital Distrital de Santarém, E. P. E. (506361462)",STRYKER (504594214),"3.750,00 €",11-01-2018,22-12-2017,365 dias,"Portugal, Santarém, Santarém","Artigo 26.º, n.º 1, alínea a) do Código dos Contratos Públicos",,,,,,Não aplicável.,Não aplicável.,FALSE
