Objeto do Contrato,Tipo de Procedimento,Tipo(s) de Contrato,CPVs,Entidade(s) Adjudicante(s),Entidade(s) Adjudicatária(s),Preço Contratual,Data de Publicação,Data de Celebração do Contrato,Prazo de Execução,Local de Execução,Fundamentação,Data de Fecho do Contrato,Preço Total Efetivo,Causas das Alterações ao Prazo,Causas das Alterações ao Preço,Estado,N.º registo do Acordo Quadro,Descrição do Acordo Quadro,Procedimento Centralizado
Aquisição de medicamentos - vinORELBina,Ajuste Direto Regime Geral,Aquisição de bens móveis,"33600000-6, Produtos farmacêuticos","Instituto Português de Oncologia do Porto Francisco Gentil, E. P. E. (506362299)",PIERRE FABRE MEDICAMENT PORTUG (500230366),"11.832,00 €",10-09-2018,30-08-2018,20 dias,"Portugal, Porto, Porto","Artigo 24.º, n.º 1, alínea e), subalínea ii) do Código dos Contratos Públicos",,,,,,Não aplicável.,Não aplicável.,FALSE
Aquisição de medicamentos - Palbociclib,Ajuste Direto Regime Geral,Aquisição de bens móveis,"33600000-6, Produtos farmacêuticos","Instituto Português de Oncologia do Porto Francisco Gentil, E. P. E. (506362299)",PFIZER BIOFARMACEUTICA SOCIDADE UNIPESSOAL LDA (513300376),"133.000,03 €",10-09-2018,03-09-2018,20 dias,"Portugal, Porto, Porto","Artigo 24.º, n.º 1, alínea e), subalínea ii) do Código dos Contratos Públicos",,,,,,Não aplicável.,Não aplicável.,FALSE
"Aquisição de medicamentos - Octreotida, Imatinib, Everolímus, LAPAtinib, TRAMETinib e CERItinib",Ajuste Direto Regime Geral,Aquisição de bens móveis,"33600000-6, Produtos farmacêuticos","Instituto Português de Oncologia do Porto Francisco Gentil, E. P. E. (506362299)","NOVARTIS FARMA, S.A. (500063524)","98.080,34 €",10-09-2018,03-09-2018,20 dias,"Portugal, Porto, Porto","Artigo 24.º, n.º 1, alínea e), subalínea ii) do Código dos Contratos Públicos",,,,,,Não aplicável.,Não aplicável.,FALSE
"Aquisição de medicamentos - Dabrafenib, TRAMETinib, CERItinib, Ribociclib, Eltrombopag e Pembrolizumab",Ajuste Direto Regime Geral,Aquisição de bens móveis,"33600000-6, Produtos farmacêuticos","Instituto Português de Oncologia do Porto Francisco Gentil, E. P. E. (506362299)","NOVARTIS FARMA, S.A. (500063524)","109.449,91 €",10-09-2018,28-08-2018,20 dias,"Portugal, Porto, Porto","Artigo 24.º, n.º 1, alínea e), subalínea ii) do Código dos Contratos Públicos",,,,,,Não aplicável.,Não aplicável.,FALSE
"Aquisição de medicamentos - Pembrolizumab, Posaconazol, Fosaprepitant, Sugamadex e Pembrolizumab",Ajuste Direto Regime Geral,Aquisição de bens móveis,"33600000-6, Produtos farmacêuticos","Instituto Português de Oncologia do Porto Francisco Gentil, E. P. E. (506362299)",Merck Sharp & Dohme Lda (500191360),"164.585,90 €",10-09-2018,30-08-2018,20 dias,"Portugal, Porto, Porto","Artigo 24.º, n.º 1, alínea e), subalínea ii) do Código dos Contratos Públicos",,,,,,Não aplicável.,Não aplicável.,FALSE
Aquisição de medicamentos - Levofolinato dissódico,Ajuste Direto Regime Geral,Aquisição de bens móveis,"33600000-6, Produtos farmacêuticos","Instituto Português de Oncologia do Porto Francisco Gentil, E. P. E. (506362299)",Medac (980369959),"7.712,00 €",10-09-2018,29-08-2018,20 dias,"Portugal, Porto, Porto","Artigo 24.º, n.º 1, alínea e), subalínea ii) do Código dos Contratos Públicos",,,,,,Não aplicável.,Não aplicável.,FALSE
Aquisição de medicamentos - Pemetrexedo,Ajuste Direto Regime Geral,Aquisição de bens móveis,"33600000-6, Produtos farmacêuticos","Instituto Português de Oncologia do Porto Francisco Gentil, E. P. E. (506362299)","LILLY PORTUGAL-PROD.FARMACEUTICOS, LDA (500165602)","87.956,00 €",10-09-2018,27-08-2018,20 dias,"Portugal, Porto, Porto","Artigo 24.º, n.º 1, alínea c) do Código dos Contratos Públicos",,,,,,Não aplicável.,Não aplicável.,FALSE
"Aquisição de medicamentos - Tigeciclina, Voriconazol e Filgrastim",Ajuste Direto Regime Geral,Aquisição de bens móveis,"33600000-6, Produtos farmacêuticos","Instituto Português de Oncologia do Porto Francisco Gentil, E. P. E. (506362299)",LABORATORIOS PFIZER  LDA (500162166),"15.768,29 €",07-09-2018,30-08-2018,20 dias,"Portugal, Porto, Porto","Artigo 20.º, n.º 1, alínea d) do Código dos Contratos Públicos",,,,,,Não aplicável.,Não aplicável.,FALSE
"Aquisição de medicamentos - Ibrutinib, DOXOrrubicina e Cladribina",Ajuste Direto Regime Geral,Aquisição de bens móveis,"33600000-6, Produtos farmacêuticos","Instituto Português de Oncologia do Porto Francisco Gentil, E. P. E. (506362299)","Janssen-Cilag Farmacêutica, Lda. (500189412)","51.844,75 €",07-09-2018,03-09-2018,20 dias,"Portugal, Porto, Porto","Artigo 24.º, n.º 1, alínea e), subalínea ii) do Código dos Contratos Públicos",,,,,,Não aplicável.,Não aplicável.,FALSE
Aquisição de medicamentos - Cetamina,Ajuste Direto Regime Geral,Aquisição de bens móveis,"33600000-6, Produtos farmacêuticos","Instituto Português de Oncologia do Porto Francisco Gentil, E. P. E. (506362299)",HIKMA FARMACEUTICA (502266791),"6.572,50 €",07-09-2018,30-08-2018,20 dias,"Portugal, Porto, Porto","Artigo 24.º, n.º 1, alínea e), subalínea ii) do Código dos Contratos Públicos",,,,,,Não aplicável.,Não aplicável.,FALSE
Aquisição de medicamentos - Atovaquona,Ajuste Direto Regime Geral,Aquisição de bens móveis,"33600000-6, Produtos farmacêuticos","Instituto Português de Oncologia do Porto Francisco Gentil, E. P. E. (506362299)","GLAXO SMITHKLINE PROD. FARMACEUTICOS, LDA (500139962)","6.421,40 €",07-09-2018,30-08-2018,20 dias,"Portugal, Porto, Porto","Artigo 24.º, n.º 1, alínea e), subalínea ii) do Código dos Contratos Públicos",,,,,,Não aplicável.,Não aplicável.,FALSE
Aquisição de medicamentos - anfotericina B LIPOSSÓMICA,Ajuste Direto Regime Geral,Aquisição de bens móveis,"33600000-6, Produtos farmacêuticos","Instituto Português de Oncologia do Porto Francisco Gentil, E. P. E. (506362299)",GILEAD SCIENCES LDA. (503604704),"78.036,60 €",07-09-2018,03-09-2018,20 dias,"Portugal, Porto, Porto","Artigo 24.º, n.º 1, alínea e), subalínea ii) do Código dos Contratos Públicos",,,,,,Não aplicável.,Não aplicável.,FALSE
Aquisição de medicamentos - Caspofungina e DOCEtaxel,Ajuste Direto Regime Geral,Aquisição de bens móveis,"33600000-6, Produtos farmacêuticos","Instituto Português de Oncologia do Porto Francisco Gentil, E. P. E. (506362299)","GENERIS-FARMACEUTICA,SA (508107997)","13.292,00 €",07-09-2018,28-08-2018,20 dias,"Portugal, Porto, Porto","Artigo 20.º, n.º 1, alínea d) do Código dos Contratos Públicos",,,,,,Não aplicável.,Não aplicável.,FALSE
Aquisição de medicamentos - Lenvatinib,Ajuste Direto Regime Geral,Aquisição de bens móveis,"33600000-6, Produtos farmacêuticos","Instituto Português de Oncologia do Porto Francisco Gentil, E. P. E. (506362299)","EF - Eisai Farmacêutica Unipessoal, Lda (507847660)","9.340,20 €",07-09-2018,23-08-2018,20 dias,"Portugal, Porto, Porto","Artigo 24.º, n.º 1, alínea e), subalínea ii) do Código dos Contratos Públicos",,,,,,Não aplicável.,Não aplicável.,FALSE
Aquisição de medicamentos - Foscarneto sódico,Ajuste Direto Regime Geral,Aquisição de bens móveis,"33600000-6, Produtos farmacêuticos","Instituto Português de Oncologia do Porto Francisco Gentil, E. P. E. (506362299)",CLINIGEN HEALTHCARE (GB100125104),"18.700,00 €",07-09-2018,28-08-2018,20 dias,"Portugal, Porto, Porto","Artigo 24.º, n.º 1, alínea e), subalínea ii) do Código dos Contratos Públicos",,,,,,Não aplicável.,Não aplicável.,FALSE
Aquisição de medicamentos - azaCITIDina,Ajuste Direto Regime Geral,Aquisição de bens móveis,"33600000-6, Produtos farmacêuticos","Instituto Português de Oncologia do Porto Francisco Gentil, E. P. E. (506362299)",CELGENE - SOCIEDADE UNIPESSOAL LDA (507791690),"9.912,00 €",07-09-2018,24-08-2018,20 dias,"Portugal, Porto, Porto","Artigo 24.º, n.º 1, alínea e), subalínea ii) do Código dos Contratos Públicos",,,,,,Não aplicável.,Não aplicável.,FALSE
Aquisição de medicamentos - Talidomida,Ajuste Direto Regime Geral,Aquisição de bens móveis,"33600000-6, Produtos farmacêuticos","Instituto Português de Oncologia do Porto Francisco Gentil, E. P. E. (506362299)",CELGENE LOGISTICS SARL (980385695),"10.920,00 €",07-09-2018,24-08-2018,20 dias,"Portugal, Porto, Porto","Artigo 24.º, n.º 1, alínea e), subalínea ii) do Código dos Contratos Públicos",,,,,,Não aplicável.,Não aplicável.,FALSE
Aquisição de medicamentos - Nivolumab e Nistatina,Ajuste Direto Regime Geral,Aquisição de bens móveis,"33600000-6, Produtos farmacêuticos","Instituto Português de Oncologia do Porto Francisco Gentil, E. P. E. (506362299)","BRISTOL MYERS SQUIBB FARM.PORTUGUESA, SA (500048193)","39.609,89 €",07-09-2018,29-08-2018,20 dias,"Portugal, Porto, Porto","Artigo 24.º, n.º 1, alínea e), subalínea ii) do Código dos Contratos Públicos",,,,,,Não aplicável.,Não aplicável.,FALSE
"Aquisição de medicamentos - Goserrelina, Olaparib, OSIMERtinib, Fulvestrant e Esomeprazol",Ajuste Direto Regime Geral,Aquisição de bens móveis,"33600000-6, Produtos farmacêuticos","Instituto Português de Oncologia do Porto Francisco Gentil, E. P. E. (506362299)",Astra Zeneca -  Produtos Farmacêuticos (502942240),"177.034,44 €",07-09-2018,03-09-2018,20 dias,"Portugal, Porto, Porto","Artigo 24.º, n.º 1, alínea c) do Código dos Contratos Públicos",,,,,,Não aplicável.,Não aplicável.,FALSE
Aquisição de medicamentos - BOLSA NP CENTRAL,Ajuste Direto Regime Geral,Aquisição de bens móveis,"33600000-6, Produtos farmacêuticos","Instituto Português de Oncologia do Porto Francisco Gentil, E. P. E. (506362299)","Baxter Médico - Farmacêutica, Lda. (503347345)","7.316,28 €",05-09-2018,30-08-2018,20 dias,"Portugal, Porto, Porto","Artigo 24.º, n.º 1, alínea e), subalínea ii) do Código dos Contratos Públicos",,,,,,Não aplicável.,Não aplicável.,FALSE
Aquisição de medicamentos - Morfina,Ajuste Direto Regime Geral,Aquisição de bens móveis,"33600000-6, Produtos farmacêuticos","Instituto Português de Oncologia do Porto Francisco Gentil, E. P. E. (506362299)",B BRAUN MEDICAL LDA (501506543),"7.200,00 €",05-09-2018,30-08-2018,20 dias,"Portugal, Porto, Porto","Artigo 20.º, n.º 1, alínea d) do Código dos Contratos Públicos",,,,,,Não aplicável.,Não aplicável.,FALSE
Aquisição de medicamentos - Enzalutamida e Micafungina,Ajuste Direto Regime Geral,Aquisição de bens móveis,"33600000-6, Produtos farmacêuticos","Instituto Português de Oncologia do Porto Francisco Gentil, E. P. E. (506362299)","ASTELLAS FARMA, LDA. (502540249)","105.788,30 €",05-09-2018,30-08-2018,20 dias,"Portugal, Porto, Porto","Artigo 24.º, n.º 1, alínea e), subalínea ii) do Código dos Contratos Públicos",,,,,,Não aplicável.,Não aplicável.,FALSE
Aquisição de medicamentos - Imunoglobulina antilinfócitos (coelho) e Pegaspargase,Ajuste Direto Regime Geral,Aquisição de bens móveis,"33600000-6, Produtos farmacêuticos","Instituto Português de Oncologia do Porto Francisco Gentil, E. P. E. (506362299)",ALLOGA PORTUGAL ARMAZENAGEM E DISTRIBUIÇÃO FARMACEUTICA LDA (504507230),"35.891,60 €",05-09-2018,24-08-2018,20 dias,"Portugal, Porto, Porto","Artigo 24.º, n.º 1, alínea e), subalínea ii) do Código dos Contratos Públicos",,,,,,Não aplicável.,Não aplicável.,FALSE
Aquisição de medicamentos - ECULIZumab,Ajuste Direto Regime Geral,Aquisição de bens móveis,"33600000-6, Produtos farmacêuticos","Instituto Português de Oncologia do Porto Francisco Gentil, E. P. E. (506362299)",ALEXION PHARMA SPAIN S.L. - SUCURSAL P (980553768),"43.549,55 €",05-09-2018,22-08-2018,20 dias,"Portugal, Porto, Porto","Artigo 24.º, n.º 1, alínea e), subalínea ii) do Código dos Contratos Públicos",,,,,,Não aplicável.,Não aplicável.,FALSE
"Aquisição de medicamentos - TRASTUzumab, Vismodegib e RITUximab ",Ajuste Direto Regime Geral,Aquisição de bens móveis,"33600000-6, Produtos farmacêuticos","Instituto Português de Oncologia do Porto Francisco Gentil, E. P. E. (506362299)",ROCHE FARMACEUTICA QUIMICA LDA (500233810),"183.106,72 €",05-09-2018,27-08-2018,20 dias,"Portugal, Porto, Porto","Artigo 24.º, n.º 1, alínea e), subalínea ii) do Código dos Contratos Públicos",,,,,,Não aplicável.,Não aplicável.,FALSE
Aquisição de medicamentos - Pertuzumab e T-DM1,Ajuste Direto Regime Geral,Aquisição de bens móveis,"33600000-6, Produtos farmacêuticos","Instituto Português de Oncologia do Porto Francisco Gentil, E. P. E. (506362299)",ROCHE FARMACEUTICA QUIMICA LDA (500233810),"198.999,60 €",05-09-2018,27-08-2018,20 dias,"Portugal, Porto, Porto","Artigo 24.º, n.º 1, alínea e), subalínea ii) do Código dos Contratos Públicos",,,,,,Não aplicável.,Não aplicável.,FALSE
Aquisição de medicamentos - Plerixafor,Ajuste Direto Regime Geral,Aquisição de bens móveis,"33600000-6, Produtos farmacêuticos","Instituto Português de Oncologia do Porto Francisco Gentil, E. P. E. (506362299)","Sanofi-Aventis - Prod. Farmacêuticos, Lda (500134960)","16.512,72 €",05-09-2018,06-08-2018,20 dias,"Portugal, Porto, Porto","Artigo 24.º, n.º 1, alínea e), subalínea ii) do Código dos Contratos Públicos",,,,,,Não aplicável.,Não aplicável.,FALSE
Aquisição de medicamentos - Iodixanol,Ajuste Direto Regime Geral,Aquisição de bens móveis,"33600000-6, Produtos farmacêuticos","Instituto Português de Oncologia do Porto Francisco Gentil, E. P. E. (506362299)","Satis, Ld.ª (500098140)","39.725,96 €",05-09-2018,03-09-2018,20 dias,"Portugal, Porto, Porto","Artigo 24.º, n.º 1, alínea e), subalínea ii) do Código dos Contratos Públicos",,,,,,Não aplicável.,Não aplicável.,FALSE
Aquisição de medicamentos - Trifluridina + tipiracilo,Ajuste Direto Regime Geral,Aquisição de bens móveis,"33600000-6, Produtos farmacêuticos","Instituto Português de Oncologia do Porto Francisco Gentil, E. P. E. (506362299)",SERVIER PORTUGAL - ESPECIALIDADES FARMACEUTICAS (502177420),"21.780,00 €",05-09-2018,30-08-2018,20 dias,"Portugal, Porto, Porto","Artigo 24.º, n.º 1, alínea e), subalínea ii) do Código dos Contratos Públicos",,,,,,Não aplicável.,Não aplicável.,FALSE
Aquisição de medicamentos - Trióxido de arsénio,Ajuste Direto Regime Geral,Aquisição de bens móveis,"33600000-6, Produtos farmacêuticos","Instituto Português de Oncologia do Porto Francisco Gentil, E. P. E. (506362299)","teva Pharma Produtos Farmacêuticos, Lda. (507045491)","6.756,12 €",05-09-2018,08-08-2018,20 dias,"Portugal, Porto, Porto","Artigo 20.º, n.º 1, alínea d) do Código dos Contratos Públicos",,,,,,Não aplicável.,Não aplicável.,FALSE
Aquisição de medicamentos - Imatinib e LAPAtinib,Ajuste Direto Regime Geral,Aquisição de bens móveis,"33600000-6, Produtos farmacêuticos","Instituto Português de Oncologia do Porto Francisco Gentil, E. P. E. (506362299)",Novartis (500063524),"121.371,32 €",04-09-2018,03-11-2017,20 dias,"Portugal, Porto, Porto","Artigo 24.º, n.º 1, alínea c) do Código dos Contratos Públicos",,,,,,Não aplicável.,Não aplicável.,FALSE
Aquisição de medicamentos - CETUximab,Ajuste Direto Regime Geral,Aquisição de bens móveis,"33600000-6, Produtos farmacêuticos","Instituto Português de Oncologia do Porto Francisco Gentil, E. P. E. (506362299)",MERCK S.A. (500650870),"99.264,00 €",04-09-2018,03-10-2017,20 dias,"Portugal, Porto, Porto","Artigo 24.º, n.º 1, alínea e) do Código dos Contratos Públicos",,,,,,Não aplicável.,Não aplicável.,FALSE
"Aquisição de medicamentos - Posaconazol, Caspofungina, Sugamadex, Fosaprepitant e Pembrolizumab",Ajuste Direto Regime Geral,Aquisição de bens móveis,"33600000-6, Produtos farmacêuticos","Instituto Português de Oncologia do Porto Francisco Gentil, E. P. E. (506362299)","Merck Sharp & Dohme, Lda. (500191360)","121.681,06 €",04-09-2018,23-11-2017,20 dias,"Portugal, Porto, Porto","Artigo 24.º, n.º 1, alínea e) do Código dos Contratos Públicos",,,,,,Não aplicável.,Não aplicável.,FALSE
"Aquisição de medicamentos - Pazopanib, Octreotida, CERItinib, TRAMETinib, Everolimus, LAPAtinib e Dabrafenib",Ajuste Direto Regime Geral,Aquisição de bens móveis,"33600000-6, Produtos farmacêuticos","Instituto Português de Oncologia do Porto Francisco Gentil, E. P. E. (506362299)",Novartis (500063524),"187.748,43 €",04-09-2018,20-10-2017,20 dias,"Portugal, Porto, Porto","Artigo 24.º, n.º 1, alínea e) do Código dos Contratos Públicos",,,,,,Não aplicável.,Não aplicável.,FALSE
"Aquisição de medicamentos - Posaconazol, Caspofungina, Sugamadex, Fosaprepitant e Pembrolizumab",Ajuste Direto Regime Geral,Aquisição de bens móveis,"33600000-6, Produtos farmacêuticos","Instituto Português de Oncologia do Porto Francisco Gentil, E. P. E. (506362299)","Merck Sharp & Dohme, Lda. (500191360)","166.727,94 €",04-09-2018,07-11-2017,20 dias,"Portugal, Porto, Porto","Artigo 24.º, n.º 1, alínea e) do Código dos Contratos Públicos",,,,,,Não aplicável.,Não aplicável.,FALSE
"Aquisição de medicamentos - Imatinib, LAPAtinib e CERItinib",Ajuste Direto Regime Geral,Aquisição de bens móveis,"33600000-6, Produtos farmacêuticos","Instituto Português de Oncologia do Porto Francisco Gentil, E. P. E. (506362299)",Novartis (500063524),"161.584,72 €",04-09-2018,11-08-2017,20 dias,"Portugal, Porto, Porto","Artigo 24.º, n.º 1, alínea c) do Código dos Contratos Públicos",,,,,,Não aplicável.,Não aplicável.,FALSE
Aquisição de medicamentos - CETUximab,Ajuste Direto Regime Geral,Aquisição de bens móveis,"33600000-6, Produtos farmacêuticos","Instituto Português de Oncologia do Porto Francisco Gentil, E. P. E. (506362299)",MERCK S.A. (500650870),"148.896,00 €",04-09-2018,26-09-2017,20 dias,"Portugal, Porto, Porto","Artigo 24.º, n.º 1, alínea e) do Código dos Contratos Públicos",,,,,,Não aplicável.,Não aplicável.,FALSE
