Objeto do Contrato,Tipo de Procedimento,Tipo(s) de Contrato,CPVs,Entidade(s) Adjudicante(s),Entidade(s) Adjudicatária(s),Preço Contratual,Data de Publicação,Data de Celebração do Contrato,Prazo de Execução,Local de Execução,Fundamentação,Data de Fecho do Contrato,Preço Total Efetivo,Causas das Alterações ao Prazo,Causas das Alterações ao Preço,Estado,N.º registo do Acordo Quadro,Descrição do Acordo Quadro,Procedimento Centralizado
Aquisição de Efavirenz 600 mg + Emtricitabina 200 mg + Tenofovir (600+200+245 mg) (P259-AC-2017-113),Ao abrigo de acordo-quadro (art.º 259.º),Aquisição de bens móveis,"33600000-6, Produtos farmacêuticos","Centro Hospitalar de Entre o Douro e Vouga, E.P.E. (508878462)","Gilead Sciences, Lda. (503604704)","27.059,04 €",11-10-2017,10-08-2017,144 dias,"Portugal, Aveiro, Santa Maria da Feira",Artigo 259.º do Código dos Contratos Públicos,,,,,,2183729,Medicamentos antirretrovíricos para o tratamento da infeção por VIH,FALSE
Aq. Medicamentos Aparelho Geniturinário (exclusivos Ferring),Ao abrigo de acordo-quadro (art.º 259.º),Aquisição de bens móveis,"33600000-6, Produtos farmacêuticos","Centro Hospitalar de Entre o Douro e Vouga, E.P.E. (508878462)","FERRING PORTUGUESA, LDA. (502034831)","16.018,40 €",11-10-2017,16-02-2017,314 dias,"Portugal, Aveiro, Santa Maria da Feira",Artigo 259.º do Código dos Contratos Públicos,,,,,,1404918,CP 2015/48 - Acordo Quadro para fornecimento de Medicamentos de Consumo Geral - Aparelho Geniturinário às Instituições e Serviços do Serviço Nacional de Saúde,FALSE
Aquisição do medicamento Afatinib 40 mg comp.,Ajuste Direto Regime Geral,Aquisição de bens móveis,"33600000-6, Produtos farmacêuticos","Centro Hospitalar de Entre o Douro e Vouga, E.P.E. (508878462)",UNILFARMA - UNIAO INTERN. LAB. S FARMACEUTICOS     (500293023),"12.175,09 €",11-10-2017,21-06-2017,194 dias,"Portugal, Aveiro, Santa Maria da Feira","Artigo 24.º, n.º 1, alínea e) do Código dos Contratos Públicos",,,,,,Não aplicável.,Não aplicável.,FALSE
Aquisição de Luvas de nitrilo para uso médico,Concurso público,Aquisição de bens móveis,"33141420-0, Luvas para cirurgia","Centro Hospitalar de Entre o Douro e Vouga, E.P.E. (508878462)","Medicinália Cormedica - Comercialização de Produtos Médico Hospitalares, Lda. (500684324)","110.247,50 €",11-10-2017,22-05-2017,365 dias,"Portugal, Aveiro, Santa Maria da Feira","Artigo 20.º, n.º 1, alínea b) do Código dos Contratos Públicos",,,,,,Não aplicável.,Não aplicável.,FALSE
Aquisição de Medicamentos Exclusivos Glaxosmithkline,Ajuste Direto Regime Geral,Aquisição de bens móveis,"33000000-0, Equipamento médico, medicamentos e produtos para cuidados pessoais","Centro Hospitalar de Entre o Douro e Vouga, E.P.E. (508878462)","Glaxosmithkline - Produtos Farmacêuticos, Lda (500139962)","13.089,80 €",11-10-2017,25-01-2017,365 dias,"Portugal, Aveiro, Santa Maria da Feira","Artigo 20.º, n.º 1, alínea a) do Código dos Contratos Públicos",,,,,,Não aplicável.,Não aplicável.,FALSE
Aquisição de Hormonas e outros medicamentos usados no tratamento de doenças endócrinas,Ao abrigo de acordo-quadro (art.º 259.º),Aquisição de bens móveis,"33000000-0, Equipamento médico, medicamentos e produtos para cuidados pessoais","Centro Hospitalar de Entre o Douro e Vouga, E.P.E. (508878462)","SANDOZ FARMACÊUTICA, LDA. (506985261)","48,76 €",11-10-2017,16-06-2016,215 dias,"Portugal, Aveiro, Santa Maria da Feira","Artigo 20.º, n.º 1, alínea b) do Código dos Contratos Públicos",,,,,,1309904,ACORDO QUADRO PARA FORNECIMENTO DE HORMONAS E OUTROS MEDICAMENTOS USADOS NO TRATAMENTO DAS DOENÇAS ENDÓCRINAS ÀS INSTITUIÇÕES E SERVIÇOS DO SERVIÇO NACIONAL DE SAÚDE,FALSE
Aquisição de Hormonas e outros medicamentos usados no tratamento de doenças endócrinas,Ao abrigo de acordo-quadro (art.º 259.º),Aquisição de bens móveis,"33000000-0, Equipamento médico, medicamentos e produtos para cuidados pessoais","Centro Hospitalar de Entre o Douro e Vouga, E.P.E. (508878462)",NOVO NORDISK COMERCIO DE PRODUTOS FARMACEUTICOS    (501485210),"819,00 €",11-10-2017,16-06-2016,215 dias,"Portugal, Aveiro, Santa Maria da Feira","Artigo 20.º, n.º 1, alínea b) do Código dos Contratos Públicos",,,,,,1309904,ACORDO QUADRO PARA FORNECIMENTO DE HORMONAS E OUTROS MEDICAMENTOS USADOS NO TRATAMENTO DAS DOENÇAS ENDÓCRINAS ÀS INSTITUIÇÕES E SERVIÇOS DO SERVIÇO NACIONAL DE SAÚDE,FALSE
Aquisição de Hormonas e outros medicamentos usados no tratamento de doenças endócrinas,Ao abrigo de acordo-quadro (art.º 259.º),Aquisição de bens móveis,"33000000-0, Equipamento médico, medicamentos e produtos para cuidados pessoais","Centro Hospitalar de Entre o Douro e Vouga, E.P.E. (508878462)","SANOFI  PRODUTOS FARMACEUTICOS, LDA. (500134960)","10.897,20 €",11-10-2017,16-06-2016,215 dias,"Portugal, Aveiro, Santa Maria da Feira","Artigo 20.º, n.º 1, alínea b) do Código dos Contratos Públicos",,,,,,1309904,ACORDO QUADRO PARA FORNECIMENTO DE HORMONAS E OUTROS MEDICAMENTOS USADOS NO TRATAMENTO DAS DOENÇAS ENDÓCRINAS ÀS INSTITUIÇÕES E SERVIÇOS DO SERVIÇO NACIONAL DE SAÚDE,FALSE
Aquisição de Hormonas e outros medicamentos usados no tratamento de doenças endócrinas,Ao abrigo de acordo-quadro (art.º 259.º),Aquisição de bens móveis,"33000000-0, Equipamento médico, medicamentos e produtos para cuidados pessoais","Centro Hospitalar de Entre o Douro e Vouga, E.P.E. (508878462)",NOVO NORDISK COMERCIO DE PRODUTOS FARMACEUTICOS    (501485210),"3.473,40 €",11-10-2017,16-06-2016,215 dias,"Portugal, Aveiro, Santa Maria da Feira","Artigo 20.º, n.º 1, alínea b) do Código dos Contratos Públicos",,,,,,1309904,ACORDO QUADRO PARA FORNECIMENTO DE HORMONAS E OUTROS MEDICAMENTOS USADOS NO TRATAMENTO DAS DOENÇAS ENDÓCRINAS ÀS INSTITUIÇÕES E SERVIÇOS DO SERVIÇO NACIONAL DE SAÚDE,FALSE
Aquisição de Hormonas e outros medicamentos usados no tratamento de doenças endócrinas,Ao abrigo de acordo-quadro (art.º 259.º),Aquisição de bens móveis,"33000000-0, Equipamento médico, medicamentos e produtos para cuidados pessoais","Centro Hospitalar de Entre o Douro e Vouga, E.P.E. (508878462)",NOVO NORDISK COMERCIO DE PRODUTOS FARMACEUTICOS    (501485210),"19.848,00 €",11-10-2017,16-06-2016,215 dias,"Portugal, Aveiro, Ílhavo","Artigo 20.º, n.º 1, alínea b) do Código dos Contratos Públicos",,,,,,1309904,ACORDO QUADRO PARA FORNECIMENTO DE HORMONAS E OUTROS MEDICAMENTOS USADOS NO TRATAMENTO DAS DOENÇAS ENDÓCRINAS ÀS INSTITUIÇÕES E SERVIÇOS DO SERVIÇO NACIONAL DE SAÚDE,FALSE
Aquisição de Hormonas e outros medicamentos usados no tratamento de doenças endócrinas,Ao abrigo de acordo-quadro (art.º 259.º),Aquisição de bens móveis,"33000000-0, Equipamento médico, medicamentos e produtos para cuidados pessoais","Centro Hospitalar de Entre o Douro e Vouga, E.P.E. (508878462)",MERCK SHARP & DOHME LDA (500191360),"1.382,60 €",11-10-2017,16-06-2016,215 dias,"Portugal, Aveiro, Santa Maria da Feira","Artigo 20.º, n.º 1, alínea b) do Código dos Contratos Públicos",,,,,,1309904,ACORDO QUADRO PARA FORNECIMENTO DE HORMONAS E OUTROS MEDICAMENTOS USADOS NO TRATAMENTO DAS DOENÇAS ENDÓCRINAS ÀS INSTITUIÇÕES E SERVIÇOS DO SERVIÇO NACIONAL DE SAÚDE,FALSE
Aquisição de Hormonas e outros medicamentos usados no tratamento de doenças endócrinas,Ao abrigo de acordo-quadro (art.º 259.º),Aquisição de bens móveis,"33000000-0, Equipamento médico, medicamentos e produtos para cuidados pessoais","Centro Hospitalar de Entre o Douro e Vouga, E.P.E. (508878462)",MERCK SHARP & DOHME LDA (500191360),"538,20 €",11-10-2017,16-06-2016,215 dias,"Portugal, Aveiro, Santa Maria da Feira","Artigo 20.º, n.º 1, alínea b) do Código dos Contratos Públicos",,,,,,1309904,ACORDO QUADRO PARA FORNECIMENTO DE HORMONAS E OUTROS MEDICAMENTOS USADOS NO TRATAMENTO DAS DOENÇAS ENDÓCRINAS ÀS INSTITUIÇÕES E SERVIÇOS DO SERVIÇO NACIONAL DE SAÚDE,FALSE
Aquisição de Hormonas e outros medicamentos usados no tratamento de doenças endócrinas,Ao abrigo de acordo-quadro (art.º 259.º),Aquisição de bens móveis,"33000000-0, Equipamento médico, medicamentos e produtos para cuidados pessoais","Centro Hospitalar de Entre o Douro e Vouga, E.P.E. (508878462)","LAB. PFIZER, LDA.                                  (500162166)","2.424,00 €",11-10-2017,16-06-2016,215 dias,"Portugal, Aveiro, Santa Maria da Feira","Artigo 20.º, n.º 2, alínea b), subalínea i) do Código dos Contratos Públicos",,,,,,1309904,ACORDO QUADRO PARA FORNECIMENTO DE HORMONAS E OUTROS MEDICAMENTOS USADOS NO TRATAMENTO DAS DOENÇAS ENDÓCRINAS ÀS INSTITUIÇÕES E SERVIÇOS DO SERVIÇO NACIONAL DE SAÚDE,FALSE
Aquisição de Hormonas e outros medicamentos usados no tratamento de doenças endocrinas,Ao abrigo de acordo-quadro (art.º 259.º),Aquisição de bens móveis,"33000000-0, Equipamento médico, medicamentos e produtos para cuidados pessoais","Centro Hospitalar de Entre o Douro e Vouga, E.P.E. (508878462)","Labesfal - Laboratórios Almiro, S.A. (501169580)","3.381,12 €",11-10-2017,16-06-2016,215 dias,"Portugal, Aveiro, Santa Maria da Feira","Artigo 20.º, n.º 1, alínea b) do Código dos Contratos Públicos",,,,,,1309904,ACORDO QUADRO PARA FORNECIMENTO DE HORMONAS E OUTROS MEDICAMENTOS USADOS NO TRATAMENTO DAS DOENÇAS ENDÓCRINAS ÀS INSTITUIÇÕES E SERVIÇOS DO SERVIÇO NACIONAL DE SAÚDE,FALSE
Aquisição de Hormonas e outros medicamentos usados no tratamento de doenças endócrinas,Ao abrigo de acordo-quadro (art.º 259.º),Aquisição de bens móveis,"33000000-0, Equipamento médico, medicamentos e produtos para cuidados pessoais","Centro Hospitalar de Entre o Douro e Vouga, E.P.E. (508878462)","LAB. PFIZER, LDA.                                  (500162166)","20.916,00 €",11-10-2017,16-06-2016,20916 dias,"Portugal, Aveiro, Santa Maria da Feira","Artigo 20.º, n.º 1, alínea b) do Código dos Contratos Públicos",,,,,,1309904,ACORDO QUADRO PARA FORNECIMENTO DE HORMONAS E OUTROS MEDICAMENTOS USADOS NO TRATAMENTO DAS DOENÇAS ENDÓCRINAS ÀS INSTITUIÇÕES E SERVIÇOS DO SERVIÇO NACIONAL DE SAÚDE,FALSE
Aq. do medicamento “RITUximab 500 mg/50 ml sol inj fr 50 ml iv - Truxima”,Ajuste Direto Regime Geral,Aquisição de bens móveis,"33600000-6, Produtos farmacêuticos","CENTRO HOSPITALAR DE ENTRE O DOURO E VOUGA, E.P.E. (508878462)","PHARMAKERN PORTUGAL, LDA.                          (507002571)","5.680,00 €",11-10-2017,04-10-2017,89 dias,"Portugal, Aveiro, Santa Maria da Feira","Artigo 24.º, n.º 1, alínea e) do Código dos Contratos Públicos",,,,,,Não aplicável.,Não aplicável.,FALSE
Aquisição de Hormonas e outros medicamentos usados no tratamento de doenças endócrinas,Ao abrigo de acordo-quadro (art.º 259.º),Aquisição de bens móveis,"33000000-0, Equipamento médico, medicamentos e produtos para cuidados pessoais","Centro Hospitalar de Entre o Douro e Vouga, E.P.E. (508878462)","Hikma - Farmacêutica, S.A. (502266791)","8.640,00 €",11-10-2017,16-06-2016,215 dias,"Portugal, Aveiro, Santa Maria da Feira","Artigo 20.º, n.º 1, alínea b) do Código dos Contratos Públicos",,,,,,1309904,ACORDO QUADRO PARA FORNECIMENTO DE HORMONAS E OUTROS MEDICAMENTOS USADOS NO TRATAMENTO DAS DOENÇAS ENDÓCRINAS ÀS INSTITUIÇÕES E SERVIÇOS DO SERVIÇO NACIONAL DE SAÚDE,FALSE
Aquisição de Hormonas e outros medicamentos usados no tratamento de doenças endócrinas,Ao abrigo de acordo-quadro (art.º 259.º),Aquisição de bens móveis,"33000000-0, Equipamento médico, medicamentos e produtos para cuidados pessoais","Centro Hospitalar de Entre o Douro e Vouga, E.P.E. (508878462)","Hikma - Farmacêutica, S.A. (502266791)","594,00 €",11-10-2017,16-06-2016,215 dias,"Portugal, Aveiro, Santa Maria da Feira","Artigo 20.º, n.º 1, alínea b) do Código dos Contratos Públicos",,,,,,1309904,ACORDO QUADRO PARA FORNECIMENTO DE HORMONAS E OUTROS MEDICAMENTOS USADOS NO TRATAMENTO DAS DOENÇAS ENDÓCRINAS ÀS INSTITUIÇÕES E SERVIÇOS DO SERVIÇO NACIONAL DE SAÚDE,FALSE
Aquisição de Hormonas e outros medicamentos usados no tratamento de doenças endócrinas,Ao abrigo de acordo-quadro (art.º 259.º),Aquisição de bens móveis,"33000000-0, Equipamento médico, medicamentos e produtos para cuidados pessoais","Centro Hospitalar de Entre o Douro e Vouga, E.P.E. (508878462)",PHARMIS (502595442),"11.820,00 €",11-10-2017,16-06-2016,215 dias,"Portugal, Aveiro, Santa Maria da Feira","Artigo 20.º, n.º 1, alínea b) do Código dos Contratos Públicos",,,,,,1309904,ACORDO QUADRO PARA FORNECIMENTO DE HORMONAS E OUTROS MEDICAMENTOS USADOS NO TRATAMENTO DAS DOENÇAS ENDÓCRINAS ÀS INSTITUIÇÕES E SERVIÇOS DO SERVIÇO NACIONAL DE SAÚDE,FALSE
Aquisição de Hormonas e outros medicamentos usados no tratamento das doenças endócrinas,Ao abrigo de acordo-quadro (art.º 259.º),Aquisição de bens móveis,"33000000-0, Equipamento médico, medicamentos e produtos para cuidados pessoais","Centro Hospitalar de Entre o Douro e Vouga, E.P.E. (508878462)","Generis - Farmacêutica, S.A. (508107997)","10.200,00 €",11-10-2017,16-06-2016,215 dias,"Portugal, Aveiro, Santa Maria da Feira","Artigo 20.º, n.º 1, alínea b) do Código dos Contratos Públicos",,,,,,1309904,ACORDO QUADRO PARA FORNECIMENTO DE HORMONAS E OUTROS MEDICAMENTOS USADOS NO TRATAMENTO DAS DOENÇAS ENDÓCRINAS ÀS INSTITUIÇÕES E SERVIÇOS DO SERVIÇO NACIONAL DE SAÚDE,FALSE
Aquisição de Hormonas e outros medicamentos usados no tratamento das doenças endócrinas,Ao abrigo de acordo-quadro (art.º 259.º),Aquisição de bens móveis,"33000000-0, Equipamento médico, medicamentos e produtos para cuidados pessoais","Centro Hospitalar de Entre o Douro e Vouga, E.P.E. (508878462)","FERRING PORTUGUESA, LDA. (502034831)","32.400,00 €",11-10-2017,16-06-2016,215 dias,"Portugal, Aveiro, Santa Maria da Feira","Artigo 20.º, n.º 1, alínea b) do Código dos Contratos Públicos",,,,,,1309904,ACORDO QUADRO PARA FORNECIMENTO DE HORMONAS E OUTROS MEDICAMENTOS USADOS NO TRATAMENTO DAS DOENÇAS ENDÓCRINAS ÀS INSTITUIÇÕES E SERVIÇOS DO SERVIÇO NACIONAL DE SAÚDE,FALSE
Aquisição de Infliximab - Remicade (AD-AC-2017-86),Ajuste Direto Regime Geral,Aquisição de bens móveis,"33600000-6, Produtos farmacêuticos","Centro Hospitalar de Entre o Douro e Vouga, E.P.E. (508878462)",MERCK SHARP & DOHME LDA (500191360),"403.392,50 €",10-10-2017,21-09-2017,102 dias,"Portugal, Aveiro, Santa Maria da Feira","Artigo 24.º, n.º 1, alínea e) do Código dos Contratos Públicos",,,,,,Não aplicável.,Não aplicável.,FALSE
AQUISIÇÃO DE EQUIPAMENTO DE CIRURGIA DE NEURONAVEGAÇÃO PARA BO ORL HSS,Ajuste Direto Regime Geral,Aquisição de bens móveis,"33100000-1, Equipamento médico","CENTRO HOSPITALAR DE ENTRE O DOURO E VOUGA, E.P.E. (508878462)",Lusitânia Soluções Lda (513611231),"66.500,00 €",06-10-2017,06-10-2017,20 dias,"Portugal, Aveiro, Santa Maria da Feira","Artigo 20.º, n.º 1, alínea a) do Código dos Contratos Públicos",,,,,,Não aplicável.,Não aplicável.,FALSE
Aquisição de Medicamentos Biogen (P259-AC-2017-50),Ao abrigo de acordo-quadro (art.º 259.º),Aquisição de bens móveis,"33600000-6, Produtos farmacêuticos","Centro Hospitalar de Entre o Douro e Vouga, E.P.E. (508878462)",BIOGEN IDEC PORTUGAL (506415740),"17.445,79 €",06-10-2017,09-05-2017,267 dias,"Portugal, Aveiro, Santa Maria da Feira",Artigo 259.º do Código dos Contratos Públicos,,,,,,1179911,"CONCURSO PÚBLICO PARA A CELEBRAÇÃO DE CONTRATOS PÚBLICOS DE APROVISIONAMENTO PARA A ÁREA DA SAÚDE, MEDICAMENTOS DO SISTEMA NERVOSO CEREBROSPINAL, EXCETO: ANESTÉSICOS, RELAXANTES MUSCULARES, ANALGÉSICOS, ANTIPIRÉTICOS, ANTIDEPRESSORES E ANTIPSICÓTICOS, ÀS INSTITUIÇÕES E SERVIÇOS DO SERVIÇO NACIONAL DE SAÚDE",FALSE
Aquisição de Medicamentos Biogen (P259-AC-2017-50),Ao abrigo de acordo-quadro (art.º 259.º),Aquisição de bens móveis,"33600000-6, Produtos farmacêuticos","Centro Hospitalar de Entre o Douro e Vouga, E.P.E. (508878462)",BIOGEN IDEC PORTUGAL (506415740),"234.834,65 €",06-10-2017,09-05-2017,267 dias,"Portugal, Aveiro, Santa Maria da Feira",Artigo 259.º do Código dos Contratos Públicos,,,,,,1771819,CP 2015/6 - Acordo quadro para o fornecimento de Medicamentos do Foro Oncológico,FALSE
Aquisição do medicamento Entecavir 0.5 mg comp (P259-AC-2017-65),Ao abrigo de acordo-quadro (art.º 259.º),Aquisição de bens móveis,"33600000-6, Produtos farmacêuticos","Centro Hospitalar de Entre o Douro e Vouga, E.P.E. (508878462)","Bristol-Myers Squibb Farmacêutica Portuguesa, SA (500048193)","8.655,00 €",06-10-2017,19-06-2017,196 dias,"Portugal, Aveiro, Santa Maria da Feira",Artigo 259.º do Código dos Contratos Públicos,,,,,,1422736,CP 2015/41 - ACORDO QUADRO PARA FORNECIMENTO DE MEDICAMENTOS ANTI-INFECIOSOS: ANTIVÍRICOS E ANTIFÚNGICOS ÀS INSTITUIÇÕES E SERVIÇOS DO SERVIÇO NACIONAL DE SAÚDE,FALSE
Aquisição de Paclitaxel 5mg/ml po susp inj fr iv,Ajuste Direto Regime Geral,Aquisição de bens móveis,"33600000-6, Produtos farmacêuticos","CENTRO HOSPITALAR DE ENTRE O DOURO E VOUGA, E.P.E. (508878462)","CELGENE - SOCIEDADE UNIPESSOAL, LDA (507791690)","75.625,00 €",04-10-2017,06-04-2017,269 dias,"Portugal, Aveiro, Santa Maria da Feira","Artigo 24.º, n.º 1, alínea e) do Código dos Contratos Públicos",,,,,,Não aplicável.,Não aplicável.,FALSE
11/00051.11/2017 - Aquisição do medicamento Nivolumab 10mg/ml Sol inj (Opvido),Ajuste Direto Regime Geral,Aquisição de bens móveis,"33000000-0, Equipamento médico, medicamentos e produtos para cuidados pessoais","Centro Hospitalar de Entre o Douro e Vouga, E.P.E. (508878462)","Bristol-Myers Squibb Farmacêutica Portuguesa, SA (500048193)","85.300,00 €",04-10-2017,09-02-2017,64 dias,"Portugal, Aveiro, Santa Maria da Feira","Artigo 24.º, n.º 1, alínea e) do Código dos Contratos Públicos",,,,,,Não aplicável.,Não aplicável.,FALSE
02/00039.62/2017 - Aquisição de Exames de Ressonância Magnética,Concurso público,Aquisição de serviços,"85150000-5, Serviços de imagiologia médica","Centro Hospitalar de Entre o Douro e Vouga, E.P.E. (508878462)",DR CAMPOS COSTA CONSULTORIO TOMOG COMPUT SA (502082429),"111.388,86 €",03-10-2017,01-09-2017,90 dias,"Portugal, Aveiro, Santa Maria da Feira","Artigo 20.º, n.º 1, alínea b) do Código dos Contratos Públicos",,,,,,Não aplicável.,Não aplicável.,FALSE
02/00024.42/2016 - Aquisição de Tomógrafo de Coerência Óptica – OCT,Concurso público,Locação de bens móveis,"33115000-9, Aparelhos para tomografia","Centro Hospitalar de Entre o Douro e Vouga, E.P.E. (508878462)",Oftaltec (503197149),"90.400,00 €",02-10-2017,04-09-2017,30 dias,"Portugal, Aveiro, São João da Madeira","Artigo 20.º, n.º 1, alínea b) do Código dos Contratos Públicos",,,,,,Não aplicável.,Não aplicável.,FALSE
03/00056.42/2017 – Restauro da Casa Mortuária da Unidade de São João da Madeira,Ajuste Direto Regime Geral,Empreitadas de obras públicas,"45453000-7, Obras de revisão e recuperação","Centro Hospitalar de Entre o Douro e Vouga, E.P.E. (508878462)","Custódio de Melo - Sociedade de Construções, Lda (504032909)","14.867,00 €",02-10-2017,24-08-2017,30 dias,"Portugal, Aveiro, São João da Madeira","Artigo 19.º, alínea a) do Código dos Contratos Públicos",,,,,,Não aplicável.,Não aplicável.,FALSE
03/00091.42/2016 - Requalificação do Edifício Administrativo da Unidade de São João da Madeira,Ajuste Direto Regime Geral,Empreitadas de obras públicas,"45400000-1, Obras de acabamento de edifícios","CENTRO HOSPITALAR DE ENTRE O DOURO E VOUGA, E.P.E. (508878462)","RAPOSO & JOÃO GOMES, SA (501189602)","139.800,00 €",02-10-2017,02-05-2017,180 dias,"Portugal, Aveiro, São João da Madeira","Artigo 19.º, alínea a) do Código dos Contratos Públicos",,,,,,Não aplicável.,Não aplicável.,FALSE
