Objeto do Contrato,Tipo de Procedimento,Tipo(s) de Contrato,CPVs,Entidade(s) Adjudicante(s),Entidade(s) Adjudicatária(s),Preço Contratual,Data de Publicação,Data de Celebração do Contrato,Prazo de Execução,Local de Execução,Fundamentação,Data de Fecho do Contrato,Preço Total Efetivo,Causas das Alterações ao Prazo,Causas das Alterações ao Preço,Estado,N.º registo do Acordo Quadro,Descrição do Acordo Quadro,Procedimento Centralizado
"Prestação de Serviços Médicos na Triagem dos Serviços de Urgência da ULSNA, EPE",Concurso público,Aquisição de serviços,"85100000-0, Serviços de saúde","Unidade Local de Saúde do Norte Alentejano, E. P. E. (508094461)","Badsáude - Prestação de Serviços Médicos, Lda. (510982158)","860.600,00 €",10-08-2015,04-05-2015,365 dias,"Portugal, Portalegre, Portalegre","Artigo 20.º, n.º 1, alínea b) do Código dos Contratos Públicos",10-08-2015,"860.600,00 €",,,,Não aplicável.,Não aplicável.,FALSE
"Prestação de Serviços Médicos na Especialidade de Ortopedia na ULSNA, EPE (Período de Julho a Agosto de 2015)",Ajuste Direto Regime Geral,Aquisição de serviços,"85100000-0, Serviços de saúde","Unidade Local de Saúde do Norte Alentejano, E. P. E. (508094461)","Synovium - Saúde, Lda. (513477390)","6.240,00 €",07-08-2015,30-06-2015,61 dias,"Portugal, Portalegre, Portalegre","Artigo 24.º, n.º 1, alínea c) do Código dos Contratos Públicos",07-08-2015,"6.240,00 €",,,,Não aplicável.,Não aplicável.,FALSE
Aquisição de reagentes,Ajuste Direto Regime Geral,Aquisição de bens móveis,"33000000-0, Equipamento médico, medicamentos e produtos para cuidados pessoais","Unidade Local de Saúde do Norte Alentejano, E. P. E. (508094461)",ROCHE SISTEMA DE DIAGNOSTICOS (504282921),"8.832,81 €",06-08-2015,26-02-2015,30 dias,"Portugal, Portalegre, Portalegre<BR/>Portugal, Portalegre, Elvas","Artigo 24.º, n.º 1, alínea e) do Código dos Contratos Públicos",26-02-2015,"8.832,81 €",,,,Não aplicável.,Não aplicável.,FALSE
Aquisição de medicamentos,Ajuste Direto Regime Geral,Aquisição de bens móveis,"33000000-0, Equipamento médico, medicamentos e produtos para cuidados pessoais","Unidade Local de Saúde do Norte Alentejano, E. P. E. (508094461)","JANSSEN CILAG FARMACEUTICA, LDA.           (500189412)","6.847,74 €",06-08-2015,26-02-2015,30 dias,"Portugal, Portalegre, Portalegre<BR/>Portugal, Portalegre, Elvas","Artigo 24.º, n.º 1, alínea e) do Código dos Contratos Públicos",26-02-2015,"6.847,74 €",,,,Não aplicável.,Não aplicável.,FALSE
Aquisição de reagentes,Ajuste Direto Regime Geral,Aquisição de bens móveis,"33000000-0, Equipamento médico, medicamentos e produtos para cuidados pessoais","Unidade Local de Saúde do Norte Alentejano, E. P. E. (508094461)",ROCHE SISTEMA DE DIAGNOSTICOS (504282921),"7.403,04 €",06-08-2015,19-02-2015,30 dias,"Portugal, Portalegre, Portalegre<BR/>Portugal, Portalegre, Elvas","Artigo 24.º, n.º 1, alínea e) do Código dos Contratos Públicos",19-02-2015,"7.403,04 €",,,,Não aplicável.,Não aplicável.,FALSE
Aquisição de reagentes,Ajuste Direto Regime Geral,Aquisição de bens móveis,"33000000-0, Equipamento médico, medicamentos e produtos para cuidados pessoais","Unidade Local de Saúde do Norte Alentejano, E. P. E. (508094461)",ROCHE SISTEMA DE DIAGNOSTICOS (504282921),"9.201,91 €",05-08-2015,19-02-2015,30 dias,"Portugal, Portalegre, Portalegre<BR/>Portugal, Portalegre, Elvas","Artigo 24.º, n.º 1, alínea e) do Código dos Contratos Públicos",19-02-2015,"9.201,91 €",,,,Não aplicável.,Não aplicável.,FALSE
Aquisição de reagentes,Ajuste Direto Regime Geral,Aquisição de bens móveis,"33000000-0, Equipamento médico, medicamentos e produtos para cuidados pessoais","Unidade Local de Saúde do Norte Alentejano, E. P. E. (508094461)",PHADIA SOCIEDADE UNIPESSOAL (506916243),"7.071,07 €",05-08-2015,19-02-2015,30 dias,"Portugal, Portalegre, Portalegre<BR/>Portugal, Portalegre, Elvas","Artigo 24.º, n.º 1, alínea e) do Código dos Contratos Públicos",19-02-2015,"7.071,07 €",,,,Não aplicável.,Não aplicável.,FALSE
Aquisição de reagentes,Ajuste Direto Regime Geral,Aquisição de bens móveis,"33000000-0, Equipamento médico, medicamentos e produtos para cuidados pessoais","Unidade Local de Saúde do Norte Alentejano, E. P. E. (508094461)",ROCHE SISTEMA DE DIAGNOSTICOS (504282921),"5.381,69 €",05-08-2015,19-02-2015,30 dias,"Portugal, Portalegre, Elvas<BR/>Portugal, Portalegre, Portalegre","Artigo 24.º, n.º 1, alínea e) do Código dos Contratos Públicos",19-02-2015,"5.381,69 €",,,,Não aplicável.,Não aplicável.,FALSE
"Fornecimento de Fios de Sutura e Lâminas de Bisturi, à ULSNA, EPE (6 meses)",Ajuste Direto Regime Geral,Aquisição de bens móveis,"33140000-3, Material médico de consumo","Unidade Local de Saúde do Norte Alentejano, E. P. E. (508094461)",SOCIME MEDICAL LDA (504453939),"5.061,84 €",04-08-2015,22-04-2015,180 dias,"Portugal, Portalegre","Artigo 24.º, n.º 1, alínea c) do Código dos Contratos Públicos",04-08-2015,"5.061,84 €",,,,Não aplicável.,Não aplicável.,FALSE
"Fornecimento de Fios de Sutura e Lãminas de Bisturi, à ULSNA, EPE (6 meses)",Ajuste Direto Regime Geral,Aquisição de bens móveis,"33140000-3, Material médico de consumo","Unidade Local de Saúde do Norte Alentejano, E. P. E. (508094461)",PMH PRODUTOS MEDICO HOSPITALARES SA (502376899),"698,40 €",04-08-2015,22-04-2015,180 dias,"Portugal, Portalegre","Artigo 24.º, n.º 1, alínea c) do Código dos Contratos Públicos",04-08-2015,"698,40 €",,,,Não aplicável.,Não aplicável.,FALSE
"Fornecimento de Fios de Sutura e Lâminas de Bisturi, à ULSNA, EPE, (6 meses)",Ajuste Direto Regime Geral,Aquisição de bens móveis,"33140000-3, Material médico de consumo","Unidade Local de Saúde do Norte Alentejano, E. P. E. (508094461)","Medicinália Cormédica, Lda. (500684324)","448,80 €",04-08-2015,22-04-2015,180 dias,"Portugal, Portalegre","Artigo 24.º, n.º 1, alínea c) do Código dos Contratos Públicos",04-08-2015,"448,80 €",,,,Não aplicável.,Não aplicável.,FALSE
"Fornecimento de Fios de Sutura e Lâminas de Bisturi, à ULSNA, EPE (6 meses)",Ajuste Direto Regime Geral,Aquisição de bens móveis,"33140000-3, Material médico de consumo","Unidade Local de Saúde do Norte Alentejano, E. P. E. (508094461)",JMV PRODUTOS HOSPITALARES (501887148),"630,60 €",04-08-2015,22-04-2015,180 dias,"Portugal, Portalegre","Artigo 24.º, n.º 1, alínea c) do Código dos Contratos Públicos",04-08-2015,"630,60 €",,,,Não aplicável.,Não aplicável.,FALSE
"Fornecimento de Fios de Sutura e Lâminas de Bisturi, à ULSNA, EPE, (6 meses)",Ajuste Direto Regime Geral,Aquisição de bens móveis,"33140000-3, Material médico de consumo","Unidade Local de Saúde do Norte Alentejano, E. P. E. (508094461)","HR - Hospitalar, Lda. (501895558)","3.300,88 €",04-08-2015,22-04-2015,180 dias,"Portugal, Portalegre","Artigo 24.º, n.º 1, alínea c) do Código dos Contratos Públicos",04-08-2015,"3.300,88 €",,,,Não aplicável.,Não aplicável.,FALSE
"Fornecimento de Fios de Sutura e Lâminas de Bisturi, à ULSNA, EPE, (6 meses)",Ajuste Direto Regime Geral,Aquisição de bens móveis,"33140000-3, Material médico de consumo","Unidade Local de Saúde do Norte Alentejano, E. P. E. (508094461)",COVIDIEN PORTUGAL (503413410),"346,00 €",04-08-2015,22-04-2015,180 dias,"Portugal, Portalegre","Artigo 24.º, n.º 1, alínea c) do Código dos Contratos Públicos",04-08-2015,"346,00 €",,,,Não aplicável.,Não aplicável.,FALSE
"Fornecimento de Fios de Sutura e Lâminas de Bisturo, à ULSNA, EPE, (6 meses)",Ajuste Direto Regime Geral,Aquisição de bens móveis,"33140000-3, Material médico de consumo","Unidade Local de Saúde do Norte Alentejano, E. P. E. (508094461)",BIOMET PORTUGAL UNIPESSOAL (500254990),"590,00 €",04-08-2015,22-04-2015,180 dias,"Portugal, Portalegre","Artigo 24.º, n.º 1, alínea c) do Código dos Contratos Públicos",04-08-2015,"590,00 €",,,,Não aplicável.,Não aplicável.,FALSE
"Fornecimento de Fios de Sutura e Lâminas de Bisturi, à ULSNA, EPE,  (6 meses)",Ajuste Direto Regime Geral,Aquisição de bens móveis,"33140000-3, Material médico de consumo","Unidade Local de Saúde do Norte Alentejano, E. P. E. (508094461)","B BRAUN MEDICAL, LDA. (501506543)","1.338,36 €",04-08-2015,22-04-2015,180 dias,"Portugal, Portalegre","Artigo 24.º, n.º 1, alínea c) do Código dos Contratos Públicos",04-08-2015,"1.338,36 €",,,,Não aplicável.,Não aplicável.,FALSE
"Fornecimento de Agulhas de Biopsia e Diversos, à ULSNA, EPE, em 2015",Ajuste Direto Regime Geral,Aquisição de bens móveis,"33140000-3, Material médico de consumo","Unidade Local de Saúde do Norte Alentejano, E. P. E. (508094461)",CATETER PRODUTOS MEDICOS E HOSPITALARES (502914319),"10.872,70 €",04-08-2015,03-12-2014,365 dias,"Portugal, Portalegre","Artigo 20.º, n.º 1, alínea a) do Código dos Contratos Públicos",04-08-2015,"10.872,70 €",,,,Não aplicável.,Não aplicável.,FALSE
"Fornecimento de Diverso Material de Penso, para a ULSNA; EPE, para 2015",Ajuste Direto Regime Geral,Aquisição de bens móveis,"33140000-3, Material médico de consumo","Unidade Local de Saúde do Norte Alentejano, E. P. E. (508094461)",EME ELECTROMEDICA - EZEQUIEL PANAO JORGE (501412727),"593,04 €",03-08-2015,11-06-2015,180 dias,"Portugal, Portalegre","Artigo 20.º, n.º 1, alínea a) do Código dos Contratos Públicos",03-08-2015,"593,04 €",,,,Não aplicável.,Não aplicável.,FALSE
"Fornecimento de diverso material de penso, para a ULSNA, EPE, para 2015",Ajuste Direto Regime Geral,Aquisição de bens móveis,"33140000-3, Material médico de consumo","Unidade Local de Saúde do Norte Alentejano, E. P. E. (508094461)",ABILIO FREIRE (500432600),"1.761,16 €",03-08-2015,11-06-2015,180 dias,"Portugal, Portalegre","Artigo 20.º, n.º 1, alínea a) do Código dos Contratos Públicos",03-08-2015,"1.761,16 €",,,,Não aplicável.,Não aplicável.,FALSE
"Fornecimento de diverso material de penso, para a ULSNA, EPE, para 2015",Ajuste Direto Regime Geral,Aquisição de bens móveis,"33140000-3, Material médico de consumo","Unidade Local de Saúde do Norte Alentejano, E. P. E. (508094461)",AVIQUIMICA PRODUCOES MANUFACTURAS (500039720),"1.566,00 €",03-08-2015,11-06-2015,180 dias,"Portugal, Portalegre","Artigo 20.º, n.º 1, alínea a) do Código dos Contratos Públicos",03-08-2015,"1.566,00 €",,,,Não aplicável.,Não aplicável.,FALSE
"Fornecimento de diverso material de penso, para a ULSNA, EPE, para 2015",Ajuste Direto Regime Geral,Aquisição de bens móveis,"33140000-3, Material médico de consumo","Unidade Local de Saúde do Norte Alentejano, E. P. E. (508094461)","BSN, Medical S.A (505385058)","2.662,20 €",03-08-2015,11-06-2015,180 dias,"Portugal, Portalegre","Artigo 20.º, n.º 1, alínea a) do Código dos Contratos Públicos",03-08-2015,"2.662,20 €",,,,Não aplicável.,Não aplicável.,FALSE
"Fornecimento de diverso material de penso, para a ULSNA, EPE, para 2015",Ajuste Direto Regime Geral,Aquisição de bens móveis,"33140000-3, Material médico de consumo","Unidade Local de Saúde do Norte Alentejano, E. P. E. (508094461)",BASTOS VIEGAS SA (500042772),"4.379,05 €",03-08-2015,11-06-2015,180 dias,"Portugal, Portalegre","Artigo 20.º, n.º 1, alínea a) do Código dos Contratos Públicos",03-08-2015,"4.379,05 €",,,,Não aplicável.,Não aplicável.,FALSE
"Fornecimento de diverso material de penso, para a ULSNA, EPE, para 2015",Ajuste Direto Regime Geral,Aquisição de bens móveis,"33140000-3, Material médico de consumo","Unidade Local de Saúde do Norte Alentejano, E. P. E. (508094461)",3M PORTUGAL (500193940),"436,04 €",03-08-2015,11-06-2015,180 dias,"Portugal, Portalegre","Artigo 20.º, n.º 1, alínea a) do Código dos Contratos Públicos",03-08-2015,"436,04 €",,,,Não aplicável.,Não aplicável.,FALSE
"Fornecimento de diverso material de penso, para a ULSNA, EPE, para 2015",Ajuste Direto Regime Geral,Aquisição de bens móveis,"33140000-3, Material médico de consumo","Unidade Local de Saúde do Norte Alentejano, E. P. E. (508094461)",DIMOR LUSITANA (500730741),"1.372,50 €",03-08-2015,11-06-2015,180 dias,"Portugal, Portalegre","Artigo 20.º, n.º 1, alínea a) do Código dos Contratos Públicos",03-08-2015,"1.372,50 €",,,,Não aplicável.,Não aplicável.,FALSE
"Fornecimento de Protectores Auriculares para Termómetro Digital Welch Allyn, para a ULSNA, EPE, para 2015",Ajuste Direto Regime Geral,Aquisição de bens móveis,"33140000-3, Material médico de consumo","Unidade Local de Saúde do Norte Alentejano, E. P. E. (508094461)","SpaceMedical Pedro Pestana, Lda. (507662407)","7.590,00 €",03-08-2015,10-12-2014,365 dias,"Portugal, Portalegre","Artigo 20.º, n.º 1, alínea a) do Código dos Contratos Públicos",03-08-2015,"7.590,00 €",,,,Não aplicável.,Não aplicável.,FALSE
"Aquisição de Máquinas de Sutura, Extractores de Agrafes e Conjuntos de Fleboextracção, para a ULSNA, EPE, para 2015",Ajuste Direto Regime Geral,Aquisição de bens móveis,"33140000-3, Material médico de consumo","Unidade Local de Saúde do Norte Alentejano, E. P. E. (508094461)",EUROCASMEDICA - PRODUTOS HOSPITALARES . S.A (503322105),"739,20 €",03-08-2015,14-01-2015,365 dias,"Portugal, Portalegre","Artigo 20.º, n.º 1, alínea a) do Código dos Contratos Públicos",03-08-2015,"739,20 €",,,,Não aplicável.,Não aplicável.,FALSE
"Aquisição de Máquinas de Sutura, Extractores de Agrafes e Conjuntos de Fleboextracção, para a ULSNA, EPE, para 2015",Ajuste Direto Regime Geral,Aquisição de bens móveis,"33140000-3, Material médico de consumo","Unidade Local de Saúde do Norte Alentejano, E. P. E. (508094461)",MOONSURGE CIRURGIA E INOVACAO (506657035),"9.858,00 €",03-08-2015,14-01-2015,365 dias,"Portugal, Portalegre","Artigo 20.º, n.º 1, alínea a) do Código dos Contratos Públicos",03-08-2015,"9.858,00 €",,,,Não aplicável.,Não aplicável.,FALSE
