Objeto do Contrato,Tipo de Procedimento,Tipo(s) de Contrato,CPVs,Entidade(s) Adjudicante(s),Entidade(s) Adjudicatária(s),Preço Contratual,Data de Publicação,Data de Celebração do Contrato,Prazo de Execução,Local de Execução,Fundamentação,Data de Fecho do Contrato,Preço Total Efetivo,Causas das Alterações ao Prazo,Causas das Alterações ao Preço,Estado,N.º registo do Acordo Quadro,Descrição do Acordo Quadro,Procedimento Centralizado
"Aquisição de Etiquetas_Lote 2, 5, 6 e 8",Ajuste Direto Regime Geral,Aquisição de bens móveis,"30192800-9, Etiquetas autocolantes","Centro Hospitalar do Tâmega e Sousa, E. P. E. (508318262)","DATA LABEL PORTUGAL, LDA. (506448967)","943,23 €",23-03-2015,23-03-2015,278 dias,"Portugal, Porto<BR/>Portugal, Porto, Penafiel","Artigo 20.º, n.º 1, alínea a) do Código dos Contratos Públicos",,,,,,Não aplicável.,Não aplicável.,FALSE
Aquisição de Etiquetas_Lote 3,Ajuste Direto Regime Geral,Aquisição de bens móveis,"30192800-9, Etiquetas autocolantes","Centro Hospitalar do Tâmega e Sousa, E. P. E. (508318262)","AMERICANA - PAPELARIA, S.A. (509959008)","36,75 €",23-03-2015,23-03-2015,278 dias,"Portugal, Porto, Amarante<BR/>Portugal, Porto, Penafiel","Artigo 20.º, n.º 1, alínea a) do Código dos Contratos Públicos",,,,,,Não aplicável.,Não aplicável.,FALSE
"Aquisição de Etiquetas_Lote 1, 7 e 9",Ajuste Direto Regime Geral,Aquisição de bens móveis,"30192800-9, Etiquetas autocolantes","Centro Hospitalar do Tâmega e Sousa, E. P. E. (508318262)"," SEABRA TAVARES - FORMULÁRIOS, LDA. (501823212)","7.908,40 €",23-03-2015,23-03-2015,278 dias,"Portugal, Porto, Penafiel<BR/>Portugal, Porto, Amarante","Artigo 20.º, n.º 1, alínea a) do Código dos Contratos Públicos",,,,,,Não aplicável.,Não aplicável.,FALSE
