Objeto do Contrato,Tipo de Procedimento,Tipo(s) de Contrato,CPVs,Entidade(s) Adjudicante(s),Entidade(s) Adjudicatária(s),Preço Contratual,Data de Publicação,Data de Celebração do Contrato,Prazo de Execução,Local de Execução,Fundamentação,Data de Fecho do Contrato,Preço Total Efetivo,Causas das Alterações ao Prazo,Causas das Alterações ao Preço,Estado,N.º registo do Acordo Quadro,Descrição do Acordo Quadro,Procedimento Centralizado
Aquisição de equipamento para a certificação dos DataCenters,Concurso público,Aquisição de bens móveis,"32424000-1, Infra-estrutura de rede","SPMS - Serviços Partilhados do Ministério da Saúde, E. P. E. (509540716)",INFORMANTEM INFORMÁTICA E MANUTENÇÃO (503670693),"78.659,98 €",09-11-2018,23-10-2018,60 dias,Portugal,"Artigo 20.º, n.º 1, alínea b) do Código dos Contratos Públicos",,,,,,Não aplicável.,Não aplicável.,FALSE
Convite ao abrigo de acordo-quadro - Serviços de manutenção corretiva e evolutiva do Sistema de Informação Centralizada de Contabilidade (SICC),Ao abrigo de acordo-quadro (art.º 259.º),Aquisição de serviços,"72500000-0, Serviços relacionados com a informática","SPMS - Serviços Partilhados do Ministério da Saúde, E. P. E. (509540716)","Altranportugal, S.A. (504272179)","145.772,00 €",08-11-2018,19-10-2018,150 dias,Portugal,Artigo 259.º do Código dos Contratos Públicos,,,,,,1423482,CELEBRAÇÃO DE ACORDO QUADRO PARA PRESTAÇÃO DE SERVIÇOS TIC E INTEROPERABILIDADE NA ÁREA DA SAÚDE,FALSE
Convite ao abrigo de acordo-quadro - Serviços de desenvolvimento e alargamento da utilização da ferramenta EasyVista,Ao abrigo de acordo-quadro (art.º 259.º),Aquisição de bens móveis<br/>Aquisição de serviços,"72500000-0, Serviços relacionados com a informática","SPMS - Serviços Partilhados do Ministério da Saúde, E. P. E. (509540716)","GLINTT - Global Intelligent Technologies, S.A. (503541320)","111.028,00 €",07-11-2018,10-10-2018,730 dias,Portugal,Artigo 259.º do Código dos Contratos Públicos,,,,,,610968,Acordo quadro de licenciamento de software e serviços conexos,FALSE
Serviços de apoio especializado para a Unidade de Controlo e Gestão de Compras Públicas da SPMS,Concurso público,Aquisição de serviços,"79420000-4, Serviços relacionados com a gestão","SPMS- Serviços Partilhados do M. da Saúde, E.P.E. (509540716)","EGOR OUTSOURCING – Prestação de serviços, organização e administração de pessoal, Lda.  (504136992)","75.179,61 €",07-11-2018,09-10-2018,456 dias,Portugal,"Artigo 20.º, n.º 1, alínea a) do Código dos Contratos Públicos",,,,,,Não aplicável.,Não aplicável.,FALSE
Convite ao abrigo de acordo-quadro - Serviços de suporte 2ª Linha - Lote 2 - Prescrição Eletrónica Médica,Ao abrigo de acordo-quadro (art.º 259.º),Aquisição de serviços,"72500000-0, Serviços relacionados com a informática","SPMS - Serviços Partilhados do Ministério da Saúde, E. P. E. (509540716)","ALTRANPORTUGAL, S.A. (504272179)","33.797,76 €",07-11-2018,15-10-2018,70 dias,Portugal,Artigo 259.º do Código dos Contratos Públicos,,,,,,1423482,CELEBRAÇÃO DE ACORDO QUADRO PARA PRESTAÇÃO DE SERVIÇOS TIC E INTEROPERABILIDADE NA ÁREA DA SAÚDE,FALSE
Convite ao abrigo de acordo-quadro - Serviços de suporte 2ª Linha - Lote 1 - Exames sem papel,Ao abrigo de acordo-quadro (art.º 259.º),Aquisição de serviços,"72500000-0, Serviços relacionados com a informática","SPMS - Serviços Partilhados do Ministério da Saúde, E. P. E. (509540716)","ALTRANPORTUGAL, S.A. (504272179)","19.980,24 €",07-11-2018,15-10-2018,70 dias,Portugal,Artigo 259.º do Código dos Contratos Públicos,,,,,,1423482,CELEBRAÇÃO DE ACORDO QUADRO PARA PRESTAÇÃO DE SERVIÇOS TIC E INTEROPERABILIDADE NA ÁREA DA SAÚDE,FALSE
Aquisição de servidores para upgrade de infraestrutura de serviços centrais e MCDT's e serviços conexos,Concurso público,Aquisição de bens móveis,"32420000-3, Equipamento de rede","SPMS- Serviços Partilhados do M. da Saúde, E.P.E. (509540716)",NPROVIT (513980369),"199.202,11 €",07-11-2018,11-10-2018,73 dias,Portugal,"Artigo 20.º, n.º 1, alínea a) do Código dos Contratos Públicos",,,,,,Não aplicável.,Não aplicável.,FALSE
