Objeto do Contrato,Tipo de Procedimento,Tipo(s) de Contrato,CPVs,Entidade(s) Adjudicante(s),Entidade(s) Adjudicatária(s),Preço Contratual,Data de Publicação,Data de Celebração do Contrato,Prazo de Execução,Local de Execução,Fundamentação,Data de Fecho do Contrato,Preço Total Efetivo,Causas das Alterações ao Prazo,Causas das Alterações ao Preço,Estado,N.º registo do Acordo Quadro,Descrição do Acordo Quadro,Procedimento Centralizado
AJ/68/2017 Comparticipação de Duodécimo aos Serviços Sociais da Administração Pública para 2017,Ajuste Direto Regime Geral,Aquisição de serviços,"85000000-9, Serviços de saúde e acção social","Hospital de Magalhães Lemos, E. P. E. (502828790)",SERVIÇOS SOCIAIS DA ADMINISTRAÇÃO PÚBLICA (600082628),"813,44 €",21-02-2018,02-01-2017,30 dias,"Portugal, Porto, Porto","Artigo 21.º, n.º 1, alínea c) do Código dos Contratos Públicos",,,,,,Não aplicável.,Não aplicável.,FALSE
IG/7/2017 Aquisição de gás natural na SPMS para o ano de 2017,Ajuste Direto Regime Geral,Aquisição de serviços,"76000000-3, Serviços relacionados com as indústrias do gás e do petróleo","Hospital de Magalhães Lemos, E. P. E. (502828790)","Galp Power, SA (504723456)","616,31 €",20-02-2018,02-01-2017,30 dias,"Portugal, Porto, Porto","Artigo 21.º, n.º 1, alínea c) do Código dos Contratos Públicos",,,,,,Não aplicável.,Não aplicável.,FALSE
IG/7/2017 Aquisição de gás natural na SPMS para o ano de 2017,Ajuste Direto Regime Geral,Aquisição de serviços,"76000000-3, Serviços relacionados com as indústrias do gás e do petróleo","Hospital de Magalhães Lemos, E. P. E. (502828790)","Galp Power, SA (504723456)","6.785,35 €",20-02-2018,02-01-2017,30 dias,"Portugal, Porto, Porto","Artigo 21.º, n.º 1, alínea c) do Código dos Contratos Públicos",,,,,,Não aplicável.,Não aplicável.,FALSE
AJ/59/2017 Fornecimento de produtos de mercearia geral para o ano de 2017,Ajuste Direto Regime Geral,Aquisição de bens móveis,"15000000-8, Produtos alimentares, bebidas, tabaco e produtos afins","Hospital de Magalhães Lemos, E. P. E. (502828790)","RECHEIO - Cah & Carry, SA (500145415)","605,04 €",20-02-2018,30-06-2017,8 dias,"Portugal, Porto, Porto","Artigo 21.º, n.º 1, alínea c) do Código dos Contratos Públicos",,,,,,Não aplicável.,Não aplicável.,FALSE
AJ/59/2017 Fornecimento de produtos de mercearia geral para o ano de 2017,Ajuste Direto Regime Geral,Aquisição de bens móveis,"15000000-8, Produtos alimentares, bebidas, tabaco e produtos afins","Hospital de Magalhães Lemos, E. P. E. (502828790)","RECHEIO - Cah & Carry, SA (500145415)","753,58 €",20-02-2018,30-06-2017,8 dias,"Portugal, Porto, Porto","Artigo 21.º, n.º 1, alínea c) do Código dos Contratos Públicos",,,,,,Não aplicável.,Não aplicável.,FALSE
AJ/59/2017 Fornecimento de produtos de mercearia geral para o ano de 2017,Ajuste Direto Regime Geral,Aquisição de bens móveis,"15000000-8, Produtos alimentares, bebidas, tabaco e produtos afins","Hospital de Magalhães Lemos, E. P. E. (502828790)","RECHEIO - Cah & Carry, SA (500145415)","443,02 €",20-02-2018,30-06-2017,8 dias,"Portugal, Porto, Porto","Artigo 21.º, n.º 1, alínea c) do Código dos Contratos Públicos",,,,,,Não aplicável.,Não aplicável.,FALSE
AJ/59/2017 Fornecimento de produtos de mercearia geral para o ano de 2017,Ajuste Direto Regime Geral,Aquisição de bens móveis,"15000000-8, Produtos alimentares, bebidas, tabaco e produtos afins","Hospital de Magalhães Lemos, E. P. E. (502828790)","RECHEIO - Cah & Carry, SA (500145415)","1.033,20 €",20-02-2018,30-06-2017,8 dias,"Portugal, Porto, Porto","Artigo 21.º, n.º 1, alínea c) do Código dos Contratos Públicos",,,,,,Não aplicável.,Não aplicável.,FALSE
AJ/59/2017 Fornecimento de produtos de mercearia geral para o ano de 2017,Ajuste Direto Regime Geral,Aquisição de bens móveis,"15000000-8, Produtos alimentares, bebidas, tabaco e produtos afins","Hospital de Magalhães Lemos, E. P. E. (502828790)","RECHEIO - Cah & Carry, SA (500145415)","687,94 €",20-02-2018,30-06-2017,8 dias,"Portugal, Porto, Porto","Artigo 21.º, n.º 1, alínea c) do Código dos Contratos Públicos",,,,,,Não aplicável.,Não aplicável.,FALSE
AJ/59/2017 Fornecimento de produtos de mercearia geral para o ano de 2017,Ajuste Direto Regime Geral,Aquisição de bens móveis,"15000000-8, Produtos alimentares, bebidas, tabaco e produtos afins","Hospital de Magalhães Lemos, E. P. E. (502828790)","RECHEIO - Cah & Carry, SA (500145415)","155,40 €",20-02-2018,30-06-2017,8 dias,"Portugal, Porto, Porto","Artigo 21.º, n.º 1, alínea c) do Código dos Contratos Públicos",,,,,,Não aplicável.,Não aplicável.,FALSE
AJ/59/2017 Fornecimento de produtos de mercearia geral para o ano de 2017,Ajuste Direto Regime Geral,Aquisição de bens móveis,"15000000-8, Produtos alimentares, bebidas, tabaco e produtos afins","Hospital de Magalhães Lemos, E. P. E. (502828790)","RECHEIO - Cah & Carry, SA (500145415)","69,08 €",20-02-2018,30-06-2017,8 dias,"Portugal, Porto, Porto","Artigo 21.º, n.º 1, alínea c) do Código dos Contratos Públicos",,,,,,Não aplicável.,Não aplicável.,FALSE
AJ/59/2017 Fornecimento de produtos de mercearia geral para o ano de 2017,Ajuste Direto Regime Geral,Aquisição de bens móveis,"15000000-8, Produtos alimentares, bebidas, tabaco e produtos afins","Hospital de Magalhães Lemos, E. P. E. (502828790)","RECHEIO - Cah & Carry, SA (500145415)","36,48 €",20-02-2018,30-06-2017,8 dias,"Portugal, Porto, Porto","Artigo 21.º, n.º 1, alínea c) do Código dos Contratos Públicos",,,,,,Não aplicável.,Não aplicável.,FALSE
AJ/59/2017 Fornecimento de produtos de mercearia geral para o ano de 2017,Ajuste Direto Regime Geral,Aquisição de bens móveis,"15000000-8, Produtos alimentares, bebidas, tabaco e produtos afins","Hospital de Magalhães Lemos, E. P. E. (502828790)","RECHEIO - Cah & Carry, SA (500145415)","840,80 €",20-02-2018,30-06-2017,8 dias,"Portugal, Porto, Porto","Artigo 21.º, n.º 1, alínea c) do Código dos Contratos Públicos",,,,,,Não aplicável.,Não aplicável.,FALSE
AJ/59/2017 Fornecimento de produtos de mercearia geral para o ano de 2017,Ajuste Direto Regime Geral,Aquisição de bens móveis,"15000000-8, Produtos alimentares, bebidas, tabaco e produtos afins","Hospital de Magalhães Lemos, E. P. E. (502828790)","RECHEIO - Cah & Carry, SA (500145415)","697,95 €",20-02-2018,30-06-2017,8 dias,"Portugal, Porto, Porto","Artigo 21.º, n.º 1, alínea c) do Código dos Contratos Públicos",,,,,,Não aplicável.,Não aplicável.,FALSE
AJ/59/2017 Fornecimento de produtos de mercearia geral para o ano de 2017,Ajuste Direto Regime Geral,Aquisição de bens móveis,"15000000-8, Produtos alimentares, bebidas, tabaco e produtos afins","Hospital de Magalhães Lemos, E. P. E. (502828790)","RECHEIO - Cah & Carry, SA (500145415)","1.064,01 €",20-02-2018,30-06-2017,8 dias,"Portugal, Porto, Porto","Artigo 21.º, n.º 1, alínea c) do Código dos Contratos Públicos",,,,,,Não aplicável.,Não aplicável.,FALSE
AJ/23/2017 Fornecimento de produtos de mercearia para o ano de 2017,Ajuste Direto Regime Geral,Aquisição de bens móveis,"15000000-8, Produtos alimentares, bebidas, tabaco e produtos afins","Hospital de Magalhães Lemos, E. P. E. (502828790)",VILANDORINHO-ARMAZEM MERCEARIA (501140450),"293,76 €",19-02-2018,02-01-2017,8 dias,"Portugal, Porto, Porto","Artigo 20.º, n.º 1, alínea a) do Código dos Contratos Públicos",,,,,,Não aplicável.,Não aplicável.,FALSE
PU/12/2018 – Fornecimento de produtos alimentares para o ano de 2018,Ajuste Direto Regime Geral,Aquisição de bens móveis,"15000000-8, Produtos alimentares, bebidas, tabaco e produtos afins","Hospital de Magalhães Lemos, E. P. E. (502828790)","FERNAROCA DISTRIBUIÇÃO ,LDA (508404339)","930,70 €",19-02-2018,02-01-2018,8 dias,"Portugal, Porto, Porto","Artigo 20.º, n.º 1, alínea a) do Código dos Contratos Públicos",,,,,,Não aplicável.,Não aplicável.,FALSE
PU/12/2018 – Fornecimento de produtos alimentares para o ano de 2018,Ajuste Direto Regime Geral,Aquisição de bens móveis,"15000000-8, Produtos alimentares, bebidas, tabaco e produtos afins","Hospital de Magalhães Lemos, E. P. E. (502828790)","FERNAROCA DISTRIBUIÇÃO ,LDA (508404339)","1.095,24 €",19-02-2018,02-01-2018,8 dias,"Portugal, Porto, Porto","Artigo 20.º, n.º 1, alínea a) do Código dos Contratos Públicos",,,,,,Não aplicável.,Não aplicável.,FALSE
PU/12/2018 – Fornecimento de produtos alimentares para o ano de 2018,Ajuste Direto Regime Geral,Aquisição de bens móveis,"15300000-1, Fruta, produtos hortícolas e produtos afins","Hospital de Magalhães Lemos, E. P. E. (502828790)","Deltagel - Produtos Alimentares, SA (505477882)","350,04 €",19-02-2018,02-01-2018,8 dias,"Portugal, Porto, Porto","Artigo 20.º, n.º 1, alínea a) do Código dos Contratos Públicos",,,,,,Não aplicável.,Não aplicável.,FALSE
PU/12/2018 – Fornecimento de produtos alimentares para o ano de 2018,Ajuste Direto Regime Geral,Aquisição de bens móveis,"15100000-9, Produtos de origem animal, carne e produtos à base de carne","Hospital de Magalhães Lemos, E. P. E. (502828790)","Carnes São José - Comércio e Industria de Carnes, Lda (501235574)","334,05 €",19-02-2018,02-01-2018,8 dias,"Portugal, Porto, Porto","Artigo 20.º, n.º 1, alínea a) do Código dos Contratos Públicos",,,,,,Não aplicável.,Não aplicável.,FALSE
PU/12/2018 – Fornecimento de produtos alimentares para o ano de 2018,Ajuste Direto Regime Geral,Aquisição de bens móveis,"15000000-8, Produtos alimentares, bebidas, tabaco e produtos afins","Hospital de Magalhães Lemos, E. P. E. (502828790)","FERNAROCA DISTRIBUIÇÃO ,LDA (508404339)","210,00 €",19-02-2018,02-01-2018,8 dias,"Portugal, Porto, Porto","Artigo 20.º, n.º 1, alínea a) do Código dos Contratos Públicos",,,,,,Não aplicável.,Não aplicável.,FALSE
PU/12/2018 – Fornecimento de produtos alimentares para o ano de 2018,Ajuste Direto Regime Geral,Aquisição de bens móveis,"15100000-9, Produtos de origem animal, carne e produtos à base de carne","Hospital de Magalhães Lemos, E. P. E. (502828790)","Futuro em Relevo - Comércio de Carnes, Unip (509485693)","469,04 €",19-02-2018,02-01-2018,8 dias,"Portugal, Porto, Porto","Artigo 20.º, n.º 1, alínea a) do Código dos Contratos Públicos",,,,,,Não aplicável.,Não aplicável.,FALSE
PU/12/2018 – Fornecimento de produtos alimentares para o ano de 2018,Ajuste Direto Regime Geral,Aquisição de bens móveis,"15000000-8, Produtos alimentares, bebidas, tabaco e produtos afins","Hospital de Magalhães Lemos, E. P. E. (502828790)","FERNAROCA DISTRIBUIÇÃO ,LDA (508404339)","1.391,16 €",19-02-2018,02-01-2018,8 dias,"Portugal, Porto, Porto","Artigo 20.º, n.º 1, alínea a) do Código dos Contratos Públicos",,,,,,Não aplicável.,Não aplicável.,FALSE
PU/12/2018 – Fornecimento de produtos alimentares para o ano de 2018,Ajuste Direto Regime Geral,Aquisição de bens móveis,"15800000-6, Produtos alimentares diversos","Hospital de Magalhães Lemos, E. P. E. (502828790)","FERNAROCA DISTRIBUIÇÃO ,LDA (508404339)","795,36 €",19-02-2018,02-01-2018,8 dias,"Portugal, Porto, Porto","Artigo 20.º, n.º 1, alínea a) do Código dos Contratos Públicos",,,,,,Não aplicável.,Não aplicável.,FALSE
PU/12/2018 – Fornecimento de produtos alimentares para o ano de 2018,Ajuste Direto Regime Geral,Aquisição de bens móveis,"15100000-9, Produtos de origem animal, carne e produtos à base de carne","Hospital de Magalhães Lemos, E. P. E. (502828790)","Futuro em Relevo - Comércio de Carnes, Unip (509485693)","289,67 €",19-02-2018,02-01-2018,8 dias,"Portugal, Porto, Porto","Artigo 20.º, n.º 1, alínea a) do Código dos Contratos Públicos",,,,,,Não aplicável.,Não aplicável.,FALSE
PU/12/2018 – Fornecimento de produtos alimentares para o ano de 2018,Ajuste Direto Regime Geral,Aquisição de bens móveis,"15300000-1, Fruta, produtos hortícolas e produtos afins","Hospital de Magalhães Lemos, E. P. E. (502828790)",FreshSabor (508879760),"657,10 €",19-02-2018,02-01-2018,8 dias,"Portugal, Porto, Porto","Artigo 20.º, n.º 1, alínea a) do Código dos Contratos Públicos",,,,,,Não aplicável.,Não aplicável.,FALSE
PU/12/2018 – Fornecimento de produtos alimentares para o ano de 2018,Ajuste Direto Regime Geral,Aquisição de bens móveis,"15300000-1, Fruta, produtos hortícolas e produtos afins","Hospital de Magalhães Lemos, E. P. E. (502828790)",FreshSabor (508879760),"593,15 €",19-02-2018,02-01-2018,8 dias,"Portugal, Porto, Porto","Artigo 20.º, n.º 1, alínea a) do Código dos Contratos Públicos",,,,,,Não aplicável.,Não aplicável.,FALSE
PU/12/2018 – Fornecimento de produtos alimentares para o ano de 2018,Ajuste Direto Regime Geral,Aquisição de bens móveis,"15300000-1, Fruta, produtos hortícolas e produtos afins","Hospital de Magalhães Lemos, E. P. E. (502828790)",FreshSabor (508879760),"1.180,85 €",19-02-2018,02-01-2018,8 dias,"Portugal, Porto, Porto","Artigo 20.º, n.º 1, alínea a) do Código dos Contratos Públicos",,,,,,Não aplicável.,Não aplicável.,FALSE
PU/12/2018 – Fornecimento de produtos alimentares para o ano de 2018,Ajuste Direto Regime Geral,Aquisição de bens móveis,"15300000-1, Fruta, produtos hortícolas e produtos afins","Hospital de Magalhães Lemos, E. P. E. (502828790)","Madiguima - Comércio de Frutas, Lda (503301205)","567,00 €",19-02-2018,02-01-2018,8 dias,"Portugal, Porto, Porto","Artigo 20.º, n.º 1, alínea a) do Código dos Contratos Públicos",,,,,,Não aplicável.,Não aplicável.,FALSE
Medicamentos antipsicóticos injetáveis de ação prolongada Risperidona Consta,Ajuste Direto Regime Geral,Aquisição de bens móveis,"33600000-6, Produtos farmacêuticos","Hospital de Magalhães Lemos, E. P. E. (502828790)",Janssen-Cilag (500189412),"292.381,50 €",14-02-2018,10-01-2018,66 dias,"Portugal, Porto, Porto",Artigo 258.º do Código dos Contratos Públicos,,,,,,Não aplicável.,Não aplicável.,FALSE
