Objeto do Contrato,Tipo de Procedimento,Tipo(s) de Contrato,CPVs,Entidade(s) Adjudicante(s),Entidade(s) Adjudicatária(s),Preço Contratual,Data de Publicação,Data de Celebração do Contrato,Prazo de Execução,Local de Execução,Fundamentação,Data de Fecho do Contrato,Preço Total Efetivo,Causas das Alterações ao Prazo,Causas das Alterações ao Preço,Estado,N.º registo do Acordo Quadro,Descrição do Acordo Quadro,Procedimento Centralizado
Reparação de um aspirador laerdal sn 78220442424,Ajuste Direto Regime Geral,Aquisição de serviços,"50000000-5, Serviços de reparação e manutenção","Instituto Nacional de Emergência Médica, I. P. (501356126)","Equimetto, Lda (510969496)","464,61 €",29-12-2016,29-12-2016,30 dias,"Portugal, Lisboa, Lisboa","Artigo 24.º, n.º 1, alínea e) do Código dos Contratos Públicos",,,,,,Não aplicável.,Não aplicável.,FALSE
Reparações Gerais - Aeródromo Municipal de Évora,Ajuste Direto Regime Geral,Aquisição de serviços,"50000000-5, Serviços de reparação e manutenção","Instituto Nacional de Emergência Médica, I. P. (501356126)","YABURA, LDA.  (513613358)","8.289,00 €",29-12-2016,16-12-2016,5 dias,"Portugal, Évora, Évora","Artigo 20.º, n.º 1, alínea a) do Código dos Contratos Públicos",,,,,,Não aplicável.,Não aplicável.,FALSE
Upgrade Servidores Aplicacionais,Ajuste Direto Regime Geral,Aquisição de bens móveis,"30200000-1, Equipamento e material informático","Instituto Nacional de Emergência Médica, I. P. (501356126)","ATM - Sistemas de Informação e Serviços, S.A. (509784267)","4.918,32 €",23-12-2016,19-12-2016,20 dias,"Portugal, Lisboa, Lisboa","Artigo 20.º, n.º 1, alínea a) do Código dos Contratos Públicos",,,,,,Não aplicável.,Não aplicável.,FALSE
Licenciamento de software e serviços conexos,Ajuste Direto Regime Geral,Aquisição de serviços,"72000000-5, Serviços de TI: consultoria, desenvolvimento de software, Internet e apoio","Instituto Nacional de Emergência Médica, I. P. (501356126)","Informática El Corte Inglês, S.A. (980079659)","0,00 €",22-12-2016,14-11-2016,6 dias,"Portugal, Lisboa, Lisboa",Artigo 258.º do Código dos Contratos Públicos,,,,,,2495730,Licenciamento de software e serviços conexos.,FALSE
Upgrade do SIADEM para CAD 9.3,Ajuste Direto Regime Geral,Aquisição de serviços,"72000000-5, Serviços de TI: consultoria, desenvolvimento de software, Internet e apoio","Instituto Nacional de Emergência Médica, I. P. (501356126)","INTERGRAPH (PORTUGAL) - Sistemas de Computação Gráfica, S.A. (502679468)","57.000,00 €",22-12-2016,16-12-2016,181 dias,"Portugal, Portugal Continental","Artigo 24.º, n.º 1, alínea e) do Código dos Contratos Públicos",,,,,,Não aplicável.,Não aplicável.,FALSE
