Objeto do Contrato,Tipo de Procedimento,Tipo(s) de Contrato,CPVs,Entidade(s) Adjudicante(s),Entidade(s) Adjudicatária(s),Preço Contratual,Data de Publicação,Data de Celebração do Contrato,Prazo de Execução,Local de Execução,Fundamentação,Data de Fecho do Contrato,Preço Total Efetivo,Causas das Alterações ao Prazo,Causas das Alterações ao Preço,Estado,N.º registo do Acordo Quadro,Descrição do Acordo Quadro,Procedimento Centralizado
"PROTESES DE TEFOL PTFE 15,2 CM X 15,2 CM - 25 UNIDADES  PLACA DE MALHA DACRON EM POLIESTER DE 15,2 CM X 15,2 CM - 5 UNIDADES",Ajuste Direto Regime Geral,Aquisição de bens móveis,"33000000-0, Equipamento médico, medicamentos e produtos para cuidados pessoais","Centro Hospitalar e Universitário de Coimbra, E. P. E. (510103448)","C.R. BARD PORTUGAL, LDA (502438274)","2.990,00 €",30-01-2014,28-01-2014,365 dias,"Portugal, Coimbra, Coimbra","Artigo 20.º, n.º 1, alínea a) do Código dos Contratos Públicos",,,,,,Não aplicável.,Não aplicável.,FALSE
"Aquisição de serviços de seguro de acidentes de trabalho para os colaboradores do CHUC, E.P.E.",Ajuste Direto Regime Geral,Aquisição de serviços,"66512100-3, Serviços de seguros de acidentes","Centro Hospitalar e Universitário de Coimbra, E.P. (510103448)","Açoreana Seguros, S.A. (512004048)","583.935,49 €",29-01-2014,21-01-2014,365 dias,"Portugal, Coimbra, Coimbra","Artigo 27.º, n.º 1, alínea a) do Código dos Contratos Públicos",,,,,,Não aplicável.,Não aplicável.,FALSE
160 CAPA MICROSCOPIO WILD PEQUENA TIPO REF. 705930; 192 CAPA P/MICROSCOPIO ZEISS T/P REF.705950; 2080 CAPA PARA LAPAROSCOPIO TIPO REF.705820; 3616 CAPA P/INTENSIFICADOR IMAGEM TIPO  REF. 705845; 25 CAPA PARA NEURONAVEGADOR,Ajuste Direto Regime Geral,Aquisição de bens móveis,"33000000-0, Equipamento médico, medicamentos e produtos para cuidados pessoais","Centro Hospitalar e Universitário de Coimbra, E. P. E. (510103448)","MOLNLYCKE HEALTH CARE COM PROD HOSPITALARES, LDA (511101066), LINEAMÉDICA-DISPOSITIVOS MÉDICOS-CIRUGICOS, SA (505148676)","7.675,08 €",29-01-2014,10-01-2014,365 dias,"Portugal, Coimbra, Coimbra","Artigo 20.º, n.º 1, alínea a) do Código dos Contratos Públicos",,,,,,Não aplicável.,Não aplicável.,FALSE
"5 UNIDADES CATETERES MONITORIZAÇÃO HEMODINAMICA P/APARELHO PICCO, 50 SONDAS ASPIRAÇÃO EM CIRCUITO FECHADO CH14; 10 KITS MONITORIZAÇÃO INTRACRANEANA; 1 KIT IRREC.P/TRAQUEOTOMIA DE EMERGENCIA; 12 UNIDADES MASCARA FACIAL DE VENTILACAO NAO INVASIVA SEM VALVULA TAMANHO S, 12 UNIDADES MASCARA FACIAL DE VENTILACAO NAO INVASIVA SEM VALVULA TAMANHO M; 12 UNIDADES MASCARA FACIAL DE VENTILACAO NAO INVASIVA SEM VALVULA TAMANHO L",Ajuste Direto Regime Geral,Aquisição de bens móveis,"33000000-0, Equipamento médico, medicamentos e produtos para cuidados pessoais","Centro Hospitalar e Universitário de Coimbra, E. P. E. (510103448)","INTERSURGICAL, LDA (503480045), SOCIME II - PRODUTOS MEDICOS, LDA (504453939), CLINIFAR PRODUTOS  CLINICOS E FARMACEUTICOS, SA (503281115), BIOSONDA - COMERCIO MAT. HOSPITALAR, LDA (501463313), COVIDIEN PORTUGAL - PRODUTOS SAUDE, UNIPESSOAL LDA (503413410)","7.203,24 €",28-01-2014,10-01-2014,365 dias,"Portugal, Coimbra, Coimbra","Artigo 20.º, n.º 1, alínea a) do Código dos Contratos Públicos",,,,,,Não aplicável.,Não aplicável.,FALSE
Serviços de suporte técnico a SW/HW Oracle-SSTI-HG-2014,Ajuste Direto Regime Geral,Aquisição de serviços,"72000000-5, Serviços de TI: consultoria, desenvolvimento de software, Internet e apoio","Centro Hospitalar e Universitário de Coimbra, E. P. E. (510103448)",ORACLE (502186771),"4.230,32 €",27-01-2014,24-01-2014,365 dias,"Portugal, Coimbra, Coimbra","Artigo 24.º, n.º 1, alínea e) do Código dos Contratos Públicos",,,,,,Não aplicável.,Não aplicável.,FALSE
"Fornecimento e montagem de filtros em UTAN no HP, CHUC, EPE",Ajuste Direto Regime Geral,Aquisição de serviços,"50000000-5, Serviços de reparação e manutenção","Centro Hospitalar e Universitário de Coimbra, E. P. E. (510103448)",Pinto & Cruz (500217904),"3.739,83 €",27-01-2014,27-01-2014,60 dias,"Portugal, Coimbra, Coimbra","Artigo 20.º, n.º 1, alínea a) do Código dos Contratos Públicos",,,,,,Não aplicável.,Não aplicável.,FALSE
Valvula mecanica monodisco aortica - 12 unidades,Ajuste Direto Regime Geral,Aquisição de bens móveis,"33000000-0, Equipamento médico, medicamentos e produtos para cuidados pessoais","Centro Hospitalar e Universitário de Coimbra, E. P. E. (510103448)","MEDTRONIC PORTUGAL, LDA (504223933)","15.600,00 €",27-01-2014,23-01-2014,30 dias,"Portugal, Coimbra, Coimbra","Artigo 24.º, n.º 1, alínea e) do Código dos Contratos Públicos",,,,,,Não aplicável.,Não aplicável.,FALSE
"CANULAS OROFARINGEAS; TUBOS ENDOT. C/ORIF. MURPHY ; TUBOS ENDOT. ARAMADO C/CUFF, TUBO ENDOT. ARAMADO S/CUFF",Ajuste Direto Regime Geral,Aquisição de bens móveis,"33000000-0, Equipamento médico, medicamentos e produtos para cuidados pessoais","Centro Hospitalar e Universitário de Coimbra, E. P. E. (510103448)","COVIDIEN PORTUGAL - PRODUTOS SAUDE, UNIPESSOAL LDA (503413410), INTERSURGICAL, LDA (503480045), TELEFLEX MEDICAL, SAU (EX-ARROW IBÉRICA,  SA) (980249783)","13.724,00 €",27-01-2014,01-01-2014,365 dias,"Portugal, Coimbra, Coimbra","Artigo 20.º, n.º 1, alínea a) do Código dos Contratos Públicos",,,,,,Não aplicável.,Não aplicável.,FALSE
850 unidades frascos plastico est. c/tampa rosca 20cc p/tecidos,Ajuste Direto Regime Geral,Aquisição de bens móveis,"33000000-0, Equipamento médico, medicamentos e produtos para cuidados pessoais","Centro Hospitalar e Universitário de Coimbra, E. P. E. (510103448)","VIDROLAB 2 VIDROS MATERIAIAS  LABORATORIO, LDA (501450629)","40,04 €",27-01-2014,30-12-2013,120 dias,"Portugal, Coimbra, Coimbra","Artigo 20.º, n.º 1, alínea a) do Código dos Contratos Públicos",,,,,,Não aplicável.,Não aplicável.,FALSE
valvula mecanica monodisco aortica - 13 unidades,Ajuste Direto Regime Geral,Aquisição de bens móveis,"33000000-0, Equipamento médico, medicamentos e produtos para cuidados pessoais","Centro Hospitalar e Universitário de Coimbra, E. P. E. (510103448)","MEDTRONIC PORTUGAL, LDA (504223933)","16.900,00 €",24-01-2014,23-01-2014,30 dias,"Portugal, Coimbra, Coimbra","Artigo 24.º, n.º 1, alínea e) do Código dos Contratos Públicos",,,,,,Não aplicável.,Não aplicável.,FALSE
Agulha de redon Curva CHAR14 - 10 unidades  Agulha Redon Curva CHAR12 - 10 unidades,Ajuste Direto Regime Geral,Aquisição de bens móveis,"33000000-0, Equipamento médico, medicamentos e produtos para cuidados pessoais","Centro Hospitalar e Universitário de Coimbra, E. P. E. (510103448)","B BRAUN MEDICAL, LDA (501506543)","146,80 €",23-01-2014,19-12-2013,365 dias,"Portugal, Coimbra, Coimbra","Artigo 20.º, n.º 1, alínea a) do Código dos Contratos Públicos",,,,,,Não aplicável.,Não aplicável.,FALSE
VALVULA MECANICA BILEAFLET MITRAL - 3 UNIDADES,Ajuste Direto Regime Geral,Aquisição de bens móveis,"33000000-0, Equipamento médico, medicamentos e produtos para cuidados pessoais","Centro Hospitalar e Universitário de Coimbra, E. P. E. (510103448)",ST. JUDE MEDICAL PORTUGAL (504180746),"5.235,00 €",22-01-2014,17-01-2014,30 dias,"Portugal, Coimbra, Coimbra","Artigo 24.º, n.º 1, alínea e) do Código dos Contratos Públicos",,,,,,Não aplicável.,Não aplicável.,FALSE
AGULHAS PARA SISTEMA DE VERTEBROPLASTIAS - 2 UNIDADES  BALAO SEM REDE PARA CIRURGIA VBS - 2 UNIDADES  SISTEMA DE INSUFLAÇÃO PARA BALÃO TIPO VBS/VBB - 2 UNIDADEA,Ajuste Direto Regime Geral,Aquisição de bens móveis,"33000000-0, Equipamento médico, medicamentos e produtos para cuidados pessoais","Centro Hospitalar e Universitário de Coimbra, E. P. E. (510103448)","SYNTHES - COM. DISPOSITIVOS MEDICOS, LDA (501212191)","2.000,00 €",22-01-2014,26-12-2013,30 dias,"Portugal, Coimbra, Coimbra","Artigo 24.º, n.º 1, alínea e) do Código dos Contratos Públicos",,,,,,Não aplicável.,Não aplicável.,FALSE
"CAVILHA PARA TIBIA T/P REF. 251.330 - 1 UNIDADE  PARAFUSO DE BLOQUEIO DIAM. 4,9MM REF. 259.380 - 2 UNIDADES  PARAFUSO DE BLOQUEIO DIAM. 4,9MM REF. 259.460 - 2 UNIDADES  PLACA DE RADIO DISTAL EM TITANIO - 1 UNIDADE",Ajuste Direto Regime Geral,Aquisição de bens móveis,"33000000-0, Equipamento médico, medicamentos e produtos para cuidados pessoais","Centro Hospitalar e Universitário de Coimbra, E. P. E. (510103448)","SYNTHES - COM. DISPOSITIVOS MEDICOS, LDA (501212191)","1.823,45 €",22-01-2014,26-12-2013,30 dias,"Portugal, Coimbra, Coimbra","Artigo 24.º, n.º 1, alínea e) do Código dos Contratos Públicos",,,,,,Não aplicável.,Não aplicável.,FALSE
MATERIAL DE COLUNA EM FRACTURAS (FIXAÇÃO DORSO-LOMBAR POSTERIOR) - 2 UNIDADES  AGULHA PERCUTANEA TRANSPEDICULAR SEXTANT - 4 UNIDADES  FIO GUIA REF. - 2 UNIDADES,Ajuste Direto Regime Geral,Aquisição de bens móveis,"33000000-0, Equipamento médico, medicamentos e produtos para cuidados pessoais","Centro Hospitalar e Universitário de Coimbra, E. P. E. (510103448)","JOHNSON & JOHNSON, LDA (500153370)","3.830,10 €",22-01-2014,23-12-2013,30 dias,"Portugal, Coimbra, Coimbra","Artigo 24.º, n.º 1, alínea e) do Código dos Contratos Públicos",,,,,,Não aplicável.,Não aplicável.,FALSE
"PLACA LCP-DF 9 F T/REF 222.255 - 1 UNIDADE  PARAFUSOS DE BLOQUEIO T/REF 212.211 - 1 UNIDADE  PARAFUSO BLOQUEIO LCP T/REF 212.212 - 1 UNIDADE  PARAFUSOS DE BLOQUEIO T/REF 212.214 - 1 UNIDADE  PARAFUSOS LCP T/REF 212.224- 1 UNIDADE  PARAFUSO DE BLOQUEIO LCP T/REF212.225 - 1 UNIDADE  PARAFUSO ESPONJOSO 4MM,ROSCA COMPLETA,T/P206.0 -16 - 1 UNIDADE  ANILHA T/P 219.980 - 1 UNIDADE  PARAFUSO AUTORROSCANTE DIAM.3,5MM T/P 204.812 - 1 UNIDADE  PARAFUSO AUTORROSCANTE DIAM.3,5MM T/P 204.818 - 1 UNIDADE  PARAFUSO AUTORROSCANTE DIAM.3,5MM T/P 204.814 - 1 UNIDADE  PLACA 1/3 CANA 7 F T/REF 241.371- 1 UNIDADE  PARAFUSO AUTORROSCANTE DIAM.3,5MM T/P 204.816 - 1 UNIDADE  PARAFUSO CORTICAL DIAM.4,5MM AUTOROSC.T/P 214.846 - 1 UNIDADE  PARAFUSO CORTICAL DIAM.4,5MM AUTOROSC.T/P 214.836 - 1 UNIDADE  PARAFUSO CORTICAL DIAM.4,5MM AUTOROSC.T/P 214.834 - 1 UNIDADE",Ajuste Direto Regime Geral,Aquisição de bens móveis,"33000000-0, Equipamento médico, medicamentos e produtos para cuidados pessoais","Centro Hospitalar e Universitário de Coimbra, E. P. E. (510103448)","SYNTHES - COM. DISPOSITIVOS MEDICOS, LDA (501212191)","1.673,27 €",22-01-2014,26-12-2013,30 dias,"Portugal, Coimbra, Coimbra","Artigo 24.º, n.º 1, alínea e) do Código dos Contratos Públicos",,,,,,Não aplicável.,Não aplicável.,FALSE
CAVILHA PROXIMAL DO FEMUR PFN - A - 4 UNIDADES  FIO GUIA PARA ENCAVILHAMENTO PFN-A T/REF 356.830 - 4 UNIDADES,Ajuste Direto Regime Geral,Aquisição de bens móveis,"33000000-0, Equipamento médico, medicamentos e produtos para cuidados pessoais","Centro Hospitalar e Universitário de Coimbra, E. P. E. (510103448)","SYNTHES - COM. DISPOSITIVOS MEDICOS, LDA (501212191)","3.452,97 €",22-01-2014,26-12-2013,30 dias,"Portugal, Coimbra, Coimbra","Artigo 24.º, n.º 1, alínea e) do Código dos Contratos Públicos",,,,,,Não aplicável.,Não aplicável.,FALSE
"FIO DE ACO INOXIDAVEL 0,80MM T/P 291.090 - 1 UNIDADE  FIO CERCLAGE 1,00X10MTS T/P 291.050 - 1 UNIDADE  FIO CERCLAGE 1,25X10MM T/P 291.060 - 1 UNIDADE  FIO CERCLAGE 1,50MM X 10MM T/P 291.130 - UNIDADE",Ajuste Direto Regime Geral,Aquisição de bens móveis,"33000000-0, Equipamento médico, medicamentos e produtos para cuidados pessoais","Centro Hospitalar e Universitário de Coimbra, E. P. E. (510103448)","SYNTHES - COM. DISPOSITIVOS MEDICOS, LDA (501212191)","277,71 €",22-01-2014,11-12-2013,30 dias,"Portugal, Coimbra, Coimbra","Artigo 24.º, n.º 1, alínea e) do Código dos Contratos Públicos",,,,,,Não aplicável.,Não aplicável.,FALSE
STENT VASCULAR REVESTIDO - 2 UNIDADES,Ajuste Direto Regime Geral,Aquisição de bens móveis,"33000000-0, Equipamento médico, medicamentos e produtos para cuidados pessoais","Centro Hospitalar e Universitário de Coimbra, E. P. E. (510103448)","ABBOTT LABORATORIOS, LDA (500006148)","3.400,00 €",22-01-2014,10-12-2013,30 dias,"Portugal, Coimbra, Coimbra","Artigo 24.º, n.º 1, alínea e) do Código dos Contratos Públicos",,,,,,Não aplicável.,Não aplicável.,FALSE
STENT CORONARIO SEM FARMACO - 10 UNIDADES,Ajuste Direto Regime Geral,Aquisição de bens móveis,"33000000-0, Equipamento médico, medicamentos e produtos para cuidados pessoais","Centro Hospitalar e Universitário de Coimbra, E. P. E. (510103448)","ABBOTT LABORATORIOS, LDA (500006148)","4.000,00 €",22-01-2014,23-12-2013,30 dias,"Portugal, Coimbra, Coimbra","Artigo 24.º, n.º 1, alínea e) do Código dos Contratos Públicos",,,,,,Não aplicável.,Não aplicável.,FALSE
STENT CORONARIO SEM FARMACO - 14 UNIDADES,Ajuste Direto Regime Geral,Aquisição de bens móveis,"33000000-0, Equipamento médico, medicamentos e produtos para cuidados pessoais","Centro Hospitalar e Universitário de Coimbra, E. P. E. (510103448)",TERUMO EUROPE ESPANHA/ PORTUGAL (980472024),"6.300,00 €",22-01-2014,23-12-2013,30 dias,"Portugal, Coimbra, Coimbra","Artigo 24.º, n.º 1, alínea e) do Código dos Contratos Públicos",,,,,,Não aplicável.,Não aplicável.,FALSE
48.000 Kg Gás Propano a granel,Ajuste Direto Regime Geral,Aquisição de bens móveis,"09122100-1, Gás propano","Centro Hospitalar e Universitário de Coimbra, E. P. E. (510103448)","Petróleos de Portugal-Petrogal, SA (500697370)","53.273,76 €",21-01-2014,03-01-2014,360 dias,"Portugal, Coimbra, Coimbra","Artigo 24.º, n.º 1, alínea a) do Código dos Contratos Públicos",,,,,,Não aplicável.,Não aplicável.,FALSE
18.000Kg Gás Propano,Ajuste Direto Regime Geral,Aquisição de bens móveis,"09120000-6, Combustíveis gasosos","Centro Hospitalar e Universitário de Coimbra, E. P. E. (510103448)","Repsol Gás Portugal, SA (507039440)","20.124,00 €",21-01-2014,03-01-2014,360 dias,"Portugal, Coimbra, Coimbra","Artigo 24.º, n.º 1, alínea a) do Código dos Contratos Públicos",,,,,,Não aplicável.,Não aplicável.,FALSE
Aquisição de diverso material de Laparoscopia e Histeroscopia para o Bloco Operatório da Maternidade Bissaya Barreto,Ajuste Direto Regime Geral,Aquisição de bens móveis,"33000000-0, Equipamento médico, medicamentos e produtos para cuidados pessoais","Centro Hospitalar e Universitário de Coimbra, E. P. E. (510103448)","Euroscamédica - Produtos Hospitalares, S.A. (503322105)","12.250,00 €",21-01-2014,22-11-2013,60 dias,"Portugal, Coimbra, Coimbra","Artigo 20.º, n.º 1, alínea a) do Código dos Contratos Públicos",,,,,,Não aplicável.,Não aplicável.,FALSE
"aquisição de:  Lentes toricas para correcção de miopia e astigmatismo, 30 unidades",Ajuste Direto Regime Geral,Aquisição de bens móveis,"33000000-0, Equipamento médico, medicamentos e produtos para cuidados pessoais","Centro Hospitalar e Universitário de Coimbra, E. P. E. (510103448)","OPHTEC Portugal, Excelentetitulo - Unipessoal, Lda. (510255086), Optifar, Importação e Exportação, Lda. (501609377)","29.100,00 €",21-01-2014,11-11-2013,90 dias,"Portugal, Coimbra, Coimbra","Artigo 20.º, n.º 1, alínea a) do Código dos Contratos Públicos",,,,,,Não aplicável.,Não aplicável.,FALSE
CANULA(GUEDEL) IRREC. N.2  65CM C/BOCAL P/BRONCOSCOPIO - 10 UNIDADES  CANULA(GUEDEL) IRREC. N.4  85CM C/BOCAL P/BRONCOSCOPIO - 10 UNIDADES  LINHA DE CAPNOGRAFIA - 25 UNIDADES  INTERMEDIARIO PARA PRESSOES 120CM - 50 UNIDADES,Ajuste Direto Regime Geral,Aquisição de bens móveis,"33000000-0, Equipamento médico, medicamentos e produtos para cuidados pessoais","Centro Hospitalar e Universitário de Coimbra, E. P. E. (510103448)","ROCHA NEVES, LDA (500233691), B BRAUN MEDICAL, LDA (501506543), IBERDATA EQUIPAMENTOS, LDA (501904921)","416,50 €",21-01-2014,28-10-2013,365 dias,"Portugal, Coimbra, Coimbra","Artigo 20.º, n.º 1, alínea a) do Código dos Contratos Públicos",,,,,,Não aplicável.,Não aplicável.,FALSE
