Objeto do Contrato,Tipo de Procedimento,Tipo(s) de Contrato,CPVs,Entidade(s) Adjudicante(s),Entidade(s) Adjudicatária(s),Preço Contratual,Data de Publicação,Data de Celebração do Contrato,Prazo de Execução,Local de Execução,Fundamentação,Data de Fecho do Contrato,Preço Total Efetivo,Causas das Alterações ao Prazo,Causas das Alterações ao Preço,Estado,N.º registo do Acordo Quadro,Descrição do Acordo Quadro,Procedimento Centralizado
Agregação Urgente - Medicamentos Diversos,Ao abrigo de acordo-quadro (art.º 259.º),Aquisição de bens móveis,"33600000-6, Produtos farmacêuticos","Centro Hospitalar de Leiria, E. P. E. (509822932)",Fresenius Kabi Pharma Portugal Lda (504293753),"720,90 €",10-11-2017,08-11-2017,20 dias,"Portugal, Leiria, Leiria",Artigo 259.º do Código dos Contratos Públicos,"","",,"",,1771819,CP 2015/6 - Acordo quadro para o fornecimento de Medicamentos do Foro Oncológico,FALSE
Agregação Urgente - Medicamentos Diversos,Ao abrigo de acordo-quadro (art.º 259.º),Aquisição de bens móveis,"33600000-6, Produtos farmacêuticos","Centro Hospitalar de Leiria, E. P. E. (509822932)","BAYER PORTUGAL, SA.                                (500043256)","296,40 €",10-11-2017,08-11-2017,20 dias,"Portugal, Leiria, Leiria",Artigo 259.º do Código dos Contratos Públicos,"","",,"",,1771819,CP 2015/6 - Acordo quadro para o fornecimento de Medicamentos do Foro Oncológico,FALSE
Agregação Urgente - Medicamentos Diversos,Ao abrigo de acordo-quadro (art.º 259.º),Aquisição de bens móveis,"33600000-6, Produtos farmacêuticos","Centro Hospitalar de Leiria, E. P. E. (509822932)","Aurovitas Unipessoal, Lda. (513053239)","630,00 €",10-11-2017,08-11-2017,20 dias,"Portugal, Leiria, Leiria",Artigo 259.º do Código dos Contratos Públicos,"","",,"",,1771819,CP 2015/6 - Acordo quadro para o fornecimento de Medicamentos do Foro Oncológico,FALSE
Agregação Urgente Medicamentos Diversos,Ao abrigo de acordo-quadro (art.º 259.º),Aquisição de bens móveis,"33600000-6, Produtos farmacêuticos","Centro Hospitalar de Leiria, E. P. E. (509822932)","Accord Healthcare, Unipessoal, Lda (508622263)","1.972,98 €",10-11-2017,08-11-2017,20 dias,"Portugal, Leiria, Leiria",Artigo 259.º do Código dos Contratos Públicos,"","",,"",,1771819,CP 2015/6 - Acordo quadro para o fornecimento de Medicamentos do Foro Oncológico,FALSE
Agregação Urgente Gefitinib,Ao abrigo de acordo-quadro (art.º 259.º),Aquisição de bens móveis,"33600000-6, Produtos farmacêuticos","Centro Hospitalar de Leiria, E. P. E. (509822932)","Astra - Zeneca - Produtos Farmacêuticos, Lda. (502942240)","3.132,81 €",10-11-2017,08-11-2017,20 dias,"Portugal, Leiria, Leiria",Artigo 259.º do Código dos Contratos Públicos,"","",,"",,1771819,CP 2015/6 - Acordo quadro para o fornecimento de Medicamentos do Foro Oncológico,FALSE
Agregação Urgente Moroctocog,Ao abrigo de acordo-quadro (art.º 259.º),Aquisição de bens móveis,"33600000-6, Produtos farmacêuticos","Centro Hospitalar de Leiria, E. P. E. (509822932)","LABORATORIOS PFIZER, LDA (500162166)","18.880,42 €",10-11-2017,08-11-2017,20 dias,"Portugal, Leiria, Leiria",Artigo 259.º do Código dos Contratos Públicos,"","",,"",,606744,"CONCURSO PÚBLICO PARA A CELEBRAÇÃO DE CONTRATOS PÚBLICOS DE APROVISIONAMENTO PARA A ÁREA DA SAÚDE, COM VISTA AO FORNECIMENTO DE FATORES RECOMBINANTES DA COAGULAÇÃO, ÀS INSTITUIÇÕES E SERVIÇOS DO SERVIÇO NACIONAL DE SAÚDE",FALSE
Agregação Urgente Tamoxifeno 20 mg,Ao abrigo de acordo-quadro (art.º 259.º),Aquisição de bens móveis,"33600000-6, Produtos farmacêuticos","Centro Hospitalar de Leiria, E. P. E. (509822932)",TECNIMEDE -SOCIEDADE TECNICO MEDICINAL SA (500626413),"208,68 €",10-11-2017,08-11-2017,50 dias,"Portugal, Leiria, Leiria",Artigo 259.º do Código dos Contratos Públicos,"","",,"",,1771819,CP 2015/6 - Acordo quadro para o fornecimento de Medicamentos do Foro Oncológico,FALSE
Hidrocoloides penso estéril 15*15,Ao abrigo de acordo-quadro (art.º 259.º),Aquisição de bens móveis,"33600000-6, Produtos farmacêuticos","Centro Hospitalar de Leiria, E. P. E. (509822932)",LABORATORIOS URGO S.L.U. (000000000),"468,00 €",10-11-2017,10-11-2017,60 dias,"Portugal, Leiria, Leiria",Artigo 259.º do Código dos Contratos Públicos,"","",,"",,1315192,Acordo Quadro para fornecimento de material de penso de efeito terapêutico às Instituições e Serviços do Serviço Nacional de Saúde,FALSE
"Cloreto Sódio 0,9%",Ao abrigo de acordo-quadro (art.º 259.º),Aquisição de bens móveis,"33600000-6, Produtos farmacêuticos","Centro Hospitalar de Leiria, E. P. E. (509822932)",Overpharma  (505792362),"3.176,00 €",10-11-2017,10-11-2017,30 dias,"Portugal, Leiria, Leiria",Artigo 259.º do Código dos Contratos Públicos,"","",,"",,1331181,Acordo Quadro para fornecimento de corretivos da volémia e outras soluções estéreis às Instituições e Serviços do Serviço Nacional de Saúde,FALSE
Medicamento AUE Bussulfano,Ajuste Direto Regime Geral,Aquisição de bens móveis,"33600000-6, Produtos farmacêuticos","Centro Hospitalar de Leiria, E. P. E. (509822932)","BIOJAM, SA  - HEALTH CONSULTING (513642749)","1.520,00 €",10-11-2017,10-11-2017,60 dias,"Portugal, Leiria, Leiria","Artigo 24.º, n.º 1, alínea e) do Código dos Contratos Públicos","","",,"",,Não aplicável.,Não aplicável.,FALSE
Medicamentos Diversos II Lidocaína + Prilocaína,Ao abrigo de acordo-quadro (art.º 259.º),Aquisição de bens móveis,"33600000-6, Produtos farmacêuticos","Centro Hospitalar de Leiria, E. P. E. (509822932)","ASTRAZENECA-PRODUTOS FARMACEUTICOS,LDA (502942240)","38,28 €",10-11-2017,10-11-2017,60 dias,"Portugal, Leiria, Leiria",Artigo 259.º do Código dos Contratos Públicos,"","",,"",,1513257,Acordo quadro para fornecimento de Medicamentos diversos II   às Instituições e Serviços do Serviço Nacional de Saúde,FALSE
Medicamento Caspofungina 50 mg inj,Ao abrigo de acordo-quadro (art.º 259.º),Aquisição de bens móveis,"33600000-6, Produtos farmacêuticos","Centro Hospitalar de Leiria, E. P. E. (509822932)",MERCK SHARP & DOHME LDA (500191360),"6.622,80 €",10-11-2017,10-11-2017,60 dias,"Portugal, Leiria, Leiria",Artigo 259.º do Código dos Contratos Públicos,"","",,"",,1422736,CP 2015/41 - ACORDO QUADRO PARA FORNECIMENTO DE MEDICAMENTOS ANTI-INFECIOSOS: ANTIVÍRICOS E ANTIFÚNGICOS ÀS INSTITUIÇÕES E SERVIÇOS DO SERVIÇO NACIONAL DE SAÚDE,FALSE
MATERIAL ELÉTRICO E DE ILUMINAÇÃO,Ajuste Direto Regime Geral,Aquisição de bens móveis,"31230000-7, Peças para aparelhos de controlo ou distribuição de electricidade","Centro Hospitalar de Leiria, E. P. E. (509822932)","CASA DAS LAMPADAS, SA (500177805)","11.108,53 €",09-11-2017,07-11-2017,60 dias,"Portugal, Leiria, Leiria","Artigo 20.º, n.º 1, alínea a) do Código dos Contratos Públicos",29-12-2017,"689,45 €",,quantidades sobrestimadas,,Não aplicável.,Não aplicável.,FALSE
1197O17 Agregação urgente Abiraterona 250 mg - Outubro/2017,Ao abrigo de acordo-quadro (art.º 259.º),Aquisição de bens móveis,"33600000-6, Produtos farmacêuticos","Centro Hospitalar de Leiria, E. P. E. (509822932)","JANSSEN-CILAG FARMACEUTICA, LDA (500189412)","5.784,96 €",08-11-2017,07-11-2017,20 dias,"Portugal, Leiria, Leiria",Artigo 259.º do Código dos Contratos Públicos,08-11-2017,"5.784,96 €",,"",,1771819,CP 2015/6 - Acordo quadro para o fornecimento de Medicamentos do Foro Oncológico,FALSE
1220O17 Agregação urgente Megestrol 160 mg comp - Outubro/2017,Ao abrigo de acordo-quadro (art.º 259.º),Aquisição de bens móveis,"33600000-6, Produtos farmacêuticos","Centro Hospitalar de Leiria, E. P. E. (509822932)","GENERIS-FARMACEUTICA,SA (508107997)","1.171,80 €",08-11-2017,07-11-2017,20 dias,"Portugal, Leiria, Leiria",Artigo 259.º do Código dos Contratos Públicos,08-11-2017,"1.171,80 €",,"",,1771819,CP 2015/6 - Acordo quadro para o fornecimento de Medicamentos do Foro Oncológico,FALSE
1016E17 Agregação urgente Fumarato de Dimetilo 240 mg - Outubro/2017,Ajuste Direto Regime Geral,Aquisição de bens móveis,"33600000-6, Produtos farmacêuticos","Centro Hospitalar de Leiria, E. P. E. (509822932)","BIOGEN IDEC PORTUGAL-SOC.FARM.UNIP., LDA (506415740)","12.720,12 €",08-11-2017,07-11-2017,20 dias,"Portugal, Leiria, Leiria","Artigo 24.º, n.º 1, alínea e) do Código dos Contratos Públicos",08-11-2017,"12.720,12 €",,"",,Não aplicável.,Não aplicável.,FALSE
1018E17 Agregação urgente etanercept biossimilar - outubro/2017,Ajuste Direto Regime Geral,Aquisição de bens móveis,"33600000-6, Produtos farmacêuticos","Centro Hospitalar de Leiria, E. P. E. (509822932)","BIOGEN IDEC PORTUGAL-SOC.FARM.UNIP., LDA (506415740)","13.664,76 €",08-11-2017,07-11-2017,20 dias,"Portugal, Leiria, Leiria","Artigo 24.º, n.º 1, alínea e) do Código dos Contratos Públicos",08-11-2017,"13.664,76 €",,"",,Não aplicável.,Não aplicável.,FALSE
1073E17 Agregação urgente Interferão beta 1b 8m inj - Outubro/2017,Ajuste Direto Regime Geral,Aquisição de bens móveis,"33600000-6, Produtos farmacêuticos","Centro Hospitalar de Leiria, E. P. E. (509822932)","BAYER PORTUGAL, LDA (500043256)","20.700,00 €",08-11-2017,07-11-2017,20 dias,"Portugal, Leiria, Leiria","Artigo 24.º, n.º 1, alínea e) do Código dos Contratos Públicos",08-11-2017,"20.700,00 €",,"",,Não aplicável.,Não aplicável.,FALSE
1196O17 Agregação urgente Certolizumab pegol 200 mg - Outubro/2017,Ao abrigo de acordo-quadro (art.º 259.º),Aquisição de bens móveis,"33600000-6, Produtos farmacêuticos","Centro Hospitalar de Leiria, E. P. E. (509822932)","UCB PHARMA (PRODUTOS FARMACEUTICOS), LDA (500291322)","3.545,00 €",08-11-2017,07-11-2017,20 dias,"Portugal, Leiria, Leiria",Artigo 259.º do Código dos Contratos Públicos,08-11-2017,"3.545,00 €",,"",,2545980,CP 2017/61 - Acordo quadro para fornecimento de Medicamentos Diversos   às Instituições e Serviços do Serviço Nacional de Saúde,FALSE
1053O17 Agregação urgente - Etanercept - Outubro/2017,Ao abrigo de acordo-quadro (art.º 259.º),Aquisição de bens móveis,"33600000-6, Produtos farmacêuticos","Centro Hospitalar de Leiria, E. P. E. (509822932)","PFIZER BIOFARMACEUTICA, LDA. (513300376)","66.327,81 €",08-11-2017,07-11-2017,20 dias,"Portugal, Leiria, Leiria",Artigo 259.º do Código dos Contratos Públicos,08-11-2017,"66.327,81 €",,"",,1771819,CP 2015/6 - Acordo quadro para o fornecimento de Medicamentos do Foro Oncológico,FALSE
1157O17 Agregação urgente Fulvestrant - Outubro /2017,Ao abrigo de acordo-quadro (art.º 259.º),Aquisição de bens móveis,"33600000-6, Produtos farmacêuticos","Centro Hospitalar de Leiria, E. P. E. (509822932)","ASTRAZENECA-PRODUTOS FARMACEUTICOS,LDA (502942240)","474,69 €",08-11-2017,07-11-2017,20 dias,"Portugal, Leiria, Leiria",Artigo 259.º do Código dos Contratos Públicos,08-11-2017,"474,69 €",,"",,1771819,CP 2015/6 - Acordo quadro para o fornecimento de Medicamentos do Foro Oncológico,FALSE
Tubo sangue plasma,Ao abrigo de acordo-quadro (art.º 259.º),Aquisição de bens móveis,"33100000-1, Equipamento médico","Centro Hospitalar de Leiria, E. P. E. (509822932)","NORMAX-FABRICA VIDROS CIENTIFICOS, LDA (500203130)","74,00 €",08-11-2017,30-10-2017,20 dias,"Portugal, Leiria, Leiria","Artigo 20.º, n.º 1, alínea b) do Código dos Contratos Públicos",08-11-2017,"74,00 €",,"",,1350003,Acordo Quadro para fornecimento de sistemas fechados e material diverso de recolha de sangue às instituições do SNS,FALSE
1233O17 Claritromicina 500 comp,Ao abrigo de acordo-quadro (art.º 259.º),Aquisição de bens móveis,"33600000-6, Produtos farmacêuticos","Centro Hospitalar de Leiria, E. P. E. (509822932)","HIKMA FARMACEUTICA (PORTUGAL), SA (502266791)","296,00 €",08-11-2017,07-11-2017,90 dias,"Portugal, Leiria, Leiria",Artigo 259.º do Código dos Contratos Públicos,"","",,"",,1326195,ACORDO QUADRO PARA FORNECIMENTO DE MEDICAMENTOS ANTI-INFECIOSOS: EXCETO ANTIVÍRICOS E ANTIFÚNGICOS ÀS INSTITUIÇÕES E SERVIÇOS DO SERVIÇO NACIONAL DE SAÚDE,FALSE
Imatinib GIST,Ao abrigo de acordo-quadro (art.º 259.º),Aquisição de bens móveis,"33600000-6, Produtos farmacêuticos","Centro Hospitalar de Leiria, E. P. E. (509822932)","Novartis Farma Produtos Farmacêuticos, SA. (500063524)","34.176,22 €",06-11-2017,06-11-2017,60 dias,"Portugal, Leiria, Leiria",Artigo 259.º do Código dos Contratos Públicos,"","",,"",,1771819,CP 2015/6 - Acordo quadro para o fornecimento de Medicamentos do Foro Oncológico,FALSE
Medicamento Exclusivo Paliperidona,Ajuste Direto Regime Geral,Aquisição de bens móveis,"33600000-6, Produtos farmacêuticos","Centro Hospitalar de Leiria, E. P. E. (509822932)","JANSSEN CILAG FARMACEUTICA, LDA (500189412)","14.254,32 €",06-11-2017,06-11-2017,60 dias,"Portugal, Leiria, Leiria","Artigo 24.º, n.º 1, alínea e) do Código dos Contratos Públicos","","",,"",,Não aplicável.,Não aplicável.,FALSE
Nutrição Entérica,Ajuste Direto Regime Geral,Aquisição de bens móveis,"33600000-6, Produtos farmacêuticos","Centro Hospitalar de Leiria, E. P. E. (509822932)","FRESENIUS KABI PHARMA PORTUGAL, LDA (504293753)","432,00 €",06-11-2017,06-11-2017,60 dias,"Portugal, Leiria, Leiria","Artigo 20.º, n.º 1, alínea a) do Código dos Contratos Públicos","","",,"",,Não aplicável.,Não aplicável.,FALSE
Medicamentos Anestésicos,Ao abrigo de acordo-quadro (art.º 259.º),Aquisição de bens móveis,"33600000-6, Produtos farmacêuticos","Centro Hospitalar de Leiria, E. P. E. (509822932)","LABORATORIOS INIBSA, SA (500139571)","53,60 €",06-11-2017,06-11-2017,60 dias,"Portugal, Leiria, Leiria",Artigo 259.º do Código dos Contratos Públicos,"","",,"",,1422736,CP 2015/41 - ACORDO QUADRO PARA FORNECIMENTO DE MEDICAMENTOS ANTI-INFECIOSOS: ANTIVÍRICOS E ANTIFÚNGICOS ÀS INSTITUIÇÕES E SERVIÇOS DO SERVIÇO NACIONAL DE SAÚDE,FALSE
Imunoalergologia AUE,Ajuste Direto Regime Geral,Aquisição de bens móveis,"33600000-6, Produtos farmacêuticos","Centro Hospitalar de Leiria, E. P. E. (509822932)","ROXALL MEDICINA ESPANA, SA (000000000)","3.427,18 €",06-11-2017,06-11-2017,60 dias,"Portugal, Leiria, Leiria","Artigo 24.º, n.º 1, alínea e) do Código dos Contratos Públicos","","",,"",,Não aplicável.,Não aplicável.,FALSE
Domperidona 10 mg comp,Ao abrigo de acordo-quadro (art.º 259.º),Aquisição de bens móveis,"33600000-6, Produtos farmacêuticos","Centro Hospitalar de Leiria, E. P. E. (509822932)","LABESFAL-LAB. ALMIRO, SA.                          (501169580)","22,20 €",06-11-2017,06-11-2017,60 dias,"Portugal, Leiria, Leiria",Artigo 259.º do Código dos Contratos Públicos,"","",,"",,1326195,ACORDO QUADRO PARA FORNECIMENTO DE MEDICAMENTOS ANTI-INFECIOSOS: EXCETO ANTIVÍRICOS E ANTIFÚNGICOS ÀS INSTITUIÇÕES E SERVIÇOS DO SERVIÇO NACIONAL DE SAÚDE,FALSE
CEFUROXIMA 750 MG,Ao abrigo de acordo-quadro (art.º 259.º),Aquisição de bens móveis,"33600000-6, Produtos farmacêuticos","Centro Hospitalar de Leiria, E. P. E. (509822932)","LABESFAL-LAB. ALMIRO, SA.                          (501169580)","2.937,00 €",06-11-2017,06-11-2017,60 dias,"Portugal, Leiria, Leiria",Artigo 259.º do Código dos Contratos Públicos,"","",,"",,1326195,ACORDO QUADRO PARA FORNECIMENTO DE MEDICAMENTOS ANTI-INFECIOSOS: EXCETO ANTIVÍRICOS E ANTIFÚNGICOS ÀS INSTITUIÇÕES E SERVIÇOS DO SERVIÇO NACIONAL DE SAÚDE,FALSE
CEFTAZIDINA 100 mg,Ao abrigo de acordo-quadro (art.º 259.º),Aquisição de bens móveis,"33600000-6, Produtos farmacêuticos","Centro Hospitalar de Leiria, E. P. E. (509822932)","LABESFAL-LAB. ALMIRO, SA.                          (501169580)","581,70 €",06-11-2017,06-11-2017,60 dias,"Portugal, Leiria, Leiria",Artigo 259.º do Código dos Contratos Públicos,"","",,"",,1326195,ACORDO QUADRO PARA FORNECIMENTO DE MEDICAMENTOS ANTI-INFECIOSOS: EXCETO ANTIVÍRICOS E ANTIFÚNGICOS ÀS INSTITUIÇÕES E SERVIÇOS DO SERVIÇO NACIONAL DE SAÚDE,FALSE
Reagentes para Anatomia Patológica,Ajuste Direto Regime Geral,Aquisição de bens móveis,"33696000-5, Reagentes e meios de contraste","Centro Hospitalar de Leiria, E. P. E. (509822932)","EnzifarmaDiagnóstica e Farmacêutica, SA (503636975)","174,20 €",06-11-2017,06-11-2017,60 dias,"Portugal, Leiria, Leiria","Artigo 20.º, n.º 1, alínea a) do Código dos Contratos Públicos","","",,"",,Não aplicável.,Não aplicável.,FALSE
Reagentes para Anatomia Patológica,Ajuste Direto Regime Geral,Aquisição de bens móveis,"33696000-5, Reagentes e meios de contraste","Centro Hospitalar de Leiria, E. P. E. (509822932)","Leica Microsistemas - Inst. de Precisão, S.U., Lda (500301921)","576,00 €",06-11-2017,06-11-2017,60 dias,"Portugal, Leiria, Leiria","Artigo 20.º, n.º 1, alínea a) do Código dos Contratos Públicos","","",,"",,Não aplicável.,Não aplicável.,FALSE
Medicamento AUE - Levotiroxina,Ajuste Direto Regime Geral,Aquisição de bens móveis,"33600000-6, Produtos farmacêuticos","Centro Hospitalar de Leiria, E. P. E. (509822932)",IDIS LIMITED (000000000),"140,00 €",03-11-2017,03-11-2017,60 dias,"Portugal, Leiria, Leiria","Artigo 24.º, n.º 1, alínea e) do Código dos Contratos Públicos","","",,"",,Não aplicável.,Não aplicável.,FALSE
Medicamento Exclusivo Hepatite C - EPCLUSA,Ajuste Direto Regime Geral,Aquisição de bens móveis,"33600000-6, Produtos farmacêuticos","Centro Hospitalar de Leiria, E. P. E. (509822932)",GILEAD SCIENCES LDA.                               (503604704),"92.367,68 €",03-11-2017,03-11-2017,20 dias,"Portugal, Leiria, Leiria","Artigo 24.º, n.º 1, alínea e) do Código dos Contratos Públicos","","",,"",,Não aplicável.,Não aplicável.,FALSE
Nutrição Entérica,Ajuste Direto Regime Geral,Aquisição de bens móveis,"33600000-6, Produtos farmacêuticos","Centro Hospitalar de Leiria, E. P. E. (509822932)","Nutricia Advanced Medical Nutrition - Unipessoal, Lda (507558286)","262,80 €",03-11-2017,03-11-2017,60 dias,"Portugal, Leiria, Leiria","Artigo 20.º, n.º 1, alínea a) do Código dos Contratos Públicos","","",,"",,Não aplicável.,Não aplicável.,FALSE
Nutrição Entérica,Ajuste Direto Regime Geral,Aquisição de bens móveis,"33600000-6, Produtos farmacêuticos","Centro Hospitalar de Leiria, E. P. E. (509822932)","FRESENIUS KABI PHARMA PORTUGAL, LDA (504293753)","540,00 €",03-11-2017,03-11-2017,60 dias,"Portugal, Leiria, Leiria","Artigo 20.º, n.º 1, alínea a) do Código dos Contratos Públicos","","",,"",,Não aplicável.,Não aplicável.,FALSE
Agregação P259-AC-2017-121 Bendamustina,Ao abrigo de acordo-quadro (art.º 259.º),Aquisição de bens móveis,"33600000-6, Produtos farmacêuticos","Centro Hospitalar de Leiria, E. P. E. (509822932)",Medac Sucursal em Portugal (980369959),"7.316,00 €",03-11-2017,03-11-2017,60 dias,"Portugal, Leiria, Leiria",Artigo 259.º do Código dos Contratos Públicos,"","",,"",,1771819,CP 2015/6 - Acordo quadro para o fornecimento de Medicamentos do Foro Oncológico,FALSE
Medicamento AUE Labetalol,Ajuste Direto Regime Geral,Aquisição de bens móveis,"33600000-6, Produtos farmacêuticos","Centro Hospitalar de Leiria, E. P. E. (509822932)",DUXPHARMA (510803679),"1.840,00 €",03-11-2017,03-11-2017,60 dias,"Portugal, Leiria, Leiria","Artigo 24.º, n.º 1, alínea e) do Código dos Contratos Públicos","","",,"",,Não aplicável.,Não aplicável.,FALSE
Medicamento Exclusivo PIRFENIDONA,Ajuste Direto Regime Geral,Aquisição de bens móveis,"33600000-6, Produtos farmacêuticos","Centro Hospitalar de Leiria, E. P. E. (509822932)","ROCHE FARMACEUTICA QUIMICA, LDA (500233810)","5.790,96 €",03-11-2017,03-11-2017,60 dias,"Portugal, Leiria, Leiria","Artigo 24.º, n.º 1, alínea e) do Código dos Contratos Públicos","","",,"",,Não aplicável.,Não aplicável.,FALSE
"Medicamento ENTECAVIR 0,5 MG",Ao abrigo de acordo-quadro (art.º 259.º),Aquisição de bens móveis,"33696000-5, Reagentes e meios de contraste","Centro Hospitalar de Leiria, E. P. E. (509822932)",BRISTOL - MYERS SQUIBB SA.                         (500048193),"1.384,80 €",03-11-2017,03-11-2017,60 dias,"Portugal, Leiria, Leiria",Artigo 259.º do Código dos Contratos Públicos,"","",,"",,1422736,CP 2015/41 - ACORDO QUADRO PARA FORNECIMENTO DE MEDICAMENTOS ANTI-INFECIOSOS: ANTIVÍRICOS E ANTIFÚNGICOS ÀS INSTITUIÇÕES E SERVIÇOS DO SERVIÇO NACIONAL DE SAÚDE,FALSE
Reagentes Diversos para Imunologia,Ajuste Direto Regime Geral,Aquisição de bens móveis,"33696000-5, Reagentes e meios de contraste","Centro Hospitalar de Leiria, E. P. E. (509822932)","Quilaban, Quim.Lab.Analítica,Ldª (500399670)","4.683,00 €",03-11-2017,03-11-2017,60 dias,"Portugal, Leiria, Leiria","Artigo 26.º, n.º 1, alínea a) do Código dos Contratos Públicos","","",,"",,Não aplicável.,Não aplicável.,FALSE
Reagentes Diversos para Imunologia,Ajuste Direto Regime Geral,Aquisição de bens móveis,"33696000-5, Reagentes e meios de contraste","Centro Hospitalar de Leiria, E. P. E. (509822932)",ARIUM (502501880),"670,00 €",03-11-2017,03-11-2017,60 dias,"Portugal, Leiria, Leiria","Artigo 26.º, n.º 1, alínea a) do Código dos Contratos Públicos","","",,"",,Não aplicável.,Não aplicável.,FALSE
Reagentes Diversos para Imunologia,Ajuste Direto Regime Geral,Aquisição de bens móveis,"33696000-5, Reagentes e meios de contraste","Centro Hospitalar de Leiria, E. P. E. (509822932)","Werfen Portugal, Ldª (501086110)","843,12 €",03-11-2017,03-11-2017,60 dias,"Portugal, Leiria, Leiria","Artigo 26.º, n.º 1, alínea a) do Código dos Contratos Públicos","","",,"",,Não aplicável.,Não aplicável.,FALSE
Reagentes Diversos Para Imunologia,Ajuste Direto Regime Geral,Aquisição de bens móveis,"33696000-5, Reagentes e meios de contraste","Centro Hospitalar de Leiria, E. P. E. (509822932)","Thermo Fisher Diagnostics, Soc. Unip., Lda (506916243)","55,23 €",03-11-2017,03-11-2017,60 dias,"Portugal, Leiria, Leiria","Artigo 26.º, n.º 1, alínea a) do Código dos Contratos Públicos","","",,"",,Não aplicável.,Não aplicável.,FALSE
Reagentes Diversos para Imunologia,Ajuste Direto Regime Geral,Aquisição de bens móveis,"33696000-5, Reagentes e meios de contraste","Centro Hospitalar de Leiria, E. P. E. (509822932)","Beckman Coulter Portugal Unipessoal, Lda (509035167)","1.080,00 €",03-11-2017,03-11-2017,60 dias,"Portugal, Leiria, Leiria","Artigo 26.º, n.º 1, alínea a) do Código dos Contratos Públicos","","",,"",,Não aplicável.,Não aplicável.,FALSE
Reagentes Diversos para Imunoquímica,Ajuste Direto Regime Geral,Aquisição de bens móveis,"33696000-5, Reagentes e meios de contraste","Centro Hospitalar de Leiria, E. P. E. (509822932)","ROCHE SISTEMAS DE DIAGNOSTICO, LDA (504282921)","900,00 €",03-11-2017,03-11-2017,60 dias,"Portugal, Leiria, Leiria","Artigo 26.º, n.º 1, alínea a) do Código dos Contratos Públicos","","",,"",,Não aplicável.,Não aplicável.,FALSE
Reagentes Diversos para Imunoquímica,Ajuste Direto Regime Geral,Aquisição de bens móveis,"33696000-5, Reagentes e meios de contraste","Centro Hospitalar de Leiria, E. P. E. (509822932)","Werfen Portugal, Ldª (501086110)","675,00 €",03-11-2017,03-11-2017,60 dias,"Portugal, Leiria, Leiria","Artigo 26.º, n.º 1, alínea a) do Código dos Contratos Públicos","","",,"",,Não aplicável.,Não aplicável.,FALSE
1124O17 Agregação urgente Gefitinib - setembro,Ao abrigo de acordo-quadro (art.º 259.º),Aquisição de bens móveis,"33600000-6, Produtos farmacêuticos","Centro Hospitalar de Leiria, E. P. E. (509822932)","ASTRAZENECA-PRODUTOS FARMACEUTICOS,LDA (502942240)","1.044,27 €",02-11-2017,26-10-2017,20 dias,"Portugal, Leiria, Leiria",Artigo 259.º do Código dos Contratos Públicos,26-10-2017,"1.044,27 €",,"",,1771819,CP 2015/6 - Acordo quadro para o fornecimento de Medicamentos do Foro Oncológico,FALSE
1157O17 Agregação urgente Fulvestrant - setembro,Ao abrigo de acordo-quadro (art.º 259.º),Aquisição de bens móveis,"33600000-6, Produtos farmacêuticos","Centro Hospitalar de Leiria, E. P. E. (509822932)","ASTRAZENECA-PRODUTOS FARMACEUTICOS,LDA (502942240)","474,69 €",02-11-2017,26-10-2017,20 dias,"Portugal, Leiria, Leiria",Artigo 259.º do Código dos Contratos Públicos,02-11-2017,"474,69 €",,"",,1771819,CP 2015/6 - Acordo quadro para o fornecimento de Medicamentos do Foro Oncológico,FALSE
1026O17 Agregação urgente - medicamentos diversos - setembro/2017,Ao abrigo de acordo-quadro (art.º 259.º),Aquisição de bens móveis,"33600000-6, Produtos farmacêuticos","Centro Hospitalar de Leiria, E. P. E. (509822932)","FRESENIUS KABI PHARMA PORTUGAL, LDA (504293753)","747,90 €",02-11-2017,26-10-2017,20 dias,"Portugal, Leiria, Leiria",Artigo 259.º do Código dos Contratos Públicos,02-11-2017,"747,90 €",,"",,1771819,CP 2015/6 - Acordo quadro para o fornecimento de Medicamentos do Foro Oncológico,FALSE
1026O17 Agregação urgente - medicamentos diversos - setembro/2017,Ao abrigo de acordo-quadro (art.º 259.º),Aquisição de bens móveis,"33600000-6, Produtos farmacêuticos","Centro Hospitalar de Leiria, E. P. E. (509822932)","ACCORD HEALTHCARE, UNIPESSOAL LDA (508622263)","1.263,78 €",02-11-2017,26-10-2017,20 dias,"Portugal, Leiria, Leiria",Artigo 259.º do Código dos Contratos Públicos,02-11-2017,"1.263,78 €",,"",,1771819,CP 2015/6 - Acordo quadro para o fornecimento de Medicamentos do Foro Oncológico,FALSE
1197O17 Agregação urgente ABIRATERONA - agosto e setembro,Ao abrigo de acordo-quadro (art.º 259.º),Aquisição de bens móveis,"33600000-6, Produtos farmacêuticos","Centro Hospitalar de Leiria, E. P. E. (509822932)","JANSSEN-CILAG FARMACEUTICA, LDA (500189412)","8.677,44 €",02-11-2017,26-10-2017,20 dias,"Portugal, Leiria, Leiria",Artigo 259.º do Código dos Contratos Públicos,02-11-2017,"8.677,44 €",,"",,1771819,CP 2015/6 - Acordo quadro para o fornecimento de Medicamentos do Foro Oncológico,FALSE
Material Elétrico,Ajuste Direto Regime Geral,Aquisição de bens móveis,"31500000-1, Equipamento para iluminação e lâmpadas eléctricas","CENTRO HOSPITALAR DE LEIRIA, E.P.E. (509822932)","UPK-GESTAO DE FACILITIES E MANUTENCAO, SA (513567399)","612,74 €",31-10-2017,27-10-2017,60 dias,"Portugal, Leiria, Leiria","Artigo 20.º, n.º 1, alínea a) do Código dos Contratos Públicos",29-12-2017,"25,52 €",,quantidades sobrestimadas,,Não aplicável.,Não aplicável.,FALSE
MATERIAL ELÉTRICO,Ajuste Direto Regime Geral,Aquisição de bens móveis,"31500000-1, Equipamento para iluminação e lâmpadas eléctricas","CENTRO HOSPITALAR DE LEIRIA, E.P.E. (509822932)","CASA DAS LAMPADAS, SA (500177805)","6.053,81 €",31-10-2017,27-10-2017,60 dias,"Portugal, Leiria, Leiria","Artigo 20.º, n.º 1, alínea a) do Código dos Contratos Públicos",29-12-2017,"6.053,81 €",,"",,Não aplicável.,Não aplicável.,FALSE
