Objeto do Contrato,Tipo de Procedimento,Tipo(s) de Contrato,CPVs,Entidade(s) Adjudicante(s),Entidade(s) Adjudicatária(s),Preço Contratual,Data de Publicação,Data de Celebração do Contrato,Prazo de Execução,Local de Execução,Fundamentação,Data de Fecho do Contrato,Preço Total Efetivo,Causas das Alterações ao Prazo,Causas das Alterações ao Preço,Estado,N.º registo do Acordo Quadro,Descrição do Acordo Quadro,Procedimento Centralizado
Aquisição de Endoprótese Aórtica,Ajuste Direto Regime Geral,Aquisição de bens móveis,"33184500-8, Endopróteses coronárias","Centro Hospitalar Lisboa Norte, EPE (508481287)","Biosonda, Lda. (501463313)","10.000,00 €",31-01-2013,31-01-2013,1 dias,"Portugal, Lisboa, Lisboa","Artigo 20.º, n.º 1, alínea a) do Código dos Contratos Públicos",,,,,,Não aplicável.,Não aplicável.,
Aquisição de CDI VR,Ajuste Direto Regime Geral,Aquisição de bens móveis,"33182100-0, Desfibrilhador","Centro Hospitalar Lisboa Norte, EPE (508481287)","Medtronic Portugal, Lda. (504223933)","11.500,00 €",31-01-2013,31-01-2013,1 dias,"Portugal, Lisboa, Lisboa","Artigo 20.º, n.º 1, alínea a) do Código dos Contratos Públicos",,,,,,Não aplicável.,Não aplicável.,
Aquisição de CDI VR,Ajuste Direto Regime Geral,Aquisição de bens móveis,"33182100-0, Desfibrilhador","Centro Hospitalar Lisboa Norte, EPE (508481287)","Medtronic Portugal, Lda. (504223933)","11.500,00 €",31-01-2013,31-01-2013,1 dias,"Portugal, Lisboa, Lisboa","Artigo 20.º, n.º 1, alínea a) do Código dos Contratos Públicos",,,,,,Não aplicável.,Não aplicável.,
Aquisição de  Nevirapina 400 Mg Comp. Ap,Ajuste Direto Regime Geral,Aquisição de bens móveis,"33651400-2, Antivíricos de uso sistémico","Centro Hospitalar Lisboa Norte, EPE (508481287)","Unilfarma, Lda. (500293023)","36.720,00 €",31-01-2013,31-01-2013,2 dias,"Portugal, Lisboa, Lisboa","Artigo 24.º, n.º 1, alínea e) do Código dos Contratos Públicos",,,,,,Não aplicável.,Não aplicável.,
Reparação de UP grade de PCR AC500,Ajuste Direto Regime Geral,Aquisição de serviços,"50421000-2, Serviços de reparação e manutenção de equipamento médico","Centro Hospitalar Lisboa Norte, EPE (508481287)","Philips Portuguesa, S.A. (500216843)","9.157,00 €",31-01-2013,31-01-2013,30 dias,"Portugal, Lisboa, Lisboa","Artigo 20.º, n.º 1, alínea a) do Código dos Contratos Públicos",,,,,,Não aplicável.,Não aplicável.,
Aquisição de Gerador de Impulsos,Ajuste Direto Regime Geral,Aquisição de bens móveis,"33182220-7, Válvulas cardíacas","Centro Hospitalar Lisboa Norte, EPE (508481287)","Medtronic Portugal, Lda. (504223933)","13.475,00 €",31-01-2013,31-01-2013,3 dias,"Portugal, Lisboa, Lisboa","Artigo 20.º, n.º 1, alínea a) do Código dos Contratos Públicos",,,,,,Não aplicável.,Não aplicável.,
Aquisição de Motor Electrico,Ajuste Direto Regime Geral,Aquisição de bens móveis,"34311000-0, Motores","Centro Hospitalar Lisboa Norte, EPE (508481287)","PeçaOeste, Lda. (501732187)","7.785,42 €",31-01-2013,31-01-2013,1 dias,"Portugal, Lisboa, Lisboa","Artigo 20.º, n.º 1, alínea a) do Código dos Contratos Públicos",,,,,,Não aplicável.,Não aplicável.,
Aquisição de diversas almofadas,Ajuste Direto Regime Geral,Aquisição de bens móveis,"39516110-6, Almofadas","Centro Hospitalar Lisboa Norte, EPE (508481287)","Meilex, Lda. (501759441)","4.213,60 €",30-01-2013,30-01-2013,5 dias,"Portugal, Lisboa, Lisboa","Artigo 20.º, n.º 1, alínea a) do Código dos Contratos Públicos",,,,,,Não aplicável.,Não aplicável.,
Aquisição de Cola Fibrina 4 Ml.,Ajuste Direto Regime Geral,Aquisição de bens móveis,"33141530-4, Coagulantes sanguíneos","Centro Hospitalar Lisboa Norte, EPE (508481287)","Baxter, Lda. (503347345)","9.450,00 €",30-01-2013,30-01-2013,1 dias,"Portugal, Lisboa, Lisboa","Artigo 24.º, n.º 1, alínea e) do Código dos Contratos Públicos",,,,,,Não aplicável.,Não aplicável.,
Aquisição de Sal Megluminico AC Gadoterico Sol. Inj. 1,Ajuste Direto Regime Geral,Aquisição de bens móveis,"33696000-5, Reagentes e meios de contraste","Centro Hospitalar Lisboa Norte, EPE (508481287)","A. Martins & Fernandes, S.A. (501172114)","12.210,00 €",30-01-2013,24-01-2013,1 dias,"Portugal, Lisboa, Lisboa","Artigo 24.º, n.º 1, alínea e) do Código dos Contratos Públicos",,,,,,Não aplicável.,Não aplicável.,
Aquisição de Caspofungina Sol. Inj. 70 Mg.,Ajuste Direto Regime Geral,Aquisição de bens móveis,"33631100-3, Antifúngicos usados em dermatologia","Centro Hospitalar Lisboa Norte, EPE (508481287)","Merck, Sharp & Dohme, Lda. (500191360)","11.644,38 €",30-01-2013,22-01-2013,3 dias,"Portugal, Lisboa, Lisboa","Artigo 24.º, n.º 1, alínea e) do Código dos Contratos Públicos",,,,,,Não aplicável.,Não aplicável.,
Aqusição de ABL 800 Solução Lavagem 600 Ml,Ajuste Direto Regime Geral,Aquisição de bens móveis,"33696500-0, Reagentes de laboratório","Centro Hospitalar Lisboa Norte, EPE (508481287)","Radiometer Ibérica, S.L. (980201667)","11.057,76 €",29-01-2013,29-01-2013,1 dias,"Portugal, Lisboa, Lisboa","Artigo 24.º, n.º 1, alínea e) do Código dos Contratos Públicos",,,,,,Não aplicável.,Não aplicável.,
Aquisição de CMV CAP/CTM teste DET 72T,Ajuste Direto Regime Geral,Aquisição de bens móveis,"33696500-0, Reagentes de laboratório","Centro Hospitalar Lisboa Norte, EPE (508481287)",Roche Lda. (504282921),"7.176,00 €",29-01-2013,29-01-2013,1 dias,"Portugal, Lisboa, Lisboa","Artigo 24.º, n.º 1, alínea e) do Código dos Contratos Públicos",,,,,,Não aplicável.,Não aplicável.,
Aquisição de Oxigénio Líquido Medicinal,Ajuste Direto Regime Geral,Aquisição de bens móveis,"24111500-0, Gases médicos","Centro Hospitalar Lisboa Norte, EPE (508481287)","Linde Sogás, Lda. (500266344)","103.500,00 €",29-01-2013,28-01-2013,1 dias,"Portugal, Lisboa, Lisboa","Artigo 24.º, n.º 1, alínea e) do Código dos Contratos Públicos",,,,,,Não aplicável.,Não aplicável.,
Aquisição de Alteplase Sol. Inj. Ext. 50 Mg.,Ajuste Direto Regime Geral,Aquisição de bens móveis,"33621200-1, Anti-hemorrágicos","Centro Hospitalar Lisboa Norte, EPE (508481287)","Unilfarma, Lda. (500293023)","21.082,32 €",29-01-2013,15-01-2013,2 dias,"Portugal, Lisboa, Lisboa","Artigo 24.º, n.º 1, alínea e) do Código dos Contratos Públicos",,,,,,Não aplicável.,Não aplicável.,
Aquisição de Material para Cirurgia de Parkinson,Ajuste Direto Regime Geral,Aquisição de bens móveis,"33182000-9, Material de assistência à função cardíaca","Centro Hospitalar Lisboa Norte, EPE (508481287)","Medtronic Portugal, Lda. (504223933)","6.400,00 €",29-01-2013,29-01-2013,1 dias,"Portugal, Lisboa, Lisboa","Artigo 20.º, n.º 1, alínea a) do Código dos Contratos Públicos",,,,,,Não aplicável.,Não aplicável.,
Aquisição de Aminoacidos Sol. Inj. 10% S/ Electrolitos,Ajuste Direto Regime Geral,Aquisição de bens móveis,"33692200-9, Produtos para nutrição parenteral","Centro Hospitalar Lisboa Norte, EPE (508481287)","B. Braun Medical, Lda. (501506543)","9.830,00 €",29-01-2013,29-01-2013,1 dias,"Portugal, Lisboa, Lisboa","Artigo 24.º, n.º 1, alínea e) do Código dos Contratos Públicos",,,,,,Não aplicável.,Não aplicável.,
Aquisição de CDI DR,Ajuste Direto Regime Geral,Aquisição de bens móveis,"33182100-0, Desfibrilhador","Centro Hospitalar Lisboa Norte, EPE (508481287)","Farmimpex Cardio, S.A. (503061506)","13.504,00 €",29-01-2013,29-01-2013,1 dias,"Portugal, Lisboa, Lisboa","Artigo 20.º, n.º 1, alínea a) do Código dos Contratos Públicos",,,,,,Não aplicável.,Não aplicável.,
Aquisição de Imunoglobulina Sol. Inj. 100 Mg./Ml,Ajuste Direto Regime Geral,Aquisição de bens móveis,"33651520-9, Imunoglobulinas","Centro Hospitalar Lisboa Norte, EPE (508481287)","CSL Behring, Lda. (503047201)","63.000,00 €",28-01-2013,25-01-2013,1 dias,"Portugal, Lisboa, Lisboa","Artigo 24.º, n.º 1, alínea e) do Código dos Contratos Públicos",,,,,,Não aplicável.,Não aplicável.,
Aquisição de Factor Von Willbrand 100 UI C/ Factor VIII 500 Ui,Ajuste Direto Regime Geral,Aquisição de bens móveis,"33621200-1, Anti-hemorrágicos","Centro Hospitalar Lisboa Norte, EPE (508481287)","CSL Behring, Lda. (503047201)","30.000,00 €",28-01-2013,24-01-2013,1 dias,"Portugal, Lisboa, Lisboa","Artigo 24.º, n.º 1, alínea e) do Código dos Contratos Públicos",,,,,,Não aplicável.,Não aplicável.,
Aquisição de Factor VIII Recombinante S/ Albumina,Ajuste Direto Regime Geral,Aquisição de bens móveis,"33621200-1, Anti-hemorrágicos","Centro Hospitalar Lisboa Norte, EPE (508481287)","Bayer, S.A. (500043256)","18.000,00 €",28-01-2013,24-01-2013,1 dias,"Portugal, Lisboa, Lisboa","Artigo 20.º, n.º 1, alínea a) do Código dos Contratos Públicos",,,,,,Não aplicável.,Não aplicável.,
Aquisição de Gelatina Modificada,Ajuste Direto Regime Geral,Aquisição de bens móveis,"33692500-2, Soluções injectáveis","Centro Hospitalar Lisboa Norte, EPE (508481287)","B. Braun Medical, Lda. (501506543)","54.300,00 €",28-01-2013,22-01-2013,1 dias,"Portugal, Lisboa, Lisboa","Artigo 20.º, n.º 1, alínea a) do Código dos Contratos Públicos",,,,,,Não aplicável.,Não aplicável.,
Aquisição de Electrodos Bipoares,Ajuste Direto Regime Geral,Aquisição de bens móveis,"33182000-9, Material de assistência à função cardíaca","Centro Hospitalar Lisboa Norte, EPE (508481287)","Johnson & Johnson, Lda. (500153370)","12.397,95 €",28-01-2013,28-01-2013,2 dias,"Portugal, Lisboa, Lisboa","Artigo 20.º, n.º 1, alínea a) do Código dos Contratos Públicos",,,,,,Não aplicável.,Não aplicável.,
Aquisição de Kit Tabuleiro p/ Angiografia,Ajuste Direto Regime Geral,Aquisição de bens móveis,"33141000-0, Material médico não químico descartável e produtos hematológicos","Centro Hospitalar Lisboa Norte, EPE (508481287)","B. Braun Medical, Lda. (501506543)","24.000,00 €",28-01-2013,28-01-2013,1 dias,"Portugal, Lisboa, Lisboa","Artigo 20.º, n.º 1, alínea a) do Código dos Contratos Públicos",,,,,,Não aplicável.,Não aplicável.,
Aquisição de Carvão Activado c/ prata Penso,Ajuste Direto Regime Geral,Aquisição de bens móveis,"33690000-3, Medicamentos vários","Centro Hospitalar Lisboa Norte, EPE (508481287)","Smith & Nephew, Lda. (503552461)","6.138,00 €",28-01-2013,28-01-2013,2 dias,"Portugal, Lisboa, Lisboa","Artigo 24.º, n.º 1, alínea e) do Código dos Contratos Públicos",,,,,,Não aplicável.,Não aplicável.,
Aquisição de Consumíveis de Ortopedia,Ajuste Direto Regime Geral,Aquisição de bens móveis,"33141700-7, Material ortopédico","Centro Hospitalar Lisboa Norte, EPE (508481287)","Medtronic, Lda. (504223933)","5.550,00 €",28-01-2013,28-01-2013,1 dias,"Portugal, Lisboa, Lisboa","Artigo 20.º, n.º 1, alínea a) do Código dos Contratos Públicos",,,,,,Não aplicável.,Não aplicável.,
Aquisição de Consmíveis de Ortopedia,Ajuste Direto Regime Geral,Aquisição de bens móveis,"33141700-7, Material ortopédico","Centro Hospitalar Lisboa Norte, EPE (508481287)","Medtronic, Lda. (504223933)","6.548,00 €",28-01-2013,28-01-2013,1 dias,"Portugal, Lisboa, Lisboa","Artigo 20.º, n.º 1, alínea a) do Código dos Contratos Públicos",,,,,,Não aplicável.,Não aplicável.,
Reparação de Angiografia Monoplanar.,Ajuste Direto Regime Geral,Aquisição de serviços,"50421000-2, Serviços de reparação e manutenção de equipamento médico","Centro Hospitalar Lisboa Norte, EPE (508481287)","Toshiba, S.A. (980023700)","24.274,00 €",28-01-2013,28-01-2013,30 dias,"Portugal, Lisboa, Lisboa","Artigo 20.º, n.º 1, alínea a) do Código dos Contratos Públicos",,,,,,Não aplicável.,Não aplicável.,
Aquisição de Material para Oftalmologia,Ajuste Direto Regime Geral,Aquisição de bens móveis,"33141411-4, Bisturis e lâminas","Centro Hospitalar Lisboa Norte, EPE (508481287)","Alcon, lda. (501251685)","9.840,12 €",28-01-2013,28-01-2013,2 dias,"Portugal, Lisboa, Lisboa","Artigo 20.º, n.º 1, alínea a) do Código dos Contratos Públicos",,,,,,Não aplicável.,Não aplicável.,
Aquisição de Material para Cardiologia,Ajuste Direto Regime Geral,Aquisição de bens móveis,"33141200-2, Cateteres","Centro Hospitalar Lisboa Norte, EPE (508481287)","Medtronic Portugal , Lda. (504223933)","12.860,00 €",28-01-2013,28-01-2013,1 dias,"Portugal, Lisboa<BR/>Portugal, Lisboa, Lisboa","Artigo 20.º, n.º 1, alínea a) do Código dos Contratos Públicos",,,,,,Não aplicável.,Não aplicável.,
Reparação de estação de trabalho do Serviço de Imagiologia - Urgência,Ajuste Direto Regime Geral,Aquisição de serviços,"50421000-2, Serviços de reparação e manutenção de equipamento médico","Centro Hospitalar Lisboa Norte, EPE (508481287)",Fujifilm - Sucursal em Portugal (980456517),"9.150,00 €",28-01-2013,28-01-2013,15 dias,"Portugal, Lisboa, Lisboa","Artigo 20.º, n.º 1, alínea a) do Código dos Contratos Públicos",,,,,,Não aplicável.,Não aplicável.,
Aquisição de Inibidor da Alfa 1 Proteinase Inj. 1000 M,Ajuste Direto Regime Geral,Aquisição de bens móveis,"33690000-3, Medicamentos vários","Centro Hospitalar Lisboa Norte, EPE (508481287)","Grifols Portugal, Lda. (502041285)","71.680,00 €",28-01-2013,28-01-2013,1 dias,"Portugal, Lisboa, Lisboa","Artigo 24.º, n.º 1, alínea e) do Código dos Contratos Públicos",,,,,,Não aplicável.,Não aplicável.,
Aquisição de Inibidor Alfa 1 proteinase Inj. 1000 M.,Ajuste Direto Regime Geral,Aquisição de bens móveis,"33690000-3, Medicamentos vários","Centro Hospitalar Lisboa Norte, EPE (508481287)","Grifols Portugal, Lda. (502041285)","57.600,00 €",25-01-2013,25-01-2013,1 dias,"Portugal, Lisboa, Lisboa","Artigo 24.º, n.º 1, alínea e) do Código dos Contratos Públicos",,,,,,Não aplicável.,Não aplicável.,
Aquisição de NTBC Caps. 5 Mg.,Ajuste Direto Regime Geral,Aquisição de bens móveis,"33692200-9, Produtos para nutrição parenteral","Centro Hospitalar Lisboa Norte, EPE (508481287)",Swedish Orphan International Spain (84710623),"24.511,50 €",25-01-2013,25-01-2013,3 dias,"Portugal, Lisboa, Lisboa","Artigo 24.º, n.º 1, alínea e) do Código dos Contratos Públicos",,,,,,Não aplicável.,Não aplicável.,
Aquisição de Bicarbonato Sódio Pó,Ajuste Direto Regime Geral,Aquisição de bens móveis,"33692800-5, Soluções para diálise","Centro Hospitalar Lisboa Norte, EPE (508481287)","Fresenius Medical Care, S.A. (503070220)","10.672,00 €",25-01-2013,24-01-2013,3 dias,"Portugal, Lisboa, Lisboa","Artigo 20.º, n.º 1, alínea a) do Código dos Contratos Públicos",,,,,,Não aplicável.,Não aplicável.,
Aquisição de Cards. Anti A/B/AB/D/CDE 100 cassetes,Ajuste Direto Regime Geral,Aquisição de bens móveis,"33696500-0, Reagentes de laboratório","Centro Hospitalar Lisboa Norte, EPE (508481287)","Johnson & Johnson, Lda. (500153370)","9.738,40 €",25-01-2013,25-01-2013,1 dias,"Portugal, Lisboa, Lisboa","Artigo 24.º, n.º 1, alínea e) do Código dos Contratos Públicos",,,,,,Não aplicável.,Não aplicável.,
Aquisição de Endoprótese Aórtica,Ajuste Direto Regime Geral,Aquisição de bens móveis,"33184500-8, Endopróteses coronárias","Centro Hospitalar Lisboa Norte, EPE (508481287)","Medtronic Portugal, Lda. (504223933)","9.500,00 €",25-01-2013,25-01-2013,1 dias,"Portugal, Lisboa, Lisboa","Artigo 20.º, n.º 1, alínea a) do Código dos Contratos Públicos",,,,,,Não aplicável.,Não aplicável.,
Aquisição de Vinorelbina Caps. 30 mg.,Ajuste Direto Regime Geral,Aquisição de bens móveis,"33652000-5, Antineoplásicos e imunomoduladores","Centro Hospitalar Lisboa Norte, EPE (508481287)","Pierre Fabre, Lda. (500230366)","18.200,00 €",25-01-2013,24-01-2013,1 dias,"Portugal, Lisboa, Lisboa","Artigo 24.º, n.º 1, alínea e) do Código dos Contratos Públicos",,,,,,Não aplicável.,Não aplicável.,
Aquisição de Factor VII C/ Dupla Inactivação Viral 50,Ajuste Direto Regime Geral,Aquisição de bens móveis,"33621200-1, Anti-hemorrágicos","Centro Hospitalar Lisboa Norte, EPE (508481287)","Octapharma, Lda. (502820780)","7.600,00 €",24-01-2013,24-01-2013,2 dias,"Portugal, Lisboa, Lisboa","Artigo 24.º, n.º 1, alínea e) do Código dos Contratos Públicos",,,,,,Não aplicável.,Não aplicável.,
Aquisição de CMV CAp/CTM Teste DET 72,Ajuste Direto Regime Geral,Aquisição de bens móveis,"33696500-0, Reagentes de laboratório","Centro Hospitalar Lisboa Norte, EPE (508481287)","Roche, Lda. (504282921)","7.176,00 €",24-01-2013,24-01-2013,3 dias,"Portugal, Lisboa, Lisboa","Artigo 24.º, n.º 1, alínea e) do Código dos Contratos Públicos",,,,,,Não aplicável.,Não aplicável.,
Aquisição de Tacrolimus Dimension Conj. DET,Ajuste Direto Regime Geral,Aquisição de bens móveis,"33696500-0, Reagentes de laboratório","Centro Hospitalar Lisboa Norte, EPE (508481287)","Siemens, Lda. (507925173)","10.560,00 €",24-01-2013,10-01-2013,3 dias,"Portugal, Lisboa, Lisboa","Artigo 24.º, n.º 1, alínea e) do Código dos Contratos Públicos",,,,,,Não aplicável.,Não aplicável.,
Aquisição de Imunoglubulina Sol. Inj. 165 Mg./Ml. Amp. 10,Ajuste Direto Regime Geral,Aquisição de bens móveis,"33651520-9, Imunoglobulinas","Centro Hospitalar Lisboa Norte, EPE (508481287)","Octapharma, Lda. (502820780)","31.977,00 €",24-01-2013,24-01-2013,2 dias,"Portugal, Lisboa, Lisboa","Artigo 20.º, n.º 1, alínea a) do Código dos Contratos Públicos",,,,,,Não aplicável.,Não aplicável.,
Aquisição de Boceprovir 200 Mg. Caps.,Ajuste Direto Regime Geral,Aquisição de bens móveis,"33651400-2, Antivíricos de uso sistémico","Centro Hospitalar Lisboa Norte, EPE (508481287)","Merck Sharp & Dohme, Lda. (500191360)","99.200,64 €",24-01-2013,24-01-2013,1 dias,"Portugal, Lisboa, Lisboa","Artigo 24.º, n.º 1, alínea e) do Código dos Contratos Públicos",,,,,,Não aplicável.,Não aplicável.,
Aquisição de Factor VIII Recombinante 2000 UI,Ajuste Direto Regime Geral,Aquisição de bens móveis,"33621200-1, Anti-hemorrágicos","Centro Hospitalar Lisboa Norte, EPE (508481287)","Baxter, Lda. (503347345)","120.420,00 €",24-01-2013,24-01-2013,1 dias,"Portugal, Lisboa, Lisboa","Artigo 24.º, n.º 1, alínea e) do Código dos Contratos Públicos",,,,,,Não aplicável.,Não aplicável.,
Aquisição de Omalizumab 150 Mg./1Ml Inj. Seringa,Ajuste Direto Regime Geral,Aquisição de bens móveis,"33670000-7, Medicamentos para o aparelho respiratório","Centro Hospitalar Lisboa Norte, EPE (508481287)","Novartis Farma, S.A. (500063524)","105.749,97 €",24-01-2013,24-01-2013,1 dias,"Portugal, Lisboa, Lisboa","Artigo 24.º, n.º 1, alínea e) do Código dos Contratos Públicos",,,,,,Não aplicável.,Não aplicável.,
Aquisição de Factor VIII Recombinante 500 UI,Ajuste Direto Regime Geral,Aquisição de bens móveis,"33621200-1, Anti-hemorrágicos","Centro Hospitalar Lisboa Norte, EPE (508481287)","Baxter, Lda. (503347345)","60.210,00 €",24-01-2013,24-01-2013,1 dias,"Portugal, Lisboa, Lisboa","Artigo 24.º, n.º 1, alínea e) do Código dos Contratos Públicos",,,,,,Não aplicável.,Não aplicável.,
Aquisição de Aprepitant Caps. 80 Mg.,Ajuste Direto Regime Geral,Aquisição de bens móveis,"33661000-1, Medicamentos para o sistema nervoso","Centro Hospitalar Lisboa Norte, EPE (508481287)","Merck Sharp & Dohme, Lda. (500191360)","14.152,50 €",24-01-2013,24-01-2013,3 dias,"Portugal, Lisboa, Lisboa","Artigo 24.º, n.º 1, alínea e) do Código dos Contratos Públicos",,,,,,Não aplicável.,Não aplicável.,
Aquisição de Endoprótese Torácica,Ajuste Direto Regime Geral,Aquisição de bens móveis,"33184200-5, Próteses vasculares","Centro Hospitalar Lisboa Norte, EPE (508481287)","Medtronic Portugal, Lda. (504223933)","9.500,00 €",24-01-2013,24-01-2013,1 dias,"Portugal, Lisboa, Lisboa","Artigo 20.º, n.º 1, alínea a) do Código dos Contratos Públicos",,,,,,Não aplicável.,Não aplicável.,
Aquisição de material para o Serviço de Cardiologia,Ajuste Direto Regime Geral,Aquisição de bens móveis,"33141200-2, Cateteres","Centro Hospitalar Lisboa Norte, EPE (508481287)","Terumo, S.L. (980472024)","28.469,00 €",24-01-2013,24-01-2013,1 dias,"Portugal, Lisboa, Lisboa","Artigo 20.º, n.º 1, alínea a) do Código dos Contratos Públicos",,,,,,Não aplicável.,Não aplicável.,
Aquisição de Lidocaína Transdérmica Penso 5 %.,Ajuste Direto Regime Geral,Aquisição de bens móveis,"33661100-2, Anestésicos","Centro Hospitalar Lisboa Norte, EPE (508481287)","Grunenthal, S.A. (500101965)","3.925,50 €",23-01-2013,23-01-2013,2 dias,"Portugal, Lisboa, Lisboa","Artigo 24.º, n.º 1, alínea e) do Código dos Contratos Públicos",,,,,,Não aplicável.,Não aplicável.,
Aquisição de Fio Guia,Ajuste Direto Regime Geral,Aquisição de bens móveis,"33141200-2, Cateteres","Centro Hospitalar Lisboa Norte, EPE (508481287)","St. Jude Medical, Lda. (504180746)","6.900,00 €",23-01-2013,23-01-2013,1 dias,"Portugal, Lisboa, Lisboa","Artigo 24.º, n.º 1, alínea a) do Código dos Contratos Públicos",,,,,,Não aplicável.,Não aplicável.,
Aquisiçao de vários Reagentes.,Ajuste Direto Regime Geral,Aquisição de bens móveis,"33696500-0, Reagentes de laboratório","Centro Hospitalar Lisboa Norte, EPE (508481287)","Siemens, Lda. (507925173)","26.131,84 €",23-01-2013,23-01-2013,3 dias,"Portugal, Lisboa, Lisboa","Artigo 24.º, n.º 1, alínea e) do Código dos Contratos Públicos",,,,,,Não aplicável.,Não aplicável.,
Aquisição de Factor VIII Recombinante S/ Albumina 1000,Ajuste Direto Regime Geral,Aquisição de bens móveis,"33621200-1, Anti-hemorrágicos","Centro Hospitalar Lisboa Norte, EPE (508481287)","Laboratórios Pfizer, Lda. (500162166)","41.399,40 €",23-01-2013,23-01-2013,1 dias,"Portugal, Lisboa, Lisboa","Artigo 24.º, n.º 1, alínea e) do Código dos Contratos Públicos",,,,,,Não aplicável.,Não aplicável.,
Aquisição de CDI VR + Electrodo,Ajuste Direto Regime Geral,Aquisição de bens móveis,"33182100-0, Desfibrilhador","Centro Hospitalar Lisboa Norte, EPE (508481287)","Medtronic, Lda. (504223933)","11.500,00 €",23-01-2013,23-01-2013,1 dias,"Portugal, Lisboa, Lisboa","Artigo 20.º, n.º 1, alínea a) do Código dos Contratos Públicos",,,,,,Não aplicável.,Não aplicável.,
"Aquisição de Interferão Alfa 2 A Peguilado 180 Mcg/0,5 Ml. Inj. Caneta",Ajuste Direto Regime Geral,Aquisição de bens móveis,"33652000-5, Antineoplásicos e imunomoduladores","Centro Hospitalar Lisboa Norte, EPE (508481287)","Roche Farmaceutica, Lda. (500233810)","67.340,00 €",23-01-2013,23-01-2013,1 dias,"Portugal, Lisboa, Lisboa","Artigo 24.º, n.º 1, alínea e) do Código dos Contratos Públicos",,,,,,Não aplicável.,Não aplicável.,
Aquisição de Ruxolitinib 20 Mg. Comp.,Ajuste Direto Regime Geral,Aquisição de bens móveis,"33690000-3, Medicamentos vários","Centro Hospitalar Lisboa Norte, EPE (508481287)","Novartis Farma, S.A. (500063524)","8.160,00 €",23-01-2013,23-01-2013,1 dias,"Portugal, Lisboa, Lisboa","Artigo 24.º, n.º 1, alínea e) do Código dos Contratos Públicos",,,,,,Não aplicável.,Não aplicável.,
Aquisição de Protese Valvular,Ajuste Direto Regime Geral,Aquisição de bens móveis,"33184300-6, Próteses cardíacas","Centro Hospitalar Lisboa Norte, EPE (508481287)","Edwards Lifesciences, Lda (508014832)","18.000,00 €",22-01-2013,22-01-2013,1 dias,"Portugal, Lisboa, Lisboa","Artigo 20.º, n.º 1, alínea a) do Código dos Contratos Públicos",,,,,,Não aplicável.,Não aplicável.,
Aquisição de Albumina Humana Sol. Inj. 5% Frs. 250 Ml.,Ajuste Direto Regime Geral,Aquisição de bens móveis,"33692500-2, Soluções injectáveis","Centro Hospitalar Lisboa Norte, EPE (508481287)","Octapharma, Lda. (502820780)","5.000,00 €",22-01-2013,22-01-2013,2 dias,"Portugal, Lisboa, Lisboa","Artigo 20.º, n.º 1, alínea a) do Código dos Contratos Públicos",,,,,,Não aplicável.,Não aplicável.,
Aquisição de CD 34 p/a Clinimacs,Ajuste Direto Regime Geral,Aquisição de bens móveis,"33696500-0, Reagentes de laboratório","Centro Hospitalar Lisboa Norte, EPE (508481287)","Citomed, Lda. (503492043)","10.700,00 €",22-01-2013,21-01-2013,8 dias,"Portugal, Lisboa, Lisboa","Artigo 24.º, n.º 1, alínea e) do Código dos Contratos Públicos",,,,,,Não aplicável.,Não aplicável.,
Aquisição de Romiplostim Inj. 250 Mcg.,Ajuste Direto Regime Geral,Aquisição de bens móveis,"33621200-1, Anti-hemorrágicos","Centro Hospitalar Lisboa Norte, EPE (508481287)","Amgen, Lda. (502942959)","71.085,60 €",22-01-2013,22-01-2013,1 dias,"Portugal, Lisboa, Lisboa","Artigo 24.º, n.º 1, alínea e) do Código dos Contratos Públicos",,,,,,Não aplicável.,Não aplicável.,
"Aquisição de Anakinra Sol. Inj. 100 Mg./0,67 Ml.",Ajuste Direto Regime Geral,Aquisição de bens móveis,"33652000-5, Antineoplásicos e imunomoduladores","Centro Hospitalar Lisboa Norte, EPE (508481287)","Dilofar, Lda. (500563004)","11.639,46 €",22-01-2013,22-01-2013,2 dias,"Portugal, Lisboa, Lisboa","Artigo 24.º, n.º 1, alínea e) do Código dos Contratos Públicos",,,,,,Não aplicável.,Não aplicável.,
"Aquisição de Concentrado de Fobrogenio Humano 1,5 gr.",Ajuste Direto Regime Geral,Aquisição de bens móveis,"33141520-1, Derivados do plasma","Centro Hospitalar Lisboa Norte, EPE (508481287)","CSL Behring, Lda. (503047201)","93.750,00 €",22-01-2013,22-01-2013,1 dias,"Portugal, Lisboa, Lisboa","Artigo 24.º, n.º 1, alínea e) do Código dos Contratos Públicos",,,,,,Não aplicável.,Não aplicável.,
Aquisição de Neuroestimulador Vagal,Ajuste Direto Regime Geral,Aquisição de bens móveis,"33184300-6, Próteses cardíacas","Centro Hospitalar Lisboa Norte, EPE (508481287)","Socime, Lda. (504453939)","10.500,00 €",22-01-2013,22-01-2013,5 dias,"Portugal, Lisboa, Lisboa","Artigo 20.º, n.º 1, alínea a) do Código dos Contratos Públicos",,,,,,Não aplicável.,Não aplicável.,
Aquisição de medicamentos.,Ajuste Direto Regime Geral,Aquisição de bens móveis,"33651520-9, Imunoglobulinas","Centro Hospitalar Lisboa Norte, EPE (508481287)","CSL Behring, Unipessoal, Lda. (500134960)","39.019,12 €",22-01-2013,22-01-2013,1 dias,"Portugal, Lisboa, Lisboa","Artigo 24.º, n.º 1, alínea e) do Código dos Contratos Públicos",,,,,,Não aplicável.,Não aplicável.,
Aquisição de Darbepoetina Alfa Inj. 80 Mcg.,Ajuste Direto Regime Geral,Aquisição de bens móveis,"33621300-2, Antianémicos","Centro Hospitalar Lisboa Norte, EPE (508481287)","Amgen, Lda. (502942959)","23.500,80 €",22-01-2013,22-01-2013,1 dias,"Portugal, Lisboa, Lisboa","Artigo 24.º, n.º 1, alínea e) do Código dos Contratos Públicos",,,,,,Não aplicável.,Não aplicável.,
Aquisição de Proteses Endovasculares,Ajuste Direto Regime Geral,Aquisição de bens móveis,"33184200-5, Próteses vasculares","Centro Hospitalar Lisboa Norte, EPE (508481287)","Biosonda, Lda. (501463313)","34.925,00 €",22-01-2013,22-01-2013,5 dias,"Portugal, Lisboa, Lisboa","Artigo 20.º, n.º 1, alínea a) do Código dos Contratos Públicos",,,,,,Não aplicável.,Não aplicável.,
Aquisição de CDI VR,Ajuste Direto Regime Geral,Aquisição de bens móveis,"33182100-0, Desfibrilhador","Centro Hospitalar Lisboa Norte, EPE (508481287)","St. Jude Medical, Lda. (504180746)","10.320,00 €",22-01-2013,22-01-2013,1 dias,"Portugal, Lisboa, Lisboa","Artigo 20.º, n.º 1, alínea a) do Código dos Contratos Públicos",,,,,,Não aplicável.,Não aplicável.,
Aquisição de Gerador Impulsos Implantável,Ajuste Direto Regime Geral,Aquisição de bens móveis,"33182220-7, Válvulas cardíacas","Centro Hospitalar Lisboa Norte, EPE (508481287)","Medtronic, Lda. (504223933)","11.075,00 €",22-01-2013,22-01-2013,3 dias,"Portugal, Lisboa, Lisboa","Artigo 20.º, n.º 1, alínea a) do Código dos Contratos Públicos",,,,,,Não aplicável.,Não aplicável.,
Aquisição de Carboximaltose Ferrica Inj. 500 Mg./10 Ml.,Ajuste Direto Regime Geral,Aquisição de bens móveis,"33621300-2, Antianémicos","Centro Hospitalar Lisboa Norte, EPE (508481287)","OM Pharma, S.A. (500207410)","15.748,16 €",22-01-2013,17-01-2013,3 dias,"Portugal, Lisboa, Lisboa","Artigo 24.º, n.º 1, alínea e) do Código dos Contratos Públicos",,,,,,Não aplicável.,Não aplicável.,
"Aquisição de Solução Ácida para Hemodiálise C/ 1,5 MMOL",Ajuste Direto Regime Geral,Aquisição de bens móveis,"33692800-5, Soluções para diálise","Centro Hospitalar Lisboa Norte, EPE (508481287)","Fresenius Medical Care, S.A. (503070220)","6.451,20 €",22-01-2013,22-01-2013,3 dias,"Portugal, Lisboa, Lisboa","Artigo 20.º, n.º 1, alínea a) do Código dos Contratos Públicos",,,,,,Não aplicável.,Não aplicável.,
"Aquisição de Cloreto de Sódio 0,9 % Sol. Inj. Saco Plástico",Ajuste Direto Regime Geral,Aquisição de bens móveis,"33692500-2, Soluções injectáveis","Centro Hospitalar Lisboa Norte, EPE (508481287)","Baxter, Lda. (503347345)","23.433,00 €",22-01-2013,22-01-2013,1 dias,"Portugal, Lisboa, Lisboa","Artigo 20.º, n.º 1, alínea a) do Código dos Contratos Públicos",,,,,,Não aplicável.,Não aplicável.,
Aquisição de Capsula Endoscópica,Ajuste Direto Regime Geral,Aquisição de bens móveis,"33140000-3, Material médico de consumo","Centro Hospitalar Lisboa Norte, EPE (508481287)","Endotécnica, Lda. (503818348)","11.000,00 €",22-01-2013,22-01-2013,2 dias,"Portugal, Lisboa, Lisboa","Artigo 20.º, n.º 1, alínea a) do Código dos Contratos Públicos",,,,,,Não aplicável.,Não aplicável.,
Reparação de Ecografo (Up-grade),Ajuste Direto Regime Geral,Aquisição de serviços,"50421000-2, Serviços de reparação e manutenção de equipamento médico","Centro Hospitalar Lisboa Norte, EPE (508481287)","Toshiba Medical Systems, S.A. (980023700)","37.000,00 €",21-01-2013,21-01-2013,30 dias,"Portugal, Lisboa, Lisboa","Artigo 20.º, n.º 1, alínea a) do Código dos Contratos Públicos",,,,,,Não aplicável.,Não aplicável.,
Aquisição de Stents em Nitinol,Ajuste Direto Regime Geral,Aquisição de bens móveis,"33184200-5, Próteses vasculares","Centro Hospitalar Lisboa Norte, EPE (508481287)","Biomédica, Lda. (501745459)","30.250,00 €",21-01-2013,21-01-2013,1 dias,"Portugal, Lisboa, Lisboa","Artigo 20.º, n.º 1, alínea a) do Código dos Contratos Públicos",,,,,,Não aplicável.,Não aplicável.,
Aquisição de Factor VIII C/ dupla Inactivação Viral 1000 UI,Ajuste Direto Regime Geral,Aquisição de bens móveis,"33621200-1, Anti-hemorrágicos","Centro Hospitalar Lisboa Norte, EPE (508481287)","Octapharma, Lda. (502820780)","64.600,00 €",21-01-2013,16-01-2013,2 dias,"Portugal, Lisboa, Lisboa","Artigo 24.º, n.º 1, alínea e) do Código dos Contratos Públicos",,,,,,Não aplicável.,Não aplicável.,
Aquisição de Duranavir Comp. Revestidos 600 Mg.,Ajuste Direto Regime Geral,Aquisição de bens móveis,"33651400-2, Antivíricos de uso sistémico","Centro Hospitalar Lisboa Norte, EPE (508481287)","Janssen-Cilag, Lda. (500189412)","75.844,80 €",21-01-2013,21-01-2013,2 dias,"Portugal, Lisboa, Lisboa","Artigo 24.º, n.º 1, alínea e) do Código dos Contratos Públicos",,,,,,Não aplicável.,Não aplicável.,
Aquisição de Endoprótese Toracica,Ajuste Direto Regime Geral,Aquisição de bens móveis,"33184200-5, Próteses vasculares","Centro Hospitalar Lisboa Norte, EPE (508481287)","Medicinália-Cormédica, Lda. (500684324)","23.530,00 €",21-01-2013,21-01-2013,1 dias,"Portugal, Lisboa, Lisboa","Artigo 20.º, n.º 1, alínea a) do Código dos Contratos Públicos",,,,,,Não aplicável.,Não aplicável.,
"Aquisição de Interferão Beta 1 A MUI/0,5 Ml Inj. Caneta",Ajuste Direto Regime Geral,Aquisição de bens móveis,"33652000-5, Antineoplásicos e imunomoduladores","Centro Hospitalar Lisboa Norte, EPE (508481287)","Biogen Idec, Lda. (506415740)","92.991,60 €",21-01-2013,21-01-2013,1 dias,"Portugal, Lisboa, Lisboa","Artigo 24.º, n.º 1, alínea e) do Código dos Contratos Públicos",,,,,,Não aplicável.,Não aplicável.,
Aquisição de Consumíveis para o Serviço de Urologia,Ajuste Direto Regime Geral,Aquisição de bens móveis,"33158210-7, Estimulador","Centro Hospitalar Lisboa Norte, EPE (508481287)","Medtronic Portugal, Lda. (504223933)","13.900,00 €",21-01-2013,21-01-2013,3 dias,"Portugal, Lisboa, Lisboa","Artigo 20.º, n.º 1, alínea a) do Código dos Contratos Públicos",,,,,,Não aplicável.,Não aplicável.,
Aquisição de CDI VR,Ajuste Direto Regime Geral,Aquisição de bens móveis,"33182100-0, Desfibrilhador","Centro Hospitalar Lisboa Norte, EPE (508481287)","Medtronic Portugal, Lda. (504223933)","10.320,00 €",21-01-2013,21-01-2013,1 dias,"Portugal, Lisboa, Lisboa","Artigo 20.º, n.º 1, alínea a) do Código dos Contratos Públicos",,,,,,Não aplicável.,Não aplicável.,
