Objeto do Contrato,Tipo de Procedimento,Tipo(s) de Contrato,CPVs,Entidade(s) Adjudicante(s),Entidade(s) Adjudicatária(s),Preço Contratual,Data de Publicação,Data de Celebração do Contrato,Prazo de Execução,Local de Execução,Fundamentação,Data de Fecho do Contrato,Preço Total Efetivo,Causas das Alterações ao Prazo,Causas das Alterações ao Preço,Estado,N.º registo do Acordo Quadro,Descrição do Acordo Quadro,Procedimento Centralizado
"Prestação de Serviços de Manutenção e Assistência Técnica de Dispositivos Médicos, existentes na ULSNA, EPE",Ajuste Direto Regime Geral,Aquisição de serviços,"50000000-5, Serviços de reparação e manutenção","Unidade Local de Saúde do Norte Alentejano, E. P. E. (508094461)",PULMOCOR (501402578),"6.600,96 €",09-06-2014,25-02-2014,365 dias,"Portugal, Portalegre, Portalegre","Artigo 24.º, n.º 1, alínea e) do Código dos Contratos Públicos",25-02-2014,"6.600,96 €",,,,Não aplicável.,Não aplicável.,FALSE
"Prestação de Serviços de Assistência Técnica a 4 Elevadores do HDJMG, Existentes na ULSNA, EPE",Ajuste Direto Regime Geral,Aquisição de serviços,"50000000-5, Serviços de reparação e manutenção","Unidade Local de Saúde do Norte Alentejano, E. P. E. (508094461)","OTIS Elevadores, Lda. (500069824)","11.788,20 €",09-06-2014,12-03-2014,365 dias,"Portugal, Portalegre, Portalegre","Artigo 20.º, n.º 1, alínea a) do Código dos Contratos Públicos",12-03-2014,"11.788,20 €",,,,Não aplicável.,Não aplicável.,FALSE
PRESTAÇÃO DE SERVIÇOS DE COMUNICAÇÕES MÓVEIS DE VOZ PARA A ULSNA (ABRIL A jUNHO),Ajuste Direto Regime Geral,Aquisição de serviços,"64200000-8, Serviços de telecomunicações","Unidade Local de Saúde do Norte Alentejano, E. P. E. (508094461)",TMN - TELECOMUNICAÇÕES MOVEIS NACIONAIS S.A (502600268),"6.333,90 €",09-06-2014,15-05-2014,90 dias,"Portugal, Portalegre, Portalegre","Artigo 24.º, n.º 1, alínea c) do Código dos Contratos Públicos",30-06-2014,"6.333,90 €",,,,Não aplicável.,Não aplicável.,FALSE
"Prestação de Serviços de Manutenção para os Equipamentos Maquet Critical Care, existentes na ULSNA, EPE, Ano 2014.",Ajuste Direto Regime Geral,Aquisição de serviços,"50000000-5, Serviços de reparação e manutenção","Unidade Local de Saúde do Norte Alentejano, E. P. E. (508094461)",MAQUET (506819698),"11.520,00 €",09-06-2014,05-03-2014,365 dias,"Portugal, Portalegre, Portalegre","Artigo 24.º, n.º 1, alínea e) do Código dos Contratos Públicos",05-03-2014,"11.520,00 €",,,,Não aplicável.,Não aplicável.,FALSE
"Prestação de Serviços de Manutenção Preventiva e Curativa aos Equipamentos STERRAD NX e Máquina de Lavagem de Endoscópios, da Unidade Local de Saúde do Norte Alentejano, EPE., (Ano 2014)",Ajuste Direto Regime Geral,Aquisição de serviços,"50000000-5, Serviços de reparação e manutenção","Unidade Local de Saúde do Norte Alentejano, E. P. E. (508094461)",Johnson & Johnson (500153370),"15.400,00 €",09-06-2014,01-04-2014,365 dias,"Portugal, Portalegre, Portalegre","Artigo 24.º, n.º 1, alínea e) do Código dos Contratos Públicos",01-04-2014,"15.400,00 €",,,,Não aplicável.,Não aplicável.,FALSE
"Prestação de Serviços de Manutenção dos Quadros Eléctricos, Postos de Transformação, e duas UPS´S do HDJMG",Ajuste Direto Regime Geral,Aquisição de serviços,"50000000-5, Serviços de reparação e manutenção","Unidade Local de Saúde do Norte Alentejano, E. P. E. (508094461)",SCHNEIDER Electric (500281858),"9.695,00 €",06-06-2014,05-03-2014,365 dias,"Portugal, Portalegre, Portalegre","Artigo 24.º, n.º 1, alínea e) do Código dos Contratos Públicos",05-03-2014,"9.695,00 €",,,,Não aplicável.,Não aplicável.,FALSE
"Prestação de Serviços de Assistência Técnica de Três Lasers da ULSNA, EPE",Ajuste Direto Regime Geral,Aquisição de serviços,"50000000-5, Serviços de reparação e manutenção","Unidade Local de Saúde do Norte Alentejano, E. P. E. (508094461)",José Cotta (500155739),"5.011,00 €",06-06-2014,12-03-2014,365 dias,"Portugal, Portalegre, Portalegre","Artigo 24.º, n.º 1, alínea e) do Código dos Contratos Públicos",12-03-2014,"5.011,00 €",,,,Não aplicável.,Não aplicável.,FALSE
"Prestação de Serviços de Manutenção e Assistência Técnica aos Equipamentos Iberdata, existentes na ULSNA, EPE",Ajuste Direto Regime Geral,Aquisição de serviços,"50000000-5, Serviços de reparação e manutenção","Unidade Local de Saúde do Norte Alentejano, E. P. E. (508094461)",IBERDATA (501904921),"7.942,94 €",06-06-2014,05-05-2014,365 dias,"Portugal, Portalegre, Portalegre","Artigo 24.º, n.º 1, alínea e) do Código dos Contratos Públicos",05-05-2014,"7.942,94 €",,,,Não aplicável.,Não aplicável.,FALSE
"Prestação de Serviços de Manutenção Preventiva e Correctiva dos Equipamentos Kardex, Embaladoras, e PYXIS da ULSNA, EPE",Ajuste Direto Regime Geral,Aquisição de serviços,"50000000-5, Serviços de reparação e manutenção","Unidade Local de Saúde do Norte Alentejano, E. P. E. (508094461)",GRIFOLS (502041285),"19.856,94 €",06-06-2014,15-05-2014,365 dias,"Portugal, Portalegre, Portalegre","Artigo 24.º, n.º 1, alínea e) do Código dos Contratos Públicos",15-05-2014,"19.856,94 €",,,,Não aplicável.,Não aplicável.,FALSE
"Prestação de Serviços de Manutenção e Assistência Técnica aos Equipamnetos de Marca Welch Allyn e Valleylab, da ULSNA, EPE",Ajuste Direto Regime Geral,Aquisição de serviços,"50000000-5, Serviços de reparação e manutenção","Unidade Local de Saúde do Norte Alentejano, E. P. E. (508094461)",ELNOR (500094403),"5.840,16 €",06-06-2014,05-03-2014,365 dias,"Portugal, Portalegre, Portalegre","Artigo 24.º, n.º 1, alínea e) do Código dos Contratos Públicos",05-03-2014,"5.840,16 €",,,,Não aplicável.,Não aplicável.,FALSE
"Prestação de Serviços de Manutenção Preventiva e Correctiva de UPS'S, existentes na ULSNA, EPE",Ajuste Direto Regime Geral,Aquisição de serviços,"50000000-5, Serviços de reparação e manutenção","Unidade Local de Saúde do Norte Alentejano, E. P. E. (508094461)",EMERSON (503322520),"9.616,43 €",06-06-2014,19-02-2014,365 dias,"Portugal, Portalegre, Portalegre","Artigo 24.º, n.º 1, alínea e) do Código dos Contratos Públicos",19-02-2014,"9.616,43 €",,,,Não aplicável.,Não aplicável.,FALSE
AQUISIÇÃO DE MEDICAMENTOS EXCLUSIVOS,Ajuste Direto Regime Geral,Aquisição de bens móveis,"33000000-0, Equipamento médico, medicamentos e produtos para cuidados pessoais","Unidade Local de Saúde do Norte Alentejano, E. P. E. (508094461)",ETIOPHARMA SA (509393357),"9.900,00 €",05-06-2014,05-06-2014,240 dias,"Portugal, Portalegre, Elvas<BR/>Portugal, Portalegre, Portalegre","Artigo 24.º, n.º 1, alínea e) do Código dos Contratos Públicos",05-06-2015,"9.900,00 €",,,,Não aplicável.,Não aplicável.,FALSE
Aquisição de Produtos Farmacêuticos Exclusivos,Ajuste Direto Regime Geral,Aquisição de bens móveis,"33000000-0, Equipamento médico, medicamentos e produtos para cuidados pessoais","Unidade Local de Saúde do Norte Alentejano, E. P. E. (508094461)","Abbott Medical Optics Spain, SL (980262364)","15.458,40 €",05-06-2014,06-05-2014,300 dias,"Portugal, Portalegre, Portalegre<BR/>Portugal, Portalegre, Elvas","Artigo 24.º, n.º 1, alínea e) do Código dos Contratos Públicos",06-05-2014,"15.458,40 €",,,,Não aplicável.,Não aplicável.,FALSE
"PRESTAÇÃO DE SERVIÇOS DE CODIFICAÇÃO CLINICA PARA A ULSNA, EPE, ANO 2014",Ajuste Direto Regime Geral,Aquisição de serviços,"85100000-0, Serviços de saúde","Unidade Local de Saúde do Norte Alentejano, E. P. E. (508094461)","Medadvance - Prestação de Serviços Médicos, Lda. (510430996)","20.000,00 €",04-06-2014,26-03-2014,365 dias,"Portugal, Portalegre, Portalegre","Artigo 20.º, n.º 1, alínea a) do Código dos Contratos Públicos",26-03-2014,"20.000,00 €",,,,Não aplicável.,Não aplicável.,FALSE
