Objeto do Contrato,Tipo de Procedimento,Tipo(s) de Contrato,CPVs,Entidade(s) Adjudicante(s),Entidade(s) Adjudicatária(s),Preço Contratual,Data de Publicação,Data de Celebração do Contrato,Prazo de Execução,Local de Execução,Fundamentação,Data de Fecho do Contrato,Preço Total Efetivo,Causas das Alterações ao Prazo,Causas das Alterações ao Preço,Estado,N.º registo do Acordo Quadro,Descrição do Acordo Quadro,Procedimento Centralizado
Prestação de Serviços de Telerradiologia,Ajuste Direto Regime Geral,Aquisição de serviços,"85150000-5, Serviços de imagiologia médica","Administração Regional de Saúde do Algarve, I. P. (503148709)",Fernando Sancho Lda (500602522),"9.124,20 €",09-12-2016,05-12-2016,22 dias,"Portugal, Faro, Faro","Artigo 20.º, n.º 1, alínea a) do Código dos Contratos Públicos","","","","",,Não aplicável.,Não aplicável.,FALSE
Aquisição de Seringa Disposable,Ao abrigo de acordo-quadro (art.º 259.º),Aquisição de bens móveis,"33141128-3, Agulhas de sutura","Administração Regional de Saúde do Algarve, I. P. (503148709)","Docworld, Lda (508592909)","1.458,24 €",09-12-2016,09-12-2016,22 dias,"Portugal, Faro, Faro",Artigo 259.º do Código dos Contratos Públicos,"","","","",,1341769,"ACORDO QUADRO PARA FORNECIMENTO DE SERINGAS, AGULHAS E CONTENTORES ÀS INSTITUIÇÕES E SERVIÇOS DO SERVIÇO NACIONAL DE SAÚDE PROGRAMA DE CONCURSO",FALSE
Aquisição de Kit´s ginecológicos para o processamento de citologia cervical em meio liquido.,Concurso público,Aquisição de bens móveis,"33141625-7, Kits de diagnóstico","Administração Regional de Saúde do Algarve, I. P. (503148709)",HOLOGIC IBERIA S. L UNIPERSONAL (980277230),"75.900,00 €",07-12-2016,24-11-2016,37 dias,"Portugal, Faro, Faro","Artigo 20.º, n.º 1, alínea b) do Código dos Contratos Públicos",31-12-2016,"75.900,00 €","","",,Não aplicável.,Não aplicável.,FALSE
Aquisição de Sistema de Registo de Assiduidade,Ajuste Direto Regime Geral,Aquisição de serviços,"72230000-6, Serviços de desenvolvimento de software à medida","Administração Regional de Saúde do Algarve, I. P. (503148709)","ELO - Sistemas de Informação, Lda (503258601)","13.448,00 €",07-12-2016,21-11-2016,24 dias,"Portugal, Faro, Faro","Artigo 20.º, n.º 1, alínea a) do Código dos Contratos Públicos",31-12-2017,"13.448,00 €",....,...,,Não aplicável.,Não aplicável.,FALSE
Aquisição de Sistema de Registo de Assiduidade,Ajuste Direto Regime Geral,Aquisição de bens móveis,"30210000-4, Máquinas de processamento de dados (hardware)","Administração Regional de Saúde do Algarve, I. P. (503148709)","ELO - Sistemas de Informação, Lda (503258601)","40.910,50 €",07-12-2016,21-11-2016,24 dias,"Portugal, Faro, Faro","Artigo 20.º, n.º 1, alínea a) do Código dos Contratos Públicos",31-12-2017,"40.910,50 €",....,...,,Não aplicável.,Não aplicável.,FALSE
AD/181/2016 - Aquisição de Reagentes Diagnóstico Rápido,Ajuste Direto Regime Geral,Aquisição de bens móveis,"33696500-0, Reagentes de laboratório","Administração Regional de Saúde do Algarve, I. P. (503148709)","Abbott Laboratórios, Lda. (500006148)","7.676,01 €",06-12-2016,06-12-2016,25 dias,"Portugal, Faro, Faro","Artigo 20.º, n.º 1, alínea a) do Código dos Contratos Públicos",23-12-2016,"9.602,00 €","",Quantidades fornecidas.,,Não aplicável.,Não aplicável.,FALSE
Prestação de Serviços em Regime de Avença de Assistente Técnica para o CAD (DSPP),Ajuste Direto Regime Geral,Aquisição de serviços,"75122000-7, Serviços administrativos na área da saúde","Administração Regional de Saúde do Algarve, I. P. (503148709)",Ana Cristina Maria Labóia (154069892),"10.246,92 €",05-12-2016,02-12-2016,365 dias,"Portugal, Faro, Faro","Artigo 20.º, n.º 1, alínea a) do Código dos Contratos Públicos","","","","",,Não aplicável.,Não aplicável.,FALSE
Aquisição de Material de Investimento,Ajuste Direto Regime Geral,Aquisição de bens móveis,"33100000-1, Equipamento médico","Administração Regional de Saúde do Algarve, I. P. (503148709)","Bramédica FISIO Produtos de Saúde, Lda (508560152)","1.997,28 €",02-12-2016,18-11-2016,29 dias,"Portugal, Faro, Faro","Artigo 20.º, n.º 1, alínea a) do Código dos Contratos Públicos",12-07-2017,"1.997,28 €",.,.,,Não aplicável.,Não aplicável.,FALSE
Aquisição de Material de Investimento,Ajuste Direto Regime Geral,Aquisição de bens móveis,"33100000-1, Equipamento médico","Administração Regional de Saúde do Algarve, I. P. (503148709)","Eurocasmédica, Produtos Hospitalares Lda (503322105)","4.574,70 €",02-12-2016,18-11-2016,29 dias,"Portugal, Faro, Faro","Artigo 20.º, n.º 1, alínea a) do Código dos Contratos Públicos",12-07-2017,"4.574,70 €",.,.,,Não aplicável.,Não aplicável.,FALSE
