Objeto do Contrato,Tipo de Procedimento,Tipo(s) de Contrato,CPVs,Entidade(s) Adjudicante(s),Entidade(s) Adjudicatária(s),Preço Contratual,Data de Publicação,Data de Celebração do Contrato,Prazo de Execução,Local de Execução,Fundamentação,Data de Fecho do Contrato,Preço Total Efetivo,Causas das Alterações ao Prazo,Causas das Alterações ao Preço,Estado,N.º registo do Acordo Quadro,Descrição do Acordo Quadro,Procedimento Centralizado
"Droperidol 2,5 mg/ 1 ml Sol inj  IM, IV",Ao abrigo de acordo-quadro (art.º 258.º),Aquisição de bens móveis,"33600000-6, Produtos farmacêuticos",Instituto de Oftalmologia do Dr. Gama Pinto (600000052),OVERPHARMA (505792362),"40,00 €",08-08-2017,07-08-2017,30 dias,"Portugal, Lisboa, Lisboa",Artigo 258.º do Código dos Contratos Públicos,30-08-2017,"40,00 €",,"",,2356543,CP 2016/19 - Medicamentos Antipsicóticos,FALSE
Packs Faco Standarizado p/ cirurgia de catarata,Ajuste Direto Regime Geral,Aquisição de bens móveis,"33160000-9, Técnicas cirúrgicas",Instituto de Oftalmologia Doutor Gama Pinto (IOGP) (600000052),Bausch + Lomb (980218764),"13.600,00 €",08-08-2017,14-11-2016,50 dias,"Portugal, Lisboa, Lisboa","Artigo 20.º, n.º 1, alínea a) do Código dos Contratos Públicos",08-08-2017,"13.600,00 €",,"",,Não aplicável.,Não aplicável.,FALSE
Faca p/ Vitrectomia 20G e Faca Mini Crescente,Ajuste Direto Regime Geral,Aquisição de bens móveis,"33141411-4, Bisturis e lâminas",Instituto de Oftalmologia do Dr. Gama Pinto (600000052),OVERPHARMA (505792362),"2.655,00 €",08-08-2017,07-02-2017,327 dias,"Portugal, Lisboa, Lisboa","Artigo 20.º, n.º 1, alínea a) do Código dos Contratos Públicos",08-08-2017,"2.655,00 €",,"",,Não aplicável.,Não aplicável.,FALSE
Traqueia de Harmónio Flexível Adulto,Ajuste Direto Regime Geral,Aquisição de bens móveis,"33140000-3, Material médico de consumo",Instituto de Oftalmologia do Dr. Gama Pinto (600000052),"INTERSURGICAL, LDA. (503480045)","337,50 €",07-08-2017,15-02-2017,316 dias,"Portugal, Lisboa, Lisboa","Artigo 20.º, n.º 1, alínea a) do Código dos Contratos Públicos",07-08-2017,"337,50 €",,"",,Não aplicável.,Não aplicável.,FALSE
Protetor p/ instrumentos cirúrgicos,Ajuste Direto Regime Geral,Aquisição de bens móveis,"33190000-8, Dispositivos e produtos médicos variados",Instituto de Oftalmologia do Dr. Gama Pinto (600000052),EUROCASMEDICA (503322105),"322,00 €",04-08-2017,07-03-2017,299 dias,"Portugal, Lisboa, Lisboa","Artigo 20.º, n.º 1, alínea a) do Código dos Contratos Públicos",04-08-2017,"322,00 €",,"",,Não aplicável.,Não aplicável.,FALSE
Filtros A e B,Ajuste Direto Regime Geral,Aquisição de bens móveis,"33140000-3, Material médico de consumo",Instituto de Oftalmologia do Dr. Gama Pinto (600000052),VITATECH (510693660),"1.087,50 €",04-08-2017,02-02-2017,332 dias,"Portugal, Lisboa, Lisboa","Artigo 24.º, n.º 1, alínea e) do Código dos Contratos Públicos",04-08-2017,"1.087,50 €",,"",,Não aplicável.,Não aplicável.,FALSE
Filtros Humificadores Adulto e Pediátrico,Ajuste Direto Regime Geral,Aquisição de bens móveis,"33170000-2, Anestesia e reanimação",Instituto de Oftalmologia do Dr. Gama Pinto (600000052),"INTERSURGICAL, LDA. (503480045)","305,00 €",04-08-2017,02-03-2017,302 dias,"Portugal, Lisboa, Lisboa","Artigo 20.º, n.º 1, alínea a) do Código dos Contratos Públicos",04-08-2017,"305,00 €",,"",,Não aplicável.,Não aplicável.,FALSE
Kit de Verteporfina,Ajuste Direto Regime Geral,Aquisição de bens móveis,"33160000-9, Técnicas cirúrgicas",Instituto de Oftalmologia do Dr. Gama Pinto (600000052),NOVARTIS CONSUMER HEALTH-PROD.FARM NUTRI (500268215),"816,00 €",04-08-2017,02-02-2017,332 dias,"Portugal, Lisboa, Lisboa","Artigo 24.º, n.º 1, alínea e) do Código dos Contratos Públicos",04-08-2017,"816,00 €",,"",,Não aplicável.,Não aplicável.,FALSE
Sensor O2,Ajuste Direto Regime Geral,Aquisição de bens móveis,"33190000-8, Dispositivos e produtos médicos variados",Instituto de Oftalmologia do Dr. Gama Pinto (600000052),"DRAGER PORTUGAL, S.A. (508771323)","292,40 €",04-08-2017,02-02-2017,332 dias,"Portugal, Lisboa, Lisboa","Artigo 20.º, n.º 1, alínea a) do Código dos Contratos Públicos",04-08-2017,"292,40 €",,"",,Não aplicável.,Não aplicável.,FALSE
Luvas de Exame,Ajuste Direto Regime Geral,Aquisição de bens móveis,"33141000-0, Material médico não químico descartável e produtos hematológicos",Instituto de Oftalmologia do Dr. Gama Pinto (600000052),"MEDICINALIA SOCIEDADE  EQUIPAMENTO HOSPIT., SA (500189420)","541,80 €",04-08-2017,07-03-2017,299 dias,"Portugal, Lisboa, Lisboa","Artigo 20.º, n.º 1, alínea a) do Código dos Contratos Públicos",04-08-2017,"541,80 €",,"",,Não aplicável.,Não aplicável.,FALSE
Luvas Microcirurgia,Ajuste Direto Regime Geral,Aquisição de bens móveis,"33141420-0, Luvas para cirurgia",Instituto de Oftalmologia do Dr. Gama Pinto (600000052),"ANASTACIO SALDANHA UNIPESSOAL, LDA. (505804441)","4.894,80 €",04-08-2017,07-03-2017,330 dias,"Portugal, Lisboa, Lisboa","Artigo 20.º, n.º 1, alínea a) do Código dos Contratos Públicos",04-08-2017,"4.894,80 €",,"",,Não aplicável.,Não aplicável.,FALSE
Batas Cirúrgicas Esterilizadas,Ajuste Direto Regime Geral,Aquisição de bens móveis,"33141000-0, Material médico não químico descartável e produtos hematológicos",Instituto de Oftalmologia do Dr. Gama Pinto (600000052),"SFERAMED-MEDICAL SUPPLIER,LDA. (509762344)","1.266,72 €",03-08-2017,09-03-2017,297 dias,"Portugal, Lisboa, Lisboa","Artigo 20.º, n.º 1, alínea a) do Código dos Contratos Públicos",03-08-2017,"1.252,80 €",,Teve a ver com a quantidade de artigos por caixa,,Não aplicável.,Não aplicável.,FALSE
Electrodos,Ajuste Direto Regime Geral,Aquisição de bens móveis,"33169000-2, Material cirúrgico",Instituto de Oftalmologia do Dr. Gama Pinto (600000052),"MEDTRONIC PORTUGAL, LDA. (504223933)","580,00 €",02-08-2017,22-02-2017,312 dias,"Portugal, Lisboa, Lisboa","Artigo 20.º, n.º 1, alínea a) do Código dos Contratos Públicos",02-08-2017,"580,00 €",,"",,Não aplicável.,Não aplicável.,FALSE
Tubos de Mayo,Ajuste Direto Regime Geral,Aquisição de bens móveis,"33141600-6, Tubos e sacos de drenagem e respectivos kits",Instituto de Oftalmologia do Dr. Gama Pinto (600000052),"INTERSURGICAL, LDA. (503480045)","46,20 €",02-08-2017,07-02-2017,327 dias,"Portugal, Lisboa, Lisboa","Artigo 20.º, n.º 1, alínea a) do Código dos Contratos Públicos",02-08-2017,"25,20 €",,Não foi necessário a compra dos tubos n.º 2,,Não aplicável.,Não aplicável.,FALSE
Penso Ocular Estéril,Ajuste Direto Regime Geral,Aquisição de bens móveis,"33141110-4, Pensos",Instituto de Oftalmologia do Dr. Gama Pinto (600000052),"AVIQUÍMICA IMPORT. E MANUFACTURAS, LDA. (500039720)","96,00 €",02-08-2017,13-02-2017,320 dias,"Portugal, Lisboa, Lisboa","Artigo 20.º, n.º 1, alínea a) do Código dos Contratos Públicos",02-08-2017,"96,00 €",,"",,Não aplicável.,Não aplicável.,FALSE
Torneira 3 vias,Ao abrigo de acordo-quadro (art.º 259.º),Aquisição de bens móveis,"33141200-2, Cateteres",Instituto de Oftalmologia Doutor Gama Pinto (IOGP) (600000052),Socime II (504453939),"11,40 €",02-08-2017,07-02-2017,320 dias,"Portugal, Lisboa, Lisboa",Artigo 259.º do Código dos Contratos Públicos,17-08-2017,"11,40 €",,"",,2622225,CP 2017/26 - Acordo Quadro para Fornecimento de Cateteres   às Instituições e Serviços do Serviço Nacional de Saúde,FALSE
Válvula e Torneiras com prolongamentos,Ao abrigo de acordo-quadro (art.º 259.º),Aquisição de bens móveis,"33141200-2, Cateteres",Instituto de Oftalmologia Doutor Gama Pinto (IOGP) (600000052),"P.M.H. PRODUTOS MEDICO HOSPITALARES, SA (502376899)","1.094,00 €",02-08-2017,07-02-2017,320 dias,"Portugal, Lisboa, Lisboa",Artigo 259.º do Código dos Contratos Públicos,02-08-2017,"1.094,00 €",,"",,2622225,CP 2017/26 - Acordo Quadro para Fornecimento de Cateteres   às Instituições e Serviços do Serviço Nacional de Saúde,FALSE
Cateteres,Ao abrigo de acordo-quadro (art.º 259.º),Aquisição de bens móveis,"33141200-2, Cateteres",Instituto de Oftalmologia Doutor Gama Pinto (IOGP) (600000052),"B. Braun Medical, Lda. (501506543)","1.804,00 €",02-08-2017,07-02-2017,320 dias,"Portugal, Lisboa, Lisboa",Artigo 259.º do Código dos Contratos Públicos,02-08-2017,"1.804,00 €",,"",,2622225,CP 2017/26 - Acordo Quadro para Fornecimento de Cateteres   às Instituições e Serviços do Serviço Nacional de Saúde,FALSE
Cautérios Baixa Temperatura,Ajuste Direto Regime Geral,Aquisição de bens móveis,"33140000-3, Material médico de consumo",Instituto de Oftalmologia do Dr. Gama Pinto (600000052),"OFTALDATA-PRODUTOS OFTALMOLOGIA, LDA (504887459)","190,95 €",01-08-2017,02-03-2017,153 dias,"Portugal, Lisboa, Lisboa","Artigo 20.º, n.º 1, alínea a) do Código dos Contratos Públicos",01-08-2017,"190,95 €",,"",,Não aplicável.,Não aplicável.,FALSE
Sistema de Injecção e extracção de óleo de silicone,Ajuste Direto Regime Geral,Aquisição de bens móveis,"33140000-3, Material médico de consumo",Instituto de Oftalmologia do Dr. Gama Pinto (600000052),Bausch + Lomb (980218764),"990,00 €",01-08-2017,02-02-2017,153 dias,"Portugal, Lisboa, Lisboa","Artigo 24.º, n.º 1, alínea e) do Código dos Contratos Públicos",01-08-2017,"990,00 €",,"",,Não aplicável.,Não aplicável.,FALSE
Lâmina de Bisturi,Ajuste Direto Regime Geral,Aquisição de bens móveis,"33141411-4, Bisturis e lâminas",Instituto de Oftalmologia do Dr. Gama Pinto (600000052),"ANASTÁCIO SALDANHA, UNIPESSOAL, LDA (505804441)","7,60 €",01-08-2017,20-02-2017,153 dias,"Portugal, Lisboa, Lisboa","Artigo 20.º, n.º 1, alínea a) do Código dos Contratos Públicos",01-08-2017,"7,60 €",,"",,Não aplicável.,Não aplicável.,FALSE
Facas 2.65mm,Ajuste Direto Regime Geral,Aquisição de bens móveis,"33141000-0, Material médico não químico descartável e produtos hematológicos",Instituto de Oftalmologia do Dr. Gama Pinto (600000052),"OFTALDATA-PRODUTOS OFTALMOLOGIA, LDA (504887459)","280,80 €",01-08-2017,01-08-2017,153 dias,"Portugal, Lisboa, Lisboa","Artigo 20.º, n.º 1, alínea a) do Código dos Contratos Públicos",01-08-2017,"280,80 €",,"",,Não aplicável.,Não aplicável.,FALSE
Agulhas de Faco Signature,Ajuste Direto Regime Geral,Aquisição de bens móveis,"33141320-9, Agulhas para fins médicos",Instituto de Oftalmologia Doutor Gama Pinto (IOGP) (600000052),ABBOTT MEDICAL OPTICS SPAIN S.L. (980262364),"6.401,00 €",01-08-2017,18-01-2017,153 dias,"Portugal, Lisboa, Lisboa","Artigo 24.º, n.º 1, alínea e) do Código dos Contratos Públicos",01-08-2017,"6.401,00 €",,"",,Não aplicável.,Não aplicável.,FALSE
Mascaras de Anestesia,Ajuste Direto Regime Geral,Aquisição de bens móveis,"33171000-9, Material para anestesia e reanimação",Instituto de Oftalmologia do Dr. Gama Pinto (600000052),INTERSURGICAL (503480045),"1.077,00 €",01-08-2017,13-02-2017,189 dias,"Portugal, Lisboa, Lisboa","Artigo 20.º, n.º 1, alínea a) do Código dos Contratos Públicos",01-08-2017,"1.077,00 €",,"",,Não aplicável.,Não aplicável.,FALSE
Cânula Nasal,Ajuste Direto Regime Geral,Aquisição de bens móveis,"33141220-8, Cânulas",Instituto de Oftalmologia do Dr. Gama Pinto (600000052),"ANASTÁCIO SALDANHA, UNIPESSOAL, LDA (505804441)","34,50 €",01-08-2017,09-02-2017,189 dias,"Portugal, Lisboa, Lisboa","Artigo 20.º, n.º 1, alínea a) do Código dos Contratos Públicos",01-08-2017,"34,50 €",,"",,Não aplicável.,Não aplicável.,FALSE
Seringas,Ao abrigo de acordo-quadro (art.º 259.º),Aquisição de bens móveis,"33141310-6, Seringas",Instituto de Oftalmologia do Dr. Gama Pinto (600000052),"B. Braun Medical, Lda. (501506543)","190,38 €",01-08-2017,09-02-2017,153 dias,"Portugal, Lisboa, Lisboa","Artigo 20.º, n.º 1, alínea b) do Código dos Contratos Públicos",01-08-2017,"190,38 €",,"",,1341769,"ACORDO QUADRO PARA FORNECIMENTO DE SERINGAS, AGULHAS E CONTENTORES ÀS INSTITUIÇÕES E SERVIÇOS DO SERVIÇO NACIONAL DE SAÚDE PROGRAMA DE CONCURSO",FALSE
Agulhas,Ao abrigo de acordo-quadro (art.º 259.º),Aquisição de bens móveis,"33141320-9, Agulhas para fins médicos",Instituto de Oftalmologia do Dr. Gama Pinto (600000052),"Overpharma, Lda. (505792362)","53,76 €",31-07-2017,09-02-2017,314 dias,"Portugal, Lisboa, Lisboa","Artigo 20.º, n.º 1, alínea b) do Código dos Contratos Públicos",31-07-2017,"53,76 €",,"",,1341769,"ACORDO QUADRO PARA FORNECIMENTO DE SERINGAS, AGULHAS E CONTENTORES ÀS INSTITUIÇÕES E SERVIÇOS DO SERVIÇO NACIONAL DE SAÚDE PROGRAMA DE CONCURSO",FALSE
Pasta Condutora,Ajuste Direto Regime Geral,Aquisição de bens móveis,"33140000-3, Material médico de consumo",Instituto de Oftalmologia Doutor Gama Pinto (IOGP) (600000052),"SANO-TÉCNICA,LDA (500239819)","30,80 €",31-07-2017,31-07-2017,98 dias,"Portugal, Lisboa, Lisboa","Artigo 20.º, n.º 1, alínea a) do Código dos Contratos Públicos",31-07-2017,"30,80 €",,"",,Não aplicável.,Não aplicável.,FALSE
