Objeto do Contrato,Tipo de Procedimento,Tipo(s) de Contrato,CPVs,Entidade(s) Adjudicante(s),Entidade(s) Adjudicatária(s),Preço Contratual,Data de Publicação,Data de Celebração do Contrato,Prazo de Execução,Local de Execução,Fundamentação,Data de Fecho do Contrato,Preço Total Efetivo,Causas das Alterações ao Prazo,Causas das Alterações ao Preço,Estado,N.º registo do Acordo Quadro,Descrição do Acordo Quadro,Procedimento Centralizado
"Prestação de Serviços de Assessoria e de Consultadoria Jurídica, de Janeiro a Dezembro de 2015",Ajuste Direto Regime Geral,Aquisição de serviços,"72000000-5, Serviços de TI: consultoria, desenvolvimento de software, Internet e apoio","Centro Hospitalar de Setúbal, E. P. E. (507606787)","BAS, Brito & Associados - Sociedade de Advogados, R.L. (509100007)","20.400,00 €",30-01-2015,26-01-2015,365 dias,"Portugal, Setúbal, Setúbal","Artigo 20.º, n.º 1, alínea a) do Código dos Contratos Públicos",,,,,,Não aplicável.,Não aplicável.,FALSE
"MCDT's  ao Inst. Nac. Saúde Dr. Ricardo Jorge - INSA, IP, de Janeiro a Dezembro de 2015",Ajuste Direto Regime Geral,Aquisição de serviços,"85000000-9, Serviços de saúde e acção social","Centro Hospitalar de Setúbal, E. P. E. (507606787)","Instituto Nacional de Saúde Doutor Ricardo Jorge, I.P. (501427511)","72.302,52 €",28-01-2015,13-01-2015,352 dias,"Portugal, Lisboa, Lisboa","Artigo 20.º, n.º 1, alínea a) do Código dos Contratos Públicos",,,,,,Não aplicável.,Não aplicável.,FALSE
"Etiquetas e Fitas Zebra, para o Ano de 2015",Ajuste Direto Regime Geral,Aquisição de bens móveis,"22000000-0, Material impresso e afins","Centro Hospitalar de Setúbal, E. P. E. (507606787)","Burótica - Sociedade de Estudos e Equipamentos Automáticos de Escritório, SA (501178503)","10.149,20 €",23-01-2015,12-12-2014,365 dias,"Portugal, Setúbal, Setúbal","Artigo 20.º, n.º 1, alínea a) do Código dos Contratos Públicos",,,,,,Não aplicável.,Não aplicável.,FALSE
