Objeto do Contrato,Tipo de Procedimento,Tipo(s) de Contrato,CPVs,Entidade(s) Adjudicante(s),Entidade(s) Adjudicatária(s),Preço Contratual,Data de Publicação,Data de Celebração do Contrato,Prazo de Execução,Local de Execução,Fundamentação,Data de Fecho do Contrato,Preço Total Efetivo,Causas das Alterações ao Prazo,Causas das Alterações ao Preço,Estado,N.º registo do Acordo Quadro,Descrição do Acordo Quadro,Procedimento Centralizado
"Aquisição de Seringas, Agulhas e Contentores",Ao abrigo de acordo-quadro (art.º 259.º),Aquisição de bens móveis,"33140000-3, Material médico de consumo","Hospital de Santa Maria Maior, E. P. E. (506361381)","Quiliaban, S.A. (500399670)","1.410,24 €",06-12-2016,20-10-2016,365 dias,"Portugal, Braga, Barcelos",Artigo 259.º do Código dos Contratos Públicos,,,,,,1341769,"ACORDO QUADRO PARA FORNECIMENTO DE SERINGAS, AGULHAS E CONTENTORES ÀS INSTITUIÇÕES E SERVIÇOS DO SERVIÇO NACIONAL DE SAÚDE PROGRAMA DE CONCURSO",FALSE
"Aquisição de Seringas, Agulhas e Contentores",Ao abrigo de acordo-quadro (art.º 259.º),Aquisição de bens móveis,"33140000-3, Material médico de consumo","Hospital de Santa Maria Maior, E. P. E. (506361381)","Overpharma, Lda. (505792362)","1.384,03 €",06-12-2016,20-10-2016,365 dias,"Portugal, Braga, Barcelos",Artigo 259.º do Código dos Contratos Públicos,,,,,,1341769,"ACORDO QUADRO PARA FORNECIMENTO DE SERINGAS, AGULHAS E CONTENTORES ÀS INSTITUIÇÕES E SERVIÇOS DO SERVIÇO NACIONAL DE SAÚDE PROGRAMA DE CONCURSO",FALSE
"Aquisição de Seringas, Agulhas e Contentores",Ao abrigo de acordo-quadro (art.º 259.º),Aquisição de bens móveis,"33140000-3, Material médico de consumo","Hospital de Santa Maria Maior, E. P. E. (506361381)","Normax, Lda. (500203130)","499,10 €",06-12-2016,20-10-2016,365 dias,"Portugal, Braga, Barcelos",Artigo 259.º do Código dos Contratos Públicos,,,,,,1341769,"ACORDO QUADRO PARA FORNECIMENTO DE SERINGAS, AGULHAS E CONTENTORES ÀS INSTITUIÇÕES E SERVIÇOS DO SERVIÇO NACIONAL DE SAÚDE PROGRAMA DE CONCURSO",FALSE
"Aquisição de Seringas, Agulhas e Contentores",Ao abrigo de acordo-quadro (art.º 259.º),Aquisição de bens móveis,"33140000-3, Material médico de consumo","Hospital de Santa Maria Maior, E. P. E. (506361381)","Becton Dickinson, S.A. (980245214)","6.143,65 €",06-12-2016,20-10-2016,365 dias,"Portugal, Braga, Barcelos",Artigo 259.º do Código dos Contratos Públicos,,,,,,1341769,"ACORDO QUADRO PARA FORNECIMENTO DE SERINGAS, AGULHAS E CONTENTORES ÀS INSTITUIÇÕES E SERVIÇOS DO SERVIÇO NACIONAL DE SAÚDE PROGRAMA DE CONCURSO",FALSE
"Aquisição de Seringas, Agulhas e Contentores",Ao abrigo de acordo-quadro (art.º 259.º),Aquisição de bens móveis,"33140000-3, Material médico de consumo","Hospital de Santa Maria Maior, E. P. E. (506361381)","Ambimed, Gestão Ambiental, Lda. (503593427)","843,44 €",06-12-2016,20-10-2016,365 dias,"Portugal, Braga, Barcelos",Artigo 259.º do Código dos Contratos Públicos,,,,,,1341769,"ACORDO QUADRO PARA FORNECIMENTO DE SERINGAS, AGULHAS E CONTENTORES ÀS INSTITUIÇÕES E SERVIÇOS DO SERVIÇO NACIONAL DE SAÚDE PROGRAMA DE CONCURSO",FALSE
"Aquisição de Seringas, Agulhas e Contentores",Ao abrigo de acordo-quadro (art.º 259.º),Aquisição de bens móveis,"33140000-3, Material médico de consumo","Hospital de Santa Maria Maior, E. P. E. (506361381)","Docworld, Lda. (508592909)","1.831,35 €",06-12-2016,20-10-2016,365 dias,"Portugal, Braga, Barcelos",Artigo 259.º do Código dos Contratos Públicos,,,,,,1341769,"ACORDO QUADRO PARA FORNECIMENTO DE SERINGAS, AGULHAS E CONTENTORES ÀS INSTITUIÇÕES E SERVIÇOS DO SERVIÇO NACIONAL DE SAÚDE PROGRAMA DE CONCURSO",FALSE
