Objeto do Contrato,Tipo de Procedimento,Tipo(s) de Contrato,CPVs,Entidade(s) Adjudicante(s),Entidade(s) Adjudicatária(s),Preço Contratual,Data de Publicação,Data de Celebração do Contrato,Prazo de Execução,Local de Execução,Fundamentação,Data de Fecho do Contrato,Preço Total Efetivo,Causas das Alterações ao Prazo,Causas das Alterações ao Preço,Estado,N.º registo do Acordo Quadro,Descrição do Acordo Quadro,Procedimento Centralizado
Aquisição de Clips de Raney,Ajuste Direto Regime Geral,Aquisição de bens móveis,"33100000-1, Equipamento médico","Centro Hospitalar Vila Nova de Gaia - Espinho, E. P. E. (508142156)",Johnson & Johnson Medical (500153370),"1.824,00 €",31-10-2016,31-10-2016,30 dias,"Portugal, Porto, Vila Nova de Gaia","Artigo 20.º, n.º 1, alínea a) do Código dos Contratos Públicos",,,,,,Não aplicável.,Não aplicável.,FALSE
Reparação por Substituição de Cistoscopio,Ajuste Direto Regime Geral,Aquisição de bens móveis,"33164100-8, Colposcópio","Centro Hospitalar Vila Nova de Gaia - Espinho, E. P. E. (508142156)",Olympus Iberia S.A.U. (980474710),"4.300,00 €",28-10-2016,07-09-2016,10 dias,"Portugal, Porto, Vila Nova de Gaia","Artigo 24.º, n.º 1, alínea c) do Código dos Contratos Públicos",,,,,,Não aplicável.,Não aplicável.,FALSE
Mangas para Pressoterapia,Ajuste Direto Regime Geral,Aquisição de bens móveis,"33100000-1, Equipamento médico","Centro Hospitalar Vila Nova de Gaia - Espinho, E. P. E. (508142156)","Grupo Vitalino, SA (513083162)","2.357,10 €",28-10-2016,28-10-2016,10 dias,"Portugal, Porto, Vila Nova de Gaia","Artigo 20.º, n.º 1, alínea a) do Código dos Contratos Públicos",,,,,,Não aplicável.,Não aplicável.,FALSE
" BOTÃO DE GASTROSTOMIA BAIXO PERFIL """"",Ajuste Direto Regime Geral,Aquisição de bens móveis,"33100000-1, Equipamento médico","Centro Hospitalar Vila Nova de Gaia - Espinho, E. P. E. (508142156)",Biosonda (501463313),"150,00 €",28-10-2016,28-10-2016,10 dias,"Portugal, Porto, Vila Nova de Gaia","Artigo 24.º, n.º 1, alínea e) do Código dos Contratos Públicos",,,,,,Não aplicável.,Não aplicável.,FALSE
Clip Hemostático Pequeno,Ajuste Direto Regime Geral,Aquisição de bens móveis,"33100000-1, Equipamento médico","Centro Hospitalar Vila Nova de Gaia - Espinho, E. P. E. (508142156)","Teleflex Medical, S.A.U. (980249783)","4.266,00 €",28-10-2016,28-10-2016,10 dias,"Portugal, Porto, Vila Nova de Gaia","Artigo 20.º, n.º 1, alínea a) do Código dos Contratos Públicos",,,,,,Não aplicável.,Não aplicável.,FALSE
Stent Coberto p Tratamento de Aneurisma da Aorta Abdominal,Ajuste Direto Regime Geral,Aquisição de bens móveis,"33100000-1, Equipamento médico","Centro Hospitalar Vila Nova de Gaia - Espinho, E. P. E. (508142156)",Medtronic (504223933),"11.000,00 €",28-10-2016,28-10-2016,10 dias,"Portugal, Porto, Vila Nova de Gaia","Artigo 20.º, n.º 1, alínea a) do Código dos Contratos Públicos",,,,,,Não aplicável.,Não aplicável.,FALSE
CDI SUBCUTÂNEO (SISTEMA),Ajuste Direto Regime Geral,Aquisição de bens móveis,"33100000-1, Equipamento médico","Centro Hospitalar Vila Nova de Gaia - Espinho, E. P. E. (508142156)","Boston Scientific Portugal - Disp. Médicos, Lda (504988964)","18.000,00 €",28-10-2016,28-10-2016,10 dias,"Portugal, Porto, Vila Nova de Gaia","Artigo 20.º, n.º 1, alínea a) do Código dos Contratos Públicos",,,,,,Não aplicável.,Não aplicável.,FALSE
FOSFATO MONOSSÓDICO 1936 MG COMP EFERV,Ajuste Direto Regime Geral,Aquisição de bens móveis,"33600000-6, Produtos farmacêuticos","Centro Hospitalar Vila Nova de Gaia - Espinho, E. P. E. (508142156)",WEP Clinical (944893866),"990,00 €",28-10-2016,28-10-2016,10 dias,"Portugal, Porto, Vila Nova de Gaia","Artigo 24.º, n.º 1, alínea e) do Código dos Contratos Públicos",,,,,,Não aplicável.,Não aplicável.,FALSE
CDI SUBCUTÂNEO (SISTEMA),Ajuste Direto Regime Geral,Aquisição de bens móveis,"33100000-1, Equipamento médico","Centro Hospitalar Vila Nova de Gaia - Espinho, E. P. E. (508142156)","Boston Scientific Portugal - Disp. Médicos, Lda (504988964)","18.000,00 €",28-10-2016,28-10-2016,10 dias,"Portugal, Porto, Vila Nova de Gaia","Artigo 20.º, n.º 1, alínea a) do Código dos Contratos Públicos",,,,,,Não aplicável.,Não aplicável.,FALSE
Válvula Aórtica de Introdução p Via Percutânea,Ajuste Direto Regime Geral,Aquisição de bens móveis,"33100000-1, Equipamento médico","Centro Hospitalar Vila Nova de Gaia - Espinho, E. P. E. (508142156)","Boston Scientific Portugal - Disp. Médicos, Lda (504988964)","16.400,00 €",28-10-2016,28-10-2016,10 dias,"Portugal, Porto, Vila Nova de Gaia","Artigo 20.º, n.º 1, alínea a) do Código dos Contratos Públicos",,,,,,Não aplicável.,Não aplicável.,FALSE
Material P/ Artroscopia,Ajuste Direto Regime Geral,Aquisição de bens móveis,"33100000-1, Equipamento médico","Centro Hospitalar Vila Nova de Gaia - Espinho, E. P. E. (508142156)",Johnson & Johnson Medical (500153370),"925,00 €",28-10-2016,28-10-2016,10 dias,"Portugal, Porto, Vila Nova de Gaia","Artigo 20.º, n.º 1, alínea a) do Código dos Contratos Públicos",,,,,,Não aplicável.,Não aplicável.,FALSE
Próteses Vascular Reta,Ajuste Direto Regime Geral,Aquisição de bens móveis,"33100000-1, Equipamento médico","Centro Hospitalar Vila Nova de Gaia - Espinho, E. P. E. (508142156)","Medicinália - Cormédica, Lda (500684324)","2.310,00 €",28-10-2016,28-10-2016,10 dias,"Portugal, Porto, Vila Nova de Gaia","Artigo 20.º, n.º 1, alínea a) do Código dos Contratos Públicos",,,,,,Não aplicável.,Não aplicável.,FALSE
compressa TNT não Esteril 40x45cm,Ajuste Direto Regime Geral,Aquisição de bens móveis,"33100000-1, Equipamento médico","Centro Hospitalar Vila Nova de Gaia - Espinho, E. P. E. (508142156)","Albino Dias de Andrade, Lda (ADA) (500013810)","8.910,00 €",28-10-2016,28-10-2016,10 dias,"Portugal, Porto, Vila Nova de Gaia","Artigo 20.º, n.º 1, alínea a) do Código dos Contratos Públicos",,,,,,Não aplicável.,Não aplicável.,FALSE
Material P/ Artroscopia,Ajuste Direto Regime Geral,Aquisição de bens móveis,"33100000-1, Equipamento médico","Centro Hospitalar Vila Nova de Gaia - Espinho, E. P. E. (508142156)","Smith & Nephew, Lda (503552461)","425,00 €",28-10-2016,28-10-2016,10 dias,"Portugal, Porto, Vila Nova de Gaia","Artigo 20.º, n.º 1, alínea a) do Código dos Contratos Públicos",,,,,,Não aplicável.,Não aplicável.,FALSE
FITA DE POLIPROPILENO P/ CIRURGIA DE INCONTINÊNCIA URINARIA,Ajuste Direto Regime Geral,Aquisição de bens móveis,"33100000-1, Equipamento médico","Centro Hospitalar Vila Nova de Gaia - Espinho, E. P. E. (508142156)",JOHNSON & JOHNSON PROD.PROF. (500153370),"499,00 €",28-10-2016,28-10-2016,10 dias,"Portugal, Porto, Vila Nova de Gaia","Artigo 20.º, n.º 1, alínea a) do Código dos Contratos Públicos",,,,,,Não aplicável.,Não aplicável.,FALSE
Bicarbonato de sódio 84 mg/ml Sol inj Fr 100 ml IV,Ajuste Direto Regime Geral,Aquisição de bens móveis,"33600000-6, Produtos farmacêuticos","Centro Hospitalar Vila Nova de Gaia - Espinho, E. P. E. (508142156)","B. Braun Medical, Lda (501506543)","1.364,40 €",28-10-2016,27-10-2016,10 dias,"Portugal, Porto, Vila Nova de Gaia","Artigo 20.º, n.º 1, alínea a) do Código dos Contratos Públicos",,,,,,Não aplicável.,Não aplicável.,FALSE
GOSERRELINA 3.6 MG IMPL SER,Ao abrigo de acordo-quadro (art.º 259.º),Aquisição de bens móveis,"33600000-6, Produtos farmacêuticos","Centro Hospitalar Vila Nova de Gaia - Espinho, E. P. E. (508142156)","ASTRAZENECA Produtos Farmacêuticos, Lda (502942240)","302,28 €",28-10-2016,27-10-2016,10 dias,"Portugal, Porto, Vila Nova de Gaia",Artigo 259.º do Código dos Contratos Públicos,,,,,,1771819,CP 2015/6 - Acordo quadro para o fornecimento de Medicamentos do Foro Oncológico,FALSE
Megestrol 160 mg Comp,Ao abrigo de acordo-quadro (art.º 259.º),Aquisição de bens móveis,"33600000-6, Produtos farmacêuticos","Centro Hospitalar Vila Nova de Gaia - Espinho, E. P. E. (508142156)","Generis - Farmacêutica, SA (508107997)","1.953,00 €",28-10-2016,27-10-2016,10 dias,"Portugal, Porto, Vila Nova de Gaia",Artigo 259.º do Código dos Contratos Públicos,,,,,,1771819,CP 2015/6 - Acordo quadro para o fornecimento de Medicamentos do Foro Oncológico,FALSE
REGORAFENIB 40 MG COMP,Ajuste Direto Regime Geral,Aquisição de bens móveis,"33600000-6, Produtos farmacêuticos","Centro Hospitalar Vila Nova de Gaia - Espinho, E. P. E. (508142156)","Bayer Portugal, Lda. (500043256)","4.765,32 €",28-10-2016,27-10-2016,10 dias,"Portugal, Porto, Vila Nova de Gaia","Artigo 24.º, n.º 1, alínea e) do Código dos Contratos Públicos",,,,,,Não aplicável.,Não aplicável.,FALSE
Infliximab 100 mg IV,Ajuste Direto Regime Geral,Aquisição de bens móveis,"33600000-6, Produtos farmacêuticos","Centro Hospitalar Vila Nova de Gaia - Espinho, E. P. E. (508142156)","MERCK SHARP & DOHME, LDA. (500191360)","32.375,00 €",28-10-2016,27-10-2016,10 dias,"Portugal, Porto, Vila Nova de Gaia","Artigo 24.º, n.º 1, alínea c) do Código dos Contratos Públicos",,,,,,Não aplicável.,Não aplicável.,FALSE
Dolutregravir 50 mg Comp,Ajuste Direto Regime Geral,Aquisição de bens móveis,"33600000-6, Produtos farmacêuticos","Centro Hospitalar Vila Nova de Gaia - Espinho, E. P. E. (508142156)","VIIVHIV HEALTHCARE, UNIPESSOAL, LDA. (509117961)","17.600,00 €",28-10-2016,27-10-2016,10 dias,"Portugal, Porto, Vila Nova de Gaia","Artigo 24.º, n.º 1, alínea e) do Código dos Contratos Públicos",,,,,,Não aplicável.,Não aplicável.,FALSE
Iopromida (VARIAS DOSAGENS),Ao abrigo de acordo-quadro (art.º 259.º),Aquisição de bens móveis,"33600000-6, Produtos farmacêuticos","Centro Hospitalar Vila Nova de Gaia - Espinho, E. P. E. (508142156)","Bayer Portugal, Lda. (500043256)","19.500,00 €",28-10-2016,27-10-2016,10 dias,"Portugal, Porto, Vila Nova de Gaia",Artigo 259.º do Código dos Contratos Públicos,,,,,,1771819,CP 2015/6 - Acordo quadro para o fornecimento de Medicamentos do Foro Oncológico,FALSE
Emtricitabina 200 mg + Rilpivirina 25 mg + Tenofovir 245 mg Comp,Ao abrigo de acordo-quadro (art.º 259.º),Aquisição de bens móveis,"33600000-6, Produtos farmacêuticos","Centro Hospitalar Vila Nova de Gaia - Espinho, E. P. E. (508142156)","GILEAD SCIENCES, LDA (503604704)","41.300,07 €",28-10-2016,27-10-2016,10 dias,"Portugal, Porto, Vila Nova de Gaia",Artigo 259.º do Código dos Contratos Públicos,,,,,,1120578,"CONCURSO PÚBLICO PARA A CELEBRAÇÃO DE CONTRATOS PÚBLICOS DE APROVISIONAMENTO PARA A ÁREA DA SAÚDE, COM VISTA AO FORNECIMENTO DE MEDICAMENTOS ANTI-RETROVIRAIS, ÀS INSTITUIÇÕES E SERVIÇOS DO SERVIÇO NACIONAL DE SAÚDE  ",FALSE
Rilpivirina 25mg comp,Ao abrigo de acordo-quadro (art.º 259.º),Aquisição de bens móveis,"33600000-6, Produtos farmacêuticos","Centro Hospitalar Vila Nova de Gaia - Espinho, E. P. E. (508142156)","Janssen-Cilag FArmacêutica, Lda (500189412)","41.869,44 €",28-10-2016,27-10-2016,10 dias,"Portugal, Porto, Vila Nova de Gaia",Artigo 259.º do Código dos Contratos Públicos,,,,,,1120578,"CONCURSO PÚBLICO PARA A CELEBRAÇÃO DE CONTRATOS PÚBLICOS DE APROVISIONAMENTO PARA A ÁREA DA SAÚDE, COM VISTA AO FORNECIMENTO DE MEDICAMENTOS ANTI-RETROVIRAIS, ÀS INSTITUIÇÕES E SERVIÇOS DO SERVIÇO NACIONAL DE SAÚDE  ",FALSE
Colagénio c/ Gentamicina 10x8cm aposito,Ajuste Direto Regime Geral,Aquisição de bens móveis,"33600000-6, Produtos farmacêuticos","Centro Hospitalar Vila Nova de Gaia - Espinho, E. P. E. (508142156)","ZIMMER SA, SUCURSAL EM PORTUGAL (980151716)","3.900,00 €",28-10-2016,27-10-2016,10 dias,"Portugal, Porto, Vila Nova de Gaia","Artigo 20.º, n.º 1, alínea a) do Código dos Contratos Públicos",,,,,,Não aplicável.,Não aplicável.,FALSE
INFLIXIMAB 100 MG PÓ CONC SOL INJ FR IV (BIOS),Ajuste Direto Regime Geral,Aquisição de bens móveis,"33600000-6, Produtos farmacêuticos","Centro Hospitalar Vila Nova de Gaia - Espinho, E. P. E. (508142156)","PharmaKERN Portugal - Prod. Farmac., Lda (507002571)","29.538,00 €",28-10-2016,27-10-2016,10 dias,"Portugal, Porto, Vila Nova de Gaia","Artigo 24.º, n.º 1, alínea c) do Código dos Contratos Públicos",,,,,,Não aplicável.,Não aplicável.,FALSE
Carboximaltose Férrica 50 mg/ ml sol inj fr 10 ml IV (,Ao abrigo de acordo-quadro (art.º 259.º),Aquisição de bens móveis,"33600000-6, Produtos farmacêuticos","Centro Hospitalar Vila Nova de Gaia - Espinho, E. P. E. (508142156)",OM PHARMA S.A                                      (500207410),"47.690,00 €",28-10-2016,27-10-2016,10 dias,"Portugal, Porto, Vila Nova de Gaia",Artigo 259.º do Código dos Contratos Públicos,,,,,,1210107,"CONCURSO PÚBLICO PARA A CELEBRAÇÃO DE CONTRATOS PÚBLICOS DE APROVISIONAMENTO PARA A ÁREA DA SAÚDE, COM VISTA AO FORNECIMENTO DE MEDICAMENTOS DO GRUPO 4: SANGUE, ÀS INSTITUIÇÕES E SERVIÇOS DO SERVIÇO NACIONAL DE SAÚDE",FALSE
"Fingolimod 0,5mg cáps",Ao abrigo de acordo-quadro (art.º 259.º),Aquisição de bens móveis,"33600000-6, Produtos farmacêuticos","Centro Hospitalar Vila Nova de Gaia - Espinho, E. P. E. (508142156)","Novartis Farma - Produtos Farmacêuticos, SA  (500063524)","35.072,89 €",28-10-2016,27-10-2016,10 dias,"Portugal, Porto, Vila Nova de Gaia","Artigo 20.º, n.º 1, alínea b) do Código dos Contratos Públicos",,,,,,1771819,CP 2015/6 - Acordo quadro para o fornecimento de Medicamentos do Foro Oncológico,FALSE
Aplicação WEB Maternun,Ajuste Direto Regime Geral,Aquisição de bens móveis,"48100000-9, Pacote de software para sectores específicos","Centro Hospitalar Vila Nova de Gaia - Espinho, E. P. E. (508142156)",Speculum Artigos Médicos Lda (502996323),"8.000,00 €",28-10-2016,31-08-2016,20 dias,"Portugal, Porto, Vila Nova de Gaia","Artigo 24.º, n.º 1, alínea e) do Código dos Contratos Públicos",,,,,,Não aplicável.,Não aplicável.,FALSE
Aquisição de sistema de Injeção de Contraste,Ajuste Direto Regime Geral,Aquisição de bens móveis,"33111710-1, Material para angiografia","Centro Hospitalar Vila Nova de Gaia - Espinho, E. P. E. (508142156)",Med XRay Lda (506187071),"16.147,50 €",28-10-2016,04-08-2016,30 dias,"Portugal, Porto, Vila Nova de Gaia","Artigo 20.º, n.º 1, alínea a) do Código dos Contratos Públicos",,,,,,Não aplicável.,Não aplicável.,FALSE
Upgrade Central Telemetria,Ajuste Direto Regime Geral,Aquisição de bens móveis,"33197000-7, Equipamento informático para fins médicos","Centro Hospitalar Vila Nova de Gaia - Espinho, E. P. E. (508142156)",Philips Portuguesa S.A. (500216843),"14.500,00 €",28-10-2016,15-07-2016,5 dias,"Portugal, Porto, Vila Nova de Gaia","Artigo 24.º, n.º 1, alínea e) do Código dos Contratos Públicos",,,,,,Não aplicável.,Não aplicável.,FALSE
Sistemas de Filtração de Todos os Componentes do Sangue,Ajuste Direto Regime Geral,Aquisição de bens móveis,"33100000-1, Equipamento médico","Centro Hospitalar Vila Nova de Gaia - Espinho, E. P. E. (508142156)","Werfen Portugal, Lda (501086110)","24.288,00 €",28-10-2016,06-10-2016,10 dias,"Portugal, Porto, Vila Nova de Gaia","Artigo 20.º, n.º 1, alínea a) do Código dos Contratos Públicos",,,,,,Não aplicável.,Não aplicável.,FALSE
Kit p/ Cirurgia da Catarata c/ Facoemulsificação c/ Sistema,Ajuste Direto Regime Geral,Aquisição de bens móveis,"33100000-1, Equipamento médico","Centro Hospitalar Vila Nova de Gaia - Espinho, E. P. E. (508142156)",ALCON Portugal (501251685),"25.200,00 €",28-10-2016,22-09-2016,30 dias,"Portugal, Porto, Vila Nova de Gaia","Artigo 20.º, n.º 1, alínea a) do Código dos Contratos Públicos",,,,,,Não aplicável.,Não aplicável.,FALSE
Aquisição de Material Medtronic,Ajuste Direto Regime Geral,Aquisição de bens móveis,"33140000-3, Material médico de consumo","Centro Hospitalar Vila Nova de Gaia - Espinho, E. P. E. (508142156)",Medtronic (504223933),"18.688,15 €",28-10-2016,27-10-2016,1 dias,"Portugal, Porto, Vila Nova de Gaia","Artigo 20.º, n.º 1, alínea a) do Código dos Contratos Públicos",,,,,,Não aplicável.,Não aplicável.,FALSE
Aquisição de Sistemas de Filtração de Todos Componentes de Sangue,Ajuste Direto Regime Geral,Aquisição de bens móveis,"33140000-3, Material médico de consumo","Centro Hospitalar Vila Nova de Gaia - Espinho, E. P. E. (508142156)","Werfen Portugal, Lda (501086110)","24.288,00 €",28-10-2016,27-10-2016,30 dias,"Portugal, Porto, Vila Nova de Gaia","Artigo 20.º, n.º 1, alínea a) do Código dos Contratos Públicos",,,,,,Não aplicável.,Não aplicável.,FALSE
Aquisição de Material Abbott,Ajuste Direto Regime Geral,Aquisição de bens móveis,"33140000-3, Material médico de consumo","Centro Hospitalar Vila Nova de Gaia - Espinho, E. P. E. (508142156)","Abbott Laboratórios, Lda (500006148)","18.720,00 €",28-10-2016,24-10-2016,1 dias,"Portugal, Porto, Vila Nova de Gaia","Artigo 20.º, n.º 1, alínea a) do Código dos Contratos Públicos",,,,,,Não aplicável.,Não aplicável.,FALSE
Aquisição de Equipamento de Manometria,Ajuste Direto Regime Geral,Aquisição de bens móveis,"33100000-1, Equipamento médico","Centro Hospitalar Vila Nova de Gaia - Espinho, E. P. E. (508142156)",Teprel S.A. (502262184),"17.000,00 €",27-10-2016,01-09-2016,30 dias,"Portugal, Porto, Vila Nova de Gaia","Artigo 24.º, n.º 1, alínea e) do Código dos Contratos Públicos",,,,,,Não aplicável.,Não aplicável.,FALSE
Aquisição de Teclados e Ratos Higienizáveis,Ajuste Direto Regime Geral,Aquisição de bens móveis,"30200000-1, Equipamento e material informático",Centro Hospitalar Vila Nova de Gaia (CHNVG) (508142156),"NORMÁTICA Serviços Informática e Organização, Lda (501782230)","2.790,50 €",27-10-2016,30-09-2016,65 dias,"Portugal, Porto, Vila Nova de Gaia","Artigo 20.º, n.º 1, alínea a) do Código dos Contratos Públicos",,,,,,Não aplicável.,Não aplicável.,FALSE
Instrumental Cirurgico,Ajuste Direto Regime Geral,Aquisição de bens móveis,"33100000-1, Equipamento médico","Centro Hospitalar Vila Nova de Gaia - Espinho, E. P. E. (508142156)","B. Braun Medical, Lda (501506543)","7.479,82 €",27-10-2016,27-10-2016,10 dias,"Portugal, Porto, Vila Nova de Gaia","Artigo 24.º, n.º 1, alínea e) do Código dos Contratos Públicos",,,,,,Não aplicável.,Não aplicável.,FALSE
Aquisição de Teclados e Ratos Higienizáveis,Ajuste Direto Regime Geral,Aquisição de bens móveis,"30200000-1, Equipamento e material informático",Centro Hospitalar Vila Nova de Gaia (CHNVG) (508142156),"BASEDOIS ¿ INFORMÁTICA E TELECOMUNICAÇÕES, LDA (501333401)","5.000,00 €",27-10-2016,30-09-2016,65 dias,"Portugal, Porto, Vila Nova de Gaia","Artigo 20.º, n.º 1, alínea a) do Código dos Contratos Públicos",,,,,,Não aplicável.,Não aplicável.,FALSE
Equipamento de Crioterapia - Broncologia,Ajuste Direto Regime Geral,Aquisição de bens móveis,"33165000-4, Aparelhos criocirúrgicos e para crioterapia","Centro Hospitalar Vila Nova de Gaia - Espinho, E. P. E. (508142156)",Angosaúde (507016882),"8.122,50 €",27-10-2016,13-07-2016,30 dias,"Portugal, Porto, Vila Nova de Gaia","Artigo 24.º, n.º 1, alínea c) do Código dos Contratos Públicos",,,,,,Não aplicável.,Não aplicável.,FALSE
Aquisição de Osteodensitómetro - Serviço de Imagiologia,Ajuste Direto Regime Geral,Aquisição de bens móveis,"33111660-5, Densitómetros ósseos","Centro Hospitalar Vila Nova de Gaia - Espinho, E. P. E. (508142156)","General Eletric Portuguesa, S.A. (500357129)","39.000,00 €",27-10-2016,01-08-2016,45 dias,"Portugal, Porto, Vila Nova de Gaia","Artigo 20.º, n.º 1, alínea a) do Código dos Contratos Públicos",,,,,,Não aplicável.,Não aplicável.,FALSE
Aquisição de 70 Postos de Trabalho,Ajuste Direto Regime Geral,Aquisição de bens móveis,"30213000-5, Computadores pessoais",Centro Hospitalar Vila Nova de Gaia (CHNVG) (508142156),ConfigBit  Lda (513154990),"28.840,00 €",27-10-2016,01-09-2016,30 dias,"Portugal, Porto, Vila Nova de Gaia","Artigo 20.º, n.º 1, alínea a) do Código dos Contratos Públicos",,,,,,Não aplicável.,Não aplicável.,FALSE
Aquisição de 2 Monitores tipo EIZO,Ajuste Direto Regime Geral,Aquisição de bens móveis,"30210000-4, Máquinas de processamento de dados (hardware)",Centro Hospitalar Vila Nova de Gaia (CHNVG) (508142156),Informática El Corte Inglês (980079659),"9.162,08 €",27-10-2016,13-09-2016,20 dias,"Portugal, Porto, Vila Nova de Gaia","Artigo 20.º, n.º 1, alínea a) do Código dos Contratos Públicos",,,,,,Não aplicável.,Não aplicável.,FALSE
Cetamina 500 mg/ 10 ml sol inj fr 10 ml IM IV,Ao abrigo de acordo-quadro (art.º 259.º),Aquisição de bens móveis,"33600000-6, Produtos farmacêuticos","Centro Hospitalar Vila Nova de Gaia - Espinho, E. P. E. (508142156)",HIKMA FARMACEUTICA (502266791),"24.960,00 €",27-10-2016,27-10-2016,10 dias,"Portugal, Porto, Vila Nova de Gaia",Artigo 259.º do Código dos Contratos Públicos,,,,,,611371,"CONCURSO PÚBLICO PARA A CELEBRAÇÃO DE CONTRATOS PÚBLICOS DE APROVISIONAMENTO PARA A ÁREA DA SAÚDE, COM VISTA AO FORNECIMENTO DE MEDICAMENTOS ANESTÉSICOS E RELAXANTES MUSCULARES, ÀS INSTITUIÇÕES E SERVIÇOS DO SERVIÇO NACIONAL DE SAÚDE    ",FALSE
Rituximab 120 mg/ml Sol inj Fr 11.7 ml SC,Ao abrigo de acordo-quadro (art.º 259.º),Aquisição de bens móveis,"33600000-6, Produtos farmacêuticos","Centro Hospitalar Vila Nova de Gaia - Espinho, E. P. E. (508142156)","ROCHE Farmacêutica Quimica, Lda (500233810)","22.166,40 €",27-10-2016,27-10-2016,10 dias,"Portugal, Porto, Vila Nova de Gaia",Artigo 259.º do Código dos Contratos Públicos,,,,,,1771819,CP 2015/6 - Acordo quadro para o fornecimento de Medicamentos do Foro Oncológico,FALSE
Lopinavir 200 mg + Ritonavir 50 mg Comp,Ao abrigo de acordo-quadro (art.º 259.º),Aquisição de bens móveis,"33600000-6, Produtos farmacêuticos","Centro Hospitalar Vila Nova de Gaia - Espinho, E. P. E. (508142156)","ABBVIE, LDA (510229050)","16.619,22 €",27-10-2016,27-10-2016,10 dias,"Portugal, Porto, Vila Nova de Gaia",Artigo 259.º do Código dos Contratos Públicos,,,,,,1120578,"CONCURSO PÚBLICO PARA A CELEBRAÇÃO DE CONTRATOS PÚBLICOS DE APROVISIONAMENTO PARA A ÁREA DA SAÚDE, COM VISTA AO FORNECIMENTO DE MEDICAMENTOS ANTI-RETROVIRAIS, ÀS INSTITUIÇÕES E SERVIÇOS DO SERVIÇO NACIONAL DE SAÚDE  ",FALSE
Prestação de Serviços Radiologia de Intervenção,Ajuste Direto Regime Geral,Aquisição de serviços,"85100000-0, Serviços de saúde","Centro Hospitalar Vila Nova de Gaia - Espinho, E. P. E. (508142156)",Dr. Campos Costa (502082429),"213,00 €",27-10-2016,27-10-2016,30 dias,"Portugal, Porto, Vila Nova de Gaia","Artigo 24.º, n.º 1, alínea c) do Código dos Contratos Públicos",,,,,,Não aplicável.,Não aplicável.,FALSE
Prestação de Serviços de Imagiologia - RessonÂncia magnética de Campo Aberto,Ajuste Direto Regime Geral,Aquisição de serviços,"85100000-0, Serviços de saúde","Centro Hospitalar Vila Nova de Gaia - Espinho, E. P. E. (508142156)",Dr. Campos Costa (502082429),"450,00 €",27-10-2016,27-10-2016,30 dias,"Portugal, Porto, Vila Nova de Gaia","Artigo 24.º, n.º 1, alínea c) do Código dos Contratos Públicos",,,,,,Não aplicável.,Não aplicável.,FALSE
Cateter Venoso Trombectomia n.º 6F,Ajuste Direto Regime Geral,Aquisição de bens móveis,"33100000-1, Equipamento médico","Centro Hospitalar Vila Nova de Gaia - Espinho, E. P. E. (508142156)",Edwards Lifesciences (Portugal) (508014832),"2.170,00 €",27-10-2016,27-10-2016,10 dias,"Portugal, Porto, Vila Nova de Gaia","Artigo 20.º, n.º 1, alínea a) do Código dos Contratos Públicos",,,,,,Não aplicável.,Não aplicável.,FALSE
Frascos de  Drenagem,Ajuste Direto Regime Geral,Aquisição de bens móveis,"33100000-1, Equipamento médico","Centro Hospitalar Vila Nova de Gaia - Espinho, E. P. E. (508142156)",Johnson & Johnson Medical (500153370),"2.790,00 €",27-10-2016,27-10-2016,10 dias,"Portugal, Porto, Vila Nova de Gaia","Artigo 20.º, n.º 1, alínea a) do Código dos Contratos Públicos",,,,,,Não aplicável.,Não aplicável.,FALSE
Conjunto de Hemofiltração Contínua,Ajuste Direto Regime Geral,Aquisição de bens móveis,"33100000-1, Equipamento médico","Centro Hospitalar Vila Nova de Gaia - Espinho, E. P. E. (508142156)",Factor Plus (502810645),"7.800,00 €",27-10-2016,26-10-2016,60 dias,"Portugal, Porto, Vila Nova de Gaia","Artigo 20.º, n.º 1, alínea a) do Código dos Contratos Públicos",,,,,,Não aplicável.,Não aplicável.,FALSE
Conjunto de Hemofiltração Contínua,Ajuste Direto Regime Geral,Aquisição de bens móveis,"33100000-1, Equipamento médico","Centro Hospitalar Vila Nova de Gaia - Espinho, E. P. E. (508142156)","Fresenius Medical Care Portugal, S.A. (503070220)","9.168,00 €",27-10-2016,27-10-2016,10 dias,"Portugal, Porto, Vila Nova de Gaia","Artigo 20.º, n.º 1, alínea a) do Código dos Contratos Públicos",,,,,,Não aplicável.,Não aplicável.,FALSE
Ciprofloxacina 200 mg/100 ml Sol inj Fr 100 ml IV,Ajuste Direto Regime Geral,Aquisição de bens móveis,"33600000-6, Produtos farmacêuticos","Centro Hospitalar Vila Nova de Gaia - Espinho, E. P. E. (508142156)","LABESFAL - LABORATÓRIOS ALMIRO, SA (501169580)","1.074,85 €",27-10-2016,27-10-2016,10 dias,"Portugal, Porto, Vila Nova de Gaia","Artigo 20.º, n.º 1, alínea a) do Código dos Contratos Públicos",,,,,,Não aplicável.,Não aplicável.,FALSE
PARAFUSO DE 16 / 24 / 32MM PARA PLACA 8 PARA EPIFISIODESE,Ajuste Direto Regime Geral,Aquisição de bens móveis,"33100000-1, Equipamento médico","Centro Hospitalar Vila Nova de Gaia - Espinho, E. P. E. (508142156)"," MBA PORTUGAL, S.A. (504445960)","2.440,00 €",27-10-2016,27-10-2016,10 dias,"Portugal, Porto, Vila Nova de Gaia","Artigo 20.º, n.º 1, alínea a) do Código dos Contratos Públicos",,,,,,Não aplicável.,Não aplicável.,FALSE
Hemoculturas para Microbactérias,Ajuste Direto Regime Geral,Aquisição de bens móveis,"33696000-5, Reagentes e meios de contraste","Centro Hospitalar Vila Nova de Gaia - Espinho, E. P. E. (508142156)","Quilaban - Quimica Laboratorial Analitica, S.A. (500399670)","9.459,45 €",27-10-2016,27-10-2016,10 dias,"Portugal, Porto, Vila Nova de Gaia","Artigo 24.º, n.º 1, alínea e) do Código dos Contratos Públicos",,,,,,Não aplicável.,Não aplicável.,FALSE
Reagentes para Microbiologia,Ajuste Direto Regime Geral,Aquisição de bens móveis,"33696000-5, Reagentes e meios de contraste","Centro Hospitalar Vila Nova de Gaia - Espinho, E. P. E. (508142156)",Biomerieux Portuguesa (501524177),"8.376,00 €",27-10-2016,27-10-2016,10 dias,"Portugal, Porto, Vila Nova de Gaia","Artigo 24.º, n.º 1, alínea e) do Código dos Contratos Públicos",,,,,,Não aplicável.,Não aplicável.,FALSE
Expansor de Prótese Mamária,Ajuste Direto Regime Geral,Aquisição de bens móveis,"33100000-1, Equipamento médico","Centro Hospitalar Vila Nova de Gaia - Espinho, E. P. E. (508142156)",Lineamédica (505148676),"472,25 €",27-10-2016,27-10-2016,10 dias,"Portugal, Porto, Vila Nova de Gaia","Artigo 20.º, n.º 1, alínea a) do Código dos Contratos Públicos",,,,,,Não aplicável.,Não aplicável.,FALSE
Aquisição de Material de Anestesia e Monitorização,Concurso público,Aquisição de bens móveis,"33140000-3, Material médico de consumo","Centro Hospitalar Vila Nova de Gaia - Espinho, E. P. E. (508142156)","Bacelar & Irmão, Lda (500532818)","4.023,00 €",27-10-2016,14-04-2016,65 dias,"Portugal, Porto, Vila Nova de Gaia","Artigo 20.º, n.º 1, alínea b) do Código dos Contratos Públicos",,,,,,Não aplicável.,Não aplicável.,FALSE
Aquisição de Material de Anestesia e Monitorização,Concurso público,Aquisição de bens móveis,"33140000-3, Material médico de consumo","Centro Hospitalar Vila Nova de Gaia - Espinho, E. P. E. (508142156)",Medtronic (504223933),"51.644,00 €",27-10-2016,14-04-2016,65 dias,"Portugal, Porto, Vila Nova de Gaia","Artigo 20.º, n.º 1, alínea b) do Código dos Contratos Públicos",,,,,,Não aplicável.,Não aplicável.,FALSE
Aquisição de Material de Anestesia e Monitorização,Concurso público,Aquisição de bens móveis,"33140000-3, Material médico de consumo","Centro Hospitalar Vila Nova de Gaia - Espinho, E. P. E. (508142156)","Medicinália - Cormédica, Lda (500684324)","9.940,00 €",27-10-2016,14-04-2016,65 dias,"Portugal, Porto, Vila Nova de Gaia","Artigo 20.º, n.º 1, alínea b) do Código dos Contratos Públicos",,,,,,Não aplicável.,Não aplicável.,FALSE
Aquisição de Material de Anestesia e Monitorização,Concurso público,Aquisição de bens móveis,"33140000-3, Material médico de consumo","Centro Hospitalar Vila Nova de Gaia - Espinho, E. P. E. (508142156)","Smiths Medical (Portugal), Unipessoal, Lda (507445937)","886,00 €",27-10-2016,14-04-2016,65 dias,"Portugal, Porto, Vila Nova de Gaia","Artigo 20.º, n.º 1, alínea b) do Código dos Contratos Públicos",,,,,,Não aplicável.,Não aplicável.,FALSE
Aquisição de Material de Anestesia e Monitorizção,Concurso público,Aquisição de bens móveis,"33140000-3, Material médico de consumo","Centro Hospitalar Vila Nova de Gaia - Espinho, E. P. E. (508142156)",CLINIFAR-PRO.CLI.FARMACEUTICOS (503281115),"3.815,00 €",27-10-2016,14-04-2016,65 dias,"Portugal, Porto, Vila Nova de Gaia","Artigo 20.º, n.º 1, alínea b) do Código dos Contratos Públicos",,,,,,Não aplicável.,Não aplicável.,FALSE
Aquisição de Material de Anestesia e Monitorização,Concurso público,Aquisição de bens móveis,"33140000-3, Material médico de consumo","Centro Hospitalar Vila Nova de Gaia - Espinho, E. P. E. (508142156)","Vygon (Portugal), Lda (503232785)","4.949,60 €",27-10-2016,14-04-2016,65 dias,"Portugal, Porto, Vila Nova de Gaia","Artigo 20.º, n.º 1, alínea b) do Código dos Contratos Públicos",,,,,,Não aplicável.,Não aplicável.,FALSE
Aquisição de Material de Anestesia e Monitorização,Concurso público,Aquisição de bens móveis,"33140000-3, Material médico de consumo","Centro Hospitalar Vila Nova de Gaia - Espinho, E. P. E. (508142156)","Teleflex Medical, S.A.U. (980249783)","2.520,00 €",27-10-2016,14-04-2016,65 dias,"Portugal, Porto, Vila Nova de Gaia","Artigo 20.º, n.º 1, alínea b) do Código dos Contratos Públicos",,,,,,Não aplicável.,Não aplicável.,FALSE
Aquisição de Material de Anestesia e Monitorização,Concurso público,Aquisição de bens móveis,"33140000-3, Material médico de consumo","Centro Hospitalar Vila Nova de Gaia - Espinho, E. P. E. (508142156)","B. Braun Medical, Lda (501506543)","26.076,50 €",27-10-2016,10-05-2016,65 dias,"Portugal, Porto, Vila Nova de Gaia","Artigo 20.º, n.º 1, alínea b) do Código dos Contratos Públicos",,,,,,Não aplicável.,Não aplicável.,FALSE
Aquisição de Serviços de Técnicos de Farmácia - 2.º Semestre 2016,Ajuste Direto Regime Geral,Aquisição de serviços,"85100000-0, Serviços de saúde","Centro Hospitalar Vila Nova de Gaia - Espinho, E. P. E. (508142156)","MediPeople - Soluções de Saúde e Educação, Lda. (508543436)","22.526,40 €",27-10-2016,20-10-2016,180 dias,"Portugal, Porto, Vila Nova de Gaia","Artigo 20.º, n.º 1, alínea a) do Código dos Contratos Públicos",,,,,,Não aplicável.,Não aplicável.,FALSE
Aquisição de Material de Anestesia e Monitorização,Concurso público,Aquisição de bens móveis,"33140000-3, Material médico de consumo","Centro Hospitalar Vila Nova de Gaia - Espinho, E. P. E. (508142156)",Intersurgical Portugal Lda. (503480045),"876,48 €",27-10-2016,14-04-2016,65 dias,"Portugal, Porto, Vila Nova de Gaia","Artigo 20.º, n.º 1, alínea b) do Código dos Contratos Públicos",,,,,,Não aplicável.,Não aplicável.,FALSE
Aquisição de Serviços de Farmacêuticos - 2.º Semestre 2016,Ajuste Direto Regime Geral,Aquisição de serviços,"85000000-9, Serviços de saúde e acção social","Centro Hospitalar Vila Nova de Gaia - Espinho, E. P. E. (508142156)","Kelly Services, Lda (510723691)","23.400,00 €",27-10-2016,20-10-2016,180 dias,"Portugal, Porto, Vila Nova de Gaia","Artigo 20.º, n.º 1, alínea a) do Código dos Contratos Públicos",,,,,,Não aplicável.,Não aplicável.,FALSE
Aquisição de Diverso Material Stryker,Ajuste Direto Regime Geral,Aquisição de bens móveis,"33100000-1, Equipamento médico","Centro Hospitalar Vila Nova de Gaia - Espinho, E. P. E. (508142156)",Stryker Portugal (504594214),"13.139,22 €",27-10-2016,20-10-2016,25 dias,"Portugal, Porto, Vila Nova de Gaia","Artigo 20.º, n.º 1, alínea a) do Código dos Contratos Públicos",,,,,,Não aplicável.,Não aplicável.,FALSE
AD para Aquisição de Material Stryker I,Ajuste Direto Regime Geral,Aquisição de bens móveis,"33100000-1, Equipamento médico","Centro Hospitalar Vila Nova de Gaia - Espinho, E. P. E. (508142156)",Stryker Portugal (504594214),"74.292,00 €",27-10-2016,18-08-2016,90 dias,"Portugal, Porto, Vila Nova de Gaia","Artigo 20.º, n.º 1, alínea a) do Código dos Contratos Públicos",,,,,,Não aplicável.,Não aplicável.,FALSE
AD para Aquisição de Material Boston,Ajuste Direto Regime Geral,Aquisição de bens móveis,"33100000-1, Equipamento médico","Centro Hospitalar Vila Nova de Gaia - Espinho, E. P. E. (508142156)","Boston Scientific Portugal - Disp. Médicos, Lda (504988964)","69.655,00 €",26-10-2016,19-08-2016,120 dias,"Portugal, Porto, Vila Nova de Gaia","Artigo 20.º, n.º 1, alínea a) do Código dos Contratos Públicos",,,,,,Não aplicável.,Não aplicável.,FALSE
Ruxolitinib 15 mg Comp,Ao abrigo de acordo-quadro (art.º 259.º),Aquisição de bens móveis,"33600000-6, Produtos farmacêuticos","Centro Hospitalar Vila Nova de Gaia - Espinho, E. P. E. (508142156)","Novartis Farma - Produtos Farmacêuticos, SA (500063524)","10.792,98 €",26-10-2016,26-10-2016,10 dias,"Portugal, Porto, Vila Nova de Gaia",Artigo 259.º do Código dos Contratos Públicos,,,,,,1771819,CP 2015/6 - Acordo quadro para o fornecimento de Medicamentos do Foro Oncológico,FALSE
Sistema p/ Anastomose Proximal c/ Punch,Ajuste Direto Regime Geral,Aquisição de bens móveis,"33100000-1, Equipamento médico","Centro Hospitalar Vila Nova de Gaia - Espinho, E. P. E. (508142156)","Getinge Group Portugal, Unipessoal Lda (506819698)","5.950,00 €",26-10-2016,26-10-2016,10 dias,"Portugal, Porto, Vila Nova de Gaia","Artigo 20.º, n.º 1, alínea a) do Código dos Contratos Públicos",,,,,,Não aplicável.,Não aplicável.,FALSE
Material Clinico - Medtronic,Ajuste Direto Regime Geral,Aquisição de bens móveis,"33100000-1, Equipamento médico","Centro Hospitalar Vila Nova de Gaia - Espinho, E. P. E. (508142156)",Medtronic (504223933),"3.830,00 €",26-10-2016,26-10-2016,10 dias,"Portugal, Porto, Vila Nova de Gaia","Artigo 20.º, n.º 1, alínea a) do Código dos Contratos Públicos",,,,,,Não aplicável.,Não aplicável.,FALSE
Material - Johnson,Ajuste Direto Regime Geral,Aquisição de bens móveis,"33100000-1, Equipamento médico","Centro Hospitalar Vila Nova de Gaia - Espinho, E. P. E. (508142156)",Johnson & Johnson Medical (500153370),"8.562,00 €",26-10-2016,26-10-2016,10 dias,"Portugal, Porto, Vila Nova de Gaia","Artigo 20.º, n.º 1, alínea a) do Código dos Contratos Públicos",,,,,,Não aplicável.,Não aplicável.,FALSE
Amoxicilina 2000 Mg+Acido Clavulánico 200Mg pó Sol inj Fr IV (,Ajuste Direto Regime Geral,Aquisição de bens móveis,"33600000-6, Produtos farmacêuticos","Centro Hospitalar Vila Nova de Gaia - Espinho, E. P. E. (508142156)",LABORATORIOS ATRAL S.A. (500162085),"2.960,00 €",26-10-2016,26-10-2016,10 dias,"Portugal, Porto, Vila Nova de Gaia","Artigo 20.º, n.º 1, alínea a) do Código dos Contratos Públicos",,,,,,Não aplicável.,Não aplicável.,FALSE
Aquisição de Material Alcon,Ajuste Direto Regime Geral,Aquisição de bens móveis,"33140000-3, Material médico de consumo","Centro Hospitalar Vila Nova de Gaia - Espinho, E. P. E. (508142156)","Alcon Portugal, Lda. (501251685)","58.825,00 €",26-10-2016,28-07-2016,155 dias,"Portugal, Porto, Vila Nova de Gaia","Artigo 20.º, n.º 1, alínea a) do Código dos Contratos Públicos",,,,,,Não aplicável.,Não aplicável.,FALSE
Sondas para as UTA's,Ajuste Direto Regime Geral,Aquisição de bens móveis,"33100000-1, Equipamento médico","Centro Hospitalar Vila Nova de Gaia - Espinho, E. P. E. (508142156)","Instruel Sist. de Controlo de Proc. Indust., Lda (504536354)","640,00 €",25-10-2016,25-10-2016,10 dias,"Portugal, Porto, Vila Nova de Gaia","Artigo 24.º, n.º 1, alínea c) do Código dos Contratos Públicos",,,,,,Não aplicável.,Não aplicável.,FALSE
Aquisição de Material para Colheita e Administração de Sangue,Concurso público,Aquisição de bens móveis,"33698000-9, Produtos para fins clínicos","Centro Hospitalar Vila Nova de Gaia - Espinho, E. P. E. (508142156)","P.M.H. - Prod. Médico-Hospitalares, Lda (502376899)","4.702,50 €",25-10-2016,25-08-2016,65 dias,"Portugal, Porto, Vila Nova de Gaia","Artigo 20.º, n.º 1, alínea b) do Código dos Contratos Públicos",,,,,,Não aplicável.,Não aplicável.,FALSE
Aquisição de Material para Colheita e Administração de Sangue,Concurso público,Aquisição de bens móveis,"33698000-9, Produtos para fins clínicos","Centro Hospitalar Vila Nova de Gaia - Espinho, E. P. E. (508142156)","B. Braun Medical, Lda (501506543)","624,00 €",25-10-2016,25-08-2016,65 dias,"Portugal, Porto, Vila Nova de Gaia","Artigo 20.º, n.º 1, alínea b) do Código dos Contratos Públicos",,,,,,Não aplicável.,Não aplicável.,FALSE
Aquisição de Material para Colheita e Administração de Sangue,Concurso público,Aquisição de bens móveis,"33698000-9, Produtos para fins clínicos","Centro Hospitalar Vila Nova de Gaia - Espinho, E. P. E. (508142156)","Werfen Portugal, Lda (501086110)","150.500,00 €",25-10-2016,20-09-2016,65 dias,"Portugal, Porto, Vila Nova de Gaia","Artigo 20.º, n.º 1, alínea b) do Código dos Contratos Públicos",,,,,,Não aplicável.,Não aplicável.,FALSE
Sistema de Remoção de Trombos Cerebrais,Ajuste Direto Regime Geral,Aquisição de bens móveis,"33100000-1, Equipamento médico","Centro Hospitalar Vila Nova de Gaia - Espinho, E. P. E. (508142156)","Medicinália - Cormédica, Lda (500684324)","37.200,00 €",25-10-2016,14-07-2016,90 dias,"Portugal, Porto, Vila Nova de Gaia","Artigo 20.º, n.º 1, alínea a) do Código dos Contratos Públicos",,,,,,Não aplicável.,Não aplicável.,FALSE
Aquisição de Material para Colheita e Administração de Sangue,Concurso público,Aquisição de bens móveis,"33698000-9, Produtos para fins clínicos","Centro Hospitalar Vila Nova de Gaia - Espinho, E. P. E. (508142156)","Medinfar Sorológico - Prod. e Equipamentos, S.A. (501197052)","330,00 €",25-10-2016,25-08-2016,65 dias,"Portugal, Porto, Vila Nova de Gaia","Artigo 20.º, n.º 1, alínea b) do Código dos Contratos Públicos",,,,,,Não aplicável.,Não aplicável.,FALSE
Kit p/ Cirurgia da Catarata c/ Facoemulsificação c/ Sistema,Ajuste Direto Regime Geral,Aquisição de bens móveis,"33100000-1, Equipamento médico","Centro Hospitalar Vila Nova de Gaia - Espinho, E. P. E. (508142156)",ALCON Portugal (501251685),"25.200,00 €",25-10-2016,18-08-2016,90 dias,"Portugal, Porto, Vila Nova de Gaia","Artigo 20.º, n.º 1, alínea a) do Código dos Contratos Públicos",,,,,,Não aplicável.,Não aplicável.,FALSE
Material de Consignação,Ajuste Direto Regime Geral,Aquisição de bens móveis,"33140000-3, Material médico de consumo","Centro Hospitalar Vila Nova de Gaia - Espinho, E. P. E. (508142156)",Johnson & Johnson Medical (500153370),"35.263,65 €",25-10-2016,08-03-2016,60 dias,"Portugal, Porto, Vila Nova de Gaia","Artigo 20.º, n.º 1, alínea a) do Código dos Contratos Públicos",,,,,,Não aplicável.,Não aplicável.,FALSE
Trastuzumab Emtansina 160 mg Pó conc sol inj Fr IV,Ajuste Direto Regime Geral,Aquisição de bens móveis,"33600000-6, Produtos farmacêuticos","Centro Hospitalar Vila Nova de Gaia - Espinho, E. P. E. (508142156)","ROCHE Farmacêutica Quimica, Lda (500233810)","108.063,60 €",25-10-2016,06-07-2016,30 dias,"Portugal, Porto, Vila Nova de Gaia","Artigo 24.º, n.º 1, alínea e) do Código dos Contratos Públicos",,,,,,Não aplicável.,Não aplicável.,FALSE
Destartarizador,Ajuste Direto Regime Geral,Aquisição de bens móveis,"33100000-1, Equipamento médico","Centro Hospitalar Vila Nova de Gaia - Espinho, E. P. E. (508142156)","GALIDENT Unipessoal, Lda (510747817)","1.398,00 €",25-10-2016,25-10-2016,10 dias,"Portugal, Porto, Vila Nova de Gaia","Artigo 20.º, n.º 1, alínea a) do Código dos Contratos Públicos",,,,,,Não aplicável.,Não aplicável.,FALSE
Material - St. Jude,Ajuste Direto Regime Geral,Aquisição de bens móveis,"33100000-1, Equipamento médico","Centro Hospitalar Vila Nova de Gaia - Espinho, E. P. E. (508142156)",St. Jude Medical Portugal (504180746),"62.000,00 €",25-10-2016,06-07-2016,30 dias,"Portugal, Porto, Vila Nova de Gaia","Artigo 20.º, n.º 1, alínea a) do Código dos Contratos Públicos",,,,,,Não aplicável.,Não aplicável.,FALSE
Protese Plana Malha não Absorv Polipropileno p/ Correção de Eventração,Ajuste Direto Regime Geral,Aquisição de bens móveis,"33100000-1, Equipamento médico","Centro Hospitalar Vila Nova de Gaia - Espinho, E. P. E. (508142156)",OPHTEC Portugal (510255086),"4.217,00 €",24-10-2016,24-10-2016,10 dias,"Portugal, Porto, Vila Nova de Gaia","Artigo 20.º, n.º 1, alínea a) do Código dos Contratos Públicos",,,,,,Não aplicável.,Não aplicável.,FALSE
Multif Sint Absorvivel 1 Ag Cil Curva,Ajuste Direto Regime Geral,Aquisição de bens móveis,"33100000-1, Equipamento médico","Centro Hospitalar Vila Nova de Gaia - Espinho, E. P. E. (508142156)","B. Braun Medical, Lda (501506543)","204,71 €",24-10-2016,24-10-2016,10 dias,"Portugal, Porto, Vila Nova de Gaia","Artigo 20.º, n.º 1, alínea a) do Código dos Contratos Públicos",,,,,,Não aplicável.,Não aplicável.,FALSE
AGULHA DE BIOPSIA PROSTATICA 16X16 e Plana Malha não Absorv Polipropileno p/ Correção de Eventração,Ajuste Direto Regime Geral,Aquisição de bens móveis,"33100000-1, Equipamento médico","Centro Hospitalar Vila Nova de Gaia - Espinho, E. P. E. (508142156)",C.R. Bard Portugal (502438274),"820,00 €",24-10-2016,24-10-2016,10 dias,"Portugal, Porto, Vila Nova de Gaia","Artigo 20.º, n.º 1, alínea a) do Código dos Contratos Públicos",,,,,,Não aplicável.,Não aplicável.,FALSE
Material Osteossintese,Ajuste Direto Regime Geral,Aquisição de bens móveis,"33100000-1, Equipamento médico","Centro Hospitalar Vila Nova de Gaia - Espinho, E. P. E. (508142156)",P.H.O. (504980580),"9.910,00 €",24-10-2016,24-10-2016,10 dias,"Portugal, Porto, Vila Nova de Gaia","Artigo 20.º, n.º 1, alínea a) do Código dos Contratos Públicos",,,,,,Não aplicável.,Não aplicável.,FALSE
Azul Brilhante 0.25mg/ml seringa 0.5ml,Ajuste Direto Regime Geral,Aquisição de bens móveis,"33600000-6, Produtos farmacêuticos","Centro Hospitalar Vila Nova de Gaia - Espinho, E. P. E. (508142156)",Oftaltec - Intrumentos Cirurgicos de Qualidade (503197149),"1.350,00 €",24-10-2016,24-10-2016,10 dias,"Portugal, Porto, Vila Nova de Gaia","Artigo 20.º, n.º 1, alínea a) do Código dos Contratos Públicos",,,,,,Não aplicável.,Não aplicável.,FALSE
Glucose 50 mg/ml Sol inj Fr 250 ml IV,Ajuste Direto Regime Geral,Aquisição de bens móveis,"33600000-6, Produtos farmacêuticos","Centro Hospitalar Vila Nova de Gaia - Espinho, E. P. E. (508142156)",OVERPHARMA (505792362),"503,20 €",24-10-2016,24-10-2016,10 dias,"Portugal, Porto, Vila Nova de Gaia","Artigo 20.º, n.º 1, alínea a) do Código dos Contratos Públicos",,,,,,Não aplicável.,Não aplicável.,FALSE
Glucose 50 mg/ml Sol inj Fr 250 ml IV,Ajuste Direto Regime Geral,Aquisição de bens móveis,"33600000-6, Produtos farmacêuticos","Centro Hospitalar Vila Nova de Gaia - Espinho, E. P. E. (508142156)",NORMON (505654156),"3.450,00 €",24-10-2016,24-10-2016,10 dias,"Portugal, Porto, Vila Nova de Gaia","Artigo 20.º, n.º 1, alínea a) do Código dos Contratos Públicos",,,,,,Não aplicável.,Não aplicável.,FALSE
Gentamicina 3 mg/g Pom oft Bisn 3.5 g,Ao abrigo de acordo-quadro (art.º 259.º),Aquisição de bens móveis,"33600000-6, Produtos farmacêuticos","Centro Hospitalar Vila Nova de Gaia - Espinho, E. P. E. (508142156)",Lab. Edol - Prod. Farmacêuticos (507072642),"810,00 €",24-10-2016,24-10-2016,10 dias,"Portugal, Porto, Vila Nova de Gaia",Artigo 259.º do Código dos Contratos Públicos,,,,,,1377420,Acordo quadro para fornecimento de medicamentos usados nas afecções oculares e otorrinolaringologias às instituições e serviços do serviço nacional de saúde,FALSE
Linezolida 600 mg Comp.,Ao abrigo de acordo-quadro (art.º 259.º),Aquisição de bens móveis,"33600000-6, Produtos farmacêuticos","Centro Hospitalar Vila Nova de Gaia - Espinho, E. P. E. (508142156)","LABORATORIOS PFIZER, LDA (500162166)","11.000,00 €",24-10-2016,24-10-2016,10 dias,"Portugal, Porto, Vila Nova de Gaia",Artigo 259.º do Código dos Contratos Públicos,,,,,,1326195,ACORDO QUADRO PARA FORNECIMENTO DE MEDICAMENTOS ANTI-INFECIOSOS: EXCETO ANTIVÍRICOS E ANTIFÚNGICOS ÀS INSTITUIÇÕES E SERVIÇOS DO SERVIÇO NACIONAL DE SAÚDE,FALSE
Protese de Revisão da Anca Cimentada,Ajuste Direto Regime Geral,Aquisição de bens móveis,"33100000-1, Equipamento médico","Centro Hospitalar Vila Nova de Gaia - Espinho, E. P. E. (508142156)",Stryker Portugal (504594214),"5.014,52 €",24-10-2016,24-10-2016,10 dias,"Portugal, Porto, Vila Nova de Gaia","Artigo 24.º, n.º 1, alínea e) do Código dos Contratos Públicos",,,,,,Não aplicável.,Não aplicável.,FALSE
ETANERCEPT 50 MG/1 ML SOL INJ CANETA 1 ML SC (BIOS),Ajuste Direto Regime Geral,Aquisição de bens móveis,"33600000-6, Produtos farmacêuticos","Centro Hospitalar Vila Nova de Gaia - Espinho, E. P. E. (508142156)","BIOGEN PORTUGAL SOC. FARM., UNIP., LDA. (506415740)","1.263,04 €",24-10-2016,24-10-2016,10 dias,"Portugal, Porto, Vila Nova de Gaia","Artigo 24.º, n.º 1, alínea e) do Código dos Contratos Públicos",,,,,,Não aplicável.,Não aplicável.,FALSE
"Cloreto de Sódio 0,9% Sol Inj Saco 500 ml",Ajuste Direto Regime Geral,Aquisição de bens móveis,"33100000-1, Equipamento médico","Centro Hospitalar Vila Nova de Gaia - Espinho, E. P. E. (508142156)","BAXTER MEDICO - FARMACÊUTICA, LDA (503347345)","4.500,00 €",21-10-2016,21-10-2016,10 dias,"Portugal, Porto, Vila Nova de Gaia","Artigo 20.º, n.º 1, alínea a) do Código dos Contratos Públicos",,,,,,Não aplicável.,Não aplicável.,FALSE
Oxigénio 100% Gás Inal Cilind Gás 50 l Inalatória,Ajuste Direto Regime Geral,Aquisição de bens móveis,"24111000-5, Hidrogénio, árgon, gases raros, azoto e oxigénio","Centro Hospitalar Vila Nova de Gaia - Espinho, E. P. E. (508142156)","Praxair Portugal Gases, S.A. (501738916)","19.658,64 €",21-10-2016,29-08-2016,180 dias,"Portugal, Porto, Vila Nova de Gaia","Artigo 20.º, n.º 1, alínea a) do Código dos Contratos Públicos",,,,,,Não aplicável.,Não aplicável.,FALSE
Resguardo de Protecção 60x60cm,Ajuste Direto Regime Geral,Aquisição de bens móveis,"33100000-1, Equipamento médico","Centro Hospitalar Vila Nova de Gaia - Espinho, E. P. E. (508142156)","Albino Dias de Andrade, Lda (ADA) (500013810)","8.200,00 €",21-10-2016,21-10-2016,10 dias,"Portugal, Porto, Vila Nova de Gaia","Artigo 20.º, n.º 1, alínea a) do Código dos Contratos Públicos",,,,,,Não aplicável.,Não aplicável.,FALSE
Tesoura de Membranas,Ajuste Direto Regime Geral,Aquisição de bens móveis,"33100000-1, Equipamento médico","Centro Hospitalar Vila Nova de Gaia - Espinho, E. P. E. (508142156)",ALCON Portugal (501251685),"2.160,00 €",21-10-2016,21-10-2016,10 dias,"Portugal, Porto, Vila Nova de Gaia","Artigo 20.º, n.º 4 do Código dos Contratos Públicos",,,,,,Não aplicável.,Não aplicável.,FALSE
Reparação do Intensificador de Imagem,Ajuste Direto Regime Geral,Aquisição de serviços,"50400000-9, Serviços de reparação e manutenção de equipamento médico e de precisão","Centro Hospitalar Vila Nova de Gaia - Espinho, E. P. E. (508142156)","PHILIPS PORTUGUESA, S.A. - Sector Healthcare (500216843)","435,00 €",21-10-2016,21-10-2016,10 dias,"Portugal, Porto, Vila Nova de Gaia","Artigo 24.º, n.º 1, alínea e) do Código dos Contratos Públicos",,,,,,Não aplicável.,Não aplicável.,FALSE
Reparação do Colonoscópio,Ajuste Direto Regime Geral,Aquisição de serviços,"50400000-9, Serviços de reparação e manutenção de equipamento médico e de precisão","Centro Hospitalar Vila Nova de Gaia - Espinho, E. P. E. (508142156)","OLYMPUS IBÉRIA, S.A.U. - Suc. em Portugal (980474710)","1.522,72 €",21-10-2016,21-10-2016,10 dias,"Portugal, Porto, Vila Nova de Gaia","Artigo 24.º, n.º 1, alínea e) do Código dos Contratos Públicos",,,,,,Não aplicável.,Não aplicável.,FALSE
Centrais de Detecção de Incêndio,Ajuste Direto Regime Geral,Aquisição de serviços,"79710000-4, Serviços de segurança","Centro Hospitalar Vila Nova de Gaia - Espinho, E. P. E. (508142156)","Prestibel - Empresa de Segurança, S.A. (501326456)","175,00 €",21-10-2016,21-10-2016,10 dias,"Portugal, Porto, Vila Nova de Gaia","Artigo 24.º, n.º 1, alínea c) do Código dos Contratos Públicos",,,,,,Não aplicável.,Não aplicável.,FALSE
Aquisição de Material - Cardinal,Ajuste Direto Regime Geral,Aquisição de bens móveis,"33140000-3, Material médico de consumo","Centro Hospitalar Vila Nova de Gaia - Espinho, E. P. E. (508142156)","Cardinal Health Portugal 513 Unip., Lda. (513620834)","31.400,00 €",21-10-2016,27-07-2016,150 dias,"Portugal, Porto, Vila Nova de Gaia","Artigo 20.º, n.º 1, alínea a) do Código dos Contratos Públicos",,,,,,Não aplicável.,Não aplicável.,FALSE
Reparação para Broncoscópio,Ajuste Direto Regime Geral,Aquisição de serviços,"50400000-9, Serviços de reparação e manutenção de equipamento médico e de precisão","Centro Hospitalar Vila Nova de Gaia - Espinho, E. P. E. (508142156)","ENDOTÉCNICA - Material Cirurgico, Lda (503818348)","1.176,00 €",21-10-2016,21-10-2016,10 dias,"Portugal, Porto, Vila Nova de Gaia","Artigo 24.º, n.º 1, alínea c) do Código dos Contratos Públicos",,,,,,Não aplicável.,Não aplicável.,FALSE
Grades p/ maca,Ajuste Direto Regime Geral,Aquisição de bens móveis,"33100000-1, Equipamento médico","Centro Hospitalar Vila Nova de Gaia - Espinho, E. P. E. (508142156)",MUNDINTER (500199906),"200,00 €",21-10-2016,21-10-2016,10 dias,"Portugal, Porto, Vila Nova de Gaia","Artigo 24.º, n.º 1, alínea e) do Código dos Contratos Públicos",,,,,,Não aplicável.,Não aplicável.,FALSE
Material p/ Elevador,Ajuste Direto Regime Geral,Aquisição de bens móveis,"42419500-1, Peças para elevadores, guindastes de vagonetas ou escadas rolantes","Centro Hospitalar Vila Nova de Gaia - Espinho, E. P. E. (508142156)",SCHMITT - ELEVADORES LDA (500230757),"272,75 €",21-10-2016,21-10-2016,10 dias,"Portugal, Porto, Vila Nova de Gaia","Artigo 24.º, n.º 1, alínea e) do Código dos Contratos Públicos",,,,,,Não aplicável.,Não aplicável.,FALSE
Reparação da Lâmpada de Fenda,Ajuste Direto Regime Geral,Aquisição de serviços,"50400000-9, Serviços de reparação e manutenção de equipamento médico e de precisão","Centro Hospitalar Vila Nova de Gaia - Espinho, E. P. E. (508142156)",JOSÉ COTTA (500155739),"420,00 €",21-10-2016,21-10-2016,10 dias,"Portugal, Porto, Vila Nova de Gaia","Artigo 24.º, n.º 1, alínea e) do Código dos Contratos Públicos",,,,,,Não aplicável.,Não aplicável.,FALSE
Placa p/ Craneoplastia em Titanio Reta,Ajuste Direto Regime Geral,Aquisição de bens móveis,"33100000-1, Equipamento médico","Centro Hospitalar Vila Nova de Gaia - Espinho, E. P. E. (508142156)",Eurocasmédica (503322105),"3.355,00 €",21-10-2016,21-10-2016,10 dias,"Portugal, Porto, Vila Nova de Gaia","Artigo 20.º, n.º 1, alínea a) do Código dos Contratos Públicos",,,,,,Não aplicável.,Não aplicável.,FALSE
Fio Guia e Cateter Vertebral,Ajuste Direto Regime Geral,Aquisição de bens móveis,"33600000-6, Produtos farmacêuticos","Centro Hospitalar Vila Nova de Gaia - Espinho, E. P. E. (508142156)","CSL Behring, Lda (503047201)","2.294,16 €",21-10-2016,21-10-2016,10 dias,"Portugal, Porto, Vila Nova de Gaia","Artigo 24.º, n.º 1, alínea e) do Código dos Contratos Públicos",,,,,,Não aplicável.,Não aplicável.,FALSE
Instrumental Cirurgico,Ajuste Direto Regime Geral,Aquisição de bens móveis,"33100000-1, Equipamento médico","Centro Hospitalar Vila Nova de Gaia - Espinho, E. P. E. (508142156)",Cardinal Health Portugal 513 Unip. Lda (513620834),"3.896,00 €",21-10-2016,21-10-2016,10 dias,"Portugal, Porto, Vila Nova de Gaia","Artigo 20.º, n.º 1, alínea a) do Código dos Contratos Públicos",,,,,,Não aplicável.,Não aplicável.,FALSE
Instrumental Cirurgico,Ajuste Direto Regime Geral,Aquisição de bens móveis,"33100000-1, Equipamento médico","Centro Hospitalar Vila Nova de Gaia - Espinho, E. P. E. (508142156)",António Moutinho & Cª. Lda (500025550),"1.015,74 €",21-10-2016,21-10-2016,10 dias,"Portugal, Porto, Vila Nova de Gaia","Artigo 20.º, n.º 1, alínea a) do Código dos Contratos Públicos",,,,,,Não aplicável.,Não aplicável.,FALSE
CANULA P/ ARTROSCOPIA,Ajuste Direto Regime Geral,Aquisição de bens móveis,"33100000-1, Equipamento médico","Centro Hospitalar Vila Nova de Gaia - Espinho, E. P. E. (508142156)","Smiths Medical (Portugal), Unipessoal, Lda (507445937)","1.776,00 €",21-10-2016,21-10-2016,10 dias,"Portugal, Porto, Vila Nova de Gaia","Artigo 20.º, n.º 1, alínea a) do Código dos Contratos Públicos",,,,,,Não aplicável.,Não aplicável.,FALSE
CANULA P/ ARTROSCOPIA,Ajuste Direto Regime Geral,Aquisição de bens móveis,"33100000-1, Equipamento médico","Centro Hospitalar Vila Nova de Gaia - Espinho, E. P. E. (508142156)",Stryker Portugal (504594214),"512,50 €",21-10-2016,21-10-2016,10 dias,"Portugal, Porto, Vila Nova de Gaia","Artigo 24.º, n.º 1, alínea e) do Código dos Contratos Públicos",,,,,,Não aplicável.,Não aplicável.,FALSE
Mult.Entran. De Poliester 3/0 c/ Sistema de Ancoragem,Ajuste Direto Regime Geral,Aquisição de bens móveis,"33100000-1, Equipamento médico","Centro Hospitalar Vila Nova de Gaia - Espinho, E. P. E. (508142156)",Johnson & Johnson Medical (500153370),"702,00 €",21-10-2016,21-10-2016,10 dias,"Portugal, Porto, Vila Nova de Gaia","Artigo 20.º, n.º 1, alínea a) do Código dos Contratos Públicos",,,,,,Não aplicável.,Não aplicável.,FALSE
Tubo de Ventilação Transtimpanica s/ Fio,Ajuste Direto Regime Geral,Aquisição de bens móveis,"33100000-1, Equipamento médico","Centro Hospitalar Vila Nova de Gaia - Espinho, E. P. E. (508142156)",Medtronic (504223933),"900,00 €",21-10-2016,20-10-2016,10 dias,"Portugal, Porto, Vila Nova de Gaia","Artigo 20.º, n.º 1, alínea a) do Código dos Contratos Públicos",,,,,,Não aplicável.,Não aplicável.,FALSE
Pinça p Laparoscopia c Corte 5 mm,Ajuste Direto Regime Geral,Aquisição de bens móveis,"33100000-1, Equipamento médico","Centro Hospitalar Vila Nova de Gaia - Espinho, E. P. E. (508142156)",Medtronic (504223933),"8.280,00 €",21-10-2016,21-10-2016,10 dias,"Portugal, Porto, Vila Nova de Gaia","Artigo 20.º, n.º 1, alínea a) do Código dos Contratos Públicos",,,,,,Não aplicável.,Não aplicável.,FALSE
Multif Sint Absorvivel 1 Ag Cil Curva,Ajuste Direto Regime Geral,Aquisição de bens móveis,"33100000-1, Equipamento médico","Centro Hospitalar Vila Nova de Gaia - Espinho, E. P. E. (508142156)","B. Braun Medical, Lda (501506543)","204,71 €",21-10-2016,20-10-2016,10 dias,"Portugal, Porto, Vila Nova de Gaia","Artigo 20.º, n.º 1, alínea a) do Código dos Contratos Públicos",,,,,,Não aplicável.,Não aplicável.,FALSE
Material de Drenagem,Ajuste Direto Regime Geral,Aquisição de bens móveis,"33100000-1, Equipamento médico","Centro Hospitalar Vila Nova de Gaia - Espinho, E. P. E. (508142156)","WORLD MEDICA, S. L. (B82612599)","9.750,00 €",21-10-2016,20-10-2016,10 dias,"Portugal, Porto, Vila Nova de Gaia","Artigo 20.º, n.º 1, alínea a) do Código dos Contratos Públicos",,,,,,Não aplicável.,Não aplicável.,FALSE
"CATETER BALÃO DE ANGIOPLASTIA P/ OCLUSÃO TOTAL 0,75MM",Ajuste Direto Regime Geral,Aquisição de bens móveis,"33100000-1, Equipamento médico","Centro Hospitalar Vila Nova de Gaia - Espinho, E. P. E. (508142156)","DERMIS - Produtos de Saúde, S.A. (507988990)","5.400,00 €",21-10-2016,20-10-2016,10 dias,"Portugal, Porto, Vila Nova de Gaia","Artigo 20.º, n.º 1, alínea a) do Código dos Contratos Públicos",,,,,,Não aplicável.,Não aplicável.,FALSE
TUBO DE ENTRADA C/ CLIP P/ AMPLIPREP,Ajuste Direto Regime Geral,Aquisição de bens móveis,"33100000-1, Equipamento médico","Centro Hospitalar Vila Nova de Gaia - Espinho, E. P. E. (508142156)",ROCHE (504282921),"3.473,28 €",21-10-2016,20-10-2016,10 dias,"Portugal, Porto, Vila Nova de Gaia","Artigo 20.º, n.º 1, alínea a) do Código dos Contratos Públicos",,,,,,Não aplicável.,Não aplicável.,FALSE
Monof C/ Polip 0ag Tapercut 1/2 circ 35mm fio de 100cm Azul,Ajuste Direto Regime Geral,Aquisição de bens móveis,"33100000-1, Equipamento médico","Centro Hospitalar Vila Nova de Gaia - Espinho, E. P. E. (508142156)","B. Braun Medical, Lda (501506543)","396,00 €",21-10-2016,20-10-2016,10 dias,"Portugal, Porto, Vila Nova de Gaia","Artigo 20.º, n.º 1, alínea a) do Código dos Contratos Públicos",,,,,,Não aplicável.,Não aplicável.,FALSE
Paclitaxel 6mg/ml Pó sol inj Fr 50ml IV (,Ajuste Direto Regime Geral,Aquisição de bens móveis,"33600000-6, Produtos farmacêuticos","Centro Hospitalar Vila Nova de Gaia - Espinho, E. P. E. (508142156)","FRESENIUS KABI PHARMA PORTUGAL, LDA (504293753)","2.337,60 €",21-10-2016,21-10-2016,10 dias,"Portugal, Porto, Vila Nova de Gaia","Artigo 20.º, n.º 1, alínea a) do Código dos Contratos Públicos",,,,,,Não aplicável.,Não aplicável.,FALSE
Material Diverso Colostomia,Ajuste Direto Regime Geral,Aquisição de bens móveis,"33100000-1, Equipamento médico","Centro Hospitalar Vila Nova de Gaia - Espinho, E. P. E. (508142156)","B. Braun Medical, Lda (501506543)","2.974,11 €",21-10-2016,20-10-2016,10 dias,"Portugal, Porto, Vila Nova de Gaia","Artigo 20.º, n.º 1, alínea a) do Código dos Contratos Públicos",,,,,,Não aplicável.,Não aplicável.,FALSE
Sonda de Laser Curva 20G,Ajuste Direto Regime Geral,Aquisição de bens móveis,"33100000-1, Equipamento médico","Centro Hospitalar Vila Nova de Gaia - Espinho, E. P. E. (508142156)","ALCON PORTUGAL-PROD.EQUIP.OFTALM., LDA (501251685)","4.152,00 €",21-10-2016,20-10-2016,10 dias,"Portugal, Porto, Vila Nova de Gaia","Artigo 20.º, n.º 1, alínea a) do Código dos Contratos Públicos",,,,,,Não aplicável.,Não aplicável.,FALSE
Capecitabina 500 mg comp,Ajuste Direto Regime Geral,Aquisição de bens móveis,"33600000-6, Produtos farmacêuticos","Centro Hospitalar Vila Nova de Gaia - Espinho, E. P. E. (508142156)","SANOFI - PRODUTOS FARMACÊUTICOS, LDA. (500134960)","630,00 €",21-10-2016,20-10-2016,10 dias,"Portugal, Porto, Vila Nova de Gaia","Artigo 20.º, n.º 1, alínea a) do Código dos Contratos Públicos",,,,,,Não aplicável.,Não aplicável.,FALSE
Clorambucilo 2mg comp - A.U.E 6363,Ajuste Direto Regime Geral,Aquisição de bens móveis,"33600000-6, Produtos farmacêuticos","Centro Hospitalar Vila Nova de Gaia - Espinho, E. P. E. (508142156)",Glosgrange Ltd t/a Derek Clarke Chemist (GB 231660783),"4.093,99 €",21-10-2016,20-10-2016,10 dias,"Portugal, Porto, Vila Nova de Gaia","Artigo 24.º, n.º 1, alínea e) do Código dos Contratos Públicos",,,,,,Não aplicável.,Não aplicável.,FALSE
Polielectrol Sol inj Fr 500 ml IV,Ajuste Direto Regime Geral,Aquisição de bens móveis,"33600000-6, Produtos farmacêuticos","Centro Hospitalar Vila Nova de Gaia - Espinho, E. P. E. (508142156)",OVERPHARMA (505792362),"2.570,00 €",21-10-2016,20-10-2016,10 dias,"Portugal, Porto, Vila Nova de Gaia","Artigo 20.º, n.º 1, alínea a) do Código dos Contratos Públicos",,,,,,Não aplicável.,Não aplicável.,FALSE
Sonda de Laser Curva 20G,Ajuste Direto Regime Geral,Aquisição de bens móveis,"33100000-1, Equipamento médico","Centro Hospitalar Vila Nova de Gaia - Espinho, E. P. E. (508142156)","ACCORD HEALTHCARE, UNIPESSOAL LDA (508622263)","1.754,00 €",21-10-2016,20-10-2016,10 dias,"Portugal, Porto, Vila Nova de Gaia","Artigo 20.º, n.º 1, alínea a) do Código dos Contratos Públicos",,,,,,Não aplicável.,Não aplicável.,FALSE
Irinotecano 20 mg/ml sol inj Fr 25 ml IV,Ajuste Direto Regime Geral,Aquisição de bens móveis,"33600000-6, Produtos farmacêuticos","Centro Hospitalar Vila Nova de Gaia - Espinho, E. P. E. (508142156)","Aurovitas Unipessoal, Lda (513053239)","2.579,00 €",21-10-2016,19-10-2016,10 dias,"Portugal, Porto, Vila Nova de Gaia","Artigo 20.º, n.º 1, alínea a) do Código dos Contratos Públicos",,,,,,Não aplicável.,Não aplicável.,FALSE
