Objeto do Contrato,Tipo de Procedimento,Tipo(s) de Contrato,CPVs,Entidade(s) Adjudicante(s),Entidade(s) Adjudicatária(s),Preço Contratual,Data de Publicação,Data de Celebração do Contrato,Prazo de Execução,Local de Execução,Fundamentação,Data de Fecho do Contrato,Preço Total Efetivo,Causas das Alterações ao Prazo,Causas das Alterações ao Preço,Estado,N.º registo do Acordo Quadro,Descrição do Acordo Quadro,Procedimento Centralizado
Aquisição de Material de Penso de Efeito Terapêutico,Ao abrigo de acordo-quadro (art.º 259.º),Aquisição de bens móveis,"33600000-6, Produtos farmacêuticos",Administração Regional de Saúde do Alentejo (ARSA) (503148768),"KVTECH PORTUGAL - PROD. MEDICOS UNIPESSOAL, LDA (508671531)","74.924,50 €",10-12-2018,14-02-2018,333 dias,"Portugal, Évora",Artigo 259.º do Código dos Contratos Públicos,14-12-2018,"74.924,50 €",,"",,1315192,Acordo Quadro para fornecimento de material de penso de efeito terapêutico às Instituições e Serviços do Serviço Nacional de Saúde,FALSE
Aquisição de Material de Penso de Efeito Terapêutico,Ao abrigo de acordo-quadro (art.º 259.º),Aquisição de bens móveis,"33600000-6, Produtos farmacêuticos",Administração Regional de Saúde do Alentejo (ARSA) (503148768),JOHNSON & JOHNSON PROD.PROF. (500153370),"1.799,00 €",10-12-2018,14-02-2018,333 dias,"Portugal, Évora",Artigo 259.º do Código dos Contratos Públicos,29-10-2018,"1.850,40 €",,A concurso foram 350 unidades e comprou-se 360 para ajustar às embalagens que fornecem,,1315192,Acordo Quadro para fornecimento de material de penso de efeito terapêutico às Instituições e Serviços do Serviço Nacional de Saúde,FALSE
Aquisição de Material de Penso de Efeito Terapêutico,Ao abrigo de acordo-quadro (art.º 259.º),Aquisição de bens móveis,"33600000-6, Produtos farmacêuticos",Administração Regional de Saúde do Alentejo (ARSA) (503148768),"MEDICINÁLIA CORMÉDICA, LDA. (500684324)","900,00 €",10-12-2018,05-04-2018,333 dias,"Portugal, Évora",Artigo 259.º do Código dos Contratos Públicos,20-12-2018,"910,00 €",,Ajustou-se as quantidades às embalagens fornecidas,,1315192,Acordo Quadro para fornecimento de material de penso de efeito terapêutico às Instituições e Serviços do Serviço Nacional de Saúde,FALSE
Aquisição de Material de Penso de Efeito Terapêutico,Ao abrigo de acordo-quadro (art.º 259.º),Aquisição de bens móveis,"33600000-6, Produtos farmacêuticos",Administração Regional de Saúde do Alentejo (ARSA) (503148768),MOLNLYCKE HEALTH CARE LDA (511101066),"1.172,50 €",10-12-2018,27-02-2018,333 dias,"Portugal, Évora",Artigo 259.º do Código dos Contratos Públicos,12-03-2018,"1.172,50 €",,"",,1315192,Acordo Quadro para fornecimento de material de penso de efeito terapêutico às Instituições e Serviços do Serviço Nacional de Saúde,FALSE
Aquisição de Material de Penso de Efeito Terapêutico,Ao abrigo de acordo-quadro (art.º 259.º),Aquisição de bens móveis,"33600000-6, Produtos farmacêuticos",Administração Regional de Saúde do Alentejo (ARSA) (503148768),OVERPHARMA – PRODUTOS MÉDICOS E FARMACÊUTICOS LDA (505792362),"1.490,00 €",10-12-2018,13-06-2018,333 dias,"Portugal, Évora",Artigo 259.º do Código dos Contratos Públicos,02-10-2018,"1.490,00 €",,"",,1315192,Acordo Quadro para fornecimento de material de penso de efeito terapêutico às Instituições e Serviços do Serviço Nacional de Saúde,FALSE
Aquisição de Material de Penso de Efeito Terapêutico,Ao abrigo de acordo-quadro (art.º 259.º),Aquisição de bens móveis,"33600000-6, Produtos farmacêuticos",Administração Regional de Saúde do Alentejo (ARSA) (503148768),Queenlabs - Especialidades Farmaceuticas Lda. (503984485),"304,50 €",10-12-2018,29-05-2018,333 dias,"Portugal, Évora",Artigo 259.º do Código dos Contratos Públicos,"","",,"",,1315192,Acordo Quadro para fornecimento de material de penso de efeito terapêutico às Instituições e Serviços do Serviço Nacional de Saúde,FALSE
Aquisição de Material de Efeito Terapêutico,Ao abrigo de acordo-quadro (art.º 259.º),Aquisição de bens móveis,"33600000-6, Produtos farmacêuticos",Administração Regional de Saúde do Alentejo (ARSA) (503148768),"QUILABAN,LDA. (500399670)","1.762,00 €",10-12-2018,29-05-2018,333 dias,"Portugal, Évora",Artigo 259.º do Código dos Contratos Públicos,07-11-2018,"1.762,00 €",,"",,1315192,Acordo Quadro para fornecimento de material de penso de efeito terapêutico às Instituições e Serviços do Serviço Nacional de Saúde,FALSE
Aquisição de  Material disposable de Bloco Operatório,Ao abrigo de acordo-quadro (art.º 259.º),Aquisição de bens móveis,"33600000-6, Produtos farmacêuticos","Administração Regional de Saúde do Alentejo, I. P. (503148768)","Anstacio Saldanha, Lda. (505804441)","111,44 €",07-12-2018,05-06-2018,334 dias,"Portugal, Évora",Artigo 259.º do Código dos Contratos Públicos,06-07-2018,"111,44 €",,"",,2102851,CP 2016/74 - Acordo quadro para fornecimento de Material disposable de bloco operatório - Parte I-B às Instituições e Serviços do Serviço Nacional de Saúde,FALSE
Aquisição de Material disposable de Bloco Operatório,Ao abrigo de acordo-quadro (art.º 259.º),Aquisição de bens móveis,"33600000-6, Produtos farmacêuticos","Administração Regional de Saúde do Alentejo, I. P. (503148768)","Quilaban, S. A. (500399670)","528,00 €",07-12-2018,20-03-2018,334 dias,"Portugal, Évora",Artigo 259.º do Código dos Contratos Públicos,06-12-2018,"528,00 €",,"",,2102851,CP 2016/74 - Acordo quadro para fornecimento de Material disposable de bloco operatório - Parte I-B às Instituições e Serviços do Serviço Nacional de Saúde,FALSE
Aquisição de Material disposable de Bloco Operatório,Ao abrigo de acordo-quadro (art.º 259.º),Aquisição de bens móveis,"33600000-6, Produtos farmacêuticos","Administração Regional de Saúde do Alentejo, I. P. (503148768)",DOCWORLD LDA (508592909),"212,00 €",07-12-2018,14-02-2018,334 dias,"Portugal, Évora",Artigo 259.º do Código dos Contratos Públicos,09-07-2018,"212,00 €",,"",,2102851,CP 2016/74 - Acordo quadro para fornecimento de Material disposable de bloco operatório - Parte I-B às Instituições e Serviços do Serviço Nacional de Saúde,FALSE
Aquisição de Cadeira dec Estomatologia para o Centro de Saúde de Estremoz,Ao abrigo de acordo-quadro (art.º 259.º),Aquisição de bens móveis,"33126000-9, Aparelhos para estomatologia",Administração Regional de Saúde do Alentejo (ARSA) (503148768),"Montellano, Lda. (500196494)","12.700,00 €",06-12-2018,10-09-2018,110 dias,Portugal,Artigo 259.º do Código dos Contratos Públicos,06-12-2018,"12.700,00 €",,"",,3053244,CP 2017/209 - Acordo quadro para fornecimento de Equipamentos de saúde oral para as Unidades Dentárias das Instituições e Serviços do Serviço Nacional de Saúde,FALSE
Aquisição de Dispositivos Médicos Diversos,Ao abrigo de acordo-quadro (art.º 259.º),Aquisição de bens móveis,"33600000-6, Produtos farmacêuticos","Administração Regional de Saúde do Alentejo, I. P. (503148768)","JOHNSON  & JOHNSON, Lda. (500153370)","1.663,20 €",04-12-2018,19-11-2018,335 dias,"Portugal, Évora",Artigo 259.º do Código dos Contratos Públicos,04-12-2018,"1.663,20 €",,"",,2414255,CP 2017/36 - Acordo Quadro para fornecimento de material de dispositivos médicos diversos às Instituições e Serviços do Serviço Nacional de Saúde,FALSE
Aquisição de Reagentes e Testes Rápidos,Ao abrigo de acordo-quadro (art.º 259.º),Aquisição de bens móveis,"33600000-6, Produtos farmacêuticos",Administração Regional de Saúde do Alentejo (ARSA) (503148768),"QUILABAN - Quimica Laboratorial Analítica, Lda. (500399670)","28,00 €",04-12-2018,09-10-2018,335 dias,"Portugal, Évora",Artigo 259.º do Código dos Contratos Públicos,16-10-2018,"28,00 €",,"",,1555404,CP 2015/73 - Acordo quadro para fornecimento de Reagentes - Testes Rápidos às Instituições e Serviços do Serviço Nacional de Saúde,FALSE
Aquisição de Curetas Descartáveis de 4 mm,Ao abrigo de acordo-quadro (art.º 259.º),Aquisição de bens móveis,"33600000-6, Produtos farmacêuticos","Administração Regional de Saúde do Alentejo, I. P. (503148768)","H. R. - Hospitalar, Lda (501895558)","69,00 €",04-12-2018,20-03-2018,286 dias,"Portugal, Évora",Artigo 259.º do Código dos Contratos Públicos,29-03-2018,"69,00 €",,"",,2414255,CP 2017/36 - Acordo Quadro para fornecimento de material de dispositivos médicos diversos às Instituições e Serviços do Serviço Nacional de Saúde,FALSE
Aquisição de  Consumíveis para equipamentos Reflotron e Cobas para o ano de 2018,Ajuste Direto Regime Geral,Aquisição de bens móveis,"33600000-6, Produtos farmacêuticos","Administração Regional de Saúde do Alentejo, I. P. (503148768)",ROCHE SISTEMAS DIAGNOSTICOS LDA (504282921),"6.492,00 €",04-12-2018,14-02-2018,320 dias,"Portugal, Évora","Artigo 24.º, n.º 1, alínea e), subalínea iii) do Código dos Contratos Públicos",20-12-2018,"6.492,00 €",,"",,Não aplicável.,Não aplicável.,FALSE
Aquisição Material Consumo Oral,Ajuste Direto Regime Geral,Aquisição de bens móveis,"33600000-6, Produtos farmacêuticos",Administração Regional de Saúde do Alentejo (ARSA) (503148768),"Laboratórios Inibsa, S.A. (500139571)","5.712,00 €",04-12-2018,01-09-2017,90 dias,"Portugal, Évora","Artigo 20.º, n.º 1, alínea a) do Código dos Contratos Públicos",29-12-2017,"5.712,00 €",,"",,Não aplicável.,Não aplicável.,FALSE
Aquisição de Nastros e Fitas Cirúrgicas,Ao abrigo de acordo-quadro (art.º 259.º),Aquisição de bens móveis,"33600000-6, Produtos farmacêuticos","Administração Regional de Saúde do Alentejo, I. P. (503148768)","Dimor Lusitana, Lda (500730741)","277,20 €",03-12-2018,02-07-2018,178 dias,"Portugal, Évora",Artigo 259.º do Código dos Contratos Públicos,31-07-2018,"277,20 €",,"",,2183753,CP 2016/82 - Acordo quadro para fornecimento de Nastros e Fitas Cirúrgicas às Instituições e Serviços do Serviço Nacional de Saúde,FALSE
Aquisição de 10200 Batas de Uso Irrecuperável,Ao abrigo de acordo-quadro (art.º 259.º),Aquisição de bens móveis,"33600000-6, Produtos farmacêuticos","Administração Regional de Saúde do Alentejo, I. P. (503148768)","Docworld - Dispositivos Médicos, Lda (508592909)","3.049,80 €",03-12-2018,20-06-2018,190 dias,"Portugal, Évora",Artigo 259.º do Código dos Contratos Públicos,12-07-2018,"3.049,80 €",,"",,2078840,CP 2016/24 - Acordo quadro para fornecimento de Material disposable de bloco operatório - Parte I-A às Instituições e Serviços do Serviço Nacional de Saúde,FALSE
"250 pensos Poliuretano c\silicone, normal 15 x 15 cm s\ rebordo",Ao abrigo de acordo-quadro (art.º 259.º),Aquisição de bens móveis,"33600000-6, Produtos farmacêuticos","Administração Regional de Saúde do Alentejo, I. P. (503148768)","Molnlycke Health Care, Lda (511101066)","7.035,00 €",03-12-2018,06-07-2018,172 dias,"Portugal, Évora",Artigo 259.º do Código dos Contratos Públicos,31-07-2018,"7.035,00 €",,"",,2967011,"157004 - Aquisição de material de penso c/ efeito terapêutico constante do AQ2014/10, ao abrigo do 259º",FALSE
100 caixas Adesivo para sutura Cutânea (75X3mm),Ao abrigo de acordo-quadro (art.º 259.º),Aquisição de bens móveis,"33600000-6, Produtos farmacêuticos","Administração Regional de Saúde do Alentejo, I. P. (503148768)","Smith & Nephew, Lda. (503552461)","1.200,00 €",03-12-2018,10-07-2018,170 dias,"Portugal, Évora",Artigo 259.º do Código dos Contratos Públicos,31-07-2018,"1.200,00 €",,"",,2183748,Pensos especiais,FALSE
300 bisnagas de Iodopovidona 100mg/g,Ao abrigo de acordo-quadro (art.º 259.º),Aquisição de bens móveis,"33600000-6, Produtos farmacêuticos","Administração Regional de Saúde do Alentejo, I. P. (503148768)","NYLAN, Lda (502248793)","675,00 €",03-12-2018,19-06-2018,190 dias,"Portugal, Évora",Artigo 259.º do Código dos Contratos Públicos,15-10-2018,"675,00 €",,"",,1406003,CP 2015/8,FALSE
36000 pensos rápidos estéril 15x40 mm,Ao abrigo de acordo-quadro (art.º 259.º),Aquisição de bens móveis,"33600000-6, Produtos farmacêuticos","Administração Regional de Saúde do Alentejo, I. P. (503148768)","Bastos Viegas, S.A. (500042772)","219,60 €",03-12-2018,18-05-2018,225 dias,"Portugal, Évora",Artigo 259.º do Código dos Contratos Públicos,14-09-2018,"219,60 €",,"",,2183748,Pensos especiais,FALSE
