Objeto do Contrato,Tipo de Procedimento,Tipo(s) de Contrato,CPVs,Entidade(s) Adjudicante(s),Entidade(s) Adjudicatária(s),Preço Contratual,Data de Publicação,Data de Celebração do Contrato,Prazo de Execução,Local de Execução,Fundamentação,Data de Fecho do Contrato,Preço Total Efetivo,Causas das Alterações ao Prazo,Causas das Alterações ao Preço,Estado,N.º registo do Acordo Quadro,Descrição do Acordo Quadro,Procedimento Centralizado
Aquisição de serviços de realocação de equipamentos e separação física FHS,Ajuste Direto Regime Geral,Aquisição de serviços,"50334400-9, Serviços de manutenção de sistemas de comunicações","SPMS - Serviços Partilhados do Ministério da Saúde, E. P. E. (509540716)","Timegarden, Lda. (510354939)","9.500,00 €",09-02-2015,23-12-2014,7 dias,Portugal,"Artigo 20.º, n.º 1, alínea a) do Código dos Contratos Públicos",31-12-2014,"9.500,00 €",,,,Não aplicável.,Não aplicável.,FALSE
Aquisição de licenciamento da Plataforma XEO,Ajuste Direto Regime Geral,Aquisição de bens móveis,"48000000-8, Pacotes de software e sistemas de informação","SPMS - Serviços Partilhados do Ministério da Saúde, E. P. E. (509540716)","ITDS - Internet, Tecnologias e Desenvolvimento de Software, S. A. (506247058)","6.500,00 €",09-02-2015,31-12-2014,365 dias,"Portugal, Lisboa, Lisboa","Artigo 20.º, n.º 1, alínea a) do Código dos Contratos Públicos","","",,,,Não aplicável.,Não aplicável.,FALSE
Aquisição de serviços de manutenção e suporte aplicacional de informação BAS,Ajuste Direto Regime Geral,Aquisição de serviços,"72500000-0, Serviços relacionados com a informática","SPMS - Serviços Partilhados do Ministério da Saúde, E. P. E. (509540716)","ITDS - Internet, Tecnologias e Desenvolvimento de Software, S. A. (506247058)","9.778,50 €",09-02-2015,16-12-2014,46 dias,"Portugal, Porto, Porto","Artigo 20.º, n.º 1, alínea a) do Código dos Contratos Públicos",31-12-2015,"9.778,50 €",,,,Não aplicável.,Não aplicável.,FALSE
"Aquisição de serviços de higiene sanitária para os edifícios da SPMS, EPE, para o ano de 2015",Ajuste Direto Regime Geral,Aquisição de serviços,"85142300-9, Serviços de higiene","SPMS - Serviços Partilhados do Ministério da Saúde, E. P. E. (509540716)","Rentokil Portugal - Serviços de Portecção Ambiental, Lda. (501351167)","6.804,46 €",09-02-2015,16-12-2014,365 dias,"Portugal, Lisboa, Lisboa<BR/>Portugal, Porto, Porto","Artigo 20.º, n.º 1, alínea a) do Código dos Contratos Públicos","","",,,,Não aplicável.,Não aplicável.,FALSE
Aquisição de serviços de consultadoria na área técnica,Ajuste Direto Regime Geral,Aquisição de serviços,"71621000-7, Serviços técnicos de análise ou consultoria","SPMS - Serviços Partilhados do Ministério da Saúde, E. P. E. (509540716)","Violet Morning, Consultoria Lda. (513333916)","71.794,80 €",09-02-2015,30-01-2015,730 dias,"Portugal, Lisboa, Lisboa","Artigo 20.º, n.º 1, alínea a) do Código dos Contratos Públicos","","",,,,Não aplicável.,Não aplicável.,FALSE
Aquisição de seviços de desenvolvimento e manutenção aplicacional SCDGF,Ajuste Direto Regime Geral,Aquisição de serviços,"72500000-0, Serviços relacionados com a informática","SPMS - Serviços Partilhados do Ministério da Saúde, E. P. E. (509540716)","OLISIPO - Formação e Consultoria em Tecnologias de Informação, S. A. (503169714)","9.408,00 €",09-02-2015,16-12-2014,60 dias,"Portugal, Lisboa, Lisboa","Artigo 20.º, n.º 1, alínea a) do Código dos Contratos Públicos",28-02-2015,"9.408,00 €",,,,Não aplicável.,Não aplicável.,FALSE
Aquisição de serviços de desenvolvimento e manutenção aplicacional SI.VIDA,Ao abrigo de acordo-quadro (art.º 259.º),Aquisição de serviços,"72500000-0, Serviços relacionados com a informática","SPMS - Serviços Partilhados do Ministério da Saúde, E. P. E. (509540716)","CAPGEMINI Portugal - Serviços de Consultoria e Informática, Lda. (502829257)","71.400,00 €",02-02-2015,23-12-2014,365 dias,"Portugal, Porto, Porto",Artigo 259.º do Código dos Contratos Públicos,31-12-2015,"71.400,00 €",,,,494439,"CONCURSO PÚBLICO COM PUBLICAÇÃO NO JOUE PARA A CELEBRAÇÃO DE ACORDO QUADRO PARA A PRESTAÇÃO DE SERVIÇOS DE CONSULTADORIA, DESENVOLVIMENTO E MANUTENÇÃO DE SOFTWARE  ",FALSE
"Aquisição de serviços de desenvolvimento e manutenção aplicacional corretiva e evolutiva do SINUS, SAM e SAPE",Ao abrigo de acordo-quadro (art.º 259.º),Aquisição de serviços,"72500000-0, Serviços relacionados com a informática","SPMS - Serviços Partilhados do Ministério da Saúde, E. P. E. (509540716)","Altranportugal, S. A. (504272179)","53.856,00 €",02-02-2015,29-12-2014,365 dias,"Portugal, Porto, Porto",Artigo 259.º do Código dos Contratos Públicos,31-12-2015,"53.856,00 €",,,,425776,CONCURSO PÚBLICO n.º 20120117 -,FALSE
Aquisição de serviços de definição de modelo de aferição de poupanças,Ajuste Direto Regime Geral,Aquisição de serviços,"72224000-1, Serviços de consultoria em gestão de projectos","SPMS - Serviços Partilhados do Ministério da Saúde, E. P. E. (509540716)","Delloitte Consultores, S. A. (502310090)","73.480,00 €",02-02-2015,22-12-2014,91 dias,"Portugal, Lisboa, Lisboa","Artigo 20.º, n.º 1, alínea a) do Código dos Contratos Públicos",31-03-2015,"73.480,00 €",,,,Não aplicável.,Não aplicável.,FALSE
