Objeto do Contrato,Tipo de Procedimento,Tipo(s) de Contrato,CPVs,Entidade(s) Adjudicante(s),Entidade(s) Adjudicatária(s),Preço Contratual,Data de Publicação,Data de Celebração do Contrato,Prazo de Execução,Local de Execução,Fundamentação,Data de Fecho do Contrato,Preço Total Efetivo,Causas das Alterações ao Prazo,Causas das Alterações ao Preço,Estado,N.º registo do Acordo Quadro,Descrição do Acordo Quadro,Procedimento Centralizado
Subscrição de plataforma eletronica de contratação publica,Ajuste Direto Regime Geral,Aquisição de serviços,"72000000-5, Serviços de TI: consultoria, desenvolvimento de software, Internet e apoio",Centro de Medicina de Reabilitação da Região Centro - Rovisco Pais (503767336),VORTAL HEALTH (505141019),"3.725,00 €",21-04-2017,13-01-2017,350 dias,"Portugal, Coimbra, Cantanhede","Artigo 26.º, n.º 1, alínea a) do Código dos Contratos Públicos",03-02-2017,"3.725,00 €",,"",,Não aplicável.,Não aplicável.,FALSE
Prest serviços de alojamento e registos Pag Web,Ajuste Direto Regime Geral,Aquisição de serviços,"72000000-5, Serviços de TI: consultoria, desenvolvimento de software, Internet e apoio",Centro de Medicina de Reabilitação da Região Centro - Rovisco Pais (503767336),Hlink (506691390),"491,57 €",21-04-2017,13-01-2017,330 dias,"Portugal, Coimbra, Cantanhede","Artigo 26.º, n.º 1, alínea a) do Código dos Contratos Públicos",31-12-2017,"491,57 €",,"",,Não aplicável.,Não aplicável.,FALSE
Fornecimento de gasoleo de aquecimento 2017,Ajuste Direto Regime Geral,Aquisição de serviços,"76000000-3, Serviços relacionados com as indústrias do gás e do petróleo",Centro de Medicina de Reabilitação da Região Centro - Rovisco Pais (503767336),Petroleos de Portugal - Petrogal SA (500697370),"24.999,75 €",21-04-2017,16-01-2017,350 dias,"Portugal, Coimbra, Cantanhede","Artigo 26.º, n.º 1, alínea f) do Código dos Contratos Públicos",31-12-2017,"10.001,50 €",,Desativação de serviço,,Não aplicável.,Não aplicável.,FALSE
Fornecimento de agua durante o ano 2017,Ajuste Direto Regime Geral,Aquisição de serviços,"90000000-7, Serviços relativos a águas residuais, resíduos, limpeza e ambiente",Centro de Medicina de Reabilitação da Região Centro - Rovisco Pais (503767336),INOVA (506091481),"73.000,08 €",21-04-2017,16-01-2017,350 dias,"Portugal, Coimbra, Cantanhede","Artigo 26.º, n.º 1, alínea f) do Código dos Contratos Públicos",31-12-2017,"35.576,20 €",,Redução de consumo,,Não aplicável.,Não aplicável.,FALSE
Manutenção de software (RHVNET e ESCALAS),Ajuste Direto Regime Geral,Aquisição de serviços,"50000000-5, Serviços de reparação e manutenção",Centro de Medicina de Reabilitação da Região Centro - Rovisco Pais (503767336),AdvancingTo (506002144),"8.000,00 €",20-04-2017,12-10-2016,80 dias,"Portugal, Coimbra, Cantanhede","Artigo 26.º, n.º 1, alínea a) do Código dos Contratos Públicos",31-12-2017,"8.000,00 €",,"",,Não aplicável.,Não aplicável.,FALSE
"Manutenção de software (EIS-GH, REQMCDT)",Ajuste Direto Regime Geral,Aquisição de serviços,"50000000-5, Serviços de reparação e manutenção",Centro de Medicina de Reabilitação da Região Centro - Rovisco Pais (503767336),Advancing TO (506002144),"7.000,00 €",20-04-2017,28-12-2016,3 dias,"Portugal, Coimbra, Cantanhede","Artigo 26.º, n.º 1, alínea a) do Código dos Contratos Públicos",31-12-2017,"7.000,00 €",,"",,Não aplicável.,Não aplicável.,FALSE
"ManutençaO anual EIS-GH, TB e REQMCDT",Ajuste Direto Regime Geral,Aquisição de serviços,"72000000-5, Serviços de TI: consultoria, desenvolvimento de software, Internet e apoio",Centro de Medicina de Reabilitação da Região Centro - Rovisco Pais (503767336),ADVANCING TO (506002144),"7.000,00 €",18-04-2017,16-01-2017,345 dias,"Portugal, Coimbra, Cantanhede","Artigo 26.º, n.º 1, alínea a) do Código dos Contratos Públicos",31-12-2017,"7.000,00 €",,"",,Não aplicável.,Não aplicável.,FALSE
Manutenção anual RHV E ESCALAS,Ajuste Direto Regime Geral,Aquisição de serviços,"72000000-5, Serviços de TI: consultoria, desenvolvimento de software, Internet e apoio",Centro de Medicina de Reabilitação da Região Centro - Rovisco Pais (503767336),ADVANCING TO (506002144),"8.000,00 €",18-04-2017,16-01-2017,345 dias,"Portugal, Coimbra, Cantanhede","Artigo 26.º, n.º 1, alínea a) do Código dos Contratos Públicos","","",,"",,Não aplicável.,Não aplicável.,FALSE
Prestação de serviços de manutenção aos servidores,Ajuste Direto Regime Geral,Aquisição de serviços,"50000000-5, Serviços de reparação e manutenção",Centro de Medicina de Reabilitação da Região Centro - Rovisco Pais (503767336),MAINCAPITAL (510093833),"9.900,00 €",18-04-2017,16-01-2017,340 dias,"Portugal, Coimbra, Cantanhede","Artigo 26.º, n.º 1, alínea a) do Código dos Contratos Públicos","","",,"",,Não aplicável.,Não aplicável.,FALSE
Prestação de serviço movel terrestre,Ajuste Direto Regime Geral,Aquisição de serviços,"64000000-6, Serviços postais e de telecomunicações",Centro de Medicina de Reabilitação da Região Centro - Rovisco Pais (503767336),"MEO, S.A, (504615947)","9.000,00 €",18-04-2017,10-03-2017,270 dias,"Portugal, Coimbra, Cantanhede","Artigo 26.º, n.º 1, alínea a) do Código dos Contratos Públicos","","",,"",,Não aplicável.,Não aplicável.,FALSE
Fornecimento e montagem de caldeira a gas,Ajuste Direto Regime Geral,Aquisição de bens móveis,"09000000-3, Produtos petrolíferos, combustíveis, electricidade e outras fontes de energia",Centro de Medicina de Reabilitação da Região Centro - Rovisco Pais (503767336),Cimabitus (506706699),"8.856,00 €",18-04-2017,28-02-2017,30 dias,"Portugal, Coimbra, Cantanhede","Artigo 26.º, n.º 1, alínea a) do Código dos Contratos Públicos",21-04-2017,"8.856,00 €",,"",,Não aplicável.,Não aplicável.,FALSE
Prestação serviços de segurança - Janeiro,Ajuste Direto Regime Geral,Aquisição de serviços,"79000000-4, Serviços a empresas: direito, comercialização, consultoria, recrutamento, impressão e segurança",Centro de Medicina de Reabilitação da Região Centro - Rovisco Pais (503767336),2045 Empresa de segurança Lda (502332905),"6.642,00 €",18-04-2017,31-01-2017,30 dias,"Portugal, Coimbra, Cantanhede","Artigo 26.º, n.º 1, alínea a) do Código dos Contratos Públicos",31-01-2017,"6.642,00 €",,"",,Não aplicável.,Não aplicável.,FALSE
Medicamento Toxina,Ajuste Direto Regime Geral,Aquisição de bens móveis,"33000000-0, Equipamento médico, medicamentos e produtos para cuidados pessoais",Centro de Medicina de Reabilitação da Região Centro - Rovisco Pais (503767336),Ipsen (502609800),"9.377,82 €",18-04-2017,24-02-2017,30 dias,"Portugal, Coimbra, Cantanhede","Artigo 26.º, n.º 1, alínea a) do Código dos Contratos Públicos",25-03-2017,"9.377,82 €",,"",,Não aplicável.,Não aplicável.,FALSE
Medicamento Toxina,Ajuste Direto Regime Geral,Aquisição de bens móveis,"33000000-0, Equipamento médico, medicamentos e produtos para cuidados pessoais",Centro de Medicina de Reabilitação da Região Centro - Rovisco Pais (503767336),Ipsen (502609800),"9.377,82 €",18-04-2017,15-03-2017,30 dias,"Portugal, Coimbra, Cantanhede","Artigo 26.º, n.º 1, alínea a) do Código dos Contratos Públicos",28-04-2017,"9.377,82 €",,"",,Não aplicável.,Não aplicável.,FALSE
Medicamentos Diversos,Ajuste Direto Regime Geral,Aquisição de bens móveis,"33000000-0, Equipamento médico, medicamentos e produtos para cuidados pessoais",Centro de Medicina de Reabilitação da Região Centro - Rovisco Pais (503767336),Sanofi (500134960),"5.884,35 €",18-04-2017,22-01-2016,30 dias,"Portugal, Coimbra, Cantanhede","Artigo 26.º, n.º 1, alínea a) do Código dos Contratos Públicos",23-02-2017,"5.884,35 €",,"",,Não aplicável.,Não aplicável.,FALSE
Medicamento Toxina,Ajuste Direto Regime Geral,Aquisição de bens móveis,"33000000-0, Equipamento médico, medicamentos e produtos para cuidados pessoais",Centro de Medicina de Reabilitação da Região Centro - Rovisco Pais (503767336),IPSEN (502609800),"9.377,82 €",18-04-2017,19-02-2016,30 dias,"Portugal, Coimbra, Cantanhede","Artigo 26.º, n.º 1, alínea a) do Código dos Contratos Públicos",24-03-2017,"9.377,82 €",,"",,Não aplicável.,Não aplicável.,FALSE
Medicamentos,Ajuste Direto Regime Geral,Aquisição de bens móveis,"33000000-0, Equipamento médico, medicamentos e produtos para cuidados pessoais",Centro de Medicina de Reabilitação da Região Centro - Rovisco Pais (503767336),IPSEN (502609800),"9.377,82 €",17-04-2017,22-02-2016,30 dias,"Portugal, Coimbra, Cantanhede","Artigo 26.º, n.º 1, alínea a) do Código dos Contratos Públicos",24-03-2017,"9.377,82 €",,"",,Não aplicável.,Não aplicável.,FALSE
Medicamentos,Ajuste Direto Regime Geral,Aquisição de bens móveis,"33000000-0, Equipamento médico, medicamentos e produtos para cuidados pessoais",Centro de Medicina de Reabilitação da Região Centro - Rovisco Pais (503767336),Sanofi (500134960),"5.059,49 €",17-04-2017,16-03-2016,30 dias,"Portugal, Coimbra, Cantanhede","Artigo 26.º, n.º 1, alínea a) do Código dos Contratos Públicos",21-04-2017,"5.059,49 €",,"",,Não aplicável.,Não aplicável.,FALSE
"Aquisição de Segurança , Apoio vigilancia",Ajuste Direto Regime Geral,Aquisição de bens móveis,"35000000-4, Equipamento de segurança, combate a incêndios, polícia e defesa",Centro de Medicina de Reabilitação da Região Centro - Rovisco Pais (503767336),Empresa de Segurança 2045 (502332905),"6.642,00 €",11-04-2017,29-04-2016,60 dias,"Portugal, Coimbra, Cantanhede","Artigo 26.º, n.º 1, alínea a) do Código dos Contratos Públicos","","",,"",,Não aplicável.,Não aplicável.,FALSE
