Objeto do Contrato,Tipo de Procedimento,Tipo(s) de Contrato,CPVs,Entidade(s) Adjudicante(s),Entidade(s) Adjudicatária(s),Preço Contratual,Data de Publicação,Data de Celebração do Contrato,Prazo de Execução,Local de Execução,Fundamentação,Data de Fecho do Contrato,Preço Total Efetivo,Causas das Alterações ao Prazo,Causas das Alterações ao Preço,Estado,N.º registo do Acordo Quadro,Descrição do Acordo Quadro,Procedimento Centralizado
Aquisição de Plataforma de Salvaguardas e Recuperação de Dados da Rede do CHP,Concurso público,Aquisição de bens móveis,"30230000-0, Equipamento informático","Centro Hospitalar Porto, E. P. E. (508331471)",GFI Portugal -Tecnologias da Informação SA (502726890),"88.680,00 €",20-11-2017,09-11-2017,95 dias,"Portugal, Porto, Porto","Artigo 20.º, n.º 1, alínea b) do Código dos Contratos Públicos",15-05-2018,"88.680,00 €",NÃO APLICÁVEL,NÃO APLICÁVEL,,Não aplicável.,Não aplicável.,FALSE
SERVIÇOS DE APOIO Á FORMAÇÃO CO FINANCIADA - POISE,Ajuste Direto Regime Geral,Aquisição de serviços,"92312212-0, Serviços relacionados com a preparação de manuais de formação","Centro Hospitalar Porto, E. P. E. (508331471)"," SINASE - RECURSOS HUMANOS , LDA. (502851791)","24.419,00 €",20-11-2017,09-11-2017,365 dias,"Portugal, Porto, Porto","Artigo 20.º, n.º 1, alínea a) do Código dos Contratos Públicos","","","","",,Não aplicável.,Não aplicável.,FALSE
Fornecimento e Montagem de Máquina de Lavar e Desinfectar para a Central de Esterilização,Concurso público,Aquisição de bens móveis,"33191100-6, Esterilizador","Centro Hospitalar do Porto, E.P.E. (CHP) (508331471)","A. MENDES SILVA, LDA (502064080)","89.868,00 €",14-11-2017,10-11-2016,60 dias,"Portugal, Porto, Porto","Artigo 20.º, n.º 1, alínea b) do Código dos Contratos Públicos","","","","",,Não aplicável.,Não aplicável.,FALSE
"CL Nº 0125/2014- PRESTAÇÃO DE SERVIÇOS DE HIGIENE E LIMPEZA NO CHP, EPE",Concurso limitado por prévia qualificação,Aquisição de serviços,"90910000-9, Serviços de limpeza","Centro Hospitalar Porto, E. P. E. (508331471)","IBERLIM - SOCIEDADE TECNICA DE LIMPEZAS, S.A. (503501670)","3.672.019,00 €",13-11-2017,01-07-2017,1095 dias,"Portugal, Porto, Porto","Artigo 20.º, n.º 1, alínea b) do Código dos Contratos Públicos","","","","",,Não aplicável.,Não aplicável.,FALSE
AQUISIÇÃO DE FIBROSCOPIOS,Ajuste Direto Regime Geral,Aquisição de bens móveis,"33100000-1, Equipamento médico","Centro Hospitalar do Porto, E.P.E. (CHP) (508331471)","OLYMPUS IBERIA,S.A.U. (980474710)","8.500,00 €",13-11-2017,25-05-2016,30 dias,"Portugal, Porto, Porto","Artigo 20.º, n.º 1, alínea a) do Código dos Contratos Públicos",22-07-2016,"8.500,00 €",NÃO APLICÁVEL,NÃO APLICÁVEL,,Não aplicável.,Não aplicável.,FALSE
