Objeto do Contrato,Tipo de Procedimento,Tipo(s) de Contrato,CPVs,Entidade(s) Adjudicante(s),Entidade(s) Adjudicatária(s),Preço Contratual,Data de Publicação,Data de Celebração do Contrato,Prazo de Execução,Local de Execução,Fundamentação,Data de Fecho do Contrato,Preço Total Efetivo,Causas das Alterações ao Prazo,Causas das Alterações ao Preço,Estado,N.º registo do Acordo Quadro,Descrição do Acordo Quadro,Procedimento Centralizado
Anesteseologia para o 1º Trimestre 2016,Ajuste Direto Regime Geral,Aquisição de serviços,"85000000-9, Serviços de saúde e acção social",Centro Hospitalar Psiquiátrico de Lisboa (508338476),Kelly Services (510723691),"3.050,04 €",28-07-2017,20-01-2016,90 dias,"Portugal, Lisboa, Lisboa","Artigo 26.º, n.º 1, alínea a) do Código dos Contratos Públicos",31-03-2016,"3.050,04 €",,"",,Não aplicável.,Não aplicável.,FALSE
"Anesteseologia, Mês de Abril 2016",Ajuste Direto Regime Geral,Aquisição de serviços,"85000000-9, Serviços de saúde e acção social",Centro Hospitalar Psiquiátrico de Lisboa (508338476),Kelly Services (510723691),"1.016,68 €",28-07-2017,19-04-2016,31 dias,"Portugal, Lisboa, Lisboa","Artigo 24.º, n.º 1, alínea a) do Código dos Contratos Públicos",30-04-2016,"1.016,68 €",,"",,Não aplicável.,Não aplicável.,FALSE
Serv. Psiquiatria para Novembro e Dezembro 2016,Ajuste Direto Regime Geral,Aquisição de serviços,"85000000-9, Serviços de saúde e acção social",Centro Hospitalar Psiquiátrico de Lisboa (508338476),"Corevalue Healthcare Solutions, Lda. (513654577)","0,00 €",28-07-2017,28-11-2016,60 dias,"Portugal, Lisboa, Lisboa",Artigo 258.º do Código dos Contratos Públicos,31-12-2016,"2.572,02 €",,"não houve alteração de valor - o valor do contrato é de 2.572,00€",,2854585,580016/2016-Serv. Psiquiatria para Novembro e Dezembro 2016,FALSE
Prestação serviços,Ajuste Direto Regime Geral,Aquisição de serviços,"85000000-9, Serviços de saúde e acção social",Centro Hospitalar Psiquiátrico de Lisboa (508338476),Filipa Monteiro (245894004),"1.276,58 €",28-07-2017,09-06-2017,30 dias,"Portugal, Lisboa, Lisboa","Artigo 24.º, n.º 1, alínea c) do Código dos Contratos Públicos",30-06-2017,"1.276,58 €",,"",,Não aplicável.,Não aplicável.,FALSE
Prestação Serviços,Ajuste Direto Regime Geral,Aquisição de serviços,"85000000-9, Serviços de saúde e acção social",Centro Hospitalar Psiquiátrico de Lisboa (508338476),Ana Rita Teodoro Lourenço (211753335),"1.276,58 €",28-07-2017,09-06-2017,30 dias,"Portugal, Lisboa, Lisboa","Artigo 24.º, n.º 1, alínea c) do Código dos Contratos Públicos",30-06-2017,"1.276,58 €",,"",,Não aplicável.,Não aplicável.,FALSE
Prestação Serviços,Ajuste Direto Regime Geral,Aquisição de serviços,"85000000-9, Serviços de saúde e acção social",Centro Hospitalar Psiquiátrico de Lisboa (508338476),Ana Rita Faustino da Silva Bonito (267148976),"1.276,58 €",28-07-2017,09-06-2017,30 dias,"Portugal, Lisboa, Lisboa","Artigo 24.º, n.º 1, alínea c) do Código dos Contratos Públicos",30-06-2017,"1.276,58 €",,"",,Não aplicável.,Não aplicável.,FALSE
Prestação Serviços,Ajuste Direto Regime Geral,Aquisição de serviços,"85000000-9, Serviços de saúde e acção social",Centro Hospitalar Psiquiátrico de Lisboa (508338476),Tânia Filipa Matos (226132730),"1.276,58 €",28-07-2017,09-06-2017,30 dias,"Portugal, Lisboa, Lisboa","Artigo 24.º, n.º 1, alínea c) do Código dos Contratos Públicos",30-06-2017,"1.276,58 €",,"",,Não aplicável.,Não aplicável.,FALSE
Prestação Serviços,Ajuste Direto Regime Geral,Aquisição de serviços,"85000000-9, Serviços de saúde e acção social",Centro Hospitalar Psiquiátrico de Lisboa (508338476),Ângela Maria Fernandes Calção (214112128),"1.276,58 €",28-07-2017,09-06-2017,30 dias,"Portugal, Lisboa, Lisboa","Artigo 24.º, n.º 1, alínea c) do Código dos Contratos Públicos",30-06-2017,"1.276,58 €",,"",,Não aplicável.,Não aplicável.,FALSE
Dançoterapia para o mês de Junho a Dezembro,Ajuste Direto Regime Geral,Aquisição de serviços,"92000000-1, Serviços recreativos, culturais e desportivos",Centro Hospitalar Psiquiátrico de Lisboa (508338476),Rita Páscoa de Aguiar (209962925),"1.856,12 €",28-07-2017,01-06-2016,154 dias,"Portugal, Lisboa, Lisboa","Artigo 20.º, n.º 1, alínea a) do Código dos Contratos Públicos",31-12-2016,"1.856,12 €",,"",,Não aplicável.,Não aplicável.,FALSE
Dançoterapia para meses de Junho a Dezembro 2016,Ajuste Direto Regime Geral,Aquisição de serviços,"92000000-1, Serviços recreativos, culturais e desportivos",Centro Hospitalar Psiquiátrico de Lisboa (508338476),Renata Jorge Ribeiro Cavalheiro Dias (216979170),"2.651,64 €",28-07-2017,01-06-2016,154 dias,"Portugal, Lisboa, Lisboa","Artigo 20.º, n.º 1, alínea a) do Código dos Contratos Públicos",31-12-2016,"2.651,64 €",,"",,Não aplicável.,Não aplicável.,FALSE
Dançoterapia para o mês de Junho a Dezembro 2016,Ajuste Direto Regime Geral,Aquisição de serviços,"92000000-1, Serviços recreativos, culturais e desportivos",Centro Hospitalar Psiquiátrico de Lisboa (508338476),Liliane Sousa Viegas (153384140),"7.933,66 €",28-07-2017,08-06-2016,154 dias,"Portugal, Lisboa, Lisboa","Artigo 20.º, n.º 1, alínea a) do Código dos Contratos Públicos",31-12-2016,"7.933,66 €",,"",,Não aplicável.,Não aplicável.,FALSE
TDT Neurofisiologia de Setembro a Dezembro,Ajuste Direto Regime Geral,Aquisição de serviços,"85000000-9, Serviços de saúde e acção social",Centro Hospitalar Psiquiátrico de Lisboa (508338476),Catarina Isabel Fonseca de Castro (219833435),"5.104,72 €",28-07-2017,21-09-2016,120 dias,"Portugal, Lisboa, Lisboa","Artigo 24.º, n.º 1, alínea a) do Código dos Contratos Públicos",31-12-2016,"5.104,72 €",,"",,Não aplicável.,Não aplicável.,FALSE
TDT Neurofisiologia para mês de Agosto,Ajuste Direto Regime Geral,Aquisição de serviços,"85000000-9, Serviços de saúde e acção social",Centro Hospitalar Psiquiátrico de Lisboa (508338476),Catarina Isabel Fonseca de Castro (219833435),"1.276,18 €",28-07-2017,29-07-2016,31 dias,"Portugal, Lisboa, Lisboa","Artigo 24.º, n.º 1, alínea a) do Código dos Contratos Públicos",31-07-2016,"1.276,18 €",,"",,Não aplicável.,Não aplicável.,FALSE
TDT Neurofisiologia para o mês de Julho,Ajuste Direto Regime Geral,Aquisição de serviços,"85000000-9, Serviços de saúde e acção social",Centro Hospitalar Psiquiátrico de Lisboa (508338476),Catarina Isabel Fonseca de Castro (219833435),"1.276,18 €",28-07-2017,05-07-2016,31 dias,"Portugal, Lisboa, Lisboa","Artigo 24.º, n.º 1, alínea a) do Código dos Contratos Públicos",31-07-2016,"1.276,18 €",,"",,Não aplicável.,Não aplicável.,FALSE
"TDT Neurofisiologia, Mês de Maio ",Ajuste Direto Regime Geral,Aquisição de serviços,"85000000-9, Serviços de saúde e acção social",Centro Hospitalar Psiquiátrico de Lisboa (508338476),Catarina Isabel Fonseca de Castro (219833435),"1.276,18 €",28-07-2017,01-06-2016,30 dias,"Portugal, Lisboa, Lisboa","Artigo 24.º, n.º 1, alínea a) do Código dos Contratos Públicos",30-06-2016,"1.276,18 €",,"",,Não aplicável.,Não aplicável.,FALSE
TDT Neurofisiologia para mês de Maio,Ajuste Direto Regime Geral,Aquisição de serviços,"85000000-9, Serviços de saúde e acção social",Centro Hospitalar Psiquiátrico de Lisboa (508338476),Catarina Isabel Fonseca de Castro (219833435),"638,09 €",28-07-2017,20-05-2016,31 dias,"Portugal, Lisboa, Lisboa","Artigo 24.º, n.º 1, alínea a) do Código dos Contratos Públicos",31-05-2016,"638,09 €",,"",,Não aplicável.,Não aplicável.,FALSE
TS Dançoterapia para mês de Maio,Ajuste Direto Regime Geral,Aquisição de serviços,"92000000-1, Serviços recreativos, culturais e desportivos",Centro Hospitalar Psiquiátrico de Lisboa (508338476),Rita Páscoa de Aguiar (209962925),"265,16 €",28-07-2017,13-05-2016,31 dias,"Portugal, Lisboa, Lisboa","Artigo 24.º, n.º 1, alínea a) do Código dos Contratos Públicos",31-05-2016,"265,16 €",,"",,Não aplicável.,Não aplicável.,FALSE
Dançoterapia para o mês de Maio 2016,Ajuste Direto Regime Geral,Aquisição de serviços,"90000000-7, Serviços relativos a águas residuais, resíduos, limpeza e ambiente",Centro Hospitalar Psiquiátrico de Lisboa (508338476),Renata Jorge Ribeiro Cavalheiro Dias (216979170),"464,04 €",28-07-2017,13-05-2016,31 dias,"Portugal, Lisboa, Lisboa","Artigo 24.º, n.º 1, alínea a) do Código dos Contratos Públicos",31-05-2016,"464,04 €",,"",,Não aplicável.,Não aplicável.,FALSE
Prestação Serviços,Ajuste Direto Regime Geral,Aquisição de serviços,"85000000-9, Serviços de saúde e acção social",Centro Hospitalar Psiquiátrico de Lisboa (508338476),Bruno Manuel Romão Silva (216653037),"1.276,58 €",27-07-2017,09-06-2017,30 dias,"Portugal, Lisboa, Lisboa","Artigo 24.º, n.º 1, alínea c) do Código dos Contratos Públicos",30-06-2017,"1.276,58 €",,"",,Não aplicável.,Não aplicável.,FALSE
Prestação Serviços,Ajuste Direto Regime Geral,Aquisição de serviços,"85000000-9, Serviços de saúde e acção social",Centro Hospitalar Psiquiátrico de Lisboa (508338476),David José Lucas Varela (244370176),"1.276,58 €",27-07-2017,09-06-2017,30 dias,"Portugal, Lisboa, Lisboa","Artigo 24.º, n.º 1, alínea c) do Código dos Contratos Públicos",30-06-2017,"1.276,58 €",,"",,Não aplicável.,Não aplicável.,FALSE
"TS Dançoterapia, mês Maio 2016",Ajuste Direto Regime Geral,Aquisição de serviços,"92000000-1, Serviços recreativos, culturais e desportivos",Centro Hospitalar Psiquiátrico de Lisboa (508338476),Liliane Sousa Viegas (153384140),"1.133,38 €",27-07-2017,13-05-2016,31 dias,"Portugal, Lisboa, Lisboa","Artigo 24.º, n.º 1, alínea a) do Código dos Contratos Públicos",31-05-2016,"1.133,38 €",,"",,Não aplicável.,Não aplicável.,FALSE
"TS Dançoterapia, mês Abril 2016",Ajuste Direto Regime Geral,Aquisição de serviços,"92000000-1, Serviços recreativos, culturais e desportivos",Centro Hospitalar Psiquiátrico de Lisboa (508338476),Renata Jorge Ribeiro Cavalheiro Dias (216979170),"464,04 €",27-07-2017,19-04-2016,31 dias,"Portugal, Lisboa, Lisboa","Artigo 24.º, n.º 1, alínea a) do Código dos Contratos Públicos",30-04-2016,"464,04 €",,"",,Não aplicável.,Não aplicável.,FALSE
"TS Dançoterapia, mês de Abril 2016",Ajuste Direto Regime Geral,Aquisição de serviços,"92000000-1, Serviços recreativos, culturais e desportivos",Centro Hospitalar Psiquiátrico de Lisboa (508338476),Rita Páscoa Aguiar (209962925),"265,16 €",27-07-2017,19-04-2016,30 dias,"Portugal, Lisboa, Lisboa","Artigo 24.º, n.º 1, alínea a) do Código dos Contratos Públicos",30-04-2016,"265,16 €",,"",,Não aplicável.,Não aplicável.,FALSE
Prestação Serviços,Ajuste Direto Regime Geral,Aquisição de serviços,"85000000-9, Serviços de saúde e acção social",Centro Hospitalar Psiquiátrico de Lisboa (508338476),Carina Rodrigues (250126931),"1.276,58 €",27-07-2017,09-06-2017,30 dias,"Portugal, Lisboa, Lisboa","Artigo 24.º, n.º 1, alínea c) do Código dos Contratos Públicos",30-06-2017,"1.276,58 €",,"",,Não aplicável.,Não aplicável.,FALSE
"TS Dançoterapia, Mês Abril ",Ajuste Direto Regime Geral,Aquisição de serviços,"92000000-1, Serviços recreativos, culturais e desportivos",Centro Hospitalar Psiquiátrico de Lisboa (508338476),Liliane Sousa Viegas (153384140),"1.133,38 €",27-07-2017,19-04-2016,30 dias,"Portugal, Lisboa, Lisboa","Artigo 24.º, n.º 1, alínea a) do Código dos Contratos Públicos",30-04-2016,"1.133,38 €",,"",,Não aplicável.,Não aplicável.,FALSE
"TS de Dançoterapia, mês de Março",Ajuste Direto Regime Geral,Aquisição de serviços,"92000000-1, Serviços recreativos, culturais e desportivos",Centro Hospitalar Psiquiátrico de Lisboa (508338476),Liliane Sousa Viegas (153384140),"1.133,38 €",27-07-2017,04-03-2016,31 dias,"Portugal, Lisboa, Lisboa","Artigo 24.º, n.º 1, alínea a) do Código dos Contratos Públicos",31-03-2016,"1.133,38 €",,"",,Não aplicável.,Não aplicável.,FALSE
TS Dançoterapia para o mês de Março,Ajuste Direto Regime Geral,Aquisição de serviços,"92000000-1, Serviços recreativos, culturais e desportivos",Centro Hospitalar Psiquiátrico de Lisboa (508338476),Renata Jorge Ribeiro Cavalheiro Dias (216979170),"464,04 €",27-07-2017,04-03-2016,31 dias,"Portugal, Lisboa, Lisboa","Artigo 24.º, n.º 1, alínea a) do Código dos Contratos Públicos",04-03-2016,"464,04 €",,"",,Não aplicável.,Não aplicável.,FALSE
"TS Dançoterapia, Mês Março",Ajuste Direto Regime Geral,Aquisição de serviços,"92000000-1, Serviços recreativos, culturais e desportivos",Centro Hospitalar Psiquiátrico de Lisboa (508338476),Rita Páscoa Aguiar (209962925),"265,16 €",27-07-2017,04-03-2016,31 dias,"Portugal, Lisboa, Lisboa","Artigo 24.º, n.º 1, alínea a) do Código dos Contratos Públicos",04-03-2016,"265,16 €",,"",,Não aplicável.,Não aplicável.,FALSE
"TS Dança Movimento e Terapia, mês de Fevereiro",Ajuste Direto Regime Geral,Aquisição de serviços,"92000000-1, Serviços recreativos, culturais e desportivos",Centro Hospitalar Psiquiátrico de Lisboa (508338476),Liliane Sousa Viegas (153384140),"1.133,38 €",27-07-2017,05-02-2016,29 dias,"Portugal, Lisboa, Lisboa","Artigo 24.º, n.º 1, alínea a) do Código dos Contratos Públicos",29-02-2016,"1.133,38 €",,"",,Não aplicável.,Não aplicável.,FALSE
"TS Dançoterapia, mês de Fevereiro ",Ajuste Direto Regime Geral,Aquisição de serviços,"92000000-1, Serviços recreativos, culturais e desportivos",Centro Hospitalar Psiquiátrico de Lisboa (508338476),Rita Pascoa de Aguiar (209962925),"265,16 €",27-07-2017,05-02-2016,29 dias,"Portugal, Lisboa, Lisboa","Artigo 24.º, n.º 1, alínea a) do Código dos Contratos Públicos",29-02-2016,"265,16 €",,"",,Não aplicável.,Não aplicável.,FALSE
"TS Dançoterapia, mês de Fevereiro",Ajuste Direto Regime Geral,Aquisição de serviços,"92000000-1, Serviços recreativos, culturais e desportivos",Centro Hospitalar Psiquiátrico de Lisboa (508338476),Renata Jorge Ribeiro Cavalheiro Dias (216979170),"464,04 €",27-07-2017,05-02-2016,29 dias,"Portugal, Lisboa, Lisboa","Artigo 24.º, n.º 1, alínea a) do Código dos Contratos Públicos",29-02-2016,"464,04 €",,"",,Não aplicável.,Não aplicável.,FALSE
Prestação Serviços,Ajuste Direto Regime Geral,Aquisição de serviços,"85000000-9, Serviços de saúde e acção social",Centro Hospitalar Psiquiátrico de Lisboa (508338476),Tiago Miguel Oliveira (239186958),"1.276,58 €",27-07-2017,09-06-2017,30 dias,"Portugal, Lisboa, Lisboa","Artigo 24.º, n.º 1, alínea c) do Código dos Contratos Públicos",30-06-2017,"1.276,58 €",,"",,Não aplicável.,Não aplicável.,FALSE
TS Dança Movimento e Terapia Janeiro,Ajuste Direto Regime Geral,Aquisição de serviços,"92000000-1, Serviços recreativos, culturais e desportivos",Centro Hospitalar Psiquiátrico de Lisboa (508338476),Liliane Sousa Viegas (153384140),"1.133,38 €",27-07-2017,20-01-2016,31 dias,"Portugal, Lisboa, Lisboa","Artigo 24.º, n.º 1, alínea a) do Código dos Contratos Públicos",31-01-2016,"1.133,38 €",,"",,Não aplicável.,Não aplicável.,FALSE
Prestação Serviços,Ajuste Direto Regime Geral,Aquisição de serviços,"85000000-9, Serviços de saúde e acção social",Centro Hospitalar Psiquiátrico de Lisboa (508338476),Patriicia Custodio Costa Pereira (214646548),"1.276,58 €",27-07-2017,09-06-2017,30 dias,"Portugal, Lisboa, Lisboa","Artigo 24.º, n.º 1, alínea c) do Código dos Contratos Públicos",30-06-2017,"1.276,58 €",,"",,Não aplicável.,Não aplicável.,FALSE
"480100/2016-TS Dança movimento e terapia, Janeiro ",Ajuste Direto Regime Geral,Aquisição de serviços,"92000000-1, Serviços recreativos, culturais e desportivos",Centro Hospitalar Psiquiátrico de Lisboa (508338476),Liliane Sousa Viegas (153384140),"1.133,38 €",27-07-2017,20-01-2016,31 dias,"Portugal, Lisboa, Lisboa","Artigo 24.º, n.º 1, alínea a) do Código dos Contratos Públicos",29-02-2016,"1.133,38 €",,"",,Não aplicável.,Não aplicável.,FALSE
TS Dançoterapia Janeiro 2016,Ajuste Direto Regime Geral,Aquisição de serviços,"92000000-1, Serviços recreativos, culturais e desportivos",Centro Hospitalar Psiquiátrico de Lisboa (508338476),Renata Jorge Ribeiro Cavalheiro Dias (216979170),"464,04 €",27-07-2017,20-01-2016,31 dias,"Portugal, Lisboa, Lisboa","Artigo 24.º, n.º 1, alínea a) do Código dos Contratos Públicos",31-01-2016,"464,04 €",,"",,Não aplicável.,Não aplicável.,FALSE
Prestação Serviços,Ajuste Direto Regime Geral,Aquisição de serviços,"85000000-9, Serviços de saúde e acção social",Centro Hospitalar Psiquiátrico de Lisboa (508338476),Ana Raquel Mirinha Gila (245434674),"1.276,58 €",27-07-2017,09-06-2017,30 dias,"Portugal, Lisboa, Lisboa","Artigo 24.º, n.º 1, alínea c) do Código dos Contratos Públicos",30-06-2017,"1.276,58 €",,"",,Não aplicável.,Não aplicável.,FALSE
Serv. TS Dançoterapia Janeiro 2016,Ajuste Direto Regime Geral,Aquisição de serviços,"92000000-1, Serviços recreativos, culturais e desportivos",Centro Hospitalar Psiquiátrico de Lisboa (508338476),Rita Páscoa de Aguiar (209962925),"265,16 €",27-07-2017,20-01-2016,31 dias,"Portugal, Lisboa, Lisboa","Artigo 24.º, n.º 1, alínea a) do Código dos Contratos Públicos",31-01-2016,"265,16 €",,"",,Não aplicável.,Não aplicável.,FALSE
Serv. Produção de Teatro de Maio a Dezembro 2016,Ajuste Direto Regime Geral,Aquisição de serviços,"92000000-1, Serviços recreativos, culturais e desportivos",Centro Hospitalar Psiquiátrico de Lisboa (508338476),"Carlos Alberto Gomes, Arq. Associados, Lda. (502793597)","5.411,36 €",27-07-2017,02-05-2016,148 dias,"Portugal, Lisboa, Lisboa","Artigo 20.º, n.º 1, alínea a) do Código dos Contratos Públicos",31-12-2016,"5.411,36 €",,"",,Não aplicável.,Não aplicável.,FALSE
"Serv. Produção de Teatro, Abril",Ajuste Direto Regime Geral,Aquisição de serviços,"92000000-1, Serviços recreativos, culturais e desportivos",Centro Hospitalar Psiquiátrico de Lisboa (508338476),Carlos Alberto Gomes (Arq. Associados) (502793597),"676,42 €",27-07-2017,19-04-2016,30 dias,"Portugal, Lisboa, Lisboa","Artigo 24.º, n.º 1, alínea a) do Código dos Contratos Públicos",30-04-2016,"676,42 €",,"",,Não aplicável.,Não aplicável.,FALSE
"Serv. Produção de Teatro, Março",Ajuste Direto Regime Geral,Aquisição de serviços,"92000000-1, Serviços recreativos, culturais e desportivos",Centro Hospitalar Psiquiátrico de Lisboa (508338476),Carlos Alberto Gomes (Arq. Associados) (502793597),"676,42 €",27-07-2017,04-03-2016,31 dias,"Portugal, Lisboa, Lisboa","Artigo 24.º, n.º 1, alínea a) do Código dos Contratos Públicos",31-03-2016,"676,42 €",,"",,Não aplicável.,Não aplicável.,FALSE
"Arq. Paisagista, Mês de Janeiro ",Ajuste Direto Regime Geral,Aquisição de serviços,"71000000-8, Serviços de arquitectura, construção, engenharia e inspecção",Centro Hospitalar Psiquiátrico de Lisboa (508338476),"Regina Monteiro Baptista, Unipessoal Lda. (509682570)","858,98 €",26-07-2017,25-02-2016,31 dias,"Portugal, Lisboa, Lisboa","Artigo 24.º, n.º 1, alínea a) do Código dos Contratos Públicos",26-02-2016,"858,98 €",,"",,Não aplicável.,Não aplicável.,FALSE
TS Gabinete de Gestão de Julho a Dez.,Ajuste Direto Regime Geral,Aquisição de serviços,"73000000-2, Serviços de investigação e desenvolvimento e serviços de consultoria conexos",Centro Hospitalar Psiquiátrico de Lisboa (508338476),Claudia Sofia Veiga (220326835),"8.978,16 €",26-07-2017,01-07-2016,132 dias,"Portugal, Lisboa, Lisboa","Artigo 20.º, n.º 1, alínea a) do Código dos Contratos Públicos",31-12-2016,"8.978,16 €",,"",,Não aplicável.,Não aplicável.,FALSE
TS Gabinete de Gestão de Julho a Dez.,Ajuste Direto Regime Geral,Aquisição de serviços,"73000000-2, Serviços de investigação e desenvolvimento e serviços de consultoria conexos",Centro Hospitalar Psiquiátrico de Lisboa (508338476),Elsa Maria Gil Silva (102371083),"4.489,14 €",26-07-2017,01-07-2016,132 dias,"Portugal, Lisboa, Lisboa","Artigo 20.º, n.º 1, alínea a) do Código dos Contratos Públicos",31-12-2016,"4.489,14 €",,"",,Não aplicável.,Não aplicável.,FALSE
"TS Gabinete de Gestão, Julho a Dez. 2016",Ajuste Direto Regime Geral,Aquisição de serviços,"73000000-2, Serviços de investigação e desenvolvimento e serviços de consultoria conexos",Centro Hospitalar Psiquiátrico de Lisboa (508338476),Maria Teresa Alves Logrado (216856655),"8.978,16 €",26-07-2017,01-07-2016,132 dias,"Portugal, Lisboa, Lisboa","Artigo 20.º, n.º 1, alínea a) do Código dos Contratos Públicos",31-12-2016,"8.978,16 €",,"",,Não aplicável.,Não aplicável.,FALSE
"TS Gabinete de Gestão, Junho 2016",Ajuste Direto Regime Geral,Aquisição de serviços,"73000000-2, Serviços de investigação e desenvolvimento e serviços de consultoria conexos",Centro Hospitalar Psiquiátrico de Lisboa (508338476),Maria Teresa Alves Logrado (216856655),"1.496,36 €",26-07-2017,31-05-2016,30 dias,"Portugal, Lisboa, Lisboa","Artigo 24.º, n.º 1, alínea a) do Código dos Contratos Públicos",30-06-2016,"1.496,36 €",,"",,Não aplicável.,Não aplicável.,FALSE
"-T.S Gabinete de Gestão, Junho 2016",Ajuste Direto Regime Geral,Aquisição de serviços,"73000000-2, Serviços de investigação e desenvolvimento e serviços de consultoria conexos",Centro Hospitalar Psiquiátrico de Lisboa (508338476),Elsa Maria Gil Silva (102371083),"748,19 €",26-07-2017,01-06-2016,30 dias,"Portugal, Lisboa, Lisboa","Artigo 24.º, n.º 1, alínea a) do Código dos Contratos Públicos",30-06-2016,"748,19 €",,"",,Não aplicável.,Não aplicável.,FALSE
"TS Gabinete de Gestão, Junho 2016",Ajuste Direto Regime Geral,Aquisição de serviços,"73000000-2, Serviços de investigação e desenvolvimento e serviços de consultoria conexos",Centro Hospitalar Psiquiátrico de Lisboa (508338476),Cláudia Sofia Veiga (220326835),"1.496,36 €",26-07-2017,31-05-2016,31 dias,"Portugal, Lisboa, Lisboa","Artigo 24.º, n.º 1, alínea a) do Código dos Contratos Públicos",31-05-2016,"1.496,36 €",,"",,Não aplicável.,Não aplicável.,FALSE
"Serv. Técnico Informática, Abril a Dez. 2016",Ajuste Direto Regime Geral,Aquisição de serviços,"72000000-5, Serviços de TI: consultoria, desenvolvimento de software, Internet e apoio",Centro Hospitalar Psiquiátrico de Lisboa (508338476),"Eposters, Soc. Unipessoal (510771815)","3.888,00 €",26-07-2017,01-04-2016,270 dias,"Portugal, Lisboa, Lisboa","Artigo 20.º, n.º 1, alínea a) do Código dos Contratos Públicos",31-12-2016,"3.888,00 €",,"",,Não aplicável.,Não aplicável.,FALSE
"Serv. Técnico de Informática, Março 2016",Ajuste Direto Regime Geral,Aquisição de serviços,"72000000-5, Serviços de TI: consultoria, desenvolvimento de software, Internet e apoio",Centro Hospitalar Psiquiátrico de Lisboa (508338476),"Eposters, Soc. Unipessoal (510771815)","972,00 €",26-07-2017,04-03-2016,31 dias,"Portugal, Lisboa, Lisboa","Artigo 24.º, n.º 1, alínea a) do Código dos Contratos Públicos",31-03-2016,"972,00 €",,"",,Não aplicável.,Não aplicável.,FALSE
Serv. de Técnico Informática para Fevereiro 2016,Ajuste Direto Regime Geral,Aquisição de serviços,"72000000-5, Serviços de TI: consultoria, desenvolvimento de software, Internet e apoio",Centro Hospitalar Psiquiátrico de Lisboa (508338476),"Eposters, Soc. Unipessoal (510771815)","972,00 €",26-07-2017,05-02-2016,972 dias,"Portugal, Lisboa, Lisboa","Artigo 24.º, n.º 1, alínea a) do Código dos Contratos Públicos",29-02-2016,"972,00 €",,"",,Não aplicável.,Não aplicável.,FALSE
Serv. Técnico Informática para Janeiro 2016,Ajuste Direto Regime Geral,Aquisição de serviços,"72000000-5, Serviços de TI: consultoria, desenvolvimento de software, Internet e apoio",Centro Hospitalar Psiquiátrico de Lisboa (508338476),"Eposters, Soc. Unipessoal (510771815)","972,00 €",26-07-2017,20-01-2016,31 dias,"Portugal, Lisboa, Lisboa","Artigo 24.º, n.º 1, alínea a) do Código dos Contratos Públicos",31-01-2016,"972,00 €",,"",,Não aplicável.,Não aplicável.,FALSE
"Serv. Consultoria de Arquitetura, Junho a Dez. 2016",Ajuste Direto Regime Geral,Aquisição de serviços,"71000000-8, Serviços de arquitectura, construção, engenharia e inspecção",Centro Hospitalar Psiquiátrico de Lisboa (508338476),"Land Concept, Unipessoal, Lda. (513079009)","7.061,25 €",26-07-2017,01-06-2016,210 dias,"Portugal, Lisboa, Lisboa","Artigo 20.º, n.º 1, alínea a) do Código dos Contratos Públicos",31-12-2016,"7.061,25 €",,"",,Não aplicável.,Não aplicável.,FALSE
"480446/2016-Serv. de Consultoria de Arquitetura, Maio 2016",Ajuste Direto Regime Geral,Aquisição de serviços,"71000000-8, Serviços de arquitectura, construção, engenharia e inspecção",Centro Hospitalar Psiquiátrico de Lisboa (508338476),"Land Concept, Unipessoal, Lda. (513079009)","1.008,75 €",26-07-2017,13-05-2016,30 dias,"Portugal, Lisboa, Lisboa","Artigo 24.º, n.º 1, alínea a) do Código dos Contratos Públicos",31-05-2016,"1.008,75 €",,"",,Não aplicável.,Não aplicável.,FALSE
"Serv. Consultoria de Arquitetura, Abril 2016",Ajuste Direto Regime Geral,Aquisição de serviços,"71000000-8, Serviços de arquitectura, construção, engenharia e inspecção",Centro Hospitalar Psiquiátrico de Lisboa (508338476),"Land concept, Unipessoal, Lda. (513079009)","1.008,75 €",26-07-2017,19-04-2016,30 dias,"Portugal, Lisboa, Lisboa","Artigo 24.º, n.º 1, alínea a) do Código dos Contratos Públicos",19-04-2016,"1.008,75 €",,"",,Não aplicável.,Não aplicável.,FALSE
"Serv. Consultoria de Arquitetura, Março 2016",Ajuste Direto Regime Geral,Aquisição de serviços,"71000000-8, Serviços de arquitectura, construção, engenharia e inspecção",Centro Hospitalar Psiquiátrico de Lisboa (508338476),"Land Concept, Unipessoal, Lda. (513079009)","1.008,75 €",26-07-2017,04-03-2016,31 dias,"Portugal, Lisboa, Lisboa","Artigo 24.º, n.º 1, alínea a) do Código dos Contratos Públicos",31-03-2016,"1.008,75 €",,"",,Não aplicável.,Não aplicável.,FALSE
"Serviços de consultoria de Arquitetura, Fevereiro 2016",Ajuste Direto Regime Geral,Aquisição de serviços,"71000000-8, Serviços de arquitectura, construção, engenharia e inspecção",Centro Hospitalar Psiquiátrico de Lisboa (508338476),"Land Concept, Unipessoal, Lda. (513079009)","1.008,75 €",26-07-2017,05-02-2016,29 dias,"Portugal, Lisboa, Lisboa","Artigo 24.º, n.º 1, alínea a) do Código dos Contratos Públicos",05-02-2016,"1.008,75 €",,"",,Não aplicável.,Não aplicável.,FALSE
"Consultodoria e Arquitetura, Janeiro 2016",Ajuste Direto Regime Geral,Aquisição de serviços,"71000000-8, Serviços de arquitectura, construção, engenharia e inspecção",Centro Hospitalar Psiquiátrico de Lisboa (508338476),"Land Concept, Unipessoal, Lda. (513079009)","1.008,75 €",26-07-2017,20-01-2016,31 dias,"Portugal, Lisboa, Lisboa","Artigo 24.º, n.º 1, alínea a) do Código dos Contratos Públicos",29-01-2016,"1.008,75 €",,"",,Não aplicável.,Não aplicável.,FALSE
Técnicas de Análises Clínicas de Abril a Dezembro 2016,Ajuste Direto Regime Geral,Aquisição de serviços,"85000000-9, Serviços de saúde e acção social",Centro Hospitalar Psiquiátrico de Lisboa (508338476),Ana Sofia Silva Lopes (225795671),"10.040,76 €",26-07-2017,01-04-2016,198 dias,"Portugal, Lisboa, Lisboa","Artigo 20.º, n.º 1, alínea a) do Código dos Contratos Públicos",31-12-2016,"10.040,76 €",,"",,Não aplicável.,Não aplicável.,FALSE
TDT Patologia Clinica Mês de Março 2016,Ajuste Direto Regime Geral,Aquisição de serviços,"85000000-9, Serviços de saúde e acção social",Centro Hospitalar Psiquiátrico de Lisboa (508338476),Ana Sofia Silva Lopes (225795671),"1.127,95 €",25-07-2017,04-03-2016,31 dias,"Portugal, Lisboa, Lisboa","Artigo 24.º, n.º 1, alínea a) do Código dos Contratos Públicos",31-03-2016,"1.127,95 €",,"",,Não aplicável.,Não aplicável.,FALSE
TDT Patologia Clínica de Fevereiro 2016,Ajuste Direto Regime Geral,Aquisição de serviços,"85000000-9, Serviços de saúde e acção social",Centro Hospitalar Psiquiátrico de Lisboa (508338476),Ana Sofia Silva Lopes (225795671),"638,09 €",25-07-2017,05-02-2016,29 dias,"Portugal, Lisboa, Lisboa","Artigo 24.º, n.º 1, alínea a) do Código dos Contratos Públicos",29-02-2016,"638,09 €",,"",,Não aplicável.,Não aplicável.,FALSE
TDT Patologia Clinica Janeiro 2016,Ajuste Direto Regime Geral,Aquisição de serviços,"85000000-9, Serviços de saúde e acção social",Centro Hospitalar Psiquiátrico de Lisboa (508338476),Ana Sofia Silva Lopes (225795671),"680,04 €",25-07-2017,20-01-2016,31 dias,"Portugal, Lisboa, Lisboa","Artigo 24.º, n.º 1, alínea a) do Código dos Contratos Públicos",31-01-2016,"680,04 €",,"",,Não aplicável.,Não aplicável.,FALSE
TDT Radiologia Ano 2016,Ajuste Direto Regime Geral,Aquisição de serviços,"85000000-9, Serviços de saúde e acção social",Centro Hospitalar Psiquiátrico de Lisboa (508338476),João Pedro Fidalgo da Costa (235451460),"1.276,18 €",25-07-2017,27-05-2016,23 dias,"Portugal, Lisboa, Lisboa","Artigo 20.º, n.º 1, alínea a) do Código dos Contratos Públicos",31-12-2016,"1.276,18 €",,"",,Não aplicável.,Não aplicável.,FALSE
AO para mês de Julho,Ajuste Direto Regime Geral,Aquisição de serviços,"85000000-9, Serviços de saúde e acção social",Centro Hospitalar Psiquiátrico de Lisboa (508338476),Ilona Iasinska (235255467),"722,50 €",25-07-2017,05-07-2016,31 dias,"Portugal, Lisboa, Lisboa","Artigo 24.º, n.º 1, alínea a) do Código dos Contratos Públicos",31-07-2016,"722,50 €",,"",,Não aplicável.,Não aplicável.,FALSE
AO Mês de Julho 2016,Ajuste Direto Regime Geral,Aquisição de serviços,"85000000-9, Serviços de saúde e acção social",Centro Hospitalar Psiquiátrico de Lisboa (508338476),Vasco Rafael da Silva Nunes (245587535),"722,50 €",25-07-2017,05-07-2016,31 dias,"Portugal, Lisboa, Lisboa","Artigo 24.º, n.º 1, alínea a) do Código dos Contratos Públicos",31-07-2016,"722,50 €",,"",,Não aplicável.,Não aplicável.,FALSE
AO mês de Julho 2016,Ajuste Direto Regime Geral,Aquisição de serviços,"85000000-9, Serviços de saúde e acção social",Centro Hospitalar Psiquiátrico de Lisboa (508338476),Bruno Daniel dos Ramos (246905549),"722,50 €",25-07-2017,05-07-2016,31 dias,"Portugal, Lisboa, Lisboa","Artigo 24.º, n.º 1, alínea a) do Código dos Contratos Públicos",31-07-2016,"722,50 €",,"",,Não aplicável.,Não aplicável.,FALSE
AO Mês de Julho 2016,Ajuste Direto Regime Geral,Aquisição de serviços,"85000000-9, Serviços de saúde e acção social",Centro Hospitalar Psiquiátrico de Lisboa (508338476),José Miguel Carapinha Marques (216657180),"722,50 €",25-07-2017,05-07-2016,31 dias,"Portugal, Lisboa, Lisboa","Artigo 24.º, n.º 1, alínea a) do Código dos Contratos Públicos",31-07-2016,"722,50 €",,"",,Não aplicável.,Não aplicável.,FALSE
AO para Julho 2016,Ajuste Direto Regime Geral,Aquisição de serviços,"85000000-9, Serviços de saúde e acção social",Centro Hospitalar Psiquiátrico de Lisboa (508338476),Tiago Falcão Ildefonso (253651018),"722,50 €",25-07-2017,27-07-2016,31 dias,"Portugal, Lisboa, Lisboa","Artigo 24.º, n.º 1, alínea a) do Código dos Contratos Públicos",31-07-2016,"722,50 €",,"",,Não aplicável.,Não aplicável.,FALSE
AO Mês de Julho/2016,Ajuste Direto Regime Geral,Aquisição de serviços,"85000000-9, Serviços de saúde e acção social",Centro Hospitalar Psiquiátrico de Lisboa (508338476),Ana Rita Martins Pinho (226638790),"722,50 €",24-07-2017,05-07-2016,31 dias,"Portugal, Lisboa, Lisboa","Artigo 24.º, n.º 1, alínea a) do Código dos Contratos Públicos",31-07-2016,"722,50 €",,"",,Não aplicável.,Não aplicável.,FALSE
Prestação Serviços,Ajuste Direto Regime Geral,Aquisição de serviços,"85000000-9, Serviços de saúde e acção social",Centro Hospitalar Psiquiátrico de Lisboa (508338476),Andreia Filipa Neves Barreto (268427437),"1.276,58 €",24-07-2017,09-06-2017,30 dias,"Portugal, Lisboa, Lisboa","Artigo 24.º, n.º 1, alínea c) do Código dos Contratos Públicos",30-06-2017,"1.276,58 €",,"",,Não aplicável.,Não aplicável.,FALSE
Prestação Serviços,Ajuste Direto Regime Geral,Aquisição de serviços,"85000000-9, Serviços de saúde e acção social",Centro Hospitalar Psiquiátrico de Lisboa (508338476),Ana Sofia Monteiro Mendes (267152213),"1.276,58 €",24-07-2017,09-06-2017,30 dias,"Portugal, Lisboa, Lisboa","Artigo 24.º, n.º 1, alínea c) do Código dos Contratos Públicos",30-06-2017,"1.276,58 €",,"",,Não aplicável.,Não aplicável.,FALSE
Prestação Serviços,Ajuste Direto Regime Geral,Aquisição de serviços,"85000000-9, Serviços de saúde e acção social",Centro Hospitalar Psiquiátrico de Lisboa (508338476),Andreia Catarina Pereira de Sousa (226859541),"1.276,58 €",24-07-2017,09-06-2017,30 dias,"Portugal, Lisboa, Lisboa","Artigo 24.º, n.º 1, alínea c) do Código dos Contratos Públicos",30-06-2017,"1.276,58 €",,"",,Não aplicável.,Não aplicável.,FALSE
Prestação Serviços,Ajuste Direto Regime Geral,Aquisição de serviços,"85000000-9, Serviços de saúde e acção social",Centro Hospitalar Psiquiátrico de Lisboa (508338476),Ana Raquel Lopes Costa (211600504),"1.276,58 €",24-07-2017,09-06-2017,30 dias,"Portugal, Lisboa, Lisboa","Artigo 24.º, n.º 1, alínea c) do Código dos Contratos Públicos",30-06-2017,"1.276,58 €",,"",,Não aplicável.,Não aplicável.,FALSE
Prestação Serviços,Ajuste Direto Regime Geral,Aquisição de serviços,"85000000-9, Serviços de saúde e acção social",Centro Hospitalar Psiquiátrico de Lisboa (508338476),Sara Isabel Ribeiro Amaral (219733104),"1.422,47 €",24-07-2017,09-06-2017,30 dias,"Portugal, Lisboa, Lisboa","Artigo 24.º, n.º 1, alínea c) do Código dos Contratos Públicos",30-06-2017,"1.422,47 €",,"",,Não aplicável.,Não aplicável.,FALSE
Prestação Serviços,Ajuste Direto Regime Geral,Aquisição de serviços,"85000000-9, Serviços de saúde e acção social",Centro Hospitalar Psiquiátrico de Lisboa (508338476),Ângela Maria Fernandes Calção (214112128),"1.276,58 €",24-07-2017,09-05-2017,30 dias,"Portugal, Lisboa, Lisboa","Artigo 24.º, n.º 1, alínea c) do Código dos Contratos Públicos",31-05-2017,"1.276,58 €",,"",,Não aplicável.,Não aplicável.,FALSE
Prestação Serviços,Ajuste Direto Regime Geral,Aquisição de serviços,"85000000-9, Serviços de saúde e acção social",Centro Hospitalar Psiquiátrico de Lisboa (508338476),Filipa Monteiro (245894004),"1.276,58 €",24-07-2017,09-05-2017,30 dias,"Portugal, Lisboa, Lisboa","Artigo 24.º, n.º 1, alínea c) do Código dos Contratos Públicos",31-05-2017,"1.276,58 €",,"",,Não aplicável.,Não aplicável.,FALSE
Prestação Serviços,Ajuste Direto Regime Geral,Aquisição de serviços,"85000000-9, Serviços de saúde e acção social",Centro Hospitalar Psiquiátrico de Lisboa (508338476),Ana Rita Teodoro Lourenço (211753335),"1.276,58 €",24-07-2017,09-05-2017,30 dias,"Portugal, Lisboa, Lisboa","Artigo 24.º, n.º 1, alínea c) do Código dos Contratos Públicos",31-05-2017,"1.276,58 €",,"",,Não aplicável.,Não aplicável.,FALSE
Prestação Serviços,Ajuste Direto Regime Geral,Aquisição de serviços,"85000000-9, Serviços de saúde e acção social",Centro Hospitalar Psiquiátrico de Lisboa (508338476),Ana Rita Faustino da Silva Bonito (267148976),"1.276,58 €",24-07-2017,09-05-2017,30 dias,"Portugal, Lisboa, Lisboa","Artigo 24.º, n.º 1, alínea c) do Código dos Contratos Públicos",31-05-2017,"1.276,58 €",,"",,Não aplicável.,Não aplicável.,FALSE
Prestação Serviços,Ajuste Direto Regime Geral,Aquisição de serviços,"85000000-9, Serviços de saúde e acção social",Centro Hospitalar Psiquiátrico de Lisboa (508338476),Tânia Filipa Matos (226132730),"1.276,58 €",24-07-2017,09-05-2017,30 dias,"Portugal, Lisboa, Lisboa","Artigo 24.º, n.º 1, alínea c) do Código dos Contratos Públicos",09-05-2017,"1.276,58 €",,"",,Não aplicável.,Não aplicável.,FALSE
Ciamemazina 100 mg comp/Trimipramina 100 mg comp,Ajuste Direto Regime Geral,Aquisição de bens móveis,"33000000-0, Equipamento médico, medicamentos e produtos para cuidados pessoais",Centro Hospitalar Psiquiátrico de Lisboa (508338476),L Vitória (500162220),"108,30 €",21-07-2017,23-05-2017,1 dias,"Portugal, Lisboa, Lisboa","Artigo 24.º, n.º 1, alínea e) do Código dos Contratos Públicos",23-05-2017,"108,30 €",,"",,Não aplicável.,Não aplicável.,FALSE
Prestação Serviços,Ajuste Direto Regime Geral,Aquisição de serviços,"85000000-9, Serviços de saúde e acção social",Centro Hospitalar Psiquiátrico de Lisboa (508338476),Sara Isabel Ribeiro Amaral (219733104),"1.422,47 €",21-07-2017,09-05-2017,30 dias,"Portugal, Lisboa, Lisboa","Artigo 24.º, n.º 1, alínea c) do Código dos Contratos Públicos",31-05-2017,"1.422,47 €",,"",,Não aplicável.,Não aplicável.,FALSE
Prestação Serviços,Ajuste Direto Regime Geral,Aquisição de serviços,"85000000-9, Serviços de saúde e acção social",Centro Hospitalar Psiquiátrico de Lisboa (508338476),Ana Raquel Lopes Costa (211600504),"1.276,58 €",21-07-2017,09-05-2017,30 dias,"Portugal, Lisboa, Lisboa","Artigo 24.º, n.º 1, alínea c) do Código dos Contratos Públicos",09-05-2017,"1.276,58 €",,"",,Não aplicável.,Não aplicável.,FALSE
Assistente Operacional Mês Julho,Ajuste Direto Regime Geral,Aquisição de serviços,"85000000-9, Serviços de saúde e acção social",Centro Hospitalar Psiquiátrico de Lisboa (508338476),Marisa Cláudia Teles Catarino (189995777),"722,50 €",21-07-2017,05-07-2016,31 dias,"Portugal, Lisboa, Lisboa","Artigo 24.º, n.º 1, alínea a) do Código dos Contratos Públicos",31-07-2016,"722,50 €",,"",,Não aplicável.,Não aplicável.,FALSE
Assistente Operacional Mês Julho,Ajuste Direto Regime Geral,Aquisição de serviços,"85000000-9, Serviços de saúde e acção social",Centro Hospitalar Psiquiátrico de Lisboa (508338476),Ana Rita de Matos Tomás (233279296),"481,67 €",21-07-2017,22-07-2016,31 dias,"Portugal, Lisboa, Lisboa","Artigo 24.º, n.º 1, alínea a) do Código dos Contratos Públicos",31-07-2016,"481,67 €",,"",,Não aplicável.,Não aplicável.,FALSE
Prestação Serviços,Ajuste Direto Regime Geral,Aquisição de serviços,"85000000-9, Serviços de saúde e acção social",Centro Hospitalar Psiquiátrico de Lisboa (508338476),Andreia Catarina Pereira de Sousa (226859541),"1.276,58 €",21-07-2017,09-05-2017,30 dias,"Portugal, Lisboa, Lisboa","Artigo 24.º, n.º 1, alínea c) do Código dos Contratos Públicos",31-05-2017,"1.276,58 €",,"",,Não aplicável.,Não aplicável.,FALSE
AO mês de Julho,Ajuste Direto Regime Geral,Aquisição de serviços,"85000000-9, Serviços de saúde e acção social",Centro Hospitalar Psiquiátrico de Lisboa (508338476),Sandra Maria de Sousa Aragão (211394190),"481,67 €",21-07-2017,22-07-2016,31 dias,"Portugal, Lisboa, Lisboa","Artigo 24.º, n.º 1, alínea a) do Código dos Contratos Públicos",31-07-2016,"481,67 €",,"",,Não aplicável.,Não aplicável.,FALSE
AO mês de Junho,Ajuste Direto Regime Geral,Aquisição de serviços,"85000000-9, Serviços de saúde e acção social",Centro Hospitalar Psiquiátrico de Lisboa (508338476),Bruno Daniel dos Ramos (246905549),"264,92 €",21-07-2017,30-06-2016,30 dias,"Portugal, Lisboa, Lisboa","Artigo 24.º, n.º 1, alínea a) do Código dos Contratos Públicos",30-06-2016,"264,92 €",,"",,Não aplicável.,Não aplicável.,FALSE
AO mês de Junho 2016,Ajuste Direto Regime Geral,Aquisição de serviços,"85000000-9, Serviços de saúde e acção social",Centro Hospitalar Psiquiátrico de Lisboa (508338476),Vasco Rafael Silva Nunes (245587535),"264,92 €",21-07-2017,30-06-2016,30 dias,"Portugal, Lisboa, Lisboa","Artigo 24.º, n.º 1, alínea a) do Código dos Contratos Públicos",30-06-2016,"264,92 €",,"",,Não aplicável.,Não aplicável.,FALSE
Prestação Serviços,Ajuste Direto Regime Geral,Aquisição de serviços,"85000000-9, Serviços de saúde e acção social",Centro Hospitalar Psiquiátrico de Lisboa (508338476),Ana Sofia Monteiro Mendes (267152213),"1.276,58 €",21-07-2017,09-05-2017,30 dias,"Portugal, Lisboa, Lisboa","Artigo 24.º, n.º 1, alínea c) do Código dos Contratos Públicos",31-05-2017,"1.276,58 €",,"",,Não aplicável.,Não aplicável.,FALSE
AO para Junho 2016,Ajuste Direto Regime Geral,Aquisição de serviços,"85000000-9, Serviços de saúde e acção social",Centro Hospitalar Psiquiátrico de Lisboa (508338476),Tiago Falcão Ildefonso (253651018),"529,83 €",21-07-2017,27-06-2016,30 dias,"Portugal, Lisboa, Lisboa","Artigo 24.º, n.º 1, alínea a) do Código dos Contratos Públicos",30-06-2016,"529,83 €",,"",,Não aplicável.,Não aplicável.,FALSE
Prestação Serviços,Ajuste Direto Regime Geral,Aquisição de serviços,"85000000-9, Serviços de saúde e acção social",Centro Hospitalar Psiquiátrico de Lisboa (508338476),Andreia Filipa Neves Barreto (268427437),"1.276,58 €",21-07-2017,09-05-2017,30 dias,"Portugal, Lisboa, Lisboa","Artigo 24.º, n.º 1, alínea c) do Código dos Contratos Públicos",31-05-2017,"1.276,58 €",,"",,Não aplicável.,Não aplicável.,FALSE
AO Junho 2016,Ajuste Direto Regime Geral,Aquisição de serviços,"85000000-9, Serviços de saúde e acção social",Centro Hospitalar Psiquiátrico de Lisboa (508338476),Ilona Iasinska (235255467),"529,83 €",21-07-2017,27-06-2016,30 dias,"Portugal, Lisboa, Lisboa","Artigo 24.º, n.º 1, alínea a) do Código dos Contratos Públicos",30-06-2016,"529,83 €",,"",,Não aplicável.,Não aplicável.,FALSE
TDT Neurofisiologia de Abril a Dezembro 2016,Ajuste Direto Regime Geral,Aquisição de serviços,"85000000-9, Serviços de saúde e acção social",Centro Hospitalar Psiquiátrico de Lisboa (508338476),Hugo José Moreira Ferreira (244087490),"1.276,18 €",21-07-2017,01-04-2016,270 dias,"Portugal, Lisboa, Lisboa","Artigo 24.º, n.º 1, alínea a) do Código dos Contratos Públicos",30-04-2016,"1.276,18 €",,Prestador cessou funções em 30/04/2016,,Não aplicável.,Não aplicável.,FALSE
TDT Neurofisiologia para o mês de Março 2016,Ajuste Direto Regime Geral,Aquisição de serviços,"85000000-9, Serviços de saúde e acção social",Centro Hospitalar Psiquiátrico de Lisboa (508338476),Hugo José Moreira Ferreira (244087490),"1.276,18 €",21-07-2017,04-03-2016,31 dias,"Portugal, Lisboa, Lisboa","Artigo 24.º, n.º 1, alínea a) do Código dos Contratos Públicos",31-03-2016,"1.276,18 €",,"",,Não aplicável.,Não aplicável.,FALSE
TDT Neurofisiologia Fevereiro 2016,Ajuste Direto Regime Geral,Aquisição de serviços,"85000000-9, Serviços de saúde e acção social",Centro Hospitalar Psiquiátrico de Lisboa (508338476),Hugo José Moreira Ferreira (244087490),"1.276,18 €",21-07-2017,05-02-2016,29 dias,"Portugal, Lisboa, Lisboa","Artigo 24.º, n.º 1, alínea a) do Código dos Contratos Públicos",29-02-2016,"1.276,18 €",,"",,Não aplicável.,Não aplicável.,FALSE
Serv. TDT Neurofisiologia Janeiro 2016 - Hugo Ferreira,Ajuste Direto Regime Geral,Aquisição de serviços,"85000000-9, Serviços de saúde e acção social",Centro Hospitalar Psiquiátrico de Lisboa (508338476),Hugo José Moreira Ferreira (244087490),"1.276,18 €",21-07-2017,20-01-2016,31 dias,"Portugal, Lisboa, Lisboa","Artigo 24.º, n.º 1, alínea a) do Código dos Contratos Públicos",31-01-2016,"1.276,18 €",,"",,Não aplicável.,Não aplicável.,FALSE
