Objeto do Contrato,Tipo de Procedimento,Tipo(s) de Contrato,CPVs,Entidade(s) Adjudicante(s),Entidade(s) Adjudicatária(s),Preço Contratual,Data de Publicação,Data de Celebração do Contrato,Prazo de Execução,Local de Execução,Fundamentação,Data de Fecho do Contrato,Preço Total Efetivo,Causas das Alterações ao Prazo,Causas das Alterações ao Preço,Estado,N.º registo do Acordo Quadro,Descrição do Acordo Quadro,Procedimento Centralizado
"300Ioversol 741 Mg/ml, Soluc.Injec. IV, 125 Ml -Seri.",Ajuste Direto Regime Geral,Aquisição de bens móveis,"33600000-6, Produtos farmacêuticos","Unidade Local de Saúde de Castelo Branco, E. P. E. (509309844)",ADVANCED ACCELERATOR APPLICAT.PORTUGAL UNIPESS.LDA (509917267),"11.850,00 €",23-09-2014,10-07-2014,174 dias,"Portugal, Castelo Branco, Castelo Branco","Artigo 24.º, n.º 1, alínea e) do Código dos Contratos Públicos",09-10-2014,"11.850,00 €",,,,Não aplicável.,Não aplicável.,FALSE
Aquisição 2 servidores blades para ampliação da solução de virtualização,Ajuste Direto Regime Geral,Aquisição de bens móveis,"48820000-2, Servidores","Unidade Local de Saúde de Castelo Branco, E. P. E. (509309844)","GONKSYS, S.A. (510874169)","27.523,78 €",22-09-2014,15-09-2014,1095 dias,"Portugal, Castelo Branco, Castelo Branco","Artigo 20.º, n.º 1, alínea a) do Código dos Contratos Públicos",24-10-2014,"27.523,78 €",,,,Não aplicável.,Não aplicável.,FALSE
