Objeto do Contrato,Tipo de Procedimento,Tipo(s) de Contrato,CPVs,Entidade(s) Adjudicante(s),Entidade(s) Adjudicatária(s),Preço Contratual,Data de Publicação,Data de Celebração do Contrato,Prazo de Execução,Local de Execução,Fundamentação,Data de Fecho do Contrato,Preço Total Efetivo,Causas das Alterações ao Prazo,Causas das Alterações ao Preço,Estado,N.º registo do Acordo Quadro,Descrição do Acordo Quadro,Procedimento Centralizado
Aquisiçao de Sirolimus 1 mg comp e Sirolimus 2 mg comp,Ao abrigo de acordo-quadro (art.º 259.º),Aquisição de bens móveis,"33600000-6, Produtos farmacêuticos","Centro Hospitalar de Lisboa Central, E. P. E. (508080142)","PFIZER BIOFARMACEUTICA, SOCIEDADE UNIPESSOAL, LDA (513300376)","245.710,07 €",11-01-2018,04-01-2017,0 dias,"Portugal, Lisboa, Lisboa",Artigo 259.º do Código dos Contratos Públicos,,,,,,1771819,CP 2015/6 - Acordo quadro para o fornecimento de Medicamentos do Foro Oncológico,FALSE
Aquisiçao de Teriflunamida 14 mg comp,Ao abrigo de acordo-quadro (art.º 259.º),Aquisição de bens móveis,"33600000-6, Produtos farmacêuticos","Centro Hospitalar de Lisboa Central, E. P. E. (508080142)","SANOFI- PRODUTOS FARMACÊUTICOS,LDA. (500134960)","31.477,45 €",11-01-2018,19-01-2017,0 dias,"Portugal, Lisboa, Lisboa",Artigo 259.º do Código dos Contratos Públicos,,,,,,1771819,CP 2015/6 - Acordo quadro para o fornecimento de Medicamentos do Foro Oncológico,FALSE
" Aquisiçao de Anagrelida 0,5 mg caps",Ao abrigo de acordo-quadro (art.º 259.º),Aquisição de bens móveis,"33600000-6, Produtos farmacêuticos","Centro Hospitalar de Lisboa Central, E. P. E. (508080142)","SHIRE PHARMACEUTICALS PORTUGAL, LDA                (509264662)","27.702,00 €",11-01-2018,03-01-2017,0 dias,"Portugal, Lisboa, Lisboa",Artigo 259.º do Código dos Contratos Públicos,,,,,,1771819,CP 2015/6 - Acordo quadro para o fornecimento de Medicamentos do Foro Oncológico,FALSE
Aquisiçao de Iopramida 499 mg/ml sol inj fr 50ml  Iopramidas 769mg / ml sol inj fr ml IA,Ao abrigo de acordo-quadro (art.º 259.º),Aquisição de bens móveis,"33600000-6, Produtos farmacêuticos","Centro Hospitalar de Lisboa Central, E. P. E. (508080142)","BAYER PORTUGAL, S.A. (500043256)","24.684,00 €",11-01-2018,03-01-2017,0 dias,"Portugal, Lisboa, Lisboa",Artigo 259.º do Código dos Contratos Públicos,,,,,,1876764,Acordo quadro para fornecimento de medicamentos usados como meios de diagnóstico em Imagiologia às Instituições e Serviços do Serviço Nacional de Saúde,FALSE
Aquisiçao de Colistimetato de Sódio 1000000U.I po sol inj neb fr Iv Inalatória,Ao abrigo de acordo-quadro (art.º 259.º),Aquisição de bens móveis,"33600000-6, Produtos farmacêuticos","Centro Hospitalar de Lisboa Central, E. P. E. (508080142)",Generis Farmacêutica SA (508107997),"67.800,00 €",11-01-2018,03-01-2017,0 dias,"Portugal, Lisboa, Lisboa",Artigo 259.º do Código dos Contratos Públicos,,,,,,1326195,ACORDO QUADRO PARA FORNECIMENTO DE MEDICAMENTOS ANTI-INFECIOSOS: EXCETO ANTIVÍRICOS E ANTIFÚNGICOS ÀS INSTITUIÇÕES E SERVIÇOS DO SERVIÇO NACIONAL DE SAÚDE,FALSE
"Aquisição de Serviços Médicos na área Imunohemoterapia do CHLC, EPE",Ajuste Direto Regime Geral,Aquisição de serviços,"85121200-5, Serviços de medicina especializada","Centro Hospitalar de Lisboa Central, E. P. E. (508080142)",André João Domingues Fuseiro Simões Caiado (225920930),"6.323,96 €",11-01-2018,16-06-2017,91 dias,"Portugal, Lisboa, Lisboa","Artigo 20.º, n.º 1, alínea a) do Código dos Contratos Públicos",,,,,,Não aplicável.,Não aplicável.,FALSE
Aquisiçao de Iodivanol 550 mg /ml sol inj fr 100 ml IA ITIV,Ao abrigo de acordo-quadro (art.º 259.º),Aquisição de bens móveis,"33600000-6, Produtos farmacêuticos","Centro Hospitalar de Lisboa Central, E. P. E. (508080142)","Satis-Radioisótopos, Lda. (500098140)","4.158,00 €",11-01-2018,03-01-2017,0 dias,"Portugal, Lisboa, Lisboa",Artigo 259.º do Código dos Contratos Públicos,,,,,,1876764,Acordo quadro para fornecimento de medicamentos usados como meios de diagnóstico em Imagiologia às Instituições e Serviços do Serviço Nacional de Saúde,FALSE
Aquisiçao de Iobitridol 767.8 mg/ml sol inj fr 100 ml iv,Ao abrigo de acordo-quadro (art.º 259.º),Aquisição de bens móveis,"33600000-6, Produtos farmacêuticos","Centro Hospitalar de Lisboa Central, E. P. E. (508080142)",GUERBET A MARTINS  FERNANDES S A (501172114),"8.400,00 €",11-01-2018,03-01-2017,0 dias,"Portugal, Lisboa, Lisboa",Artigo 259.º do Código dos Contratos Públicos,,,,,,1876764,Acordo quadro para fornecimento de medicamentos usados como meios de diagnóstico em Imagiologia às Instituições e Serviços do Serviço Nacional de Saúde,FALSE
"Consultoria especializada de optimização de processos - Metodologia """"Lean"""", para 9 meses",Ajuste Direto Regime Geral,Aquisição de serviços,"71600000-4, Serviços técnicos de ensaio, análise e consultoria","Centro Hospitalar de Lisboa Central, E. P. E. (508080142)",Pensamento Inesperado Lda (510310591),"42.000,00 €",11-01-2018,10-05-2017,245 dias,"Portugal, Lisboa, Lisboa","Artigo 20.º, n.º 1, alínea a) do Código dos Contratos Públicos",,,,,,Não aplicável.,Não aplicável.,FALSE
"Aquisição de 4 Capacetes 4 Fontes de Luz - Bloco Cirurgia Cardiotorácica HSM - CHLC, EPE",Ajuste Direto Regime Geral,Aquisição de bens móveis,"33100000-1, Equipamento médico","Centro Hospitalar de Lisboa Central, E. P. E. (508080142)","Omnia3 - Dispositivos Médicos Unipessoal, Lda. (513210857)","7.960,00 €",11-01-2018,06-11-2017,60 dias,"Portugal, Lisboa, Lisboa","Artigo 20.º, n.º 1, alínea a) do Código dos Contratos Públicos",,,,,,Não aplicável.,Não aplicável.,FALSE
Aquisição da prestação de Programa de Acreditação / Certificação ao CHLC pela CHKS - Ano 2017,Ajuste Direto Regime Geral,Aquisição de serviços,"79130000-4, Serviços de certificação e documentação legal","Centro Hospitalar de Lisboa Central, E. P. E. (508080142)",CHKS (834852705),"27.601,09 €",11-01-2018,28-04-2017,365 dias,"Portugal, Lisboa, Lisboa","Artigo 24.º, n.º 1, alínea e) do Código dos Contratos Públicos",,,,,,Não aplicável.,Não aplicável.,FALSE
HCC Gases Medicinais - Manutenção e Assistência Técnica às Infraestruturas/ Controlo de Qualidade,Ajuste Direto Regime Geral,Aquisição de serviços,"50000000-5, Serviços de reparação e manutenção","Centro Hospitalar de Lisboa Central, E. P. E. (508080142)","PRAXAIR PORTUGAL GASES, S.A. (501738916)","9.018,00 €",11-01-2018,01-08-2017,181 dias,"Portugal, Lisboa, Lisboa","Artigo 20.º, n.º 1, alínea a) do Código dos Contratos Públicos",,,,,,Não aplicável.,Não aplicável.,FALSE
"Serviços de Assessoria Jurídica, para o Centro Hospitalar de Lisboa Central, durante o ano de 2017",Ajuste Direto Regime Geral,Aquisição de serviços,"79111000-5, Serviços de assessoria jurídica","Centro Hospitalar de Lisboa Central, E. P. E. (508080142)",Pedro Lorenzo Dominguez (186312539),"22.288,15 €",11-01-2018,17-02-2017,365 dias,"Portugal, Lisboa, Lisboa","Artigo 20.º, n.º 1, alínea a) do Código dos Contratos Públicos",,,,,,Não aplicável.,Não aplicável.,FALSE
Contentores de 10L para 2018,Ao abrigo de acordo-quadro (art.º 259.º),Aquisição de bens móveis,"33000000-0, Equipamento médico, medicamentos e produtos para cuidados pessoais","Centro Hospitalar de Lisboa Central, E. P. E. (508080142)",OVERPHARMA - PRODUTOS MEDICOS E FARM. (505792362),"8.532,30 €",11-01-2018,11-01-2018,354 dias,"Portugal, Lisboa, Lisboa","Artigo 20.º, n.º 1, alínea b) do Código dos Contratos Públicos",,,,,,1341769,"ACORDO QUADRO PARA FORNECIMENTO DE SERINGAS, AGULHAS E CONTENTORES ÀS INSTITUIÇÕES E SERVIÇOS DO SERVIÇO NACIONAL DE SAÚDE PROGRAMA DE CONCURSO",FALSE
Mangas Mistas para 2018,Ao abrigo de acordo-quadro (art.º 259.º),Aquisição de bens móveis,"33140000-3, Material médico de consumo","Centro Hospitalar de Lisboa Central, E.P.E. (CHLC) (508080142)",EUROCASMÉDICA (503322105),"3.349,08 €",11-01-2018,11-01-2018,354 dias,"Portugal, Lisboa, Lisboa","Artigo 20.º, n.º 1, alínea b) do Código dos Contratos Públicos",,,,,,1974943,CP 2016/43 - Acordo quadro para fornecimento de Material para Empacotamento em Esterilização às Instituições e Serviços do Serviço Nacional de Saúde.,FALSE
Mangas Mistas para 2018,Ao abrigo de acordo-quadro (art.º 259.º),Aquisição de bens móveis,"33140000-3, Material médico de consumo","Centro Hospitalar de Lisboa Central, E.P.E. (CHLC) (508080142)",docworld (508592909),"21.483,15 €",11-01-2018,11-01-2018,354 dias,"Portugal, Lisboa, Lisboa","Artigo 20.º, n.º 1, alínea b) do Código dos Contratos Públicos",,,,,,1974943,CP 2016/43 - Acordo quadro para fornecimento de Material para Empacotamento em Esterilização às Instituições e Serviços do Serviço Nacional de Saúde.,FALSE
Mangas Mistas para 2018,Ao abrigo de acordo-quadro (art.º 259.º),Aquisição de bens móveis,"33140000-3, Material médico de consumo","Centro Hospitalar de Lisboa Central, E.P.E. (CHLC) (508080142)",DIMOR LUSITANA-C.IND.PROD.HIG. (500730741),"2.851,84 €",11-01-2018,11-01-2018,354 dias,"Portugal, Lisboa, Lisboa","Artigo 20.º, n.º 1, alínea b) do Código dos Contratos Públicos",,,,,,1974943,CP 2016/43 - Acordo quadro para fornecimento de Material para Empacotamento em Esterilização às Instituições e Serviços do Serviço Nacional de Saúde.,FALSE
Mangas Mistas para 2018,Ao abrigo de acordo-quadro (art.º 259.º),Aquisição de bens móveis,"33140000-3, Material médico de consumo","Centro Hospitalar de Lisboa Central, E.P.E. (CHLC) (508080142)",PERGUT (501799729),"4.805,15 €",11-01-2018,11-01-2018,354 dias,"Portugal, Lisboa, Lisboa","Artigo 20.º, n.º 1, alínea b) do Código dos Contratos Públicos",,,,,,1974943,CP 2016/43 - Acordo quadro para fornecimento de Material para Empacotamento em Esterilização às Instituições e Serviços do Serviço Nacional de Saúde.,FALSE
Aquisiçao de Imunoglobulina Antilinfocitos (coelho) 20 mg /ml sol inj fr 5 ml iv,Ajuste Direto Regime Geral,Aquisição de bens móveis,"33600000-6, Produtos farmacêuticos","Centro Hospitalar de Lisboa Central, E. P. E. (508080142)","ALLOGA PORTUGAL-ARMAZENAGEM E DISTRIBUICAO FARMACEUTICA,S. UNIPESS LDA (504507230)","22.828,05 €",11-01-2018,02-03-2017,0 dias,"Portugal, Lisboa, Lisboa","Artigo 20.º, n.º 1, alínea a) do Código dos Contratos Públicos",,,,,,Não aplicável.,Não aplicável.,FALSE
Aquisiçao de Atovaquonas e Sulfametaxazol + Trimetoprim,Ao abrigo de acordo-quadro (art.º 259.º),Aquisição de bens móveis,"33600000-6, Produtos farmacêuticos","Centro Hospitalar de Lisboa Central, E. P. E. (508080142)","ROCHE FARMACÊUTICA QUIMICA, LDA. (500233810)","47.118,00 €",11-01-2018,02-01-2017,0 dias,"Portugal, Lisboa, Lisboa",Artigo 259.º do Código dos Contratos Públicos,,,,,,1326195,ACORDO QUADRO PARA FORNECIMENTO DE MEDICAMENTOS ANTI-INFECIOSOS: EXCETO ANTIVÍRICOS E ANTIFÚNGICOS ÀS INSTITUIÇÕES E SERVIÇOS DO SERVIÇO NACIONAL DE SAÚDE,FALSE
Aquisiçao de Ganciclovir 500 mg po sol inj fr iv Oseltamivir 75 mg caps,Ao abrigo de acordo-quadro (art.º 259.º),Aquisição de bens móveis,"33600000-6, Produtos farmacêuticos","Centro Hospitalar de Lisboa Central, E. P. E. (508080142)","ROCHE FARMACÊUTICA QUIMICA, LDA. (500233810)","24.652,00 €",11-01-2018,11-01-2017,0 dias,"Portugal, Lisboa, Lisboa",Artigo 259.º do Código dos Contratos Públicos,,,,,,1422736,CP 2015/41 - ACORDO QUADRO PARA FORNECIMENTO DE MEDICAMENTOS ANTI-INFECIOSOS: ANTIVÍRICOS E ANTIFÚNGICOS ÀS INSTITUIÇÕES E SERVIÇOS DO SERVIÇO NACIONAL DE SAÚDE,FALSE
Aquisiçao de Anfotericina B Lipossaómica  50mg po sol inj fr iv,Ao abrigo de acordo-quadro (art.º 259.º),Aquisição de bens móveis,"33600000-6, Produtos farmacêuticos","Centro Hospitalar de Lisboa Central, E. P. E. (508080142)",GILEAD SCIENCES (503604704),"39.018,30 €",11-01-2018,21-12-2017,0 dias,"Portugal, Lisboa, Lisboa",Artigo 259.º do Código dos Contratos Públicos,,,,,,1422736,CP 2015/41 - ACORDO QUADRO PARA FORNECIMENTO DE MEDICAMENTOS ANTI-INFECIOSOS: ANTIVÍRICOS E ANTIFÚNGICOS ÀS INSTITUIÇÕES E SERVIÇOS DO SERVIÇO NACIONAL DE SAÚDE,FALSE
Aquisiçao de Anfotericina B Lipossámica 50mg pó sol inj fr iv,Ao abrigo de acordo-quadro (art.º 259.º),Aquisição de bens móveis,"33600000-6, Produtos farmacêuticos","Centro Hospitalar de Lisboa Central, E. P. E. (508080142)",GILEAD SCIENCES (503604704),"195.091,50 €",11-01-2018,12-10-2017,0 dias,"Portugal, Lisboa, Lisboa",Artigo 259.º do Código dos Contratos Públicos,,,,,,1422736,CP 2015/41 - ACORDO QUADRO PARA FORNECIMENTO DE MEDICAMENTOS ANTI-INFECIOSOS: ANTIVÍRICOS E ANTIFÚNGICOS ÀS INSTITUIÇÕES E SERVIÇOS DO SERVIÇO NACIONAL DE SAÚDE,FALSE
Contraceptivos e Dispositivos Intra-Uterinos para 2018,Ao abrigo de acordo-quadro (art.º 259.º),Aquisição de bens móveis,"33000000-0, Equipamento médico, medicamentos e produtos para cuidados pessoais","Centro Hospitalar de Lisboa Central, E. P. E. (508080142)",EZEQUIEL PANAO JORGE (501412727),"1.042,75 €",10-01-2018,10-01-2018,355 dias,"Portugal, Lisboa, Lisboa","Artigo 20.º, n.º 1, alínea b) do Código dos Contratos Públicos",,,,,,1459323,CP 2015/20,FALSE
"Aquisição Serviços médicos Área de Clínica Geral para a Urgência de Medicina, destinado ao CHLC, EPE",Ajuste Direto Regime Geral,Aquisição de serviços,"85121100-4, Serviços de médicos de clínica geral","Centro Hospitalar de Lisboa Central, E.P.E. (CHLC) (508080142)",Lesya Yefimenko (282439390),"11.071,39 €",10-01-2018,14-08-2017,139 dias,"Portugal, Lisboa, Lisboa","Artigo 20.º, n.º 1, alínea a) do Código dos Contratos Públicos",,,,,,Não aplicável.,Não aplicável.,FALSE
Aquisição de Serviços de Cuidados Médicos na Área de Medicina Geral e Familiar destinado ao CHLC,Ajuste Direto Regime Geral,Aquisição de serviços,"85121100-4, Serviços de médicos de clínica geral","Centro Hospitalar de Lisboa Central, E.P.E. (CHLC) (508080142)",Janine Marlise Rodrigues Correia (242237142),"3.039,66 €",10-01-2018,02-10-2017,92 dias,"Portugal, Lisboa, Lisboa","Artigo 20.º, n.º 1, alínea a) do Código dos Contratos Públicos",,,,,,Não aplicável.,Não aplicável.,FALSE
Aquisiçao de Rilpivirina 25 mg comp,Ao abrigo de acordo-quadro (art.º 259.º),Aquisição de bens móveis,"33600000-6, Produtos farmacêuticos","Centro Hospitalar de Lisboa Central, E.P.E. (CHLC) (508080142)","JANSSEN CILAG FARMACEUTICA, LDA. (500189412)","14.392,62 €",10-01-2018,18-10-2017,0 dias,"Portugal, Lisboa, Lisboa",Artigo 259.º do Código dos Contratos Públicos,,,,,,1120578,"CONCURSO PÚBLICO PARA A CELEBRAÇÃO DE CONTRATOS PÚBLICOS DE APROVISIONAMENTO PARA A ÁREA DA SAÚDE, COM VISTA AO FORNECIMENTO DE MEDICAMENTOS ANTI-RETROVIRAIS, ÀS INSTITUIÇÕES E SERVIÇOS DO SERVIÇO NACIONAL DE SAÚDE  ",FALSE
Aquisição de serviços de cuidados médicos na área de ortopedia (24 horas Semanais)-CHLC-HCC,Ajuste Direto Regime Geral,Aquisição de serviços,"85121283-0, Serviços de ortopedia","Centro Hospitalar de Lisboa Central, E.P.E. (CHLC) (508080142)",Medipeople (508543436),"6.071,00 €",10-01-2018,28-06-2017,62 dias,"Portugal, Lisboa, Lisboa","Artigo 20.º, n.º 1, alínea a) do Código dos Contratos Públicos",,,,,,Não aplicável.,Não aplicável.,FALSE
Aquisição de Serviços médicos na Área de Gastroenterologia destinado ao CHLC,Ajuste Direto Regime Geral,Aquisição de serviços,"85121251-7, Serviços de gastroenterologia","Centro Hospitalar de Lisboa Central, E.P.E. (CHLC) (508080142)",Tiago André Teixeira Capela (218732325),"2.259,59 €",10-01-2018,03-07-2017,18 dias,"Portugal, Lisboa, Lisboa","Artigo 20.º, n.º 1, alínea a) do Código dos Contratos Públicos",,,,,,Não aplicável.,Não aplicável.,FALSE
Aquisiçao de Rilpivirina 25 mg comp,Ao abrigo de acordo-quadro (art.º 259.º),Aquisição de bens móveis,"33600000-6, Produtos farmacêuticos","Centro Hospitalar de Lisboa Central, E.P.E. (CHLC) (508080142)","JANSSEN CILAG FARMACEUTICA, LDA. (500189412)","12.211,92 €",10-01-2018,29-09-2017,0 dias,"Portugal, Lisboa, Lisboa",Artigo 259.º do Código dos Contratos Públicos,,,,,,1120578,"CONCURSO PÚBLICO PARA A CELEBRAÇÃO DE CONTRATOS PÚBLICOS DE APROVISIONAMENTO PARA A ÁREA DA SAÚDE, COM VISTA AO FORNECIMENTO DE MEDICAMENTOS ANTI-RETROVIRAIS, ÀS INSTITUIÇÕES E SERVIÇOS DO SERVIÇO NACIONAL DE SAÚDE  ",FALSE
"Aquisição de Serviços de Cuidados Médicos de Otorrinolaringologia, de 01.07 a 31.08.2017",Ajuste Direto Regime Geral,Aquisição de serviços,"85121240-7, Serviços de otorrinolaringologia ou audiologia","Centro Hospitalar de Lisboa Central, E.P.E. (CHLC) (508080142)",Filipe António Maymone Martins Freire (210035390),"8.105,76 €",10-01-2018,12-09-2017,62 dias,"Portugal, Lisboa, Lisboa","Artigo 20.º, n.º 1, alínea a) do Código dos Contratos Públicos",,,,,,Não aplicável.,Não aplicável.,FALSE
Aquisiçao de Capcitabina 500mg comp e Capcitabina 150 mg comp,Ao abrigo de acordo-quadro (art.º 259.º),Aquisição de bens móveis,"33600000-6, Produtos farmacêuticos","Centro Hospitalar de Lisboa Central, E. P. E. (508080142)",NOVARTIS FARMA PRODUTOS FARMACEUTICOS SA (500063524),"237.912,40 €",10-01-2018,03-01-2017,0 dias,"Portugal, Lisboa, Lisboa",Artigo 259.º do Código dos Contratos Públicos,,,,,,1771819,CP 2015/6 - Acordo quadro para o fornecimento de Medicamentos do Foro Oncológico,FALSE
"Aquisição de Serviços de Cuidados Médicos de Otorrinolaringologia, de 01.07 a 31.08.2017",Ajuste Direto Regime Geral,Aquisição de serviços,"85121240-7, Serviços de otorrinolaringologia ou audiologia","Centro Hospitalar de Lisboa Central, E. P. E. (508080142)",Ana Guimarães Nunes Pereira (218219156),"8.105,76 €",10-01-2018,07-12-2017,62 dias,"Portugal, Lisboa, Lisboa","Artigo 20.º, n.º 1, alínea a) do Código dos Contratos Públicos",,,,,,Não aplicável.,Não aplicável.,FALSE
"Aquisição de Serviços de Cuidados Médicos de Otorrinolaringologia, de 01.07 a 31.08.2017",Ajuste Direto Regime Geral,Aquisição de serviços,"85121240-7, Serviços de otorrinolaringologia ou audiologia","Centro Hospitalar de Lisboa Central, E. P. E. (508080142)",João Pedro da Cruz Dias Caratão (130216313),"8.105,76 €",10-01-2018,14-11-2017,62 dias,"Portugal, Lisboa, Lisboa","Artigo 20.º, n.º 1, alínea a) do Código dos Contratos Públicos",,,,,,Não aplicável.,Não aplicável.,FALSE
Aquisiçao de Capcitabina 500mg comp e Capcitabina 150 mg comp,Ao abrigo de acordo-quadro (art.º 259.º),Aquisição de bens móveis,"33600000-6, Produtos farmacêuticos","Centro Hospitalar de Lisboa Central, E. P. E. (508080142)","ACCORD HEALTHCARE, UNIPESSOAL, LDA (508622263)","3.873,15 €",10-01-2018,11-01-2017,0 dias,"Portugal, Lisboa, Lisboa",Artigo 259.º do Código dos Contratos Públicos,,,,,,1771819,CP 2015/6 - Acordo quadro para o fornecimento de Medicamentos do Foro Oncológico,FALSE
Tampas de três vias para 2018,Ao abrigo de acordo-quadro (art.º 259.º),Aquisição de bens móveis,"33100000-1, Equipamento médico","Centro Hospitalar de Lisboa Central, E.P.E. (CHLC) (508080142)",PERGUT (501799729),"6.737,50 €",10-01-2018,09-01-2018,354 dias,"Portugal, Lisboa, Lisboa","Artigo 20.º, n.º 1, alínea b) do Código dos Contratos Públicos",,,,,,1212278,"CONCURSO PÚBLICO PARA A CELEBRAÇÃO DE CONTRATOS PÚBLICOS DE APROVISIONAMENTO PARA A ÁREA DA SAÚDE, COM VISTA AO FORNECIMENTO DE CATETERES, ÀS INSTITUIÇÕES E SERVIÇOS DO SERVIÇO NACIONAL DE SAÚDE",FALSE
"Aquisição de Serviços de Cuidados Médicos de Otorrinolaringologia, de 01.07 a 31.08.2017",Ajuste Direto Regime Geral,Aquisição de serviços,"85121240-7, Serviços de otorrinolaringologia ou audiologia","Centro Hospitalar de Lisboa Central, E. P. E. (508080142)",Carolina da Costa Pinheiro Palmeiro Durão (233918396),"8.105,76 €",10-01-2018,15-12-2017,62 dias,"Portugal, Lisboa, Lisboa","Artigo 20.º, n.º 1, alínea a) do Código dos Contratos Públicos",,,,,,Não aplicável.,Não aplicável.,FALSE
Aquisiçao de Crizotinib caps/comp 250mg,Ao abrigo de acordo-quadro (art.º 259.º),Aquisição de bens móveis,"33600000-6, Produtos farmacêuticos","Centro Hospitalar de Lisboa Central, E. P. E. (508080142)","PFIZER BIOFARMACEUTICA, SOCIEDADE UNIPESSOAL, LDA (513300376)","10.502,24 €",10-01-2018,19-01-2017,0 dias,"Portugal, Lisboa, Lisboa",Artigo 259.º do Código dos Contratos Públicos,,,,,,1771819,CP 2015/6 - Acordo quadro para o fornecimento de Medicamentos do Foro Oncológico,FALSE
Aquisição de Sutura cutânea para 2018,Ao abrigo de acordo-quadro (art.º 259.º),Aquisição de bens móveis,"33141100-1, Pensos; clipes, suturas, ligaduras","Centro Hospitalar de Lisboa Central, E. P. E. (508080142)","VYGON (PORTUGAL), LDA. (503232785)","503,28 €",10-01-2018,10-01-2018,355 dias,"Portugal, Lisboa, Lisboa","Artigo 20.º, n.º 1, alínea b) do Código dos Contratos Públicos",,,,,,2183748,Pensos especiais,FALSE
Aquisição de Serviços de Cuidados Médicos na Área de Medicina Geral e Familiar destinada à Urgência,Ajuste Direto Regime Geral,Aquisição de serviços,"85121100-4, Serviços de médicos de clínica geral","Centro Hospitalar de Lisboa Central, E. P. E. (508080142)",Tânia Filipa da Costa Sequeira (243321120),"2.251,60 €",10-01-2018,06-11-2017,61 dias,"Portugal, Lisboa, Lisboa","Artigo 20.º, n.º 1, alínea a) do Código dos Contratos Públicos",,,,,,Não aplicável.,Não aplicável.,FALSE
Compressas para 2018,Ao abrigo de acordo-quadro (art.º 259.º),Aquisição de bens móveis,"33100000-1, Equipamento médico","Centro Hospitalar de Lisboa Central, E. P. E. (508080142)","ALBINO DIAS ANDRADE, LDA (500013810)","143.162,43 €",10-01-2018,10-01-2018,355 dias,"Portugal, Lisboa, Lisboa","Artigo 20.º, n.º 1, alínea b) do Código dos Contratos Públicos",,,,,,2190354,CP 2016/21 - Acordo quadro para fornecimento de Gazes Medicadas e Ligaduras de Gaze às Instituições e Serviços do Serviço Nacional de Saúde,FALSE
"Prestação de serviços de um técnico superior de Técnico de Diagnóstico e Terapêutica - Ramo de técnico de análises, destinado ao Serviço de Patologia Clínica do CHLC",Ajuste Direto Regime Geral,Aquisição de serviços,"85120000-6, Serviços de prática médica e serviços conexos","Centro Hospitalar de Lisboa Central, E. P. E. (508080142)",Ricardo Jorge Cabrito Vicente (250218232),"1.604,01 €",10-01-2018,08-09-2017,91 dias,"Portugal, Lisboa, Lisboa","Artigo 20.º, n.º 1, alínea a) do Código dos Contratos Públicos",,,,,,Não aplicável.,Não aplicável.,FALSE
Aquisição Serviços de Cuidados Médicos Área de Ginecologia/ Obstetrícia - Urgência - Jun a Dez 2017,Ajuste Direto Regime Geral,Aquisição de serviços,"85121210-8, Serviços de ginecologia ou obstetrícia","Centro Hospitalar de Lisboa Central, E. P. E. (508080142)",Dusan Djokovic (249732998),"9.814,56 €",10-01-2018,01-06-2017,214 dias,"Portugal, Lisboa, Lisboa","Artigo 20.º, n.º 1, alínea a) do Código dos Contratos Públicos",,,,,,Não aplicável.,Não aplicável.,FALSE
Aquisição de cuidados médicos na área da Anestesiologia - CHLC HSJ,Ajuste Direto Regime Geral,Aquisição de serviços,"85121200-5, Serviços de medicina especializada","Centro Hospitalar de Lisboa Central, E. P. E. (508080142)",Gonçalo Nuno Coutinho do Nascimento Ameida (228504295),"31.176,00 €",10-01-2018,16-06-2017,184 dias,"Portugal, Lisboa, Lisboa","Artigo 20.º, n.º 1, alínea a) do Código dos Contratos Públicos",,,,,,Não aplicável.,Não aplicável.,FALSE
Material para colheita de sangue para 2018,Ao abrigo de acordo-quadro (art.º 259.º),Aquisição de bens móveis,"33100000-1, Equipamento médico","Centro Hospitalar de Lisboa Central, E. P. E. (508080142)","SARSTEDT - Tecnologia de Laboratorio, Lda (503019461)","177.161,48 €",10-01-2018,10-01-2018,355 dias,"Portugal, Lisboa, Lisboa","Artigo 20.º, n.º 1, alínea b) do Código dos Contratos Públicos",,,,,,1350003,Acordo Quadro para fornecimento de sistemas fechados e material diverso de recolha de sangue às instituições do SNS,FALSE
Aquisição de serviços de cuidados médicos na Neurofisiologia - HDE,Ajuste Direto Regime Geral,Aquisição de serviços,"85121200-5, Serviços de medicina especializada","Centro Hospitalar de Lisboa Central, E. P. E. (508080142)","Alberto Leal - Neurofisiologia, Lda (505714930)","10.609,71 €",10-01-2018,30-06-2017,199 dias,"Portugal, Lisboa, Lisboa","Artigo 20.º, n.º 1, alínea a) do Código dos Contratos Públicos",,,,,,Não aplicável.,Não aplicável.,FALSE
"Urinol de Plástico para 2018, deserta do procedimento N.º 5-2.0019/18",Ao abrigo de acordo-quadro (art.º 259.º),Aquisição de bens móveis,"33100000-1, Equipamento médico","Centro Hospitalar de Lisboa Central, E. P. E. (508080142)",EZEQUIEL PANAO JORGE (501412727),"528,00 €",10-01-2018,10-01-2018,355 dias,"Portugal, Lisboa, Lisboa","Artigo 20.º, n.º 1, alínea b) do Código dos Contratos Públicos",,,,,,2349400,Acordo quadro para o fornecimento de Dispositivos para evacuação e para banho.,FALSE
Aquisição de serviços de cuidados médicos na Área de Cirurgia Pediatria - Urgência do HDE,Ajuste Direto Regime Geral,Aquisição de serviços,"85121300-6, Serviços de cirurgia especializada","Centro Hospitalar de Lisboa Central, E. P. E. (508080142)",Sara Tatiana Heitor Carmo (230767745),"8.412,48 €",10-01-2018,03-07-2017,184 dias,"Portugal, Lisboa, Lisboa","Artigo 20.º, n.º 1, alínea a) do Código dos Contratos Públicos",,,,,,Não aplicável.,Não aplicável.,FALSE
Campo Magnético Cirúrgico para 2018,Ao abrigo de acordo-quadro (art.º 259.º),Aquisição de bens móveis,"33100000-1, Equipamento médico","Centro Hospitalar de Lisboa Central, E. P. E. (508080142)",MEDTRONIC PORTUGAL LDA (504223933),"967,20 €",10-01-2018,10-01-2018,355 dias,"Portugal, Lisboa, Lisboa","Artigo 20.º, n.º 1, alínea b) do Código dos Contratos Públicos",,,,,,2102851,CP 2016/74 - Acordo quadro para fornecimento de Material disposable de bloco operatório - Parte I-B às Instituições e Serviços do Serviço Nacional de Saúde,FALSE
Aquisição de serviços de Cuidados Médicos na Área de Neuropediatria para o CHLC-EPE-HDE FEV A DEZ.,Ajuste Direto Regime Geral,Aquisição de serviços,"85121200-5, Serviços de medicina especializada","Centro Hospitalar de Lisboa Central, E. P. E. (508080142)",Susana Marques de Azevedo Rocha (202190641),"5.610,00 €",10-01-2018,27-02-2017,334 dias,"Portugal, Lisboa, Lisboa","Artigo 20.º, n.º 1, alínea a) do Código dos Contratos Públicos",,,,,,Não aplicável.,Não aplicável.,FALSE
Aquisição de serviços de Cuidados Médicos na Área de Neuropediatria para o CHLC-EPE-HDE FEV A DEZ.,Ajuste Direto Regime Geral,Aquisição de serviços,"85121200-5, Serviços de medicina especializada","Centro Hospitalar de Lisboa Central, E. P. E. (508080142)",Catarina Sofia Marceano Ribeiro Luís (204041252),"9.900,00 €",10-01-2018,03-03-2017,334 dias,"Portugal, Lisboa, Lisboa","Artigo 20.º, n.º 1, alínea a) do Código dos Contratos Públicos",,,,,,Não aplicável.,Não aplicável.,FALSE
aquisição Serviços Cuidados Médicos na Área de Ortopedia vertente oncologia óssea-CHLC-HDE,Ajuste Direto Regime Geral,Aquisição de serviços,"85121200-5, Serviços de medicina especializada","Centro Hospitalar de Lisboa Central, E. P. E. (508080142)","Plorfis - Médicos Associados, Lda. (503936391)","12.470,40 €",10-01-2018,31-01-2017,365 dias,"Portugal, Lisboa, Lisboa","Artigo 20.º, n.º 1, alínea a) do Código dos Contratos Públicos",,,,,,Não aplicável.,Não aplicável.,FALSE
Aquisiçao de Bicalutamida 50 mg comp e 150 mg comp,Ao abrigo de acordo-quadro (art.º 259.º),Aquisição de bens móveis,"33600000-6, Produtos farmacêuticos","Centro Hospitalar de Lisboa Central, E.P.E. (CHLC) (508080142)","TEVA-PHARMA - PRODUTOS FARMACÊUTICOS, LDA. (507045491)","1.545,30 €",10-01-2018,16-01-2017,0 dias,"Portugal, Lisboa, Lisboa",Artigo 259.º do Código dos Contratos Públicos,,,,,,1771819,CP 2015/6 - Acordo quadro para o fornecimento de Medicamentos do Foro Oncológico,FALSE
Aquisição de Serviços de Cuidados Médicos na Área de Medicina Geral e Familiar para o CHLC,Ajuste Direto Regime Geral,Aquisição de serviços,"85121100-4, Serviços de médicos de clínica geral","Centro Hospitalar de Lisboa Central, E.P.E. (CHLC) (508080142)",Constantino Mendes Lopes Fernandes (194285600),"23.618,89 €",10-01-2018,30-01-2017,365 dias,"Portugal, Lisboa, Lisboa","Artigo 20.º, n.º 1, alínea a) do Código dos Contratos Públicos",,,,,,Não aplicável.,Não aplicável.,FALSE
Aquisiçao de Belimumab 120mg e 400mg,Ao abrigo de acordo-quadro (art.º 259.º),Aquisição de bens móveis,"33600000-6, Produtos farmacêuticos","Centro Hospitalar de Lisboa Central, E.P.E. (CHLC) (508080142)",GlaxoSmithKline (500139962),"16.078,41 €",10-01-2018,11-01-2017,0 dias,"Portugal, Lisboa, Lisboa",Artigo 259.º do Código dos Contratos Públicos,,,,,,1771819,CP 2015/6 - Acordo quadro para o fornecimento de Medicamentos do Foro Oncológico,FALSE
Aquisiçao de Anatrazol comp 1mg,Ao abrigo de acordo-quadro (art.º 259.º),Aquisição de bens móveis,"33600000-6, Produtos farmacêuticos","Centro Hospitalar de Lisboa Central, E. P. E. (508080142)","TECNIMEDE, SA (500626413), ACCORD HEALTHCARE, UNIPESSOAL, LDA (508622263)","1.771,01 €",10-01-2018,11-01-2017,0 dias,"Portugal, Lisboa, Lisboa",Artigo 259.º do Código dos Contratos Públicos,,,,,,1771819,CP 2015/6 - Acordo quadro para o fornecimento de Medicamentos do Foro Oncológico,FALSE
Aquisiçao de Cacilo Calmette-Guérin 2.8x10E8 UFC deTice BCG Po Irrig Visical Fr,Ao abrigo de acordo-quadro (art.º 259.º),Aquisição de bens móveis,"33600000-6, Produtos farmacêuticos","Centro Hospitalar de Lisboa Central, E. P. E. (508080142)",MERCK SHARP DOHME (500191360),"6.313,50 €",10-01-2018,23-01-2017,0 dias,"Portugal, Lisboa, Lisboa",Artigo 259.º do Código dos Contratos Públicos,,,,,,1771819,CP 2015/6 - Acordo quadro para o fornecimento de Medicamentos do Foro Oncológico,FALSE
Aquisição de Serviços de Cuidados Médicos na Área de Cirurgia Plástica e Reconstrutiva,Ajuste Direto Regime Geral,Aquisição de serviços,"85121200-5, Serviços de medicina especializada","Centro Hospitalar de Lisboa Central, E. P. E. (508080142)","Catarina & Zilhão, Lda (513654534)","18.705,60 €",10-01-2018,31-01-2017,365 dias,"Portugal, Lisboa, Lisboa","Artigo 20.º, n.º 1, alínea a) do Código dos Contratos Públicos",,,,,,Não aplicável.,Não aplicável.,FALSE
Aquisição de Serviços de Cuidados Médicos na Área de Cirurgia Plástica e Reconstrutiva,Ajuste Direto Regime Geral,Aquisição de serviços,"85121200-5, Serviços de medicina especializada","Centro Hospitalar de Lisboa Central, E. P. E. (508080142)","João Amaral Ferreira - Cirurgia Plástica, Lda (508668484)","18.705,60 €",10-01-2018,31-01-2017,365 dias,"Portugal, Lisboa, Lisboa","Artigo 20.º, n.º 1, alínea a) do Código dos Contratos Públicos",,,,,,Não aplicável.,Não aplicável.,FALSE
Aquisiçao de Cetuximab 5 mg / 20ml,Ao abrigo de acordo-quadro (art.º 259.º),Aquisição de bens móveis,"33600000-6, Produtos farmacêuticos","Centro Hospitalar de Lisboa Central, E. P. E. (508080142)","MERCK, SA (500650870)","56.091,52 €",10-01-2018,19-01-2017,0 dias,"Portugal, Lisboa, Lisboa",Artigo 259.º do Código dos Contratos Públicos,,,,,,1771819,CP 2015/6 - Acordo quadro para o fornecimento de Medicamentos do Foro Oncológico,FALSE
Aquisiçao de Rituximab 500mg /50ml,Ao abrigo de acordo-quadro (art.º 259.º),Aquisição de bens móveis,"33600000-6, Produtos farmacêuticos","Centro Hospitalar de Lisboa Central, E. P. E. (508080142)","ROCHE FARMACÊUTICA QUIMICA, LDA. (500233810)","169.964,08 €",10-01-2018,19-01-2017,0 dias,"Portugal, Lisboa, Lisboa",Artigo 259.º do Código dos Contratos Públicos,,,,,,1771819,CP 2015/6 - Acordo quadro para o fornecimento de Medicamentos do Foro Oncológico,FALSE
"Aquisição de Serviços de Cuidados Médicos na Área de Cirurgia Vascular, para o CHLC, EPE",Ajuste Direto Regime Geral,Aquisição de serviços,"85121200-5, Serviços de medicina especializada","Centro Hospitalar de Lisboa Central, E. P. E. (508080142)",Daniela Eulália Rodrigues Gonçalves de Sanches Damas (197205275),"12.608,96 €",10-01-2018,05-09-2017,122 dias,"Portugal, Lisboa, Lisboa","Artigo 20.º, n.º 1, alínea a) do Código dos Contratos Públicos",,,,,,Não aplicável.,Não aplicável.,FALSE
Aquisiçao de Transtuzumab 150mg,Ao abrigo de acordo-quadro (art.º 259.º),Aquisição de bens móveis,"33600000-6, Produtos farmacêuticos","Centro Hospitalar de Lisboa Central, E. P. E. (508080142)","ROCHE FARMACÊUTICA QUIMICA, LDA. (500233810)","162.480,69 €",10-01-2018,19-01-2017,0 dias,"Portugal, Lisboa, Lisboa",Artigo 259.º do Código dos Contratos Públicos,,,,,,1771819,CP 2015/6 - Acordo quadro para o fornecimento de Medicamentos do Foro Oncológico,FALSE
Aquisição de serviços de Técnico de diagnóstico e terapêutica de Cardiopneumologia CHLC,Ajuste Direto Regime Geral,Aquisição de serviços,"85121230-4, Serviços de cardiologia ou serviços especializados pulmonares","Centro Hospitalar de Lisboa Central, E. P. E. (508080142)",Nuno Correia Lopes Monteiro (212311611),"1.527,62 €",10-01-2018,05-12-2017,61 dias,"Portugal, Lisboa, Lisboa","Artigo 20.º, n.º 1, alínea a) do Código dos Contratos Públicos",,,,,,Não aplicável.,Não aplicável.,FALSE
transtuzumab 600 mg /ml sol inj fr 5 ml sc,Ao abrigo de acordo-quadro (art.º 259.º),Aquisição de bens móveis,"33600000-6, Produtos farmacêuticos","Centro Hospitalar de Lisboa Central, E. P. E. (508080142)","ROCHE FARMACÊUTICA QUIMICA, LDA. (500233810)","81.572,40 €",10-01-2018,18-01-2017,0 dias,"Portugal, Lisboa, Lisboa",Artigo 259.º do Código dos Contratos Públicos,,,,,,1771819,CP 2015/6 - Acordo quadro para o fornecimento de Medicamentos do Foro Oncológico,FALSE
"Aquisição cuidados médicos na área de Neurorradiologia p/ o CHLC, EPE - mês de Dezembro de 2017",Ajuste Direto Regime Geral,Aquisição de serviços,"85121200-5, Serviços de medicina especializada","Centro Hospitalar de Lisboa Central, E. P. E. (508080142)",Mariana Gonçalves Dias Cardoso Diogo (235168351),"624,00 €",10-01-2018,19-12-2017,12 dias,"Portugal, Lisboa, Lisboa","Artigo 20.º, n.º 1, alínea a) do Código dos Contratos Públicos",,,,,,Não aplicável.,Não aplicável.,FALSE
Aquisição de serviços de Cuidados Médicos na Área de Neuropediatria para o CHLC-EPE-HDE FEV A DEZ.,Ajuste Direto Regime Geral,Aquisição de serviços,"85121200-5, Serviços de medicina especializada","Centro Hospitalar de Lisboa Central, E. P. E. (508080142)",Sofia Isabel Garção Nunes (205590683),"7.260,00 €",10-01-2018,27-02-2017,334 dias,"Portugal, Lisboa, Lisboa","Artigo 20.º, n.º 1, alínea a) do Código dos Contratos Públicos",,,,,,Não aplicável.,Não aplicável.,FALSE
Aquisição de Serviços de Cuidados Médicos da Especilidade Cardiologia,Ajuste Direto Regime Geral,Aquisição de serviços,"85121231-1, Serviços de cardiologia","Centro Hospitalar de Lisboa Central, E. P. E. (508080142)",Bruno Tavares Alberto Tereno Valente (211689750),"38.970,00 €",09-01-2018,22-02-2017,365 dias,"Portugal, Lisboa, Lisboa","Artigo 20.º, n.º 1, alínea a) do Código dos Contratos Públicos",,,,,,Não aplicável.,Não aplicável.,FALSE
"4-2.0096/18 - Aquisição de Circuito de Paciente e Linha Capnografo, Lotes não adjudicados 42006618",Ajuste Direto Regime Geral,Aquisição de bens móveis,"33140000-3, Material médico de consumo","Centro Hospitalar de Lisboa Central, E. P. E. (508080142)","INTERSURGICAL PORTUGAL, LDA (503480045)","5.973,10 €",09-01-2018,09-01-2018,358 dias,"Portugal, Lisboa, Lisboa","Artigo 20.º, n.º 1, alínea a) do Código dos Contratos Públicos",,,,,,Não aplicável.,Não aplicável.,FALSE
"4-2.0114/18 - Aquisição de Lâminas para Dermatomo, lote deserto no AD42000218",Ajuste Direto Regime Geral,Aquisição de bens móveis,"33140000-3, Material médico de consumo","Centro Hospitalar de Lisboa Central, E. P. E. (508080142)","B BRAUN MEDICAL, LDA. (501506543)","2.064,00 €",09-01-2018,09-01-2018,358 dias,"Portugal, Lisboa, Lisboa","Artigo 20.º, n.º 1, alínea a) do Código dos Contratos Públicos",,,,,,Não aplicável.,Não aplicável.,FALSE
"Aquisição de Serviços de Cuidados Médicos na Área de Oftalmologia, destinado ao CHLC, EPE-para 2017",Ajuste Direto Regime Geral,Aquisição de serviços,"85121281-6, Serviços de oftalmologia","Centro Hospitalar de Lisboa Central, E. P. E. (508080142)",Hernâni Manuel Assunção Monteiro (181148900),"3.000,00 €",09-01-2018,08-03-2017,365 dias,"Portugal, Lisboa, Lisboa","Artigo 20.º, n.º 1, alínea a) do Código dos Contratos Públicos",,,,,,Não aplicável.,Não aplicável.,FALSE
"Aquisição de Serviços Médicos na Área de Ortopedia Pediatrica para o CHLC, EPE- HDE",Ajuste Direto Regime Geral,Aquisição de serviços,"85121283-0, Serviços de ortopedia","Centro Hospitalar de Lisboa Central, E. P. E. (508080142)",Kelly Healthcare Resourses (510723691),"23.070,24 €",09-01-2018,08-02-2017,365 dias,"Portugal, Lisboa, Lisboa","Artigo 20.º, n.º 1, alínea a) do Código dos Contratos Públicos",,,,,,Não aplicável.,Não aplicável.,FALSE
Aquisição de Serviços de Cuidados Médicos na Área de Cardiologia Pediatrica durante o ano de 2017,Ajuste Direto Regime Geral,Aquisição de serviços,"85121231-1, Serviços de cardiologia","Centro Hospitalar de Lisboa Central, E. P. E. (508080142)","Maria & Manuel Ferreira - Serviços Médicos, Lda. (510637558)","9.872,40 €",09-01-2018,13-03-2017,365 dias,"Portugal, Lisboa, Lisboa","Artigo 20.º, n.º 1, alínea a) do Código dos Contratos Públicos",,,,,,Não aplicável.,Não aplicável.,FALSE
Aquisição de serviços de cuidados médicos na área de pediatria médica-HDE,Ajuste Direto Regime Geral,Aquisição de serviços,"85121291-9, Serviços de pediatria","Centro Hospitalar de Lisboa Central, E. P. E. (508080142)","David Lito, Lda. (510943519)","24.708,00 €",09-01-2018,30-01-2017,365 dias,"Portugal, Lisboa, Lisboa","Artigo 20.º, n.º 1, alínea a) do Código dos Contratos Públicos",,,,,,Não aplicável.,Não aplicável.,FALSE
"Aquisição Serviços de Cuidados Médicos Área de Ginecologia/ Obstetrícia - Urgência CHLC, EPE",Ajuste Direto Regime Geral,Aquisição de serviços,"85121210-8, Serviços de ginecologia ou obstetrícia","Centro Hospitalar de Lisboa Central, E. P. E. (508080142)",Rubina Raquel Menezes de Mendonça (212189867),"1.440,00 €",08-01-2018,07-12-2017,365 dias,"Portugal, Lisboa, Lisboa","Artigo 20.º, n.º 1, alínea a) do Código dos Contratos Públicos",,,,,,Não aplicável.,Não aplicável.,FALSE
Válvula Aórtica Auto-Expansível,Concurso público,Aquisição de bens móveis,"33140000-3, Material médico de consumo","Centro Hospitalar de Lisboa Central, E. P. E. (508080142)","Edwards Lifesciences (Portugal) Comercio  e Distribuição de Dispositivos Medicos, Lda (508014832)","76.000,00 €",08-01-2018,28-12-2017,3 dias,"Portugal, Lisboa, Lisboa","Artigo 20.º, n.º 1, alínea b) do Código dos Contratos Públicos",,,,,,Não aplicável.,Não aplicável.,FALSE
Aquisiçao de Sorafenib 200mg comp,Ao abrigo de acordo-quadro (art.º 259.º),Aquisição de bens móveis,"33600000-6, Produtos farmacêuticos","Centro Hospitalar de Lisboa Central, E.P.E. (CHLC) (508080142)","BAYER PORTUGAL, SA.                                (500043256)","43.114,51 €",04-01-2018,18-10-2017,0 dias,"Portugal, Lisboa, Lisboa",Artigo 259.º do Código dos Contratos Públicos,,,,,,1771819,CP 2015/6 - Acordo quadro para o fornecimento de Medicamentos do Foro Oncológico,FALSE
Aquisiçao de Tacrolimus 1 mg caps,Ao abrigo de acordo-quadro (art.º 259.º),Aquisição de bens móveis,"33600000-6, Produtos farmacêuticos","Centro Hospitalar de Lisboa Central, E.P.E. (CHLC) (508080142)",ASTELLAS FARMA (502540249),"26.400,00 €",04-01-2018,13-10-2017,0 dias,"Portugal, Lisboa, Lisboa",Artigo 259.º do Código dos Contratos Públicos,,,,,,1771819,CP 2015/6 - Acordo quadro para o fornecimento de Medicamentos do Foro Oncológico,FALSE
Aquisiçao Bairaterona 250mg comp,Ao abrigo de acordo-quadro (art.º 259.º),Aquisição de bens móveis,"33600000-6, Produtos farmacêuticos","Centro Hospitalar de Lisboa Central, E.P.E. (CHLC) (508080142)","JANSSEN CILAG FARMACEUTICA, LDA. (500189412)","104.129,28 €",04-01-2018,29-09-2017,0 dias,"Portugal, Lisboa, Lisboa",Artigo 259.º do Código dos Contratos Públicos,,,,,,1771819,CP 2015/6 - Acordo quadro para o fornecimento de Medicamentos do Foro Oncológico,FALSE
Aquisiçao de Sorafenib 200mg comp,Ao abrigo de acordo-quadro (art.º 259.º),Aquisição de bens móveis,"33600000-6, Produtos farmacêuticos","Centro Hospitalar de Lisboa Central, E.P.E. (CHLC) (508080142)","BAYER PORTUGAL, SA.                                (500043256)","27.716,47 €",04-01-2018,27-09-2017,0 dias,"Portugal, Lisboa, Lisboa",Artigo 259.º do Código dos Contratos Públicos,,,,,,1771819,CP 2015/6 - Acordo quadro para o fornecimento de Medicamentos do Foro Oncológico,FALSE
Aquisiçao de Rilpivirina 25 mg cop,Ao abrigo de acordo-quadro (art.º 259.º),Aquisição de bens móveis,"33600000-6, Produtos farmacêuticos","Centro Hospitalar de Lisboa Central, E.P.E. (CHLC) (508080142)","JANSSEN CILAG FARMACEUTICA, LDA. (500189412)","17.445,60 €",04-01-2018,23-11-2017,0 dias,"Portugal, Lisboa, Lisboa",Artigo 259.º do Código dos Contratos Públicos,,,,,,1120578,"CONCURSO PÚBLICO PARA A CELEBRAÇÃO DE CONTRATOS PÚBLICOS DE APROVISIONAMENTO PARA A ÁREA DA SAÚDE, COM VISTA AO FORNECIMENTO DE MEDICAMENTOS ANTI-RETROVIRAIS, ÀS INSTITUIÇÕES E SERVIÇOS DO SERVIÇO NACIONAL DE SAÚDE  ",FALSE
Aquisiçao de Teriflunamida 14 mg comp,Ao abrigo de acordo-quadro (art.º 259.º),Aquisição de bens móveis,"33600000-6, Produtos farmacêuticos","Centro Hospitalar de Lisboa Central, E.P.E. (CHLC) (508080142)","SANOFI- PRODUTOS FARMACÊUTICOS,LDA. (500134960)","48.210,75 €",04-01-2018,05-12-2017,0 dias,"Portugal, Lisboa, Lisboa",Artigo 259.º do Código dos Contratos Públicos,,,,,,1771819,CP 2015/6 - Acordo quadro para o fornecimento de Medicamentos do Foro Oncológico,FALSE
Aquisiçao de Aflibercept 40mg/ml sol inj ser 90ml intravitreo,Ao abrigo de acordo-quadro (art.º 259.º),Aquisição de bens móveis,"33600000-6, Produtos farmacêuticos","Centro Hospitalar de Lisboa Central, E.P.E. (CHLC) (508080142)","BAYER PORTUGAL, SA.                                (500043256)","17.913,60 €",04-01-2018,03-11-2017,0 dias,"Portugal, Lisboa, Lisboa",Artigo 259.º do Código dos Contratos Públicos,,,,,,1377420,Acordo quadro para fornecimento de medicamentos usados nas afecções oculares e otorrinolaringologias às instituições e serviços do serviço nacional de saúde,FALSE
Aquisiçao de Elvitegravir + Cabicistate+ Entricitabina +Tenefovir 150mg+150mg+200mg+245mg comp,Ao abrigo de acordo-quadro (art.º 259.º),Aquisição de bens móveis,"33600000-6, Produtos farmacêuticos","Centro Hospitalar de Lisboa Central, E. P. E. (508080142)",GILEAD SCIENCES (503604704),"26.587,44 €",04-01-2018,12-09-2017,0 dias,"Portugal, Lisboa, Lisboa",Artigo 259.º do Código dos Contratos Públicos,,,,,,1120578,"CONCURSO PÚBLICO PARA A CELEBRAÇÃO DE CONTRATOS PÚBLICOS DE APROVISIONAMENTO PARA A ÁREA DA SAÚDE, COM VISTA AO FORNECIMENTO DE MEDICAMENTOS ANTI-RETROVIRAIS, ÀS INSTITUIÇÕES E SERVIÇOS DO SERVIÇO NACIONAL DE SAÚDE  ",FALSE
Aquisiçao de Palivizumab 100mg / ml sol inj fr 1ml im,Ao abrigo de acordo-quadro (art.º 259.º),Aquisição de bens móveis,"33600000-6, Produtos farmacêuticos","Centro Hospitalar de Lisboa Central, E. P. E. (508080142)","ABBVIE,LDA (510229050)","153.738,00 €",04-01-2018,27-09-2017,0 dias,"Portugal, Lisboa, Lisboa",Artigo 259.º do Código dos Contratos Públicos,,,,,,1771819,CP 2015/6 - Acordo quadro para o fornecimento de Medicamentos do Foro Oncológico,FALSE
Placas para tíbia e pélvis,Ajuste Direto Regime Geral,Aquisição de bens móveis,"33000000-0, Equipamento médico, medicamentos e produtos para cuidados pessoais","Centro Hospitalar de Lisboa Central, E. P. E. (508080142)",STRYKER (504594214),"12.750,00 €",04-01-2018,15-12-2017,15 dias,"Portugal, Lisboa, Lisboa","Artigo 20.º, n.º 1, alínea a) do Código dos Contratos Públicos",,,,,,Não aplicável.,Não aplicável.,FALSE
"Aquisiçao de Palivizumab 100 mg / ml sol inj fr 0,5ml im",Ao abrigo de acordo-quadro (art.º 259.º),Aquisição de bens móveis,"33600000-6, Produtos farmacêuticos","Centro Hospitalar de Lisboa Central, E. P. E. (508080142)","ABBVIE,LDA (510229050)","2.491,02 €",04-01-2018,27-10-2017,0 dias,"Portugal, Lisboa, Lisboa",Artigo 259.º do Código dos Contratos Públicos,,,,,,1771819,CP 2015/6 - Acordo quadro para o fornecimento de Medicamentos do Foro Oncológico,FALSE
Material para artroscopia da anca,Ajuste Direto Regime Geral,Aquisição de bens móveis,"33000000-0, Equipamento médico, medicamentos e produtos para cuidados pessoais","Centro Hospitalar de Lisboa Central, E. P. E. (508080142)","SMITH & NEPHEW, LDA. (503552461)","9.199,20 €",04-01-2018,22-12-2017,1 dias,"Portugal, Lisboa, Lisboa","Artigo 20.º, n.º 1, alínea a) do Código dos Contratos Públicos",,,,,,Não aplicável.,Não aplicável.,FALSE
Placas e parafuso para fixação de costelas,Ajuste Direto Regime Geral,Aquisição de bens móveis,"33000000-0, Equipamento médico, medicamentos e produtos para cuidados pessoais","Centro Hospitalar de Lisboa Central, E. P. E. (508080142)",JOHNSON (500153370),"5.247,93 €",04-01-2018,28-12-2017,1 dias,"Portugal, Lisboa, Lisboa","Artigo 20.º, n.º 1, alínea a) do Código dos Contratos Públicos",,,,,,Não aplicável.,Não aplicável.,FALSE
Prótese tumoral do ombro,Ajuste Direto Regime Geral,Aquisição de bens móveis,"33000000-0, Equipamento médico, medicamentos e produtos para cuidados pessoais","Centro Hospitalar de Lisboa Central, E.P.E. (CHLC) (508080142)","Medical Value, SA (509776531)","5.959,00 €",04-01-2018,22-12-2017,1 dias,"Portugal, Lisboa, Lisboa","Artigo 20.º, n.º 1, alínea a) do Código dos Contratos Públicos",,,,,,Não aplicável.,Não aplicável.,FALSE
Próteses de revisão,Ajuste Direto Regime Geral,Aquisição de bens móveis,"33000000-0, Equipamento médico, medicamentos e produtos para cuidados pessoais","Centro Hospitalar de Lisboa Central, E.P.E. (CHLC) (508080142)","ZIMMER BIOMET PORT UNIP,LDA (EX-BIOMET POR UNIP LD (500254990)","17.545,00 €",04-01-2018,04-12-2017,27 dias,"Portugal, Lisboa, Lisboa","Artigo 24.º, n.º 1, alínea e) do Código dos Contratos Públicos",,,,,,Não aplicável.,Não aplicável.,FALSE
Aquisiçao de Micofenolato Do Mofetil 1000mg/5ml po susp oral fr 175 ml,Ao abrigo de acordo-quadro (art.º 259.º),Aquisição de bens móveis,"33600000-6, Produtos farmacêuticos","Centro Hospitalar de Lisboa Central, E. P. E. (508080142)","ROCHE FARMACÊUTICA QUIMICA, LDA. (500233810)","13.444,80 €",04-01-2018,27-10-2017,0 dias,"Portugal, Lisboa, Lisboa",Artigo 259.º do Código dos Contratos Públicos,,,,,,1771819,CP 2015/6 - Acordo quadro para o fornecimento de Medicamentos do Foro Oncológico,FALSE
Aquisiçao de Cespofungina 70mg pó conc sol inj fr iv,Ao abrigo de acordo-quadro (art.º 259.º),Aquisição de bens móveis,"33600000-6, Produtos farmacêuticos","Centro Hospitalar de Lisboa Central, E. P. E. (508080142)",Merck Sharp & Dohme (500191360),"4.492,80 €",04-01-2018,27-09-2017,0 dias,"Portugal, Lisboa, Lisboa",Artigo 259.º do Código dos Contratos Públicos,,,,,,1422736,CP 2015/41 - ACORDO QUADRO PARA FORNECIMENTO DE MEDICAMENTOS ANTI-INFECIOSOS: ANTIVÍRICOS E ANTIFÚNGICOS ÀS INSTITUIÇÕES E SERVIÇOS DO SERVIÇO NACIONAL DE SAÚDE,FALSE
"Aquisiçao de Busentano 62,5mg comp e Bosentano 125 mg comp",Ajuste Direto Regime Geral,Aquisição de bens móveis,"33600000-6, Produtos farmacêuticos","Centro Hospitalar de Lisboa Central, E.P.E. (CHLC) (508080142)",ACCORD HEALTHCARE UNIPESSOAL LDA (508622263),"10.140,48 €",04-01-2018,12-10-2017,0 dias,"Portugal, Lisboa, Lisboa","Artigo 24.º, n.º 1, alínea c) do Código dos Contratos Públicos",,,,,,Não aplicável.,Não aplicável.,FALSE
Aquisiçao de Ranibizumab 10 mg /ml,Ao abrigo de acordo-quadro (art.º 259.º),Aquisição de bens móveis,"33600000-6, Produtos farmacêuticos","Centro Hospitalar de Lisboa Central, E.P.E. (CHLC) (508080142)","NOVARTIS FARMA-PROD.FARMACÊUTICOS,SA.              (500063524)","64.976,00 €",04-01-2018,12-12-2017,0 dias,"Portugal, Lisboa, Lisboa",Artigo 259.º do Código dos Contratos Públicos,,,,,,1513257,Acordo quadro para fornecimento de Medicamentos diversos II   às Instituições e Serviços do Serviço Nacional de Saúde,FALSE
"Aquisiçao de Tocilizumab 162mg / 0,9 ml sol inj. ser 0,9ml sc",Ao abrigo de acordo-quadro (art.º 259.º),Aquisição de bens móveis,"33600000-6, Produtos farmacêuticos","Centro Hospitalar de Lisboa Central, E. P. E. (508080142)","ROCHE FARMACÊUTICA QUIMICA, LDA. (500233810)","19.891,00 €",04-01-2018,12-12-2017,0 dias,"Portugal, Lisboa, Lisboa",Artigo 259.º do Código dos Contratos Públicos,,,,,,1771819,CP 2015/6 - Acordo quadro para o fornecimento de Medicamentos do Foro Oncológico,FALSE
"Aquisiçao de Ranibizumab 10 mg /ml sol inj ser. 0,165ml",Ao abrigo de acordo-quadro (art.º 259.º),Aquisição de bens móveis,"33600000-6, Produtos farmacêuticos","Centro Hospitalar de Lisboa Central, E.P.E. (CHLC) (508080142)","NOVARTIS FARMA-PROD.FARMACÊUTICOS,SA.              (500063524)","64.976,00 €",03-01-2018,23-11-2017,0 dias,"Portugal, Lisboa, Lisboa",Artigo 259.º do Código dos Contratos Públicos,,,,,,1513257,Acordo quadro para fornecimento de Medicamentos diversos II   às Instituições e Serviços do Serviço Nacional de Saúde,FALSE
"Aquisiçao de Etanercept 25 mg /0,5 ml sol inj ser. 0,5ml sc",Ao abrigo de acordo-quadro (art.º 259.º),Aquisição de bens móveis,"33600000-6, Produtos farmacêuticos","Centro Hospitalar de Lisboa Central, E.P.E. (CHLC) (508080142)","PFIZER BIOFARMACEUTICA, SOCIEDADE UNIPESSOAL, LDA (513300376)","3.151,20 €",03-01-2018,06-12-2017,0 dias,"Portugal, Lisboa, Lisboa",Artigo 259.º do Código dos Contratos Públicos,,,,,,1771819,CP 2015/6 - Acordo quadro para o fornecimento de Medicamentos do Foro Oncológico,FALSE
Aquisiçao de Pobaconazol 100 mg comp gr,Ao abrigo de acordo-quadro (art.º 259.º),Aquisição de bens móveis,"33600000-6, Produtos farmacêuticos","Centro Hospitalar de Lisboa Central, E.P.E. (CHLC) (508080142)",MERCK SHARP DOHME (500191360),"2.557,83 €",03-01-2018,06-12-2017,0 dias,"Portugal, Lisboa, Lisboa",Artigo 259.º do Código dos Contratos Públicos,,,,,,1422736,CP 2015/41 - ACORDO QUADRO PARA FORNECIMENTO DE MEDICAMENTOS ANTI-INFECIOSOS: ANTIVÍRICOS E ANTIFÚNGICOS ÀS INSTITUIÇÕES E SERVIÇOS DO SERVIÇO NACIONAL DE SAÚDE,FALSE
"Aquisiçao de Naloxona 0,4 mg/1ml sol inj fr.1ml im iv sc",Ao abrigo de acordo-quadro (art.º 259.º),Aquisição de bens móveis,"33600000-6, Produtos farmacêuticos","Centro Hospitalar de Lisboa Central, E.P.E. (CHLC) (508080142)",HIKMA FARMACÊUTICA (PORTUGAL) SA. (502266791),"1.965,00 €",03-01-2018,06-12-2017,0 dias,"Portugal, Lisboa, Lisboa",Artigo 259.º do Código dos Contratos Públicos,,,,,,1338581,"Acordo quadro para fornecimento de Medicação antialérgica, medicamentos usados no tratamento de intoxicações, vitaminas e sais minerais e grupo 20.9 - outros produtos às instituições e serviços do serviço nacional de saúde",FALSE
Aquisiçao de Amoxicilina 200mg+Acido Clauvulanico 200mg po sol inj fr iv,Ao abrigo de acordo-quadro (art.º 259.º),Aquisição de bens móveis,"33600000-6, Produtos farmacêuticos","Centro Hospitalar de Lisboa Central, E. P. E. (508080142)","LABORATORIOS NORMON,SA (505654156)","9.900,00 €",03-01-2018,12-12-2017,0 dias,"Portugal, Lisboa, Lisboa",Artigo 259.º do Código dos Contratos Públicos,,,,,,1326195,ACORDO QUADRO PARA FORNECIMENTO DE MEDICAMENTOS ANTI-INFECIOSOS: EXCETO ANTIVÍRICOS E ANTIFÚNGICOS ÀS INSTITUIÇÕES E SERVIÇOS DO SERVIÇO NACIONAL DE SAÚDE,FALSE
Aquisiçao de Acido Micofenolico 180mg comp gr,Ao abrigo de acordo-quadro (art.º 259.º),Aquisição de bens móveis,"33600000-6, Produtos farmacêuticos","Centro Hospitalar de Lisboa Central, E. P. E. (508080142)","NOVARTIS FARMA-PROD.FARMACÊUTICOS,SA.              (500063524)","6.788,70 €",03-01-2018,20-09-2017,0 dias,"Portugal, Lisboa, Lisboa",Artigo 259.º do Código dos Contratos Públicos,,,,,,1771819,CP 2015/6 - Acordo quadro para o fornecimento de Medicamentos do Foro Oncológico,FALSE
lentes asféricas,Ajuste Direto Regime Geral,Aquisição de bens móveis,"33000000-0, Equipamento médico, medicamentos e produtos para cuidados pessoais","Centro Hospitalar de Lisboa Central, E. P. E. (508080142)",Alcon Portugal (501251685),"6.942,60 €",03-01-2018,20-12-2017,2 dias,"Portugal, Lisboa, Lisboa","Artigo 20.º, n.º 1, alínea a) do Código dos Contratos Públicos",,,,,,Não aplicável.,Não aplicável.,FALSE
Aquisiçao de Flucloxacilina 500mg caps,Ao abrigo de acordo-quadro (art.º 259.º),Aquisição de bens móveis,"33600000-6, Produtos farmacêuticos","Centro Hospitalar de Lisboa Central, E. P. E. (508080142)",DLA FARMACEUTICA SA (503894427),"206,06 €",03-01-2018,29-09-2017,0 dias,"Portugal, Lisboa, Lisboa",Artigo 259.º do Código dos Contratos Públicos,,,,,,1326195,ACORDO QUADRO PARA FORNECIMENTO DE MEDICAMENTOS ANTI-INFECIOSOS: EXCETO ANTIVÍRICOS E ANTIFÚNGICOS ÀS INSTITUIÇÕES E SERVIÇOS DO SERVIÇO NACIONAL DE SAÚDE,FALSE
Aquisiçao de Folinato de Calcio 15 mg caps,Ao abrigo de acordo-quadro (art.º 259.º),Aquisição de bens móveis,"33600000-6, Produtos farmacêuticos","Centro Hospitalar de Lisboa Central, E. P. E. (508080142)","Laboratórios Medinfar, SA (500384045)","660,00 €",03-01-2018,16-08-2017,0 dias,"Portugal, Lisboa, Lisboa",Artigo 259.º do Código dos Contratos Públicos,,,,,,1338581,"Acordo quadro para fornecimento de Medicação antialérgica, medicamentos usados no tratamento de intoxicações, vitaminas e sais minerais e grupo 20.9 - outros produtos às instituições e serviços do serviço nacional de saúde",FALSE
"stent, cateter e guia",Ajuste Direto Regime Geral,Aquisição de bens móveis,"33000000-0, Equipamento médico, medicamentos e produtos para cuidados pessoais","Centro Hospitalar de Lisboa Central, E. P. E. (508080142)",Terumo Europe Portugal (980472024),"7.476,20 €",03-01-2018,22-12-2017,5 dias,"Portugal, Lisboa, Lisboa","Artigo 20.º, n.º 1, alínea a) do Código dos Contratos Públicos",,,,,,Não aplicável.,Não aplicável.,FALSE
Aquisiçao de Azacitidina 100mg po susp inj,Ajuste Direto Regime Geral,Aquisição de bens móveis,"33600000-6, Produtos farmacêuticos","Centro Hospitalar de Lisboa Central, E. P. E. (508080142)",CELGENE - SOCIEDADE UNIPESSOAL LDA (507791690),"17.700,00 €",03-01-2018,12-12-2017,0 dias,"Portugal, Lisboa, Lisboa","Artigo 24.º, n.º 1, alínea e) do Código dos Contratos Públicos",,,,,,Não aplicável.,Não aplicável.,FALSE
"Placas de osteotomia pediátricas para anca, tíbia e fémur",Ajuste Direto Regime Geral,Aquisição de bens móveis,"33183000-6, Material de assistência ortopédica","Centro Hospitalar de Lisboa Central, E.P.E. (CHLC) (508080142)",JOHNSON & JOHNSON (500153370),"58.320,00 €",03-01-2018,27-12-2017,730 dias,"Portugal, Lisboa, Lisboa","Artigo 20.º, n.º 1, alínea a) do Código dos Contratos Públicos",,,,,,Não aplicável.,Não aplicável.,FALSE
"1-2.0062/17 - Fios de Aço, Seda e Outros",Concurso público,Aquisição de bens móveis,"33140000-3, Material médico de consumo","Centro Hospitalar de Lisboa Central, E. P. E. (508080142)","Antão Medical, Lda (507754468), ANASTACIO SALDANHA (505804441), JOHNSON & JOHNSON (500153370), MEDICINALIA CORMEDICA - COMER. PROD. MED. HOSP.,LD (500684324), B. BRAUN MEDICAL, LDA (501506543), SOCIME II - PRODUTOS MEDICOS, LDA (504453939), HR HOSPITALAR, UNIPESSOAL, LDA       (501895558)","48.515,40 €",03-01-2018,22-05-2017,243 dias,"Portugal, Lisboa, Lisboa","Artigo 20.º, n.º 1, alínea b) do Código dos Contratos Públicos",,,,,,Não aplicável.,Não aplicável.,FALSE
próteses hérnia,Ajuste Direto Regime Geral,Aquisição de bens móveis,"33000000-0, Equipamento médico, medicamentos e produtos para cuidados pessoais","Centro Hospitalar de Lisboa Central, E. P. E. (508080142)",Medtronic Portugal (504223933),"11.933,00 €",03-01-2018,27-12-2017,4 dias,"Portugal, Lisboa, Lisboa","Artigo 20.º, n.º 1, alínea a) do Código dos Contratos Públicos",,,,,,Não aplicável.,Não aplicável.,FALSE
"Desinstalação, transporte e instalação de Equipamentos Radiologia do HSJ para o HCC",Ajuste Direto Regime Geral,Aquisição de serviços,"50400000-9, Serviços de reparação e manutenção de equipamento médico e de precisão","Centro Hospitalar de Lisboa Central, E. P. E. (508080142)",Carestream Health Portugal Lda (508054320),"2.210,00 €",02-01-2018,21-12-2017,1 dias,"Portugal, Lisboa, Lisboa","Artigo 24.º, n.º 1, alínea c) do Código dos Contratos Públicos",,,,,,Não aplicável.,Não aplicável.,FALSE
Concurso Centralizado SPMS Aquisiçao de Saquinavir 500mg comp,Ajuste Direto Regime Geral,Aquisição de bens móveis,"33600000-6, Produtos farmacêuticos","Centro Hospitalar de Lisboa Central, E. P. E. (508080142)","ROCHE FARMACEUTICA QUIMICA, LDA (500233810)","45.720,00 €",02-01-2018,14-02-2017,0 dias,"Portugal, Lisboa, Lisboa","Artigo 24.º, n.º 1, alínea e) do Código dos Contratos Públicos",,,,,,Não aplicável.,Não aplicável.,FALSE
Prestação de Serviços de Revisão - Injetor Angiografia Bayer [Bloco Cirurgia Vascular - HSM],Ajuste Direto Regime Geral,Aquisição de serviços,"50400000-9, Serviços de reparação e manutenção de equipamento médico e de precisão","Centro Hospitalar de Lisboa Central, E. P. E. (508080142)","Bayer Portugal, Lda (500043256)","1.100,00 €",02-01-2018,19-12-2017,1 dias,"Portugal, Lisboa, Lisboa","Artigo 24.º, n.º 1, alínea e) do Código dos Contratos Públicos",,,,,,Não aplicável.,Não aplicável.,FALSE
Concurso Centralizado SPMS Aquisiçao de Evitegravir + Cobicistate+ Entricitabina+Tenefovir 150mg+150mg+200mg+245mg comp,Ajuste Direto Regime Geral,Aquisição de bens móveis,"33600000-6, Produtos farmacêuticos","Centro Hospitalar de Lisboa Central, E. P. E. (508080142)",GILEAD SCIENCES (503604704),"80.570,01 €",02-01-2018,10-10-2017,0 dias,"Portugal, Lisboa, Lisboa","Artigo 24.º, n.º 1, alínea e) do Código dos Contratos Públicos",,,,,,Não aplicável.,Não aplicável.,FALSE
Prestação de Serviço de Configuração de Equipamentos AGFA [Radiologia - HSM],Ajuste Direto Regime Geral,Aquisição de serviços,"50400000-9, Serviços de reparação e manutenção de equipamento médico e de precisão","Centro Hospitalar de Lisboa Central, E. P. E. (508080142)","Agfa Healtcare Equipamentos Portuga, Lda. (500011060)","1.000,00 €",02-01-2018,19-12-2017,1 dias,"Portugal, Lisboa, Lisboa","Artigo 24.º, n.º 1, alínea e) do Código dos Contratos Públicos",,,,,,Não aplicável.,Não aplicável.,FALSE
Concurso Centralizado SPMS Aquisiçao de Saquinavir 500mg comp,Ajuste Direto Regime Geral,Aquisição de bens móveis,"33600000-6, Produtos farmacêuticos","Centro Hospitalar de Lisboa Central, E. P. E. (508080142)","ROCHE FARMACEUTICA QUIMICA, LDA (500233810)","45.720,00 €",02-01-2018,02-06-2017,0 dias,"Portugal, Lisboa, Lisboa","Artigo 24.º, n.º 1, alínea e) do Código dos Contratos Públicos",,,,,,Não aplicável.,Não aplicável.,FALSE
Prestação de Serviço de Reparação de Sonda - Medicina 1.4 - HSJ,Ajuste Direto Regime Geral,Aquisição de serviços,"50400000-9, Serviços de reparação e manutenção de equipamento médico e de precisão","Centro Hospitalar de Lisboa Central, E. P. E. (508080142)","General Electric Portugal, Lda (500357129)","6.946,88 €",02-01-2018,19-12-2017,1 dias,"Portugal, Lisboa, Lisboa","Artigo 24.º, n.º 1, alínea e) do Código dos Contratos Públicos",,,,,,Não aplicável.,Não aplicável.,FALSE
Serviço de manutenção de Incubadora THERMO-HERAEUS - PMA - MAC,Ajuste Direto Regime Geral,Aquisição de serviços,"50400000-9, Serviços de reparação e manutenção de equipamento médico e de precisão","Centro Hospitalar de Lisboa Central, E. P. E. (508080142)","Certilab, Lda. (505403013)","249,80 €",02-01-2018,27-12-2017,1 dias,"Portugal, Lisboa, Lisboa","Artigo 24.º, n.º 1, alínea c) do Código dos Contratos Públicos",,,,,,Não aplicável.,Não aplicável.,FALSE
Prestação de Serviços de Assistencia Tecnica a Equipamentos SPACE - [Cardiologia UCI e Cardiologia Pediatrica - HSM],Ajuste Direto Regime Geral,Aquisição de serviços,"50400000-9, Serviços de reparação e manutenção de equipamento médico e de precisão","Centro Hospitalar de Lisboa Central, E. P. E. (508080142)","SPACE MEDICAL, LDA (507662407)","450,00 €",02-01-2018,27-12-2017,28 dias,"Portugal, Lisboa, Lisboa","Artigo 24.º, n.º 1, alínea e) do Código dos Contratos Públicos",,,,,,Não aplicável.,Não aplicável.,FALSE
Concurso Centralizado SPMS Aquisiçao de Plerixafor 20 mg /ml sol inj,Ajuste Direto Regime Geral,Aquisição de bens móveis,"33600000-6, Produtos farmacêuticos","Centro Hospitalar de Lisboa Central, E. P. E. (508080142)","SANOFI - PRODUTOS FARMACÊUTICOS, LDA. (500134960)","132.094,32 €",02-01-2018,26-05-2017,0 dias,"Portugal, Lisboa, Lisboa","Artigo 24.º, n.º 1, alínea e) do Código dos Contratos Públicos",,,,,,Não aplicável.,Não aplicável.,FALSE
"Concurso Centralizado SPMS Aquisiçao de Metotrexato 2,5 mg comp",Ao abrigo de acordo-quadro (art.º 259.º),Aquisição de bens móveis,"33600000-6, Produtos farmacêuticos","Centro Hospitalar de Lisboa Central, E. P. E. (508080142)","LABORATORIOS PFIZER, LDA (500162166)","846,80 €",02-01-2018,13-02-2017,0 dias,"Portugal, Lisboa, Lisboa",Artigo 259.º do Código dos Contratos Públicos,,,,,,1771819,CP 2015/6 - Acordo quadro para o fornecimento de Medicamentos do Foro Oncológico,FALSE
Concurso Centralizado SPMS Aquisiçao de Bossulfano 60mg / 10ml sol inj.,Ao abrigo de acordo-quadro (art.º 259.º),Aquisição de bens móveis,"33600000-6, Produtos farmacêuticos","Centro Hospitalar de Lisboa Central, E. P. E. (508080142)","FRESENIUS KABI PHARMA PORTUGAL, LDA (504293753)","1.504,90 €",02-01-2018,21-02-2017,0 dias,"Portugal, Lisboa, Lisboa",Artigo 259.º do Código dos Contratos Públicos,,,,,,1771819,CP 2015/6 - Acordo quadro para o fornecimento de Medicamentos do Foro Oncológico,FALSE
Aquisição de kits para administração Diálise Peritoneal,Ao abrigo de acordo-quadro (art.º 259.º),Aquisição de bens móveis,"33100000-1, Equipamento médico","Centro Hospitalar de Lisboa Central, E. P. E. (508080142)","FRESENIUS MEDICAL CARE, S.A.. (503070220)","628,80 €",02-01-2018,22-12-2017,9 dias,"Portugal, Lisboa, Lisboa","Artigo 20.º, n.º 1, alínea b) do Código dos Contratos Públicos",,,,,,1481309,CP 2015/35 - Acordo quadro para fornecimento de bens e prestação de serviços de Diálise Peritoneal às Instituições e Serviços do Serviço Nacional de Saúde,FALSE
"Concursos centralizados SPMS  Aquisiçao de Cetuximab, Interferao Beta 1A e Somatropina",Ao abrigo de acordo-quadro (art.º 259.º),Aquisição de bens móveis,"33600000-6, Produtos farmacêuticos","Centro Hospitalar de Lisboa Central, E. P. E. (508080142)","MERCK, SA (500650870)","1.780.262,57 €",02-01-2018,23-03-2017,0 dias,"Portugal, Lisboa, Lisboa",Artigo 259.º do Código dos Contratos Públicos,,,,,,1771819,CP 2015/6 - Acordo quadro para o fornecimento de Medicamentos do Foro Oncológico,FALSE
KIT P/ADMINISTRACAO SOLUCOES DE DIALISE PERITONEAL COMPATIVEL C/EQUIP.FRESENIUS,Ao abrigo de acordo-quadro (art.º 259.º),Aquisição de bens móveis,"33100000-1, Equipamento médico","Centro Hospitalar de Lisboa Central, E. P. E. (508080142)","BAXTER MEDICO - FARMACEUTICO, LDA (503347345)","600,00 €",02-01-2018,22-12-2017,9 dias,"Portugal, Lisboa, Lisboa","Artigo 20.º, n.º 1, alínea b) do Código dos Contratos Públicos",,,,,,1481309,CP 2015/35 - Acordo quadro para fornecimento de bens e prestação de serviços de Diálise Peritoneal às Instituições e Serviços do Serviço Nacional de Saúde,FALSE
Aquisição de contentores para o ano de 2017,Ao abrigo de acordo-quadro (art.º 259.º),Aquisição de bens móveis,"33100000-1, Equipamento médico","Centro Hospitalar de Lisboa Central, E. P. E. (508080142)",Clinifar (503281115),"3.464,24 €",02-01-2018,22-12-2017,9 dias,"Portugal, Lisboa, Lisboa","Artigo 20.º, n.º 1, alínea b) do Código dos Contratos Públicos",,,,,,1341769,"ACORDO QUADRO PARA FORNECIMENTO DE SERINGAS, AGULHAS E CONTENTORES ÀS INSTITUIÇÕES E SERVIÇOS DO SERVIÇO NACIONAL DE SAÚDE PROGRAMA DE CONCURSO",FALSE
Concursos Centralizados SPMS Aquisiçao de Secucinumab 150/1ml sol inj,Ajuste Direto Regime Geral,Aquisição de bens móveis,"33600000-6, Produtos farmacêuticos","Centro Hospitalar de Lisboa Central, E. P. E. (508080142)",Novartis (500223076),"130.876,20 €",02-01-2018,05-09-2017,0 dias,"Portugal, Lisboa, Lisboa","Artigo 24.º, n.º 1, alínea e) do Código dos Contratos Públicos",,,,,,Não aplicável.,Não aplicável.,FALSE
Concurso Centralizado SPMS Aquisiçao Bendamustina 25 mg /10 ml e Bendamustina e Irinotecano100mg /5 ml,Ao abrigo de acordo-quadro (art.º 259.º),Aquisição de bens móveis,"33600000-6, Produtos farmacêuticos","Centro Hospitalar de Lisboa Central, E. P. E. (508080142)","Medac (980369959), AUROVITAS UNIPESSOAL, LDA. (513053239)","6.237,00 €",02-01-2018,22-11-2017,0 dias,"Portugal, Lisboa, Lisboa",Artigo 259.º do Código dos Contratos Públicos,,,,,,1771819,CP 2015/6 - Acordo quadro para o fornecimento de Medicamentos do Foro Oncológico,FALSE
"Concurso Centralizado SPMS Aquisiçao de Fampridina, Interferao Beta 1A, Natalizumab e Peginterferao Beta 1A",Ao abrigo de acordo-quadro (art.º 259.º),Aquisição de bens móveis,"33600000-6, Produtos farmacêuticos","Centro Hospitalar de Lisboa Central, E. P. E. (508080142)","BIOGEN IDEC PORTUGAL-SOC.FARM.UNIP., LDA (506415740)","1.649.802,69 €",02-01-2018,13-02-2017,0 dias,"Portugal, Lisboa, Lisboa",Artigo 259.º do Código dos Contratos Públicos,,,,,,1771819,CP 2015/6 - Acordo quadro para o fornecimento de Medicamentos do Foro Oncológico,FALSE
Concurso centralizado SPMS Aquisiçao de Elvitegravir + Cobicistate + Entricitabina+ Tenefovir 150mg+150mg+200mg+245mg comp,Ajuste Direto Regime Geral,Aquisição de bens móveis,"33600000-6, Produtos farmacêuticos","Centro Hospitalar de Lisboa Central, E. P. E. (508080142)","GILEAD SCIENCES, LDA. (503604704)","33.033,70 €",02-01-2018,29-05-2017,0 dias,"Portugal, Lisboa, Lisboa","Artigo 24.º, n.º 1, alínea e) do Código dos Contratos Públicos",,,,,,Não aplicável.,Não aplicável.,FALSE
MEGESTROL,Ao abrigo de acordo-quadro (art.º 259.º),Aquisição de bens móveis,"33000000-0, Equipamento médico, medicamentos e produtos para cuidados pessoais","Centro Hospitalar de Lisboa Central, E. P. E. (508080142)","PROFARIN-DIST.PROD.FARMACEUTICOS, LDA (500223238)","460,00 €",02-01-2018,13-12-2017,32 dias,"Portugal, Lisboa, Lisboa",Artigo 259.º do Código dos Contratos Públicos,,,,,,2545980,CP 2017/61 - Acordo quadro para fornecimento de Medicamentos Diversos   às Instituições e Serviços do Serviço Nacional de Saúde,FALSE
ABACAVIR,Ao abrigo de acordo-quadro (art.º 259.º),Aquisição de bens móveis,"33000000-0, Equipamento médico, medicamentos e produtos para cuidados pessoais","Centro Hospitalar de Lisboa Central, E. P. E. (508080142)","VIIVHIV HEALTHCARE UNIPESSOAL, LDA (509117961)","1.640,10 €",02-01-2018,13-12-2017,32 dias,"Portugal, Lisboa, Lisboa",Artigo 259.º do Código dos Contratos Públicos,,,,,,2183729,Medicamentos antirretrovíricos para o tratamento da infeção por VIH,FALSE
CEFTRIAXONA,Ao abrigo de acordo-quadro (art.º 259.º),Aquisição de bens móveis,"33000000-0, Equipamento médico, medicamentos e produtos para cuidados pessoais","Centro Hospitalar de Lisboa Central, E. P. E. (508080142)",HIKMA FARMACÊUTICA (PORTUGAL) SA. (502266791),"1.980,00 €",02-01-2018,28-12-2017,4 dias,"Portugal, Lisboa, Lisboa",Artigo 259.º do Código dos Contratos Públicos,,,,,,1326195,ACORDO QUADRO PARA FORNECIMENTO DE MEDICAMENTOS ANTI-INFECIOSOS: EXCETO ANTIVÍRICOS E ANTIFÚNGICOS ÀS INSTITUIÇÕES E SERVIÇOS DO SERVIÇO NACIONAL DE SAÚDE,FALSE
Concurso Centralizado SPMS Aquisiçao de Bexaroteno 75mg cap,Ajuste Direto Regime Geral,Aquisição de bens móveis,"33600000-6, Produtos farmacêuticos","Centro Hospitalar de Lisboa Central, E. P. E. (508080142)",EISAI FARMACEUTICA UNIPESSOAL LDA. (507847660),"32.722,20 €",02-01-2018,22-02-2017,0 dias,"Portugal, Lisboa, Lisboa","Artigo 24.º, n.º 1, alínea e) do Código dos Contratos Públicos",,,,,,Não aplicável.,Não aplicável.,FALSE
Concurso Centralizado  SPMS  Aquisiçao de Infliximab 100mg po inj (biossimilar) Remsima,Ao abrigo de acordo-quadro (art.º 259.º),Aquisição de bens móveis,"33600000-6, Produtos farmacêuticos","Centro Hospitalar de Lisboa Central, E. P. E. (508080142)","PHARMAKERN PORTUGAL, LDA. (507002571)","135.445,20 €",02-01-2018,02-05-2017,0 dias,"Portugal, Lisboa, Lisboa",Artigo 259.º do Código dos Contratos Públicos,,,,,,1771819,CP 2015/6 - Acordo quadro para o fornecimento de Medicamentos do Foro Oncológico,FALSE
" Concurso Centralizado SPMS Aquisiçao de Enoxaparina Sodica 20 mg /0,2ml 40mg/0,4ml 60mg/0,6ml 80mg/ml 100mg/1ml Nilutamida 150mg comp e Teriflunaida 14mg comp",Ao abrigo de acordo-quadro (art.º 259.º),Aquisição de bens móveis,"33600000-6, Produtos farmacêuticos","Centro Hospitalar de Lisboa Central, E. P. E. (508080142)","SANOFI - PRODUTOS FARMACÊUTICOS, LDA. (500134960)","770.385,18 €",02-01-2018,05-05-2017,0 dias,"Portugal, Lisboa, Lisboa",Artigo 259.º do Código dos Contratos Públicos,,,,,,1771819,CP 2015/6 - Acordo quadro para o fornecimento de Medicamentos do Foro Oncológico,FALSE
" Concurso Centralizado SPMS  Aquisiçao de Fulvestrant 250 mg / 5 ml  sol inj. Goserrelina 10,8 mg amp ser.",Ao abrigo de acordo-quadro (art.º 259.º),Aquisição de bens móveis,"33600000-6, Produtos farmacêuticos","Centro Hospitalar de Lisboa Central, E. P. E. (508080142)","ASTRAZENECA-PRODUTOS FARMACEUTICOS,LDA (502942240)","308.402,50 €",02-01-2018,04-05-2017,0 dias,"Portugal, Lisboa, Lisboa",Artigo 259.º do Código dos Contratos Públicos,,,,,,1771819,CP 2015/6 - Acordo quadro para o fornecimento de Medicamentos do Foro Oncológico,FALSE
Concurso Centralizado SPMS Aquisiçao  varios Medicamentoa ROCHE,Ao abrigo de acordo-quadro (art.º 259.º),Aquisição de bens móveis,"33600000-6, Produtos farmacêuticos","Centro Hospitalar de Lisboa Central, E. P. E. (508080142)","ROCHE FARMACEUTICA QUIMICA, LDA (500233810)","2.454.433,01 €",02-01-2018,26-05-2017,0 dias,"Portugal, Lisboa, Lisboa",Artigo 259.º do Código dos Contratos Públicos,,,,,,1771819,CP 2015/6 - Acordo quadro para o fornecimento de Medicamentos do Foro Oncológico,FALSE
"Concurso Centralizado SPMS Aquisiçao de Iloprost 0,05 mg /0,5 ml sol inj.",Ao abrigo de acordo-quadro (art.º 259.º),Aquisição de bens móveis,"33600000-6, Produtos farmacêuticos","Centro Hospitalar de Lisboa Central, E. P. E. (508080142)","Bayer Portugal, Lda (500043256)","10.438,96 €",02-01-2018,02-05-2017,0 dias,"Portugal, Lisboa, Lisboa",Artigo 259.º do Código dos Contratos Públicos,,,,,,1210107,"CONCURSO PÚBLICO PARA A CELEBRAÇÃO DE CONTRATOS PÚBLICOS DE APROVISIONAMENTO PARA A ÁREA DA SAÚDE, COM VISTA AO FORNECIMENTO DE MEDICAMENTOS DO GRUPO 4: SANGUE, ÀS INSTITUIÇÕES E SERVIÇOS DO SERVIÇO NACIONAL DE SAÚDE",FALSE
