Objeto do Contrato,Tipo de Procedimento,Tipo(s) de Contrato,CPVs,Entidade(s) Adjudicante(s),Entidade(s) Adjudicatária(s),Preço Contratual,Data de Publicação,Data de Celebração do Contrato,Prazo de Execução,Local de Execução,Fundamentação,Data de Fecho do Contrato,Preço Total Efetivo,Causas das Alterações ao Prazo,Causas das Alterações ao Preço,Estado,N.º registo do Acordo Quadro,Descrição do Acordo Quadro,Procedimento Centralizado
Contrato de Prestação de serviços de oftalmologia,Ajuste Direto Regime Geral,Aquisição de serviços,"85121281-6, Serviços de oftalmologia","Centro Hospitalar do Tâmega e Sousa, EPE (508318262)",Clinica de Oftalmologia do Porto (503246867),"92.994,43 €",27-09-2012,27-09-2012,30 dias,"Portugal, Porto, Penafiel","Artigo 24.º, n.º 1, alínea c) do Código dos Contratos Públicos",11-09-2013,"92.994,43 €",,,,Não aplicável.,Não aplicável.,
Contrato de Prestação de Serviços de Oftalmologia,Ajuste Direto Regime Geral,Aquisição de serviços,"85121281-6, Serviços de oftalmologia","Centro Hospitalar do Tâmega e Sousa, EPE (508318262)",Clinica de Oftalmologia do Porto (503246867),"100.680,90 €",27-09-2012,27-09-2012,31 dias,"Portugal, Porto, Penafiel","Artigo 24.º, n.º 1, alínea c) do Código dos Contratos Públicos",27-09-2012,"100.680,90 €",,,,Não aplicável.,Não aplicável.,
Contrato de Prestação de serviços de manutenção de equipamentos de eletromedicina,Ajuste Direto Regime Geral,Aquisição de serviços,"50000000-5, Serviços de reparação e manutenção","Centro Hospitalar do Tâmega e Sousa, EPE (508318262)","STB - Serv. Tel. Biomedicos, Lda (506989020)","58.506,75 €",27-09-2012,27-09-2012,92 dias,"Portugal, Porto, Penafiel","Artigo 20.º, n.º 1, alínea a) do Código dos Contratos Públicos",31-12-2012,"58.506,75 €",,,,Não aplicável.,Não aplicável.,
