Objeto do Contrato,Tipo de Procedimento,Tipo(s) de Contrato,CPVs,Entidade(s) Adjudicante(s),Entidade(s) Adjudicatária(s),Preço Contratual,Data de Publicação,Data de Celebração do Contrato,Prazo de Execução,Local de Execução,Fundamentação,Data de Fecho do Contrato,Preço Total Efetivo,Causas das Alterações ao Prazo,Causas das Alterações ao Preço,Estado,N.º registo do Acordo Quadro,Descrição do Acordo Quadro,Procedimento Centralizado
Aquisição de 1 unidade Kit reagentes de agitação TOC,Ajuste Direto Regime Geral,Aquisição de bens móveis,"33694000-1, Meios de diagnóstico","Administração Regional de Saúde do Norte, I. P. (503135593)",HACH LANGE (507155165),"271,00 €",30-01-2015,28-02-2014,365 dias,"Portugal, Vila Real, Vila Real","Artigo 20.º, n.º 1, alínea a) do Código dos Contratos Públicos",13-03-2014,"271,00 €",,"",,Não aplicável.,Não aplicável.,FALSE
Aquisição de 100 sondas de aspiração Tipo Yankauer,Ajuste Direto Regime Geral,Aquisição de bens móveis,"33140000-3, Material médico de consumo","Administração Regional de Saúde do Norte, I. P. (503135593)",COVIDIEN PORTUGAL (503413410),"35,00 €",30-01-2015,22-10-2014,365 dias,"Portugal, Vila Real, Vila Real","Artigo 20.º, n.º 1, alínea a) do Código dos Contratos Públicos",17-11-2014,"35,00 €",,"",,Não aplicável.,Não aplicável.,FALSE
"Aquisição de 900 UnidadesDeterg lavag, desinf superf  e DM não emergíveis 750 ml",Ajuste Direto Regime Geral,Aquisição de bens móveis,"33140000-3, Material médico de consumo","Administração Regional de Saúde do Norte, I. P. (503135593)",Air Liquide Medicinal S.A. (501576436),"3.510,00 €",30-01-2015,10-11-2014,365 dias,"Portugal, Vila Real, Vila Real","Artigo 24.º, n.º 1, alínea e) do Código dos Contratos Públicos",12-11-2014,"3.510,00 €",,"",,Não aplicável.,Não aplicável.,FALSE
A.P. 1950 - AQUISIÇÃO DE 90 EMBALAGENS DE GEL TENSIOACTIVO COM INIBIDORES DA CORROSÃO,Ajuste Direto Regime Geral,Aquisição de bens móveis,"39831200-8, Detergentes","Administração Regional de Saúde do Norte, I. P. (503135593)",DIMORASEPT-Higiene   (510258786),"1.665,00 €",30-01-2015,24-10-2014,365 dias,"Portugal, Vila Real, Vila Real","Artigo 20.º, n.º 1, alínea a) do Código dos Contratos Públicos",06-11-2014,"1.665,00 €",,"",,Não aplicável.,Não aplicável.,FALSE
"A.P.1950 - AQUISIÇÃO DE  140 LITROS DE  DETERGENTE ALCALINO LIQUIDO, 300 LITROS DE  AMACIADOR À BASE DE ÁGUA, 50 KG DE DETERGENTE ALCALINO PÓ E 40 EMBALAGENS DE LUBRIFICANTE Á BASE DE ÓLEO DE PARAFINA",Ajuste Direto Regime Geral,Aquisição de bens móveis,"39831200-8, Detergentes","Administração Regional de Saúde do Norte, I. P. (503135593)","TOXITEL - COMERCIO DE QUIMICOS, LDA (507121414)","1.651,50 €",30-01-2015,20-10-2014,365 dias,"Portugal, Vila Real, Vila Real","Artigo 20.º, n.º 1, alínea a) do Código dos Contratos Públicos",07-11-2014,"1.651,50 €",,"",,Não aplicável.,Não aplicável.,FALSE
"A.P. 2259 -  Aquisição de 600 folhas de ETIQUETAS AUTO-COLANTE 63,5X38,1 (SIMA)",Ajuste Direto Regime Geral,Aquisição de bens móveis,"30190000-7, Equipamento e material de escritório diverso","Administração Regional de Saúde do Norte, I. P. (503135593)","BRIGOFFICE PAPELARIA, LDA (507292820)","42,17 €",29-01-2015,28-10-2014,365 dias,"Portugal, Vila Real, Vila Real","Artigo 20.º, n.º 1, alínea a) do Código dos Contratos Públicos",06-11-2014,"42,17 €",,"",,Não aplicável.,Não aplicável.,FALSE
"Aquisição de 12.000 unidades de BOLSA PARA CD EM PAPEL, 50 caixas de AGRAFES 23/10 (CX 1000), 200 unidades de TINTA PRETA PARA CARIMBO BROTHER COLOP, 330 carteiras de ETIQUETAS AUTO-COLANTES 25X50mm, 1.300 unidades de PILHAS ALCALINAS 9V (LR61), 200 unidades de PILHAS ALCALINAS (CR2032), 60 unidades de PILHAS ALCALINAS (SR41SW), 10 unidades de FITA DYMO POCKET 1000 (9mmX7mt), 5 unidades de FITA DYMO LETRA TAG (12mmX4mt), 20 resmas de PAPEL CONQUEROR e 14.000 unidades de CD PRINTABLE",Ajuste Direto Regime Geral,Aquisição de bens móveis,"30190000-7, Equipamento e material de escritório diverso","Administração Regional de Saúde do Norte, I. P. (503135593)",LUIRAMA-COM EQUIPA ESCRITORIO AFINS LDA (502762381),"8.247,50 €",29-01-2015,24-10-2014,365 dias,"Portugal, Vila Real, Vila Real","Artigo 20.º, n.º 1, alínea a) do Código dos Contratos Públicos",13-11-2014,"8.247,50 €",,"",,Não aplicável.,Não aplicável.,FALSE
Aquisição de 25 unidades de ALMOFADA DE TINTA P/ MAQUINA CONTACT 20.16,Ajuste Direto Regime Geral,Aquisição de bens móveis,"30190000-7, Equipamento e material de escritório diverso","Administração Regional de Saúde do Norte, I. P. (503135593)","Brazembal - Comércio e Industria de Embalagens, Lda (500969663)","96,50 €",29-01-2015,27-10-2014,365 dias,"Portugal, Vila Real, Vila Real","Artigo 20.º, n.º 1, alínea a) do Código dos Contratos Públicos",05-11-2014,"96,50 €",,"",,Não aplicável.,Não aplicável.,FALSE
Aquisição 30 unidades Garrote C/Blocagem Automática,Ajuste Direto Regime Geral,Aquisição de bens móveis,"33140000-3, Material médico de consumo","Administração Regional de Saúde do Norte, I. P. (503135593)",Epjmedica - Artigos médicos e Hospitalares (506820513),"133,20 €",29-01-2015,24-11-2014,365 dias,"Portugal, Vila Real, Vila Real","Artigo 20.º, n.º 1, alínea a) do Código dos Contratos Públicos",02-12-2014,"133,20 €",,"",,Não aplicável.,Não aplicável.,FALSE
Aquisição de 6 unidades de Mala térmica de 25 Lts (aprox.),Ajuste Direto Regime Geral,Aquisição de bens móveis,"37414700-0, Refrigeradores de bebidas","Administração Regional de Saúde do Norte, I. P. (503135593)",A.DE OLIVEIRA COSTA- OLIVA (123964849),"365,85 €",29-01-2015,30-10-2014,365 dias,"Portugal, Vila Real, Vila Real","Artigo 20.º, n.º 1, alínea a) do Código dos Contratos Públicos",15-11-2014,"365,85 €",,"",,Não aplicável.,Não aplicável.,FALSE
" Aquisição de3.000 Copo p/ Nebulizador System, 500 Filtro Bacteriológico p/nebulizador Suchatzki",Ajuste Direto Regime Geral,Aquisição de bens móveis,"33140000-3, Material médico de consumo","Administração Regional de Saúde do Norte, I. P. (503135593)","Feiramedica, Imp. Com. Equip. Hosp., Lda (503731900)","13.050,00 €",29-01-2015,04-12-2014,365 dias,"Portugal, Vila Real, Vila Real","Artigo 20.º, n.º 1, alínea a) do Código dos Contratos Públicos",29-12-2014,"13.050,00 €",,"",,Não aplicável.,Não aplicável.,FALSE
Aquisição de 132 unidades de Termoacumuladores rígidos de frio - M10,Ajuste Direto Regime Geral,Aquisição de bens móveis,"37414700-0, Refrigeradores de bebidas","Administração Regional de Saúde do Norte, I. P. (503135593)","ADVANCED PRODUCTS, LDA (501503510)","95,04 €",29-01-2015,05-11-2014,365 dias,"Portugal, Vila Real, Vila Real","Artigo 20.º, n.º 1, alínea a) do Código dos Contratos Públicos",11-12-2014,"95,04 €",,"",,Não aplicável.,Não aplicável.,FALSE
Aquisição 450 unidades Capa Folder (Excl. ARS NORTE) e 2.000 unidades de MOD. 1280 - FICHA HISTÓRIA CLINICA,Ajuste Direto Regime Geral,Aquisição de bens móveis,"22000000-0, Material impresso e afins","Administração Regional de Saúde do Norte, I. P. (503135593)",PAPELMUNDE SOC MAT GRAFICO LD  (501555315),"632,50 €",29-01-2015,28-11-2014,365 dias,"Portugal, Vila Real, Vila Real","Artigo 20.º, n.º 1, alínea a) do Código dos Contratos Públicos",23-12-2014,"632,50 €",,"",,Não aplicável.,Não aplicável.,FALSE
Aquisição de 2.800 unidades de MOD. 2720 - ENV. PROCESSO CLINICO,Ajuste Direto Regime Geral,Aquisição de bens móveis,"22000000-0, Material impresso e afins","Administração Regional de Saúde do Norte, I. P. (503135593)",BITMAR- CONSULTORIA E FORMAÇÃO INFORMÁTICA LDA           (502416815),"476,00 €",29-01-2015,28-11-2014,365 dias,"Portugal, Vila Real, Vila Real","Artigo 20.º, n.º 1, alínea a) do Código dos Contratos Públicos",15-12-2014,"476,00 €",,"",,Não aplicável.,Não aplicável.,FALSE
"Aquisição de 16.000 unidades de PASTA FICHEIRO 3 POS.30X20, 1.500 unidades de MOD. 6095 - Envelope Saco 28x12cm e 17.000 unidades de Oficio A5",Ajuste Direto Regime Geral,Aquisição de bens móveis,"22000000-0, Material impresso e afins","Administração Regional de Saúde do Norte, I. P. (503135593)",GRAFICA PROGRESSO - ARTES GRAFICAS  (500962375),"9.205,01 €",29-01-2015,26-11-2014,365 dias,"Portugal, Vila Real, Vila Real","Artigo 20.º, n.º 1, alínea a) do Código dos Contratos Públicos",30-12-2014,"9.205,01 €",,"",,Não aplicável.,Não aplicável.,FALSE
Aquisição de 400 ampolas de Quanti-tray (colilert) e 400 ampolas de Ampola Colilert 18 teste kit,Ajuste Direto Regime Geral,Aquisição de bens móveis,"33600000-6, Produtos farmacêuticos","Administração Regional de Saúde do Norte, I. P. (503135593)","IBERLAB & IMUNOREAGE - SOLUÇÕES PARA  LABORATÓRIO, LDA   (503406694)","2.756,00 €",29-01-2015,14-11-2014,365 dias,"Portugal, Vila Real, Vila Real","Artigo 24.º, n.º 1, alínea e) do Código dos Contratos Públicos",27-11-2014,"2.756,00 €",,"",,Não aplicável.,Não aplicável.,FALSE
Aquisição de suporte para arquivo para a area do pessoal,Ajuste Direto Regime Geral,Aquisição de bens móveis,"30192000-1, Material de escritório","Administração Regional de Saúde do Norte, I. P. (503135593)",Aral técnica (503221406),"6.600,00 €",28-01-2015,19-01-2015,20 dias,"Portugal, Porto, Porto","Artigo 20.º, n.º 1, alínea a) do Código dos Contratos Públicos",19-01-2015,"6.600,00 €",,"",,Não aplicável.,Não aplicável.,FALSE
"Serviços de Manutenção infraestruturas de servidores SINUS,SAM e SAPE",Ajuste Direto Regime Geral,Aquisição de serviços,"72260000-5, Serviços relacionados com software","Administração Regional de Saúde do Norte,IP (ARSN) (503135593)","ORAMIX - Sistemas de Informação, S.A. (504448382)","74.890,00 €",27-01-2015,04-12-2014,360 dias,"Portugal, Porto, Porto","Artigo 20.º, n.º 1, alínea a) do Código dos Contratos Públicos",16-12-2014,"74.890,00 €",,"",,Não aplicável.,Não aplicável.,FALSE
Aquisição de Serviços de Vigilância e Segurança Humana ACES Baixo Tâmega e Vale do Sousa Sul,Ajuste Direto Regime Geral,Aquisição de serviços,"79710000-4, Serviços de segurança","Administração Regional de Saúde do Norte,IP (ARSN) (503135593)","Charon - Prestação de Serviços de Segurança e Vigilância, S.A.  (501718540)","274.823,88 €",26-01-2015,01-07-2014,184 dias,"Portugal, Porto, Paredes<BR/>Portugal, Porto, Amarante","Artigo 24.º, n.º 1, alínea c) do Código dos Contratos Públicos",31-12-2014,"274.823,88 €",,"",,Não aplicável.,Não aplicável.,FALSE
Aquisição de Serviços de Vigilância e Segurança Humana ACES Espinho/Gaia,Ajuste Direto Regime Geral,Aquisição de serviços,"79710000-4, Serviços de segurança","Administração Regional de Saúde do Norte,IP (ARSN) (503135593)","Strong Segurança, S.A. (503257567)","155.968,74 €",26-01-2015,01-07-2014,184 dias,"Portugal, Porto, Vila Nova de Gaia","Artigo 24.º, n.º 1, alínea c) do Código dos Contratos Públicos",31-12-2014,"155.968,74 €",,"",,Não aplicável.,Não aplicável.,FALSE
"Aquisição de Serviços de Vigilância e Segurança Humana 9 ACES Barcelos/Esposende, Braga, Douro Sul, Famalicão, Gerês/Cabreira, Gondomar, Guimarães/Vizela, Porto Ocidental e Porto Oriental",Ajuste Direto Regime Geral,Aquisição de serviços,"79710000-4, Serviços de segurança","Administração Regional de Saúde do Norte,IP (ARSN) (503135593)","Prestibel - Empresa de Segurança, S.A. (501326456)","649.975,86 €",26-01-2015,01-07-2014,184 dias,"Portugal, Porto, Porto<BR/>Portugal, Vila Real, Vila Real<BR/>Portugal, Braga, Braga","Artigo 24.º, n.º 1, alínea c) do Código dos Contratos Públicos",31-12-2014,"649.975,86 €",,"",,Não aplicável.,Não aplicável.,FALSE
"Aquisição de Serviços de Vigilância e Segurança Humana  ACES Alto Tâmega e Barroso, Gaia e Vale do Sousa Norte",Ajuste Direto Regime Geral,Aquisição de serviços,"79710000-4, Serviços de segurança","Administração Regional de Saúde do Norte,IP (ARSN) (503135593)","Grupo 8 - Vigilância e Prevenção Eletrónica, Unipessoal (500131210)","188.357,16 €",26-01-2015,01-07-2014,184 dias,"Portugal, Porto, Felgueiras<BR/>Portugal, Porto, Vila Nova de Gaia<BR/>Portugal, Vila Real, Montalegre","Artigo 20.º, n.º 1, alínea a) do Código dos Contratos Públicos",31-12-2014,"188.357,16 €",,"",,Não aplicável.,Não aplicável.,FALSE
"Aquisição de Serviços de Vigilância e Segurança Humana  ACES Maia, Valongo, Aveiro Norte, Póvoa de Varzim/Vila do Conde, Serviços Centrais, ACES S. Tirso/ Trofa.",Ajuste Direto Regime Geral,Aquisição de serviços,"79710000-4, Serviços de segurança","Administração Regional de Saúde do Norte,IP (ARSN) (503135593)","Securitas - Serviços e Tecnologia de Segurança, S.A. (500243719)","485.682,78 €",23-01-2015,01-07-2014,184 dias,"Portugal, Aveiro, São João da Madeira<BR/>Portugal, Porto<BR/>Portugal, Vila Real, Vila Real","Artigo 20.º, n.º 1, alínea a) do Código dos Contratos Públicos",31-12-2014,"485.682,78 €",,"",,Não aplicável.,Não aplicável.,FALSE
Aquisição de Serviços combinados de Segurança e Vigilância Humana e de ligação a Central de receção e de monitorização de Alarmes - Unidades DICAD,Ajuste Direto Regime Geral,Aquisição de serviços,"79710000-4, Serviços de segurança","Administração Regional de Saúde do Norte,IP (ARSN) (503135593)","Prestibel - Empresa de Segurança, S.A. (501326456)","163.225,46 €",23-01-2015,01-07-2014,184 dias,"Portugal, Vila Real<BR/>Portugal, Porto<BR/>Portugal, Braganca<BR/>Portugal, Braga","Artigo 20.º, n.º 1, alínea a) do Código dos Contratos Públicos",31-12-2014,"163.225,46 €",,"",,Não aplicável.,Não aplicável.,FALSE
Aquisição de 20 unidades de Etomidato 2mg/ml emul Inj. Fr.10 ml IV,Ajuste Direto Regime Geral,Aquisição de bens móveis,"33600000-6, Produtos farmacêuticos","Administração Regional de Saúde do Norte, I. P. (503135593)","B Braun Medical, lda (501506543)","35,36 €",23-01-2015,21-08-2014,129 dias,"Portugal, Porto, Maia<BR/>Portugal, Vila Real, Vila Real<BR/>Portugal, Distrito não determinado, Concelho não determinado","Artigo 20.º, n.º 1, alínea a) do Código dos Contratos Públicos",25-09-2014,"35,36 €",,"",,Não aplicável.,Não aplicável.,FALSE
"Aquisição de serviços de seguros para toda a frota da ARS Norte, I.P.. Processo nº14000302 ",Ajuste Direto Regime Geral,Aquisição de serviços,"66516100-1, Serviços de seguros de responsabilidade civil para automóveis","Administração Regional de Saúde do Norte, I. P. (503135593)","Macif Portugal - Companhia de Seguros, S.A. (503640549)","46.460,00 €",23-01-2015,18-12-2013,365 dias,"Portugal, Vila Real<BR/>Portugal, Porto<BR/>Portugal, Braga","Artigo 20.º, n.º 1, alínea a) do Código dos Contratos Públicos",31-12-2014,"45.649,16 €",,Valor do contrato inferior ao contratado devido ao acertos de acordo com as viaturas.,,Não aplicável.,Não aplicável.,FALSE
"Aquisição de 3.000 comprimidos Nitroglicerina 0,5 mg Comp. subling",Ajuste Direto Regime Geral,Aquisição de bens móveis,"33600000-6, Produtos farmacêuticos","Administração Regional de Saúde do Norte, I. P. (503135593)",Quilaban (500399670),"169,80 €",23-01-2015,21-08-2014,129 dias,"Portugal, Distrito não determinado, Concelho não determinado<BR/>Portugal, Vila Real, Vila Real<BR/>Portugal, Porto, Maia","Artigo 20.º, n.º 1, alínea a) do Código dos Contratos Públicos",12-09-2014,"169,80 €",,"",,Não aplicável.,Não aplicável.,FALSE
Aquisição de 200 ampolas de Ceftriaxona  1g Pó Sol. Inj. IV,Ajuste Direto Regime Geral,Aquisição de bens móveis,"33600000-6, Produtos farmacêuticos","Administração Regional de Saúde do Norte, I. P. (503135593)","Hikma Farmacêutica, lda (502266791)","112,00 €",23-01-2015,21-08-2014,129 dias,"Portugal, Porto, Maia<BR/>Portugal, Vila Real, Vila Real<BR/>Portugal, Distrito não determinado, Concelho não determinado","Artigo 20.º, n.º 1, alínea a) do Código dos Contratos Públicos",03-09-2014,"112,00 €",,"",,Não aplicável.,Não aplicável.,FALSE
Aquisição de 300 ampolas de fitomenadiona (vit.K1) 10 mg/1 ml IV lenta/oral,Ajuste Direto Regime Geral,Aquisição de bens móveis,"33600000-6, Produtos farmacêuticos","Administração Regional de Saúde do Norte, I. P. (503135593)","Roche farmacêutica Quimica, lda (500233810)","609,00 €",22-01-2015,21-08-2014,129 dias,"Portugal, Porto, Maia<BR/>Portugal, Vila Real, Vila Real<BR/>Portugal, Distrito não determinado, Concelho não determinado","Artigo 20.º, n.º 1, alínea a) do Código dos Contratos Públicos",24-09-2014,"609,00 €",,"",,Não aplicável.,Não aplicável.,FALSE
Aquisição de 60 comprimidos de Propranolol 40mg,Ajuste Direto Regime Geral,Aquisição de bens móveis,"33600000-6, Produtos farmacêuticos","Administração Regional de Saúde do Norte, I. P. (503135593)",Astrazeneca (502942240),"2,39 €",22-01-2015,21-08-2014,129 dias,"Portugal, Vila Real, Vila Real<BR/>Portugal, Distrito não determinado, Concelho não determinado<BR/>Portugal, Porto, Maia","Artigo 20.º, n.º 1, alínea a) do Código dos Contratos Públicos",07-11-2014,"2,39 €",,"",,Não aplicável.,Não aplicável.,FALSE
Aquisição de 1.380 unidades de Multivitaminas + sais minerais,Ajuste Direto Regime Geral,Aquisição de bens móveis,"33600000-6, Produtos farmacêuticos","Administração Regional de Saúde do Norte, I. P. (503135593)","Meda Pharma, S.A. (500082090)","69,00 €",22-01-2015,21-08-2014,129 dias,"Portugal, Distrito não determinado, Concelho não determinado<BR/>Portugal, Vila Real, Vila Real<BR/>Portugal, Porto, Maia","Artigo 20.º, n.º 1, alínea a) do Código dos Contratos Públicos",24-09-2014,"69,00 €",,"",,Não aplicável.,Não aplicável.,FALSE
Aquisição de 280 unidades de Clopidogrel 75mg,Ajuste Direto Regime Geral,Aquisição de bens móveis,"33600000-6, Produtos farmacêuticos","Administração Regional de Saúde do Norte, I. P. (503135593)",Laboratórios Azevedo (503894427),"42,00 €",22-01-2015,21-08-2014,129 dias,"Portugal, Porto, Maia<BR/>Portugal, Vila Real, Vila Real","Artigo 20.º, n.º 1, alínea a) do Código dos Contratos Públicos",10-09-2014,"42,00 €",,"",,Não aplicável.,Não aplicável.,FALSE
Aquisição de 800 unidades de Omeprazol 40 mg Pó Sol. Inj. IV,Ajuste Direto Regime Geral,Aquisição de bens móveis,"33600000-6, Produtos farmacêuticos","Administração Regional de Saúde do Norte, I. P. (503135593)",Laboratórios Azevedo (507474287),"440,00 €",22-01-2015,21-08-2014,129 dias,"Portugal, Porto, Maia<BR/>Portugal, Distrito não determinado, Concelho não determinado<BR/>Portugal, Vila Real, Vila Real","Artigo 20.º, n.º 1, alínea a) do Código dos Contratos Públicos",10-09-2014,"440,00 €",,"",,Não aplicável.,Não aplicável.,FALSE
Serviços de cópia e impressão de setembro a dezembro/2014 - Processo 14000545,Ajuste Direto Regime Geral,Aquisição de serviços,"79800000-2, Serviços de impressão e afins","Administração Regional de Saúde do Norte, I. P. (503135593)","Kyocera Mita Portugal, Lda (500682127)","16.913,52 €",21-01-2015,03-01-2014,120 dias,"Portugal, Porto<BR/>Portugal, Vila Real, Vila Real<BR/>Portugal, Viana do Castelo, Viana do Castelo<BR/>Portugal, Braga, Guimarães<BR/>Portugal, Braganca, Bragança<BR/>Portugal, Braga, Braga<BR/>Portugal, Vila Real, Chaves<BR/>Portugal, Aveiro, Santa Maria da Feira","Artigo 24.º, n.º 1, alínea e) do Código dos Contratos Públicos",29-12-2014,"16.913,52 €",,"",,Não aplicável.,Não aplicável.,FALSE
Serviços de subscrição de plataforma eletrónica de Contratação Pública para os meses de novembro e dezembro/2014,Ajuste Direto Regime Geral,Aquisição de serviços,"72416000-9, Fornecedores de aplicações","Administração Regional de Saúde do Norte, I. P. (503135593)","Vortal - Comércio Eletrónico Consultadoria e Multimédia, SA (505141019)","2.439,02 €",21-01-2015,13-01-2014,60 dias,"Portugal, Porto, Porto","Artigo 20.º, n.º 1, alínea a) do Código dos Contratos Públicos",17-12-2014,"2.439,02 €",,"",,Não aplicável.,Não aplicável.,FALSE
