Objeto do Contrato,Tipo de Procedimento,Tipo(s) de Contrato,CPVs,Entidade(s) Adjudicante(s),Entidade(s) Adjudicatária(s),Preço Contratual,Data de Publicação,Data de Celebração do Contrato,Prazo de Execução,Local de Execução,Fundamentação,Data de Fecho do Contrato,Preço Total Efetivo,Causas das Alterações ao Prazo,Causas das Alterações ao Preço,Estado,N.º registo do Acordo Quadro,Descrição do Acordo Quadro,Procedimento Centralizado
Aquisição de 18 UPS para as salas de sistemas dos Centros de Saúde,Ajuste Direto Regime Geral,Aquisição de bens móveis,"30230000-0, Equipamento informático","Administração Regional de Saúde do Alentejo, IP (503148768)","Companhia Portuguesa de Computadores Informática e Sistemas, SA. (501267255)","40.751,25 €",30-11-2011,21-09-2011,15 dias,"Portugal, Évora, Évora","Artigo 20.º, n.º 1, alínea a) do Código dos Contratos Públicos",26-10-2011,"40.751,25 €",,"",,Não aplicável.,Não aplicável.,
Subscrição de serviços para fornecimento de plataforma electrónica de contratação pública por um período de 3 anos,Ajuste Direto Regime Geral,Aquisição de serviços,"72212211-1, Serviços de desenvolvimento de software para interconectividade de plataformas","Administração Regional de Saúde do Alentejo, IP (503148768)","Vortal - Comércio Electrónico, Consultadoria e Multimédia, S.A. (505141019)","27.450,00 €",24-11-2011,24-10-2011,1095 dias,"Portugal, Évora, Évora",Artigo 258.º do Código dos Contratos Públicos,31-03-2015,"31.262,66 €",,Prorrogação do contrato até ao inicio do novo procedimento.,,Não aplicável.,Não aplicável.,
Contratação de serviços de controlo de qualidade de equipamento e de auditorias às condições de protecção radiológica nas Unidades de Radiologia da ARSA,Ajuste Direto Regime Geral,Aquisição de serviços,"71700000-5, Serviços de controlo e monitorização","Administração Regional de Saúde do Alentejo, IP (503148768)","Medical Consult, S.A. (504092138)","3.200,00 €",23-11-2011,18-11-2011,365 dias,"Portugal, Évora, Estremoz","Artigo 20.º, n.º 1, alínea a) do Código dos Contratos Públicos",31-12-2012,"3.200,00 €",,"",,Não aplicável.,Não aplicável.,
Aquisição de mobiliário diverso.,Ajuste Direto Regime Geral,Aquisição de bens móveis,"39000000-2, Mobiliário (incl. de escritório), acessórios, aparelhos domésticos (excl. iluminação) e produtos de limpeza","Administração Regional de Saúde do Alentejo, IP (503148768)","FAMO - Indústria de Mobiliário de Escritório, Lda. (500148074), RALL - Mobiliário e Soluções para Escritório, S.A. (500234191), JULCAR - Mobiliário Integrado, S.A. (501140263), Metalurgica do Levira, S.A. (500192260), Tripolo - Soluções de Escritório e Armazenagem, Lda. (501264124), Haworth Portugal - Mobiliário de Escritório, S.A. (500077622)","33.572,42 €",22-11-2011,21-10-2011,66 dias,"Portugal, Évora, Vila Viçosa<BR/>Portugal, Évora, Portel<BR/>Portugal, Évora, Arraiolos<BR/>Portugal, Évora, Redondo","Artigo 20.º, n.º 1, alínea a) do Código dos Contratos Públicos",26-12-2011,"33.572,42 €",,"",,Não aplicável.,Não aplicável.,
O objecto do contrato é aquisição de 10 estantes,Ajuste Direto Regime Geral,Aquisição de bens móveis,"39122000-3, Aparadores e estantes","Administração Regional de Saúde do Alentejo, IP (503148768)","RALL - Mobiliário e Soluções para Escritório, S.A. (500234191)","800,60 €",22-11-2011,15-11-2011,66 dias,"Portugal, Évora, Redondo","Artigo 20.º, n.º 1, alínea a) do Código dos Contratos Públicos",08-12-2011,"800,60 €",,"",,Não aplicável.,Não aplicável.,
"O presente Contrato tem por objecto a aquisição, no âmbito do procedimento AM 131.6/2011, realizado ao abrigo do Acordo Quadro 13-VS (lote 4), celebrado pela Agência Nacional de Compras Públicas E.P.E. (ANCP), dos serviços de vigilância e segurança humana para as instalações da Administração Regional de Saúde do Alentejo",Ajuste Direto Regime Geral,Aquisição de serviços,"79714000-2, Serviços de vigilância","Administração Regional de Saúde do Alentejo, IP (503148768)","Strong - Segurança, S.A. (503257567), Prestibel - Emoresa de Segurança, SA (501326456)","233.577,00 €",22-11-2011,01-11-2011,365 dias,"Portugal, Évora<BR/>Portugal, Setúbal, Alcácer do Sal<BR/>Portugal, Setúbal, Grandola<BR/>Portugal, Setúbal, Santiago do Cacém<BR/>Portugal, Setúbal, Sines<BR/>Portugal, Beja, Odemira","Artigo 20.º, n.º 1, alínea a) do Código dos Contratos Públicos",30-10-2012,"199.255,33 €",,Número de horas efetuadas inferior ao número de horas contratadas.,,Não aplicável.,Não aplicável.,
Tem por objecto a contratação de serviços de evolução e correcção do Sistema de Informação da ARS Alentejo denominado SIARS e o módulo de informação e monitorização das Unidades Funcionais denominado por MIN@UF.,Ajuste Direto Regime Geral,Aquisição de serviços,"72212100-0, Serviços de desenvolvimento de software para sectores específicos","Administração Regional de Saúde do Alentejo, IP (503148768)","Softlimits, S.A. (507781350)","64.800,00 €",22-11-2011,21-10-2011,608 dias,"Portugal, Évora, Évora","Artigo 20.º, n.º 1, alínea a) do Código dos Contratos Públicos",05-12-2011,"64.800,00 €",,"",,Não aplicável.,Não aplicável.,
"O objecto do contrato é a aquisição de serviços de formação para a acção de formação – “Melhoria da Comunicação entre Profissionais de Saúde e Utente – Curso Piloto”, com uma carga horária de 40 horas e que tem como principal objectivos introduzir o computador como instrumento de mediação da interacção com o utente, contribuindo para a capacitação e para adesão aos planos terapêuticos, melhorando a qualidade da relação profissional/utente.",Ajuste Direto Regime Geral,Aquisição de serviços,"80500000-9, Serviços de formação","Administração Regional de Saúde do Alentejo, IP (503148768)","Rumos - Formação e Comunicação, S.A. (500366039)","4.196,00 €",22-11-2011,14-11-2011,5 dias,"Portugal, Évora, Évora","Artigo 20.º, n.º 1, alínea a) do Código dos Contratos Públicos",08-12-2011,"4.196,00 €",,"",,Não aplicável.,Não aplicável.,
"Aquisição dos serviços de higiene e limpeza para as instalações de saúde da ACES Alentejo Litoral (sines, Santiago do Cacém e Santo André), para os meses de Setembro e Outubro de 2011",Ajuste Direto Regime Geral,Aquisição de serviços,"90910000-9, Serviços de limpeza","Administração Regional de Saúde do Alentejo, IP (503148768)","Electrolimpa Sul - Empresa Técnica de limpeza, SA (507545427)","7.143,46 €",21-11-2011,01-09-2011,61 dias,"Portugal, Setúbal, Sines<BR/>Portugal, Setúbal, Santiago do Cacém","Artigo 20.º, n.º 1, alínea a) do Código dos Contratos Públicos",30-10-2011,"7.143,46 €",,"",,Não aplicável.,Não aplicável.,
Aquisição de mobiliário hospitalar para o Centro de Saúde de Barrancos,Ajuste Direto Regime Geral,Aquisição de bens móveis,"33192000-2, Mobiliário para fins médicos","Administração Regional de Saúde do Alentejo, IP (503148768)","Sano-Técnica, Lda (500239819), Elnor - Equipamentos Técnicos e de Laboratório, S.A. (500094403), Duekipa - Comércio de Equipamentos Hospitalares, Lda (508690102), Bacelar & Irmãos, Lda. (500532818)","3.969,30 €",21-11-2011,03-10-2011,66 dias,"Portugal, Beja, Barrancos","Artigo 20.º, n.º 1, alínea a) do Código dos Contratos Públicos",26-11-2011,"3.969,30 €",,"",,Não aplicável.,Não aplicável.,
"aquisição de serviços de formação para a acção de formação - Ambiente e Segurança em Laboratórios, com uma carga horária de 7 horas e realiza-se no dia 19-09-2011.",Ajuste Direto Regime Geral,Concessão de serviços públicos,"80500000-9, Serviços de formação","Administração Regional de Saúde do Alentejo, IP (503148768)",Relacre-Associações de Laboratórios Acreditados de Portugal (502578874),"1.000,00 €",21-11-2011,19-09-2011,1 dias,"Portugal, Évora, Évora","Artigo 20.º, n.º 1, alínea a) do Código dos Contratos Públicos",08-12-2011,"1.000,00 €",,"",,Não aplicável.,Não aplicável.,
