Objeto do Contrato,Tipo de Procedimento,Tipo(s) de Contrato,CPVs,Entidade(s) Adjudicante(s),Entidade(s) Adjudicatária(s),Preço Contratual,Data de Publicação,Data de Celebração do Contrato,Prazo de Execução,Local de Execução,Fundamentação,Data de Fecho do Contrato,Preço Total Efetivo,Causas das Alterações ao Prazo,Causas das Alterações ao Preço,Estado,N.º registo do Acordo Quadro,Descrição do Acordo Quadro,Procedimento Centralizado
Aquisição de medicamentos,Ajuste Direto Regime Geral,Aquisição de bens móveis,"33690000-3, Medicamentos vários",Hospital Dr. Francisco Zagalo (501510150),ROCHE FARMACÊUTICA (500233810),"14,70 €",07-05-2015,30-03-2015,275 dias,"Portugal, Aveiro, Ovar","Artigo 20.º, n.º 1, alínea a) do Código dos Contratos Públicos",31-12-2015,"8,82 €",,Não utilização do valor previsto,,Não aplicável.,Não aplicável.,FALSE
Aquisição de medicamentos,Ajuste Direto Regime Geral,Aquisição de bens móveis,"33690000-3, Medicamentos vários",Hospital Dr. Francisco Zagalo (501510150),JOHNSON & JOHNSON (500153370),"102,80 €",07-05-2015,30-03-2015,275 dias,"Portugal, Aveiro, Ovar","Artigo 20.º, n.º 1, alínea a) do Código dos Contratos Públicos",31-12-2015,"51,40 €",,Não utilização do valor previsto,,Não aplicável.,Não aplicável.,FALSE
Aquisição de medicamentos,Ajuste Direto Regime Geral,Aquisição de bens móveis,"33690000-3, Medicamentos vários",Hospital Dr. Francisco Zagalo (501510150),MEDA PHARMA (500082090),"159,60 €",07-05-2015,30-03-2015,275 dias,"Portugal, Aveiro, Ovar","Artigo 20.º, n.º 1, alínea a) do Código dos Contratos Públicos",31-12-2015,"45,60 €",,Não utilização do valor previsto,,Não aplicável.,Não aplicável.,FALSE
Aquisição de medicamentos,Ajuste Direto Regime Geral,Aquisição de bens móveis,"33690000-3, Medicamentos vários",Hospital Dr. Francisco Zagalo (501510150),RATHIOFARM (502414910),"254,70 €",07-05-2015,30-03-2015,275 dias,"Portugal, Aveiro, Ovar","Artigo 20.º, n.º 1, alínea a) do Código dos Contratos Públicos",31-12-2015,"81,40 €",,Não utilização do valor previsto,,Não aplicável.,Não aplicável.,FALSE
Aquisição de medicamentos,Ajuste Direto Regime Geral,Aquisição de bens móveis,"33690000-3, Medicamentos vários",Hospital Dr. Francisco Zagalo (501510150),B.BRAUN (501506543),"539,04 €",07-05-2015,30-03-2015,275 dias,"Portugal, Aveiro, Ovar","Artigo 20.º, n.º 1, alínea a) do Código dos Contratos Públicos",31-12-2015,"367,73 €",,Não utilização do valor previsto,,Não aplicável.,Não aplicável.,FALSE
Aquisição de medicamentos,Ajuste Direto Regime Geral,Aquisição de bens móveis,"33690000-3, Medicamentos vários",Hospital Dr. Francisco Zagalo (501510150),BAYER (500043256),"58,09 €",07-05-2015,30-03-2015,275 dias,"Portugal, Aveiro, Ovar","Artigo 20.º, n.º 1, alínea a) do Código dos Contratos Públicos",31-12-2015,"51,92 €",,Não utilização do valor previsto,,Não aplicável.,Não aplicável.,FALSE
Aquisição de medicamentos,Ajuste Direto Regime Geral,Aquisição de bens móveis,"33690000-3, Medicamentos vários",Hospital Dr. Francisco Zagalo (501510150),PHARMIS (502595442),"828,00 €",07-05-2015,30-03-2015,275 dias,"Portugal, Aveiro, Ovar","Artigo 20.º, n.º 1, alínea a) do Código dos Contratos Públicos",31-12-2015,"517,50 €",,Não utilização do valor previsto,,Não aplicável.,Não aplicável.,FALSE
Aquisição de medicamentos,Ajuste Direto Regime Geral,Aquisição de bens móveis,"33690000-3, Medicamentos vários",Hospital Dr. Francisco Zagalo (501510150),Merck Sharp & Dohme (500191360),"496,00 €",07-05-2015,30-03-2015,275 dias,"Portugal, Aveiro, Ovar","Artigo 20.º, n.º 1, alínea a) do Código dos Contratos Públicos",31-12-2015,"738,40 €",,Aumento do valor previsto,,Não aplicável.,Não aplicável.,FALSE
Aquisição de medicamentos,Ajuste Direto Regime Geral,Aquisição de bens móveis,"33690000-3, Medicamentos vários",Hospital Dr. Francisco Zagalo (501510150),UCB (500291322),"90,11 €",07-05-2015,30-03-2015,275 dias,"Portugal, Aveiro, Ovar","Artigo 20.º, n.º 1, alínea a) do Código dos Contratos Públicos",31-12-2015,"39,18 €",,Não utilização do valor previsto,,Não aplicável.,Não aplicável.,FALSE
Aquisição de medicamentos,Ajuste Direto Regime Geral,Aquisição de bens móveis,"33690000-3, Medicamentos vários",Hospital Dr. Francisco Zagalo (501510150),FRESÉNIUS MEDICAL CARE (503070220),"454,80 €",07-05-2015,30-03-2015,275 dias,"Portugal, Aveiro, Ovar","Artigo 20.º, n.º 1, alínea a) do Código dos Contratos Públicos",31-12-2015,"227,40 €",,Não utilização do valor previsto,,Não aplicável.,Não aplicável.,FALSE
Aquisição de medicamentos,Ajuste Direto Regime Geral,Aquisição de bens móveis,"33690000-3, Medicamentos vários",Hospital Dr. Francisco Zagalo (501510150),LABESFAL (501169580),"2.995,60 €",07-05-2015,30-03-2015,275 dias,"Portugal, Aveiro, Ovar","Artigo 20.º, n.º 1, alínea a) do Código dos Contratos Públicos",31-12-2015,"1.284,80 €",,Não utilização do valor previsto,,Não aplicável.,Não aplicável.,FALSE
Aquisição de medicamentos,Ajuste Direto Regime Geral,Aquisição de bens móveis,"33690000-3, Medicamentos vários",Hospital Dr. Francisco Zagalo (501510150),ANGELINI (500583650),"675,00 €",07-05-2015,30-03-2015,275 dias,"Portugal, Aveiro, Ovar","Artigo 20.º, n.º 1, alínea a) do Código dos Contratos Públicos",31-12-2015,"202,50 €",,Não utilização do valor previsto,,Não aplicável.,Não aplicável.,FALSE
Aquisição de medicamentos,Ajuste Direto Regime Geral,Aquisição de bens móveis,"33690000-3, Medicamentos vários",Hospital Dr. Francisco Zagalo (501510150),SANOFI (500134960),"752,40 €",07-05-2015,30-03-2015,275 dias,"Portugal, Aveiro, Ovar","Artigo 20.º, n.º 1, alínea a) do Código dos Contratos Públicos",31-12-2015,"902,88 €",,Aumento do valor previsto,,Não aplicável.,Não aplicável.,FALSE
Aquisição de medicamentos,Ajuste Direto Regime Geral,Aquisição de bens móveis,"33690000-3, Medicamentos vários",Hospital Dr. Francisco Zagalo (501510150),Laboratório Pfizer (500162166),"25,58 €",07-05-2015,30-03-2015,275 dias,"Portugal, Aveiro, Ovar","Artigo 20.º, n.º 1, alínea a) do Código dos Contratos Públicos",31-12-2015,"76,75 €",,Aumento do valor previsto,,Não aplicável.,Não aplicável.,FALSE
Aquisição de medicamentos,Ajuste Direto Regime Geral,Aquisição de bens móveis,"33690000-3, Medicamentos vários",Hospital Dr. Francisco Zagalo (501510150),FERRAZ LYNCE (500113270),"1.390,73 €",07-05-2015,30-03-2015,275 dias,"Portugal, Aveiro, Ovar","Artigo 20.º, n.º 1, alínea a) do Código dos Contratos Públicos",31-12-2015,"1.657,04 €",,Aumento do valor previsto,,Não aplicável.,Não aplicável.,FALSE
Aquisição de medicamentos,Ajuste Direto Regime Geral,Aquisição de bens móveis,"33690000-3, Medicamentos vários",Hospital Dr. Francisco Zagalo (501510150),FRESÉNIUS KABI PHARMA (504293753),"244,16 €",07-05-2015,30-03-2015,275 dias,"Portugal, Aveiro, Ovar","Artigo 20.º, n.º 1, alínea a) do Código dos Contratos Públicos",31-12-2015,"69,78 €",,Não utilização do valor previsto,,Não aplicável.,Não aplicável.,FALSE
Aquisição de medicamentos diversos,Ajuste Direto Regime Geral,Aquisição de bens móveis,"33690000-3, Medicamentos vários",Hospital Dr. Francisco Zagalo (501510150),Davi II (508309450),"102,00 €",06-05-2015,30-03-2015,275 dias,"Portugal, Aveiro, Ovar","Artigo 20.º, n.º 1, alínea a) do Código dos Contratos Públicos",31-12-2015,"85,00 €",,Não utilização do valor previsto,,Não aplicável.,Não aplicável.,FALSE
Aquisição de medicamentos vários,Ajuste Direto Regime Geral,Aquisição de bens móveis,"33690000-3, Medicamentos vários",Hospital Dr. Francisco Zagalo (501510150),Jaba Recordati (500492867),"3,26 €",06-05-2015,30-03-2015,275 dias,"Portugal, Aveiro, Ovar","Artigo 20.º, n.º 1, alínea a) do Código dos Contratos Públicos",31-12-2015,"",,Não utilização do valor previsto,,Não aplicável.,Não aplicável.,FALSE
Aquisição de medicamentos vários,Ao abrigo de acordo-quadro (art.º 259.º),Aquisição de bens móveis,"33690000-3, Medicamentos vários",Hospital Dr. Francisco Zagalo (501510150),AstraZeneca (502942240),"125,90 €",06-05-2015,30-03-2015,275 dias,"Portugal, Aveiro, Ovar",Artigo 259.º do Código dos Contratos Públicos,31-12-2015,"",,Não utilização do valor previsto,,1394106,CP 2015/64 - Medicamentos Diversos,FALSE
Aquisição de medicamentos vários,Ao abrigo de acordo-quadro (art.º 259.º),Aquisição de bens móveis,"33690000-3, Medicamentos vários",Hospital Dr. Francisco Zagalo (501510150),B.Braun (501506543),"1.800,00 €",06-05-2015,30-03-2015,275 dias,"Portugal, Aveiro, Ovar",Artigo 259.º do Código dos Contratos Públicos,31-12-2015,"600,00 €",,Não utilização do valor previsto,,1394106,CP 2015/64 - Medicamentos Diversos,FALSE
Aquisição de medicamentos vários,Ao abrigo de acordo-quadro (art.º 259.º),Aquisição de bens móveis,"33690000-3, Medicamentos vários",Hospital Dr. Francisco Zagalo (501510150),Bayer (500043256),"29,60 €",06-05-2015,30-03-2015,275 dias,"Portugal, Aveiro, Ovar",Artigo 259.º do Código dos Contratos Públicos,31-12-2015,"",,Não utilização do valor previsto,,1394106,CP 2015/64 - Medicamentos Diversos,FALSE
Aquisição de medicamentos vários,Ao abrigo de acordo-quadro (art.º 259.º),Aquisição de bens móveis,"33690000-3, Medicamentos vários",Hospital Dr. Francisco Zagalo (501510150),Jaba Recordati (500492867),"37,38 €",06-05-2015,30-03-2015,275 dias,"Portugal, Aveiro, Ovar",Artigo 259.º do Código dos Contratos Públicos,31-12-2015,"53,40 €",,Aumento do valor previsto,,1394106,CP 2015/64 - Medicamentos Diversos,FALSE
Aquisição de medicamentos vários,Ao abrigo de acordo-quadro (art.º 259.º),Aquisição de bens móveis,"33690000-3, Medicamentos vários",Hospital Dr. Francisco Zagalo (501510150),Laboratório Pfizer (500162166),"72,72 €",06-05-2015,30-03-2015,275 dias,"Portugal, Aveiro, Ovar",Artigo 259.º do Código dos Contratos Públicos,31-12-2015,"",,Não utilização do valor previsto,,1394106,CP 2015/64 - Medicamentos Diversos,FALSE
Aquisição de medicamentos vários,Ao abrigo de acordo-quadro (art.º 259.º),Aquisição de bens móveis,"33690000-3, Medicamentos vários",Hospital Dr. Francisco Zagalo (501510150),DLA (503894427),"8,60 €",06-05-2015,30-03-2015,275 dias,"Portugal, Aveiro, Ovar",Artigo 259.º do Código dos Contratos Públicos,31-12-2015,"",,Não utilização do valor previsto,,1394106,CP 2015/64 - Medicamentos Diversos,FALSE
Aquisição de medicamentos vários,Ao abrigo de acordo-quadro (art.º 259.º),Aquisição de bens móveis,"33690000-3, Medicamentos vários",Hospital Dr. Francisco Zagalo (501510150),JANSSEN CILAG (500189412),"32,72 €",06-05-2015,30-03-2015,275 dias,"Portugal, Aveiro, Ovar",Artigo 259.º do Código dos Contratos Públicos,31-12-2015,"49,08 €",,Aumento do valor previsto,,1394106,CP 2015/64 - Medicamentos Diversos,FALSE
Aquisição de medicamentos vários,Ao abrigo de acordo-quadro (art.º 259.º),Aquisição de bens móveis,"33690000-3, Medicamentos vários",Hospital Dr. Francisco Zagalo (501510150),Sanofi (500134960),"1.488,00 €",06-05-2015,30-03-2015,275 dias,"Portugal, Aveiro, Ovar",Artigo 259.º do Código dos Contratos Públicos,31-12-2015,"892,80 €",,Não utilização do valor previsto,,1394106,CP 2015/64 - Medicamentos Diversos,FALSE
Aquisição de medicamentos vários,Ao abrigo de acordo-quadro (art.º 259.º),Aquisição de bens móveis,"33690000-3, Medicamentos vários",Hospital Dr. Francisco Zagalo (501510150),Generis (508107997),"16,46 €",06-05-2015,30-03-2015,275 dias,"Portugal, Aveiro, Ovar",Artigo 259.º do Código dos Contratos Públicos,31-12-2015,"8,23 €",,Não utilização do valor previsto,,1394106,CP 2015/64 - Medicamentos Diversos,FALSE
Aquisição de medicamentos vários,Ao abrigo de acordo-quadro (art.º 259.º),Aquisição de bens móveis,"33690000-3, Medicamentos vários",Hospital Dr. Francisco Zagalo (501510150),Combino Pharma (508622263),"238,80 €",06-05-2015,30-03-2015,275 dias,"Portugal, Aveiro, Ovar",Artigo 259.º do Código dos Contratos Públicos,31-12-2015,"59,70 €",,Não utilização do valor previsto,,1394106,CP 2015/64 - Medicamentos Diversos,FALSE
Aquisição de medicamentos vários,Ao abrigo de acordo-quadro (art.º 259.º),Aquisição de bens móveis,"33690000-3, Medicamentos vários",Hospital Dr. Francisco Zagalo (501510150),Bluemed (509912060),"5.400,00 €",06-05-2015,30-03-2015,275 dias,"Portugal, Aveiro, Ovar",Artigo 259.º do Código dos Contratos Públicos,31-12-2015,"3.738,00 €",,Não utilização do valor previsto,,1394106,CP 2015/64 - Medicamentos Diversos,FALSE
Aquisição de medicamentos vários,Ao abrigo de acordo-quadro (art.º 259.º),Aquisição de bens móveis,"33690000-3, Medicamentos vários",Hospital Dr. Francisco Zagalo (501510150),Meda Pharma (500082090),"340,79 €",06-05-2015,30-03-2015,275 dias,"Portugal, Aveiro, Ovar",Artigo 259.º do Código dos Contratos Públicos,31-12-2015,"475,88 €",,Aumento do valor previsto,,1394106,CP 2015/64 - Medicamentos Diversos,FALSE
Aquisição de medicamentos vários,Ao abrigo de acordo-quadro (art.º 259.º),Aquisição de bens móveis,"33690000-3, Medicamentos vários",Hospital Dr. Francisco Zagalo (501510150),LABESFAL (501169580),"100,00 €",06-05-2015,30-03-2015,275 dias,"Portugal, Aveiro, Ovar",Artigo 259.º do Código dos Contratos Públicos,31-12-2015,"20,00 €",,Não utilização do valor previsto,,1394106,CP 2015/64 - Medicamentos Diversos,FALSE
AQUIISÇÃO MATERIAL CONSUMO CLINICO,Ajuste Direto Regime Geral,Aquisição de bens móveis,"33141121-4, Suturas cirúrgicas",Hospital Dr. Francisco Zagalo (501510150),BAUSCH E LOMB (980218764),"67,50 €",04-05-2015,04-03-2015,12 dias,"Portugal, Aveiro, Ovar","Artigo 20.º, n.º 1, alínea a) do Código dos Contratos Públicos",16-03-2015,"67,50 €",,"",,Não aplicável.,Não aplicável.,FALSE
AQUIISÇÃO MATERIAL CONSUMO CLINICO,Ajuste Direto Regime Geral,Aquisição de bens móveis,"33141121-4, Suturas cirúrgicas",Hospital Dr. Francisco Zagalo (501510150),B. BRAUN (501506543),"104,65 €",04-05-2015,04-03-2015,12 dias,"Portugal, Aveiro, Ovar","Artigo 20.º, n.º 1, alínea a) do Código dos Contratos Públicos",16-03-2015,"104,65 €",,"",,Não aplicável.,Não aplicável.,FALSE
AQUISIÇÃO DE SUTURAS,Ajuste Direto Regime Geral,Aquisição de bens móveis,"33141121-4, Suturas cirúrgicas",Hospital Dr. Francisco Zagalo (501510150),B. Braun (501506543),"444,93 €",04-05-2015,08-04-2015,16 dias,"Portugal, Aveiro, Ovar","Artigo 20.º, n.º 1, alínea a) do Código dos Contratos Públicos",24-04-2015,"444,93 €",,"",,Não aplicável.,Não aplicável.,FALSE
AQUISIÇÃO DE SUTURAS,Ajuste Direto Regime Geral,Aquisição de bens móveis,"33141121-4, Suturas cirúrgicas",Hospital Dr. Francisco Zagalo (501510150),HR Produtos Quimicos (501895558),"14,80 €",04-05-2015,08-04-2015,16 dias,"Portugal, Aveiro, Ovar","Artigo 20.º, n.º 1, alínea a) do Código dos Contratos Públicos",24-04-2015,"14,80 €",,"",,Não aplicável.,Não aplicável.,FALSE
