Objeto do Contrato,Tipo de Procedimento,Tipo(s) de Contrato,CPVs,Entidade(s) Adjudicante(s),Entidade(s) Adjudicatária(s),Preço Contratual,Data de Publicação,Data de Celebração do Contrato,Prazo de Execução,Local de Execução,Fundamentação,Data de Fecho do Contrato,Preço Total Efetivo,Causas das Alterações ao Prazo,Causas das Alterações ao Preço,Estado,N.º registo do Acordo Quadro,Descrição do Acordo Quadro,Procedimento Centralizado
Aquisição de medicamentos,Ao abrigo de acordo-quadro (art.º 259.º),Aquisição de bens móveis,"33660000-4, Medicamentos para o sistema nervoso e para os órgãos sensoriais","Hospital do Espírito Santo de Évora, E. P. E. (508085888)","B BRAUN MEDICAL, LDA (501506543), Sandoz Farmacêutica, Lda. (506985261), UNILFARMA, LDA (500293023)","75.195,00 €",28-03-2018,07-03-2018,300 dias,"Portugal, Évora, Évora",Artigo 259.º do Código dos Contratos Públicos,,,,,,613285,"CONCURSO PÚBLICO PARA A CELEBRAÇÃO DE CONTRATOS PÚBLICOS DE APROVISIONAMENTO PARA A ÁREA DA SAÚDE, COM VISTA AO FORNECIMENTO DE MEDICAMENTOS ANALGÉSICOS, ANTIPIRÉTICOS E ANTIDEPRESSORES, ÀS INSTITUIÇÕES E SERVIÇOS DO SERVIÇO NACIONAL DE SAÚDE",FALSE
Aquisição de medicamentos para aparelho locomotor,Ao abrigo de acordo-quadro (art.º 259.º),Aquisição de bens móveis,"33632000-9, Medicamentos para o aparelho músculo-esquelético","Hospital do Espírito Santo de Évora, E. P. E. (508085888)","AMGEN - BIOFARMACÊUTICA, LDA. (502942959), TAKEDA FARMACEUTICOS DE PORTUGAL (502801204), PFIZER BIOFARMACEUTICA, SOCIEDADE UNIPESSOAL, LDA (513300376), Labesfal - Laboratórios Almiro S.a  (501169580), ROCHE FARMACEUTICA QUIMICA, LDA (500233810)","135.442,14 €",28-03-2018,07-03-2018,300 dias,"Portugal, Évora, Évora",Artigo 259.º do Código dos Contratos Públicos,,,,,,1410779,CP 2015/47 - Acordo quadro para fornecimento de medicamentos do aparelho locomotor às instituições e serviços do serviço nacional de saúde,FALSE
Aquisição de medicamento oncológico,Ao abrigo de acordo-quadro (art.º 259.º),Aquisição de bens móveis,"33600000-6, Produtos farmacêuticos","Hospital do Espírito Santo de Évora, E. P. E. (508085888)","PFIZER BIOFARMACEUTICA, SOCIEDADE UNIPESSOAL, LDA (513300376)","39.480,00 €",28-03-2018,18-01-2018,8 dias,"Portugal, Évora, Évora",Artigo 259.º do Código dos Contratos Públicos,,,,,,1771819,CP 2015/6 - Acordo quadro para o fornecimento de Medicamentos do Foro Oncológico,FALSE
Aquisição de medicamentos,Ao abrigo de acordo-quadro (art.º 259.º),Aquisição de bens móveis,"33600000-6, Produtos farmacêuticos","Hospital do Espírito Santo de Évora, E. P. E. (508085888)","MSD (500191360), LABESFAL LABORATORIOS ALMIRO SA (501169580), GENERIS - FARMACEUTICA SA (508107997), Sanofi (500134960), LABORATORIOS PFIZER LDA (500162166)","39.261,92 €",26-03-2018,01-03-2018,300 dias,"Portugal, Évora, Évora",Artigo 259.º do Código dos Contratos Públicos,,,,,,1415640,CP 2015/7 - ACORDO QUADRO PARA FORNECIMENTO DE HORMONAS E OUTROS MEDICAMENTOS USADOS NO TRATAMENTO DAS DOENÇAS ENDÓCRINAS ÀS INSTITUIÇÕES E SERVIÇOS DO SERVIÇO NACIONAL DE SAÚDE,FALSE
Aquisição de medicamentos,Ajuste Direto Regime Geral,Aquisição de bens móveis,"33690000-3, Medicamentos vários","Hospital do Espírito Santo de Évora, E. P. E. (508085888)","GILEAD SCIENCES, LDA. (503604704)","51.257,43 €",21-03-2018,23-02-2018,365 dias,"Portugal, Évora, Évora","Artigo 24.º, n.º 1, alínea e), subalínea iii) do Código dos Contratos Públicos",,,,,,Não aplicável.,Não aplicável.,FALSE
