Objeto do Contrato,Tipo de Procedimento,Tipo(s) de Contrato,CPVs,Entidade(s) Adjudicante(s),Entidade(s) Adjudicatária(s),Preço Contratual,Data de Publicação,Data de Celebração do Contrato,Prazo de Execução,Local de Execução,Fundamentação,Data de Fecho do Contrato,Preço Total Efetivo,Causas das Alterações ao Prazo,Causas das Alterações ao Preço,Estado,N.º registo do Acordo Quadro,Descrição do Acordo Quadro,Procedimento Centralizado
Aquisição de bens para fins exclusivos de investigação no INSA,Ajuste Direto Regime Geral,Aquisição de bens móveis,"33140000-3, Material médico de consumo","Instituto Nacional de Saúde Doutor Ricardo Jorge, I. P. (501427511)","Alfagene Novas Tecnologias das Ciências da Vida, Lda (503387398)","281,60 €",07-10-2015,11-09-2015,90 dias,"Portugal, Lisboa, Lisboa","Artigo 26.º, n.º 1, alínea b) do Código dos Contratos Públicos",,,,,,Não aplicável.,Não aplicável.,FALSE
20150265 - Aquisição de reagentes para diagnostico de toxoplamose,Ajuste Direto Regime Geral,Aquisição de bens móveis,"33696500-0, Reagentes de laboratório","Instituto Nacional de Saúde Doutor Ricardo Jorge, I. P. (501427511)","Biomérieux Portugal - Aparelhos e Reagentes de Laboratório, Lda (501524177)","1.365,60 €",07-10-2015,01-04-2015,2 dias,"Portugal, Lisboa, Lisboa","Artigo 20.º, n.º 1, alínea a) do Código dos Contratos Públicos",,,,,,Não aplicável.,Não aplicável.,FALSE
Aquisição de bens para fins exclusivos de investigação no INSA,Ajuste Direto Regime Geral,Aquisição de bens móveis,"33140000-3, Material médico de consumo","Instituto Nacional de Saúde Doutor Ricardo Jorge, I. P. (501427511)","Roche Sistemas de Diagnóstico, Lda (504282921)","156,76 €",07-10-2015,14-09-2015,90 dias,"Portugal, Lisboa, Lisboa","Artigo 26.º, n.º 1, alínea b) do Código dos Contratos Públicos",,,,,,Não aplicável.,Não aplicável.,FALSE
"20150113 - Aquisição de reagentes para o DDI do INSA, I.P.",Ajuste Direto Regime Geral,Aquisição de bens móveis,"33696500-0, Reagentes de laboratório","Instituto Nacional de Saúde Doutor Ricardo Jorge, I. P. (501427511)","Quilaban Qumica Laboratorial Analítica, S.A (500399670)","6.475,50 €",07-10-2015,24-02-2015,2 dias,"Portugal<BR/>Portugal, Lisboa, Lisboa","Artigo 20.º, n.º 1, alínea a) do Código dos Contratos Públicos",,,,,,Não aplicável.,Não aplicável.,FALSE
"20150240 - Aquisição de material de protecção para o DDI  INSA, I.P.",Ajuste Direto Regime Geral,Aquisição de bens móveis,"33140000-3, Material médico de consumo","Instituto Nacional de Saúde Doutor Ricardo Jorge, I. P. (501427511)","Protilis Portugal, Lda (510043607)","8.200,72 €",06-10-2015,12-03-2015,2 dias,"Portugal, Lisboa, Lisboa","Artigo 20.º, n.º 1, alínea a) do Código dos Contratos Públicos",,,,,,Não aplicável.,Não aplicável.,FALSE
Aquisição e colocação e peças em equipamentos de laboratório,Ajuste Direto Regime Geral,Aquisição de bens móveis,"35125300-2, Câmaras de segurança",Instituto Nacional de Saúde Dr.Ricardo Jorge(INSA) (501427511),TradeLabor (503069442),"8.601,00 €",06-10-2015,07-08-2015,30 dias,"Portugal, Lisboa, Lisboa","Artigo 26.º, n.º 1, alínea a) do Código dos Contratos Públicos",,,,,,Não aplicável.,Não aplicável.,FALSE
Aquisição de um Agitdor de Plataforma Basculante,Ajuste Direto Regime Geral,Aquisição de bens móveis,"38436000-0, Agitadores e acessórios",Instituto Nacional de Saúde Dr.Ricardo Jorge(INSA) (501427511),VWR (503842770),"927,00 €",06-10-2015,01-06-2015,10 dias,"Portugal, Setúbal, Setúbal","Artigo 26.º, n.º 1, alínea b) do Código dos Contratos Públicos",,,,,,Não aplicável.,Não aplicável.,FALSE
Aquisição de dois Pipetadores Automáticos,Ajuste Direto Regime Geral,Aquisição de bens móveis,"38900000-4, Instrumentos diversos de avaliação ou ensaio",Instituto Nacional de Saúde Dr.Ricardo Jorge(INSA) (501427511),Sarstedt (503019461),"506,00 €",06-10-2015,27-07-2015,30 dias,"Portugal, Lisboa, Lisboa","Artigo 26.º, n.º 1, alínea b) do Código dos Contratos Públicos",,,,,,Não aplicável.,Não aplicável.,FALSE
Aquisição de suportes universais em bloco para Projeto de Investigação,Ajuste Direto Regime Geral,Aquisição de bens móveis,"33141000-0, Material médico não químico descartável e produtos hematológicos",Instituto Nacional de Saúde Dr.Ricardo Jorge(INSA) (501427511),Sarstedt (503019461),"920,00 €",06-10-2015,29-05-2015,20 dias,"Portugal, Lisboa, Lisboa","Artigo 26.º, n.º 1, alínea b) do Código dos Contratos Públicos",,,,,,Não aplicável.,Não aplicável.,FALSE
Aquisição de serviços para desinfeção e limpeza do circuito de arrefecimento,Ajuste Direto Regime Geral,Aquisição de serviços,"50730000-1, Serviços de reparação e manutenção de grupos de refrigeração","Instituto Nacional de Saúde Doutor Ricardo Jorge, I. P. (501427511)","Enkrott, SA (500103461)","650,00 €",05-10-2015,21-09-2015,30 dias,"Portugal, Lisboa, Lisboa","Artigo 20.º, n.º 1, alínea a) do Código dos Contratos Públicos",,,,,,Não aplicável.,Não aplicável.,FALSE
Aquisição de serviços para reparação de sistema de Epicenter,Ajuste Direto Regime Geral,Aquisição de serviços,"72100000-6, Serviços de consultoria em matéria de hardware",Instituto Nacional de Saúde Dr.Ricardo Jorge(INSA) (501427511),"Quilaban, SA (500399670)","1.552,00 €",05-10-2015,24-07-2015,30 dias,"Portugal, Porto, Porto","Artigo 24.º, n.º 1, alínea e) do Código dos Contratos Públicos",,,,,,Não aplicável.,Não aplicável.,FALSE
Aquisição de serviços para reparação de rotura de água no sistema AVAC,Ajuste Direto Regime Geral,Aquisição de serviços,"50000000-5, Serviços de reparação e manutenção","Instituto Nacional de Saúde Doutor Ricardo Jorge, I. P. (501427511)",SorJeclima (508565839),"362,90 €",05-10-2015,15-06-2015,15 dias,"Portugal, Setúbal, Setúbal","Artigo 20.º, n.º 1, alínea a) do Código dos Contratos Públicos",,,,,,Não aplicável.,Não aplicável.,FALSE
"20150352 - Fornecimento e montagem de peças para reparação de equipamentos do INSA, I.P.",Ajuste Direto Regime Geral,Aquisição de bens móveis,"42952000-4, Peças para centrifugadores","Instituto Nacional de Saúde Doutor Ricardo Jorge, I. P. (501427511)","Certilab, Lda (505403013)","4.747,40 €",05-10-2015,28-05-2015,15 dias,"Portugal, Lisboa, Lisboa","Artigo 32.º, n.º 2, alínea a) do Código dos Contratos Públicos",,,,,,Não aplicável.,Não aplicável.,FALSE
Aquisição de serviços de reparação na caldeira de aquecimento de água do sistema AVAC no INSA,Ajuste Direto Regime Geral,Aquisição de serviços,"50000000-5, Serviços de reparação e manutenção","Instituto Nacional de Saúde Doutor Ricardo Jorge, I. P. (501427511)","Inducentro Equipamneto control industrial centro, Lda (502476176)","875,00 €",05-10-2015,22-10-2014,90 dias,"Portugal, Setúbal, Setúbal","Artigo 20.º, n.º 1, alínea a) do Código dos Contratos Públicos",,,,,,Não aplicável.,Não aplicável.,FALSE
Aquisição de um computador portátil,Ajuste Direto Regime Geral,Aquisição de bens móveis,"30213100-6, Computadores portáteis","Instituto Nacional de Saúde Doutor Ricardo Jorge, I. P. (501427511)","Mbit - Computadores e serviços de informática, SA (502764406)","1.141,69 €",05-10-2015,29-09-2015,90 dias,"Portugal, Lisboa, Lisboa","Artigo 20.º, n.º 1, alínea a) do Código dos Contratos Públicos",,,,,,Não aplicável.,Não aplicável.,FALSE
Aquisição de computadores portáteis,Ajuste Direto Regime Geral,Aquisição de bens móveis,"30213100-6, Computadores portáteis",Instituto Nacional de Saúde Dr.Ricardo Jorge(INSA) (501427511),"RASIA -Racionalização de sistemas Administrativos, Lda (500880620)","2.015,60 €",05-10-2015,29-09-2015,90 dias,"Portugal, Lisboa, Lisboa","Artigo 26.º, n.º 1, alínea e) do Código dos Contratos Públicos",,,,,,Não aplicável.,Não aplicável.,FALSE
Aquisição de serviços para inspeção e verificação de microscópio elétronico,Ajuste Direto Regime Geral,Aquisição de serviços,"50400000-9, Serviços de reparação e manutenção de equipamento médico e de precisão","Instituto Nacional de Saúde Doutor Ricardo Jorge, I. P. (501427511)",FEI Europe (W0032378B),"2.360,00 €",05-10-2015,25-05-2015,15 dias,"Portugal, Lisboa, Lisboa","Artigo 20.º, n.º 1, alínea a) do Código dos Contratos Públicos",,,,,,Não aplicável.,Não aplicável.,FALSE
Aquisição de serviços para revisão de quadros elétricos,Ajuste Direto Regime Geral,Aquisição de serviços,"50711000-2, Serviços de reparação e manutenção de equipamento eléctrico em edifícios","Instituto Nacional de Saúde Doutor Ricardo Jorge, I. P. (501427511)",NovaEnergia (502759909),"500,00 €",05-10-2015,17-09-2015,10 dias,"Portugal, Lisboa, Lisboa","Artigo 20.º, n.º 1, alínea a) do Código dos Contratos Públicos",,,,,,Não aplicável.,Não aplicável.,FALSE
Aquisição de serviços para reparação de micropipetas,Ajuste Direto Regime Geral,Aquisição de serviços,"50411000-9, Serviços de reparação e manutenção de aparelhos de medição",Instituto Nacional de Saúde Dr.Ricardo Jorge(INSA) (501427511),"Qlabo - Equipamento de Laboratório & Serviços, Lda (503829994)","255,00 €",05-10-2015,13-07-2015,15 dias,"Portugal, Lisboa, Lisboa","Artigo 20.º, n.º 1, alínea a) do Código dos Contratos Públicos",,,,,,Não aplicável.,Não aplicável.,FALSE
Aquisição de peças para reparação das bombas circuladoras do sistema AVAC do INSA,Ajuste Direto Regime Geral,Aquisição de bens móveis,"42530000-0, Peças para equipamento de refrigeração e congelação e para bombas de calor","Instituto Nacional de Saúde Doutor Ricardo Jorge, I. P. (501427511)","Manindustria - Conservação manutenção industril, Lda (501900314)","6.632,13 €",05-10-2015,30-12-2014,90 dias,"Portugal, Porto, Porto","Artigo 24.º, n.º 1, alínea e) do Código dos Contratos Públicos",,,,,,Não aplicável.,Não aplicável.,FALSE
Aquisição de serviços para descontaminação de duas câmaras de segurança biológica,Ajuste Direto Regime Geral,Aquisição de serviços,"50410000-2, Serviços de reparação e manutenção de aparelhos de medição, ensaio e controlo",Instituto Nacional de Saúde Dr.Ricardo Jorge(INSA) (501427511),TradeLabor (503069442),"325,00 €",05-10-2015,13-04-2015,45 dias,"Portugal, Porto, Porto","Artigo 20.º, n.º 1, alínea a) do Código dos Contratos Públicos",,,,,,Não aplicável.,Não aplicável.,FALSE
Aquisição de serviços para descontaminação de duas câmaras de segurança biológica,Ajuste Direto Regime Geral,Aquisição de serviços,"50410000-2, Serviços de reparação e manutenção de aparelhos de medição, ensaio e controlo",Instituto Nacional de Saúde Dr.Ricardo Jorge(INSA) (501427511),TradeLabor (503069442),"325,00 €",05-10-2015,13-04-2015,45 dias,"Portugal, Lisboa, Lisboa","Artigo 20.º, n.º 1, alínea a) do Código dos Contratos Públicos",,,,,,Não aplicável.,Não aplicável.,FALSE
Aquisição de serviços para reparação de impressora RISO,Ajuste Direto Regime Geral,Aquisição de serviços,"50800000-3, Serviços de reparação e manutenção diversos","Instituto Nacional de Saúde Doutor Ricardo Jorge, I. P. (501427511)","Riso Ibérica, SA (980087783)","150,50 €",05-10-2015,23-04-2015,10 dias,"Portugal, Lisboa, Lisboa","Artigo 20.º, n.º 1, alínea a) do Código dos Contratos Públicos",,,,,,Não aplicável.,Não aplicável.,FALSE
Aquisição de serviços de revisão de equipamento TEMPO no INSA,Ajuste Direto Regime Geral,Aquisição de serviços,"50000000-5, Serviços de reparação e manutenção","Instituto Nacional de Saúde Doutor Ricardo Jorge, I. P. (501427511)","Biomerieux portugal, Lda (501524177)","2.230,00 €",05-10-2015,17-12-2014,90 dias,"Portugal, Lisboa, Lisboa","Artigo 24.º, n.º 1, alínea e) do Código dos Contratos Públicos",,,,,,Não aplicável.,Não aplicável.,FALSE
Aquisição de serviços para alargamento de porta,Ajuste Direto Regime Geral,Aquisição de serviços,"71500000-3, Serviços relacionados com a construção","Instituto Nacional de Saúde Doutor Ricardo Jorge, I. P. (501427511)","Gofermode, Lda (510247474)","1.577,50 €",05-10-2015,18-03-2015,30 dias,"Portugal, Lisboa, Lisboa","Artigo 20.º, n.º 1, alínea a) do Código dos Contratos Públicos",,,,,,Não aplicável.,Não aplicável.,FALSE
Aquisição de serviços para manutenção preventiva do recipiente Asperge,Ajuste Direto Regime Geral,Aquisição de serviços,"50800000-3, Serviços de reparação e manutenção diversos","Instituto Nacional de Saúde Doutor Ricardo Jorge, I. P. (501427511)",Air Liquide (500261512),"367,00 €",05-10-2015,21-04-2015,30 dias,"Portugal, Lisboa, Lisboa","Artigo 20.º, n.º 1, alínea a) do Código dos Contratos Públicos",,,,,,Não aplicável.,Não aplicável.,FALSE
Empreitada de obras públicas para substituição da cobertura do Edifício Principal da Sede.,Concurso público,Empreitadas de obras públicas,"45261900-3, Obras de reparação e manutenção de coberturas","Instituto Nacional de Saúde Dr. Ricardo Jorge, I. P. (501427511)","Tecnaco- Técnicos de Construção, SA (511237219)","109.198,83 €",02-10-2015,12-12-2014,45 dias,"Portugal, Lisboa, Lisboa","Artigo 19.º, alínea b) do Código dos Contratos Públicos",,,,,,Não aplicável.,Não aplicável.,FALSE
Aquisição de Serviços para reparação de Postos de Transformação,Ajuste Direto Regime Geral,Aquisição de serviços,"71314000-2, Serviços relacionados com a energia e afins",Instituto Nacional de Saúde Dr.Ricardo Jorge(INSA) (501427511),VISACASA (506425800),"1.432,26 €",02-10-2015,02-06-2015,30 dias,"Portugal, Setúbal, Setúbal","Artigo 20.º, n.º 1, alínea a) do Código dos Contratos Públicos",,,,,,Não aplicável.,Não aplicável.,FALSE
Aquisição de Serviços para reparação de Postos de Transformação,Ajuste Direto Regime Geral,Aquisição de serviços,"71314000-2, Serviços relacionados com a energia e afins",Instituto Nacional de Saúde Dr.Ricardo Jorge(INSA) (501427511),VISACASA (506425800),"1.412,91 €",02-10-2015,02-06-2015,30 dias,"Portugal, Lisboa, Lisboa","Artigo 20.º, n.º 1, alínea a) do Código dos Contratos Públicos",,,,,,Não aplicável.,Não aplicável.,FALSE
Aquisição de Serviços para reparação de Postos de Transformação,Ajuste Direto Regime Geral,Aquisição de serviços,"71314000-2, Serviços relacionados com a energia e afins",Instituto Nacional de Saúde Dr.Ricardo Jorge(INSA) (501427511),VISACASA (506425800),"1.993,55 €",02-10-2015,02-06-2015,30 dias,"Portugal, Lisboa, Lisboa","Artigo 20.º, n.º 1, alínea a) do Código dos Contratos Públicos",,,,,,Não aplicável.,Não aplicável.,FALSE
"Empreitada de obras públicas """" remodelação do anfiteatro"""" no INSA Lisboa",Concurso público,Empreitadas de obras públicas,"45454000-4, Obras de reestruturação","Instituto Nacional de Saúde Dr. Ricardo Jorge, I. P. (501427511)","Gofermode, Lda (510247474)","46.357,56 €",02-10-2015,05-12-2014,45 dias,"Portugal, Lisboa, Lisboa","Artigo 19.º, alínea b) do Código dos Contratos Públicos",,,,,,Não aplicável.,Não aplicável.,FALSE
Aquisição de material para laboratório para projeto,Ajuste Direto Regime Geral,Aquisição de bens móveis,"38437000-7, Pipetas de laboratório e acessórios",Instituto Nacional de Saúde Dr.Ricardo Jorge(INSA) (501427511),"Fisher Scientific Unipessoal, Lda (506429210)","1.100,00 €",02-10-2015,20-07-2015,90 dias,"Portugal, Lisboa, Lisboa","Artigo 26.º, n.º 1, alínea b) do Código dos Contratos Públicos",,,,,,Não aplicável.,Não aplicável.,FALSE
Aquisição de material de consumo na categoria de manutenção para animais,Ajuste Direto Regime Geral,Aquisição de bens móveis,"15700000-5, Alimentos para animais","Instituto Nacional de Saúde Doutor Ricardo Jorge, I. P. (501427511)",Ultragene (508797527),"8.809,80 €",01-10-2015,21-05-2015,300 dias,"Portugal, Lisboa, Lisboa","Artigo 20.º, n.º 1, alínea a) do Código dos Contratos Públicos",,,,,,Não aplicável.,Não aplicável.,FALSE
Aquisição da unidade de climatização para o INSA,Concurso público,Aquisição de bens móveis,"39717200-3, Aparelhos de ar condicionado","Instituto Nacional de Saúde Dr. Ricardo Jorge, I. P. (501427511)","SorJeclima Montagens e Reparação, Lda (508565839)","15.498,98 €",01-10-2015,28-11-2014,90 dias,"Portugal, Porto, Porto<BR/>Portugal, Setúbal, Setúbal<BR/>Portugal, Lisboa, Lisboa","Artigo 20.º, n.º 1, alínea b) do Código dos Contratos Públicos",,,,,,Não aplicável.,Não aplicável.,FALSE
Aquisição da unidade de climatização para o INSA,Concurso público,Aquisição de bens móveis,"39717200-3, Aparelhos de ar condicionado","Instituto Nacional de Saúde Dr. Ricardo Jorge, I. P. (501427511)",Sistavac SA (502808004),"54.994,41 €",01-10-2015,28-11-2014,90 dias,"Portugal, Setúbal, Setúbal<BR/>Portugal, Porto, Porto<BR/>Portugal, Lisboa, Lisboa","Artigo 20.º, n.º 1, alínea b) do Código dos Contratos Públicos",,,,,,Não aplicável.,Não aplicável.,FALSE
Aquisição de equipamento para fins exclusivos de investigação,Ajuste Direto Regime Geral,Aquisição de bens móveis,"38400000-9, Instrumentos para controlo de propriedades físicas","Instituto Nacional de Saúde Doutor Ricardo Jorge, I. P. (501427511)","Fisher Scientific, Lda (506429210)","456,00 €",01-10-2015,31-03-2015,10 dias,"Portugal, Lisboa, Lisboa","Artigo 26.º, n.º 1, alínea b) do Código dos Contratos Públicos",,,,,,Não aplicável.,Não aplicável.,FALSE
Aquisição de material de consumo clinico - para projeto,Ajuste Direto Regime Geral,Aquisição de bens móveis,"33631600-8, Anti-sépticos e desinfectantes","Instituto Nacional de Saúde Doutor Ricardo Jorge, I. P. (501427511)","B Braun Medical, Lda (501506543)","75,00 €",01-10-2015,02-03-2015,20 dias,"Portugal, Lisboa, Lisboa","Artigo 26.º, n.º 1, alínea b) do Código dos Contratos Públicos",,,,,,Não aplicável.,Não aplicável.,FALSE
Aquisição de toner's para impressora RISO,Ajuste Direto Regime Geral,Aquisição de bens móveis,"30125110-5, Tóner para impressoras laser e aparelhos de fax","Instituto Nacional de Saúde Doutor Ricardo Jorge, I. P. (501427511)","RISO IBÉRICA, SA - FILIAL EM PORTUGAL (980087783)","449,00 €",01-10-2015,19-02-2015,15 dias,"Portugal, Lisboa, Lisboa","Artigo 20.º, n.º 1, alínea a) do Código dos Contratos Públicos",,,,,,Não aplicável.,Não aplicável.,FALSE
Aquisição de reagentes hematológicos do INSA,Ajuste Direto Regime Geral,Aquisição de bens móveis,"33100000-1, Equipamento médico","Instituto Nacional de Saúde Doutor Ricardo Jorge, I. P. (501427511)","ILC Instrumentos laboratório Científicos, Lda (500948208)","342,00 €",01-10-2015,24-09-2015,90 dias,"Portugal, Lisboa, Lisboa","Artigo 20.º, n.º 1, alínea a) do Código dos Contratos Públicos",,,,,,Não aplicável.,Não aplicável.,FALSE
Ações de formação 2015 no INSA,Ajuste Direto Regime Geral,Aquisição de serviços,"80530000-8, Serviços de formação profissional","Instituto Nacional de Saúde Doutor Ricardo Jorge, I. P. (501427511)","Gesperitus - Consultoria de Gestão e formação, Lda (507346874)","1.440,00 €",01-10-2015,28-09-2015,90 dias,"Portugal, Setúbal, Setúbal<BR/>Portugal, Lisboa, Lisboa<BR/>Portugal, Porto, Porto","Artigo 20.º, n.º 1, alínea a) do Código dos Contratos Públicos",,,,,,Não aplicável.,Não aplicável.,FALSE
Aquisição de peças/acessórios para colocação em elevadores,Ajuste Direto Regime Geral,Aquisição de bens móveis,"42419510-4, Peças para elevadores",Instituto Nacional de Saúde Dr.Ricardo Jorge(INSA) (501427511),ThyssenKrupp Elevadores (501445226),"664,50 €",01-10-2015,01-09-2015,30 dias,"Portugal, Porto, Porto","Artigo 26.º, n.º 1, alínea a) do Código dos Contratos Públicos",,,,,,Não aplicável.,Não aplicável.,FALSE
Aquisição de peças/acessórios para colocação em elevadores,Ajuste Direto Regime Geral,Aquisição de bens móveis,"42419510-4, Peças para elevadores",Instituto Nacional de Saúde Dr.Ricardo Jorge(INSA) (501427511),ThyssenKrupp Elevadores (501445226),"4.708,00 €",01-10-2015,01-09-2015,30 dias,"Portugal, Lisboa, Lisboa","Artigo 26.º, n.º 1, alínea a) do Código dos Contratos Públicos",,,,,,Não aplicável.,Não aplicável.,FALSE
Aquisição de reagentes,Ajuste Direto Regime Geral,Aquisição de bens móveis,"33696000-5, Reagentes e meios de contraste","Instituto Nacional de Saúde Doutor Ricardo Jorge, I. P. (501427511)",Sigma Aldrich (980148820),"380,00 €",01-10-2015,01-09-2015,157 dias,"Portugal, Lisboa, Lisboa","Artigo 20.º, n.º 1, alínea a) do Código dos Contratos Públicos",,,,,,Não aplicável.,Não aplicável.,FALSE
Aquisição e colocação de filtros para Autoanalisador,Ajuste Direto Regime Geral,Aquisição de bens móveis,"38434000-6, Analisadores",Instituto Nacional de Saúde Dr.Ricardo Jorge(INSA) (501427511),TECNILAB PORTUGAL (500758158),"766,60 €",01-10-2015,27-08-2015,60 dias,"Portugal, Lisboa, Lisboa","Artigo 20.º, n.º 1, alínea a) do Código dos Contratos Públicos",,,,,,Não aplicável.,Não aplicável.,FALSE
Aquisição de serviços para inicio de procedimento tendente à requisição de serviços do INSA,Ajuste Direto Regime Geral,Aquisição de serviços,"50000000-5, Serviços de reparação e manutenção","Instituto Nacional de Saúde Doutor Ricardo Jorge, I. P. (501427511)",Direcção Geral de Qualificação dos Trabalhadores em Funções Publicas -INA  (600084876),"280,00 €",01-10-2015,29-09-2015,90 dias,"Portugal, Lisboa, Lisboa","Artigo 20.º, n.º 1, alínea a) do Código dos Contratos Públicos",,,,,,Não aplicável.,Não aplicável.,FALSE
Aquisição de serviços de manutenção/assistência técnica dos microscópios e lupas,Ajuste Direto Regime Geral,Aquisição de serviços,"50400000-9, Serviços de reparação e manutenção de equipamento médico e de precisão",Instituto Nacional de Saúde Dr.Ricardo Jorge(INSA) (501427511),Duarte Nuno Lopes Clara (221913408),"5.330,00 €",01-10-2015,28-05-2015,270 dias,"Portugal, Setúbal, Setúbal<BR/>Portugal, Porto, Porto<BR/>Portugal, Lisboa, Lisboa","Artigo 20.º, n.º 1, alínea a) do Código dos Contratos Públicos",,,,,,Não aplicável.,Não aplicável.,FALSE
"20150115 - Aquisição de reagentes para consumo no DDI do INSA, I.P.",Ajuste Direto Regime Geral,Aquisição de bens móveis,"33696500-0, Reagentes de laboratório","Instituto Nacional de Saúde Doutor Ricardo Jorge, I. P. (501427511)","Magnamed, Comercialização de Produtos Médicos, lda (503640476)","2.772,00 €",01-10-2015,24-02-2015,2 dias,"Portugal, Lisboa, Lisboa","Artigo 20.º, n.º 1, alínea a) do Código dos Contratos Públicos",,,,,,Não aplicável.,Não aplicável.,FALSE
Aquisição de tinteiros para impressora Riso,Ajuste Direto Regime Geral,Aquisição de bens móveis,"30125120-8, Tóner para fotocopiadoras","Instituto Nacional de Saúde Doutor Ricardo Jorge, I. P. (501427511)","RISO IBÉRICA, S.A. FILIAL EM PORTUGAL (980087783)","2.767,00 €",01-10-2015,30-07-2015,2 dias,"Portugal, Lisboa, Lisboa","Artigo 20.º, n.º 1, alínea a) do Código dos Contratos Públicos",,,,,,Não aplicável.,Não aplicável.,FALSE
"20150141 - Aquisição de reagentes para o DDI do INSA, I.P.",Ajuste Direto Regime Geral,Aquisição de bens móveis,"33696500-0, Reagentes de laboratório","Instituto Nacional de Saúde Doutor Ricardo Jorge, I. P. (501427511)","Fisher Scienetific Unipessoal, Lda (506429210)","730,00 €",01-10-2015,24-02-2015,2 dias,"Portugal, Lisboa, Lisboa","Artigo 20.º, n.º 1, alínea a) do Código dos Contratos Públicos",,,,,,Não aplicável.,Não aplicável.,FALSE
