Objeto do Contrato,Tipo de Procedimento,Tipo(s) de Contrato,CPVs,Entidade(s) Adjudicante(s),Entidade(s) Adjudicatária(s),Preço Contratual,Data de Publicação,Data de Celebração do Contrato,Prazo de Execução,Local de Execução,Fundamentação,Data de Fecho do Contrato,Preço Total Efetivo,Causas das Alterações ao Prazo,Causas das Alterações ao Preço,Estado,N.º registo do Acordo Quadro,Descrição do Acordo Quadro,Procedimento Centralizado
MATERIAL PARA BLOCO OPERATÓRIO,Ajuste Direto Regime Geral,Aquisição de bens móveis,"33100000-1, Equipamento médico","Instituto Português de Oncologia de Coimbra Francisco Gentil, E. P. E. (506361438)",COVIDIEN PORTUGAL- PRODUTOS DE SAUDE (503413410),"2.832,00 €",25-05-2016,22-01-2015,30 dias,"Portugal, Coimbra, Coimbra","Artigo 20.º, n.º 1, alínea a) do Código dos Contratos Públicos",22-02-2015,"2.832,00 €",,"",,Não aplicável.,Não aplicável.,FALSE
MATERIAL PARA BLOCO OPERATÓRIO,Ajuste Direto Regime Geral,Aquisição de bens móveis,"33100000-1, Equipamento médico","Instituto Português de Oncologia de Coimbra Francisco Gentil, E. P. E. (506361438)",EXPOMEDICA (501886621),"625,00 €",25-05-2016,22-01-2015,30 dias,"Portugal, Coimbra, Coimbra","Artigo 20.º, n.º 1, alínea a) do Código dos Contratos Públicos",22-02-2015,"1.250,00 €",,"",,Não aplicável.,Não aplicável.,FALSE
ARTIGOS PARA CIRURGIA ENDOSCÓPICA DIGESTIVA,Ajuste Direto Regime Geral,Aquisição de bens móveis,"33100000-1, Equipamento médico","Instituto Português de Oncologia de Coimbra Francisco Gentil, E. P. E. (506361438)","ENDOTECNICA - MAT.MEDICO CIRURGICO, LDA (503818348)","2.879,50 €",25-05-2016,11-02-2015,61 dias,"Portugal, Coimbra, Coimbra","Artigo 20.º, n.º 1, alínea a) do Código dos Contratos Públicos",20-04-2015,"3.840,00 €",,"",,Não aplicável.,Não aplicável.,FALSE
PINÇA SELAGEM P/TIROIDE,Ajuste Direto Regime Geral,Aquisição de bens móveis,"33100000-1, Equipamento médico","Instituto Português de Oncologia de Coimbra Francisco Gentil, E. P. E. (506361438)","BACELAR & IRMAO, LDA (500532818)","1.522,50 €",25-05-2016,02-02-2015,91 dias,"Portugal, Coimbra, Coimbra","Artigo 20.º, n.º 1, alínea a) do Código dos Contratos Públicos",30-04-2015,"1.522,50 €",,"",,Não aplicável.,Não aplicável.,FALSE
MANTAS DE AQUECIMENTO COM DISPONIBILIZAÇÃO DE EQUIPAMENTO,Ajuste Direto Regime Geral,Aquisição de bens móveis,"33100000-1, Equipamento médico","Instituto Português de Oncologia de Coimbra Francisco Gentil, E. P. E. (506361438)","3M PORTUGAL, LDA (500193940)","25.700,00 €",25-05-2016,11-11-2015,107 dias,"Portugal, Coimbra, Coimbra","Artigo 20.º, n.º 1, alínea a) do Código dos Contratos Públicos",31-12-2015,"5.090,00 €",,Diminuição das quantidades previstas consumir em virtude do número de doentes.,,Não aplicável.,Não aplicável.,FALSE
MATERIAL GASTRO I,Ajuste Direto Regime Geral,Aquisição de bens móveis,"33100000-1, Equipamento médico","Instituto Português de Oncologia de Coimbra Francisco Gentil, E. P. E. (506361438)",INTERSURGICAL PORTUGAL (503480045),"86,72 €",25-05-2016,20-01-2015,8 dias,"Portugal, Coimbra, Coimbra","Artigo 20.º, n.º 1, alínea a) do Código dos Contratos Públicos",23-01-2015,"86,72 €",,"",,Não aplicável.,Não aplicável.,FALSE
MATERIAL GASTRO I,Ajuste Direto Regime Geral,Aquisição de bens móveis,"33100000-1, Equipamento médico","Instituto Português de Oncologia de Coimbra Francisco Gentil, E. P. E. (506361438)","OLYMPUS IBERIA, S.A.U.  SUCURSAL EM PORTUGAL (980474710)","1.587,52 €",25-05-2016,20-01-2015,8 dias,"Portugal, Coimbra, Coimbra","Artigo 20.º, n.º 1, alínea a) do Código dos Contratos Públicos",28-01-2015,"1.587,52 €",,"",,Não aplicável.,Não aplicável.,FALSE
MATERIAL GASTRO I,Ajuste Direto Regime Geral,Aquisição de bens móveis,"33100000-1, Equipamento médico","Instituto Português de Oncologia de Coimbra Francisco Gentil, E. P. E. (506361438)",H.R. - HOSPITALAR LDA (501895558),"14,39 €",25-05-2016,20-01-2015,8 dias,"Portugal, Coimbra, Coimbra","Artigo 20.º, n.º 1, alínea a) do Código dos Contratos Públicos",23-01-2015,"14,39 €",,"",,Não aplicável.,Não aplicável.,FALSE
MATERIAL GASTRO I,Ajuste Direto Regime Geral,Aquisição de bens móveis,"33100000-1, Equipamento médico","Instituto Português de Oncologia de Coimbra Francisco Gentil, E. P. E. (506361438)","ALVES & CA. (IRMAOS), LDA (500310068)","1.145,80 €",25-05-2016,20-01-2015,8 dias,"Portugal, Coimbra, Coimbra","Artigo 20.º, n.º 1, alínea a) do Código dos Contratos Públicos",26-01-2015,"1.145,80 €",,"",,Não aplicável.,Não aplicável.,FALSE
LUVAS P/MANIPULAÇÃO CITOSTÁTICOS,Ajuste Direto Regime Geral,Aquisição de bens móveis,"33100000-1, Equipamento médico","Instituto Português de Oncologia de Coimbra Francisco Gentil, E. P. E. (506361438)",MEDLINE INTERNATIONAL PORTUGAL UNIPESSOAL LDA (510533515),"1.794,00 €",24-05-2016,15-05-2015,260 dias,"Portugal, Coimbra, Coimbra","Artigo 20.º, n.º 1, alínea a) do Código dos Contratos Públicos",31-12-2015,"1.932,00 €",,Aumento das quantidades consumidas em virtude do número de doentes,,Não aplicável.,Não aplicável.,FALSE
ELECTRODOS VERSA POINT ANSA TWIZZLE,Ajuste Direto Regime Geral,Aquisição de bens móveis,"33100000-1, Equipamento médico","Instituto Português de Oncologia de Coimbra Francisco Gentil, E. P. E. (506361438)",JOHNSON & JOHNSON (500153370),"2.794,40 €",24-05-2016,09-12-2015,20 dias,"Portugal, Coimbra, Coimbra","Artigo 24.º, n.º 1, alínea e) do Código dos Contratos Públicos",29-12-2015,"2.794,40 €",,"",,Não aplicável.,Não aplicável.,FALSE
SERVIÇO TECNICO DE AUDIOLOGIA,Ajuste Direto Regime Geral,Aquisição de serviços,"85121240-7, Serviços de otorrinolaringologia ou audiologia","Instituto Português de Oncologia de Coimbra Francisco Gentil, E. P. E. (506361438)",ANA FILIPA GONCALVES DE CARVALHO (236297627),"5.245,00 €",24-05-2016,28-03-2016,290 dias,"Portugal, Coimbra, Coimbra","Artigo 20.º, n.º 1, alínea a) do Código dos Contratos Públicos","","",,"",,Não aplicável.,Não aplicável.,FALSE
SERVIÇO ASSESSORIA TEC. INSTALACOES ELECTRICAS,Ajuste Direto Regime Geral,Aquisição de serviços,"51100000-3, Serviços de instalação de equipamento eléctrico e mecânico","Instituto Português de Oncologia de Coimbra Francisco Gentil, E. P. E. (506361438)",ANTONIO PIRES TAVARES FRANCA (172463556),"5.400,00 €",24-05-2016,28-01-2016,365 dias,"Portugal, Coimbra, Coimbra","Artigo 20.º, n.º 1, alínea a) do Código dos Contratos Públicos","","",,"",,Não aplicável.,Não aplicável.,FALSE
SERVIÇO ASSESSORIA PREVENÇÃO DO RISCO INCENDIO,Ajuste Direto Regime Geral,Aquisição de serviços,"75251110-4, Serviços de prevenção de incêndios","Instituto Português de Oncologia de Coimbra Francisco Gentil, E. P. E. (506361438)",CODIGO PRODIGIO UNIPESSOAL LDA (510728855),"8.729,52 €",24-05-2016,16-12-2015,365 dias,"Portugal, Coimbra, Coimbra","Artigo 20.º, n.º 1, alínea a) do Código dos Contratos Públicos","","",,"",,Não aplicável.,Não aplicável.,FALSE
SERVIÇO DE ASSISTENCIA RELIGIOSA,Ajuste Direto Regime Geral,Aquisição de serviços,"98131000-0, Serviços prestados por organizações religiosas","Instituto Português de Oncologia de Coimbra Francisco Gentil, E. P. E. (506361438)",DIOCESE DE COIMBRA (500792305),"8.974,32 €",24-05-2016,16-12-2015,365 dias,"Portugal, Coimbra, Coimbra","Artigo 20.º, n.º 1, alínea a) do Código dos Contratos Públicos","","",,"",,Não aplicável.,Não aplicável.,FALSE
SERVIÇO ASSESSORIA VETERINARIA,Ajuste Direto Regime Geral,Aquisição de serviços,"85200000-1, Serviços de veterinária","Instituto Português de Oncologia de Coimbra Francisco Gentil, E. P. E. (506361438)",LUISA MARGARIDA PEDROSA SANTOS MONTEIRO (219869790),"5.551,92 €",24-05-2016,16-12-2015,365 dias,"Portugal, Coimbra, Coimbra","Artigo 20.º, n.º 1, alínea a) do Código dos Contratos Públicos","","",,"",,Não aplicável.,Não aplicável.,FALSE
SERVIÇO DE ASSESSORIA JURIDICA,Ajuste Direto Regime Geral,Aquisição de serviços,"79100000-5, Serviços jurídicos","Instituto Português de Oncologia de Coimbra Francisco Gentil, E. P. E. (506361438)",LUCIA LIMA MENDES (176786570),"22.140,00 €",24-05-2016,22-01-2016,365 dias,"Portugal, Coimbra, Coimbra","Artigo 20.º, n.º 1, alínea a) do Código dos Contratos Públicos","","",,"",,Não aplicável.,Não aplicável.,FALSE
SERVIÇO MED. CARDIOLOGIA,Ajuste Direto Regime Geral,Aquisição de serviços,"85121231-1, Serviços de cardiologia","Instituto Português de Oncologia de Coimbra Francisco Gentil, E. P. E. (506361438)","PONTO COMUM - SERVIÇOS MÉDICOS, LDA (507296435)","46.080,00 €",24-05-2016,28-03-2016,290 dias,"Portugal, Coimbra, Coimbra","Artigo 20.º, n.º 1, alínea a) do Código dos Contratos Públicos","","",,"",,Não aplicável.,Não aplicável.,FALSE
SERVIÇO MED. IMAGIOLOGIA,Ajuste Direto Regime Geral,Aquisição de serviços,"85150000-5, Serviços de imagiologia médica","Instituto Português de Oncologia de Coimbra Francisco Gentil, E. P. E. (506361438)","IOES E NEUTROES - IMAGENS MEDICAS, LDA (508674298)","46.800,00 €",24-05-2016,03-03-2016,365 dias,"Portugal, Coimbra, Coimbra","Artigo 20.º, n.º 1, alínea a) do Código dos Contratos Públicos","","",,"",,Não aplicável.,Não aplicável.,FALSE
SERVIÇO MED. NEUROCIRURGIA,Ajuste Direto Regime Geral,Aquisição de serviços,"85121000-3, Serviços de prática médica","Instituto Português de Oncologia de Coimbra Francisco Gentil, E. P. E. (506361438)","ARMANDO ROCHA, LDA (504642294)","15.000,00 €",24-05-2016,28-03-2016,290 dias,"Portugal, Coimbra, Coimbra","Artigo 20.º, n.º 1, alínea a) do Código dos Contratos Públicos","","",,"",,Não aplicável.,Não aplicável.,FALSE
NP LENALIDOMIDA-CELGENE,Ajuste Direto Regime Geral,Aquisição de bens móveis,"33000000-0, Equipamento médico, medicamentos e produtos para cuidados pessoais","Instituto Português de Oncologia de Coimbra Francisco Gentil, E. P. E. (506361438)","CELGENE, SOCIEDADE UNIPESSOAL, LDA (507791690)","162.514,17 €",23-05-2016,12-02-2015,321 dias,"Portugal, Coimbra, Coimbra","Artigo 24.º, n.º 1, alínea e) do Código dos Contratos Públicos",21-09-2015,"21.668,56 €",,Diminuição das necessidades,,Não aplicável.,Não aplicável.,FALSE
COLA HEMOSTÁTICA,Ajuste Direto Regime Geral,Aquisição de bens móveis,"33000000-0, Equipamento médico, medicamentos e produtos para cuidados pessoais","Instituto Português de Oncologia de Coimbra Francisco Gentil, E. P. E. (506361438)","LUSOPALEX, LDA (503531588)","8.400,00 €",23-05-2016,29-01-2015,337 dias,"Portugal, Coimbra, Coimbra","Artigo 24.º, n.º 1, alínea e) do Código dos Contratos Públicos",07-12-2015,"9.800,00 €",,"",,Não aplicável.,Não aplicável.,FALSE
REALIZACAO DE PET,Ajuste Direto Regime Geral,Aquisição de serviços,"85121000-3, Serviços de prática médica","Instituto Português de Oncologia de Coimbra Francisco Gentil, E. P. E. (506361438)",ICNAS - LAB. MED.NUCLEAR - UNIV.COIMBRA (501617582),"100.230,00 €",23-05-2016,30-12-2015,365 dias,"Portugal, Coimbra, Coimbra","Artigo 20.º, n.º 1, alínea a) do Código dos Contratos Públicos","","",,"",,Não aplicável.,Não aplicável.,FALSE
ALPRAZOLAM,Ajuste Direto Regime Geral,Aquisição de bens móveis,"33000000-0, Equipamento médico, medicamentos e produtos para cuidados pessoais","Instituto Português de Oncologia de Coimbra Francisco Gentil, E. P. E. (506361438)","LAB.ATRAL, S.A. (500162085)","196,50 €",23-05-2016,28-01-2015,336 dias,"Portugal, Coimbra, Coimbra","Artigo 24.º, n.º 1, alínea e) do Código dos Contratos Públicos",26-10-2015,"196,50 €",,"",,Não aplicável.,Não aplicável.,FALSE
MED AUE COLESTIRAMINA,Ajuste Direto Regime Geral,Aquisição de bens móveis,"33000000-0, Equipamento médico, medicamentos e produtos para cuidados pessoais","Instituto Português de Oncologia de Coimbra Francisco Gentil, E. P. E. (506361438)","BRISTOL-MYERS SQUIBB FARM.PORT.,S.A. (500048193)","114,15 €",23-05-2016,22-01-2015,344 dias,"Portugal, Coimbra, Coimbra","Artigo 24.º, n.º 1, alínea e) do Código dos Contratos Públicos",12-08-2015,"114,15 €",,"",,Não aplicável.,Não aplicável.,FALSE
REALIZACAO DE RESSONANCIAS MAGNETICAS AO EXTERIOR,Concurso público,Aquisição de serviços,"85150000-5, Serviços de imagiologia médica","Instituto Português de Oncologia de Coimbra Francisco Gentil, E. P. E. (506361438)","DIATON - CENTRO TOMOG. COMPUTORIZADA, SA (500972974)","67.000,01 €",23-05-2016,01-02-2016,334 dias,"Portugal, Coimbra, Coimbra","Artigo 20.º, n.º 1, alínea b) do Código dos Contratos Públicos","","",,"",,Não aplicável.,Não aplicável.,FALSE
Med AUE - Azotato de Prata,Ajuste Direto Regime Geral,Aquisição de bens móveis,"33000000-0, Equipamento médico, medicamentos e produtos para cuidados pessoais","Instituto Português de Oncologia de Coimbra Francisco Gentil, E. P. E. (506361438)","B.BRAUN MEDICAL,LDA (501506543)","248,00 €",23-05-2016,14-01-2015,352 dias,"Portugal, Coimbra, Coimbra","Artigo 24.º, n.º 1, alínea e) do Código dos Contratos Públicos",01-09-2015,"148,80 €",,Diminuição das necessidades,,Não aplicável.,Não aplicável.,FALSE
REALIZACAO DE ESTUDOS HISTOLOGICOS,Ajuste Direto Regime Geral,Aquisição de serviços,"85145000-7, Serviços prestados por laboratórios médicos","Instituto Português de Oncologia de Coimbra Francisco Gentil, E. P. E. (506361438)",CEDAP-CENTRO DIAG. ANATOMO - PATOLOGICO (504494562),"112.216,00 €",23-05-2016,23-12-2015,365 dias,"Portugal, Coimbra, Coimbra","Artigo 27.º, n.º 1, alínea a) do Código dos Contratos Públicos","","",,"",,Não aplicável.,Não aplicável.,FALSE
MITOTANO,Ajuste Direto Regime Geral,Aquisição de bens móveis,"33000000-0, Equipamento médico, medicamentos e produtos para cuidados pessoais","Instituto Português de Oncologia de Coimbra Francisco Gentil, E. P. E. (506361438)",HRA PHARMA IBERIA S L SUCURSAL EM PORTUGAL (980502012),"31.200,00 €",23-05-2016,07-04-2015,269 dias,"Portugal, Coimbra, Coimbra","Artigo 24.º, n.º 1, alínea e) do Código dos Contratos Públicos",28-12-2015,"39.000,00 €",,"",,Não aplicável.,Não aplicável.,FALSE
REALIZACAO DE CRIOCIRURGIA UROLOGICA,Ajuste Direto Regime Geral,Aquisição de serviços,"85121292-6, Serviços de urologia","Instituto Português de Oncologia de Coimbra Francisco Gentil, E. P. E. (506361438)",EKRIOR - LDA (508115175),"27.000,00 €",23-05-2016,14-12-2015,365 dias,"Portugal, Coimbra, Coimbra","Artigo 20.º, n.º 1, alínea a) do Código dos Contratos Públicos","","",,"",,Não aplicável.,Não aplicável.,FALSE
REALIZACAO DE CINTIGRAFIAS MIOCARDICAS,Ajuste Direto Regime Geral,Aquisição de serviços,"85121000-3, Serviços de prática médica","Instituto Português de Oncologia de Coimbra Francisco Gentil, E. P. E. (506361438)","DIATON - CENTRO TOMOG. COMPUTORIZADA, SA (500972974)","32.760,00 €",23-05-2016,28-12-2015,1095 dias,"Portugal, Coimbra, Coimbra","Artigo 20.º, n.º 1, alínea a) do Código dos Contratos Públicos","","",,"",,Não aplicável.,Não aplicável.,FALSE
SERVICOS DE SEQUENCIACAO E LEITURA DE FRAGMENTOS DE DNA,Ajuste Direto Regime Geral,Aquisição de serviços,"71620000-0, Serviços de análise","Instituto Português de Oncologia de Coimbra Francisco Gentil, E. P. E. (506361438)",STAB VIDA (505087723),"32.790,00 €",23-05-2016,18-12-2015,365 dias,"Portugal, Coimbra, Coimbra","Artigo 20.º, n.º 1, alínea a) do Código dos Contratos Públicos","","",,"",,Não aplicável.,Não aplicável.,FALSE
SERV. FISCAL UNICO,Ajuste Direto Regime Geral,Aquisição de serviços,"66170000-2, Serviços de consultoria financeira, de processamento de transacções financeiras e das câmaras de compensação","Instituto Português de Oncologia de Coimbra Francisco Gentil, E. P. E. (506361438)","CFA-CRAVO, FORTES, ANTAO & ASSOC., SROC, LDA (502556129)","11.824,58 €",23-05-2016,12-02-2016,323 dias,"Portugal, Coimbra, Coimbra","Artigo 24.º, n.º 1, alínea e) do Código dos Contratos Públicos","","",,"",,Não aplicável.,Não aplicável.,FALSE
NP PERTUZUMAB ROCHE,Ajuste Direto Regime Geral,Aquisição de bens móveis,"33000000-0, Equipamento médico, medicamentos e produtos para cuidados pessoais","Instituto Português de Oncologia de Coimbra Francisco Gentil, E. P. E. (506361438)","ROCHE FARMACEUTICA QUIMICA, LDA (500233810)","55.233,00 €",23-05-2016,22-04-2015,254 dias,"Portugal, Coimbra, Coimbra","Artigo 24.º, n.º 1, alínea e) do Código dos Contratos Públicos",16-12-2015,"176.745,60 €",,"",,Não aplicável.,Não aplicável.,FALSE
NP CABAZITAXEL,Ajuste Direto Regime Geral,Aquisição de bens móveis,"33000000-0, Equipamento médico, medicamentos e produtos para cuidados pessoais","Instituto Português de Oncologia de Coimbra Francisco Gentil, E. P. E. (506361438)","SANOFI-PRODUTOS FARMACEUTICOS,LD (500134960)","158.840,00 €",23-05-2016,05-02-2015,330 dias,"Portugal, Coimbra, Coimbra","Artigo 24.º, n.º 1, alínea e) do Código dos Contratos Públicos",07-12-2015,"95.304,00 €",,Diminuição das necessidades,,Não aplicável.,Não aplicável.,FALSE
NP AZACITIDINA,Ajuste Direto Regime Geral,Aquisição de bens móveis,"33000000-0, Equipamento médico, medicamentos e produtos para cuidados pessoais","Instituto Português de Oncologia de Coimbra Francisco Gentil, E. P. E. (506361438)","CELGENE, SOCIEDADE UNIPESSOAL, LDA (507791690)","24.780,00 €",23-05-2016,23-12-2014,365 dias,"Portugal, Coimbra, Coimbra","Artigo 24.º, n.º 1, alínea e) do Código dos Contratos Públicos",21-12-2015,"24.426,00 €",,Diminuição das necessidades,,Não aplicável.,Não aplicável.,FALSE
