Objeto do Contrato,Tipo de Procedimento,Tipo(s) de Contrato,CPVs,Entidade(s) Adjudicante(s),Entidade(s) Adjudicatária(s),Preço Contratual,Data de Publicação,Data de Celebração do Contrato,Prazo de Execução,Local de Execução,Fundamentação,Data de Fecho do Contrato,Preço Total Efetivo,Causas das Alterações ao Prazo,Causas das Alterações ao Preço,Estado,N.º registo do Acordo Quadro,Descrição do Acordo Quadro,Procedimento Centralizado
Execução da obra de substituição da cobertura do edifício da CDT de Beja,Ajuste Direto Regime Geral,Empreitadas de obras públicas,"71000000-8, Serviços de arquitectura, construção, engenharia e inspecção",Serviço de Intervenção nos Comportamentos Aditivos e nas Dependências (600084884),"Loviril - Construção Civil Unipessoal, Lda (500924139)","19.900,00 €",27-11-2014,24-03-2014,60 dias,"Portugal, Beja, Beja","Artigo 19.º, alínea a) do Código dos Contratos Públicos",,,,,,Não aplicável.,Não aplicável.,FALSE
Aquisição de Serviços de investigação no âmbito do projeto BISTAIRS,Ajuste Direto Regime Geral,Aquisição de serviços,"73200000-4, Serviços de consultoria em matéria de investigação e desenvolvimento",Serviço de Intervenção nos Comportamentos Aditivos e nas Dependências (600084884),"Jorge Barroso Dias - P.S., Lda (504071939)","9.100,00 €",27-11-2014,29-10-2014,70 dias,"Portugal, Lisboa, Lisboa","Artigo 20.º, n.º 1, alínea a) do Código dos Contratos Públicos",,,,,,Não aplicável.,Não aplicável.,FALSE
